{
  "id": 40101,
  "series": 40100,
  "damageRatio": "EQ",
  "descTextMapHash": 1986011895,
  "EKEKACCODOE": 2463311470,
  "luaPath": "Actor/Quest/EQ40101",
  "suggestTrackMainQuestList": [
    40102
  ],
  "rewardIdList": [
    140101
  ],
  "chapterId": 10140,
  "activityId": 2021,
  "subQuests": [
    {
      "subId": 4010101,
      "mainId": 40101,
      "order": 1,
      "descTextMapHash": 2270591764,
      "finishCond": [
        {
          "damageRatio": "QUEST_CONTENT_GAME_TIME_TICK",
          "param": [
            1,
            0
          ]
        }
      ],
      "guide": {
        "MLAHIFLGIGJ": ""
      },
      "guideHint": {
        "param1": ""
      },
      "isRewind": true,
      "versionBegin": "",
      "versionEnd": ""
    },
    {
      "subId": 4010102,
      "mainId": 40101,
      "order": 12,
      "showType": "QUEST_HIDDEN",
      "finishCond": [
        {
          "damageRatio": "QUEST_CONTENT_QUEST_STATE_EQUAL",
          "param": [
            4010107,
            3
          ]
        }
      ],
      "guide": {
        "MLAHIFLGIGJ": ""
      },
      "guideHint": {
        "param1": ""
      },
      "finishExec": [
        {
          "damageRatio": "QUEST_EXEC_UNREGISTER_DYNAMIC_GROUP",
          "param": [
            "133308921"
          ]
        }
      ],
      "versionBegin": "",
      "versionEnd": ""
    },
    {
      "subId": 4010103,
      "mainId": 40101,
      "order": 2,
      "descTextMapHash": 3305621100,
      "JIFODJPFKDF": [
        330311,
        330811,
        330810
      ],
      "finishCond": [
        {
          "damageRatio": "QUEST_CONTENT_COMPLETE_TALK",
          "param": [
            4010143,
            0
          ]
        }
      ],
      "guide": {
        "damageRatio": "QUEST_GUIDE_LOCATION",
        "param": [
          "Q4010103_guide",
          "25"
        ],
        "guideScene": 3,
        "guideStyle": "QUEST_GUIDE_STYLE_TARGET",
        "guideLayer": "QUEST_GUIDE_LAYER_SCENE",
        "MLAHIFLGIGJ": ""
      },
      "guideHint": {
        "param1": ""
      },
      "isRewind": true,
      "finishExec": [
        {
          "damageRatio": "QUEST_EXEC_SET_QUEST_VAR",
          "param": [
            "0",
            "1",
            "4010103"
          ]
        },
        {
          "damageRatio": "QUEST_EXEC_SET_QUEST_VAR",
          "param": [
            "1",
            "1",
            "4010103"
          ]
        },
        {
          "damageRatio": "QUEST_EXEC_SET_QUEST_VAR",
          "param": [
            "2",
            "1",
            "4010103"
          ]
        },
        {
          "damageRatio": "QUEST_EXEC_SET_GAME_TIME",
          "param": [
            "12"
          ]
        }
      ],
      "versionBegin": "",
      "versionEnd": ""
    },
    {
      "subId": 4010104,
      "mainId": 40101,
      "order": 3,
      "descTextMapHash": 3820014548,
      "stepDescTextMapHash": 1505276981,
      "guideTipsTextMapHash": 2798501902,
      "JIFODJPFKDF": [
        330311,
        330811,
        330810
      ],
      "finishCond": [
        {
          "damageRatio": "QUEST_CONTENT_COMPLETE_TALK",
          "param": [
            4010104,
            0
          ]
        },
        {
          "damageRatio": "QUEST_CONTENT_COMPLETE_TALK",
          "param": [
            4010144,
            0
          ]
        }
      ],
      "guide": {
        "MLAHIFLGIGJ": ""
      },
      "guideHint": {
        "param1": ""
      },
      "isRewind": true,
      "finishExec": [
        {
          "damageRatio": "QUEST_EXEC_SET_GAME_TIME",
          "param": [
            "13"
          ]
        }
      ],
      "versionBegin": "",
      "versionEnd": ""
    },
    {
      "subId": 4010105,
      "mainId": 40101,
      "order": 4,
      "descTextMapHash": 2074888620,
      "stepDescTextMapHash": 2386254485,
      "JIFODJPFKDF": [
        330311,
        330811
      ],
      "finishCond": [
        {
          "damageRatio": "QUEST_CONTENT_COMPLETE_TALK",
          "param": [
            4010105,
            0
          ]
        }
      ],
      "guide": {
        "damageRatio": "QUEST_GUIDE_LOCATION",
        "param": [
          "Q4010105_N1063",
          "15"
        ],
        "guideScene": 3,
        "guideStyle": "QUEST_GUIDE_STYLE_TARGET",
        "guideLayer": "QUEST_GUIDE_LAYER_SCENE",
        "MLAHIFLGIGJ": ""
      },
      "guideHint": {
        "param1": ""
      },
      "isRewind": true,
      "finishExec": [
        {
          "damageRatio": "QUEST_EXEC_UNREGISTER_DYNAMIC_GROUP",
          "param": [
            "133308914"
          ]
        },
        {
          "damageRatio": "QUEST_EXEC_UNREGISTER_DYNAMIC_GROUP",
          "param": [
            "133308913"
          ]
        },
        {
          "damageRatio": "QUEST_EXEC_UNREGISTER_DYNAMIC_GROUP",
          "param": [
            "133308916"
          ]
        }
      ],
      "versionBegin": "",
      "versionEnd": ""
    },
    {
      "subId": 4010106,
      "mainId": 40101,
      "order": 5,
      "descTextMapHash": 3541960804,
      "stepDescTextMapHash": 2493194277,
      "guideTipsTextMapHash": 2017466054,
      "JIFODJPFKDF": [
        330311,
        330811
      ],
      "finishCond": [
        {
          "damageRatio": "QUEST_CONTENT_COMPLETE_TALK",
          "param": [
            4010106,
            0
          ]
        }
      ],
      "guide": {
        "MLAHIFLGIGJ": ""
      },
      "guideHint": {
        "param1": ""
      },
      "isRewind": true,
      "versionBegin": "",
      "versionEnd": ""
    },
    {
      "subId": 4010107,
      "mainId": 40101,
      "order": 6,
      "descTextMapHash": 2777067972,
      "stepDescTextMapHash": 3000163621,
      "guideTipsTextMapHash": 2019713878,
      "JIFODJPFKDF": [
        330311,
        330811
      ],
      "finishCond": [
        {
          "damageRatio": "QUEST_CONTENT_COMPLETE_TALK",
          "param": [
            4010107,
            0
          ]
        }
      ],
      "guide": {
        "MLAHIFLGIGJ": ""
      },
      "guideHint": {
        "param1": ""
      },
      "isRewind": true,
      "finishExec": [
        {
          "damageRatio": "QUEST_EXEC_SET_QUEST_VAR",
          "param": [
            "0",
            "2",
            "4010107"
          ]
        }
      ],
      "versionBegin": "",
      "versionEnd": ""
    },
    {
      "subId": 4010108,
      "mainId": 40101,
      "order": 7,
      "descTextMapHash": 2771287276,
      "stepDescTextMapHash": 4186620861,
      "JIFODJPFKDF": [
        330311
      ],
      "finishCond": [
        {
          "damageRatio": "QUEST_CONTENT_COMPLETE_TALK",
          "param": [
            4010108,
            0
          ]
        }
      ],
      "guide": {
        "damageRatio": "QUEST_GUIDE_LOCATION",
        "param": [
          "Q4010103_guide",
          "20"
        ],
        "guideScene": 3,
        "guideStyle": "QUEST_GUIDE_STYLE_TARGET",
        "guideLayer": "QUEST_GUIDE_LAYER_SCENE",
        "MLAHIFLGIGJ": ""
      },
      "guideHint": {
        "param1": ""
      },
      "isRewind": true,
      "finishExec": [
        {
          "damageRatio": "QUEST_EXEC_SET_GAME_TIME",
          "param": [
            "18"
          ]
        }
      ],
      "versionBegin": "",
      "versionEnd": ""
    },
    {
      "subId": 4010109,
      "mainId": 40101,
      "order": 8,
      "descTextMapHash": 1466106300,
      "stepDescTextMapHash": 444694597,
      "guideTipsTextMapHash": 3481714094,
      "JIFODJPFKDF": [
        330311
      ],
      "finishCond": [
        {
          "damageRatio": "QUEST_CONTENT_COMPLETE_TALK",
          "param": [
            4010109,
            0
          ]
        }
      ],
      "guide": {
        "MLAHIFLGIGJ": ""
      },
      "guideHint": {
        "param1": ""
      },
      "isRewind": true,
      "finishExec": [
        {
          "damageRatio": "QUEST_EXEC_SET_GAME_TIME",
          "param": [
            "19"
          ]
        }
      ],
      "versionBegin": "",
      "versionEnd": ""
    },
    {
      "subId": 4010110,
      "mainId": 40101,
      "order": 9,
      "descTextMapHash": 2573837020,
      "stepDescTextMapHash": 962106149,
      "JIFODJPFKDF": [
        330311
      ],
      "finishCond": [
        {
          "damageRatio": "QUEST_CONTENT_FINISH_PLOT",
          "param": [
            4010110,
            0
          ]
        }
      ],
      "failCond": [
        {
          "damageRatio": "QUEST_CONTENT_ANY_MANUAL_TRANSPORT",
          "param": [
            0,
            0
          ]
        }
      ],
      "guide": {
        "damageRatio": "QUEST_GUIDE_NPC",
        "param": [
          "1063"
        ],
        "guideScene": 3,
        "guideStyle": "QUEST_GUIDE_STYLE_TARGET",
        "guideLayer": "QUEST_GUIDE_LAYER_SCENE",
        "MLAHIFLGIGJ": ""
      },
      "guideHint": {
        "param1": ""
      },
      "finishExec": [
        {
          "damageRatio": "QUEST_EXEC_UNREGISTER_DYNAMIC_GROUP",
          "param": [
            "133308915",
            "1"
          ]
        }
      ],
      "failExec": [
        {
          "damageRatio": "QUEST_EXEC_ROLLBACK_QUEST",
          "param": [
            "4010109"
          ]
        }
      ],
      "versionBegin": "",
      "versionEnd": ""
    },
    {
      "subId": 4010111,
      "mainId": 40101,
      "order": 10,
      "descTextMapHash": 1794147748,
      "stepDescTextMapHash": 2757214837,
      "JIFODJPFKDF": [
        330311
      ],
      "finishCond": [
        {
          "damageRatio": "QUEST_CONTENT_COMPLETE_TALK",
          "param": [
            4010111,
            0
          ]
        }
      ],
      "guide": {
        "damageRatio": "QUEST_GUIDE_NPC",
        "param": [
          "1063"
        ],
        "guideScene": 3,
        "guideStyle": "QUEST_GUIDE_STYLE_POINT",
        "guideLayer": "QUEST_GUIDE_LAYER_SCENE",
        "MLAHIFLGIGJ": ""
      },
      "guideHint": {
        "param1": ""
      },
      "isRewind": true,
      "finishExec": [
        {
          "damageRatio": "QUEST_EXEC_UNREGISTER_DYNAMIC_GROUP",
          "param": [
            "133303590"
          ]
        },
        {
          "damageRatio": "QUEST_EXEC_SET_QUEST_VAR",
          "param": [
            "1",
            "2",
            "4010114"
          ]
        },
        {
          "damageRatio": "QUEST_EXEC_SET_GAME_TIME",
          "param": [
            "20"
          ]
        }
      ],
      "versionBegin": "",
      "versionEnd": ""
    },
    {
      "subId": 4010112,
      "mainId": 40101,
      "order": 11,
      "descTextMapHash": 606661604,
      "stepDescTextMapHash": 1929286125,
      "guideTipsTextMapHash": 3412955550,
      "JIFODJPFKDF": [
        330311
      ],
      "finishCond": [
        {
          "damageRatio": "QUEST_CONTENT_COMPLETE_TALK",
          "param": [
            4010112,
            0
          ]
        }
      ],
      "guide": {
        "MLAHIFLGIGJ": ""
      },
      "guideHint": {
        "param1": ""
      },
      "isRewind": true,
      "finishExec": [
        {
          "damageRatio": "QUEST_EXEC_SET_QUEST_VAR",
          "param": [
            "2",
            "2",
            "4010112"
          ]
        }
      ],
      "versionBegin": "",
      "versionEnd": ""
    },
    {
      "subId": 4010113,
      "mainId": 40101,
      "order": 15,
      "descTextMapHash": 3733806532,
      "stepDescTextMapHash": 4128780061,
      "JIFODJPFKDF": [
        330311
      ],
      "finishCond": [
        {
          "damageRatio": "QUEST_CONTENT_COMPLETE_TALK",
          "param": [
            4010113,
            0
          ]
        }
      ],
      "guide": {
        "damageRatio": "QUEST_GUIDE_LOCATION",
        "param": [
          "Q4010103_guide",
          "20"
        ],
        "guideScene": 3,
        "guideStyle": "QUEST_GUIDE_STYLE_TARGET",
        "guideLayer": "QUEST_GUIDE_LAYER_SCENE",
        "MLAHIFLGIGJ": ""
      },
      "guideHint": {
        "param1": ""
      },
      "finishParent": true,
      "isRewind": true,
      "finishExec": [
        {
          "damageRatio": "QUEST_EXEC_UNREGISTER_DYNAMIC_GROUP",
          "param": [
            "133308912"
          ]
        }
      ],
      "versionBegin": "",
      "versionEnd": ""
    },
    {
      "subId": 4010114,
      "mainId": 40101,
      "order": 13,
      "showType": "QUEST_HIDDEN",
      "finishCond": [
        {
          "damageRatio": "QUEST_CONTENT_FINISH_PLOT",
          "param": [
            4010114,
            0
          ]
        }
      ],
      "guide": {
        "MLAHIFLGIGJ": ""
      },
      "guideHint": {
        "param1": ""
      },
      "finishExec": [
        {
          "damageRatio": "QUEST_EXEC_UNREGISTER_DYNAMIC_GROUP",
          "param": [
            "133308922"
          ]
        }
      ],
      "versionBegin": "",
      "versionEnd": ""
    },
    {
      "subId": 4010115,
      "mainId": 40101,
      "order": 14,
      "showType": "QUEST_HIDDEN",
      "finishCond": [
        {
          "damageRatio": "QUEST_CONTENT_FINISH_PLOT",
          "param": [
            4010115,
            0
          ]
        }
      ],
      "guide": {
        "MLAHIFLGIGJ": ""
      },
      "guideHint": {
        "param1": ""
      },
      "finishExec": [
        {
          "damageRatio": "QUEST_EXEC_UNREGISTER_DYNAMIC_GROUP",
          "param": [
            "133308923"
          ]
        }
      ],
      "versionBegin": "",
      "versionEnd": ""
    }
  ],
  "talks": [
    {
      "id": 4010103,
      "beginWay": "TALK_BEGIN_MANUAL",
      "beginCond": [
        {
          "type": "QUEST_COND_STATE_EQUAL",
          "_param": [
            "4010103",
            "2"
          ]
        }
      ],
      "priority": 5,
      "nextTalks": [
        4010123,
        4010133
      ],
      "initDialog": 401010301,
      "npcId": [
        13161
      ],
      "performCfg": "QuestDialogue/EQ/AkaFes_40101/Q4010103",
      "heroTalk": "TALK_HERO_MAIN",
      "questId": 40101,
      "assetIndex": 9920272579157647765,
      "prePerformCfg": "",
      "lockGameTime": true,
      "CHAKPMBJNAJ": [
        "[3_330800345:-1931.063,295.641,4153.751,0.000,159.361,0.000]",
        "[3_330800346:-1932.941,295.510,4155.984,0.000,217.966,0.000]",
        "[3_330800349:-1939.634,293.839,4146.746,0.000,72.043,0.000]",
        "[3_330800350:-1939.350,293.822,4145.633,0.000,69.977,0.000]"
      ]
    },
    {
      "id": 4010104,
      "beginWay": "TALK_BEGIN_MANUAL",
      "beginCondComb": "LOGIC_AND",
      "beginCond": [
        {
          "type": "QUEST_COND_STATE_EQUAL",
          "_param": [
            "4010104",
            "2"
          ]
        },
        {
          "type": "QUEST_COND_PLAYER_CHOOSE_MALE",
          "_param": [
            "1"
          ]
        }
      ],
      "priority": 5,
      "initDialog": 401010401,
      "npcId": [
        1050
      ],
      "performCfg": "QuestDialogue/EQ/AkaFes_40101/Q4010104",
      "heroTalk": "TALK_HERO_MAIN",
      "questId": 40101,
      "assetIndex": 12425970928961854656,
      "prePerformCfg": "",
      "lockGameTime": true,
      "CHAKPMBJNAJ": [
        "[3_330800341:-1897.152,285.444,4482.284,0.000,254.997,0.000]",
        "[3_330800342:-1888.757,285.500,4474.626,0.000,310.585,0.000]",
        "[3_330800343:-1888.068,285.480,4475.379,0.000,311.341,0.000]",
        "[3_330800351:-1896.886,285.402,4483.346,0.000,244.472,0.000]"
      ]
    },
    {
      "id": 4010105,
      "beginWay": "TALK_BEGIN_MANUAL",
      "beginCond": [
        {
          "type": "QUEST_COND_STATE_EQUAL",
          "_param": [
            "4010105",
            "2"
          ]
        }
      ],
      "priority": 5,
      "initDialog": 401010501,
      "npcId": [
        13161
      ],
      "performCfg": "QuestDialogue/EQ/AkaFes_40101/Q4010105",
      "heroTalk": "TALK_HERO_MAIN",
      "questId": 40101,
      "assetIndex": 4443303433701693172,
      "prePerformCfg": "",
      "lockGameTime": true,
      "CHAKPMBJNAJ": [
        "[3_330800352:-1899.490,314.453,4321.987,0.000,164.126,0.000]",
        "[3_330800353:-1900.542,314.351,4321.385,0.000,157.884,0.000]",
        "[3_330800354:-1900.109,314.401,4323.639,0.000,165.202,0.000]",
        "[3_330800355:-1900.904,314.316,4323.296,0.000,159.731,0.000]"
      ]
    },
    {
      "id": 4010106,
      "beginWay": "TALK_BEGIN_MANUAL",
      "beginCond": [
        {
          "type": "QUEST_COND_STATE_EQUAL",
          "_param": [
            "4010106",
            "2"
          ]
        }
      ],
      "priority": 5,
      "initDialog": 401010601,
      "npcId": [
        1067
      ],
      "performCfg": "QuestDialogue/EQ/AkaFes_40101/Q4010106",
      "heroTalk": "TALK_HERO_MAIN",
      "questId": 40101,
      "assetIndex": 13528383028446568518,
      "prePerformCfg": "",
      "lockGameTime": true,
      "CHAKPMBJNAJ": [
        "[3_330800356:-1664.016,291.330,4304.360,0.000,25.427,0.000]",
        "[3_330800357:-1663.020,291.203,4304.302,0.000,354.831,0.000]"
      ]
    },
    {
      "id": 4010107,
      "beginWay": "TALK_BEGIN_MANUAL",
      "beginCond": [
        {
          "type": "QUEST_COND_STATE_EQUAL",
          "_param": [
            "4010107",
            "2"
          ]
        }
      ],
      "priority": 5,
      "initDialog": 401010701,
      "npcId": [
        1064
      ],
      "performCfg": "QuestDialogue/EQ/AkaFes_40101/Q4010107",
      "heroTalk": "TALK_HERO_MAIN",
      "questId": 40101,
      "assetIndex": 1272927115800633591,
      "prePerformCfg": "",
      "lockGameTime": true,
      "CHAKPMBJNAJ": [
        "[3_330800358:-1707.404,301.271,4122.020,0.000,223.890,0.000]",
        "[3_330800359:-1708.126,301.262,4122.418,0.000,192.971,0.000]",
        "[3_330800360:-1709.158,301.260,4122.030,0.000,47.754,0.000]"
      ]
    },
    {
      "id": 4010108,
      "beginWay": "TALK_BEGIN_MANUAL",
      "beginCond": [
        {
          "type": "QUEST_COND_STATE_EQUAL",
          "_param": [
            "4010108",
            "2"
          ]
        }
      ],
      "priority": 5,
      "initDialog": 401010801,
      "npcId": [
        13161
      ],
      "performCfg": "QuestDialogue/EQ/AkaFes_40101/Q4010108",
      "heroTalk": "TALK_HERO_MAIN",
      "questId": 40101,
      "assetIndex": 9974209642066955482,
      "prePerformCfg": "",
      "lockGameTime": true,
      "CHAKPMBJNAJ": [
        "[3_330800362:-1932.832,295.304,4153.045,0.000,147.107,0.000]",
        "[3_330800363:-1932.023,295.444,4153.452,0.000,155.277,0.000]"
      ]
    },
    {
      "id": 4010109,
      "beginWay": "TALK_BEGIN_MANUAL",
      "beginCond": [
        {
          "type": "QUEST_COND_STATE_EQUAL",
          "_param": [
            "4010109",
            "2"
          ]
        }
      ],
      "priority": 5,
      "initDialog": 401010901,
      "npcId": [
        1063
      ],
      "performCfg": "QuestDialogue/EQ/AkaFes_40101/Q4010109",
      "heroTalk": "TALK_HERO_MAIN",
      "questId": 40101,
      "assetIndex": 17694010504220312511,
      "prePerformCfg": "",
      "lockGameTime": true,
      "CHAKPMBJNAJ": [
        "[3_330800364:-1844.787,382.286,4363.327,0.000,102.014,0.000]",
        "[3_330800365:-1844.695,382.218,4362.444,0.000,76.739,0.000]"
      ]
    },
    {
      "id": 4010111,
      "beginWay": "TALK_BEGIN_MANUAL",
      "beginCond": [
        {
          "type": "QUEST_COND_STATE_EQUAL",
          "_param": [
            "4010111",
            "2"
          ]
        }
      ],
      "priority": 5,
      "initDialog": 401011101,
      "npcId": [
        13161
      ],
      "performCfg": "QuestDialogue/EQ/AkaFes_40101/Q4010111",
      "heroTalk": "TALK_HERO_MAIN",
      "questId": 40101,
      "assetIndex": 4835990866354793568,
      "prePerformCfg": "",
      "lockGameTime": true,
      "CHAKPMBJNAJ": [
        "[3_330800366:-1903.175,380.328,4179.369,0.000,196.077,0.000]",
        "[3_330800367:-1903.985,380.235,4179.263,0.000,161.646,0.000]"
      ]
    },
    {
      "id": 4010112,
      "beginWay": "TALK_BEGIN_MANUAL",
      "beginCond": [
        {
          "type": "QUEST_COND_STATE_EQUAL",
          "_param": [
            "4010112",
            "2"
          ]
        }
      ],
      "priority": 5,
      "initDialog": 401011201,
      "npcId": [
        1067,
        1064
      ],
      "performCfg": "QuestDialogue/EQ/AkaFes_40101/Q4010112",
      "heroTalk": "TALK_HERO_MAIN",
      "questId": 40101,
      "assetIndex": 12632992272421767021,
      "prePerformCfg": "",
      "lockGameTime": true,
      "CHAKPMBJNAJ": [
        "[3_330800368:-1754.229,327.702,4111.680,0.000,134.855,0.000]",
        "[3_330800369:-1755.168,327.595,4110.733,0.000,138.097,0.000]"
      ]
    },
    {
      "id": 4010113,
      "beginWay": "TALK_BEGIN_MANUAL",
      "beginCond": [
        {
          "type": "QUEST_COND_STATE_EQUAL",
          "_param": [
            "4010113",
            "2"
          ]
        }
      ],
      "priority": 5,
      "initDialog": 401011301,
      "npcId": [
        13161
      ],
      "performCfg": "QuestDialogue/EQ/AkaFes_40101/Q4010113",
      "heroTalk": "TALK_HERO_MAIN",
      "questId": 40101,
      "assetIndex": 15135828488871190113,
      "prePerformCfg": "",
      "lockGameTime": true,
      "CHAKPMBJNAJ": [
        "[3_330800362:-1932.832,295.304,4153.045,0.000,147.107,0.000]",
        "[3_330800363:-1932.023,295.444,4153.452,0.000,155.277,0.000]",
        "[3_330800370:-1930.763,295.908,4147.045,0.000,140.765,0.000]",
        "[3_330800371:-1930.087,295.916,4147.569,0.000,143.861,0.000]"
      ]
    },
    {
      "id": 4010123,
      "beginCondComb": "LOGIC_AND",
      "beginCond": [
        {
          "type": "QUEST_COND_QUEST_GLOBAL_VAR_EQUAL",
          "_param": [
            "13003",
            "1"
          ]
        },
        {
          "type": "QUEST_COND_STATE_EQUAL",
          "_param": [
            "4010103",
            "2"
          ]
        }
      ],
      "priority": 5,
      "nextTalks": [
        4010143
      ],
      "initDialog": 401010301,
      "npcId": [
        13161
      ],
      "performCfg": "QuestDialogue/EQ/AkaFes_40101/Q4010123",
      "heroTalk": "TALK_HERO_MAIN",
      "questId": 40101,
      "assetIndex": 5897886606926307458,
      "prePerformCfg": "",
      "lockGameTime": true,
      "CHAKPMBJNAJ": [
        "[3_330800347:-1927.478,296.182,4154.057,0.000,143.234,0.000]",
        "[3_330800348:-1926.694,296.201,4153.081,0.000,321.398,0.000]",
        "[3_330800349:-1939.634,293.839,4146.746,0.000,72.043,0.000]"
      ]
    },
    {
      "id": 4010133,
      "beginCondComb": "LOGIC_AND",
      "beginCond": [
        {
          "type": "QUEST_COND_QUEST_GLOBAL_VAR_EQUAL",
          "_param": [
            "13003",
            "0"
          ]
        },
        {
          "type": "QUEST_COND_STATE_EQUAL",
          "_param": [
            "4010103",
            "2"
          ]
        }
      ],
      "priority": 5,
      "nextTalks": [
        4010143
      ],
      "initDialog": 401010301,
      "npcId": [
        13161
      ],
      "performCfg": "QuestDialogue/EQ/AkaFes_40101/Q4010133",
      "heroTalk": "TALK_HERO_MAIN",
      "questId": 40101,
      "assetIndex": 996652016028368897,
      "prePerformCfg": "",
      "lockGameTime": true,
      "CHAKPMBJNAJ": [
        "[3_330800347:-1927.478,296.182,4154.057,0.000,143.234,0.000]",
        "[3_330800348:-1926.694,296.201,4153.081,0.000,321.398,0.000]",
        "[3_330800349:-1939.634,293.839,4146.746,0.000,72.043,0.000]"
      ]
    },
    {
      "id": 4010143,
      "beginCond": [
        {
          "type": "QUEST_COND_STATE_EQUAL",
          "_param": [
            "4010103",
            "2"
          ]
        }
      ],
      "priority": 5,
      "initDialog": 401010301,
      "npcId": [
        13161
      ],
      "performCfg": "QuestDialogue/EQ/AkaFes_40101/Q4010143",
      "heroTalk": "TALK_HERO_MAIN",
      "questId": 40101,
      "assetIndex": 9762843553641901167,
      "prePerformCfg": "",
      "lockGameTime": true,
      "CHAKPMBJNAJ": [
        "[3_330800349:-1939.634,293.839,4146.746,0.000,72.043,0.000]"
      ]
    },
    {
      "id": 4010144,
      "beginWay": "TALK_BEGIN_MANUAL",
      "beginCondComb": "LOGIC_AND",
      "beginCond": [
        {
          "type": "QUEST_COND_STATE_EQUAL",
          "_param": [
            "4010104",
            "2"
          ]
        },
        {
          "type": "QUEST_COND_PLAYER_CHOOSE_MALE",
          "_param": [
            "0"
          ]
        }
      ],
      "priority": 5,
      "initDialog": 401010401,
      "npcId": [
        1050
      ],
      "performCfg": "QuestDialogue/EQ/AkaFes_40101/Q4010144",
      "heroTalk": "TALK_HERO_MAIN",
      "questId": 40101,
      "assetIndex": 4911629864815428624,
      "prePerformCfg": "",
      "lockGameTime": true,
      "CHAKPMBJNAJ": [
        "[3_330800341:-1897.152,285.444,4482.284,0.000,254.997,0.000]",
        "[3_330800342:-1888.757,285.500,4474.626,0.000,310.585,0.000]",
        "[3_330800343:-1888.068,285.480,4475.379,0.000,311.341,0.000]",
        "[3_330800351:-1896.886,285.402,4483.346,0.000,244.472,0.000]"
      ]
    },
    {
      "id": 4010150,
      "beginWay": "TALK_BEGIN_MANUAL",
      "beginCondComb": "LOGIC_OR",
      "beginCond": [
        {
          "type": "QUEST_COND_STATE_EQUAL",
          "_param": [
            "4010104",
            "2"
          ]
        },
        {
          "type": "QUEST_COND_STATE_EQUAL",
          "_param": [
            "4010105",
            "2"
          ]
        }
      ],
      "priority": 5,
      "initDialog": 401015001,
      "npcId": [
        1054,
        1053
      ],
      "performCfg": "QuestDialogue/EQ/AkaFes_40101/Q4010150",
      "heroTalk": "TALK_HERO_MAIN",
      "questId": 40101,
      "assetIndex": 1554369850280613986,
      "prePerformCfg": ""
    },
    {
      "id": 4010151,
      "beginWay": "TALK_BEGIN_MANUAL",
      "beginCondComb": "LOGIC_OR",
      "beginCond": [
        {
          "type": "QUEST_COND_STATE_EQUAL",
          "_param": [
            "4010106",
            "2"
          ]
        },
        {
          "type": "QUEST_COND_STATE_EQUAL",
          "_param": [
            "4010107",
            "2"
          ]
        }
      ],
      "priority": 5,
      "initDialog": 401015101,
      "npcId": [
        1054,
        1053
      ],
      "performCfg": "QuestDialogue/EQ/AkaFes_40101/Q4010151",
      "heroTalk": "TALK_HERO_MAIN",
      "questId": 40101,
      "assetIndex": 14391146807671120591,
      "prePerformCfg": ""
    },
    {
      "id": 4010152,
      "beginWay": "TALK_BEGIN_MANUAL",
      "beginCondComb": "LOGIC_OR",
      "beginCond": [
        {
          "type": "QUEST_COND_STATE_EQUAL",
          "_param": [
            "4010109",
            "2"
          ]
        },
        {
          "type": "QUEST_COND_STATE_EQUAL",
          "_param": [
            "4010110",
            "2"
          ]
        },
        {
          "type": "QUEST_COND_STATE_EQUAL",
          "_param": [
            "4010111",
            "2"
          ]
        },
        {
          "type": "QUEST_COND_STATE_EQUAL",
          "_param": [
            "4010112",
            "2"
          ]
        }
      ],
      "priority": 5,
      "initDialog": 401015201,
      "npcId": [
        1054,
        1053
      ],
      "performCfg": "QuestDialogue/EQ/AkaFes_40101/Q4010152",
      "heroTalk": "TALK_HERO_MAIN",
      "questId": 40101,
      "assetIndex": 11457587597844403422,
      "prePerformCfg": ""
    },
    {
      "id": 4010153,
      "beginWay": "TALK_BEGIN_MANUAL",
      "beginCond": [
        {
          "type": "QUEST_COND_STATE_EQUAL",
          "_param": [
            "4010104",
            "2"
          ]
        }
      ],
      "priority": 5,
      "initDialog": 401015301,
      "npcId": [
        1065
      ],
      "performCfg": "QuestDialogue/EQ/AkaFes_40101/Q4010153",
      "heroTalk": "TALK_HERO_MAIN",
      "questId": 40101,
      "assetIndex": 13564550174253260029,
      "prePerformCfg": ""
    },
    {
      "id": 4010154,
      "beginWay": "TALK_BEGIN_MANUAL",
      "beginCond": [
        {
          "type": "QUEST_COND_STATE_EQUAL",
          "_param": [
            "4010104",
            "2"
          ]
        }
      ],
      "priority": 5,
      "initDialog": 401015401,
      "npcId": [
        1058
      ],
      "performCfg": "QuestDialogue/EQ/AkaFes_40101/Q4010154",
      "heroTalk": "TALK_HERO_MAIN",
      "questId": 40101,
      "assetIndex": 4264414512948040117,
      "prePerformCfg": "",
      "lockGameTime": true
    },
    {
      "id": 4010156,
      "beginWay": "TALK_BEGIN_MANUAL",
      "beginCond": [
        {
          "type": "QUEST_COND_STATE_EQUAL",
          "_param": [
            "4010104",
            "2"
          ]
        }
      ],
      "priority": 5,
      "initDialog": 401015601,
      "npcId": [
        1063
      ],
      "performCfg": "QuestDialogue/EQ/AkaFes_40101/Q4010156",
      "heroTalk": "TALK_HERO_MAIN",
      "questId": 40101,
      "assetIndex": 13510075979345457792,
      "prePerformCfg": ""
    },
    {
      "id": 4010157,
      "beginWay": "TALK_BEGIN_MANUAL",
      "beginCondComb": "LOGIC_OR",
      "beginCond": [
        {
          "type": "QUEST_COND_STATE_EQUAL",
          "_param": [
            "4010104",
            "2"
          ]
        },
        {
          "type": "QUEST_COND_STATE_EQUAL",
          "_param": [
            "4010105",
            "2"
          ]
        }
      ],
      "priority": 5,
      "initDialog": 401015701,
      "npcId": [
        1067
      ],
      "performCfg": "QuestDialogue/EQ/AkaFes_40101/Q4010157",
      "heroTalk": "TALK_HERO_MAIN",
      "questId": 40101,
      "assetIndex": 11308706142380748443,
      "prePerformCfg": ""
    },
    {
      "id": 4010158,
      "beginWay": "TALK_BEGIN_MANUAL",
      "beginCondComb": "LOGIC_OR",
      "beginCond": [
        {
          "type": "QUEST_COND_STATE_EQUAL",
          "_param": [
            "4010104",
            "2"
          ]
        },
        {
          "type": "QUEST_COND_STATE_EQUAL",
          "_param": [
            "4010105",
            "2"
          ]
        }
      ],
      "priority": 5,
      "initDialog": 401015801,
      "npcId": [
        1064
      ],
      "performCfg": "QuestDialogue/EQ/AkaFes_40101/Q4010158",
      "heroTalk": "TALK_HERO_MAIN",
      "questId": 40101,
      "assetIndex": 9236724225130250661,
      "prePerformCfg": "",
      "CHAKPMBJNAJ": [
        "[3_330800374:-1648.978,291.597,4263.985,0.000,112.316,0.000]"
      ]
    },
    {
      "id": 4010159,
      "beginWay": "TALK_BEGIN_MANUAL",
      "beginCond": [
        {
          "type": "QUEST_COND_STATE_EQUAL",
          "_param": [
            "4010105",
            "2"
          ]
        }
      ],
      "priority": 5,
      "initDialog": 401015901,
      "npcId": [
        1065
      ],
      "performCfg": "QuestDialogue/EQ/AkaFes_40101/Q4010159",
      "heroTalk": "TALK_HERO_MAIN",
      "questId": 40101,
      "assetIndex": 4476317593679019923,
      "prePerformCfg": ""
    },
    {
      "id": 4010160,
      "beginWay": "TALK_BEGIN_MANUAL",
      "beginCond": [
        {
          "type": "QUEST_COND_STATE_EQUAL",
          "_param": [
            "4010106",
            "2"
          ]
        }
      ],
      "priority": 5,
      "initDialog": 401016001,
      "npcId": [
        1064
      ],
      "performCfg": "QuestDialogue/EQ/AkaFes_40101/Q4010160",
      "heroTalk": "TALK_HERO_MAIN",
      "questId": 40101,
      "assetIndex": 4804630802668751022,
      "prePerformCfg": ""
    },
    {
      "id": 4010161,
      "beginWay": "TALK_BEGIN_MANUAL",
      "beginCond": [
        {
          "type": "QUEST_COND_STATE_EQUAL",
          "_param": [
            "4010106",
            "2"
          ]
        }
      ],
      "priority": 5,
      "initDialog": 401016101,
      "npcId": [
        1063
      ],
      "performCfg": "QuestDialogue/EQ/AkaFes_40101/Q4010161",
      "heroTalk": "TALK_HERO_MAIN",
      "questId": 40101,
      "assetIndex": 217420976292789802,
      "prePerformCfg": ""
    },
    {
      "id": 4010162,
      "beginWay": "TALK_BEGIN_MANUAL",
      "beginCondComb": "LOGIC_OR",
      "beginCond": [
        {
          "type": "QUEST_COND_STATE_EQUAL",
          "_param": [
            "4010106",
            "2"
          ]
        },
        {
          "type": "QUEST_COND_STATE_EQUAL",
          "_param": [
            "4010107",
            "2"
          ]
        }
      ],
      "priority": 5,
      "initDialog": 401016201,
      "npcId": [
        1065
      ],
      "performCfg": "QuestDialogue/EQ/AkaFes_40101/Q4010162",
      "heroTalk": "TALK_HERO_MAIN",
      "questId": 40101,
      "assetIndex": 48011270769490014,
      "prePerformCfg": ""
    },
    {
      "id": 4010163,
      "beginWay": "TALK_BEGIN_MANUAL",
      "beginCondComb": "LOGIC_OR",
      "beginCond": [
        {
          "type": "QUEST_COND_STATE_EQUAL",
          "_param": [
            "4010106",
            "2"
          ]
        },
        {
          "type": "QUEST_COND_STATE_EQUAL",
          "_param": [
            "4010107",
            "2"
          ]
        },
        {
          "type": "QUEST_COND_STATE_EQUAL",
          "_param": [
            "4010108",
            "2"
          ]
        }
      ],
      "priority": 5,
      "initDialog": 401016301,
      "npcId": [
        1058
      ],
      "performCfg": "QuestDialogue/EQ/AkaFes_40101/Q4010163",
      "heroTalk": "TALK_HERO_MAIN",
      "questId": 40101,
      "assetIndex": 11592703744126439183,
      "prePerformCfg": ""
    },
    {
      "id": 4010164,
      "beginWay": "TALK_BEGIN_MANUAL",
      "beginCond": [
        {
          "type": "QUEST_COND_STATE_EQUAL",
          "_param": [
            "4010107",
            "2"
          ]
        }
      ],
      "priority": 5,
      "initDialog": 401016401,
      "npcId": [
        1063
      ],
      "performCfg": "QuestDialogue/EQ/AkaFes_40101/Q4010164",
      "heroTalk": "TALK_HERO_MAIN",
      "questId": 40101,
      "assetIndex": 10818363946581575469,
      "prePerformCfg": ""
    },
    {
      "id": 4010165,
      "beginWay": "TALK_BEGIN_MANUAL",
      "beginCondComb": "LOGIC_OR",
      "beginCond": [
        {
          "type": "QUEST_COND_STATE_EQUAL",
          "_param": [
            "4010107",
            "2"
          ]
        },
        {
          "type": "QUEST_COND_STATE_EQUAL",
          "_param": [
            "4010108",
            "2"
          ]
        }
      ],
      "priority": 5,
      "initDialog": 401016501,
      "npcId": [
        1067
      ],
      "performCfg": "QuestDialogue/EQ/AkaFes_40101/Q4010165",
      "heroTalk": "TALK_HERO_MAIN",
      "questId": 40101,
      "assetIndex": 9196255060137280457,
      "prePerformCfg": ""
    },
    {
      "id": 4010166,
      "beginWay": "TALK_BEGIN_MANUAL",
      "beginCond": [
        {
          "type": "QUEST_COND_STATE_EQUAL",
          "_param": [
            "4010108",
            "2"
          ]
        }
      ],
      "priority": 5,
      "initDialog": 401016601,
      "npcId": [
        1063
      ],
      "performCfg": "QuestDialogue/EQ/AkaFes_40101/Q4010166",
      "heroTalk": "TALK_HERO_MAIN",
      "questId": 40101,
      "assetIndex": 8763420074431617290,
      "prePerformCfg": ""
    },
    {
      "id": 4010167,
      "beginWay": "TALK_BEGIN_MANUAL",
      "beginCondComb": "LOGIC_OR",
      "beginCond": [
        {
          "type": "QUEST_COND_STATE_EQUAL",
          "_param": [
            "4010108",
            "2"
          ]
        },
        {
          "type": "QUEST_COND_STATE_EQUAL",
          "_param": [
            "4010109",
            "2"
          ]
        },
        {
          "type": "QUEST_COND_STATE_EQUAL",
          "_param": [
            "4010110",
            "2"
          ]
        },
        {
          "type": "QUEST_COND_STATE_EQUAL",
          "_param": [
            "4010111",
            "2"
          ]
        },
        {
          "type": "QUEST_COND_STATE_EQUAL",
          "_param": [
            "4010112",
            "2"
          ]
        },
        {
          "type": "QUEST_COND_STATE_EQUAL",
          "_param": [
            "4010113",
            "2"
          ]
        }
      ],
      "priority": 5,
      "initDialog": 401016701,
      "npcId": [
        1065
      ],
      "performCfg": "QuestDialogue/EQ/AkaFes_40101/Q4010167",
      "heroTalk": "TALK_HERO_MAIN",
      "questId": 40101,
      "assetIndex": 13177816866993062369,
      "prePerformCfg": ""
    },
    {
      "id": 4010168,
      "beginWay": "TALK_BEGIN_MANUAL",
      "beginCondComb": "LOGIC_OR",
      "beginCond": [
        {
          "type": "QUEST_COND_STATE_EQUAL",
          "_param": [
            "4010109",
            "2"
          ]
        },
        {
          "type": "QUEST_COND_STATE_EQUAL",
          "_param": [
            "4010110",
            "2"
          ]
        },
        {
          "type": "QUEST_COND_STATE_EQUAL",
          "_param": [
            "4010111",
            "2"
          ]
        },
        {
          "type": "QUEST_COND_STATE_EQUAL",
          "_param": [
            "4010112",
            "2"
          ]
        },
        {
          "type": "QUEST_COND_STATE_EQUAL",
          "_param": [
            "4010113",
            "2"
          ]
        }
      ],
      "priority": 5,
      "initDialog": 401016801,
      "npcId": [
        1058,
        1050
      ],
      "performCfg": "QuestDialogue/EQ/AkaFes_40101/Q4010168",
      "heroTalk": "TALK_HERO_MAIN",
      "questId": 40101,
      "assetIndex": 8755581026044926712,
      "prePerformCfg": ""
    },
    {
      "id": 4010169,
      "beginWay": "TALK_BEGIN_MANUAL",
      "beginCondComb": "LOGIC_OR",
      "beginCond": [
        {
          "type": "QUEST_COND_STATE_EQUAL",
          "_param": [
            "4010108",
            "2"
          ]
        },
        {
          "type": "QUEST_COND_STATE_EQUAL",
          "_param": [
            "4010109",
            "2"
          ]
        },
        {
          "type": "QUEST_COND_STATE_EQUAL",
          "_param": [
            "4010110",
            "2"
          ]
        },
        {
          "type": "QUEST_COND_STATE_EQUAL",
          "_param": [
            "4010111",
            "2"
          ]
        }
      ],
      "priority": 5,
      "initDialog": 401016901,
      "npcId": [
        1064,
        13198
      ],
      "performCfg": "QuestDialogue/EQ/AkaFes_40101/Q4010169",
      "heroTalk": "TALK_HERO_MAIN",
      "questId": 40101,
      "assetIndex": 7385428211988843198,
      "prePerformCfg": ""
    }
  ],
  "preloadLuaList": [
    13968906289933730640,
    8992363608851651680,
    651987784066934293,
    2894191084692463848,
    16862466924100674867,
    14475342694027684659,
    3210563462738093062,
    17021999173276426047,
    14236960309082098000
  ],
  "forcePreloadLuaList": [
    337114920857960823
  ],
  "freeStyleDic": {
    "1063": [
      1190,
      1120,
      1280
    ],
    "1050": [
      4100
    ],
    "1053": [
      8010
    ],
    "1054": [
      8010
    ],
    "1067": [
      1190
    ]
  },
  "dialogList": [
    {
      "id": 401019910,
      "talkRole": {
        "type": "TALK_ROLE_NPC",
        "_id": "1054"
      },
      "talkContentTextMapHash": 3708449914,
      "talkAssetPath": "",
      "talkAssetPathAlter": "",
      "talkAudioName": "",
      "actionBefore": "",
      "actionWhile": "",
      "actionAfter": "",
      "optionIcon": "",
      "iconPath": ""
    },
    {
      "id": 401019911,
      "talkRole": {
        "type": "TALK_ROLE_NPC",
        "_id": "1053"
      },
      "talkContentTextMapHash": 2053855282,
      "talkAssetPath": "",
      "talkAssetPathAlter": "",
      "talkAudioName": "",
      "actionBefore": "",
      "actionWhile": "",
      "actionAfter": "",
      "optionIcon": "",
      "iconPath": ""
    }
  ]
}