{
  "id": 40108,
  "series": 10114,
  "damageRatio": "EQ",
  "descTextMapHash": 2368717855,
  "EKEKACCODOE": 2961685582,
  "luaPath": "Actor/Quest/EQ40108",
  "suggestTrackMainQuestList": [
    40109
  ],
  "rewardIdList": [
    140108
  ],
  "chapterId": 10114,
  "showRedPoint": true,
  "activityId": 2022,
  "subQuests": [
    {
      "subId": 4010801,
      "mainId": 40108,
      "order": 1,
      "descTextMapHash": 88982380,
      "finishCond": [
        {
          "damageRatio": "QUEST_CONTENT_GAME_TIME_TICK",
          "param": [
            1,
            0
          ]
        }
      ],
      "guide": {
        "MLAHIFLGIGJ": ""
      },
      "guideHint": {
        "param1": ""
      },
      "isRewind": true,
      "versionBegin": "",
      "versionEnd": ""
    },
    {
      "subId": 4010802,
      "mainId": 40108,
      "order": 2,
      "descTextMapHash": 78134316,
      "JIFODJPFKDF": [
        310710
      ],
      "finishCond": [
        {
          "damageRatio": "QUEST_CONTENT_COMPLETE_TALK",
          "param": [
            4010802,
            0
          ]
        }
      ],
      "guide": {
        "damageRatio": "QUEST_GUIDE_LOCATION",
        "autoGuide": "QUEST_GUIDE_AUTO_ENABLE",
        "param": [
          "[3_3766:-409.275,216.336,345.217,0.000,274.330,0.000]"
        ],
        "guideScene": 3,
        "guideStyle": "QUEST_GUIDE_STYLE_POINT",
        "guideLayer": "QUEST_GUIDE_LAYER_SCENE",
        "MLAHIFLGIGJ": ""
      },
      "guideHint": {
        "param1": ""
      },
      "isRewind": true,
      "versionBegin": "",
      "versionEnd": ""
    },
    {
      "subId": 4010803,
      "mainId": 40108,
      "order": 3,
      "descTextMapHash": 3798423108,
      "JIFODJPFKDF": [
        1101906
      ],
      "finishCond": [
        {
          "damageRatio": "QUEST_CONTENT_FINISH_PLOT",
          "param": [
            4010803,
            0
          ]
        }
      ],
      "guide": {
        "damageRatio": "QUEST_GUIDE_LOCATION",
        "autoGuide": "QUEST_GUIDE_AUTO_ENABLE",
        "param": [
          "[3_3767:-603.686,204.832,145.981,0.000,134.220,0.000]"
        ],
        "guideScene": 3,
        "guideStyle": "QUEST_GUIDE_STYLE_POINT",
        "guideLayer": "QUEST_GUIDE_LAYER_SCENE",
        "MLAHIFLGIGJ": ""
      },
      "guideHint": {
        "param1": ""
      },
      "isRewind": true,
      "versionBegin": "",
      "versionEnd": ""
    },
    {
      "subId": 4010804,
      "mainId": 40108,
      "order": 4,
      "subIdSet": 1,
      "descTextMapHash": 4185935588,
      "finishCond": [
        {
          "damageRatio": "QUEST_CONTENT_COMPLETE_TALK",
          "param": [
            4010804,
            0
          ]
        }
      ],
      "guide": {
        "damageRatio": "QUEST_GUIDE_NPC",
        "autoGuide": "QUEST_GUIDE_AUTO_ENABLE",
        "param": [
          "2036"
        ],
        "guideScene": 3,
        "guideStyle": "QUEST_GUIDE_STYLE_TARGET",
        "guideLayer": "QUEST_GUIDE_LAYER_SCENE",
        "MLAHIFLGIGJ": ""
      },
      "guideHint": {
        "param1": ""
      },
      "versionBegin": "",
      "versionEnd": ""
    },
    {
      "subId": 4010805,
      "mainId": 40108,
      "order": 5,
      "subIdSet": 1,
      "descTextMapHash": 1770570324,
      "finishCond": [
        {
          "damageRatio": "QUEST_CONTENT_COMPLETE_TALK",
          "param": [
            4010805,
            0
          ]
        }
      ],
      "guide": {
        "damageRatio": "QUEST_GUIDE_NPC",
        "autoGuide": "QUEST_GUIDE_AUTO_ENABLE",
        "param": [
          "2002"
        ],
        "guideScene": 3,
        "guideStyle": "QUEST_GUIDE_STYLE_TARGET",
        "guideLayer": "QUEST_GUIDE_LAYER_SCENE",
        "MLAHIFLGIGJ": ""
      },
      "guideHint": {
        "param1": ""
      },
      "versionBegin": "",
      "versionEnd": ""
    },
    {
      "subId": 4010806,
      "mainId": 40108,
      "order": 6,
      "subIdSet": 1,
      "descTextMapHash": 3710515236,
      "finishCond": [
        {
          "damageRatio": "QUEST_CONTENT_COMPLETE_TALK",
          "param": [
            4010806,
            0
          ]
        }
      ],
      "guide": {
        "damageRatio": "QUEST_GUIDE_NPC",
        "autoGuide": "QUEST_GUIDE_AUTO_ENABLE",
        "param": [
          "2035"
        ],
        "guideScene": 3,
        "guideStyle": "QUEST_GUIDE_STYLE_TARGET",
        "guideLayer": "QUEST_GUIDE_LAYER_SCENE",
        "MLAHIFLGIGJ": ""
      },
      "guideHint": {
        "param1": ""
      },
      "versionBegin": "",
      "versionEnd": ""
    },
    {
      "subId": 4010807,
      "mainId": 40108,
      "order": 7,
      "descTextMapHash": 3110929852,
      "showType": "QUEST_HIDDEN",
      "finishCond": [
        {
          "damageRatio": "QUEST_CONTENT_QUEST_STATE_EQUAL",
          "param": [
            4010804,
            3
          ]
        },
        {
          "damageRatio": "QUEST_CONTENT_QUEST_STATE_EQUAL",
          "param": [
            4010805,
            3
          ]
        },
        {
          "damageRatio": "QUEST_CONTENT_QUEST_STATE_EQUAL",
          "param": [
            4010806,
            3
          ]
        }
      ],
      "guide": {
        "MLAHIFLGIGJ": ""
      },
      "guideHint": {
        "param1": ""
      },
      "versionBegin": "",
      "versionEnd": ""
    },
    {
      "subId": 4010808,
      "mainId": 40108,
      "order": 8,
      "descTextMapHash": 1756800828,
      "showType": "QUEST_HIDDEN",
      "JIFODJPFKDF": [
        1101906
      ],
      "finishCond": [
        {
          "damageRatio": "QUEST_CONTENT_QUEST_STATE_EQUAL",
          "param": [
            4010807,
            3
          ]
        }
      ],
      "guide": {
        "MLAHIFLGIGJ": ""
      },
      "guideHint": {
        "param1": ""
      },
      "isRewind": true,
      "versionBegin": "",
      "versionEnd": ""
    },
    {
      "subId": 4010809,
      "mainId": 40108,
      "order": 9,
      "descTextMapHash": 869575924,
      "JIFODJPFKDF": [
        1101906
      ],
      "finishCond": [
        {
          "damageRatio": "QUEST_CONTENT_COMPLETE_TALK",
          "param": [
            4010809,
            0
          ]
        }
      ],
      "guide": {
        "damageRatio": "QUEST_GUIDE_NPC",
        "autoGuide": "QUEST_GUIDE_AUTO_ENABLE",
        "param": [
          "1032"
        ],
        "guideScene": 3,
        "guideStyle": "QUEST_GUIDE_STYLE_TARGET",
        "guideLayer": "QUEST_GUIDE_LAYER_SCENE",
        "MLAHIFLGIGJ": ""
      },
      "guideHint": {
        "param1": ""
      },
      "isRewind": true,
      "versionBegin": "",
      "versionEnd": ""
    },
    {
      "subId": 4010810,
      "mainId": 40108,
      "order": 10,
      "descTextMapHash": 3999632628,
      "JIFODJPFKDF": [
        1101906
      ],
      "finishCond": [
        {
          "damageRatio": "QUEST_CONTENT_COMPLETE_TALK",
          "param": [
            4010810,
            0
          ]
        }
      ],
      "guide": {
        "damageRatio": "QUEST_GUIDE_NPC",
        "autoGuide": "QUEST_GUIDE_AUTO_ENABLE",
        "param": [
          "1069"
        ],
        "guideScene": 3,
        "guideStyle": "QUEST_GUIDE_STYLE_TARGET",
        "guideLayer": "QUEST_GUIDE_LAYER_SCENE",
        "MLAHIFLGIGJ": ""
      },
      "guideHint": {
        "param1": ""
      },
      "isRewind": true,
      "versionBegin": "",
      "versionEnd": ""
    },
    {
      "subId": 4010811,
      "mainId": 40108,
      "order": 11,
      "descTextMapHash": 1609214076,
      "JIFODJPFKDF": [
        40014
      ],
      "finishCond": [
        {
          "damageRatio": "QUEST_CONTENT_COMPLETE_TALK",
          "param": [
            4010811,
            0
          ]
        }
      ],
      "guide": {
        "damageRatio": "QUEST_GUIDE_LOCATION",
        "autoGuide": "QUEST_GUIDE_AUTO_ENABLE",
        "param": [
          "[3_3768:-625.482,226.665,328.998,0.000,349.960,0.000]"
        ],
        "guideScene": 3,
        "guideStyle": "QUEST_GUIDE_STYLE_POINT",
        "guideLayer": "QUEST_GUIDE_LAYER_SCENE",
        "MLAHIFLGIGJ": ""
      },
      "guideHint": {
        "param1": ""
      },
      "isRewind": true,
      "versionBegin": "",
      "versionEnd": ""
    },
    {
      "subId": 4010812,
      "mainId": 40108,
      "order": 13,
      "descTextMapHash": 586587340,
      "JIFODJPFKDF": [
        310201
      ],
      "finishCond": [
        {
          "damageRatio": "QUEST_CONTENT_COMPLETE_TALK",
          "param": [
            4010812,
            0
          ]
        }
      ],
      "guide": {
        "damageRatio": "QUEST_GUIDE_LOCATION",
        "autoGuide": "QUEST_GUIDE_AUTO_ENABLE",
        "param": [
          "[3_3769:1537.625,235.551,504.227,0.000,150.520,0.000]",
          "15"
        ],
        "guideScene": 3,
        "guideLayer": "QUEST_GUIDE_LAYER_SCENE",
        "MLAHIFLGIGJ": ""
      },
      "guideHint": {
        "param1": ""
      },
      "isRewind": true,
      "versionBegin": "",
      "versionEnd": ""
    },
    {
      "subId": 4010813,
      "mainId": 40108,
      "order": 14,
      "descTextMapHash": 3676335252,
      "JIFODJPFKDF": [
        310201
      ],
      "finishCond": [
        {
          "damageRatio": "QUEST_CONTENT_LUA_NOTIFY",
          "param": [
            0,
            0
          ],
          "count": 1
        }
      ],
      "guide": {
        "damageRatio": "QUEST_GUIDE_LOCATION",
        "autoGuide": "QUEST_GUIDE_AUTO_ENABLE",
        "param": [
          "[3_3770:1557.445,239.059,493.733]",
          "20"
        ],
        "guideScene": 3,
        "guideLayer": "QUEST_GUIDE_LAYER_SCENE",
        "MLAHIFLGIGJ": ""
      },
      "guideHint": {
        "param1": ""
      },
      "isRewind": true,
      "versionBegin": "",
      "versionEnd": ""
    },
    {
      "subId": 4010814,
      "mainId": 40108,
      "order": 15,
      "descTextMapHash": 193698980,
      "JIFODJPFKDF": [
        310201
      ],
      "finishCond": [
        {
          "damageRatio": "QUEST_CONTENT_FINISH_PLOT",
          "param": [
            4010814,
            0
          ]
        }
      ],
      "guide": {
        "damageRatio": "QUEST_GUIDE_LOCATION",
        "autoGuide": "QUEST_GUIDE_AUTO_ENABLE",
        "param": [
          "[3_3771:1576.520,245.796,456.678,0.000,136.930,0.000]"
        ],
        "guideScene": 3,
        "guideStyle": "QUEST_GUIDE_STYLE_POINT",
        "guideLayer": "QUEST_GUIDE_LAYER_SCENE",
        "MLAHIFLGIGJ": ""
      },
      "guideHint": {
        "param1": ""
      },
      "isRewind": true,
      "versionBegin": "",
      "versionEnd": ""
    },
    {
      "subId": 4010817,
      "mainId": 40108,
      "order": 17,
      "descTextMapHash": 500296724,
      "JIFODJPFKDF": [
        310201
      ],
      "finishCond": [
        {
          "damageRatio": "QUEST_CONTENT_COMPLETE_TALK",
          "param": [
            4010817,
            0
          ]
        }
      ],
      "guide": {
        "damageRatio": "QUEST_GUIDE_LOCATION",
        "param": [
          "[3_3793:1578.575,247.046,449.434,0.000,338.870,0.000]",
          "15"
        ],
        "guideScene": 3,
        "guideLayer": "QUEST_GUIDE_LAYER_SCENE",
        "MLAHIFLGIGJ": ""
      },
      "guideHint": {
        "param1": ""
      },
      "isRewind": true,
      "versionBegin": "",
      "versionEnd": ""
    },
    {
      "subId": 4010818,
      "mainId": 40108,
      "order": 18,
      "descTextMapHash": 3489953340,
      "JIFODJPFKDF": [
        310201
      ],
      "finishCond": [
        {
          "damageRatio": "QUEST_CONTENT_COMPLETE_TALK",
          "param": [
            4010818,
            0
          ]
        }
      ],
      "guide": {
        "damageRatio": "QUEST_GUIDE_LOCATION",
        "autoGuide": "QUEST_GUIDE_AUTO_ENABLE",
        "param": [
          "[3_3772:1602.731,260.862,479.439,0.000,224.780,0.000]"
        ],
        "guideScene": 3,
        "guideStyle": "QUEST_GUIDE_STYLE_POINT",
        "guideLayer": "QUEST_GUIDE_LAYER_SCENE",
        "MLAHIFLGIGJ": ""
      },
      "guideHint": {
        "param1": ""
      },
      "isRewind": true,
      "finishExec": [
        {
          "damageRatio": "QUEST_EXEC_UNREGISTER_DYNAMIC_GROUP",
          "param": [
            "133102244",
            "1"
          ]
        }
      ],
      "versionBegin": "",
      "versionEnd": ""
    },
    {
      "subId": 4010819,
      "mainId": 40108,
      "order": 19,
      "descTextMapHash": 3378090668,
      "JIFODJPFKDF": [
        310716
      ],
      "finishCond": [
        {
          "damageRatio": "QUEST_CONTENT_COMPLETE_TALK",
          "param": [
            4010819,
            0
          ]
        }
      ],
      "guide": {
        "damageRatio": "QUEST_GUIDE_LOCATION",
        "autoGuide": "QUEST_GUIDE_AUTO_ENABLE",
        "param": [
          "[3_3884:-527.630,209.821,250.106,0.000,132.600,0.000]"
        ],
        "guideScene": 3,
        "guideStyle": "QUEST_GUIDE_STYLE_POINT",
        "guideLayer": "QUEST_GUIDE_LAYER_SCENE",
        "MLAHIFLGIGJ": ""
      },
      "guideHint": {
        "param1": ""
      },
      "finishParent": true,
      "isRewind": true,
      "finishExec": [
        {
          "damageRatio": "QUEST_EXEC_SET_QUEST_GLOBAL_VAR",
          "param": [
            "4010801",
            "1"
          ]
        }
      ],
      "versionBegin": "",
      "versionEnd": ""
    },
    {
      "subId": 4010820,
      "mainId": 40108,
      "order": 16,
      "descTextMapHash": 2904659396,
      "JIFODJPFKDF": [
        310201
      ],
      "finishCond": [
        {
          "damageRatio": "QUEST_CONTENT_LUA_NOTIFY",
          "param": [
            0,
            0
          ],
          "count": 1
        }
      ],
      "guide": {
        "damageRatio": "QUEST_GUIDE_LOCATION",
        "autoGuide": "QUEST_GUIDE_AUTO_ENABLE",
        "param": [
          "[3_3771:1576.520,245.796,456.678,0.000,136.930,0.000]",
          "15"
        ],
        "guideScene": 3,
        "guideLayer": "QUEST_GUIDE_LAYER_SCENE",
        "MLAHIFLGIGJ": ""
      },
      "guideHint": {
        "param1": ""
      },
      "isRewind": true,
      "finishExec": [
        {
          "damageRatio": "QUEST_EXEC_REFRESH_GROUP_SUITE",
          "param": [
            "3",
            "133102244,4"
          ]
        }
      ],
      "versionBegin": "",
      "versionEnd": ""
    },
    {
      "subId": 4010821,
      "mainId": 40108,
      "order": 12,
      "descTextMapHash": 1088670916,
      "JIFODJPFKDF": [
        40014
      ],
      "finishCond": [
        {
          "damageRatio": "QUEST_CONTENT_COMPLETE_TALK",
          "param": [
            4010820,
            0
          ]
        }
      ],
      "guide": {
        "damageRatio": "QUEST_GUIDE_NPC",
        "autoGuide": "QUEST_GUIDE_AUTO_ENABLE",
        "param": [
          "1021"
        ],
        "guideScene": 3,
        "guideStyle": "QUEST_GUIDE_STYLE_TARGET",
        "guideLayer": "QUEST_GUIDE_LAYER_SCENE",
        "MLAHIFLGIGJ": ""
      },
      "guideHint": {
        "param1": ""
      },
      "isRewind": true,
      "versionBegin": "",
      "versionEnd": ""
    }
  ],
  "talks": [
    {
      "id": 4010802,
      "beginWay": "TALK_BEGIN_MANUAL",
      "beginCond": [
        {
          "type": "QUEST_COND_STATE_EQUAL",
          "_param": [
            "4010802",
            "2"
          ]
        }
      ],
      "priority": 5,
      "initDialog": 401080201,
      "npcId": [
        2143
      ],
      "performCfg": "QuestDialogue/EQ/V3.7KaPaiXunYou_40108/Q4010802",
      "heroTalk": "TALK_HERO_MAIN",
      "questId": 40108,
      "assetIndex": 1788902080279320824,
      "prePerformCfg": "",
      "CHAKPMBJNAJ": [
        "[3_3766:-409.275,216.336,345.217,0.000,274.330,0.000]",
        "[3_3773:-409.274,216.336,346.398,0.000,259.320,0.000]",
        "[3_3774:-413.782,216.688,345.553,0.000,94.440,0.000]"
      ]
    },
    {
      "id": 4010804,
      "beginWay": "TALK_BEGIN_MANUAL",
      "beginCond": [
        {
          "type": "QUEST_COND_STATE_EQUAL",
          "_param": [
            "4010808",
            "2"
          ]
        }
      ],
      "priority": 5,
      "initDialog": 401080401,
      "npcId": [
        2036
      ],
      "performCfg": "QuestDialogue/EQ/V3.7KaPaiXunYou_40108/Q4010804",
      "heroTalk": "TALK_HERO_MAIN",
      "questId": 40108,
      "assetIndex": 14450868800381111861,
      "prePerformCfg": ""
    },
    {
      "id": 4010805,
      "beginWay": "TALK_BEGIN_MANUAL",
      "beginCond": [
        {
          "type": "QUEST_COND_STATE_EQUAL",
          "_param": [
            "4010808",
            "2"
          ]
        }
      ],
      "priority": 5,
      "initDialog": 401080501,
      "npcId": [
        2002
      ],
      "performCfg": "QuestDialogue/EQ/V3.7KaPaiXunYou_40108/Q4010805",
      "heroTalk": "TALK_HERO_MAIN",
      "questId": 40108,
      "assetIndex": 8802408791100484327,
      "prePerformCfg": ""
    },
    {
      "id": 4010806,
      "beginWay": "TALK_BEGIN_MANUAL",
      "beginCond": [
        {
          "type": "QUEST_COND_STATE_EQUAL",
          "_param": [
            "4010808",
            "2"
          ]
        }
      ],
      "priority": 5,
      "initDialog": 401080601,
      "npcId": [
        2035
      ],
      "performCfg": "QuestDialogue/EQ/V3.7KaPaiXunYou_40108/Q4010806",
      "heroTalk": "TALK_HERO_MAIN",
      "questId": 40108,
      "assetIndex": 3399918608885387221,
      "prePerformCfg": ""
    },
    {
      "id": 4010809,
      "beginWay": "TALK_BEGIN_MANUAL",
      "beginCond": [
        {
          "type": "QUEST_COND_STATE_EQUAL",
          "_param": [
            "4010809",
            "2"
          ]
        }
      ],
      "priority": 5,
      "initDialog": 401080901,
      "npcId": [
        1032
      ],
      "performCfg": "QuestDialogue/EQ/V3.7KaPaiXunYou_40108/Q4010809",
      "heroTalk": "TALK_HERO_MAIN",
      "questId": 40108,
      "assetIndex": 10213347773650311809,
      "prePerformCfg": "",
      "CHAKPMBJNAJ": [
        "[3_310701960:-600.023,204.809,129.691,0.000,96.750,0.000]",
        "[3_3778:-597.221,204.809,129.003,0.000,297.770,0.000]",
        "[3_3780:-630.437,209.431,156.939,0.000,314.970,0.000]"
      ]
    },
    {
      "id": 4010810,
      "beginWay": "TALK_BEGIN_MANUAL",
      "beginCond": [
        {
          "type": "QUEST_COND_STATE_EQUAL",
          "_param": [
            "4010810",
            "2"
          ]
        }
      ],
      "priority": 5,
      "initDialog": 401081001,
      "npcId": [
        1069
      ],
      "performCfg": "QuestDialogue/EQ/V3.7KaPaiXunYou_40108/Q4010810",
      "heroTalk": "TALK_HERO_MAIN",
      "questId": 40108,
      "assetIndex": 16434408927359522147,
      "prePerformCfg": "",
      "CHAKPMBJNAJ": [
        "[3_310701961:-627.875,209.431,154.728,0.000,336.110,0.000]",
        "[3_3780:-630.437,209.431,156.939,0.000,314.970,0.000]",
        "[3_3781:-629.400,209.431,154.154,0.000,335.380,0.000]"
      ]
    },
    {
      "id": 4010811,
      "beginWay": "TALK_BEGIN_MANUAL",
      "beginCond": [
        {
          "type": "QUEST_COND_STATE_EQUAL",
          "_param": [
            "4010811",
            "2"
          ]
        }
      ],
      "priority": 5,
      "initDialog": 401081101,
      "npcId": [
        1021
      ],
      "performCfg": "QuestDialogue/EQ/V3.7KaPaiXunYou_40108/Q4010811",
      "heroTalk": "TALK_HERO_MAIN",
      "questId": 40108,
      "assetIndex": 2990026746647700076,
      "prePerformCfg": "",
      "CHAKPMBJNAJ": [
        "[3_3768:-625.482,226.665,328.998,0.000,349.960,0.000]",
        "[3_3783:-627.542,226.665,326.925]",
        "[3_3785:-627.041,226.665,328.734]",
        "[3_3786:-624.252,226.665,329.561,0.000,322.240,0.000]"
      ]
    },
    {
      "id": 4010812,
      "beginWay": "TALK_BEGIN_MANUAL",
      "beginCond": [
        {
          "type": "QUEST_COND_STATE_EQUAL",
          "_param": [
            "4010812",
            "2"
          ]
        }
      ],
      "priority": 5,
      "initDialog": 401081201,
      "npcId": [
        1023
      ],
      "performCfg": "QuestDialogue/EQ/V3.7KaPaiXunYou_40108/Q4010812",
      "heroTalk": "TALK_HERO_MAIN",
      "questId": 40108,
      "assetIndex": 1050493280994696474,
      "prePerformCfg": "",
      "CHAKPMBJNAJ": [
        "[3_3769:1537.625,235.551,504.227,0.000,150.520,0.000]",
        "[3_3790:1539.787,235.551,502.329,0.000,178.040,0.000]",
        "[3_3791:1540.182,235.551,500.067]",
        "[3_3796:1539.547,235.551,504.752,0.000,193.070,0.000]"
      ]
    },
    {
      "id": 4010817,
      "beginWay": "TALK_BEGIN_MANUAL",
      "beginCond": [
        {
          "type": "QUEST_COND_STATE_EQUAL",
          "_param": [
            "4010817",
            "2"
          ]
        }
      ],
      "priority": 5,
      "initDialog": 401081701,
      "npcId": [
        1023
      ],
      "performCfg": "QuestDialogue/EQ/V3.7KaPaiXunYou_40108/Q4010817",
      "heroTalk": "TALK_HERO_MAIN",
      "questId": 40108,
      "assetIndex": 4519224248767502018,
      "prePerformCfg": "",
      "CHAKPMBJNAJ": [
        "[3_3793:1578.575,247.046,449.434,0.000,338.870,0.000]",
        "[3_3794:1579.627,247.002,451.374,0.000,288.670,0.000]",
        "[3_3797:1577.691,246.277,454.346,0.000,173.770,0.000]"
      ]
    },
    {
      "id": 4010818,
      "beginWay": "TALK_BEGIN_MANUAL",
      "beginCond": [
        {
          "type": "QUEST_COND_STATE_EQUAL",
          "_param": [
            "4010818",
            "2"
          ]
        }
      ],
      "priority": 5,
      "initDialog": 401081801,
      "npcId": [
        30361
      ],
      "performCfg": "QuestDialogue/EQ/V3.7KaPaiXunYou_40108/Q4010818",
      "heroTalk": "TALK_HERO_MAIN",
      "questId": 40108,
      "assetIndex": 15749709392641614774,
      "prePerformCfg": "",
      "CHAKPMBJNAJ": [
        "[3_3772:1602.731,260.862,479.439,0.000,224.780,0.000]",
        "[3_3799:1598.598,260.877,480.362,0.000,169.720,0.000]",
        "[3_3800:1603.327,260.727,477.302,0.000,241.290,0.000]",
        "[3_3801:1599.452,260.865,478.063,0.000,204.090,0.000]",
        "[3_3802:1598.620,260.753,476.380,0.000,31.980,0.000]"
      ]
    },
    {
      "id": 4010819,
      "beginWay": "TALK_BEGIN_MANUAL",
      "beginCond": [
        {
          "type": "QUEST_COND_STATE_EQUAL",
          "_param": [
            "4010819",
            "2"
          ]
        }
      ],
      "priority": 5,
      "initDialog": 401081901,
      "npcId": [
        1021
      ],
      "performCfg": "QuestDialogue/EQ/V3.7KaPaiXunYou_40108/Q4010819",
      "heroTalk": "TALK_HERO_MAIN",
      "questId": 40108,
      "assetIndex": 850679571783420193,
      "prePerformCfg": "",
      "CHAKPMBJNAJ": [
        "[3_3803:-525.075,209.821,249.936,0.000,228.800,0.000]",
        "[3_3804:-526.154,209.821,248.833,0.000,45.200,0.000]",
        "[3_3805:-518.442,207.809,234.305,0.000,232.400,0.000]",
        "[3_3806:-519.376,207.814,235.536,0.000,216.200,0.000]",
        "[3_3884:-527.630,209.821,250.106,0.000,132.600,0.000]",
        "[3_3889:-525.986,209.821,251.429,0.000,153.300,0.000]"
      ]
    },
    {
      "id": 4010820,
      "beginWay": "TALK_BEGIN_MANUAL",
      "beginCond": [
        {
          "type": "QUEST_COND_STATE_EQUAL",
          "_param": [
            "4010821",
            "2"
          ]
        }
      ],
      "priority": 5,
      "initDialog": 401082001,
      "npcId": [
        1021
      ],
      "performCfg": "QuestDialogue/EQ/V3.7KaPaiXunYou_40108/Q4010820",
      "heroTalk": "TALK_HERO_MAIN",
      "questId": 40108,
      "assetIndex": 6181562795428925315,
      "prePerformCfg": "",
      "CHAKPMBJNAJ": [
        "[3_3768:-625.482,226.665,328.998,0.000,349.960,0.000]",
        "[3_3783:-627.542,226.665,326.925]",
        "[3_3785:-627.041,226.665,328.734]",
        "[3_3787:-623.954,226.665,327.695,0.000,343.800,0.000]"
      ]
    }
  ],
  "preloadLuaList": [
    17449748161764125471,
    15884989380411149096
  ],
  "forcePreloadLuaList": [
    8163805315530302201
  ],
  "freeStyleDic": {
    "1021": [
      1220
    ],
    "30360": [
      5030
    ],
    "30361": [
      5030
    ],
    "2039": [
      0
    ]
  },
  "dialogList": [
    {
      "id": 401081200,
      "nextDialogs": [
        401081201
      ],
      "talkRole": {
        "type": "TALK_ROLE_NPC",
        "_id": "1005"
      },
      "talkContentTextMapHash": 546022826,
      "talkAssetPath": "",
      "talkAssetPathAlter": "",
      "talkAudioName": "",
      "actionBefore": "",
      "actionWhile": "",
      "actionAfter": "",
      "optionIcon": "",
      "iconPath": ""
    },
    {
      "id": 401081211,
      "nextDialogs": [
        401081212
      ],
      "talkRole": {
        "type": "TALK_ROLE_NPC",
        "_id": "1016"
      },
      "talkContentTextMapHash": 317888738,
      "talkAssetPath": "",
      "talkAssetPathAlter": "",
      "talkAudioName": "",
      "actionBefore": "",
      "actionWhile": "",
      "actionAfter": "",
      "optionIcon": "",
      "iconPath": ""
    },
    {
      "id": 401081212,
      "nextDialogs": [
        401081213
      ],
      "talkShowType": "TALK_SHOW_FORCE_SELECT",
      "talkRole": {
        "type": "TALK_ROLE_PLAYER",
        "_id": ""
      },
      "talkContentTextMapHash": 1574533922,
      "talkAssetPath": "",
      "talkAssetPathAlter": "",
      "talkAudioName": "",
      "actionBefore": "",
      "actionWhile": "",
      "actionAfter": "",
      "optionIcon": "",
      "iconPath": ""
    },
    {
      "id": 401081213,
      "nextDialogs": [
        401081214
      ],
      "talkRole": {
        "type": "TALK_ROLE_NPC",
        "_id": "1021"
      },
      "talkContentTextMapHash": 13792202,
      "talkAssetPath": "",
      "talkAssetPathAlter": "",
      "talkAudioName": "",
      "actionBefore": "",
      "actionWhile": "",
      "actionAfter": "",
      "optionIcon": "",
      "iconPath": ""
    },
    {
      "id": 401081214,
      "talkRole": {
        "type": "TALK_ROLE_NPC",
        "_id": "1005"
      },
      "talkContentTextMapHash": 1387722258,
      "talkAssetPath": "",
      "talkAssetPathAlter": "",
      "talkAudioName": "",
      "actionBefore": "",
      "actionWhile": "",
      "actionAfter": "",
      "optionIcon": "",
      "iconPath": ""
    }
  ]
}