{
  "id": 40105,
  "damageRatio": "EQ",
  "descTextMapHash": 1625334135,
  "EKEKACCODOE": 1979906190,
  "luaPath": "Actor/Quest/EQ40105",
  "showType": "QUEST_HIDDEN",
  "activityId": 2020,
  "subQuests": [
    {
      "subId": 4010501,
      "mainId": 40105,
      "order": 1,
      "showType": "QUEST_HIDDEN",
      "finishCond": [
        {
          "damageRatio": "QUEST_CONTENT_QUEST_STATE_EQUAL",
          "param": [
            1302401,
            2
          ]
        },
        {
          "damageRatio": "QUEST_CONTENT_QUEST_STATE_EQUAL",
          "param": [
            1302401,
            3
          ]
        }
      ],
      "guide": {
        "MLAHIFLGIGJ": ""
      },
      "showGuide": "QUEST_GUIDE_ITEM_DISABLE",
      "guideHint": {
        "param1": ""
      },
      "finishParent": true,
      "failParentShow": "QUEST_HIDDEN",
      "isRewind": true,
      "versionBegin": "",
      "versionEnd": ""
    }
  ],
  "talks": [
    {
      "id": 4010501,
      "beginWay": "TALK_BEGIN_MANUAL",
      "beginCond": [
        {
          "type": "QUEST_COND_STATE_EQUAL",
          "_param": [
            "99902",
            "3"
          ]
        }
      ],
      "priority": 5,
      "initDialog": 401050101,
      "performCfg": "",
      "heroTalk": "TALK_HERO_MAIN",
      "questId": 40105,
      "assetIndex": 7548559507957198962,
      "prePerformCfg": ""
    }
  ],
  "freeStyleDic": {
    "1052": [
      1120
    ]
  }
}