{
  "id": 40107,
  "series": 10113,
  "damageRatio": "EQ",
  "descTextMapHash": 1787146959,
  "EKEKACCODOE": 3502977886,
  "luaPath": "Actor/Quest/EQ40107",
  "suggestTrackMainQuestList": [
    40108
  ],
  "rewardIdList": [
    140107
  ],
  "chapterId": 10113,
  "showRedPoint": true,
  "activityId": 2022,
  "subQuests": [
    {
      "subId": 4010701,
      "mainId": 40107,
      "order": 2,
      "descTextMapHash": 417964516,
      "stepDescTextMapHash": 449466877,
      "JIFODJPFKDF": [
        300406,
        300404
      ],
      "finishCond": [
        {
          "damageRatio": "QUEST_CONTENT_COMPLETE_TALK",
          "param": [
            4010701,
            0
          ]
        }
      ],
      "guide": {
        "damageRatio": "QUEST_GUIDE_LOCATION",
        "autoGuide": "QUEST_GUIDE_AUTO_ENABLE",
        "param": [
          "[3_3738:2211.556,210.627,-970.545,0.000,25.380,0.000]"
        ],
        "guideScene": 3,
        "guideStyle": "QUEST_GUIDE_STYLE_POINT",
        "guideLayer": "QUEST_GUIDE_LAYER_SCENE",
        "MLAHIFLGIGJ": ""
      },
      "guideHint": {
        "param1": ""
      },
      "isRewind": true,
      "versionBegin": "",
      "versionEnd": ""
    },
    {
      "subId": 4010702,
      "mainId": 40107,
      "order": 3,
      "descTextMapHash": 178457804,
      "JIFODJPFKDF": [
        300404,
        300401
      ],
      "finishCond": [
        {
          "damageRatio": "QUEST_CONTENT_COMPLETE_TALK",
          "param": [
            4010702,
            0
          ]
        }
      ],
      "guide": {
        "damageRatio": "QUEST_GUIDE_LOCATION",
        "autoGuide": "QUEST_GUIDE_AUTO_ENABLE",
        "param": [
          "[3_3739:2241.183,213.990,-902.484,0.000,267.300,0.000]"
        ],
        "guideScene": 3,
        "guideStyle": "QUEST_GUIDE_STYLE_POINT",
        "guideLayer": "QUEST_GUIDE_LAYER_SCENE",
        "MLAHIFLGIGJ": ""
      },
      "guideHint": {
        "param1": ""
      },
      "isRewind": true,
      "finishExec": [
        {
          "damageRatio": "QUEST_EXEC_SET_GAME_TIME",
          "param": [
            "8"
          ]
        }
      ],
      "versionBegin": "",
      "versionEnd": ""
    },
    {
      "subId": 4010703,
      "mainId": 40107,
      "order": 4,
      "descTextMapHash": 2416735460,
      "JIFODJPFKDF": [
        300405,
        300404
      ],
      "finishCond": [
        {
          "damageRatio": "QUEST_CONTENT_COMPLETE_TALK",
          "param": [
            4010703,
            0
          ]
        }
      ],
      "guide": {
        "damageRatio": "QUEST_GUIDE_NPC",
        "autoGuide": "QUEST_GUIDE_AUTO_ENABLE",
        "param": [
          "1431"
        ],
        "guideScene": 3,
        "guideStyle": "QUEST_GUIDE_STYLE_TARGET",
        "guideLayer": "QUEST_GUIDE_LAYER_SCENE",
        "MLAHIFLGIGJ": ""
      },
      "guideHint": {
        "param1": ""
      },
      "isRewind": true,
      "versionBegin": "",
      "versionEnd": ""
    },
    {
      "subId": 4010704,
      "mainId": 40107,
      "order": 5,
      "descTextMapHash": 1873024628,
      "JIFODJPFKDF": [
        300405,
        300404
      ],
      "finishCond": [
        {
          "damageRatio": "QUEST_CONTENT_COMPLETE_TALK",
          "param": [
            4010704,
            0
          ]
        }
      ],
      "guide": {
        "damageRatio": "QUEST_GUIDE_NPC",
        "autoGuide": "QUEST_GUIDE_AUTO_ENABLE",
        "param": [
          "1070"
        ],
        "guideScene": 3,
        "guideStyle": "QUEST_GUIDE_STYLE_TARGET",
        "guideLayer": "QUEST_GUIDE_LAYER_SCENE",
        "MLAHIFLGIGJ": ""
      },
      "guideHint": {
        "param1": ""
      },
      "isRewind": true,
      "finishExec": [
        {
          "damageRatio": "QUEST_EXEC_SET_QUEST_GLOBAL_VAR",
          "param": [
            "4010702",
            "1"
          ]
        }
      ],
      "versionBegin": "",
      "versionEnd": ""
    },
    {
      "subId": 4010705,
      "mainId": 40107,
      "order": 6,
      "descTextMapHash": 2355115868,
      "stepDescTextMapHash": 3790328621,
      "JIFODJPFKDF": [
        300404
      ],
      "finishCond": [
        {
          "damageRatio": "QUEST_CONTENT_FINISH_PLOT",
          "param": [
            4010705,
            0
          ]
        }
      ],
      "guide": {
        "damageRatio": "QUEST_GUIDE_NPC",
        "autoGuide": "QUEST_GUIDE_AUTO_ENABLE",
        "param": [
          "1070"
        ],
        "guideScene": 3,
        "guideStyle": "QUEST_GUIDE_STYLE_TARGET",
        "guideLayer": "QUEST_GUIDE_LAYER_SCENE",
        "MLAHIFLGIGJ": ""
      },
      "guideHint": {
        "param1": ""
      },
      "isRewind": true,
      "versionBegin": "",
      "versionEnd": ""
    },
    {
      "subId": 4010706,
      "mainId": 40107,
      "order": 7,
      "descTextMapHash": 1738489068,
      "JIFODJPFKDF": [
        300407
      ],
      "finishCond": [
        {
          "damageRatio": "QUEST_CONTENT_COMPLETE_TALK",
          "param": [
            4010706,
            0
          ]
        }
      ],
      "guide": {
        "damageRatio": "QUEST_GUIDE_NPC",
        "autoGuide": "QUEST_GUIDE_AUTO_ENABLE",
        "param": [
          "1070"
        ],
        "guideScene": 3,
        "guideStyle": "QUEST_GUIDE_STYLE_TARGET",
        "guideLayer": "QUEST_GUIDE_LAYER_SCENE",
        "MLAHIFLGIGJ": ""
      },
      "guideHint": {
        "param1": ""
      },
      "isRewind": true,
      "versionBegin": "",
      "versionEnd": ""
    },
    {
      "subId": 4010707,
      "mainId": 40107,
      "order": 8,
      "descTextMapHash": 2325948244,
      "JIFODJPFKDF": [
        300408
      ],
      "finishCond": [
        {
          "damageRatio": "QUEST_CONTENT_FINISH_PLOT",
          "param": [
            4010707,
            0
          ]
        }
      ],
      "guide": {
        "damageRatio": "QUEST_GUIDE_LOCATION",
        "autoGuide": "QUEST_GUIDE_AUTO_ENABLE",
        "param": [
          "[3_3741:2215.391,230.088,-799.592,0.000,349.000,0.000]"
        ],
        "guideScene": 3,
        "guideStyle": "QUEST_GUIDE_STYLE_POINT",
        "guideLayer": "QUEST_GUIDE_LAYER_SCENE",
        "MLAHIFLGIGJ": ""
      },
      "guideHint": {
        "param1": ""
      },
      "isRewind": true,
      "versionBegin": "",
      "versionEnd": ""
    },
    {
      "subId": 4010708,
      "mainId": 40107,
      "order": 9,
      "descTextMapHash": 2351291972,
      "JIFODJPFKDF": [
        300408
      ],
      "finishCond": [
        {
          "damageRatio": "QUEST_CONTENT_COMPLETE_TALK",
          "param": [
            4010708,
            0
          ]
        }
      ],
      "guide": {
        "damageRatio": "QUEST_GUIDE_NPC",
        "autoGuide": "QUEST_GUIDE_AUTO_ENABLE",
        "param": [
          "1004"
        ],
        "guideScene": 3,
        "guideStyle": "QUEST_GUIDE_STYLE_TARGET",
        "guideLayer": "QUEST_GUIDE_LAYER_SCENE",
        "MLAHIFLGIGJ": ""
      },
      "guideHint": {
        "param1": ""
      },
      "isRewind": true,
      "versionBegin": "",
      "versionEnd": ""
    },
    {
      "subId": 4010709,
      "mainId": 40107,
      "order": 13,
      "descTextMapHash": 911158436,
      "JIFODJPFKDF": [
        300408
      ],
      "finishCond": [
        {
          "damageRatio": "QUEST_CONTENT_COMPLETE_TALK",
          "param": [
            4010709,
            0
          ]
        }
      ],
      "guide": {
        "damageRatio": "QUEST_GUIDE_LOCATION",
        "autoGuide": "QUEST_GUIDE_AUTO_ENABLE",
        "param": [
          "[3_3968:2389.855,215.971,-846.985]"
        ],
        "guideScene": 3,
        "guideStyle": "QUEST_GUIDE_STYLE_POINT",
        "guideLayer": "QUEST_GUIDE_LAYER_SCENE",
        "MLAHIFLGIGJ": ""
      },
      "guideHint": {
        "param1": ""
      },
      "isRewind": true,
      "versionBegin": "",
      "versionEnd": ""
    },
    {
      "subId": 4010712,
      "mainId": 40107,
      "order": 10,
      "descTextMapHash": 536701268,
      "JIFODJPFKDF": [
        300408
      ],
      "finishCond": [
        {
          "damageRatio": "QUEST_CONTENT_COMPLETE_TALK",
          "param": [
            4010712,
            0
          ]
        }
      ],
      "guide": {
        "damageRatio": "QUEST_GUIDE_NPC",
        "autoGuide": "QUEST_GUIDE_AUTO_ENABLE",
        "param": [
          "1070"
        ],
        "guideScene": 3,
        "guideStyle": "QUEST_GUIDE_STYLE_TARGET",
        "guideLayer": "QUEST_GUIDE_LAYER_SCENE",
        "MLAHIFLGIGJ": ""
      },
      "guideHint": {
        "param1": ""
      },
      "isRewind": true,
      "versionBegin": "",
      "versionEnd": ""
    },
    {
      "subId": 4010713,
      "mainId": 40107,
      "order": 11,
      "descTextMapHash": 2882403212,
      "JIFODJPFKDF": [
        300408
      ],
      "finishCond": [
        {
          "damageRatio": "QUEST_CONTENT_COMPLETE_TALK",
          "param": [
            4010713,
            0
          ]
        }
      ],
      "guide": {
        "damageRatio": "QUEST_GUIDE_LOCATION",
        "autoGuide": "QUEST_GUIDE_AUTO_ENABLE",
        "param": [
          "[3_3742:2264.574,219.990,-854.043,0.000,118.740,0.000]"
        ],
        "guideScene": 3,
        "guideStyle": "QUEST_GUIDE_STYLE_POINT",
        "guideLayer": "QUEST_GUIDE_LAYER_SCENE",
        "MLAHIFLGIGJ": ""
      },
      "guideHint": {
        "param1": ""
      },
      "isRewind": true,
      "versionBegin": "",
      "versionEnd": ""
    },
    {
      "subId": 4010714,
      "mainId": 40107,
      "order": 12,
      "descTextMapHash": 211070220,
      "JIFODJPFKDF": [
        300408
      ],
      "finishCond": [
        {
          "damageRatio": "QUEST_CONTENT_COMPLETE_TALK",
          "param": [
            4010714,
            0
          ]
        }
      ],
      "guide": {
        "damageRatio": "QUEST_GUIDE_LOCATION",
        "autoGuide": "QUEST_GUIDE_AUTO_ENABLE",
        "param": [
          "[3_3743:2321.571,209.990,-883.649,0.000,137.700,0.000]"
        ],
        "guideScene": 3,
        "guideStyle": "QUEST_GUIDE_STYLE_POINT",
        "guideLayer": "QUEST_GUIDE_LAYER_SCENE",
        "MLAHIFLGIGJ": ""
      },
      "guideHint": {
        "param1": ""
      },
      "isRewind": true,
      "versionBegin": "",
      "versionEnd": ""
    },
    {
      "subId": 4010715,
      "mainId": 40107,
      "order": 14,
      "descTextMapHash": 3412447316,
      "JIFODJPFKDF": [
        300408
      ],
      "finishCond": [
        {
          "damageRatio": "QUEST_CONTENT_CLEAR_GROUP_MONSTER",
          "param": [
            133004135,
            0
          ]
        }
      ],
      "failCond": [
        {
          "damageRatio": "QUEST_CONTENT_LEAVE_SCENE_RANGE",
          "param": [
            3,
            100
          ]
        }
      ],
      "guide": {
        "damageRatio": "QUEST_GUIDE_LOCATION",
        "autoGuide": "QUEST_GUIDE_AUTO_ENABLE",
        "param": [
          "[3_3885:2389.698,221.365,-801.591,0.000,273.600,0.000]",
          "30"
        ],
        "guideScene": 3,
        "guideLayer": "QUEST_GUIDE_LAYER_SCENE",
        "MLAHIFLGIGJ": ""
      },
      "guideHint": {
        "param1": ""
      },
      "finishExec": [
        {
          "damageRatio": "QUEST_EXEC_UNREGISTER_DYNAMIC_GROUP",
          "param": [
            "133004135"
          ]
        }
      ],
      "failExec": [
        {
          "damageRatio": "QUEST_EXEC_ROLLBACK_QUEST",
          "param": [
            "4010709"
          ]
        },
        {
          "damageRatio": "QUEST_EXEC_UNREGISTER_DYNAMIC_GROUP",
          "param": [
            "133004135"
          ]
        }
      ],
      "versionBegin": "",
      "versionEnd": ""
    },
    {
      "subId": 4010716,
      "mainId": 40107,
      "order": 15,
      "descTextMapHash": 2140705340,
      "JIFODJPFKDF": [
        300408
      ],
      "finishCond": [
        {
          "damageRatio": "QUEST_CONTENT_COMPLETE_TALK",
          "param": [
            4010716,
            0
          ]
        }
      ],
      "guide": {
        "damageRatio": "QUEST_GUIDE_NPC",
        "autoGuide": "QUEST_GUIDE_AUTO_ENABLE",
        "param": [
          "30359"
        ],
        "guideScene": 3,
        "guideStyle": "QUEST_GUIDE_STYLE_TARGET",
        "guideLayer": "QUEST_GUIDE_LAYER_SCENE",
        "MLAHIFLGIGJ": ""
      },
      "guideHint": {
        "param1": ""
      },
      "isRewind": true,
      "versionBegin": "",
      "versionEnd": ""
    },
    {
      "subId": 4010717,
      "mainId": 40107,
      "order": 16,
      "descTextMapHash": 794357108,
      "JIFODJPFKDF": [
        300408
      ],
      "finishCond": [
        {
          "damageRatio": "QUEST_CONTENT_FINISH_PLOT",
          "param": [
            4010717,
            0
          ]
        }
      ],
      "guide": {
        "damageRatio": "QUEST_GUIDE_LOCATION",
        "autoGuide": "QUEST_GUIDE_AUTO_ENABLE",
        "param": [
          "[3_3744:2227.286,229.990,-793.225,0.000,284.600,0.000]"
        ],
        "guideScene": 3,
        "guideStyle": "QUEST_GUIDE_STYLE_POINT",
        "guideLayer": "QUEST_GUIDE_LAYER_SCENE",
        "MLAHIFLGIGJ": ""
      },
      "guideHint": {
        "param1": ""
      },
      "isRewind": true,
      "versionBegin": "",
      "versionEnd": ""
    },
    {
      "subId": 4010718,
      "mainId": 40107,
      "order": 17,
      "descTextMapHash": 3022863252,
      "JIFODJPFKDF": [
        300408
      ],
      "finishCond": [
        {
          "damageRatio": "QUEST_CONTENT_COMPLETE_TALK",
          "param": [
            4010718,
            0
          ]
        }
      ],
      "guide": {
        "damageRatio": "QUEST_GUIDE_NPC",
        "autoGuide": "QUEST_GUIDE_AUTO_ENABLE",
        "param": [
          "1004"
        ],
        "guideScene": 3,
        "guideStyle": "QUEST_GUIDE_STYLE_TARGET",
        "guideLayer": "QUEST_GUIDE_LAYER_SCENE",
        "MLAHIFLGIGJ": ""
      },
      "guideHint": {
        "param1": ""
      },
      "finishParent": true,
      "isRewind": true,
      "finishExec": [
        {
          "damageRatio": "QUEST_EXEC_SET_QUEST_GLOBAL_VAR",
          "param": [
            "4010701",
            "1"
          ]
        }
      ],
      "versionBegin": "",
      "versionEnd": ""
    },
    {
      "subId": 4010719,
      "mainId": 40107,
      "order": 1,
      "descTextMapHash": 3959626628,
      "showType": "QUEST_HIDDEN",
      "JIFODJPFKDF": [
        300406,
        300404
      ],
      "finishCond": [
        {
          "damageRatio": "QUEST_CONTENT_FINISH_PLOT",
          "param": [
            4010719,
            0
          ]
        }
      ],
      "guide": {
        "guideScene": 3,
        "MLAHIFLGIGJ": ""
      },
      "showGuide": "QUEST_GUIDE_ITEM_DISABLE",
      "guideHint": {
        "param1": ""
      },
      "isRewind": true,
      "versionBegin": "",
      "versionEnd": ""
    }
  ],
  "talks": [
    {
      "id": 4010701,
      "beginWay": "TALK_BEGIN_MANUAL",
      "beginCond": [
        {
          "type": "QUEST_COND_STATE_EQUAL",
          "_param": [
            "4010701",
            "2"
          ]
        }
      ],
      "priority": 5,
      "initDialog": 401070101,
      "npcId": [
        30357
      ],
      "performCfg": "QuestDialogue/EQ/V3.7KaPaiXunYou_40107/Q4010701",
      "heroTalk": "TALK_HERO_MAIN",
      "questId": 40107,
      "assetIndex": 5811071685663531254,
      "prePerformCfg": "",
      "CHAKPMBJNAJ": [
        "[3_3738:2211.556,210.627,-970.545,0.000,25.380,0.000]",
        "[3_3745:2216.953,209.737,-962.773]",
        "[3_3746:2219.057,209.989,-963.591]"
      ]
    },
    {
      "id": 4010702,
      "beginWay": "TALK_BEGIN_MANUAL",
      "beginCond": [
        {
          "type": "QUEST_COND_STATE_EQUAL",
          "_param": [
            "4010702",
            "2"
          ]
        }
      ],
      "priority": 5,
      "initDialog": 401070201,
      "npcId": [
        1061
      ],
      "performCfg": "QuestDialogue/EQ/V3.7KaPaiXunYou_40107/Q4010702",
      "heroTalk": "TALK_HERO_MAIN",
      "questId": 40107,
      "assetIndex": 3957544159155299928,
      "prePerformCfg": "",
      "CHAKPMBJNAJ": [
        "[3_3739:2241.183,213.990,-902.484,0.000,267.300,0.000]",
        "[3_3747:2233.290,214.120,-902.577,0.000,128.740,0.000]",
        "[3_3748:2234.553,214.120,-903.486,0.000,312.360,0.000]"
      ]
    },
    {
      "id": 4010703,
      "beginWay": "TALK_BEGIN_MANUAL",
      "beginCond": [
        {
          "type": "QUEST_COND_STATE_EQUAL",
          "_param": [
            "4010703",
            "2"
          ]
        }
      ],
      "priority": 5,
      "initDialog": 401070301,
      "npcId": [
        1431
      ],
      "performCfg": "QuestDialogue/EQ/V3.7KaPaiXunYou_40107/Q4010703",
      "heroTalk": "TALK_HERO_MAIN",
      "questId": 40107,
      "assetIndex": 867957835364247756,
      "prePerformCfg": "",
      "CHAKPMBJNAJ": [
        "[3_300401891:2249.984,215.947,-883.861,0.000,52.620,0.000]",
        "[3_3749:2251.019,215.947,-882.180,0.000,69.390,0.000]"
      ]
    },
    {
      "id": 4010704,
      "beginWay": "TALK_BEGIN_MANUAL",
      "beginCond": [
        {
          "type": "QUEST_COND_STATE_EQUAL",
          "_param": [
            "4010704",
            "2"
          ]
        }
      ],
      "priority": 5,
      "initDialog": 401070401,
      "npcId": [
        1070
      ],
      "performCfg": "QuestDialogue/EQ/V3.7KaPaiXunYou_40107/Q4010704",
      "heroTalk": "TALK_HERO_MAIN",
      "questId": 40107,
      "assetIndex": 18408000871084828280,
      "prePerformCfg": "",
      "CHAKPMBJNAJ": [
        "[3_300401891:2249.984,215.947,-883.861,0.000,52.620,0.000]",
        "[3_3750:2253.772,215.984,-886.179,0.000,296.360,0.000]"
      ]
    },
    {
      "id": 4010706,
      "beginWay": "TALK_BEGIN_MANUAL",
      "beginCond": [
        {
          "type": "QUEST_COND_STATE_EQUAL",
          "_param": [
            "4010706",
            "2"
          ]
        }
      ],
      "priority": 5,
      "initDialog": 401070601,
      "npcId": [
        1070
      ],
      "performCfg": "QuestDialogue/EQ/V3.7KaPaiXunYou_40107/Q4010706",
      "heroTalk": "TALK_HERO_MAIN",
      "questId": 40107,
      "assetIndex": 13241908796248485000,
      "prePerformCfg": "",
      "CHAKPMBJNAJ": [
        "[3_3740:2198.521,209.990,-873.789,0.000,246.660,0.000]",
        "[3_3751:2205.433,209.990,-874.028,0.000,301.100,0.000]",
        "[3_3752:2196.958,209.990,-874.430,0.000,75.570,0.000]"
      ]
    },
    {
      "id": 4010708,
      "beginWay": "TALK_BEGIN_MANUAL",
      "beginCond": [
        {
          "type": "QUEST_COND_STATE_EQUAL",
          "_param": [
            "4010708",
            "2"
          ]
        }
      ],
      "priority": 5,
      "initDialog": 401070801,
      "npcId": [
        1004
      ],
      "performCfg": "QuestDialogue/EQ/V3.7KaPaiXunYou_40107/Q4010708",
      "heroTalk": "TALK_HERO_MAIN",
      "questId": 40107,
      "assetIndex": 16205125055239043203,
      "prePerformCfg": "",
      "CHAKPMBJNAJ": [
        "[3_3741:2215.391,230.088,-799.592,0.000,349.000,0.000]",
        "[3_3753:2217.640,230.089,-794.371,0.000,295.610,0.000]",
        "[3_3754:2218.061,229.990,-810.102,0.000,117.100,0.000]",
        "[3_3759:2225.559,227.990,-827.405,0.000,183.500,0.000]",
        "[3_3966:2216.123,230.089,-793.705,0.000,109.500,0.000]",
        "[3_4375:2225.158,227.990,-829.298,0.000,15.450,0.000]"
      ]
    },
    {
      "id": 4010709,
      "beginWay": "TALK_BEGIN_MANUAL",
      "beginCond": [
        {
          "type": "QUEST_COND_STATE_EQUAL",
          "_param": [
            "4010709",
            "2"
          ]
        }
      ],
      "priority": 5,
      "initDialog": 401070901,
      "npcId": [
        1070
      ],
      "performCfg": "QuestDialogue/EQ/V3.7KaPaiXunYou_40107/Q4010709",
      "heroTalk": "TALK_HERO_MAIN",
      "questId": 40107,
      "assetIndex": 12205822852868683109,
      "prePerformCfg": "",
      "CHAKPMBJNAJ": [
        "[3_3968:2389.855,215.971,-846.985]",
        "[3_3969:2391.112,216.054,-847.244]",
        "[3_3970:2387.882,221.275,-801.719,0.000,249.400,0.000]",
        "[3_4282:2378.904,218.246,-814.986,0.000,66.720,0.000]",
        "[3_4283:2402.362,220.283,-809.320,0.000,277.300,0.000]",
        "[3_4284:2377.796,221.851,-800.166,0.000,77.350,0.000]",
        "[3_4285:2386.314,223.689,-789.808,0.000,140.630,0.000]"
      ]
    },
    {
      "id": 4010712,
      "beginWay": "TALK_BEGIN_MANUAL",
      "beginCond": [
        {
          "type": "QUEST_COND_STATE_EQUAL",
          "_param": [
            "4010712",
            "2"
          ]
        }
      ],
      "priority": 5,
      "initDialog": 401071201,
      "npcId": [
        1070
      ],
      "performCfg": "QuestDialogue/EQ/V3.7KaPaiXunYou_40107/Q4010712",
      "heroTalk": "TALK_HERO_MAIN",
      "questId": 40107,
      "assetIndex": 8197414770387180812,
      "prePerformCfg": "",
      "CHAKPMBJNAJ": [
        "[3_3741:2215.391,230.088,-799.592,0.000,349.000,0.000]",
        "[3_3758:2212.952,229.990,-819.573,0.000,165.100,0.000]",
        "[3_3759:2225.559,227.990,-827.405,0.000,183.500,0.000]",
        "[3_4375:2225.158,227.990,-829.298,0.000,15.450,0.000]"
      ]
    },
    {
      "id": 4010713,
      "beginWay": "TALK_BEGIN_MANUAL",
      "beginCond": [
        {
          "type": "QUEST_COND_STATE_EQUAL",
          "_param": [
            "4010713",
            "2"
          ]
        }
      ],
      "priority": 5,
      "initDialog": 401071301,
      "npcId": [
        1070
      ],
      "performCfg": "QuestDialogue/EQ/V3.7KaPaiXunYou_40107/Q4010713",
      "heroTalk": "TALK_HERO_MAIN",
      "questId": 40107,
      "assetIndex": 8478195744313050998,
      "prePerformCfg": "",
      "CHAKPMBJNAJ": [
        "[3_3742:2264.574,219.990,-854.043,0.000,118.740,0.000]",
        "[3_3760:2264.277,219.990,-854.724,0.000,109.700,0.000]",
        "[3_3761:2295.166,219.990,-870.260,0.000,115.860,0.000]"
      ]
    },
    {
      "id": 4010714,
      "beginWay": "TALK_BEGIN_MANUAL",
      "beginCond": [
        {
          "type": "QUEST_COND_STATE_EQUAL",
          "_param": [
            "4010714",
            "2"
          ]
        }
      ],
      "priority": 5,
      "initDialog": 401071401,
      "npcId": [
        1070
      ],
      "performCfg": "QuestDialogue/EQ/V3.7KaPaiXunYou_40107/Q4010714",
      "heroTalk": "TALK_HERO_MAIN",
      "questId": 40107,
      "assetIndex": 7204833289864214288,
      "prePerformCfg": "",
      "CHAKPMBJNAJ": [
        "[3_3743:2321.571,209.990,-883.649,0.000,137.700,0.000]",
        "[3_3762:2321.034,209.990,-884.595,0.000,120.800,0.000]",
        "[3_3763:2338.882,210.006,-903.624,0.000,117.500,0.000]"
      ]
    },
    {
      "id": 4010716,
      "beginWay": "TALK_BEGIN_MANUAL",
      "beginCond": [
        {
          "type": "QUEST_COND_STATE_EQUAL",
          "_param": [
            "4010716",
            "2"
          ]
        }
      ],
      "priority": 5,
      "initDialog": 401071601,
      "npcId": [
        30359
      ],
      "performCfg": "QuestDialogue/EQ/V3.7KaPaiXunYou_40107/Q4010716",
      "heroTalk": "TALK_HERO_MAIN",
      "questId": 40107,
      "assetIndex": 4767717239614204969,
      "prePerformCfg": "",
      "CHAKPMBJNAJ": [
        "[3_3764:2389.337,221.634,-800.236,0.000,211.000,0.000]",
        "[3_3885:2389.698,221.365,-801.591,0.000,273.600,0.000]",
        "[3_3970:2387.882,221.275,-801.719,0.000,249.400,0.000]"
      ]
    },
    {
      "id": 4010718,
      "beginWay": "TALK_BEGIN_MANUAL",
      "beginCond": [
        {
          "type": "QUEST_COND_STATE_EQUAL",
          "_param": [
            "4010718",
            "2"
          ]
        }
      ],
      "priority": 5,
      "initDialog": 401071801,
      "npcId": [
        1004
      ],
      "performCfg": "QuestDialogue/EQ/V3.7KaPaiXunYou_40107/Q4010718",
      "heroTalk": "TALK_HERO_MAIN",
      "questId": 40107,
      "assetIndex": 13362626385482763629,
      "prePerformCfg": "",
      "CHAKPMBJNAJ": [
        "[3_3744:2227.286,229.990,-793.225,0.000,284.600,0.000]",
        "[3_3756:2217.999,230.089,-791.771,0.000,273.700,0.000]",
        "[3_3757:2217.715,230.089,-792.585,0.000,277.100,0.000]",
        "[3_3765:2226.640,229.990,-794.428,0.000,310.000,0.000]",
        "[3_3886:2217.726,229.990,-810.883,0.000,119.700,0.000]",
        "[3_3887:2213.180,230.455,-791.218,0.000,150.240,0.000]",
        "[3_3966:2216.123,230.089,-793.705,0.000,109.500,0.000]",
        "[3_3967:2218.469,230.088,-793.971,0.000,287.800,0.000]"
      ]
    },
    {
      "id": 4010751,
      "beginWay": "TALK_BEGIN_MANUAL",
      "beginCondComb": "LOGIC_AND",
      "beginCond": [
        {
          "type": "QUEST_COND_STATE_EQUAL",
          "_param": [
            "4010708",
            "3"
          ]
        },
        {
          "type": "QUEST_COND_QUEST_NOT_RECEIVE",
          "_param": [
            "4010718",
            "1"
          ]
        }
      ],
      "priority": 5,
      "initDialog": 401075101,
      "npcId": [
        1567
      ],
      "performCfg": "QuestDialogue/EQ/V3.7KaPaiXunYou_40107/Q4010751",
      "heroTalk": "TALK_HERO_MAIN",
      "questId": 40107,
      "assetIndex": 87534284936013789,
      "prePerformCfg": ""
    },
    {
      "id": 4010752,
      "beginWay": "TALK_BEGIN_MANUAL",
      "beginCondComb": "LOGIC_AND",
      "beginCond": [
        {
          "type": "QUEST_COND_STATE_EQUAL",
          "_param": [
            "4010708",
            "3"
          ]
        },
        {
          "type": "QUEST_COND_QUEST_NOT_RECEIVE",
          "_param": [
            "4010718",
            "1"
          ]
        }
      ],
      "priority": 5,
      "initDialog": 401075201,
      "npcId": [
        1004
      ],
      "performCfg": "QuestDialogue/EQ/V3.7KaPaiXunYou_40107/Q4010752",
      "heroTalk": "TALK_HERO_MAIN",
      "questId": 40107,
      "assetIndex": 10653840153244592427,
      "prePerformCfg": ""
    },
    {
      "id": 4010753,
      "beginWay": "TALK_BEGIN_MANUAL",
      "beginCondComb": "LOGIC_AND",
      "beginCond": [
        {
          "type": "QUEST_COND_STATE_EQUAL",
          "_param": [
            "4010708",
            "3"
          ]
        },
        {
          "type": "QUEST_COND_QUEST_NOT_RECEIVE",
          "_param": [
            "4010718",
            "1"
          ]
        }
      ],
      "priority": 5,
      "initDialog": 401075301,
      "npcId": [
        1433
      ],
      "performCfg": "QuestDialogue/EQ/V3.7KaPaiXunYou_40107/Q4010753",
      "heroTalk": "TALK_HERO_MAIN",
      "questId": 40107,
      "assetIndex": 3282938248463545687,
      "prePerformCfg": ""
    },
    {
      "id": 4010754,
      "beginWay": "TALK_BEGIN_MANUAL",
      "beginCondComb": "LOGIC_AND",
      "beginCond": [
        {
          "type": "QUEST_COND_STATE_EQUAL",
          "_param": [
            "4010708",
            "3"
          ]
        },
        {
          "type": "QUEST_COND_QUEST_NOT_RECEIVE",
          "_param": [
            "4010718",
            "1"
          ]
        }
      ],
      "priority": 5,
      "initDialog": 401075401,
      "npcId": [
        30358,
        30357
      ],
      "performCfg": "QuestDialogue/EQ/V3.7KaPaiXunYou_40107/Q4010754",
      "heroTalk": "TALK_HERO_MAIN",
      "questId": 40107,
      "assetIndex": 7288252111661564712,
      "prePerformCfg": ""
    }
  ],
  "preloadLuaList": [
    5575916732172504491,
    777875036366370705,
    5379087495586332153,
    3733458941842709534,
    12883666106823072732
  ],
  "forcePreloadLuaList": [
    2522299859209867439
  ],
  "freeStyleDic": {
    "1567": [
      0
    ],
    "30357": [
      1120
    ],
    "30358": [
      1230
    ],
    "1004": [
      0
    ],
    "30359": [
      4190
    ]
  }
}