{
  "id": 40122,
  "damageRatio": "EQ",
  "mainQuestTag": "MAINQUEST_TAG_GUIDE",
  "luaPath": "Actor/Quest/EQ40122",
  "subQuests": [
    {
      "subId": 4012201,
      "mainId": 40122,
      "order": 1,
      "guide": {
        "damageRatio": "QUEST_GUIDE_NPC",
        "param": [
          "30225"
        ],
        "guideScene": 3,
        "guideStyle": "QUEST_GUIDE_STYLE_TARGET",
        "guideLayer": "QUEST_GUIDE_LAYER_UI",
        "MLAHIFLGIGJ": ""
      },
      "guideHint": {
        "param1": ""
      },
      "finishParent": true,
      "isRewind": true,
      "versionBegin": "",
      "versionEnd": ""
    }
  ]
}