{
  "id": 40131,
  "damageRatio": "EQ",
  "activeMode": "PLAY_MODE_ALL",
  "descTextMapHash": 4092041935,
  "luaPath": "Actor/Quest/EQ40131",
  "showType": "QUEST_HIDDEN",
  "activityId": 2026,
  "subQuests": [
    {
      "subId": 4013101,
      "mainId": 40131,
      "order": 1,
      "showType": "QUEST_HIDDEN",
      "finishCond": [
        {
          "damageRatio": "QUEST_CONTENT_TIME_VAR_PASS_DAY",
          "param": [
            40129,
            1
          ]
        }
      ],
      "guide": {
        "MLAHIFLGIGJ": ""
      },
      "guideHint": {
        "param1": ""
      },
      "finishParent": true,
      "isRewind": true,
      "finishExec": [
        {
          "damageRatio": "QUEST_EXEC_CLEAR_TIME_VAR",
          "param": [
            "40129",
            "1"
          ]
        }
      ],
      "versionBegin": "",
      "versionEnd": ""
    }
  ],
  "LNMELPHNIDD": true
}