{
  "id": 40143,
  "series": 40143,
  "damageRatio": "WQ",
  "mainQuestTag": "MAINQUEST_TAG_GUIDE",
  "descTextMapHash": 4152083159,
  "EKEKACCODOE": 1226377374,
  "luaPath": "Actor/Quest/WQ40143",
  "suggestTrackMainQuestList": [
    40147
  ],
  "rewardIdList": [
    140143
  ],
  "specialShowRewardId": [
    33477
  ],
  "showRedPoint": true,
  "activityId": 5178,
  "subQuests": [
    {
      "subId": 4014301,
      "mainId": 40143,
      "order": 1,
      "descTextMapHash": 1399666124,
      "finishCond": [
        {
          "damageRatio": "QUEST_CONTENT_COMPLETE_TALK",
          "param": [
            4014301,
            0
          ]
        }
      ],
      "guide": {
        "damageRatio": "QUEST_GUIDE_LOCATION",
        "param": [
          "[3_310400531:907.387,214.468,326.214,0.000,132.404,0.000]"
        ],
        "guideScene": 3,
        "guideStyle": "QUEST_GUIDE_STYLE_TARGET",
        "guideLayer": "QUEST_GUIDE_LAYER_SCENE",
        "MLAHIFLGIGJ": ""
      },
      "guideHint": {
        "param1": ""
      },
      "isRewind": true,
      "versionBegin": "",
      "versionEnd": ""
    },
    {
      "subId": 4014302,
      "mainId": 40143,
      "order": 2,
      "descTextMapHash": 3310295620,
      "finishCond": [
        {
          "damageRatio": "QUEST_CONTENT_COMPLETE_TALK",
          "param": [
            4014302,
            0
          ]
        }
      ],
      "guide": {
        "damageRatio": "QUEST_GUIDE_NPC",
        "param": [
          "2202"
        ],
        "guideScene": 3,
        "guideStyle": "QUEST_GUIDE_STYLE_TARGET",
        "guideLayer": "QUEST_GUIDE_LAYER_SCENE",
        "MLAHIFLGIGJ": ""
      },
      "guideHint": {
        "param1": ""
      },
      "isRewind": true,
      "finishExec": [
        {
          "damageRatio": "QUEST_EXEC_SET_WEATHER_GADGET",
          "param": [
            "2250",
            "1"
          ]
        }
      ],
      "versionBegin": "",
      "versionEnd": ""
    },
    {
      "subId": 4014303,
      "mainId": 40143,
      "order": 4,
      "descTextMapHash": 3146969396,
      "finishCond": [
        {
          "damageRatio": "QUEST_CONTENT_COMPLETE_TALK",
          "param": [
            4014303,
            0
          ]
        }
      ],
      "guide": {
        "damageRatio": "QUEST_GUIDE_NPC",
        "param": [
          "2204"
        ],
        "guideScene": 3,
        "guideStyle": "QUEST_GUIDE_STYLE_TARGET",
        "guideLayer": "QUEST_GUIDE_LAYER_SCENE",
        "MLAHIFLGIGJ": ""
      },
      "guideHint": {
        "param1": ""
      },
      "isRewind": true,
      "finishExec": [
        {
          "damageRatio": "QUEST_EXEC_SET_GAME_TIME",
          "param": [
            "19"
          ]
        }
      ],
      "versionBegin": "",
      "versionEnd": ""
    },
    {
      "subId": 4014304,
      "mainId": 40143,
      "order": 6,
      "descTextMapHash": 4250401564,
      "finishCond": [
        {
          "damageRatio": "QUEST_CONTENT_ACTIVITY_TRIGGER_UPDATE",
          "param": [
            5178,
            4014304
          ],
          "count": 1
        }
      ],
      "guide": {
        "damageRatio": "QUEST_GUIDE_LOCATION",
        "param": [
          "[3_310400554:895.916,255.563,330.665,0.000,46.100,0.000]"
        ],
        "guideScene": 3,
        "guideStyle": "QUEST_GUIDE_STYLE_POINT",
        "guideLayer": "QUEST_GUIDE_LAYER_UI",
        "MLAHIFLGIGJ": ""
      },
      "guideHint": {
        "param1": ""
      },
      "isRewind": true,
      "finishExec": [
        {
          "damageRatio": "QUEST_EXEC_SET_GAME_TIME",
          "param": [
            "19"
          ]
        },
        {
          "damageRatio": "QUEST_EXEC_UNREGISTER_DYNAMIC_GROUP",
          "param": [
            "133104831"
          ]
        }
      ],
      "versionBegin": "",
      "versionEnd": ""
    },
    {
      "subId": 4014305,
      "mainId": 40143,
      "order": 7,
      "descTextMapHash": 358020284,
      "finishCond": [
        {
          "damageRatio": "QUEST_CONTENT_COMPLETE_TALK",
          "param": [
            4014305,
            0
          ]
        }
      ],
      "guide": {
        "damageRatio": "QUEST_GUIDE_NPC",
        "param": [
          "1071"
        ],
        "guideScene": 3,
        "guideStyle": "QUEST_GUIDE_STYLE_TARGET",
        "guideLayer": "QUEST_GUIDE_LAYER_SCENE",
        "MLAHIFLGIGJ": ""
      },
      "guideHint": {
        "param1": ""
      },
      "isRewind": true,
      "finishExec": [
        {
          "damageRatio": "QUEST_EXEC_SET_GAME_TIME",
          "param": [
            "19"
          ]
        }
      ],
      "versionBegin": "",
      "versionEnd": ""
    },
    {
      "subId": 4014306,
      "mainId": 40143,
      "order": 8,
      "descTextMapHash": 1156766860,
      "finishCond": [
        {
          "damageRatio": "QUEST_CONTENT_COMPLETE_TALK",
          "param": [
            4014306,
            0
          ]
        }
      ],
      "guide": {
        "damageRatio": "QUEST_GUIDE_NPC",
        "param": [
          "2204"
        ],
        "guideScene": 3,
        "guideStyle": "QUEST_GUIDE_STYLE_TARGET",
        "guideLayer": "QUEST_GUIDE_LAYER_SCENE",
        "MLAHIFLGIGJ": ""
      },
      "guideHint": {
        "param1": ""
      },
      "finishParent": true,
      "isRewind": true,
      "finishExec": [
        {
          "damageRatio": "QUEST_EXEC_SET_GAME_TIME",
          "param": [
            "19"
          ]
        },
        {
          "damageRatio": "QUEST_EXEC_UNREGISTER_DYNAMIC_GROUP",
          "param": [
            "133104837",
            "1"
          ]
        },
        {
          "damageRatio": "QUEST_EXEC_SET_WEATHER_GADGET",
          "param": [
            "2250",
            "0"
          ]
        }
      ],
      "versionBegin": "",
      "versionEnd": ""
    },
    {
      "subId": 4014307,
      "mainId": 40143,
      "order": 5,
      "descTextMapHash": 2119705268,
      "finishCond": [
        {
          "damageRatio": "QUEST_CONTENT_COMPLETE_TALK",
          "param": [
            4014304,
            0
          ]
        }
      ],
      "guide": {
        "damageRatio": "QUEST_GUIDE_NPC",
        "param": [
          "2204"
        ],
        "guideScene": 3,
        "guideStyle": "QUEST_GUIDE_STYLE_TARGET",
        "guideLayer": "QUEST_GUIDE_LAYER_SCENE",
        "MLAHIFLGIGJ": ""
      },
      "guideHint": {
        "param1": ""
      },
      "isRewind": true,
      "finishExec": [
        {
          "damageRatio": "QUEST_EXEC_SET_GAME_TIME",
          "param": [
            "19"
          ]
        }
      ],
      "versionBegin": "",
      "versionEnd": ""
    },
    {
      "subId": 4014308,
      "mainId": 40143,
      "order": 3,
      "descTextMapHash": 647640604,
      "showType": "QUEST_HIDDEN",
      "finishCond": [
        {
          "damageRatio": "QUEST_CONTENT_FINISH_PLOT",
          "param": [
            4014308,
            0
          ]
        },
        {
          "damageRatio": "QUEST_CONTENT_QUEST_STATE_EQUAL",
          "param": [
            4014302,
            3
          ]
        }
      ],
      "guide": {
        "MLAHIFLGIGJ": ""
      },
      "guideHint": {
        "param1": ""
      },
      "versionBegin": "",
      "versionEnd": ""
    }
  ],
  "talks": [
    {
      "id": 4014301,
      "beginWay": "TALK_BEGIN_MANUAL",
      "beginCond": [
        {
          "type": "QUEST_COND_STATE_EQUAL",
          "_param": [
            "4014301",
            "2"
          ]
        }
      ],
      "priority": 5,
      "initDialog": 401430101,
      "npcId": [
        20104
      ],
      "performCfg": "QuestDialogue/WQ/Liyue_40143/Q4014301",
      "heroTalk": "TALK_HERO_MAIN",
      "questId": 40143,
      "assetIndex": 9204011772490708764,
      "prePerformCfg": "",
      "CHAKPMBJNAJ": [
        "[3_310400531:907.387,214.468,326.214,0.000,132.404,0.000]"
      ]
    },
    {
      "id": 4014302,
      "beginWay": "TALK_BEGIN_MANUAL",
      "beginCond": [
        {
          "type": "QUEST_COND_STATE_EQUAL",
          "_param": [
            "4014302",
            "2"
          ]
        }
      ],
      "priority": 5,
      "initDialog": 401430201,
      "npcId": [
        2202
      ],
      "performCfg": "QuestDialogue/WQ/Liyue_40143/Q4014302",
      "heroTalk": "TALK_HERO_MAIN",
      "questId": 40143,
      "assetIndex": 7234424143469821775,
      "prePerformCfg": "",
      "CHAKPMBJNAJ": [
        "[3_310400532:896.893,265.090,332.755,0.000,257.211,0.000]"
      ]
    },
    {
      "id": 4014303,
      "beginWay": "TALK_BEGIN_MANUAL",
      "beginCond": [
        {
          "type": "QUEST_COND_STATE_EQUAL",
          "_param": [
            "4014303",
            "2"
          ]
        }
      ],
      "priority": 5,
      "initDialog": 401430301,
      "npcId": [
        2204
      ],
      "performCfg": "QuestDialogue/WQ/Liyue_40143/Q4014303",
      "heroTalk": "TALK_HERO_MAIN",
      "questId": 40143,
      "assetIndex": 528856222554094654,
      "prePerformCfg": "",
      "lockGameTime": true,
      "CHAKPMBJNAJ": [
        "[3_310400533:888.421,255.563,329.875,0.000,106.702,0.000]",
        "[3_310400534:922.885,258.972,363.918,0.000,198.850,0.000]",
        "[3_310400535:924.154,258.972,367.775,0.000,46.044,0.000]",
        "[3_310400536:924.166,258.971,362.661,0.000,261.325,0.000]"
      ]
    },
    {
      "id": 4014304,
      "beginWay": "TALK_BEGIN_MANUAL",
      "beginCond": [
        {
          "type": "QUEST_COND_STATE_EQUAL",
          "_param": [
            "4014307",
            "2"
          ]
        }
      ],
      "priority": 5,
      "initDialog": 401430401,
      "npcId": [
        2204
      ],
      "performCfg": "QuestDialogue/WQ/Liyue_40143/Q4014304",
      "heroTalk": "TALK_HERO_MAIN",
      "questId": 40143,
      "assetIndex": 9958340560223438937,
      "prePerformCfg": "",
      "CHAKPMBJNAJ": [
        "[3_310400533:888.421,255.563,329.875,0.000,106.702,0.000]"
      ]
    },
    {
      "id": 4014305,
      "beginWay": "TALK_BEGIN_MANUAL",
      "beginCond": [
        {
          "type": "QUEST_COND_STATE_EQUAL",
          "_param": [
            "4014305",
            "2"
          ]
        }
      ],
      "priority": 5,
      "initDialog": 401430501,
      "npcId": [
        1071
      ],
      "performCfg": "QuestDialogue/WQ/Liyue_40143/Q4014305",
      "heroTalk": "TALK_HERO_MAIN",
      "questId": 40143,
      "assetIndex": 489407141716933279,
      "prePerformCfg": "",
      "lockGameTime": true,
      "CHAKPMBJNAJ": [
        "[3_310400534:922.885,258.972,363.918,0.000,198.850,0.000]",
        "[3_310400555:922.536,258.972,364.321,0.000,225.532,0.000]",
        "[3_310400556:920.960,258.971,364.382,0.000,127.608,0.000]",
        "[3_310400557:922.547,258.971,362.699,0.000,320.585,0.000]"
      ]
    },
    {
      "id": 4014306,
      "beginWay": "TALK_BEGIN_MANUAL",
      "beginCond": [
        {
          "type": "QUEST_COND_STATE_EQUAL",
          "_param": [
            "4014306",
            "2"
          ]
        }
      ],
      "priority": 5,
      "initDialog": 401430601,
      "npcId": [
        2204
      ],
      "performCfg": "QuestDialogue/WQ/Liyue_40143/Q4014306",
      "heroTalk": "TALK_HERO_MAIN",
      "questId": 40143,
      "assetIndex": 15693730312825970272,
      "prePerformCfg": "",
      "CHAKPMBJNAJ": [
        "[3_310400533:888.421,255.563,329.875,0.000,106.702,0.000]"
      ]
    },
    {
      "id": 4014393,
      "beginWay": "TALK_BEGIN_MANUAL",
      "beginCondComb": "LOGIC_OR",
      "beginCond": [
        {
          "type": "QUEST_COND_STATE_EQUAL",
          "_param": [
            "4014303",
            "2"
          ]
        },
        {
          "type": "QUEST_COND_STATE_EQUAL",
          "_param": [
            "4014307",
            "2"
          ]
        },
        {
          "type": "QUEST_COND_STATE_EQUAL",
          "_param": [
            "4014304",
            "2"
          ]
        },
        {
          "type": "QUEST_COND_STATE_EQUAL",
          "_param": [
            "4014305",
            "2"
          ]
        },
        {
          "type": "QUEST_COND_STATE_EQUAL",
          "_param": [
            "4014306",
            "2"
          ]
        }
      ],
      "priority": 5,
      "initDialog": 401439301,
      "npcId": [
        2202
      ],
      "performCfg": "",
      "questId": 40143,
      "assetIndex": 11328152959303296900,
      "prePerformCfg": ""
    },
    {
      "id": 4014394,
      "beginWay": "TALK_BEGIN_MANUAL",
      "beginCond": [
        {
          "type": "QUEST_COND_STATE_EQUAL",
          "_param": [
            "4014306",
            "2"
          ]
        }
      ],
      "priority": 5,
      "initDialog": 401439401,
      "npcId": [
        1071
      ],
      "performCfg": "QuestDialogue/WQ/Liyue_40143/Q4014394",
      "heroTalk": "TALK_HERO_MAIN",
      "questId": 40143,
      "assetIndex": 6461208189251378786,
      "prePerformCfg": ""
    },
    {
      "id": 4014395,
      "beginWay": "TALK_BEGIN_MANUAL",
      "beginCondComb": "LOGIC_OR",
      "beginCond": [
        {
          "type": "QUEST_COND_STATE_EQUAL",
          "_param": [
            "4014304",
            "2"
          ]
        },
        {
          "type": "QUEST_COND_STATE_EQUAL",
          "_param": [
            "4014305",
            "2"
          ]
        }
      ],
      "priority": 5,
      "initDialog": 401439501,
      "npcId": [
        2204
      ],
      "performCfg": "QuestDialogue/WQ/Liyue_40143/Q4014395",
      "heroTalk": "TALK_HERO_MAIN",
      "questId": 40143,
      "assetIndex": 14000288104117569084,
      "prePerformCfg": ""
    },
    {
      "id": 4014396,
      "beginWay": "TALK_BEGIN_MANUAL",
      "beginCondComb": "LOGIC_OR",
      "beginCond": [
        {
          "type": "QUEST_COND_STATE_EQUAL",
          "_param": [
            "4014307",
            "2"
          ]
        },
        {
          "type": "QUEST_COND_STATE_EQUAL",
          "_param": [
            "4014304",
            "2"
          ]
        }
      ],
      "priority": 5,
      "initDialog": 401439601,
      "npcId": [
        1071,
        1072,
        1074
      ],
      "performCfg": "QuestDialogue/WQ/Liyue_40143/Q4014396",
      "heroTalk": "TALK_HERO_MAIN",
      "questId": 40143,
      "assetIndex": 14937012541303337211,
      "prePerformCfg": ""
    },
    {
      "id": 4014397,
      "beginWay": "TALK_BEGIN_MANUAL",
      "beginCond": [
        {
          "type": "QUEST_COND_STATE_EQUAL",
          "_param": [
            "4014306",
            "2"
          ]
        }
      ],
      "priority": 5,
      "initDialog": 401439701,
      "npcId": [
        1074
      ],
      "performCfg": "QuestDialogue/WQ/Liyue_40143/Q4014397",
      "heroTalk": "TALK_HERO_MAIN",
      "questId": 40143,
      "assetIndex": 1717929403998236054,
      "prePerformCfg": ""
    },
    {
      "id": 4014398,
      "beginWay": "TALK_BEGIN_MANUAL",
      "beginCond": [
        {
          "type": "QUEST_COND_STATE_EQUAL",
          "_param": [
            "4014306",
            "2"
          ]
        }
      ],
      "priority": 5,
      "initDialog": 401439801,
      "npcId": [
        1072
      ],
      "performCfg": "QuestDialogue/WQ/Liyue_40143/Q4014398",
      "heroTalk": "TALK_HERO_MAIN",
      "questId": 40143,
      "assetIndex": 17429235352480162142,
      "prePerformCfg": ""
    }
  ],
  "preloadLuaList": [
    15606731780970774201
  ],
  "forcePreloadLuaList": [
    10609822183923039877
  ],
  "freeStyleDic": {
    "2202": [
      1170
    ],
    "2204": [
      1050
    ],
    "1071": [
      0,
      1220
    ],
    "1072": [
      0,
      1190
    ],
    "1074": [
      0
    ]
  },
  "LNMELPHNIDD": true
}