{
  "id": 40144,
  "series": 40144,
  "damageRatio": "EQ",
  "descTextMapHash": 409162967,
  "EKEKACCODOE": 1347363334,
  "luaPath": "Actor/Quest/EQ40144",
  "suggestTrackMainQuestList": [
    40145
  ],
  "rewardIdList": [
    140144
  ],
  "chapterId": 10170,
  "showRedPoint": true,
  "activityId": 2029,
  "subQuests": [
    {
      "subId": 4014401,
      "mainId": 40144,
      "order": 1,
      "descTextMapHash": 3823991124,
      "finishCond": [
        {
          "damageRatio": "QUEST_CONTENT_COMPLETE_TALK",
          "param": [
            4014401,
            0
          ]
        }
      ],
      "guide": {
        "damageRatio": "QUEST_GUIDE_NPC",
        "param": [
          "1007"
        ],
        "guideScene": 1004,
        "guideStyle": "QUEST_GUIDE_STYLE_TARGET",
        "guideLayer": "QUEST_GUIDE_LAYER_SCENE",
        "MLAHIFLGIGJ": ""
      },
      "guideHint": {
        "param1": ""
      },
      "isRewind": true,
      "versionBegin": "",
      "versionEnd": ""
    },
    {
      "subId": 4014402,
      "mainId": 40144,
      "order": 2,
      "descTextMapHash": 3875108412,
      "stepDescTextMapHash": 2348661069,
      "finishCond": [
        {
          "damageRatio": "QUEST_CONTENT_COMPLETE_TALK",
          "param": [
            4014402,
            0
          ]
        }
      ],
      "guide": {
        "damageRatio": "QUEST_GUIDE_LOCATION",
        "param": [
          "[3_300300740:2515.331,202.810,-1136.838]",
          "30"
        ],
        "guideScene": 3,
        "guideStyle": "QUEST_GUIDE_STYLE_TARGET",
        "guideLayer": "QUEST_GUIDE_LAYER_SCENE",
        "MLAHIFLGIGJ": ""
      },
      "guideHint": {
        "param1": ""
      },
      "isRewind": true,
      "finishExec": [
        {
          "damageRatio": "QUEST_EXEC_ADD_ALCHEMY_SIM_CROP",
          "param": [
            "1,4,16",
            "10,10,10"
          ]
        },
        {
          "damageRatio": "QUEST_EXEC_NOTIFY_GROUP_LUA",
          "param": [
            "3",
            "133003077"
          ]
        }
      ],
      "versionBegin": "",
      "versionEnd": ""
    },
    {
      "subId": 4014403,
      "mainId": 40144,
      "order": 3,
      "descTextMapHash": 3178999812,
      "stepDescTextMapHash": 3987092989,
      "finishCond": [
        {
          "damageRatio": "QUEST_CONTENT_ACTIVITY_TRIGGER_UPDATE",
          "param": [
            2029,
            4014403
          ],
          "count": 1
        }
      ],
      "guide": {
        "damageRatio": "QUEST_GUIDE_LOCATION",
        "param": [
          "[3_300300759:2531.421,207.032,-1126.624]"
        ],
        "guideScene": 3,
        "guideStyle": "QUEST_GUIDE_STYLE_TARGET",
        "guideLayer": "QUEST_GUIDE_LAYER_SCENE",
        "MLAHIFLGIGJ": ""
      },
      "guideHint": {
        "param1": ""
      },
      "isRewind": true,
      "finishExec": [
        {
          "damageRatio": "QUEST_EXEC_NOTIFY_GROUP_LUA",
          "param": [
            "3",
            "133003077"
          ]
        }
      ],
      "versionBegin": "",
      "versionEnd": ""
    },
    {
      "subId": 4014404,
      "mainId": 40144,
      "order": 4,
      "descTextMapHash": 3524756916,
      "stepDescTextMapHash": 52405909,
      "finishCond": [
        {
          "damageRatio": "QUEST_CONTENT_ACTIVITY_TRIGGER_UPDATE",
          "param": [
            2029,
            4014404
          ],
          "count": 1
        }
      ],
      "guide": {
        "damageRatio": "QUEST_GUIDE_LOCATION",
        "param": [
          "[3_300300760:2501.023,206.155,-1132.510,0.000,92.976,0.000]"
        ],
        "guideScene": 3,
        "guideStyle": "QUEST_GUIDE_STYLE_TARGET",
        "guideLayer": "QUEST_GUIDE_LAYER_SCENE",
        "MLAHIFLGIGJ": ""
      },
      "guideHint": {
        "param1": ""
      },
      "isRewind": true,
      "finishExec": [
        {
          "damageRatio": "QUEST_EXEC_NOTIFY_GROUP_LUA",
          "param": [
            "3",
            "133003077"
          ]
        }
      ],
      "versionBegin": "",
      "versionEnd": ""
    },
    {
      "subId": 4014405,
      "mainId": 40144,
      "order": 5,
      "descTextMapHash": 1514265692,
      "stepDescTextMapHash": 2127263749,
      "finishCond": [
        {
          "damageRatio": "QUEST_CONTENT_ACTIVITY_TRIGGER_UPDATE",
          "param": [
            2029,
            4014405
          ],
          "count": 2
        }
      ],
      "guide": {
        "damageRatio": "QUEST_GUIDE_LOCATION",
        "param": [
          "[3_300300761:2500.991,204.705,-1136.700]"
        ],
        "guideScene": 3,
        "guideStyle": "QUEST_GUIDE_STYLE_TARGET",
        "guideLayer": "QUEST_GUIDE_LAYER_SCENE",
        "MLAHIFLGIGJ": ""
      },
      "guideHint": {
        "param1": ""
      },
      "isRewind": true,
      "finishExec": [
        {
          "damageRatio": "QUEST_EXEC_NOTIFY_GROUP_LUA",
          "param": [
            "3",
            "133003077"
          ]
        }
      ],
      "versionBegin": "",
      "versionEnd": ""
    },
    {
      "subId": 4014406,
      "mainId": 40144,
      "order": 6,
      "descTextMapHash": 1877628724,
      "stepDescTextMapHash": 1483096061,
      "finishCond": [
        {
          "damageRatio": "QUEST_CONTENT_COMPLETE_TALK",
          "param": [
            4014404,
            0
          ]
        }
      ],
      "guide": {
        "damageRatio": "QUEST_GUIDE_NPC",
        "param": [
          "1007"
        ],
        "guideScene": 3,
        "guideStyle": "QUEST_GUIDE_STYLE_TARGET",
        "guideLayer": "QUEST_GUIDE_LAYER_SCENE",
        "MLAHIFLGIGJ": ""
      },
      "guideHint": {
        "param1": ""
      },
      "isRewind": true,
      "finishExec": [
        {
          "damageRatio": "QUEST_EXEC_NOTIFY_GROUP_LUA",
          "param": [
            "3",
            "133003077"
          ]
        }
      ],
      "versionBegin": "",
      "versionEnd": ""
    },
    {
      "subId": 4014407,
      "mainId": 40144,
      "order": 7,
      "descTextMapHash": 4236804524,
      "stepDescTextMapHash": 1087113797,
      "finishCond": [
        {
          "damageRatio": "QUEST_CONTENT_ACTIVITY_TRIGGER_UPDATE",
          "param": [
            2029,
            4014407
          ],
          "count": 1
        }
      ],
      "guide": {
        "damageRatio": "QUEST_GUIDE_LOCATION",
        "param": [
          "[3_300300762:2524.853,210.700,-1150.963]"
        ],
        "guideScene": 3,
        "guideStyle": "QUEST_GUIDE_STYLE_TARGET",
        "guideLayer": "QUEST_GUIDE_LAYER_SCENE",
        "MLAHIFLGIGJ": ""
      },
      "guideHint": {
        "param1": ""
      },
      "isRewind": true,
      "versionBegin": "",
      "versionEnd": ""
    },
    {
      "subId": 4014408,
      "mainId": 40144,
      "order": 8,
      "descTextMapHash": 344112524,
      "stepDescTextMapHash": 314160117,
      "finishCond": [
        {
          "damageRatio": "QUEST_CONTENT_COMPLETE_TALK",
          "param": [
            4014406,
            0
          ]
        }
      ],
      "guide": {
        "damageRatio": "QUEST_GUIDE_NPC",
        "param": [
          "1007"
        ],
        "guideScene": 3,
        "guideStyle": "QUEST_GUIDE_STYLE_TARGET",
        "guideLayer": "QUEST_GUIDE_LAYER_SCENE",
        "MLAHIFLGIGJ": ""
      },
      "guideHint": {
        "param1": ""
      },
      "isRewind": true,
      "versionBegin": "",
      "versionEnd": ""
    },
    {
      "subId": 4014409,
      "mainId": 40144,
      "order": 9,
      "descTextMapHash": 296085924,
      "stepDescTextMapHash": 4010251093,
      "finishCond": [
        {
          "damageRatio": "QUEST_CONTENT_COMPLETE_TALK",
          "param": [
            4014407,
            0
          ]
        }
      ],
      "guide": {
        "damageRatio": "QUEST_GUIDE_NPC",
        "param": [
          "30519"
        ],
        "guideScene": 3,
        "guideStyle": "QUEST_GUIDE_STYLE_TARGET",
        "guideLayer": "QUEST_GUIDE_LAYER_SCENE",
        "MLAHIFLGIGJ": ""
      },
      "guideHint": {
        "param1": ""
      },
      "finishParent": true,
      "isRewind": true,
      "finishExec": [
        {
          "damageRatio": "QUEST_EXEC_NOTIFY_GROUP_LUA",
          "param": [
            "3",
            "133003077"
          ]
        }
      ],
      "versionBegin": "",
      "versionEnd": ""
    }
  ],
  "talks": [
    {
      "id": 4014401,
      "beginWay": "TALK_BEGIN_MANUAL",
      "beginCond": [
        {
          "type": "QUEST_COND_STATE_EQUAL",
          "_param": [
            "4014401",
            "2"
          ]
        }
      ],
      "priority": 5,
      "initDialog": 401440101,
      "npcId": [
        1007
      ],
      "performCfg": "QuestDialogue/EQ/V4.5AlchemySim_40144/Q4014401",
      "heroTalk": "TALK_HERO_MAIN",
      "questId": 40144,
      "assetIndex": 5558616732068942233,
      "prePerformCfg": "",
      "forceNpcNotDestroy": true,
      "CHAKPMBJNAJ": [
        "[1004_236:-19.956,0.002,17.468,0.000,179.276,0.000]",
        "[1004_237:-20.047,0.000,14.845]",
        "[1004_238:-19.315,0.000,14.928]"
      ]
    },
    {
      "id": 4014402,
      "beginWay": "TALK_BEGIN_MANUAL",
      "beginCond": [
        {
          "type": "QUEST_COND_STATE_EQUAL",
          "_param": [
            "4014402",
            "2"
          ]
        }
      ],
      "priority": 5,
      "initDialog": 401440201,
      "npcId": [
        1007
      ],
      "performCfg": "QuestDialogue/EQ/V4.5AlchemySim_40144/Q4014402",
      "heroTalk": "TALK_HERO_MAIN",
      "questId": 40144,
      "assetIndex": 17743376886217861947,
      "prePerformCfg": "",
      "forceNpcNotDestroy": true,
      "CHAKPMBJNAJ": [
        "[3_300300740:2515.331,202.810,-1136.838]",
        "[3_300300752:2519.699,203.425,-1138.427,0.000,247.082,0.000]",
        "[3_300300753:2518.407,203.410,-1139.256,0.000,57.781,0.000]"
      ]
    },
    {
      "id": 4014403,
      "beginWay": "TALK_BEGIN_MANUAL",
      "beginCond": [
        {
          "type": "QUEST_COND_STATE_EQUAL",
          "_param": [
            "4014403",
            "2"
          ]
        }
      ],
      "priority": 5,
      "initDialog": 401440301,
      "npcId": [
        1007
      ],
      "performCfg": "QuestDialogue/EQ/V4.5AlchemySim_40144/Q4014403",
      "heroTalk": "TALK_HERO_MAIN",
      "questId": 40144,
      "assetIndex": 11449881294745712709,
      "prePerformCfg": "",
      "forceNpcNotDestroy": true
    },
    {
      "id": 4014404,
      "beginWay": "TALK_BEGIN_MANUAL",
      "beginCond": [
        {
          "type": "QUEST_COND_STATE_EQUAL",
          "_param": [
            "4014406",
            "2"
          ]
        }
      ],
      "priority": 5,
      "initDialog": 401440401,
      "npcId": [
        1007
      ],
      "performCfg": "QuestDialogue/EQ/V4.5AlchemySim_40144/Q4014404",
      "heroTalk": "TALK_HERO_MAIN",
      "questId": 40144,
      "assetIndex": 2929729240747858041,
      "prePerformCfg": "",
      "forceNpcNotDestroy": true,
      "CHAKPMBJNAJ": [
        "[3_300300741:2502.672,203.886,-1138.269,0.000,61.643,0.000]",
        "[3_300300742:2504.296,203.861,-1137.913,0.000,281.660,0.000]",
        "[3_300300743:2504.081,203.861,-1136.969,0.000,233.053,0.000]"
      ]
    },
    {
      "id": 4014405,
      "beginWay": "TALK_BEGIN_MANUAL",
      "beginCond": [
        {
          "type": "QUEST_COND_STATE_EQUAL",
          "_param": [
            "4014407",
            "2"
          ]
        }
      ],
      "priority": 5,
      "initDialog": 401440501,
      "npcId": [
        1007
      ],
      "performCfg": "QuestDialogue/EQ/V4.5AlchemySim_40144/Q4014405",
      "heroTalk": "TALK_HERO_MAIN",
      "questId": 40144,
      "assetIndex": 17545193476512900873,
      "prePerformCfg": "",
      "forceNpcNotDestroy": true
    },
    {
      "id": 4014406,
      "beginWay": "TALK_BEGIN_MANUAL",
      "beginCond": [
        {
          "type": "QUEST_COND_STATE_EQUAL",
          "_param": [
            "4014408",
            "2"
          ]
        }
      ],
      "priority": 5,
      "initDialog": 401440601,
      "npcId": [
        1007
      ],
      "performCfg": "QuestDialogue/EQ/V4.5AlchemySim_40144/Q4014406",
      "heroTalk": "TALK_HERO_MAIN",
      "questId": 40144,
      "assetIndex": 12763820713259918588,
      "prePerformCfg": "",
      "forceNpcNotDestroy": true,
      "CHAKPMBJNAJ": [
        "[3_300300737:2513.601,202.481,-1125.999,0.000,150.066,0.000]",
        "[3_300300744:2529.803,208.361,-1148.291,0.000,314.189,0.000]",
        "[3_300300745:2529.371,208.361,-1147.380,0.000,143.652,0.000]",
        "[3_300300746:2528.500,208.363,-1148.036,0.000,124.930,0.000]"
      ]
    },
    {
      "id": 4014407,
      "beginWay": "TALK_BEGIN_MANUAL",
      "beginCond": [
        {
          "type": "QUEST_COND_STATE_EQUAL",
          "_param": [
            "4014409",
            "2"
          ]
        }
      ],
      "priority": 5,
      "initDialog": 401440701,
      "npcId": [
        30519
      ],
      "performCfg": "QuestDialogue/EQ/V4.5AlchemySim_40144/Q4014407",
      "heroTalk": "TALK_HERO_MAIN",
      "questId": 40144,
      "assetIndex": 18080355804167822378,
      "prePerformCfg": "",
      "forceNpcNotDestroy": true,
      "CHAKPMBJNAJ": [
        "[3_300300737:2513.601,202.481,-1125.999,0.000,150.066,0.000]",
        "[3_300300747:2514.157,202.481,-1127.220,0.000,348.178,0.000]",
        "[3_300300748:2514.932,202.481,-1126.583,0.000,297.100,0.000]"
      ]
    },
    {
      "id": 4014410,
      "beginWay": "TALK_BEGIN_MANUAL",
      "beginCond": [
        {
          "type": "QUEST_COND_STATE_EQUAL",
          "_param": [
            "4014404",
            "2"
          ]
        }
      ],
      "priority": 5,
      "initDialog": 401441001,
      "npcId": [
        1007
      ],
      "performCfg": "QuestDialogue/EQ/V4.5AlchemySim_40144/Q4014410",
      "heroTalk": "TALK_HERO_MAIN",
      "questId": 40144,
      "assetIndex": 1751312537241448945,
      "prePerformCfg": "",
      "forceNpcNotDestroy": true
    },
    {
      "id": 4014411,
      "beginWay": "TALK_BEGIN_MANUAL",
      "beginCond": [
        {
          "type": "QUEST_COND_STATE_EQUAL",
          "_param": [
            "4014405",
            "2"
          ]
        }
      ],
      "priority": 5,
      "initDialog": 401441101,
      "npcId": [
        1007
      ],
      "performCfg": "QuestDialogue/EQ/V4.5AlchemySim_40144/Q4014411",
      "heroTalk": "TALK_HERO_MAIN",
      "questId": 40144,
      "assetIndex": 13474723572878790560,
      "prePerformCfg": "",
      "forceNpcNotDestroy": true
    }
  ],
  "preloadLuaList": [
    3958618578976986035,
    17511232166298462185,
    11096634032378376434,
    4264177006183871909
  ],
  "forcePreloadLuaList": [
    8199047020331180904
  ],
  "freeStyleDic": {
    "1007": [
      8013
    ]
  },
  "LNMELPHNIDD": true
}