{
  "id": 40158,
  "damageRatio": "EQ",
  "descTextMapHash": 3857381039,
  "EKEKACCODOE": 2809263094,
  "luaPath": "Actor/Quest/EQ40158",
  "rewardIdList": [
    140158
  ],
  "chapterId": 10191,
  "showRedPoint": true,
  "activityId": 2030,
  "subQuests": [
    {
      "subId": 4015801,
      "mainId": 40158,
      "order": 1,
      "descTextMapHash": 2600459156,
      "finishCond": [
        {
          "damageRatio": "QUEST_CONTENT_COMPLETE_TALK",
          "param": [
            4015801,
            0
          ]
        }
      ],
      "guide": {
        "damageRatio": "QUEST_GUIDE_NPC",
        "param": [
          "30532"
        ],
        "guideScene": 3,
        "guideStyle": "QUEST_GUIDE_STYLE_TARGET",
        "guideLayer": "QUEST_GUIDE_LAYER_SCENE",
        "MLAHIFLGIGJ": ""
      },
      "guideHint": {
        "param1": ""
      },
      "isRewind": true,
      "versionBegin": "",
      "versionEnd": ""
    },
    {
      "subId": 4015802,
      "mainId": 40158,
      "order": 2,
      "descTextMapHash": 3638677044,
      "finishCond": [
        {
          "damageRatio": "QUEST_CONTENT_GAME_TIME_TICK",
          "param": [
            1,
            0
          ]
        }
      ],
      "guide": {
        "MLAHIFLGIGJ": ""
      },
      "guideHint": {
        "param1": ""
      },
      "isRewind": true,
      "versionBegin": "",
      "versionEnd": ""
    },
    {
      "subId": 4015803,
      "mainId": 40158,
      "order": 8,
      "descTextMapHash": 929253748,
      "finishCond": [
        {
          "damageRatio": "QUEST_CONTENT_COMPLETE_TALK",
          "param": [
            4015803,
            0
          ]
        }
      ],
      "guide": {
        "damageRatio": "QUEST_GUIDE_NPC",
        "param": [
          "30532"
        ],
        "guideScene": 3,
        "guideStyle": "QUEST_GUIDE_STYLE_TARGET",
        "guideLayer": "QUEST_GUIDE_LAYER_SCENE",
        "MLAHIFLGIGJ": ""
      },
      "guideHint": {
        "param1": ""
      },
      "isRewind": true,
      "versionBegin": "",
      "versionEnd": ""
    },
    {
      "subId": 4015804,
      "mainId": 40158,
      "order": 10,
      "isMpBlock": true,
      "descTextMapHash": 1173909196,
      "finishCond": [
        {
          "damageRatio": "QUEST_CONTENT_FINISH_PLOT",
          "param": [
            4015804,
            0
          ]
        }
      ],
      "failCond": [
        {
          "damageRatio": "QUEST_CONTENT_LEAVE_SCENE_RANGE",
          "param": [
            3,
            70
          ]
        }
      ],
      "guide": {
        "damageRatio": "QUEST_GUIDE_NPC",
        "param": [
          "30532"
        ],
        "guideScene": 3,
        "guideStyle": "QUEST_GUIDE_STYLE_TARGET",
        "guideLayer": "QUEST_GUIDE_LAYER_SCENE",
        "MLAHIFLGIGJ": ""
      },
      "guideHint": {
        "param1": ""
      },
      "isRewind": true,
      "finishExec": [
        {
          "damageRatio": "QUEST_EXEC_SET_IS_GAME_TIME_LOCKED_V2",
          "param": [
            "0"
          ]
        }
      ],
      "failExec": [
        {
          "damageRatio": "QUEST_EXEC_SET_IS_GAME_TIME_LOCKED_V2",
          "param": [
            "0"
          ]
        },
        {
          "damageRatio": "QUEST_EXEC_ROLLBACK_QUEST",
          "param": [
            "4015812"
          ]
        }
      ],
      "versionBegin": "",
      "versionEnd": ""
    },
    {
      "subId": 4015805,
      "mainId": 40158,
      "order": 11,
      "descTextMapHash": 3450824220,
      "finishCond": [
        {
          "damageRatio": "QUEST_CONTENT_COMPLETE_TALK",
          "param": [
            4015805,
            0
          ]
        }
      ],
      "guide": {
        "damageRatio": "QUEST_GUIDE_NPC",
        "param": [
          "1044"
        ],
        "guideScene": 3,
        "guideStyle": "QUEST_GUIDE_STYLE_TARGET",
        "guideLayer": "QUEST_GUIDE_LAYER_SCENE",
        "MLAHIFLGIGJ": ""
      },
      "guideHint": {
        "param1": ""
      },
      "isRewind": true,
      "versionBegin": "",
      "versionEnd": ""
    },
    {
      "subId": 4015806,
      "mainId": 40158,
      "order": 12,
      "descTextMapHash": 219501868,
      "finishCond": [
        {
          "damageRatio": "QUEST_CONTENT_COMPLETE_TALK",
          "param": [
            4015806,
            0
          ]
        }
      ],
      "guide": {
        "damageRatio": "QUEST_GUIDE_NPC",
        "param": [
          "1039"
        ],
        "guideScene": 3,
        "guideStyle": "QUEST_GUIDE_STYLE_TARGET",
        "guideLayer": "QUEST_GUIDE_LAYER_SCENE",
        "MLAHIFLGIGJ": ""
      },
      "guideHint": {
        "param1": ""
      },
      "isRewind": true,
      "versionBegin": "",
      "versionEnd": ""
    },
    {
      "subId": 4015807,
      "mainId": 40158,
      "order": 3,
      "descTextMapHash": 2230889284,
      "finishCond": [
        {
          "damageRatio": "QUEST_CONTENT_COMPLETE_TALK",
          "param": [
            4015807,
            0
          ]
        }
      ],
      "guide": {
        "damageRatio": "QUEST_GUIDE_NPC",
        "param": [
          "1044"
        ],
        "guideScene": 3,
        "guideStyle": "QUEST_GUIDE_STYLE_TARGET",
        "guideLayer": "QUEST_GUIDE_LAYER_SCENE",
        "MLAHIFLGIGJ": ""
      },
      "guideHint": {
        "param1": ""
      },
      "isRewind": true,
      "versionBegin": "",
      "versionEnd": ""
    },
    {
      "subId": 4015808,
      "mainId": 40158,
      "order": 4,
      "subIdSet": 40158,
      "descTextMapHash": 1351707716,
      "finishCond": [
        {
          "damageRatio": "QUEST_CONTENT_COMPLETE_TALK",
          "param": [
            4015808,
            0
          ]
        }
      ],
      "guide": {
        "damageRatio": "QUEST_GUIDE_NPC",
        "param": [
          "1037"
        ],
        "guideScene": 3,
        "guideStyle": "QUEST_GUIDE_STYLE_TARGET",
        "guideLayer": "QUEST_GUIDE_LAYER_SCENE",
        "MLAHIFLGIGJ": ""
      },
      "guideHint": {
        "param1": ""
      },
      "isRewind": true,
      "versionBegin": "",
      "versionEnd": ""
    },
    {
      "subId": 4015809,
      "mainId": 40158,
      "order": 5,
      "subIdSet": 40158,
      "descTextMapHash": 711828116,
      "finishCond": [
        {
          "damageRatio": "QUEST_CONTENT_COMPLETE_TALK",
          "param": [
            4015809,
            0
          ]
        }
      ],
      "guide": {
        "damageRatio": "QUEST_GUIDE_NPC",
        "param": [
          "1035"
        ],
        "guideScene": 3,
        "guideStyle": "QUEST_GUIDE_STYLE_TARGET",
        "guideLayer": "QUEST_GUIDE_LAYER_SCENE",
        "MLAHIFLGIGJ": ""
      },
      "guideHint": {
        "param1": ""
      },
      "isRewind": true,
      "versionBegin": "",
      "versionEnd": ""
    },
    {
      "subId": 4015810,
      "mainId": 40158,
      "order": 6,
      "subIdSet": 40158,
      "descTextMapHash": 3748295124,
      "finishCond": [
        {
          "damageRatio": "QUEST_CONTENT_COMPLETE_TALK",
          "param": [
            4015810,
            0
          ]
        }
      ],
      "guide": {
        "damageRatio": "QUEST_GUIDE_NPC",
        "param": [
          "1057"
        ],
        "guideScene": 3,
        "guideStyle": "QUEST_GUIDE_STYLE_TARGET",
        "guideLayer": "QUEST_GUIDE_LAYER_SCENE",
        "MLAHIFLGIGJ": ""
      },
      "guideHint": {
        "param1": ""
      },
      "isRewind": true,
      "versionBegin": "",
      "versionEnd": ""
    },
    {
      "subId": 4015811,
      "mainId": 40158,
      "order": 13,
      "descTextMapHash": 3213474516,
      "finishCond": [
        {
          "damageRatio": "QUEST_CONTENT_COMPLETE_TALK",
          "param": [
            4015811,
            0
          ]
        }
      ],
      "guide": {
        "damageRatio": "QUEST_GUIDE_NPC",
        "param": [
          "1036"
        ],
        "guideScene": 3,
        "guideStyle": "QUEST_GUIDE_STYLE_TARGET",
        "guideLayer": "QUEST_GUIDE_LAYER_SCENE",
        "MLAHIFLGIGJ": ""
      },
      "guideHint": {
        "param1": ""
      },
      "finishParent": true,
      "isRewind": true,
      "versionBegin": "",
      "versionEnd": ""
    },
    {
      "subId": 4015812,
      "mainId": 40158,
      "order": 9,
      "descTextMapHash": 458498860,
      "finishCond": [
        {
          "damageRatio": "QUEST_CONTENT_COMPLETE_TALK",
          "param": [
            4015812,
            0
          ]
        }
      ],
      "guide": {
        "damageRatio": "QUEST_GUIDE_NPC",
        "param": [
          "30532"
        ],
        "guideScene": 3,
        "guideStyle": "QUEST_GUIDE_STYLE_TARGET",
        "guideLayer": "QUEST_GUIDE_LAYER_SCENE",
        "MLAHIFLGIGJ": ""
      },
      "guideHint": {
        "param1": ""
      },
      "isRewind": true,
      "versionBegin": "",
      "versionEnd": ""
    },
    {
      "subId": 4015813,
      "mainId": 40158,
      "order": 7,
      "descTextMapHash": 3494080044,
      "showType": "QUEST_HIDDEN",
      "finishCond": [
        {
          "damageRatio": "QUEST_CONTENT_QUEST_STATE_EQUAL",
          "param": [
            4015808,
            3
          ]
        },
        {
          "damageRatio": "QUEST_CONTENT_QUEST_STATE_EQUAL",
          "param": [
            4015809,
            3
          ]
        },
        {
          "damageRatio": "QUEST_CONTENT_QUEST_STATE_EQUAL",
          "param": [
            4015810,
            3
          ]
        }
      ],
      "guide": {
        "MLAHIFLGIGJ": ""
      },
      "guideHint": {
        "param1": ""
      },
      "isRewind": true,
      "versionBegin": "",
      "versionEnd": ""
    }
  ],
  "talks": [
    {
      "id": 4015801,
      "beginWay": "TALK_BEGIN_MANUAL",
      "beginCond": [
        {
          "type": "QUEST_COND_STATE_EQUAL",
          "_param": [
            "4015801",
            "2"
          ]
        }
      ],
      "priority": 5,
      "initDialog": 401580101,
      "npcId": [
        30532
      ],
      "performCfg": "QuestDialogue/EQ/V4.6GreatFestivalV2_40158/Q4015801",
      "heroTalk": "TALK_HERO_MAIN",
      "questId": 40158,
      "assetIndex": 13806838509282826278,
      "prePerformCfg": "",
      "CHAKPMBJNAJ": [
        "[3_321000254:-3612.493,199.310,-881.232,0.000,143.258,0.000]",
        "[3_321000255:-3611.492,199.310,-883.231,0.000,330.949,0.000]"
      ]
    },
    {
      "id": 4015802,
      "beginWay": "TALK_BEGIN_MANUAL",
      "beginCondComb": "LOGIC_OR",
      "beginCond": [
        {
          "type": "QUEST_COND_STATE_EQUAL",
          "_param": [
            "4015802",
            "2"
          ]
        },
        {
          "type": "QUEST_COND_STATE_EQUAL",
          "_param": [
            "4015807",
            "2"
          ]
        },
        {
          "type": "QUEST_COND_STATE_EQUAL",
          "_param": [
            "4015808",
            "2"
          ]
        },
        {
          "type": "QUEST_COND_STATE_EQUAL",
          "_param": [
            "4015809",
            "2"
          ]
        },
        {
          "type": "QUEST_COND_STATE_EQUAL",
          "_param": [
            "4015810",
            "2"
          ]
        }
      ],
      "priority": 5,
      "initDialog": 401580201,
      "npcId": [
        30532
      ],
      "performCfg": "QuestDialogue/EQ/V4.6GreatFestivalV2_40158/Q4015802",
      "questId": 40158,
      "assetIndex": 12882402107803100621,
      "prePerformCfg": ""
    },
    {
      "id": 4015803,
      "beginWay": "TALK_BEGIN_MANUAL",
      "beginCond": [
        {
          "type": "QUEST_COND_STATE_EQUAL",
          "_param": [
            "4015803",
            "2"
          ]
        }
      ],
      "priority": 5,
      "initDialog": 401580301,
      "npcId": [
        30532
      ],
      "performCfg": "QuestDialogue/EQ/V4.6GreatFestivalV2_40158/Q4015803",
      "heroTalk": "TALK_HERO_MAIN",
      "questId": 40158,
      "assetIndex": 4040634242755021803,
      "prePerformCfg": "",
      "lockGameTime": true,
      "CHAKPMBJNAJ": [
        "[3_321000254:-3612.493,199.310,-881.232,0.000,143.258,0.000]",
        "[3_321000255:-3611.492,199.310,-883.231,0.000,330.949,0.000]"
      ]
    },
    {
      "id": 4015805,
      "beginWay": "TALK_BEGIN_MANUAL",
      "beginCond": [
        {
          "type": "QUEST_COND_STATE_EQUAL",
          "_param": [
            "4015805",
            "2"
          ]
        }
      ],
      "priority": 5,
      "initDialog": 401580501,
      "npcId": [
        1044
      ],
      "performCfg": "QuestDialogue/EQ/V4.6GreatFestivalV2_40158/Q4015805",
      "heroTalk": "TALK_HERO_MAIN",
      "questId": 40158,
      "assetIndex": 2952858083620540040,
      "prePerformCfg": "",
      "lockGameTime": true,
      "CHAKPMBJNAJ": [
        "[3_321000255:-3611.492,199.310,-883.231,0.000,330.949,0.000]",
        "[3_321000262:-3617.142,201.850,-903.245,0.000,132.709,0.000]",
        "[3_321000263:-3617.913,201.861,-904.805,0.000,126.027,0.000]",
        "[3_321000267:-3615.737,201.872,-906.978]"
      ]
    },
    {
      "id": 4015806,
      "beginWay": "TALK_BEGIN_MANUAL",
      "beginCond": [
        {
          "type": "QUEST_COND_STATE_EQUAL",
          "_param": [
            "4015806",
            "2"
          ]
        }
      ],
      "priority": 5,
      "initDialog": 401580601,
      "npcId": [
        1039,
        1037
      ],
      "performCfg": "QuestDialogue/EQ/V4.6GreatFestivalV2_40158/Q4015806",
      "heroTalk": "TALK_HERO_MAIN",
      "questId": 40158,
      "assetIndex": 6691066298084387140,
      "prePerformCfg": "",
      "lockGameTime": true,
      "CHAKPMBJNAJ": [
        "[3_321000278:-3633.029,207.258,-964.064,0.000,166.269,0.000]",
        "[3_321000279:-3631.033,207.337,-965.408,0.000,277.876,0.000]"
      ]
    },
    {
      "id": 4015807,
      "beginWay": "TALK_BEGIN_MANUAL",
      "beginCond": [
        {
          "type": "QUEST_COND_STATE_EQUAL",
          "_param": [
            "4015807",
            "2"
          ]
        }
      ],
      "priority": 5,
      "initDialog": 401580701,
      "npcId": [
        1044,
        1049
      ],
      "performCfg": "QuestDialogue/EQ/V4.6GreatFestivalV2_40158/Q4015807",
      "heroTalk": "TALK_HERO_MAIN",
      "questId": 40158,
      "assetIndex": 2240990245368485410,
      "prePerformCfg": "",
      "lockGameTime": true,
      "CHAKPMBJNAJ": [
        "[3_321000262:-3617.142,201.850,-903.245,0.000,132.709,0.000]",
        "[3_321000263:-3617.913,201.861,-904.805,0.000,126.027,0.000]"
      ]
    },
    {
      "id": 4015808,
      "beginWay": "TALK_BEGIN_MANUAL",
      "beginCond": [
        {
          "type": "QUEST_COND_STATE_EQUAL",
          "_param": [
            "4015808",
            "2"
          ]
        }
      ],
      "priority": 5,
      "initDialog": 401580801,
      "npcId": [
        1037,
        1039
      ],
      "performCfg": "QuestDialogue/EQ/V4.6GreatFestivalV2_40158/Q4015808",
      "heroTalk": "TALK_HERO_MAIN",
      "questId": 40158,
      "assetIndex": 13028785166755913062,
      "prePerformCfg": "",
      "lockGameTime": true,
      "CHAKPMBJNAJ": [
        "[3_321000256:-3608.162,202.139,-900.786,0.000,4.752,0.000]",
        "[3_321000257:-3607.131,201.861,-900.132,0.000,310.537,0.000]",
        "[3_321000263:-3617.913,201.861,-904.805,0.000,126.027,0.000]"
      ]
    },
    {
      "id": 4015809,
      "beginWay": "TALK_BEGIN_MANUAL",
      "beginCond": [
        {
          "type": "QUEST_COND_STATE_EQUAL",
          "_param": [
            "4015809",
            "2"
          ]
        }
      ],
      "priority": 5,
      "initDialog": 401580901,
      "npcId": [
        1035,
        1033
      ],
      "performCfg": "QuestDialogue/EQ/V4.6GreatFestivalV2_40158/Q4015809",
      "heroTalk": "TALK_HERO_MAIN",
      "questId": 40158,
      "assetIndex": 5116844093677962005,
      "prePerformCfg": "",
      "lockGameTime": true,
      "CHAKPMBJNAJ": [
        "[3_321000264:-3618.973,201.869,-913.547,0.000,212.388,0.000]",
        "[3_321000265:-3618.102,201.884,-914.629,0.000,249.076,0.000]"
      ]
    },
    {
      "id": 4015810,
      "beginWay": "TALK_BEGIN_MANUAL",
      "beginCond": [
        {
          "type": "QUEST_COND_STATE_EQUAL",
          "_param": [
            "4015810",
            "2"
          ]
        }
      ],
      "priority": 5,
      "initDialog": 401581001,
      "npcId": [
        1057
      ],
      "performCfg": "QuestDialogue/EQ/V4.6GreatFestivalV2_40158/Q4015810",
      "heroTalk": "TALK_HERO_MAIN",
      "questId": 40158,
      "assetIndex": 7512570364454316764,
      "prePerformCfg": "",
      "lockGameTime": true,
      "CHAKPMBJNAJ": [
        "[3_321000261:-3612.789,202.211,-898.797,0.000,358.363,0.000]"
      ]
    },
    {
      "id": 4015811,
      "beginWay": "TALK_BEGIN_MANUAL",
      "beginCond": [
        {
          "type": "QUEST_COND_STATE_EQUAL",
          "_param": [
            "4015811",
            "2"
          ]
        }
      ],
      "priority": 5,
      "initDialog": 401581101,
      "npcId": [
        1036,
        1034
      ],
      "performCfg": "QuestDialogue/EQ/V4.6GreatFestivalV2_40158/Q4015811",
      "heroTalk": "TALK_HERO_MAIN",
      "questId": 40158,
      "assetIndex": 2782234688236502054,
      "prePerformCfg": "",
      "lockGameTime": true,
      "CHAKPMBJNAJ": [
        "[3_321000259:-3592.157,207.978,-877.788,0.000,279.481,0.000]",
        "[3_321000260:-3591.714,207.697,-876.337,0.000,265.139,0.000]",
        "[3_321000262:-3617.142,201.850,-903.245,0.000,132.709,0.000]",
        "[3_321000263:-3617.913,201.861,-904.805,0.000,126.027,0.000]",
        "[3_321000267:-3615.737,201.872,-906.978]"
      ]
    },
    {
      "id": 4015812,
      "beginWay": "TALK_BEGIN_MANUAL",
      "beginCond": [
        {
          "type": "QUEST_COND_STATE_EQUAL",
          "_param": [
            "4015812",
            "2"
          ]
        }
      ],
      "priority": 5,
      "initDialog": 401581201,
      "npcId": [
        30532
      ],
      "performCfg": "QuestDialogue/EQ/V4.6GreatFestivalV2_40158/Q4015812",
      "heroTalk": "TALK_HERO_MAIN",
      "questId": 40158,
      "assetIndex": 3221071819542202515,
      "prePerformCfg": "",
      "lockGameTime": true,
      "CHAKPMBJNAJ": [
        "[3_321000254:-3612.493,199.310,-881.232,0.000,143.258,0.000]",
        "[3_321000255:-3611.492,199.310,-883.231,0.000,330.949,0.000]",
        "[3_321000267:-3615.737,201.872,-906.978]"
      ]
    },
    {
      "id": 4015817,
      "beginWay": "TALK_BEGIN_MANUAL",
      "beginCondComb": "LOGIC_A_AND_B_OR_ETCAND",
      "beginCond": [
        {
          "type": "QUEST_COND_STATE_EQUAL",
          "_param": [
            "4015807",
            "3"
          ]
        },
        {
          "type": "QUEST_COND_QUEST_NOT_RECEIVE",
          "_param": [
            "4015803",
            "1"
          ]
        },
        {
          "type": "QUEST_COND_STATE_EQUAL",
          "_param": [
            "4015807",
            "3"
          ]
        },
        {
          "type": "QUEST_COND_STATE_EQUAL",
          "_param": [
            "4015803",
            "2"
          ]
        }
      ],
      "priority": 5,
      "initDialog": 401581701,
      "npcId": [
        1049
      ],
      "performCfg": "QuestDialogue/EQ/V4.6GreatFestivalV2_40158/Q4015817",
      "heroTalk": "TALK_HERO_MAIN",
      "questId": 40158,
      "assetIndex": 14931575272227738204,
      "prePerformCfg": ""
    },
    {
      "id": 4015818,
      "beginWay": "TALK_BEGIN_MANUAL",
      "beginCondComb": "LOGIC_A_AND_B_OR_ETCAND",
      "beginCond": [
        {
          "type": "QUEST_COND_STATE_EQUAL",
          "_param": [
            "4015808",
            "3"
          ]
        },
        {
          "type": "QUEST_COND_QUEST_NOT_RECEIVE",
          "_param": [
            "4015803",
            "1"
          ]
        },
        {
          "type": "QUEST_COND_STATE_EQUAL",
          "_param": [
            "4015808",
            "3"
          ]
        },
        {
          "type": "QUEST_COND_STATE_EQUAL",
          "_param": [
            "4015803",
            "2"
          ]
        }
      ],
      "priority": 5,
      "initDialog": 401581801,
      "npcId": [
        1037,
        1039
      ],
      "performCfg": "QuestDialogue/EQ/V4.6GreatFestivalV2_40158/Q4015818",
      "heroTalk": "TALK_HERO_MAIN",
      "questId": 40158,
      "assetIndex": 13657957902722524917,
      "prePerformCfg": ""
    },
    {
      "id": 4015819,
      "beginWay": "TALK_BEGIN_MANUAL",
      "beginCondComb": "LOGIC_A_AND_B_OR_ETCAND",
      "beginCond": [
        {
          "type": "QUEST_COND_STATE_EQUAL",
          "_param": [
            "4015809",
            "3"
          ]
        },
        {
          "type": "QUEST_COND_QUEST_NOT_RECEIVE",
          "_param": [
            "4015803",
            "1"
          ]
        },
        {
          "type": "QUEST_COND_STATE_EQUAL",
          "_param": [
            "4015809",
            "3"
          ]
        },
        {
          "type": "QUEST_COND_STATE_EQUAL",
          "_param": [
            "4015803",
            "2"
          ]
        }
      ],
      "priority": 5,
      "initDialog": 401581901,
      "npcId": [
        1033,
        1035
      ],
      "performCfg": "QuestDialogue/EQ/V4.6GreatFestivalV2_40158/Q4015819",
      "heroTalk": "TALK_HERO_MAIN",
      "questId": 40158,
      "assetIndex": 8873107277362696996,
      "prePerformCfg": ""
    },
    {
      "id": 4015820,
      "beginWay": "TALK_BEGIN_MANUAL",
      "beginCondComb": "LOGIC_A_AND_B_OR_ETCAND",
      "beginCond": [
        {
          "type": "QUEST_COND_STATE_EQUAL",
          "_param": [
            "4015810",
            "3"
          ]
        },
        {
          "type": "QUEST_COND_QUEST_NOT_RECEIVE",
          "_param": [
            "4015803",
            "1"
          ]
        },
        {
          "type": "QUEST_COND_STATE_EQUAL",
          "_param": [
            "4015810",
            "3"
          ]
        },
        {
          "type": "QUEST_COND_STATE_EQUAL",
          "_param": [
            "4015803",
            "2"
          ]
        }
      ],
      "priority": 5,
      "initDialog": 401582001,
      "npcId": [
        1057
      ],
      "performCfg": "QuestDialogue/EQ/V4.6GreatFestivalV2_40158/Q4015820",
      "heroTalk": "TALK_HERO_MAIN",
      "questId": 40158,
      "assetIndex": 6159850385976446199,
      "prePerformCfg": ""
    }
  ],
  "preloadLuaList": [
    16293813247443948427,
    3119174694845336366,
    2066527677684025371,
    6804874694247350471
  ],
  "forcePreloadLuaList": [
    11849833188451304612
  ],
  "freeStyleDic": {
    "1037": [
      1220
    ],
    "1039": [
      1190
    ],
    "1033": [
      1220
    ],
    "1035": [
      1230
    ],
    "1049": [
      1230
    ],
    "1057": [
      1120
    ]
  },
  "dialogList": [
    {
      "id": 401580401,
      "nextDialogs": [
        401580402
      ],
      "talkRole": {
        "type": "TALK_ROLE_NPC",
        "_id": "1044"
      },
      "talkContentTextMapHash": 1800403314,
      "talkAssetPath": "",
      "talkAssetPathAlter": "",
      "talkAudioName": "",
      "actionBefore": "",
      "actionWhile": "",
      "actionAfter": "",
      "optionIcon": "",
      "iconPath": ""
    },
    {
      "id": 401580402,
      "nextDialogs": [
        401580403
      ],
      "talkRole": {
        "type": "TALK_ROLE_NPC",
        "_id": "1044"
      },
      "talkContentTextMapHash": 23750858,
      "talkAssetPath": "",
      "talkAssetPathAlter": "",
      "talkAudioName": "",
      "actionBefore": "",
      "actionWhile": "",
      "actionAfter": "",
      "optionIcon": "",
      "iconPath": ""
    },
    {
      "id": 401580403,
      "nextDialogs": [
        401580404
      ],
      "talkRole": {
        "type": "TALK_ROLE_NPC",
        "_id": "1005"
      },
      "talkContentTextMapHash": 1899138266,
      "talkAssetPath": "",
      "talkAssetPathAlter": "",
      "talkAudioName": "",
      "actionBefore": "",
      "actionWhile": "",
      "actionAfter": "",
      "optionIcon": "",
      "iconPath": ""
    },
    {
      "id": 401580404,
      "nextDialogs": [
        401580405
      ],
      "talkRole": {
        "type": "TALK_ROLE_NPC",
        "_id": "1005"
      },
      "talkContentTextMapHash": 1499222354,
      "talkAssetPath": "",
      "talkAssetPathAlter": "",
      "talkAudioName": "",
      "actionBefore": "",
      "actionWhile": "",
      "actionAfter": "",
      "optionIcon": "",
      "iconPath": ""
    },
    {
      "id": 401580405,
      "nextDialogs": [
        401580406
      ],
      "talkRole": {
        "type": "TALK_ROLE_NPC",
        "_id": "1044"
      },
      "talkContentTextMapHash": 985466594,
      "talkAssetPath": "",
      "talkAssetPathAlter": "",
      "talkAudioName": "",
      "actionBefore": "",
      "actionWhile": "",
      "actionAfter": "",
      "optionIcon": "",
      "iconPath": ""
    },
    {
      "id": 401580406,
      "nextDialogs": [
        401580407
      ],
      "talkRole": {
        "type": "TALK_ROLE_NPC",
        "_id": "1005"
      },
      "talkAssetPath": "",
      "talkAssetPathAlter": "",
      "talkAudioName": "",
      "actionBefore": "",
      "actionWhile": "",
      "actionAfter": "",
      "optionIcon": "",
      "iconPath": ""
    },
    {
      "id": 401580407,
      "nextDialogs": [
        401580408
      ],
      "talkRole": {
        "type": "TALK_ROLE_NPC",
        "_id": "1005"
      },
      "talkAssetPath": "",
      "talkAssetPathAlter": "",
      "talkAudioName": "",
      "actionBefore": "",
      "actionWhile": "",
      "actionAfter": "",
      "optionIcon": "",
      "iconPath": ""
    },
    {
      "id": 401580408,
      "nextDialogs": [
        401580409
      ],
      "talkRole": {
        "type": "TALK_ROLE_NPC",
        "_id": "1044"
      },
      "talkContentTextMapHash": 2475941066,
      "talkAssetPath": "",
      "talkAssetPathAlter": "",
      "talkAudioName": "",
      "actionBefore": "",
      "actionWhile": "",
      "actionAfter": "",
      "optionIcon": "",
      "iconPath": ""
    },
    {
      "id": 401580409,
      "nextDialogs": [
        401580410
      ],
      "talkRole": {
        "type": "TALK_ROLE_NPC",
        "_id": "1005"
      },
      "talkAssetPath": "",
      "talkAssetPathAlter": "",
      "talkAudioName": "",
      "actionBefore": "",
      "actionWhile": "",
      "actionAfter": "",
      "optionIcon": "",
      "iconPath": ""
    },
    {
      "id": 401580410,
      "nextDialogs": [
        401580411
      ],
      "talkRole": {
        "type": "TALK_ROLE_NPC",
        "_id": "1005"
      },
      "talkContentTextMapHash": 662388082,
      "talkAssetPath": "",
      "talkAssetPathAlter": "",
      "talkAudioName": "",
      "actionBefore": "",
      "actionWhile": "",
      "actionAfter": "",
      "optionIcon": "",
      "iconPath": ""
    },
    {
      "id": 401580411,
      "nextDialogs": [
        401580412
      ],
      "talkRole": {
        "type": "TALK_ROLE_NPC",
        "_id": "1044"
      },
      "talkAssetPath": "",
      "talkAssetPathAlter": "",
      "talkAudioName": "",
      "actionBefore": "",
      "actionWhile": "",
      "actionAfter": "",
      "optionIcon": "",
      "iconPath": ""
    },
    {
      "id": 401580412,
      "nextDialogs": [
        401580413
      ],
      "talkRole": {
        "type": "TALK_ROLE_NPC",
        "_id": "1005"
      },
      "talkContentTextMapHash": 493417586,
      "talkAssetPath": "",
      "talkAssetPathAlter": "",
      "talkAudioName": "",
      "actionBefore": "",
      "actionWhile": "",
      "actionAfter": "",
      "optionIcon": "",
      "iconPath": ""
    },
    {
      "id": 401580413,
      "nextDialogs": [
        401580414
      ],
      "talkRole": {
        "type": "TALK_ROLE_NPC",
        "_id": "1044"
      },
      "talkContentTextMapHash": 520819594,
      "talkAssetPath": "",
      "talkAssetPathAlter": "",
      "talkAudioName": "",
      "actionBefore": "",
      "actionWhile": "",
      "actionAfter": "",
      "optionIcon": "",
      "iconPath": ""
    },
    {
      "id": 401580414,
      "nextDialogs": [
        401580415
      ],
      "talkRole": {
        "type": "TALK_ROLE_NPC",
        "_id": "1005"
      },
      "talkContentTextMapHash": 185987370,
      "talkAssetPath": "",
      "talkAssetPathAlter": "",
      "talkAudioName": "",
      "actionBefore": "",
      "actionWhile": "",
      "actionAfter": "",
      "optionIcon": "",
      "iconPath": ""
    },
    {
      "id": 401580415,
      "nextDialogs": [
        401580416
      ],
      "talkRole": {
        "type": "TALK_ROLE_NPC",
        "_id": "1044"
      },
      "talkContentTextMapHash": 3774570906,
      "talkAssetPath": "",
      "talkAssetPathAlter": "",
      "talkAudioName": "",
      "actionBefore": "",
      "actionWhile": "",
      "actionAfter": "",
      "optionIcon": "",
      "iconPath": ""
    },
    {
      "id": 401580416,
      "nextDialogs": [
        401580417
      ],
      "talkRole": {
        "type": "TALK_ROLE_NPC",
        "_id": "1044"
      },
      "talkContentTextMapHash": 3706390970,
      "talkAssetPath": "",
      "talkAssetPathAlter": "",
      "talkAudioName": "",
      "actionBefore": "",
      "actionWhile": "",
      "actionAfter": "",
      "optionIcon": "",
      "iconPath": ""
    },
    {
      "id": 401580417,
      "talkRole": {
        "type": "TALK_ROLE_NPC",
        "_id": "1005"
      },
      "talkContentTextMapHash": 3121373490,
      "talkAssetPath": "",
      "talkAssetPathAlter": "",
      "talkAudioName": "",
      "actionBefore": "",
      "actionWhile": "",
      "actionAfter": "",
      "optionIcon": "",
      "iconPath": ""
    },
    {
      "id": 401580501,
      "nextDialogs": [
        401580502
      ],
      "talkRole": {
        "type": "TALK_ROLE_NEED_CLICK_BLACK_SCREEN",
        "_id": ""
      },
      "talkContentTextMapHash": 1387982050,
      "talkAssetPath": "",
      "talkAssetPathAlter": "",
      "talkAudioName": "",
      "actionBefore": "",
      "actionWhile": "",
      "actionAfter": "",
      "optionIcon": "",
      "iconPath": ""
    },
    {
      "id": 401580502,
      "nextDialogs": [
        401580503
      ],
      "talkRole": {
        "type": "TALK_ROLE_NEED_CLICK_BLACK_SCREEN",
        "_id": ""
      },
      "talkContentTextMapHash": 2441452546,
      "talkAssetPath": "",
      "talkAssetPathAlter": "",
      "talkAudioName": "",
      "actionBefore": "",
      "actionWhile": "",
      "actionAfter": "",
      "optionIcon": "",
      "iconPath": ""
    },
    {
      "id": 401581201,
      "nextDialogs": [
        401581202
      ],
      "talkRole": {
        "type": "TALK_ROLE_NPC",
        "_id": "30532"
      },
      "talkContentTextMapHash": 2124673970,
      "talkAssetPath": "",
      "talkAssetPathAlter": "",
      "talkAudioName": "",
      "actionBefore": "",
      "actionWhile": "",
      "actionAfter": "",
      "optionIcon": "",
      "iconPath": ""
    },
    {
      "id": 401581202,
      "nextDialogs": [
        401581203
      ],
      "talkRole": {
        "type": "TALK_ROLE_NPC",
        "_id": "30532"
      },
      "talkContentTextMapHash": 1709929546,
      "talkAssetPath": "",
      "talkAssetPathAlter": "",
      "talkAudioName": "",
      "actionBefore": "",
      "actionWhile": "",
      "actionAfter": "",
      "optionIcon": "",
      "iconPath": ""
    },
    {
      "id": 401581203,
      "nextDialogs": [
        401581204
      ],
      "talkRole": {
        "type": "TALK_ROLE_NPC",
        "_id": "30532"
      },
      "talkContentTextMapHash": 1846062834,
      "talkAssetPath": "",
      "talkAssetPathAlter": "",
      "talkAudioName": "",
      "actionBefore": "",
      "actionWhile": "",
      "actionAfter": "",
      "optionIcon": "",
      "iconPath": ""
    },
    {
      "id": 401581204,
      "nextDialogs": [
        401581205
      ],
      "talkRole": {
        "type": "TALK_ROLE_NPC",
        "_id": "30532"
      },
      "talkContentTextMapHash": 322181706,
      "talkAssetPath": "",
      "talkAssetPathAlter": "",
      "talkAudioName": "",
      "actionBefore": "",
      "actionWhile": "",
      "actionAfter": "",
      "optionIcon": "",
      "iconPath": ""
    },
    {
      "id": 401581205,
      "nextDialogs": [
        401581206
      ],
      "talkRole": {
        "type": "TALK_ROLE_NPC",
        "_id": "30532"
      },
      "talkContentTextMapHash": 590744642,
      "talkAssetPath": "",
      "talkAssetPathAlter": "",
      "talkAudioName": "",
      "actionBefore": "",
      "actionWhile": "",
      "actionAfter": "",
      "optionIcon": "",
      "iconPath": ""
    },
    {
      "id": 401581206,
      "nextDialogs": [
        401581207
      ],
      "talkRole": {
        "type": "TALK_ROLE_NPC",
        "_id": "30532"
      },
      "talkContentTextMapHash": 1651053322,
      "talkAssetPath": "",
      "talkAssetPathAlter": "",
      "talkAudioName": "",
      "actionBefore": "",
      "actionWhile": "",
      "actionAfter": "",
      "optionIcon": "",
      "iconPath": ""
    },
    {
      "id": 401581207,
      "nextDialogs": [
        401581208
      ],
      "talkRole": {
        "type": "TALK_ROLE_NPC",
        "_id": "30532"
      },
      "talkContentTextMapHash": 2659208962,
      "talkAssetPath": "",
      "talkAssetPathAlter": "",
      "talkAudioName": "",
      "actionBefore": "",
      "actionWhile": "",
      "actionAfter": "",
      "optionIcon": "",
      "iconPath": ""
    },
    {
      "id": 401581208,
      "talkRole": {
        "type": "TALK_ROLE_NPC",
        "_id": "30532"
      },
      "talkContentTextMapHash": 3257339946,
      "talkAssetPath": "",
      "talkAssetPathAlter": "",
      "talkAudioName": "",
      "actionBefore": "",
      "actionWhile": "",
      "actionAfter": "",
      "optionIcon": "",
      "iconPath": ""
    },
    {
      "id": 401589921,
      "nextDialogs": [
        401589922
      ],
      "talkRole": {
        "type": "TALK_ROLE_BLACK_SCREEN",
        "_id": ""
      },
      "talkContentTextMapHash": 2394209338,
      "talkAssetPath": "",
      "talkAssetPathAlter": "",
      "talkAudioName": "",
      "actionBefore": "",
      "actionWhile": "",
      "actionAfter": "",
      "optionIcon": "",
      "iconPath": ""
    },
    {
      "id": 401589922,
      "nextDialogs": [
        401589923
      ],
      "talkRole": {
        "type": "TALK_ROLE_BLACK_SCREEN",
        "_id": ""
      },
      "talkContentTextMapHash": 50660042,
      "talkAssetPath": "",
      "talkAssetPathAlter": "",
      "talkAudioName": "",
      "actionBefore": "",
      "actionWhile": "",
      "actionAfter": "",
      "optionIcon": "",
      "iconPath": ""
    },
    {
      "id": 401589923,
      "talkRole": {
        "type": "TALK_ROLE_BLACK_SCREEN",
        "_id": ""
      },
      "talkContentTextMapHash": 999670122,
      "talkAssetPath": "",
      "talkAssetPathAlter": "",
      "talkAudioName": "",
      "actionBefore": "",
      "actionWhile": "",
      "actionAfter": "",
      "optionIcon": "",
      "iconPath": ""
    },
    {
      "id": 401589931,
      "talkRole": {
        "type": "TALK_ROLE_BLACK_SCREEN",
        "_id": ""
      },
      "talkContentTextMapHash": 2715893602,
      "talkAssetPath": "",
      "talkAssetPathAlter": "",
      "talkAudioName": "",
      "actionBefore": "",
      "actionWhile": "",
      "actionAfter": "",
      "optionIcon": "",
      "iconPath": ""
    }
  ],
  "HGOMOKHCKND": [
    40158
  ],
  "LNMELPHNIDD": true
}