{
  "id": 40165,
  "series": 40162,
  "damageRatio": "EQ",
  "descTextMapHash": 328030703,
  "EKEKACCODOE": 3800840470,
  "luaPath": "Actor/Quest/EQ40165",
  "rewardIdList": [
    140165
  ],
  "chapterId": 10195,
  "activityId": 2032,
  "NAOFGBNMCCI": true,
  "BONJIMPOJLG": true,
  "subQuests": [
    {
      "subId": 4016501,
      "mainId": 40165,
      "order": 1,
      "descTextMapHash": 220456796,
      "finishCond": [
        {
          "damageRatio": "QUEST_CONTENT_GAME_TIME_TICK",
          "param": [
            2,
            0
          ]
        }
      ],
      "guide": {
        "MLAHIFLGIGJ": ""
      },
      "guideHint": {
        "param1": ""
      },
      "isRewind": true,
      "versionBegin": "",
      "versionEnd": ""
    },
    {
      "subId": 4016502,
      "mainId": 40165,
      "order": 2,
      "descTextMapHash": 194572012,
      "stepDescTextMapHash": 1877237013,
      "finishCond": [
        {
          "damageRatio": "QUEST_CONTENT_COMPLETE_TALK",
          "param": [
            4016501,
            0
          ]
        }
      ],
      "guide": {
        "damageRatio": "QUEST_GUIDE_LOCATION",
        "param": [
          "[100_910003042:-164.452,488.621,-777.046,0.000,245.987,0.000]"
        ],
        "guideScene": 100,
        "guideStyle": "QUEST_GUIDE_STYLE_POINT",
        "MLAHIFLGIGJ": ""
      },
      "guideHint": {
        "param1": ""
      },
      "isRewind": true,
      "finishExec": [
        {
          "damageRatio": "QUEST_EXEC_DEL_SCENE_TAG",
          "param": [
            "100",
            "1483"
          ]
        },
        {
          "damageRatio": "QUEST_EXEC_ADD_SCENE_TAG",
          "param": [
            "100",
            "1484"
          ]
        },
        {
          "damageRatio": "QUEST_EXEC_REFRESH_GROUP_SUITE",
          "param": [
            "100",
            "610002122,2"
          ]
        }
      ],
      "versionBegin": "",
      "versionEnd": ""
    },
    {
      "subId": 4016503,
      "mainId": 40165,
      "order": 3,
      "descTextMapHash": 3392086708,
      "finishCond": [
        {
          "damageRatio": "QUEST_CONTENT_COMPLETE_TALK",
          "param": [
            4016503,
            0
          ]
        }
      ],
      "guide": {
        "damageRatio": "QUEST_GUIDE_LOCATION",
        "param": [
          "[100_910002009:277.620,436.987,-637.168,359.953,99.773,359.991]",
          "15"
        ],
        "guideScene": 100,
        "guideStyle": "QUEST_GUIDE_STYLE_POINT",
        "guideLayer": "QUEST_GUIDE_LAYER_SCENE",
        "MLAHIFLGIGJ": ""
      },
      "guideHint": {
        "param1": ""
      },
      "isRewind": true,
      "finishExec": [
        {
          "damageRatio": "QUEST_EXEC_REFRESH_GROUP_SUITE",
          "param": [
            "100",
            "610003002,2"
          ]
        },
        {
          "damageRatio": "QUEST_EXEC_REFRESH_GROUP_SUITE",
          "param": [
            "100",
            "610001169,2"
          ]
        },
        {
          "damageRatio": "QUEST_EXEC_REFRESH_GROUP_SUITE",
          "param": [
            "100",
            "610008132,2"
          ]
        },
        {
          "damageRatio": "QUEST_EXEC_REFRESH_GROUP_SUITE",
          "param": [
            "100",
            "610001170,2"
          ]
        }
      ],
      "versionBegin": "",
      "versionEnd": ""
    },
    {
      "subId": 4016504,
      "mainId": 40165,
      "order": 4,
      "descTextMapHash": 1867456588,
      "finishCond": [
        {
          "damageRatio": "QUEST_CONTENT_COMPLETE_TALK",
          "param": [
            4016505,
            0
          ]
        }
      ],
      "guide": {
        "damageRatio": "QUEST_GUIDE_LOCATION",
        "param": [
          "[100_910001055:366.430,538.104,210.850,0.000,27.886,0.000]",
          "15"
        ],
        "guideScene": 100,
        "guideStyle": "QUEST_GUIDE_STYLE_POINT",
        "guideLayer": "QUEST_GUIDE_LAYER_SCENE",
        "MLAHIFLGIGJ": ""
      },
      "guideHint": {
        "param1": ""
      },
      "isRewind": true,
      "finishExec": [
        {
          "damageRatio": "QUEST_EXEC_REFRESH_GROUP_SUITE",
          "param": [
            "100",
            "610002098,3"
          ]
        }
      ],
      "versionBegin": "",
      "versionEnd": ""
    },
    {
      "subId": 4016505,
      "mainId": 40165,
      "order": 5,
      "descTextMapHash": 3946144212,
      "finishCond": [
        {
          "damageRatio": "QUEST_CONTENT_COMPLETE_TALK",
          "param": [
            4016507,
            0
          ]
        }
      ],
      "guide": {
        "damageRatio": "QUEST_GUIDE_LOCATION",
        "param": [
          "[100_910001163:908.939,231.586,718.830,0.000,174.716,0.000]"
        ],
        "guideScene": 100,
        "guideStyle": "QUEST_GUIDE_STYLE_POINT",
        "guideLayer": "QUEST_GUIDE_LAYER_SCENE",
        "MLAHIFLGIGJ": ""
      },
      "guideHint": {
        "param1": ""
      },
      "finishParent": true,
      "isRewind": true,
      "finishExec": [
        {
          "damageRatio": "QUEST_EXEC_SET_QUEST_GLOBAL_VAR",
          "param": [
            "4016501",
            "1"
          ]
        }
      ],
      "versionBegin": "",
      "versionEnd": ""
    }
  ],
  "talks": [
    {
      "id": 4016501,
      "beginWay": "TALK_BEGIN_MANUAL",
      "beginCond": [
        {
          "type": "QUEST_COND_STATE_EQUAL",
          "_param": [
            "4016502",
            "2"
          ]
        }
      ],
      "priority": 5,
      "initDialog": 401650101,
      "npcId": [
        30556,
        1004,
        1006
      ],
      "performCfg": "QuestDialogue/EQ/V4.8Fairy_40165/Q4016501",
      "heroTalk": "TALK_HERO_MAIN",
      "questId": 40165,
      "assetIndex": 229967648047728272,
      "prePerformCfg": "",
      "lockGameTime": true,
      "forceNpcNotDestroy": true,
      "CHAKPMBJNAJ": [
        "[100_910003041:-165.555,488.682,-778.346]",
        "[100_910003053:-163.765,493.051,-783.474,0.000,231.673,0.000]",
        "[100_910003054:-162.407,493.048,-783.645,0.000,230.595,0.000]",
        "[100_910003055:-165.414,493.078,-783.682,0.000,179.680,0.000]",
        "[100_910003056:-160.075,493.176,-783.613,0.000,249.549,0.000]",
        "[100_910003057:-159.789,493.027,-782.185]"
      ]
    },
    {
      "id": 4016502,
      "beginWay": "TALK_BEGIN_MANUAL",
      "beginCond": [
        {
          "type": "QUEST_COND_STATE_EQUAL",
          "_param": [
            "4016503",
            "2"
          ]
        }
      ],
      "priority": 5,
      "initDialog": 401650201,
      "npcId": [
        1004,
        30556,
        1006
      ],
      "performCfg": "QuestDialogue/EQ/V4.8Fairy_40165/Q4016502",
      "heroTalk": "TALK_HERO_MAIN",
      "questId": 40165,
      "assetIndex": 560830175213324047,
      "prePerformCfg": "",
      "lowPriority": true,
      "forceNpcNotDestroy": true
    },
    {
      "id": 4016503,
      "beginWay": "TALK_BEGIN_MANUAL",
      "beginCond": [
        {
          "type": "QUEST_COND_STATE_EQUAL",
          "_param": [
            "4016503",
            "2"
          ]
        }
      ],
      "priority": 5,
      "initDialog": 401650301,
      "npcId": [
        1051
      ],
      "performCfg": "QuestDialogue/EQ/V4.8Fairy_40165/Q4016503",
      "heroTalk": "TALK_HERO_MAIN",
      "questId": 40165,
      "assetIndex": 18337304191874896039,
      "prePerformCfg": "",
      "lockGameTime": true,
      "forceNpcNotDestroy": true,
      "CHAKPMBJNAJ": [
        "[100_910002002:284.892,439.835,-638.153,0.000,29.030,0.000]",
        "[100_910002009:277.620,436.987,-637.168,359.953,99.773,359.991]",
        "[100_910002010:275.561,436.974,-635.559,0.000,97.420,0.000]"
      ]
    },
    {
      "id": 4016504,
      "beginWay": "TALK_BEGIN_MANUAL",
      "beginCond": [
        {
          "type": "QUEST_COND_STATE_EQUAL",
          "_param": [
            "4016504",
            "2"
          ]
        }
      ],
      "priority": 5,
      "initDialog": 401650401,
      "npcId": [
        1051
      ],
      "performCfg": "QuestDialogue/EQ/V4.8Fairy_40165/Q4016504",
      "heroTalk": "TALK_HERO_MAIN",
      "questId": 40165,
      "assetIndex": 14425332420581062369,
      "prePerformCfg": "",
      "lowPriority": true,
      "forceNpcNotDestroy": true
    },
    {
      "id": 4016505,
      "beginWay": "TALK_BEGIN_MANUAL",
      "beginCond": [
        {
          "type": "QUEST_COND_STATE_EQUAL",
          "_param": [
            "4016504",
            "2"
          ]
        }
      ],
      "priority": 5,
      "initDialog": 401650501,
      "npcId": [
        10095
      ],
      "performCfg": "QuestDialogue/EQ/V4.8Fairy_40165/Q4016505",
      "heroTalk": "TALK_HERO_MAIN",
      "questId": 40165,
      "assetIndex": 5541258672796572091,
      "prePerformCfg": "",
      "lockGameTime": true,
      "forceNpcNotDestroy": true,
      "CHAKPMBJNAJ": [
        "[100_910001054:367.270,538.104,212.601,0.000,226.281,0.000]",
        "[100_910001055:366.430,538.104,210.850,0.000,27.886,0.000]",
        "[100_910001056:365.535,538.104,211.559,0.000,54.974,0.000]"
      ]
    },
    {
      "id": 4016506,
      "beginWay": "TALK_BEGIN_MANUAL",
      "beginCond": [
        {
          "type": "QUEST_COND_STATE_EQUAL",
          "_param": [
            "4016505",
            "2"
          ]
        }
      ],
      "priority": 5,
      "initDialog": 401650601,
      "npcId": [
        10095
      ],
      "performCfg": "QuestDialogue/EQ/V4.8Fairy_40165/Q4016506",
      "heroTalk": "TALK_HERO_MAIN",
      "questId": 40165,
      "assetIndex": 17713869819189466669,
      "prePerformCfg": "",
      "lowPriority": true,
      "forceNpcNotDestroy": true
    },
    {
      "id": 4016507,
      "beginWay": "TALK_BEGIN_MANUAL",
      "beginCond": [
        {
          "type": "QUEST_COND_STATE_EQUAL",
          "_param": [
            "4016505",
            "2"
          ]
        }
      ],
      "priority": 5,
      "initDialog": 401650701,
      "npcId": [
        1065,
        30564
      ],
      "performCfg": "QuestDialogue/EQ/V4.8Fairy_40165/Q4016507",
      "heroTalk": "TALK_HERO_MAIN",
      "questId": 40165,
      "assetIndex": 6468880589749053302,
      "prePerformCfg": "",
      "lockGameTime": true,
      "forceNpcNotDestroy": true,
      "CHAKPMBJNAJ": [
        "[100_910001157:907.750,231.895,707.915,0.000,87.708,0.000]",
        "[100_910001158:908.191,231.905,706.971,0.000,75.470,0.000]",
        "[100_910001159:911.610,231.841,707.770,0.000,27.935,0.000]",
        "[100_910001160:912.136,231.842,708.744,0.000,228.441,0.000]",
        "[100_910001161:900.303,230.213,718.899,0.000,238.986,0.000]",
        "[100_910001162:894.911,231.409,713.709]",
        "[100_910001163:908.939,231.586,718.830,0.000,174.716,0.000]",
        "[100_910001164:909.765,231.643,718.997,0.000,185.022,0.000]",
        "[100_910008016:875.173,251.625,728.982,0.000,152.658,0.000]"
      ]
    }
  ],
  "freeStyleDic": {
    "1004": [
      1180,
      1190
    ],
    "1006": [
      1220
    ],
    "1051": [
      1190
    ],
    "10095": [
      1190
    ],
    "1065": [
      1120
    ]
  },
  "LNMELPHNIDD": true
}