{
  "id": 4025,
  "resId": 1023,
  "series": 4020,
  "descTextMapHash": 1730113071,
  "EKEKACCODOE": 434714222,
  "luaPath": "Actor/Quest/AQ4025",
  "rewardIdList": [
    104025
  ],
  "chapterId": 1405,
  "BONJIMPOJLG": true,
  "subQuests": [
    {
      "subId": 402501,
      "mainId": 4025,
      "order": 11,
      "descTextMapHash": 1980599020,
      "finishCond": [
        {
          "damageRatio": "QUEST_CONTENT_COMPLETE_TALK",
          "param": [
            402501,
            0
          ]
        }
      ],
      "guide": {
        "damageRatio": "QUEST_GUIDE_LOCATION",
        "param": [
          "[3_340100312:3454.887,426.619,4479.380,0.000,202.333,0.000]"
        ],
        "guideScene": 3,
        "guideStyle": "QUEST_GUIDE_STYLE_POINT",
        "guideLayer": "QUEST_GUIDE_LAYER_SCENE",
        "MLAHIFLGIGJ": ""
      },
      "guideHint": {
        "param1": ""
      },
      "isRewind": true,
      "versionBegin": "",
      "versionEnd": ""
    },
    {
      "subId": 402502,
      "mainId": 4025,
      "order": 12,
      "descTextMapHash": 2999951292,
      "JIFODJPFKDF": [
        340302,
        340303
      ],
      "finishCond": [
        {
          "damageRatio": "QUEST_CONTENT_FINISH_PLOT",
          "param": [
            402502,
            0
          ]
        }
      ],
      "guide": {
        "damageRatio": "QUEST_GUIDE_NPC",
        "param": [
          "1075"
        ],
        "guideScene": 3,
        "guideStyle": "QUEST_GUIDE_STYLE_TARGET",
        "MLAHIFLGIGJ": ""
      },
      "guideHint": {
        "param1": ""
      },
      "isRewind": true,
      "versionBegin": "",
      "versionEnd": ""
    },
    {
      "subId": 402503,
      "mainId": 4025,
      "order": 13,
      "descTextMapHash": 542825524,
      "JIFODJPFKDF": [
        340302,
        340303
      ],
      "finishCond": [
        {
          "damageRatio": "QUEST_CONTENT_COMPLETE_TALK",
          "param": [
            402503,
            0
          ]
        }
      ],
      "guide": {
        "damageRatio": "QUEST_GUIDE_NPC",
        "param": [
          "1075"
        ],
        "guideScene": 3,
        "guideStyle": "QUEST_GUIDE_STYLE_TARGET",
        "guideLayer": "QUEST_GUIDE_LAYER_SCENE",
        "MLAHIFLGIGJ": ""
      },
      "guideHint": {
        "param1": ""
      },
      "finishExec": [
        {
          "damageRatio": "QUEST_EXEC_UNREGISTER_DYNAMIC_GROUP",
          "param": [
            "133407028",
            "1"
          ]
        }
      ],
      "versionBegin": "",
      "versionEnd": ""
    },
    {
      "subId": 402504,
      "mainId": 4025,
      "order": 14,
      "descTextMapHash": 1576981812,
      "JIFODJPFKDF": [
        340813
      ],
      "finishCond": [
        {
          "damageRatio": "QUEST_CONTENT_FINISH_PLOT",
          "param": [
            402504,
            0
          ]
        }
      ],
      "guide": {
        "damageRatio": "QUEST_GUIDE_LOCATION",
        "param": [
          "[3_340800208:4457.576,121.744,4575.951,0.000,192.613,0.000]",
          "20"
        ],
        "guideScene": 3,
        "guideStyle": "QUEST_GUIDE_STYLE_TARGET",
        "MLAHIFLGIGJ": ""
      },
      "guideHint": {
        "param1": ""
      },
      "isRewind": true,
      "versionBegin": "",
      "versionEnd": ""
    },
    {
      "subId": 402505,
      "mainId": 4025,
      "order": 15,
      "descTextMapHash": 4158578772,
      "JIFODJPFKDF": [
        340813
      ],
      "finishCond": [
        {
          "damageRatio": "QUEST_CONTENT_COMPLETE_TALK",
          "param": [
            402505,
            0
          ]
        }
      ],
      "guide": {
        "damageRatio": "QUEST_GUIDE_NPC",
        "param": [
          "1078"
        ],
        "guideScene": 3,
        "guideStyle": "QUEST_GUIDE_STYLE_TARGET",
        "guideLayer": "QUEST_GUIDE_LAYER_SCENE",
        "MLAHIFLGIGJ": ""
      },
      "guideHint": {
        "param1": ""
      },
      "versionBegin": "",
      "versionEnd": ""
    },
    {
      "subId": 402506,
      "mainId": 4025,
      "order": 16,
      "descTextMapHash": 3924109356,
      "JIFODJPFKDF": [
        340504,
        340505
      ],
      "finishCond": [
        {
          "damageRatio": "QUEST_CONTENT_FINISH_PLOT",
          "param": [
            402506,
            0
          ]
        }
      ],
      "guide": {
        "damageRatio": "QUEST_GUIDE_LOCATION",
        "param": [
          "[3_340500066:1625.584,282.118,4999.765,0.626,282.560,3.859]",
          "20"
        ],
        "guideScene": 3,
        "guideStyle": "QUEST_GUIDE_STYLE_TARGET",
        "MLAHIFLGIGJ": ""
      },
      "guideHint": {
        "param1": ""
      },
      "isRewind": true,
      "versionBegin": "",
      "versionEnd": ""
    },
    {
      "subId": 402507,
      "mainId": 4025,
      "order": 17,
      "descTextMapHash": 1828405052,
      "JIFODJPFKDF": [
        340504,
        340505
      ],
      "finishCond": [
        {
          "damageRatio": "QUEST_CONTENT_COMPLETE_TALK",
          "param": [
            402507,
            0
          ]
        }
      ],
      "guide": {
        "damageRatio": "QUEST_GUIDE_NPC",
        "param": [
          "1071"
        ],
        "guideScene": 3,
        "guideStyle": "QUEST_GUIDE_STYLE_TARGET",
        "guideLayer": "QUEST_GUIDE_LAYER_SCENE",
        "MLAHIFLGIGJ": ""
      },
      "guideHint": {
        "param1": ""
      },
      "finishExec": [
        {
          "damageRatio": "QUEST_EXEC_DEL_PACK_ITEM",
          "param": [
            "120573",
            "1"
          ]
        }
      ],
      "versionBegin": "",
      "versionEnd": ""
    },
    {
      "subId": 402508,
      "mainId": 4025,
      "order": 18,
      "descTextMapHash": 3849825532,
      "JIFODJPFKDF": [
        340212
      ],
      "finishCond": [
        {
          "damageRatio": "QUEST_CONTENT_FINISH_PLOT",
          "param": [
            402508,
            0
          ]
        }
      ],
      "guide": {
        "damageRatio": "QUEST_GUIDE_NPC",
        "param": [
          "1076"
        ],
        "guideScene": 3,
        "guideStyle": "QUEST_GUIDE_STYLE_TARGET",
        "MLAHIFLGIGJ": ""
      },
      "guideHint": {
        "param1": ""
      },
      "isRewind": true,
      "versionBegin": "",
      "versionEnd": ""
    },
    {
      "subId": 402509,
      "mainId": 4025,
      "order": 19,
      "descTextMapHash": 3371170548,
      "JIFODJPFKDF": [
        340212
      ],
      "finishCond": [
        {
          "damageRatio": "QUEST_CONTENT_COMPLETE_TALK",
          "param": [
            402513,
            0
          ]
        }
      ],
      "guide": {
        "damageRatio": "QUEST_GUIDE_NPC",
        "param": [
          "1076"
        ],
        "guideScene": 3,
        "guideStyle": "QUEST_GUIDE_STYLE_TARGET",
        "guideLayer": "QUEST_GUIDE_LAYER_SCENE",
        "MLAHIFLGIGJ": ""
      },
      "guideHint": {
        "param1": ""
      },
      "versionBegin": "",
      "versionEnd": ""
    },
    {
      "subId": 402510,
      "mainId": 4025,
      "order": 21,
      "isMpBlock": true,
      "descTextMapHash": 4223353196,
      "JIFODJPFKDF": [
        340212
      ],
      "finishCond": [
        {
          "damageRatio": "QUEST_CONTENT_COMPLETE_TALK",
          "param": [
            402514,
            0
          ]
        }
      ],
      "failCond": [
        {
          "damageRatio": "QUEST_CONTENT_LEAVE_SCENE",
          "param": [
            20206,
            0
          ]
        },
        {
          "damageRatio": "QUEST_CONTENT_ENTER_MY_WORLD",
          "param": [
            3,
            0
          ]
        },
        {
          "damageRatio": "QUEST_CONTENT_FAIL_DUNGEON",
          "param": [
            1193,
            0
          ]
        }
      ],
      "guide": {
        "damageRatio": "QUEST_GUIDE_NPC",
        "param": [
          "1076"
        ],
        "guideScene": 20206,
        "guideStyle": "QUEST_GUIDE_STYLE_TARGET",
        "guideLayer": "QUEST_GUIDE_LAYER_SCENE",
        "MLAHIFLGIGJ": ""
      },
      "guideHint": {
        "param1": ""
      },
      "MEMGANDALKN": "QUEST_HIDDEN",
      "isRewind": true,
      "failExec": [
        {
          "damageRatio": "QUEST_EXEC_ROLLBACK_QUEST",
          "param": [
            "402512"
          ]
        }
      ],
      "versionBegin": "",
      "versionEnd": ""
    },
    {
      "subId": 402511,
      "mainId": 4025,
      "order": 30,
      "descTextMapHash": 2719724716,
      "JIFODJPFKDF": [
        340212
      ],
      "finishCond": [
        {
          "damageRatio": "QUEST_CONTENT_COMPLETE_TALK",
          "param": [
            402509,
            0
          ]
        }
      ],
      "guide": {
        "damageRatio": "QUEST_GUIDE_NPC",
        "param": [
          "1076"
        ],
        "guideScene": 3,
        "guideStyle": "QUEST_GUIDE_STYLE_TARGET",
        "guideLayer": "QUEST_GUIDE_LAYER_SCENE",
        "MLAHIFLGIGJ": ""
      },
      "guideHint": {
        "param1": ""
      },
      "finishParent": true,
      "MEMGANDALKN": "QUEST_HIDDEN",
      "isRewind": true,
      "finishExec": [
        {
          "damageRatio": "QUEST_EXEC_SET_QUEST_GLOBAL_VAR",
          "param": [
            "402501",
            "1"
          ]
        },
        {
          "damageRatio": "QUEST_EXEC_DEL_SCENE_TAG",
          "param": [
            "3",
            "1367"
          ]
        },
        {
          "damageRatio": "QUEST_EXEC_ADD_SCENE_TAG",
          "param": [
            "3",
            "1368"
          ]
        },
        {
          "damageRatio": "QUEST_EXEC_REFRESH_GROUP_SUITE",
          "param": [
            "3",
            "133403739,2"
          ]
        },
        {
          "damageRatio": "QUEST_EXEC_UNLOCK_POINT",
          "param": [
            "3",
            "1085"
          ]
        }
      ],
      "versionBegin": "",
      "versionEnd": ""
    },
    {
      "subId": 402512,
      "mainId": 4025,
      "order": 20,
      "descTextMapHash": 1711444836,
      "JIFODJPFKDF": [
        340212
      ],
      "finishCond": [
        {
          "damageRatio": "QUEST_CONTENT_ENTER_DUNGEON",
          "param": [
            1193,
            1073
          ]
        }
      ],
      "guide": {
        "damageRatio": "QUEST_GUIDE_LOCATION",
        "param": [
          "[3_340200113:3329.162,454.452,3811.095,0.000,306.786,0.000]"
        ],
        "guideScene": 3,
        "guideStyle": "QUEST_GUIDE_STYLE_POINT",
        "guideLayer": "QUEST_GUIDE_LAYER_SCENE",
        "MLAHIFLGIGJ": ""
      },
      "guideHint": {
        "param1": ""
      },
      "MEMGANDALKN": "QUEST_HIDDEN",
      "isRewind": true,
      "versionBegin": "",
      "versionEnd": ""
    }
  ],
  "talks": [
    {
      "id": 402501,
      "beginWay": "TALK_BEGIN_MANUAL",
      "beginCond": [
        {
          "type": "QUEST_COND_STATE_EQUAL",
          "_param": [
            "402501",
            "2"
          ]
        }
      ],
      "priority": 5,
      "initDialog": 40250101,
      "npcId": [
        1070
      ],
      "performCfg": "QuestDialogue/AQ/Fontaine_4025/Q402501",
      "heroTalk": "TALK_HERO_MAIN",
      "questId": 4025,
      "assetIndex": 9844873584913185627,
      "prePerformCfg": "",
      "lockGameTime": true,
      "CHAKPMBJNAJ": [
        "[3_340100312:3454.887,426.619,4479.380,0.000,202.333,0.000]",
        "[3_340100451:3453.686,426.619,4475.372]"
      ]
    },
    {
      "id": 402503,
      "beginWay": "TALK_BEGIN_MANUAL",
      "beginCond": [
        {
          "type": "QUEST_COND_STATE_EQUAL",
          "_param": [
            "402503",
            "2"
          ]
        }
      ],
      "priority": 5,
      "initDialog": 40250301,
      "npcId": [
        1075
      ],
      "performCfg": "QuestDialogue/AQ/Fontaine_4025/Q402503",
      "heroTalk": "TALK_HERO_MAIN",
      "questId": 4025,
      "assetIndex": 6122576928712150328,
      "prePerformCfg": "",
      "lockGameTime": true,
      "CHAKPMBJNAJ": [
        "[3_340100313:2759.264,379.576,4165.689,0.000,305.196,0.000]",
        "[3_340300307:2819.143,373.180,4178.789,0.000,257.246,0.000]"
      ]
    },
    {
      "id": 402505,
      "beginWay": "TALK_BEGIN_MANUAL",
      "beginCond": [
        {
          "type": "QUEST_COND_STATE_EQUAL",
          "_param": [
            "402505",
            "2"
          ]
        }
      ],
      "priority": 5,
      "initDialog": 40250501,
      "npcId": [
        1078
      ],
      "performCfg": "QuestDialogue/AQ/Fontaine_4025/Q402505",
      "heroTalk": "TALK_HERO_MAIN",
      "questId": 4025,
      "assetIndex": 14661143565452821233,
      "prePerformCfg": "",
      "lockGameTime": true,
      "CHAKPMBJNAJ": [
        "[3_340800208:4457.576,121.744,4575.951,0.000,192.613,0.000]",
        "[3_340800429:4465.286,121.820,4557.719,0.000,82.884,0.000]"
      ]
    },
    {
      "id": 402506,
      "beginWay": "TALK_BEGIN_MANUAL",
      "beginCondComb": "LOGIC_OR",
      "beginCond": [
        {
          "type": "QUEST_COND_STATE_EQUAL",
          "_param": [
            "402504",
            "2"
          ]
        },
        {
          "type": "QUEST_COND_STATE_EQUAL",
          "_param": [
            "402505",
            "2"
          ]
        }
      ],
      "priority": 5,
      "initDialog": 40250601,
      "npcId": [
        1077,
        1075,
        13796
      ],
      "performCfg": "QuestDialogue/AQ/Fontaine_4025/Q402506",
      "heroTalk": "TALK_HERO_MAIN",
      "questId": 4025,
      "assetIndex": 10851041135487764346,
      "prePerformCfg": "",
      "lockGameTime": true
    },
    {
      "id": 402507,
      "beginWay": "TALK_BEGIN_MANUAL",
      "beginCond": [
        {
          "type": "QUEST_COND_STATE_EQUAL",
          "_param": [
            "402507",
            "2"
          ]
        }
      ],
      "priority": 5,
      "initDialog": 40250701,
      "npcId": [
        1071
      ],
      "performCfg": "QuestDialogue/AQ/Fontaine_4025/Q402507",
      "heroTalk": "TALK_HERO_MAIN",
      "questId": 4025,
      "assetIndex": 17090810908862074019,
      "prePerformCfg": "",
      "lockGameTime": true,
      "CHAKPMBJNAJ": [
        "[3_340100453:1631.352,282.118,4996.871]",
        "[3_340500066:1625.584,282.118,4999.765,0.626,282.560,3.859]"
      ]
    },
    {
      "id": 402509,
      "beginWay": "TALK_BEGIN_MANUAL",
      "beginCond": [
        {
          "type": "QUEST_COND_STATE_EQUAL",
          "_param": [
            "402511",
            "2"
          ]
        }
      ],
      "priority": 5,
      "initDialog": 40250901,
      "npcId": [
        1076
      ],
      "performCfg": "QuestDialogue/AQ/Fontaine_4025/Q402509",
      "heroTalk": "TALK_HERO_MAIN",
      "questId": 4025,
      "assetIndex": 17964155861245283133,
      "prePerformCfg": "",
      "lockGameTime": true,
      "CHAKPMBJNAJ": [
        "[3_340100414:3330.118,454.527,3810.015]",
        "[3_340200113:3329.162,454.452,3811.095,0.000,306.786,0.000]"
      ]
    },
    {
      "id": 402510,
      "beginWay": "TALK_BEGIN_MANUAL",
      "beginCondComb": "LOGIC_OR",
      "beginCond": [
        {
          "type": "QUEST_COND_STATE_EQUAL",
          "_param": [
            "402506",
            "2"
          ]
        },
        {
          "type": "QUEST_COND_STATE_EQUAL",
          "_param": [
            "402507",
            "2"
          ]
        }
      ],
      "priority": 5,
      "initDialog": 40251001,
      "npcId": [
        13533,
        13532
      ],
      "performCfg": "QuestDialogue/AQ/Fontaine_4025/Q402510",
      "heroTalk": "TALK_HERO_MAIN",
      "questId": 4025,
      "assetIndex": 14770495938379694139,
      "prePerformCfg": "",
      "lockGameTime": true
    },
    {
      "id": 402511,
      "beginWay": "TALK_BEGIN_MANUAL",
      "beginCondComb": "LOGIC_OR",
      "beginCond": [
        {
          "type": "QUEST_COND_STATE_EQUAL",
          "_param": [
            "402506",
            "2"
          ]
        },
        {
          "type": "QUEST_COND_STATE_EQUAL",
          "_param": [
            "402507",
            "2"
          ]
        }
      ],
      "priority": 5,
      "initDialog": 40251101,
      "npcId": [
        1079,
        1078
      ],
      "performCfg": "QuestDialogue/AQ/Fontaine_4025/Q402511",
      "heroTalk": "TALK_HERO_MAIN",
      "questId": 4025,
      "assetIndex": 9845681044988939303,
      "prePerformCfg": "",
      "lockGameTime": true
    },
    {
      "id": 402513,
      "beginWay": "TALK_BEGIN_MANUAL",
      "beginCond": [
        {
          "type": "QUEST_COND_STATE_EQUAL",
          "_param": [
            "402509",
            "2"
          ]
        }
      ],
      "priority": 5,
      "initDialog": 40251301,
      "npcId": [
        1076
      ],
      "performCfg": "QuestDialogue/AQ/Fontaine_4025/Q402513",
      "heroTalk": "TALK_HERO_MAIN",
      "questId": 4025,
      "assetIndex": 8557319358370670987,
      "prePerformCfg": "",
      "lockGameTime": true,
      "CHAKPMBJNAJ": [
        "[3_340200113:3329.162,454.452,3811.095,0.000,306.786,0.000]"
      ]
    },
    {
      "id": 402514,
      "beginWay": "TALK_BEGIN_MANUAL",
      "beginCond": [
        {
          "type": "QUEST_COND_STATE_EQUAL",
          "_param": [
            "402510",
            "2"
          ]
        }
      ],
      "priority": 5,
      "initDialog": 40251401,
      "npcId": [
        1076
      ],
      "performCfg": "QuestDialogue/AQ/Fontaine_4025/Q402514",
      "heroTalk": "TALK_HERO_MAIN",
      "questId": 4025,
      "assetIndex": 11104760528245774363,
      "prePerformCfg": "",
      "lockGameTime": true,
      "CHAKPMBJNAJ": [
        "[20206_1:0.000,0.100,15.000]",
        "[20206_2:-0.906,0.000,18.913,0.000,161.426,0.000]",
        "[20206_3:2.479,0.000,18.563]"
      ]
    }
  ],
  "preloadLuaList": [
    14457059026087496718,
    16743956341326102693,
    6237427337107888799,
    8935350924405389799,
    12827439265254900354,
    143055424215734972,
    11874292767369623806,
    8141347082878873417,
    7837062209448375575,
    5469077460607095485
  ],
  "forcePreloadLuaList": [
    5882036979339577633
  ],
  "freeStyleDic": {
    "13796": [
      1170
    ],
    "1075": [
      1220
    ],
    "1077": [
      1120
    ],
    "1079": [
      1192
    ],
    "13533": [
      1050
    ],
    "13532": [
      1120
    ],
    "1071": [
      1170
    ],
    "1072": [
      1230
    ],
    "5137": [
      1130
    ],
    "5136": [
      1180
    ],
    "5149": [
      1230
    ]
  }
}