{
  "id": 41146,
  "damageRatio": "EQ",
  "descTextMapHash": 651685279,
  "EKEKACCODOE": 2904009862,
  "luaPath": "Actor/Quest/EQ41146",
  "rewardIdList": [
    3001031
  ],
  "subQuests": [
    {
      "subId": 4114601,
      "mainId": 41146,
      "order": 2,
      "descTextMapHash": 2119510524,
      "finishCond": [
        {
          "damageRatio": "QUEST_CONTENT_FINISH_PLOT",
          "param": [
            4114601,
            0
          ]
        }
      ],
      "guide": {
        "damageRatio": "QUEST_GUIDE_NPC",
        "autoGuide": "QUEST_GUIDE_AUTO_ENABLE",
        "param": [
          "1419"
        ],
        "guideScene": 3,
        "guideStyle": "QUEST_GUIDE_STYLE_TARGET",
        "guideLayer": "QUEST_GUIDE_LAYER_UI",
        "MLAHIFLGIGJ": ""
      },
      "guideHint": {
        "param1": ""
      },
      "isRewind": true,
      "versionBegin": "",
      "versionEnd": ""
    },
    {
      "subId": 4114602,
      "mainId": 41146,
      "order": 3,
      "isMpBlock": true,
      "descTextMapHash": 2807688996,
      "stepDescTextMapHash": 1623307133,
      "AKLAGMDECEM": "BAN_GROUP_TRANSPOR_GOTO_SCENE",
      "finishCond": [
        {
          "damageRatio": "QUEST_CONTENT_COMPLETE_TALK",
          "param": [
            4114602,
            0
          ]
        }
      ],
      "failCond": [
        {
          "damageRatio": "QUEST_CONTENT_NOT_FINISH_PLOT",
          "param": [
            4114602,
            0
          ]
        },
        {
          "damageRatio": "QUEST_CONTENT_ITEM_LESS_THAN",
          "param": [
            100652,
            1
          ]
        },
        {
          "damageRatio": "QUEST_CONTENT_ACTIVITY_TRIGGER_FAILED",
          "param": [
            5006,
            0
          ]
        }
      ],
      "guide": {
        "damageRatio": "QUEST_GUIDE_NPC",
        "autoGuide": "QUEST_GUIDE_AUTO_ENABLE",
        "param": [
          "157901"
        ],
        "guideScene": 3,
        "guideStyle": "QUEST_GUIDE_STYLE_FINISH",
        "guideLayer": "QUEST_GUIDE_LAYER_UI",
        "MLAHIFLGIGJ": ""
      },
      "guideHint": {
        "param1": ""
      },
      "finishExec": [
        {
          "damageRatio": "QUEST_EXEC_DEL_PACK_ITEM",
          "param": [
            "100652",
            "1"
          ]
        },
        {
          "damageRatio": "QUEST_EXEC_UNREGISTER_DYNAMIC_GROUP",
          "param": [
            "133004435"
          ]
        }
      ],
      "failExec": [
        {
          "damageRatio": "QUEST_EXEC_DEL_PACK_ITEM",
          "param": [
            "100652",
            "1"
          ]
        },
        {
          "damageRatio": "QUEST_EXEC_ROLLBACK_QUEST",
          "param": [
            "4114601"
          ]
        },
        {
          "damageRatio": "QUEST_EXEC_UNREGISTER_DYNAMIC_GROUP",
          "param": [
            "133004435"
          ]
        }
      ],
      "versionBegin": "",
      "versionEnd": ""
    },
    {
      "subId": 4114603,
      "mainId": 41146,
      "order": 4,
      "descTextMapHash": 4100144372,
      "finishCond": [
        {
          "damageRatio": "QUEST_CONTENT_COMPLETE_TALK",
          "param": [
            4114606,
            0
          ]
        }
      ],
      "guide": {
        "damageRatio": "QUEST_GUIDE_NPC",
        "autoGuide": "QUEST_GUIDE_AUTO_ENABLE",
        "param": [
          "157901"
        ],
        "guideScene": 3,
        "guideStyle": "QUEST_GUIDE_STYLE_FINISH",
        "guideLayer": "QUEST_GUIDE_LAYER_UI",
        "MLAHIFLGIGJ": ""
      },
      "guideHint": {
        "param1": ""
      },
      "finishParent": true,
      "isRewind": true,
      "versionBegin": "",
      "versionEnd": ""
    },
    {
      "subId": 4114604,
      "mainId": 41146,
      "order": 1,
      "showType": "QUEST_HIDDEN",
      "finishCond": [
        {
          "damageRatio": "QUEST_CONTENT_FINISH_PLOT",
          "param": [
            4114604,
            0
          ]
        }
      ],
      "guide": {
        "MLAHIFLGIGJ": ""
      },
      "guideHint": {
        "param1": ""
      },
      "versionBegin": "",
      "versionEnd": ""
    }
  ],
  "talks": [
    {
      "id": 4114601,
      "beginCond": [
        {
          "type": "QUEST_COND_STATE_EQUAL",
          "_param": [
            "4114601",
            "2"
          ]
        }
      ],
      "priority": 10,
      "initDialog": 411460101,
      "npcId": [
        1419
      ],
      "performCfg": "",
      "heroTalk": "TALK_HERO_MAIN",
      "questId": 41146,
      "assetIndex": 6575593009665365687,
      "dontBlockDaily": true,
      "prePerformCfg": ""
    },
    {
      "id": 4114602,
      "beginWay": "TALK_BEGIN_MANUAL",
      "beginCond": [
        {
          "type": "QUEST_COND_STATE_EQUAL",
          "_param": [
            "4114601",
            "3"
          ]
        }
      ],
      "priority": 10,
      "nextTalks": [
        4114606
      ],
      "initDialog": 411460201,
      "npcId": [
        157901
      ],
      "performCfg": "",
      "heroTalk": "TALK_HERO_MAIN",
      "questId": 41146,
      "assetIndex": 9947910809688132808,
      "prePerformCfg": ""
    },
    {
      "id": 4114603,
      "beginCond": [
        {
          "type": "QUEST_COND_STATE_EQUAL",
          "_param": [
            "4114601",
            "2"
          ]
        }
      ],
      "priority": 90,
      "nextTalks": [
        4114601,
        4114604
      ],
      "initDialog": 411460301,
      "npcId": [
        1419
      ],
      "performCfg": "",
      "heroTalk": "TALK_HERO_MAIN",
      "questId": 41146,
      "assetIndex": 914084921532366862,
      "dontBlockDaily": true,
      "prePerformCfg": ""
    },
    {
      "id": 4114604,
      "beginCond": [
        {
          "type": "QUEST_COND_STATE_EQUAL",
          "_param": [
            "4114601",
            "2"
          ]
        }
      ],
      "priority": 10,
      "initDialog": 411460401,
      "npcId": [
        1419
      ],
      "performCfg": "",
      "heroTalk": "TALK_HERO_MAIN",
      "questId": 41146,
      "assetIndex": 11941955706908903549,
      "prePerformCfg": ""
    },
    {
      "id": 4114605,
      "beginWay": "TALK_BEGIN_MANUAL",
      "beginCond": [
        {
          "type": "QUEST_COND_STATE_EQUAL",
          "_param": [
            "4114601",
            "2"
          ]
        }
      ],
      "priority": 5,
      "initDialog": 411460501,
      "npcId": [
        157901
      ],
      "performCfg": "",
      "heroTalk": "TALK_HERO_MAIN",
      "questId": 41146,
      "assetIndex": 9336645278695486276,
      "prePerformCfg": ""
    },
    {
      "id": 4114606,
      "activeMode": "PLAY_MODE_ALL",
      "beginCond": [
        {
          "type": "QUEST_COND_STATE_EQUAL",
          "_param": [
            "4114603",
            "2"
          ]
        }
      ],
      "initDialog": 411460601,
      "npcId": [
        157901
      ],
      "performCfg": "",
      "questId": 41146,
      "assetIndex": 8284175359260759898,
      "prePerformCfg": ""
    }
  ]
}