{
  "id": 41144,
  "damageRatio": "EQ",
  "descTextMapHash": 348042191,
  "EKEKACCODOE": 1472435438,
  "luaPath": "Actor/Quest/EQ41144",
  "rewardIdList": [
    3001022
  ],
  "subQuests": [
    {
      "subId": 4114401,
      "mainId": 41144,
      "order": 2,
      "descTextMapHash": 16230740,
      "finishCond": [
        {
          "damageRatio": "QUEST_CONTENT_FINISH_PLOT",
          "param": [
            4114401,
            0
          ]
        }
      ],
      "guide": {
        "damageRatio": "QUEST_GUIDE_NPC",
        "autoGuide": "QUEST_GUIDE_AUTO_ENABLE",
        "param": [
          "2204"
        ],
        "guideScene": 3,
        "guideStyle": "QUEST_GUIDE_STYLE_TARGET",
        "guideLayer": "QUEST_GUIDE_LAYER_UI",
        "MLAHIFLGIGJ": ""
      },
      "guideHint": {
        "param1": ""
      },
      "isRewind": true,
      "versionBegin": "",
      "versionEnd": ""
    },
    {
      "subId": 4114402,
      "mainId": 41144,
      "order": 3,
      "isMpBlock": true,
      "descTextMapHash": 2696966980,
      "stepDescTextMapHash": 1405112917,
      "AKLAGMDECEM": "BAN_GROUP_TRANSPOR_GOTO_SCENE",
      "finishCond": [
        {
          "damageRatio": "QUEST_CONTENT_COMPLETE_TALK",
          "param": [
            4114402,
            0
          ]
        }
      ],
      "failCond": [
        {
          "damageRatio": "QUEST_CONTENT_NOT_FINISH_PLOT",
          "param": [
            4114402,
            0
          ]
        },
        {
          "damageRatio": "QUEST_CONTENT_ITEM_LESS_THAN",
          "param": [
            100650,
            1
          ]
        },
        {
          "damageRatio": "QUEST_CONTENT_ACTIVITY_TRIGGER_FAILED",
          "param": [
            5006,
            0
          ]
        }
      ],
      "guide": {
        "damageRatio": "QUEST_GUIDE_NPC",
        "autoGuide": "QUEST_GUIDE_AUTO_ENABLE",
        "param": [
          "30027"
        ],
        "guideScene": 3,
        "guideStyle": "QUEST_GUIDE_STYLE_FINISH",
        "guideLayer": "QUEST_GUIDE_LAYER_UI",
        "MLAHIFLGIGJ": ""
      },
      "guideHint": {
        "param1": ""
      },
      "finishExec": [
        {
          "damageRatio": "QUEST_EXEC_DEL_PACK_ITEM",
          "param": [
            "100650",
            "1"
          ]
        },
        {
          "damageRatio": "QUEST_EXEC_UNREGISTER_DYNAMIC_GROUP",
          "param": [
            "133102016"
          ]
        }
      ],
      "failExec": [
        {
          "damageRatio": "QUEST_EXEC_DEL_PACK_ITEM",
          "param": [
            "100650",
            "1"
          ]
        },
        {
          "damageRatio": "QUEST_EXEC_ROLLBACK_QUEST",
          "param": [
            "4114401"
          ]
        },
        {
          "damageRatio": "QUEST_EXEC_UNREGISTER_DYNAMIC_GROUP",
          "param": [
            "133102016"
          ]
        }
      ],
      "versionBegin": "",
      "versionEnd": ""
    },
    {
      "subId": 4114403,
      "mainId": 41144,
      "order": 4,
      "descTextMapHash": 1754766316,
      "finishCond": [
        {
          "damageRatio": "QUEST_CONTENT_COMPLETE_TALK",
          "param": [
            4114406,
            0
          ]
        }
      ],
      "guide": {
        "damageRatio": "QUEST_GUIDE_NPC",
        "autoGuide": "QUEST_GUIDE_AUTO_ENABLE",
        "param": [
          "30027"
        ],
        "guideScene": 3,
        "guideStyle": "QUEST_GUIDE_STYLE_FINISH",
        "guideLayer": "QUEST_GUIDE_LAYER_UI",
        "MLAHIFLGIGJ": ""
      },
      "guideHint": {
        "param1": ""
      },
      "finishParent": true,
      "isRewind": true,
      "versionBegin": "",
      "versionEnd": ""
    },
    {
      "subId": 4114404,
      "mainId": 41144,
      "order": 1,
      "showType": "QUEST_HIDDEN",
      "finishCond": [
        {
          "damageRatio": "QUEST_CONTENT_FINISH_PLOT",
          "param": [
            4114404,
            0
          ]
        }
      ],
      "guide": {
        "MLAHIFLGIGJ": ""
      },
      "guideHint": {
        "param1": ""
      },
      "versionBegin": "",
      "versionEnd": ""
    }
  ],
  "talks": [
    {
      "id": 4114401,
      "beginCond": [
        {
          "type": "QUEST_COND_STATE_EQUAL",
          "_param": [
            "4114401",
            "2"
          ]
        }
      ],
      "priority": 10,
      "initDialog": 411440101,
      "npcId": [
        2204
      ],
      "performCfg": "",
      "heroTalk": "TALK_HERO_MAIN",
      "questId": 41144,
      "assetIndex": 7324141401849493208,
      "prePerformCfg": ""
    },
    {
      "id": 4114402,
      "beginWay": "TALK_BEGIN_MANUAL",
      "beginCond": [
        {
          "type": "QUEST_COND_STATE_EQUAL",
          "_param": [
            "4114401",
            "3"
          ]
        }
      ],
      "priority": 10,
      "nextTalks": [
        4114406
      ],
      "initDialog": 411440201,
      "npcId": [
        30027
      ],
      "performCfg": "",
      "heroTalk": "TALK_HERO_MAIN",
      "questId": 41144,
      "assetIndex": 9779069285608398781,
      "prePerformCfg": ""
    },
    {
      "id": 4114403,
      "beginCond": [
        {
          "type": "QUEST_COND_STATE_EQUAL",
          "_param": [
            "4114401",
            "2"
          ]
        }
      ],
      "priority": 90,
      "nextTalks": [
        4114401,
        4114404
      ],
      "initDialog": 411440301,
      "npcId": [
        2204
      ],
      "performCfg": "",
      "heroTalk": "TALK_HERO_MAIN",
      "questId": 41144,
      "assetIndex": 14317800302011089020,
      "dontBlockDaily": true,
      "prePerformCfg": ""
    },
    {
      "id": 4114404,
      "beginCond": [
        {
          "type": "QUEST_COND_STATE_EQUAL",
          "_param": [
            "4114401",
            "2"
          ]
        }
      ],
      "priority": 10,
      "initDialog": 411440401,
      "npcId": [
        2204
      ],
      "performCfg": "",
      "heroTalk": "TALK_HERO_MAIN",
      "questId": 41144,
      "assetIndex": 13157898600243802891,
      "prePerformCfg": ""
    },
    {
      "id": 4114405,
      "beginWay": "TALK_BEGIN_MANUAL",
      "beginCond": [
        {
          "type": "QUEST_COND_STATE_EQUAL",
          "_param": [
            "4114401",
            "2"
          ]
        }
      ],
      "initDialog": 411440501,
      "npcId": [
        30027
      ],
      "performCfg": "",
      "heroTalk": "TALK_HERO_MAIN",
      "questId": 41144,
      "assetIndex": 3985478747139961773,
      "prePerformCfg": ""
    },
    {
      "id": 4114406,
      "activeMode": "PLAY_MODE_ALL",
      "beginCond": [
        {
          "type": "QUEST_COND_STATE_EQUAL",
          "_param": [
            "4114403",
            "2"
          ]
        }
      ],
      "initDialog": 411440601,
      "npcId": [
        30027
      ],
      "performCfg": "",
      "questId": 41144,
      "assetIndex": 16304852490399425676,
      "prePerformCfg": ""
    }
  ]
}