{
  "id": 41147,
  "damageRatio": "EQ",
  "descTextMapHash": 341791327,
  "EKEKACCODOE": 3073656806,
  "luaPath": "Actor/Quest/EQ41147",
  "rewardIdList": [
    3001032
  ],
  "subQuests": [
    {
      "subId": 4114701,
      "mainId": 41147,
      "order": 2,
      "descTextMapHash": 3148391364,
      "finishCond": [
        {
          "damageRatio": "QUEST_CONTENT_FINISH_PLOT",
          "param": [
            4114701,
            0
          ]
        }
      ],
      "guide": {
        "damageRatio": "QUEST_GUIDE_NPC",
        "autoGuide": "QUEST_GUIDE_AUTO_ENABLE",
        "param": [
          "2204"
        ],
        "guideScene": 3,
        "guideStyle": "QUEST_GUIDE_STYLE_TARGET",
        "guideLayer": "QUEST_GUIDE_LAYER_UI",
        "MLAHIFLGIGJ": ""
      },
      "guideHint": {
        "param1": ""
      },
      "isRewind": true,
      "versionBegin": "",
      "versionEnd": ""
    },
    {
      "subId": 4114702,
      "mainId": 41147,
      "order": 3,
      "isMpBlock": true,
      "descTextMapHash": 4087651716,
      "stepDescTextMapHash": 4149699917,
      "AKLAGMDECEM": "BAN_GROUP_TRANSPOR_GOTO_SCENE",
      "finishCond": [
        {
          "damageRatio": "QUEST_CONTENT_COMPLETE_TALK",
          "param": [
            4114702,
            0
          ]
        }
      ],
      "failCond": [
        {
          "damageRatio": "QUEST_CONTENT_NOT_FINISH_PLOT",
          "param": [
            4114702,
            0
          ]
        },
        {
          "damageRatio": "QUEST_CONTENT_ITEM_LESS_THAN",
          "param": [
            100653,
            1
          ]
        },
        {
          "damageRatio": "QUEST_CONTENT_ACTIVITY_TRIGGER_FAILED",
          "param": [
            5006,
            0
          ]
        }
      ],
      "guide": {
        "damageRatio": "QUEST_GUIDE_NPC",
        "autoGuide": "QUEST_GUIDE_AUTO_ENABLE",
        "param": [
          "30028"
        ],
        "guideScene": 3,
        "guideStyle": "QUEST_GUIDE_STYLE_FINISH",
        "guideLayer": "QUEST_GUIDE_LAYER_UI",
        "MLAHIFLGIGJ": ""
      },
      "guideHint": {
        "param1": ""
      },
      "finishExec": [
        {
          "damageRatio": "QUEST_EXEC_DEL_PACK_ITEM",
          "param": [
            "100653",
            "1"
          ]
        }
      ],
      "failExec": [
        {
          "damageRatio": "QUEST_EXEC_DEL_PACK_ITEM",
          "param": [
            "100653",
            "1"
          ]
        },
        {
          "damageRatio": "QUEST_EXEC_ROLLBACK_QUEST",
          "param": [
            "4114701"
          ]
        }
      ],
      "versionBegin": "",
      "versionEnd": ""
    },
    {
      "subId": 4114703,
      "mainId": 41147,
      "order": 4,
      "descTextMapHash": 3659187500,
      "finishCond": [
        {
          "damageRatio": "QUEST_CONTENT_COMPLETE_TALK",
          "param": [
            4114706,
            0
          ]
        }
      ],
      "guide": {
        "damageRatio": "QUEST_GUIDE_NPC",
        "autoGuide": "QUEST_GUIDE_AUTO_ENABLE",
        "param": [
          "30028"
        ],
        "guideScene": 3,
        "guideStyle": "QUEST_GUIDE_STYLE_FINISH",
        "guideLayer": "QUEST_GUIDE_LAYER_UI",
        "MLAHIFLGIGJ": ""
      },
      "guideHint": {
        "param1": ""
      },
      "finishParent": true,
      "isRewind": true,
      "versionBegin": "",
      "versionEnd": ""
    },
    {
      "subId": 4114704,
      "mainId": 41147,
      "order": 1,
      "showType": "QUEST_HIDDEN",
      "finishCond": [
        {
          "damageRatio": "QUEST_CONTENT_FINISH_PLOT",
          "param": [
            4114704,
            0
          ]
        }
      ],
      "guide": {
        "MLAHIFLGIGJ": ""
      },
      "guideHint": {
        "param1": ""
      },
      "versionBegin": "",
      "versionEnd": ""
    }
  ],
  "talks": [
    {
      "id": 4114701,
      "beginCond": [
        {
          "type": "QUEST_COND_STATE_EQUAL",
          "_param": [
            "4114701",
            "2"
          ]
        }
      ],
      "priority": 10,
      "initDialog": 411470101,
      "npcId": [
        2204
      ],
      "performCfg": "",
      "heroTalk": "TALK_HERO_MAIN",
      "questId": 41147,
      "assetIndex": 9499804459407928537,
      "dontBlockDaily": true,
      "prePerformCfg": ""
    },
    {
      "id": 4114702,
      "beginWay": "TALK_BEGIN_MANUAL",
      "beginCond": [
        {
          "type": "QUEST_COND_STATE_EQUAL",
          "_param": [
            "4114701",
            "3"
          ]
        }
      ],
      "priority": 10,
      "nextTalks": [
        4114706
      ],
      "initDialog": 411470201,
      "npcId": [
        30028
      ],
      "performCfg": "",
      "heroTalk": "TALK_HERO_MAIN",
      "questId": 41147,
      "assetIndex": 9772991859614499289,
      "prePerformCfg": ""
    },
    {
      "id": 4114703,
      "beginCond": [
        {
          "type": "QUEST_COND_STATE_EQUAL",
          "_param": [
            "4114701",
            "2"
          ]
        }
      ],
      "priority": 90,
      "nextTalks": [
        4114701
      ],
      "initDialog": 411470301,
      "npcId": [
        2204
      ],
      "performCfg": "",
      "heroTalk": "TALK_HERO_MAIN",
      "questId": 41147,
      "assetIndex": 7561113232304677771,
      "dontBlockDaily": true,
      "prePerformCfg": ""
    },
    {
      "id": 4114705,
      "beginWay": "TALK_BEGIN_MANUAL",
      "beginCond": [
        {
          "type": "QUEST_COND_STATE_EQUAL",
          "_param": [
            "4114701",
            "2"
          ]
        }
      ],
      "priority": 5,
      "initDialog": 411470501,
      "npcId": [
        30028
      ],
      "performCfg": "",
      "heroTalk": "TALK_HERO_MAIN",
      "questId": 41147,
      "assetIndex": 17045344709796861424,
      "prePerformCfg": ""
    },
    {
      "id": 4114706,
      "activeMode": "PLAY_MODE_ALL",
      "beginCond": [
        {
          "type": "QUEST_COND_STATE_EQUAL",
          "_param": [
            "4114703",
            "2"
          ]
        }
      ],
      "initDialog": 411470601,
      "npcId": [
        30028
      ],
      "performCfg": "",
      "questId": 41147,
      "assetIndex": 14351244760294358436,
      "prePerformCfg": ""
    }
  ]
}