{
  "id": 41149,
  "damageRatio": "EQ",
  "descTextMapHash": 2131093783,
  "EKEKACCODOE": 4167106382,
  "luaPath": "Actor/Quest/EQ41149",
  "rewardIdList": [
    3001041
  ],
  "subQuests": [
    {
      "subId": 4114901,
      "mainId": 41149,
      "order": 2,
      "descTextMapHash": 3179695812,
      "finishCond": [
        {
          "damageRatio": "QUEST_CONTENT_FINISH_PLOT",
          "param": [
            4114901,
            0
          ]
        }
      ],
      "guide": {
        "damageRatio": "QUEST_GUIDE_NPC",
        "autoGuide": "QUEST_GUIDE_AUTO_ENABLE",
        "param": [
          "1419"
        ],
        "guideScene": 3,
        "guideStyle": "QUEST_GUIDE_STYLE_TARGET",
        "guideLayer": "QUEST_GUIDE_LAYER_UI",
        "MLAHIFLGIGJ": ""
      },
      "guideHint": {
        "param1": ""
      },
      "isRewind": true,
      "versionBegin": "",
      "versionEnd": ""
    },
    {
      "subId": 4114902,
      "mainId": 41149,
      "order": 3,
      "isMpBlock": true,
      "descTextMapHash": 608561788,
      "stepDescTextMapHash": 1610476597,
      "AKLAGMDECEM": "BAN_GROUP_TRANSPOR_GOTO_SCENE",
      "finishCond": [
        {
          "damageRatio": "QUEST_CONTENT_COMPLETE_TALK",
          "param": [
            4114902,
            0
          ]
        }
      ],
      "failCond": [
        {
          "damageRatio": "QUEST_CONTENT_NOT_FINISH_PLOT",
          "param": [
            4114902,
            0
          ]
        },
        {
          "damageRatio": "QUEST_CONTENT_ITEM_LESS_THAN",
          "param": [
            100655,
            1
          ]
        },
        {
          "damageRatio": "QUEST_CONTENT_ACTIVITY_TRIGGER_FAILED",
          "param": [
            5006,
            0
          ]
        }
      ],
      "guide": {
        "damageRatio": "QUEST_GUIDE_NPC",
        "autoGuide": "QUEST_GUIDE_AUTO_ENABLE",
        "param": [
          "157601"
        ],
        "guideScene": 3,
        "guideStyle": "QUEST_GUIDE_STYLE_FINISH",
        "guideLayer": "QUEST_GUIDE_LAYER_UI",
        "MLAHIFLGIGJ": ""
      },
      "guideHint": {
        "param1": ""
      },
      "finishExec": [
        {
          "damageRatio": "QUEST_EXEC_DEL_PACK_ITEM",
          "param": [
            "100655",
            "1"
          ]
        }
      ],
      "failExec": [
        {
          "damageRatio": "QUEST_EXEC_DEL_PACK_ITEM",
          "param": [
            "100655",
            "1"
          ]
        },
        {
          "damageRatio": "QUEST_EXEC_ROLLBACK_QUEST",
          "param": [
            "4114901"
          ]
        }
      ],
      "versionBegin": "",
      "versionEnd": ""
    },
    {
      "subId": 4114903,
      "mainId": 41149,
      "order": 4,
      "descTextMapHash": 1068679020,
      "finishCond": [
        {
          "damageRatio": "QUEST_CONTENT_COMPLETE_TALK",
          "param": [
            4114906,
            0
          ]
        }
      ],
      "guide": {
        "damageRatio": "QUEST_GUIDE_NPC",
        "autoGuide": "QUEST_GUIDE_AUTO_ENABLE",
        "param": [
          "156701"
        ],
        "guideScene": 3,
        "guideStyle": "QUEST_GUIDE_STYLE_FINISH",
        "guideLayer": "QUEST_GUIDE_LAYER_UI",
        "MLAHIFLGIGJ": ""
      },
      "guideHint": {
        "param1": ""
      },
      "finishParent": true,
      "isRewind": true,
      "versionBegin": "",
      "versionEnd": ""
    },
    {
      "subId": 4114904,
      "mainId": 41149,
      "order": 1,
      "showType": "QUEST_HIDDEN",
      "finishCond": [
        {
          "damageRatio": "QUEST_CONTENT_FINISH_PLOT",
          "param": [
            4114904,
            0
          ]
        }
      ],
      "guide": {
        "MLAHIFLGIGJ": ""
      },
      "guideHint": {
        "param1": ""
      },
      "versionBegin": "",
      "versionEnd": ""
    }
  ],
  "talks": [
    {
      "id": 4114901,
      "beginCond": [
        {
          "type": "QUEST_COND_STATE_EQUAL",
          "_param": [
            "4114901",
            "2"
          ]
        }
      ],
      "priority": 10,
      "initDialog": 411490101,
      "npcId": [
        1419
      ],
      "performCfg": "",
      "heroTalk": "TALK_HERO_MAIN",
      "questId": 41149,
      "assetIndex": 16556952034469798111,
      "dontBlockDaily": true,
      "prePerformCfg": ""
    },
    {
      "id": 4114902,
      "beginWay": "TALK_BEGIN_MANUAL",
      "beginCond": [
        {
          "type": "QUEST_COND_STATE_EQUAL",
          "_param": [
            "4114901",
            "3"
          ]
        }
      ],
      "priority": 10,
      "nextTalks": [
        4114906
      ],
      "initDialog": 411490201,
      "npcId": [
        157601
      ],
      "performCfg": "",
      "heroTalk": "TALK_HERO_MAIN",
      "questId": 41149,
      "assetIndex": 14088201499594225645,
      "prePerformCfg": ""
    },
    {
      "id": 4114903,
      "beginCond": [
        {
          "type": "QUEST_COND_STATE_EQUAL",
          "_param": [
            "4114901",
            "2"
          ]
        }
      ],
      "priority": 90,
      "nextTalks": [
        4114901,
        4114904
      ],
      "initDialog": 411490301,
      "npcId": [
        1419
      ],
      "performCfg": "",
      "heroTalk": "TALK_HERO_MAIN",
      "questId": 41149,
      "assetIndex": 5871751802748973134,
      "dontBlockDaily": true,
      "prePerformCfg": ""
    },
    {
      "id": 4114904,
      "beginCond": [
        {
          "type": "QUEST_COND_STATE_EQUAL",
          "_param": [
            "4114901",
            "2"
          ]
        }
      ],
      "priority": 10,
      "initDialog": 411490401,
      "npcId": [
        1419
      ],
      "performCfg": "",
      "heroTalk": "TALK_HERO_MAIN",
      "questId": 41149,
      "assetIndex": 15055710100847703774,
      "prePerformCfg": ""
    },
    {
      "id": 4114905,
      "beginWay": "TALK_BEGIN_MANUAL",
      "beginCond": [
        {
          "type": "QUEST_COND_STATE_EQUAL",
          "_param": [
            "4114901",
            "2"
          ]
        }
      ],
      "priority": 5,
      "initDialog": 411490501,
      "npcId": [
        157601
      ],
      "performCfg": "",
      "heroTalk": "TALK_HERO_MAIN",
      "questId": 41149,
      "assetIndex": 15369071536528035746,
      "prePerformCfg": ""
    },
    {
      "id": 4114906,
      "activeMode": "PLAY_MODE_ALL",
      "beginCond": [
        {
          "type": "QUEST_COND_STATE_EQUAL",
          "_param": [
            "4114903",
            "2"
          ]
        }
      ],
      "initDialog": 411490601,
      "npcId": [
        157601
      ],
      "performCfg": "",
      "questId": 41149,
      "assetIndex": 16698166305400652714,
      "prePerformCfg": ""
    }
  ]
}