{
  "id": 41156,
  "damageRatio": "EQ",
  "descTextMapHash": 3341391223,
  "EKEKACCODOE": 3916334558,
  "luaPath": "Actor/Quest/EQ41156",
  "rewardIdList": [
    3001062
  ],
  "subQuests": [
    {
      "subId": 4115601,
      "mainId": 41156,
      "order": 2,
      "descTextMapHash": 4197202748,
      "finishCond": [
        {
          "damageRatio": "QUEST_CONTENT_FINISH_PLOT",
          "param": [
            4115601,
            0
          ]
        }
      ],
      "guide": {
        "damageRatio": "QUEST_GUIDE_NPC",
        "autoGuide": "QUEST_GUIDE_AUTO_ENABLE",
        "param": [
          "2204"
        ],
        "guideScene": 3,
        "guideStyle": "QUEST_GUIDE_STYLE_TARGET",
        "guideLayer": "QUEST_GUIDE_LAYER_UI",
        "MLAHIFLGIGJ": ""
      },
      "guideHint": {
        "param1": ""
      },
      "isRewind": true,
      "versionBegin": "",
      "versionEnd": ""
    },
    {
      "subId": 4115602,
      "mainId": 41156,
      "order": 3,
      "isMpBlock": true,
      "descTextMapHash": 364083164,
      "stepDescTextMapHash": 3439607789,
      "AKLAGMDECEM": "BAN_GROUP_TRANSPOR_GOTO_SCENE",
      "finishCond": [
        {
          "damageRatio": "QUEST_CONTENT_COMPLETE_TALK",
          "param": [
            4115602,
            0
          ]
        }
      ],
      "failCond": [
        {
          "damageRatio": "QUEST_CONTENT_NOT_FINISH_PLOT",
          "param": [
            4115602,
            0
          ]
        },
        {
          "damageRatio": "QUEST_CONTENT_ITEM_LESS_THAN",
          "param": [
            100662,
            1
          ]
        },
        {
          "damageRatio": "QUEST_CONTENT_ACTIVITY_TRIGGER_FAILED",
          "param": [
            5006,
            0
          ]
        }
      ],
      "guide": {
        "damageRatio": "QUEST_GUIDE_NPC",
        "autoGuide": "QUEST_GUIDE_AUTO_ENABLE",
        "param": [
          "30027"
        ],
        "guideScene": 3,
        "guideStyle": "QUEST_GUIDE_STYLE_FINISH",
        "guideLayer": "QUEST_GUIDE_LAYER_UI",
        "MLAHIFLGIGJ": ""
      },
      "guideHint": {
        "param1": ""
      },
      "finishExec": [
        {
          "damageRatio": "QUEST_EXEC_DEL_PACK_ITEM",
          "param": [
            "100662",
            "1"
          ]
        }
      ],
      "failExec": [
        {
          "damageRatio": "QUEST_EXEC_DEL_PACK_ITEM",
          "param": [
            "100662",
            "1"
          ]
        },
        {
          "damageRatio": "QUEST_EXEC_ROLLBACK_QUEST",
          "param": [
            "4115601"
          ]
        }
      ],
      "versionBegin": "",
      "versionEnd": ""
    },
    {
      "subId": 4115603,
      "mainId": 41156,
      "order": 4,
      "descTextMapHash": 3480119028,
      "finishCond": [
        {
          "damageRatio": "QUEST_CONTENT_COMPLETE_TALK",
          "param": [
            4115606,
            0
          ]
        }
      ],
      "guide": {
        "damageRatio": "QUEST_GUIDE_NPC",
        "autoGuide": "QUEST_GUIDE_AUTO_ENABLE",
        "param": [
          "30027"
        ],
        "guideScene": 3,
        "guideStyle": "QUEST_GUIDE_STYLE_FINISH",
        "guideLayer": "QUEST_GUIDE_LAYER_UI",
        "MLAHIFLGIGJ": ""
      },
      "guideHint": {
        "param1": ""
      },
      "finishParent": true,
      "isRewind": true,
      "versionBegin": "",
      "versionEnd": ""
    },
    {
      "subId": 4115604,
      "mainId": 41156,
      "order": 1,
      "showType": "QUEST_HIDDEN",
      "finishCond": [
        {
          "damageRatio": "QUEST_CONTENT_FINISH_PLOT",
          "param": [
            4115604,
            0
          ]
        }
      ],
      "guide": {
        "MLAHIFLGIGJ": ""
      },
      "guideHint": {
        "param1": ""
      },
      "versionBegin": "",
      "versionEnd": ""
    }
  ],
  "talks": [
    {
      "id": 4115601,
      "beginCond": [
        {
          "type": "QUEST_COND_STATE_EQUAL",
          "_param": [
            "4115601",
            "2"
          ]
        }
      ],
      "priority": 10,
      "initDialog": 411560101,
      "npcId": [
        2204
      ],
      "performCfg": "",
      "heroTalk": "TALK_HERO_MAIN",
      "questId": 41156,
      "assetIndex": 303532679861655995,
      "dontBlockDaily": true,
      "prePerformCfg": ""
    },
    {
      "id": 4115602,
      "beginWay": "TALK_BEGIN_MANUAL",
      "beginCond": [
        {
          "type": "QUEST_COND_STATE_EQUAL",
          "_param": [
            "4115601",
            "3"
          ]
        }
      ],
      "priority": 10,
      "nextTalks": [
        4115606
      ],
      "initDialog": 411560201,
      "npcId": [
        30027
      ],
      "performCfg": "",
      "heroTalk": "TALK_HERO_MAIN",
      "questId": 41156,
      "assetIndex": 10954456926625924738,
      "prePerformCfg": ""
    },
    {
      "id": 4115603,
      "beginCond": [
        {
          "type": "QUEST_COND_STATE_EQUAL",
          "_param": [
            "4115601",
            "2"
          ]
        }
      ],
      "priority": 90,
      "nextTalks": [
        4115601,
        4115604
      ],
      "initDialog": 411560301,
      "npcId": [
        2204
      ],
      "performCfg": "",
      "heroTalk": "TALK_HERO_MAIN",
      "questId": 41156,
      "assetIndex": 9355222686940702133,
      "dontBlockDaily": true,
      "prePerformCfg": ""
    },
    {
      "id": 4115604,
      "beginCond": [
        {
          "type": "QUEST_COND_STATE_EQUAL",
          "_param": [
            "4115601",
            "2"
          ]
        }
      ],
      "priority": 10,
      "initDialog": 411560401,
      "npcId": [
        2204
      ],
      "performCfg": "",
      "heroTalk": "TALK_HERO_MAIN",
      "questId": 41156,
      "assetIndex": 7801218582578907700,
      "prePerformCfg": ""
    },
    {
      "id": 4115605,
      "beginWay": "TALK_BEGIN_MANUAL",
      "beginCond": [
        {
          "type": "QUEST_COND_STATE_EQUAL",
          "_param": [
            "4115601",
            "2"
          ]
        }
      ],
      "priority": 5,
      "initDialog": 411560501,
      "npcId": [
        30027
      ],
      "performCfg": "",
      "heroTalk": "TALK_HERO_MAIN",
      "questId": 41156,
      "assetIndex": 16985723026230365642,
      "prePerformCfg": ""
    },
    {
      "id": 4115606,
      "activeMode": "PLAY_MODE_ALL",
      "beginCond": [
        {
          "type": "QUEST_COND_STATE_EQUAL",
          "_param": [
            "4115603",
            "2"
          ]
        }
      ],
      "initDialog": 411560601,
      "npcId": [
        30027
      ],
      "performCfg": "",
      "questId": 41156,
      "assetIndex": 9658390928248646157,
      "prePerformCfg": ""
    }
  ]
}