{
  "id": 41414,
  "resId": 4004,
  "series": 10021,
  "damageRatio": "EQ",
  "descTextMapHash": 3626841407,
  "EKEKACCODOE": 3199851110,
  "luaPath": "Actor/Quest/EQ41414",
  "showType": "QUEST_HIDDEN",
  "preloadLuaList": [
    5575916732172504491,
    2268650960672206304
  ],
  "freeStyleDic": {
    "1020": []
  }
}