{
  "id": 41422,
  "damageRatio": "WQ",
  "mainQuestTag": "MAINQUEST_TAG_GUIDE",
  "activeMode": "PLAY_MODE_ALL",
  "descTextMapHash": 3005882551,
  "EKEKACCODOE": 936254062,
  "luaPath": "Actor/Quest/WQ41422",
  "rewardIdList": [
    141422
  ],
  "showRedPoint": true,
  "subQuests": [
    {
      "subId": 4142201,
      "mainId": 41422,
      "order": 2,
      "descTextMapHash": 1080782636,
      "finishCond": [
        {
          "damageRatio": "QUEST_CONTENT_COMPLETE_TALK",
          "param": [
            4142201,
            0
          ]
        }
      ],
      "guide": {
        "damageRatio": "QUEST_GUIDE_LOCATION",
        "param": [
          "Q41422_Search_Pos"
        ],
        "guideScene": 3,
        "guideStyle": "QUEST_GUIDE_STYLE_POINT",
        "guideLayer": "QUEST_GUIDE_LAYER_SCENE",
        "MLAHIFLGIGJ": ""
      },
      "guideHint": {
        "param1": ""
      },
      "isRewind": true,
      "versionBegin": "",
      "versionEnd": ""
    },
    {
      "subId": 4142202,
      "mainId": 41422,
      "order": 3,
      "descTextMapHash": 4288891796,
      "finishCond": [
        {
          "damageRatio": "QUEST_CONTENT_COMPLETE_TALK",
          "param": [
            4142202,
            0
          ]
        }
      ],
      "guide": {
        "damageRatio": "QUEST_GUIDE_NPC",
        "param": [
          "165001"
        ],
        "guideScene": 3,
        "guideStyle": "QUEST_GUIDE_STYLE_TARGET",
        "guideLayer": "QUEST_GUIDE_LAYER_SCENE",
        "MLAHIFLGIGJ": ""
      },
      "guideHint": {
        "param1": ""
      },
      "isRewind": true,
      "versionBegin": "",
      "versionEnd": ""
    },
    {
      "subId": 4142203,
      "mainId": 41422,
      "order": 4,
      "descTextMapHash": 2058117620,
      "finishCond": [
        {
          "damageRatio": "QUEST_CONTENT_COMPLETE_TALK",
          "param": [
            4142203,
            0
          ]
        }
      ],
      "guide": {
        "damageRatio": "QUEST_GUIDE_NPC",
        "param": [
          "152901"
        ],
        "guideScene": 3,
        "guideStyle": "QUEST_GUIDE_STYLE_TARGET",
        "guideLayer": "QUEST_GUIDE_LAYER_SCENE",
        "MLAHIFLGIGJ": ""
      },
      "guideHint": {
        "param1": ""
      },
      "isRewind": true,
      "versionBegin": "",
      "versionEnd": ""
    },
    {
      "subId": 4142204,
      "mainId": 41422,
      "order": 5,
      "descTextMapHash": 976876932,
      "finishCond": [
        {
          "damageRatio": "QUEST_CONTENT_COMPLETE_TALK",
          "param": [
            4142204,
            0
          ]
        }
      ],
      "guide": {
        "damageRatio": "QUEST_GUIDE_LOCATION",
        "param": [
          "Q41422_Search_Water2_Pos"
        ],
        "guideScene": 3,
        "guideStyle": "QUEST_GUIDE_STYLE_POINT",
        "guideLayer": "QUEST_GUIDE_LAYER_SCENE",
        "MLAHIFLGIGJ": ""
      },
      "guideHint": {
        "param1": ""
      },
      "finishParent": true,
      "isRewind": true,
      "versionBegin": "",
      "versionEnd": ""
    },
    {
      "subId": 4142205,
      "mainId": 41422,
      "order": 1,
      "descTextMapHash": 1943082612,
      "finishCond": [
        {
          "damageRatio": "QUEST_CONTENT_FINISH_PLOT",
          "param": [
            4142205,
            0
          ]
        }
      ],
      "guide": {
        "damageRatio": "QUEST_GUIDE_LOCATION",
        "param": [
          "Q41422_Playe_Pos",
          "20"
        ],
        "guideScene": 3,
        "guideStyle": "QUEST_GUIDE_STYLE_TARGET",
        "guideLayer": "QUEST_GUIDE_LAYER_SCENE",
        "MLAHIFLGIGJ": ""
      },
      "guideHint": {
        "param1": ""
      },
      "isRewind": true,
      "versionBegin": "",
      "versionEnd": ""
    },
    {
      "subId": 4142206,
      "mainId": 41422,
      "order": 6,
      "showType": "QUEST_HIDDEN",
      "finishCond": [
        {
          "damageRatio": "QUEST_CONTENT_FINISH_PLOT",
          "param": [
            4142206,
            0
          ]
        }
      ],
      "guide": {
        "MLAHIFLGIGJ": ""
      },
      "guideHint": {
        "param1": ""
      },
      "versionBegin": "",
      "versionEnd": ""
    }
  ],
  "talks": [
    {
      "id": 4142201,
      "beginWay": "TALK_BEGIN_MANUAL",
      "activeMode": "PLAY_MODE_HOST",
      "beginCond": [
        {
          "type": "QUEST_COND_STATE_EQUAL",
          "_param": [
            "4142201",
            "2"
          ]
        }
      ],
      "priority": 5,
      "initDialog": 414220101,
      "npcId": [
        10367
      ],
      "performCfg": "QuestDialogue/EQ/Water_41422/Q4142201",
      "heroTalk": "TALK_HERO_MAIN",
      "questId": 41422,
      "assetIndex": 11374966692227770152,
      "prePerformCfg": ""
    },
    {
      "id": 4142202,
      "beginWay": "TALK_BEGIN_MANUAL",
      "activeMode": "PLAY_MODE_HOST",
      "beginCond": [
        {
          "type": "QUEST_COND_STATE_EQUAL",
          "_param": [
            "4142202",
            "2"
          ]
        }
      ],
      "priority": 5,
      "initDialog": 414220201,
      "npcId": [
        165001
      ],
      "performCfg": "QuestDialogue/EQ/Water_41422/Q4142202",
      "heroTalk": "TALK_HERO_MAIN",
      "questId": 41422,
      "assetIndex": 5567123208904757551,
      "prePerformCfg": ""
    },
    {
      "id": 4142203,
      "beginWay": "TALK_BEGIN_MANUAL",
      "activeMode": "PLAY_MODE_HOST",
      "beginCond": [
        {
          "type": "QUEST_COND_STATE_EQUAL",
          "_param": [
            "4142203",
            "2"
          ]
        }
      ],
      "priority": 5,
      "initDialog": 414220301,
      "npcId": [
        152901
      ],
      "performCfg": "QuestDialogue/EQ/Water_41422/Q4142203",
      "heroTalk": "TALK_HERO_MAIN",
      "questId": 41422,
      "assetIndex": 10772035417734686162,
      "prePerformCfg": ""
    },
    {
      "id": 4142204,
      "beginWay": "TALK_BEGIN_AUTO",
      "activeMode": "PLAY_MODE_HOST",
      "beginCond": [
        {
          "type": "QUEST_COND_STATE_EQUAL",
          "_param": [
            "4142204",
            "2"
          ]
        }
      ],
      "priority": 5,
      "initDialog": 414220401,
      "npcId": [
        10367
      ],
      "performCfg": "QuestDialogue/EQ/Water_41422/Q4142204",
      "heroTalk": "TALK_HERO_MAIN",
      "questId": 41422,
      "assetIndex": 11725950447498534010,
      "prePerformCfg": ""
    },
    {
      "id": 4142205,
      "beginWay": "TALK_BEGIN_MANUAL",
      "activeMode": "PLAY_MODE_HOST",
      "beginCondComb": "LOGIC_AND",
      "beginCond": [
        {
          "type": "QUEST_COND_STATE_EQUAL",
          "_param": [
            "4142203",
            "2"
          ]
        }
      ],
      "priority": 5,
      "initDialog": 414220501,
      "npcId": [
        165001
      ],
      "performCfg": "",
      "heroTalk": "TALK_HERO_MAIN",
      "questId": 41422,
      "assetIndex": 17500857670957467962,
      "prePerformCfg": ""
    },
    {
      "id": 4142206,
      "beginWay": "TALK_BEGIN_MANUAL",
      "activeMode": "PLAY_MODE_HOST",
      "beginCondComb": "LOGIC_AND",
      "beginCond": [
        {
          "type": "QUEST_COND_STATE_EQUAL",
          "_param": [
            "4142204",
            "2"
          ]
        }
      ],
      "priority": 5,
      "initDialog": 414220601,
      "npcId": [
        152901
      ],
      "performCfg": "",
      "heroTalk": "TALK_HERO_MAIN",
      "questId": 41422,
      "assetIndex": 619362418601638024,
      "prePerformCfg": ""
    }
  ],
  "preloadLuaList": [
    2783545009293138024
  ],
  "forcePreloadLuaList": [
    5946234099206391986
  ]
}