{
  "id": 428,
  "damageRatio": "WQ",
  "descTextMapHash": 1471032225,
  "EKEKACCODOE": 448127879,
  "luaPath": "Actor/Quest/SQ428",
  "subQuests": [
    {
      "subId": 42801,
      "mainId": 428,
      "order": 1,
      "descTextMapHash": 72431063,
      "showType": "QUEST_HIDDEN",
      "finishCond": [
        {
          "damageRatio": "QUEST_CONTENT_ENTER_ROOM",
          "param": [
            1016,
            0
          ]
        }
      ],
      "guide": {
        "MLAHIFLGIGJ": ""
      },
      "guideHint": {
        "param1": ""
      },
      "versionBegin": "",
      "versionEnd": ""
    },
    {
      "subId": 42802,
      "mainId": 428,
      "order": 2,
      "descTextMapHash": 1303840271,
      "finishCond": [
        {
          "damageRatio": "QUEST_CONTENT_FINISH_PLOT",
          "param": [
            42802,
            0
          ]
        }
      ],
      "guide": {
        "MLAHIFLGIGJ": ""
      },
      "guideHint": {
        "param1": ""
      },
      "isRewind": true,
      "versionBegin": "",
      "versionEnd": ""
    },
    {
      "subId": 42803,
      "mainId": 428,
      "order": 3,
      "descTextMapHash": 3904820751,
      "finishCond": [
        {
          "damageRatio": "QUEST_CONTENT_FINISH_PLOT",
          "param": [
            42803,
            0
          ]
        }
      ],
      "guide": {
        "MLAHIFLGIGJ": ""
      },
      "guideHint": {
        "param1": ""
      },
      "finishParent": true,
      "isRewind": true,
      "versionBegin": "",
      "versionEnd": ""
    }
  ],
  "preloadLuaList": [
    5909385756826696338
  ]
}