{
  "id": 461,
  "resId": 2001,
  "series": 2001,
  "damageRatio": "LQ",
  "descTextMapHash": 3393509625,
  "EKEKACCODOE": 762279159,
  "luaPath": "Actor/Quest/LQ461",
  "suggestTrackMainQuestList": [
    462
  ],
  "rewardIdList": [
    100461
  ],
  "chapterId": 2001,
  "showRedPoint": true,
  "subQuests": [
    {
      "subId": 46101,
      "mainId": 461,
      "order": 1,
      "descTextMapHash": 1941951351,
      "finishCond": [
        {
          "damageRatio": "QUEST_CONTENT_COMPLETE_TALK",
          "param": [
            46101,
            0
          ]
        }
      ],
      "guide": {
        "damageRatio": "QUEST_GUIDE_NPC",
        "param": [
          "1004"
        ],
        "guideScene": 1004,
        "guideStyle": "QUEST_GUIDE_STYLE_START",
        "guideLayer": "QUEST_GUIDE_LAYER_SCENE",
        "MLAHIFLGIGJ": ""
      },
      "guideHint": {
        "param1": ""
      },
      "isRewind": true,
      "finishExec": [
        {
          "damageRatio": "QUEST_EXEC_REFRESH_GROUP_SUITE",
          "param": [
            "3",
            "133003204,2"
          ]
        }
      ],
      "versionBegin": "",
      "versionEnd": ""
    },
    {
      "subId": 46102,
      "mainId": 461,
      "order": 3,
      "descTextMapHash": 2198855687,
      "stepDescTextMapHash": 874776207,
      "finishCond": [
        {
          "damageRatio": "QUEST_CONTENT_TRIGGER_FIRE",
          "param": [
            1077,
            0
          ]
        }
      ],
      "guide": {
        "damageRatio": "QUEST_GUIDE_LOCATION",
        "param": [
          "Q46102Point"
        ],
        "guideScene": 3,
        "guideStyle": "QUEST_GUIDE_STYLE_POINT",
        "guideLayer": "QUEST_GUIDE_LAYER_SCENE",
        "MLAHIFLGIGJ": ""
      },
      "guideHint": {
        "param1": ""
      },
      "finishExec": [
        {
          "damageRatio": "QUEST_EXEC_REFRESH_GROUP_SUITE",
          "param": [
            "3",
            "133003204,1"
          ]
        }
      ],
      "versionBegin": "",
      "versionEnd": ""
    },
    {
      "subId": 46103,
      "mainId": 461,
      "order": 5,
      "descTextMapHash": 1715428255,
      "finishCond": [
        {
          "damageRatio": "QUEST_CONTENT_COMPLETE_TALK",
          "param": [
            46104,
            0
          ]
        }
      ],
      "guide": {
        "damageRatio": "QUEST_GUIDE_LOCATION",
        "param": [
          "Q461NPC",
          "20"
        ],
        "guideScene": 3,
        "MLAHIFLGIGJ": ""
      },
      "guideHint": {
        "param1": ""
      },
      "isRewind": true,
      "finishExec": [
        {
          "damageRatio": "QUEST_EXEC_UNREGISTER_DYNAMIC_GROUP",
          "param": [
            "133004050",
            "0"
          ]
        }
      ],
      "versionBegin": "",
      "versionEnd": ""
    },
    {
      "subId": 46104,
      "mainId": 461,
      "order": 6,
      "descTextMapHash": 1569813663,
      "showType": "QUEST_HIDDEN",
      "finishCond": [
        {
          "damageRatio": "QUEST_CONTENT_COMPLETE_TALK",
          "param": [
            46104,
            0
          ]
        }
      ],
      "guide": {
        "MLAHIFLGIGJ": ""
      },
      "guideHint": {
        "param1": ""
      },
      "versionBegin": "",
      "versionEnd": ""
    },
    {
      "subId": 46105,
      "mainId": 461,
      "order": 7,
      "descTextMapHash": 3333881911,
      "showType": "QUEST_HIDDEN",
      "finishCond": [
        {
          "damageRatio": "QUEST_CONTENT_COMPLETE_TALK",
          "param": [
            46105,
            0
          ]
        }
      ],
      "guide": {
        "MLAHIFLGIGJ": ""
      },
      "guideHint": {
        "param1": ""
      },
      "versionBegin": "",
      "versionEnd": ""
    },
    {
      "subId": 46106,
      "mainId": 461,
      "order": 8,
      "descTextMapHash": 1924670719,
      "showType": "QUEST_HIDDEN",
      "finishCond": [
        {
          "damageRatio": "QUEST_CONTENT_COMPLETE_TALK",
          "param": [
            46106,
            0
          ]
        }
      ],
      "guide": {
        "MLAHIFLGIGJ": ""
      },
      "guideHint": {
        "param1": ""
      },
      "versionBegin": "",
      "versionEnd": ""
    },
    {
      "subId": 46107,
      "mainId": 461,
      "order": 9,
      "descTextMapHash": 3397250423,
      "finishCond": [
        {
          "damageRatio": "QUEST_CONTENT_COMPLETE_TALK",
          "param": [
            46108,
            0
          ]
        }
      ],
      "guide": {
        "damageRatio": "QUEST_GUIDE_NPC",
        "param": [
          "1004"
        ],
        "guideScene": 3,
        "MLAHIFLGIGJ": ""
      },
      "guideHint": {
        "param1": ""
      },
      "finishParent": true,
      "isRewind": true,
      "versionBegin": "",
      "versionEnd": ""
    },
    {
      "subId": 46109,
      "mainId": 461,
      "order": 4,
      "descTextMapHash": 4261651839,
      "showType": "QUEST_HIDDEN",
      "finishCond": [
        {
          "damageRatio": "QUEST_CONTENT_COMPLETE_TALK",
          "param": [
            46102,
            0
          ]
        }
      ],
      "guide": {
        "MLAHIFLGIGJ": ""
      },
      "guideHint": {
        "param1": ""
      },
      "isRewind": true,
      "versionBegin": "",
      "versionEnd": ""
    },
    {
      "subId": 46110,
      "mainId": 461,
      "order": 2,
      "showType": "QUEST_HIDDEN",
      "finishCond": [
        {
          "damageRatio": "QUEST_CONTENT_ENTER_MY_WORLD",
          "param": [
            3,
            0
          ]
        }
      ],
      "guide": {
        "MLAHIFLGIGJ": ""
      },
      "guideHint": {
        "param1": ""
      },
      "versionBegin": "",
      "versionEnd": ""
    }
  ],
  "talks": [
    {
      "id": 46101,
      "beginWay": "TALK_BEGIN_MANUAL",
      "beginCond": [
        {
          "type": "QUEST_COND_STATE_EQUAL",
          "_param": [
            "46101",
            "2"
          ]
        }
      ],
      "priority": 5,
      "initDialog": 4610101,
      "npcId": [
        1004
      ],
      "performCfg": "QuestDialogue/LQ/Kaeya1_461/Q46101",
      "heroTalk": "TALK_HERO_MAIN",
      "questId": 461,
      "assetIndex": 2293052551929296022,
      "prePerformCfg": ""
    },
    {
      "id": 46102,
      "beginWay": "TALK_BEGIN_MANUAL",
      "beginCond": [
        {
          "type": "QUEST_COND_STATE_EQUAL",
          "_param": [
            "46109",
            "2"
          ]
        }
      ],
      "priority": 5,
      "initDialog": 4610201,
      "npcId": [
        1004
      ],
      "performCfg": "QuestDialogue/LQ/Kaeya1_461/Q46102",
      "heroTalk": "TALK_HERO_MAIN",
      "questId": 461,
      "assetIndex": 3517518559794798093,
      "prePerformCfg": ""
    },
    {
      "id": 46104,
      "beginWay": "TALK_BEGIN_MANUAL",
      "beginCond": [
        {
          "type": "QUEST_COND_STATE_EQUAL",
          "_param": [
            "46104",
            "2"
          ]
        }
      ],
      "priority": 1,
      "initDialog": 4610404,
      "npcId": [
        1409
      ],
      "performCfg": "QuestDialogue/LQ/Kaeya1_461/Q46104",
      "questId": 461,
      "assetIndex": 17454811757950768732,
      "prePerformCfg": ""
    },
    {
      "id": 46105,
      "beginWay": "TALK_BEGIN_MANUAL",
      "beginCondComb": "LOGIC_AND",
      "beginCond": [
        {
          "type": "QUEST_COND_STATE_EQUAL",
          "_param": [
            "46105",
            "2"
          ]
        },
        {
          "type": "QUEST_COND_STATE_NOT_EQUAL",
          "_param": [
            "46103",
            "3"
          ]
        }
      ],
      "priority": 1,
      "initDialog": 4610513,
      "npcId": [
        1411
      ],
      "performCfg": "QuestDialogue/LQ/Kaeya1_461/Q46105",
      "questId": 461,
      "assetIndex": 17982607577730394346,
      "prePerformCfg": ""
    },
    {
      "id": 46106,
      "beginWay": "TALK_BEGIN_MANUAL",
      "beginCondComb": "LOGIC_AND",
      "beginCond": [
        {
          "type": "QUEST_COND_STATE_EQUAL",
          "_param": [
            "46106",
            "2"
          ]
        },
        {
          "type": "QUEST_COND_STATE_NOT_EQUAL",
          "_param": [
            "46103",
            "3"
          ]
        }
      ],
      "priority": 1,
      "initDialog": 4610612,
      "npcId": [
        1413
      ],
      "performCfg": "QuestDialogue/LQ/Kaeya1_461/Q46106",
      "questId": 461,
      "assetIndex": 3348282329500808889,
      "prePerformCfg": ""
    },
    {
      "id": 46108,
      "beginWay": "TALK_BEGIN_AUTO",
      "beginCond": [
        {
          "type": "QUEST_COND_STATE_EQUAL",
          "_param": [
            "46107",
            "2"
          ]
        }
      ],
      "priority": 5,
      "initDialog": 4610801,
      "npcId": [
        1004
      ],
      "performCfg": "QuestDialogue/LQ/Kaeya1_461/Q46108",
      "heroTalk": "TALK_HERO_MAIN",
      "questId": 461,
      "assetIndex": 14697515460480120768,
      "prePerformCfg": ""
    },
    {
      "id": 46109,
      "beginWay": "TALK_BEGIN_MANUAL",
      "beginCondComb": "LOGIC_AND",
      "beginCond": [
        {
          "type": "QUEST_COND_STATE_EQUAL",
          "_param": [
            "46102",
            "3"
          ]
        },
        {
          "type": "QUEST_COND_STATE_NOT_EQUAL",
          "_param": [
            "46103",
            "3"
          ]
        }
      ],
      "priority": 4,
      "initDialog": 4610901,
      "npcId": [
        1004
      ],
      "performCfg": "",
      "heroTalk": "TALK_HERO_MAIN",
      "questId": 461,
      "assetIndex": 7743334489028965427,
      "prePerformCfg": ""
    },
    {
      "id": 46110,
      "beginWay": "TALK_BEGIN_MANUAL",
      "beginCond": [
        {
          "type": "QUEST_COND_STATE_EQUAL",
          "_param": [
            "46104",
            "2"
          ]
        }
      ],
      "priority": 1,
      "nextTalks": [
        46104
      ],
      "initDialog": 4610403,
      "npcId": [
        1409
      ],
      "performCfg": "",
      "questId": 461,
      "assetIndex": 12849886796884727508,
      "prePerformCfg": ""
    },
    {
      "id": 46111,
      "beginWay": "TALK_BEGIN_MANUAL",
      "beginCondComb": "LOGIC_AND",
      "beginCond": [
        {
          "type": "QUEST_COND_STATE_EQUAL",
          "_param": [
            "46104",
            "3"
          ]
        },
        {
          "type": "QUEST_COND_STATE_NOT_EQUAL",
          "_param": [
            "46107",
            "3"
          ]
        }
      ],
      "priority": 1,
      "nextTalks": [
        46112
      ],
      "initDialog": 4611101,
      "npcId": [
        1409
      ],
      "performCfg": "",
      "questId": 461,
      "assetIndex": 13259982344709253904,
      "prePerformCfg": ""
    },
    {
      "id": 46112,
      "beginWay": "TALK_BEGIN_MANUAL",
      "beginCondComb": "LOGIC_AND",
      "beginCond": [
        {
          "type": "QUEST_COND_STATE_EQUAL",
          "_param": [
            "46104",
            "3"
          ]
        },
        {
          "type": "QUEST_COND_STATE_NOT_EQUAL",
          "_param": [
            "46107",
            "3"
          ]
        }
      ],
      "priority": 1,
      "initDialog": 4611201,
      "npcId": [
        1409
      ],
      "performCfg": "",
      "questId": 461,
      "assetIndex": 4454535557175176010,
      "prePerformCfg": ""
    },
    {
      "id": 46113,
      "beginWay": "TALK_BEGIN_MANUAL",
      "beginCondComb": "LOGIC_AND",
      "beginCond": [
        {
          "type": "QUEST_COND_STATE_EQUAL",
          "_param": [
            "46105",
            "3"
          ]
        },
        {
          "type": "QUEST_COND_STATE_NOT_EQUAL",
          "_param": [
            "46103",
            "3"
          ]
        }
      ],
      "priority": 1,
      "initDialog": 4611301,
      "npcId": [
        1411
      ],
      "performCfg": "",
      "questId": 461,
      "assetIndex": 2731347222992658221,
      "prePerformCfg": ""
    },
    {
      "id": 46114,
      "beginWay": "TALK_BEGIN_MANUAL",
      "beginCondComb": "LOGIC_AND",
      "beginCond": [
        {
          "type": "QUEST_COND_STATE_EQUAL",
          "_param": [
            "46106",
            "3"
          ]
        },
        {
          "type": "QUEST_COND_STATE_NOT_EQUAL",
          "_param": [
            "46103",
            "3"
          ]
        }
      ],
      "priority": 1,
      "initDialog": 4611401,
      "npcId": [
        1413
      ],
      "performCfg": "",
      "questId": 461,
      "assetIndex": 3022043194180978684,
      "prePerformCfg": ""
    },
    {
      "id": 46115,
      "beginWay": "TALK_BEGIN_MANUAL",
      "beginCondComb": "LOGIC_OR",
      "beginCond": [
        {
          "type": "QUEST_COND_STATE_EQUAL",
          "_param": [
            "46103",
            "2"
          ]
        },
        {
          "type": "QUEST_COND_STATE_EQUAL",
          "_param": [
            "46107",
            "2"
          ]
        }
      ],
      "priority": 5,
      "nextTalks": [
        46111,
        46110,
        40215,
        40216,
        40217
      ],
      "initDialog": 4611501,
      "npcId": [
        1409
      ],
      "performCfg": "",
      "questId": 461,
      "assetIndex": 9519446771619020237,
      "prePerformCfg": ""
    },
    {
      "id": 46116,
      "beginWay": "TALK_BEGIN_MANUAL",
      "beginCondComb": "LOGIC_OR",
      "beginCond": [
        {
          "type": "QUEST_COND_STATE_EQUAL",
          "_param": [
            "46103",
            "2"
          ]
        },
        {
          "type": "QUEST_COND_STATE_EQUAL",
          "_param": [
            "46107",
            "2"
          ]
        }
      ],
      "priority": 5,
      "nextTalks": [
        46113,
        46105,
        40221,
        40223
      ],
      "initDialog": 4611601,
      "npcId": [
        1411
      ],
      "performCfg": "",
      "questId": 461,
      "assetIndex": 10396004341015682277,
      "prePerformCfg": ""
    },
    {
      "id": 46117,
      "beginWay": "TALK_BEGIN_MANUAL",
      "beginCondComb": "LOGIC_OR",
      "beginCond": [
        {
          "type": "QUEST_COND_STATE_EQUAL",
          "_param": [
            "46103",
            "2"
          ]
        },
        {
          "type": "QUEST_COND_STATE_EQUAL",
          "_param": [
            "46107",
            "2"
          ]
        }
      ],
      "priority": 5,
      "nextTalks": [
        46114,
        46106,
        40224,
        40225,
        40226
      ],
      "initDialog": 4611701,
      "npcId": [
        1413
      ],
      "performCfg": "",
      "questId": 461,
      "assetIndex": 3594661243001437308,
      "prePerformCfg": ""
    }
  ],
  "preloadLuaList": [
    5575916732172504491,
    14457059026087496718
  ]
}