{
  "id": 464,
  "resId": 2002,
  "series": 2002,
  "damageRatio": "LQ",
  "descTextMapHash": 1799905041,
  "EKEKACCODOE": 1904214655,
  "luaPath": "Actor/Quest/LQ464",
  "suggestTrackMainQuestList": [
    465
  ],
  "rewardIdList": [
    100464
  ],
  "chapterId": 2002,
  "showRedPoint": true,
  "subQuests": [
    {
      "subId": 46401,
      "mainId": 464,
      "order": 1,
      "descTextMapHash": 3338830815,
      "finishCond": [
        {
          "damageRatio": "QUEST_CONTENT_COMPLETE_TALK",
          "param": [
            46401,
            0
          ]
        }
      ],
      "guide": {
        "damageRatio": "QUEST_GUIDE_NPC",
        "param": [
          "1465"
        ],
        "guideScene": 1009,
        "guideStyle": "QUEST_GUIDE_STYLE_START",
        "guideLayer": "QUEST_GUIDE_LAYER_SCENE",
        "MLAHIFLGIGJ": ""
      },
      "guideHint": {
        "param1": ""
      },
      "isRewind": true,
      "versionBegin": "",
      "versionEnd": ""
    },
    {
      "subId": 46402,
      "mainId": 464,
      "order": 2,
      "descTextMapHash": 4101074687,
      "stepDescTextMapHash": 1383059991,
      "finishCond": [
        {
          "damageRatio": "QUEST_CONTENT_COMPLETE_TALK",
          "param": [
            46402,
            0
          ]
        }
      ],
      "guide": {
        "damageRatio": "QUEST_GUIDE_LOCATION",
        "param": [
          "Q464Square",
          "50"
        ],
        "guideScene": 3,
        "MLAHIFLGIGJ": ""
      },
      "guideHint": {
        "param1": ""
      },
      "isRewind": true,
      "versionBegin": "",
      "versionEnd": ""
    },
    {
      "subId": 46403,
      "mainId": 464,
      "order": 3,
      "descTextMapHash": 630445695,
      "finishCond": [
        {
          "damageRatio": "QUEST_CONTENT_COMPLETE_TALK",
          "param": [
            46403,
            0
          ]
        }
      ],
      "guide": {
        "damageRatio": "QUEST_GUIDE_LOCATION",
        "param": [
          "Q464Smithy",
          "50"
        ],
        "guideScene": 3,
        "MLAHIFLGIGJ": ""
      },
      "guideHint": {
        "param1": ""
      },
      "isRewind": true,
      "versionBegin": "",
      "versionEnd": ""
    },
    {
      "subId": 46404,
      "mainId": 464,
      "order": 4,
      "descTextMapHash": 1801631711,
      "finishCond": [
        {
          "damageRatio": "QUEST_CONTENT_COMPLETE_TALK",
          "param": [
            46404,
            0
          ]
        }
      ],
      "guide": {
        "damageRatio": "QUEST_GUIDE_LOCATION",
        "param": [
          "Q464Flower",
          "50"
        ],
        "guideScene": 3,
        "MLAHIFLGIGJ": ""
      },
      "guideHint": {
        "param1": ""
      },
      "isRewind": true,
      "versionBegin": "",
      "versionEnd": ""
    },
    {
      "subId": 46405,
      "mainId": 464,
      "order": 5,
      "descTextMapHash": 3005151263,
      "finishCond": [
        {
          "damageRatio": "QUEST_CONTENT_GAME_TIME_TICK",
          "param": [
            0,
            0
          ]
        }
      ],
      "guide": {
        "MLAHIFLGIGJ": ""
      },
      "guideHint": {
        "param1": ""
      },
      "isRewind": true,
      "versionBegin": "",
      "versionEnd": ""
    },
    {
      "subId": 46406,
      "mainId": 464,
      "order": 6,
      "isMpBlock": true,
      "descTextMapHash": 2812272199,
      "finishCond": [
        {
          "damageRatio": "QUEST_CONTENT_TRIGGER_FIRE",
          "param": [
            1072,
            0
          ]
        }
      ],
      "failCond": [
        {
          "damageRatio": "QUEST_CONTENT_GAME_TIME_TICK",
          "param": [
            0,
            0
          ]
        }
      ],
      "guide": {
        "damageRatio": "QUEST_GUIDE_LOCATION",
        "param": [
          "Q464Backdoor",
          "30"
        ],
        "guideScene": 3,
        "MLAHIFLGIGJ": ""
      },
      "showGuide": "QUEST_GUIDE_ITEM_DISABLE",
      "guideHint": {
        "param1": ""
      },
      "failExec": [
        {
          "damageRatio": "QUEST_EXEC_ROLLBACK_QUEST",
          "param": [
            "46405"
          ]
        }
      ],
      "versionBegin": "",
      "versionEnd": ""
    },
    {
      "subId": 46407,
      "mainId": 464,
      "order": 7,
      "isMpBlock": true,
      "descTextMapHash": 2930275135,
      "finishCond": [
        {
          "damageRatio": "QUEST_CONTENT_COMPLETE_TALK",
          "param": [
            46405,
            0
          ]
        }
      ],
      "guide": {
        "damageRatio": "QUEST_GUIDE_NPC",
        "param": [
          "1009"
        ],
        "guideScene": 3,
        "guideStyle": "QUEST_GUIDE_STYLE_TARGET",
        "guideLayer": "QUEST_GUIDE_LAYER_SCENE",
        "MLAHIFLGIGJ": ""
      },
      "guideHint": {
        "param1": ""
      },
      "isRewind": true,
      "versionBegin": "",
      "versionEnd": ""
    },
    {
      "subId": 46408,
      "mainId": 464,
      "order": 8,
      "descTextMapHash": 3733739135,
      "finishCond": [
        {
          "damageRatio": "QUEST_CONTENT_LUA_NOTIFY",
          "param": [
            0,
            0
          ],
          "count": 6
        }
      ],
      "failCond": [
        {
          "damageRatio": "QUEST_CONTENT_NOT_FINISH_PLOT",
          "param": [
            46408,
            0
          ]
        }
      ],
      "guide": {
        "damageRatio": "QUEST_GUIDE_LOCATION",
        "param": [
          "Q464Backdoor"
        ],
        "guideScene": 3,
        "MLAHIFLGIGJ": ""
      },
      "showGuide": "QUEST_GUIDE_ITEM_DISABLE",
      "guideHint": {
        "param1": ""
      },
      "isRewind": true,
      "failExec": [
        {
          "damageRatio": "QUEST_EXEC_ROLLBACK_QUEST",
          "param": [
            "46405"
          ]
        },
        {
          "damageRatio": "QUEST_EXEC_REFRESH_GROUP_SUITE",
          "param": [
            "3",
            "133004247,1"
          ]
        }
      ],
      "versionBegin": "",
      "versionEnd": ""
    },
    {
      "subId": 46409,
      "mainId": 464,
      "order": 9,
      "descTextMapHash": 2715737287,
      "finishCond": [
        {
          "damageRatio": "QUEST_CONTENT_COMPLETE_TALK",
          "param": [
            46412,
            0
          ]
        }
      ],
      "guide": {
        "damageRatio": "QUEST_GUIDE_NPC",
        "param": [
          "1218"
        ],
        "guideScene": 3,
        "guideStyle": "QUEST_GUIDE_STYLE_TARGET",
        "guideLayer": "QUEST_GUIDE_LAYER_SCENE",
        "MLAHIFLGIGJ": ""
      },
      "guideHint": {
        "param1": ""
      },
      "finishParent": true,
      "isRewind": true,
      "versionBegin": "",
      "versionEnd": ""
    }
  ],
  "talks": [
    {
      "id": 46401,
      "beginWay": "TALK_BEGIN_MANUAL",
      "beginCond": [
        {
          "type": "QUEST_COND_STATE_EQUAL",
          "_param": [
            "46401",
            "2"
          ]
        }
      ],
      "priority": 5,
      "initDialog": 4640101,
      "npcId": [
        1465
      ],
      "performCfg": "QuestDialogue/LQ/Diluc1_464/Q46401",
      "heroTalk": "TALK_HERO_MAIN",
      "questId": 464,
      "assetIndex": 6099020060599544332,
      "prePerformCfg": ""
    },
    {
      "id": 46402,
      "beginWay": "TALK_BEGIN_MANUAL",
      "beginCond": [
        {
          "type": "QUEST_COND_STATE_EQUAL",
          "_param": [
            "46402",
            "2"
          ]
        }
      ],
      "priority": 5,
      "initDialog": 4640201,
      "npcId": [
        1431
      ],
      "performCfg": "QuestDialogue/LQ/Diluc1_464/Q46402",
      "heroTalk": "TALK_HERO_MAIN",
      "questId": 464,
      "assetIndex": 210374526135672107,
      "prePerformCfg": "",
      "freeStyleList": [
        9000
      ]
    },
    {
      "id": 46403,
      "beginWay": "TALK_BEGIN_MANUAL",
      "beginCond": [
        {
          "type": "QUEST_COND_STATE_EQUAL",
          "_param": [
            "46403",
            "2"
          ]
        }
      ],
      "priority": 5,
      "initDialog": 4640301,
      "npcId": [
        1439
      ],
      "performCfg": "QuestDialogue/LQ/Diluc1_464/Q46403",
      "heroTalk": "TALK_HERO_MAIN",
      "questId": 464,
      "assetIndex": 16007466799626815738,
      "prePerformCfg": ""
    },
    {
      "id": 46404,
      "beginWay": "TALK_BEGIN_MANUAL",
      "beginCond": [
        {
          "type": "QUEST_COND_STATE_EQUAL",
          "_param": [
            "46404",
            "2"
          ]
        }
      ],
      "priority": 5,
      "initDialog": 4640401,
      "npcId": [
        1427
      ],
      "performCfg": "QuestDialogue/LQ/Diluc1_464/Q46404",
      "heroTalk": "TALK_HERO_MAIN",
      "questId": 464,
      "assetIndex": 1260751844411080706,
      "prePerformCfg": ""
    },
    {
      "id": 46405,
      "beginWay": "TALK_BEGIN_MANUAL",
      "beginCond": [
        {
          "type": "QUEST_COND_STATE_EQUAL",
          "_param": [
            "46407",
            "2"
          ]
        }
      ],
      "priority": 5,
      "initDialog": 4640501,
      "npcId": [
        1009
      ],
      "performCfg": "QuestDialogue/LQ/Diluc1_464/Q46405",
      "heroTalk": "TALK_HERO_MAIN",
      "questId": 464,
      "assetIndex": 2817345090729789388,
      "prePerformCfg": ""
    },
    {
      "id": 46406,
      "activeMode": "PLAY_MODE_ALL",
      "beginCond": [
        {
          "type": "QUEST_COND_STATE_EQUAL",
          "_param": [
            "46402",
            "2"
          ]
        }
      ],
      "priority": 1,
      "initDialog": 4640601,
      "npcId": [
        1423
      ],
      "performCfg": "",
      "heroTalk": "TALK_HERO_MAIN",
      "questId": 464,
      "assetIndex": 17803344445401471595,
      "dontBlockDaily": true,
      "prePerformCfg": "",
      "freeStyleList": [
        9000
      ]
    },
    {
      "id": 46407,
      "activeMode": "PLAY_MODE_ALL",
      "beginCondComb": "LOGIC_AND",
      "beginCond": [
        {
          "type": "QUEST_COND_STATE_EQUAL",
          "_param": [
            "46402",
            "2"
          ]
        },
        {
          "type": "QUEST_COND_STATE_EQUAL",
          "_param": [
            "46403",
            "2"
          ]
        },
        {
          "type": "QUEST_COND_STATE_EQUAL",
          "_param": [
            "46404",
            "2"
          ]
        }
      ],
      "priority": 1,
      "initDialog": 4640701,
      "npcId": [
        1435
      ],
      "performCfg": "",
      "heroTalk": "TALK_HERO_MAIN",
      "questId": 464,
      "assetIndex": 12112195235440810517,
      "dontBlockDaily": true,
      "prePerformCfg": "",
      "freeStyleList": [
        9000
      ]
    },
    {
      "id": 46408,
      "beginWay": "TALK_BEGIN_MANUAL",
      "beginCondComb": "LOGIC_OR",
      "beginCond": [
        {
          "type": "QUEST_COND_STATE_EQUAL",
          "_param": [
            "46403",
            "2"
          ]
        },
        {
          "type": "QUEST_COND_STATE_EQUAL",
          "_param": [
            "46404",
            "2"
          ]
        }
      ],
      "priority": 5,
      "initDialog": 4640801,
      "npcId": [
        1401
      ],
      "performCfg": "",
      "heroTalk": "TALK_HERO_MAIN",
      "questId": 464,
      "assetIndex": 5324532389545374861,
      "dontBlockDaily": true,
      "prePerformCfg": "",
      "freeStyleList": [
        9000
      ]
    },
    {
      "id": 46409,
      "beginWay": "TALK_BEGIN_MANUAL",
      "beginCondComb": "LOGIC_OR",
      "beginCond": [
        {
          "type": "QUEST_COND_STATE_EQUAL",
          "_param": [
            "46403",
            "2"
          ]
        },
        {
          "type": "QUEST_COND_STATE_EQUAL",
          "_param": [
            "46404",
            "2"
          ]
        }
      ],
      "priority": 5,
      "initDialog": 4640901,
      "npcId": [
        1403
      ],
      "performCfg": "",
      "heroTalk": "TALK_HERO_MAIN",
      "questId": 464,
      "assetIndex": 16060303669391575743,
      "dontBlockDaily": true,
      "prePerformCfg": "",
      "freeStyleList": [
        9000
      ]
    },
    {
      "id": 46410,
      "activeMode": "PLAY_MODE_ALL",
      "beginCond": [
        {
          "type": "QUEST_COND_STATE_EQUAL",
          "_param": [
            "46404",
            "2"
          ]
        }
      ],
      "priority": 1,
      "initDialog": 4641001,
      "npcId": [
        1425
      ],
      "performCfg": "",
      "heroTalk": "TALK_HERO_MAIN",
      "questId": 464,
      "assetIndex": 6136678039737531579,
      "dontBlockDaily": true,
      "prePerformCfg": "",
      "freeStyleList": [
        9000
      ]
    },
    {
      "id": 46411,
      "activeMode": "PLAY_MODE_ALL",
      "beginCondComb": "LOGIC_AND",
      "beginCond": [
        {
          "type": "QUEST_COND_STATE_EQUAL",
          "_param": [
            "46402",
            "2"
          ]
        },
        {
          "type": "QUEST_COND_STATE_EQUAL",
          "_param": [
            "46403",
            "2"
          ]
        },
        {
          "type": "QUEST_COND_STATE_EQUAL",
          "_param": [
            "46404",
            "2"
          ]
        }
      ],
      "priority": 1,
      "initDialog": 4641101,
      "npcId": [
        1417
      ],
      "performCfg": "",
      "heroTalk": "TALK_HERO_MAIN",
      "questId": 464,
      "assetIndex": 8288689719073228359,
      "dontBlockDaily": true,
      "prePerformCfg": "",
      "freeStyleList": [
        9000
      ]
    },
    {
      "id": 46412,
      "beginWay": "TALK_BEGIN_MANUAL",
      "beginCond": [
        {
          "type": "QUEST_COND_STATE_EQUAL",
          "_param": [
            "46409",
            "2"
          ]
        }
      ],
      "priority": 5,
      "initDialog": 4641201,
      "npcId": [
        1218
      ],
      "performCfg": "QuestDialogue/LQ/Diluc1_464/Q46412",
      "heroTalk": "TALK_HERO_MAIN",
      "questId": 464,
      "assetIndex": 18106340463338638856,
      "prePerformCfg": ""
    },
    {
      "id": 46413,
      "activeMode": "PLAY_MODE_ALL",
      "beginCond": [
        {
          "type": "QUEST_COND_STATE_EQUAL",
          "_param": [
            "46402",
            "2"
          ]
        }
      ],
      "priority": 1,
      "initDialog": 4641301,
      "npcId": [
        1405
      ],
      "performCfg": "",
      "heroTalk": "TALK_HERO_MAIN",
      "questId": 464,
      "assetIndex": 17648813039109944641,
      "dontBlockDaily": true,
      "prePerformCfg": "",
      "freeStyleList": [
        9000
      ]
    },
    {
      "id": 46414,
      "activeMode": "PLAY_MODE_ALL",
      "beginCond": [
        {
          "type": "QUEST_COND_STATE_EQUAL",
          "_param": [
            "46402",
            "2"
          ]
        }
      ],
      "priority": 1,
      "initDialog": 4641401,
      "npcId": [
        1455
      ],
      "performCfg": "",
      "heroTalk": "TALK_HERO_MAIN",
      "questId": 464,
      "assetIndex": 4936727292862776423,
      "dontBlockDaily": true,
      "prePerformCfg": "",
      "freeStyleList": [
        9000
      ]
    },
    {
      "id": 46415,
      "activeMode": "PLAY_MODE_ALL",
      "beginCond": [
        {
          "type": "QUEST_COND_STATE_EQUAL",
          "_param": [
            "46402",
            "2"
          ]
        }
      ],
      "priority": 1,
      "initDialog": 4641501,
      "npcId": [
        1461
      ],
      "performCfg": "",
      "heroTalk": "TALK_HERO_MAIN",
      "questId": 464,
      "assetIndex": 18037742778282313119,
      "dontBlockDaily": true,
      "prePerformCfg": "",
      "freeStyleList": [
        9000
      ]
    },
    {
      "id": 46416,
      "activeMode": "PLAY_MODE_ALL",
      "beginCond": [
        {
          "type": "QUEST_COND_STATE_EQUAL",
          "_param": [
            "46402",
            "2"
          ]
        }
      ],
      "priority": 1,
      "initDialog": 4641601,
      "npcId": [
        1463
      ],
      "performCfg": "",
      "heroTalk": "TALK_HERO_MAIN",
      "questId": 464,
      "assetIndex": 9590267804592945398,
      "dontBlockDaily": true,
      "prePerformCfg": "",
      "freeStyleList": [
        9000
      ]
    },
    {
      "id": 46417,
      "activeMode": "PLAY_MODE_ALL",
      "beginCond": [
        {
          "type": "QUEST_COND_STATE_EQUAL",
          "_param": [
            "46402",
            "2"
          ]
        }
      ],
      "priority": 1,
      "initDialog": 4641701,
      "npcId": [
        1419
      ],
      "performCfg": "",
      "heroTalk": "TALK_HERO_MAIN",
      "questId": 464,
      "assetIndex": 956025575379766548,
      "dontBlockDaily": true,
      "prePerformCfg": "",
      "freeStyleList": [
        9000
      ]
    },
    {
      "id": 46418,
      "activeMode": "PLAY_MODE_ALL",
      "beginCondComb": "LOGIC_AND",
      "beginCond": [
        {
          "type": "QUEST_COND_STATE_EQUAL",
          "_param": [
            "46402",
            "2"
          ]
        },
        {
          "type": "QUEST_COND_STATE_EQUAL",
          "_param": [
            "46403",
            "2"
          ]
        },
        {
          "type": "QUEST_COND_STATE_EQUAL",
          "_param": [
            "46404",
            "2"
          ]
        }
      ],
      "priority": 1,
      "initDialog": 4641801,
      "npcId": [
        1469
      ],
      "performCfg": "",
      "heroTalk": "TALK_HERO_MAIN",
      "questId": 464,
      "assetIndex": 13880465152440331492,
      "dontBlockDaily": true,
      "prePerformCfg": "",
      "freeStyleList": [
        9000
      ]
    },
    {
      "id": 46419,
      "activeMode": "PLAY_MODE_ALL",
      "beginCond": [
        {
          "type": "QUEST_COND_STATE_EQUAL",
          "_param": [
            "46403",
            "2"
          ]
        }
      ],
      "priority": 1,
      "initDialog": 4641901,
      "npcId": [
        1437
      ],
      "performCfg": "",
      "heroTalk": "TALK_HERO_MAIN",
      "questId": 464,
      "assetIndex": 12012047788070598539,
      "dontBlockDaily": true,
      "prePerformCfg": "",
      "freeStyleList": [
        9000
      ]
    }
  ],
  "preloadLuaList": [
    2268650960672206304,
    4108604108226667064,
    14457059026087496718,
    9398791307333853327
  ],
  "forcePreloadLuaList": [
    2806487759217098203
  ]
}