{
  "id": 481,
  "resId": 2003,
  "series": 2003,
  "damageRatio": "LQ",
  "descTextMapHash": 559170065,
  "EKEKACCODOE": 4024094799,
  "luaPath": "Actor/Quest/LQ481",
  "suggestTrackMainQuestList": [
    480
  ],
  "rewardIdList": [
    100481
  ],
  "chapterId": 2003,
  "showRedPoint": true,
  "subQuests": [
    {
      "subId": 48101,
      "mainId": 481,
      "order": 1,
      "descTextMapHash": 632675343,
      "finishCond": [
        {
          "damageRatio": "QUEST_CONTENT_COMPLETE_TALK",
          "param": [
            48101,
            0
          ]
        }
      ],
      "guide": {
        "damageRatio": "QUEST_GUIDE_NPC",
        "param": [
          "1002"
        ],
        "guideScene": 3,
        "guideStyle": "QUEST_GUIDE_STYLE_START",
        "guideLayer": "QUEST_GUIDE_LAYER_SCENE",
        "MLAHIFLGIGJ": ""
      },
      "guideHint": {
        "param1": ""
      },
      "isRewind": true,
      "versionBegin": "",
      "versionEnd": ""
    },
    {
      "subId": 48102,
      "mainId": 481,
      "order": 2,
      "descTextMapHash": 3390120327,
      "stepDescTextMapHash": 3966418407,
      "showType": "QUEST_HIDDEN",
      "finishCond": [
        {
          "damageRatio": "QUEST_CONTENT_GAME_TIME_TICK",
          "param": [
            0,
            0
          ]
        }
      ],
      "guide": {
        "MLAHIFLGIGJ": ""
      },
      "guideHint": {
        "param1": ""
      },
      "finishParent": true,
      "isRewind": true,
      "versionBegin": "",
      "versionEnd": ""
    },
    {
      "subId": 48103,
      "mainId": 481,
      "order": 3,
      "descTextMapHash": 1727817231,
      "finishCond": [
        {
          "damageRatio": "QUEST_CONTENT_FINISH_PLOT",
          "param": [
            48103,
            0
          ]
        }
      ],
      "guide": {
        "MLAHIFLGIGJ": ""
      },
      "guideHint": {
        "param1": ""
      },
      "isRewind": true,
      "finishExec": [
        {
          "damageRatio": "QUEST_EXEC_ADD_QUEST_PROGRESS",
          "param": [
            "48102",
            "1"
          ]
        }
      ],
      "versionBegin": "",
      "versionEnd": ""
    },
    {
      "subId": 48104,
      "mainId": 481,
      "order": 4,
      "descTextMapHash": 1067217975,
      "finishCond": [
        {
          "damageRatio": "QUEST_CONTENT_COMPLETE_TALK",
          "param": [
            48104,
            0
          ]
        }
      ],
      "guide": {
        "MLAHIFLGIGJ": ""
      },
      "guideHint": {
        "param1": ""
      },
      "isRewind": true,
      "versionBegin": "",
      "versionEnd": ""
    },
    {
      "subId": 48105,
      "mainId": 481,
      "order": 5,
      "descTextMapHash": 3002519151,
      "finishCond": [
        {
          "damageRatio": "QUEST_CONTENT_FINISH_PLOT",
          "param": [
            48105,
            0
          ]
        }
      ],
      "guide": {
        "MLAHIFLGIGJ": ""
      },
      "guideHint": {
        "param1": ""
      },
      "isRewind": true,
      "versionBegin": "",
      "versionEnd": ""
    },
    {
      "subId": 48106,
      "mainId": 481,
      "order": 6,
      "descTextMapHash": 1127733575,
      "finishCond": [
        {
          "damageRatio": "QUEST_CONTENT_COMPLETE_TALK",
          "param": [
            48106,
            0
          ]
        }
      ],
      "guide": {
        "MLAHIFLGIGJ": ""
      },
      "guideHint": {
        "param1": ""
      },
      "isRewind": true,
      "versionBegin": "",
      "versionEnd": ""
    }
  ],
  "talks": [
    {
      "id": 48101,
      "beginWay": "TALK_BEGIN_MANUAL",
      "beginCond": [
        {
          "type": "QUEST_COND_STATE_EQUAL",
          "_param": [
            "48101",
            "2"
          ]
        }
      ],
      "initDialog": 4810101,
      "npcId": [
        1002
      ],
      "performCfg": "QuestDialogue/LQ/Ambor1_481/Q48101",
      "heroTalk": "TALK_HERO_MAIN",
      "questId": 481,
      "assetIndex": 7445102631609350247,
      "prePerformCfg": ""
    }
  ],
  "preloadLuaList": [
    5909385756826696338,
    14457059026087496718
  ]
}