{
  "id": 5018,
  "resId": 8012,
  "descTextMapHash": 4037041791,
  "EKEKACCODOE": 2128817886,
  "luaPath": "Actor/Quest/AQ5018",
  "showType": "QUEST_HIDDEN",
  "subQuests": [
    {
      "subId": 501801,
      "mainId": 5018,
      "order": 1,
      "descTextMapHash": 3018071940,
      "showType": "QUEST_HIDDEN",
      "finishCond": [
        {
          "damageRatio": "QUEST_CONTENT_COMPLETE_TALK",
          "param": [
            500712,
            0
          ]
        },
        {
          "damageRatio": "QUEST_CONTENT_QUEST_STATE_EQUAL",
          "param": [
            501802,
            3
          ]
        }
      ],
      "guide": {
        "MLAHIFLGIGJ": ""
      },
      "guideHint": {
        "param1": ""
      },
      "finishParent": true,
      "isRewind": true,
      "versionBegin": "",
      "versionEnd": ""
    },
    {
      "subId": 501802,
      "mainId": 5018,
      "order": 2,
      "descTextMapHash": 2182094420,
      "showType": "QUEST_HIDDEN",
      "finishCond": [
        {
          "damageRatio": "QUEST_CONTENT_LEAVE_SCENE",
          "param": [
            1099,
            0
          ]
        }
      ],
      "guide": {
        "MLAHIFLGIGJ": ""
      },
      "guideHint": {
        "param1": ""
      },
      "isRewind": true,
      "versionBegin": "",
      "versionEnd": ""
    }
  ],
  "LNMELPHNIDD": true
}