{
  "id": 5020,
  "resId": 8012,
  "descTextMapHash": 3579072367,
  "EKEKACCODOE": 864523590,
  "luaPath": "Actor/Quest/AQ5020",
  "showType": "QUEST_HIDDEN",
  "subQuests": [
    {
      "subId": 502001,
      "mainId": 5020,
      "order": 1,
      "descTextMapHash": 2869011244,
      "showType": "QUEST_HIDDEN",
      "finishCond": [
        {
          "damageRatio": "QUEST_CONTENT_COMPLETE_TALK",
          "param": [
            502020,
            0
          ]
        }
      ],
      "guide": {
        "MLAHIFLGIGJ": ""
      },
      "guideHint": {
        "param1": ""
      },
      "finishParent": true,
      "isRewind": true,
      "versionBegin": "",
      "versionEnd": ""
    }
  ],
  "talks": [
    {
      "id": 502020,
      "beginWay": "TALK_BEGIN_MANUAL",
      "beginCond": [
        {
          "type": "QUEST_COND_STATE_EQUAL",
          "_param": [
            "502001",
            "2"
          ]
        }
      ],
      "priority": 5,
      "initDialog": 50202001,
      "npcId": [
        6055
      ],
      "performCfg": "",
      "heroTalk": "TALK_HERO_MAIN",
      "questId": 5020,
      "assetIndex": 11961508042854911124,
      "prePerformCfg": "",
      "lowPriority": true
    }
  ],
  "LNMELPHNIDD": true
}