{
  "id": 70008,
  "damageRatio": "WQ",
  "mainQuestTag": "MAINQUEST_TAG_ACTIVITY",
  "activeMode": "PLAY_MODE_ALL",
  "descTextMapHash": 3334782287,
  "EKEKACCODOE": 2955598318,
  "luaPath": "Actor/Quest/WQ70008",
  "rewardIdList": [
    170008
  ],
  "showRedPoint": true,
  "activityId": 2003,
  "subQuests": [
    {
      "subId": 7000801,
      "mainId": 70008,
      "order": 1,
      "descTextMapHash": 3398904540,
      "showType": "QUEST_HIDDEN",
      "finishCond": [
        {
          "damageRatio": "QUEST_CONTENT_FINISH_PLOT",
          "param": [
            7000801,
            0
          ]
        }
      ],
      "guide": {
        "MLAHIFLGIGJ": ""
      },
      "guideHint": {
        "param1": ""
      },
      "isRewind": true,
      "versionBegin": "",
      "versionEnd": ""
    },
    {
      "subId": 7000802,
      "mainId": 70008,
      "order": 3,
      "descTextMapHash": 149466084,
      "finishCond": [
        {
          "damageRatio": "QUEST_CONTENT_FINISH_PLOT",
          "param": [
            7000802,
            0
          ]
        }
      ],
      "guide": {
        "damageRatio": "QUEST_GUIDE_LOCATION",
        "param": [
          "Q7000802Target1",
          "50"
        ],
        "guideScene": 3,
        "MLAHIFLGIGJ": ""
      },
      "guideHint": {
        "param1": ""
      },
      "isRewind": true,
      "versionBegin": "",
      "versionEnd": ""
    },
    {
      "subId": 7000803,
      "mainId": 70008,
      "order": 4,
      "descTextMapHash": 2048204780,
      "finishCond": [
        {
          "damageRatio": "QUEST_CONTENT_LUA_NOTIFY",
          "param": [
            0,
            0
          ],
          "count": 1
        },
        {
          "damageRatio": "QUEST_CONTENT_OBTAIN_ITEM",
          "param": [
            100779,
            0
          ],
          "count": 3
        }
      ],
      "guide": {
        "damageRatio": "QUEST_GUIDE_LOCATION",
        "param": [
          "Q7000802Target2",
          "20"
        ],
        "guideScene": 3,
        "MLAHIFLGIGJ": ""
      },
      "guideHint": {
        "param1": ""
      },
      "versionBegin": "",
      "versionEnd": ""
    },
    {
      "subId": 7000804,
      "mainId": 70008,
      "order": 5,
      "descTextMapHash": 4001346244,
      "finishCond": [
        {
          "damageRatio": "QUEST_CONTENT_OBTAIN_ITEM",
          "param": [
            100779,
            0
          ],
          "count": 3
        }
      ],
      "guide": {
        "damageRatio": "QUEST_GUIDE_LOCATION",
        "param": [
          "Q7000802Target2",
          "20"
        ],
        "guideScene": 3,
        "MLAHIFLGIGJ": ""
      },
      "guideHint": {
        "param1": ""
      },
      "versionBegin": "",
      "versionEnd": ""
    },
    {
      "subId": 7000805,
      "mainId": 70008,
      "order": 6,
      "descTextMapHash": 1882059284,
      "finishCond": [
        {
          "damageRatio": "QUEST_CONTENT_FINISH_PLOT",
          "param": [
            7000805,
            0
          ]
        }
      ],
      "guide": {
        "damageRatio": "QUEST_GUIDE_LOCATION",
        "param": [
          "Q7000805Target1",
          "50"
        ],
        "guideScene": 3,
        "MLAHIFLGIGJ": ""
      },
      "guideHint": {
        "param1": ""
      },
      "isRewind": true,
      "versionBegin": "",
      "versionEnd": ""
    },
    {
      "subId": 7000806,
      "mainId": 70008,
      "order": 7,
      "descTextMapHash": 351799580,
      "finishCond": [
        {
          "damageRatio": "QUEST_CONTENT_LUA_NOTIFY",
          "param": [
            0,
            0
          ],
          "count": 1
        },
        {
          "damageRatio": "QUEST_CONTENT_OBTAIN_ITEM",
          "param": [
            100780,
            0
          ],
          "count": 3
        }
      ],
      "guide": {
        "damageRatio": "QUEST_GUIDE_LOCATION",
        "param": [
          "Q7000805Target2",
          "20"
        ],
        "guideScene": 3,
        "MLAHIFLGIGJ": ""
      },
      "guideHint": {
        "param1": ""
      },
      "versionBegin": "",
      "versionEnd": ""
    },
    {
      "subId": 7000807,
      "mainId": 70008,
      "order": 8,
      "descTextMapHash": 2686622676,
      "finishCond": [
        {
          "damageRatio": "QUEST_CONTENT_OBTAIN_ITEM",
          "param": [
            100780,
            0
          ],
          "count": 3
        }
      ],
      "guide": {
        "damageRatio": "QUEST_GUIDE_LOCATION",
        "param": [
          "Q7000805Target2",
          "20"
        ],
        "guideScene": 3,
        "MLAHIFLGIGJ": ""
      },
      "guideHint": {
        "param1": ""
      },
      "versionBegin": "",
      "versionEnd": ""
    },
    {
      "subId": 7000808,
      "mainId": 70008,
      "order": 9,
      "descTextMapHash": 2096621980,
      "finishCond": [
        {
          "damageRatio": "QUEST_CONTENT_FINISH_ITEM_GIVING",
          "param": [
            7000808,
            0
          ]
        }
      ],
      "guide": {
        "damageRatio": "QUEST_GUIDE_NPC",
        "param": [
          "143101",
          "SELECT_NPC_NONE"
        ],
        "guideScene": 3,
        "MLAHIFLGIGJ": ""
      },
      "guideHint": {
        "param1": ""
      },
      "isRewind": true,
      "finishExec": [
        {
          "damageRatio": "QUEST_EXEC_UNREGISTER_DYNAMIC_GROUP",
          "param": [
            "133003009",
            "0"
          ]
        },
        {
          "damageRatio": "QUEST_EXEC_UNREGISTER_DYNAMIC_GROUP",
          "param": [
            "133001611",
            "0"
          ]
        }
      ],
      "versionBegin": "",
      "versionEnd": ""
    },
    {
      "subId": 7000809,
      "mainId": 70008,
      "order": 12,
      "descTextMapHash": 1348255420,
      "finishCond": [
        {
          "damageRatio": "QUEST_CONTENT_COMPLETE_TALK",
          "param": [
            7000809,
            0
          ]
        }
      ],
      "guide": {
        "damageRatio": "QUEST_GUIDE_LOCATION",
        "param": [
          "Q7000809Mix"
        ],
        "guideScene": 3,
        "guideStyle": "QUEST_GUIDE_STYLE_TARGET",
        "MLAHIFLGIGJ": ""
      },
      "showGuide": "QUEST_GUIDE_ITEM_DISABLE",
      "guideHint": {
        "param1": ""
      },
      "isRewind": true,
      "versionBegin": "",
      "versionEnd": ""
    },
    {
      "subId": 7000810,
      "mainId": 70008,
      "order": 15,
      "descTextMapHash": 3085788668,
      "finishCond": [
        {
          "damageRatio": "QUEST_CONTENT_FINISH_ITEM_GIVING",
          "param": [
            7000810,
            0
          ]
        }
      ],
      "guide": {
        "damageRatio": "QUEST_GUIDE_NPC",
        "param": [
          "143101",
          "SELECT_NPC_NONE"
        ],
        "guideScene": 3,
        "MLAHIFLGIGJ": ""
      },
      "guideHint": {
        "param1": ""
      },
      "isRewind": true,
      "versionBegin": "",
      "versionEnd": ""
    },
    {
      "subId": 7000811,
      "mainId": 70008,
      "order": 18,
      "descTextMapHash": 842261892,
      "finishCond": [
        {
          "damageRatio": "QUEST_CONTENT_COMPLETE_TALK",
          "param": [
            7000811,
            0
          ]
        }
      ],
      "guide": {
        "damageRatio": "QUEST_GUIDE_NPC",
        "param": [
          "1461",
          "SELECT_NPC_NONE"
        ],
        "guideScene": 3,
        "MLAHIFLGIGJ": ""
      },
      "guideHint": {
        "param1": ""
      },
      "isRewind": true,
      "versionBegin": "",
      "versionEnd": ""
    },
    {
      "subId": 7000812,
      "mainId": 70008,
      "order": 19,
      "descTextMapHash": 3523424484,
      "finishCond": [
        {
          "damageRatio": "QUEST_CONTENT_COMPLETE_TALK",
          "param": [
            7000812,
            0
          ]
        }
      ],
      "guide": {
        "damageRatio": "QUEST_GUIDE_NPC",
        "param": [
          "1445",
          "SELECT_NPC_NONE"
        ],
        "guideScene": 3,
        "MLAHIFLGIGJ": ""
      },
      "guideHint": {
        "param1": ""
      },
      "isRewind": true,
      "versionBegin": "",
      "versionEnd": ""
    },
    {
      "subId": 7000813,
      "mainId": 70008,
      "order": 20,
      "descTextMapHash": 489282180,
      "finishCond": [
        {
          "damageRatio": "QUEST_CONTENT_COMPLETE_TALK",
          "param": [
            7000813,
            0
          ]
        }
      ],
      "guide": {
        "damageRatio": "QUEST_GUIDE_NPC",
        "param": [
          "1601",
          "SELECT_NPC_NONE"
        ],
        "guideScene": 3,
        "MLAHIFLGIGJ": ""
      },
      "guideHint": {
        "param1": ""
      },
      "isRewind": true,
      "versionBegin": "",
      "versionEnd": ""
    },
    {
      "subId": 7000814,
      "mainId": 70008,
      "order": 21,
      "descTextMapHash": 3360149188,
      "finishCond": [
        {
          "damageRatio": "QUEST_CONTENT_COMPLETE_TALK",
          "param": [
            7000814,
            0
          ]
        }
      ],
      "guide": {
        "damageRatio": "QUEST_GUIDE_NPC",
        "param": [
          "143101",
          "SELECT_NPC_NONE"
        ],
        "guideScene": 3,
        "MLAHIFLGIGJ": ""
      },
      "guideHint": {
        "param1": ""
      },
      "finishParent": true,
      "isRewind": true,
      "finishExec": [
        {
          "damageRatio": "QUEST_EXEC_DEL_ALL_SPECIFIC_PACK_ITEM",
          "param": [
            "100779,100780,100781,100782"
          ]
        }
      ],
      "versionBegin": "",
      "versionEnd": ""
    },
    {
      "subId": 7000815,
      "mainId": 70008,
      "order": 11,
      "descTextMapHash": 4154047348,
      "finishCond": [
        {
          "damageRatio": "QUEST_CONTENT_COMPLETE_TALK",
          "param": [
            7000838,
            0
          ]
        }
      ],
      "guide": {
        "damageRatio": "QUEST_GUIDE_NPC",
        "param": [
          "143101",
          "SELECT_NPC_NONE"
        ],
        "guideScene": 3,
        "MLAHIFLGIGJ": ""
      },
      "guideHint": {
        "param1": ""
      },
      "isRewind": true,
      "versionBegin": "",
      "versionEnd": ""
    },
    {
      "subId": 7000816,
      "mainId": 70008,
      "order": 2,
      "descTextMapHash": 3520883716,
      "finishCond": [
        {
          "damageRatio": "QUEST_CONTENT_COMPLETE_TALK",
          "param": [
            7000801,
            0
          ]
        }
      ],
      "guide": {
        "damageRatio": "QUEST_GUIDE_NPC",
        "param": [
          "143101",
          "SELECT_NPC_NONE"
        ],
        "guideScene": 3,
        "guideStyle": "QUEST_GUIDE_STYLE_START",
        "MLAHIFLGIGJ": ""
      },
      "guideHint": {
        "param1": ""
      },
      "isRewind": true,
      "versionBegin": "",
      "versionEnd": ""
    },
    {
      "subId": 7000817,
      "mainId": 70008,
      "order": 10,
      "descTextMapHash": 4167180836,
      "finishCond": [
        {
          "damageRatio": "QUEST_CONTENT_COMPLETE_TALK",
          "param": [
            7000838,
            0
          ]
        }
      ],
      "guide": {
        "damageRatio": "QUEST_GUIDE_NPC",
        "param": [
          "143101",
          "SELECT_NPC_NONE"
        ],
        "guideScene": 3,
        "MLAHIFLGIGJ": ""
      },
      "guideHint": {
        "param1": ""
      },
      "isRewind": true,
      "versionBegin": "",
      "versionEnd": ""
    },
    {
      "subId": 7000818,
      "mainId": 70008,
      "order": 16,
      "descTextMapHash": 2865556092,
      "finishCond": [
        {
          "damageRatio": "QUEST_CONTENT_COMPLETE_TALK",
          "param": [
            7000815,
            0
          ]
        }
      ],
      "guide": {
        "damageRatio": "QUEST_GUIDE_NPC",
        "param": [
          "143101",
          "SELECT_NPC_NONE"
        ],
        "guideScene": 3,
        "MLAHIFLGIGJ": ""
      },
      "guideHint": {
        "param1": ""
      },
      "isRewind": true,
      "versionBegin": "",
      "versionEnd": ""
    },
    {
      "subId": 7000819,
      "mainId": 70008,
      "order": 17,
      "descTextMapHash": 2318226676,
      "finishCond": [
        {
          "damageRatio": "QUEST_CONTENT_COMPLETE_TALK",
          "param": [
            7000816,
            0
          ]
        }
      ],
      "guide": {
        "damageRatio": "QUEST_GUIDE_NPC",
        "param": [
          "143101",
          "SELECT_NPC_NONE"
        ],
        "guideScene": 3,
        "MLAHIFLGIGJ": ""
      },
      "guideHint": {
        "param1": ""
      },
      "isRewind": true,
      "finishExec": [
        {
          "damageRatio": "QUEST_EXEC_ROLLBACK_QUEST",
          "param": [
            "7000809"
          ]
        }
      ],
      "versionBegin": "",
      "versionEnd": ""
    },
    {
      "subId": 7000820,
      "mainId": 70008,
      "order": 13,
      "descTextMapHash": 977026716,
      "showType": "QUEST_HIDDEN",
      "finishCond": [
        {
          "damageRatio": "QUEST_CONTENT_FINISH_PLOT",
          "param": [
            7000820,
            0
          ]
        }
      ],
      "guide": {
        "MLAHIFLGIGJ": ""
      },
      "guideHint": {
        "param1": ""
      },
      "versionBegin": "",
      "versionEnd": ""
    },
    {
      "subId": 7000821,
      "mainId": 70008,
      "order": 14,
      "descTextMapHash": 287304252,
      "showType": "QUEST_HIDDEN",
      "finishCond": [
        {
          "damageRatio": "QUEST_CONTENT_FINISH_PLOT",
          "param": [
            7000821,
            0
          ]
        }
      ],
      "guide": {
        "MLAHIFLGIGJ": ""
      },
      "guideHint": {
        "param1": ""
      },
      "versionBegin": "",
      "versionEnd": ""
    }
  ],
  "talks": [
    {
      "id": 7000801,
      "beginWay": "TALK_BEGIN_MANUAL",
      "activeMode": "PLAY_MODE_HOST",
      "beginCond": [
        {
          "type": "QUEST_COND_STATE_EQUAL",
          "_param": [
            "7000816",
            "2"
          ]
        }
      ],
      "priority": 5,
      "initDialog": 700080101,
      "npcId": [
        143101
      ],
      "performCfg": "",
      "heroTalk": "TALK_HERO_MAIN",
      "questId": 70008,
      "assetIndex": 512716018882672192,
      "prePerformCfg": "",
      "freeStyleList": [
        1171,
        1172,
        1173,
        1190,
        1130,
        1090
      ]
    },
    {
      "id": 7000808,
      "beginWay": "TALK_BEGIN_MANUAL",
      "activeMode": "PLAY_MODE_HOST",
      "beginCondComb": "LOGIC_AND",
      "beginCond": [
        {
          "type": "QUEST_COND_STATE_EQUAL",
          "_param": [
            "7000808",
            "2"
          ]
        },
        {
          "type": "QUEST_COND_ITEM_GIVING_ACTIVED",
          "_param": [
            "7000808"
          ]
        }
      ],
      "priority": 5,
      "initDialog": 700081801,
      "npcId": [
        143101
      ],
      "performCfg": "",
      "heroTalk": "TALK_HERO_MAIN",
      "questId": 70008,
      "assetIndex": 5352923897285409645,
      "prePerformCfg": ""
    },
    {
      "id": 7000809,
      "beginWay": "TALK_BEGIN_MANUAL",
      "activeMode": "PLAY_MODE_HOST",
      "beginCond": [
        {
          "type": "QUEST_COND_STATE_EQUAL",
          "_param": [
            "7000809",
            "2"
          ]
        }
      ],
      "priority": 5,
      "initDialog": 700080901,
      "npcId": [
        10029
      ],
      "performCfg": "QuestDialogue/WQ/Fenghua_70008/Q7000809",
      "heroTalk": "TALK_HERO_MAIN",
      "questId": 70008,
      "assetIndex": 17869811001832665677,
      "prePerformCfg": ""
    },
    {
      "id": 7000810,
      "beginWay": "TALK_BEGIN_MANUAL",
      "activeMode": "PLAY_MODE_HOST",
      "beginCondComb": "LOGIC_AND",
      "beginCond": [
        {
          "type": "QUEST_COND_STATE_EQUAL",
          "_param": [
            "7000810",
            "2"
          ]
        },
        {
          "type": "QUEST_COND_ITEM_GIVING_ACTIVED",
          "_param": [
            "7000810"
          ]
        }
      ],
      "priority": 5,
      "initDialog": 700081001,
      "npcId": [
        143101
      ],
      "performCfg": "",
      "heroTalk": "TALK_HERO_MAIN",
      "questId": 70008,
      "assetIndex": 12704275833135356128,
      "prePerformCfg": "",
      "freeStyleList": [
        1171,
        1172,
        1173
      ]
    },
    {
      "id": 7000811,
      "beginWay": "TALK_BEGIN_MANUAL",
      "activeMode": "PLAY_MODE_HOST",
      "beginCond": [
        {
          "type": "QUEST_COND_STATE_EQUAL",
          "_param": [
            "7000811",
            "2"
          ]
        }
      ],
      "priority": 5,
      "initDialog": 700081101,
      "npcId": [
        1461
      ],
      "performCfg": "",
      "heroTalk": "TALK_HERO_MAIN",
      "questId": 70008,
      "assetIndex": 235276616661424283,
      "prePerformCfg": "",
      "freeStyleList": [
        1090,
        1230,
        1130,
        1240,
        1171,
        1172,
        1173
      ]
    },
    {
      "id": 7000812,
      "beginWay": "TALK_BEGIN_MANUAL",
      "activeMode": "PLAY_MODE_HOST",
      "beginCond": [
        {
          "type": "QUEST_COND_STATE_EQUAL",
          "_param": [
            "7000812",
            "2"
          ]
        }
      ],
      "priority": 5,
      "initDialog": 700081201,
      "npcId": [
        1445
      ],
      "performCfg": "",
      "heroTalk": "TALK_HERO_MAIN",
      "questId": 70008,
      "assetIndex": 3091243671695114341,
      "prePerformCfg": "",
      "freeStyleList": [
        1171,
        1172,
        1173,
        1150,
        1190
      ]
    },
    {
      "id": 7000813,
      "beginWay": "TALK_BEGIN_MANUAL",
      "activeMode": "PLAY_MODE_HOST",
      "beginCond": [
        {
          "type": "QUEST_COND_STATE_EQUAL",
          "_param": [
            "7000813",
            "2"
          ]
        }
      ],
      "priority": 5,
      "initDialog": 700081301,
      "npcId": [
        1601
      ],
      "performCfg": "",
      "heroTalk": "TALK_HERO_MAIN",
      "questId": 70008,
      "assetIndex": 18082290751321965947,
      "prePerformCfg": "",
      "freeStyleList": [
        1171,
        1172,
        1173,
        1060,
        5010
      ]
    },
    {
      "id": 7000814,
      "beginWay": "TALK_BEGIN_MANUAL",
      "activeMode": "PLAY_MODE_HOST",
      "beginCond": [
        {
          "type": "QUEST_COND_STATE_EQUAL",
          "_param": [
            "7000814",
            "2"
          ]
        }
      ],
      "priority": 5,
      "initDialog": 700081401,
      "npcId": [
        143101
      ],
      "performCfg": "QuestDialogue/WQ/Fenghua_70008/Q7000814",
      "heroTalk": "TALK_HERO_MAIN",
      "questId": 70008,
      "assetIndex": 9721327600620281688,
      "prePerformCfg": "",
      "freeStyleList": [
        1171,
        1172,
        1173,
        1190,
        1230
      ]
    },
    {
      "id": 7000815,
      "beginWay": "TALK_BEGIN_AUTO",
      "activeMode": "PLAY_MODE_HOST",
      "beginCond": [
        {
          "type": "QUEST_COND_STATE_EQUAL",
          "_param": [
            "7000818",
            "2"
          ]
        }
      ],
      "priority": 5,
      "initDialog": 700081503,
      "npcId": [
        143101
      ],
      "performCfg": "",
      "heroTalk": "TALK_HERO_MAIN",
      "questId": 70008,
      "assetIndex": 15908773849356515527,
      "prePerformCfg": "",
      "freeStyleList": [
        1190,
        1230,
        1171,
        1172,
        1173
      ]
    },
    {
      "id": 7000816,
      "beginWay": "TALK_BEGIN_AUTO",
      "activeMode": "PLAY_MODE_HOST",
      "beginCond": [
        {
          "type": "QUEST_COND_STATE_EQUAL",
          "_param": [
            "7000819",
            "2"
          ]
        }
      ],
      "priority": 5,
      "initDialog": 700081003,
      "npcId": [
        143101
      ],
      "performCfg": "",
      "heroTalk": "TALK_HERO_MAIN",
      "questId": 70008,
      "assetIndex": 15474924278836122168,
      "prePerformCfg": "",
      "freeStyleList": [
        1190,
        1171,
        1172,
        1173
      ]
    },
    {
      "id": 7000818,
      "beginWay": "TALK_BEGIN_AUTO",
      "activeMode": "PLAY_MODE_HOST",
      "beginCond": [
        {
          "type": "QUEST_COND_STATE_EQUAL",
          "_param": [
            "7000817",
            "2"
          ]
        }
      ],
      "priority": 5,
      "nextTalks": [
        7000838
      ],
      "initDialog": 700082802,
      "npcId": [
        143101
      ],
      "performCfg": "",
      "heroTalk": "TALK_HERO_MAIN",
      "questId": 70008,
      "assetIndex": 12546532287334370126,
      "prePerformCfg": "",
      "freeStyleList": [
        1120
      ]
    },
    {
      "id": 7000828,
      "beginWay": "TALK_BEGIN_AUTO",
      "activeMode": "PLAY_MODE_HOST",
      "beginCond": [
        {
          "type": "QUEST_COND_STATE_EQUAL",
          "_param": [
            "7000815",
            "2"
          ]
        }
      ],
      "priority": 5,
      "nextTalks": [
        7000838
      ],
      "initDialog": 700081802,
      "npcId": [
        143101
      ],
      "performCfg": "",
      "heroTalk": "TALK_HERO_MAIN",
      "questId": 70008,
      "assetIndex": 1559753157674766743,
      "prePerformCfg": "",
      "freeStyleList": [
        1120
      ]
    },
    {
      "id": 7000838,
      "activeMode": "PLAY_MODE_HOST",
      "priority": 5,
      "initDialog": 700083801,
      "npcId": [
        143101
      ],
      "performCfg": "",
      "heroTalk": "TALK_HERO_MAIN",
      "questId": 70008,
      "assetIndex": 7500393686998394114,
      "prePerformCfg": "",
      "freeStyleList": [
        1170,
        1180,
        1190,
        1171,
        1172,
        1173,
        1230,
        1120
      ]
    },
    {
      "id": 7000851,
      "beginWay": "TALK_BEGIN_MANUAL",
      "activeMode": "PLAY_MODE_HOST",
      "beginCond": [
        {
          "type": "QUEST_COND_STATE_EQUAL",
          "_param": [
            "7000809",
            "2"
          ]
        }
      ],
      "priority": 4,
      "initDialog": 700085101,
      "npcId": [
        143101
      ],
      "performCfg": "",
      "heroTalk": "TALK_HERO_MAIN",
      "questId": 70008,
      "assetIndex": 16900735626414538731,
      "prePerformCfg": "",
      "freeStyleList": [
        1171,
        1172,
        1173,
        1230,
        1120
      ]
    },
    {
      "id": 7000852,
      "beginWay": "TALK_BEGIN_MANUAL",
      "activeMode": "PLAY_MODE_HOST",
      "beginCondComb": "LOGIC_OR",
      "beginCond": [
        {
          "type": "QUEST_COND_STATE_EQUAL",
          "_param": [
            "7000811",
            "2"
          ]
        },
        {
          "type": "QUEST_COND_STATE_EQUAL",
          "_param": [
            "7000812",
            "2"
          ]
        },
        {
          "type": "QUEST_COND_STATE_EQUAL",
          "_param": [
            "7000813",
            "2"
          ]
        },
        {
          "type": "QUEST_COND_STATE_EQUAL",
          "_param": [
            "7000814",
            "2"
          ]
        }
      ],
      "priority": 4,
      "initDialog": 700085201,
      "npcId": [
        1461
      ],
      "performCfg": "",
      "heroTalk": "TALK_HERO_MAIN",
      "questId": 70008,
      "assetIndex": 506310051438015694,
      "prePerformCfg": ""
    },
    {
      "id": 7000853,
      "beginWay": "TALK_BEGIN_MANUAL",
      "activeMode": "PLAY_MODE_HOST",
      "beginCondComb": "LOGIC_OR",
      "beginCond": [
        {
          "type": "QUEST_COND_STATE_EQUAL",
          "_param": [
            "7000811",
            "2"
          ]
        },
        {
          "type": "QUEST_COND_STATE_EQUAL",
          "_param": [
            "7000812",
            "2"
          ]
        },
        {
          "type": "QUEST_COND_STATE_EQUAL",
          "_param": [
            "7000813",
            "2"
          ]
        },
        {
          "type": "QUEST_COND_STATE_EQUAL",
          "_param": [
            "7000814",
            "2"
          ]
        }
      ],
      "priority": 4,
      "initDialog": 700085301,
      "npcId": [
        1445
      ],
      "performCfg": "",
      "heroTalk": "TALK_HERO_MAIN",
      "questId": 70008,
      "assetIndex": 5293783567744291648,
      "prePerformCfg": ""
    },
    {
      "id": 7000854,
      "beginWay": "TALK_BEGIN_MANUAL",
      "activeMode": "PLAY_MODE_HOST",
      "beginCondComb": "LOGIC_OR",
      "beginCond": [
        {
          "type": "QUEST_COND_STATE_EQUAL",
          "_param": [
            "7000814",
            "2"
          ]
        },
        {
          "type": "QUEST_COND_STATE_EQUAL",
          "_param": [
            "7000812",
            "2"
          ]
        },
        {
          "type": "QUEST_COND_STATE_EQUAL",
          "_param": [
            "7000813",
            "2"
          ]
        },
        {
          "type": "QUEST_COND_STATE_EQUAL",
          "_param": [
            "7000814",
            "2"
          ]
        }
      ],
      "priority": 4,
      "initDialog": 700085401,
      "npcId": [
        1601
      ],
      "performCfg": "",
      "heroTalk": "TALK_HERO_MAIN",
      "questId": 70008,
      "assetIndex": 5997067969295571469,
      "prePerformCfg": ""
    },
    {
      "id": 7000855,
      "beginWay": "TALK_BEGIN_MANUAL",
      "activeMode": "PLAY_MODE_HOST",
      "beginCondComb": "LOGIC_OR",
      "beginCond": [
        {
          "type": "QUEST_COND_STATE_EQUAL",
          "_param": [
            "7000811",
            "2"
          ]
        },
        {
          "type": "QUEST_COND_STATE_EQUAL",
          "_param": [
            "7000812",
            "2"
          ]
        },
        {
          "type": "QUEST_COND_STATE_EQUAL",
          "_param": [
            "7000813",
            "2"
          ]
        }
      ],
      "priority": 4,
      "initDialog": 700081509,
      "npcId": [
        143101
      ],
      "performCfg": "",
      "heroTalk": "TALK_HERO_MAIN",
      "questId": 70008,
      "assetIndex": 4759450203075289847,
      "prePerformCfg": "",
      "freeStyleList": [
        1190
      ]
    }
  ],
  "preloadLuaList": [
    3627423271770420809,
    767905104849751044
  ],
  "forcePreloadLuaList": [
    3829327741983496761
  ],
  "freeStyleDic": {
    "143101": [
      1190
    ]
  }
}