{
  "id": 70016,
  "damageRatio": "WQ",
  "mainQuestTag": "MAINQUEST_TAG_ACTIVITY",
  "activeMode": "PLAY_MODE_ALL",
  "descTextMapHash": 831831887,
  "EKEKACCODOE": 440354966,
  "luaPath": "Actor/Quest/WQ70016",
  "suggestTrackMainQuestList": [
    70023
  ],
  "rewardIdList": [
    170016
  ],
  "activityId": 5024,
  "subQuests": [
    {
      "subId": 7001601,
      "mainId": 70016,
      "order": 1,
      "descTextMapHash": 39379572,
      "finishCond": [
        {
          "damageRatio": "QUEST_CONTENT_COMPLETE_TALK",
          "param": [
            7001601,
            0
          ]
        }
      ],
      "guide": {
        "damageRatio": "QUEST_GUIDE_LOCATION",
        "autoGuide": "QUEST_GUIDE_AUTO_ENABLE",
        "param": [
          "Q70016guild",
          "70"
        ],
        "guideScene": 3,
        "guideStyle": "QUEST_GUIDE_STYLE_TARGET",
        "guideLayer": "QUEST_GUIDE_LAYER_SCENE",
        "MLAHIFLGIGJ": ""
      },
      "guideHint": {
        "param1": ""
      },
      "isRewind": true,
      "versionBegin": "",
      "versionEnd": ""
    },
    {
      "subId": 7001602,
      "mainId": 70016,
      "order": 2,
      "descTextMapHash": 1333485444,
      "finishCond": [
        {
          "damageRatio": "QUEST_CONTENT_LUA_NOTIFY",
          "param": [
            0,
            0
          ]
        }
      ],
      "guide": {
        "damageRatio": "QUEST_GUIDE_LOCATION",
        "autoGuide": "QUEST_GUIDE_AUTO_ENABLE",
        "param": [
          "Q7001601guild",
          "30"
        ],
        "guideScene": 3,
        "guideStyle": "QUEST_GUIDE_STYLE_TARGET",
        "guideLayer": "QUEST_GUIDE_LAYER_SCENE",
        "MLAHIFLGIGJ": ""
      },
      "guideHint": {
        "param1": ""
      },
      "isRewind": true,
      "versionBegin": "",
      "versionEnd": ""
    },
    {
      "subId": 7001603,
      "mainId": 70016,
      "order": 3,
      "descTextMapHash": 2286044388,
      "finishCond": [
        {
          "damageRatio": "QUEST_CONTENT_COMPLETE_TALK",
          "param": [
            7001602,
            0
          ]
        }
      ],
      "guide": {
        "damageRatio": "QUEST_GUIDE_NPC",
        "autoGuide": "QUEST_GUIDE_AUTO_ENABLE",
        "param": [
          "11007",
          "SELECT_NPC_NONE"
        ],
        "guideScene": 3,
        "guideStyle": "QUEST_GUIDE_STYLE_TARGET",
        "guideLayer": "QUEST_GUIDE_LAYER_SCENE",
        "MLAHIFLGIGJ": ""
      },
      "guideHint": {
        "param1": ""
      },
      "finishParent": true,
      "isRewind": true,
      "finishExec": [
        {
          "damageRatio": "QUEST_EXEC_UNREGISTER_DYNAMIC_GROUP",
          "param": [
            "133002492"
          ]
        },
        {
          "damageRatio": "QUEST_EXEC_UNREGISTER_DYNAMIC_GROUP",
          "param": [
            "133002495"
          ]
        }
      ],
      "versionBegin": "",
      "versionEnd": ""
    }
  ],
  "talks": [
    {
      "id": 7001601,
      "beginWay": "TALK_BEGIN_MANUAL",
      "activeMode": "PLAY_MODE_HOST",
      "beginCond": [
        {
          "type": "QUEST_COND_STATE_EQUAL",
          "_param": [
            "7001601",
            "2"
          ]
        }
      ],
      "priority": 5,
      "initDialog": 700160101,
      "npcId": [
        11007,
        156501,
        1005
      ],
      "performCfg": "QuestDialogue/WQ/MimiTomo_70024/Q7001601",
      "heroTalk": "TALK_HERO_MAIN",
      "questId": 70016,
      "assetIndex": 8686915829055604232,
      "prePerformCfg": ""
    },
    {
      "id": 7001602,
      "beginWay": "TALK_BEGIN_MANUAL",
      "activeMode": "PLAY_MODE_HOST",
      "beginCond": [
        {
          "type": "QUEST_COND_STATE_EQUAL",
          "_param": [
            "7001603",
            "2"
          ]
        }
      ],
      "priority": 5,
      "initDialog": 700160201,
      "npcId": [
        11007,
        156501
      ],
      "performCfg": "QuestDialogue/WQ/MimiTomo_70024/Q7001602",
      "heroTalk": "TALK_HERO_MAIN",
      "questId": 70016,
      "assetIndex": 9184312823764953646,
      "prePerformCfg": ""
    },
    {
      "id": 7001603,
      "beginWay": "TALK_BEGIN_MANUAL",
      "activeMode": "PLAY_MODE_HOST",
      "beginCond": [
        {
          "type": "QUEST_COND_STATE_EQUAL",
          "_param": [
            "7001602",
            "2"
          ]
        }
      ],
      "priority": 5,
      "initDialog": 700160301,
      "npcId": [
        11007
      ],
      "performCfg": "",
      "heroTalk": "TALK_HERO_MAIN",
      "questId": 70016,
      "assetIndex": 14023146083325290767,
      "prePerformCfg": ""
    }
  ],
  "preloadLuaList": [
    14457059026087496718,
    6309389098178404237
  ],
  "forcePreloadLuaList": [
    203436214282611639
  ],
  "freeStyleDic": {
    "11007": [
      11
    ]
  }
}