{
  "id": 70021,
  "damageRatio": "WQ",
  "mainQuestTag": "MAINQUEST_TAG_ACTIVITY",
  "activeMode": "PLAY_MODE_ALL",
  "descTextMapHash": 3866463695,
  "EKEKACCODOE": 3909179358,
  "luaPath": "Actor/Quest/WQ70021",
  "suggestTrackMainQuestList": [
    70014
  ],
  "rewardIdList": [
    170021
  ],
  "activityId": 5024,
  "subQuests": [
    {
      "subId": 7002101,
      "mainId": 70021,
      "order": 1,
      "descTextMapHash": 1511774804,
      "finishCond": [
        {
          "damageRatio": "QUEST_CONTENT_COMPLETE_TALK",
          "param": [
            7002101,
            0
          ]
        }
      ],
      "guide": {
        "damageRatio": "QUEST_GUIDE_LOCATION",
        "autoGuide": "QUEST_GUIDE_AUTO_ENABLE",
        "param": [
          "Q70021guild",
          "55"
        ],
        "guideScene": 3,
        "guideStyle": "QUEST_GUIDE_STYLE_TARGET",
        "guideLayer": "QUEST_GUIDE_LAYER_SCENE",
        "MLAHIFLGIGJ": ""
      },
      "guideHint": {
        "param1": ""
      },
      "isRewind": true,
      "versionBegin": "",
      "versionEnd": ""
    },
    {
      "subId": 7002102,
      "mainId": 70021,
      "order": 2,
      "descTextMapHash": 3326263540,
      "finishCond": [
        {
          "damageRatio": "QUEST_CONTENT_COMPLETE_TALK",
          "param": [
            7002103,
            0
          ]
        },
        {
          "damageRatio": "QUEST_CONTENT_COMPLETE_TALK",
          "param": [
            7002104,
            0
          ]
        }
      ],
      "guide": {
        "damageRatio": "QUEST_GUIDE_NPC",
        "autoGuide": "QUEST_GUIDE_AUTO_ENABLE",
        "param": [
          "11007",
          "SELECT_NPC_NONE"
        ],
        "guideScene": 3,
        "guideStyle": "QUEST_GUIDE_STYLE_TARGET",
        "guideLayer": "QUEST_GUIDE_LAYER_SCENE",
        "MLAHIFLGIGJ": ""
      },
      "guideHint": {
        "param1": ""
      },
      "isRewind": true,
      "versionBegin": "",
      "versionEnd": ""
    },
    {
      "subId": 7002103,
      "mainId": 70021,
      "order": 3,
      "descTextMapHash": 2046204092,
      "showType": "QUEST_HIDDEN",
      "finishCond": [
        {
          "damageRatio": "QUEST_CONTENT_COMPLETE_TALK",
          "param": [
            7002103,
            0
          ]
        }
      ],
      "guide": {
        "MLAHIFLGIGJ": ""
      },
      "guideHint": {
        "param1": ""
      },
      "finishParent": true,
      "isRewind": true,
      "finishExec": [
        {
          "damageRatio": "QUEST_EXEC_UNREGISTER_DYNAMIC_GROUP",
          "param": [
            "133103653"
          ]
        }
      ],
      "versionBegin": "",
      "versionEnd": ""
    },
    {
      "subId": 7002104,
      "mainId": 70021,
      "order": 4,
      "descTextMapHash": 2257976820,
      "showType": "QUEST_HIDDEN",
      "finishCond": [
        {
          "damageRatio": "QUEST_CONTENT_COMPLETE_TALK",
          "param": [
            7002104,
            0
          ]
        }
      ],
      "guide": {
        "MLAHIFLGIGJ": ""
      },
      "guideHint": {
        "param1": ""
      },
      "isRewind": true,
      "finishExec": [
        {
          "damageRatio": "QUEST_EXEC_ROLLBACK_QUEST",
          "param": [
            "7002102"
          ]
        }
      ],
      "versionBegin": "",
      "versionEnd": ""
    }
  ],
  "talks": [
    {
      "id": 7002101,
      "beginWay": "TALK_BEGIN_MANUAL",
      "activeMode": "PLAY_MODE_HOST",
      "beginCond": [
        {
          "type": "QUEST_COND_STATE_EQUAL",
          "_param": [
            "7002101",
            "2"
          ]
        }
      ],
      "priority": 5,
      "initDialog": 700210101,
      "npcId": [
        11007,
        156501
      ],
      "performCfg": "QuestDialogue/WQ/MimiTomo_70024/Q7002101",
      "heroTalk": "TALK_HERO_MAIN",
      "questId": 70021,
      "assetIndex": 14495136364484929223,
      "prePerformCfg": ""
    },
    {
      "id": 7002102,
      "beginWay": "TALK_BEGIN_MANUAL",
      "activeMode": "PLAY_MODE_HOST",
      "beginCondComb": "LOGIC_AND",
      "beginCond": [
        {
          "type": "QUEST_COND_STATE_EQUAL",
          "_param": [
            "7002102",
            "2"
          ]
        },
        {
          "type": "QUEST_COND_ITEM_GIVING_ACTIVED",
          "_param": [
            "7002302"
          ]
        }
      ],
      "priority": 5,
      "initDialog": 700210201,
      "npcId": [
        11007
      ],
      "performCfg": "",
      "heroTalk": "TALK_HERO_MAIN",
      "questId": 70021,
      "assetIndex": 5515278590170461180,
      "prePerformCfg": ""
    },
    {
      "id": 7002103,
      "beginWay": "TALK_BEGIN_AUTO",
      "activeMode": "PLAY_MODE_HOST",
      "beginCondComb": "LOGIC_AND",
      "beginCond": [
        {
          "type": "QUEST_COND_STATE_EQUAL",
          "_param": [
            "7002103",
            "2"
          ]
        }
      ],
      "priority": 6,
      "initDialog": 700210301,
      "npcId": [
        11007,
        156501
      ],
      "performCfg": "QuestDialogue/WQ/MimiTomo_70024/Q7002102",
      "heroTalk": "TALK_HERO_MAIN",
      "questId": 70021,
      "assetIndex": 15483698876670300946,
      "prePerformCfg": ""
    },
    {
      "id": 7002104,
      "beginWay": "TALK_BEGIN_AUTO",
      "activeMode": "PLAY_MODE_HOST",
      "beginCondComb": "LOGIC_AND",
      "beginCond": [
        {
          "type": "QUEST_COND_STATE_EQUAL",
          "_param": [
            "7002104",
            "2"
          ]
        }
      ],
      "priority": 6,
      "initDialog": 700210401,
      "npcId": [
        11007
      ],
      "performCfg": "QuestDialogue/WQ/MimiTomo_70024/Q7002103",
      "heroTalk": "TALK_HERO_MAIN",
      "questId": 70021,
      "assetIndex": 14745853675560168189,
      "prePerformCfg": ""
    }
  ],
  "preloadLuaList": [
    14457059026087496718
  ],
  "freeStyleDic": {
    "11007": [
      11
    ]
  }
}