{
  "id": 70026,
  "damageRatio": "WQ",
  "mainQuestTag": "MAINQUEST_TAG_GUIDE",
  "descTextMapHash": 674190911,
  "EKEKACCODOE": 138237726,
  "luaPath": "Actor/Quest/WQ70026",
  "rewardIdList": [
    170026
  ],
  "subQuests": [
    {
      "subId": 7002601,
      "mainId": 70026,
      "order": 1,
      "descTextMapHash": 2432157628,
      "finishCond": [
        {
          "damageRatio": "QUEST_CONTENT_COMPLETE_TALK",
          "param": [
            7002601,
            0
          ]
        }
      ],
      "guide": {
        "damageRatio": "QUEST_GUIDE_NPC",
        "autoGuide": "QUEST_GUIDE_AUTO_ENABLE",
        "param": [
          "3004"
        ],
        "guideScene": 3,
        "guideStyle": "QUEST_GUIDE_STYLE_START",
        "guideLayer": "QUEST_GUIDE_LAYER_SCENE",
        "MLAHIFLGIGJ": ""
      },
      "guideHint": {
        "param1": ""
      },
      "isRewind": true,
      "versionBegin": "",
      "versionEnd": ""
    },
    {
      "subId": 7002602,
      "mainId": 70026,
      "order": 2,
      "descTextMapHash": 3157983804,
      "finishCond": [
        {
          "damageRatio": "QUEST_CONTENT_FINISH_PLOT",
          "param": [
            7002602,
            0
          ]
        }
      ],
      "guide": {
        "damageRatio": "QUEST_GUIDE_LOCATION",
        "autoGuide": "QUEST_GUIDE_AUTO_ENABLE",
        "param": [
          "Q70026MonsterPos",
          "35"
        ],
        "guideScene": 3,
        "guideStyle": "QUEST_GUIDE_STYLE_TARGET",
        "guideLayer": "QUEST_GUIDE_LAYER_SCENE",
        "MLAHIFLGIGJ": ""
      },
      "guideHint": {
        "param1": ""
      },
      "isRewind": true,
      "versionBegin": "",
      "versionEnd": ""
    },
    {
      "subId": 7002603,
      "mainId": 70026,
      "order": 3,
      "descTextMapHash": 3727446540,
      "finishCond": [
        {
          "damageRatio": "QUEST_CONTENT_COMPLETE_TALK",
          "param": [
            7002602,
            0
          ]
        }
      ],
      "guide": {
        "damageRatio": "QUEST_GUIDE_NPC",
        "autoGuide": "QUEST_GUIDE_AUTO_ENABLE",
        "param": [
          "3004"
        ],
        "guideScene": 3,
        "guideStyle": "QUEST_GUIDE_STYLE_TARGET",
        "guideLayer": "QUEST_GUIDE_LAYER_SCENE",
        "MLAHIFLGIGJ": ""
      },
      "guideHint": {
        "param1": ""
      },
      "isRewind": true,
      "versionBegin": "",
      "versionEnd": ""
    },
    {
      "subId": 7002604,
      "mainId": 70026,
      "order": 4,
      "descTextMapHash": 3568777444,
      "finishCond": [
        {
          "damageRatio": "QUEST_CONTENT_COMPLETE_TALK",
          "param": [
            7002603,
            0
          ]
        }
      ],
      "guide": {
        "damageRatio": "QUEST_GUIDE_NPC",
        "autoGuide": "QUEST_GUIDE_AUTO_ENABLE",
        "param": [
          "30068"
        ],
        "guideScene": 3,
        "guideStyle": "QUEST_GUIDE_STYLE_TARGET",
        "guideLayer": "QUEST_GUIDE_LAYER_SCENE",
        "MLAHIFLGIGJ": ""
      },
      "guideHint": {
        "param1": ""
      },
      "finishParent": true,
      "isRewind": true,
      "versionBegin": "",
      "versionEnd": ""
    }
  ],
  "talks": [
    {
      "id": 7002601,
      "beginWay": "TALK_BEGIN_MANUAL",
      "beginCond": [
        {
          "type": "QUEST_COND_STATE_EQUAL",
          "_param": [
            "7002601",
            "2"
          ]
        }
      ],
      "priority": 5,
      "initDialog": 700260101,
      "npcId": [
        3004
      ],
      "performCfg": "",
      "heroTalk": "TALK_HERO_MAIN",
      "questId": 70026,
      "assetIndex": 14367927446263459300,
      "prePerformCfg": "",
      "freeStyleList": [
        1200,
        1171,
        1172,
        1173,
        1190,
        5010,
        1130
      ]
    },
    {
      "id": 7002602,
      "beginWay": "TALK_BEGIN_MANUAL",
      "beginCond": [
        {
          "type": "QUEST_COND_STATE_EQUAL",
          "_param": [
            "7002603",
            "2"
          ]
        }
      ],
      "priority": 5,
      "initDialog": 700260201,
      "npcId": [
        3004
      ],
      "performCfg": "",
      "heroTalk": "TALK_HERO_MAIN",
      "questId": 70026,
      "assetIndex": 8302177498492527222,
      "prePerformCfg": "",
      "freeStyleList": [
        1171,
        1172,
        1173,
        1190,
        1160,
        1050
      ]
    },
    {
      "id": 7002603,
      "beginWay": "TALK_BEGIN_MANUAL",
      "beginCond": [
        {
          "type": "QUEST_COND_STATE_EQUAL",
          "_param": [
            "7002604",
            "2"
          ]
        }
      ],
      "priority": 5,
      "initDialog": 700260301,
      "npcId": [
        30068
      ],
      "performCfg": "",
      "heroTalk": "TALK_HERO_MAIN",
      "questId": 70026,
      "assetIndex": 7683887885170665911,
      "prePerformCfg": "",
      "freeStyleList": [
        1120,
        1160,
        1110,
        1170,
        1180,
        1190,
        1171,
        1172,
        1173,
        5010,
        1150,
        1130
      ]
    }
  ]
}