{
  "id": 70039,
  "damageRatio": "WQ",
  "descTextMapHash": 3359757895,
  "luaPath": "Actor/Quest/WQ70039",
  "showType": "QUEST_HIDDEN",
  "subQuests": [
    {
      "subId": 7003901,
      "mainId": 70039,
      "order": 1,
      "showType": "QUEST_HIDDEN",
      "finishCond": [
        {
          "damageRatio": "QUEST_CONTENT_GAME_TIME_TICK",
          "param": [
            0,
            0
          ]
        }
      ],
      "guide": {
        "MLAHIFLGIGJ": ""
      },
      "guideHint": {
        "param1": ""
      },
      "finishParent": true,
      "isRewind": true,
      "finishExec": [
        {
          "damageRatio": "QUEST_EXEC_SET_QUEST_GLOBAL_VAR",
          "param": [
            "2002901",
            "1"
          ]
        }
      ],
      "versionBegin": "",
      "versionEnd": ""
    }
  ]
}