{
  "id": 70145,
  "damageRatio": "WQ",
  "activeMode": "PLAY_MODE_ALL",
  "descTextMapHash": 2038612863,
  "luaPath": "Actor/Quest/WQ70145",
  "showType": "QUEST_HIDDEN",
  "subQuests": [
    {
      "subId": 7014501,
      "mainId": 70145,
      "order": 1,
      "showType": "QUEST_HIDDEN",
      "guide": {
        "MLAHIFLGIGJ": ""
      },
      "showGuide": "QUEST_GUIDE_ITEM_DISABLE",
      "guideHint": {
        "param1": ""
      },
      "finishParent": true,
      "failParentShow": "QUEST_HIDDEN",
      "isRewind": true,
      "versionBegin": "",
      "versionEnd": ""
    }
  ]
}