{
  "id": 70529,
  "damageRatio": "WQ",
  "mainQuestTag": "MAINQUEST_TAG_GUIDE",
  "activeMode": "PLAY_MODE_ALL",
  "descTextMapHash": 4161752407,
  "EKEKACCODOE": 36490622,
  "luaPath": "Actor/Quest/WQ70529",
  "rewardIdList": [
    170529
  ],
  "showRedPoint": true,
  "activityId": 2020,
  "subQuests": [
    {
      "subId": 7052901,
      "mainId": 70529,
      "order": 1,
      "descTextMapHash": 623309148,
      "finishCond": [
        {
          "damageRatio": "QUEST_CONTENT_FINISH_PLOT",
          "param": [
            7052901,
            0
          ]
        }
      ],
      "guide": {
        "damageRatio": "QUEST_GUIDE_LOCATION",
        "autoGuide": "QUEST_GUIDE_AUTO_ENABLE",
        "param": [
          "guide_N30046_Q7052901",
          "30"
        ],
        "guideScene": 3,
        "guideStyle": "QUEST_GUIDE_STYLE_POINT",
        "guideLayer": "QUEST_GUIDE_LAYER_SCENE",
        "MLAHIFLGIGJ": ""
      },
      "guideHint": {
        "param1": ""
      },
      "isRewind": true,
      "versionBegin": "",
      "versionEnd": ""
    },
    {
      "subId": 7052902,
      "mainId": 70529,
      "order": 2,
      "descTextMapHash": 901648884,
      "finishCond": [
        {
          "damageRatio": "QUEST_CONTENT_COMPLETE_TALK",
          "param": [
            7052902,
            0
          ]
        }
      ],
      "guide": {
        "damageRatio": "QUEST_GUIDE_NPC",
        "autoGuide": "QUEST_GUIDE_AUTO_ENABLE",
        "param": [
          "30046"
        ],
        "guideScene": 3,
        "guideStyle": "QUEST_GUIDE_STYLE_TARGET",
        "guideLayer": "QUEST_GUIDE_LAYER_SCENE",
        "MLAHIFLGIGJ": ""
      },
      "guideHint": {
        "param1": ""
      },
      "finishParent": true,
      "isRewind": true,
      "versionBegin": "",
      "versionEnd": ""
    }
  ],
  "talks": [
    {
      "id": 7052902,
      "beginWay": "TALK_BEGIN_MANUAL",
      "activeMode": "PLAY_MODE_HOST",
      "beginCond": [
        {
          "type": "QUEST_COND_STATE_EQUAL",
          "_param": [
            "7052902",
            "2"
          ]
        }
      ],
      "priority": 5,
      "initDialog": 705290201,
      "npcId": [
        30046
      ],
      "performCfg": "QuestDialogue/WQ/70529/Q7052902",
      "heroTalk": "TALK_HERO_MAIN",
      "questId": 70529,
      "assetIndex": 8097896541621163037,
      "prePerformCfg": "",
      "forceNpcNotDestroy": true
    }
  ],
  "preloadLuaList": [
    7438540366552354712
  ],
  "forcePreloadLuaList": [
    2441002261847193376
  ]
}