{
  "id": 70539,
  "damageRatio": "WQ",
  "mainQuestTag": "MAINQUEST_TAG_GUIDE",
  "descTextMapHash": 226446895,
  "EKEKACCODOE": 3548287534,
  "luaPath": "Actor/Quest/WQ70539",
  "rewardIdList": [
    170539
  ],
  "showRedPoint": true,
  "activityId": 5183,
  "subQuests": [
    {
      "subId": 7053901,
      "mainId": 70539,
      "order": 2,
      "descTextMapHash": 2186317508,
      "JIFODJPFKDF": [
        300401
      ],
      "finishCond": [
        {
          "damageRatio": "QUEST_CONTENT_COMPLETE_TALK",
          "param": [
            7053901,
            0
          ]
        }
      ],
      "guide": {
        "damageRatio": "QUEST_GUIDE_NPC",
        "param": [
          "1431"
        ],
        "guideScene": 3,
        "guideStyle": "QUEST_GUIDE_STYLE_TARGET",
        "guideLayer": "QUEST_GUIDE_LAYER_SCENE",
        "MLAHIFLGIGJ": ""
      },
      "guideHint": {
        "param1": ""
      },
      "isRewind": true,
      "finishExec": [
        {
          "damageRatio": "QUEST_EXEC_UNLOCK_POINT",
          "param": [
            "3",
            "1160,1159"
          ]
        }
      ],
      "versionBegin": "",
      "versionEnd": ""
    },
    {
      "subId": 7053902,
      "mainId": 70539,
      "order": 3,
      "descTextMapHash": 1327694140,
      "finishCond": [
        {
          "damageRatio": "QUEST_CONTENT_COMPLETE_TALK",
          "param": [
            7053902,
            0
          ]
        }
      ],
      "guide": {
        "damageRatio": "QUEST_GUIDE_LOCATION",
        "param": [
          "[1090_1:-0.084,0.000,8.221]"
        ],
        "guideScene": 1090,
        "guideStyle": "QUEST_GUIDE_STYLE_POINT",
        "guideLayer": "QUEST_GUIDE_LAYER_SCENE",
        "MLAHIFLGIGJ": ""
      },
      "guideHint": {
        "param1": ""
      },
      "finishParent": true,
      "isRewind": true,
      "finishExec": [
        {
          "damageRatio": "QUEST_EXEC_NOTIFY_GROUP_LUA",
          "param": [
            "1090",
            "201090008"
          ]
        }
      ],
      "versionBegin": "",
      "versionEnd": ""
    },
    {
      "subId": 7053903,
      "mainId": 70539,
      "order": 1,
      "showType": "QUEST_HIDDEN",
      "finishCond": [
        {
          "damageRatio": "QUEST_CONTENT_FINISH_PLOT",
          "param": [
            7053903,
            0
          ]
        }
      ],
      "guide": {
        "MLAHIFLGIGJ": ""
      },
      "guideHint": {
        "param1": ""
      },
      "isRewind": true,
      "versionBegin": "",
      "versionEnd": ""
    }
  ],
  "talks": [
    {
      "id": 7053901,
      "beginWay": "TALK_BEGIN_MANUAL",
      "beginCond": [
        {
          "type": "QUEST_COND_STATE_EQUAL",
          "_param": [
            "7053901",
            "2"
          ]
        }
      ],
      "priority": 5,
      "initDialog": 705390101,
      "npcId": [
        1431,
        30531
      ],
      "performCfg": "QuestDialogue/WQ/V4.5CatCafe_70539/Q7053901",
      "heroTalk": "TALK_HERO_MAIN",
      "questId": 70539,
      "assetIndex": 4140074054319127912,
      "prePerformCfg": "",
      "lockGameTime": true,
      "forceNpcNotDestroy": true,
      "CHAKPMBJNAJ": [
        "[3_7906:2244.008,213.990,-899.361,0.000,246.220,0.000]",
        "[3_7907:2243.045,213.990,-900.421,0.000,258.100,0.000]",
        "[3_7908:2240.571,213.990,-902.454]",
        "[3_7909:2240.954,213.990,-901.096,0.000,195.880,0.000]"
      ]
    },
    {
      "id": 7053902,
      "beginWay": "TALK_BEGIN_MANUAL",
      "beginCond": [
        {
          "type": "QUEST_COND_STATE_EQUAL",
          "_param": [
            "7053902",
            "2"
          ]
        }
      ],
      "priority": 5,
      "initDialog": 705390201,
      "npcId": [
        30531
      ],
      "performCfg": "QuestDialogue/WQ/V4.5CatCafe_70539/Q7053902",
      "heroTalk": "TALK_HERO_MAIN",
      "questId": 70539,
      "assetIndex": 4764814051890865416,
      "prePerformCfg": "",
      "lockGameTime": true,
      "forceNpcNotDestroy": true,
      "CHAKPMBJNAJ": [
        "[1090_2:0.187,0.000,7.495]",
        "[1090_3:-1.953,0.000,7.679,0.000,36.660,0.000]",
        "[1090_4:-0.543,0.003,10.900,0.000,181.260,0.000]",
        "[1090_5:1.456,0.000,10.324,0.000,193.980,0.000]",
        "[1090_7:0.066,0.973,12.964,0.000,173.250,0.000]"
      ]
    }
  ],
  "LNMELPHNIDD": true
}