{
  "id": 70535,
  "damageRatio": "WQ",
  "mainQuestTag": "MAINQUEST_TAG_GUIDE",
  "descTextMapHash": 1166474839,
  "EKEKACCODOE": 4143778382,
  "luaPath": "Actor/Quest/WQ70535",
  "rewardIdList": [
    170535
  ],
  "showRedPoint": true,
  "activityId": 5160,
  "subQuests": [
    {
      "subId": 7053501,
      "mainId": 70535,
      "order": 1,
      "showType": "QUEST_HIDDEN",
      "finishCond": [
        {
          "damageRatio": "QUEST_CONTENT_FINISH_PLOT",
          "param": [
            7053501,
            0
          ]
        }
      ],
      "guide": {
        "param": [
          "30"
        ],
        "guideScene": 3,
        "MLAHIFLGIGJ": ""
      },
      "showGuide": "QUEST_GUIDE_ITEM_DISABLE",
      "guideHint": {
        "param1": ""
      },
      "failParentShow": "QUEST_HIDDEN",
      "isRewind": true,
      "versionBegin": "",
      "versionEnd": ""
    },
    {
      "subId": 7053502,
      "mainId": 70535,
      "order": 2,
      "descTextMapHash": 1740726668,
      "JIFODJPFKDF": [
        1012001
      ],
      "finishCond": [
        {
          "damageRatio": "QUEST_CONTENT_COMPLETE_TALK",
          "param": [
            7053502,
            0
          ]
        }
      ],
      "guide": {
        "damageRatio": "QUEST_GUIDE_LOCATION",
        "param": [
          "[1004_234:-16.567,0.000,10.811,0.000,214.556,0.000]",
          "10"
        ],
        "guideScene": 1004,
        "guideStyle": "QUEST_GUIDE_STYLE_TARGET",
        "guideLayer": "QUEST_GUIDE_LAYER_SCENE",
        "MLAHIFLGIGJ": ""
      },
      "guideHint": {
        "param1": ""
      },
      "isRewind": true,
      "versionBegin": "",
      "versionEnd": ""
    },
    {
      "subId": 7053503,
      "mainId": 70535,
      "order": 3,
      "descTextMapHash": 2720102404,
      "finishCond": [
        {
          "damageRatio": "QUEST_CONTENT_COMPLETE_TALK",
          "param": [
            7053503,
            0
          ]
        }
      ],
      "guide": {
        "damageRatio": "QUEST_GUIDE_LOCATION",
        "param": [
          "[3_5744:2208.195,230.089,-803.176,0.000,269.884,0.000]"
        ],
        "guideScene": 3,
        "guideStyle": "QUEST_GUIDE_STYLE_POINT",
        "guideLayer": "QUEST_GUIDE_LAYER_SCENE",
        "MLAHIFLGIGJ": ""
      },
      "guideHint": {
        "param1": ""
      },
      "finishParent": true,
      "isRewind": true,
      "versionBegin": "",
      "versionEnd": ""
    }
  ],
  "talks": [
    {
      "id": 7053502,
      "beginWay": "TALK_BEGIN_MANUAL",
      "beginCond": [
        {
          "type": "QUEST_COND_STATE_EQUAL",
          "_param": [
            "7053502",
            "2"
          ]
        }
      ],
      "priority": 5,
      "initDialog": 705350201,
      "npcId": [
        10090,
        1007
      ],
      "performCfg": "QuestDialogue/WQ/Fishblaster_70535/Q7053502",
      "heroTalk": "TALK_HERO_MAIN",
      "questId": 70535,
      "assetIndex": 1842916093671890929,
      "prePerformCfg": "",
      "CHAKPMBJNAJ": [
        "[1004_235:-17.092,0.000,9.653,0.000,23.592,0.000]"
      ]
    },
    {
      "id": 7053503,
      "beginWay": "TALK_BEGIN_MANUAL",
      "beginCond": [
        {
          "type": "QUEST_COND_STATE_EQUAL",
          "_param": [
            "7053503",
            "2"
          ]
        }
      ],
      "priority": 5,
      "initDialog": 705350301,
      "npcId": [
        10090
      ],
      "performCfg": "QuestDialogue/WQ/Fishblaster_70535/Q7053503",
      "heroTalk": "TALK_HERO_MAIN",
      "questId": 70535,
      "assetIndex": 10342393546114061089,
      "prePerformCfg": "",
      "lockGameTime": true,
      "CHAKPMBJNAJ": [
        "[3_5744:2208.195,230.089,-803.176,0.000,269.884,0.000]"
      ]
    }
  ],
  "preloadLuaList": [
    3958618578976986035
  ]
}