{
  "id": 70536,
  "damageRatio": "WQ",
  "mainQuestTag": "MAINQUEST_TAG_ACTIVITY",
  "descTextMapHash": 1976520095,
  "EKEKACCODOE": 3433307006,
  "luaPath": "Actor/Quest/WQ70536",
  "rewardIdList": [
    170536
  ],
  "showRedPoint": true,
  "activityId": 5160,
  "subQuests": [
    {
      "subId": 7053601,
      "mainId": 70536,
      "order": 1,
      "descTextMapHash": 2911632924,
      "finishCond": [
        {
          "damageRatio": "QUEST_CONTENT_COMPLETE_TALK",
          "param": [
            7053601,
            0
          ]
        }
      ],
      "guide": {
        "damageRatio": "QUEST_GUIDE_NPC",
        "param": [
          "10090"
        ],
        "guideScene": 3,
        "guideStyle": "QUEST_GUIDE_STYLE_TARGET",
        "guideLayer": "QUEST_GUIDE_LAYER_SCENE",
        "MLAHIFLGIGJ": ""
      },
      "guideHint": {
        "param1": ""
      },
      "isRewind": true,
      "versionBegin": "",
      "versionEnd": ""
    },
    {
      "subId": 7053602,
      "mainId": 70536,
      "order": 2,
      "showType": "QUEST_HIDDEN",
      "finishCond": [
        {
          "damageRatio": "QUEST_CONTENT_QUEST_STATE_EQUAL",
          "param": [
            7053601,
            3
          ]
        }
      ],
      "guide": {
        "MLAHIFLGIGJ": ""
      },
      "guideHint": {
        "param1": ""
      },
      "finishParent": true,
      "isRewind": true,
      "versionBegin": "",
      "versionEnd": ""
    },
    {
      "subId": 7053603,
      "mainId": 70536,
      "order": 3,
      "showType": "QUEST_HIDDEN",
      "finishCond": [
        {
          "damageRatio": "QUEST_CONTENT_QUEST_STATE_EQUAL",
          "param": [
            7053601,
            3
          ]
        }
      ],
      "guide": {
        "MLAHIFLGIGJ": ""
      },
      "guideHint": {
        "param1": ""
      },
      "finishParent": true,
      "isRewind": true,
      "versionBegin": "",
      "versionEnd": ""
    }
  ],
  "talks": [
    {
      "id": 7053601,
      "beginWay": "TALK_BEGIN_MANUAL",
      "beginCond": [
        {
          "type": "QUEST_COND_STATE_EQUAL",
          "_param": [
            "7053601",
            "2"
          ]
        }
      ],
      "priority": 5,
      "initDialog": 705360101,
      "npcId": [
        10090,
        1007
      ],
      "performCfg": "QuestDialogue/WQ/Fishblaster_70536/Q7053601",
      "heroTalk": "TALK_HERO_MAIN",
      "questId": 70536,
      "assetIndex": 333017360981153032,
      "prePerformCfg": "",
      "CHAKPMBJNAJ": [
        "[3_5742:2207.302,230.089,-804.911,0.000,81.479,0.000]"
      ]
    }
  ]
}