{
  "id": 70541,
  "damageRatio": "WQ",
  "mainQuestTag": "MAINQUEST_TAG_ACTIVITY",
  "descTextMapHash": 4221595823,
  "EKEKACCODOE": 1437120502,
  "luaPath": "Actor/Quest/WQ70541",
  "rewardIdList": [
    170541
  ],
  "specialShowRewardId": [
    33486
  ],
  "activityId": 5183,
  "subQuests": [
    {
      "subId": 7054101,
      "mainId": 70541,
      "order": 1,
      "descTextMapHash": 3094819980,
      "finishCond": [
        {
          "damageRatio": "QUEST_CONTENT_COMPLETE_TALK",
          "param": [
            7054101,
            0
          ]
        }
      ],
      "guide": {
        "damageRatio": "QUEST_GUIDE_LOCATION",
        "param": [
          "[1090_1:-0.084,0.000,8.221]"
        ],
        "guideScene": 1090,
        "guideStyle": "QUEST_GUIDE_STYLE_POINT",
        "guideLayer": "QUEST_GUIDE_LAYER_SCENE",
        "MLAHIFLGIGJ": ""
      },
      "guideHint": {
        "param1": ""
      },
      "finishParent": true,
      "isRewind": true,
      "versionBegin": "",
      "versionEnd": ""
    }
  ],
  "talks": [
    {
      "id": 7054101,
      "beginWay": "TALK_BEGIN_MANUAL",
      "beginCond": [
        {
          "type": "QUEST_COND_STATE_EQUAL",
          "_param": [
            "7054101",
            "2"
          ]
        }
      ],
      "priority": 5,
      "initDialog": 705410101,
      "npcId": [
        30531
      ],
      "performCfg": "QuestDialogue/WQ/V4.5CatCafe_70539/Q7054101",
      "heroTalk": "TALK_HERO_MAIN",
      "questId": 70541,
      "assetIndex": 14816004447823107758,
      "prePerformCfg": "",
      "lockGameTime": true,
      "forceNpcNotDestroy": true,
      "CHAKPMBJNAJ": [
        "[1090_2:0.187,0.000,7.495]",
        "[1090_3:-1.953,0.000,7.679,0.000,36.660,0.000]",
        "[1090_4:-0.543,0.003,10.900,0.000,181.260,0.000]",
        "[1090_5:1.456,0.000,10.324,0.000,193.980,0.000]",
        "[1090_6:2.380,0.000,7.032,0.000,327.170,0.000]",
        "[1090_7:0.066,0.973,12.964,0.000,173.250,0.000]"
      ]
    }
  ],
  "LNMELPHNIDD": true
}