{
  "id": 70546,
  "damageRatio": "WQ",
  "mainQuestTag": "MAINQUEST_TAG_GUIDE",
  "descTextMapHash": 1309790335,
  "EKEKACCODOE": 1673716030,
  "luaPath": "Actor/Quest/WQ70546",
  "rewardIdList": [
    170546
  ],
  "showRedPoint": true,
  "activityId": 5204,
  "subQuests": [
    {
      "subId": 7054601,
      "mainId": 70546,
      "order": 1,
      "descTextMapHash": 1379544764,
      "finishCond": [
        {
          "damageRatio": "QUEST_CONTENT_COMPLETE_TALK",
          "param": [
            7054601,
            0
          ]
        }
      ],
      "guide": {
        "damageRatio": "QUEST_GUIDE_NPC",
        "param": [
          "30610"
        ],
        "guideScene": 3,
        "guideStyle": "QUEST_GUIDE_STYLE_TARGET",
        "guideLayer": "QUEST_GUIDE_LAYER_SCENE",
        "MLAHIFLGIGJ": ""
      },
      "guideHint": {
        "param1": ""
      },
      "finishParent": true,
      "isRewind": true,
      "versionBegin": "",
      "versionEnd": ""
    }
  ],
  "talks": [
    {
      "id": 7054601,
      "beginWay": "TALK_BEGIN_MANUAL",
      "beginCond": [
        {
          "type": "QUEST_COND_STATE_EQUAL",
          "_param": [
            "7054601",
            "2"
          ]
        }
      ],
      "priority": 5,
      "initDialog": 705460101,
      "npcId": [
        30610
      ],
      "performCfg": "QuestDialogue/WQ/Mengde_70546/Q7054601",
      "heroTalk": "TALK_HERO_MAIN",
      "questId": 70546,
      "assetIndex": 18333463744787556002,
      "prePerformCfg": "",
      "CHAKPMBJNAJ": [
        "[3_300401899:2207.455,230.089,-804.249,0.000,35.966,0.000]",
        "[3_300401900:2207.931,230.089,-803.291,0.000,214.971,0.000]",
        "[3_9305:2208.900,230.089,-802.525,0.000,310.324,0.000]",
        "[3_9306:2209.107,230.089,-801.605,0.000,245.963,0.000]"
      ]
    }
  ],
  "preloadLuaList": [
    7420495444590149375
  ],
  "forcePreloadLuaList": [
    786526950295840218
  ],
  "freeStyleDic": {
    "30610": [
      1060
    ],
    "30617": [
      1230
    ]
  },
  "LNMELPHNIDD": true
}