{
  "id": 70540,
  "damageRatio": "WQ",
  "mainQuestTag": "MAINQUEST_TAG_ACTIVITY",
  "descTextMapHash": 1137533423,
  "EKEKACCODOE": 4232137926,
  "luaPath": "Actor/Quest/WQ70540",
  "rewardIdList": [
    170540
  ],
  "activityId": 5183,
  "subQuests": [
    {
      "subId": 7054001,
      "mainId": 70540,
      "order": 2,
      "descTextMapHash": 2757678820,
      "finishCond": [
        {
          "damageRatio": "QUEST_CONTENT_COMPLETE_TALK",
          "param": [
            7054001,
            0
          ]
        }
      ],
      "guide": {
        "damageRatio": "QUEST_GUIDE_LOCATION",
        "param": [
          "[1090_20:0.072,0.000,9.005]"
        ],
        "guideScene": 1090,
        "guideStyle": "QUEST_GUIDE_STYLE_POINT",
        "guideLayer": "QUEST_GUIDE_LAYER_SCENE",
        "MLAHIFLGIGJ": ""
      },
      "guideHint": {
        "param1": ""
      },
      "finishParent": true,
      "isRewind": true,
      "finishExec": [
        {
          "damageRatio": "QUEST_EXEC_NOTIFY_GROUP_LUA",
          "param": [
            "1090",
            "201090006"
          ]
        }
      ],
      "versionBegin": "",
      "versionEnd": ""
    },
    {
      "subId": 7054002,
      "mainId": 70540,
      "order": 1,
      "descTextMapHash": 47804772,
      "finishCond": [
        {
          "damageRatio": "QUEST_CONTENT_GAME_TIME_TICK",
          "param": [
            1,
            0
          ]
        }
      ],
      "guide": {
        "MLAHIFLGIGJ": ""
      },
      "guideHint": {
        "param1": ""
      },
      "isRewind": true,
      "versionBegin": "",
      "versionEnd": ""
    }
  ],
  "talks": [
    {
      "id": 7054001,
      "beginWay": "TALK_BEGIN_MANUAL",
      "beginCond": [
        {
          "type": "QUEST_COND_STATE_EQUAL",
          "_param": [
            "7054001",
            "2"
          ]
        }
      ],
      "priority": 5,
      "initDialog": 705400101,
      "npcId": [
        30531
      ],
      "performCfg": "QuestDialogue/WQ/V4.5CatCafe_70539/Q7054001",
      "heroTalk": "TALK_HERO_MAIN",
      "questId": 70540,
      "assetIndex": 9976128343189506957,
      "prePerformCfg": "",
      "lockGameTime": true,
      "forceNpcNotDestroy": true,
      "CHAKPMBJNAJ": [
        "[1090_2:0.187,0.000,7.495]",
        "[1090_3:-1.953,0.000,7.679,0.000,36.660,0.000]",
        "[1090_4:-0.543,0.003,10.900,0.000,181.260,0.000]",
        "[1090_5:1.456,0.000,10.324,0.000,193.980,0.000]",
        "[1090_7:0.066,0.973,12.964,0.000,173.250,0.000]"
      ]
    }
  ],
  "LNMELPHNIDD": true
}