{
  "id": 70650,
  "KPGKDHAFHFE": "WQ",
  "titleTextMapHash": 3409554583,
  "descTextMapHash": 114938430,
  "luaPath": "Actor/Quest/WQ70650",
  "rewardIdList": [
    170650
  ],
  "showRedPoint": true,
  "subQuests": [
    {
      "subId": 7065001,
      "mainId": 70650,
      "order": 1,
      "descTextMapHash": 203548972,
      "finishCond": [
        {
          "KPGKDHAFHFE": "QUEST_CONTENT_COMPLETE_TALK",
          "param": [
            7065001,
            0
          ]
        },
        {
          "KPGKDHAFHFE": "QUEST_CONTENT_COMPLETE_TALK",
          "param": [
            7065003,
            0
          ]
        }
      ],
      "guide": {
        "KPGKDHAFHFE": "QUEST_GUIDE_NPC",
        "param": [
          "1663"
        ],
        "guideScene": 3,
        "guideStyle": "QUEST_GUIDE_STYLE_START"
      },
      "guideHint": {
        "param1": ""
      },
      "isRewind": true,
      "versionBegin": "",
      "versionEnd": ""
    },
    {
      "subId": 7065002,
      "mainId": 70650,
      "order": 2,
      "descTextMapHash": 3285571268,
      "showType": "QUEST_HIDDEN",
      "finishCond": [
        {
          "KPGKDHAFHFE": "QUEST_CONTENT_COMPLETE_TALK",
          "param": [
            7065002,
            0
          ]
        },
        {
          "KPGKDHAFHFE": "QUEST_CONTENT_COMPLETE_TALK",
          "param": [
            7065004,
            0
          ]
        }
      ],
      "guide": {},
      "guideHint": {
        "param1": ""
      },
      "finishParent": true,
      "versionBegin": "",
      "versionEnd": ""
    }
  ]
}