{
  "id": 70665,
  "KPGKDHAFHFE": "WQ",
  "mainQuestTag": "MAINQUEST_TAG_GUIDE",
  "activeMode": "PLAY_MODE_ALL",
  "titleTextMapHash": 1351580231,
  "descTextMapHash": 3979163358,
  "luaPath": "Actor/Quest/WQ70665",
  "rewardIdList": [
    170665
  ],
  "specialShowRewardId": [
    40201
  ],
  "chapterId": 10106,
  "showRedPoint": true,
  "subQuests": [
    {
      "subId": 7066501,
      "mainId": 70665,
      "order": 1,
      "descTextMapHash": 2896566772,
      "finishCond": [
        {
          "KPGKDHAFHFE": "QUEST_CONTENT_COMPLETE_TALK",
          "param": [
            7066501,
            0
          ]
        },
        {
          "KPGKDHAFHFE": "QUEST_CONTENT_COMPLETE_TALK",
          "param": [
            7066534,
            0
          ]
        }
      ],
      "guide": {
        "KPGKDHAFHFE": "QUEST_GUIDE_NPC",
        "param": [
          "1019"
        ],
        "guideScene": 3,
        "guideStyle": "QUEST_GUIDE_STYLE_TARGET",
        "guideLayer": "QUEST_GUIDE_LAYER_SCENE"
      },
      "guideHint": {
        "param1": ""
      },
      "isRewind": true,
      "finishExec": [
        {
          "KPGKDHAFHFE": "QUEST_EXEC_UNLOCK_POINT",
          "param": [
            "3",
            "648"
          ]
        },
        {
          "KPGKDHAFHFE": "QUEST_EXEC_UNLOCK_POINT",
          "param": [
            "3",
            "649"
          ]
        }
      ],
      "versionBegin": "",
      "versionEnd": ""
    },
    {
      "subId": 7066502,
      "mainId": 70665,
      "order": 2,
      "descTextMapHash": 1855745844,
      "stepDescTextMapHash": 2564054621,
      "finishCond": [
        {
          "KPGKDHAFHFE": "QUEST_CONTENT_ENTER_ROOM",
          "param": [
            1076,
            0
          ]
        }
      ],
      "guide": {
        "KPGKDHAFHFE": "QUEST_GUIDE_NPC",
        "param": [
          "1431"
        ],
        "guideScene": 1076,
        "guideStyle": "QUEST_GUIDE_STYLE_TARGET",
        "guideLayer": "QUEST_GUIDE_LAYER_SCENE"
      },
      "guideHint": {
        "param1": ""
      },
      "isRewind": true,
      "versionBegin": "",
      "versionEnd": ""
    },
    {
      "subId": 7066503,
      "mainId": 70665,
      "order": 3,
      "descTextMapHash": 4287919772,
      "finishCond": [
        {
          "KPGKDHAFHFE": "QUEST_CONTENT_COMPLETE_TALK",
          "param": [
            7066504,
            0
          ]
        },
        {
          "KPGKDHAFHFE": "QUEST_CONTENT_COMPLETE_TALK",
          "param": [
            7066505,
            0
          ]
        }
      ],
      "guide": {
        "KPGKDHAFHFE": "QUEST_GUIDE_NPC",
        "param": [
          "1431"
        ],
        "guideScene": 1076,
        "guideStyle": "QUEST_GUIDE_STYLE_TARGET",
        "guideLayer": "QUEST_GUIDE_LAYER_SCENE"
      },
      "guideHint": {
        "param1": ""
      },
      "isRewind": true,
      "versionBegin": "",
      "versionEnd": ""
    },
    {
      "subId": 7066504,
      "mainId": 70665,
      "order": 4,
      "descTextMapHash": 4051449308,
      "finishCond": [
        {
          "KPGKDHAFHFE": "QUEST_CONTENT_FINISH_PLOT",
          "param": [
            7066504,
            0
          ]
        }
      ],
      "guide": {
        "KPGKDHAFHFE": "QUEST_GUIDE_NPC",
        "param": [
          "1061"
        ],
        "guideScene": 1076,
        "guideStyle": "QUEST_GUIDE_STYLE_TARGET",
        "guideLayer": "QUEST_GUIDE_LAYER_SCENE"
      },
      "guideHint": {
        "param1": ""
      },
      "isRewind": true,
      "versionBegin": "",
      "versionEnd": ""
    },
    {
      "subId": 7066505,
      "mainId": 70665,
      "order": 5,
      "descTextMapHash": 2684700108,
      "finishCond": [
        {
          "KPGKDHAFHFE": "QUEST_CONTENT_GCG_GUIDE_PROGRESS",
          "param": [
            1,
            0
          ],
          "count": 4
        }
      ],
      "guide": {
        "KPGKDHAFHFE": "QUEST_GUIDE_NPC",
        "param": [
          "1061"
        ],
        "guideScene": 1076,
        "guideStyle": "QUEST_GUIDE_STYLE_TARGET",
        "guideLayer": "QUEST_GUIDE_LAYER_SCENE"
      },
      "guideHint": {
        "param1": ""
      },
      "isRewind": true,
      "versionBegin": "",
      "versionEnd": ""
    },
    {
      "subId": 7066506,
      "mainId": 70665,
      "order": 7,
      "descTextMapHash": 3639796860,
      "finishCond": [
        {
          "KPGKDHAFHFE": "QUEST_CONTENT_FINISH_PLOT",
          "param": [
            7066506,
            0
          ]
        }
      ],
      "guide": {
        "KPGKDHAFHFE": "QUEST_GUIDE_NPC",
        "param": [
          "1061"
        ],
        "guideScene": 1076,
        "guideStyle": "QUEST_GUIDE_STYLE_TARGET",
        "guideLayer": "QUEST_GUIDE_LAYER_SCENE"
      },
      "guideHint": {
        "param1": ""
      },
      "isRewind": true,
      "versionBegin": "",
      "versionEnd": ""
    },
    {
      "subId": 7066507,
      "mainId": 70665,
      "order": 8,
      "descTextMapHash": 2665538996,
      "finishCond": [
        {
          "KPGKDHAFHFE": "QUEST_CONTENT_GCG_LEVEL_WIN",
          "param": [
            30111,
            1
          ]
        }
      ],
      "guide": {
        "KPGKDHAFHFE": "QUEST_GUIDE_NPC",
        "param": [
          "1019"
        ],
        "guideScene": 1076,
        "guideStyle": "QUEST_GUIDE_STYLE_TARGET",
        "guideLayer": "QUEST_GUIDE_LAYER_SCENE"
      },
      "guideHint": {
        "param1": ""
      },
      "isRewind": true,
      "versionBegin": "",
      "versionEnd": ""
    },
    {
      "subId": 7066508,
      "mainId": 70665,
      "order": 10,
      "descTextMapHash": 1986881692,
      "finishCond": [
        {
          "KPGKDHAFHFE": "QUEST_CONTENT_COMPLETE_TALK",
          "param": [
            7066516,
            0
          ]
        }
      ],
      "guide": {
        "KPGKDHAFHFE": "QUEST_GUIDE_NPC",
        "param": [
          "1019"
        ],
        "guideScene": 1076,
        "guideStyle": "QUEST_GUIDE_STYLE_TARGET",
        "guideLayer": "QUEST_GUIDE_LAYER_SCENE"
      },
      "guideHint": {
        "param1": ""
      },
      "isRewind": true,
      "finishExec": [
        {
          "KPGKDHAFHFE": "QUEST_EXEC_REFRESH_GROUP_SUITE",
          "param": [
            "1076",
            "201076003,1"
          ]
        }
      ],
      "versionBegin": "",
      "versionEnd": ""
    },
    {
      "subId": 7066509,
      "mainId": 70665,
      "order": 11,
      "descTextMapHash": 2761329196,
      "finishCond": [
        {
          "KPGKDHAFHFE": "QUEST_CONTENT_COMPLETE_TALK",
          "param": [
            7066518,
            0
          ]
        }
      ],
      "guide": {
        "KPGKDHAFHFE": "QUEST_GUIDE_NPC",
        "param": [
          "1712"
        ],
        "guideScene": 1076,
        "guideStyle": "QUEST_GUIDE_STYLE_TARGET",
        "guideLayer": "QUEST_GUIDE_LAYER_SCENE"
      },
      "guideHint": {
        "param1": ""
      },
      "isRewind": true,
      "versionBegin": "",
      "versionEnd": ""
    },
    {
      "subId": 7066510,
      "mainId": 70665,
      "order": 12,
      "descTextMapHash": 13065740,
      "finishCond": [
        {
          "KPGKDHAFHFE": "QUEST_CONTENT_COMPLETE_TALK",
          "param": [
            7066521,
            0
          ]
        }
      ],
      "guide": {
        "KPGKDHAFHFE": "QUEST_GUIDE_NPC",
        "param": [
          "1431"
        ],
        "guideScene": 3,
        "guideStyle": "QUEST_GUIDE_STYLE_TARGET",
        "guideLayer": "QUEST_GUIDE_LAYER_SCENE"
      },
      "guideHint": {
        "param1": ""
      },
      "isRewind": true,
      "finishExec": [
        {
          "KPGKDHAFHFE": "QUEST_EXEC_SET_QUEST_GLOBAL_VAR",
          "param": [
            "7066501",
            "1"
          ]
        }
      ],
      "versionBegin": "",
      "versionEnd": ""
    },
    {
      "subId": 7066511,
      "mainId": 70665,
      "order": 13,
      "descTextMapHash": 1031674844,
      "guideTipsTextMapHash": 4276080526,
      "finishCond": [
        {
          "KPGKDHAFHFE": "QUEST_CONTENT_GCG_LEVEL_WIN",
          "param": [
            11001,
            1
          ]
        }
      ],
      "guide": {
        "guideScene": 3,
        "guideStyle": "QUEST_GUIDE_STYLE_TARGET",
        "guideLayer": "QUEST_GUIDE_LAYER_SCENE"
      },
      "showGuide": "QUEST_GUIDE_ITEM_DISABLE",
      "guideHint": {
        "param1": ""
      },
      "isRewind": true,
      "versionBegin": "",
      "versionEnd": ""
    },
    {
      "subId": 7066512,
      "mainId": 70665,
      "order": 15,
      "descTextMapHash": 1089635556,
      "finishCond": [
        {
          "KPGKDHAFHFE": "QUEST_CONTENT_COMPLETE_TALK",
          "param": [
            7066525,
            0
          ]
        }
      ],
      "guide": {
        "KPGKDHAFHFE": "QUEST_GUIDE_NPC",
        "param": [
          "1437"
        ],
        "guideScene": 3,
        "guideStyle": "QUEST_GUIDE_STYLE_TARGET",
        "guideLayer": "QUEST_GUIDE_LAYER_SCENE"
      },
      "guideHint": {
        "param1": ""
      },
      "isRewind": true,
      "versionBegin": "",
      "versionEnd": ""
    },
    {
      "subId": 7066513,
      "mainId": 70665,
      "order": 14,
      "showType": "QUEST_HIDDEN",
      "finishCond": [
        {
          "KPGKDHAFHFE": "QUEST_CONTENT_GCG_LEVEL_WIN",
          "param": [
            11001,
            2
          ]
        }
      ],
      "guide": {},
      "showGuide": "QUEST_GUIDE_ITEM_DISABLE",
      "guideHint": {
        "param1": ""
      },
      "versionBegin": "",
      "versionEnd": ""
    },
    {
      "subId": 7066514,
      "mainId": 70665,
      "order": 16,
      "descTextMapHash": 3954966948,
      "finishCond": [
        {
          "KPGKDHAFHFE": "QUEST_CONTENT_COMPLETE_TALK",
          "param": [
            7066526,
            0
          ]
        }
      ],
      "guide": {
        "KPGKDHAFHFE": "QUEST_GUIDE_NPC",
        "param": [
          "1713"
        ],
        "guideScene": 1076,
        "guideStyle": "QUEST_GUIDE_STYLE_TARGET",
        "guideLayer": "QUEST_GUIDE_LAYER_SCENE"
      },
      "guideHint": {
        "param1": ""
      },
      "isRewind": true,
      "versionBegin": "",
      "versionEnd": ""
    },
    {
      "subId": 7066515,
      "mainId": 70665,
      "order": 17,
      "descTextMapHash": 3471089332,
      "finishCond": [
        {
          "KPGKDHAFHFE": "QUEST_CONTENT_FINISH_PLOT",
          "param": [
            7066515,
            0
          ]
        }
      ],
      "guide": {
        "KPGKDHAFHFE": "QUEST_GUIDE_LOCATION",
        "param": [
          "Q7066515_N10012",
          "5"
        ],
        "guideScene": 1076,
        "guideStyle": "QUEST_GUIDE_STYLE_TARGET",
        "guideLayer": "QUEST_GUIDE_LAYER_SCENE"
      },
      "guideHint": {
        "param1": ""
      },
      "isRewind": true,
      "versionBegin": "",
      "versionEnd": ""
    },
    {
      "subId": 7066516,
      "mainId": 70665,
      "order": 18,
      "descTextMapHash": 3365875572,
      "finishCond": [
        {
          "KPGKDHAFHFE": "QUEST_CONTENT_GCG_LEVEL_WIN",
          "param": [
            30112,
            1
          ]
        }
      ],
      "guide": {
        "KPGKDHAFHFE": "QUEST_GUIDE_NPC",
        "param": [
          "10011"
        ],
        "guideScene": 1076,
        "guideStyle": "QUEST_GUIDE_STYLE_TARGET",
        "guideLayer": "QUEST_GUIDE_LAYER_SCENE"
      },
      "guideHint": {
        "param1": ""
      },
      "isRewind": true,
      "versionBegin": "",
      "versionEnd": ""
    },
    {
      "subId": 7066517,
      "mainId": 70665,
      "order": 20,
      "descTextMapHash": 821297148,
      "finishCond": [
        {
          "KPGKDHAFHFE": "QUEST_CONTENT_COMPLETE_TALK",
          "param": [
            7066531,
            0
          ]
        }
      ],
      "guide": {
        "KPGKDHAFHFE": "QUEST_GUIDE_NPC",
        "param": [
          "10011"
        ],
        "guideScene": 1076,
        "guideStyle": "QUEST_GUIDE_STYLE_TARGET",
        "guideLayer": "QUEST_GUIDE_LAYER_SCENE"
      },
      "guideHint": {
        "param1": ""
      },
      "isRewind": true,
      "versionBegin": "",
      "versionEnd": ""
    },
    {
      "subId": 7066518,
      "mainId": 70665,
      "order": 21,
      "descTextMapHash": 355566364,
      "finishCond": [
        {
          "KPGKDHAFHFE": "QUEST_CONTENT_COMPLETE_TALK",
          "param": [
            7066532,
            0
          ]
        }
      ],
      "guide": {
        "KPGKDHAFHFE": "QUEST_GUIDE_NPC",
        "param": [
          "1712"
        ],
        "guideScene": 1076,
        "guideStyle": "QUEST_GUIDE_STYLE_TARGET",
        "guideLayer": "QUEST_GUIDE_LAYER_SCENE"
      },
      "guideHint": {
        "param1": ""
      },
      "isRewind": true,
      "finishExec": [
        {
          "KPGKDHAFHFE": "QUEST_EXEC_SET_QUEST_GLOBAL_VAR",
          "param": [
            "7066502",
            "1"
          ]
        },
        {
          "KPGKDHAFHFE": "QUEST_EXEC_UNLOCK_POINT",
          "param": [
            "1076",
            "6"
          ]
        },
        {
          "KPGKDHAFHFE": "QUEST_EXEC_UNLOCK_POINT",
          "param": [
            "1076",
            "7"
          ]
        },
        {
          "KPGKDHAFHFE": "QUEST_EXEC_NOTIFY_GROUP_LUA",
          "param": [
            "1076",
            "201076001"
          ]
        }
      ],
      "versionBegin": "",
      "versionEnd": ""
    },
    {
      "subId": 7066519,
      "mainId": 70665,
      "order": 6,
      "showType": "QUEST_HIDDEN",
      "finishCond": [
        {
          "KPGKDHAFHFE": "QUEST_CONTENT_GCG_LEVEL_WIN",
          "param": [
            30101,
            2
          ]
        },
        {
          "KPGKDHAFHFE": "QUEST_CONTENT_GCG_GUIDE_PROGRESS",
          "param": [
            1,
            0
          ],
          "count": 1
        },
        {
          "KPGKDHAFHFE": "QUEST_CONTENT_GCG_GUIDE_PROGRESS",
          "param": [
            1,
            0
          ],
          "count": 2
        },
        {
          "KPGKDHAFHFE": "QUEST_CONTENT_GCG_GUIDE_PROGRESS",
          "param": [
            1,
            0
          ],
          "count": 3
        }
      ],
      "guide": {},
      "showGuide": "QUEST_GUIDE_ITEM_DISABLE",
      "guideHint": {
        "param1": ""
      },
      "versionBegin": "",
      "versionEnd": ""
    },
    {
      "subId": 7066520,
      "mainId": 70665,
      "order": 9,
      "showType": "QUEST_HIDDEN",
      "finishCond": [
        {
          "KPGKDHAFHFE": "QUEST_CONTENT_GCG_LEVEL_WIN",
          "param": [
            30111,
            2
          ]
        }
      ],
      "guide": {},
      "showGuide": "QUEST_GUIDE_ITEM_DISABLE",
      "guideHint": {
        "param1": ""
      },
      "versionBegin": "",
      "versionEnd": ""
    },
    {
      "subId": 7066521,
      "mainId": 70665,
      "order": 22,
      "showType": "QUEST_HIDDEN",
      "finishCond": [
        {
          "KPGKDHAFHFE": "QUEST_CONTENT_GAME_TIME_TICK",
          "param": [
            0,
            0
          ]
        }
      ],
      "guide": {},
      "showGuide": "QUEST_GUIDE_ITEM_DISABLE",
      "guideHint": {
        "param1": ""
      },
      "isRewind": true,
      "versionBegin": "",
      "versionEnd": ""
    },
    {
      "subId": 7066522,
      "mainId": 70665,
      "order": 19,
      "showType": "QUEST_HIDDEN",
      "finishCond": [
        {
          "KPGKDHAFHFE": "QUEST_CONTENT_GCG_LEVEL_WIN",
          "param": [
            30112,
            2
          ]
        }
      ],
      "guide": {},
      "showGuide": "QUEST_GUIDE_ITEM_DISABLE",
      "guideHint": {
        "param1": ""
      },
      "versionBegin": "",
      "versionEnd": ""
    },
    {
      "subId": 7066523,
      "mainId": 70665,
      "order": 23,
      "showType": "QUEST_HIDDEN",
      "finishCond": [
        {
          "KPGKDHAFHFE": "QUEST_CONTENT_GAME_TIME_TICK",
          "param": [
            0,
            0
          ]
        }
      ],
      "guide": {},
      "showGuide": "QUEST_GUIDE_ITEM_DISABLE",
      "guideHint": {
        "param1": ""
      },
      "finishParent": true,
      "isRewind": true,
      "versionBegin": "",
      "versionEnd": ""
    }
  ],
  "talks": [
    {
      "id": 7066501,
      "beginWay": "TALK_BEGIN_MANUAL",
      "activeMode": "PLAY_MODE_HOST",
      "beginCondComb": "LOGIC_AND",
      "beginCond": [
        {
          "type": "QUEST_COND_STATE_EQUAL",
          "_param": [
            "7066501",
            "2"
          ]
        },
        {
          "type": "QUEST_COND_STATE_EQUAL",
          "_param": [
            "1104002",
            "3"
          ]
        }
      ],
      "priority": 5,
      "initDialog": 706650101,
      "npcId": [
        1587,
        1019
      ],
      "performCfg": "QuestDialogue/WQ/Mengde_70665/Q7066501",
      "heroTalk": "TALK_HERO_MAIN",
      "questId": 70665,
      "assetIndex": 7327890467532995076,
      "prePerformCfg": ""
    },
    {
      "id": 7066502,
      "beginWay": "TALK_BEGIN_MANUAL",
      "activeMode": "PLAY_MODE_HOST",
      "beginCond": [
        {
          "type": "QUEST_COND_STATE_EQUAL",
          "_param": [
            "7066503",
            "2"
          ]
        }
      ],
      "priority": 5,
      "nextTalks": [
        7066503,
        7066505
      ],
      "initDialog": 706650201,
      "npcId": [
        1431,
        1713,
        1712
      ],
      "performCfg": "QuestDialogue/WQ/Mengde_70665/Q7066502",
      "heroTalk": "TALK_HERO_MAIN",
      "questId": 70665,
      "assetIndex": 14116574256517644944,
      "prePerformCfg": ""
    },
    {
      "id": 7066503,
      "activeMode": "PLAY_MODE_HOST",
      "beginCondComb": "LOGIC_AND",
      "beginCond": [
        {
          "type": "QUEST_COND_STATE_EQUAL",
          "_param": [
            "7066503",
            "2"
          ]
        },
        {
          "type": "QUEST_COND_STATE_EQUAL",
          "_param": [
            "48605",
            "3"
          ]
        }
      ],
      "priority": 5,
      "nextTalks": [
        7066504
      ],
      "initDialog": 706650301,
      "npcId": [
        1431,
        1713,
        1712
      ],
      "performCfg": "QuestDialogue/WQ/Mengde_70665/Q7066503",
      "heroTalk": "TALK_HERO_MAIN",
      "questId": 70665,
      "assetIndex": 13329333983884538216,
      "prePerformCfg": ""
    },
    {
      "id": 7066504,
      "activeMode": "PLAY_MODE_HOST",
      "beginCondComb": "LOGIC_AND",
      "beginCond": [
        {
          "type": "QUEST_COND_STATE_EQUAL",
          "_param": [
            "7066503",
            "2"
          ]
        },
        {
          "type": "QUEST_COND_STATE_EQUAL",
          "_param": [
            "48605",
            "3"
          ]
        }
      ],
      "priority": 5,
      "initDialog": 706650401,
      "npcId": [
        1713,
        1712,
        1431
      ],
      "performCfg": "QuestDialogue/WQ/Mengde_70665/Q7066504",
      "heroTalk": "TALK_HERO_MAIN",
      "questId": 70665,
      "assetIndex": 5849045591549842900,
      "prePerformCfg": ""
    },
    {
      "id": 7066505,
      "activeMode": "PLAY_MODE_HOST",
      "beginCondComb": "LOGIC_A_AND_ETCOR",
      "beginCond": [
        {
          "type": "QUEST_COND_STATE_EQUAL",
          "_param": [
            "7066503",
            "2"
          ]
        },
        {
          "type": "QUEST_COND_STATE_NOT_EQUAL",
          "_param": [
            "48605",
            "3"
          ]
        },
        {
          "type": "QUEST_COND_QUEST_NOT_RECEIVE",
          "_param": [
            "48605",
            "1"
          ]
        }
      ],
      "priority": 5,
      "initDialog": 706650401,
      "npcId": [
        1713,
        1712,
        1431
      ],
      "performCfg": "QuestDialogue/WQ/Mengde_70665/Q7066505",
      "heroTalk": "TALK_HERO_MAIN",
      "questId": 70665,
      "assetIndex": 1536829316987713252,
      "prePerformCfg": ""
    },
    {
      "id": 7066506,
      "beginWay": "TALK_BEGIN_MANUAL",
      "activeMode": "PLAY_MODE_HOST",
      "beginCond": [
        {
          "type": "QUEST_COND_STATE_EQUAL",
          "_param": [
            "7066504",
            "2"
          ]
        }
      ],
      "priority": 5,
      "initDialog": 706650601,
      "npcId": [
        1713,
        1712
      ],
      "performCfg": "QuestDialogue/WQ/Mengde_70665/Q7066506",
      "heroTalk": "TALK_HERO_MAIN",
      "questId": 70665,
      "assetIndex": 1856968466028608044,
      "prePerformCfg": ""
    },
    {
      "id": 7066507,
      "beginWay": "TALK_BEGIN_MANUAL",
      "activeMode": "PLAY_MODE_HOST",
      "beginCond": [
        {
          "type": "QUEST_COND_STATE_EQUAL",
          "_param": [
            "7066504",
            "2"
          ]
        }
      ],
      "priority": 5,
      "initDialog": 706650701,
      "npcId": [
        1061
      ],
      "performCfg": "QuestDialogue/WQ/Mengde_70665/Q7066507",
      "heroTalk": "TALK_HERO_MAIN",
      "questId": 70665,
      "assetIndex": 1314146972968751895,
      "prePerformCfg": ""
    },
    {
      "id": 7066508,
      "beginWay": "TALK_BEGIN_MANUAL",
      "activeMode": "PLAY_MODE_HOST",
      "beginCondComb": "LOGIC_AND",
      "beginCond": [
        {
          "type": "QUEST_COND_STATE_EQUAL",
          "_param": [
            "7066505",
            "2"
          ]
        },
        {
          "type": "QUEST_COND_STATE_EQUAL",
          "_param": [
            "7066519",
            "2"
          ]
        }
      ],
      "priority": 5,
      "initDialog": 706650801,
      "npcId": [
        1061
      ],
      "performCfg": "QuestDialogue/WQ/Mengde_70665/Q7066508",
      "heroTalk": "TALK_HERO_MAIN",
      "questId": 70665,
      "assetIndex": 16332973464512382787,
      "prePerformCfg": ""
    },
    {
      "id": 7066509,
      "beginWay": "TALK_BEGIN_MANUAL",
      "activeMode": "PLAY_MODE_HOST",
      "beginCondComb": "LOGIC_AND",
      "beginCond": [
        {
          "type": "QUEST_COND_STATE_EQUAL",
          "_param": [
            "7066519",
            "3"
          ]
        },
        {
          "type": "QUEST_COND_QUEST_NOT_RECEIVE",
          "_param": [
            "7066506",
            "1"
          ]
        }
      ],
      "priority": 5,
      "initDialog": 706650901,
      "npcId": [
        1061
      ],
      "performCfg": "QuestDialogue/WQ/Mengde_70665/Q7066509",
      "questId": 70665,
      "assetIndex": 4305726846187850902,
      "prePerformCfg": ""
    },
    {
      "id": 7066510,
      "beginWay": "TALK_BEGIN_MANUAL",
      "activeMode": "PLAY_MODE_HOST",
      "beginCondComb": "LOGIC_OR",
      "beginCond": [
        {
          "type": "QUEST_COND_STATE_EQUAL",
          "_param": [
            "7066505",
            "2"
          ]
        },
        {
          "type": "QUEST_COND_STATE_EQUAL",
          "_param": [
            "7066506",
            "2"
          ]
        }
      ],
      "priority": 5,
      "initDialog": 706651001,
      "npcId": [
        1019
      ],
      "performCfg": "QuestDialogue/WQ/Mengde_70665/Q7066510",
      "heroTalk": "TALK_HERO_MAIN",
      "questId": 70665,
      "assetIndex": 3850543551023983471,
      "prePerformCfg": ""
    },
    {
      "id": 7066511,
      "beginWay": "TALK_BEGIN_MANUAL",
      "activeMode": "PLAY_MODE_HOST",
      "beginCondComb": "LOGIC_OR",
      "beginCond": [
        {
          "type": "QUEST_COND_STATE_EQUAL",
          "_param": [
            "7066505",
            "2"
          ]
        },
        {
          "type": "QUEST_COND_STATE_EQUAL",
          "_param": [
            "7066506",
            "2"
          ]
        },
        {
          "type": "QUEST_COND_STATE_EQUAL",
          "_param": [
            "7066507",
            "2"
          ]
        },
        {
          "type": "QUEST_COND_STATE_EQUAL",
          "_param": [
            "7066508",
            "2"
          ]
        }
      ],
      "priority": 5,
      "initDialog": 706651101,
      "npcId": [
        1713,
        1712
      ],
      "performCfg": "QuestDialogue/WQ/Mengde_70665/Q7066511",
      "heroTalk": "TALK_HERO_MAIN",
      "questId": 70665,
      "assetIndex": 4469524459552243491,
      "prePerformCfg": ""
    },
    {
      "id": 7066512,
      "beginWay": "TALK_BEGIN_MANUAL",
      "activeMode": "PLAY_MODE_HOST",
      "beginCondComb": "LOGIC_AND",
      "beginCond": [
        {
          "type": "QUEST_COND_STATE_EQUAL",
          "_param": [
            "7066505",
            "3"
          ]
        },
        {
          "type": "QUEST_COND_STATE_EQUAL",
          "_param": [
            "7066506",
            "2"
          ]
        }
      ],
      "priority": 5,
      "initDialog": 706651201,
      "npcId": [
        1061
      ],
      "performCfg": "QuestDialogue/WQ/Mengde_70665/Q7066512",
      "heroTalk": "TALK_HERO_MAIN",
      "questId": 70665,
      "assetIndex": 2227389099726720153,
      "prePerformCfg": ""
    },
    {
      "id": 7066513,
      "beginWay": "TALK_BEGIN_MANUAL",
      "activeMode": "PLAY_MODE_HOST",
      "beginCondComb": "LOGIC_AND",
      "beginCond": [
        {
          "type": "QUEST_COND_STATE_EQUAL",
          "_param": [
            "7066507",
            "2"
          ]
        },
        {
          "type": "QUEST_COND_STATE_EQUAL",
          "_param": [
            "7066520",
            "2"
          ]
        }
      ],
      "priority": 5,
      "initDialog": 706651301,
      "npcId": [
        1019
      ],
      "performCfg": "QuestDialogue/WQ/Mengde_70665/Q7066513",
      "heroTalk": "TALK_HERO_MAIN",
      "questId": 70665,
      "assetIndex": 9411794411150968296,
      "prePerformCfg": ""
    },
    {
      "id": 7066514,
      "beginWay": "TALK_BEGIN_MANUAL",
      "activeMode": "PLAY_MODE_HOST",
      "beginCondComb": "LOGIC_AND",
      "beginCond": [
        {
          "type": "QUEST_COND_STATE_EQUAL",
          "_param": [
            "7066520",
            "3"
          ]
        },
        {
          "type": "QUEST_COND_QUEST_NOT_RECEIVE",
          "_param": [
            "7066508",
            "1"
          ]
        }
      ],
      "priority": 5,
      "initDialog": 706651301,
      "npcId": [
        1019
      ],
      "performCfg": "QuestDialogue/WQ/Mengde_70665/Q7066513",
      "questId": 70665,
      "assetIndex": 10109458059259131560,
      "prePerformCfg": ""
    },
    {
      "id": 7066515,
      "beginWay": "TALK_BEGIN_MANUAL",
      "activeMode": "PLAY_MODE_HOST",
      "beginCondComb": "LOGIC_OR",
      "beginCond": [
        {
          "type": "QUEST_COND_STATE_EQUAL",
          "_param": [
            "7066507",
            "2"
          ]
        },
        {
          "type": "QUEST_COND_STATE_EQUAL",
          "_param": [
            "7066508",
            "2"
          ]
        }
      ],
      "priority": 5,
      "initDialog": 706651501,
      "npcId": [
        1061
      ],
      "performCfg": "QuestDialogue/WQ/Mengde_70665/Q7066515",
      "heroTalk": "TALK_HERO_MAIN",
      "questId": 70665,
      "assetIndex": 6965958139629743216,
      "prePerformCfg": ""
    },
    {
      "id": 7066516,
      "beginWay": "TALK_BEGIN_MANUAL",
      "activeMode": "PLAY_MODE_HOST",
      "beginCondComb": "LOGIC_AND",
      "beginCond": [
        {
          "type": "QUEST_COND_STATE_EQUAL",
          "_param": [
            "7066507",
            "3"
          ]
        },
        {
          "type": "QUEST_COND_STATE_EQUAL",
          "_param": [
            "7066508",
            "2"
          ]
        }
      ],
      "priority": 5,
      "initDialog": 706651601,
      "npcId": [
        1019
      ],
      "performCfg": "QuestDialogue/WQ/Mengde_70665/Q7066516",
      "heroTalk": "TALK_HERO_MAIN",
      "questId": 70665,
      "assetIndex": 4724289196799552316,
      "prePerformCfg": ""
    },
    {
      "id": 7066517,
      "beginWay": "TALK_BEGIN_MANUAL",
      "activeMode": "PLAY_MODE_HOST",
      "beginCond": [
        {
          "type": "QUEST_COND_STATE_EQUAL",
          "_param": [
            "7066509",
            "2"
          ]
        }
      ],
      "priority": 5,
      "initDialog": 706651701,
      "npcId": [
        1061
      ],
      "performCfg": "QuestDialogue/WQ/Mengde_70665/Q7066517",
      "heroTalk": "TALK_HERO_MAIN",
      "questId": 70665,
      "assetIndex": 14582150786364417788,
      "prePerformCfg": ""
    },
    {
      "id": 7066518,
      "beginWay": "TALK_BEGIN_MANUAL",
      "activeMode": "PLAY_MODE_HOST",
      "beginCond": [
        {
          "type": "QUEST_COND_STATE_EQUAL",
          "_param": [
            "7066509",
            "2"
          ]
        }
      ],
      "priority": 5,
      "initDialog": 706651801,
      "npcId": [
        1712,
        1713
      ],
      "performCfg": "QuestDialogue/WQ/Mengde_70665/Q7066518",
      "heroTalk": "TALK_HERO_MAIN",
      "questId": 70665,
      "assetIndex": 18060455716835669565,
      "prePerformCfg": ""
    },
    {
      "id": 7066519,
      "beginWay": "TALK_BEGIN_MANUAL",
      "activeMode": "PLAY_MODE_HOST",
      "beginCond": [
        {
          "type": "QUEST_COND_STATE_EQUAL",
          "_param": [
            "7066510",
            "2"
          ]
        }
      ],
      "priority": 5,
      "initDialog": 706651901,
      "npcId": [
        1061
      ],
      "performCfg": "QuestDialogue/WQ/Mengde_70665/Q7066519",
      "heroTalk": "TALK_HERO_MAIN",
      "questId": 70665,
      "assetIndex": 13790651958019496341,
      "prePerformCfg": ""
    },
    {
      "id": 7066520,
      "beginWay": "TALK_BEGIN_MANUAL",
      "activeMode": "PLAY_MODE_HOST",
      "beginCond": [
        {
          "type": "QUEST_COND_STATE_EQUAL",
          "_param": [
            "7066510",
            "2"
          ]
        }
      ],
      "priority": 5,
      "initDialog": 706652001,
      "npcId": [
        1713,
        1712
      ],
      "performCfg": "QuestDialogue/WQ/Mengde_70665/Q7066520",
      "heroTalk": "TALK_HERO_MAIN",
      "questId": 70665,
      "assetIndex": 6859070707198204785,
      "prePerformCfg": ""
    },
    {
      "id": 7066521,
      "beginWay": "TALK_BEGIN_MANUAL",
      "activeMode": "PLAY_MODE_HOST",
      "beginCond": [
        {
          "type": "QUEST_COND_STATE_EQUAL",
          "_param": [
            "7066510",
            "2"
          ]
        }
      ],
      "priority": 5,
      "initDialog": 706652101,
      "npcId": [
        1431
      ],
      "performCfg": "QuestDialogue/WQ/Mengde_70665/Q7066521",
      "heroTalk": "TALK_HERO_MAIN",
      "questId": 70665,
      "assetIndex": 4508749349587387910,
      "prePerformCfg": ""
    },
    {
      "id": 7066522,
      "beginWay": "TALK_BEGIN_MANUAL",
      "activeMode": "PLAY_MODE_HOST",
      "beginCondComb": "LOGIC_AND",
      "beginCond": [
        {
          "type": "QUEST_COND_STATE_EQUAL",
          "_param": [
            "7066511",
            "2"
          ]
        },
        {
          "type": "QUEST_COND_STATE_EQUAL",
          "_param": [
            "7066513",
            "2"
          ]
        },
        {
          "type": "QUEST_COND_QUEST_VAR_EQUAL",
          "_param": [
            "0",
            "0",
            "70665"
          ]
        }
      ],
      "priority": 5,
      "nextTalks": [
        6143709,
        7066533
      ],
      "initDialog": 706652201,
      "npcId": [
        1437
      ],
      "performCfg": "QuestDialogue/WQ/Mengde_70665/Q7066522",
      "heroTalk": "TALK_HERO_MAIN",
      "questId": 70665,
      "assetIndex": 17691568256690352554,
      "prePerformCfg": "",
      "finishExec": [
        {
          "KPGKDHAFHFE": "TALK_EXEC_SET_QUEST_VAR",
          "param": [
            "0",
            "1",
            "70665"
          ]
        }
      ]
    },
    {
      "id": 7066523,
      "beginWay": "TALK_BEGIN_MANUAL",
      "activeMode": "PLAY_MODE_HOST",
      "beginCondComb": "LOGIC_AND",
      "beginCond": [
        {
          "type": "QUEST_COND_STATE_EQUAL",
          "_param": [
            "7066511",
            "2"
          ]
        },
        {
          "type": "QUEST_COND_STATE_EQUAL",
          "_param": [
            "7066513",
            "2"
          ]
        },
        {
          "type": "QUEST_COND_QUEST_VAR_EQUAL",
          "_param": [
            "0",
            "1",
            "70665"
          ]
        }
      ],
      "priority": 5,
      "nextTalks": [
        6143709,
        7066533
      ],
      "initDialog": 706652301,
      "npcId": [
        1437
      ],
      "performCfg": "QuestDialogue/WQ/Mengde_70665/Q7066523",
      "heroTalk": "TALK_HERO_MAIN",
      "questId": 70665,
      "assetIndex": 10950918465951455896,
      "prePerformCfg": ""
    },
    {
      "id": 7066524,
      "beginWay": "TALK_BEGIN_MANUAL",
      "activeMode": "PLAY_MODE_HOST",
      "beginCondComb": "LOGIC_AND",
      "beginCond": [
        {
          "type": "QUEST_COND_STATE_EQUAL",
          "_param": [
            "7066511",
            "2"
          ]
        },
        {
          "type": "QUEST_COND_STATE_EQUAL",
          "_param": [
            "7066513",
            "3"
          ]
        }
      ],
      "priority": 5,
      "nextTalks": [
        6143709,
        7066533
      ],
      "initDialog": 706652401,
      "npcId": [
        1437
      ],
      "performCfg": "QuestDialogue/WQ/Mengde_70665/Q7066524",
      "questId": 70665,
      "assetIndex": 1045812340766062017,
      "prePerformCfg": ""
    },
    {
      "id": 7066525,
      "beginWay": "TALK_BEGIN_MANUAL",
      "activeMode": "PLAY_MODE_HOST",
      "beginCondComb": "LOGIC_OR",
      "beginCond": [
        {
          "type": "QUEST_COND_STATE_EQUAL",
          "_param": [
            "7066512",
            "2"
          ]
        },
        {
          "type": "QUEST_COND_STATE_EQUAL",
          "_param": [
            "7066514",
            "2"
          ]
        }
      ],
      "priority": 5,
      "initDialog": 706652501,
      "npcId": [
        1437
      ],
      "performCfg": "QuestDialogue/WQ/Mengde_70665/Q7066525",
      "heroTalk": "TALK_HERO_MAIN",
      "questId": 70665,
      "assetIndex": 9133377305424235066,
      "prePerformCfg": ""
    },
    {
      "id": 7066526,
      "beginWay": "TALK_BEGIN_MANUAL",
      "activeMode": "PLAY_MODE_HOST",
      "beginCond": [
        {
          "type": "QUEST_COND_STATE_EQUAL",
          "_param": [
            "7066514",
            "2"
          ]
        }
      ],
      "priority": 5,
      "initDialog": 706652601,
      "npcId": [
        1713,
        1712
      ],
      "performCfg": "QuestDialogue/WQ/Mengde_70665/Q7066526",
      "heroTalk": "TALK_HERO_MAIN",
      "questId": 70665,
      "assetIndex": 2156748578257175441,
      "prePerformCfg": ""
    },
    {
      "id": 7066527,
      "beginWay": "TALK_BEGIN_MANUAL",
      "activeMode": "PLAY_MODE_HOST",
      "beginCond": [
        {
          "type": "QUEST_COND_STATE_EQUAL",
          "_param": [
            "7066515",
            "2"
          ]
        }
      ],
      "priority": 5,
      "initDialog": 706652701,
      "npcId": [
        10011,
        10012
      ],
      "performCfg": "QuestDialogue/WQ/Mengde_70665/Q7066527",
      "heroTalk": "TALK_HERO_MAIN",
      "questId": 70665,
      "assetIndex": 10801008222040955971,
      "prePerformCfg": ""
    },
    {
      "id": 7066528,
      "beginWay": "TALK_BEGIN_MANUAL",
      "activeMode": "PLAY_MODE_HOST",
      "beginCondComb": "LOGIC_AND",
      "beginCond": [
        {
          "type": "QUEST_COND_STATE_EQUAL",
          "_param": [
            "7066516",
            "2"
          ]
        },
        {
          "type": "QUEST_COND_STATE_EQUAL",
          "_param": [
            "7066522",
            "2"
          ]
        }
      ],
      "priority": 5,
      "initDialog": 706652801,
      "npcId": [
        10011
      ],
      "performCfg": "QuestDialogue/WQ/Mengde_70665/Q7066528",
      "heroTalk": "TALK_HERO_MAIN",
      "questId": 70665,
      "assetIndex": 6424132400290935178,
      "prePerformCfg": ""
    },
    {
      "id": 7066529,
      "beginWay": "TALK_BEGIN_MANUAL",
      "activeMode": "PLAY_MODE_HOST",
      "beginCondComb": "LOGIC_AND",
      "beginCond": [
        {
          "type": "QUEST_COND_STATE_EQUAL",
          "_param": [
            "7066522",
            "3"
          ]
        },
        {
          "type": "QUEST_COND_QUEST_NOT_RECEIVE",
          "_param": [
            "7066517",
            "1"
          ]
        }
      ],
      "priority": 5,
      "initDialog": 706652901,
      "npcId": [
        10011
      ],
      "performCfg": "QuestDialogue/WQ/Mengde_70665/Q7066529",
      "heroTalk": "TALK_HERO_MAIN",
      "questId": 70665,
      "assetIndex": 11351612220053254836,
      "prePerformCfg": ""
    },
    {
      "id": 7066530,
      "beginWay": "TALK_BEGIN_MANUAL",
      "activeMode": "PLAY_MODE_HOST",
      "beginCondComb": "LOGIC_OR",
      "beginCond": [
        {
          "type": "QUEST_COND_STATE_EQUAL",
          "_param": [
            "7066515",
            "2"
          ]
        },
        {
          "type": "QUEST_COND_STATE_EQUAL",
          "_param": [
            "7066516",
            "2"
          ]
        },
        {
          "type": "QUEST_COND_STATE_EQUAL",
          "_param": [
            "7066517",
            "2"
          ]
        }
      ],
      "priority": 5,
      "initDialog": 706653001,
      "npcId": [
        1713,
        1712
      ],
      "performCfg": "QuestDialogue/WQ/Mengde_70665/Q7066530",
      "heroTalk": "TALK_HERO_MAIN",
      "questId": 70665,
      "assetIndex": 7619605414739059083,
      "prePerformCfg": ""
    },
    {
      "id": 7066531,
      "beginWay": "TALK_BEGIN_MANUAL",
      "activeMode": "PLAY_MODE_HOST",
      "beginCondComb": "LOGIC_AND",
      "beginCond": [
        {
          "type": "QUEST_COND_STATE_EQUAL",
          "_param": [
            "7066516",
            "3"
          ]
        },
        {
          "type": "QUEST_COND_STATE_EQUAL",
          "_param": [
            "7066517",
            "2"
          ]
        }
      ],
      "priority": 5,
      "initDialog": 706653101,
      "npcId": [
        10011
      ],
      "performCfg": "QuestDialogue/WQ/Mengde_70665/Q7066531",
      "heroTalk": "TALK_HERO_MAIN",
      "questId": 70665,
      "assetIndex": 13767388221216030093,
      "prePerformCfg": ""
    },
    {
      "id": 7066532,
      "beginWay": "TALK_BEGIN_MANUAL",
      "activeMode": "PLAY_MODE_HOST",
      "beginCond": [
        {
          "type": "QUEST_COND_STATE_EQUAL",
          "_param": [
            "7066518",
            "2"
          ]
        }
      ],
      "priority": 5,
      "initDialog": 706653201,
      "npcId": [
        1712,
        1713
      ],
      "performCfg": "QuestDialogue/WQ/Mengde_70665/Q7066532",
      "heroTalk": "TALK_HERO_MAIN",
      "questId": 70665,
      "assetIndex": 12288174039355056606,
      "prePerformCfg": ""
    },
    {
      "id": 7066533,
      "activeMode": "PLAY_MODE_HOST",
      "beginCondComb": "LOGIC_AND",
      "beginCond": [
        {
          "type": "QUEST_COND_STATE_EQUAL",
          "_param": [
            "7066511",
            "2"
          ]
        }
      ],
      "priority": 5,
      "initDialog": 706653301,
      "npcId": [
        1437
      ],
      "performCfg": "",
      "heroTalk": "TALK_HERO_MAIN",
      "questId": 70665,
      "assetIndex": 4845818848543223757,
      "prePerformCfg": ""
    },
    {
      "id": 7066534,
      "beginWay": "TALK_BEGIN_MANUAL",
      "activeMode": "PLAY_MODE_HOST",
      "beginCondComb": "LOGIC_A_AND_ETCOR",
      "beginCond": [
        {
          "type": "QUEST_COND_STATE_EQUAL",
          "_param": [
            "7066501",
            "2"
          ]
        },
        {
          "type": "QUEST_COND_STATE_EQUAL",
          "_param": [
            "1104002"
          ]
        },
        {
          "type": "QUEST_COND_STATE_NOT_EQUAL",
          "_param": [
            "1104002",
            "3"
          ]
        }
      ],
      "priority": 5,
      "initDialog": 706653401,
      "npcId": [
        1587,
        1019
      ],
      "performCfg": "QuestDialogue/WQ/Mengde_70665/Q7066534",
      "heroTalk": "TALK_HERO_MAIN",
      "questId": 70665,
      "assetIndex": 9727516479779924131,
      "prePerformCfg": ""
    }
  ],
  "preloadLuaList": [
    2268650960672206304,
    2399835711673667736,
    6821930357115466191,
    16001964738485778176,
    16857595499122273982,
    8112771724148621593,
    17367300391270251042,
    5808940817210673166
  ],
  "forcePreloadLuaList": [
    12704308432730639868
  ],
  "freeStyleDic": {
    "1587": [
      1170
    ],
    "1019": [
      1190
    ],
    "1431": [
      1170,
      1120
    ],
    "1712": [
      1190
    ],
    "1061": [
      1190
    ],
    "10011": [
      0
    ]
  }
}