{
  "id": 70661,
  "KPGKDHAFHFE": "WQ",
  "mainQuestTag": "MAINQUEST_TAG_GUIDE",
  "titleTextMapHash": 3305968839,
  "descTextMapHash": 3518889326,
  "luaPath": "Actor/Quest/WQ70661",
  "rewardIdList": [
    170661
  ],
  "showRedPoint": true,
  "subQuests": [
    {
      "subId": 7066101,
      "mainId": 70661,
      "order": 1,
      "descTextMapHash": 613803276,
      "finishCond": [
        {
          "KPGKDHAFHFE": "QUEST_CONTENT_COMPLETE_TALK",
          "param": [
            7066101,
            0
          ]
        }
      ],
      "guide": {
        "KPGKDHAFHFE": "QUEST_GUIDE_NPC",
        "param": [
          "1512"
        ],
        "guideScene": 3,
        "guideStyle": "QUEST_GUIDE_STYLE_TARGET"
      },
      "guideHint": {
        "param1": ""
      },
      "isRewind": true,
      "versionBegin": "",
      "versionEnd": ""
    },
    {
      "subId": 7066102,
      "mainId": 70661,
      "order": 2,
      "descTextMapHash": 3123141396,
      "finishCond": [
        {
          "KPGKDHAFHFE": "QUEST_CONTENT_COMPLETE_TALK",
          "param": [
            7066102,
            0
          ]
        }
      ],
      "guide": {
        "KPGKDHAFHFE": "QUEST_GUIDE_NPC",
        "param": [
          "1673"
        ],
        "guideScene": 3,
        "guideStyle": "QUEST_GUIDE_STYLE_TARGET"
      },
      "guideHint": {
        "param1": ""
      },
      "isRewind": true,
      "versionBegin": "",
      "versionEnd": ""
    },
    {
      "subId": 7066103,
      "mainId": 70661,
      "order": 3,
      "descTextMapHash": 855967892,
      "finishCond": [
        {
          "KPGKDHAFHFE": "QUEST_CONTENT_COMPLETE_TALK",
          "param": [
            7066104,
            0
          ]
        }
      ],
      "guide": {
        "KPGKDHAFHFE": "QUEST_GUIDE_NPC",
        "param": [
          "167301"
        ],
        "guideScene": 3,
        "guideStyle": "QUEST_GUIDE_STYLE_TARGET"
      },
      "guideHint": {
        "param1": ""
      },
      "isRewind": true,
      "versionBegin": "",
      "versionEnd": ""
    },
    {
      "subId": 7066104,
      "mainId": 70661,
      "order": 4,
      "isMpBlock": true,
      "descTextMapHash": 2488825956,
      "finishCond": [
        {
          "KPGKDHAFHFE": "QUEST_CONTENT_FISHING_SUCC",
          "param": [
            1,
            0
          ],
          "count": 1
        }
      ],
      "guide": {
        "KPGKDHAFHFE": "QUEST_GUIDE_LOCATION",
        "param": [
          "Q70661_fishpos_01",
          "50"
        ],
        "guideScene": 3,
        "guideStyle": "QUEST_GUIDE_STYLE_TARGET"
      },
      "guideHint": {
        "param1": ""
      },
      "isRewind": true,
      "finishExec": [
        {
          "KPGKDHAFHFE": "QUEST_EXEC_UNREGISTER_DYNAMIC_GROUP",
          "param": [
            "133002059"
          ]
        }
      ],
      "versionBegin": "",
      "versionEnd": ""
    },
    {
      "subId": 7066105,
      "mainId": 70661,
      "order": 10,
      "descTextMapHash": 1574085012,
      "showType": "QUEST_HIDDEN",
      "guide": {
        "KPGKDHAFHFE": "QUEST_GUIDE_NPC",
        "param": [
          "167301"
        ],
        "guideScene": 3,
        "guideStyle": "QUEST_GUIDE_STYLE_TARGET"
      },
      "guideHint": {
        "param1": ""
      },
      "versionBegin": "",
      "versionEnd": ""
    },
    {
      "subId": 7066106,
      "mainId": 70661,
      "order": 6,
      "descTextMapHash": 1422718764,
      "finishCond": [
        {
          "KPGKDHAFHFE": "QUEST_CONTENT_COMPLETE_TALK",
          "param": [
            7066106,
            0
          ]
        }
      ],
      "failCond": [
        {
          "KPGKDHAFHFE": "QUEST_CONTENT_QUEST_STATE_EQUAL",
          "param": [
            7066109,
            2
          ]
        }
      ],
      "guide": {
        "KPGKDHAFHFE": "QUEST_GUIDE_NPC",
        "param": [
          "167301"
        ],
        "guideScene": 3,
        "guideStyle": "QUEST_GUIDE_STYLE_TARGET"
      },
      "guideHint": {
        "param1": ""
      },
      "isRewind": true,
      "versionBegin": "",
      "versionEnd": ""
    },
    {
      "subId": 7066107,
      "mainId": 70661,
      "order": 8,
      "isMpBlock": true,
      "descTextMapHash": 1122487044,
      "finishCond": [
        {
          "KPGKDHAFHFE": "QUEST_CONTENT_FISHING_SUCC",
          "param": [
            2,
            0
          ],
          "count": 1
        }
      ],
      "guide": {
        "KPGKDHAFHFE": "QUEST_GUIDE_LOCATION",
        "param": [
          "Q70661_fishpos_02",
          "50"
        ],
        "guideScene": 3,
        "guideStyle": "QUEST_GUIDE_STYLE_TARGET"
      },
      "guideHint": {
        "param1": ""
      },
      "isRewind": true,
      "finishExec": [
        {
          "KPGKDHAFHFE": "QUEST_EXEC_UNREGISTER_DYNAMIC_GROUP",
          "param": [
            "133003069"
          ]
        }
      ],
      "versionBegin": "",
      "versionEnd": ""
    },
    {
      "subId": 7066108,
      "mainId": 70661,
      "order": 9,
      "descTextMapHash": 1877070068,
      "finishCond": [
        {
          "KPGKDHAFHFE": "QUEST_CONTENT_COMPLETE_TALK",
          "param": [
            7066108,
            0
          ]
        }
      ],
      "guide": {
        "KPGKDHAFHFE": "QUEST_GUIDE_NPC",
        "param": [
          "1673"
        ],
        "guideScene": 3,
        "guideStyle": "QUEST_GUIDE_STYLE_TARGET"
      },
      "guideHint": {
        "param1": ""
      },
      "finishParent": true,
      "isRewind": true,
      "finishExec": [
        {
          "KPGKDHAFHFE": "QUEST_EXEC_UNLOCK_POINT",
          "param": [
            "3",
            "391"
          ]
        },
        {
          "KPGKDHAFHFE": "QUEST_EXEC_SET_QUEST_GLOBAL_VAR",
          "param": [
            "70661",
            "1"
          ]
        },
        {
          "KPGKDHAFHFE": "QUEST_EXEC_UNLOCK_POINT",
          "param": [
            "3",
            "400"
          ]
        },
        {
          "KPGKDHAFHFE": "QUEST_EXEC_UNLOCK_POINT",
          "param": [
            "3",
            "401"
          ]
        }
      ],
      "versionBegin": "",
      "versionEnd": ""
    },
    {
      "subId": 7066109,
      "mainId": 70661,
      "order": 7,
      "descTextMapHash": 1481935004,
      "finishCond": [
        {
          "KPGKDHAFHFE": "QUEST_CONTENT_COMPLETE_TALK",
          "param": [
            7066107,
            0
          ]
        }
      ],
      "guide": {
        "KPGKDHAFHFE": "QUEST_GUIDE_NPC",
        "param": [
          "167301"
        ],
        "guideScene": 3,
        "guideStyle": "QUEST_GUIDE_STYLE_TARGET"
      },
      "guideHint": {
        "param1": ""
      },
      "finishParent": true,
      "isRewind": true,
      "finishExec": [
        {
          "KPGKDHAFHFE": "QUEST_EXEC_UNLOCK_POINT",
          "param": [
            "3",
            "391"
          ]
        },
        {
          "KPGKDHAFHFE": "QUEST_EXEC_SET_QUEST_GLOBAL_VAR",
          "param": [
            "70661",
            "1"
          ]
        },
        {
          "KPGKDHAFHFE": "QUEST_EXEC_UNLOCK_POINT",
          "param": [
            "3",
            "400"
          ]
        },
        {
          "KPGKDHAFHFE": "QUEST_EXEC_UNLOCK_POINT",
          "param": [
            "3",
            "401"
          ]
        }
      ],
      "versionBegin": "",
      "versionEnd": ""
    },
    {
      "subId": 7066110,
      "mainId": 70661,
      "order": 5,
      "descTextMapHash": 313334772,
      "showType": "QUEST_HIDDEN",
      "finishCond": [
        {
          "KPGKDHAFHFE": "QUEST_CONTENT_FISHING_SUCC",
          "param": [
            2,
            0
          ],
          "count": 1
        }
      ],
      "guide": {
        "guideScene": 3,
        "guideStyle": "QUEST_GUIDE_STYLE_TARGET"
      },
      "guideHint": {
        "param1": ""
      },
      "versionBegin": "",
      "versionEnd": ""
    }
  ],
  "talks": [
    {
      "id": 7066101,
      "beginWay": "TALK_BEGIN_MANUAL",
      "beginCond": [
        {
          "type": "QUEST_COND_STATE_EQUAL",
          "_param": [
            "7066101",
            "2"
          ]
        }
      ],
      "priority": 8,
      "initDialog": 706610101,
      "npcId": [
        1512
      ],
      "performCfg": "QuestDialogue/WQ/Mengde_70661/Q7066101",
      "heroTalk": "TALK_HERO_MAIN",
      "questId": 70661,
      "assetIndex": 4879615590883518488,
      "prePerformCfg": ""
    },
    {
      "id": 7066102,
      "beginWay": "TALK_BEGIN_MANUAL",
      "beginCond": [
        {
          "type": "QUEST_COND_STATE_EQUAL",
          "_param": [
            "7066102",
            "2"
          ]
        }
      ],
      "priority": 8,
      "initDialog": 706610201,
      "npcId": [
        1673
      ],
      "performCfg": "QuestDialogue/WQ/Mengde_70661/Q7066102",
      "heroTalk": "TALK_HERO_MAIN",
      "questId": 70661,
      "assetIndex": 7416178724130569577,
      "prePerformCfg": ""
    },
    {
      "id": 7066103,
      "beginWay": "TALK_BEGIN_MANUAL",
      "beginCond": [
        {
          "type": "QUEST_COND_STATE_EQUAL",
          "_param": [
            "7066107",
            "2"
          ]
        }
      ],
      "priority": 5,
      "initDialog": 706610301,
      "npcId": [
        167301
      ],
      "performCfg": "",
      "heroTalk": "TALK_HERO_MAIN",
      "questId": 70661,
      "assetIndex": 17315315505918234136,
      "prePerformCfg": "",
      "questIdleTalk": true,
      "freeStyleList": [
        9000
      ]
    },
    {
      "id": 7066104,
      "beginWay": "TALK_BEGIN_MANUAL",
      "beginCond": [
        {
          "type": "QUEST_COND_STATE_EQUAL",
          "_param": [
            "7066103",
            "2"
          ]
        }
      ],
      "priority": 8,
      "initDialog": 706610401,
      "npcId": [
        167301
      ],
      "performCfg": "QuestDialogue/WQ/Mengde_70661/Q7066104",
      "heroTalk": "TALK_HERO_MAIN",
      "questId": 70661,
      "assetIndex": 2331310662757329142,
      "prePerformCfg": ""
    },
    {
      "id": 7066106,
      "beginWay": "TALK_BEGIN_MANUAL",
      "beginCondComb": "LOGIC_AND",
      "beginCond": [
        {
          "type": "QUEST_COND_STATE_EQUAL",
          "_param": [
            "7066106",
            "2"
          ]
        },
        {
          "type": "QUEST_COND_STATE_NOT_EQUAL",
          "_param": [
            "7066110",
            "3"
          ]
        }
      ],
      "priority": 8,
      "initDialog": 706610601,
      "npcId": [
        167301
      ],
      "performCfg": "QuestDialogue/WQ/Mengde_70661/Q7066106",
      "heroTalk": "TALK_HERO_MAIN",
      "questId": 70661,
      "assetIndex": 11841245880451177004,
      "prePerformCfg": ""
    },
    {
      "id": 7066107,
      "beginWay": "TALK_BEGIN_MANUAL",
      "beginCondComb": "LOGIC_AND",
      "beginCond": [
        {
          "type": "QUEST_COND_STATE_EQUAL",
          "_param": [
            "7066109",
            "2"
          ]
        },
        {
          "type": "QUEST_COND_STATE_EQUAL",
          "_param": [
            "7066110",
            "3"
          ]
        }
      ],
      "priority": 8,
      "initDialog": 706610701,
      "npcId": [
        167301
      ],
      "performCfg": "QuestDialogue/WQ/Mengde_70661/Q7066107",
      "heroTalk": "TALK_HERO_MAIN",
      "questId": 70661,
      "assetIndex": 2951749509278924486,
      "prePerformCfg": ""
    },
    {
      "id": 7066108,
      "beginWay": "TALK_BEGIN_MANUAL",
      "beginCond": [
        {
          "type": "QUEST_COND_STATE_EQUAL",
          "_param": [
            "7066108",
            "2"
          ]
        }
      ],
      "priority": 8,
      "initDialog": 706610801,
      "npcId": [
        1673
      ],
      "performCfg": "",
      "heroTalk": "TALK_HERO_MAIN",
      "questId": 70661,
      "assetIndex": 18380042473232594417,
      "prePerformCfg": "",
      "freeStyleList": [
        9000
      ]
    },
    {
      "id": 7066109,
      "beginWay": "TALK_BEGIN_MANUAL",
      "beginCond": [
        {
          "type": "QUEST_COND_STATE_EQUAL",
          "_param": [
            "7066104",
            "2"
          ]
        }
      ],
      "priority": 5,
      "initDialog": 706610901,
      "npcId": [
        167301
      ],
      "performCfg": "",
      "heroTalk": "TALK_HERO_MAIN",
      "questId": 70661,
      "assetIndex": 1742520236211430532,
      "prePerformCfg": "",
      "questIdleTalk": true
    }
  ]
}