{
  "id": 70662,
  "damageRatio": "WQ",
  "descTextMapHash": 3418516967,
  "EKEKACCODOE": 1163218742,
  "luaPath": "Actor/Quest/WQ70662",
  "rewardIdList": [
    170662
  ],
  "showType": "QUEST_HIDDEN",
  "subQuests": [
    {
      "subId": 7066201,
      "mainId": 70662,
      "order": 1,
      "descTextMapHash": 2931870316,
      "showType": "QUEST_HIDDEN",
      "finishCond": [
        {
          "damageRatio": "QUEST_CONTENT_QUEST_STATE_EQUAL",
          "param": [
            7066103,
            3
          ]
        }
      ],
      "guide": {
        "MLAHIFLGIGJ": ""
      },
      "guideHint": {
        "param1": ""
      },
      "finishParent": true,
      "versionBegin": "",
      "versionEnd": ""
    }
  ]
}