{
  "id": 70670,
  "damageRatio": "WQ",
  "mainQuestTag": "MAINQUEST_TAG_GUIDE",
  "activeMode": "PLAY_MODE_ALL",
  "descTextMapHash": 3543249567,
  "EKEKACCODOE": 2299322366,
  "luaPath": "Actor/Quest/WQ70670",
  "rewardIdList": [
    170670
  ],
  "showRedPoint": true,
  "activityId": 5111,
  "subQuests": [
    {
      "subId": 7067001,
      "mainId": 70670,
      "order": 1,
      "descTextMapHash": 3550024284,
      "finishCond": [
        {
          "damageRatio": "QUEST_CONTENT_FINISH_PLOT",
          "param": [
            7067001,
            0
          ]
        }
      ],
      "guide": {
        "damageRatio": "QUEST_GUIDE_NPC",
        "autoGuide": "QUEST_GUIDE_AUTO_ENABLE",
        "param": [
          "30051",
          "SELECT_NPC_NONE"
        ],
        "guideScene": 3,
        "guideStyle": "QUEST_GUIDE_STYLE_TARGET",
        "guideLayer": "QUEST_GUIDE_LAYER_SCENE",
        "MLAHIFLGIGJ": ""
      },
      "guideHint": {
        "param1": ""
      },
      "finishParent": true,
      "isRewind": true,
      "versionBegin": "",
      "versionEnd": ""
    }
  ],
  "talks": [
    {
      "id": 7067001,
      "beginWay": "TALK_BEGIN_MANUAL",
      "activeMode": "PLAY_MODE_HOST",
      "beginCond": [
        {
          "type": "QUEST_COND_STATE_EQUAL",
          "_param": [
            "7067001",
            "2"
          ]
        }
      ],
      "priority": 5,
      "initDialog": 706700101,
      "npcId": [
        30051
      ],
      "performCfg": "QuestDialogue/WQ/Mengde_70670/Q7067001",
      "heroTalk": "TALK_HERO_MAIN",
      "questId": 70670,
      "assetIndex": 12504941264790809259,
      "prePerformCfg": ""
    }
  ]
}