{
  "id": 70681,
  "damageRatio": "WQ",
  "descTextMapHash": 2513129327,
  "EKEKACCODOE": 405017342,
  "luaPath": "Actor/Quest/WQ70681",
  "rewardIdList": [
    170681
  ],
  "showRedPoint": true,
  "BONJIMPOJLG": true,
  "subQuests": [
    {
      "subId": 7068101,
      "mainId": 70681,
      "order": 3,
      "descTextMapHash": 2311382540,
      "finishCond": [
        {
          "damageRatio": "QUEST_CONTENT_FINISH_PLOT",
          "param": [
            7068101,
            0
          ]
        }
      ],
      "guide": {
        "damageRatio": "QUEST_GUIDE_NPC",
        "param": [
          "14466"
        ],
        "guideScene": 3,
        "guideStyle": "QUEST_GUIDE_STYLE_POINT",
        "guideLayer": "QUEST_GUIDE_LAYER_SCENE",
        "MLAHIFLGIGJ": ""
      },
      "guideHint": {
        "param1": ""
      },
      "isRewind": true,
      "versionBegin": "",
      "versionEnd": ""
    },
    {
      "subId": 7068102,
      "mainId": 70681,
      "order": 4,
      "descTextMapHash": 403206140,
      "finishCond": [
        {
          "damageRatio": "QUEST_CONTENT_LUA_NOTIFY",
          "param": [
            0,
            0
          ],
          "count": 1
        }
      ],
      "guide": {
        "damageRatio": "QUEST_GUIDE_LOCATION",
        "param": [
          "[3_300201049:1816.626,245.154,-606.479,0.000,9.381,0.000]",
          "30"
        ],
        "guideScene": 3,
        "guideStyle": "QUEST_GUIDE_STYLE_POINT",
        "guideLayer": "QUEST_GUIDE_LAYER_SCENE",
        "MLAHIFLGIGJ": ""
      },
      "guideHint": {
        "param1": ""
      },
      "isRewind": true,
      "finishExec": [
        {
          "damageRatio": "QUEST_EXEC_UNREGISTER_DYNAMIC_GROUP",
          "param": [
            "133002196",
            "0"
          ]
        }
      ],
      "versionBegin": "",
      "versionEnd": ""
    },
    {
      "subId": 7068103,
      "mainId": 70681,
      "order": 5,
      "descTextMapHash": 2800319604,
      "finishCond": [
        {
          "damageRatio": "QUEST_CONTENT_COMPLETE_TALK",
          "param": [
            7068103,
            0
          ]
        },
        {
          "damageRatio": "QUEST_CONTENT_COMPLETE_TALK",
          "param": [
            7068131,
            0
          ]
        }
      ],
      "guide": {
        "damageRatio": "QUEST_GUIDE_NPC",
        "param": [
          "14466"
        ],
        "guideScene": 3,
        "guideStyle": "QUEST_GUIDE_STYLE_TARGET",
        "guideLayer": "QUEST_GUIDE_LAYER_SCENE",
        "MLAHIFLGIGJ": ""
      },
      "guideHint": {
        "param1": ""
      },
      "isRewind": true,
      "versionBegin": "",
      "versionEnd": ""
    },
    {
      "subId": 7068104,
      "mainId": 70681,
      "order": 6,
      "descTextMapHash": 3341602556,
      "finishCond": [
        {
          "damageRatio": "QUEST_CONTENT_COMPLETE_TALK",
          "param": [
            7068104,
            0
          ]
        }
      ],
      "guide": {
        "damageRatio": "QUEST_GUIDE_LOCATION",
        "param": [
          "[3_300201050:1872.119,201.430,-133.528,0.000,337.495,0.000]"
        ],
        "guideScene": 3,
        "guideStyle": "QUEST_GUIDE_STYLE_POINT",
        "guideLayer": "QUEST_GUIDE_LAYER_SCENE",
        "MLAHIFLGIGJ": ""
      },
      "guideHint": {
        "param1": ""
      },
      "isRewind": true,
      "versionBegin": "",
      "versionEnd": ""
    },
    {
      "subId": 7068105,
      "mainId": 70681,
      "order": 7,
      "descTextMapHash": 695958964,
      "finishCond": [
        {
          "damageRatio": "QUEST_CONTENT_COMPLETE_TALK",
          "param": [
            7068105,
            0
          ]
        }
      ],
      "guide": {
        "damageRatio": "QUEST_GUIDE_LOCATION",
        "param": [
          "[3_300201051:1574.471,227.660,207.178,0.000,313.074,0.000]"
        ],
        "guideScene": 3,
        "guideStyle": "QUEST_GUIDE_STYLE_TARGET",
        "guideLayer": "QUEST_GUIDE_LAYER_SCENE",
        "MLAHIFLGIGJ": ""
      },
      "guideHint": {
        "param1": ""
      },
      "isRewind": true,
      "versionBegin": "",
      "versionEnd": ""
    },
    {
      "subId": 7068106,
      "mainId": 70681,
      "order": 8,
      "descTextMapHash": 370341900,
      "finishCond": [
        {
          "damageRatio": "QUEST_CONTENT_FINISH_PLOT",
          "param": [
            7068106,
            0
          ]
        }
      ],
      "guide": {
        "damageRatio": "QUEST_GUIDE_NPC",
        "param": [
          "14466"
        ],
        "guideScene": 3,
        "guideStyle": "QUEST_GUIDE_STYLE_TARGET",
        "guideLayer": "QUEST_GUIDE_LAYER_SCENE",
        "MLAHIFLGIGJ": ""
      },
      "guideHint": {
        "param1": ""
      },
      "isRewind": true,
      "versionBegin": "",
      "versionEnd": ""
    },
    {
      "subId": 7068107,
      "mainId": 70681,
      "order": 9,
      "descTextMapHash": 2655513796,
      "finishCond": [
        {
          "damageRatio": "QUEST_CONTENT_COMPLETE_TALK",
          "param": [
            7068107,
            0
          ]
        }
      ],
      "guide": {
        "damageRatio": "QUEST_GUIDE_LOCATION",
        "param": [
          "Q7068107_guide"
        ],
        "guideScene": 3,
        "guideStyle": "QUEST_GUIDE_STYLE_TARGET",
        "guideLayer": "QUEST_GUIDE_LAYER_SCENE",
        "MLAHIFLGIGJ": ""
      },
      "guideHint": {
        "param1": ""
      },
      "isRewind": true,
      "finishExec": [
        {
          "damageRatio": "QUEST_EXEC_SET_WEATHER_GADGET",
          "param": [
            "10283",
            "0"
          ]
        }
      ],
      "versionBegin": "",
      "versionEnd": ""
    },
    {
      "subId": 7068108,
      "mainId": 70681,
      "order": 10,
      "descTextMapHash": 1621311404,
      "finishCond": [
        {
          "damageRatio": "QUEST_CONTENT_COMPLETE_TALK",
          "param": [
            7068108,
            0
          ]
        },
        {
          "damageRatio": "QUEST_CONTENT_COMPLETE_TALK",
          "param": [
            7068112,
            0
          ]
        }
      ],
      "guide": {
        "damageRatio": "QUEST_GUIDE_LOCATION",
        "param": [
          "Q7068108_guide"
        ],
        "guideScene": 3,
        "guideStyle": "QUEST_GUIDE_STYLE_POINT",
        "guideLayer": "QUEST_GUIDE_LAYER_SCENE",
        "MLAHIFLGIGJ": ""
      },
      "guideHint": {
        "param1": ""
      },
      "finishParent": true,
      "isRewind": true,
      "finishExec": [
        {
          "damageRatio": "QUEST_EXEC_UNREGISTER_DYNAMIC_GROUP",
          "param": [
            "133104844",
            "0"
          ]
        }
      ],
      "versionBegin": "",
      "versionEnd": ""
    },
    {
      "subId": 7068109,
      "mainId": 70681,
      "order": 1,
      "showType": "QUEST_HIDDEN",
      "finishCond": [
        {
          "damageRatio": "QUEST_CONTENT_FINISH_PLOT",
          "param": [
            7068109,
            0
          ]
        }
      ],
      "failCond": [
        {
          "damageRatio": "QUEST_CONTENT_QUEST_STATE_EQUAL",
          "param": [
            7068101,
            3
          ]
        }
      ],
      "guide": {
        "MLAHIFLGIGJ": ""
      },
      "guideHint": {
        "param1": ""
      },
      "isRewind": true,
      "versionBegin": "",
      "versionEnd": ""
    },
    {
      "subId": 7068110,
      "mainId": 70681,
      "order": 2,
      "showType": "QUEST_HIDDEN",
      "finishCond": [
        {
          "damageRatio": "QUEST_CONTENT_FINISH_PLOT",
          "param": [
            7068110,
            0
          ]
        }
      ],
      "failCond": [
        {
          "damageRatio": "QUEST_CONTENT_QUEST_STATE_EQUAL",
          "param": [
            7068101,
            3
          ]
        }
      ],
      "guide": {
        "MLAHIFLGIGJ": ""
      },
      "guideHint": {
        "param1": ""
      },
      "isRewind": true,
      "versionBegin": "",
      "versionEnd": ""
    }
  ],
  "talks": [
    {
      "id": 7068103,
      "beginWay": "TALK_BEGIN_MANUAL",
      "beginCond": [
        {
          "type": "QUEST_COND_STATE_EQUAL",
          "_param": [
            "7068103",
            "2"
          ]
        }
      ],
      "priority": 5,
      "initDialog": 706810301,
      "npcId": [
        14466
      ],
      "performCfg": "QuestDialogue/WQ/Mengde_70681/Q7068103",
      "heroTalk": "TALK_HERO_MAIN",
      "questId": 70681,
      "assetIndex": 1827192120153311730,
      "prePerformCfg": "",
      "CHAKPMBJNAJ": [
        "[3_300201049:1816.626,245.154,-606.479,0.000,9.381,0.000]",
        "[3_9401:1817.091,245.251,-604.719,0.000,196.989,0.000]",
        "[3_9402:1815.973,245.192,-604.648,0.000,161.447,0.000]"
      ]
    },
    {
      "id": 7068104,
      "beginWay": "TALK_BEGIN_MANUAL",
      "beginCond": [
        {
          "type": "QUEST_COND_STATE_EQUAL",
          "_param": [
            "7068104",
            "2"
          ]
        }
      ],
      "priority": 5,
      "initDialog": 706810401,
      "npcId": [
        14466
      ],
      "performCfg": "QuestDialogue/WQ/Mengde_70681/Q7068104",
      "heroTalk": "TALK_HERO_MAIN",
      "questId": 70681,
      "assetIndex": 2622754419421043932,
      "prePerformCfg": "",
      "CHAKPMBJNAJ": [
        "[3_300201050:1872.119,201.430,-133.528,0.000,337.495,0.000]",
        "[3_9403:1873.436,201.324,-142.849,0.226,340.954,0.035]",
        "[3_9404:1874.555,201.412,-142.334,0.000,323.383,0.000]"
      ]
    },
    {
      "id": 7068105,
      "beginWay": "TALK_BEGIN_MANUAL",
      "beginCond": [
        {
          "type": "QUEST_COND_STATE_EQUAL",
          "_param": [
            "7068105",
            "2"
          ]
        }
      ],
      "priority": 5,
      "initDialog": 706810501,
      "npcId": [
        14466
      ],
      "performCfg": "QuestDialogue/WQ/Mengde_70681/Q7068105",
      "heroTalk": "TALK_HERO_MAIN",
      "questId": 70681,
      "assetIndex": 16696608531351574888,
      "prePerformCfg": "",
      "CHAKPMBJNAJ": [
        "[3_300201051:1574.471,227.660,207.178,0.000,313.074,0.000]",
        "[3_9405:1575.554,227.660,205.588,0.000,317.723,0.000]",
        "[3_9406:1576.451,227.659,206.559,0.000,306.766,0.000]"
      ]
    },
    {
      "id": 7068106,
      "beginWay": "TALK_BEGIN_MANUAL",
      "beginCond": [
        {
          "type": "QUEST_COND_STATE_EQUAL",
          "_param": [
            "7068106",
            "2"
          ]
        }
      ],
      "priority": 5,
      "initDialog": 706810609,
      "npcId": [
        14466
      ],
      "performCfg": "QuestDialogue/WQ/Mengde_70681/Q7068106",
      "questId": 70681,
      "assetIndex": 10795007987223894397,
      "prePerformCfg": "",
      "HPEOPMFBIKA": true
    },
    {
      "id": 7068107,
      "beginWay": "TALK_BEGIN_MANUAL",
      "beginCond": [
        {
          "type": "QUEST_COND_STATE_EQUAL",
          "_param": [
            "7068107",
            "2"
          ]
        }
      ],
      "priority": 5,
      "initDialog": 706810701,
      "npcId": [
        14466
      ],
      "performCfg": "QuestDialogue/WQ/Mengde_70681/Q7068107",
      "heroTalk": "TALK_HERO_MAIN",
      "questId": 70681,
      "assetIndex": 6888297879207516938,
      "prePerformCfg": ""
    },
    {
      "id": 7068108,
      "beginWay": "TALK_BEGIN_MANUAL",
      "beginCond": [
        {
          "type": "QUEST_COND_STATE_EQUAL",
          "_param": [
            "7068108",
            "2"
          ]
        }
      ],
      "priority": 5,
      "initDialog": 706810801,
      "npcId": [
        14466
      ],
      "performCfg": "QuestDialogue/WQ/Mengde_70681/Q7068108",
      "heroTalk": "TALK_HERO_MAIN",
      "questId": 70681,
      "assetIndex": 9538469491473609228,
      "prePerformCfg": "",
      "CHAKPMBJNAJ": [
        "[3_9408:923.381,258.970,352.074,0.000,95.989,0.000]",
        "[3_9409:924.103,258.970,353.309,0.000,125.564,0.000]"
      ]
    },
    {
      "id": 7068112,
      "beginWay": "TALK_BEGIN_MANUAL",
      "beginCondComb": "LOGIC_AND",
      "beginCond": [
        {
          "type": "QUEST_COND_STATE_EQUAL",
          "_param": [
            "7068108",
            "2"
          ]
        },
        {
          "type": "QUEST_COND_SCENE_AREA_UNLOCKED",
          "_param": [
            "3",
            "7"
          ]
        }
      ],
      "priority": 7,
      "initDialog": 706811201,
      "npcId": [
        14466
      ],
      "performCfg": "QuestDialogue/WQ/Mengde_70681/Q7068112",
      "heroTalk": "TALK_HERO_MAIN",
      "questId": 70681,
      "assetIndex": 3185544997758490092,
      "prePerformCfg": "",
      "CHAKPMBJNAJ": [
        "[3_9408:923.381,258.970,352.074,0.000,95.989,0.000]",
        "[3_9409:924.103,258.970,353.309,0.000,125.564,0.000]"
      ],
      "HPEOPMFBIKA": true
    },
    {
      "id": 7068131,
      "beginWay": "TALK_BEGIN_MANUAL",
      "beginCondComb": "LOGIC_AND",
      "beginCond": [
        {
          "type": "QUEST_COND_STATE_EQUAL",
          "_param": [
            "7068103",
            "2"
          ]
        },
        {
          "type": "QUEST_COND_STATE_EQUAL",
          "_param": [
            "31801",
            "3"
          ]
        }
      ],
      "priority": 7,
      "initDialog": 706813101,
      "npcId": [
        14466
      ],
      "performCfg": "QuestDialogue/WQ/Mengde_70681/Q7068131",
      "heroTalk": "TALK_HERO_MAIN",
      "questId": 70681,
      "assetIndex": 7954974024706001248,
      "prePerformCfg": "",
      "CHAKPMBJNAJ": [
        "[3_300201049:1816.626,245.154,-606.479,0.000,9.381,0.000]",
        "[3_9401:1817.091,245.251,-604.719,0.000,196.989,0.000]",
        "[3_9402:1815.973,245.192,-604.648,0.000,161.447,0.000]"
      ],
      "HPEOPMFBIKA": true
    }
  ],
  "preloadLuaList": [
    4420811518952849623
  ],
  "forcePreloadLuaList": [
    13241095676259962210
  ],
  "freeStyleDic": {
    "14466": [
      4190
    ]
  },
  "dialogList": [
    {
      "id": 706810601,
      "talkRole": {
        "_id": ""
      },
      "talkAssetPath": "",
      "talkAssetPathAlter": "",
      "talkAudioName": "",
      "actionBefore": "",
      "actionWhile": "",
      "actionAfter": "",
      "optionIcon": "",
      "iconPath": ""
    },
    {
      "id": 706819904,
      "talkRole": {
        "type": "TALK_ROLE_NPC",
        "_id": "14466"
      },
      "talkContentTextMapHash": 1875747706,
      "talkAssetPath": "",
      "talkAssetPathAlter": "",
      "talkAudioName": "",
      "actionBefore": "",
      "actionWhile": "",
      "actionAfter": "",
      "optionIcon": "",
      "iconPath": ""
    }
  ],
  "LNMELPHNIDD": true
}