{
  "id": 70706,
  "damageRatio": "WQ",
  "mainQuestTag": "MAINQUEST_TAG_REPUTATION",
  "descTextMapHash": 1958266903,
  "EKEKACCODOE": 2651870886,
  "luaPath": "Actor/Quest/WQ70706",
  "subQuests": [
    {
      "subId": 7070601,
      "mainId": 70706,
      "order": 1,
      "descTextMapHash": 384770012,
      "finishCond": [
        {
          "damageRatio": "QUEST_CONTENT_FINISH_ITEM_GIVING",
          "param": [
            7070601,
            0
          ]
        }
      ],
      "guide": {
        "damageRatio": "QUEST_GUIDE_NPC",
        "param": [
          "1567"
        ],
        "guideScene": 3,
        "guideLayer": "QUEST_GUIDE_LAYER_SCENE",
        "MLAHIFLGIGJ": ""
      },
      "guideHint": {
        "param1": ""
      },
      "isRewind": true,
      "versionBegin": "",
      "versionEnd": ""
    },
    {
      "subId": 7070602,
      "mainId": 70706,
      "order": 2,
      "descTextMapHash": 3725627804,
      "finishCond": [
        {
          "damageRatio": "QUEST_CONTENT_COMPLETE_TALK",
          "param": [
            7070602,
            0
          ]
        }
      ],
      "guide": {
        "damageRatio": "QUEST_GUIDE_NPC",
        "param": [
          "1567"
        ],
        "guideScene": 3,
        "guideLayer": "QUEST_GUIDE_LAYER_SCENE",
        "MLAHIFLGIGJ": ""
      },
      "guideHint": {
        "param1": ""
      },
      "finishParent": true,
      "isRewind": true,
      "versionBegin": "",
      "versionEnd": ""
    }
  ],
  "talks": [
    {
      "id": 7070601,
      "beginWay": "TALK_BEGIN_MANUAL",
      "beginCondComb": "LOGIC_AND",
      "beginCond": [
        {
          "type": "QUEST_COND_STATE_EQUAL",
          "_param": [
            "7070601",
            "2"
          ]
        },
        {
          "type": "QUEST_COND_ITEM_GIVING_ACTIVED",
          "_param": [
            "7070601"
          ]
        }
      ],
      "priority": 1,
      "initDialog": 707060101,
      "npcId": [
        1567
      ],
      "performCfg": "",
      "questId": 70706,
      "assetIndex": 3936557859381087278,
      "dontBlockDaily": true,
      "prePerformCfg": ""
    },
    {
      "id": 7070602,
      "beginWay": "TALK_BEGIN_AUTO",
      "beginCond": [
        {
          "type": "QUEST_COND_STATE_EQUAL",
          "_param": [
            "7070602",
            "2"
          ]
        }
      ],
      "priority": 1,
      "initDialog": 707060201,
      "npcId": [
        1567
      ],
      "performCfg": "",
      "questId": 70706,
      "assetIndex": 11215653113213806637,
      "prePerformCfg": ""
    }
  ]
}