{
  "id": 70705,
  "damageRatio": "WQ",
  "mainQuestTag": "MAINQUEST_TAG_REPUTATION",
  "descTextMapHash": 1182613247,
  "EKEKACCODOE": 4093654550,
  "luaPath": "Actor/Quest/WQ70705",
  "subQuests": [
    {
      "subId": 7070501,
      "mainId": 70705,
      "order": 1,
      "descTextMapHash": 561810820,
      "finishCond": [
        {
          "damageRatio": "QUEST_CONTENT_FINISH_ITEM_GIVING",
          "param": [
            7070501,
            0
          ]
        }
      ],
      "guide": {
        "damageRatio": "QUEST_GUIDE_NPC",
        "param": [
          "1529"
        ],
        "guideScene": 3,
        "guideLayer": "QUEST_GUIDE_LAYER_SCENE",
        "MLAHIFLGIGJ": ""
      },
      "guideHint": {
        "param1": ""
      },
      "isRewind": true,
      "versionBegin": "",
      "versionEnd": ""
    },
    {
      "subId": 7070502,
      "mainId": 70705,
      "order": 2,
      "descTextMapHash": 914251548,
      "finishCond": [
        {
          "damageRatio": "QUEST_CONTENT_COMPLETE_TALK",
          "param": [
            7070502,
            0
          ]
        }
      ],
      "guide": {
        "damageRatio": "QUEST_GUIDE_NPC",
        "param": [
          "1529"
        ],
        "guideScene": 3,
        "guideLayer": "QUEST_GUIDE_LAYER_SCENE",
        "MLAHIFLGIGJ": ""
      },
      "guideHint": {
        "param1": ""
      },
      "finishParent": true,
      "isRewind": true,
      "versionBegin": "",
      "versionEnd": ""
    }
  ],
  "talks": [
    {
      "id": 7070501,
      "beginWay": "TALK_BEGIN_MANUAL",
      "beginCondComb": "LOGIC_AND",
      "beginCond": [
        {
          "type": "QUEST_COND_STATE_EQUAL",
          "_param": [
            "7070501",
            "2"
          ]
        },
        {
          "type": "QUEST_COND_ITEM_GIVING_ACTIVED",
          "_param": [
            "7070501"
          ]
        }
      ],
      "priority": 1,
      "initDialog": 707050101,
      "npcId": [
        1529
      ],
      "performCfg": "",
      "questId": 70705,
      "assetIndex": 4481992845671717647,
      "dontBlockDaily": true,
      "prePerformCfg": ""
    },
    {
      "id": 7070502,
      "beginWay": "TALK_BEGIN_AUTO",
      "beginCond": [
        {
          "type": "QUEST_COND_STATE_EQUAL",
          "_param": [
            "7070502",
            "2"
          ]
        }
      ],
      "priority": 1,
      "initDialog": 707050201,
      "npcId": [
        1529
      ],
      "performCfg": "",
      "questId": 70705,
      "assetIndex": 12621777479492240651,
      "prePerformCfg": ""
    }
  ]
}