{
  "id": 70905,
  "damageRatio": "WQ",
  "descTextMapHash": 2407092383,
  "EKEKACCODOE": 3567721982,
  "luaPath": "",
  "rewardIdList": [
    551001
  ],
  "showType": "QUEST_HIDDEN",
  "subQuests": [
    {
      "subId": 7090501,
      "mainId": 70905,
      "order": 1,
      "showType": "QUEST_HIDDEN",
      "finishCond": [
        {
          "damageRatio": "QUEST_CONTENT_COMPLETE_TALK",
          "param": [
            7090501,
            0
          ]
        }
      ],
      "guide": {
        "MLAHIFLGIGJ": ""
      },
      "guideHint": {
        "param1": ""
      },
      "finishParent": true,
      "versionBegin": "",
      "versionEnd": ""
    }
  ]
}