{
  "id": 70901,
  "damageRatio": "WQ",
  "descTextMapHash": 1224082807,
  "EKEKACCODOE": 1619056870,
  "luaPath": "",
  "rewardIdList": [
    552001
  ],
  "showType": "QUEST_HIDDEN",
  "subQuests": [
    {
      "subId": 7090101,
      "mainId": 70901,
      "order": 1,
      "showType": "QUEST_HIDDEN",
      "finishCond": [
        {
          "damageRatio": "QUEST_CONTENT_COMPLETE_TALK",
          "param": [
            7090101,
            0
          ]
        }
      ],
      "guide": {
        "MLAHIFLGIGJ": ""
      },
      "guideHint": {
        "param1": ""
      },
      "finishParent": true,
      "versionBegin": "",
      "versionEnd": ""
    }
  ]
}