{
  "id": 70903,
  "damageRatio": "WQ",
  "descTextMapHash": 2443113823,
  "EKEKACCODOE": 1618305966,
  "luaPath": "",
  "rewardIdList": [
    551014
  ],
  "showType": "QUEST_HIDDEN",
  "subQuests": [
    {
      "subId": 7090301,
      "mainId": 70903,
      "order": 1,
      "showType": "QUEST_HIDDEN",
      "finishCond": [
        {
          "damageRatio": "QUEST_CONTENT_COMPLETE_TALK",
          "param": [
            7090301,
            0
          ]
        }
      ],
      "guide": {
        "MLAHIFLGIGJ": ""
      },
      "guideHint": {
        "param1": ""
      },
      "finishParent": true,
      "versionBegin": "",
      "versionEnd": ""
    }
  ]
}