{
  "id": 70902,
  "damageRatio": "WQ",
  "descTextMapHash": 510366559,
  "EKEKACCODOE": 2480089902,
  "luaPath": "",
  "rewardIdList": [
    551009
  ],
  "showType": "QUEST_HIDDEN",
  "subQuests": [
    {
      "subId": 7090201,
      "mainId": 70902,
      "order": 1,
      "showType": "QUEST_HIDDEN",
      "finishCond": [
        {
          "damageRatio": "QUEST_CONTENT_COMPLETE_TALK",
          "param": [
            7090201,
            0
          ]
        }
      ],
      "guide": {
        "MLAHIFLGIGJ": ""
      },
      "guideHint": {
        "param1": ""
      },
      "finishParent": true,
      "versionBegin": "",
      "versionEnd": ""
    }
  ]
}