{
  "id": 70918,
  "damageRatio": "WQ",
  "descTextMapHash": 3808236823,
  "EKEKACCODOE": 1360111486,
  "luaPath": "",
  "rewardIdList": [
    551016
  ],
  "showType": "QUEST_HIDDEN",
  "subQuests": [
    {
      "subId": 7091801,
      "mainId": 70918,
      "order": 1,
      "showType": "QUEST_HIDDEN",
      "finishCond": [
        {
          "damageRatio": "QUEST_CONTENT_COMPLETE_TALK",
          "param": [
            7091801,
            0
          ]
        }
      ],
      "guide": {
        "MLAHIFLGIGJ": ""
      },
      "guideHint": {
        "param1": ""
      },
      "finishParent": true,
      "versionBegin": "",
      "versionEnd": ""
    }
  ]
}