{
  "id": 70921,
  "damageRatio": "WQ",
  "descTextMapHash": 2844150527,
  "EKEKACCODOE": 3415893550,
  "luaPath": "",
  "rewardIdList": [
    551019
  ],
  "showType": "QUEST_HIDDEN",
  "subQuests": [
    {
      "subId": 7092101,
      "mainId": 70921,
      "order": 1,
      "showType": "QUEST_HIDDEN",
      "finishCond": [
        {
          "damageRatio": "QUEST_CONTENT_COMPLETE_TALK",
          "param": [
            7092101,
            0
          ]
        }
      ],
      "guide": {
        "MLAHIFLGIGJ": ""
      },
      "guideHint": {
        "param1": ""
      },
      "finishParent": true,
      "versionBegin": "",
      "versionEnd": ""
    }
  ]
}