{
  "id": 70927,
  "damageRatio": "WQ",
  "descTextMapHash": 227863143,
  "EKEKACCODOE": 39866558,
  "luaPath": "",
  "rewardIdList": [
    551025
  ],
  "showType": "QUEST_HIDDEN",
  "subQuests": [
    {
      "subId": 7092701,
      "mainId": 70927,
      "order": 1,
      "showType": "QUEST_HIDDEN",
      "finishCond": [
        {
          "damageRatio": "QUEST_CONTENT_COMPLETE_TALK",
          "param": [
            7092701,
            0
          ]
        }
      ],
      "guide": {
        "MLAHIFLGIGJ": ""
      },
      "guideHint": {
        "param1": ""
      },
      "finishParent": true,
      "versionBegin": "",
      "versionEnd": ""
    }
  ]
}