{
  "id": 70942,
  "damageRatio": "WQ",
  "descTextMapHash": 614641551,
  "EKEKACCODOE": 235222526,
  "luaPath": "",
  "rewardIdList": [
    551041
  ],
  "showType": "QUEST_HIDDEN",
  "subQuests": [
    {
      "subId": 7094201,
      "mainId": 70942,
      "order": 1,
      "showType": "QUEST_HIDDEN",
      "finishCond": [
        {
          "damageRatio": "QUEST_CONTENT_COMPLETE_TALK",
          "param": [
            7094201,
            0
          ]
        }
      ],
      "guide": {
        "MLAHIFLGIGJ": ""
      },
      "guideHint": {
        "param1": ""
      },
      "finishParent": true,
      "versionBegin": "",
      "versionEnd": ""
    }
  ]
}