{
  "id": 71007,
  "damageRatio": "WQ",
  "activeMode": "PLAY_MODE_ALL",
  "descTextMapHash": 1306684047,
  "EKEKACCODOE": 137823246,
  "luaPath": "Actor/Quest/WQ71007",
  "showType": "QUEST_HIDDEN",
  "subQuests": [
    {
      "subId": 7100701,
      "mainId": 71007,
      "order": 1,
      "descTextMapHash": 2309733948,
      "showType": "QUEST_HIDDEN",
      "finishCond": [
        {
          "damageRatio": "QUEST_CONTENT_COMPLETE_TALK",
          "param": [
            7100701,
            0
          ]
        }
      ],
      "guide": {
        "damageRatio": "QUEST_GUIDE_NPC",
        "param": [
          "2409"
        ],
        "guideScene": 3,
        "guideStyle": "QUEST_GUIDE_STYLE_TARGET",
        "guideLayer": "QUEST_GUIDE_LAYER_SCENE",
        "MLAHIFLGIGJ": ""
      },
      "showGuide": "QUEST_GUIDE_ITEM_DISABLE",
      "guideHint": {
        "param1": ""
      },
      "finishParent": true,
      "isRewind": true,
      "versionBegin": "",
      "versionEnd": ""
    }
  ],
  "talks": [
    {
      "id": 7100701,
      "activeMode": "PLAY_MODE_ALL",
      "beginCond": [
        {
          "type": "QUEST_COND_STATE_EQUAL",
          "_param": [
            "7100701",
            "2"
          ]
        }
      ],
      "priority": 5,
      "initDialog": 710070101,
      "npcId": [
        2409
      ],
      "performCfg": "",
      "questId": 71007,
      "assetIndex": 1085998913639392382,
      "dontBlockDaily": true,
      "prePerformCfg": ""
    }
  ]
}