{
  "id": 71014,
  "damageRatio": "WQ",
  "descTextMapHash": 2351658127,
  "EKEKACCODOE": 778588646,
  "luaPath": "Actor/Quest/WQ71014",
  "rewardIdList": [
    171014
  ],
  "subQuests": [
    {
      "subId": 7101401,
      "mainId": 71014,
      "order": 1,
      "descTextMapHash": 2742022628,
      "finishCond": [
        {
          "damageRatio": "QUEST_CONTENT_COMPLETE_TALK",
          "param": [
            7101401,
            0
          ]
        }
      ],
      "guide": {
        "damageRatio": "QUEST_GUIDE_NPC",
        "param": [
          "2442"
        ],
        "guideScene": 3,
        "guideStyle": "QUEST_GUIDE_STYLE_START",
        "guideLayer": "QUEST_GUIDE_LAYER_SCENE",
        "MLAHIFLGIGJ": ""
      },
      "guideHint": {
        "param1": ""
      },
      "isRewind": true,
      "versionBegin": "",
      "versionEnd": ""
    },
    {
      "subId": 7101402,
      "mainId": 71014,
      "order": 2,
      "descTextMapHash": 1565407756,
      "stepDescTextMapHash": 1321159845,
      "finishCond": [
        {
          "damageRatio": "QUEST_CONTENT_COMPLETE_TALK",
          "param": [
            7101462,
            0
          ]
        }
      ],
      "guide": {
        "guideScene": 3,
        "guideLayer": "QUEST_GUIDE_LAYER_SCENE",
        "MLAHIFLGIGJ": ""
      },
      "showGuide": "QUEST_GUIDE_ITEM_DISABLE",
      "guideHint": {
        "param1": ""
      },
      "isRewind": true,
      "versionBegin": "",
      "versionEnd": ""
    },
    {
      "subId": 7101403,
      "mainId": 71014,
      "order": 3,
      "descTextMapHash": 2074588356,
      "stepDescTextMapHash": 1803543205,
      "finishCond": [
        {
          "damageRatio": "QUEST_CONTENT_COMPLETE_TALK",
          "param": [
            7101411,
            0
          ]
        }
      ],
      "failCond": [
        {
          "damageRatio": "QUEST_CONTENT_COMPLETE_TALK",
          "param": [
            7101462,
            0
          ]
        }
      ],
      "guide": {
        "damageRatio": "QUEST_GUIDE_NPC",
        "param": [
          "2447",
          "Q71014_Cuier"
        ],
        "guideScene": 3,
        "guideStyle": "QUEST_GUIDE_STYLE_POINT",
        "guideLayer": "QUEST_GUIDE_LAYER_SCENE",
        "MLAHIFLGIGJ": ""
      },
      "guideHint": {
        "param1": ""
      },
      "isRewind": true,
      "versionBegin": "",
      "versionEnd": ""
    },
    {
      "subId": 7101404,
      "mainId": 71014,
      "order": 4,
      "descTextMapHash": 1443666684,
      "stepDescTextMapHash": 917361645,
      "finishCond": [
        {
          "damageRatio": "QUEST_CONTENT_COMPLETE_TALK",
          "param": [
            7101421,
            0
          ]
        },
        {
          "damageRatio": "QUEST_CONTENT_COMPLETE_TALK",
          "param": [
            7101462,
            0
          ]
        }
      ],
      "guide": {
        "damageRatio": "QUEST_GUIDE_NPC",
        "param": [
          "2443",
          "Q71014_Guanhong"
        ],
        "guideScene": 3,
        "guideStyle": "QUEST_GUIDE_STYLE_POINT",
        "guideLayer": "QUEST_GUIDE_LAYER_SCENE",
        "MLAHIFLGIGJ": ""
      },
      "guideHint": {
        "param1": ""
      },
      "isRewind": true,
      "versionBegin": "",
      "versionEnd": ""
    },
    {
      "subId": 7101405,
      "mainId": 71014,
      "order": 5,
      "descTextMapHash": 2475882620,
      "stepDescTextMapHash": 1272843077,
      "finishCond": [
        {
          "damageRatio": "QUEST_CONTENT_COMPLETE_TALK",
          "param": [
            7101431,
            0
          ]
        },
        {
          "damageRatio": "QUEST_CONTENT_COMPLETE_TALK",
          "param": [
            7101462,
            0
          ]
        }
      ],
      "guide": {
        "damageRatio": "QUEST_GUIDE_NPC",
        "param": [
          "2446",
          "Q71014_Lijiulang"
        ],
        "guideScene": 3,
        "guideStyle": "QUEST_GUIDE_STYLE_POINT",
        "guideLayer": "QUEST_GUIDE_LAYER_SCENE",
        "MLAHIFLGIGJ": ""
      },
      "guideHint": {
        "param1": ""
      },
      "isRewind": true,
      "versionBegin": "",
      "versionEnd": ""
    },
    {
      "subId": 7101406,
      "mainId": 71014,
      "order": 6,
      "descTextMapHash": 3026431484,
      "stepDescTextMapHash": 2668168581,
      "finishCond": [
        {
          "damageRatio": "QUEST_CONTENT_COMPLETE_TALK",
          "param": [
            7101441,
            0
          ]
        },
        {
          "damageRatio": "QUEST_CONTENT_COMPLETE_TALK",
          "param": [
            7101462,
            0
          ]
        }
      ],
      "guide": {
        "damageRatio": "QUEST_GUIDE_NPC",
        "param": [
          "2445",
          "Q71014_Luofeng"
        ],
        "guideScene": 3,
        "guideStyle": "QUEST_GUIDE_STYLE_POINT",
        "guideLayer": "QUEST_GUIDE_LAYER_SCENE",
        "MLAHIFLGIGJ": ""
      },
      "guideHint": {
        "param1": ""
      },
      "isRewind": true,
      "versionBegin": "",
      "versionEnd": ""
    },
    {
      "subId": 7101407,
      "mainId": 71014,
      "order": 7,
      "descTextMapHash": 3194630564,
      "stepDescTextMapHash": 137386045,
      "finishCond": [
        {
          "damageRatio": "QUEST_CONTENT_COMPLETE_TALK",
          "param": [
            7101451,
            0
          ]
        },
        {
          "damageRatio": "QUEST_CONTENT_COMPLETE_TALK",
          "param": [
            7101462,
            0
          ]
        }
      ],
      "guide": {
        "damageRatio": "QUEST_GUIDE_NPC",
        "param": [
          "2444",
          "Q71014_Makeximu"
        ],
        "guideScene": 3,
        "guideStyle": "QUEST_GUIDE_STYLE_POINT",
        "guideLayer": "QUEST_GUIDE_LAYER_SCENE",
        "MLAHIFLGIGJ": ""
      },
      "guideHint": {
        "param1": ""
      },
      "isRewind": true,
      "versionBegin": "",
      "versionEnd": ""
    },
    {
      "subId": 7101408,
      "mainId": 71014,
      "order": 8,
      "descTextMapHash": 648140652,
      "stepDescTextMapHash": 221324277,
      "finishCond": [
        {
          "damageRatio": "QUEST_CONTENT_COMPLETE_TALK",
          "param": [
            7101461,
            0
          ]
        }
      ],
      "guide": {
        "damageRatio": "QUEST_GUIDE_NPC",
        "param": [
          "2448",
          "Q71014_Qiuge"
        ],
        "guideScene": 3,
        "guideStyle": "QUEST_GUIDE_STYLE_POINT",
        "guideLayer": "QUEST_GUIDE_LAYER_SCENE",
        "MLAHIFLGIGJ": ""
      },
      "guideHint": {
        "param1": ""
      },
      "isRewind": true,
      "versionBegin": "",
      "versionEnd": ""
    },
    {
      "subId": 7101409,
      "mainId": 71014,
      "order": 9,
      "descTextMapHash": 2516841700,
      "stepDescTextMapHash": 508266685,
      "finishCond": [
        {
          "damageRatio": "QUEST_CONTENT_COMPLETE_TALK",
          "param": [
            7101412,
            0
          ]
        }
      ],
      "failCond": [
        {
          "damageRatio": "QUEST_CONTENT_COMPLETE_TALK",
          "param": [
            7101465,
            0
          ]
        }
      ],
      "guide": {
        "damageRatio": "QUEST_GUIDE_NPC",
        "param": [
          "2037",
          "Q71014_Chaoxi"
        ],
        "guideScene": 3,
        "guideStyle": "QUEST_GUIDE_STYLE_TARGET",
        "guideLayer": "QUEST_GUIDE_LAYER_SCENE",
        "MLAHIFLGIGJ": ""
      },
      "guideHint": {
        "param1": ""
      },
      "isRewind": true,
      "finishExec": [
        {
          "damageRatio": "QUEST_EXEC_DEL_ALL_SPECIFIC_PACK_ITEM",
          "param": [
            "100600"
          ]
        }
      ],
      "versionBegin": "",
      "versionEnd": ""
    },
    {
      "subId": 7101410,
      "mainId": 71014,
      "order": 10,
      "descTextMapHash": 238152572,
      "stepDescTextMapHash": 220384685,
      "finishCond": [
        {
          "damageRatio": "QUEST_CONTENT_COMPLETE_TALK",
          "param": [
            7101413,
            0
          ]
        }
      ],
      "failCond": [
        {
          "damageRatio": "QUEST_CONTENT_COMPLETE_TALK",
          "param": [
            7101465,
            0
          ]
        }
      ],
      "guide": {
        "damageRatio": "QUEST_GUIDE_NPC",
        "param": [
          "2447",
          "Q71014_Cuier"
        ],
        "guideScene": 3,
        "guideStyle": "QUEST_GUIDE_STYLE_TARGET",
        "guideLayer": "QUEST_GUIDE_LAYER_SCENE",
        "MLAHIFLGIGJ": ""
      },
      "guideHint": {
        "param1": ""
      },
      "isRewind": true,
      "finishExec": [
        {
          "damageRatio": "QUEST_EXEC_DEL_ALL_SPECIFIC_PACK_ITEM",
          "param": [
            "100595"
          ]
        }
      ],
      "versionBegin": "",
      "versionEnd": ""
    },
    {
      "subId": 7101411,
      "mainId": 71014,
      "order": 11,
      "descTextMapHash": 4089298036,
      "stepDescTextMapHash": 502757941,
      "finishCond": [
        {
          "damageRatio": "QUEST_CONTENT_OBTAIN_ITEM",
          "param": [
            100031,
            0
          ],
          "count": 3
        }
      ],
      "guide": {
        "guideScene": 3,
        "guideStyle": "QUEST_GUIDE_STYLE_TARGET",
        "guideLayer": "QUEST_GUIDE_LAYER_SCENE",
        "MLAHIFLGIGJ": ""
      },
      "showGuide": "QUEST_GUIDE_ITEM_DISABLE",
      "guideHint": {
        "param1": ""
      },
      "isRewind": true,
      "versionBegin": "",
      "versionEnd": ""
    },
    {
      "subId": 7101412,
      "mainId": 71014,
      "order": 12,
      "descTextMapHash": 2384516100,
      "stepDescTextMapHash": 479928373,
      "finishCond": [
        {
          "damageRatio": "QUEST_CONTENT_COMPLETE_TALK",
          "param": [
            7101462,
            0
          ]
        }
      ],
      "guide": {
        "damageRatio": "QUEST_GUIDE_NPC",
        "param": [
          "2448",
          "Q71014_Qiuge"
        ],
        "guideScene": 3,
        "guideStyle": "QUEST_GUIDE_STYLE_POINT",
        "guideLayer": "QUEST_GUIDE_LAYER_SCENE",
        "MLAHIFLGIGJ": ""
      },
      "guideHint": {
        "param1": ""
      },
      "isRewind": true,
      "finishExec": [
        {
          "damageRatio": "QUEST_EXEC_DEL_PACK_ITEM",
          "param": [
            "100031",
            "3"
          ]
        }
      ],
      "versionBegin": "",
      "versionEnd": ""
    },
    {
      "subId": 7101413,
      "mainId": 71014,
      "order": 13,
      "descTextMapHash": 536370268,
      "stepDescTextMapHash": 3506522493,
      "finishCond": [
        {
          "damageRatio": "QUEST_CONTENT_COMPLETE_TALK",
          "param": [
            7101463,
            0
          ]
        }
      ],
      "guide": {
        "damageRatio": "QUEST_GUIDE_NPC",
        "param": [
          "2442",
          "Q71014_Luoxia"
        ],
        "guideScene": 3,
        "guideStyle": "QUEST_GUIDE_STYLE_TARGET",
        "guideLayer": "QUEST_GUIDE_LAYER_SCENE",
        "MLAHIFLGIGJ": ""
      },
      "guideHint": {
        "param1": ""
      },
      "isRewind": true,
      "versionBegin": "",
      "versionEnd": ""
    },
    {
      "subId": 7101414,
      "mainId": 71014,
      "order": 14,
      "descTextMapHash": 3325192844,
      "stepDescTextMapHash": 3246868557,
      "finishCond": [
        {
          "damageRatio": "QUEST_CONTENT_COMPLETE_TALK",
          "param": [
            7101465,
            0
          ]
        }
      ],
      "guide": {
        "damageRatio": "QUEST_GUIDE_NPC",
        "param": [
          "2450",
          "Q71014_Pinghai"
        ],
        "guideScene": 3,
        "guideStyle": "QUEST_GUIDE_STYLE_FINISH",
        "guideLayer": "QUEST_GUIDE_LAYER_SCENE",
        "MLAHIFLGIGJ": ""
      },
      "guideHint": {
        "param1": ""
      },
      "isRewind": true,
      "versionBegin": "",
      "versionEnd": ""
    },
    {
      "subId": 7101415,
      "mainId": 71014,
      "order": 15,
      "descTextMapHash": 258177036,
      "stepDescTextMapHash": 1860289341,
      "showType": "QUEST_HIDDEN",
      "finishCond": [
        {
          "damageRatio": "QUEST_CONTENT_FINISH_PLOT",
          "param": [
            7101415,
            0
          ]
        }
      ],
      "guide": {
        "guideScene": 3,
        "guideStyle": "QUEST_GUIDE_STYLE_FINISH",
        "guideLayer": "QUEST_GUIDE_LAYER_SCENE",
        "MLAHIFLGIGJ": ""
      },
      "guideHint": {
        "param1": ""
      },
      "finishParent": true,
      "isRewind": true,
      "versionBegin": "",
      "versionEnd": ""
    }
  ],
  "talks": [
    {
      "id": 7101401,
      "beginWay": "TALK_BEGIN_AUTO",
      "beginCond": [
        {
          "type": "QUEST_COND_STATE_EQUAL",
          "_param": [
            "7101401",
            "2"
          ]
        }
      ],
      "initDialog": 710140101,
      "npcId": [
        2442
      ],
      "performCfg": "",
      "heroTalk": "TALK_HERO_MAIN",
      "questId": 71014,
      "assetIndex": 8422353809386619742,
      "prePerformCfg": ""
    },
    {
      "id": 7101402,
      "beginWay": "TALK_BEGIN_MANUAL",
      "beginCond": [
        {
          "type": "QUEST_COND_STATE_EQUAL",
          "_param": [
            "7101414",
            "2"
          ]
        }
      ],
      "initDialog": 710140201,
      "npcId": [
        2442
      ],
      "performCfg": "",
      "heroTalk": "TALK_HERO_MAIN",
      "questId": 71014,
      "assetIndex": 7061782693338040621,
      "prePerformCfg": ""
    },
    {
      "id": 7101403,
      "beginWay": "TALK_BEGIN_MANUAL",
      "beginCond": [
        {
          "type": "QUEST_COND_STATE_EQUAL",
          "_param": [
            "7101402",
            "2"
          ]
        }
      ],
      "initDialog": 710140301,
      "npcId": [
        2442
      ],
      "performCfg": "",
      "heroTalk": "TALK_HERO_MAIN",
      "questId": 71014,
      "assetIndex": 7591360419879547264,
      "prePerformCfg": ""
    },
    {
      "id": 7101411,
      "beginWay": "TALK_BEGIN_MANUAL",
      "beginCond": [
        {
          "type": "QUEST_COND_STATE_EQUAL",
          "_param": [
            "7101403",
            "2"
          ]
        }
      ],
      "initDialog": 710141101,
      "npcId": [
        2447
      ],
      "performCfg": "",
      "heroTalk": "TALK_HERO_MAIN",
      "questId": 71014,
      "assetIndex": 12997740699625403507,
      "prePerformCfg": ""
    },
    {
      "id": 7101412,
      "beginWay": "TALK_BEGIN_MANUAL",
      "beginCond": [
        {
          "type": "QUEST_COND_STATE_EQUAL",
          "_param": [
            "7101409",
            "2"
          ]
        }
      ],
      "initDialog": 710141201,
      "npcId": [
        2037
      ],
      "performCfg": "",
      "heroTalk": "TALK_HERO_MAIN",
      "questId": 71014,
      "assetIndex": 18113481129669787021,
      "prePerformCfg": "",
      "freeStyleList": [
        9000
      ]
    },
    {
      "id": 7101413,
      "beginWay": "TALK_BEGIN_MANUAL",
      "beginCond": [
        {
          "type": "QUEST_COND_STATE_EQUAL",
          "_param": [
            "7101410",
            "2"
          ]
        }
      ],
      "initDialog": 710141301,
      "npcId": [
        2447
      ],
      "performCfg": "",
      "heroTalk": "TALK_HERO_MAIN",
      "questId": 71014,
      "assetIndex": 13926214019873503256,
      "prePerformCfg": ""
    },
    {
      "id": 7101414,
      "beginWay": "TALK_BEGIN_MANUAL",
      "beginCondComb": "LOGIC_OR",
      "beginCond": [
        {
          "type": "QUEST_COND_STATE_EQUAL",
          "_param": [
            "7101409",
            "2"
          ]
        },
        {
          "type": "QUEST_COND_STATE_EQUAL",
          "_param": [
            "7101403",
            "4"
          ]
        }
      ],
      "initDialog": 710141401,
      "npcId": [
        2447
      ],
      "performCfg": "",
      "heroTalk": "TALK_HERO_MAIN",
      "questId": 71014,
      "assetIndex": 11112854670116273456,
      "prePerformCfg": ""
    },
    {
      "id": 7101421,
      "beginWay": "TALK_BEGIN_MANUAL",
      "beginCond": [
        {
          "type": "QUEST_COND_STATE_EQUAL",
          "_param": [
            "7101404",
            "2"
          ]
        }
      ],
      "initDialog": 710142101,
      "npcId": [
        2443
      ],
      "performCfg": "",
      "heroTalk": "TALK_HERO_MAIN",
      "questId": 71014,
      "assetIndex": 12882552611520346531,
      "prePerformCfg": ""
    },
    {
      "id": 7101431,
      "beginWay": "TALK_BEGIN_MANUAL",
      "beginCond": [
        {
          "type": "QUEST_COND_STATE_EQUAL",
          "_param": [
            "7101405",
            "2"
          ]
        }
      ],
      "initDialog": 710143101,
      "npcId": [
        2446
      ],
      "performCfg": "",
      "heroTalk": "TALK_HERO_MAIN",
      "questId": 71014,
      "assetIndex": 18060655114503644759,
      "prePerformCfg": ""
    },
    {
      "id": 7101441,
      "beginWay": "TALK_BEGIN_MANUAL",
      "beginCond": [
        {
          "type": "QUEST_COND_STATE_EQUAL",
          "_param": [
            "7101406",
            "2"
          ]
        }
      ],
      "initDialog": 710144101,
      "npcId": [
        2445
      ],
      "performCfg": "",
      "heroTalk": "TALK_HERO_MAIN",
      "questId": 71014,
      "assetIndex": 15485561837336208731,
      "prePerformCfg": ""
    },
    {
      "id": 7101451,
      "beginWay": "TALK_BEGIN_MANUAL",
      "beginCond": [
        {
          "type": "QUEST_COND_STATE_EQUAL",
          "_param": [
            "7101407",
            "2"
          ]
        }
      ],
      "initDialog": 710145101,
      "npcId": [
        2444
      ],
      "performCfg": "",
      "heroTalk": "TALK_HERO_MAIN",
      "questId": 71014,
      "assetIndex": 7355678617604387278,
      "prePerformCfg": ""
    },
    {
      "id": 7101461,
      "beginWay": "TALK_BEGIN_MANUAL",
      "beginCond": [
        {
          "type": "QUEST_COND_STATE_EQUAL",
          "_param": [
            "7101408",
            "2"
          ]
        }
      ],
      "initDialog": 710146101,
      "npcId": [
        2448
      ],
      "performCfg": "",
      "heroTalk": "TALK_HERO_MAIN",
      "questId": 71014,
      "assetIndex": 16607362908338186584,
      "prePerformCfg": ""
    },
    {
      "id": 7101462,
      "beginWay": "TALK_BEGIN_MANUAL",
      "beginCond": [
        {
          "type": "QUEST_COND_STATE_EQUAL",
          "_param": [
            "7101412",
            "2"
          ]
        }
      ],
      "initDialog": 710146201,
      "npcId": [
        2448
      ],
      "performCfg": "",
      "heroTalk": "TALK_HERO_MAIN",
      "questId": 71014,
      "assetIndex": 257125226701785555,
      "prePerformCfg": ""
    },
    {
      "id": 7101463,
      "beginWay": "TALK_BEGIN_MANUAL",
      "beginCond": [
        {
          "type": "QUEST_COND_STATE_EQUAL",
          "_param": [
            "7101413",
            "2"
          ]
        }
      ],
      "initDialog": 710146301,
      "npcId": [
        2442
      ],
      "performCfg": "",
      "heroTalk": "TALK_HERO_MAIN",
      "questId": 71014,
      "assetIndex": 11119325530065457025,
      "prePerformCfg": ""
    },
    {
      "id": 7101464,
      "beginWay": "TALK_BEGIN_MANUAL",
      "beginCond": [
        {
          "type": "QUEST_COND_STATE_EQUAL",
          "_param": [
            "7101414",
            "2"
          ]
        }
      ],
      "nextTalks": [
        7101465,
        7101466
      ],
      "initDialog": 710146401,
      "npcId": [
        2450
      ],
      "performCfg": "",
      "heroTalk": "TALK_HERO_MAIN",
      "questId": 71014,
      "assetIndex": 8124874512513464085,
      "prePerformCfg": ""
    },
    {
      "id": 7101465,
      "beginCond": [
        {
          "type": "QUEST_COND_STATE_EQUAL",
          "_param": [
            "7101414",
            "2"
          ]
        }
      ],
      "initDialog": 710146501,
      "npcId": [
        2450
      ],
      "performCfg": "",
      "heroTalk": "TALK_HERO_MAIN",
      "questId": 71014,
      "assetIndex": 7986697483398301013,
      "prePerformCfg": ""
    },
    {
      "id": 7101466,
      "beginCond": [
        {
          "type": "QUEST_COND_STATE_EQUAL",
          "_param": [
            "7101414",
            "2"
          ]
        }
      ],
      "initDialog": 710146601,
      "npcId": [
        2450
      ],
      "performCfg": "",
      "heroTalk": "TALK_HERO_MAIN",
      "questId": 71014,
      "assetIndex": 11594671895762215785,
      "prePerformCfg": ""
    },
    {
      "id": 7101467,
      "beginWay": "TALK_BEGIN_MANUAL",
      "beginCond": [
        {
          "type": "QUEST_COND_STATE_EQUAL",
          "_param": [
            "7101402",
            "2"
          ]
        }
      ],
      "initDialog": 710146701,
      "npcId": [
        2442
      ],
      "performCfg": "",
      "heroTalk": "TALK_HERO_MAIN",
      "questId": 71014,
      "assetIndex": 15624157305765103383,
      "prePerformCfg": ""
    },
    {
      "id": 7101468,
      "beginWay": "TALK_BEGIN_MANUAL",
      "beginCond": [
        {
          "type": "QUEST_COND_STATE_EQUAL",
          "_param": [
            "7101414",
            "2"
          ]
        }
      ],
      "initDialog": 710146801,
      "npcId": [
        2442
      ],
      "performCfg": "",
      "heroTalk": "TALK_HERO_MAIN",
      "questId": 71014,
      "assetIndex": 14996925090371677637,
      "prePerformCfg": ""
    },
    {
      "id": 7101469,
      "beginWay": "TALK_BEGIN_MANUAL",
      "beginCond": [
        {
          "type": "QUEST_COND_STATE_EQUAL",
          "_param": [
            "7101411",
            "2"
          ]
        }
      ],
      "initDialog": 710146901,
      "npcId": [
        2448
      ],
      "performCfg": "",
      "heroTalk": "TALK_HERO_MAIN",
      "questId": 71014,
      "assetIndex": 3675672368530604731,
      "prePerformCfg": ""
    },
    {
      "id": 7101491,
      "beginWay": "TALK_BEGIN_MANUAL",
      "beginCondComb": "LOGIC_OR",
      "beginCond": [
        {
          "type": "QUEST_COND_STATE_EQUAL",
          "_param": [
            "7101414",
            "2"
          ]
        },
        {
          "type": "QUEST_COND_STATE_EQUAL",
          "_param": [
            "7101410",
            "3"
          ]
        }
      ],
      "initDialog": 710149101,
      "npcId": [
        2447
      ],
      "performCfg": "",
      "heroTalk": "TALK_HERO_MAIN",
      "questId": 71014,
      "assetIndex": 4040508068742754707,
      "prePerformCfg": ""
    },
    {
      "id": 7101492,
      "beginWay": "TALK_BEGIN_MANUAL",
      "beginCondComb": "LOGIC_OR",
      "beginCond": [
        {
          "type": "QUEST_COND_STATE_EQUAL",
          "_param": [
            "7101414",
            "2"
          ]
        },
        {
          "type": "QUEST_COND_STATE_EQUAL",
          "_param": [
            "7101404",
            "3"
          ]
        }
      ],
      "initDialog": 710149201,
      "npcId": [
        2443
      ],
      "performCfg": "",
      "heroTalk": "TALK_HERO_MAIN",
      "questId": 71014,
      "assetIndex": 12630194304275248590,
      "prePerformCfg": ""
    },
    {
      "id": 7101493,
      "beginWay": "TALK_BEGIN_MANUAL",
      "beginCondComb": "LOGIC_OR",
      "beginCond": [
        {
          "type": "QUEST_COND_STATE_EQUAL",
          "_param": [
            "7101414",
            "2"
          ]
        },
        {
          "type": "QUEST_COND_STATE_EQUAL",
          "_param": [
            "7101405",
            "3"
          ]
        }
      ],
      "initDialog": 710149301,
      "npcId": [
        2446
      ],
      "performCfg": "",
      "heroTalk": "TALK_HERO_MAIN",
      "questId": 71014,
      "assetIndex": 4368642739368564530,
      "prePerformCfg": ""
    },
    {
      "id": 7101494,
      "beginWay": "TALK_BEGIN_MANUAL",
      "beginCondComb": "LOGIC_OR",
      "beginCond": [
        {
          "type": "QUEST_COND_STATE_EQUAL",
          "_param": [
            "7101414",
            "2"
          ]
        },
        {
          "type": "QUEST_COND_STATE_EQUAL",
          "_param": [
            "7101406",
            "3"
          ]
        }
      ],
      "initDialog": 710149401,
      "npcId": [
        2445
      ],
      "performCfg": "",
      "heroTalk": "TALK_HERO_MAIN",
      "questId": 71014,
      "assetIndex": 10720295935404147207,
      "prePerformCfg": ""
    },
    {
      "id": 7101495,
      "beginWay": "TALK_BEGIN_MANUAL",
      "beginCondComb": "LOGIC_OR",
      "beginCond": [
        {
          "type": "QUEST_COND_STATE_EQUAL",
          "_param": [
            "7101414",
            "2"
          ]
        },
        {
          "type": "QUEST_COND_STATE_EQUAL",
          "_param": [
            "7101407",
            "3"
          ]
        }
      ],
      "initDialog": 710149501,
      "npcId": [
        2444
      ],
      "performCfg": "",
      "heroTalk": "TALK_HERO_MAIN",
      "questId": 71014,
      "assetIndex": 10554644185310758437,
      "prePerformCfg": ""
    },
    {
      "id": 7101496,
      "beginWay": "TALK_BEGIN_MANUAL",
      "beginCond": [
        {
          "type": "QUEST_COND_STATE_EQUAL",
          "_param": [
            "7101413",
            "2"
          ]
        }
      ],
      "initDialog": 710149601,
      "npcId": [
        2448
      ],
      "performCfg": "",
      "heroTalk": "TALK_HERO_MAIN",
      "questId": 71014,
      "assetIndex": 4629594426758153083,
      "prePerformCfg": ""
    },
    {
      "id": 7101497,
      "beginWay": "TALK_BEGIN_MANUAL",
      "beginCond": [
        {
          "type": "QUEST_COND_STATE_EQUAL",
          "_param": [
            "7101414",
            "2"
          ]
        }
      ],
      "initDialog": 710149701,
      "npcId": [
        2448
      ],
      "performCfg": "",
      "heroTalk": "TALK_HERO_MAIN",
      "questId": 71014,
      "assetIndex": 17495321719533730066,
      "prePerformCfg": ""
    },
    {
      "id": 7101498,
      "beginWay": "TALK_BEGIN_MANUAL",
      "beginCondComb": "LOGIC_OR",
      "beginCond": [
        {
          "type": "QUEST_COND_STATE_EQUAL",
          "_param": [
            "7101414",
            "2"
          ]
        },
        {
          "type": "QUEST_COND_STATE_EQUAL",
          "_param": [
            "7101409",
            "3"
          ]
        }
      ],
      "initDialog": 710149801,
      "npcId": [
        2076
      ],
      "performCfg": "",
      "heroTalk": "TALK_HERO_MAIN",
      "questId": 71014,
      "assetIndex": 16802111233574584563,
      "prePerformCfg": ""
    }
  ]
}