{
  "id": 71033,
  "series": 71033,
  "damageRatio": "WQ",
  "activeMode": "PLAY_MODE_ALL",
  "descTextMapHash": 1648436871,
  "EKEKACCODOE": 725585590,
  "luaPath": "Actor/Quest/WQ71033",
  "rewardIdList": [
    171033
  ],
  "showRedPoint": true,
  "subQuests": [
    {
      "subId": 7103301,
      "mainId": 71033,
      "order": 2,
      "descTextMapHash": 544205596,
      "finishCond": [
        {
          "damageRatio": "QUEST_CONTENT_COMPLETE_TALK",
          "param": [
            7103301,
            0
          ]
        }
      ],
      "guide": {
        "damageRatio": "QUEST_GUIDE_NPC",
        "param": [
          "240901"
        ],
        "guideScene": 3,
        "guideStyle": "QUEST_GUIDE_STYLE_TARGET",
        "guideLayer": "QUEST_GUIDE_LAYER_SCENE",
        "MLAHIFLGIGJ": ""
      },
      "guideHint": {
        "param1": ""
      },
      "isRewind": true,
      "versionBegin": "",
      "versionEnd": ""
    },
    {
      "subId": 7103302,
      "mainId": 71033,
      "order": 3,
      "descTextMapHash": 2363880348,
      "finishCond": [
        {
          "damageRatio": "QUEST_CONTENT_FINISH_PLOT",
          "param": [
            7103302,
            0
          ]
        }
      ],
      "guide": {
        "damageRatio": "QUEST_GUIDE_LOCATION",
        "param": [
          "Q7103303Fanmier",
          "40"
        ],
        "guideScene": 3,
        "guideStyle": "QUEST_GUIDE_STYLE_TARGET",
        "guideLayer": "QUEST_GUIDE_LAYER_SCENE",
        "MLAHIFLGIGJ": ""
      },
      "guideHint": {
        "param1": ""
      },
      "isRewind": true,
      "versionBegin": "",
      "versionEnd": ""
    },
    {
      "subId": 7103303,
      "mainId": 71033,
      "order": 4,
      "descTextMapHash": 1736909364,
      "finishCond": [
        {
          "damageRatio": "QUEST_CONTENT_COMPLETE_TALK",
          "param": [
            7103303,
            0
          ]
        }
      ],
      "guide": {
        "damageRatio": "QUEST_GUIDE_NPC",
        "param": [
          "240901"
        ],
        "guideScene": 3,
        "guideStyle": "QUEST_GUIDE_STYLE_TARGET",
        "guideLayer": "QUEST_GUIDE_LAYER_SCENE",
        "MLAHIFLGIGJ": ""
      },
      "guideHint": {
        "param1": ""
      },
      "versionBegin": "",
      "versionEnd": ""
    },
    {
      "subId": 7103304,
      "mainId": 71033,
      "order": 5,
      "descTextMapHash": 1336764668,
      "finishCond": [
        {
          "damageRatio": "QUEST_CONTENT_COMPLETE_TALK",
          "param": [
            7103304,
            0
          ]
        }
      ],
      "guide": {
        "damageRatio": "QUEST_GUIDE_NPC",
        "param": [
          "230601"
        ],
        "guideScene": 3,
        "guideStyle": "QUEST_GUIDE_STYLE_TARGET",
        "guideLayer": "QUEST_GUIDE_LAYER_SCENE",
        "MLAHIFLGIGJ": ""
      },
      "guideHint": {
        "param1": ""
      },
      "isRewind": true,
      "versionBegin": "",
      "versionEnd": ""
    },
    {
      "subId": 7103305,
      "mainId": 71033,
      "order": 6,
      "descTextMapHash": 3794487140,
      "finishCond": [
        {
          "damageRatio": "QUEST_CONTENT_COMPLETE_TALK",
          "param": [
            7103305,
            0
          ]
        }
      ],
      "guide": {
        "damageRatio": "QUEST_GUIDE_NPC",
        "param": [
          "220501"
        ],
        "guideScene": 3,
        "guideStyle": "QUEST_GUIDE_STYLE_TARGET",
        "guideLayer": "QUEST_GUIDE_LAYER_SCENE",
        "MLAHIFLGIGJ": ""
      },
      "guideHint": {
        "param1": ""
      },
      "isRewind": true,
      "versionBegin": "",
      "versionEnd": ""
    },
    {
      "subId": 7103306,
      "mainId": 71033,
      "order": 7,
      "descTextMapHash": 3401459796,
      "finishCond": [
        {
          "damageRatio": "QUEST_CONTENT_INTERACT_GADGET",
          "param": [
            70710306,
            0
          ],
          "count": 1
        }
      ],
      "guide": {
        "damageRatio": "QUEST_GUIDE_LOCATION",
        "param": [
          "Q7103306Target"
        ],
        "guideScene": 3,
        "guideStyle": "QUEST_GUIDE_STYLE_POINT",
        "guideLayer": "QUEST_GUIDE_LAYER_SCENE",
        "MLAHIFLGIGJ": ""
      },
      "guideHint": {
        "param1": ""
      },
      "isRewind": true,
      "versionBegin": "",
      "versionEnd": ""
    },
    {
      "subId": 7103307,
      "mainId": 71033,
      "order": 8,
      "descTextMapHash": 2186344804,
      "finishCond": [
        {
          "damageRatio": "QUEST_CONTENT_INTERACT_GADGET",
          "param": [
            70710306,
            0
          ],
          "count": 1
        }
      ],
      "guide": {
        "damageRatio": "QUEST_GUIDE_LOCATION",
        "param": [
          "Q7103307Target"
        ],
        "guideScene": 3,
        "guideStyle": "QUEST_GUIDE_STYLE_POINT",
        "guideLayer": "QUEST_GUIDE_LAYER_SCENE",
        "MLAHIFLGIGJ": ""
      },
      "guideHint": {
        "param1": ""
      },
      "isRewind": true,
      "versionBegin": "",
      "versionEnd": ""
    },
    {
      "subId": 7103308,
      "mainId": 71033,
      "order": 9,
      "descTextMapHash": 2901801620,
      "finishCond": [
        {
          "damageRatio": "QUEST_CONTENT_INTERACT_GADGET",
          "param": [
            70710306,
            0
          ],
          "count": 1
        }
      ],
      "guide": {
        "damageRatio": "QUEST_GUIDE_LOCATION",
        "param": [
          "Q7103308Target"
        ],
        "guideScene": 3,
        "guideStyle": "QUEST_GUIDE_STYLE_POINT",
        "guideLayer": "QUEST_GUIDE_LAYER_SCENE",
        "MLAHIFLGIGJ": ""
      },
      "guideHint": {
        "param1": ""
      },
      "isRewind": true,
      "versionBegin": "",
      "versionEnd": ""
    },
    {
      "subId": 7103309,
      "mainId": 71033,
      "order": 10,
      "descTextMapHash": 291871708,
      "finishCond": [
        {
          "damageRatio": "QUEST_CONTENT_COMPLETE_TALK",
          "param": [
            7103309,
            0
          ]
        }
      ],
      "guide": {
        "damageRatio": "QUEST_GUIDE_NPC",
        "param": [
          "1005"
        ],
        "guideScene": 3,
        "guideStyle": "QUEST_GUIDE_STYLE_TARGET",
        "guideLayer": "QUEST_GUIDE_LAYER_SCENE",
        "MLAHIFLGIGJ": ""
      },
      "guideHint": {
        "param1": ""
      },
      "versionBegin": "",
      "versionEnd": ""
    },
    {
      "subId": 7103310,
      "mainId": 71033,
      "order": 11,
      "descTextMapHash": 125629948,
      "finishCond": [
        {
          "damageRatio": "QUEST_CONTENT_COMPLETE_TALK",
          "param": [
            7103310,
            0
          ]
        }
      ],
      "guide": {
        "damageRatio": "QUEST_GUIDE_NPC",
        "param": [
          "230501"
        ],
        "guideScene": 3,
        "guideStyle": "QUEST_GUIDE_STYLE_TARGET",
        "guideLayer": "QUEST_GUIDE_LAYER_SCENE",
        "MLAHIFLGIGJ": ""
      },
      "guideHint": {
        "param1": ""
      },
      "isRewind": true,
      "versionBegin": "",
      "versionEnd": ""
    },
    {
      "subId": 7103311,
      "mainId": 71033,
      "order": 14,
      "descTextMapHash": 537031604,
      "finishCond": [
        {
          "damageRatio": "QUEST_CONTENT_COMPLETE_TALK",
          "param": [
            7103311,
            0
          ]
        }
      ],
      "guide": {
        "damageRatio": "QUEST_GUIDE_NPC",
        "param": [
          "240901"
        ],
        "guideScene": 3,
        "guideStyle": "QUEST_GUIDE_STYLE_TARGET",
        "guideLayer": "QUEST_GUIDE_LAYER_SCENE",
        "MLAHIFLGIGJ": ""
      },
      "guideHint": {
        "param1": ""
      },
      "isRewind": true,
      "versionBegin": "",
      "versionEnd": ""
    },
    {
      "subId": 7103312,
      "mainId": 71033,
      "order": 15,
      "descTextMapHash": 587874668,
      "finishCond": [
        {
          "damageRatio": "QUEST_CONTENT_COMPLETE_TALK",
          "param": [
            7103312,
            0
          ]
        }
      ],
      "guide": {
        "damageRatio": "QUEST_GUIDE_NPC",
        "param": [
          "230601"
        ],
        "guideScene": 3,
        "guideStyle": "QUEST_GUIDE_STYLE_TARGET",
        "guideLayer": "QUEST_GUIDE_LAYER_SCENE",
        "MLAHIFLGIGJ": ""
      },
      "guideHint": {
        "param1": ""
      },
      "finishParent": true,
      "isRewind": true,
      "versionBegin": "",
      "versionEnd": ""
    },
    {
      "subId": 7103313,
      "mainId": 71033,
      "order": 1,
      "descTextMapHash": 1406111932,
      "showType": "QUEST_HIDDEN",
      "finishCond": [
        {
          "damageRatio": "QUEST_CONTENT_FINISH_PLOT",
          "param": [
            7103313,
            0
          ]
        }
      ],
      "guide": {
        "damageRatio": "QUEST_GUIDE_NPC",
        "param": [
          "220501"
        ],
        "guideScene": 3,
        "guideStyle": "QUEST_GUIDE_STYLE_TARGET",
        "guideLayer": "QUEST_GUIDE_LAYER_SCENE",
        "MLAHIFLGIGJ": ""
      },
      "guideHint": {
        "param1": ""
      },
      "isRewind": true,
      "versionBegin": "",
      "versionEnd": ""
    },
    {
      "subId": 7103314,
      "mainId": 71033,
      "order": 13,
      "descTextMapHash": 1259603388,
      "finishCond": [
        {
          "damageRatio": "QUEST_CONTENT_COMPLETE_TALK",
          "param": [
            7103314,
            0
          ]
        }
      ],
      "guide": {
        "damageRatio": "QUEST_GUIDE_NPC",
        "param": [
          "220501"
        ],
        "guideScene": 3,
        "guideStyle": "QUEST_GUIDE_STYLE_TARGET",
        "guideLayer": "QUEST_GUIDE_LAYER_SCENE",
        "MLAHIFLGIGJ": ""
      },
      "guideHint": {
        "param1": ""
      },
      "isRewind": true,
      "versionBegin": "",
      "versionEnd": ""
    },
    {
      "subId": 7103315,
      "mainId": 71033,
      "order": 12,
      "descTextMapHash": 3021472532,
      "finishCond": [
        {
          "damageRatio": "QUEST_CONTENT_INTERACT_GADGET",
          "param": [
            70710305,
            0
          ],
          "count": 1
        }
      ],
      "guide": {
        "damageRatio": "QUEST_GUIDE_LOCATION",
        "param": [
          "Q7103315SeaLamp"
        ],
        "guideScene": 3,
        "guideStyle": "QUEST_GUIDE_STYLE_TARGET",
        "guideLayer": "QUEST_GUIDE_LAYER_SCENE",
        "MLAHIFLGIGJ": ""
      },
      "showGuide": "QUEST_GUIDE_ITEM_DISABLE",
      "guideHint": {
        "param1": ""
      },
      "isRewind": true,
      "versionBegin": "",
      "versionEnd": ""
    }
  ],
  "talks": [
    {
      "id": 7103301,
      "beginWay": "TALK_BEGIN_MANUAL",
      "activeMode": "PLAY_MODE_HOST",
      "beginCond": [
        {
          "type": "QUEST_COND_STATE_EQUAL",
          "_param": [
            "7103301",
            "2"
          ]
        }
      ],
      "priority": 5,
      "initDialog": 710330101,
      "npcId": [
        240901
      ],
      "performCfg": "",
      "heroTalk": "TALK_HERO_MAIN",
      "questId": 71033,
      "assetIndex": 13656629245259581472,
      "prePerformCfg": "",
      "freeStyleList": [
        1200,
        1130,
        1171,
        1172,
        1173,
        1190,
        1090
      ]
    },
    {
      "id": 7103303,
      "beginWay": "TALK_BEGIN_MANUAL",
      "activeMode": "PLAY_MODE_HOST",
      "beginCond": [
        {
          "type": "QUEST_COND_STATE_EQUAL",
          "_param": [
            "7103303",
            "2"
          ]
        }
      ],
      "priority": 5,
      "initDialog": 710330301,
      "npcId": [
        240901
      ],
      "performCfg": "QuestDialogue/WQ/Liyue_71033/Q7103303",
      "heroTalk": "TALK_HERO_MAIN",
      "questId": 71033,
      "assetIndex": 8263081555415374939,
      "prePerformCfg": ""
    },
    {
      "id": 7103304,
      "beginWay": "TALK_BEGIN_MANUAL",
      "activeMode": "PLAY_MODE_HOST",
      "beginCond": [
        {
          "type": "QUEST_COND_STATE_EQUAL",
          "_param": [
            "7103304",
            "2"
          ]
        }
      ],
      "priority": 5,
      "initDialog": 710330401,
      "npcId": [
        230601
      ],
      "performCfg": "QuestDialogue/WQ/Liyue_71033/Q7103304",
      "heroTalk": "TALK_HERO_MAIN",
      "questId": 71033,
      "assetIndex": 2578236128090318827,
      "prePerformCfg": ""
    },
    {
      "id": 7103305,
      "beginWay": "TALK_BEGIN_MANUAL",
      "activeMode": "PLAY_MODE_HOST",
      "beginCond": [
        {
          "type": "QUEST_COND_STATE_EQUAL",
          "_param": [
            "7103305",
            "2"
          ]
        }
      ],
      "priority": 5,
      "initDialog": 710330501,
      "npcId": [
        220501
      ],
      "performCfg": "QuestDialogue/WQ/Liyue_71033/Q7103305",
      "heroTalk": "TALK_HERO_MAIN",
      "questId": 71033,
      "assetIndex": 1182869264388667511,
      "prePerformCfg": ""
    },
    {
      "id": 7103309,
      "beginWay": "TALK_BEGIN_MANUAL",
      "activeMode": "PLAY_MODE_HOST",
      "beginCond": [
        {
          "type": "QUEST_COND_STATE_EQUAL",
          "_param": [
            "7103309",
            "2"
          ]
        }
      ],
      "priority": 5,
      "initDialog": 710330901,
      "npcId": [
        220501
      ],
      "performCfg": "QuestDialogue/WQ/Liyue_71033/Q7103309",
      "heroTalk": "TALK_HERO_MAIN",
      "questId": 71033,
      "assetIndex": 2234927466311752859,
      "prePerformCfg": ""
    },
    {
      "id": 7103310,
      "beginWay": "TALK_BEGIN_MANUAL",
      "activeMode": "PLAY_MODE_HOST",
      "beginCond": [
        {
          "type": "QUEST_COND_STATE_EQUAL",
          "_param": [
            "7103310",
            "2"
          ]
        }
      ],
      "priority": 5,
      "initDialog": 710331001,
      "npcId": [
        230801,
        230901,
        230501
      ],
      "performCfg": "QuestDialogue/WQ/Liyue_71033/Q7103310",
      "heroTalk": "TALK_HERO_MAIN",
      "questId": 71033,
      "assetIndex": 1382439099261456635,
      "prePerformCfg": ""
    },
    {
      "id": 7103311,
      "beginWay": "TALK_BEGIN_MANUAL",
      "activeMode": "PLAY_MODE_HOST",
      "beginCond": [
        {
          "type": "QUEST_COND_STATE_EQUAL",
          "_param": [
            "7103311",
            "2"
          ]
        }
      ],
      "priority": 5,
      "initDialog": 710331101,
      "npcId": [
        240901
      ],
      "performCfg": "QuestDialogue/WQ/Liyue_71033/Q7103311",
      "heroTalk": "TALK_HERO_MAIN",
      "questId": 71033,
      "assetIndex": 21581381885973091,
      "prePerformCfg": ""
    },
    {
      "id": 7103312,
      "beginWay": "TALK_BEGIN_MANUAL",
      "activeMode": "PLAY_MODE_HOST",
      "beginCond": [
        {
          "type": "QUEST_COND_STATE_EQUAL",
          "_param": [
            "7103312",
            "2"
          ]
        }
      ],
      "priority": 5,
      "initDialog": 710331201,
      "npcId": [
        230601
      ],
      "performCfg": "",
      "heroTalk": "TALK_HERO_MAIN",
      "questId": 71033,
      "assetIndex": 7428182469594374794,
      "prePerformCfg": ""
    },
    {
      "id": 7103314,
      "beginWay": "TALK_BEGIN_MANUAL",
      "activeMode": "PLAY_MODE_HOST",
      "beginCond": [
        {
          "type": "QUEST_COND_STATE_EQUAL",
          "_param": [
            "7103314",
            "2"
          ]
        }
      ],
      "priority": 5,
      "initDialog": 710331401,
      "npcId": [
        220501
      ],
      "performCfg": "QuestDialogue/WQ/Liyue_71033/Q7103314",
      "heroTalk": "TALK_HERO_MAIN",
      "questId": 71033,
      "assetIndex": 16138606057924158318,
      "prePerformCfg": ""
    },
    {
      "id": 7103315,
      "beginWay": "TALK_BEGIN_MANUAL",
      "activeMode": "PLAY_MODE_HOST",
      "beginCondComb": "LOGIC_OR",
      "beginCond": [
        {
          "type": "QUEST_COND_STATE_EQUAL",
          "_param": [
            "7103314",
            "2"
          ]
        },
        {
          "type": "QUEST_COND_STATE_EQUAL",
          "_param": [
            "7103311",
            "2"
          ]
        },
        {
          "type": "QUEST_COND_STATE_EQUAL",
          "_param": [
            "7103312",
            "2"
          ]
        }
      ],
      "initDialog": 710331501,
      "npcId": [
        10375
      ],
      "performCfg": "",
      "questId": 71033,
      "assetIndex": 7710931049260961581,
      "prePerformCfg": ""
    },
    {
      "id": 7103350,
      "beginWay": "TALK_BEGIN_MANUAL",
      "activeMode": "PLAY_MODE_HOST",
      "beginCondComb": "LOGIC_OR",
      "beginCond": [
        {
          "type": "QUEST_COND_STATE_EQUAL",
          "_param": [
            "7103305",
            "2"
          ]
        },
        {
          "type": "QUEST_COND_STATE_EQUAL",
          "_param": [
            "7103306",
            "2"
          ]
        }
      ],
      "priority": 5,
      "initDialog": 710335001,
      "npcId": [
        230601
      ],
      "performCfg": "",
      "heroTalk": "TALK_HERO_MAIN",
      "questId": 71033,
      "assetIndex": 13833448248116164035,
      "prePerformCfg": ""
    },
    {
      "id": 7103351,
      "beginWay": "TALK_BEGIN_MANUAL",
      "activeMode": "PLAY_MODE_HOST",
      "beginCond": [
        {
          "type": "QUEST_COND_STATE_EQUAL",
          "_param": [
            "7103311",
            "2"
          ]
        }
      ],
      "priority": 5,
      "initDialog": 710335101,
      "npcId": [
        230801
      ],
      "performCfg": "",
      "heroTalk": "TALK_HERO_MAIN",
      "questId": 71033,
      "assetIndex": 8413777024880363314,
      "prePerformCfg": ""
    },
    {
      "id": 7103352,
      "beginWay": "TALK_BEGIN_MANUAL",
      "activeMode": "PLAY_MODE_HOST",
      "beginCond": [
        {
          "type": "QUEST_COND_STATE_EQUAL",
          "_param": [
            "7103311",
            "2"
          ]
        }
      ],
      "priority": 5,
      "initDialog": 710335201,
      "npcId": [
        230901
      ],
      "performCfg": "",
      "heroTalk": "TALK_HERO_MAIN",
      "questId": 71033,
      "assetIndex": 2159671141293919994,
      "prePerformCfg": ""
    },
    {
      "id": 7103353,
      "beginWay": "TALK_BEGIN_MANUAL",
      "activeMode": "PLAY_MODE_HOST",
      "beginCond": [
        {
          "type": "QUEST_COND_STATE_EQUAL",
          "_param": [
            "7103311",
            "2"
          ]
        }
      ],
      "priority": 5,
      "initDialog": 710335301,
      "npcId": [
        230501
      ],
      "performCfg": "",
      "heroTalk": "TALK_HERO_MAIN",
      "questId": 71033,
      "assetIndex": 12825784568002149292,
      "prePerformCfg": ""
    }
  ],
  "preloadLuaList": [
    13381132312055020433,
    6953968453448677314
  ],
  "forcePreloadLuaList": [
    10897757650521334234
  ],
  "freeStyleDic": {
    "240901": [
      1190
    ],
    "230501": [
      1060
    ],
    "230901": [
      5010
    ]
  }
}