{
  "id": 71053,
  "damageRatio": "WQ",
  "activeMode": "PLAY_MODE_ALL",
  "descTextMapHash": 1770101943,
  "EKEKACCODOE": 1469107118,
  "luaPath": "Actor/Quest/WQ71053",
  "showType": "QUEST_HIDDEN",
  "subQuests": [
    {
      "subId": 7105301,
      "mainId": 71053,
      "order": 1,
      "descTextMapHash": 1933855260,
      "finishCond": [
        {
          "damageRatio": "QUEST_CONTENT_COMPLETE_TALK",
          "param": [
            7105014,
            0
          ]
        }
      ],
      "guide": {
        "MLAHIFLGIGJ": ""
      },
      "guideHint": {
        "param1": ""
      },
      "finishParent": true,
      "isRewind": true,
      "versionBegin": "",
      "versionEnd": ""
    }
  ],
  "talks": [
    {
      "id": 7105014,
      "beginWay": "TALK_BEGIN_AUTO",
      "activeMode": "PLAY_MODE_HOST",
      "beginCondComb": "LOGIC_OR",
      "beginCond": [
        {
          "type": "QUEST_COND_STATE_EQUAL",
          "_param": [
            "7105301",
            "2"
          ]
        }
      ],
      "priority": 5,
      "initDialog": 710501401,
      "npcId": [
        2618
      ],
      "performCfg": "",
      "heroTalk": "TALK_HERO_MAIN",
      "questId": 71053,
      "assetIndex": 9521217198400537969,
      "prePerformCfg": ""
    }
  ]
}