{
  "id": 71064,
  "damageRatio": "WQ",
  "activeMode": "PLAY_MODE_ALL",
  "descTextMapHash": 3706311391,
  "EKEKACCODOE": 3246446894,
  "luaPath": "Actor/Quest/WQ71064",
  "rewardIdList": [
    171064
  ],
  "subQuests": [
    {
      "subId": 7106401,
      "mainId": 71064,
      "order": 1,
      "descTextMapHash": 1150064732,
      "showType": "QUEST_HIDDEN",
      "finishCond": [
        {
          "damageRatio": "QUEST_CONTENT_COMPLETE_TALK",
          "param": [
            7106401,
            0
          ]
        }
      ],
      "guide": {
        "MLAHIFLGIGJ": ""
      },
      "guideHint": {
        "param1": ""
      },
      "isRewind": true,
      "finishExec": [
        {
          "damageRatio": "QUEST_EXEC_REFRESH_GROUP_SUITE",
          "param": [
            "3",
            "133106435,2"
          ]
        }
      ],
      "versionBegin": "",
      "versionEnd": ""
    },
    {
      "subId": 7106402,
      "mainId": 71064,
      "order": 3,
      "subIdSet": 1,
      "descTextMapHash": 2275973468,
      "stepDescTextMapHash": 2840905029,
      "finishCond": [
        {
          "damageRatio": "QUEST_CONTENT_OBTAIN_ITEM",
          "param": [
            101635,
            0
          ],
          "count": 1
        }
      ],
      "guide": {
        "damageRatio": "QUEST_GUIDE_NPC",
        "param": [
          "2000"
        ],
        "guideScene": 3,
        "guideStyle": "QUEST_GUIDE_STYLE_TARGET",
        "guideLayer": "QUEST_GUIDE_LAYER_SCENE",
        "MLAHIFLGIGJ": ""
      },
      "guideHint": {
        "param1": ""
      },
      "isRewind": true,
      "finishExec": [
        {
          "damageRatio": "QUEST_EXEC_ADD_QUEST_PROGRESS",
          "param": [
            "7106412",
            "1"
          ]
        }
      ],
      "versionBegin": "",
      "versionEnd": ""
    },
    {
      "subId": 7106403,
      "mainId": 71064,
      "order": 4,
      "subIdSet": 1,
      "descTextMapHash": 232493300,
      "stepDescTextMapHash": 3347160557,
      "finishCond": [
        {
          "damageRatio": "QUEST_CONTENT_OBTAIN_ITEM",
          "param": [
            101636,
            0
          ],
          "count": 1
        }
      ],
      "guide": {
        "damageRatio": "QUEST_GUIDE_NPC",
        "param": [
          "2000"
        ],
        "guideScene": 3,
        "guideStyle": "QUEST_GUIDE_STYLE_TARGET",
        "guideLayer": "QUEST_GUIDE_LAYER_SCENE",
        "MLAHIFLGIGJ": ""
      },
      "guideHint": {
        "param1": ""
      },
      "isRewind": true,
      "finishExec": [
        {
          "damageRatio": "QUEST_EXEC_ADD_QUEST_PROGRESS",
          "param": [
            "7106412",
            "1"
          ]
        }
      ],
      "versionBegin": "",
      "versionEnd": ""
    },
    {
      "subId": 7106404,
      "mainId": 71064,
      "order": 5,
      "subIdSet": 1,
      "descTextMapHash": 2853931996,
      "stepDescTextMapHash": 819179589,
      "finishCond": [
        {
          "damageRatio": "QUEST_CONTENT_OBTAIN_ITEM",
          "param": [
            101637,
            0
          ],
          "count": 1
        }
      ],
      "guide": {
        "damageRatio": "QUEST_GUIDE_NPC",
        "param": [
          "2000"
        ],
        "guideScene": 3,
        "guideStyle": "QUEST_GUIDE_STYLE_TARGET",
        "guideLayer": "QUEST_GUIDE_LAYER_SCENE",
        "MLAHIFLGIGJ": ""
      },
      "guideHint": {
        "param1": ""
      },
      "isRewind": true,
      "finishExec": [
        {
          "damageRatio": "QUEST_EXEC_ADD_QUEST_PROGRESS",
          "param": [
            "7106412",
            "1"
          ]
        }
      ],
      "versionBegin": "",
      "versionEnd": ""
    },
    {
      "subId": 7106405,
      "mainId": 71064,
      "order": 6,
      "subIdSet": 1,
      "descTextMapHash": 3813058324,
      "stepDescTextMapHash": 3472499949,
      "finishCond": [
        {
          "damageRatio": "QUEST_CONTENT_OBTAIN_ITEM",
          "param": [
            101638,
            0
          ],
          "count": 1
        }
      ],
      "guide": {
        "damageRatio": "QUEST_GUIDE_NPC",
        "param": [
          "2000"
        ],
        "guideScene": 3,
        "guideStyle": "QUEST_GUIDE_STYLE_TARGET",
        "guideLayer": "QUEST_GUIDE_LAYER_SCENE",
        "MLAHIFLGIGJ": ""
      },
      "guideHint": {
        "param1": ""
      },
      "isRewind": true,
      "finishExec": [
        {
          "damageRatio": "QUEST_EXEC_ADD_QUEST_PROGRESS",
          "param": [
            "7106412",
            "1"
          ]
        }
      ],
      "versionBegin": "",
      "versionEnd": ""
    },
    {
      "subId": 7106406,
      "mainId": 71064,
      "order": 7,
      "subIdSet": 1,
      "descTextMapHash": 2924769372,
      "stepDescTextMapHash": 2606383773,
      "finishCond": [
        {
          "damageRatio": "QUEST_CONTENT_OBTAIN_ITEM",
          "param": [
            101639,
            0
          ],
          "count": 1
        }
      ],
      "guide": {
        "damageRatio": "QUEST_GUIDE_NPC",
        "param": [
          "2000"
        ],
        "guideScene": 3,
        "guideStyle": "QUEST_GUIDE_STYLE_TARGET",
        "guideLayer": "QUEST_GUIDE_LAYER_SCENE",
        "MLAHIFLGIGJ": ""
      },
      "guideHint": {
        "param1": ""
      },
      "isRewind": true,
      "finishExec": [
        {
          "damageRatio": "QUEST_EXEC_ADD_QUEST_PROGRESS",
          "param": [
            "7106412",
            "1"
          ]
        }
      ],
      "versionBegin": "",
      "versionEnd": ""
    },
    {
      "subId": 7106407,
      "mainId": 71064,
      "order": 8,
      "subIdSet": 1,
      "descTextMapHash": 2808027332,
      "stepDescTextMapHash": 2011768013,
      "finishCond": [
        {
          "damageRatio": "QUEST_CONTENT_OBTAIN_ITEM",
          "param": [
            101640,
            0
          ],
          "count": 1
        }
      ],
      "guide": {
        "damageRatio": "QUEST_GUIDE_NPC",
        "param": [
          "2000"
        ],
        "guideScene": 3,
        "guideStyle": "QUEST_GUIDE_STYLE_TARGET",
        "guideLayer": "QUEST_GUIDE_LAYER_SCENE",
        "MLAHIFLGIGJ": ""
      },
      "guideHint": {
        "param1": ""
      },
      "isRewind": true,
      "finishExec": [
        {
          "damageRatio": "QUEST_EXEC_ADD_QUEST_PROGRESS",
          "param": [
            "7106412",
            "1"
          ]
        }
      ],
      "versionBegin": "",
      "versionEnd": ""
    },
    {
      "subId": 7106408,
      "mainId": 71064,
      "order": 10,
      "descTextMapHash": 3894074956,
      "stepDescTextMapHash": 3958500765,
      "finishCond": [
        {
          "damageRatio": "QUEST_CONTENT_LUA_NOTIFY",
          "param": [
            0,
            0
          ],
          "count": 1
        }
      ],
      "guide": {
        "damageRatio": "QUEST_GUIDE_LOCATION",
        "autoGuide": "QUEST_GUIDE_AUTO_ENABLE",
        "param": [
          "Q7106408_guide"
        ],
        "guideScene": 3,
        "guideStyle": "QUEST_GUIDE_STYLE_TARGET",
        "guideLayer": "QUEST_GUIDE_LAYER_SCENE",
        "MLAHIFLGIGJ": ""
      },
      "guideHint": {
        "param1": ""
      },
      "isRewind": true,
      "versionBegin": "",
      "versionEnd": ""
    },
    {
      "subId": 7106409,
      "mainId": 71064,
      "order": 11,
      "descTextMapHash": 24554668,
      "stepDescTextMapHash": 1238655429,
      "finishCond": [
        {
          "damageRatio": "QUEST_CONTENT_LUA_NOTIFY",
          "param": [
            0,
            0
          ],
          "count": 1
        }
      ],
      "guide": {
        "damageRatio": "QUEST_GUIDE_LOCATION",
        "autoGuide": "QUEST_GUIDE_AUTO_ENABLE",
        "param": [
          "Q7106409_guide"
        ],
        "guideScene": 3,
        "guideStyle": "QUEST_GUIDE_STYLE_TARGET",
        "guideLayer": "QUEST_GUIDE_LAYER_SCENE",
        "MLAHIFLGIGJ": ""
      },
      "guideHint": {
        "param1": ""
      },
      "isRewind": true,
      "versionBegin": "",
      "versionEnd": ""
    },
    {
      "subId": 7106410,
      "mainId": 71064,
      "order": 12,
      "descTextMapHash": 1965677452,
      "finishCond": [
        {
          "damageRatio": "QUEST_CONTENT_COMPLETE_TALK",
          "param": [
            7106402,
            0
          ]
        }
      ],
      "guide": {
        "damageRatio": "QUEST_GUIDE_LOCATION",
        "autoGuide": "QUEST_GUIDE_AUTO_ENABLE",
        "param": [
          "Q7106410_guide"
        ],
        "guideScene": 3,
        "guideStyle": "QUEST_GUIDE_STYLE_TARGET",
        "guideLayer": "QUEST_GUIDE_LAYER_SCENE",
        "MLAHIFLGIGJ": ""
      },
      "guideHint": {
        "param1": ""
      },
      "isRewind": true,
      "versionBegin": "",
      "versionEnd": ""
    },
    {
      "subId": 7106411,
      "mainId": 71064,
      "order": 13,
      "descTextMapHash": 3845574108,
      "finishCond": [
        {
          "damageRatio": "QUEST_CONTENT_COMPLETE_TALK",
          "param": [
            7106403,
            0
          ]
        }
      ],
      "guide": {
        "damageRatio": "QUEST_GUIDE_NPC",
        "autoGuide": "QUEST_GUIDE_AUTO_ENABLE",
        "param": [
          "2000"
        ],
        "guideScene": 3,
        "guideStyle": "QUEST_GUIDE_STYLE_TARGET",
        "guideLayer": "QUEST_GUIDE_LAYER_SCENE",
        "MLAHIFLGIGJ": ""
      },
      "guideHint": {
        "param1": ""
      },
      "finishParent": true,
      "isRewind": true,
      "finishExec": [
        {
          "damageRatio": "QUEST_EXEC_NOTIFY_GROUP_LUA",
          "param": [
            "3",
            "133106652"
          ]
        }
      ],
      "versionBegin": "",
      "versionEnd": ""
    },
    {
      "subId": 7106412,
      "mainId": 71064,
      "order": 2,
      "descTextMapHash": 1740103708,
      "showType": "QUEST_HIDDEN",
      "finishCond": [
        {
          "damageRatio": "QUEST_CONTENT_ADD_QUEST_PROGRESS",
          "param": [
            7106412,
            0
          ],
          "count": 6
        }
      ],
      "guide": {
        "MLAHIFLGIGJ": ""
      },
      "guideHint": {
        "param1": ""
      },
      "isRewind": true,
      "versionBegin": "",
      "versionEnd": ""
    },
    {
      "subId": 7106413,
      "mainId": 71064,
      "order": 9,
      "descTextMapHash": 833739684,
      "showType": "QUEST_HIDDEN",
      "finishCond": [
        {
          "damageRatio": "QUEST_CONTENT_QUEST_STATE_EQUAL",
          "param": [
            7106412,
            3
          ]
        }
      ],
      "guide": {
        "MLAHIFLGIGJ": ""
      },
      "guideHint": {
        "param1": ""
      },
      "isRewind": true,
      "versionBegin": "",
      "versionEnd": ""
    }
  ],
  "talks": [
    {
      "id": 7106402,
      "beginWay": "TALK_BEGIN_MANUAL",
      "activeMode": "PLAY_MODE_HOST",
      "beginCond": [
        {
          "type": "QUEST_COND_STATE_EQUAL",
          "_param": [
            "7106408",
            "3"
          ]
        }
      ],
      "priority": 5,
      "initDialog": 710640201,
      "npcId": [
        20546
      ],
      "performCfg": "",
      "questId": 71064,
      "assetIndex": 4333276302979506605,
      "prePerformCfg": ""
    },
    {
      "id": 7106403,
      "beginWay": "TALK_BEGIN_MANUAL",
      "activeMode": "PLAY_MODE_HOST",
      "beginCond": [
        {
          "type": "QUEST_COND_STATE_EQUAL",
          "_param": [
            "7106411",
            "2"
          ]
        }
      ],
      "priority": 5,
      "initDialog": 710640301,
      "npcId": [
        2000
      ],
      "performCfg": "QuestDialogue/WQ/Liyue_71064/Q7106403",
      "questId": 71064,
      "assetIndex": 11737245352998134028,
      "prePerformCfg": ""
    },
    {
      "id": 7106404,
      "beginWay": "TALK_BEGIN_MANUAL",
      "activeMode": "PLAY_MODE_HOST",
      "beginCondComb": "LOGIC_AND",
      "beginCond": [
        {
          "type": "QUEST_COND_STATE_EQUAL",
          "_param": [
            "7106401",
            "3"
          ]
        },
        {
          "type": "QUEST_COND_QUEST_NOT_RECEIVE",
          "_param": [
            "7106408",
            "1"
          ]
        }
      ],
      "priority": 5,
      "nextTalks": [
        7106405,
        7106406,
        7106407,
        7106408,
        7106409,
        7106410,
        7106415
      ],
      "initDialog": 710640401,
      "npcId": [
        2000
      ],
      "performCfg": "QuestDialogue/WQ/Liyue_71064/Q7106404",
      "heroTalk": "TALK_HERO_MAIN",
      "questId": 71064,
      "assetIndex": 17559644124345787729,
      "prePerformCfg": ""
    },
    {
      "id": 7106405,
      "activeMode": "PLAY_MODE_HOST",
      "beginCondComb": "LOGIC_AND",
      "beginCond": [
        {
          "type": "QUEST_COND_STATE_EQUAL",
          "_param": [
            "7106401",
            "3"
          ]
        },
        {
          "type": "QUEST_COND_QUEST_NOT_RECEIVE",
          "_param": [
            "7106408",
            "1"
          ]
        },
        {
          "type": "QUEST_COND_STATE_EQUAL",
          "_param": [
            "7106402",
            "2"
          ]
        }
      ],
      "priority": 5,
      "nextTalks": [
        7106405,
        7106406,
        7106407,
        7106408,
        7106409,
        7106410,
        7106415
      ],
      "initDialog": 710640502,
      "npcId": [
        2000
      ],
      "performCfg": "QuestDialogue/WQ/Liyue_71064/Q7106405",
      "heroTalk": "TALK_HERO_MAIN",
      "questId": 71064,
      "assetIndex": 4684399760836760457,
      "prePerformCfg": ""
    },
    {
      "id": 7106406,
      "activeMode": "PLAY_MODE_HOST",
      "beginCondComb": "LOGIC_AND",
      "beginCond": [
        {
          "type": "QUEST_COND_STATE_EQUAL",
          "_param": [
            "7106401",
            "3"
          ]
        },
        {
          "type": "QUEST_COND_QUEST_NOT_RECEIVE",
          "_param": [
            "7106408",
            "1"
          ]
        },
        {
          "type": "QUEST_COND_STATE_EQUAL",
          "_param": [
            "7106403",
            "2"
          ]
        }
      ],
      "priority": 5,
      "nextTalks": [
        7106405,
        7106406,
        7106407,
        7106408,
        7106409,
        7106410,
        7106415
      ],
      "initDialog": 710640602,
      "npcId": [
        2000
      ],
      "performCfg": "QuestDialogue/WQ/Liyue_71064/Q7106406",
      "heroTalk": "TALK_HERO_MAIN",
      "questId": 71064,
      "assetIndex": 8157157937100359764,
      "prePerformCfg": ""
    },
    {
      "id": 7106407,
      "activeMode": "PLAY_MODE_HOST",
      "beginCondComb": "LOGIC_AND",
      "beginCond": [
        {
          "type": "QUEST_COND_STATE_EQUAL",
          "_param": [
            "7106401",
            "3"
          ]
        },
        {
          "type": "QUEST_COND_QUEST_NOT_RECEIVE",
          "_param": [
            "7106408",
            "1"
          ]
        },
        {
          "type": "QUEST_COND_STATE_EQUAL",
          "_param": [
            "7106404",
            "2"
          ]
        }
      ],
      "priority": 5,
      "nextTalks": [
        7106405,
        7106406,
        7106407,
        7106408,
        7106409,
        7106410,
        7106415
      ],
      "initDialog": 710640702,
      "npcId": [
        2000
      ],
      "performCfg": "QuestDialogue/WQ/Liyue_71064/Q7106407",
      "heroTalk": "TALK_HERO_MAIN",
      "questId": 71064,
      "assetIndex": 8910361702319790442,
      "prePerformCfg": ""
    },
    {
      "id": 7106408,
      "activeMode": "PLAY_MODE_HOST",
      "beginCondComb": "LOGIC_AND",
      "beginCond": [
        {
          "type": "QUEST_COND_STATE_EQUAL",
          "_param": [
            "7106401",
            "3"
          ]
        },
        {
          "type": "QUEST_COND_QUEST_NOT_RECEIVE",
          "_param": [
            "7106408",
            "1"
          ]
        },
        {
          "type": "QUEST_COND_STATE_EQUAL",
          "_param": [
            "7106405",
            "2"
          ]
        }
      ],
      "priority": 5,
      "nextTalks": [
        7106405,
        7106406,
        7106407,
        7106408,
        7106409,
        7106410,
        7106415
      ],
      "initDialog": 710640802,
      "npcId": [
        2000
      ],
      "performCfg": "QuestDialogue/WQ/Liyue_71064/Q7106408",
      "heroTalk": "TALK_HERO_MAIN",
      "questId": 71064,
      "assetIndex": 11285712074657542952,
      "prePerformCfg": ""
    },
    {
      "id": 7106409,
      "activeMode": "PLAY_MODE_HOST",
      "beginCondComb": "LOGIC_AND",
      "beginCond": [
        {
          "type": "QUEST_COND_STATE_EQUAL",
          "_param": [
            "7106401",
            "3"
          ]
        },
        {
          "type": "QUEST_COND_QUEST_NOT_RECEIVE",
          "_param": [
            "7106408",
            "1"
          ]
        },
        {
          "type": "QUEST_COND_STATE_EQUAL",
          "_param": [
            "7106406",
            "2"
          ]
        }
      ],
      "priority": 5,
      "nextTalks": [
        7106405,
        7106406,
        7106407,
        7106408,
        7106409,
        7106410,
        7106415
      ],
      "initDialog": 710640902,
      "npcId": [
        2000
      ],
      "performCfg": "QuestDialogue/WQ/Liyue_71064/Q7106409",
      "heroTalk": "TALK_HERO_MAIN",
      "questId": 71064,
      "assetIndex": 7248973554051671467,
      "prePerformCfg": ""
    },
    {
      "id": 7106410,
      "activeMode": "PLAY_MODE_HOST",
      "beginCondComb": "LOGIC_AND",
      "beginCond": [
        {
          "type": "QUEST_COND_STATE_EQUAL",
          "_param": [
            "7106401",
            "3"
          ]
        },
        {
          "type": "QUEST_COND_QUEST_NOT_RECEIVE",
          "_param": [
            "7106408",
            "1"
          ]
        },
        {
          "type": "QUEST_COND_STATE_EQUAL",
          "_param": [
            "7106407",
            "2"
          ]
        }
      ],
      "priority": 5,
      "nextTalks": [
        7106405,
        7106406,
        7106407,
        7106408,
        7106409,
        7106410,
        7106415
      ],
      "initDialog": 710641002,
      "npcId": [
        2000
      ],
      "performCfg": "QuestDialogue/WQ/Liyue_71064/Q7106410",
      "heroTalk": "TALK_HERO_MAIN",
      "questId": 71064,
      "assetIndex": 13114544313098320815,
      "prePerformCfg": ""
    },
    {
      "id": 7106413,
      "beginWay": "TALK_BEGIN_MANUAL",
      "activeMode": "PLAY_MODE_HOST",
      "beginCondComb": "LOGIC_OR",
      "beginCond": [
        {
          "type": "QUEST_COND_STATE_EQUAL",
          "_param": [
            "7106408",
            "2"
          ]
        },
        {
          "type": "QUEST_COND_STATE_EQUAL",
          "_param": [
            "7106410",
            "2"
          ]
        }
      ],
      "priority": 5,
      "initDialog": 710641301,
      "npcId": [
        2000
      ],
      "performCfg": "",
      "questId": 71064,
      "assetIndex": 15946475557046392880,
      "prePerformCfg": ""
    },
    {
      "id": 7106415,
      "activeMode": "PLAY_MODE_HOST",
      "beginCondComb": "LOGIC_AND",
      "beginCond": [
        {
          "type": "QUEST_COND_STATE_EQUAL",
          "_param": [
            "7106401",
            "3"
          ]
        },
        {
          "type": "QUEST_COND_QUEST_NOT_RECEIVE",
          "_param": [
            "7106408",
            "1"
          ]
        }
      ],
      "priority": 5,
      "initDialog": 710641501,
      "npcId": [
        2000
      ],
      "performCfg": "QuestDialogue/WQ/Liyue_71064/Q7106415",
      "heroTalk": "TALK_HERO_MAIN",
      "questId": 71064,
      "assetIndex": 15080934186805789939,
      "prePerformCfg": ""
    }
  ]
}