{
  "id": 71098,
  "damageRatio": "WQ",
  "activeMode": "PLAY_MODE_ALL",
  "descTextMapHash": 1689973911,
  "EKEKACCODOE": 445221566,
  "luaPath": "Actor/Quest/WQ71098",
  "rewardIdList": [
    171098
  ],
  "subQuests": [
    {
      "subId": 7109801,
      "mainId": 71098,
      "order": 1,
      "descTextMapHash": 2602448396,
      "showType": "QUEST_HIDDEN",
      "finishCond": [
        {
          "damageRatio": "QUEST_CONTENT_FINISH_PLOT",
          "param": [
            7109801,
            0
          ]
        }
      ],
      "guide": {
        "MLAHIFLGIGJ": ""
      },
      "guideHint": {
        "param1": ""
      },
      "isRewind": true,
      "versionBegin": "",
      "versionEnd": ""
    },
    {
      "subId": 7109802,
      "mainId": 71098,
      "order": 2,
      "descTextMapHash": 2454834092,
      "showType": "QUEST_HIDDEN",
      "finishCond": [
        {
          "damageRatio": "QUEST_CONTENT_COMPLETE_TALK",
          "param": [
            7109807,
            0
          ]
        }
      ],
      "guide": {
        "MLAHIFLGIGJ": ""
      },
      "guideHint": {
        "param1": ""
      },
      "isRewind": true,
      "versionBegin": "",
      "versionEnd": ""
    },
    {
      "subId": 7109803,
      "mainId": 71098,
      "order": 3,
      "descTextMapHash": 957314588,
      "finishCond": [
        {
          "damageRatio": "QUEST_CONTENT_COMPLETE_TALK",
          "param": [
            7109801,
            0
          ]
        }
      ],
      "guide": {
        "damageRatio": "QUEST_GUIDE_LOCATION",
        "autoGuide": "QUEST_GUIDE_AUTO_ENABLE",
        "param": [
          "Q7109803_guide_1439"
        ],
        "guideScene": 3,
        "guideStyle": "QUEST_GUIDE_STYLE_TARGET",
        "guideLayer": "QUEST_GUIDE_LAYER_SCENE",
        "MLAHIFLGIGJ": ""
      },
      "showGuide": "QUEST_GUIDE_ITEM_DISABLE",
      "guideHint": {
        "param1": ""
      },
      "isRewind": true,
      "versionBegin": "",
      "versionEnd": ""
    },
    {
      "subId": 7109804,
      "mainId": 71098,
      "order": 4,
      "descTextMapHash": 1721565764,
      "finishCond": [
        {
          "damageRatio": "QUEST_CONTENT_GADGET_STATE_CHANGE",
          "param": [
            133104832,
            832004
          ]
        }
      ],
      "guide": {
        "damageRatio": "QUEST_GUIDE_LOCATION",
        "autoGuide": "QUEST_GUIDE_AUTO_ENABLE",
        "param": [
          "Q7109804_guide",
          "15"
        ],
        "guideScene": 3,
        "guideStyle": "QUEST_GUIDE_STYLE_TARGET",
        "guideLayer": "QUEST_GUIDE_LAYER_SCENE",
        "MLAHIFLGIGJ": ""
      },
      "guideHint": {
        "param1": ""
      },
      "isRewind": true,
      "versionBegin": "",
      "versionEnd": ""
    },
    {
      "subId": 7109805,
      "mainId": 71098,
      "order": 6,
      "descTextMapHash": 3909435780,
      "finishCond": [
        {
          "damageRatio": "QUEST_CONTENT_FINISH_PLOT",
          "param": [
            7109805,
            0
          ]
        }
      ],
      "guide": {
        "damageRatio": "QUEST_GUIDE_LOCATION",
        "autoGuide": "QUEST_GUIDE_AUTO_ENABLE",
        "param": [
          "Q7109805_guide"
        ],
        "guideScene": 3,
        "guideStyle": "QUEST_GUIDE_STYLE_POINT",
        "guideLayer": "QUEST_GUIDE_LAYER_SCENE",
        "MLAHIFLGIGJ": ""
      },
      "guideHint": {
        "param1": ""
      },
      "isRewind": true,
      "versionBegin": "",
      "versionEnd": ""
    },
    {
      "subId": 7109806,
      "mainId": 71098,
      "order": 7,
      "descTextMapHash": 1572811180,
      "finishCond": [
        {
          "damageRatio": "QUEST_CONTENT_OBTAIN_ITEM",
          "param": [
            108021,
            0
          ],
          "count": 1
        }
      ],
      "guide": {
        "damageRatio": "QUEST_GUIDE_LOCATION",
        "autoGuide": "QUEST_GUIDE_AUTO_ENABLE",
        "param": [
          "Q7109805_guide"
        ],
        "guideScene": 3,
        "guideStyle": "QUEST_GUIDE_STYLE_TARGET",
        "guideLayer": "QUEST_GUIDE_LAYER_SCENE",
        "MLAHIFLGIGJ": ""
      },
      "guideHint": {
        "param1": ""
      },
      "isRewind": true,
      "finishExec": [
        {
          "damageRatio": "QUEST_EXEC_UNREGISTER_DYNAMIC_GROUP",
          "param": [
            "133104832",
            "0"
          ]
        }
      ],
      "versionBegin": "",
      "versionEnd": ""
    },
    {
      "subId": 7109807,
      "mainId": 71098,
      "order": 8,
      "descTextMapHash": 3466415148,
      "finishCond": [
        {
          "damageRatio": "QUEST_CONTENT_FINISH_ITEM_GIVING",
          "param": [
            7109807,
            0
          ]
        }
      ],
      "guide": {
        "damageRatio": "QUEST_GUIDE_NPC",
        "autoGuide": "QUEST_GUIDE_AUTO_ENABLE",
        "param": [
          "20657"
        ],
        "guideScene": 3,
        "guideStyle": "QUEST_GUIDE_STYLE_TARGET",
        "guideLayer": "QUEST_GUIDE_LAYER_SCENE",
        "MLAHIFLGIGJ": ""
      },
      "guideHint": {
        "param1": ""
      },
      "isRewind": true,
      "versionBegin": "",
      "versionEnd": ""
    },
    {
      "subId": 7109808,
      "mainId": 71098,
      "order": 10,
      "descTextMapHash": 2675687652,
      "finishCond": [
        {
          "damageRatio": "QUEST_CONTENT_COMPLETE_TALK",
          "param": [
            7109815,
            0
          ]
        }
      ],
      "guide": {
        "damageRatio": "QUEST_GUIDE_LOCATION",
        "autoGuide": "QUEST_GUIDE_AUTO_ENABLE",
        "param": [
          "Q7109803_guide_1439"
        ],
        "guideScene": 3,
        "guideStyle": "QUEST_GUIDE_STYLE_TARGET",
        "guideLayer": "QUEST_GUIDE_LAYER_SCENE",
        "MLAHIFLGIGJ": ""
      },
      "guideHint": {
        "param1": ""
      },
      "finishParent": true,
      "isRewind": true,
      "finishExec": [
        {
          "damageRatio": "QUEST_EXEC_REFRESH_GROUP_SUITE",
          "param": [
            "3",
            "133104830,1"
          ]
        }
      ],
      "versionBegin": "",
      "versionEnd": ""
    },
    {
      "subId": 7109809,
      "mainId": 71098,
      "order": 5,
      "descTextMapHash": 1987130076,
      "showType": "QUEST_HIDDEN",
      "finishCond": [
        {
          "damageRatio": "QUEST_CONTENT_COMPLETE_TALK",
          "param": [
            7109809,
            0
          ]
        }
      ],
      "guide": {
        "MLAHIFLGIGJ": ""
      },
      "guideHint": {
        "param1": ""
      },
      "isRewind": true,
      "versionBegin": "",
      "versionEnd": ""
    },
    {
      "subId": 7109810,
      "mainId": 71098,
      "order": 9,
      "descTextMapHash": 1311723692,
      "showType": "QUEST_HIDDEN",
      "finishCond": [
        {
          "damageRatio": "QUEST_CONTENT_FINISH_PLOT",
          "param": [
            7109810,
            0
          ]
        }
      ],
      "guide": {
        "MLAHIFLGIGJ": ""
      },
      "guideHint": {
        "param1": ""
      },
      "isRewind": true,
      "versionBegin": "",
      "versionEnd": ""
    }
  ],
  "talks": [
    {
      "id": 7109801,
      "beginWay": "TALK_BEGIN_MANUAL",
      "activeMode": "PLAY_MODE_HOST",
      "beginCond": [
        {
          "type": "QUEST_COND_STATE_EQUAL",
          "_param": [
            "7109803",
            "2"
          ]
        }
      ],
      "priority": 5,
      "initDialog": 710980101,
      "npcId": [
        20658,
        20657,
        1005
      ],
      "performCfg": "QuestDialogue/WQ/Liyue_71098/Q7109801",
      "heroTalk": "TALK_HERO_MAIN",
      "questId": 71098,
      "assetIndex": 4618138852514413661,
      "prePerformCfg": ""
    },
    {
      "id": 7109803,
      "beginWay": "TALK_BEGIN_MANUAL",
      "activeMode": "PLAY_MODE_HOST",
      "beginCond": [
        {
          "type": "QUEST_COND_STATE_EQUAL",
          "_param": [
            "7109804",
            "3"
          ]
        }
      ],
      "priority": 5,
      "initDialog": 710980301,
      "npcId": [
        2204
      ],
      "performCfg": "",
      "heroTalk": "TALK_HERO_MAIN",
      "questId": 71098,
      "assetIndex": 200498293865165204,
      "prePerformCfg": ""
    },
    {
      "id": 7109804,
      "beginWay": "TALK_BEGIN_MANUAL",
      "activeMode": "PLAY_MODE_HOST",
      "beginCond": [
        {
          "type": "QUEST_COND_ITEM_GIVING_ACTIVED",
          "_param": [
            "7109807"
          ]
        }
      ],
      "priority": 5,
      "initDialog": 710980401,
      "npcId": [
        20657
      ],
      "performCfg": "",
      "heroTalk": "TALK_HERO_MAIN",
      "questId": 71098,
      "assetIndex": 3414016693068251499,
      "prePerformCfg": ""
    },
    {
      "id": 7109805,
      "beginWay": "TALK_BEGIN_MANUAL",
      "activeMode": "PLAY_MODE_HOST",
      "beginCond": [
        {
          "type": "QUEST_COND_STATE_EQUAL",
          "_param": [
            "7109804",
            "3"
          ]
        }
      ],
      "priority": 2,
      "initDialog": 710980501,
      "npcId": [
        20658
      ],
      "performCfg": "",
      "heroTalk": "TALK_HERO_MAIN",
      "questId": 71098,
      "assetIndex": 13744907656327438398,
      "prePerformCfg": "",
      "questIdleTalk": true,
      "lowPriority": true
    },
    {
      "id": 7109807,
      "beginWay": "TALK_BEGIN_AUTO",
      "activeMode": "PLAY_MODE_HOST",
      "beginCond": [
        {
          "type": "QUEST_COND_STATE_EQUAL",
          "_param": [
            "7109802",
            "2"
          ]
        }
      ],
      "priority": 5,
      "initDialog": 710980701,
      "npcId": [
        20657
      ],
      "performCfg": "QuestDialogue/WQ/Liyue_71098/Q7109807",
      "heroTalk": "TALK_HERO_MAIN",
      "questId": 71098,
      "assetIndex": 13732696301199826425,
      "prePerformCfg": "",
      "talkMarkType": "TALK_MARK_COMMON",
      "freeStyleList": [
        1130
      ]
    },
    {
      "id": 7109809,
      "beginWay": "TALK_BEGIN_MANUAL",
      "activeMode": "PLAY_MODE_HOST",
      "beginCond": [
        {
          "type": "QUEST_COND_STATE_EQUAL",
          "_param": [
            "7109809",
            "2"
          ]
        }
      ],
      "priority": 5,
      "initDialog": 710980901,
      "npcId": [
        20657,
        20658,
        1005
      ],
      "performCfg": "QuestDialogue/WQ/Liyue_71098/Q7109809",
      "heroTalk": "TALK_HERO_MAIN",
      "questId": 71098,
      "assetIndex": 6326742087894051918,
      "prePerformCfg": "",
      "freeStyleList": [
        1171,
        1172,
        1173,
        1090
      ]
    },
    {
      "id": 7109811,
      "activeMode": "PLAY_MODE_HOST",
      "priority": 5,
      "initDialog": 710981101,
      "npcId": [
        1005
      ],
      "performCfg": "",
      "questId": 71098,
      "assetIndex": 3817022618657770333,
      "prePerformCfg": ""
    },
    {
      "id": 7109812,
      "activeMode": "PLAY_MODE_HOST",
      "priority": 5,
      "initDialog": 710981201,
      "npcId": [
        1005
      ],
      "performCfg": "",
      "questId": 71098,
      "assetIndex": 17642163427832907776,
      "prePerformCfg": ""
    },
    {
      "id": 7109813,
      "beginWay": "TALK_BEGIN_MANUAL",
      "activeMode": "PLAY_MODE_HOST",
      "beginCondComb": "LOGIC_AND",
      "beginCond": [
        {
          "type": "QUEST_COND_STATE_EQUAL",
          "_param": [
            "7109804",
            "3"
          ]
        },
        {
          "type": "QUEST_COND_STATE_EQUAL",
          "_param": [
            "7109806",
            "2"
          ]
        }
      ],
      "priority": 5,
      "initDialog": 710981301,
      "npcId": [
        20657
      ],
      "performCfg": "",
      "heroTalk": "TALK_HERO_MAIN",
      "questId": 71098,
      "assetIndex": 5268456113085449507,
      "prePerformCfg": "",
      "questIdleTalk": true,
      "lowPriority": true
    },
    {
      "id": 7109815,
      "beginWay": "TALK_BEGIN_MANUAL",
      "activeMode": "PLAY_MODE_HOST",
      "beginCond": [
        {
          "type": "QUEST_COND_STATE_EQUAL",
          "_param": [
            "7109808",
            "2"
          ]
        }
      ],
      "priority": 5,
      "initDialog": 710981501,
      "npcId": [
        20657,
        20658
      ],
      "performCfg": "QuestDialogue/WQ/Liyue_71098/Q7109815",
      "heroTalk": "TALK_HERO_MAIN",
      "questId": 71098,
      "assetIndex": 10589656879705701728,
      "prePerformCfg": ""
    }
  ],
  "preloadLuaList": [
    14457059026087496718,
    16384449980384297149
  ],
  "forcePreloadLuaList": [
    1672747868791678512
  ],
  "freeStyleDic": {
    "20657": [
      0
    ],
    "20658": [
      8010,
      0
    ]
  }
}