{
  "id": 71091,
  "damageRatio": "WQ",
  "descTextMapHash": 1771954111,
  "EKEKACCODOE": 1113555894,
  "luaPath": "Actor/Quest/WQ71091",
  "rewardIdList": [
    171091
  ],
  "showType": "QUEST_HIDDEN",
  "subQuests": [
    {
      "subId": 7109101,
      "mainId": 71091,
      "order": 1,
      "descTextMapHash": 4184058220,
      "showType": "QUEST_HIDDEN",
      "finishCond": [
        {
          "damageRatio": "QUEST_CONTENT_QUEST_STATE_EQUAL",
          "param": [
            7110101,
            3
          ]
        },
        {
          "damageRatio": "QUEST_CONTENT_ITEM_LESS_THAN",
          "param": [
            100831,
            1
          ]
        }
      ],
      "failCond": [
        {
          "damageRatio": "QUEST_CONTENT_QUEST_STATE_EQUAL",
          "param": [
            7110101,
            2
          ]
        }
      ],
      "guide": {
        "guideScene": 3,
        "guideStyle": "QUEST_GUIDE_STYLE_POINT",
        "MLAHIFLGIGJ": ""
      },
      "showGuide": "QUEST_GUIDE_ITEM_DISABLE",
      "guideHint": {
        "param1": ""
      },
      "finishParent": true,
      "failParent": true,
      "isRewind": true,
      "versionBegin": "",
      "versionEnd": ""
    }
  ]
}