{
  "id": 71092,
  "damageRatio": "WQ",
  "activeMode": "PLAY_MODE_ALL",
  "descTextMapHash": 2678525351,
  "luaPath": "Actor/Quest/WQ71092",
  "showType": "QUEST_HIDDEN",
  "subQuests": [
    {
      "subId": 7109201,
      "mainId": 71092,
      "order": 1,
      "descTextMapHash": 3402477924,
      "showType": "QUEST_HIDDEN",
      "finishCond": [
        {
          "damageRatio": "QUEST_CONTENT_FINISH_PLOT",
          "param": [
            7109201,
            0
          ]
        }
      ],
      "guide": {
        "MLAHIFLGIGJ": ""
      },
      "guideHint": {
        "param1": ""
      },
      "finishParent": true,
      "versionBegin": "",
      "versionEnd": ""
    }
  ],
  "preloadLuaList": [
    11522676425312464796
  ],
  "forcePreloadLuaList": [
    1947073304177908152
  ]
}