{
  "id": 71109,
  "series": 71107,
  "damageRatio": "WQ",
  "activeMode": "PLAY_MODE_ALL",
  "descTextMapHash": 157293751,
  "EKEKACCODOE": 2566793606,
  "luaPath": "Actor/Quest/WQ71109",
  "rewardIdList": [
    171109
  ],
  "subQuests": [
    {
      "subId": 7110901,
      "mainId": 71109,
      "order": 1,
      "descTextMapHash": 3798574284,
      "finishCond": [
        {
          "damageRatio": "QUEST_CONTENT_FINISH_PLOT",
          "param": [
            7110901,
            0
          ]
        }
      ],
      "guide": {
        "damageRatio": "QUEST_GUIDE_LOCATION",
        "param": [
          "[3_5063:2196.306,344.585,2034.784,0.000,40.807,0.000]",
          "30"
        ],
        "guideScene": 3,
        "guideStyle": "QUEST_GUIDE_STYLE_POINT",
        "guideLayer": "QUEST_GUIDE_LAYER_SCENE",
        "poiRegionId": 4401,
        "poiPointId": 44010020,
        "MLAHIFLGIGJ": ""
      },
      "guideHint": {
        "param1": ""
      },
      "isRewind": true,
      "versionBegin": "",
      "versionEnd": ""
    },
    {
      "subId": 7110902,
      "mainId": 71109,
      "order": 2,
      "descTextMapHash": 87521692,
      "finishCond": [
        {
          "damageRatio": "QUEST_CONTENT_COMPLETE_TALK",
          "param": [
            7110902,
            0
          ]
        }
      ],
      "guide": {
        "damageRatio": "QUEST_GUIDE_GADGET",
        "param": [
          "133115021",
          "21001",
          "2224.3:340.4:2069.9"
        ],
        "guideScene": 3,
        "guideStyle": "QUEST_GUIDE_STYLE_TARGET",
        "guideLayer": "QUEST_GUIDE_LAYER_SCENE",
        "MLAHIFLGIGJ": ""
      },
      "showGuide": "QUEST_GUIDE_ITEM_DISABLE",
      "guideHint": {
        "param1": ""
      },
      "isRewind": true,
      "versionBegin": "",
      "versionEnd": ""
    },
    {
      "subId": 7110903,
      "mainId": 71109,
      "order": 3,
      "descTextMapHash": 1174240084,
      "finishCond": [
        {
          "damageRatio": "QUEST_CONTENT_FINISH_PLOT",
          "param": [
            7110903,
            0
          ]
        }
      ],
      "guide": {
        "damageRatio": "QUEST_GUIDE_GADGET",
        "param": [
          "133115021",
          "21010",
          "2223.778:341.5268:2070.565"
        ],
        "guideScene": 3,
        "guideStyle": "QUEST_GUIDE_STYLE_POINT",
        "guideLayer": "QUEST_GUIDE_LAYER_SCENE",
        "poiRegionId": 4401,
        "poiPointId": 44010021,
        "MLAHIFLGIGJ": ""
      },
      "guideHint": {
        "param1": ""
      },
      "isRewind": true,
      "finishExec": [
        {
          "damageRatio": "QUEST_EXEC_REGISTER_DYNAMIC_GROUP",
          "param": [
            "3",
            "133115015"
          ]
        },
        {
          "damageRatio": "QUEST_EXEC_NOTIFY_GROUP_LUA",
          "param": [
            "3",
            "133115021"
          ]
        }
      ],
      "versionBegin": "",
      "versionEnd": ""
    },
    {
      "subId": 7110904,
      "mainId": 71109,
      "order": 4,
      "descTextMapHash": 601770164,
      "finishCond": [
        {
          "damageRatio": "QUEST_CONTENT_LUA_NOTIFY",
          "param": [
            0,
            0
          ],
          "count": 1
        },
        {
          "damageRatio": "QUEST_CONTENT_GADGET_STATE_CHANGE",
          "param": [
            133115021,
            21026
          ]
        }
      ],
      "failCond": [
        {
          "damageRatio": "QUEST_CONTENT_LUA_NOTIFY",
          "param": [
            0,
            0
          ],
          "count": 1
        },
        {
          "damageRatio": "QUEST_CONTENT_LEAVE_SCENE_RANGE",
          "param": [
            3,
            20
          ]
        },
        {
          "damageRatio": "QUEST_CONTENT_TEAM_DEAD",
          "param": [
            0,
            0
          ]
        }
      ],
      "guide": {
        "damageRatio": "QUEST_GUIDE_LOCATION",
        "param": [
          "[3_7551:2223.792,341.598,2070.544]",
          "30"
        ],
        "guideScene": 3,
        "guideStyle": "QUEST_GUIDE_STYLE_POINT",
        "guideLayer": "QUEST_GUIDE_LAYER_SCENE",
        "poiRegionId": 4401,
        "poiPointId": 44010021,
        "MLAHIFLGIGJ": ""
      },
      "guideHint": {
        "param1": ""
      },
      "finishExec": [
        {
          "damageRatio": "QUEST_EXEC_UNREGISTER_DYNAMIC_GROUP",
          "param": [
            "133115015",
            "0"
          ]
        },
        {
          "damageRatio": "QUEST_EXEC_NOTIFY_GROUP_LUA",
          "param": [
            "3",
            "133115021"
          ]
        },
        {
          "damageRatio": "QUEST_EXEC_SET_GAME_TIME",
          "param": [
            "17"
          ]
        }
      ],
      "failExec": [
        {
          "damageRatio": "QUEST_EXEC_ROLLBACK_QUEST",
          "param": [
            "7110903"
          ]
        }
      ],
      "versionBegin": "",
      "versionEnd": ""
    },
    {
      "subId": 7110905,
      "mainId": 71109,
      "order": 5,
      "descTextMapHash": 2992829772,
      "finishCond": [
        {
          "damageRatio": "QUEST_CONTENT_FINISH_PLOT",
          "param": [
            7110905,
            0
          ]
        }
      ],
      "guide": {
        "damageRatio": "QUEST_GUIDE_LOCATION",
        "param": [
          "[3_5065:2251.412,346.808,2189.179,0.000,47.541,0.000]",
          "20"
        ],
        "guideScene": 3,
        "guideStyle": "QUEST_GUIDE_STYLE_POINT",
        "guideLayer": "QUEST_GUIDE_LAYER_SCENE",
        "poiRegionId": 4401,
        "poiPointId": 44010023,
        "MLAHIFLGIGJ": ""
      },
      "guideHint": {
        "param1": ""
      },
      "isRewind": true,
      "versionBegin": "",
      "versionEnd": ""
    },
    {
      "subId": 7110906,
      "mainId": 71109,
      "order": 6,
      "descTextMapHash": 3445292332,
      "finishCond": [
        {
          "damageRatio": "QUEST_CONTENT_COMPLETE_TALK",
          "param": [
            7110906,
            0
          ]
        }
      ],
      "guide": {
        "damageRatio": "QUEST_GUIDE_GADGET",
        "param": [
          "133115022",
          "22001",
          "2251.208:346.695:2188.656"
        ],
        "guideScene": 3,
        "guideStyle": "QUEST_GUIDE_STYLE_TARGET",
        "guideLayer": "QUEST_GUIDE_LAYER_SCENE",
        "poiRegionId": 4401,
        "poiPointId": 44010023,
        "MLAHIFLGIGJ": ""
      },
      "guideHint": {
        "param1": ""
      },
      "finishParent": true,
      "isRewind": true,
      "versionBegin": "",
      "versionEnd": ""
    }
  ],
  "talks": [
    {
      "id": 7110902,
      "beginWay": "TALK_BEGIN_MANUAL",
      "activeMode": "PLAY_MODE_HOST",
      "beginCond": [
        {
          "type": "QUEST_COND_STATE_EQUAL",
          "_param": [
            "7110902",
            "2"
          ]
        }
      ],
      "priority": 5,
      "initDialog": 711090201,
      "npcId": [
        1005
      ],
      "performCfg": "QuestDialogue/WQ/Liyue_71109/Q7110902",
      "heroTalk": "TALK_HERO_MAIN",
      "questId": 71109,
      "assetIndex": 15512019324395025248,
      "prePerformCfg": "",
      "CHAKPMBJNAJ": [
        "[3_5063:2196.306,344.585,2034.784,0.000,40.807,0.000]"
      ]
    },
    {
      "id": 7110905,
      "beginWay": "TALK_BEGIN_MANUAL",
      "activeMode": "PLAY_MODE_HOST",
      "beginCond": [
        {
          "type": "QUEST_COND_STATE_EQUAL",
          "_param": [
            "7110903",
            "2"
          ]
        }
      ],
      "priority": 5,
      "initDialog": 711090501,
      "npcId": [
        2235
      ],
      "performCfg": "QuestDialogue/WQ/Liyue_71109/Q7110905",
      "heroTalk": "TALK_HERO_MAIN",
      "questId": 71109,
      "assetIndex": 6872304193872442648,
      "prePerformCfg": ""
    },
    {
      "id": 7110906,
      "beginWay": "TALK_BEGIN_MANUAL",
      "activeMode": "PLAY_MODE_HOST",
      "beginCond": [
        {
          "type": "QUEST_COND_STATE_EQUAL",
          "_param": [
            "7110906",
            "2"
          ]
        }
      ],
      "priority": 5,
      "initDialog": 711090601,
      "npcId": [
        2233,
        2234
      ],
      "performCfg": "QuestDialogue/WQ/Liyue_71109/Q7110906",
      "heroTalk": "TALK_HERO_MAIN",
      "questId": 71109,
      "assetIndex": 15021196640812009712,
      "prePerformCfg": "",
      "CHAKPMBJNAJ": [
        "[3_311400040:2251.080,347.041,2189.816]",
        "[3_311400041:2249.501,346.923,2190.302]",
        "[3_7885:2250.204,346.642,2187.956,0.000,44.200,0.000]"
      ]
    },
    {
      "id": 7110925,
      "beginWay": "TALK_BEGIN_MANUAL",
      "activeMode": "PLAY_MODE_HOST",
      "beginCond": [
        {
          "type": "QUEST_COND_QUEST_NOT_RECEIVE",
          "_param": [
            "7110906",
            "1"
          ]
        },
        {
          "type": "QUEST_COND_STATE_EQUAL",
          "_param": [
            "7110722",
            "3"
          ]
        }
      ],
      "priority": 5,
      "initDialog": 711092501,
      "npcId": [
        2520,
        2484
      ],
      "performCfg": "",
      "heroTalk": "TALK_HERO_MAIN",
      "questId": 71109,
      "assetIndex": 2254245616091323870,
      "prePerformCfg": ""
    }
  ],
  "preloadLuaList": [
    14457059026087496718,
    3556134468723165775,
    7180145673891104814
  ],
  "forcePreloadLuaList": [
    3965097788326902035
  ]
}