{
  "id": 71107,
  "series": 71107,
  "damageRatio": "WQ",
  "activeMode": "PLAY_MODE_ALL",
  "descTextMapHash": 419958287,
  "EKEKACCODOE": 1063132246,
  "luaPath": "Actor/Quest/WQ71107",
  "suggestTrackMainQuestList": [
    71108
  ],
  "rewardIdList": [
    171107
  ],
  "subQuests": [
    {
      "subId": 7110701,
      "mainId": 71107,
      "order": 2,
      "descTextMapHash": 2287619108,
      "showType": "QUEST_HIDDEN",
      "finishCond": [
        {
          "damageRatio": "QUEST_CONTENT_COMPLETE_TALK",
          "param": [
            7110701,
            0
          ]
        },
        {
          "damageRatio": "QUEST_CONTENT_COMPLETE_TALK",
          "param": [
            7110704,
            0
          ]
        }
      ],
      "failCond": [
        {
          "damageRatio": "QUEST_CONTENT_QUEST_STATE_EQUAL",
          "param": [
            7110725,
            3
          ]
        }
      ],
      "guide": {
        "damageRatio": "QUEST_GUIDE_NPC",
        "param": [
          "2484"
        ],
        "guideScene": 3,
        "guideStyle": "QUEST_GUIDE_STYLE_TARGET",
        "guideLayer": "QUEST_GUIDE_LAYER_SCENE",
        "MLAHIFLGIGJ": ""
      },
      "guideHint": {
        "param1": ""
      },
      "isRewind": true,
      "versionBegin": "",
      "versionEnd": ""
    },
    {
      "subId": 7110702,
      "mainId": 71107,
      "order": 3,
      "descTextMapHash": 986556212,
      "finishCond": [
        {
          "damageRatio": "QUEST_CONTENT_FINISH_PLOT",
          "param": [
            7110702,
            0
          ]
        }
      ],
      "failCond": [
        {
          "damageRatio": "QUEST_CONTENT_QUEST_STATE_EQUAL",
          "param": [
            7110725,
            3
          ]
        }
      ],
      "guide": {
        "damageRatio": "QUEST_GUIDE_LOCATION",
        "param": [
          "[3_311400009:2097.425,398.090,2055.598,0.287,90.349,0.254]",
          "20"
        ],
        "guideScene": 3,
        "guideStyle": "QUEST_GUIDE_STYLE_POINT",
        "guideLayer": "QUEST_GUIDE_LAYER_SCENE",
        "MLAHIFLGIGJ": ""
      },
      "showGuide": "QUEST_GUIDE_ITEM_DISABLE",
      "guideHint": {
        "param1": ""
      },
      "isRewind": true,
      "versionBegin": "",
      "versionEnd": ""
    },
    {
      "subId": 7110703,
      "mainId": 71107,
      "order": 4,
      "descTextMapHash": 656077212,
      "finishCond": [
        {
          "damageRatio": "QUEST_CONTENT_COMPLETE_TALK",
          "param": [
            7110703,
            0
          ]
        }
      ],
      "failCond": [
        {
          "damageRatio": "QUEST_CONTENT_QUEST_STATE_EQUAL",
          "param": [
            7110725,
            3
          ]
        }
      ],
      "guide": {
        "damageRatio": "QUEST_GUIDE_NPC",
        "param": [
          "2484"
        ],
        "guideScene": 3,
        "guideStyle": "QUEST_GUIDE_STYLE_TARGET",
        "guideLayer": "QUEST_GUIDE_LAYER_SCENE",
        "MLAHIFLGIGJ": ""
      },
      "guideHint": {
        "param1": ""
      },
      "isRewind": true,
      "versionBegin": "",
      "versionEnd": ""
    },
    {
      "subId": 7110704,
      "mainId": 71107,
      "order": 15,
      "descTextMapHash": 3573856980,
      "finishCond": [
        {
          "damageRatio": "QUEST_CONTENT_FINISH_PLOT",
          "param": [
            7110704,
            0
          ]
        }
      ],
      "guide": {
        "damageRatio": "QUEST_GUIDE_NPC",
        "param": [
          "2484"
        ],
        "guideScene": 3,
        "guideStyle": "QUEST_GUIDE_STYLE_POINT",
        "guideLayer": "QUEST_GUIDE_LAYER_SCENE",
        "MLAHIFLGIGJ": ""
      },
      "guideHint": {
        "param1": ""
      },
      "isRewind": true,
      "versionBegin": "",
      "versionEnd": ""
    },
    {
      "subId": 7110705,
      "mainId": 71107,
      "order": 16,
      "descTextMapHash": 3591260604,
      "finishCond": [
        {
          "damageRatio": "QUEST_CONTENT_COMPLETE_TALK",
          "param": [
            7110705,
            0
          ]
        },
        {
          "damageRatio": "QUEST_CONTENT_COMPLETE_TALK",
          "param": [
            7110707,
            0
          ]
        }
      ],
      "guide": {
        "damageRatio": "QUEST_GUIDE_NPC",
        "param": [
          "2484"
        ],
        "guideScene": 3,
        "guideStyle": "QUEST_GUIDE_STYLE_TARGET",
        "guideLayer": "QUEST_GUIDE_LAYER_SCENE",
        "MLAHIFLGIGJ": ""
      },
      "guideHint": {
        "param1": ""
      },
      "finishExec": [
        {
          "damageRatio": "QUEST_EXEC_UNREGISTER_DYNAMIC_GROUP",
          "param": [
            "133115170"
          ]
        }
      ],
      "versionBegin": "",
      "versionEnd": ""
    },
    {
      "subId": 7110706,
      "mainId": 71107,
      "order": 18,
      "descTextMapHash": 287304156,
      "finishCond": [
        {
          "damageRatio": "QUEST_CONTENT_QUEST_STATE_EQUAL",
          "param": [
            7110707,
            3
          ]
        },
        {
          "damageRatio": "QUEST_CONTENT_QUEST_STATE_EQUAL",
          "param": [
            7110708,
            3
          ]
        },
        {
          "damageRatio": "QUEST_CONTENT_QUEST_STATE_EQUAL",
          "param": [
            7110728,
            3
          ]
        },
        {
          "damageRatio": "QUEST_CONTENT_QUEST_STATE_EQUAL",
          "param": [
            7110729,
            3
          ]
        },
        {
          "damageRatio": "QUEST_CONTENT_QUEST_STATE_EQUAL",
          "param": [
            7110730,
            3
          ]
        }
      ],
      "failCond": [
        {
          "damageRatio": "QUEST_CONTENT_LUA_NOTIFY",
          "param": [
            0,
            0
          ],
          "count": 1
        }
      ],
      "guide": {
        "damageRatio": "QUEST_GUIDE_LOCATION",
        "param": [
          "[3_4951:2065.147,402.422,1970.857]",
          "30"
        ],
        "guideScene": 3,
        "guideStyle": "QUEST_GUIDE_STYLE_POINT",
        "guideLayer": "QUEST_GUIDE_LAYER_SCENE",
        "MLAHIFLGIGJ": ""
      },
      "showGuide": "QUEST_GUIDE_ITEM_DISABLE",
      "guideHint": {
        "param1": ""
      },
      "failExec": [
        {
          "damageRatio": "QUEST_EXEC_ROLLBACK_QUEST",
          "param": [
            "7110704"
          ]
        },
        {
          "damageRatio": "QUEST_EXEC_UNREGISTER_DYNAMIC_GROUP",
          "param": [
            "133114006",
            "0"
          ]
        }
      ],
      "versionBegin": "",
      "versionEnd": ""
    },
    {
      "subId": 7110707,
      "mainId": 71107,
      "order": 19,
      "descTextMapHash": 815997876,
      "showType": "QUEST_HIDDEN",
      "finishCond": [
        {
          "damageRatio": "QUEST_CONTENT_LUA_NOTIFY",
          "param": [
            0,
            0
          ],
          "count": 1
        }
      ],
      "failCond": [
        {
          "damageRatio": "QUEST_CONTENT_QUEST_STATE_EQUAL",
          "param": [
            7110708,
            3
          ]
        },
        {
          "damageRatio": "QUEST_CONTENT_QUEST_STATE_EQUAL",
          "param": [
            7110728,
            3
          ]
        },
        {
          "damageRatio": "QUEST_CONTENT_QUEST_STATE_EQUAL",
          "param": [
            7110729,
            3
          ]
        },
        {
          "damageRatio": "QUEST_CONTENT_QUEST_STATE_EQUAL",
          "param": [
            7110730,
            3
          ]
        },
        {
          "damageRatio": "QUEST_CONTENT_LUA_NOTIFY",
          "param": [
            0,
            0
          ],
          "count": 1
        }
      ],
      "guide": {
        "guideScene": 3,
        "guideStyle": "QUEST_GUIDE_STYLE_POINT",
        "guideLayer": "QUEST_GUIDE_LAYER_SCENE",
        "MLAHIFLGIGJ": ""
      },
      "showGuide": "QUEST_GUIDE_ITEM_DISABLE",
      "guideHint": {
        "param1": ""
      },
      "versionBegin": "",
      "versionEnd": ""
    },
    {
      "subId": 7110708,
      "mainId": 71107,
      "order": 20,
      "descTextMapHash": 289704404,
      "showType": "QUEST_HIDDEN",
      "finishCond": [
        {
          "damageRatio": "QUEST_CONTENT_LUA_NOTIFY",
          "param": [
            0,
            0
          ],
          "count": 1
        }
      ],
      "failCond": [
        {
          "damageRatio": "QUEST_CONTENT_QUEST_STATE_EQUAL",
          "param": [
            7110707,
            3
          ]
        },
        {
          "damageRatio": "QUEST_CONTENT_QUEST_STATE_EQUAL",
          "param": [
            7110728,
            3
          ]
        },
        {
          "damageRatio": "QUEST_CONTENT_QUEST_STATE_EQUAL",
          "param": [
            7110729,
            3
          ]
        },
        {
          "damageRatio": "QUEST_CONTENT_QUEST_STATE_EQUAL",
          "param": [
            7110730,
            3
          ]
        },
        {
          "damageRatio": "QUEST_CONTENT_LUA_NOTIFY",
          "param": [
            0,
            0
          ],
          "count": 1
        }
      ],
      "guide": {
        "guideScene": 3,
        "guideStyle": "QUEST_GUIDE_STYLE_POINT",
        "guideLayer": "QUEST_GUIDE_LAYER_SCENE",
        "MLAHIFLGIGJ": ""
      },
      "showGuide": "QUEST_GUIDE_ITEM_DISABLE",
      "guideHint": {
        "param1": ""
      },
      "versionBegin": "",
      "versionEnd": ""
    },
    {
      "subId": 7110709,
      "mainId": 71107,
      "order": 24,
      "descTextMapHash": 3031552004,
      "finishCond": [
        {
          "damageRatio": "QUEST_CONTENT_COMPLETE_TALK",
          "param": [
            7110751,
            0
          ]
        },
        {
          "damageRatio": "QUEST_CONTENT_COMPLETE_TALK",
          "param": [
            7110752,
            0
          ]
        },
        {
          "damageRatio": "QUEST_CONTENT_COMPLETE_TALK",
          "param": [
            7110753,
            0
          ]
        },
        {
          "damageRatio": "QUEST_CONTENT_COMPLETE_TALK",
          "param": [
            7110754,
            0
          ]
        },
        {
          "damageRatio": "QUEST_CONTENT_COMPLETE_TALK",
          "param": [
            7110755,
            0
          ]
        }
      ],
      "guide": {
        "damageRatio": "QUEST_GUIDE_NPC",
        "param": [
          "2484"
        ],
        "guideScene": 3,
        "guideStyle": "QUEST_GUIDE_STYLE_TARGET",
        "guideLayer": "QUEST_GUIDE_LAYER_SCENE",
        "MLAHIFLGIGJ": ""
      },
      "guideHint": {
        "param1": ""
      },
      "isRewind": true,
      "finishExec": [
        {
          "damageRatio": "QUEST_EXEC_NOTIFY_GROUP_LUA",
          "param": [
            "3",
            "133115017"
          ]
        }
      ],
      "versionBegin": "",
      "versionEnd": ""
    },
    {
      "subId": 7110710,
      "mainId": 71107,
      "order": 5,
      "descTextMapHash": 3036372356,
      "stepDescTextMapHash": 1476551853,
      "finishCond": [
        {
          "damageRatio": "QUEST_CONTENT_FINISH_PLOT",
          "param": [
            7110710,
            0
          ]
        }
      ],
      "guide": {
        "damageRatio": "QUEST_GUIDE_NPC",
        "param": [
          "2484"
        ],
        "guideScene": 3,
        "guideStyle": "QUEST_GUIDE_STYLE_POINT",
        "guideLayer": "QUEST_GUIDE_LAYER_SCENE",
        "MLAHIFLGIGJ": ""
      },
      "guideHint": {
        "param1": ""
      },
      "isRewind": true,
      "versionBegin": "",
      "versionEnd": ""
    },
    {
      "subId": 7110711,
      "mainId": 71107,
      "order": 6,
      "descTextMapHash": 2799630684,
      "finishCond": [
        {
          "damageRatio": "QUEST_CONTENT_COMPLETE_TALK",
          "param": [
            7110711,
            0
          ]
        }
      ],
      "guide": {
        "damageRatio": "QUEST_GUIDE_NPC",
        "param": [
          "2484"
        ],
        "guideScene": 3,
        "guideStyle": "QUEST_GUIDE_STYLE_TARGET",
        "guideLayer": "QUEST_GUIDE_LAYER_SCENE",
        "MLAHIFLGIGJ": ""
      },
      "guideHint": {
        "param1": ""
      },
      "versionBegin": "",
      "versionEnd": ""
    },
    {
      "subId": 7110712,
      "mainId": 71107,
      "order": 8,
      "descTextMapHash": 2237553948,
      "finishCond": [
        {
          "damageRatio": "QUEST_CONTENT_QUEST_STATE_EQUAL",
          "param": [
            7110713,
            3
          ]
        },
        {
          "damageRatio": "QUEST_CONTENT_QUEST_STATE_EQUAL",
          "param": [
            7110714,
            3
          ]
        },
        {
          "damageRatio": "QUEST_CONTENT_QUEST_STATE_EQUAL",
          "param": [
            7110715,
            3
          ]
        },
        {
          "damageRatio": "QUEST_CONTENT_QUEST_STATE_EQUAL",
          "param": [
            7110726,
            3
          ]
        },
        {
          "damageRatio": "QUEST_CONTENT_QUEST_STATE_EQUAL",
          "param": [
            7110727,
            3
          ]
        }
      ],
      "failCond": [
        {
          "damageRatio": "QUEST_CONTENT_LUA_NOTIFY",
          "param": [
            0,
            0
          ],
          "count": 1
        }
      ],
      "guide": {
        "guideScene": 3,
        "guideStyle": "QUEST_GUIDE_STYLE_POINT",
        "guideLayer": "QUEST_GUIDE_LAYER_SCENE",
        "MLAHIFLGIGJ": ""
      },
      "showGuide": "QUEST_GUIDE_ITEM_DISABLE",
      "guideHint": {
        "param1": ""
      },
      "failExec": [
        {
          "damageRatio": "QUEST_EXEC_ROLLBACK_QUEST",
          "param": [
            "7110710"
          ]
        },
        {
          "damageRatio": "QUEST_EXEC_UNREGISTER_DYNAMIC_GROUP",
          "param": [
            "133115016",
            "0"
          ]
        }
      ],
      "versionBegin": "",
      "versionEnd": ""
    },
    {
      "subId": 7110713,
      "mainId": 71107,
      "order": 9,
      "descTextMapHash": 3455534124,
      "showType": "QUEST_HIDDEN",
      "finishCond": [
        {
          "damageRatio": "QUEST_CONTENT_LUA_NOTIFY",
          "param": [
            0,
            0
          ],
          "count": 1
        }
      ],
      "failCond": [
        {
          "damageRatio": "QUEST_CONTENT_QUEST_STATE_EQUAL",
          "param": [
            7110714,
            3
          ]
        },
        {
          "damageRatio": "QUEST_CONTENT_QUEST_STATE_EQUAL",
          "param": [
            7110715,
            3
          ]
        },
        {
          "damageRatio": "QUEST_CONTENT_QUEST_STATE_EQUAL",
          "param": [
            7110726,
            3
          ]
        },
        {
          "damageRatio": "QUEST_CONTENT_QUEST_STATE_EQUAL",
          "param": [
            7110727,
            3
          ]
        },
        {
          "damageRatio": "QUEST_CONTENT_LUA_NOTIFY",
          "param": [
            0,
            0
          ],
          "count": 1
        }
      ],
      "guide": {
        "guideScene": 3,
        "guideStyle": "QUEST_GUIDE_STYLE_POINT",
        "guideLayer": "QUEST_GUIDE_LAYER_SCENE",
        "MLAHIFLGIGJ": ""
      },
      "showGuide": "QUEST_GUIDE_ITEM_DISABLE",
      "guideHint": {
        "param1": ""
      },
      "versionBegin": "",
      "versionEnd": ""
    },
    {
      "subId": 7110714,
      "mainId": 71107,
      "order": 10,
      "descTextMapHash": 589835868,
      "showType": "QUEST_HIDDEN",
      "finishCond": [
        {
          "damageRatio": "QUEST_CONTENT_LUA_NOTIFY",
          "param": [
            0,
            0
          ],
          "count": 1
        }
      ],
      "failCond": [
        {
          "damageRatio": "QUEST_CONTENT_QUEST_STATE_EQUAL",
          "param": [
            7110713,
            3
          ]
        },
        {
          "damageRatio": "QUEST_CONTENT_QUEST_STATE_EQUAL",
          "param": [
            7110715,
            3
          ]
        },
        {
          "damageRatio": "QUEST_CONTENT_QUEST_STATE_EQUAL",
          "param": [
            7110726,
            3
          ]
        },
        {
          "damageRatio": "QUEST_CONTENT_QUEST_STATE_EQUAL",
          "param": [
            7110727,
            3
          ]
        },
        {
          "damageRatio": "QUEST_CONTENT_LUA_NOTIFY",
          "param": [
            0,
            0
          ],
          "count": 1
        }
      ],
      "guide": {
        "guideScene": 3,
        "guideStyle": "QUEST_GUIDE_STYLE_POINT",
        "guideLayer": "QUEST_GUIDE_LAYER_SCENE",
        "MLAHIFLGIGJ": ""
      },
      "showGuide": "QUEST_GUIDE_ITEM_DISABLE",
      "guideHint": {
        "param1": ""
      },
      "versionBegin": "",
      "versionEnd": ""
    },
    {
      "subId": 7110715,
      "mainId": 71107,
      "order": 11,
      "descTextMapHash": 2049827044,
      "showType": "QUEST_HIDDEN",
      "finishCond": [
        {
          "damageRatio": "QUEST_CONTENT_LUA_NOTIFY",
          "param": [
            0,
            0
          ],
          "count": 1
        }
      ],
      "failCond": [
        {
          "damageRatio": "QUEST_CONTENT_QUEST_STATE_EQUAL",
          "param": [
            7110713,
            3
          ]
        },
        {
          "damageRatio": "QUEST_CONTENT_QUEST_STATE_EQUAL",
          "param": [
            7110714,
            3
          ]
        },
        {
          "damageRatio": "QUEST_CONTENT_QUEST_STATE_EQUAL",
          "param": [
            7110726,
            3
          ]
        },
        {
          "damageRatio": "QUEST_CONTENT_QUEST_STATE_EQUAL",
          "param": [
            7110727,
            3
          ]
        },
        {
          "damageRatio": "QUEST_CONTENT_LUA_NOTIFY",
          "param": [
            0,
            0
          ],
          "count": 1
        }
      ],
      "guide": {
        "guideScene": 3,
        "guideStyle": "QUEST_GUIDE_STYLE_POINT",
        "guideLayer": "QUEST_GUIDE_LAYER_SCENE",
        "MLAHIFLGIGJ": ""
      },
      "showGuide": "QUEST_GUIDE_ITEM_DISABLE",
      "guideHint": {
        "param1": ""
      },
      "versionBegin": "",
      "versionEnd": ""
    },
    {
      "subId": 7110716,
      "mainId": 71107,
      "order": 14,
      "descTextMapHash": 3391471812,
      "finishCond": [
        {
          "damageRatio": "QUEST_CONTENT_COMPLETE_TALK",
          "param": [
            7110741,
            0
          ]
        },
        {
          "damageRatio": "QUEST_CONTENT_COMPLETE_TALK",
          "param": [
            7110742,
            0
          ]
        },
        {
          "damageRatio": "QUEST_CONTENT_COMPLETE_TALK",
          "param": [
            7110743,
            0
          ]
        },
        {
          "damageRatio": "QUEST_CONTENT_COMPLETE_TALK",
          "param": [
            7110744,
            0
          ]
        },
        {
          "damageRatio": "QUEST_CONTENT_COMPLETE_TALK",
          "param": [
            7110745,
            0
          ]
        }
      ],
      "guide": {
        "damageRatio": "QUEST_GUIDE_NPC",
        "param": [
          "2484"
        ],
        "guideScene": 3,
        "guideStyle": "QUEST_GUIDE_STYLE_TARGET",
        "guideLayer": "QUEST_GUIDE_LAYER_SCENE",
        "MLAHIFLGIGJ": ""
      },
      "guideHint": {
        "param1": ""
      },
      "isRewind": true,
      "versionBegin": "",
      "versionEnd": ""
    },
    {
      "subId": 7110717,
      "mainId": 71107,
      "order": 25,
      "descTextMapHash": 2003939260,
      "stepDescTextMapHash": 3074336669,
      "finishCond": [
        {
          "damageRatio": "QUEST_CONTENT_LUA_NOTIFY",
          "param": [
            0,
            0
          ],
          "count": 1
        }
      ],
      "guide": {
        "damageRatio": "QUEST_GUIDE_LOCATION",
        "param": [
          "[3_5117:2085.500,409.793,2089.765]",
          "0"
        ],
        "guideScene": 3,
        "guideStyle": "QUEST_GUIDE_STYLE_POINT",
        "guideLayer": "QUEST_GUIDE_LAYER_SCENE",
        "MLAHIFLGIGJ": ""
      },
      "guideHint": {
        "param1": ""
      },
      "isRewind": true,
      "finishExec": [
        {
          "damageRatio": "QUEST_EXEC_SET_MAP_LAYER_UNLOCK_STATE",
          "param": [
            "3410701",
            "1"
          ]
        }
      ],
      "versionBegin": "",
      "versionEnd": ""
    },
    {
      "subId": 7110718,
      "mainId": 71107,
      "order": 26,
      "descTextMapHash": 2077160220,
      "finishCond": [
        {
          "damageRatio": "QUEST_CONTENT_FINISH_PLOT",
          "param": [
            7110718,
            0
          ]
        }
      ],
      "guide": {
        "damageRatio": "QUEST_GUIDE_LOCATION",
        "param": [
          "[3_4955:2103.780,387.483,2158.025,0.000,291.009,0.000]",
          "0"
        ],
        "guideScene": 3,
        "guideStyle": "QUEST_GUIDE_STYLE_POINT",
        "guideLayer": "QUEST_GUIDE_LAYER_SCENE",
        "MLAHIFLGIGJ": ""
      },
      "guideHint": {
        "param1": ""
      },
      "isRewind": true,
      "versionBegin": "",
      "versionEnd": ""
    },
    {
      "subId": 7110719,
      "mainId": 71107,
      "order": 27,
      "descTextMapHash": 3432641508,
      "finishCond": [
        {
          "damageRatio": "QUEST_CONTENT_COMPLETE_TALK",
          "param": [
            7110719,
            0
          ]
        }
      ],
      "guide": {
        "damageRatio": "QUEST_GUIDE_NPC",
        "param": [
          "2484"
        ],
        "guideScene": 3,
        "guideStyle": "QUEST_GUIDE_STYLE_TARGET",
        "guideLayer": "QUEST_GUIDE_LAYER_SCENE",
        "MLAHIFLGIGJ": ""
      },
      "guideHint": {
        "param1": ""
      },
      "isRewind": true,
      "versionBegin": "",
      "versionEnd": ""
    },
    {
      "subId": 7110720,
      "mainId": 71107,
      "order": 29,
      "descTextMapHash": 678428020,
      "finishCond": [
        {
          "damageRatio": "QUEST_CONTENT_FINISH_PLOT",
          "param": [
            7110720,
            0
          ]
        }
      ],
      "failCond": [
        {
          "damageRatio": "QUEST_CONTENT_LEAVE_SCENE_RANGE",
          "param": [
            3,
            60
          ]
        }
      ],
      "guide": {
        "damageRatio": "QUEST_GUIDE_NPC",
        "param": [
          "2484"
        ],
        "guideScene": 3,
        "guideStyle": "QUEST_GUIDE_STYLE_TARGET",
        "guideLayer": "QUEST_GUIDE_LAYER_SCENE",
        "MLAHIFLGIGJ": ""
      },
      "guideHint": {
        "param1": ""
      },
      "failExec": [
        {
          "damageRatio": "QUEST_EXEC_ROLLBACK_QUEST",
          "param": [
            "7110718"
          ]
        }
      ],
      "versionBegin": "",
      "versionEnd": ""
    },
    {
      "subId": 7110721,
      "mainId": 71107,
      "order": 33,
      "descTextMapHash": 1458340452,
      "finishCond": [
        {
          "damageRatio": "QUEST_CONTENT_COMPLETE_TALK",
          "param": [
            7110721,
            0
          ]
        }
      ],
      "guide": {
        "damageRatio": "QUEST_GUIDE_NPC",
        "param": [
          "2484"
        ],
        "guideScene": 3,
        "guideStyle": "QUEST_GUIDE_STYLE_TARGET",
        "guideLayer": "QUEST_GUIDE_LAYER_SCENE",
        "MLAHIFLGIGJ": ""
      },
      "guideHint": {
        "param1": ""
      },
      "isRewind": true,
      "versionBegin": "",
      "versionEnd": ""
    },
    {
      "subId": 7110722,
      "mainId": 71107,
      "order": 37,
      "descTextMapHash": 182880692,
      "finishCond": [
        {
          "damageRatio": "QUEST_CONTENT_COMPLETE_TALK",
          "param": [
            7110722,
            0
          ]
        }
      ],
      "guide": {
        "damageRatio": "QUEST_GUIDE_NPC",
        "param": [
          "2484"
        ],
        "guideScene": 3,
        "guideStyle": "QUEST_GUIDE_STYLE_TARGET",
        "guideLayer": "QUEST_GUIDE_LAYER_SCENE",
        "MLAHIFLGIGJ": ""
      },
      "guideHint": {
        "param1": ""
      },
      "finishParent": true,
      "isRewind": true,
      "finishExec": [
        {
          "damageRatio": "QUEST_EXEC_NOTIFY_GROUP_LUA",
          "param": [
            "3",
            "133115106"
          ]
        },
        {
          "damageRatio": "QUEST_EXEC_NOTIFY_GROUP_LUA",
          "param": [
            "3",
            "133115160"
          ]
        }
      ],
      "versionBegin": "",
      "versionEnd": ""
    },
    {
      "subId": 7110723,
      "mainId": 71107,
      "order": 31,
      "descTextMapHash": 458445932,
      "finishCond": [
        {
          "damageRatio": "QUEST_CONTENT_FINISH_PLOT",
          "param": [
            7110723,
            0
          ]
        }
      ],
      "failCond": [
        {
          "damageRatio": "QUEST_CONTENT_LEAVE_SCENE_RANGE",
          "param": [
            3,
            60
          ]
        }
      ],
      "guide": {
        "damageRatio": "QUEST_GUIDE_NPC",
        "param": [
          "2484"
        ],
        "guideScene": 3,
        "guideStyle": "QUEST_GUIDE_STYLE_TARGET",
        "guideLayer": "QUEST_GUIDE_LAYER_SCENE",
        "MLAHIFLGIGJ": ""
      },
      "guideHint": {
        "param1": ""
      },
      "failExec": [
        {
          "damageRatio": "QUEST_EXEC_ROLLBACK_QUEST",
          "param": [
            "7110718"
          ]
        }
      ],
      "versionBegin": "",
      "versionEnd": ""
    },
    {
      "subId": 7110724,
      "mainId": 71107,
      "order": 32,
      "descTextMapHash": 1067910844,
      "finishCond": [
        {
          "damageRatio": "QUEST_CONTENT_FINISH_PLOT",
          "param": [
            7110724,
            0
          ]
        }
      ],
      "failCond": [
        {
          "damageRatio": "QUEST_CONTENT_LEAVE_SCENE_RANGE",
          "param": [
            3,
            60
          ]
        }
      ],
      "guide": {
        "damageRatio": "QUEST_GUIDE_NPC",
        "param": [
          "2484"
        ],
        "guideScene": 3,
        "guideStyle": "QUEST_GUIDE_STYLE_TARGET",
        "guideLayer": "QUEST_GUIDE_LAYER_SCENE",
        "MLAHIFLGIGJ": ""
      },
      "guideHint": {
        "param1": ""
      },
      "failExec": [
        {
          "damageRatio": "QUEST_EXEC_ROLLBACK_QUEST",
          "param": [
            "7110718"
          ]
        }
      ],
      "versionBegin": "",
      "versionEnd": ""
    },
    {
      "subId": 7110725,
      "mainId": 71107,
      "order": 1,
      "descTextMapHash": 2196371916,
      "showType": "QUEST_HIDDEN",
      "finishCond": [
        {
          "damageRatio": "QUEST_CONTENT_COMPLETE_TALK",
          "param": [
            7110702,
            0
          ]
        },
        {
          "damageRatio": "QUEST_CONTENT_COMPLETE_TALK",
          "param": [
            7110706,
            0
          ]
        }
      ],
      "failCond": [
        {
          "damageRatio": "QUEST_CONTENT_QUEST_STATE_EQUAL",
          "param": [
            7110701,
            3
          ]
        }
      ],
      "guide": {
        "MLAHIFLGIGJ": ""
      },
      "showGuide": "QUEST_GUIDE_ITEM_DISABLE",
      "guideHint": {
        "param1": ""
      },
      "isRewind": true,
      "versionBegin": "",
      "versionEnd": ""
    },
    {
      "subId": 7110726,
      "mainId": 71107,
      "order": 12,
      "descTextMapHash": 575216268,
      "showType": "QUEST_HIDDEN",
      "finishCond": [
        {
          "damageRatio": "QUEST_CONTENT_LUA_NOTIFY",
          "param": [
            0,
            0
          ],
          "count": 1
        }
      ],
      "failCond": [
        {
          "damageRatio": "QUEST_CONTENT_QUEST_STATE_EQUAL",
          "param": [
            7110713,
            3
          ]
        },
        {
          "damageRatio": "QUEST_CONTENT_QUEST_STATE_EQUAL",
          "param": [
            7110714,
            3
          ]
        },
        {
          "damageRatio": "QUEST_CONTENT_QUEST_STATE_EQUAL",
          "param": [
            7110715,
            3
          ]
        },
        {
          "damageRatio": "QUEST_CONTENT_QUEST_STATE_EQUAL",
          "param": [
            7110727,
            3
          ]
        },
        {
          "damageRatio": "QUEST_CONTENT_LUA_NOTIFY",
          "param": [
            0,
            0
          ],
          "count": 1
        }
      ],
      "guide": {
        "MLAHIFLGIGJ": ""
      },
      "guideHint": {
        "param1": ""
      },
      "versionBegin": "",
      "versionEnd": ""
    },
    {
      "subId": 7110727,
      "mainId": 71107,
      "order": 13,
      "descTextMapHash": 1504946180,
      "showType": "QUEST_HIDDEN",
      "finishCond": [
        {
          "damageRatio": "QUEST_CONTENT_LUA_NOTIFY",
          "param": [
            0,
            0
          ],
          "count": 1
        }
      ],
      "failCond": [
        {
          "damageRatio": "QUEST_CONTENT_QUEST_STATE_EQUAL",
          "param": [
            7110713,
            3
          ]
        },
        {
          "damageRatio": "QUEST_CONTENT_QUEST_STATE_EQUAL",
          "param": [
            7110714,
            3
          ]
        },
        {
          "damageRatio": "QUEST_CONTENT_QUEST_STATE_EQUAL",
          "param": [
            7110715,
            3
          ]
        },
        {
          "damageRatio": "QUEST_CONTENT_QUEST_STATE_EQUAL",
          "param": [
            7110726,
            3
          ]
        },
        {
          "damageRatio": "QUEST_CONTENT_LUA_NOTIFY",
          "param": [
            0,
            0
          ],
          "count": 1
        }
      ],
      "guide": {
        "MLAHIFLGIGJ": ""
      },
      "guideHint": {
        "param1": ""
      },
      "versionBegin": "",
      "versionEnd": ""
    },
    {
      "subId": 7110728,
      "mainId": 71107,
      "order": 21,
      "descTextMapHash": 1545036788,
      "showType": "QUEST_HIDDEN",
      "finishCond": [
        {
          "damageRatio": "QUEST_CONTENT_LUA_NOTIFY",
          "param": [
            0,
            0
          ],
          "count": 1
        }
      ],
      "failCond": [
        {
          "damageRatio": "QUEST_CONTENT_QUEST_STATE_EQUAL",
          "param": [
            7110707,
            3
          ]
        },
        {
          "damageRatio": "QUEST_CONTENT_QUEST_STATE_EQUAL",
          "param": [
            7110708,
            3
          ]
        },
        {
          "damageRatio": "QUEST_CONTENT_QUEST_STATE_EQUAL",
          "param": [
            7110729,
            3
          ]
        },
        {
          "damageRatio": "QUEST_CONTENT_QUEST_STATE_EQUAL",
          "param": [
            7110730,
            3
          ]
        },
        {
          "damageRatio": "QUEST_CONTENT_LUA_NOTIFY",
          "param": [
            0,
            0
          ],
          "count": 1
        }
      ],
      "guide": {
        "MLAHIFLGIGJ": ""
      },
      "showGuide": "QUEST_GUIDE_ITEM_DISABLE",
      "guideHint": {
        "param1": ""
      },
      "versionBegin": "",
      "versionEnd": ""
    },
    {
      "subId": 7110729,
      "mainId": 71107,
      "order": 22,
      "descTextMapHash": 806628852,
      "showType": "QUEST_HIDDEN",
      "finishCond": [
        {
          "damageRatio": "QUEST_CONTENT_LUA_NOTIFY",
          "param": [
            0,
            0
          ],
          "count": 1
        }
      ],
      "failCond": [
        {
          "damageRatio": "QUEST_CONTENT_QUEST_STATE_EQUAL",
          "param": [
            7110707,
            3
          ]
        },
        {
          "damageRatio": "QUEST_CONTENT_QUEST_STATE_EQUAL",
          "param": [
            7110708,
            3
          ]
        },
        {
          "damageRatio": "QUEST_CONTENT_QUEST_STATE_EQUAL",
          "param": [
            7110728,
            3
          ]
        },
        {
          "damageRatio": "QUEST_CONTENT_QUEST_STATE_EQUAL",
          "param": [
            7110730,
            3
          ]
        },
        {
          "damageRatio": "QUEST_CONTENT_LUA_NOTIFY",
          "param": [
            0,
            0
          ],
          "count": 1
        }
      ],
      "guide": {
        "MLAHIFLGIGJ": ""
      },
      "showGuide": "QUEST_GUIDE_ITEM_DISABLE",
      "guideHint": {
        "param1": ""
      },
      "versionBegin": "",
      "versionEnd": ""
    },
    {
      "subId": 7110730,
      "mainId": 71107,
      "order": 23,
      "descTextMapHash": 2514117228,
      "showType": "QUEST_HIDDEN",
      "finishCond": [
        {
          "damageRatio": "QUEST_CONTENT_LUA_NOTIFY",
          "param": [
            0,
            0
          ],
          "count": 1
        }
      ],
      "failCond": [
        {
          "damageRatio": "QUEST_CONTENT_QUEST_STATE_EQUAL",
          "param": [
            7110707,
            3
          ]
        },
        {
          "damageRatio": "QUEST_CONTENT_QUEST_STATE_EQUAL",
          "param": [
            7110708,
            3
          ]
        },
        {
          "damageRatio": "QUEST_CONTENT_QUEST_STATE_EQUAL",
          "param": [
            7110728,
            3
          ]
        },
        {
          "damageRatio": "QUEST_CONTENT_QUEST_STATE_EQUAL",
          "param": [
            7110729,
            3
          ]
        },
        {
          "damageRatio": "QUEST_CONTENT_LUA_NOTIFY",
          "param": [
            0,
            0
          ],
          "count": 1
        }
      ],
      "guide": {
        "MLAHIFLGIGJ": ""
      },
      "showGuide": "QUEST_GUIDE_ITEM_DISABLE",
      "guideHint": {
        "param1": ""
      },
      "versionBegin": "",
      "versionEnd": ""
    },
    {
      "subId": 7110731,
      "mainId": 71107,
      "order": 17,
      "descTextMapHash": 3357699964,
      "showType": "QUEST_HIDDEN",
      "finishCond": [
        {
          "damageRatio": "QUEST_CONTENT_FINISH_PLOT",
          "param": [
            7110731,
            0
          ]
        }
      ],
      "guide": {
        "MLAHIFLGIGJ": ""
      },
      "showGuide": "QUEST_GUIDE_ITEM_DISABLE",
      "guideHint": {
        "param1": ""
      },
      "finishExec": [
        {
          "damageRatio": "QUEST_EXEC_REGISTER_DYNAMIC_GROUP",
          "param": [
            "3",
            "133115170"
          ]
        }
      ],
      "versionBegin": "",
      "versionEnd": ""
    },
    {
      "subId": 7110732,
      "mainId": 71107,
      "order": 28,
      "descTextMapHash": 204594108,
      "finishCond": [
        {
          "damageRatio": "QUEST_CONTENT_FINISH_PLOT",
          "param": [
            7110732,
            0
          ]
        }
      ],
      "failCond": [
        {
          "damageRatio": "QUEST_CONTENT_LEAVE_SCENE_RANGE",
          "param": [
            3,
            60
          ]
        }
      ],
      "guide": {
        "damageRatio": "QUEST_GUIDE_NPC",
        "param": [
          "2484"
        ],
        "guideScene": 3,
        "guideStyle": "QUEST_GUIDE_STYLE_TARGET",
        "guideLayer": "QUEST_GUIDE_LAYER_SCENE",
        "MLAHIFLGIGJ": ""
      },
      "guideHint": {
        "param1": ""
      },
      "finishExec": [
        {
          "damageRatio": "QUEST_EXEC_REGISTER_DYNAMIC_GROUP",
          "param": [
            "3",
            "133115105"
          ]
        }
      ],
      "failExec": [
        {
          "damageRatio": "QUEST_EXEC_ROLLBACK_QUEST",
          "param": [
            "7110718"
          ]
        }
      ],
      "versionBegin": "",
      "versionEnd": ""
    },
    {
      "subId": 7110733,
      "mainId": 71107,
      "order": 34,
      "descTextMapHash": 1544144708,
      "stepDescTextMapHash": 867134773,
      "finishCond": [
        {
          "damageRatio": "QUEST_CONTENT_COMPLETE_TALK",
          "param": [
            7110733,
            0
          ]
        }
      ],
      "guide": {
        "damageRatio": "QUEST_GUIDE_LOCATION",
        "param": [
          "[3_7821:2097.842,389.328,2131.201]",
          "0"
        ],
        "guideScene": 3,
        "guideStyle": "QUEST_GUIDE_STYLE_POINT",
        "guideLayer": "QUEST_GUIDE_LAYER_SCENE",
        "MLAHIFLGIGJ": ""
      },
      "guideHint": {
        "param1": ""
      },
      "isRewind": true,
      "finishExec": [
        {
          "damageRatio": "QUEST_EXEC_REFRESH_GROUP_SUITE",
          "param": [
            "3",
            "133115023,2"
          ]
        },
        {
          "damageRatio": "QUEST_EXEC_UNREGISTER_DYNAMIC_GROUP",
          "param": [
            "133115023",
            "1"
          ]
        }
      ],
      "versionBegin": "",
      "versionEnd": ""
    },
    {
      "subId": 7110734,
      "mainId": 71107,
      "order": 36,
      "descTextMapHash": 3316955556,
      "finishCond": [
        {
          "damageRatio": "QUEST_CONTENT_FINISH_ITEM_GIVING",
          "param": [
            7110734,
            0
          ]
        }
      ],
      "guide": {
        "damageRatio": "QUEST_GUIDE_NPC",
        "param": [
          "2484"
        ],
        "guideScene": 3,
        "MLAHIFLGIGJ": ""
      },
      "guideHint": {
        "param1": ""
      },
      "isRewind": true,
      "versionBegin": "",
      "versionEnd": ""
    },
    {
      "subId": 7110735,
      "mainId": 71107,
      "order": 30,
      "descTextMapHash": 843336604,
      "finishCond": [
        {
          "damageRatio": "QUEST_CONTENT_FINISH_PLOT",
          "param": [
            7110735,
            0
          ]
        }
      ],
      "failCond": [
        {
          "damageRatio": "QUEST_CONTENT_LEAVE_SCENE_RANGE",
          "param": [
            3,
            60
          ]
        }
      ],
      "guide": {
        "damageRatio": "QUEST_GUIDE_NPC",
        "param": [
          "2484"
        ],
        "guideScene": 3,
        "guideStyle": "QUEST_GUIDE_STYLE_TARGET",
        "guideLayer": "QUEST_GUIDE_LAYER_SCENE",
        "MLAHIFLGIGJ": ""
      },
      "guideHint": {
        "param1": ""
      },
      "finishExec": [
        {
          "damageRatio": "QUEST_EXEC_REGISTER_DYNAMIC_GROUP",
          "param": [
            "3",
            "133115106"
          ]
        },
        {
          "damageRatio": "QUEST_EXEC_REFRESH_GROUP_SUITE",
          "param": [
            "3",
            "133115243,1"
          ]
        }
      ],
      "failExec": [
        {
          "damageRatio": "QUEST_EXEC_ROLLBACK_QUEST",
          "param": [
            "7110718"
          ]
        }
      ],
      "versionBegin": "",
      "versionEnd": ""
    },
    {
      "subId": 7110736,
      "mainId": 71107,
      "order": 35,
      "descTextMapHash": 264226316,
      "showType": "QUEST_HIDDEN",
      "finishCond": [
        {
          "damageRatio": "QUEST_CONTENT_FINISH_PLOT",
          "param": [
            7110736,
            0
          ]
        }
      ],
      "guide": {
        "MLAHIFLGIGJ": ""
      },
      "showGuide": "QUEST_GUIDE_ITEM_DISABLE",
      "guideHint": {
        "param1": ""
      },
      "finishExec": [
        {
          "damageRatio": "QUEST_EXEC_REGISTER_DYNAMIC_GROUP",
          "param": [
            "3",
            "133115023"
          ]
        }
      ],
      "versionBegin": "",
      "versionEnd": ""
    },
    {
      "subId": 7110737,
      "mainId": 71107,
      "order": 7,
      "descTextMapHash": 1307288604,
      "showType": "QUEST_HIDDEN",
      "finishCond": [
        {
          "damageRatio": "QUEST_CONTENT_FINISH_PLOT",
          "param": [
            7110737,
            0
          ]
        }
      ],
      "guide": {
        "MLAHIFLGIGJ": ""
      },
      "showGuide": "QUEST_GUIDE_ITEM_DISABLE",
      "guideHint": {
        "param1": ""
      },
      "versionBegin": "",
      "versionEnd": ""
    }
  ],
  "talks": [
    {
      "id": 7110701,
      "beginWay": "TALK_BEGIN_MANUAL",
      "activeMode": "PLAY_MODE_HOST",
      "beginCond": [
        {
          "type": "QUEST_COND_STATE_EQUAL",
          "_param": [
            "7110701",
            "2"
          ]
        },
        {
          "type": "QUEST_COND_STATE_EQUAL",
          "_param": [
            "1200309",
            "3"
          ]
        }
      ],
      "priority": 5,
      "initDialog": 711070101,
      "npcId": [
        2484
      ],
      "performCfg": "QuestDialogue/WQ/Liyue_71107/Q7110701",
      "heroTalk": "TALK_HERO_MAIN",
      "questId": 71107,
      "assetIndex": 4825357358699784653,
      "prePerformCfg": "",
      "talkMarkType": "TALK_MARK_COMMON",
      "CHAKPMBJNAJ": [
        "[3_311500070:2497.150,346.132,2451.481,0.000,349.675,0.000]",
        "[3_6375:2496.585,346.132,2453.318,0.000,158.411,0.000]",
        "[3_6376:2498.052,346.132,2451.892,0.000,326.162,0.000]"
      ]
    },
    {
      "id": 7110702,
      "beginWay": "TALK_BEGIN_MANUAL",
      "activeMode": "PLAY_MODE_HOST",
      "beginCond": [
        {
          "type": "QUEST_COND_STATE_EQUAL",
          "_param": [
            "7110725",
            "2"
          ]
        },
        {
          "type": "QUEST_COND_STATE_EQUAL",
          "_param": [
            "1200309",
            "3"
          ]
        }
      ],
      "priority": 5,
      "initDialog": 711070201,
      "npcId": [
        2520,
        21416
      ],
      "performCfg": "QuestDialogue/WQ/Liyue_71107/Q7110702",
      "heroTalk": "TALK_HERO_MAIN",
      "questId": 71107,
      "assetIndex": 8582220212176555068,
      "prePerformCfg": "",
      "CHAKPMBJNAJ": [
        "[3_311400009:2097.425,398.090,2055.598,0.287,90.349,0.254]",
        "[3_6375:2496.585,346.132,2453.318,0.000,158.411,0.000]",
        "[3_6377:2099.657,398.046,2055.554,0.000,253.588,0.000]"
      ]
    },
    {
      "id": 7110703,
      "beginWay": "TALK_BEGIN_MANUAL",
      "activeMode": "PLAY_MODE_HOST",
      "beginCond": [
        {
          "type": "QUEST_COND_STATE_EQUAL",
          "_param": [
            "7110703",
            "2"
          ]
        }
      ],
      "priority": 5,
      "initDialog": 711070301,
      "npcId": [
        2484,
        2520
      ],
      "performCfg": "QuestDialogue/WQ/Liyue_71107/Q7110703",
      "heroTalk": "TALK_HERO_MAIN",
      "questId": 71107,
      "assetIndex": 7144843553384135370,
      "prePerformCfg": "",
      "CHAKPMBJNAJ": [
        "[3_311400009:2097.425,398.090,2055.598,0.287,90.349,0.254]",
        "[3_6377:2099.657,398.046,2055.554,0.000,253.588,0.000]",
        "[3_6378:2098.276,398.036,2055.057,0.000,70.782,0.000]"
      ]
    },
    {
      "id": 7110704,
      "beginWay": "TALK_BEGIN_MANUAL",
      "activeMode": "PLAY_MODE_HOST",
      "beginCondComb": "LOGIC_A_AND_ETCOR",
      "beginCond": [
        {
          "type": "QUEST_COND_STATE_EQUAL",
          "_param": [
            "7110701",
            "2"
          ]
        },
        {
          "type": "QUEST_COND_QUEST_NOT_RECEIVE",
          "_param": [
            "1200309",
            "1"
          ]
        },
        {
          "type": "QUEST_COND_STATE_EQUAL",
          "_param": [
            "1200309",
            "1"
          ]
        },
        {
          "type": "QUEST_COND_STATE_EQUAL",
          "_param": [
            "1200309",
            "2"
          ]
        }
      ],
      "priority": 5,
      "initDialog": 711070101,
      "npcId": [
        2484
      ],
      "performCfg": "QuestDialogue/WQ/Liyue_71107/Q7110704",
      "heroTalk": "TALK_HERO_MAIN",
      "questId": 71107,
      "assetIndex": 10622339738732519280,
      "prePerformCfg": "",
      "talkMarkType": "TALK_MARK_COMMON",
      "CHAKPMBJNAJ": [
        "[3_311500070:2497.150,346.132,2451.481,0.000,349.675,0.000]",
        "[3_6375:2496.585,346.132,2453.318,0.000,158.411,0.000]",
        "[3_6376:2498.052,346.132,2451.892,0.000,326.162,0.000]"
      ]
    },
    {
      "id": 7110705,
      "beginWay": "TALK_BEGIN_MANUAL",
      "activeMode": "PLAY_MODE_HOST",
      "beginCond": [
        {
          "type": "QUEST_COND_STATE_EQUAL",
          "_param": [
            "7110705",
            "2"
          ]
        },
        {
          "type": "QUEST_COND_STATE_EQUAL",
          "_param": [
            "1200309",
            "3"
          ]
        }
      ],
      "priority": 5,
      "initDialog": 711070501,
      "npcId": [
        2484
      ],
      "performCfg": "QuestDialogue/WQ/Liyue_71107/Q7110705",
      "heroTalk": "TALK_HERO_MAIN",
      "questId": 71107,
      "assetIndex": 14282433131339184754,
      "prePerformCfg": "",
      "CHAKPMBJNAJ": [
        "[3_311400027:2072.902,402.317,1980.042,0.000,237.626,0.000]",
        "[3_4956:2071.038,402.372,1980.025,2.805,79.058,0.369]",
        "[3_6380:2072.499,402.319,1980.834,0.000,236.622,0.000]"
      ]
    },
    {
      "id": 7110706,
      "beginWay": "TALK_BEGIN_MANUAL",
      "activeMode": "PLAY_MODE_HOST",
      "beginCondComb": "LOGIC_A_AND_ETCOR",
      "beginCond": [
        {
          "type": "QUEST_COND_STATE_EQUAL",
          "_param": [
            "7110725",
            "2"
          ]
        },
        {
          "type": "QUEST_COND_QUEST_NOT_RECEIVE",
          "_param": [
            "1200309",
            "1"
          ]
        },
        {
          "type": "QUEST_COND_STATE_EQUAL",
          "_param": [
            "1200309",
            "1"
          ]
        },
        {
          "type": "QUEST_COND_STATE_EQUAL",
          "_param": [
            "1200309",
            "2"
          ]
        }
      ],
      "priority": 5,
      "initDialog": 711070201,
      "npcId": [
        2520,
        21416
      ],
      "performCfg": "QuestDialogue/WQ/Liyue_71107/Q7110706",
      "heroTalk": "TALK_HERO_MAIN",
      "questId": 71107,
      "assetIndex": 17751890448533813537,
      "prePerformCfg": "",
      "CHAKPMBJNAJ": [
        "[3_311400009:2097.425,398.090,2055.598,0.287,90.349,0.254]",
        "[3_6375:2496.585,346.132,2453.318,0.000,158.411,0.000]",
        "[3_6377:2099.657,398.046,2055.554,0.000,253.588,0.000]"
      ]
    },
    {
      "id": 7110707,
      "beginWay": "TALK_BEGIN_MANUAL",
      "activeMode": "PLAY_MODE_HOST",
      "beginCondComb": "LOGIC_A_AND_ETCOR",
      "beginCond": [
        {
          "type": "QUEST_COND_STATE_EQUAL",
          "_param": [
            "7110705",
            "2"
          ]
        },
        {
          "type": "QUEST_COND_QUEST_NOT_RECEIVE",
          "_param": [
            "1200309",
            "1"
          ]
        },
        {
          "type": "QUEST_COND_STATE_EQUAL",
          "_param": [
            "1200309",
            "1"
          ]
        },
        {
          "type": "QUEST_COND_STATE_EQUAL",
          "_param": [
            "1200309",
            "2"
          ]
        }
      ],
      "priority": 5,
      "initDialog": 711070501,
      "npcId": [
        2484
      ],
      "performCfg": "QuestDialogue/WQ/Liyue_71107/Q7110707",
      "heroTalk": "TALK_HERO_MAIN",
      "questId": 71107,
      "assetIndex": 7047313915785806611,
      "prePerformCfg": "",
      "CHAKPMBJNAJ": [
        "[3_311400027:2072.902,402.317,1980.042,0.000,237.626,0.000]",
        "[3_4956:2071.038,402.372,1980.025,2.805,79.058,0.369]",
        "[3_6380:2072.499,402.319,1980.834,0.000,236.622,0.000]"
      ]
    },
    {
      "id": 7110710,
      "beginWay": "TALK_BEGIN_MANUAL",
      "activeMode": "PLAY_MODE_HOST",
      "beginCond": [
        {
          "type": "QUEST_COND_STATE_EQUAL",
          "_param": [
            "99902",
            "3"
          ]
        }
      ],
      "priority": 5,
      "initDialog": 711071001,
      "npcId": [
        2484
      ],
      "performCfg": "",
      "heroTalk": "TALK_HERO_MAIN",
      "questId": 71107,
      "assetIndex": 17398152243787858951,
      "prePerformCfg": ""
    },
    {
      "id": 7110711,
      "beginWay": "TALK_BEGIN_MANUAL",
      "activeMode": "PLAY_MODE_HOST",
      "beginCond": [
        {
          "type": "QUEST_COND_STATE_EQUAL",
          "_param": [
            "7110711",
            "2"
          ]
        }
      ],
      "priority": 5,
      "initDialog": 711071101,
      "npcId": [
        2484
      ],
      "performCfg": "QuestDialogue/WQ/Liyue_71107/Q7110711",
      "heroTalk": "TALK_HERO_MAIN",
      "questId": 71107,
      "assetIndex": 14570826541276789213,
      "prePerformCfg": "",
      "CHAKPMBJNAJ": [
        "[3_311400028:2129.030,395.215,2028.408]",
        "[3_4957:2128.924,395.289,2030.063,0.000,148.606,0.000]",
        "[3_6379:2129.772,395.132,2028.755,0.000,333.667,0.000]"
      ]
    },
    {
      "id": 7110718,
      "beginWay": "TALK_BEGIN_MANUAL",
      "activeMode": "PLAY_MODE_HOST",
      "beginCond": [
        {
          "type": "QUEST_COND_STATE_EQUAL",
          "_param": [
            "99902",
            "3"
          ]
        }
      ],
      "priority": 5,
      "initDialog": 711071801,
      "npcId": [
        2484
      ],
      "performCfg": "",
      "heroTalk": "TALK_HERO_MAIN",
      "questId": 71107,
      "assetIndex": 6259905977345120820,
      "prePerformCfg": ""
    },
    {
      "id": 7110719,
      "beginWay": "TALK_BEGIN_MANUAL",
      "activeMode": "PLAY_MODE_HOST",
      "beginCond": [
        {
          "type": "QUEST_COND_STATE_EQUAL",
          "_param": [
            "7110719",
            "2"
          ]
        }
      ],
      "priority": 5,
      "initDialog": 711071901,
      "npcId": [
        2484
      ],
      "performCfg": "QuestDialogue/WQ/Liyue_71107/Q7110719",
      "heroTalk": "TALK_HERO_MAIN",
      "questId": 71107,
      "assetIndex": 7401770625227268065,
      "prePerformCfg": "",
      "CHAKPMBJNAJ": [
        "[3_311400029:2100.829,387.372,2156.960,0.000,60.780,0.000]",
        "[3_4955:2103.780,387.483,2158.025,0.000,291.009,0.000]",
        "[3_6381:2101.582,387.420,2160.254,356.656,137.977,359.275]"
      ]
    },
    {
      "id": 7110720,
      "beginWay": "TALK_BEGIN_MANUAL",
      "activeMode": "PLAY_MODE_HOST",
      "beginCond": [
        {
          "type": "QUEST_COND_STATE_EQUAL",
          "_param": [
            "7110720",
            "2"
          ]
        }
      ],
      "priority": 5,
      "initDialog": 711072001,
      "npcId": [
        2484
      ],
      "performCfg": "QuestDialogue/WQ/Liyue_71107/Q7110720",
      "heroTalk": "TALK_HERO_MAIN",
      "questId": 71107,
      "assetIndex": 10557556208541833350,
      "prePerformCfg": ""
    },
    {
      "id": 7110721,
      "beginWay": "TALK_BEGIN_MANUAL",
      "activeMode": "PLAY_MODE_HOST",
      "beginCond": [
        {
          "type": "QUEST_COND_STATE_EQUAL",
          "_param": [
            "7110721",
            "2"
          ]
        }
      ],
      "priority": 5,
      "initDialog": 711072101,
      "npcId": [
        2484
      ],
      "performCfg": "QuestDialogue/WQ/Liyue_71107/Q7110721",
      "heroTalk": "TALK_HERO_MAIN",
      "questId": 71107,
      "assetIndex": 6013349751052696711,
      "prePerformCfg": "",
      "CHAKPMBJNAJ": [
        "[3_311400030:2114.402,386.137,2138.646,0.000,185.631,0.000]",
        "[3_4958:2115.139,386.422,2136.492,0.000,328.156,0.000]",
        "[3_6382:2113.026,386.340,2137.611,0.000,120.399,0.000]"
      ]
    },
    {
      "id": 7110722,
      "beginWay": "TALK_BEGIN_AUTO",
      "activeMode": "PLAY_MODE_HOST",
      "beginCond": [
        {
          "type": "QUEST_COND_STATE_EQUAL",
          "_param": [
            "7110722",
            "2"
          ]
        }
      ],
      "priority": 5,
      "initDialog": 711072201,
      "npcId": [
        2484
      ],
      "performCfg": "QuestDialogue/WQ/Liyue_71107/Q7110722",
      "heroTalk": "TALK_HERO_MAIN",
      "questId": 71107,
      "assetIndex": 10355189393518962251,
      "prePerformCfg": "",
      "CHAKPMBJNAJ": [
        "[3_311400030:2114.402,386.137,2138.646,0.000,185.631,0.000]",
        "[3_5090:2124.600,386.020,2149.591,0.000,120.149,0.000]",
        "[3_6382:2113.026,386.340,2137.611,0.000,120.399,0.000]"
      ]
    },
    {
      "id": 7110723,
      "beginWay": "TALK_BEGIN_MANUAL",
      "activeMode": "PLAY_MODE_HOST",
      "beginCond": [
        {
          "type": "QUEST_COND_STATE_EQUAL",
          "_param": [
            "7110723",
            "2"
          ]
        }
      ],
      "priority": 5,
      "initDialog": 711072301,
      "npcId": [
        2484
      ],
      "performCfg": "QuestDialogue/WQ/Liyue_71107/Q7110723",
      "heroTalk": "TALK_HERO_MAIN",
      "questId": 71107,
      "assetIndex": 3078399713067642045,
      "prePerformCfg": ""
    },
    {
      "id": 7110730,
      "beginWay": "TALK_BEGIN_MANUAL",
      "activeMode": "PLAY_MODE_HOST",
      "beginCond": [
        {
          "type": "QUEST_COND_STATE_EQUAL",
          "_param": [
            "7110733",
            "2"
          ]
        }
      ],
      "priority": 5,
      "initDialog": 711073001,
      "npcId": [
        2484
      ],
      "performCfg": "",
      "heroTalk": "TALK_HERO_MAIN",
      "questId": 71107,
      "assetIndex": 1949569567985898193,
      "prePerformCfg": ""
    },
    {
      "id": 7110733,
      "beginWay": "TALK_BEGIN_MANUAL",
      "activeMode": "PLAY_MODE_HOST",
      "beginCond": [
        {
          "type": "QUEST_COND_STATE_EQUAL",
          "_param": [
            "7110733",
            "2"
          ]
        }
      ],
      "priority": 5,
      "initDialog": 711073301,
      "npcId": [
        1005
      ],
      "performCfg": "QuestDialogue/WQ/Liyue_71107/Q7110733",
      "heroTalk": "TALK_HERO_MAIN",
      "questId": 71107,
      "assetIndex": 3618631768202073871,
      "prePerformCfg": "",
      "CHAKPMBJNAJ": [
        "[3_311500107:2096.614,389.315,2131.893,0.000,126.942,0.000]",
        "[3_6861:2098.348,389.315,2131.685,0.000,250.373,0.000]"
      ]
    },
    {
      "id": 7110734,
      "beginWay": "TALK_BEGIN_MANUAL",
      "activeMode": "PLAY_MODE_HOST",
      "beginCondComb": "LOGIC_AND",
      "beginCond": [
        {
          "type": "QUEST_COND_ITEM_GIVING_ACTIVED",
          "_param": [
            "7110734"
          ]
        },
        {
          "type": "QUEST_COND_STATE_EQUAL",
          "_param": [
            "7110734",
            "2"
          ]
        }
      ],
      "priority": 5,
      "initDialog": 711073401,
      "npcId": [
        2484
      ],
      "performCfg": "QuestDialogue/WQ/Liyue_71107/Q7110734",
      "heroTalk": "TALK_HERO_MAIN",
      "questId": 71107,
      "assetIndex": 13631459827310577039,
      "prePerformCfg": ""
    },
    {
      "id": 7110741,
      "beginWay": "TALK_BEGIN_MANUAL",
      "activeMode": "PLAY_MODE_HOST",
      "beginCondComb": "LOGIC_AND",
      "beginCond": [
        {
          "type": "QUEST_COND_STATE_EQUAL",
          "_param": [
            "7110713",
            "3"
          ]
        },
        {
          "type": "QUEST_COND_STATE_EQUAL",
          "_param": [
            "7110716",
            "2"
          ]
        }
      ],
      "priority": 5,
      "initDialog": 711074101,
      "npcId": [
        2484
      ],
      "performCfg": "QuestDialogue/WQ/Liyue_71107/Q7110741",
      "heroTalk": "TALK_HERO_MAIN",
      "questId": 71107,
      "assetIndex": 6988921812559854104,
      "prePerformCfg": "",
      "CHAKPMBJNAJ": [
        "[3_311400028:2129.030,395.215,2028.408]",
        "[3_4957:2128.924,395.289,2030.063,0.000,148.606,0.000]",
        "[3_6379:2129.772,395.132,2028.755,0.000,333.667,0.000]"
      ]
    },
    {
      "id": 7110742,
      "beginWay": "TALK_BEGIN_MANUAL",
      "activeMode": "PLAY_MODE_HOST",
      "beginCondComb": "LOGIC_AND",
      "beginCond": [
        {
          "type": "QUEST_COND_STATE_EQUAL",
          "_param": [
            "7110714",
            "3"
          ]
        },
        {
          "type": "QUEST_COND_STATE_EQUAL",
          "_param": [
            "7110716",
            "2"
          ]
        }
      ],
      "priority": 5,
      "initDialog": 711074201,
      "npcId": [
        2484
      ],
      "performCfg": "QuestDialogue/WQ/Liyue_71107/Q7110742",
      "heroTalk": "TALK_HERO_MAIN",
      "questId": 71107,
      "assetIndex": 79999560740201854,
      "prePerformCfg": "",
      "CHAKPMBJNAJ": [
        "[3_311400028:2129.030,395.215,2028.408]",
        "[3_4957:2128.924,395.289,2030.063,0.000,148.606,0.000]",
        "[3_6379:2129.772,395.132,2028.755,0.000,333.667,0.000]"
      ]
    },
    {
      "id": 7110743,
      "beginWay": "TALK_BEGIN_MANUAL",
      "activeMode": "PLAY_MODE_HOST",
      "beginCondComb": "LOGIC_AND",
      "beginCond": [
        {
          "type": "QUEST_COND_STATE_EQUAL",
          "_param": [
            "7110715",
            "3"
          ]
        },
        {
          "type": "QUEST_COND_STATE_EQUAL",
          "_param": [
            "7110716",
            "2"
          ]
        }
      ],
      "priority": 5,
      "initDialog": 711074301,
      "npcId": [
        2484
      ],
      "performCfg": "QuestDialogue/WQ/Liyue_71107/Q7110743",
      "heroTalk": "TALK_HERO_MAIN",
      "questId": 71107,
      "assetIndex": 13284589300451569976,
      "prePerformCfg": "",
      "CHAKPMBJNAJ": [
        "[3_311400028:2129.030,395.215,2028.408]",
        "[3_4957:2128.924,395.289,2030.063,0.000,148.606,0.000]",
        "[3_6379:2129.772,395.132,2028.755,0.000,333.667,0.000]"
      ]
    },
    {
      "id": 7110744,
      "beginWay": "TALK_BEGIN_MANUAL",
      "activeMode": "PLAY_MODE_HOST",
      "beginCondComb": "LOGIC_AND",
      "beginCond": [
        {
          "type": "QUEST_COND_STATE_EQUAL",
          "_param": [
            "7110726",
            "3"
          ]
        },
        {
          "type": "QUEST_COND_STATE_EQUAL",
          "_param": [
            "7110716",
            "2"
          ]
        }
      ],
      "priority": 5,
      "initDialog": 711074401,
      "npcId": [
        2484
      ],
      "performCfg": "QuestDialogue/WQ/Liyue_71107/Q7110744",
      "heroTalk": "TALK_HERO_MAIN",
      "questId": 71107,
      "assetIndex": 4537235710694998228,
      "prePerformCfg": "",
      "CHAKPMBJNAJ": [
        "[3_311400028:2129.030,395.215,2028.408]",
        "[3_4957:2128.924,395.289,2030.063,0.000,148.606,0.000]",
        "[3_6379:2129.772,395.132,2028.755,0.000,333.667,0.000]"
      ]
    },
    {
      "id": 7110745,
      "beginWay": "TALK_BEGIN_MANUAL",
      "activeMode": "PLAY_MODE_HOST",
      "beginCondComb": "LOGIC_AND",
      "beginCond": [
        {
          "type": "QUEST_COND_STATE_EQUAL",
          "_param": [
            "7110727",
            "3"
          ]
        },
        {
          "type": "QUEST_COND_STATE_EQUAL",
          "_param": [
            "7110716",
            "2"
          ]
        }
      ],
      "priority": 5,
      "initDialog": 711074501,
      "npcId": [
        2484
      ],
      "performCfg": "QuestDialogue/WQ/Liyue_71107/Q7110745",
      "heroTalk": "TALK_HERO_MAIN",
      "questId": 71107,
      "assetIndex": 18091967443294474929,
      "prePerformCfg": "",
      "CHAKPMBJNAJ": [
        "[3_311400028:2129.030,395.215,2028.408]",
        "[3_4957:2128.924,395.289,2030.063,0.000,148.606,0.000]",
        "[3_6379:2129.772,395.132,2028.755,0.000,333.667,0.000]"
      ]
    },
    {
      "id": 7110751,
      "beginWay": "TALK_BEGIN_MANUAL",
      "activeMode": "PLAY_MODE_HOST",
      "beginCondComb": "LOGIC_AND",
      "beginCond": [
        {
          "type": "QUEST_COND_STATE_EQUAL",
          "_param": [
            "7110707",
            "3"
          ]
        },
        {
          "type": "QUEST_COND_STATE_EQUAL",
          "_param": [
            "7110709",
            "2"
          ]
        }
      ],
      "priority": 5,
      "initDialog": 711075101,
      "npcId": [
        2484
      ],
      "performCfg": "QuestDialogue/WQ/Liyue_71107/Q7110751",
      "heroTalk": "TALK_HERO_MAIN",
      "questId": 71107,
      "assetIndex": 10522574312465796461,
      "prePerformCfg": "",
      "CHAKPMBJNAJ": [
        "[3_311400027:2072.902,402.317,1980.042,0.000,237.626,0.000]",
        "[3_4956:2071.038,402.372,1980.025,2.805,79.058,0.369]",
        "[3_6380:2072.499,402.319,1980.834,0.000,236.622,0.000]"
      ]
    },
    {
      "id": 7110752,
      "beginWay": "TALK_BEGIN_MANUAL",
      "activeMode": "PLAY_MODE_HOST",
      "beginCondComb": "LOGIC_AND",
      "beginCond": [
        {
          "type": "QUEST_COND_STATE_EQUAL",
          "_param": [
            "7110708",
            "3"
          ]
        },
        {
          "type": "QUEST_COND_STATE_EQUAL",
          "_param": [
            "7110709",
            "2"
          ]
        }
      ],
      "priority": 5,
      "initDialog": 711075201,
      "npcId": [
        2484
      ],
      "performCfg": "QuestDialogue/WQ/Liyue_71107/Q7110752",
      "heroTalk": "TALK_HERO_MAIN",
      "questId": 71107,
      "assetIndex": 8995723377737715309,
      "prePerformCfg": "",
      "CHAKPMBJNAJ": [
        "[3_311400027:2072.902,402.317,1980.042,0.000,237.626,0.000]",
        "[3_4956:2071.038,402.372,1980.025,2.805,79.058,0.369]",
        "[3_6380:2072.499,402.319,1980.834,0.000,236.622,0.000]"
      ]
    },
    {
      "id": 7110753,
      "beginWay": "TALK_BEGIN_MANUAL",
      "activeMode": "PLAY_MODE_HOST",
      "beginCondComb": "LOGIC_AND",
      "beginCond": [
        {
          "type": "QUEST_COND_STATE_EQUAL",
          "_param": [
            "7110728",
            "3"
          ]
        },
        {
          "type": "QUEST_COND_STATE_EQUAL",
          "_param": [
            "7110709",
            "2"
          ]
        }
      ],
      "priority": 5,
      "initDialog": 711075301,
      "npcId": [
        2484
      ],
      "performCfg": "QuestDialogue/WQ/Liyue_71107/Q7110753",
      "heroTalk": "TALK_HERO_MAIN",
      "questId": 71107,
      "assetIndex": 16864687039758730527,
      "prePerformCfg": "",
      "CHAKPMBJNAJ": [
        "[3_311400027:2072.902,402.317,1980.042,0.000,237.626,0.000]",
        "[3_4956:2071.038,402.372,1980.025,2.805,79.058,0.369]",
        "[3_6380:2072.499,402.319,1980.834,0.000,236.622,0.000]"
      ]
    },
    {
      "id": 7110754,
      "beginWay": "TALK_BEGIN_MANUAL",
      "activeMode": "PLAY_MODE_HOST",
      "beginCondComb": "LOGIC_AND",
      "beginCond": [
        {
          "type": "QUEST_COND_STATE_EQUAL",
          "_param": [
            "7110729",
            "3"
          ]
        },
        {
          "type": "QUEST_COND_STATE_EQUAL",
          "_param": [
            "7110709",
            "2"
          ]
        }
      ],
      "priority": 5,
      "initDialog": 711075401,
      "npcId": [
        2484
      ],
      "performCfg": "QuestDialogue/WQ/Liyue_71107/Q7110754",
      "heroTalk": "TALK_HERO_MAIN",
      "questId": 71107,
      "assetIndex": 8089533467716858690,
      "prePerformCfg": "",
      "CHAKPMBJNAJ": [
        "[3_311400027:2072.902,402.317,1980.042,0.000,237.626,0.000]",
        "[3_4956:2071.038,402.372,1980.025,2.805,79.058,0.369]",
        "[3_6380:2072.499,402.319,1980.834,0.000,236.622,0.000]"
      ]
    },
    {
      "id": 7110755,
      "beginWay": "TALK_BEGIN_MANUAL",
      "activeMode": "PLAY_MODE_HOST",
      "beginCondComb": "LOGIC_AND",
      "beginCond": [
        {
          "type": "QUEST_COND_STATE_EQUAL",
          "_param": [
            "7110730",
            "3"
          ]
        },
        {
          "type": "QUEST_COND_STATE_EQUAL",
          "_param": [
            "7110709",
            "2"
          ]
        }
      ],
      "priority": 5,
      "initDialog": 711075501,
      "npcId": [
        2484
      ],
      "performCfg": "QuestDialogue/WQ/Liyue_71107/Q7110755",
      "heroTalk": "TALK_HERO_MAIN",
      "questId": 71107,
      "assetIndex": 2619342880866081418,
      "prePerformCfg": "",
      "CHAKPMBJNAJ": [
        "[3_311400027:2072.902,402.317,1980.042,0.000,237.626,0.000]",
        "[3_4956:2071.038,402.372,1980.025,2.805,79.058,0.369]",
        "[3_6380:2072.499,402.319,1980.834,0.000,236.622,0.000]"
      ]
    },
    {
      "id": 7110761,
      "beginWay": "TALK_BEGIN_MANUAL",
      "activeMode": "PLAY_MODE_HOST",
      "beginCondComb": "LOGIC_A_AND_ETCOR",
      "beginCond": [
        {
          "type": "QUEST_COND_QUEST_NOT_RECEIVE",
          "_param": [
            "7110716",
            "1"
          ]
        },
        {
          "type": "QUEST_COND_STATE_EQUAL",
          "_param": [
            "7110703",
            "3"
          ]
        },
        {
          "type": "QUEST_COND_STATE_EQUAL",
          "_param": [
            "7110725",
            "3"
          ]
        }
      ],
      "priority": 5,
      "initDialog": 711076101,
      "npcId": [
        2520
      ],
      "performCfg": "QuestDialogue/WQ/Liyue_71107/Q7110761",
      "heroTalk": "TALK_HERO_MAIN",
      "questId": 71107,
      "assetIndex": 8907058628607501101,
      "prePerformCfg": ""
    },
    {
      "id": 7110762,
      "beginWay": "TALK_BEGIN_MANUAL",
      "activeMode": "PLAY_MODE_HOST",
      "beginCondComb": "LOGIC_AND",
      "beginCond": [
        {
          "type": "QUEST_COND_STATE_EQUAL",
          "_param": [
            "7110713",
            "3"
          ]
        },
        {
          "type": "QUEST_COND_QUEST_NOT_RECEIVE",
          "_param": [
            "7110716",
            "0"
          ]
        },
        {
          "type": "QUEST_COND_QUEST_NOT_RECEIVE",
          "_param": [
            "7110709",
            "1"
          ]
        }
      ],
      "priority": 5,
      "initDialog": 711076201,
      "npcId": [
        2520
      ],
      "performCfg": "QuestDialogue/WQ/Liyue_71107/Q7110762",
      "heroTalk": "TALK_HERO_MAIN",
      "questId": 71107,
      "assetIndex": 10191917571691901440,
      "prePerformCfg": ""
    },
    {
      "id": 7110763,
      "beginWay": "TALK_BEGIN_MANUAL",
      "activeMode": "PLAY_MODE_HOST",
      "beginCondComb": "LOGIC_AND",
      "beginCond": [
        {
          "type": "QUEST_COND_STATE_EQUAL",
          "_param": [
            "7110713",
            "4"
          ]
        },
        {
          "type": "QUEST_COND_QUEST_NOT_RECEIVE",
          "_param": [
            "7110716",
            "0"
          ]
        },
        {
          "type": "QUEST_COND_QUEST_NOT_RECEIVE",
          "_param": [
            "7110709",
            "1"
          ]
        }
      ],
      "priority": 5,
      "initDialog": 711076301,
      "npcId": [
        2520
      ],
      "performCfg": "QuestDialogue/WQ/Liyue_71107/Q7110763",
      "heroTalk": "TALK_HERO_MAIN",
      "questId": 71107,
      "assetIndex": 11165224407778402352,
      "prePerformCfg": ""
    },
    {
      "id": 7110764,
      "beginWay": "TALK_BEGIN_MANUAL",
      "activeMode": "PLAY_MODE_HOST",
      "beginCondComb": "LOGIC_AND",
      "beginCond": [
        {
          "type": "QUEST_COND_QUEST_NOT_RECEIVE",
          "_param": [
            "7110709",
            "0"
          ]
        },
        {
          "type": "QUEST_COND_QUEST_NOT_RECEIVE",
          "_param": [
            "7110801",
            "1"
          ]
        }
      ],
      "priority": 5,
      "initDialog": 711076401,
      "npcId": [
        2520
      ],
      "performCfg": "QuestDialogue/WQ/Liyue_71107/Q7110764",
      "heroTalk": "TALK_HERO_MAIN",
      "questId": 71107,
      "assetIndex": 8002971890932080390,
      "prePerformCfg": ""
    },
    {
      "id": 7110765,
      "beginWay": "TALK_BEGIN_MANUAL",
      "activeMode": "PLAY_MODE_HOST",
      "beginCondComb": "LOGIC_AND",
      "beginCond": [
        {
          "type": "QUEST_COND_QUEST_NOT_RECEIVE",
          "_param": [
            "7110906",
            "1"
          ]
        },
        {
          "type": "QUEST_COND_STATE_EQUAL",
          "_param": [
            "7110722",
            "3"
          ]
        }
      ],
      "priority": 5,
      "initDialog": 711076501,
      "npcId": [
        2520,
        2484
      ],
      "performCfg": "QuestDialogue/WQ/Liyue_71107/Q7110765",
      "heroTalk": "TALK_HERO_MAIN",
      "questId": 71107,
      "assetIndex": 4849323753436700360,
      "prePerformCfg": ""
    }
  ],
  "preloadLuaList": [
    14457059026087496718,
    16390834954657181781,
    8456954953275351743,
    11401003439149717949,
    2887331526116117932,
    7749086666025983510,
    14347178200408920086
  ],
  "forcePreloadLuaList": [
    836313306722441208
  ],
  "freeStyleDic": {
    "2520": [
      1120
    ]
  }
}