{
  "id": 71113,
  "damageRatio": "WQ",
  "activeMode": "PLAY_MODE_ALL",
  "descTextMapHash": 195505287,
  "EKEKACCODOE": 3761472198,
  "luaPath": "Actor/Quest/WQ71113",
  "showType": "QUEST_HIDDEN",
  "subQuests": [
    {
      "subId": 7111301,
      "mainId": 71113,
      "order": 1,
      "descTextMapHash": 3506851812,
      "showType": "QUEST_HIDDEN",
      "finishCond": [
        {
          "damageRatio": "QUEST_CONTENT_QUEST_STATE_EQUAL",
          "param": [
            7104228,
            3
          ]
        }
      ],
      "guide": {
        "MLAHIFLGIGJ": ""
      },
      "guideHint": {
        "param1": ""
      },
      "finishParent": true,
      "isRewind": true,
      "finishExec": [
        {
          "damageRatio": "QUEST_EXEC_UNREGISTER_DYNAMIC_GROUP",
          "param": [
            "166001079"
          ]
        }
      ],
      "versionBegin": "",
      "versionEnd": ""
    }
  ],
  "LNMELPHNIDD": true
}