{
  "id": 71114,
  "damageRatio": "WQ",
  "descTextMapHash": 923490815,
  "EKEKACCODOE": 45379486,
  "luaPath": "Actor/Quest/WQ71114",
  "rewardIdList": [
    171114
  ],
  "subQuests": [
    {
      "subId": 7111401,
      "mainId": 71114,
      "order": 1,
      "descTextMapHash": 61790724,
      "showType": "QUEST_HIDDEN",
      "finishCond": [
        {
          "damageRatio": "QUEST_CONTENT_COMPLETE_TALK",
          "param": [
            7111401,
            0
          ]
        }
      ],
      "guide": {
        "damageRatio": "QUEST_GUIDE_NPC",
        "param": [
          "2526"
        ],
        "guideScene": 3,
        "guideStyle": "QUEST_GUIDE_STYLE_TARGET",
        "guideLayer": "QUEST_GUIDE_LAYER_SCENE",
        "MLAHIFLGIGJ": ""
      },
      "showGuide": "QUEST_GUIDE_ITEM_DISABLE",
      "guideHint": {
        "param1": ""
      },
      "isRewind": true,
      "versionBegin": "",
      "versionEnd": ""
    },
    {
      "subId": 7111402,
      "mainId": 71114,
      "order": 2,
      "subIdSet": 7111402,
      "descTextMapHash": 1590004076,
      "finishCond": [
        {
          "damageRatio": "QUEST_CONTENT_COMPLETE_TALK",
          "param": [
            7111402,
            0
          ]
        }
      ],
      "guide": {
        "damageRatio": "QUEST_GUIDE_LOCATION",
        "param": [
          "[3_311500131:2419.622,421.317,2149.969,0.000,150.566,0.000]",
          "20"
        ],
        "guideScene": 3,
        "guideStyle": "QUEST_GUIDE_STYLE_TARGET",
        "guideLayer": "QUEST_GUIDE_LAYER_SCENE",
        "MLAHIFLGIGJ": ""
      },
      "guideHint": {
        "param1": ""
      },
      "isRewind": true,
      "finishExec": [
        {
          "damageRatio": "QUEST_EXEC_NOTIFY_GROUP_LUA",
          "param": [
            "3",
            "133115068"
          ]
        }
      ],
      "versionBegin": "",
      "versionEnd": ""
    },
    {
      "subId": 7111403,
      "mainId": 71114,
      "order": 3,
      "subIdSet": 7111402,
      "descTextMapHash": 1976657924,
      "finishCond": [
        {
          "damageRatio": "QUEST_CONTENT_COMPLETE_TALK",
          "param": [
            7111403,
            0
          ]
        }
      ],
      "guide": {
        "damageRatio": "QUEST_GUIDE_LOCATION",
        "param": [
          "[3_311500136:2496.333,428.610,2154.759,0.000,178.732,0.000]",
          "20"
        ],
        "guideScene": 3,
        "guideStyle": "QUEST_GUIDE_STYLE_TARGET",
        "guideLayer": "QUEST_GUIDE_LAYER_SCENE",
        "MLAHIFLGIGJ": ""
      },
      "guideHint": {
        "param1": ""
      },
      "isRewind": true,
      "finishExec": [
        {
          "damageRatio": "QUEST_EXEC_NOTIFY_GROUP_LUA",
          "param": [
            "3",
            "133115069"
          ]
        }
      ],
      "versionBegin": "",
      "versionEnd": ""
    },
    {
      "subId": 7111404,
      "mainId": 71114,
      "order": 5,
      "descTextMapHash": 3866356044,
      "finishCond": [
        {
          "damageRatio": "QUEST_CONTENT_COMPLETE_TALK",
          "param": [
            7111404,
            0
          ]
        }
      ],
      "guide": {
        "damageRatio": "QUEST_GUIDE_NPC",
        "param": [
          "2526"
        ],
        "guideScene": 3,
        "guideStyle": "QUEST_GUIDE_STYLE_TARGET",
        "guideLayer": "QUEST_GUIDE_LAYER_SCENE",
        "MLAHIFLGIGJ": ""
      },
      "guideHint": {
        "param1": ""
      },
      "isRewind": true,
      "versionBegin": "",
      "versionEnd": ""
    },
    {
      "subId": 7111405,
      "mainId": 71114,
      "order": 6,
      "descTextMapHash": 1439155180,
      "finishCond": [
        {
          "damageRatio": "QUEST_CONTENT_FINISH_PLOT",
          "param": [
            7111405,
            0
          ]
        }
      ],
      "guide": {
        "damageRatio": "QUEST_GUIDE_LOCATION",
        "param": [
          "[3_311500158:2414.575,391.795,2101.749,0.000,260.702,0.000]"
        ],
        "guideScene": 3,
        "guideStyle": "QUEST_GUIDE_STYLE_POINT",
        "guideLayer": "QUEST_GUIDE_LAYER_SCENE",
        "MLAHIFLGIGJ": ""
      },
      "guideHint": {
        "param1": ""
      },
      "isRewind": true,
      "versionBegin": "",
      "versionEnd": ""
    },
    {
      "subId": 7111406,
      "mainId": 71114,
      "order": 4,
      "descTextMapHash": 1306782636,
      "showType": "QUEST_HIDDEN",
      "finishCond": [
        {
          "damageRatio": "QUEST_CONTENT_QUEST_STATE_EQUAL",
          "param": [
            7111402,
            3
          ]
        },
        {
          "damageRatio": "QUEST_CONTENT_QUEST_STATE_EQUAL",
          "param": [
            7111403,
            3
          ]
        }
      ],
      "guide": {
        "MLAHIFLGIGJ": ""
      },
      "showGuide": "QUEST_GUIDE_ITEM_DISABLE",
      "guideHint": {
        "param1": ""
      },
      "isRewind": true,
      "finishExec": [
        {
          "damageRatio": "QUEST_EXEC_UNREGISTER_DYNAMIC_GROUP",
          "param": [
            "133115068"
          ]
        },
        {
          "damageRatio": "QUEST_EXEC_UNREGISTER_DYNAMIC_GROUP",
          "param": [
            "133115069"
          ]
        }
      ],
      "versionBegin": "",
      "versionEnd": ""
    },
    {
      "subId": 7111407,
      "mainId": 71114,
      "order": 7,
      "descTextMapHash": 3263791140,
      "finishCond": [
        {
          "damageRatio": "QUEST_CONTENT_LUA_NOTIFY",
          "param": [
            0,
            0
          ],
          "count": 1
        },
        {
          "damageRatio": "QUEST_CONTENT_LUA_NOTIFY",
          "param": [
            0,
            0
          ],
          "count": 1
        }
      ],
      "guide": {
        "damageRatio": "QUEST_GUIDE_LOCATION",
        "param": [
          "[3_311500132:2352.619,377.008,2091.385,0.000,4.389,0.000]",
          "60"
        ],
        "guideScene": 3,
        "guideStyle": "QUEST_GUIDE_STYLE_POINT",
        "guideLayer": "QUEST_GUIDE_LAYER_SCENE",
        "MLAHIFLGIGJ": ""
      },
      "showGuide": "QUEST_GUIDE_ITEM_DISABLE",
      "guideHint": {
        "param1": ""
      },
      "finishExec": [
        {
          "damageRatio": "QUEST_EXEC_UNREGISTER_DYNAMIC_GROUP",
          "param": [
            "133115026"
          ]
        },
        {
          "damageRatio": "QUEST_EXEC_UNREGISTER_DYNAMIC_GROUP",
          "param": [
            "133115159"
          ]
        },
        {
          "damageRatio": "QUEST_EXEC_UNREGISTER_DYNAMIC_GROUP",
          "param": [
            "133115073"
          ]
        }
      ],
      "versionBegin": "",
      "versionEnd": ""
    },
    {
      "subId": 7111408,
      "mainId": 71114,
      "order": 8,
      "descTextMapHash": 3768280828,
      "finishCond": [
        {
          "damageRatio": "QUEST_CONTENT_COMPLETE_TALK",
          "param": [
            7111408,
            0
          ]
        }
      ],
      "guide": {
        "damageRatio": "QUEST_GUIDE_NPC",
        "param": [
          "13489"
        ],
        "guideScene": 3,
        "guideStyle": "QUEST_GUIDE_STYLE_TARGET",
        "guideLayer": "QUEST_GUIDE_LAYER_SCENE",
        "MLAHIFLGIGJ": ""
      },
      "guideHint": {
        "param1": ""
      },
      "isRewind": true,
      "versionBegin": "",
      "versionEnd": ""
    },
    {
      "subId": 7111409,
      "mainId": 71114,
      "order": 9,
      "descTextMapHash": 1973543244,
      "finishCond": [
        {
          "damageRatio": "QUEST_CONTENT_COMPLETE_TALK",
          "param": [
            7111409,
            0
          ]
        }
      ],
      "guide": {
        "damageRatio": "QUEST_GUIDE_LOCATION",
        "param": [
          "[3_311400059:2151.573,304.876,1489.261,0.000,351.767,0.000]",
          "30"
        ],
        "guideScene": 3,
        "guideStyle": "QUEST_GUIDE_STYLE_TARGET",
        "guideLayer": "QUEST_GUIDE_LAYER_SCENE",
        "MLAHIFLGIGJ": ""
      },
      "guideHint": {
        "param1": ""
      },
      "finishParent": true,
      "isRewind": true,
      "finishExec": [
        {
          "damageRatio": "QUEST_EXEC_INIT_TIME_VAR",
          "param": [
            "1"
          ]
        }
      ],
      "versionBegin": "",
      "versionEnd": ""
    }
  ],
  "talks": [
    {
      "id": 7111402,
      "beginWay": "TALK_BEGIN_MANUAL",
      "beginCond": [
        {
          "type": "QUEST_COND_STATE_EQUAL",
          "_param": [
            "7111402",
            "2"
          ]
        }
      ],
      "priority": 5,
      "initDialog": 711140201,
      "npcId": [
        13913
      ],
      "performCfg": "QuestDialogue/WQ/Liyue_71114/Q7111402",
      "heroTalk": "TALK_HERO_MAIN",
      "questId": 71114,
      "assetIndex": 16192254508058167018,
      "prePerformCfg": "",
      "CHAKPMBJNAJ": [
        "[3_7470:2419.544,421.420,2149.591,0.000,350.119,0.000]",
        "[3_7471:2420.336,421.005,2150.166,0.000,323.911,0.000]"
      ]
    },
    {
      "id": 7111403,
      "beginWay": "TALK_BEGIN_MANUAL",
      "beginCond": [
        {
          "type": "QUEST_COND_STATE_EQUAL",
          "_param": [
            "7111403",
            "2"
          ]
        }
      ],
      "priority": 5,
      "initDialog": 711140301,
      "npcId": [
        13914
      ],
      "performCfg": "QuestDialogue/WQ/Liyue_71114/Q7111403",
      "heroTalk": "TALK_HERO_MAIN",
      "questId": 71114,
      "assetIndex": 3668854579143209522,
      "prePerformCfg": "",
      "CHAKPMBJNAJ": [
        "[3_7472:2496.308,428.771,2154.007,0.000,352.018,0.000]",
        "[3_7473:2497.216,428.864,2154.142,0.000,317.290,0.000]"
      ]
    },
    {
      "id": 7111404,
      "beginWay": "TALK_BEGIN_MANUAL",
      "beginCond": [
        {
          "type": "QUEST_COND_STATE_EQUAL",
          "_param": [
            "7111404",
            "2"
          ]
        }
      ],
      "priority": 5,
      "initDialog": 711140401,
      "npcId": [
        2526
      ],
      "performCfg": "QuestDialogue/WQ/Liyue_71114/Q7111404",
      "heroTalk": "TALK_HERO_MAIN",
      "questId": 71114,
      "assetIndex": 11264839666209354759,
      "prePerformCfg": "",
      "CHAKPMBJNAJ": [
        "[3_7467:2463.026,404.385,2160.511,0.000,179.100,0.000]",
        "[3_7468:2461.942,404.364,2159.767,0.000,44.084,0.000]",
        "[3_7469:2462.799,404.385,2159.148]"
      ]
    },
    {
      "id": 7111406,
      "beginWay": "TALK_BEGIN_MANUAL",
      "beginCondComb": "LOGIC_OR",
      "beginCond": [
        {
          "type": "QUEST_COND_STATE_EQUAL",
          "_param": [
            "7111402",
            "2"
          ]
        },
        {
          "type": "QUEST_COND_STATE_EQUAL",
          "_param": [
            "7111403",
            "2"
          ]
        }
      ],
      "priority": 5,
      "initDialog": 711140601,
      "npcId": [
        2526
      ],
      "performCfg": "",
      "heroTalk": "TALK_HERO_MAIN",
      "questId": 71114,
      "assetIndex": 2158052213712108692,
      "prePerformCfg": "",
      "stayFreeStyle": true
    },
    {
      "id": 7111408,
      "beginWay": "TALK_BEGIN_MANUAL",
      "beginCond": [
        {
          "type": "QUEST_COND_STATE_EQUAL",
          "_param": [
            "7111408",
            "2"
          ]
        }
      ],
      "priority": 5,
      "initDialog": 711140841,
      "npcId": [
        13489
      ],
      "performCfg": "QuestDialogue/WQ/Liyue_71114/Q7111408",
      "heroTalk": "TALK_HERO_MAIN",
      "questId": 71114,
      "assetIndex": 6322682541988976772,
      "prePerformCfg": "",
      "CHAKPMBJNAJ": [
        "[3_7474:2302.038,384.795,2108.059,0.000,55.916,0.000]",
        "[3_7475:2304.253,384.795,2110.373,0.000,220.395,0.000]",
        "[3_7476:2301.994,384.795,2109.205,0.000,89.245,0.000]",
        "[3_7477:2305.262,384.795,2109.135,0.000,264.898,0.000]",
        "[3_7478:2302.484,384.795,2110.369,0.000,143.562,0.000]",
        "[3_7479:2294.440,383.003,2102.322,0.000,91.631,0.000]"
      ]
    },
    {
      "id": 7111409,
      "beginWay": "TALK_BEGIN_MANUAL",
      "beginCond": [
        {
          "type": "QUEST_COND_STATE_EQUAL",
          "_param": [
            "7111409",
            "2"
          ]
        }
      ],
      "priority": 5,
      "initDialog": 711140901,
      "npcId": [
        13489
      ],
      "performCfg": "QuestDialogue/WQ/Liyue_71114/Q7111409",
      "heroTalk": "TALK_HERO_MAIN",
      "questId": 71114,
      "assetIndex": 6479060973856887257,
      "prePerformCfg": "",
      "CHAKPMBJNAJ": [
        "[3_7480:2151.900,304.887,1489.155,0.000,294.319,0.000]",
        "[3_7481:2150.676,305.050,1488.611,0.000,34.617,0.000]",
        "[3_7482:2151.750,304.722,1490.496,0.000,251.894,0.000]",
        "[3_7483:2150.331,304.731,1492.075,0.000,137.974,0.000]",
        "[3_7484:2149.955,304.669,1490.060,0.000,89.121,0.000]"
      ]
    },
    {
      "id": 7111411,
      "beginWay": "TALK_BEGIN_MANUAL",
      "beginCond": [
        {
          "type": "QUEST_COND_STATE_EQUAL",
          "_param": [
            "7111409",
            "2"
          ]
        }
      ],
      "priority": 5,
      "initDialog": 711141101,
      "npcId": [
        2526
      ],
      "performCfg": "",
      "heroTalk": "TALK_HERO_MAIN",
      "questId": 71114,
      "assetIndex": 2059713146331475906,
      "prePerformCfg": "",
      "stayFreeStyle": true
    }
  ],
  "preloadLuaList": [
    15996505429727361549,
    1895328468648452298,
    8968549944976365501,
    965173993154028760,
    6299354371465743849,
    2292389582674397992
  ],
  "forcePreloadLuaList": [
    12932112592521104238
  ],
  "freeStyleDic": {
    "2526": [
      1190,
      1120
    ],
    "13489": [
      4190,
      1120
    ],
    "13490": [
      4180,
      1170
    ],
    "13491": [
      1070,
      1230
    ]
  },
  "dialogList": [
    {
      "id": 711140841,
      "nextDialogs": [
        711140801
      ],
      "talkRole": {
        "type": "TALK_ROLE_BLACK_SCREEN",
        "_id": ""
      },
      "talkContentTextMapHash": 192399906,
      "talkAssetPath": "",
      "talkAssetPathAlter": "",
      "talkAudioName": "",
      "actionBefore": "",
      "actionWhile": "",
      "actionAfter": "",
      "optionIcon": "",
      "iconPath": ""
    },
    {
      "id": 711149950,
      "talkRole": {
        "_id": ""
      },
      "talkAssetPath": "",
      "talkAssetPathAlter": "",
      "talkAudioName": "",
      "actionBefore": "",
      "actionWhile": "",
      "actionAfter": "",
      "optionIcon": "",
      "iconPath": ""
    }
  ],
  "LNMELPHNIDD": true
}