{
  "id": 71128,
  "damageRatio": "WQ",
  "activeMode": "PLAY_MODE_ALL",
  "descTextMapHash": 4240540871,
  "EKEKACCODOE": 3691995398,
  "luaPath": "Actor/Quest/WQ71128",
  "showType": "QUEST_HIDDEN",
  "subQuests": [
    {
      "subId": 7112801,
      "mainId": 71128,
      "order": 1,
      "descTextMapHash": 2499279316,
      "showType": "QUEST_HIDDEN",
      "finishCond": [
        {
          "damageRatio": "QUEST_CONTENT_GADGET_STATE_CHANGE",
          "param": [
            133101337,
            337005
          ]
        }
      ],
      "guide": {
        "MLAHIFLGIGJ": ""
      },
      "showGuide": "QUEST_GUIDE_ITEM_DISABLE",
      "guideHint": {
        "param1": ""
      },
      "isRewind": true,
      "versionBegin": "",
      "versionEnd": ""
    },
    {
      "subId": 7112802,
      "mainId": 71128,
      "order": 2,
      "descTextMapHash": 532993348,
      "showType": "QUEST_HIDDEN",
      "finishCond": [
        {
          "damageRatio": "QUEST_CONTENT_COMPLETE_TALK",
          "param": [
            7112802,
            0
          ]
        }
      ],
      "guide": {
        "MLAHIFLGIGJ": ""
      },
      "showGuide": "QUEST_GUIDE_ITEM_DISABLE",
      "guideHint": {
        "param1": ""
      },
      "finishParent": true,
      "isRewind": true,
      "versionBegin": "",
      "versionEnd": ""
    }
  ],
  "talks": [
    {
      "id": 7112802,
      "beginWay": "TALK_BEGIN_MANUAL",
      "activeMode": "PLAY_MODE_HOST",
      "priority": 5,
      "initDialog": 711280201,
      "npcId": [
        21414
      ],
      "performCfg": "QuestDialogue/WQ/Liyue_71128/Q7112802",
      "questId": 71128,
      "assetIndex": 12895270604386377999,
      "prePerformCfg": ""
    }
  ],
  "LNMELPHNIDD": true
}