{
  "id": 71126,
  "damageRatio": "WQ",
  "activeMode": "PLAY_MODE_ALL",
  "descTextMapHash": 3765282135,
  "luaPath": "Actor/Quest/WQ71126",
  "showType": "QUEST_HIDDEN",
  "subQuests": [
    {
      "subId": 7112601,
      "mainId": 71126,
      "order": 1,
      "descTextMapHash": 3327594036,
      "showType": "QUEST_HIDDEN",
      "finishCond": [
        {
          "damageRatio": "QUEST_CONTENT_COMPLETE_TALK",
          "param": [
            7112603,
            0
          ]
        }
      ],
      "guide": {
        "MLAHIFLGIGJ": ""
      },
      "guideHint": {
        "param1": ""
      },
      "isRewind": true,
      "versionBegin": "",
      "versionEnd": ""
    },
    {
      "subId": 7112602,
      "mainId": 71126,
      "order": 2,
      "descTextMapHash": 2109832284,
      "showType": "QUEST_HIDDEN",
      "finishCond": [
        {
          "damageRatio": "QUEST_CONTENT_LUA_NOTIFY",
          "param": [
            0,
            0
          ],
          "count": 1
        },
        {
          "damageRatio": "QUEST_CONTENT_GADGET_STATE_CHANGE",
          "param": [
            133114059,
            59004
          ]
        }
      ],
      "guide": {
        "MLAHIFLGIGJ": ""
      },
      "guideHint": {
        "param1": ""
      },
      "isRewind": true,
      "versionBegin": "",
      "versionEnd": ""
    },
    {
      "subId": 7112603,
      "mainId": 71126,
      "order": 3,
      "descTextMapHash": 2749693756,
      "showType": "QUEST_HIDDEN",
      "finishCond": [
        {
          "damageRatio": "QUEST_CONTENT_FINISH_PLOT",
          "param": [
            7112603,
            0
          ]
        }
      ],
      "guide": {
        "MLAHIFLGIGJ": ""
      },
      "guideHint": {
        "param1": ""
      },
      "isRewind": true,
      "finishExec": [
        {
          "damageRatio": "QUEST_EXEC_NOTIFY_GROUP_LUA",
          "param": [
            "3",
            "133114088"
          ]
        }
      ],
      "versionBegin": "",
      "versionEnd": ""
    },
    {
      "subId": 7112604,
      "mainId": 71126,
      "order": 4,
      "descTextMapHash": 2769707244,
      "showType": "QUEST_HIDDEN",
      "finishCond": [
        {
          "damageRatio": "QUEST_CONTENT_FINISH_PLOT",
          "param": [
            7112604,
            0
          ]
        }
      ],
      "guide": {
        "MLAHIFLGIGJ": ""
      },
      "guideHint": {
        "param1": ""
      },
      "finishParent": true,
      "isRewind": true,
      "versionBegin": "",
      "versionEnd": ""
    }
  ],
  "talks": [
    {
      "id": 7112601,
      "beginWay": "TALK_BEGIN_MANUAL",
      "activeMode": "PLAY_MODE_HOST",
      "beginCondComb": "LOGIC_OR",
      "beginCond": [
        {
          "type": "QUEST_COND_STATE_EQUAL",
          "_param": [
            "7112601",
            "2"
          ]
        },
        {
          "type": "QUEST_COND_STATE_EQUAL",
          "_param": [
            "7112602",
            "2"
          ]
        }
      ],
      "priority": 5,
      "initDialog": 711260101,
      "npcId": [
        2289
      ],
      "performCfg": "",
      "questId": 71126,
      "assetIndex": 15357560642038808371,
      "prePerformCfg": ""
    },
    {
      "id": 7112602,
      "beginWay": "TALK_BEGIN_MANUAL",
      "activeMode": "PLAY_MODE_HOST",
      "beginCondComb": "LOGIC_OR",
      "beginCond": [
        {
          "type": "QUEST_COND_STATE_EQUAL",
          "_param": [
            "7112601",
            "2"
          ]
        },
        {
          "type": "QUEST_COND_STATE_EQUAL",
          "_param": [
            "7112602",
            "2"
          ]
        },
        {
          "type": "QUEST_COND_STATE_EQUAL",
          "_param": [
            "7112603",
            "2"
          ]
        },
        {
          "type": "QUEST_COND_STATE_EQUAL",
          "_param": [
            "7112604",
            "2"
          ]
        }
      ],
      "priority": 5,
      "initDialog": 711260201,
      "npcId": [
        2500
      ],
      "performCfg": "",
      "questId": 71126,
      "assetIndex": 1278007999925907251,
      "prePerformCfg": ""
    },
    {
      "id": 7112603,
      "beginWay": "TALK_BEGIN_MANUAL",
      "activeMode": "PLAY_MODE_HOST",
      "beginCond": [
        {
          "type": "QUEST_COND_STATE_EQUAL",
          "_param": [
            "7112601",
            "2"
          ]
        }
      ],
      "priority": 5,
      "initDialog": 711260302,
      "npcId": [
        2513
      ],
      "performCfg": "",
      "questId": 71126,
      "assetIndex": 14276563279237368219,
      "prePerformCfg": ""
    },
    {
      "id": 7112604,
      "beginWay": "TALK_BEGIN_MANUAL",
      "activeMode": "PLAY_MODE_HOST",
      "beginCondComb": "LOGIC_OR",
      "beginCond": [
        {
          "type": "QUEST_COND_STATE_EQUAL",
          "_param": [
            "7112602",
            "2"
          ]
        },
        {
          "type": "QUEST_COND_STATE_EQUAL",
          "_param": [
            "7112603",
            "2"
          ]
        },
        {
          "type": "QUEST_COND_STATE_EQUAL",
          "_param": [
            "7112604",
            "2"
          ]
        }
      ],
      "priority": 5,
      "initDialog": 711260401,
      "npcId": [
        2513
      ],
      "performCfg": "",
      "questId": 71126,
      "assetIndex": 16250903382905337166,
      "prePerformCfg": ""
    }
  ],
  "preloadLuaList": [
    17181113456334985059
  ],
  "forcePreloadLuaList": [
    893870825815502447
  ],
  "dialogList": [
    {
      "id": 711260301,
      "nextDialogs": [
        711260302
      ],
      "talkRole": {
        "type": "TALK_ROLE_NPC",
        "_id": "2513"
      },
      "talkContentTextMapHash": 627331346,
      "talkAssetPath": "",
      "talkAssetPathAlter": "",
      "talkAudioName": "",
      "actionBefore": "",
      "actionWhile": "SimpleTalk/LerpInNpcNoSteer_Start",
      "actionAfter": "",
      "optionIcon": "",
      "iconPath": ""
    }
  ],
  "LNMELPHNIDD": true
}