{
  "id": 71135,
  "damageRatio": "WQ",
  "activeMode": "PLAY_MODE_ALL",
  "descTextMapHash": 1391978367,
  "luaPath": "Actor/Quest/WQ71135",
  "showType": "QUEST_HIDDEN",
  "subQuests": [
    {
      "subId": 7113501,
      "mainId": 71135,
      "order": 1,
      "showType": "QUEST_HIDDEN",
      "finishCond": [
        {
          "damageRatio": "QUEST_CONTENT_LUA_NOTIFY",
          "param": [
            0,
            0
          ],
          "count": 1
        }
      ],
      "guide": {
        "MLAHIFLGIGJ": ""
      },
      "guideHint": {
        "param1": ""
      },
      "isRewind": true,
      "finishExec": [
        {
          "damageRatio": "QUEST_EXEC_SET_WEATHER_GADGET",
          "param": [
            "2223",
            "1"
          ]
        }
      ],
      "versionBegin": "",
      "versionEnd": ""
    },
    {
      "subId": 7113502,
      "mainId": 71135,
      "order": 2,
      "showType": "QUEST_HIDDEN",
      "finishCond": [
        {
          "damageRatio": "QUEST_CONTENT_COMPLETE_TALK",
          "param": [
            7113502,
            0
          ]
        }
      ],
      "guide": {
        "MLAHIFLGIGJ": ""
      },
      "guideHint": {
        "param1": ""
      },
      "finishParent": true,
      "isRewind": true,
      "versionBegin": "",
      "versionEnd": ""
    }
  ],
  "talks": [
    {
      "id": 7113502,
      "beginWay": "TALK_BEGIN_MANUAL",
      "beginCond": [
        {
          "type": "QUEST_COND_STATE_EQUAL",
          "_param": [
            "7113502",
            "2"
          ]
        }
      ],
      "priority": 5,
      "initDialog": 711350201,
      "npcId": [
        21094
      ],
      "performCfg": "QuestDialogue/WQ/Liyue_71135/Q7113502",
      "heroTalk": "TALK_HERO_MAIN",
      "questId": 71135,
      "assetIndex": 10951511207869022777,
      "prePerformCfg": "",
      "CHAKPMBJNAJ": [
        "[3_311600081:1500.751,-45.099,2743.810,0.000,132.497,0.000]",
        "[3_311600084:1501.650,-45.031,2743.523,0.000,272.336,0.000]",
        "[3_311600092:1502.263,-44.817,2746.826,0.000,203.550,0.000]"
      ]
    }
  ],
  "LNMELPHNIDD": true
}