{
  "id": 71138,
  "damageRatio": "WQ",
  "descTextMapHash": 447792503,
  "EKEKACCODOE": 372267374,
  "luaPath": "Actor/Quest/WQ71138",
  "showType": "QUEST_HIDDEN",
  "subQuests": [
    {
      "subId": 7113801,
      "mainId": 71138,
      "order": 1,
      "descTextMapHash": 2678294244,
      "showType": "QUEST_HIDDEN",
      "finishCond": [
        {
          "damageRatio": "QUEST_CONTENT_LEAVE_SCENE_RANGE",
          "param": [
            3,
            80
          ]
        }
      ],
      "guide": {
        "MLAHIFLGIGJ": ""
      },
      "showGuide": "QUEST_GUIDE_ITEM_DISABLE",
      "guideHint": {
        "param1": ""
      },
      "finishParent": true,
      "isRewind": true,
      "versionBegin": "",
      "versionEnd": ""
    }
  ],
  "LNMELPHNIDD": true
}