{
  "id": 71516,
  "damageRatio": "WQ",
  "mainQuestTag": "MAINQUEST_TAG_GUIDE",
  "descTextMapHash": 2943465183,
  "EKEKACCODOE": 2823907286,
  "luaPath": "Actor/Quest/WQ71516",
  "rewardIdList": [
    171516
  ],
  "showRedPoint": true,
  "activityId": 2019,
  "subQuests": [
    {
      "subId": 7151601,
      "mainId": 71516,
      "order": 1,
      "descTextMapHash": 92216620,
      "finishCond": [
        {
          "damageRatio": "QUEST_CONTENT_COMPLETE_TALK",
          "param": [
            7151601,
            0
          ]
        }
      ],
      "guide": {
        "damageRatio": "QUEST_GUIDE_NPC",
        "param": [
          "30306"
        ],
        "guideScene": 3,
        "guideStyle": "QUEST_GUIDE_STYLE_TARGET",
        "guideLayer": "QUEST_GUIDE_LAYER_SCENE",
        "MLAHIFLGIGJ": ""
      },
      "guideHint": {
        "param1": ""
      },
      "finishParent": true,
      "isRewind": true,
      "versionBegin": "",
      "versionEnd": ""
    }
  ],
  "talks": [
    {
      "id": 7151601,
      "beginWay": "TALK_BEGIN_MANUAL",
      "beginCond": [
        {
          "type": "QUEST_COND_STATE_EQUAL",
          "_param": [
            "7151601",
            "2"
          ]
        }
      ],
      "priority": 5,
      "initDialog": 715160101,
      "npcId": [
        30306
      ],
      "performCfg": "",
      "heroTalk": "TALK_HERO_MAIN",
      "questId": 71516,
      "assetIndex": 14284143467744498955,
      "prePerformCfg": "",
      "freeStyleList": [
        1171,
        1172,
        1173,
        4030,
        1230,
        1130,
        1170,
        1180,
        4040,
        1150,
        1120
      ]
    }
  ]
}