{
  "id": 71514,
  "damageRatio": "WQ",
  "mainQuestTag": "MAINQUEST_TAG_GUIDE",
  "activeMode": "PLAY_MODE_ALL",
  "descTextMapHash": 543847647,
  "EKEKACCODOE": 356937630,
  "luaPath": "Actor/Quest/WQ71514",
  "rewardIdList": [
    171514
  ],
  "showRedPoint": true,
  "activityId": 2019,
  "subQuests": [
    {
      "subId": 7151401,
      "mainId": 71514,
      "order": 1,
      "descTextMapHash": 3211100668,
      "finishCond": [
        {
          "damageRatio": "QUEST_CONTENT_COMPLETE_TALK",
          "param": [
            7151401,
            0
          ]
        }
      ],
      "guide": {
        "damageRatio": "QUEST_GUIDE_NPC",
        "param": [
          "2096"
        ],
        "guideScene": 3,
        "guideStyle": "QUEST_GUIDE_STYLE_TARGET",
        "guideLayer": "QUEST_GUIDE_LAYER_SCENE",
        "MLAHIFLGIGJ": ""
      },
      "guideHint": {
        "param1": ""
      },
      "finishParent": true,
      "isRewind": true,
      "versionBegin": "",
      "versionEnd": ""
    }
  ],
  "talks": [
    {
      "id": 7151401,
      "beginWay": "TALK_BEGIN_MANUAL",
      "activeMode": "PLAY_MODE_HOST",
      "beginCond": [
        {
          "type": "QUEST_COND_STATE_EQUAL",
          "_param": [
            "7151401",
            "2"
          ]
        }
      ],
      "priority": 5,
      "initDialog": 715140101,
      "npcId": [
        2096
      ],
      "performCfg": "",
      "heroTalk": "TALK_HERO_MAIN",
      "questId": 71514,
      "assetIndex": 1179144505280833351,
      "prePerformCfg": "",
      "talkMarkType": "TALK_MARK_COMMON",
      "freeStyleList": [
        1120,
        1171,
        1172,
        1173,
        1230,
        1130,
        1170,
        1180,
        4030,
        1190
      ]
    }
  ],
  "freeStyleDic": {
    "2096": [
      1230
    ]
  }
}