{
  "id": 71519,
  "damageRatio": "WQ",
  "activeMode": "PLAY_MODE_ALL",
  "EKEKACCODOE": 1721481534,
  "luaPath": "Actor/Quest/WQ71519",
  "showType": "QUEST_HIDDEN",
  "activityId": 2019,
  "subQuests": [
    {
      "subId": 7151901,
      "mainId": 71519,
      "order": 1,
      "showType": "QUEST_HIDDEN",
      "finishCond": [
        {
          "damageRatio": "QUEST_CONTENT_FINISH_PLOT",
          "param": [
            7151901,
            0
          ]
        }
      ],
      "guide": {
        "MLAHIFLGIGJ": ""
      },
      "guideHint": {
        "param1": ""
      },
      "isRewind": true,
      "versionBegin": "",
      "versionEnd": ""
    }
  ],
  "preloadLuaList": [
    8618648996813652395
  ],
  "forcePreloadLuaList": [
    15127933422858312717
  ]
}