{
  "id": 71529,
  "damageRatio": "WQ",
  "mainQuestTag": "MAINQUEST_TAG_ACTIVITY",
  "descTextMapHash": 3993216023,
  "EKEKACCODOE": 2866723702,
  "luaPath": "Actor/Quest/WQ71529",
  "showType": "QUEST_HIDDEN",
  "activityId": 5173,
  "subQuests": [
    {
      "subId": 7152901,
      "mainId": 71529,
      "order": 1,
      "descTextMapHash": 2310393524,
      "showType": "QUEST_HIDDEN",
      "finishCond": [
        {
          "damageRatio": "QUEST_CONTENT_COMPLETE_TALK",
          "param": [
            7166650,
            0
          ]
        }
      ],
      "guide": {
        "MLAHIFLGIGJ": ""
      },
      "guideHint": {
        "param1": ""
      },
      "isRewind": true,
      "versionBegin": "",
      "versionEnd": ""
    },
    {
      "subId": 7152902,
      "mainId": 71529,
      "order": 2,
      "descTextMapHash": 2620965348,
      "showType": "QUEST_HIDDEN",
      "finishCond": [
        {
          "damageRatio": "QUEST_CONTENT_QUEST_STATE_EQUAL",
          "param": [
            7152903,
            2
          ]
        }
      ],
      "guide": {
        "MLAHIFLGIGJ": ""
      },
      "guideHint": {
        "param1": ""
      },
      "isRewind": true,
      "versionBegin": "",
      "versionEnd": ""
    },
    {
      "subId": 7152903,
      "mainId": 71529,
      "order": 3,
      "descTextMapHash": 85780084,
      "showType": "QUEST_HIDDEN",
      "finishCond": [
        {
          "damageRatio": "QUEST_CONTENT_COMPLETE_TALK",
          "param": [
            7166651,
            0
          ]
        }
      ],
      "guide": {
        "MLAHIFLGIGJ": ""
      },
      "guideHint": {
        "param1": ""
      },
      "finishParent": true,
      "isRewind": true,
      "versionBegin": "",
      "versionEnd": ""
    }
  ],
  "talks": [
    {
      "id": 7166650,
      "beginWay": "TALK_BEGIN_MANUAL",
      "beginCondComb": "LOGIC_AND",
      "beginCond": [
        {
          "type": "QUEST_COND_ACTIVITY_CLIENT_COND",
          "_param": [
            "5173",
            "5173006",
            "1"
          ]
        },
        {
          "type": "QUEST_COND_STATE_EQUAL",
          "_param": [
            "7152901",
            "2"
          ]
        }
      ],
      "priority": 5,
      "initDialog": 716665001,
      "npcId": [
        30473
      ],
      "performCfg": "QuestDialogue/WQ/ElectroherculesBattleV2_71666/Q7166650",
      "heroTalk": "TALK_HERO_MAIN",
      "questId": 71529,
      "assetIndex": 16334178235210320411,
      "prePerformCfg": "",
      "lockGameTime": true,
      "CHAKPMBJNAJ": [
        "[3_7030:-352.046,200.421,-699.884,0.000,97.814,0.000]"
      ]
    },
    {
      "id": 7166651,
      "beginWay": "TALK_BEGIN_MANUAL",
      "beginCondComb": "LOGIC_AND",
      "beginCond": [
        {
          "type": "QUEST_COND_STATE_EQUAL",
          "_param": [
            "7152903",
            "2"
          ]
        }
      ],
      "priority": 8,
      "initDialog": 716665101,
      "npcId": [
        30473
      ],
      "performCfg": "QuestDialogue/WQ/ElectroherculesBattleV2_71666/Q7166651",
      "heroTalk": "TALK_HERO_MAIN",
      "questId": 71529,
      "assetIndex": 17912669301301907554,
      "prePerformCfg": "",
      "CHAKPMBJNAJ": [
        "[3_7030:-352.046,200.421,-699.884,0.000,97.814,0.000]"
      ]
    },
    {
      "id": 7166653,
      "beginWay": "TALK_BEGIN_MANUAL",
      "beginCond": [
        {
          "type": "QUEST_COND_STATE_EQUAL",
          "_param": [
            "7152902",
            "2"
          ]
        }
      ],
      "priority": 5,
      "initDialog": 716665301,
      "npcId": [
        13954
      ],
      "performCfg": "UI/open_actvity_ElectroherculesBattleV2_level4_page",
      "heroTalk": "TALK_HERO_MAIN",
      "questId": 71529,
      "assetIndex": 124449342626346895,
      "prePerformCfg": ""
    }
  ],
  "LNMELPHNIDD": true
}