{
  "id": 71527,
  "damageRatio": "WQ",
  "mainQuestTag": "MAINQUEST_TAG_ACTIVITY",
  "descTextMapHash": 2493121871,
  "EKEKACCODOE": 2864688158,
  "luaPath": "Actor/Quest/WQ71527",
  "showType": "QUEST_HIDDEN",
  "activityId": 5173,
  "subQuests": [
    {
      "subId": 7152701,
      "mainId": 71527,
      "order": 1,
      "descTextMapHash": 1066641516,
      "showType": "QUEST_HIDDEN",
      "finishCond": [
        {
          "damageRatio": "QUEST_CONTENT_COMPLETE_TALK",
          "param": [
            7166640,
            0
          ]
        }
      ],
      "guide": {
        "MLAHIFLGIGJ": ""
      },
      "guideHint": {
        "param1": ""
      },
      "isRewind": true,
      "versionBegin": "",
      "versionEnd": ""
    },
    {
      "subId": 7152702,
      "mainId": 71527,
      "order": 2,
      "descTextMapHash": 3562261236,
      "showType": "QUEST_HIDDEN",
      "finishCond": [
        {
          "damageRatio": "QUEST_CONTENT_QUEST_STATE_EQUAL",
          "param": [
            7152703,
            2
          ]
        }
      ],
      "guide": {
        "MLAHIFLGIGJ": ""
      },
      "guideHint": {
        "param1": ""
      },
      "isRewind": true,
      "versionBegin": "",
      "versionEnd": ""
    },
    {
      "subId": 7152703,
      "mainId": 71527,
      "order": 3,
      "descTextMapHash": 1096740644,
      "showType": "QUEST_HIDDEN",
      "finishCond": [
        {
          "damageRatio": "QUEST_CONTENT_COMPLETE_TALK",
          "param": [
            7166641,
            0
          ]
        }
      ],
      "guide": {
        "MLAHIFLGIGJ": ""
      },
      "guideHint": {
        "param1": ""
      },
      "finishParent": true,
      "isRewind": true,
      "versionBegin": "",
      "versionEnd": ""
    }
  ],
  "talks": [
    {
      "id": 7166640,
      "beginWay": "TALK_BEGIN_MANUAL",
      "beginCondComb": "LOGIC_AND",
      "beginCond": [
        {
          "type": "QUEST_COND_ACTIVITY_CLIENT_COND",
          "_param": [
            "5173",
            "5173005",
            "1"
          ]
        },
        {
          "type": "QUEST_COND_STATE_EQUAL",
          "_param": [
            "7152701",
            "2"
          ]
        }
      ],
      "priority": 5,
      "initDialog": 716664001,
      "npcId": [
        30467
      ],
      "performCfg": "QuestDialogue/WQ/ElectroherculesBattleV2_71666/Q7166640",
      "heroTalk": "TALK_HERO_MAIN",
      "questId": 71527,
      "assetIndex": 16421282437241387486,
      "prePerformCfg": "",
      "lockGameTime": true,
      "CHAKPMBJNAJ": [
        "[3_7028:-347.962,200.495,-711.101,0.000,22.879,0.000]"
      ]
    },
    {
      "id": 7166641,
      "beginWay": "TALK_BEGIN_MANUAL",
      "beginCond": [
        {
          "type": "QUEST_COND_STATE_EQUAL",
          "_param": [
            "7152703",
            "2"
          ]
        }
      ],
      "priority": 8,
      "initDialog": 716664101,
      "npcId": [
        30467
      ],
      "performCfg": "QuestDialogue/WQ/ElectroherculesBattleV2_71666/Q7166641",
      "heroTalk": "TALK_HERO_MAIN",
      "questId": 71527,
      "assetIndex": 4623912726676001928,
      "prePerformCfg": "",
      "CHAKPMBJNAJ": [
        "[3_7028:-347.962,200.495,-711.101,0.000,22.879,0.000]"
      ]
    },
    {
      "id": 7166643,
      "beginWay": "TALK_BEGIN_MANUAL",
      "beginCond": [
        {
          "type": "QUEST_COND_STATE_EQUAL",
          "_param": [
            "7152702",
            "2"
          ]
        }
      ],
      "priority": 5,
      "initDialog": 716664301,
      "npcId": [
        13953
      ],
      "performCfg": "UI/open_actvity_ElectroherculesBattleV2_level3_page",
      "heroTalk": "TALK_HERO_MAIN",
      "questId": 71527,
      "assetIndex": 16281161355496549702,
      "prePerformCfg": ""
    }
  ],
  "LNMELPHNIDD": true
}