{
  "id": 71520,
  "damageRatio": "WQ",
  "mainQuestTag": "MAINQUEST_TAG_GUIDE",
  "descTextMapHash": 3335523575,
  "EKEKACCODOE": 3799290982,
  "luaPath": "Actor/Quest/WQ71520",
  "rewardIdList": [
    171520
  ],
  "showRedPoint": true,
  "activityId": 5138,
  "subQuests": [
    {
      "subId": 7152001,
      "mainId": 71520,
      "order": 1,
      "descTextMapHash": 3106321932,
      "stepDescTextMapHash": 4183189229,
      "finishCond": [
        {
          "damageRatio": "QUEST_CONTENT_COMPLETE_TALK",
          "param": [
            7152001,
            0
          ]
        }
      ],
      "guide": {
        "damageRatio": "QUEST_GUIDE_NPC",
        "param": [
          "30225"
        ],
        "guideScene": 3,
        "guideStyle": "QUEST_GUIDE_STYLE_TARGET",
        "guideLayer": "QUEST_GUIDE_LAYER_SCENE",
        "MLAHIFLGIGJ": ""
      },
      "guideHint": {
        "param1": ""
      },
      "finishParent": true,
      "isRewind": true,
      "versionBegin": "",
      "versionEnd": ""
    }
  ],
  "talks": [
    {
      "id": 7152001,
      "beginWay": "TALK_BEGIN_MANUAL",
      "beginCond": [
        {
          "type": "QUEST_COND_STATE_EQUAL",
          "_param": [
            "7152001",
            "2"
          ]
        }
      ],
      "priority": 5,
      "initDialog": 715200101,
      "npcId": [
        30225,
        1005
      ],
      "performCfg": "QuestDialogue/WQ/Liyue_71520/Q7152001",
      "heroTalk": "TALK_HERO_MAIN",
      "questId": 71520,
      "assetIndex": 8069385268003313445,
      "prePerformCfg": "",
      "freeStyleList": [
        1160,
        1190,
        1240,
        4030,
        4040,
        1060,
        1120,
        1050,
        1030,
        1110,
        9000
      ]
    }
  ]
}