{
  "id": 71530,
  "damageRatio": "WQ",
  "mainQuestTag": "MAINQUEST_TAG_GUIDE",
  "activeMode": "PLAY_MODE_ALL",
  "descTextMapHash": 2689617631,
  "EKEKACCODOE": 912702366,
  "luaPath": "Actor/Quest/WQ71530",
  "rewardIdList": [
    171530
  ],
  "showRedPoint": true,
  "activityId": 2028,
  "subQuests": [
    {
      "subId": 7153001,
      "mainId": 71530,
      "order": 1,
      "descTextMapHash": 1318456876,
      "finishCond": [
        {
          "damageRatio": "QUEST_CONTENT_COMPLETE_TALK",
          "param": [
            7153001,
            0
          ]
        }
      ],
      "guide": {
        "damageRatio": "QUEST_GUIDE_NPC",
        "param": [
          "30457"
        ],
        "guideScene": 3,
        "guideStyle": "QUEST_GUIDE_STYLE_TARGET",
        "guideLayer": "QUEST_GUIDE_LAYER_SCENE",
        "MLAHIFLGIGJ": ""
      },
      "guideHint": {
        "param1": ""
      },
      "finishParent": true,
      "isRewind": true,
      "versionBegin": "",
      "versionEnd": ""
    }
  ],
  "talks": [
    {
      "id": 7153001,
      "beginWay": "TALK_BEGIN_MANUAL",
      "activeMode": "PLAY_MODE_HOST",
      "beginCond": [
        {
          "type": "QUEST_COND_STATE_EQUAL",
          "_param": [
            "7153001",
            "2"
          ]
        }
      ],
      "priority": 5,
      "initDialog": 715300101,
      "npcId": [
        30457
      ],
      "performCfg": "QuestDialogue/WQ/Liyue_71530/Q7153001",
      "heroTalk": "TALK_HERO_MAIN",
      "questId": 71530,
      "assetIndex": 14535945902955429353,
      "prePerformCfg": "",
      "CHAKPMBJNAJ": [
        "[3_310701969:-550.493,211.353,306.308,0.000,147.548,0.000]",
        "[3_310701981:-549.551,211.191,305.775,0.000,330.972,0.000]",
        "[3_7593:-550.441,211.601,304.785,0.000,350.198,0.000]"
      ]
    }
  ],
  "freeStyleDic": {
    "30457": [
      4010
    ]
  },
  "LNMELPHNIDD": true
}