{
  "id": 71532,
  "damageRatio": "WQ",
  "mainQuestTag": "MAINQUEST_TAG_GUIDE",
  "descTextMapHash": 545534439,
  "EKEKACCODOE": 818197310,
  "luaPath": "Actor/Quest/WQ71532",
  "rewardIdList": [
    171532
  ],
  "showRedPoint": true,
  "activityId": 2028,
  "subQuests": [
    {
      "subId": 7153201,
      "mainId": 71532,
      "order": 1,
      "descTextMapHash": 2935520356,
      "finishCond": [
        {
          "damageRatio": "QUEST_CONTENT_COMPLETE_TALK",
          "param": [
            7153201,
            0
          ]
        }
      ],
      "guide": {
        "damageRatio": "QUEST_GUIDE_NPC",
        "param": [
          "30459"
        ],
        "guideScene": 3,
        "guideStyle": "QUEST_GUIDE_STYLE_TARGET",
        "guideLayer": "QUEST_GUIDE_LAYER_SCENE",
        "MLAHIFLGIGJ": ""
      },
      "guideHint": {
        "param1": ""
      },
      "finishParent": true,
      "isRewind": true,
      "versionBegin": "",
      "versionEnd": ""
    }
  ],
  "talks": [
    {
      "id": 7153201,
      "beginWay": "TALK_BEGIN_MANUAL",
      "beginCond": [
        {
          "type": "QUEST_COND_STATE_EQUAL",
          "_param": [
            "7153201",
            "2"
          ]
        }
      ],
      "priority": 5,
      "initDialog": 715320101,
      "npcId": [
        30459
      ],
      "performCfg": "QuestDialogue/WQ/Liyue_71532/Q7153201",
      "heroTalk": "TALK_HERO_MAIN",
      "questId": 71532,
      "assetIndex": 11953979591676474973,
      "prePerformCfg": "",
      "CHAKPMBJNAJ": [
        "[3_311500105:2455.283,343.059,2400.933,0.000,358.587,0.000]",
        "[3_7559:2455.786,343.059,2402.397,0.000,218.772,0.000]",
        "[3_7560:2454.721,343.059,2402.242,0.000,154.176,0.000]"
      ]
    }
  ],
  "freeStyleDic": {
    "30459": [
      1190
    ]
  },
  "LNMELPHNIDD": true
}