{
  "id": 71657,
  "damageRatio": "WQ",
  "mainQuestTag": "MAINQUEST_TAG_ACTIVITY",
  "descTextMapHash": 1248795951,
  "EKEKACCODOE": 2167116286,
  "luaPath": "",
  "rewardIdList": [
    171657
  ],
  "showRedPoint": true,
  "activityId": 5044,
  "subQuests": [
    {
      "subId": 7165701,
      "mainId": 71657,
      "order": 1,
      "descTextMapHash": 2410986060,
      "finishCond": [
        {
          "damageRatio": "QUEST_CONTENT_COMPLETE_TALK",
          "param": [
            7165701,
            0
          ]
        }
      ],
      "guide": {
        "damageRatio": "QUEST_GUIDE_NPC",
        "autoGuide": "QUEST_GUIDE_AUTO_ENABLE",
        "param": [
          "3004"
        ],
        "guideScene": 3,
        "guideStyle": "QUEST_GUIDE_STYLE_FINISH",
        "guideLayer": "QUEST_GUIDE_LAYER_UI",
        "MLAHIFLGIGJ": ""
      },
      "guideHint": {
        "param1": ""
      },
      "finishParent": true,
      "versionBegin": "",
      "versionEnd": ""
    }
  ]
}