{
  "id": 71653,
  "damageRatio": "WQ",
  "mainQuestTag": "MAINQUEST_TAG_GUIDE",
  "descTextMapHash": 3092131087,
  "EKEKACCODOE": 3333683550,
  "luaPath": "Actor/Quest/WQ71653",
  "rewardIdList": [
    171653
  ],
  "showRedPoint": true,
  "activityId": 2004,
  "subQuests": [
    {
      "subId": 7165301,
      "mainId": 71653,
      "order": 1,
      "descTextMapHash": 2279219436,
      "finishCond": [
        {
          "damageRatio": "QUEST_CONTENT_FINISH_PLOT",
          "param": [
            7165301,
            0
          ]
        }
      ],
      "guide": {
        "damageRatio": "QUEST_GUIDE_NPC",
        "param": [
          "30049"
        ],
        "guideScene": 3,
        "guideStyle": "QUEST_GUIDE_STYLE_TARGET",
        "MLAHIFLGIGJ": ""
      },
      "guideHint": {
        "param1": ""
      },
      "finishParent": true,
      "isRewind": true,
      "versionBegin": "",
      "versionEnd": ""
    }
  ]
}