{
  "id": 71702,
  "damageRatio": "WQ",
  "mainQuestTag": "MAINQUEST_TAG_REPUTATION",
  "descTextMapHash": 3938463655,
  "EKEKACCODOE": 337092350,
  "luaPath": "Actor/Quest/WQ71702",
  "subQuests": [
    {
      "subId": 7170201,
      "mainId": 71702,
      "order": 1,
      "descTextMapHash": 3081304372,
      "finishCond": [
        {
          "damageRatio": "QUEST_CONTENT_FINISH_ITEM_GIVING",
          "param": [
            7170201,
            0
          ]
        }
      ],
      "guide": {
        "damageRatio": "QUEST_GUIDE_NPC",
        "param": [
          "2103"
        ],
        "guideScene": 3,
        "guideLayer": "QUEST_GUIDE_LAYER_SCENE",
        "MLAHIFLGIGJ": ""
      },
      "guideHint": {
        "param1": ""
      },
      "isRewind": true,
      "versionBegin": "",
      "versionEnd": ""
    },
    {
      "subId": 7170202,
      "mainId": 71702,
      "order": 2,
      "descTextMapHash": 2906112492,
      "finishCond": [
        {
          "damageRatio": "QUEST_CONTENT_COMPLETE_TALK",
          "param": [
            7170202,
            0
          ]
        }
      ],
      "guide": {
        "damageRatio": "QUEST_GUIDE_NPC",
        "param": [
          "2103"
        ],
        "guideScene": 3,
        "guideLayer": "QUEST_GUIDE_LAYER_SCENE",
        "MLAHIFLGIGJ": ""
      },
      "guideHint": {
        "param1": ""
      },
      "finishParent": true,
      "isRewind": true,
      "versionBegin": "",
      "versionEnd": ""
    }
  ],
  "talks": [
    {
      "id": 7170201,
      "beginWay": "TALK_BEGIN_MANUAL",
      "beginCondComb": "LOGIC_AND",
      "beginCond": [
        {
          "type": "QUEST_COND_STATE_EQUAL",
          "_param": [
            "7170201",
            "2"
          ]
        },
        {
          "type": "QUEST_COND_ITEM_GIVING_ACTIVED",
          "_param": [
            "7170201"
          ]
        }
      ],
      "priority": 1,
      "initDialog": 717020101,
      "npcId": [
        2103
      ],
      "performCfg": "",
      "questId": 71702,
      "assetIndex": 7277772653062884963,
      "dontBlockDaily": true,
      "prePerformCfg": ""
    },
    {
      "id": 7170202,
      "beginWay": "TALK_BEGIN_AUTO",
      "beginCond": [
        {
          "type": "QUEST_COND_STATE_EQUAL",
          "_param": [
            "7170202",
            "2"
          ]
        }
      ],
      "priority": 1,
      "initDialog": 717020201,
      "npcId": [
        2103
      ],
      "performCfg": "",
      "questId": 71702,
      "assetIndex": 17011546965186717779,
      "prePerformCfg": ""
    }
  ]
}