{
  "id": 71706,
  "damageRatio": "WQ",
  "mainQuestTag": "MAINQUEST_TAG_REPUTATION",
  "descTextMapHash": 2692624855,
  "EKEKACCODOE": 1884275510,
  "luaPath": "Actor/Quest/WQ71706",
  "subQuests": [
    {
      "subId": 7170601,
      "mainId": 71706,
      "order": 1,
      "descTextMapHash": 2654115996,
      "finishCond": [
        {
          "damageRatio": "QUEST_CONTENT_FINISH_ITEM_GIVING",
          "param": [
            7170601,
            0
          ]
        }
      ],
      "guide": {
        "damageRatio": "QUEST_GUIDE_NPC",
        "param": [
          "2204"
        ],
        "guideScene": 3,
        "guideLayer": "QUEST_GUIDE_LAYER_SCENE",
        "MLAHIFLGIGJ": ""
      },
      "guideHint": {
        "param1": ""
      },
      "isRewind": true,
      "versionBegin": "",
      "versionEnd": ""
    },
    {
      "subId": 7170602,
      "mainId": 71706,
      "order": 2,
      "descTextMapHash": 3722303284,
      "finishCond": [
        {
          "damageRatio": "QUEST_CONTENT_COMPLETE_TALK",
          "param": [
            7170602,
            0
          ]
        }
      ],
      "guide": {
        "damageRatio": "QUEST_GUIDE_NPC",
        "param": [
          "2204"
        ],
        "guideScene": 3,
        "guideLayer": "QUEST_GUIDE_LAYER_SCENE",
        "MLAHIFLGIGJ": ""
      },
      "guideHint": {
        "param1": ""
      },
      "finishParent": true,
      "isRewind": true,
      "versionBegin": "",
      "versionEnd": ""
    }
  ],
  "talks": [
    {
      "id": 7170601,
      "beginWay": "TALK_BEGIN_MANUAL",
      "beginCondComb": "LOGIC_AND",
      "beginCond": [
        {
          "type": "QUEST_COND_STATE_EQUAL",
          "_param": [
            "7170601",
            "2"
          ]
        },
        {
          "type": "QUEST_COND_ITEM_GIVING_ACTIVED",
          "_param": [
            "7170601"
          ]
        }
      ],
      "priority": 1,
      "initDialog": 717060101,
      "npcId": [
        2204
      ],
      "performCfg": "",
      "questId": 71706,
      "assetIndex": 6136540771464915886,
      "dontBlockDaily": true,
      "prePerformCfg": ""
    },
    {
      "id": 7170602,
      "beginWay": "TALK_BEGIN_AUTO",
      "beginCond": [
        {
          "type": "QUEST_COND_STATE_EQUAL",
          "_param": [
            "7170602",
            "2"
          ]
        }
      ],
      "priority": 1,
      "initDialog": 717060201,
      "npcId": [
        2204
      ],
      "performCfg": "",
      "questId": 71706,
      "assetIndex": 7260015066565230718,
      "prePerformCfg": ""
    }
  ]
}