{
  "id": 71710,
  "damageRatio": "WQ",
  "mainQuestTag": "MAINQUEST_TAG_REPUTATION",
  "descTextMapHash": 794129927,
  "EKEKACCODOE": 1858185286,
  "luaPath": "Actor/Quest/WQ71710",
  "subQuests": [
    {
      "subId": 7171001,
      "mainId": 71710,
      "order": 1,
      "descTextMapHash": 3320633796,
      "finishCond": [
        {
          "damageRatio": "QUEST_CONTENT_FINISH_ITEM_GIVING",
          "param": [
            7171001,
            0
          ]
        }
      ],
      "guide": {
        "damageRatio": "QUEST_GUIDE_NPC",
        "param": [
          "2046"
        ],
        "guideScene": 3,
        "guideLayer": "QUEST_GUIDE_LAYER_SCENE",
        "MLAHIFLGIGJ": ""
      },
      "guideHint": {
        "param1": ""
      },
      "isRewind": true,
      "versionBegin": "",
      "versionEnd": ""
    },
    {
      "subId": 7171002,
      "mainId": 71710,
      "order": 2,
      "descTextMapHash": 1984598500,
      "finishCond": [
        {
          "damageRatio": "QUEST_CONTENT_COMPLETE_TALK",
          "param": [
            7171002,
            0
          ]
        }
      ],
      "guide": {
        "damageRatio": "QUEST_GUIDE_NPC",
        "param": [
          "2046"
        ],
        "guideScene": 3,
        "guideLayer": "QUEST_GUIDE_LAYER_SCENE",
        "MLAHIFLGIGJ": ""
      },
      "guideHint": {
        "param1": ""
      },
      "finishParent": true,
      "isRewind": true,
      "versionBegin": "",
      "versionEnd": ""
    }
  ],
  "talks": [
    {
      "id": 7171001,
      "beginWay": "TALK_BEGIN_MANUAL",
      "beginCondComb": "LOGIC_AND",
      "beginCond": [
        {
          "type": "QUEST_COND_STATE_EQUAL",
          "_param": [
            "7171001",
            "2"
          ]
        },
        {
          "type": "QUEST_COND_ITEM_GIVING_ACTIVED",
          "_param": [
            "7171001"
          ]
        }
      ],
      "priority": 1,
      "initDialog": 717100101,
      "npcId": [
        2046
      ],
      "performCfg": "",
      "questId": 71710,
      "assetIndex": 2314157031109510660,
      "dontBlockDaily": true,
      "prePerformCfg": ""
    },
    {
      "id": 7171002,
      "beginWay": "TALK_BEGIN_AUTO",
      "beginCond": [
        {
          "type": "QUEST_COND_STATE_EQUAL",
          "_param": [
            "7171002",
            "2"
          ]
        }
      ],
      "priority": 1,
      "initDialog": 717100201,
      "npcId": [
        2046
      ],
      "performCfg": "",
      "questId": 71710,
      "assetIndex": 5881476285513688698,
      "prePerformCfg": ""
    }
  ]
}