{
  "id": 71823,
  "damageRatio": "WQ",
  "activeMode": "PLAY_MODE_ALL",
  "descTextMapHash": 1896055351,
  "EKEKACCODOE": 4010371974,
  "luaPath": "Actor/Quest/WQ71823",
  "rewardIdList": [
    171823
  ],
  "showRedPoint": true,
  "subQuests": [
    {
      "subId": 7182301,
      "mainId": 71823,
      "order": 2,
      "descTextMapHash": 2867809740,
      "finishCond": [
        {
          "damageRatio": "QUEST_CONTENT_FINISH_PLOT",
          "param": [
            7182301,
            0
          ]
        }
      ],
      "guide": {
        "damageRatio": "QUEST_GUIDE_LOCATION",
        "param": [
          "Q71823Azhi01",
          "25"
        ],
        "guideScene": 3,
        "guideStyle": "QUEST_GUIDE_STYLE_POINT",
        "guideLayer": "QUEST_GUIDE_LAYER_SCENE",
        "MLAHIFLGIGJ": ""
      },
      "guideHint": {
        "param1": ""
      },
      "isRewind": true,
      "versionBegin": "",
      "versionEnd": ""
    },
    {
      "subId": 7182302,
      "mainId": 71823,
      "order": 3,
      "descTextMapHash": 1789304172,
      "finishCond": [
        {
          "damageRatio": "QUEST_CONTENT_COMPLETE_TALK",
          "param": [
            7182302,
            0
          ]
        }
      ],
      "guide": {
        "damageRatio": "QUEST_GUIDE_NPC",
        "param": [
          "213901"
        ],
        "guideScene": 3,
        "guideStyle": "QUEST_GUIDE_STYLE_TARGET",
        "guideLayer": "QUEST_GUIDE_LAYER_SCENE",
        "MLAHIFLGIGJ": ""
      },
      "guideHint": {
        "param1": ""
      },
      "isRewind": true,
      "versionBegin": "",
      "versionEnd": ""
    },
    {
      "subId": 7182303,
      "mainId": 71823,
      "order": 4,
      "descTextMapHash": 4026704620,
      "finishCond": [
        {
          "damageRatio": "QUEST_CONTENT_INTERACT_GADGET",
          "param": [
            71700198,
            0
          ]
        }
      ],
      "guide": {
        "damageRatio": "QUEST_GUIDE_LOCATION",
        "param": [
          "HDJCaiyao1",
          "25"
        ],
        "guideScene": 3,
        "guideStyle": "QUEST_GUIDE_STYLE_POINT",
        "guideLayer": "QUEST_GUIDE_LAYER_SCENE",
        "MLAHIFLGIGJ": ""
      },
      "guideHint": {
        "param1": ""
      },
      "isRewind": true,
      "versionBegin": "",
      "versionEnd": ""
    },
    {
      "subId": 7182304,
      "mainId": 71823,
      "order": 5,
      "descTextMapHash": 1498217892,
      "finishCond": [
        {
          "damageRatio": "QUEST_CONTENT_FINISH_PLOT",
          "param": [
            7182304,
            0
          ]
        }
      ],
      "guide": {
        "damageRatio": "QUEST_GUIDE_LOCATION",
        "param": [
          "HDJCaiyao2",
          "25"
        ],
        "guideScene": 3,
        "guideStyle": "QUEST_GUIDE_STYLE_POINT",
        "guideLayer": "QUEST_GUIDE_LAYER_SCENE",
        "MLAHIFLGIGJ": ""
      },
      "guideHint": {
        "param1": ""
      },
      "isRewind": true,
      "versionBegin": "",
      "versionEnd": ""
    },
    {
      "subId": 7182305,
      "mainId": 71823,
      "order": 6,
      "descTextMapHash": 3765115412,
      "finishCond": [
        {
          "damageRatio": "QUEST_CONTENT_CLEAR_GROUP_MONSTER",
          "param": [
            133102922,
            0
          ]
        }
      ],
      "guide": {
        "damageRatio": "QUEST_GUIDE_LOCATION",
        "param": [
          "HDJCaiyao2",
          "25"
        ],
        "guideScene": 3,
        "guideStyle": "QUEST_GUIDE_STYLE_POINT",
        "guideLayer": "QUEST_GUIDE_LAYER_SCENE",
        "MLAHIFLGIGJ": ""
      },
      "guideHint": {
        "param1": ""
      },
      "isRewind": true,
      "versionBegin": "",
      "versionEnd": ""
    },
    {
      "subId": 7182306,
      "mainId": 71823,
      "order": 7,
      "descTextMapHash": 3172137956,
      "finishCond": [
        {
          "damageRatio": "QUEST_CONTENT_COMPLETE_TALK",
          "param": [
            7182308,
            0
          ]
        }
      ],
      "guide": {
        "damageRatio": "QUEST_GUIDE_LOCATION",
        "param": [
          "HDJCaiyao3",
          "25"
        ],
        "guideScene": 3,
        "guideStyle": "QUEST_GUIDE_STYLE_POINT",
        "guideLayer": "QUEST_GUIDE_LAYER_SCENE",
        "MLAHIFLGIGJ": ""
      },
      "guideHint": {
        "param1": ""
      },
      "isRewind": true,
      "versionBegin": "",
      "versionEnd": ""
    },
    {
      "subId": 7182307,
      "mainId": 71823,
      "order": 8,
      "descTextMapHash": 1929693444,
      "showType": "QUEST_HIDDEN",
      "finishCond": [
        {
          "damageRatio": "QUEST_CONTENT_GAME_TIME_TICK",
          "param": [
            0,
            0
          ]
        }
      ],
      "guide": {
        "MLAHIFLGIGJ": ""
      },
      "guideHint": {
        "param1": ""
      },
      "isRewind": true,
      "versionBegin": "",
      "versionEnd": ""
    },
    {
      "subId": 7182308,
      "mainId": 71823,
      "order": 9,
      "descTextMapHash": 3523578148,
      "showType": "QUEST_HIDDEN",
      "finishCond": [
        {
          "damageRatio": "QUEST_CONTENT_COMPLETE_TALK",
          "param": [
            7182308,
            0
          ]
        }
      ],
      "failCond": [
        {
          "damageRatio": "QUEST_CONTENT_GAME_TIME_TICK",
          "param": [
            0,
            0
          ]
        }
      ],
      "guide": {
        "MLAHIFLGIGJ": ""
      },
      "guideHint": {
        "param1": ""
      },
      "isRewind": true,
      "failExec": [
        {
          "damageRatio": "QUEST_EXEC_ROLLBACK_QUEST",
          "param": [
            "7182307"
          ]
        }
      ],
      "versionBegin": "",
      "versionEnd": ""
    },
    {
      "subId": 7182309,
      "mainId": 71823,
      "order": 10,
      "descTextMapHash": 1255699348,
      "finishCond": [
        {
          "damageRatio": "QUEST_CONTENT_COMPLETE_TALK",
          "param": [
            7182309,
            0
          ]
        }
      ],
      "guide": {
        "damageRatio": "QUEST_GUIDE_NPC",
        "param": [
          "213901"
        ],
        "guideScene": 3,
        "guideStyle": "QUEST_GUIDE_STYLE_TARGET",
        "guideLayer": "QUEST_GUIDE_LAYER_SCENE",
        "MLAHIFLGIGJ": ""
      },
      "guideHint": {
        "param1": ""
      },
      "isRewind": true,
      "finishExec": [
        {
          "damageRatio": "QUEST_EXEC_DEL_PACK_ITEM",
          "param": [
            "100753",
            "1"
          ]
        },
        {
          "damageRatio": "QUEST_EXEC_DEL_PACK_ITEM",
          "param": [
            "100754",
            "1"
          ]
        },
        {
          "damageRatio": "QUEST_EXEC_DEL_PACK_ITEM",
          "param": [
            "100755",
            "1"
          ]
        }
      ],
      "versionBegin": "",
      "versionEnd": ""
    },
    {
      "subId": 7182310,
      "mainId": 71823,
      "order": 11,
      "descTextMapHash": 1524815708,
      "finishCond": [
        {
          "damageRatio": "QUEST_CONTENT_COMPLETE_TALK",
          "param": [
            7182310,
            0
          ]
        }
      ],
      "guide": {
        "damageRatio": "QUEST_GUIDE_NPC",
        "param": [
          "213901"
        ],
        "guideScene": 3,
        "guideStyle": "QUEST_GUIDE_STYLE_TARGET",
        "guideLayer": "QUEST_GUIDE_LAYER_SCENE",
        "MLAHIFLGIGJ": ""
      },
      "guideHint": {
        "param1": ""
      },
      "finishParent": true,
      "isRewind": true,
      "versionBegin": "",
      "versionEnd": ""
    },
    {
      "subId": 7182311,
      "mainId": 71823,
      "order": 1,
      "descTextMapHash": 982414716,
      "showType": "QUEST_HIDDEN",
      "finishCond": [
        {
          "damageRatio": "QUEST_CONTENT_FINISH_PLOT",
          "param": [
            7182311,
            0
          ]
        }
      ],
      "guide": {
        "MLAHIFLGIGJ": ""
      },
      "guideHint": {
        "param1": ""
      },
      "isRewind": true,
      "versionBegin": "",
      "versionEnd": ""
    }
  ],
  "talks": [
    {
      "id": 7182302,
      "beginWay": "TALK_BEGIN_MANUAL",
      "activeMode": "PLAY_MODE_HOST",
      "beginCond": [
        {
          "type": "QUEST_COND_STATE_EQUAL",
          "_param": [
            "7182302",
            "2"
          ]
        }
      ],
      "initDialog": 718230201,
      "npcId": [
        213901
      ],
      "performCfg": "",
      "heroTalk": "TALK_HERO_MAIN",
      "questId": 71823,
      "assetIndex": 2979822685993815336,
      "prePerformCfg": ""
    },
    {
      "id": 7182307,
      "beginWay": "TALK_BEGIN_MANUAL",
      "activeMode": "PLAY_MODE_HOST",
      "beginCond": [
        {
          "type": "QUEST_COND_STATE_EQUAL",
          "_param": [
            "7182307",
            "2"
          ]
        }
      ],
      "initDialog": 718230701,
      "npcId": [
        2003044
      ],
      "performCfg": "",
      "heroTalk": "TALK_HERO_MAIN",
      "questId": 71823,
      "assetIndex": 9953090971536068036,
      "prePerformCfg": ""
    },
    {
      "id": 7182308,
      "beginWay": "TALK_BEGIN_MANUAL",
      "activeMode": "PLAY_MODE_HOST",
      "beginCond": [
        {
          "type": "QUEST_COND_STATE_EQUAL",
          "_param": [
            "7182308",
            "2"
          ]
        }
      ],
      "initDialog": 718230801,
      "npcId": [
        2003044
      ],
      "performCfg": "",
      "heroTalk": "TALK_HERO_MAIN",
      "questId": 71823,
      "assetIndex": 9872045287784775905,
      "prePerformCfg": ""
    },
    {
      "id": 7182309,
      "beginWay": "TALK_BEGIN_MANUAL",
      "activeMode": "PLAY_MODE_HOST",
      "beginCond": [
        {
          "type": "QUEST_COND_STATE_EQUAL",
          "_param": [
            "7182309",
            "2"
          ]
        }
      ],
      "initDialog": 718230901,
      "npcId": [
        213901
      ],
      "performCfg": "",
      "heroTalk": "TALK_HERO_MAIN",
      "questId": 71823,
      "assetIndex": 12808892343115508167,
      "prePerformCfg": ""
    },
    {
      "id": 7182310,
      "beginWay": "TALK_BEGIN_MANUAL",
      "activeMode": "PLAY_MODE_HOST",
      "beginCond": [
        {
          "type": "QUEST_COND_STATE_EQUAL",
          "_param": [
            "7182310",
            "2"
          ]
        }
      ],
      "initDialog": 718231001,
      "npcId": [
        213801
      ],
      "performCfg": "",
      "heroTalk": "TALK_HERO_MAIN",
      "questId": 71823,
      "assetIndex": 1462479247023504226,
      "prePerformCfg": ""
    },
    {
      "id": 7182311,
      "beginWay": "TALK_BEGIN_MANUAL",
      "activeMode": "PLAY_MODE_HOST",
      "beginCondComb": "LOGIC_OR",
      "beginCond": [
        {
          "type": "QUEST_COND_STATE_EQUAL",
          "_param": [
            "7182303",
            "2"
          ]
        },
        {
          "type": "QUEST_COND_STATE_EQUAL",
          "_param": [
            "7182304",
            "2"
          ]
        },
        {
          "type": "QUEST_COND_STATE_EQUAL",
          "_param": [
            "7182305",
            "2"
          ]
        },
        {
          "type": "QUEST_COND_STATE_EQUAL",
          "_param": [
            "7182306",
            "2"
          ]
        }
      ],
      "initDialog": 718231101,
      "npcId": [
        213901
      ],
      "performCfg": "",
      "heroTalk": "TALK_HERO_MAIN",
      "questId": 71823,
      "assetIndex": 360185837664299852,
      "prePerformCfg": ""
    }
  ],
  "preloadLuaList": [
    17188670805802081994,
    14346346858271741119
  ],
  "forcePreloadLuaList": [
    14098906925941612293
  ]
}