{
  "id": 71909,
  "damageRatio": "WQ",
  "descTextMapHash": 1151012479,
  "EKEKACCODOE": 2687684462,
  "luaPath": "",
  "rewardIdList": [
    552010
  ],
  "showType": "QUEST_HIDDEN",
  "subQuests": [
    {
      "subId": 7190901,
      "mainId": 71909,
      "order": 1,
      "showType": "QUEST_HIDDEN",
      "finishCond": [
        {
          "damageRatio": "QUEST_CONTENT_COMPLETE_TALK",
          "param": [
            7190901,
            0
          ]
        }
      ],
      "guide": {
        "MLAHIFLGIGJ": ""
      },
      "guideHint": {
        "param1": ""
      },
      "finishParent": true,
      "versionBegin": "",
      "versionEnd": ""
    }
  ]
}