{
  "id": 71908,
  "damageRatio": "WQ",
  "descTextMapHash": 1444455503,
  "EKEKACCODOE": 1147475278,
  "luaPath": "",
  "rewardIdList": [
    555050
  ],
  "showType": "QUEST_HIDDEN",
  "subQuests": [
    {
      "subId": 7190801,
      "mainId": 71908,
      "order": 1,
      "showType": "QUEST_HIDDEN",
      "finishCond": [
        {
          "damageRatio": "QUEST_CONTENT_COMPLETE_TALK",
          "param": [
            7190801,
            0
          ]
        }
      ],
      "guide": {
        "MLAHIFLGIGJ": ""
      },
      "guideHint": {
        "param1": ""
      },
      "finishParent": true,
      "versionBegin": "",
      "versionEnd": ""
    }
  ]
}