{
  "id": 71917,
  "damageRatio": "WQ",
  "descTextMapHash": 2867116303,
  "EKEKACCODOE": 2867390502,
  "luaPath": "",
  "rewardIdList": [
    552020
  ],
  "showType": "QUEST_HIDDEN",
  "subQuests": [
    {
      "subId": 7191701,
      "mainId": 71917,
      "order": 1,
      "showType": "QUEST_HIDDEN",
      "finishCond": [
        {
          "damageRatio": "QUEST_CONTENT_COMPLETE_TALK",
          "param": [
            7191701,
            0
          ]
        }
      ],
      "guide": {
        "MLAHIFLGIGJ": ""
      },
      "guideHint": {
        "param1": ""
      },
      "finishParent": true,
      "versionBegin": "",
      "versionEnd": ""
    }
  ]
}