{
  "id": 71919,
  "damageRatio": "WQ",
  "descTextMapHash": 1316411263,
  "EKEKACCODOE": 248145150,
  "luaPath": "",
  "rewardIdList": [
    552023
  ],
  "showType": "QUEST_HIDDEN",
  "subQuests": [
    {
      "subId": 7191901,
      "mainId": 71919,
      "order": 1,
      "showType": "QUEST_HIDDEN",
      "finishCond": [
        {
          "damageRatio": "QUEST_CONTENT_COMPLETE_TALK",
          "param": [
            7191901,
            0
          ]
        }
      ],
      "guide": {
        "MLAHIFLGIGJ": ""
      },
      "guideHint": {
        "param1": ""
      },
      "finishParent": true,
      "versionBegin": "",
      "versionEnd": ""
    }
  ]
}