{
  "id": 71925,
  "damageRatio": "WQ",
  "descTextMapHash": 454873175,
  "EKEKACCODOE": 1286579486,
  "luaPath": "",
  "rewardIdList": [
    552029
  ],
  "showType": "QUEST_HIDDEN",
  "subQuests": [
    {
      "subId": 7192501,
      "mainId": 71925,
      "order": 1,
      "showType": "QUEST_HIDDEN",
      "finishCond": [
        {
          "damageRatio": "QUEST_CONTENT_COMPLETE_TALK",
          "param": [
            7192501,
            0
          ]
        }
      ],
      "guide": {
        "MLAHIFLGIGJ": ""
      },
      "guideHint": {
        "param1": ""
      },
      "finishParent": true,
      "versionBegin": "",
      "versionEnd": ""
    }
  ]
}