{
  "id": 71939,
  "damageRatio": "WQ",
  "descTextMapHash": 1194416639,
  "EKEKACCODOE": 3271529246,
  "luaPath": "",
  "rewardIdList": [
    552044
  ],
  "showType": "QUEST_HIDDEN",
  "subQuests": [
    {
      "subId": 7193901,
      "mainId": 71939,
      "order": 1,
      "showType": "QUEST_HIDDEN",
      "finishCond": [
        {
          "damageRatio": "QUEST_CONTENT_COMPLETE_TALK",
          "param": [
            7193901,
            0
          ]
        }
      ],
      "guide": {
        "MLAHIFLGIGJ": ""
      },
      "guideHint": {
        "param1": ""
      },
      "finishParent": true,
      "versionBegin": "",
      "versionEnd": ""
    }
  ]
}