{
  "id": 71943,
  "damageRatio": "WQ",
  "descTextMapHash": 2269370055,
  "EKEKACCODOE": 3954432510,
  "luaPath": "",
  "rewardIdList": [
    552051
  ],
  "showType": "QUEST_HIDDEN",
  "subQuests": [
    {
      "subId": 7194301,
      "mainId": 71943,
      "order": 1,
      "showType": "QUEST_HIDDEN",
      "finishCond": [
        {
          "damageRatio": "QUEST_CONTENT_COMPLETE_TALK",
          "param": [
            7194301,
            0
          ]
        }
      ],
      "guide": {
        "MLAHIFLGIGJ": ""
      },
      "guideHint": {
        "param1": ""
      },
      "finishParent": true,
      "versionBegin": "",
      "versionEnd": ""
    }
  ]
}