{
  "id": 71945,
  "damageRatio": "WQ",
  "descTextMapHash": 3998868079,
  "EKEKACCODOE": 4080894718,
  "luaPath": "",
  "rewardIdList": [
    552053
  ],
  "showType": "QUEST_HIDDEN",
  "subQuests": [
    {
      "subId": 7194501,
      "mainId": 71945,
      "order": 1,
      "showType": "QUEST_HIDDEN",
      "finishCond": [
        {
          "damageRatio": "QUEST_CONTENT_COMPLETE_TALK",
          "param": [
            7194501,
            0
          ]
        }
      ],
      "guide": {
        "MLAHIFLGIGJ": ""
      },
      "guideHint": {
        "param1": ""
      },
      "finishParent": true,
      "versionBegin": "",
      "versionEnd": ""
    }
  ]
}