{
  "id": 72002,
  "damageRatio": "WQ",
  "mainQuestTag": "MAINQUEST_TAG_ACTIVITY",
  "descTextMapHash": 4024611343,
  "EKEKACCODOE": 3645858790,
  "luaPath": "Actor/Quest/WQ40030",
  "rewardIdList": [
    172002
  ],
  "showType": "QUEST_HIDDEN",
  "subQuests": [
    {
      "subId": 7200201,
      "mainId": 72002,
      "order": 1,
      "descTextMapHash": 3597050836,
      "showType": "QUEST_HIDDEN",
      "finishCond": [
        {
          "damageRatio": "QUEST_CONTENT_QUEST_STATE_EQUAL",
          "param": [
            4003410,
            3
          ]
        }
      ],
      "guide": {
        "MLAHIFLGIGJ": ""
      },
      "showGuide": "QUEST_GUIDE_ITEM_DISABLE",
      "guideHint": {
        "param1": ""
      },
      "finishParent": true,
      "isRewind": true,
      "versionBegin": "",
      "versionEnd": ""
    }
  ]
}