{
  "id": 72013,
  "damageRatio": "WQ",
  "descTextMapHash": 1003978015,
  "EKEKACCODOE": 1796009070,
  "luaPath": "Actor/Quest/WQ72013",
  "subQuests": [
    {
      "subId": 7201301,
      "mainId": 72013,
      "order": 1,
      "showType": "QUEST_HIDDEN",
      "finishCond": [
        {
          "damageRatio": "QUEST_CONTENT_FINISH_PLOT",
          "param": [
            7201301,
            0
          ]
        }
      ],
      "guide": {
        "damageRatio": "QUEST_GUIDE_NPC",
        "param": [
          "1036"
        ],
        "MLAHIFLGIGJ": ""
      },
      "guideHint": {
        "param1": ""
      },
      "isRewind": true,
      "versionBegin": "",
      "versionEnd": ""
    },
    {
      "subId": 7201302,
      "mainId": 72013,
      "order": 2,
      "finishCond": [
        {
          "damageRatio": "QUEST_CONTENT_FINISH_PLOT",
          "param": [
            7201302,
            0
          ]
        }
      ],
      "guide": {
        "MLAHIFLGIGJ": ""
      },
      "guideHint": {
        "param1": ""
      },
      "finishParent": true,
      "failExec": [
        {
          "damageRatio": "QUEST_EXEC_ROLLBACK_QUEST",
          "param": [
            "7201301"
          ]
        }
      ],
      "versionBegin": "",
      "versionEnd": ""
    },
    {
      "subId": 7201303,
      "mainId": 72013,
      "order": 3,
      "finishCond": [
        {
          "damageRatio": "QUEST_CONTENT_FINISH_PLOT",
          "param": [
            7201303,
            0
          ]
        }
      ],
      "guide": {
        "damageRatio": "QUEST_GUIDE_NPC",
        "autoGuide": "QUEST_GUIDE_AUTO_ENABLE",
        "param": [
          "1088"
        ],
        "guideScene": 3,
        "guideLayer": "QUEST_GUIDE_LAYER_SCENE",
        "MLAHIFLGIGJ": ""
      },
      "guideHint": {
        "param1": ""
      },
      "finishParent": true,
      "isRewind": true,
      "versionBegin": "",
      "versionEnd": ""
    }
  ],
  "talks": [
    {
      "id": 7201301,
      "beginWay": "TALK_BEGIN_MANUAL",
      "activeMode": "PLAY_MODE_ALL",
      "beginCond": [
        {
          "type": "QUEST_COND_STATE_EQUAL",
          "_param": [
            "7201301",
            "2"
          ]
        }
      ],
      "priority": 5,
      "nextTalks": [
        7201302
      ],
      "initDialog": 720130101,
      "npcId": [
        1036
      ],
      "performCfg": "QuestDialogue/WQ/72013/Q7201301",
      "questId": 72013,
      "assetIndex": 12480469141759491622,
      "prePerformCfg": ""
    },
    {
      "id": 7201302,
      "activeMode": "PLAY_MODE_ALL",
      "beginCond": [
        {
          "type": "QUEST_COND_STATE_EQUAL",
          "_param": [
            "7201301",
            "2"
          ]
        }
      ],
      "priority": 5,
      "initDialog": 720130201,
      "npcId": [
        1036
      ],
      "performCfg": "QuestDialogue/WQ/72013/Q7201302",
      "questId": 72013,
      "assetIndex": 3080609997065604696,
      "prePerformCfg": "",
      "forceNpcNotDestroy": true
    },
    {
      "id": 7201303,
      "beginWay": "TALK_BEGIN_MANUAL",
      "activeMode": "PLAY_MODE_ALL",
      "beginCond": [
        {
          "type": "QUEST_COND_STATE_EQUAL",
          "_param": [
            "7201302",
            "2"
          ]
        }
      ],
      "priority": 5,
      "nextTalks": [
        7201304
      ],
      "initDialog": 720130301,
      "npcId": [
        1036
      ],
      "performCfg": "QuestDialogue/WQ/72013/Q7201303",
      "questId": 72013,
      "assetIndex": 2238574205859919703,
      "prePerformCfg": "",
      "forceNpcNotDestroy": true
    },
    {
      "id": 7201304,
      "activeMode": "PLAY_MODE_ALL",
      "beginCond": [
        {
          "type": "QUEST_COND_STATE_EQUAL",
          "_param": [
            "7201302",
            "2"
          ]
        }
      ],
      "priority": 5,
      "initDialog": 720130401,
      "npcId": [
        1036
      ],
      "performCfg": "QuestDialogue/WQ/72013/Q7201304",
      "questId": 72013,
      "assetIndex": 9135445430284260696,
      "prePerformCfg": ""
    }
  ]
}