{
  "id": 72109,
  "damageRatio": "WQ",
  "activeMode": "PLAY_MODE_ALL",
  "descTextMapHash": 4129559335,
  "luaPath": "Actor/Quest/WQ72109",
  "rewardIdList": [
    172109
  ],
  "subQuests": [
    {
      "subId": 7210901,
      "mainId": 72109,
      "order": 1,
      "descTextMapHash": 2531068388,
      "showType": "QUEST_HIDDEN",
      "finishCond": [
        {
          "damageRatio": "QUEST_CONTENT_COMPLETE_TALK",
          "param": [
            7210902,
            0
          ]
        },
        {
          "damageRatio": "QUEST_CONTENT_COMPLETE_TALK",
          "param": [
            7210903,
            0
          ]
        }
      ],
      "guide": {
        "damageRatio": "QUEST_GUIDE_LOCATION",
        "autoGuide": "QUEST_GUIDE_AUTO_ENABLE",
        "param": [
          "Q3_72109_0",
          "50"
        ],
        "guideScene": 3,
        "guideStyle": "QUEST_GUIDE_STYLE_TARGET",
        "guideLayer": "QUEST_GUIDE_LAYER_SCENE",
        "MLAHIFLGIGJ": ""
      },
      "guideHint": {
        "param1": ""
      },
      "isRewind": true,
      "versionBegin": "",
      "versionEnd": ""
    },
    {
      "subId": 7210902,
      "mainId": 72109,
      "order": 2,
      "descTextMapHash": 3231012932,
      "showType": "QUEST_HIDDEN",
      "finishCond": [
        {
          "damageRatio": "QUEST_CONTENT_COMPLETE_TALK",
          "param": [
            7210918,
            0
          ]
        }
      ],
      "guide": {
        "MLAHIFLGIGJ": ""
      },
      "guideHint": {
        "param1": ""
      },
      "isRewind": true,
      "versionBegin": "",
      "versionEnd": ""
    },
    {
      "subId": 7210903,
      "mainId": 72109,
      "order": 3,
      "descTextMapHash": 3804906428,
      "showType": "QUEST_HIDDEN",
      "finishCond": [
        {
          "damageRatio": "QUEST_CONTENT_COMPLETE_TALK",
          "param": [
            7210907,
            0
          ]
        }
      ],
      "guide": {
        "MLAHIFLGIGJ": ""
      },
      "guideHint": {
        "param1": ""
      },
      "isRewind": true,
      "finishExec": [
        {
          "damageRatio": "QUEST_EXEC_INC_QUEST_VAR",
          "param": [
            "1",
            "1"
          ]
        }
      ],
      "versionBegin": "",
      "versionEnd": ""
    },
    {
      "subId": 7210904,
      "mainId": 72109,
      "order": 4,
      "descTextMapHash": 3921242460,
      "showType": "QUEST_HIDDEN",
      "finishCond": [
        {
          "damageRatio": "QUEST_CONTENT_COMPLETE_TALK",
          "param": [
            7210908,
            0
          ]
        }
      ],
      "guide": {
        "MLAHIFLGIGJ": ""
      },
      "guideHint": {
        "param1": ""
      },
      "isRewind": true,
      "finishExec": [
        {
          "damageRatio": "QUEST_EXEC_INC_QUEST_VAR",
          "param": [
            "1",
            "1"
          ]
        }
      ],
      "versionBegin": "",
      "versionEnd": ""
    },
    {
      "subId": 7210905,
      "mainId": 72109,
      "order": 5,
      "descTextMapHash": 783090276,
      "showType": "QUEST_HIDDEN",
      "finishCond": [
        {
          "damageRatio": "QUEST_CONTENT_COMPLETE_TALK",
          "param": [
            7210909,
            0
          ]
        }
      ],
      "guide": {
        "MLAHIFLGIGJ": ""
      },
      "guideHint": {
        "param1": ""
      },
      "isRewind": true,
      "finishExec": [
        {
          "damageRatio": "QUEST_EXEC_INC_QUEST_VAR",
          "param": [
            "1",
            "1"
          ]
        }
      ],
      "versionBegin": "",
      "versionEnd": ""
    },
    {
      "subId": 7210906,
      "mainId": 72109,
      "order": 6,
      "descTextMapHash": 3378126828,
      "showType": "QUEST_HIDDEN",
      "finishCond": [
        {
          "damageRatio": "QUEST_CONTENT_QUEST_VAR_EQUAL",
          "param": [
            1,
            3
          ]
        }
      ],
      "guide": {
        "MLAHIFLGIGJ": ""
      },
      "guideHint": {
        "param1": ""
      },
      "isRewind": true,
      "versionBegin": "",
      "versionEnd": ""
    },
    {
      "subId": 7210907,
      "mainId": 72109,
      "order": 7,
      "descTextMapHash": 582419724,
      "showType": "QUEST_HIDDEN",
      "guide": {
        "MLAHIFLGIGJ": ""
      },
      "guideHint": {
        "param1": ""
      },
      "isRewind": true,
      "versionBegin": "",
      "versionEnd": ""
    },
    {
      "subId": 7210908,
      "mainId": 72109,
      "order": 8,
      "descTextMapHash": 3695871380,
      "showType": "QUEST_HIDDEN",
      "finishCond": [
        {
          "damageRatio": "QUEST_CONTENT_COMPLETE_TALK",
          "param": [
            7210913,
            0
          ]
        }
      ],
      "guide": {
        "MLAHIFLGIGJ": ""
      },
      "showGuide": "QUEST_GUIDE_ITEM_DISABLE",
      "guideHint": {
        "param1": ""
      },
      "isRewind": true,
      "versionBegin": "",
      "versionEnd": ""
    },
    {
      "subId": 7210909,
      "mainId": 72109,
      "order": 9,
      "descTextMapHash": 1906009052,
      "showType": "QUEST_HIDDEN",
      "finishCond": [
        {
          "damageRatio": "QUEST_CONTENT_COMPLETE_TALK",
          "param": [
            7210914,
            0
          ]
        }
      ],
      "guide": {
        "MLAHIFLGIGJ": ""
      },
      "guideHint": {
        "param1": ""
      },
      "isRewind": true,
      "versionBegin": "",
      "versionEnd": ""
    },
    {
      "subId": 7210910,
      "mainId": 72109,
      "order": 10,
      "descTextMapHash": 2110162828,
      "showType": "QUEST_HIDDEN",
      "finishCond": [
        {
          "damageRatio": "QUEST_CONTENT_COMPLETE_TALK",
          "param": [
            7210915,
            0
          ]
        }
      ],
      "guide": {
        "MLAHIFLGIGJ": ""
      },
      "guideHint": {
        "param1": ""
      },
      "isRewind": true,
      "versionBegin": "",
      "versionEnd": ""
    },
    {
      "subId": 7210911,
      "mainId": 72109,
      "order": 11,
      "descTextMapHash": 600941252,
      "showType": "QUEST_HIDDEN",
      "finishCond": [
        {
          "damageRatio": "QUEST_CONTENT_COMPLETE_TALK",
          "param": [
            7210916,
            0
          ]
        }
      ],
      "guide": {
        "MLAHIFLGIGJ": ""
      },
      "guideHint": {
        "param1": ""
      },
      "isRewind": true,
      "versionBegin": "",
      "versionEnd": ""
    },
    {
      "subId": 7210912,
      "mainId": 72109,
      "order": 12,
      "descTextMapHash": 3009029852,
      "showType": "QUEST_HIDDEN",
      "finishCond": [
        {
          "damageRatio": "QUEST_CONTENT_COMPLETE_TALK",
          "param": [
            7210917,
            0
          ]
        }
      ],
      "guide": {
        "MLAHIFLGIGJ": ""
      },
      "guideHint": {
        "param1": ""
      },
      "isRewind": true,
      "versionBegin": "",
      "versionEnd": ""
    },
    {
      "subId": 7210913,
      "mainId": 72109,
      "order": 13,
      "descTextMapHash": 533596276,
      "showType": "QUEST_HIDDEN",
      "finishCond": [
        {
          "damageRatio": "QUEST_CONTENT_LUA_NOTIFY",
          "param": [
            0,
            0
          ],
          "count": 1
        }
      ],
      "guide": {
        "MLAHIFLGIGJ": ""
      },
      "guideHint": {
        "param1": ""
      },
      "isRewind": true,
      "versionBegin": "",
      "versionEnd": ""
    },
    {
      "subId": 7210914,
      "mainId": 72109,
      "order": 14,
      "descTextMapHash": 155658924,
      "showType": "QUEST_HIDDEN",
      "finishCond": [
        {
          "damageRatio": "QUEST_CONTENT_COMPLETE_TALK",
          "param": [
            7210918,
            0
          ]
        }
      ],
      "guide": {
        "MLAHIFLGIGJ": ""
      },
      "guideHint": {
        "param1": ""
      },
      "isRewind": true,
      "versionBegin": "",
      "versionEnd": ""
    },
    {
      "subId": 7210915,
      "mainId": 72109,
      "order": 15,
      "descTextMapHash": 2036695476,
      "showType": "QUEST_HIDDEN",
      "finishCond": [
        {
          "damageRatio": "QUEST_CONTENT_COMPLETE_TALK",
          "param": [
            0,
            0
          ]
        }
      ],
      "guide": {
        "MLAHIFLGIGJ": ""
      },
      "guideHint": {
        "param1": ""
      },
      "isRewind": true,
      "versionBegin": "",
      "versionEnd": ""
    },
    {
      "subId": 7210916,
      "mainId": 72109,
      "order": 16,
      "descTextMapHash": 3666678972,
      "showType": "QUEST_HIDDEN",
      "finishCond": [
        {
          "damageRatio": "QUEST_CONTENT_COMPLETE_TALK",
          "param": [
            7210915,
            0
          ]
        }
      ],
      "guide": {
        "MLAHIFLGIGJ": ""
      },
      "guideHint": {
        "param1": ""
      },
      "isRewind": true,
      "versionBegin": "",
      "versionEnd": ""
    },
    {
      "subId": 7210917,
      "mainId": 72109,
      "order": 17,
      "descTextMapHash": 3917400580,
      "showType": "QUEST_HIDDEN",
      "finishCond": [
        {
          "damageRatio": "QUEST_CONTENT_COMPLETE_TALK",
          "param": [
            7210926,
            0
          ]
        }
      ],
      "guide": {
        "MLAHIFLGIGJ": ""
      },
      "guideHint": {
        "param1": ""
      },
      "isRewind": true,
      "versionBegin": "",
      "versionEnd": ""
    },
    {
      "subId": 7210918,
      "mainId": 72109,
      "order": 18,
      "descTextMapHash": 3140414620,
      "finishCond": [
        {
          "damageRatio": "QUEST_CONTENT_QUEST_VAR_EQUAL",
          "param": [
            2,
            4
          ]
        }
      ],
      "guide": {
        "MLAHIFLGIGJ": ""
      },
      "guideHint": {
        "param1": ""
      },
      "isRewind": true,
      "versionBegin": "",
      "versionEnd": ""
    },
    {
      "subId": 7210919,
      "mainId": 72109,
      "order": 19,
      "descTextMapHash": 1983067140,
      "finishCond": [
        {
          "damageRatio": "QUEST_CONTENT_OBTAIN_ITEM",
          "param": [
            100775,
            0
          ],
          "count": 1
        }
      ],
      "guide": {
        "MLAHIFLGIGJ": ""
      },
      "guideHint": {
        "param1": ""
      },
      "isRewind": true,
      "finishExec": [
        {
          "damageRatio": "QUEST_EXEC_INC_QUEST_VAR",
          "param": [
            "2",
            "1"
          ]
        }
      ],
      "versionBegin": "",
      "versionEnd": ""
    },
    {
      "subId": 7210920,
      "mainId": 72109,
      "order": 20,
      "descTextMapHash": 4088820900,
      "finishCond": [
        {
          "damageRatio": "QUEST_CONTENT_OBTAIN_ITEM",
          "param": [
            100776,
            0
          ],
          "count": 1
        }
      ],
      "guide": {
        "MLAHIFLGIGJ": ""
      },
      "guideHint": {
        "param1": ""
      },
      "isRewind": true,
      "finishExec": [
        {
          "damageRatio": "QUEST_EXEC_INC_QUEST_VAR",
          "param": [
            "2",
            "1"
          ]
        }
      ],
      "versionBegin": "",
      "versionEnd": ""
    },
    {
      "subId": 7210921,
      "mainId": 72109,
      "order": 21,
      "descTextMapHash": 3225154876,
      "finishCond": [
        {
          "damageRatio": "QUEST_CONTENT_OBTAIN_ITEM",
          "param": [
            100777,
            0
          ],
          "count": 1
        }
      ],
      "guide": {
        "MLAHIFLGIGJ": ""
      },
      "guideHint": {
        "param1": ""
      },
      "isRewind": true,
      "finishExec": [
        {
          "damageRatio": "QUEST_EXEC_INC_QUEST_VAR",
          "param": [
            "2",
            "1"
          ]
        }
      ],
      "versionBegin": "",
      "versionEnd": ""
    },
    {
      "subId": 7210922,
      "mainId": 72109,
      "order": 22,
      "descTextMapHash": 120295636,
      "finishCond": [
        {
          "damageRatio": "QUEST_CONTENT_OBTAIN_ITEM",
          "param": [
            100778,
            0
          ],
          "count": 1
        }
      ],
      "guide": {
        "MLAHIFLGIGJ": ""
      },
      "guideHint": {
        "param1": ""
      },
      "isRewind": true,
      "finishExec": [
        {
          "damageRatio": "QUEST_EXEC_INC_QUEST_VAR",
          "param": [
            "2",
            "1"
          ]
        }
      ],
      "versionBegin": "",
      "versionEnd": ""
    },
    {
      "subId": 7210923,
      "mainId": 72109,
      "order": 23,
      "finishCond": [
        {
          "damageRatio": "QUEST_CONTENT_FINISH_PLOT",
          "param": [
            7210923,
            0
          ]
        }
      ],
      "guide": {
        "MLAHIFLGIGJ": ""
      },
      "guideHint": {
        "param1": ""
      },
      "isRewind": true,
      "versionBegin": "",
      "versionEnd": ""
    },
    {
      "subId": 7210924,
      "mainId": 72109,
      "order": 24,
      "finishCond": [
        {
          "damageRatio": "QUEST_CONTENT_FINISH_PLOT",
          "param": [
            7210924,
            0
          ]
        }
      ],
      "guide": {
        "MLAHIFLGIGJ": ""
      },
      "guideHint": {
        "param1": ""
      },
      "isRewind": true,
      "versionBegin": "",
      "versionEnd": ""
    },
    {
      "subId": 7210925,
      "mainId": 72109,
      "order": 25,
      "finishCond": [
        {
          "damageRatio": "QUEST_CONTENT_FINISH_PLOT",
          "param": [
            7210925,
            0
          ]
        }
      ],
      "guide": {
        "MLAHIFLGIGJ": ""
      },
      "guideHint": {
        "param1": ""
      },
      "isRewind": true,
      "versionBegin": "",
      "versionEnd": ""
    }
  ],
  "talks": [
    {
      "id": 7210901,
      "beginWay": "TALK_BEGIN_MANUAL",
      "beginCond": [
        {
          "type": "QUEST_COND_STATE_EQUAL",
          "_param": [
            "7210902",
            "2"
          ]
        }
      ],
      "priority": 5,
      "initDialog": 721090101,
      "npcId": [
        20290
      ],
      "performCfg": "",
      "questId": 72109,
      "assetIndex": 4133120262301487220,
      "prePerformCfg": ""
    },
    {
      "id": 7210902,
      "beginWay": "TALK_BEGIN_MANUAL",
      "beginCondComb": "LOGIC_AND",
      "beginCond": [
        {
          "type": "QUEST_COND_STATE_EQUAL",
          "_param": [
            "7210908",
            "3"
          ]
        },
        {
          "type": "QUEST_COND_STATE_EQUAL",
          "_param": [
            "7210913",
            "3"
          ]
        }
      ],
      "priority": 5,
      "initDialog": 721090201,
      "npcId": [
        3167,
        1005
      ],
      "performCfg": "",
      "questId": 72109,
      "assetIndex": 5300419585871599208,
      "prePerformCfg": ""
    },
    {
      "id": 7210903,
      "beginWay": "TALK_BEGIN_MANUAL",
      "priority": 5,
      "initDialog": 721090301,
      "npcId": [
        3167,
        1005
      ],
      "performCfg": "",
      "questId": 72109,
      "assetIndex": 11694531602638875563,
      "prePerformCfg": ""
    },
    {
      "id": 7210904,
      "beginWay": "TALK_BEGIN_MANUAL",
      "beginCondComb": "LOGIC_AND",
      "beginCond": [
        {
          "type": "QUEST_COND_STATE_EQUAL",
          "_param": [
            "7210901",
            "3"
          ]
        },
        {
          "type": "QUEST_COND_STATE_EQUAL",
          "_param": [
            "7210907",
            "2"
          ]
        }
      ],
      "priority": 5,
      "nextTalks": [
        7210905,
        7210906
      ],
      "initDialog": 721090401,
      "npcId": [
        3167
      ],
      "performCfg": "",
      "questId": 72109,
      "assetIndex": 14065750472086315457,
      "prePerformCfg": ""
    },
    {
      "id": 7210905,
      "beginWay": "TALK_BEGIN_MANUAL",
      "priority": 4,
      "initDialog": 721090501,
      "npcId": [
        3167
      ],
      "performCfg": "",
      "questId": 72109,
      "assetIndex": 2233650464312346878,
      "prePerformCfg": ""
    },
    {
      "id": 7210906,
      "beginWay": "TALK_BEGIN_MANUAL",
      "priority": 4,
      "initDialog": 721090601,
      "npcId": [
        3167,
        1005
      ],
      "performCfg": "",
      "questId": 72109,
      "assetIndex": 7957349854401931360,
      "prePerformCfg": ""
    },
    {
      "id": 7210907,
      "beginWay": "TALK_BEGIN_MANUAL",
      "beginCond": [
        {
          "type": "QUEST_COND_STATE_EQUAL",
          "_param": [
            "7210901",
            "3"
          ]
        }
      ],
      "priority": 5,
      "initDialog": 721090701,
      "npcId": [
        3156,
        1005
      ],
      "performCfg": "",
      "questId": 72109,
      "assetIndex": 18287208983604478347,
      "prePerformCfg": ""
    },
    {
      "id": 7210908,
      "beginWay": "TALK_BEGIN_MANUAL",
      "beginCond": [
        {
          "type": "QUEST_COND_STATE_EQUAL",
          "_param": [
            "7210901",
            "3"
          ]
        }
      ],
      "priority": 5,
      "initDialog": 721090801,
      "npcId": [
        3157,
        1005
      ],
      "performCfg": "",
      "questId": 72109,
      "assetIndex": 15119091593974324047,
      "prePerformCfg": ""
    },
    {
      "id": 7210909,
      "beginWay": "TALK_BEGIN_MANUAL",
      "beginCond": [
        {
          "type": "QUEST_COND_STATE_EQUAL",
          "_param": [
            "7210901",
            "3"
          ]
        }
      ],
      "priority": 5,
      "nextTalks": [
        7210912,
        7210913
      ],
      "initDialog": 721090901,
      "npcId": [
        3158,
        1005
      ],
      "performCfg": "",
      "questId": 72109,
      "assetIndex": 4482727920389375149,
      "prePerformCfg": ""
    },
    {
      "id": 7210910,
      "beginWay": "TALK_BEGIN_MANUAL",
      "beginCondComb": "LOGIC_AND",
      "beginCond": [
        {
          "type": "QUEST_COND_STATE_EQUAL",
          "_param": [
            "7210919",
            "3"
          ]
        },
        {
          "type": "QUEST_COND_STATE_EQUAL",
          "_param": [
            "7210920",
            "2"
          ]
        }
      ],
      "priority": 5,
      "initDialog": 721091001,
      "npcId": [
        3167,
        1005
      ],
      "performCfg": "",
      "questId": 72109,
      "assetIndex": 14304426860503205593,
      "prePerformCfg": "",
      "questIdleTalk": true
    },
    {
      "id": 7210911,
      "beginWay": "TALK_BEGIN_MANUAL",
      "beginCondComb": "LOGIC_AND",
      "beginCond": [
        {
          "type": "QUEST_COND_STATE_EQUAL",
          "_param": [
            "7210908",
            "3"
          ]
        }
      ],
      "priority": 5,
      "initDialog": 721091101,
      "npcId": [
        3154,
        3167,
        1005
      ],
      "performCfg": "",
      "questId": 72109,
      "assetIndex": 12342213666439227135,
      "prePerformCfg": ""
    },
    {
      "id": 7210912,
      "beginWay": "TALK_BEGIN_MANUAL",
      "beginCondComb": "LOGIC_AND",
      "beginCond": [
        {
          "type": "QUEST_COND_STATE_EQUAL",
          "_param": [
            "7210901",
            "3"
          ]
        },
        {
          "type": "QUEST_COND_STATE_EQUAL",
          "_param": [
            "7210910",
            "2"
          ]
        }
      ],
      "priority": 5,
      "initDialog": 721091201,
      "npcId": [
        1005,
        3154
      ],
      "performCfg": "",
      "questId": 72109,
      "assetIndex": 4641903954137024977,
      "prePerformCfg": ""
    },
    {
      "id": 7210913,
      "beginWay": "TALK_BEGIN_MANUAL",
      "beginCond": [
        {
          "type": "QUEST_COND_STATE_EQUAL",
          "_param": [
            "201310",
            "3"
          ]
        }
      ],
      "priority": 5,
      "initDialog": 721091301,
      "npcId": [
        3155,
        1005
      ],
      "performCfg": "",
      "questId": 72109,
      "assetIndex": 11747628858596987369,
      "prePerformCfg": ""
    },
    {
      "id": 7210914,
      "beginWay": "TALK_BEGIN_MANUAL",
      "beginCondComb": "LOGIC_AND",
      "beginCond": [
        {
          "type": "QUEST_COND_STATE_EQUAL",
          "_param": [
            "7210908",
            "3"
          ]
        },
        {
          "type": "QUEST_COND_STATE_EQUAL",
          "_param": [
            "7210909",
            "2"
          ]
        }
      ],
      "priority": 5,
      "initDialog": 721091401,
      "npcId": [
        3155,
        1005
      ],
      "performCfg": "",
      "questId": 72109,
      "assetIndex": 9562625703666099296,
      "prePerformCfg": ""
    },
    {
      "id": 7210915,
      "beginWay": "TALK_BEGIN_AUTO",
      "beginCondComb": "LOGIC_AND",
      "beginCond": [
        {
          "type": "QUEST_COND_STATE_EQUAL",
          "_param": [
            "7210909",
            "3"
          ]
        },
        {
          "type": "QUEST_COND_STATE_EQUAL",
          "_param": [
            "7210910",
            "2"
          ]
        }
      ],
      "priority": 5,
      "initDialog": 721091501,
      "npcId": [
        3155,
        1005
      ],
      "performCfg": "",
      "questId": 72109,
      "assetIndex": 14352628614645456859,
      "prePerformCfg": ""
    },
    {
      "id": 7210916,
      "beginWay": "TALK_BEGIN_AUTO",
      "beginCondComb": "LOGIC_AND",
      "beginCond": [
        {
          "type": "QUEST_COND_STATE_EQUAL",
          "_param": [
            "7210910",
            "3"
          ]
        },
        {
          "type": "QUEST_COND_STATE_EQUAL",
          "_param": [
            "7210911",
            "2"
          ]
        }
      ],
      "priority": 5,
      "initDialog": 721091601,
      "npcId": [
        3155,
        1005
      ],
      "performCfg": "",
      "questId": 72109,
      "assetIndex": 6503341801206616405,
      "prePerformCfg": ""
    },
    {
      "id": 7210917,
      "beginWay": "TALK_BEGIN_MANUAL",
      "beginCondComb": "LOGIC_AND",
      "beginCond": [
        {
          "type": "QUEST_COND_STATE_EQUAL",
          "_param": [
            "7210911",
            "3"
          ]
        },
        {
          "type": "QUEST_COND_STATE_EQUAL",
          "_param": [
            "7210912",
            "2"
          ]
        }
      ],
      "priority": 5,
      "initDialog": 721091701,
      "npcId": [
        3155,
        1005
      ],
      "performCfg": "",
      "questId": 72109,
      "assetIndex": 5233259717682957196,
      "prePerformCfg": ""
    },
    {
      "id": 7210918,
      "beginWay": "TALK_BEGIN_MANUAL",
      "beginCondComb": "LOGIC_AND",
      "beginCond": [
        {
          "type": "QUEST_COND_STATE_EQUAL",
          "_param": [
            "7210913",
            "3"
          ]
        },
        {
          "type": "QUEST_COND_STATE_EQUAL",
          "_param": [
            "7210914",
            "2"
          ]
        }
      ],
      "priority": 10,
      "initDialog": 721091801,
      "npcId": [
        3155
      ],
      "performCfg": "",
      "questId": 72109,
      "assetIndex": 3712019736944449101,
      "prePerformCfg": ""
    },
    {
      "id": 7210919,
      "beginWay": "TALK_BEGIN_MANUAL",
      "beginCondComb": "LOGIC_AND",
      "beginCond": [
        {
          "type": "QUEST_COND_STATE_EQUAL",
          "_param": [
            "7210901",
            "2"
          ]
        },
        {
          "type": "QUEST_COND_STATE_EQUAL",
          "_param": [
            "7210914",
            "3"
          ]
        }
      ],
      "priority": 5,
      "initDialog": 721091901,
      "npcId": [
        3155,
        1005
      ],
      "performCfg": "",
      "questId": 72109,
      "assetIndex": 23583040534717219,
      "prePerformCfg": ""
    },
    {
      "id": 7210920,
      "beginWay": "TALK_BEGIN_MANUAL",
      "beginCondComb": "LOGIC_AND",
      "beginCond": [
        {
          "type": "QUEST_COND_STATE_EQUAL",
          "_param": [
            "7210901",
            "2"
          ]
        },
        {
          "type": "QUEST_COND_STATE_EQUAL",
          "_param": [
            "7210914",
            "3"
          ]
        },
        {
          "type": "QUEST_COND_STATE_EQUAL",
          "_param": [
            "7210916",
            "3"
          ]
        }
      ],
      "priority": 6,
      "nextTalks": [
        7210921,
        7210922,
        7210923
      ],
      "initDialog": 721092001,
      "npcId": [
        3155
      ],
      "performCfg": "",
      "questId": 72109,
      "assetIndex": 14594615106500367738,
      "prePerformCfg": ""
    },
    {
      "id": 7210921,
      "beginWay": "TALK_BEGIN_MANUAL",
      "beginCondComb": "LOGIC_AND",
      "beginCond": [
        {
          "type": "QUEST_COND_STATE_EQUAL",
          "_param": [
            "7210901",
            "2"
          ]
        },
        {
          "type": "QUEST_COND_STATE_EQUAL",
          "_param": [
            "7210914",
            "3"
          ]
        },
        {
          "type": "QUEST_COND_STATE_EQUAL",
          "_param": [
            "7210916",
            "3"
          ]
        }
      ],
      "priority": 5,
      "initDialog": 721092101,
      "npcId": [
        3155
      ],
      "performCfg": "",
      "questId": 72109,
      "assetIndex": 2407683047673896704,
      "prePerformCfg": ""
    },
    {
      "id": 7210922,
      "beginWay": "TALK_BEGIN_MANUAL",
      "beginCondComb": "LOGIC_AND",
      "beginCond": [
        {
          "type": "QUEST_COND_STATE_EQUAL",
          "_param": [
            "7210901",
            "2"
          ]
        },
        {
          "type": "QUEST_COND_STATE_EQUAL",
          "_param": [
            "7210914",
            "3"
          ]
        },
        {
          "type": "QUEST_COND_STATE_EQUAL",
          "_param": [
            "7210916",
            "3"
          ]
        }
      ],
      "priority": 5,
      "initDialog": 721092201,
      "npcId": [
        3155
      ],
      "performCfg": "",
      "questId": 72109,
      "assetIndex": 13930429630848932235,
      "prePerformCfg": ""
    },
    {
      "id": 7210923,
      "beginWay": "TALK_BEGIN_MANUAL",
      "activeMode": "PLAY_MODE_ALL",
      "beginCondComb": "LOGIC_AND",
      "beginCond": [
        {
          "type": "QUEST_COND_STATE_EQUAL",
          "_param": [
            "7210901",
            "3"
          ]
        },
        {
          "type": "QUEST_COND_STATE_EQUAL",
          "_param": [
            "7210914",
            "3"
          ]
        },
        {
          "type": "QUEST_COND_STATE_EQUAL",
          "_param": [
            "7210916",
            "3"
          ]
        }
      ],
      "priority": 5,
      "initDialog": 721092301,
      "npcId": [
        3155,
        1005
      ],
      "performCfg": "",
      "questId": 72109,
      "assetIndex": 8804575434343069560,
      "prePerformCfg": ""
    },
    {
      "id": 7210924,
      "beginWay": "TALK_BEGIN_MANUAL",
      "activeMode": "PLAY_MODE_ALL",
      "beginCondComb": "LOGIC_AND",
      "beginCond": [
        {
          "type": "QUEST_COND_STATE_EQUAL",
          "_param": [
            "7210916",
            "3"
          ]
        },
        {
          "type": "QUEST_COND_STATE_EQUAL"
        }
      ],
      "priority": 5,
      "initDialog": 721092401,
      "npcId": [
        3155,
        1005
      ],
      "performCfg": "",
      "questId": 72109,
      "assetIndex": 2379617190605336512,
      "prePerformCfg": ""
    },
    {
      "id": 7210925,
      "beginWay": "TALK_BEGIN_MANUAL",
      "activeMode": "PLAY_MODE_ALL",
      "priority": 5,
      "initDialog": 721092501,
      "npcId": [
        3155,
        1005
      ],
      "performCfg": "",
      "questId": 72109,
      "assetIndex": 14169469551102979780,
      "prePerformCfg": ""
    },
    {
      "id": 7210926,
      "beginWay": "TALK_BEGIN_MANUAL",
      "activeMode": "PLAY_MODE_ALL",
      "beginCondComb": "LOGIC_AND",
      "beginCond": [
        {
          "type": "QUEST_COND_STATE_EQUAL",
          "_param": [
            "7210901",
            "3"
          ]
        }
      ],
      "priority": 5,
      "initDialog": 721092601,
      "npcId": [
        3155,
        1005
      ],
      "performCfg": "",
      "questId": 72109,
      "assetIndex": 1925314639222675383,
      "prePerformCfg": ""
    },
    {
      "id": 7210927,
      "beginWay": "TALK_BEGIN_MANUAL",
      "activeMode": "PLAY_MODE_ALL",
      "priority": 5,
      "initDialog": 721092701,
      "npcId": [
        3155,
        1005
      ],
      "performCfg": "",
      "questId": 72109,
      "assetIndex": 7819986638820114926,
      "prePerformCfg": ""
    },
    {
      "id": 7210928,
      "beginWay": "TALK_BEGIN_MANUAL",
      "activeMode": "PLAY_MODE_ALL",
      "priority": 5,
      "initDialog": 721092801,
      "npcId": [
        3155,
        1005
      ],
      "performCfg": "",
      "questId": 72109,
      "assetIndex": 10773183503692962273,
      "prePerformCfg": ""
    },
    {
      "id": 7210929,
      "beginWay": "TALK_BEGIN_MANUAL",
      "activeMode": "PLAY_MODE_ALL",
      "priority": 5,
      "initDialog": 721092901,
      "npcId": [
        3155,
        1005
      ],
      "performCfg": "",
      "questId": 72109,
      "assetIndex": 1448517170042548205,
      "prePerformCfg": ""
    },
    {
      "id": 7210930,
      "beginWay": "TALK_BEGIN_MANUAL",
      "activeMode": "PLAY_MODE_ALL",
      "priority": 5,
      "initDialog": 721093001,
      "npcId": [
        20288,
        3155,
        1005
      ],
      "performCfg": "",
      "questId": 72109,
      "assetIndex": 3893790964661084967,
      "prePerformCfg": ""
    },
    {
      "id": 7210931,
      "beginWay": "TALK_BEGIN_MANUAL",
      "activeMode": "PLAY_MODE_ALL",
      "priority": 5,
      "initDialog": 721093101,
      "npcId": [
        3155,
        1005
      ],
      "performCfg": "",
      "questId": 72109,
      "assetIndex": 668250389041901329,
      "prePerformCfg": ""
    },
    {
      "id": 7210932,
      "beginWay": "TALK_BEGIN_MANUAL",
      "activeMode": "PLAY_MODE_ALL",
      "priority": 5,
      "initDialog": 721093201,
      "npcId": [
        3155,
        1005
      ],
      "performCfg": "",
      "questId": 72109,
      "assetIndex": 3560820213475239014,
      "prePerformCfg": ""
    },
    {
      "id": 7210933,
      "beginWay": "TALK_BEGIN_MANUAL",
      "activeMode": "PLAY_MODE_ALL",
      "priority": 5,
      "initDialog": 721093301,
      "npcId": [
        1005,
        3155
      ],
      "performCfg": "",
      "questId": 72109,
      "assetIndex": 4482913330371338713,
      "prePerformCfg": ""
    },
    {
      "id": 7210934,
      "beginWay": "TALK_BEGIN_MANUAL",
      "activeMode": "PLAY_MODE_ALL",
      "priority": 5,
      "initDialog": 721093401,
      "npcId": [
        3167,
        3154,
        3155,
        1005
      ],
      "performCfg": "",
      "questId": 72109,
      "assetIndex": 17524667432986801411,
      "prePerformCfg": ""
    },
    {
      "id": 7210935,
      "beginWay": "TALK_BEGIN_MANUAL",
      "activeMode": "PLAY_MODE_ALL",
      "priority": 5,
      "initDialog": 721093501,
      "npcId": [
        3167,
        3154,
        3155,
        1005
      ],
      "performCfg": "",
      "questId": 72109,
      "assetIndex": 4858610318090349279,
      "prePerformCfg": ""
    }
  ],
  "freeStyleDic": {
    "20330": [
      1200
    ]
  }
}