{
  "id": 72125,
  "damageRatio": "WQ",
  "activeMode": "PLAY_MODE_ALL",
  "descTextMapHash": 817380183,
  "luaPath": "Actor/Quest/WQ72125",
  "showType": "QUEST_HIDDEN",
  "subQuests": [
    {
      "subId": 7212501,
      "mainId": 72125,
      "order": 2,
      "showType": "QUEST_HIDDEN",
      "finishCond": [
        {
          "damageRatio": "QUEST_CONTENT_COMPLETE_TALK",
          "param": [
            7212501,
            0
          ]
        }
      ],
      "guide": {
        "MLAHIFLGIGJ": ""
      },
      "guideHint": {
        "param1": ""
      },
      "isRewind": true,
      "versionBegin": "",
      "versionEnd": ""
    },
    {
      "subId": 7212502,
      "mainId": 72125,
      "order": 3,
      "showType": "QUEST_HIDDEN",
      "finishCond": [
        {
          "damageRatio": "QUEST_CONTENT_COMPLETE_TALK",
          "param": [
            7212505,
            0
          ]
        }
      ],
      "guide": {
        "MLAHIFLGIGJ": ""
      },
      "guideHint": {
        "param1": ""
      },
      "isRewind": true,
      "finishExec": [
        {
          "damageRatio": "QUEST_EXEC_DEL_ALL_SPECIFIC_PACK_ITEM",
          "param": [
            "100858"
          ]
        },
        {
          "damageRatio": "QUEST_EXEC_INIT_TIME_VAR",
          "param": [
            "0"
          ]
        },
        {
          "damageRatio": "QUEST_EXEC_REFRESH_GROUP_SUITE",
          "param": [
            "3",
            "133213287,2"
          ]
        }
      ],
      "versionBegin": "",
      "versionEnd": ""
    },
    {
      "subId": 7212503,
      "mainId": 72125,
      "order": 5,
      "showType": "QUEST_HIDDEN",
      "finishCond": [
        {
          "damageRatio": "QUEST_CONTENT_FINISH_PLOT",
          "param": [
            7212503,
            0
          ]
        }
      ],
      "guide": {
        "MLAHIFLGIGJ": ""
      },
      "guideHint": {
        "param1": ""
      },
      "finishParent": true,
      "isRewind": true,
      "finishExec": [
        {
          "damageRatio": "QUEST_EXEC_ADD_SCENE_TAG",
          "param": [
            "3",
            "114"
          ]
        }
      ],
      "versionBegin": "",
      "versionEnd": ""
    },
    {
      "subId": 7212504,
      "mainId": 72125,
      "order": 1,
      "showType": "QUEST_HIDDEN",
      "finishCond": [
        {
          "damageRatio": "QUEST_CONTENT_QUEST_STATE_EQUAL",
          "param": [
            7212217,
            3
          ]
        }
      ],
      "guide": {
        "MLAHIFLGIGJ": ""
      },
      "guideHint": {
        "param1": ""
      },
      "isRewind": true,
      "versionBegin": "",
      "versionEnd": ""
    },
    {
      "subId": 7212505,
      "mainId": 72125,
      "order": 4,
      "showType": "QUEST_HIDDEN",
      "finishCond": [
        {
          "damageRatio": "QUEST_CONTENT_TIME_VAR_PASS_DAY",
          "param": [
            72125,
            0
          ]
        }
      ],
      "guide": {
        "MLAHIFLGIGJ": ""
      },
      "guideHint": {
        "param1": ""
      },
      "isRewind": true,
      "versionBegin": "",
      "versionEnd": ""
    }
  ],
  "talks": [
    {
      "id": 7212501,
      "beginWay": "TALK_BEGIN_MANUAL",
      "activeMode": "PLAY_MODE_HOST",
      "beginCond": [
        {
          "type": "QUEST_COND_STATE_EQUAL",
          "_param": [
            "7212501",
            "2"
          ]
        }
      ],
      "priority": 5,
      "initDialog": 721250102,
      "npcId": [
        3165
      ],
      "performCfg": "",
      "questId": 72125,
      "assetIndex": 10096694770738860212,
      "prePerformCfg": ""
    },
    {
      "id": 7212502,
      "beginWay": "TALK_BEGIN_MANUAL",
      "activeMode": "PLAY_MODE_HOST",
      "beginCond": [
        {
          "type": "QUEST_COND_STATE_EQUAL",
          "_param": [
            "7212502",
            "2"
          ]
        }
      ],
      "priority": 5,
      "nextTalks": [
        7212505,
        7212503,
        7212504
      ],
      "initDialog": 721250201,
      "npcId": [
        3165
      ],
      "performCfg": "",
      "questId": 72125,
      "assetIndex": 4171644683610345124,
      "prePerformCfg": ""
    },
    {
      "id": 7212503,
      "activeMode": "PLAY_MODE_HOST",
      "beginCond": [
        {
          "type": "QUEST_COND_STATE_EQUAL",
          "_param": [
            "7212502",
            "2"
          ]
        }
      ],
      "priority": 5,
      "initDialog": 721250301,
      "npcId": [
        3165
      ],
      "performCfg": "",
      "questId": 72125,
      "assetIndex": 16194636597844744715,
      "prePerformCfg": ""
    },
    {
      "id": 7212504,
      "activeMode": "PLAY_MODE_HOST",
      "beginCond": [
        {
          "type": "QUEST_COND_STATE_EQUAL",
          "_param": [
            "7212502",
            "2"
          ]
        }
      ],
      "priority": 5,
      "initDialog": 721250401,
      "npcId": [
        3165
      ],
      "performCfg": "",
      "questId": 72125,
      "assetIndex": 6055165267513908694,
      "prePerformCfg": ""
    },
    {
      "id": 7212505,
      "activeMode": "PLAY_MODE_HOST",
      "beginCond": [
        {
          "type": "QUEST_COND_PACK_HAVE_ITEM",
          "_param": [
            "100858",
            "1"
          ]
        }
      ],
      "priority": 5,
      "initDialog": 721250501,
      "npcId": [
        3165
      ],
      "performCfg": "",
      "questId": 72125,
      "assetIndex": 6929669081346529512,
      "prePerformCfg": ""
    },
    {
      "id": 7212506,
      "beginWay": "TALK_BEGIN_MANUAL",
      "activeMode": "PLAY_MODE_HOST",
      "beginCondComb": "LOGIC_OR",
      "beginCond": [
        {
          "type": "QUEST_COND_STATE_EQUAL",
          "_param": [
            "7212503",
            "2"
          ]
        },
        {
          "type": "QUEST_COND_STATE_EQUAL",
          "_param": [
            "7212505",
            "2"
          ]
        }
      ],
      "priority": 5,
      "initDialog": 721250601,
      "npcId": [
        3165
      ],
      "performCfg": "",
      "questId": 72125,
      "assetIndex": 13284230179858663873,
      "prePerformCfg": ""
    }
  ],
  "preloadLuaList": [
    14866186446790628434
  ],
  "forcePreloadLuaList": [
    12103264287085745390
  ]
}