{
  "id": 72141,
  "damageRatio": "WQ",
  "activeMode": "PLAY_MODE_ALL",
  "descTextMapHash": 288125615,
  "luaPath": "Actor/Quest/WQ72141",
  "rewardIdList": [
    172141
  ],
  "subQuests": [
    {
      "subId": 7214101,
      "mainId": 72141,
      "order": 1,
      "descTextMapHash": 879448852,
      "showType": "QUEST_HIDDEN",
      "finishCond": [
        {
          "damageRatio": "QUEST_CONTENT_COMPLETE_TALK",
          "param": [
            7214103,
            0
          ]
        }
      ],
      "guide": {
        "MLAHIFLGIGJ": ""
      },
      "guideHint": {
        "param1": ""
      },
      "failParentShow": "QUEST_HIDDEN",
      "isRewind": true,
      "finishExec": [
        {
          "damageRatio": "QUEST_EXEC_NOTIFY_GROUP_LUA",
          "param": [
            "3",
            "133212058"
          ]
        }
      ],
      "versionBegin": "",
      "versionEnd": ""
    },
    {
      "subId": 7214102,
      "mainId": 72141,
      "order": 4,
      "descTextMapHash": 4031716924,
      "showType": "QUEST_HIDDEN",
      "finishCond": [
        {
          "damageRatio": "QUEST_CONTENT_COMPLETE_TALK",
          "param": [
            7214106,
            0
          ]
        }
      ],
      "guide": {
        "MLAHIFLGIGJ": ""
      },
      "guideHint": {
        "param1": ""
      },
      "failParentShow": "QUEST_HIDDEN",
      "isRewind": true,
      "versionBegin": "",
      "versionEnd": ""
    },
    {
      "subId": 7214103,
      "mainId": 72141,
      "order": 5,
      "descTextMapHash": 2324761676,
      "showType": "QUEST_HIDDEN",
      "finishCond": [
        {
          "damageRatio": "QUEST_CONTENT_TIME_VAR_PASS_DAY",
          "param": [
            72141,
            0
          ]
        }
      ],
      "guide": {
        "MLAHIFLGIGJ": ""
      },
      "guideHint": {
        "param1": ""
      },
      "failParentShow": "QUEST_HIDDEN",
      "isRewind": true,
      "finishExec": [
        {
          "damageRatio": "QUEST_EXEC_NOTIFY_GROUP_LUA",
          "param": [
            "3",
            "133212058"
          ]
        }
      ],
      "versionBegin": "",
      "versionEnd": ""
    },
    {
      "subId": 7214104,
      "mainId": 72141,
      "order": 6,
      "descTextMapHash": 2246503988,
      "showType": "QUEST_HIDDEN",
      "finishCond": [
        {
          "damageRatio": "QUEST_CONTENT_COMPLETE_TALK",
          "param": [
            7214108,
            0
          ]
        }
      ],
      "guide": {
        "MLAHIFLGIGJ": ""
      },
      "guideHint": {
        "param1": ""
      },
      "failParentShow": "QUEST_HIDDEN",
      "isRewind": true,
      "finishExec": [
        {
          "damageRatio": "QUEST_EXEC_NOTIFY_GROUP_LUA",
          "param": [
            "3",
            "133212058"
          ]
        }
      ],
      "versionBegin": "",
      "versionEnd": ""
    },
    {
      "subId": 7214105,
      "mainId": 72141,
      "order": 9,
      "descTextMapHash": 3329456268,
      "showType": "QUEST_HIDDEN",
      "finishCond": [
        {
          "damageRatio": "QUEST_CONTENT_COMPLETE_TALK",
          "param": [
            7214111,
            0
          ]
        }
      ],
      "guide": {
        "MLAHIFLGIGJ": ""
      },
      "guideHint": {
        "param1": ""
      },
      "failParentShow": "QUEST_HIDDEN",
      "isRewind": true,
      "versionBegin": "",
      "versionEnd": ""
    },
    {
      "subId": 7214106,
      "mainId": 72141,
      "order": 10,
      "descTextMapHash": 901296540,
      "showType": "QUEST_HIDDEN",
      "finishCond": [
        {
          "damageRatio": "QUEST_CONTENT_TIME_VAR_PASS_DAY",
          "param": [
            72141,
            0
          ]
        }
      ],
      "guide": {
        "MLAHIFLGIGJ": ""
      },
      "guideHint": {
        "param1": ""
      },
      "failParentShow": "QUEST_HIDDEN",
      "isRewind": true,
      "finishExec": [
        {
          "damageRatio": "QUEST_EXEC_NOTIFY_GROUP_LUA",
          "param": [
            "3",
            "133212058"
          ]
        }
      ],
      "versionBegin": "",
      "versionEnd": ""
    },
    {
      "subId": 7214107,
      "mainId": 72141,
      "order": 11,
      "descTextMapHash": 3450469108,
      "showType": "QUEST_HIDDEN",
      "finishCond": [
        {
          "damageRatio": "QUEST_CONTENT_COMPLETE_TALK",
          "param": [
            7214114,
            0
          ]
        }
      ],
      "guide": {
        "MLAHIFLGIGJ": ""
      },
      "guideHint": {
        "param1": ""
      },
      "failParentShow": "QUEST_HIDDEN",
      "isRewind": true,
      "finishExec": [
        {
          "damageRatio": "QUEST_EXEC_NOTIFY_GROUP_LUA",
          "param": [
            "3",
            "133212058"
          ]
        }
      ],
      "versionBegin": "",
      "versionEnd": ""
    },
    {
      "subId": 7214108,
      "mainId": 72141,
      "order": 14,
      "descTextMapHash": 2374402684,
      "showType": "QUEST_HIDDEN",
      "finishCond": [
        {
          "damageRatio": "QUEST_CONTENT_COMPLETE_TALK",
          "param": [
            7214117,
            0
          ]
        }
      ],
      "guide": {
        "MLAHIFLGIGJ": ""
      },
      "guideHint": {
        "param1": ""
      },
      "failParentShow": "QUEST_HIDDEN",
      "isRewind": true,
      "versionBegin": "",
      "versionEnd": ""
    },
    {
      "subId": 7214109,
      "mainId": 72141,
      "order": 15,
      "descTextMapHash": 2743719012,
      "showType": "QUEST_HIDDEN",
      "finishCond": [
        {
          "damageRatio": "QUEST_CONTENT_TIME_VAR_PASS_DAY",
          "param": [
            72141,
            0
          ]
        }
      ],
      "guide": {
        "MLAHIFLGIGJ": ""
      },
      "guideHint": {
        "param1": ""
      },
      "failParentShow": "QUEST_HIDDEN",
      "isRewind": true,
      "finishExec": [
        {
          "damageRatio": "QUEST_EXEC_NOTIFY_GROUP_LUA",
          "param": [
            "3",
            "133212058"
          ]
        }
      ],
      "versionBegin": "",
      "versionEnd": ""
    },
    {
      "subId": 7214110,
      "mainId": 72141,
      "order": 19,
      "descTextMapHash": 143107476,
      "stepDescTextMapHash": 2599711829,
      "finishCond": [
        {
          "damageRatio": "QUEST_CONTENT_LUA_NOTIFY",
          "param": [
            0,
            0
          ],
          "count": 1
        }
      ],
      "guide": {
        "damageRatio": "QUEST_GUIDE_LOCATION",
        "autoGuide": "QUEST_GUIDE_AUTO_ENABLE",
        "param": [
          "Q3_72141_2",
          "30"
        ],
        "guideScene": 3,
        "guideStyle": "QUEST_GUIDE_STYLE_POINT",
        "guideLayer": "QUEST_GUIDE_LAYER_UI",
        "MLAHIFLGIGJ": ""
      },
      "guideHint": {
        "param1": ""
      },
      "isRewind": true,
      "versionBegin": "",
      "versionEnd": ""
    },
    {
      "subId": 7214111,
      "mainId": 72141,
      "order": 20,
      "descTextMapHash": 2542372716,
      "stepDescTextMapHash": 3124528917,
      "finishCond": [
        {
          "damageRatio": "QUEST_CONTENT_LUA_NOTIFY",
          "param": [
            0,
            0
          ],
          "count": 1
        }
      ],
      "guide": {
        "damageRatio": "QUEST_GUIDE_LOCATION",
        "autoGuide": "QUEST_GUIDE_AUTO_ENABLE",
        "param": [
          "Q3_72141_1",
          "30"
        ],
        "guideScene": 3,
        "guideStyle": "QUEST_GUIDE_STYLE_TARGET",
        "guideLayer": "QUEST_GUIDE_LAYER_UI",
        "MLAHIFLGIGJ": ""
      },
      "guideHint": {
        "param1": ""
      },
      "finishParent": true,
      "isRewind": true,
      "versionBegin": "",
      "versionEnd": ""
    },
    {
      "subId": 7214112,
      "mainId": 72141,
      "order": 2,
      "descTextMapHash": 914893052,
      "showType": "QUEST_HIDDEN",
      "finishCond": [
        {
          "damageRatio": "QUEST_CONTENT_COMPLETE_TALK",
          "param": [
            7214104,
            0
          ]
        }
      ],
      "guide": {
        "MLAHIFLGIGJ": ""
      },
      "guideHint": {
        "param1": ""
      },
      "failParentShow": "QUEST_HIDDEN",
      "isRewind": true,
      "finishExec": [
        {
          "damageRatio": "QUEST_EXEC_NOTIFY_GROUP_LUA",
          "param": [
            "3",
            "133212058"
          ]
        }
      ],
      "versionBegin": "",
      "versionEnd": ""
    },
    {
      "subId": 7214113,
      "mainId": 72141,
      "order": 3,
      "descTextMapHash": 438035924,
      "showType": "QUEST_HIDDEN",
      "finishCond": [
        {
          "damageRatio": "QUEST_CONTENT_COMPLETE_TALK",
          "param": [
            7214105,
            0
          ]
        }
      ],
      "guide": {
        "MLAHIFLGIGJ": ""
      },
      "guideHint": {
        "param1": ""
      },
      "failParentShow": "QUEST_HIDDEN",
      "isRewind": true,
      "finishExec": [
        {
          "damageRatio": "QUEST_EXEC_NOTIFY_GROUP_LUA",
          "param": [
            "3",
            "133212058"
          ]
        }
      ],
      "versionBegin": "",
      "versionEnd": ""
    },
    {
      "subId": 7214114,
      "mainId": 72141,
      "order": 7,
      "descTextMapHash": 441231348,
      "showType": "QUEST_HIDDEN",
      "finishCond": [
        {
          "damageRatio": "QUEST_CONTENT_COMPLETE_TALK",
          "param": [
            7214109,
            0
          ]
        }
      ],
      "guide": {
        "MLAHIFLGIGJ": ""
      },
      "guideHint": {
        "param1": ""
      },
      "failParentShow": "QUEST_HIDDEN",
      "isRewind": true,
      "finishExec": [
        {
          "damageRatio": "QUEST_EXEC_NOTIFY_GROUP_LUA",
          "param": [
            "3",
            "133212058"
          ]
        }
      ],
      "versionBegin": "",
      "versionEnd": ""
    },
    {
      "subId": 7214115,
      "mainId": 72141,
      "order": 8,
      "descTextMapHash": 3200750164,
      "showType": "QUEST_HIDDEN",
      "finishCond": [
        {
          "damageRatio": "QUEST_CONTENT_COMPLETE_TALK",
          "param": [
            7214110,
            0
          ]
        }
      ],
      "guide": {
        "MLAHIFLGIGJ": ""
      },
      "guideHint": {
        "param1": ""
      },
      "failParentShow": "QUEST_HIDDEN",
      "isRewind": true,
      "finishExec": [
        {
          "damageRatio": "QUEST_EXEC_NOTIFY_GROUP_LUA",
          "param": [
            "3",
            "133212058"
          ]
        }
      ],
      "versionBegin": "",
      "versionEnd": ""
    },
    {
      "subId": 7214116,
      "mainId": 72141,
      "order": 12,
      "descTextMapHash": 1183383076,
      "showType": "QUEST_HIDDEN",
      "finishCond": [
        {
          "damageRatio": "QUEST_CONTENT_COMPLETE_TALK",
          "param": [
            7214115,
            0
          ]
        }
      ],
      "guide": {
        "MLAHIFLGIGJ": ""
      },
      "guideHint": {
        "param1": ""
      },
      "failParentShow": "QUEST_HIDDEN",
      "isRewind": true,
      "finishExec": [
        {
          "damageRatio": "QUEST_EXEC_NOTIFY_GROUP_LUA",
          "param": [
            "3",
            "133212058"
          ]
        }
      ],
      "versionBegin": "",
      "versionEnd": ""
    },
    {
      "subId": 7214117,
      "mainId": 72141,
      "order": 13,
      "descTextMapHash": 1524550460,
      "showType": "QUEST_HIDDEN",
      "finishCond": [
        {
          "damageRatio": "QUEST_CONTENT_COMPLETE_TALK",
          "param": [
            7214116,
            0
          ]
        }
      ],
      "guide": {
        "MLAHIFLGIGJ": ""
      },
      "guideHint": {
        "param1": ""
      },
      "failParentShow": "QUEST_HIDDEN",
      "isRewind": true,
      "finishExec": [
        {
          "damageRatio": "QUEST_EXEC_NOTIFY_GROUP_LUA",
          "param": [
            "3",
            "133212058"
          ]
        }
      ],
      "versionBegin": "",
      "versionEnd": ""
    },
    {
      "subId": 7214118,
      "mainId": 72141,
      "order": 16,
      "descTextMapHash": 3851797468,
      "showType": "QUEST_HIDDEN",
      "finishCond": [
        {
          "damageRatio": "QUEST_CONTENT_COMPLETE_TALK",
          "param": [
            7214119,
            0
          ]
        }
      ],
      "guide": {
        "MLAHIFLGIGJ": ""
      },
      "guideHint": {
        "param1": ""
      },
      "failParentShow": "QUEST_HIDDEN",
      "isRewind": true,
      "finishExec": [
        {
          "damageRatio": "QUEST_EXEC_NOTIFY_GROUP_LUA",
          "param": [
            "3",
            "133212058"
          ]
        }
      ],
      "versionBegin": "",
      "versionEnd": ""
    },
    {
      "subId": 7214119,
      "mainId": 72141,
      "order": 17,
      "descTextMapHash": 2328728484,
      "showType": "QUEST_HIDDEN",
      "finishCond": [
        {
          "damageRatio": "QUEST_CONTENT_COMPLETE_TALK",
          "param": [
            7214120,
            0
          ]
        }
      ],
      "guide": {
        "MLAHIFLGIGJ": ""
      },
      "guideHint": {
        "param1": ""
      },
      "failParentShow": "QUEST_HIDDEN",
      "isRewind": true,
      "finishExec": [
        {
          "damageRatio": "QUEST_EXEC_NOTIFY_GROUP_LUA",
          "param": [
            "3",
            "133212058"
          ]
        }
      ],
      "versionBegin": "",
      "versionEnd": ""
    },
    {
      "subId": 7214120,
      "mainId": 72141,
      "order": 18,
      "descTextMapHash": 3198526532,
      "showType": "QUEST_HIDDEN",
      "finishCond": [
        {
          "damageRatio": "QUEST_CONTENT_COMPLETE_TALK",
          "param": [
            7214121,
            0
          ]
        }
      ],
      "guide": {
        "MLAHIFLGIGJ": ""
      },
      "guideHint": {
        "param1": ""
      },
      "failParentShow": "QUEST_HIDDEN",
      "isRewind": true,
      "finishExec": [
        {
          "damageRatio": "QUEST_EXEC_NOTIFY_GROUP_LUA",
          "param": [
            "3",
            "133212058"
          ]
        }
      ],
      "versionBegin": "",
      "versionEnd": ""
    }
  ],
  "talks": [
    {
      "id": 7214101,
      "beginWay": "TALK_BEGIN_MANUAL",
      "beginCondComb": "LOGIC_OR",
      "beginCond": [
        {
          "type": "QUEST_COND_STATE_EQUAL",
          "_param": [
            "7214101",
            "2"
          ]
        },
        {
          "type": "QUEST_COND_STATE_EQUAL",
          "_param": [
            "7214112",
            "2"
          ]
        },
        {
          "type": "QUEST_COND_STATE_EQUAL",
          "_param": [
            "7214113",
            "2"
          ]
        }
      ],
      "priority": 5,
      "initDialog": 721410101,
      "npcId": [
        20239
      ],
      "performCfg": "",
      "questId": 72141,
      "assetIndex": 8107257527393253596,
      "prePerformCfg": "",
      "stayFreeStyle": true,
      "lockGameTime": true
    },
    {
      "id": 7214102,
      "beginWay": "TALK_BEGIN_MANUAL",
      "beginCondComb": "LOGIC_AND",
      "beginCond": [
        {
          "type": "QUEST_COND_STATE_EQUAL",
          "_param": [
            "7214101",
            "3"
          ]
        },
        {
          "type": "QUEST_COND_STATE_EQUAL",
          "_param": [
            "7214113",
            "2"
          ]
        }
      ],
      "priority": 5,
      "initDialog": 721410201,
      "npcId": [
        20239
      ],
      "performCfg": "",
      "questId": 72141,
      "assetIndex": 7239035326129337409,
      "prePerformCfg": "",
      "stayFreeStyle": true,
      "lockGameTime": true
    },
    {
      "id": 7214103,
      "beginWay": "TALK_BEGIN_MANUAL",
      "beginCond": [
        {
          "type": "QUEST_COND_STATE_EQUAL",
          "_param": [
            "7214101",
            "2"
          ]
        }
      ],
      "priority": 5,
      "initDialog": 721410301,
      "npcId": [
        20267
      ],
      "performCfg": "",
      "questId": 72141,
      "assetIndex": 865414703832184907,
      "prePerformCfg": "",
      "stayFreeStyle": true,
      "lockGameTime": true
    },
    {
      "id": 7214104,
      "beginWay": "TALK_BEGIN_MANUAL",
      "beginCond": [
        {
          "type": "QUEST_COND_STATE_EQUAL",
          "_param": [
            "7214112",
            "2"
          ]
        }
      ],
      "priority": 5,
      "initDialog": 721410401,
      "npcId": [
        20267
      ],
      "performCfg": "",
      "questId": 72141,
      "assetIndex": 6301674683056311173,
      "prePerformCfg": "",
      "stayFreeStyle": true,
      "lockGameTime": true
    },
    {
      "id": 7214105,
      "beginWay": "TALK_BEGIN_MANUAL",
      "beginCond": [
        {
          "type": "QUEST_COND_STATE_EQUAL",
          "_param": [
            "7214113",
            "2"
          ]
        }
      ],
      "priority": 5,
      "initDialog": 721410501,
      "npcId": [
        20267
      ],
      "performCfg": "",
      "questId": 72141,
      "assetIndex": 7261495404611682338,
      "prePerformCfg": "",
      "stayFreeStyle": true,
      "lockGameTime": true
    },
    {
      "id": 7214106,
      "beginWay": "TALK_BEGIN_MANUAL",
      "beginCond": [
        {
          "type": "QUEST_COND_STATE_EQUAL",
          "_param": [
            "7214102",
            "2"
          ]
        }
      ],
      "priority": 5,
      "initDialog": 721410601,
      "npcId": [
        20239
      ],
      "performCfg": "",
      "questId": 72141,
      "assetIndex": 14388949398635842844,
      "prePerformCfg": "",
      "stayFreeStyle": true,
      "lockGameTime": true
    },
    {
      "id": 7214107,
      "beginWay": "TALK_BEGIN_MANUAL",
      "beginCondComb": "LOGIC_OR",
      "beginCond": [
        {
          "type": "QUEST_COND_STATE_EQUAL",
          "_param": [
            "7214115",
            "2"
          ]
        },
        {
          "type": "QUEST_COND_STATE_EQUAL",
          "_param": [
            "7214114",
            "2"
          ]
        },
        {
          "type": "QUEST_COND_STATE_EQUAL",
          "_param": [
            "7214104",
            "2"
          ]
        }
      ],
      "priority": 5,
      "initDialog": 721410701,
      "npcId": [
        20239
      ],
      "performCfg": "",
      "questId": 72141,
      "assetIndex": 13520385341332893256,
      "prePerformCfg": "",
      "stayFreeStyle": true,
      "lockGameTime": true
    },
    {
      "id": 7214108,
      "beginWay": "TALK_BEGIN_MANUAL",
      "beginCond": [
        {
          "type": "QUEST_COND_STATE_EQUAL",
          "_param": [
            "7214104",
            "2"
          ]
        }
      ],
      "priority": 5,
      "initDialog": 721410801,
      "npcId": [
        20267
      ],
      "performCfg": "",
      "questId": 72141,
      "assetIndex": 3008292997247484228,
      "prePerformCfg": "",
      "stayFreeStyle": true,
      "lockGameTime": true
    },
    {
      "id": 7214109,
      "beginWay": "TALK_BEGIN_MANUAL",
      "beginCond": [
        {
          "type": "QUEST_COND_STATE_EQUAL",
          "_param": [
            "7214114",
            "2"
          ]
        }
      ],
      "priority": 5,
      "initDialog": 721410901,
      "npcId": [
        20267
      ],
      "performCfg": "",
      "questId": 72141,
      "assetIndex": 7796905609722524915,
      "prePerformCfg": "",
      "stayFreeStyle": true,
      "lockGameTime": true
    },
    {
      "id": 7214110,
      "beginWay": "TALK_BEGIN_MANUAL",
      "beginCond": [
        {
          "type": "QUEST_COND_STATE_EQUAL",
          "_param": [
            "7214115",
            "2"
          ]
        }
      ],
      "priority": 5,
      "initDialog": 721411001,
      "npcId": [
        20267
      ],
      "performCfg": "",
      "questId": 72141,
      "assetIndex": 5403516909910033300,
      "prePerformCfg": "",
      "stayFreeStyle": true,
      "lockGameTime": true
    },
    {
      "id": 7214111,
      "beginWay": "TALK_BEGIN_MANUAL",
      "beginCond": [
        {
          "type": "QUEST_COND_STATE_EQUAL",
          "_param": [
            "7214105",
            "2"
          ]
        }
      ],
      "priority": 5,
      "initDialog": 721411101,
      "npcId": [
        20239
      ],
      "performCfg": "",
      "questId": 72141,
      "assetIndex": 13920835056035333834,
      "prePerformCfg": "",
      "stayFreeStyle": true,
      "lockGameTime": true
    },
    {
      "id": 7214112,
      "beginWay": "TALK_BEGIN_MANUAL",
      "beginCondComb": "LOGIC_OR",
      "beginCond": [
        {
          "type": "QUEST_COND_STATE_EQUAL",
          "_param": [
            "7214117",
            "2"
          ]
        },
        {
          "type": "QUEST_COND_STATE_EQUAL",
          "_param": [
            "7214116",
            "2"
          ]
        },
        {
          "type": "QUEST_COND_STATE_EQUAL",
          "_param": [
            "7214107",
            "2"
          ]
        }
      ],
      "priority": 5,
      "initDialog": 721411201,
      "npcId": [
        20239
      ],
      "performCfg": "QuestDialogue/WQ/Inazuma_72141/Q7214112",
      "questId": 72141,
      "assetIndex": 15962438177435189906,
      "prePerformCfg": "",
      "stayFreeStyle": true,
      "enableCameraDisplacement": true,
      "lockGameTime": true
    },
    {
      "id": 7214113,
      "beginWay": "TALK_BEGIN_MANUAL",
      "beginCondComb": "LOGIC_AND",
      "beginCond": [
        {
          "type": "QUEST_COND_STATE_EQUAL",
          "_param": [
            "7214117",
            "2"
          ]
        },
        {
          "type": "QUEST_COND_STATE_EQUAL",
          "_param": [
            "7214107",
            "3"
          ]
        }
      ],
      "priority": 5,
      "initDialog": 721411301,
      "npcId": [
        20239
      ],
      "performCfg": "",
      "questId": 72141,
      "assetIndex": 15304706092810198161,
      "prePerformCfg": "",
      "stayFreeStyle": true,
      "lockGameTime": true
    },
    {
      "id": 7214114,
      "beginWay": "TALK_BEGIN_MANUAL",
      "beginCond": [
        {
          "type": "QUEST_COND_STATE_EQUAL",
          "_param": [
            "7214107",
            "2"
          ]
        }
      ],
      "priority": 5,
      "initDialog": 721411401,
      "npcId": [
        20267
      ],
      "performCfg": "",
      "questId": 72141,
      "assetIndex": 9852798199034039143,
      "prePerformCfg": "",
      "stayFreeStyle": true,
      "lockGameTime": true
    },
    {
      "id": 7214115,
      "beginWay": "TALK_BEGIN_MANUAL",
      "beginCond": [
        {
          "type": "QUEST_COND_STATE_EQUAL",
          "_param": [
            "7214116",
            "2"
          ]
        }
      ],
      "priority": 5,
      "initDialog": 721411501,
      "npcId": [
        20267
      ],
      "performCfg": "",
      "questId": 72141,
      "assetIndex": 664176407610804859,
      "prePerformCfg": "",
      "stayFreeStyle": true,
      "lockGameTime": true
    },
    {
      "id": 7214116,
      "beginWay": "TALK_BEGIN_MANUAL",
      "beginCond": [
        {
          "type": "QUEST_COND_STATE_EQUAL",
          "_param": [
            "7214117",
            "2"
          ]
        }
      ],
      "priority": 5,
      "initDialog": 721411601,
      "npcId": [
        20267
      ],
      "performCfg": "",
      "questId": 72141,
      "assetIndex": 5906398863544508446,
      "prePerformCfg": "",
      "stayFreeStyle": true,
      "lockGameTime": true
    },
    {
      "id": 7214117,
      "beginWay": "TALK_BEGIN_MANUAL",
      "beginCond": [
        {
          "type": "QUEST_COND_STATE_EQUAL",
          "_param": [
            "7214108",
            "2"
          ]
        }
      ],
      "priority": 5,
      "initDialog": 721411701,
      "npcId": [
        20239
      ],
      "performCfg": "QuestDialogue/WQ/Inazuma_72141/Q7214117",
      "questId": 72141,
      "assetIndex": 2179532372616303953,
      "prePerformCfg": "",
      "stayFreeStyle": true,
      "enableCameraDisplacement": true,
      "lockGameTime": true
    },
    {
      "id": 7214118,
      "beginWay": "TALK_BEGIN_MANUAL",
      "beginCondComb": "LOGIC_OR",
      "beginCond": [
        {
          "type": "QUEST_COND_STATE_EQUAL",
          "_param": [
            "7214120",
            "2"
          ]
        },
        {
          "type": "QUEST_COND_STATE_EQUAL",
          "_param": [
            "7214118",
            "2"
          ]
        },
        {
          "type": "QUEST_COND_STATE_EQUAL",
          "_param": [
            "7214119",
            "2"
          ]
        }
      ],
      "priority": 5,
      "initDialog": 721411801,
      "npcId": [
        20239
      ],
      "performCfg": "QuestDialogue/WQ/Inazuma_72141/Q7214118",
      "questId": 72141,
      "assetIndex": 5744327514267480178,
      "prePerformCfg": "",
      "stayFreeStyle": true,
      "enableCameraDisplacement": true,
      "lockGameTime": true
    },
    {
      "id": 7214119,
      "beginWay": "TALK_BEGIN_MANUAL",
      "beginCond": [
        {
          "type": "QUEST_COND_STATE_EQUAL",
          "_param": [
            "7214118",
            "2"
          ]
        }
      ],
      "priority": 5,
      "initDialog": 721411901,
      "npcId": [
        20267
      ],
      "performCfg": "",
      "questId": 72141,
      "assetIndex": 1520124029807011256,
      "prePerformCfg": "",
      "stayFreeStyle": true,
      "lockGameTime": true
    },
    {
      "id": 7214120,
      "beginWay": "TALK_BEGIN_MANUAL",
      "beginCond": [
        {
          "type": "QUEST_COND_STATE_EQUAL",
          "_param": [
            "7214119",
            "2"
          ]
        }
      ],
      "priority": 5,
      "initDialog": 721412001,
      "npcId": [
        20267
      ],
      "performCfg": "",
      "questId": 72141,
      "assetIndex": 11876136154942063511,
      "prePerformCfg": "",
      "stayFreeStyle": true,
      "lockGameTime": true
    },
    {
      "id": 7214121,
      "beginWay": "TALK_BEGIN_MANUAL",
      "beginCond": [
        {
          "type": "QUEST_COND_STATE_EQUAL",
          "_param": [
            "7214120",
            "2"
          ]
        }
      ],
      "priority": 5,
      "initDialog": 721412101,
      "npcId": [
        20267
      ],
      "performCfg": "",
      "questId": 72141,
      "assetIndex": 6465897688579387386,
      "prePerformCfg": "",
      "stayFreeStyle": true,
      "lockGameTime": true
    }
  ],
  "freeStyleDic": {
    "20239": [
      2
    ]
  }
}