{
  "id": 72162,
  "damageRatio": "WQ",
  "activeMode": "PLAY_MODE_ALL",
  "descTextMapHash": 1382202343,
  "EKEKACCODOE": 2390557894,
  "luaPath": "Actor/Quest/WQ72162",
  "rewardIdList": [
    172162
  ],
  "subQuests": [
    {
      "subId": 7216201,
      "mainId": 72162,
      "order": 2,
      "descTextMapHash": 4291508740,
      "finishCond": [
        {
          "damageRatio": "QUEST_CONTENT_LUA_NOTIFY",
          "param": [
            0,
            0
          ],
          "count": 1
        }
      ],
      "guide": {
        "damageRatio": "QUEST_GUIDE_LOCATION",
        "param": [
          "WQ72162_TengYuan01",
          "15"
        ],
        "guideScene": 3,
        "MLAHIFLGIGJ": ""
      },
      "guideHint": {
        "param1": ""
      },
      "isRewind": true,
      "finishExec": [
        {
          "damageRatio": "QUEST_EXEC_REFRESH_GROUP_SUITE",
          "param": [
            "3",
            "133217150,1"
          ]
        }
      ],
      "versionBegin": "",
      "versionEnd": ""
    },
    {
      "subId": 7216202,
      "mainId": 72162,
      "order": 3,
      "descTextMapHash": 774806556,
      "finishCond": [
        {
          "damageRatio": "QUEST_CONTENT_COMPLETE_TALK",
          "param": [
            7216201,
            0
          ]
        }
      ],
      "guide": {
        "damageRatio": "QUEST_GUIDE_NPC",
        "param": [
          "3063"
        ],
        "guideScene": 3,
        "MLAHIFLGIGJ": ""
      },
      "guideHint": {
        "param1": ""
      },
      "isRewind": true,
      "versionBegin": "",
      "versionEnd": ""
    },
    {
      "subId": 7216203,
      "mainId": 72162,
      "order": 4,
      "descTextMapHash": 3515331692,
      "finishCond": [
        {
          "damageRatio": "QUEST_CONTENT_LUA_NOTIFY",
          "param": [
            0,
            0
          ],
          "count": 1
        }
      ],
      "guide": {
        "damageRatio": "QUEST_GUIDE_GADGET",
        "param": [
          "133217023",
          "23005",
          "-4425:214:-3973"
        ],
        "guideScene": 3,
        "MLAHIFLGIGJ": ""
      },
      "guideHint": {
        "param1": ""
      },
      "isRewind": true,
      "versionBegin": "",
      "versionEnd": ""
    },
    {
      "subId": 7216204,
      "mainId": 72162,
      "order": 6,
      "descTextMapHash": 2976888012,
      "finishCond": [
        {
          "damageRatio": "QUEST_CONTENT_COMPLETE_TALK",
          "param": [
            7216214,
            0
          ]
        }
      ],
      "guide": {
        "damageRatio": "QUEST_GUIDE_NPC",
        "param": [
          "3063"
        ],
        "guideScene": 3,
        "MLAHIFLGIGJ": ""
      },
      "guideHint": {
        "param1": ""
      },
      "isRewind": true,
      "versionBegin": "",
      "versionEnd": ""
    },
    {
      "subId": 7216205,
      "mainId": 72162,
      "order": 5,
      "descTextMapHash": 2283931516,
      "guideTipsTextMapHash": 2468263166,
      "finishCond": [
        {
          "damageRatio": "QUEST_CONTENT_LUA_NOTIFY",
          "param": [
            0,
            0
          ],
          "count": 1
        }
      ],
      "guide": {
        "damageRatio": "QUEST_GUIDE_LOCATION",
        "param": [
          "WQ72162_DiaoCha01",
          "15"
        ],
        "guideScene": 3,
        "MLAHIFLGIGJ": ""
      },
      "guideHint": {
        "param1": ""
      },
      "isRewind": true,
      "versionBegin": "",
      "versionEnd": ""
    },
    {
      "subId": 7216206,
      "mainId": 72162,
      "order": 7,
      "descTextMapHash": 244514372,
      "finishCond": [
        {
          "damageRatio": "QUEST_CONTENT_FINISH_PLOT",
          "param": [
            7216206,
            0
          ]
        }
      ],
      "guide": {
        "damageRatio": "QUEST_GUIDE_LOCATION",
        "param": [
          "WQ72162_DiXiaShi01",
          "15"
        ],
        "guideScene": 3,
        "MLAHIFLGIGJ": ""
      },
      "guideHint": {
        "param1": ""
      },
      "isRewind": true,
      "versionBegin": "",
      "versionEnd": ""
    },
    {
      "subId": 7216207,
      "mainId": 72162,
      "order": 10,
      "descTextMapHash": 1353485748,
      "guideTipsTextMapHash": 1048446094,
      "finishCond": [
        {
          "damageRatio": "QUEST_CONTENT_LUA_NOTIFY",
          "param": [
            0,
            0
          ],
          "count": 1
        }
      ],
      "guide": {
        "damageRatio": "QUEST_GUIDE_LOCATION",
        "param": [
          "WQ72162_JieMi",
          "15"
        ],
        "guideScene": 3,
        "MLAHIFLGIGJ": ""
      },
      "guideHint": {
        "param1": ""
      },
      "isRewind": true,
      "versionBegin": "",
      "versionEnd": ""
    },
    {
      "subId": 7216208,
      "mainId": 72162,
      "order": 11,
      "descTextMapHash": 251003732,
      "guideTipsTextMapHash": 3270282526,
      "finishCond": [
        {
          "damageRatio": "QUEST_CONTENT_LUA_NOTIFY",
          "param": [
            0,
            0
          ],
          "count": 1
        }
      ],
      "guide": {
        "damageRatio": "QUEST_GUIDE_LOCATION",
        "param": [
          "WQ72162_JieMi",
          "15"
        ],
        "guideScene": 3,
        "MLAHIFLGIGJ": ""
      },
      "guideHint": {
        "param1": ""
      },
      "isRewind": true,
      "finishExec": [
        {
          "damageRatio": "QUEST_EXEC_DEL_PACK_ITEM",
          "param": [
            "100992",
            "1"
          ]
        }
      ],
      "versionBegin": "",
      "versionEnd": ""
    },
    {
      "subId": 7216209,
      "mainId": 72162,
      "order": 12,
      "descTextMapHash": 1750591084,
      "finishCond": [
        {
          "damageRatio": "QUEST_CONTENT_FINISH_PLOT",
          "param": [
            7216209,
            0
          ]
        }
      ],
      "guide": {
        "damageRatio": "QUEST_GUIDE_NPC",
        "param": [
          "3063"
        ],
        "guideScene": 3,
        "MLAHIFLGIGJ": ""
      },
      "guideHint": {
        "param1": ""
      },
      "isRewind": true,
      "finishExec": [
        {
          "damageRatio": "QUEST_EXEC_NOTIFY_GROUP_LUA",
          "param": [
            "3",
            "133217229"
          ]
        }
      ],
      "versionBegin": "",
      "versionEnd": ""
    },
    {
      "subId": 7216210,
      "mainId": 72162,
      "order": 9,
      "descTextMapHash": 2803469204,
      "finishCond": [
        {
          "damageRatio": "QUEST_CONTENT_LUA_NOTIFY",
          "param": [
            0,
            0
          ],
          "count": 1
        }
      ],
      "guide": {
        "damageRatio": "QUEST_GUIDE_GADGET",
        "autoGuide": "QUEST_GUIDE_AUTO_ENABLE",
        "param": [
          "133217006",
          "6023",
          "-4427:205:-3973"
        ],
        "guideScene": 3,
        "MLAHIFLGIGJ": ""
      },
      "guideHint": {
        "param1": ""
      },
      "isRewind": true,
      "versionBegin": "",
      "versionEnd": ""
    },
    {
      "subId": 7216211,
      "mainId": 72162,
      "order": 14,
      "descTextMapHash": 1001452724,
      "finishCond": [
        {
          "damageRatio": "QUEST_CONTENT_FINISH_PLOT",
          "param": [
            7216211,
            0
          ]
        }
      ],
      "guide": {
        "damageRatio": "QUEST_GUIDE_LOCATION",
        "param": [
          "WQ72162_TengYuanZD01",
          "20"
        ],
        "guideScene": 3,
        "MLAHIFLGIGJ": ""
      },
      "guideHint": {
        "param1": ""
      },
      "isRewind": true,
      "versionBegin": "",
      "versionEnd": ""
    },
    {
      "subId": 7216212,
      "mainId": 72162,
      "order": 15,
      "descTextMapHash": 3017793692,
      "finishCond": [
        {
          "damageRatio": "QUEST_CONTENT_FINISH_PLOT",
          "param": [
            7216212,
            0
          ]
        }
      ],
      "guide": {
        "damageRatio": "QUEST_GUIDE_NPC",
        "param": [
          "3063"
        ],
        "guideScene": 3,
        "MLAHIFLGIGJ": ""
      },
      "guideHint": {
        "param1": ""
      },
      "isRewind": true,
      "versionBegin": "",
      "versionEnd": ""
    },
    {
      "subId": 7216213,
      "mainId": 72162,
      "order": 18,
      "descTextMapHash": 808358244,
      "finishCond": [
        {
          "damageRatio": "QUEST_CONTENT_COMPLETE_TALK",
          "param": [
            7216207,
            0
          ]
        }
      ],
      "guide": {
        "damageRatio": "QUEST_GUIDE_NPC",
        "param": [
          "3063"
        ],
        "guideScene": 3,
        "MLAHIFLGIGJ": ""
      },
      "guideHint": {
        "param1": ""
      },
      "isRewind": true,
      "versionBegin": "",
      "versionEnd": ""
    },
    {
      "subId": 7216214,
      "mainId": 72162,
      "order": 21,
      "descTextMapHash": 562973572,
      "finishCond": [
        {
          "damageRatio": "QUEST_CONTENT_LUA_NOTIFY",
          "param": [
            0,
            0
          ],
          "count": 1
        }
      ],
      "guide": {
        "damageRatio": "QUEST_GUIDE_LOCATION",
        "param": [
          "WQ72162_TYZD_YWS",
          "20"
        ],
        "guideScene": 3,
        "MLAHIFLGIGJ": ""
      },
      "guideHint": {
        "param1": ""
      },
      "isRewind": true,
      "versionBegin": "",
      "versionEnd": ""
    },
    {
      "subId": 7216215,
      "mainId": 72162,
      "order": 22,
      "descTextMapHash": 703821764,
      "finishCond": [
        {
          "damageRatio": "QUEST_CONTENT_COMPLETE_TALK",
          "param": [
            7216209,
            0
          ]
        }
      ],
      "guide": {
        "damageRatio": "QUEST_GUIDE_NPC",
        "param": [
          "3063",
          "SELECT_NPC_NONE"
        ],
        "guideScene": 3,
        "MLAHIFLGIGJ": ""
      },
      "guideHint": {
        "param1": ""
      },
      "isRewind": true,
      "versionBegin": "",
      "versionEnd": ""
    },
    {
      "subId": 7216216,
      "mainId": 72162,
      "order": 1,
      "descTextMapHash": 963833644,
      "showType": "QUEST_HIDDEN",
      "finishCond": [
        {
          "damageRatio": "QUEST_CONTENT_FINISH_PLOT",
          "param": [
            7216216,
            0
          ]
        }
      ],
      "guide": {
        "MLAHIFLGIGJ": ""
      },
      "guideHint": {
        "param1": ""
      },
      "versionBegin": "",
      "versionEnd": ""
    },
    {
      "subId": 7216217,
      "mainId": 72162,
      "order": 8,
      "descTextMapHash": 2508533604,
      "finishCond": [
        {
          "damageRatio": "QUEST_CONTENT_COMPLETE_TALK",
          "param": [
            7216203,
            0
          ]
        }
      ],
      "guide": {
        "damageRatio": "QUEST_GUIDE_NPC",
        "param": [
          "3063"
        ],
        "guideScene": 3,
        "MLAHIFLGIGJ": ""
      },
      "guideHint": {
        "param1": ""
      },
      "isRewind": true,
      "versionBegin": "",
      "versionEnd": ""
    },
    {
      "subId": 7216219,
      "mainId": 72162,
      "order": 13,
      "descTextMapHash": 1083277244,
      "finishCond": [
        {
          "damageRatio": "QUEST_CONTENT_COMPLETE_TALK",
          "param": [
            7216204,
            0
          ]
        }
      ],
      "guide": {
        "damageRatio": "QUEST_GUIDE_NPC",
        "param": [
          "3063"
        ],
        "guideScene": 3,
        "MLAHIFLGIGJ": ""
      },
      "guideHint": {
        "param1": ""
      },
      "isRewind": true,
      "versionBegin": "",
      "versionEnd": ""
    },
    {
      "subId": 7216220,
      "mainId": 72162,
      "order": 17,
      "descTextMapHash": 1939322132,
      "finishCond": [
        {
          "damageRatio": "QUEST_CONTENT_LUA_NOTIFY",
          "param": [
            0,
            0
          ],
          "count": 1
        }
      ],
      "guide": {
        "damageRatio": "QUEST_GUIDE_LOCATION",
        "param": [
          "WQ72162_TYZD_DBT",
          "20"
        ],
        "guideScene": 3,
        "MLAHIFLGIGJ": ""
      },
      "guideHint": {
        "param1": ""
      },
      "isRewind": true,
      "versionBegin": "",
      "versionEnd": ""
    },
    {
      "subId": 7216221,
      "mainId": 72162,
      "order": 19,
      "descTextMapHash": 1732705788,
      "finishCond": [
        {
          "damageRatio": "QUEST_CONTENT_FINISH_PLOT",
          "param": [
            7216221,
            0
          ]
        }
      ],
      "guide": {
        "damageRatio": "QUEST_GUIDE_NPC",
        "param": [
          "3063"
        ],
        "guideScene": 3,
        "MLAHIFLGIGJ": ""
      },
      "guideHint": {
        "param1": ""
      },
      "isRewind": true,
      "versionBegin": "",
      "versionEnd": ""
    },
    {
      "subId": 7216222,
      "mainId": 72162,
      "order": 23,
      "descTextMapHash": 3866531884,
      "finishCond": [
        {
          "damageRatio": "QUEST_CONTENT_FINISH_PLOT",
          "param": [
            7216222,
            0
          ]
        }
      ],
      "guide": {
        "damageRatio": "QUEST_GUIDE_NPC",
        "param": [
          "3063"
        ],
        "guideScene": 3,
        "MLAHIFLGIGJ": ""
      },
      "guideHint": {
        "param1": ""
      },
      "isRewind": true,
      "versionBegin": "",
      "versionEnd": ""
    },
    {
      "subId": 7216223,
      "mainId": 72162,
      "order": 25,
      "descTextMapHash": 3223517332,
      "finishCond": [
        {
          "damageRatio": "QUEST_CONTENT_LUA_NOTIFY",
          "param": [
            0,
            0
          ],
          "count": 1
        }
      ],
      "guide": {
        "damageRatio": "QUEST_GUIDE_LOCATION",
        "param": [
          "WQ72162_TYZD_YRZ",
          "20"
        ],
        "guideScene": 3,
        "MLAHIFLGIGJ": ""
      },
      "guideHint": {
        "param1": ""
      },
      "isRewind": true,
      "versionBegin": "",
      "versionEnd": ""
    },
    {
      "subId": 7216224,
      "mainId": 72162,
      "order": 26,
      "descTextMapHash": 2841178140,
      "finishCond": [
        {
          "damageRatio": "QUEST_CONTENT_COMPLETE_TALK",
          "param": [
            7216211,
            0
          ]
        }
      ],
      "guide": {
        "damageRatio": "QUEST_GUIDE_NPC",
        "param": [
          "3063"
        ],
        "guideScene": 3,
        "MLAHIFLGIGJ": ""
      },
      "guideHint": {
        "param1": ""
      },
      "isRewind": true,
      "versionBegin": "",
      "versionEnd": ""
    },
    {
      "subId": 7216225,
      "mainId": 72162,
      "order": 27,
      "descTextMapHash": 43755588,
      "finishCond": [
        {
          "damageRatio": "QUEST_CONTENT_FINISH_PLOT",
          "param": [
            7216225,
            0
          ]
        }
      ],
      "guide": {
        "damageRatio": "QUEST_GUIDE_NPC",
        "param": [
          "3063"
        ],
        "guideScene": 3,
        "MLAHIFLGIGJ": ""
      },
      "guideHint": {
        "param1": ""
      },
      "isRewind": true,
      "versionBegin": "",
      "versionEnd": ""
    },
    {
      "subId": 7216226,
      "mainId": 72162,
      "order": 30,
      "descTextMapHash": 3355922396,
      "finishCond": [
        {
          "damageRatio": "QUEST_CONTENT_COMPLETE_TALK",
          "param": [
            7216213,
            0
          ]
        }
      ],
      "guide": {
        "damageRatio": "QUEST_GUIDE_NPC",
        "param": [
          "3063"
        ],
        "guideScene": 3,
        "MLAHIFLGIGJ": ""
      },
      "guideHint": {
        "param1": ""
      },
      "finishParent": true,
      "isRewind": true,
      "versionBegin": "",
      "versionEnd": ""
    },
    {
      "subId": 7216227,
      "mainId": 72162,
      "order": 16,
      "descTextMapHash": 2938043100,
      "finishCond": [
        {
          "damageRatio": "QUEST_CONTENT_COMPLETE_TALK",
          "param": [
            7216206,
            0
          ]
        }
      ],
      "guide": {
        "damageRatio": "QUEST_GUIDE_NPC",
        "param": [
          "3063"
        ],
        "guideScene": 3,
        "MLAHIFLGIGJ": ""
      },
      "guideHint": {
        "param1": ""
      },
      "isRewind": true,
      "versionBegin": "",
      "versionEnd": ""
    },
    {
      "subId": 7216228,
      "mainId": 72162,
      "order": 20,
      "descTextMapHash": 1432039684,
      "finishCond": [
        {
          "damageRatio": "QUEST_CONTENT_COMPLETE_TALK",
          "param": [
            7216208,
            0
          ]
        }
      ],
      "guide": {
        "damageRatio": "QUEST_GUIDE_NPC",
        "param": [
          "3063"
        ],
        "guideScene": 3,
        "MLAHIFLGIGJ": ""
      },
      "guideHint": {
        "param1": ""
      },
      "isRewind": true,
      "versionBegin": "",
      "versionEnd": ""
    },
    {
      "subId": 7216229,
      "mainId": 72162,
      "order": 24,
      "descTextMapHash": 563266100,
      "finishCond": [
        {
          "damageRatio": "QUEST_CONTENT_COMPLETE_TALK",
          "param": [
            7216210,
            0
          ]
        }
      ],
      "guide": {
        "damageRatio": "QUEST_GUIDE_NPC",
        "param": [
          "3063"
        ],
        "guideScene": 3,
        "MLAHIFLGIGJ": ""
      },
      "guideHint": {
        "param1": ""
      },
      "isRewind": true,
      "versionBegin": "",
      "versionEnd": ""
    },
    {
      "subId": 7216230,
      "mainId": 72162,
      "order": 28,
      "descTextMapHash": 3316856228,
      "finishCond": [
        {
          "damageRatio": "QUEST_CONTENT_COMPLETE_TALK",
          "param": [
            7216212,
            0
          ]
        }
      ],
      "guide": {
        "damageRatio": "QUEST_GUIDE_NPC",
        "param": [
          "3063"
        ],
        "guideScene": 3,
        "MLAHIFLGIGJ": ""
      },
      "guideHint": {
        "param1": ""
      },
      "isRewind": true,
      "versionBegin": "",
      "versionEnd": ""
    },
    {
      "subId": 7216231,
      "mainId": 72162,
      "order": 29,
      "descTextMapHash": 2818712764,
      "finishCond": [
        {
          "damageRatio": "QUEST_CONTENT_FINISH_PLOT",
          "param": [
            7216231,
            0
          ]
        }
      ],
      "guide": {
        "damageRatio": "QUEST_GUIDE_NPC",
        "param": [
          "3063"
        ],
        "guideScene": 3,
        "MLAHIFLGIGJ": ""
      },
      "guideHint": {
        "param1": ""
      },
      "isRewind": true,
      "versionBegin": "",
      "versionEnd": ""
    }
  ],
  "talks": [
    {
      "id": 7216201,
      "beginWay": "TALK_BEGIN_MANUAL",
      "activeMode": "PLAY_MODE_HOST",
      "beginCond": [
        {
          "type": "QUEST_COND_STATE_EQUAL",
          "_param": [
            "7216202",
            "2"
          ]
        }
      ],
      "priority": 9,
      "initDialog": 721620101,
      "npcId": [
        3063,
        1005
      ],
      "performCfg": "QuestDialogue/WQ/Inazuma_72162/Q7216201",
      "heroTalk": "TALK_HERO_MAIN",
      "questId": 72162,
      "assetIndex": 10486937953515154620,
      "prePerformCfg": "",
      "talkMarkType": "TALK_MARK_COMMON"
    },
    {
      "id": 7216202,
      "beginWay": "TALK_BEGIN_MANUAL",
      "activeMode": "PLAY_MODE_HOST",
      "beginCondComb": "LOGIC_OR",
      "beginCond": [
        {
          "type": "QUEST_COND_STATE_EQUAL",
          "_param": [
            "7216203",
            "2"
          ]
        },
        {
          "type": "QUEST_COND_STATE_EQUAL",
          "_param": [
            "7216205",
            "2"
          ]
        },
        {
          "type": "QUEST_COND_STATE_EQUAL",
          "_param": [
            "7216210",
            "2"
          ]
        },
        {
          "type": "QUEST_COND_STATE_EQUAL",
          "_param": [
            "7216207",
            "2"
          ]
        },
        {
          "type": "QUEST_COND_STATE_EQUAL",
          "_param": [
            "7216208",
            "2"
          ]
        }
      ],
      "priority": 5,
      "initDialog": 721620201,
      "npcId": [
        3063
      ],
      "performCfg": "",
      "heroTalk": "TALK_HERO_MAIN",
      "questId": 72162,
      "assetIndex": 6641063445091523681,
      "prePerformCfg": ""
    },
    {
      "id": 7216203,
      "beginWay": "TALK_BEGIN_MANUAL",
      "activeMode": "PLAY_MODE_HOST",
      "beginCond": [
        {
          "type": "QUEST_COND_STATE_EQUAL",
          "_param": [
            "7216217",
            "2"
          ]
        }
      ],
      "priority": 9,
      "initDialog": 721620301,
      "npcId": [
        3063
      ],
      "performCfg": "QuestDialogue/WQ/Inazuma_72162/Q7216203",
      "heroTalk": "TALK_HERO_MAIN",
      "questId": 72162,
      "assetIndex": 383837195722524085,
      "prePerformCfg": ""
    },
    {
      "id": 7216204,
      "beginWay": "TALK_BEGIN_MANUAL",
      "activeMode": "PLAY_MODE_HOST",
      "beginCond": [
        {
          "type": "QUEST_COND_STATE_EQUAL",
          "_param": [
            "7216219",
            "2"
          ]
        }
      ],
      "priority": 9,
      "initDialog": 721620401,
      "npcId": [
        3063
      ],
      "performCfg": "",
      "heroTalk": "TALK_HERO_MAIN",
      "questId": 72162,
      "assetIndex": 17136911066311518867,
      "prePerformCfg": ""
    },
    {
      "id": 7216206,
      "beginWay": "TALK_BEGIN_AUTO",
      "activeMode": "PLAY_MODE_HOST",
      "beginCond": [
        {
          "type": "QUEST_COND_STATE_EQUAL",
          "_param": [
            "7216227",
            "2"
          ]
        }
      ],
      "priority": 9,
      "initDialog": 721620601,
      "npcId": [
        3063,
        20382
      ],
      "performCfg": "QuestDialogue/WQ/Inazuma_72162/Q7216206",
      "heroTalk": "TALK_HERO_MAIN",
      "questId": 72162,
      "assetIndex": 6217547053337326354,
      "prePerformCfg": ""
    },
    {
      "id": 7216207,
      "beginWay": "TALK_BEGIN_AUTO",
      "activeMode": "PLAY_MODE_HOST",
      "beginCond": [
        {
          "type": "QUEST_COND_STATE_EQUAL",
          "_param": [
            "7216213",
            "2"
          ]
        }
      ],
      "priority": 9,
      "initDialog": 721620701,
      "npcId": [
        3063
      ],
      "performCfg": "QuestDialogue/WQ/Inazuma_72162/Q7216207",
      "heroTalk": "TALK_HERO_MAIN",
      "questId": 72162,
      "assetIndex": 12151925125929218272,
      "prePerformCfg": ""
    },
    {
      "id": 7216208,
      "beginWay": "TALK_BEGIN_AUTO",
      "activeMode": "PLAY_MODE_HOST",
      "beginCond": [
        {
          "type": "QUEST_COND_STATE_EQUAL",
          "_param": [
            "7216228",
            "2"
          ]
        }
      ],
      "priority": 9,
      "initDialog": 721620801,
      "npcId": [
        3063,
        20383
      ],
      "performCfg": "QuestDialogue/WQ/Inazuma_72162/Q7216208",
      "heroTalk": "TALK_HERO_MAIN",
      "questId": 72162,
      "assetIndex": 10225953137031045457,
      "prePerformCfg": ""
    },
    {
      "id": 7216209,
      "beginWay": "TALK_BEGIN_AUTO",
      "activeMode": "PLAY_MODE_HOST",
      "beginCond": [
        {
          "type": "QUEST_COND_STATE_EQUAL",
          "_param": [
            "7216215",
            "2"
          ]
        }
      ],
      "priority": 9,
      "initDialog": 721620901,
      "npcId": [
        3063
      ],
      "performCfg": "QuestDialogue/WQ/Inazuma_72162/Q7216209",
      "heroTalk": "TALK_HERO_MAIN",
      "questId": 72162,
      "assetIndex": 15215220569721312484,
      "prePerformCfg": ""
    },
    {
      "id": 7216210,
      "beginWay": "TALK_BEGIN_AUTO",
      "activeMode": "PLAY_MODE_HOST",
      "beginCond": [
        {
          "type": "QUEST_COND_STATE_EQUAL",
          "_param": [
            "7216229",
            "2"
          ]
        }
      ],
      "priority": 9,
      "initDialog": 721621001,
      "npcId": [
        3063,
        20381,
        1005
      ],
      "performCfg": "QuestDialogue/WQ/Inazuma_72162/Q7216210",
      "heroTalk": "TALK_HERO_MAIN",
      "questId": 72162,
      "assetIndex": 1329691796313648617,
      "prePerformCfg": ""
    },
    {
      "id": 7216211,
      "beginWay": "TALK_BEGIN_AUTO",
      "activeMode": "PLAY_MODE_HOST",
      "beginCond": [
        {
          "type": "QUEST_COND_STATE_EQUAL",
          "_param": [
            "7216224",
            "2"
          ]
        }
      ],
      "priority": 9,
      "initDialog": 721621101,
      "npcId": [
        3063
      ],
      "performCfg": "QuestDialogue/WQ/Inazuma_72162/Q7216211",
      "heroTalk": "TALK_HERO_MAIN",
      "questId": 72162,
      "assetIndex": 1278616161179908239,
      "prePerformCfg": ""
    },
    {
      "id": 7216212,
      "beginWay": "TALK_BEGIN_AUTO",
      "activeMode": "PLAY_MODE_HOST",
      "beginCond": [
        {
          "type": "QUEST_COND_STATE_EQUAL",
          "_param": [
            "7216230",
            "2"
          ]
        }
      ],
      "priority": 9,
      "initDialog": 721621201,
      "npcId": [
        20380,
        3063
      ],
      "performCfg": "QuestDialogue/WQ/Inazuma_72162/Q7216212",
      "heroTalk": "TALK_HERO_MAIN",
      "questId": 72162,
      "assetIndex": 3184447751385180244,
      "prePerformCfg": ""
    },
    {
      "id": 7216213,
      "beginWay": "TALK_BEGIN_MANUAL",
      "activeMode": "PLAY_MODE_HOST",
      "beginCond": [
        {
          "type": "QUEST_COND_STATE_EQUAL",
          "_param": [
            "7216226",
            "2"
          ]
        }
      ],
      "priority": 9,
      "initDialog": 721621301,
      "npcId": [
        3063
      ],
      "performCfg": "QuestDialogue/WQ/Inazuma_72162/Q7216213",
      "heroTalk": "TALK_HERO_MAIN",
      "questId": 72162,
      "assetIndex": 7859039293428195403,
      "prePerformCfg": ""
    },
    {
      "id": 7216214,
      "beginWay": "TALK_BEGIN_AUTO",
      "activeMode": "PLAY_MODE_HOST",
      "beginCond": [
        {
          "type": "QUEST_COND_STATE_EQUAL",
          "_param": [
            "7216204",
            "2"
          ]
        }
      ],
      "priority": 5,
      "initDialog": 721629902,
      "npcId": [
        3063
      ],
      "performCfg": "QuestDialogue/WQ/Inazuma_72162/Q7216214",
      "heroTalk": "TALK_HERO_MAIN",
      "questId": 72162,
      "assetIndex": 4278208319638672348,
      "prePerformCfg": ""
    }
  ],
  "preloadLuaList": [
    17787966528755422940,
    514980542875889314,
    8258315969763324376,
    12760461316061192972,
    16311779304822793934,
    14862841165300217139,
    13264873986891868994,
    10694140087136628555
  ],
  "forcePreloadLuaList": [
    1300852918456107056
  ],
  "freeStyleDic": {
    "3063": [
      4190,
      1120
    ]
  }
}