{
  "id": 72185,
  "damageRatio": "WQ",
  "descTextMapHash": 436160431,
  "EKEKACCODOE": 1242001198,
  "luaPath": "Actor/Quest/WQ72185",
  "rewardIdList": [
    172184
  ],
  "subQuests": [
    {
      "subId": 7218501,
      "mainId": 72185,
      "order": 1,
      "descTextMapHash": 3078982260,
      "finishCond": [
        {
          "damageRatio": "QUEST_CONTENT_COMPLETE_TALK",
          "param": [
            7218501,
            0
          ]
        }
      ],
      "guide": {
        "damageRatio": "QUEST_GUIDE_NPC",
        "autoGuide": "QUEST_GUIDE_AUTO_ENABLE",
        "param": [
          "3044"
        ],
        "guideScene": 3,
        "guideStyle": "QUEST_GUIDE_STYLE_START",
        "guideLayer": "QUEST_GUIDE_LAYER_SCENE",
        "MLAHIFLGIGJ": ""
      },
      "guideHint": {
        "param1": ""
      },
      "isRewind": true,
      "versionBegin": "",
      "versionEnd": ""
    },
    {
      "subId": 7218502,
      "mainId": 72185,
      "order": 2,
      "descTextMapHash": 61063004,
      "finishCond": [
        {
          "damageRatio": "QUEST_CONTENT_COMPLETE_TALK",
          "param": [
            7218502,
            0
          ]
        }
      ],
      "guide": {
        "damageRatio": "QUEST_GUIDE_NPC",
        "autoGuide": "QUEST_GUIDE_AUTO_ENABLE",
        "param": [
          "3018"
        ],
        "guideScene": 3,
        "guideStyle": "QUEST_GUIDE_STYLE_TARGET",
        "guideLayer": "QUEST_GUIDE_LAYER_SCENE",
        "MLAHIFLGIGJ": ""
      },
      "guideHint": {
        "param1": ""
      },
      "isRewind": true,
      "versionBegin": "",
      "versionEnd": ""
    },
    {
      "subId": 7218503,
      "mainId": 72185,
      "order": 3,
      "descTextMapHash": 566709420,
      "finishCond": [
        {
          "damageRatio": "QUEST_CONTENT_COMPLETE_TALK",
          "param": [
            7218503,
            0
          ]
        }
      ],
      "guide": {
        "damageRatio": "QUEST_GUIDE_NPC",
        "autoGuide": "QUEST_GUIDE_AUTO_ENABLE",
        "param": [
          "3044"
        ],
        "guideScene": 3,
        "guideStyle": "QUEST_GUIDE_STYLE_TARGET",
        "guideLayer": "QUEST_GUIDE_LAYER_SCENE",
        "MLAHIFLGIGJ": ""
      },
      "guideHint": {
        "param1": ""
      },
      "isRewind": true,
      "versionBegin": "",
      "versionEnd": ""
    },
    {
      "subId": 7218504,
      "mainId": 72185,
      "order": 4,
      "descTextMapHash": 688958060,
      "finishCond": [
        {
          "damageRatio": "QUEST_CONTENT_FINISH_ITEM_GIVING",
          "param": [
            7218501,
            0
          ]
        }
      ],
      "guide": {
        "damageRatio": "QUEST_GUIDE_NPC",
        "autoGuide": "QUEST_GUIDE_AUTO_ENABLE",
        "param": [
          "3044"
        ],
        "guideScene": 3,
        "guideStyle": "QUEST_GUIDE_STYLE_TARGET",
        "guideLayer": "QUEST_GUIDE_LAYER_SCENE",
        "MLAHIFLGIGJ": ""
      },
      "guideHint": {
        "param1": ""
      },
      "isRewind": true,
      "versionBegin": "",
      "versionEnd": ""
    },
    {
      "subId": 7218505,
      "mainId": 72185,
      "order": 5,
      "descTextMapHash": 2133622772,
      "finishCond": [
        {
          "damageRatio": "QUEST_CONTENT_COMPLETE_TALK",
          "param": [
            7218505,
            0
          ]
        }
      ],
      "guide": {
        "damageRatio": "QUEST_GUIDE_NPC",
        "autoGuide": "QUEST_GUIDE_AUTO_ENABLE",
        "param": [
          "3044"
        ],
        "guideScene": 3,
        "guideStyle": "QUEST_GUIDE_STYLE_TARGET",
        "guideLayer": "QUEST_GUIDE_LAYER_SCENE",
        "MLAHIFLGIGJ": ""
      },
      "guideHint": {
        "param1": ""
      },
      "finishParent": true,
      "isRewind": true,
      "versionBegin": "",
      "versionEnd": ""
    }
  ],
  "talks": [
    {
      "id": 7218502,
      "beginWay": "TALK_BEGIN_MANUAL",
      "beginCond": [
        {
          "type": "QUEST_COND_STATE_EQUAL",
          "_param": [
            "7218502",
            "2"
          ]
        }
      ],
      "priority": 5,
      "initDialog": 721850201,
      "npcId": [
        3018
      ],
      "performCfg": "",
      "heroTalk": "TALK_HERO_MAIN",
      "questId": 72185,
      "assetIndex": 11980656367259241657,
      "prePerformCfg": "",
      "freeStyleList": [
        1190,
        1171,
        1172,
        1173
      ]
    },
    {
      "id": 7218503,
      "beginWay": "TALK_BEGIN_MANUAL",
      "beginCond": [
        {
          "type": "QUEST_COND_STATE_EQUAL",
          "_param": [
            "7218503",
            "2"
          ]
        }
      ],
      "priority": 5,
      "initDialog": 721850301,
      "npcId": [
        3044
      ],
      "performCfg": "",
      "heroTalk": "TALK_HERO_MAIN",
      "questId": 72185,
      "assetIndex": 7315368097478349712,
      "prePerformCfg": "",
      "freeStyleList": [
        1171,
        1172,
        1173,
        1190,
        1110
      ]
    },
    {
      "id": 7218504,
      "beginWay": "TALK_BEGIN_MANUAL",
      "beginCondComb": "LOGIC_AND",
      "beginCond": [
        {
          "type": "QUEST_COND_STATE_EQUAL",
          "_param": [
            "7218504",
            "2"
          ]
        },
        {
          "type": "QUEST_COND_ITEM_GIVING_ACTIVED",
          "_param": [
            "7218501"
          ]
        }
      ],
      "priority": 5,
      "initDialog": 721850401,
      "npcId": [
        3044
      ],
      "performCfg": "",
      "heroTalk": "TALK_HERO_MAIN",
      "questId": 72185,
      "assetIndex": 2365093375207711012,
      "prePerformCfg": ""
    },
    {
      "id": 7218505,
      "beginWay": "TALK_BEGIN_AUTO",
      "beginCond": [
        {
          "type": "QUEST_COND_STATE_EQUAL",
          "_param": [
            "7218505",
            "2"
          ]
        }
      ],
      "priority": 5,
      "initDialog": 721850501,
      "npcId": [
        3044
      ],
      "performCfg": "QuestDialogue/WQ/Inazuma_72185/Q7218505",
      "heroTalk": "TALK_HERO_MAIN",
      "questId": 72185,
      "assetIndex": 9186976223862749806,
      "prePerformCfg": ""
    },
    {
      "id": 7218506,
      "beginWay": "TALK_BEGIN_MANUAL",
      "beginCond": [
        {
          "type": "QUEST_COND_STATE_EQUAL",
          "_param": [
            "7218502",
            "2"
          ]
        }
      ],
      "priority": 5,
      "initDialog": 721850601,
      "npcId": [
        3044
      ],
      "performCfg": "",
      "heroTalk": "TALK_HERO_MAIN",
      "questId": 72185,
      "assetIndex": 18082050385948317935,
      "prePerformCfg": ""
    },
    {
      "id": 7218507,
      "beginWay": "TALK_BEGIN_MANUAL",
      "beginCondComb": "LOGIC_OR",
      "beginCond": [
        {
          "type": "QUEST_COND_STATE_EQUAL",
          "_param": [
            "7218503",
            "2"
          ]
        },
        {
          "type": "QUEST_COND_STATE_EQUAL",
          "_param": [
            "7218504",
            "2"
          ]
        },
        {
          "type": "QUEST_COND_STATE_EQUAL",
          "_param": [
            "7218505",
            "2"
          ]
        }
      ],
      "priority": 5,
      "initDialog": 721850701,
      "npcId": [
        3018
      ],
      "performCfg": "",
      "heroTalk": "TALK_HERO_MAIN",
      "questId": 72185,
      "assetIndex": 6183254125740202321,
      "prePerformCfg": ""
    }
  ]
}