{
  "id": 72197,
  "damageRatio": "WQ",
  "descTextMapHash": 639573895,
  "EKEKACCODOE": 2764967006,
  "luaPath": "Actor/Quest/WQ72197",
  "subQuests": [
    {
      "subId": 7219712,
      "mainId": 72197,
      "order": 22,
      "descTextMapHash": 1462384932,
      "showType": "QUEST_HIDDEN",
      "finishCond": [
        {
          "damageRatio": "QUEST_CONTENT_FINISH_ITEM_GIVING",
          "param": [
            7214001,
            0
          ]
        }
      ],
      "guide": {
        "MLAHIFLGIGJ": ""
      },
      "guideHint": {
        "param1": ""
      },
      "versionBegin": "",
      "versionEnd": ""
    },
    {
      "subId": 7219713,
      "mainId": 72197,
      "order": 24,
      "descTextMapHash": 1066312908,
      "showType": "QUEST_HIDDEN",
      "finishCond": [
        {
          "damageRatio": "QUEST_CONTENT_OBTAIN_ITEM",
          "param": [
            100974,
            0
          ],
          "count": 1
        }
      ],
      "guide": {
        "MLAHIFLGIGJ": ""
      },
      "guideHint": {
        "param1": ""
      },
      "versionBegin": "",
      "versionEnd": ""
    },
    {
      "subId": 7219714,
      "mainId": 72197,
      "order": 25,
      "descTextMapHash": 2270226132,
      "showType": "QUEST_HIDDEN",
      "finishCond": [
        {
          "damageRatio": "QUEST_CONTENT_COMPLETE_TALK",
          "param": [
            7219720,
            0
          ]
        }
      ],
      "guide": {
        "MLAHIFLGIGJ": ""
      },
      "guideHint": {
        "param1": ""
      },
      "isRewind": true,
      "versionBegin": "",
      "versionEnd": ""
    },
    {
      "subId": 7219715,
      "mainId": 72197,
      "order": 26,
      "descTextMapHash": 1442762044,
      "showType": "QUEST_HIDDEN",
      "finishCond": [
        {
          "damageRatio": "QUEST_CONTENT_COMPLETE_TALK",
          "param": [
            7219723,
            0
          ]
        }
      ],
      "guide": {
        "MLAHIFLGIGJ": ""
      },
      "guideHint": {
        "param1": ""
      },
      "finishParent": true,
      "isRewind": true,
      "versionBegin": "",
      "versionEnd": ""
    },
    {
      "subId": 7219721,
      "mainId": 72197,
      "order": 23,
      "descTextMapHash": 2706052612,
      "showType": "QUEST_HIDDEN",
      "finishCond": [
        {
          "damageRatio": "QUEST_CONTENT_COMPLETE_TALK",
          "param": [
            7219719,
            0
          ]
        }
      ],
      "guide": {
        "MLAHIFLGIGJ": ""
      },
      "guideHint": {
        "param1": ""
      },
      "isRewind": true,
      "versionBegin": "",
      "versionEnd": ""
    },
    {
      "subId": 7219722,
      "mainId": 72197,
      "order": 21,
      "descTextMapHash": 255480668,
      "showType": "QUEST_HIDDEN",
      "finishCond": [
        {
          "damageRatio": "QUEST_CONTENT_COMPLETE_TALK",
          "param": [
            7219717,
            0
          ]
        }
      ],
      "guide": {
        "MLAHIFLGIGJ": ""
      },
      "guideHint": {
        "param1": ""
      },
      "isRewind": true,
      "versionBegin": "",
      "versionEnd": ""
    },
    {
      "subId": 7219723,
      "mainId": 72197,
      "order": 20,
      "descTextMapHash": 4024488740,
      "showType": "QUEST_HIDDEN",
      "finishCond": [
        {
          "damageRatio": "QUEST_CONTENT_TIME_VAR_PASS_DAY",
          "param": [
            72140,
            0
          ]
        }
      ],
      "guide": {
        "MLAHIFLGIGJ": ""
      },
      "guideHint": {
        "param1": ""
      },
      "isRewind": true,
      "versionBegin": "",
      "versionEnd": ""
    }
  ],
  "talks": [
    {
      "id": 7219717,
      "beginWay": "TALK_BEGIN_MANUAL",
      "beginCond": [
        {
          "type": "QUEST_COND_STATE_EQUAL",
          "_param": [
            "7219722",
            "2"
          ]
        }
      ],
      "priority": 5,
      "initDialog": 721971701,
      "npcId": [
        20240
      ],
      "performCfg": "QuestDialogue/WQ/Inazuma_72140/Q7214017",
      "questId": 72197,
      "assetIndex": 11533403528081921726,
      "prePerformCfg": "",
      "lockGameTime": true
    },
    {
      "id": 7219718,
      "beginWay": "TALK_BEGIN_MANUAL",
      "beginCondComb": "LOGIC_AND",
      "beginCond": [
        {
          "type": "QUEST_COND_STATE_EQUAL",
          "_param": [
            "7219712",
            "2"
          ]
        },
        {
          "type": "QUEST_COND_ITEM_GIVING_ACTIVED",
          "_param": [
            "7214001"
          ]
        }
      ],
      "priority": 5,
      "initDialog": 721971801,
      "npcId": [
        20240
      ],
      "performCfg": "",
      "questId": 72197,
      "assetIndex": 793500779541369875,
      "prePerformCfg": "",
      "lockGameTime": true
    },
    {
      "id": 7219719,
      "beginWay": "TALK_BEGIN_AUTO",
      "beginCond": [
        {
          "type": "QUEST_COND_STATE_EQUAL",
          "_param": [
            "7219721",
            "2"
          ]
        }
      ],
      "priority": 5,
      "initDialog": 721971901,
      "npcId": [
        20240
      ],
      "performCfg": "QuestDialogue/WQ/Inazuma_72140/Q7214019",
      "questId": 72197,
      "assetIndex": 4636842826103542241,
      "prePerformCfg": "",
      "enableCameraDisplacement": true,
      "lockGameTime": true
    },
    {
      "id": 7219720,
      "beginWay": "TALK_BEGIN_MANUAL",
      "beginCond": [
        {
          "type": "QUEST_COND_STATE_EQUAL",
          "_param": [
            "7219714",
            "2"
          ]
        }
      ],
      "priority": 5,
      "initDialog": 721972001,
      "npcId": [
        20240
      ],
      "performCfg": "QuestDialogue/WQ/Inazuma_72140/Q7214020",
      "questId": 72197,
      "assetIndex": 2672582302118884889,
      "prePerformCfg": "",
      "enableCameraDisplacement": true,
      "lockGameTime": true
    },
    {
      "id": 7219721,
      "priority": 5,
      "initDialog": 721972101,
      "npcId": [
        20240
      ],
      "performCfg": "QuestDialogue/WQ/Inazuma_72140/Q7214021",
      "questId": 72197,
      "assetIndex": 9088752139909174149,
      "prePerformCfg": "",
      "lockGameTime": true
    },
    {
      "id": 7219722,
      "priority": 5,
      "initDialog": 721972201,
      "npcId": [
        20240
      ],
      "performCfg": "",
      "questId": 72197,
      "assetIndex": 17979654552565429356,
      "prePerformCfg": "",
      "lockGameTime": true
    },
    {
      "id": 7219723,
      "beginWay": "TALK_BEGIN_MANUAL",
      "beginCond": [
        {
          "type": "QUEST_COND_STATE_EQUAL",
          "_param": [
            "7219715",
            "2"
          ]
        }
      ],
      "priority": 5,
      "initDialog": 721972301,
      "npcId": [
        20240
      ],
      "performCfg": "QuestDialogue/WQ/Inazuma_72140/Q7214023",
      "questId": 72197,
      "assetIndex": 17599456933487582525,
      "prePerformCfg": "",
      "lockGameTime": true
    },
    {
      "id": 7219724,
      "priority": 5,
      "initDialog": 721972401,
      "npcId": [
        20240
      ],
      "performCfg": "QuestDialogue/WQ/Inazuma_72140/Q7214024",
      "questId": 72197,
      "assetIndex": 10107290571584908218,
      "prePerformCfg": "",
      "lockGameTime": true
    },
    {
      "id": 7219725,
      "priority": 5,
      "initDialog": 721972501,
      "npcId": [
        20240
      ],
      "performCfg": "",
      "questId": 72197,
      "assetIndex": 17619605818974560418,
      "prePerformCfg": "",
      "lockGameTime": true
    }
  ]
}