{
  "id": 72214,
  "damageRatio": "WQ",
  "descTextMapHash": 4040838791,
  "EKEKACCODOE": 757238158,
  "luaPath": "Actor/Quest/WQ72214",
  "rewardIdList": [
    172214
  ],
  "subQuests": [
    {
      "subId": 7221401,
      "mainId": 72214,
      "order": 1,
      "descTextMapHash": 1978946644,
      "showType": "QUEST_HIDDEN",
      "finishCond": [
        {
          "damageRatio": "QUEST_CONTENT_COMPLETE_TALK",
          "param": [
            7221401,
            0
          ]
        }
      ],
      "guide": {
        "MLAHIFLGIGJ": ""
      },
      "guideHint": {
        "param1": ""
      },
      "versionBegin": "",
      "versionEnd": ""
    },
    {
      "subId": 7221402,
      "mainId": 72214,
      "order": 2,
      "isMpBlock": true,
      "descTextMapHash": 3416857916,
      "finishCond": [
        {
          "damageRatio": "QUEST_CONTENT_COMPLETE_TALK",
          "param": [
            7221402,
            0
          ]
        }
      ],
      "guide": {
        "damageRatio": "QUEST_GUIDE_NPC",
        "param": [
          "3182"
        ],
        "guideScene": 3,
        "MLAHIFLGIGJ": ""
      },
      "guideHint": {
        "param1": ""
      },
      "isRewind": true,
      "versionBegin": "",
      "versionEnd": ""
    },
    {
      "subId": 7221403,
      "mainId": 72214,
      "order": 4,
      "isMpBlock": true,
      "descTextMapHash": 264535556,
      "finishCond": [
        {
          "damageRatio": "QUEST_CONTENT_COMPLETE_TALK",
          "param": [
            7221404,
            0
          ]
        }
      ],
      "guide": {
        "MLAHIFLGIGJ": ""
      },
      "guideHint": {
        "param1": ""
      },
      "finishParent": true,
      "isRewind": true,
      "finishExec": [
        {
          "damageRatio": "QUEST_EXEC_INIT_TIME_VAR",
          "param": [
            "1"
          ]
        }
      ],
      "versionBegin": "",
      "versionEnd": ""
    },
    {
      "subId": 7221404,
      "mainId": 72214,
      "order": 3,
      "isMpBlock": true,
      "descTextMapHash": 3987855908,
      "finishCond": [
        {
          "damageRatio": "QUEST_CONTENT_FINISH_ITEM_GIVING",
          "param": [
            7221404,
            0
          ]
        }
      ],
      "guide": {
        "damageRatio": "QUEST_GUIDE_NPC",
        "param": [
          "3182"
        ],
        "guideScene": 3,
        "MLAHIFLGIGJ": ""
      },
      "guideHint": {
        "param1": ""
      },
      "isRewind": true,
      "versionBegin": "",
      "versionEnd": ""
    }
  ],
  "talks": [
    {
      "id": 7221401,
      "beginWay": "TALK_BEGIN_MANUAL",
      "beginCond": [
        {
          "type": "QUEST_COND_STATE_EQUAL",
          "_param": [
            "7221401",
            "2"
          ]
        }
      ],
      "priority": 5,
      "initDialog": 722140101,
      "npcId": [
        3189
      ],
      "performCfg": "",
      "heroTalk": "TALK_HERO_MAIN",
      "questId": 72214,
      "assetIndex": 15728207026744569232,
      "prePerformCfg": "",
      "talkMarkType": "TALK_MARK_COMMON"
    },
    {
      "id": 7221402,
      "beginWay": "TALK_BEGIN_MANUAL",
      "beginCond": [
        {
          "type": "QUEST_COND_STATE_EQUAL",
          "_param": [
            "7221402",
            "2"
          ]
        }
      ],
      "priority": 5,
      "initDialog": 722140201,
      "npcId": [
        3182
      ],
      "performCfg": "",
      "heroTalk": "TALK_HERO_MAIN",
      "questId": 72214,
      "assetIndex": 14807837344868570930,
      "prePerformCfg": ""
    },
    {
      "id": 7221403,
      "beginWay": "TALK_BEGIN_MANUAL",
      "beginCondComb": "LOGIC_AND",
      "beginCond": [
        {
          "type": "QUEST_COND_STATE_EQUAL",
          "_param": [
            "7221404",
            "2"
          ]
        },
        {
          "type": "QUEST_COND_ITEM_GIVING_ACTIVED",
          "_param": [
            "7221404"
          ]
        }
      ],
      "priority": 5,
      "initDialog": 722140301,
      "npcId": [
        3182
      ],
      "performCfg": "",
      "heroTalk": "TALK_HERO_MAIN",
      "questId": 72214,
      "assetIndex": 17022619586707849545,
      "prePerformCfg": ""
    },
    {
      "id": 7221404,
      "beginWay": "TALK_BEGIN_AUTO",
      "beginCond": [
        {
          "type": "QUEST_COND_STATE_EQUAL",
          "_param": [
            "7221403",
            "2"
          ]
        }
      ],
      "priority": 5,
      "initDialog": 722140401,
      "npcId": [
        3182
      ],
      "performCfg": "",
      "heroTalk": "TALK_HERO_MAIN",
      "questId": 72214,
      "assetIndex": 16138483693668898135,
      "prePerformCfg": ""
    }
  ]
}