{
  "id": 72244,
  "damageRatio": "WQ",
  "activeMode": "PLAY_MODE_ALL",
  "descTextMapHash": 3852405335,
  "EKEKACCODOE": 858442622,
  "luaPath": "Actor/Quest/WQ72244",
  "rewardIdList": [
    172244
  ],
  "subQuests": [
    {
      "subId": 7224401,
      "mainId": 72244,
      "order": 1,
      "descTextMapHash": 3766607476,
      "showType": "QUEST_HIDDEN",
      "finishCond": [
        {
          "damageRatio": "QUEST_CONTENT_COMPLETE_TALK",
          "param": [
            7224401,
            0
          ]
        }
      ],
      "guide": {
        "MLAHIFLGIGJ": ""
      },
      "guideHint": {
        "param1": ""
      },
      "isRewind": true,
      "finishExec": [
        {
          "damageRatio": "QUEST_EXEC_SET_QUEST_GLOBAL_VAR",
          "param": [
            "7219809",
            "1"
          ]
        }
      ],
      "versionBegin": "",
      "versionEnd": ""
    },
    {
      "subId": 7224402,
      "mainId": 72244,
      "order": 2,
      "subIdSet": 1,
      "descTextMapHash": 3731686548,
      "finishCond": [
        {
          "damageRatio": "QUEST_CONTENT_QUEST_STATE_EQUAL",
          "param": [
            7225301,
            3
          ]
        }
      ],
      "guide": {
        "damageRatio": "QUEST_GUIDE_LOCATION",
        "autoGuide": "QUEST_GUIDE_AUTO_ENABLE",
        "param": [
          "Q7224402_guide"
        ],
        "guideScene": 5,
        "guideStyle": "QUEST_GUIDE_STYLE_TARGET",
        "guideLayer": "QUEST_GUIDE_LAYER_SCENE",
        "MLAHIFLGIGJ": ""
      },
      "guideHint": {
        "param1": ""
      },
      "finishExec": [
        {
          "damageRatio": "QUEST_EXEC_INC_QUEST_VAR",
          "param": [
            "0",
            "1"
          ]
        }
      ],
      "versionBegin": "",
      "versionEnd": ""
    },
    {
      "subId": 7224403,
      "mainId": 72244,
      "order": 3,
      "subIdSet": 1,
      "descTextMapHash": 2967772164,
      "finishCond": [
        {
          "damageRatio": "QUEST_CONTENT_QUEST_STATE_EQUAL",
          "param": [
            7225401,
            3
          ]
        }
      ],
      "guide": {
        "damageRatio": "QUEST_GUIDE_LOCATION",
        "autoGuide": "QUEST_GUIDE_AUTO_ENABLE",
        "param": [
          "Q7224403_guide"
        ],
        "guideScene": 5,
        "guideStyle": "QUEST_GUIDE_STYLE_TARGET",
        "guideLayer": "QUEST_GUIDE_LAYER_SCENE",
        "MLAHIFLGIGJ": ""
      },
      "guideHint": {
        "param1": ""
      },
      "finishExec": [
        {
          "damageRatio": "QUEST_EXEC_INC_QUEST_VAR",
          "param": [
            "0",
            "1"
          ]
        }
      ],
      "versionBegin": "",
      "versionEnd": ""
    },
    {
      "subId": 7224404,
      "mainId": 72244,
      "order": 4,
      "subIdSet": 1,
      "descTextMapHash": 2451110044,
      "finishCond": [
        {
          "damageRatio": "QUEST_CONTENT_QUEST_STATE_EQUAL",
          "param": [
            7225501,
            3
          ]
        }
      ],
      "guide": {
        "damageRatio": "QUEST_GUIDE_LOCATION",
        "autoGuide": "QUEST_GUIDE_AUTO_ENABLE",
        "param": [
          "Q7224404_guide"
        ],
        "guideScene": 5,
        "guideStyle": "QUEST_GUIDE_STYLE_TARGET",
        "guideLayer": "QUEST_GUIDE_LAYER_SCENE",
        "MLAHIFLGIGJ": ""
      },
      "guideHint": {
        "param1": ""
      },
      "finishExec": [
        {
          "damageRatio": "QUEST_EXEC_INC_QUEST_VAR",
          "param": [
            "0",
            "1"
          ]
        }
      ],
      "versionBegin": "",
      "versionEnd": ""
    },
    {
      "subId": 7224405,
      "mainId": 72244,
      "order": 5,
      "subIdSet": 1,
      "descTextMapHash": 2046185436,
      "finishCond": [
        {
          "damageRatio": "QUEST_CONTENT_QUEST_STATE_EQUAL",
          "param": [
            7225601,
            3
          ]
        }
      ],
      "guide": {
        "damageRatio": "QUEST_GUIDE_LOCATION",
        "autoGuide": "QUEST_GUIDE_AUTO_ENABLE",
        "param": [
          "Q7224405_guide"
        ],
        "guideScene": 5,
        "guideStyle": "QUEST_GUIDE_STYLE_TARGET",
        "guideLayer": "QUEST_GUIDE_LAYER_SCENE",
        "MLAHIFLGIGJ": ""
      },
      "guideHint": {
        "param1": ""
      },
      "finishExec": [
        {
          "damageRatio": "QUEST_EXEC_INC_QUEST_VAR",
          "param": [
            "0",
            "1"
          ]
        }
      ],
      "versionBegin": "",
      "versionEnd": ""
    },
    {
      "subId": 7224406,
      "mainId": 72244,
      "order": 6,
      "subIdSet": 1,
      "descTextMapHash": 3615419996,
      "finishCond": [
        {
          "damageRatio": "QUEST_CONTENT_QUEST_STATE_EQUAL",
          "param": [
            7225701,
            3
          ]
        }
      ],
      "guide": {
        "damageRatio": "QUEST_GUIDE_LOCATION",
        "autoGuide": "QUEST_GUIDE_AUTO_ENABLE",
        "param": [
          "Q7224406_guide"
        ],
        "guideScene": 5,
        "guideStyle": "QUEST_GUIDE_STYLE_TARGET",
        "guideLayer": "QUEST_GUIDE_LAYER_SCENE",
        "MLAHIFLGIGJ": ""
      },
      "guideHint": {
        "param1": ""
      },
      "finishExec": [
        {
          "damageRatio": "QUEST_EXEC_INC_QUEST_VAR",
          "param": [
            "0",
            "1"
          ]
        }
      ],
      "versionBegin": "",
      "versionEnd": ""
    },
    {
      "subId": 7224407,
      "mainId": 72244,
      "order": 7,
      "subIdSet": 1,
      "descTextMapHash": 3029029068,
      "finishCond": [
        {
          "damageRatio": "QUEST_CONTENT_QUEST_STATE_EQUAL",
          "param": [
            7225801,
            3
          ]
        }
      ],
      "guide": {
        "damageRatio": "QUEST_GUIDE_LOCATION",
        "autoGuide": "QUEST_GUIDE_AUTO_ENABLE",
        "param": [
          "Q7224407_guide"
        ],
        "guideScene": 5,
        "guideStyle": "QUEST_GUIDE_STYLE_TARGET",
        "guideLayer": "QUEST_GUIDE_LAYER_SCENE",
        "MLAHIFLGIGJ": ""
      },
      "guideHint": {
        "param1": ""
      },
      "finishExec": [
        {
          "damageRatio": "QUEST_EXEC_INC_QUEST_VAR",
          "param": [
            "0",
            "1"
          ]
        }
      ],
      "versionBegin": "",
      "versionEnd": ""
    },
    {
      "subId": 7224408,
      "mainId": 72244,
      "order": 8,
      "subIdSet": 1,
      "descTextMapHash": 214364868,
      "finishCond": [
        {
          "damageRatio": "QUEST_CONTENT_QUEST_STATE_EQUAL",
          "param": [
            7225901,
            3
          ]
        }
      ],
      "guide": {
        "damageRatio": "QUEST_GUIDE_LOCATION",
        "autoGuide": "QUEST_GUIDE_AUTO_ENABLE",
        "param": [
          "Q7224408_guide"
        ],
        "guideScene": 5,
        "guideStyle": "QUEST_GUIDE_STYLE_TARGET",
        "guideLayer": "QUEST_GUIDE_LAYER_SCENE",
        "MLAHIFLGIGJ": ""
      },
      "guideHint": {
        "param1": ""
      },
      "finishExec": [
        {
          "damageRatio": "QUEST_EXEC_INC_QUEST_VAR",
          "param": [
            "0",
            "1"
          ]
        }
      ],
      "versionBegin": "",
      "versionEnd": ""
    },
    {
      "subId": 7224409,
      "mainId": 72244,
      "order": 9,
      "showType": "QUEST_HIDDEN",
      "finishCond": [
        {
          "damageRatio": "QUEST_CONTENT_QUEST_VAR_EQUAL",
          "param": [
            0,
            7
          ]
        }
      ],
      "guide": {
        "MLAHIFLGIGJ": ""
      },
      "guideHint": {
        "param1": ""
      },
      "isRewind": true,
      "versionBegin": "",
      "versionEnd": ""
    },
    {
      "subId": 7224410,
      "mainId": 72244,
      "order": 10,
      "descTextMapHash": 3025108492,
      "guideTipsTextMapHash": 3841576494,
      "finishCond": [
        {
          "damageRatio": "QUEST_CONTENT_COMPLETE_TALK",
          "param": [
            7224403,
            0
          ]
        }
      ],
      "guide": {
        "damageRatio": "QUEST_GUIDE_SHOW_OR_HIDE_NPC",
        "autoGuide": "QUEST_GUIDE_AUTO_ENABLE",
        "param": [
          "20346",
          "11",
          "2"
        ],
        "guideScene": 5,
        "guideStyle": "QUEST_GUIDE_STYLE_TARGET",
        "guideLayer": "QUEST_GUIDE_LAYER_UI",
        "MLAHIFLGIGJ": ""
      },
      "guideHint": {
        "param1": ""
      },
      "isRewind": true,
      "versionBegin": "",
      "versionEnd": ""
    },
    {
      "subId": 7224411,
      "mainId": 72244,
      "order": 11,
      "descTextMapHash": 834387668,
      "finishCond": [
        {
          "damageRatio": "QUEST_CONTENT_FINISH_PLOT",
          "param": [
            7224411,
            0
          ]
        }
      ],
      "guide": {
        "damageRatio": "QUEST_GUIDE_LOCATION",
        "autoGuide": "QUEST_GUIDE_AUTO_ENABLE",
        "param": [
          "Q7224411_guide"
        ],
        "guideScene": 5,
        "guideStyle": "QUEST_GUIDE_STYLE_TARGET",
        "guideLayer": "QUEST_GUIDE_LAYER_SCENE",
        "MLAHIFLGIGJ": ""
      },
      "guideHint": {
        "param1": ""
      },
      "isRewind": true,
      "finishExec": [
        {
          "damageRatio": "QUEST_EXEC_NOTIFY_GROUP_LUA",
          "param": [
            "5",
            "155006049,155006048"
          ]
        }
      ],
      "versionBegin": "",
      "versionEnd": ""
    },
    {
      "subId": 7224412,
      "mainId": 72244,
      "order": 12,
      "showType": "QUEST_HIDDEN",
      "finishCond": [
        {
          "damageRatio": "QUEST_CONTENT_FINISH_PLOT",
          "param": [
            7224412,
            0
          ]
        }
      ],
      "guide": {
        "MLAHIFLGIGJ": ""
      },
      "guideHint": {
        "param1": ""
      },
      "finishExec": [
        {
          "damageRatio": "QUEST_EXEC_NOTIFY_GROUP_LUA",
          "param": [
            "5",
            "155006049"
          ]
        },
        {
          "damageRatio": "QUEST_EXEC_SET_QUEST_GLOBAL_VAR",
          "param": [
            "7219809",
            "2"
          ]
        }
      ],
      "versionBegin": "",
      "versionEnd": ""
    },
    {
      "subId": 7224413,
      "mainId": 72244,
      "order": 13,
      "descTextMapHash": 2279573556,
      "guideTipsTextMapHash": 1199200766,
      "finishCond": [
        {
          "damageRatio": "QUEST_CONTENT_COMPLETE_TALK",
          "param": [
            7224404,
            0
          ]
        }
      ],
      "guide": {
        "damageRatio": "QUEST_GUIDE_SHOW_OR_HIDE_NPC",
        "autoGuide": "QUEST_GUIDE_AUTO_ENABLE",
        "param": [
          "20346",
          "11",
          "2"
        ],
        "guideScene": 5,
        "guideStyle": "QUEST_GUIDE_STYLE_TARGET",
        "guideLayer": "QUEST_GUIDE_LAYER_UI",
        "MLAHIFLGIGJ": ""
      },
      "guideHint": {
        "param1": ""
      },
      "isRewind": true,
      "versionBegin": "",
      "versionEnd": ""
    },
    {
      "subId": 7224414,
      "mainId": 72244,
      "order": 14,
      "descTextMapHash": 686714932,
      "guideTipsTextMapHash": 1194815926,
      "finishCond": [
        {
          "damageRatio": "QUEST_CONTENT_FINISH_ITEM_GIVING",
          "param": [
            7224401,
            0
          ]
        }
      ],
      "guide": {
        "damageRatio": "QUEST_GUIDE_SHOW_OR_HIDE_NPC",
        "autoGuide": "QUEST_GUIDE_AUTO_ENABLE",
        "param": [
          "20346",
          "11",
          "2"
        ],
        "guideScene": 5,
        "guideStyle": "QUEST_GUIDE_STYLE_TARGET",
        "guideLayer": "QUEST_GUIDE_LAYER_UI",
        "MLAHIFLGIGJ": ""
      },
      "guideHint": {
        "param1": ""
      },
      "isRewind": true,
      "versionBegin": "",
      "versionEnd": ""
    },
    {
      "subId": 7224415,
      "mainId": 72244,
      "order": 15,
      "descTextMapHash": 2693920308,
      "guideTipsTextMapHash": 2982776198,
      "finishCond": [
        {
          "damageRatio": "QUEST_CONTENT_COMPLETE_TALK",
          "param": [
            7224406,
            0
          ]
        }
      ],
      "guide": {
        "damageRatio": "QUEST_GUIDE_SHOW_OR_HIDE_NPC",
        "autoGuide": "QUEST_GUIDE_AUTO_ENABLE",
        "param": [
          "20346",
          "11",
          "2"
        ],
        "guideScene": 5,
        "guideStyle": "QUEST_GUIDE_STYLE_TARGET",
        "guideLayer": "QUEST_GUIDE_LAYER_UI",
        "MLAHIFLGIGJ": ""
      },
      "guideHint": {
        "param1": ""
      },
      "isRewind": true,
      "finishExec": [
        {
          "damageRatio": "QUEST_EXEC_NOTIFY_GROUP_LUA",
          "param": [
            "5",
            "155006049"
          ]
        }
      ],
      "versionBegin": "",
      "versionEnd": ""
    },
    {
      "subId": 7224416,
      "mainId": 72244,
      "order": 16,
      "descTextMapHash": 3188561556,
      "finishCond": [
        {
          "damageRatio": "QUEST_CONTENT_LUA_NOTIFY",
          "param": [
            0,
            0
          ],
          "count": 1
        }
      ],
      "guide": {
        "damageRatio": "QUEST_GUIDE_LOCATION",
        "autoGuide": "QUEST_GUIDE_AUTO_ENABLE",
        "param": [
          "Q7224411_guide"
        ],
        "guideScene": 5,
        "guideStyle": "QUEST_GUIDE_STYLE_POINT",
        "guideLayer": "QUEST_GUIDE_LAYER_SCENE",
        "MLAHIFLGIGJ": ""
      },
      "guideHint": {
        "param1": ""
      },
      "isRewind": true,
      "finishExec": [
        {
          "damageRatio": "QUEST_EXEC_NOTIFY_GROUP_LUA",
          "param": [
            "5",
            "155006049,155006187"
          ]
        }
      ],
      "versionBegin": "",
      "versionEnd": ""
    },
    {
      "subId": 7224423,
      "mainId": 72244,
      "order": 26,
      "showType": "QUEST_HIDDEN",
      "finishCond": [
        {
          "damageRatio": "QUEST_CONTENT_COMPLETE_TALK",
          "param": [
            7224411,
            0
          ]
        }
      ],
      "guide": {
        "MLAHIFLGIGJ": ""
      },
      "guideHint": {
        "param1": ""
      },
      "isRewind": true,
      "versionBegin": "",
      "versionEnd": ""
    },
    {
      "subId": 7224424,
      "mainId": 72244,
      "order": 17,
      "showType": "QUEST_HIDDEN",
      "finishCond": [
        {
          "damageRatio": "QUEST_CONTENT_FINISH_PLOT",
          "param": [
            7224424,
            0
          ]
        }
      ],
      "guide": {
        "MLAHIFLGIGJ": ""
      },
      "guideHint": {
        "param1": ""
      },
      "versionBegin": "",
      "versionEnd": ""
    },
    {
      "subId": 7224425,
      "mainId": 72244,
      "order": 27,
      "descTextMapHash": 2730712660,
      "guideTipsTextMapHash": 2850698206,
      "finishCond": [
        {
          "damageRatio": "QUEST_CONTENT_COMPLETE_TALK",
          "param": [
            7224412,
            0
          ]
        }
      ],
      "guide": {
        "damageRatio": "QUEST_GUIDE_SHOW_OR_HIDE_NPC",
        "autoGuide": "QUEST_GUIDE_AUTO_ENABLE",
        "param": [
          "20346",
          "11",
          "2"
        ],
        "guideScene": 5,
        "guideStyle": "QUEST_GUIDE_STYLE_TARGET",
        "guideLayer": "QUEST_GUIDE_LAYER_UI",
        "MLAHIFLGIGJ": ""
      },
      "guideHint": {
        "param1": ""
      },
      "finishParent": true,
      "isRewind": true,
      "versionBegin": "",
      "versionEnd": ""
    }
  ],
  "talks": [
    {
      "id": 7224401,
      "beginWay": "TALK_BEGIN_MANUAL",
      "activeMode": "PLAY_MODE_HOST",
      "beginCond": [
        {
          "type": "QUEST_COND_STATE_EQUAL",
          "_param": [
            "7224401",
            "2"
          ]
        }
      ],
      "priority": 5,
      "initDialog": 722440101,
      "npcId": [
        20346,
        1005
      ],
      "performCfg": "QuestDialogue/WQ/Inazuma_72244/Q7224401",
      "heroTalk": "TALK_HERO_MAIN",
      "questId": 72244,
      "assetIndex": 7155574443353824043,
      "prePerformCfg": "",
      "talkMarkType": "TALK_MARK_COMMON"
    },
    {
      "id": 7224402,
      "beginWay": "TALK_BEGIN_MANUAL",
      "activeMode": "PLAY_MODE_HOST",
      "beginCond": [
        {
          "type": "QUEST_COND_STATE_EQUAL",
          "_param": [
            "7224409",
            "2"
          ]
        }
      ],
      "priority": 5,
      "initDialog": 722440201,
      "npcId": [
        20346
      ],
      "performCfg": "",
      "heroTalk": "TALK_HERO_MAIN",
      "questId": 72244,
      "assetIndex": 15660426376368611465,
      "prePerformCfg": ""
    },
    {
      "id": 7224403,
      "beginWay": "TALK_BEGIN_MANUAL",
      "activeMode": "PLAY_MODE_HOST",
      "beginCond": [
        {
          "type": "QUEST_COND_STATE_EQUAL",
          "_param": [
            "7224410",
            "2"
          ]
        }
      ],
      "priority": 5,
      "initDialog": 722440301,
      "npcId": [
        20346
      ],
      "performCfg": "",
      "heroTalk": "TALK_HERO_MAIN",
      "questId": 72244,
      "assetIndex": 17519800471492521591,
      "prePerformCfg": ""
    },
    {
      "id": 7224404,
      "beginWay": "TALK_BEGIN_MANUAL",
      "activeMode": "PLAY_MODE_HOST",
      "beginCond": [
        {
          "type": "QUEST_COND_STATE_EQUAL",
          "_param": [
            "7224413",
            "2"
          ]
        }
      ],
      "priority": 5,
      "initDialog": 722440401,
      "npcId": [
        20346
      ],
      "performCfg": "",
      "heroTalk": "TALK_HERO_MAIN",
      "questId": 72244,
      "assetIndex": 8866325740105627629,
      "prePerformCfg": ""
    },
    {
      "id": 7224405,
      "beginWay": "TALK_BEGIN_MANUAL",
      "activeMode": "PLAY_MODE_HOST",
      "beginCond": [
        {
          "type": "QUEST_COND_STATE_EQUAL",
          "_param": [
            "7224414",
            "2"
          ]
        },
        {
          "type": "QUEST_COND_ITEM_GIVING_ACTIVED",
          "_param": [
            "7224401"
          ]
        }
      ],
      "priority": 5,
      "initDialog": 722440501,
      "npcId": [
        20346
      ],
      "performCfg": "",
      "heroTalk": "TALK_HERO_MAIN",
      "questId": 72244,
      "assetIndex": 1531472084182881634,
      "prePerformCfg": ""
    },
    {
      "id": 7224406,
      "beginWay": "TALK_BEGIN_MANUAL",
      "activeMode": "PLAY_MODE_HOST",
      "beginCond": [
        {
          "type": "QUEST_COND_STATE_EQUAL",
          "_param": [
            "7224415",
            "2"
          ]
        }
      ],
      "priority": 5,
      "initDialog": 722440601,
      "npcId": [
        20346
      ],
      "performCfg": "",
      "heroTalk": "TALK_HERO_MAIN",
      "questId": 72244,
      "assetIndex": 7801872018901071994,
      "prePerformCfg": ""
    },
    {
      "id": 7224411,
      "beginWay": "TALK_BEGIN_MANUAL",
      "activeMode": "PLAY_MODE_HOST",
      "beginCond": [
        {
          "type": "QUEST_COND_STATE_EQUAL",
          "_param": [
            "7224423",
            "2"
          ]
        }
      ],
      "priority": 5,
      "initDialog": 722441101,
      "npcId": [
        1005
      ],
      "performCfg": "",
      "heroTalk": "TALK_HERO_MAIN",
      "questId": 72244,
      "assetIndex": 13329269869034972820,
      "prePerformCfg": ""
    },
    {
      "id": 7224412,
      "beginWay": "TALK_BEGIN_MANUAL",
      "activeMode": "PLAY_MODE_HOST",
      "beginCond": [
        {
          "type": "QUEST_COND_STATE_EQUAL",
          "_param": [
            "7224425",
            "2"
          ]
        }
      ],
      "priority": 5,
      "initDialog": 722441201,
      "npcId": [
        20346
      ],
      "performCfg": "",
      "heroTalk": "TALK_HERO_MAIN",
      "questId": 72244,
      "assetIndex": 1889234310466141980,
      "prePerformCfg": ""
    },
    {
      "id": 7224413,
      "beginWay": "TALK_BEGIN_MANUAL",
      "activeMode": "PLAY_MODE_HOST",
      "beginCond": [
        {
          "type": "QUEST_COND_STATE_EQUAL",
          "_param": [
            "7224416",
            "2"
          ]
        }
      ],
      "priority": 5,
      "initDialog": 722441303,
      "npcId": [
        20346
      ],
      "performCfg": "",
      "heroTalk": "TALK_HERO_MAIN",
      "questId": 72244,
      "assetIndex": 1005973221524201671,
      "prePerformCfg": ""
    }
  ],
  "preloadLuaList": [
    1631167658280560862,
    14457059026087496718,
    6166622508422274669,
    7188039371772419721,
    14549054199007249013
  ],
  "forcePreloadLuaList": [
    15370761124254835606
  ]
}