{
  "id": 72249,
  "damageRatio": "WQ",
  "activeMode": "PLAY_MODE_ALL",
  "descTextMapHash": 2857607967,
  "EKEKACCODOE": 3020010350,
  "luaPath": "Actor/Quest/WQ72249",
  "chapterId": 10060,
  "subQuests": [
    {
      "subId": 7224901,
      "mainId": 72249,
      "order": 1,
      "descTextMapHash": 4287277452,
      "showType": "QUEST_HIDDEN",
      "finishCond": [
        {
          "damageRatio": "QUEST_CONTENT_LUA_NOTIFY",
          "param": [
            0,
            0
          ],
          "count": 1
        }
      ],
      "guide": {
        "MLAHIFLGIGJ": ""
      },
      "guideHint": {
        "param1": ""
      },
      "isRewind": true,
      "finishExec": [
        {
          "damageRatio": "QUEST_EXEC_SET_QUEST_GLOBAL_VAR",
          "param": [
            "7219807",
            "1"
          ]
        }
      ],
      "versionBegin": "",
      "versionEnd": ""
    },
    {
      "subId": 7224902,
      "mainId": 72249,
      "order": 3,
      "descTextMapHash": 2226889508,
      "guideTipsTextMapHash": 3551398238,
      "finishCond": [
        {
          "damageRatio": "QUEST_CONTENT_COMPLETE_TALK",
          "param": [
            7224905,
            0
          ]
        }
      ],
      "guide": {
        "damageRatio": "QUEST_GUIDE_SHOW_OR_HIDE_NPC",
        "autoGuide": "QUEST_GUIDE_AUTO_ENABLE",
        "param": [
          "20357",
          "11",
          "2"
        ],
        "guideScene": 5,
        "guideStyle": "QUEST_GUIDE_STYLE_TARGET",
        "guideLayer": "QUEST_GUIDE_LAYER_UI",
        "MLAHIFLGIGJ": ""
      },
      "guideHint": {
        "param1": ""
      },
      "isRewind": true,
      "finishExec": [
        {
          "damageRatio": "QUEST_EXEC_NOTIFY_GROUP_LUA",
          "param": [
            "5",
            "155008037"
          ]
        }
      ],
      "versionBegin": "",
      "versionEnd": ""
    },
    {
      "subId": 7224903,
      "mainId": 72249,
      "order": 4,
      "descTextMapHash": 3193432956,
      "showType": "QUEST_HIDDEN",
      "finishCond": [
        {
          "damageRatio": "QUEST_CONTENT_LUA_NOTIFY",
          "param": [
            0,
            0
          ],
          "count": 1
        }
      ],
      "failCond": [
        {
          "damageRatio": "QUEST_CONTENT_LUA_NOTIFY",
          "param": [
            0,
            0
          ],
          "count": 1
        }
      ],
      "guide": {
        "MLAHIFLGIGJ": ""
      },
      "guideHint": {
        "param1": ""
      },
      "isRewind": true,
      "failExec": [
        {
          "damageRatio": "QUEST_EXEC_ROLLBACK_QUEST",
          "param": [
            "7224902"
          ]
        }
      ],
      "versionBegin": "",
      "versionEnd": ""
    },
    {
      "subId": 7224904,
      "mainId": 72249,
      "order": 5,
      "descTextMapHash": 743635676,
      "guideTipsTextMapHash": 3531908894,
      "finishCond": [
        {
          "damageRatio": "QUEST_CONTENT_COMPLETE_TALK",
          "param": [
            7224902,
            0
          ]
        }
      ],
      "guide": {
        "damageRatio": "QUEST_GUIDE_SHOW_OR_HIDE_NPC",
        "autoGuide": "QUEST_GUIDE_AUTO_ENABLE",
        "param": [
          "20357",
          "11",
          "2"
        ],
        "guideScene": 5,
        "guideStyle": "QUEST_GUIDE_STYLE_TARGET",
        "guideLayer": "QUEST_GUIDE_LAYER_UI",
        "MLAHIFLGIGJ": ""
      },
      "guideHint": {
        "param1": ""
      },
      "finishParent": true,
      "isRewind": true,
      "versionBegin": "",
      "versionEnd": ""
    },
    {
      "subId": 7224905,
      "mainId": 72249,
      "order": 2,
      "descTextMapHash": 3993566340,
      "showType": "QUEST_HIDDEN",
      "finishCond": [
        {
          "damageRatio": "QUEST_CONTENT_COMPLETE_TALK",
          "param": [
            7224903,
            0
          ]
        }
      ],
      "guide": {
        "MLAHIFLGIGJ": ""
      },
      "guideHint": {
        "param1": ""
      },
      "isRewind": true,
      "versionBegin": "",
      "versionEnd": ""
    }
  ],
  "talks": [
    {
      "id": 7224901,
      "beginWay": "TALK_BEGIN_MANUAL",
      "activeMode": "PLAY_MODE_HOST",
      "beginCond": [
        {
          "type": "QUEST_COND_STATE_EQUAL",
          "_param": [
            "7224902",
            "2"
          ]
        }
      ],
      "priority": 5,
      "nextTalks": [
        7224905,
        7224906
      ],
      "initDialog": 722490101,
      "npcId": [
        20357
      ],
      "performCfg": "",
      "questId": 72249,
      "assetIndex": 12026485371870815737,
      "prePerformCfg": ""
    },
    {
      "id": 7224902,
      "beginWay": "TALK_BEGIN_MANUAL",
      "activeMode": "PLAY_MODE_HOST",
      "beginCond": [
        {
          "type": "QUEST_COND_STATE_EQUAL",
          "_param": [
            "7224904",
            "2"
          ]
        }
      ],
      "priority": 5,
      "initDialog": 722490201,
      "npcId": [
        20357,
        1005
      ],
      "performCfg": "QuestDialogue/WQ/Inazuma_72249/Q7224902",
      "questId": 72249,
      "assetIndex": 832297398895774774,
      "prePerformCfg": ""
    },
    {
      "id": 7224903,
      "beginWay": "TALK_BEGIN_MANUAL",
      "activeMode": "PLAY_MODE_HOST",
      "beginCond": [
        {
          "type": "QUEST_COND_STATE_EQUAL",
          "_param": [
            "7224905",
            "2"
          ]
        }
      ],
      "priority": 5,
      "initDialog": 722490301,
      "npcId": [
        20357,
        1005
      ],
      "performCfg": "QuestDialogue/WQ/Inazuma_72249/Q7224903",
      "questId": 72249,
      "assetIndex": 14357576643044141010,
      "prePerformCfg": "",
      "talkMarkType": "TALK_MARK_COMMON"
    },
    {
      "id": 7224905,
      "activeMode": "PLAY_MODE_HOST",
      "beginCond": [
        {
          "type": "QUEST_COND_STATE_EQUAL",
          "_param": [
            "7224902",
            "2"
          ]
        }
      ],
      "priority": 5,
      "initDialog": 722490501,
      "npcId": [
        20357
      ],
      "performCfg": "",
      "questId": 72249,
      "assetIndex": 7790576696282749808,
      "prePerformCfg": ""
    },
    {
      "id": 7224906,
      "activeMode": "PLAY_MODE_HOST",
      "beginCond": [
        {
          "type": "QUEST_COND_STATE_EQUAL",
          "_param": [
            "7224902",
            "2"
          ]
        }
      ],
      "priority": 5,
      "initDialog": 722490601,
      "npcId": [
        20357
      ],
      "performCfg": "",
      "questId": 72249,
      "assetIndex": 6277760791925124489,
      "prePerformCfg": ""
    }
  ],
  "preloadLuaList": [
    1631167658280560862
  ]
}