{
  "id": 72279,
  "resId": 4011,
  "damageRatio": "WQ",
  "mainQuestTag": "MAINQUEST_TAG_ACTIVITY",
  "descTextMapHash": 3945686575,
  "EKEKACCODOE": 926288614,
  "luaPath": "Actor/Quest/WQ72279",
  "rewardIdList": [
    172279
  ],
  "activityId": 2012,
  "subQuests": [
    {
      "subId": 7227901,
      "mainId": 72279,
      "order": 2,
      "descTextMapHash": 2325737692,
      "JIFODJPFKDF": [
        320905
      ],
      "finishCond": [
        {
          "damageRatio": "QUEST_CONTENT_COMPLETE_TALK",
          "param": [
            7227901,
            0
          ]
        }
      ],
      "guide": {
        "damageRatio": "QUEST_GUIDE_NPC",
        "param": [
          "20567"
        ],
        "guideScene": 3,
        "guideStyle": "QUEST_GUIDE_STYLE_START",
        "guideLayer": "QUEST_GUIDE_LAYER_SCENE",
        "MLAHIFLGIGJ": ""
      },
      "guideHint": {
        "param1": ""
      },
      "isRewind": true,
      "versionBegin": "",
      "versionEnd": ""
    },
    {
      "subId": 7227902,
      "mainId": 72279,
      "order": 3,
      "descTextMapHash": 4261292948,
      "JIFODJPFKDF": [
        72278
      ],
      "finishCond": [
        {
          "damageRatio": "QUEST_CONTENT_FINISH_PLOT",
          "param": [
            7227902,
            0
          ]
        }
      ],
      "guide": {
        "damageRatio": "QUEST_GUIDE_LOCATION",
        "param": [
          "Q7227902_N10000005",
          "0"
        ],
        "guideScene": 3,
        "guideStyle": "QUEST_GUIDE_STYLE_POINT",
        "guideLayer": "QUEST_GUIDE_LAYER_SCENE",
        "MLAHIFLGIGJ": ""
      },
      "guideHint": {
        "param1": ""
      },
      "isRewind": true,
      "versionBegin": "",
      "versionEnd": ""
    },
    {
      "subId": 7227903,
      "mainId": 72279,
      "order": 4,
      "descTextMapHash": 4228478932,
      "JIFODJPFKDF": [
        72278
      ],
      "finishCond": [
        {
          "damageRatio": "QUEST_CONTENT_COMPLETE_TALK",
          "param": [
            7227904,
            0
          ]
        }
      ],
      "guide": {
        "damageRatio": "QUEST_GUIDE_NPC",
        "param": [
          "1044"
        ],
        "guideScene": 3,
        "guideStyle": "QUEST_GUIDE_STYLE_TARGET",
        "guideLayer": "QUEST_GUIDE_LAYER_SCENE",
        "MLAHIFLGIGJ": ""
      },
      "guideHint": {
        "param1": ""
      },
      "isRewind": true,
      "versionBegin": "",
      "versionEnd": ""
    },
    {
      "subId": 7227904,
      "mainId": 72279,
      "order": 9,
      "descTextMapHash": 1651955188,
      "JIFODJPFKDF": [
        72278
      ],
      "finishCond": [
        {
          "damageRatio": "QUEST_CONTENT_COMPLETE_TALK",
          "param": [
            7227908,
            0
          ]
        }
      ],
      "guide": {
        "damageRatio": "QUEST_GUIDE_NPC",
        "param": [
          "20568"
        ],
        "guideScene": 3,
        "guideStyle": "QUEST_GUIDE_STYLE_TARGET",
        "guideLayer": "QUEST_GUIDE_LAYER_SCENE",
        "MLAHIFLGIGJ": ""
      },
      "guideHint": {
        "param1": ""
      },
      "isRewind": true,
      "versionBegin": "",
      "versionEnd": ""
    },
    {
      "subId": 7227905,
      "mainId": 72279,
      "order": 10,
      "subIdSet": 1,
      "isMpBlock": true,
      "descTextMapHash": 891891844,
      "JIFODJPFKDF": [
        72278
      ],
      "finishCond": [
        {
          "damageRatio": "QUEST_CONTENT_LUA_NOTIFY",
          "param": [
            0,
            0
          ],
          "count": 1
        }
      ],
      "guide": {
        "damageRatio": "QUEST_GUIDE_LOCATION",
        "param": [
          "Q7227908",
          "20"
        ],
        "guideScene": 3,
        "guideStyle": "QUEST_GUIDE_STYLE_POINT",
        "guideLayer": "QUEST_GUIDE_LAYER_SCENE",
        "MLAHIFLGIGJ": ""
      },
      "showGuide": "QUEST_GUIDE_ITEM_DISABLE",
      "guideHint": {
        "param1": ""
      },
      "versionBegin": "",
      "versionEnd": ""
    },
    {
      "subId": 7227906,
      "mainId": 72279,
      "order": 12,
      "descTextMapHash": 1716899660,
      "JIFODJPFKDF": [
        72278
      ],
      "finishCond": [
        {
          "damageRatio": "QUEST_CONTENT_COMPLETE_TALK",
          "param": [
            7227912,
            0
          ]
        }
      ],
      "guide": {
        "damageRatio": "QUEST_GUIDE_NPC",
        "param": [
          "20568"
        ],
        "guideScene": 3,
        "guideStyle": "QUEST_GUIDE_STYLE_TARGET",
        "guideLayer": "QUEST_GUIDE_LAYER_SCENE",
        "MLAHIFLGIGJ": ""
      },
      "showGuide": "QUEST_GUIDE_ITEM_DISABLE",
      "guideHint": {
        "param1": ""
      },
      "versionBegin": "",
      "versionEnd": ""
    },
    {
      "subId": 7227907,
      "mainId": 72279,
      "order": 13,
      "descTextMapHash": 1612528292,
      "JIFODJPFKDF": [
        72278
      ],
      "finishCond": [
        {
          "damageRatio": "QUEST_CONTENT_COMPLETE_TALK",
          "param": [
            7227909,
            0
          ]
        }
      ],
      "guide": {
        "damageRatio": "QUEST_GUIDE_NPC",
        "param": [
          "20565"
        ],
        "guideScene": 3,
        "guideStyle": "QUEST_GUIDE_STYLE_TARGET",
        "guideLayer": "QUEST_GUIDE_LAYER_SCENE",
        "MLAHIFLGIGJ": ""
      },
      "showGuide": "QUEST_GUIDE_ITEM_DISABLE",
      "guideHint": {
        "param1": ""
      },
      "versionBegin": "",
      "versionEnd": ""
    },
    {
      "subId": 7227908,
      "mainId": 72279,
      "order": 16,
      "descTextMapHash": 4086369796,
      "JIFODJPFKDF": [
        72278
      ],
      "finishCond": [
        {
          "damageRatio": "QUEST_CONTENT_COMPLETE_TALK",
          "param": [
            7227916,
            0
          ]
        }
      ],
      "guide": {
        "damageRatio": "QUEST_GUIDE_NPC",
        "param": [
          "20566"
        ],
        "guideScene": 3,
        "guideStyle": "QUEST_GUIDE_STYLE_TARGET",
        "guideLayer": "QUEST_GUIDE_LAYER_SCENE",
        "MLAHIFLGIGJ": ""
      },
      "guideHint": {
        "param1": ""
      },
      "versionBegin": "",
      "versionEnd": ""
    },
    {
      "subId": 7227909,
      "mainId": 72279,
      "order": 20,
      "descTextMapHash": 1518381276,
      "JIFODJPFKDF": [
        320905
      ],
      "finishCond": [
        {
          "damageRatio": "QUEST_CONTENT_FINISH_PLOT",
          "param": [
            7227909,
            0
          ]
        }
      ],
      "guide": {
        "damageRatio": "QUEST_GUIDE_LOCATION",
        "param": [
          "guide_Q7227909",
          "0"
        ],
        "guideScene": 3,
        "guideStyle": "QUEST_GUIDE_STYLE_POINT",
        "guideLayer": "QUEST_GUIDE_LAYER_SCENE",
        "MLAHIFLGIGJ": ""
      },
      "guideHint": {
        "param1": ""
      },
      "isRewind": true,
      "versionBegin": "",
      "versionEnd": ""
    },
    {
      "subId": 7227910,
      "mainId": 72279,
      "order": 21,
      "descTextMapHash": 88982436,
      "JIFODJPFKDF": [
        320905
      ],
      "finishCond": [
        {
          "damageRatio": "QUEST_CONTENT_COMPLETE_TALK",
          "param": [
            7227910,
            0
          ]
        }
      ],
      "guide": {
        "damageRatio": "QUEST_GUIDE_NPC",
        "param": [
          "1044"
        ],
        "guideScene": 3,
        "guideStyle": "QUEST_GUIDE_STYLE_TARGET",
        "guideLayer": "QUEST_GUIDE_LAYER_SCENE",
        "MLAHIFLGIGJ": ""
      },
      "guideHint": {
        "param1": ""
      },
      "finishParent": true,
      "finishExec": [
        {
          "damageRatio": "QUEST_EXEC_SET_QUEST_GLOBAL_VAR",
          "param": [
            "7227901",
            "1"
          ]
        }
      ],
      "versionBegin": "",
      "versionEnd": ""
    },
    {
      "subId": 7227911,
      "mainId": 72279,
      "order": 14,
      "isMpBlock": true,
      "descTextMapHash": 968617556,
      "JIFODJPFKDF": [
        72278
      ],
      "finishCond": [
        {
          "damageRatio": "QUEST_CONTENT_LUA_NOTIFY",
          "param": [
            0,
            0
          ],
          "count": 1
        }
      ],
      "guide": {
        "damageRatio": "QUEST_GUIDE_LOCATION",
        "param": [
          "Q7227812_N1035",
          "15"
        ],
        "guideScene": 3,
        "guideStyle": "QUEST_GUIDE_STYLE_POINT",
        "guideLayer": "QUEST_GUIDE_LAYER_SCENE",
        "MLAHIFLGIGJ": ""
      },
      "guideHint": {
        "param1": ""
      },
      "versionBegin": "",
      "versionEnd": ""
    },
    {
      "subId": 7227912,
      "mainId": 72279,
      "order": 8,
      "showType": "QUEST_HIDDEN",
      "finishCond": [
        {
          "damageRatio": "QUEST_CONTENT_QUEST_STATE_EQUAL",
          "param": [
            7227915,
            3
          ]
        }
      ],
      "guide": {
        "MLAHIFLGIGJ": ""
      },
      "showGuide": "QUEST_GUIDE_ITEM_DISABLE",
      "guideHint": {
        "param1": ""
      },
      "failParentShow": "QUEST_HIDDEN",
      "versionBegin": "",
      "versionEnd": ""
    },
    {
      "subId": 7227913,
      "mainId": 72279,
      "order": 15,
      "descTextMapHash": 2673571972,
      "JIFODJPFKDF": [
        72278
      ],
      "finishCond": [
        {
          "damageRatio": "QUEST_CONTENT_COMPLETE_TALK",
          "param": [
            7227915,
            0
          ]
        }
      ],
      "guide": {
        "damageRatio": "QUEST_GUIDE_NPC",
        "param": [
          "20565"
        ],
        "guideScene": 3,
        "guideStyle": "QUEST_GUIDE_STYLE_TARGET",
        "guideLayer": "QUEST_GUIDE_LAYER_SCENE",
        "MLAHIFLGIGJ": ""
      },
      "showGuide": "QUEST_GUIDE_ITEM_DISABLE",
      "guideHint": {
        "param1": ""
      },
      "versionBegin": "",
      "versionEnd": ""
    },
    {
      "subId": 7227914,
      "mainId": 72279,
      "order": 18,
      "descTextMapHash": 3463352620,
      "JIFODJPFKDF": [
        72278
      ],
      "finishCond": [
        {
          "damageRatio": "QUEST_CONTENT_FINISH_PLOT",
          "param": [
            7227914,
            0
          ]
        }
      ],
      "guide": {
        "damageRatio": "QUEST_GUIDE_LOCATION",
        "param": [
          "Q7227914_N10000005",
          "20"
        ],
        "guideScene": 3,
        "guideStyle": "QUEST_GUIDE_STYLE_POINT",
        "guideLayer": "QUEST_GUIDE_LAYER_SCENE",
        "MLAHIFLGIGJ": ""
      },
      "guideHint": {
        "param1": ""
      },
      "isRewind": true,
      "versionBegin": "",
      "versionEnd": ""
    },
    {
      "subId": 7227915,
      "mainId": 72279,
      "order": 19,
      "descTextMapHash": 536587220,
      "JIFODJPFKDF": [
        72278
      ],
      "finishCond": [
        {
          "damageRatio": "QUEST_CONTENT_COMPLETE_TALK",
          "param": [
            7227918,
            0
          ]
        }
      ],
      "guide": {
        "damageRatio": "QUEST_GUIDE_NPC",
        "param": [
          "20569"
        ],
        "guideScene": 3,
        "guideStyle": "QUEST_GUIDE_STYLE_TARGET",
        "guideLayer": "QUEST_GUIDE_LAYER_SCENE",
        "MLAHIFLGIGJ": ""
      },
      "guideHint": {
        "param1": ""
      },
      "finishExec": [
        {
          "damageRatio": "QUEST_EXEC_DEL_ALL_SPECIFIC_PACK_ITEM",
          "param": [
            "101648"
          ]
        }
      ],
      "versionBegin": "",
      "versionEnd": ""
    },
    {
      "subId": 7227916,
      "mainId": 72279,
      "order": 5,
      "descTextMapHash": 1960268620,
      "JIFODJPFKDF": [
        72278
      ],
      "finishCond": [
        {
          "damageRatio": "QUEST_CONTENT_COMPLETE_TALK",
          "param": [
            7227919,
            0
          ]
        }
      ],
      "guide": {
        "damageRatio": "QUEST_GUIDE_NPC",
        "param": [
          "1033"
        ],
        "guideScene": 3,
        "guideStyle": "QUEST_GUIDE_STYLE_TARGET",
        "guideLayer": "QUEST_GUIDE_LAYER_SCENE",
        "MLAHIFLGIGJ": ""
      },
      "guideHint": {
        "param1": ""
      },
      "isRewind": true,
      "versionBegin": "",
      "versionEnd": ""
    },
    {
      "subId": 7227917,
      "mainId": 72279,
      "order": 7,
      "showType": "QUEST_HIDDEN",
      "AKLAGMDECEM": "BAN_GROUP_TRANSPORT_ONLY",
      "finishCond": [
        {
          "damageRatio": "QUEST_CONTENT_FINISH_PLOT",
          "param": [
            7227917,
            0
          ]
        }
      ],
      "failCond": [
        {
          "damageRatio": "QUEST_CONTENT_LEAVE_SCENE_RANGE",
          "param": [
            3,
            100
          ]
        }
      ],
      "guide": {
        "MLAHIFLGIGJ": ""
      },
      "guideHint": {
        "param1": ""
      },
      "failParentShow": "QUEST_HIDDEN",
      "failExec": [
        {
          "damageRatio": "QUEST_EXEC_ROLLBACK_QUEST",
          "param": [
            "7227916"
          ]
        }
      ],
      "versionBegin": "",
      "versionEnd": ""
    },
    {
      "subId": 7227918,
      "mainId": 72279,
      "order": 11,
      "subIdSet": 1,
      "isMpBlock": true,
      "descTextMapHash": 606995660,
      "JIFODJPFKDF": [
        72278
      ],
      "finishCond": [
        {
          "damageRatio": "QUEST_CONTENT_LUA_NOTIFY",
          "param": [
            0,
            0
          ],
          "count": 1
        }
      ],
      "guide": {
        "damageRatio": "QUEST_GUIDE_LOCATION",
        "param": [
          "Q7227908",
          "20"
        ],
        "guideScene": 3,
        "guideStyle": "QUEST_GUIDE_STYLE_POINT",
        "guideLayer": "QUEST_GUIDE_LAYER_SCENE",
        "MLAHIFLGIGJ": ""
      },
      "showGuide": "QUEST_GUIDE_ITEM_DISABLE",
      "guideHint": {
        "param1": ""
      },
      "versionBegin": "",
      "versionEnd": ""
    },
    {
      "subId": 7227919,
      "mainId": 72279,
      "order": 1,
      "showType": "QUEST_HIDDEN",
      "finishCond": [
        {
          "damageRatio": "QUEST_CONTENT_FINISH_PLOT",
          "param": [
            7227919,
            0
          ]
        }
      ],
      "guide": {
        "MLAHIFLGIGJ": ""
      },
      "guideHint": {
        "param1": ""
      },
      "failParentShow": "QUEST_HIDDEN",
      "isRewind": true,
      "versionBegin": "",
      "versionEnd": ""
    },
    {
      "subId": 7227920,
      "mainId": 72279,
      "order": 6,
      "showType": "QUEST_HIDDEN",
      "finishCond": [
        {
          "damageRatio": "QUEST_CONTENT_GAME_TIME_TICK",
          "param": [
            0,
            0
          ]
        }
      ],
      "guide": {
        "MLAHIFLGIGJ": ""
      },
      "guideHint": {
        "param1": ""
      },
      "failParentShow": "QUEST_HIDDEN",
      "versionBegin": "",
      "versionEnd": ""
    },
    {
      "subId": 7227921,
      "mainId": 72279,
      "order": 17,
      "showType": "QUEST_HIDDEN",
      "JIFODJPFKDF": [
        72278
      ],
      "finishCond": [
        {
          "damageRatio": "QUEST_CONTENT_COMPLETE_TALK",
          "param": [
            7227916,
            0
          ]
        }
      ],
      "guide": {
        "MLAHIFLGIGJ": ""
      },
      "guideHint": {
        "param1": ""
      },
      "failParentShow": "QUEST_HIDDEN",
      "isRewind": true,
      "finishExec": [
        {
          "damageRatio": "QUEST_EXEC_UNREGISTER_DYNAMIC_GROUP",
          "param": [
            "133209098",
            "0"
          ]
        },
        {
          "damageRatio": "QUEST_EXEC_UNREGISTER_DYNAMIC_GROUP",
          "param": [
            "133209091",
            "0"
          ]
        }
      ],
      "versionBegin": "",
      "versionEnd": ""
    }
  ],
  "talks": [
    {
      "id": 7227901,
      "beginWay": "TALK_BEGIN_MANUAL",
      "beginCond": [
        {
          "type": "QUEST_COND_STATE_EQUAL",
          "_param": [
            "7227901",
            "2"
          ]
        }
      ],
      "priority": 5,
      "initDialog": 722790101,
      "npcId": [
        20567
      ],
      "performCfg": "QuestDialogue/WQ/Inazuma_72279/Q7227901",
      "heroTalk": "TALK_HERO_MAIN",
      "questId": 72279,
      "assetIndex": 16416558488683121706,
      "prePerformCfg": ""
    },
    {
      "id": 7227904,
      "beginWay": "TALK_BEGIN_MANUAL",
      "beginCond": [
        {
          "type": "QUEST_COND_STATE_EQUAL",
          "_param": [
            "7227903",
            "2"
          ]
        }
      ],
      "priority": 5,
      "initDialog": 722790401,
      "npcId": [
        1044
      ],
      "performCfg": "QuestDialogue/WQ/Inazuma_72279/Q7227904",
      "heroTalk": "TALK_HERO_MAIN",
      "questId": 72279,
      "assetIndex": 1654325219820781319,
      "prePerformCfg": ""
    },
    {
      "id": 7227908,
      "beginWay": "TALK_BEGIN_MANUAL",
      "beginCond": [
        {
          "type": "QUEST_COND_STATE_EQUAL",
          "_param": [
            "7227904",
            "2"
          ]
        }
      ],
      "priority": 5,
      "initDialog": 722790801,
      "npcId": [
        20568
      ],
      "performCfg": "QuestDialogue/WQ/Inazuma_72279/Q7227908",
      "heroTalk": "TALK_HERO_MAIN",
      "questId": 72279,
      "assetIndex": 8122991372354081320,
      "prePerformCfg": ""
    },
    {
      "id": 7227909,
      "beginWay": "TALK_BEGIN_MANUAL",
      "beginCond": [
        {
          "type": "QUEST_COND_STATE_EQUAL",
          "_param": [
            "7227907",
            "2"
          ]
        }
      ],
      "priority": 5,
      "initDialog": 722790901,
      "npcId": [
        20565
      ],
      "performCfg": "QuestDialogue/WQ/Inazuma_72279/Q7227909",
      "heroTalk": "TALK_HERO_MAIN",
      "questId": 72279,
      "assetIndex": 9948322015229913057,
      "prePerformCfg": ""
    },
    {
      "id": 7227910,
      "beginWay": "TALK_BEGIN_MANUAL",
      "beginCond": [
        {
          "type": "QUEST_COND_STATE_EQUAL",
          "_param": [
            "7227910",
            "2"
          ]
        }
      ],
      "priority": 5,
      "initDialog": 722791001,
      "npcId": [
        1044,
        12278,
        12276,
        12277,
        1033,
        3081
      ],
      "performCfg": "QuestDialogue/WQ/Inazuma_72279/Q7227910",
      "heroTalk": "TALK_HERO_MAIN",
      "questId": 72279,
      "assetIndex": 5305939922329331041,
      "prePerformCfg": ""
    },
    {
      "id": 7227911,
      "beginWay": "TALK_BEGIN_MANUAL",
      "beginCondComb": "LOGIC_OR",
      "beginCond": [
        {
          "type": "QUEST_COND_STATE_EQUAL",
          "_param": [
            "7227905",
            "2"
          ]
        },
        {
          "type": "QUEST_COND_STATE_EQUAL",
          "_param": [
            "7227918",
            "2"
          ]
        }
      ],
      "priority": 5,
      "initDialog": 722791101,
      "npcId": [
        20568
      ],
      "performCfg": "QuestDialogue/WQ/Inazuma_72279/Q7227911",
      "heroTalk": "TALK_HERO_MAIN",
      "questId": 72279,
      "assetIndex": 1382626066101629455,
      "prePerformCfg": "",
      "lowPriority": true
    },
    {
      "id": 7227912,
      "beginWay": "TALK_BEGIN_MANUAL",
      "beginCond": [
        {
          "type": "QUEST_COND_STATE_EQUAL",
          "_param": [
            "7227906",
            "2"
          ]
        }
      ],
      "priority": 5,
      "initDialog": 722791201,
      "npcId": [
        20568
      ],
      "performCfg": "QuestDialogue/WQ/Inazuma_72279/Q7227912",
      "heroTalk": "TALK_HERO_MAIN",
      "questId": 72279,
      "assetIndex": 12156148553567820230,
      "prePerformCfg": ""
    },
    {
      "id": 7227913,
      "beginWay": "TALK_BEGIN_MANUAL",
      "beginCond": [
        {
          "type": "QUEST_COND_STATE_EQUAL",
          "_param": [
            "7227911",
            "2"
          ]
        }
      ],
      "priority": 5,
      "initDialog": 722791301,
      "npcId": [
        20565
      ],
      "performCfg": "QuestDialogue/WQ/Inazuma_72279/Q7227913",
      "heroTalk": "TALK_HERO_MAIN",
      "questId": 72279,
      "assetIndex": 8911796640983559719,
      "prePerformCfg": "",
      "lowPriority": true
    },
    {
      "id": 7227914,
      "beginWay": "TALK_BEGIN_MANUAL",
      "beginCondComb": "LOGIC_AND",
      "beginCond": [
        {
          "type": "QUEST_COND_STATE_EQUAL",
          "_param": [
            "99902",
            "3"
          ]
        },
        {
          "type": "QUEST_COND_ITEM_GIVING_ACTIVED",
          "_param": [
            "7227901"
          ]
        }
      ],
      "priority": 5,
      "initDialog": 722791401,
      "npcId": [
        20565
      ],
      "performCfg": "QuestDialogue/WQ/Inazuma_72279/Q7227914",
      "heroTalk": "TALK_HERO_MAIN",
      "questId": 72279,
      "assetIndex": 1897374899919378983,
      "prePerformCfg": ""
    },
    {
      "id": 7227915,
      "beginWay": "TALK_BEGIN_MANUAL",
      "beginCond": [
        {
          "type": "QUEST_COND_STATE_EQUAL",
          "_param": [
            "7227913",
            "2"
          ]
        }
      ],
      "priority": 5,
      "initDialog": 722791501,
      "npcId": [
        20565
      ],
      "performCfg": "QuestDialogue/WQ/Inazuma_72279/Q7227915",
      "heroTalk": "TALK_HERO_MAIN",
      "questId": 72279,
      "assetIndex": 17897421036008415126,
      "prePerformCfg": ""
    },
    {
      "id": 7227916,
      "beginWay": "TALK_BEGIN_MANUAL",
      "beginCond": [
        {
          "type": "QUEST_COND_STATE_EQUAL",
          "_param": [
            "7227908",
            "2"
          ]
        }
      ],
      "priority": 5,
      "initDialog": 722791601,
      "npcId": [
        20566
      ],
      "performCfg": "QuestDialogue/WQ/Inazuma_72279/Q7227916",
      "heroTalk": "TALK_HERO_MAIN",
      "questId": 72279,
      "assetIndex": 12037837083405326044,
      "prePerformCfg": ""
    },
    {
      "id": 7227917,
      "beginWay": "TALK_BEGIN_MANUAL",
      "beginCondComb": "LOGIC_OR",
      "beginCond": [
        {
          "type": "QUEST_COND_STATE_EQUAL",
          "_param": [
            "7227914",
            "2"
          ]
        },
        {
          "type": "QUEST_COND_STATE_EQUAL",
          "_param": [
            "7227915",
            "2"
          ]
        },
        {
          "type": "QUEST_COND_STATE_EQUAL",
          "_param": [
            "7227921",
            "2"
          ]
        }
      ],
      "priority": 5,
      "initDialog": 722791701,
      "npcId": [
        20566
      ],
      "performCfg": "QuestDialogue/WQ/Inazuma_72279/Q7227917",
      "heroTalk": "TALK_HERO_MAIN",
      "questId": 72279,
      "assetIndex": 3050486779967830768,
      "prePerformCfg": "",
      "lowPriority": true
    },
    {
      "id": 7227918,
      "beginWay": "TALK_BEGIN_MANUAL",
      "beginCond": [
        {
          "type": "QUEST_COND_STATE_EQUAL",
          "_param": [
            "7227915",
            "2"
          ]
        }
      ],
      "priority": 5,
      "initDialog": 722791801,
      "npcId": [
        20569
      ],
      "performCfg": "QuestDialogue/WQ/Inazuma_72279/Q7227918",
      "heroTalk": "TALK_HERO_MAIN",
      "questId": 72279,
      "assetIndex": 8741961930550462952,
      "prePerformCfg": ""
    },
    {
      "id": 7227919,
      "beginWay": "TALK_BEGIN_MANUAL",
      "beginCond": [
        {
          "type": "QUEST_COND_STATE_EQUAL",
          "_param": [
            "7227916",
            "2"
          ]
        }
      ],
      "priority": 5,
      "initDialog": 722791901,
      "npcId": [
        1033
      ],
      "performCfg": "QuestDialogue/WQ/Inazuma_72279/Q7227919",
      "heroTalk": "TALK_HERO_MAIN",
      "questId": 72279,
      "assetIndex": 6559979829475187900,
      "prePerformCfg": ""
    },
    {
      "id": 7227920,
      "beginWay": "TALK_BEGIN_MANUAL",
      "beginCond": [
        {
          "type": "QUEST_COND_STATE_EQUAL",
          "_param": [
            "7227912",
            "2"
          ]
        }
      ],
      "initDialog": 722792001,
      "npcId": [
        1033
      ],
      "performCfg": "QuestDialogue/WQ/Inazuma_72279/Q7227920",
      "heroTalk": "TALK_HERO_MAIN",
      "questId": 72279,
      "assetIndex": 4006889936176386954,
      "prePerformCfg": "",
      "lowPriority": true
    },
    {
      "id": 7227921,
      "beginWay": "TALK_BEGIN_MANUAL",
      "beginCondComb": "LOGIC_A_AND_ETCOR",
      "beginCond": [
        {
          "type": "QUEST_COND_STATE_EQUAL",
          "_param": [
            "7227906",
            "3"
          ]
        },
        {
          "type": "QUEST_COND_STATE_EQUAL",
          "_param": [
            "7227921",
            "2"
          ]
        },
        {
          "type": "QUEST_COND_STATE_EQUAL",
          "_param": [
            "7227914",
            "2"
          ]
        }
      ],
      "priority": 5,
      "initDialog": 722791101,
      "npcId": [
        20568
      ],
      "performCfg": "QuestDialogue/WQ/Inazuma_72279/Q7227911",
      "heroTalk": "TALK_HERO_MAIN",
      "questId": 72279,
      "assetIndex": 511444537867940176,
      "prePerformCfg": "",
      "lowPriority": true
    },
    {
      "id": 7227922,
      "beginWay": "TALK_BEGIN_MANUAL",
      "beginCondComb": "LOGIC_A_AND_ETCOR",
      "beginCond": [
        {
          "type": "QUEST_COND_STATE_EQUAL",
          "_param": [
            "7227921",
            "2"
          ]
        },
        {
          "type": "QUEST_COND_STATE_EQUAL",
          "_param": [
            "7227904",
            "2"
          ]
        },
        {
          "type": "QUEST_COND_STATE_EQUAL",
          "_param": [
            "7227905",
            "2"
          ]
        },
        {
          "type": "QUEST_COND_STATE_EQUAL",
          "_param": [
            "7227906",
            "2"
          ]
        },
        {
          "type": "QUEST_COND_STATE_EQUAL",
          "_param": [
            "7227918",
            "2"
          ]
        }
      ],
      "priority": 5,
      "initDialog": 722791301,
      "npcId": [
        20565
      ],
      "performCfg": "QuestDialogue/WQ/Inazuma_72279/Q7227913",
      "heroTalk": "TALK_HERO_MAIN",
      "questId": 72279,
      "assetIndex": 6700993298340100813,
      "prePerformCfg": "",
      "lowPriority": true
    },
    {
      "id": 7227923,
      "beginWay": "TALK_BEGIN_MANUAL",
      "beginCondComb": "LOGIC_A_AND_ETCOR",
      "beginCond": [
        {
          "type": "QUEST_COND_STATE_EQUAL",
          "_param": [
            "7227913",
            "3"
          ]
        },
        {
          "type": "QUEST_COND_STATE_EQUAL",
          "_param": [
            "7227921",
            "2"
          ]
        },
        {
          "type": "QUEST_COND_STATE_EQUAL",
          "_param": [
            "7227914",
            "2"
          ]
        }
      ],
      "priority": 5,
      "initDialog": 722791501,
      "npcId": [
        20565
      ],
      "performCfg": "QuestDialogue/WQ/Inazuma_72279/Q7227903",
      "heroTalk": "TALK_HERO_MAIN",
      "questId": 72279,
      "assetIndex": 15848870055357022470,
      "prePerformCfg": "",
      "lowPriority": true
    }
  ],
  "preloadLuaList": [
    12315412588828977461,
    5049475351513928872,
    3759457507133630519,
    6907028621845817331,
    17652776784986741961
  ],
  "forcePreloadLuaList": [
    277659345901601665
  ],
  "freeStyleDic": {
    "1044": [
      1180,
      1280,
      1142,
      1190,
      1120
    ],
    "12276": [
      1270
    ],
    "12277": [
      1230,
      1270
    ],
    "12278": [
      4010,
      1270
    ],
    "1033": [
      1220
    ]
  }
}