{
  "id": 72283,
  "damageRatio": "WQ",
  "activeMode": "PLAY_MODE_ALL",
  "EKEKACCODOE": 227389086,
  "luaPath": "Actor/Quest/WQ72283",
  "showType": "QUEST_HIDDEN",
  "subQuests": [
    {
      "subId": 7228301,
      "mainId": 72283,
      "order": 1,
      "showType": "QUEST_HIDDEN",
      "finishCond": [
        {
          "damageRatio": "QUEST_CONTENT_COMPLETE_TALK",
          "param": [
            7228301,
            0
          ]
        }
      ],
      "guide": {
        "MLAHIFLGIGJ": ""
      },
      "guideHint": {
        "param1": ""
      },
      "isRewind": true,
      "versionBegin": "",
      "versionEnd": ""
    },
    {
      "subId": 7228302,
      "mainId": 72283,
      "order": 2,
      "showType": "QUEST_HIDDEN",
      "finishCond": [
        {
          "damageRatio": "QUEST_CONTENT_LUA_NOTIFY",
          "param": [
            0,
            0
          ],
          "count": 1
        }
      ],
      "guide": {
        "MLAHIFLGIGJ": ""
      },
      "guideHint": {
        "param1": ""
      },
      "isRewind": true,
      "versionBegin": "",
      "versionEnd": ""
    },
    {
      "subId": 7228303,
      "mainId": 72283,
      "order": 3,
      "showType": "QUEST_HIDDEN",
      "finishCond": [
        {
          "damageRatio": "QUEST_CONTENT_COMPLETE_TALK",
          "param": [
            7228303,
            0
          ]
        }
      ],
      "guide": {
        "MLAHIFLGIGJ": ""
      },
      "guideHint": {
        "param1": ""
      },
      "finishParent": true,
      "isRewind": true,
      "finishExec": [
        {
          "damageRatio": "QUEST_EXEC_NOTIFY_GROUP_LUA",
          "param": [
            "5",
            "155006018"
          ]
        }
      ],
      "versionBegin": "",
      "versionEnd": ""
    }
  ],
  "talks": [
    {
      "id": 7228301,
      "beginWay": "TALK_BEGIN_MANUAL",
      "activeMode": "PLAY_MODE_HOST",
      "beginCond": [
        {
          "type": "QUEST_COND_STATE_EQUAL",
          "_param": [
            "7228301",
            "2"
          ]
        }
      ],
      "priority": 5,
      "initDialog": 722830101,
      "npcId": [
        20345
      ],
      "performCfg": "",
      "questId": 72283,
      "assetIndex": 3248907906093868303,
      "prePerformCfg": ""
    },
    {
      "id": 7228302,
      "beginWay": "TALK_BEGIN_MANUAL",
      "activeMode": "PLAY_MODE_HOST",
      "beginCond": [
        {
          "type": "QUEST_COND_STATE_EQUAL",
          "_param": [
            "7228302",
            "2"
          ]
        }
      ],
      "priority": 5,
      "initDialog": 722830201,
      "npcId": [
        20345
      ],
      "performCfg": "",
      "questId": 72283,
      "assetIndex": 17548363112484043795,
      "prePerformCfg": ""
    },
    {
      "id": 7228303,
      "beginWay": "TALK_BEGIN_MANUAL",
      "activeMode": "PLAY_MODE_HOST",
      "beginCond": [
        {
          "type": "QUEST_COND_STATE_EQUAL",
          "_param": [
            "7228303",
            "2"
          ]
        }
      ],
      "priority": 5,
      "initDialog": 722830301,
      "npcId": [
        20345
      ],
      "performCfg": "",
      "questId": 72283,
      "assetIndex": 3182527728921348113,
      "prePerformCfg": ""
    }
  ],
  "preloadLuaList": [
    1631167658280560862
  ]
}