{
  "id": 72656,
  "damageRatio": "WQ",
  "mainQuestTag": "MAINQUEST_TAG_GUIDE",
  "activeMode": "PLAY_MODE_ALL",
  "descTextMapHash": 2604347767,
  "EKEKACCODOE": 3778053686,
  "luaPath": "Actor/Quest/WQ72656",
  "showRedPoint": true,
  "subQuests": [
    {
      "subId": 7265601,
      "mainId": 72656,
      "order": 1,
      "descTextMapHash": 2650591084,
      "finishCond": [
        {
          "damageRatio": "QUEST_CONTENT_COMPLETE_TALK",
          "param": [
            7265601,
            0
          ]
        },
        {
          "damageRatio": "QUEST_CONTENT_FINISH_PLOT",
          "param": [
            7265601,
            0
          ]
        }
      ],
      "guide": {
        "damageRatio": "QUEST_GUIDE_NPC",
        "autoGuide": "QUEST_GUIDE_AUTO_ENABLE",
        "param": [
          "30064",
          "SELECT_NPC_NONE"
        ],
        "guideScene": 3,
        "guideStyle": "QUEST_GUIDE_STYLE_START",
        "guideLayer": "QUEST_GUIDE_LAYER_SCENE",
        "MLAHIFLGIGJ": ""
      },
      "guideHint": {
        "param1": ""
      },
      "isRewind": true,
      "versionBegin": "",
      "versionEnd": ""
    },
    {
      "subId": 7265602,
      "mainId": 72656,
      "order": 2,
      "descTextMapHash": 2343853828,
      "finishCond": [
        {
          "damageRatio": "QUEST_CONTENT_FINISH_DUNGEON",
          "param": [
            7400,
            0
          ]
        }
      ],
      "guide": {
        "damageRatio": "QUEST_GUIDE_NPC",
        "autoGuide": "QUEST_GUIDE_AUTO_ENABLE",
        "param": [
          "30064",
          "SELECT_NPC_NONE"
        ],
        "guideScene": 3,
        "guideStyle": "QUEST_GUIDE_STYLE_TARGET",
        "guideLayer": "QUEST_GUIDE_LAYER_SCENE",
        "MLAHIFLGIGJ": ""
      },
      "guideHint": {
        "param1": ""
      },
      "finishParent": true,
      "isRewind": true,
      "versionBegin": "",
      "versionEnd": ""
    }
  ],
  "talks": [
    {
      "id": 7265601,
      "beginWay": "TALK_BEGIN_MANUAL",
      "activeMode": "PLAY_MODE_HOST",
      "beginCondComb": "LOGIC_OR",
      "beginCond": [
        {
          "type": "QUEST_COND_STATE_EQUAL",
          "_param": [
            "7265601",
            "2"
          ]
        },
        {
          "type": "QUEST_COND_STATE_EQUAL",
          "_param": [
            "7265602",
            "2"
          ]
        }
      ],
      "priority": 5,
      "initDialog": 726560101,
      "npcId": [
        30064
      ],
      "performCfg": "QuestDialogue/WQ/Jiguanqitan_72656/Q7265601",
      "heroTalk": "TALK_HERO_MAIN",
      "questId": 72656,
      "assetIndex": 1234076754608070829,
      "prePerformCfg": ""
    }
  ]
}