{
  "id": 72667,
  "damageRatio": "WQ",
  "mainQuestTag": "MAINQUEST_TAG_ACTIVITY",
  "descTextMapHash": 453605039,
  "EKEKACCODOE": 1882171958,
  "luaPath": "Actor/Quest/WQ72667",
  "rewardIdList": [
    172667
  ],
  "showRedPoint": true,
  "activityId": 5041,
  "subQuests": [
    {
      "subId": 7266701,
      "mainId": 72667,
      "order": 1,
      "descTextMapHash": 1658396892,
      "showType": "QUEST_HIDDEN",
      "finishCond": [
        {
          "damageRatio": "QUEST_CONTENT_ITEM_LESS_THAN",
          "param": [
            111027,
            1
          ]
        }
      ],
      "guide": {
        "MLAHIFLGIGJ": ""
      },
      "guideHint": {
        "param1": ""
      },
      "isRewind": true,
      "versionBegin": "",
      "versionEnd": ""
    },
    {
      "subId": 7266702,
      "mainId": 72667,
      "order": 2,
      "descTextMapHash": 2766820748,
      "finishCond": [
        {
          "damageRatio": "QUEST_CONTENT_COMPLETE_TALK",
          "param": [
            7266701,
            0
          ]
        }
      ],
      "guide": {
        "damageRatio": "QUEST_GUIDE_NPC",
        "param": [
          "3200"
        ],
        "guideScene": 3,
        "guideStyle": "QUEST_GUIDE_STYLE_TARGET",
        "MLAHIFLGIGJ": ""
      },
      "guideHint": {
        "param1": ""
      },
      "versionBegin": "",
      "versionEnd": ""
    },
    {
      "subId": 7266703,
      "mainId": 72667,
      "order": 3,
      "descTextMapHash": 318196780,
      "showType": "QUEST_HIDDEN",
      "finishCond": [
        {
          "damageRatio": "QUEST_CONTENT_OBTAIN_ITEM",
          "param": [
            111027,
            0
          ],
          "count": 1
        }
      ],
      "guide": {
        "MLAHIFLGIGJ": ""
      },
      "showGuide": "QUEST_GUIDE_ITEM_DISABLE",
      "guideHint": {
        "param1": ""
      },
      "finishExec": [
        {
          "damageRatio": "QUEST_EXEC_ROLLBACK_QUEST",
          "param": [
            "7266701"
          ]
        }
      ],
      "versionBegin": "",
      "versionEnd": ""
    }
  ],
  "talks": [
    {
      "id": 7266701,
      "beginCondComb": "LOGIC_AND",
      "beginCond": [
        {
          "type": "QUEST_COND_STATE_EQUAL",
          "_param": [
            "7266702",
            "2"
          ]
        },
        {
          "type": "QUEST_COND_ITEM_NUM_LESS_THAN",
          "_param": [
            "111027",
            "1"
          ]
        }
      ],
      "priority": 5,
      "initDialog": 726670102,
      "npcId": [
        3200
      ],
      "performCfg": "",
      "questId": 72667,
      "assetIndex": 17187348794615842937,
      "prePerformCfg": ""
    }
  ]
}