{
  "id": 72688,
  "damageRatio": "WQ",
  "mainQuestTag": "MAINQUEST_TAG_GUIDE",
  "activeMode": "PLAY_MODE_ALL",
  "descTextMapHash": 184470111,
  "EKEKACCODOE": 3945856758,
  "luaPath": "Actor/Quest/WQ72688",
  "rewardIdList": [
    172688
  ],
  "showRedPoint": true,
  "activityId": 2012,
  "subQuests": [
    {
      "subId": 7268801,
      "mainId": 72688,
      "order": 1,
      "descTextMapHash": 3575593644,
      "finishCond": [
        {
          "damageRatio": "QUEST_CONTENT_GAME_TIME_TICK",
          "param": [
            1,
            0
          ]
        }
      ],
      "guide": {
        "MLAHIFLGIGJ": ""
      },
      "guideHint": {
        "param1": ""
      },
      "isRewind": true,
      "versionBegin": "",
      "versionEnd": ""
    },
    {
      "subId": 7268802,
      "mainId": 72688,
      "order": 2,
      "descTextMapHash": 2125446068,
      "finishCond": [
        {
          "damageRatio": "QUEST_CONTENT_FINISH_PLOT",
          "param": [
            7268802,
            0
          ]
        }
      ],
      "guide": {
        "damageRatio": "QUEST_GUIDE_NPC",
        "param": [
          "30171"
        ],
        "guideScene": 3,
        "guideStyle": "QUEST_GUIDE_STYLE_TARGET",
        "guideLayer": "QUEST_GUIDE_LAYER_SCENE",
        "MLAHIFLGIGJ": ""
      },
      "guideHint": {
        "param1": ""
      },
      "isRewind": true,
      "versionBegin": "",
      "versionEnd": ""
    },
    {
      "subId": 7268803,
      "mainId": 72688,
      "order": 3,
      "descTextMapHash": 387567388,
      "finishCond": [
        {
          "damageRatio": "QUEST_CONTENT_IRODORI_FINISH_FLOWER_COMBINATION",
          "param": [
            2,
            0
          ]
        }
      ],
      "guide": {
        "damageRatio": "QUEST_GUIDE_LOCATION",
        "param": [
          "Q72688"
        ],
        "guideScene": 3,
        "guideStyle": "QUEST_GUIDE_STYLE_TARGET",
        "guideLayer": "QUEST_GUIDE_LAYER_SCENE",
        "MLAHIFLGIGJ": ""
      },
      "guideHint": {
        "param1": ""
      },
      "finishParent": true,
      "isRewind": true,
      "versionBegin": "",
      "versionEnd": ""
    },
    {
      "subId": 7268804,
      "mainId": 72688,
      "order": 4,
      "descTextMapHash": 3399099100,
      "finishCond": [
        {
          "damageRatio": "QUEST_CONTENT_COMPLETE_TALK",
          "param": [
            7268802,
            0
          ]
        }
      ],
      "guide": {
        "damageRatio": "QUEST_GUIDE_NPC",
        "param": [
          "30171"
        ],
        "guideScene": 3,
        "guideStyle": "QUEST_GUIDE_STYLE_FINISH",
        "guideLayer": "QUEST_GUIDE_LAYER_SCENE",
        "MLAHIFLGIGJ": ""
      },
      "guideHint": {
        "param1": ""
      },
      "finishParent": true,
      "isRewind": true,
      "versionBegin": "",
      "versionEnd": ""
    }
  ],
  "talks": [
    {
      "id": 7268801,
      "beginWay": "TALK_BEGIN_MANUAL",
      "activeMode": "PLAY_MODE_HOST",
      "beginCond": [
        {
          "type": "QUEST_COND_STATE_EQUAL",
          "_param": [
            "7268802",
            "2"
          ]
        }
      ],
      "priority": 5,
      "initDialog": 726880101,
      "npcId": [
        30171
      ],
      "performCfg": "QuestDialogue/WQ/Inazuma_72688/Q7268801",
      "heroTalk": "TALK_HERO_MAIN",
      "questId": 72688,
      "assetIndex": 15354231932619639357,
      "prePerformCfg": ""
    },
    {
      "id": 7268803,
      "beginWay": "TALK_BEGIN_MANUAL",
      "activeMode": "PLAY_MODE_HOST",
      "beginCondComb": "LOGIC_OR",
      "beginCond": [
        {
          "type": "QUEST_COND_STATE_EQUAL",
          "_param": [
            "7268801",
            "2"
          ]
        },
        {
          "type": "QUEST_COND_STATE_EQUAL",
          "_param": [
            "7268803",
            "2"
          ]
        }
      ],
      "priority": 5,
      "initDialog": 726870201,
      "npcId": [
        30171
      ],
      "performCfg": "QuestDialogue/WQ/Inazuma_72687/Q7268702",
      "heroTalk": "TALK_HERO_MAIN",
      "questId": 72688,
      "assetIndex": 14327339875452000947,
      "prePerformCfg": ""
    }
  ]
}