{
  "id": 72682,
  "damageRatio": "WQ",
  "mainQuestTag": "MAINQUEST_TAG_GUIDE",
  "descTextMapHash": 3598432167,
  "EKEKACCODOE": 97046654,
  "luaPath": "Actor/Quest/WQ72682",
  "rewardIdList": [
    172682
  ],
  "showRedPoint": true,
  "activityId": 5076,
  "subQuests": [
    {
      "subId": 7268201,
      "mainId": 72682,
      "order": 1,
      "descTextMapHash": 480682668,
      "finishCond": [
        {
          "damageRatio": "QUEST_CONTENT_COMPLETE_TALK",
          "param": [
            7268201,
            0
          ]
        }
      ],
      "guide": {
        "damageRatio": "QUEST_GUIDE_NPC",
        "param": [
          "30065"
        ],
        "guideScene": 3,
        "guideStyle": "QUEST_GUIDE_STYLE_START",
        "guideLayer": "QUEST_GUIDE_LAYER_SCENE",
        "MLAHIFLGIGJ": ""
      },
      "guideHint": {
        "param1": ""
      },
      "isRewind": true,
      "versionBegin": "",
      "versionEnd": ""
    },
    {
      "subId": 7268202,
      "mainId": 72682,
      "order": 2,
      "descTextMapHash": 66610988,
      "finishCond": [
        {
          "damageRatio": "QUEST_CONTENT_COMPLETE_TALK",
          "param": [
            7268202,
            0
          ]
        }
      ],
      "guide": {
        "damageRatio": "QUEST_GUIDE_NPC",
        "param": [
          "30065"
        ],
        "guideScene": 3,
        "guideStyle": "QUEST_GUIDE_STYLE_TARGET",
        "guideLayer": "QUEST_GUIDE_LAYER_SCENE",
        "MLAHIFLGIGJ": ""
      },
      "guideHint": {
        "param1": ""
      },
      "finishParent": true,
      "isRewind": true,
      "versionBegin": "",
      "versionEnd": ""
    }
  ],
  "talks": [
    {
      "id": 7268201,
      "beginWay": "TALK_BEGIN_MANUAL",
      "beginCond": [
        {
          "type": "QUEST_COND_STATE_EQUAL",
          "_param": [
            "7268201",
            "2"
          ]
        }
      ],
      "priority": 5,
      "initDialog": 726820101,
      "npcId": [
        30065
      ],
      "performCfg": "",
      "heroTalk": "TALK_HERO_MAIN",
      "questId": 72682,
      "assetIndex": 23806075760915535,
      "prePerformCfg": "",
      "freeStyleList": [
        1200,
        1190,
        1060,
        1030,
        1110,
        1230,
        1050,
        1171,
        1172,
        1173
      ]
    },
    {
      "id": 7268202,
      "beginWay": "TALK_BEGIN_MANUAL",
      "beginCond": [
        {
          "type": "QUEST_COND_STATE_EQUAL",
          "_param": [
            "7268202",
            "2"
          ]
        }
      ],
      "priority": 5,
      "initDialog": 726820201,
      "npcId": [
        30065
      ],
      "performCfg": "",
      "heroTalk": "TALK_HERO_MAIN",
      "questId": 72682,
      "assetIndex": 3458322557561000284,
      "prePerformCfg": "",
      "freeStyleList": [
        1171,
        1172,
        1173,
        1030,
        1230,
        1120,
        1130,
        1110
      ]
    }
  ],
  "preloadLuaList": [
    8674889450453813622
  ],
  "forcePreloadLuaList": [
    2826703403290285435
  ]
}