{
  "id": 72685,
  "damageRatio": "WQ",
  "mainQuestTag": "MAINQUEST_TAG_GUIDE",
  "descTextMapHash": 3894236783,
  "EKEKACCODOE": 1866616534,
  "luaPath": "Actor/Quest/WQ72685",
  "rewardIdList": [
    172685
  ],
  "showRedPoint": true,
  "activityId": 2012,
  "subQuests": [
    {
      "subId": 7268501,
      "mainId": 72685,
      "order": 1,
      "descTextMapHash": 3140194452,
      "finishCond": [
        {
          "damageRatio": "QUEST_CONTENT_FINISH_PLOT",
          "param": [
            7268501,
            0
          ]
        }
      ],
      "guide": {
        "damageRatio": "QUEST_GUIDE_NPC",
        "param": [
          "30064"
        ],
        "guideScene": 3,
        "guideStyle": "QUEST_GUIDE_STYLE_START",
        "guideLayer": "QUEST_GUIDE_LAYER_SCENE",
        "MLAHIFLGIGJ": ""
      },
      "guideHint": {
        "param1": ""
      },
      "finishParent": true,
      "isRewind": true,
      "versionBegin": "",
      "versionEnd": ""
    }
  ],
  "talks": [
    {
      "id": 7268501,
      "beginWay": "TALK_BEGIN_MANUAL",
      "beginCond": [
        {
          "type": "QUEST_COND_STATE_EQUAL",
          "_param": [
            "7268501",
            "2"
          ]
        }
      ],
      "priority": 5,
      "initDialog": 726850101,
      "npcId": [
        30064
      ],
      "performCfg": "QuestDialogue/WQ/Inazuma_72685/Q7268501",
      "heroTalk": "TALK_HERO_MAIN",
      "questId": 72685,
      "assetIndex": 9357695324231567029,
      "prePerformCfg": ""
    }
  ]
}