{
  "id": 72690,
  "damageRatio": "WQ",
  "mainQuestTag": "MAINQUEST_TAG_GUIDE",
  "activeMode": "PLAY_MODE_ALL",
  "descTextMapHash": 2897568327,
  "EKEKACCODOE": 698343638,
  "luaPath": "Actor/Quest/WQ72690",
  "rewardIdList": [
    172690
  ],
  "showRedPoint": true,
  "activityId": 2012,
  "subQuests": [
    {
      "subId": 7269001,
      "mainId": 72690,
      "order": 1,
      "descTextMapHash": 1189152972,
      "finishCond": [
        {
          "damageRatio": "QUEST_CONTENT_GAME_TIME_TICK",
          "param": [
            1,
            0
          ]
        }
      ],
      "guide": {
        "MLAHIFLGIGJ": ""
      },
      "guideHint": {
        "param1": ""
      },
      "isRewind": true,
      "versionBegin": "",
      "versionEnd": ""
    },
    {
      "subId": 7269002,
      "mainId": 72690,
      "order": 2,
      "descTextMapHash": 1571320412,
      "finishCond": [
        {
          "damageRatio": "QUEST_CONTENT_FINISH_PLOT",
          "param": [
            7269002,
            0
          ]
        }
      ],
      "guide": {
        "damageRatio": "QUEST_GUIDE_NPC",
        "param": [
          "30171"
        ],
        "guideScene": 3,
        "guideStyle": "QUEST_GUIDE_STYLE_TARGET",
        "guideLayer": "QUEST_GUIDE_LAYER_SCENE",
        "MLAHIFLGIGJ": ""
      },
      "guideHint": {
        "param1": ""
      },
      "isRewind": true,
      "versionBegin": "",
      "versionEnd": ""
    },
    {
      "subId": 7269003,
      "mainId": 72690,
      "order": 3,
      "descTextMapHash": 1464156892,
      "finishCond": [
        {
          "damageRatio": "QUEST_CONTENT_IRODORI_FINISH_FLOWER_COMBINATION",
          "param": [
            4,
            0
          ]
        }
      ],
      "guide": {
        "damageRatio": "QUEST_GUIDE_LOCATION",
        "param": [
          "Q72690"
        ],
        "guideScene": 3,
        "guideStyle": "QUEST_GUIDE_STYLE_TARGET",
        "guideLayer": "QUEST_GUIDE_LAYER_SCENE",
        "MLAHIFLGIGJ": ""
      },
      "guideHint": {
        "param1": ""
      },
      "finishParent": true,
      "isRewind": true,
      "versionBegin": "",
      "versionEnd": ""
    },
    {
      "subId": 7269004,
      "mainId": 72690,
      "order": 4,
      "descTextMapHash": 311971284,
      "finishCond": [
        {
          "damageRatio": "QUEST_CONTENT_COMPLETE_TALK",
          "param": [
            7269002,
            0
          ]
        }
      ],
      "guide": {
        "damageRatio": "QUEST_GUIDE_NPC",
        "param": [
          "30171"
        ],
        "guideScene": 3,
        "guideStyle": "QUEST_GUIDE_STYLE_FINISH",
        "guideLayer": "QUEST_GUIDE_LAYER_SCENE",
        "MLAHIFLGIGJ": ""
      },
      "guideHint": {
        "param1": ""
      },
      "finishParent": true,
      "isRewind": true,
      "versionBegin": "",
      "versionEnd": ""
    }
  ],
  "talks": [
    {
      "id": 7269001,
      "beginWay": "TALK_BEGIN_MANUAL",
      "activeMode": "PLAY_MODE_HOST",
      "beginCond": [
        {
          "type": "QUEST_COND_STATE_EQUAL",
          "_param": [
            "7269002",
            "2"
          ]
        }
      ],
      "priority": 5,
      "initDialog": 726900101,
      "npcId": [
        30171
      ],
      "performCfg": "QuestDialogue/WQ/Inazuma_72690/Q7269001",
      "heroTalk": "TALK_HERO_MAIN",
      "questId": 72690,
      "assetIndex": 8077013414399211978,
      "prePerformCfg": ""
    },
    {
      "id": 7269003,
      "beginWay": "TALK_BEGIN_MANUAL",
      "activeMode": "PLAY_MODE_HOST",
      "beginCondComb": "LOGIC_OR",
      "beginCond": [
        {
          "type": "QUEST_COND_STATE_EQUAL",
          "_param": [
            "7269003",
            "2"
          ]
        },
        {
          "type": "QUEST_COND_STATE_EQUAL",
          "_param": [
            "7269001",
            "2"
          ]
        }
      ],
      "priority": 5,
      "initDialog": 726870201,
      "npcId": [
        30171
      ],
      "performCfg": "QuestDialogue/WQ/Inazuma_72687/Q7268702",
      "heroTalk": "TALK_HERO_MAIN",
      "questId": 72690,
      "assetIndex": 1110233725051267651,
      "prePerformCfg": ""
    }
  ]
}