{
  "id": 72704,
  "damageRatio": "WQ",
  "descTextMapHash": 727725167,
  "EKEKACCODOE": 2217382686,
  "luaPath": "Actor/Quest/WQ72704",
  "repeatable": true,
  "subQuests": [
    {
      "subId": 7270401,
      "mainId": 72704,
      "order": 1,
      "descTextMapHash": 2504061124,
      "finishCond": [
        {
          "damageRatio": "QUEST_CONTENT_LUA_NOTIFY",
          "param": [
            0,
            0
          ],
          "count": 1
        }
      ],
      "guide": {
        "damageRatio": "QUEST_GUIDE_LOCATION",
        "param": [
          "Q3_72704_0",
          "30"
        ],
        "guideScene": 3,
        "guideStyle": "QUEST_GUIDE_STYLE_TARGET",
        "guideLayer": "QUEST_GUIDE_LAYER_SCENE",
        "MLAHIFLGIGJ": ""
      },
      "guideHint": {
        "param1": ""
      },
      "finishParent": true,
      "isRewind": true,
      "finishExec": [
        {
          "damageRatio": "QUEST_EXEC_UNREGISTER_DYNAMIC_GROUP",
          "param": [
            "133220155"
          ]
        }
      ],
      "versionBegin": "",
      "versionEnd": ""
    }
  ]
}