{
  "id": 72714,
  "damageRatio": "WQ",
  "mainQuestTag": "MAINQUEST_TAG_REPUTATION",
  "descTextMapHash": 4277706487,
  "EKEKACCODOE": 1744920062,
  "luaPath": "Actor/Quest/WQ72714",
  "subQuests": [
    {
      "subId": 7271401,
      "mainId": 72714,
      "order": 1,
      "descTextMapHash": 2734160868,
      "finishCond": [
        {
          "damageRatio": "QUEST_CONTENT_FINISH_ITEM_GIVING",
          "param": [
            7271401,
            0
          ]
        }
      ],
      "guide": {
        "damageRatio": "QUEST_GUIDE_NPC",
        "param": [
          "3110"
        ],
        "guideScene": 3,
        "guideStyle": "QUEST_GUIDE_STYLE_TARGET",
        "guideLayer": "QUEST_GUIDE_LAYER_SCENE",
        "MLAHIFLGIGJ": ""
      },
      "guideHint": {
        "param1": ""
      },
      "isRewind": true,
      "versionBegin": "",
      "versionEnd": ""
    },
    {
      "subId": 7271402,
      "mainId": 72714,
      "order": 2,
      "descTextMapHash": 3994258916,
      "finishCond": [
        {
          "damageRatio": "QUEST_CONTENT_COMPLETE_TALK",
          "param": [
            7271402,
            0
          ]
        }
      ],
      "guide": {
        "damageRatio": "QUEST_GUIDE_NPC",
        "param": [
          "3110"
        ],
        "guideScene": 3,
        "guideStyle": "QUEST_GUIDE_STYLE_TARGET",
        "guideLayer": "QUEST_GUIDE_LAYER_SCENE",
        "MLAHIFLGIGJ": ""
      },
      "guideHint": {
        "param1": ""
      },
      "finishParent": true,
      "isRewind": true,
      "versionBegin": "",
      "versionEnd": ""
    }
  ],
  "talks": [
    {
      "id": 7271401,
      "beginCondComb": "LOGIC_AND",
      "beginCond": [
        {
          "type": "QUEST_COND_STATE_EQUAL",
          "_param": [
            "7271401",
            "2"
          ]
        },
        {
          "type": "QUEST_COND_ITEM_GIVING_ACTIVED",
          "_param": [
            "7271401"
          ]
        }
      ],
      "priority": 5,
      "initDialog": 727140101,
      "npcId": [
        3110
      ],
      "performCfg": "",
      "questId": 72714,
      "assetIndex": 3274034939906797872,
      "dontBlockDaily": true,
      "prePerformCfg": ""
    },
    {
      "id": 7271402,
      "beginWay": "TALK_BEGIN_AUTO",
      "beginCond": [
        {
          "type": "QUEST_COND_STATE_EQUAL",
          "_param": [
            "7271402",
            "2"
          ]
        }
      ],
      "priority": 5,
      "initDialog": 727140201,
      "npcId": [
        3110
      ],
      "performCfg": "",
      "questId": 72714,
      "assetIndex": 11155749002391804184,
      "prePerformCfg": ""
    }
  ]
}