{
  "id": 72719,
  "damageRatio": "WQ",
  "mainQuestTag": "MAINQUEST_TAG_REPUTATION",
  "descTextMapHash": 3654785455,
  "EKEKACCODOE": 1779381710,
  "luaPath": "Actor/Quest/WQ72719",
  "subQuests": [
    {
      "subId": 7271901,
      "mainId": 72719,
      "order": 1,
      "descTextMapHash": 1972358284,
      "finishCond": [
        {
          "damageRatio": "QUEST_CONTENT_FINISH_ITEM_GIVING",
          "param": [
            7271901,
            0
          ]
        }
      ],
      "guide": {
        "damageRatio": "QUEST_GUIDE_NPC",
        "param": [
          "3058"
        ],
        "guideScene": 3,
        "guideStyle": "QUEST_GUIDE_STYLE_TARGET",
        "guideLayer": "QUEST_GUIDE_LAYER_SCENE",
        "MLAHIFLGIGJ": ""
      },
      "guideHint": {
        "param1": ""
      },
      "isRewind": true,
      "versionBegin": "",
      "versionEnd": ""
    },
    {
      "subId": 7271902,
      "mainId": 72719,
      "order": 2,
      "descTextMapHash": 1216164564,
      "finishCond": [
        {
          "damageRatio": "QUEST_CONTENT_COMPLETE_TALK",
          "param": [
            7271902,
            0
          ]
        }
      ],
      "guide": {
        "damageRatio": "QUEST_GUIDE_NPC",
        "param": [
          "3058"
        ],
        "guideScene": 3,
        "guideStyle": "QUEST_GUIDE_STYLE_TARGET",
        "guideLayer": "QUEST_GUIDE_LAYER_SCENE",
        "MLAHIFLGIGJ": ""
      },
      "guideHint": {
        "param1": ""
      },
      "finishParent": true,
      "isRewind": true,
      "versionBegin": "",
      "versionEnd": ""
    }
  ],
  "talks": [
    {
      "id": 7271901,
      "beginCondComb": "LOGIC_AND",
      "beginCond": [
        {
          "type": "QUEST_COND_STATE_EQUAL",
          "_param": [
            "7271901",
            "2"
          ]
        },
        {
          "type": "QUEST_COND_ITEM_GIVING_ACTIVED",
          "_param": [
            "7271901"
          ]
        }
      ],
      "priority": 5,
      "initDialog": 727190101,
      "npcId": [
        3058
      ],
      "performCfg": "",
      "questId": 72719,
      "assetIndex": 485679623320367218,
      "dontBlockDaily": true,
      "prePerformCfg": ""
    },
    {
      "id": 7271902,
      "beginWay": "TALK_BEGIN_AUTO",
      "beginCond": [
        {
          "type": "QUEST_COND_STATE_EQUAL",
          "_param": [
            "7271902",
            "2"
          ]
        }
      ],
      "priority": 5,
      "initDialog": 727190201,
      "npcId": [
        3058
      ],
      "performCfg": "",
      "questId": 72719,
      "assetIndex": 11992656849531980836,
      "prePerformCfg": ""
    }
  ]
}