{
  "id": 72726,
  "damageRatio": "WQ",
  "mainQuestTag": "MAINQUEST_TAG_ACTIVITY",
  "activeMode": "PLAY_MODE_ALL",
  "EKEKACCODOE": 2961569998,
  "luaPath": "Actor/Quest/WQ72726",
  "rewardIdList": [
    172726
  ],
  "showType": "QUEST_HIDDEN",
  "activityId": 5080,
  "subQuests": [
    {
      "subId": 7272601,
      "mainId": 72726,
      "order": 1,
      "showType": "QUEST_HIDDEN",
      "finishCond": [
        {
          "damageRatio": "QUEST_CONTENT_QUEST_STATE_EQUAL",
          "param": [
            7269402,
            3
          ]
        }
      ],
      "guide": {
        "MLAHIFLGIGJ": ""
      },
      "guideHint": {
        "param1": ""
      },
      "finishParent": true,
      "versionBegin": "",
      "versionEnd": ""
    }
  ]
}