{
  "id": 72732,
  "series": 72730,
  "damageRatio": "WQ",
  "descTextMapHash": 3496307423,
  "EKEKACCODOE": 2139972694,
  "luaPath": "Actor/Quest/WQ72732",
  "showType": "QUEST_HIDDEN",
  "activityId": 5118,
  "subQuests": [
    {
      "subId": 7273201,
      "mainId": 72732,
      "order": 1,
      "descTextMapHash": 2466108652,
      "showType": "QUEST_HIDDEN",
      "finishCond": [
        {
          "damageRatio": "QUEST_CONTENT_COMPLETE_TALK",
          "param": [
            7273201,
            0
          ]
        }
      ],
      "guide": {
        "damageRatio": "QUEST_GUIDE_NPC",
        "param": [
          "13087"
        ],
        "guideScene": 3,
        "guideStyle": "QUEST_GUIDE_STYLE_TARGET",
        "guideLayer": "QUEST_GUIDE_LAYER_SCENE",
        "MLAHIFLGIGJ": ""
      },
      "guideHint": {
        "param1": ""
      },
      "finishParent": true,
      "isRewind": true,
      "finishExec": [
        {
          "damageRatio": "QUEST_EXEC_REGISTER_DYNAMIC_GROUP",
          "param": [
            "3",
            "133209112"
          ]
        }
      ],
      "versionBegin": "",
      "versionEnd": ""
    }
  ],
  "talks": [
    {
      "id": 7273201,
      "beginWay": "TALK_BEGIN_MANUAL",
      "beginCond": [
        {
          "type": "QUEST_COND_STATE_EQUAL",
          "_param": [
            "7273201",
            "2"
          ]
        }
      ],
      "priority": 5,
      "initDialog": 727320101,
      "npcId": [
        13087
      ],
      "performCfg": "QuestDialogue/WQ/Daoqi_72732/Q7273201",
      "heroTalk": "TALK_HERO_MAIN",
      "questId": 72732,
      "assetIndex": 8983874360869521294,
      "prePerformCfg": ""
    }
  ]
}