{
  "id": 72904,
  "damageRatio": "WQ",
  "descTextMapHash": 1165508383,
  "EKEKACCODOE": 2236396678,
  "luaPath": "",
  "rewardIdList": [
    553003
  ],
  "showType": "QUEST_HIDDEN",
  "subQuests": [
    {
      "subId": 7290401,
      "mainId": 72904,
      "order": 1,
      "showType": "QUEST_HIDDEN",
      "finishCond": [
        {
          "damageRatio": "QUEST_CONTENT_COMPLETE_TALK",
          "param": [
            7290401,
            0
          ]
        }
      ],
      "guide": {
        "MLAHIFLGIGJ": ""
      },
      "guideHint": {
        "param1": ""
      },
      "finishParent": true,
      "versionBegin": "",
      "versionEnd": ""
    }
  ]
}