{
  "id": 72916,
  "damageRatio": "WQ",
  "descTextMapHash": 178534871,
  "EKEKACCODOE": 1460330566,
  "luaPath": "",
  "rewardIdList": [
    553018
  ],
  "showType": "QUEST_HIDDEN",
  "subQuests": [
    {
      "subId": 7291601,
      "mainId": 72916,
      "order": 1,
      "showType": "QUEST_HIDDEN",
      "finishCond": [
        {
          "damageRatio": "QUEST_CONTENT_COMPLETE_TALK",
          "param": [
            7291601,
            0
          ]
        }
      ],
      "guide": {
        "MLAHIFLGIGJ": ""
      },
      "guideHint": {
        "param1": ""
      },
      "finishParent": true,
      "versionBegin": "",
      "versionEnd": ""
    }
  ]
}