{
  "id": 72923,
  "damageRatio": "WQ",
  "descTextMapHash": 4114841999,
  "EKEKACCODOE": 2387543510,
  "luaPath": "",
  "rewardIdList": [
    553024
  ],
  "showType": "QUEST_HIDDEN",
  "subQuests": [
    {
      "subId": 7292301,
      "mainId": 72923,
      "order": 1,
      "showType": "QUEST_HIDDEN",
      "finishCond": [
        {
          "damageRatio": "QUEST_CONTENT_COMPLETE_TALK",
          "param": [
            7292301,
            0
          ]
        }
      ],
      "guide": {
        "MLAHIFLGIGJ": ""
      },
      "guideHint": {
        "param1": ""
      },
      "finishParent": true,
      "versionBegin": "",
      "versionEnd": ""
    }
  ]
}