{
  "id": 72925,
  "damageRatio": "WQ",
  "descTextMapHash": 2749564415,
  "EKEKACCODOE": 15891438,
  "luaPath": "",
  "rewardIdList": [
    553026
  ],
  "showType": "QUEST_HIDDEN",
  "subQuests": [
    {
      "subId": 7292501,
      "mainId": 72925,
      "order": 1,
      "showType": "QUEST_HIDDEN",
      "finishCond": [
        {
          "damageRatio": "QUEST_CONTENT_COMPLETE_TALK",
          "param": [
            7292501,
            0
          ]
        }
      ],
      "guide": {
        "MLAHIFLGIGJ": ""
      },
      "guideHint": {
        "param1": ""
      },
      "finishParent": true,
      "versionBegin": "",
      "versionEnd": ""
    }
  ]
}