{
  "id": 72920,
  "damageRatio": "WQ",
  "descTextMapHash": 1569819895,
  "EKEKACCODOE": 885836342,
  "luaPath": "",
  "rewardIdList": [
    553022
  ],
  "showType": "QUEST_HIDDEN",
  "subQuests": [
    {
      "subId": 7292001,
      "mainId": 72920,
      "order": 1,
      "showType": "QUEST_HIDDEN",
      "finishCond": [
        {
          "damageRatio": "QUEST_CONTENT_COMPLETE_TALK",
          "param": [
            7292001,
            0
          ]
        }
      ],
      "guide": {
        "MLAHIFLGIGJ": ""
      },
      "guideHint": {
        "param1": ""
      },
      "finishParent": true,
      "versionBegin": "",
      "versionEnd": ""
    }
  ]
}