{
  "id": 72938,
  "damageRatio": "WQ",
  "descTextMapHash": 2664258623,
  "EKEKACCODOE": 3163956726,
  "luaPath": "",
  "rewardIdList": [
    553038
  ],
  "showType": "QUEST_HIDDEN",
  "subQuests": [
    {
      "subId": 7293801,
      "mainId": 72938,
      "order": 1,
      "showType": "QUEST_HIDDEN",
      "finishCond": [
        {
          "damageRatio": "QUEST_CONTENT_COMPLETE_TALK",
          "param": [
            7293801,
            0
          ]
        }
      ],
      "guide": {
        "MLAHIFLGIGJ": ""
      },
      "guideHint": {
        "param1": ""
      },
      "finishParent": true,
      "versionBegin": "",
      "versionEnd": ""
    }
  ]
}