{
  "id": 72943,
  "damageRatio": "WQ",
  "descTextMapHash": 1910443863,
  "EKEKACCODOE": 2304021006,
  "luaPath": "",
  "rewardIdList": [
    553035
  ],
  "showType": "QUEST_HIDDEN",
  "subQuests": [
    {
      "subId": 7294301,
      "mainId": 72943,
      "order": 1,
      "showType": "QUEST_HIDDEN",
      "finishCond": [
        {
          "damageRatio": "QUEST_CONTENT_COMPLETE_TALK",
          "param": [
            7294301,
            0
          ]
        }
      ],
      "guide": {
        "MLAHIFLGIGJ": ""
      },
      "guideHint": {
        "param1": ""
      },
      "finishParent": true,
      "versionBegin": "",
      "versionEnd": ""
    }
  ]
}