{
  "id": 72944,
  "damageRatio": "WQ",
  "descTextMapHash": 3930716567,
  "EKEKACCODOE": 2111325046,
  "luaPath": "",
  "rewardIdList": [
    555054
  ],
  "showType": "QUEST_HIDDEN",
  "activityId": 2030,
  "subQuests": [
    {
      "subId": 7294401,
      "mainId": 72944,
      "order": 1,
      "showType": "QUEST_HIDDEN",
      "finishCond": [
        {
          "damageRatio": "QUEST_CONTENT_COMPLETE_TALK",
          "param": [
            7294401,
            0
          ]
        }
      ],
      "guide": {
        "MLAHIFLGIGJ": ""
      },
      "guideHint": {
        "param1": ""
      },
      "finishParent": true,
      "versionBegin": "",
      "versionEnd": ""
    }
  ]
}