{
  "id": 72948,
  "damageRatio": "WQ",
  "descTextMapHash": 1348594927,
  "EKEKACCODOE": 2339187862,
  "luaPath": "",
  "rewardIdList": [
    553044
  ],
  "showType": "QUEST_HIDDEN",
  "subQuests": [
    {
      "subId": 7294801,
      "mainId": 72948,
      "order": 1,
      "showType": "QUEST_HIDDEN",
      "finishCond": [
        {
          "damageRatio": "QUEST_CONTENT_COMPLETE_TALK",
          "param": [
            6305414,
            0
          ]
        }
      ],
      "guide": {
        "MLAHIFLGIGJ": ""
      },
      "guideHint": {
        "param1": ""
      },
      "finishParent": true,
      "versionBegin": "",
      "versionEnd": ""
    }
  ]
}