{
  "id": 73000,
  "damageRatio": "WQ",
  "mainQuestTag": "MAINQUEST_TAG_RANK_ZERO_WQ",
  "activeMode": "PLAY_MODE_ALL",
  "descTextMapHash": 2506906151,
  "EKEKACCODOE": 4122341006,
  "luaPath": "Actor/Quest/WQ73000",
  "suggestTrackMainQuestList": [
    73073
  ],
  "rewardIdList": [
    173000
  ],
  "chapterId": 10070,
  "subQuests": [
    {
      "subId": 7300001,
      "mainId": 73000,
      "order": 1,
      "descTextMapHash": 2462268884,
      "showType": "QUEST_HIDDEN",
      "finishCond": [
        {
          "damageRatio": "QUEST_CONTENT_COMPLETE_TALK",
          "param": [
            7300001,
            0
          ]
        },
        {
          "damageRatio": "QUEST_CONTENT_COMPLETE_TALK",
          "param": [
            7300015,
            0
          ]
        }
      ],
      "guide": {
        "damageRatio": "QUEST_GUIDE_NPC",
        "param": [
          "20600"
        ],
        "guideScene": 3,
        "guideStyle": "QUEST_GUIDE_STYLE_TARGET",
        "guideLayer": "QUEST_GUIDE_LAYER_SCENE",
        "MLAHIFLGIGJ": ""
      },
      "showGuide": "QUEST_GUIDE_ITEM_DISABLE",
      "guideHint": {
        "param1": ""
      },
      "isRewind": true,
      "finishExec": [
        {
          "damageRatio": "QUEST_EXEC_REFRESH_GROUP_SUITE",
          "param": [
            "3",
            "133304383,2"
          ]
        },
        {
          "damageRatio": "QUEST_EXEC_UNREGISTER_DYNAMIC_GROUP",
          "param": [
            "133304571",
            "1"
          ]
        }
      ],
      "versionBegin": "",
      "versionEnd": ""
    },
    {
      "subId": 7300002,
      "mainId": 73000,
      "order": 2,
      "descTextMapHash": 543834724,
      "finishCond": [
        {
          "damageRatio": "QUEST_CONTENT_LUA_NOTIFY",
          "param": [
            0,
            0
          ],
          "count": 1
        }
      ],
      "guide": {
        "damageRatio": "QUEST_GUIDE_LOCATION",
        "autoGuide": "QUEST_GUIDE_AUTO_ENABLE",
        "param": [
          "WQL1_AREAQQSEARCH",
          "40"
        ],
        "guideScene": 3,
        "guideStyle": "QUEST_GUIDE_STYLE_POINT",
        "guideLayer": "QUEST_GUIDE_LAYER_SCENE",
        "MLAHIFLGIGJ": ""
      },
      "guideHint": {
        "param1": ""
      },
      "isRewind": true,
      "finishExec": [
        {
          "damageRatio": "QUEST_EXEC_UNREGISTER_DYNAMIC_GROUP",
          "param": [
            "133304015",
            "1"
          ]
        }
      ],
      "versionBegin": "",
      "versionEnd": ""
    },
    {
      "subId": 7300003,
      "mainId": 73000,
      "order": 3,
      "descTextMapHash": 3134273836,
      "finishCond": [
        {
          "damageRatio": "QUEST_CONTENT_LUA_NOTIFY",
          "param": [
            0,
            0
          ],
          "count": 1
        }
      ],
      "guide": {
        "damageRatio": "QUEST_GUIDE_LOCATION",
        "autoGuide": "QUEST_GUIDE_AUTO_ENABLE",
        "param": [
          "WQL1_AREAPALMSEARCH",
          "40"
        ],
        "guideScene": 3,
        "guideStyle": "QUEST_GUIDE_STYLE_POINT",
        "guideLayer": "QUEST_GUIDE_LAYER_SCENE",
        "MLAHIFLGIGJ": ""
      },
      "guideHint": {
        "param1": ""
      },
      "isRewind": true,
      "finishExec": [
        {
          "damageRatio": "QUEST_EXEC_UNREGISTER_DYNAMIC_GROUP",
          "param": [
            "133304016",
            "1"
          ]
        }
      ],
      "versionBegin": "",
      "versionEnd": ""
    },
    {
      "subId": 7300004,
      "mainId": 73000,
      "order": 4,
      "descTextMapHash": 274931124,
      "finishCond": [
        {
          "damageRatio": "QUEST_CONTENT_FINISH_PLOT",
          "param": [
            7300004,
            0
          ]
        }
      ],
      "guide": {
        "damageRatio": "QUEST_GUIDE_LOCATION",
        "autoGuide": "QUEST_GUIDE_AUTO_ENABLE",
        "param": [
          "WQL1_AREAROBOTHOLE",
          "0"
        ],
        "guideScene": 3,
        "guideStyle": "QUEST_GUIDE_STYLE_POINT",
        "guideLayer": "QUEST_GUIDE_LAYER_SCENE",
        "MLAHIFLGIGJ": ""
      },
      "guideHint": {
        "param1": ""
      },
      "isRewind": true,
      "versionBegin": "",
      "versionEnd": ""
    },
    {
      "subId": 7300005,
      "mainId": 73000,
      "order": 6,
      "descTextMapHash": 2880716516,
      "finishCond": [
        {
          "damageRatio": "QUEST_CONTENT_LUA_NOTIFY",
          "param": [
            0,
            0
          ],
          "count": 1
        }
      ],
      "guide": {
        "damageRatio": "QUEST_GUIDE_LOCATION",
        "autoGuide": "QUEST_GUIDE_AUTO_ENABLE",
        "param": [
          "WQL1_AREAFIRSTGEAR",
          "0"
        ],
        "guideScene": 3,
        "guideStyle": "QUEST_GUIDE_STYLE_POINT",
        "guideLayer": "QUEST_GUIDE_LAYER_SCENE",
        "poiRegionId": 1101,
        "poiPointId": 11010002,
        "MLAHIFLGIGJ": ""
      },
      "guideHint": {
        "param1": ""
      },
      "isRewind": true,
      "finishExec": [
        {
          "damageRatio": "QUEST_EXEC_UNREGISTER_DYNAMIC_GROUP",
          "param": [
            "133304017",
            "1"
          ]
        }
      ],
      "versionBegin": "",
      "versionEnd": ""
    },
    {
      "subId": 7300006,
      "mainId": 73000,
      "order": 8,
      "descTextMapHash": 3314389444,
      "finishCond": [
        {
          "damageRatio": "QUEST_CONTENT_FINISH_PLOT",
          "param": [
            7300006,
            0
          ]
        }
      ],
      "guide": {
        "damageRatio": "QUEST_GUIDE_LOCATION",
        "autoGuide": "QUEST_GUIDE_AUTO_ENABLE",
        "param": [
          "WQL1_NPCROBOTBACK",
          "0"
        ],
        "guideScene": 3,
        "guideStyle": "QUEST_GUIDE_STYLE_POINT",
        "guideLayer": "QUEST_GUIDE_LAYER_SCENE",
        "poiRegionId": 1101,
        "poiPointId": 11010002,
        "MLAHIFLGIGJ": ""
      },
      "guideHint": {
        "param1": ""
      },
      "isRewind": true,
      "versionBegin": "",
      "versionEnd": ""
    },
    {
      "subId": 7300007,
      "mainId": 73000,
      "order": 9,
      "descTextMapHash": 3297629828,
      "finishCond": [
        {
          "damageRatio": "QUEST_CONTENT_COMPLETE_TALK",
          "param": [
            7300002,
            0
          ]
        },
        {
          "damageRatio": "QUEST_CONTENT_COMPLETE_TALK",
          "param": [
            7300003,
            0
          ]
        }
      ],
      "guide": {
        "damageRatio": "QUEST_GUIDE_NPC",
        "autoGuide": "QUEST_GUIDE_AUTO_ENABLE",
        "param": [
          "20601"
        ],
        "guideScene": 3,
        "guideStyle": "QUEST_GUIDE_STYLE_TARGET",
        "guideLayer": "QUEST_GUIDE_LAYER_SCENE",
        "MLAHIFLGIGJ": ""
      },
      "guideHint": {
        "param1": ""
      },
      "isRewind": true,
      "finishExec": [
        {
          "damageRatio": "QUEST_EXEC_SET_QUEST_GLOBAL_VAR",
          "param": [
            "7300007",
            "1"
          ]
        }
      ],
      "versionBegin": "",
      "versionEnd": ""
    },
    {
      "subId": 7300008,
      "mainId": 73000,
      "order": 13,
      "descTextMapHash": 3752805740,
      "stepDescTextMapHash": 92553653,
      "finishCond": [
        {
          "damageRatio": "QUEST_CONTENT_BARGAIN_SUCC",
          "param": [
            10,
            0
          ]
        },
        {
          "damageRatio": "QUEST_CONTENT_BARGAIN_FAIL",
          "param": [
            10,
            0
          ]
        }
      ],
      "guide": {
        "damageRatio": "QUEST_GUIDE_NPC",
        "autoGuide": "QUEST_GUIDE_AUTO_ENABLE",
        "param": [
          "4157"
        ],
        "guideScene": 3,
        "guideStyle": "QUEST_GUIDE_STYLE_TARGET",
        "guideLayer": "QUEST_GUIDE_LAYER_SCENE",
        "MLAHIFLGIGJ": ""
      },
      "guideHint": {
        "param1": ""
      },
      "isRewind": true,
      "finishExec": [
        {
          "damageRatio": "QUEST_EXEC_STOP_BARGAIN",
          "param": [
            "10"
          ]
        }
      ],
      "versionBegin": "",
      "versionEnd": ""
    },
    {
      "subId": 7300009,
      "mainId": 73000,
      "order": 10,
      "descTextMapHash": 4254990532,
      "finishCond": [
        {
          "damageRatio": "QUEST_CONTENT_COMPLETE_TALK",
          "param": [
            7300005,
            0
          ]
        }
      ],
      "guide": {
        "damageRatio": "QUEST_GUIDE_NPC",
        "autoGuide": "QUEST_GUIDE_AUTO_ENABLE",
        "param": [
          "20600"
        ],
        "guideScene": 3,
        "guideStyle": "QUEST_GUIDE_STYLE_TARGET",
        "guideLayer": "QUEST_GUIDE_LAYER_SCENE",
        "MLAHIFLGIGJ": ""
      },
      "guideHint": {
        "param1": ""
      },
      "isRewind": true,
      "versionBegin": "",
      "versionEnd": ""
    },
    {
      "subId": 7300010,
      "mainId": 73000,
      "order": 11,
      "descTextMapHash": 1915693828,
      "finishCond": [
        {
          "damageRatio": "QUEST_CONTENT_COMPLETE_TALK",
          "param": [
            7300006,
            0
          ]
        },
        {
          "damageRatio": "QUEST_CONTENT_COMPLETE_TALK",
          "param": [
            7300016,
            0
          ]
        }
      ],
      "guide": {
        "damageRatio": "QUEST_GUIDE_NPC",
        "autoGuide": "QUEST_GUIDE_AUTO_ENABLE",
        "param": [
          "20601"
        ],
        "guideScene": 3,
        "guideStyle": "QUEST_GUIDE_STYLE_TARGET",
        "guideLayer": "QUEST_GUIDE_LAYER_SCENE",
        "MLAHIFLGIGJ": ""
      },
      "guideHint": {
        "param1": ""
      },
      "isRewind": true,
      "finishExec": [
        {
          "damageRatio": "QUEST_EXEC_REFRESH_GROUP_SUITE",
          "param": [
            "3",
            "133304382,2"
          ]
        }
      ],
      "versionBegin": "",
      "versionEnd": ""
    },
    {
      "subId": 7300011,
      "mainId": 73000,
      "order": 12,
      "showType": "QUEST_HIDDEN",
      "finishCond": [
        {
          "damageRatio": "QUEST_CONTENT_FINISH_PLOT",
          "param": [
            7300011,
            0
          ]
        }
      ],
      "guide": {
        "guideScene": 3,
        "guideStyle": "QUEST_GUIDE_STYLE_TARGET",
        "guideLayer": "QUEST_GUIDE_LAYER_SCENE",
        "MLAHIFLGIGJ": ""
      },
      "showGuide": "QUEST_GUIDE_ITEM_DISABLE",
      "guideHint": {
        "param1": ""
      },
      "versionBegin": "",
      "versionEnd": ""
    },
    {
      "subId": 7300012,
      "mainId": 73000,
      "order": 99,
      "descTextMapHash": 2122350580,
      "guide": {
        "damageRatio": "QUEST_GUIDE_LOCATION",
        "autoGuide": "QUEST_GUIDE_AUTO_ENABLE",
        "param": [
          "WQL1_NPCBASEFRONT",
          "0"
        ],
        "guideScene": 3,
        "guideStyle": "QUEST_GUIDE_STYLE_POINT",
        "guideLayer": "QUEST_GUIDE_LAYER_SCENE",
        "MLAHIFLGIGJ": ""
      },
      "guideHint": {
        "param1": ""
      },
      "isRewind": true,
      "versionBegin": "",
      "versionEnd": ""
    },
    {
      "subId": 7300013,
      "mainId": 73000,
      "order": 98,
      "descTextMapHash": 1239773364,
      "guide": {
        "damageRatio": "QUEST_GUIDE_LOCATION",
        "autoGuide": "QUEST_GUIDE_AUTO_ENABLE",
        "param": [
          "WQL1_NPCBASEGEAR",
          "0"
        ],
        "guideScene": 3,
        "guideStyle": "QUEST_GUIDE_STYLE_POINT",
        "guideLayer": "QUEST_GUIDE_LAYER_SCENE",
        "MLAHIFLGIGJ": ""
      },
      "guideHint": {
        "param1": ""
      },
      "isRewind": true,
      "versionBegin": "",
      "versionEnd": ""
    },
    {
      "subId": 7300014,
      "mainId": 73000,
      "order": 97,
      "descTextMapHash": 1219948660,
      "guide": {
        "damageRatio": "QUEST_GUIDE_NPC",
        "autoGuide": "QUEST_GUIDE_AUTO_ENABLE",
        "param": [
          "20645"
        ],
        "guideScene": 3,
        "guideStyle": "QUEST_GUIDE_STYLE_TARGET",
        "guideLayer": "QUEST_GUIDE_LAYER_SCENE",
        "MLAHIFLGIGJ": ""
      },
      "guideHint": {
        "param1": ""
      },
      "versionBegin": "",
      "versionEnd": ""
    },
    {
      "subId": 7300015,
      "mainId": 73000,
      "order": 96,
      "descTextMapHash": 844071356,
      "guide": {
        "damageRatio": "QUEST_GUIDE_NPC",
        "autoGuide": "QUEST_GUIDE_AUTO_ENABLE",
        "param": [
          "4183"
        ],
        "guideScene": 3,
        "guideStyle": "QUEST_GUIDE_STYLE_TARGET",
        "guideLayer": "QUEST_GUIDE_LAYER_SCENE",
        "MLAHIFLGIGJ": ""
      },
      "guideHint": {
        "param1": ""
      },
      "finishParent": true,
      "isRewind": true,
      "versionBegin": "",
      "versionEnd": ""
    },
    {
      "subId": 7300016,
      "mainId": 73000,
      "order": 5,
      "descTextMapHash": 428855380,
      "finishCond": [
        {
          "damageRatio": "QUEST_CONTENT_FINISH_PLOT",
          "param": [
            7300016,
            0
          ]
        }
      ],
      "guide": {
        "damageRatio": "QUEST_GUIDE_LOCATION",
        "autoGuide": "QUEST_GUIDE_AUTO_ENABLE",
        "param": [
          "WQL1_AREAMID1",
          "0"
        ],
        "guideScene": 3,
        "guideStyle": "QUEST_GUIDE_STYLE_POINT",
        "guideLayer": "QUEST_GUIDE_LAYER_SCENE",
        "poiRegionId": 1101,
        "poiPointId": 11010002,
        "MLAHIFLGIGJ": ""
      },
      "guideHint": {
        "param1": ""
      },
      "isRewind": true,
      "versionBegin": "",
      "versionEnd": ""
    },
    {
      "subId": 7300017,
      "mainId": 73000,
      "order": 7,
      "descTextMapHash": 849237804,
      "finishCond": [
        {
          "damageRatio": "QUEST_CONTENT_FINISH_PLOT",
          "param": [
            7300017,
            0
          ]
        }
      ],
      "guide": {
        "damageRatio": "QUEST_GUIDE_LOCATION",
        "autoGuide": "QUEST_GUIDE_AUTO_ENABLE",
        "param": [
          "WQL1_AREAMID2",
          "0"
        ],
        "guideScene": 3,
        "guideStyle": "QUEST_GUIDE_STYLE_POINT",
        "guideLayer": "QUEST_GUIDE_LAYER_SCENE",
        "poiRegionId": 1101,
        "poiPointId": 11010002,
        "MLAHIFLGIGJ": ""
      },
      "guideHint": {
        "param1": ""
      },
      "isRewind": true,
      "versionBegin": "",
      "versionEnd": ""
    },
    {
      "subId": 7300018,
      "mainId": 73000,
      "order": 95,
      "descTextMapHash": 2265243356,
      "guide": {
        "damageRatio": "QUEST_GUIDE_NPC",
        "autoGuide": "QUEST_GUIDE_AUTO_ENABLE",
        "param": [
          "20645"
        ],
        "guideScene": 3,
        "guideStyle": "QUEST_GUIDE_STYLE_TARGET",
        "guideLayer": "QUEST_GUIDE_LAYER_SCENE",
        "MLAHIFLGIGJ": ""
      },
      "guideHint": {
        "param1": ""
      },
      "isRewind": true,
      "versionBegin": "",
      "versionEnd": ""
    },
    {
      "subId": 7300019,
      "mainId": 73000,
      "order": 94,
      "descTextMapHash": 641697420,
      "guide": {
        "damageRatio": "QUEST_GUIDE_LOCATION",
        "autoGuide": "QUEST_GUIDE_AUTO_ENABLE",
        "param": [
          "WQL1_BURY1",
          "0"
        ],
        "guideScene": 3,
        "guideStyle": "QUEST_GUIDE_STYLE_POINT",
        "guideLayer": "QUEST_GUIDE_LAYER_SCENE",
        "MLAHIFLGIGJ": ""
      },
      "guideHint": {
        "param1": ""
      },
      "isRewind": true,
      "versionBegin": "",
      "versionEnd": ""
    },
    {
      "subId": 7300020,
      "mainId": 73000,
      "order": 14,
      "descTextMapHash": 1534969620,
      "finishCond": [
        {
          "damageRatio": "QUEST_CONTENT_COMPLETE_TALK",
          "param": [
            7300013,
            0
          ]
        },
        {
          "damageRatio": "QUEST_CONTENT_COMPLETE_TALK",
          "param": [
            7300014,
            0
          ]
        }
      ],
      "guide": {
        "damageRatio": "QUEST_GUIDE_NPC",
        "autoGuide": "QUEST_GUIDE_AUTO_ENABLE",
        "param": [
          "4157"
        ],
        "guideScene": 3,
        "guideStyle": "QUEST_GUIDE_STYLE_TARGET",
        "guideLayer": "QUEST_GUIDE_LAYER_SCENE",
        "MLAHIFLGIGJ": ""
      },
      "guideHint": {
        "param1": ""
      },
      "finishParent": true,
      "isRewind": true,
      "finishExec": [
        {
          "damageRatio": "QUEST_EXEC_DEL_ALL_SPECIFIC_PACK_ITEM",
          "param": [
            "120006"
          ]
        }
      ],
      "versionBegin": "",
      "versionEnd": ""
    }
  ],
  "talks": [
    {
      "id": 7300001,
      "beginWay": "TALK_BEGIN_MANUAL",
      "activeMode": "PLAY_MODE_HOST",
      "beginCondComb": "LOGIC_AND",
      "beginCond": [
        {
          "type": "QUEST_COND_STATE_EQUAL",
          "_param": [
            "7300001",
            "2"
          ]
        },
        {
          "type": "QUEST_COND_QUEST_GLOBAL_VAR_EQUAL",
          "_param": [
            "73027",
            "0"
          ]
        }
      ],
      "priority": 5,
      "initDialog": 730000101,
      "npcId": [
        20600
      ],
      "performCfg": "QuestDialogue/WQ/Sumeru_73000/Q7300001",
      "heroTalk": "TALK_HERO_MAIN",
      "questId": 73000,
      "assetIndex": 11462272733055920891,
      "prePerformCfg": "",
      "talkMarkType": "TALK_MARK_BILLBOARD_ONLY"
    },
    {
      "id": 7300002,
      "beginWay": "TALK_BEGIN_MANUAL",
      "activeMode": "PLAY_MODE_HOST",
      "beginCondComb": "LOGIC_AND",
      "beginCond": [
        {
          "type": "QUEST_COND_STATE_EQUAL",
          "_param": [
            "7300007",
            "2"
          ]
        },
        {
          "type": "QUEST_COND_QUEST_GLOBAL_VAR_EQUAL",
          "_param": [
            "7219808",
            "7"
          ]
        }
      ],
      "priority": 5,
      "initDialog": 730000201,
      "npcId": [
        20601
      ],
      "performCfg": "QuestDialogue/WQ/Sumeru_73000/Q7300002",
      "heroTalk": "TALK_HERO_MAIN",
      "questId": 73000,
      "assetIndex": 3985531663074933496,
      "prePerformCfg": ""
    },
    {
      "id": 7300003,
      "beginWay": "TALK_BEGIN_MANUAL",
      "activeMode": "PLAY_MODE_HOST",
      "beginCondComb": "LOGIC_AND",
      "beginCond": [
        {
          "type": "QUEST_COND_STATE_EQUAL",
          "_param": [
            "7300007",
            "2"
          ]
        },
        {
          "type": "QUEST_COND_QUEST_GLOBAL_VAR_LESS",
          "_param": [
            "7219808",
            "7"
          ]
        }
      ],
      "priority": 5,
      "initDialog": 730000301,
      "npcId": [
        20601
      ],
      "performCfg": "QuestDialogue/WQ/Sumeru_73000/Q7300003",
      "heroTalk": "TALK_HERO_MAIN",
      "questId": 73000,
      "assetIndex": 10776118039724079747,
      "prePerformCfg": ""
    },
    {
      "id": 7300004,
      "beginWay": "TALK_BEGIN_MANUAL",
      "activeMode": "PLAY_MODE_HOST",
      "beginCond": [
        {
          "type": "QUEST_COND_STATE_EQUAL",
          "_param": [
            "7300007",
            "3"
          ]
        },
        {
          "type": "QUEST_COND_STATE_EQUAL",
          "_param": [
            "7300009",
            "2"
          ]
        }
      ],
      "priority": 5,
      "initDialog": 730000401,
      "npcId": [
        20601
      ],
      "performCfg": "",
      "heroTalk": "TALK_HERO_MAIN",
      "questId": 73000,
      "assetIndex": 15048362537549917025,
      "prePerformCfg": ""
    },
    {
      "id": 7300005,
      "beginWay": "TALK_BEGIN_MANUAL",
      "activeMode": "PLAY_MODE_HOST",
      "beginCond": [
        {
          "type": "QUEST_COND_STATE_EQUAL",
          "_param": [
            "7300009",
            "2"
          ]
        }
      ],
      "priority": 5,
      "initDialog": 730000501,
      "npcId": [
        20600
      ],
      "performCfg": "QuestDialogue/WQ/Sumeru_73000/Q7300005",
      "heroTalk": "TALK_HERO_MAIN",
      "questId": 73000,
      "assetIndex": 11623191481382761266,
      "prePerformCfg": ""
    },
    {
      "id": 7300006,
      "beginWay": "TALK_BEGIN_MANUAL",
      "activeMode": "PLAY_MODE_HOST",
      "beginCondComb": "LOGIC_AND",
      "beginCond": [
        {
          "type": "QUEST_COND_STATE_EQUAL",
          "_param": [
            "7300010",
            "2"
          ]
        },
        {
          "type": "QUEST_COND_QUEST_GLOBAL_VAR_EQUAL",
          "_param": [
            "73027",
            "0"
          ]
        }
      ],
      "priority": 5,
      "initDialog": 730000601,
      "npcId": [
        20601
      ],
      "performCfg": "QuestDialogue/WQ/Sumeru_73000/Q7300006",
      "heroTalk": "TALK_HERO_MAIN",
      "questId": 73000,
      "assetIndex": 14633434112771587020,
      "prePerformCfg": ""
    },
    {
      "id": 7300007,
      "beginWay": "TALK_BEGIN_AUTO",
      "activeMode": "PLAY_MODE_HOST",
      "beginCond": [
        {
          "type": "QUEST_COND_STATE_EQUAL",
          "_param": [
            "7300008",
            "2"
          ]
        }
      ],
      "priority": 5,
      "initDialog": 730000701,
      "npcId": [
        4157
      ],
      "performCfg": "QuestDialogue/WQ/Sumeru_73000/Q7300007",
      "heroTalk": "TALK_HERO_MAIN",
      "questId": 73000,
      "assetIndex": 16535057782746222689,
      "prePerformCfg": ""
    },
    {
      "id": 7300008,
      "activeMode": "PLAY_MODE_HOST",
      "priority": 5,
      "initDialog": 730000801,
      "npcId": [
        4157
      ],
      "performCfg": "QuestDialogue/WQ/Sumeru_73000/Q7300008",
      "heroTalk": "TALK_HERO_MAIN",
      "questId": 73000,
      "assetIndex": 4388340605300953454,
      "prePerformCfg": ""
    },
    {
      "id": 7300009,
      "activeMode": "PLAY_MODE_HOST",
      "priority": 5,
      "initDialog": 730000901,
      "npcId": [
        4157
      ],
      "performCfg": "QuestDialogue/WQ/Sumeru_73000/Q7300009",
      "heroTalk": "TALK_HERO_MAIN",
      "questId": 73000,
      "assetIndex": 15381016974713565040,
      "prePerformCfg": ""
    },
    {
      "id": 7300010,
      "activeMode": "PLAY_MODE_HOST",
      "priority": 5,
      "initDialog": 730001001,
      "npcId": [
        4157
      ],
      "performCfg": "QuestDialogue/WQ/Sumeru_73000/Q7300010",
      "heroTalk": "TALK_HERO_MAIN",
      "questId": 73000,
      "assetIndex": 7857161250546311373,
      "prePerformCfg": ""
    },
    {
      "id": 7300011,
      "activeMode": "PLAY_MODE_HOST",
      "priority": 5,
      "initDialog": 730001101,
      "npcId": [
        4157
      ],
      "performCfg": "QuestDialogue/WQ/Sumeru_73000/Q7300011",
      "heroTalk": "TALK_HERO_MAIN",
      "questId": 73000,
      "assetIndex": 9415823383092497991,
      "prePerformCfg": ""
    },
    {
      "id": 7300012,
      "activeMode": "PLAY_MODE_HOST",
      "priority": 5,
      "initDialog": 730001201,
      "npcId": [
        4157
      ],
      "performCfg": "QuestDialogue/WQ/Sumeru_73000/Q7300012",
      "heroTalk": "TALK_HERO_MAIN",
      "questId": 73000,
      "assetIndex": 4117443412989329946,
      "prePerformCfg": ""
    },
    {
      "id": 7300013,
      "beginWay": "TALK_BEGIN_MANUAL",
      "activeMode": "PLAY_MODE_HOST",
      "beginCondComb": "LOGIC_AND",
      "beginCond": [
        {
          "type": "QUEST_COND_STATE_EQUAL",
          "_param": [
            "7300020",
            "2"
          ]
        },
        {
          "type": "QUEST_COND_QUEST_GLOBAL_VAR_EQUAL",
          "_param": [
            "10010",
            "1"
          ]
        }
      ],
      "priority": 5,
      "initDialog": 730001301,
      "npcId": [
        4157
      ],
      "performCfg": "QuestDialogue/WQ/Sumeru_73000/Q7300013",
      "heroTalk": "TALK_HERO_MAIN",
      "questId": 73000,
      "assetIndex": 15292861591010666628,
      "prePerformCfg": ""
    },
    {
      "id": 7300014,
      "beginWay": "TALK_BEGIN_MANUAL",
      "activeMode": "PLAY_MODE_HOST",
      "beginCondComb": "LOGIC_AND",
      "beginCond": [
        {
          "type": "QUEST_COND_STATE_EQUAL",
          "_param": [
            "7300020",
            "2"
          ]
        },
        {
          "type": "QUEST_COND_QUEST_GLOBAL_VAR_EQUAL",
          "_param": [
            "10010",
            "0"
          ]
        }
      ],
      "priority": 5,
      "initDialog": 730001401,
      "npcId": [
        4157
      ],
      "performCfg": "QuestDialogue/WQ/Sumeru_73000/Q7300014",
      "heroTalk": "TALK_HERO_MAIN",
      "questId": 73000,
      "assetIndex": 15298017472982382798,
      "prePerformCfg": ""
    },
    {
      "id": 7300015,
      "beginWay": "TALK_BEGIN_MANUAL",
      "activeMode": "PLAY_MODE_HOST",
      "beginCondComb": "LOGIC_AND",
      "beginCond": [
        {
          "type": "QUEST_COND_STATE_EQUAL",
          "_param": [
            "7300001",
            "2"
          ]
        },
        {
          "type": "QUEST_COND_STATE_EQUAL",
          "_param": [
            "7308417",
            "3"
          ]
        }
      ],
      "priority": 10,
      "initDialog": 730001501,
      "npcId": [
        20600
      ],
      "performCfg": "QuestDialogue/WQ/Sumeru_73000/Q7300015",
      "heroTalk": "TALK_HERO_MAIN",
      "questId": 73000,
      "assetIndex": 5970802443511196997,
      "prePerformCfg": "",
      "talkMarkType": "TALK_MARK_COMMON"
    },
    {
      "id": 7300016,
      "beginWay": "TALK_BEGIN_MANUAL",
      "activeMode": "PLAY_MODE_HOST",
      "beginCondComb": "LOGIC_AND",
      "beginCond": [
        {
          "type": "QUEST_COND_STATE_EQUAL",
          "_param": [
            "7300010",
            "2"
          ]
        },
        {
          "type": "QUEST_COND_STATE_EQUAL",
          "_param": [
            "7308417",
            "3"
          ]
        }
      ],
      "priority": 10,
      "initDialog": 730001601,
      "npcId": [
        20601
      ],
      "performCfg": "QuestDialogue/WQ/Sumeru_73000/Q7300016",
      "heroTalk": "TALK_HERO_MAIN",
      "questId": 73000,
      "assetIndex": 7349521140169640526,
      "prePerformCfg": ""
    }
  ],
  "preloadLuaList": [
    1631167658280560862,
    3774309210810428717,
    15656392930672573919,
    9288396301108095250,
    14563421860073505662,
    10039662777045286076,
    14434102955869012878
  ],
  "forcePreloadLuaList": [
    7494064349425644447
  ],
  "freeStyleDic": {
    "20600": [
      1090
    ]
  },
  "LJICLPBJCCB": [
    {
      "id": 220055,
      "actionType": "DIRECT_USE"
    }
  ]
}