{
  "id": 73019,
  "damageRatio": "WQ",
  "mainQuestTag": "MAINQUEST_TAG_RANK_ZERO_WQ",
  "activeMode": "PLAY_MODE_ALL",
  "descTextMapHash": 2018188967,
  "EKEKACCODOE": 3109093190,
  "luaPath": "Actor/Quest/WQ73019",
  "suggestTrackMainQuestList": [
    73021
  ],
  "rewardIdList": [
    173019
  ],
  "specialShowRewardId": [
    33372
  ],
  "chapterId": 10069,
  "subQuests": [
    {
      "subId": 7301901,
      "mainId": 73019,
      "order": 1,
      "descTextMapHash": 1862817796,
      "finishCond": [
        {
          "damageRatio": "QUEST_CONTENT_FINISH_PLOT",
          "param": [
            7301901,
            0
          ]
        }
      ],
      "guide": {
        "damageRatio": "QUEST_GUIDE_LOCATION",
        "param": [
          "Q7301901_guide",
          "75"
        ],
        "guideScene": 3,
        "guideStyle": "QUEST_GUIDE_STYLE_POINT",
        "MLAHIFLGIGJ": ""
      },
      "showGuide": "QUEST_GUIDE_ITEM_DISABLE",
      "guideHint": {
        "param1": ""
      },
      "isRewind": true,
      "versionBegin": "",
      "versionEnd": ""
    },
    {
      "subId": 7301902,
      "mainId": 73019,
      "order": 2,
      "descTextMapHash": 2447530316,
      "finishCond": [
        {
          "damageRatio": "QUEST_CONTENT_COMPLETE_TALK",
          "param": [
            7301902,
            0
          ]
        }
      ],
      "guide": {
        "damageRatio": "QUEST_GUIDE_NPC",
        "param": [
          "20651"
        ],
        "guideScene": 3,
        "guideStyle": "QUEST_GUIDE_STYLE_TARGET",
        "MLAHIFLGIGJ": ""
      },
      "guideHint": {
        "param1": ""
      },
      "isRewind": true,
      "versionBegin": "",
      "versionEnd": ""
    },
    {
      "subId": 7301903,
      "mainId": 73019,
      "order": 3,
      "descTextMapHash": 1985512764,
      "stepDescTextMapHash": 3462789205,
      "finishCond": [
        {
          "damageRatio": "QUEST_CONTENT_FINISH_PLOT",
          "param": [
            7301903,
            0
          ]
        }
      ],
      "guide": {
        "damageRatio": "QUEST_GUIDE_LOCATION",
        "param": [
          "Q7301903_guide",
          "40"
        ],
        "guideScene": 3,
        "guideStyle": "QUEST_GUIDE_STYLE_POINT",
        "MLAHIFLGIGJ": ""
      },
      "guideHint": {
        "param1": ""
      },
      "isRewind": true,
      "versionBegin": "",
      "versionEnd": ""
    },
    {
      "subId": 7301904,
      "mainId": 73019,
      "order": 4,
      "descTextMapHash": 1286724684,
      "finishCond": [
        {
          "damageRatio": "QUEST_CONTENT_COMPLETE_TALK",
          "param": [
            7301904,
            0
          ]
        }
      ],
      "guide": {
        "damageRatio": "QUEST_GUIDE_NPC",
        "param": [
          "20599"
        ],
        "guideScene": 3,
        "guideStyle": "QUEST_GUIDE_STYLE_TARGET",
        "MLAHIFLGIGJ": ""
      },
      "guideHint": {
        "param1": ""
      },
      "isRewind": true,
      "versionBegin": "",
      "versionEnd": ""
    },
    {
      "subId": 7301905,
      "mainId": 73019,
      "order": 5,
      "descTextMapHash": 1015358364,
      "finishCond": [
        {
          "damageRatio": "QUEST_CONTENT_FINISH_ITEM_GIVING",
          "param": [
            7301905,
            0
          ]
        }
      ],
      "guide": {
        "damageRatio": "QUEST_GUIDE_NPC",
        "param": [
          "20651"
        ],
        "guideScene": 3,
        "guideStyle": "QUEST_GUIDE_STYLE_TARGET",
        "MLAHIFLGIGJ": ""
      },
      "guideHint": {
        "param1": ""
      },
      "isRewind": true,
      "versionBegin": "",
      "versionEnd": ""
    },
    {
      "subId": 7301906,
      "mainId": 73019,
      "order": 6,
      "showType": "QUEST_HIDDEN",
      "finishCond": [
        {
          "damageRatio": "QUEST_CONTENT_COMPLETE_TALK",
          "param": [
            7301906,
            0
          ]
        }
      ],
      "guide": {
        "MLAHIFLGIGJ": ""
      },
      "guideHint": {
        "param1": ""
      },
      "finishParent": true,
      "isRewind": true,
      "versionBegin": "",
      "versionEnd": ""
    }
  ],
  "talks": [
    {
      "id": 7301901,
      "beginWay": "TALK_BEGIN_MANUAL",
      "activeMode": "PLAY_MODE_HOST",
      "beginCond": [
        {
          "type": "QUEST_COND_STATE_EQUAL",
          "_param": [
            "7301902",
            "2"
          ]
        }
      ],
      "priority": 5,
      "initDialog": 730190101,
      "npcId": [
        20651,
        1005
      ],
      "performCfg": "QuestDialogue/WQ/Sumeru_73019/Q7301901",
      "heroTalk": "TALK_HERO_MAIN",
      "questId": 73019,
      "assetIndex": 13419151920864554666,
      "prePerformCfg": ""
    },
    {
      "id": 7301902,
      "beginWay": "TALK_BEGIN_MANUAL",
      "activeMode": "PLAY_MODE_HOST",
      "beginCond": [
        {
          "type": "QUEST_COND_STATE_EQUAL",
          "_param": [
            "7301902",
            "2"
          ]
        }
      ],
      "priority": 5,
      "initDialog": 730190201,
      "npcId": [
        20727
      ],
      "performCfg": "QuestDialogue/WQ/Sumeru_73019/Q7301902",
      "heroTalk": "TALK_HERO_MAIN",
      "questId": 73019,
      "assetIndex": 17303171149572524382,
      "prePerformCfg": ""
    },
    {
      "id": 7301903,
      "beginWay": "TALK_BEGIN_MANUAL",
      "activeMode": "PLAY_MODE_HOST",
      "beginCondComb": "LOGIC_OR",
      "beginCond": [
        {
          "type": "QUEST_COND_STATE_EQUAL",
          "_param": [
            "7301903",
            "2"
          ]
        },
        {
          "type": "QUEST_COND_STATE_EQUAL",
          "_param": [
            "7301904",
            "2"
          ]
        }
      ],
      "priority": 5,
      "initDialog": 730190301,
      "npcId": [
        20651
      ],
      "performCfg": "",
      "heroTalk": "TALK_HERO_MAIN",
      "questId": 73019,
      "assetIndex": 69049531304220198,
      "prePerformCfg": ""
    },
    {
      "id": 7301904,
      "beginWay": "TALK_BEGIN_MANUAL",
      "activeMode": "PLAY_MODE_HOST",
      "beginCond": [
        {
          "type": "QUEST_COND_STATE_EQUAL",
          "_param": [
            "7301904",
            "2"
          ]
        }
      ],
      "priority": 5,
      "initDialog": 730190401,
      "npcId": [
        1005,
        20599
      ],
      "performCfg": "QuestDialogue/WQ/Sumeru_73019/Q7301904",
      "heroTalk": "TALK_HERO_MAIN",
      "questId": 73019,
      "assetIndex": 730995077362234974,
      "prePerformCfg": ""
    },
    {
      "id": 7301905,
      "beginWay": "TALK_BEGIN_MANUAL",
      "activeMode": "PLAY_MODE_HOST",
      "beginCond": [
        {
          "type": "QUEST_COND_STATE_EQUAL",
          "_param": [
            "7301904",
            "3"
          ]
        }
      ],
      "priority": 5,
      "initDialog": 730190501,
      "npcId": [
        20599
      ],
      "performCfg": "",
      "heroTalk": "TALK_HERO_MAIN",
      "questId": 73019,
      "assetIndex": 7849234195288541458,
      "prePerformCfg": ""
    },
    {
      "id": 7301906,
      "beginWay": "TALK_BEGIN_MANUAL",
      "activeMode": "PLAY_MODE_HOST",
      "beginCond": [
        {
          "type": "QUEST_COND_STATE_EQUAL",
          "_param": [
            "7301906",
            "2"
          ]
        }
      ],
      "priority": 5,
      "initDialog": 730190601,
      "npcId": [
        20651,
        1005
      ],
      "performCfg": "QuestDialogue/WQ/Sumeru_73019/Q7301906",
      "heroTalk": "TALK_HERO_MAIN",
      "questId": 73019,
      "assetIndex": 16261412591201227089,
      "prePerformCfg": ""
    },
    {
      "id": 7301907,
      "beginWay": "TALK_BEGIN_MANUAL",
      "activeMode": "PLAY_MODE_HOST",
      "beginCond": [
        {
          "type": "QUEST_COND_STATE_EQUAL",
          "_param": [
            "7301906",
            "3"
          ]
        }
      ],
      "priority": 5,
      "initDialog": 730190701,
      "npcId": [
        20651
      ],
      "performCfg": "",
      "heroTalk": "TALK_HERO_MAIN",
      "questId": 73019,
      "assetIndex": 2944899011138214535,
      "prePerformCfg": "",
      "questIdleTalk": true
    },
    {
      "id": 7301908,
      "beginWay": "TALK_BEGIN_MANUAL",
      "activeMode": "PLAY_MODE_HOST",
      "beginCondComb": "LOGIC_AND",
      "beginCond": [
        {
          "type": "QUEST_COND_STATE_EQUAL",
          "_param": [
            "7301902",
            "3"
          ]
        },
        {
          "type": "QUEST_COND_QUEST_VAR_EQUAL",
          "_param": [
            "0",
            "0",
            "73019"
          ]
        }
      ],
      "priority": 5,
      "initDialog": 730190801,
      "npcId": [
        20727
      ],
      "performCfg": "",
      "questId": 73019,
      "assetIndex": 153905691532544416,
      "prePerformCfg": "",
      "finishExec": [
        {
          "damageRatio": "TALK_EXEC_SET_QUEST_VAR",
          "param": [
            "0",
            "1",
            "73019"
          ]
        }
      ]
    },
    {
      "id": 7301909,
      "beginWay": "TALK_BEGIN_MANUAL",
      "activeMode": "PLAY_MODE_HOST",
      "beginCondComb": "LOGIC_AND",
      "beginCond": [
        {
          "type": "QUEST_COND_STATE_EQUAL",
          "_param": [
            "7301902",
            "3"
          ]
        },
        {
          "type": "QUEST_COND_QUEST_VAR_EQUAL",
          "_param": [
            "0",
            "1",
            "73019"
          ]
        }
      ],
      "priority": 5,
      "initDialog": 730190901,
      "npcId": [
        20727
      ],
      "performCfg": "",
      "questId": 73019,
      "assetIndex": 4832705506635767745,
      "prePerformCfg": "",
      "finishExec": [
        {
          "damageRatio": "TALK_EXEC_SET_QUEST_VAR",
          "param": [
            "0",
            "0",
            "73019"
          ]
        }
      ]
    },
    {
      "id": 7301910,
      "beginWay": "TALK_BEGIN_MANUAL",
      "activeMode": "PLAY_MODE_HOST",
      "beginCondComb": "LOGIC_AND",
      "beginCond": [
        {
          "type": "QUEST_COND_STATE_EQUAL",
          "_param": [
            "7301905",
            "2"
          ]
        },
        {
          "type": "QUEST_COND_ITEM_GIVING_ACTIVED",
          "_param": [
            "7301905"
          ]
        }
      ],
      "priority": 5,
      "initDialog": 730191001,
      "npcId": [
        20651,
        1005
      ],
      "performCfg": "",
      "heroTalk": "TALK_HERO_MAIN",
      "questId": 73019,
      "assetIndex": 13775670287176171964,
      "prePerformCfg": ""
    }
  ],
  "preloadLuaList": [
    9091883724592499551,
    9808592397656945954
  ],
  "forcePreloadLuaList": [
    11656868033687995645
  ],
  "freeStyleDic": {
    "20651": [
      1050
    ]
  },
  "LJICLPBJCCB": [
    {
      "id": 220055,
      "actionType": "DIRECT_USE"
    }
  ]
}