{
  "id": 73026,
  "series": 73026,
  "damageRatio": "WQ",
  "mainQuestTag": "MAINQUEST_TAG_RANK_ZERO_WQ",
  "descTextMapHash": 1193066447,
  "EKEKACCODOE": 2369664814,
  "luaPath": "Actor/Quest/WQ73026",
  "suggestTrackMainQuestList": [
    73027
  ],
  "rewardIdList": [
    173026
  ],
  "chapterId": 10070,
  "subQuests": [
    {
      "subId": 7302601,
      "mainId": 73026,
      "order": 99,
      "descTextMapHash": 2926083556,
      "guide": {
        "autoGuide": "QUEST_GUIDE_AUTO_ENABLE",
        "MLAHIFLGIGJ": ""
      },
      "showGuide": "QUEST_GUIDE_ITEM_DISABLE",
      "guideHint": {
        "param1": ""
      },
      "isRewind": true,
      "versionBegin": "",
      "versionEnd": ""
    },
    {
      "subId": 7302602,
      "mainId": 73026,
      "order": 98,
      "descTextMapHash": 3119207668,
      "guide": {
        "damageRatio": "QUEST_GUIDE_NPC",
        "autoGuide": "QUEST_GUIDE_AUTO_ENABLE",
        "param": [
          "20602"
        ],
        "guideScene": 3,
        "guideStyle": "QUEST_GUIDE_STYLE_TARGET",
        "guideLayer": "QUEST_GUIDE_LAYER_SCENE",
        "MLAHIFLGIGJ": ""
      },
      "guideHint": {
        "param1": ""
      },
      "isRewind": true,
      "versionBegin": "",
      "versionEnd": ""
    },
    {
      "subId": 7302603,
      "mainId": 73026,
      "order": 4,
      "descTextMapHash": 2983061084,
      "finishCond": [
        {
          "damageRatio": "QUEST_CONTENT_COMPLETE_TALK",
          "param": [
            7302606,
            0
          ]
        }
      ],
      "guide": {
        "damageRatio": "QUEST_GUIDE_LOCATION",
        "autoGuide": "QUEST_GUIDE_AUTO_ENABLE",
        "param": [
          "Q7302606_N20601",
          "0"
        ],
        "guideScene": 3,
        "guideStyle": "QUEST_GUIDE_STYLE_POINT",
        "guideLayer": "QUEST_GUIDE_LAYER_SCENE",
        "MLAHIFLGIGJ": ""
      },
      "guideHint": {
        "param1": ""
      },
      "isRewind": true,
      "versionBegin": "",
      "versionEnd": ""
    },
    {
      "subId": 7302604,
      "mainId": 73026,
      "order": 1,
      "descTextMapHash": 1971013684,
      "finishCond": [
        {
          "damageRatio": "QUEST_CONTENT_GADGET_STATE_CHANGE",
          "param": [
            133304040,
            40004
          ]
        }
      ],
      "guide": {
        "damageRatio": "QUEST_GUIDE_LOCATION",
        "autoGuide": "QUEST_GUIDE_AUTO_ENABLE",
        "param": [
          "WQL1_AREAROBOTDOOR",
          "0"
        ],
        "guideScene": 3,
        "guideStyle": "QUEST_GUIDE_STYLE_POINT",
        "guideLayer": "QUEST_GUIDE_LAYER_SCENE",
        "MLAHIFLGIGJ": ""
      },
      "guideHint": {
        "param1": ""
      },
      "isRewind": true,
      "versionBegin": "",
      "versionEnd": ""
    },
    {
      "subId": 7302605,
      "mainId": 73026,
      "order": 2,
      "isMpBlock": true,
      "descTextMapHash": 2848737180,
      "finishCond": [
        {
          "damageRatio": "QUEST_CONTENT_COMPLETE_TALK",
          "param": [
            7302605,
            0
          ]
        },
        {
          "damageRatio": "QUEST_CONTENT_COMPLETE_TALK",
          "param": [
            7302601,
            0
          ]
        }
      ],
      "guide": {
        "damageRatio": "QUEST_GUIDE_LOCATION",
        "autoGuide": "QUEST_GUIDE_AUTO_ENABLE",
        "param": [
          "WQL1_NPCROBOTENTER",
          "0"
        ],
        "guideScene": 3,
        "guideStyle": "QUEST_GUIDE_STYLE_POINT",
        "guideLayer": "QUEST_GUIDE_LAYER_SCENE",
        "MLAHIFLGIGJ": ""
      },
      "guideHint": {
        "param1": ""
      },
      "isRewind": true,
      "versionBegin": "",
      "versionEnd": ""
    },
    {
      "subId": 7302606,
      "mainId": 73026,
      "order": 3,
      "descTextMapHash": 1044772996,
      "finishCond": [
        {
          "damageRatio": "QUEST_CONTENT_GADGET_STATE_CHANGE",
          "param": [
            133304031,
            31001
          ]
        },
        {
          "damageRatio": "QUEST_CONTENT_GADGET_STATE_CHANGE",
          "param": [
            133304031,
            31002
          ]
        },
        {
          "damageRatio": "QUEST_CONTENT_GADGET_STATE_CHANGE",
          "param": [
            133304031,
            31003
          ]
        }
      ],
      "guide": {
        "damageRatio": "QUEST_GUIDE_LOCATION",
        "autoGuide": "QUEST_GUIDE_AUTO_ENABLE",
        "param": [
          "WQL1_NPCCOCKPIT",
          "50"
        ],
        "guideScene": 3,
        "guideStyle": "QUEST_GUIDE_STYLE_POINT",
        "guideLayer": "QUEST_GUIDE_LAYER_SCENE",
        "MLAHIFLGIGJ": ""
      },
      "guideHint": {
        "param1": ""
      },
      "isRewind": true,
      "versionBegin": "",
      "versionEnd": ""
    },
    {
      "subId": 7302607,
      "mainId": 73026,
      "order": 5,
      "descTextMapHash": 701651604,
      "finishCond": [
        {
          "damageRatio": "QUEST_CONTENT_GADGET_STATE_CHANGE",
          "param": [
            133304031,
            31015
          ]
        }
      ],
      "guide": {
        "damageRatio": "QUEST_GUIDE_LOCATION",
        "autoGuide": "QUEST_GUIDE_AUTO_ENABLE",
        "param": [
          "WQL1_NPCCOCKPIT",
          "50"
        ],
        "guideScene": 3,
        "guideStyle": "QUEST_GUIDE_STYLE_POINT",
        "guideLayer": "QUEST_GUIDE_LAYER_SCENE",
        "MLAHIFLGIGJ": ""
      },
      "guideHint": {
        "param1": ""
      },
      "isRewind": true,
      "finishExec": [
        {
          "damageRatio": "QUEST_EXEC_DEL_SCENE_TAG",
          "param": [
            "3",
            "1143"
          ]
        }
      ],
      "versionBegin": "",
      "versionEnd": ""
    },
    {
      "subId": 7302608,
      "mainId": 73026,
      "order": 8,
      "descTextMapHash": 3156689516,
      "finishCond": [
        {
          "damageRatio": "QUEST_CONTENT_GADGET_STATE_CHANGE",
          "param": [
            133304032,
            32027
          ]
        }
      ],
      "guide": {
        "damageRatio": "QUEST_GUIDE_LOCATION",
        "autoGuide": "QUEST_GUIDE_AUTO_ENABLE",
        "param": [
          "WQL1_NPCCOCKPIT",
          "50"
        ],
        "guideScene": 3,
        "guideStyle": "QUEST_GUIDE_STYLE_POINT",
        "guideLayer": "QUEST_GUIDE_LAYER_SCENE",
        "MLAHIFLGIGJ": ""
      },
      "guideHint": {
        "param1": ""
      },
      "isRewind": true,
      "finishExec": [
        {
          "damageRatio": "QUEST_EXEC_REFRESH_GROUP_SUITE",
          "param": [
            "3",
            "133304403,2"
          ]
        }
      ],
      "versionBegin": "",
      "versionEnd": ""
    },
    {
      "subId": 7302609,
      "mainId": 73026,
      "order": 9,
      "descTextMapHash": 512918460,
      "finishCond": [
        {
          "damageRatio": "QUEST_CONTENT_LUA_NOTIFY",
          "param": [
            0,
            0
          ],
          "count": 1
        }
      ],
      "guide": {
        "damageRatio": "QUEST_GUIDE_LOCATION",
        "autoGuide": "QUEST_GUIDE_AUTO_ENABLE",
        "param": [
          "WQL1_SABER",
          "30"
        ],
        "guideScene": 3,
        "guideStyle": "QUEST_GUIDE_STYLE_POINT",
        "guideLayer": "QUEST_GUIDE_LAYER_SCENE",
        "MLAHIFLGIGJ": ""
      },
      "guideHint": {
        "param1": ""
      },
      "isRewind": true,
      "finishExec": [
        {
          "damageRatio": "QUEST_EXEC_UNREGISTER_DYNAMIC_GROUP",
          "param": [
            "133304013",
            "1"
          ]
        }
      ],
      "versionBegin": "",
      "versionEnd": ""
    },
    {
      "subId": 7302610,
      "mainId": 73026,
      "order": 11,
      "descTextMapHash": 2868415788,
      "finishCond": [
        {
          "damageRatio": "QUEST_CONTENT_GADGET_STATE_CHANGE",
          "param": [
            133304033,
            33013
          ]
        }
      ],
      "guide": {
        "damageRatio": "QUEST_GUIDE_LOCATION",
        "autoGuide": "QUEST_GUIDE_AUTO_ENABLE",
        "param": [
          "WQL1_NPCCOCKPIT",
          "50"
        ],
        "guideScene": 3,
        "guideStyle": "QUEST_GUIDE_STYLE_POINT",
        "guideLayer": "QUEST_GUIDE_LAYER_SCENE",
        "MLAHIFLGIGJ": ""
      },
      "guideHint": {
        "param1": ""
      },
      "isRewind": true,
      "versionBegin": "",
      "versionEnd": ""
    },
    {
      "subId": 7302611,
      "mainId": 73026,
      "order": 12,
      "descTextMapHash": 3660900548,
      "stepDescTextMapHash": 3412344765,
      "finishCond": [
        {
          "damageRatio": "QUEST_CONTENT_COMPLETE_TALK",
          "param": [
            7302611,
            0
          ]
        }
      ],
      "guide": {
        "damageRatio": "QUEST_GUIDE_LOCATION",
        "autoGuide": "QUEST_GUIDE_AUTO_ENABLE",
        "param": [
          "WQL1_NPCCOCKPIT",
          "0"
        ],
        "guideScene": 3,
        "guideStyle": "QUEST_GUIDE_STYLE_POINT",
        "guideLayer": "QUEST_GUIDE_LAYER_SCENE",
        "MLAHIFLGIGJ": ""
      },
      "guideHint": {
        "param1": ""
      },
      "isRewind": true,
      "versionBegin": "",
      "versionEnd": ""
    },
    {
      "subId": 7302612,
      "mainId": 73026,
      "order": 13,
      "descTextMapHash": 644584788,
      "finishCond": [
        {
          "damageRatio": "QUEST_CONTENT_LUA_NOTIFY",
          "param": [
            0,
            0
          ],
          "count": 1
        }
      ],
      "guide": {
        "damageRatio": "QUEST_GUIDE_LOCATION",
        "autoGuide": "QUEST_GUIDE_AUTO_ENABLE",
        "param": [
          "WQL1_AREASCREEN",
          "0"
        ],
        "guideScene": 3,
        "guideStyle": "QUEST_GUIDE_STYLE_TARGET",
        "guideLayer": "QUEST_GUIDE_LAYER_SCENE",
        "MLAHIFLGIGJ": ""
      },
      "guideHint": {
        "param1": ""
      },
      "isRewind": true,
      "finishExec": [
        {
          "damageRatio": "QUEST_EXEC_ADD_SCENE_TAG",
          "param": [
            "3",
            "1162"
          ]
        },
        {
          "damageRatio": "QUEST_EXEC_NOTIFY_GROUP_LUA",
          "param": [
            "3",
            "133304042"
          ]
        }
      ],
      "versionBegin": "",
      "versionEnd": ""
    },
    {
      "subId": 7302613,
      "mainId": 73026,
      "order": 14,
      "descTextMapHash": 3862260268,
      "finishCond": [
        {
          "damageRatio": "QUEST_CONTENT_COMPLETE_TALK",
          "param": [
            7302613,
            0
          ]
        }
      ],
      "guide": {
        "damageRatio": "QUEST_GUIDE_NPC",
        "autoGuide": "QUEST_GUIDE_AUTO_ENABLE",
        "param": [
          "20601"
        ],
        "guideScene": 3,
        "guideStyle": "QUEST_GUIDE_STYLE_TARGET",
        "guideLayer": "QUEST_GUIDE_LAYER_SCENE",
        "MLAHIFLGIGJ": ""
      },
      "guideHint": {
        "param1": ""
      },
      "finishParent": true,
      "isRewind": true,
      "finishExec": [
        {
          "damageRatio": "QUEST_EXEC_SET_QUEST_GLOBAL_VAR",
          "param": [
            "73026",
            "1"
          ]
        }
      ],
      "versionBegin": "",
      "versionEnd": ""
    },
    {
      "subId": 7302614,
      "mainId": 73026,
      "order": 10,
      "descTextMapHash": 1341302620,
      "finishCond": [
        {
          "damageRatio": "QUEST_CONTENT_COMPLETE_TALK",
          "param": [
            7302609,
            0
          ]
        }
      ],
      "guide": {
        "damageRatio": "QUEST_GUIDE_NPC",
        "autoGuide": "QUEST_GUIDE_AUTO_ENABLE",
        "param": [
          "20601"
        ],
        "guideScene": 3,
        "guideStyle": "QUEST_GUIDE_STYLE_POINT",
        "guideLayer": "QUEST_GUIDE_LAYER_SCENE",
        "MLAHIFLGIGJ": ""
      },
      "guideHint": {
        "param1": ""
      },
      "isRewind": true,
      "versionBegin": "",
      "versionEnd": ""
    },
    {
      "subId": 7302615,
      "mainId": 73026,
      "order": 7,
      "descTextMapHash": 2297542684,
      "finishCond": [
        {
          "damageRatio": "QUEST_CONTENT_COMPLETE_TALK",
          "param": [
            7302608,
            0
          ]
        }
      ],
      "guide": {
        "damageRatio": "QUEST_GUIDE_NPC",
        "autoGuide": "QUEST_GUIDE_AUTO_ENABLE",
        "param": [
          "20601"
        ],
        "guideScene": 3,
        "guideStyle": "QUEST_GUIDE_STYLE_TARGET",
        "guideLayer": "QUEST_GUIDE_LAYER_SCENE",
        "MLAHIFLGIGJ": ""
      },
      "guideHint": {
        "param1": ""
      },
      "isRewind": true,
      "versionBegin": "",
      "versionEnd": ""
    },
    {
      "subId": 7302616,
      "mainId": 73026,
      "order": 6,
      "descTextMapHash": 1280582572,
      "finishCond": [
        {
          "damageRatio": "QUEST_CONTENT_FINISH_PLOT",
          "param": [
            7302616,
            0
          ]
        }
      ],
      "guide": {
        "damageRatio": "QUEST_GUIDE_LOCATION",
        "autoGuide": "QUEST_GUIDE_AUTO_ENABLE",
        "param": [
          "WQL1_NPCCOCKPIT",
          "50"
        ],
        "guideScene": 3,
        "guideStyle": "QUEST_GUIDE_STYLE_POINT",
        "guideLayer": "QUEST_GUIDE_LAYER_SCENE",
        "MLAHIFLGIGJ": ""
      },
      "guideHint": {
        "param1": ""
      },
      "isRewind": true,
      "versionBegin": "",
      "versionEnd": ""
    }
  ],
  "talks": [
    {
      "id": 7302601,
      "beginWay": "TALK_BEGIN_AUTO",
      "beginCondComb": "LOGIC_AND",
      "beginCond": [
        {
          "type": "QUEST_COND_STATE_EQUAL",
          "_param": [
            "7302605",
            "2"
          ]
        },
        {
          "type": "QUEST_COND_STATE_EQUAL",
          "_param": [
            "7308417",
            "3"
          ]
        }
      ],
      "priority": 10,
      "initDialog": 730260101,
      "npcId": [
        20645
      ],
      "performCfg": "QuestDialogue/WQ/Sumeru_73026/Q7302601",
      "heroTalk": "TALK_HERO_MAIN",
      "questId": 73026,
      "assetIndex": 15587261466807151972,
      "prePerformCfg": ""
    },
    {
      "id": 7302605,
      "beginWay": "TALK_BEGIN_AUTO",
      "beginCondComb": "LOGIC_AND",
      "beginCond": [
        {
          "type": "QUEST_COND_STATE_EQUAL",
          "_param": [
            "7302605",
            "2"
          ]
        }
      ],
      "priority": 5,
      "initDialog": 730260501,
      "npcId": [
        20645
      ],
      "performCfg": "QuestDialogue/WQ/Sumeru_73026/Q7302605",
      "heroTalk": "TALK_HERO_MAIN",
      "questId": 73026,
      "assetIndex": 8694840632506438758,
      "prePerformCfg": ""
    },
    {
      "id": 7302606,
      "beginWay": "TALK_BEGIN_AUTO",
      "beginCond": [
        {
          "type": "QUEST_COND_STATE_EQUAL",
          "_param": [
            "7302603",
            "2"
          ]
        }
      ],
      "priority": 5,
      "initDialog": 730260601,
      "npcId": [
        20645
      ],
      "performCfg": "QuestDialogue/WQ/Sumeru_73026/Q7302606",
      "heroTalk": "TALK_HERO_MAIN",
      "questId": 73026,
      "assetIndex": 2705526613205633404,
      "prePerformCfg": ""
    },
    {
      "id": 7302607,
      "beginWay": "TALK_BEGIN_MANUAL",
      "beginCondComb": "LOGIC_AND",
      "beginCond": [
        {
          "type": "QUEST_COND_STATE_EQUAL",
          "_param": [
            "7302603",
            "3"
          ]
        },
        {
          "type": "QUEST_COND_QUEST_NOT_RECEIVE",
          "_param": [
            "7302614",
            "1"
          ]
        }
      ],
      "priority": 1,
      "initDialog": 730260701,
      "npcId": [
        20601
      ],
      "performCfg": "",
      "heroTalk": "TALK_HERO_MAIN",
      "questId": 73026,
      "assetIndex": 1129492134253932824,
      "prePerformCfg": ""
    },
    {
      "id": 7302608,
      "beginWay": "TALK_BEGIN_MANUAL",
      "beginCond": [
        {
          "type": "QUEST_COND_STATE_EQUAL",
          "_param": [
            "7302615",
            "2"
          ]
        }
      ],
      "priority": 5,
      "initDialog": 730260801,
      "npcId": [
        20601
      ],
      "performCfg": "QuestDialogue/WQ/Sumeru_73026/Q7302608",
      "heroTalk": "TALK_HERO_MAIN",
      "questId": 73026,
      "assetIndex": 2816529675002623262,
      "prePerformCfg": ""
    },
    {
      "id": 7302609,
      "beginWay": "TALK_BEGIN_MANUAL",
      "beginCond": [
        {
          "type": "QUEST_COND_STATE_EQUAL",
          "_param": [
            "7302614",
            "2"
          ]
        }
      ],
      "priority": 5,
      "initDialog": 730260901,
      "npcId": [
        20601
      ],
      "performCfg": "QuestDialogue/WQ/Sumeru_73026/Q7302609",
      "heroTalk": "TALK_HERO_MAIN",
      "questId": 73026,
      "assetIndex": 7275555375731325132,
      "prePerformCfg": ""
    },
    {
      "id": 7302611,
      "beginWay": "TALK_BEGIN_AUTO",
      "beginCond": [
        {
          "type": "QUEST_COND_STATE_EQUAL",
          "_param": [
            "7302611",
            "2"
          ]
        }
      ],
      "priority": 5,
      "initDialog": 730261101,
      "npcId": [
        20645
      ],
      "performCfg": "QuestDialogue/WQ/Sumeru_73026/Q7302611",
      "heroTalk": "TALK_HERO_MAIN",
      "questId": 73026,
      "assetIndex": 6208972808665975358,
      "prePerformCfg": ""
    },
    {
      "id": 7302612,
      "beginWay": "TALK_BEGIN_MANUAL",
      "beginCondComb": "LOGIC_AND",
      "beginCond": [
        {
          "type": "QUEST_COND_STATE_EQUAL",
          "_param": [
            "7302611",
            "3"
          ]
        },
        {
          "type": "QUEST_COND_STATE_EQUAL",
          "_param": [
            "7302612",
            "2"
          ]
        }
      ],
      "priority": 5,
      "initDialog": 730261201,
      "npcId": [
        20601
      ],
      "performCfg": "",
      "heroTalk": "TALK_HERO_MAIN",
      "questId": 73026,
      "assetIndex": 367194652126623845,
      "prePerformCfg": ""
    },
    {
      "id": 7302613,
      "beginWay": "TALK_BEGIN_MANUAL",
      "beginCond": [
        {
          "type": "QUEST_COND_STATE_EQUAL",
          "_param": [
            "7302613",
            "2"
          ]
        }
      ],
      "priority": 5,
      "initDialog": 730261301,
      "npcId": [
        20601
      ],
      "performCfg": "QuestDialogue/WQ/Sumeru_73026/Q7302613",
      "heroTalk": "TALK_HERO_MAIN",
      "questId": 73026,
      "assetIndex": 3795550440667173896,
      "prePerformCfg": ""
    }
  ],
  "preloadLuaList": [
    1631167658280560862,
    12323253510022459840
  ],
  "forcePreloadLuaList": [
    14016477756510978913
  ],
  "LJICLPBJCCB": [
    {
      "id": 220055,
      "actionType": "DIRECT_USE"
    }
  ]
}