{
  "id": 73021,
  "damageRatio": "WQ",
  "mainQuestTag": "MAINQUEST_TAG_RANK_ZERO_WQ",
  "activeMode": "PLAY_MODE_ALL",
  "descTextMapHash": 3737220471,
  "EKEKACCODOE": 2098715374,
  "luaPath": "Actor/Quest/WQ73021",
  "rewardIdList": [
    173021
  ],
  "specialShowRewardId": [
    33371
  ],
  "chapterId": 10069,
  "subQuests": [
    {
      "subId": 7302101,
      "mainId": 73021,
      "order": 1,
      "descTextMapHash": 708236708,
      "finishCond": [
        {
          "damageRatio": "QUEST_CONTENT_FINISH_PLOT",
          "param": [
            7302101,
            0
          ]
        }
      ],
      "guide": {
        "damageRatio": "QUEST_GUIDE_LOCATION",
        "param": [
          "Q7302101_guide",
          "75"
        ],
        "guideScene": 3,
        "guideStyle": "QUEST_GUIDE_STYLE_POINT",
        "MLAHIFLGIGJ": ""
      },
      "showGuide": "QUEST_GUIDE_ITEM_DISABLE",
      "guideHint": {
        "param1": ""
      },
      "isRewind": true,
      "versionBegin": "",
      "versionEnd": ""
    },
    {
      "subId": 7302102,
      "mainId": 73021,
      "order": 2,
      "descTextMapHash": 39479188,
      "finishCond": [
        {
          "damageRatio": "QUEST_CONTENT_COMPLETE_TALK",
          "param": [
            7302101,
            0
          ]
        },
        {
          "damageRatio": "QUEST_CONTENT_COMPLETE_TALK",
          "param": [
            7302102,
            0
          ]
        }
      ],
      "guide": {
        "damageRatio": "QUEST_GUIDE_LOCATION",
        "param": [
          "Q7302102_guide"
        ],
        "guideScene": 3,
        "guideStyle": "QUEST_GUIDE_STYLE_POINT",
        "MLAHIFLGIGJ": ""
      },
      "guideHint": {
        "param1": ""
      },
      "isRewind": true,
      "versionBegin": "",
      "versionEnd": ""
    },
    {
      "subId": 7302103,
      "mainId": 73021,
      "order": 5,
      "showType": "QUEST_HIDDEN",
      "finishCond": [
        {
          "damageRatio": "QUEST_CONTENT_COMPLETE_TALK",
          "param": [
            7302104,
            0
          ]
        }
      ],
      "guide": {
        "MLAHIFLGIGJ": ""
      },
      "guideHint": {
        "param1": ""
      },
      "finishParent": true,
      "isRewind": true,
      "versionBegin": "",
      "versionEnd": ""
    },
    {
      "subId": 7302104,
      "mainId": 73021,
      "order": 3,
      "descTextMapHash": 3461277972,
      "stepDescTextMapHash": 1451072901,
      "finishCond": [
        {
          "damageRatio": "QUEST_CONTENT_GADGET_STATE_CHANGE",
          "param": [
            133301042,
            42001
          ]
        }
      ],
      "guide": {
        "damageRatio": "QUEST_GUIDE_LOCATION",
        "param": [
          "Q7302103_guide",
          "15"
        ],
        "guideScene": 3,
        "guideStyle": "QUEST_GUIDE_STYLE_POINT",
        "MLAHIFLGIGJ": ""
      },
      "guideHint": {
        "param1": ""
      },
      "isRewind": true,
      "versionBegin": "",
      "versionEnd": ""
    },
    {
      "subId": 7302105,
      "mainId": 73021,
      "order": 4,
      "descTextMapHash": 907123476,
      "finishCond": [
        {
          "damageRatio": "QUEST_CONTENT_FINISH_ITEM_GIVING",
          "param": [
            7302105,
            0
          ]
        }
      ],
      "guide": {
        "damageRatio": "QUEST_GUIDE_NPC",
        "param": [
          "20652"
        ],
        "guideScene": 3,
        "guideStyle": "QUEST_GUIDE_STYLE_TARGET",
        "MLAHIFLGIGJ": ""
      },
      "guideHint": {
        "param1": ""
      },
      "isRewind": true,
      "versionBegin": "",
      "versionEnd": ""
    }
  ],
  "talks": [
    {
      "id": 7302101,
      "beginWay": "TALK_BEGIN_MANUAL",
      "activeMode": "PLAY_MODE_HOST",
      "beginCond": [
        {
          "type": "QUEST_COND_STATE_EQUAL",
          "_param": [
            "7302102",
            "2"
          ]
        }
      ],
      "priority": 5,
      "initDialog": 730210101,
      "npcId": [
        20726,
        1005,
        20652
      ],
      "performCfg": "QuestDialogue/WQ/Sumeru_73021/Q7302101",
      "heroTalk": "TALK_HERO_MAIN",
      "questId": 73021,
      "assetIndex": 6510955996514739493,
      "prePerformCfg": ""
    },
    {
      "id": 7302102,
      "beginWay": "TALK_BEGIN_MANUAL",
      "activeMode": "PLAY_MODE_HOST",
      "beginCondComb": "LOGIC_AND",
      "beginCond": [
        {
          "type": "QUEST_COND_STATE_EQUAL",
          "_param": [
            "7302102",
            "2"
          ]
        },
        {
          "type": "QUEST_COND_STATE_EQUAL",
          "_param": [
            "7301822",
            "3"
          ]
        }
      ],
      "priority": 10,
      "initDialog": 730210201,
      "npcId": [
        20726,
        1005,
        20652
      ],
      "performCfg": "QuestDialogue/WQ/Sumeru_73021/Q7302102",
      "heroTalk": "TALK_HERO_MAIN",
      "questId": 73021,
      "assetIndex": 13544258524641559522,
      "prePerformCfg": ""
    },
    {
      "id": 7302103,
      "beginWay": "TALK_BEGIN_MANUAL",
      "activeMode": "PLAY_MODE_HOST",
      "beginCond": [
        {
          "type": "QUEST_COND_STATE_EQUAL",
          "_param": [
            "7302104",
            "2"
          ]
        }
      ],
      "priority": 5,
      "initDialog": 730210301,
      "npcId": [
        20652
      ],
      "performCfg": "",
      "questId": 73021,
      "assetIndex": 17805861756956597213,
      "prePerformCfg": ""
    },
    {
      "id": 7302104,
      "beginWay": "TALK_BEGIN_MANUAL",
      "activeMode": "PLAY_MODE_HOST",
      "beginCondComb": "LOGIC_AND",
      "beginCond": [
        {
          "type": "QUEST_COND_STATE_EQUAL",
          "_param": [
            "7302103",
            "2"
          ]
        }
      ],
      "priority": 5,
      "initDialog": 730210401,
      "npcId": [
        20652,
        1005
      ],
      "performCfg": "QuestDialogue/WQ/Sumeru_73021/Q7302104",
      "heroTalk": "TALK_HERO_MAIN",
      "questId": 73021,
      "assetIndex": 10143049542979363331,
      "prePerformCfg": ""
    },
    {
      "id": 7302105,
      "beginWay": "TALK_BEGIN_MANUAL",
      "activeMode": "PLAY_MODE_HOST",
      "beginCond": [
        {
          "type": "QUEST_COND_STATE_EQUAL",
          "_param": [
            "7302103",
            "3"
          ]
        }
      ],
      "priority": 5,
      "initDialog": 730210501,
      "npcId": [
        20652
      ],
      "performCfg": "",
      "questId": 73021,
      "assetIndex": 7574359425030825012,
      "prePerformCfg": "",
      "questIdleTalk": true
    },
    {
      "id": 7302106,
      "beginWay": "TALK_BEGIN_MANUAL",
      "activeMode": "PLAY_MODE_HOST",
      "beginCondComb": "LOGIC_AND",
      "beginCond": [
        {
          "type": "QUEST_COND_STATE_EQUAL",
          "_param": [
            "7302105",
            "2"
          ]
        },
        {
          "type": "QUEST_COND_ITEM_GIVING_ACTIVED",
          "_param": [
            "7302105"
          ]
        }
      ],
      "priority": 5,
      "initDialog": 730210601,
      "npcId": [
        20652
      ],
      "performCfg": "",
      "heroTalk": "TALK_HERO_MAIN",
      "questId": 73021,
      "assetIndex": 8292654618954417701,
      "prePerformCfg": ""
    },
    {
      "id": 7302107,
      "beginWay": "TALK_BEGIN_MANUAL",
      "activeMode": "PLAY_MODE_HOST",
      "priority": 5,
      "initDialog": 730210701,
      "npcId": [
        20739
      ],
      "performCfg": "",
      "questId": 73021,
      "assetIndex": 556959295605293169,
      "prePerformCfg": ""
    }
  ],
  "preloadLuaList": [
    13653978331562449994,
    11702568721954969692
  ],
  "forcePreloadLuaList": [
    14508344611360843793
  ],
  "LJICLPBJCCB": [
    {
      "id": 220055,
      "actionType": "DIRECT_USE"
    }
  ]
}