{
  "id": 73033,
  "damageRatio": "WQ",
  "mainQuestTag": "MAINQUEST_TAG_RANK_ZERO_WQ",
  "activeMode": "PLAY_MODE_ALL",
  "descTextMapHash": 1027713999,
  "EKEKACCODOE": 1698222646,
  "luaPath": "Actor/Quest/WQ73033",
  "rewardIdList": [
    173033
  ],
  "chapterId": 10076,
  "subQuests": [
    {
      "subId": 7303301,
      "mainId": 73033,
      "order": 2,
      "descTextMapHash": 1785796172,
      "finishCond": [
        {
          "damageRatio": "QUEST_CONTENT_QUEST_STATE_EQUAL",
          "param": [
            7301303,
            3
          ]
        },
        {
          "damageRatio": "QUEST_CONTENT_QUEST_STATE_EQUAL",
          "param": [
            7306631,
            3
          ]
        },
        {
          "damageRatio": "QUEST_CONTENT_QUEST_STATE_EQUAL",
          "param": [
            7302714,
            3
          ]
        },
        {
          "damageRatio": "QUEST_CONTENT_QUEST_STATE_EQUAL",
          "param": [
            7301822,
            3
          ]
        },
        {
          "damageRatio": "QUEST_CONTENT_QUEST_STATE_EQUAL",
          "param": [
            7303302,
            3
          ]
        },
        {
          "damageRatio": "QUEST_CONTENT_QUEST_STATE_EQUAL",
          "param": [
            7306806,
            3
          ]
        }
      ],
      "guide": {
        "MLAHIFLGIGJ": ""
      },
      "guideHint": {
        "damageRatio": "QUEST_GUIDE_HINT_ARANARA_HANDBOOK_RECORD",
        "param1": "106"
      },
      "finishParent": true,
      "isRewind": true,
      "finishExec": [
        {
          "damageRatio": "QUEST_EXEC_INIT_TIME_VAR",
          "param": [
            "1"
          ]
        }
      ],
      "versionBegin": "",
      "versionEnd": ""
    },
    {
      "subId": 7303302,
      "mainId": 73033,
      "order": 1,
      "showType": "QUEST_HIDDEN",
      "finishCond": [
        {
          "damageRatio": "QUEST_CONTENT_QUEST_STATE_EQUAL",
          "param": [
            7306915,
            3
          ]
        },
        {
          "damageRatio": "QUEST_CONTENT_QUEST_STATE_EQUAL",
          "param": [
            7307016,
            3
          ]
        },
        {
          "damageRatio": "QUEST_CONTENT_QUEST_STATE_EQUAL",
          "param": [
            7307414,
            3
          ]
        }
      ],
      "guide": {
        "MLAHIFLGIGJ": ""
      },
      "guideHint": {
        "param1": ""
      },
      "isRewind": true,
      "finishExec": [
        {
          "damageRatio": "QUEST_EXEC_REFRESH_GROUP_SUITE",
          "param": [
            "3",
            "133301013,2"
          ]
        }
      ],
      "versionBegin": "",
      "versionEnd": ""
    }
  ],
  "LJICLPBJCCB": [
    {
      "id": 220055,
      "actionType": "DIRECT_USE"
    }
  ]
}