{
  "id": 73069,
  "damageRatio": "WQ",
  "mainQuestTag": "MAINQUEST_TAG_RANK_ZERO_WQ",
  "descTextMapHash": 766429391,
  "luaPath": "Actor/Quest/WQ73069",
  "rewardIdList": [
    173069
  ],
  "chapterId": 10076,
  "subQuests": [
    {
      "subId": 7306901,
      "mainId": 73069,
      "order": 2,
      "descTextMapHash": 3667396916,
      "showType": "QUEST_HIDDEN",
      "finishCond": [
        {
          "damageRatio": "QUEST_CONTENT_FINISH_PLOT",
          "param": [
            7306901,
            0
          ]
        },
        {
          "damageRatio": "QUEST_CONTENT_QUEST_STATE_NOT_EQUAL",
          "param": [
            7308106,
            2
          ]
        },
        {
          "damageRatio": "QUEST_CONTENT_QUEST_STATE_NOT_EQUAL",
          "param": [
            7308107,
            2
          ]
        }
      ],
      "guide": {
        "damageRatio": "QUEST_GUIDE_LOCATION",
        "autoGuide": "QUEST_GUIDE_AUTO_ENABLE",
        "param": [
          "Q7306901_N20646"
        ],
        "guideScene": 3,
        "guideStyle": "QUEST_GUIDE_STYLE_START",
        "guideLayer": "QUEST_GUIDE_LAYER_SCENE",
        "MLAHIFLGIGJ": ""
      },
      "showGuide": "QUEST_GUIDE_ITEM_DISABLE",
      "guideHint": {
        "param1": ""
      },
      "isRewind": true,
      "versionBegin": "",
      "versionEnd": ""
    },
    {
      "subId": 7306903,
      "mainId": 73069,
      "order": 4,
      "descTextMapHash": 3328151564,
      "stepDescTextMapHash": 2572595349,
      "JIFODJPFKDF": [
        73263
      ],
      "finishCond": [
        {
          "damageRatio": "QUEST_CONTENT_COMPLETE_TALK",
          "param": [
            7306903,
            0
          ]
        },
        {
          "damageRatio": "QUEST_CONTENT_COMPLETE_TALK",
          "param": [
            7306904,
            0
          ]
        }
      ],
      "guide": {
        "damageRatio": "QUEST_GUIDE_NPC",
        "autoGuide": "QUEST_GUIDE_AUTO_ENABLE",
        "param": [
          "20665"
        ],
        "guideScene": 3,
        "guideStyle": "QUEST_GUIDE_STYLE_START",
        "guideLayer": "QUEST_GUIDE_LAYER_SCENE",
        "MLAHIFLGIGJ": ""
      },
      "guideHint": {
        "param1": ""
      },
      "isRewind": true,
      "finishExec": [
        {
          "damageRatio": "QUEST_EXEC_NOTIFY_GROUP_LUA",
          "param": [
            "3",
            "133302049"
          ]
        }
      ],
      "versionBegin": "",
      "versionEnd": ""
    },
    {
      "subId": 7306904,
      "mainId": 73069,
      "order": 5,
      "descTextMapHash": 3037516356,
      "stepDescTextMapHash": 2548702589,
      "JIFODJPFKDF": [
        73263
      ],
      "finishCond": [
        {
          "damageRatio": "QUEST_CONTENT_GADGET_STATE_CHANGE",
          "param": [
            133302049,
            49017
          ]
        }
      ],
      "guide": {
        "damageRatio": "QUEST_GUIDE_LOCATION",
        "autoGuide": "QUEST_GUIDE_AUTO_ENABLE",
        "param": [
          "Q7306904_guide",
          "20"
        ],
        "guideScene": 3,
        "guideStyle": "QUEST_GUIDE_STYLE_POINT",
        "guideLayer": "QUEST_GUIDE_LAYER_SCENE",
        "MLAHIFLGIGJ": ""
      },
      "guideHint": {
        "param1": ""
      },
      "isRewind": true,
      "versionBegin": "",
      "versionEnd": ""
    },
    {
      "subId": 7306905,
      "mainId": 73069,
      "order": 6,
      "descTextMapHash": 2636161884,
      "JIFODJPFKDF": [
        73263
      ],
      "finishCond": [
        {
          "damageRatio": "QUEST_CONTENT_GADGET_STATE_CHANGE",
          "param": [
            133302049,
            49006
          ]
        }
      ],
      "guide": {
        "damageRatio": "QUEST_GUIDE_LOCATION",
        "autoGuide": "QUEST_GUIDE_AUTO_ENABLE",
        "param": [
          "Q7306905_guide"
        ],
        "guideScene": 3,
        "guideStyle": "QUEST_GUIDE_STYLE_POINT",
        "guideLayer": "QUEST_GUIDE_LAYER_SCENE",
        "MLAHIFLGIGJ": ""
      },
      "guideHint": {
        "param1": ""
      },
      "isRewind": true,
      "versionBegin": "",
      "versionEnd": ""
    },
    {
      "subId": 7306906,
      "mainId": 73069,
      "order": 7,
      "descTextMapHash": 2507167548,
      "JIFODJPFKDF": [
        73263
      ],
      "finishCond": [
        {
          "damageRatio": "QUEST_CONTENT_COMPLETE_TALK",
          "param": [
            7306905,
            0
          ]
        }
      ],
      "guide": {
        "damageRatio": "QUEST_GUIDE_NPC",
        "autoGuide": "QUEST_GUIDE_AUTO_ENABLE",
        "param": [
          "20665"
        ],
        "guideScene": 3,
        "guideStyle": "QUEST_GUIDE_STYLE_POINT",
        "guideLayer": "QUEST_GUIDE_LAYER_SCENE",
        "MLAHIFLGIGJ": ""
      },
      "guideHint": {
        "param1": ""
      },
      "isRewind": true,
      "versionBegin": "",
      "versionEnd": ""
    },
    {
      "subId": 7306907,
      "mainId": 73069,
      "order": 8,
      "descTextMapHash": 732400516,
      "stepDescTextMapHash": 1711725613,
      "JIFODJPFKDF": [
        73263
      ],
      "finishCond": [
        {
          "damageRatio": "QUEST_CONTENT_FINISH_PLOT",
          "param": [
            7306907,
            0
          ]
        }
      ],
      "guide": {
        "damageRatio": "QUEST_GUIDE_LOCATION",
        "autoGuide": "QUEST_GUIDE_AUTO_ENABLE",
        "param": [
          "Q7306906_guide",
          "40"
        ],
        "guideScene": 3,
        "guideStyle": "QUEST_GUIDE_STYLE_TARGET",
        "guideLayer": "QUEST_GUIDE_LAYER_SCENE",
        "MLAHIFLGIGJ": ""
      },
      "guideHint": {
        "param1": ""
      },
      "isRewind": true,
      "versionBegin": "",
      "versionEnd": ""
    },
    {
      "subId": 7306908,
      "mainId": 73069,
      "order": 9,
      "descTextMapHash": 3316117028,
      "JIFODJPFKDF": [
        73263
      ],
      "finishCond": [
        {
          "damageRatio": "QUEST_CONTENT_GADGET_STATE_CHANGE",
          "param": [
            133315111,
            111001
          ]
        }
      ],
      "guide": {
        "damageRatio": "QUEST_GUIDE_LOCATION",
        "autoGuide": "QUEST_GUIDE_AUTO_ENABLE",
        "param": [
          "Q7306906_guide"
        ],
        "guideScene": 3,
        "guideStyle": "QUEST_GUIDE_STYLE_TARGET",
        "guideLayer": "QUEST_GUIDE_LAYER_SCENE",
        "MLAHIFLGIGJ": ""
      },
      "guideHint": {
        "param1": ""
      },
      "isRewind": true,
      "versionBegin": "",
      "versionEnd": ""
    },
    {
      "subId": 7306909,
      "mainId": 73069,
      "order": 10,
      "descTextMapHash": 375815308,
      "JIFODJPFKDF": [
        73263
      ],
      "finishCond": [
        {
          "damageRatio": "QUEST_CONTENT_FINISH_PLOT",
          "param": [
            7306909,
            0
          ]
        }
      ],
      "guide": {
        "damageRatio": "QUEST_GUIDE_LOCATION",
        "autoGuide": "QUEST_GUIDE_AUTO_ENABLE",
        "param": [
          "Q7306906_guide"
        ],
        "guideScene": 3,
        "guideStyle": "QUEST_GUIDE_STYLE_TARGET",
        "guideLayer": "QUEST_GUIDE_LAYER_SCENE",
        "MLAHIFLGIGJ": ""
      },
      "guideHint": {
        "param1": ""
      },
      "isRewind": true,
      "versionBegin": "",
      "versionEnd": ""
    },
    {
      "subId": 7306910,
      "mainId": 73069,
      "order": 11,
      "descTextMapHash": 669758732,
      "stepDescTextMapHash": 4175399045,
      "JIFODJPFKDF": [
        73263
      ],
      "finishCond": [
        {
          "damageRatio": "QUEST_CONTENT_GADGET_STATE_CHANGE",
          "param": [
            133302280,
            280031
          ]
        },
        {
          "damageRatio": "QUEST_CONTENT_LUA_NOTIFY",
          "param": [
            0,
            0
          ],
          "count": 1
        }
      ],
      "guide": {
        "damageRatio": "QUEST_GUIDE_LOCATION",
        "autoGuide": "QUEST_GUIDE_AUTO_ENABLE",
        "param": [
          "Q7306910_guide",
          "50"
        ],
        "guideScene": 3,
        "guideStyle": "QUEST_GUIDE_STYLE_POINT",
        "guideLayer": "QUEST_GUIDE_LAYER_SCENE",
        "MLAHIFLGIGJ": ""
      },
      "guideHint": {
        "param1": ""
      },
      "isRewind": true,
      "versionBegin": "",
      "versionEnd": ""
    },
    {
      "subId": 7306911,
      "mainId": 73069,
      "order": 12,
      "descTextMapHash": 670875588,
      "stepDescTextMapHash": 1386024701,
      "JIFODJPFKDF": [
        73263
      ],
      "finishCond": [
        {
          "damageRatio": "QUEST_CONTENT_GADGET_STATE_CHANGE",
          "param": [
            133302160,
            160001
          ]
        }
      ],
      "guide": {
        "damageRatio": "QUEST_GUIDE_LOCATION",
        "autoGuide": "QUEST_GUIDE_AUTO_ENABLE",
        "param": [
          "Q7306911_guide",
          "30"
        ],
        "guideScene": 3,
        "guideStyle": "QUEST_GUIDE_STYLE_TARGET",
        "guideLayer": "QUEST_GUIDE_LAYER_SCENE",
        "MLAHIFLGIGJ": ""
      },
      "guideHint": {
        "param1": ""
      },
      "isRewind": true,
      "versionBegin": "",
      "versionEnd": ""
    },
    {
      "subId": 7306912,
      "mainId": 73069,
      "order": 13,
      "descTextMapHash": 3613610524,
      "JIFODJPFKDF": [
        73263
      ],
      "finishCond": [
        {
          "damageRatio": "QUEST_CONTENT_COMPLETE_TALK",
          "param": [
            7306912,
            0
          ]
        },
        {
          "damageRatio": "QUEST_CONTENT_COMPLETE_TALK",
          "param": [
            7306913,
            0
          ]
        },
        {
          "damageRatio": "QUEST_CONTENT_COMPLETE_TALK",
          "param": [
            7306914,
            0
          ]
        }
      ],
      "guide": {
        "damageRatio": "QUEST_GUIDE_NPC",
        "autoGuide": "QUEST_GUIDE_AUTO_ENABLE",
        "param": [
          "20646"
        ],
        "guideScene": 3,
        "guideStyle": "QUEST_GUIDE_STYLE_POINT",
        "guideLayer": "QUEST_GUIDE_LAYER_SCENE",
        "MLAHIFLGIGJ": ""
      },
      "guideHint": {
        "param1": ""
      },
      "isRewind": true,
      "versionBegin": "",
      "versionEnd": ""
    },
    {
      "subId": 7306913,
      "mainId": 73069,
      "order": 16,
      "descTextMapHash": 346563476,
      "stepDescTextMapHash": 3402848989,
      "JIFODJPFKDF": [
        73263
      ],
      "finishCond": [
        {
          "damageRatio": "QUEST_CONTENT_FINISH_DUNGEON",
          "param": [
            1151,
            0
          ]
        }
      ],
      "failCond": [
        {
          "damageRatio": "QUEST_CONTENT_ANY_MANUAL_TRANSPORT",
          "param": [
            0,
            0
          ]
        },
        {
          "damageRatio": "QUEST_CONTENT_TEAM_DEAD",
          "param": [
            0,
            0
          ]
        },
        {
          "damageRatio": "QUEST_CONTENT_FAIL_DUNGEON",
          "param": [
            1151,
            0
          ]
        }
      ],
      "guide": {
        "MLAHIFLGIGJ": ""
      },
      "showGuide": "QUEST_GUIDE_ITEM_DISABLE",
      "guideHint": {
        "param1": ""
      },
      "isRewind": true,
      "failExec": [
        {
          "damageRatio": "QUEST_EXEC_ROLLBACK_QUEST",
          "param": [
            "7306916"
          ]
        }
      ],
      "versionBegin": "",
      "versionEnd": ""
    },
    {
      "subId": 7306914,
      "mainId": 73069,
      "order": 17,
      "descTextMapHash": 3032677780,
      "stepDescTextMapHash": 2781187381,
      "JIFODJPFKDF": [
        73263
      ],
      "finishCond": [
        {
          "damageRatio": "QUEST_CONTENT_GADGET_STATE_CHANGE",
          "param": [
            133302160,
            160016
          ]
        }
      ],
      "guide": {
        "damageRatio": "QUEST_GUIDE_LOCATION",
        "autoGuide": "QUEST_GUIDE_AUTO_ENABLE",
        "param": [
          "Q7306911_guide",
          "30"
        ],
        "guideScene": 3,
        "guideStyle": "QUEST_GUIDE_STYLE_TARGET",
        "guideLayer": "QUEST_GUIDE_LAYER_SCENE",
        "MLAHIFLGIGJ": ""
      },
      "guideHint": {
        "param1": ""
      },
      "isRewind": true,
      "versionBegin": "",
      "versionEnd": ""
    },
    {
      "subId": 7306915,
      "mainId": 73069,
      "order": 18,
      "descTextMapHash": 441876924,
      "JIFODJPFKDF": [
        73263
      ],
      "finishCond": [
        {
          "damageRatio": "QUEST_CONTENT_COMPLETE_TALK",
          "param": [
            7306918,
            0
          ]
        },
        {
          "damageRatio": "QUEST_CONTENT_COMPLETE_TALK",
          "param": [
            7306919,
            0
          ]
        },
        {
          "damageRatio": "QUEST_CONTENT_COMPLETE_TALK",
          "param": [
            7306920,
            0
          ]
        }
      ],
      "guide": {
        "damageRatio": "QUEST_GUIDE_NPC",
        "autoGuide": "QUEST_GUIDE_AUTO_ENABLE",
        "param": [
          "20646"
        ],
        "guideScene": 3,
        "guideStyle": "QUEST_GUIDE_STYLE_FINISH",
        "guideLayer": "QUEST_GUIDE_LAYER_SCENE",
        "MLAHIFLGIGJ": ""
      },
      "guideHint": {
        "param1": ""
      },
      "finishParent": true,
      "isRewind": true,
      "finishExec": [
        {
          "damageRatio": "QUEST_EXEC_SET_QUEST_GLOBAL_VAR",
          "param": [
            "73081",
            "0"
          ]
        },
        {
          "damageRatio": "QUEST_EXEC_INC_QUEST_GLOBAL_VAR",
          "param": [
            "73263",
            "1"
          ]
        }
      ],
      "versionBegin": "",
      "versionEnd": ""
    },
    {
      "subId": 7306916,
      "mainId": 73069,
      "order": 14,
      "descTextMapHash": 1064214596,
      "JIFODJPFKDF": [
        73263
      ],
      "finishCond": [
        {
          "damageRatio": "QUEST_CONTENT_COMPLETE_TALK",
          "param": [
            7306915,
            0
          ]
        }
      ],
      "guide": {
        "damageRatio": "QUEST_GUIDE_NPC",
        "autoGuide": "QUEST_GUIDE_AUTO_ENABLE",
        "param": [
          "20646"
        ],
        "guideScene": 3,
        "guideStyle": "QUEST_GUIDE_STYLE_POINT",
        "guideLayer": "QUEST_GUIDE_LAYER_SCENE",
        "MLAHIFLGIGJ": ""
      },
      "guideHint": {
        "param1": ""
      },
      "isRewind": true,
      "versionBegin": "",
      "versionEnd": ""
    },
    {
      "subId": 7306917,
      "mainId": 73069,
      "order": 15,
      "descTextMapHash": 2149503684,
      "JIFODJPFKDF": [
        73263
      ],
      "finishCond": [
        {
          "damageRatio": "QUEST_CONTENT_ENTER_DUNGEON",
          "param": [
            1151,
            658
          ]
        }
      ],
      "guide": {
        "MLAHIFLGIGJ": ""
      },
      "showGuide": "QUEST_GUIDE_ITEM_DISABLE",
      "guideHint": {
        "param1": ""
      },
      "versionBegin": "",
      "versionEnd": ""
    },
    {
      "subId": 7306918,
      "mainId": 73069,
      "order": 3,
      "descTextMapHash": 2901465700,
      "stepDescTextMapHash": 886265717,
      "finishCond": [
        {
          "damageRatio": "QUEST_CONTENT_FINISH_PLOT",
          "param": [
            7306901,
            0
          ]
        }
      ],
      "guide": {
        "damageRatio": "QUEST_GUIDE_LOCATION",
        "autoGuide": "QUEST_GUIDE_AUTO_ENABLE",
        "param": [
          "Q7306901_N20646",
          "60"
        ],
        "guideScene": 3,
        "guideStyle": "QUEST_GUIDE_STYLE_POINT",
        "guideLayer": "QUEST_GUIDE_LAYER_SCENE",
        "MLAHIFLGIGJ": ""
      },
      "guideHint": {
        "param1": ""
      },
      "isRewind": true,
      "versionBegin": "",
      "versionEnd": ""
    }
  ],
  "talks": [
    {
      "id": 7306903,
      "beginWay": "TALK_BEGIN_AUTO",
      "beginCondComb": "LOGIC_AND",
      "beginCond": [
        {
          "type": "QUEST_COND_STATE_EQUAL",
          "_param": [
            "7306903",
            "2"
          ]
        }
      ],
      "priority": 5,
      "initDialog": 730690301,
      "npcId": [
        20665
      ],
      "performCfg": "QuestDialogue/WQ/Sumeru_73069/Q7306903",
      "heroTalk": "TALK_HERO_MAIN",
      "questId": 73069,
      "assetIndex": 11811077091274966764,
      "prePerformCfg": "",
      "talkMarkType": "TALK_MARK_COMMON"
    },
    {
      "id": 7306904,
      "beginWay": "TALK_BEGIN_AUTO",
      "beginCondComb": "LOGIC_AND",
      "beginCond": [
        {
          "type": "QUEST_COND_STATE_EQUAL",
          "_param": [
            "7306903",
            "2"
          ]
        },
        {
          "type": "QUEST_COND_QUEST_GLOBAL_VAR_GREATER",
          "_param": [
            "73263",
            "0"
          ]
        }
      ],
      "priority": 10,
      "initDialog": 730690401,
      "npcId": [
        20665
      ],
      "performCfg": "QuestDialogue/WQ/Sumeru_73069/Q7306904",
      "heroTalk": "TALK_HERO_MAIN",
      "questId": 73069,
      "assetIndex": 17480886935507666408,
      "prePerformCfg": "",
      "talkMarkType": "TALK_MARK_COMMON"
    },
    {
      "id": 7306905,
      "beginWay": "TALK_BEGIN_MANUAL",
      "beginCond": [
        {
          "type": "QUEST_COND_STATE_EQUAL",
          "_param": [
            "7306906",
            "2"
          ]
        }
      ],
      "priority": 5,
      "initDialog": 730690501,
      "npcId": [
        20646,
        20665,
        1005
      ],
      "performCfg": "QuestDialogue/WQ/Sumeru_73069/Q7306905",
      "heroTalk": "TALK_HERO_MAIN",
      "questId": 73069,
      "assetIndex": 15753687299205220022,
      "prePerformCfg": ""
    },
    {
      "id": 7306908,
      "beginWay": "TALK_BEGIN_MANUAL",
      "beginCondComb": "LOGIC_OR",
      "beginCond": [
        {
          "type": "QUEST_COND_STATE_EQUAL",
          "_param": [
            "7306904",
            "2"
          ]
        },
        {
          "type": "QUEST_COND_STATE_EQUAL",
          "_param": [
            "7306905",
            "2"
          ]
        }
      ],
      "priority": 5,
      "initDialog": 730690801,
      "npcId": [
        20646
      ],
      "performCfg": "",
      "questId": 73069,
      "assetIndex": 8513225748655290376,
      "prePerformCfg": ""
    },
    {
      "id": 7306909,
      "beginWay": "TALK_BEGIN_MANUAL",
      "beginCondComb": "LOGIC_OR",
      "beginCond": [
        {
          "type": "QUEST_COND_STATE_EQUAL",
          "_param": [
            "7306904",
            "2"
          ]
        },
        {
          "type": "QUEST_COND_STATE_EQUAL",
          "_param": [
            "7306905",
            "2"
          ]
        }
      ],
      "priority": 5,
      "initDialog": 730690901,
      "npcId": [
        20665
      ],
      "performCfg": "",
      "questId": 73069,
      "assetIndex": 2757334046605899865,
      "prePerformCfg": ""
    },
    {
      "id": 7306912,
      "beginWay": "TALK_BEGIN_MANUAL",
      "beginCondComb": "LOGIC_AND",
      "beginCond": [
        {
          "type": "QUEST_COND_STATE_EQUAL",
          "_param": [
            "7306912",
            "2"
          ]
        }
      ],
      "priority": 5,
      "nextTalks": [
        7306915,
        7306916
      ],
      "initDialog": 730691201,
      "npcId": [
        1005,
        20646
      ],
      "performCfg": "QuestDialogue/WQ/Sumeru_73069/Q7306912",
      "heroTalk": "TALK_HERO_MAIN",
      "questId": 73069,
      "assetIndex": 7898547089694882823,
      "prePerformCfg": "",
      "lockGameTime": true
    },
    {
      "id": 7306913,
      "beginWay": "TALK_BEGIN_MANUAL",
      "beginCondComb": "LOGIC_AND",
      "beginCond": [
        {
          "type": "QUEST_COND_STATE_EQUAL",
          "_param": [
            "7306912",
            "2"
          ]
        },
        {
          "type": "QUEST_COND_QUEST_GLOBAL_VAR_EQUAL",
          "_param": [
            "73263",
            "1"
          ]
        }
      ],
      "priority": 10,
      "nextTalks": [
        7306915,
        7306916
      ],
      "initDialog": 730691301,
      "npcId": [
        1005,
        20646
      ],
      "performCfg": "QuestDialogue/WQ/Sumeru_73069/Q7306913",
      "heroTalk": "TALK_HERO_MAIN",
      "questId": 73069,
      "assetIndex": 16899909702058792955,
      "prePerformCfg": "",
      "lockGameTime": true
    },
    {
      "id": 7306914,
      "beginWay": "TALK_BEGIN_MANUAL",
      "beginCondComb": "LOGIC_AND",
      "beginCond": [
        {
          "type": "QUEST_COND_STATE_EQUAL",
          "_param": [
            "7306912",
            "2"
          ]
        },
        {
          "type": "QUEST_COND_QUEST_GLOBAL_VAR_GREATER",
          "_param": [
            "73263",
            "1"
          ]
        }
      ],
      "priority": 20,
      "nextTalks": [
        7306915,
        7306916
      ],
      "initDialog": 730691401,
      "npcId": [
        1005,
        20646
      ],
      "performCfg": "QuestDialogue/WQ/Sumeru_73069/Q7306914",
      "heroTalk": "TALK_HERO_MAIN",
      "questId": 73069,
      "assetIndex": 2806281394849708410,
      "prePerformCfg": "",
      "lockGameTime": true
    },
    {
      "id": 7306915,
      "initDialog": 730691501,
      "npcId": [
        20646
      ],
      "performCfg": "QuestDialogue/WQ/Sumeru_73069/Q7306915",
      "heroTalk": "TALK_HERO_MAIN",
      "questId": 73069,
      "assetIndex": 10650996582934488441,
      "prePerformCfg": "",
      "lockGameTime": true
    },
    {
      "id": 7306916,
      "initDialog": 730691601,
      "npcId": [
        20646
      ],
      "performCfg": "QuestDialogue/WQ/Sumeru_73069/Q7306916",
      "heroTalk": "TALK_HERO_MAIN",
      "questId": 73069,
      "assetIndex": 13088935188755423668,
      "prePerformCfg": "",
      "lockGameTime": true,
      "finishExec": [
        {
          "damageRatio": "TALK_EXEC_INC_QUEST_VAR",
          "param": [
            "1",
            "1",
            "73069"
          ]
        }
      ]
    },
    {
      "id": 7306917,
      "beginWay": "TALK_BEGIN_MANUAL",
      "beginCond": [
        {
          "type": "QUEST_COND_STATE_EQUAL",
          "_param": [
            "7306916",
            "2"
          ]
        }
      ],
      "priority": 5,
      "nextTalks": [
        7306915,
        7306916
      ],
      "initDialog": 730691701,
      "npcId": [
        20646
      ],
      "performCfg": "QuestDialogue/WQ/Sumeru_73069/Q7306917",
      "heroTalk": "TALK_HERO_MAIN",
      "questId": 73069,
      "assetIndex": 8283818720446508863,
      "prePerformCfg": "",
      "lockGameTime": true
    },
    {
      "id": 7306918,
      "beginWay": "TALK_BEGIN_MANUAL",
      "beginCondComb": "LOGIC_AND",
      "beginCond": [
        {
          "type": "QUEST_COND_STATE_EQUAL",
          "_param": [
            "7306915",
            "2"
          ]
        }
      ],
      "priority": 5,
      "initDialog": 730691801,
      "npcId": [
        1005,
        20646
      ],
      "performCfg": "QuestDialogue/WQ/Sumeru_73069/Q7306918",
      "heroTalk": "TALK_HERO_MAIN",
      "questId": 73069,
      "assetIndex": 18216844670339882873,
      "prePerformCfg": "",
      "lockGameTime": true
    },
    {
      "id": 7306919,
      "beginWay": "TALK_BEGIN_MANUAL",
      "beginCondComb": "LOGIC_AND",
      "beginCond": [
        {
          "type": "QUEST_COND_STATE_EQUAL",
          "_param": [
            "7306915",
            "2"
          ]
        },
        {
          "type": "QUEST_COND_QUEST_GLOBAL_VAR_EQUAL",
          "_param": [
            "73263",
            "1"
          ]
        }
      ],
      "priority": 10,
      "initDialog": 730691901,
      "npcId": [
        1005,
        20646
      ],
      "performCfg": "QuestDialogue/WQ/Sumeru_73069/Q7306919",
      "heroTalk": "TALK_HERO_MAIN",
      "questId": 73069,
      "assetIndex": 18304059113948971836,
      "prePerformCfg": "",
      "lockGameTime": true
    },
    {
      "id": 7306920,
      "beginWay": "TALK_BEGIN_MANUAL",
      "beginCondComb": "LOGIC_AND",
      "beginCond": [
        {
          "type": "QUEST_COND_STATE_EQUAL",
          "_param": [
            "7306915",
            "2"
          ]
        },
        {
          "type": "QUEST_COND_QUEST_GLOBAL_VAR_GREATER",
          "_param": [
            "73263",
            "1"
          ]
        }
      ],
      "priority": 20,
      "initDialog": 730692001,
      "npcId": [
        1005,
        20646
      ],
      "performCfg": "QuestDialogue/WQ/Sumeru_73069/Q7306920",
      "heroTalk": "TALK_HERO_MAIN",
      "questId": 73069,
      "assetIndex": 4857994102325310506,
      "prePerformCfg": "",
      "lockGameTime": true
    },
    {
      "id": 7306921,
      "beginWay": "TALK_BEGIN_MANUAL",
      "beginCondComb": "LOGIC_AND",
      "beginCond": [
        {
          "type": "QUEST_COND_STATE_EQUAL",
          "_param": [
            "99902",
            "2"
          ]
        }
      ],
      "priority": 5,
      "npcId": [
        20665
      ],
      "performCfg": "",
      "questId": 73069,
      "assetIndex": 1454299464882559866,
      "prePerformCfg": "",
      "talkMarkType": "TALK_MARK_COMMON"
    },
    {
      "id": 7306922,
      "beginWay": "TALK_BEGIN_MANUAL",
      "beginCondComb": "LOGIC_AND",
      "beginCond": [
        {
          "type": "QUEST_COND_STATE_EQUAL",
          "_param": [
            "7306918",
            "2"
          ]
        }
      ],
      "priority": 5,
      "initDialog": 730692201,
      "npcId": [
        20665
      ],
      "performCfg": "",
      "questId": 73069,
      "assetIndex": 1976764315864630228,
      "prePerformCfg": "",
      "talkMarkType": "TALK_MARK_COMMON"
    }
  ],
  "preloadLuaList": [
    14457059026087496718,
    6212821425007896807,
    13859637223403176869,
    5308003309714399886
  ],
  "forcePreloadLuaList": [
    12405370631524199654
  ],
  "LJICLPBJCCB": [
    {
      "id": 220055,
      "actionType": "DIRECT_USE"
    }
  ]
}