{
  "id": 73061,
  "damageRatio": "WQ",
  "mainQuestTag": "MAINQUEST_TAG_RANK_ZERO_WQ",
  "activeMode": "PLAY_MODE_ALL",
  "descTextMapHash": 3272753103,
  "luaPath": "Actor/Quest/WQ73061",
  "suggestTrackMainQuestList": [
    73063,
    73066
  ],
  "rewardIdList": [
    173061
  ],
  "chapterId": 10083,
  "subQuests": [
    {
      "subId": 7306101,
      "mainId": 73061,
      "order": 1,
      "showType": "QUEST_HIDDEN",
      "finishCond": [
        {
          "damageRatio": "QUEST_CONTENT_GAME_TIME_TICK",
          "param": [
            0,
            0
          ]
        }
      ],
      "guide": {
        "MLAHIFLGIGJ": ""
      },
      "showGuide": "QUEST_GUIDE_ITEM_DISABLE",
      "guideHint": {
        "param1": ""
      },
      "isRewind": true,
      "versionBegin": "",
      "versionEnd": ""
    },
    {
      "subId": 7306102,
      "mainId": 73061,
      "order": 2,
      "showType": "QUEST_HIDDEN",
      "finishCond": [
        {
          "damageRatio": "QUEST_CONTENT_QUEST_STATE_EQUAL",
          "param": [
            7306334,
            3
          ]
        }
      ],
      "guide": {
        "autoGuide": "QUEST_GUIDE_AUTO_ENABLE",
        "guideScene": 3,
        "guideStyle": "QUEST_GUIDE_STYLE_START",
        "guideLayer": "QUEST_GUIDE_LAYER_SCENE",
        "MLAHIFLGIGJ": ""
      },
      "showGuide": "QUEST_GUIDE_ITEM_DISABLE",
      "guideHint": {
        "param1": ""
      },
      "isRewind": true,
      "finishExec": [
        {
          "damageRatio": "QUEST_EXEC_INC_QUEST_VAR",
          "param": [
            "3",
            "1"
          ]
        }
      ],
      "versionBegin": "",
      "versionEnd": ""
    },
    {
      "subId": 7306103,
      "mainId": 73061,
      "order": 3,
      "showType": "QUEST_HIDDEN",
      "finishCond": [
        {
          "damageRatio": "QUEST_CONTENT_FINISH_PLOT",
          "param": [
            7306103,
            0
          ]
        }
      ],
      "failCond": [
        {
          "damageRatio": "QUEST_CONTENT_QUEST_STATE_EQUAL",
          "param": [
            7306303,
            3
          ]
        }
      ],
      "guide": {
        "damageRatio": "QUEST_GUIDE_NPC",
        "autoGuide": "QUEST_GUIDE_AUTO_ENABLE",
        "param": [
          "20628"
        ],
        "guideScene": 3,
        "guideStyle": "QUEST_GUIDE_STYLE_START",
        "guideLayer": "QUEST_GUIDE_LAYER_SCENE",
        "MLAHIFLGIGJ": ""
      },
      "guideHint": {
        "param1": ""
      },
      "isRewind": true,
      "versionBegin": "",
      "versionEnd": ""
    },
    {
      "subId": 7306104,
      "mainId": 73061,
      "order": 4,
      "showType": "QUEST_HIDDEN",
      "finishCond": [
        {
          "damageRatio": "QUEST_CONTENT_QUEST_STATE_EQUAL",
          "param": [
            7306102,
            3
          ]
        }
      ],
      "guide": {
        "MLAHIFLGIGJ": ""
      },
      "showGuide": "QUEST_GUIDE_ITEM_DISABLE",
      "guideHint": {
        "param1": ""
      },
      "isRewind": true,
      "versionBegin": "",
      "versionEnd": ""
    },
    {
      "subId": 7306105,
      "mainId": 73061,
      "order": 6,
      "descTextMapHash": 119022460,
      "stepDescTextMapHash": 363616245,
      "finishCond": [
        {
          "damageRatio": "QUEST_CONTENT_COMPLETE_TALK",
          "param": [
            7306151,
            0
          ]
        },
        {
          "damageRatio": "QUEST_CONTENT_COMPLETE_TALK",
          "param": [
            7306152,
            0
          ]
        }
      ],
      "guide": {
        "damageRatio": "QUEST_GUIDE_NPC",
        "autoGuide": "QUEST_GUIDE_AUTO_ENABLE",
        "param": [
          "20628"
        ],
        "guideScene": 3,
        "guideStyle": "QUEST_GUIDE_STYLE_START",
        "guideLayer": "QUEST_GUIDE_LAYER_SCENE",
        "MLAHIFLGIGJ": ""
      },
      "guideHint": {
        "param1": ""
      },
      "isRewind": true,
      "versionBegin": "",
      "versionEnd": ""
    },
    {
      "subId": 7306106,
      "mainId": 73061,
      "order": 7,
      "descTextMapHash": 2608610452,
      "stepDescTextMapHash": 674501053,
      "finishCond": [
        {
          "damageRatio": "QUEST_CONTENT_COMPLETE_TALK",
          "param": [
            7306106,
            0
          ]
        },
        {
          "damageRatio": "QUEST_CONTENT_COMPLETE_TALK",
          "param": [
            7306107,
            0
          ]
        }
      ],
      "guide": {
        "damageRatio": "QUEST_GUIDE_NPC",
        "autoGuide": "QUEST_GUIDE_AUTO_ENABLE",
        "param": [
          "20576"
        ],
        "guideScene": 3,
        "guideStyle": "QUEST_GUIDE_STYLE_POINT",
        "guideLayer": "QUEST_GUIDE_LAYER_SCENE",
        "MLAHIFLGIGJ": ""
      },
      "guideHint": {
        "param1": ""
      },
      "isRewind": true,
      "versionBegin": "",
      "versionEnd": ""
    },
    {
      "subId": 7306107,
      "mainId": 73061,
      "order": 38,
      "showType": "QUEST_HIDDEN",
      "finishCond": [
        {
          "damageRatio": "QUEST_CONTENT_COMPLETE_TALK",
          "param": [
            7306149,
            0
          ]
        }
      ],
      "failCond": [
        {
          "damageRatio": "QUEST_CONTENT_COMPLETE_TALK",
          "param": [
            7306148,
            0
          ]
        }
      ],
      "guide": {
        "autoGuide": "QUEST_GUIDE_AUTO_ENABLE",
        "guideScene": 3,
        "guideStyle": "QUEST_GUIDE_STYLE_POINT",
        "guideLayer": "QUEST_GUIDE_LAYER_SCENE",
        "MLAHIFLGIGJ": ""
      },
      "showGuide": "QUEST_GUIDE_ITEM_DISABLE",
      "guideHint": {
        "param1": ""
      },
      "versionBegin": "",
      "versionEnd": ""
    },
    {
      "subId": 7306108,
      "mainId": 73061,
      "order": 8,
      "descTextMapHash": 1641264972,
      "stepDescTextMapHash": 2161781725,
      "finishCond": [
        {
          "damageRatio": "QUEST_CONTENT_GADGET_STATE_CHANGE",
          "param": [
            133302022,
            22024
          ]
        }
      ],
      "guide": {
        "damageRatio": "QUEST_GUIDE_LOCATION",
        "autoGuide": "QUEST_GUIDE_AUTO_ENABLE",
        "param": [
          "Q7306108_guide"
        ],
        "guideScene": 3,
        "guideStyle": "QUEST_GUIDE_STYLE_TARGET",
        "guideLayer": "QUEST_GUIDE_LAYER_SCENE",
        "MLAHIFLGIGJ": ""
      },
      "guideHint": {
        "param1": ""
      },
      "isRewind": true,
      "versionBegin": "",
      "versionEnd": ""
    },
    {
      "subId": 7306109,
      "mainId": 73061,
      "order": 11,
      "descTextMapHash": 398785932,
      "stepDescTextMapHash": 669288277,
      "finishCond": [
        {
          "damageRatio": "QUEST_CONTENT_LUA_NOTIFY",
          "param": [
            0,
            0
          ],
          "count": 1
        },
        {
          "damageRatio": "QUEST_CONTENT_GADGET_STATE_CHANGE",
          "param": [
            133302262,
            262005
          ]
        },
        {
          "damageRatio": "QUEST_CONTENT_GADGET_STATE_CHANGE",
          "param": [
            133302262,
            262004
          ]
        }
      ],
      "guide": {
        "damageRatio": "QUEST_GUIDE_LOCATION",
        "autoGuide": "QUEST_GUIDE_AUTO_ENABLE",
        "param": [
          "Q7306109_guide",
          "100"
        ],
        "guideScene": 3,
        "guideStyle": "QUEST_GUIDE_STYLE_POINT",
        "guideLayer": "QUEST_GUIDE_LAYER_SCENE",
        "poiRegionId": 1901,
        "poiPointId": 19010002,
        "MLAHIFLGIGJ": ""
      },
      "guideHint": {
        "param1": ""
      },
      "isRewind": true,
      "versionBegin": "",
      "versionEnd": ""
    },
    {
      "subId": 7306110,
      "mainId": 73061,
      "order": 12,
      "descTextMapHash": 2929942644,
      "stepDescTextMapHash": 2548368309,
      "finishCond": [
        {
          "damageRatio": "QUEST_CONTENT_FINISH_PLOT",
          "param": [
            7306110,
            0
          ]
        }
      ],
      "guide": {
        "damageRatio": "QUEST_GUIDE_LOCATION",
        "autoGuide": "QUEST_GUIDE_AUTO_ENABLE",
        "param": [
          "Q7306110_guide",
          "50"
        ],
        "guideScene": 3,
        "guideStyle": "QUEST_GUIDE_STYLE_POINT",
        "guideLayer": "QUEST_GUIDE_LAYER_SCENE",
        "poiRegionId": 1901,
        "poiPointId": 19010002,
        "MLAHIFLGIGJ": ""
      },
      "guideHint": {
        "param1": ""
      },
      "isRewind": true,
      "finishExec": [
        {
          "damageRatio": "QUEST_EXEC_REFRESH_GROUP_SUITE",
          "param": [
            "3",
            "133302086,2"
          ]
        }
      ],
      "versionBegin": "",
      "versionEnd": ""
    },
    {
      "subId": 7306111,
      "mainId": 73061,
      "order": 16,
      "descTextMapHash": 2754814508,
      "stepDescTextMapHash": 3465101853,
      "finishCond": [
        {
          "damageRatio": "QUEST_CONTENT_GADGET_STATE_CHANGE",
          "param": [
            133315013,
            13005
          ]
        }
      ],
      "guide": {
        "damageRatio": "QUEST_GUIDE_LOCATION",
        "autoGuide": "QUEST_GUIDE_AUTO_ENABLE",
        "param": [
          "Q7306111_guide"
        ],
        "guideScene": 3,
        "guideStyle": "QUEST_GUIDE_STYLE_TARGET",
        "guideLayer": "QUEST_GUIDE_LAYER_SCENE",
        "poiRegionId": 1901,
        "poiPointId": 19010002,
        "MLAHIFLGIGJ": ""
      },
      "guideHint": {
        "param1": ""
      },
      "isRewind": true,
      "versionBegin": "",
      "versionEnd": ""
    },
    {
      "subId": 7306112,
      "mainId": 73061,
      "order": 17,
      "descTextMapHash": 3496923268,
      "stepDescTextMapHash": 2847562173,
      "finishCond": [
        {
          "damageRatio": "QUEST_CONTENT_FINISH_PLOT",
          "param": [
            7306112,
            0
          ]
        }
      ],
      "guide": {
        "damageRatio": "QUEST_GUIDE_LOCATION",
        "autoGuide": "QUEST_GUIDE_AUTO_ENABLE",
        "param": [
          "Q7306112_guide_2472"
        ],
        "guideScene": 3,
        "guideStyle": "QUEST_GUIDE_STYLE_POINT",
        "guideLayer": "QUEST_GUIDE_LAYER_SCENE",
        "MLAHIFLGIGJ": ""
      },
      "guideHint": {
        "param1": ""
      },
      "isRewind": true,
      "versionBegin": "",
      "versionEnd": ""
    },
    {
      "subId": 7306113,
      "mainId": 73061,
      "order": 18,
      "descTextMapHash": 897530284,
      "stepDescTextMapHash": 2974270069,
      "finishCond": [
        {
          "damageRatio": "QUEST_CONTENT_COMPLETE_TALK",
          "param": [
            7306113,
            0
          ]
        }
      ],
      "guide": {
        "damageRatio": "QUEST_GUIDE_LOCATION",
        "autoGuide": "QUEST_GUIDE_AUTO_ENABLE",
        "param": [
          "Q7306113_guide"
        ],
        "guideScene": 3,
        "guideStyle": "QUEST_GUIDE_STYLE_POINT",
        "guideLayer": "QUEST_GUIDE_LAYER_SCENE",
        "MLAHIFLGIGJ": ""
      },
      "guideHint": {
        "param1": ""
      },
      "isRewind": true,
      "versionBegin": "",
      "versionEnd": ""
    },
    {
      "subId": 7306114,
      "mainId": 73061,
      "order": 19,
      "descTextMapHash": 3531146588,
      "stepDescTextMapHash": 104575837,
      "finishCond": [
        {
          "damageRatio": "QUEST_CONTENT_FINISH_PLOT",
          "param": [
            7306114,
            0
          ]
        }
      ],
      "guide": {
        "damageRatio": "QUEST_GUIDE_LOCATION",
        "autoGuide": "QUEST_GUIDE_AUTO_ENABLE",
        "param": [
          "Q7306130_N20576"
        ],
        "guideScene": 3,
        "guideStyle": "QUEST_GUIDE_STYLE_POINT",
        "guideLayer": "QUEST_GUIDE_LAYER_SCENE",
        "poiRegionId": 1501,
        "poiPointId": 15010005,
        "MLAHIFLGIGJ": ""
      },
      "guideHint": {
        "param1": ""
      },
      "isRewind": true,
      "versionBegin": "",
      "versionEnd": ""
    },
    {
      "subId": 7306115,
      "mainId": 73061,
      "order": 24,
      "descTextMapHash": 2359870060,
      "stepDescTextMapHash": 3756341549,
      "finishCond": [
        {
          "damageRatio": "QUEST_CONTENT_LUA_NOTIFY",
          "param": [
            0,
            0
          ],
          "count": 1
        },
        {
          "damageRatio": "QUEST_CONTENT_GADGET_STATE_CHANGE",
          "param": [
            133302034,
            34004
          ]
        }
      ],
      "guide": {
        "damageRatio": "QUEST_GUIDE_LOCATION",
        "autoGuide": "QUEST_GUIDE_AUTO_ENABLE",
        "param": [
          "Q7306115_guide_2092"
        ],
        "guideScene": 3,
        "guideStyle": "QUEST_GUIDE_STYLE_TARGET",
        "guideLayer": "QUEST_GUIDE_LAYER_SCENE",
        "poiRegionId": 1501,
        "poiPointId": 15010005,
        "MLAHIFLGIGJ": ""
      },
      "guideHint": {
        "param1": ""
      },
      "versionBegin": "",
      "versionEnd": ""
    },
    {
      "subId": 7306116,
      "mainId": 73061,
      "order": 21,
      "descTextMapHash": 3200321308,
      "stepDescTextMapHash": 737839965,
      "finishCond": [
        {
          "damageRatio": "QUEST_CONTENT_LUA_NOTIFY",
          "param": [
            0,
            0
          ],
          "count": 1
        }
      ],
      "guide": {
        "damageRatio": "QUEST_GUIDE_LOCATION",
        "autoGuide": "QUEST_GUIDE_AUTO_ENABLE",
        "param": [
          "Q7306116_guide_2091"
        ],
        "guideScene": 3,
        "guideStyle": "QUEST_GUIDE_STYLE_TARGET",
        "guideLayer": "QUEST_GUIDE_LAYER_SCENE",
        "poiRegionId": 1501,
        "poiPointId": 15010005,
        "MLAHIFLGIGJ": ""
      },
      "guideHint": {
        "param1": ""
      },
      "isRewind": true,
      "versionBegin": "",
      "versionEnd": ""
    },
    {
      "subId": 7306117,
      "mainId": 73061,
      "order": 25,
      "subIdSet": 2,
      "descTextMapHash": 1927925404,
      "stepDescTextMapHash": 2261014981,
      "finishCond": [
        {
          "damageRatio": "QUEST_CONTENT_ADD_QUEST_PROGRESS",
          "param": [
            7306117,
            0
          ],
          "count": 3
        }
      ],
      "guide": {
        "damageRatio": "QUEST_GUIDE_LOCATION",
        "autoGuide": "QUEST_GUIDE_AUTO_ENABLE",
        "param": [
          "Q7306117_guide",
          "50"
        ],
        "guideScene": 3,
        "guideStyle": "QUEST_GUIDE_STYLE_POINT",
        "guideLayer": "QUEST_GUIDE_LAYER_SCENE",
        "poiRegionId": 1501,
        "poiPointId": 15010005,
        "MLAHIFLGIGJ": ""
      },
      "guideHint": {
        "param1": ""
      },
      "isRewind": true,
      "finishExec": [
        {
          "damageRatio": "QUEST_EXEC_NOTIFY_GROUP_LUA",
          "param": [
            "3",
            "133302066"
          ]
        }
      ],
      "versionBegin": "",
      "versionEnd": ""
    },
    {
      "subId": 7306118,
      "mainId": 73061,
      "order": 30,
      "descTextMapHash": 2213704868,
      "stepDescTextMapHash": 4263664533,
      "finishCond": [
        {
          "damageRatio": "QUEST_CONTENT_LUA_NOTIFY",
          "param": [
            0,
            0
          ],
          "count": 1
        }
      ],
      "guide": {
        "damageRatio": "QUEST_GUIDE_LOCATION",
        "autoGuide": "QUEST_GUIDE_AUTO_ENABLE",
        "param": [
          "Q7306117_guide",
          "30"
        ],
        "guideScene": 3,
        "guideStyle": "QUEST_GUIDE_STYLE_POINT",
        "guideLayer": "QUEST_GUIDE_LAYER_SCENE",
        "poiRegionId": 1501,
        "poiPointId": 15010005,
        "MLAHIFLGIGJ": ""
      },
      "guideHint": {
        "param1": ""
      },
      "isRewind": true,
      "finishExec": [
        {
          "damageRatio": "QUEST_EXEC_UNREGISTER_DYNAMIC_GROUP",
          "param": [
            "133302651",
            "0"
          ]
        }
      ],
      "versionBegin": "",
      "versionEnd": ""
    },
    {
      "subId": 7306119,
      "mainId": 73061,
      "order": 31,
      "descTextMapHash": 4228506620,
      "finishCond": [
        {
          "damageRatio": "QUEST_CONTENT_FINISH_PLOT",
          "param": [
            7306119,
            0
          ]
        }
      ],
      "guide": {
        "damageRatio": "QUEST_GUIDE_LOCATION",
        "autoGuide": "QUEST_GUIDE_AUTO_ENABLE",
        "param": [
          "Q7306119_guide"
        ],
        "guideScene": 3,
        "guideStyle": "QUEST_GUIDE_STYLE_POINT",
        "guideLayer": "QUEST_GUIDE_LAYER_SCENE",
        "poiRegionId": 1501,
        "poiPointId": 15010005,
        "MLAHIFLGIGJ": ""
      },
      "guideHint": {
        "param1": ""
      },
      "isRewind": true,
      "versionBegin": "",
      "versionEnd": ""
    },
    {
      "subId": 7306120,
      "mainId": 73061,
      "order": 32,
      "descTextMapHash": 3523428604,
      "finishCond": [
        {
          "damageRatio": "QUEST_CONTENT_COMPLETE_TALK",
          "param": [
            7306120,
            0
          ]
        }
      ],
      "guide": {
        "damageRatio": "QUEST_GUIDE_NPC",
        "autoGuide": "QUEST_GUIDE_AUTO_ENABLE",
        "param": [
          "20576"
        ],
        "guideScene": 3,
        "guideStyle": "QUEST_GUIDE_STYLE_POINT",
        "guideLayer": "QUEST_GUIDE_LAYER_SCENE",
        "poiRegionId": 1501,
        "poiPointId": 15010005,
        "MLAHIFLGIGJ": ""
      },
      "guideHint": {
        "param1": ""
      },
      "isRewind": true,
      "versionBegin": "",
      "versionEnd": ""
    },
    {
      "subId": 7306121,
      "mainId": 73061,
      "order": 34,
      "descTextMapHash": 1540691548,
      "stepDescTextMapHash": 383787325,
      "finishCond": [
        {
          "damageRatio": "QUEST_CONTENT_FINISH_PLOT",
          "param": [
            7306121,
            0
          ]
        }
      ],
      "guide": {
        "damageRatio": "QUEST_GUIDE_LOCATION",
        "autoGuide": "QUEST_GUIDE_AUTO_ENABLE",
        "param": [
          "Q7306121_N20628"
        ],
        "guideScene": 3,
        "guideStyle": "QUEST_GUIDE_STYLE_POINT",
        "guideLayer": "QUEST_GUIDE_LAYER_SCENE",
        "MLAHIFLGIGJ": ""
      },
      "guideHint": {
        "param1": ""
      },
      "isRewind": true,
      "versionBegin": "",
      "versionEnd": ""
    },
    {
      "subId": 7306122,
      "mainId": 73061,
      "order": 35,
      "showType": "QUEST_HIDDEN",
      "finishCond": [
        {
          "damageRatio": "QUEST_CONTENT_COMPLETE_TALK",
          "param": [
            7306141,
            0
          ]
        }
      ],
      "failCond": [
        {
          "damageRatio": "QUEST_CONTENT_COMPLETE_TALK",
          "param": [
            7306142,
            0
          ]
        }
      ],
      "guide": {
        "damageRatio": "QUEST_GUIDE_NPC",
        "autoGuide": "QUEST_GUIDE_AUTO_ENABLE",
        "param": [
          "20628"
        ],
        "guideScene": 3,
        "guideStyle": "QUEST_GUIDE_STYLE_POINT",
        "guideLayer": "QUEST_GUIDE_LAYER_SCENE",
        "MLAHIFLGIGJ": ""
      },
      "guideHint": {
        "param1": ""
      },
      "versionBegin": "",
      "versionEnd": ""
    },
    {
      "subId": 7306123,
      "mainId": 73061,
      "order": 36,
      "showType": "QUEST_HIDDEN",
      "finishCond": [
        {
          "damageRatio": "QUEST_CONTENT_COMPLETE_TALK",
          "param": [
            7306144,
            0
          ]
        }
      ],
      "failCond": [
        {
          "damageRatio": "QUEST_CONTENT_COMPLETE_TALK",
          "param": [
            7306145,
            0
          ]
        }
      ],
      "guide": {
        "damageRatio": "QUEST_GUIDE_NPC",
        "autoGuide": "QUEST_GUIDE_AUTO_ENABLE",
        "param": [
          "20628"
        ],
        "guideScene": 3,
        "guideStyle": "QUEST_GUIDE_STYLE_POINT",
        "guideLayer": "QUEST_GUIDE_LAYER_SCENE",
        "MLAHIFLGIGJ": ""
      },
      "guideHint": {
        "param1": ""
      },
      "versionBegin": "",
      "versionEnd": ""
    },
    {
      "subId": 7306124,
      "mainId": 73061,
      "order": 37,
      "showType": "QUEST_HIDDEN",
      "finishCond": [
        {
          "damageRatio": "QUEST_CONTENT_COMPLETE_TALK",
          "param": [
            7306148,
            0
          ]
        }
      ],
      "failCond": [
        {
          "damageRatio": "QUEST_CONTENT_COMPLETE_TALK",
          "param": [
            7306149,
            0
          ]
        }
      ],
      "guide": {
        "damageRatio": "QUEST_GUIDE_NPC",
        "autoGuide": "QUEST_GUIDE_AUTO_ENABLE",
        "param": [
          "20628"
        ],
        "guideScene": 3,
        "guideStyle": "QUEST_GUIDE_STYLE_POINT",
        "guideLayer": "QUEST_GUIDE_LAYER_SCENE",
        "MLAHIFLGIGJ": ""
      },
      "guideHint": {
        "param1": ""
      },
      "versionBegin": "",
      "versionEnd": ""
    },
    {
      "subId": 7306125,
      "mainId": 73061,
      "order": 39,
      "descTextMapHash": 3575707108,
      "stepDescTextMapHash": 1839950709,
      "finishCond": [
        {
          "damageRatio": "QUEST_CONTENT_LUA_NOTIFY",
          "param": [
            0,
            0
          ],
          "count": 1
        }
      ],
      "guide": {
        "damageRatio": "QUEST_GUIDE_LOCATION",
        "autoGuide": "QUEST_GUIDE_AUTO_ENABLE",
        "param": [
          "Q7306121_N20628",
          "20"
        ],
        "guideScene": 3,
        "guideStyle": "QUEST_GUIDE_STYLE_POINT",
        "guideLayer": "QUEST_GUIDE_LAYER_SCENE",
        "MLAHIFLGIGJ": ""
      },
      "guideHint": {
        "param1": ""
      },
      "isRewind": true,
      "finishExec": [
        {
          "damageRatio": "QUEST_EXEC_UNREGISTER_DYNAMIC_GROUP",
          "param": [
            "133315014",
            "0"
          ]
        }
      ],
      "versionBegin": "",
      "versionEnd": ""
    },
    {
      "subId": 7306126,
      "mainId": 73061,
      "order": 41,
      "descTextMapHash": 2652969556,
      "stepDescTextMapHash": 28211101,
      "finishCond": [
        {
          "damageRatio": "QUEST_CONTENT_COMPLETE_TALK",
          "param": [
            7306137,
            0
          ]
        }
      ],
      "guide": {
        "damageRatio": "QUEST_GUIDE_NPC",
        "autoGuide": "QUEST_GUIDE_AUTO_ENABLE",
        "param": [
          "20576"
        ],
        "guideScene": 3,
        "guideStyle": "QUEST_GUIDE_STYLE_FINISH",
        "guideLayer": "QUEST_GUIDE_LAYER_SCENE",
        "MLAHIFLGIGJ": ""
      },
      "guideHint": {
        "param1": ""
      },
      "finishParent": true,
      "isRewind": true,
      "versionBegin": "",
      "versionEnd": ""
    },
    {
      "subId": 7306127,
      "mainId": 73061,
      "order": 90,
      "showType": "QUEST_HIDDEN",
      "finishCond": [
        {
          "damageRatio": "QUEST_CONTENT_QUEST_STATE_EQUAL",
          "param": [
            7306125,
            3
          ]
        },
        {
          "damageRatio": "QUEST_CONTENT_COMPLETE_TALK",
          "param": [
            7306149,
            0
          ]
        }
      ],
      "guide": {
        "autoGuide": "QUEST_GUIDE_AUTO_ENABLE",
        "guideScene": 3,
        "guideStyle": "QUEST_GUIDE_STYLE_FINISH",
        "guideLayer": "QUEST_GUIDE_LAYER_SCENE",
        "MLAHIFLGIGJ": ""
      },
      "showGuide": "QUEST_GUIDE_ITEM_DISABLE",
      "guideHint": {
        "param1": ""
      },
      "isRewind": true,
      "versionBegin": "",
      "versionEnd": ""
    },
    {
      "subId": 7306128,
      "mainId": 73061,
      "order": 14,
      "descTextMapHash": 841659268,
      "stepDescTextMapHash": 3948506757,
      "finishCond": [
        {
          "damageRatio": "QUEST_CONTENT_FINISH_PLOT",
          "param": [
            7306128,
            0
          ]
        }
      ],
      "guide": {
        "damageRatio": "QUEST_GUIDE_LOCATION",
        "autoGuide": "QUEST_GUIDE_AUTO_ENABLE",
        "param": [
          "Q7306128_guide"
        ],
        "guideScene": 3,
        "guideStyle": "QUEST_GUIDE_STYLE_POINT",
        "guideLayer": "QUEST_GUIDE_LAYER_SCENE",
        "poiRegionId": 1901,
        "poiPointId": 19010002,
        "MLAHIFLGIGJ": ""
      },
      "guideHint": {
        "param1": ""
      },
      "isRewind": true,
      "versionBegin": "",
      "versionEnd": ""
    },
    {
      "subId": 7306129,
      "mainId": 73061,
      "order": 13,
      "descTextMapHash": 1678908716,
      "stepDescTextMapHash": 3893957861,
      "finishCond": [
        {
          "damageRatio": "QUEST_CONTENT_COMPLETE_TALK",
          "param": [
            7306129,
            0
          ]
        }
      ],
      "guide": {
        "damageRatio": "QUEST_GUIDE_NPC",
        "autoGuide": "QUEST_GUIDE_AUTO_ENABLE",
        "param": [
          "20576"
        ],
        "guideScene": 3,
        "guideStyle": "QUEST_GUIDE_STYLE_POINT",
        "guideLayer": "QUEST_GUIDE_LAYER_SCENE",
        "poiRegionId": 1901,
        "poiPointId": 19010002,
        "MLAHIFLGIGJ": ""
      },
      "guideHint": {
        "param1": ""
      },
      "isRewind": true,
      "versionBegin": "",
      "versionEnd": ""
    },
    {
      "subId": 7306130,
      "mainId": 73061,
      "order": 20,
      "descTextMapHash": 3801361276,
      "stepDescTextMapHash": 15029285,
      "finishCond": [
        {
          "damageRatio": "QUEST_CONTENT_COMPLETE_TALK",
          "param": [
            7306130,
            0
          ]
        }
      ],
      "guide": {
        "damageRatio": "QUEST_GUIDE_NPC",
        "autoGuide": "QUEST_GUIDE_AUTO_ENABLE",
        "param": [
          "20576"
        ],
        "guideScene": 3,
        "guideStyle": "QUEST_GUIDE_STYLE_POINT",
        "guideLayer": "QUEST_GUIDE_LAYER_SCENE",
        "poiRegionId": 1501,
        "poiPointId": 15010005,
        "MLAHIFLGIGJ": ""
      },
      "guideHint": {
        "param1": ""
      },
      "isRewind": true,
      "versionBegin": "",
      "versionEnd": ""
    },
    {
      "subId": 7306131,
      "mainId": 73061,
      "order": 33,
      "descTextMapHash": 398816812,
      "stepDescTextMapHash": 4287600309,
      "finishCond": [
        {
          "damageRatio": "QUEST_CONTENT_FINISH_PLOT",
          "param": [
            7306131,
            0
          ]
        }
      ],
      "guide": {
        "damageRatio": "QUEST_GUIDE_LOCATION",
        "autoGuide": "QUEST_GUIDE_AUTO_ENABLE",
        "param": [
          "Q7306131_guide"
        ],
        "guideScene": 3,
        "guideStyle": "QUEST_GUIDE_STYLE_POINT",
        "guideLayer": "QUEST_GUIDE_LAYER_SCENE",
        "poiRegionId": 1501,
        "poiPointId": 15010005,
        "MLAHIFLGIGJ": ""
      },
      "guideHint": {
        "param1": ""
      },
      "isRewind": true,
      "versionBegin": "",
      "versionEnd": ""
    },
    {
      "subId": 7306132,
      "mainId": 73061,
      "order": 10,
      "descTextMapHash": 2317740604,
      "stepDescTextMapHash": 2775503581,
      "finishCond": [
        {
          "damageRatio": "QUEST_CONTENT_COMPLETE_TALK",
          "param": [
            7306132,
            0
          ]
        }
      ],
      "guide": {
        "damageRatio": "QUEST_GUIDE_NPC",
        "autoGuide": "QUEST_GUIDE_AUTO_ENABLE",
        "param": [
          "20576"
        ],
        "guideScene": 3,
        "guideStyle": "QUEST_GUIDE_STYLE_POINT",
        "guideLayer": "QUEST_GUIDE_LAYER_SCENE",
        "poiRegionId": 1901,
        "poiPointId": 19010002,
        "MLAHIFLGIGJ": ""
      },
      "guideHint": {
        "param1": ""
      },
      "isRewind": true,
      "finishExec": [
        {
          "damageRatio": "QUEST_EXEC_REFRESH_GROUP_SUITE",
          "param": [
            "3",
            "133302262,3"
          ]
        }
      ],
      "versionBegin": "",
      "versionEnd": ""
    },
    {
      "subId": 7306133,
      "mainId": 73061,
      "order": 5,
      "descTextMapHash": 1525840820,
      "stepDescTextMapHash": 927362309,
      "finishCond": [
        {
          "damageRatio": "QUEST_CONTENT_FINISH_PLOT",
          "param": [
            7306133,
            0
          ]
        }
      ],
      "guide": {
        "damageRatio": "QUEST_GUIDE_NPC",
        "autoGuide": "QUEST_GUIDE_AUTO_ENABLE",
        "param": [
          "20628"
        ],
        "guideScene": 3,
        "guideStyle": "QUEST_GUIDE_STYLE_START",
        "guideLayer": "QUEST_GUIDE_LAYER_SCENE",
        "MLAHIFLGIGJ": ""
      },
      "guideHint": {
        "param1": ""
      },
      "versionBegin": "",
      "versionEnd": ""
    },
    {
      "subId": 7306134,
      "mainId": 73061,
      "order": 9,
      "descTextMapHash": 1045900364,
      "stepDescTextMapHash": 3829436981,
      "finishCond": [
        {
          "damageRatio": "QUEST_CONTENT_FINISH_PLOT",
          "param": [
            7306134,
            0
          ]
        }
      ],
      "guide": {
        "damageRatio": "QUEST_GUIDE_LOCATION",
        "autoGuide": "QUEST_GUIDE_AUTO_ENABLE",
        "param": [
          "Q7306109_N20576"
        ],
        "guideScene": 3,
        "guideStyle": "QUEST_GUIDE_STYLE_POINT",
        "guideLayer": "QUEST_GUIDE_LAYER_SCENE",
        "poiRegionId": 1901,
        "poiPointId": 19010002,
        "MLAHIFLGIGJ": ""
      },
      "guideHint": {
        "param1": ""
      },
      "isRewind": true,
      "finishExec": [
        {
          "damageRatio": "QUEST_EXEC_SET_MAP_LAYER_UNLOCK_STATE",
          "param": [
            "3240101",
            "1"
          ]
        }
      ],
      "versionBegin": "",
      "versionEnd": ""
    },
    {
      "subId": 7306135,
      "mainId": 73061,
      "order": 15,
      "descTextMapHash": 3625906300,
      "stepDescTextMapHash": 3411609773,
      "finishCond": [
        {
          "damageRatio": "QUEST_CONTENT_FINISH_PLOT",
          "param": [
            7306135,
            0
          ]
        }
      ],
      "guide": {
        "damageRatio": "QUEST_GUIDE_LOCATION",
        "autoGuide": "QUEST_GUIDE_AUTO_ENABLE",
        "param": [
          "Q7306111_guide"
        ],
        "guideScene": 3,
        "guideStyle": "QUEST_GUIDE_STYLE_POINT",
        "guideLayer": "QUEST_GUIDE_LAYER_SCENE",
        "poiRegionId": 1901,
        "poiPointId": 19010002,
        "MLAHIFLGIGJ": ""
      },
      "guideHint": {
        "param1": ""
      },
      "isRewind": true,
      "versionBegin": "",
      "versionEnd": ""
    },
    {
      "subId": 7306136,
      "mainId": 73061,
      "order": 23,
      "descTextMapHash": 2935695396,
      "stepDescTextMapHash": 2766488717,
      "showType": "QUEST_HIDDEN",
      "finishCond": [
        {
          "damageRatio": "QUEST_CONTENT_COMPLETE_TALK",
          "param": [
            7306158,
            0
          ]
        }
      ],
      "guide": {
        "damageRatio": "QUEST_GUIDE_NPC",
        "autoGuide": "QUEST_GUIDE_AUTO_ENABLE",
        "param": [
          "20576"
        ],
        "guideScene": 3,
        "guideStyle": "QUEST_GUIDE_STYLE_POINT",
        "guideLayer": "QUEST_GUIDE_LAYER_SCENE",
        "poiRegionId": 1501,
        "poiPointId": 15010005,
        "MLAHIFLGIGJ": ""
      },
      "guideHint": {
        "param1": ""
      },
      "versionBegin": "",
      "versionEnd": ""
    },
    {
      "subId": 7306137,
      "mainId": 73061,
      "order": 22,
      "descTextMapHash": 2286115396,
      "finishCond": [
        {
          "damageRatio": "QUEST_CONTENT_FINISH_PLOT",
          "param": [
            7306137,
            0
          ]
        }
      ],
      "guide": {
        "damageRatio": "QUEST_GUIDE_LOCATION",
        "autoGuide": "QUEST_GUIDE_AUTO_ENABLE",
        "param": [
          "Q7306119_guide"
        ],
        "guideScene": 3,
        "guideStyle": "QUEST_GUIDE_STYLE_TARGET",
        "guideLayer": "QUEST_GUIDE_LAYER_SCENE",
        "poiRegionId": 1501,
        "poiPointId": 15010005,
        "MLAHIFLGIGJ": ""
      },
      "guideHint": {
        "param1": ""
      },
      "versionBegin": "",
      "versionEnd": ""
    },
    {
      "subId": 7306138,
      "mainId": 73061,
      "order": 29,
      "showType": "QUEST_HIDDEN",
      "finishCond": [
        {
          "damageRatio": "QUEST_CONTENT_QUEST_STATE_EQUAL",
          "param": [
            7306117,
            3
          ]
        }
      ],
      "guide": {
        "MLAHIFLGIGJ": ""
      },
      "showGuide": "QUEST_GUIDE_ITEM_DISABLE",
      "guideHint": {
        "param1": ""
      },
      "isRewind": true,
      "versionBegin": "",
      "versionEnd": ""
    },
    {
      "subId": 7306139,
      "mainId": 73061,
      "order": 28,
      "subIdSet": 1,
      "descTextMapHash": 4133412220,
      "stepDescTextMapHash": 3621420653,
      "showType": "QUEST_HIDDEN",
      "finishCond": [
        {
          "damageRatio": "QUEST_CONTENT_GADGET_STATE_CHANGE",
          "param": [
            133302066,
            66008
          ]
        }
      ],
      "guide": {
        "poiRegionId": 1501,
        "poiPointId": 15010005,
        "MLAHIFLGIGJ": ""
      },
      "showGuide": "QUEST_GUIDE_ITEM_DISABLE",
      "guideHint": {
        "param1": ""
      },
      "finishExec": [
        {
          "damageRatio": "QUEST_EXEC_ADD_QUEST_PROGRESS",
          "param": [
            "7306117",
            "1"
          ]
        }
      ],
      "versionBegin": "",
      "versionEnd": ""
    },
    {
      "subId": 7306140,
      "mainId": 73061,
      "order": 27,
      "subIdSet": 1,
      "descTextMapHash": 2653551812,
      "stepDescTextMapHash": 38792565,
      "showType": "QUEST_HIDDEN",
      "finishCond": [
        {
          "damageRatio": "QUEST_CONTENT_GADGET_STATE_CHANGE",
          "param": [
            133302066,
            66007
          ]
        }
      ],
      "guide": {
        "poiRegionId": 1501,
        "poiPointId": 15010005,
        "MLAHIFLGIGJ": ""
      },
      "showGuide": "QUEST_GUIDE_ITEM_DISABLE",
      "guideHint": {
        "param1": ""
      },
      "finishExec": [
        {
          "damageRatio": "QUEST_EXEC_ADD_QUEST_PROGRESS",
          "param": [
            "7306117",
            "1"
          ]
        }
      ],
      "versionBegin": "",
      "versionEnd": ""
    },
    {
      "subId": 7306141,
      "mainId": 73061,
      "order": 26,
      "subIdSet": 1,
      "descTextMapHash": 1885225044,
      "stepDescTextMapHash": 1772218757,
      "showType": "QUEST_HIDDEN",
      "finishCond": [
        {
          "damageRatio": "QUEST_CONTENT_GADGET_STATE_CHANGE",
          "param": [
            133302066,
            66003
          ]
        }
      ],
      "guide": {
        "poiRegionId": 1501,
        "poiPointId": 15010005,
        "MLAHIFLGIGJ": ""
      },
      "showGuide": "QUEST_GUIDE_ITEM_DISABLE",
      "guideHint": {
        "param1": ""
      },
      "finishExec": [
        {
          "damageRatio": "QUEST_EXEC_ADD_QUEST_PROGRESS",
          "param": [
            "7306117",
            "1"
          ]
        }
      ],
      "versionBegin": "",
      "versionEnd": ""
    }
  ],
  "talks": [
    {
      "id": 7306106,
      "beginWay": "TALK_BEGIN_MANUAL",
      "activeMode": "PLAY_MODE_ALL",
      "beginCondComb": "LOGIC_AND",
      "beginCond": [
        {
          "type": "QUEST_COND_STATE_EQUAL",
          "_param": [
            "7306106",
            "2"
          ]
        },
        {
          "type": "QUEST_COND_QUEST_VAR_EQUAL",
          "_param": [
            "3",
            "0",
            "73061"
          ]
        }
      ],
      "priority": 5,
      "initDialog": 730610601,
      "npcId": [
        1005,
        20576
      ],
      "performCfg": "QuestDialogue/WQ/Sumeru_73061/Q7306106",
      "heroTalk": "TALK_HERO_MAIN",
      "questId": 73061,
      "assetIndex": 862495520610161267,
      "prePerformCfg": ""
    },
    {
      "id": 7306107,
      "beginWay": "TALK_BEGIN_MANUAL",
      "activeMode": "PLAY_MODE_ALL",
      "beginCondComb": "LOGIC_AND",
      "beginCond": [
        {
          "type": "QUEST_COND_STATE_EQUAL",
          "_param": [
            "7306106",
            "2"
          ]
        },
        {
          "type": "QUEST_COND_QUEST_VAR_GREATER",
          "_param": [
            "3",
            "0",
            "73061"
          ]
        }
      ],
      "priority": 5,
      "initDialog": 730610701,
      "npcId": [
        1005,
        20576
      ],
      "performCfg": "QuestDialogue/WQ/Sumeru_73061/Q7306107",
      "heroTalk": "TALK_HERO_MAIN",
      "questId": 73061,
      "assetIndex": 1237616924649476787,
      "prePerformCfg": ""
    },
    {
      "id": 7306113,
      "beginWay": "TALK_BEGIN_AUTO",
      "activeMode": "PLAY_MODE_ALL",
      "beginCond": [
        {
          "type": "QUEST_COND_STATE_EQUAL",
          "_param": [
            "7306113",
            "2"
          ]
        }
      ],
      "priority": 5,
      "initDialog": 730611301,
      "npcId": [
        20661,
        20662,
        1005,
        20628
      ],
      "performCfg": "QuestDialogue/WQ/Sumeru_73061/Q7306113",
      "heroTalk": "TALK_HERO_MAIN",
      "questId": 73061,
      "assetIndex": 1789726274019438147,
      "prePerformCfg": ""
    },
    {
      "id": 7306120,
      "beginWay": "TALK_BEGIN_MANUAL",
      "activeMode": "PLAY_MODE_ALL",
      "beginCond": [
        {
          "type": "QUEST_COND_STATE_EQUAL",
          "_param": [
            "7306120",
            "2"
          ]
        }
      ],
      "priority": 5,
      "initDialog": 730612001,
      "npcId": [
        1005,
        20576
      ],
      "performCfg": "QuestDialogue/WQ/Sumeru_73061/Q7306120",
      "heroTalk": "TALK_HERO_MAIN",
      "questId": 73061,
      "assetIndex": 17432278294256904900,
      "prePerformCfg": ""
    },
    {
      "id": 7306126,
      "beginWay": "TALK_BEGIN_MANUAL",
      "activeMode": "PLAY_MODE_ALL",
      "beginCondComb": "LOGIC_AND",
      "beginCond": [
        {
          "type": "QUEST_COND_STATE_EQUAL",
          "_param": [
            "7306126",
            "2"
          ]
        },
        {
          "type": "QUEST_COND_STATE_EQUAL",
          "_param": [
            "7306107",
            "3"
          ]
        }
      ],
      "priority": 5,
      "nextTalks": [
        7306134
      ],
      "initDialog": 730612601,
      "npcId": [
        1005,
        20576
      ],
      "performCfg": "QuestDialogue/WQ/Sumeru_73061/Q7306126",
      "heroTalk": "TALK_HERO_MAIN",
      "questId": 73061,
      "assetIndex": 6146119413860985957,
      "prePerformCfg": "",
      "finishExec": [
        {
          "damageRatio": "TALK_EXEC_INC_QUEST_VAR",
          "param": [
            "4",
            "1",
            "73061"
          ]
        }
      ]
    },
    {
      "id": 7306127,
      "beginWay": "TALK_BEGIN_MANUAL",
      "activeMode": "PLAY_MODE_ALL",
      "beginCondComb": "LOGIC_AND",
      "beginCond": [
        {
          "type": "QUEST_COND_STATE_EQUAL",
          "_param": [
            "7306126",
            "2"
          ]
        },
        {
          "type": "QUEST_COND_STATE_EQUAL",
          "_param": [
            "7306125",
            "3"
          ]
        }
      ],
      "priority": 5,
      "nextTalks": [
        7306134
      ],
      "initDialog": 730612701,
      "npcId": [
        1005,
        20576
      ],
      "performCfg": "QuestDialogue/WQ/Sumeru_73061/Q7306127",
      "heroTalk": "TALK_HERO_MAIN",
      "questId": 73061,
      "assetIndex": 3413353214160291410,
      "prePerformCfg": "",
      "finishExec": [
        {
          "damageRatio": "TALK_EXEC_INC_QUEST_VAR",
          "param": [
            "4",
            "1",
            "73061"
          ]
        }
      ]
    },
    {
      "id": 7306129,
      "beginWay": "TALK_BEGIN_MANUAL",
      "activeMode": "PLAY_MODE_ALL",
      "beginCond": [
        {
          "type": "QUEST_COND_STATE_EQUAL",
          "_param": [
            "7306129",
            "2"
          ]
        }
      ],
      "priority": 5,
      "initDialog": 730612901,
      "npcId": [
        1005,
        20576
      ],
      "performCfg": "QuestDialogue/WQ/Sumeru_73061/Q7306129",
      "heroTalk": "TALK_HERO_MAIN",
      "questId": 73061,
      "assetIndex": 4600204082935811885,
      "prePerformCfg": ""
    },
    {
      "id": 7306130,
      "beginWay": "TALK_BEGIN_MANUAL",
      "activeMode": "PLAY_MODE_ALL",
      "beginCond": [
        {
          "type": "QUEST_COND_STATE_EQUAL",
          "_param": [
            "7306130",
            "2"
          ]
        }
      ],
      "priority": 5,
      "initDialog": 730613001,
      "npcId": [
        20576,
        1005
      ],
      "performCfg": "QuestDialogue/WQ/Sumeru_73061/Q7306130",
      "heroTalk": "TALK_HERO_MAIN",
      "questId": 73061,
      "assetIndex": 727091924546499973,
      "prePerformCfg": ""
    },
    {
      "id": 7306132,
      "beginWay": "TALK_BEGIN_MANUAL",
      "activeMode": "PLAY_MODE_ALL",
      "beginCond": [
        {
          "type": "QUEST_COND_STATE_EQUAL",
          "_param": [
            "7306132",
            "2"
          ]
        }
      ],
      "priority": 5,
      "initDialog": 730613201,
      "npcId": [
        20576,
        1005
      ],
      "performCfg": "QuestDialogue/WQ/Sumeru_73061/Q7306132",
      "heroTalk": "TALK_HERO_MAIN",
      "questId": 73061,
      "assetIndex": 295409093419727556,
      "prePerformCfg": ""
    },
    {
      "id": 7306134,
      "activeMode": "PLAY_MODE_ALL",
      "beginCondComb": "LOGIC_OR",
      "beginCond": [
        {
          "type": "QUEST_COND_STATE_EQUAL",
          "_param": [
            "7306126",
            "2"
          ]
        }
      ],
      "priority": 5,
      "nextTalks": [
        7306136,
        7306135
      ],
      "initDialog": 730613401,
      "npcId": [
        20576,
        1005
      ],
      "performCfg": "QuestDialogue/WQ/Sumeru_73061/Q7306134",
      "heroTalk": "TALK_HERO_MAIN",
      "questId": 73061,
      "assetIndex": 7679273437019854008,
      "prePerformCfg": ""
    },
    {
      "id": 7306135,
      "activeMode": "PLAY_MODE_ALL",
      "beginCondComb": "LOGIC_AND",
      "beginCond": [
        {
          "type": "QUEST_COND_QUEST_VAR_EQUAL",
          "_param": [
            "3",
            "0",
            "73061"
          ]
        },
        {
          "type": "QUEST_COND_STATE_EQUAL",
          "_param": [
            "7306126",
            "2"
          ]
        }
      ],
      "priority": 5,
      "nextTalks": [
        7306137
      ],
      "initDialog": 730613501,
      "npcId": [
        20576
      ],
      "performCfg": "QuestDialogue/WQ/Sumeru_73061/Q7306135",
      "heroTalk": "TALK_HERO_MAIN",
      "questId": 73061,
      "assetIndex": 3597923601284310312,
      "prePerformCfg": ""
    },
    {
      "id": 7306136,
      "activeMode": "PLAY_MODE_ALL",
      "beginCondComb": "LOGIC_AND",
      "beginCond": [
        {
          "type": "QUEST_COND_QUEST_VAR_GREATER",
          "_param": [
            "3",
            "0",
            "73061"
          ]
        },
        {
          "type": "QUEST_COND_STATE_EQUAL",
          "_param": [
            "7306126",
            "2"
          ]
        }
      ],
      "priority": 5,
      "nextTalks": [
        7306137
      ],
      "initDialog": 730613601,
      "npcId": [
        20576
      ],
      "performCfg": "QuestDialogue/WQ/Sumeru_73061/Q7306136",
      "heroTalk": "TALK_HERO_MAIN",
      "questId": 73061,
      "assetIndex": 3360873148362436047,
      "prePerformCfg": ""
    },
    {
      "id": 7306137,
      "activeMode": "PLAY_MODE_ALL",
      "beginCond": [
        {
          "type": "QUEST_COND_STATE_EQUAL",
          "_param": [
            "7306126",
            "2"
          ]
        }
      ],
      "priority": 5,
      "initDialog": 730613701,
      "npcId": [
        20576,
        1005
      ],
      "performCfg": "QuestDialogue/WQ/Sumeru_73061/Q7306137",
      "heroTalk": "TALK_HERO_MAIN",
      "questId": 73061,
      "assetIndex": 16789348861149018903,
      "prePerformCfg": ""
    },
    {
      "id": 7306140,
      "beginWay": "TALK_BEGIN_MANUAL",
      "activeMode": "PLAY_MODE_ALL",
      "beginCond": [
        {
          "type": "QUEST_COND_STATE_EQUAL",
          "_param": [
            "7306122",
            "2"
          ]
        }
      ],
      "priority": 5,
      "nextTalks": [
        7306141,
        7306142
      ],
      "initDialog": 730614001,
      "npcId": [
        20628,
        20661,
        20662,
        1005
      ],
      "performCfg": "QuestDialogue/WQ/Sumeru_73061/Q7306140",
      "heroTalk": "TALK_HERO_MAIN",
      "questId": 73061,
      "assetIndex": 10354155194917560647,
      "prePerformCfg": ""
    },
    {
      "id": 7306141,
      "activeMode": "PLAY_MODE_ALL",
      "beginCond": [
        {
          "type": "QUEST_COND_STATE_EQUAL",
          "_param": [
            "7306122",
            "2"
          ]
        }
      ],
      "priority": 5,
      "nextTalks": [
        7306143
      ],
      "initDialog": 730614101,
      "npcId": [
        1005
      ],
      "performCfg": "QuestDialogue/WQ/Sumeru_73061/Q7306141",
      "heroTalk": "TALK_HERO_MAIN",
      "questId": 73061,
      "assetIndex": 1231220168911396087,
      "prePerformCfg": ""
    },
    {
      "id": 7306142,
      "activeMode": "PLAY_MODE_ALL",
      "beginCond": [
        {
          "type": "QUEST_COND_STATE_EQUAL",
          "_param": [
            "7306122",
            "2"
          ]
        }
      ],
      "priority": 5,
      "initDialog": 730614201,
      "npcId": [
        1005,
        20628
      ],
      "performCfg": "QuestDialogue/WQ/Sumeru_73061/Q7306142",
      "heroTalk": "TALK_HERO_MAIN",
      "questId": 73061,
      "assetIndex": 15939664775033440211,
      "prePerformCfg": ""
    },
    {
      "id": 7306143,
      "activeMode": "PLAY_MODE_ALL",
      "beginCond": [
        {
          "type": "QUEST_COND_STATE_EQUAL",
          "_param": [
            "7306123",
            "2"
          ]
        }
      ],
      "priority": 5,
      "nextTalks": [
        7306144,
        7306145
      ],
      "initDialog": 730614301,
      "npcId": [
        20628,
        1005
      ],
      "performCfg": "QuestDialogue/WQ/Sumeru_73061/Q7306143",
      "heroTalk": "TALK_HERO_MAIN",
      "questId": 73061,
      "assetIndex": 17057975532572661997,
      "prePerformCfg": ""
    },
    {
      "id": 7306144,
      "activeMode": "PLAY_MODE_ALL",
      "beginCond": [
        {
          "type": "QUEST_COND_STATE_EQUAL",
          "_param": [
            "7306123",
            "2"
          ]
        }
      ],
      "priority": 5,
      "nextTalks": [
        7306146
      ],
      "initDialog": 730614401,
      "npcId": [
        20628
      ],
      "performCfg": "QuestDialogue/WQ/Sumeru_73061/Q7306144",
      "heroTalk": "TALK_HERO_MAIN",
      "questId": 73061,
      "assetIndex": 16192148256645787094,
      "prePerformCfg": ""
    },
    {
      "id": 7306145,
      "activeMode": "PLAY_MODE_ALL",
      "beginCond": [
        {
          "type": "QUEST_COND_STATE_EQUAL",
          "_param": [
            "7306123",
            "2"
          ]
        }
      ],
      "priority": 5,
      "initDialog": 730614501,
      "npcId": [
        20628
      ],
      "performCfg": "QuestDialogue/WQ/Sumeru_73061/Q7306145",
      "heroTalk": "TALK_HERO_MAIN",
      "questId": 73061,
      "assetIndex": 13641134531263973020,
      "prePerformCfg": ""
    },
    {
      "id": 7306146,
      "activeMode": "PLAY_MODE_ALL",
      "beginCond": [
        {
          "type": "QUEST_COND_STATE_EQUAL",
          "_param": [
            "7306124",
            "2"
          ]
        }
      ],
      "priority": 5,
      "nextTalks": [
        7306147,
        7306148
      ],
      "initDialog": 730614601,
      "npcId": [
        20628,
        1005
      ],
      "performCfg": "QuestDialogue/WQ/Sumeru_73061/Q7306146",
      "heroTalk": "TALK_HERO_MAIN",
      "questId": 73061,
      "assetIndex": 13468933982842309054,
      "prePerformCfg": ""
    },
    {
      "id": 7306147,
      "activeMode": "PLAY_MODE_ALL",
      "beginCond": [
        {
          "type": "QUEST_COND_STATE_EQUAL",
          "_param": [
            "7306124",
            "2"
          ]
        }
      ],
      "priority": 5,
      "nextTalks": [
        7306149
      ],
      "initDialog": 730614701,
      "npcId": [
        1005,
        20628
      ],
      "performCfg": "QuestDialogue/WQ/Sumeru_73061/Q7306147",
      "heroTalk": "TALK_HERO_MAIN",
      "questId": 73061,
      "assetIndex": 8568121312053752069,
      "prePerformCfg": ""
    },
    {
      "id": 7306148,
      "activeMode": "PLAY_MODE_ALL",
      "beginCond": [
        {
          "type": "QUEST_COND_STATE_EQUAL",
          "_param": [
            "7306124",
            "2"
          ]
        }
      ],
      "priority": 5,
      "initDialog": 730614801,
      "npcId": [
        20628
      ],
      "performCfg": "QuestDialogue/WQ/Sumeru_73061/Q7306148",
      "heroTalk": "TALK_HERO_MAIN",
      "questId": 73061,
      "assetIndex": 11307070658402424991,
      "prePerformCfg": ""
    },
    {
      "id": 7306149,
      "activeMode": "PLAY_MODE_ALL",
      "beginCond": [
        {
          "type": "QUEST_COND_STATE_EQUAL",
          "_param": [
            "7306124",
            "2"
          ]
        }
      ],
      "priority": 5,
      "initDialog": 730614901,
      "npcId": [
        20628,
        1005
      ],
      "performCfg": "QuestDialogue/WQ/Sumeru_73061/Q7306149",
      "heroTalk": "TALK_HERO_MAIN",
      "questId": 73061,
      "assetIndex": 3194698449433962636,
      "prePerformCfg": ""
    },
    {
      "id": 7306151,
      "beginWay": "TALK_BEGIN_AUTO",
      "activeMode": "PLAY_MODE_ALL",
      "beginCondComb": "LOGIC_AND",
      "beginCond": [
        {
          "type": "QUEST_COND_STATE_EQUAL",
          "_param": [
            "7306105",
            "2"
          ]
        },
        {
          "type": "QUEST_COND_QUEST_VAR_EQUAL",
          "_param": [
            "3",
            "0",
            "73061"
          ]
        }
      ],
      "priority": 5,
      "initDialog": 730615101,
      "npcId": [
        20628
      ],
      "performCfg": "QuestDialogue/WQ/Sumeru_73061/Q7306151",
      "heroTalk": "TALK_HERO_MAIN",
      "questId": 73061,
      "assetIndex": 4827925886318327865,
      "prePerformCfg": "",
      "talkMarkType": "TALK_MARK_COMMON",
      "talkMarkHideList": [
        20661,
        20662
      ]
    },
    {
      "id": 7306152,
      "beginWay": "TALK_BEGIN_AUTO",
      "activeMode": "PLAY_MODE_ALL",
      "beginCondComb": "LOGIC_AND",
      "beginCond": [
        {
          "type": "QUEST_COND_STATE_EQUAL",
          "_param": [
            "7306105",
            "2"
          ]
        },
        {
          "type": "QUEST_COND_QUEST_VAR_GREATER",
          "_param": [
            "3",
            "0",
            "73061"
          ]
        }
      ],
      "priority": 5,
      "initDialog": 730615201,
      "npcId": [
        20628
      ],
      "performCfg": "QuestDialogue/WQ/Sumeru_73061/Q7306152",
      "heroTalk": "TALK_HERO_MAIN",
      "questId": 73061,
      "assetIndex": 9963460197851864177,
      "prePerformCfg": "",
      "talkMarkType": "TALK_MARK_COMMON",
      "talkMarkHideList": [
        20661,
        20662
      ]
    },
    {
      "id": 7306153,
      "beginWay": "TALK_BEGIN_MANUAL",
      "activeMode": "PLAY_MODE_ALL",
      "beginCondComb": "LOGIC_OR",
      "beginCond": [
        {
          "type": "QUEST_COND_STATE_EQUAL",
          "_param": [
            "7306114",
            "2"
          ]
        },
        {
          "type": "QUEST_COND_STATE_EQUAL",
          "_param": [
            "7306130",
            "2"
          ]
        },
        {
          "type": "QUEST_COND_STATE_EQUAL",
          "_param": [
            "7306116",
            "2"
          ]
        },
        {
          "type": "QUEST_COND_STATE_EQUAL",
          "_param": [
            "7306137",
            "2"
          ]
        },
        {
          "type": "QUEST_COND_STATE_EQUAL",
          "_param": [
            "7306136",
            "2"
          ]
        },
        {
          "type": "QUEST_COND_STATE_EQUAL",
          "_param": [
            "7306115",
            "2"
          ]
        }
      ],
      "priority": 5,
      "initDialog": 730615301,
      "npcId": [
        20628
      ],
      "performCfg": "QuestDialogue/WQ/Sumeru_73061/Q7306153",
      "heroTalk": "TALK_HERO_MAIN",
      "questId": 73061,
      "assetIndex": 2166855927144743418,
      "prePerformCfg": "",
      "questIdleTalk": true
    },
    {
      "id": 7306154,
      "beginWay": "TALK_BEGIN_MANUAL",
      "activeMode": "PLAY_MODE_ALL",
      "beginCondComb": "LOGIC_OR",
      "beginCond": [
        {
          "type": "QUEST_COND_STATE_EQUAL",
          "_param": [
            "7306114",
            "2"
          ]
        },
        {
          "type": "QUEST_COND_STATE_EQUAL",
          "_param": [
            "7306130",
            "2"
          ]
        },
        {
          "type": "QUEST_COND_STATE_EQUAL",
          "_param": [
            "7306116",
            "2"
          ]
        },
        {
          "type": "QUEST_COND_STATE_EQUAL",
          "_param": [
            "7306137",
            "2"
          ]
        },
        {
          "type": "QUEST_COND_STATE_EQUAL",
          "_param": [
            "7306136",
            "2"
          ]
        },
        {
          "type": "QUEST_COND_STATE_EQUAL",
          "_param": [
            "7306115",
            "2"
          ]
        }
      ],
      "priority": 5,
      "initDialog": 730615401,
      "npcId": [
        20628
      ],
      "performCfg": "QuestDialogue/WQ/Sumeru_73061/Q7306154",
      "heroTalk": "TALK_HERO_MAIN",
      "questId": 73061,
      "assetIndex": 18062399610201075775,
      "prePerformCfg": "",
      "questIdleTalk": true
    },
    {
      "id": 7306155,
      "beginWay": "TALK_BEGIN_MANUAL",
      "activeMode": "PLAY_MODE_ALL",
      "beginCondComb": "LOGIC_OR",
      "beginCond": [
        {
          "type": "QUEST_COND_STATE_EQUAL",
          "_param": [
            "7306114",
            "2"
          ]
        },
        {
          "type": "QUEST_COND_STATE_EQUAL",
          "_param": [
            "7306130",
            "2"
          ]
        },
        {
          "type": "QUEST_COND_STATE_EQUAL",
          "_param": [
            "7306116",
            "2"
          ]
        },
        {
          "type": "QUEST_COND_STATE_EQUAL",
          "_param": [
            "7306137",
            "2"
          ]
        },
        {
          "type": "QUEST_COND_STATE_EQUAL",
          "_param": [
            "7306136",
            "2"
          ]
        },
        {
          "type": "QUEST_COND_STATE_EQUAL",
          "_param": [
            "7306115",
            "2"
          ]
        }
      ],
      "priority": 5,
      "initDialog": 730615501,
      "npcId": [
        20661
      ],
      "performCfg": "QuestDialogue/WQ/Sumeru_73061/Q7306155",
      "heroTalk": "TALK_HERO_MAIN",
      "questId": 73061,
      "assetIndex": 3178706768585416728,
      "prePerformCfg": "",
      "questIdleTalk": true
    },
    {
      "id": 7306156,
      "beginWay": "TALK_BEGIN_MANUAL",
      "activeMode": "PLAY_MODE_ALL",
      "beginCondComb": "LOGIC_OR",
      "beginCond": [
        {
          "type": "QUEST_COND_STATE_EQUAL",
          "_param": [
            "7306114",
            "2"
          ]
        },
        {
          "type": "QUEST_COND_STATE_EQUAL",
          "_param": [
            "7306130",
            "2"
          ]
        },
        {
          "type": "QUEST_COND_STATE_EQUAL",
          "_param": [
            "7306116",
            "2"
          ]
        },
        {
          "type": "QUEST_COND_STATE_EQUAL",
          "_param": [
            "7306137",
            "2"
          ]
        },
        {
          "type": "QUEST_COND_STATE_EQUAL",
          "_param": [
            "7306136",
            "2"
          ]
        },
        {
          "type": "QUEST_COND_STATE_EQUAL",
          "_param": [
            "7306115",
            "2"
          ]
        }
      ],
      "priority": 5,
      "initDialog": 730615601,
      "npcId": [
        20662
      ],
      "performCfg": "QuestDialogue/WQ/Sumeru_73061/Q7306156",
      "heroTalk": "TALK_HERO_MAIN",
      "questId": 73061,
      "assetIndex": 18046932104169879157,
      "prePerformCfg": "",
      "questIdleTalk": true
    },
    {
      "id": 7306157,
      "beginWay": "TALK_BEGIN_MANUAL",
      "activeMode": "PLAY_MODE_ALL",
      "beginCondComb": "LOGIC_OR",
      "beginCond": [
        {
          "type": "QUEST_COND_STATE_EQUAL",
          "_param": [
            "7306103",
            "2"
          ]
        },
        {
          "type": "QUEST_COND_STATE_EQUAL",
          "_param": [
            "7306133",
            "2"
          ]
        }
      ],
      "priority": 5,
      "initDialog": 730615701,
      "npcId": [
        20628
      ],
      "performCfg": "",
      "questId": 73061,
      "assetIndex": 16561797618576133842,
      "prePerformCfg": "",
      "talkMarkType": "TALK_MARK_BILLBOARD_ONLY"
    },
    {
      "id": 7306158,
      "beginWay": "TALK_BEGIN_MANUAL",
      "activeMode": "PLAY_MODE_ALL",
      "beginCond": [
        {
          "type": "QUEST_COND_STATE_EQUAL",
          "_param": [
            "7306136",
            "2"
          ]
        }
      ],
      "priority": 5,
      "initDialog": 730615801,
      "npcId": [
        20576,
        1005
      ],
      "performCfg": "QuestDialogue/Q7306158",
      "heroTalk": "TALK_HERO_MAIN",
      "questId": 73061,
      "assetIndex": 8185999468561233854,
      "prePerformCfg": ""
    }
  ],
  "preloadLuaList": [
    4258380906053411982,
    10996660282835022436,
    7530308206787479294,
    107337353923018645,
    3863516602259787667,
    9031175332580204434,
    13992572636144552496,
    6943454798967646020,
    9719993117188587113,
    16302822456425147146,
    15448502929530102295,
    10034172872999537348,
    9011335257970965995
  ],
  "forcePreloadLuaList": [
    5425187914046471514
  ],
  "LJICLPBJCCB": [
    {
      "id": 220055,
      "actionType": "DIRECT_USE"
    }
  ]
}