{
  "id": 73071,
  "damageRatio": "WQ",
  "activeMode": "PLAY_MODE_ALL",
  "descTextMapHash": 1425563743,
  "EKEKACCODOE": 3055664222,
  "luaPath": "Actor/Quest/WQ73071",
  "rewardIdList": [
    173071
  ],
  "subQuests": [
    {
      "subId": 7307101,
      "mainId": 73071,
      "order": 3,
      "descTextMapHash": 4257098412,
      "showType": "QUEST_HIDDEN",
      "finishCond": [
        {
          "damageRatio": "QUEST_CONTENT_COMPLETE_TALK",
          "param": [
            7307101,
            0
          ]
        }
      ],
      "failCond": [
        {
          "damageRatio": "QUEST_CONTENT_QUEST_STATE_EQUAL",
          "param": [
            7303208,
            3
          ]
        },
        {
          "damageRatio": "QUEST_CONTENT_QUEST_STATE_EQUAL",
          "param": [
            7307501,
            3
          ]
        },
        {
          "damageRatio": "QUEST_CONTENT_QUEST_STATE_EQUAL",
          "param": [
            7322701,
            3
          ]
        }
      ],
      "guide": {
        "MLAHIFLGIGJ": ""
      },
      "guideHint": {
        "param1": ""
      },
      "failParentShow": "QUEST_HIDDEN",
      "isRewind": true,
      "versionBegin": "",
      "versionEnd": ""
    },
    {
      "subId": 7307102,
      "mainId": 73071,
      "order": 4,
      "descTextMapHash": 2757773820,
      "showType": "QUEST_HIDDEN",
      "finishCond": [
        {
          "damageRatio": "QUEST_CONTENT_QUEST_STATE_EQUAL",
          "param": [
            7303208,
            3
          ]
        },
        {
          "damageRatio": "QUEST_CONTENT_QUEST_STATE_EQUAL",
          "param": [
            7307501,
            3
          ]
        },
        {
          "damageRatio": "QUEST_CONTENT_QUEST_STATE_EQUAL",
          "param": [
            7322701,
            3
          ]
        }
      ],
      "guide": {
        "MLAHIFLGIGJ": ""
      },
      "guideHint": {
        "param1": ""
      },
      "failParentShow": "QUEST_HIDDEN",
      "isRewind": true,
      "versionBegin": "",
      "versionEnd": ""
    },
    {
      "subId": 7307103,
      "mainId": 73071,
      "order": 5,
      "descTextMapHash": 644226756,
      "showType": "QUEST_HIDDEN",
      "finishCond": [
        {
          "damageRatio": "QUEST_CONTENT_COMPLETE_TALK",
          "param": [
            7307103,
            0
          ]
        }
      ],
      "guide": {
        "MLAHIFLGIGJ": ""
      },
      "guideHint": {
        "param1": ""
      },
      "failParentShow": "QUEST_HIDDEN",
      "isRewind": true,
      "versionBegin": "",
      "versionEnd": ""
    },
    {
      "subId": 7307104,
      "mainId": 73071,
      "order": 6,
      "descTextMapHash": 2060241404,
      "guideTipsTextMapHash": 2845863062,
      "finishCond": [
        {
          "damageRatio": "QUEST_CONTENT_LUA_NOTIFY",
          "param": [
            0,
            0
          ],
          "count": 1
        }
      ],
      "guide": {
        "damageRatio": "QUEST_GUIDE_LOCATION",
        "autoGuide": "QUEST_GUIDE_AUTO_ENABLE",
        "param": [
          "Q7307104_N20749_01",
          "11",
          "39"
        ],
        "guideScene": 3,
        "guideStyle": "QUEST_GUIDE_STYLE_POINT",
        "guideLayer": "QUEST_GUIDE_LAYER_SCENE",
        "MLAHIFLGIGJ": ""
      },
      "guideHint": {
        "param1": ""
      },
      "isRewind": true,
      "finishExec": [
        {
          "damageRatio": "QUEST_EXEC_REFRESH_GROUP_SUITE",
          "param": [
            "3",
            "133301618,2"
          ]
        },
        {
          "damageRatio": "QUEST_EXEC_REFRESH_GROUP_SUITE",
          "param": [
            "3",
            "133301737,3"
          ]
        }
      ],
      "versionBegin": "",
      "versionEnd": ""
    },
    {
      "subId": 7307105,
      "mainId": 73071,
      "order": 8,
      "descTextMapHash": 1298098244,
      "guideTipsTextMapHash": 3788742,
      "finishCond": [
        {
          "damageRatio": "QUEST_CONTENT_COMPLETE_TALK",
          "param": [
            7307104,
            0
          ]
        }
      ],
      "guide": {
        "damageRatio": "QUEST_GUIDE_NPC",
        "autoGuide": "QUEST_GUIDE_AUTO_ENABLE",
        "param": [
          "20749",
          "11",
          "39"
        ],
        "guideScene": 3,
        "guideStyle": "QUEST_GUIDE_STYLE_FINISH",
        "guideLayer": "QUEST_GUIDE_LAYER_UI",
        "MLAHIFLGIGJ": ""
      },
      "guideHint": {
        "param1": ""
      },
      "finishParent": true,
      "isRewind": true,
      "versionBegin": "",
      "versionEnd": ""
    },
    {
      "subId": 7307106,
      "mainId": 73071,
      "order": 1,
      "descTextMapHash": 1246487436,
      "showType": "QUEST_HIDDEN",
      "finishCond": [
        {
          "damageRatio": "QUEST_CONTENT_FINISH_PLOT",
          "param": [
            7307106,
            0
          ]
        }
      ],
      "guide": {
        "MLAHIFLGIGJ": ""
      },
      "guideHint": {
        "param1": ""
      },
      "failParentShow": "QUEST_HIDDEN",
      "isRewind": true,
      "versionBegin": "",
      "versionEnd": ""
    },
    {
      "subId": 7307107,
      "mainId": 73071,
      "order": 2,
      "descTextMapHash": 1348186612,
      "showType": "QUEST_HIDDEN",
      "finishCond": [
        {
          "damageRatio": "QUEST_CONTENT_COMPLETE_TALK",
          "param": [
            7307105,
            0
          ]
        }
      ],
      "failCond": [
        {
          "damageRatio": "QUEST_CONTENT_QUEST_STATE_EQUAL",
          "param": [
            7307101,
            3
          ]
        }
      ],
      "guide": {
        "MLAHIFLGIGJ": ""
      },
      "guideHint": {
        "param1": ""
      },
      "failParentShow": "QUEST_HIDDEN",
      "isRewind": true,
      "versionBegin": "",
      "versionEnd": ""
    },
    {
      "subId": 7307108,
      "mainId": 73071,
      "order": 7,
      "descTextMapHash": 1842834564,
      "guideTipsTextMapHash": 1111622478,
      "finishCond": [
        {
          "damageRatio": "QUEST_CONTENT_COMPLETE_TALK",
          "param": [
            7307106,
            0
          ]
        }
      ],
      "guide": {
        "damageRatio": "QUEST_GUIDE_NPC",
        "autoGuide": "QUEST_GUIDE_AUTO_ENABLE",
        "param": [
          "20749",
          "11",
          "39"
        ],
        "guideScene": 3,
        "guideStyle": "QUEST_GUIDE_STYLE_POINT",
        "guideLayer": "QUEST_GUIDE_LAYER_UI",
        "MLAHIFLGIGJ": ""
      },
      "guideHint": {
        "param1": ""
      },
      "isRewind": true,
      "versionBegin": "",
      "versionEnd": ""
    }
  ],
  "talks": [
    {
      "id": 7307101,
      "beginWay": "TALK_BEGIN_MANUAL",
      "activeMode": "PLAY_MODE_HOST",
      "beginCond": [
        {
          "type": "QUEST_COND_STATE_EQUAL",
          "_param": [
            "7307101",
            "2"
          ]
        }
      ],
      "priority": 5,
      "initDialog": 730710101,
      "npcId": [
        20749
      ],
      "performCfg": "QuestDialogue/WQ/Sumeru_73071/Q7307101",
      "heroTalk": "TALK_HERO_MAIN",
      "questId": 73071,
      "assetIndex": 17449641207593468982,
      "prePerformCfg": ""
    },
    {
      "id": 7307102,
      "beginWay": "TALK_BEGIN_MANUAL",
      "activeMode": "PLAY_MODE_HOST",
      "beginCond": [
        {
          "type": "QUEST_COND_STATE_EQUAL",
          "_param": [
            "7307102",
            "2"
          ]
        }
      ],
      "priority": 5,
      "initDialog": 730710201,
      "npcId": [
        20749
      ],
      "performCfg": "",
      "heroTalk": "TALK_HERO_MAIN",
      "questId": 73071,
      "assetIndex": 8782012599857924710,
      "prePerformCfg": ""
    },
    {
      "id": 7307103,
      "beginWay": "TALK_BEGIN_MANUAL",
      "activeMode": "PLAY_MODE_HOST",
      "beginCond": [
        {
          "type": "QUEST_COND_STATE_EQUAL",
          "_param": [
            "7307103",
            "2"
          ]
        }
      ],
      "priority": 5,
      "initDialog": 730710301,
      "npcId": [
        20749
      ],
      "performCfg": "QuestDialogue/WQ/Sumeru_73071/Q7307103",
      "heroTalk": "TALK_HERO_MAIN",
      "questId": 73071,
      "assetIndex": 17090110745711737967,
      "prePerformCfg": ""
    },
    {
      "id": 7307104,
      "beginWay": "TALK_BEGIN_MANUAL",
      "activeMode": "PLAY_MODE_HOST",
      "beginCond": [
        {
          "type": "QUEST_COND_STATE_EQUAL",
          "_param": [
            "7307105",
            "2"
          ]
        }
      ],
      "priority": 5,
      "initDialog": 730710401,
      "npcId": [
        20749
      ],
      "performCfg": "QuestDialogue/WQ/Sumeru_73071/Q7307104",
      "heroTalk": "TALK_HERO_MAIN",
      "questId": 73071,
      "assetIndex": 17349712715247684552,
      "prePerformCfg": ""
    },
    {
      "id": 7307105,
      "beginWay": "TALK_BEGIN_MANUAL",
      "activeMode": "PLAY_MODE_HOST",
      "beginCond": [
        {
          "type": "QUEST_COND_STATE_EQUAL",
          "_param": [
            "7307107",
            "2"
          ]
        }
      ],
      "priority": 5,
      "initDialog": 730710501,
      "npcId": [
        20749
      ],
      "performCfg": "QuestDialogue/WQ/Sumeru_73071/Q7307105",
      "questId": 73071,
      "assetIndex": 7358178761458014555,
      "prePerformCfg": ""
    },
    {
      "id": 7307106,
      "beginWay": "TALK_BEGIN_MANUAL",
      "activeMode": "PLAY_MODE_HOST",
      "beginCond": [
        {
          "type": "QUEST_COND_STATE_EQUAL",
          "_param": [
            "7307108",
            "2"
          ]
        }
      ],
      "priority": 5,
      "initDialog": 730710601,
      "npcId": [
        20749
      ],
      "performCfg": "QuestDialogue/WQ/Sumeru_73071/Q7307106",
      "questId": 73071,
      "assetIndex": 4135970496025746681,
      "prePerformCfg": ""
    }
  ],
  "preloadLuaList": [
    14457059026087496718,
    10686225960952174971,
    2263394669130060960,
    4450942332647684230,
    6956643995496021631
  ],
  "forcePreloadLuaList": [
    10094843752311207479
  ]
}