{
  "id": 73086,
  "damageRatio": "WQ",
  "activeMode": "PLAY_MODE_ALL",
  "descTextMapHash": 3944702351,
  "luaPath": "Actor/Quest/WQ73086",
  "showType": "QUEST_HIDDEN",
  "subQuests": [
    {
      "subId": 7308601,
      "mainId": 73086,
      "order": 1,
      "descTextMapHash": 2611374604,
      "showType": "QUEST_HIDDEN",
      "finishCond": [
        {
          "damageRatio": "QUEST_CONTENT_COMPLETE_TALK",
          "param": [
            7308602,
            0
          ]
        }
      ],
      "guide": {
        "damageRatio": "QUEST_GUIDE_NPC",
        "param": [
          "4221"
        ],
        "guideScene": 3,
        "guideStyle": "QUEST_GUIDE_STYLE_TARGET",
        "guideLayer": "QUEST_GUIDE_LAYER_SCENE",
        "MLAHIFLGIGJ": ""
      },
      "showGuide": "QUEST_GUIDE_ITEM_DISABLE",
      "guideHint": {
        "param1": ""
      },
      "isRewind": true,
      "versionBegin": "",
      "versionEnd": ""
    },
    {
      "subId": 7308602,
      "mainId": 73086,
      "order": 2,
      "descTextMapHash": 116386092,
      "showType": "QUEST_HIDDEN",
      "finishCond": [
        {
          "damageRatio": "QUEST_CONTENT_GADGET_STATE_CHANGE",
          "param": [
            133302064,
            64005
          ]
        }
      ],
      "guide": {
        "MLAHIFLGIGJ": ""
      },
      "showGuide": "QUEST_GUIDE_ITEM_DISABLE",
      "guideHint": {
        "param1": ""
      },
      "versionBegin": "",
      "versionEnd": ""
    },
    {
      "subId": 7308603,
      "mainId": 73086,
      "order": 3,
      "descTextMapHash": 1140651068,
      "showType": "QUEST_HIDDEN",
      "finishCond": [
        {
          "damageRatio": "QUEST_CONTENT_LUA_NOTIFY",
          "param": [
            0,
            0
          ],
          "count": 1
        }
      ],
      "failCond": [
        {
          "damageRatio": "QUEST_CONTENT_LUA_NOTIFY",
          "param": [
            0,
            0
          ],
          "count": 1
        }
      ],
      "guide": {
        "param": [
          "30"
        ],
        "guideScene": 3,
        "MLAHIFLGIGJ": ""
      },
      "showGuide": "QUEST_GUIDE_ITEM_DISABLE",
      "guideHint": {
        "param1": ""
      },
      "finishExec": [
        {
          "damageRatio": "QUEST_EXEC_REFRESH_GROUP_SUITE",
          "param": [
            "3",
            "133302064,4"
          ]
        }
      ],
      "failExec": [
        {
          "damageRatio": "QUEST_EXEC_REFRESH_GROUP_SUITE",
          "param": [
            "3",
            "133302064,1"
          ]
        }
      ],
      "versionBegin": "",
      "versionEnd": ""
    },
    {
      "subId": 7308604,
      "mainId": 73086,
      "order": 4,
      "descTextMapHash": 3607090060,
      "showType": "QUEST_HIDDEN",
      "finishCond": [
        {
          "damageRatio": "QUEST_CONTENT_GADGET_STATE_CHANGE",
          "param": [
            133302064,
            64011
          ]
        }
      ],
      "guide": {
        "damageRatio": "QUEST_GUIDE_NPC",
        "param": [
          "4221"
        ],
        "guideScene": 3,
        "guideStyle": "QUEST_GUIDE_STYLE_TARGET",
        "guideLayer": "QUEST_GUIDE_LAYER_SCENE",
        "MLAHIFLGIGJ": ""
      },
      "showGuide": "QUEST_GUIDE_ITEM_DISABLE",
      "guideHint": {
        "param1": ""
      },
      "finishParent": true,
      "isRewind": true,
      "versionBegin": "",
      "versionEnd": ""
    },
    {
      "subId": 7308605,
      "mainId": 73086,
      "order": 5,
      "descTextMapHash": 583835844,
      "showType": "QUEST_HIDDEN",
      "finishCond": [
        {
          "damageRatio": "QUEST_CONTENT_GAME_TIME_TICK",
          "param": [
            0,
            0
          ]
        }
      ],
      "guide": {
        "damageRatio": "QUEST_GUIDE_NPC",
        "param": [
          "4221"
        ],
        "guideScene": 3,
        "guideStyle": "QUEST_GUIDE_STYLE_TARGET",
        "guideLayer": "QUEST_GUIDE_LAYER_SCENE",
        "MLAHIFLGIGJ": ""
      },
      "showGuide": "QUEST_GUIDE_ITEM_DISABLE",
      "guideHint": {
        "param1": ""
      },
      "finishExec": [
        {
          "damageRatio": "QUEST_EXEC_ROLLBACK_QUEST",
          "param": [
            "7308601"
          ]
        }
      ],
      "versionBegin": "",
      "versionEnd": ""
    },
    {
      "subId": 7308606,
      "mainId": 73086,
      "order": 6,
      "descTextMapHash": 270467644,
      "showType": "QUEST_HIDDEN",
      "finishCond": [
        {
          "damageRatio": "QUEST_CONTENT_COMPLETE_TALK",
          "param": [
            7308607,
            0
          ]
        }
      ],
      "guide": {
        "damageRatio": "QUEST_GUIDE_NPC",
        "param": [
          "4221"
        ],
        "guideScene": 3,
        "guideStyle": "QUEST_GUIDE_STYLE_TARGET",
        "guideLayer": "QUEST_GUIDE_LAYER_SCENE",
        "MLAHIFLGIGJ": ""
      },
      "showGuide": "QUEST_GUIDE_ITEM_DISABLE",
      "guideHint": {
        "param1": ""
      },
      "isRewind": true,
      "versionBegin": "",
      "versionEnd": ""
    },
    {
      "subId": 7308607,
      "mainId": 73086,
      "order": 7,
      "descTextMapHash": 543964244,
      "showType": "QUEST_HIDDEN",
      "finishCond": [
        {
          "damageRatio": "QUEST_CONTENT_FINISH_PLOT",
          "param": [
            7308607,
            0
          ]
        }
      ],
      "guide": {
        "MLAHIFLGIGJ": ""
      },
      "showGuide": "QUEST_GUIDE_ITEM_DISABLE",
      "guideHint": {
        "param1": ""
      },
      "isRewind": true,
      "versionBegin": "",
      "versionEnd": ""
    },
    {
      "subId": 7308608,
      "mainId": 73086,
      "order": 8,
      "descTextMapHash": 408653404,
      "showType": "QUEST_HIDDEN",
      "finishCond": [
        {
          "damageRatio": "QUEST_CONTENT_LUA_NOTIFY",
          "param": [
            0,
            0
          ],
          "count": 1
        }
      ],
      "failCond": [
        {
          "damageRatio": "QUEST_CONTENT_LUA_NOTIFY",
          "param": [
            0,
            0
          ],
          "count": 1
        }
      ],
      "guide": {
        "param": [
          "30"
        ],
        "guideScene": 3,
        "MLAHIFLGIGJ": ""
      },
      "showGuide": "QUEST_GUIDE_ITEM_DISABLE",
      "guideHint": {
        "param1": ""
      },
      "isRewind": true,
      "finishExec": [
        {
          "damageRatio": "QUEST_EXEC_REFRESH_GROUP_SUITE",
          "param": [
            "3",
            "133304125,4"
          ]
        }
      ],
      "failExec": [
        {
          "damageRatio": "QUEST_EXEC_REFRESH_GROUP_SUITE",
          "param": [
            "3",
            "133304125,1"
          ]
        }
      ],
      "versionBegin": "",
      "versionEnd": ""
    },
    {
      "subId": 7308609,
      "mainId": 73086,
      "order": 9,
      "descTextMapHash": 2804716732,
      "showType": "QUEST_HIDDEN",
      "finishCond": [
        {
          "damageRatio": "QUEST_CONTENT_COMPLETE_TALK",
          "param": [
            7308609,
            0
          ]
        }
      ],
      "guide": {
        "damageRatio": "QUEST_GUIDE_NPC",
        "param": [
          "4221"
        ],
        "guideScene": 3,
        "guideStyle": "QUEST_GUIDE_STYLE_TARGET",
        "guideLayer": "QUEST_GUIDE_LAYER_SCENE",
        "MLAHIFLGIGJ": ""
      },
      "showGuide": "QUEST_GUIDE_ITEM_DISABLE",
      "guideHint": {
        "param1": ""
      },
      "isRewind": true,
      "finishExec": [
        {
          "damageRatio": "QUEST_EXEC_ROLLBACK_QUEST",
          "param": [
            "7308606"
          ]
        },
        {
          "damageRatio": "QUEST_EXEC_REFRESH_GROUP_SUITE",
          "param": [
            "3",
            "133304125,1"
          ]
        }
      ],
      "versionBegin": "",
      "versionEnd": ""
    },
    {
      "subId": 7308610,
      "mainId": 73086,
      "order": 10,
      "descTextMapHash": 1332238996,
      "showType": "QUEST_HIDDEN",
      "finishCond": [
        {
          "damageRatio": "QUEST_CONTENT_COMPLETE_TALK",
          "param": [
            7308610,
            0
          ]
        }
      ],
      "guide": {
        "damageRatio": "QUEST_GUIDE_NPC",
        "param": [
          "4221"
        ],
        "guideScene": 3,
        "guideStyle": "QUEST_GUIDE_STYLE_TARGET",
        "guideLayer": "QUEST_GUIDE_LAYER_SCENE",
        "MLAHIFLGIGJ": ""
      },
      "showGuide": "QUEST_GUIDE_ITEM_DISABLE",
      "guideHint": {
        "param1": ""
      },
      "isRewind": true,
      "versionBegin": "",
      "versionEnd": ""
    },
    {
      "subId": 7308611,
      "mainId": 73086,
      "order": 11,
      "descTextMapHash": 4168498732,
      "showType": "QUEST_HIDDEN",
      "finishCond": [
        {
          "damageRatio": "QUEST_CONTENT_COMPLETE_TALK",
          "param": [
            7308612,
            0
          ]
        }
      ],
      "guide": {
        "damageRatio": "QUEST_GUIDE_NPC",
        "param": [
          "4221"
        ],
        "guideScene": 3,
        "guideStyle": "QUEST_GUIDE_STYLE_TARGET",
        "guideLayer": "QUEST_GUIDE_LAYER_SCENE",
        "MLAHIFLGIGJ": ""
      },
      "showGuide": "QUEST_GUIDE_ITEM_DISABLE",
      "guideHint": {
        "param1": ""
      },
      "isRewind": true,
      "versionBegin": "",
      "versionEnd": ""
    },
    {
      "subId": 7308612,
      "mainId": 73086,
      "order": 12,
      "descTextMapHash": 664616484,
      "showType": "QUEST_HIDDEN",
      "finishCond": [
        {
          "damageRatio": "QUEST_CONTENT_FINISH_PLOT",
          "param": [
            7308612,
            0
          ]
        }
      ],
      "guide": {
        "MLAHIFLGIGJ": ""
      },
      "showGuide": "QUEST_GUIDE_ITEM_DISABLE",
      "guideHint": {
        "param1": ""
      },
      "isRewind": true,
      "versionBegin": "",
      "versionEnd": ""
    },
    {
      "subId": 7308613,
      "mainId": 73086,
      "order": 13,
      "descTextMapHash": 1580846308,
      "showType": "QUEST_HIDDEN",
      "finishCond": [
        {
          "damageRatio": "QUEST_CONTENT_LUA_NOTIFY",
          "param": [
            0,
            0
          ],
          "count": 1
        }
      ],
      "failCond": [
        {
          "damageRatio": "QUEST_CONTENT_LUA_NOTIFY",
          "param": [
            0,
            0
          ],
          "count": 1
        }
      ],
      "guide": {
        "param": [
          "30"
        ],
        "guideScene": 3,
        "MLAHIFLGIGJ": ""
      },
      "showGuide": "QUEST_GUIDE_ITEM_DISABLE",
      "guideHint": {
        "param1": ""
      },
      "isRewind": true,
      "finishExec": [
        {
          "damageRatio": "QUEST_EXEC_REFRESH_GROUP_SUITE",
          "param": [
            "3",
            "133304208,4"
          ]
        }
      ],
      "failExec": [
        {
          "damageRatio": "QUEST_EXEC_REFRESH_GROUP_SUITE",
          "param": [
            "3",
            "133304208,1"
          ]
        }
      ],
      "versionBegin": "",
      "versionEnd": ""
    },
    {
      "subId": 7308614,
      "mainId": 73086,
      "order": 14,
      "descTextMapHash": 1104256724,
      "showType": "QUEST_HIDDEN",
      "finishCond": [
        {
          "damageRatio": "QUEST_CONTENT_COMPLETE_TALK",
          "param": [
            7308614,
            0
          ]
        }
      ],
      "guide": {
        "damageRatio": "QUEST_GUIDE_NPC",
        "param": [
          "4221"
        ],
        "guideScene": 3,
        "guideStyle": "QUEST_GUIDE_STYLE_TARGET",
        "guideLayer": "QUEST_GUIDE_LAYER_SCENE",
        "MLAHIFLGIGJ": ""
      },
      "showGuide": "QUEST_GUIDE_ITEM_DISABLE",
      "guideHint": {
        "param1": ""
      },
      "isRewind": true,
      "finishExec": [
        {
          "damageRatio": "QUEST_EXEC_ROLLBACK_QUEST",
          "param": [
            "7308611"
          ]
        },
        {
          "damageRatio": "QUEST_EXEC_REFRESH_GROUP_SUITE",
          "param": [
            "3",
            "133304208,1"
          ]
        }
      ],
      "versionBegin": "",
      "versionEnd": ""
    },
    {
      "subId": 7308615,
      "mainId": 73086,
      "order": 15,
      "descTextMapHash": 1210666684,
      "showType": "QUEST_HIDDEN",
      "finishCond": [
        {
          "damageRatio": "QUEST_CONTENT_COMPLETE_TALK",
          "param": [
            7308615,
            0
          ]
        }
      ],
      "guide": {
        "damageRatio": "QUEST_GUIDE_NPC",
        "param": [
          "4221"
        ],
        "guideScene": 3,
        "guideStyle": "QUEST_GUIDE_STYLE_TARGET",
        "guideLayer": "QUEST_GUIDE_LAYER_SCENE",
        "MLAHIFLGIGJ": ""
      },
      "showGuide": "QUEST_GUIDE_ITEM_DISABLE",
      "guideHint": {
        "param1": ""
      },
      "isRewind": true,
      "versionBegin": "",
      "versionEnd": ""
    }
  ],
  "talks": [
    {
      "id": 7308601,
      "beginWay": "TALK_BEGIN_MANUAL",
      "activeMode": "PLAY_MODE_HOST",
      "beginCond": [
        {
          "type": "QUEST_COND_STATE_EQUAL",
          "_param": [
            "7308601",
            "2"
          ]
        }
      ],
      "priority": 5,
      "nextTalks": [
        7308602,
        7308603
      ],
      "initDialog": 730860101,
      "npcId": [
        4221
      ],
      "performCfg": "",
      "heroTalk": "TALK_HERO_MAIN",
      "questId": 73086,
      "assetIndex": 9503376930048768677,
      "prePerformCfg": ""
    },
    {
      "id": 7308602,
      "activeMode": "PLAY_MODE_HOST",
      "beginCond": [
        {
          "type": "QUEST_COND_STATE_EQUAL",
          "_param": [
            "7308601",
            "2"
          ]
        }
      ],
      "priority": 5,
      "initDialog": 730860201,
      "npcId": [
        4221
      ],
      "performCfg": "",
      "heroTalk": "TALK_HERO_MAIN",
      "questId": 73086,
      "assetIndex": 7677483464498282434,
      "prePerformCfg": ""
    },
    {
      "id": 7308603,
      "activeMode": "PLAY_MODE_HOST",
      "beginCond": [
        {
          "type": "QUEST_COND_STATE_EQUAL",
          "_param": [
            "7308601",
            "2"
          ]
        }
      ],
      "priority": 5,
      "initDialog": 730860301,
      "npcId": [
        4221
      ],
      "performCfg": "",
      "heroTalk": "TALK_HERO_MAIN",
      "questId": 73086,
      "assetIndex": 14929232173755933270,
      "prePerformCfg": ""
    },
    {
      "id": 7308604,
      "beginWay": "TALK_BEGIN_MANUAL",
      "activeMode": "PLAY_MODE_HOST",
      "beginCond": [
        {
          "type": "QUEST_COND_STATE_EQUAL",
          "_param": [
            "7308604",
            "2"
          ]
        }
      ],
      "priority": 5,
      "initDialog": 730860401,
      "npcId": [
        4221
      ],
      "performCfg": "",
      "heroTalk": "TALK_HERO_MAIN",
      "questId": 73086,
      "assetIndex": 3614232848804646507,
      "prePerformCfg": ""
    },
    {
      "id": 7308605,
      "beginWay": "TALK_BEGIN_MANUAL",
      "activeMode": "PLAY_MODE_HOST",
      "beginCond": [
        {
          "type": "QUEST_COND_STATE_EQUAL",
          "_param": [
            "7308605",
            "2"
          ]
        }
      ],
      "priority": 5,
      "initDialog": 730860501,
      "npcId": [
        4221
      ],
      "performCfg": "",
      "heroTalk": "TALK_HERO_MAIN",
      "questId": 73086,
      "assetIndex": 3422474385465983869,
      "prePerformCfg": ""
    },
    {
      "id": 7308606,
      "beginWay": "TALK_BEGIN_MANUAL",
      "activeMode": "PLAY_MODE_HOST",
      "beginCond": [
        {
          "type": "QUEST_COND_STATE_EQUAL",
          "_param": [
            "7308606",
            "2"
          ]
        }
      ],
      "priority": 5,
      "nextTalks": [
        7308607,
        7308608
      ],
      "initDialog": 730860601,
      "npcId": [
        422101
      ],
      "performCfg": "",
      "heroTalk": "TALK_HERO_MAIN",
      "questId": 73086,
      "assetIndex": 5520697618698361870,
      "prePerformCfg": ""
    },
    {
      "id": 7308607,
      "beginWay": "TALK_BEGIN_MANUAL",
      "activeMode": "PLAY_MODE_HOST",
      "beginCond": [
        {
          "type": "QUEST_COND_STATE_EQUAL",
          "_param": [
            "7308606",
            "2"
          ]
        }
      ],
      "priority": 5,
      "initDialog": 730860701,
      "npcId": [
        422101
      ],
      "performCfg": "",
      "heroTalk": "TALK_HERO_MAIN",
      "questId": 73086,
      "assetIndex": 16077169730948351110,
      "prePerformCfg": ""
    },
    {
      "id": 7308608,
      "beginWay": "TALK_BEGIN_MANUAL",
      "activeMode": "PLAY_MODE_HOST",
      "beginCond": [
        {
          "type": "QUEST_COND_STATE_EQUAL",
          "_param": [
            "7308606",
            "2"
          ]
        }
      ],
      "priority": 5,
      "initDialog": 730860801,
      "npcId": [
        422101
      ],
      "performCfg": "",
      "heroTalk": "TALK_HERO_MAIN",
      "questId": 73086,
      "assetIndex": 9191554239931253671,
      "prePerformCfg": ""
    },
    {
      "id": 7308609,
      "beginWay": "TALK_BEGIN_MANUAL",
      "activeMode": "PLAY_MODE_HOST",
      "beginCond": [
        {
          "type": "QUEST_COND_STATE_EQUAL",
          "_param": [
            "7308609",
            "2"
          ]
        }
      ],
      "priority": 5,
      "initDialog": 730860901,
      "npcId": [
        422101
      ],
      "performCfg": "",
      "heroTalk": "TALK_HERO_MAIN",
      "questId": 73086,
      "assetIndex": 15357998723480378856,
      "prePerformCfg": ""
    },
    {
      "id": 7308610,
      "beginWay": "TALK_BEGIN_MANUAL",
      "activeMode": "PLAY_MODE_HOST",
      "beginCond": [
        {
          "type": "QUEST_COND_STATE_EQUAL",
          "_param": [
            "7308610",
            "2"
          ]
        }
      ],
      "priority": 5,
      "initDialog": 730861001,
      "npcId": [
        422101
      ],
      "performCfg": "",
      "heroTalk": "TALK_HERO_MAIN",
      "questId": 73086,
      "assetIndex": 3545512179630281791,
      "prePerformCfg": ""
    },
    {
      "id": 7308611,
      "beginWay": "TALK_BEGIN_MANUAL",
      "activeMode": "PLAY_MODE_HOST",
      "beginCond": [
        {
          "type": "QUEST_COND_STATE_EQUAL",
          "_param": [
            "7308611",
            "2"
          ]
        }
      ],
      "priority": 5,
      "nextTalks": [
        7308612,
        7308613
      ],
      "initDialog": 730861101,
      "npcId": [
        422102
      ],
      "performCfg": "",
      "heroTalk": "TALK_HERO_MAIN",
      "questId": 73086,
      "assetIndex": 11216029940092973127,
      "prePerformCfg": ""
    },
    {
      "id": 7308612,
      "beginWay": "TALK_BEGIN_MANUAL",
      "activeMode": "PLAY_MODE_HOST",
      "beginCond": [
        {
          "type": "QUEST_COND_STATE_EQUAL",
          "_param": [
            "7308611",
            "2"
          ]
        }
      ],
      "priority": 5,
      "initDialog": 730861201,
      "npcId": [
        422102
      ],
      "performCfg": "",
      "heroTalk": "TALK_HERO_MAIN",
      "questId": 73086,
      "assetIndex": 9107697227572603464,
      "prePerformCfg": ""
    },
    {
      "id": 7308613,
      "beginWay": "TALK_BEGIN_MANUAL",
      "activeMode": "PLAY_MODE_HOST",
      "beginCond": [
        {
          "type": "QUEST_COND_STATE_EQUAL",
          "_param": [
            "7308611",
            "2"
          ]
        }
      ],
      "priority": 5,
      "initDialog": 730861301,
      "npcId": [
        422102
      ],
      "performCfg": "",
      "heroTalk": "TALK_HERO_MAIN",
      "questId": 73086,
      "assetIndex": 16996546323023107674,
      "prePerformCfg": ""
    },
    {
      "id": 7308614,
      "beginWay": "TALK_BEGIN_MANUAL",
      "activeMode": "PLAY_MODE_HOST",
      "beginCond": [
        {
          "type": "QUEST_COND_STATE_EQUAL",
          "_param": [
            "7308614",
            "2"
          ]
        }
      ],
      "priority": 5,
      "initDialog": 730861401,
      "npcId": [
        422102
      ],
      "performCfg": "",
      "heroTalk": "TALK_HERO_MAIN",
      "questId": 73086,
      "assetIndex": 16892378529106061300,
      "prePerformCfg": ""
    },
    {
      "id": 7308615,
      "beginWay": "TALK_BEGIN_MANUAL",
      "activeMode": "PLAY_MODE_HOST",
      "beginCond": [
        {
          "type": "QUEST_COND_STATE_EQUAL",
          "_param": [
            "7308615",
            "2"
          ]
        }
      ],
      "priority": 5,
      "initDialog": 730861501,
      "npcId": [
        422102
      ],
      "performCfg": "",
      "heroTalk": "TALK_HERO_MAIN",
      "questId": 73086,
      "assetIndex": 6361608398544922890,
      "prePerformCfg": ""
    }
  ]
}