{
  "id": 73142,
  "damageRatio": "WQ",
  "activeMode": "PLAY_MODE_ALL",
  "descTextMapHash": 2913239407,
  "luaPath": "Actor/Quest/WQ73142",
  "rewardIdList": [
    210013
  ],
  "showType": "QUEST_HIDDEN",
  "subQuests": [
    {
      "subId": 7314201,
      "mainId": 73142,
      "order": 1,
      "showType": "QUEST_HIDDEN",
      "finishCond": [
        {
          "damageRatio": "QUEST_CONTENT_GAME_TIME_TICK",
          "param": [
            0,
            0
          ]
        }
      ],
      "guide": {
        "MLAHIFLGIGJ": ""
      },
      "guideHint": {
        "param1": ""
      },
      "failParentShow": "QUEST_HIDDEN",
      "versionBegin": "",
      "versionEnd": ""
    },
    {
      "subId": 7314202,
      "mainId": 73142,
      "order": 2,
      "showType": "QUEST_HIDDEN",
      "finishCond": [
        {
          "damageRatio": "QUEST_CONTENT_GADGET_STATE_CHANGE",
          "param": [
            133303318,
            318001
          ]
        }
      ],
      "guide": {
        "MLAHIFLGIGJ": ""
      },
      "guideHint": {
        "param1": ""
      },
      "failParentShow": "QUEST_HIDDEN",
      "isRewind": true,
      "versionBegin": "",
      "versionEnd": ""
    },
    {
      "subId": 7314203,
      "mainId": 73142,
      "order": 3,
      "showType": "QUEST_HIDDEN",
      "finishCond": [
        {
          "damageRatio": "QUEST_CONTENT_COMPLETE_TALK",
          "param": [
            7314201,
            0
          ]
        }
      ],
      "guide": {
        "MLAHIFLGIGJ": ""
      },
      "guideHint": {
        "param1": ""
      },
      "finishParent": true,
      "failParentShow": "QUEST_HIDDEN",
      "isRewind": true,
      "finishExec": [
        {
          "damageRatio": "QUEST_EXEC_INC_QUEST_GLOBAL_VAR",
          "param": [
            "73100",
            "1"
          ]
        },
        {
          "damageRatio": "QUEST_EXEC_REFRESH_GROUP_SUITE",
          "param": [
            "3",
            "133303318,3"
          ]
        }
      ],
      "versionBegin": "",
      "versionEnd": ""
    }
  ],
  "talks": [
    {
      "id": 7314201,
      "beginWay": "TALK_BEGIN_MANUAL",
      "activeMode": "PLAY_MODE_ALL",
      "beginCond": [
        {
          "type": "QUEST_COND_STATE_EQUAL",
          "_param": [
            "7314202",
            "3"
          ]
        }
      ],
      "priority": 5,
      "initDialog": 731420101,
      "npcId": [
        20682
      ],
      "performCfg": "",
      "heroTalk": "TALK_HERO_MAIN",
      "questId": 73142,
      "assetIndex": 18124609065067330501,
      "prePerformCfg": ""
    }
  ],
  "freeStyleDic": {
    "20682": [
      1010,
      1020
    ]
  }
}