{
  "id": 73200,
  "damageRatio": "WQ",
  "descTextMapHash": 4281445983,
  "luaPath": "Actor/Quest/WQ73200",
  "repeatable": true,
  "showType": "QUEST_HIDDEN",
  "subQuests": [
    {
      "subId": 7320001,
      "mainId": 73200,
      "order": 1,
      "showType": "QUEST_HIDDEN",
      "finishCond": [
        {
          "damageRatio": "QUEST_CONTENT_FINISH_PLOT",
          "param": [
            7320001,
            0
          ]
        }
      ],
      "guide": {
        "MLAHIFLGIGJ": ""
      },
      "guideHint": {
        "param1": ""
      },
      "versionBegin": "",
      "versionEnd": ""
    }
  ],
  "talks": [
    {
      "id": 7320001,
      "beginWay": "TALK_BEGIN_MANUAL",
      "beginCond": [
        {
          "type": "QUEST_COND_STATE_EQUAL",
          "_param": [
            "7320001",
            "2"
          ]
        }
      ],
      "priority": 3,
      "initDialog": 732000101,
      "npcId": [
        12743
      ],
      "performCfg": "",
      "questId": 73200,
      "assetIndex": 11182720342473997549,
      "prePerformCfg": ""
    }
  ]
}