{
  "id": 73240,
  "damageRatio": "WQ",
  "activeMode": "PLAY_MODE_ALL",
  "descTextMapHash": 3974008207,
  "EKEKACCODOE": 2883951974,
  "luaPath": "Actor/Quest/WQ73240",
  "showType": "QUEST_HIDDEN",
  "subQuests": [
    {
      "subId": 7324001,
      "mainId": 73240,
      "order": 1,
      "showType": "QUEST_HIDDEN",
      "finishCond": [
        {
          "damageRatio": "QUEST_CONTENT_QUEST_STATE_EQUAL",
          "param": [
            7306109,
            3
          ]
        }
      ],
      "guide": {
        "MLAHIFLGIGJ": ""
      },
      "showGuide": "QUEST_GUIDE_ITEM_DISABLE",
      "guideHint": {
        "param1": ""
      },
      "finishParent": true,
      "isRewind": true,
      "finishExec": [
        {
          "damageRatio": "QUEST_EXEC_UNREGISTER_DYNAMIC_GROUP",
          "param": [
            "133302328",
            "0"
          ]
        }
      ],
      "versionBegin": "",
      "versionEnd": ""
    }
  ]
}