{
  "id": 73278,
  "damageRatio": "WQ",
  "activeMode": "PLAY_MODE_ALL",
  "descTextMapHash": 2962460359,
  "EKEKACCODOE": 93573910,
  "luaPath": "Actor/Quest/WQ73278",
  "rewardIdList": [
    173278
  ],
  "showType": "QUEST_HIDDEN",
  "subQuests": [
    {
      "subId": 7327801,
      "mainId": 73278,
      "order": 1,
      "descTextMapHash": 1327057092,
      "stepDescTextMapHash": 2212984573,
      "showType": "QUEST_HIDDEN",
      "finishCond": [
        {
          "damageRatio": "QUEST_CONTENT_QUEST_STATE_EQUAL",
          "param": [
            7305227,
            3
          ]
        }
      ],
      "guide": {
        "MLAHIFLGIGJ": ""
      },
      "showGuide": "QUEST_GUIDE_ITEM_DISABLE",
      "guideHint": {
        "param1": ""
      },
      "finishParent": true,
      "versionBegin": "",
      "versionEnd": ""
    }
  ]
}