{
  "id": 73306,
  "damageRatio": "WQ",
  "activeMode": "PLAY_MODE_ALL",
  "descTextMapHash": 2806847135,
  "luaPath": "Actor/Quest/WQ73306",
  "showType": "QUEST_HIDDEN",
  "subQuests": [
    {
      "subId": 7330601,
      "mainId": 73306,
      "order": 1,
      "showType": "QUEST_HIDDEN",
      "finishCond": [
        {
          "damageRatio": "QUEST_CONTENT_FINISH_PLOT",
          "param": [
            7330601,
            0
          ]
        }
      ],
      "guide": {
        "MLAHIFLGIGJ": ""
      },
      "guideHint": {
        "param1": ""
      },
      "finishParent": true,
      "isRewind": true,
      "versionBegin": "",
      "versionEnd": ""
    }
  ],
  "talks": [
    {
      "id": 7305525,
      "beginWay": "TALK_BEGIN_MANUAL",
      "activeMode": "PLAY_MODE_HOST",
      "beginCond": [
        {
          "type": "QUEST_COND_STATE_EQUAL",
          "_param": [
            "7330601",
            "2"
          ]
        }
      ],
      "priority": 2,
      "initDialog": 730552501,
      "npcId": [
        4218
      ],
      "performCfg": "",
      "heroTalk": "TALK_HERO_MAIN",
      "questId": 73306,
      "assetIndex": 17184094794946831759,
      "prePerformCfg": ""
    },
    {
      "id": 7305526,
      "beginWay": "TALK_BEGIN_MANUAL",
      "activeMode": "PLAY_MODE_HOST",
      "beginCond": [
        {
          "type": "QUEST_COND_STATE_EQUAL",
          "_param": [
            "7330601",
            "2"
          ]
        }
      ],
      "priority": 3,
      "initDialog": 730552601,
      "npcId": [
        20723,
        1005
      ],
      "performCfg": "QuestDialogue/WQ/Sumeru_73055/Q7305526",
      "heroTalk": "TALK_HERO_MAIN",
      "questId": 73306,
      "assetIndex": 887399874731442525,
      "prePerformCfg": ""
    },
    {
      "id": 7305527,
      "beginWay": "TALK_BEGIN_MANUAL",
      "activeMode": "PLAY_MODE_HOST",
      "beginCond": [
        {
          "type": "QUEST_COND_STATE_EQUAL",
          "_param": [
            "7330601",
            "2"
          ]
        }
      ],
      "priority": 4,
      "initDialog": 730552701,
      "npcId": [
        4247,
        1702
      ],
      "performCfg": "",
      "heroTalk": "TALK_HERO_MAIN",
      "questId": 73306,
      "assetIndex": 11507316970537635795,
      "prePerformCfg": ""
    }
  ],
  "preloadLuaList": [
    9693832439958908972
  ],
  "forcePreloadLuaList": [
    13634374827632072080
  ]
}