{
  "id": 73500,
  "resId": 4017,
  "damageRatio": "WQ",
  "mainQuestTag": "MAINQUEST_TAG_ACTIVITY",
  "descTextMapHash": 4230495007,
  "EKEKACCODOE": 3212220430,
  "luaPath": "Actor/Quest/WQ73500",
  "rewardIdList": [
    173500
  ],
  "showRedPoint": true,
  "activityId": 2015,
  "subQuests": [
    {
      "subId": 7350001,
      "mainId": 73500,
      "order": 1,
      "descTextMapHash": 2051009412,
      "JIFODJPFKDF": [
        330614
      ],
      "finishCond": [
        {
          "damageRatio": "QUEST_CONTENT_COMPLETE_TALK",
          "param": [
            7350001,
            0
          ]
        }
      ],
      "guide": {
        "damageRatio": "QUEST_GUIDE_NPC",
        "param": [
          "30212"
        ],
        "guideScene": 3,
        "guideStyle": "QUEST_GUIDE_STYLE_TARGET",
        "guideLayer": "QUEST_GUIDE_LAYER_SCENE",
        "MLAHIFLGIGJ": ""
      },
      "guideHint": {
        "param1": ""
      },
      "isRewind": true,
      "versionBegin": "",
      "versionEnd": ""
    },
    {
      "subId": 7350002,
      "mainId": 73500,
      "order": 2,
      "descTextMapHash": 513030076,
      "finishCond": [
        {
          "damageRatio": "QUEST_CONTENT_FINISH_PLOT",
          "param": [
            7350002,
            0
          ]
        }
      ],
      "guide": {
        "damageRatio": "QUEST_GUIDE_LOCATION",
        "param": [
          "guide_Q7350002",
          "40"
        ],
        "guideScene": 3,
        "guideStyle": "QUEST_GUIDE_STYLE_POINT",
        "guideLayer": "QUEST_GUIDE_LAYER_SCENE",
        "MLAHIFLGIGJ": ""
      },
      "showGuide": "QUEST_GUIDE_ITEM_DISABLE",
      "guideHint": {
        "param1": ""
      },
      "isRewind": true,
      "versionBegin": "",
      "versionEnd": ""
    },
    {
      "subId": 7350003,
      "mainId": 73500,
      "order": 3,
      "descTextMapHash": 401193172,
      "finishCond": [
        {
          "damageRatio": "QUEST_CONTENT_COMPLETE_TALK",
          "param": [
            7350030,
            0
          ]
        },
        {
          "damageRatio": "QUEST_CONTENT_COMPLETE_TALK",
          "param": [
            7350031,
            0
          ]
        },
        {
          "damageRatio": "QUEST_CONTENT_COMPLETE_TALK",
          "param": [
            7350032,
            0
          ]
        }
      ],
      "guide": {
        "damageRatio": "QUEST_GUIDE_NPC",
        "param": [
          "1051"
        ],
        "guideScene": 3,
        "guideStyle": "QUEST_GUIDE_STYLE_TARGET",
        "guideLayer": "QUEST_GUIDE_LAYER_SCENE",
        "MLAHIFLGIGJ": ""
      },
      "guideHint": {
        "param1": ""
      },
      "isRewind": true,
      "versionBegin": "",
      "versionEnd": ""
    },
    {
      "subId": 7350004,
      "mainId": 73500,
      "order": 4,
      "descTextMapHash": 1165624764,
      "finishCond": [
        {
          "damageRatio": "QUEST_CONTENT_FINISH_PLOT",
          "param": [
            7350004,
            0
          ]
        }
      ],
      "guide": {
        "damageRatio": "QUEST_GUIDE_LOCATION",
        "param": [
          "guide_Q7350004",
          "30"
        ],
        "guideScene": 3,
        "guideStyle": "QUEST_GUIDE_STYLE_POINT",
        "guideLayer": "QUEST_GUIDE_LAYER_SCENE",
        "MLAHIFLGIGJ": ""
      },
      "showGuide": "QUEST_GUIDE_ITEM_DISABLE",
      "guideHint": {
        "param1": ""
      },
      "isRewind": true,
      "versionBegin": "",
      "versionEnd": ""
    },
    {
      "subId": 7350005,
      "mainId": 73500,
      "order": 5,
      "descTextMapHash": 1654943492,
      "finishCond": [
        {
          "damageRatio": "QUEST_CONTENT_COMPLETE_TALK",
          "param": [
            7350005,
            0
          ]
        }
      ],
      "guide": {
        "damageRatio": "QUEST_GUIDE_NPC",
        "param": [
          "4216"
        ],
        "guideScene": 3,
        "guideStyle": "QUEST_GUIDE_STYLE_TARGET",
        "guideLayer": "QUEST_GUIDE_LAYER_SCENE",
        "MLAHIFLGIGJ": ""
      },
      "guideHint": {
        "param1": ""
      },
      "isRewind": true,
      "versionBegin": "",
      "versionEnd": ""
    },
    {
      "subId": 7350006,
      "mainId": 73500,
      "order": 6,
      "descTextMapHash": 273953676,
      "finishCond": [
        {
          "damageRatio": "QUEST_CONTENT_FINISH_PLOT",
          "param": [
            7350006,
            0
          ]
        }
      ],
      "guide": {
        "damageRatio": "QUEST_GUIDE_LOCATION",
        "param": [
          "guide_Q7350006",
          "20"
        ],
        "guideScene": 3,
        "guideStyle": "QUEST_GUIDE_STYLE_POINT",
        "guideLayer": "QUEST_GUIDE_LAYER_SCENE",
        "MLAHIFLGIGJ": ""
      },
      "showGuide": "QUEST_GUIDE_ITEM_DISABLE",
      "guideHint": {
        "param1": ""
      },
      "isRewind": true,
      "versionBegin": "",
      "versionEnd": ""
    },
    {
      "subId": 7350007,
      "mainId": 73500,
      "order": 7,
      "descTextMapHash": 1217735140,
      "finishCond": [
        {
          "damageRatio": "QUEST_CONTENT_COMPLETE_TALK",
          "param": [
            7350007,
            0
          ]
        }
      ],
      "guide": {
        "damageRatio": "QUEST_GUIDE_LOCATION",
        "param": [
          "guide_Q7350006",
          "20"
        ],
        "guideScene": 3,
        "guideStyle": "QUEST_GUIDE_STYLE_POINT",
        "guideLayer": "QUEST_GUIDE_LAYER_SCENE",
        "MLAHIFLGIGJ": ""
      },
      "showGuide": "QUEST_GUIDE_ITEM_DISABLE",
      "guideHint": {
        "param1": ""
      },
      "versionBegin": "",
      "versionEnd": ""
    },
    {
      "subId": 7350008,
      "mainId": 73500,
      "order": 14,
      "descTextMapHash": 3962516372,
      "finishCond": [
        {
          "damageRatio": "QUEST_CONTENT_FINISH_PLOT",
          "param": [
            7350008,
            0
          ]
        },
        {
          "damageRatio": "QUEST_CONTENT_GAME_TIME_TICK",
          "param": [
            1,
            0
          ]
        }
      ],
      "guide": {
        "damageRatio": "QUEST_GUIDE_LOCATION",
        "param": [
          "guide_Q7350008",
          "20"
        ],
        "guideScene": 3,
        "guideStyle": "QUEST_GUIDE_STYLE_POINT",
        "guideLayer": "QUEST_GUIDE_LAYER_SCENE",
        "MLAHIFLGIGJ": ""
      },
      "showGuide": "QUEST_GUIDE_ITEM_DISABLE",
      "guideHint": {
        "param1": ""
      },
      "isRewind": true,
      "versionBegin": "",
      "versionEnd": ""
    },
    {
      "subId": 7350009,
      "mainId": 73500,
      "order": 8,
      "descTextMapHash": 555994292,
      "showType": "QUEST_HIDDEN",
      "finishCond": [
        {
          "damageRatio": "QUEST_CONTENT_COMPLETE_TALK",
          "param": [
            7350009,
            0
          ]
        }
      ],
      "guide": {
        "MLAHIFLGIGJ": ""
      },
      "guideHint": {
        "param1": ""
      },
      "finishExec": [
        {
          "damageRatio": "QUEST_EXEC_ADD_QUEST_PROGRESS",
          "param": [
            "7350017",
            "1"
          ]
        },
        {
          "damageRatio": "QUEST_EXEC_SET_QUEST_GLOBAL_VAR",
          "param": [
            "73500",
            "1"
          ]
        }
      ],
      "versionBegin": "",
      "versionEnd": ""
    },
    {
      "subId": 7350010,
      "mainId": 73500,
      "order": 15,
      "descTextMapHash": 2508926428,
      "finishCond": [
        {
          "damageRatio": "QUEST_CONTENT_COMPLETE_TALK",
          "param": [
            7350010,
            0
          ]
        }
      ],
      "guide": {
        "damageRatio": "QUEST_GUIDE_LOCATION",
        "param": [
          "guide_Q7350008",
          "20"
        ],
        "guideScene": 3,
        "guideStyle": "QUEST_GUIDE_STYLE_POINT",
        "guideLayer": "QUEST_GUIDE_LAYER_SCENE",
        "MLAHIFLGIGJ": ""
      },
      "showGuide": "QUEST_GUIDE_ITEM_DISABLE",
      "guideHint": {
        "param1": ""
      },
      "versionBegin": "",
      "versionEnd": ""
    },
    {
      "subId": 7350011,
      "mainId": 73500,
      "order": 16,
      "descTextMapHash": 1819444452,
      "finishCond": [
        {
          "damageRatio": "QUEST_CONTENT_FINISH_PLOT",
          "param": [
            7350011,
            0
          ]
        }
      ],
      "guide": {
        "damageRatio": "QUEST_GUIDE_LOCATION",
        "param": [
          "guide_Q7350011",
          "15"
        ],
        "guideScene": 3,
        "guideStyle": "QUEST_GUIDE_STYLE_POINT",
        "guideLayer": "QUEST_GUIDE_LAYER_SCENE",
        "MLAHIFLGIGJ": ""
      },
      "showGuide": "QUEST_GUIDE_ITEM_DISABLE",
      "guideHint": {
        "param1": ""
      },
      "isRewind": true,
      "versionBegin": "",
      "versionEnd": ""
    },
    {
      "subId": 7350012,
      "mainId": 73500,
      "order": 17,
      "descTextMapHash": 1755729716,
      "finishCond": [
        {
          "damageRatio": "QUEST_CONTENT_COMPLETE_TALK",
          "param": [
            7350012,
            0
          ]
        }
      ],
      "guide": {
        "damageRatio": "QUEST_GUIDE_NPC",
        "param": [
          "1051"
        ],
        "guideScene": 3,
        "guideStyle": "QUEST_GUIDE_STYLE_TARGET",
        "guideLayer": "QUEST_GUIDE_LAYER_SCENE",
        "MLAHIFLGIGJ": ""
      },
      "guideHint": {
        "param1": ""
      },
      "isRewind": true,
      "finishExec": [
        {
          "damageRatio": "QUEST_EXEC_UNREGISTER_DYNAMIC_GROUP",
          "param": [
            "133302261",
            "1"
          ]
        }
      ],
      "versionBegin": "",
      "versionEnd": ""
    },
    {
      "subId": 7350013,
      "mainId": 73500,
      "order": 18,
      "descTextMapHash": 4114917468,
      "finishCond": [
        {
          "damageRatio": "QUEST_CONTENT_GAME_TIME_TICK",
          "param": [
            0,
            0
          ]
        }
      ],
      "guide": {
        "MLAHIFLGIGJ": ""
      },
      "guideHint": {
        "param1": ""
      },
      "isRewind": true,
      "versionBegin": "",
      "versionEnd": ""
    },
    {
      "subId": 7350014,
      "mainId": 73500,
      "order": 19,
      "isMpBlock": true,
      "descTextMapHash": 4152313500,
      "finishCond": [
        {
          "damageRatio": "QUEST_CONTENT_COMPLETE_TALK",
          "param": [
            7350014,
            0
          ]
        }
      ],
      "guide": {
        "damageRatio": "QUEST_GUIDE_NPC",
        "param": [
          "4216"
        ],
        "guideScene": 3,
        "guideStyle": "QUEST_GUIDE_STYLE_TARGET",
        "guideLayer": "QUEST_GUIDE_LAYER_SCENE",
        "MLAHIFLGIGJ": ""
      },
      "guideHint": {
        "param1": ""
      },
      "finishParent": true,
      "isRewind": true,
      "finishExec": [
        {
          "damageRatio": "QUEST_EXEC_UNREGISTER_DYNAMIC_GROUP",
          "param": [
            "133302079",
            "1"
          ]
        }
      ],
      "versionBegin": "",
      "versionEnd": ""
    },
    {
      "subId": 7350015,
      "mainId": 73500,
      "order": 9,
      "descTextMapHash": 2337475164,
      "showType": "QUEST_HIDDEN",
      "finishCond": [
        {
          "damageRatio": "QUEST_CONTENT_COMPLETE_TALK",
          "param": [
            7350015,
            0
          ]
        }
      ],
      "guide": {
        "MLAHIFLGIGJ": ""
      },
      "guideHint": {
        "param1": ""
      },
      "finishExec": [
        {
          "damageRatio": "QUEST_EXEC_ADD_QUEST_PROGRESS",
          "param": [
            "7350017",
            "1"
          ]
        },
        {
          "damageRatio": "QUEST_EXEC_SET_QUEST_GLOBAL_VAR",
          "param": [
            "73500",
            "2"
          ]
        }
      ],
      "versionBegin": "",
      "versionEnd": ""
    },
    {
      "subId": 7350016,
      "mainId": 73500,
      "order": 10,
      "descTextMapHash": 662393156,
      "showType": "QUEST_HIDDEN",
      "finishCond": [
        {
          "damageRatio": "QUEST_CONTENT_COMPLETE_TALK",
          "param": [
            7350016,
            0
          ]
        }
      ],
      "guide": {
        "MLAHIFLGIGJ": ""
      },
      "guideHint": {
        "param1": ""
      },
      "finishExec": [
        {
          "damageRatio": "QUEST_EXEC_ADD_QUEST_PROGRESS",
          "param": [
            "7350017",
            "1"
          ]
        },
        {
          "damageRatio": "QUEST_EXEC_SET_QUEST_GLOBAL_VAR",
          "param": [
            "73500",
            "3"
          ]
        }
      ],
      "versionBegin": "",
      "versionEnd": ""
    },
    {
      "subId": 7350017,
      "mainId": 73500,
      "order": 11,
      "subIdSet": 1,
      "descTextMapHash": 248704164,
      "finishCond": [
        {
          "damageRatio": "QUEST_CONTENT_ADD_QUEST_PROGRESS",
          "param": [
            7350017,
            0
          ],
          "count": 3
        }
      ],
      "guide": {
        "damageRatio": "QUEST_GUIDE_LOCATION",
        "param": [
          "Q7350015_N20747",
          "30"
        ],
        "guideScene": 3,
        "guideStyle": "QUEST_GUIDE_STYLE_POINT",
        "guideLayer": "QUEST_GUIDE_LAYER_SCENE",
        "MLAHIFLGIGJ": ""
      },
      "showGuide": "QUEST_GUIDE_ITEM_DISABLE",
      "guideHint": {
        "param1": ""
      },
      "versionBegin": "",
      "versionEnd": ""
    },
    {
      "subId": 7350018,
      "mainId": 73500,
      "order": 12,
      "descTextMapHash": 1279664220,
      "showType": "QUEST_HIDDEN",
      "finishCond": [
        {
          "damageRatio": "QUEST_CONTENT_QUEST_STATE_EQUAL",
          "param": [
            7350017,
            3
          ]
        }
      ],
      "guide": {
        "MLAHIFLGIGJ": ""
      },
      "guideHint": {
        "param1": ""
      },
      "isRewind": true,
      "versionBegin": "",
      "versionEnd": ""
    },
    {
      "subId": 7350019,
      "mainId": 73500,
      "order": 13,
      "descTextMapHash": 1072750852,
      "finishCond": [
        {
          "damageRatio": "QUEST_CONTENT_COMPLETE_TALK",
          "param": [
            7350019,
            0
          ]
        }
      ],
      "guide": {
        "damageRatio": "QUEST_GUIDE_NPC",
        "param": [
          "4216"
        ],
        "guideScene": 3,
        "guideStyle": "QUEST_GUIDE_STYLE_TARGET",
        "guideLayer": "QUEST_GUIDE_LAYER_SCENE",
        "MLAHIFLGIGJ": ""
      },
      "guideHint": {
        "param1": ""
      },
      "isRewind": true,
      "versionBegin": "",
      "versionEnd": ""
    }
  ],
  "talks": [
    {
      "id": 7350001,
      "beginWay": "TALK_BEGIN_MANUAL",
      "beginCond": [
        {
          "type": "QUEST_COND_STATE_EQUAL",
          "_param": [
            "7350001",
            "2"
          ]
        }
      ],
      "priority": 5,
      "initDialog": 735000101,
      "npcId": [
        30212,
        30213,
        30214,
        30215,
        30216
      ],
      "performCfg": "QuestDialogue/WQ/Sumeru_73500/Q7350001",
      "heroTalk": "TALK_HERO_MAIN",
      "questId": 73500,
      "assetIndex": 18368710656545279950,
      "prePerformCfg": ""
    },
    {
      "id": 7350003,
      "beginWay": "TALK_BEGIN_MANUAL",
      "beginCond": [
        {
          "type": "QUEST_COND_STATE_EQUAL",
          "_param": [
            "7350003",
            "2"
          ]
        }
      ],
      "priority": 5,
      "nextTalks": [
        7350030,
        7350031,
        7350032
      ],
      "initDialog": 735000301,
      "npcId": [
        1051,
        4217
      ],
      "performCfg": "QuestDialogue/WQ/Sumeru_73500/Q7350003",
      "heroTalk": "TALK_HERO_MAIN",
      "questId": 73500,
      "assetIndex": 513606668029004407,
      "prePerformCfg": ""
    },
    {
      "id": 7350005,
      "beginWay": "TALK_BEGIN_MANUAL",
      "beginCond": [
        {
          "type": "QUEST_COND_STATE_EQUAL",
          "_param": [
            "7350005",
            "2"
          ]
        }
      ],
      "priority": 5,
      "initDialog": 735000501,
      "npcId": [
        4216,
        4217,
        1051
      ],
      "performCfg": "QuestDialogue/WQ/Sumeru_73500/Q7350005",
      "heroTalk": "TALK_HERO_MAIN",
      "questId": 73500,
      "assetIndex": 6778942484752380076,
      "prePerformCfg": ""
    },
    {
      "id": 7350007,
      "beginWay": "TALK_BEGIN_MANUAL",
      "beginCond": [
        {
          "type": "QUEST_COND_STATE_EQUAL",
          "_param": [
            "7350007",
            "2"
          ]
        }
      ],
      "priority": 5,
      "initDialog": 735000701,
      "npcId": [
        4216,
        1005
      ],
      "performCfg": "QuestDialogue/WQ/Sumeru_73500/Q7350007",
      "heroTalk": "TALK_HERO_MAIN",
      "questId": 73500,
      "assetIndex": 17146864921371358215,
      "prePerformCfg": ""
    },
    {
      "id": 7350009,
      "beginWay": "TALK_BEGIN_MANUAL",
      "beginCond": [
        {
          "type": "QUEST_COND_STATE_EQUAL",
          "_param": [
            "7350009",
            "2"
          ]
        }
      ],
      "priority": 5,
      "initDialog": 735000901,
      "npcId": [
        20746
      ],
      "performCfg": "QuestDialogue/WQ/Sumeru_73500/Q7350009",
      "heroTalk": "TALK_HERO_MAIN",
      "questId": 73500,
      "assetIndex": 17775206628904195864,
      "prePerformCfg": ""
    },
    {
      "id": 7350010,
      "beginWay": "TALK_BEGIN_MANUAL",
      "beginCond": [
        {
          "type": "QUEST_COND_STATE_EQUAL",
          "_param": [
            "7350010",
            "2"
          ]
        }
      ],
      "priority": 5,
      "initDialog": 735001001,
      "npcId": [
        1005
      ],
      "performCfg": "QuestDialogue/WQ/Sumeru_73500/Q7350010",
      "heroTalk": "TALK_HERO_MAIN",
      "questId": 73500,
      "assetIndex": 17791805925950910110,
      "prePerformCfg": ""
    },
    {
      "id": 7350012,
      "beginWay": "TALK_BEGIN_MANUAL",
      "beginCond": [
        {
          "type": "QUEST_COND_STATE_EQUAL",
          "_param": [
            "7350012",
            "2"
          ]
        }
      ],
      "priority": 5,
      "initDialog": 735001201,
      "npcId": [
        1051
      ],
      "performCfg": "QuestDialogue/WQ/Sumeru_73500/Q7350012",
      "heroTalk": "TALK_HERO_MAIN",
      "questId": 73500,
      "assetIndex": 18123288536541004712,
      "prePerformCfg": ""
    },
    {
      "id": 7350014,
      "beginWay": "TALK_BEGIN_MANUAL",
      "beginCond": [
        {
          "type": "QUEST_COND_STATE_EQUAL",
          "_param": [
            "7350014",
            "2"
          ]
        }
      ],
      "priority": 5,
      "initDialog": 735001401,
      "npcId": [
        4216,
        1051,
        4217
      ],
      "performCfg": "QuestDialogue/WQ/Sumeru_73500/Q7350014",
      "heroTalk": "TALK_HERO_MAIN",
      "questId": 73500,
      "assetIndex": 7043100700446523697,
      "prePerformCfg": ""
    },
    {
      "id": 7350015,
      "beginWay": "TALK_BEGIN_MANUAL",
      "beginCondComb": "LOGIC_AND",
      "beginCond": [
        {
          "type": "QUEST_COND_STATE_EQUAL",
          "_param": [
            "7350015",
            "2"
          ]
        },
        {
          "type": "QUEST_COND_QUEST_GLOBAL_VAR_EQUAL",
          "_param": [
            "73500",
            "1"
          ]
        }
      ],
      "priority": 5,
      "initDialog": 735001501,
      "npcId": [
        20747
      ],
      "performCfg": "QuestDialogue/WQ/Sumeru_73500/Q7350015",
      "heroTalk": "TALK_HERO_MAIN",
      "questId": 73500,
      "assetIndex": 13462063160725770222,
      "prePerformCfg": ""
    },
    {
      "id": 7350016,
      "beginWay": "TALK_BEGIN_MANUAL",
      "beginCondComb": "LOGIC_AND",
      "beginCond": [
        {
          "type": "QUEST_COND_STATE_EQUAL",
          "_param": [
            "7350016",
            "2"
          ]
        },
        {
          "type": "QUEST_COND_QUEST_GLOBAL_VAR_EQUAL",
          "_param": [
            "73500",
            "2"
          ]
        }
      ],
      "priority": 5,
      "initDialog": 735001601,
      "npcId": [
        20748
      ],
      "performCfg": "QuestDialogue/WQ/Sumeru_73500/Q7350016",
      "heroTalk": "TALK_HERO_MAIN",
      "questId": 73500,
      "assetIndex": 952058152123361509,
      "prePerformCfg": ""
    },
    {
      "id": 7350019,
      "beginWay": "TALK_BEGIN_MANUAL",
      "beginCond": [
        {
          "type": "QUEST_COND_STATE_EQUAL",
          "_param": [
            "7350019",
            "2"
          ]
        }
      ],
      "priority": 5,
      "initDialog": 735001901,
      "npcId": [
        4216,
        1051
      ],
      "performCfg": "QuestDialogue/WQ/Sumeru_73500/Q7350019",
      "heroTalk": "TALK_HERO_MAIN",
      "questId": 73500,
      "assetIndex": 6802477066622695971,
      "prePerformCfg": ""
    },
    {
      "id": 7350030,
      "priority": 5,
      "initDialog": 735003001,
      "npcId": [
        4217,
        1051
      ],
      "performCfg": "QuestDialogue/WQ/Sumeru_73500/Q7350030",
      "heroTalk": "TALK_HERO_MAIN",
      "questId": 73500,
      "assetIndex": 1636238179502064862,
      "prePerformCfg": ""
    },
    {
      "id": 7350031,
      "beginCond": [
        {
          "type": "QUEST_COND_QUEST_GLOBAL_VAR_EQUAL",
          "_param": [
            "10006",
            "1"
          ]
        }
      ],
      "priority": 5,
      "initDialog": 735003101,
      "npcId": [
        4217,
        1051
      ],
      "performCfg": "QuestDialogue/WQ/Sumeru_73500/Q7350031",
      "heroTalk": "TALK_HERO_MAIN",
      "questId": 73500,
      "assetIndex": 8585527469384921303,
      "prePerformCfg": ""
    },
    {
      "id": 7350032,
      "beginCond": [
        {
          "type": "QUEST_COND_QUEST_GLOBAL_VAR_EQUAL",
          "_param": [
            "10014",
            "1"
          ]
        }
      ],
      "priority": 5,
      "initDialog": 735003201,
      "npcId": [
        4217,
        1051
      ],
      "performCfg": "QuestDialogue/WQ/Sumeru_73500/Q7350032",
      "heroTalk": "TALK_HERO_MAIN",
      "questId": 73500,
      "assetIndex": 11277128048607580536,
      "prePerformCfg": ""
    },
    {
      "id": 7350052,
      "beginWay": "TALK_BEGIN_MANUAL",
      "beginCond": [
        {
          "type": "QUEST_COND_STATE_EQUAL",
          "_param": [
            "7350018",
            "2"
          ]
        }
      ],
      "priority": 5,
      "initDialog": 735005201,
      "npcId": [
        4216
      ],
      "performCfg": "QuestDialogue/WQ/Sumeru_73500/Q7350052",
      "heroTalk": "TALK_HERO_MAIN",
      "questId": 73500,
      "assetIndex": 3709412212288887590,
      "prePerformCfg": ""
    },
    {
      "id": 7350053,
      "beginWay": "TALK_BEGIN_MANUAL",
      "beginCond": [
        {
          "type": "QUEST_COND_STATE_EQUAL",
          "_param": [
            "7350018",
            "2"
          ]
        }
      ],
      "priority": 5,
      "initDialog": 735005301,
      "npcId": [
        4217
      ],
      "performCfg": "QuestDialogue/WQ/Sumeru_73500/Q7350053",
      "heroTalk": "TALK_HERO_MAIN",
      "questId": 73500,
      "assetIndex": 12913790993113460775,
      "prePerformCfg": ""
    },
    {
      "id": 7350054,
      "beginWay": "TALK_BEGIN_MANUAL",
      "beginCond": [
        {
          "type": "QUEST_COND_STATE_EQUAL",
          "_param": [
            "7350018",
            "2"
          ]
        }
      ],
      "priority": 5,
      "initDialog": 735005401,
      "npcId": [
        1051
      ],
      "performCfg": "QuestDialogue/WQ/Sumeru_73500/Q7350054",
      "heroTalk": "TALK_HERO_MAIN",
      "questId": 73500,
      "assetIndex": 5833216981677256299,
      "prePerformCfg": ""
    },
    {
      "id": 7350055,
      "beginWay": "TALK_BEGIN_MANUAL",
      "beginCond": [
        {
          "type": "QUEST_COND_STATE_EQUAL",
          "_param": [
            "99902",
            "3"
          ]
        }
      ],
      "priority": 5,
      "initDialog": 735005501,
      "npcId": [
        4216
      ],
      "performCfg": "",
      "heroTalk": "TALK_HERO_MAIN",
      "questId": 73500,
      "assetIndex": 17574748626229884538,
      "prePerformCfg": ""
    },
    {
      "id": 7350056,
      "beginWay": "TALK_BEGIN_MANUAL",
      "beginCond": [
        {
          "type": "QUEST_COND_STATE_EQUAL",
          "_param": [
            "99902",
            "3"
          ]
        }
      ],
      "priority": 5,
      "initDialog": 735005601,
      "npcId": [
        4217
      ],
      "performCfg": "",
      "heroTalk": "TALK_HERO_MAIN",
      "questId": 73500,
      "assetIndex": 3505227249705880519,
      "prePerformCfg": ""
    }
  ],
  "preloadLuaList": [
    14457059026087496718,
    8504550768469903658,
    3866976568390142922,
    7769379038099653038,
    16410232199038816129,
    6445213300300194103,
    14784974559506594608,
    1875650449212376985,
    4763227213059377966,
    16088091855278780368,
    15268984504438392050,
    11584400463501252105
  ],
  "forcePreloadLuaList": [
    544967376607324924
  ],
  "freeStyleDic": {
    "4216": [
      1280
    ]
  }
}