{
  "id": 73506,
  "damageRatio": "WQ",
  "mainQuestTag": "MAINQUEST_TAG_GUIDE",
  "descTextMapHash": 1029199495,
  "EKEKACCODOE": 545422422,
  "luaPath": "Actor/Quest/WQ73506",
  "rewardIdList": [
    173506
  ],
  "showRedPoint": true,
  "activityId": 5116,
  "subQuests": [
    {
      "subId": 7350601,
      "mainId": 73506,
      "order": 1,
      "descTextMapHash": 347634284,
      "finishCond": [
        {
          "damageRatio": "QUEST_CONTENT_COMPLETE_TALK",
          "param": [
            7350601,
            0
          ]
        }
      ],
      "guide": {
        "damageRatio": "QUEST_GUIDE_NPC",
        "param": [
          "4070"
        ],
        "guideScene": 3,
        "guideStyle": "QUEST_GUIDE_STYLE_TARGET",
        "guideLayer": "QUEST_GUIDE_LAYER_SCENE",
        "MLAHIFLGIGJ": ""
      },
      "guideHint": {
        "param1": ""
      },
      "isRewind": true,
      "versionBegin": "",
      "versionEnd": ""
    },
    {
      "subId": 7350602,
      "mainId": 73506,
      "order": 2,
      "descTextMapHash": 1402776652,
      "finishCond": [
        {
          "damageRatio": "QUEST_CONTENT_COMPLETE_TALK",
          "param": [
            7350623,
            0
          ]
        }
      ],
      "guide": {
        "damageRatio": "QUEST_GUIDE_LOCATION",
        "param": [
          "Q7350602_N30261",
          "35"
        ],
        "guideScene": 1074,
        "guideStyle": "QUEST_GUIDE_STYLE_POINT",
        "guideLayer": "QUEST_GUIDE_LAYER_SCENE",
        "MLAHIFLGIGJ": ""
      },
      "guideHint": {
        "param1": ""
      },
      "isRewind": true,
      "versionBegin": "",
      "versionEnd": ""
    },
    {
      "subId": 7350603,
      "mainId": 73506,
      "order": 3,
      "descTextMapHash": 782190884,
      "finishCond": [
        {
          "damageRatio": "QUEST_CONTENT_COMPLETE_TALK",
          "param": [
            7350603,
            0
          ]
        }
      ],
      "guide": {
        "damageRatio": "QUEST_GUIDE_NPC",
        "param": [
          "30279"
        ],
        "guideScene": 3,
        "guideStyle": "QUEST_GUIDE_STYLE_TARGET",
        "guideLayer": "QUEST_GUIDE_LAYER_SCENE",
        "MLAHIFLGIGJ": ""
      },
      "guideHint": {
        "param1": ""
      },
      "finishParent": true,
      "isRewind": true,
      "versionBegin": "",
      "versionEnd": ""
    }
  ],
  "talks": [
    {
      "id": 7350601,
      "beginWay": "TALK_BEGIN_MANUAL",
      "beginCond": [
        {
          "type": "QUEST_COND_STATE_EQUAL",
          "_param": [
            "7350601",
            "2"
          ]
        }
      ],
      "priority": 5,
      "initDialog": 735060101,
      "npcId": [
        4070
      ],
      "performCfg": "QuestDialogue/WQ/Sumeru_73506/Q7350601",
      "heroTalk": "TALK_HERO_MAIN",
      "questId": 73506,
      "assetIndex": 7021925711564484749,
      "prePerformCfg": ""
    },
    {
      "id": 7350602,
      "beginWay": "TALK_BEGIN_MANUAL",
      "beginCond": [
        {
          "type": "QUEST_COND_STATE_EQUAL",
          "_param": [
            "7350602",
            "2"
          ]
        }
      ],
      "priority": 5,
      "nextTalks": [
        7350621,
        7350622
      ],
      "initDialog": 735060201,
      "npcId": [
        30279,
        2602
      ],
      "performCfg": "QuestDialogue/WQ/Sumeru_73506/Q7350602",
      "heroTalk": "TALK_HERO_MAIN",
      "questId": 73506,
      "assetIndex": 542441064286216951,
      "prePerformCfg": ""
    },
    {
      "id": 7350603,
      "beginWay": "TALK_BEGIN_MANUAL",
      "beginCond": [
        {
          "type": "QUEST_COND_STATE_EQUAL",
          "_param": [
            "7350603",
            "2"
          ]
        }
      ],
      "priority": 5,
      "initDialog": 735060301,
      "npcId": [
        30279
      ],
      "performCfg": "QuestDialogue/WQ/Sumeru_73506/Q7350603",
      "heroTalk": "TALK_HERO_MAIN",
      "questId": 73506,
      "assetIndex": 2313005362986192634,
      "prePerformCfg": ""
    },
    {
      "id": 7350604,
      "beginWay": "TALK_BEGIN_MANUAL",
      "beginCond": [
        {
          "type": "QUEST_COND_STATE_EQUAL",
          "_param": [
            "7350603",
            "2"
          ]
        }
      ],
      "priority": 5,
      "initDialog": 735060401,
      "npcId": [
        2602
      ],
      "performCfg": "QuestDialogue/WQ/Sumeru_73506/Q7350604",
      "heroTalk": "TALK_HERO_MAIN",
      "questId": 73506,
      "assetIndex": 9588855617484225180,
      "prePerformCfg": ""
    },
    {
      "id": 7350621,
      "beginCondComb": "LOGIC_AND",
      "beginCond": [
        {
          "type": "QUEST_COND_STATE_EQUAL",
          "_param": [
            "7350602",
            "2"
          ]
        },
        {
          "type": "QUEST_COND_QUEST_GLOBAL_VAR_EQUAL",
          "_param": [
            "302617",
            "1"
          ]
        }
      ],
      "priority": 3,
      "nextTalks": [
        7350623
      ],
      "initDialog": 735062101,
      "npcId": [
        2602
      ],
      "performCfg": "QuestDialogue/WQ/Sumeru_73506/Q7350621",
      "heroTalk": "TALK_HERO_MAIN",
      "questId": 73506,
      "assetIndex": 2329796532588714926,
      "prePerformCfg": ""
    },
    {
      "id": 7350622,
      "beginCondComb": "LOGIC_AND",
      "beginCond": [
        {
          "type": "QUEST_COND_STATE_EQUAL",
          "_param": [
            "7350602",
            "2"
          ]
        },
        {
          "type": "QUEST_COND_QUEST_GLOBAL_VAR_EQUAL",
          "_param": [
            "302617",
            "0"
          ]
        }
      ],
      "priority": 3,
      "nextTalks": [
        7350623
      ],
      "initDialog": 735062201,
      "npcId": [
        2602
      ],
      "performCfg": "QuestDialogue/WQ/Sumeru_73506/Q7350622",
      "heroTalk": "TALK_HERO_MAIN",
      "questId": 73506,
      "assetIndex": 9822870447668900342,
      "prePerformCfg": ""
    },
    {
      "id": 7350623,
      "beginCond": [
        {
          "type": "QUEST_COND_STATE_EQUAL",
          "_param": [
            "7350602",
            "2"
          ]
        }
      ],
      "priority": 3,
      "initDialog": 735062301,
      "npcId": [
        2602
      ],
      "performCfg": "QuestDialogue/WQ/Sumeru_73506/Q7350623",
      "heroTalk": "TALK_HERO_MAIN",
      "questId": 73506,
      "assetIndex": 12775207785087206131,
      "prePerformCfg": ""
    }
  ],
  "preloadLuaList": [
    3958618578976986035,
    14457059026087496718
  ],
  "freeStyleDic": {
    "2602": [
      8010
    ]
  }
}