{
  "id": 73515,
  "damageRatio": "WQ",
  "mainQuestTag": "MAINQUEST_TAG_ACTIVITY",
  "descTextMapHash": 1043316295,
  "EKEKACCODOE": 442303550,
  "luaPath": "Actor/Quest/WQ73515",
  "rewardIdList": [
    173515
  ],
  "activityId": 5128,
  "subQuests": [
    {
      "subId": 7351501,
      "mainId": 73515,
      "order": 2,
      "descTextMapHash": 3635123340,
      "finishCond": [
        {
          "damageRatio": "QUEST_CONTENT_COMPLETE_TALK",
          "param": [
            7351501,
            0
          ]
        }
      ],
      "guide": {
        "damageRatio": "QUEST_GUIDE_NPC",
        "param": [
          "30342"
        ],
        "guideScene": 3,
        "guideStyle": "QUEST_GUIDE_STYLE_TARGET",
        "guideLayer": "QUEST_GUIDE_LAYER_SCENE",
        "MLAHIFLGIGJ": ""
      },
      "guideHint": {
        "param1": ""
      },
      "finishParent": true,
      "isRewind": true,
      "versionBegin": "",
      "versionEnd": ""
    },
    {
      "subId": 7351502,
      "mainId": 73515,
      "order": 1,
      "descTextMapHash": 1557685860,
      "finishCond": [
        {
          "damageRatio": "QUEST_CONTENT_GAME_TIME_TICK",
          "param": [
            1,
            0
          ]
        }
      ],
      "guide": {
        "MLAHIFLGIGJ": ""
      },
      "guideHint": {
        "param1": ""
      },
      "isRewind": true,
      "versionBegin": "",
      "versionEnd": ""
    }
  ],
  "talks": [
    {
      "id": 7351501,
      "beginWay": "TALK_BEGIN_MANUAL",
      "beginCond": [
        {
          "type": "QUEST_COND_STATE_EQUAL",
          "_param": [
            "7351501",
            "2"
          ]
        }
      ],
      "priority": 5,
      "initDialog": 735150101,
      "npcId": [
        30342,
        30343
      ],
      "performCfg": "QuestDialogue/WQ/V3.6SandSworm/Q7351501",
      "heroTalk": "TALK_HERO_MAIN",
      "questId": 73515,
      "assetIndex": 12640850067795595076,
      "prePerformCfg": "",
      "forceNpcNotDestroy": true
    }
  ]
}