{
  "id": 73518,
  "damageRatio": "WQ",
  "mainQuestTag": "MAINQUEST_TAG_ACTIVITY",
  "descTextMapHash": 240175263,
  "EKEKACCODOE": 1755825726,
  "luaPath": "Actor/Quest/WQ73518",
  "rewardIdList": [
    173518
  ],
  "activityId": 5128,
  "subQuests": [
    {
      "subId": 7351801,
      "mainId": 73518,
      "order": 2,
      "descTextMapHash": 1583487252,
      "finishCond": [
        {
          "damageRatio": "QUEST_CONTENT_COMPLETE_TALK",
          "param": [
            7351801,
            0
          ]
        }
      ],
      "guide": {
        "damageRatio": "QUEST_GUIDE_NPC",
        "param": [
          "30342"
        ],
        "guideScene": 3,
        "guideStyle": "QUEST_GUIDE_STYLE_TARGET",
        "guideLayer": "QUEST_GUIDE_LAYER_SCENE",
        "MLAHIFLGIGJ": ""
      },
      "guideHint": {
        "param1": ""
      },
      "finishParent": true,
      "isRewind": true,
      "versionBegin": "",
      "versionEnd": ""
    },
    {
      "subId": 7351802,
      "mainId": 73518,
      "order": 1,
      "descTextMapHash": 1466027068,
      "finishCond": [
        {
          "damageRatio": "QUEST_CONTENT_FINISH_PLOT",
          "param": [
            7351802,
            0
          ]
        }
      ],
      "guide": {
        "damageRatio": "QUEST_GUIDE_LOCATION",
        "param": [
          "Q7351801_N30342",
          "5"
        ],
        "guideScene": 3,
        "guideStyle": "QUEST_GUIDE_STYLE_TARGET",
        "guideLayer": "QUEST_GUIDE_LAYER_SCENE",
        "MLAHIFLGIGJ": ""
      },
      "guideHint": {
        "param1": ""
      },
      "isRewind": true,
      "versionBegin": "",
      "versionEnd": ""
    }
  ],
  "talks": [
    {
      "id": 7351801,
      "beginWay": "TALK_BEGIN_MANUAL",
      "beginCond": [
        {
          "type": "QUEST_COND_STATE_EQUAL",
          "_param": [
            "7351801",
            "2"
          ]
        }
      ],
      "priority": 5,
      "initDialog": 735180101,
      "npcId": [
        30342,
        30343
      ],
      "performCfg": "QuestDialogue/WQ/V3.6SandSworm/Q7351801",
      "heroTalk": "TALK_HERO_MAIN",
      "questId": 73518,
      "assetIndex": 17226719830201215694,
      "prePerformCfg": "",
      "forceNpcNotDestroy": true
    }
  ],
  "preloadLuaList": [
    11197115690017645807
  ],
  "forcePreloadLuaList": [
    18340908966878966271
  ]
}