{
  "id": 73523,
  "series": 73520,
  "damageRatio": "WQ",
  "mainQuestTag": "MAINQUEST_TAG_ACTIVITY",
  "luaPath": "Actor/Quest/WQ73523",
  "showType": "QUEST_HIDDEN",
  "subQuests": [
    {
      "subId": 7352301,
      "mainId": 73523,
      "order": 1,
      "showType": "QUEST_HIDDEN",
      "finishCond": [
        {
          "damageRatio": "QUEST_CONTENT_FINISH_PLOT",
          "param": [
            7352301,
            0
          ]
        },
        {
          "damageRatio": "QUEST_CONTENT_ANY_MANUAL_TRANSPORT",
          "param": [
            0,
            0
          ]
        }
      ],
      "guide": {
        "MLAHIFLGIGJ": ""
      },
      "guideHint": {
        "param1": ""
      },
      "isRewind": true,
      "versionBegin": "",
      "versionEnd": ""
    },
    {
      "subId": 7352302,
      "mainId": 73523,
      "order": 3,
      "showType": "QUEST_HIDDEN",
      "finishCond": [
        {
          "damageRatio": "QUEST_CONTENT_FINISH_PLOT",
          "param": [
            7352302,
            0
          ]
        },
        {
          "damageRatio": "QUEST_CONTENT_ANY_MANUAL_TRANSPORT",
          "param": [
            0,
            0
          ]
        }
      ],
      "guide": {
        "MLAHIFLGIGJ": ""
      },
      "guideHint": {
        "param1": ""
      },
      "isRewind": true,
      "versionBegin": "",
      "versionEnd": ""
    },
    {
      "subId": 7352303,
      "mainId": 73523,
      "order": 5,
      "showType": "QUEST_HIDDEN",
      "finishCond": [
        {
          "damageRatio": "QUEST_CONTENT_FINISH_PLOT",
          "param": [
            7352303,
            0
          ]
        },
        {
          "damageRatio": "QUEST_CONTENT_ANY_MANUAL_TRANSPORT",
          "param": [
            0,
            0
          ]
        }
      ],
      "guide": {
        "MLAHIFLGIGJ": ""
      },
      "guideHint": {
        "param1": ""
      },
      "finishParent": true,
      "isRewind": true,
      "versionBegin": "",
      "versionEnd": ""
    },
    {
      "subId": 7352304,
      "mainId": 73523,
      "order": 2,
      "showType": "QUEST_HIDDEN",
      "finishCond": [
        {
          "damageRatio": "QUEST_CONTENT_QUEST_STATE_EQUAL",
          "param": [
            7352105,
            3
          ]
        }
      ],
      "guide": {
        "MLAHIFLGIGJ": ""
      },
      "guideHint": {
        "param1": ""
      },
      "isRewind": true,
      "versionBegin": "",
      "versionEnd": ""
    },
    {
      "subId": 7352305,
      "mainId": 73523,
      "order": 4,
      "showType": "QUEST_HIDDEN",
      "finishCond": [
        {
          "damageRatio": "QUEST_CONTENT_QUEST_STATE_EQUAL",
          "param": [
            7352202,
            3
          ]
        }
      ],
      "guide": {
        "MLAHIFLGIGJ": ""
      },
      "guideHint": {
        "param1": ""
      },
      "isRewind": true,
      "versionBegin": "",
      "versionEnd": ""
    }
  ],
  "talks": [
    {
      "id": 7352301,
      "beginWay": "TALK_BEGIN_MANUAL",
      "beginCond": [
        {
          "type": "QUEST_COND_STATE_EQUAL",
          "_param": [
            "7352301",
            "2"
          ]
        }
      ],
      "priority": 5,
      "initDialog": 735230101,
      "npcId": [
        13254
      ],
      "performCfg": "QuestDialogue/WQ/Sumeru_73523/Q7352301",
      "heroTalk": "TALK_HERO_MAIN",
      "questId": 73523,
      "assetIndex": 2211529456466631752,
      "prePerformCfg": ""
    },
    {
      "id": 7352302,
      "beginWay": "TALK_BEGIN_MANUAL",
      "beginCond": [
        {
          "type": "QUEST_COND_STATE_EQUAL",
          "_param": [
            "7352302",
            "2"
          ]
        }
      ],
      "priority": 5,
      "initDialog": 735230201,
      "npcId": [
        13225
      ],
      "performCfg": "QuestDialogue/WQ/Sumeru_73523/Q7352302",
      "heroTalk": "TALK_HERO_MAIN",
      "questId": 73523,
      "assetIndex": 3590570144517026299,
      "prePerformCfg": ""
    },
    {
      "id": 7352303,
      "beginWay": "TALK_BEGIN_MANUAL",
      "beginCond": [
        {
          "type": "QUEST_COND_STATE_EQUAL",
          "_param": [
            "7352303",
            "2"
          ]
        }
      ],
      "priority": 5,
      "initDialog": 735230301,
      "npcId": [
        30356
      ],
      "performCfg": "QuestDialogue/WQ/Sumeru_73523/Q7352303",
      "heroTalk": "TALK_HERO_MAIN",
      "questId": 73523,
      "assetIndex": 1588009917090508471,
      "prePerformCfg": ""
    }
  ],
  "preloadLuaList": [
    9395513944115163844,
    4407731060059617866,
    15023721361539198939
  ],
  "forcePreloadLuaList": [
    17912951785152348289
  ]
}