{
  "id": 73656,
  "damageRatio": "WQ",
  "mainQuestTag": "MAINQUEST_TAG_REPUTATION",
  "descTextMapHash": 3845956239,
  "EKEKACCODOE": 2212186206,
  "luaPath": "Actor/Quest/WQ73656",
  "subQuests": [
    {
      "subId": 7365601,
      "mainId": 73656,
      "order": 1,
      "descTextMapHash": 2975843540,
      "finishCond": [
        {
          "damageRatio": "QUEST_CONTENT_FINISH_ITEM_GIVING",
          "param": [
            7365601,
            0
          ]
        }
      ],
      "guide": {
        "damageRatio": "QUEST_GUIDE_NPC",
        "param": [
          "4007"
        ],
        "guideScene": 3,
        "guideStyle": "QUEST_GUIDE_STYLE_TARGET",
        "guideLayer": "QUEST_GUIDE_LAYER_SCENE",
        "MLAHIFLGIGJ": ""
      },
      "guideHint": {
        "param1": ""
      },
      "isRewind": true,
      "versionBegin": "",
      "versionEnd": ""
    },
    {
      "subId": 7365602,
      "mainId": 73656,
      "order": 2,
      "descTextMapHash": 3524034188,
      "finishCond": [
        {
          "damageRatio": "QUEST_CONTENT_COMPLETE_TALK",
          "param": [
            7365602,
            0
          ]
        }
      ],
      "guide": {
        "damageRatio": "QUEST_GUIDE_NPC",
        "param": [
          "4007"
        ],
        "guideScene": 3,
        "guideStyle": "QUEST_GUIDE_STYLE_TARGET",
        "guideLayer": "QUEST_GUIDE_LAYER_SCENE",
        "MLAHIFLGIGJ": ""
      },
      "guideHint": {
        "param1": ""
      },
      "finishParent": true,
      "isRewind": true,
      "versionBegin": "",
      "versionEnd": ""
    }
  ],
  "talks": [
    {
      "id": 7365601,
      "beginCondComb": "LOGIC_AND",
      "beginCond": [
        {
          "type": "QUEST_COND_STATE_EQUAL",
          "_param": [
            "7365601",
            "2"
          ]
        },
        {
          "type": "QUEST_COND_ITEM_GIVING_ACTIVED",
          "_param": [
            "7365601"
          ]
        }
      ],
      "priority": 5,
      "initDialog": 736560101,
      "npcId": [
        4007
      ],
      "performCfg": "",
      "questId": 73656,
      "assetIndex": 12481395105809710721,
      "dontBlockDaily": true,
      "prePerformCfg": ""
    },
    {
      "id": 7365602,
      "beginWay": "TALK_BEGIN_AUTO",
      "beginCond": [
        {
          "type": "QUEST_COND_STATE_EQUAL",
          "_param": [
            "7365602",
            "2"
          ]
        }
      ],
      "priority": 5,
      "initDialog": 736560201,
      "npcId": [
        4007
      ],
      "performCfg": "",
      "questId": 73656,
      "assetIndex": 4694350391445455171,
      "prePerformCfg": ""
    }
  ]
}