{
  "id": 73652,
  "series": 5087,
  "damageRatio": "WQ",
  "mainQuestTag": "MAINQUEST_TAG_GUIDE",
  "activeMode": "PLAY_MODE_ALL",
  "descTextMapHash": 675979351,
  "EKEKACCODOE": 3261056198,
  "luaPath": "Actor/Quest/WQ73652",
  "rewardIdList": [
    173652
  ],
  "showRedPoint": true,
  "activityId": 5087,
  "subQuests": [
    {
      "subId": 7365201,
      "mainId": 73652,
      "order": 1,
      "descTextMapHash": 1614175892,
      "finishCond": [
        {
          "damageRatio": "QUEST_CONTENT_COMPLETE_TALK",
          "param": [
            7365201,
            0
          ]
        }
      ],
      "guide": {
        "damageRatio": "QUEST_GUIDE_NPC",
        "param": [
          "30226"
        ],
        "guideScene": 3,
        "guideStyle": "QUEST_GUIDE_STYLE_TARGET",
        "guideLayer": "QUEST_GUIDE_LAYER_SCENE",
        "MLAHIFLGIGJ": ""
      },
      "guideHint": {
        "param1": ""
      },
      "finishParent": true,
      "isRewind": true,
      "versionBegin": "",
      "versionEnd": ""
    }
  ],
  "talks": [
    {
      "id": 7365201,
      "beginWay": "TALK_BEGIN_MANUAL",
      "activeMode": "PLAY_MODE_HOST",
      "beginCond": [
        {
          "type": "QUEST_COND_STATE_EQUAL",
          "_param": [
            "7365201",
            "2"
          ]
        }
      ],
      "priority": 5,
      "initDialog": 736520101,
      "npcId": [
        30226,
        1005
      ],
      "performCfg": "QuestDialogue/WQ/Sumeru_73652/Q7365201",
      "heroTalk": "TALK_HERO_MAIN",
      "questId": 73652,
      "assetIndex": 8354299669365376739,
      "prePerformCfg": ""
    }
  ]
}