{
  "id": 73658,
  "damageRatio": "WQ",
  "mainQuestTag": "MAINQUEST_TAG_REPUTATION",
  "descTextMapHash": 3606811367,
  "EKEKACCODOE": 805538102,
  "luaPath": "Actor/Quest/WQ73658",
  "subQuests": [
    {
      "subId": 7365801,
      "mainId": 73658,
      "order": 1,
      "descTextMapHash": 4060667764,
      "finishCond": [
        {
          "damageRatio": "QUEST_CONTENT_FINISH_ITEM_GIVING",
          "param": [
            7365801,
            0
          ]
        }
      ],
      "guide": {
        "damageRatio": "QUEST_GUIDE_NPC",
        "param": [
          "4061"
        ],
        "guideScene": 3,
        "guideStyle": "QUEST_GUIDE_STYLE_TARGET",
        "guideLayer": "QUEST_GUIDE_LAYER_SCENE",
        "MLAHIFLGIGJ": ""
      },
      "guideHint": {
        "param1": ""
      },
      "isRewind": true,
      "versionBegin": "",
      "versionEnd": ""
    },
    {
      "subId": 7365802,
      "mainId": 73658,
      "order": 2,
      "descTextMapHash": 2651357012,
      "finishCond": [
        {
          "damageRatio": "QUEST_CONTENT_COMPLETE_TALK",
          "param": [
            7365802,
            0
          ]
        }
      ],
      "guide": {
        "damageRatio": "QUEST_GUIDE_NPC",
        "param": [
          "4061"
        ],
        "guideScene": 3,
        "guideStyle": "QUEST_GUIDE_STYLE_TARGET",
        "guideLayer": "QUEST_GUIDE_LAYER_SCENE",
        "MLAHIFLGIGJ": ""
      },
      "guideHint": {
        "param1": ""
      },
      "finishParent": true,
      "isRewind": true,
      "versionBegin": "",
      "versionEnd": ""
    }
  ],
  "talks": [
    {
      "id": 7365801,
      "beginCondComb": "LOGIC_AND",
      "beginCond": [
        {
          "type": "QUEST_COND_STATE_EQUAL",
          "_param": [
            "7365801",
            "2"
          ]
        },
        {
          "type": "QUEST_COND_ITEM_GIVING_ACTIVED",
          "_param": [
            "7365801"
          ]
        }
      ],
      "priority": 5,
      "initDialog": 736580101,
      "npcId": [
        4061
      ],
      "performCfg": "",
      "questId": 73658,
      "assetIndex": 7656609848198675912,
      "dontBlockDaily": true,
      "prePerformCfg": ""
    },
    {
      "id": 7365802,
      "beginWay": "TALK_BEGIN_AUTO",
      "beginCond": [
        {
          "type": "QUEST_COND_STATE_EQUAL",
          "_param": [
            "7365802",
            "2"
          ]
        }
      ],
      "priority": 5,
      "initDialog": 736580201,
      "npcId": [
        4061
      ],
      "performCfg": "",
      "questId": 73658,
      "assetIndex": 9790353992102207679,
      "prePerformCfg": ""
    }
  ]
}