{
  "id": 73676,
  "damageRatio": "WQ",
  "mainQuestTag": "MAINQUEST_TAG_GUIDE",
  "descTextMapHash": 2465126263,
  "EKEKACCODOE": 4025937270,
  "luaPath": "Actor/Quest/WQ73676",
  "rewardIdList": [
    173676
  ],
  "showRedPoint": true,
  "activityId": 5096,
  "subQuests": [
    {
      "subId": 7367601,
      "mainId": 73676,
      "order": 1,
      "descTextMapHash": 912806428,
      "finishCond": [
        {
          "damageRatio": "QUEST_CONTENT_COMPLETE_TALK",
          "param": [
            7367601,
            0
          ]
        }
      ],
      "guide": {
        "damageRatio": "QUEST_GUIDE_NPC",
        "param": [
          "12760"
        ],
        "guideScene": 3,
        "guideStyle": "QUEST_GUIDE_STYLE_TARGET",
        "guideLayer": "QUEST_GUIDE_LAYER_SCENE",
        "MLAHIFLGIGJ": ""
      },
      "guideHint": {
        "param1": ""
      },
      "isRewind": true,
      "versionBegin": "",
      "versionEnd": ""
    },
    {
      "subId": 7367602,
      "mainId": 73676,
      "order": 2,
      "descTextMapHash": 1679255636,
      "finishCond": [
        {
          "damageRatio": "QUEST_CONTENT_COMPLETE_TALK",
          "param": [
            7367603,
            0
          ]
        }
      ],
      "failCond": [
        {
          "damageRatio": "QUEST_CONTENT_LUA_NOTIFY",
          "param": [
            0,
            0
          ],
          "count": 1
        }
      ],
      "guide": {
        "damageRatio": "QUEST_GUIDE_LOCATION",
        "param": [
          "Q7367603_guide"
        ],
        "guideScene": 3,
        "guideStyle": "QUEST_GUIDE_STYLE_TARGET",
        "MLAHIFLGIGJ": ""
      },
      "guideHint": {
        "param1": ""
      },
      "isRewind": true,
      "versionBegin": "",
      "versionEnd": ""
    },
    {
      "subId": 7367603,
      "mainId": 73676,
      "order": 3,
      "descTextMapHash": 101525572,
      "finishCond": [
        {
          "damageRatio": "QUEST_CONTENT_LUA_NOTIFY",
          "param": [
            0,
            0
          ],
          "count": 1
        }
      ],
      "guide": {
        "damageRatio": "QUEST_GUIDE_LOCATION",
        "param": [
          "Q7367603_guide"
        ],
        "guideScene": 3,
        "guideStyle": "QUEST_GUIDE_STYLE_TARGET",
        "MLAHIFLGIGJ": ""
      },
      "guideHint": {
        "param1": ""
      },
      "isRewind": true,
      "versionBegin": "",
      "versionEnd": ""
    },
    {
      "subId": 7367604,
      "mainId": 73676,
      "order": 5,
      "descTextMapHash": 762352956,
      "finishCond": [
        {
          "damageRatio": "QUEST_CONTENT_COMPLETE_TALK",
          "param": [
            7367604,
            0
          ]
        }
      ],
      "guide": {
        "damageRatio": "QUEST_GUIDE_LOCATION",
        "param": [
          "Q7367602_guide_Q7367604_N12760"
        ],
        "guideScene": 3,
        "guideStyle": "QUEST_GUIDE_STYLE_POINT",
        "guideLayer": "QUEST_GUIDE_LAYER_SCENE",
        "MLAHIFLGIGJ": ""
      },
      "guideHint": {
        "param1": ""
      },
      "finishParent": true,
      "isRewind": true,
      "finishExec": [
        {
          "damageRatio": "QUEST_EXEC_UNREGISTER_DYNAMIC_GROUP",
          "param": [
            "133303346",
            "1"
          ]
        }
      ],
      "versionBegin": "",
      "versionEnd": ""
    },
    {
      "subId": 7367605,
      "mainId": 73676,
      "order": 4,
      "descTextMapHash": 2033753700,
      "finishCond": [
        {
          "damageRatio": "QUEST_CONTENT_LUA_NOTIFY",
          "param": [
            0,
            0
          ],
          "count": 1
        }
      ],
      "guide": {
        "damageRatio": "QUEST_GUIDE_LOCATION",
        "param": [
          "Q7367602_guide_Q7367604_N12760",
          "30"
        ],
        "guideScene": 3,
        "guideStyle": "QUEST_GUIDE_STYLE_TARGET",
        "MLAHIFLGIGJ": ""
      },
      "guideHint": {
        "param1": ""
      },
      "isRewind": true,
      "finishExec": [
        {
          "damageRatio": "QUEST_EXEC_UNREGISTER_DYNAMIC_GROUP",
          "param": [
            "133303654",
            "0"
          ]
        },
        {
          "damageRatio": "QUEST_EXEC_UNREGISTER_DYNAMIC_GROUP",
          "param": [
            "133303655",
            "0"
          ]
        }
      ],
      "versionBegin": "",
      "versionEnd": ""
    }
  ],
  "talks": [
    {
      "id": 7367601,
      "beginWay": "TALK_BEGIN_MANUAL",
      "beginCond": [
        {
          "type": "QUEST_COND_STATE_EQUAL",
          "_param": [
            "7367601",
            "2"
          ]
        }
      ],
      "priority": 5,
      "initDialog": 736760101,
      "npcId": [
        12760
      ],
      "performCfg": "QuestDialogue/WQ/Sumeru_73676/Q7367601",
      "heroTalk": "TALK_HERO_MAIN",
      "questId": 73676,
      "assetIndex": 11431108678983765409,
      "prePerformCfg": ""
    },
    {
      "id": 7367603,
      "beginWay": "TALK_BEGIN_MANUAL",
      "beginCond": [
        {
          "type": "QUEST_COND_STATE_EQUAL",
          "_param": [
            "7367602",
            "2"
          ]
        }
      ],
      "priority": 5,
      "initDialog": 736760301,
      "npcId": [
        12760
      ],
      "performCfg": "QuestDialogue/WQ/Sumeru_73676/Q7367603",
      "heroTalk": "TALK_HERO_MAIN",
      "questId": 73676,
      "assetIndex": 6237369404156879970,
      "prePerformCfg": ""
    },
    {
      "id": 7367604,
      "beginWay": "TALK_BEGIN_MANUAL",
      "beginCond": [
        {
          "type": "QUEST_COND_STATE_EQUAL",
          "_param": [
            "7367604",
            "2"
          ]
        }
      ],
      "priority": 5,
      "initDialog": 736760401,
      "npcId": [
        12761,
        12760
      ],
      "performCfg": "QuestDialogue/WQ/Sumeru_73676/Q7367604",
      "heroTalk": "TALK_HERO_MAIN",
      "questId": 73676,
      "assetIndex": 1399747549506971173,
      "prePerformCfg": ""
    }
  ],
  "preloadLuaList": [
    14636894626695366408,
    2161330086888218690
  ],
  "forcePreloadLuaList": [
    17393777652850775923
  ]
}