{
  "id": 73681,
  "damageRatio": "WQ",
  "mainQuestTag": "MAINQUEST_TAG_GUIDE",
  "activeMode": "PLAY_MODE_ALL",
  "descTextMapHash": 26717511,
  "EKEKACCODOE": 2668732542,
  "luaPath": "Actor/Quest/WQ73681",
  "rewardIdList": [
    173681
  ],
  "showRedPoint": true,
  "activityId": 2016,
  "subQuests": [
    {
      "subId": 7368101,
      "mainId": 73681,
      "order": 1,
      "descTextMapHash": 584895660,
      "finishCond": [
        {
          "damageRatio": "QUEST_CONTENT_COMPLETE_TALK",
          "param": [
            7368101,
            0
          ]
        }
      ],
      "guide": {
        "damageRatio": "QUEST_GUIDE_NPC",
        "param": [
          "30234"
        ],
        "guideScene": 3,
        "guideStyle": "QUEST_GUIDE_STYLE_TARGET",
        "guideLayer": "QUEST_GUIDE_LAYER_SCENE",
        "MLAHIFLGIGJ": ""
      },
      "guideHint": {
        "param1": ""
      },
      "finishParent": true,
      "isRewind": true,
      "finishExec": [
        {
          "damageRatio": "QUEST_EXEC_NOTIFY_GROUP_LUA",
          "param": [
            "3",
            "133002149"
          ]
        }
      ],
      "versionBegin": "",
      "versionEnd": ""
    }
  ],
  "talks": [
    {
      "id": 7368101,
      "beginWay": "TALK_BEGIN_MANUAL",
      "activeMode": "PLAY_MODE_HOST",
      "beginCondComb": "LOGIC_AND",
      "beginCond": [
        {
          "type": "QUEST_COND_STATE_EQUAL",
          "_param": [
            "7368101",
            "2"
          ]
        },
        {
          "type": "QUEST_COND_ACTIVITY_CLIENT_COND",
          "_param": [
            "2016",
            "2016019",
            "1"
          ]
        }
      ],
      "priority": 5,
      "initDialog": 736810101,
      "npcId": [
        30234
      ],
      "performCfg": "QuestDialogue/WQ/Mengde_73681/Q7368101",
      "heroTalk": "TALK_HERO_MAIN",
      "questId": 73681,
      "assetIndex": 15216317407115125251,
      "prePerformCfg": ""
    }
  ]
}