{
  "id": 73689,
  "damageRatio": "WQ",
  "mainQuestTag": "MAINQUEST_TAG_GUIDE",
  "descTextMapHash": 3784296343,
  "EKEKACCODOE": 3292390326,
  "luaPath": "Actor/Quest/WQ73689",
  "rewardIdList": [
    173689
  ],
  "showRedPoint": true,
  "activityId": 5123,
  "subQuests": [
    {
      "subId": 7368901,
      "mainId": 73689,
      "order": 1,
      "descTextMapHash": 437781324,
      "finishCond": [
        {
          "damageRatio": "QUEST_CONTENT_COMPLETE_TALK",
          "param": [
            7368901,
            0
          ]
        }
      ],
      "guide": {
        "damageRatio": "QUEST_GUIDE_NPC",
        "param": [
          "30322"
        ],
        "guideScene": 3,
        "guideStyle": "QUEST_GUIDE_STYLE_TARGET",
        "guideLayer": "QUEST_GUIDE_LAYER_SCENE",
        "MLAHIFLGIGJ": ""
      },
      "guideHint": {
        "param1": ""
      },
      "finishParent": true,
      "isRewind": true,
      "versionBegin": "",
      "versionEnd": ""
    }
  ],
  "talks": [
    {
      "id": 7368901,
      "beginWay": "TALK_BEGIN_MANUAL",
      "beginCond": [
        {
          "type": "QUEST_COND_STATE_EQUAL",
          "_param": [
            "7368901",
            "2"
          ]
        }
      ],
      "priority": 5,
      "initDialog": 736890101,
      "npcId": [
        30322
      ],
      "performCfg": "",
      "heroTalk": "TALK_HERO_MAIN",
      "questId": 73689,
      "assetIndex": 12645281575724736823,
      "prePerformCfg": "",
      "freeStyleList": [
        1160,
        1190,
        4040,
        4030,
        1070,
        1050,
        1171,
        1172,
        1173,
        1130,
        1090,
        1110,
        1120,
        1170,
        1180,
        1240
      ]
    }
  ],
  "freeStyleDic": {
    "30322": [
      1160
    ]
  }
}