{
  "id": 73688,
  "damageRatio": "WQ",
  "mainQuestTag": "MAINQUEST_TAG_GUIDE",
  "descTextMapHash": 643567919,
  "EKEKACCODOE": 2493813286,
  "luaPath": "Actor/Quest/WQ73688",
  "rewardIdList": [
    173688
  ],
  "showRedPoint": true,
  "activityId": 5117,
  "subQuests": [
    {
      "subId": 7368801,
      "mainId": 73688,
      "order": 1,
      "descTextMapHash": 1603304156,
      "finishCond": [
        {
          "damageRatio": "QUEST_CONTENT_COMPLETE_TALK",
          "param": [
            7368801,
            0
          ]
        }
      ],
      "guide": {
        "damageRatio": "QUEST_GUIDE_LOCATION",
        "autoGuide": "QUEST_GUIDE_AUTO_ENABLE",
        "param": [
          "Q2012Check02"
        ],
        "guideScene": 3,
        "guideStyle": "QUEST_GUIDE_STYLE_POINT",
        "guideLayer": "QUEST_GUIDE_LAYER_SCENE",
        "MLAHIFLGIGJ": ""
      },
      "guideHint": {
        "param1": ""
      },
      "isRewind": true,
      "versionBegin": "",
      "versionEnd": ""
    },
    {
      "subId": 7368802,
      "mainId": 73688,
      "order": 2,
      "descTextMapHash": 2007638404,
      "stepDescTextMapHash": 3907019837,
      "finishCond": [
        {
          "damageRatio": "QUEST_CONTENT_GAME_TIME_TICK",
          "param": [
            1,
            0
          ]
        }
      ],
      "guide": {
        "guideScene": 3,
        "guideLayer": "QUEST_GUIDE_LAYER_SCENE",
        "MLAHIFLGIGJ": ""
      },
      "showGuide": "QUEST_GUIDE_ITEM_DISABLE",
      "guideHint": {
        "param1": ""
      },
      "isRewind": true,
      "versionBegin": "",
      "versionEnd": ""
    },
    {
      "subId": 7368803,
      "mainId": 73688,
      "order": 3,
      "descTextMapHash": 3462660548,
      "JIFODJPFKDF": [
        1911101
      ],
      "finishCond": [
        {
          "damageRatio": "QUEST_CONTENT_COMPLETE_TALK",
          "param": [
            7368802,
            0
          ]
        }
      ],
      "guide": {
        "damageRatio": "QUEST_GUIDE_LOCATION",
        "autoGuide": "QUEST_GUIDE_AUTO_ENABLE",
        "param": [
          "Q7368803Hongda",
          "13"
        ],
        "guideScene": 3,
        "guideStyle": "QUEST_GUIDE_STYLE_TARGET",
        "guideLayer": "QUEST_GUIDE_LAYER_SCENE",
        "MLAHIFLGIGJ": ""
      },
      "guideHint": {
        "param1": ""
      },
      "isRewind": true,
      "versionBegin": "",
      "versionEnd": ""
    },
    {
      "subId": 7368804,
      "mainId": 73688,
      "order": 5,
      "descTextMapHash": 3121979444,
      "JIFODJPFKDF": [
        1911101
      ],
      "finishCond": [
        {
          "damageRatio": "QUEST_CONTENT_FINISH_PLOT",
          "param": [
            7368804,
            0
          ]
        }
      ],
      "guide": {
        "damageRatio": "QUEST_GUIDE_LOCATION",
        "autoGuide": "QUEST_GUIDE_AUTO_ENABLE",
        "param": [
          "Q4005505_guide_YuanGuoJianSi",
          "15"
        ],
        "guideScene": 3,
        "guideStyle": "QUEST_GUIDE_STYLE_TARGET",
        "guideLayer": "QUEST_GUIDE_LAYER_SCENE",
        "MLAHIFLGIGJ": ""
      },
      "guideHint": {
        "param1": ""
      },
      "isRewind": true,
      "versionBegin": "",
      "versionEnd": ""
    },
    {
      "subId": 7368805,
      "mainId": 73688,
      "order": 8,
      "descTextMapHash": 706919516,
      "finishCond": [
        {
          "damageRatio": "QUEST_CONTENT_LUA_NOTIFY",
          "param": [
            0,
            0
          ],
          "count": 1
        }
      ],
      "failCond": [
        {
          "damageRatio": "QUEST_CONTENT_TEAM_DEAD",
          "param": [
            0,
            0
          ]
        },
        {
          "damageRatio": "QUEST_CONTENT_LEAVE_SCENE",
          "param": [
            47307,
            0
          ]
        },
        {
          "damageRatio": "QUEST_CONTENT_ANY_MANUAL_TRANSPORT",
          "param": [
            0,
            0
          ]
        }
      ],
      "guide": {
        "damageRatio": "QUEST_GUIDE_LOCATION",
        "autoGuide": "QUEST_GUIDE_AUTO_ENABLE",
        "param": [
          "Q7368606StageTalkAyaka"
        ],
        "guideScene": 47307,
        "guideStyle": "QUEST_GUIDE_STYLE_POINT",
        "guideLayer": "QUEST_GUIDE_LAYER_SCENE",
        "MLAHIFLGIGJ": ""
      },
      "guideHint": {
        "param1": ""
      },
      "isRewind": true,
      "finishExec": [
        {
          "damageRatio": "QUEST_EXEC_REMOVE_TRIAL_AVATAR",
          "param": [
            "10008"
          ]
        },
        {
          "damageRatio": "QUEST_EXEC_REMOVE_TRIAL_AVATAR",
          "param": [
            "10010"
          ]
        },
        {
          "damageRatio": "QUEST_EXEC_UNLOCK_AVATAR_TEAM"
        }
      ],
      "failExec": [
        {
          "damageRatio": "QUEST_EXEC_ROLLBACK_QUEST",
          "param": [
            "7368804"
          ]
        },
        {
          "damageRatio": "QUEST_EXEC_REMOVE_TRIAL_AVATAR",
          "param": [
            "10008"
          ]
        },
        {
          "damageRatio": "QUEST_EXEC_REMOVE_TRIAL_AVATAR",
          "param": [
            "10010"
          ]
        },
        {
          "damageRatio": "QUEST_EXEC_UNLOCK_AVATAR_TEAM"
        }
      ],
      "versionBegin": "",
      "versionEnd": ""
    },
    {
      "subId": 7368806,
      "mainId": 73688,
      "order": 10,
      "descTextMapHash": 2325408372,
      "finishCond": [
        {
          "damageRatio": "QUEST_CONTENT_COMPLETE_TALK",
          "param": [
            7368804,
            0
          ]
        }
      ],
      "guide": {
        "damageRatio": "QUEST_GUIDE_LOCATION",
        "autoGuide": "QUEST_GUIDE_AUTO_ENABLE",
        "param": [
          "Q2012Check02"
        ],
        "guideScene": 3,
        "guideStyle": "QUEST_GUIDE_STYLE_POINT",
        "guideLayer": "QUEST_GUIDE_LAYER_SCENE",
        "MLAHIFLGIGJ": ""
      },
      "guideHint": {
        "param1": ""
      },
      "finishParent": true,
      "isRewind": true,
      "versionBegin": "",
      "versionEnd": ""
    },
    {
      "subId": 7368807,
      "mainId": 73688,
      "order": 7,
      "descTextMapHash": 4120133924,
      "finishCond": [
        {
          "damageRatio": "QUEST_CONTENT_COMPLETE_TALK",
          "param": [
            7368811,
            0
          ]
        }
      ],
      "failCond": [
        {
          "damageRatio": "QUEST_CONTENT_LEAVE_SCENE",
          "param": [
            47307,
            0
          ]
        },
        {
          "damageRatio": "QUEST_CONTENT_ANY_MANUAL_TRANSPORT",
          "param": [
            0,
            0
          ]
        }
      ],
      "guide": {
        "damageRatio": "QUEST_GUIDE_LOCATION",
        "autoGuide": "QUEST_GUIDE_AUTO_ENABLE",
        "param": [
          "Q7368606StageTalkAyaka"
        ],
        "guideScene": 47307,
        "guideStyle": "QUEST_GUIDE_STYLE_POINT",
        "guideLayer": "QUEST_GUIDE_LAYER_SCENE",
        "MLAHIFLGIGJ": ""
      },
      "guideHint": {
        "param1": ""
      },
      "isRewind": true,
      "finishExec": [
        {
          "damageRatio": "QUEST_EXEC_REFRESH_GROUP_SUITE",
          "param": [
            "47307",
            "247307002,1"
          ]
        }
      ],
      "failExec": [
        {
          "damageRatio": "QUEST_EXEC_ROLLBACK_QUEST",
          "param": [
            "7368804"
          ]
        }
      ],
      "versionBegin": "",
      "versionEnd": ""
    },
    {
      "subId": 7368808,
      "mainId": 73688,
      "order": 6,
      "descTextMapHash": 4036180228,
      "stepDescTextMapHash": 3884829053,
      "finishCond": [
        {
          "damageRatio": "QUEST_CONTENT_ENTER_DUNGEON",
          "param": [
            8407,
            765
          ]
        }
      ],
      "guide": {
        "damageRatio": "QUEST_GUIDE_LOCATION",
        "autoGuide": "QUEST_GUIDE_AUTO_ENABLE",
        "param": [
          "Q4005505_N3190"
        ],
        "guideScene": 3,
        "guideStyle": "QUEST_GUIDE_STYLE_POINT",
        "guideLayer": "QUEST_GUIDE_LAYER_SCENE",
        "MLAHIFLGIGJ": ""
      },
      "guideHint": {
        "param1": ""
      },
      "isRewind": true,
      "finishExec": [
        {
          "damageRatio": "QUEST_EXEC_REFRESH_GROUP_SUITE",
          "param": [
            "47307",
            "247307002,2"
          ]
        }
      ],
      "versionBegin": "",
      "versionEnd": ""
    },
    {
      "subId": 7368809,
      "mainId": 73688,
      "order": 9,
      "descTextMapHash": 1514122772,
      "finishCond": [
        {
          "damageRatio": "QUEST_CONTENT_LUA_NOTIFY",
          "param": [
            0,
            0
          ],
          "count": 1
        }
      ],
      "failCond": [
        {
          "damageRatio": "QUEST_CONTENT_TEAM_DEAD",
          "param": [
            0,
            0
          ]
        },
        {
          "damageRatio": "QUEST_CONTENT_ANY_MANUAL_TRANSPORT",
          "param": [
            0,
            0
          ]
        },
        {
          "damageRatio": "QUEST_CONTENT_LEAVE_SCENE",
          "param": [
            47307,
            0
          ]
        }
      ],
      "guide": {
        "damageRatio": "QUEST_GUIDE_LOCATION",
        "autoGuide": "QUEST_GUIDE_AUTO_ENABLE",
        "param": [
          "Q7368606StageTalkAyaka"
        ],
        "guideScene": 47307,
        "guideStyle": "QUEST_GUIDE_STYLE_POINT",
        "guideLayer": "QUEST_GUIDE_LAYER_SCENE",
        "MLAHIFLGIGJ": ""
      },
      "guideHint": {
        "param1": ""
      },
      "isRewind": true,
      "finishExec": [
        {
          "damageRatio": "QUEST_EXEC_REMOVE_TRIAL_AVATAR",
          "param": [
            "10009"
          ]
        },
        {
          "damageRatio": "QUEST_EXEC_REMOVE_TRIAL_AVATAR",
          "param": [
            "10010"
          ]
        },
        {
          "damageRatio": "QUEST_EXEC_UNLOCK_AVATAR_TEAM"
        }
      ],
      "failExec": [
        {
          "damageRatio": "QUEST_EXEC_ROLLBACK_QUEST",
          "param": [
            "7368804"
          ]
        },
        {
          "damageRatio": "QUEST_EXEC_REMOVE_TRIAL_AVATAR",
          "param": [
            "10009"
          ]
        },
        {
          "damageRatio": "QUEST_EXEC_REMOVE_TRIAL_AVATAR",
          "param": [
            "10010"
          ]
        },
        {
          "damageRatio": "QUEST_EXEC_UNLOCK_AVATAR_TEAM"
        }
      ],
      "versionBegin": "",
      "versionEnd": ""
    }
  ],
  "talks": [
    {
      "id": 7368801,
      "beginWay": "TALK_BEGIN_MANUAL",
      "beginCond": [
        {
          "type": "QUEST_COND_STATE_EQUAL",
          "_param": [
            "7368801",
            "2"
          ]
        }
      ],
      "priority": 5,
      "initDialog": 736880101,
      "npcId": [
        1013
      ],
      "performCfg": "QuestDialogue/WQ/Pindao_73688/Q7368801",
      "heroTalk": "TALK_HERO_MAIN",
      "questId": 73688,
      "assetIndex": 2460824051484807052,
      "prePerformCfg": ""
    },
    {
      "id": 7368802,
      "beginWay": "TALK_BEGIN_MANUAL",
      "beginCond": [
        {
          "type": "QUEST_COND_STATE_EQUAL",
          "_param": [
            "7368803",
            "2"
          ]
        }
      ],
      "priority": 5,
      "initDialog": 736880201,
      "npcId": [
        3099,
        2604
      ],
      "performCfg": "QuestDialogue/WQ/Pindao_73688/Q7368802",
      "heroTalk": "TALK_HERO_MAIN",
      "questId": 73688,
      "assetIndex": 2433929663222925868,
      "prePerformCfg": "",
      "lockGameTime": true
    },
    {
      "id": 7368803,
      "beginWay": "TALK_BEGIN_MANUAL",
      "beginCondComb": "LOGIC_AND",
      "beginCond": [
        {
          "type": "QUEST_COND_STATE_EQUAL",
          "_param": [
            "7368804",
            "2"
          ]
        },
        {
          "type": "QUEST_COND_QUEST_VAR_EQUAL",
          "_param": [
            "0",
            "0",
            "73688"
          ]
        }
      ],
      "priority": 5,
      "initDialog": 736880301,
      "npcId": [
        2604
      ],
      "performCfg": "QuestDialogue/WQ/Pindao_73688/Q7368803",
      "heroTalk": "TALK_HERO_MAIN",
      "questId": 73688,
      "assetIndex": 16287129428066808736,
      "prePerformCfg": "",
      "finishExec": [
        {
          "damageRatio": "TALK_EXEC_SET_QUEST_VAR",
          "param": [
            "0",
            "1",
            "73688"
          ]
        }
      ]
    },
    {
      "id": 7368804,
      "beginWay": "TALK_BEGIN_MANUAL",
      "beginCond": [
        {
          "type": "QUEST_COND_STATE_EQUAL",
          "_param": [
            "7368806",
            "2"
          ]
        }
      ],
      "priority": 5,
      "initDialog": 736880401,
      "npcId": [
        2604
      ],
      "performCfg": "QuestDialogue/WQ/Pindao_73688/Q7368804",
      "heroTalk": "TALK_HERO_MAIN",
      "questId": 73688,
      "assetIndex": 2330996445137534645,
      "prePerformCfg": "",
      "lockGameTime": true
    },
    {
      "id": 7368805,
      "beginWay": "TALK_BEGIN_MANUAL",
      "beginCondComb": "LOGIC_OR",
      "beginCond": [
        {
          "type": "QUEST_COND_STATE_EQUAL",
          "_param": [
            "7368808",
            "2"
          ]
        },
        {
          "type": "QUEST_COND_STATE_EQUAL",
          "_param": [
            "7368806",
            "2"
          ]
        },
        {
          "type": "QUEST_COND_STATE_EQUAL",
          "_param": [
            "7368804",
            "2"
          ]
        }
      ],
      "priority": 5,
      "initDialog": 736880501,
      "npcId": [
        13073
      ],
      "performCfg": "QuestDialogue/WQ/Pindao_73688/Q7368805",
      "heroTalk": "TALK_HERO_MAIN",
      "questId": 73688,
      "assetIndex": 6334131115027903003,
      "prePerformCfg": ""
    },
    {
      "id": 7368806,
      "beginWay": "TALK_BEGIN_MANUAL",
      "beginCondComb": "LOGIC_OR",
      "beginCond": [
        {
          "type": "QUEST_COND_STATE_EQUAL",
          "_param": [
            "7368804",
            "2"
          ]
        },
        {
          "type": "QUEST_COND_STATE_EQUAL",
          "_param": [
            "7368808",
            "2"
          ]
        }
      ],
      "priority": 5,
      "initDialog": 736880601,
      "npcId": [
        13080
      ],
      "performCfg": "QuestDialogue/WQ/Pindao_73688/Q7368806",
      "heroTalk": "TALK_HERO_MAIN",
      "questId": 73688,
      "assetIndex": 18284803518642358059,
      "prePerformCfg": ""
    },
    {
      "id": 7368807,
      "beginWay": "TALK_BEGIN_MANUAL",
      "beginCondComb": "LOGIC_OR",
      "beginCond": [
        {
          "type": "QUEST_COND_STATE_EQUAL",
          "_param": [
            "7368804",
            "2"
          ]
        },
        {
          "type": "QUEST_COND_STATE_EQUAL",
          "_param": [
            "7368808",
            "2"
          ]
        }
      ],
      "priority": 5,
      "initDialog": 736880701,
      "npcId": [
        13081
      ],
      "performCfg": "QuestDialogue/WQ/Pindao_73688/Q7368807",
      "heroTalk": "TALK_HERO_MAIN",
      "questId": 73688,
      "assetIndex": 334875313578627282,
      "prePerformCfg": ""
    },
    {
      "id": 7368808,
      "beginWay": "TALK_BEGIN_MANUAL",
      "beginCondComb": "LOGIC_OR",
      "beginCond": [
        {
          "type": "QUEST_COND_STATE_EQUAL",
          "_param": [
            "7368808",
            "2"
          ]
        },
        {
          "type": "QUEST_COND_STATE_EQUAL",
          "_param": [
            "7368806",
            "2"
          ]
        },
        {
          "type": "QUEST_COND_STATE_EQUAL",
          "_param": [
            "7368804",
            "2"
          ]
        }
      ],
      "priority": 5,
      "initDialog": 736880801,
      "npcId": [
        13084
      ],
      "performCfg": "QuestDialogue/WQ/Pindao_73688/Q7368808",
      "heroTalk": "TALK_HERO_MAIN",
      "questId": 73688,
      "assetIndex": 3492094525782774474,
      "prePerformCfg": ""
    },
    {
      "id": 7368809,
      "beginWay": "TALK_BEGIN_MANUAL",
      "beginCondComb": "LOGIC_AND",
      "beginCond": [
        {
          "type": "QUEST_COND_STATE_EQUAL",
          "_param": [
            "7368804",
            "2"
          ]
        },
        {
          "type": "QUEST_COND_QUEST_VAR_EQUAL",
          "_param": [
            "0",
            "1",
            "73688"
          ]
        }
      ],
      "priority": 5,
      "initDialog": 736880901,
      "npcId": [
        2604
      ],
      "performCfg": "QuestDialogue/WQ/Pindao_73688/Q7368809",
      "heroTalk": "TALK_HERO_MAIN",
      "questId": 73688,
      "assetIndex": 4800630963807397982,
      "prePerformCfg": ""
    },
    {
      "id": 7368810,
      "beginWay": "TALK_BEGIN_MANUAL",
      "beginCond": [
        {
          "type": "QUEST_COND_STATE_EQUAL",
          "_param": [
            "7368804",
            "2"
          ]
        }
      ],
      "priority": 5,
      "initDialog": 736881001,
      "npcId": [
        3099
      ],
      "performCfg": "QuestDialogue/WQ/Pindao_73688/Q7368810",
      "heroTalk": "TALK_HERO_MAIN",
      "questId": 73688,
      "assetIndex": 15452004402290996357,
      "prePerformCfg": ""
    },
    {
      "id": 7368811,
      "beginWay": "TALK_BEGIN_MANUAL",
      "beginCond": [
        {
          "type": "QUEST_COND_STATE_EQUAL",
          "_param": [
            "7368807",
            "2"
          ]
        }
      ],
      "priority": 5,
      "initDialog": 736881101,
      "npcId": [
        2604
      ],
      "performCfg": "QuestDialogue/WQ/Pindao_73688/Q7368811",
      "heroTalk": "TALK_HERO_MAIN",
      "questId": 73688,
      "assetIndex": 5973828348977810896,
      "prePerformCfg": ""
    }
  ],
  "freeStyleDic": {
    "12112": [
      1230
    ],
    "12116": [
      1190
    ],
    "13185": [
      1130
    ]
  },
  "dialogList": [
    {
      "id": 736880216,
      "talkRole": {
        "type": "TALK_ROLE_NPC",
        "_id": "0"
      },
      "talkContentTextMapHash": 721292322,
      "talkRoleNameTextMapHash": 1553127547,
      "talkAssetPath": "",
      "talkAssetPathAlter": "",
      "talkAudioName": "",
      "actionBefore": "",
      "actionWhile": "",
      "actionAfter": "",
      "optionIcon": "",
      "iconPath": ""
    },
    {
      "id": 736880410,
      "talkRole": {
        "type": "TALK_ROLE_NPC",
        "_id": "1005"
      },
      "talkContentTextMapHash": 3483849378,
      "talkAssetPath": "",
      "talkAssetPathAlter": "",
      "talkAudioName": "",
      "actionBefore": "",
      "actionWhile": "",
      "actionAfter": "",
      "optionIcon": "",
      "iconPath": ""
    },
    {
      "id": 736880901,
      "nextDialogs": [
        736880902,
        736880904
      ],
      "talkRole": {
        "type": "TALK_ROLE_NPC",
        "_id": "2604"
      },
      "talkContentTextMapHash": 3396450914,
      "talkAssetPath": "",
      "talkAssetPathAlter": "",
      "talkAudioName": "",
      "actionBefore": "",
      "actionWhile": "",
      "actionAfter": "",
      "optionIcon": "",
      "iconPath": ""
    },
    {
      "id": 736880903,
      "talkRole": {
        "type": "TALK_ROLE_NPC",
        "_id": "2604"
      },
      "talkContentTextMapHash": 2670625050,
      "talkAssetPath": "",
      "talkAssetPathAlter": "",
      "talkAudioName": "",
      "actionBefore": "",
      "actionWhile": "",
      "actionAfter": "",
      "optionIcon": "",
      "iconPath": ""
    },
    {
      "id": 736880905,
      "talkRole": {
        "type": "TALK_ROLE_NPC",
        "_id": "2604"
      },
      "talkContentTextMapHash": 2002358178,
      "talkAssetPath": "",
      "talkAssetPathAlter": "",
      "talkAudioName": "",
      "actionBefore": "",
      "actionWhile": "",
      "actionAfter": "",
      "optionIcon": "",
      "iconPath": ""
    }
  ]
}