{
  "id": 73695,
  "damageRatio": "WQ",
  "mainQuestTag": "MAINQUEST_TAG_GUIDE",
  "activeMode": "PLAY_MODE_ALL",
  "descTextMapHash": 1449647015,
  "EKEKACCODOE": 1808605214,
  "luaPath": "Actor/Quest/WQ73695",
  "rewardIdList": [
    173695
  ],
  "showRedPoint": true,
  "activityId": 2021,
  "subQuests": [
    {
      "subId": 7369501,
      "mainId": 73695,
      "order": 1,
      "descTextMapHash": 711853148,
      "finishCond": [
        {
          "damageRatio": "QUEST_CONTENT_FINISH_ITEM_GIVING",
          "param": [
            7369503,
            0
          ]
        }
      ],
      "guide": {
        "damageRatio": "QUEST_GUIDE_NPC",
        "param": [
          "30351"
        ],
        "guideScene": 3,
        "guideStyle": "QUEST_GUIDE_STYLE_TARGET",
        "guideLayer": "QUEST_GUIDE_LAYER_SCENE",
        "MLAHIFLGIGJ": ""
      },
      "guideHint": {
        "param1": ""
      },
      "isRewind": true,
      "versionBegin": "",
      "versionEnd": ""
    },
    {
      "subId": 7369502,
      "mainId": 73695,
      "order": 2,
      "descTextMapHash": 4162114364,
      "finishCond": [
        {
          "damageRatio": "QUEST_CONTENT_COMPLETE_TALK",
          "param": [
            7369502,
            0
          ]
        }
      ],
      "guide": {
        "damageRatio": "QUEST_GUIDE_NPC",
        "param": [
          "30351"
        ],
        "guideScene": 3,
        "guideStyle": "QUEST_GUIDE_STYLE_TARGET",
        "guideLayer": "QUEST_GUIDE_LAYER_SCENE",
        "MLAHIFLGIGJ": ""
      },
      "guideHint": {
        "param1": ""
      },
      "finishParent": true,
      "isRewind": true,
      "finishExec": [
        {
          "damageRatio": "QUEST_EXEC_DEL_ALL_SPECIFIC_PACK_ITEM",
          "param": [
            "120298,120299,120300"
          ]
        }
      ],
      "versionBegin": "",
      "versionEnd": ""
    }
  ],
  "talks": [
    {
      "id": 7369502,
      "beginWay": "TALK_BEGIN_MANUAL",
      "activeMode": "PLAY_MODE_HOST",
      "beginCond": [
        {
          "type": "QUEST_COND_STATE_EQUAL",
          "_param": [
            "7369502",
            "2"
          ]
        }
      ],
      "priority": 5,
      "initDialog": 736950201,
      "npcId": [
        30351
      ],
      "performCfg": "QuestDialogue/WQ/Sumeru_73695/Q7369502",
      "heroTalk": "TALK_HERO_MAIN",
      "questId": 73695,
      "assetIndex": 3243217604108202157,
      "prePerformCfg": ""
    },
    {
      "id": 7369503,
      "beginWay": "TALK_BEGIN_MANUAL",
      "activeMode": "PLAY_MODE_HOST",
      "beginCondComb": "LOGIC_AND",
      "beginCond": [
        {
          "type": "QUEST_COND_STATE_EQUAL",
          "_param": [
            "7369501",
            "2"
          ]
        },
        {
          "type": "QUEST_COND_ITEM_GIVING_ACTIVED",
          "_param": [
            "7369503"
          ]
        }
      ],
      "priority": 5,
      "initDialog": 736950201,
      "npcId": [
        30351
      ],
      "performCfg": "QuestDialogue/WQ/Sumeru_73695/Q7369503",
      "heroTalk": "TALK_HERO_MAIN",
      "questId": 73695,
      "assetIndex": 18351585981811151795,
      "prePerformCfg": ""
    }
  ],
  "preloadLuaList": [
    8776530070740543295
  ],
  "forcePreloadLuaList": [
    4916611175973518940
  ]
}