{
  "id": 73692,
  "damageRatio": "WQ",
  "mainQuestTag": "MAINQUEST_TAG_GUIDE",
  "activeMode": "PLAY_MODE_ALL",
  "descTextMapHash": 2079256063,
  "EKEKACCODOE": 2002494558,
  "luaPath": "Actor/Quest/WQ73692",
  "rewardIdList": [
    173692
  ],
  "showRedPoint": true,
  "activityId": 2021,
  "subQuests": [
    {
      "subId": 7369201,
      "mainId": 73692,
      "order": 1,
      "descTextMapHash": 411452020,
      "finishCond": [
        {
          "damageRatio": "QUEST_CONTENT_COMPLETE_TALK",
          "param": [
            7369201,
            0
          ]
        }
      ],
      "guide": {
        "damageRatio": "QUEST_GUIDE_NPC",
        "param": [
          "30350"
        ],
        "guideScene": 3,
        "guideStyle": "QUEST_GUIDE_STYLE_TARGET",
        "guideLayer": "QUEST_GUIDE_LAYER_SCENE",
        "MLAHIFLGIGJ": ""
      },
      "guideHint": {
        "param1": ""
      },
      "finishParent": true,
      "isRewind": true,
      "versionBegin": "",
      "versionEnd": ""
    }
  ],
  "talks": [
    {
      "id": 7369201,
      "beginWay": "TALK_BEGIN_MANUAL",
      "activeMode": "PLAY_MODE_HOST",
      "beginCond": [
        {
          "type": "QUEST_COND_STATE_EQUAL",
          "_param": [
            "7369201",
            "2"
          ]
        }
      ],
      "priority": 5,
      "initDialog": 736920101,
      "npcId": [
        30350
      ],
      "performCfg": "QuestDialogue/WQ/Sumeru_73692/Q7369201",
      "heroTalk": "TALK_HERO_MAIN",
      "questId": 73692,
      "assetIndex": 16495965125278340722,
      "prePerformCfg": ""
    }
  ]
}