{
  "id": 73912,
  "damageRatio": "WQ",
  "descTextMapHash": 2326386095,
  "EKEKACCODOE": 847368230,
  "luaPath": "",
  "rewardIdList": [
    554036
  ],
  "showType": "QUEST_HIDDEN",
  "subQuests": [
    {
      "subId": 7391201,
      "mainId": 73912,
      "order": 1,
      "showType": "QUEST_HIDDEN",
      "finishCond": [
        {
          "damageRatio": "QUEST_CONTENT_COMPLETE_TALK",
          "param": [
            7391201,
            0
          ]
        }
      ],
      "guide": {
        "MLAHIFLGIGJ": ""
      },
      "guideHint": {
        "param1": ""
      },
      "finishParent": true,
      "versionBegin": "",
      "versionEnd": ""
    }
  ]
}