{
  "id": 73920,
  "damageRatio": "WQ",
  "descTextMapHash": 2600205599,
  "EKEKACCODOE": 474867982,
  "luaPath": "",
  "rewardIdList": [
    554002
  ],
  "showType": "QUEST_HIDDEN",
  "subQuests": [
    {
      "subId": 7392001,
      "mainId": 73920,
      "order": 1,
      "showType": "QUEST_HIDDEN",
      "finishCond": [
        {
          "damageRatio": "QUEST_CONTENT_COMPLETE_TALK",
          "param": [
            7392001,
            0
          ]
        }
      ],
      "guide": {
        "MLAHIFLGIGJ": ""
      },
      "guideHint": {
        "param1": ""
      },
      "finishParent": true,
      "versionBegin": "",
      "versionEnd": ""
    }
  ]
}