{
  "id": 73927,
  "damageRatio": "WQ",
  "descTextMapHash": 1263629703,
  "EKEKACCODOE": 2575956566,
  "luaPath": "",
  "rewardIdList": [
    554009
  ],
  "showType": "QUEST_HIDDEN",
  "subQuests": [
    {
      "subId": 7392701,
      "mainId": 73927,
      "order": 1,
      "showType": "QUEST_HIDDEN",
      "finishCond": [
        {
          "damageRatio": "QUEST_CONTENT_COMPLETE_TALK",
          "param": [
            7392701,
            0
          ]
        }
      ],
      "guide": {
        "MLAHIFLGIGJ": ""
      },
      "guideHint": {
        "param1": ""
      },
      "finishParent": true,
      "versionBegin": "",
      "versionEnd": ""
    }
  ]
}