{
  "id": 73936,
  "damageRatio": "WQ",
  "descTextMapHash": 1037606439,
  "EKEKACCODOE": 4052197686,
  "luaPath": "",
  "rewardIdList": [
    554018
  ],
  "showType": "QUEST_HIDDEN",
  "subQuests": [
    {
      "subId": 7393601,
      "mainId": 73936,
      "order": 1,
      "showType": "QUEST_HIDDEN",
      "finishCond": [
        {
          "damageRatio": "QUEST_CONTENT_COMPLETE_TALK",
          "param": [
            7393601,
            0
          ]
        }
      ],
      "guide": {
        "MLAHIFLGIGJ": ""
      },
      "guideHint": {
        "param1": ""
      },
      "finishParent": true,
      "versionBegin": "",
      "versionEnd": ""
    }
  ]
}