{
  "id": 73930,
  "damageRatio": "WQ",
  "descTextMapHash": 3992326119,
  "EKEKACCODOE": 2547348038,
  "luaPath": "",
  "rewardIdList": [
    554012
  ],
  "showType": "QUEST_HIDDEN",
  "subQuests": [
    {
      "subId": 7393001,
      "mainId": 73930,
      "order": 1,
      "showType": "QUEST_HIDDEN",
      "finishCond": [
        {
          "damageRatio": "QUEST_CONTENT_COMPLETE_TALK",
          "param": [
            7393001,
            0
          ]
        }
      ],
      "guide": {
        "MLAHIFLGIGJ": ""
      },
      "guideHint": {
        "param1": ""
      },
      "finishParent": true,
      "versionBegin": "",
      "versionEnd": ""
    }
  ]
}