{
  "id": 73959,
  "damageRatio": "WQ",
  "descTextMapHash": 3879020847,
  "EKEKACCODOE": 3145449382,
  "luaPath": "",
  "rewardIdList": [
    554060
  ],
  "showType": "QUEST_HIDDEN",
  "subQuests": [
    {
      "subId": 7395901,
      "mainId": 73959,
      "order": 1,
      "showType": "QUEST_HIDDEN",
      "finishCond": [
        {
          "damageRatio": "QUEST_CONTENT_COMPLETE_TALK",
          "param": [
            7395901,
            0
          ]
        }
      ],
      "guide": {
        "MLAHIFLGIGJ": ""
      },
      "guideHint": {
        "param1": ""
      },
      "finishParent": true,
      "versionBegin": "",
      "versionEnd": ""
    }
  ]
}