{
  "id": 73957,
  "damageRatio": "WQ",
  "descTextMapHash": 3721726199,
  "EKEKACCODOE": 4049498886,
  "luaPath": "",
  "rewardIdList": [
    554058
  ],
  "showType": "QUEST_HIDDEN",
  "subQuests": [
    {
      "subId": 7395701,
      "mainId": 73957,
      "order": 1,
      "showType": "QUEST_HIDDEN",
      "finishCond": [
        {
          "damageRatio": "QUEST_CONTENT_COMPLETE_TALK",
          "param": [
            7395701,
            0
          ]
        }
      ],
      "guide": {
        "MLAHIFLGIGJ": ""
      },
      "guideHint": {
        "param1": ""
      },
      "finishParent": true,
      "versionBegin": "",
      "versionEnd": ""
    }
  ]
}