{
  "id": 73967,
  "damageRatio": "WQ",
  "descTextMapHash": 3338180831,
  "EKEKACCODOE": 1795688838,
  "luaPath": "",
  "rewardIdList": [
    554074
  ],
  "showType": "QUEST_HIDDEN",
  "subQuests": [
    {
      "subId": 7396701,
      "mainId": 73967,
      "order": 1,
      "showType": "QUEST_HIDDEN",
      "finishCond": [
        {
          "damageRatio": "QUEST_CONTENT_COMPLETE_TALK",
          "param": [
            7396701,
            0
          ]
        }
      ],
      "guide": {
        "MLAHIFLGIGJ": ""
      },
      "guideHint": {
        "param1": ""
      },
      "finishParent": true,
      "versionBegin": "",
      "versionEnd": ""
    }
  ]
}