{
  "id": 74009,
  "damageRatio": "WQ",
  "activeMode": "PLAY_MODE_ALL",
  "descTextMapHash": 1067173783,
  "EKEKACCODOE": 1065902614,
  "luaPath": "Actor/Quest/WQ74009",
  "rewardIdList": [
    174009
  ],
  "subQuests": [
    {
      "subId": 7400901,
      "mainId": 74009,
      "order": 99,
      "descTextMapHash": 670288684,
      "showType": "QUEST_HIDDEN",
      "finishCond": [
        {
          "damageRatio": "QUEST_CONTENT_COMPLETE_TALK",
          "param": [
            7400901,
            0
          ]
        }
      ],
      "guide": {
        "MLAHIFLGIGJ": ""
      },
      "guideHint": {
        "param1": ""
      },
      "isRewind": true,
      "versionBegin": "",
      "versionEnd": ""
    },
    {
      "subId": 7400902,
      "mainId": 74009,
      "order": 2,
      "descTextMapHash": 1664424932,
      "showType": "QUEST_HIDDEN",
      "finishCond": [
        {
          "damageRatio": "QUEST_CONTENT_COMPLETE_TALK",
          "param": [
            7400901,
            0
          ]
        }
      ],
      "guide": {
        "MLAHIFLGIGJ": ""
      },
      "guideHint": {
        "param1": ""
      },
      "isRewind": true,
      "finishExec": [
        {
          "damageRatio": "QUEST_EXEC_SET_QUEST_GLOBAL_VAR",
          "param": [
            "7400901",
            "1"
          ]
        }
      ],
      "versionBegin": "",
      "versionEnd": ""
    },
    {
      "subId": 7400903,
      "mainId": 74009,
      "order": 3,
      "descTextMapHash": 3697992036,
      "finishCond": [
        {
          "damageRatio": "QUEST_CONTENT_FINISH_PLOT",
          "param": [
            7400903,
            0
          ]
        }
      ],
      "guide": {
        "damageRatio": "QUEST_GUIDE_LOCATION",
        "autoGuide": "QUEST_GUIDE_AUTO_ENABLE",
        "param": [
          "[3_4323:2500.525,248.790,4586.611]",
          "30"
        ],
        "guideScene": 3,
        "guideStyle": "QUEST_GUIDE_STYLE_TARGET",
        "guideLayer": "QUEST_GUIDE_LAYER_SCENE",
        "poiRegionId": 202,
        "poiPointId": 2020007,
        "MLAHIFLGIGJ": ""
      },
      "guideHint": {
        "param1": ""
      },
      "isRewind": true,
      "finishExec": [
        {
          "damageRatio": "QUEST_EXEC_REFRESH_GROUP_SUITE",
          "param": [
            "3",
            "133403027,3"
          ]
        }
      ],
      "versionBegin": "",
      "versionEnd": ""
    },
    {
      "subId": 7400904,
      "mainId": 74009,
      "order": 5,
      "descTextMapHash": 982432532,
      "finishCond": [
        {
          "damageRatio": "QUEST_CONTENT_GADGET_STATE_CHANGE",
          "param": [
            133403027,
            27009
          ]
        }
      ],
      "guide": {
        "damageRatio": "QUEST_GUIDE_LOCATION",
        "autoGuide": "QUEST_GUIDE_AUTO_ENABLE",
        "param": [
          "[3_4316:2499.087,251.668,4605.765,0.000,331.293,0.000]",
          "20"
        ],
        "guideScene": 3,
        "guideStyle": "QUEST_GUIDE_STYLE_TARGET",
        "guideLayer": "QUEST_GUIDE_LAYER_SCENE",
        "poiRegionId": 202,
        "poiPointId": 2020009,
        "MLAHIFLGIGJ": ""
      },
      "guideHint": {
        "param1": ""
      },
      "isRewind": true,
      "finishExec": [
        {
          "damageRatio": "QUEST_EXEC_REFRESH_GROUP_SUITE",
          "param": [
            "3",
            "133403024,1"
          ]
        }
      ],
      "versionBegin": "",
      "versionEnd": ""
    },
    {
      "subId": 7400905,
      "mainId": 74009,
      "order": 6,
      "descTextMapHash": 927514060,
      "finishCond": [
        {
          "damageRatio": "QUEST_CONTENT_COMPLETE_TALK",
          "param": [
            7400903,
            0
          ]
        }
      ],
      "guide": {
        "damageRatio": "QUEST_GUIDE_LOCATION",
        "autoGuide": "QUEST_GUIDE_AUTO_ENABLE",
        "param": [
          "[3_4316:2499.087,251.668,4605.765,0.000,331.293,0.000]"
        ],
        "guideScene": 3,
        "guideStyle": "QUEST_GUIDE_STYLE_POINT",
        "guideLayer": "QUEST_GUIDE_LAYER_SCENE",
        "poiRegionId": 202,
        "poiPointId": 2020009,
        "MLAHIFLGIGJ": ""
      },
      "guideHint": {
        "param1": ""
      },
      "finishParent": true,
      "isRewind": true,
      "versionBegin": "",
      "versionEnd": ""
    },
    {
      "subId": 7400906,
      "mainId": 74009,
      "order": 4,
      "descTextMapHash": 258156868,
      "finishCond": [
        {
          "damageRatio": "QUEST_CONTENT_COMPLETE_TALK",
          "param": [
            7400902,
            0
          ]
        }
      ],
      "guide": {
        "damageRatio": "QUEST_GUIDE_LOCATION",
        "autoGuide": "QUEST_GUIDE_AUTO_ENABLE",
        "param": [
          "[3_4461:2495.272,249.220,4584.552,0.000,170.374,0.000]"
        ],
        "guideScene": 3,
        "guideStyle": "QUEST_GUIDE_STYLE_POINT",
        "guideLayer": "QUEST_GUIDE_LAYER_SCENE",
        "poiRegionId": 202,
        "poiPointId": 2020008,
        "MLAHIFLGIGJ": ""
      },
      "guideHint": {
        "param1": ""
      },
      "isRewind": true,
      "finishExec": [
        {
          "damageRatio": "QUEST_EXEC_REFRESH_GROUP_SUITE",
          "param": [
            "3",
            "133403024,2"
          ]
        },
        {
          "damageRatio": "QUEST_EXEC_REFRESH_GROUP_SUITE",
          "param": [
            "3",
            "133403027,2"
          ]
        }
      ],
      "versionBegin": "",
      "versionEnd": ""
    }
  ],
  "talks": [
    {
      "id": 7400901,
      "beginWay": "TALK_BEGIN_MANUAL",
      "activeMode": "PLAY_MODE_HOST",
      "beginCond": [
        {
          "type": "QUEST_COND_STATE_EQUAL",
          "_param": [
            "7400902",
            "2"
          ]
        }
      ],
      "priority": 5,
      "initDialog": 740090101,
      "npcId": [
        5132
      ],
      "performCfg": "QuestDialogue/WQ/Fontaine_74009/Q7400901",
      "questId": 74009,
      "assetIndex": 9199042589159505852,
      "prePerformCfg": "",
      "talkMarkType": "TALK_MARK_COMMON",
      "CHAKPMBJNAJ": [
        "[3_4314:3586.289,506.535,4623.400,0.000,77.443,0.000]",
        "[3_4315:3586.379,506.535,4624.633,0.000,102.848,0.000]",
        "[3_4321:3587.523,506.535,4624.111,0.000,263.087,0.000]"
      ]
    },
    {
      "id": 7400902,
      "beginWay": "TALK_BEGIN_MANUAL",
      "activeMode": "PLAY_MODE_HOST",
      "beginCond": [
        {
          "type": "QUEST_COND_STATE_EQUAL",
          "_param": [
            "7400906",
            "2"
          ]
        }
      ],
      "priority": 5,
      "initDialog": 740090201,
      "npcId": [
        5131,
        5132
      ],
      "performCfg": "QuestDialogue/WQ/Fontaine_74009/Q7400902",
      "questId": 74009,
      "assetIndex": 15280348788482501142,
      "prePerformCfg": "",
      "CHAKPMBJNAJ": [
        "[3_4461:2495.272,249.220,4584.552,0.000,170.374,0.000]",
        "[3_4462:2496.465,248.790,4585.028,0.000,171.709,0.000]",
        "[3_4463:2495.989,248.944,4583.570]",
        "[3_5655:2501.595,251.813,4603.373,0.000,181.732,0.000]",
        "[3_5656:2500.202,251.813,4602.449,0.000,118.735,0.000]",
        "[3_5657:2500.186,251.821,4601.078,0.000,83.780,0.000]"
      ]
    },
    {
      "id": 7400903,
      "beginWay": "TALK_BEGIN_MANUAL",
      "activeMode": "PLAY_MODE_HOST",
      "beginCond": [
        {
          "type": "QUEST_COND_STATE_EQUAL",
          "_param": [
            "7400905",
            "2"
          ]
        }
      ],
      "priority": 5,
      "initDialog": 740090301,
      "npcId": [
        21027
      ],
      "performCfg": "QuestDialogue/WQ/Fontaine_74009/Q7400903",
      "questId": 74009,
      "assetIndex": 4278973161396736647,
      "prePerformCfg": "",
      "CHAKPMBJNAJ": [
        "[3_4316:2499.087,251.668,4605.765,0.000,331.293,0.000]",
        "[3_4318:2498.404,251.731,4608.161,0.000,168.784,0.000]",
        "[3_4319:2496.577,251.703,4607.552,0.000,123.938,0.000]",
        "[3_4322:2496.819,251.681,4605.467,0.000,59.864,0.000]"
      ]
    },
    {
      "id": 7400904,
      "beginWay": "TALK_BEGIN_MANUAL",
      "activeMode": "PLAY_MODE_HOST",
      "beginCond": [
        {
          "type": "QUEST_COND_STATE_EQUAL",
          "_param": [
            "7400905",
            "3"
          ]
        }
      ],
      "priority": 5,
      "initDialog": 740090401,
      "npcId": [
        21247,
        21248
      ],
      "performCfg": "",
      "questId": 74009,
      "assetIndex": 309992047611612235,
      "prePerformCfg": "",
      "questIdleTalk": true
    }
  ],
  "preloadLuaList": [
    7207705006790550378
  ],
  "forcePreloadLuaList": [
    4545659578161066196
  ],
  "freeStyleDic": {
    "21247": [
      1230
    ],
    "21248": [
      1120
    ]
  }
}