{
  "id": 74012,
  "damageRatio": "WQ",
  "activeMode": "PLAY_MODE_ALL",
  "descTextMapHash": 408006351,
  "EKEKACCODOE": 57184574,
  "luaPath": "Actor/Quest/WQ74012",
  "rewardIdList": [
    174012
  ],
  "subQuests": [
    {
      "subId": 7401201,
      "mainId": 74012,
      "order": 1,
      "descTextMapHash": 1069411100,
      "showType": "QUEST_HIDDEN",
      "finishCond": [
        {
          "damageRatio": "QUEST_CONTENT_LUA_NOTIFY",
          "param": [
            0,
            0
          ],
          "count": 1
        }
      ],
      "guide": {
        "guideScene": 3,
        "guideStyle": "QUEST_GUIDE_STYLE_TARGET",
        "guideLayer": "QUEST_GUIDE_LAYER_SCENE",
        "MLAHIFLGIGJ": ""
      },
      "showGuide": "QUEST_GUIDE_ITEM_DISABLE",
      "guideHint": {
        "param1": ""
      },
      "isRewind": true,
      "finishExec": [
        {
          "damageRatio": "QUEST_EXEC_REFRESH_GROUP_SUITE",
          "param": [
            "3",
            "133408089,3"
          ]
        },
        {
          "damageRatio": "QUEST_EXEC_REFRESH_GROUP_SUITE",
          "param": [
            "3",
            "133408757,3"
          ]
        }
      ],
      "versionBegin": "",
      "versionEnd": ""
    },
    {
      "subId": 7401202,
      "mainId": 74012,
      "order": 2,
      "descTextMapHash": 447459756,
      "showType": "QUEST_HIDDEN",
      "guide": {
        "guideScene": 3,
        "guideStyle": "QUEST_GUIDE_STYLE_TARGET",
        "guideLayer": "QUEST_GUIDE_LAYER_SCENE",
        "MLAHIFLGIGJ": ""
      },
      "showGuide": "QUEST_GUIDE_ITEM_DISABLE",
      "guideHint": {
        "param1": ""
      },
      "versionBegin": "",
      "versionEnd": ""
    },
    {
      "subId": 7401203,
      "mainId": 74012,
      "order": 3,
      "descTextMapHash": 3045412596,
      "finishCond": [
        {
          "damageRatio": "QUEST_CONTENT_COMPLETE_TALK",
          "param": [
            7401203,
            0
          ]
        }
      ],
      "guide": {
        "damageRatio": "QUEST_GUIDE_LOCATION",
        "param": [
          "[3_4734:4649.124,538.601,5133.554]",
          "50"
        ],
        "guideScene": 3,
        "guideStyle": "QUEST_GUIDE_STYLE_TARGET",
        "guideLayer": "QUEST_GUIDE_LAYER_SCENE",
        "MLAHIFLGIGJ": ""
      },
      "guideHint": {
        "param1": ""
      },
      "isRewind": true,
      "finishExec": [
        {
          "damageRatio": "QUEST_EXEC_SET_QUEST_GLOBAL_VAR",
          "param": [
            "7401201",
            "1"
          ]
        }
      ],
      "versionBegin": "",
      "versionEnd": ""
    },
    {
      "subId": 7401204,
      "mainId": 74012,
      "order": 4,
      "descTextMapHash": 2342899724,
      "showType": "QUEST_HIDDEN",
      "guide": {
        "damageRatio": "QUEST_GUIDE_LOCATION",
        "MLAHIFLGIGJ": ""
      },
      "guideHint": {
        "param1": ""
      },
      "versionBegin": "",
      "versionEnd": ""
    },
    {
      "subId": 7401205,
      "mainId": 74012,
      "order": 5,
      "descTextMapHash": 3044143164,
      "finishCond": [
        {
          "damageRatio": "QUEST_CONTENT_COMPLETE_TALK",
          "param": [
            7401205,
            0
          ]
        }
      ],
      "guide": {
        "damageRatio": "QUEST_GUIDE_LOCATION",
        "param": [
          "[3_4736:4574.408,511.392,5146.356]",
          "120"
        ],
        "guideScene": 3,
        "guideStyle": "QUEST_GUIDE_STYLE_TARGET",
        "guideLayer": "QUEST_GUIDE_LAYER_SCENE",
        "MLAHIFLGIGJ": ""
      },
      "guideHint": {
        "param1": ""
      },
      "isRewind": true,
      "versionBegin": "",
      "versionEnd": ""
    },
    {
      "subId": 7401206,
      "mainId": 74012,
      "order": 6,
      "descTextMapHash": 1724269476,
      "finishCond": [
        {
          "damageRatio": "QUEST_CONTENT_LUA_NOTIFY",
          "param": [
            0,
            0
          ],
          "count": 1
        }
      ],
      "guide": {
        "damageRatio": "QUEST_GUIDE_GADGET",
        "param": [
          "133408118",
          "118001",
          "4604.778:521.7413:5158.9"
        ],
        "guideScene": 3,
        "guideStyle": "QUEST_GUIDE_STYLE_TARGET",
        "guideLayer": "QUEST_GUIDE_LAYER_SCENE",
        "MLAHIFLGIGJ": ""
      },
      "guideHint": {
        "param1": ""
      },
      "isRewind": true,
      "finishExec": [
        {
          "damageRatio": "QUEST_EXEC_REFRESH_GROUP_SUITE",
          "param": [
            "3",
            "133408118,3"
          ]
        }
      ],
      "versionBegin": "",
      "versionEnd": ""
    },
    {
      "subId": 7401207,
      "mainId": 74012,
      "order": 7,
      "descTextMapHash": 1577274300,
      "finishCond": [
        {
          "damageRatio": "QUEST_CONTENT_LUA_NOTIFY",
          "param": [
            0,
            0
          ],
          "count": 1
        }
      ],
      "guide": {
        "damageRatio": "QUEST_GUIDE_LOCATION",
        "param": [
          "[3_6387:4613.472,518.900,5143.380]",
          "35"
        ],
        "guideScene": 3,
        "guideStyle": "QUEST_GUIDE_STYLE_TARGET",
        "guideLayer": "QUEST_GUIDE_LAYER_SCENE",
        "MLAHIFLGIGJ": ""
      },
      "guideHint": {
        "param1": ""
      },
      "isRewind": true,
      "finishExec": [
        {
          "damageRatio": "QUEST_EXEC_UNREGISTER_DYNAMIC_GROUP",
          "param": [
            "133408119",
            "1"
          ]
        }
      ],
      "versionBegin": "",
      "versionEnd": ""
    },
    {
      "subId": 7401208,
      "mainId": 74012,
      "order": 8,
      "descTextMapHash": 525995860,
      "finishCond": [
        {
          "damageRatio": "QUEST_CONTENT_LUA_NOTIFY",
          "param": [
            0,
            0
          ],
          "count": 1
        }
      ],
      "guide": {
        "damageRatio": "QUEST_GUIDE_LOCATION",
        "param": [
          "[3_4759:4649.118,562.044,5133.530]",
          "50"
        ],
        "guideScene": 3,
        "guideStyle": "QUEST_GUIDE_STYLE_TARGET",
        "guideLayer": "QUEST_GUIDE_LAYER_SCENE",
        "MLAHIFLGIGJ": ""
      },
      "guideHint": {
        "param1": ""
      },
      "isRewind": true,
      "finishExec": [
        {
          "damageRatio": "QUEST_EXEC_REFRESH_GROUP_SUITE",
          "param": [
            "3",
            "133408025,3"
          ]
        }
      ],
      "versionBegin": "",
      "versionEnd": ""
    },
    {
      "subId": 7401209,
      "mainId": 74012,
      "order": 9,
      "descTextMapHash": 3244174276,
      "finishCond": [
        {
          "damageRatio": "QUEST_CONTENT_COMPLETE_TALK",
          "param": [
            7401210,
            0
          ]
        },
        {
          "damageRatio": "QUEST_CONTENT_COMPLETE_TALK",
          "param": [
            7401212,
            0
          ]
        },
        {
          "damageRatio": "QUEST_CONTENT_COMPLETE_TALK",
          "param": [
            7401213,
            0
          ]
        },
        {
          "damageRatio": "QUEST_CONTENT_COMPLETE_TALK",
          "param": [
            7401214,
            0
          ]
        }
      ],
      "guide": {
        "damageRatio": "QUEST_GUIDE_GADGET",
        "param": [
          "133408010",
          "10012",
          "4648.552:562.0443:5136.057"
        ],
        "guideScene": 3,
        "guideStyle": "QUEST_GUIDE_STYLE_TARGET",
        "guideLayer": "QUEST_GUIDE_LAYER_SCENE",
        "MLAHIFLGIGJ": ""
      },
      "guideHint": {
        "param1": ""
      },
      "finishParent": true,
      "isRewind": true,
      "finishExec": [
        {
          "damageRatio": "QUEST_EXEC_NOTIFY_GROUP_LUA",
          "param": [
            "3",
            "133408736"
          ]
        },
        {
          "damageRatio": "QUEST_EXEC_SET_QUEST_GLOBAL_VAR",
          "param": [
            "7401202",
            "1"
          ]
        },
        {
          "damageRatio": "QUEST_EXEC_REFRESH_GROUP_SUITE",
          "param": [
            "3",
            "133408092,3"
          ]
        },
        {
          "damageRatio": "QUEST_EXEC_REFRESH_GROUP_SUITE",
          "param": [
            "3",
            "133408117,3"
          ]
        },
        {
          "damageRatio": "QUEST_EXEC_NOTIFY_GROUP_LUA",
          "param": [
            "3",
            "133408565"
          ]
        }
      ],
      "versionBegin": "",
      "versionEnd": ""
    }
  ],
  "talks": [
    {
      "id": 7401203,
      "beginWay": "TALK_BEGIN_MANUAL",
      "activeMode": "PLAY_MODE_HOST",
      "priority": 5,
      "npcId": [
        21085
      ],
      "performCfg": "QuestDialogue/WQ/Fontaine_74012/Q7401203",
      "questId": 74012,
      "assetIndex": 12044430899695630847,
      "prePerformCfg": "",
      "CHAKPMBJNAJ": [
        "[3_4721:4648.089,539.699,5127.219]"
      ]
    },
    {
      "id": 7401204,
      "beginWay": "TALK_BEGIN_MANUAL",
      "activeMode": "PLAY_MODE_HOST",
      "beginCondComb": "LOGIC_AND",
      "beginCond": [
        {
          "type": "QUEST_COND_QUEST_VAR_EQUAL",
          "_param": [
            "0",
            "1",
            "74012"
          ]
        },
        {
          "type": "QUEST_COND_STATE_EQUAL",
          "_param": [
            "7401203",
            "3"
          ]
        }
      ],
      "priority": 5,
      "npcId": [
        21087
      ],
      "performCfg": "QuestDialogue/WQ/Fontaine_74012/Q7401204",
      "questId": 74012,
      "assetIndex": 8589640714071608842,
      "prePerformCfg": ""
    },
    {
      "id": 7401205,
      "beginWay": "TALK_BEGIN_MANUAL",
      "activeMode": "PLAY_MODE_HOST",
      "beginCondComb": "LOGIC_AND",
      "beginCond": [
        {
          "type": "QUEST_COND_QUEST_VAR_EQUAL",
          "_param": [
            "0",
            "0",
            "74012"
          ]
        },
        {
          "type": "QUEST_COND_STATE_EQUAL",
          "_param": [
            "7401203",
            "3"
          ]
        }
      ],
      "priority": 7,
      "npcId": [
        21087
      ],
      "performCfg": "QuestDialogue/WQ/Fontaine_74012/Q7401205",
      "questId": 74012,
      "assetIndex": 8936140627345102026,
      "prePerformCfg": "",
      "finishExec": [
        {
          "damageRatio": "TALK_EXEC_SET_QUEST_VAR",
          "param": [
            "0",
            "1",
            "74012"
          ]
        }
      ],
      "CHAKPMBJNAJ": [
        "[3_4733:4553.917,485.976,5064.057,0.000,276.998,0.000]",
        "[3_6540:4552.856,484.821,5063.579,0.000,69.628,0.000]",
        "[3_6541:4552.875,485.016,5064.325,0.000,120.696,0.000]"
      ]
    },
    {
      "id": 7401209,
      "beginWay": "TALK_BEGIN_MANUAL",
      "activeMode": "PLAY_MODE_HOST",
      "beginCondComb": "LOGIC_AND",
      "beginCond": [
        {
          "type": "QUEST_COND_STATE_EQUAL",
          "_param": [
            "7401209",
            "2"
          ]
        },
        {
          "type": "QUEST_COND_QUEST_GLOBAL_VAR_EQUAL",
          "_param": [
            "7405402",
            "0"
          ]
        },
        {
          "type": "QUEST_COND_QUEST_GLOBAL_VAR_EQUAL",
          "_param": [
            "7401401",
            "0"
          ]
        }
      ],
      "priority": 10,
      "nextTalks": [
        7401210,
        7401211
      ],
      "initDialog": 740120901,
      "npcId": [
        21226
      ],
      "performCfg": "QuestDialogue/WQ/Fontaine_74012/Q7401209",
      "heroTalk": "TALK_HERO_MAIN",
      "questId": 74012,
      "assetIndex": 13431496888070849353,
      "prePerformCfg": "",
      "CHAKPMBJNAJ": [
        "[3_6284:4648.784,562.154,5135.393]",
        "[3_6287:4648.667,562.335,5137.055,0.000,173.542,0.000]",
        "[3_6665:4648.055,562.080,5135.523,0.000,17.051,0.000]"
      ]
    },
    {
      "id": 7401210,
      "activeMode": "PLAY_MODE_HOST",
      "beginCondComb": "LOGIC_AND",
      "beginCond": [
        {
          "type": "QUEST_COND_STATE_EQUAL",
          "_param": [
            "7401209",
            "2"
          ]
        },
        {
          "type": "QUEST_COND_QUEST_GLOBAL_VAR_EQUAL",
          "_param": [
            "7405402",
            "0"
          ]
        },
        {
          "type": "QUEST_COND_QUEST_GLOBAL_VAR_EQUAL",
          "_param": [
            "7401401",
            "0"
          ]
        }
      ],
      "priority": 5,
      "initDialog": 740121001,
      "npcId": [
        21226
      ],
      "performCfg": "QuestDialogue/WQ/Fontaine_74012/Q7401210",
      "heroTalk": "TALK_HERO_MAIN",
      "questId": 74012,
      "assetIndex": 16133101275716728569,
      "prePerformCfg": ""
    },
    {
      "id": 7401211,
      "activeMode": "PLAY_MODE_HOST",
      "beginCondComb": "LOGIC_AND",
      "beginCond": [
        {
          "type": "QUEST_COND_STATE_EQUAL",
          "_param": [
            "7401209",
            "2"
          ]
        },
        {
          "type": "QUEST_COND_QUEST_GLOBAL_VAR_EQUAL",
          "_param": [
            "7405402",
            "0"
          ]
        },
        {
          "type": "QUEST_COND_QUEST_GLOBAL_VAR_EQUAL",
          "_param": [
            "7401401",
            "0"
          ]
        }
      ],
      "priority": 5,
      "initDialog": 740121101,
      "npcId": [
        21226
      ],
      "performCfg": "QuestDialogue/WQ/Fontaine_74012/Q7401211",
      "heroTalk": "TALK_HERO_MAIN",
      "questId": 74012,
      "assetIndex": 5664184671685504513,
      "prePerformCfg": ""
    },
    {
      "id": 7401212,
      "beginWay": "TALK_BEGIN_MANUAL",
      "activeMode": "PLAY_MODE_HOST",
      "beginCondComb": "LOGIC_AND",
      "beginCond": [
        {
          "type": "QUEST_COND_STATE_EQUAL",
          "_param": [
            "7401209",
            "2"
          ]
        },
        {
          "type": "QUEST_COND_QUEST_GLOBAL_VAR_EQUAL",
          "_param": [
            "7405402",
            "1"
          ]
        },
        {
          "type": "QUEST_COND_QUEST_GLOBAL_VAR_EQUAL",
          "_param": [
            "7401401",
            "0"
          ]
        }
      ],
      "priority": 5,
      "initDialog": 740121201,
      "npcId": [
        21226
      ],
      "performCfg": "QuestDialogue/WQ/Fontaine_74012/Q7401212",
      "heroTalk": "TALK_HERO_MAIN",
      "questId": 74012,
      "assetIndex": 11630458715743370057,
      "prePerformCfg": "",
      "CHAKPMBJNAJ": [
        "[3_6284:4648.784,562.154,5135.393]",
        "[3_6287:4648.667,562.335,5137.055,0.000,173.542,0.000]",
        "[3_6665:4648.055,562.080,5135.523,0.000,17.051,0.000]"
      ]
    },
    {
      "id": 7401213,
      "beginWay": "TALK_BEGIN_MANUAL",
      "activeMode": "PLAY_MODE_HOST",
      "beginCondComb": "LOGIC_AND",
      "beginCond": [
        {
          "type": "QUEST_COND_STATE_EQUAL",
          "_param": [
            "7401209",
            "2"
          ]
        },
        {
          "type": "QUEST_COND_QUEST_GLOBAL_VAR_EQUAL",
          "_param": [
            "7405402",
            "0"
          ]
        },
        {
          "type": "QUEST_COND_QUEST_GLOBAL_VAR_EQUAL",
          "_param": [
            "7401401",
            "1"
          ]
        }
      ],
      "priority": 5,
      "initDialog": 740121301,
      "npcId": [
        21226
      ],
      "performCfg": "QuestDialogue/WQ/Fontaine_74012/Q7401213",
      "heroTalk": "TALK_HERO_MAIN",
      "questId": 74012,
      "assetIndex": 12872291400080345922,
      "prePerformCfg": "",
      "CHAKPMBJNAJ": [
        "[3_6284:4648.784,562.154,5135.393]",
        "[3_6287:4648.667,562.335,5137.055,0.000,173.542,0.000]",
        "[3_6665:4648.055,562.080,5135.523,0.000,17.051,0.000]"
      ]
    },
    {
      "id": 7401214,
      "beginWay": "TALK_BEGIN_MANUAL",
      "activeMode": "PLAY_MODE_HOST",
      "beginCondComb": "LOGIC_AND",
      "beginCond": [
        {
          "type": "QUEST_COND_STATE_EQUAL",
          "_param": [
            "7401209",
            "2"
          ]
        },
        {
          "type": "QUEST_COND_QUEST_GLOBAL_VAR_EQUAL",
          "_param": [
            "7405402",
            "1"
          ]
        },
        {
          "type": "QUEST_COND_QUEST_GLOBAL_VAR_EQUAL",
          "_param": [
            "7401401",
            "1"
          ]
        }
      ],
      "priority": 5,
      "initDialog": 740121401,
      "npcId": [
        21226
      ],
      "performCfg": "QuestDialogue/WQ/Fontaine_74012/Q7401214",
      "heroTalk": "TALK_HERO_MAIN",
      "questId": 74012,
      "assetIndex": 5035154248741307209,
      "prePerformCfg": "",
      "CHAKPMBJNAJ": [
        "[3_6284:4648.784,562.154,5135.393]",
        "[3_6287:4648.667,562.335,5137.055,0.000,173.542,0.000]",
        "[3_6665:4648.055,562.080,5135.523,0.000,17.051,0.000]"
      ]
    }
  ],
  "dialogList": [
    {
      "id": 740120601,
      "talkRole": {
        "type": "TALK_ROLE_BLACK_SCREEN",
        "_id": ""
      },
      "talkContentTextMapHash": 1407108386,
      "talkAssetPath": "",
      "talkAssetPathAlter": "",
      "talkAudioName": "",
      "actionBefore": "",
      "actionWhile": "",
      "actionAfter": "",
      "optionIcon": "",
      "iconPath": ""
    },
    {
      "id": 740120701,
      "talkRole": {
        "type": "TALK_ROLE_BLACK_SCREEN",
        "_id": ""
      },
      "talkContentTextMapHash": 2696098098,
      "talkAssetPath": "",
      "talkAssetPathAlter": "",
      "talkAudioName": "",
      "actionBefore": "",
      "actionWhile": "",
      "actionAfter": "",
      "optionIcon": "",
      "iconPath": ""
    }
  ]
}