{
  "id": 74020,
  "damageRatio": "WQ",
  "activeMode": "PLAY_MODE_ALL",
  "descTextMapHash": 3781751311,
  "EKEKACCODOE": 333396934,
  "luaPath": "Actor/Quest/WQ74020",
  "rewardIdList": [
    174020
  ],
  "subQuests": [
    {
      "subId": 7402001,
      "mainId": 74020,
      "order": 1,
      "showType": "QUEST_HIDDEN",
      "finishCond": [
        {
          "damageRatio": "QUEST_CONTENT_LUA_NOTIFY",
          "param": [
            0,
            0
          ],
          "count": 1
        }
      ],
      "guide": {
        "MLAHIFLGIGJ": ""
      },
      "showGuide": "QUEST_GUIDE_ITEM_DISABLE",
      "guideHint": {
        "param1": ""
      },
      "isRewind": true,
      "finishExec": [
        {
          "damageRatio": "QUEST_EXEC_NOTIFY_GROUP_LUA",
          "param": [
            "3",
            "133401123"
          ]
        },
        {
          "damageRatio": "QUEST_EXEC_NOTIFY_GROUP_LUA",
          "param": [
            "3",
            "133403338"
          ]
        },
        {
          "damageRatio": "QUEST_EXEC_NOTIFY_GROUP_LUA",
          "param": [
            "3",
            "133403119"
          ]
        },
        {
          "damageRatio": "QUEST_EXEC_NOTIFY_GROUP_LUA",
          "param": [
            "3",
            "133403120"
          ]
        }
      ],
      "versionBegin": "",
      "versionEnd": ""
    },
    {
      "subId": 7402002,
      "mainId": 74020,
      "order": 3,
      "descTextMapHash": 527130644,
      "finishCond": [
        {
          "damageRatio": "QUEST_CONTENT_COMPLETE_TALK",
          "param": [
            7402001,
            0
          ]
        }
      ],
      "guide": {
        "damageRatio": "QUEST_GUIDE_NPC",
        "autoGuide": "QUEST_GUIDE_AUTO_ENABLE",
        "param": [
          "21035"
        ],
        "guideScene": 3,
        "guideStyle": "QUEST_GUIDE_STYLE_TARGET",
        "guideLayer": "QUEST_GUIDE_LAYER_SCENE",
        "MLAHIFLGIGJ": ""
      },
      "guideHint": {
        "param1": ""
      },
      "isRewind": true,
      "versionBegin": "",
      "versionEnd": ""
    },
    {
      "subId": 7402003,
      "mainId": 74020,
      "order": 2,
      "descTextMapHash": 1610814196,
      "finishCond": [
        {
          "damageRatio": "QUEST_CONTENT_COMPLETE_TALK",
          "param": [
            7401621,
            0
          ]
        },
        {
          "damageRatio": "QUEST_CONTENT_COMPLETE_TALK",
          "param": [
            7401622,
            0
          ]
        },
        {
          "damageRatio": "QUEST_CONTENT_COMPLETE_TALK",
          "param": [
            7401623,
            0
          ]
        },
        {
          "damageRatio": "QUEST_CONTENT_COMPLETE_TALK",
          "param": [
            7401624,
            0
          ]
        },
        {
          "damageRatio": "QUEST_CONTENT_COMPLETE_TALK",
          "param": [
            7401625,
            0
          ]
        }
      ],
      "guide": {
        "damageRatio": "QUEST_GUIDE_LOCATION",
        "autoGuide": "QUEST_GUIDE_AUTO_ENABLE",
        "param": [
          "QTravel03_Salsa_Landong",
          "0"
        ],
        "guideScene": 3,
        "guideStyle": "QUEST_GUIDE_STYLE_POINT",
        "guideLayer": "QUEST_GUIDE_LAYER_SCENE",
        "MLAHIFLGIGJ": ""
      },
      "guideHint": {
        "param1": ""
      },
      "isRewind": true,
      "versionBegin": "",
      "versionEnd": ""
    },
    {
      "subId": 7402004,
      "mainId": 74020,
      "order": 4,
      "descTextMapHash": 753557532,
      "guideTipsTextMapHash": 4086221806,
      "finishCond": [
        {
          "damageRatio": "QUEST_CONTENT_LUA_NOTIFY",
          "param": [
            0,
            0
          ],
          "count": 1
        }
      ],
      "guide": {
        "damageRatio": "QUEST_GUIDE_LOCATION",
        "autoGuide": "QUEST_GUIDE_AUTO_ENABLE",
        "param": [
          "[3_5521:2529.327,465.483,4786.839]",
          "20"
        ],
        "guideScene": 3,
        "guideStyle": "QUEST_GUIDE_STYLE_POINT",
        "guideLayer": "QUEST_GUIDE_LAYER_SCENE",
        "MLAHIFLGIGJ": ""
      },
      "guideHint": {
        "param1": ""
      },
      "isRewind": true,
      "versionBegin": "",
      "versionEnd": ""
    },
    {
      "subId": 7402005,
      "mainId": 74020,
      "order": 6,
      "descTextMapHash": 1760944948,
      "finishCond": [
        {
          "damageRatio": "QUEST_CONTENT_COMPLETE_TALK",
          "param": [
            7401626,
            0
          ]
        },
        {
          "damageRatio": "QUEST_CONTENT_COMPLETE_TALK",
          "param": [
            7401627,
            0
          ]
        },
        {
          "damageRatio": "QUEST_CONTENT_COMPLETE_TALK",
          "param": [
            7401628,
            0
          ]
        },
        {
          "damageRatio": "QUEST_CONTENT_COMPLETE_TALK",
          "param": [
            7401629,
            0
          ]
        },
        {
          "damageRatio": "QUEST_CONTENT_COMPLETE_TALK",
          "param": [
            7401630,
            0
          ]
        }
      ],
      "guide": {
        "damageRatio": "QUEST_GUIDE_NPC",
        "autoGuide": "QUEST_GUIDE_AUTO_ENABLE",
        "param": [
          "21035"
        ],
        "guideScene": 3,
        "guideStyle": "QUEST_GUIDE_STYLE_TARGET",
        "guideLayer": "QUEST_GUIDE_LAYER_SCENE",
        "MLAHIFLGIGJ": ""
      },
      "guideHint": {
        "param1": ""
      },
      "finishParent": true,
      "isRewind": true,
      "finishExec": [
        {
          "damageRatio": "QUEST_EXEC_INC_QUEST_GLOBAL_VAR",
          "param": [
            "74016",
            "1"
          ]
        },
        {
          "damageRatio": "QUEST_EXEC_REFRESH_GROUP_SUITE",
          "param": [
            "3",
            "133403393,2"
          ]
        }
      ],
      "versionBegin": "",
      "versionEnd": ""
    },
    {
      "subId": 7402006,
      "mainId": 74020,
      "order": 5,
      "showType": "QUEST_HIDDEN",
      "finishCond": [
        {
          "damageRatio": "QUEST_CONTENT_COMPLETE_TALK",
          "param": [
            7401626,
            0
          ]
        },
        {
          "damageRatio": "QUEST_CONTENT_COMPLETE_TALK",
          "param": [
            7401627,
            0
          ]
        },
        {
          "damageRatio": "QUEST_CONTENT_COMPLETE_TALK",
          "param": [
            7401628,
            0
          ]
        },
        {
          "damageRatio": "QUEST_CONTENT_COMPLETE_TALK",
          "param": [
            7401629,
            0
          ]
        },
        {
          "damageRatio": "QUEST_CONTENT_COMPLETE_TALK",
          "param": [
            7401630,
            0
          ]
        }
      ],
      "guide": {
        "MLAHIFLGIGJ": ""
      },
      "guideHint": {
        "param1": ""
      },
      "isRewind": true,
      "finishExec": [
        {
          "damageRatio": "QUEST_EXEC_NOTIFY_GROUP_LUA",
          "param": [
            "3",
            "133401123"
          ]
        },
        {
          "damageRatio": "QUEST_EXEC_NOTIFY_GROUP_LUA",
          "param": [
            "3",
            "133403338"
          ]
        },
        {
          "damageRatio": "QUEST_EXEC_NOTIFY_GROUP_LUA",
          "param": [
            "3",
            "133403119"
          ]
        },
        {
          "damageRatio": "QUEST_EXEC_NOTIFY_GROUP_LUA",
          "param": [
            "3",
            "133403120"
          ]
        },
        {
          "damageRatio": "QUEST_EXEC_REFRESH_GROUP_SUITE",
          "param": [
            "3",
            "133403731,2"
          ]
        }
      ],
      "versionBegin": "",
      "versionEnd": ""
    },
    {
      "subId": 7402007,
      "mainId": 74020,
      "order": 7,
      "showType": "QUEST_HIDDEN",
      "finishCond": [
        {
          "damageRatio": "QUEST_CONTENT_FINISH_PLOT",
          "param": [
            7402007,
            0
          ]
        }
      ],
      "guide": {
        "MLAHIFLGIGJ": ""
      },
      "guideHint": {
        "param1": ""
      },
      "finishExec": [
        {
          "damageRatio": "QUEST_EXEC_REFRESH_GROUP_SUITE",
          "param": [
            "3",
            "133403393,2"
          ]
        }
      ],
      "versionBegin": "",
      "versionEnd": ""
    }
  ],
  "talks": [
    {
      "id": 7401621,
      "beginWay": "TALK_BEGIN_MANUAL",
      "activeMode": "PLAY_MODE_HOST",
      "beginCondComb": "LOGIC_AND",
      "beginCond": [
        {
          "type": "QUEST_COND_STATE_EQUAL",
          "_param": [
            "7402003",
            "2"
          ]
        },
        {
          "type": "QUEST_COND_QUEST_GLOBAL_VAR_EQUAL",
          "_param": [
            "74016",
            "0"
          ]
        }
      ],
      "nextTalks": [
        7402001
      ],
      "initDialog": 740160101,
      "npcId": [
        21035
      ],
      "performCfg": "QuestDialogue/WQ/Fontaine_74016/Q7401621",
      "heroTalk": "TALK_HERO_MAIN",
      "questId": 74020,
      "assetIndex": 986279860947801707,
      "prePerformCfg": ""
    },
    {
      "id": 7401622,
      "beginWay": "TALK_BEGIN_MANUAL",
      "activeMode": "PLAY_MODE_HOST",
      "beginCondComb": "LOGIC_AND",
      "beginCond": [
        {
          "type": "QUEST_COND_STATE_EQUAL",
          "_param": [
            "7402003",
            "2"
          ]
        },
        {
          "type": "QUEST_COND_QUEST_GLOBAL_VAR_EQUAL",
          "_param": [
            "74016",
            "1"
          ]
        }
      ],
      "nextTalks": [
        7402001
      ],
      "initDialog": 740160201,
      "npcId": [
        21035
      ],
      "performCfg": "QuestDialogue/WQ/Fontaine_74016/Q7401622",
      "heroTalk": "TALK_HERO_MAIN",
      "questId": 74020,
      "assetIndex": 1582412645907303953,
      "prePerformCfg": ""
    },
    {
      "id": 7401623,
      "beginWay": "TALK_BEGIN_MANUAL",
      "activeMode": "PLAY_MODE_HOST",
      "beginCondComb": "LOGIC_AND",
      "beginCond": [
        {
          "type": "QUEST_COND_STATE_EQUAL",
          "_param": [
            "7402003",
            "2"
          ]
        },
        {
          "type": "QUEST_COND_QUEST_GLOBAL_VAR_EQUAL",
          "_param": [
            "74016",
            "2"
          ]
        }
      ],
      "nextTalks": [
        7402001
      ],
      "initDialog": 740160301,
      "npcId": [
        21035
      ],
      "performCfg": "QuestDialogue/WQ/Fontaine_74016/Q7401623",
      "heroTalk": "TALK_HERO_MAIN",
      "questId": 74020,
      "assetIndex": 3671949535128614918,
      "prePerformCfg": ""
    },
    {
      "id": 7401624,
      "beginWay": "TALK_BEGIN_MANUAL",
      "activeMode": "PLAY_MODE_HOST",
      "beginCondComb": "LOGIC_AND",
      "beginCond": [
        {
          "type": "QUEST_COND_STATE_EQUAL",
          "_param": [
            "7402003",
            "2"
          ]
        },
        {
          "type": "QUEST_COND_QUEST_GLOBAL_VAR_EQUAL",
          "_param": [
            "74016",
            "3"
          ]
        }
      ],
      "nextTalks": [
        7402001
      ],
      "initDialog": 740160401,
      "npcId": [
        21035
      ],
      "performCfg": "QuestDialogue/WQ/Fontaine_74016/Q7401624",
      "heroTalk": "TALK_HERO_MAIN",
      "questId": 74020,
      "assetIndex": 9756774862906975927,
      "prePerformCfg": ""
    },
    {
      "id": 7401625,
      "beginWay": "TALK_BEGIN_MANUAL",
      "activeMode": "PLAY_MODE_HOST",
      "beginCondComb": "LOGIC_AND",
      "beginCond": [
        {
          "type": "QUEST_COND_STATE_EQUAL",
          "_param": [
            "7402003",
            "2"
          ]
        },
        {
          "type": "QUEST_COND_QUEST_GLOBAL_VAR_EQUAL",
          "_param": [
            "74016",
            "4"
          ]
        }
      ],
      "nextTalks": [
        7402001
      ],
      "initDialog": 740160501,
      "npcId": [
        21035
      ],
      "performCfg": "QuestDialogue/WQ/Fontaine_74016/Q7401625",
      "heroTalk": "TALK_HERO_MAIN",
      "questId": 74020,
      "assetIndex": 3165136812176523162,
      "prePerformCfg": ""
    },
    {
      "id": 7401626,
      "beginWay": "TALK_BEGIN_MANUAL",
      "activeMode": "PLAY_MODE_HOST",
      "beginCondComb": "LOGIC_AND",
      "beginCond": [
        {
          "type": "QUEST_COND_STATE_EQUAL",
          "_param": [
            "7402005",
            "2"
          ]
        },
        {
          "type": "QUEST_COND_QUEST_GLOBAL_VAR_EQUAL",
          "_param": [
            "74016",
            "0"
          ]
        }
      ],
      "initDialog": 740160601,
      "npcId": [
        21035
      ],
      "performCfg": "QuestDialogue/WQ/Fontaine_74016/Q7401626",
      "heroTalk": "TALK_HERO_MAIN",
      "questId": 74020,
      "assetIndex": 1057169129388566524,
      "prePerformCfg": ""
    },
    {
      "id": 7401627,
      "beginWay": "TALK_BEGIN_MANUAL",
      "activeMode": "PLAY_MODE_HOST",
      "beginCondComb": "LOGIC_AND",
      "beginCond": [
        {
          "type": "QUEST_COND_STATE_EQUAL",
          "_param": [
            "7402005",
            "2"
          ]
        },
        {
          "type": "QUEST_COND_QUEST_GLOBAL_VAR_EQUAL",
          "_param": [
            "74016",
            "1"
          ]
        }
      ],
      "initDialog": 740160701,
      "npcId": [
        21035
      ],
      "performCfg": "QuestDialogue/WQ/Fontaine_74016/Q7401627",
      "heroTalk": "TALK_HERO_MAIN",
      "questId": 74020,
      "assetIndex": 1900338391875626453,
      "prePerformCfg": ""
    },
    {
      "id": 7401628,
      "beginWay": "TALK_BEGIN_MANUAL",
      "activeMode": "PLAY_MODE_HOST",
      "beginCondComb": "LOGIC_AND",
      "beginCond": [
        {
          "type": "QUEST_COND_STATE_EQUAL",
          "_param": [
            "7402005",
            "2"
          ]
        },
        {
          "type": "QUEST_COND_QUEST_GLOBAL_VAR_EQUAL",
          "_param": [
            "74016",
            "2"
          ]
        }
      ],
      "initDialog": 740160801,
      "npcId": [
        21035
      ],
      "performCfg": "QuestDialogue/WQ/Fontaine_74016/Q7401628",
      "heroTalk": "TALK_HERO_MAIN",
      "questId": 74020,
      "assetIndex": 5858478214363292424,
      "prePerformCfg": ""
    },
    {
      "id": 7401629,
      "beginWay": "TALK_BEGIN_MANUAL",
      "activeMode": "PLAY_MODE_HOST",
      "beginCondComb": "LOGIC_AND",
      "beginCond": [
        {
          "type": "QUEST_COND_STATE_EQUAL",
          "_param": [
            "7402005",
            "2"
          ]
        },
        {
          "type": "QUEST_COND_QUEST_GLOBAL_VAR_EQUAL",
          "_param": [
            "74016",
            "3"
          ]
        }
      ],
      "initDialog": 740160901,
      "npcId": [
        21035
      ],
      "performCfg": "QuestDialogue/WQ/Fontaine_74016/Q7401629",
      "heroTalk": "TALK_HERO_MAIN",
      "questId": 74020,
      "assetIndex": 7841934756124931202,
      "prePerformCfg": ""
    },
    {
      "id": 7401630,
      "beginWay": "TALK_BEGIN_MANUAL",
      "activeMode": "PLAY_MODE_HOST",
      "beginCondComb": "LOGIC_AND",
      "beginCond": [
        {
          "type": "QUEST_COND_STATE_EQUAL",
          "_param": [
            "7402005",
            "2"
          ]
        },
        {
          "type": "QUEST_COND_QUEST_GLOBAL_VAR_EQUAL",
          "_param": [
            "74016",
            "4"
          ]
        }
      ],
      "initDialog": 740161001,
      "npcId": [
        21035
      ],
      "performCfg": "QuestDialogue/WQ/Fontaine_74016/Q7401630",
      "heroTalk": "TALK_HERO_MAIN",
      "questId": 74020,
      "assetIndex": 5220635770946191790,
      "prePerformCfg": ""
    },
    {
      "id": 7402001,
      "beginWay": "TALK_BEGIN_MANUAL",
      "activeMode": "PLAY_MODE_HOST",
      "beginCond": [
        {
          "type": "QUEST_COND_STATE_EQUAL",
          "_param": [
            "7402002",
            "2"
          ]
        }
      ],
      "priority": 5,
      "initDialog": 740200101,
      "npcId": [
        21035
      ],
      "performCfg": "QuestDialogue/WQ/Fontaine_74020/Q7402001",
      "heroTalk": "TALK_HERO_MAIN",
      "questId": 74020,
      "assetIndex": 1379005233661248780,
      "prePerformCfg": ""
    },
    {
      "id": 7402002,
      "beginWay": "TALK_BEGIN_MANUAL",
      "activeMode": "PLAY_MODE_HOST",
      "beginCond": [
        {
          "type": "QUEST_COND_STATE_EQUAL",
          "_param": [
            "7402004",
            "2"
          ]
        }
      ],
      "priority": 5,
      "initDialog": 740200201,
      "npcId": [
        21035
      ],
      "performCfg": "QuestDialogue/WQ/Fontaine_74020/Q7402002",
      "heroTalk": "TALK_HERO_MAIN",
      "questId": 74020,
      "assetIndex": 18240116410294870956,
      "prePerformCfg": ""
    }
  ]
}