{
  "id": 74046,
  "damageRatio": "WQ",
  "activeMode": "PLAY_MODE_ALL",
  "descTextMapHash": 2412467375,
  "luaPath": "Actor/Quest/WQ74046",
  "showType": "QUEST_HIDDEN",
  "subQuests": [
    {
      "subId": 7404601,
      "mainId": 74046,
      "order": 1,
      "descTextMapHash": 3593484020,
      "showType": "QUEST_HIDDEN",
      "finishCond": [
        {
          "damageRatio": "QUEST_CONTENT_LUA_NOTIFY",
          "param": [
            0,
            0
          ],
          "count": 1
        }
      ],
      "guide": {
        "MLAHIFLGIGJ": ""
      },
      "guideHint": {
        "param1": ""
      },
      "isRewind": true,
      "versionBegin": "",
      "versionEnd": ""
    },
    {
      "subId": 7404602,
      "mainId": 74046,
      "order": 2,
      "descTextMapHash": 3596976628,
      "showType": "QUEST_HIDDEN",
      "finishCond": [
        {
          "damageRatio": "QUEST_CONTENT_COMPLETE_TALK",
          "param": [
            7404602,
            0
          ]
        }
      ],
      "guide": {
        "MLAHIFLGIGJ": ""
      },
      "guideHint": {
        "param1": ""
      },
      "finishExec": [
        {
          "damageRatio": "QUEST_EXEC_ROLLBACK_QUEST",
          "param": [
            "7404601"
          ]
        }
      ],
      "versionBegin": "",
      "versionEnd": ""
    },
    {
      "subId": 7404603,
      "mainId": 74046,
      "order": 3,
      "descTextMapHash": 255199220,
      "showType": "QUEST_HIDDEN",
      "finishCond": [
        {
          "damageRatio": "QUEST_CONTENT_FINISH_PLOT",
          "param": [
            7404603,
            0
          ]
        }
      ],
      "guide": {
        "MLAHIFLGIGJ": ""
      },
      "guideHint": {
        "param1": ""
      },
      "finishParent": true,
      "isRewind": true,
      "versionBegin": "",
      "versionEnd": ""
    }
  ],
  "talks": [
    {
      "id": 7404602,
      "beginWay": "TALK_BEGIN_MANUAL",
      "activeMode": "PLAY_MODE_HOST",
      "beginCond": [
        {
          "type": "QUEST_COND_STATE_EQUAL",
          "_param": [
            "7404602",
            "2"
          ]
        }
      ],
      "priority": 20,
      "initDialog": 740460201,
      "npcId": [
        21393
      ],
      "performCfg": "QuestDialogue/WQ/Fontaine_74046/Q7404602",
      "heroTalk": "TALK_HERO_MAIN",
      "questId": 74046,
      "assetIndex": 9094574263656312178,
      "prePerformCfg": ""
    }
  ]
}