{
  "id": 74060,
  "damageRatio": "WQ",
  "activeMode": "PLAY_MODE_ALL",
  "descTextMapHash": 1773911607,
  "luaPath": "Actor/Quest/WQ74060",
  "rewardIdList": [
    174060
  ],
  "subQuests": [
    {
      "subId": 7406001,
      "mainId": 74060,
      "order": 1,
      "descTextMapHash": 1685069524,
      "showType": "QUEST_HIDDEN",
      "finishCond": [
        {
          "damageRatio": "QUEST_CONTENT_LUA_NOTIFY",
          "param": [
            0,
            0
          ]
        }
      ],
      "guide": {
        "param": [
          "30"
        ],
        "guideScene": 3,
        "MLAHIFLGIGJ": ""
      },
      "showGuide": "QUEST_GUIDE_ITEM_DISABLE",
      "guideHint": {
        "param1": ""
      },
      "isRewind": true,
      "finishExec": [
        {
          "damageRatio": "QUEST_EXEC_UNREGISTER_DYNAMIC_GROUP",
          "param": [
            "133408149",
            "0"
          ]
        },
        {
          "damageRatio": "QUEST_EXEC_SET_QUEST_GLOBAL_VAR",
          "param": [
            "7406001",
            "1"
          ]
        }
      ],
      "versionBegin": "",
      "versionEnd": ""
    },
    {
      "subId": 7406002,
      "mainId": 74060,
      "order": 2,
      "descTextMapHash": 550162492,
      "stepDescTextMapHash": 343007933,
      "JIFODJPFKDF": [
        340829
      ],
      "finishCond": [
        {
          "damageRatio": "QUEST_CONTENT_COMPLETE_TALK",
          "param": [
            7406002,
            0
          ]
        }
      ],
      "guide": {
        "damageRatio": "QUEST_GUIDE_LOCATION",
        "param": [
          "[3_4970:4401.420,121.600,4656.050,0.000,36.870,0.000]",
          "30"
        ],
        "guideScene": 3,
        "guideStyle": "QUEST_GUIDE_STYLE_TARGET",
        "guideLayer": "QUEST_GUIDE_LAYER_SCENE",
        "MLAHIFLGIGJ": ""
      },
      "guideHint": {
        "param1": ""
      },
      "isRewind": true,
      "versionBegin": "",
      "versionEnd": ""
    },
    {
      "subId": 7406003,
      "mainId": 74060,
      "order": 3,
      "descTextMapHash": 3431978828,
      "stepDescTextMapHash": 1499262781,
      "finishCond": [
        {
          "damageRatio": "QUEST_CONTENT_FINISH_PLOT",
          "param": [
            7406003,
            0
          ]
        }
      ],
      "guide": {
        "damageRatio": "QUEST_GUIDE_LOCATION",
        "param": [
          "[3_4855:4475.357,121.600,4673.741,0.000,222.875,0.000]",
          "15"
        ],
        "guideScene": 3,
        "guideStyle": "QUEST_GUIDE_STYLE_POINT",
        "MLAHIFLGIGJ": ""
      },
      "guideHint": {
        "param1": ""
      },
      "isRewind": true,
      "versionBegin": "",
      "versionEnd": ""
    },
    {
      "subId": 7406004,
      "mainId": 74060,
      "order": 4,
      "descTextMapHash": 796623700,
      "finishCond": [
        {
          "damageRatio": "QUEST_CONTENT_COMPLETE_TALK",
          "param": [
            7406004,
            0
          ]
        }
      ],
      "guide": {
        "damageRatio": "QUEST_GUIDE_LOCATION",
        "param": [
          "[3_4972:4474.598,121.600,4671.905,0.000,18.587,0.000]",
          "30"
        ],
        "guideScene": 3,
        "guideStyle": "QUEST_GUIDE_STYLE_TARGET",
        "guideLayer": "QUEST_GUIDE_LAYER_SCENE",
        "MLAHIFLGIGJ": ""
      },
      "guideHint": {
        "param1": ""
      },
      "isRewind": true,
      "versionBegin": "",
      "versionEnd": ""
    },
    {
      "subId": 7406005,
      "mainId": 74060,
      "order": 5,
      "descTextMapHash": 3986280380,
      "JIFODJPFKDF": [
        340808
      ],
      "finishCond": [
        {
          "damageRatio": "QUEST_CONTENT_COMPLETE_TALK",
          "param": [
            7406005,
            0
          ]
        }
      ],
      "guide": {
        "damageRatio": "QUEST_GUIDE_NPC",
        "param": [
          "5262"
        ],
        "guideScene": 3,
        "guideStyle": "QUEST_GUIDE_STYLE_TARGET",
        "guideLayer": "QUEST_GUIDE_LAYER_SCENE",
        "MLAHIFLGIGJ": ""
      },
      "guideHint": {
        "param1": ""
      },
      "isRewind": true,
      "versionBegin": "",
      "versionEnd": ""
    },
    {
      "subId": 7406006,
      "mainId": 74060,
      "order": 6,
      "descTextMapHash": 3929325468,
      "finishCond": [
        {
          "damageRatio": "QUEST_CONTENT_LUA_NOTIFY",
          "param": [
            0,
            0
          ],
          "count": 1
        }
      ],
      "failCond": [
        {
          "damageRatio": "QUEST_CONTENT_LUA_NOTIFY",
          "param": [
            0,
            0
          ],
          "count": 1
        },
        {
          "damageRatio": "QUEST_CONTENT_ENTER_MY_WORLD",
          "param": [
            3,
            0
          ]
        }
      ],
      "guide": {
        "damageRatio": "QUEST_GUIDE_LOCATION",
        "param": [
          "[3_6274:4298.043,97.880,4709.368,0.000,117.501,0.000]",
          "15"
        ],
        "guideScene": 3,
        "guideStyle": "QUEST_GUIDE_STYLE_TARGET",
        "MLAHIFLGIGJ": ""
      },
      "guideHint": {
        "param1": ""
      },
      "isRewind": true,
      "failExec": [
        {
          "damageRatio": "QUEST_EXEC_ROLLBACK_QUEST",
          "param": [
            "7406005"
          ]
        }
      ],
      "versionBegin": "",
      "versionEnd": ""
    },
    {
      "subId": 7406007,
      "mainId": 74060,
      "order": 7,
      "descTextMapHash": 4264477468,
      "finishCond": [
        {
          "damageRatio": "QUEST_CONTENT_COMPLETE_TALK",
          "param": [
            7406007,
            0
          ]
        }
      ],
      "guide": {
        "damageRatio": "QUEST_GUIDE_LOCATION",
        "param": [
          "[3_4976:4308.309,97.859,4704.837,0.000,21.838,0.000]",
          "30"
        ],
        "guideScene": 3,
        "guideStyle": "QUEST_GUIDE_STYLE_POINT",
        "guideLayer": "QUEST_GUIDE_LAYER_SCENE",
        "MLAHIFLGIGJ": ""
      },
      "guideHint": {
        "param1": ""
      },
      "isRewind": true,
      "versionBegin": "",
      "versionEnd": ""
    },
    {
      "subId": 7406008,
      "mainId": 74060,
      "order": 8,
      "descTextMapHash": 3158249212,
      "finishCond": [
        {
          "damageRatio": "QUEST_CONTENT_FINISH_PLOT",
          "param": [
            7406008,
            0
          ]
        }
      ],
      "guide": {
        "damageRatio": "QUEST_GUIDE_LOCATION",
        "param": [
          "[3_4856:4372.852,124.874,4559.149,0.000,128.486,0.000]",
          "0"
        ],
        "guideScene": 3,
        "guideStyle": "QUEST_GUIDE_STYLE_POINT",
        "MLAHIFLGIGJ": ""
      },
      "guideHint": {
        "param1": ""
      },
      "isRewind": true,
      "finishExec": [
        {
          "damageRatio": "QUEST_EXEC_UNREGISTER_DYNAMIC_GROUP",
          "param": [
            "133408796",
            "0"
          ]
        }
      ],
      "versionBegin": "",
      "versionEnd": ""
    },
    {
      "subId": 7406009,
      "mainId": 74060,
      "order": 10,
      "descTextMapHash": 652059700,
      "finishCond": [
        {
          "damageRatio": "QUEST_CONTENT_LUA_NOTIFY",
          "param": [
            0,
            0
          ],
          "count": 1
        }
      ],
      "guide": {
        "damageRatio": "QUEST_GUIDE_LOCATION",
        "param": [
          "[3_4856:4372.852,124.874,4559.149,0.000,128.486,0.000]",
          "35"
        ],
        "guideScene": 3,
        "guideStyle": "QUEST_GUIDE_STYLE_POINT",
        "MLAHIFLGIGJ": ""
      },
      "guideHint": {
        "param1": ""
      },
      "isRewind": true,
      "finishExec": [
        {
          "damageRatio": "QUEST_EXEC_UNREGISTER_DYNAMIC_GROUP",
          "param": [
            "133408187",
            "1"
          ]
        }
      ],
      "versionBegin": "",
      "versionEnd": ""
    },
    {
      "subId": 7406010,
      "mainId": 74060,
      "order": 11,
      "descTextMapHash": 1996345804,
      "finishCond": [
        {
          "damageRatio": "QUEST_CONTENT_COMPLETE_TALK",
          "param": [
            7406010,
            0
          ]
        }
      ],
      "guide": {
        "damageRatio": "QUEST_GUIDE_LOCATION",
        "param": [
          "[3_4856:4372.852,124.874,4559.149,0.000,128.486,0.000]",
          "35"
        ],
        "guideScene": 3,
        "guideStyle": "QUEST_GUIDE_STYLE_TARGET",
        "guideLayer": "QUEST_GUIDE_LAYER_SCENE",
        "MLAHIFLGIGJ": ""
      },
      "guideHint": {
        "param1": ""
      },
      "isRewind": true,
      "versionBegin": "",
      "versionEnd": ""
    },
    {
      "subId": 7406011,
      "mainId": 74060,
      "order": 12,
      "descTextMapHash": 3183262380,
      "JIFODJPFKDF": [
        340808
      ],
      "finishCond": [
        {
          "damageRatio": "QUEST_CONTENT_FINISH_PLOT",
          "param": [
            7406011,
            0
          ]
        }
      ],
      "guide": {
        "damageRatio": "QUEST_GUIDE_NPC",
        "param": [
          "5262"
        ],
        "guideScene": 3,
        "guideStyle": "QUEST_GUIDE_STYLE_TARGET",
        "guideLayer": "QUEST_GUIDE_LAYER_SCENE",
        "MLAHIFLGIGJ": ""
      },
      "guideHint": {
        "param1": ""
      },
      "isRewind": true,
      "finishExec": [
        {
          "damageRatio": "QUEST_EXEC_UNREGISTER_DYNAMIC_GROUP",
          "param": [
            "133408172",
            "1"
          ]
        }
      ],
      "versionBegin": "",
      "versionEnd": ""
    },
    {
      "subId": 7406012,
      "mainId": 74060,
      "order": 13,
      "descTextMapHash": 3473062316,
      "finishCond": [
        {
          "damageRatio": "QUEST_CONTENT_LUA_NOTIFY",
          "param": [
            0,
            0
          ],
          "count": 1
        }
      ],
      "failCond": [
        {
          "damageRatio": "QUEST_CONTENT_LUA_NOTIFY",
          "param": [
            0,
            0
          ],
          "count": 1
        },
        {
          "damageRatio": "QUEST_CONTENT_ENTER_MY_WORLD",
          "param": [
            3,
            0
          ]
        }
      ],
      "guide": {
        "damageRatio": "QUEST_GUIDE_LOCATION",
        "param": [
          "[3_6274:4298.043,97.880,4709.368,0.000,117.501,0.000]",
          "15"
        ],
        "guideScene": 3,
        "guideStyle": "QUEST_GUIDE_STYLE_TARGET",
        "MLAHIFLGIGJ": ""
      },
      "guideHint": {
        "param1": ""
      },
      "isRewind": true,
      "finishExec": [
        {
          "damageRatio": "QUEST_EXEC_SET_QUEST_GLOBAL_VAR",
          "param": [
            "7406001",
            "2"
          ]
        }
      ],
      "failExec": [
        {
          "damageRatio": "QUEST_EXEC_ROLLBACK_QUEST",
          "param": [
            "7406011"
          ]
        }
      ],
      "versionBegin": "",
      "versionEnd": ""
    },
    {
      "subId": 7406013,
      "mainId": 74060,
      "order": 14,
      "descTextMapHash": 4095356244,
      "finishCond": [
        {
          "damageRatio": "QUEST_CONTENT_COMPLETE_TALK",
          "param": [
            7406013,
            0
          ]
        }
      ],
      "guide": {
        "damageRatio": "QUEST_GUIDE_LOCATION",
        "param": [
          "[3_6279:4300.093,103.330,4741.499,0.000,277.780,0.000]"
        ],
        "guideScene": 3,
        "guideStyle": "QUEST_GUIDE_STYLE_TARGET",
        "guideLayer": "QUEST_GUIDE_LAYER_SCENE",
        "MLAHIFLGIGJ": ""
      },
      "guideHint": {
        "param1": ""
      },
      "isRewind": true,
      "versionBegin": "",
      "versionEnd": ""
    },
    {
      "subId": 7406014,
      "mainId": 74060,
      "order": 15,
      "descTextMapHash": 1000350124,
      "finishCond": [
        {
          "damageRatio": "QUEST_CONTENT_COMPLETE_TALK",
          "param": [
            7406014,
            0
          ]
        }
      ],
      "guide": {
        "damageRatio": "QUEST_GUIDE_NPC",
        "param": [
          "21073"
        ],
        "guideScene": 3,
        "guideStyle": "QUEST_GUIDE_STYLE_TARGET",
        "guideLayer": "QUEST_GUIDE_LAYER_SCENE",
        "MLAHIFLGIGJ": ""
      },
      "guideHint": {
        "param1": ""
      },
      "isRewind": true,
      "versionBegin": "",
      "versionEnd": ""
    },
    {
      "subId": 7406015,
      "mainId": 74060,
      "order": 16,
      "descTextMapHash": 618393308,
      "JIFODJPFKDF": [
        340801
      ],
      "finishCond": [
        {
          "damageRatio": "QUEST_CONTENT_FINISH_PLOT",
          "param": [
            7406015,
            0
          ]
        }
      ],
      "guide": {
        "damageRatio": "QUEST_GUIDE_LOCATION",
        "param": [
          "[3_4857:4369.927,179.666,4786.017,0.000,10.458,0.000]",
          "0"
        ],
        "guideScene": 3,
        "guideStyle": "QUEST_GUIDE_STYLE_POINT",
        "MLAHIFLGIGJ": ""
      },
      "guideHint": {
        "param1": ""
      },
      "isRewind": true,
      "finishExec": [
        {
          "damageRatio": "QUEST_EXEC_UNREGISTER_DYNAMIC_GROUP",
          "param": [
            "133408796",
            "0"
          ]
        }
      ],
      "versionBegin": "",
      "versionEnd": ""
    },
    {
      "subId": 7406016,
      "mainId": 74060,
      "order": 17,
      "descTextMapHash": 1055418948,
      "JIFODJPFKDF": [
        340801
      ],
      "finishCond": [
        {
          "damageRatio": "QUEST_CONTENT_COMPLETE_TALK",
          "param": [
            7406016,
            0
          ]
        }
      ],
      "guide": {
        "damageRatio": "QUEST_GUIDE_LOCATION",
        "param": [
          "[3_6021:4371.747,179.771,4784.499,0.000,266.362,0.000]",
          "20"
        ],
        "guideScene": 3,
        "guideStyle": "QUEST_GUIDE_STYLE_TARGET",
        "guideLayer": "QUEST_GUIDE_LAYER_SCENE",
        "MLAHIFLGIGJ": ""
      },
      "guideHint": {
        "param1": ""
      },
      "isRewind": true,
      "versionBegin": "",
      "versionEnd": ""
    },
    {
      "subId": 7406017,
      "mainId": 74060,
      "order": 18,
      "descTextMapHash": 207431060,
      "JIFODJPFKDF": [
        340801
      ],
      "finishCond": [
        {
          "damageRatio": "QUEST_CONTENT_LUA_NOTIFY",
          "param": [
            0,
            0
          ],
          "count": 1
        }
      ],
      "guide": {
        "damageRatio": "QUEST_GUIDE_LOCATION",
        "param": [
          "[3_6313:4374.050,179.761,4784.418,0.000,93.725,0.000]"
        ],
        "guideScene": 3,
        "guideStyle": "QUEST_GUIDE_STYLE_POINT",
        "MLAHIFLGIGJ": ""
      },
      "guideHint": {
        "param1": ""
      },
      "isRewind": true,
      "finishExec": [
        {
          "damageRatio": "QUEST_EXEC_UNREGISTER_DYNAMIC_GROUP",
          "param": [
            "133408285",
            "0"
          ]
        }
      ],
      "versionBegin": "",
      "versionEnd": ""
    },
    {
      "subId": 7406018,
      "mainId": 74060,
      "order": 19,
      "descTextMapHash": 931560564,
      "JIFODJPFKDF": [
        340801
      ],
      "finishCond": [
        {
          "damageRatio": "QUEST_CONTENT_COMPLETE_TALK",
          "param": [
            7406018,
            0
          ]
        }
      ],
      "guide": {
        "damageRatio": "QUEST_GUIDE_NPC",
        "param": [
          "21124"
        ],
        "guideScene": 3,
        "guideStyle": "QUEST_GUIDE_STYLE_TARGET",
        "guideLayer": "QUEST_GUIDE_LAYER_SCENE",
        "MLAHIFLGIGJ": ""
      },
      "guideHint": {
        "param1": ""
      },
      "isRewind": true,
      "versionBegin": "",
      "versionEnd": ""
    },
    {
      "subId": 7406019,
      "mainId": 74060,
      "order": 20,
      "descTextMapHash": 4063119508,
      "JIFODJPFKDF": [
        340801
      ],
      "finishCond": [
        {
          "damageRatio": "QUEST_CONTENT_GAME_TIME_TICK",
          "param": [
            1,
            0
          ]
        }
      ],
      "guide": {
        "MLAHIFLGIGJ": ""
      },
      "guideHint": {
        "param1": ""
      },
      "isRewind": true,
      "finishExec": [
        {
          "damageRatio": "QUEST_EXEC_UNREGISTER_DYNAMIC_GROUP",
          "param": [
            "133408242",
            "0"
          ]
        }
      ],
      "versionBegin": "",
      "versionEnd": ""
    },
    {
      "subId": 7406020,
      "mainId": 74060,
      "order": 21,
      "descTextMapHash": 3528297316,
      "JIFODJPFKDF": [
        340808
      ],
      "finishCond": [
        {
          "damageRatio": "QUEST_CONTENT_FINISH_PLOT",
          "param": [
            7406020,
            0
          ]
        }
      ],
      "guide": {
        "damageRatio": "QUEST_GUIDE_NPC",
        "param": [
          "5262"
        ],
        "guideScene": 3,
        "guideStyle": "QUEST_GUIDE_STYLE_TARGET",
        "guideLayer": "QUEST_GUIDE_LAYER_SCENE",
        "MLAHIFLGIGJ": ""
      },
      "guideHint": {
        "param1": ""
      },
      "isRewind": true,
      "finishExec": [
        {
          "damageRatio": "QUEST_EXEC_UNREGISTER_DYNAMIC_GROUP",
          "param": [
            "133408184",
            "0"
          ]
        }
      ],
      "versionBegin": "",
      "versionEnd": ""
    },
    {
      "subId": 7406021,
      "mainId": 74060,
      "order": 22,
      "descTextMapHash": 1270395692,
      "finishCond": [
        {
          "damageRatio": "QUEST_CONTENT_LUA_NOTIFY",
          "param": [
            0,
            0
          ],
          "count": 1
        }
      ],
      "failCond": [
        {
          "damageRatio": "QUEST_CONTENT_LUA_NOTIFY",
          "param": [
            0,
            0
          ],
          "count": 1
        },
        {
          "damageRatio": "QUEST_CONTENT_ENTER_MY_WORLD",
          "param": [
            3,
            0
          ]
        }
      ],
      "guide": {
        "damageRatio": "QUEST_GUIDE_LOCATION",
        "param": [
          "[3_6492:4318.926,98.049,4722.757,0.000,139.198,0.000]",
          "15"
        ],
        "guideScene": 3,
        "guideStyle": "QUEST_GUIDE_STYLE_TARGET",
        "MLAHIFLGIGJ": ""
      },
      "guideHint": {
        "param1": ""
      },
      "isRewind": true,
      "finishExec": [
        {
          "damageRatio": "QUEST_EXEC_SET_QUEST_GLOBAL_VAR",
          "param": [
            "7406001",
            "3"
          ]
        }
      ],
      "failExec": [
        {
          "damageRatio": "QUEST_EXEC_ROLLBACK_QUEST",
          "param": [
            "7406020"
          ]
        }
      ],
      "versionBegin": "",
      "versionEnd": ""
    },
    {
      "subId": 7406022,
      "mainId": 74060,
      "order": 24,
      "descTextMapHash": 1192588596,
      "finishCond": [
        {
          "damageRatio": "QUEST_CONTENT_FINISH_PLOT",
          "param": [
            7406022,
            0
          ]
        }
      ],
      "guide": {
        "damageRatio": "QUEST_GUIDE_LOCATION",
        "param": [
          "[3_4858:4408.364,121.738,4657.123,0.000,171.389,0.000]",
          "30"
        ],
        "guideScene": 3,
        "MLAHIFLGIGJ": ""
      },
      "guideHint": {
        "param1": ""
      },
      "isRewind": true,
      "finishExec": [
        {
          "damageRatio": "QUEST_EXEC_UNREGISTER_DYNAMIC_GROUP",
          "param": [
            "133408047",
            "0"
          ]
        },
        {
          "damageRatio": "QUEST_EXEC_UNREGISTER_DYNAMIC_GROUP",
          "param": [
            "133408796",
            "0"
          ]
        }
      ],
      "versionBegin": "",
      "versionEnd": ""
    },
    {
      "subId": 7406023,
      "mainId": 74060,
      "order": 25,
      "descTextMapHash": 3383709796,
      "finishCond": [
        {
          "damageRatio": "QUEST_CONTENT_COMPLETE_TALK",
          "param": [
            7406023,
            0
          ]
        }
      ],
      "guide": {
        "damageRatio": "QUEST_GUIDE_LOCATION",
        "param": [
          "[3_4987:4410.426,121.300,4656.282,0.000,209.436,0.000]",
          "30"
        ],
        "guideScene": 3,
        "guideStyle": "QUEST_GUIDE_STYLE_TARGET",
        "guideLayer": "QUEST_GUIDE_LAYER_SCENE",
        "MLAHIFLGIGJ": ""
      },
      "guideHint": {
        "param1": ""
      },
      "isRewind": true,
      "versionBegin": "",
      "versionEnd": ""
    },
    {
      "subId": 7406024,
      "mainId": 74060,
      "order": 26,
      "descTextMapHash": 3204359460,
      "finishCond": [
        {
          "damageRatio": "QUEST_CONTENT_FINISH_PLOT",
          "param": [
            7406024,
            0
          ]
        }
      ],
      "guide": {
        "damageRatio": "QUEST_GUIDE_LOCATION",
        "param": [
          "[3_4859:4412.847,5.721,4623.046]",
          "20"
        ],
        "guideScene": 3,
        "guideStyle": "QUEST_GUIDE_STYLE_POINT",
        "MLAHIFLGIGJ": ""
      },
      "guideHint": {
        "param1": ""
      },
      "isRewind": true,
      "versionBegin": "",
      "versionEnd": ""
    },
    {
      "subId": 7406025,
      "mainId": 74060,
      "order": 27,
      "descTextMapHash": 914804548,
      "finishCond": [
        {
          "damageRatio": "QUEST_CONTENT_COMPLETE_TALK",
          "param": [
            7406025,
            0
          ]
        }
      ],
      "guide": {
        "damageRatio": "QUEST_GUIDE_LOCATION",
        "param": [
          "[3_4859:4412.847,5.721,4623.046]",
          "20"
        ],
        "guideScene": 3,
        "guideStyle": "QUEST_GUIDE_STYLE_TARGET",
        "guideLayer": "QUEST_GUIDE_LAYER_SCENE",
        "MLAHIFLGIGJ": ""
      },
      "guideHint": {
        "param1": ""
      },
      "isRewind": true,
      "versionBegin": "",
      "versionEnd": ""
    },
    {
      "subId": 7406026,
      "mainId": 74060,
      "order": 28,
      "descTextMapHash": 563196580,
      "finishCond": [
        {
          "damageRatio": "QUEST_CONTENT_LUA_NOTIFY",
          "param": [
            0,
            0
          ],
          "count": 1
        }
      ],
      "guide": {
        "damageRatio": "QUEST_GUIDE_LOCATION",
        "param": [
          "[3_4859:4412.847,5.721,4623.046]",
          "20"
        ],
        "guideScene": 3,
        "MLAHIFLGIGJ": ""
      },
      "guideHint": {
        "param1": ""
      },
      "isRewind": true,
      "finishExec": [
        {
          "damageRatio": "QUEST_EXEC_UNREGISTER_DYNAMIC_GROUP",
          "param": [
            "133408235",
            "0"
          ]
        }
      ],
      "versionBegin": "",
      "versionEnd": ""
    },
    {
      "subId": 7406027,
      "mainId": 74060,
      "order": 29,
      "descTextMapHash": 2522952316,
      "finishCond": [
        {
          "damageRatio": "QUEST_CONTENT_COMPLETE_TALK",
          "param": [
            7406027,
            0
          ]
        }
      ],
      "guide": {
        "damageRatio": "QUEST_GUIDE_LOCATION",
        "param": [
          "[3_4859:4412.847,5.721,4623.046]",
          "20"
        ],
        "guideScene": 3,
        "guideStyle": "QUEST_GUIDE_STYLE_TARGET",
        "guideLayer": "QUEST_GUIDE_LAYER_SCENE",
        "MLAHIFLGIGJ": ""
      },
      "guideHint": {
        "param1": ""
      },
      "isRewind": true,
      "versionBegin": "",
      "versionEnd": ""
    },
    {
      "subId": 7406028,
      "mainId": 74060,
      "order": 30,
      "descTextMapHash": 494837484,
      "finishCond": [
        {
          "damageRatio": "QUEST_CONTENT_GAME_TIME_TICK",
          "param": [
            1,
            0
          ]
        }
      ],
      "guide": {
        "MLAHIFLGIGJ": ""
      },
      "guideHint": {
        "param1": ""
      },
      "isRewind": true,
      "finishExec": [
        {
          "damageRatio": "QUEST_EXEC_UNREGISTER_DYNAMIC_GROUP",
          "param": [
            "133408243",
            "0"
          ]
        }
      ],
      "versionBegin": "",
      "versionEnd": ""
    },
    {
      "subId": 7406029,
      "mainId": 74060,
      "order": 31,
      "descTextMapHash": 3298048788,
      "JIFODJPFKDF": [
        340808
      ],
      "finishCond": [
        {
          "damageRatio": "QUEST_CONTENT_FINISH_PLOT",
          "param": [
            7406029,
            0
          ]
        }
      ],
      "guide": {
        "damageRatio": "QUEST_GUIDE_NPC",
        "param": [
          "5262"
        ],
        "guideScene": 3,
        "guideStyle": "QUEST_GUIDE_STYLE_TARGET",
        "guideLayer": "QUEST_GUIDE_LAYER_SCENE",
        "MLAHIFLGIGJ": ""
      },
      "guideHint": {
        "param1": ""
      },
      "isRewind": true,
      "finishExec": [
        {
          "damageRatio": "QUEST_EXEC_UNREGISTER_DYNAMIC_GROUP",
          "param": [
            "133408185",
            "0"
          ]
        },
        {
          "damageRatio": "QUEST_EXEC_UNREGISTER_DYNAMIC_GROUP",
          "param": [
            "133408815",
            "0"
          ]
        }
      ],
      "versionBegin": "",
      "versionEnd": ""
    },
    {
      "subId": 7406030,
      "mainId": 74060,
      "order": 32,
      "descTextMapHash": 1080839516,
      "finishCond": [
        {
          "damageRatio": "QUEST_CONTENT_LUA_NOTIFY",
          "param": [
            0,
            0
          ],
          "count": 1
        }
      ],
      "failCond": [
        {
          "damageRatio": "QUEST_CONTENT_LUA_NOTIFY",
          "param": [
            0,
            0
          ],
          "count": 1
        },
        {
          "damageRatio": "QUEST_CONTENT_ENTER_MY_WORLD",
          "param": [
            3,
            0
          ]
        }
      ],
      "guide": {
        "damageRatio": "QUEST_GUIDE_LOCATION",
        "param": [
          "[3_6492:4318.926,98.049,4722.757,0.000,139.198,0.000]",
          "15"
        ],
        "guideScene": 3,
        "guideStyle": "QUEST_GUIDE_STYLE_TARGET",
        "MLAHIFLGIGJ": ""
      },
      "guideHint": {
        "param1": ""
      },
      "isRewind": true,
      "finishExec": [
        {
          "damageRatio": "QUEST_EXEC_SET_QUEST_GLOBAL_VAR",
          "param": [
            "7406001",
            "4"
          ]
        }
      ],
      "failExec": [
        {
          "damageRatio": "QUEST_EXEC_ROLLBACK_QUEST",
          "param": [
            "7406029"
          ]
        }
      ],
      "versionBegin": "",
      "versionEnd": ""
    },
    {
      "subId": 7406031,
      "mainId": 74060,
      "order": 33,
      "descTextMapHash": 75608412,
      "finishCond": [
        {
          "damageRatio": "QUEST_CONTENT_COMPLETE_TALK",
          "param": [
            7406031,
            0
          ]
        }
      ],
      "guide": {
        "damageRatio": "QUEST_GUIDE_LOCATION",
        "param": [
          "[3_4983:4288.200,106.214,4734.928,0.000,123.339,0.000]",
          "30"
        ],
        "guideScene": 3,
        "guideStyle": "QUEST_GUIDE_STYLE_POINT",
        "guideLayer": "QUEST_GUIDE_LAYER_SCENE",
        "MLAHIFLGIGJ": ""
      },
      "guideHint": {
        "param1": ""
      },
      "isRewind": true,
      "versionBegin": "",
      "versionEnd": ""
    },
    {
      "subId": 7406032,
      "mainId": 74060,
      "order": 34,
      "descTextMapHash": 3848837188,
      "finishCond": [
        {
          "damageRatio": "QUEST_CONTENT_LUA_NOTIFY",
          "param": [
            0,
            0
          ],
          "count": 1
        }
      ],
      "failCond": [
        {
          "damageRatio": "QUEST_CONTENT_LUA_NOTIFY",
          "param": [
            0,
            0
          ],
          "count": 1
        },
        {
          "damageRatio": "QUEST_CONTENT_ENTER_MY_WORLD",
          "param": [
            3,
            0
          ]
        }
      ],
      "guide": {
        "damageRatio": "QUEST_GUIDE_LOCATION",
        "param": [
          "[3_6492:4318.926,98.049,4722.757,0.000,139.198,0.000]",
          "15"
        ],
        "guideScene": 3,
        "guideStyle": "QUEST_GUIDE_STYLE_TARGET",
        "MLAHIFLGIGJ": ""
      },
      "guideHint": {
        "param1": ""
      },
      "isRewind": true,
      "failExec": [
        {
          "damageRatio": "QUEST_EXEC_ROLLBACK_QUEST",
          "param": [
            "7406029"
          ]
        }
      ],
      "versionBegin": "",
      "versionEnd": ""
    },
    {
      "subId": 7406033,
      "mainId": 74060,
      "order": 35,
      "descTextMapHash": 3189978684,
      "JIFODJPFKDF": [
        340808
      ],
      "finishCond": [
        {
          "damageRatio": "QUEST_CONTENT_COMPLETE_TALK",
          "param": [
            7406033,
            0
          ]
        }
      ],
      "guide": {
        "damageRatio": "QUEST_GUIDE_LOCATION",
        "param": [
          "[3_6312:4306.098,101.909,4721.303,0.000,12.828,0.000]",
          "30"
        ],
        "guideScene": 3,
        "guideStyle": "QUEST_GUIDE_STYLE_POINT",
        "guideLayer": "QUEST_GUIDE_LAYER_SCENE",
        "MLAHIFLGIGJ": ""
      },
      "guideHint": {
        "param1": ""
      },
      "isRewind": true,
      "versionBegin": "",
      "versionEnd": ""
    },
    {
      "subId": 7406034,
      "mainId": 74060,
      "order": 36,
      "descTextMapHash": 1575565716,
      "JIFODJPFKDF": [
        340808
      ],
      "finishCond": [
        {
          "damageRatio": "QUEST_CONTENT_LUA_NOTIFY",
          "param": [
            0,
            0
          ],
          "count": 1
        }
      ],
      "guide": {
        "damageRatio": "QUEST_GUIDE_LOCATION",
        "param": [
          "[3_4932:4311.784,102.763,4718.904,0.000,326.912,0.000]"
        ],
        "guideScene": 3,
        "MLAHIFLGIGJ": ""
      },
      "showGuide": "QUEST_GUIDE_ITEM_DISABLE",
      "guideHint": {
        "param1": ""
      },
      "isRewind": true,
      "versionBegin": "",
      "versionEnd": ""
    },
    {
      "subId": 7406035,
      "mainId": 74060,
      "order": 37,
      "descTextMapHash": 4024915980,
      "JIFODJPFKDF": [
        340808
      ],
      "finishCond": [
        {
          "damageRatio": "QUEST_CONTENT_COMPLETE_TALK",
          "param": [
            7406035,
            0
          ]
        }
      ],
      "guide": {
        "damageRatio": "QUEST_GUIDE_LOCATION",
        "param": [
          "[3_5097:4307.538,101.879,4721.803,0.000,310.986,0.000]",
          "30"
        ],
        "guideScene": 3,
        "guideStyle": "QUEST_GUIDE_STYLE_TARGET",
        "guideLayer": "QUEST_GUIDE_LAYER_SCENE",
        "MLAHIFLGIGJ": ""
      },
      "guideHint": {
        "param1": ""
      },
      "finishParent": true,
      "isRewind": true,
      "finishExec": [
        {
          "damageRatio": "QUEST_EXEC_UNREGISTER_DYNAMIC_GROUP",
          "param": [
            "133408807",
            "1"
          ]
        },
        {
          "damageRatio": "QUEST_EXEC_UNREGISTER_DYNAMIC_GROUP",
          "param": [
            "133408796",
            "1"
          ]
        }
      ],
      "versionBegin": "",
      "versionEnd": ""
    },
    {
      "subId": 7406036,
      "mainId": 74060,
      "order": 38,
      "descTextMapHash": 766107116,
      "finishCond": [
        {
          "damageRatio": "QUEST_CONTENT_COMPLETE_TALK",
          "param": [
            7406036,
            0
          ]
        }
      ],
      "guide": {
        "damageRatio": "QUEST_GUIDE_NPC",
        "param": [
          "21073"
        ],
        "guideScene": 3,
        "guideStyle": "QUEST_GUIDE_STYLE_TARGET",
        "guideLayer": "QUEST_GUIDE_LAYER_SCENE",
        "MLAHIFLGIGJ": ""
      },
      "guideHint": {
        "param1": ""
      },
      "finishParent": true,
      "isRewind": true,
      "versionBegin": "",
      "versionEnd": ""
    },
    {
      "subId": 7406037,
      "mainId": 74060,
      "order": 23,
      "descTextMapHash": 3402213964,
      "finishCond": [
        {
          "damageRatio": "QUEST_CONTENT_COMPLETE_TALK",
          "param": [
            7406046,
            0
          ]
        }
      ],
      "guide": {
        "damageRatio": "QUEST_GUIDE_LOCATION",
        "param": [
          "[3_6279:4300.093,103.330,4741.499,0.000,277.780,0.000]"
        ],
        "guideScene": 3,
        "guideStyle": "QUEST_GUIDE_STYLE_TARGET",
        "guideLayer": "QUEST_GUIDE_LAYER_SCENE",
        "MLAHIFLGIGJ": ""
      },
      "guideHint": {
        "param1": ""
      },
      "isRewind": true,
      "versionBegin": "",
      "versionEnd": ""
    },
    {
      "subId": 7406038,
      "mainId": 74060,
      "order": 39,
      "descTextMapHash": 1597405996,
      "finishCond": [
        {
          "damageRatio": "QUEST_CONTENT_COMPLETE_TALK",
          "param": [
            7406041,
            0
          ]
        }
      ],
      "guide": {
        "damageRatio": "QUEST_GUIDE_NPC",
        "param": [
          "5262"
        ],
        "MLAHIFLGIGJ": ""
      },
      "guideHint": {
        "param1": ""
      },
      "isRewind": true,
      "versionBegin": "",
      "versionEnd": ""
    },
    {
      "subId": 7406039,
      "mainId": 74060,
      "order": 40,
      "descTextMapHash": 1954496156,
      "finishCond": [
        {
          "damageRatio": "QUEST_CONTENT_COMPLETE_TALK",
          "param": [
            7406041,
            0
          ]
        }
      ],
      "guide": {
        "damageRatio": "QUEST_GUIDE_NPC",
        "param": [
          "5262"
        ],
        "MLAHIFLGIGJ": ""
      },
      "guideHint": {
        "param1": ""
      },
      "isRewind": true,
      "versionBegin": "",
      "versionEnd": ""
    },
    {
      "subId": 7406040,
      "mainId": 74060,
      "order": 9,
      "descTextMapHash": 3760692244,
      "finishCond": [
        {
          "damageRatio": "QUEST_CONTENT_COMPLETE_TALK",
          "param": [
            7406008,
            0
          ]
        }
      ],
      "guide": {
        "damageRatio": "QUEST_GUIDE_LOCATION",
        "param": [
          "[3_4856:4372.852,124.874,4559.149,0.000,128.486,0.000]",
          "30"
        ],
        "guideScene": 3,
        "guideStyle": "QUEST_GUIDE_STYLE_POINT",
        "MLAHIFLGIGJ": ""
      },
      "guideHint": {
        "param1": ""
      },
      "isRewind": true,
      "versionBegin": "",
      "versionEnd": ""
    },
    {
      "subId": 7406041,
      "mainId": 74060,
      "order": 41,
      "descTextMapHash": 3204060108,
      "showType": "QUEST_HIDDEN",
      "finishCond": [
        {
          "damageRatio": "QUEST_CONTENT_GAME_TIME_TICK",
          "param": [
            1,
            0
          ]
        }
      ],
      "guide": {
        "MLAHIFLGIGJ": ""
      },
      "showGuide": "QUEST_GUIDE_ITEM_DISABLE",
      "guideHint": {
        "param1": ""
      },
      "failParentShow": "QUEST_HIDDEN",
      "isRewind": true,
      "versionBegin": "",
      "versionEnd": ""
    }
  ],
  "talks": [
    {
      "id": 7406002,
      "beginWay": "TALK_BEGIN_MANUAL",
      "activeMode": "PLAY_MODE_HOST",
      "beginCond": [
        {
          "type": "QUEST_COND_STATE_EQUAL",
          "_param": [
            "7406002",
            "2"
          ]
        }
      ],
      "priority": 5,
      "initDialog": 740600201,
      "npcId": [
        21073,
        5262
      ],
      "performCfg": "QuestDialogue/WQ/Fontaine_74060/Q7406002",
      "heroTalk": "TALK_HERO_MAIN",
      "questId": 74060,
      "assetIndex": 7399590790911707570,
      "prePerformCfg": "",
      "CHAKPMBJNAJ": [
        "[3_4970:4401.420,121.600,4656.050,0.000,36.870,0.000]",
        "[3_4971:4402.450,121.600,4657.690,0.000,211.247,0.000]",
        "[3_5517:4402.978,121.620,4656.692,0.000,306.435,0.000]",
        "[3_6008:4402.649,121.684,4655.856,0.000,299.268,0.000]"
      ]
    },
    {
      "id": 7406004,
      "beginWay": "TALK_BEGIN_MANUAL",
      "activeMode": "PLAY_MODE_HOST",
      "beginCond": [
        {
          "type": "QUEST_COND_STATE_EQUAL",
          "_param": [
            "7406004",
            "2"
          ]
        }
      ],
      "priority": 5,
      "initDialog": 740600401,
      "npcId": [
        21073,
        5210,
        21124,
        21225
      ],
      "performCfg": "QuestDialogue/WQ/Fontaine_74060/Q7406004",
      "heroTalk": "TALK_HERO_MAIN",
      "questId": 74060,
      "assetIndex": 5027406398035850265,
      "prePerformCfg": "",
      "CHAKPMBJNAJ": [
        "[3_4972:4474.598,121.600,4671.905,0.000,18.587,0.000]",
        "[3_4973:4475.389,121.600,4673.932,0.000,217.516,0.000]",
        "[3_4974:4473.794,121.600,4672.428,0.000,51.336,0.000]",
        "[3_5003:4473.334,121.600,4673.726,0.000,95.806,0.000]",
        "[3_6009:4473.259,121.600,4673.233,0.000,70.289,0.000]"
      ]
    },
    {
      "id": 7406005,
      "beginWay": "TALK_BEGIN_MANUAL",
      "activeMode": "PLAY_MODE_HOST",
      "beginCond": [
        {
          "type": "QUEST_COND_STATE_EQUAL",
          "_param": [
            "7406005",
            "2"
          ]
        }
      ],
      "priority": 5,
      "initDialog": 740600501,
      "npcId": [
        21225,
        5262,
        21124
      ],
      "performCfg": "QuestDialogue/WQ/Fontaine_74060/Q7406005",
      "heroTalk": "TALK_HERO_MAIN",
      "questId": 74060,
      "assetIndex": 12495069587588365466,
      "prePerformCfg": "",
      "CHAKPMBJNAJ": [
        "[3_5041:4298.600,97.991,4708.115,0.000,334.019,0.000]",
        "[3_5042:4299.372,97.761,4708.513,0.000,306.054,0.000]",
        "[3_6011:4299.476,97.880,4709.722,0.000,253.046,0.000]",
        "[3_6012:4299.726,97.880,4708.992,0.000,284.483,0.000]",
        "[3_6274:4298.043,97.880,4709.368,0.000,117.501,0.000]"
      ]
    },
    {
      "id": 7406007,
      "beginWay": "TALK_BEGIN_MANUAL",
      "activeMode": "PLAY_MODE_HOST",
      "beginCond": [
        {
          "type": "QUEST_COND_STATE_EQUAL",
          "_param": [
            "7406007",
            "2"
          ]
        }
      ],
      "priority": 5,
      "initDialog": 740600701,
      "npcId": [
        5210,
        21124,
        21225
      ],
      "performCfg": "QuestDialogue/WQ/Fontaine_74060/Q7406007",
      "heroTalk": "TALK_HERO_MAIN",
      "questId": 74060,
      "assetIndex": 15014301789394603672,
      "prePerformCfg": "",
      "CHAKPMBJNAJ": [
        "[3_4976:4308.309,97.859,4704.837,0.000,21.838,0.000]",
        "[3_4978:4309.136,97.779,4707.511,0.000,213.247,0.000]",
        "[3_6013:4309.850,97.860,4705.243,0.000,310.724,0.000]",
        "[3_6014:4310.201,97.885,4705.943,0.000,317.572,0.000]"
      ]
    },
    {
      "id": 7406008,
      "beginWay": "TALK_BEGIN_MANUAL",
      "activeMode": "PLAY_MODE_HOST",
      "beginCond": [
        {
          "type": "QUEST_COND_STATE_EQUAL",
          "_param": [
            "7406040",
            "2"
          ]
        }
      ],
      "priority": 5,
      "initDialog": 740600801,
      "npcId": [
        5210,
        21073,
        21124
      ],
      "performCfg": "QuestDialogue/WQ/Fontaine_74060/Q7406008",
      "questId": 74060,
      "assetIndex": 5135759343950644372,
      "prePerformCfg": "",
      "CHAKPMBJNAJ": [
        "[3_6484:4373.208,124.874,4558.245,0.000,125.155,0.000]",
        "[3_6485:4374.680,124.874,4557.280,0.000,303.995,0.000]",
        "[3_6486:4373.694,124.874,4556.652,0.000,328.858,0.000]",
        "[3_6487:4374.794,124.874,4558.222,0.000,277.193,0.000]"
      ]
    },
    {
      "id": 7406010,
      "beginWay": "TALK_BEGIN_MANUAL",
      "activeMode": "PLAY_MODE_HOST",
      "beginCond": [
        {
          "type": "QUEST_COND_STATE_EQUAL",
          "_param": [
            "7406010",
            "2"
          ]
        }
      ],
      "priority": 5,
      "initDialog": 740601001,
      "npcId": [
        5210,
        21073,
        21124
      ],
      "performCfg": "QuestDialogue/WQ/Fontaine_74060/Q7406010",
      "heroTalk": "TALK_HERO_MAIN",
      "questId": 74060,
      "assetIndex": 7412805423404717145,
      "prePerformCfg": "",
      "CHAKPMBJNAJ": [
        "[3_4856:4372.852,124.874,4559.149,0.000,128.486,0.000]",
        "[3_4979:4373.061,124.874,4557.453,0.000,335.624,0.000]",
        "[3_4980:4374.067,124.874,4558.922,0.000,272.840,0.000]",
        "[3_4981:4373.817,124.874,4557.994,0.000,302.325,0.000]",
        "[3_6015:4372.252,124.874,4558.460,0.000,110.871,0.000]"
      ]
    },
    {
      "id": 7406011,
      "beginWay": "TALK_BEGIN_MANUAL",
      "activeMode": "PLAY_MODE_HOST",
      "beginCondComb": "LOGIC_AND",
      "beginCond": [
        {
          "type": "QUEST_COND_STATE_EQUAL",
          "_param": [
            "7406011",
            "2"
          ]
        },
        {
          "type": "QUEST_COND_QUEST_VAR_EQUAL",
          "_param": [
            "1",
            "0",
            "74060"
          ]
        }
      ],
      "priority": 5,
      "initDialog": 740601101,
      "npcId": [
        5262,
        21124,
        21225
      ],
      "performCfg": "QuestDialogue/WQ/Fontaine_74060/Q7406011",
      "heroTalk": "TALK_HERO_MAIN",
      "questId": 74060,
      "assetIndex": 14798267170393905547,
      "prePerformCfg": "",
      "finishExec": [
        {
          "damageRatio": "TALK_EXEC_SET_QUEST_VAR",
          "param": [
            "1",
            "1",
            "74060"
          ]
        }
      ],
      "CHAKPMBJNAJ": [
        "[3_5056:4298.854,98.023,4707.946,0.000,333.720,0.000]",
        "[3_5057:4299.812,98.300,4709.643,0.000,253.373,0.000]",
        "[3_6017:4299.668,98.405,4708.471,0.000,297.027,0.000]",
        "[3_6018:4299.844,98.342,4709.021,0.000,276.765,0.000]",
        "[3_6274:4298.043,97.880,4709.368,0.000,117.501,0.000]"
      ]
    },
    {
      "id": 7406013,
      "beginWay": "TALK_BEGIN_MANUAL",
      "activeMode": "PLAY_MODE_HOST",
      "beginCond": [
        {
          "type": "QUEST_COND_STATE_EQUAL",
          "_param": [
            "7406013",
            "2"
          ]
        }
      ],
      "priority": 5,
      "initDialog": 740601301,
      "npcId": [
        5262
      ],
      "performCfg": "QuestDialogue/WQ/Fontaine_74060/Q7406013",
      "heroTalk": "TALK_HERO_MAIN",
      "questId": 74060,
      "assetIndex": 11764896772844753839,
      "prePerformCfg": "",
      "CHAKPMBJNAJ": [
        "[3_4983:4288.200,106.214,4734.928,0.000,123.339,0.000]",
        "[3_5098:4299.468,103.752,4741.988,0.000,252.993,0.000]"
      ]
    },
    {
      "id": 7406014,
      "beginWay": "TALK_BEGIN_MANUAL",
      "activeMode": "PLAY_MODE_HOST",
      "beginCond": [
        {
          "type": "QUEST_COND_STATE_EQUAL",
          "_param": [
            "7406014",
            "2"
          ]
        }
      ],
      "priority": 5,
      "initDialog": 740601401,
      "npcId": [
        21124,
        21073
      ],
      "performCfg": "QuestDialogue/WQ/Fontaine_74060/Q7406014",
      "heroTalk": "TALK_HERO_MAIN",
      "questId": 74060,
      "assetIndex": 13906528837520218325,
      "prePerformCfg": "",
      "CHAKPMBJNAJ": [
        "[3_5058:4324.251,97.850,4724.418,0.000,246.420,0.000]",
        "[3_5059:4324.900,97.850,4722.550,0.000,302.568,0.000]",
        "[3_6019:4323.208,97.880,4723.510,0.000,97.237,0.000]",
        "[3_6020:4323.442,97.880,4722.616,0.000,76.964,0.000]"
      ]
    },
    {
      "id": 7406016,
      "beginWay": "TALK_BEGIN_MANUAL",
      "activeMode": "PLAY_MODE_HOST",
      "beginCond": [
        {
          "type": "QUEST_COND_STATE_EQUAL",
          "_param": [
            "7406016",
            "2"
          ]
        }
      ],
      "priority": 5,
      "initDialog": 740601601,
      "npcId": [
        21073,
        21124
      ],
      "performCfg": "QuestDialogue/WQ/Fontaine_74060/Q7406016",
      "heroTalk": "TALK_HERO_MAIN",
      "questId": 74060,
      "assetIndex": 3720131413219719698,
      "prePerformCfg": "",
      "CHAKPMBJNAJ": [
        "[3_4984:4370.542,179.758,4783.543,0.000,78.782,0.000]",
        "[3_4985:4370.585,179.666,4784.955,0.000,101.919,0.000]",
        "[3_5119:4371.727,179.670,4783.968,0.000,273.861,0.000]",
        "[3_6021:4371.747,179.771,4784.499,0.000,266.362,0.000]"
      ]
    },
    {
      "id": 7406018,
      "beginWay": "TALK_BEGIN_MANUAL",
      "activeMode": "PLAY_MODE_HOST",
      "beginCond": [
        {
          "type": "QUEST_COND_STATE_EQUAL",
          "_param": [
            "7406018",
            "2"
          ]
        }
      ],
      "priority": 5,
      "initDialog": 740601801,
      "npcId": [
        21124,
        21073
      ],
      "performCfg": "QuestDialogue/WQ/Fontaine_74060/Q7406018",
      "heroTalk": "TALK_HERO_MAIN",
      "questId": 74060,
      "assetIndex": 6131826092278416886,
      "prePerformCfg": "",
      "CHAKPMBJNAJ": [
        "[3_4984:4370.542,179.758,4783.543,0.000,78.782,0.000]",
        "[3_4985:4370.585,179.666,4784.955,0.000,101.919,0.000]",
        "[3_5119:4371.727,179.670,4783.968,0.000,273.861,0.000]",
        "[3_6021:4371.747,179.771,4784.499,0.000,266.362,0.000]"
      ]
    },
    {
      "id": 7406019,
      "beginWay": "TALK_BEGIN_MANUAL",
      "activeMode": "PLAY_MODE_HOST",
      "beginCond": [
        {
          "type": "QUEST_COND_STATE_EQUAL",
          "_param": [
            "7406019",
            "2"
          ]
        }
      ],
      "priority": 5,
      "initDialog": 740601901,
      "npcId": [
        21073
      ],
      "performCfg": "QuestDialogue/WQ/Fontaine_74060/Q7406019",
      "questId": 74060,
      "assetIndex": 3394540699585425707,
      "prePerformCfg": ""
    },
    {
      "id": 7406020,
      "beginWay": "TALK_BEGIN_MANUAL",
      "activeMode": "PLAY_MODE_HOST",
      "beginCond": [
        {
          "type": "QUEST_COND_STATE_EQUAL",
          "_param": [
            "7406020",
            "2"
          ]
        },
        {
          "type": "QUEST_COND_QUEST_VAR_EQUAL",
          "_param": [
            "2",
            "0",
            "74060"
          ]
        }
      ],
      "priority": 5,
      "initDialog": 740602001,
      "npcId": [
        21124,
        5262
      ],
      "performCfg": "QuestDialogue/WQ/Fontaine_74060/Q7406020",
      "heroTalk": "TALK_HERO_MAIN",
      "questId": 74060,
      "assetIndex": 12993739892436945253,
      "prePerformCfg": "",
      "finishExec": [
        {
          "damageRatio": "TALK_EXEC_SET_QUEST_VAR",
          "param": [
            "2",
            "1",
            "74060"
          ]
        }
      ],
      "CHAKPMBJNAJ": [
        "[3_6492:4318.926,98.049,4722.757,0.000,139.198,0.000]",
        "[3_6493:4319.481,97.880,4721.060,0.000,333.680,0.000]",
        "[3_6496:4320.527,97.796,4721.474,0.000,318.862,0.000]",
        "[3_6497:4321.068,97.796,4721.934,0.000,287.180,0.000]"
      ]
    },
    {
      "id": 7406023,
      "beginWay": "TALK_BEGIN_MANUAL",
      "activeMode": "PLAY_MODE_HOST",
      "beginCond": [
        {
          "type": "QUEST_COND_STATE_EQUAL",
          "_param": [
            "7406023",
            "2"
          ]
        }
      ],
      "priority": 5,
      "initDialog": 740602301,
      "npcId": [
        21096,
        21073,
        21124
      ],
      "performCfg": "QuestDialogue/WQ/Fontaine_74060/Q7406023",
      "heroTalk": "TALK_HERO_MAIN",
      "questId": 74060,
      "assetIndex": 11340902504476504178,
      "prePerformCfg": "",
      "CHAKPMBJNAJ": [
        "[3_4987:4410.426,121.300,4656.282,0.000,209.436,0.000]",
        "[3_4988:4409.769,121.300,4654.094,0.000,34.869,0.000]",
        "[3_4989:4411.826,121.300,4655.406,0.000,236.920,0.000]",
        "[3_6027:4408.639,121.319,4656.116,0.000,157.500,0.000]",
        "[3_6028:4407.830,121.300,4655.530,0.000,135.252,0.000]"
      ]
    },
    {
      "id": 7406025,
      "beginWay": "TALK_BEGIN_MANUAL",
      "activeMode": "PLAY_MODE_HOST",
      "beginCond": [
        {
          "type": "QUEST_COND_STATE_EQUAL",
          "_param": [
            "7406025",
            "2"
          ]
        }
      ],
      "priority": 5,
      "initDialog": 740602501,
      "npcId": [
        21073,
        21124
      ],
      "performCfg": "QuestDialogue/WQ/Fontaine_74060/Q7406025",
      "heroTalk": "TALK_HERO_MAIN",
      "questId": 74060,
      "assetIndex": 15238556970346415039,
      "prePerformCfg": "",
      "CHAKPMBJNAJ": [
        "[3_4990:4408.690,5.986,4620.891,0.000,79.529,0.000]",
        "[3_4991:4408.503,5.991,4622.449,0.000,97.436,0.000]",
        "[3_5525:4410.198,5.837,4621.689,0.000,279.144,0.000]",
        "[3_6029:4410.162,5.960,4622.509,0.000,249.773,0.000]"
      ]
    },
    {
      "id": 7406027,
      "beginWay": "TALK_BEGIN_MANUAL",
      "activeMode": "PLAY_MODE_HOST",
      "beginCondComb": "LOGIC_AND",
      "beginCond": [
        {
          "type": "QUEST_COND_STATE_EQUAL",
          "_param": [
            "7406027",
            "2"
          ]
        }
      ],
      "priority": 5,
      "initDialog": 740602701,
      "npcId": [
        21124,
        21073
      ],
      "performCfg": "QuestDialogue/WQ/Fontaine_74060/Q7406027",
      "questId": 74060,
      "assetIndex": 1594511551664811571,
      "prePerformCfg": "",
      "CHAKPMBJNAJ": [
        "[3_4990:4408.690,5.986,4620.891,0.000,79.529,0.000]",
        "[3_4991:4408.503,5.991,4622.449,0.000,97.436,0.000]",
        "[3_5525:4410.198,5.837,4621.689,0.000,279.144,0.000]",
        "[3_6029:4410.162,5.960,4622.509,0.000,249.773,0.000]"
      ]
    },
    {
      "id": 7406028,
      "beginWay": "TALK_BEGIN_MANUAL",
      "activeMode": "PLAY_MODE_HOST",
      "beginCond": [
        {
          "type": "QUEST_COND_STATE_EQUAL",
          "_param": [
            "7406028",
            "2"
          ]
        }
      ],
      "priority": 5,
      "initDialog": 740602801,
      "npcId": [
        21073
      ],
      "performCfg": "QuestDialogue/WQ/Fontaine_74060/Q7406028",
      "questId": 74060,
      "assetIndex": 12095271463097911264,
      "prePerformCfg": ""
    },
    {
      "id": 7406029,
      "beginWay": "TALK_BEGIN_MANUAL",
      "activeMode": "PLAY_MODE_HOST",
      "beginCond": [
        {
          "type": "QUEST_COND_STATE_EQUAL",
          "_param": [
            "7406029",
            "2"
          ]
        },
        {
          "type": "QUEST_COND_QUEST_VAR_EQUAL",
          "_param": [
            "3",
            "0",
            "74060"
          ]
        }
      ],
      "priority": 5,
      "initDialog": 740602901,
      "npcId": [
        21124,
        5262
      ],
      "performCfg": "QuestDialogue/WQ/Fontaine_74060/Q7406029",
      "heroTalk": "TALK_HERO_MAIN",
      "questId": 74060,
      "assetIndex": 2848815896718610199,
      "prePerformCfg": "",
      "finishExec": [
        {
          "damageRatio": "TALK_EXEC_SET_QUEST_VAR",
          "param": [
            "3",
            "1",
            "74060"
          ]
        }
      ],
      "CHAKPMBJNAJ": [
        "[3_6492:4318.926,98.049,4722.757,0.000,139.198,0.000]",
        "[3_6493:4319.481,97.880,4721.060,0.000,333.680,0.000]",
        "[3_6496:4320.527,97.796,4721.474,0.000,318.862,0.000]",
        "[3_6497:4321.068,97.796,4721.934,0.000,287.180,0.000]"
      ]
    },
    {
      "id": 7406031,
      "beginWay": "TALK_BEGIN_MANUAL",
      "activeMode": "PLAY_MODE_HOST",
      "beginCond": [
        {
          "type": "QUEST_COND_STATE_EQUAL",
          "_param": [
            "7406031",
            "2"
          ]
        }
      ],
      "priority": 5,
      "initDialog": 740603101,
      "npcId": [
        5262
      ],
      "performCfg": "QuestDialogue/WQ/Fontaine_74060/Q7406031",
      "heroTalk": "TALK_HERO_MAIN",
      "questId": 74060,
      "assetIndex": 16621046959278238429,
      "prePerformCfg": "",
      "CHAKPMBJNAJ": [
        "[3_4983:4288.200,106.214,4734.928,0.000,123.339,0.000]",
        "[3_5098:4299.468,103.752,4741.988,0.000,252.993,0.000]"
      ]
    },
    {
      "id": 7406033,
      "beginWay": "TALK_BEGIN_MANUAL",
      "activeMode": "PLAY_MODE_HOST",
      "beginCond": [
        {
          "type": "QUEST_COND_STATE_EQUAL",
          "_param": [
            "7406033",
            "2"
          ]
        }
      ],
      "priority": 5,
      "initDialog": 740603301,
      "npcId": [
        5262,
        21124,
        21225,
        21096
      ],
      "performCfg": "QuestDialogue/WQ/Fontaine_74060/Q7406033",
      "heroTalk": "TALK_HERO_MAIN",
      "questId": 74060,
      "assetIndex": 5817321949219213549,
      "prePerformCfg": "",
      "CHAKPMBJNAJ": [
        "[3_4996:4306.824,101.683,4723.885,0.000,217.032,0.000]",
        "[3_6263:4314.316,97.880,4706.600,0.000,289.017,0.000]",
        "[3_6264:4307.120,101.861,4720.070]",
        "[3_6265:4304.405,101.937,4721.337,0.000,39.571,0.000]",
        "[3_6266:4307.679,101.937,4720.050,0.000,342.551,0.000]",
        "[3_6267:4305.831,101.937,4720.188,0.000,12.559,0.000]",
        "[3_6519:4310.630,101.880,4725.900,0.000,240.848,0.000]"
      ]
    },
    {
      "id": 7406035,
      "beginWay": "TALK_BEGIN_MANUAL",
      "activeMode": "PLAY_MODE_HOST",
      "beginCond": [
        {
          "type": "QUEST_COND_STATE_EQUAL",
          "_param": [
            "7406035",
            "2"
          ]
        }
      ],
      "priority": 5,
      "initDialog": 740603501,
      "npcId": [
        21096,
        5262,
        21124,
        21225
      ],
      "performCfg": "QuestDialogue/WQ/Fontaine_74060/Q7406035",
      "heroTalk": "TALK_HERO_MAIN",
      "questId": 74060,
      "assetIndex": 9125621908828242195,
      "prePerformCfg": "",
      "CHAKPMBJNAJ": [
        "[3_4998:4304.634,101.879,4722.188,0.000,114.019,0.000]",
        "[3_4999:4306.658,101.879,4724.230,0.000,166.405,0.000]",
        "[3_5097:4307.538,101.879,4721.803,0.000,310.986,0.000]",
        "[3_5120:4305.613,101.879,4723.273,0.000,124.180,0.000]",
        "[3_6078:4305.137,101.909,4722.792,0.000,119.364,0.000]",
        "[3_6312:4306.098,101.909,4721.303,0.000,12.828,0.000]"
      ]
    },
    {
      "id": 7406036,
      "beginWay": "TALK_BEGIN_MANUAL",
      "activeMode": "PLAY_MODE_HOST",
      "beginCond": [
        {
          "type": "QUEST_COND_STATE_EQUAL",
          "_param": [
            "99902",
            "3"
          ]
        }
      ],
      "priority": 5,
      "initDialog": 740603601,
      "npcId": [
        21073,
        21124
      ],
      "performCfg": "QuestDialogue/WQ/Fontaine_74060/Q7406036",
      "questId": 74060,
      "assetIndex": 11219958873359550470,
      "prePerformCfg": "",
      "CHAKPMBJNAJ": [
        "[3_4998:4304.634,101.879,4722.188,0.000,114.019,0.000]"
      ]
    },
    {
      "id": 7406037,
      "beginWay": "TALK_BEGIN_MANUAL",
      "activeMode": "PLAY_MODE_HOST",
      "beginCondComb": "LOGIC_AND",
      "beginCond": [
        {
          "type": "QUEST_COND_STATE_EQUAL",
          "_param": [
            "99902",
            "3"
          ]
        },
        {
          "type": "QUEST_COND_STATE_EQUAL",
          "_param": [
            "7406006",
            "2"
          ]
        }
      ],
      "priority": 5,
      "initDialog": 740603701,
      "npcId": [
        5262
      ],
      "performCfg": "",
      "heroTalk": "TALK_HERO_MAIN",
      "questId": 74060,
      "assetIndex": 6477908545289494227,
      "prePerformCfg": ""
    },
    {
      "id": 7406038,
      "beginWay": "TALK_BEGIN_MANUAL",
      "activeMode": "PLAY_MODE_HOST",
      "beginCondComb": "LOGIC_AND",
      "beginCond": [
        {
          "type": "QUEST_COND_STATE_EQUAL",
          "_param": [
            "7406005",
            "3"
          ]
        },
        {
          "type": "QUEST_COND_STATE_EQUAL",
          "_param": [
            "7406006",
            "2"
          ]
        }
      ],
      "priority": 5,
      "initDialog": 740603801,
      "npcId": [
        21124
      ],
      "performCfg": "",
      "heroTalk": "TALK_HERO_MAIN",
      "questId": 74060,
      "assetIndex": 18388361743867773997,
      "prePerformCfg": ""
    },
    {
      "id": 7406039,
      "beginWay": "TALK_BEGIN_MANUAL",
      "activeMode": "PLAY_MODE_HOST",
      "beginCondComb": "LOGIC_AND",
      "beginCond": [
        {
          "type": "QUEST_COND_STATE_EQUAL",
          "_param": [
            "7406005",
            "3"
          ]
        },
        {
          "type": "QUEST_COND_STATE_EQUAL",
          "_param": [
            "7406006",
            "2"
          ]
        }
      ],
      "priority": 5,
      "initDialog": 740603901,
      "npcId": [
        5210
      ],
      "performCfg": "",
      "heroTalk": "TALK_HERO_MAIN",
      "questId": 74060,
      "assetIndex": 52208712744799667,
      "prePerformCfg": ""
    },
    {
      "id": 7406040,
      "beginWay": "TALK_BEGIN_MANUAL",
      "activeMode": "PLAY_MODE_HOST",
      "beginCondComb": "LOGIC_AND",
      "beginCond": [
        {
          "type": "QUEST_COND_STATE_EQUAL",
          "_param": [
            "7406005",
            "3"
          ]
        },
        {
          "type": "QUEST_COND_STATE_EQUAL",
          "_param": [
            "7406006",
            "2"
          ]
        }
      ],
      "priority": 5,
      "initDialog": 740604001,
      "npcId": [
        21225
      ],
      "performCfg": "",
      "heroTalk": "TALK_HERO_MAIN",
      "questId": 74060,
      "assetIndex": 1453315163837671114,
      "prePerformCfg": ""
    },
    {
      "id": 7406041,
      "beginWay": "TALK_BEGIN_MANUAL",
      "activeMode": "PLAY_MODE_HOST",
      "beginCondComb": "LOGIC_AND",
      "beginCond": [
        {
          "type": "QUEST_COND_STATE_EQUAL",
          "_param": [
            "7406011",
            "2"
          ]
        },
        {
          "type": "QUEST_COND_QUEST_VAR_EQUAL",
          "_param": [
            "1",
            "1",
            "74060"
          ]
        }
      ],
      "priority": 4,
      "initDialog": 740604101,
      "npcId": [
        5262
      ],
      "performCfg": "QuestDialogue/WQ/Fontaine_74060/Q7406041",
      "heroTalk": "TALK_HERO_MAIN",
      "questId": 74060,
      "assetIndex": 10190729032102896368,
      "prePerformCfg": "",
      "CHAKPMBJNAJ": [
        "[3_5042:4299.372,97.761,4708.513,0.000,306.054,0.000]",
        "[3_6274:4298.043,97.880,4709.368,0.000,117.501,0.000]"
      ]
    },
    {
      "id": 7406042,
      "beginWay": "TALK_BEGIN_MANUAL",
      "activeMode": "PLAY_MODE_HOST",
      "beginCondComb": "LOGIC_AND",
      "beginCond": [
        {
          "type": "QUEST_COND_STATE_EQUAL",
          "_param": [
            "7406011",
            "2"
          ]
        },
        {
          "type": "QUEST_COND_QUEST_VAR_EQUAL",
          "_param": [
            "1",
            "1",
            "74060"
          ]
        }
      ],
      "priority": 5,
      "initDialog": 740604201,
      "npcId": [
        21124
      ],
      "performCfg": "",
      "heroTalk": "TALK_HERO_MAIN",
      "questId": 74060,
      "assetIndex": 6333752145837598533,
      "prePerformCfg": ""
    },
    {
      "id": 7406043,
      "beginWay": "TALK_BEGIN_MANUAL",
      "activeMode": "PLAY_MODE_HOST",
      "beginCondComb": "LOGIC_AND",
      "beginCond": [
        {
          "type": "QUEST_COND_STATE_EQUAL",
          "_param": [
            "7406011",
            "2"
          ]
        },
        {
          "type": "QUEST_COND_QUEST_VAR_EQUAL",
          "_param": [
            "1",
            "1",
            "74060"
          ]
        }
      ],
      "priority": 5,
      "initDialog": 740604301,
      "npcId": [
        21225
      ],
      "performCfg": "",
      "heroTalk": "TALK_HERO_MAIN",
      "questId": 74060,
      "assetIndex": 9020831796900954929,
      "prePerformCfg": ""
    },
    {
      "id": 7406044,
      "beginWay": "TALK_BEGIN_MANUAL",
      "activeMode": "PLAY_MODE_HOST",
      "beginCondComb": "LOGIC_AND",
      "beginCond": [
        {
          "type": "QUEST_COND_STATE_EQUAL",
          "_param": [
            "7406020",
            "2"
          ]
        },
        {
          "type": "QUEST_COND_QUEST_VAR_EQUAL",
          "_param": [
            "2",
            "1",
            "74060"
          ]
        }
      ],
      "priority": 4,
      "initDialog": 740604401,
      "npcId": [
        5262
      ],
      "performCfg": "QuestDialogue/WQ/Fontaine_74060/Q7406044",
      "heroTalk": "TALK_HERO_MAIN",
      "questId": 74060,
      "assetIndex": 10451027222920839111,
      "prePerformCfg": "",
      "CHAKPMBJNAJ": [
        "[3_6492:4318.926,98.049,4722.757,0.000,139.198,0.000]",
        "[3_6496:4320.527,97.796,4721.474,0.000,318.862,0.000]"
      ]
    },
    {
      "id": 7406045,
      "beginWay": "TALK_BEGIN_MANUAL",
      "activeMode": "PLAY_MODE_HOST",
      "beginCondComb": "LOGIC_AND",
      "beginCond": [
        {
          "type": "QUEST_COND_STATE_EQUAL",
          "_param": [
            "7406020",
            "2"
          ]
        },
        {
          "type": "QUEST_COND_QUEST_VAR_EQUAL",
          "_param": [
            "2",
            "1",
            "74060"
          ]
        }
      ],
      "priority": 5,
      "initDialog": 740604501,
      "npcId": [
        21124
      ],
      "performCfg": "",
      "heroTalk": "TALK_HERO_MAIN",
      "questId": 74060,
      "assetIndex": 14066904142615555853,
      "prePerformCfg": ""
    },
    {
      "id": 7406046,
      "beginWay": "TALK_BEGIN_MANUAL",
      "activeMode": "PLAY_MODE_HOST",
      "beginCond": [
        {
          "type": "QUEST_COND_STATE_EQUAL",
          "_param": [
            "7406037",
            "2"
          ]
        }
      ],
      "priority": 5,
      "initDialog": 740604601,
      "npcId": [
        5262
      ],
      "performCfg": "QuestDialogue/WQ/Fontaine_74060/Q7406046",
      "heroTalk": "TALK_HERO_MAIN",
      "questId": 74060,
      "assetIndex": 12259431657518051142,
      "prePerformCfg": "",
      "CHAKPMBJNAJ": [
        "[3_4983:4288.200,106.214,4734.928,0.000,123.339,0.000]",
        "[3_5098:4299.468,103.752,4741.988,0.000,252.993,0.000]",
        "[3_6279:4300.093,103.330,4741.499,0.000,277.780,0.000]"
      ]
    },
    {
      "id": 7406047,
      "beginWay": "TALK_BEGIN_MANUAL",
      "activeMode": "PLAY_MODE_HOST",
      "beginCondComb": "LOGIC_AND",
      "beginCond": [
        {
          "type": "QUEST_COND_STATE_EQUAL",
          "_param": [
            "7406029",
            "2"
          ]
        },
        {
          "type": "QUEST_COND_QUEST_VAR_EQUAL",
          "_param": [
            "3",
            "1",
            "74060"
          ]
        }
      ],
      "priority": 4,
      "initDialog": 740604701,
      "npcId": [
        5262
      ],
      "performCfg": "QuestDialogue/WQ/Fontaine_74060/Q7406047",
      "heroTalk": "TALK_HERO_MAIN",
      "questId": 74060,
      "assetIndex": 12687965729181082302,
      "prePerformCfg": "",
      "CHAKPMBJNAJ": [
        "[3_6492:4318.926,98.049,4722.757,0.000,139.198,0.000]",
        "[3_6496:4320.527,97.796,4721.474,0.000,318.862,0.000]"
      ]
    },
    {
      "id": 7406048,
      "beginWay": "TALK_BEGIN_MANUAL",
      "activeMode": "PLAY_MODE_HOST",
      "beginCondComb": "LOGIC_AND",
      "beginCond": [
        {
          "type": "QUEST_COND_STATE_EQUAL",
          "_param": [
            "7406029",
            "2"
          ]
        },
        {
          "type": "QUEST_COND_QUEST_VAR_EQUAL",
          "_param": [
            "3",
            "1",
            "74060"
          ]
        }
      ],
      "priority": 6,
      "initDialog": 740604801,
      "npcId": [
        21124
      ],
      "performCfg": "QuestDialogue/WQ/Fontaine_74060/Q7406048",
      "heroTalk": "TALK_HERO_MAIN",
      "questId": 74060,
      "assetIndex": 7646721730327507326,
      "prePerformCfg": ""
    },
    {
      "id": 7406051,
      "beginWay": "TALK_BEGIN_MANUAL",
      "activeMode": "PLAY_MODE_HOST",
      "beginCond": [
        {
          "type": "QUEST_COND_QUEST_GLOBAL_VAR_EQUAL",
          "_param": [
            "7406001",
            "1"
          ]
        }
      ],
      "priority": 6,
      "initDialog": 740605101,
      "npcId": [
        5296
      ],
      "performCfg": "QuestDialogue/WQ/Fontaine_74060/Q7406051",
      "questId": 74060,
      "assetIndex": 18039454328287423232,
      "prePerformCfg": ""
    },
    {
      "id": 7406052,
      "beginWay": "TALK_BEGIN_MANUAL",
      "activeMode": "PLAY_MODE_HOST",
      "beginCond": [
        {
          "type": "QUEST_COND_QUEST_GLOBAL_VAR_EQUAL",
          "_param": [
            "7406001",
            "2"
          ]
        }
      ],
      "priority": 6,
      "initDialog": 740605201,
      "npcId": [
        5296
      ],
      "performCfg": "QuestDialogue/WQ/Fontaine_74060/Q7406052",
      "questId": 74060,
      "assetIndex": 5156750969478864460,
      "prePerformCfg": ""
    },
    {
      "id": 7406053,
      "beginWay": "TALK_BEGIN_MANUAL",
      "activeMode": "PLAY_MODE_HOST",
      "beginCond": [
        {
          "type": "QUEST_COND_QUEST_GLOBAL_VAR_EQUAL",
          "_param": [
            "7406001",
            "3"
          ]
        }
      ],
      "priority": 6,
      "initDialog": 740605301,
      "npcId": [
        5296
      ],
      "performCfg": "QuestDialogue/WQ/Fontaine_74060/Q7406053",
      "questId": 74060,
      "assetIndex": 4543643409218789145,
      "prePerformCfg": ""
    }
  ],
  "preloadLuaList": [
    13623708174049051284,
    17143893228120501740,
    11379628618425460552,
    16514307146451464548,
    11064015635009301748
  ],
  "forcePreloadLuaList": [
    11742705827266456772
  ],
  "freeStyleDic": {
    "5262": [
      4502,
      4010,
      1230
    ],
    "21073": [
      1190
    ],
    "21124": [
      1190
    ]
  },
  "dialogList": [
    {
      "id": 740602524,
      "nextDialogs": [
        740602525
      ],
      "talkRole": {
        "type": "TALK_ROLE_NPC",
        "_id": "21073"
      },
      "talkContentTextMapHash": 2193844306,
      "talkAssetPath": "",
      "talkAssetPathAlter": "",
      "talkAudioName": "",
      "actionBefore": "",
      "actionWhile": "",
      "actionAfter": "",
      "optionIcon": "",
      "iconPath": ""
    },
    {
      "id": 740602525,
      "nextDialogs": [
        740602526
      ],
      "talkRole": {
        "type": "TALK_ROLE_NPC",
        "_id": "1005"
      },
      "talkContentTextMapHash": 1894430634,
      "talkAssetPath": "",
      "talkAssetPathAlter": "",
      "talkAudioName": "",
      "actionBefore": "",
      "actionWhile": "",
      "actionAfter": "",
      "optionIcon": "",
      "iconPath": ""
    },
    {
      "id": 740602526,
      "talkRole": {
        "type": "TALK_ROLE_NPC",
        "_id": "21124"
      },
      "talkContentTextMapHash": 1984575570,
      "talkAssetPath": "",
      "talkAssetPathAlter": "",
      "talkAudioName": "",
      "actionBefore": "",
      "actionWhile": "",
      "actionAfter": "",
      "optionIcon": "",
      "iconPath": ""
    }
  ]
}