{
  "id": 74098,
  "damageRatio": "WQ",
  "activeMode": "PLAY_MODE_ALL",
  "descTextMapHash": 3935860847,
  "luaPath": "Actor/Quest/WQ74098",
  "showType": "QUEST_HIDDEN",
  "subQuests": [
    {
      "subId": 7409801,
      "mainId": 74098,
      "order": 50,
      "showType": "QUEST_HIDDEN",
      "guide": {
        "MLAHIFLGIGJ": ""
      },
      "guideHint": {
        "param1": ""
      },
      "isRewind": true,
      "versionBegin": "",
      "versionEnd": ""
    },
    {
      "subId": 7409802,
      "mainId": 74098,
      "order": 2,
      "showType": "QUEST_HIDDEN",
      "finishCond": [
        {
          "damageRatio": "QUEST_CONTENT_COMPLETE_TALK",
          "param": [
            7409811,
            0
          ]
        },
        {
          "damageRatio": "QUEST_CONTENT_COMPLETE_TALK",
          "param": [
            7409803,
            0
          ]
        }
      ],
      "guide": {
        "MLAHIFLGIGJ": ""
      },
      "guideHint": {
        "param1": ""
      },
      "isRewind": true,
      "versionBegin": "",
      "versionEnd": ""
    },
    {
      "subId": 7409803,
      "mainId": 74098,
      "order": 3,
      "showType": "QUEST_HIDDEN",
      "finishCond": [
        {
          "damageRatio": "QUEST_CONTENT_COMPLETE_TALK",
          "param": [
            7409803,
            0
          ]
        }
      ],
      "guide": {
        "MLAHIFLGIGJ": ""
      },
      "guideHint": {
        "param1": ""
      },
      "isRewind": true,
      "versionBegin": "",
      "versionEnd": ""
    },
    {
      "subId": 7409804,
      "mainId": 74098,
      "order": 5,
      "showType": "QUEST_HIDDEN",
      "finishCond": [
        {
          "damageRatio": "QUEST_CONTENT_LUA_NOTIFY",
          "param": [
            0,
            0
          ],
          "count": 1
        }
      ],
      "failCond": [
        {
          "damageRatio": "QUEST_CONTENT_LEAVE_SCENE_RANGE",
          "param": [
            3,
            30
          ]
        },
        {
          "damageRatio": "QUEST_CONTENT_TEAM_DEAD",
          "param": [
            0,
            0
          ]
        }
      ],
      "guide": {
        "MLAHIFLGIGJ": ""
      },
      "guideHint": {
        "param1": ""
      },
      "isRewind": true,
      "failExec": [
        {
          "damageRatio": "QUEST_EXEC_SET_QUEST_VAR",
          "param": [
            "0",
            "2",
            "7409802"
          ]
        },
        {
          "damageRatio": "QUEST_EXEC_UNREGISTER_DYNAMIC_GROUP",
          "param": [
            "133408057",
            "0"
          ]
        },
        {
          "damageRatio": "QUEST_EXEC_ROLLBACK_QUEST",
          "param": [
            "7409803"
          ]
        }
      ],
      "versionBegin": "",
      "versionEnd": ""
    },
    {
      "subId": 7409805,
      "mainId": 74098,
      "order": 6,
      "showType": "QUEST_HIDDEN",
      "finishCond": [
        {
          "damageRatio": "QUEST_CONTENT_COMPLETE_TALK",
          "param": [
            7409805,
            0
          ]
        }
      ],
      "guide": {
        "MLAHIFLGIGJ": ""
      },
      "guideHint": {
        "param1": ""
      },
      "isRewind": true,
      "finishExec": [
        {
          "damageRatio": "QUEST_EXEC_REFRESH_WORLD_QUEST_FLOW_GROUP_SUITE",
          "param": [
            "133408059,2"
          ]
        }
      ],
      "versionBegin": "",
      "versionEnd": ""
    },
    {
      "subId": 7409806,
      "mainId": 74098,
      "order": 7,
      "showType": "QUEST_HIDDEN",
      "finishCond": [
        {
          "damageRatio": "QUEST_CONTENT_COMPLETE_TALK",
          "param": [
            7409813,
            0
          ]
        },
        {
          "damageRatio": "QUEST_CONTENT_COMPLETE_TALK",
          "param": [
            7409808,
            0
          ]
        }
      ],
      "guide": {
        "MLAHIFLGIGJ": ""
      },
      "guideHint": {
        "param1": ""
      },
      "isRewind": true,
      "versionBegin": "",
      "versionEnd": ""
    },
    {
      "subId": 7409807,
      "mainId": 74098,
      "order": 9,
      "showType": "QUEST_HIDDEN",
      "finishCond": [
        {
          "damageRatio": "QUEST_CONTENT_LUA_NOTIFY",
          "param": [
            0,
            0
          ],
          "count": 1
        }
      ],
      "failCond": [
        {
          "damageRatio": "QUEST_CONTENT_LEAVE_SCENE_RANGE",
          "param": [
            3,
            30
          ]
        },
        {
          "damageRatio": "QUEST_CONTENT_TEAM_DEAD",
          "param": [
            0,
            0
          ]
        }
      ],
      "guide": {
        "MLAHIFLGIGJ": ""
      },
      "guideHint": {
        "param1": ""
      },
      "isRewind": true,
      "failExec": [
        {
          "damageRatio": "QUEST_EXEC_UNREGISTER_DYNAMIC_GROUP",
          "param": [
            "133408058",
            "0"
          ]
        },
        {
          "damageRatio": "QUEST_EXEC_ROLLBACK_QUEST",
          "param": [
            "7409806"
          ]
        }
      ],
      "versionBegin": "",
      "versionEnd": ""
    },
    {
      "subId": 7409808,
      "mainId": 74098,
      "order": 10,
      "showType": "QUEST_HIDDEN",
      "finishCond": [
        {
          "damageRatio": "QUEST_CONTENT_COMPLETE_TALK",
          "param": [
            7409810,
            0
          ]
        }
      ],
      "guide": {
        "MLAHIFLGIGJ": ""
      },
      "guideHint": {
        "param1": ""
      },
      "finishParent": true,
      "isRewind": true,
      "finishExec": [
        {
          "damageRatio": "QUEST_EXEC_REFRESH_WORLD_QUEST_FLOW_GROUP_SUITE",
          "param": [
            "133408059,3"
          ]
        }
      ],
      "versionBegin": "",
      "versionEnd": ""
    },
    {
      "subId": 7409809,
      "mainId": 74098,
      "order": 4,
      "showType": "QUEST_HIDDEN",
      "finishCond": [
        {
          "damageRatio": "QUEST_CONTENT_FINISH_PLOT",
          "param": [
            7409809,
            0
          ]
        }
      ],
      "guide": {
        "MLAHIFLGIGJ": ""
      },
      "guideHint": {
        "param1": ""
      },
      "versionBegin": "",
      "versionEnd": ""
    },
    {
      "subId": 7409810,
      "mainId": 74098,
      "order": 8,
      "showType": "QUEST_HIDDEN",
      "finishCond": [
        {
          "damageRatio": "QUEST_CONTENT_FINISH_PLOT",
          "param": [
            7409810,
            0
          ]
        }
      ],
      "guide": {
        "MLAHIFLGIGJ": ""
      },
      "guideHint": {
        "param1": ""
      },
      "versionBegin": "",
      "versionEnd": ""
    }
  ],
  "talks": [
    {
      "id": 7409801,
      "beginWay": "TALK_BEGIN_MANUAL",
      "activeMode": "PLAY_MODE_HOST",
      "beginCondComb": "LOGIC_AND",
      "beginCond": [
        {
          "type": "QUEST_COND_STATE_EQUAL",
          "_param": [
            "7409802",
            "2"
          ]
        },
        {
          "type": "QUEST_COND_QUEST_VAR_EQUAL",
          "_param": [
            "0",
            "0",
            "74098"
          ]
        }
      ],
      "priority": 10,
      "nextTalks": [
        7409811,
        7409812
      ],
      "initDialog": 740980101,
      "npcId": [
        5210
      ],
      "performCfg": "",
      "heroTalk": "TALK_HERO_MAIN",
      "questId": 74098,
      "assetIndex": 6731819702946599400,
      "prePerformCfg": ""
    },
    {
      "id": 7409802,
      "beginWay": "TALK_BEGIN_MANUAL",
      "activeMode": "PLAY_MODE_HOST",
      "beginCondComb": "LOGIC_A_OR_ETCAND",
      "beginCond": [
        {
          "type": "QUEST_COND_STATE_EQUAL",
          "_param": [
            "7409803",
            "2"
          ]
        },
        {
          "type": "QUEST_COND_STATE_EQUAL",
          "_param": [
            "7409802",
            "2"
          ]
        },
        {
          "type": "QUEST_COND_QUEST_VAR_EQUAL",
          "_param": [
            "0",
            "1",
            "74098"
          ]
        }
      ],
      "priority": 10,
      "nextTalks": [
        7409803,
        7409804
      ],
      "initDialog": 740980201,
      "npcId": [
        5210
      ],
      "performCfg": "",
      "heroTalk": "TALK_HERO_MAIN",
      "questId": 74098,
      "assetIndex": 8359168347679382789,
      "prePerformCfg": ""
    },
    {
      "id": 7409803,
      "activeMode": "PLAY_MODE_HOST",
      "beginCondComb": "LOGIC_A_OR_ETCAND",
      "beginCond": [
        {
          "type": "QUEST_COND_STATE_EQUAL",
          "_param": [
            "7409803",
            "2"
          ]
        },
        {
          "type": "QUEST_COND_STATE_EQUAL",
          "_param": [
            "7409802",
            "2"
          ]
        },
        {
          "type": "QUEST_COND_QUEST_VAR_EQUAL",
          "_param": [
            "0",
            "1",
            "74098"
          ]
        }
      ],
      "priority": 5,
      "initDialog": 740980301,
      "npcId": [
        5210
      ],
      "performCfg": "",
      "heroTalk": "TALK_HERO_MAIN",
      "questId": 74098,
      "assetIndex": 10589620510029643097,
      "prePerformCfg": ""
    },
    {
      "id": 7409804,
      "activeMode": "PLAY_MODE_HOST",
      "beginCondComb": "LOGIC_A_OR_ETCAND",
      "beginCond": [
        {
          "type": "QUEST_COND_STATE_EQUAL",
          "_param": [
            "7409803",
            "2"
          ]
        },
        {
          "type": "QUEST_COND_STATE_EQUAL",
          "_param": [
            "7409802",
            "2"
          ]
        },
        {
          "type": "QUEST_COND_QUEST_VAR_EQUAL",
          "_param": [
            "0",
            "1",
            "74098"
          ]
        }
      ],
      "priority": 5,
      "initDialog": 740980401,
      "npcId": [
        5210
      ],
      "performCfg": "",
      "heroTalk": "TALK_HERO_MAIN",
      "questId": 74098,
      "assetIndex": 12605690078916491868,
      "prePerformCfg": ""
    },
    {
      "id": 7409805,
      "beginWay": "TALK_BEGIN_MANUAL",
      "activeMode": "PLAY_MODE_HOST",
      "beginCond": [
        {
          "type": "QUEST_COND_STATE_EQUAL",
          "_param": [
            "7409805",
            "2"
          ]
        }
      ],
      "priority": 5,
      "initDialog": 740980501,
      "npcId": [
        5210
      ],
      "performCfg": "",
      "heroTalk": "TALK_HERO_MAIN",
      "questId": 74098,
      "assetIndex": 18347230186391234991,
      "prePerformCfg": ""
    },
    {
      "id": 7409806,
      "beginWay": "TALK_BEGIN_MANUAL",
      "activeMode": "PLAY_MODE_HOST",
      "beginCondComb": "LOGIC_AND",
      "beginCond": [
        {
          "type": "QUEST_COND_STATE_EQUAL",
          "_param": [
            "7409806",
            "2"
          ]
        },
        {
          "type": "QUEST_COND_QUEST_VAR_EQUAL",
          "_param": [
            "1",
            "0",
            "74098"
          ]
        }
      ],
      "priority": 10,
      "nextTalks": [
        7409813,
        7409814
      ],
      "initDialog": 740980601,
      "npcId": [
        5262
      ],
      "performCfg": "",
      "heroTalk": "TALK_HERO_MAIN",
      "questId": 74098,
      "assetIndex": 7776462943794159211,
      "prePerformCfg": ""
    },
    {
      "id": 7409807,
      "beginWay": "TALK_BEGIN_MANUAL",
      "activeMode": "PLAY_MODE_HOST",
      "beginCondComb": "LOGIC_AND",
      "beginCond": [
        {
          "type": "QUEST_COND_STATE_EQUAL",
          "_param": [
            "7409806",
            "2"
          ]
        },
        {
          "type": "QUEST_COND_QUEST_VAR_EQUAL",
          "_param": [
            "1",
            "1",
            "74098"
          ]
        }
      ],
      "priority": 10,
      "nextTalks": [
        7409808,
        7409809
      ],
      "initDialog": 740980701,
      "npcId": [
        5262
      ],
      "performCfg": "",
      "heroTalk": "TALK_HERO_MAIN",
      "questId": 74098,
      "assetIndex": 13857136843286093624,
      "prePerformCfg": ""
    },
    {
      "id": 7409808,
      "activeMode": "PLAY_MODE_HOST",
      "beginCondComb": "LOGIC_AND",
      "beginCond": [
        {
          "type": "QUEST_COND_STATE_EQUAL",
          "_param": [
            "7409806",
            "2"
          ]
        },
        {
          "type": "QUEST_COND_QUEST_VAR_EQUAL",
          "_param": [
            "1",
            "1",
            "74098"
          ]
        }
      ],
      "priority": 5,
      "initDialog": 740980801,
      "npcId": [
        5262
      ],
      "performCfg": "",
      "heroTalk": "TALK_HERO_MAIN",
      "questId": 74098,
      "assetIndex": 12487385721649372267,
      "prePerformCfg": ""
    },
    {
      "id": 7409809,
      "activeMode": "PLAY_MODE_HOST",
      "beginCondComb": "LOGIC_AND",
      "beginCond": [
        {
          "type": "QUEST_COND_STATE_EQUAL",
          "_param": [
            "7409806",
            "2"
          ]
        },
        {
          "type": "QUEST_COND_QUEST_VAR_EQUAL",
          "_param": [
            "1",
            "1",
            "74098"
          ]
        }
      ],
      "priority": 5,
      "initDialog": 740980901,
      "npcId": [
        5262
      ],
      "performCfg": "",
      "heroTalk": "TALK_HERO_MAIN",
      "questId": 74098,
      "assetIndex": 15514855934800885382,
      "prePerformCfg": ""
    },
    {
      "id": 7409810,
      "beginWay": "TALK_BEGIN_MANUAL",
      "activeMode": "PLAY_MODE_HOST",
      "beginCond": [
        {
          "type": "QUEST_COND_STATE_EQUAL",
          "_param": [
            "7409808",
            "2"
          ]
        }
      ],
      "priority": 5,
      "initDialog": 740981001,
      "npcId": [
        5262
      ],
      "performCfg": "",
      "heroTalk": "TALK_HERO_MAIN",
      "questId": 74098,
      "assetIndex": 3281527574315049678,
      "prePerformCfg": ""
    },
    {
      "id": 7409811,
      "activeMode": "PLAY_MODE_HOST",
      "beginCondComb": "LOGIC_AND",
      "beginCond": [
        {
          "type": "QUEST_COND_STATE_EQUAL",
          "_param": [
            "7409802",
            "2"
          ]
        },
        {
          "type": "QUEST_COND_QUEST_VAR_EQUAL",
          "_param": [
            "0",
            "0",
            "74098"
          ]
        }
      ],
      "priority": 5,
      "initDialog": 740981101,
      "npcId": [
        5210
      ],
      "performCfg": "",
      "heroTalk": "TALK_HERO_MAIN",
      "questId": 74098,
      "assetIndex": 3791246589801199793,
      "prePerformCfg": "",
      "finishExec": [
        {
          "damageRatio": "TALK_EXEC_SET_QUEST_VAR",
          "param": [
            "0",
            "1",
            "74098"
          ]
        }
      ]
    },
    {
      "id": 7409812,
      "activeMode": "PLAY_MODE_HOST",
      "beginCondComb": "LOGIC_AND",
      "beginCond": [
        {
          "type": "QUEST_COND_STATE_EQUAL",
          "_param": [
            "7409802",
            "2"
          ]
        },
        {
          "type": "QUEST_COND_QUEST_VAR_EQUAL",
          "_param": [
            "0",
            "0",
            "74098"
          ]
        }
      ],
      "priority": 5,
      "initDialog": 740981201,
      "npcId": [
        5210
      ],
      "performCfg": "",
      "heroTalk": "TALK_HERO_MAIN",
      "questId": 74098,
      "assetIndex": 245497543640052584,
      "prePerformCfg": "",
      "finishExec": [
        {
          "damageRatio": "TALK_EXEC_SET_QUEST_VAR",
          "param": [
            "0",
            "1",
            "74098"
          ]
        }
      ]
    },
    {
      "id": 7409813,
      "activeMode": "PLAY_MODE_HOST",
      "beginCondComb": "LOGIC_AND",
      "beginCond": [
        {
          "type": "QUEST_COND_STATE_EQUAL",
          "_param": [
            "7409806",
            "2"
          ]
        },
        {
          "type": "QUEST_COND_QUEST_VAR_EQUAL",
          "_param": [
            "1",
            "0",
            "74098"
          ]
        }
      ],
      "priority": 5,
      "initDialog": 740981301,
      "npcId": [
        5262
      ],
      "performCfg": "",
      "heroTalk": "TALK_HERO_MAIN",
      "questId": 74098,
      "assetIndex": 10739512545266430724,
      "prePerformCfg": "",
      "finishExec": [
        {
          "damageRatio": "TALK_EXEC_SET_QUEST_VAR",
          "param": [
            "1",
            "1",
            "74098"
          ]
        }
      ]
    },
    {
      "id": 7409814,
      "activeMode": "PLAY_MODE_HOST",
      "beginCondComb": "LOGIC_AND",
      "beginCond": [
        {
          "type": "QUEST_COND_STATE_EQUAL",
          "_param": [
            "7409806",
            "2"
          ]
        },
        {
          "type": "QUEST_COND_QUEST_VAR_EQUAL",
          "_param": [
            "1",
            "0",
            "74098"
          ]
        }
      ],
      "priority": 5,
      "initDialog": 740981401,
      "npcId": [
        5262
      ],
      "performCfg": "",
      "heroTalk": "TALK_HERO_MAIN",
      "questId": 74098,
      "assetIndex": 14528694475148277638,
      "prePerformCfg": "",
      "finishExec": [
        {
          "damageRatio": "TALK_EXEC_SET_QUEST_VAR",
          "param": [
            "1",
            "1",
            "74098"
          ]
        }
      ]
    }
  ],
  "preloadLuaList": [
    16436834313583601989,
    9255515821569566385
  ],
  "forcePreloadLuaList": [
    12291821389722952456
  ],
  "freeStyleDic": {
    "5210": [
      1240
    ],
    "5262": [
      1120
    ]
  },
  "dialogList": [
    {
      "id": 740980001,
      "talkRole": {
        "type": "TALK_ROLE_BLACK_SCREEN",
        "_id": ""
      },
      "talkContentTextMapHash": 2747630346,
      "talkAssetPath": "",
      "talkAssetPathAlter": "",
      "talkAudioName": "",
      "actionBefore": "",
      "actionWhile": "",
      "actionAfter": "",
      "optionIcon": "",
      "iconPath": ""
    }
  ]
}