{
  "id": 74092,
  "damageRatio": "WQ",
  "activeMode": "PLAY_MODE_ALL",
  "descTextMapHash": 2475459951,
  "EKEKACCODOE": 2878851014,
  "luaPath": "Actor/Quest/WQ74092",
  "showType": "QUEST_HIDDEN",
  "subQuests": [
    {
      "subId": 7409201,
      "mainId": 74092,
      "order": 1,
      "descTextMapHash": 2207535828,
      "showType": "QUEST_HIDDEN",
      "finishCond": [
        {
          "damageRatio": "QUEST_CONTENT_COMPLETE_TALK",
          "param": [
            7409201,
            0
          ]
        }
      ],
      "guide": {
        "MLAHIFLGIGJ": ""
      },
      "guideHint": {
        "param1": ""
      },
      "finishParent": true,
      "isRewind": true,
      "finishExec": [
        {
          "damageRatio": "QUEST_EXEC_SET_QUEST_GLOBAL_VAR",
          "param": [
            "74092",
            "1"
          ]
        },
        {
          "damageRatio": "QUEST_EXEC_REFRESH_GROUP_SUITE",
          "param": [
            "3",
            "133408643,2"
          ]
        }
      ],
      "versionBegin": "",
      "versionEnd": ""
    },
    {
      "subId": 7409202,
      "mainId": 74092,
      "order": 2,
      "descTextMapHash": 2206345172,
      "showType": "QUEST_HIDDEN",
      "finishCond": [
        {
          "damageRatio": "QUEST_CONTENT_COMPLETE_TALK",
          "param": [
            7409201,
            0
          ]
        }
      ],
      "guide": {
        "MLAHIFLGIGJ": ""
      },
      "guideHint": {
        "param1": ""
      },
      "finishParent": true,
      "isRewind": true,
      "finishExec": [
        {
          "damageRatio": "QUEST_EXEC_SET_QUEST_GLOBAL_VAR",
          "param": [
            "74092",
            "1"
          ]
        },
        {
          "damageRatio": "QUEST_EXEC_REFRESH_GROUP_SUITE",
          "param": [
            "3",
            "133408643,2"
          ]
        }
      ],
      "versionBegin": "",
      "versionEnd": ""
    }
  ],
  "talks": [
    {
      "id": 7409201,
      "beginWay": "TALK_BEGIN_MANUAL",
      "activeMode": "PLAY_MODE_HOST",
      "beginCondComb": "LOGIC_OR",
      "beginCond": [
        {
          "type": "QUEST_COND_STATE_EQUAL",
          "_param": [
            "7409201",
            "2"
          ]
        },
        {
          "type": "QUEST_COND_STATE_EQUAL",
          "_param": [
            "7409202",
            "2"
          ]
        }
      ],
      "priority": 5,
      "initDialog": 740920101,
      "npcId": [
        5259
      ],
      "performCfg": "QuestDialogue/WQ/Fontaine_74053/Q7409201",
      "questId": 74092,
      "assetIndex": 18024172695305040361,
      "prePerformCfg": "",
      "CHAKPMBJNAJ": [
        "[3_6305:3509.665,421.427,4606.185,0.000,265.625,0.000]",
        "[3_6306:3508.222,421.427,4606.183,0.000,72.985,0.000]",
        "[3_6307:3509.216,421.427,4607.178,0.000,231.661,0.000]",
        "[3_6308:3512.252,421.427,4608.412,0.000,249.156,0.000]"
      ]
    }
  ]
}