{
  "id": 74102,
  "damageRatio": "WQ",
  "activeMode": "PLAY_MODE_ALL",
  "descTextMapHash": 2900974583,
  "luaPath": "Actor/Quest/WQ74102",
  "showType": "QUEST_HIDDEN",
  "subQuests": [
    {
      "subId": 7410201,
      "mainId": 74102,
      "order": 1,
      "showType": "QUEST_HIDDEN",
      "finishCond": [
        {
          "damageRatio": "QUEST_CONTENT_FINISH_PLOT",
          "param": [
            7410201,
            0
          ]
        }
      ],
      "guide": {
        "MLAHIFLGIGJ": ""
      },
      "guideHint": {
        "param1": ""
      },
      "isRewind": true,
      "finishExec": [
        {
          "damageRatio": "QUEST_EXEC_INIT_TIME_VAR",
          "param": [
            "1"
          ]
        }
      ],
      "versionBegin": "",
      "versionEnd": ""
    },
    {
      "subId": 7410202,
      "mainId": 74102,
      "order": 2,
      "showType": "QUEST_HIDDEN",
      "finishCond": [
        {
          "damageRatio": "QUEST_CONTENT_TIME_VAR_PASS_DAY",
          "param": [
            74102,
            1
          ]
        }
      ],
      "guide": {
        "MLAHIFLGIGJ": ""
      },
      "guideHint": {
        "param1": ""
      },
      "finishParent": true,
      "isRewind": true,
      "finishExec": [
        {
          "damageRatio": "QUEST_EXEC_REFRESH_GROUP_SUITE",
          "param": [
            "3",
            "133408046,2"
          ]
        }
      ],
      "versionBegin": "",
      "versionEnd": ""
    }
  ]
}