{
  "id": 74121,
  "damageRatio": "WQ",
  "activeMode": "PLAY_MODE_ALL",
  "descTextMapHash": 3023819463,
  "EKEKACCODOE": 3265192702,
  "luaPath": "Actor/Quest/WQ74121",
  "rewardIdList": [
    174121
  ],
  "subQuests": [
    {
      "subId": 7412101,
      "mainId": 74121,
      "order": 1,
      "descTextMapHash": 373211700,
      "showType": "QUEST_HIDDEN",
      "finishCond": [
        {
          "damageRatio": "QUEST_CONTENT_GADGET_STATE_CHANGE",
          "param": [
            133403539,
            539005
          ]
        }
      ],
      "guide": {
        "MLAHIFLGIGJ": ""
      },
      "guideHint": {
        "param1": ""
      },
      "isRewind": true,
      "versionBegin": "",
      "versionEnd": ""
    },
    {
      "subId": 7412102,
      "mainId": 74121,
      "order": 2,
      "descTextMapHash": 4294740876,
      "finishCond": [
        {
          "damageRatio": "QUEST_CONTENT_COMPLETE_TALK",
          "param": [
            7412101,
            0
          ]
        }
      ],
      "guide": {
        "damageRatio": "QUEST_GUIDE_NPC",
        "autoGuide": "QUEST_GUIDE_AUTO_ENABLE",
        "param": [
          "21106"
        ],
        "guideScene": 3,
        "guideStyle": "QUEST_GUIDE_STYLE_POINT",
        "guideLayer": "QUEST_GUIDE_LAYER_SCENE",
        "MLAHIFLGIGJ": ""
      },
      "guideHint": {
        "param1": ""
      },
      "isRewind": true,
      "finishExec": [
        {
          "damageRatio": "QUEST_EXEC_REFRESH_GROUP_SUITE",
          "param": [
            "3",
            "133403175,1"
          ]
        }
      ],
      "versionBegin": "",
      "versionEnd": ""
    },
    {
      "subId": 7412103,
      "mainId": 74121,
      "order": 3,
      "subIdSet": 2,
      "descTextMapHash": 1194383492,
      "finishCond": [
        {
          "damageRatio": "QUEST_CONTENT_ADD_QUEST_PROGRESS",
          "param": [
            7412103,
            0
          ],
          "count": 4
        }
      ],
      "guide": {
        "damageRatio": "QUEST_GUIDE_LOCATION",
        "autoGuide": "QUEST_GUIDE_AUTO_ENABLE",
        "param": [
          "[3_5611:2898.836,440.326,4165.106]",
          "50"
        ],
        "guideScene": 3,
        "guideStyle": "QUEST_GUIDE_STYLE_TARGET",
        "guideLayer": "QUEST_GUIDE_LAYER_SCENE",
        "MLAHIFLGIGJ": ""
      },
      "showGuide": "QUEST_GUIDE_ITEM_DISABLE",
      "guideHint": {
        "param1": ""
      },
      "isRewind": true,
      "versionBegin": "",
      "versionEnd": ""
    },
    {
      "subId": 7412104,
      "mainId": 74121,
      "order": 4,
      "subIdSet": 1,
      "descTextMapHash": 2536832308,
      "showType": "QUEST_HIDDEN",
      "finishCond": [
        {
          "damageRatio": "QUEST_CONTENT_GADGET_STATE_CHANGE",
          "param": [
            133403175,
            175010
          ]
        }
      ],
      "guide": {
        "MLAHIFLGIGJ": ""
      },
      "guideHint": {
        "param1": ""
      },
      "isRewind": true,
      "finishExec": [
        {
          "damageRatio": "QUEST_EXEC_ADD_QUEST_PROGRESS",
          "param": [
            "7412103",
            "1"
          ]
        }
      ],
      "versionBegin": "",
      "versionEnd": ""
    },
    {
      "subId": 7412105,
      "mainId": 74121,
      "order": 5,
      "subIdSet": 1,
      "descTextMapHash": 1003162740,
      "showType": "QUEST_HIDDEN",
      "finishCond": [
        {
          "damageRatio": "QUEST_CONTENT_GADGET_STATE_CHANGE",
          "param": [
            133403175,
            175011
          ]
        }
      ],
      "guide": {
        "MLAHIFLGIGJ": ""
      },
      "guideHint": {
        "param1": ""
      },
      "isRewind": true,
      "finishExec": [
        {
          "damageRatio": "QUEST_EXEC_ADD_QUEST_PROGRESS",
          "param": [
            "7412103",
            "1"
          ]
        }
      ],
      "versionBegin": "",
      "versionEnd": ""
    },
    {
      "subId": 7412106,
      "mainId": 74121,
      "order": 6,
      "subIdSet": 1,
      "descTextMapHash": 1200720460,
      "showType": "QUEST_HIDDEN",
      "finishCond": [
        {
          "damageRatio": "QUEST_CONTENT_GADGET_STATE_CHANGE",
          "param": [
            133403175,
            175012
          ]
        }
      ],
      "guide": {
        "MLAHIFLGIGJ": ""
      },
      "showGuide": "QUEST_GUIDE_ITEM_DISABLE",
      "guideHint": {
        "param1": ""
      },
      "isRewind": true,
      "finishExec": [
        {
          "damageRatio": "QUEST_EXEC_ADD_QUEST_PROGRESS",
          "param": [
            "7412103",
            "1"
          ]
        }
      ],
      "versionBegin": "",
      "versionEnd": ""
    },
    {
      "subId": 7412107,
      "mainId": 74121,
      "order": 7,
      "subIdSet": 1,
      "descTextMapHash": 2900669492,
      "showType": "QUEST_HIDDEN",
      "finishCond": [
        {
          "damageRatio": "QUEST_CONTENT_COMPLETE_TALK",
          "param": [
            7412103,
            0
          ]
        }
      ],
      "guide": {
        "MLAHIFLGIGJ": ""
      },
      "showGuide": "QUEST_GUIDE_ITEM_DISABLE",
      "guideHint": {
        "param1": ""
      },
      "isRewind": true,
      "finishExec": [
        {
          "damageRatio": "QUEST_EXEC_ADD_QUEST_PROGRESS",
          "param": [
            "7412103",
            "1"
          ]
        }
      ],
      "versionBegin": "",
      "versionEnd": ""
    },
    {
      "subId": 7412108,
      "mainId": 74121,
      "order": 8,
      "descTextMapHash": 969376444,
      "showType": "QUEST_HIDDEN",
      "finishCond": [
        {
          "damageRatio": "QUEST_CONTENT_QUEST_STATE_EQUAL",
          "param": [
            7412103,
            3
          ]
        }
      ],
      "guide": {
        "MLAHIFLGIGJ": ""
      },
      "showGuide": "QUEST_GUIDE_ITEM_DISABLE",
      "guideHint": {
        "param1": ""
      },
      "isRewind": true,
      "versionBegin": "",
      "versionEnd": ""
    },
    {
      "subId": 7412109,
      "mainId": 74121,
      "order": 10,
      "descTextMapHash": 1902626700,
      "finishCond": [
        {
          "damageRatio": "QUEST_CONTENT_COMPLETE_TALK",
          "param": [
            7412106,
            0
          ]
        }
      ],
      "guide": {
        "damageRatio": "QUEST_GUIDE_NPC",
        "autoGuide": "QUEST_GUIDE_AUTO_ENABLE",
        "param": [
          "21106"
        ],
        "guideScene": 3,
        "guideStyle": "QUEST_GUIDE_STYLE_TARGET",
        "guideLayer": "QUEST_GUIDE_LAYER_SCENE",
        "MLAHIFLGIGJ": ""
      },
      "guideHint": {
        "param1": ""
      },
      "isRewind": true,
      "finishExec": [
        {
          "damageRatio": "QUEST_EXEC_REFRESH_GROUP_SUITE",
          "param": [
            "3",
            "133403424,2"
          ]
        }
      ],
      "versionBegin": "",
      "versionEnd": ""
    },
    {
      "subId": 7412110,
      "mainId": 74121,
      "order": 99,
      "descTextMapHash": 2083846996,
      "showType": "QUEST_HIDDEN",
      "finishCond": [
        {
          "damageRatio": "QUEST_CONTENT_FINISH_PLOT",
          "param": [
            7412110,
            0
          ]
        }
      ],
      "guide": {
        "MLAHIFLGIGJ": ""
      },
      "guideHint": {
        "param1": ""
      },
      "versionBegin": "",
      "versionEnd": ""
    },
    {
      "subId": 7412111,
      "mainId": 74121,
      "order": 100,
      "descTextMapHash": 3902428980,
      "finishCond": [
        {
          "damageRatio": "QUEST_CONTENT_COMPLETE_TALK",
          "param": [
            7412106,
            0
          ]
        }
      ],
      "guide": {
        "damageRatio": "QUEST_GUIDE_NPC",
        "autoGuide": "QUEST_GUIDE_AUTO_ENABLE",
        "param": [
          "21106"
        ],
        "guideScene": 3,
        "guideStyle": "QUEST_GUIDE_STYLE_TARGET",
        "guideLayer": "QUEST_GUIDE_LAYER_SCENE",
        "MLAHIFLGIGJ": ""
      },
      "guideHint": {
        "param1": ""
      },
      "isRewind": true,
      "versionBegin": "",
      "versionEnd": ""
    },
    {
      "subId": 7412112,
      "mainId": 74121,
      "order": 13,
      "descTextMapHash": 2711051988,
      "finishCond": [
        {
          "damageRatio": "QUEST_CONTENT_COMPLETE_TALK",
          "param": [
            7412107,
            0
          ]
        }
      ],
      "guide": {
        "damageRatio": "QUEST_GUIDE_NPC",
        "autoGuide": "QUEST_GUIDE_AUTO_ENABLE",
        "param": [
          "5254"
        ],
        "guideScene": 3,
        "guideStyle": "QUEST_GUIDE_STYLE_TARGET",
        "guideLayer": "QUEST_GUIDE_LAYER_SCENE",
        "MLAHIFLGIGJ": ""
      },
      "guideHint": {
        "param1": ""
      },
      "finishParent": true,
      "isRewind": true,
      "finishExec": [
        {
          "damageRatio": "QUEST_EXEC_REFRESH_GROUP_SUITE",
          "param": [
            "3",
            "133403175,3"
          ]
        },
        {
          "damageRatio": "QUEST_EXEC_REFRESH_GROUP_SUITE",
          "param": [
            "3",
            "133403307,2"
          ]
        }
      ],
      "versionBegin": "",
      "versionEnd": ""
    }
  ],
  "talks": [
    {
      "id": 7412101,
      "beginWay": "TALK_BEGIN_MANUAL",
      "activeMode": "PLAY_MODE_HOST",
      "beginCond": [
        {
          "type": "QUEST_COND_STATE_EQUAL",
          "_param": [
            "7412102",
            "2"
          ]
        }
      ],
      "priority": 5,
      "initDialog": 741210101,
      "npcId": [
        21029
      ],
      "performCfg": "QuestDialogue/WQ/Fontaine_74121/Q7412101",
      "questId": 74121,
      "assetIndex": 8071148649523345944,
      "prePerformCfg": "",
      "CHAKPMBJNAJ": [
        "[3_4679:2905.294,438.902,4174.859,0.000,111.326,0.000]",
        "[3_4682:2906.413,440.091,4173.437,0.000,355.494,0.000]",
        "[3_5783:2905.272,440.313,4174.873]",
        "[3_5964:2906.840,440.081,4174.346,0.000,273.811,0.000]"
      ]
    },
    {
      "id": 7412102,
      "beginWay": "TALK_BEGIN_MANUAL",
      "activeMode": "PLAY_MODE_HOST",
      "beginCond": [
        {
          "type": "QUEST_COND_STATE_EQUAL",
          "_param": [
            "7412108",
            "2"
          ]
        }
      ],
      "priority": 5,
      "initDialog": 741210201,
      "npcId": [
        21029
      ],
      "performCfg": "",
      "questId": 74121,
      "assetIndex": 17297614316956011085,
      "prePerformCfg": ""
    },
    {
      "id": 7412103,
      "beginWay": "TALK_BEGIN_MANUAL",
      "activeMode": "PLAY_MODE_HOST",
      "beginCond": [
        {
          "type": "QUEST_COND_STATE_EQUAL",
          "_param": [
            "7412107",
            "2"
          ]
        }
      ],
      "priority": 6,
      "initDialog": 741210301,
      "npcId": [
        21091,
        21092
      ],
      "performCfg": "QuestDialogue/WQ/Fontaine_74121/Q7412103",
      "questId": 74121,
      "assetIndex": 5386714667701110511,
      "prePerformCfg": "",
      "CHAKPMBJNAJ": [
        "[3_340300180:2867.703,448.785,4162.781,0.000,267.238,0.000]",
        "[3_5612:2866.693,449.048,4163.982,0.000,65.222,0.000]",
        "[3_5614:2866.598,449.036,4162.217,0.000,109.208,0.000]",
        "[3_6001:2867.894,448.754,4163.789,0.000,273.147,0.000]"
      ]
    },
    {
      "id": 7412104,
      "beginWay": "TALK_BEGIN_MANUAL",
      "activeMode": "PLAY_MODE_HOST",
      "beginCondComb": "LOGIC_OR",
      "beginCond": [
        {
          "type": "QUEST_COND_STATE_EQUAL",
          "_param": [
            "7412108",
            "2"
          ]
        },
        {
          "type": "QUEST_COND_STATE_EQUAL",
          "_param": [
            "7412109",
            "2"
          ]
        }
      ],
      "priority": 5,
      "initDialog": 741210401,
      "npcId": [
        21091,
        21092
      ],
      "performCfg": "",
      "questId": 74121,
      "assetIndex": 4304817321966983122,
      "prePerformCfg": ""
    },
    {
      "id": 7412105,
      "beginWay": "TALK_BEGIN_MANUAL",
      "activeMode": "PLAY_MODE_HOST",
      "beginCond": [
        {
          "type": "QUEST_COND_STATE_EQUAL",
          "_param": [
            "7412109",
            "2"
          ]
        }
      ],
      "priority": 5,
      "initDialog": 741210501,
      "npcId": [
        21029
      ],
      "performCfg": "QuestDialogue/WQ/Fontaine_74121/Q7412105",
      "questId": 74121,
      "assetIndex": 15902293784382342754,
      "prePerformCfg": "",
      "CHAKPMBJNAJ": [
        "[3_4679:2905.294,438.902,4174.859,0.000,111.326,0.000]",
        "[3_4682:2906.413,440.091,4173.437,0.000,355.494,0.000]",
        "[3_5783:2905.272,440.313,4174.873]"
      ]
    },
    {
      "id": 7412106,
      "activeMode": "PLAY_MODE_HOST",
      "beginCond": [
        {
          "type": "QUEST_COND_STATE_EQUAL",
          "_param": [
            "7412109",
            "2"
          ]
        }
      ],
      "priority": 4,
      "initDialog": 741210601,
      "npcId": [
        21029
      ],
      "performCfg": "QuestDialogue/WQ/Fontaine_74121/Q7412106",
      "questId": 74121,
      "assetIndex": 14620177539544831070,
      "prePerformCfg": "",
      "CHAKPMBJNAJ": [
        "[3_4679:2905.294,438.902,4174.859,0.000,111.326,0.000]",
        "[3_4681:2905.893,440.385,4176.251,0.000,149.778,0.000]",
        "[3_4682:2906.413,440.091,4173.437,0.000,355.494,0.000]",
        "[3_4772:2904.195,440.329,4173.678,0.000,72.190,0.000]",
        "[3_5964:2906.840,440.081,4174.346,0.000,273.811,0.000]"
      ]
    },
    {
      "id": 7412107,
      "activeMode": "PLAY_MODE_HOST",
      "beginCond": [
        {
          "type": "QUEST_COND_STATE_EQUAL",
          "_param": [
            "7412112",
            "2"
          ]
        }
      ],
      "priority": 3,
      "initDialog": 741210701,
      "npcId": [
        5254
      ],
      "performCfg": "QuestDialogue/WQ/Fontaine_74121/Q7412107",
      "questId": 74121,
      "assetIndex": 16275361806137961826,
      "prePerformCfg": "",
      "CHAKPMBJNAJ": [
        "[3_5536:2902.934,441.595,4185.005,0.000,142.259,0.000]",
        "[3_5746:2904.566,441.616,4182.956]"
      ]
    },
    {
      "id": 7412108,
      "beginWay": "TALK_BEGIN_MANUAL",
      "activeMode": "PLAY_MODE_HOST",
      "beginCond": [
        {
          "type": "QUEST_COND_STATE_EQUAL",
          "_param": [
            "7412112",
            "2"
          ]
        }
      ],
      "priority": 5,
      "initDialog": 741210801,
      "npcId": [
        5254
      ],
      "performCfg": "QuestDialogue/WQ/Fontaine_74121/Q7412108",
      "questId": 74121,
      "assetIndex": 223173538453551133,
      "prePerformCfg": "",
      "CHAKPMBJNAJ": [
        "[3_5746:2904.566,441.616,4182.956]",
        "[3_6136:2905.684,441.620,4184.726,0.000,275.650,0.000]"
      ]
    }
  ],
  "freeStyleDic": {
    "21091": [
      1120
    ],
    "21092": [
      1120
    ]
  }
}