{
  "id": 74128,
  "damageRatio": "WQ",
  "activeMode": "PLAY_MODE_ALL",
  "descTextMapHash": 2813184367,
  "luaPath": "Actor/Quest/WQ74128",
  "rewardIdList": [
    174128
  ],
  "showType": "QUEST_HIDDEN",
  "subQuests": [
    {
      "subId": 7412801,
      "mainId": 74128,
      "order": 1,
      "descTextMapHash": 4137308188,
      "showType": "QUEST_HIDDEN",
      "finishCond": [
        {
          "damageRatio": "QUEST_CONTENT_QUEST_STATE_EQUAL",
          "param": [
            7404908,
            3
          ]
        }
      ],
      "guide": {
        "MLAHIFLGIGJ": ""
      },
      "showGuide": "QUEST_GUIDE_ITEM_DISABLE",
      "guideHint": {
        "param1": ""
      },
      "finishParent": true,
      "isRewind": true,
      "versionBegin": "",
      "versionEnd": ""
    }
  ]
}