{
  "id": 74154,
  "damageRatio": "WQ",
  "activeMode": "PLAY_MODE_ALL",
  "descTextMapHash": 3228421503,
  "EKEKACCODOE": 3479235414,
  "luaPath": "Actor/Quest/WQ74154",
  "suggestTrackMainQuestList": [
    74153
  ],
  "rewardIdList": [
    174154
  ],
  "subQuests": [
    {
      "subId": 7415401,
      "mainId": 74154,
      "order": 2,
      "descTextMapHash": 1828354604,
      "finishCond": [
        {
          "damageRatio": "QUEST_CONTENT_COMPLETE_TALK",
          "param": [
            7415408,
            0
          ]
        }
      ],
      "guide": {
        "damageRatio": "QUEST_GUIDE_LOCATION",
        "autoGuide": "QUEST_GUIDE_AUTO_ENABLE",
        "param": [
          "[3_6402:3592.596,435.092,4531.511,0.000,77.045,0.000]"
        ],
        "guideScene": 3,
        "guideStyle": "QUEST_GUIDE_STYLE_POINT",
        "guideLayer": "QUEST_GUIDE_LAYER_SCENE",
        "MLAHIFLGIGJ": ""
      },
      "showGuide": "QUEST_GUIDE_ITEM_DISABLE",
      "guideHint": {
        "param1": ""
      },
      "isRewind": true,
      "versionBegin": "",
      "versionEnd": ""
    },
    {
      "subId": 7415402,
      "mainId": 74154,
      "order": 3,
      "descTextMapHash": 1045082596,
      "finishCond": [
        {
          "damageRatio": "QUEST_CONTENT_COMPLETE_TALK",
          "param": [
            7415402,
            0
          ]
        }
      ],
      "guide": {
        "damageRatio": "QUEST_GUIDE_LOCATION",
        "autoGuide": "QUEST_GUIDE_AUTO_ENABLE",
        "param": [
          "[3_6949:3592.777,437.652,4512.503,0.000,156.104,0.000]"
        ],
        "guideScene": 3,
        "guideStyle": "QUEST_GUIDE_STYLE_POINT",
        "guideLayer": "QUEST_GUIDE_LAYER_SCENE",
        "MLAHIFLGIGJ": ""
      },
      "guideHint": {
        "param1": ""
      },
      "isRewind": true,
      "versionBegin": "",
      "versionEnd": ""
    },
    {
      "subId": 7415403,
      "mainId": 74154,
      "order": 4,
      "descTextMapHash": 3351319892,
      "finishCond": [
        {
          "damageRatio": "QUEST_CONTENT_FINISH_PLOT",
          "param": [
            7415403,
            0
          ]
        }
      ],
      "guide": {
        "damageRatio": "QUEST_GUIDE_LOCATION",
        "autoGuide": "QUEST_GUIDE_AUTO_ENABLE",
        "param": [
          "[3_6407:3582.012,436.286,4517.056,0.000,213.198,0.000]"
        ],
        "guideScene": 3,
        "guideStyle": "QUEST_GUIDE_STYLE_POINT",
        "guideLayer": "QUEST_GUIDE_LAYER_SCENE",
        "MLAHIFLGIGJ": ""
      },
      "guideHint": {
        "param1": ""
      },
      "isRewind": true,
      "versionBegin": "",
      "versionEnd": ""
    },
    {
      "subId": 7415404,
      "mainId": 74154,
      "order": 5,
      "descTextMapHash": 1233609780,
      "finishCond": [
        {
          "damageRatio": "QUEST_CONTENT_COMPLETE_TALK",
          "param": [
            7415404,
            0
          ]
        }
      ],
      "guide": {
        "damageRatio": "QUEST_GUIDE_NPC",
        "param": [
          "21253"
        ],
        "guideScene": 3,
        "guideStyle": "QUEST_GUIDE_STYLE_TARGET",
        "guideLayer": "QUEST_GUIDE_LAYER_SCENE",
        "MLAHIFLGIGJ": ""
      },
      "guideHint": {
        "param1": ""
      },
      "isRewind": true,
      "finishExec": [
        {
          "damageRatio": "QUEST_EXEC_ADD_QUEST_PROGRESS",
          "param": [
            "7415403",
            "1"
          ]
        }
      ],
      "versionBegin": "",
      "versionEnd": ""
    },
    {
      "subId": 7415405,
      "mainId": 74154,
      "order": 6,
      "descTextMapHash": 3751171668,
      "finishCond": [
        {
          "damageRatio": "QUEST_CONTENT_COMPLETE_TALK",
          "param": [
            7415405,
            0
          ]
        }
      ],
      "guide": {
        "damageRatio": "QUEST_GUIDE_NPC",
        "param": [
          "21255"
        ],
        "guideScene": 3,
        "guideStyle": "QUEST_GUIDE_STYLE_TARGET",
        "guideLayer": "QUEST_GUIDE_LAYER_SCENE",
        "MLAHIFLGIGJ": ""
      },
      "guideHint": {
        "param1": ""
      },
      "isRewind": true,
      "finishExec": [
        {
          "damageRatio": "QUEST_EXEC_ADD_QUEST_PROGRESS",
          "param": [
            "7415403",
            "1"
          ]
        }
      ],
      "versionBegin": "",
      "versionEnd": ""
    },
    {
      "subId": 7415406,
      "mainId": 74154,
      "order": 7,
      "descTextMapHash": 599211532,
      "finishCond": [
        {
          "damageRatio": "QUEST_CONTENT_COMPLETE_TALK",
          "param": [
            7415406,
            0
          ]
        }
      ],
      "guide": {
        "damageRatio": "QUEST_GUIDE_NPC",
        "param": [
          "21256"
        ],
        "guideScene": 3,
        "guideStyle": "QUEST_GUIDE_STYLE_TARGET",
        "guideLayer": "QUEST_GUIDE_LAYER_SCENE",
        "MLAHIFLGIGJ": ""
      },
      "guideHint": {
        "param1": ""
      },
      "isRewind": true,
      "finishExec": [
        {
          "damageRatio": "QUEST_EXEC_ADD_QUEST_PROGRESS",
          "param": [
            "7415403",
            "1"
          ]
        }
      ],
      "versionBegin": "",
      "versionEnd": ""
    },
    {
      "subId": 7415407,
      "mainId": 74154,
      "order": 8,
      "descTextMapHash": 3159936876,
      "finishCond": [
        {
          "damageRatio": "QUEST_CONTENT_COMPLETE_TALK",
          "param": [
            7415407,
            0
          ]
        }
      ],
      "guide": {
        "damageRatio": "QUEST_GUIDE_NPC",
        "param": [
          "21264"
        ],
        "guideScene": 3,
        "guideStyle": "QUEST_GUIDE_STYLE_TARGET",
        "guideLayer": "QUEST_GUIDE_LAYER_SCENE",
        "MLAHIFLGIGJ": ""
      },
      "guideHint": {
        "param1": ""
      },
      "finishParent": true,
      "isRewind": true,
      "versionBegin": "",
      "versionEnd": ""
    },
    {
      "subId": 7415408,
      "mainId": 74154,
      "order": 1,
      "descTextMapHash": 2685848940,
      "showType": "QUEST_HIDDEN",
      "finishCond": [
        {
          "damageRatio": "QUEST_CONTENT_GAME_TIME_TICK",
          "param": [
            1,
            0
          ]
        }
      ],
      "guide": {
        "param": [
          "30"
        ],
        "guideScene": 3,
        "MLAHIFLGIGJ": ""
      },
      "showGuide": "QUEST_GUIDE_ITEM_DISABLE",
      "guideHint": {
        "param1": ""
      },
      "isRewind": true,
      "versionBegin": "",
      "versionEnd": ""
    }
  ],
  "talks": [
    {
      "id": 7415402,
      "beginWay": "TALK_BEGIN_MANUAL",
      "activeMode": "PLAY_MODE_HOST",
      "beginCondComb": "LOGIC_AND",
      "beginCond": [
        {
          "type": "QUEST_COND_STATE_EQUAL",
          "_param": [
            "7415402",
            "2"
          ]
        },
        {
          "type": "QUEST_COND_STATE_EQUAL",
          "_param": [
            "7415401",
            "3"
          ]
        }
      ],
      "priority": 5,
      "initDialog": 741540201,
      "npcId": [
        1005
      ],
      "performCfg": "QuestDialogue/WQ/Fontaine_74154/Q7415402",
      "heroTalk": "TALK_HERO_MAIN",
      "questId": 74154,
      "assetIndex": 10121782157108942034,
      "prePerformCfg": "",
      "CHAKPMBJNAJ": [
        "[3_6415:3593.179,437.660,4511.631,0.000,343.689,0.000]"
      ]
    },
    {
      "id": 7415404,
      "beginWay": "TALK_BEGIN_MANUAL",
      "activeMode": "PLAY_MODE_ALL",
      "beginCondComb": "LOGIC_AND",
      "beginCond": [
        {
          "type": "QUEST_COND_STATE_EQUAL",
          "_param": [
            "7415404",
            "2"
          ]
        },
        {
          "type": "QUEST_COND_STATE_EQUAL",
          "_param": [
            "7415401",
            "3"
          ]
        }
      ],
      "priority": 5,
      "initDialog": 741540401,
      "npcId": [
        21253
      ],
      "performCfg": "",
      "questId": 74154,
      "assetIndex": 731119862468029471,
      "prePerformCfg": ""
    },
    {
      "id": 7415405,
      "beginWay": "TALK_BEGIN_MANUAL",
      "activeMode": "PLAY_MODE_ALL",
      "beginCondComb": "LOGIC_AND",
      "beginCond": [
        {
          "type": "QUEST_COND_STATE_EQUAL",
          "_param": [
            "7415405",
            "2"
          ]
        },
        {
          "type": "QUEST_COND_STATE_EQUAL",
          "_param": [
            "7415401",
            "3"
          ]
        }
      ],
      "priority": 5,
      "initDialog": 741540501,
      "npcId": [
        21255
      ],
      "performCfg": "",
      "questId": 74154,
      "assetIndex": 10543764655569400187,
      "prePerformCfg": ""
    },
    {
      "id": 7415406,
      "beginWay": "TALK_BEGIN_MANUAL",
      "activeMode": "PLAY_MODE_ALL",
      "beginCondComb": "LOGIC_AND",
      "beginCond": [
        {
          "type": "QUEST_COND_STATE_EQUAL",
          "_param": [
            "7415406",
            "2"
          ]
        },
        {
          "type": "QUEST_COND_STATE_EQUAL",
          "_param": [
            "7415401",
            "3"
          ]
        }
      ],
      "priority": 5,
      "initDialog": 741540601,
      "npcId": [
        21256
      ],
      "performCfg": "",
      "questId": 74154,
      "assetIndex": 15702488010879138073,
      "prePerformCfg": ""
    },
    {
      "id": 7415407,
      "beginWay": "TALK_BEGIN_MANUAL",
      "activeMode": "PLAY_MODE_HOST",
      "beginCondComb": "LOGIC_AND",
      "beginCond": [
        {
          "type": "QUEST_COND_STATE_EQUAL",
          "_param": [
            "7415407",
            "2"
          ]
        },
        {
          "type": "QUEST_COND_STATE_EQUAL",
          "_param": [
            "7415402",
            "3"
          ]
        }
      ],
      "priority": 5,
      "initDialog": 741540701,
      "npcId": [
        21264
      ],
      "performCfg": "QuestDialogue/WQ/Fontaine_74154/Q7415407",
      "questId": 74154,
      "assetIndex": 11200407061756308937,
      "prePerformCfg": "",
      "CHAKPMBJNAJ": [
        "[3_6413:3583.541,435.073,4515.374,0.000,274.949,0.000]",
        "[3_7528:3582.053,435.073,4515.892,0.000,111.088,0.000]",
        "[3_7529:3582.002,435.073,4514.881,0.000,76.170,0.000]"
      ]
    },
    {
      "id": 7415408,
      "beginWay": "TALK_BEGIN_MANUAL",
      "activeMode": "PLAY_MODE_HOST",
      "beginCondComb": "LOGIC_AND",
      "beginCond": [
        {
          "type": "QUEST_COND_STATE_EQUAL",
          "_param": [
            "7415401",
            "2"
          ]
        },
        {
          "type": "QUEST_COND_STATE_EQUAL",
          "_param": [
            "7415408",
            "3"
          ]
        }
      ],
      "priority": 5,
      "initDialog": 741540801,
      "npcId": [
        21253
      ],
      "performCfg": "QuestDialogue/WQ/Fontaine_74154/Q7415408",
      "heroTalk": "TALK_HERO_MAIN",
      "questId": 74154,
      "assetIndex": 4514193049733240969,
      "prePerformCfg": "",
      "CHAKPMBJNAJ": [
        "[3_7530:3594.280,435.073,4525.330,0.000,343.416,0.000]",
        "[3_7531:3593.860,435.073,4526.830,0.000,165.803,0.000]",
        "[3_7532:3596.880,435.073,4532.970,0.000,92.258,0.000]",
        "[3_7533:3598.110,435.073,4532.420,0.000,297.628,0.000]",
        "[3_7534:3598.080,435.073,4533.550,0.000,258.569,0.000]"
      ]
    }
  ],
  "preloadLuaList": [
    14457059026087496718,
    9046556882015510638,
    6097784350331540499
  ],
  "forcePreloadLuaList": [
    14254420448196394710
  ],
  "LNMELPHNIDD": true
}