{
  "id": 74157,
  "damageRatio": "WQ",
  "activeMode": "PLAY_MODE_ALL",
  "descTextMapHash": 2273806783,
  "EKEKACCODOE": 818917734,
  "luaPath": "Actor/Quest/WQ74157",
  "suggestTrackMainQuestList": [
    74156
  ],
  "rewardIdList": [
    174157
  ],
  "subQuests": [
    {
      "subId": 7415701,
      "mainId": 74157,
      "order": 2,
      "descTextMapHash": 3738687068,
      "finishCond": [
        {
          "damageRatio": "QUEST_CONTENT_FINISH_PLOT",
          "param": [
            7415701,
            0
          ]
        }
      ],
      "guide": {
        "param": [
          "30"
        ],
        "guideScene": 3,
        "MLAHIFLGIGJ": ""
      },
      "showGuide": "QUEST_GUIDE_ITEM_DISABLE",
      "guideHint": {
        "param1": ""
      },
      "isRewind": true,
      "versionBegin": "",
      "versionEnd": ""
    },
    {
      "subId": 7415702,
      "mainId": 74157,
      "order": 3,
      "descTextMapHash": 1724209252,
      "finishCond": [
        {
          "damageRatio": "QUEST_CONTENT_COMPLETE_TALK",
          "param": [
            7415702,
            0
          ]
        },
        {
          "damageRatio": "QUEST_CONTENT_COMPLETE_TALK",
          "param": [
            7415703,
            0
          ]
        }
      ],
      "guide": {
        "damageRatio": "QUEST_GUIDE_NPC",
        "param": [
          "21252"
        ],
        "guideScene": 3,
        "guideStyle": "QUEST_GUIDE_STYLE_TARGET",
        "guideLayer": "QUEST_GUIDE_LAYER_SCENE",
        "MLAHIFLGIGJ": ""
      },
      "guideHint": {
        "param1": ""
      },
      "finishParent": true,
      "isRewind": true,
      "versionBegin": "",
      "versionEnd": ""
    },
    {
      "subId": 7415703,
      "mainId": 74157,
      "order": 4,
      "descTextMapHash": 1945045500,
      "finishCond": [
        {
          "damageRatio": "QUEST_CONTENT_COMPLETE_TALK",
          "param": [
            7415703,
            0
          ]
        }
      ],
      "guide": {
        "damageRatio": "QUEST_GUIDE_NPC",
        "param": [
          "21249"
        ],
        "guideScene": 3,
        "guideStyle": "QUEST_GUIDE_STYLE_TARGET",
        "guideLayer": "QUEST_GUIDE_LAYER_SCENE",
        "MLAHIFLGIGJ": ""
      },
      "guideHint": {
        "param1": ""
      },
      "finishParent": true,
      "isRewind": true,
      "versionBegin": "",
      "versionEnd": ""
    },
    {
      "subId": 7415704,
      "mainId": 74157,
      "order": 1,
      "descTextMapHash": 3211298844,
      "showType": "QUEST_HIDDEN",
      "finishCond": [
        {
          "damageRatio": "QUEST_CONTENT_GAME_TIME_TICK",
          "param": [
            1,
            0
          ]
        }
      ],
      "guide": {
        "param": [
          "30"
        ],
        "guideScene": 3,
        "MLAHIFLGIGJ": ""
      },
      "showGuide": "QUEST_GUIDE_ITEM_DISABLE",
      "guideHint": {
        "param1": ""
      },
      "isRewind": true,
      "versionBegin": "",
      "versionEnd": ""
    }
  ],
  "talks": [
    {
      "id": 7415702,
      "beginWay": "TALK_BEGIN_MANUAL",
      "activeMode": "PLAY_MODE_HOST",
      "beginCondComb": "LOGIC_AND",
      "beginCond": [
        {
          "type": "QUEST_COND_STATE_EQUAL",
          "_param": [
            "7415704",
            "3"
          ]
        },
        {
          "type": "QUEST_COND_STATE_EQUAL",
          "_param": [
            "7415702",
            "2"
          ]
        },
        {
          "type": "QUEST_COND_STATE_EQUAL",
          "_param": [
            "7415611",
            "3"
          ]
        }
      ],
      "priority": 6,
      "initDialog": 741570201,
      "npcId": [
        21252
      ],
      "performCfg": "QuestDialogue/WQ/Fontaine_74157/Q7415702",
      "heroTalk": "TALK_HERO_MAIN",
      "questId": 74157,
      "assetIndex": 12214767821812511504,
      "prePerformCfg": "",
      "CHAKPMBJNAJ": [
        "[3_6426:3590.477,435.194,4529.384,0.000,69.146,0.000]",
        "[3_6427:3592.190,435.092,4530.660,0.000,39.858,0.000]",
        "[3_6428:3591.760,435.092,4531.844,0.000,97.725,0.000]",
        "[3_6429:3592.852,435.092,4532.181,0.000,234.485,0.000]",
        "[3_7537:3592.830,435.092,4530.220,0.000,289.018,0.000]",
        "[3_7538:3593.010,435.092,4531.015,0.000,271.059,0.000]"
      ]
    },
    {
      "id": 7415703,
      "beginWay": "TALK_BEGIN_MANUAL",
      "activeMode": "PLAY_MODE_HOST",
      "beginCondComb": "LOGIC_AND",
      "beginCond": [
        {
          "type": "QUEST_COND_STATE_EQUAL",
          "_param": [
            "7415704",
            "3"
          ]
        },
        {
          "type": "QUEST_COND_STATE_EQUAL",
          "_param": [
            "7415702",
            "2"
          ]
        },
        {
          "type": "QUEST_COND_STATE_EQUAL",
          "_param": [
            "7415612",
            "3"
          ]
        }
      ],
      "priority": 5,
      "initDialog": 741570301,
      "npcId": [
        21252
      ],
      "performCfg": "QuestDialogue/WQ/Fontaine_74157/Q7415703",
      "heroTalk": "TALK_HERO_MAIN",
      "questId": 74157,
      "assetIndex": 6370505329218416807,
      "prePerformCfg": "",
      "CHAKPMBJNAJ": [
        "[3_6426:3590.477,435.194,4529.384,0.000,69.146,0.000]",
        "[3_6429:3592.852,435.092,4532.181,0.000,234.485,0.000]",
        "[3_7537:3592.830,435.092,4530.220,0.000,289.018,0.000]",
        "[3_7538:3593.010,435.092,4531.015,0.000,271.059,0.000]"
      ]
    },
    {
      "id": 7415704,
      "beginWay": "TALK_BEGIN_MANUAL",
      "activeMode": "PLAY_MODE_ALL",
      "beginCondComb": "LOGIC_AND",
      "beginCond": [
        {
          "type": "QUEST_COND_STATE_EQUAL",
          "_param": [
            "99902",
            "2"
          ]
        },
        {
          "type": "QUEST_COND_STATE_EQUAL",
          "_param": [
            "7415608",
            "3"
          ]
        }
      ],
      "priority": 10,
      "initDialog": 741570401,
      "npcId": [
        21253
      ],
      "performCfg": "",
      "questId": 74157,
      "assetIndex": 15481495470850210247,
      "prePerformCfg": ""
    },
    {
      "id": 7415705,
      "beginWay": "TALK_BEGIN_MANUAL",
      "activeMode": "PLAY_MODE_ALL",
      "beginCond": [
        {
          "type": "QUEST_COND_STATE_EQUAL",
          "_param": [
            "7415704",
            "3"
          ]
        }
      ],
      "priority": 5,
      "initDialog": 741570501,
      "npcId": [
        21257
      ],
      "performCfg": "",
      "heroTalk": "TALK_HERO_MAIN",
      "questId": 74157,
      "assetIndex": 18053965894058420193,
      "prePerformCfg": ""
    }
  ],
  "LNMELPHNIDD": true
}