{
  "id": 74153,
  "damageRatio": "WQ",
  "activeMode": "PLAY_MODE_ALL",
  "descTextMapHash": 1594285559,
  "EKEKACCODOE": 586018854,
  "luaPath": "Actor/Quest/WQ74153",
  "suggestTrackMainQuestList": [
    74152
  ],
  "rewardIdList": [
    174153
  ],
  "subQuests": [
    {
      "subId": 7415301,
      "mainId": 74153,
      "order": 2,
      "descTextMapHash": 2033528412,
      "finishCond": [
        {
          "damageRatio": "QUEST_CONTENT_COMPLETE_TALK",
          "param": [
            7415301,
            0
          ]
        }
      ],
      "guide": {
        "damageRatio": "QUEST_GUIDE_NPC",
        "param": [
          "21258"
        ],
        "guideScene": 3,
        "guideStyle": "QUEST_GUIDE_STYLE_TARGET",
        "guideLayer": "QUEST_GUIDE_LAYER_SCENE",
        "MLAHIFLGIGJ": ""
      },
      "guideHint": {
        "param1": ""
      },
      "isRewind": true,
      "versionBegin": "",
      "versionEnd": ""
    },
    {
      "subId": 7415302,
      "mainId": 74153,
      "order": 3,
      "subIdSet": 1,
      "descTextMapHash": 4076286100,
      "finishCond": [
        {
          "damageRatio": "QUEST_CONTENT_ADD_QUEST_PROGRESS",
          "param": [
            7415302,
            0
          ],
          "count": 2
        }
      ],
      "guide": {
        "damageRatio": "QUEST_GUIDE_LOCATION",
        "autoGuide": "QUEST_GUIDE_AUTO_ENABLE",
        "param": [
          "[3_6406:3581.035,435.073,4518.082]",
          "20"
        ],
        "guideScene": 3,
        "guideStyle": "QUEST_GUIDE_STYLE_TARGET",
        "guideLayer": "QUEST_GUIDE_LAYER_SCENE",
        "MLAHIFLGIGJ": ""
      },
      "guideHint": {
        "param1": ""
      },
      "isRewind": true,
      "versionBegin": "",
      "versionEnd": ""
    },
    {
      "subId": 7415303,
      "mainId": 74153,
      "order": 4,
      "descTextMapHash": 2863667036,
      "showType": "QUEST_HIDDEN",
      "finishCond": [
        {
          "damageRatio": "QUEST_CONTENT_COMPLETE_TALK",
          "param": [
            7415303,
            0
          ]
        }
      ],
      "guide": {
        "damageRatio": "QUEST_GUIDE_NPC",
        "param": [
          "21255"
        ],
        "guideScene": 3,
        "guideStyle": "QUEST_GUIDE_STYLE_TARGET",
        "guideLayer": "QUEST_GUIDE_LAYER_SCENE",
        "MLAHIFLGIGJ": ""
      },
      "guideHint": {
        "param1": ""
      },
      "isRewind": true,
      "finishExec": [
        {
          "damageRatio": "QUEST_EXEC_ADD_QUEST_PROGRESS",
          "param": [
            "7415302",
            "1"
          ]
        },
        {
          "damageRatio": "QUEST_EXEC_REFRESH_GROUP_SUITE",
          "param": [
            "3",
            "133401300,1"
          ]
        }
      ],
      "versionBegin": "",
      "versionEnd": ""
    },
    {
      "subId": 7415304,
      "mainId": 74153,
      "order": 5,
      "descTextMapHash": 1511090692,
      "showType": "QUEST_HIDDEN",
      "finishCond": [
        {
          "damageRatio": "QUEST_CONTENT_COMPLETE_TALK",
          "param": [
            7415304,
            0
          ]
        }
      ],
      "guide": {
        "damageRatio": "QUEST_GUIDE_NPC",
        "param": [
          "21256"
        ],
        "guideScene": 3,
        "guideStyle": "QUEST_GUIDE_STYLE_TARGET",
        "guideLayer": "QUEST_GUIDE_LAYER_SCENE",
        "MLAHIFLGIGJ": ""
      },
      "guideHint": {
        "param1": ""
      },
      "isRewind": true,
      "finishExec": [
        {
          "damageRatio": "QUEST_EXEC_ADD_QUEST_PROGRESS",
          "param": [
            "7415302",
            "1"
          ]
        },
        {
          "damageRatio": "QUEST_EXEC_REFRESH_GROUP_SUITE",
          "param": [
            "3",
            "133401268,1"
          ]
        }
      ],
      "versionBegin": "",
      "versionEnd": ""
    },
    {
      "subId": 7415305,
      "mainId": 74153,
      "order": 8,
      "descTextMapHash": 4271455108,
      "finishCond": [
        {
          "damageRatio": "QUEST_CONTENT_COMPLETE_TALK",
          "param": [
            7415305,
            0
          ]
        }
      ],
      "guide": {
        "damageRatio": "QUEST_GUIDE_LOCATION",
        "autoGuide": "QUEST_GUIDE_AUTO_ENABLE",
        "param": [
          "[3_6409:3600.498,438.689,4518.938,0.000,146.596,0.000]"
        ],
        "guideScene": 3,
        "guideStyle": "QUEST_GUIDE_STYLE_POINT",
        "guideLayer": "QUEST_GUIDE_LAYER_SCENE",
        "MLAHIFLGIGJ": ""
      },
      "guideHint": {
        "param1": ""
      },
      "isRewind": true,
      "versionBegin": "",
      "versionEnd": ""
    },
    {
      "subId": 7415306,
      "mainId": 74153,
      "order": 9,
      "descTextMapHash": 603052940,
      "finishCond": [
        {
          "damageRatio": "QUEST_CONTENT_FINISH_PLOT",
          "param": [
            7415306,
            0
          ]
        }
      ],
      "guide": {
        "damageRatio": "QUEST_GUIDE_LOCATION",
        "autoGuide": "QUEST_GUIDE_AUTO_ENABLE",
        "param": [
          "[3_7541:3502.571,283.082,4535.524]",
          "40"
        ],
        "guideScene": 3,
        "guideStyle": "QUEST_GUIDE_STYLE_TARGET",
        "guideLayer": "QUEST_GUIDE_LAYER_SCENE",
        "MLAHIFLGIGJ": ""
      },
      "showGuide": "QUEST_GUIDE_ITEM_DISABLE",
      "guideHint": {
        "param1": ""
      },
      "isRewind": true,
      "versionBegin": "",
      "versionEnd": ""
    },
    {
      "subId": 7415307,
      "mainId": 74153,
      "order": 11,
      "descTextMapHash": 2570684764,
      "finishCond": [
        {
          "damageRatio": "QUEST_CONTENT_COMPLETE_TALK",
          "param": [
            7415307,
            0
          ]
        }
      ],
      "guide": {
        "damageRatio": "QUEST_GUIDE_LOCATION",
        "param": [
          "[3_7541:3502.571,283.082,4535.524]",
          "40"
        ],
        "guideScene": 3,
        "guideStyle": "QUEST_GUIDE_STYLE_TARGET",
        "guideLayer": "QUEST_GUIDE_LAYER_SCENE",
        "MLAHIFLGIGJ": ""
      },
      "guideHint": {
        "param1": ""
      },
      "isRewind": true,
      "versionBegin": "",
      "versionEnd": ""
    },
    {
      "subId": 7415308,
      "mainId": 74153,
      "order": 12,
      "descTextMapHash": 1582741036,
      "finishCond": [
        {
          "damageRatio": "QUEST_CONTENT_COMPLETE_TALK",
          "param": [
            7415308,
            0
          ]
        }
      ],
      "guide": {
        "damageRatio": "QUEST_GUIDE_LOCATION",
        "param": [
          "[3_7465:3429.760,291.923,4468.575]",
          "30"
        ],
        "guideScene": 3,
        "guideStyle": "QUEST_GUIDE_STYLE_TARGET",
        "guideLayer": "QUEST_GUIDE_LAYER_SCENE",
        "MLAHIFLGIGJ": ""
      },
      "guideHint": {
        "param1": ""
      },
      "finishParent": true,
      "isRewind": true,
      "finishExec": [
        {
          "damageRatio": "QUEST_EXEC_DEL_PACK_ITEM",
          "param": [
            "120808",
            "1"
          ]
        }
      ],
      "versionBegin": "",
      "versionEnd": ""
    },
    {
      "subId": 7415309,
      "mainId": 74153,
      "order": 1,
      "descTextMapHash": 2311988476,
      "showType": "QUEST_HIDDEN",
      "finishCond": [
        {
          "damageRatio": "QUEST_CONTENT_GAME_TIME_TICK",
          "param": [
            1,
            0
          ]
        }
      ],
      "guide": {
        "damageRatio": "QUEST_GUIDE_NPC",
        "param": [
          "21258"
        ],
        "guideScene": 3,
        "guideStyle": "QUEST_GUIDE_STYLE_TARGET",
        "guideLayer": "QUEST_GUIDE_LAYER_SCENE",
        "MLAHIFLGIGJ": ""
      },
      "guideHint": {
        "param1": ""
      },
      "isRewind": true,
      "finishExec": [
        {
          "damageRatio": "QUEST_EXEC_SET_QUEST_GLOBAL_VAR",
          "param": [
            "7414901",
            "0"
          ]
        }
      ],
      "versionBegin": "",
      "versionEnd": ""
    },
    {
      "subId": 7415310,
      "mainId": 74153,
      "order": 7,
      "descTextMapHash": 1550772748,
      "showType": "QUEST_HIDDEN",
      "finishCond": [
        {
          "damageRatio": "QUEST_CONTENT_ADD_QUEST_PROGRESS",
          "param": [
            7415302,
            0
          ],
          "count": 2
        }
      ],
      "guide": {
        "damageRatio": "QUEST_GUIDE_LOCATION",
        "autoGuide": "QUEST_GUIDE_AUTO_ENABLE",
        "param": [
          "[3_6406:3581.035,435.073,4518.082]",
          "30"
        ],
        "guideScene": 3,
        "guideStyle": "QUEST_GUIDE_STYLE_TARGET",
        "guideLayer": "QUEST_GUIDE_LAYER_SCENE",
        "MLAHIFLGIGJ": ""
      },
      "guideHint": {
        "param1": ""
      },
      "isRewind": true,
      "versionBegin": "",
      "versionEnd": ""
    },
    {
      "subId": 7415311,
      "mainId": 74153,
      "order": 10,
      "descTextMapHash": 77469460,
      "finishCond": [
        {
          "damageRatio": "QUEST_CONTENT_FINISH_PLOT",
          "param": [
            7415311,
            0
          ]
        }
      ],
      "guide": {
        "damageRatio": "QUEST_GUIDE_LOCATION",
        "autoGuide": "QUEST_GUIDE_AUTO_ENABLE",
        "param": [
          "[3_6411:3432.867,291.914,4467.196,0.000,227.500,0.000]",
          "20"
        ],
        "guideScene": 3,
        "guideStyle": "QUEST_GUIDE_STYLE_TARGET",
        "guideLayer": "QUEST_GUIDE_LAYER_SCENE",
        "MLAHIFLGIGJ": ""
      },
      "showGuide": "QUEST_GUIDE_ITEM_DISABLE",
      "guideHint": {
        "param1": ""
      },
      "isRewind": true,
      "versionBegin": "",
      "versionEnd": ""
    },
    {
      "subId": 7415312,
      "mainId": 74153,
      "order": 6,
      "showType": "QUEST_HIDDEN",
      "finishCond": [
        {
          "damageRatio": "QUEST_CONTENT_QUEST_STATE_EQUAL",
          "param": [
            7415302,
            3
          ]
        }
      ],
      "guide": {
        "MLAHIFLGIGJ": ""
      },
      "guideHint": {
        "param1": ""
      },
      "isRewind": true,
      "versionBegin": "",
      "versionEnd": ""
    }
  ],
  "talks": [
    {
      "id": 7415104,
      "beginWay": "TALK_BEGIN_MANUAL",
      "activeMode": "PLAY_MODE_HOST",
      "beginCondComb": "LOGIC_AND",
      "beginCond": [
        {
          "type": "QUEST_COND_STATE_EQUAL",
          "_param": [
            "7415107",
            "3"
          ]
        },
        {
          "type": "QUEST_COND_STATE_EQUAL",
          "_param": [
            "7415309",
            "2"
          ]
        }
      ],
      "priority": 6,
      "initDialog": 741510401,
      "npcId": [
        21253
      ],
      "performCfg": "",
      "heroTalk": "TALK_HERO_MAIN",
      "questId": 74153,
      "assetIndex": 178924081346938082,
      "prePerformCfg": "",
      "questIdleTalk": true
    },
    {
      "id": 7415301,
      "beginWay": "TALK_BEGIN_MANUAL",
      "activeMode": "PLAY_MODE_HOST",
      "beginCondComb": "LOGIC_AND",
      "beginCond": [
        {
          "type": "QUEST_COND_STATE_EQUAL",
          "_param": [
            "7415301",
            "2"
          ]
        },
        {
          "type": "QUEST_COND_STATE_EQUAL",
          "_param": [
            "7415309",
            "3"
          ]
        }
      ],
      "priority": 5,
      "initDialog": 741530101,
      "npcId": [
        21258
      ],
      "performCfg": "QuestDialogue/WQ/Fontaine_74153/Q7415301",
      "heroTalk": "TALK_HERO_MAIN",
      "questId": 74153,
      "assetIndex": 17626218805644715613,
      "prePerformCfg": "",
      "CHAKPMBJNAJ": [
        "[3_6403:3593.842,435.073,4531.799,0.000,253.801,0.000]",
        "[3_7522:3594.910,435.073,4531.890,0.000,265.335,0.000]",
        "[3_7523:3594.826,435.073,4532.510,0.000,238.925,0.000]"
      ]
    },
    {
      "id": 7415303,
      "beginWay": "TALK_BEGIN_MANUAL",
      "activeMode": "PLAY_MODE_HOST",
      "beginCondComb": "LOGIC_AND",
      "beginCond": [
        {
          "type": "QUEST_COND_STATE_EQUAL",
          "_param": [
            "7415303",
            "2"
          ]
        },
        {
          "type": "QUEST_COND_STATE_EQUAL",
          "_param": [
            "7415301",
            "3"
          ]
        }
      ],
      "priority": 5,
      "initDialog": 741530301,
      "npcId": [
        21255
      ],
      "performCfg": "QuestDialogue/WQ/Fontaine_74153/Q7415303",
      "heroTalk": "TALK_HERO_MAIN",
      "questId": 74153,
      "assetIndex": 17613535099811098845,
      "prePerformCfg": ""
    },
    {
      "id": 7415304,
      "beginWay": "TALK_BEGIN_MANUAL",
      "activeMode": "PLAY_MODE_HOST",
      "beginCondComb": "LOGIC_AND",
      "beginCond": [
        {
          "type": "QUEST_COND_STATE_EQUAL",
          "_param": [
            "7415304",
            "2"
          ]
        },
        {
          "type": "QUEST_COND_STATE_EQUAL",
          "_param": [
            "7415301",
            "3"
          ]
        }
      ],
      "priority": 5,
      "initDialog": 741530401,
      "npcId": [
        21256
      ],
      "performCfg": "",
      "heroTalk": "TALK_HERO_MAIN",
      "questId": 74153,
      "assetIndex": 13445295224881400212,
      "prePerformCfg": ""
    },
    {
      "id": 7415305,
      "beginWay": "TALK_BEGIN_MANUAL",
      "activeMode": "PLAY_MODE_HOST",
      "beginCondComb": "LOGIC_AND",
      "beginCond": [
        {
          "type": "QUEST_COND_STATE_EQUAL",
          "_param": [
            "7415305",
            "2"
          ]
        },
        {
          "type": "QUEST_COND_STATE_EQUAL",
          "_param": [
            "7415302",
            "3"
          ]
        }
      ],
      "priority": 5,
      "initDialog": 741530501,
      "npcId": [
        1005
      ],
      "performCfg": "QuestDialogue/WQ/Fontaine_74153/Q7415305",
      "heroTalk": "TALK_HERO_MAIN",
      "questId": 74153,
      "assetIndex": 10997081627250870010,
      "prePerformCfg": "",
      "CHAKPMBJNAJ": [
        "[3_6478:3601.207,438.689,4517.960,0.004,326.320,359.988]"
      ]
    },
    {
      "id": 7415307,
      "beginWay": "TALK_BEGIN_MANUAL",
      "activeMode": "PLAY_MODE_HOST",
      "beginCondComb": "LOGIC_AND",
      "beginCond": [
        {
          "type": "QUEST_COND_STATE_EQUAL",
          "_param": [
            "7415307",
            "2"
          ]
        },
        {
          "type": "QUEST_COND_STATE_EQUAL",
          "_param": [
            "7415306",
            "3"
          ]
        }
      ],
      "priority": 5,
      "initDialog": 741530701,
      "npcId": [
        21259
      ],
      "performCfg": "QuestDialogue/WQ/Fontaine_74153/Q7415307",
      "heroTalk": "TALK_HERO_MAIN",
      "questId": 74153,
      "assetIndex": 16299189808762157121,
      "prePerformCfg": "",
      "CHAKPMBJNAJ": [
        "[3_6410:3504.715,283.082,4526.980,0.000,4.844,0.000]",
        "[3_7524:3505.040,283.082,4528.360,0.000,196.565,0.000]",
        "[3_7525:3504.077,283.082,4528.295,0.000,163.108,0.000]"
      ]
    },
    {
      "id": 7415308,
      "beginWay": "TALK_BEGIN_MANUAL",
      "activeMode": "PLAY_MODE_HOST",
      "beginCondComb": "LOGIC_AND",
      "beginCond": [
        {
          "type": "QUEST_COND_STATE_EQUAL",
          "_param": [
            "7415308",
            "2"
          ]
        },
        {
          "type": "QUEST_COND_STATE_EQUAL",
          "_param": [
            "7415307",
            "3"
          ]
        }
      ],
      "priority": 5,
      "initDialog": 741530801,
      "npcId": [
        21250
      ],
      "performCfg": "QuestDialogue/WQ/Fontaine_74153/Q7415308",
      "heroTalk": "TALK_HERO_MAIN",
      "questId": 74153,
      "assetIndex": 8520560547321331371,
      "prePerformCfg": "",
      "CHAKPMBJNAJ": [
        "[3_6411:3432.867,291.914,4467.196,0.000,227.500,0.000]",
        "[3_7526:3431.590,291.915,4468.678,0.000,133.947,0.000]",
        "[3_7527:3431.030,291.921,4467.845,0.000,104.700,0.000]"
      ]
    },
    {
      "id": 7415309,
      "beginWay": "TALK_BEGIN_MANUAL",
      "activeMode": "PLAY_MODE_HOST",
      "beginCond": [
        {
          "type": "QUEST_COND_STATE_EQUAL",
          "_param": [
            "7415301",
            "3"
          ]
        }
      ],
      "priority": 7,
      "initDialog": 741530901,
      "npcId": [
        21253
      ],
      "performCfg": "",
      "heroTalk": "TALK_HERO_MAIN",
      "questId": 74153,
      "assetIndex": 9437633707878143096,
      "prePerformCfg": ""
    },
    {
      "id": 7415310,
      "activeMode": "PLAY_MODE_HOST",
      "beginCondComb": "LOGIC_AND",
      "beginCond": [
        {
          "type": "QUEST_COND_STATE_EQUAL",
          "_param": [
            "7415307",
            "2"
          ]
        },
        {
          "type": "QUEST_COND_STATE_EQUAL",
          "_param": [
            "7415306",
            "3"
          ]
        }
      ],
      "priority": 5,
      "initDialog": 741531001,
      "npcId": [
        5066
      ],
      "performCfg": "",
      "heroTalk": "TALK_HERO_MAIN",
      "questId": 74153,
      "assetIndex": 16864792527420255170,
      "prePerformCfg": ""
    },
    {
      "id": 7415311,
      "activeMode": "PLAY_MODE_HOST",
      "beginCondComb": "LOGIC_AND",
      "beginCond": [
        {
          "type": "QUEST_COND_STATE_EQUAL",
          "_param": [
            "7415307",
            "2"
          ]
        },
        {
          "type": "QUEST_COND_STATE_EQUAL",
          "_param": [
            "7415306",
            "3"
          ]
        }
      ],
      "priority": 5,
      "initDialog": 741531101,
      "npcId": [
        5065
      ],
      "performCfg": "",
      "heroTalk": "TALK_HERO_MAIN",
      "questId": 74153,
      "assetIndex": 9884643021096808339,
      "prePerformCfg": ""
    },
    {
      "id": 7415312,
      "activeMode": "PLAY_MODE_HOST",
      "beginCondComb": "LOGIC_AND",
      "beginCond": [
        {
          "type": "QUEST_COND_STATE_EQUAL",
          "_param": [
            "7415307",
            "2"
          ]
        },
        {
          "type": "QUEST_COND_STATE_EQUAL",
          "_param": [
            "7415306",
            "3"
          ]
        }
      ],
      "priority": 5,
      "initDialog": 741531201,
      "npcId": [
        5067
      ],
      "performCfg": "QuestDialogue/WQ/Fontaine_74153/Q7415312",
      "heroTalk": "TALK_HERO_MAIN",
      "questId": 74153,
      "assetIndex": 18378730746712392570,
      "prePerformCfg": ""
    }
  ],
  "preloadLuaList": [
    14457059026087496718,
    12905696183209559652,
    6642928489741199182,
    11882782849653622324
  ],
  "forcePreloadLuaList": [
    2667275024058399719
  ],
  "LNMELPHNIDD": true
}