{
  "id": 74168,
  "damageRatio": "WQ",
  "activeMode": "PLAY_MODE_ALL",
  "descTextMapHash": 3343722207,
  "luaPath": "Actor/Quest/WQ74168",
  "rewardIdList": [
    74168
  ],
  "showType": "QUEST_HIDDEN",
  "subQuests": [
    {
      "subId": 7416801,
      "mainId": 74168,
      "order": 1,
      "showType": "QUEST_HIDDEN",
      "finishCond": [
        {
          "damageRatio": "QUEST_CONTENT_FINISH_PLOT",
          "param": [
            7416801,
            0
          ]
        }
      ],
      "guide": {
        "MLAHIFLGIGJ": ""
      },
      "guideHint": {
        "param1": ""
      },
      "finishParent": true,
      "isRewind": true,
      "versionBegin": "",
      "versionEnd": ""
    }
  ]
}