{
  "id": 74172,
  "damageRatio": "WQ",
  "activeMode": "PLAY_MODE_ALL",
  "descTextMapHash": 3326649879,
  "luaPath": "Actor/Quest/WQ74172",
  "showType": "QUEST_HIDDEN",
  "subQuests": [
    {
      "subId": 7417201,
      "mainId": 74172,
      "order": 1,
      "descTextMapHash": 1528475060,
      "showType": "QUEST_HIDDEN",
      "finishCond": [
        {
          "damageRatio": "QUEST_CONTENT_FINISH_PLOT",
          "param": [
            7417201,
            0
          ]
        }
      ],
      "guide": {
        "MLAHIFLGIGJ": ""
      },
      "showGuide": "QUEST_GUIDE_ITEM_DISABLE",
      "guideHint": {
        "param1": ""
      },
      "finishParent": true,
      "isRewind": true,
      "versionBegin": "",
      "versionEnd": ""
    }
  ],
  "talks": [
    {
      "id": 7405389,
      "beginWay": "TALK_BEGIN_MANUAL",
      "activeMode": "PLAY_MODE_HOST",
      "beginCond": [
        {
          "type": "QUEST_COND_STATE_EQUAL",
          "_param": [
            "7417201",
            "2"
          ]
        }
      ],
      "priority": 5,
      "initDialog": 740538901,
      "npcId": [
        5257
      ],
      "performCfg": "QuestDialogue/WQ/Fontaine_74053/Q7405389",
      "heroTalk": "TALK_HERO_MAIN",
      "questId": 74172,
      "assetIndex": 538533030404014025,
      "prePerformCfg": "",
      "questIdleTalk": true
    },
    {
      "id": 7405391,
      "beginWay": "TALK_BEGIN_MANUAL",
      "activeMode": "PLAY_MODE_HOST",
      "beginCond": [
        {
          "type": "QUEST_COND_STATE_EQUAL",
          "_param": [
            "7417201",
            "2"
          ]
        }
      ],
      "priority": 3,
      "initDialog": 740539101,
      "npcId": [
        5258
      ],
      "performCfg": "",
      "heroTalk": "TALK_HERO_MAIN",
      "questId": 74172,
      "assetIndex": 3259290879748676550,
      "prePerformCfg": "",
      "questIdleTalk": true
    }
  ],
  "preloadLuaList": [
    12970646856207121595
  ],
  "forcePreloadLuaList": [
    5381813616158503341
  ]
}