{
  "id": 74175,
  "damageRatio": "WQ",
  "activeMode": "PLAY_MODE_ALL",
  "luaPath": "Actor/Quest/WQ74175",
  "showType": "QUEST_HIDDEN",
  "subQuests": [
    {
      "subId": 7417501,
      "mainId": 74175,
      "order": 1,
      "showType": "QUEST_HIDDEN",
      "finishCond": [
        {
          "damageRatio": "QUEST_CONTENT_FINISH_PLOT",
          "param": [
            7417501,
            0
          ]
        }
      ],
      "guide": {
        "MLAHIFLGIGJ": ""
      },
      "showGuide": "QUEST_GUIDE_ITEM_DISABLE",
      "guideHint": {
        "param1": ""
      },
      "finishParent": true,
      "failParentShow": "QUEST_HIDDEN",
      "isRewind": true,
      "finishExec": [
        {
          "damageRatio": "QUEST_EXEC_UNLOCK_POINT",
          "param": [
            "3",
            "999"
          ]
        }
      ],
      "versionBegin": "",
      "versionEnd": ""
    }
  ]
}