{
  "id": 74184,
  "damageRatio": "WQ",
  "mainQuestTag": "MAINQUEST_TAG_RANK_ZERO_WQ",
  "activeMode": "PLAY_MODE_ALL",
  "descTextMapHash": 4199780231,
  "EKEKACCODOE": 2506335222,
  "luaPath": "Actor/Quest/WQ74184",
  "suggestTrackMainQuestList": [
    74195
  ],
  "rewardIdList": [
    174184
  ],
  "chapterId": 10183,
  "subQuests": [
    {
      "subId": 7418401,
      "mainId": 74184,
      "order": 2,
      "showType": "QUEST_HIDDEN",
      "finishCond": [
        {
          "damageRatio": "QUEST_CONTENT_COMPLETE_TALK",
          "param": [
            7418401,
            0
          ]
        }
      ],
      "guide": {
        "damageRatio": "QUEST_GUIDE_NPC",
        "param": [
          "21417"
        ],
        "guideScene": 3,
        "guideStyle": "QUEST_GUIDE_STYLE_TARGET",
        "MLAHIFLGIGJ": ""
      },
      "guideHint": {
        "param1": ""
      },
      "isRewind": true,
      "versionBegin": "",
      "versionEnd": ""
    },
    {
      "subId": 7418402,
      "mainId": 74184,
      "order": 3,
      "descTextMapHash": 2041784332,
      "finishCond": [
        {
          "damageRatio": "QUEST_CONTENT_LUA_NOTIFY",
          "param": [
            0,
            0
          ],
          "count": 1
        }
      ],
      "guide": {
        "damageRatio": "QUEST_GUIDE_LOCATION",
        "param": [
          "[3_6971:1233.031,282.230,4435.986]",
          "30"
        ],
        "guideScene": 3,
        "guideStyle": "QUEST_GUIDE_STYLE_POINT",
        "guideLayer": "QUEST_GUIDE_LAYER_SCENE",
        "MLAHIFLGIGJ": ""
      },
      "guideHint": {
        "param1": ""
      },
      "isRewind": true,
      "versionBegin": "",
      "versionEnd": ""
    },
    {
      "subId": 7418403,
      "mainId": 74184,
      "order": 4,
      "descTextMapHash": 3567860228,
      "finishCond": [
        {
          "damageRatio": "QUEST_CONTENT_FINISH_PLOT",
          "param": [
            7418403,
            0
          ]
        }
      ],
      "guide": {
        "damageRatio": "QUEST_GUIDE_LOCATION",
        "param": [
          "[3_340500087:1231.757,281.991,4437.511,0.000,147.767,0.000]"
        ],
        "guideScene": 3,
        "guideStyle": "QUEST_GUIDE_STYLE_POINT",
        "MLAHIFLGIGJ": ""
      },
      "guideHint": {
        "param1": ""
      },
      "isRewind": true,
      "versionBegin": "",
      "versionEnd": ""
    },
    {
      "subId": 7418404,
      "mainId": 74184,
      "order": 6,
      "isMpBlock": true,
      "descTextMapHash": 449058380,
      "showType": "QUEST_HIDDEN",
      "finishCond": [
        {
          "damageRatio": "QUEST_CONTENT_QUEST_STATE_EQUAL",
          "param": [
            7418436,
            3
          ]
        }
      ],
      "failCond": [
        {
          "damageRatio": "QUEST_CONTENT_LEAVE_SCENE",
          "param": [
            20210,
            0
          ]
        },
        {
          "damageRatio": "QUEST_CONTENT_ENTER_MY_WORLD",
          "param": [
            3,
            0
          ]
        },
        {
          "damageRatio": "QUEST_CONTENT_FAIL_DUNGEON",
          "param": [
            1196,
            0
          ]
        },
        {
          "damageRatio": "QUEST_CONTENT_TEAM_DEAD",
          "param": [
            0,
            0
          ]
        },
        {
          "damageRatio": "QUEST_CONTENT_ANY_MANUAL_TRANSPORT",
          "param": [
            0,
            0
          ]
        }
      ],
      "guide": {
        "guideStyle": "QUEST_GUIDE_STYLE_POINT",
        "MLAHIFLGIGJ": ""
      },
      "showGuide": "QUEST_GUIDE_ITEM_DISABLE",
      "guideHint": {
        "param1": ""
      },
      "isRewind": true,
      "finishExec": [
        {
          "damageRatio": "QUEST_EXEC_UNLOCK_AVATAR_TEAM_V2"
        }
      ],
      "failExec": [
        {
          "damageRatio": "QUEST_EXEC_UNLOCK_AVATAR_TEAM_V2"
        },
        {
          "damageRatio": "QUEST_EXEC_ROLLBACK_QUEST",
          "param": [
            "7418403"
          ]
        }
      ],
      "versionBegin": "",
      "versionEnd": ""
    },
    {
      "subId": 7418406,
      "mainId": 74184,
      "order": 8,
      "isMpBlock": true,
      "showType": "QUEST_HIDDEN",
      "finishCond": [
        {
          "damageRatio": "QUEST_CONTENT_LUA_NOTIFY",
          "param": [
            0,
            0
          ],
          "count": 1
        }
      ],
      "guide": {
        "guideStyle": "QUEST_GUIDE_STYLE_POINT",
        "MLAHIFLGIGJ": ""
      },
      "showGuide": "QUEST_GUIDE_ITEM_DISABLE",
      "guideHint": {
        "param1": ""
      },
      "versionBegin": "",
      "versionEnd": ""
    },
    {
      "subId": 7418407,
      "mainId": 74184,
      "order": 11,
      "isMpBlock": true,
      "showType": "QUEST_HIDDEN",
      "finishCond": [
        {
          "damageRatio": "QUEST_CONTENT_FINISH_PLOT",
          "param": [
            7418436,
            0
          ]
        }
      ],
      "guide": {
        "guideStyle": "QUEST_GUIDE_STYLE_POINT",
        "MLAHIFLGIGJ": ""
      },
      "showGuide": "QUEST_GUIDE_ITEM_DISABLE",
      "guideHint": {
        "param1": ""
      },
      "isRewind": true,
      "finishExec": [
        {
          "damageRatio": "QUEST_EXEC_UNLOCK_AVATAR_TEAM_V2"
        }
      ],
      "versionBegin": "",
      "versionEnd": ""
    },
    {
      "subId": 7418408,
      "mainId": 74184,
      "order": 12,
      "descTextMapHash": 4262232580,
      "finishCond": [
        {
          "damageRatio": "QUEST_CONTENT_COMPLETE_TALK",
          "param": [
            7418408,
            0
          ]
        }
      ],
      "guide": {
        "damageRatio": "QUEST_GUIDE_LOCATION",
        "param": [
          "[3_7879:1230.036,281.867,4434.646,0.000,4.772,0.000]"
        ],
        "guideScene": 3,
        "guideStyle": "QUEST_GUIDE_STYLE_POINT",
        "guideLayer": "QUEST_GUIDE_LAYER_SCENE",
        "MLAHIFLGIGJ": ""
      },
      "guideHint": {
        "param1": ""
      },
      "isRewind": true,
      "finishExec": [
        {
          "damageRatio": "QUEST_EXEC_SET_QUEST_GLOBAL_VAR",
          "param": [
            "7418403",
            "1"
          ]
        },
        {
          "damageRatio": "QUEST_EXEC_DEL_SCENE_TAG",
          "param": [
            "11",
            "1419"
          ]
        }
      ],
      "versionBegin": "",
      "versionEnd": ""
    },
    {
      "subId": 7418409,
      "mainId": 74184,
      "order": 15,
      "showType": "QUEST_HIDDEN",
      "finishCond": [
        {
          "damageRatio": "QUEST_CONTENT_COMPLETE_TALK",
          "param": [
            7418409,
            0
          ]
        }
      ],
      "guide": {
        "guideStyle": "QUEST_GUIDE_STYLE_TARGET",
        "guideLayer": "QUEST_GUIDE_LAYER_SCENE",
        "MLAHIFLGIGJ": ""
      },
      "showGuide": "QUEST_GUIDE_ITEM_DISABLE",
      "guideHint": {
        "param1": ""
      },
      "versionBegin": "",
      "versionEnd": ""
    },
    {
      "subId": 7418410,
      "mainId": 74184,
      "order": 16,
      "descTextMapHash": 1817920060,
      "finishCond": [
        {
          "damageRatio": "QUEST_CONTENT_FINISH_PLOT",
          "param": [
            7418410,
            0
          ]
        }
      ],
      "guide": {
        "damageRatio": "QUEST_GUIDE_LOCATION",
        "param": [
          "[3_6982:1216.554,280.579,4213.686,0.000,289.534,0.000]",
          "20"
        ],
        "guideScene": 3,
        "guideStyle": "QUEST_GUIDE_STYLE_POINT",
        "guideLayer": "QUEST_GUIDE_LAYER_SCENE",
        "MLAHIFLGIGJ": ""
      },
      "guideHint": {
        "param1": ""
      },
      "isRewind": true,
      "versionBegin": "",
      "versionEnd": ""
    },
    {
      "subId": 7418411,
      "mainId": 74184,
      "order": 17,
      "showType": "QUEST_HIDDEN",
      "finishCond": [
        {
          "damageRatio": "QUEST_CONTENT_FINISH_PLOT",
          "param": [
            7418411,
            0
          ]
        }
      ],
      "guide": {
        "guideScene": 3,
        "guideStyle": "QUEST_GUIDE_STYLE_TARGET",
        "guideLayer": "QUEST_GUIDE_LAYER_SCENE",
        "MLAHIFLGIGJ": ""
      },
      "showGuide": "QUEST_GUIDE_ITEM_DISABLE",
      "guideHint": {
        "param1": ""
      },
      "versionBegin": "",
      "versionEnd": ""
    },
    {
      "subId": 7418412,
      "mainId": 74184,
      "order": 18,
      "descTextMapHash": 3004601332,
      "finishCond": [
        {
          "damageRatio": "QUEST_CONTENT_LUA_NOTIFY",
          "param": [
            0,
            0
          ],
          "count": 1
        }
      ],
      "guide": {
        "damageRatio": "QUEST_GUIDE_LOCATION",
        "param": [
          "[3_6982:1216.554,280.579,4213.686,0.000,289.534,0.000]",
          "40"
        ],
        "guideScene": 3,
        "guideStyle": "QUEST_GUIDE_STYLE_POINT",
        "guideLayer": "QUEST_GUIDE_LAYER_SCENE",
        "MLAHIFLGIGJ": ""
      },
      "guideHint": {
        "param1": ""
      },
      "isRewind": true,
      "versionBegin": "",
      "versionEnd": ""
    },
    {
      "subId": 7418413,
      "mainId": 74184,
      "order": 19,
      "descTextMapHash": 436043844,
      "finishCond": [
        {
          "damageRatio": "QUEST_CONTENT_COMPLETE_TALK",
          "param": [
            7418413,
            0
          ]
        }
      ],
      "guide": {
        "damageRatio": "QUEST_GUIDE_LOCATION",
        "param": [
          "[3_6982:1216.554,280.579,4213.686,0.000,289.534,0.000]",
          "20"
        ],
        "guideScene": 3,
        "guideStyle": "QUEST_GUIDE_STYLE_POINT",
        "guideLayer": "QUEST_GUIDE_LAYER_SCENE",
        "MLAHIFLGIGJ": ""
      },
      "guideHint": {
        "param1": ""
      },
      "isRewind": true,
      "finishExec": [
        {
          "damageRatio": "QUEST_EXEC_NOTIFY_GROUP_LUA",
          "param": [
            "3",
            "133405060"
          ]
        },
        {
          "damageRatio": "QUEST_EXEC_ADD_SCENE_TAG",
          "param": [
            "3",
            "1393"
          ]
        },
        {
          "damageRatio": "QUEST_EXEC_SET_QUEST_GLOBAL_VAR",
          "param": [
            "7418402",
            "1"
          ]
        }
      ],
      "versionBegin": "",
      "versionEnd": ""
    },
    {
      "subId": 7418414,
      "mainId": 74184,
      "order": 20,
      "descTextMapHash": 1861631796,
      "finishCond": [
        {
          "damageRatio": "QUEST_CONTENT_FINISH_PLOT",
          "param": [
            7418414,
            0
          ]
        }
      ],
      "guide": {
        "damageRatio": "QUEST_GUIDE_LOCATION",
        "autoGuide": "QUEST_GUIDE_AUTO_ENABLE",
        "param": [
          "[3_7015:1194.569,219.965,4201.841,355.060,0.000,0.000]"
        ],
        "guideScene": 3,
        "guideStyle": "QUEST_GUIDE_STYLE_TARGET",
        "guideLayer": "QUEST_GUIDE_LAYER_SCENE",
        "MLAHIFLGIGJ": ""
      },
      "guideHint": {
        "param1": ""
      },
      "isRewind": true,
      "versionBegin": "",
      "versionEnd": ""
    },
    {
      "subId": 7418416,
      "mainId": 74184,
      "order": 21,
      "descTextMapHash": 1911751876,
      "finishCond": [
        {
          "damageRatio": "QUEST_CONTENT_FINISH_PLOT",
          "param": [
            7418416,
            0
          ]
        }
      ],
      "guide": {
        "damageRatio": "QUEST_GUIDE_LOCATION",
        "param": [
          "[3_7856:1230.922,80.785,4042.636,0.000,173.544,0.000]"
        ],
        "guideScene": 3,
        "guideStyle": "QUEST_GUIDE_STYLE_POINT",
        "guideLayer": "QUEST_GUIDE_LAYER_SCENE",
        "MLAHIFLGIGJ": ""
      },
      "guideHint": {
        "param1": ""
      },
      "isRewind": true,
      "versionBegin": "",
      "versionEnd": ""
    },
    {
      "subId": 7418417,
      "mainId": 74184,
      "order": 26,
      "showType": "QUEST_HIDDEN",
      "finishCond": [
        {
          "damageRatio": "QUEST_CONTENT_FINISH_PLOT",
          "param": [
            7418417,
            0
          ]
        }
      ],
      "guide": {
        "damageRatio": "QUEST_GUIDE_LOCATION",
        "guideStyle": "QUEST_GUIDE_STYLE_POINT",
        "guideLayer": "QUEST_GUIDE_LAYER_SCENE",
        "MLAHIFLGIGJ": ""
      },
      "showGuide": "QUEST_GUIDE_ITEM_DISABLE",
      "guideHint": {
        "param1": ""
      },
      "versionBegin": "",
      "versionEnd": ""
    },
    {
      "subId": 7418418,
      "mainId": 74184,
      "order": 27,
      "descTextMapHash": 1010779292,
      "finishCond": [
        {
          "damageRatio": "QUEST_CONTENT_COMPLETE_TALK",
          "param": [
            7418418,
            0
          ]
        }
      ],
      "guide": {
        "damageRatio": "QUEST_GUIDE_LOCATION",
        "param": [
          "[3_341300001:1244.798,92.206,3920.123,0.000,167.024,0.000]",
          "20"
        ],
        "guideScene": 3,
        "guideStyle": "QUEST_GUIDE_STYLE_POINT",
        "guideLayer": "QUEST_GUIDE_LAYER_SCENE",
        "MLAHIFLGIGJ": ""
      },
      "guideHint": {
        "param1": ""
      },
      "isRewind": true,
      "versionBegin": "",
      "versionEnd": ""
    },
    {
      "subId": 7418419,
      "mainId": 74184,
      "order": 1,
      "showType": "QUEST_HIDDEN",
      "finishCond": [
        {
          "damageRatio": "QUEST_CONTENT_FINISH_PLOT",
          "param": [
            7418419,
            0
          ]
        }
      ],
      "guide": {
        "MLAHIFLGIGJ": ""
      },
      "showGuide": "QUEST_GUIDE_ITEM_DISABLE",
      "guideHint": {
        "param1": ""
      },
      "isRewind": true,
      "versionBegin": "",
      "versionEnd": ""
    },
    {
      "subId": 7418420,
      "mainId": 74184,
      "order": 13,
      "descTextMapHash": 1112648140,
      "finishCond": [
        {
          "damageRatio": "QUEST_CONTENT_QUEST_STATE_EQUAL",
          "param": [
            7418409,
            3
          ]
        }
      ],
      "guide": {
        "damageRatio": "QUEST_GUIDE_LOCATION",
        "autoGuide": "QUEST_GUIDE_AUTO_ENABLE",
        "param": [
          "[3_8103:1202.111,295.465,4352.626,0.000,206.432,0.000]",
          "20"
        ],
        "guideScene": 3,
        "guideStyle": "QUEST_GUIDE_STYLE_POINT",
        "guideLayer": "QUEST_GUIDE_LAYER_SCENE",
        "MLAHIFLGIGJ": ""
      },
      "guideHint": {
        "param1": ""
      },
      "isRewind": true,
      "versionBegin": "",
      "versionEnd": ""
    },
    {
      "subId": 7418426,
      "mainId": 74184,
      "order": 7,
      "isMpBlock": true,
      "showType": "QUEST_HIDDEN",
      "finishCond": [
        {
          "damageRatio": "QUEST_CONTENT_COMPLETE_TALK",
          "param": [
            7418426,
            0
          ]
        }
      ],
      "guide": {
        "MLAHIFLGIGJ": ""
      },
      "showGuide": "QUEST_GUIDE_ITEM_DISABLE",
      "guideHint": {
        "param1": ""
      },
      "isRewind": true,
      "versionBegin": "",
      "versionEnd": ""
    },
    {
      "subId": 7418428,
      "mainId": 74184,
      "order": 23,
      "descTextMapHash": 510572724,
      "finishCond": [
        {
          "damageRatio": "QUEST_CONTENT_FINISH_PLOT",
          "param": [
            7418428,
            0
          ]
        }
      ],
      "guide": {
        "damageRatio": "QUEST_GUIDE_LOCATION",
        "param": [
          "[3_7103:1245.628,91.030,3918.078]"
        ],
        "guideScene": 3,
        "guideStyle": "QUEST_GUIDE_STYLE_POINT",
        "guideLayer": "QUEST_GUIDE_LAYER_SCENE",
        "MLAHIFLGIGJ": ""
      },
      "guideHint": {
        "param1": ""
      },
      "isRewind": true,
      "versionBegin": "",
      "versionEnd": ""
    },
    {
      "subId": 7418429,
      "mainId": 74184,
      "order": 24,
      "showType": "QUEST_HIDDEN",
      "finishCond": [
        {
          "damageRatio": "QUEST_CONTENT_FINISH_PLOT",
          "param": [
            7418429,
            0
          ]
        }
      ],
      "guide": {
        "MLAHIFLGIGJ": ""
      },
      "showGuide": "QUEST_GUIDE_ITEM_DISABLE",
      "guideHint": {
        "param1": ""
      },
      "versionBegin": "",
      "versionEnd": ""
    },
    {
      "subId": 7418430,
      "mainId": 74184,
      "order": 25,
      "showType": "QUEST_HIDDEN",
      "finishCond": [
        {
          "damageRatio": "QUEST_CONTENT_LUA_NOTIFY",
          "param": [
            0,
            0
          ],
          "count": 1
        }
      ],
      "guide": {
        "MLAHIFLGIGJ": ""
      },
      "showGuide": "QUEST_GUIDE_ITEM_DISABLE",
      "guideHint": {
        "param1": ""
      },
      "versionBegin": "",
      "versionEnd": ""
    },
    {
      "subId": 7418432,
      "mainId": 74184,
      "order": 28,
      "descTextMapHash": 3550578068,
      "finishCond": [
        {
          "damageRatio": "QUEST_CONTENT_COMPLETE_TALK",
          "param": [
            7418432,
            0
          ]
        }
      ],
      "guide": {
        "damageRatio": "QUEST_GUIDE_LOCATION",
        "param": [
          "[3_341300001:1244.798,92.206,3920.123,0.000,167.024,0.000]",
          "20"
        ],
        "guideScene": 3,
        "guideStyle": "QUEST_GUIDE_STYLE_POINT",
        "guideLayer": "QUEST_GUIDE_LAYER_SCENE",
        "MLAHIFLGIGJ": ""
      },
      "guideHint": {
        "param1": ""
      },
      "finishParent": true,
      "isRewind": true,
      "finishExec": [
        {
          "damageRatio": "QUEST_EXEC_DEL_PACK_ITEM",
          "param": [
            "120794",
            "1"
          ]
        }
      ],
      "versionBegin": "",
      "versionEnd": ""
    },
    {
      "subId": 7418433,
      "mainId": 74184,
      "order": 5,
      "isMpBlock": true,
      "descTextMapHash": 2204157324,
      "finishCond": [
        {
          "damageRatio": "QUEST_CONTENT_ENTER_DUNGEON",
          "param": [
            1196,
            1138
          ]
        }
      ],
      "guide": {
        "damageRatio": "QUEST_GUIDE_LOCATION",
        "param": [
          "[3_7063:1236.148,281.667,4435.003,0.000,298.233,0.000]",
          "10"
        ],
        "guideScene": 3,
        "guideStyle": "QUEST_GUIDE_STYLE_POINT",
        "MLAHIFLGIGJ": ""
      },
      "guideHint": {
        "param1": ""
      },
      "versionBegin": "",
      "versionEnd": ""
    },
    {
      "subId": 7418435,
      "mainId": 74184,
      "order": 22,
      "descTextMapHash": 615018436,
      "finishCond": [
        {
          "damageRatio": "QUEST_CONTENT_COMPLETE_TALK",
          "param": [
            7418435,
            0
          ]
        }
      ],
      "guide": {
        "damageRatio": "QUEST_GUIDE_LOCATION",
        "param": [
          "[3_7856:1230.922,80.785,4042.636,0.000,173.544,0.000]",
          "10"
        ],
        "guideScene": 3,
        "guideStyle": "QUEST_GUIDE_STYLE_POINT",
        "guideLayer": "QUEST_GUIDE_LAYER_SCENE",
        "MLAHIFLGIGJ": ""
      },
      "guideHint": {
        "param1": ""
      },
      "isRewind": true,
      "versionBegin": "",
      "versionEnd": ""
    },
    {
      "subId": 7418436,
      "mainId": 74184,
      "order": 9,
      "isMpBlock": true,
      "showType": "QUEST_HIDDEN",
      "finishCond": [
        {
          "damageRatio": "QUEST_CONTENT_FINISH_PLOT",
          "param": [
            7418436,
            0
          ]
        }
      ],
      "guide": {
        "MLAHIFLGIGJ": ""
      },
      "showGuide": "QUEST_GUIDE_ITEM_DISABLE",
      "guideHint": {
        "param1": ""
      },
      "isRewind": true,
      "versionBegin": "",
      "versionEnd": ""
    },
    {
      "subId": 7418437,
      "mainId": 74184,
      "order": 10,
      "isMpBlock": true,
      "showType": "QUEST_HIDDEN",
      "finishCond": [
        {
          "damageRatio": "QUEST_CONTENT_FINISH_PLOT",
          "param": [
            7418437,
            0
          ]
        }
      ],
      "guide": {
        "MLAHIFLGIGJ": ""
      },
      "showGuide": "QUEST_GUIDE_ITEM_DISABLE",
      "guideHint": {
        "param1": ""
      },
      "finishExec": [
        {
          "damageRatio": "QUEST_EXEC_DEL_SCENE_TAG",
          "param": [
            "11",
            "1420"
          ]
        },
        {
          "damageRatio": "QUEST_EXEC_ADD_SCENE_TAG",
          "param": [
            "11",
            "1419"
          ]
        }
      ],
      "versionBegin": "",
      "versionEnd": ""
    },
    {
      "subId": 7418438,
      "mainId": 74184,
      "order": 99,
      "descTextMapHash": 514748972,
      "finishCond": [
        {
          "damageRatio": "QUEST_CONTENT_QUEST_STATE_EQUAL",
          "param": [
            7418409,
            3
          ]
        }
      ],
      "failCond": [
        {
          "damageRatio": "QUEST_CONTENT_QUEST_STATE_EQUAL",
          "param": [
            7418410,
            2
          ]
        }
      ],
      "guide": {
        "damageRatio": "QUEST_GUIDE_LOCATION",
        "autoGuide": "QUEST_GUIDE_AUTO_ENABLE",
        "param": [
          "[3_8103:1202.111,295.465,4352.626,0.000,206.432,0.000]",
          "20"
        ],
        "guideScene": 3,
        "guideStyle": "QUEST_GUIDE_STYLE_TARGET",
        "guideLayer": "QUEST_GUIDE_LAYER_SCENE",
        "MLAHIFLGIGJ": ""
      },
      "guideHint": {
        "param1": ""
      },
      "isRewind": true,
      "versionBegin": "",
      "versionEnd": ""
    }
  ],
  "talks": [
    {
      "id": 7418401,
      "beginWay": "TALK_BEGIN_MANUAL",
      "activeMode": "PLAY_MODE_HOST",
      "beginCond": [
        {
          "type": "QUEST_COND_STATE_EQUAL",
          "_param": [
            "7418401",
            "2"
          ]
        }
      ],
      "priority": 5,
      "initDialog": 741840101,
      "npcId": [
        21417
      ],
      "performCfg": "QuestDialogue/WQ/Fontaine_74184/Q7418401",
      "heroTalk": "TALK_HERO_MAIN",
      "questId": 74184,
      "assetIndex": 17899474339033442073,
      "prePerformCfg": "",
      "talkMarkType": "TALK_MARK_BILLBOARD_ONLY",
      "CHAKPMBJNAJ": [
        "[3_340500068:1235.549,281.946,4440.128,0.000,231.124,0.000]",
        "[3_7063:1236.148,281.667,4435.003,0.000,298.233,0.000]",
        "[3_7064:1255.151,286.666,4449.983,0.000,32.439,0.000]",
        "[3_7878:1234.312,281.873,4438.909,0.000,256.318,0.000]",
        "[3_7879:1230.036,281.867,4434.646,0.000,4.772,0.000]"
      ]
    },
    {
      "id": 7418403,
      "beginWay": "TALK_BEGIN_MANUAL",
      "activeMode": "PLAY_MODE_HOST",
      "beginCond": [
        {
          "type": "QUEST_COND_STATE_EQUAL",
          "_param": [
            "7418403",
            "2"
          ]
        }
      ],
      "priority": 5,
      "initDialog": 741840301,
      "npcId": [
        21435
      ],
      "performCfg": "QuestDialogue/WQ/Fontaine_74184/Q7418403",
      "heroTalk": "TALK_HERO_MAIN",
      "questId": 74184,
      "assetIndex": 10793190546133581853,
      "prePerformCfg": "",
      "CHAKPMBJNAJ": [
        "[3_340500087:1231.757,281.991,4437.511,0.000,147.767,0.000]",
        "[3_7065:1226.718,282.585,4428.642,0.000,252.910,0.000]",
        "[3_7069:1236.811,281.736,4439.268,0.000,277.682,0.000]"
      ]
    },
    {
      "id": 7418408,
      "beginWay": "TALK_BEGIN_MANUAL",
      "activeMode": "PLAY_MODE_HOST",
      "beginCond": [
        {
          "type": "QUEST_COND_STATE_EQUAL",
          "_param": [
            "7418408",
            "2"
          ]
        }
      ],
      "priority": 5,
      "initDialog": 741840801,
      "npcId": [
        21432
      ],
      "performCfg": "QuestDialogue/WQ/Fontaine_74184/Q7418408",
      "heroTalk": "TALK_HERO_MAIN",
      "questId": 74184,
      "assetIndex": 12332368071083400436,
      "prePerformCfg": "",
      "CHAKPMBJNAJ": [
        "[3_340500068:1235.549,281.946,4440.128,0.000,231.124,0.000]"
      ]
    },
    {
      "id": 7418409,
      "beginWay": "TALK_BEGIN_MANUAL",
      "activeMode": "PLAY_MODE_HOST",
      "beginCond": [
        {
          "type": "QUEST_COND_STATE_EQUAL",
          "_param": [
            "7418409",
            "2"
          ]
        }
      ],
      "priority": 5,
      "initDialog": 741840901,
      "npcId": [
        1005,
        5300,
        5326
      ],
      "performCfg": "QuestDialogue/WQ/Fontaine_74184/Q7418409",
      "heroTalk": "TALK_HERO_MAIN",
      "questId": 74184,
      "assetIndex": 3808956507440795589,
      "prePerformCfg": "",
      "CHAKPMBJNAJ": [
        "[3_340500069:1184.604,296.059,4351.820,0.000,136.862,0.000]",
        "[3_7078:1203.365,295.764,4352.169,0.000,252.779,0.000]",
        "[3_7280:1204.444,296.141,4355.723,0.000,199.538,0.000]",
        "[3_7362:1203.075,298.082,4344.948,0.000,153.775,0.000]"
      ]
    },
    {
      "id": 7418413,
      "beginWay": "TALK_BEGIN_MANUAL",
      "activeMode": "PLAY_MODE_HOST",
      "beginCond": [
        {
          "type": "QUEST_COND_STATE_EQUAL",
          "_param": [
            "7418413",
            "2"
          ]
        }
      ],
      "priority": 5,
      "initDialog": 741841301,
      "npcId": [
        21338
      ],
      "performCfg": "QuestDialogue/WQ/Fontaine_74184/Q7418413",
      "heroTalk": "TALK_HERO_MAIN",
      "questId": 74184,
      "assetIndex": 3528003022974705071,
      "prePerformCfg": "",
      "CHAKPMBJNAJ": [
        "[3_6982:1216.554,280.579,4213.686,0.000,289.534,0.000]",
        "[3_7231:1209.906,279.060,4213.923,0.000,40.687,0.000]"
      ]
    },
    {
      "id": 7418418,
      "beginWay": "TALK_BEGIN_MANUAL",
      "activeMode": "PLAY_MODE_HOST",
      "beginCond": [
        {
          "type": "QUEST_COND_STATE_EQUAL",
          "_param": [
            "7418418",
            "2"
          ]
        }
      ],
      "priority": 5,
      "nextTalks": [
        7418432
      ],
      "initDialog": 741841801,
      "npcId": [
        21338,
        1005
      ],
      "performCfg": "QuestDialogue/WQ/Fontaine_74184/Q7418418",
      "heroTalk": "TALK_HERO_MAIN",
      "questId": 74184,
      "assetIndex": 3408208870601048744,
      "prePerformCfg": "",
      "CHAKPMBJNAJ": [
        "[3_341300001:1244.798,92.206,3920.123,0.000,167.024,0.000]",
        "[3_341300002:1247.651,91.280,3918.026,0.000,309.244,0.000]"
      ]
    },
    {
      "id": 7418426,
      "beginWay": "TALK_BEGIN_MANUAL",
      "activeMode": "PLAY_MODE_HOST",
      "beginCond": [
        {
          "type": "QUEST_COND_STATE_EQUAL",
          "_param": [
            "7418426",
            "2"
          ]
        }
      ],
      "priority": 5,
      "initDialog": 741842601,
      "npcId": [
        21355
      ],
      "performCfg": "QuestDialogue/WQ/Fontaine_74184/Q7418426",
      "heroTalk": "TALK_HERO_MAIN",
      "questId": 74184,
      "assetIndex": 2728320040742942702,
      "prePerformCfg": "",
      "CHAKPMBJNAJ": [
        "[20210_10:1562.984,-495.749,3567.383,0.000,126.557,0.000]",
        "[20210_11:1567.372,-495.219,3566.479,0.000,284.140,0.000]"
      ]
    },
    {
      "id": 7418432,
      "beginWay": "TALK_BEGIN_MANUAL",
      "activeMode": "PLAY_MODE_HOST",
      "beginCond": [
        {
          "type": "QUEST_COND_STATE_EQUAL",
          "_param": [
            "7418432",
            "2"
          ]
        }
      ],
      "priority": 5,
      "initDialog": 741843201,
      "npcId": [
        21338
      ],
      "performCfg": "QuestDialogue/WQ/Fontaine_74184/Q7418432",
      "heroTalk": "TALK_HERO_MAIN",
      "questId": 74184,
      "assetIndex": 14077913836651121376,
      "prePerformCfg": ""
    },
    {
      "id": 7418434,
      "beginWay": "TALK_BEGIN_MANUAL",
      "activeMode": "PLAY_MODE_HOST",
      "beginCond": [
        {
          "type": "QUEST_COND_STATE_EQUAL",
          "_param": [
            "7418434",
            "2"
          ]
        }
      ],
      "priority": 5,
      "initDialog": 741843401,
      "npcId": [
        1005,
        21432
      ],
      "performCfg": "QuestDialogue/WQ/Fontaine_74184/Q7418434",
      "heroTalk": "TALK_HERO_MAIN",
      "questId": 74184,
      "assetIndex": 4320039899431417175,
      "prePerformCfg": "",
      "CHAKPMBJNAJ": [
        "[3_7064:1255.151,286.666,4449.983,0.000,32.439,0.000]",
        "[3_7855:1272.073,280.465,4479.544,0.000,30.171,0.000]"
      ]
    },
    {
      "id": 7418435,
      "beginWay": "TALK_BEGIN_MANUAL",
      "activeMode": "PLAY_MODE_HOST",
      "beginCond": [
        {
          "type": "QUEST_COND_STATE_EQUAL",
          "_param": [
            "7418435",
            "2"
          ]
        }
      ],
      "priority": 5,
      "initDialog": 741843501,
      "npcId": [
        21338,
        1005
      ],
      "performCfg": "QuestDialogue/WQ/Fontaine_74184/Q7418435",
      "heroTalk": "TALK_HERO_MAIN",
      "questId": 74184,
      "assetIndex": 3255725205785734596,
      "prePerformCfg": "",
      "CHAKPMBJNAJ": [
        "[3_7345:1236.710,81.841,4024.870,0.000,177.215,0.000]",
        "[3_7856:1230.922,80.785,4042.636,0.000,173.544,0.000]"
      ]
    },
    {
      "id": 7418436,
      "beginWay": "TALK_BEGIN_MANUAL",
      "activeMode": "PLAY_MODE_HOST",
      "beginCond": [
        {
          "type": "QUEST_COND_STATE_EQUAL",
          "_param": [
            "7418436",
            "2"
          ]
        }
      ],
      "priority": 5,
      "initDialog": 741843601,
      "npcId": [
        21405
      ],
      "performCfg": "QuestDialogue/WQ/Fontaine_74184/Q7418436",
      "heroTalk": "TALK_HERO_MAIN",
      "questId": 74184,
      "assetIndex": 12989402717450274104,
      "prePerformCfg": "",
      "CHAKPMBJNAJ": [
        "[20210_12:1502.101,-414.647,3566.438,0.000,89.410,0.000]",
        "[20210_13:1508.732,-414.509,3566.448,0.000,268.920,0.000]"
      ]
    }
  ],
  "preloadLuaList": [
    5947160964184956081,
    1577556976914856287,
    18363421246102571163,
    16939606247995718046,
    15623294886161504449,
    10489258627607253041,
    11756589608822190368,
    8261378549373245849,
    17119491280731585516,
    11463785282110991692
  ],
  "forcePreloadLuaList": [
    7447256293250358603
  ],
  "freeStyleDic": {
    "21417": [
      1230
    ],
    "21418": [
      1270
    ],
    "21419": [
      1280
    ],
    "5300": [
      1190
    ],
    "21338": [
      15,
      14
    ]
  },
  "dialogList": [
    {
      "id": 741849905,
      "talkRole": {
        "type": "TALK_ROLE_NPC",
        "_id": ""
      },
      "talkContentTextMapHash": 156500522,
      "talkAssetPath": "",
      "talkAssetPathAlter": "",
      "talkAudioName": "",
      "actionBefore": "",
      "actionWhile": "",
      "actionAfter": "",
      "optionIcon": "",
      "iconPath": ""
    }
  ]
}