{
  "id": 74187,
  "damageRatio": "WQ",
  "activeMode": "PLAY_MODE_ALL",
  "descTextMapHash": 1621547879,
  "EKEKACCODOE": 1020031590,
  "luaPath": "Actor/Quest/WQ74187",
  "showType": "QUEST_HIDDEN",
  "subQuests": [
    {
      "subId": 7418701,
      "mainId": 74187,
      "order": 1,
      "descTextMapHash": 4081144228,
      "showType": "QUEST_HIDDEN",
      "finishCond": [
        {
          "damageRatio": "QUEST_CONTENT_FINISH_PLOT",
          "param": [
            7418701,
            0
          ]
        }
      ],
      "guide": {
        "param": [
          "30"
        ],
        "guideScene": 11,
        "MLAHIFLGIGJ": ""
      },
      "showGuide": "QUEST_GUIDE_ITEM_DISABLE",
      "guideHint": {
        "param1": ""
      },
      "failParentShow": "QUEST_HIDDEN",
      "MEMGANDALKN": "QUEST_HIDDEN",
      "isRewind": true,
      "versionBegin": "",
      "versionEnd": ""
    },
    {
      "subId": 7418702,
      "mainId": 74187,
      "order": 2,
      "descTextMapHash": 2225753076,
      "showType": "QUEST_HIDDEN",
      "finishCond": [
        {
          "damageRatio": "QUEST_CONTENT_COMPLETE_TALK",
          "param": [
            7418707,
            0
          ]
        },
        {
          "damageRatio": "QUEST_CONTENT_COMPLETE_TALK",
          "param": [
            7418708,
            0
          ]
        }
      ],
      "guide": {
        "guideScene": 11,
        "MLAHIFLGIGJ": ""
      },
      "showGuide": "QUEST_GUIDE_ITEM_DISABLE",
      "guideHint": {
        "param1": ""
      },
      "failParentShow": "QUEST_HIDDEN",
      "MEMGANDALKN": "QUEST_HIDDEN",
      "isRewind": true,
      "versionBegin": "",
      "versionEnd": ""
    },
    {
      "subId": 7418703,
      "mainId": 74187,
      "order": 4,
      "descTextMapHash": 3112761876,
      "showType": "QUEST_HIDDEN",
      "finishCond": [
        {
          "damageRatio": "QUEST_CONTENT_LUA_NOTIFY",
          "param": [
            0,
            0
          ],
          "count": 1
        }
      ],
      "guide": {
        "param": [
          "30"
        ],
        "guideScene": 11,
        "MLAHIFLGIGJ": ""
      },
      "showGuide": "QUEST_GUIDE_ITEM_DISABLE",
      "guideHint": {
        "param1": ""
      },
      "failParentShow": "QUEST_HIDDEN",
      "MEMGANDALKN": "QUEST_HIDDEN",
      "isRewind": true,
      "versionBegin": "",
      "versionEnd": ""
    },
    {
      "subId": 7418704,
      "mainId": 74187,
      "order": 5,
      "descTextMapHash": 2235539236,
      "showType": "QUEST_HIDDEN",
      "finishCond": [
        {
          "damageRatio": "QUEST_CONTENT_FINISH_PLOT",
          "param": [
            7418704,
            0
          ]
        }
      ],
      "guide": {
        "guideScene": 11,
        "MLAHIFLGIGJ": ""
      },
      "showGuide": "QUEST_GUIDE_ITEM_DISABLE",
      "guideHint": {
        "param1": ""
      },
      "failParentShow": "QUEST_HIDDEN",
      "MEMGANDALKN": "QUEST_HIDDEN",
      "isRewind": true,
      "finishExec": [
        {
          "damageRatio": "QUEST_EXEC_INC_QUEST_GLOBAL_VAR",
          "param": [
            "7418301",
            "1"
          ]
        },
        {
          "damageRatio": "QUEST_EXEC_SET_QUEST_GLOBAL_VAR",
          "param": [
            "7418601",
            "2"
          ]
        },
        {
          "damageRatio": "QUEST_EXEC_UNREGISTER_DYNAMIC_GROUP",
          "param": [
            "511010071"
          ]
        }
      ],
      "versionBegin": "",
      "versionEnd": ""
    },
    {
      "subId": 7418705,
      "mainId": 74187,
      "order": 3,
      "descTextMapHash": 2202555564,
      "showType": "QUEST_HIDDEN",
      "finishCond": [
        {
          "damageRatio": "QUEST_CONTENT_LUA_NOTIFY",
          "param": [
            0,
            0
          ],
          "count": 1
        }
      ],
      "guide": {
        "guideScene": 11,
        "MLAHIFLGIGJ": ""
      },
      "showGuide": "QUEST_GUIDE_ITEM_DISABLE",
      "guideHint": {
        "param1": ""
      },
      "failParentShow": "QUEST_HIDDEN",
      "MEMGANDALKN": "QUEST_HIDDEN",
      "isRewind": true,
      "finishExec": [
        {
          "damageRatio": "QUEST_EXEC_UNREGISTER_DYNAMIC_GROUP",
          "param": [
            "511010047"
          ]
        }
      ],
      "versionBegin": "",
      "versionEnd": ""
    },
    {
      "subId": 7418706,
      "mainId": 74187,
      "order": 6,
      "descTextMapHash": 2747490500,
      "showType": "QUEST_HIDDEN",
      "finishCond": [
        {
          "damageRatio": "QUEST_CONTENT_COMPLETE_TALK",
          "param": [
            7418709,
            0
          ]
        }
      ],
      "guide": {
        "guideScene": 11,
        "MLAHIFLGIGJ": ""
      },
      "showGuide": "QUEST_GUIDE_ITEM_DISABLE",
      "guideHint": {
        "param1": ""
      },
      "finishParent": true,
      "failParentShow": "QUEST_HIDDEN",
      "MEMGANDALKN": "QUEST_HIDDEN",
      "isRewind": true,
      "finishExec": [
        {
          "damageRatio": "QUEST_EXEC_NOTIFY_GROUP_LUA",
          "param": [
            "11",
            "511010014"
          ]
        },
        {
          "damageRatio": "QUEST_EXEC_REFRESH_GROUP_SUITE",
          "param": [
            "11",
            "511010163,2"
          ]
        }
      ],
      "versionBegin": "",
      "versionEnd": ""
    },
    {
      "subId": 7418707,
      "mainId": 74187,
      "order": 7,
      "descTextMapHash": 1442095964,
      "showType": "QUEST_HIDDEN",
      "finishCond": [
        {
          "damageRatio": "QUEST_CONTENT_COMPLETE_TALK",
          "param": [
            7418707,
            0
          ]
        },
        {
          "damageRatio": "QUEST_CONTENT_QUEST_STATE_EQUAL",
          "param": [
            7418705,
            3
          ]
        }
      ],
      "guide": {
        "guideScene": 11,
        "MLAHIFLGIGJ": ""
      },
      "showGuide": "QUEST_GUIDE_ITEM_DISABLE",
      "guideHint": {
        "param1": ""
      },
      "failParentShow": "QUEST_HIDDEN",
      "MEMGANDALKN": "QUEST_HIDDEN",
      "versionBegin": "",
      "versionEnd": ""
    }
  ],
  "talks": [
    {
      "id": 7418702,
      "beginWay": "TALK_BEGIN_MANUAL",
      "activeMode": "PLAY_MODE_HOST",
      "beginCond": [
        {
          "type": "QUEST_COND_STATE_EQUAL",
          "_param": [
            "7418702",
            "2"
          ]
        }
      ],
      "priority": 5,
      "nextTalks": [
        7418706
      ],
      "initDialog": 741870201,
      "npcId": [
        21338,
        21358,
        21359,
        21427,
        1005
      ],
      "performCfg": "QuestDialogue/WQ/Fontaine_74187/Q7418702",
      "heroTalk": "TALK_HERO_MAIN",
      "questId": 74187,
      "assetIndex": 2841044839236298538,
      "prePerformCfg": "",
      "CHAKPMBJNAJ": [
        "[11_104:1646.060,584.628,4667.801,0.000,202.848,0.000]",
        "[11_106:1645.955,584.361,4641.318,0.000,76.698,0.000]",
        "[11_15:1640.558,588.447,4628.447,2.073,38.996,1.231]",
        "[11_3:1641.498,588.635,4626.620,0.000,24.672,0.000]",
        "[11_81:1650.860,584.121,4642.578,0.000,251.303,0.000]"
      ]
    },
    {
      "id": 7418706,
      "activeMode": "PLAY_MODE_HOST",
      "priority": 5,
      "nextTalks": [
        7418712,
        7418708
      ],
      "initDialog": 741870601,
      "npcId": [
        21338,
        1005,
        21358,
        21359,
        21427
      ],
      "performCfg": "QuestDialogue/WQ/Fontaine_74187/Q7418706",
      "heroTalk": "TALK_HERO_MAIN",
      "questId": 74187,
      "assetIndex": 15197855632189661970,
      "prePerformCfg": "",
      "CHAKPMBJNAJ": [
        "[11_3:1641.498,588.635,4626.620,0.000,24.672,0.000]"
      ]
    },
    {
      "id": 7418707,
      "activeMode": "PLAY_MODE_HOST",
      "beginCondComb": "LOGIC_AND",
      "beginCond": [
        {
          "type": "QUEST_COND_STATE_EQUAL",
          "_param": [
            "7418702",
            "2"
          ]
        },
        {
          "type": "QUEST_COND_QUEST_VAR_EQUAL",
          "_param": [
            "0",
            "0",
            "74187"
          ]
        }
      ],
      "priority": 5,
      "initDialog": 741870701,
      "npcId": [
        1005,
        21338,
        21358,
        21359,
        21427
      ],
      "performCfg": "QuestDialogue/WQ/Fontaine_74187/Q7418707",
      "heroTalk": "TALK_HERO_MAIN",
      "questId": 74187,
      "assetIndex": 16769295568915782213,
      "prePerformCfg": "",
      "finishExec": [
        {
          "damageRatio": "TALK_EXEC_SET_QUEST_GLOBAL_VAR",
          "param": [
            "7418701",
            "1"
          ]
        }
      ]
    },
    {
      "id": 7418708,
      "activeMode": "PLAY_MODE_HOST",
      "beginCondComb": "LOGIC_AND",
      "beginCond": [
        {
          "type": "QUEST_COND_STATE_EQUAL",
          "_param": [
            "7418702",
            "2"
          ]
        },
        {
          "type": "QUEST_COND_QUEST_VAR_EQUAL",
          "_param": [
            "0",
            "1",
            "74187"
          ]
        }
      ],
      "priority": 5,
      "initDialog": 741870801,
      "npcId": [
        21358,
        21359,
        21338,
        1005,
        21427
      ],
      "performCfg": "QuestDialogue/WQ/Fontaine_74187/Q7418708",
      "heroTalk": "TALK_HERO_MAIN",
      "questId": 74187,
      "assetIndex": 10719945214459558131,
      "prePerformCfg": "",
      "finishExec": [
        {
          "damageRatio": "TALK_EXEC_SET_QUEST_VAR",
          "param": [
            "0",
            "2",
            "74187"
          ]
        }
      ],
      "CHAKPMBJNAJ": [
        "[11_3:1641.498,588.635,4626.620,0.000,24.672,0.000]"
      ]
    },
    {
      "id": 7418709,
      "beginWay": "TALK_BEGIN_MANUAL",
      "activeMode": "PLAY_MODE_HOST",
      "beginCond": [
        {
          "type": "QUEST_COND_STATE_EQUAL",
          "_param": [
            "7418706",
            "2"
          ]
        }
      ],
      "priority": 5,
      "initDialog": 741870901,
      "npcId": [
        1005,
        21338,
        21427
      ],
      "performCfg": "QuestDialogue/WQ/Fontaine_74187/Q7418709",
      "heroTalk": "TALK_HERO_MAIN",
      "questId": 74187,
      "assetIndex": 2260859441661626160,
      "prePerformCfg": "",
      "CHAKPMBJNAJ": [
        "[11_107:1651.510,597.130,4645.400,0.000,134.880,0.000]",
        "[11_109:1654.392,596.309,4641.892,0.000,337.396,0.000]",
        "[11_110:1653.968,597.072,4645.866,0.000,174.569,0.000]"
      ]
    },
    {
      "id": 7418710,
      "beginWay": "TALK_BEGIN_MANUAL",
      "activeMode": "PLAY_MODE_HOST",
      "beginCond": [
        {
          "type": "QUEST_COND_STATE_EQUAL",
          "_param": [
            "7418702",
            "2"
          ]
        }
      ],
      "priority": 4,
      "initDialog": 741871001,
      "npcId": [
        21427
      ],
      "performCfg": "",
      "heroTalk": "TALK_HERO_MAIN",
      "questId": 74187,
      "assetIndex": 4063965683433216285,
      "prePerformCfg": "",
      "questIdleTalk": true
    },
    {
      "id": 7418711,
      "beginWay": "TALK_BEGIN_MANUAL",
      "activeMode": "PLAY_MODE_HOST",
      "beginCondComb": "LOGIC_AND",
      "beginCond": [
        {
          "type": "QUEST_COND_STATE_EQUAL",
          "_param": [
            "7418702",
            "3"
          ]
        },
        {
          "type": "QUEST_COND_STATE_EQUAL",
          "_param": [
            "7418703",
            "2"
          ]
        }
      ],
      "priority": 4,
      "initDialog": 741871101,
      "npcId": [
        21427
      ],
      "performCfg": "",
      "heroTalk": "TALK_HERO_MAIN",
      "questId": 74187,
      "assetIndex": 7241960494676739145,
      "prePerformCfg": "",
      "questIdleTalk": true
    },
    {
      "id": 7418712,
      "activeMode": "PLAY_MODE_HOST",
      "beginCondComb": "LOGIC_AND",
      "beginCond": [
        {
          "type": "QUEST_COND_STATE_EQUAL",
          "_param": [
            "7418702",
            "2"
          ]
        },
        {
          "type": "QUEST_COND_QUEST_VAR_EQUAL",
          "_param": [
            "0",
            "0",
            "74187"
          ]
        }
      ],
      "priority": 5,
      "nextTalks": [
        7418707,
        7418708
      ],
      "initDialog": 741871201,
      "npcId": [
        21338,
        1005,
        21358,
        21359,
        21427
      ],
      "performCfg": "QuestDialogue/WQ/Fontaine_74187/Q7418712",
      "heroTalk": "TALK_HERO_MAIN",
      "questId": 74187,
      "assetIndex": 3160508983587074307,
      "prePerformCfg": ""
    }
  ],
  "preloadLuaList": [
    3734420667133924877
  ],
  "forcePreloadLuaList": [
    4723162995872903059
  ],
  "freeStyleDic": {
    "21358": [
      1
    ],
    "21359": [
      1
    ],
    "21427": [
      1
    ]
  }
}