{
  "id": 74193,
  "damageRatio": "WQ",
  "mainQuestTag": "MAINQUEST_TAG_RANK_ZERO_WQ",
  "activeMode": "PLAY_MODE_ALL",
  "descTextMapHash": 2149862007,
  "luaPath": "Actor/Quest/WQ74193",
  "showType": "QUEST_HIDDEN",
  "subQuests": [
    {
      "subId": 7419301,
      "mainId": 74193,
      "order": 1,
      "descTextMapHash": 1777095580,
      "showType": "QUEST_HIDDEN",
      "finishCond": [
        {
          "damageRatio": "QUEST_CONTENT_COMPLETE_TALK",
          "param": [
            7419301,
            0
          ]
        }
      ],
      "guide": {
        "MLAHIFLGIGJ": ""
      },
      "showGuide": "QUEST_GUIDE_ITEM_DISABLE",
      "guideHint": {
        "param1": ""
      },
      "isRewind": true,
      "versionBegin": "",
      "versionEnd": ""
    },
    {
      "subId": 7419302,
      "mainId": 74193,
      "order": 2,
      "descTextMapHash": 3839486444,
      "showType": "QUEST_HIDDEN",
      "finishCond": [
        {
          "damageRatio": "QUEST_CONTENT_FINISH_ITEM_GIVING",
          "param": [
            7419302,
            0
          ]
        }
      ],
      "guide": {
        "MLAHIFLGIGJ": ""
      },
      "showGuide": "QUEST_GUIDE_ITEM_DISABLE",
      "guideHint": {
        "param1": ""
      },
      "isRewind": true,
      "versionBegin": "",
      "versionEnd": ""
    },
    {
      "subId": 7419303,
      "mainId": 74193,
      "order": 3,
      "descTextMapHash": 698521052,
      "showType": "QUEST_HIDDEN",
      "finishCond": [
        {
          "damageRatio": "QUEST_CONTENT_COMPLETE_TALK",
          "param": [
            7419303,
            0
          ]
        }
      ],
      "guide": {
        "guideScene": 3,
        "MLAHIFLGIGJ": ""
      },
      "showGuide": "QUEST_GUIDE_ITEM_DISABLE",
      "guideHint": {
        "param1": ""
      },
      "isRewind": true,
      "versionBegin": "",
      "versionEnd": ""
    },
    {
      "subId": 7419304,
      "mainId": 74193,
      "order": 4,
      "descTextMapHash": 2996823732,
      "showType": "QUEST_HIDDEN",
      "finishCond": [
        {
          "damageRatio": "QUEST_CONTENT_SHOP_SELL_OUT",
          "param": [
            1108,
            1
          ]
        }
      ],
      "guide": {
        "MLAHIFLGIGJ": ""
      },
      "showGuide": "QUEST_GUIDE_ITEM_DISABLE",
      "guideHint": {
        "param1": ""
      },
      "isRewind": true,
      "versionBegin": "",
      "versionEnd": ""
    },
    {
      "subId": 7419305,
      "mainId": 74193,
      "order": 5,
      "descTextMapHash": 1441188364,
      "showType": "QUEST_HIDDEN",
      "finishCond": [
        {
          "damageRatio": "QUEST_CONTENT_COMPLETE_TALK",
          "param": [
            7419305,
            0
          ]
        }
      ],
      "guide": {
        "MLAHIFLGIGJ": ""
      },
      "showGuide": "QUEST_GUIDE_ITEM_DISABLE",
      "guideHint": {
        "param1": ""
      },
      "finishParent": true,
      "isRewind": true,
      "finishExec": [
        {
          "damageRatio": "QUEST_EXEC_SET_QUEST_GLOBAL_VAR",
          "param": [
            "7419301",
            "0"
          ]
        }
      ],
      "versionBegin": "",
      "versionEnd": ""
    }
  ],
  "talks": [
    {
      "id": 7419301,
      "beginWay": "TALK_BEGIN_MANUAL",
      "activeMode": "PLAY_MODE_HOST",
      "beginCond": [
        {
          "type": "QUEST_COND_STATE_EQUAL",
          "_param": [
            "7419301",
            "2"
          ]
        }
      ],
      "priority": 5,
      "initDialog": 741930101,
      "npcId": [
        5325
      ],
      "performCfg": "QuestDialogue/WQ/Fontaine_74193/Q7419301",
      "heroTalk": "TALK_HERO_MAIN",
      "questId": 74193,
      "assetIndex": 7462701420595101474,
      "prePerformCfg": ""
    },
    {
      "id": 7419302,
      "beginWay": "TALK_BEGIN_MANUAL",
      "activeMode": "PLAY_MODE_HOST",
      "beginCondComb": "LOGIC_AND",
      "beginCond": [
        {
          "type": "QUEST_COND_STATE_EQUAL",
          "_param": [
            "7419302",
            "2"
          ]
        },
        {
          "type": "QUEST_COND_ITEM_GIVING_ACTIVED",
          "_param": [
            "7419302"
          ]
        }
      ],
      "priority": 5,
      "initDialog": 741930201,
      "npcId": [
        5325,
        1005
      ],
      "performCfg": "",
      "heroTalk": "TALK_HERO_MAIN",
      "questId": 74193,
      "assetIndex": 5377753671165025624,
      "prePerformCfg": ""
    },
    {
      "id": 7419303,
      "beginWay": "TALK_BEGIN_MANUAL",
      "activeMode": "PLAY_MODE_HOST",
      "beginCond": [
        {
          "type": "QUEST_COND_STATE_EQUAL",
          "_param": [
            "7419303",
            "2"
          ]
        }
      ],
      "priority": 5,
      "initDialog": 741930301,
      "npcId": [
        1005,
        5325
      ],
      "performCfg": "QuestDialogue/WQ/Fontaine_74193/Q7419303",
      "heroTalk": "TALK_HERO_MAIN",
      "questId": 74193,
      "assetIndex": 2086604705875684352,
      "prePerformCfg": ""
    },
    {
      "id": 7419304,
      "beginWay": "TALK_BEGIN_MANUAL",
      "activeMode": "PLAY_MODE_HOST",
      "beginCond": [
        {
          "type": "QUEST_COND_STATE_EQUAL",
          "_param": [
            "7419304",
            "2"
          ]
        }
      ],
      "priority": 5,
      "initDialog": 741930401,
      "npcId": [
        5325
      ],
      "performCfg": "",
      "heroTalk": "TALK_HERO_MAIN",
      "questId": 74193,
      "assetIndex": 5966050044686083644,
      "prePerformCfg": ""
    },
    {
      "id": 7419305,
      "beginWay": "TALK_BEGIN_MANUAL",
      "activeMode": "PLAY_MODE_HOST",
      "beginCond": [
        {
          "type": "QUEST_COND_STATE_EQUAL",
          "_param": [
            "7419305",
            "2"
          ]
        }
      ],
      "priority": 5,
      "initDialog": 741930501,
      "npcId": [
        5325,
        1005
      ],
      "performCfg": "QuestDialogue/WQ/Fontaine_74193/Q7419305",
      "heroTalk": "TALK_HERO_MAIN",
      "questId": 74193,
      "assetIndex": 9725521855389893648,
      "prePerformCfg": ""
    }
  ],
  "LNMELPHNIDD": true
}