{
  "id": 74194,
  "damageRatio": "WQ",
  "mainQuestTag": "MAINQUEST_TAG_RANK_ZERO_WQ",
  "activeMode": "PLAY_MODE_ALL",
  "descTextMapHash": 911820607,
  "EKEKACCODOE": 313186406,
  "luaPath": "Actor/Quest/WQ74194",
  "suggestTrackMainQuestList": [
    74196
  ],
  "rewardIdList": [
    174194
  ],
  "chapterId": 10181,
  "subQuests": [
    {
      "subId": 7419401,
      "mainId": 74194,
      "order": 1,
      "descTextMapHash": 132347740,
      "finishCond": [
        {
          "damageRatio": "QUEST_CONTENT_FINISH_PLOT",
          "param": [
            7419401,
            0
          ]
        }
      ],
      "guide": {
        "damageRatio": "QUEST_GUIDE_LOCATION",
        "autoGuide": "QUEST_GUIDE_AUTO_ENABLE",
        "param": [
          "[11_19:1435.889,217.638,3968.401]",
          "50"
        ],
        "guideScene": 11,
        "guideStyle": "QUEST_GUIDE_STYLE_POINT",
        "guideLayer": "QUEST_GUIDE_LAYER_SCENE",
        "MLAHIFLGIGJ": ""
      },
      "guideHint": {
        "param1": ""
      },
      "isRewind": true,
      "versionBegin": "",
      "versionEnd": ""
    },
    {
      "subId": 7419402,
      "mainId": 74194,
      "order": 2,
      "descTextMapHash": 2329744004,
      "finishCond": [
        {
          "damageRatio": "QUEST_CONTENT_COMPLETE_TALK",
          "param": [
            7419402,
            0
          ]
        }
      ],
      "guide": {
        "damageRatio": "QUEST_GUIDE_NPC",
        "param": [
          "21354"
        ],
        "guideScene": 11,
        "guideStyle": "QUEST_GUIDE_STYLE_TARGET",
        "guideLayer": "QUEST_GUIDE_LAYER_SCENE",
        "MLAHIFLGIGJ": ""
      },
      "guideHint": {
        "param1": ""
      },
      "versionBegin": "",
      "versionEnd": ""
    },
    {
      "subId": 7419403,
      "mainId": 74194,
      "order": 3,
      "descTextMapHash": 3059190788,
      "finishCond": [
        {
          "damageRatio": "QUEST_CONTENT_FINISH_PLOT",
          "param": [
            7419403,
            0
          ]
        }
      ],
      "guide": {
        "damageRatio": "QUEST_GUIDE_LOCATION",
        "autoGuide": "QUEST_GUIDE_AUTO_ENABLE",
        "param": [
          "[11_23:1565.990,346.440,3652.212]"
        ],
        "guideScene": 11,
        "guideStyle": "QUEST_GUIDE_STYLE_POINT",
        "guideLayer": "QUEST_GUIDE_LAYER_SCENE",
        "MLAHIFLGIGJ": ""
      },
      "guideHint": {
        "param1": ""
      },
      "isRewind": true,
      "finishExec": [
        {
          "damageRatio": "QUEST_EXEC_NOTIFY_GROUP_LUA",
          "param": [
            "11",
            "511020246"
          ]
        },
        {
          "damageRatio": "QUEST_EXEC_NOTIFY_GROUP_LUA",
          "param": [
            "11",
            "511020251"
          ]
        },
        {
          "damageRatio": "QUEST_EXEC_NOTIFY_GROUP_LUA",
          "param": [
            "11",
            "511010194"
          ]
        },
        {
          "damageRatio": "QUEST_EXEC_NOTIFY_GROUP_LUA",
          "param": [
            "3",
            "133413003"
          ]
        }
      ],
      "versionBegin": "",
      "versionEnd": ""
    },
    {
      "subId": 7419404,
      "mainId": 74194,
      "order": 4,
      "descTextMapHash": 3405021004,
      "showType": "QUEST_HIDDEN",
      "finishCond": [
        {
          "damageRatio": "QUEST_CONTENT_COMPLETE_TALK",
          "param": [
            7419404,
            0
          ]
        }
      ],
      "failCond": [
        {
          "damageRatio": "QUEST_CONTENT_LEAVE_SCENE_RANGE",
          "param": [
            11,
            100
          ]
        },
        {
          "damageRatio": "QUEST_CONTENT_TEAM_DEAD",
          "param": [
            0,
            0
          ]
        },
        {
          "damageRatio": "QUEST_CONTENT_LEAVE_SCENE",
          "param": [
            11,
            0
          ]
        }
      ],
      "guide": {
        "guideScene": 11,
        "guideStyle": "QUEST_GUIDE_STYLE_TARGET",
        "guideLayer": "QUEST_GUIDE_LAYER_UI",
        "MLAHIFLGIGJ": ""
      },
      "showGuide": "QUEST_GUIDE_ITEM_DISABLE",
      "guideHint": {
        "param1": ""
      },
      "failExec": [
        {
          "damageRatio": "QUEST_EXEC_ROLLBACK_QUEST",
          "param": [
            "7419403"
          ]
        }
      ],
      "versionBegin": "",
      "versionEnd": ""
    },
    {
      "subId": 7419405,
      "mainId": 74194,
      "order": 6,
      "isMpBlock": true,
      "descTextMapHash": 1121302716,
      "finishCond": [
        {
          "damageRatio": "QUEST_CONTENT_COMPLETE_TALK",
          "param": [
            7419455,
            0
          ]
        }
      ],
      "failCond": [
        {
          "damageRatio": "QUEST_CONTENT_LEAVE_SCENE",
          "param": [
            20215,
            0
          ]
        }
      ],
      "guide": {
        "guideScene": 11,
        "guideStyle": "QUEST_GUIDE_STYLE_TARGET",
        "guideLayer": "QUEST_GUIDE_LAYER_SCENE",
        "MLAHIFLGIGJ": ""
      },
      "guideHint": {
        "param1": ""
      },
      "isRewind": true,
      "failExec": [
        {
          "damageRatio": "QUEST_EXEC_ROLLBACK_QUEST",
          "param": [
            "7419403"
          ]
        }
      ],
      "versionBegin": "",
      "versionEnd": ""
    },
    {
      "subId": 7419406,
      "mainId": 74194,
      "order": 7,
      "isMpBlock": true,
      "descTextMapHash": 2852850740,
      "finishCond": [
        {
          "damageRatio": "QUEST_CONTENT_LUA_NOTIFY",
          "param": [
            0,
            0
          ],
          "count": 1
        }
      ],
      "failCond": [
        {
          "damageRatio": "QUEST_CONTENT_LEAVE_SCENE",
          "param": [
            20215,
            0
          ]
        }
      ],
      "guide": {
        "param": [
          "30"
        ],
        "guideScene": 20215,
        "MLAHIFLGIGJ": ""
      },
      "showGuide": "QUEST_GUIDE_ITEM_DISABLE",
      "guideHint": {
        "param1": ""
      },
      "isRewind": true,
      "failExec": [
        {
          "damageRatio": "QUEST_EXEC_ROLLBACK_QUEST",
          "param": [
            "7419403"
          ]
        },
        {
          "damageRatio": "QUEST_EXEC_UNLOCK_MIRROR_AVATAR_TEAM"
        }
      ],
      "versionBegin": "",
      "versionEnd": ""
    },
    {
      "subId": 7419407,
      "mainId": 74194,
      "order": 9,
      "isMpBlock": true,
      "descTextMapHash": 1513888492,
      "finishCond": [
        {
          "damageRatio": "QUEST_CONTENT_COMPLETE_TALK",
          "param": [
            7419407,
            0
          ]
        }
      ],
      "failCond": [
        {
          "damageRatio": "QUEST_CONTENT_LEAVE_SCENE",
          "param": [
            20215,
            0
          ]
        }
      ],
      "guide": {
        "damageRatio": "QUEST_GUIDE_NPC",
        "param": [
          "21355"
        ],
        "guideScene": 20215,
        "guideStyle": "QUEST_GUIDE_STYLE_TARGET",
        "guideLayer": "QUEST_GUIDE_LAYER_UI",
        "MLAHIFLGIGJ": ""
      },
      "guideHint": {
        "param1": ""
      },
      "isRewind": true,
      "finishExec": [
        {
          "damageRatio": "QUEST_EXEC_UNLOCK_MIRROR_AVATAR_TEAM"
        }
      ],
      "failExec": [
        {
          "damageRatio": "QUEST_EXEC_ROLLBACK_QUEST",
          "param": [
            "7419403"
          ]
        },
        {
          "damageRatio": "QUEST_EXEC_UNLOCK_MIRROR_AVATAR_TEAM"
        }
      ],
      "versionBegin": "",
      "versionEnd": ""
    },
    {
      "subId": 7419408,
      "mainId": 74194,
      "order": 12,
      "descTextMapHash": 707360492,
      "finishCond": [
        {
          "damageRatio": "QUEST_CONTENT_COMPLETE_TALK",
          "param": [
            7419408,
            0
          ]
        }
      ],
      "guide": {
        "damageRatio": "QUEST_GUIDE_NPC",
        "param": [
          "21354"
        ],
        "guideScene": 11,
        "guideStyle": "QUEST_GUIDE_STYLE_TARGET",
        "guideLayer": "QUEST_GUIDE_LAYER_SCENE",
        "MLAHIFLGIGJ": ""
      },
      "guideHint": {
        "param1": ""
      },
      "isRewind": true,
      "versionBegin": "",
      "versionEnd": ""
    },
    {
      "subId": 7419409,
      "mainId": 74194,
      "order": 13,
      "descTextMapHash": 3732410316,
      "stepDescTextMapHash": 1021716821,
      "guideTipsTextMapHash": 2288968310,
      "finishCond": [
        {
          "damageRatio": "QUEST_CONTENT_QUEST_STATE_EQUAL",
          "param": [
            7420205,
            3
          ]
        },
        {
          "damageRatio": "QUEST_CONTENT_QUEST_STATE_EQUAL",
          "param": [
            7420609,
            3
          ]
        }
      ],
      "guide": {
        "MLAHIFLGIGJ": ""
      },
      "guideHint": {
        "param1": ""
      },
      "isRewind": true,
      "versionBegin": "",
      "versionEnd": ""
    },
    {
      "subId": 7419410,
      "mainId": 74194,
      "order": 99,
      "subIdSet": 74194,
      "descTextMapHash": 2626445428,
      "guideTipsTextMapHash": 4094705470,
      "finishCond": [
        {
          "damageRatio": "QUEST_CONTENT_QUEST_STATE_EQUAL",
          "param": [
            7420609,
            3
          ]
        }
      ],
      "guide": {
        "MLAHIFLGIGJ": ""
      },
      "guideHint": {
        "param1": ""
      },
      "finishExec": [
        {
          "damageRatio": "QUEST_EXEC_INC_QUEST_GLOBAL_VAR",
          "param": [
            "7419401",
            "1"
          ]
        }
      ],
      "versionBegin": "",
      "versionEnd": ""
    },
    {
      "subId": 7419411,
      "mainId": 74194,
      "order": 100,
      "descTextMapHash": 175126252,
      "showType": "QUEST_HIDDEN",
      "finishCond": [
        {
          "damageRatio": "QUEST_CONTENT_QUEST_STATE_EQUAL",
          "param": [
            7419409,
            3
          ]
        },
        {
          "damageRatio": "QUEST_CONTENT_QUEST_STATE_EQUAL",
          "param": [
            7419410,
            3
          ]
        }
      ],
      "guide": {
        "MLAHIFLGIGJ": ""
      },
      "guideHint": {
        "param1": ""
      },
      "isRewind": true,
      "versionBegin": "",
      "versionEnd": ""
    },
    {
      "subId": 7419412,
      "mainId": 74194,
      "order": 5,
      "isMpBlock": true,
      "descTextMapHash": 2670487996,
      "finishCond": [
        {
          "damageRatio": "QUEST_CONTENT_ENTER_DUNGEON",
          "param": [
            1201,
            20
          ]
        }
      ],
      "guide": {
        "damageRatio": "QUEST_GUIDE_LOCATION",
        "autoGuide": "QUEST_GUIDE_AUTO_ENABLE",
        "param": [
          "[11_23:1565.990,346.440,3652.212]"
        ],
        "guideScene": 11,
        "guideStyle": "QUEST_GUIDE_STYLE_POINT",
        "guideLayer": "QUEST_GUIDE_LAYER_SCENE",
        "MLAHIFLGIGJ": ""
      },
      "guideHint": {
        "param1": ""
      },
      "versionBegin": "",
      "versionEnd": ""
    },
    {
      "subId": 7419413,
      "mainId": 74194,
      "order": 11,
      "descTextMapHash": 1873527220,
      "showType": "QUEST_HIDDEN",
      "finishCond": [
        {
          "damageRatio": "QUEST_CONTENT_FINISH_PLOT",
          "param": [
            7419413,
            0
          ]
        }
      ],
      "guide": {
        "MLAHIFLGIGJ": ""
      },
      "guideHint": {
        "param1": ""
      },
      "isRewind": true,
      "versionBegin": "",
      "versionEnd": ""
    },
    {
      "subId": 7419414,
      "mainId": 74194,
      "order": 18,
      "isMpBlock": true,
      "descTextMapHash": 2512844196,
      "finishCond": [
        {
          "damageRatio": "QUEST_CONTENT_ENTER_DUNGEON",
          "param": [
            1202,
            22
          ]
        }
      ],
      "guide": {
        "damageRatio": "QUEST_GUIDE_LOCATION",
        "autoGuide": "QUEST_GUIDE_AUTO_ENABLE",
        "param": [
          "[11_118:1501.990,226.797,3980.707,0.000,169.302,0.000]",
          "30"
        ],
        "guideScene": 11,
        "guideStyle": "QUEST_GUIDE_STYLE_POINT",
        "guideLayer": "QUEST_GUIDE_LAYER_SCENE",
        "MLAHIFLGIGJ": ""
      },
      "guideHint": {
        "param1": ""
      },
      "versionBegin": "",
      "versionEnd": ""
    },
    {
      "subId": 7419415,
      "mainId": 74194,
      "order": 19,
      "isMpBlock": true,
      "descTextMapHash": 1020536364,
      "finishCond": [
        {
          "damageRatio": "QUEST_CONTENT_FINISH_PLOT",
          "param": [
            7419415,
            0
          ]
        }
      ],
      "failCond": [
        {
          "damageRatio": "QUEST_CONTENT_LEAVE_SCENE",
          "param": [
            20216,
            0
          ]
        }
      ],
      "guide": {
        "damageRatio": "QUEST_GUIDE_NPC",
        "autoGuide": "QUEST_GUIDE_AUTO_ENABLE",
        "param": [
          "21354"
        ],
        "guideScene": 11,
        "guideStyle": "QUEST_GUIDE_STYLE_TARGET",
        "guideLayer": "QUEST_GUIDE_LAYER_SCENE",
        "MLAHIFLGIGJ": ""
      },
      "guideHint": {
        "param1": ""
      },
      "isRewind": true,
      "failExec": [
        {
          "damageRatio": "QUEST_EXEC_ROLLBACK_QUEST",
          "param": [
            "7419419"
          ]
        }
      ],
      "versionBegin": "",
      "versionEnd": ""
    },
    {
      "subId": 7419416,
      "mainId": 74194,
      "order": 20,
      "descTextMapHash": 2189484356,
      "showType": "QUEST_HIDDEN",
      "finishCond": [
        {
          "damageRatio": "QUEST_CONTENT_ENTER_MY_WORLD_SCENE",
          "param": [
            11,
            0
          ]
        }
      ],
      "guide": {
        "MLAHIFLGIGJ": ""
      },
      "guideHint": {
        "param1": ""
      },
      "versionBegin": "",
      "versionEnd": ""
    },
    {
      "subId": 7419417,
      "mainId": 74194,
      "order": 21,
      "descTextMapHash": 2691235476,
      "finishCond": [
        {
          "damageRatio": "QUEST_CONTENT_COMPLETE_TALK",
          "param": [
            7419417,
            0
          ]
        }
      ],
      "guide": {
        "damageRatio": "QUEST_GUIDE_LOCATION",
        "autoGuide": "QUEST_GUIDE_AUTO_ENABLE",
        "param": [
          "[11_57:1487.403,243.030,3918.531,358.703,249.730,0.122]",
          "30"
        ],
        "guideScene": 11,
        "guideStyle": "QUEST_GUIDE_STYLE_POINT",
        "guideLayer": "QUEST_GUIDE_LAYER_SCENE",
        "MLAHIFLGIGJ": ""
      },
      "guideHint": {
        "param1": ""
      },
      "finishParent": true,
      "isRewind": true,
      "versionBegin": "",
      "versionEnd": ""
    },
    {
      "subId": 7419418,
      "mainId": 74194,
      "order": 16,
      "descTextMapHash": 3448365676,
      "showType": "QUEST_HIDDEN",
      "finishCond": [
        {
          "damageRatio": "QUEST_CONTENT_FINISH_PLOT",
          "param": [
            7419418,
            0
          ]
        }
      ],
      "guide": {
        "MLAHIFLGIGJ": ""
      },
      "guideHint": {
        "param1": ""
      },
      "versionBegin": "",
      "versionEnd": ""
    },
    {
      "subId": 7419419,
      "mainId": 74194,
      "order": 17,
      "descTextMapHash": 3108444100,
      "stepDescTextMapHash": 1520586565,
      "finishCond": [
        {
          "damageRatio": "QUEST_CONTENT_FINISH_PLOT",
          "param": [
            7419419,
            0
          ]
        }
      ],
      "guide": {
        "damageRatio": "QUEST_GUIDE_LOCATION",
        "autoGuide": "QUEST_GUIDE_AUTO_ENABLE",
        "param": [
          "[11_118:1501.990,226.797,3980.707,0.000,169.302,0.000]",
          "30"
        ],
        "guideScene": 11,
        "guideStyle": "QUEST_GUIDE_STYLE_POINT",
        "guideLayer": "QUEST_GUIDE_LAYER_SCENE",
        "MLAHIFLGIGJ": ""
      },
      "guideHint": {
        "param1": ""
      },
      "isRewind": true,
      "versionBegin": "",
      "versionEnd": ""
    },
    {
      "subId": 7419421,
      "mainId": 74194,
      "order": 8,
      "isMpBlock": true,
      "descTextMapHash": 3814727820,
      "finishCond": [
        {
          "damageRatio": "QUEST_CONTENT_LUA_NOTIFY",
          "param": [
            0,
            0
          ],
          "count": 1
        }
      ],
      "failCond": [
        {
          "damageRatio": "QUEST_CONTENT_LEAVE_SCENE",
          "param": [
            20215,
            0
          ]
        }
      ],
      "guide": {
        "param": [
          "30"
        ],
        "guideScene": 20215,
        "MLAHIFLGIGJ": ""
      },
      "showGuide": "QUEST_GUIDE_ITEM_DISABLE",
      "guideHint": {
        "param1": ""
      },
      "isRewind": true,
      "failExec": [
        {
          "damageRatio": "QUEST_EXEC_ROLLBACK_QUEST",
          "param": [
            "7419403"
          ]
        },
        {
          "damageRatio": "QUEST_EXEC_UNLOCK_MIRROR_AVATAR_TEAM"
        }
      ],
      "versionBegin": "",
      "versionEnd": ""
    },
    {
      "subId": 7419422,
      "mainId": 74194,
      "order": 10,
      "descTextMapHash": 2013508300,
      "showType": "QUEST_HIDDEN",
      "finishCond": [
        {
          "damageRatio": "QUEST_CONTENT_FINISH_PLOT",
          "param": [
            7419422,
            0
          ]
        }
      ],
      "guide": {
        "MLAHIFLGIGJ": ""
      },
      "guideHint": {
        "param1": ""
      },
      "finishExec": [
        {
          "damageRatio": "QUEST_EXEC_NOTIFY_GROUP_LUA",
          "param": [
            "20215",
            "220215001"
          ]
        }
      ],
      "versionBegin": "",
      "versionEnd": ""
    }
  ],
  "talks": [
    {
      "id": 7419402,
      "beginWay": "TALK_BEGIN_MANUAL",
      "activeMode": "PLAY_MODE_HOST",
      "beginCond": [
        {
          "type": "QUEST_COND_STATE_EQUAL",
          "_param": [
            "7419402",
            "2"
          ]
        }
      ],
      "priority": 5,
      "initDialog": 741940201,
      "npcId": [
        21354
      ],
      "performCfg": "QuestDialogue/WQ/Fontaine_74194/Q7419402",
      "questId": 74194,
      "assetIndex": 3031356996810848639,
      "prePerformCfg": "",
      "CHAKPMBJNAJ": [
        "[11_20:1452.254,228.329,3962.938,0.000,166.441,0.000]",
        "[11_21:1465.794,226.091,3958.403,0.000,171.624,0.000]",
        "[11_22:1451.889,228.809,3959.029,0.000,344.840,0.000]"
      ]
    },
    {
      "id": 7419404,
      "beginWay": "TALK_BEGIN_MANUAL",
      "activeMode": "PLAY_MODE_HOST",
      "beginCond": [
        {
          "type": "QUEST_COND_STATE_EQUAL",
          "_param": [
            "7419404",
            "2"
          ]
        }
      ],
      "priority": 5,
      "initDialog": 741940401,
      "npcId": [
        21347
      ],
      "performCfg": "QuestDialogue/WQ/Fontaine_74194/Q7419404",
      "questId": 74194,
      "assetIndex": 6477878557487099029,
      "prePerformCfg": "",
      "CHAKPMBJNAJ": [
        "[11_123:1554.170,346.302,3634.030,0.000,315.812,0.000]",
        "[11_124:1547.740,346.340,3640.500,0.860,137.994,0.098]",
        "[11_125:1558.420,346.297,3638.350,9.587,315.397,0.623]",
        "[11_126:1552.056,346.363,3644.646,0.000,135.496,0.000]",
        "[11_127:1562.223,346.332,3642.607,0.000,227.598,0.000]",
        "[11_128:1556.332,346.287,3648.692,0.000,138.799,0.000]",
        "[11_24:1548.800,349.640,3634.840,0.000,223.307,0.000]",
        "[11_25:1516.802,351.720,3603.304,0.000,44.979,0.000]"
      ]
    },
    {
      "id": 7419405,
      "beginWay": "TALK_BEGIN_MANUAL",
      "activeMode": "PLAY_MODE_HOST",
      "beginCond": [
        {
          "type": "QUEST_COND_STATE_EQUAL",
          "_param": [
            "7419405",
            "2"
          ]
        }
      ],
      "priority": 5,
      "nextTalks": [
        7419451,
        7419452,
        7419453
      ],
      "initDialog": 741940501,
      "npcId": [
        21347
      ],
      "performCfg": "QuestDialogue/WQ/Fontaine_74194/Q7419405",
      "questId": 74194,
      "assetIndex": 8562801557192926396,
      "prePerformCfg": "",
      "CHAKPMBJNAJ": [
        "[20215_2:1501.631,-481.564,3566.358,0.000,87.841,0.000]",
        "[20215_3:1536.506,-493.738,3566.202,0.000,271.670,0.000]"
      ]
    },
    {
      "id": 7419407,
      "beginWay": "TALK_BEGIN_MANUAL",
      "activeMode": "PLAY_MODE_HOST",
      "beginCond": [
        {
          "type": "QUEST_COND_STATE_EQUAL",
          "_param": [
            "7419407",
            "2"
          ]
        }
      ],
      "priority": 5,
      "initDialog": 741940701,
      "npcId": [
        21461
      ],
      "performCfg": "QuestDialogue/WQ/Fontaine_74194/Q7419407",
      "questId": 74194,
      "assetIndex": 4456347473470465690,
      "prePerformCfg": "",
      "CHAKPMBJNAJ": [
        "[20215_4:1536.379,-493.738,3567.296,0.000,193.578,0.000]",
        "[20215_5:1535.589,-493.738,3565.275,0.000,9.415,0.000]"
      ]
    },
    {
      "id": 7419408,
      "beginWay": "TALK_BEGIN_MANUAL",
      "activeMode": "PLAY_MODE_HOST",
      "beginCond": [
        {
          "type": "QUEST_COND_STATE_EQUAL",
          "_param": [
            "7419408",
            "2"
          ]
        }
      ],
      "priority": 5,
      "initDialog": 741940801,
      "npcId": [
        21354
      ],
      "performCfg": "QuestDialogue/WQ/Fontaine_74194/Q7419408",
      "questId": 74194,
      "assetIndex": 2210981262239879460,
      "prePerformCfg": "",
      "CHAKPMBJNAJ": [
        "[11_32:1597.661,351.191,3682.329,0.000,272.327,0.000]",
        "[11_33:1576.850,349.237,3662.930,0.000,43.390,0.000]"
      ]
    },
    {
      "id": 7419415,
      "beginWay": "TALK_BEGIN_MANUAL",
      "activeMode": "PLAY_MODE_HOST",
      "beginCond": [
        {
          "type": "QUEST_COND_STATE_EQUAL",
          "_param": [
            "7419415",
            "2"
          ]
        }
      ],
      "priority": 5,
      "initDialog": 741941501,
      "npcId": [
        21354
      ],
      "performCfg": "QuestDialogue/WQ/Fontaine_74194/Q7419415",
      "questId": 74194,
      "assetIndex": 13114659452210985096,
      "prePerformCfg": "",
      "CHAKPMBJNAJ": [
        "[20216_3:1544.978,-361.804,3509.220,0.000,238.359,0.000]",
        "[20216_4:1453.923,-404.550,3566.371,0.000,124.239,0.000]"
      ]
    },
    {
      "id": 7419417,
      "beginWay": "TALK_BEGIN_MANUAL",
      "activeMode": "PLAY_MODE_HOST",
      "beginCond": [
        {
          "type": "QUEST_COND_STATE_EQUAL",
          "_param": [
            "7419417",
            "2"
          ]
        }
      ],
      "priority": 5,
      "initDialog": 741941701,
      "npcId": [
        21354
      ],
      "performCfg": "QuestDialogue/WQ/Fontaine_74194/Q7419417",
      "questId": 74194,
      "assetIndex": 16942853465117931340,
      "prePerformCfg": "",
      "CHAKPMBJNAJ": [
        "[11_111:1476.494,242.557,3915.362,0.000,173.171,0.000]",
        "[11_112:1487.403,243.030,3918.531,0.000,162.236,0.000]"
      ]
    },
    {
      "id": 7419419,
      "beginWay": "TALK_BEGIN_MANUAL",
      "activeMode": "PLAY_MODE_HOST",
      "beginCond": [
        {
          "type": "QUEST_COND_STATE_EQUAL",
          "_param": [
            "7419419",
            "2"
          ]
        }
      ],
      "priority": 5,
      "initDialog": 741941901,
      "npcId": [
        1400
      ],
      "performCfg": "QuestDialogue/WQ/Fontaine_74194/Q7419419",
      "questId": 74194,
      "assetIndex": 259436089348722954,
      "prePerformCfg": "",
      "CHAKPMBJNAJ": [
        "[11_117:1500.671,227.028,3980.409,0.000,175.167,0.000]",
        "[11_119:1501.724,226.806,3980.460,0.000,187.514,0.000]"
      ]
    },
    {
      "id": 7419451,
      "activeMode": "PLAY_MODE_HOST",
      "beginCond": [
        {
          "type": "QUEST_COND_QUEST_VAR_EQUAL",
          "_param": [
            "1",
            "1",
            "74194"
          ]
        }
      ],
      "priority": 5,
      "nextTalks": [
        7419454,
        7419455
      ],
      "initDialog": 741945101,
      "npcId": [
        21347
      ],
      "performCfg": "QuestDialogue/WQ/Fontaine_74194/Q7419451",
      "questId": 74194,
      "assetIndex": 5397077975082453116,
      "prePerformCfg": ""
    },
    {
      "id": 7419452,
      "activeMode": "PLAY_MODE_HOST",
      "beginCond": [
        {
          "type": "QUEST_COND_QUEST_VAR_EQUAL",
          "_param": [
            "2",
            "1",
            "74194"
          ]
        }
      ],
      "priority": 5,
      "nextTalks": [
        7419454,
        7419455
      ],
      "initDialog": 741945201,
      "npcId": [
        21347
      ],
      "performCfg": "QuestDialogue/WQ/Fontaine_74194/Q7419452",
      "questId": 74194,
      "assetIndex": 1950194675046840934,
      "prePerformCfg": ""
    },
    {
      "id": 7419453,
      "activeMode": "PLAY_MODE_HOST",
      "beginCond": [
        {
          "type": "QUEST_COND_QUEST_VAR_EQUAL",
          "_param": [
            "3",
            "1",
            "74194"
          ]
        }
      ],
      "priority": 5,
      "nextTalks": [
        7419454,
        7419455
      ],
      "initDialog": 741945301,
      "npcId": [
        21347
      ],
      "performCfg": "QuestDialogue/WQ/Fontaine_74194/Q7419453",
      "questId": 74194,
      "assetIndex": 17130035453078988115,
      "prePerformCfg": ""
    },
    {
      "id": 7419454,
      "activeMode": "PLAY_MODE_HOST",
      "beginCondComb": "LOGIC_OR",
      "beginCond": [
        {
          "type": "QUEST_COND_QUEST_VAR_EQUAL",
          "_param": [
            "1",
            "1",
            "74194"
          ]
        },
        {
          "type": "QUEST_COND_QUEST_VAR_EQUAL",
          "_param": [
            "2",
            "1",
            "74194"
          ]
        },
        {
          "type": "QUEST_COND_QUEST_VAR_EQUAL",
          "_param": [
            "3",
            "1",
            "74194"
          ]
        }
      ],
      "priority": 5,
      "nextTalks": [
        7419451,
        7419452,
        7419453
      ],
      "initDialog": 741945401,
      "npcId": [
        21347
      ],
      "performCfg": "QuestDialogue/WQ/Fontaine_74194/Q7419454",
      "questId": 74194,
      "assetIndex": 2374929230388331012,
      "prePerformCfg": ""
    },
    {
      "id": 7419455,
      "activeMode": "PLAY_MODE_HOST",
      "beginCondComb": "LOGIC_AND",
      "beginCond": [
        {
          "type": "QUEST_COND_QUEST_VAR_EQUAL",
          "_param": [
            "1",
            "2",
            "74194"
          ]
        },
        {
          "type": "QUEST_COND_QUEST_VAR_EQUAL",
          "_param": [
            "2",
            "2",
            "74194"
          ]
        },
        {
          "type": "QUEST_COND_QUEST_VAR_EQUAL",
          "_param": [
            "3",
            "2",
            "74194"
          ]
        }
      ],
      "priority": 5,
      "initDialog": 741945501,
      "npcId": [
        21347
      ],
      "performCfg": "QuestDialogue/WQ/Fontaine_74194/Q7419455",
      "questId": 74194,
      "assetIndex": 15559178645888394196,
      "prePerformCfg": ""
    }
  ],
  "preloadLuaList": [
    18087312497055218644,
    18024962954463091050,
    4431100442112834531,
    17181293806824951693,
    12475706485283132497
  ],
  "forcePreloadLuaList": [
    15973249909645355578
  ],
  "dialogList": [
    {
      "id": 681000101,
      "talkRole": {
        "type": "TALK_ROLE_GADGET",
        "_id": "70330819"
      },
      "talkContentTextMapHash": 4060309170,
      "talkRoleNameTextMapHash": 3235920691,
      "talkAssetPath": "",
      "talkAssetPathAlter": "",
      "talkAudioName": "",
      "actionBefore": "",
      "actionWhile": "",
      "actionAfter": "",
      "optionIcon": "",
      "iconPath": ""
    },
    {
      "id": 681000201,
      "talkRole": {
        "type": "TALK_ROLE_GADGET",
        "_id": "70330819"
      },
      "talkContentTextMapHash": 2839274738,
      "talkRoleNameTextMapHash": 2166305179,
      "talkAssetPath": "",
      "talkAssetPathAlter": "",
      "talkAudioName": "",
      "actionBefore": "",
      "actionWhile": "",
      "actionAfter": "",
      "optionIcon": "",
      "iconPath": ""
    },
    {
      "id": 681000301,
      "talkRole": {
        "type": "TALK_ROLE_GADGET",
        "_id": "70330819"
      },
      "talkContentTextMapHash": 3105172314,
      "talkRoleNameTextMapHash": 3515496555,
      "talkAssetPath": "",
      "talkAssetPathAlter": "",
      "talkAudioName": "",
      "actionBefore": "",
      "actionWhile": "",
      "actionAfter": "",
      "optionIcon": "",
      "iconPath": ""
    },
    {
      "id": 741941301,
      "nextDialogs": [
        741941302
      ],
      "talkRole": {
        "type": "TALK_ROLE_NPC",
        "_id": "21354"
      },
      "talkContentTextMapHash": 1040336298,
      "talkAssetPath": "",
      "talkAssetPathAlter": "",
      "talkAudioName": "",
      "actionBefore": "",
      "actionWhile": "",
      "actionAfter": "",
      "optionIcon": "",
      "iconPath": ""
    }
  ]
}