{
  "id": 74210,
  "damageRatio": "WQ",
  "activeMode": "PLAY_MODE_ALL",
  "EKEKACCODOE": 3545495494,
  "luaPath": "Actor/Quest/WQ74210",
  "showType": "QUEST_HIDDEN",
  "subQuests": [
    {
      "subId": 7421001,
      "mainId": 74210,
      "order": 1,
      "showType": "QUEST_HIDDEN",
      "finishCond": [
        {
          "damageRatio": "QUEST_CONTENT_FINISH_PLOT",
          "param": [
            7421001,
            0
          ]
        },
        {
          "damageRatio": "QUEST_CONTENT_QUEST_STATE_EQUAL",
          "param": [
            7412701,
            2
          ]
        }
      ],
      "guide": {
        "MLAHIFLGIGJ": ""
      },
      "guideHint": {
        "param1": ""
      },
      "finishParent": true,
      "isRewind": true,
      "versionBegin": "",
      "versionEnd": ""
    }
  ],
  "talks": [
    {
      "id": 7413612,
      "beginWay": "TALK_BEGIN_MANUAL",
      "activeMode": "PLAY_MODE_HOST",
      "beginCond": [
        {
          "type": "QUEST_COND_STATE_EQUAL",
          "_param": [
            "7413611",
            "3"
          ]
        }
      ],
      "priority": 3,
      "initDialog": 741361201,
      "npcId": [
        5257,
        1005
      ],
      "performCfg": "QuestDialogue/WQ/Fontaine_74136/Q7413612",
      "questId": 74210,
      "assetIndex": 11998375818645190648,
      "prePerformCfg": "",
      "questIdleTalk": true
    },
    {
      "id": 7413613,
      "beginWay": "TALK_BEGIN_MANUAL",
      "activeMode": "PLAY_MODE_HOST",
      "beginCond": [
        {
          "type": "QUEST_COND_STATE_EQUAL",
          "_param": [
            "7413611",
            "3"
          ]
        }
      ],
      "priority": 3,
      "initDialog": 741361301,
      "npcId": [
        5258
      ],
      "performCfg": "",
      "heroTalk": "TALK_HERO_MAIN",
      "questId": 74210,
      "assetIndex": 5655667868447184439,
      "prePerformCfg": "",
      "questIdleTalk": true
    },
    {
      "id": 7413614,
      "beginWay": "TALK_BEGIN_MANUAL",
      "activeMode": "PLAY_MODE_HOST",
      "beginCondComb": "LOGIC_AND",
      "beginCond": [
        {
          "type": "QUEST_COND_STATE_EQUAL",
          "_param": [
            "7413611",
            "3"
          ]
        }
      ],
      "priority": 3,
      "initDialog": 741361401,
      "npcId": [
        5275,
        5274,
        5273,
        1005
      ],
      "performCfg": "QuestDialogue/WQ/Fontaine_74136/Q7413614",
      "questId": 74210,
      "assetIndex": 12015202879462956753,
      "prePerformCfg": "",
      "questIdleTalk": true
    }
  ],
  "preloadLuaList": [
    5737313366765379388
  ],
  "forcePreloadLuaList": [
    689935847450526032
  ],
  "LNMELPHNIDD": true
}