{
  "id": 74232,
  "damageRatio": "WQ",
  "activeMode": "PLAY_MODE_ALL",
  "descTextMapHash": 1458536255,
  "luaPath": "Actor/Quest/WQ74232",
  "rewardIdList": [
    174232
  ],
  "showType": "QUEST_HIDDEN",
  "subQuests": [
    {
      "subId": 7423201,
      "mainId": 74232,
      "order": 1,
      "showType": "QUEST_HIDDEN",
      "finishCond": [
        {
          "damageRatio": "QUEST_CONTENT_FINISH_PLOT",
          "param": [
            7423201,
            0
          ]
        }
      ],
      "guide": {
        "MLAHIFLGIGJ": ""
      },
      "guideHint": {
        "param1": ""
      },
      "finishParent": true,
      "isRewind": true,
      "versionBegin": "",
      "versionEnd": ""
    }
  ],
  "LNMELPHNIDD": true
}