{
  "id": 74508,
  "damageRatio": "WQ",
  "mainQuestTag": "MAINQUEST_TAG_ACTIVITY",
  "descTextMapHash": 4196925271,
  "EKEKACCODOE": 1963048702,
  "luaPath": "Actor/Quest/WQ74508",
  "suggestTrackMainQuestList": [
    74509
  ],
  "rewardIdList": [
    174508
  ],
  "activityId": 5166,
  "subQuests": [
    {
      "subId": 7450801,
      "mainId": 74508,
      "order": 1,
      "descTextMapHash": 16699132,
      "JIFODJPFKDF": [
        340111
      ],
      "finishCond": [
        {
          "damageRatio": "QUEST_CONTENT_COMPLETE_TALK",
          "param": [
            7450801,
            0
          ]
        }
      ],
      "guide": {
        "damageRatio": "QUEST_GUIDE_NPC",
        "param": [
          "30419"
        ],
        "guideScene": 3,
        "guideStyle": "QUEST_GUIDE_STYLE_TARGET",
        "guideLayer": "QUEST_GUIDE_LAYER_SCENE",
        "MLAHIFLGIGJ": ""
      },
      "guideHint": {
        "param1": ""
      },
      "finishParent": true,
      "isRewind": true,
      "versionBegin": "",
      "versionEnd": ""
    },
    {
      "subId": 7450802,
      "mainId": 74508,
      "order": 99,
      "descTextMapHash": 3553683044,
      "finishCond": [
        {
          "damageRatio": "QUEST_CONTENT_GAME_TIME_TICK",
          "param": [
            1,
            0
          ]
        }
      ],
      "guide": {
        "MLAHIFLGIGJ": ""
      },
      "guideHint": {
        "param1": ""
      },
      "isRewind": true,
      "versionBegin": "",
      "versionEnd": ""
    }
  ],
  "talks": [
    {
      "id": 7450801,
      "beginWay": "TALK_BEGIN_MANUAL",
      "beginCond": [
        {
          "type": "QUEST_COND_STATE_EQUAL",
          "_param": [
            "7450801",
            "2"
          ]
        }
      ],
      "priority": 5,
      "initDialog": 745080101,
      "npcId": [
        30422,
        30419
      ],
      "performCfg": "QuestDialogue/WQ/V4.2FungusFighterV3/Q7450801",
      "heroTalk": "TALK_HERO_MAIN",
      "questId": 74508,
      "assetIndex": 1218785416427325767,
      "prePerformCfg": "",
      "lockGameTime": true,
      "forceNpcNotDestroy": true,
      "CHAKPMBJNAJ": [
        "[3_6782:3584.926,445.895,4444.371,0.000,74.889,0.000]"
      ]
    }
  ],
  "preloadLuaList": [
    6523122622123410597
  ],
  "forcePreloadLuaList": [
    9954011132412688484
  ],
  "LNMELPHNIDD": true
}