{
  "id": 74511,
  "damageRatio": "WQ",
  "mainQuestTag": "MAINQUEST_TAG_GUIDE",
  "descTextMapHash": 3859221391,
  "EKEKACCODOE": 3147378662,
  "luaPath": "Actor/Quest/WQ74511",
  "rewardIdList": [
    174511
  ],
  "showRedPoint": true,
  "activityId": 5184,
  "subQuests": [
    {
      "subId": 7451101,
      "mainId": 74511,
      "order": 1,
      "descTextMapHash": 706368956,
      "finishCond": [
        {
          "damageRatio": "QUEST_CONTENT_COMPLETE_TALK",
          "param": [
            7451101,
            0
          ]
        }
      ],
      "guide": {
        "damageRatio": "QUEST_GUIDE_NPC",
        "param": [
          "30509"
        ],
        "guideScene": 3,
        "guideStyle": "QUEST_GUIDE_STYLE_TARGET",
        "guideLayer": "QUEST_GUIDE_LAYER_SCENE",
        "MLAHIFLGIGJ": ""
      },
      "guideHint": {
        "param1": ""
      },
      "finishParent": true,
      "isRewind": true,
      "versionBegin": "",
      "versionEnd": ""
    }
  ],
  "talks": [
    {
      "id": 7451101,
      "beginWay": "TALK_BEGIN_MANUAL",
      "beginCond": [
        {
          "type": "QUEST_COND_STATE_EQUAL",
          "_param": [
            "7451101",
            "2"
          ]
        }
      ],
      "priority": 5,
      "initDialog": 745110101,
      "npcId": [
        30509,
        30534
      ],
      "performCfg": "QuestDialogue/WQ/SlimeCannon_74511/Q7451101",
      "heroTalk": "TALK_HERO_MAIN",
      "questId": 74511,
      "assetIndex": 12707867552470972259,
      "prePerformCfg": "",
      "forceNpcNotDestroy": true
    }
  ],
  "preloadLuaList": [
    3929282851084504667
  ],
  "forcePreloadLuaList": [
    7460951916127919739
  ],
  "freeStyleDic": {
    "30509": [
      1170
    ],
    "30534": [
      1190
    ]
  }
}