{
  "id": 74513,
  "damageRatio": "WQ",
  "mainQuestTag": "MAINQUEST_TAG_GUIDE",
  "activeMode": "PLAY_MODE_ALL",
  "descTextMapHash": 1273275327,
  "EKEKACCODOE": 2504089558,
  "luaPath": "Actor/Quest/WQ74513",
  "rewardIdList": [
    174513
  ],
  "showRedPoint": true,
  "activityId": 5200,
  "subQuests": [
    {
      "subId": 7451301,
      "mainId": 74513,
      "order": 1,
      "descTextMapHash": 2977091092,
      "finishCond": [
        {
          "damageRatio": "QUEST_CONTENT_COMPLETE_TALK",
          "param": [
            7451301,
            0
          ]
        }
      ],
      "guide": {
        "damageRatio": "QUEST_GUIDE_NPC",
        "param": [
          "30566"
        ],
        "guideScene": 3,
        "guideStyle": "QUEST_GUIDE_STYLE_TARGET",
        "guideLayer": "QUEST_GUIDE_LAYER_SCENE",
        "MLAHIFLGIGJ": ""
      },
      "guideHint": {
        "param1": ""
      },
      "finishParent": true,
      "isRewind": true,
      "versionBegin": "",
      "versionEnd": ""
    }
  ],
  "talks": [
    {
      "id": 7451301,
      "beginWay": "TALK_BEGIN_MANUAL",
      "activeMode": "PLAY_MODE_HOST",
      "beginCond": [
        {
          "type": "QUEST_COND_STATE_EQUAL",
          "_param": [
            "7451301",
            "2"
          ]
        }
      ],
      "priority": 5,
      "initDialog": 745130101,
      "npcId": [
        30566
      ],
      "performCfg": "QuestDialogue/WQ/BirdBall_74513/Q7451301",
      "heroTalk": "TALK_HERO_MAIN",
      "questId": 74513,
      "assetIndex": 8125733880688466653,
      "prePerformCfg": "",
      "CHAKPMBJNAJ": [
        "[3_340500104:1781.428,441.423,4988.518,0.000,168.533,0.000]"
      ]
    }
  ],
  "freeStyleDic": {
    "30566": [
      1230
    ]
  },
  "LNMELPHNIDD": true
}