{
  "id": 74512,
  "damageRatio": "WQ",
  "mainQuestTag": "MAINQUEST_TAG_GUIDE",
  "descTextMapHash": 3930545279,
  "EKEKACCODOE": 2218832454,
  "luaPath": "Actor/Quest/WQ74512",
  "rewardIdList": [
    174512
  ],
  "showRedPoint": true,
  "activityId": 5184,
  "subQuests": [
    {
      "subId": 7451201,
      "mainId": 74512,
      "order": 1,
      "descTextMapHash": 3837596428,
      "finishCond": [
        {
          "damageRatio": "QUEST_CONTENT_COMPLETE_TALK",
          "param": [
            7451201,
            0
          ]
        },
        {
          "damageRatio": "QUEST_CONTENT_COMPLETE_TALK",
          "param": [
            7451202,
            0
          ]
        }
      ],
      "guide": {
        "damageRatio": "QUEST_GUIDE_NPC",
        "param": [
          "30509"
        ],
        "guideScene": 3,
        "guideStyle": "QUEST_GUIDE_STYLE_TARGET",
        "guideLayer": "QUEST_GUIDE_LAYER_SCENE",
        "MLAHIFLGIGJ": ""
      },
      "guideHint": {
        "param1": ""
      },
      "finishParent": true,
      "isRewind": true,
      "versionBegin": "",
      "versionEnd": ""
    }
  ],
  "talks": [
    {
      "id": 7451201,
      "beginWay": "TALK_BEGIN_MANUAL",
      "beginCondComb": "LOGIC_AND",
      "beginCond": [
        {
          "type": "QUEST_COND_STATE_EQUAL",
          "_param": [
            "7451201",
            "2"
          ]
        },
        {
          "type": "QUEST_COND_ACTIVITY_CLIENT_COND",
          "_param": [
            "5184",
            "5184022",
            "1"
          ]
        }
      ],
      "priority": 5,
      "initDialog": 745120101,
      "npcId": [
        30509,
        30534
      ],
      "performCfg": "QuestDialogue/WQ/SlimeCannon_74512/Q7451201",
      "heroTalk": "TALK_HERO_MAIN",
      "questId": 74512,
      "assetIndex": 7565419684513653725,
      "prePerformCfg": "",
      "forceNpcNotDestroy": true
    },
    {
      "id": 7451202,
      "beginWay": "TALK_BEGIN_MANUAL",
      "beginCond": [
        {
          "type": "QUEST_COND_STATE_EQUAL",
          "_param": [
            "7451201",
            "2"
          ]
        }
      ],
      "priority": 4,
      "initDialog": 745120201,
      "npcId": [
        30509,
        30534
      ],
      "performCfg": "QuestDialogue/WQ/SlimeCannon_74512/Q7451202",
      "heroTalk": "TALK_HERO_MAIN",
      "questId": 74512,
      "assetIndex": 16447629138605128419,
      "prePerformCfg": "",
      "forceNpcNotDestroy": true
    }
  ],
  "preloadLuaList": [
    2963273271116490968
  ],
  "forcePreloadLuaList": [
    5553772277886162877
  ],
  "freeStyleDic": {
    "30509": [
      1190
    ],
    "30534": [
      1120
    ]
  }
}