{
  "id": 74514,
  "damageRatio": "WQ",
  "mainQuestTag": "MAINQUEST_TAG_GUIDE",
  "activeMode": "PLAY_MODE_ALL",
  "descTextMapHash": 1959203991,
  "EKEKACCODOE": 1418570974,
  "luaPath": "Actor/Quest/WQ74514",
  "rewardIdList": [
    174514
  ],
  "showRedPoint": true,
  "activityId": 5201,
  "subQuests": [
    {
      "subId": 7451401,
      "mainId": 74514,
      "order": 1,
      "descTextMapHash": 516757084,
      "finishCond": [
        {
          "damageRatio": "QUEST_CONTENT_COMPLETE_TALK",
          "param": [
            7451401,
            0
          ]
        }
      ],
      "guide": {
        "damageRatio": "QUEST_GUIDE_NPC",
        "param": [
          "30567"
        ],
        "guideScene": 3,
        "guideStyle": "QUEST_GUIDE_STYLE_TARGET",
        "guideLayer": "QUEST_GUIDE_LAYER_SCENE",
        "MLAHIFLGIGJ": ""
      },
      "guideHint": {
        "param1": ""
      },
      "finishParent": true,
      "isRewind": true,
      "versionBegin": "",
      "versionEnd": ""
    }
  ],
  "talks": [
    {
      "id": 7451401,
      "beginWay": "TALK_BEGIN_MANUAL",
      "activeMode": "PLAY_MODE_HOST",
      "beginCond": [
        {
          "type": "QUEST_COND_STATE_EQUAL",
          "_param": [
            "7451401",
            "2"
          ]
        }
      ],
      "priority": 5,
      "initDialog": 745140101,
      "npcId": [
        30567
      ],
      "performCfg": "QuestDialogue/WQ/ActivityPhotoGraphV4_74514/Q7451401",
      "heroTalk": "TALK_HERO_MAIN",
      "questId": 74514,
      "assetIndex": 4213989380528682058,
      "prePerformCfg": "",
      "CHAKPMBJNAJ": [
        "[3_340500109:1738.895,441.440,4922.686,0.000,273.301,0.000]"
      ]
    }
  ],
  "freeStyleDic": {
    "30567": [
      1240
    ]
  },
  "LNMELPHNIDD": true
}