{
  "id": 74924,
  "damageRatio": "WQ",
  "descTextMapHash": 2875760311,
  "EKEKACCODOE": 546322862,
  "luaPath": "",
  "rewardIdList": [
    555025
  ],
  "showType": "QUEST_HIDDEN",
  "subQuests": [
    {
      "subId": 7492401,
      "mainId": 74924,
      "order": 1,
      "showType": "QUEST_HIDDEN",
      "finishCond": [
        {
          "damageRatio": "QUEST_CONTENT_COMPLETE_TALK",
          "param": [
            7492401,
            0
          ]
        }
      ],
      "guide": {
        "MLAHIFLGIGJ": ""
      },
      "guideHint": {
        "param1": ""
      },
      "finishParent": true,
      "versionBegin": "",
      "versionEnd": ""
    }
  ]
}