{
  "id": 74934,
  "damageRatio": "WQ",
  "descTextMapHash": 1276996607,
  "EKEKACCODOE": 248516166,
  "luaPath": "",
  "rewardIdList": [
    555035
  ],
  "showType": "QUEST_HIDDEN",
  "subQuests": [
    {
      "subId": 7493401,
      "mainId": 74934,
      "order": 1,
      "showType": "QUEST_HIDDEN",
      "finishCond": [
        {
          "damageRatio": "QUEST_CONTENT_COMPLETE_TALK",
          "param": [
            7493401,
            0
          ]
        }
      ],
      "guide": {
        "MLAHIFLGIGJ": ""
      },
      "guideHint": {
        "param1": ""
      },
      "finishParent": true,
      "versionBegin": "",
      "versionEnd": ""
    }
  ]
}