{
  "id": 74936,
  "damageRatio": "WQ",
  "descTextMapHash": 1666634471,
  "EKEKACCODOE": 4288354910,
  "luaPath": "",
  "rewardIdList": [
    555036
  ],
  "showType": "QUEST_HIDDEN",
  "subQuests": [
    {
      "subId": 7493601,
      "mainId": 74936,
      "order": 1,
      "showType": "QUEST_HIDDEN",
      "finishCond": [
        {
          "damageRatio": "QUEST_CONTENT_COMPLETE_TALK",
          "param": [
            7493601,
            0
          ]
        }
      ],
      "guide": {
        "MLAHIFLGIGJ": ""
      },
      "guideHint": {
        "param1": ""
      },
      "finishParent": true,
      "versionBegin": "",
      "versionEnd": ""
    }
  ]
}