{
  "id": 74946,
  "damageRatio": "WQ",
  "descTextMapHash": 2692613295,
  "EKEKACCODOE": 4211979350,
  "luaPath": "",
  "rewardIdList": [
    555046
  ],
  "showType": "QUEST_HIDDEN",
  "subQuests": [
    {
      "subId": 7494601,
      "mainId": 74946,
      "order": 1,
      "showType": "QUEST_HIDDEN",
      "finishCond": [
        {
          "damageRatio": "QUEST_CONTENT_COMPLETE_TALK",
          "param": [
            7494601,
            0
          ]
        }
      ],
      "guide": {
        "MLAHIFLGIGJ": ""
      },
      "guideHint": {
        "param1": ""
      },
      "finishParent": true,
      "versionBegin": "",
      "versionEnd": ""
    }
  ],
  "LNMELPHNIDD": true
}