{
  "id": 75022,
  "damageRatio": "WQ",
  "activeMode": "PLAY_MODE_ALL",
  "descTextMapHash": 1537096527,
  "EKEKACCODOE": 3793262726,
  "luaPath": "Actor/Quest/WQ75022",
  "rewardIdList": [
    175022
  ],
  "chapterId": 10204,
  "subQuests": [
    {
      "subId": 7502201,
      "mainId": 75022,
      "order": 1,
      "descTextMapHash": 1205876828,
      "showType": "QUEST_HIDDEN",
      "finishCond": [
        {
          "damageRatio": "QUEST_CONTENT_COMPLETE_TALK",
          "param": [
            7502210,
            0
          ]
        }
      ],
      "guide": {
        "damageRatio": "QUEST_GUIDE_NPC",
        "param": [
          "21493"
        ],
        "guideScene": 3,
        "guideStyle": "QUEST_GUIDE_STYLE_TARGET",
        "guideLayer": "QUEST_GUIDE_LAYER_SCENE",
        "MLAHIFLGIGJ": ""
      },
      "guideHint": {
        "param1": ""
      },
      "isRewind": true,
      "versionBegin": "",
      "versionEnd": ""
    },
    {
      "subId": 7502202,
      "mainId": 75022,
      "order": 3,
      "descTextMapHash": 3519764620,
      "finishCond": [
        {
          "damageRatio": "QUEST_CONTENT_COMPLETE_TALK",
          "param": [
            7502207,
            0
          ]
        }
      ],
      "failCond": [
        {
          "damageRatio": "QUEST_CONTENT_COMPLETE_TALK",
          "param": [
            7502209,
            0
          ]
        }
      ],
      "guide": {
        "damageRatio": "QUEST_GUIDE_LOCATION",
        "param": [
          "[3_9684:-2223.588,298.292,8341.025]",
          "20"
        ],
        "guideScene": 3,
        "guideStyle": "QUEST_GUIDE_STYLE_POINT",
        "guideLayer": "QUEST_GUIDE_LAYER_SCENE",
        "MLAHIFLGIGJ": ""
      },
      "guideHint": {
        "param1": ""
      },
      "isRewind": true,
      "failExec": [
        {
          "damageRatio": "QUEST_EXEC_ROLLBACK_QUEST",
          "param": [
            "7502202"
          ]
        }
      ],
      "versionBegin": "",
      "versionEnd": ""
    },
    {
      "subId": 7502203,
      "mainId": 75022,
      "order": 4,
      "descTextMapHash": 18200300,
      "finishCond": [
        {
          "damageRatio": "QUEST_CONTENT_COMPLETE_TALK",
          "param": [
            7502203,
            0
          ]
        }
      ],
      "guide": {
        "damageRatio": "QUEST_GUIDE_LOCATION",
        "param": [
          "[3_9684:-2223.588,298.292,8341.025]",
          "20"
        ],
        "guideScene": 3,
        "guideStyle": "QUEST_GUIDE_STYLE_POINT",
        "guideLayer": "QUEST_GUIDE_LAYER_SCENE",
        "MLAHIFLGIGJ": ""
      },
      "guideHint": {
        "param1": ""
      },
      "isRewind": true,
      "versionBegin": "",
      "versionEnd": ""
    },
    {
      "subId": 7502204,
      "mainId": 75022,
      "order": 5,
      "descTextMapHash": 1306513532,
      "finishCond": [
        {
          "damageRatio": "QUEST_CONTENT_COMPLETE_TALK",
          "param": [
            7502204,
            0
          ]
        }
      ],
      "guide": {
        "damageRatio": "QUEST_GUIDE_LOCATION",
        "param": [
          "[3_9684:-2223.588,298.292,8341.025]",
          "20"
        ],
        "guideScene": 3,
        "guideStyle": "QUEST_GUIDE_STYLE_POINT",
        "guideLayer": "QUEST_GUIDE_LAYER_SCENE",
        "MLAHIFLGIGJ": ""
      },
      "guideHint": {
        "param1": ""
      },
      "isRewind": true,
      "versionBegin": "",
      "versionEnd": ""
    },
    {
      "subId": 7502205,
      "mainId": 75022,
      "order": 6,
      "descTextMapHash": 3292926620,
      "finishCond": [
        {
          "damageRatio": "QUEST_CONTENT_LUA_NOTIFY",
          "param": [
            0,
            0
          ],
          "count": 1
        }
      ],
      "failCond": [
        {
          "damageRatio": "QUEST_CONTENT_LEAVE_SCENE_RANGE",
          "param": [
            3,
            80
          ]
        }
      ],
      "guide": {
        "damageRatio": "QUEST_GUIDE_GADGET",
        "param": [
          "133502136",
          "136001",
          "-2223.514:296:8344.622"
        ],
        "guideScene": 3,
        "MLAHIFLGIGJ": ""
      },
      "guideHint": {
        "param1": ""
      },
      "isRewind": true,
      "failExec": [
        {
          "damageRatio": "QUEST_EXEC_ROLLBACK_QUEST",
          "param": [
            "7502204"
          ]
        },
        {
          "damageRatio": "QUEST_EXEC_REFRESH_GROUP_SUITE",
          "param": [
            "3",
            "133502136,1"
          ]
        }
      ],
      "versionBegin": "",
      "versionEnd": ""
    },
    {
      "subId": 7502206,
      "mainId": 75022,
      "order": 2,
      "descTextMapHash": 3048744860,
      "finishCond": [
        {
          "damageRatio": "QUEST_CONTENT_COMPLETE_TALK",
          "param": [
            7502206,
            0
          ]
        }
      ],
      "guide": {
        "damageRatio": "QUEST_GUIDE_LOCATION",
        "param": [
          "[3_9684:-2223.588,298.292,8341.025]",
          "20"
        ],
        "guideScene": 3,
        "guideStyle": "QUEST_GUIDE_STYLE_POINT",
        "guideLayer": "QUEST_GUIDE_LAYER_SCENE",
        "MLAHIFLGIGJ": ""
      },
      "guideHint": {
        "param1": ""
      },
      "isRewind": true,
      "finishExec": [
        {
          "damageRatio": "QUEST_EXEC_EXIT_VEHICLE",
          "param": [
            "0"
          ]
        }
      ],
      "versionBegin": "",
      "versionEnd": ""
    },
    {
      "subId": 7502207,
      "mainId": 75022,
      "order": 98,
      "descTextMapHash": 4205134732,
      "finishCond": [
        {
          "damageRatio": "QUEST_CONTENT_LUA_NOTIFY",
          "param": [
            0,
            0
          ],
          "count": 1
        }
      ],
      "guide": {
        "damageRatio": "QUEST_GUIDE_LOCATION",
        "param": [
          "[3_8848:-2229.572,297.770,8352.723]",
          "30"
        ],
        "guideScene": 3,
        "MLAHIFLGIGJ": ""
      },
      "guideHint": {
        "param1": ""
      },
      "isRewind": true,
      "versionBegin": "",
      "versionEnd": ""
    },
    {
      "subId": 7502208,
      "mainId": 75022,
      "order": 7,
      "descTextMapHash": 2161986348,
      "finishCond": [
        {
          "damageRatio": "QUEST_CONTENT_COMPLETE_TALK",
          "param": [
            7502208,
            0
          ]
        }
      ],
      "guide": {
        "damageRatio": "QUEST_GUIDE_LOCATION",
        "param": [
          "[3_9684:-2223.588,298.292,8341.025]",
          "20"
        ],
        "guideScene": 3,
        "guideStyle": "QUEST_GUIDE_STYLE_POINT",
        "guideLayer": "QUEST_GUIDE_LAYER_SCENE",
        "MLAHIFLGIGJ": ""
      },
      "guideHint": {
        "param1": ""
      },
      "finishParent": true,
      "finishExec": [
        {
          "damageRatio": "QUEST_EXEC_REFRESH_GROUP_SUITE",
          "param": [
            "3",
            "133502136,5"
          ]
        },
        {
          "damageRatio": "QUEST_EXEC_REFRESH_GROUP_SUITE",
          "param": [
            "3",
            "133502660,2"
          ]
        }
      ],
      "versionBegin": "",
      "versionEnd": ""
    },
    {
      "subId": 7502209,
      "mainId": 75022,
      "order": 99,
      "descTextMapHash": 239690620,
      "finishCond": [
        {
          "damageRatio": "QUEST_CONTENT_LUA_NOTIFY",
          "param": [
            0,
            0
          ],
          "count": 1
        }
      ],
      "guide": {
        "damageRatio": "QUEST_GUIDE_GADGET",
        "param": [
          "133502136",
          "136006",
          "-2224.021:297.5291:8344.653"
        ],
        "guideScene": 3,
        "guideStyle": "QUEST_GUIDE_STYLE_POINT",
        "guideLayer": "QUEST_GUIDE_LAYER_UI",
        "MLAHIFLGIGJ": ""
      },
      "guideHint": {
        "param1": ""
      },
      "isRewind": true,
      "versionBegin": "",
      "versionEnd": ""
    }
  ],
  "talks": [
    {
      "id": 7502201,
      "beginWay": "TALK_BEGIN_MANUAL",
      "activeMode": "PLAY_MODE_HOST",
      "beginCond": [
        {
          "type": "QUEST_COND_STATE_EQUAL",
          "_param": [
            "7502206",
            "2"
          ]
        }
      ],
      "priority": 5,
      "initDialog": 750220101,
      "npcId": [
        21493
      ],
      "performCfg": "QuestDialogue/WQ/Natlan_75022/Q7502201",
      "questId": 75022,
      "assetIndex": 18146683988812685015,
      "prePerformCfg": "",
      "GPONOMBBGJI": true,
      "HPEOPMFBIKA": true
    },
    {
      "id": 7502202,
      "beginWay": "TALK_BEGIN_MANUAL",
      "activeMode": "PLAY_MODE_HOST",
      "beginCondComb": "LOGIC_AND",
      "beginCond": [
        {
          "type": "QUEST_COND_STATE_EQUAL",
          "_param": [
            "7502202",
            "2"
          ]
        },
        {
          "type": "QUEST_COND_ITEM_GIVING_ACTIVED",
          "_param": [
            "7502202"
          ]
        }
      ],
      "priority": 5,
      "OILEPDDBAEN": true,
      "initDialog": 750220201,
      "npcId": [
        21493
      ],
      "performCfg": "QuestDialogue/WQ/Natlan_75022/Q7502202",
      "questId": 75022,
      "assetIndex": 2601163959282021819,
      "prePerformCfg": "",
      "CHAKPMBJNAJ": [
        "[3_8689:-2224.000,298.215,8341.112,0.000,131.324,0.000]",
        "[3_8801:-2224.116,298.027,8342.569,0.000,126.570,0.000]",
        "[3_8802:-2225.254,298.382,8340.671,0.000,98.580,0.000]"
      ],
      "GPONOMBBGJI": true
    },
    {
      "id": 7502203,
      "beginWay": "TALK_BEGIN_AUTO",
      "activeMode": "PLAY_MODE_HOST",
      "beginCond": [
        {
          "type": "QUEST_COND_STATE_EQUAL",
          "_param": [
            "7502203",
            "2"
          ]
        }
      ],
      "priority": 5,
      "initDialog": 750220304,
      "npcId": [
        21493
      ],
      "performCfg": "QuestDialogue/WQ/Natlan_75022/Q7502203",
      "questId": 75022,
      "assetIndex": 12860226182814133759,
      "prePerformCfg": "",
      "CHAKPMBJNAJ": [
        "[3_8800:-2223.904,298.215,8341.095,0.000,116.040,0.000]",
        "[3_8801:-2224.116,298.027,8342.569,0.000,126.570,0.000]",
        "[3_8802:-2225.254,298.382,8340.671,0.000,98.580,0.000]"
      ],
      "GPONOMBBGJI": true
    },
    {
      "id": 7502204,
      "activeMode": "PLAY_MODE_HOST",
      "beginCond": [
        {
          "type": "QUEST_COND_IN_VEHICLE_BY_FEATURETAG",
          "_param": [
            "30010"
          ]
        },
        {
          "type": "QUEST_COND_STATE_EQUAL",
          "_param": [
            "7502204",
            "2"
          ]
        }
      ],
      "priority": 6,
      "initDialog": 750220404,
      "npcId": [
        21493
      ],
      "performCfg": "QuestDialogue/WQ/Natlan_75022/Q7502204",
      "questId": 75022,
      "assetIndex": 10328878188066620199,
      "prePerformCfg": "",
      "CHAKPMBJNAJ": [
        "[3_8800:-2223.904,298.215,8341.095,0.000,116.040,0.000]",
        "[3_8801:-2224.116,298.027,8342.569,0.000,126.570,0.000]",
        "[3_8802:-2225.254,298.382,8340.671,0.000,98.580,0.000]"
      ],
      "GPONOMBBGJI": true
    },
    {
      "id": 7502206,
      "activeMode": "PLAY_MODE_HOST",
      "beginCond": [
        {
          "type": "QUEST_COND_IN_VEHICLE_BY_FEATURETAG",
          "_param": [
            "30010"
          ]
        },
        {
          "type": "QUEST_COND_STATE_EQUAL",
          "_param": [
            "7502206",
            "2"
          ]
        }
      ],
      "priority": 6,
      "initDialog": 750220606,
      "npcId": [
        21493
      ],
      "performCfg": "QuestDialogue/WQ/Natlan_75022/Q7502206",
      "questId": 75022,
      "assetIndex": 3887594270544388650,
      "prePerformCfg": "",
      "CHAKPMBJNAJ": [
        "[3_8800:-2223.904,298.215,8341.095,0.000,116.040,0.000]",
        "[3_8801:-2224.116,298.027,8342.569,0.000,126.570,0.000]",
        "[3_8802:-2225.254,298.382,8340.671,0.000,98.580,0.000]"
      ],
      "GPONOMBBGJI": true
    },
    {
      "id": 7502207,
      "activeMode": "PLAY_MODE_HOST",
      "beginCond": [
        {
          "type": "QUEST_COND_STATE_EQUAL",
          "_param": [
            "7502202",
            "2"
          ]
        },
        {
          "type": "QUEST_COND_ITEM_GIVING_ACTIVED",
          "_param": [
            "7502202"
          ]
        }
      ],
      "priority": 5,
      "initDialog": 750220701,
      "npcId": [
        21493
      ],
      "performCfg": "QuestDialogue/WQ/Natlan_75022/Q7502207",
      "questId": 75022,
      "assetIndex": 8487295335648202760,
      "prePerformCfg": "",
      "GPONOMBBGJI": true
    },
    {
      "id": 7502208,
      "beginWay": "TALK_BEGIN_MANUAL",
      "activeMode": "PLAY_MODE_HOST",
      "beginCond": [
        {
          "type": "QUEST_COND_STATE_EQUAL",
          "_param": [
            "7502208",
            "2"
          ]
        }
      ],
      "priority": 5,
      "initDialog": 750220801,
      "npcId": [
        21493
      ],
      "performCfg": "QuestDialogue/WQ/Natlan_75022/Q7502208",
      "questId": 75022,
      "assetIndex": 8097755172176032830,
      "prePerformCfg": "",
      "CHAKPMBJNAJ": [
        "[3_8821:-2225.204,297.897,8344.755,0.000,86.654,0.000]",
        "[3_8822:-2224.635,297.998,8343.357,0.000,31.518,0.000]",
        "[3_8823:-2224.692,297.770,8345.695,0.000,129.948,0.000]",
        "[3_9681:-2226.926,297.816,8346.294,0.000,4.280,0.000]"
      ]
    },
    {
      "id": 7502209,
      "activeMode": "PLAY_MODE_HOST",
      "beginCond": [
        {
          "type": "QUEST_COND_STATE_EQUAL",
          "_param": [
            "7502202",
            "2"
          ]
        },
        {
          "type": "QUEST_COND_ITEM_GIVING_ACTIVED",
          "_param": [
            "7502202"
          ]
        }
      ],
      "priority": 5,
      "initDialog": 750220901,
      "npcId": [
        21493
      ],
      "performCfg": "QuestDialogue/WQ/Natlan_75022/Q7502209",
      "questId": 75022,
      "assetIndex": 8857716782928112178,
      "prePerformCfg": "",
      "GPONOMBBGJI": true
    },
    {
      "id": 7502210,
      "beginWay": "TALK_BEGIN_MANUAL",
      "activeMode": "PLAY_MODE_HOST",
      "beginCond": [
        {
          "type": "QUEST_COND_STATE_EQUAL",
          "_param": [
            "7502201",
            "2"
          ]
        }
      ],
      "priority": 5,
      "initDialog": 750221001,
      "npcId": [
        21493
      ],
      "performCfg": "QuestDialogue/WQ/Natlan_75022/Q7502210",
      "heroTalk": "TALK_HERO_MAIN",
      "questId": 75022,
      "assetIndex": 17464627468023303083,
      "prePerformCfg": "",
      "CHAKPMBJNAJ": [
        "[3_8800:-2223.904,298.215,8341.095,0.000,116.040,0.000]",
        "[3_8801:-2224.116,298.027,8342.569,0.000,126.570,0.000]",
        "[3_8802:-2225.254,298.382,8340.671,0.000,98.580,0.000]"
      ],
      "GPONOMBBGJI": true
    },
    {
      "id": 7502211,
      "beginWay": "TALK_BEGIN_MANUAL",
      "activeMode": "PLAY_MODE_HOST",
      "beginCond": [
        {
          "type": "QUEST_COND_STATE_EQUAL",
          "_param": [
            "7502204",
            "2"
          ]
        }
      ],
      "priority": 5,
      "initDialog": 750221101,
      "npcId": [
        21493
      ],
      "performCfg": "QuestDialogue/WQ/Natlan_75022/Q7502211",
      "questId": 75022,
      "assetIndex": 1436024700888626787,
      "prePerformCfg": "",
      "GPONOMBBGJI": true
    },
    {
      "id": 7502212,
      "beginWay": "TALK_BEGIN_MANUAL",
      "activeMode": "PLAY_MODE_HOST",
      "beginCond": [
        {
          "type": "QUEST_COND_STATE_EQUAL",
          "_param": [
            "7502202",
            "2"
          ]
        },
        {
          "type": "QUEST_COND_IN_VEHICLE_BY_FEATURETAG",
          "_param": [
            "30010"
          ]
        }
      ],
      "priority": 6,
      "initDialog": 750221201,
      "npcId": [
        21493
      ],
      "performCfg": "",
      "questId": 75022,
      "assetIndex": 2921529132111681197,
      "prePerformCfg": "",
      "stayFreeStyle": true,
      "GPONOMBBGJI": true
    },
    {
      "id": 7502213,
      "beginWay": "TALK_BEGIN_MANUAL",
      "activeMode": "PLAY_MODE_HOST",
      "beginCond": [
        {
          "type": "QUEST_COND_STATE_EQUAL",
          "_param": [
            "7502206",
            "2"
          ]
        },
        {
          "type": "QUEST_COND_IN_VEHICLE_BY_FEATURETAG",
          "_param": [
            "30010"
          ]
        }
      ],
      "priority": 6,
      "nextTalks": [
        7502206
      ],
      "initDialog": 750221301,
      "npcId": [
        21493
      ],
      "performCfg": "",
      "questId": 75022,
      "assetIndex": 14005954033753141874,
      "prePerformCfg": "",
      "GPONOMBBGJI": true
    },
    {
      "id": 7502214,
      "beginWay": "TALK_BEGIN_MANUAL",
      "activeMode": "PLAY_MODE_HOST",
      "beginCond": [
        {
          "type": "QUEST_COND_STATE_EQUAL",
          "_param": [
            "7502204",
            "2"
          ]
        },
        {
          "type": "QUEST_COND_IN_VEHICLE_BY_FEATURETAG",
          "_param": [
            "30010"
          ]
        }
      ],
      "priority": 6,
      "nextTalks": [
        7502204
      ],
      "initDialog": 750221401,
      "npcId": [
        21493
      ],
      "performCfg": "",
      "questId": 75022,
      "assetIndex": 17786327075140410732,
      "prePerformCfg": "",
      "stayFreeStyle": true,
      "GPONOMBBGJI": true
    }
  ],
  "freeStyleDic": {
    "21493": [
      6,
      1
    ]
  },
  "LNMELPHNIDD": true
}