{
  "id": 75026,
  "damageRatio": "WQ",
  "activeMode": "PLAY_MODE_ALL",
  "descTextMapHash": 2091328199,
  "luaPath": "Actor/Quest/WQ75026",
  "suggestTrackOutOfOrder": true,
  "showType": "QUEST_HIDDEN",
  "subQuests": [
    {
      "subId": 7502601,
      "mainId": 75026,
      "order": 1,
      "descTextMapHash": 76119972,
      "showType": "QUEST_HIDDEN",
      "finishCond": [
        {
          "damageRatio": "QUEST_CONTENT_FINISH_PLOT",
          "param": [
            7502601,
            0
          ]
        }
      ],
      "guide": {
        "MLAHIFLGIGJ": ""
      },
      "showGuide": "QUEST_GUIDE_ITEM_DISABLE",
      "guideHint": {
        "param1": ""
      },
      "finishParent": true,
      "versionBegin": "",
      "versionEnd": ""
    }
  ],
  "LNMELPHNIDD": true
}