{
  "id": 75038,
  "damageRatio": "WQ",
  "activeMode": "PLAY_MODE_ALL",
  "EKEKACCODOE": 1603994535,
  "luaPath": "Actor/Quest/WQ75038",
  "showType": "QUEST_HIDDEN",
  "subQuests": [
    {
      "subId": 7503801,
      "mainId": 75038,
      "order": 1,
      "showType": "QUEST_HIDDEN",
      "finishCond": [
        {
          "damageRatio": "QUEST_CONTENT_COMPLETE_TALK",
          "param": [
            7502121,
            0
          ]
        }
      ],
      "guide": {
        "MLAHIFLGIGJ": ""
      },
      "showGuide": "QUEST_GUIDE_ITEM_DISABLE",
      "guideHint": {
        "param1": ""
      },
      "finishParent": true,
      "versionBegin": "",
      "versionEnd": ""
    }
  ],
  "LNMELPHNIDD": true
}