{
  "id": 75075,
  "damageRatio": "WQ",
  "activeMode": "PLAY_MODE_ALL",
  "descTextMapHash": 3525381551,
  "EKEKACCODOE": 2979366998,
  "luaPath": "Actor/Quest/WQ75075",
  "showType": "QUEST_HIDDEN",
  "subQuests": [
    {
      "subId": 7507501,
      "mainId": 75075,
      "order": 100,
      "showType": "QUEST_HIDDEN",
      "finishCond": [
        {
          "damageRatio": "QUEST_CONTENT_QUEST_STATE_EQUAL",
          "param": [
            99902,
            3
          ]
        }
      ],
      "guide": {
        "MLAHIFLGIGJ": ""
      },
      "guideHint": {
        "param1": ""
      },
      "isRewind": true,
      "versionBegin": "",
      "versionEnd": ""
    },
    {
      "subId": 7507502,
      "mainId": 75075,
      "order": 99,
      "showType": "QUEST_HIDDEN",
      "finishCond": [
        {
          "damageRatio": "QUEST_CONTENT_COMPLETE_TALK",
          "param": [
            7507506,
            0
          ]
        }
      ],
      "guide": {
        "MLAHIFLGIGJ": ""
      },
      "guideHint": {
        "param1": ""
      },
      "finishExec": [
        {
          "damageRatio": "QUEST_EXEC_ROLLBACK_QUEST",
          "param": [
            "7507501"
          ]
        }
      ],
      "versionBegin": "",
      "versionEnd": ""
    }
  ],
  "talks": [
    {
      "id": 7507501,
      "beginWay": "TALK_BEGIN_MANUAL",
      "activeMode": "PLAY_MODE_ALL",
      "beginCond": [
        {
          "type": "QUEST_COND_STATE_EQUAL",
          "_param": [
            "7507501",
            "2"
          ]
        }
      ],
      "priority": 5,
      "nextTalks": [
        7507502,
        7507503,
        7507504,
        7507505
      ],
      "initDialog": 750750101,
      "npcId": [
        21703
      ],
      "performCfg": "",
      "questId": 75075,
      "assetIndex": 13918385915859722173,
      "prePerformCfg": ""
    },
    {
      "id": 7507502,
      "activeMode": "PLAY_MODE_ALL",
      "beginCond": [
        {
          "type": "QUEST_COND_STATE_EQUAL",
          "_param": [
            "7507501",
            "2"
          ]
        }
      ],
      "priority": 5,
      "nextTalks": [
        7507509
      ],
      "initDialog": 750750201,
      "npcId": [
        21703
      ],
      "performCfg": "",
      "questId": 75075,
      "assetIndex": 7476789006570905754,
      "prePerformCfg": ""
    },
    {
      "id": 7507503,
      "activeMode": "PLAY_MODE_ALL",
      "beginCond": [
        {
          "type": "QUEST_COND_STATE_EQUAL",
          "_param": [
            "7507501",
            "2"
          ]
        }
      ],
      "priority": 5,
      "initDialog": 750750301,
      "npcId": [
        21703
      ],
      "performCfg": "",
      "questId": 75075,
      "assetIndex": 16630705752345136066,
      "prePerformCfg": "",
      "finishExec": [
        {
          "damageRatio": "TALK_EXEC_NOTIFY_GROUP_LUA",
          "param": [
            "7507501",
            "133503182"
          ]
        }
      ]
    },
    {
      "id": 7507504,
      "activeMode": "PLAY_MODE_ALL",
      "beginCond": [
        {
          "type": "QUEST_COND_STATE_EQUAL",
          "_param": [
            "7507501",
            "2"
          ]
        }
      ],
      "priority": 5,
      "initDialog": 750750401,
      "npcId": [
        21703
      ],
      "performCfg": "",
      "questId": 75075,
      "assetIndex": 1667421549115922784,
      "prePerformCfg": "",
      "finishExec": [
        {
          "damageRatio": "TALK_EXEC_NOTIFY_GROUP_LUA",
          "param": [
            "7507501",
            "133503183"
          ]
        }
      ]
    },
    {
      "id": 7507505,
      "activeMode": "PLAY_MODE_ALL",
      "beginCond": [
        {
          "type": "QUEST_COND_STATE_EQUAL",
          "_param": [
            "7507501",
            "2"
          ]
        }
      ],
      "priority": 5,
      "initDialog": 750750501,
      "npcId": [
        21703
      ],
      "performCfg": "",
      "questId": 75075,
      "assetIndex": 5266726419170502158,
      "prePerformCfg": ""
    },
    {
      "id": 7507506,
      "beginWay": "TALK_BEGIN_MANUAL",
      "activeMode": "PLAY_MODE_ALL",
      "beginCond": [
        {
          "type": "QUEST_COND_STATE_EQUAL",
          "_param": [
            "7507502",
            "2"
          ]
        }
      ],
      "priority": 5,
      "initDialog": 750750601,
      "npcId": [
        21703
      ],
      "performCfg": "",
      "questId": 75075,
      "assetIndex": 11199433494053471790,
      "prePerformCfg": ""
    },
    {
      "id": 7507507,
      "activeMode": "PLAY_MODE_ALL",
      "beginCond": [
        {
          "type": "QUEST_COND_STATE_EQUAL",
          "_param": [
            "7507501",
            "2"
          ]
        }
      ],
      "priority": 5,
      "initDialog": 750750701,
      "npcId": [
        21703
      ],
      "performCfg": "",
      "questId": 75075,
      "assetIndex": 6431747042424966875,
      "prePerformCfg": "",
      "finishExec": [
        {
          "damageRatio": "TALK_EXEC_NOTIFY_GROUP_LUA",
          "param": [
            "7507501",
            "133504299"
          ]
        }
      ]
    },
    {
      "id": 7507508,
      "activeMode": "PLAY_MODE_ALL",
      "beginCond": [
        {
          "type": "QUEST_COND_STATE_EQUAL",
          "_param": [
            "7507501",
            "2"
          ]
        }
      ],
      "priority": 5,
      "initDialog": 750750801,
      "npcId": [
        21703
      ],
      "performCfg": "",
      "questId": 75075,
      "assetIndex": 4648605492564113210,
      "prePerformCfg": ""
    },
    {
      "id": 7507509,
      "activeMode": "PLAY_MODE_ALL",
      "beginCond": [
        {
          "type": "QUEST_COND_STATE_EQUAL",
          "_param": [
            "7507501",
            "2"
          ]
        }
      ],
      "priority": 5,
      "nextTalks": [
        7507507,
        7507508
      ],
      "initDialog": 750750901,
      "npcId": [
        21703
      ],
      "performCfg": "",
      "questId": 75075,
      "assetIndex": 15742479353605222935,
      "prePerformCfg": ""
    }
  ],
  "LNMELPHNIDD": true
}