{
  "id": 75083,
  "damageRatio": "WQ",
  "activeMode": "PLAY_MODE_ALL",
  "descTextMapHash": 796138127,
  "EKEKACCODOE": 4224792870,
  "luaPath": "Actor/Quest/WQ75083",
  "subQuests": [
    {
      "subId": 7508301,
      "mainId": 75083,
      "order": 1,
      "descTextMapHash": 594979484,
      "finishCond": [
        {
          "damageRatio": "QUEST_CONTENT_FINISH_PLOT",
          "param": [
            7508301,
            0
          ]
        }
      ],
      "guide": {
        "MLAHIFLGIGJ": ""
      },
      "guideHint": {
        "param1": ""
      },
      "isRewind": true,
      "finishExec": [
        {
          "damageRatio": "QUEST_EXEC_ENTER_VEHICLE",
          "param": [
            "45003021",
            "3",
            "Q7508301"
          ]
        }
      ],
      "versionBegin": "",
      "versionEnd": ""
    },
    {
      "subId": 7508302,
      "mainId": 75083,
      "order": 2,
      "descTextMapHash": 1433377708,
      "finishCond": [
        {
          "damageRatio": "QUEST_CONTENT_FINISH_PLOT",
          "param": [
            7508302,
            0
          ]
        }
      ],
      "guide": {
        "MLAHIFLGIGJ": ""
      },
      "guideHint": {
        "param1": ""
      },
      "isRewind": true,
      "finishExec": [
        {
          "damageRatio": "QUEST_EXEC_EXIT_VEHICLE"
        }
      ],
      "versionBegin": "",
      "versionEnd": ""
    },
    {
      "subId": 7508303,
      "mainId": 75083,
      "order": 3,
      "descTextMapHash": 2148347068,
      "finishCond": [
        {
          "damageRatio": "QUEST_CONTENT_FINISH_PLOT",
          "param": [
            7508303,
            0
          ]
        }
      ],
      "guide": {
        "MLAHIFLGIGJ": ""
      },
      "guideHint": {
        "param1": ""
      },
      "isRewind": true,
      "finishExec": [
        {
          "damageRatio": "QUEST_EXEC_CLEAR_FEATURE_TAG_VEHICLE",
          "param": [
            "30012",
            "3"
          ]
        }
      ],
      "versionBegin": "",
      "versionEnd": ""
    },
    {
      "subId": 7508304,
      "mainId": 75083,
      "order": 4,
      "descTextMapHash": 775123060,
      "finishCond": [
        {
          "damageRatio": "QUEST_CONTENT_ENTER_FEATURE_TAG_VEHICLE",
          "param": [
            30011,
            0
          ]
        }
      ],
      "failCond": [
        {
          "damageRatio": "QUEST_CONTENT_ENTER_FEATURE_TAG_VEHICLE",
          "param": [
            30012,
            0
          ]
        }
      ],
      "guide": {
        "MLAHIFLGIGJ": ""
      },
      "guideHint": {
        "param1": ""
      },
      "isRewind": true,
      "versionBegin": "",
      "versionEnd": ""
    },
    {
      "subId": 7508305,
      "mainId": 75083,
      "order": 5,
      "descTextMapHash": 3406878924,
      "finishCond": [
        {
          "damageRatio": "QUEST_CONTENT_LEAVE_FEATURE_TAG_VEHICLE",
          "param": [
            30011,
            0
          ]
        }
      ],
      "failCond": [
        {
          "damageRatio": "QUEST_CONTENT_LEAVE_FEATURE_TAG_VEHICLE",
          "param": [
            30012,
            0
          ]
        }
      ],
      "guide": {
        "MLAHIFLGIGJ": ""
      },
      "guideHint": {
        "param1": ""
      },
      "isRewind": true,
      "versionBegin": "",
      "versionEnd": ""
    },
    {
      "subId": 7508306,
      "mainId": 75083,
      "order": 6,
      "descTextMapHash": 3630987116,
      "finishCond": [
        {
          "damageRatio": "QUEST_CONTENT_ENTER_VEHICLE",
          "param": [
            45003011,
            0
          ]
        }
      ],
      "failCond": [
        {
          "damageRatio": "QUEST_CONTENT_ENTER_VEHICLE",
          "param": [
            45003021,
            0
          ]
        }
      ],
      "guide": {
        "MLAHIFLGIGJ": ""
      },
      "guideHint": {
        "param1": ""
      },
      "isRewind": true,
      "versionBegin": "",
      "versionEnd": ""
    },
    {
      "subId": 7508307,
      "mainId": 75083,
      "order": 7,
      "descTextMapHash": 3911136812,
      "finishCond": [
        {
          "damageRatio": "QUEST_CONTENT_LEAVE_VEHICLE",
          "param": [
            45003011,
            0
          ]
        }
      ],
      "failCond": [
        {
          "damageRatio": "QUEST_CONTENT_LEAVE_VEHICLE",
          "param": [
            45003021,
            0
          ]
        }
      ],
      "guide": {
        "MLAHIFLGIGJ": ""
      },
      "guideHint": {
        "param1": ""
      },
      "isRewind": true,
      "versionBegin": "",
      "versionEnd": ""
    },
    {
      "subId": 7508308,
      "mainId": 75083,
      "order": 8,
      "descTextMapHash": 1987446964,
      "finishCond": [
        {
          "damageRatio": "QUEST_CONTENT_ENTER_VEHICLE",
          "param": [
            0,
            0
          ]
        }
      ],
      "guide": {
        "MLAHIFLGIGJ": ""
      },
      "guideHint": {
        "param1": ""
      },
      "isRewind": true,
      "versionBegin": "",
      "versionEnd": ""
    },
    {
      "subId": 7508309,
      "mainId": 75083,
      "order": 9,
      "descTextMapHash": 1787733164,
      "finishCond": [
        {
          "damageRatio": "QUEST_CONTENT_FINISH_PLOT",
          "param": [
            7508309,
            0
          ]
        }
      ],
      "failCond": [
        {
          "damageRatio": "QUEST_CONTENT_ENTER_VEHICLE",
          "param": [
            0,
            0
          ]
        }
      ],
      "guide": {
        "MLAHIFLGIGJ": ""
      },
      "guideHint": {
        "param1": ""
      },
      "isRewind": true,
      "versionBegin": "",
      "versionEnd": ""
    },
    {
      "subId": 7508310,
      "mainId": 75083,
      "order": 10,
      "descTextMapHash": 348000588,
      "finishCond": [
        {
          "damageRatio": "QUEST_CONTENT_LEAVE_VEHICLE",
          "param": [
            0,
            0
          ]
        }
      ],
      "guide": {
        "MLAHIFLGIGJ": ""
      },
      "guideHint": {
        "param1": ""
      },
      "isRewind": true,
      "versionBegin": "",
      "versionEnd": ""
    },
    {
      "subId": 7508311,
      "mainId": 75083,
      "order": 11,
      "descTextMapHash": 857113820,
      "finishCond": [
        {
          "damageRatio": "QUEST_CONTENT_FINISH_PLOT",
          "param": [
            7508311,
            0
          ]
        }
      ],
      "failCond": [
        {
          "damageRatio": "QUEST_CONTENT_LEAVE_VEHICLE",
          "param": [
            0,
            0
          ]
        }
      ],
      "guide": {
        "MLAHIFLGIGJ": ""
      },
      "guideHint": {
        "param1": ""
      },
      "isRewind": true,
      "versionBegin": "",
      "versionEnd": ""
    },
    {
      "subId": 7508312,
      "mainId": 75083,
      "order": 99,
      "finishCond": [
        {
          "damageRatio": "QUEST_CONTENT_COMPLETE_TALK",
          "param": [
            7508301,
            0
          ]
        }
      ],
      "guide": {
        "MLAHIFLGIGJ": ""
      },
      "guideHint": {
        "param1": ""
      },
      "isRewind": true,
      "versionBegin": "",
      "versionEnd": ""
    },
    {
      "subId": 7508313,
      "mainId": 75083,
      "order": 100,
      "finishCond": [
        {
          "damageRatio": "QUEST_CONTENT_COMPLETE_TALK",
          "param": [
            7508302,
            0
          ]
        }
      ],
      "guide": {
        "MLAHIFLGIGJ": ""
      },
      "guideHint": {
        "param1": ""
      },
      "isRewind": true,
      "versionBegin": "",
      "versionEnd": ""
    },
    {
      "subId": 7508314,
      "mainId": 75083,
      "order": 101,
      "finishCond": [
        {
          "damageRatio": "QUEST_CONTENT_COMPLETE_TALK",
          "param": [
            7508303,
            0
          ]
        }
      ],
      "guide": {
        "MLAHIFLGIGJ": ""
      },
      "guideHint": {
        "param1": ""
      },
      "isRewind": true,
      "versionBegin": "",
      "versionEnd": ""
    },
    {
      "subId": 7508315,
      "mainId": 75083,
      "order": 102,
      "finishCond": [
        {
          "damageRatio": "QUEST_CONTENT_COMPLETE_TALK",
          "param": [
            7508304,
            0
          ]
        }
      ],
      "guide": {
        "MLAHIFLGIGJ": ""
      },
      "guideHint": {
        "param1": ""
      },
      "isRewind": true,
      "versionBegin": "",
      "versionEnd": ""
    },
    {
      "subId": 7508316,
      "mainId": 75083,
      "order": 105,
      "finishCond": [
        {
          "damageRatio": "QUEST_CONTENT_COMPLETE_TALK",
          "param": [
            7508305,
            0
          ]
        }
      ],
      "guide": {
        "MLAHIFLGIGJ": ""
      },
      "guideHint": {
        "param1": ""
      },
      "isRewind": true,
      "versionBegin": "",
      "versionEnd": ""
    },
    {
      "subId": 7508317,
      "mainId": 75083,
      "order": 106,
      "finishCond": [
        {
          "damageRatio": "QUEST_CONTENT_COMPLETE_TALK",
          "param": [
            7508306,
            0
          ]
        }
      ],
      "guide": {
        "MLAHIFLGIGJ": ""
      },
      "guideHint": {
        "param1": ""
      },
      "isRewind": true,
      "versionBegin": "",
      "versionEnd": ""
    }
  ],
  "talks": [
    {
      "id": 7508301,
      "beginWay": "TALK_BEGIN_AUTO",
      "activeMode": "PLAY_MODE_ALL",
      "beginCond": [
        {
          "type": "QUEST_COND_STATE_EQUAL",
          "_param": [
            "7508312",
            "2"
          ]
        }
      ],
      "priority": 5,
      "initDialog": 750830101,
      "npcId": [
        21515
      ],
      "performCfg": "QuestDialogue/WQ/Natlan_75083/Q7508301",
      "questId": 75083,
      "assetIndex": 1891844974067921266,
      "prePerformCfg": ""
    },
    {
      "id": 7508302,
      "beginWay": "TALK_BEGIN_AUTO",
      "activeMode": "PLAY_MODE_ALL",
      "beginCond": [
        {
          "type": "QUEST_COND_STATE_EQUAL",
          "_param": [
            "7508313",
            "2"
          ]
        }
      ],
      "priority": 5,
      "initDialog": 750830201,
      "npcId": [
        21515
      ],
      "performCfg": "QuestDialogue/WQ/Natlan_75083/Q7508302",
      "questId": 75083,
      "assetIndex": 3690126773098301353,
      "prePerformCfg": ""
    },
    {
      "id": 7508303,
      "beginWay": "TALK_BEGIN_AUTO",
      "activeMode": "PLAY_MODE_ALL",
      "beginCond": [
        {
          "type": "QUEST_COND_STATE_EQUAL",
          "_param": [
            "7508314",
            "2"
          ]
        }
      ],
      "priority": 5,
      "initDialog": 750830301,
      "npcId": [
        21515
      ],
      "performCfg": "QuestDialogue/WQ/Natlan_75083/Q7508303",
      "questId": 75083,
      "assetIndex": 5408209398782573071,
      "prePerformCfg": ""
    },
    {
      "id": 7508304,
      "beginWay": "TALK_BEGIN_AUTO",
      "activeMode": "PLAY_MODE_ALL",
      "beginCond": [
        {
          "type": "QUEST_COND_STATE_EQUAL",
          "_param": [
            "7508315",
            "2"
          ]
        }
      ],
      "priority": 5,
      "initDialog": 750830401,
      "npcId": [
        21515
      ],
      "performCfg": "QuestDialogue/WQ/Natlan_75083/Q7508304",
      "questId": 75083,
      "assetIndex": 5812453934260746232,
      "prePerformCfg": ""
    },
    {
      "id": 7508305,
      "beginWay": "TALK_BEGIN_AUTO",
      "activeMode": "PLAY_MODE_ALL",
      "beginCond": [
        {
          "type": "QUEST_COND_STATE_EQUAL",
          "_param": [
            "7508316",
            "2"
          ]
        }
      ],
      "priority": 5,
      "initDialog": 750830501,
      "npcId": [
        21515
      ],
      "performCfg": "QuestDialogue/WQ/Natlan_75083/Q7508305",
      "questId": 75083,
      "assetIndex": 12984669585404107013,
      "prePerformCfg": ""
    },
    {
      "id": 7508306,
      "beginWay": "TALK_BEGIN_AUTO",
      "activeMode": "PLAY_MODE_ALL",
      "beginCond": [
        {
          "type": "QUEST_COND_STATE_EQUAL",
          "_param": [
            "7508317",
            "2"
          ]
        }
      ],
      "priority": 5,
      "initDialog": 750830601,
      "npcId": [
        21515
      ],
      "performCfg": "QuestDialogue/WQ/Natlan_75083/Q7508306",
      "questId": 75083,
      "assetIndex": 5337559579049928567,
      "prePerformCfg": ""
    }
  ],
  "LNMELPHNIDD": true
}