{
  "id": 75112,
  "damageRatio": "WQ",
  "activeMode": "PLAY_MODE_ALL",
  "descTextMapHash": 2213004343,
  "EKEKACCODOE": 3032835334,
  "luaPath": "Actor/Quest/WQ75112",
  "showType": "QUEST_HIDDEN",
  "subQuests": [
    {
      "subId": 7511201,
      "mainId": 75112,
      "order": 1,
      "descTextMapHash": 1358886148,
      "showType": "QUEST_HIDDEN",
      "finishCond": [
        {
          "damageRatio": "QUEST_CONTENT_LUA_NOTIFY",
          "param": [
            0,
            0
          ],
          "count": 1
        }
      ],
      "guide": {
        "MLAHIFLGIGJ": ""
      },
      "showGuide": "QUEST_GUIDE_ITEM_DISABLE",
      "guideHint": {
        "param1": ""
      },
      "failParentShow": "QUEST_HIDDEN",
      "MEMGANDALKN": "QUEST_HIDDEN",
      "isRewind": true,
      "versionBegin": "",
      "versionEnd": ""
    },
    {
      "subId": 7511202,
      "mainId": 75112,
      "order": 2,
      "descTextMapHash": 792393476,
      "showType": "QUEST_HIDDEN",
      "finishCond": [
        {
          "damageRatio": "QUEST_CONTENT_LUA_NOTIFY",
          "param": [
            0,
            0
          ],
          "count": 1
        }
      ],
      "guide": {
        "MLAHIFLGIGJ": ""
      },
      "showGuide": "QUEST_GUIDE_ITEM_DISABLE",
      "guideHint": {
        "param1": ""
      },
      "failParentShow": "QUEST_HIDDEN",
      "MEMGANDALKN": "QUEST_HIDDEN",
      "isRewind": true,
      "versionBegin": "",
      "versionEnd": ""
    },
    {
      "subId": 7511203,
      "mainId": 75112,
      "order": 3,
      "descTextMapHash": 1531601484,
      "showType": "QUEST_HIDDEN",
      "finishCond": [
        {
          "damageRatio": "QUEST_CONTENT_LUA_NOTIFY",
          "param": [
            0,
            0
          ],
          "count": 1
        }
      ],
      "guide": {
        "MLAHIFLGIGJ": ""
      },
      "showGuide": "QUEST_GUIDE_ITEM_DISABLE",
      "guideHint": {
        "param1": ""
      },
      "failParentShow": "QUEST_HIDDEN",
      "MEMGANDALKN": "QUEST_HIDDEN",
      "isRewind": true,
      "versionBegin": "",
      "versionEnd": ""
    },
    {
      "subId": 7511204,
      "mainId": 75112,
      "order": 4,
      "descTextMapHash": 1069203004,
      "showType": "QUEST_HIDDEN",
      "finishCond": [
        {
          "damageRatio": "QUEST_CONTENT_LUA_NOTIFY",
          "param": [
            0,
            0
          ],
          "count": 1
        }
      ],
      "guide": {
        "MLAHIFLGIGJ": ""
      },
      "showGuide": "QUEST_GUIDE_ITEM_DISABLE",
      "guideHint": {
        "param1": ""
      },
      "failParentShow": "QUEST_HIDDEN",
      "MEMGANDALKN": "QUEST_HIDDEN",
      "isRewind": true,
      "versionBegin": "",
      "versionEnd": ""
    },
    {
      "subId": 7511205,
      "mainId": 75112,
      "order": 5,
      "descTextMapHash": 3231215980,
      "showType": "QUEST_HIDDEN",
      "finishCond": [
        {
          "damageRatio": "QUEST_CONTENT_LUA_NOTIFY",
          "param": [
            0,
            0
          ],
          "count": 1
        }
      ],
      "guide": {
        "MLAHIFLGIGJ": ""
      },
      "showGuide": "QUEST_GUIDE_ITEM_DISABLE",
      "guideHint": {
        "param1": ""
      },
      "failParentShow": "QUEST_HIDDEN",
      "MEMGANDALKN": "QUEST_HIDDEN",
      "isRewind": true,
      "versionBegin": "",
      "versionEnd": ""
    },
    {
      "subId": 7511206,
      "mainId": 75112,
      "order": 6,
      "descTextMapHash": 3769976340,
      "showType": "QUEST_HIDDEN",
      "finishCond": [
        {
          "damageRatio": "QUEST_CONTENT_LUA_NOTIFY",
          "param": [
            0,
            0
          ],
          "count": 1
        }
      ],
      "guide": {
        "MLAHIFLGIGJ": ""
      },
      "showGuide": "QUEST_GUIDE_ITEM_DISABLE",
      "guideHint": {
        "param1": ""
      },
      "failParentShow": "QUEST_HIDDEN",
      "MEMGANDALKN": "QUEST_HIDDEN",
      "isRewind": true,
      "versionBegin": "",
      "versionEnd": ""
    },
    {
      "subId": 7511207,
      "mainId": 75112,
      "order": 7,
      "descTextMapHash": 2478680204,
      "showType": "QUEST_HIDDEN",
      "finishCond": [
        {
          "damageRatio": "QUEST_CONTENT_LUA_NOTIFY",
          "param": [
            0,
            0
          ],
          "count": 1
        }
      ],
      "guide": {
        "MLAHIFLGIGJ": ""
      },
      "showGuide": "QUEST_GUIDE_ITEM_DISABLE",
      "guideHint": {
        "param1": ""
      },
      "failParentShow": "QUEST_HIDDEN",
      "MEMGANDALKN": "QUEST_HIDDEN",
      "isRewind": true,
      "versionBegin": "",
      "versionEnd": ""
    },
    {
      "subId": 7511208,
      "mainId": 75112,
      "order": 8,
      "descTextMapHash": 133364300,
      "showType": "QUEST_HIDDEN",
      "finishCond": [
        {
          "damageRatio": "QUEST_CONTENT_LUA_NOTIFY",
          "param": [
            0,
            0
          ],
          "count": 1
        }
      ],
      "guide": {
        "MLAHIFLGIGJ": ""
      },
      "showGuide": "QUEST_GUIDE_ITEM_DISABLE",
      "guideHint": {
        "param1": ""
      },
      "failParentShow": "QUEST_HIDDEN",
      "MEMGANDALKN": "QUEST_HIDDEN",
      "isRewind": true,
      "versionBegin": "",
      "versionEnd": ""
    },
    {
      "subId": 7511209,
      "mainId": 75112,
      "order": 9,
      "descTextMapHash": 1831495092,
      "showType": "QUEST_HIDDEN",
      "finishCond": [
        {
          "damageRatio": "QUEST_CONTENT_LUA_NOTIFY",
          "param": [
            0,
            0
          ],
          "count": 1
        }
      ],
      "guide": {
        "MLAHIFLGIGJ": ""
      },
      "showGuide": "QUEST_GUIDE_ITEM_DISABLE",
      "guideHint": {
        "param1": ""
      },
      "failParentShow": "QUEST_HIDDEN",
      "MEMGANDALKN": "QUEST_HIDDEN",
      "isRewind": true,
      "versionBegin": "",
      "versionEnd": ""
    },
    {
      "subId": 7511210,
      "mainId": 75112,
      "order": 10,
      "descTextMapHash": 975708708,
      "showType": "QUEST_HIDDEN",
      "finishCond": [
        {
          "damageRatio": "QUEST_CONTENT_LUA_NOTIFY",
          "param": [
            0,
            0
          ],
          "count": 1
        }
      ],
      "guide": {
        "MLAHIFLGIGJ": ""
      },
      "showGuide": "QUEST_GUIDE_ITEM_DISABLE",
      "guideHint": {
        "param1": ""
      },
      "failParentShow": "QUEST_HIDDEN",
      "MEMGANDALKN": "QUEST_HIDDEN",
      "finishExec": [
        {
          "damageRatio": "QUEST_EXEC_ROLLBACK_QUEST",
          "param": [
            "7511201"
          ]
        }
      ],
      "versionBegin": "",
      "versionEnd": ""
    },
    {
      "subId": 7511211,
      "mainId": 75112,
      "order": 11,
      "descTextMapHash": 2213334236,
      "showType": "QUEST_HIDDEN",
      "finishCond": [
        {
          "damageRatio": "QUEST_CONTENT_LUA_NOTIFY",
          "param": [
            0,
            0
          ],
          "count": 1
        }
      ],
      "guide": {
        "MLAHIFLGIGJ": ""
      },
      "showGuide": "QUEST_GUIDE_ITEM_DISABLE",
      "guideHint": {
        "param1": ""
      },
      "failParentShow": "QUEST_HIDDEN",
      "MEMGANDALKN": "QUEST_HIDDEN",
      "finishExec": [
        {
          "damageRatio": "QUEST_EXEC_ROLLBACK_QUEST",
          "param": [
            "7511202"
          ]
        }
      ],
      "versionBegin": "",
      "versionEnd": ""
    },
    {
      "subId": 7511212,
      "mainId": 75112,
      "order": 12,
      "descTextMapHash": 2738444164,
      "showType": "QUEST_HIDDEN",
      "finishCond": [
        {
          "damageRatio": "QUEST_CONTENT_LUA_NOTIFY",
          "param": [
            0,
            0
          ],
          "count": 1
        }
      ],
      "guide": {
        "MLAHIFLGIGJ": ""
      },
      "showGuide": "QUEST_GUIDE_ITEM_DISABLE",
      "guideHint": {
        "param1": ""
      },
      "failParentShow": "QUEST_HIDDEN",
      "MEMGANDALKN": "QUEST_HIDDEN",
      "finishExec": [
        {
          "damageRatio": "QUEST_EXEC_ROLLBACK_QUEST",
          "param": [
            "7511203"
          ]
        }
      ],
      "versionBegin": "",
      "versionEnd": ""
    },
    {
      "subId": 7511213,
      "mainId": 75112,
      "order": 13,
      "descTextMapHash": 1361758380,
      "showType": "QUEST_HIDDEN",
      "finishCond": [
        {
          "damageRatio": "QUEST_CONTENT_LUA_NOTIFY",
          "param": [
            0,
            0
          ],
          "count": 1
        }
      ],
      "guide": {
        "MLAHIFLGIGJ": ""
      },
      "showGuide": "QUEST_GUIDE_ITEM_DISABLE",
      "guideHint": {
        "param1": ""
      },
      "failParentShow": "QUEST_HIDDEN",
      "MEMGANDALKN": "QUEST_HIDDEN",
      "finishExec": [
        {
          "damageRatio": "QUEST_EXEC_ROLLBACK_QUEST",
          "param": [
            "7511204"
          ]
        },
        {
          "damageRatio": "QUEST_EXEC_UNREGISTER_DYNAMIC_GROUP",
          "param": [
            "133501697",
            "0"
          ]
        }
      ],
      "versionBegin": "",
      "versionEnd": ""
    },
    {
      "subId": 7511214,
      "mainId": 75112,
      "order": 14,
      "descTextMapHash": 791837652,
      "showType": "QUEST_HIDDEN",
      "finishCond": [
        {
          "damageRatio": "QUEST_CONTENT_LUA_NOTIFY",
          "param": [
            0,
            0
          ],
          "count": 1
        }
      ],
      "guide": {
        "MLAHIFLGIGJ": ""
      },
      "showGuide": "QUEST_GUIDE_ITEM_DISABLE",
      "guideHint": {
        "param1": ""
      },
      "failParentShow": "QUEST_HIDDEN",
      "MEMGANDALKN": "QUEST_HIDDEN",
      "finishExec": [
        {
          "damageRatio": "QUEST_EXEC_ROLLBACK_QUEST",
          "param": [
            "7511205"
          ]
        }
      ],
      "versionBegin": "",
      "versionEnd": ""
    },
    {
      "subId": 7511215,
      "mainId": 75112,
      "order": 15,
      "descTextMapHash": 3187172612,
      "showType": "QUEST_HIDDEN",
      "finishCond": [
        {
          "damageRatio": "QUEST_CONTENT_LUA_NOTIFY",
          "param": [
            0,
            0
          ],
          "count": 1
        }
      ],
      "guide": {
        "MLAHIFLGIGJ": ""
      },
      "showGuide": "QUEST_GUIDE_ITEM_DISABLE",
      "guideHint": {
        "param1": ""
      },
      "failParentShow": "QUEST_HIDDEN",
      "MEMGANDALKN": "QUEST_HIDDEN",
      "finishExec": [
        {
          "damageRatio": "QUEST_EXEC_ROLLBACK_QUEST",
          "param": [
            "7511206"
          ]
        }
      ],
      "versionBegin": "",
      "versionEnd": ""
    },
    {
      "subId": 7511216,
      "mainId": 75112,
      "order": 16,
      "descTextMapHash": 1900326780,
      "showType": "QUEST_HIDDEN",
      "finishCond": [
        {
          "damageRatio": "QUEST_CONTENT_LUA_NOTIFY",
          "param": [
            0,
            0
          ],
          "count": 1
        }
      ],
      "guide": {
        "MLAHIFLGIGJ": ""
      },
      "showGuide": "QUEST_GUIDE_ITEM_DISABLE",
      "guideHint": {
        "param1": ""
      },
      "failParentShow": "QUEST_HIDDEN",
      "MEMGANDALKN": "QUEST_HIDDEN",
      "finishExec": [
        {
          "damageRatio": "QUEST_EXEC_ROLLBACK_QUEST",
          "param": [
            "7511207"
          ]
        }
      ],
      "versionBegin": "",
      "versionEnd": ""
    },
    {
      "subId": 7511217,
      "mainId": 75112,
      "order": 17,
      "descTextMapHash": 2076017740,
      "showType": "QUEST_HIDDEN",
      "finishCond": [
        {
          "damageRatio": "QUEST_CONTENT_LUA_NOTIFY",
          "param": [
            0,
            0
          ],
          "count": 1
        }
      ],
      "guide": {
        "MLAHIFLGIGJ": ""
      },
      "showGuide": "QUEST_GUIDE_ITEM_DISABLE",
      "guideHint": {
        "param1": ""
      },
      "failParentShow": "QUEST_HIDDEN",
      "MEMGANDALKN": "QUEST_HIDDEN",
      "finishExec": [
        {
          "damageRatio": "QUEST_EXEC_ROLLBACK_QUEST",
          "param": [
            "7511208"
          ]
        }
      ],
      "versionBegin": "",
      "versionEnd": ""
    },
    {
      "subId": 7511218,
      "mainId": 75112,
      "order": 18,
      "descTextMapHash": 3848940692,
      "showType": "QUEST_HIDDEN",
      "finishCond": [
        {
          "damageRatio": "QUEST_CONTENT_LUA_NOTIFY",
          "param": [
            0,
            0
          ],
          "count": 1
        }
      ],
      "guide": {
        "MLAHIFLGIGJ": ""
      },
      "showGuide": "QUEST_GUIDE_ITEM_DISABLE",
      "guideHint": {
        "param1": ""
      },
      "failParentShow": "QUEST_HIDDEN",
      "MEMGANDALKN": "QUEST_HIDDEN",
      "finishExec": [
        {
          "damageRatio": "QUEST_EXEC_ROLLBACK_QUEST",
          "param": [
            "7511209"
          ]
        },
        {
          "damageRatio": "QUEST_EXEC_UNREGISTER_DYNAMIC_GROUP",
          "param": [
            "133502704",
            "0"
          ]
        }
      ],
      "versionBegin": "",
      "versionEnd": ""
    }
  ],
  "talks": [
    {
      "id": 7511201,
      "beginWay": "TALK_BEGIN_MANUAL",
      "activeMode": "PLAY_MODE_HOST",
      "beginCond": [
        {
          "type": "QUEST_COND_STATE_EQUAL",
          "_param": [
            "7511201",
            "2"
          ]
        }
      ],
      "priority": 5,
      "initDialog": 751120101,
      "npcId": [
        6169
      ],
      "performCfg": "QuestDialogue/WQ/Natlan_75112/Q7511201",
      "questId": 75112,
      "assetIndex": 6549956094893515462,
      "prePerformCfg": "",
      "GPONOMBBGJI": true
    },
    {
      "id": 7511202,
      "beginWay": "TALK_BEGIN_MANUAL",
      "activeMode": "PLAY_MODE_HOST",
      "beginCond": [
        {
          "type": "QUEST_COND_STATE_EQUAL",
          "_param": [
            "7511202",
            "2"
          ]
        }
      ],
      "priority": 5,
      "initDialog": 751120201,
      "npcId": [
        6293
      ],
      "performCfg": "QuestDialogue/WQ/Natlan_75112/Q7511202",
      "questId": 75112,
      "assetIndex": 16256727633606114609,
      "prePerformCfg": "",
      "GPONOMBBGJI": true
    },
    {
      "id": 7511203,
      "beginWay": "TALK_BEGIN_MANUAL",
      "activeMode": "PLAY_MODE_HOST",
      "beginCond": [
        {
          "type": "QUEST_COND_STATE_EQUAL",
          "_param": [
            "7511203",
            "2"
          ]
        }
      ],
      "priority": 5,
      "initDialog": 751120301,
      "npcId": [
        6294
      ],
      "performCfg": "QuestDialogue/WQ/Natlan_75112/Q7511203",
      "questId": 75112,
      "assetIndex": 10163972391771190278,
      "prePerformCfg": "",
      "GPONOMBBGJI": true
    },
    {
      "id": 7511204,
      "beginWay": "TALK_BEGIN_MANUAL",
      "activeMode": "PLAY_MODE_HOST",
      "beginCond": [
        {
          "type": "QUEST_COND_STATE_EQUAL",
          "_param": [
            "7511204",
            "2"
          ]
        }
      ],
      "priority": 5,
      "initDialog": 751120401,
      "npcId": [
        6170
      ],
      "performCfg": "QuestDialogue/WQ/Natlan_75112/Q7511204",
      "questId": 75112,
      "assetIndex": 11805006225652091195,
      "prePerformCfg": "",
      "GPONOMBBGJI": true
    },
    {
      "id": 7511205,
      "beginWay": "TALK_BEGIN_MANUAL",
      "activeMode": "PLAY_MODE_HOST",
      "beginCond": [
        {
          "type": "QUEST_COND_STATE_EQUAL",
          "_param": [
            "7511205",
            "2"
          ]
        }
      ],
      "priority": 5,
      "initDialog": 751120501,
      "npcId": [
        6295
      ],
      "performCfg": "QuestDialogue/WQ/Natlan_75112/Q7511205",
      "questId": 75112,
      "assetIndex": 11073734028472408143,
      "prePerformCfg": "",
      "GPONOMBBGJI": true
    },
    {
      "id": 7511206,
      "beginWay": "TALK_BEGIN_MANUAL",
      "activeMode": "PLAY_MODE_HOST",
      "beginCond": [
        {
          "type": "QUEST_COND_STATE_EQUAL",
          "_param": [
            "7511206",
            "2"
          ]
        }
      ],
      "priority": 5,
      "initDialog": 751120601,
      "npcId": [
        6296
      ],
      "performCfg": "QuestDialogue/WQ/Natlan_75112/Q7511206",
      "questId": 75112,
      "assetIndex": 13554791233089476561,
      "prePerformCfg": "",
      "GPONOMBBGJI": true
    },
    {
      "id": 7511207,
      "beginWay": "TALK_BEGIN_MANUAL",
      "activeMode": "PLAY_MODE_HOST",
      "beginCond": [
        {
          "type": "QUEST_COND_STATE_EQUAL",
          "_param": [
            "7511207",
            "2"
          ]
        }
      ],
      "priority": 5,
      "initDialog": 751120701,
      "npcId": [
        6163
      ],
      "performCfg": "QuestDialogue/WQ/Natlan_75112/Q7511207",
      "questId": 75112,
      "assetIndex": 3184913213724186195,
      "prePerformCfg": "",
      "GPONOMBBGJI": true
    },
    {
      "id": 7511208,
      "beginWay": "TALK_BEGIN_MANUAL",
      "activeMode": "PLAY_MODE_HOST",
      "beginCond": [
        {
          "type": "QUEST_COND_STATE_EQUAL",
          "_param": [
            "7511208",
            "2"
          ]
        }
      ],
      "priority": 5,
      "initDialog": 751120801,
      "npcId": [
        6291
      ],
      "performCfg": "QuestDialogue/WQ/Natlan_75112/Q7511208",
      "questId": 75112,
      "assetIndex": 9698238272672146154,
      "prePerformCfg": "",
      "GPONOMBBGJI": true
    },
    {
      "id": 7511209,
      "beginWay": "TALK_BEGIN_MANUAL",
      "activeMode": "PLAY_MODE_HOST",
      "beginCond": [
        {
          "type": "QUEST_COND_STATE_EQUAL",
          "_param": [
            "7511209",
            "2"
          ]
        }
      ],
      "priority": 5,
      "initDialog": 751120901,
      "npcId": [
        6292
      ],
      "performCfg": "QuestDialogue/WQ/Natlan_75112/Q7511209",
      "questId": 75112,
      "assetIndex": 14630175836690303441,
      "prePerformCfg": "",
      "GPONOMBBGJI": true
    },
    {
      "id": 7511210,
      "beginWay": "TALK_BEGIN_MANUAL",
      "activeMode": "PLAY_MODE_HOST",
      "beginCond": [
        {
          "type": "QUEST_COND_STATE_EQUAL",
          "_param": [
            "7511210",
            "2"
          ]
        }
      ],
      "priority": 5,
      "initDialog": 751121001,
      "npcId": [
        6169
      ],
      "performCfg": "",
      "questId": 75112,
      "assetIndex": 6350683915627911866,
      "prePerformCfg": "",
      "GPONOMBBGJI": true
    },
    {
      "id": 7511211,
      "beginWay": "TALK_BEGIN_MANUAL",
      "activeMode": "PLAY_MODE_HOST",
      "beginCond": [
        {
          "type": "QUEST_COND_STATE_EQUAL",
          "_param": [
            "7511211",
            "2"
          ]
        }
      ],
      "priority": 5,
      "initDialog": 751121101,
      "npcId": [
        6293
      ],
      "performCfg": "",
      "questId": 75112,
      "assetIndex": 15453878392413739449,
      "prePerformCfg": "",
      "GPONOMBBGJI": true
    },
    {
      "id": 7511212,
      "beginWay": "TALK_BEGIN_MANUAL",
      "activeMode": "PLAY_MODE_HOST",
      "beginCond": [
        {
          "type": "QUEST_COND_STATE_EQUAL",
          "_param": [
            "7511212",
            "2"
          ]
        }
      ],
      "priority": 5,
      "initDialog": 751121201,
      "npcId": [
        6294
      ],
      "performCfg": "",
      "questId": 75112,
      "assetIndex": 18066172052411290404,
      "prePerformCfg": "",
      "GPONOMBBGJI": true
    },
    {
      "id": 7511213,
      "beginWay": "TALK_BEGIN_MANUAL",
      "activeMode": "PLAY_MODE_HOST",
      "beginCond": [
        {
          "type": "QUEST_COND_STATE_EQUAL",
          "_param": [
            "7511213",
            "2"
          ]
        }
      ],
      "priority": 5,
      "initDialog": 751121301,
      "npcId": [
        6170
      ],
      "performCfg": "",
      "questId": 75112,
      "assetIndex": 797039734216855205,
      "prePerformCfg": "",
      "GPONOMBBGJI": true
    },
    {
      "id": 7511214,
      "beginWay": "TALK_BEGIN_MANUAL",
      "activeMode": "PLAY_MODE_HOST",
      "beginCond": [
        {
          "type": "QUEST_COND_STATE_EQUAL",
          "_param": [
            "7511214",
            "2"
          ]
        }
      ],
      "priority": 5,
      "initDialog": 751121401,
      "npcId": [
        6295
      ],
      "performCfg": "",
      "questId": 75112,
      "assetIndex": 2603903812447005901,
      "prePerformCfg": "",
      "GPONOMBBGJI": true
    },
    {
      "id": 7511215,
      "beginWay": "TALK_BEGIN_MANUAL",
      "activeMode": "PLAY_MODE_HOST",
      "beginCond": [
        {
          "type": "QUEST_COND_STATE_EQUAL",
          "_param": [
            "7511215",
            "2"
          ]
        }
      ],
      "priority": 5,
      "initDialog": 751121501,
      "npcId": [
        6296
      ],
      "performCfg": "",
      "questId": 75112,
      "assetIndex": 3112943990979318718,
      "prePerformCfg": "",
      "GPONOMBBGJI": true
    },
    {
      "id": 7511216,
      "beginWay": "TALK_BEGIN_MANUAL",
      "activeMode": "PLAY_MODE_HOST",
      "beginCond": [
        {
          "type": "QUEST_COND_STATE_EQUAL",
          "_param": [
            "7511216",
            "2"
          ]
        }
      ],
      "priority": 5,
      "initDialog": 751121601,
      "npcId": [
        6163
      ],
      "performCfg": "",
      "questId": 75112,
      "assetIndex": 3175438182570448418,
      "prePerformCfg": "",
      "GPONOMBBGJI": true
    },
    {
      "id": 7511217,
      "beginWay": "TALK_BEGIN_MANUAL",
      "activeMode": "PLAY_MODE_HOST",
      "beginCond": [
        {
          "type": "QUEST_COND_STATE_EQUAL",
          "_param": [
            "7511217",
            "2"
          ]
        }
      ],
      "priority": 5,
      "initDialog": 751121701,
      "npcId": [
        6291
      ],
      "performCfg": "",
      "questId": 75112,
      "assetIndex": 12252666694983440086,
      "prePerformCfg": "",
      "GPONOMBBGJI": true
    },
    {
      "id": 7511218,
      "beginWay": "TALK_BEGIN_MANUAL",
      "activeMode": "PLAY_MODE_HOST",
      "beginCond": [
        {
          "type": "QUEST_COND_STATE_EQUAL",
          "_param": [
            "7511218",
            "2"
          ]
        }
      ],
      "priority": 5,
      "initDialog": 751121801,
      "npcId": [
        6292
      ],
      "performCfg": "",
      "questId": 75112,
      "assetIndex": 3398346723010221716,
      "prePerformCfg": "",
      "GPONOMBBGJI": true
    }
  ],
  "LNMELPHNIDD": true
}