{
  "id": 75902,
  "damageRatio": "WQ",
  "descTextMapHash": 924547831,
  "EKEKACCODOE": 1364311878,
  "luaPath": "",
  "rewardIdList": [
    556003
  ],
  "showType": "QUEST_HIDDEN",
  "subQuests": [
    {
      "subId": 7590201,
      "mainId": 75902,
      "order": 1,
      "showType": "QUEST_HIDDEN",
      "finishCond": [
        {
          "damageRatio": "QUEST_CONTENT_COMPLETE_TALK",
          "param": [
            7590201,
            0
          ]
        }
      ],
      "guide": {
        "MLAHIFLGIGJ": ""
      },
      "guideHint": {
        "param1": ""
      },
      "finishParent": true,
      "versionBegin": "",
      "versionEnd": ""
    }
  ]
}