{
  "id": 75905,
  "damageRatio": "WQ",
  "descTextMapHash": 1321613111,
  "EKEKACCODOE": 527144886,
  "luaPath": "",
  "rewardIdList": [
    556006
  ],
  "showType": "QUEST_HIDDEN",
  "subQuests": [
    {
      "subId": 7590501,
      "mainId": 75905,
      "order": 1,
      "showType": "QUEST_HIDDEN",
      "finishCond": [
        {
          "damageRatio": "QUEST_CONTENT_COMPLETE_TALK",
          "param": [
            7590501,
            0
          ]
        }
      ],
      "guide": {
        "MLAHIFLGIGJ": ""
      },
      "guideHint": {
        "param1": ""
      },
      "finishParent": true,
      "versionBegin": "",
      "versionEnd": ""
    }
  ]
}