{
  "id": 75901,
  "damageRatio": "WQ",
  "descTextMapHash": 1472289591,
  "EKEKACCODOE": 503651094,
  "luaPath": "",
  "rewardIdList": [
    556002
  ],
  "showType": "QUEST_HIDDEN",
  "subQuests": [
    {
      "subId": 7590101,
      "mainId": 75901,
      "order": 1,
      "showType": "QUEST_HIDDEN",
      "finishCond": [
        {
          "damageRatio": "QUEST_CONTENT_COMPLETE_TALK",
          "param": [
            7590101,
            0
          ]
        }
      ],
      "guide": {
        "MLAHIFLGIGJ": ""
      },
      "guideHint": {
        "param1": ""
      },
      "finishParent": true,
      "versionBegin": "",
      "versionEnd": ""
    }
  ]
}