{
  "id": 75916,
  "damageRatio": "WQ",
  "descTextMapHash": 4224295047,
  "EKEKACCODOE": 3650969670,
  "luaPath": "",
  "rewardIdList": [
    556017
  ],
  "showType": "QUEST_HIDDEN",
  "subQuests": [
    {
      "subId": 7591601,
      "mainId": 75916,
      "order": 1,
      "showType": "QUEST_HIDDEN",
      "finishCond": [
        {
          "damageRatio": "QUEST_CONTENT_COMPLETE_TALK",
          "param": [
            7591601,
            0
          ]
        }
      ],
      "guide": {
        "MLAHIFLGIGJ": ""
      },
      "guideHint": {
        "param1": ""
      },
      "finishParent": true,
      "versionBegin": "",
      "versionEnd": ""
    }
  ]
}