{
  "id": 75926,
  "damageRatio": "WQ",
  "descTextMapHash": 3541723775,
  "EKEKACCODOE": 95042702,
  "luaPath": "",
  "rewardIdList": [
    556027
  ],
  "showType": "QUEST_HIDDEN",
  "subQuests": [
    {
      "subId": 7592601,
      "mainId": 75926,
      "order": 1,
      "showType": "QUEST_HIDDEN",
      "finishCond": [
        {
          "damageRatio": "QUEST_CONTENT_COMPLETE_TALK",
          "param": [
            7592601,
            0
          ]
        }
      ],
      "guide": {
        "MLAHIFLGIGJ": ""
      },
      "guideHint": {
        "param1": ""
      },
      "finishParent": true,
      "versionBegin": "",
      "versionEnd": ""
    }
  ]
}