{
  "id": 75922,
  "damageRatio": "WQ",
  "descTextMapHash": 3354400551,
  "EKEKACCODOE": 2513297438,
  "luaPath": "",
  "rewardIdList": [
    556023
  ],
  "showType": "QUEST_HIDDEN",
  "subQuests": [
    {
      "subId": 7592201,
      "mainId": 75922,
      "order": 1,
      "showType": "QUEST_HIDDEN",
      "finishCond": [
        {
          "damageRatio": "QUEST_CONTENT_COMPLETE_TALK",
          "param": [
            7592201,
            0
          ]
        }
      ],
      "guide": {
        "MLAHIFLGIGJ": ""
      },
      "guideHint": {
        "param1": ""
      },
      "finishParent": true,
      "versionBegin": "",
      "versionEnd": ""
    }
  ]
}