{
  "id": 75934,
  "damageRatio": "WQ",
  "activeMode": "PLAY_MODE_ALL",
  "descTextMapHash": 3147468039,
  "EKEKACCODOE": 3396963318,
  "luaPath": "Actor/Quest/WQ75934",
  "rewardIdList": [
    500191
  ],
  "showType": "QUEST_HIDDEN",
  "subQuests": [
    {
      "subId": 7593401,
      "mainId": 75934,
      "order": 1,
      "descTextMapHash": 1095455340,
      "showType": "QUEST_HIDDEN",
      "finishCond": [
        {
          "damageRatio": "QUEST_CONTENT_FINISH_PLOT",
          "param": [
            7593401,
            0
          ]
        }
      ],
      "guide": {
        "MLAHIFLGIGJ": ""
      },
      "guideHint": {
        "param1": ""
      },
      "finishParent": true,
      "isRewind": true,
      "versionBegin": "",
      "versionEnd": ""
    }
  ],
  "LNMELPHNIDD": true
}