{
  "id": 75931,
  "damageRatio": "WQ",
  "descTextMapHash": 2771321759,
  "EKEKACCODOE": 3199862734,
  "luaPath": "",
  "rewardIdList": [
    556032
  ],
  "showType": "QUEST_HIDDEN",
  "subQuests": [
    {
      "subId": 7593101,
      "mainId": 75931,
      "order": 1,
      "showType": "QUEST_HIDDEN",
      "finishCond": [
        {
          "damageRatio": "QUEST_CONTENT_COMPLETE_TALK",
          "param": [
            7593101,
            0
          ]
        }
      ],
      "guide": {
        "MLAHIFLGIGJ": ""
      },
      "guideHint": {
        "param1": ""
      },
      "finishParent": true,
      "versionBegin": "",
      "versionEnd": ""
    }
  ]
}