{
  "id": 79013,
  "damageRatio": "WQ",
  "activeMode": "PLAY_MODE_ALL",
  "descTextMapHash": 2873165319,
  "EKEKACCODOE": 3919585670,
  "luaPath": "Actor/Quest/WQ79013",
  "rewardIdList": [
    179013
  ],
  "activityId": 5084,
  "subQuests": [
    {
      "subId": 7901301,
      "mainId": 79013,
      "order": 1,
      "descTextMapHash": 485663916,
      "showType": "QUEST_HIDDEN",
      "finishCond": [
        {
          "damageRatio": "QUEST_CONTENT_COMPLETE_TALK",
          "param": [
            7901301,
            0
          ]
        }
      ],
      "guide": {
        "damageRatio": "QUEST_GUIDE_NPC",
        "autoGuide": "QUEST_GUIDE_AUTO_ENABLE",
        "param": [
          "20609"
        ],
        "guideScene": 9,
        "guideStyle": "QUEST_GUIDE_STYLE_START",
        "guideLayer": "QUEST_GUIDE_LAYER_SCENE",
        "MLAHIFLGIGJ": ""
      },
      "guideHint": {
        "param1": ""
      },
      "isRewind": true,
      "versionBegin": "",
      "versionEnd": ""
    },
    {
      "subId": 7901302,
      "mainId": 79013,
      "order": 2,
      "descTextMapHash": 97107276,
      "finishCond": [
        {
          "damageRatio": "QUEST_CONTENT_COMPLETE_TALK",
          "param": [
            7901302,
            0
          ]
        }
      ],
      "guide": {
        "guideScene": 9,
        "guideStyle": "QUEST_GUIDE_STYLE_TARGET",
        "guideLayer": "QUEST_GUIDE_LAYER_SCENE",
        "MLAHIFLGIGJ": ""
      },
      "showGuide": "QUEST_GUIDE_ITEM_DISABLE",
      "guideHint": {
        "param1": ""
      },
      "isRewind": true,
      "versionBegin": "",
      "versionEnd": ""
    },
    {
      "subId": 7901303,
      "mainId": 79013,
      "order": 3,
      "descTextMapHash": 2692096676,
      "finishCond": [
        {
          "damageRatio": "QUEST_CONTENT_FINISH_PLOT",
          "param": [
            7901303,
            0
          ]
        },
        {
          "damageRatio": "QUEST_CONTENT_SCENE_LEVEL_TAG_EQ",
          "param": [
            22,
            0
          ]
        }
      ],
      "guide": {
        "damageRatio": "QUEST_GUIDE_GADGET",
        "autoGuide": "QUEST_GUIDE_AUTO_ENABLE",
        "param": [
          "199003030",
          "30001",
          "-675:121:-24"
        ],
        "guideScene": 9,
        "guideStyle": "QUEST_GUIDE_STYLE_POINT",
        "guideLayer": "QUEST_GUIDE_LAYER_SCENE",
        "MLAHIFLGIGJ": ""
      },
      "guideHint": {
        "param1": ""
      },
      "isRewind": true,
      "versionBegin": "",
      "versionEnd": ""
    },
    {
      "subId": 7901304,
      "mainId": 79013,
      "order": 4,
      "descTextMapHash": 2021394396,
      "guideTipsTextMapHash": 1839394126,
      "finishCond": [
        {
          "damageRatio": "QUEST_CONTENT_SCENE_LEVEL_TAG_EQ",
          "param": [
            22,
            0
          ]
        }
      ],
      "guide": {
        "damageRatio": "QUEST_GUIDE_LOCATION",
        "autoGuide": "QUEST_GUIDE_AUTO_ENABLE",
        "param": [
          "guide_Q7901303",
          "30",
          "11",
          "21"
        ],
        "guideScene": 9,
        "guideStyle": "QUEST_GUIDE_STYLE_POINT",
        "guideLayer": "QUEST_GUIDE_LAYER_SCENE",
        "MLAHIFLGIGJ": ""
      },
      "guideHint": {
        "param1": ""
      },
      "isRewind": true,
      "versionBegin": "",
      "versionEnd": ""
    },
    {
      "subId": 7901305,
      "mainId": 79013,
      "order": 5,
      "descTextMapHash": 246369772,
      "guideTipsTextMapHash": 1397619054,
      "finishCond": [
        {
          "damageRatio": "QUEST_CONTENT_LUA_NOTIFY",
          "param": [
            0,
            0
          ],
          "count": 1
        }
      ],
      "failCond": [
        {
          "damageRatio": "QUEST_CONTENT_SCENE_LEVEL_TAG_EQ",
          "param": [
            21,
            0
          ]
        }
      ],
      "guide": {
        "damageRatio": "QUEST_GUIDE_LOCATION",
        "param": [
          "guide_Q7901305",
          "30",
          "11",
          "22"
        ],
        "guideScene": 9,
        "guideStyle": "QUEST_GUIDE_STYLE_POINT",
        "guideLayer": "QUEST_GUIDE_LAYER_SCENE",
        "MLAHIFLGIGJ": ""
      },
      "showGuide": "QUEST_GUIDE_ITEM_DISABLE",
      "guideHint": {
        "param1": ""
      },
      "isRewind": true,
      "failExec": [
        {
          "damageRatio": "QUEST_EXEC_ROLLBACK_QUEST",
          "param": [
            "7901304"
          ]
        }
      ],
      "versionBegin": "",
      "versionEnd": ""
    },
    {
      "subId": 7901306,
      "mainId": 79013,
      "order": 6,
      "descTextMapHash": 4238775308,
      "guideTipsTextMapHash": 4273174446,
      "finishCond": [
        {
          "damageRatio": "QUEST_CONTENT_LUA_NOTIFY",
          "param": [
            0,
            0
          ],
          "count": 1
        }
      ],
      "failCond": [
        {
          "damageRatio": "QUEST_CONTENT_ANY_MANUAL_TRANSPORT",
          "param": [
            0,
            0
          ]
        },
        {
          "damageRatio": "QUEST_CONTENT_SCENE_LEVEL_TAG_EQ",
          "param": [
            21,
            0
          ]
        }
      ],
      "guide": {
        "damageRatio": "QUEST_GUIDE_LOCATION",
        "param": [
          "guide_Q7901305",
          "30",
          "11",
          "22"
        ],
        "guideScene": 9,
        "guideStyle": "QUEST_GUIDE_STYLE_POINT",
        "guideLayer": "QUEST_GUIDE_LAYER_SCENE",
        "MLAHIFLGIGJ": ""
      },
      "showGuide": "QUEST_GUIDE_ITEM_DISABLE",
      "guideHint": {
        "param1": ""
      },
      "isRewind": true,
      "failExec": [
        {
          "damageRatio": "QUEST_EXEC_ROLLBACK_QUEST",
          "param": [
            "7901305"
          ]
        }
      ],
      "versionBegin": "",
      "versionEnd": ""
    },
    {
      "subId": 7901307,
      "mainId": 79013,
      "order": 8,
      "descTextMapHash": 1286917100,
      "guideTipsTextMapHash": 4217775598,
      "finishCond": [
        {
          "damageRatio": "QUEST_CONTENT_COMPLETE_TALK",
          "param": [
            7901306,
            0
          ]
        }
      ],
      "guide": {
        "damageRatio": "QUEST_GUIDE_LOCATION",
        "autoGuide": "QUEST_GUIDE_AUTO_ENABLE",
        "param": [
          "guide_Q7901305",
          "10",
          "11",
          "22"
        ],
        "guideScene": 9,
        "guideStyle": "QUEST_GUIDE_STYLE_TARGET",
        "guideLayer": "QUEST_GUIDE_LAYER_SCENE",
        "MLAHIFLGIGJ": ""
      },
      "showGuide": "QUEST_GUIDE_ITEM_DISABLE",
      "guideHint": {
        "param1": ""
      },
      "isRewind": true,
      "versionBegin": "",
      "versionEnd": ""
    },
    {
      "subId": 7901308,
      "mainId": 79013,
      "order": 9,
      "descTextMapHash": 3617222596,
      "finishCond": [
        {
          "damageRatio": "QUEST_CONTENT_FINISH_PLOT",
          "param": [
            7901308,
            0
          ]
        },
        {
          "damageRatio": "QUEST_CONTENT_SCENE_LEVEL_TAG_EQ",
          "param": [
            21,
            0
          ]
        }
      ],
      "guide": {
        "damageRatio": "QUEST_GUIDE_GADGET",
        "param": [
          "199003039",
          "39001",
          "-678:132:-26.8"
        ],
        "guideScene": 9,
        "guideStyle": "QUEST_GUIDE_STYLE_POINT",
        "guideLayer": "QUEST_GUIDE_LAYER_SCENE",
        "MLAHIFLGIGJ": ""
      },
      "guideHint": {
        "param1": ""
      },
      "isRewind": true,
      "versionBegin": "",
      "versionEnd": ""
    },
    {
      "subId": 7901309,
      "mainId": 79013,
      "order": 10,
      "descTextMapHash": 1611137276,
      "finishCond": [
        {
          "damageRatio": "QUEST_CONTENT_SCENE_LEVEL_TAG_EQ",
          "param": [
            21,
            0
          ]
        }
      ],
      "guide": {
        "damageRatio": "QUEST_GUIDE_GADGET",
        "autoGuide": "QUEST_GUIDE_AUTO_ENABLE",
        "param": [
          "199003039",
          "39001",
          "-678:132:-26.8"
        ],
        "guideScene": 9,
        "guideStyle": "QUEST_GUIDE_STYLE_TARGET",
        "guideLayer": "QUEST_GUIDE_LAYER_SCENE",
        "MLAHIFLGIGJ": ""
      },
      "showGuide": "QUEST_GUIDE_ITEM_DISABLE",
      "guideHint": {
        "param1": ""
      },
      "isRewind": true,
      "versionBegin": "",
      "versionEnd": ""
    },
    {
      "subId": 7901310,
      "mainId": 79013,
      "order": 11,
      "descTextMapHash": 1911383812,
      "guideTipsTextMapHash": 3774133286,
      "finishCond": [
        {
          "damageRatio": "QUEST_CONTENT_COMPLETE_TALK",
          "param": [
            7901308,
            0
          ]
        }
      ],
      "failCond": [
        {
          "damageRatio": "QUEST_CONTENT_SCENE_LEVEL_TAG_EQ",
          "param": [
            22,
            0
          ]
        }
      ],
      "guide": {
        "damageRatio": "QUEST_GUIDE_SHOW_OR_HIDE_NPC",
        "autoGuide": "QUEST_GUIDE_AUTO_ENABLE",
        "param": [
          "20609",
          "11",
          "21"
        ],
        "guideScene": 9,
        "guideStyle": "QUEST_GUIDE_STYLE_TARGET",
        "guideLayer": "QUEST_GUIDE_LAYER_SCENE",
        "MLAHIFLGIGJ": ""
      },
      "showGuide": "QUEST_GUIDE_ITEM_DISABLE",
      "guideHint": {
        "param1": ""
      },
      "isRewind": true,
      "failExec": [
        {
          "damageRatio": "QUEST_EXEC_ROLLBACK_QUEST",
          "param": [
            "7901309"
          ]
        }
      ],
      "versionBegin": "",
      "versionEnd": ""
    },
    {
      "subId": 7901311,
      "mainId": 79013,
      "order": 13,
      "descTextMapHash": 2429264980,
      "guideTipsTextMapHash": 4176963590,
      "finishCond": [
        {
          "damageRatio": "QUEST_CONTENT_COMPLETE_TALK",
          "param": [
            7901309,
            0
          ]
        }
      ],
      "guide": {
        "damageRatio": "QUEST_GUIDE_LOCATION",
        "autoGuide": "QUEST_GUIDE_AUTO_ENABLE",
        "param": [
          "Q79013note2",
          "30",
          "11",
          "21"
        ],
        "guideScene": 9,
        "guideStyle": "QUEST_GUIDE_STYLE_TARGET",
        "guideLayer": "QUEST_GUIDE_LAYER_SCENE",
        "MLAHIFLGIGJ": ""
      },
      "guideHint": {
        "param1": ""
      },
      "isRewind": true,
      "versionBegin": "",
      "versionEnd": ""
    },
    {
      "subId": 7901312,
      "mainId": 79013,
      "order": 15,
      "descTextMapHash": 2224454348,
      "finishCond": [
        {
          "damageRatio": "QUEST_CONTENT_SCENE_LEVEL_TAG_EQ",
          "param": [
            22,
            0
          ]
        }
      ],
      "guide": {
        "damageRatio": "QUEST_GUIDE_GADGET",
        "autoGuide": "QUEST_GUIDE_AUTO_ENABLE",
        "param": [
          "199003032",
          "32001",
          "-720:120:410"
        ],
        "guideScene": 9,
        "guideStyle": "QUEST_GUIDE_STYLE_POINT",
        "guideLayer": "QUEST_GUIDE_LAYER_SCENE",
        "MLAHIFLGIGJ": ""
      },
      "showGuide": "QUEST_GUIDE_ITEM_DISABLE",
      "guideHint": {
        "param1": ""
      },
      "isRewind": true,
      "versionBegin": "",
      "versionEnd": ""
    },
    {
      "subId": 7901313,
      "mainId": 79013,
      "order": 16,
      "descTextMapHash": 3691157380,
      "guideTipsTextMapHash": 3388617374,
      "finishCond": [
        {
          "damageRatio": "QUEST_CONTENT_LUA_NOTIFY",
          "param": [
            0,
            0
          ],
          "count": 1
        }
      ],
      "guide": {
        "damageRatio": "QUEST_GUIDE_LOCATION",
        "autoGuide": "QUEST_GUIDE_AUTO_ENABLE",
        "param": [
          "Q7901314_guide",
          "30",
          "11",
          "22"
        ],
        "guideScene": 9,
        "guideStyle": "QUEST_GUIDE_STYLE_POINT",
        "guideLayer": "QUEST_GUIDE_LAYER_SCENE",
        "MLAHIFLGIGJ": ""
      },
      "showGuide": "QUEST_GUIDE_ITEM_DISABLE",
      "guideHint": {
        "param1": ""
      },
      "isRewind": true,
      "versionBegin": "",
      "versionEnd": ""
    },
    {
      "subId": 7901314,
      "mainId": 79013,
      "order": 17,
      "descTextMapHash": 111603508,
      "guideTipsTextMapHash": 4085424134,
      "finishCond": [
        {
          "damageRatio": "QUEST_CONTENT_LUA_NOTIFY",
          "param": [
            0,
            0
          ],
          "count": 1
        }
      ],
      "failCond": [
        {
          "damageRatio": "QUEST_CONTENT_ANY_MANUAL_TRANSPORT",
          "param": [
            0,
            0
          ]
        },
        {
          "damageRatio": "QUEST_CONTENT_SCENE_LEVEL_TAG_EQ",
          "param": [
            21,
            0
          ]
        }
      ],
      "guide": {
        "damageRatio": "QUEST_GUIDE_LOCATION",
        "autoGuide": "QUEST_GUIDE_AUTO_ENABLE",
        "param": [
          "Q7901314_guide",
          "30",
          "11",
          "22"
        ],
        "guideScene": 9,
        "guideStyle": "QUEST_GUIDE_STYLE_POINT",
        "guideLayer": "QUEST_GUIDE_LAYER_SCENE",
        "MLAHIFLGIGJ": ""
      },
      "showGuide": "QUEST_GUIDE_ITEM_DISABLE",
      "guideHint": {
        "param1": ""
      },
      "isRewind": true,
      "failExec": [
        {
          "damageRatio": "QUEST_EXEC_ROLLBACK_QUEST",
          "param": [
            "7901313"
          ]
        }
      ],
      "versionBegin": "",
      "versionEnd": ""
    },
    {
      "subId": 7901315,
      "mainId": 79013,
      "order": 19,
      "isMpBlock": true,
      "descTextMapHash": 2078780548,
      "guideTipsTextMapHash": 1407620878,
      "finishCond": [
        {
          "damageRatio": "QUEST_CONTENT_COMPLETE_TALK",
          "param": [
            7901312,
            0
          ]
        }
      ],
      "guide": {
        "damageRatio": "QUEST_GUIDE_LOCATION",
        "param": [
          "Q7901314_guide",
          "30",
          "11",
          "22"
        ],
        "guideScene": 9,
        "guideStyle": "QUEST_GUIDE_STYLE_TARGET",
        "guideLayer": "QUEST_GUIDE_LAYER_SCENE",
        "MLAHIFLGIGJ": ""
      },
      "guideHint": {
        "param1": ""
      },
      "isRewind": true,
      "versionBegin": "",
      "versionEnd": ""
    },
    {
      "subId": 7901316,
      "mainId": 79013,
      "order": 20,
      "isMpBlock": true,
      "descTextMapHash": 696333636,
      "finishCond": [
        {
          "damageRatio": "QUEST_CONTENT_SCENE_LEVEL_TAG_EQ",
          "param": [
            21,
            0
          ]
        }
      ],
      "guide": {
        "damageRatio": "QUEST_GUIDE_GADGET",
        "autoGuide": "QUEST_GUIDE_AUTO_ENABLE",
        "param": [
          "199003031",
          "31001",
          "-765:213:-34"
        ],
        "guideScene": 9,
        "guideStyle": "QUEST_GUIDE_STYLE_POINT",
        "guideLayer": "QUEST_GUIDE_LAYER_SCENE",
        "MLAHIFLGIGJ": ""
      },
      "showGuide": "QUEST_GUIDE_ITEM_DISABLE",
      "guideHint": {
        "param1": ""
      },
      "isRewind": true,
      "versionBegin": "",
      "versionEnd": ""
    },
    {
      "subId": 7901317,
      "mainId": 79013,
      "order": 21,
      "descTextMapHash": 705356412,
      "guideTipsTextMapHash": 946356366,
      "finishCond": [
        {
          "damageRatio": "QUEST_CONTENT_COMPLETE_TALK",
          "param": [
            7901314,
            0
          ]
        }
      ],
      "guide": {
        "damageRatio": "QUEST_GUIDE_SHOW_OR_HIDE_NPC",
        "autoGuide": "QUEST_GUIDE_AUTO_ENABLE",
        "param": [
          "20637",
          "11",
          "21"
        ],
        "guideScene": 9,
        "guideStyle": "QUEST_GUIDE_STYLE_TARGET",
        "guideLayer": "QUEST_GUIDE_LAYER_SCENE",
        "MLAHIFLGIGJ": ""
      },
      "guideHint": {
        "param1": ""
      },
      "isRewind": true,
      "versionBegin": "",
      "versionEnd": ""
    },
    {
      "subId": 7901318,
      "mainId": 79013,
      "order": 23,
      "descTextMapHash": 2634677444,
      "guideTipsTextMapHash": 3703632598,
      "finishCond": [
        {
          "damageRatio": "QUEST_CONTENT_COMPLETE_TALK",
          "param": [
            7901318,
            0
          ]
        }
      ],
      "guide": {
        "damageRatio": "QUEST_GUIDE_SHOW_OR_HIDE_NPC",
        "param": [
          "20611",
          "11",
          "21"
        ],
        "guideScene": 9,
        "guideStyle": "QUEST_GUIDE_STYLE_TARGET",
        "guideLayer": "QUEST_GUIDE_LAYER_SCENE",
        "MLAHIFLGIGJ": ""
      },
      "showGuide": "QUEST_GUIDE_ITEM_DISABLE",
      "guideHint": {
        "param1": ""
      },
      "isRewind": true,
      "versionBegin": "",
      "versionEnd": ""
    },
    {
      "subId": 7901319,
      "mainId": 79013,
      "order": 26,
      "descTextMapHash": 146402988,
      "guideTipsTextMapHash": 2707803550,
      "finishCond": [
        {
          "damageRatio": "QUEST_CONTENT_FINISH_ITEM_GIVING",
          "param": [
            7901301,
            0
          ]
        }
      ],
      "guide": {
        "damageRatio": "QUEST_GUIDE_SHOW_OR_HIDE_NPC",
        "autoGuide": "QUEST_GUIDE_AUTO_ENABLE",
        "param": [
          "20627",
          "11",
          "22"
        ],
        "guideScene": 9,
        "guideStyle": "QUEST_GUIDE_STYLE_TARGET",
        "guideLayer": "QUEST_GUIDE_LAYER_SCENE",
        "MLAHIFLGIGJ": ""
      },
      "showGuide": "QUEST_GUIDE_ITEM_DISABLE",
      "guideHint": {
        "param1": ""
      },
      "isRewind": true,
      "versionBegin": "",
      "versionEnd": ""
    },
    {
      "subId": 7901321,
      "mainId": 79013,
      "order": 28,
      "descTextMapHash": 2955824372,
      "finishCond": [
        {
          "damageRatio": "QUEST_CONTENT_SCENE_LEVEL_TAG_EQ",
          "param": [
            21,
            0
          ]
        }
      ],
      "guide": {
        "damageRatio": "QUEST_GUIDE_GADGET",
        "param": [
          "199003031",
          "31001",
          "-765:213:-34"
        ],
        "guideScene": 9,
        "guideStyle": "QUEST_GUIDE_STYLE_POINT",
        "guideLayer": "QUEST_GUIDE_LAYER_SCENE",
        "MLAHIFLGIGJ": ""
      },
      "showGuide": "QUEST_GUIDE_ITEM_DISABLE",
      "guideHint": {
        "param1": ""
      },
      "isRewind": true,
      "versionBegin": "",
      "versionEnd": ""
    },
    {
      "subId": 7901322,
      "mainId": 79013,
      "order": 29,
      "descTextMapHash": 2057545084,
      "guideTipsTextMapHash": 2850978494,
      "finishCond": [
        {
          "damageRatio": "QUEST_CONTENT_COMPLETE_TALK",
          "param": [
            7901329,
            0
          ]
        }
      ],
      "guide": {
        "damageRatio": "QUEST_GUIDE_SHOW_OR_HIDE_NPC",
        "autoGuide": "QUEST_GUIDE_AUTO_ENABLE",
        "param": [
          "20611",
          "11",
          "21"
        ],
        "guideScene": 9,
        "guideStyle": "QUEST_GUIDE_STYLE_TARGET",
        "guideLayer": "QUEST_GUIDE_LAYER_SCENE",
        "MLAHIFLGIGJ": ""
      },
      "showGuide": "QUEST_GUIDE_ITEM_DISABLE",
      "guideHint": {
        "param1": ""
      },
      "isRewind": true,
      "versionBegin": "",
      "versionEnd": ""
    },
    {
      "subId": 7901323,
      "mainId": 79013,
      "order": 12,
      "descTextMapHash": 90868028,
      "guideTipsTextMapHash": 1489319726,
      "finishCond": [
        {
          "damageRatio": "QUEST_CONTENT_COMPLETE_TALK",
          "param": [
            7901324,
            0
          ]
        }
      ],
      "guide": {
        "damageRatio": "QUEST_GUIDE_LOCATION",
        "autoGuide": "QUEST_GUIDE_AUTO_ENABLE",
        "param": [
          "Q79013note1",
          "20",
          "11",
          "21"
        ],
        "guideScene": 9,
        "guideStyle": "QUEST_GUIDE_STYLE_TARGET",
        "guideLayer": "QUEST_GUIDE_LAYER_SCENE",
        "MLAHIFLGIGJ": ""
      },
      "guideHint": {
        "param1": ""
      },
      "isRewind": true,
      "versionBegin": "",
      "versionEnd": ""
    },
    {
      "subId": 7901324,
      "mainId": 79013,
      "order": 14,
      "descTextMapHash": 3770355020,
      "guideTipsTextMapHash": 2596690190,
      "finishCond": [
        {
          "damageRatio": "QUEST_CONTENT_COMPLETE_TALK",
          "param": [
            7901325,
            0
          ]
        }
      ],
      "guide": {
        "damageRatio": "QUEST_GUIDE_LOCATION",
        "autoGuide": "QUEST_GUIDE_AUTO_ENABLE",
        "param": [
          "Q79013note2",
          "10",
          "11",
          "21"
        ],
        "guideScene": 9,
        "guideStyle": "QUEST_GUIDE_STYLE_TARGET",
        "guideLayer": "QUEST_GUIDE_LAYER_SCENE",
        "MLAHIFLGIGJ": ""
      },
      "guideHint": {
        "param1": ""
      },
      "isRewind": true,
      "versionBegin": "",
      "versionEnd": ""
    },
    {
      "subId": 7901325,
      "mainId": 79013,
      "order": 22,
      "descTextMapHash": 3175709772,
      "guideTipsTextMapHash": 3650160358,
      "finishCond": [
        {
          "damageRatio": "QUEST_CONTENT_COMPLETE_TALK",
          "param": [
            7901326,
            0
          ]
        }
      ],
      "guide": {
        "damageRatio": "QUEST_GUIDE_LOCATION",
        "autoGuide": "QUEST_GUIDE_AUTO_ENABLE",
        "param": [
          "Q79013note2",
          "10",
          "11",
          "21"
        ],
        "guideScene": 9,
        "guideStyle": "QUEST_GUIDE_STYLE_TARGET",
        "guideLayer": "QUEST_GUIDE_LAYER_UI",
        "MLAHIFLGIGJ": ""
      },
      "guideHint": {
        "param1": ""
      },
      "isRewind": true,
      "versionBegin": "",
      "versionEnd": ""
    },
    {
      "subId": 7901326,
      "mainId": 79013,
      "order": 30,
      "descTextMapHash": 292881052,
      "guideTipsTextMapHash": 4093992398,
      "finishCond": [
        {
          "damageRatio": "QUEST_CONTENT_COMPLETE_TALK",
          "param": [
            7901316,
            0
          ]
        }
      ],
      "guide": {
        "damageRatio": "QUEST_GUIDE_LOCATION",
        "autoGuide": "QUEST_GUIDE_AUTO_ENABLE",
        "param": [
          "Q79013note3",
          "10",
          "11",
          "21"
        ],
        "guideScene": 9,
        "guideStyle": "QUEST_GUIDE_STYLE_TARGET",
        "guideLayer": "QUEST_GUIDE_LAYER_UI",
        "MLAHIFLGIGJ": ""
      },
      "guideHint": {
        "param1": ""
      },
      "finishParent": true,
      "isRewind": true,
      "versionBegin": "",
      "versionEnd": ""
    },
    {
      "subId": 7901327,
      "mainId": 79013,
      "order": 24,
      "descTextMapHash": 1781583980,
      "guideTipsTextMapHash": 3704417070,
      "finishCond": [
        {
          "damageRatio": "QUEST_CONTENT_COMPLETE_TALK",
          "param": [
            7901319,
            0
          ]
        }
      ],
      "guide": {
        "damageRatio": "QUEST_GUIDE_LOCATION",
        "autoGuide": "QUEST_GUIDE_AUTO_ENABLE",
        "param": [
          "Q79013note3",
          "10",
          "11",
          "21"
        ],
        "guideScene": 9,
        "guideStyle": "QUEST_GUIDE_STYLE_TARGET",
        "guideLayer": "QUEST_GUIDE_LAYER_SCENE",
        "MLAHIFLGIGJ": ""
      },
      "guideHint": {
        "param1": ""
      },
      "isRewind": true,
      "versionBegin": "",
      "versionEnd": ""
    },
    {
      "subId": 7901328,
      "mainId": 79013,
      "order": 25,
      "descTextMapHash": 557789732,
      "finishCond": [
        {
          "damageRatio": "QUEST_CONTENT_SCENE_LEVEL_TAG_EQ",
          "param": [
            22,
            0
          ]
        }
      ],
      "guide": {
        "damageRatio": "QUEST_GUIDE_GADGET",
        "autoGuide": "QUEST_GUIDE_AUTO_ENABLE",
        "param": [
          "199003032",
          "32001",
          "-720:120:410"
        ],
        "guideScene": 9,
        "guideStyle": "QUEST_GUIDE_STYLE_TARGET",
        "guideLayer": "QUEST_GUIDE_LAYER_SCENE",
        "MLAHIFLGIGJ": ""
      },
      "guideHint": {
        "param1": ""
      },
      "isRewind": true,
      "versionBegin": "",
      "versionEnd": ""
    },
    {
      "subId": 7901329,
      "mainId": 79013,
      "order": 7,
      "descTextMapHash": 932860772,
      "guideTipsTextMapHash": 303348966,
      "finishCond": [
        {
          "damageRatio": "QUEST_CONTENT_COMPLETE_TALK",
          "param": [
            7901311,
            0
          ]
        }
      ],
      "guide": {
        "damageRatio": "QUEST_GUIDE_LOCATION",
        "autoGuide": "QUEST_GUIDE_AUTO_ENABLE",
        "param": [
          "guide_Q7901305",
          "30",
          "11",
          "22"
        ],
        "guideScene": 9,
        "guideStyle": "QUEST_GUIDE_STYLE_TARGET",
        "guideLayer": "QUEST_GUIDE_LAYER_SCENE",
        "MLAHIFLGIGJ": ""
      },
      "guideHint": {
        "param1": ""
      },
      "isRewind": true,
      "versionBegin": "",
      "versionEnd": ""
    },
    {
      "subId": 7901330,
      "mainId": 79013,
      "order": 18,
      "descTextMapHash": 3096163420,
      "guideTipsTextMapHash": 3069816990,
      "finishCond": [
        {
          "damageRatio": "QUEST_CONTENT_COMPLETE_TALK",
          "param": [
            7901335,
            0
          ]
        }
      ],
      "guide": {
        "damageRatio": "QUEST_GUIDE_LOCATION",
        "autoGuide": "QUEST_GUIDE_AUTO_ENABLE",
        "param": [
          "Q7901314_guide",
          "10",
          "11",
          "22"
        ],
        "guideScene": 9,
        "guideStyle": "QUEST_GUIDE_STYLE_TARGET",
        "guideLayer": "QUEST_GUIDE_LAYER_SCENE",
        "MLAHIFLGIGJ": ""
      },
      "guideHint": {
        "param1": ""
      },
      "isRewind": true,
      "versionBegin": "",
      "versionEnd": ""
    },
    {
      "subId": 7901331,
      "mainId": 79013,
      "order": 27,
      "descTextMapHash": 2454258364,
      "guideTipsTextMapHash": 2738970822,
      "finishCond": [
        {
          "damageRatio": "QUEST_CONTENT_COMPLETE_TALK",
          "param": [
            7901327,
            0
          ]
        }
      ],
      "guide": {
        "damageRatio": "QUEST_GUIDE_LOCATION",
        "autoGuide": "QUEST_GUIDE_AUTO_ENABLE",
        "param": [
          "Q79013top",
          "10",
          "11",
          "22"
        ],
        "guideScene": 9,
        "guideStyle": "QUEST_GUIDE_STYLE_TARGET",
        "guideLayer": "QUEST_GUIDE_LAYER_SCENE",
        "MLAHIFLGIGJ": ""
      },
      "guideHint": {
        "param1": ""
      },
      "isRewind": true,
      "versionBegin": "",
      "versionEnd": ""
    }
  ],
  "talks": [
    {
      "id": 7901301,
      "beginWay": "TALK_BEGIN_MANUAL",
      "activeMode": "PLAY_MODE_HOST",
      "beginCond": [
        {
          "type": "QUEST_COND_STATE_EQUAL",
          "_param": [
            "7901301",
            "2"
          ]
        }
      ],
      "priority": 5,
      "initDialog": 790130101,
      "npcId": [
        20609
      ],
      "performCfg": "QuestDialogue/WQ/Island_79013/Q7901301",
      "questId": 79013,
      "assetIndex": 4231418657743508872,
      "prePerformCfg": "",
      "talkMarkType": "TALK_MARK_COMMON"
    },
    {
      "id": 7901302,
      "beginWay": "TALK_BEGIN_AUTO",
      "activeMode": "PLAY_MODE_HOST",
      "beginCond": [
        {
          "type": "QUEST_COND_STATE_EQUAL",
          "_param": [
            "7901302",
            "2"
          ]
        }
      ],
      "priority": 5,
      "initDialog": 790130201,
      "npcId": [
        1005
      ],
      "performCfg": "",
      "heroTalk": "TALK_HERO_MAIN",
      "questId": 79013,
      "assetIndex": 3700435266258075146,
      "prePerformCfg": ""
    },
    {
      "id": 7901303,
      "beginWay": "TALK_BEGIN_MANUAL",
      "activeMode": "PLAY_MODE_HOST",
      "beginCondComb": "LOGIC_OR",
      "beginCond": [
        {
          "type": "QUEST_COND_STATE_EQUAL",
          "_param": [
            "7901303",
            "2"
          ]
        },
        {
          "type": "QUEST_COND_STATE_EQUAL",
          "_param": [
            "7901304",
            "2"
          ]
        },
        {
          "type": "QUEST_COND_STATE_EQUAL",
          "_param": [
            "7901305",
            "2"
          ]
        },
        {
          "type": "QUEST_COND_STATE_EQUAL",
          "_param": [
            "7901306",
            "2"
          ]
        },
        {
          "type": "QUEST_COND_STATE_EQUAL",
          "_param": [
            "7901307",
            "2"
          ]
        }
      ],
      "priority": 5,
      "initDialog": 790130101,
      "npcId": [
        20609
      ],
      "performCfg": "QuestDialogue/WQ/Island_79013/Q7901301",
      "questId": 79013,
      "assetIndex": 5612891214947654070,
      "prePerformCfg": ""
    },
    {
      "id": 7901306,
      "beginWay": "TALK_BEGIN_MANUAL",
      "activeMode": "PLAY_MODE_HOST",
      "beginCond": [
        {
          "type": "QUEST_COND_STATE_EQUAL",
          "_param": [
            "7901307",
            "2"
          ]
        }
      ],
      "priority": 5,
      "initDialog": 790130601,
      "npcId": [
        20619
      ],
      "performCfg": "",
      "heroTalk": "TALK_HERO_MAIN",
      "questId": 79013,
      "assetIndex": 9455315919211439131,
      "prePerformCfg": ""
    },
    {
      "id": 7901308,
      "beginWay": "TALK_BEGIN_MANUAL",
      "activeMode": "PLAY_MODE_HOST",
      "beginCond": [
        {
          "type": "QUEST_COND_STATE_EQUAL",
          "_param": [
            "7901307",
            "3"
          ]
        }
      ],
      "priority": 5,
      "initDialog": 790130801,
      "npcId": [
        20609
      ],
      "performCfg": "QuestDialogue/WQ/Island_79013/Q7901308",
      "heroTalk": "TALK_HERO_MAIN",
      "questId": 79013,
      "assetIndex": 882939945187493373,
      "prePerformCfg": ""
    },
    {
      "id": 7901309,
      "beginWay": "TALK_BEGIN_MANUAL",
      "activeMode": "PLAY_MODE_HOST",
      "beginCondComb": "LOGIC_OR",
      "beginCond": [
        {
          "type": "QUEST_COND_STATE_EQUAL",
          "_param": [
            "7901311",
            "2"
          ]
        },
        {
          "type": "QUEST_COND_STATE_EQUAL",
          "_param": [
            "7901312",
            "2"
          ]
        },
        {
          "type": "QUEST_COND_STATE_EQUAL",
          "_param": [
            "7901313",
            "2"
          ]
        },
        {
          "type": "QUEST_COND_STATE_EQUAL",
          "_param": [
            "7901314",
            "2"
          ]
        },
        {
          "type": "QUEST_COND_STATE_EQUAL",
          "_param": [
            "7901315",
            "2"
          ]
        }
      ],
      "priority": 5,
      "initDialog": 790130901,
      "npcId": [
        20610
      ],
      "performCfg": "QuestDialogue/WQ/Island_79013/Q7901309",
      "questId": 79013,
      "assetIndex": 5393073538216752747,
      "prePerformCfg": ""
    },
    {
      "id": 7901311,
      "beginWay": "TALK_BEGIN_AUTO",
      "activeMode": "PLAY_MODE_HOST",
      "beginCond": [
        {
          "type": "QUEST_COND_STATE_EQUAL",
          "_param": [
            "7901329",
            "2"
          ]
        }
      ],
      "priority": 5,
      "initDialog": 790131101,
      "npcId": [
        1005
      ],
      "performCfg": "",
      "heroTalk": "TALK_HERO_MAIN",
      "questId": 79013,
      "assetIndex": 14956972367086018955,
      "prePerformCfg": ""
    },
    {
      "id": 7901312,
      "beginWay": "TALK_BEGIN_MANUAL",
      "activeMode": "PLAY_MODE_HOST",
      "beginCond": [
        {
          "type": "QUEST_COND_STATE_EQUAL",
          "_param": [
            "7901315",
            "2"
          ]
        }
      ],
      "priority": 5,
      "initDialog": 790131201,
      "npcId": [
        20616
      ],
      "performCfg": "",
      "heroTalk": "TALK_HERO_MAIN",
      "questId": 79013,
      "assetIndex": 5040712450772829977,
      "prePerformCfg": ""
    },
    {
      "id": 7901314,
      "beginWay": "TALK_BEGIN_MANUAL",
      "activeMode": "PLAY_MODE_HOST",
      "beginCond": [
        {
          "type": "QUEST_COND_STATE_EQUAL",
          "_param": [
            "7901315",
            "3"
          ]
        }
      ],
      "priority": 5,
      "initDialog": 790131401,
      "npcId": [
        20637
      ],
      "performCfg": "QuestDialogue/WQ/Island_79013/Q7901314",
      "heroTalk": "TALK_HERO_MAIN",
      "questId": 79013,
      "assetIndex": 18376848634849549842,
      "prePerformCfg": ""
    },
    {
      "id": 7901316,
      "beginWay": "TALK_BEGIN_AUTO",
      "activeMode": "PLAY_MODE_HOST",
      "beginCond": [
        {
          "type": "QUEST_COND_STATE_EQUAL",
          "_param": [
            "7901326",
            "2"
          ]
        }
      ],
      "priority": 5,
      "initDialog": 790131601,
      "npcId": [
        1005
      ],
      "performCfg": "",
      "heroTalk": "TALK_HERO_MAIN",
      "questId": 79013,
      "assetIndex": 17817841983288932415,
      "prePerformCfg": ""
    },
    {
      "id": 7901318,
      "beginWay": "TALK_BEGIN_MANUAL",
      "activeMode": "PLAY_MODE_HOST",
      "beginCondComb": "LOGIC_OR",
      "beginCond": [
        {
          "type": "QUEST_COND_STATE_EQUAL",
          "_param": [
            "7901318",
            "2"
          ]
        },
        {
          "type": "QUEST_COND_STATE_EQUAL",
          "_param": [
            "7901328",
            "2"
          ]
        },
        {
          "type": "QUEST_COND_STATE_EQUAL",
          "_param": [
            "7901319",
            "2"
          ]
        }
      ],
      "priority": 5,
      "initDialog": 790131801,
      "npcId": [
        20611
      ],
      "performCfg": "QuestDialogue/WQ/Island_79013/Q7901318",
      "heroTalk": "TALK_HERO_MAIN",
      "questId": 79013,
      "assetIndex": 9508889986949923547,
      "prePerformCfg": ""
    },
    {
      "id": 7901319,
      "beginWay": "TALK_BEGIN_AUTO",
      "activeMode": "PLAY_MODE_HOST",
      "beginCond": [
        {
          "type": "QUEST_COND_STATE_EQUAL",
          "_param": [
            "7901327",
            "2"
          ]
        }
      ],
      "priority": 5,
      "initDialog": 790131901,
      "npcId": [
        1005
      ],
      "performCfg": "",
      "heroTalk": "TALK_HERO_MAIN",
      "questId": 79013,
      "assetIndex": 8108387169602874286,
      "prePerformCfg": ""
    },
    {
      "id": 7901320,
      "beginWay": "TALK_BEGIN_MANUAL",
      "activeMode": "PLAY_MODE_HOST",
      "beginCond": [
        {
          "type": "QUEST_COND_STATE_EQUAL",
          "_param": [
            "7901315",
            "2"
          ]
        }
      ],
      "priority": 5,
      "initDialog": 790132001,
      "npcId": [
        20615
      ],
      "performCfg": "",
      "questId": 79013,
      "assetIndex": 1495980714156774783,
      "prePerformCfg": ""
    },
    {
      "id": 7901321,
      "beginWay": "TALK_BEGIN_MANUAL",
      "activeMode": "PLAY_MODE_HOST",
      "beginCond": [
        {
          "type": "QUEST_COND_STATE_EQUAL",
          "_param": [
            "7901315",
            "2"
          ]
        }
      ],
      "priority": 5,
      "initDialog": 790132101,
      "npcId": [
        20617
      ],
      "performCfg": "",
      "questId": 79013,
      "assetIndex": 10024854271953977260,
      "prePerformCfg": ""
    },
    {
      "id": 7901324,
      "beginWay": "TALK_BEGIN_AUTO",
      "activeMode": "PLAY_MODE_HOST",
      "beginCond": [
        {
          "type": "QUEST_COND_STATE_EQUAL",
          "_param": [
            "7901323",
            "2"
          ]
        }
      ],
      "priority": 5,
      "initDialog": 790132401,
      "npcId": [
        1005
      ],
      "performCfg": "",
      "heroTalk": "TALK_HERO_MAIN",
      "questId": 79013,
      "assetIndex": 17169723600240885851,
      "prePerformCfg": ""
    },
    {
      "id": 7901325,
      "beginWay": "TALK_BEGIN_AUTO",
      "activeMode": "PLAY_MODE_HOST",
      "beginCond": [
        {
          "type": "QUEST_COND_STATE_EQUAL",
          "_param": [
            "7901324",
            "2"
          ]
        }
      ],
      "priority": 5,
      "initDialog": 790132501,
      "npcId": [
        1005
      ],
      "performCfg": "",
      "heroTalk": "TALK_HERO_MAIN",
      "questId": 79013,
      "assetIndex": 3758814302716269963,
      "prePerformCfg": ""
    },
    {
      "id": 7901326,
      "beginWay": "TALK_BEGIN_AUTO",
      "activeMode": "PLAY_MODE_HOST",
      "beginCond": [
        {
          "type": "QUEST_COND_STATE_EQUAL",
          "_param": [
            "7901325",
            "2"
          ]
        }
      ],
      "priority": 5,
      "initDialog": 790132601,
      "npcId": [
        1005
      ],
      "performCfg": "",
      "heroTalk": "TALK_HERO_MAIN",
      "questId": 79013,
      "assetIndex": 9032004320696175422,
      "prePerformCfg": ""
    },
    {
      "id": 7901327,
      "beginWay": "TALK_BEGIN_AUTO",
      "activeMode": "PLAY_MODE_HOST",
      "beginCond": [
        {
          "type": "QUEST_COND_STATE_EQUAL",
          "_param": [
            "7901331",
            "2"
          ]
        }
      ],
      "priority": 5,
      "initDialog": 790132701,
      "npcId": [
        20627,
        1005
      ],
      "performCfg": "",
      "heroTalk": "TALK_HERO_MAIN",
      "questId": 79013,
      "assetIndex": 14722215097187607526,
      "prePerformCfg": ""
    },
    {
      "id": 7901329,
      "beginWay": "TALK_BEGIN_MANUAL",
      "activeMode": "PLAY_MODE_HOST",
      "beginCond": [
        {
          "type": "QUEST_COND_STATE_EQUAL",
          "_param": [
            "7901319",
            "3"
          ]
        }
      ],
      "priority": 5,
      "initDialog": 790132901,
      "npcId": [
        20611
      ],
      "performCfg": "QuestDialogue/WQ/Island_79013/Q7901329",
      "heroTalk": "TALK_HERO_MAIN",
      "questId": 79013,
      "assetIndex": 16611513247220270209,
      "prePerformCfg": ""
    },
    {
      "id": 7901335,
      "beginWay": "TALK_BEGIN_AUTO",
      "activeMode": "PLAY_MODE_HOST",
      "beginCond": [
        {
          "type": "QUEST_COND_STATE_EQUAL",
          "_param": [
            "7901330",
            "2"
          ]
        }
      ],
      "priority": 5,
      "initDialog": 790133501,
      "npcId": [
        1005
      ],
      "performCfg": "",
      "heroTalk": "TALK_HERO_MAIN",
      "questId": 79013,
      "assetIndex": 5038882081812995890,
      "prePerformCfg": ""
    },
    {
      "id": 7901346,
      "beginWay": "TALK_BEGIN_MANUAL",
      "activeMode": "PLAY_MODE_HOST",
      "beginCondComb": "LOGIC_AND",
      "beginCond": [
        {
          "type": "QUEST_COND_ITEM_GIVING_ACTIVED",
          "_param": [
            "7901301"
          ]
        },
        {
          "type": "QUEST_COND_STATE_EQUAL",
          "_param": [
            "7901319",
            "2"
          ]
        }
      ],
      "priority": 5,
      "initDialog": 790134601,
      "npcId": [
        20627
      ],
      "performCfg": "",
      "heroTalk": "TALK_HERO_MAIN",
      "questId": 79013,
      "assetIndex": 14581022742530020894,
      "prePerformCfg": ""
    }
  ],
  "preloadLuaList": [
    14457059026087496718,
    15774579661616571212,
    670418972508781135,
    325729599191675425,
    12834543736664011885
  ],
  "forcePreloadLuaList": [
    13485178741021019588
  ]
}