{
  "id": 79038,
  "damageRatio": "WQ",
  "activeMode": "PLAY_MODE_ALL",
  "luaPath": "Actor/Quest/WQ79038",
  "rewardIdList": [
    179038
  ],
  "showType": "QUEST_HIDDEN",
  "activityId": 5084,
  "subQuests": [
    {
      "subId": 7903801,
      "mainId": 79038,
      "order": 1,
      "showType": "QUEST_HIDDEN",
      "finishCond": [
        {
          "damageRatio": "QUEST_CONTENT_QUEST_STATE_EQUAL",
          "param": [
            7902707,
            3
          ]
        }
      ],
      "guide": {
        "MLAHIFLGIGJ": ""
      },
      "showGuide": "QUEST_GUIDE_ITEM_DISABLE",
      "guideHint": {
        "param1": ""
      },
      "finishParent": true,
      "versionBegin": "",
      "versionEnd": ""
    }
  ]
}