{
  "id": 79048,
  "damageRatio": "WQ",
  "activeMode": "PLAY_MODE_ALL",
  "descTextMapHash": 1373525295,
  "luaPath": "Actor/Quest/WQ79048",
  "showType": "QUEST_HIDDEN",
  "subQuests": [
    {
      "subId": 7904801,
      "mainId": 79048,
      "order": 1,
      "showType": "QUEST_HIDDEN",
      "finishCond": [
        {
          "damageRatio": "QUEST_CONTENT_COMPLETE_TALK",
          "param": [
            7904801,
            0
          ]
        }
      ],
      "guide": {
        "MLAHIFLGIGJ": ""
      },
      "showGuide": "QUEST_GUIDE_ITEM_DISABLE",
      "guideHint": {
        "param1": ""
      },
      "isRewind": true,
      "finishExec": [
        {
          "damageRatio": "QUEST_EXEC_INC_QUEST_GLOBAL_VAR",
          "param": [
            "7904801",
            "1"
          ]
        },
        {
          "damageRatio": "QUEST_EXEC_NOTIFY_GROUP_LUA",
          "param": [
            "10",
            "510030037"
          ]
        }
      ],
      "versionBegin": "",
      "versionEnd": ""
    },
    {
      "subId": 7904802,
      "mainId": 79048,
      "order": 2,
      "showType": "QUEST_HIDDEN",
      "finishCond": [
        {
          "damageRatio": "QUEST_CONTENT_COMPLETE_TALK",
          "param": [
            7904802,
            0
          ]
        }
      ],
      "guide": {
        "MLAHIFLGIGJ": ""
      },
      "showGuide": "QUEST_GUIDE_ITEM_DISABLE",
      "guideHint": {
        "param1": ""
      },
      "isRewind": true,
      "finishExec": [
        {
          "damageRatio": "QUEST_EXEC_ROLLBACK_QUEST",
          "param": [
            "7904802"
          ]
        }
      ],
      "versionBegin": "",
      "versionEnd": ""
    }
  ],
  "talks": [
    {
      "id": 7904801,
      "beginWay": "TALK_BEGIN_MANUAL",
      "activeMode": "PLAY_MODE_HOST",
      "beginCond": [
        {
          "type": "QUEST_COND_STATE_EQUAL",
          "_param": [
            "7904801",
            "2"
          ]
        }
      ],
      "priority": 3,
      "initDialog": 790480101,
      "npcId": [
        13147
      ],
      "performCfg": "QuestDialogue/WQ/Penumbra_79048/Q7904801",
      "heroTalk": "TALK_HERO_MAIN",
      "questId": 79048,
      "assetIndex": 17316207915315024586,
      "prePerformCfg": ""
    },
    {
      "id": 7904802,
      "beginWay": "TALK_BEGIN_MANUAL",
      "activeMode": "PLAY_MODE_HOST",
      "beginCond": [
        {
          "type": "QUEST_COND_STATE_EQUAL",
          "_param": [
            "7904802",
            "2"
          ]
        }
      ],
      "priority": 3,
      "initDialog": 790480201,
      "npcId": [
        13147
      ],
      "performCfg": "QuestDialogue/WQ/Penumbra_79048/Q7904802",
      "heroTalk": "TALK_HERO_MAIN",
      "questId": 79048,
      "assetIndex": 16895283779757364016,
      "prePerformCfg": ""
    }
  ]
}