{
  "id": 79049,
  "damageRatio": "WQ",
  "activeMode": "PLAY_MODE_ALL",
  "descTextMapHash": 3075484231,
  "luaPath": "Actor/Quest/WQ79049",
  "showType": "QUEST_HIDDEN",
  "subQuests": [
    {
      "subId": 7904901,
      "mainId": 79049,
      "order": 1,
      "showType": "QUEST_HIDDEN",
      "finishCond": [
        {
          "damageRatio": "QUEST_CONTENT_COMPLETE_TALK",
          "param": [
            7904901,
            0
          ]
        }
      ],
      "guide": {
        "MLAHIFLGIGJ": ""
      },
      "showGuide": "QUEST_GUIDE_ITEM_DISABLE",
      "guideHint": {
        "param1": ""
      },
      "isRewind": true,
      "finishExec": [
        {
          "damageRatio": "QUEST_EXEC_INC_QUEST_GLOBAL_VAR",
          "param": [
            "7904801",
            "1"
          ]
        }
      ],
      "versionBegin": "",
      "versionEnd": ""
    },
    {
      "subId": 7904902,
      "mainId": 79049,
      "order": 2,
      "showType": "QUEST_HIDDEN",
      "finishCond": [
        {
          "damageRatio": "QUEST_CONTENT_COMPLETE_TALK",
          "param": [
            7904902,
            0
          ]
        }
      ],
      "guide": {
        "MLAHIFLGIGJ": ""
      },
      "showGuide": "QUEST_GUIDE_ITEM_DISABLE",
      "guideHint": {
        "param1": ""
      },
      "isRewind": true,
      "finishExec": [
        {
          "damageRatio": "QUEST_EXEC_ROLLBACK_QUEST",
          "param": [
            "7904902"
          ]
        }
      ],
      "versionBegin": "",
      "versionEnd": ""
    }
  ],
  "talks": [
    {
      "id": 7904901,
      "beginWay": "TALK_BEGIN_MANUAL",
      "activeMode": "PLAY_MODE_HOST",
      "beginCond": [
        {
          "type": "QUEST_COND_STATE_EQUAL",
          "_param": [
            "7904901",
            "2"
          ]
        }
      ],
      "priority": 3,
      "initDialog": 790490101,
      "npcId": [
        13149
      ],
      "performCfg": "QuestDialogue/WQ/Penumbra_79049/Q7904901",
      "heroTalk": "TALK_HERO_MAIN",
      "questId": 79049,
      "assetIndex": 13808106081132949175,
      "prePerformCfg": ""
    },
    {
      "id": 7904902,
      "beginWay": "TALK_BEGIN_MANUAL",
      "activeMode": "PLAY_MODE_HOST",
      "beginCond": [
        {
          "type": "QUEST_COND_STATE_EQUAL",
          "_param": [
            "7904902",
            "2"
          ]
        }
      ],
      "priority": 3,
      "initDialog": 790490201,
      "npcId": [
        13149
      ],
      "performCfg": "QuestDialogue/WQ/Penumbra_79049/Q7904902",
      "heroTalk": "TALK_HERO_MAIN",
      "questId": 79049,
      "assetIndex": 2742815737022877570,
      "prePerformCfg": ""
    }
  ]
}