{
  "id": 79051,
  "damageRatio": "WQ",
  "activeMode": "PLAY_MODE_ALL",
  "descTextMapHash": 4123501295,
  "luaPath": "Actor/Quest/WQ79051",
  "showType": "QUEST_HIDDEN",
  "subQuests": [
    {
      "subId": 7905101,
      "mainId": 79051,
      "order": 1,
      "showType": "QUEST_HIDDEN",
      "finishCond": [
        {
          "damageRatio": "QUEST_CONTENT_COMPLETE_TALK",
          "param": [
            7905101,
            0
          ]
        }
      ],
      "guide": {
        "MLAHIFLGIGJ": ""
      },
      "showGuide": "QUEST_GUIDE_ITEM_DISABLE",
      "guideHint": {
        "param1": ""
      },
      "isRewind": true,
      "finishExec": [
        {
          "damageRatio": "QUEST_EXEC_INC_QUEST_GLOBAL_VAR",
          "param": [
            "7904801",
            "1"
          ]
        }
      ],
      "versionBegin": "",
      "versionEnd": ""
    },
    {
      "subId": 7905102,
      "mainId": 79051,
      "order": 2,
      "showType": "QUEST_HIDDEN",
      "finishCond": [
        {
          "damageRatio": "QUEST_CONTENT_COMPLETE_TALK",
          "param": [
            7905102,
            0
          ]
        }
      ],
      "guide": {
        "MLAHIFLGIGJ": ""
      },
      "showGuide": "QUEST_GUIDE_ITEM_DISABLE",
      "guideHint": {
        "param1": ""
      },
      "isRewind": true,
      "finishExec": [
        {
          "damageRatio": "QUEST_EXEC_ROLLBACK_QUEST",
          "param": [
            "7905102"
          ]
        }
      ],
      "versionBegin": "",
      "versionEnd": ""
    }
  ],
  "talks": [
    {
      "id": 7905101,
      "beginWay": "TALK_BEGIN_MANUAL",
      "activeMode": "PLAY_MODE_HOST",
      "beginCond": [
        {
          "type": "QUEST_COND_STATE_EQUAL",
          "_param": [
            "7905101",
            "2"
          ]
        }
      ],
      "priority": 3,
      "initDialog": 790510101,
      "npcId": [
        13150
      ],
      "performCfg": "QuestDialogue/WQ/Penumbra_79051/Q7905101",
      "heroTalk": "TALK_HERO_MAIN",
      "questId": 79051,
      "assetIndex": 3493424074758819832,
      "prePerformCfg": ""
    },
    {
      "id": 7905102,
      "beginWay": "TALK_BEGIN_MANUAL",
      "activeMode": "PLAY_MODE_HOST",
      "beginCond": [
        {
          "type": "QUEST_COND_STATE_EQUAL",
          "_param": [
            "7905102",
            "2"
          ]
        }
      ],
      "priority": 3,
      "initDialog": 790510201,
      "npcId": [
        13150
      ],
      "performCfg": "QuestDialogue/WQ/Penumbra_79051/Q7905102",
      "heroTalk": "TALK_HERO_MAIN",
      "questId": 79051,
      "assetIndex": 4688515716696595117,
      "prePerformCfg": ""
    }
  ]
}