{
  "id": 79055,
  "damageRatio": "WQ",
  "activeMode": "PLAY_MODE_ALL",
  "descTextMapHash": 3671854959,
  "luaPath": "Actor/Quest/WQ79055",
  "showType": "QUEST_HIDDEN",
  "subQuests": [
    {
      "subId": 7905501,
      "mainId": 79055,
      "order": 1,
      "descTextMapHash": 1629243884,
      "showType": "QUEST_HIDDEN",
      "finishCond": [
        {
          "damageRatio": "QUEST_CONTENT_COMPLETE_TALK",
          "param": [
            7905501,
            0
          ]
        }
      ],
      "guide": {
        "MLAHIFLGIGJ": ""
      },
      "showGuide": "QUEST_GUIDE_ITEM_DISABLE",
      "guideHint": {
        "param1": ""
      },
      "isRewind": true,
      "versionBegin": "",
      "versionEnd": ""
    },
    {
      "subId": 7905502,
      "mainId": 79055,
      "order": 2,
      "descTextMapHash": 940870748,
      "showType": "QUEST_HIDDEN",
      "finishCond": [
        {
          "damageRatio": "QUEST_CONTENT_FINISH_PLOT",
          "param": [
            7905502,
            0
          ]
        }
      ],
      "guide": {
        "MLAHIFLGIGJ": ""
      },
      "showGuide": "QUEST_GUIDE_ITEM_DISABLE",
      "guideHint": {
        "param1": ""
      },
      "isRewind": true,
      "versionBegin": "",
      "versionEnd": ""
    },
    {
      "subId": 7905503,
      "mainId": 79055,
      "order": 3,
      "descTextMapHash": 1821542164,
      "showType": "QUEST_HIDDEN",
      "finishCond": [
        {
          "damageRatio": "QUEST_CONTENT_LUA_NOTIFY",
          "param": [
            0,
            0
          ],
          "count": 1
        }
      ],
      "guide": {
        "MLAHIFLGIGJ": ""
      },
      "showGuide": "QUEST_GUIDE_ITEM_DISABLE",
      "guideHint": {
        "param1": ""
      },
      "finishParent": true,
      "isRewind": true,
      "finishExec": [
        {
          "damageRatio": "QUEST_EXEC_REFRESH_WORLD_QUEST_FLOW_GROUP_SUITE",
          "param": [
            "510020145,3"
          ]
        }
      ],
      "versionBegin": "",
      "versionEnd": ""
    }
  ],
  "talks": [
    {
      "id": 7905501,
      "beginWay": "TALK_BEGIN_MANUAL",
      "activeMode": "PLAY_MODE_HOST",
      "beginCondComb": "LOGIC_OR",
      "beginCond": [
        {
          "type": "QUEST_COND_STATE_EQUAL",
          "_param": [
            "7905501",
            "2"
          ]
        },
        {
          "type": "QUEST_COND_STATE_EQUAL",
          "_param": [
            "7905502",
            "2"
          ]
        }
      ],
      "priority": 5,
      "initDialog": 790550101,
      "npcId": [
        21064
      ],
      "performCfg": "",
      "heroTalk": "TALK_HERO_MAIN",
      "questId": 79055,
      "assetIndex": 8216384958487823768,
      "prePerformCfg": ""
    },
    {
      "id": 7905502,
      "beginWay": "TALK_BEGIN_MANUAL",
      "activeMode": "PLAY_MODE_HOST",
      "beginCond": [
        {
          "type": "QUEST_COND_STATE_EQUAL",
          "_param": [
            "7905502",
            "2"
          ]
        }
      ],
      "priority": 5,
      "npcId": [
        21065
      ],
      "performCfg": "QuestDialogue/WQ/Penumbra_79044/Q7905502",
      "heroTalk": "TALK_HERO_MAIN",
      "questId": 79055,
      "assetIndex": 15555970178453395101,
      "prePerformCfg": ""
    }
  ]
}