{
  "id": 79061,
  "series": 79060,
  "damageRatio": "WQ",
  "activeMode": "PLAY_MODE_ALL",
  "descTextMapHash": 2945910943,
  "luaPath": "Actor/Quest/WQ79061",
  "showType": "QUEST_HIDDEN",
  "activityId": 2032,
  "subQuests": [
    {
      "subId": 7906101,
      "mainId": 79061,
      "order": 1,
      "showType": "QUEST_HIDDEN",
      "finishCond": [
        {
          "damageRatio": "QUEST_CONTENT_COMPLETE_TALK",
          "param": [
            7906102,
            0
          ]
        },
        {
          "damageRatio": "QUEST_CONTENT_COMPLETE_TALK",
          "param": [
            7906103,
            0
          ]
        }
      ],
      "guide": {
        "MLAHIFLGIGJ": ""
      },
      "guideHint": {
        "param1": ""
      },
      "isRewind": true,
      "versionBegin": "",
      "versionEnd": ""
    },
    {
      "subId": 7906102,
      "mainId": 79061,
      "order": 2,
      "showType": "QUEST_HIDDEN",
      "finishCond": [
        {
          "damageRatio": "QUEST_CONTENT_GAME_TIME_TICK",
          "param": [
            1,
            0
          ]
        }
      ],
      "guide": {
        "MLAHIFLGIGJ": ""
      },
      "guideHint": {
        "param1": ""
      },
      "isRewind": true,
      "versionBegin": "",
      "versionEnd": ""
    },
    {
      "subId": 7906103,
      "mainId": 79061,
      "order": 3,
      "showType": "QUEST_HIDDEN",
      "finishCond": [
        {
          "damageRatio": "QUEST_CONTENT_FINISH_PLOT",
          "param": [
            7906103,
            0
          ]
        }
      ],
      "guide": {
        "MLAHIFLGIGJ": ""
      },
      "guideHint": {
        "param1": ""
      },
      "finishParent": true,
      "isRewind": true,
      "versionBegin": "",
      "versionEnd": ""
    },
    {
      "subId": 7906104,
      "mainId": 79061,
      "order": 4,
      "showType": "QUEST_HIDDEN",
      "finishCond": [
        {
          "damageRatio": "QUEST_CONTENT_FINISH_PLOT",
          "param": [
            7906104,
            0
          ]
        }
      ],
      "guide": {
        "MLAHIFLGIGJ": ""
      },
      "guideHint": {
        "param1": ""
      },
      "finishParent": true,
      "isRewind": true,
      "versionBegin": "",
      "versionEnd": ""
    }
  ],
  "talks": [
    {
      "id": 7906101,
      "beginWay": "TALK_BEGIN_MANUAL",
      "activeMode": "PLAY_MODE_HOST",
      "beginCond": [
        {
          "type": "QUEST_COND_STATE_EQUAL",
          "_param": [
            "7906101",
            "2"
          ]
        }
      ],
      "priority": 5,
      "nextTalks": [
        7906102,
        7906103
      ],
      "initDialog": 790610101,
      "npcId": [
        21611
      ],
      "performCfg": "QuestDialogue/WQ/FairyBook_79061/Q7906101",
      "heroTalk": "TALK_HERO_MAIN",
      "questId": 79061,
      "assetIndex": 12355210888669429447,
      "prePerformCfg": "",
      "CHAKPMBJNAJ": [
        "[100_294:998.028,216.884,711.501,0.000,142.410,0.000]",
        "[100_295:1000.813,217.254,708.919,0.000,333.971,0.000]",
        "[100_296:999.515,217.253,708.308,0.000,340.146,0.000]",
        "[100_297:998.811,216.884,711.991,0.000,158.154,0.000]"
      ]
    },
    {
      "id": 7906102,
      "activeMode": "PLAY_MODE_HOST",
      "beginCond": [
        {
          "type": "QUEST_COND_STATE_EQUAL",
          "_param": [
            "7906101",
            "2"
          ]
        }
      ],
      "priority": 5,
      "initDialog": 790610201,
      "npcId": [
        21611
      ],
      "performCfg": "QuestDialogue/WQ/FairyBook_79061/Q7906102",
      "heroTalk": "TALK_HERO_MAIN",
      "questId": 79061,
      "assetIndex": 12882404760979161817,
      "prePerformCfg": "",
      "finishExec": [
        {
          "damageRatio": "TALK_EXEC_SET_QUEST_VAR",
          "param": [
            "0",
            "1",
            "79061"
          ]
        }
      ],
      "CHAKPMBJNAJ": [
        "[100_294:998.028,216.884,711.501,0.000,142.410,0.000]"
      ]
    },
    {
      "id": 7906103,
      "activeMode": "PLAY_MODE_HOST",
      "beginCond": [
        {
          "type": "QUEST_COND_STATE_EQUAL",
          "_param": [
            "7906101",
            "2"
          ]
        }
      ],
      "priority": 5,
      "initDialog": 790610301,
      "npcId": [
        21611
      ],
      "performCfg": "QuestDialogue/WQ/FairyBook_79061/Q7906103",
      "heroTalk": "TALK_HERO_MAIN",
      "questId": 79061,
      "assetIndex": 473290407011148730,
      "prePerformCfg": "",
      "finishExec": [
        {
          "damageRatio": "TALK_EXEC_SET_QUEST_VAR",
          "param": [
            "0",
            "2",
            "79061"
          ]
        }
      ],
      "CHAKPMBJNAJ": [
        "[100_294:998.028,216.884,711.501,0.000,142.410,0.000]"
      ]
    },
    {
      "id": 7906104,
      "beginWay": "TALK_BEGIN_MANUAL",
      "activeMode": "PLAY_MODE_HOST",
      "beginCondComb": "LOGIC_AND",
      "beginCond": [
        {
          "type": "QUEST_COND_STATE_EQUAL",
          "_param": [
            "7906102",
            "2"
          ]
        },
        {
          "type": "QUEST_COND_QUEST_VAR_EQUAL",
          "_param": [
            "0",
            "1",
            "79061"
          ]
        }
      ],
      "priority": 5,
      "initDialog": 790610401,
      "npcId": [
        21611
      ],
      "performCfg": "",
      "questId": 79061,
      "assetIndex": 18372065288999858718,
      "prePerformCfg": ""
    },
    {
      "id": 7906105,
      "beginWay": "TALK_BEGIN_MANUAL",
      "activeMode": "PLAY_MODE_HOST",
      "beginCondComb": "LOGIC_AND",
      "beginCond": [
        {
          "type": "QUEST_COND_STATE_EQUAL",
          "_param": [
            "7906102",
            "2"
          ]
        },
        {
          "type": "QUEST_COND_QUEST_VAR_EQUAL",
          "_param": [
            "0",
            "2",
            "79061"
          ]
        }
      ],
      "priority": 5,
      "initDialog": 790610501,
      "npcId": [
        21611
      ],
      "performCfg": "",
      "questId": 79061,
      "assetIndex": 7511191778132668088,
      "prePerformCfg": ""
    },
    {
      "id": 7906106,
      "beginWay": "TALK_BEGIN_MANUAL",
      "activeMode": "PLAY_MODE_HOST",
      "beginCond": [
        {
          "type": "QUEST_COND_STATE_EQUAL",
          "_param": [
            "7906103",
            "2"
          ]
        }
      ],
      "priority": 5,
      "initDialog": 790610601,
      "npcId": [
        21651
      ],
      "performCfg": "",
      "questId": 79061,
      "assetIndex": 951303962637269924,
      "prePerformCfg": ""
    },
    {
      "id": 7906107,
      "beginWay": "TALK_BEGIN_MANUAL",
      "activeMode": "PLAY_MODE_HOST",
      "beginCond": [
        {
          "type": "QUEST_COND_STATE_EQUAL",
          "_param": [
            "7906104",
            "2"
          ]
        }
      ],
      "priority": 5,
      "initDialog": 790610701,
      "npcId": [
        21448
      ],
      "performCfg": "",
      "questId": 79061,
      "assetIndex": 15138263657941750148,
      "prePerformCfg": ""
    }
  ],
  "LNMELPHNIDD": true
}