{
  "id": 8004,
  "resId": 1012,
  "series": 1206,
  "descTextMapHash": 348908255,
  "EKEKACCODOE": 2119734318,
  "luaPath": "Actor/Quest/AQ8004",
  "suggestTrackMainQuestList": [
    8005
  ],
  "rewardIdList": [
    108004
  ],
  "chapterId": 1206,
  "subQuests": [
    {
      "subId": 800401,
      "mainId": 8004,
      "order": 1,
      "descTextMapHash": 2681593820,
      "finishCond": [
        {
          "damageRatio": "QUEST_CONTENT_COMPLETE_TALK",
          "param": [
            800401,
            0
          ]
        }
      ],
      "guide": {
        "damageRatio": "QUEST_GUIDE_NPC",
        "param": [
          "2078"
        ],
        "guideScene": 3,
        "guideStyle": "QUEST_GUIDE_STYLE_START",
        "guideLayer": "QUEST_GUIDE_LAYER_UI",
        "MLAHIFLGIGJ": ""
      },
      "guideHint": {
        "param1": ""
      },
      "isRewind": true,
      "versionBegin": "",
      "versionEnd": ""
    },
    {
      "subId": 800402,
      "mainId": 8004,
      "order": 2,
      "descTextMapHash": 3453257228,
      "finishCond": [
        {
          "damageRatio": "QUEST_CONTENT_COMPLETE_TALK",
          "param": [
            800402,
            0
          ]
        }
      ],
      "guide": {
        "damageRatio": "QUEST_GUIDE_NPC",
        "param": [
          "12423"
        ],
        "guideScene": 3,
        "guideStyle": "QUEST_GUIDE_STYLE_TARGET",
        "guideLayer": "QUEST_GUIDE_LAYER_SCENE",
        "MLAHIFLGIGJ": ""
      },
      "guideHint": {
        "param1": ""
      },
      "isRewind": true,
      "versionBegin": "",
      "versionEnd": ""
    },
    {
      "subId": 800403,
      "mainId": 8004,
      "order": 5,
      "descTextMapHash": 1459253780,
      "stepDescTextMapHash": 1209589933,
      "finishCond": [
        {
          "damageRatio": "QUEST_CONTENT_COMPLETE_TALK",
          "param": [
            800403,
            0
          ]
        },
        {
          "damageRatio": "QUEST_CONTENT_COMPLETE_TALK",
          "param": [
            800404,
            0
          ]
        }
      ],
      "failCond": [
        {
          "damageRatio": "QUEST_CONTENT_NOT_FINISH_PLOT",
          "param": [
            800403,
            0
          ]
        }
      ],
      "guide": {
        "damageRatio": "QUEST_GUIDE_LOCATION",
        "param": [
          "Q800403_guide"
        ],
        "guideScene": 6,
        "guideStyle": "QUEST_GUIDE_STYLE_POINT",
        "guideLayer": "QUEST_GUIDE_LAYER_SCENE",
        "MLAHIFLGIGJ": ""
      },
      "guideHint": {
        "param1": ""
      },
      "finishParent": true,
      "isRewind": true,
      "versionBegin": "",
      "versionEnd": ""
    },
    {
      "subId": 800404,
      "mainId": 8004,
      "order": 7,
      "descTextMapHash": 1555008556,
      "stepDescTextMapHash": 1077715997,
      "finishCond": [
        {
          "damageRatio": "QUEST_CONTENT_COMPLETE_TALK",
          "param": [
            800403,
            0
          ]
        },
        {
          "damageRatio": "QUEST_CONTENT_COMPLETE_TALK",
          "param": [
            800404,
            0
          ]
        }
      ],
      "guide": {
        "damageRatio": "QUEST_GUIDE_LOCATION",
        "param": [
          "Q800403_guide"
        ],
        "guideScene": 6,
        "guideStyle": "QUEST_GUIDE_STYLE_POINT",
        "guideLayer": "QUEST_GUIDE_LAYER_SCENE",
        "MLAHIFLGIGJ": ""
      },
      "guideHint": {
        "param1": ""
      },
      "finishParent": true,
      "isRewind": true,
      "versionBegin": "",
      "versionEnd": ""
    },
    {
      "subId": 800405,
      "mainId": 8004,
      "order": 6,
      "descTextMapHash": 3699268532,
      "stepDescTextMapHash": 2137823877,
      "guideTipsTextMapHash": 1127415774,
      "finishCond": [
        {
          "damageRatio": "QUEST_CONTENT_QUEST_STATE_EQUAL",
          "param": [
            7104228,
            3
          ]
        },
        {
          "damageRatio": "QUEST_CONTENT_UNLOCK_TRANS_POINT",
          "param": [
            6,
            11
          ]
        }
      ],
      "guide": {
        "MLAHIFLGIGJ": ""
      },
      "guideHint": {
        "param1": ""
      },
      "isRewind": true,
      "versionBegin": "",
      "versionEnd": ""
    },
    {
      "subId": 800406,
      "mainId": 8004,
      "order": 4,
      "showType": "QUEST_HIDDEN",
      "finishCond": [
        {
          "damageRatio": "QUEST_CONTENT_UNLOCK_TRANS_POINT",
          "param": [
            6,
            11
          ]
        }
      ],
      "failCond": [
        {
          "damageRatio": "QUEST_CONTENT_COMPLETE_TALK",
          "param": [
            800403,
            0
          ]
        }
      ],
      "guide": {
        "MLAHIFLGIGJ": ""
      },
      "guideHint": {
        "param1": ""
      },
      "isRewind": true,
      "finishExec": [
        {
          "damageRatio": "QUEST_EXEC_SET_QUEST_GLOBAL_VAR",
          "param": [
            "800402",
            "1"
          ]
        }
      ],
      "failExec": [
        {
          "damageRatio": "QUEST_EXEC_SET_QUEST_GLOBAL_VAR",
          "param": [
            "800402",
            "0"
          ]
        }
      ],
      "versionBegin": "",
      "versionEnd": ""
    },
    {
      "subId": 800407,
      "mainId": 8004,
      "order": 3,
      "descTextMapHash": 3350540972,
      "stepDescTextMapHash": 2153309645,
      "finishCond": [
        {
          "damageRatio": "QUEST_CONTENT_ENTER_MY_WORLD_SCENE",
          "param": [
            6,
            0
          ]
        }
      ],
      "guide": {
        "damageRatio": "QUEST_GUIDE_LOCATION",
        "param": [
          "Q800403_guide"
        ],
        "guideScene": 6,
        "guideStyle": "QUEST_GUIDE_STYLE_POINT",
        "guideLayer": "QUEST_GUIDE_LAYER_SCENE",
        "MLAHIFLGIGJ": ""
      },
      "guideHint": {
        "param1": ""
      },
      "isRewind": true,
      "versionBegin": "",
      "versionEnd": ""
    }
  ],
  "talks": [
    {
      "id": 800401,
      "beginWay": "TALK_BEGIN_MANUAL",
      "beginCond": [
        {
          "type": "QUEST_COND_STATE_EQUAL",
          "_param": [
            "800401",
            "2"
          ]
        }
      ],
      "priority": 5,
      "initDialog": 80040101,
      "npcId": [
        2078
      ],
      "performCfg": "QuestDialogue/AQ/Twins2_8004/Q800401",
      "heroTalk": "TALK_HERO_MAIN",
      "questId": 8004,
      "assetIndex": 15296787115243601345,
      "prePerformCfg": ""
    },
    {
      "id": 800402,
      "beginWay": "TALK_BEGIN_MANUAL",
      "beginCond": [
        {
          "type": "QUEST_COND_STATE_EQUAL",
          "_param": [
            "800402",
            "2"
          ]
        }
      ],
      "priority": 5,
      "initDialog": 80040201,
      "npcId": [
        12423
      ],
      "performCfg": "QuestDialogue/AQ/Twins2_8004/Q800402",
      "heroTalk": "TALK_HERO_MAIN",
      "questId": 8004,
      "assetIndex": 1327238880645536447,
      "prePerformCfg": ""
    },
    {
      "id": 800403,
      "beginWay": "TALK_BEGIN_MANUAL",
      "beginCondComb": "LOGIC_A_AND_ETCOR",
      "beginCond": [
        {
          "type": "QUEST_COND_QUEST_GLOBAL_VAR_EQUAL",
          "_param": [
            "800402",
            "1"
          ]
        },
        {
          "type": "QUEST_COND_STATE_EQUAL",
          "_param": [
            "800403",
            "2"
          ]
        },
        {
          "type": "QUEST_COND_STATE_EQUAL",
          "_param": [
            "800404",
            "2"
          ]
        }
      ],
      "priority": 5,
      "initDialog": 80040301,
      "npcId": [
        12427
      ],
      "performCfg": "QuestDialogue/AQ/Twins2_8004/Q800403",
      "heroTalk": "TALK_HERO_MAIN",
      "questId": 8004,
      "assetIndex": 14658853187223911945,
      "prePerformCfg": ""
    },
    {
      "id": 800404,
      "beginWay": "TALK_BEGIN_MANUAL",
      "beginCondComb": "LOGIC_A_AND_ETCOR",
      "beginCond": [
        {
          "type": "QUEST_COND_QUEST_GLOBAL_VAR_EQUAL",
          "_param": [
            "800402",
            "0"
          ]
        },
        {
          "type": "QUEST_COND_STATE_EQUAL",
          "_param": [
            "800403",
            "2"
          ]
        },
        {
          "type": "QUEST_COND_STATE_EQUAL",
          "_param": [
            "800404",
            "2"
          ]
        }
      ],
      "priority": 5,
      "initDialog": 80040401,
      "npcId": [
        12427
      ],
      "performCfg": "QuestDialogue/AQ/Twins2_8004/Q800404",
      "heroTalk": "TALK_HERO_MAIN",
      "questId": 8004,
      "assetIndex": 8071078125170226358,
      "prePerformCfg": ""
    },
    {
      "id": 800405,
      "beginWay": "TALK_BEGIN_MANUAL",
      "beginCond": [
        {
          "type": "QUEST_COND_STATE_EQUAL",
          "_param": [
            "800407",
            "2"
          ]
        }
      ],
      "priority": 5,
      "initDialog": 80040501,
      "npcId": [
        12423
      ],
      "performCfg": "QuestDialogue/AQ/Twins2_8004/Q800405",
      "questId": 8004,
      "assetIndex": 2118410512180855129,
      "prePerformCfg": ""
    }
  ],
  "preloadLuaList": [
    15756094930478054979,
    1034198945363783776
  ],
  "forcePreloadLuaList": [
    5012180634984195422
  ]
}