{
  "id": 8008,
  "resId": 1012,
  "luaPath": "Actor/Quest/AQ8008",
  "rewardIdList": [
    108008
  ],
  "showType": "QUEST_HIDDEN",
  "subQuests": [
    {
      "subId": 800801,
      "mainId": 8008,
      "order": 2,
      "showType": "QUEST_HIDDEN",
      "finishCond": [
        {
          "damageRatio": "QUEST_CONTENT_COMPLETE_TALK",
          "param": [
            800801,
            0
          ]
        }
      ],
      "guide": {
        "MLAHIFLGIGJ": ""
      },
      "guideHint": {
        "param1": ""
      },
      "finishParent": true,
      "isRewind": true,
      "versionBegin": "",
      "versionEnd": ""
    },
    {
      "subId": 800802,
      "mainId": 8008,
      "order": 1,
      "showType": "QUEST_HIDDEN",
      "finishCond": [
        {
          "damageRatio": "QUEST_CONTENT_ENTER_MY_WORLD",
          "param": [
            3,
            0
          ]
        }
      ],
      "guide": {
        "MLAHIFLGIGJ": ""
      },
      "guideHint": {
        "param1": ""
      },
      "isRewind": true,
      "finishExec": [
        {
          "damageRatio": "QUEST_EXEC_UNREGISTER_DYNAMIC_GROUP",
          "param": [
            "166001248"
          ]
        },
        {
          "damageRatio": "QUEST_EXEC_REFRESH_GROUP_SUITE",
          "param": [
            "6",
            "166001503,3"
          ]
        },
        {
          "damageRatio": "QUEST_EXEC_REFRESH_GROUP_SUITE",
          "param": [
            "6",
            "166001504,2"
          ]
        }
      ],
      "versionBegin": "",
      "versionEnd": ""
    }
  ],
  "talks": [
    {
      "id": 800801,
      "beginWay": "TALK_BEGIN_MANUAL",
      "beginCond": [
        {
          "type": "QUEST_COND_STATE_EQUAL",
          "_param": [
            "800801",
            "2"
          ]
        }
      ],
      "priority": 5,
      "initDialog": 80080101,
      "npcId": [
        12423
      ],
      "performCfg": "QuestDialogue/AQ/Twins2_8008/Q800801",
      "questId": 8008,
      "assetIndex": 10311705825678383008,
      "prePerformCfg": ""
    }
  ]
}