{
  "id": 8021,
  "resId": 1025,
  "series": 1406,
  "descTextMapHash": 3536967431,
  "EKEKACCODOE": 1194274342,
  "luaPath": "Actor/Quest/AQ8021",
  "rewardIdList": [
    108021
  ],
  "chapterId": 1406,
  "NAOFGBNMCCI": true,
  "BONJIMPOJLG": true,
  "subQuests": [
    {
      "subId": 802101,
      "mainId": 8021,
      "order": 9,
      "descTextMapHash": 1445264284,
      "finishCond": [
        {
          "damageRatio": "QUEST_CONTENT_ENTER_DUNGEON",
          "param": [
            1212,
            1290
          ]
        },
        {
          "damageRatio": "QUEST_CONTENT_FINISH_PLOT",
          "param": [
            802101,
            0
          ]
        }
      ],
      "guide": {
        "damageRatio": "QUEST_GUIDE_LOCATION",
        "param": [
          "[3_330201544:-990.988,214.890,2760.345]"
        ],
        "guideScene": 3,
        "guideStyle": "QUEST_GUIDE_STYLE_TARGET",
        "HAPDJJCECBL": "QUEST_GUIDE_INDICATOR_STYLE_CONNECTED_POINT",
        "MLAHIFLGIGJ": ""
      },
      "guideHint": {
        "param1": ""
      },
      "MEMGANDALKN": "QUEST_HIDDEN",
      "isRewind": true,
      "versionBegin": "",
      "versionEnd": ""
    },
    {
      "subId": 802102,
      "mainId": 8021,
      "order": 11,
      "descTextMapHash": 1944846940,
      "finishCond": [
        {
          "damageRatio": "QUEST_CONTENT_COMPLETE_TALK",
          "param": [
            802122,
            0
          ]
        }
      ],
      "failCond": [
        {
          "damageRatio": "QUEST_CONTENT_LEAVE_SCENE",
          "param": [
            20226,
            0
          ]
        }
      ],
      "guide": {
        "damageRatio": "QUEST_GUIDE_NPC",
        "param": [
          "14075"
        ],
        "guideScene": 20226,
        "guideStyle": "QUEST_GUIDE_STYLE_TARGET",
        "guideLayer": "QUEST_GUIDE_LAYER_SCENE",
        "MLAHIFLGIGJ": ""
      },
      "guideHint": {
        "param1": ""
      },
      "MEMGANDALKN": "QUEST_HIDDEN",
      "isRewind": true,
      "failExec": [
        {
          "damageRatio": "QUEST_EXEC_ROLLBACK_QUEST",
          "param": [
            "802101"
          ]
        },
        {
          "damageRatio": "QUEST_EXEC_UNLOCK_MIRROR_AVATAR_TEAM"
        },
        {
          "damageRatio": "QUEST_EXEC_SET_IS_GAME_TIME_LOCKED_V2",
          "param": [
            "0"
          ]
        }
      ],
      "versionBegin": "",
      "versionEnd": ""
    },
    {
      "subId": 802103,
      "mainId": 8021,
      "order": 12,
      "descTextMapHash": 1380560084,
      "finishCond": [
        {
          "damageRatio": "QUEST_CONTENT_FINISH_PLOT",
          "param": [
            802103,
            0
          ]
        }
      ],
      "failCond": [
        {
          "damageRatio": "QUEST_CONTENT_LEAVE_SCENE",
          "param": [
            20226,
            0
          ]
        }
      ],
      "guide": {
        "MLAHIFLGIGJ": ""
      },
      "guideHint": {
        "param1": ""
      },
      "failExec": [
        {
          "damageRatio": "QUEST_EXEC_ROLLBACK_QUEST",
          "param": [
            "802101"
          ]
        },
        {
          "damageRatio": "QUEST_EXEC_UNLOCK_MIRROR_AVATAR_TEAM"
        },
        {
          "damageRatio": "QUEST_EXEC_SET_IS_GAME_TIME_LOCKED_V2",
          "param": [
            "0"
          ]
        }
      ],
      "versionBegin": "",
      "versionEnd": ""
    },
    {
      "subId": 802104,
      "mainId": 8021,
      "order": 13,
      "descTextMapHash": 3218861100,
      "finishCond": [
        {
          "damageRatio": "QUEST_CONTENT_COMPLETE_TALK",
          "param": [
            802104,
            0
          ]
        },
        {
          "damageRatio": "QUEST_CONTENT_COMPLETE_TALK",
          "param": [
            802113,
            0
          ]
        }
      ],
      "failCond": [
        {
          "damageRatio": "QUEST_CONTENT_LEAVE_SCENE",
          "param": [
            20226,
            0
          ]
        }
      ],
      "guide": {
        "damageRatio": "QUEST_GUIDE_LOCATION",
        "param": [
          "[20226_1:537.514,100.500,522.114,0.000,258.600,0.000]"
        ],
        "guideScene": 20226,
        "guideStyle": "QUEST_GUIDE_STYLE_POINT",
        "guideLayer": "QUEST_GUIDE_LAYER_SCENE",
        "MLAHIFLGIGJ": ""
      },
      "guideHint": {
        "param1": ""
      },
      "isRewind": true,
      "finishExec": [
        {
          "damageRatio": "QUEST_EXEC_UNREGISTER_DYNAMIC_GROUP",
          "param": [
            "133302776",
            "0"
          ]
        },
        {
          "damageRatio": "QUEST_EXEC_UNLOCK_MIRROR_AVATAR_TEAM"
        },
        {
          "damageRatio": "QUEST_EXEC_SET_IS_GAME_TIME_LOCKED_V2",
          "param": [
            "0"
          ]
        }
      ],
      "failExec": [
        {
          "damageRatio": "QUEST_EXEC_ROLLBACK_QUEST",
          "param": [
            "802101"
          ]
        },
        {
          "damageRatio": "QUEST_EXEC_UNLOCK_MIRROR_AVATAR_TEAM"
        },
        {
          "damageRatio": "QUEST_EXEC_SET_IS_GAME_TIME_LOCKED_V2",
          "param": [
            "0"
          ]
        }
      ],
      "versionBegin": "",
      "versionEnd": ""
    },
    {
      "subId": 802105,
      "mainId": 8021,
      "order": 14,
      "descTextMapHash": 3599204316,
      "JIFODJPFKDF": [
        330413
      ],
      "finishCond": [
        {
          "damageRatio": "QUEST_CONTENT_COMPLETE_TALK",
          "param": [
            802105,
            0
          ]
        }
      ],
      "guide": {
        "damageRatio": "QUEST_GUIDE_LOCATION",
        "param": [
          "[3_330400550:-1122.096,219.765,2705.282,0.000,104.500,0.000]"
        ],
        "guideScene": 3,
        "guideStyle": "QUEST_GUIDE_STYLE_POINT",
        "guideLayer": "QUEST_GUIDE_LAYER_SCENE",
        "MLAHIFLGIGJ": ""
      },
      "guideHint": {
        "param1": ""
      },
      "isRewind": true,
      "versionBegin": "",
      "versionEnd": ""
    },
    {
      "subId": 802106,
      "mainId": 8021,
      "order": 1,
      "descTextMapHash": 1773266012,
      "GDFHNOGBKAG": 4011839709,
      "JIFODJPFKDF": [
        330265
      ],
      "finishCond": [
        {
          "damageRatio": "QUEST_CONTENT_ENTER_DUNGEON",
          "param": [
            1210,
            1288
          ]
        },
        {
          "damageRatio": "QUEST_CONTENT_FINISH_PLOT",
          "param": [
            802106,
            0
          ]
        }
      ],
      "guide": {
        "damageRatio": "QUEST_GUIDE_LOCATION",
        "param": [
          "[20224_1:-875.483,201.380,2644.067,0.000,267.630,0.000]"
        ],
        "guideScene": 20224,
        "MLAHIFLGIGJ": ""
      },
      "guideHint": {
        "param1": ""
      },
      "isRewind": true,
      "versionBegin": "",
      "versionEnd": ""
    },
    {
      "subId": 802107,
      "mainId": 8021,
      "order": 2,
      "descTextMapHash": 783267972,
      "GDFHNOGBKAG": 3192954173,
      "JIFODJPFKDF": [
        330265
      ],
      "finishCond": [
        {
          "damageRatio": "QUEST_CONTENT_COMPLETE_TALK",
          "param": [
            802101,
            0
          ]
        }
      ],
      "guide": {
        "damageRatio": "QUEST_GUIDE_LOCATION",
        "param": [
          "[20224_1:-875.483,201.380,2644.067,0.000,267.630,0.000]",
          "25"
        ],
        "guideScene": 20224,
        "guideStyle": "QUEST_GUIDE_STYLE_POINT",
        "MLAHIFLGIGJ": ""
      },
      "guideHint": {
        "param1": ""
      },
      "isRewind": true,
      "versionBegin": "",
      "versionEnd": ""
    },
    {
      "subId": 802108,
      "mainId": 8021,
      "order": 3,
      "descTextMapHash": 1336024620,
      "GDFHNOGBKAG": 2154467789,
      "JIFODJPFKDF": [
        330265
      ],
      "finishCond": [
        {
          "damageRatio": "QUEST_CONTENT_COMPLETE_TALK",
          "param": [
            802103,
            0
          ]
        }
      ],
      "guide": {
        "damageRatio": "QUEST_GUIDE_LOCATION",
        "param": [
          "[20224_2:-896.657,200.705,2687.233,0.000,345.180,0.000]",
          "25"
        ],
        "guideScene": 20224,
        "guideStyle": "QUEST_GUIDE_STYLE_POINT",
        "MLAHIFLGIGJ": ""
      },
      "guideHint": {
        "param1": ""
      },
      "MEMGANDALKN": "QUEST_HIDDEN",
      "isRewind": true,
      "versionBegin": "",
      "versionEnd": ""
    },
    {
      "subId": 802109,
      "mainId": 8021,
      "order": 4,
      "descTextMapHash": 295035324,
      "GDFHNOGBKAG": 2274159101,
      "JIFODJPFKDF": [
        330265
      ],
      "finishCond": [
        {
          "damageRatio": "QUEST_CONTENT_COMPLETE_TALK",
          "param": [
            802106,
            0
          ]
        }
      ],
      "guide": {
        "damageRatio": "QUEST_GUIDE_LOCATION",
        "param": [
          "[20224_3:-938.540,200.401,2683.117,0.000,299.350,0.000]",
          "25"
        ],
        "guideScene": 20224,
        "guideStyle": "QUEST_GUIDE_STYLE_POINT",
        "MLAHIFLGIGJ": ""
      },
      "guideHint": {
        "param1": ""
      },
      "MEMGANDALKN": "QUEST_HIDDEN",
      "isRewind": true,
      "versionBegin": "",
      "versionEnd": ""
    },
    {
      "subId": 802110,
      "mainId": 8021,
      "order": 5,
      "descTextMapHash": 1801022660,
      "GDFHNOGBKAG": 2276497589,
      "JIFODJPFKDF": [
        330265
      ],
      "finishCond": [
        {
          "damageRatio": "QUEST_CONTENT_COMPLETE_TALK",
          "param": [
            802107,
            0
          ]
        }
      ],
      "guide": {
        "damageRatio": "QUEST_GUIDE_NPC",
        "param": [
          "14313"
        ],
        "guideScene": 20224,
        "MLAHIFLGIGJ": ""
      },
      "guideHint": {
        "param1": ""
      },
      "isRewind": true,
      "versionBegin": "",
      "versionEnd": ""
    },
    {
      "subId": 802111,
      "mainId": 8021,
      "order": 6,
      "descTextMapHash": 2106475652,
      "GDFHNOGBKAG": 2946785005,
      "JIFODJPFKDF": [
        330265
      ],
      "finishCond": [
        {
          "damageRatio": "QUEST_CONTENT_COMPLETE_TALK",
          "param": [
            802108,
            0
          ]
        }
      ],
      "guide": {
        "damageRatio": "QUEST_GUIDE_NPC",
        "param": [
          "14314"
        ],
        "guideScene": 20224,
        "MLAHIFLGIGJ": ""
      },
      "guideHint": {
        "param1": ""
      },
      "isRewind": true,
      "versionBegin": "",
      "versionEnd": ""
    },
    {
      "subId": 802112,
      "mainId": 8021,
      "order": 7,
      "descTextMapHash": 295628684,
      "GDFHNOGBKAG": 1580916965,
      "JIFODJPFKDF": [
        330265
      ],
      "finishCond": [
        {
          "damageRatio": "QUEST_CONTENT_COMPLETE_TALK",
          "param": [
            802119,
            0
          ]
        }
      ],
      "guide": {
        "damageRatio": "QUEST_GUIDE_NPC",
        "param": [
          "1005"
        ],
        "guideScene": 20224,
        "guideStyle": "QUEST_GUIDE_STYLE_POINT",
        "MLAHIFLGIGJ": ""
      },
      "guideHint": {
        "param1": ""
      },
      "versionBegin": "",
      "versionEnd": ""
    },
    {
      "subId": 802113,
      "mainId": 8021,
      "order": 8,
      "descTextMapHash": 1022638972,
      "GDFHNOGBKAG": 951912653,
      "JIFODJPFKDF": [
        330265
      ],
      "finishCond": [
        {
          "damageRatio": "QUEST_CONTENT_COMPLETE_TALK",
          "param": [
            802121,
            0
          ]
        }
      ],
      "guide": {
        "damageRatio": "QUEST_GUIDE_NPC",
        "param": [
          "14075"
        ],
        "guideScene": 20224,
        "MLAHIFLGIGJ": ""
      },
      "guideHint": {
        "param1": ""
      },
      "isRewind": true,
      "finishExec": [
        {
          "damageRatio": "QUEST_EXEC_UNREGISTER_DYNAMIC_GROUP",
          "param": [
            "133302775",
            "0"
          ]
        }
      ],
      "versionBegin": "",
      "versionEnd": ""
    },
    {
      "subId": 802114,
      "mainId": 8021,
      "order": 15,
      "descTextMapHash": 3907732556,
      "JIFODJPFKDF": [
        330263
      ],
      "finishCond": [
        {
          "damageRatio": "QUEST_CONTENT_COMPLETE_TALK",
          "param": [
            802111,
            0
          ]
        }
      ],
      "guide": {
        "damageRatio": "QUEST_GUIDE_NPC",
        "param": [
          "14074"
        ],
        "guideScene": 3,
        "MLAHIFLGIGJ": ""
      },
      "guideHint": {
        "param1": ""
      },
      "isRewind": true,
      "finishExec": [
        {
          "damageRatio": "QUEST_EXEC_SET_QUEST_GLOBAL_VAR",
          "param": [
            "802101",
            "1"
          ]
        },
        {
          "damageRatio": "QUEST_EXEC_UNREGISTER_DYNAMIC_GROUP",
          "param": [
            "133302776",
            "1"
          ]
        }
      ],
      "versionBegin": "",
      "versionEnd": ""
    },
    {
      "subId": 802115,
      "mainId": 8021,
      "order": 10,
      "descTextMapHash": 473199924,
      "showType": "QUEST_HIDDEN",
      "finishCond": [
        {
          "damageRatio": "QUEST_CONTENT_LUA_NOTIFY",
          "param": [
            0,
            0
          ],
          "count": 1
        }
      ],
      "failCond": [
        {
          "damageRatio": "QUEST_CONTENT_QUEST_STATE_EQUAL",
          "param": [
            802104,
            3
          ]
        }
      ],
      "guide": {
        "MLAHIFLGIGJ": ""
      },
      "guideHint": {
        "param1": ""
      },
      "versionBegin": "",
      "versionEnd": ""
    },
    {
      "subId": 802116,
      "mainId": 8021,
      "order": 16,
      "descTextMapHash": 4247304612,
      "showType": "QUEST_HIDDEN",
      "finishCond": [
        {
          "damageRatio": "QUEST_CONTENT_FINISH_PLOT",
          "param": [
            802116,
            0
          ]
        }
      ],
      "guide": {
        "MLAHIFLGIGJ": ""
      },
      "guideHint": {
        "param1": ""
      },
      "finishParent": true,
      "isRewind": true,
      "versionBegin": "",
      "versionEnd": ""
    },
    {
      "subId": 802117,
      "mainId": 8021,
      "order": 17,
      "descTextMapHash": 711092532,
      "showType": "QUEST_HIDDEN",
      "finishCond": [
        {
          "damageRatio": "QUEST_CONTENT_FINISH_PLOT",
          "param": [
            802117,
            0
          ]
        }
      ],
      "guide": {
        "MLAHIFLGIGJ": ""
      },
      "guideHint": {
        "param1": ""
      },
      "finishParent": true,
      "isRewind": true,
      "versionBegin": "",
      "versionEnd": ""
    }
  ],
  "talks": [
    {
      "id": 802101,
      "beginWay": "TALK_BEGIN_MANUAL",
      "beginCond": [
        {
          "type": "QUEST_COND_STATE_EQUAL",
          "_param": [
            "802107",
            "2"
          ]
        }
      ],
      "priority": 5,
      "initDialog": 80210101,
      "npcId": [
        14124
      ],
      "performCfg": "QuestDialogue/AQ/Twins4_8021/Q802101",
      "heroTalk": "TALK_HERO_MAIN",
      "questId": 8021,
      "assetIndex": 17049257005533192920,
      "prePerformCfg": "",
      "CHAKPMBJNAJ": [
        "[20224_1:-875.483,201.380,2644.067,0.000,267.630,0.000]",
        "[20224_10:-872.613,200.483,2649.005,0.000,229.700,0.000]",
        "[20224_8:-876.149,201.626,2642.797,0.000,120.700,0.000]",
        "[20224_9:-874.723,201.130,2645.309,0.000,191.570,0.000]"
      ]
    },
    {
      "id": 802102,
      "beginWay": "TALK_BEGIN_MANUAL",
      "beginCondComb": "LOGIC_A_AND_ETCOR",
      "beginCond": [
        {
          "type": "QUEST_COND_STATE_EQUAL",
          "_param": [
            "802201",
            "2"
          ]
        },
        {
          "type": "QUEST_COND_STATE_EQUAL",
          "_param": [
            "802111",
            "2"
          ]
        },
        {
          "type": "QUEST_COND_STATE_EQUAL",
          "_param": [
            "802112",
            "2"
          ]
        },
        {
          "type": "QUEST_COND_STATE_EQUAL",
          "_param": [
            "802113",
            "2"
          ]
        }
      ],
      "priority": 5,
      "initDialog": 80210201,
      "npcId": [
        14313
      ],
      "performCfg": "QuestDialogue/AQ/Twins4_8021/Q802102",
      "heroTalk": "TALK_HERO_MAIN",
      "questId": 8021,
      "assetIndex": 14341126696863058070,
      "prePerformCfg": ""
    },
    {
      "id": 802103,
      "beginWay": "TALK_BEGIN_MANUAL",
      "beginCond": [
        {
          "type": "QUEST_COND_STATE_EQUAL",
          "_param": [
            "802108",
            "2"
          ]
        }
      ],
      "priority": 5,
      "initDialog": 80210301,
      "npcId": [
        14127
      ],
      "performCfg": "QuestDialogue/AQ/Twins4_8021/Q802103",
      "heroTalk": "TALK_HERO_MAIN",
      "questId": 8021,
      "assetIndex": 2766312792413737463,
      "prePerformCfg": "",
      "CHAKPMBJNAJ": [
        "[20224_11:-895.842,200.835,2691.531,0.000,190.503,0.000]",
        "[20224_12:-898.532,200.596,2687.726,0.000,61.158,0.000]",
        "[20224_13:-894.876,200.984,2688.311,0.000,300.456,0.000]",
        "[20224_2:-896.657,200.705,2687.233,0.000,345.180,0.000]"
      ]
    },
    {
      "id": 802104,
      "beginWay": "TALK_BEGIN_MANUAL",
      "beginCondComb": "LOGIC_AND",
      "beginCond": [
        {
          "type": "QUEST_COND_STATE_EQUAL",
          "_param": [
            "802104",
            "2"
          ]
        },
        {
          "type": "QUEST_COND_PLAYER_CHOOSE_MALE",
          "_param": [
            "1"
          ]
        }
      ],
      "priority": 5,
      "initDialog": 80210401,
      "npcId": [
        1026
      ],
      "performCfg": "QuestDialogue/AQ/Twins4_8021/Q802104",
      "heroTalk": "TALK_HERO_MAIN",
      "questId": 8021,
      "assetIndex": 17646566523637506159,
      "prePerformCfg": "",
      "CHAKPMBJNAJ": [
        "[20226_3:539.068,100.411,521.559,0.000,282.500,0.000]"
      ]
    },
    {
      "id": 802105,
      "beginWay": "TALK_BEGIN_MANUAL",
      "beginCond": [
        {
          "type": "QUEST_COND_STATE_EQUAL",
          "_param": [
            "802105",
            "2"
          ]
        }
      ],
      "priority": 5,
      "initDialog": 80210501,
      "npcId": [
        4329
      ],
      "performCfg": "QuestDialogue/AQ/Twins4_8021/Q802105",
      "heroTalk": "TALK_HERO_MAIN",
      "questId": 8021,
      "assetIndex": 13584070876544095181,
      "prePerformCfg": "",
      "lockGameTime": true,
      "CHAKPMBJNAJ": [
        "[3_330400548:-1120.605,219.809,2704.608,0.000,256.200,0.000]",
        "[3_330400549:-1121.754,219.781,2703.391,0.000,66.100,0.000]",
        "[3_330400550:-1122.096,219.765,2705.282,0.000,104.500,0.000]"
      ]
    },
    {
      "id": 802106,
      "beginWay": "TALK_BEGIN_MANUAL",
      "beginCond": [
        {
          "type": "QUEST_COND_STATE_EQUAL",
          "_param": [
            "802109",
            "2"
          ]
        }
      ],
      "priority": 5,
      "initDialog": 80210601,
      "npcId": [
        14129
      ],
      "performCfg": "QuestDialogue/AQ/Twins4_8021/Q802106",
      "heroTalk": "TALK_HERO_MAIN",
      "questId": 8021,
      "assetIndex": 1942708684746348816,
      "prePerformCfg": "",
      "CHAKPMBJNAJ": [
        "[20224_15:-938.635,200.169,2685.700,0.000,282.668,0.000]",
        "[20224_16:-941.719,200.568,2683.564,0.000,144.351,0.000]",
        "[20224_3:-938.540,200.401,2683.117,0.000,299.350,0.000]"
      ]
    },
    {
      "id": 802107,
      "beginWay": "TALK_BEGIN_MANUAL",
      "beginCondComb": "LOGIC_AND",
      "beginCond": [
        {
          "type": "QUEST_COND_STATE_EQUAL",
          "_param": [
            "802110",
            "2"
          ]
        },
        {
          "type": "QUEST_COND_STATE_EQUAL",
          "_param": [
            "802201",
            "2"
          ]
        }
      ],
      "priority": 5,
      "initDialog": 80210701,
      "npcId": [
        14313
      ],
      "performCfg": "QuestDialogue/AQ/Twins4_8021/Q802107",
      "heroTalk": "TALK_HERO_MAIN",
      "questId": 8021,
      "assetIndex": 11875733919125988357,
      "prePerformCfg": "",
      "CHAKPMBJNAJ": [
        "[20224_18:-1099.046,205.551,2682.876,0.000,340.120,0.000]",
        "[20224_19:-1100.414,205.558,2682.976,0.000,32.100,0.000]",
        "[20224_4:-1099.468,205.560,2684.902,0.000,190.900,0.000]"
      ]
    },
    {
      "id": 802108,
      "beginWay": "TALK_BEGIN_MANUAL",
      "beginCondComb": "LOGIC_AND",
      "beginCond": [
        {
          "type": "QUEST_COND_STATE_EQUAL",
          "_param": [
            "802111",
            "2"
          ]
        },
        {
          "type": "QUEST_COND_STATE_EQUAL",
          "_param": [
            "802201",
            "2"
          ]
        }
      ],
      "priority": 5,
      "nextTalks": [
        802109
      ],
      "initDialog": 80210801,
      "npcId": [
        14314
      ],
      "performCfg": "QuestDialogue/AQ/Twins4_8021/Q802108",
      "heroTalk": "TALK_HERO_MAIN",
      "questId": 8021,
      "assetIndex": 17610823966984820739,
      "prePerformCfg": "",
      "CHAKPMBJNAJ": [
        "[20224_20:-1122.515,221.978,2731.059,0.000,328.050,0.000]",
        "[20224_21:-1123.906,222.024,2730.852,0.000,20.600,0.000]",
        "[20224_5:-1123.451,221.922,2732.951,0.000,175.480,0.000]"
      ]
    },
    {
      "id": 802109,
      "beginWay": "TALK_BEGIN_MANUAL",
      "beginCondComb": "LOGIC_AND",
      "beginCond": [
        {
          "type": "QUEST_COND_STATE_EQUAL",
          "_param": [
            "802112",
            "2"
          ]
        },
        {
          "type": "QUEST_COND_STATE_EQUAL",
          "_param": [
            "802201",
            "2"
          ]
        }
      ],
      "priority": 5,
      "initDialog": 80210901,
      "npcId": [
        1005
      ],
      "performCfg": "QuestDialogue/AQ/Twins4_8021/Q802109",
      "heroTalk": "TALK_HERO_MAIN",
      "questId": 8021,
      "assetIndex": 4518501401712498425,
      "prePerformCfg": "",
      "CHAKPMBJNAJ": [
        "[20224_5:-1123.451,221.922,2732.951,0.000,175.480,0.000]"
      ]
    },
    {
      "id": 802110,
      "beginWay": "TALK_BEGIN_MANUAL",
      "beginCondComb": "LOGIC_AND",
      "beginCond": [
        {
          "type": "QUEST_COND_STATE_EQUAL",
          "_param": [
            "802113",
            "2"
          ]
        },
        {
          "type": "QUEST_COND_STATE_EQUAL",
          "_param": [
            "802201",
            "2"
          ]
        }
      ],
      "priority": 5,
      "initDialog": 80211001,
      "npcId": [
        14075
      ],
      "performCfg": "QuestDialogue/AQ/Twins4_8021/Q802110",
      "heroTalk": "TALK_HERO_MAIN",
      "questId": 8021,
      "assetIndex": 8304825291228893415,
      "prePerformCfg": "",
      "CHAKPMBJNAJ": [
        "[20224_23:-989.625,211.937,2765.557,0.000,234.610,0.000]",
        "[20224_24:-990.559,212.041,2769.901,0.000,171.490,0.000]",
        "[20224_25:-989.056,211.840,2769.609,0.000,194.050,0.000]",
        "[20224_7:-990.766,212.132,2764.638,0.000,59.310,0.000]"
      ]
    },
    {
      "id": 802111,
      "beginWay": "TALK_BEGIN_MANUAL",
      "beginCond": [
        {
          "type": "QUEST_COND_STATE_EQUAL",
          "_param": [
            "802114",
            "2"
          ]
        }
      ],
      "priority": 5,
      "initDialog": 80211101,
      "npcId": [
        14074
      ],
      "performCfg": "QuestDialogue/AQ/Twins4_8021/Q802111",
      "heroTalk": "TALK_HERO_MAIN",
      "questId": 8021,
      "assetIndex": 3863228733285538222,
      "prePerformCfg": "",
      "lockGameTime": true,
      "CHAKPMBJNAJ": [
        "[3_330201540:-985.177,211.474,2757.804,0.000,77.200,0.000]",
        "[3_330400538:-991.094,212.161,2759.292,0.000,91.510,0.000]",
        "[3_330400539:-990.430,212.210,2760.396,0.000,146.660,0.000]"
      ]
    },
    {
      "id": 802112,
      "beginWay": "TALK_BEGIN_MANUAL",
      "beginCond": [
        {
          "type": "QUEST_COND_STATE_EQUAL",
          "_param": [
            "802102",
            "2"
          ]
        }
      ],
      "priority": 5,
      "initDialog": 80211201,
      "npcId": [
        14181
      ],
      "performCfg": "QuestDialogue/AQ/Twins4_8021/Q802112",
      "questId": 8021,
      "assetIndex": 1466120808257935585,
      "prePerformCfg": "",
      "CHAKPMBJNAJ": [
        "[20226_2:596.782,100.030,518.222,0.000,266.960,0.000]"
      ]
    },
    {
      "id": 802113,
      "beginWay": "TALK_BEGIN_MANUAL",
      "beginCondComb": "LOGIC_AND",
      "beginCond": [
        {
          "type": "QUEST_COND_STATE_EQUAL",
          "_param": [
            "802104",
            "2"
          ]
        },
        {
          "type": "QUEST_COND_PLAYER_CHOOSE_MALE",
          "_param": [
            "0"
          ]
        }
      ],
      "priority": 5,
      "initDialog": 80210401,
      "npcId": [
        1025
      ],
      "performCfg": "QuestDialogue/AQ/Twins4_8021/Q802113",
      "questId": 8021,
      "assetIndex": 4390726659349406523,
      "prePerformCfg": "",
      "CHAKPMBJNAJ": [
        "[20226_3:539.068,100.411,521.559,0.000,282.500,0.000]"
      ]
    },
    {
      "id": 802117,
      "priority": 5,
      "initDialog": 80211701,
      "npcId": [
        1005
      ],
      "performCfg": "QuestDialogue/AQ/Twins4_8021/Q802117",
      "heroTalk": "TALK_HERO_MAIN",
      "questId": 8021,
      "assetIndex": 6070570120119387057,
      "prePerformCfg": "",
      "CHAKPMBJNAJ": [
        "[20224_6:-1135.502,223.982,2717.051,0.000,116.990,0.000]"
      ]
    },
    {
      "id": 802118,
      "priority": 5,
      "initDialog": 80211801,
      "npcId": [
        1005
      ],
      "performCfg": "QuestDialogue/AQ/Twins4_8021/Q802118",
      "heroTalk": "TALK_HERO_MAIN",
      "questId": 8021,
      "assetIndex": 16849944074243095645,
      "prePerformCfg": ""
    },
    {
      "id": 802119,
      "priority": 5,
      "initDialog": 80211901,
      "npcId": [
        14074
      ],
      "performCfg": "QuestDialogue/AQ/Twins4_8021/Q802119",
      "heroTalk": "TALK_HERO_MAIN",
      "questId": 8021,
      "assetIndex": 17498681027254280020,
      "prePerformCfg": "",
      "lockGameTime": true,
      "CHAKPMBJNAJ": [
        "[20224_6:-1135.502,223.982,2717.051,0.000,116.990,0.000]"
      ]
    },
    {
      "id": 802121,
      "priority": 5,
      "initDialog": 80212101,
      "npcId": [
        14075
      ],
      "performCfg": "QuestDialogue/AQ/Twins4_8021/Q802121",
      "heroTalk": "TALK_HERO_MAIN",
      "questId": 8021,
      "assetIndex": 13468122084113554994,
      "prePerformCfg": ""
    },
    {
      "id": 802122,
      "beginWay": "TALK_BEGIN_MANUAL",
      "beginCond": [
        {
          "type": "QUEST_COND_STATE_EQUAL",
          "_param": [
            "802102",
            "2"
          ]
        }
      ],
      "priority": 5,
      "initDialog": 80212201,
      "npcId": [
        14075
      ],
      "performCfg": "QuestDialogue/AQ/Twins4_8021/Q802122",
      "heroTalk": "TALK_HERO_MAIN",
      "questId": 8021,
      "assetIndex": 4329703901556035231,
      "prePerformCfg": "",
      "CHAKPMBJNAJ": [
        "[20226_1:537.514,100.500,522.114,0.000,258.600,0.000]",
        "[20226_3:539.068,100.411,521.559,0.000,282.500,0.000]"
      ]
    }
  ],
  "preloadLuaList": [
    14457059026087496718,
    13186006514614174286,
    7571281633863673160
  ],
  "forcePreloadLuaList": [
    8924745977471959153
  ],
  "freeStyleDic": {
    "14124": [
      6
    ],
    "14125": [
      7
    ],
    "14126": [
      7
    ],
    "14127": [
      7
    ],
    "14128": [
      5
    ],
    "14129": [
      6
    ],
    "14130": [
      6
    ],
    "14075": [
      1130
    ],
    "14074": [
      1160
    ]
  },
  "dialogList": [
    {
      "id": 80210106,
      "nextDialogs": [
        80210107
      ],
      "talkRole": {
        "type": "TALK_ROLE_NPC",
        "_id": "14075"
      },
      "talkContentTextMapHash": 2555216530,
      "talkRoleNameTextMapHash": 2679162091,
      "talkAssetPath": "",
      "talkAssetPathAlter": "",
      "talkAudioName": "",
      "actionBefore": "",
      "actionWhile": "",
      "actionAfter": "",
      "optionIcon": "",
      "iconPath": ""
    },
    {
      "id": 80210107,
      "talkRole": {
        "type": "TALK_ROLE_NPC",
        "_id": "14075"
      },
      "talkContentTextMapHash": 310149538,
      "talkRoleNameTextMapHash": 1652795659,
      "talkAssetPath": "",
      "talkAssetPathAlter": "",
      "talkAudioName": "",
      "actionBefore": "",
      "actionWhile": "",
      "actionAfter": "",
      "optionIcon": "",
      "iconPath": ""
    },
    {
      "id": 80210303,
      "nextDialogs": [
        80210304
      ],
      "talkRole": {
        "type": "TALK_ROLE_NPC",
        "_id": "14075"
      },
      "talkContentTextMapHash": 3003332234,
      "talkRoleNameTextMapHash": 1109524267,
      "talkAssetPath": "",
      "talkAssetPathAlter": "",
      "talkAudioName": "",
      "actionBefore": "",
      "actionWhile": "",
      "actionAfter": "",
      "optionIcon": "",
      "iconPath": ""
    },
    {
      "id": 80210304,
      "talkRole": {
        "type": "TALK_ROLE_NPC",
        "_id": "14075"
      },
      "talkContentTextMapHash": 1830440018,
      "talkRoleNameTextMapHash": 139518419,
      "talkAssetPath": "",
      "talkAssetPathAlter": "",
      "talkAudioName": "",
      "actionBefore": "",
      "actionWhile": "",
      "actionAfter": "",
      "optionIcon": "",
      "iconPath": ""
    },
    {
      "id": 80210603,
      "nextDialogs": [
        80210604
      ],
      "talkRole": {
        "type": "TALK_ROLE_NPC",
        "_id": "14075"
      },
      "talkContentTextMapHash": 2386287578,
      "talkRoleNameTextMapHash": 3613636691,
      "talkAssetPath": "",
      "talkAssetPathAlter": "",
      "talkAudioName": "",
      "actionBefore": "",
      "actionWhile": "",
      "actionAfter": "",
      "optionIcon": "",
      "iconPath": ""
    },
    {
      "id": 80210604,
      "talkRole": {
        "type": "TALK_ROLE_NPC",
        "_id": "14075"
      },
      "talkContentTextMapHash": 2072476514,
      "talkRoleNameTextMapHash": 2258857227,
      "talkAssetPath": "",
      "talkAssetPathAlter": "",
      "talkAudioName": "",
      "actionBefore": "",
      "actionWhile": "",
      "actionAfter": "",
      "optionIcon": "",
      "iconPath": ""
    },
    {
      "id": 80219804,
      "talkRole": {
        "type": "TALK_ROLE_PLAYER",
        "_id": ""
      },
      "talkAssetPath": "",
      "talkAssetPathAlter": "",
      "talkAudioName": "",
      "actionBefore": "",
      "actionWhile": "",
      "actionAfter": "",
      "optionIcon": "",
      "iconPath": ""
    },
    {
      "id": 80219814,
      "talkRole": {
        "type": "TALK_ROLE_PLAYER",
        "_id": ""
      },
      "talkAssetPath": "",
      "talkAssetPathAlter": "",
      "talkAudioName": "",
      "actionBefore": "",
      "actionWhile": "",
      "actionAfter": "",
      "optionIcon": "",
      "iconPath": ""
    }
  ],
  "LNMELPHNIDD": true
}