{
  "id": 8022,
  "resId": 1025,
  "series": 1406,
  "descTextMapHash": 571237727,
  "EKEKACCODOE": 3669480750,
  "luaPath": "Actor/Quest/AQ8022",
  "showType": "QUEST_HIDDEN",
  "chapterId": 1406,
  "NAOFGBNMCCI": true,
  "BONJIMPOJLG": true,
  "subQuests": [
    {
      "subId": 802201,
      "mainId": 8022,
      "order": 1,
      "descTextMapHash": 876880204,
      "showType": "QUEST_HIDDEN",
      "finishCond": [
        {
          "damageRatio": "QUEST_CONTENT_QUEST_STATE_EQUAL",
          "param": [
            802113,
            3
          ]
        }
      ],
      "failCond": [
        {
          "damageRatio": "QUEST_CONTENT_LEAVE_SCENE",
          "param": [
            20224,
            0
          ]
        }
      ],
      "guide": {
        "MLAHIFLGIGJ": ""
      },
      "guideHint": {
        "param1": ""
      },
      "finishParent": true,
      "isRewind": true,
      "failExec": [
        {
          "damageRatio": "QUEST_EXEC_SET_IS_GAME_TIME_LOCKED_V2",
          "param": [
            "0"
          ]
        }
      ],
      "versionBegin": "",
      "versionEnd": ""
    },
    {
      "subId": 802202,
      "mainId": 8022,
      "order": 3,
      "descTextMapHash": 2745206524,
      "showType": "QUEST_HIDDEN",
      "finishCond": [
        {
          "damageRatio": "QUEST_CONTENT_QUEST_STATE_EQUAL",
          "param": [
            802113,
            3
          ]
        }
      ],
      "failCond": [
        {
          "damageRatio": "QUEST_CONTENT_LUA_NOTIFY",
          "param": [
            0,
            0
          ],
          "count": 1
        }
      ],
      "guide": {
        "MLAHIFLGIGJ": ""
      },
      "guideHint": {
        "param1": ""
      },
      "finishParent": true,
      "isRewind": true,
      "versionBegin": "",
      "versionEnd": ""
    },
    {
      "subId": 802203,
      "mainId": 8022,
      "order": 2,
      "descTextMapHash": 1708882372,
      "showType": "QUEST_HIDDEN",
      "finishCond": [
        {
          "damageRatio": "QUEST_CONTENT_QUEST_STATE_EQUAL",
          "param": [
            802113,
            3
          ]
        }
      ],
      "failCond": [
        {
          "damageRatio": "QUEST_CONTENT_ENTER_DUNGEON",
          "param": [
            1210,
            1288
          ]
        },
        {
          "damageRatio": "QUEST_CONTENT_NOT_FINISH_PLOT",
          "param": [
            802203,
            0
          ]
        }
      ],
      "guide": {
        "MLAHIFLGIGJ": ""
      },
      "guideHint": {
        "param1": ""
      },
      "finishParent": true,
      "isRewind": true,
      "failExec": [
        {
          "damageRatio": "QUEST_EXEC_ROLLBACK_QUEST",
          "param": [
            "802201"
          ]
        },
        {
          "damageRatio": "QUEST_EXEC_SET_GAME_TIME",
          "param": [
            "17"
          ]
        },
        {
          "damageRatio": "QUEST_EXEC_SET_IS_GAME_TIME_LOCKED_V2",
          "param": [
            "1"
          ]
        }
      ],
      "versionBegin": "",
      "versionEnd": ""
    }
  ],
  "preloadLuaList": [
    6654752379462554597,
    15134104941917665118,
    14908700445902549378
  ],
  "forcePreloadLuaList": [
    173931655227648550
  ],
  "LNMELPHNIDD": true
}