{
  "id": 996,
  "damageRatio": "WQ",
  "descTextMapHash": 1903697617,
  "luaPath": "Actor/Quest/SQ996",
  "subQuests": [
    {
      "subId": 99601,
      "mainId": 996,
      "order": 1,
      "descTextMapHash": 3683323503,
      "finishCond": [
        {
          "damageRatio": "QUEST_CONTENT_FINISH_PLOT",
          "param": [
            0,
            0
          ]
        }
      ],
      "guide": {
        "damageRatio": "QUEST_GUIDE_LOCATION",
        "param": [
          "QuestChurchMark"
        ],
        "MLAHIFLGIGJ": ""
      },
      "guideHint": {
        "param1": ""
      },
      "isRewind": true,
      "versionBegin": "",
      "versionEnd": ""
    },
    {
      "subId": 99602,
      "mainId": 996,
      "order": 2,
      "descTextMapHash": 544559735,
      "finishCond": [
        {
          "damageRatio": "QUEST_CONTENT_FINISH_PLOT",
          "param": [
            0,
            0
          ]
        }
      ],
      "guide": {
        "damageRatio": "QUEST_GUIDE_LOCATION",
        "param": [
          "QuestChurchMark"
        ],
        "MLAHIFLGIGJ": ""
      },
      "guideHint": {
        "param1": ""
      },
      "finishParent": true,
      "isRewind": true,
      "versionBegin": "",
      "versionEnd": ""
    },
    {
      "subId": 99603,
      "mainId": 996,
      "order": 3,
      "descTextMapHash": 2065715455,
      "JIFODJPFKDF": [
        1009
      ],
      "finishCond": [
        {
          "damageRatio": "QUEST_CONTENT_FINISH_PLOT",
          "param": [
            99603,
            0
          ]
        },
        {
          "damageRatio": "QUEST_CONTENT_UNLOCK_TRANS_POINT",
          "param": [
            3,
            305
          ]
        }
      ],
      "guide": {
        "MLAHIFLGIGJ": ""
      },
      "guideHint": {
        "param1": ""
      },
      "isRewind": true,
      "versionBegin": "",
      "versionEnd": ""
    },
    {
      "subId": 99604,
      "mainId": 996,
      "order": 4,
      "descTextMapHash": 1617499799,
      "JIFODJPFKDF": [
        1009
      ],
      "finishCond": [
        {
          "damageRatio": "QUEST_CONTENT_FINISH_PLOT",
          "param": [
            99604,
            0
          ]
        },
        {
          "damageRatio": "QUEST_CONTENT_OBTAIN_ITEM",
          "param": [
            108103,
            0
          ],
          "count": 1
        }
      ],
      "guide": {
        "MLAHIFLGIGJ": ""
      },
      "guideHint": {
        "param1": ""
      },
      "isRewind": true,
      "versionBegin": "",
      "versionEnd": ""
    }
  ],
  "talks": [
    {
      "id": 99602,
      "beginWay": "TALK_BEGIN_MANUAL",
      "beginCond": [
        {
          "type": "QUEST_COND_STATE_EQUAL",
          "_param": [
            "99602",
            "2"
          ]
        }
      ],
      "priority": 3,
      "initDialog": 9960201,
      "npcId": [
        1587
      ],
      "performCfg": "",
      "questId": 996,
      "assetIndex": 18092555303013333976,
      "prePerformCfg": ""
    },
    {
      "id": 99603,
      "beginWay": "TALK_BEGIN_MANUAL",
      "beginCond": [
        {
          "type": "QUEST_COND_STATE_EQUAL",
          "_param": [
            "99601",
            "2"
          ]
        }
      ],
      "priority": 3,
      "initDialog": 9960301,
      "npcId": [
        1587
      ],
      "performCfg": "",
      "questId": 996,
      "assetIndex": 9105200063099470164,
      "dontBlockDaily": true,
      "prePerformCfg": ""
    }
  ],
  "preloadLuaList": [
    5575916732172504491
  ]
}