{
  "target": "Caster",
  "otherTargets": {
    "$type": "BKNGMMMHDPL",
    "topLimit": -2
  },
  "KJLKOGKCGLG": {
    "y": 6.187877883519889e-36
  },
  "GGHMICHNDIL": {
    "x": 3.791199318557781e-37
  },
  "LFOOGABNLEP": true
}