{
  "luaDataPath": "",
  "isSimpleTalk": true,
  "startBlackKeepTime": 1.0,
  "entityBan": "",
  "disableNpcLod": true,
  "startFade": {
    "startFadeInDuration": 0.5,
    "startFadeOutDuration": 0.5
  },
  "endFade": {
    "startFadeOutDuration": 0.0
  },
  "actors": [
    {
      "alias": "Avatar",
      "visible": true,
      "bornPointName": "",
      "relativePosNpcAlias": "",
      "_bindMovingTargetKey": ""
    },
    {
      "configID": 3041,
      "alias": "3041",
      "visible": true,
      "bornPointName": "Q22015_shanhu",
      "relativePosNpcAlias": "",
      "_bindMovingTargetKey": ""
    },
    {
      "configID": 3042,
      "alias": "3042",
      "visible": true,
      "bornPointName": "Q22019tianye",
      "removeActorType": "REMOVE",
      "forceCreateDaily": true,
      "relativePosNpcAlias": "",
      "_bindMovingTargetKey": ""
    }
  ],
  "group": [
    [
      {
        "$type": "FJKIHHKJLMJ",
        "type": "CAMERA_FOCUS",
        "delayTime": 0.30000001192092896,
        "duration": 0.10000000149011612,
        "targetNpcAlias": "",
        "KJOEFBPOIIH": "",
        "IICFKKEBIEC": "",
        "EGEHEJEBLBJ": ""
      },
      {
        "$type": "MoleMole.Config.ConfigTimeProtectAction",
        "type": "TIME_PROTECT",
        "duration": 0.4000000059604645
      }
    ],
    [
      {
        "$type": "PKKMAMONGEO",
        "type": "DIALOG",
        "aliasList": [
          "3041"
        ],
        "dialogID": 220181901,
        "protectTime": 0.5
      }
    ],
    [
      {
        "$type": "PKKMAMONGEO",
        "type": "DIALOG",
        "aliasList": [
          "3041"
        ],
        "dialogID": 220181902,
        "protectTime": 0.5
      },
      {
        "$type": "FABLGECDBCH",
        "type": "BODY_LANG",
        "aliasList": [
          "3041"
        ],
        "bodyLangParam": 1130,
        "forceDoFreeStyle": true,
        "canDoRepeatFreeStyle": false,
        "eventPatternSuiteKey": "",
        "FOHHKFAIAAJ": ""
      }
    ],
    [
      {
        "$type": "PKKMAMONGEO",
        "type": "DIALOG",
        "aliasList": [
          "3041"
        ],
        "dialogID": 220181903,
        "protectTime": 0.5
      }
    ],
    [
      {
        "$type": "PKKMAMONGEO",
        "type": "DIALOG",
        "aliasList": [
          "3041"
        ],
        "dialogID": 220181904,
        "protectTime": 0.5
      }
    ],
    [
      {
        "$type": "HDGKHDNFMIM",
        "type": "DIALOG_SELECT",
        "delayTime": 0.4000000059604645,
        "aliasList": [
          "Avatar"
        ],
        "dialogIDList": [
          220181906,
          220181909
        ],
        "grpIDList": [
          1057100256,
          1057100258
        ],
        "useGrpId": true
      },
      {
        "$type": "PKKMAMONGEO",
        "type": "DIALOG",
        "aliasList": [
          "3041"
        ],
        "dialogID": 220181905,
        "protectTime": 0.5
      }
    ],
    [
      {
        "$type": "PKKMAMONGEO",
        "type": "DIALOG",
        "aliasList": [
          "3041"
        ],
        "dialogID": 220181907,
        "protectTime": 0.5
      },
      {
        "$type": "FABLGECDBCH",
        "type": "BODY_LANG",
        "aliasList": [
          "3041"
        ],
        "bodyLangParam": 1120,
        "forceDoFreeStyle": true,
        "canDoRepeatFreeStyle": false,
        "eventPatternSuiteKey": "",
        "FOHHKFAIAAJ": ""
      }
    ],
    [
      {
        "$type": "PKKMAMONGEO",
        "type": "DIALOG",
        "aliasList": [
          "3041"
        ],
        "dialogID": 220181908,
        "protectTime": 0.5
      }
    ],
    [
      {
        "$type": "PKKMAMONGEO",
        "type": "DIALOG",
        "aliasList": [
          "3041"
        ],
        "dialogID": 220181910,
        "protectTime": 0.5
      }
    ],
    [
      {
        "$type": "PKKMAMONGEO",
        "type": "DIALOG",
        "aliasList": [
          "3041"
        ],
        "dialogID": 220181911,
        "protectTime": 0.5
      }
    ],
    [
      {
        "$type": "PKKMAMONGEO",
        "type": "DIALOG",
        "aliasList": [
          "3041"
        ],
        "dialogID": 220181912,
        "protectTime": 0.5
      },
      {
        "$type": "FABLGECDBCH",
        "type": "BODY_LANG",
        "aliasList": [
          "3041"
        ],
        "bodyLangParam": 1172,
        "forceDoFreeStyle": true,
        "canDoRepeatFreeStyle": false,
        "eventPatternSuiteKey": "",
        "FOHHKFAIAAJ": ""
      }
    ],
    [
      {
        "$type": "PKKMAMONGEO",
        "type": "DIALOG",
        "aliasList": [
          "3041"
        ],
        "dialogID": 220181913,
        "protectTime": 0.5
      }
    ],
    [
      {
        "$type": "HDGKHDNFMIM",
        "type": "DIALOG_SELECT",
        "delayTime": 0.4000000059604645,
        "aliasList": [
          "Avatar"
        ],
        "dialogIDList": [
          220181915,
          220181916
        ],
        "grpIDList": [
          2705336730,
          2705336730
        ],
        "useGrpId": true
      },
      {
        "$type": "PKKMAMONGEO",
        "type": "DIALOG",
        "aliasList": [
          "3041"
        ],
        "dialogID": 220181914,
        "protectTime": 0.5
      }
    ],
    [
      {
        "$type": "PKKMAMONGEO",
        "type": "DIALOG",
        "aliasList": [
          "3041"
        ],
        "dialogID": 220181917,
        "protectTime": 0.5
      },
      {
        "$type": "FABLGECDBCH",
        "type": "BODY_LANG",
        "aliasList": [
          "3041"
        ],
        "bodyLangParam": 1120,
        "forceDoFreeStyle": true,
        "canDoRepeatFreeStyle": false,
        "eventPatternSuiteKey": "",
        "FOHHKFAIAAJ": ""
      }
    ],
    [
      {
        "$type": "HDGKHDNFMIM",
        "type": "DIALOG_SELECT",
        "delayTime": 0.4000000059604645,
        "aliasList": [
          "Avatar"
        ],
        "dialogIDList": [
          220181919
        ],
        "grpIDList": [
          2705336732
        ],
        "useGrpId": true
      },
      {
        "$type": "PKKMAMONGEO",
        "type": "DIALOG",
        "aliasList": [
          "3041"
        ],
        "dialogID": 220181918,
        "protectTime": 0.5
      }
    ],
    [
      {
        "$type": "PKKMAMONGEO",
        "type": "DIALOG",
        "aliasList": [
          "3041"
        ],
        "dialogID": 220181920,
        "protectTime": 0.5
      }
    ],
    [
      {
        "$type": "PKKMAMONGEO",
        "type": "DIALOG",
        "aliasList": [
          "3041"
        ],
        "dialogID": 220181921,
        "protectTime": 0.5
      },
      {
        "$type": "FABLGECDBCH",
        "type": "BODY_LANG",
        "aliasList": [
          "3041"
        ],
        "bodyLangParam": 1030,
        "forceDoFreeStyle": true,
        "canDoRepeatFreeStyle": false,
        "eventPatternSuiteKey": "",
        "FOHHKFAIAAJ": ""
      }
    ],
    [
      {
        "$type": "PKKMAMONGEO",
        "type": "DIALOG",
        "aliasList": [
          "3041"
        ],
        "dialogID": 220181922,
        "protectTime": 0.5
      }
    ],
    [
      {
        "$type": "PKKMAMONGEO",
        "type": "DIALOG",
        "aliasList": [
          "3041"
        ],
        "dialogID": 220181923,
        "protectTime": 0.5
      }
    ],
    [
      {
        "$type": "PKKMAMONGEO",
        "type": "DIALOG",
        "aliasList": [
          "3041"
        ],
        "dialogID": 220181924,
        "protectTime": 0.5
      },
      {
        "$type": "FABLGECDBCH",
        "type": "BODY_LANG",
        "aliasList": [
          "3041"
        ],
        "bodyLangParam": 1172,
        "forceDoFreeStyle": true,
        "canDoRepeatFreeStyle": false,
        "eventPatternSuiteKey": "",
        "FOHHKFAIAAJ": ""
      }
    ],
    [
      {
        "$type": "PKKMAMONGEO",
        "type": "DIALOG",
        "aliasList": [
          "3041"
        ],
        "dialogID": 220181925,
        "protectTime": 0.5
      }
    ],
    [
      {
        "$type": "PKKMAMONGEO",
        "type": "DIALOG",
        "aliasList": [
          "3041"
        ],
        "dialogID": 220181926,
        "protectTime": 0.5
      }
    ],
    [
      {
        "$type": "HDGKHDNFMIM",
        "type": "DIALOG_SELECT",
        "delayTime": 0.4000000059604645,
        "aliasList": [
          "Avatar"
        ],
        "dialogIDList": [
          220181928
        ],
        "grpIDList": [
          2705336761
        ],
        "useGrpId": true
      },
      {
        "$type": "PKKMAMONGEO",
        "type": "DIALOG",
        "aliasList": [
          "3041"
        ],
        "dialogID": 220181927,
        "protectTime": 0.5
      }
    ],
    [
      {
        "$type": "PKKMAMONGEO",
        "type": "DIALOG",
        "aliasList": [
          "3041"
        ],
        "dialogID": 220181929,
        "protectTime": 0.5
      },
      {
        "$type": "FABLGECDBCH",
        "type": "BODY_LANG",
        "aliasList": [
          "3041"
        ],
        "bodyLangParam": 1120,
        "forceDoFreeStyle": true,
        "canDoRepeatFreeStyle": false,
        "eventPatternSuiteKey": "",
        "FOHHKFAIAAJ": ""
      }
    ],
    [
      {
        "$type": "PKKMAMONGEO",
        "type": "DIALOG",
        "aliasList": [
          "3041"
        ],
        "dialogID": 220181930,
        "protectTime": 0.5
      }
    ],
    [
      {
        "$type": "PKKMAMONGEO",
        "type": "DIALOG",
        "aliasList": [
          "3041"
        ],
        "dialogID": 220181931,
        "protectTime": 0.5
      }
    ],
    [
      {
        "$type": "PKKMAMONGEO",
        "type": "DIALOG",
        "aliasList": [
          "3041"
        ],
        "dialogID": 220181932,
        "protectTime": 0.5
      },
      {
        "$type": "FABLGECDBCH",
        "type": "BODY_LANG",
        "aliasList": [
          "3041"
        ],
        "isContinue": true,
        "forceDoFreeStyle": true,
        "canDoRepeatFreeStyle": false,
        "eventPatternSuiteKey": "",
        "FOHHKFAIAAJ": ""
      }
    ],
    [
      {
        "$type": "MoleMole.Config.ConfigTimeProtectAction",
        "type": "TIME_PROTECT",
        "duration": 0.10000000149011612
      }
    ]
  ],
  "groupId": [
    {
      "grpId": 1057100250,
      "nextGrpId": 1057100251
    },
    {
      "index": 1,
      "grpId": 1057100251,
      "nextGrpId": 1057100252
    },
    {
      "index": 2,
      "grpId": 1057100252,
      "nextGrpId": 1057100253
    },
    {
      "index": 3,
      "grpId": 1057100253,
      "nextGrpId": 1057100254
    },
    {
      "index": 4,
      "grpId": 1057100254,
      "nextGrpId": 1057100255
    },
    {
      "index": 5,
      "grpId": 1057100255,
      "nextGrpId": 1057100256
    },
    {
      "index": 6,
      "grpId": 1057100256,
      "nextGrpId": 1057100257
    },
    {
      "index": 7,
      "grpId": 1057100257,
      "nextGrpId": 1057100258
    },
    {
      "index": 8,
      "grpId": 1057100258,
      "nextGrpId": 2705336726
    },
    {
      "index": 9,
      "grpId": 2705336726,
      "nextGrpId": 2705336727
    },
    {
      "index": 10,
      "grpId": 2705336727,
      "nextGrpId": 2705336728
    },
    {
      "index": 11,
      "grpId": 2705336728,
      "nextGrpId": 2705336729
    },
    {
      "index": 12,
      "grpId": 2705336729,
      "nextGrpId": 2705336730
    },
    {
      "index": 13,
      "grpId": 2705336730,
      "nextGrpId": 2705336731
    },
    {
      "index": 14,
      "grpId": 2705336731,
      "nextGrpId": 2705336732
    },
    {
      "index": 15,
      "grpId": 2705336732,
      "nextGrpId": 2705336733
    },
    {
      "index": 16,
      "grpId": 2705336733,
      "nextGrpId": 2705336734
    },
    {
      "index": 17,
      "grpId": 2705336734,
      "nextGrpId": 2705336735
    },
    {
      "index": 18,
      "grpId": 2705336735,
      "nextGrpId": 2705336757
    },
    {
      "index": 19,
      "grpId": 2705336757,
      "nextGrpId": 2705336758
    },
    {
      "index": 20,
      "grpId": 2705336758,
      "nextGrpId": 2705336759
    },
    {
      "index": 21,
      "grpId": 2705336759,
      "nextGrpId": 2705336760
    },
    {
      "index": 22,
      "grpId": 2705336760,
      "nextGrpId": 2705336761
    },
    {
      "index": 23,
      "grpId": 2705336761,
      "nextGrpId": 2705336762
    },
    {
      "index": 24,
      "grpId": 2705336762,
      "nextGrpId": 2705336763
    },
    {
      "index": 25,
      "grpId": 2705336763,
      "nextGrpId": 2705336764
    },
    {
      "index": 26,
      "grpId": 2705336764,
      "nextGrpId": 2705336765
    },
    {
      "index": 27,
      "grpId": 2705336765,
      "nextGrpId": 2705336766
    }
  ],
  "freeStyleDic": {
    "3041": [
      1130,
      1120,
      1172,
      1030
    ],
    "3042": []
  }
}