{
  "luaDataPath": "",
  "entityBan": "",
  "disableNpcLod": true,
  "protectNpcMobileLod": true,
  "talkFlag": 7,
  "startFade": {
    "startFadeOutDuration": 0.0
  },
  "endFade": {
    "startFadeOutDuration": 0.0
  },
  "actors": [
    {
      "alias": "Avatar",
      "visible": true,
      "bornPointName": "",
      "relativePosType": "AVATAR_NEW",
      "relativePosNpcAlias": "",
      "_notDestroyInTalk": true,
      "_bindMovingTargetKey": ""
    },
    {
      "configID": 1050,
      "alias": "1050",
      "visible": true,
      "bornPointName": "",
      "relativePosType": "AVATAR_NEW",
      "relativePosNpcAlias": "",
      "_notDestroyInTalk": true,
      "_bindMovingTargetKey": ""
    }
  ],
  "group": [
    [
      {
        "$type": "DNOIKEDAKBN",
        "type": "CAMERA_FOCUS",
        "duration": 0.10000000149011612,
        "actionId": 103,
        "targetNpcAlias": "",
        "FPHOLHODOFL": "",
        "JOAEMNHLBAH": "",
        "DMBMJMEHOBJ": ""
      },
      {
        "$type": "MoleMole.Config.ConfigTimeProtectAction",
        "type": "TIME_PROTECT",
        "duration": 0.10000000149011612,
        "actionId": 104
      },
      {
        "$type": "MFLLBDNLNBG",
        "type": "STEER_TO",
        "delayTime": 0.30000001192092896,
        "duration": 0.800000011920929,
        "aliasList": [
          "Avatar"
        ],
        "actionId": 108,
        "_flag": 32,
        "steerType": "TO_TARGET_ADVANCED",
        "useSteerAnim": true,
        "interruptFreestyle": true,
        "forceSteer": true,
        "targetNpcAlias": "1050",
        "fixInterNull": true,
        "APKIBBLJLON": ""
      },
      {
        "$type": "MFLLBDNLNBG",
        "type": "STEER_TO",
        "delayTime": 0.30000001192092896,
        "duration": 0.800000011920929,
        "aliasList": [
          "1050"
        ],
        "actionId": 109,
        "_flag": 32,
        "steerType": "TO_LOCAL_AVATAR_ADVANCED",
        "useSteerAnim": true,
        "interruptFreestyle": true,
        "forceSteer": true,
        "targetNpcAlias": "",
        "fixInterNull": true,
        "APKIBBLJLON": ""
      },
      {
        "$type": "KMKDFCOPMLP",
        "type": "LOOK_AT",
        "aliasList": [
          "Avatar"
        ],
        "actionId": 111,
        "_flag": 64,
        "enableHead": true,
        "headTurnTime": 0.5,
        "targetNpcAlias": "1050",
        "openBackProtect": true,
        "backProtectAngle": 10.0,
        "targetNpcLookAtPoint": "",
        "APKIBBLJLON": ""
      },
      {
        "$type": "KMKDFCOPMLP",
        "type": "LOOK_AT",
        "aliasList": [
          "1050"
        ],
        "actionId": 112,
        "_flag": 64,
        "enableHead": true,
        "headTurnTime": 0.5,
        "targetNpcAlias": "Avatar",
        "openBackProtect": true,
        "backProtectAngle": 10.0,
        "targetNpcLookAtPoint": "",
        "APKIBBLJLON": ""
      }
    ],
    [
      {
        "$type": "NDPINFEKFAN",
        "type": "DIALOG",
        "aliasList": [
          "1050"
        ],
        "actionId": 107,
        "dialogID": 140370401,
        "protectTime": 0.5
      },
      {
        "$type": "AHHBJGEHACH",
        "type": "BODY_LANG",
        "aliasList": [
          "1050"
        ],
        "actionId": 114,
        "_flag": 131072,
        "bodyLangParam": 1172,
        "forceDoFreeStyle": true,
        "canDoRepeatFreeStyle": false,
        "cantBackToIdleWhenSitLoop": true,
        "eventPatternSuiteKey": ""
      },
      {
        "$type": "KNDPHIODCAO",
        "type": "EMO_SYNC",
        "aliasList": [
          "1050"
        ],
        "actionId": 115,
        "_flag": 320,
        "dataPath": "Cs_Emo_Avatar_Simple_Common_Set/Cs_Emo_Avatar_Talk/Cs_Emo_Avatar_PersonalLine/Cs_Emo_Avatar_Emilie/Cs_Emo_140370401",
        "phonemePath": "",
        "emotionPath": "",
        "mateDataPath": "",
        "matePhonemePath": "",
        "mateEmotionPath": "",
        "dataPathHashList": [
          8166955239941892625,
          5230873934281280394,
          26721799089123873,
          3184184630345250429
        ],
        "LGOOHJOPJOJ": "",
        "HCHELJAGBIB": ""
      }
    ],
    [
      {
        "$type": "MoleMole.Config.ConfigTimeProtectAction",
        "type": "TIME_PROTECT",
        "duration": 0.10000000149011612,
        "actionId": 105
      },
      {
        "$type": "MFLLBDNLNBG",
        "type": "STEER_TO",
        "duration": 1.0,
        "aliasList": [
          "1050"
        ],
        "actionId": 110,
        "_flag": 32,
        "steerType": "RETURN",
        "useSteerAnim": true,
        "interruptFreestyle": true,
        "forceSteer": true,
        "targetNpcAlias": "",
        "ignoreY": true,
        "fixInterNull": true,
        "APKIBBLJLON": ""
      },
      {
        "$type": "KMKDFCOPMLP",
        "type": "LOOK_AT",
        "aliasList": [
          "1050"
        ],
        "actionId": 113,
        "_flag": 64,
        "headTurnTime": 0.5,
        "targetNpcAlias": "",
        "openBackProtect": true,
        "backProtectAngle": 10.0,
        "targetNpcLookAtPoint": "",
        "APKIBBLJLON": ""
      }
    ]
  ],
  "groupId": [
    {
      "grpId": 4069194506,
      "nextGrpId": 4069194507,
      "_noCircleNextGrpId": 4069194507
    },
    {
      "index": 1,
      "grpId": 4069194507,
      "nextGrpId": 4069194508,
      "_noCircleNextGrpId": 4069194508
    },
    {
      "index": 2,
      "grpId": 4069194508,
      "nextGrpId": 4069194509,
      "_noCircleNextGrpId": 4069194509
    }
  ],
  "freeStyleDic": {
    "1050": [
      1172
    ]
  },
  "GJNILPCMCFC": {
    "1050": [
      "SitChat01AS",
      "SitHoldArm01AS",
      "SitShrug01AS",
      "SitThink01AS"
    ]
  },
  "DOGNDDGFIOE": 4069194508
}