{
  "EKBHPBHPKEJ": [
    {
      "id": 1,
      "AAPDHAIHKNP": {
        "FD_02": [
          {
            "stateValue": "State_FD_02",
            "segmentName": "music_city_FengDan_F070",
            "JDKHOANJBCB": 880411309
          }
        ],
        "FD_03": [
          {
            "stateValue": "State_FD_03",
            "segmentName": "music_explore_UW_F016",
            "JDKHOANJBCB": 962966313
          }
        ],
        "FD_04": [
          {
            "stateValue": "State_FD_04",
            "segmentName": "music_explore_HaiMoCun_F074",
            "JDKHOANJBCB": 764767044
          }
        ],
        "FD_05": [
          {
            "stateValue": "State_FD_05",
            "segmentName": "music_explore_UW_F033",
            "JDKHOANJBCB": 251392282
          }
        ],
        "FD_06": [
          {
            "stateValue": "State_FD_06",
            "segmentName": "music_explore_Marian_F060",
            "JDKHOANJBCB": 582041257
          }
        ]
      }
    },
    {
      "id": 2,
      "AAPDHAIHKNP": {
        "v46_Mural": [
          {
            "stateValue": "State_v46_Mural",
            "segmentName": "Music_interactiveTimeLine_4_6_Mural_F619",
            "JDKHOANJBCB": 978696774
          }
        ]
      }
    },
    {
      "id": 3,
      "AAPDHAIHKNP": {
        "Part01": [
          {
            "stateValue": "State_Qte_Part01",
            "segmentName": "Music_GoldenHall_Qte_PART01",
            "JDKHOANJBCB": 145872610
          },
          {
            "stateValue": "State_Qte_Part01",
            "segmentName": "Music_GoldenHall_Qte_PART01_Loop",
            "JDKHOANJBCB": 103237588
          }
        ],
        "Part02": [
          {
            "stateValue": "State_Qte_Part02",
            "segmentName": "Music_GoldenHall_Qte_PART02",
            "JDKHOANJBCB": 49311472
          },
          {
            "stateValue": "State_Qte_Part02",
            "segmentName": "Music_GoldenHall_Qte_PART02_Loop",
            "JDKHOANJBCB": 1025585888
          }
        ],
        "Part03": [
          {
            "stateValue": "State_Qte_Part03",
            "segmentName": "Music_GoldenHall_Qte_PART03",
            "JDKHOANJBCB": 596566530
          },
          {
            "stateValue": "State_Qte_Part03",
            "segmentName": "Music_GoldenHall_Qte_PART03_Loop",
            "JDKHOANJBCB": 836395155
          }
        ],
        "Part04": [
          {
            "stateValue": "State_Qte_Part04",
            "segmentName": "Music_GoldenHall_Qte_PART04",
            "JDKHOANJBCB": 278523154
          },
          {
            "stateValue": "State_Qte_Part04",
            "segmentName": "Music_GoldenHall_Qte_PART04_Loop",
            "JDKHOANJBCB": 969211057
          }
        ],
        "Part05": [
          {
            "stateValue": "State_Qte_Part05",
            "segmentName": "Music_GoldenHall_Qte_PART05",
            "JDKHOANJBCB": 962879914
          },
          {
            "stateValue": "State_Qte_Part05",
            "segmentName": "Music_GoldenHall_Qte_PART05_Loop",
            "JDKHOANJBCB": 833152470
          }
        ],
        "Part06": [
          {
            "stateValue": "State_Qte_Part06",
            "segmentName": "Music_GoldenHall_Qte_PART06",
            "JDKHOANJBCB": 471537174
          },
          {
            "stateValue": "State_Qte_Part06",
            "segmentName": "Music_GoldenHall_Qte_PART06_Loop",
            "JDKHOANJBCB": 55625202
          }
        ],
        "Part07": [
          {
            "stateValue": "State_Qte_Part07",
            "segmentName": "Music_GoldenHall_Qte_PART07",
            "JDKHOANJBCB": 740723434
          }
        ]
      }
    },
    {
      "id": 4,
      "AAPDHAIHKNP": {
        "v48_Frogchoir": [
          {
            "stateValue": "State_v48_WaWaHeChangTuan",
            "segmentName": "Music_Activity_WaWaHeChangTuan_FR28",
            "JDKHOANJBCB": 903820744
          }
        ]
      }
    },
    {
      "id": 500001,
      "AAPDHAIHKNP": {
        "Silence": [
          {
            "stateValue": "None",
            "segmentName": "Silence",
            "JDKHOANJBCB": 795993522
          }
        ],
        "v50_BandShow_01": [
          {
            "stateValue": "State_YouLieLongBandShow01",
            "segmentName": "Music_v50_YouLieLong_BandShow01",
            "JDKHOANJBCB": 641397618
          }
        ],
        "v50_BandShow_02": [
          {
            "stateValue": "State_YouLieLongBandShow02",
            "segmentName": "Music_v50_YouLieLong_BandShow02",
            "JDKHOANJBCB": 528310200
          }
        ],
        "v50_BandShow_03": [
          {
            "stateValue": "State_YouLieLongBandShow03",
            "segmentName": "Music_v50_YouLieLong_BandShow03",
            "JDKHOANJBCB": 942781585
          }
        ]
      }
    }
  ]
}