{
  "luaDataPath": "",
  "isSimpleTalk": true,
  "entityBan": "",
  "disableNpcLod": true,
  "isBanWidgetPet": true,
  "protectNpcMobileLod": true,
  "talkFlag": 5,
  "startFade": {
    "startFadeOutDuration": 0.0
  },
  "endFade": {
    "startFadeOutDuration": 0.0
  },
  "actors": [
    {
      "alias": "Avatar",
      "visible": true,
      "bornPointName": "[3_4024:696.983,157.234,6676.093,0.000,90.000,0.000]",
      "relativePosType": "AVATAR_NEW",
      "relativePosNpcAlias": "",
      "_bindMovingTargetKey": ""
    },
    {
      "configID": 20987,
      "alias": "20987",
      "visible": true,
      "bornPointName": "",
      "removeActorType": "NEW_REMOVE_WITH_DISAPPEAR",
      "relativePosType": "AVATAR_NEW",
      "relativePosNpcAlias": "",
      "_bindMovingTargetKey": ""
    },
    {
      "configID": 1005,
      "alias": "1005",
      "visible": true,
      "bornPointName": "",
      "useRelativePos": true,
      "relativePos": {
        "x": -0.6000000238418579,
        "z": -0.30000001192092896
      },
      "removeActorType": "NEW_REMOVE_WITH_DISAPPEAR",
      "relativePosType": "AVATAR_NEW",
      "relativePosNpcAlias": "",
      "_bindMovingTargetKey": ""
    }
  ],
  "group": [
    [
      {
        "$type": "FJKIHHKJLMJ",
        "type": "CAMERA_FOCUS",
        "duration": 0.10000000149011612,
        "actionId": 103,
        "targetNpcAlias": "",
        "KJOEFBPOIIH": "",
        "IICFKKEBIEC": "",
        "EGEHEJEBLBJ": ""
      },
      {
        "$type": "MoleMole.Config.ConfigTimeProtectAction",
        "type": "TIME_PROTECT",
        "duration": 0.10000000149011612,
        "actionId": 104
      },
      {
        "$type": "LLGANGLOEEO",
        "type": "STEER_TO",
        "delayTime": 0.30000001192092896,
        "duration": 0.800000011920929,
        "aliasList": [
          "Avatar"
        ],
        "actionId": 162,
        "steerType": "TO_TARGET_ADVANCED",
        "useSteerAnim": true,
        "interruptFreestyle": true,
        "forceSteer": true,
        "targetNpcAlias": "20987",
        "fixInterNull": true,
        "OAFJBHJHLJG": ""
      }
    ],
    [
      {
        "$type": "PKKMAMONGEO",
        "type": "DIALOG",
        "aliasList": [
          "20987"
        ],
        "actionId": 107,
        "dialogID": 733340301,
        "protectTime": 0.5
      }
    ],
    [
      {
        "$type": "PKKMAMONGEO",
        "type": "DIALOG",
        "aliasList": [
          "1005"
        ],
        "actionId": 109,
        "dialogID": 733340302,
        "protectTime": 0.5
      }
    ],
    [
      {
        "$type": "PKKMAMONGEO",
        "type": "DIALOG",
        "aliasList": [
          "20987"
        ],
        "actionId": 111,
        "dialogID": 733340303,
        "protectTime": 0.5
      }
    ],
    [
      {
        "$type": "PKKMAMONGEO",
        "type": "DIALOG",
        "aliasList": [
          "1005"
        ],
        "actionId": 113,
        "dialogID": 733340304,
        "protectTime": 0.5
      }
    ],
    [
      {
        "$type": "PKKMAMONGEO",
        "type": "DIALOG",
        "aliasList": [
          "1005"
        ],
        "actionId": 115,
        "dialogID": 733340305,
        "protectTime": 0.5
      },
      {
        "$type": "HDGKHDNFMIM",
        "type": "DIALOG_SELECT",
        "delayTime": 0.4000000059604645,
        "aliasList": [
          "Avatar"
        ],
        "actionId": 116,
        "dialogIDList": [
          733340306,
          733340307
        ],
        "grpIDList": [
          3643693422,
          3643693422
        ],
        "useGrpId": true,
        "countDownGrpId": 3643693415
      }
    ],
    [
      {
        "$type": "PKKMAMONGEO",
        "type": "DIALOG",
        "aliasList": [
          "1005"
        ],
        "actionId": 118,
        "dialogID": 733340308,
        "protectTime": 0.5
      }
    ],
    [
      {
        "$type": "PKKMAMONGEO",
        "type": "DIALOG",
        "aliasList": [
          "20987"
        ],
        "actionId": 120,
        "dialogID": 733340309,
        "protectTime": 0.5
      }
    ],
    [
      {
        "$type": "PKKMAMONGEO",
        "type": "DIALOG",
        "aliasList": [
          "1005"
        ],
        "actionId": 122,
        "dialogID": 733340310,
        "protectTime": 0.5
      }
    ],
    [
      {
        "$type": "PKKMAMONGEO",
        "type": "DIALOG",
        "aliasList": [
          "20987"
        ],
        "actionId": 124,
        "dialogID": 733340311,
        "protectTime": 0.5
      }
    ],
    [
      {
        "$type": "PKKMAMONGEO",
        "type": "DIALOG",
        "aliasList": [
          "20987"
        ],
        "actionId": 126,
        "dialogID": 733340312,
        "protectTime": 0.5
      }
    ],
    [
      {
        "$type": "PKKMAMONGEO",
        "type": "DIALOG",
        "aliasList": [
          "1005"
        ],
        "actionId": 128,
        "dialogID": 733340313,
        "protectTime": 0.5
      }
    ],
    [
      {
        "$type": "PKKMAMONGEO",
        "type": "DIALOG",
        "aliasList": [
          "1005"
        ],
        "actionId": 130,
        "dialogID": 733340314,
        "protectTime": 0.5
      }
    ],
    [
      {
        "$type": "PKKMAMONGEO",
        "type": "DIALOG",
        "aliasList": [
          "20987"
        ],
        "actionId": 132,
        "dialogID": 733340315,
        "protectTime": 0.5
      }
    ],
    [
      {
        "$type": "PKKMAMONGEO",
        "type": "DIALOG",
        "aliasList": [
          "20987"
        ],
        "actionId": 134,
        "dialogID": 733340316,
        "protectTime": 0.5
      }
    ],
    [
      {
        "$type": "PKKMAMONGEO",
        "type": "DIALOG",
        "aliasList": [
          "20987"
        ],
        "actionId": 136,
        "dialogID": 733340317,
        "protectTime": 0.5
      }
    ],
    [
      {
        "$type": "PKKMAMONGEO",
        "type": "DIALOG",
        "aliasList": [
          "20987"
        ],
        "actionId": 138,
        "dialogID": 733340318,
        "protectTime": 0.5
      }
    ],
    [
      {
        "$type": "PKKMAMONGEO",
        "type": "DIALOG",
        "aliasList": [
          "20987"
        ],
        "actionId": 140,
        "dialogID": 733340319,
        "protectTime": 0.5
      }
    ],
    [
      {
        "$type": "PKKMAMONGEO",
        "type": "DIALOG",
        "aliasList": [
          "20987"
        ],
        "actionId": 142,
        "dialogID": 733340320,
        "protectTime": 0.5
      }
    ],
    [
      {
        "$type": "PKKMAMONGEO",
        "type": "DIALOG",
        "aliasList": [
          "20987"
        ],
        "actionId": 144,
        "dialogID": 733340321,
        "protectTime": 0.5
      }
    ],
    [
      {
        "$type": "PKKMAMONGEO",
        "type": "DIALOG",
        "aliasList": [
          "20987"
        ],
        "actionId": 146,
        "dialogID": 733340322,
        "protectTime": 0.5
      },
      {
        "$type": "HDGKHDNFMIM",
        "type": "DIALOG_SELECT",
        "delayTime": 0.4000000059604645,
        "aliasList": [
          "Avatar"
        ],
        "actionId": 147,
        "dialogIDList": [
          733340323,
          733340324
        ],
        "grpIDList": [
          1285346281,
          1285346281
        ],
        "useGrpId": true,
        "countDownGrpId": 3643693415
      }
    ],
    [
      {
        "$type": "PKKMAMONGEO",
        "type": "DIALOG",
        "aliasList": [
          "1005"
        ],
        "actionId": 149,
        "dialogID": 733340325,
        "protectTime": 0.5
      }
    ],
    [
      {
        "$type": "PKKMAMONGEO",
        "type": "DIALOG",
        "aliasList": [
          "20987"
        ],
        "actionId": 151,
        "dialogID": 733340326,
        "protectTime": 0.5
      }
    ],
    [
      {
        "$type": "PKKMAMONGEO",
        "type": "DIALOG",
        "aliasList": [
          "20987"
        ],
        "actionId": 153,
        "dialogID": 733340327,
        "protectTime": 0.5
      }
    ],
    [
      {
        "$type": "PKKMAMONGEO",
        "type": "DIALOG",
        "aliasList": [
          "1005"
        ],
        "actionId": 155,
        "dialogID": 733340328,
        "protectTime": 0.5
      }
    ],
    [
      {
        "$type": "PKKMAMONGEO",
        "type": "DIALOG",
        "aliasList": [
          "1005"
        ],
        "actionId": 157,
        "dialogID": 733340329,
        "protectTime": 0.5
      }
    ],
    [
      {
        "$type": "PKKMAMONGEO",
        "type": "DIALOG",
        "aliasList": [
          "20987"
        ],
        "actionId": 159,
        "dialogID": 733340330,
        "protectTime": 0.5
      }
    ],
    [
      {
        "$type": "PKKMAMONGEO",
        "type": "DIALOG",
        "aliasList": [
          "20987"
        ],
        "actionId": 161,
        "dialogID": 733340331,
        "protectTime": 0.5
      }
    ],
    [
      {
        "$type": "MoleMole.Config.ConfigTimeProtectAction",
        "type": "TIME_PROTECT",
        "duration": 0.10000000149011612,
        "actionId": 105
      }
    ]
  ],
  "groupId": [
    {
      "grpId": 3643693416,
      "nextGrpId": 3643693417
    },
    {
      "index": 1,
      "grpId": 3643693417,
      "nextGrpId": 3643693418
    },
    {
      "index": 2,
      "grpId": 3643693418,
      "nextGrpId": 3643693419
    },
    {
      "index": 3,
      "grpId": 3643693419,
      "nextGrpId": 3643693420
    },
    {
      "index": 4,
      "grpId": 3643693420,
      "nextGrpId": 3643693421
    },
    {
      "index": 5,
      "grpId": 3643693421,
      "nextGrpId": 3643693422
    },
    {
      "index": 6,
      "grpId": 3643693422,
      "nextGrpId": 3643693423
    },
    {
      "index": 7,
      "grpId": 3643693423,
      "nextGrpId": 3643693424
    },
    {
      "index": 8,
      "grpId": 3643693424,
      "nextGrpId": 1285346248
    },
    {
      "index": 9,
      "grpId": 1285346248,
      "nextGrpId": 1285346249
    },
    {
      "index": 10,
      "grpId": 1285346249,
      "nextGrpId": 1285346250
    },
    {
      "index": 11,
      "grpId": 1285346250,
      "nextGrpId": 1285346251
    },
    {
      "index": 12,
      "grpId": 1285346251,
      "nextGrpId": 1285346252
    },
    {
      "index": 13,
      "grpId": 1285346252,
      "nextGrpId": 1285346253
    },
    {
      "index": 14,
      "grpId": 1285346253,
      "nextGrpId": 1285346254
    },
    {
      "index": 15,
      "grpId": 1285346254,
      "nextGrpId": 1285346255
    },
    {
      "index": 16,
      "grpId": 1285346255,
      "nextGrpId": 1285346256
    },
    {
      "index": 17,
      "grpId": 1285346256,
      "nextGrpId": 1285346257
    },
    {
      "index": 18,
      "grpId": 1285346257,
      "nextGrpId": 1285346279
    },
    {
      "index": 19,
      "grpId": 1285346279,
      "nextGrpId": 1285346280
    },
    {
      "index": 20,
      "grpId": 1285346280,
      "nextGrpId": 1285346281
    },
    {
      "index": 21,
      "grpId": 1285346281,
      "nextGrpId": 1285346282
    },
    {
      "index": 22,
      "grpId": 1285346282,
      "nextGrpId": 1285346283
    },
    {
      "index": 23,
      "grpId": 1285346283,
      "nextGrpId": 1285346284
    },
    {
      "index": 24,
      "grpId": 1285346284,
      "nextGrpId": 1285346285
    },
    {
      "index": 25,
      "grpId": 1285346285,
      "nextGrpId": 1285346286
    },
    {
      "index": 26,
      "grpId": 1285346286,
      "nextGrpId": 1285346287
    },
    {
      "index": 27,
      "grpId": 1285346287,
      "nextGrpId": 1285346288
    },
    {
      "index": 28,
      "grpId": 1285346288,
      "nextGrpId": 1285346310
    }
  ],
  "freeStyleDic": {
    "20987": []
  }
}