{
  "id": 26,
  "sceneId": 3,
  "regions": [
    {
      "$type": "HPEDMNDKDKE",
      "id": 2601,
      "regionPolygons": [
        {
          "minArea": {
            "x": -1441.65673828125,
            "y": 146.90760803222656,
            "z": 2029.6917724609375
          },
          "maxArea": {
            "x": -1019.096923828125,
            "y": 235.00364685058594,
            "z": 2275.126953125
          },
          "roadPoints": [
            {
              "x": -1186.8408203125,
              "y": 146.90760803222656,
              "z": 2271.398193359375
            },
            {
              "x": -1181.7723388671875,
              "y": 146.90760803222656,
              "z": 2275.126953125
            },
            {
              "x": -1076.4990234375,
              "y": 146.90760803222656,
              "z": 2260.587890625
            },
            {
              "x": -1063.646484375,
              "y": 146.90760803222656,
              "z": 2267.04296875
            },
            {
              "x": -1026.2757568359375,
              "y": 146.90760803222656,
              "z": 2223.4912109375
            },
            {
              "x": -1019.096923828125,
              "y": 146.90760803222656,
              "z": 2142.206298828125
            },
            {
              "x": -1031.7220458984375,
              "y": 146.90760803222656,
              "z": 2138.4951171875
            },
            {
              "x": -1065.6827392578125,
              "y": 146.90760803222656,
              "z": 2149.7333984375
            },
            {
              "x": -1076.9373779296875,
              "y": 146.90760803222656,
              "z": 2047.1202392578125
            },
            {
              "x": -1081.3826904296875,
              "y": 146.90760803222656,
              "z": 2042.2537841796875
            },
            {
              "x": -1130.80029296875,
              "y": 146.90760803222656,
              "z": 2029.6917724609375
            },
            {
              "x": -1189.2352294921875,
              "y": 146.90760803222656,
              "z": 2083.5048828125
            },
            {
              "x": -1321.7332763671875,
              "y": 146.90760803222656,
              "z": 2044.899169921875
            },
            {
              "x": -1377.6026611328125,
              "y": 146.90760803222656,
              "z": 2043.0665283203125
            },
            {
              "x": -1441.65673828125,
              "y": 146.90760803222656,
              "z": 2056.339599609375
            },
            {
              "x": -1415.1751708984375,
              "y": 146.90760803222656,
              "z": 2098.014892578125
            },
            {
              "x": -1371.785400390625,
              "y": 146.90760803222656,
              "z": 2160.318359375
            },
            {
              "x": -1336.93994140625,
              "y": 146.90760803222656,
              "z": 2201.55810546875
            },
            {
              "x": -1329.5313720703125,
              "y": 146.90760803222656,
              "z": 2201.956298828125
            }
          ]
        }
      ],
      "routePoints": [
        {
          "id": 26010001,
          "damageRatio": "REGION_ENTRANCE",
          "pos": {
            "x": -1176.5096435546875,
            "y": 187.0548858642578,
            "z": 2267.287353515625
          },
          "KDEIBEJJDIP": {
            "offset": {
              "y": 1.0
            },
            "DBHDBOIDPKP": true
          },
          "condslogicType": "LOGIC_AND",
          "routeRegionId": 4294967295,
          "routePointId": 4294967295
        }
      ],
      "isRoutePointsFullyConnected": true
    }
  ]
}