{
  "id": 37,
  "sceneId": 3,
  "regions": [
    {
      "$type": "HPEDMNDKDKE",
      "id": 3701,
      "limitShapes": [
        {
          "pos": {
            "x": 2424.9970703125,
            "y": 226.2747802734375,
            "z": 4959.58154296875
          },
          "shape": {
            "$type": "LCFGLDCOCOH",
            "useHeight": true,
            "height": 44.86456298828125,
            "centerType": "Center",
            "width": 14.911968231201172,
            "length": 13.418890953063965
          }
        },
        {
          "pos": {
            "x": 2287.0283203125,
            "y": 189.07037353515625,
            "z": 4825.56640625
          },
          "rot": {
            "y": 45.74808883666992
          },
          "shape": {
            "$type": "LCFGLDCOCOH",
            "useHeight": true,
            "height": 74.47730255126953,
            "centerType": "Center",
            "width": 65.13706970214844,
            "length": 35.195858001708984
          }
        },
        {
          "pos": {
            "x": 2231.59814453125,
            "y": 186.99423217773438,
            "z": 4827.779296875
          },
          "rot": {
            "y": 342.5451354980469
          },
          "shape": {
            "$type": "LCFGLDCOCOH",
            "useHeight": true,
            "height": 42.799068450927734,
            "centerType": "Center",
            "width": 121.71147155761719,
            "length": 103.36724090576172
          }
        },
        {
          "pos": {
            "x": 2358.94921875,
            "y": 185.73292541503906,
            "z": 4907.27734375
          },
          "rot": {
            "y": 45.74808883666992
          },
          "shape": {
            "$type": "LCFGLDCOCOH",
            "useHeight": true,
            "height": 57.876773834228516,
            "centerType": "Center",
            "width": 76.5640869140625,
            "length": 223.63873291015625
          }
        }
      ],
      "routePoints": [
        {
          "id": 37010001,
          "damageRatio": "REGION_ENTRANCE",
          "pos": {
            "x": 2418.766845703125,
            "y": 245.46475219726562,
            "z": 4954.31982421875
          },
          "KDEIBEJJDIP": {
            "offset": {
              "y": 1.0
            },
            "DBHDBOIDPKP": true
          },
          "condslogicType": "LOGIC_AND",
          "adjacencies": [
            37010002
          ],
          "routeRegionId": 4294967295,
          "routePointId": 4294967295
        }
      ],
      "isRoutePointsFullyConnected": true
    }
  ]
}