{
  "id": 39,
  "sceneId": 3,
  "regions": [
    {
      "$type": "HPEDMNDKDKE",
      "id": 3901,
      "regionPolygons": [
        {
          "minArea": {
            "x": 2667.646240234375,
            "y": 420.7364807128906,
            "z": 3262.301513671875
          },
          "maxArea": {
            "x": 2905.64501953125,
            "y": 454.6602478027344,
            "z": 3437.7509765625
          },
          "roadPoints": [
            {
              "x": 2727.312744140625,
              "y": 420.7364807128906,
              "z": 3437.7509765625
            },
            {
              "x": 2760.590576171875,
              "y": 420.7364807128906,
              "z": 3432.55517578125
            },
            {
              "x": 2749.082275390625,
              "y": 420.7364807128906,
              "z": 3386.693603515625
            },
            {
              "x": 2835.837646484375,
              "y": 420.7364807128906,
              "z": 3374.4208984375
            },
            {
              "x": 2905.64501953125,
              "y": 420.7364807128906,
              "z": 3376.090087890625
            },
            {
              "x": 2901.527587890625,
              "y": 420.7364807128906,
              "z": 3348.90234375
            },
            {
              "x": 2884.372314453125,
              "y": 420.7364807128906,
              "z": 3326.57861328125
            },
            {
              "x": 2776.5361328125,
              "y": 420.7364807128906,
              "z": 3306.474609375
            },
            {
              "x": 2686.121826171875,
              "y": 420.7364807128906,
              "z": 3262.301513671875
            },
            {
              "x": 2667.646240234375,
              "y": 420.7364807128906,
              "z": 3275.3037109375
            },
            {
              "x": 2674.49267578125,
              "y": 420.7364807128906,
              "z": 3347.15478515625
            },
            {
              "x": 2706.690673828125,
              "y": 420.7364807128906,
              "z": 3374.876708984375
            },
            {
              "x": 2712.0078125,
              "y": 420.7364807128906,
              "z": 3420.15625
            },
            {
              "x": 2721.152099609375,
              "y": 420.7364807128906,
              "z": 3436.9892578125
            }
          ]
        },
        {
          "minArea": {
            "x": 2836.627685546875,
            "y": 370.0,
            "z": 3263.458984375
          },
          "maxArea": {
            "x": 2997.864013671875,
            "y": 429.599853515625,
            "z": 3380.1103515625
          },
          "roadPoints": [
            {
              "x": 2945.84619140625,
              "y": 370.0,
              "z": 3264.806640625
            },
            {
              "x": 2964.26123046875,
              "y": 370.0,
              "z": 3263.458984375
            },
            {
              "x": 2991.98388671875,
              "y": 370.0,
              "z": 3296.810791015625
            },
            {
              "x": 2997.864013671875,
              "y": 370.0,
              "z": 3317.639892578125
            },
            {
              "x": 2984.088134765625,
              "y": 370.0,
              "z": 3330.469970703125
            },
            {
              "x": 2940.98046875,
              "y": 370.0,
              "z": 3355.706787109375
            },
            {
              "x": 2889.2763671875,
              "y": 370.0,
              "z": 3380.1103515625
            },
            {
              "x": 2863.40380859375,
              "y": 370.0,
              "z": 3379.72021484375
            },
            {
              "x": 2836.627685546875,
              "y": 370.0,
              "z": 3373.750732421875
            },
            {
              "x": 2837.7529296875,
              "y": 370.0,
              "z": 3360.474365234375
            },
            {
              "x": 2840.897705078125,
              "y": 370.0,
              "z": 3350.945556640625
            },
            {
              "x": 2861.232421875,
              "y": 370.0,
              "z": 3343.548828125
            },
            {
              "x": 2855.510498046875,
              "y": 370.0,
              "z": 3331.966552734375
            },
            {
              "x": 2866.31201171875,
              "y": 370.0,
              "z": 3317.851318359375
            },
            {
              "x": 2886.24267578125,
              "y": 370.0,
              "z": 3295.8427734375
            },
            {
              "x": 2893.9453125,
              "y": 370.0,
              "z": 3282.781005859375
            },
            {
              "x": 2902.404541015625,
              "y": 370.0,
              "z": 3271.3779296875
            },
            {
              "x": 2931.740234375,
              "y": 370.0,
              "z": 3265.424072265625
            }
          ]
        }
      ],
      "limitShapes": [
        {
          "pos": {
            "x": 2801.654052734375,
            "y": 457.9131164550781,
            "z": 3342.5888671875
          },
          "shape": {
            "$type": "EMOKHIGKKBE",
            "useHeight": true,
            "height": 40.0,
            "radius": 70.0
          }
        }
      ],
      "routePoints": [
        {
          "id": 39010001,
          "damageRatio": "REGION_ENTRANCE",
          "pos": {
            "x": 2741.59326171875,
            "y": 440.0,
            "z": 3429.056640625
          },
          "condslogicType": "LOGIC_AND",
          "adjacencies": [
            39010002
          ],
          "routeRegionId": 4294967295,
          "routePointId": 4294967295
        }
      ],
      "isRoutePointsFullyConnected": true
    }
  ]
}