{
  "luaDataPath": "",
  "dontUseDefaultFinish": true,
  "startBlackKeepTime": 0.5,
  "entityBan": "",
  "disableNpcLod": true,
  "isAutoBanNpc": true,
  "isBanWidgetPet": true,
  "protectNpcMobileLod": true,
  "talkFlag": 7,
  "startFade": {
    "startFadeInDuration": 0.5,
    "startFadeOutDuration": 0.5
  },
  "endFade": {
    "startFadeOutDuration": 0.0
  },
  "actors": [
    {
      "alias": "Avatar",
      "visible": true,
      "bornPointName": "[20222_2:318.023,28.706,0.037,0.000,88.600,0.000]",
      "relativePosType": "AVATAR_NEW",
      "relativePosNpcAlias": "",
      "_notDestroyInTalk": true,
      "_bindMovingTargetKey": ""
    },
    {
      "alias": "AvatarNpc",
      "visible": true,
      "bornPointName": "[20222_2:318.023,28.706,0.037,0.000,88.600,0.000]",
      "relativePos": {
        "x": 303.6730041503906,
        "y": 28.73699951171875,
        "z": 0.125
      },
      "relativeRot": {
        "y": 90.57099914550781
      },
      "removeActorType": "NEW_REMOVE",
      "relativePosType": "AVATAR_NEW",
      "relativePosNpcAlias": "",
      "_notDestroyInTalk": true,
      "_bindMovingTargetKey": "",
      "notDestroyInTalk": true
    },
    {
      "configID": 1005,
      "alias": "1005",
      "visible": true,
      "bornPointName": "[20222_3:318.348,28.706,1.417,0.000,115.030,0.000]",
      "removeActorType": "NEW_REMOVE_WITH_DISAPPEAR",
      "relativePosType": "AVATAR_NEW",
      "relativePosNpcAlias": "",
      "_notDestroyInTalk": true,
      "_bindMovingTargetKey": ""
    },
    {
      "configID": 1022,
      "alias": "1022",
      "visible": true,
      "bornPointName": "[20222_1:312.559,28.803,-0.023,0.000,90.000,0.000]",
      "relativePosType": "AVATAR_NEW",
      "relativePosNpcAlias": "",
      "_notDestroyInTalk": true,
      "_bindMovingTargetKey": ""
    },
    {
      "configID": 14178,
      "alias": "14178",
      "visible": true,
      "bornPointName": "[20222_2:318.023,28.706,0.037,0.000,88.600,0.000]",
      "relativePos": {
        "x": 304.68798828125,
        "y": 28.724000930786133,
        "z": 0.23399999737739563
      },
      "relativeRot": {
        "y": 89.41699981689453
      },
      "removeActorType": "NEW_REMOVE",
      "relativePosType": "AVATAR_NEW",
      "relativePosNpcAlias": "",
      "_notDestroyInTalk": true,
      "_bindMovingTargetKey": "",
      "notDestroyInTalk": true
    }
  ],
  "group": [
    [
      {
        "$type": "MoleMole.Config.ConfigTimeProtectAction",
        "type": "TIME_PROTECT",
        "duration": 1.0,
        "actionId": 104
      },
      {
        "$type": "EDCHPJLDKIN",
        "type": "BODY_LANG",
        "aliasList": [
          "1005"
        ],
        "actionId": 114,
        "_flag": 131072,
        "isContinue": true,
        "forceDoFreeStyle": true,
        "canDoRepeatFreeStyle": false,
        "cantBackToIdleWhenSitLoop": true,
        "eventPatternSuiteKey": ""
      },
      {
        "$type": "EDCHPJLDKIN",
        "type": "BODY_LANG",
        "aliasList": [
          "1022"
        ],
        "actionId": 116,
        "_flag": 131072,
        "isContinue": true,
        "forceDoFreeStyle": true,
        "canDoRepeatFreeStyle": false,
        "cantBackToIdleWhenSitLoop": true,
        "eventPatternSuiteKey": ""
      },
      {
        "$type": "MoleMole.Config.ConfigBlackScreenAction",
        "type": "BLACK_SCREEN",
        "duration": 1.0,
        "actionId": 118,
        "_flag": 2048,
        "blackScreenType": "KEEP_BLACK",
        "durationToBlack": 0.5,
        "durationKeepBlack": 1.0,
        "durationFromBlack": 0.5,
        "inteePos": "",
        "textMapID": "",
        "useTextFade": true,
        "showClickBtnDelayTime": 0.5,
        "waitClickBtnTipTime": 0.5,
        "_changeAudioState": true
      },
      {
        "$type": "MoleMole.Config.ConfigSitOrStandAction",
        "type": "SIT_OR_STAND",
        "aliasList": [
          "Avatar"
        ],
        "actionId": 121,
        "_flag": 40960,
        "banResetFreestyle": true
      },
      {
        "$type": "MoleMole.Config.ConfigPlayerNPCEnergyTypeAction",
        "type": "SET_PLAYER_NPC_ENERGY_TYPE",
        "aliasList": [
          "AvatarNpc"
        ],
        "actionId": 122,
        "setHeroEngergyType": true
      },
      {
        "$type": "EDCHPJLDKIN",
        "type": "BODY_LANG",
        "aliasList": [
          "AvatarNpc"
        ],
        "actionId": 125,
        "_flag": 131072,
        "isContinue": true,
        "forceDoFreeStyle": true,
        "canDoRepeatFreeStyle": false,
        "cantBackToIdleWhenSitLoop": true,
        "eventPatternSuiteKey": ""
      },
      {
        "$type": "MoleMole.Config.ConfigVisibleInterAction",
        "type": "VISIBLE",
        "aliasList": [
          "Avatar"
        ],
        "actionId": 127,
        "_extraParam": ""
      },
      {
        "$type": "EFHODGEJOHJ",
        "type": "CAMERA_MOVE",
        "duration": 0.5,
        "actionId": 145,
        "camPosOffset": {
          "x": 304.6409912109375,
          "y": 30.320999145507812,
          "z": 20.593000411987305
        },
        "camForwardTargetOffset": {
          "x": 304.6470031738281,
          "y": 30.413000106811523,
          "z": 19.597999572753906
        },
        "lerpPattern": 6,
        "cameraBlendType": "EaseInOutCubic",
        "needZAxisRotate": true,
        "openCameraDither": false,
        "targetNpcAlias": "",
        "closeTreeLeafDither": true,
        "PHGBNNGCJKJ": "",
        "NFILMKCFHEB": "",
        "BGPNGHDAECF": "",
        "cutFrameTrans": {
          "_elevMinValue": -50.0,
          "_elevMaxValue": 50.0,
          "_poleMinValue": -50.0,
          "_poleMaxValue": 50.0
        }
      },
      {
        "$type": "MoleMole.Config.ConfigTeleportToAction",
        "type": "TELEPORT_TO",
        "aliasList": [
          "14178"
        ],
        "actionId": 184,
        "position": {
          "x": 304.68798828125,
          "y": 28.724000930786133,
          "z": 0.23399999737739563
        },
        "forward": {
          "x": 2.4010000228881836,
          "z": 0.024000000208616257
        },
        "openLongDisTeleport": true,
        "syncForward": true,
        "_posBindMovingTargetKey": "",
        "_forwardBindMovingTargetKey": ""
      },
      {
        "$type": "MoleMole.Config.ConfigVisibleInterAction",
        "type": "VISIBLE",
        "delayTime": 0.10000000149011612,
        "aliasList": [
          "14178"
        ],
        "actionId": 185,
        "_extraParam": ""
      },
      {
        "$type": "MoleMole.Config.ConfigTeleportToAction",
        "type": "TELEPORT_TO",
        "aliasList": [
          "AvatarNpc"
        ],
        "actionId": 235,
        "position": {
          "x": 303.6730041503906,
          "y": 28.73699951171875,
          "z": 0.125
        },
        "forward": {
          "x": 15.348999977111816,
          "y": 0.013000000268220901,
          "z": -0.15299999713897705
        },
        "openLongDisTeleport": true,
        "syncForward": true,
        "_posBindMovingTargetKey": "",
        "_forwardBindMovingTargetKey": ""
      },
      {
        "$type": "NPCNMEOCADD",
        "type": "LOOK_AT",
        "aliasList": [
          "AvatarNpc"
        ],
        "actionId": 236,
        "_flag": 64,
        "enableHead": true,
        "useTargetPos": true,
        "enableAbsolute": true,
        "targetPosition": {
          "x": 324.0199890136719,
          "y": 31.910999298095703,
          "z": -0.7239999771118164
        },
        "headTurnTime": 0.5,
        "targetNpcAlias": "",
        "lookAtTargetType": "NONE",
        "openBackProtect": true,
        "backProtectAngle": 10.0,
        "targetNpcLookAtPoint": "",
        "BHGPHGNFCBF": ""
      },
      {
        "$type": "MoleMole.Config.ConfigTeleportToAction",
        "type": "TELEPORT_TO",
        "aliasList": [
          "1005"
        ],
        "actionId": 237,
        "position": {
          "x": 302.7590026855469,
          "y": 28.667999267578125,
          "z": 0.5839999914169312
        },
        "forward": {
          "x": 16.4950008392334,
          "y": 0.18400000035762787,
          "z": 0.20800000429153442
        },
        "openLongDisTeleport": true,
        "syncForward": true,
        "_posBindMovingTargetKey": "",
        "_forwardBindMovingTargetKey": ""
      },
      {
        "$type": "NPCNMEOCADD",
        "type": "LOOK_AT",
        "aliasList": [
          "1005"
        ],
        "actionId": 238,
        "_flag": 64,
        "enableHead": true,
        "useTargetPos": true,
        "enableAbsolute": true,
        "targetPosition": {
          "x": 324.0199890136719,
          "y": 31.910999298095703,
          "z": -0.7239999771118164
        },
        "headTurnTime": 0.5,
        "targetNpcAlias": "",
        "lookAtTargetType": "NONE",
        "openBackProtect": true,
        "backProtectAngle": 10.0,
        "targetNpcLookAtPoint": "",
        "BHGPHGNFCBF": ""
      },
      {
        "$type": "MoleMole.Config.ConfigTeleportToAction",
        "type": "TELEPORT_TO",
        "aliasList": [
          "1022"
        ],
        "actionId": 239,
        "position": {
          "x": 304.4549865722656,
          "y": 28.733999252319336,
          "z": -1.0080000162124634
        },
        "forward": {
          "x": 14.803000450134277,
          "y": 0.11800000071525574,
          "z": -0.10999999940395355
        },
        "openLongDisTeleport": true,
        "syncForward": true,
        "_posBindMovingTargetKey": "",
        "_forwardBindMovingTargetKey": ""
      },
      {
        "$type": "NPCNMEOCADD",
        "type": "LOOK_AT",
        "aliasList": [
          "1022"
        ],
        "actionId": 240,
        "_flag": 64,
        "enableHead": true,
        "useTargetPos": true,
        "enableAbsolute": true,
        "targetPosition": {
          "x": 324.0199890136719,
          "y": 31.910999298095703,
          "z": -0.7239999771118164
        },
        "headTurnTime": 0.5,
        "targetNpcAlias": "",
        "lookAtTargetType": "NONE",
        "openBackProtect": true,
        "backProtectAngle": 10.0,
        "targetNpcLookAtPoint": "",
        "BHGPHGNFCBF": ""
      },
      {
        "$type": "MoleMole.Config.ConfigTeleportToAction",
        "type": "TELEPORT_TO",
        "aliasList": [
          "Avatar"
        ],
        "actionId": 302,
        "position": {
          "x": 303.6730041503906,
          "y": 28.73699951171875,
          "z": 0.125
        },
        "forward": {
          "x": 15.348999977111816,
          "y": 0.013000000268220901,
          "z": -0.15299999713897705
        },
        "openLongDisTeleport": true,
        "syncForward": true,
        "_posBindMovingTargetKey": "",
        "_forwardBindMovingTargetKey": ""
      }
    ],
    [
      {
        "$type": "MoleMole.Config.ConfigBlackScreenAction",
        "type": "BLACK_SCREEN",
        "duration": 0.5,
        "actionId": 129,
        "_flag": 2048,
        "blackScreenType": "FROM_BLACK",
        "durationToBlack": 0.5,
        "durationKeepBlack": 0.5,
        "durationFromBlack": 0.5,
        "inteePos": "",
        "textMapID": "",
        "useTextFade": true,
        "showClickBtnDelayTime": 0.5,
        "waitClickBtnTipTime": 0.5,
        "_changeAudioState": true
      },
      {
        "$type": "EFHODGEJOHJ",
        "type": "CAMERA_MOVE",
        "duration": 0.5,
        "actionId": 130,
        "camPosOffset": {
          "x": 304.6409912109375,
          "y": 30.320999145507812,
          "z": 20.593000411987305
        },
        "camForwardTargetOffset": {
          "x": 304.6470031738281,
          "y": 30.413000106811523,
          "z": 19.597999572753906
        },
        "lerpPattern": 6,
        "cameraBlendType": "EaseInOutCubic",
        "needZAxisRotate": true,
        "openCameraDither": false,
        "targetNpcAlias": "",
        "closeTreeLeafDither": true,
        "PHGBNNGCJKJ": "",
        "NFILMKCFHEB": "",
        "BGPNGHDAECF": "",
        "cutFrameTrans": {
          "_elevMinValue": -50.0,
          "_elevMaxValue": 50.0,
          "_poleMinValue": -50.0,
          "_poleMaxValue": 50.0
        }
      },
      {
        "$type": "EFHODGEJOHJ",
        "type": "CAMERA_MOVE",
        "delayTime": 0.1120000034570694,
        "duration": 1.9329999685287476,
        "actionId": 131,
        "camPosOffset": {
          "x": 305.114013671875,
          "y": 30.320999145507812,
          "z": 20.59600067138672
        },
        "camForwardTargetOffset": {
          "x": 305.1199951171875,
          "y": 30.413000106811523,
          "z": 19.600000381469727
        },
        "cameraBlendType": "Linear",
        "needZAxisRotate": true,
        "openCameraDither": false,
        "targetNpcAlias": "",
        "closeTreeLeafDither": true,
        "PHGBNNGCJKJ": "",
        "NFILMKCFHEB": "",
        "BGPNGHDAECF": "",
        "cutFrameTrans": {
          "_elevMinValue": -50.0,
          "_elevMaxValue": 50.0,
          "_poleMinValue": -50.0,
          "_poleMaxValue": 50.0
        }
      },
      {
        "$type": "EFHODGEJOHJ",
        "type": "CAMERA_MOVE",
        "delayTime": 1.7999999523162842,
        "duration": 0.5,
        "actionId": 132,
        "camPosOffset": {
          "x": 334.12701416015625,
          "y": 31.7450008392334,
          "z": -1.2170000076293945
        },
        "camForwardTargetOffset": {
          "x": 334.90899658203125,
          "y": 31.312000274658203,
          "z": -1.6660000085830688
        },
        "camFov": 35.0,
        "lerpPattern": 6,
        "cameraBlendType": "EaseInOutCubic",
        "needZAxisRotate": true,
        "openCameraDither": false,
        "targetNpcAlias": "",
        "closeTreeLeafDither": true,
        "useDissolve": true,
        "dissolveTime": 1.5,
        "PHGBNNGCJKJ": "",
        "NFILMKCFHEB": "",
        "BGPNGHDAECF": "",
        "cutFrameTrans": {
          "_elevMinValue": -50.0,
          "_elevMaxValue": 50.0,
          "_poleMinValue": -50.0,
          "_poleMaxValue": 50.0
        }
      },
      {
        "$type": "EFHODGEJOHJ",
        "type": "CAMERA_MOVE",
        "delayTime": 2.0,
        "duration": 2.9670000076293945,
        "actionId": 133,
        "camPosOffset": {
          "x": 334.0530090332031,
          "y": 31.743000030517578,
          "z": -1.3450000286102295
        },
        "camForwardTargetOffset": {
          "x": 334.8349914550781,
          "y": 31.309999465942383,
          "z": -1.7929999828338623
        },
        "camFov": 35.0,
        "cameraBlendType": "Linear",
        "needZAxisRotate": true,
        "openCameraDither": false,
        "targetNpcAlias": "",
        "closeTreeLeafDither": true,
        "PHGBNNGCJKJ": "",
        "NFILMKCFHEB": "",
        "BGPNGHDAECF": "",
        "cutFrameTrans": {
          "_elevMinValue": -50.0,
          "_elevMaxValue": 50.0,
          "_poleMinValue": -50.0,
          "_poleMaxValue": 50.0
        }
      },
      {
        "$type": "MoleMole.Config.ConfigTimeProtectAction",
        "type": "TIME_PROTECT",
        "duration": 5.0,
        "actionId": 136
      },
      {
        "$type": "MJFAIFFAGOF",
        "type": "DIALOG_CLEAR",
        "actionId": 137
      },
      {
        "$type": "EFHODGEJOHJ",
        "type": "CAMERA_MOVE",
        "delayTime": 4.199999809265137,
        "duration": 0.5,
        "actionId": 143,
        "camPosOffset": {
          "x": 320.9360046386719,
          "y": 30.83300018310547,
          "z": -0.49300000071525574
        },
        "camForwardTargetOffset": {
          "x": 321.8919982910156,
          "y": 31.125,
          "z": -0.4909999966621399
        },
        "lerpPattern": 6,
        "cameraBlendType": "EaseInOutCubic",
        "needZAxisRotate": true,
        "openCameraDither": false,
        "targetNpcAlias": "",
        "closeTreeLeafDither": true,
        "useDissolve": true,
        "dissolveTime": 1.0,
        "PHGBNNGCJKJ": "",
        "NFILMKCFHEB": "",
        "BGPNGHDAECF": "",
        "cutFrameTrans": {
          "_elevMinValue": -50.0,
          "_elevMaxValue": 50.0,
          "_poleMinValue": -50.0,
          "_poleMaxValue": 50.0
        }
      },
      {
        "$type": "EFHODGEJOHJ",
        "type": "CAMERA_MOVE",
        "delayTime": 4.400000095367432,
        "duration": 5.0,
        "actionId": 144,
        "camPosOffset": {
          "x": 318.6650085449219,
          "y": 30.139999389648438,
          "z": -0.49799999594688416
        },
        "camForwardTargetOffset": {
          "x": 319.6210021972656,
          "y": 30.43199920654297,
          "z": -0.4959999918937683
        },
        "cameraBlendType": "Linear",
        "needZAxisRotate": true,
        "openCameraDither": false,
        "targetNpcAlias": "",
        "closeTreeLeafDither": true,
        "PHGBNNGCJKJ": "",
        "NFILMKCFHEB": "",
        "BGPNGHDAECF": "",
        "cutFrameTrans": {
          "_elevMinValue": -50.0,
          "_elevMaxValue": 50.0,
          "_poleMinValue": -50.0,
          "_poleMaxValue": 50.0
        }
      },
      {
        "$type": "MoleMole.Config.ConfigMoveToAction",
        "type": "MOVE_TO",
        "aliasList": [
          "AvatarNpc"
        ],
        "actionId": 244,
        "moveType": "WALK",
        "routeList": [
          {
            "x": 317.3080139160156,
            "y": 28.82200050354004,
            "z": -0.08299999684095383
          }
        ],
        "exactlyMove": true,
        "closeNavMesh": true,
        "openSetPos": true,
        "_bindMovingTargetKey": "",
        "_delayTriggerNextTime": 0.30000001192092896
      },
      {
        "$type": "MoleMole.Config.ConfigMoveToAction",
        "type": "MOVE_TO",
        "aliasList": [
          "1005"
        ],
        "actionId": 245,
        "moveType": "WALK",
        "routeList": [
          {
            "x": 317.3080139160156,
            "y": 28.82200050354004,
            "z": 0.9129999876022339
          }
        ],
        "exactlyMove": true,
        "closeNavMesh": true,
        "openSetPos": true,
        "_bindMovingTargetKey": "",
        "_delayTriggerNextTime": 0.30000001192092896
      },
      {
        "$type": "MoleMole.Config.ConfigMoveToAction",
        "type": "MOVE_TO",
        "aliasList": [
          "1022"
        ],
        "actionId": 246,
        "moveType": "WALK",
        "routeList": [
          {
            "x": 317.3080139160156,
            "y": 28.82200050354004,
            "z": -1.0019999742507935
          }
        ],
        "exactlyMove": true,
        "closeNavMesh": true,
        "openSetPos": true,
        "_bindMovingTargetKey": "",
        "_delayTriggerNextTime": 0.30000001192092896
      },
      {
        "$type": "MoleMole.Config.ConfigMoveToAction",
        "type": "MOVE_TO",
        "aliasList": [
          "Avatar"
        ],
        "actionId": 267,
        "moveType": "WALK",
        "routeList": [
          {
            "x": 317.3080139160156,
            "y": 28.82200050354004,
            "z": -0.08299999684095383
          }
        ],
        "exactlyMove": true,
        "closeNavMesh": true,
        "closeAvatarNavMesh": true,
        "openSetPos": true,
        "_bindMovingTargetKey": "",
        "_delayTriggerNextTime": 0.30000001192092896
      },
      {
        "$type": "NPCNMEOCADD",
        "type": "LOOK_AT",
        "aliasList": [
          "1005"
        ],
        "actionId": 270,
        "_flag": 64,
        "enableHead": true,
        "useTargetPos": true,
        "enableAbsolute": true,
        "targetPosition": {
          "x": 324.0199890136719,
          "y": 31.910999298095703,
          "z": -1.3990000486373901
        },
        "headTurnTime": 0.5,
        "targetNpcAlias": "",
        "lookAtTargetType": "NONE",
        "openBackProtect": true,
        "backProtectAngle": 10.0,
        "targetNpcLookAtPoint": "",
        "BHGPHGNFCBF": ""
      },
      {
        "$type": "NPCNMEOCADD",
        "type": "LOOK_AT",
        "delayTime": 1.190000057220459,
        "aliasList": [
          "1005"
        ],
        "actionId": 271,
        "_flag": 64,
        "enableHead": true,
        "useTargetPos": true,
        "enableAbsolute": true,
        "targetPosition": {
          "x": 322.8450012207031,
          "y": 31.910999298095703,
          "z": 5.889999866485596
        },
        "headTurnTime": 0.5,
        "targetNpcAlias": "",
        "lookAtTargetType": "NONE",
        "openBackProtect": true,
        "backProtectAngle": 10.0,
        "targetNpcLookAtPoint": "",
        "BHGPHGNFCBF": ""
      },
      {
        "$type": "NPCNMEOCADD",
        "type": "LOOK_AT",
        "delayTime": 2.4159998893737793,
        "aliasList": [
          "1005"
        ],
        "actionId": 272,
        "_flag": 64,
        "enableHead": true,
        "useTargetPos": true,
        "enableAbsolute": true,
        "targetPosition": {
          "x": 324.0199890136719,
          "y": 31.910999298095703,
          "z": -1.4359999895095825
        },
        "headTurnTime": 0.5,
        "targetNpcAlias": "",
        "lookAtTargetType": "NONE",
        "openBackProtect": true,
        "backProtectAngle": 10.0,
        "targetNpcLookAtPoint": "",
        "BHGPHGNFCBF": ""
      },
      {
        "$type": "NPCNMEOCADD",
        "type": "LOOK_AT",
        "aliasList": [
          "AvatarNpc"
        ],
        "actionId": 273,
        "_flag": 64,
        "enableHead": true,
        "useTargetPos": true,
        "enableAbsolute": true,
        "targetPosition": {
          "x": 324.0199890136719,
          "y": 31.910999298095703,
          "z": -0.7239999771118164
        },
        "headTurnTime": 0.5,
        "targetNpcAlias": "",
        "lookAtTargetType": "NONE",
        "openBackProtect": true,
        "backProtectAngle": 10.0,
        "targetNpcLookAtPoint": "",
        "BHGPHGNFCBF": ""
      },
      {
        "$type": "NPCNMEOCADD",
        "type": "LOOK_AT",
        "delayTime": 0.8050000071525574,
        "aliasList": [
          "AvatarNpc"
        ],
        "actionId": 274,
        "_flag": 64,
        "enableHead": true,
        "useTargetPos": true,
        "enableAbsolute": true,
        "targetPosition": {
          "x": 323.4939880371094,
          "y": 35.11800003051758,
          "z": -5.400000095367432
        },
        "headTurnTime": 0.5,
        "targetNpcAlias": "",
        "lookAtTargetType": "NONE",
        "openBackProtect": true,
        "backProtectAngle": 10.0,
        "targetNpcLookAtPoint": "",
        "BHGPHGNFCBF": ""
      },
      {
        "$type": "NPCNMEOCADD",
        "type": "LOOK_AT",
        "delayTime": 1.9220000505447388,
        "aliasList": [
          "AvatarNpc"
        ],
        "actionId": 275,
        "_flag": 64,
        "enableHead": true,
        "useTargetPos": true,
        "enableAbsolute": true,
        "targetPosition": {
          "x": 323.4939880371094,
          "y": 35.11800003051758,
          "z": 1.3760000467300415
        },
        "headTurnTime": 0.5,
        "targetNpcAlias": "",
        "lookAtTargetType": "NONE",
        "openBackProtect": true,
        "backProtectAngle": 10.0,
        "targetNpcLookAtPoint": "",
        "BHGPHGNFCBF": ""
      }
    ],
    [
      {
        "$type": "MJFAIFFAGOF",
        "type": "DIALOG",
        "aliasList": [
          "1005"
        ],
        "actionId": 107,
        "dialogID": 80200501,
        "protectTime": 2.0
      },
      {
        "$type": "EFHODGEJOHJ",
        "type": "CAMERA_MOVE",
        "delayTime": 0.20000000298023224,
        "duration": 4.333000183105469,
        "actionId": 138,
        "camPosOffset": {
          "x": 347.13800048828125,
          "y": 42.89799880981445,
          "z": 2.746999979019165
        },
        "camForwardTargetOffset": {
          "x": 346.2770080566406,
          "y": 42.44599914550781,
          "z": 2.5139999389648438
        },
        "camFov": 35.0,
        "cameraBlendType": "EaseOutQuad",
        "needZAxisRotate": true,
        "openCameraDither": false,
        "targetNpcAlias": "",
        "closeTreeLeafDither": true,
        "PHGBNNGCJKJ": "",
        "NFILMKCFHEB": "",
        "BGPNGHDAECF": "",
        "cutFrameTrans": {
          "_elevMinValue": -50.0,
          "_elevMaxValue": 50.0,
          "_poleMinValue": -50.0,
          "_poleMaxValue": 50.0
        }
      },
      {
        "$type": "EFHODGEJOHJ",
        "type": "CAMERA_MOVE",
        "duration": 0.5,
        "actionId": 139,
        "camPosOffset": {
          "x": 347.22900390625,
          "y": 42.904998779296875,
          "z": 2.3970000743865967
        },
        "camForwardTargetOffset": {
          "x": 346.36700439453125,
          "y": 42.45399856567383,
          "z": 2.1649999618530273
        },
        "camFov": 35.0,
        "lerpPattern": 6,
        "cameraBlendType": "EaseInOutCubic",
        "needZAxisRotate": true,
        "openCameraDither": false,
        "targetNpcAlias": "",
        "closeTreeLeafDither": true,
        "useDissolve": true,
        "dissolveTime": 1.0,
        "PHGBNNGCJKJ": "",
        "NFILMKCFHEB": "",
        "BGPNGHDAECF": "",
        "cutFrameTrans": {
          "_elevMinValue": -50.0,
          "_elevMaxValue": 50.0,
          "_poleMinValue": -50.0,
          "_poleMaxValue": 50.0
        }
      },
      {
        "$type": "NPCNMEOCADD",
        "type": "LOOK_AT",
        "aliasList": [
          "1005"
        ],
        "actionId": 154,
        "_flag": 64,
        "enableHead": true,
        "useTargetPos": true,
        "enableAbsolute": true,
        "targetPosition": {
          "x": 323.2090148925781,
          "y": 33.33399963378906,
          "z": 6.138999938964844
        },
        "headTurnTime": 0.5,
        "targetNpcAlias": "",
        "lookAtTargetType": "NONE",
        "openBackProtect": true,
        "backProtectAngle": 10.0,
        "targetNpcLookAtPoint": "",
        "BHGPHGNFCBF": ""
      },
      {
        "$type": "NPCNMEOCADD",
        "type": "LOOK_AT",
        "delayTime": 1.1419999599456787,
        "aliasList": [
          "1005"
        ],
        "actionId": 155,
        "_flag": 64,
        "enableHead": true,
        "useTargetPos": true,
        "enableAbsolute": true,
        "targetPosition": {
          "x": 324.5190124511719,
          "y": 33.33399963378906,
          "z": -4.007999897003174
        },
        "headTurnTime": 0.5,
        "targetNpcAlias": "",
        "lookAtTargetType": "NONE",
        "openBackProtect": true,
        "backProtectAngle": 10.0,
        "targetNpcLookAtPoint": "",
        "BHGPHGNFCBF": ""
      },
      {
        "$type": "NPCNMEOCADD",
        "type": "LOOK_AT",
        "delayTime": 0.30799999833106995,
        "aliasList": [
          "AvatarNpc"
        ],
        "actionId": 156,
        "_flag": 64,
        "enableHead": true,
        "useTargetPos": true,
        "enableAbsolute": true,
        "targetPosition": {
          "x": 323.2090148925781,
          "y": 33.33399963378906,
          "z": 6.138999938964844
        },
        "headTurnTime": 0.5,
        "targetNpcAlias": "",
        "lookAtTargetType": "NONE",
        "openBackProtect": true,
        "backProtectAngle": 10.0,
        "targetNpcLookAtPoint": "",
        "BHGPHGNFCBF": ""
      },
      {
        "$type": "NPCNMEOCADD",
        "type": "LOOK_AT",
        "delayTime": 1.5420000553131104,
        "aliasList": [
          "AvatarNpc"
        ],
        "actionId": 157,
        "_flag": 64,
        "enableHead": true,
        "useTargetPos": true,
        "enableAbsolute": true,
        "targetPosition": {
          "x": 324.5190124511719,
          "y": 33.33399963378906,
          "z": -4.007999897003174
        },
        "headTurnTime": 0.5,
        "targetNpcAlias": "",
        "lookAtTargetType": "NONE",
        "openBackProtect": true,
        "backProtectAngle": 10.0,
        "targetNpcLookAtPoint": "",
        "BHGPHGNFCBF": ""
      },
      {
        "$type": "NPCNMEOCADD",
        "type": "LOOK_AT",
        "aliasList": [
          "1022"
        ],
        "actionId": 172,
        "_flag": 64,
        "enableHead": true,
        "useTargetPos": true,
        "enableAbsolute": true,
        "targetPosition": {
          "x": 320.7170104980469,
          "y": 31.113000869750977,
          "z": -0.4410000145435333
        },
        "headTurnTime": 0.5,
        "targetNpcAlias": "",
        "lookAtTargetType": "NONE",
        "openBackProtect": true,
        "backProtectAngle": 10.0,
        "targetNpcLookAtPoint": "",
        "BHGPHGNFCBF": ""
      },
      {
        "$type": "ICHLNKHGCAG",
        "type": "EMO_SYNC",
        "aliasList": [
          "1005"
        ],
        "actionId": 221,
        "_flag": 320,
        "dataPath": "Cs_Emo_Avatar_Simple_Common_Set/Cs_Emo_Avatar_Talk/Cs_Emo_Avatar_MainLine/Cs_Emo_Avatar_Twins04/Cs_Emo_80200501",
        "phonemePath": "",
        "emotionPath": "",
        "mateDataPath": "",
        "matePhonemePath": "",
        "mateEmotionPath": "",
        "dataPathHashList": [
          7358182446116493138,
          18294302107995336509,
          1278918786323063537,
          13068095271786566785
        ],
        "PACNIGOOENN": "",
        "PIBDNPHIAGC": ""
      },
      {
        "$type": "ICHLNKHGCAG",
        "type": "EMO_SYNC",
        "aliasList": [
          "AvatarNpc"
        ],
        "actionId": 309,
        "_flag": 320,
        "dataPath": "",
        "phonemePath": "Cs_Emo_Avatar_Common/Cs_Emo_Avatar_Angry01",
        "emotionPath": "Cs_Emo_Avatar_Common/Cs_Emo_Avatar_Angry01_B",
        "mateDataPath": "",
        "matePhonemePath": "",
        "mateEmotionPath": "",
        "phonemePathHashList": [
          14296606849723709100,
          5508348580450379567,
          7627497203169383327,
          8979581647593659876
        ],
        "emotionPathHashList": [
          12827270931485377071,
          477271327041930928,
          15631992893087520179,
          3915791412555494663
        ],
        "PACNIGOOENN": "",
        "PIBDNPHIAGC": ""
      },
      {
        "$type": "ICHLNKHGCAG",
        "type": "EMO_SYNC",
        "aliasList": [
          "1022"
        ],
        "actionId": 310,
        "_flag": 320,
        "dataPath": "",
        "phonemePath": "Cs_Emo_Avatar_Common/Cs_Emo_Avatar_Angry01",
        "emotionPath": "Cs_Emo_Avatar_Common/Cs_Emo_Avatar_Angry01_B",
        "mateDataPath": "",
        "matePhonemePath": "",
        "mateEmotionPath": "",
        "phonemePathHashList": [
          14296606849723709100,
          5508348580450379567,
          7627497203169383327,
          8979581647593659876
        ],
        "emotionPathHashList": [
          12827270931485377071,
          477271327041930928,
          15631992893087520179,
          3915791412555494663
        ],
        "PACNIGOOENN": "",
        "PIBDNPHIAGC": ""
      }
    ],
    [
      {
        "$type": "MoleMole.Config.ConfigTeleportToAction",
        "type": "TELEPORT_TO",
        "aliasList": [
          "AvatarNpc"
        ],
        "actionId": 248,
        "position": {
          "x": 318.02301025390625,
          "y": 28.75,
          "z": -0.08299999684095383
        },
        "forward": {
          "x": 0.9990000128746033,
          "z": 0.05400000140070915
        },
        "openLongDisTeleport": true,
        "syncForward": true,
        "_posBindMovingTargetKey": "",
        "_forwardBindMovingTargetKey": ""
      },
      {
        "$type": "MoleMole.Config.ConfigTeleportToAction",
        "type": "TELEPORT_TO",
        "aliasList": [
          "1005"
        ],
        "actionId": 249,
        "position": {
          "x": 318.10699462890625,
          "y": 28.75,
          "z": 0.8349999785423279
        },
        "forward": {
          "x": 0.9990000128746033,
          "z": -0.03799999877810478
        },
        "openLongDisTeleport": true,
        "syncForward": true,
        "_posBindMovingTargetKey": "",
        "_forwardBindMovingTargetKey": ""
      },
      {
        "$type": "MoleMole.Config.ConfigTeleportToAction",
        "type": "TELEPORT_TO",
        "aliasList": [
          "1022"
        ],
        "actionId": 250,
        "position": {
          "x": 317.1499938964844,
          "y": 28.82200050354004,
          "z": -1.2280000448226929
        },
        "forward": {
          "x": 0.5899999737739563,
          "z": 0.4580000042915344
        },
        "openLongDisTeleport": true,
        "syncForward": true,
        "_posBindMovingTargetKey": "",
        "_forwardBindMovingTargetKey": ""
      },
      {
        "$type": "NPCNMEOCADD",
        "type": "LOOK_AT",
        "aliasList": [
          "AvatarNpc"
        ],
        "actionId": 251,
        "_flag": 64,
        "enableHead": true,
        "useTargetPos": true,
        "enableAbsolute": true,
        "targetPosition": {
          "x": 324.5190124511719,
          "y": 33.33399963378906,
          "z": -4.007999897003174
        },
        "headTurnTime": 0.5,
        "targetNpcAlias": "",
        "lookAtTargetType": "NONE",
        "openBackProtect": true,
        "backProtectAngle": 10.0,
        "targetNpcLookAtPoint": "",
        "BHGPHGNFCBF": ""
      },
      {
        "$type": "NPCNMEOCADD",
        "type": "LOOK_AT",
        "delayTime": 0.6620000004768372,
        "aliasList": [
          "1022"
        ],
        "actionId": 252,
        "_flag": 64,
        "enableHead": true,
        "useTargetPos": true,
        "enableAbsolute": true,
        "targetPosition": {
          "x": 319.0039978027344,
          "y": 30.40399932861328,
          "z": -0.3700000047683716
        },
        "headTurnTime": 0.5,
        "targetNpcAlias": "",
        "lookAtTargetType": "NONE",
        "openBackProtect": true,
        "backProtectAngle": 10.0,
        "targetNpcLookAtPoint": "",
        "BHGPHGNFCBF": ""
      },
      {
        "$type": "HGDDIPABPCA",
        "type": "LOOK_AT_EYECTRL",
        "delayTime": 0.6740000247955322,
        "aliasList": [
          "1022"
        ],
        "actionId": 253,
        "_flag": 4672,
        "useTargetPos": false,
        "eyeRotateVecLeft": {
          "x": -3.0
        },
        "eyeRotateVecRight": {
          "x": -3.0
        },
        "turnTime": 0.20000000298023224,
        "targetNpcAlias": "",
        "targetPoint": "Face"
      },
      {
        "$type": "EFHODGEJOHJ",
        "type": "CAMERA_MOVE",
        "duration": 0.5,
        "actionId": 255,
        "camPosOffset": {
          "x": 299.2279968261719,
          "y": 28.763999938964844,
          "z": 1.7489999532699585
        },
        "camForwardTargetOffset": {
          "x": 300.2040100097656,
          "y": 28.97800064086914,
          "z": 1.722000002861023
        },
        "lerpPattern": 6,
        "cameraBlendType": "EaseInOutCubic",
        "needZAxisRotate": true,
        "rotateAngle": 11.246999740600586,
        "openCameraDither": false,
        "targetNpcAlias": "",
        "closeTreeLeafDither": true,
        "PHGBNNGCJKJ": "",
        "NFILMKCFHEB": "",
        "BGPNGHDAECF": "",
        "cutFrameTrans": {
          "_elevMinValue": -50.0,
          "_elevMaxValue": 50.0,
          "_poleMinValue": -50.0,
          "_poleMaxValue": 50.0
        }
      },
      {
        "$type": "MoleMole.Config.ConfigTimeProtectAction",
        "type": "TIME_PROTECT",
        "duration": 4.440999984741211,
        "actionId": 257
      },
      {
        "$type": "EFHODGEJOHJ",
        "type": "CAMERA_MOVE",
        "delayTime": 0.10700000077486038,
        "duration": 8.0,
        "actionId": 258,
        "camPosOffset": {
          "x": 299.9630126953125,
          "y": 28.770999908447266,
          "z": 1.7000000476837158
        },
        "camForwardTargetOffset": {
          "x": 300.94000244140625,
          "y": 28.985000610351562,
          "z": 1.6729999780654907
        },
        "cameraBlendType": "Linear",
        "needZAxisRotate": true,
        "rotateAngle": 7.241000175476074,
        "openCameraDither": false,
        "targetNpcAlias": "",
        "closeTreeLeafDither": true,
        "PHGBNNGCJKJ": "",
        "NFILMKCFHEB": "",
        "BGPNGHDAECF": "",
        "cutFrameTrans": {
          "_elevMinValue": -50.0,
          "_elevMaxValue": 50.0,
          "_poleMinValue": -50.0,
          "_poleMaxValue": 50.0
        }
      },
      {
        "$type": "MJFAIFFAGOF",
        "type": "DIALOG_CLEAR",
        "actionId": 277
      },
      {
        "$type": "MoleMole.Config.ConfigSkipGroupAction",
        "type": "SKIP_GROUP",
        "delayTime": 4.0,
        "actionId": 304
      },
      {
        "$type": "MoleMole.Config.ConfigTeleportToAction",
        "type": "TELEPORT_TO",
        "aliasList": [
          "Avatar"
        ],
        "actionId": 321,
        "position": {
          "x": 318.02301025390625,
          "y": 28.75,
          "z": -0.08299999684095383
        },
        "forward": {
          "x": 0.9990000128746033,
          "z": 0.05400000140070915
        },
        "openLongDisTeleport": true,
        "syncForward": true,
        "_posBindMovingTargetKey": "",
        "_forwardBindMovingTargetKey": ""
      }
    ],
    [
      {
        "$type": "MJFAIFFAGOF",
        "type": "DIALOG",
        "delayTime": 0.007000000216066837,
        "aliasList": [
          "1022"
        ],
        "actionId": 109,
        "dialogID": 80200502,
        "protectTime": 0.5
      },
      {
        "$type": "NPCNMEOCADD",
        "type": "LOOK_AT",
        "aliasList": [
          "1022"
        ],
        "actionId": 159,
        "_flag": 64,
        "enableHead": true,
        "useTargetPos": true,
        "enableAbsolute": true,
        "targetPosition": {
          "x": 317.1940002441406,
          "y": 30.40399932861328,
          "z": -0.7689999938011169
        },
        "headTurnTime": 0.30000001192092896,
        "targetNpcAlias": "",
        "lookAtTargetType": "NONE",
        "openBackProtect": true,
        "backProtectAngle": 10.0,
        "targetNpcLookAtPoint": "",
        "BHGPHGNFCBF": ""
      },
      {
        "$type": "HGDDIPABPCA",
        "type": "LOOK_AT_EYECTRL",
        "aliasList": [
          "1022"
        ],
        "actionId": 169,
        "_flag": 4672,
        "useTargetPos": false,
        "eyeRotateVecLeft": {
          "x": -3.0
        },
        "eyeRotateVecRight": {
          "x": -3.0
        },
        "turnTime": 0.20000000298023224,
        "targetNpcAlias": "",
        "targetPoint": "Face"
      },
      {
        "$type": "EFHODGEJOHJ",
        "type": "CAMERA_MOVE",
        "delayTime": 0.10000000149011612,
        "duration": 0.2939999997615814,
        "actionId": 178,
        "camPosOffset": {
          "x": 316.4100036621094,
          "y": 30.906999588012695,
          "z": -0.6850000023841858
        },
        "camForwardTargetOffset": {
          "x": 317.1650085449219,
          "y": 30.452999114990234,
          "z": -1.1579999923706055
        },
        "camFov": 15.0,
        "cameraBlendType": "EaseOutQuad",
        "needZAxisRotate": true,
        "openCameraDither": false,
        "targetNpcAlias": "",
        "closeTreeLeafDither": true,
        "dissolveTime": 0.15000000596046448,
        "PHGBNNGCJKJ": "",
        "NFILMKCFHEB": "",
        "BGPNGHDAECF": "",
        "cutFrameTrans": {
          "_elevMinValue": -50.0,
          "_elevMaxValue": 50.0,
          "_poleMinValue": -50.0,
          "_poleMaxValue": 50.0
        }
      },
      {
        "$type": "EFHODGEJOHJ",
        "type": "CAMERA_MOVE",
        "delayTime": 0.35100001096725464,
        "duration": 0.43700000643730164,
        "actionId": 179,
        "camPosOffset": {
          "x": 316.4100036621094,
          "y": 30.906999588012695,
          "z": -0.6850000023841858
        },
        "camForwardTargetOffset": {
          "x": 317.1650085449219,
          "y": 30.452999114990234,
          "z": -1.1579999923706055
        },
        "camFov": 15.0,
        "cameraBlendType": "EaseOutQuad",
        "needZAxisRotate": true,
        "openCameraDither": false,
        "targetNpcAlias": "",
        "closeTreeLeafDither": true,
        "PHGBNNGCJKJ": "",
        "NFILMKCFHEB": "",
        "BGPNGHDAECF": "",
        "cutFrameTrans": {
          "_elevMinValue": -50.0,
          "_elevMaxValue": 50.0,
          "_poleMinValue": -50.0,
          "_poleMaxValue": 50.0
        }
      },
      {
        "$type": "MoleMole.Config.ConfigTeleportToAction",
        "type": "TELEPORT_TO",
        "aliasList": [
          "14178"
        ],
        "actionId": 183,
        "position": {
          "x": 304.68798828125,
          "y": 28.724000930786133,
          "z": 0.23399999737739563
        },
        "forward": {
          "x": 2.4010000228881836,
          "z": 0.024000000208616257
        },
        "openLongDisTeleport": true,
        "syncForward": true,
        "_posBindMovingTargetKey": "",
        "_forwardBindMovingTargetKey": ""
      },
      {
        "$type": "ICHLNKHGCAG",
        "type": "EMO_SYNC",
        "aliasList": [
          "1022"
        ],
        "actionId": 222,
        "_flag": 320,
        "dataPath": "Cs_Emo_Avatar_Simple_Common_Set/Cs_Emo_Avatar_Talk/Cs_Emo_Avatar_MainLine/Cs_Emo_Avatar_Twins04/Cs_Emo_80200502",
        "phonemePath": "",
        "emotionPath": "",
        "mateDataPath": "",
        "matePhonemePath": "",
        "mateEmotionPath": "",
        "dataPathHashList": [
          3405783824336229329,
          15081202882664534733,
          4397860734488399285,
          10029571857523487419
        ],
        "PACNIGOOENN": "",
        "PIBDNPHIAGC": ""
      },
      {
        "$type": "MoleMole.Config.ConfigTeleportToAction",
        "type": "TELEPORT_TO",
        "aliasList": [
          "1022"
        ],
        "actionId": 260,
        "position": {
          "x": 317.1499938964844,
          "y": 28.82200050354004,
          "z": -1.2280000448226929
        },
        "forward": {
          "x": 0.5899999737739563,
          "z": 0.4580000042915344
        },
        "openLongDisTeleport": true,
        "syncForward": true,
        "_posBindMovingTargetKey": "",
        "_forwardBindMovingTargetKey": ""
      },
      {
        "$type": "EFHODGEJOHJ",
        "type": "CAMERA_MOVE",
        "duration": 0.2939999997615814,
        "actionId": 262,
        "camPosOffset": {
          "x": 315.75299072265625,
          "y": 31.22800064086914,
          "z": -0.3230000138282776
        },
        "camForwardTargetOffset": {
          "x": 316.50799560546875,
          "y": 30.773000717163086,
          "z": -0.7950000166893005
        },
        "camFov": 15.0,
        "lerpPattern": 6,
        "cameraBlendType": "EaseOutQuad",
        "needZAxisRotate": true,
        "openCameraDither": false,
        "targetNpcAlias": "",
        "closeTreeLeafDither": true,
        "dissolveTime": 0.25,
        "PHGBNNGCJKJ": "",
        "NFILMKCFHEB": "",
        "BGPNGHDAECF": "",
        "cutFrameTrans": {
          "_elevMinValue": -50.0,
          "_elevMaxValue": 50.0,
          "_poleMinValue": -50.0,
          "_poleMaxValue": 50.0
        }
      },
      {
        "$type": "EDCHPJLDKIN",
        "type": "BODY_LANG",
        "aliasList": [
          "1022"
        ],
        "actionId": 318,
        "_flag": 131072,
        "isContinue": true,
        "forceDoFreeStyle": true,
        "canDoRepeatFreeStyle": false,
        "cantBackToIdleWhenSitLoop": true,
        "eventPatternSuiteKey": ""
      }
    ],
    [
      {
        "$type": "MoleMole.Config.ConfigPlayEffectAction",
        "type": "PLAY_EFFECT",
        "aliasList": [
          "14178"
        ],
        "actionId": 182,
        "effectIndex": "",
        "patternName": "Eff_Monster_Invoker_Born",
        "_pos": {
          "x": 305.21600341796875,
          "y": 28.733999252319336,
          "z": 0.23399999737739563
        },
        "euler": {
          "y": 89.26599884033203
        },
        "scale": {
          "x": 1.0,
          "y": 1.0,
          "z": 1.0
        },
        "_otherTargetNpcAlias": ""
      },
      {
        "$type": "MoleMole.Config.ConfigVisibleInterAction",
        "type": "VISIBLE",
        "delayTime": 0.9350000023841858,
        "duration": 1.0,
        "aliasList": [
          "14178"
        ],
        "actionId": 187,
        "isVisible": true,
        "useDither": true,
        "_extraParam": ""
      },
      {
        "$type": "EFHODGEJOHJ",
        "type": "CAMERA_MOVE",
        "duration": 0.5,
        "actionId": 188,
        "camPosOffset": {
          "x": 305.83099365234375,
          "y": 30.957000732421875,
          "z": -0.1589999943971634
        },
        "camForwardTargetOffset": {
          "x": 305.0469970703125,
          "y": 30.452999114990234,
          "z": 0.20200000703334808
        },
        "camFov": 40.0,
        "lerpPattern": 6,
        "cameraBlendType": "EaseInOutCubic",
        "needZAxisRotate": true,
        "openCameraDither": false,
        "targetNpcAlias": "",
        "closeTreeLeafDither": true,
        "PHGBNNGCJKJ": "",
        "NFILMKCFHEB": "",
        "BGPNGHDAECF": "",
        "cutFrameTrans": {
          "_elevMinValue": -50.0,
          "_elevMaxValue": 50.0,
          "_poleMinValue": -50.0,
          "_poleMaxValue": 50.0
        }
      },
      {
        "$type": "EFHODGEJOHJ",
        "type": "CAMERA_MOVE",
        "delayTime": 0.10700000077486038,
        "duration": 0.7789999842643738,
        "actionId": 189,
        "camPosOffset": {
          "x": 314.0539855957031,
          "y": 36.099998474121094,
          "z": -3.638000011444092
        },
        "camForwardTargetOffset": {
          "x": 313.2539978027344,
          "y": 35.595001220703125,
          "z": -3.312000036239624
        },
        "camFov": 30.0,
        "cameraBlendType": "EaseInOutQuad",
        "needZAxisRotate": true,
        "openCameraDither": false,
        "targetNpcAlias": "",
        "closeTreeLeafDither": true,
        "PHGBNNGCJKJ": "",
        "NFILMKCFHEB": "",
        "BGPNGHDAECF": "",
        "cutFrameTrans": {
          "_elevMinValue": -50.0,
          "_elevMaxValue": 50.0,
          "_poleMinValue": -50.0,
          "_poleMaxValue": 50.0
        }
      },
      {
        "$type": "MoleMole.Config.ConfigTeleportToAction",
        "type": "TELEPORT_TO",
        "aliasList": [
          "14178"
        ],
        "actionId": 190,
        "position": {
          "x": 304.8909912109375,
          "y": 28.732999801635742,
          "z": 0.2540000081062317
        },
        "forward": {
          "x": 0.796999990940094,
          "y": 0.0010000000474974513,
          "z": -0.009999999776482582
        },
        "openLongDisTeleport": true,
        "syncForward": true,
        "_posBindMovingTargetKey": "",
        "_forwardBindMovingTargetKey": ""
      },
      {
        "$type": "EFHODGEJOHJ",
        "type": "CAMERA_MOVE",
        "delayTime": 2.2960000038146973,
        "duration": 0.5,
        "actionId": 191,
        "camPosOffset": {
          "x": 308.2090148925781,
          "y": 28.719999313354492,
          "z": 0.125
        },
        "camForwardTargetOffset": {
          "x": 307.343994140625,
          "y": 29.219999313354492,
          "z": 0.16599999368190765
        },
        "camFov": 32.0,
        "lerpPattern": 6,
        "cameraBlendType": "EaseInOutCubic",
        "needZAxisRotate": true,
        "openCameraDither": false,
        "targetNpcAlias": "",
        "closeTreeLeafDither": true,
        "PHGBNNGCJKJ": "",
        "NFILMKCFHEB": "",
        "BGPNGHDAECF": "",
        "cutFrameTrans": {
          "_elevMinValue": -50.0,
          "_elevMaxValue": 50.0,
          "_poleMinValue": -50.0,
          "_poleMaxValue": 50.0
        }
      },
      {
        "$type": "EFHODGEJOHJ",
        "type": "CAMERA_MOVE",
        "delayTime": 2.3959999084472656,
        "duration": 2.1559998989105225,
        "actionId": 192,
        "camPosOffset": {
          "x": 307.51800537109375,
          "y": 29.731000900268555,
          "z": -0.8930000066757202
        },
        "camForwardTargetOffset": {
          "x": 306.6650085449219,
          "y": 30.107999801635742,
          "z": -0.5329999923706055
        },
        "camFov": 32.0,
        "cameraBlendType": "Linear",
        "needZAxisRotate": true,
        "openCameraDither": false,
        "targetNpcAlias": "",
        "closeTreeLeafDither": true,
        "PHGBNNGCJKJ": "",
        "NFILMKCFHEB": "",
        "BGPNGHDAECF": "",
        "cutFrameTrans": {
          "_elevMinValue": -50.0,
          "_elevMaxValue": 50.0,
          "_poleMinValue": -50.0,
          "_poleMaxValue": 50.0
        }
      },
      {
        "$type": "MoleMole.Config.ConfigTimeProtectAction",
        "type": "TIME_PROTECT",
        "duration": 4.0,
        "actionId": 193
      },
      {
        "$type": "MoleMole.Config.ConfigTeleportToAction",
        "type": "TELEPORT_TO",
        "delayTime": 0.010999999940395355,
        "aliasList": [
          "1005"
        ],
        "actionId": 210,
        "position": {
          "x": 317.1289978027344,
          "y": 28.82200050354004,
          "z": 0.652999997138977
        },
        "forward": {
          "x": -2.4760000705718994,
          "y": -0.07100000232458115,
          "z": -0.5889999866485596
        },
        "openLongDisTeleport": true,
        "syncForward": true,
        "_posBindMovingTargetKey": "",
        "_forwardBindMovingTargetKey": ""
      },
      {
        "$type": "EDCHPJLDKIN",
        "type": "BODY_LANG",
        "aliasList": [
          "1005"
        ],
        "actionId": 211,
        "_flag": 131072,
        "bodyLangParam": 1060,
        "forceDoFreeStyle": true,
        "canDoRepeatFreeStyle": false,
        "cantBackToIdleWhenSitLoop": true,
        "eventPatternSuiteKey": ""
      },
      {
        "$type": "ICHLNKHGCAG",
        "type": "EMO_SYNC",
        "aliasList": [
          "1005"
        ],
        "actionId": 212,
        "_flag": 256,
        "dataPath": "",
        "phonemePath": "Cs_Emo_Pet_Common/Cs_Emo_Paimon_Angry01",
        "emotionPath": "Cs_Emo_Pet_Common/Cs_Emo_Paimon_Angry01_B",
        "mateDataPath": "",
        "matePhonemePath": "",
        "mateEmotionPath": "",
        "phonemePathHashList": [
          8887624181441475292,
          18209086005751125871,
          3291038487434063407,
          2002509548947436691
        ],
        "emotionPathHashList": [
          13881928724929073215,
          7603214701309324592,
          1219334094693683373,
          13358599274641292023
        ],
        "PACNIGOOENN": "",
        "PIBDNPHIAGC": ""
      },
      {
        "$type": "MoleMole.Config.ConfigTeleportToAction",
        "type": "TELEPORT_TO",
        "aliasList": [
          "AvatarNpc"
        ],
        "actionId": 213,
        "position": {
          "x": 317.1570129394531,
          "y": 28.82200050354004,
          "z": -0.08299999684095383
        },
        "forward": {
          "x": -5.610000133514404,
          "y": -0.07100000232458115,
          "z": 0.054999999701976776
        },
        "openLongDisTeleport": true,
        "syncForward": true,
        "_posBindMovingTargetKey": "",
        "_forwardBindMovingTargetKey": ""
      },
      {
        "$type": "NPCNMEOCADD",
        "type": "LOOK_AT",
        "aliasList": [
          "1022"
        ],
        "actionId": 216,
        "_flag": 64,
        "enableHead": true,
        "useTargetPos": true,
        "enableAbsolute": true,
        "targetPosition": {
          "x": 302.9530029296875,
          "y": 30.549999237060547,
          "z": -0.29600000381469727
        },
        "headTurnTime": 0.5,
        "targetNpcAlias": "14178",
        "lookAtTargetType": "NONE",
        "openBackProtect": true,
        "backProtectAngle": 10.0,
        "targetNpcLookAtPoint": "",
        "BHGPHGNFCBF": ""
      },
      {
        "$type": "MoleMole.Config.ConfigTeleportToAction",
        "type": "TELEPORT_TO",
        "aliasList": [
          "Avatar"
        ],
        "actionId": 218,
        "position": {
          "x": 317.1570129394531,
          "y": 28.82200050354004,
          "z": -0.08299999684095383
        },
        "forward": {
          "x": -5.610000133514404,
          "y": -0.07100000232458115,
          "z": 0.054999999701976776
        },
        "openLongDisTeleport": true,
        "syncForward": true,
        "_posBindMovingTargetKey": "",
        "_forwardBindMovingTargetKey": ""
      },
      {
        "$type": "MJFAIFFAGOF",
        "type": "DIALOG_CLEAR",
        "actionId": 225
      },
      {
        "$type": "MoleMole.Config.ConfigNewCameraShakeAction",
        "type": "NEW_CAMERA_SHAKE",
        "delayTime": 0.013000000268220901,
        "duration": 3.7820000648498535,
        "actionId": 231,
        "seed": 0.9110000133514404,
        "amplitudeBase": {
          "x": 1.0,
          "y": 2.0,
          "z": 3.0
        },
        "frequencyBase": {
          "x": 4.0,
          "y": 5.0,
          "z": 6.0
        },
        "amplitudeCurve": {
          "keyframes": [
            {},
            {
              "time": 0.014000000432133675,
              "value": 0.8339999914169312,
              "inTangent": 2.0,
              "outTangent": 2.0
            },
            {
              "time": 0.382999986410141,
              "value": 0.7630000114440918,
              "inTangent": -7.790999889373779,
              "outTangent": -7.790999889373779
            },
            {
              "time": 0.6510000228881836,
              "value": 0.7919999957084656,
              "inTangent": -0.06700000166893005,
              "outTangent": -0.06700000166893005
            },
            {
              "time": 0.9919999837875366,
              "value": -0.003000000026077032
            },
            {
              "time": 1.0,
              "value": 1.0
            }
          ]
        },
        "frequencyCurve": {
          "keyframes": [
            {
              "value": 1.0,
              "inTangent": -1.524999976158142,
              "outTangent": -1.524999976158142
            },
            {
              "time": 0.007000000216066837,
              "value": 0.531000018119812
            },
            {
              "time": 0.9800000190734863,
              "value": 0.5239999890327454
            },
            {
              "time": 1.0190000534057617,
              "value": 0.5230000019073486
            }
          ]
        }
      },
      {
        "$type": "EFHODGEJOHJ",
        "type": "CAMERA_MOVE",
        "delayTime": 0.8450000286102295,
        "duration": 0.5,
        "actionId": 305,
        "camPosOffset": {
          "x": 303.7430114746094,
          "y": 28.738000869750977,
          "z": 2.2249999046325684
        },
        "camForwardTargetOffset": {
          "x": 304.2550048828125,
          "y": 29.033000946044922,
          "z": 1.4179999828338623
        },
        "camFov": 27.0,
        "lerpPattern": 6,
        "cameraBlendType": "EaseInOutCubic",
        "needZAxisRotate": true,
        "rotateAngle": 352.8689880371094,
        "openCameraDither": false,
        "targetNpcAlias": "",
        "closeTreeLeafDither": true,
        "PHGBNNGCJKJ": "",
        "NFILMKCFHEB": "",
        "BGPNGHDAECF": "",
        "cutFrameTrans": {
          "_elevMinValue": -50.0,
          "_elevMaxValue": 50.0,
          "_poleMinValue": -50.0,
          "_poleMaxValue": 50.0
        }
      },
      {
        "$type": "EFHODGEJOHJ",
        "type": "CAMERA_MOVE",
        "delayTime": 0.9449999928474426,
        "duration": 1.3860000371932983,
        "actionId": 306,
        "camPosOffset": {
          "x": 303.72198486328125,
          "y": 28.81599998474121,
          "z": 2.240000009536743
        },
        "camForwardTargetOffset": {
          "x": 304.2279968261719,
          "y": 29.1299991607666,
          "z": 1.437000036239624
        },
        "camFov": 27.0,
        "cameraBlendType": "Linear",
        "needZAxisRotate": true,
        "rotateAngle": 352.8240051269531,
        "openCameraDither": false,
        "targetNpcAlias": "",
        "closeTreeLeafDither": true,
        "PHGBNNGCJKJ": "",
        "NFILMKCFHEB": "",
        "BGPNGHDAECF": "",
        "cutFrameTrans": {
          "_elevMinValue": -50.0,
          "_elevMaxValue": 50.0,
          "_poleMinValue": -50.0,
          "_poleMaxValue": 50.0
        }
      },
      {
        "$type": "MoleMole.Config.ConfigSkipGroupAction",
        "type": "SKIP_GROUP",
        "delayTime": 4.0,
        "actionId": 308
      },
      {
        "$type": "EDCHPJLDKIN",
        "type": "BODY_LANG",
        "aliasList": [
          "1022"
        ],
        "actionId": 319,
        "_flag": 131072,
        "isContinue": true,
        "forceDoFreeStyle": true,
        "canDoRepeatFreeStyle": false,
        "cantBackToIdleWhenSitLoop": true,
        "eventPatternSuiteKey": ""
      },
      {
        "$type": "NPCNMEOCADD",
        "type": "LOOK_AT",
        "aliasList": [
          "1005"
        ],
        "actionId": 324,
        "_flag": 64,
        "enableHead": true,
        "useTargetPos": true,
        "enableAbsolute": true,
        "targetPosition": {
          "x": 302.9530029296875,
          "y": 30.549999237060547,
          "z": -0.29600000381469727
        },
        "headTurnTime": 0.5,
        "targetNpcAlias": "14178",
        "lookAtTargetType": "NONE",
        "openBackProtect": true,
        "backProtectAngle": 10.0,
        "targetNpcLookAtPoint": "",
        "BHGPHGNFCBF": ""
      },
      {
        "$type": "NPCNMEOCADD",
        "type": "LOOK_AT",
        "aliasList": [
          "AvatarNpc"
        ],
        "actionId": 326,
        "_flag": 64,
        "enableHead": true,
        "useTargetPos": true,
        "enableAbsolute": true,
        "targetPosition": {
          "x": 302.9530029296875,
          "y": 30.549999237060547,
          "z": -0.29600000381469727
        },
        "headTurnTime": 0.5,
        "targetNpcAlias": "14178",
        "lookAtTargetType": "NONE",
        "openBackProtect": true,
        "backProtectAngle": 10.0,
        "targetNpcLookAtPoint": "",
        "BHGPHGNFCBF": ""
      },
      {
        "$type": "MoleMole.Config.ConfigTeleportToAction",
        "type": "TELEPORT_TO",
        "aliasList": [
          "1022"
        ],
        "actionId": 327,
        "position": {
          "x": 317.2380065917969,
          "y": 28.82200050354004,
          "z": -0.6790000200271606
        },
        "forward": {
          "x": -2.615000009536743,
          "z": -2.1619999408721924
        },
        "openLongDisTeleport": true,
        "syncForward": true,
        "_posBindMovingTargetKey": "",
        "_forwardBindMovingTargetKey": ""
      }
    ],
    [
      {
        "$type": "MJFAIFFAGOF",
        "type": "DIALOG",
        "aliasList": [
          "1005"
        ],
        "actionId": 111,
        "dialogID": 80200503,
        "protectTime": 1.4600000381469727
      },
      {
        "$type": "MoleMole.Config.ConfigTeleportToAction",
        "type": "TELEPORT_TO",
        "delayTime": 0.010999999940395355,
        "aliasList": [
          "1005"
        ],
        "actionId": 194,
        "position": {
          "x": 317.1289978027344,
          "y": 28.82200050354004,
          "z": 0.652999997138977
        },
        "forward": {
          "x": -2.4760000705718994,
          "y": -0.07100000232458115,
          "z": -0.5889999866485596
        },
        "openLongDisTeleport": true,
        "syncForward": true,
        "_posBindMovingTargetKey": "",
        "_forwardBindMovingTargetKey": ""
      },
      {
        "$type": "MoleMole.Config.ConfigTeleportToAction",
        "type": "TELEPORT_TO",
        "aliasList": [
          "14178"
        ],
        "actionId": 196,
        "position": {
          "x": 304.8909912109375,
          "y": 28.732999801635742,
          "z": 0.2540000081062317
        },
        "forward": {
          "x": 1.0,
          "z": -0.012000000104308128
        },
        "openLongDisTeleport": true,
        "syncForward": true,
        "_posBindMovingTargetKey": "",
        "_forwardBindMovingTargetKey": ""
      },
      {
        "$type": "MoleMole.Config.ConfigTeleportToAction",
        "type": "TELEPORT_TO",
        "aliasList": [
          "AvatarNpc"
        ],
        "actionId": 197,
        "position": {
          "x": 317.1570129394531,
          "y": 28.82200050354004,
          "z": -0.08299999684095383
        },
        "forward": {
          "x": -5.610000133514404,
          "y": -0.07100000232458115,
          "z": 0.054999999701976776
        },
        "openLongDisTeleport": true,
        "syncForward": true,
        "_posBindMovingTargetKey": "",
        "_forwardBindMovingTargetKey": ""
      },
      {
        "$type": "EDCHPJLDKIN",
        "type": "BODY_LANG",
        "aliasList": [
          "AvatarNpc"
        ],
        "actionId": 201,
        "_flag": 131072,
        "bodyLangParam": 1080,
        "forceDoFreeStyle": true,
        "canDoRepeatFreeStyle": false,
        "cantBackToIdleWhenSitLoop": true,
        "eventPatternSuiteKey": ""
      },
      {
        "$type": "ICHLNKHGCAG",
        "type": "EMO_SYNC",
        "aliasList": [
          "AvatarNpc"
        ],
        "actionId": 202,
        "_flag": 320,
        "dataPath": "",
        "phonemePath": "Cs_Emo_Avatar_Common/Cs_Emo_Avatar_Angry01",
        "emotionPath": "Cs_Emo_Avatar_Common/Cs_Emo_Avatar_Angry01_B",
        "mateDataPath": "",
        "matePhonemePath": "",
        "mateEmotionPath": "",
        "phonemePathHashList": [
          14296606849723709100,
          5508348580450379567,
          7627497203169383327,
          8979581647593659876
        ],
        "emotionPathHashList": [
          12827270931485377071,
          477271327041930928,
          15631992893087520179,
          3915791412555494663
        ],
        "PACNIGOOENN": "",
        "PIBDNPHIAGC": ""
      },
      {
        "$type": "EDCHPJLDKIN",
        "type": "BODY_LANG",
        "aliasList": [
          "1022"
        ],
        "actionId": 204,
        "_flag": 131072,
        "bodyLangParam": 1120,
        "forceDoFreeStyle": true,
        "canDoRepeatFreeStyle": false,
        "cantBackToIdleWhenSitLoop": true,
        "eventPatternSuiteKey": ""
      },
      {
        "$type": "EFHODGEJOHJ",
        "type": "CAMERA_MOVE",
        "duration": 0.5,
        "actionId": 205,
        "camPosOffset": {
          "x": 316.5299987792969,
          "y": 30.08799934387207,
          "z": 0.8960000276565552
        },
        "camForwardTargetOffset": {
          "x": 317.40899658203125,
          "y": 30.118999481201172,
          "z": 0.42100000381469727
        },
        "camFov": 30.0,
        "lerpPattern": 6,
        "cameraBlendType": "EaseInOutCubic",
        "needZAxisRotate": true,
        "rotateAngle": 7.60099983215332,
        "openCameraDither": false,
        "targetNpcAlias": "",
        "closeTreeLeafDither": true,
        "PHGBNNGCJKJ": "",
        "NFILMKCFHEB": "",
        "BGPNGHDAECF": "",
        "cutFrameTrans": {
          "_elevMinValue": -50.0,
          "_elevMaxValue": 50.0,
          "_poleMinValue": -50.0,
          "_poleMaxValue": 50.0
        }
      },
      {
        "$type": "EDCHPJLDKIN",
        "type": "BODY_LANG",
        "aliasList": [
          "1005"
        ],
        "actionId": 206,
        "_flag": 131072,
        "bodyLangParam": 1060,
        "forceDoFreeStyle": true,
        "canDoRepeatFreeStyle": false,
        "cantBackToIdleWhenSitLoop": true,
        "eventPatternSuiteKey": ""
      },
      {
        "$type": "HGDDIPABPCA",
        "type": "LOOK_AT_EYECTRL",
        "aliasList": [
          "1022"
        ],
        "actionId": 207,
        "_flag": 4672,
        "useTargetPos": false,
        "turnTime": 0.20000000298023224,
        "targetNpcAlias": "",
        "targetPoint": "Face"
      },
      {
        "$type": "MoleMole.Config.ConfigTeleportToAction",
        "type": "TELEPORT_TO",
        "aliasList": [
          "Avatar"
        ],
        "actionId": 209,
        "position": {
          "x": 317.1570129394531,
          "y": 28.82200050354004,
          "z": -0.08299999684095383
        },
        "forward": {
          "x": -5.610000133514404,
          "y": -0.07100000232458115,
          "z": 0.054999999701976776
        },
        "openLongDisTeleport": true,
        "syncForward": true,
        "_posBindMovingTargetKey": "",
        "_forwardBindMovingTargetKey": ""
      },
      {
        "$type": "ICHLNKHGCAG",
        "type": "EMO_SYNC",
        "aliasList": [
          "1022"
        ],
        "actionId": 217,
        "_flag": 320,
        "dataPath": "",
        "phonemePath": "Cs_Emo_Avatar_Common/Cs_Emo_Avatar_Angry01",
        "emotionPath": "Cs_Emo_Avatar_Common/Cs_Emo_Avatar_Angry01_B",
        "mateDataPath": "",
        "matePhonemePath": "",
        "mateEmotionPath": "",
        "phonemePathHashList": [
          14296606849723709100,
          5508348580450379567,
          7627497203169383327,
          8979581647593659876
        ],
        "emotionPathHashList": [
          12827270931485377071,
          477271327041930928,
          15631992893087520179,
          3915791412555494663
        ],
        "PACNIGOOENN": "",
        "PIBDNPHIAGC": ""
      },
      {
        "$type": "ICHLNKHGCAG",
        "type": "EMO_SYNC",
        "aliasList": [
          "1005"
        ],
        "actionId": 223,
        "_flag": 320,
        "dataPath": "Cs_Emo_Avatar_Simple_Common_Set/Cs_Emo_Avatar_Talk/Cs_Emo_Avatar_MainLine/Cs_Emo_Avatar_Twins04/Cs_Emo_80200503",
        "phonemePath": "",
        "emotionPath": "",
        "mateDataPath": "",
        "matePhonemePath": "",
        "mateEmotionPath": "",
        "dataPathHashList": [
          15087160999520039192,
          2718962916062560995,
          3733377744319102047,
          2462841444147311755
        ],
        "PACNIGOOENN": "",
        "PIBDNPHIAGC": ""
      },
      {
        "$type": "EFHODGEJOHJ",
        "type": "CAMERA_MOVE",
        "delayTime": 0.10000000149011612,
        "duration": 0.5,
        "actionId": 226,
        "camPosOffset": {
          "x": 315.45001220703125,
          "y": 29.573999404907227,
          "z": 1.0069999694824219
        },
        "camForwardTargetOffset": {
          "x": 316.3290100097656,
          "y": 29.785999298095703,
          "z": 0.5789999961853027
        },
        "camFov": 35.0,
        "cameraBlendType": "EaseOutQuad",
        "needZAxisRotate": true,
        "rotateAngle": 10.045999526977539,
        "openCameraDither": false,
        "targetNpcAlias": "",
        "closeTreeLeafDither": true,
        "PHGBNNGCJKJ": "",
        "NFILMKCFHEB": "",
        "BGPNGHDAECF": "",
        "cutFrameTrans": {
          "_elevMinValue": -50.0,
          "_elevMaxValue": 50.0,
          "_poleMinValue": -50.0,
          "_poleMaxValue": 50.0
        }
      },
      {
        "$type": "EFHODGEJOHJ",
        "type": "CAMERA_MOVE",
        "delayTime": 0.4440000057220459,
        "duration": 3.0490000247955322,
        "actionId": 227,
        "camPosOffset": {
          "x": 315.45001220703125,
          "y": 29.573999404907227,
          "z": 1.0069999694824219
        },
        "camForwardTargetOffset": {
          "x": 316.3290100097656,
          "y": 29.785999298095703,
          "z": 0.5789999961853027
        },
        "camFov": 35.0,
        "cameraBlendType": "EaseOutQuad",
        "needZAxisRotate": true,
        "rotateAngle": 10.045999526977539,
        "openCameraDither": false,
        "targetNpcAlias": "",
        "closeTreeLeafDither": true,
        "PHGBNNGCJKJ": "",
        "NFILMKCFHEB": "",
        "BGPNGHDAECF": "",
        "cutFrameTrans": {
          "_elevMinValue": -50.0,
          "_elevMaxValue": 50.0,
          "_poleMinValue": -50.0,
          "_poleMaxValue": 50.0
        }
      },
      {
        "$type": "MoleMole.Config.ConfigNewCameraShakeAction",
        "type": "NEW_CAMERA_SHAKE",
        "duration": 1.5,
        "actionId": 232,
        "seed": 0.041999999433755875,
        "amplitudeBase": {
          "x": 1.399999976158142,
          "y": 1.2000000476837158,
          "z": 1.7999999523162842
        },
        "frequencyBase": {
          "x": 7.0,
          "y": 7.0,
          "z": 7.0
        },
        "amplitudeCurve": {
          "keyframes": [
            {
              "value": 0.9470000267028809,
              "inTangent": -1.5049999952316284,
              "outTangent": -1.5049999952316284
            },
            {
              "time": 1.0,
              "value": -0.0689999982714653
            }
          ]
        },
        "frequencyCurve": {
          "keyframes": [
            {
              "value": 1.0,
              "inTangent": -1.524999976158142,
              "outTangent": -1.524999976158142
            },
            {
              "time": 1.0,
              "value": -0.039000000804662704
            }
          ]
        }
      },
      {
        "$type": "MoleMole.Config.ConfigSetAnimatorSpeedAction",
        "type": "SET_ANIMATOR_SPEED",
        "delayTime": 0.024000000208616257,
        "aliasList": [
          "1022"
        ],
        "actionId": 316,
        "speedRatio": 1.2000000476837158,
        "blendType": "EaseInOutQuad"
      },
      {
        "$type": "MoleMole.Config.ConfigTeleportToAction",
        "type": "TELEPORT_TO",
        "aliasList": [
          "1022"
        ],
        "actionId": 317,
        "position": {
          "x": 317.2380065917969,
          "y": 28.82200050354004,
          "z": -0.6790000200271606
        },
        "forward": {
          "x": -2.615000009536743,
          "z": -2.1619999408721924
        },
        "openLongDisTeleport": true,
        "syncForward": true,
        "_posBindMovingTargetKey": "",
        "_forwardBindMovingTargetKey": ""
      },
      {
        "$type": "MoleMole.Config.ConfigSetAnimatorSpeedAction",
        "type": "SET_ANIMATOR_SPEED",
        "delayTime": 0.9829999804496765,
        "aliasList": [
          "1022"
        ],
        "actionId": 320,
        "speedRatio": 1.0,
        "blendType": "EaseInOutQuad"
      },
      {
        "$type": "NPCNMEOCADD",
        "type": "LOOK_AT",
        "aliasList": [
          "1022"
        ],
        "actionId": 322,
        "_flag": 64,
        "enableHead": true,
        "useTargetPos": true,
        "enableAbsolute": true,
        "targetPosition": {
          "x": 302.9530029296875,
          "y": 30.549999237060547,
          "z": -0.29600000381469727
        },
        "headTurnTime": 0.5,
        "targetNpcAlias": "14178",
        "lookAtTargetType": "NONE",
        "openBackProtect": true,
        "backProtectAngle": 10.0,
        "targetNpcLookAtPoint": "",
        "BHGPHGNFCBF": ""
      },
      {
        "$type": "NPCNMEOCADD",
        "type": "LOOK_AT",
        "aliasList": [
          "1005"
        ],
        "actionId": 323,
        "_flag": 64,
        "enableHead": true,
        "useTargetPos": true,
        "enableAbsolute": true,
        "targetPosition": {
          "x": 302.9530029296875,
          "y": 30.549999237060547,
          "z": -0.29600000381469727
        },
        "headTurnTime": 0.5,
        "targetNpcAlias": "14178",
        "lookAtTargetType": "NONE",
        "openBackProtect": true,
        "backProtectAngle": 10.0,
        "targetNpcLookAtPoint": "",
        "BHGPHGNFCBF": ""
      },
      {
        "$type": "NPCNMEOCADD",
        "type": "LOOK_AT",
        "aliasList": [
          "AvatarNpc"
        ],
        "actionId": 325,
        "_flag": 64,
        "enableHead": true,
        "useTargetPos": true,
        "enableAbsolute": true,
        "targetPosition": {
          "x": 302.9530029296875,
          "y": 30.549999237060547,
          "z": -0.29600000381469727
        },
        "headTurnTime": 0.5,
        "targetNpcAlias": "14178",
        "lookAtTargetType": "NONE",
        "openBackProtect": true,
        "backProtectAngle": 10.0,
        "targetNpcLookAtPoint": "",
        "BHGPHGNFCBF": ""
      }
    ],
    [
      {
        "$type": "MoleMole.Config.ConfigTimeProtectAction",
        "type": "TIME_PROTECT",
        "duration": 0.10000000149011612,
        "actionId": 105
      },
      {
        "$type": "MoleMole.Config.ConfigSimpleBlackScreenAction",
        "type": "SIMPLE_BLACK_SCREEN",
        "actionId": 112,
        "durationToBlack": 0.5,
        "durationKeepBlack": 1.5,
        "durationFromBlack": 0.5,
        "textMapID": ""
      },
      {
        "$type": "MoleMole.Config.ConfigTimeProtectAction",
        "type": "TIME_PROTECT",
        "duration": 0.699999988079071,
        "actionId": 113
      },
      {
        "$type": "EDCHPJLDKIN",
        "type": "BODY_LANG",
        "delayTime": 0.6000000238418579,
        "aliasList": [
          "1005"
        ],
        "actionId": 115,
        "_flag": 131072,
        "isContinue": true,
        "forceDoFreeStyle": true,
        "canDoRepeatFreeStyle": false,
        "cantBackToIdleWhenSitLoop": true,
        "eventPatternSuiteKey": ""
      },
      {
        "$type": "EDCHPJLDKIN",
        "type": "BODY_LANG",
        "delayTime": 0.6000000238418579,
        "aliasList": [
          "1022"
        ],
        "actionId": 117,
        "_flag": 131072,
        "isContinue": true,
        "forceDoFreeStyle": true,
        "canDoRepeatFreeStyle": false,
        "cantBackToIdleWhenSitLoop": true,
        "eventPatternSuiteKey": ""
      },
      {
        "$type": "EFHODGEJOHJ",
        "type": "CAMERA_MOVE",
        "delayTime": 0.6000000238418579,
        "duration": 0.10000000149011612,
        "actionId": 120,
        "cameraPosType": "EXIT",
        "camForwardTargetOffset": {
          "z": 1.0
        },
        "camFov": 30.0,
        "lerpPattern": 5,
        "cameraBlendType": "EaseInOutCubic",
        "openCameraDither": false,
        "targetNpcAlias": "",
        "closeTreeLeafDither": true,
        "PHGBNNGCJKJ": "",
        "NFILMKCFHEB": "",
        "BGPNGHDAECF": "",
        "cutFrameTrans": {
          "_elevMinValue": -50.0,
          "_elevMaxValue": 50.0,
          "_poleMinValue": -50.0,
          "_poleMaxValue": 50.0
        }
      },
      {
        "$type": "MoleMole.Config.ConfigVisibleInterAction",
        "type": "VISIBLE",
        "delayTime": 0.6000000238418579,
        "aliasList": [
          "AvatarNpc"
        ],
        "actionId": 123,
        "_extraParam": ""
      },
      {
        "$type": "MoleMole.Config.ConfigVisibleInterAction",
        "type": "VISIBLE",
        "delayTime": 0.6000000238418579,
        "aliasList": [
          "Avatar"
        ],
        "actionId": 124,
        "isVisible": true,
        "_extraParam": ""
      },
      {
        "$type": "EDCHPJLDKIN",
        "type": "BODY_LANG",
        "delayTime": 0.6000000238418579,
        "aliasList": [
          "AvatarNpc"
        ],
        "actionId": 126,
        "_flag": 131072,
        "isContinue": true,
        "forceDoFreeStyle": true,
        "canDoRepeatFreeStyle": false,
        "cantBackToIdleWhenSitLoop": true,
        "eventPatternSuiteKey": ""
      },
      {
        "$type": "MoleMole.Config.ConfigVisibleInterAction",
        "type": "VISIBLE",
        "delayTime": 0.6000000238418579,
        "aliasList": [
          "14178"
        ],
        "actionId": 219,
        "_extraParam": ""
      },
      {
        "$type": "MoleMole.Config.ConfigVisibleInterAction",
        "type": "VISIBLE",
        "delayTime": 0.6000000238418579,
        "aliasList": [
          "1022"
        ],
        "actionId": 220,
        "_extraParam": ""
      }
    ]
  ],
  "groupId": [
    {
      "grpId": 3489112164,
      "nextGrpId": 3489112165,
      "_noCircleNextGrpId": 3489112165
    },
    {
      "index": 1,
      "grpId": 3489112165,
      "nextGrpId": 3489112166,
      "_noCircleNextGrpId": 3489112166
    },
    {
      "index": 2,
      "grpId": 3489112166,
      "nextGrpId": 3489112167,
      "_noCircleNextGrpId": 3489112167
    },
    {
      "index": 3,
      "grpId": 3489112167,
      "nextGrpId": 3489112168,
      "_noCircleNextGrpId": 3489112168
    },
    {
      "index": 4,
      "grpId": 3489112168,
      "nextGrpId": 3489112169,
      "_noCircleNextGrpId": 3489112169
    },
    {
      "index": 5,
      "grpId": 3489112169,
      "nextGrpId": 3489112170,
      "_noCircleNextGrpId": 3489112170
    },
    {
      "index": 6,
      "grpId": 3489112170,
      "nextGrpId": 3489112171,
      "_noCircleNextGrpId": 3489112171
    },
    {
      "index": 7,
      "grpId": 3489112171,
      "nextGrpId": 3489112172,
      "_noCircleNextGrpId": 3489112172
    }
  ],
  "freeStyleDic": {
    "1025": [
      1080
    ],
    "1026": [
      1080
    ],
    "1022": [
      1120
    ]
  },
  "GHHKLKIGEOD": {
    "AvatarNpc": [
      "SitChat01AS",
      "SitHoldArm01AS",
      "SitShrug01AS",
      "SitThink01AS"
    ],
    "1022": [
      "SitChat01AS",
      "SitHoldArm01AS",
      "SitPutArm01AS",
      "SitShrug01AS",
      "SitThink01AS"
    ]
  },
  "IDMJJGEMEPG": 3489112171
}