{
  "luaDataPath": "",
  "isSimpleTalk": true,
  "entityBan": "",
  "disableNpcLod": true,
  "startFade": {
    "startFadeOutDuration": 0.0
  },
  "endFade": {
    "startFadeOutDuration": 0.0
  },
  "actors": [
    {
      "alias": "Avatar",
      "visible": true,
      "bornPointName": "",
      "relativePosNpcAlias": "",
      "_bindMovingTargetKey": ""
    },
    {
      "configID": 1624,
      "alias": "1624",
      "visible": true,
      "bornPointName": "",
      "relativePosNpcAlias": "",
      "_bindMovingTargetKey": ""
    }
  ],
  "group": [
    [
      {
        "$type": "FJKIHHKJLMJ",
        "type": "CAMERA_FOCUS",
        "delayTime": 0.30000001192092896,
        "duration": 0.10000000149011612,
        "targetNpcAlias": "",
        "KJOEFBPOIIH": "",
        "IICFKKEBIEC": "",
        "EGEHEJEBLBJ": ""
      },
      {
        "$type": "MoleMole.Config.ConfigTimeProtectAction",
        "type": "TIME_PROTECT",
        "duration": 0.4000000059604645
      }
    ],
    [
      {
        "$type": "HDGKHDNFMIM",
        "type": "DIALOG_SELECT",
        "delayTime": 0.4000000059604645,
        "aliasList": [
          "Avatar"
        ],
        "dialogIDList": [
          728060202
        ],
        "grpIDList": [
          2593088981
        ],
        "useGrpId": true
      },
      {
        "$type": "PKKMAMONGEO",
        "type": "DIALOG",
        "aliasList": [
          "1624"
        ],
        "dialogID": 728060201,
        "protectTime": 0.5
      }
    ],
    [
      {
        "$type": "PKKMAMONGEO",
        "type": "DIALOG",
        "aliasList": [
          "1624"
        ],
        "dialogID": 728060203,
        "protectTime": 0.5
      }
    ],
    [
      {
        "$type": "PKKMAMONGEO",
        "type": "DIALOG",
        "aliasList": [
          "1624"
        ],
        "dialogID": 728060204,
        "protectTime": 0.5
      }
    ],
    [
      {
        "$type": "PKKMAMONGEO",
        "type": "DIALOG",
        "aliasList": [
          "1624"
        ],
        "dialogID": 728060205,
        "protectTime": 0.5
      }
    ],
    [
      {
        "$type": "MoleMole.Config.ConfigBlackScreenAction",
        "type": "BLACK_SCREEN",
        "durationToBlack": 0.5,
        "durationKeepBlack": 2.0,
        "durationFromBlack": 0.5,
        "inteePos": "",
        "textMapID": "QUEST_Message_Q7280602",
        "useTextFade": true
      },
      {
        "$type": "PKKMAMONGEO",
        "type": "DIALOG_CLEAR",
        "dialogID": 728060205
      }
    ],
    [
      {
        "$type": "PKKMAMONGEO",
        "type": "DIALOG",
        "aliasList": [
          "1624"
        ],
        "dialogID": 728060206,
        "protectTime": 0.5
      }
    ],
    [
      {
        "$type": "PKKMAMONGEO",
        "type": "DIALOG",
        "aliasList": [
          "1624"
        ],
        "dialogID": 728060207,
        "protectTime": 0.5
      }
    ],
    [
      {
        "$type": "PKKMAMONGEO",
        "type": "DIALOG",
        "aliasList": [
          "1624"
        ],
        "dialogID": 728060208,
        "protectTime": 0.5
      }
    ],
    [
      {
        "$type": "MoleMole.Config.ConfigTimeProtectAction",
        "type": "TIME_PROTECT",
        "duration": 0.10000000149011612
      }
    ]
  ],
  "groupId": [
    {
      "grpId": 2593088979,
      "nextGrpId": 2593088980
    },
    {
      "index": 1,
      "grpId": 2593088980,
      "nextGrpId": 2593088981
    },
    {
      "index": 2,
      "grpId": 2593088981,
      "nextGrpId": 2593088982
    },
    {
      "index": 3,
      "grpId": 2593088982,
      "nextGrpId": 2593088983
    },
    {
      "index": 4,
      "grpId": 2593088983,
      "nextGrpId": 2593088984
    },
    {
      "index": 5,
      "grpId": 2593088984,
      "nextGrpId": 2593088985
    },
    {
      "index": 6,
      "grpId": 2593088985,
      "nextGrpId": 2593088986
    },
    {
      "index": 7,
      "grpId": 2593088986,
      "nextGrpId": 2593088987
    },
    {
      "index": 8,
      "grpId": 2593088987,
      "nextGrpId": 3076347069
    },
    {
      "index": 9,
      "grpId": 3076347069,
      "nextGrpId": 3076347070
    }
  ],
  "freeStyleDic": {
    "1624": []
  }
}