[
  {
    "NDFOMPAGOLB": 1,
    "groupLinkId": 20330101,
    "DPDNAFDKPBE": 1167,
    "challengeId": 99,
    "watcherId": 12033201
  },
  {
    "NDFOMPAGOLB": 2,
    "groupLinkId": 20330102,
    "DPDNAFDKPBE": 1167,
    "challengeId": 99,
    "watcherId": 12033202
  },
  {
    "NDFOMPAGOLB": 3,
    "groupLinkId": 20330103,
    "DPDNAFDKPBE": 1167,
    "challengeId": 99,
    "watcherId": 12033203
  },
  {
    "NDFOMPAGOLB": 4,
    "groupLinkId": 20330201,
    "DPDNAFDKPBE": 1166,
    "challengeId": 99,
    "watcherId": 12033205
  },
  {
    "NDFOMPAGOLB": 5,
    "groupLinkId": 20330202,
    "DPDNAFDKPBE": 1166,
    "challengeId": 99,
    "watcherId": 12033206
  },
  {
    "NDFOMPAGOLB": 6,
    "groupLinkId": 20330203,
    "DPDNAFDKPBE": 1166,
    "challengeId": 99,
    "watcherId": 12033207
  },
  {
    "NDFOMPAGOLB": 7,
    "groupLinkId": 20330301,
    "DPDNAFDKPBE": 1168,
    "challengeId": 99,
    "watcherId": 12033209
  },
  {
    "NDFOMPAGOLB": 8,
    "groupLinkId": 20330302,
    "DPDNAFDKPBE": 1168,
    "challengeId": 99,
    "watcherId": 12033210
  },
  {
    "NDFOMPAGOLB": 9,
    "groupLinkId": 20330303,
    "DPDNAFDKPBE": 1168,
    "challengeId": 99,
    "watcherId": 12033211
  },
  {
    "NDFOMPAGOLB": 10,
    "groupLinkId": 20330304,
    "DPDNAFDKPBE": 1168,
    "challengeId": 99,
    "watcherId": 12033212
  }
]