[
  {
    "id": 1,
    "scheduleId": 5022001,
    "levelId": 1,
    "levelTitleTextMapHash": 2984850657,
    "levelDescTextMapHash": 3022324269,
    "monsterPreviewIdList": [
      30201,
      90,
      30301,
      90,
      50302,
      90,
      50303,
      90,
      50601,
      90,
      10102,
      80,
      10107,
      80,
      10202,
      80,
      10106,
      80,
      50103,
      80,
      50106,
      80,
      50701,
      80,
      50303,
      80,
      50601,
      80,
      30301,
      80,
      115,
      80,
      113,
      80,
      112,
      80
    ],
    "keyMonsterPreviewIdList": [],
    "openDay": 1,
    "challengeMissionWatcherList": [
      1,
      2,
      3,
      4,
      5
    ],
    "statisticsIdList": [
      1,
      2,
      3
    ],
    "bgIconHash": 1154283087462170121,
    "dungeonId": 7100,
    "dungeonFactorIdList": [
      10430,
      10431
    ],
    "failTips": [
      "UI_ACTIVITY_MISTTRIAL_FAIL_TIPS_00",
      "UI_ACTIVITY_MISTTRIAL_FAIL_TIPS_01"
    ],
    "trialAvatarIdList": [],
    "serverGlobalValueKey": "",
    "floorLevelList": [],
    "battleStatisticsData": []
  },
  {
    "id": 2,
    "scheduleId": 5022001,
    "levelId": 2,
    "levelTitleTextMapHash": 2217002449,
    "levelDescTextMapHash": 1638977717,
    "monsterPreviewIdList": [
      20101,
      90,
      10202,
      90,
      60401,
      80,
      30106,
      80,
      30105,
      80,
      30104,
      80,
      10109,
      80,
      10202,
      80
    ],
    "keyMonsterPreviewIdList": [],
    "openDay": 1,
    "challengeMissionWatcherList": [
      6,
      7,
      8,
      9,
      10
    ],
    "statisticsIdList": [
      4,
      5,
      6
    ],
    "bgIconHash": 2673527372376393285,
    "dungeonId": 7102,
    "dungeonFactorIdList": [
      10434,
      10435
    ],
    "failTips": [
      "UI_ACTIVITY_MISTTRIAL_FAIL_TIPS_00",
      "UI_ACTIVITY_MISTTRIAL_FAIL_TIPS_02"
    ],
    "trialAvatarIdList": [],
    "serverGlobalValueKey": "",
    "floorLevelList": [],
    "battleStatisticsData": []
  },
  {
    "id": 3,
    "scheduleId": 5022001,
    "levelId": 3,
    "levelTitleTextMapHash": 601190569,
    "levelDescTextMapHash": 3116976805,
    "monsterPreviewIdList": [
      10205,
      90,
      10203,
      91,
      30104,
      80,
      30102,
      80,
      30201,
      80,
      10105,
      80,
      10109,
      80,
      20101,
      80,
      10201,
      80
    ],
    "keyMonsterPreviewIdList": [],
    "openDay": 3,
    "challengeMissionWatcherList": [
      11,
      12,
      13,
      14,
      15
    ],
    "statisticsIdList": [
      7,
      8,
      9
    ],
    "bgIconHash": 842523150555123858,
    "dungeonId": 7104,
    "dungeonFactorIdList": [
      10438,
      10439
    ],
    "failTips": [
      "UI_ACTIVITY_MISTTRIAL_FAIL_TIPS_00",
      "UI_ACTIVITY_MISTTRIAL_FAIL_TIPS_03"
    ],
    "trialAvatarIdList": [],
    "serverGlobalValueKey": "",
    "floorLevelList": [],
    "battleStatisticsData": []
  },
  {
    "id": 4,
    "scheduleId": 5022001,
    "levelId": 4,
    "levelTitleTextMapHash": 639670097,
    "levelDescTextMapHash": 1620717117,
    "monsterPreviewIdList": [
      40103,
      90,
      30201,
      80,
      10202,
      80,
      60401,
      80,
      50701,
      80,
      50303,
      80,
      50302,
      80
    ],
    "keyMonsterPreviewIdList": [],
    "openDay": 3,
    "challengeMissionWatcherList": [
      16,
      17,
      18,
      19,
      20
    ],
    "statisticsIdList": [
      10,
      11
    ],
    "bgIconHash": 4279746094333652232,
    "dungeonId": 7105,
    "dungeonFactorIdList": [
      10440,
      10441
    ],
    "failTips": [
      "UI_ACTIVITY_MISTTRIAL_FAIL_TIPS_00",
      "UI_ACTIVITY_MISTTRIAL_FAIL_TIPS_04"
    ],
    "trialAvatarIdList": [],
    "serverGlobalValueKey": "",
    "floorLevelList": [],
    "battleStatisticsData": []
  },
  {
    "id": 5,
    "scheduleId": 5022001,
    "levelId": 5,
    "levelTitleTextMapHash": 4004505345,
    "levelDescTextMapHash": 1283668853,
    "monsterPreviewIdList": [
      10205,
      90,
      60301,
      90,
      20101,
      80,
      20102,
      80,
      60401,
      80,
      10202,
      80
    ],
    "keyMonsterPreviewIdList": [],
    "openDay": 5,
    "challengeMissionWatcherList": [
      21,
      22,
      23,
      24,
      25
    ],
    "statisticsIdList": [
      12,
      13,
      14
    ],
    "bgIconHash": 15433837874376344480,
    "dungeonId": 7101,
    "dungeonFactorIdList": [
      10432,
      10433
    ],
    "failTips": [
      "UI_ACTIVITY_MISTTRIAL_FAIL_TIPS_00",
      "UI_ACTIVITY_MISTTRIAL_FAIL_TIPS_05"
    ],
    "trialAvatarIdList": [],
    "serverGlobalValueKey": "",
    "floorLevelList": [],
    "battleStatisticsData": []
  },
  {
    "id": 6,
    "scheduleId": 5022001,
    "levelId": 6,
    "levelTitleTextMapHash": 3386646953,
    "levelDescTextMapHash": 3422832677,
    "monsterPreviewIdList": [
      40101,
      90,
      30101,
      80,
      30102,
      80,
      30104,
      80,
      30105,
      80,
      30106,
      80
    ],
    "keyMonsterPreviewIdList": [],
    "openDay": 5,
    "challengeMissionWatcherList": [
      26,
      27,
      28,
      29,
      30
    ],
    "statisticsIdList": [
      15,
      16,
      17
    ],
    "bgIconHash": 14403538018200732736,
    "dungeonId": 7103,
    "dungeonFactorIdList": [
      10436,
      10437
    ],
    "failTips": [
      "UI_ACTIVITY_MISTTRIAL_FAIL_TIPS_00",
      "UI_ACTIVITY_MISTTRIAL_FAIL_TIPS_06"
    ],
    "trialAvatarIdList": [],
    "serverGlobalValueKey": "",
    "floorLevelList": [],
    "battleStatisticsData": []
  },
  {
    "id": 7,
    "scheduleId": 5054001,
    "levelId": 1,
    "levelTitleTextMapHash": 2883131465,
    "levelDescTextMapHash": 2646481221,
    "monsterPreviewIdList": [
      10205,
      90,
      10202,
      90
    ],
    "keyMonsterPreviewIdList": [
      60401,
      80,
      40201,
      80,
      40203,
      80,
      40204,
      80,
      50102,
      80,
      50303,
      80,
      50107,
      80,
      30201,
      80
    ],
    "openDay": 1,
    "challengeMissionWatcherList": [
      33,
      34
    ],
    "statisticsIdList": [
      19
    ],
    "bgIconHash": 13405999791953023396,
    "dungeonId": 7107,
    "dungeonFactorIdList": [],
    "failTips": [
      "UI_ACTIVITY_MISTTRIAL_FAIL_TIPS_00",
      "UI_ACTIVITY_MISTTRIAL_FAIL_TIPS_08"
    ],
    "trialAvatarIdList": [
      17,
      18,
      24,
      14,
      15,
      20,
      21
    ],
    "serverGlobalValueKey": "SGV_ABILITY_Mist_Level",
    "floorLevelList": [
      2,
      3
    ],
    "battleStatisticsData": [
      10701005,
      10701006,
      10701007,
      10701008
    ]
  },
  {
    "id": 8,
    "scheduleId": 5054001,
    "levelId": 2,
    "levelTitleTextMapHash": 2946964385,
    "levelDescTextMapHash": 2702548909,
    "monsterPreviewIdList": [
      20301,
      90,
      20103,
      90
    ],
    "keyMonsterPreviewIdList": [
      110,
      80,
      111,
      80,
      20103,
      80,
      10301,
      80,
      30103,
      80,
      30105,
      80,
      30106,
      80,
      30301,
      80,
      30201,
      80,
      502,
      80,
      508,
      80,
      504,
      80,
      506,
      80,
      507,
      80
    ],
    "openDay": 1,
    "challengeMissionWatcherList": [
      31,
      32
    ],
    "statisticsIdList": [
      18
    ],
    "bgIconHash": 15806249469176251554,
    "dungeonId": 7106,
    "dungeonFactorIdList": [],
    "failTips": [
      "UI_ACTIVITY_MISTTRIAL_FAIL_TIPS_00",
      "UI_ACTIVITY_MISTTRIAL_FAIL_TIPS_07"
    ],
    "trialAvatarIdList": [
      11,
      12,
      13,
      14,
      15,
      16
    ],
    "serverGlobalValueKey": "SGV_ABILITY_Mist_Level",
    "floorLevelList": [
      1
    ],
    "battleStatisticsData": [
      10701001,
      10701002,
      10701003,
      10701004
    ]
  },
  {
    "id": 9,
    "scheduleId": 5054001,
    "levelId": 3,
    "levelTitleTextMapHash": 2065458249,
    "levelDescTextMapHash": 3619318909,
    "monsterPreviewIdList": [
      20102,
      90,
      20103,
      90,
      20101,
      90
    ],
    "keyMonsterPreviewIdList": [
      502,
      80,
      503,
      80,
      504,
      80,
      509,
      80,
      507,
      80,
      60101,
      80,
      60103,
      80,
      60102,
      80,
      20103,
      80,
      112,
      80,
      108,
      80,
      110,
      80,
      105,
      80
    ],
    "openDay": 3,
    "challengeMissionWatcherList": [
      41,
      42
    ],
    "statisticsIdList": [
      23
    ],
    "bgIconHash": 18049128977186893253,
    "dungeonId": 7111,
    "dungeonFactorIdList": [],
    "failTips": [
      "UI_ACTIVITY_MISTTRIAL_FAIL_TIPS_00",
      "UI_ACTIVITY_MISTTRIAL_FAIL_TIPS_12"
    ],
    "trialAvatarIdList": [
      32,
      33,
      15,
      14,
      21,
      19
    ],
    "serverGlobalValueKey": "SGV_ABILITY_Mist_Level",
    "floorLevelList": [
      8
    ],
    "battleStatisticsData": [
      10701021,
      10701022,
      10701023,
      10701024
    ]
  },
  {
    "id": 10,
    "scheduleId": 5054001,
    "levelId": 4,
    "levelTitleTextMapHash": 1323773489,
    "levelDescTextMapHash": 619211901,
    "monsterPreviewIdList": [
      51001,
      90,
      51002,
      90
    ],
    "keyMonsterPreviewIdList": [
      20102,
      80,
      10202,
      80,
      10105,
      80,
      10112,
      80,
      30201,
      80,
      30301,
      80,
      50102,
      80,
      50103,
      80,
      50104,
      80,
      50701,
      80
    ],
    "openDay": 3,
    "challengeMissionWatcherList": [
      39,
      40
    ],
    "statisticsIdList": [
      22
    ],
    "bgIconHash": 16705773734067068597,
    "dungeonId": 7110,
    "dungeonFactorIdList": [],
    "failTips": [
      "UI_ACTIVITY_MISTTRIAL_FAIL_TIPS_00",
      "UI_ACTIVITY_MISTTRIAL_FAIL_TIPS_11"
    ],
    "trialAvatarIdList": [
      17,
      30,
      21,
      31,
      20,
      29
    ],
    "serverGlobalValueKey": "SGV_ABILITY_Mist_Level",
    "floorLevelList": [
      6,
      7
    ],
    "battleStatisticsData": [
      10701017,
      10701018,
      10701019,
      10701020
    ]
  },
  {
    "id": 11,
    "scheduleId": 5054001,
    "levelId": 5,
    "levelTitleTextMapHash": 3106329505,
    "levelDescTextMapHash": 4205946493,
    "monsterPreviewIdList": [
      40201,
      90,
      40202,
      90,
      40203,
      90,
      40204,
      90
    ],
    "keyMonsterPreviewIdList": [
      20103,
      80,
      10114,
      80,
      10202,
      80,
      10104,
      80,
      113,
      80,
      112,
      80,
      109,
      80,
      108,
      80,
      111,
      80,
      110,
      80,
      30105,
      80,
      30101,
      80,
      30104,
      80,
      30201,
      80
    ],
    "openDay": 5,
    "challengeMissionWatcherList": [
      35,
      36
    ],
    "statisticsIdList": [
      20
    ],
    "bgIconHash": 5239026899455726848,
    "dungeonId": 7108,
    "dungeonFactorIdList": [],
    "failTips": [
      "UI_ACTIVITY_MISTTRIAL_FAIL_TIPS_00",
      "UI_ACTIVITY_MISTTRIAL_FAIL_TIPS_09"
    ],
    "trialAvatarIdList": [
      11,
      22,
      23,
      15,
      24,
      25,
      26
    ],
    "serverGlobalValueKey": "SGV_ABILITY_Mist_Level",
    "floorLevelList": [
      4
    ],
    "battleStatisticsData": [
      10701009,
      10701010,
      10701011,
      10701012
    ]
  },
  {
    "id": 12,
    "scheduleId": 5054001,
    "levelId": 6,
    "levelTitleTextMapHash": 1644123921,
    "levelDescTextMapHash": 1129139237,
    "monsterPreviewIdList": [
      10208,
      90,
      10306,
      90,
      10109,
      90
    ],
    "keyMonsterPreviewIdList": [
      20104,
      80,
      10306,
      80,
      10110,
      80,
      601,
      80,
      602,
      80,
      60301,
      80,
      114,
      80,
      106,
      80
    ],
    "openDay": 5,
    "challengeMissionWatcherList": [
      37,
      38
    ],
    "statisticsIdList": [
      21
    ],
    "bgIconHash": 1107919358408781320,
    "dungeonId": 7109,
    "dungeonFactorIdList": [],
    "failTips": [
      "UI_ACTIVITY_MISTTRIAL_FAIL_TIPS_00",
      "UI_ACTIVITY_MISTTRIAL_FAIL_TIPS_10"
    ],
    "trialAvatarIdList": [
      27,
      28,
      19,
      24,
      13,
      20,
      29
    ],
    "serverGlobalValueKey": "SGV_ABILITY_Mist_Level",
    "floorLevelList": [
      5
    ],
    "battleStatisticsData": [
      10701013,
      10701014,
      10701015,
      10701016
    ]
  },
  {
    "id": 13,
    "scheduleId": 5054001,
    "levelId": 7,
    "levelTitleTextMapHash": 2687835825,
    "levelDescTextMapHash": 35181797,
    "monsterPreviewIdList": [
      10208,
      90,
      10305,
      90,
      10202,
      90,
      10207,
      90,
      20101,
      90,
      20103,
      90,
      10105,
      90,
      10109,
      90,
      10107,
      90,
      107,
      90,
      106,
      90,
      10102,
      90,
      112,
      90,
      10103,
      90
    ],
    "keyMonsterPreviewIdList": [
      20501,
      80,
      20401,
      80,
      30501,
      80,
      30201,
      80,
      20101,
      80,
      20104,
      80
    ],
    "openDay": 5,
    "challengeMissionWatcherList": [
      43,
      44
    ],
    "statisticsIdList": [
      24
    ],
    "bgIconHash": 12227310247251161253,
    "dungeonId": 7112,
    "dungeonFactorIdList": [],
    "failTips": [
      "UI_ACTIVITY_MISTTRIAL_FAIL_TIPS_00",
      "UI_ACTIVITY_MISTTRIAL_FAIL_TIPS_13"
    ],
    "trialAvatarIdList": [
      11,
      12,
      17,
      18,
      22,
      27,
      28,
      30,
      32,
      33,
      13,
      14,
      15,
      16,
      19,
      20,
      21,
      23,
      24,
      25,
      26,
      29,
      31
    ],
    "serverGlobalValueKey": "SGV_ABILITY_Mist_Level",
    "floorLevelList": [
      9
    ],
    "battleStatisticsData": [
      10701025,
      10701026,
      10701027,
      10701028
    ]
  },
  {
    "id": 14,
    "scheduleId": 5114001,
    "levelId": 1,
    "levelTitleTextMapHash": 1182335409,
    "levelDescTextMapHash": 3960640101,
    "monsterPreviewIdList": [
      54102,
      90,
      52104,
      90,
      50103,
      90,
      52103,
      90,
      52101,
      90,
      52105,
      90,
      50102,
      90,
      50601,
      90,
      50106,
      90
    ],
    "keyMonsterPreviewIdList": [
      52102,
      80,
      52105,
      80,
      52103,
      80,
      52101,
      80,
      52104,
      80,
      50801,
      80,
      50802,
      80,
      113,
      80,
      10102,
      80,
      108,
      80,
      10107,
      80,
      10106,
      80,
      10202,
      80,
      61201,
      80,
      60907,
      80,
      60909,
      80,
      60905,
      80,
      112,
      80,
      61204,
      80
    ],
    "openDay": 1,
    "challengeMissionWatcherList": [
      45,
      46
    ],
    "statisticsIdList": [
      25
    ],
    "bgIconHash": 16067714606868889935,
    "mapPictureHash": 9167560313598412134,
    "dungeonId": 8301,
    "dungeonFactorIdList": [],
    "failTips": [
      "UI_ACTIVITY_MISTTRIAL_FAIL_TIPS_18"
    ],
    "trialAvatarIdList": [
      34,
      35,
      36,
      39,
      37,
      38
    ],
    "serverGlobalValueKey": "SGV_ABILITY_Mist_Level",
    "floorLevelList": [
      10
    ],
    "battleStatisticsData": [
      11801001,
      11801002,
      11801003,
      11801004
    ]
  },
  {
    "id": 15,
    "scheduleId": 5114001,
    "levelId": 2,
    "levelTitleTextMapHash": 2005295961,
    "levelDescTextMapHash": 3368540581,
    "monsterPreviewIdList": [
      40402,
      90,
      40301,
      90,
      40403,
      90
    ],
    "keyMonsterPreviewIdList": [
      10113,
      80,
      10303,
      80,
      10102,
      80,
      10202,
      80,
      40101,
      80,
      40201,
      80,
      40202,
      80,
      30105,
      80,
      30102,
      80,
      30201,
      80
    ],
    "openDay": 1,
    "challengeMissionWatcherList": [
      47,
      48
    ],
    "statisticsIdList": [
      26
    ],
    "bgIconHash": 12323304483822210260,
    "mapPictureHash": 9167560313598412134,
    "dungeonId": 8302,
    "dungeonFactorIdList": [],
    "failTips": [
      "UI_ACTIVITY_MISTTRIAL_FAIL_TIPS_14"
    ],
    "trialAvatarIdList": [
      41,
      42,
      40,
      44,
      37,
      43
    ],
    "serverGlobalValueKey": "SGV_ABILITY_Mist_Level",
    "floorLevelList": [
      11
    ],
    "battleStatisticsData": [
      11801005,
      11801006,
      11801007,
      11801008
    ]
  },
  {
    "id": 16,
    "scheduleId": 5114001,
    "levelId": 3,
    "levelTitleTextMapHash": 3589574657,
    "levelDescTextMapHash": 2348130533,
    "monsterPreviewIdList": [
      60401,
      90,
      50802,
      90,
      50801,
      90,
      52103,
      90,
      52105,
      90
    ],
    "keyMonsterPreviewIdList": [
      10106,
      80,
      113,
      80,
      10102,
      80,
      20101,
      80,
      51002,
      80,
      52102,
      80,
      52103,
      80,
      53101,
      80,
      30201,
      80
    ],
    "openDay": 3,
    "challengeMissionWatcherList": [
      49,
      50
    ],
    "statisticsIdList": [
      27
    ],
    "bgIconHash": 17170853784729405074,
    "mapPictureHash": 9167560313598412134,
    "dungeonId": 8303,
    "dungeonFactorIdList": [],
    "failTips": [
      "UI_ACTIVITY_MISTTRIAL_FAIL_TIPS_16"
    ],
    "trialAvatarIdList": [
      40,
      45,
      46,
      43,
      38,
      47
    ],
    "serverGlobalValueKey": "SGV_ABILITY_Mist_Level",
    "floorLevelList": [
      12,
      13
    ],
    "battleStatisticsData": [
      11801009,
      11801010,
      11801011,
      11801012
    ]
  },
  {
    "id": 17,
    "scheduleId": 5114001,
    "levelId": 4,
    "levelTitleTextMapHash": 3149835049,
    "levelDescTextMapHash": 2711445013,
    "monsterPreviewIdList": [
      40103,
      90,
      40204,
      90,
      40202,
      90
    ],
    "keyMonsterPreviewIdList": [
      10306,
      80,
      10116,
      80,
      10102,
      80,
      113,
      80,
      10207,
      80,
      30101,
      80,
      30105,
      80,
      30106,
      80,
      52103,
      80,
      52102,
      80,
      52104,
      80,
      52105,
      80,
      52101,
      80,
      53101,
      80
    ],
    "openDay": 3,
    "challengeMissionWatcherList": [
      51,
      52
    ],
    "statisticsIdList": [
      28
    ],
    "bgIconHash": 4839061422531920712,
    "mapPictureHash": 9167560313598412134,
    "dungeonId": 8304,
    "dungeonFactorIdList": [],
    "failTips": [
      "UI_ACTIVITY_MISTTRIAL_FAIL_TIPS_15"
    ],
    "trialAvatarIdList": [
      49,
      53,
      48,
      51,
      52,
      50
    ],
    "serverGlobalValueKey": "SGV_ABILITY_Mist_Level",
    "floorLevelList": [
      14
    ],
    "battleStatisticsData": [
      11801013,
      11801014,
      11801015,
      11801016
    ]
  },
  {
    "id": 18,
    "scheduleId": 5114001,
    "levelId": 5,
    "levelTitleTextMapHash": 1885649305,
    "levelDescTextMapHash": 449861581,
    "monsterPreviewIdList": [
      53101,
      90,
      53103,
      90,
      51002,
      90,
      52102,
      90,
      50801,
      90,
      50802,
      90
    ],
    "keyMonsterPreviewIdList": [
      602,
      80,
      507,
      80,
      110,
      80,
      40403,
      80,
      40402,
      80,
      50106,
      80,
      52105,
      80,
      52104,
      80,
      52103,
      80,
      50102,
      80,
      50701,
      80,
      52102,
      80
    ],
    "openDay": 5,
    "challengeMissionWatcherList": [
      53,
      54
    ],
    "statisticsIdList": [
      29
    ],
    "bgIconHash": 9986115909421573232,
    "mapPictureHash": 9167560313598412134,
    "dungeonId": 8305,
    "dungeonFactorIdList": [],
    "failTips": [
      "UI_ACTIVITY_MISTTRIAL_FAIL_TIPS_17"
    ],
    "trialAvatarIdList": [
      54,
      40,
      46,
      37,
      43,
      55
    ],
    "serverGlobalValueKey": "SGV_ABILITY_Mist_Level",
    "floorLevelList": [
      15
    ],
    "battleStatisticsData": [
      11801017,
      11801018,
      11801019,
      11801020
    ]
  },
  {
    "id": 19,
    "scheduleId": 5114001,
    "levelId": 6,
    "levelTitleTextMapHash": 2066993073,
    "levelDescTextMapHash": 2993868613,
    "monsterPreviewIdList": [
      40302,
      90,
      10202,
      90,
      10207,
      90
    ],
    "keyMonsterPreviewIdList": [
      20501,
      80,
      20401,
      80,
      40101,
      80,
      54101,
      80,
      30201,
      80,
      52105,
      80,
      52104,
      80
    ],
    "openDay": 5,
    "challengeMissionWatcherList": [
      55,
      56
    ],
    "statisticsIdList": [
      30
    ],
    "bgIconHash": 13833189844748534996,
    "mapPictureHash": 9167560313598412134,
    "dungeonId": 8306,
    "dungeonFactorIdList": [],
    "failTips": [
      "UI_ACTIVITY_MISTTRIAL_FAIL_TIPS_19"
    ],
    "trialAvatarIdList": [
      56,
      57,
      58,
      59,
      61,
      60
    ],
    "serverGlobalValueKey": "SGV_ABILITY_Mist_Level",
    "floorLevelList": [
      16
    ],
    "battleStatisticsData": [
      11801021,
      11801022,
      11801023,
      11801024
    ]
  },
  {
    "id": 20,
    "scheduleId": 5114001,
    "levelId": 7,
    "levelTitleTextMapHash": 1592851857,
    "levelDescTextMapHash": 116042181,
    "monsterPreviewIdList": [
      60102,
      90,
      20101,
      90,
      10202,
      90,
      113,
      90,
      10303,
      90,
      10306,
      90,
      10107,
      90,
      10109,
      90,
      10116,
      90,
      10102,
      90,
      112,
      90
    ],
    "keyMonsterPreviewIdList": [
      61202,
      80,
      60907,
      80,
      60905,
      80,
      112,
      80,
      60910,
      80,
      61203,
      80,
      40203,
      80,
      40202,
      80,
      52102,
      80,
      52101,
      80,
      52105,
      80,
      50801,
      80,
      50802,
      80
    ],
    "openDay": 5,
    "challengeMissionWatcherList": [
      57,
      58
    ],
    "statisticsIdList": [
      31
    ],
    "bgIconHash": 3650240783795471165,
    "mapPictureHash": 9167560313598412134,
    "dungeonId": 8307,
    "dungeonFactorIdList": [],
    "failTips": [
      "UI_ACTIVITY_MISTTRIAL_FAIL_TIPS_20"
    ],
    "trialAvatarIdList": [
      56,
      57,
      34,
      49,
      53,
      41,
      54,
      42,
      40,
      45,
      48,
      35,
      46,
      58,
      59,
      36,
      39,
      61,
      44,
      60,
      37,
      43,
      55,
      38,
      47,
      51,
      52,
      50
    ],
    "serverGlobalValueKey": "SGV_ABILITY_Mist_Level",
    "floorLevelList": [
      17
    ],
    "battleStatisticsData": [
      11801025,
      11801026,
      11801027,
      11801028
    ]
  },
  {
    "id": 21,
    "scheduleId": 5167001,
    "levelId": 1,
    "levelTitleTextMapHash": 960907713,
    "levelDescTextMapHash": 3620451701,
    "monsterPreviewIdList": [
      30201,
      90,
      54102,
      90,
      52105,
      90,
      52104,
      90,
      52103,
      90,
      52102,
      90,
      52101,
      90
    ],
    "keyMonsterPreviewIdList": [
      50601,
      80,
      50107,
      80,
      50102,
      80,
      40604,
      80,
      40601,
      80,
      10306,
      80,
      10301,
      80,
      10202,
      80,
      10110,
      80,
      10102,
      80,
      10101,
      80
    ],
    "openDay": 1,
    "challengeMissionWatcherList": [
      59,
      60
    ],
    "statisticsIdList": [
      32
    ],
    "bgIconHash": 8206350113932240702,
    "dungeonId": 9701,
    "dungeonFactorIdList": [],
    "failTips": [
      "UI_ACTIVITY_MISTTRIAL_FAIL_TIPS_21"
    ],
    "trialAvatarIdList": [
      62,
      63,
      69,
      64,
      65,
      87
    ],
    "serverGlobalValueKey": "SGV_ABILITY_Mist4_Level",
    "floorLevelList": [
      18,
      24
    ],
    "battleStatisticsData": [
      13506001,
      13506002,
      13506003,
      13506004
    ]
  },
  {
    "id": 22,
    "scheduleId": 5167001,
    "levelId": 2,
    "levelTitleTextMapHash": 2083397201,
    "levelDescTextMapHash": 2539175429,
    "monsterPreviewIdList": [
      40101,
      90,
      40301,
      90
    ],
    "keyMonsterPreviewIdList": [
      51001,
      80,
      30101,
      80,
      30105,
      80,
      10204,
      80
    ],
    "openDay": 2,
    "challengeMissionWatcherList": [
      61,
      62
    ],
    "statisticsIdList": [
      33
    ],
    "bgIconHash": 3340705299030239530,
    "dungeonId": 9702,
    "dungeonFactorIdList": [],
    "failTips": [
      "UI_ACTIVITY_MISTTRIAL_FAIL_TIPS_22"
    ],
    "trialAvatarIdList": [
      68,
      69,
      70,
      71,
      72,
      85
    ],
    "serverGlobalValueKey": "SGV_ABILITY_Mist4_Level",
    "floorLevelList": [
      19,
      24
    ],
    "battleStatisticsData": [
      13506005,
      13506006,
      13506007,
      13506008
    ]
  },
  {
    "id": 23,
    "scheduleId": 5167001,
    "levelId": 3,
    "levelTitleTextMapHash": 2063559409,
    "levelDescTextMapHash": 841736029,
    "monsterPreviewIdList": [
      40662,
      90,
      40660,
      90,
      40659,
      90,
      40654,
      90
    ],
    "keyMonsterPreviewIdList": [
      61204,
      80,
      61201,
      80,
      60401,
      80,
      10402,
      80,
      10202,
      80
    ],
    "openDay": 3,
    "challengeMissionWatcherList": [
      63,
      64
    ],
    "statisticsIdList": [
      34
    ],
    "bgIconHash": 3250682578128268748,
    "dungeonId": 9703,
    "dungeonFactorIdList": [],
    "failTips": [
      "UI_ACTIVITY_MISTTRIAL_FAIL_TIPS_23"
    ],
    "trialAvatarIdList": [
      86,
      73,
      74,
      75,
      88,
      77
    ],
    "serverGlobalValueKey": "SGV_ABILITY_Mist4_Level",
    "floorLevelList": [
      20,
      24
    ],
    "battleStatisticsData": [
      13506009,
      13506010,
      13506011,
      13506012
    ]
  },
  {
    "id": 24,
    "scheduleId": 5167001,
    "levelId": 4,
    "levelTitleTextMapHash": 1369633489,
    "levelDescTextMapHash": 1008017701,
    "monsterPreviewIdList": [
      20101,
      90,
      10402,
      90,
      10301,
      90,
      10202,
      90,
      10105,
      90,
      10102,
      90
    ],
    "keyMonsterPreviewIdList": [
      53103,
      80,
      52105,
      80,
      52103,
      80,
      52102,
      80,
      52101,
      80,
      50601,
      80,
      50102,
      80,
      40204,
      80,
      40203,
      80,
      40202,
      80,
      40201,
      80,
      30106,
      80
    ],
    "openDay": 4,
    "challengeMissionWatcherList": [
      65,
      66
    ],
    "statisticsIdList": [
      35
    ],
    "bgIconHash": 9899402840789238019,
    "dungeonId": 9704,
    "dungeonFactorIdList": [],
    "failTips": [
      "UI_ACTIVITY_MISTTRIAL_FAIL_TIPS_24"
    ],
    "trialAvatarIdList": [
      86,
      78,
      79,
      75,
      65,
      89
    ],
    "serverGlobalValueKey": "SGV_ABILITY_Mist4_Level",
    "floorLevelList": [
      21,
      24
    ],
    "battleStatisticsData": [
      13506013,
      13506014,
      13506015,
      13506016
    ]
  },
  {
    "id": 25,
    "scheduleId": 5167001,
    "levelId": 5,
    "levelTitleTextMapHash": 1168265201,
    "levelDescTextMapHash": 1050501253,
    "monsterPreviewIdList": [
      40403,
      90,
      40402,
      90,
      40202,
      90,
      40201,
      90,
      40103,
      90
    ],
    "keyMonsterPreviewIdList": [
      50802,
      80,
      50801,
      80,
      51002,
      80,
      20402,
      80,
      20502,
      80,
      40101,
      80
    ],
    "openDay": 5,
    "challengeMissionWatcherList": [
      67,
      68
    ],
    "statisticsIdList": [
      36
    ],
    "bgIconHash": 18135957486499867395,
    "dungeonId": 9705,
    "dungeonFactorIdList": [],
    "failTips": [
      "UI_ACTIVITY_MISTTRIAL_FAIL_TIPS_25"
    ],
    "trialAvatarIdList": [
      81,
      82,
      80,
      79,
      66,
      75
    ],
    "serverGlobalValueKey": "SGV_ABILITY_Mist4_Level",
    "floorLevelList": [
      22,
      24
    ],
    "battleStatisticsData": [
      13506017,
      13506018,
      13506019,
      13506020
    ]
  },
  {
    "id": 26,
    "scheduleId": 5167001,
    "levelId": 6,
    "levelTitleTextMapHash": 3092368033,
    "levelDescTextMapHash": 1810817717,
    "monsterPreviewIdList": [
      30301,
      90,
      30201,
      90,
      30106,
      90,
      30105,
      90,
      30101,
      90
    ],
    "keyMonsterPreviewIdList": [
      61204,
      80,
      61202,
      80,
      60910,
      80,
      60906,
      80,
      60905,
      80,
      53101,
      80,
      52105,
      80,
      52104,
      80,
      52103,
      80,
      52101,
      80,
      10207,
      80,
      10102,
      80,
      10101,
      80,
      113,
      80
    ],
    "openDay": 6,
    "challengeMissionWatcherList": [
      69,
      70
    ],
    "statisticsIdList": [
      37
    ],
    "bgIconHash": 3187283041619216777,
    "dungeonId": 9706,
    "dungeonFactorIdList": [],
    "failTips": [
      "UI_ACTIVITY_MISTTRIAL_FAIL_TIPS_26"
    ],
    "trialAvatarIdList": [
      83,
      74,
      70,
      71,
      84,
      67
    ],
    "serverGlobalValueKey": "SGV_ABILITY_Mist4_Level",
    "floorLevelList": [
      23,
      24
    ],
    "battleStatisticsData": [
      13506021,
      13506022,
      13506023,
      13506024
    ]
  },
  {
    "id": 27,
    "scheduleId": 5167001,
    "levelId": 7,
    "levelTitleTextMapHash": 590685273,
    "levelDescTextMapHash": 3704888477,
    "monsterPreviewIdList": [
      10402,
      90,
      10401,
      90,
      10306,
      90,
      10303,
      90,
      10202,
      90,
      10110,
      90,
      10109,
      90,
      10107,
      90,
      10102,
      90
    ],
    "keyMonsterPreviewIdList": [
      50802,
      80,
      50801,
      80,
      50107,
      80,
      50102,
      80,
      40604,
      80,
      40602,
      80,
      40601,
      80,
      40204,
      80,
      40203,
      80,
      40202,
      80,
      40201,
      80
    ],
    "openDay": 7,
    "challengeMissionWatcherList": [
      71,
      72
    ],
    "statisticsIdList": [
      38
    ],
    "bgIconHash": 18404329534100065549,
    "dungeonId": 9707,
    "dungeonFactorIdList": [],
    "failTips": [
      "UI_ACTIVITY_MISTTRIAL_FAIL_TIPS_27"
    ],
    "trialAvatarIdList": [
      62,
      63,
      69,
      68,
      86,
      73,
      74,
      78,
      81,
      82,
      83,
      64,
      65,
      87,
      70,
      71,
      72,
      85,
      75,
      88,
      77,
      79,
      89,
      80,
      66,
      84,
      67
    ],
    "serverGlobalValueKey": "SGV_ABILITY_Mist4_Level",
    "floorLevelList": [
      24
    ],
    "battleStatisticsData": [
      13506025,
      13506026,
      13506027,
      13506028
    ]
  }
]