[
  {
    "levelId": 1,
    "levelType": "LEVEL_TYPE_SELECT",
    "titleTextMapHash": 2031669662,
    "descTextMapHash": 1535830354,
    "KCKKMAPFPCL": 876254854,
    "JPKOLIMKKOK": 17974154182821761227,
    "CGJPNOPIMCD": "Play_UI_Activity_MusicGame_NPC_XingXiong",
    "FDGCBLKBPJF": "Play_UI_Activity_MusicGame_NPC_XingXiong_Completed",
    "NNFOLCNFNNF": 27919443,
    "DAHFJDJICEM": 11.683,
    "instrumentID": 2,
    "regionType": "RESTORE_REGION_INAZUMA",
    "CDPIAGKFHLB": [
      4,
      8,
      13,
      18
    ],
    "PHEPDPCCADO": "7,8,9;1,9,17;0,7,14;5,12,19",
    "HHMPIEHFFGC": [
      5,
      5,
      4,
      5
    ],
    "markID": 1275,
    "OIKFDKLCGHN": 4015798,
    "openDay": 1,
    "KLANKDBGMPB": 12030301,
    "KHJOHBNLPOI": [
      -3115.326,
      250.9818,
      -4421.295
    ],
    "HOHEMIFINIM": [
      0,
      31.26255,
      0
    ]
  },
  {
    "levelId": 2,
    "levelType": "LEVEL_TYPE_SELECT",
    "titleTextMapHash": 326886702,
    "descTextMapHash": 2747197266,
    "KCKKMAPFPCL": 1589106030,
    "JPKOLIMKKOK": 17974154182821761227,
    "CGJPNOPIMCD": "Play_UI_Activity_MusicGame_NPC_ZhiShu",
    "FDGCBLKBPJF": "Play_UI_Activity_MusicGame_NPC_ZhiShu_Completed",
    "NNFOLCNFNNF": 4215604995,
    "DAHFJDJICEM": 12.206,
    "instrumentID": 2,
    "regionType": "RESTORE_REGION_INAZUMA",
    "CDPIAGKFHLB": [
      5,
      7,
      16
    ],
    "PHEPDPCCADO": "0,7,14;4,11,18;5,12,19",
    "HHMPIEHFFGC": [
      5,
      4,
      7
    ],
    "markID": 1276,
    "OIKFDKLCGHN": 4015797,
    "openDay": 1,
    "KLANKDBGMPB": 12030302,
    "KHJOHBNLPOI": [
      -3092.952,
      251.0937,
      -4428.631
    ],
    "HOHEMIFINIM": [
      0,
      319.0285,
      0
    ]
  },
  {
    "levelId": 3,
    "levelType": "LEVEL_TYPE_SELECT",
    "titleTextMapHash": 4191056046,
    "descTextMapHash": 551184650,
    "KCKKMAPFPCL": 1341419246,
    "JPKOLIMKKOK": 17974154182821761227,
    "CGJPNOPIMCD": "Play_UI_Activity_MusicGame_NPC_ZhiCun",
    "FDGCBLKBPJF": "Play_UI_Activity_MusicGame_NPC_ZhiCun_Completed",
    "NNFOLCNFNNF": 334575259,
    "DAHFJDJICEM": 17.807,
    "instrumentID": 1,
    "regionType": "RESTORE_REGION_INAZUMA",
    "CDPIAGKFHLB": [
      5,
      10,
      13,
      19
    ],
    "PHEPDPCCADO": "11,12,13;4,12,20;5,11,17;8,9,10",
    "HHMPIEHFFGC": [
      5,
      5,
      4,
      8
    ],
    "markID": 1277,
    "OIKFDKLCGHN": 4015796,
    "openDay": 1,
    "KLANKDBGMPB": 12030303,
    "KHJOHBNLPOI": [
      -3064.541,
      246.8022,
      -4402.472
    ],
    "HOHEMIFINIM": [
      0,
      230.9836,
      0
    ]
  },
  {
    "levelId": 4,
    "levelType": "LEVEL_TYPE_SELECT",
    "titleTextMapHash": 3484420590,
    "descTextMapHash": 4085137018,
    "KCKKMAPFPCL": 2888862766,
    "JPKOLIMKKOK": 1841077441829857351,
    "CGJPNOPIMCD": "Play_UI_Activity_MusicGame_NPC_XingXi",
    "FDGCBLKBPJF": "Play_UI_Activity_MusicGame_NPC_XingXi_Completed",
    "NNFOLCNFNNF": 3685158059,
    "DAHFJDJICEM": 17.952,
    "instrumentID": 1,
    "regionType": "RESTORE_REGION_LIYUE",
    "CDPIAGKFHLB": [
      5,
      8,
      16,
      20
    ],
    "PHEPDPCCADO": "2,8,14;8,9,10;18,19,20;5,7,15",
    "HHMPIEHFFGC": [
      5,
      5,
      7,
      5
    ],
    "markID": 1279,
    "OIKFDKLCGHN": 4015790,
    "openDay": 3,
    "KLANKDBGMPB": 12030304,
    "KHJOHBNLPOI": [
      -576.8427,
      226.4452,
      341.846
    ],
    "HOHEMIFINIM": [
      0,
      316.361,
      0
    ]
  },
  {
    "levelId": 5,
    "levelType": "LEVEL_TYPE_SELECT",
    "titleTextMapHash": 2575925614,
    "descTextMapHash": 441586506,
    "KCKKMAPFPCL": 3484882318,
    "JPKOLIMKKOK": 1841077441829857351,
    "CGJPNOPIMCD": "Play_UI_Activity_MusicGame_NPC_LinLang",
    "FDGCBLKBPJF": "Play_UI_Activity_MusicGame_NPC_LinLang_Completed",
    "NNFOLCNFNNF": 3557743651,
    "DAHFJDJICEM": 22.004,
    "instrumentID": 1,
    "regionType": "RESTORE_REGION_LIYUE",
    "CDPIAGKFHLB": [
      3,
      9,
      14,
      19
    ],
    "PHEPDPCCADO": "10,11,2;1,9,17;0,1,2;6,12,18",
    "HHMPIEHFFGC": [
      5,
      5,
      5,
      4,
      5
    ],
    "markID": 1280,
    "OIKFDKLCGHN": 4015791,
    "openDay": 3,
    "KLANKDBGMPB": 12030305,
    "KHJOHBNLPOI": [
      -589.3444,
      226.3904,
      334.8871
    ],
    "HOHEMIFINIM": [
      0,
      246.8758,
      0
    ]
  },
  {
    "levelId": 6,
    "levelType": "LEVEL_TYPE_SELECT",
    "titleTextMapHash": 2329004470,
    "descTextMapHash": 2037487962,
    "KCKKMAPFPCL": 4156996310,
    "JPKOLIMKKOK": 1841077441829857351,
    "CGJPNOPIMCD": "Play_UI_Activity_MusicGame_NPC_JiFang",
    "FDGCBLKBPJF": "Play_UI_Activity_MusicGame_NPC_JiFang_Completed",
    "NNFOLCNFNNF": 349112339,
    "DAHFJDJICEM": 18.213,
    "instrumentID": 6,
    "regionType": "RESTORE_REGION_LIYUE",
    "CDPIAGKFHLB": [
      4,
      10,
      16,
      26
    ],
    "PHEPDPCCADO": "9,10,11;7,8,9;9,10,11;11,19,20",
    "HHMPIEHFFGC": [
      4,
      10,
      4,
      9
    ],
    "markID": 1278,
    "OIKFDKLCGHN": 4015792,
    "openDay": 3,
    "KLANKDBGMPB": 12030306,
    "KHJOHBNLPOI": [
      -539.9849,
      237.7385,
      380.4982
    ],
    "HOHEMIFINIM": [
      0,
      313.5704,
      0
    ]
  },
  {
    "levelId": 7,
    "levelType": "LEVEL_TYPE_SELECT",
    "titleTextMapHash": 2865435710,
    "descTextMapHash": 453053386,
    "KCKKMAPFPCL": 1805999262,
    "JPKOLIMKKOK": 1756515250361991901,
    "CGJPNOPIMCD": "Play_UI_Activity_MusicGame_NPC_ChaErSii",
    "FDGCBLKBPJF": "Play_UI_Activity_MusicGame_NPC_ChaErSii_Completed",
    "NNFOLCNFNNF": 1007858099,
    "DAHFJDJICEM": 13.146,
    "instrumentID": 6,
    "regionType": "RESTORE_REGION_MONDSTADT",
    "CDPIAGKFHLB": [
      4,
      7,
      12,
      16
    ],
    "PHEPDPCCADO": "10,12,19;8,11,13;8,10,13;8,10,14",
    "HHMPIEHFFGC": [
      9,
      3,
      7
    ],
    "markID": 1281,
    "OIKFDKLCGHN": 4015795,
    "openDay": 5,
    "KLANKDBGMPB": 12030307,
    "KHJOHBNLPOI": [
      0.5924829,
      0,
      5.333755
    ],
    "HOHEMIFINIM": [
      0,
      180.0769,
      0
    ]
  },
  {
    "levelId": 8,
    "levelType": "LEVEL_TYPE_SELECT",
    "titleTextMapHash": 1646037478,
    "descTextMapHash": 3525065346,
    "KCKKMAPFPCL": 2392264350,
    "JPKOLIMKKOK": 1756515250361991901,
    "CGJPNOPIMCD": "Play_UI_Activity_MusicGame_NPC_MaQiaoLi",
    "FDGCBLKBPJF": "Play_UI_Activity_MusicGame_NPC_MaQiaoLi_Completed",
    "NNFOLCNFNNF": 1347020923,
    "DAHFJDJICEM": 17.749,
    "instrumentID": 1,
    "regionType": "RESTORE_REGION_MONDSTADT",
    "CDPIAGKFHLB": [
      4,
      8,
      16,
      21
    ],
    "PHEPDPCCADO": "5,11,17;7,8,9;0,1,2;6,13,20",
    "HHMPIEHFFGC": [
      4,
      7,
      6,
      7
    ],
    "markID": 1282,
    "OIKFDKLCGHN": 4015793,
    "openDay": 5,
    "KLANKDBGMPB": 12030308,
    "KHJOHBNLPOI": [
      2243.453,
      213.99,
      -902.326
    ],
    "HOHEMIFINIM": [
      0,
      116.5246,
      0
    ]
  },
  {
    "levelId": 9,
    "levelType": "LEVEL_TYPE_SELECT",
    "titleTextMapHash": 968157486,
    "descTextMapHash": 3682084730,
    "KCKKMAPFPCL": 1773408174,
    "JPKOLIMKKOK": 1756515250361991901,
    "CGJPNOPIMCD": "Play_UI_Activity_MusicGame_NPC_FuLuoLa",
    "FDGCBLKBPJF": "Play_UI_Activity_MusicGame_NPC_FuLuoLa_Completed",
    "NNFOLCNFNNF": 1412835667,
    "DAHFJDJICEM": 9.632,
    "instrumentID": 1,
    "regionType": "RESTORE_REGION_MONDSTADT",
    "CDPIAGKFHLB": [
      4,
      13,
      18
    ],
    "PHEPDPCCADO": "0,7,14;5,12,17;2,9,17",
    "HHMPIEHFFGC": [
      7,
      7,
      7
    ],
    "markID": 1283,
    "OIKFDKLCGHN": 4015794,
    "openDay": 5,
    "KLANKDBGMPB": 12030309,
    "KHJOHBNLPOI": [
      2242.929,
      209.99,
      -930.4532
    ],
    "HOHEMIFINIM": [
      0,
      334.6098,
      0
    ]
  }
]