[
  {
    "id": 1,
    "watcherId": 12032051
  },
  {
    "id": 2,
    "watcherId": 12032052
  },
  {
    "id": 3,
    "watcherId": 12032053
  },
  {
    "id": 4,
    "watcherId": 12032054
  },
  {
    "id": 5,
    "watcherId": 12032055
  },
  {
    "id": 200,
    "watcherId": 12032050,
    "ONPIJKDHILB": true
  }
]