[
  {
    "groupId": 11,
    "ONOJIJLLKGL": [
      112,
      111
    ],
    "typeNameTextMapHash": 1326001750,
    "KGKPAEAHIKK": 3415628873,
    "DIGBKCMPOFA": 100203,
    "CNIBGKDOHCM": "GadgetPoint_3",
    "JJEJFMKCLFE": 111
  },
  {
    "groupId": 12,
    "ONOJIJLLKGL": [
      122,
      121
    ],
    "typeNameTextMapHash": 3044829190,
    "KGKPAEAHIKK": 1930089649,
    "DIGBKCMPOFA": 100204,
    "CNIBGKDOHCM": "GadgetPoint_4",
    "JJEJFMKCLFE": 121
  },
  {
    "groupId": 13,
    "ONOJIJLLKGL": [
      131,
      132
    ],
    "typeNameTextMapHash": 3601559262,
    "KGKPAEAHIKK": 1912569297,
    "DIGBKCMPOFA": 100201,
    "CNIBGKDOHCM": "GadgetPoint_1",
    "JJEJFMKCLFE": 131
  },
  {
    "groupId": 14,
    "ONOJIJLLKGL": [
      142,
      141
    ],
    "typeNameTextMapHash": 615553286,
    "KGKPAEAHIKK": 3092696177,
    "DIGBKCMPOFA": 100202,
    "CNIBGKDOHCM": "GadgetPoint_2",
    "JJEJFMKCLFE": 141
  },
  {
    "groupId": 21,
    "ONOJIJLLKGL": [
      213,
      212,
      211
    ],
    "typeNameTextMapHash": 1560624142,
    "KGKPAEAHIKK": 4250348641,
    "DIGBKCMPOFA": 100206,
    "CNIBGKDOHCM": "GadgetPoint_2",
    "JJEJFMKCLFE": 211
  },
  {
    "groupId": 22,
    "ONOJIJLLKGL": [
      223,
      222,
      221
    ],
    "typeNameTextMapHash": 549972534,
    "KGKPAEAHIKK": 3096249977,
    "DIGBKCMPOFA": 100207,
    "CNIBGKDOHCM": "GadgetPoint_3",
    "JJEJFMKCLFE": 221
  },
  {
    "groupId": 23,
    "ONOJIJLLKGL": [
      232,
      231
    ],
    "typeNameTextMapHash": 927934278,
    "KGKPAEAHIKK": 101984009,
    "DIGBKCMPOFA": 100205,
    "CNIBGKDOHCM": "GadgetPoint_1",
    "JJEJFMKCLFE": 231
  },
  {
    "groupId": 24,
    "ONOJIJLLKGL": [
      242,
      241
    ],
    "typeNameTextMapHash": 2902708630,
    "KGKPAEAHIKK": 777489809,
    "DIGBKCMPOFA": 100208,
    "CNIBGKDOHCM": "GadgetPoint_4",
    "JJEJFMKCLFE": 241
  },
  {
    "groupId": 31,
    "ONOJIJLLKGL": [
      311,
      312
    ],
    "typeNameTextMapHash": 3765502638,
    "KGKPAEAHIKK": 738796073,
    "DIGBKCMPOFA": 100210,
    "CNIBGKDOHCM": "GadgetPoint_2",
    "JJEJFMKCLFE": 311
  },
  {
    "groupId": 32,
    "ONOJIJLLKGL": [
      322,
      321
    ],
    "typeNameTextMapHash": 3689012182,
    "KGKPAEAHIKK": 3808362169,
    "DIGBKCMPOFA": 100211,
    "CNIBGKDOHCM": "GadgetPoint_3",
    "JJEJFMKCLFE": 321
  },
  {
    "groupId": 33,
    "ONOJIJLLKGL": [
      331,
      332
    ],
    "typeNameTextMapHash": 1236388382,
    "KGKPAEAHIKK": 4273246193,
    "DIGBKCMPOFA": 100209,
    "CNIBGKDOHCM": "GadgetPoint_1",
    "JJEJFMKCLFE": 331
  },
  {
    "groupId": 34,
    "ONOJIJLLKGL": [
      341,
      342
    ],
    "typeNameTextMapHash": 1504648934,
    "KGKPAEAHIKK": 3392269433,
    "DIGBKCMPOFA": 100212,
    "CNIBGKDOHCM": "GadgetPoint_4",
    "JJEJFMKCLFE": 341
  },
  {
    "groupId": 35,
    "ONOJIJLLKGL": [
      351,
      352
    ],
    "typeNameTextMapHash": 3574197590,
    "KGKPAEAHIKK": 2743463001,
    "DIGBKCMPOFA": 100213,
    "CNIBGKDOHCM": "GadgetPoint_5",
    "JJEJFMKCLFE": 351
  },
  {
    "groupId": 41,
    "ONOJIJLLKGL": [
      411,
      412
    ],
    "typeNameTextMapHash": 4161677870,
    "KGKPAEAHIKK": 2263020441,
    "DIGBKCMPOFA": 100217,
    "CNIBGKDOHCM": "GadgetPoint_4",
    "JJEJFMKCLFE": 411
  },
  {
    "groupId": 42,
    "ONOJIJLLKGL": [
      422,
      421
    ],
    "typeNameTextMapHash": 576392110,
    "KGKPAEAHIKK": 1148778777,
    "DIGBKCMPOFA": 100214,
    "CNIBGKDOHCM": "GadgetPoint_1",
    "JJEJFMKCLFE": 421
  },
  {
    "groupId": 43,
    "ONOJIJLLKGL": [
      431,
      432
    ],
    "typeNameTextMapHash": 3545166630,
    "KGKPAEAHIKK": 3363468577,
    "DIGBKCMPOFA": 100216,
    "CNIBGKDOHCM": "GadgetPoint_3",
    "JJEJFMKCLFE": 431
  },
  {
    "groupId": 44,
    "ONOJIJLLKGL": [
      443,
      442,
      441
    ],
    "typeNameTextMapHash": 2780335638,
    "KGKPAEAHIKK": 3176002561,
    "DIGBKCMPOFA": 100215,
    "CNIBGKDOHCM": "GadgetPoint_2",
    "JJEJFMKCLFE": 441
  },
  {
    "groupId": 45,
    "ONOJIJLLKGL": [
      453,
      452,
      451
    ],
    "typeNameTextMapHash": 1787144078,
    "KGKPAEAHIKK": 2204547185,
    "DIGBKCMPOFA": 100218,
    "CNIBGKDOHCM": "GadgetPoint_5",
    "JJEJFMKCLFE": 451
  },
  {
    "groupId": 51,
    "ONOJIJLLKGL": [
      512,
      511
    ],
    "typeNameTextMapHash": 634092822,
    "KGKPAEAHIKK": 3656695057,
    "DIGBKCMPOFA": 100221,
    "CNIBGKDOHCM": "GadgetPoint_3",
    "JJEJFMKCLFE": 511
  },
  {
    "groupId": 53,
    "ONOJIJLLKGL": [
      531,
      532
    ],
    "typeNameTextMapHash": 669887542,
    "KGKPAEAHIKK": 730055649,
    "DIGBKCMPOFA": 100219,
    "CNIBGKDOHCM": "GadgetPoint_1",
    "JJEJFMKCLFE": 531
  },
  {
    "groupId": 54,
    "ONOJIJLLKGL": [
      542,
      541
    ],
    "typeNameTextMapHash": 3174256982,
    "KGKPAEAHIKK": 2712441873,
    "DIGBKCMPOFA": 100222,
    "CNIBGKDOHCM": "GadgetPoint_4",
    "JJEJFMKCLFE": 541
  },
  {
    "groupId": 55,
    "ONOJIJLLKGL": [
      553,
      552,
      551
    ],
    "typeNameTextMapHash": 819340814,
    "KGKPAEAHIKK": 2259227841,
    "DIGBKCMPOFA": 100224,
    "CNIBGKDOHCM": "GadgetPoint_6",
    "JJEJFMKCLFE": 551
  },
  {
    "groupId": 56,
    "ONOJIJLLKGL": [
      561,
      562,
      563
    ],
    "typeNameTextMapHash": 4207138966,
    "KGKPAEAHIKK": 1512408025,
    "DIGBKCMPOFA": 100223,
    "CNIBGKDOHCM": "GadgetPoint_5",
    "JJEJFMKCLFE": 561
  }
]