[
  {
    "MNBOKJIIBAH": 1,
    "scoreRatio": 1,
    "reviseLevel": 39,
    "descriptionTextMapHash": 2241513809
  },
  {
    "MNBOKJIIBAH": 2,
    "scoreRatio": 2,
    "reviseLevel": 69,
    "descriptionTextMapHash": 2101344777
  },
  {
    "MNBOKJIIBAH": 3,
    "scoreRatio": 4,
    "reviseLevel": 89,
    "descriptionTextMapHash": 1502218441
  }
]