[
  {
    "galleryId": 78101,
    "tutorialId": 13380,
    "groupLinkId": 20320101,
    "PJBOOKAFKLM": [
      1,
      2,
      3
    ],
    "AEBBGIJNEPA": [
      0,
      1000,
      1500
    ],
    "levelID": 1,
    "activityID": 2032,
    "nameTextMapHash": 2954625542,
    "questList": [],
    "IOLJJIINAFC": [],
    "watcherList": [
      12032101,
      12032102,
      12032103
    ],
    "openDay": 1,
    "LBGLFCIGLDE": [
      "ACTIVITY_LEVEL_COND_TYPE_DEFAULT"
    ],
    "MOOLHLOIFGJ": [
      "ACTIVITY_LEVEL_COND_TYPE_OPEN_DAY",
      "ACTIVITY_LEVEL_COND_TYPE_DEFAULT"
    ],
    "OOABMKBBPAF": [
      "ACTIVITY_LEVEL_COND_TYPE_WATCHER_REWARD_TAKEN"
    ]
  },
  {
    "galleryId": 78102,
    "tutorialId": 13381,
    "groupLinkId": 20320102,
    "PJBOOKAFKLM": [
      1,
      2,
      3
    ],
    "AEBBGIJNEPA": [
      0,
      1500,
      2500
    ],
    "levelID": 2,
    "activityID": 2032,
    "nameTextMapHash": 4007686158,
    "questList": [
      4016218,
      4016327
    ],
    "IOLJJIINAFC": [
      1
    ],
    "watcherList": [
      12032104,
      12032105,
      12032106
    ],
    "openDay": 4,
    "LBGLFCIGLDE": [
      "ACTIVITY_LEVEL_COND_TYPE_MAIN_QUEST"
    ],
    "MOOLHLOIFGJ": [
      "ACTIVITY_LEVEL_COND_TYPE_OPEN_DAY",
      "ACTIVITY_LEVEL_COND_TYPE_PRE_LEVEL_PLAYED"
    ],
    "OOABMKBBPAF": [
      "ACTIVITY_LEVEL_COND_TYPE_WATCHER_REWARD_TAKEN"
    ]
  },
  {
    "galleryId": 78103,
    "tutorialId": 13381,
    "groupLinkId": 20320103,
    "PJBOOKAFKLM": [
      1,
      2,
      3
    ],
    "AEBBGIJNEPA": [
      0,
      2000,
      3000
    ],
    "levelID": 3,
    "activityID": 2032,
    "nameTextMapHash": 1081494278,
    "questList": [
      4016218,
      4016319,
      4016447
    ],
    "IOLJJIINAFC": [
      2
    ],
    "watcherList": [
      12032107,
      12032108,
      12032109
    ],
    "openDay": 6,
    "LBGLFCIGLDE": [
      "ACTIVITY_LEVEL_COND_TYPE_MAIN_QUEST"
    ],
    "MOOLHLOIFGJ": [
      "ACTIVITY_LEVEL_COND_TYPE_OPEN_DAY",
      "ACTIVITY_LEVEL_COND_TYPE_PRE_LEVEL_PLAYED"
    ],
    "OOABMKBBPAF": [
      "ACTIVITY_LEVEL_COND_TYPE_WATCHER_REWARD_TAKEN"
    ]
  }
]