[
  {
    "id": 1,
    "type": "SNIPER_PREVIEW_GADGET",
    "BGJKCLHIOJC": "UI_Icon_FilmfestSniper_BalloonCart_01",
    "FMJCCCMOMHI": "UI_Icon_FilmfestSniper_BalloonCart_01",
    "titleTextMapHash": 1295572484,
    "descriptionTextMapHash": 2657621382
  },
  {
    "id": 2,
    "type": "SNIPER_PREVIEW_GADGET",
    "BGJKCLHIOJC": "UI_Icon_FilmfestSniper_Blindage_02",
    "FMJCCCMOMHI": "UI_Icon_FilmfestSniper_Blindage_02",
    "titleTextMapHash": 3389958108,
    "descriptionTextMapHash": 2704554214
  },
  {
    "id": 3,
    "type": "SNIPER_PREVIEW_GADGET",
    "BGJKCLHIOJC": "UI_Icon_FilmfestSniper_Blindage_01",
    "FMJCCCMOMHI": "UI_Icon_FilmfestSniper_Blindage_01",
    "titleTextMapHash": 4000118004,
    "descriptionTextMapHash": 2906683270
  },
  {
    "id": 4,
    "type": "SNIPER_PREVIEW_GADGET",
    "BGJKCLHIOJC": "UI_Icon_FilmfestSniper_Bombbarrel_01",
    "FMJCCCMOMHI": "UI_Icon_FilmfestSniper_Bombbarrel_01",
    "PEDGBCDDDBH": true,
    "titleTextMapHash": 3490700988,
    "descriptionTextMapHash": 927548582
  },
  {
    "id": 5,
    "type": "SNIPER_PREVIEW_GADGET",
    "BGJKCLHIOJC": "UI_Icon_FilmfestSniper_BalloonBomb_01",
    "FMJCCCMOMHI": "UI_Icon_FilmfestSniper_BalloonBomb_01",
    "PEDGBCDDDBH": true,
    "titleTextMapHash": 911847604,
    "descriptionTextMapHash": 2712475182
  },
  {
    "id": 6,
    "type": "SNIPER_PREVIEW_GADGET",
    "BGJKCLHIOJC": "UI_Icon_FilmfestSniper_HiliWoodenBox_01",
    "FMJCCCMOMHI": "UI_Icon_FilmfestSniper_HiliWoodenBox_01",
    "PEDGBCDDDBH": true,
    "titleTextMapHash": 2768057452,
    "descriptionTextMapHash": 1912015830
  }
]