[
  {
    "id": 1,
    "nameTextMapHash": 3844439775,
    "descriptionTextMapHash": 3190844432,
    "descParam": [
      "12",
      "60",
      "4",
      "",
      ""
    ]
  },
  {
    "id": 2,
    "nameTextMapHash": 1841083095,
    "descriptionTextMapHash": 834002072,
    "descParam": [
      "12",
      "1",
      "",
      "",
      ""
    ]
  },
  {
    "id": 3,
    "nameTextMapHash": 3153093495,
    "descriptionTextMapHash": 627813504,
    "descParam": [
      "12",
      "80",
      "70",
      "50",
      ""
    ]
  },
  {
    "id": 4,
    "nameTextMapHash": 3702038495,
    "descriptionTextMapHash": 2968739368,
    "descParam": [
      "12",
      "30",
      "6",
      "6",
      ""
    ]
  }
]