[
  {
    "id": 1,
    "KJDENGPAOHN": [],
    "ALCDABOMGKJ": "ART/Others/Gadget/SceneObject/Prop/SceneObj_Area_Common_Property_Ani_Prop_BirdBall_Normal_Local",
    "BOHHINFAFFK": "ART/Others/Gadget/SceneObject/Prop/SceneObj_Area_Common_Property_Ani_Prop_BirdBall_Normal_Remote",
    "iconPath": "ART/UI/Atlas/Activity/BirdBall/UI_Icon_BirdBall_01",
    "BELEANFNJPA": 2342470709
  },
  {
    "id": 2,
    "KJDENGPAOHN": [
      "Stick"
    ],
    "ALCDABOMGKJ": "ART/Others/Gadget/SceneObject/Prop/SceneObj_Area_Common_Property_Ani_Prop_BirdBall_Stick_Local",
    "BOHHINFAFFK": "ART/Others/Gadget/SceneObject/Prop/SceneObj_Area_Common_Property_Ani_Prop_BirdBall_Stick_Remote",
    "iconPath": "ART/UI/Atlas/Activity/BirdBall/UI_Icon_BirdBall_02",
    "BELEANFNJPA": 143404885
  },
  {
    "id": 3,
    "KJDENGPAOHN": [
      "Attraction"
    ],
    "ALCDABOMGKJ": "ART/Others/Gadget/SceneObject/Prop/SceneObj_Area_Common_Property_Ani_Prop_BirdBall_Attraction_Local",
    "BOHHINFAFFK": "ART/Others/Gadget/SceneObject/Prop/SceneObj_Area_Common_Property_Ani_Prop_BirdBall_Attraction_Remote",
    "iconPath": "ART/UI/Atlas/Activity/BirdBall/UI_Icon_BirdBall_06",
    "BELEANFNJPA": 2878550197
  },
  {
    "id": 4,
    "KJDENGPAOHN": [
      "Repulsion"
    ],
    "ALCDABOMGKJ": "ART/Others/Gadget/SceneObject/Prop/SceneObj_Area_Common_Property_Ani_Prop_BirdBall_Repulsion_Local",
    "BOHHINFAFFK": "ART/Others/Gadget/SceneObject/Prop/SceneObj_Area_Common_Property_Ani_Prop_BirdBall_Repulsion_Remote",
    "iconPath": "ART/UI/Atlas/Activity/BirdBall/UI_Icon_BirdBall_03",
    "BELEANFNJPA": 2370329749
  }
]