[
  {
    "id": 1,
    "CLOILCAILHL": "UI_JourneyDice_Medal_0",
    "levelNameTextMapHash": 2683429733
  },
  {
    "id": 2,
    "score": 1000,
    "CLOILCAILHL": "UI_JourneyDice_Medal_1",
    "levelNameTextMapHash": 2519625325
  },
  {
    "id": 3,
    "score": 2000,
    "CLOILCAILHL": "UI_JourneyDice_Medal_2",
    "levelNameTextMapHash": 2439394485
  },
  {
    "id": 4,
    "score": 3000,
    "CLOILCAILHL": "UI_JourneyDice_Medal_3",
    "levelNameTextMapHash": 3979544885
  },
  {
    "id": 5,
    "score": 4500,
    "CLOILCAILHL": "UI_JourneyDice_Medal_4",
    "levelNameTextMapHash": 2672467437
  }
]