[
  {
    "robotId": 1,
    "shapeList": [
      1
    ],
    "colorList": [
      1
    ],
    "actionList": [
      1
    ],
    "type": "ROBOT_TYPE_NORMAL",
    "furnitureId": 364601,
    "materialId": 101867,
    "modelPath": "SceneObj_Homeworld_Ani_General_Common_Decoration_Prop_RandomRobot_02",
    "animatorID": 202,
    "playInterval": 5,
    "descTextMapHash": 2596237636,
    "audio": "Play_ui_activity_robot_randomRobot_01_1"
  },
  {
    "robotId": 2,
    "shapeList": [
      1
    ],
    "colorList": [
      1
    ],
    "actionList": [
      2
    ],
    "type": "ROBOT_TYPE_NORMAL",
    "furnitureId": 364602,
    "materialId": 101868,
    "modelPath": "SceneObj_Homeworld_Ani_General_Common_Decoration_Prop_RandomRobot_02",
    "animatorID": 203,
    "playInterval": 5,
    "descTextMapHash": 2545157644,
    "audio": "Play_ui_activity_robot_randomRobot_01_2"
  },
  {
    "robotId": 3,
    "shapeList": [
      1
    ],
    "colorList": [
      1
    ],
    "actionList": [
      3
    ],
    "type": "ROBOT_TYPE_NORMAL",
    "furnitureId": 364603,
    "materialId": 101869,
    "modelPath": "SceneObj_Homeworld_Ani_General_Common_Decoration_Prop_RandomRobot_02",
    "animatorID": 204,
    "playInterval": 5,
    "descTextMapHash": 2161002636,
    "audio": "Play_ui_activity_robot_randomRobot_01_3"
  },
  {
    "robotId": 4,
    "shapeList": [
      1
    ],
    "colorList": [
      2
    ],
    "actionList": [
      1
    ],
    "type": "ROBOT_TYPE_NORMAL",
    "furnitureId": 364604,
    "materialId": 101870,
    "modelPath": "SceneObj_Homeworld_Ani_General_Common_Decoration_Prop_RandomRobot_03",
    "animatorID": 202,
    "playInterval": 5,
    "descTextMapHash": 3416042876,
    "audio": "Play_ui_activity_robot_randomRobot_01_1"
  },
  {
    "robotId": 5,
    "shapeList": [
      1
    ],
    "colorList": [
      2
    ],
    "actionList": [
      2
    ],
    "type": "ROBOT_TYPE_NORMAL",
    "furnitureId": 364605,
    "materialId": 101871,
    "modelPath": "SceneObj_Homeworld_Ani_General_Common_Decoration_Prop_RandomRobot_03",
    "animatorID": 203,
    "playInterval": 5,
    "descTextMapHash": 1601243148,
    "audio": "Play_ui_activity_robot_randomRobot_01_2"
  },
  {
    "robotId": 6,
    "shapeList": [
      1
    ],
    "colorList": [
      2
    ],
    "actionList": [
      3
    ],
    "type": "ROBOT_TYPE_NORMAL",
    "furnitureId": 364606,
    "materialId": 101872,
    "modelPath": "SceneObj_Homeworld_Ani_General_Common_Decoration_Prop_RandomRobot_03",
    "animatorID": 204,
    "playInterval": 5,
    "descTextMapHash": 2693763332,
    "audio": "Play_ui_activity_robot_randomRobot_01_3"
  },
  {
    "robotId": 7,
    "shapeList": [
      1
    ],
    "colorList": [
      3
    ],
    "actionList": [
      1
    ],
    "type": "ROBOT_TYPE_NORMAL",
    "furnitureId": 364607,
    "materialId": 101873,
    "modelPath": "SceneObj_Homeworld_Ani_General_Common_Decoration_Prop_RandomRobot_04",
    "animatorID": 202,
    "playInterval": 5,
    "descTextMapHash": 3273760868,
    "audio": "Play_ui_activity_robot_randomRobot_01_1"
  },
  {
    "robotId": 8,
    "shapeList": [
      1
    ],
    "colorList": [
      3
    ],
    "actionList": [
      2
    ],
    "type": "ROBOT_TYPE_NORMAL",
    "furnitureId": 364608,
    "materialId": 101874,
    "modelPath": "SceneObj_Homeworld_Ani_General_Common_Decoration_Prop_RandomRobot_04",
    "animatorID": 203,
    "playInterval": 5,
    "descTextMapHash": 2796398604,
    "audio": "Play_ui_activity_robot_randomRobot_01_2"
  },
  {
    "robotId": 9,
    "shapeList": [
      1
    ],
    "colorList": [
      3
    ],
    "actionList": [
      3
    ],
    "type": "ROBOT_TYPE_NORMAL",
    "furnitureId": 364609,
    "materialId": 101875,
    "modelPath": "SceneObj_Homeworld_Ani_General_Common_Decoration_Prop_RandomRobot_04",
    "animatorID": 204,
    "playInterval": 5,
    "descTextMapHash": 766622500,
    "audio": "Play_ui_activity_robot_randomRobot_01_3"
  },
  {
    "robotId": 10,
    "shapeList": [
      1
    ],
    "colorList": [
      4
    ],
    "actionList": [
      1,
      2,
      3
    ],
    "type": "ROBOT_TYPE_HIDDEN",
    "furnitureId": 364619,
    "materialId": 101876,
    "modelPath": "SceneObj_Homeworld_Ani_General_Common_Decoration_Prop_RandomRobot_01",
    "animatorID": 201,
    "playInterval": 10,
    "descTextMapHash": 1863052772,
    "audio": "Play_ui_activity_robot_randomRobot_01_4"
  },
  {
    "robotId": 11,
    "shapeList": [
      2
    ],
    "colorList": [
      1
    ],
    "actionList": [
      1
    ],
    "type": "ROBOT_TYPE_NORMAL",
    "furnitureId": 364610,
    "materialId": 101877,
    "modelPath": "SceneObj_Homeworld_Ani_General_Common_Decoration_Prop_RandomRobot_06",
    "animatorID": 202,
    "playInterval": 5,
    "descTextMapHash": 1035357508,
    "audio": "Play_ui_activity_robot_randomRobot_02_1"
  },
  {
    "robotId": 12,
    "shapeList": [
      2
    ],
    "colorList": [
      1
    ],
    "actionList": [
      2
    ],
    "type": "ROBOT_TYPE_NORMAL",
    "furnitureId": 364611,
    "materialId": 101878,
    "modelPath": "SceneObj_Homeworld_Ani_General_Common_Decoration_Prop_RandomRobot_06",
    "animatorID": 203,
    "playInterval": 5,
    "descTextMapHash": 3436886828,
    "audio": "Play_ui_activity_robot_randomRobot_02_2"
  },
  {
    "robotId": 13,
    "shapeList": [
      2
    ],
    "colorList": [
      1
    ],
    "actionList": [
      3
    ],
    "type": "ROBOT_TYPE_NORMAL",
    "furnitureId": 364612,
    "materialId": 101879,
    "modelPath": "SceneObj_Homeworld_Ani_General_Common_Decoration_Prop_RandomRobot_06",
    "animatorID": 204,
    "playInterval": 5,
    "descTextMapHash": 3862808164,
    "audio": "Play_ui_activity_robot_randomRobot_02_3"
  },
  {
    "robotId": 14,
    "shapeList": [
      2
    ],
    "colorList": [
      2
    ],
    "actionList": [
      1
    ],
    "type": "ROBOT_TYPE_NORMAL",
    "furnitureId": 364613,
    "materialId": 101880,
    "modelPath": "SceneObj_Homeworld_Ani_General_Common_Decoration_Prop_RandomRobot_07",
    "animatorID": 202,
    "playInterval": 5,
    "descTextMapHash": 1883879740,
    "audio": "Play_ui_activity_robot_randomRobot_02_1"
  },
  {
    "robotId": 15,
    "shapeList": [
      2
    ],
    "colorList": [
      2
    ],
    "actionList": [
      2
    ],
    "type": "ROBOT_TYPE_NORMAL",
    "furnitureId": 364614,
    "materialId": 101881,
    "modelPath": "SceneObj_Homeworld_Ani_General_Common_Decoration_Prop_RandomRobot_07",
    "animatorID": 203,
    "playInterval": 5,
    "descTextMapHash": 3232631052,
    "audio": "Play_ui_activity_robot_randomRobot_02_2"
  },
  {
    "robotId": 16,
    "shapeList": [
      2
    ],
    "colorList": [
      2
    ],
    "actionList": [
      3
    ],
    "type": "ROBOT_TYPE_NORMAL",
    "furnitureId": 364615,
    "materialId": 101882,
    "modelPath": "SceneObj_Homeworld_Ani_General_Common_Decoration_Prop_RandomRobot_07",
    "animatorID": 204,
    "playInterval": 5,
    "descTextMapHash": 2413477084,
    "audio": "Play_ui_activity_robot_randomRobot_02_3"
  },
  {
    "robotId": 17,
    "shapeList": [
      2
    ],
    "colorList": [
      3
    ],
    "actionList": [
      1
    ],
    "type": "ROBOT_TYPE_NORMAL",
    "furnitureId": 364616,
    "materialId": 101883,
    "modelPath": "SceneObj_Homeworld_Ani_General_Common_Decoration_Prop_RandomRobot_08",
    "animatorID": 202,
    "playInterval": 5,
    "descTextMapHash": 3198937276,
    "audio": "Play_ui_activity_robot_randomRobot_02_1"
  },
  {
    "robotId": 18,
    "shapeList": [
      2
    ],
    "colorList": [
      3
    ],
    "actionList": [
      2
    ],
    "type": "ROBOT_TYPE_NORMAL",
    "furnitureId": 364617,
    "materialId": 101884,
    "modelPath": "SceneObj_Homeworld_Ani_General_Common_Decoration_Prop_RandomRobot_08",
    "animatorID": 203,
    "playInterval": 5,
    "descTextMapHash": 1299669420,
    "audio": "Play_ui_activity_robot_randomRobot_02_2"
  },
  {
    "robotId": 19,
    "shapeList": [
      2
    ],
    "colorList": [
      3
    ],
    "actionList": [
      3
    ],
    "type": "ROBOT_TYPE_NORMAL",
    "furnitureId": 364618,
    "materialId": 101885,
    "modelPath": "SceneObj_Homeworld_Ani_General_Common_Decoration_Prop_RandomRobot_08",
    "animatorID": 204,
    "playInterval": 5,
    "descTextMapHash": 3115472516,
    "audio": "Play_ui_activity_robot_randomRobot_02_3"
  },
  {
    "robotId": 20,
    "shapeList": [
      2
    ],
    "colorList": [
      4
    ],
    "actionList": [
      1,
      2,
      3
    ],
    "type": "ROBOT_TYPE_HIDDEN",
    "furnitureId": 364620,
    "materialId": 101886,
    "modelPath": "SceneObj_Homeworld_Ani_General_Common_Decoration_Prop_RandomRobot_05",
    "animatorID": 201,
    "playInterval": 10,
    "descTextMapHash": 1225527124,
    "audio": "Play_ui_activity_robot_randomRobot_02_4"
  }
]