[
  {
    "id": 101,
    "AFBAFDLKNCO": 769001,
    "JNNOBDDCJNG": 608129154,
    "GEFONAIOAGK": 1838835567,
    "FICCMEEHDJL": 28030313,
    "CJJLFPABLHG": [
      0,
      2.1,
      0
    ],
    "BOCJJJGMCJJ": [
      -45,
      45
    ],
    "LHOPPJJPEBN": [
      -25,
      25
    ],
    "JGKHDHFCDLC": -5,
    "IJCJGNFKMBF": -5,
    "OEDNGGPGOJC": 25,
    "GCLNHGFBDFM": 25,
    "MLCJNMNCBJN": 0.54
  },
  {
    "id": 102,
    "AFBAFDLKNCO": 769002,
    "JNNOBDDCJNG": 752616386,
    "GEFONAIOAGK": 2273857031,
    "FICCMEEHDJL": 28030313,
    "CJJLFPABLHG": [
      0,
      1.5,
      0
    ],
    "BOCJJJGMCJJ": [
      -45,
      30
    ],
    "LHOPPJJPEBN": [
      -15,
      15
    ],
    "IJCJGNFKMBF": -5,
    "OEDNGGPGOJC": 25,
    "GCLNHGFBDFM": 35,
    "MLCJNMNCBJN": 0.76
  },
  {
    "id": 103,
    "AFBAFDLKNCO": 769003,
    "JNNOBDDCJNG": 1971373898,
    "GEFONAIOAGK": 1780632623,
    "FICCMEEHDJL": 28020313,
    "CJJLFPABLHG": [
      0,
      1.5,
      0
    ],
    "BOCJJJGMCJJ": [
      -35,
      15
    ],
    "LHOPPJJPEBN": [
      -15,
      30
    ],
    "JGKHDHFCDLC": -10,
    "IJCJGNFKMBF": -8,
    "OEDNGGPGOJC": 25,
    "GCLNHGFBDFM": 35,
    "MLCJNMNCBJN": 0.76
  },
  {
    "id": 201,
    "AFBAFDLKNCO": 381001,
    "JNNOBDDCJNG": 3525469506,
    "GEFONAIOAGK": 449828711,
    "FICCMEEHDJL": 28220108,
    "CJJLFPABLHG": [
      0,
      1.5,
      0
    ],
    "BOCJJJGMCJJ": [
      -30,
      30
    ],
    "LHOPPJJPEBN": [
      -15,
      30
    ],
    "JGKHDHFCDLC": 20,
    "IJCJGNFKMBF": 10,
    "OEDNGGPGOJC": 25,
    "GCLNHGFBDFM": 30,
    "MLCJNMNCBJN": 0.65
  },
  {
    "id": 202,
    "AFBAFDLKNCO": 381002,
    "JNNOBDDCJNG": 305356562,
    "GEFONAIOAGK": 3211652143,
    "FICCMEEHDJL": 28030104,
    "CJJLFPABLHG": [
      0,
      2.1,
      0
    ],
    "BOCJJJGMCJJ": [
      -60,
      60
    ],
    "LHOPPJJPEBN": [
      -15,
      30
    ],
    "JGKHDHFCDLC": 8,
    "IJCJGNFKMBF": -4,
    "OEDNGGPGOJC": 25,
    "GCLNHGFBDFM": 25,
    "MLCJNMNCBJN": 0.54
  },
  {
    "id": 203,
    "AFBAFDLKNCO": 381003,
    "JNNOBDDCJNG": 3506400002,
    "GEFONAIOAGK": 2719662919,
    "FICCMEEHDJL": 28220108,
    "CJJLFPABLHG": [
      0,
      2.1,
      0
    ],
    "BOCJJJGMCJJ": [
      -60,
      60
    ],
    "LHOPPJJPEBN": [
      -15,
      30
    ],
    "IJCJGNFKMBF": 5,
    "OEDNGGPGOJC": 25,
    "GCLNHGFBDFM": 35,
    "MLCJNMNCBJN": 0.76
  },
  {
    "id": 301,
    "AFBAFDLKNCO": 86001,
    "JNNOBDDCJNG": 4244932426,
    "GEFONAIOAGK": 3160567727,
    "FICCMEEHDJL": 28230101,
    "CJJLFPABLHG": [
      0,
      1.5,
      0
    ],
    "BOCJJJGMCJJ": [
      -60,
      60
    ],
    "LHOPPJJPEBN": [
      -15,
      48
    ],
    "JGKHDHFCDLC": -10,
    "IJCJGNFKMBF": 35,
    "OEDNGGPGOJC": 25,
    "GCLNHGFBDFM": 55,
    "MLCJNMNCBJN": 1
  },
  {
    "id": 302,
    "AFBAFDLKNCO": 86002,
    "JNNOBDDCJNG": 631256754,
    "GEFONAIOAGK": 2058986407,
    "FICCMEEHDJL": 28230401,
    "CJJLFPABLHG": [
      0,
      2.1,
      0
    ],
    "BOCJJJGMCJJ": [
      -60,
      60
    ],
    "LHOPPJJPEBN": [
      -35,
      45
    ],
    "IJCJGNFKMBF": -8,
    "OEDNGGPGOJC": 25,
    "GCLNHGFBDFM": 25,
    "MLCJNMNCBJN": 0.54
  },
  {
    "id": 303,
    "AFBAFDLKNCO": 86003,
    "JNNOBDDCJNG": 11890882,
    "GEFONAIOAGK": 355459111,
    "FICCMEEHDJL": 28220102,
    "CJJLFPABLHG": [
      0,
      2.1,
      0
    ],
    "BOCJJJGMCJJ": [
      -60,
      75
    ],
    "LHOPPJJPEBN": [
      -15,
      55
    ],
    "JGKHDHFCDLC": 30,
    "IJCJGNFKMBF": 40,
    "OEDNGGPGOJC": 35,
    "GCLNHGFBDFM": 40,
    "MLCJNMNCBJN": 0.88
  },
  {
    "id": 401,
    "AFBAFDLKNCO": 273001,
    "JNNOBDDCJNG": 2645494394,
    "GEFONAIOAGK": 1865793535,
    "FICCMEEHDJL": 28230401,
    "CJJLFPABLHG": [
      0,
      2.1,
      0
    ],
    "BOCJJJGMCJJ": [
      -60,
      60
    ],
    "LHOPPJJPEBN": [
      -15,
      45
    ],
    "IJCJGNFKMBF": 15,
    "OEDNGGPGOJC": 25,
    "GCLNHGFBDFM": 25,
    "MLCJNMNCBJN": 0.54
  },
  {
    "id": 402,
    "AFBAFDLKNCO": 273002,
    "JNNOBDDCJNG": 210252178,
    "GEFONAIOAGK": 490818263,
    "FICCMEEHDJL": 28220102,
    "CJJLFPABLHG": [
      0,
      2.1,
      0
    ],
    "BOCJJJGMCJJ": [
      -60,
      60
    ],
    "LHOPPJJPEBN": [
      -15,
      30
    ],
    "IJCJGNFKMBF": -2,
    "OEDNGGPGOJC": 35,
    "GCLNHGFBDFM": 35,
    "MLCJNMNCBJN": 0.76
  },
  {
    "id": 403,
    "AFBAFDLKNCO": 273003,
    "JNNOBDDCJNG": 1997044834,
    "GEFONAIOAGK": 217744231,
    "FICCMEEHDJL": 28230101,
    "CJJLFPABLHG": [
      0,
      2.1,
      0
    ],
    "BOCJJJGMCJJ": [
      -60,
      60
    ],
    "LHOPPJJPEBN": [
      -15,
      30
    ],
    "IJCJGNFKMBF": 10,
    "OEDNGGPGOJC": 25,
    "GCLNHGFBDFM": 35,
    "MLCJNMNCBJN": 0.76
  },
  {
    "id": 501,
    "AFBAFDLKNCO": 177001,
    "JNNOBDDCJNG": 225168930,
    "GEFONAIOAGK": 3269318063,
    "FICCMEEHDJL": 28020101,
    "CJJLFPABLHG": [
      0,
      2.1,
      0
    ],
    "BOCJJJGMCJJ": [
      -60,
      60
    ],
    "LHOPPJJPEBN": [
      -30,
      20
    ],
    "JGKHDHFCDLC": 15,
    "OEDNGGPGOJC": 25,
    "GCLNHGFBDFM": 35,
    "MLCJNMNCBJN": 0.76
  },
  {
    "id": 502,
    "AFBAFDLKNCO": 177002,
    "JNNOBDDCJNG": 928322794,
    "GEFONAIOAGK": 2728877919,
    "FICCMEEHDJL": 28020101,
    "CJJLFPABLHG": [
      0,
      2.1,
      0
    ],
    "BOCJJJGMCJJ": [
      -45,
      30
    ],
    "LHOPPJJPEBN": [
      -15,
      30
    ],
    "JGKHDHFCDLC": -35,
    "IJCJGNFKMBF": -2,
    "OEDNGGPGOJC": 25,
    "GCLNHGFBDFM": 45,
    "MLCJNMNCBJN": 1
  },
  {
    "id": 503,
    "AFBAFDLKNCO": 177003,
    "JNNOBDDCJNG": 647581290,
    "GEFONAIOAGK": 3429775407,
    "FICCMEEHDJL": 28020303,
    "CJJLFPABLHG": [
      0,
      2.1,
      0
    ],
    "BOCJJJGMCJJ": [
      -60,
      60
    ],
    "LHOPPJJPEBN": [
      -22,
      30
    ],
    "IJCJGNFKMBF": -2,
    "OEDNGGPGOJC": 25,
    "GCLNHGFBDFM": 45,
    "MLCJNMNCBJN": 1
  },
  {
    "id": 601,
    "AFBAFDLKNCO": 71001,
    "JNNOBDDCJNG": 805671370,
    "GEFONAIOAGK": 2209969127,
    "FICCMEEHDJL": 28220201,
    "CJJLFPABLHG": [
      0,
      1.5,
      0
    ],
    "BOCJJJGMCJJ": [
      -45,
      45
    ],
    "LHOPPJJPEBN": [
      -15,
      30
    ],
    "JGKHDHFCDLC": -5,
    "IJCJGNFKMBF": 7.5,
    "OEDNGGPGOJC": 25,
    "GCLNHGFBDFM": 25,
    "MLCJNMNCBJN": 0.54
  },
  {
    "id": 602,
    "AFBAFDLKNCO": 71002,
    "JNNOBDDCJNG": 2193104018,
    "GEFONAIOAGK": 3475119887,
    "FICCMEEHDJL": 28030501,
    "CJJLFPABLHG": [
      0,
      1.5,
      0
    ],
    "BOCJJJGMCJJ": [
      -90,
      90
    ],
    "LHOPPJJPEBN": [
      -20,
      10
    ],
    "IJCJGNFKMBF": -5,
    "OEDNGGPGOJC": 25,
    "GCLNHGFBDFM": 25,
    "MLCJNMNCBJN": 0.54
  },
  {
    "id": 603,
    "AFBAFDLKNCO": 71003,
    "JNNOBDDCJNG": 2128980226,
    "GEFONAIOAGK": 302674679,
    "FICCMEEHDJL": 28220201,
    "CJJLFPABLHG": [
      0,
      1.5,
      0
    ],
    "BOCJJJGMCJJ": [
      -35,
      55
    ],
    "LHOPPJJPEBN": [
      -15,
      35
    ],
    "JGKHDHFCDLC": 10,
    "OEDNGGPGOJC": 25,
    "GCLNHGFBDFM": 25,
    "MLCJNMNCBJN": 0.54
  }
]