[
  {
    "FOJKGECOKDF": [
      1,
      2,
      3,
      4,
      5,
      6,
      7
    ],
    "prefabPath": "",
    "GEBBBFKKAGI": "ART/UI/Atlas/Activity/BirdBall/UI_Pic_BirdBallMpMap_08",
    "NMHCBDCDDFD": [],
    "IHDAOGDODMC": [
      7
    ],
    "descTextMapHash": 2937875493,
    "levelID": 100,
    "activityID": 5200,
    "nameTextMapHash": 3218550127,
    "questList": [],
    "IOLJJIINAFC": [],
    "watcherList": [],
    "LBGLFCIGLDE": [
      "ACTIVITY_LEVEL_COND_TYPE_MAIN_QUEST"
    ],
    "MOOLHLOIFGJ": [
      "ACTIVITY_LEVEL_COND_TYPE_OPEN_DAY"
    ],
    "OOABMKBBPAF": [
      "ACTIVITY_LEVEL_COND_TYPE_DEFAULT"
    ]
  },
  {
    "groupId": 248020002,
    "matchId": 1015,
    "draftId": 18001,
    "dungeonId": 9260,
    "FOJKGECOKDF": [],
    "prefabPath": "ART/UI/UIScene/BirdBall/BirdBallMpLevel_01",
    "GEBBBFKKAGI": "ART/UI/Atlas/Activity/BirdBall/UI_Pic_BirdBallMpMap_01",
    "NMHCBDCDDFD": [
      1,
      1,
      1,
      1
    ],
    "IHDAOGDODMC": [
      1
    ],
    "seriesId": 13909,
    "descTextMapHash": 593312613,
    "levelID": 1,
    "activityID": 5200,
    "nameTextMapHash": 612873695,
    "questList": [],
    "IOLJJIINAFC": [],
    "watcherList": [],
    "openDay": 1,
    "LBGLFCIGLDE": [
      "ACTIVITY_LEVEL_COND_TYPE_MAIN_QUEST"
    ],
    "MOOLHLOIFGJ": [
      "ACTIVITY_LEVEL_COND_TYPE_OPEN_DAY"
    ],
    "OOABMKBBPAF": [
      "ACTIVITY_LEVEL_COND_TYPE_DEFAULT"
    ]
  },
  {
    "groupId": 248020002,
    "matchId": 1016,
    "draftId": 18002,
    "dungeonId": 9261,
    "FOJKGECOKDF": [],
    "prefabPath": "ART/UI/UIScene/BirdBall/BirdBallMpLevel_02",
    "GEBBBFKKAGI": "ART/UI/Atlas/Activity/BirdBall/UI_Pic_BirdBallMpMap_02",
    "NMHCBDCDDFD": [
      1,
      1,
      1,
      2
    ],
    "IHDAOGDODMC": [
      1,
      2
    ],
    "seriesId": 13909,
    "descTextMapHash": 1502199933,
    "levelID": 2,
    "activityID": 5200,
    "nameTextMapHash": 3198516679,
    "questList": [],
    "IOLJJIINAFC": [],
    "watcherList": [],
    "openDay": 1,
    "LBGLFCIGLDE": [
      "ACTIVITY_LEVEL_COND_TYPE_MAIN_QUEST"
    ],
    "MOOLHLOIFGJ": [
      "ACTIVITY_LEVEL_COND_TYPE_OPEN_DAY"
    ],
    "OOABMKBBPAF": [
      "ACTIVITY_LEVEL_COND_TYPE_DEFAULT"
    ]
  },
  {
    "groupId": 248020002,
    "matchId": 1017,
    "draftId": 18003,
    "dungeonId": 9262,
    "FOJKGECOKDF": [],
    "prefabPath": "ART/UI/UIScene/BirdBall/BirdBallMpLevel_03",
    "GEBBBFKKAGI": "ART/UI/Atlas/Activity/BirdBall/UI_Pic_BirdBallMpMap_03",
    "NMHCBDCDDFD": [
      1,
      1,
      2,
      4
    ],
    "IHDAOGDODMC": [
      1,
      2,
      4
    ],
    "seriesId": 13910,
    "descTextMapHash": 311571893,
    "levelID": 3,
    "activityID": 5200,
    "nameTextMapHash": 919567215,
    "questList": [],
    "IOLJJIINAFC": [],
    "watcherList": [],
    "openDay": 1,
    "LBGLFCIGLDE": [
      "ACTIVITY_LEVEL_COND_TYPE_MAIN_QUEST"
    ],
    "MOOLHLOIFGJ": [
      "ACTIVITY_LEVEL_COND_TYPE_OPEN_DAY"
    ],
    "OOABMKBBPAF": [
      "ACTIVITY_LEVEL_COND_TYPE_DEFAULT"
    ]
  },
  {
    "groupId": 248020002,
    "matchId": 1018,
    "draftId": 18004,
    "dungeonId": 9263,
    "FOJKGECOKDF": [],
    "prefabPath": "ART/UI/UIScene/BirdBall/BirdBallMpLevel_04",
    "GEBBBFKKAGI": "ART/UI/Atlas/Activity/BirdBall/UI_Pic_BirdBallMpMap_04",
    "NMHCBDCDDFD": [
      1,
      1,
      3,
      4
    ],
    "IHDAOGDODMC": [
      1,
      3,
      4
    ],
    "seriesId": 13910,
    "descTextMapHash": 2623874957,
    "levelID": 4,
    "activityID": 5200,
    "nameTextMapHash": 4081996799,
    "questList": [],
    "IOLJJIINAFC": [],
    "watcherList": [],
    "openDay": 2,
    "LBGLFCIGLDE": [
      "ACTIVITY_LEVEL_COND_TYPE_MAIN_QUEST"
    ],
    "MOOLHLOIFGJ": [
      "ACTIVITY_LEVEL_COND_TYPE_OPEN_DAY"
    ],
    "OOABMKBBPAF": [
      "ACTIVITY_LEVEL_COND_TYPE_DEFAULT"
    ]
  },
  {
    "groupId": 248020002,
    "matchId": 1019,
    "draftId": 18005,
    "dungeonId": 9264,
    "FOJKGECOKDF": [],
    "prefabPath": "ART/UI/UIScene/BirdBall/BirdBallMpLevel_05",
    "GEBBBFKKAGI": "ART/UI/Atlas/Activity/BirdBall/UI_Pic_BirdBallMpMap_05",
    "NMHCBDCDDFD": [
      1,
      1,
      2,
      3
    ],
    "IHDAOGDODMC": [
      1,
      2,
      3
    ],
    "seriesId": 13910,
    "descTextMapHash": 2159442573,
    "levelID": 5,
    "activityID": 5200,
    "nameTextMapHash": 586168407,
    "questList": [],
    "IOLJJIINAFC": [],
    "watcherList": [],
    "openDay": 2,
    "LBGLFCIGLDE": [
      "ACTIVITY_LEVEL_COND_TYPE_MAIN_QUEST"
    ],
    "MOOLHLOIFGJ": [
      "ACTIVITY_LEVEL_COND_TYPE_OPEN_DAY"
    ],
    "OOABMKBBPAF": [
      "ACTIVITY_LEVEL_COND_TYPE_DEFAULT"
    ]
  },
  {
    "groupId": 248020002,
    "matchId": 1020,
    "draftId": 18006,
    "dungeonId": 9265,
    "FOJKGECOKDF": [],
    "prefabPath": "ART/UI/UIScene/BirdBall/BirdBallMpLevel_06",
    "GEBBBFKKAGI": "ART/UI/Atlas/Activity/BirdBall/UI_Pic_BirdBallMpMap_06",
    "NMHCBDCDDFD": [
      1,
      2,
      3,
      4
    ],
    "IHDAOGDODMC": [
      1,
      2,
      3,
      4
    ],
    "seriesId": 13910,
    "descTextMapHash": 655278501,
    "levelID": 6,
    "activityID": 5200,
    "nameTextMapHash": 3320416879,
    "questList": [],
    "IOLJJIINAFC": [],
    "watcherList": [],
    "openDay": 3,
    "LBGLFCIGLDE": [
      "ACTIVITY_LEVEL_COND_TYPE_MAIN_QUEST"
    ],
    "MOOLHLOIFGJ": [
      "ACTIVITY_LEVEL_COND_TYPE_OPEN_DAY"
    ],
    "OOABMKBBPAF": [
      "ACTIVITY_LEVEL_COND_TYPE_DEFAULT"
    ]
  },
  {
    "groupId": 248020002,
    "matchId": 1021,
    "draftId": 18007,
    "dungeonId": 9266,
    "FOJKGECOKDF": [],
    "prefabPath": "ART/UI/UIScene/BirdBall/BirdBallMpLevel_07",
    "GEBBBFKKAGI": "ART/UI/Atlas/Activity/BirdBall/UI_Pic_BirdBallMpMap_07",
    "NMHCBDCDDFD": [
      1,
      2,
      3,
      4
    ],
    "IHDAOGDODMC": [
      1,
      2,
      3,
      4
    ],
    "seriesId": 13910,
    "descTextMapHash": 3469340909,
    "levelID": 7,
    "activityID": 5200,
    "nameTextMapHash": 3367052967,
    "questList": [],
    "IOLJJIINAFC": [],
    "watcherList": [],
    "openDay": 3,
    "LBGLFCIGLDE": [
      "ACTIVITY_LEVEL_COND_TYPE_MAIN_QUEST"
    ],
    "MOOLHLOIFGJ": [
      "ACTIVITY_LEVEL_COND_TYPE_OPEN_DAY"
    ],
    "OOABMKBBPAF": [
      "ACTIVITY_LEVEL_COND_TYPE_DEFAULT"
    ]
  }
]