[
  {
    "id": 1,
    "nameTextMapHash": 3844255997,
    "descTextMapHash": 682564346,
    "descParam": [
      "3",
      "",
      "",
      "",
      ""
    ],
    "iconHash": 6986192296565769687
  },
  {
    "id": 2,
    "nameTextMapHash": 2046846037,
    "descTextMapHash": 4221126226,
    "descParam": [
      "3",
      "7",
      "",
      "",
      ""
    ],
    "iconHash": 4801736899577458118
  },
  {
    "id": 3,
    "nameTextMapHash": 1092787149,
    "descTextMapHash": 3153662762,
    "descParam": [
      "3",
      "7",
      "2",
      "",
      ""
    ],
    "iconHash": 1857527515109771645
  },
  {
    "id": 4,
    "nameTextMapHash": 1136766101,
    "descTextMapHash": 694731186,
    "descParam": [
      "3",
      "7",
      "2",
      "7",
      ""
    ],
    "iconHash": 17205688411399945718
  }
]