[
  {
    "id": 1,
    "openIndex": 1,
    "openDayIndex": 1,
    "questId": 72264,
    "hiddenSubQuestId": 7226411,
    "watcherId": 15055001,
    "routeLastQuestId": 7226409,
    "titleTextMapHash": 1180600252,
    "descTextMapHash": 1703548498,
    "reviewTextMapHash": 918585324,
    "regionTextMapHash": 972115712
  },
  {
    "id": 2,
    "openIndex": 2,
    "openDayIndex": 2,
    "questId": 72675,
    "hiddenSubQuestId": 7267509,
    "watcherId": 15055002,
    "routeLastQuestId": 7267508,
    "titleTextMapHash": 3809420572,
    "descTextMapHash": 787794826,
    "reviewTextMapHash": 1052989860,
    "regionTextMapHash": 2071551264
  },
  {
    "id": 3,
    "openIndex": 3,
    "openDayIndex": 3,
    "questId": 72676,
    "hiddenSubQuestId": 7267614,
    "watcherId": 15055003,
    "routeLastQuestId": 7267612,
    "titleTextMapHash": 4097113348,
    "descTextMapHash": 2347734826,
    "reviewTextMapHash": 1638157876,
    "regionTextMapHash": 1907529784
  },
  {
    "id": 4,
    "openIndex": 4,
    "openDayIndex": 4,
    "questId": 72261,
    "hiddenSubQuestId": 7226101,
    "watcherId": 15055004,
    "routeLastQuestId": 7226107,
    "titleTextMapHash": 3184693844,
    "descTextMapHash": 3471312626,
    "reviewTextMapHash": 625611380,
    "regionTextMapHash": 1031969944
  },
  {
    "id": 5,
    "openIndex": 5,
    "openDayIndex": 5,
    "questId": 72262,
    "hiddenSubQuestId": 7226201,
    "watcherId": 15055005,
    "neededHomeQuestId": 11008,
    "neededFishQuestId": 70661,
    "routeLastQuestId": 7226210,
    "titleTextMapHash": 25556484,
    "descTextMapHash": 3778835626,
    "reviewTextMapHash": 1873609684,
    "regionTextMapHash": 3161068568
  },
  {
    "id": 6,
    "openIndex": 6,
    "openDayIndex": 6,
    "questId": 72677,
    "hiddenSubQuestId": 7267709,
    "watcherId": 15055006,
    "routeLastQuestId": 7267707,
    "titleTextMapHash": 974142980,
    "descTextMapHash": 2380978146,
    "reviewTextMapHash": 3960219564,
    "regionTextMapHash": 57358712
  },
  {
    "id": 7,
    "openIndex": 7,
    "openDayIndex": 7,
    "questId": 72678,
    "hiddenSubQuestId": 7267810,
    "watcherId": 15055007,
    "routeLastQuestId": 7267811,
    "titleTextMapHash": 167057764,
    "descTextMapHash": 3656408586,
    "reviewTextMapHash": 3743435948,
    "regionTextMapHash": 3289528440
  }
]