[
  {
    "id": 1,
    "HANNOENAEDD": 3528855602,
    "LCACPODCLJE": 5031938103635880693,
    "gadgetId": 45003011
  },
  {
    "id": 2,
    "HANNOENAEDD": 1400592138,
    "LCACPODCLJE": 16259237264262053748,
    "gadgetId": 45003021
  },
  {
    "id": 3,
    "HANNOENAEDD": 791862674,
    "LCACPODCLJE": 13738219607061128357,
    "gadgetId": 45003031
  }
]