[
  {
    "buffId": 1,
    "abilityGroupName": "Activity_Potion_SwirlIncreaseTeamAtk",
    "quality": 4,
    "titleTextMapHash": 3743687447,
    "descTextMapHash": 3681690235,
    "descParam": [
      "20",
      "8",
      "",
      "",
      ""
    ],
    "iconHash": 12611273412027213498,
    "buffElement": "UI_Buff_Item_Atk_Add"
  },
  {
    "buffId": 2,
    "abilityGroupName": "Activity_Potion_DamageUp_SubHurtDown",
    "quality": 4,
    "titleTextMapHash": 753384535,
    "descTextMapHash": 815798515,
    "descParam": [
      "30",
      "15",
      "",
      "",
      ""
    ],
    "iconHash": 12611273412027213498,
    "buffElement": "UI_Buff_Item_Atk_Add"
  },
  {
    "buffId": 3,
    "abilityGroupName": "Activity_Potion_ElementalBurstDamageUp",
    "quality": 4,
    "titleTextMapHash": 2939251487,
    "descTextMapHash": 1848611195,
    "descParam": [
      "20",
      "",
      "",
      "",
      ""
    ],
    "iconHash": 12611273412027213498,
    "buffElement": "UI_Buff_Item_Atk_ElementHurt_All"
  },
  {
    "buffId": 4,
    "abilityGroupName": "Activity_Potion_ElemMasteryDeltaUp",
    "quality": 4,
    "titleTextMapHash": 3278948215,
    "descTextMapHash": 1530906011,
    "descParam": [
      "120",
      "",
      "",
      "",
      ""
    ],
    "iconHash": 12611273412027213498,
    "buffElement": "UI_Buff_Item_Atk_ElementHurt_All"
  },
  {
    "buffId": 5,
    "abilityGroupName": "Activity_Potion_Explode_Superconductor_Shock_IncreaseDmg",
    "quality": 4,
    "titleTextMapHash": 1249058055,
    "descTextMapHash": 715665259,
    "descParam": [
      "7.5",
      "8",
      "3",
      "",
      ""
    ],
    "iconHash": 12611273412027213498,
    "buffElement": "UI_Buff_Item_Atk_ElementHurt_All"
  },
  {
    "buffId": 6,
    "abilityGroupName": "Activity_Potion_Purple_After_Steam_Melt",
    "quality": 4,
    "titleTextMapHash": 1750184031,
    "descTextMapHash": 1433810139,
    "descParam": [
      "5",
      "5",
      "",
      "",
      ""
    ],
    "iconHash": 12611273412027213498,
    "buffElement": "UI_Buff_Item_Atk_ElementHurt_All"
  },
  {
    "buffId": 7,
    "abilityGroupName": "Activity_Potion_AttackFrozenEnemy_IncreaseDamage",
    "quality": 4,
    "titleTextMapHash": 127479055,
    "descTextMapHash": 2336323275,
    "descParam": [
      "25",
      "",
      "",
      "",
      ""
    ],
    "iconHash": 12611273412027213498,
    "buffElement": "UI_Buff_Item_Atk_ElementHurt_All"
  },
  {
    "buffId": 8,
    "abilityGroupName": "Activity_Potion_AllElementalDmgUp_AfterNormalAttack",
    "quality": 4,
    "titleTextMapHash": 83284591,
    "descTextMapHash": 591613563,
    "descParam": [
      "5",
      "10",
      "4",
      "1",
      ""
    ],
    "iconHash": 12611273412027213498,
    "buffElement": "UI_Buff_Item_Atk_ElementHurt_All"
  },
  {
    "buffId": 9,
    "abilityGroupName": "Activity_Potion_SkillCDMinusRatioUp_AfterSkill",
    "quality": 4,
    "titleTextMapHash": 3294437271,
    "descTextMapHash": 2595571363,
    "descParam": [
      "50",
      "8",
      "16",
      "",
      ""
    ],
    "iconHash": 12611273412027213498,
    "buffElement": "UI_Buff_Item_Atk_ElementHurt_All"
  },
  {
    "buffId": 10,
    "abilityGroupName": "Activity_Potion_ExtraAttackAtkUpAfterUseUltimateSkill",
    "quality": 4,
    "titleTextMapHash": 3642839967,
    "descTextMapHash": 209664355,
    "descParam": [
      "25",
      "15",
      "",
      "",
      ""
    ],
    "iconHash": 12611273412027213498,
    "buffElement": "UI_Buff_Item_Atk_Nomal"
  },
  {
    "buffId": 11,
    "abilityGroupName": "Activity_Potion_ThumDamageUp",
    "quality": 4,
    "titleTextMapHash": 1811513007,
    "descTextMapHash": 4135230939,
    "descParam": [
      "20",
      "",
      "",
      "",
      ""
    ],
    "iconHash": 12611273412027213498,
    "buffElement": "UI_Buff_Item_Atk_Nomal"
  },
  {
    "buffId": 12,
    "abilityGroupName": "Activity_Potion_NormalAttackUp",
    "quality": 4,
    "titleTextMapHash": 700634055,
    "descTextMapHash": 1064879155,
    "descParam": [
      "20",
      "",
      "",
      "",
      ""
    ],
    "iconHash": 12611273412027213498,
    "buffElement": "UI_Buff_Item_Atk_Nomal"
  },
  {
    "buffId": 13,
    "abilityGroupName": "Activity_Potion_ElemnentalArt_GenerateBall",
    "quality": 4,
    "titleTextMapHash": 2119867743,
    "descTextMapHash": 3675583531,
    "descParam": [
      "6",
      "3",
      "",
      "",
      ""
    ],
    "iconHash": 12611273412027213498,
    "buffElement": "UI_Buff_Item_Energy"
  },
  {
    "buffId": 14,
    "abilityGroupName": "Activity_Potion_ThumpCostReduce",
    "quality": 4,
    "titleTextMapHash": 532308295,
    "descTextMapHash": 4129770091,
    "descParam": [
      "50",
      "",
      "",
      "",
      ""
    ],
    "iconHash": 12611273412027213498,
    "buffElement": "UI_Buff_Item_Other_SPReduceConsume"
  },
  {
    "buffId": 15,
    "abilityGroupName": "Activity_Potion_DashStaminaReduce",
    "quality": 4,
    "titleTextMapHash": 3866420151,
    "descTextMapHash": 3669595451,
    "descParam": [
      "50",
      "",
      "",
      "",
      ""
    ],
    "iconHash": 12611273412027213498,
    "buffElement": "UI_Buff_Item_Other_SPReduceConsume"
  },
  {
    "buffId": 16,
    "abilityGroupName": "Activity_Potion_DefenceUp_Team",
    "quality": 4,
    "titleTextMapHash": 2782209711,
    "descTextMapHash": 2231429995,
    "descParam": [
      "50",
      "",
      "",
      "",
      ""
    ],
    "iconHash": 12611273412027213498,
    "buffElement": "UI_Buff_Item_Def_Add"
  },
  {
    "buffId": 17,
    "abilityGroupName": "Activity_Potion_HealAttackUp",
    "quality": 5,
    "titleTextMapHash": 129842831,
    "descTextMapHash": 812159483,
    "descParam": [
      "20",
      "12",
      "3",
      "",
      ""
    ],
    "iconHash": 5172612608912033529,
    "buffElement": "UI_Buff_Item_Atk_Add"
  },
  {
    "buffId": 18,
    "abilityGroupName": "Activity_Potion_HightHP_IncreaseDamage",
    "quality": 5,
    "titleTextMapHash": 2503785447,
    "descTextMapHash": 3174246531,
    "descParam": [
      "80",
      "50",
      "",
      "",
      ""
    ],
    "iconHash": 5172612608912033529,
    "buffElement": "UI_Buff_Item_Atk_Add"
  },
  {
    "buffId": 19,
    "abilityGroupName": "Activity_Potion_ATKSpeedUp_AfterDash",
    "quality": 5,
    "titleTextMapHash": 842840311,
    "descTextMapHash": 2937246195,
    "descParam": [
      "50",
      "8",
      "",
      "",
      ""
    ],
    "iconHash": 5172612608912033529,
    "buffElement": "UI_Buff_Item_Atk_Nomal"
  },
  {
    "buffId": 20,
    "abilityGroupName": "Activity_Potion_ContinuousNormalAtk_HealEffectUp",
    "quality": 5,
    "titleTextMapHash": 2413744351,
    "descTextMapHash": 1289630755,
    "descParam": [
      "100",
      "",
      "",
      "",
      ""
    ],
    "iconHash": 5172612608912033529,
    "buffElement": "UI_Buff_Item_Recovery_HpAdd"
  },
  {
    "buffId": 21,
    "abilityGroupName": "Activity_Potion_AtkUp_OnAvatarIn",
    "quality": 5,
    "titleTextMapHash": 4201151567,
    "descTextMapHash": 1418422763,
    "descParam": [
      "10",
      "10",
      "4",
      "",
      ""
    ],
    "iconHash": 5172612608912033529,
    "buffElement": "UI_Buff_Item_Atk_Add"
  },
  {
    "buffId": 22,
    "abilityGroupName": "Activity_Potion_UltimateSkill_UltimateSkillDamageUp",
    "quality": 5,
    "titleTextMapHash": 276572567,
    "descTextMapHash": 2882572443,
    "descParam": [
      "15",
      "8",
      "3",
      "",
      ""
    ],
    "iconHash": 5172612608912033529,
    "buffElement": "UI_Buff_Item_Atk_ElementHurt_All"
  },
  {
    "buffId": 23,
    "abilityGroupName": "Activity_Potion_HitTheTarget_GenerateBall_AfterUltimateSkill",
    "quality": 5,
    "titleTextMapHash": 3608574655,
    "descTextMapHash": 3727870755,
    "descParam": [
      "12",
      "10",
      "2",
      "",
      ""
    ],
    "iconHash": 5172612608912033529,
    "buffElement": "UI_Buff_Item_Energy"
  },
  {
    "buffId": 24,
    "abilityGroupName": "Activity_Potion_LowEnergy_ChargeEfficiencyUp",
    "quality": 5,
    "titleTextMapHash": 3105790447,
    "descTextMapHash": 4070765675,
    "descParam": [
      "75",
      "100",
      "",
      "",
      ""
    ],
    "iconHash": 5172612608912033529,
    "buffElement": "UI_Buff_Item_Energy"
  },
  {
    "buffId": 25,
    "abilityGroupName": "Activity_Potion_ElementalDamageUp_AfterSkill",
    "quality": 5,
    "titleTextMapHash": 2685644407,
    "descTextMapHash": 438399787,
    "descParam": [
      "40",
      "",
      "",
      "",
      ""
    ],
    "iconHash": 5172612608912033529,
    "buffElement": "UI_Buff_Item_Atk_ElementHurt_All"
  },
  {
    "buffId": 26,
    "abilityGroupName": "Activity_Potion_AtkSpeedUp_MoveSpeedUp_OnKillEnemies",
    "quality": 5,
    "titleTextMapHash": 2097810231,
    "descTextMapHash": 3613331147,
    "descParam": [
      "30",
      "30",
      "12",
      "",
      ""
    ],
    "iconHash": 5172612608912033529,
    "buffElement": "UI_Buff_Item_Atk_Nomal"
  },
  {
    "buffId": 27,
    "abilityGroupName": "Activity_Potion_AddAtkUpLevelOnStage_SubAtkLevelOffStage",
    "quality": 5,
    "titleTextMapHash": 944408055,
    "descTextMapHash": 3911062771,
    "descParam": [
      "2",
      "7.5",
      "6",
      "4",
      ""
    ],
    "iconHash": 5172612608912033529,
    "buffElement": "UI_Buff_Item_Atk_Nomal"
  },
  {
    "buffId": 28,
    "abilityGroupName": "Activity_Potion_RecoverEnergy_HitDamage",
    "quality": 5,
    "titleTextMapHash": 2056073071,
    "descTextMapHash": 2841192995,
    "descParam": [
      "6",
      "2",
      "",
      "",
      ""
    ],
    "iconHash": 5172612608912033529,
    "buffElement": "UI_Buff_Item_Energy"
  }
]