[
  {
    "id": 3,
    "LPPGLHGAGJI": 11613717948309630026,
    "talkID": 7467526,
    "JLLDIOBGJOM": [
      301,
      302,
      303,
      304
    ],
    "AMEOAFCNIDO": [
      1,
      2,
      3,
      4
    ],
    "AOJCNBOPCLL": [
      1,
      0,
      0,
      2
    ],
    "titleTextMapHash": 820854545,
    "descTextMapHash": 2343684583,
    "DEKHDOJMPLA": 4112326203,
    "HOJNLNLECKO": [
      2490668289,
      4104427406,
      3895355827,
      2095071300,
      90306625
    ],
    "KDMKKKEMDLO": [
      3164970600,
      360762132,
      459893614,
      206677362,
      113267472
    ],
    "BLBGPHBPJDL": [
      0,
      30,
      60,
      100
    ],
    "markId": 1133,
    "markTitleTextMapHash": 746585050,
    "markDescTextMapHash": 3606683241,
    "unlockDay": 1,
    "watcherIdList": [
      12027321,
      12027322,
      12027323
    ],
    "GEHHIFDGFJE": 1722094993
  },
  {
    "id": 4,
    "LPPGLHGAGJI": 6478823914076951149,
    "talkID": 7467527,
    "JLLDIOBGJOM": [
      401,
      402,
      403,
      404,
      405
    ],
    "AMEOAFCNIDO": [
      1,
      2,
      3,
      4,
      5
    ],
    "AOJCNBOPCLL": [
      0,
      0,
      0,
      1,
      2
    ],
    "titleTextMapHash": 3805279353,
    "descTextMapHash": 3692876647,
    "DEKHDOJMPLA": 4104208499,
    "HOJNLNLECKO": [
      1909052177,
      1562515646,
      1884376443,
      3405391228,
      1558331497
    ],
    "KDMKKKEMDLO": [
      843942896,
      2943250316,
      924210582,
      1389895098,
      2272664224
    ],
    "BLBGPHBPJDL": [
      0,
      40,
      80,
      120
    ],
    "markId": 1135,
    "markTitleTextMapHash": 908432106,
    "markDescTextMapHash": 3211137033,
    "unlockDay": 3,
    "watcherIdList": [
      12027331,
      12027332,
      12027333
    ],
    "GEHHIFDGFJE": 3059438817
  },
  {
    "id": 2,
    "LPPGLHGAGJI": 8994530108614508252,
    "talkID": 7467525,
    "JLLDIOBGJOM": [
      201,
      202,
      203,
      204,
      205
    ],
    "AMEOAFCNIDO": [
      1,
      2,
      3,
      4,
      5
    ],
    "AOJCNBOPCLL": [
      0,
      1,
      0,
      2,
      3
    ],
    "titleTextMapHash": 2798211881,
    "descTextMapHash": 3430602687,
    "DEKHDOJMPLA": 4099753235,
    "HOJNLNLECKO": [
      1821185025,
      568020854,
      801180379,
      1413505108,
      1304449905
    ],
    "KDMKKKEMDLO": [
      3863760920,
      1959497980,
      1983641526,
      1914906762,
      103226704
    ],
    "BLBGPHBPJDL": [
      0,
      40,
      80,
      130
    ],
    "markId": 1134,
    "markTitleTextMapHash": 3197578746,
    "markDescTextMapHash": 3720617249,
    "unlockDay": 5,
    "watcherIdList": [
      12027311,
      12027312,
      12027313
    ],
    "GEHHIFDGFJE": 2921785785
  },
  {
    "id": 1,
    "LPPGLHGAGJI": 15149183076663864336,
    "talkID": 7467520,
    "JLLDIOBGJOM": [
      101,
      102,
      103,
      104,
      105
    ],
    "AMEOAFCNIDO": [
      1,
      2,
      3,
      4,
      5
    ],
    "AOJCNBOPCLL": [
      0,
      1,
      0,
      0,
      2
    ],
    "titleTextMapHash": 936791953,
    "descTextMapHash": 75996119,
    "DEKHDOJMPLA": 2156281971,
    "HOJNLNLECKO": [
      2377342633,
      1472164998,
      1160247219,
      2833385828,
      859608209
    ],
    "KDMKKKEMDLO": [
      2693241072,
      3764066580,
      1795270894,
      1567411634,
      3719203736
    ],
    "BLBGPHBPJDL": [
      0,
      40,
      80,
      120
    ],
    "markId": 1132,
    "markTitleTextMapHash": 33433658,
    "markDescTextMapHash": 1735982329,
    "unlockDay": 7,
    "watcherIdList": [
      12027301,
      12027302,
      12027303
    ],
    "GEHHIFDGFJE": 4008931777
  },
  {
    "id": 5,
    "MIIFIHFKCBH": true,
    "LPPGLHGAGJI": 6302320697187930962,
    "talkID": 4013217,
    "JLLDIOBGJOM": [
      501,
      502,
      503,
      504,
      505
    ],
    "AMEOAFCNIDO": [
      1,
      2,
      3,
      4,
      5
    ],
    "AOJCNBOPCLL": [
      1,
      1,
      1,
      1,
      1
    ],
    "titleTextMapHash": 1321958169,
    "descTextMapHash": 2224894903,
    "DEKHDOJMPLA": 998524451,
    "HOJNLNLECKO": [
      4007204745,
      4136980062,
      2316790627,
      4002345748,
      841206401
    ],
    "KDMKKKEMDLO": [
      261089144,
      1288787788,
      1000621582,
      1348385810,
      122735016
    ],
    "BLBGPHBPJDL": [],
    "markTitleTextMapHash": 384462130,
    "markDescTextMapHash": 3896551041,
    "watcherIdList": [],
    "GEHHIFDGFJE": 1190074177
  }
]