[
  {
    "levelId": 1,
    "stageId": 1,
    "levelNameTextMapHash": 131834182,
    "questDescTextMapHash": 592254328,
    "unfinishDescTextMapHash": 1582054299,
    "finishDescTextMapHash": 937268618,
    "watcherId": 12021401,
    "openDay": 1,
    "talkId": 7369641,
    "levelImageHash": 7325613564953104308,
    "storyTalkId": 7369623,
    "wordTalkId": 7369642
  },
  {
    "levelId": 2,
    "stageId": 2,
    "levelNameTextMapHash": 2160669414,
    "questDescTextMapHash": 2607126280,
    "unfinishDescTextMapHash": 2477369715,
    "finishDescTextMapHash": 2813742106,
    "watcherId": 12021402,
    "openDay": 5,
    "talkId": 7369637,
    "levelImageHash": 14046822308248936893,
    "storyTalkId": 7369632,
    "wordTalkId": 7369643
  },
  {
    "levelId": 3,
    "stageId": 3,
    "levelNameTextMapHash": 1519187742,
    "questDescTextMapHash": 2646373960,
    "unfinishDescTextMapHash": 1404951795,
    "finishDescTextMapHash": 3655697986,
    "watcherId": 12021403,
    "openDay": 7,
    "talkId": 7369629,
    "levelImageHash": 18338912618274643563,
    "storyTalkId": 7369626,
    "wordTalkId": 7369631
  }
]