[
  {
    "id": 6001,
    "baseCost": 250,
    "addCost": 100,
    "rangePrefabPath": "ART/Effect/SceneInteractive/EffObject/Eff_SceneObj_UGC_AreaRing_01"
  },
  {
    "id": 6002,
    "baseCost": 150,
    "addCost": 50,
    "rangePrefabPath": "ART/Effect/SceneInteractive/EffObject/Eff_SceneObj_UGC_AreaBox_01"
  },
  {
    "id": 6003,
    "baseCost": 75,
    "addCost": 25,
    "rangePrefabPath": ""
  },
  {
    "id": 6004,
    "baseCost": 50,
    "addCost": 25,
    "rangePrefabPath": ""
  },
  {
    "id": 6007,
    "baseCost": 25,
    "addCost": 10,
    "rangePrefabPath": ""
  },
  {
    "id": 6008,
    "baseCost": 25,
    "addCost": 10,
    "rangePrefabPath": ""
  },
  {
    "id": 6009,
    "baseCost": 30,
    "addCost": 15,
    "rangePrefabPath": ""
  },
  {
    "id": 6010,
    "baseCost": 15,
    "addCost": 5,
    "rangePrefabPath": ""
  },
  {
    "id": 6011,
    "baseCost": 50,
    "addCost": 25,
    "rangePrefabPath": ""
  },
  {
    "id": 6012,
    "baseCost": 15,
    "addCost": 5,
    "rangePrefabPath": ""
  },
  {
    "id": 6013,
    "baseCost": 15,
    "addCost": 5,
    "rangePrefabPath": ""
  },
  {
    "id": 6014,
    "baseCost": 10,
    "addCost": 5,
    "rangePrefabPath": ""
  },
  {
    "id": 6015,
    "baseCost": 80,
    "addCost": 40,
    "rangePrefabPath": ""
  },
  {
    "id": 6016,
    "baseCost": 100,
    "addCost": 50,
    "rangePrefabPath": ""
  },
  {
    "id": 6017,
    "baseCost": 80,
    "addCost": 40,
    "rangePrefabPath": ""
  },
  {
    "id": 6018,
    "baseCost": 80,
    "addCost": 40,
    "rangePrefabPath": ""
  },
  {
    "id": 6019,
    "baseCost": 80,
    "addCost": 40,
    "rangePrefabPath": ""
  },
  {
    "id": 6020,
    "baseCost": 30,
    "addCost": 10,
    "rangePrefabPath": ""
  },
  {
    "id": 6021,
    "baseCost": 30,
    "addCost": 10,
    "rangePrefabPath": ""
  }
]