[
  {
    "id": 1,
    "type": 1,
    "reviewTextMapHash": 1845502570,
    "tipsTextMapHash": 3892575960
  },
  {
    "id": 2,
    "type": 1,
    "reviewTextMapHash": 846128250,
    "tipsTextMapHash": 3153291480
  },
  {
    "id": 3,
    "type": 1,
    "reviewTextMapHash": 2566631602,
    "tipsTextMapHash": 1789863176
  },
  {
    "id": 4,
    "type": 1,
    "reviewTextMapHash": 1524354186,
    "tipsTextMapHash": 447425704
  },
  {
    "id": 5,
    "type": 1,
    "reviewTextMapHash": 3805517266,
    "tipsTextMapHash": 1010791080
  },
  {
    "id": 6,
    "type": 2,
    "reviewTextMapHash": 283527466,
    "tipsTextMapHash": 1319892672
  },
  {
    "id": 7,
    "type": 2,
    "reviewTextMapHash": 2480017586,
    "tipsTextMapHash": 43517776
  },
  {
    "id": 8,
    "type": 2,
    "reviewTextMapHash": 3913179866,
    "tipsTextMapHash": 3916214232
  },
  {
    "id": 9,
    "type": 2,
    "reviewTextMapHash": 3226192042,
    "tipsTextMapHash": 2613334152
  }
]