[
  {
    "id": 1,
    "tagList": [
      1,
      2,
      3,
      4,
      5
    ],
    "CLABCILOLDN": 3,
    "OIKGGEAAOAA": [
      2,
      4
    ],
    "PGKLPKDGDAB": [
      1,
      3,
      5,
      6
    ],
    "tipsTextMapHash": 3486940307,
    "titleTextMapHash": 4230833747,
    "IENMEGOCPBC": 2293554656,
    "npcID": 30501,
    "KMABANKPJEA": 4014601,
    "LIGKPBAAOEK": 4014603,
    "LAOLDJIBNAB": 2352337328
  },
  {
    "id": 2,
    "tagList": [
      4,
      3,
      2,
      1,
      5
    ],
    "OIKGGEAAOAA": [
      1,
      5
    ],
    "PGKLPKDGDAB": [
      2,
      3,
      4,
      6
    ],
    "tipsTextMapHash": 1172562003,
    "titleTextMapHash": 735615355,
    "IENMEGOCPBC": 2088809600,
    "npcID": 30518,
    "KMABANKPJEA": 4014604,
    "LIGKPBAAOEK": 4014606,
    "LAOLDJIBNAB": 2772058224
  }
]