[
  {
    "level": 1,
    "OHEKPEIHDEJ": 5,
    "CNKBBNNAHGG": 5,
    "GOONEGOGKJF": 1
  },
  {
    "level": 2,
    "OHEKPEIHDEJ": 6,
    "CNKBBNNAHGG": 5,
    "GOONEGOGKJF": 1
  },
  {
    "level": 3,
    "OHEKPEIHDEJ": 6,
    "CNKBBNNAHGG": 6,
    "GOONEGOGKJF": 2
  },
  {
    "level": 4,
    "OHEKPEIHDEJ": 7,
    "CNKBBNNAHGG": 6,
    "GOONEGOGKJF": 2
  },
  {
    "level": 5,
    "OHEKPEIHDEJ": 7,
    "CNKBBNNAHGG": 7,
    "GOONEGOGKJF": 3
  }
]