[
  {
    "typeId": 1,
    "OAAIJOPBEFG": 2,
    "descriptionTextMapHash": 2598096433,
    "OAJJBJKBGEA": 2,
    "color": [
      0.5,
      1.0068,
      2,
      2
    ],
    "KNEIAEEHKFA": 4201,
    "iconHash": 3398136903759284130
  },
  {
    "typeId": 2,
    "OAAIJOPBEFG": 4,
    "descriptionTextMapHash": 882537385,
    "OAJJBJKBGEA": 1,
    "color": [
      2.5,
      0.8793,
      0,
      2.5
    ],
    "KNEIAEEHKFA": 4202,
    "iconHash": 1475788880915185861
  },
  {
    "typeId": 3,
    "OAAIJOPBEFG": 1,
    "descriptionTextMapHash": 3934906649,
    "OAJJBJKBGEA": 5,
    "color": [
      0,
      1.5,
      1.3758,
      1.5
    ],
    "KNEIAEEHKFA": 4203,
    "iconHash": 17465033717119952545
  },
  {
    "typeId": 4,
    "OAAIJOPBEFG": 5,
    "descriptionTextMapHash": 3268488905,
    "OAJJBJKBGEA": 3,
    "color": [
      0.7152,
      1.6,
      0,
      1.6
    ],
    "KNEIAEEHKFA": 4204,
    "iconHash": 2571088563199054651
  },
  {
    "typeId": 5,
    "OAAIJOPBEFG": 3,
    "descriptionTextMapHash": 330503497,
    "OAJJBJKBGEA": 4,
    "color": [
      1.6599,
      0.6426,
      2.3,
      2.3
    ],
    "KNEIAEEHKFA": 4205,
    "iconHash": 12431017908649745873
  },
  {
    "typeId": 6,
    "descriptionTextMapHash": 1792494785,
    "color": [],
    "iconHash": 6679397606507239794
  }
]