[
  {
    "MKDFNFFMNKE": 1,
    "PJAPEEJDGOP": 100,
    "ICJEEODHJDB": true,
    "descriptionTextMapHash": 1326380424,
    "PEFPKAALNMF": 0.8,
    "JBLDGALNHMJ": 0.7,
    "quality": 2,
    "star": 2
  },
  {
    "MKDFNFFMNKE": 2,
    "BDKILKIPCMI": 200,
    "PJAPEEJDGOP": 300,
    "ICJEEODHJDB": true,
    "descriptionTextMapHash": 1420784704,
    "PEFPKAALNMF": 0.85,
    "JBLDGALNHMJ": 0.8,
    "quality": 3,
    "star": 3
  },
  {
    "MKDFNFFMNKE": 3,
    "BDKILKIPCMI": 400,
    "PJAPEEJDGOP": 600,
    "ICJEEODHJDB": true,
    "descriptionTextMapHash": 1656718296,
    "PEFPKAALNMF": 0.9,
    "JBLDGALNHMJ": 0.9,
    "quality": 4,
    "star": 4
  },
  {
    "MKDFNFFMNKE": 4,
    "BDKILKIPCMI": 800,
    "PJAPEEJDGOP": 2000,
    "ICJEEODHJDB": true,
    "descriptionTextMapHash": 3570192736,
    "PEFPKAALNMF": 0.95,
    "JBLDGALNHMJ": 1,
    "quality": 5,
    "star": 5
  }
]