[
  {
    "id": 1,
    "AEGODKFHNPK": -308755487
  },
  {
    "id": 2,
    "AEGODKFHNPK": -803606868
  },
  {
    "id": 3,
    "AEGODKFHNPK": -1473240330
  },
  {
    "id": 4,
    "AEGODKFHNPK": 810035101
  },
  {
    "id": 5,
    "AEGODKFHNPK": 2106294233
  },
  {
    "id": 6,
    "AEGODKFHNPK": 1946663555
  },
  {
    "id": 7,
    "AEGODKFHNPK": -68449389
  },
  {
    "id": 8,
    "AEGODKFHNPK": -1542741029
  },
  {
    "id": 9,
    "AEGODKFHNPK": 222180918
  },
  {
    "id": 10,
    "AEGODKFHNPK": -555247562
  },
  {
    "id": 11,
    "AEGODKFHNPK": 1301486640
  },
  {
    "id": 12,
    "AEGODKFHNPK": 725380200
  },
  {
    "id": 13,
    "AEGODKFHNPK": -926896204
  },
  {
    "id": 14,
    "AEGODKFHNPK": -1240139135
  },
  {
    "id": 15,
    "AEGODKFHNPK": -305293895
  },
  {
    "id": 16,
    "AEGODKFHNPK": 1073984708
  },
  {
    "id": 17,
    "AEGODKFHNPK": 1488403290
  },
  {
    "id": 18,
    "AEGODKFHNPK": 238273926
  },
  {
    "id": 19,
    "AEGODKFHNPK": -1491028750
  },
  {
    "id": 20,
    "AEGODKFHNPK": 1679681090
  },
  {
    "id": 21,
    "AEGODKFHNPK": -1586422944
  },
  {
    "id": 22,
    "AEGODKFHNPK": -437889748
  },
  {
    "id": 23,
    "AEGODKFHNPK": -992070766
  },
  {
    "id": 24,
    "AEGODKFHNPK": -771314781
  },
  {
    "id": 25,
    "AEGODKFHNPK": 914687388
  },
  {
    "id": 26,
    "AEGODKFHNPK": 1760377617
  },
  {
    "id": 27,
    "AEGODKFHNPK": 309219766
  },
  {
    "id": 28,
    "AEGODKFHNPK": 379306030
  },
  {
    "id": 29,
    "AEGODKFHNPK": -699477148
  },
  {
    "id": 30,
    "AEGODKFHNPK": -967796179
  },
  {
    "id": 31,
    "AEGODKFHNPK": 350724775
  },
  {
    "id": 32,
    "AEGODKFHNPK": -1719183195
  },
  {
    "id": 33,
    "AEGODKFHNPK": -1719183198
  },
  {
    "id": 34,
    "AEGODKFHNPK": -1719183197
  },
  {
    "id": 35,
    "AEGODKFHNPK": 1125260884
  },
  {
    "id": 36,
    "AEGODKFHNPK": 1072662649
  },
  {
    "id": 37,
    "AEGODKFHNPK": -493421292
  },
  {
    "id": 38,
    "AEGODKFHNPK": 62946307
  },
  {
    "id": 39,
    "AEGODKFHNPK": -133608878
  },
  {
    "id": 40,
    "AEGODKFHNPK": -469590202
  },
  {
    "id": 41,
    "AEGODKFHNPK": 1793987077
  },
  {
    "id": 42,
    "AEGODKFHNPK": 1069142821
  },
  {
    "id": 43,
    "AEGODKFHNPK": 1961142581
  },
  {
    "id": 44,
    "AEGODKFHNPK": -1740857612
  },
  {
    "id": 45,
    "AEGODKFHNPK": 70470502
  },
  {
    "id": 46,
    "AEGODKFHNPK": -10031026
  },
  {
    "id": 47,
    "AEGODKFHNPK": -1625659640
  },
  {
    "id": 48,
    "AEGODKFHNPK": -837221938
  },
  {
    "id": 49,
    "AEGODKFHNPK": 1593982405
  },
  {
    "id": 50,
    "AEGODKFHNPK": -2050491704
  },
  {
    "id": 51,
    "AEGODKFHNPK": -159428554
  },
  {
    "id": 52,
    "AEGODKFHNPK": 1950253664
  },
  {
    "id": 53,
    "AEGODKFHNPK": -1523651301
  },
  {
    "id": 54,
    "AEGODKFHNPK": -469754812
  },
  {
    "id": 55,
    "AEGODKFHNPK": 546731918
  },
  {
    "id": 56,
    "AEGODKFHNPK": -857522208
  },
  {
    "id": 57,
    "AEGODKFHNPK": -572277997
  },
  {
    "id": 58,
    "AEGODKFHNPK": -821711071
  },
  {
    "id": 59,
    "AEGODKFHNPK": -693281755
  },
  {
    "id": 60,
    "AEGODKFHNPK": 897559843
  },
  {
    "id": 61,
    "AEGODKFHNPK": 1857500569
  },
  {
    "id": 62,
    "AEGODKFHNPK": 192806517
  },
  {
    "id": 63,
    "AEGODKFHNPK": 1183688361
  },
  {
    "id": 64,
    "AEGODKFHNPK": 518306660
  },
  {
    "id": 65,
    "AEGODKFHNPK": -1303336510
  },
  {
    "id": 66,
    "AEGODKFHNPK": -89066963
  },
  {
    "id": 67,
    "AEGODKFHNPK": -542308382
  },
  {
    "id": 68,
    "AEGODKFHNPK": 1718936512
  },
  {
    "id": 69,
    "AEGODKFHNPK": -1627108994
  },
  {
    "id": 70,
    "AEGODKFHNPK": -79060685
  },
  {
    "id": 71,
    "AEGODKFHNPK": -1837452961
  },
  {
    "id": 72,
    "AEGODKFHNPK": -816047656
  },
  {
    "id": 73,
    "AEGODKFHNPK": 661040059
  },
  {
    "id": 74,
    "AEGODKFHNPK": 1267480647
  },
  {
    "id": 75,
    "AEGODKFHNPK": 95591998
  },
  {
    "id": 76,
    "AEGODKFHNPK": 1036675211
  },
  {
    "id": 77,
    "AEGODKFHNPK": -1016796933
  },
  {
    "id": 78,
    "AEGODKFHNPK": 604842551
  },
  {
    "id": 79,
    "AEGODKFHNPK": -204075163
  },
  {
    "id": 80,
    "AEGODKFHNPK": -1953090761
  },
  {
    "id": 81,
    "AEGODKFHNPK": 418932494
  },
  {
    "id": 82,
    "AEGODKFHNPK": -48972174
  },
  {
    "id": 83,
    "AEGODKFHNPK": 363056555
  },
  {
    "id": 84,
    "AEGODKFHNPK": 802727912
  },
  {
    "id": 85,
    "AEGODKFHNPK": -546241552
  },
  {
    "id": 86,
    "AEGODKFHNPK": -743835707
  },
  {
    "id": 87,
    "AEGODKFHNPK": -1445768259
  },
  {
    "id": 88,
    "AEGODKFHNPK": -394571837
  },
  {
    "id": 89,
    "AEGODKFHNPK": 2022399206
  },
  {
    "id": 90,
    "AEGODKFHNPK": -1908072270
  },
  {
    "id": 91,
    "AEGODKFHNPK": 936990334
  },
  {
    "id": 92,
    "AEGODKFHNPK": -1764654503
  },
  {
    "id": 93,
    "AEGODKFHNPK": 1660492081
  },
  {
    "id": 94,
    "AEGODKFHNPK": 1021562009
  },
  {
    "id": 95,
    "AEGODKFHNPK": 1544836998
  },
  {
    "id": 96,
    "AEGODKFHNPK": 1047961766
  },
  {
    "id": 97,
    "AEGODKFHNPK": 960501515
  },
  {
    "id": 98,
    "AEGODKFHNPK": 1943484091
  },
  {
    "id": 99,
    "AEGODKFHNPK": 210765730
  },
  {
    "id": 100,
    "AEGODKFHNPK": 2133092079
  },
  {
    "id": 101,
    "AEGODKFHNPK": -1280895582
  },
  {
    "id": 102,
    "AEGODKFHNPK": -870545232
  },
  {
    "id": 103,
    "AEGODKFHNPK": -1663069865
  },
  {
    "id": 104,
    "AEGODKFHNPK": -1434978213
  },
  {
    "id": 105,
    "AEGODKFHNPK": -1303202531
  },
  {
    "id": 106,
    "AEGODKFHNPK": -866074857
  },
  {
    "id": 107,
    "AEGODKFHNPK": -625296856
  },
  {
    "id": 108,
    "AEGODKFHNPK": -660027086
  },
  {
    "id": 109,
    "AEGODKFHNPK": 494077540
  },
  {
    "id": 110,
    "AEGODKFHNPK": 910137217
  },
  {
    "id": 111,
    "AEGODKFHNPK": 644038874
  },
  {
    "id": 112,
    "AEGODKFHNPK": 1874859248
  },
  {
    "id": 113,
    "AEGODKFHNPK": 1550495585
  },
  {
    "id": 114,
    "AEGODKFHNPK": -1498052718
  },
  {
    "id": 115,
    "AEGODKFHNPK": 1249687707
  },
  {
    "id": 116,
    "AEGODKFHNPK": 133256421
  },
  {
    "id": 117,
    "AEGODKFHNPK": -592485485
  },
  {
    "id": 118,
    "AEGODKFHNPK": 764387370
  },
  {
    "id": 119,
    "AEGODKFHNPK": -140983986
  },
  {
    "id": 120,
    "AEGODKFHNPK": -103148241
  },
  {
    "id": 121,
    "AEGODKFHNPK": -1091843042
  },
  {
    "id": 122,
    "AEGODKFHNPK": 1156749364
  },
  {
    "id": 123,
    "AEGODKFHNPK": -1218177654
  },
  {
    "id": 124,
    "AEGODKFHNPK": -1192132250
  },
  {
    "id": 125,
    "AEGODKFHNPK": 2080516478
  },
  {
    "id": 126,
    "AEGODKFHNPK": 1359483022
  },
  {
    "id": 127,
    "AEGODKFHNPK": -1066713348
  },
  {
    "id": 128,
    "AEGODKFHNPK": -1265962636
  },
  {
    "id": 129,
    "AEGODKFHNPK": -1831441572
  },
  {
    "id": 130,
    "AEGODKFHNPK": -434530114
  },
  {
    "id": 131,
    "AEGODKFHNPK": 414472622
  },
  {
    "id": 132,
    "AEGODKFHNPK": -628149758
  },
  {
    "id": 133,
    "AEGODKFHNPK": -326255540
  },
  {
    "id": 134,
    "AEGODKFHNPK": 234484835
  },
  {
    "id": 135,
    "AEGODKFHNPK": 1115604279
  },
  {
    "id": 136,
    "AEGODKFHNPK": -132434537
  },
  {
    "id": 137,
    "AEGODKFHNPK": -425353252
  },
  {
    "id": 138,
    "AEGODKFHNPK": 454881180
  },
  {
    "id": 139,
    "AEGODKFHNPK": 1367713899
  },
  {
    "id": 140,
    "AEGODKFHNPK": -1500794702
  },
  {
    "id": 141,
    "AEGODKFHNPK": 1590967419
  },
  {
    "id": 142,
    "AEGODKFHNPK": -1283190092
  },
  {
    "id": 143,
    "AEGODKFHNPK": 1880198607
  },
  {
    "id": 144,
    "AEGODKFHNPK": -257183600
  },
  {
    "id": 145,
    "AEGODKFHNPK": 335554399
  },
  {
    "id": 146,
    "AEGODKFHNPK": 146100638
  },
  {
    "id": 147,
    "AEGODKFHNPK": -1973693309
  },
  {
    "id": 148,
    "AEGODKFHNPK": -1015504470
  },
  {
    "id": 149,
    "AEGODKFHNPK": 1982620499
  },
  {
    "id": 150,
    "AEGODKFHNPK": 1796212002
  },
  {
    "id": 151,
    "AEGODKFHNPK": 1989536349
  },
  {
    "id": 152,
    "AEGODKFHNPK": -1204608390
  },
  {
    "id": 153,
    "AEGODKFHNPK": -1204608389
  },
  {
    "id": 154,
    "AEGODKFHNPK": -569041924
  },
  {
    "id": 155,
    "AEGODKFHNPK": 1223712828
  },
  {
    "id": 156,
    "AEGODKFHNPK": -948977453
  },
  {
    "id": 157,
    "AEGODKFHNPK": 1110416123
  },
  {
    "id": 158,
    "AEGODKFHNPK": 1654863463
  },
  {
    "id": 159,
    "AEGODKFHNPK": 1707660449
  },
  {
    "id": 160,
    "AEGODKFHNPK": 671405190
  },
  {
    "id": 161,
    "AEGODKFHNPK": -1398330981
  },
  {
    "id": 162,
    "AEGODKFHNPK": -40537245
  },
  {
    "id": 163,
    "AEGODKFHNPK": -415520023
  },
  {
    "id": 164,
    "AEGODKFHNPK": -2051336624
  },
  {
    "id": 165,
    "AEGODKFHNPK": -389463629
  },
  {
    "id": 166,
    "AEGODKFHNPK": 1181456839
  },
  {
    "id": 167,
    "AEGODKFHNPK": 320603424
  },
  {
    "id": 168,
    "AEGODKFHNPK": -229984552
  },
  {
    "id": 169,
    "AEGODKFHNPK": -1852796702
  },
  {
    "id": 170,
    "AEGODKFHNPK": -888762109
  },
  {
    "id": 171,
    "AEGODKFHNPK": 1974528475
  },
  {
    "id": 172,
    "AEGODKFHNPK": -422337039
  },
  {
    "id": 173,
    "AEGODKFHNPK": -133715471
  },
  {
    "id": 174,
    "AEGODKFHNPK": 1950315887
  },
  {
    "id": 175,
    "AEGODKFHNPK": -659724986
  },
  {
    "id": 176,
    "AEGODKFHNPK": 245576859
  },
  {
    "id": 177,
    "AEGODKFHNPK": -807205456
  },
  {
    "id": 178,
    "AEGODKFHNPK": 2034962111
  },
  {
    "id": 179,
    "AEGODKFHNPK": 981615351
  },
  {
    "id": 180,
    "AEGODKFHNPK": -1103432600
  },
  {
    "id": 181,
    "AEGODKFHNPK": -231828297
  },
  {
    "id": 182,
    "AEGODKFHNPK": -1416590747
  },
  {
    "id": 183,
    "AEGODKFHNPK": -1660439481
  },
  {
    "id": 184,
    "AEGODKFHNPK": -2024633029
  },
  {
    "id": 185,
    "AEGODKFHNPK": 2008723277
  },
  {
    "id": 186,
    "AEGODKFHNPK": 829794363
  },
  {
    "id": 187,
    "AEGODKFHNPK": 1600303173
  },
  {
    "id": 188,
    "AEGODKFHNPK": -1650079487
  },
  {
    "id": 189,
    "AEGODKFHNPK": -1910170916
  },
  {
    "id": 190,
    "AEGODKFHNPK": -257923323
  },
  {
    "id": 191,
    "AEGODKFHNPK": -524974661
  },
  {
    "id": 192,
    "AEGODKFHNPK": -1711937548
  },
  {
    "id": 193,
    "AEGODKFHNPK": -524974664
  },
  {
    "id": 194,
    "AEGODKFHNPK": -470257041
  },
  {
    "id": 195,
    "AEGODKFHNPK": 233908183
  },
  {
    "id": 196,
    "AEGODKFHNPK": 1625434648
  },
  {
    "id": 197,
    "AEGODKFHNPK": -1603412342
  },
  {
    "id": 198,
    "AEGODKFHNPK": 1167666900
  },
  {
    "id": 199,
    "AEGODKFHNPK": -555008295
  },
  {
    "id": 200,
    "AEGODKFHNPK": -1256363995
  },
  {
    "id": 201,
    "AEGODKFHNPK": -1334897798
  },
  {
    "id": 202,
    "AEGODKFHNPK": -530656228
  },
  {
    "id": 203,
    "AEGODKFHNPK": -2029035334
  },
  {
    "id": 204,
    "AEGODKFHNPK": -1924623373
  },
  {
    "id": 205,
    "AEGODKFHNPK": -2096591403
  },
  {
    "id": 206,
    "AEGODKFHNPK": -915251574
  },
  {
    "id": 207,
    "AEGODKFHNPK": 1091339033
  },
  {
    "id": 208,
    "AEGODKFHNPK": -1526497499
  },
  {
    "id": 209,
    "AEGODKFHNPK": -634330452
  },
  {
    "id": 210,
    "AEGODKFHNPK": -1995559298
  },
  {
    "id": 211,
    "AEGODKFHNPK": -2079939269
  },
  {
    "id": 212,
    "AEGODKFHNPK": -1406717437
  },
  {
    "id": 213,
    "AEGODKFHNPK": 2061469228
  },
  {
    "id": 214,
    "AEGODKFHNPK": 30995841
  },
  {
    "id": 215,
    "AEGODKFHNPK": 1616698310
  },
  {
    "id": 216,
    "AEGODKFHNPK": -439171730
  },
  {
    "id": 217,
    "AEGODKFHNPK": -1248560542
  },
  {
    "id": 218,
    "AEGODKFHNPK": 1986036981
  },
  {
    "id": 219,
    "AEGODKFHNPK": -1946384636
  },
  {
    "id": 220,
    "AEGODKFHNPK": -747962872
  },
  {
    "id": 221,
    "AEGODKFHNPK": -1620602133
  },
  {
    "id": 222,
    "AEGODKFHNPK": -1919118267
  },
  {
    "id": 223,
    "AEGODKFHNPK": -1083287777
  },
  {
    "id": 224,
    "AEGODKFHNPK": 520847819
  },
  {
    "id": 225,
    "AEGODKFHNPK": -1020965969
  },
  {
    "id": 226,
    "AEGODKFHNPK": -38289522
  },
  {
    "id": 227,
    "AEGODKFHNPK": 169274633
  },
  {
    "id": 228,
    "AEGODKFHNPK": 1439377099
  },
  {
    "id": 229,
    "AEGODKFHNPK": 1029140827
  },
  {
    "id": 230,
    "AEGODKFHNPK": -383851905
  },
  {
    "id": 231,
    "AEGODKFHNPK": -188496560
  },
  {
    "id": 232,
    "AEGODKFHNPK": -1579418097
  },
  {
    "id": 233,
    "AEGODKFHNPK": 1773341670
  },
  {
    "id": 234,
    "AEGODKFHNPK": 387303625
  },
  {
    "id": 235,
    "AEGODKFHNPK": -900064494
  },
  {
    "id": 236,
    "AEGODKFHNPK": 172002088
  },
  {
    "id": 237,
    "AEGODKFHNPK": -173675627
  },
  {
    "id": 238,
    "AEGODKFHNPK": -1611723196
  },
  {
    "id": 239,
    "AEGODKFHNPK": 1861478072
  },
  {
    "id": 240,
    "AEGODKFHNPK": 331594657
  },
  {
    "id": 241,
    "AEGODKFHNPK": 934848549
  },
  {
    "id": 242,
    "AEGODKFHNPK": -2023648172
  },
  {
    "id": 243,
    "AEGODKFHNPK": 1918650474
  },
  {
    "id": 244,
    "AEGODKFHNPK": 1712639038
  },
  {
    "id": 245,
    "AEGODKFHNPK": 521067975
  },
  {
    "id": 246,
    "AEGODKFHNPK": -1766651866
  },
  {
    "id": 247,
    "AEGODKFHNPK": -1680976073
  },
  {
    "id": 248,
    "AEGODKFHNPK": -264366342
  },
  {
    "id": 249,
    "AEGODKFHNPK": -1375647171
  },
  {
    "id": 250,
    "AEGODKFHNPK": -1626038236
  },
  {
    "id": 251,
    "AEGODKFHNPK": -1166825955
  },
  {
    "id": 252,
    "AEGODKFHNPK": -1320816326
  },
  {
    "id": 253,
    "AEGODKFHNPK": 857505528
  },
  {
    "id": 254,
    "AEGODKFHNPK": 1953921766
  },
  {
    "id": 255,
    "AEGODKFHNPK": 1080266663
  },
  {
    "id": 256,
    "AEGODKFHNPK": -1683798415
  },
  {
    "id": 257,
    "AEGODKFHNPK": -1421009901
  },
  {
    "id": 258,
    "AEGODKFHNPK": 2079526776
  },
  {
    "id": 259,
    "AEGODKFHNPK": -1323278319
  },
  {
    "id": 260,
    "AEGODKFHNPK": 640904402
  },
  {
    "id": 261,
    "AEGODKFHNPK": -2007849216
  },
  {
    "id": 262,
    "AEGODKFHNPK": -386142909
  },
  {
    "id": 263,
    "AEGODKFHNPK": 852901890
  },
  {
    "id": 264,
    "AEGODKFHNPK": -2090235253
  },
  {
    "id": 265,
    "AEGODKFHNPK": -374380689
  },
  {
    "id": 266,
    "AEGODKFHNPK": 1002106738
  },
  {
    "id": 267,
    "AEGODKFHNPK": -1324240379
  },
  {
    "id": 268,
    "AEGODKFHNPK": -1162532540
  },
  {
    "id": 269,
    "AEGODKFHNPK": 692947951
  },
  {
    "id": 270,
    "AEGODKFHNPK": -1818209207
  },
  {
    "id": 271,
    "AEGODKFHNPK": -736768868
  },
  {
    "id": 272,
    "AEGODKFHNPK": -1371158710
  },
  {
    "id": 273,
    "AEGODKFHNPK": -1371158711
  },
  {
    "id": 274,
    "AEGODKFHNPK": -267774328
  },
  {
    "id": 275,
    "AEGODKFHNPK": -1574929519
  },
  {
    "id": 276,
    "AEGODKFHNPK": -415524678
  },
  {
    "id": 277,
    "AEGODKFHNPK": 1372003131
  },
  {
    "id": 278,
    "AEGODKFHNPK": 1502366080
  },
  {
    "id": 279,
    "AEGODKFHNPK": -956963122
  },
  {
    "id": 280,
    "AEGODKFHNPK": 1495548400
  },
  {
    "id": 281,
    "AEGODKFHNPK": 1117129232
  },
  {
    "id": 282,
    "AEGODKFHNPK": 586236976
  },
  {
    "id": 283,
    "AEGODKFHNPK": -1285577130
  },
  {
    "id": 284,
    "AEGODKFHNPK": 882258757
  },
  {
    "id": 285,
    "AEGODKFHNPK": -183571095
  },
  {
    "id": 286,
    "AEGODKFHNPK": 1530323583
  },
  {
    "id": 287,
    "AEGODKFHNPK": 305911926
  },
  {
    "id": 288,
    "AEGODKFHNPK": -1920662670
  },
  {
    "id": 289,
    "AEGODKFHNPK": -947398666
  },
  {
    "id": 290,
    "AEGODKFHNPK": 1406991221
  },
  {
    "id": 291,
    "AEGODKFHNPK": 1245875008
  },
  {
    "id": 292,
    "AEGODKFHNPK": -412637433
  },
  {
    "id": 293,
    "AEGODKFHNPK": 1140601062
  },
  {
    "id": 294,
    "AEGODKFHNPK": 1974316719
  },
  {
    "id": 295,
    "AEGODKFHNPK": -663621136
  },
  {
    "id": 296,
    "AEGODKFHNPK": 905694009
  },
  {
    "id": 297,
    "AEGODKFHNPK": -1117823906
  },
  {
    "id": 298,
    "AEGODKFHNPK": 870753401
  },
  {
    "id": 299,
    "AEGODKFHNPK": -284949451
  },
  {
    "id": 300,
    "AEGODKFHNPK": 986917766
  },
  {
    "id": 301,
    "AEGODKFHNPK": 1039222268
  },
  {
    "id": 302,
    "AEGODKFHNPK": -1158856420
  },
  {
    "id": 303,
    "AEGODKFHNPK": -1454568637
  },
  {
    "id": 304,
    "AEGODKFHNPK": -1625390040
  },
  {
    "id": 305,
    "AEGODKFHNPK": 4059140
  },
  {
    "id": 306,
    "AEGODKFHNPK": 1415226806
  },
  {
    "id": 307,
    "AEGODKFHNPK": 1661808316
  },
  {
    "id": 308,
    "AEGODKFHNPK": 1267664745
  },
  {
    "id": 309,
    "AEGODKFHNPK": 172496541
  },
  {
    "id": 310,
    "AEGODKFHNPK": -1378851898
  },
  {
    "id": 311,
    "AEGODKFHNPK": -998948244
  },
  {
    "id": 312,
    "AEGODKFHNPK": -288130877
  },
  {
    "id": 313,
    "AEGODKFHNPK": -132542868
  },
  {
    "id": 314,
    "AEGODKFHNPK": 258175464
  },
  {
    "id": 315,
    "AEGODKFHNPK": -118110522
  },
  {
    "id": 316,
    "AEGODKFHNPK": -681051679
  },
  {
    "id": 317,
    "AEGODKFHNPK": -115451883
  },
  {
    "id": 318,
    "AEGODKFHNPK": 1496068877
  },
  {
    "id": 319,
    "AEGODKFHNPK": 698180446
  },
  {
    "id": 320,
    "AEGODKFHNPK": 1082693026
  },
  {
    "id": 321,
    "AEGODKFHNPK": -238463294
  },
  {
    "id": 322,
    "AEGODKFHNPK": -715446516
  },
  {
    "id": 323,
    "AEGODKFHNPK": 1836499512
  },
  {
    "id": 324,
    "AEGODKFHNPK": -1895432013
  },
  {
    "id": 325,
    "AEGODKFHNPK": -669297469
  },
  {
    "id": 326,
    "AEGODKFHNPK": -4453186
  },
  {
    "id": 327,
    "AEGODKFHNPK": 634438526
  },
  {
    "id": 328,
    "AEGODKFHNPK": -724910142
  },
  {
    "id": 329,
    "AEGODKFHNPK": 483631451
  },
  {
    "id": 330,
    "AEGODKFHNPK": -995289091
  },
  {
    "id": 331,
    "AEGODKFHNPK": -78796687
  },
  {
    "id": 332,
    "AEGODKFHNPK": -938695149
  },
  {
    "id": 333,
    "AEGODKFHNPK": -1546520968
  },
  {
    "id": 334,
    "AEGODKFHNPK": -231353247
  },
  {
    "id": 335,
    "AEGODKFHNPK": 517340627
  },
  {
    "id": 336,
    "AEGODKFHNPK": 1850665231
  },
  {
    "id": 337,
    "AEGODKFHNPK": -1004517986
  },
  {
    "id": 338,
    "AEGODKFHNPK": -742714679
  },
  {
    "id": 339,
    "AEGODKFHNPK": -1525844479
  },
  {
    "id": 340,
    "AEGODKFHNPK": 69517629
  },
  {
    "id": 341,
    "AEGODKFHNPK": -10635081
  },
  {
    "id": 342,
    "AEGODKFHNPK": -552452162
  },
  {
    "id": 343,
    "AEGODKFHNPK": 1418307876
  },
  {
    "id": 344,
    "AEGODKFHNPK": -247875831
  },
  {
    "id": 345,
    "AEGODKFHNPK": -2143633554
  },
  {
    "id": 346,
    "AEGODKFHNPK": 1251953069
  },
  {
    "id": 347,
    "AEGODKFHNPK": 1387190630
  },
  {
    "id": 348,
    "AEGODKFHNPK": 335083899
  },
  {
    "id": 349,
    "AEGODKFHNPK": 349794605
  },
  {
    "id": 350,
    "AEGODKFHNPK": -1587039621
  },
  {
    "id": 351,
    "AEGODKFHNPK": -1996311405
  },
  {
    "id": 352,
    "AEGODKFHNPK": 812308885
  },
  {
    "id": 353,
    "AEGODKFHNPK": 444854111
  },
  {
    "id": 354,
    "AEGODKFHNPK": -1020621399
  },
  {
    "id": 355,
    "AEGODKFHNPK": -1375403084
  },
  {
    "id": 356,
    "AEGODKFHNPK": 1463325749
  },
  {
    "id": 357,
    "AEGODKFHNPK": 1028063798
  },
  {
    "id": 358,
    "AEGODKFHNPK": -1726185984
  },
  {
    "id": 359,
    "AEGODKFHNPK": -79048022
  },
  {
    "id": 360,
    "AEGODKFHNPK": 1059279838
  },
  {
    "id": 361,
    "AEGODKFHNPK": 1126526421
  },
  {
    "id": 362,
    "AEGODKFHNPK": 1419955283
  },
  {
    "id": 363,
    "AEGODKFHNPK": 1129543055
  },
  {
    "id": 364,
    "AEGODKFHNPK": 1093329813
  },
  {
    "id": 365,
    "AEGODKFHNPK": -151211257
  },
  {
    "id": 366,
    "AEGODKFHNPK": -151211254
  },
  {
    "id": 367,
    "AEGODKFHNPK": 1469086781
  },
  {
    "id": 368,
    "AEGODKFHNPK": -882567438
  },
  {
    "id": 369,
    "AEGODKFHNPK": -770461480
  },
  {
    "id": 370,
    "AEGODKFHNPK": 2098875590
  },
  {
    "id": 371,
    "AEGODKFHNPK": 630111913
  },
  {
    "id": 372,
    "AEGODKFHNPK": -1628874859
  },
  {
    "id": 373,
    "AEGODKFHNPK": 963866904
  },
  {
    "id": 374,
    "AEGODKFHNPK": -1718710338
  }
]