[
  {
    "describeId": 101,
    "score": 0.57,
    "monsterIntensityRevise": 0.57,
    "mkCurveMin": 0.5,
    "mkRad": 1.5,
    "factorDyngainRange": 0.3,
    "BNBILNCLADB": 1
  },
  {
    "describeId": 102,
    "score": 2.44,
    "monsterIntensityRevise": 2.44,
    "mkCurveMin": 0.5,
    "mkRad": 1.5,
    "factorDyngainRange": 0.3,
    "BNBILNCLADB": 1
  },
  {
    "describeId": 103,
    "score": 0.57,
    "monsterIntensityRevise": 0.57,
    "mkCurveMin": 0.5,
    "mkRad": 1.5,
    "factorDyngainRange": 0.3,
    "BNBILNCLADB": 1
  },
  {
    "describeId": 104,
    "score": 2.44,
    "monsterIntensityRevise": 2.44,
    "mkCurveMin": 0.5,
    "mkRad": 1.5,
    "factorDyngainRange": 0.3,
    "BNBILNCLADB": 1
  },
  {
    "describeId": 105,
    "score": 0.57,
    "monsterIntensityRevise": 0.57,
    "mkCurveMin": 0.5,
    "mkRad": 1.5,
    "factorDyngainRange": 0.3,
    "BNBILNCLADB": 1
  },
  {
    "describeId": 106,
    "score": 2.44,
    "monsterIntensityRevise": 2.44,
    "mkCurveMin": 0.5,
    "mkRad": 1.5,
    "factorDyngainRange": 0.3,
    "BNBILNCLADB": 1
  },
  {
    "describeId": 107,
    "score": 2.44,
    "monsterIntensityRevise": 2.44,
    "mkCurveMin": 0.5,
    "mkRad": 1.5,
    "factorDyngainRange": 0.3,
    "BNBILNCLADB": 1
  },
  {
    "describeId": 108,
    "score": 0.57,
    "monsterIntensityRevise": 0.57,
    "mkCurveMin": 0.5,
    "mkRad": 1.5,
    "factorDyngainRange": 0.3,
    "BNBILNCLADB": 1
  },
  {
    "describeId": 109,
    "score": 2.44,
    "monsterIntensityRevise": 2.44,
    "mkCurveMin": 0.5,
    "mkRad": 1.5,
    "factorDyngainRange": 0.3,
    "BNBILNCLADB": 1
  },
  {
    "describeId": 110,
    "score": 0.57,
    "monsterIntensityRevise": 0.57,
    "mkCurveMin": 0.5,
    "mkRad": 1.5,
    "factorDyngainRange": 0.3,
    "BNBILNCLADB": 1
  },
  {
    "describeId": 111,
    "score": 2.44,
    "monsterIntensityRevise": 2.44,
    "mkCurveMin": 0.5,
    "mkRad": 1.5,
    "factorDyngainRange": 0.3,
    "BNBILNCLADB": 1
  },
  {
    "describeId": 112,
    "score": 0.57,
    "monsterIntensityRevise": 0.57,
    "mkCurveMin": 0.5,
    "mkRad": 1.5,
    "factorDyngainRange": 0.3,
    "BNBILNCLADB": 1
  },
  {
    "describeId": 113,
    "score": 2.44,
    "monsterIntensityRevise": 2.44,
    "mkCurveMin": 0.5,
    "mkRad": 1.5,
    "factorDyngainRange": 0.3,
    "BNBILNCLADB": 1
  },
  {
    "describeId": 114,
    "score": 0.57,
    "monsterIntensityRevise": 0.57,
    "mkCurveMin": 0.5,
    "mkRad": 1.5,
    "factorDyngainRange": 0.3,
    "BNBILNCLADB": 1
  },
  {
    "describeId": 115,
    "score": 2.44,
    "monsterIntensityRevise": 2.44,
    "mkCurveMin": 0.5,
    "mkRad": 1.5,
    "factorDyngainRange": 0.3,
    "BNBILNCLADB": 1
  },
  {
    "describeId": 201,
    "score": 6.14,
    "monsterIntensityRevise": 6.14,
    "mkCurveMin": 0.55,
    "mkRad": 1.25,
    "factorDyngainRange": 0.3,
    "BNBILNCLADB": 1
  },
  {
    "describeId": 401,
    "score": 12.39,
    "monsterIntensityRevise": 12.39,
    "mkCurveMin": 0.55,
    "mkRad": 1.25,
    "factorDyngainRange": 0.3,
    "tStateHoldExtraMstr": 5,
    "BNBILNCLADB": 1
  },
  {
    "describeId": 402,
    "score": 12.39,
    "monsterIntensityRevise": 12.39,
    "mkCurveMin": 0.55,
    "mkRad": 1.25,
    "factorDyngainRange": 0.3,
    "tStateHoldExtraMstr": 5,
    "BNBILNCLADB": 1
  },
  {
    "describeId": 403,
    "score": 14.63,
    "monsterIntensityRevise": 14.63,
    "mkCurveMin": 0.55,
    "mkRad": 1.25,
    "factorDyngainRange": 0.3,
    "tStateHoldExtraMstr": 5,
    "BNBILNCLADB": 1
  },
  {
    "describeId": 404,
    "score": 21.46,
    "monsterIntensityRevise": 21.46,
    "mkCurveMin": 0.7,
    "mkRad": 0.5,
    "factorDyngainRange": 0.3,
    "tStateHoldExtraMstr": 5,
    "BNBILNCLADB": 1
  },
  {
    "describeId": 405,
    "score": 12.39,
    "monsterIntensityRevise": 12.39,
    "mkCurveMin": 0.55,
    "mkRad": 1.25,
    "factorDyngainRange": 0.3,
    "tStateHoldExtraMstr": 5,
    "BNBILNCLADB": 1
  },
  {
    "describeId": 406,
    "score": 16.21,
    "monsterIntensityRevise": 16.21,
    "mkCurveMin": 0.65,
    "mkRad": 0.75,
    "factorDyngainRange": 0.3,
    "tStateHoldExtraMstr": 5,
    "BNBILNCLADB": 1
  },
  {
    "describeId": 501,
    "score": 15.1,
    "monsterIntensityRevise": 15.1,
    "mkCurveMin": 0.65,
    "mkRad": 0.75,
    "factorDyngainRange": 0.3,
    "BNBILNCLADB": 1
  },
  {
    "describeId": 502,
    "score": 1.51,
    "monsterIntensityRevise": 1.51,
    "mkCurveMin": 0.55,
    "mkRad": 1.25,
    "factorDyngainRange": 0.3,
    "BNBILNCLADB": 1
  },
  {
    "describeId": 503,
    "score": 1.32,
    "monsterIntensityRevise": 1.32,
    "mkCurveMin": 0.55,
    "mkRad": 1.25,
    "factorDyngainRange": 0.3,
    "BNBILNCLADB": 1
  },
  {
    "describeId": 504,
    "score": 1.54,
    "monsterIntensityRevise": 1.54,
    "mkCurveMin": 0.55,
    "mkRad": 1.25,
    "factorDyngainRange": 0.3,
    "BNBILNCLADB": 1
  },
  {
    "describeId": 505,
    "score": 3.67,
    "monsterIntensityRevise": 3.67,
    "mkCurveMin": 0.55,
    "mkRad": 1.25,
    "factorDyngainRange": 0.3,
    "BNBILNCLADB": 1
  },
  {
    "describeId": 506,
    "score": 1.18,
    "monsterIntensityRevise": 1.18,
    "mkCurveMin": 0.55,
    "mkRad": 1.25,
    "factorDyngainRange": 0.3,
    "BNBILNCLADB": 1
  },
  {
    "describeId": 507,
    "score": 1.63,
    "monsterIntensityRevise": 1.63,
    "mkCurveMin": 0.55,
    "mkRad": 1.25,
    "factorDyngainRange": 0.3,
    "BNBILNCLADB": 1
  },
  {
    "describeId": 508,
    "score": 3.67,
    "monsterIntensityRevise": 3.67,
    "mkCurveMin": 0.55,
    "mkRad": 1.25,
    "factorDyngainRange": 0.3,
    "BNBILNCLADB": 1
  },
  {
    "describeId": 509,
    "score": 1.29,
    "monsterIntensityRevise": 1.29,
    "mkCurveMin": 0.55,
    "mkRad": 1.25,
    "factorDyngainRange": 0.3,
    "BNBILNCLADB": 1
  },
  {
    "describeId": 601,
    "score": 1.99,
    "monsterIntensityRevise": 1.99,
    "mkCurveMin": 0.55,
    "mkRad": 1.25,
    "factorDyngainRange": 0.3,
    "BNBILNCLADB": 1
  },
  {
    "describeId": 602,
    "score": 1.99,
    "monsterIntensityRevise": 1.99,
    "mkCurveMin": 0.55,
    "mkRad": 1.25,
    "factorDyngainRange": 0.3,
    "BNBILNCLADB": 1
  },
  {
    "describeId": 603,
    "score": 1.99,
    "monsterIntensityRevise": 1.99,
    "mkCurveMin": 0.55,
    "mkRad": 1.25,
    "factorDyngainRange": 0.3,
    "BNBILNCLADB": 1
  },
  {
    "describeId": 604,
    "score": 1.99,
    "monsterIntensityRevise": 1.99,
    "mkCurveMin": 0.55,
    "mkRad": 1.25,
    "factorDyngainRange": 0.3,
    "BNBILNCLADB": 1
  },
  {
    "describeId": 605,
    "score": 1.99,
    "monsterIntensityRevise": 1.99,
    "mkCurveMin": 0.55,
    "mkRad": 1.25,
    "factorDyngainRange": 0.3,
    "BNBILNCLADB": 1
  },
  {
    "describeId": 606,
    "score": 1.99,
    "monsterIntensityRevise": 1.99,
    "mkCurveMin": 0.55,
    "mkRad": 1.25,
    "factorDyngainRange": 0.3,
    "BNBILNCLADB": 1
  },
  {
    "describeId": 607,
    "score": 1.82,
    "monsterIntensityRevise": 1.82,
    "mkCurveMin": 0.55,
    "mkRad": 1.25,
    "factorDyngainRange": 0.3,
    "BNBILNCLADB": 1
  },
  {
    "describeId": 701,
    "score": 24.84,
    "monsterIntensityRevise": 24.84,
    "mkCurveMin": 0.7,
    "mkRad": 0.5,
    "factorDyngainRange": 0.3,
    "BNBILNCLADB": 1
  },
  {
    "describeId": 10101,
    "score": 1.3,
    "monsterIntensityRevise": 1.3,
    "mkCurveMin": 0.5,
    "mkRad": 1.5,
    "factorDyngainRange": 0.3,
    "BNBILNCLADB": 1
  },
  {
    "describeId": 10102,
    "score": 1.3,
    "monsterIntensityRevise": 1.3,
    "mkCurveMin": 0.5,
    "mkRad": 1.5,
    "factorDyngainRange": 0.3,
    "BNBILNCLADB": 1
  },
  {
    "describeId": 10103,
    "score": 1.3,
    "monsterIntensityRevise": 1.3,
    "mkCurveMin": 0.5,
    "mkRad": 1.5,
    "factorDyngainRange": 0.3,
    "BNBILNCLADB": 1
  },
  {
    "describeId": 10104,
    "score": 0.71,
    "monsterIntensityRevise": 0.71,
    "mkCurveMin": 0.5,
    "mkRad": 1.5,
    "factorDyngainRange": 0.3,
    "BNBILNCLADB": 1
  },
  {
    "describeId": 10105,
    "score": 0.71,
    "monsterIntensityRevise": 0.71,
    "mkCurveMin": 0.5,
    "mkRad": 1.5,
    "factorDyngainRange": 0.3,
    "BNBILNCLADB": 1
  },
  {
    "describeId": 10106,
    "score": 1.3,
    "monsterIntensityRevise": 1.3,
    "mkCurveMin": 0.5,
    "mkRad": 1.5,
    "factorDyngainRange": 0.3,
    "BNBILNCLADB": 1
  },
  {
    "describeId": 10107,
    "score": 1.3,
    "monsterIntensityRevise": 1.3,
    "mkCurveMin": 0.5,
    "mkRad": 1.5,
    "factorDyngainRange": 0.3,
    "BNBILNCLADB": 1
  },
  {
    "describeId": 10108,
    "score": 1,
    "monsterIntensityRevise": 1,
    "mkCurveMin": 0.5,
    "mkRad": 1.5,
    "factorDyngainRange": 0.3,
    "BNBILNCLADB": 1
  },
  {
    "describeId": 10109,
    "score": 0.71,
    "monsterIntensityRevise": 0.71,
    "mkCurveMin": 0.5,
    "mkRad": 1.5,
    "factorDyngainRange": 0.3,
    "BNBILNCLADB": 1
  },
  {
    "describeId": 10110,
    "score": 0.71,
    "monsterIntensityRevise": 0.71,
    "mkCurveMin": 0.5,
    "mkRad": 1.5,
    "factorDyngainRange": 0.3,
    "BNBILNCLADB": 1
  },
  {
    "describeId": 10111,
    "score": 1,
    "monsterIntensityRevise": 1,
    "mkCurveMin": 0.5,
    "mkRad": 1.5,
    "factorDyngainRange": 0.3,
    "BNBILNCLADB": 1
  },
  {
    "describeId": 10112,
    "score": 1.3,
    "monsterIntensityRevise": 1.3,
    "mkCurveMin": 0.5,
    "mkRad": 1.5,
    "factorDyngainRange": 0.3,
    "BNBILNCLADB": 1
  },
  {
    "describeId": 10113,
    "score": 0.71,
    "monsterIntensityRevise": 0.71,
    "mkCurveMin": 0.5,
    "mkRad": 1.5,
    "factorDyngainRange": 0.3,
    "BNBILNCLADB": 1
  },
  {
    "describeId": 10114,
    "score": 1,
    "monsterIntensityRevise": 1,
    "mkCurveMin": 0.5,
    "mkRad": 1.5,
    "factorDyngainRange": 0.3,
    "BNBILNCLADB": 1
  },
  {
    "describeId": 10115,
    "score": 2.05,
    "monsterIntensityRevise": 2.05,
    "mkCurveMin": 0.4,
    "mkRad": 2,
    "factorDyngainRange": 0.3,
    "BNBILNCLADB": 1
  },
  {
    "describeId": 10116,
    "score": 1.3,
    "monsterIntensityRevise": 1.3,
    "mkCurveMin": 0.5,
    "mkRad": 1.5,
    "factorDyngainRange": 0.3,
    "BNBILNCLADB": 1
  },
  {
    "describeId": 10201,
    "score": 3.6,
    "monsterIntensityRevise": 3.6,
    "mkCurveMin": 0.55,
    "mkRad": 1.25,
    "factorDyngainRange": 0.3,
    "BNBILNCLADB": 1
  },
  {
    "describeId": 10202,
    "score": 3.6,
    "monsterIntensityRevise": 3.6,
    "mkCurveMin": 0.55,
    "mkRad": 1.25,
    "factorDyngainRange": 0.3,
    "BNBILNCLADB": 1
  },
  {
    "describeId": 10203,
    "score": 3.6,
    "monsterIntensityRevise": 3.6,
    "mkCurveMin": 0.55,
    "mkRad": 1.25,
    "factorDyngainRange": 0.3,
    "BNBILNCLADB": 1
  },
  {
    "describeId": 10204,
    "score": 17.03,
    "monsterIntensityRevise": 17.03,
    "mkCurveMin": 0.65,
    "mkRad": 0.75,
    "factorDyngainRange": 0.3,
    "BNBILNCLADB": 1
  },
  {
    "describeId": 10205,
    "score": 14.92,
    "monsterIntensityRevise": 14.92,
    "mkCurveMin": 0.55,
    "mkRad": 1.25,
    "factorDyngainRange": 0.3,
    "BNBILNCLADB": 1
  },
  {
    "describeId": 10206,
    "score": 2.7,
    "monsterIntensityRevise": 2.7,
    "mkCurveMin": 0.55,
    "mkRad": 1.25,
    "factorDyngainRange": 0.3,
    "BNBILNCLADB": 1
  },
  {
    "describeId": 10207,
    "score": 3.6,
    "monsterIntensityRevise": 3.6,
    "mkCurveMin": 0.55,
    "mkRad": 1.25,
    "factorDyngainRange": 0.3,
    "BNBILNCLADB": 1
  },
  {
    "describeId": 10208,
    "score": 17.03,
    "monsterIntensityRevise": 17.03,
    "mkCurveMin": 0.65,
    "mkRad": 0.75,
    "factorDyngainRange": 0.3,
    "BNBILNCLADB": 1
  },
  {
    "describeId": 10301,
    "score": 1.5,
    "monsterIntensityRevise": 1.5,
    "mkCurveMin": 0.55,
    "mkRad": 1.25,
    "factorDyngainRange": 0.3,
    "BNBILNCLADB": 1
  },
  {
    "describeId": 10302,
    "score": 1.5,
    "monsterIntensityRevise": 1.5,
    "mkCurveMin": 0.55,
    "mkRad": 1.25,
    "factorDyngainRange": 0.3,
    "BNBILNCLADB": 1
  },
  {
    "describeId": 10303,
    "score": 1.5,
    "monsterIntensityRevise": 1.5,
    "mkCurveMin": 0.55,
    "mkRad": 1.25,
    "factorDyngainRange": 0.3,
    "BNBILNCLADB": 1
  },
  {
    "describeId": 10304,
    "score": 1.5,
    "monsterIntensityRevise": 1.5,
    "mkCurveMin": 0.55,
    "mkRad": 1.25,
    "factorDyngainRange": 0.3,
    "BNBILNCLADB": 1
  },
  {
    "describeId": 10305,
    "score": 1.15,
    "monsterIntensityRevise": 1.15,
    "mkCurveMin": 0.55,
    "mkRad": 1.25,
    "factorDyngainRange": 0.3,
    "BNBILNCLADB": 1
  },
  {
    "describeId": 10306,
    "score": 1.5,
    "monsterIntensityRevise": 1.5,
    "mkCurveMin": 0.55,
    "mkRad": 1.25,
    "factorDyngainRange": 0.3,
    "BNBILNCLADB": 1
  },
  {
    "describeId": 20101,
    "score": 4.05,
    "monsterIntensityRevise": 4.05,
    "mkCurveMin": 0.55,
    "mkRad": 1.25,
    "factorDyngainRange": 0.3,
    "BNBILNCLADB": 1
  },
  {
    "describeId": 20102,
    "score": 4.05,
    "monsterIntensityRevise": 4.05,
    "mkCurveMin": 0.55,
    "mkRad": 1.25,
    "factorDyngainRange": 0.3,
    "BNBILNCLADB": 1
  },
  {
    "describeId": 20103,
    "score": 5.18,
    "monsterIntensityRevise": 5.18,
    "mkCurveMin": 0.55,
    "mkRad": 1.25,
    "factorDyngainRange": 0.3,
    "BNBILNCLADB": 1
  },
  {
    "describeId": 20104,
    "score": 5.18,
    "monsterIntensityRevise": 5.18,
    "mkCurveMin": 0.55,
    "mkRad": 1.25,
    "factorDyngainRange": 0.3,
    "BNBILNCLADB": 1
  },
  {
    "describeId": 20201,
    "score": 15.6,
    "monsterIntensityRevise": 15.6,
    "mkCurveMin": 0.65,
    "mkRad": 0.75,
    "factorDyngainRange": 0.3,
    "BNBILNCLADB": 1
  },
  {
    "describeId": 20202,
    "score": 15.6,
    "monsterIntensityRevise": 15.6,
    "mkCurveMin": 0.65,
    "mkRad": 0.75,
    "factorDyngainRange": 0.3,
    "BNBILNCLADB": 1
  },
  {
    "describeId": 20301,
    "score": 16.38,
    "monsterIntensityRevise": 16.38,
    "mkCurveMin": 0.65,
    "mkRad": 0.75,
    "factorDyngainRange": 0.3,
    "BNBILNCLADB": 1
  },
  {
    "describeId": 20302,
    "score": 16.38,
    "monsterIntensityRevise": 16.38,
    "mkCurveMin": 0.65,
    "mkRad": 0.75,
    "factorDyngainRange": 0.3,
    "BNBILNCLADB": 1
  },
  {
    "describeId": 20401,
    "score": 2.82,
    "monsterIntensityRevise": 2.82,
    "mkCurveMin": 0.55,
    "mkRad": 1.25,
    "factorDyngainRange": 0.3,
    "BNBILNCLADB": 1
  },
  {
    "describeId": 20402,
    "score": 2.82,
    "monsterIntensityRevise": 2.82,
    "mkCurveMin": 0.55,
    "mkRad": 1.25,
    "factorDyngainRange": 0.3,
    "BNBILNCLADB": 1
  },
  {
    "describeId": 20501,
    "score": 11.82,
    "monsterIntensityRevise": 11.82,
    "mkCurveMin": 0.55,
    "mkRad": 1.25,
    "factorDyngainRange": 0.3,
    "BNBILNCLADB": 1
  },
  {
    "describeId": 20502,
    "score": 11.82,
    "monsterIntensityRevise": 11.82,
    "mkCurveMin": 0.55,
    "mkRad": 1.25,
    "factorDyngainRange": 0.3,
    "BNBILNCLADB": 1
  },
  {
    "describeId": 20601,
    "score": 28.79,
    "monsterIntensityRevise": 28.79,
    "mkCurveMin": 0.75,
    "mkRad": 0.25,
    "factorDyngainRange": 0.3,
    "BNBILNCLADB": 1
  },
  {
    "describeId": 20701,
    "score": 6.88,
    "monsterIntensityRevise": 6.88,
    "mkCurveMin": 0.55,
    "mkRad": 1.25,
    "factorDyngainRange": 0.3,
    "BNBILNCLADB": 1
  },
  {
    "describeId": 20702,
    "score": 7.12,
    "monsterIntensityRevise": 7.12,
    "mkCurveMin": 0.55,
    "mkRad": 1.25,
    "factorDyngainRange": 0.3,
    "BNBILNCLADB": 1
  },
  {
    "describeId": 20703,
    "score": 6.23,
    "monsterIntensityRevise": 6.23,
    "mkCurveMin": 0.55,
    "mkRad": 1.25,
    "factorDyngainRange": 0.3,
    "BNBILNCLADB": 1
  },
  {
    "describeId": 20801,
    "score": 12.25,
    "monsterIntensityRevise": 12.25,
    "mkCurveMin": 0.55,
    "mkRad": 1.25,
    "factorDyngainRange": 0.3,
    "BNBILNCLADB": 1
  },
  {
    "describeId": 20901,
    "score": 3.82,
    "monsterIntensityRevise": 3.82,
    "mkCurveMin": 0.55,
    "mkRad": 1.25,
    "factorDyngainRange": 0.3,
    "BNBILNCLADB": 1
  },
  {
    "describeId": 30101,
    "score": 4.27,
    "monsterIntensityRevise": 4.27,
    "mkCurveMin": 0.55,
    "mkRad": 1.25,
    "factorDyngainRange": 0.3,
    "BNBILNCLADB": 1
  },
  {
    "describeId": 30102,
    "score": 3.08,
    "monsterIntensityRevise": 3.08,
    "mkCurveMin": 0.55,
    "mkRad": 1.25,
    "factorDyngainRange": 0.3,
    "BNBILNCLADB": 1
  },
  {
    "describeId": 30103,
    "score": 5.76,
    "monsterIntensityRevise": 5.76,
    "mkCurveMin": 0.55,
    "mkRad": 1.25,
    "factorDyngainRange": 0.3,
    "BNBILNCLADB": 1
  },
  {
    "describeId": 30104,
    "score": 3.65,
    "monsterIntensityRevise": 3.65,
    "mkCurveMin": 0.55,
    "mkRad": 1.25,
    "factorDyngainRange": 0.3,
    "BNBILNCLADB": 1
  },
  {
    "describeId": 30105,
    "score": 4.9,
    "monsterIntensityRevise": 4.9,
    "mkCurveMin": 0.55,
    "mkRad": 1.25,
    "factorDyngainRange": 0.3,
    "BNBILNCLADB": 1
  },
  {
    "describeId": 30106,
    "score": 4.22,
    "monsterIntensityRevise": 4.22,
    "mkCurveMin": 0.55,
    "mkRad": 1.25,
    "factorDyngainRange": 0.3,
    "BNBILNCLADB": 1
  },
  {
    "describeId": 30201,
    "score": 7.6,
    "monsterIntensityRevise": 7.6,
    "mkCurveMin": 0.55,
    "mkRad": 1.25,
    "factorDyngainRange": 0.3,
    "BNBILNCLADB": 1
  },
  {
    "describeId": 30301,
    "score": 5.78,
    "monsterIntensityRevise": 5.78,
    "mkCurveMin": 0.55,
    "mkRad": 1.25,
    "factorDyngainRange": 0.3,
    "BNBILNCLADB": 1
  },
  {
    "describeId": 30401,
    "score": 5.78,
    "monsterIntensityRevise": 5.78,
    "mkCurveMin": 0.55,
    "mkRad": 1.25,
    "factorDyngainRange": 0.3,
    "BNBILNCLADB": 1
  },
  {
    "describeId": 30501,
    "score": 8.38,
    "monsterIntensityRevise": 8.38,
    "mkCurveMin": 0.55,
    "mkRad": 1.25,
    "factorDyngainRange": 0.3,
    "BNBILNCLADB": 1
  },
  {
    "describeId": 40101,
    "score": 8.43,
    "monsterIntensityRevise": 8.43,
    "mkCurveMin": 0.55,
    "mkRad": 1.25,
    "factorDyngainRange": 0.3,
    "BNBILNCLADB": 1
  },
  {
    "describeId": 40102,
    "score": 11.72,
    "monsterIntensityRevise": 11.72,
    "mkCurveMin": 0.55,
    "mkRad": 1.25,
    "factorDyngainRange": 0.3,
    "BNBILNCLADB": 1
  },
  {
    "describeId": 40103,
    "score": 12.95,
    "monsterIntensityRevise": 12.95,
    "mkCurveMin": 0.55,
    "mkRad": 1.25,
    "factorDyngainRange": 0.3,
    "BNBILNCLADB": 1
  },
  {
    "describeId": 40104,
    "score": 24.81,
    "monsterIntensityRevise": 24.81,
    "mkCurveMin": 0.7,
    "mkRad": 0.5,
    "factorDyngainRange": 0.3,
    "BNBILNCLADB": 1
  },
  {
    "describeId": 40201,
    "score": 5.11,
    "monsterIntensityRevise": 5.11,
    "mkCurveMin": 0.55,
    "mkRad": 1.25,
    "factorDyngainRange": 0.3,
    "BNBILNCLADB": 1
  },
  {
    "describeId": 40202,
    "score": 5.11,
    "monsterIntensityRevise": 5.11,
    "mkCurveMin": 0.55,
    "mkRad": 1.25,
    "factorDyngainRange": 0.3,
    "BNBILNCLADB": 1
  },
  {
    "describeId": 40203,
    "score": 7.17,
    "monsterIntensityRevise": 7.17,
    "mkCurveMin": 0.55,
    "mkRad": 1.25,
    "factorDyngainRange": 0.3,
    "BNBILNCLADB": 1
  },
  {
    "describeId": 40204,
    "score": 6.73,
    "monsterIntensityRevise": 6.73,
    "mkCurveMin": 0.55,
    "mkRad": 1.25,
    "factorDyngainRange": 0.3,
    "BNBILNCLADB": 1
  },
  {
    "describeId": 40211,
    "score": 29.18,
    "monsterIntensityRevise": 29.18,
    "mkCurveMin": 0.75,
    "mkRad": 0.25,
    "factorDyngainRange": 0.3,
    "BNBILNCLADB": 1
  },
  {
    "describeId": 40301,
    "score": 11.57,
    "monsterIntensityRevise": 11.57,
    "mkCurveMin": 0.55,
    "mkRad": 1.25,
    "factorDyngainRange": 0.3,
    "tStateHoldExtraMstr": 1,
    "BNBILNCLADB": 1
  },
  {
    "describeId": 40302,
    "score": 10.08,
    "monsterIntensityRevise": 10.08,
    "mkCurveMin": 0.55,
    "mkRad": 1.25,
    "factorDyngainRange": 0.3,
    "tStateHoldExtraMstr": 2,
    "BNBILNCLADB": 1
  },
  {
    "describeId": 50101,
    "score": 2.39,
    "monsterIntensityRevise": 2.39,
    "mkCurveMin": 0.55,
    "mkRad": 1.25,
    "factorDyngainRange": 0.3,
    "BNBILNCLADB": 1
  },
  {
    "describeId": 50102,
    "score": 1.05,
    "monsterIntensityRevise": 1.05,
    "mkCurveMin": 0.55,
    "mkRad": 1.25,
    "factorDyngainRange": 0.3,
    "BNBILNCLADB": 1
  },
  {
    "describeId": 50103,
    "score": 1.35,
    "monsterIntensityRevise": 1.35,
    "mkCurveMin": 0.55,
    "mkRad": 1.25,
    "factorDyngainRange": 0.3,
    "BNBILNCLADB": 1
  },
  {
    "describeId": 50104,
    "score": 1.35,
    "monsterIntensityRevise": 1.35,
    "mkCurveMin": 0.55,
    "mkRad": 1.25,
    "factorDyngainRange": 0.3,
    "BNBILNCLADB": 1
  },
  {
    "describeId": 50105,
    "score": 1.35,
    "monsterIntensityRevise": 1.35,
    "mkCurveMin": 0.55,
    "mkRad": 1.25,
    "factorDyngainRange": 0.3,
    "BNBILNCLADB": 1
  },
  {
    "describeId": 50106,
    "score": 1.35,
    "monsterIntensityRevise": 1.35,
    "mkCurveMin": 0.55,
    "mkRad": 1.25,
    "factorDyngainRange": 0.3,
    "BNBILNCLADB": 1
  },
  {
    "describeId": 50107,
    "score": 1.72,
    "monsterIntensityRevise": 1.72,
    "mkCurveMin": 0.55,
    "mkRad": 1.25,
    "factorDyngainRange": 0.3,
    "BNBILNCLADB": 1
  },
  {
    "describeId": 50201,
    "score": 2.05,
    "monsterIntensityRevise": 2.05,
    "mkCurveMin": 0.55,
    "mkRad": 1.25,
    "factorDyngainRange": 0.3,
    "BNBILNCLADB": 1
  },
  {
    "describeId": 50202,
    "score": 1.05,
    "monsterIntensityRevise": 1.05,
    "mkCurveMin": 0.55,
    "mkRad": 1.25,
    "factorDyngainRange": 0.3,
    "BNBILNCLADB": 1
  },
  {
    "describeId": 50301,
    "score": 2.62,
    "monsterIntensityRevise": 2.62,
    "mkCurveMin": 0.55,
    "mkRad": 1.25,
    "factorDyngainRange": 0.3,
    "BNBILNCLADB": 1
  },
  {
    "describeId": 50302,
    "score": 1.72,
    "monsterIntensityRevise": 1.72,
    "mkCurveMin": 0.55,
    "mkRad": 1.25,
    "factorDyngainRange": 0.3,
    "BNBILNCLADB": 1
  },
  {
    "describeId": 50303,
    "score": 1.72,
    "monsterIntensityRevise": 1.72,
    "mkCurveMin": 0.55,
    "mkRad": 1.25,
    "factorDyngainRange": 0.3,
    "BNBILNCLADB": 1
  },
  {
    "describeId": 50401,
    "score": 2.41,
    "monsterIntensityRevise": 2.41,
    "mkCurveMin": 0.55,
    "mkRad": 1.25,
    "factorDyngainRange": 0.3,
    "BNBILNCLADB": 1
  },
  {
    "describeId": 50501,
    "score": 1.35,
    "monsterIntensityRevise": 1.35,
    "mkCurveMin": 0.55,
    "mkRad": 1.25,
    "factorDyngainRange": 0.3,
    "BNBILNCLADB": 1
  },
  {
    "describeId": 50502,
    "score": 2.41,
    "monsterIntensityRevise": 2.41,
    "mkCurveMin": 0.55,
    "mkRad": 1.25,
    "factorDyngainRange": 0.3,
    "BNBILNCLADB": 1
  },
  {
    "describeId": 50503,
    "score": 1.85,
    "monsterIntensityRevise": 1.85,
    "mkCurveMin": 0.55,
    "mkRad": 1.25,
    "factorDyngainRange": 0.3,
    "BNBILNCLADB": 1
  },
  {
    "describeId": 50504,
    "score": 3.08,
    "monsterIntensityRevise": 3.08,
    "mkCurveMin": 0.55,
    "mkRad": 1.25,
    "factorDyngainRange": 0.3,
    "BNBILNCLADB": 1
  },
  {
    "describeId": 50505,
    "score": 1.35,
    "monsterIntensityRevise": 1.35,
    "mkCurveMin": 0.55,
    "mkRad": 1.25,
    "factorDyngainRange": 0.3,
    "BNBILNCLADB": 1
  },
  {
    "describeId": 50601,
    "score": 1.72,
    "monsterIntensityRevise": 1.72,
    "mkCurveMin": 0.55,
    "mkRad": 1.25,
    "factorDyngainRange": 0.3,
    "BNBILNCLADB": 1
  },
  {
    "describeId": 50701,
    "score": 1.72,
    "monsterIntensityRevise": 1.72,
    "mkCurveMin": 0.55,
    "mkRad": 1.25,
    "factorDyngainRange": 0.3,
    "BNBILNCLADB": 1
  },
  {
    "describeId": 50702,
    "score": 8.63,
    "monsterIntensityRevise": 8.63,
    "mkCurveMin": 0.55,
    "mkRad": 1.25,
    "factorDyngainRange": 0.3,
    "BNBILNCLADB": 1
  },
  {
    "describeId": 50801,
    "score": 2.26,
    "monsterIntensityRevise": 2.26,
    "mkCurveMin": 0.55,
    "mkRad": 1.25,
    "factorDyngainRange": 0.3,
    "BNBILNCLADB": 1
  },
  {
    "describeId": 50802,
    "score": 2.26,
    "monsterIntensityRevise": 2.26,
    "mkCurveMin": 0.55,
    "mkRad": 1.25,
    "factorDyngainRange": 0.3,
    "BNBILNCLADB": 1
  },
  {
    "describeId": 50803,
    "score": 2.26,
    "monsterIntensityRevise": 2.26,
    "mkCurveMin": 0.55,
    "mkRad": 1.25,
    "factorDyngainRange": 0.3,
    "BNBILNCLADB": 1
  },
  {
    "describeId": 50804,
    "score": 4.72,
    "monsterIntensityRevise": 4.72,
    "mkCurveMin": 0.55,
    "mkRad": 1.25,
    "factorDyngainRange": 0.3,
    "BNBILNCLADB": 1
  },
  {
    "describeId": 50901,
    "score": 25.38,
    "monsterIntensityRevise": 25.38,
    "mkCurveMin": 0.75,
    "mkRad": 0.25,
    "factorDyngainRange": 0.3,
    "BNBILNCLADB": 1
  },
  {
    "describeId": 50902,
    "score": 16.81,
    "monsterIntensityRevise": 16.81,
    "mkCurveMin": 0.65,
    "mkRad": 0.75,
    "factorDyngainRange": 0.3,
    "BNBILNCLADB": 1
  },
  {
    "describeId": 50903,
    "score": 16.81,
    "monsterIntensityRevise": 16.81,
    "mkCurveMin": 0.65,
    "mkRad": 0.75,
    "factorDyngainRange": 0.3,
    "BNBILNCLADB": 1
  },
  {
    "describeId": 50904,
    "score": 16.59,
    "monsterIntensityRevise": 16.59,
    "mkCurveMin": 0.65,
    "mkRad": 0.75,
    "factorDyngainRange": 0.3,
    "BNBILNCLADB": 1
  },
  {
    "describeId": 51001,
    "score": 9.28,
    "monsterIntensityRevise": 9.28,
    "mkCurveMin": 0.55,
    "mkRad": 1.25,
    "factorDyngainRange": 0.3,
    "BNBILNCLADB": 1
  },
  {
    "describeId": 51002,
    "score": 9.28,
    "monsterIntensityRevise": 9.28,
    "mkCurveMin": 0.55,
    "mkRad": 1.25,
    "factorDyngainRange": 0.3,
    "BNBILNCLADB": 1
  },
  {
    "describeId": 51003,
    "score": 9.28,
    "monsterIntensityRevise": 9.28,
    "mkCurveMin": 0.55,
    "mkRad": 1.25,
    "factorDyngainRange": 0.3,
    "BNBILNCLADB": 1
  },
  {
    "describeId": 51004,
    "score": 9.28,
    "monsterIntensityRevise": 9.28,
    "mkCurveMin": 0.55,
    "mkRad": 1.25,
    "factorDyngainRange": 0.3,
    "BNBILNCLADB": 1
  },
  {
    "describeId": 52101,
    "score": 1.85,
    "monsterIntensityRevise": 1.85,
    "mkCurveMin": 0.55,
    "mkRad": 1.25,
    "factorDyngainRange": 0.3,
    "BNBILNCLADB": 1
  },
  {
    "describeId": 52102,
    "score": 1.61,
    "monsterIntensityRevise": 1.61,
    "mkCurveMin": 0.55,
    "mkRad": 1.25,
    "factorDyngainRange": 0.3,
    "BNBILNCLADB": 1
  },
  {
    "describeId": 52103,
    "score": 1.61,
    "monsterIntensityRevise": 1.61,
    "mkCurveMin": 0.55,
    "mkRad": 1.25,
    "factorDyngainRange": 0.3,
    "BNBILNCLADB": 1
  },
  {
    "describeId": 52104,
    "score": 1.85,
    "monsterIntensityRevise": 1.85,
    "mkCurveMin": 0.55,
    "mkRad": 1.25,
    "factorDyngainRange": 0.3,
    "BNBILNCLADB": 1
  },
  {
    "describeId": 52105,
    "score": 1.85,
    "monsterIntensityRevise": 1.85,
    "mkCurveMin": 0.55,
    "mkRad": 1.25,
    "factorDyngainRange": 0.3,
    "BNBILNCLADB": 1
  },
  {
    "describeId": 53101,
    "score": 5.2,
    "monsterIntensityRevise": 4.2,
    "mkCurveMin": 0.55,
    "mkRad": 1.25,
    "factorDyngainRange": 0.3,
    "BNBILNCLADB": 1
  },
  {
    "describeId": 53102,
    "score": 5.2,
    "monsterIntensityRevise": 4.2,
    "mkCurveMin": 0.55,
    "mkRad": 1.25,
    "factorDyngainRange": 0.3,
    "BNBILNCLADB": 1
  },
  {
    "describeId": 53103,
    "score": 5.38,
    "monsterIntensityRevise": 4.38,
    "mkCurveMin": 0.55,
    "mkRad": 1.25,
    "factorDyngainRange": 0.3,
    "BNBILNCLADB": 1
  },
  {
    "describeId": 60101,
    "score": 2.84,
    "monsterIntensityRevise": 2.84,
    "mkCurveMin": 0.55,
    "mkRad": 1.25,
    "factorDyngainRange": 0.3,
    "BNBILNCLADB": 1
  },
  {
    "describeId": 60102,
    "score": 3.36,
    "monsterIntensityRevise": 3.36,
    "mkCurveMin": 0.55,
    "mkRad": 1.25,
    "factorDyngainRange": 0.3,
    "BNBILNCLADB": 1
  },
  {
    "describeId": 60103,
    "score": 2.84,
    "monsterIntensityRevise": 2.84,
    "mkCurveMin": 0.55,
    "mkRad": 1.25,
    "factorDyngainRange": 0.3,
    "BNBILNCLADB": 1
  },
  {
    "describeId": 60201,
    "score": 11.61,
    "monsterIntensityRevise": 11.61,
    "mkCurveMin": 0.55,
    "mkRad": 1.25,
    "factorDyngainRange": 0.3,
    "BNBILNCLADB": 1
  },
  {
    "describeId": 60202,
    "score": 11.61,
    "monsterIntensityRevise": 11.61,
    "mkCurveMin": 0.55,
    "mkRad": 1.25,
    "factorDyngainRange": 0.3,
    "BNBILNCLADB": 1
  },
  {
    "describeId": 60203,
    "score": 14.22,
    "monsterIntensityRevise": 14.22,
    "mkCurveMin": 0.55,
    "mkRad": 1.25,
    "factorDyngainRange": 0.3,
    "BNBILNCLADB": 1
  },
  {
    "describeId": 60301,
    "score": 3.27,
    "monsterIntensityRevise": 3.27,
    "mkCurveMin": 0.55,
    "mkRad": 1.25,
    "factorDyngainRange": 0.3,
    "BNBILNCLADB": 1
  },
  {
    "describeId": 60401,
    "score": 9.27,
    "monsterIntensityRevise": 9.27,
    "mkCurveMin": 0.55,
    "mkRad": 1.25,
    "factorDyngainRange": 0.3,
    "BNBILNCLADB": 1
  },
  {
    "describeId": 60501,
    "score": 18.65,
    "monsterIntensityRevise": 18.65,
    "mkCurveMin": 0.65,
    "mkRad": 0.75,
    "factorDyngainRange": 0.3,
    "BNBILNCLADB": 1
  },
  {
    "describeId": 60502,
    "score": 18.65,
    "monsterIntensityRevise": 18.65,
    "mkCurveMin": 0.65,
    "mkRad": 0.75,
    "factorDyngainRange": 0.3,
    "BNBILNCLADB": 1
  },
  {
    "describeId": 60503,
    "score": 18.65,
    "monsterIntensityRevise": 18.65,
    "mkCurveMin": 0.65,
    "mkRad": 0.75,
    "factorDyngainRange": 0.3,
    "BNBILNCLADB": 1
  },
  {
    "describeId": 60504,
    "score": 18.65,
    "monsterIntensityRevise": 18.65,
    "mkCurveMin": 0.65,
    "mkRad": 0.75,
    "factorDyngainRange": 0.3,
    "BNBILNCLADB": 1
  },
  {
    "describeId": 60506,
    "score": 12.6,
    "monsterIntensityRevise": 12.6,
    "mkCurveMin": 0.55,
    "mkRad": 1.25,
    "factorDyngainRange": 0.3,
    "BNBILNCLADB": 1
  },
  {
    "describeId": 60507,
    "score": 20.66,
    "monsterIntensityRevise": 20.66,
    "mkCurveMin": 0.7,
    "mkRad": 0.5,
    "factorDyngainRange": 0.3,
    "BNBILNCLADB": 1
  },
  {
    "describeId": 60508,
    "score": 20.66,
    "monsterIntensityRevise": 20.66,
    "mkCurveMin": 0.7,
    "mkRad": 0.5,
    "factorDyngainRange": 0.3,
    "BNBILNCLADB": 1
  },
  {
    "describeId": 60509,
    "score": 4.88,
    "monsterIntensityRevise": 4.88,
    "mkCurveMin": 0.55,
    "mkRad": 1.25,
    "factorDyngainRange": 0.3,
    "BNBILNCLADB": 1
  },
  {
    "describeId": 60510,
    "score": 4.88,
    "monsterIntensityRevise": 4.88,
    "mkCurveMin": 0.55,
    "mkRad": 1.25,
    "factorDyngainRange": 0.3,
    "BNBILNCLADB": 1
  },
  {
    "describeId": 60511,
    "score": 4.88,
    "monsterIntensityRevise": 4.88,
    "mkCurveMin": 0.55,
    "mkRad": 1.25,
    "factorDyngainRange": 0.3,
    "BNBILNCLADB": 1
  },
  {
    "describeId": 60601,
    "score": 0.53,
    "monsterIntensityRevise": 0.53,
    "mkCurveMin": 0.55,
    "mkRad": 1.25,
    "factorDyngainRange": 0.3,
    "BNBILNCLADB": 1
  },
  {
    "describeId": 60602,
    "score": 0.53,
    "monsterIntensityRevise": 0.53,
    "mkCurveMin": 0.55,
    "mkRad": 1.25,
    "factorDyngainRange": 0.3,
    "BNBILNCLADB": 1
  },
  {
    "describeId": 60603,
    "score": 0.53,
    "monsterIntensityRevise": 0.53,
    "mkCurveMin": 0.55,
    "mkRad": 1.25,
    "factorDyngainRange": 0.3,
    "BNBILNCLADB": 1
  },
  {
    "describeId": 60801,
    "score": 28.79,
    "monsterIntensityRevise": 28.79,
    "mkCurveMin": 0.75,
    "mkRad": 0.25,
    "factorDyngainRange": 0.3,
    "BNBILNCLADB": 1
  },
  {
    "describeId": 60901,
    "score": 1.15,
    "monsterIntensityRevise": 1.15,
    "mkCurveMin": 0.55,
    "mkRad": 1.25,
    "factorDyngainRange": 0.3,
    "BNBILNCLADB": 1
  },
  {
    "describeId": 60902,
    "score": 1.4,
    "monsterIntensityRevise": 1.4,
    "mkCurveMin": 0.55,
    "mkRad": 1.25,
    "factorDyngainRange": 0.3,
    "BNBILNCLADB": 1
  },
  {
    "describeId": 60903,
    "score": 1.4,
    "monsterIntensityRevise": 1.4,
    "mkCurveMin": 0.55,
    "mkRad": 1.25,
    "factorDyngainRange": 0.3,
    "BNBILNCLADB": 1
  },
  {
    "describeId": 60904,
    "score": 1.4,
    "monsterIntensityRevise": 1.4,
    "mkCurveMin": 0.55,
    "mkRad": 1.25,
    "factorDyngainRange": 0.3,
    "BNBILNCLADB": 1
  },
  {
    "describeId": 60905,
    "score": 1.4,
    "monsterIntensityRevise": 1.4,
    "mkCurveMin": 0.55,
    "mkRad": 1.25,
    "factorDyngainRange": 0.3,
    "BNBILNCLADB": 1
  },
  {
    "describeId": 60906,
    "score": 1.4,
    "monsterIntensityRevise": 1.4,
    "mkCurveMin": 0.55,
    "mkRad": 1.25,
    "factorDyngainRange": 0.3,
    "BNBILNCLADB": 1
  },
  {
    "describeId": 60907,
    "score": 1.4,
    "monsterIntensityRevise": 1.4,
    "mkCurveMin": 0.55,
    "mkRad": 1.25,
    "factorDyngainRange": 0.3,
    "BNBILNCLADB": 1
  },
  {
    "describeId": 60908,
    "score": 1.4,
    "monsterIntensityRevise": 1.4,
    "mkCurveMin": 0.55,
    "mkRad": 1.25,
    "factorDyngainRange": 0.3,
    "BNBILNCLADB": 1
  },
  {
    "describeId": 60909,
    "score": 1.4,
    "monsterIntensityRevise": 1.4,
    "mkCurveMin": 0.55,
    "mkRad": 1.25,
    "factorDyngainRange": 0.3,
    "BNBILNCLADB": 1
  },
  {
    "describeId": 60910,
    "score": 1.4,
    "monsterIntensityRevise": 1.4,
    "mkCurveMin": 0.55,
    "mkRad": 1.25,
    "factorDyngainRange": 0.3,
    "BNBILNCLADB": 1
  },
  {
    "describeId": 61101,
    "score": 23.64,
    "monsterIntensityRevise": 23.64,
    "mkCurveMin": 0.75,
    "mkRad": 0.666667,
    "factorDyngainRange": 0.3,
    "BNBILNCLADB": 1
  },
  {
    "describeId": 90101,
    "score": 19.55,
    "monsterIntensityRevise": 19.55,
    "mkCurveMin": 0.75,
    "mkRad": 0.25,
    "factorDyngainRange": 0.3,
    "tStateHoldExtraMstr": 5,
    "BNBILNCLADB": 1
  },
  {
    "describeId": 90201,
    "score": 24.88,
    "monsterIntensityRevise": 24.88,
    "mkCurveMin": 0.75,
    "mkRad": 0.666667,
    "factorDyngainRange": 0.3,
    "BNBILNCLADB": 1
  },
  {
    "describeId": 90301,
    "score": 28.186,
    "monsterIntensityRevise": 28.186,
    "mkCurveMin": 0.75,
    "mkRad": 0.25,
    "factorDyngainRange": 0.3,
    "BNBILNCLADB": 1
  },
  {
    "describeId": 90401,
    "score": 47.52,
    "monsterIntensityRevise": 47.52,
    "mkCurveMin": 0.75,
    "mkRad": 0.25,
    "factorDyngainRange": 0.3,
    "BNBILNCLADB": 1
  },
  {
    "describeId": 90501,
    "score": 50.112,
    "monsterIntensityRevise": 50.112,
    "mkCurveMin": 0.75,
    "mkRad": 0.25,
    "factorDyngainRange": 0.3,
    "BNBILNCLADB": 1
  },
  {
    "describeId": 90601,
    "score": 24.91,
    "monsterIntensityRevise": 24.91,
    "mkCurveMin": 0.75,
    "mkRad": 0.25,
    "factorDyngainRange": 0.3,
    "BNBILNCLADB": 1
  },
  {
    "describeId": 90602,
    "score": 133.76,
    "monsterIntensityRevise": 60,
    "mkCurveMin": 0.75,
    "mkRad": 0.25,
    "factorDyngainRange": 0.3,
    "BNBILNCLADB": 1
  },
  {
    "describeId": 80601,
    "score": 0.63,
    "monsterIntensityRevise": 0.63,
    "mkCurveMin": 0.4,
    "mkRad": 1,
    "factorDyngainRange": 0.3,
    "BNBILNCLADB": 1
  },
  {
    "describeId": 80602,
    "score": 0.73,
    "monsterIntensityRevise": 0.73,
    "mkCurveMin": 0.4,
    "mkRad": 1,
    "factorDyngainRange": 0.3,
    "BNBILNCLADB": 1
  },
  {
    "describeId": 80605,
    "score": 0.63,
    "monsterIntensityRevise": 0.63,
    "mkCurveMin": 0.4,
    "mkRad": 1,
    "factorDyngainRange": 0.3,
    "BNBILNCLADB": 1
  },
  {
    "describeId": 80606,
    "score": 0.63,
    "monsterIntensityRevise": 0.63,
    "mkCurveMin": 0.4,
    "mkRad": 1,
    "factorDyngainRange": 0.3,
    "BNBILNCLADB": 1
  },
  {
    "describeId": 80607,
    "score": 1.43,
    "monsterIntensityRevise": 1.43,
    "mkCurveMin": 0.4,
    "mkRad": 1,
    "factorDyngainRange": 0.3,
    "BNBILNCLADB": 1
  },
  {
    "describeId": 80608,
    "score": 1.04,
    "monsterIntensityRevise": 1.04,
    "mkCurveMin": 0.4,
    "mkRad": 1,
    "factorDyngainRange": 0.3,
    "BNBILNCLADB": 1
  },
  {
    "describeId": 80609,
    "score": 1.04,
    "monsterIntensityRevise": 1.04,
    "mkCurveMin": 0.4,
    "mkRad": 1,
    "factorDyngainRange": 0.3,
    "BNBILNCLADB": 1
  },
  {
    "describeId": 80610,
    "score": 0.68,
    "monsterIntensityRevise": 0.68,
    "mkCurveMin": 0.4,
    "mkRad": 1,
    "factorDyngainRange": 0.3,
    "BNBILNCLADB": 1
  },
  {
    "describeId": 80611,
    "score": 1.43,
    "monsterIntensityRevise": 1.43,
    "mkCurveMin": 0.4,
    "mkRad": 1,
    "factorDyngainRange": 0.3,
    "BNBILNCLADB": 1
  },
  {
    "describeId": 80612,
    "score": 1.04,
    "monsterIntensityRevise": 1.04,
    "mkCurveMin": 0.4,
    "mkRad": 1,
    "factorDyngainRange": 0.3,
    "BNBILNCLADB": 1
  },
  {
    "describeId": 80613,
    "score": 1.04,
    "monsterIntensityRevise": 1.04,
    "mkCurveMin": 0.4,
    "mkRad": 1,
    "factorDyngainRange": 0.3,
    "BNBILNCLADB": 1
  },
  {
    "describeId": 80614,
    "score": 0.68,
    "monsterIntensityRevise": 0.68,
    "mkCurveMin": 0.4,
    "mkRad": 1,
    "factorDyngainRange": 0.3,
    "BNBILNCLADB": 1
  },
  {
    "describeId": 40303,
    "score": 28.98,
    "monsterIntensityRevise": 28.98,
    "mkCurveMin": 0.75,
    "mkRad": 0.25,
    "factorDyngainRange": 0.3,
    "BNBILNCLADB": 1
  },
  {
    "describeId": 40401,
    "score": 5.82,
    "monsterIntensityRevise": 5.82,
    "mkCurveMin": 0.55,
    "mkRad": 1.25,
    "factorDyngainRange": 0.3,
    "BNBILNCLADB": 1
  },
  {
    "describeId": 40402,
    "score": 5.82,
    "monsterIntensityRevise": 5.82,
    "mkCurveMin": 0.55,
    "mkRad": 1.25,
    "factorDyngainRange": 0.3,
    "BNBILNCLADB": 1
  },
  {
    "describeId": 40403,
    "score": 5.82,
    "monsterIntensityRevise": 5.82,
    "mkCurveMin": 0.55,
    "mkRad": 1.25,
    "factorDyngainRange": 0.3,
    "BNBILNCLADB": 1
  },
  {
    "describeId": 40501,
    "score": 27.05,
    "monsterIntensityRevise": 27.05,
    "mkCurveMin": 0.75,
    "mkRad": 0.25,
    "factorDyngainRange": 0.3,
    "BNBILNCLADB": 1
  },
  {
    "describeId": 51101,
    "score": 2.26,
    "monsterIntensityRevise": 2.26,
    "mkCurveMin": 0.45,
    "mkRad": 1.75,
    "factorDyngainRange": 0.3,
    "BNBILNCLADB": 1
  },
  {
    "describeId": 51102,
    "score": 2.29,
    "monsterIntensityRevise": 2.29,
    "mkCurveMin": 0.45,
    "mkRad": 1.75,
    "factorDyngainRange": 0.3,
    "BNBILNCLADB": 1
  },
  {
    "describeId": 54101,
    "score": 7.91,
    "monsterIntensityRevise": 7.91,
    "mkCurveMin": 0.65,
    "mkRad": 0.75,
    "factorDyngainRange": 0.3,
    "BNBILNCLADB": 1
  },
  {
    "describeId": 54102,
    "score": 7.8,
    "monsterIntensityRevise": 7.8,
    "mkCurveMin": 0.65,
    "mkRad": 0.75,
    "factorDyngainRange": 0.3,
    "BNBILNCLADB": 1
  },
  {
    "describeId": 61204,
    "score": 3.64,
    "monsterIntensityRevise": 3.64,
    "mkCurveMin": 0.55,
    "mkRad": 1.25,
    "factorDyngainRange": 0.3,
    "BNBILNCLADB": 1
  },
  {
    "describeId": 80603,
    "score": 0.56,
    "monsterIntensityRevise": 0.56,
    "mkCurveMin": 0.4,
    "mkRad": 1,
    "factorDyngainRange": 0.3,
    "BNBILNCLADB": 1
  },
  {
    "describeId": 80604,
    "score": 0.73,
    "monsterIntensityRevise": 0.73,
    "mkCurveMin": 0.4,
    "mkRad": 1,
    "factorDyngainRange": 0.3,
    "BNBILNCLADB": 1
  },
  {
    "describeId": 407,
    "score": 22.67,
    "monsterIntensityRevise": 22.67,
    "mkCurveMin": 0.7,
    "mkRad": 0.5,
    "factorDyngainRange": 0.3,
    "tStateHoldExtraMstr": 5,
    "BNBILNCLADB": 1
  },
  {
    "describeId": 90701,
    "score": 69.813,
    "monsterIntensityRevise": 60,
    "mkCurveMin": 0.75,
    "mkRad": 0.25,
    "factorDyngainRange": 0.3,
    "BNBILNCLADB": 1
  },
  {
    "describeId": 51103,
    "score": 2.26,
    "monsterIntensityRevise": 2.26,
    "mkCurveMin": 0.4,
    "mkRad": 1,
    "factorDyngainRange": 0.3,
    "BNBILNCLADB": 1
  },
  {
    "describeId": 51104,
    "score": 2.29,
    "monsterIntensityRevise": 2.29,
    "mkCurveMin": 0.4,
    "mkRad": 1,
    "factorDyngainRange": 0.3,
    "BNBILNCLADB": 1
  },
  {
    "describeId": 54103,
    "score": 7.8,
    "monsterIntensityRevise": 7.8,
    "mkCurveMin": 0.65,
    "mkRad": 0.75,
    "factorDyngainRange": 0.3,
    "BNBILNCLADB": 1
  },
  {
    "describeId": 54104,
    "score": 7.91,
    "monsterIntensityRevise": 7.91,
    "mkCurveMin": 0.65,
    "mkRad": 0.75,
    "factorDyngainRange": 0.3,
    "BNBILNCLADB": 1
  },
  {
    "describeId": 61003,
    "score": 15.12,
    "monsterIntensityRevise": 15.12,
    "mkCurveMin": 0.65,
    "mkRad": 0.75,
    "factorDyngainRange": 0.3,
    "BNBILNCLADB": 1
  },
  {
    "describeId": 61004,
    "score": 15.12,
    "monsterIntensityRevise": 15.12,
    "mkCurveMin": 0.65,
    "mkRad": 0.75,
    "factorDyngainRange": 0.3,
    "BNBILNCLADB": 1
  },
  {
    "describeId": 61005,
    "score": 15.12,
    "monsterIntensityRevise": 15.12,
    "mkCurveMin": 0.65,
    "mkRad": 0.75,
    "factorDyngainRange": 0.3,
    "BNBILNCLADB": 1
  },
  {
    "describeId": 61301,
    "score": 25.87,
    "monsterIntensityRevise": 25.87,
    "mkCurveMin": 0.75,
    "mkRad": 0.25,
    "factorDyngainRange": 0.3,
    "BNBILNCLADB": 1
  },
  {
    "describeId": 80615,
    "score": 0.52,
    "monsterIntensityRevise": 0.52,
    "mkCurveMin": 0.4,
    "mkRad": 1,
    "factorDyngainRange": 0.3,
    "BNBILNCLADB": 1
  },
  {
    "describeId": 20802,
    "score": 13.92,
    "monsterIntensityRevise": 13.92,
    "mkCurveMin": 0.6,
    "mkRad": 1.666667,
    "factorDyngainRange": 0.3,
    "BNBILNCLADB": 1
  },
  {
    "describeId": 10401,
    "score": 8.23,
    "monsterIntensityRevise": 8.23,
    "mkCurveMin": 0.6,
    "mkRad": 3,
    "factorDyngainRange": 0.3,
    "BNBILNCLADB": 1
  },
  {
    "describeId": 10402,
    "score": 8.23,
    "monsterIntensityRevise": 8.23,
    "mkCurveMin": 0.6,
    "mkRad": 3,
    "factorDyngainRange": 0.3,
    "BNBILNCLADB": 1
  },
  {
    "describeId": 21001,
    "score": 28.7,
    "monsterIntensityRevise": 28.7,
    "mkCurveMin": 0.7,
    "mkRad": 1,
    "factorDyngainRange": 0.3,
    "BNBILNCLADB": 1
  },
  {
    "describeId": 21002,
    "score": 28.7,
    "monsterIntensityRevise": 28.7,
    "mkCurveMin": 0.7,
    "mkRad": 1,
    "factorDyngainRange": 0.3,
    "BNBILNCLADB": 1
  },
  {
    "describeId": 21003,
    "score": 28.7,
    "monsterIntensityRevise": 28.7,
    "mkCurveMin": 0.7,
    "mkRad": 1,
    "factorDyngainRange": 0.3,
    "BNBILNCLADB": 1
  },
  {
    "describeId": 21004,
    "score": 28.7,
    "monsterIntensityRevise": 28.7,
    "mkCurveMin": 0.7,
    "mkRad": 1,
    "factorDyngainRange": 0.3,
    "BNBILNCLADB": 1
  },
  {
    "describeId": 61001,
    "score": 13.38,
    "monsterIntensityRevise": 13.38,
    "mkCurveMin": 0.6,
    "mkRad": 1.666667,
    "factorDyngainRange": 0.3,
    "BNBILNCLADB": 1
  },
  {
    "describeId": 61002,
    "score": 13.38,
    "monsterIntensityRevise": 13.38,
    "mkCurveMin": 0.6,
    "mkRad": 1.666667,
    "factorDyngainRange": 0.3,
    "BNBILNCLADB": 1
  },
  {
    "describeId": 90801,
    "score": 57.56,
    "monsterIntensityRevise": 57.56,
    "mkCurveMin": 0.75,
    "mkRad": 0.25,
    "factorDyngainRange": 0.3,
    "BNBILNCLADB": 1
  },
  {
    "describeId": 510,
    "score": 6.68,
    "monsterIntensityRevise": 6.68,
    "mkCurveMin": 0.55,
    "mkRad": 1.25,
    "factorDyngainRange": 0.3,
    "BNBILNCLADB": 1
  },
  {
    "describeId": 511,
    "score": 6.06,
    "monsterIntensityRevise": 6.06,
    "mkCurveMin": 0.55,
    "mkRad": 1.25,
    "factorDyngainRange": 0.3,
    "BNBILNCLADB": 1
  },
  {
    "describeId": 21101,
    "score": 13.81,
    "monsterIntensityRevise": 13.81,
    "mkCurveMin": 0.6,
    "mkRad": 1,
    "factorDyngainRange": 0.3,
    "BNBILNCLADB": 1
  },
  {
    "describeId": 21102,
    "score": 3.85,
    "monsterIntensityRevise": 3.85,
    "mkCurveMin": 0.5,
    "mkRad": 1.5,
    "factorDyngainRange": 0.3,
    "BNBILNCLADB": 1
  },
  {
    "describeId": 21103,
    "score": 13.63,
    "monsterIntensityRevise": 13.63,
    "mkCurveMin": 0.6,
    "mkRad": 1,
    "factorDyngainRange": 0.3,
    "BNBILNCLADB": 1
  },
  {
    "describeId": 21104,
    "score": 4.05,
    "monsterIntensityRevise": 4.05,
    "mkCurveMin": 0.5,
    "mkRad": 1.5,
    "factorDyngainRange": 0.3,
    "BNBILNCLADB": 1
  },
  {
    "describeId": 40601,
    "score": 1.98,
    "monsterIntensityRevise": 1.98,
    "mkCurveMin": 0.5,
    "mkRad": 1.5,
    "factorDyngainRange": 0.3,
    "BNBILNCLADB": 1
  },
  {
    "describeId": 40651,
    "score": 1.98,
    "monsterIntensityRevise": 1.98,
    "mkCurveMin": 0.5,
    "mkRad": 1.5,
    "factorDyngainRange": 0.3,
    "BNBILNCLADB": 1
  },
  {
    "describeId": 40602,
    "score": 2.07,
    "monsterIntensityRevise": 2.07,
    "mkCurveMin": 0.5,
    "mkRad": 1.5,
    "factorDyngainRange": 0.3,
    "BNBILNCLADB": 1
  },
  {
    "describeId": 40652,
    "score": 2.07,
    "monsterIntensityRevise": 2.07,
    "mkCurveMin": 0.5,
    "mkRad": 1.5,
    "factorDyngainRange": 0.3,
    "BNBILNCLADB": 1
  },
  {
    "describeId": 40603,
    "score": 2.36,
    "monsterIntensityRevise": 2.36,
    "mkCurveMin": 0.5,
    "mkRad": 1.5,
    "factorDyngainRange": 0.3,
    "BNBILNCLADB": 1
  },
  {
    "describeId": 40653,
    "score": 2.36,
    "monsterIntensityRevise": 2.36,
    "mkCurveMin": 0.5,
    "mkRad": 1.5,
    "factorDyngainRange": 0.3,
    "BNBILNCLADB": 1
  },
  {
    "describeId": 40604,
    "score": 2.28,
    "monsterIntensityRevise": 2.28,
    "mkCurveMin": 0.5,
    "mkRad": 1.5,
    "factorDyngainRange": 0.3,
    "BNBILNCLADB": 1
  },
  {
    "describeId": 40654,
    "score": 2.28,
    "monsterIntensityRevise": 2.28,
    "mkCurveMin": 0.5,
    "mkRad": 1.5,
    "factorDyngainRange": 0.3,
    "BNBILNCLADB": 1
  },
  {
    "describeId": 40605,
    "score": 4.56,
    "monsterIntensityRevise": 4.56,
    "mkCurveMin": 0.5,
    "mkRad": 1.5,
    "factorDyngainRange": 0.3,
    "BNBILNCLADB": 1
  },
  {
    "describeId": 40655,
    "score": 4.56,
    "monsterIntensityRevise": 4.56,
    "mkCurveMin": 0.5,
    "mkRad": 1.5,
    "factorDyngainRange": 0.3,
    "BNBILNCLADB": 1
  },
  {
    "describeId": 40607,
    "score": 2.5,
    "monsterIntensityRevise": 2.5,
    "mkCurveMin": 0.5,
    "mkRad": 1.5,
    "factorDyngainRange": 0.3,
    "BNBILNCLADB": 1
  },
  {
    "describeId": 40657,
    "score": 2.5,
    "monsterIntensityRevise": 2.5,
    "mkCurveMin": 0.5,
    "mkRad": 1.5,
    "factorDyngainRange": 0.3,
    "BNBILNCLADB": 1
  },
  {
    "describeId": 40608,
    "score": 7.74,
    "monsterIntensityRevise": 7.74,
    "mkCurveMin": 0.5,
    "mkRad": 1.5,
    "factorDyngainRange": 0.3,
    "BNBILNCLADB": 1
  },
  {
    "describeId": 40658,
    "score": 7.74,
    "monsterIntensityRevise": 7.74,
    "mkCurveMin": 0.5,
    "mkRad": 1.5,
    "factorDyngainRange": 0.3,
    "BNBILNCLADB": 1
  },
  {
    "describeId": 40609,
    "score": 7.14,
    "monsterIntensityRevise": 7.14,
    "mkCurveMin": 0.5,
    "mkRad": 1.5,
    "factorDyngainRange": 0.3,
    "BNBILNCLADB": 1
  },
  {
    "describeId": 40659,
    "score": 7.14,
    "monsterIntensityRevise": 7.14,
    "mkCurveMin": 0.5,
    "mkRad": 1.5,
    "factorDyngainRange": 0.3,
    "BNBILNCLADB": 1
  },
  {
    "describeId": 40610,
    "score": 8.01,
    "monsterIntensityRevise": 8.01,
    "mkCurveMin": 0.5,
    "mkRad": 1.5,
    "factorDyngainRange": 0.3,
    "BNBILNCLADB": 1
  },
  {
    "describeId": 40660,
    "score": 8.01,
    "monsterIntensityRevise": 8.01,
    "mkCurveMin": 0.5,
    "mkRad": 1.5,
    "factorDyngainRange": 0.3,
    "BNBILNCLADB": 1
  },
  {
    "describeId": 40611,
    "score": 1.85,
    "monsterIntensityRevise": 1.85,
    "mkCurveMin": 0.4,
    "mkRad": 2,
    "factorDyngainRange": 0.3,
    "BNBILNCLADB": 1
  },
  {
    "describeId": 40661,
    "score": 1.85,
    "monsterIntensityRevise": 1.85,
    "mkCurveMin": 0.4,
    "mkRad": 2,
    "factorDyngainRange": 0.3,
    "BNBILNCLADB": 1
  },
  {
    "describeId": 40612,
    "score": 8.7,
    "monsterIntensityRevise": 8.7,
    "mkCurveMin": 0.5,
    "mkRad": 1.5,
    "factorDyngainRange": 0.3,
    "BNBILNCLADB": 1
  },
  {
    "describeId": 40662,
    "score": 8.7,
    "monsterIntensityRevise": 8.7,
    "mkCurveMin": 0.5,
    "mkRad": 1.5,
    "factorDyngainRange": 0.3,
    "BNBILNCLADB": 1
  },
  {
    "describeId": 40701,
    "score": 29.49,
    "monsterIntensityRevise": 28.7,
    "mkCurveMin": 0.75,
    "mkRad": 0.25,
    "factorDyngainRange": 0.3,
    "BNBILNCLADB": 1
  },
  {
    "describeId": 40702,
    "score": 29.49,
    "monsterIntensityRevise": 28.7,
    "mkCurveMin": 0.75,
    "mkRad": 0.25,
    "factorDyngainRange": 0.3,
    "BNBILNCLADB": 1
  },
  {
    "describeId": 61510,
    "score": 1.5,
    "monsterIntensityRevise": 1.5,
    "mkCurveMin": 0.5,
    "mkRad": 1.5,
    "factorDyngainRange": 0.3,
    "BNBILNCLADB": 1
  },
  {
    "describeId": 61511,
    "score": 2.36,
    "monsterIntensityRevise": 2.36,
    "mkCurveMin": 0.5,
    "mkRad": 1.5,
    "factorDyngainRange": 0.3,
    "BNBILNCLADB": 1
  },
  {
    "describeId": 61521,
    "score": 1.5,
    "monsterIntensityRevise": 1.5,
    "mkCurveMin": 0.5,
    "mkRad": 1.5,
    "factorDyngainRange": 0.3,
    "BNBILNCLADB": 1
  },
  {
    "describeId": 61522,
    "score": 2.36,
    "monsterIntensityRevise": 2.36,
    "mkCurveMin": 0.5,
    "mkRad": 1.5,
    "factorDyngainRange": 0.3,
    "BNBILNCLADB": 1
  },
  {
    "describeId": 61531,
    "score": 2.36,
    "monsterIntensityRevise": 2.36,
    "mkCurveMin": 0.5,
    "mkRad": 1.5,
    "factorDyngainRange": 0.3,
    "BNBILNCLADB": 1
  },
  {
    "describeId": 61541,
    "score": 1.5,
    "monsterIntensityRevise": 1.5,
    "mkCurveMin": 0.5,
    "mkRad": 1.5,
    "factorDyngainRange": 0.3,
    "BNBILNCLADB": 1
  },
  {
    "describeId": 61542,
    "score": 1.5,
    "monsterIntensityRevise": 1.5,
    "mkCurveMin": 0.5,
    "mkRad": 1.5,
    "factorDyngainRange": 0.3,
    "BNBILNCLADB": 1
  },
  {
    "describeId": 61551,
    "score": 1.5,
    "monsterIntensityRevise": 1.5,
    "mkCurveMin": 0.5,
    "mkRad": 1.5,
    "factorDyngainRange": 0.3,
    "BNBILNCLADB": 1
  },
  {
    "describeId": 61552,
    "score": 1.5,
    "monsterIntensityRevise": 1.5,
    "mkCurveMin": 0.5,
    "mkRad": 1.5,
    "factorDyngainRange": 0.3,
    "BNBILNCLADB": 1
  },
  {
    "describeId": 61553,
    "score": 1.5,
    "monsterIntensityRevise": 1.5,
    "mkCurveMin": 0.5,
    "mkRad": 1.5,
    "factorDyngainRange": 0.3,
    "BNBILNCLADB": 1
  },
  {
    "describeId": 61561,
    "score": 1.5,
    "monsterIntensityRevise": 1.5,
    "mkCurveMin": 0.5,
    "mkRad": 1.5,
    "factorDyngainRange": 0.3,
    "BNBILNCLADB": 1
  },
  {
    "describeId": 61562,
    "score": 1.5,
    "monsterIntensityRevise": 1.5,
    "mkCurveMin": 0.5,
    "mkRad": 1.5,
    "factorDyngainRange": 0.3,
    "BNBILNCLADB": 1
  },
  {
    "describeId": 61571,
    "score": 1.5,
    "monsterIntensityRevise": 1.5,
    "mkCurveMin": 0.5,
    "mkRad": 1.5,
    "factorDyngainRange": 0.3,
    "BNBILNCLADB": 1
  },
  {
    "describeId": 61572,
    "score": 1.5,
    "monsterIntensityRevise": 1.5,
    "mkCurveMin": 0.5,
    "mkRad": 1.5,
    "factorDyngainRange": 0.3,
    "BNBILNCLADB": 1
  },
  {
    "describeId": 61601,
    "score": 4.56,
    "monsterIntensityRevise": 4.56,
    "mkCurveMin": 0.5,
    "mkRad": 1.5,
    "factorDyngainRange": 0.3,
    "BNBILNCLADB": 1
  },
  {
    "describeId": 61602,
    "score": 4.56,
    "monsterIntensityRevise": 4.56,
    "mkCurveMin": 0.5,
    "mkRad": 1.5,
    "factorDyngainRange": 0.3,
    "BNBILNCLADB": 1
  },
  {
    "describeId": 61603,
    "score": 4.56,
    "monsterIntensityRevise": 4.56,
    "mkCurveMin": 0.5,
    "mkRad": 1.5,
    "factorDyngainRange": 0.3,
    "BNBILNCLADB": 1
  },
  {
    "describeId": 61621,
    "score": 2.36,
    "monsterIntensityRevise": 2.36,
    "mkCurveMin": 0.5,
    "mkRad": 1.5,
    "factorDyngainRange": 0.3,
    "BNBILNCLADB": 1
  },
  {
    "describeId": 61622,
    "score": 2.36,
    "monsterIntensityRevise": 2.36,
    "mkCurveMin": 0.5,
    "mkRad": 1.5,
    "factorDyngainRange": 0.3,
    "BNBILNCLADB": 1
  },
  {
    "describeId": 61623,
    "score": 2.36,
    "monsterIntensityRevise": 2.36,
    "mkCurveMin": 0.5,
    "mkRad": 1.5,
    "factorDyngainRange": 0.3,
    "BNBILNCLADB": 1
  },
  {
    "describeId": 61701,
    "score": 32.47,
    "monsterIntensityRevise": 32.47,
    "mkCurveMin": 0.75,
    "mkRad": 0.25,
    "factorDyngainRange": 0.3,
    "BNBILNCLADB": 1
  },
  {
    "describeId": 30601,
    "score": 13.16,
    "monsterIntensityRevise": 13.16,
    "mkCurveMin": 0.6,
    "mkRad": 1,
    "factorDyngainRange": 0.3,
    "BNBILNCLADB": 1
  },
  {
    "describeId": 30602,
    "score": 12.95,
    "monsterIntensityRevise": 12.95,
    "mkCurveMin": 0.6,
    "mkRad": 1,
    "factorDyngainRange": 0.3,
    "BNBILNCLADB": 1
  },
  {
    "describeId": 30603,
    "score": 57,
    "monsterIntensityRevise": 20,
    "mkCurveMin": 0.75,
    "mkRad": 0.25,
    "factorDyngainRange": 0.3,
    "BNBILNCLADB": 1
  },
  {
    "describeId": 30604,
    "score": 57,
    "monsterIntensityRevise": 20,
    "mkCurveMin": 0.75,
    "mkRad": 0.25,
    "factorDyngainRange": 0.3,
    "BNBILNCLADB": 1
  },
  {
    "describeId": 40606,
    "score": 4.56,
    "monsterIntensityRevise": 4.56,
    "mkCurveMin": 0.5,
    "mkRad": 1.5,
    "factorDyngainRange": 0.3,
    "BNBILNCLADB": 1
  },
  {
    "describeId": 40656,
    "score": 4.56,
    "monsterIntensityRevise": 4.56,
    "mkCurveMin": 0.5,
    "mkRad": 1.5,
    "factorDyngainRange": 0.3,
    "BNBILNCLADB": 1
  },
  {
    "describeId": 40613,
    "score": 142,
    "monsterIntensityRevise": 57,
    "mkCurveMin": 0.75,
    "mkRad": 0.25,
    "factorDyngainRange": 0.3,
    "BNBILNCLADB": 1
  },
  {
    "describeId": 40801,
    "score": 30.43,
    "monsterIntensityRevise": 30.43,
    "mkCurveMin": 0.75,
    "mkRad": 0.25,
    "factorDyngainRange": 0.3,
    "BNBILNCLADB": 1
  },
  {
    "describeId": 61624,
    "score": 2.36,
    "monsterIntensityRevise": 2.36,
    "mkCurveMin": 0.5,
    "mkRad": 1.5,
    "factorDyngainRange": 0.3,
    "BNBILNCLADB": 1
  },
  {
    "describeId": 61801,
    "score": 33.3,
    "monsterIntensityRevise": 33.3,
    "mkCurveMin": 0.75,
    "mkRad": 0.25,
    "factorDyngainRange": 0.3,
    "BNBILNCLADB": 1
  },
  {
    "describeId": 512,
    "score": 35.29,
    "monsterIntensityRevise": 35.29,
    "mkCurveMin": 0.75,
    "mkRad": 0.25,
    "factorDyngainRange": 0.3,
    "BNBILNCLADB": 1
  },
  {
    "describeId": 516,
    "score": 35.29,
    "monsterIntensityRevise": 35.29,
    "mkCurveMin": 0.75,
    "mkRad": 0.25,
    "factorDyngainRange": 0.3,
    "BNBILNCLADB": 1
  },
  {
    "describeId": 61625,
    "score": 2.36,
    "monsterIntensityRevise": 2.36,
    "mkCurveMin": 0.45,
    "mkRad": 1.75,
    "factorDyngainRange": 0.3,
    "BNBILNCLADB": 1
  },
  {
    "describeId": 90901,
    "score": 88.18,
    "monsterIntensityRevise": 70,
    "mkCurveMin": 0.75,
    "mkRad": 0.25,
    "factorDyngainRange": 0.3,
    "BNBILNCLADB": 1
  },
  {
    "describeId": 10307,
    "score": 21.31,
    "monsterIntensityRevise": 21.31,
    "mkCurveMin": 0.75,
    "mkRad": 0.25,
    "factorDyngainRange": 0.3,
    "BNBILNCLADB": 1
  },
  {
    "describeId": 61901,
    "score": 36.67,
    "monsterIntensityRevise": 36.67,
    "mkCurveMin": 0.75,
    "mkRad": 0.25,
    "factorDyngainRange": 0.3,
    "BNBILNCLADB": 1
  },
  {
    "describeId": 61902,
    "score": 6.96,
    "monsterIntensityRevise": 6.96,
    "mkCurveMin": 0.5,
    "mkRad": 1.5,
    "factorDyngainRange": 0.3,
    "BNBILNCLADB": 1
  },
  {
    "describeId": 61401,
    "score": 38.99,
    "monsterIntensityRevise": 38.99,
    "mkCurveMin": 0.75,
    "mkRad": 0.25,
    "factorDyngainRange": 0.3,
    "BNBILNCLADB": 1
  },
  {
    "describeId": 61402,
    "score": 9.44,
    "monsterIntensityRevise": 9.44,
    "mkCurveMin": 0.55,
    "mkRad": 1.25,
    "factorDyngainRange": 0.3,
    "BNBILNCLADB": 1
  },
  {
    "describeId": 91001,
    "score": 87.7,
    "monsterIntensityRevise": 70,
    "mkCurveMin": 0.75,
    "mkRad": 0.25,
    "factorDyngainRange": 0.3,
    "BNBILNCLADB": 1
  },
  {
    "describeId": 40901,
    "score": 12.32,
    "monsterIntensityRevise": 12.32,
    "mkCurveMin": 0.75,
    "mkRad": 0.25,
    "factorDyngainRange": 0.3,
    "BNBILNCLADB": 1
  },
  {
    "describeId": 55001,
    "score": 1.48,
    "monsterIntensityRevise": 1.48,
    "mkCurveMin": 0.5,
    "mkRad": 1.5,
    "factorDyngainRange": 0.3,
    "BNBILNCLADB": 1
  },
  {
    "describeId": 55011,
    "score": 1.94,
    "monsterIntensityRevise": 1.94,
    "mkCurveMin": 0.5,
    "mkRad": 1.5,
    "factorDyngainRange": 0.3,
    "BNBILNCLADB": 1
  },
  {
    "describeId": 55012,
    "score": 1.94,
    "monsterIntensityRevise": 1.94,
    "mkCurveMin": 0.5,
    "mkRad": 1.5,
    "factorDyngainRange": 0.3,
    "BNBILNCLADB": 1
  },
  {
    "describeId": 55021,
    "score": 1.94,
    "monsterIntensityRevise": 1.94,
    "mkCurveMin": 0.5,
    "mkRad": 1.5,
    "factorDyngainRange": 0.3,
    "BNBILNCLADB": 1
  },
  {
    "describeId": 55022,
    "score": 1.94,
    "monsterIntensityRevise": 1.94,
    "mkCurveMin": 0.5,
    "mkRad": 1.5,
    "factorDyngainRange": 0.3,
    "BNBILNCLADB": 1
  },
  {
    "describeId": 55031,
    "score": 2.43,
    "monsterIntensityRevise": 2.43,
    "mkCurveMin": 0.5,
    "mkRad": 1.5,
    "factorDyngainRange": 0.3,
    "BNBILNCLADB": 1
  },
  {
    "describeId": 55041,
    "score": 2.43,
    "monsterIntensityRevise": 2.43,
    "mkCurveMin": 0.5,
    "mkRad": 1.5,
    "factorDyngainRange": 0.3,
    "BNBILNCLADB": 1
  },
  {
    "describeId": 55042,
    "score": 2.43,
    "monsterIntensityRevise": 2.43,
    "mkCurveMin": 0.5,
    "mkRad": 1.5,
    "factorDyngainRange": 0.3,
    "BNBILNCLADB": 1
  },
  {
    "describeId": 55051,
    "score": 2.03,
    "monsterIntensityRevise": 2.03,
    "mkCurveMin": 0.5,
    "mkRad": 1.5,
    "factorDyngainRange": 0.3,
    "BNBILNCLADB": 1
  },
  {
    "describeId": 55052,
    "score": 2.03,
    "monsterIntensityRevise": 2.03,
    "mkCurveMin": 0.5,
    "mkRad": 1.5,
    "factorDyngainRange": 0.3,
    "BNBILNCLADB": 1
  },
  {
    "describeId": 55101,
    "score": 6.38,
    "monsterIntensityRevise": 6.38,
    "mkCurveMin": 0.5,
    "mkRad": 1.5,
    "factorDyngainRange": 0.3,
    "BNBILNCLADB": 1
  },
  {
    "describeId": 55102,
    "score": 6.38,
    "monsterIntensityRevise": 6.38,
    "mkCurveMin": 0.5,
    "mkRad": 1.5,
    "factorDyngainRange": 0.3,
    "BNBILNCLADB": 1
  },
  {
    "describeId": 55103,
    "score": 5.6,
    "monsterIntensityRevise": 5.6,
    "mkCurveMin": 0.5,
    "mkRad": 1.5,
    "factorDyngainRange": 0.3,
    "BNBILNCLADB": 1
  },
  {
    "describeId": 55104,
    "score": 5.6,
    "monsterIntensityRevise": 5.6,
    "mkCurveMin": 0.5,
    "mkRad": 1.5,
    "factorDyngainRange": 0.3,
    "BNBILNCLADB": 1
  },
  {
    "describeId": 55105,
    "score": 5.6,
    "monsterIntensityRevise": 5.6,
    "mkCurveMin": 0.5,
    "mkRad": 1.5,
    "factorDyngainRange": 0.3,
    "BNBILNCLADB": 1
  },
  {
    "describeId": 55106,
    "score": 5.6,
    "monsterIntensityRevise": 5.6,
    "mkCurveMin": 0.5,
    "mkRad": 1.5,
    "factorDyngainRange": 0.3,
    "BNBILNCLADB": 1
  },
  {
    "describeId": 55151,
    "score": 116.48,
    "monsterIntensityRevise": 60,
    "mkCurveMin": 0.65,
    "mkRad": 0.75,
    "factorDyngainRange": 0.3,
    "BNBILNCLADB": 1
  },
  {
    "describeId": 55152,
    "score": 141.38,
    "monsterIntensityRevise": 60,
    "mkCurveMin": 0.65,
    "mkRad": 0.75,
    "factorDyngainRange": 0.3,
    "BNBILNCLADB": 1
  },
  {
    "describeId": 55153,
    "score": 141.38,
    "monsterIntensityRevise": 60,
    "mkCurveMin": 0.65,
    "mkRad": 0.75,
    "factorDyngainRange": 0.3,
    "BNBILNCLADB": 1
  },
  {
    "describeId": 55154,
    "score": 141.38,
    "monsterIntensityRevise": 60,
    "mkCurveMin": 0.65,
    "mkRad": 0.75,
    "factorDyngainRange": 0.3,
    "BNBILNCLADB": 1
  },
  {
    "describeId": 55161,
    "score": 104.32,
    "monsterIntensityRevise": 60,
    "mkCurveMin": 0.65,
    "mkRad": 0.75,
    "factorDyngainRange": 0.3,
    "BNBILNCLADB": 1
  },
  {
    "describeId": 55501,
    "score": 1.48,
    "monsterIntensityRevise": 1.48,
    "mkCurveMin": 0.5,
    "mkRad": 1.5,
    "factorDyngainRange": 0.3,
    "BNBILNCLADB": 1
  },
  {
    "describeId": 55502,
    "score": 1.94,
    "monsterIntensityRevise": 1.94,
    "mkCurveMin": 0.5,
    "mkRad": 1.5,
    "factorDyngainRange": 0.3,
    "BNBILNCLADB": 1
  },
  {
    "describeId": 55503,
    "score": 1.94,
    "monsterIntensityRevise": 1.94,
    "mkCurveMin": 0.5,
    "mkRad": 1.5,
    "factorDyngainRange": 0.3,
    "BNBILNCLADB": 1
  },
  {
    "describeId": 55504,
    "score": 2.43,
    "monsterIntensityRevise": 2.43,
    "mkCurveMin": 0.5,
    "mkRad": 1.5,
    "factorDyngainRange": 0.3,
    "BNBILNCLADB": 1
  },
  {
    "describeId": 55505,
    "score": 2.43,
    "monsterIntensityRevise": 2.43,
    "mkCurveMin": 0.5,
    "mkRad": 1.5,
    "factorDyngainRange": 0.3,
    "BNBILNCLADB": 1
  },
  {
    "describeId": 55506,
    "score": 1.48,
    "monsterIntensityRevise": 1.48,
    "mkCurveMin": 0.5,
    "mkRad": 1.5,
    "factorDyngainRange": 0.3,
    "BNBILNCLADB": 1
  },
  {
    "describeId": 55507,
    "score": 2.03,
    "monsterIntensityRevise": 2.03,
    "mkCurveMin": 0.5,
    "mkRad": 1.5,
    "factorDyngainRange": 0.3,
    "BNBILNCLADB": 1
  },
  {
    "describeId": 62001,
    "score": 1.32,
    "monsterIntensityRevise": 1.32,
    "mkCurveMin": 0.5,
    "mkRad": 1.5,
    "factorDyngainRange": 0.3,
    "BNBILNCLADB": 1
  },
  {
    "describeId": 62002,
    "score": 4.21,
    "monsterIntensityRevise": 4.21,
    "mkCurveMin": 0.5,
    "mkRad": 1.5,
    "factorDyngainRange": 0.3,
    "BNBILNCLADB": 1
  },
  {
    "describeId": 62101,
    "score": 1.15,
    "monsterIntensityRevise": 1.15,
    "mkCurveMin": 0.5,
    "mkRad": 1.5,
    "factorDyngainRange": 0.3,
    "BNBILNCLADB": 1
  },
  {
    "describeId": 62102,
    "score": 3.68,
    "monsterIntensityRevise": 3.68,
    "mkCurveMin": 0.5,
    "mkRad": 1.5,
    "factorDyngainRange": 0.3,
    "BNBILNCLADB": 1
  },
  {
    "describeId": 62201,
    "score": 1.15,
    "monsterIntensityRevise": 1.15,
    "mkCurveMin": 0.5,
    "mkRad": 1.5,
    "factorDyngainRange": 0.3,
    "BNBILNCLADB": 1
  },
  {
    "describeId": 62202,
    "score": 3.68,
    "monsterIntensityRevise": 3.68,
    "mkCurveMin": 0.5,
    "mkRad": 1.5,
    "factorDyngainRange": 0.3,
    "BNBILNCLADB": 1
  },
  {
    "describeId": 62203,
    "score": 35.48,
    "monsterIntensityRevise": 35.48,
    "mkCurveMin": 0.7,
    "mkRad": 0.5,
    "factorDyngainRange": 0.3,
    "BNBILNCLADB": 1
  },
  {
    "describeId": 62303,
    "score": 42.13,
    "monsterIntensityRevise": 42.13,
    "mkCurveMin": 0.7,
    "mkRad": 0.5,
    "factorDyngainRange": 0.3,
    "BNBILNCLADB": 1
  },
  {
    "describeId": 62601,
    "score": 16.36,
    "monsterIntensityRevise": 16.36,
    "mkCurveMin": 0.65,
    "mkRad": 0.75,
    "factorDyngainRange": 0.3,
    "BNBILNCLADB": 1
  },
  {
    "describeId": 62602,
    "score": 16.36,
    "monsterIntensityRevise": 16.36,
    "mkCurveMin": 0.65,
    "mkRad": 0.75,
    "factorDyngainRange": 0.3,
    "BNBILNCLADB": 1
  },
  {
    "describeId": 62603,
    "score": 16.36,
    "monsterIntensityRevise": 16.36,
    "mkCurveMin": 0.65,
    "mkRad": 0.75,
    "factorDyngainRange": 0.3,
    "BNBILNCLADB": 1
  },
  {
    "describeId": 62604,
    "score": 83.75,
    "monsterIntensityRevise": 65,
    "mkCurveMin": 0.65,
    "mkRad": 0.75,
    "factorDyngainRange": 0.3,
    "BNBILNCLADB": 1
  },
  {
    "describeId": 62605,
    "score": 113.24,
    "monsterIntensityRevise": 65,
    "mkCurveMin": 0.65,
    "mkRad": 0.75,
    "factorDyngainRange": 0.3,
    "BNBILNCLADB": 1
  },
  {
    "describeId": 62606,
    "score": 111.64,
    "monsterIntensityRevise": 65,
    "mkCurveMin": 0.65,
    "mkRad": 0.75,
    "factorDyngainRange": 0.3,
    "BNBILNCLADB": 1
  },
  {
    "describeId": 62701,
    "score": 10.24,
    "monsterIntensityRevise": 10.24,
    "mkCurveMin": 0.6,
    "mkRad": 1,
    "factorDyngainRange": 0.3,
    "BNBILNCLADB": 1
  },
  {
    "describeId": 62702,
    "score": 10.08,
    "monsterIntensityRevise": 10.08,
    "mkCurveMin": 0.6,
    "mkRad": 1,
    "factorDyngainRange": 0.3,
    "BNBILNCLADB": 1
  },
  {
    "describeId": 80213,
    "score": 130.71,
    "monsterIntensityRevise": 60,
    "mkCurveMin": 0.65,
    "mkRad": 0.75,
    "factorDyngainRange": 0.3,
    "BNBILNCLADB": 1
  },
  {
    "describeId": 80226,
    "score": 124.3,
    "monsterIntensityRevise": 60,
    "mkCurveMin": 0.65,
    "mkRad": 0.75,
    "factorDyngainRange": 0.3,
    "BNBILNCLADB": 1
  }
]