[
  {
    "id": 1,
    "AEGODKFHNPK": -2095618169
  },
  {
    "id": 2,
    "AEGODKFHNPK": 1255444660
  },
  {
    "id": 3,
    "AEGODKFHNPK": -249961401
  },
  {
    "id": 4,
    "AEGODKFHNPK": 573184443
  },
  {
    "id": 5,
    "AEGODKFHNPK": 472427894
  },
  {
    "id": 6,
    "AEGODKFHNPK": 875712421
  },
  {
    "id": 7,
    "AEGODKFHNPK": 2005436117
  },
  {
    "id": 8,
    "AEGODKFHNPK": -932217308
  },
  {
    "id": 9,
    "AEGODKFHNPK": 14060646
  },
  {
    "id": 10,
    "AEGODKFHNPK": 1699084043
  },
  {
    "id": 11,
    "AEGODKFHNPK": 1398655949
  },
  {
    "id": 12,
    "AEGODKFHNPK": -1902283101
  },
  {
    "id": 13,
    "AEGODKFHNPK": -1418012732
  },
  {
    "id": 14,
    "AEGODKFHNPK": 315716456
  },
  {
    "id": 15,
    "AEGODKFHNPK": 515404063
  },
  {
    "id": 16,
    "AEGODKFHNPK": -873290834
  },
  {
    "id": 17,
    "AEGODKFHNPK": 1902773845
  },
  {
    "id": 18,
    "AEGODKFHNPK": -1688229416
  },
  {
    "id": 19,
    "AEGODKFHNPK": 907799544
  },
  {
    "id": 20,
    "AEGODKFHNPK": 1451607672
  },
  {
    "id": 21,
    "AEGODKFHNPK": 1372722338
  },
  {
    "id": 22,
    "AEGODKFHNPK": -293005404
  },
  {
    "id": 23,
    "AEGODKFHNPK": -996511645
  },
  {
    "id": 24,
    "AEGODKFHNPK": 167447943
  },
  {
    "id": 25,
    "AEGODKFHNPK": -323289050
  },
  {
    "id": 26,
    "AEGODKFHNPK": -458808739
  },
  {
    "id": 27,
    "AEGODKFHNPK": 455523634
  },
  {
    "id": 28,
    "AEGODKFHNPK": -792953187
  },
  {
    "id": 29,
    "AEGODKFHNPK": -757759362
  },
  {
    "id": 30,
    "AEGODKFHNPK": 1664831260
  },
  {
    "id": 31,
    "AEGODKFHNPK": 1422814235
  },
  {
    "id": 32,
    "AEGODKFHNPK": -1460933375
  },
  {
    "id": 33,
    "AEGODKFHNPK": -291837675
  },
  {
    "id": 34,
    "AEGODKFHNPK": -1995890439
  },
  {
    "id": 35,
    "AEGODKFHNPK": -1529179302
  },
  {
    "id": 36,
    "AEGODKFHNPK": -1015728802
  },
  {
    "id": 37,
    "AEGODKFHNPK": 812124218
  },
  {
    "id": 38,
    "AEGODKFHNPK": -49682783
  },
  {
    "id": 39,
    "AEGODKFHNPK": -1774298493
  },
  {
    "id": 40,
    "AEGODKFHNPK": -782154634
  },
  {
    "id": 41,
    "AEGODKFHNPK": -1866559902
  },
  {
    "id": 42,
    "AEGODKFHNPK": 1903867295
  },
  {
    "id": 43,
    "AEGODKFHNPK": -1634337357
  },
  {
    "id": 44,
    "AEGODKFHNPK": -44828953
  },
  {
    "id": 45,
    "AEGODKFHNPK": 425734570
  },
  {
    "id": 46,
    "AEGODKFHNPK": -973043188
  },
  {
    "id": 47,
    "AEGODKFHNPK": -1391152165
  },
  {
    "id": 48,
    "AEGODKFHNPK": 1647716171
  },
  {
    "id": 49,
    "AEGODKFHNPK": -415760466
  },
  {
    "id": 50,
    "AEGODKFHNPK": -574947980
  },
  {
    "id": 51,
    "AEGODKFHNPK": -857767624
  },
  {
    "id": 52,
    "AEGODKFHNPK": 1683005225
  },
  {
    "id": 53,
    "AEGODKFHNPK": 1992258132
  },
  {
    "id": 54,
    "AEGODKFHNPK": 1187161029
  },
  {
    "id": 55,
    "AEGODKFHNPK": -1374687667
  },
  {
    "id": 56,
    "AEGODKFHNPK": 583686737
  },
  {
    "id": 57,
    "AEGODKFHNPK": -560278730
  },
  {
    "id": 58,
    "AEGODKFHNPK": 1188494300
  },
  {
    "id": 59,
    "AEGODKFHNPK": 602520679
  },
  {
    "id": 60,
    "AEGODKFHNPK": -2126362667
  },
  {
    "id": 61,
    "AEGODKFHNPK": -360191922
  },
  {
    "id": 62,
    "AEGODKFHNPK": -1072652593
  },
  {
    "id": 63,
    "AEGODKFHNPK": -1628969815
  },
  {
    "id": 64,
    "AEGODKFHNPK": -1527182111
  },
  {
    "id": 65,
    "AEGODKFHNPK": 1151272747
  },
  {
    "id": 66,
    "AEGODKFHNPK": -1546543467
  },
  {
    "id": 67,
    "AEGODKFHNPK": 1821190079
  },
  {
    "id": 68,
    "AEGODKFHNPK": 105816122
  },
  {
    "id": 69,
    "AEGODKFHNPK": 1690103816
  },
  {
    "id": 70,
    "AEGODKFHNPK": -1704186076
  },
  {
    "id": 71,
    "AEGODKFHNPK": -122058792
  },
  {
    "id": 72,
    "AEGODKFHNPK": -1556102363
  },
  {
    "id": 73,
    "AEGODKFHNPK": -1395125229
  },
  {
    "id": 74,
    "AEGODKFHNPK": -935531954
  },
  {
    "id": 75,
    "AEGODKFHNPK": -109940018
  },
  {
    "id": 76,
    "AEGODKFHNPK": -86064296
  },
  {
    "id": 77,
    "AEGODKFHNPK": -1977318486
  },
  {
    "id": 78,
    "AEGODKFHNPK": -1211310894
  },
  {
    "id": 79,
    "AEGODKFHNPK": 2051891551
  },
  {
    "id": 80,
    "AEGODKFHNPK": -564443833
  },
  {
    "id": 81,
    "AEGODKFHNPK": 867906762
  },
  {
    "id": 82,
    "AEGODKFHNPK": -1916198499
  },
  {
    "id": 83,
    "AEGODKFHNPK": 744277819
  },
  {
    "id": 84,
    "AEGODKFHNPK": -1372618471
  },
  {
    "id": 85,
    "AEGODKFHNPK": 1345542130
  },
  {
    "id": 86,
    "AEGODKFHNPK": -1441333900
  },
  {
    "id": 87,
    "AEGODKFHNPK": 877949455
  },
  {
    "id": 88,
    "AEGODKFHNPK": -711115775
  },
  {
    "id": 89,
    "AEGODKFHNPK": 2018196949
  },
  {
    "id": 90,
    "AEGODKFHNPK": 1614912422
  },
  {
    "id": 91,
    "AEGODKFHNPK": 764742868
  },
  {
    "id": 92,
    "AEGODKFHNPK": 565117333
  },
  {
    "id": 93,
    "AEGODKFHNPK": -147570138
  },
  {
    "id": 94,
    "AEGODKFHNPK": 726773835
  },
  {
    "id": 95,
    "AEGODKFHNPK": -1420647320
  },
  {
    "id": 96,
    "AEGODKFHNPK": 1669165680
  },
  {
    "id": 97,
    "AEGODKFHNPK": -375101360
  },
  {
    "id": 98,
    "AEGODKFHNPK": -233938859
  },
  {
    "id": 99,
    "AEGODKFHNPK": -2082347802
  },
  {
    "id": 100,
    "AEGODKFHNPK": -1512699504
  },
  {
    "id": 101,
    "AEGODKFHNPK": -1512699507
  },
  {
    "id": 102,
    "AEGODKFHNPK": -1559753690
  },
  {
    "id": 103,
    "AEGODKFHNPK": -405510279
  },
  {
    "id": 104,
    "AEGODKFHNPK": -1109414988
  },
  {
    "id": 105,
    "AEGODKFHNPK": -832682718
  },
  {
    "id": 106,
    "AEGODKFHNPK": 318028938
  },
  {
    "id": 107,
    "AEGODKFHNPK": -85255589
  },
  {
    "id": 108,
    "AEGODKFHNPK": 899705528
  },
  {
    "id": 109,
    "AEGODKFHNPK": -666378413
  },
  {
    "id": 110,
    "AEGODKFHNPK": 2062504942
  },
  {
    "id": 111,
    "AEGODKFHNPK": -271984717
  },
  {
    "id": 112,
    "AEGODKFHNPK": -56374786
  },
  {
    "id": 113,
    "AEGODKFHNPK": -856940329
  },
  {
    "id": 114,
    "AEGODKFHNPK": -1846339398
  },
  {
    "id": 115,
    "AEGODKFHNPK": 562539641
  },
  {
    "id": 116,
    "AEGODKFHNPK": 1125323129
  },
  {
    "id": 117,
    "AEGODKFHNPK": -1846336265
  },
  {
    "id": 118,
    "AEGODKFHNPK": 1641514622
  },
  {
    "id": 119,
    "AEGODKFHNPK": 1426993900
  },
  {
    "id": 120,
    "AEGODKFHNPK": -1371318553
  },
  {
    "id": 121,
    "AEGODKFHNPK": -1082185898
  },
  {
    "id": 122,
    "AEGODKFHNPK": -1082185897
  },
  {
    "id": 123,
    "AEGODKFHNPK": 1125323128
  },
  {
    "id": 124,
    "AEGODKFHNPK": -1846337224
  },
  {
    "id": 125,
    "AEGODKFHNPK": -1985202644
  },
  {
    "id": 126,
    "AEGODKFHNPK": -358648840
  },
  {
    "id": 127,
    "AEGODKFHNPK": -358648839
  },
  {
    "id": 128,
    "AEGODKFHNPK": 163010364
  },
  {
    "id": 129,
    "AEGODKFHNPK": 284705887
  },
  {
    "id": 130,
    "AEGODKFHNPK": 1335201894
  },
  {
    "id": 131,
    "AEGODKFHNPK": -1493193228
  },
  {
    "id": 132,
    "AEGODKFHNPK": -822963061
  },
  {
    "id": 133,
    "AEGODKFHNPK": -241504627
  },
  {
    "id": 134,
    "AEGODKFHNPK": -67456634
  },
  {
    "id": 135,
    "AEGODKFHNPK": 1139734313
  },
  {
    "id": 136,
    "AEGODKFHNPK": 532490986
  },
  {
    "id": 137,
    "AEGODKFHNPK": 531346757
  },
  {
    "id": 138,
    "AEGODKFHNPK": 532490989
  },
  {
    "id": 139,
    "AEGODKFHNPK": -814380646
  },
  {
    "id": 140,
    "AEGODKFHNPK": -1299106189
  },
  {
    "id": 141,
    "AEGODKFHNPK": -1703558458
  },
  {
    "id": 142,
    "AEGODKFHNPK": -1382556391
  },
  {
    "id": 143,
    "AEGODKFHNPK": 719080942
  },
  {
    "id": 144,
    "AEGODKFHNPK": -866126853
  },
  {
    "id": 145,
    "AEGODKFHNPK": -1186356261
  },
  {
    "id": 146,
    "AEGODKFHNPK": 1137655930
  },
  {
    "id": 147,
    "AEGODKFHNPK": -428428011
  },
  {
    "id": 148,
    "AEGODKFHNPK": -384784227
  },
  {
    "id": 149,
    "AEGODKFHNPK": -1219788086
  },
  {
    "id": 150,
    "AEGODKFHNPK": -1282725932
  },
  {
    "id": 151,
    "AEGODKFHNPK": 1070055914
  },
  {
    "id": 152,
    "AEGODKFHNPK": -1613669301
  },
  {
    "id": 153,
    "AEGODKFHNPK": -373634707
  },
  {
    "id": 154,
    "AEGODKFHNPK": -1791971226
  },
  {
    "id": 155,
    "AEGODKFHNPK": 295479073
  },
  {
    "id": 156,
    "AEGODKFHNPK": -55605934
  },
  {
    "id": 157,
    "AEGODKFHNPK": -552515130
  },
  {
    "id": 158,
    "AEGODKFHNPK": -1162767762
  },
  {
    "id": 159,
    "AEGODKFHNPK": 2004735725
  },
  {
    "id": 160,
    "AEGODKFHNPK": -1801140205
  },
  {
    "id": 161,
    "AEGODKFHNPK": -1943352741
  },
  {
    "id": 162,
    "AEGODKFHNPK": 382499020
  },
  {
    "id": 163,
    "AEGODKFHNPK": 1260662023
  },
  {
    "id": 164,
    "AEGODKFHNPK": 1194918320
  },
  {
    "id": 165,
    "AEGODKFHNPK": -1776334005
  },
  {
    "id": 166,
    "AEGODKFHNPK": 1435207903
  },
  {
    "id": 167,
    "AEGODKFHNPK": 171099859
  },
  {
    "id": 168,
    "AEGODKFHNPK": -1132862076
  },
  {
    "id": 169,
    "AEGODKFHNPK": 314851289
  },
  {
    "id": 170,
    "AEGODKFHNPK": -26760361
  },
  {
    "id": 171,
    "AEGODKFHNPK": -1800011005
  },
  {
    "id": 172,
    "AEGODKFHNPK": 912112860
  },
  {
    "id": 173,
    "AEGODKFHNPK": -27073279
  },
  {
    "id": 174,
    "AEGODKFHNPK": -484533136
  },
  {
    "id": 175,
    "AEGODKFHNPK": -1635742019
  },
  {
    "id": 176,
    "AEGODKFHNPK": -831508350
  },
  {
    "id": 177,
    "AEGODKFHNPK": 2135607285
  },
  {
    "id": 178,
    "AEGODKFHNPK": -1389527239
  },
  {
    "id": 179,
    "AEGODKFHNPK": -1780592885
  },
  {
    "id": 180,
    "AEGODKFHNPK": -767405203
  },
  {
    "id": 181,
    "AEGODKFHNPK": -767405202
  },
  {
    "id": 182,
    "AEGODKFHNPK": 1411952019
  },
  {
    "id": 183,
    "AEGODKFHNPK": -252567759
  },
  {
    "id": 184,
    "AEGODKFHNPK": 1442590327
  },
  {
    "id": 185,
    "AEGODKFHNPK": -528211064
  },
  {
    "id": 186,
    "AEGODKFHNPK": 758974714
  },
  {
    "id": 187,
    "AEGODKFHNPK": 22407425
  },
  {
    "id": 188,
    "AEGODKFHNPK": -2029001220
  },
  {
    "id": 189,
    "AEGODKFHNPK": -1860295679
  },
  {
    "id": 190,
    "AEGODKFHNPK": -1912512496
  },
  {
    "id": 191,
    "AEGODKFHNPK": 399094591
  },
  {
    "id": 192,
    "AEGODKFHNPK": -1872365564
  },
  {
    "id": 193,
    "AEGODKFHNPK": -1842200605
  },
  {
    "id": 194,
    "AEGODKFHNPK": -280666611
  },
  {
    "id": 195,
    "AEGODKFHNPK": -1482193327
  },
  {
    "id": 196,
    "AEGODKFHNPK": 922487458
  },
  {
    "id": 197,
    "AEGODKFHNPK": -1143663517
  },
  {
    "id": 198,
    "AEGODKFHNPK": -1254016754
  },
  {
    "id": 199,
    "AEGODKFHNPK": -115883131
  },
  {
    "id": 200,
    "AEGODKFHNPK": -2013770409
  },
  {
    "id": 201,
    "AEGODKFHNPK": -73056199
  },
  {
    "id": 202,
    "AEGODKFHNPK": 1558965927
  },
  {
    "id": 203,
    "AEGODKFHNPK": 1506922235
  },
  {
    "id": 204,
    "AEGODKFHNPK": -1992771737
  },
  {
    "id": 205,
    "AEGODKFHNPK": -1589487210
  },
  {
    "id": 206,
    "AEGODKFHNPK": 1139396145
  },
  {
    "id": 207,
    "AEGODKFHNPK": -1543946311
  },
  {
    "id": 208,
    "AEGODKFHNPK": 1435200270
  },
  {
    "id": 209,
    "AEGODKFHNPK": 1847723533
  },
  {
    "id": 210,
    "AEGODKFHNPK": 1847723536
  },
  {
    "id": 211,
    "AEGODKFHNPK": -706018325
  },
  {
    "id": 212,
    "AEGODKFHNPK": -174098756
  },
  {
    "id": 213,
    "AEGODKFHNPK": -57757881
  },
  {
    "id": 214,
    "AEGODKFHNPK": -281160011
  },
  {
    "id": 215,
    "AEGODKFHNPK": 825329628
  },
  {
    "id": 216,
    "AEGODKFHNPK": 792574784
  },
  {
    "id": 217,
    "AEGODKFHNPK": 441336230
  },
  {
    "id": 218,
    "AEGODKFHNPK": -83865743
  },
  {
    "id": 219,
    "AEGODKFHNPK": -1592247622
  },
  {
    "id": 220,
    "AEGODKFHNPK": -1860532068
  },
  {
    "id": 221,
    "AEGODKFHNPK": 2031150701
  },
  {
    "id": 222,
    "AEGODKFHNPK": -1216175963
  },
  {
    "id": 223,
    "AEGODKFHNPK": -1192053635
  },
  {
    "id": 224,
    "AEGODKFHNPK": -1654284387
  },
  {
    "id": 225,
    "AEGODKFHNPK": -1156337602
  },
  {
    "id": 226,
    "AEGODKFHNPK": -9320285
  },
  {
    "id": 227,
    "AEGODKFHNPK": 978134456
  },
  {
    "id": 228,
    "AEGODKFHNPK": 1200959595
  },
  {
    "id": 229,
    "AEGODKFHNPK": 2080871657
  },
  {
    "id": 230,
    "AEGODKFHNPK": -1712980095
  },
  {
    "id": 231,
    "AEGODKFHNPK": 802721320
  },
  {
    "id": 232,
    "AEGODKFHNPK": -469650777
  },
  {
    "id": 233,
    "AEGODKFHNPK": 802721323
  },
  {
    "id": 234,
    "AEGODKFHNPK": 802721322
  },
  {
    "id": 235,
    "AEGODKFHNPK": 705142725
  },
  {
    "id": 236,
    "AEGODKFHNPK": 1209961539
  },
  {
    "id": 237,
    "AEGODKFHNPK": 2025284820
  },
  {
    "id": 238,
    "AEGODKFHNPK": 2025284817
  },
  {
    "id": 239,
    "AEGODKFHNPK": 2025284818
  },
  {
    "id": 240,
    "AEGODKFHNPK": 2025284815
  },
  {
    "id": 241,
    "AEGODKFHNPK": 2025284816
  },
  {
    "id": 242,
    "AEGODKFHNPK": 2025284813
  },
  {
    "id": 243,
    "AEGODKFHNPK": 2025284814
  },
  {
    "id": 244,
    "AEGODKFHNPK": -1226881083
  },
  {
    "id": 245,
    "AEGODKFHNPK": 1781271601
  },
  {
    "id": 246,
    "AEGODKFHNPK": 986540041
  },
  {
    "id": 247,
    "AEGODKFHNPK": -579543900
  },
  {
    "id": 248,
    "AEGODKFHNPK": -2145627841
  },
  {
    "id": 249,
    "AEGODKFHNPK": 227025154
  },
  {
    "id": 250,
    "AEGODKFHNPK": -1339058787
  },
  {
    "id": 251,
    "AEGODKFHNPK": -1331114763
  },
  {
    "id": 252,
    "AEGODKFHNPK": -436536063
  },
  {
    "id": 253,
    "AEGODKFHNPK": 593833321
  },
  {
    "id": 254,
    "AEGODKFHNPK": -946704411
  },
  {
    "id": 255,
    "AEGODKFHNPK": -1821419678
  },
  {
    "id": 256,
    "AEGODKFHNPK": -2084002058
  },
  {
    "id": 257,
    "AEGODKFHNPK": 1446845730
  },
  {
    "id": 258,
    "AEGODKFHNPK": 1985097543
  },
  {
    "id": 259,
    "AEGODKFHNPK": 530264345
  },
  {
    "id": 260,
    "AEGODKFHNPK": -2147086356
  },
  {
    "id": 261,
    "AEGODKFHNPK": 1257630280
  },
  {
    "id": 262,
    "AEGODKFHNPK": -664684285
  },
  {
    "id": 263,
    "AEGODKFHNPK": -1401125111
  },
  {
    "id": 264,
    "AEGODKFHNPK": 1764542176
  },
  {
    "id": 265,
    "AEGODKFHNPK": -1975445437
  },
  {
    "id": 266,
    "AEGODKFHNPK": 293367808
  },
  {
    "id": 267,
    "AEGODKFHNPK": 257785802
  },
  {
    "id": 268,
    "AEGODKFHNPK": -2118376611
  },
  {
    "id": 269,
    "AEGODKFHNPK": -264762175
  },
  {
    "id": 270,
    "AEGODKFHNPK": -264762182
  },
  {
    "id": 271,
    "AEGODKFHNPK": 412084255
  },
  {
    "id": 272,
    "AEGODKFHNPK": 1681890691
  },
  {
    "id": 273,
    "AEGODKFHNPK": -1261811195
  },
  {
    "id": 274,
    "AEGODKFHNPK": 304272746
  },
  {
    "id": 275,
    "AEGODKFHNPK": -662688038
  },
  {
    "id": 276,
    "AEGODKFHNPK": 601336732
  },
  {
    "id": 277,
    "AEGODKFHNPK": 1225153167
  },
  {
    "id": 278,
    "AEGODKFHNPK": -1034636033
  },
  {
    "id": 279,
    "AEGODKFHNPK": 735240473
  },
  {
    "id": 280,
    "AEGODKFHNPK": -881930626
  },
  {
    "id": 281,
    "AEGODKFHNPK": -1395725924
  },
  {
    "id": 282,
    "AEGODKFHNPK": -1664419498
  },
  {
    "id": 283,
    "AEGODKFHNPK": -374089136
  },
  {
    "id": 284,
    "AEGODKFHNPK": -374089113
  },
  {
    "id": 285,
    "AEGODKFHNPK": -1318028073
  },
  {
    "id": 286,
    "AEGODKFHNPK": -1802552465
  },
  {
    "id": 287,
    "AEGODKFHNPK": 2131412152
  },
  {
    "id": 288,
    "AEGODKFHNPK": -1788997693
  },
  {
    "id": 289,
    "AEGODKFHNPK": -2118635217
  },
  {
    "id": 290,
    "AEGODKFHNPK": -1670039525
  },
  {
    "id": 291,
    "AEGODKFHNPK": 354582988
  },
  {
    "id": 292,
    "AEGODKFHNPK": -204627737
  },
  {
    "id": 293,
    "AEGODKFHNPK": 1075139060
  },
  {
    "id": 294,
    "AEGODKFHNPK": 2070620359
  },
  {
    "id": 295,
    "AEGODKFHNPK": 598644993
  },
  {
    "id": 296,
    "AEGODKFHNPK": -34110984
  },
  {
    "id": 297,
    "AEGODKFHNPK": 1566469741
  },
  {
    "id": 298,
    "AEGODKFHNPK": 505011665
  },
  {
    "id": 299,
    "AEGODKFHNPK": 191929528
  },
  {
    "id": 300,
    "AEGODKFHNPK": 646007560
  },
  {
    "id": 301,
    "AEGODKFHNPK": 1603012568
  },
  {
    "id": 302,
    "AEGODKFHNPK": 265511350
  },
  {
    "id": 303,
    "AEGODKFHNPK": 442975369
  },
  {
    "id": 304,
    "AEGODKFHNPK": -827765097
  },
  {
    "id": 305,
    "AEGODKFHNPK": -395588832
  },
  {
    "id": 306,
    "AEGODKFHNPK": 649398425
  },
  {
    "id": 307,
    "AEGODKFHNPK": 341030830
  },
  {
    "id": 308,
    "AEGODKFHNPK": 1058760689
  },
  {
    "id": 309,
    "AEGODKFHNPK": 341030829
  },
  {
    "id": 310,
    "AEGODKFHNPK": -1066791565
  },
  {
    "id": 311,
    "AEGODKFHNPK": 341030828
  },
  {
    "id": 312,
    "AEGODKFHNPK": -2034395918
  },
  {
    "id": 313,
    "AEGODKFHNPK": 878926780
  },
  {
    "id": 314,
    "AEGODKFHNPK": 2001223220
  },
  {
    "id": 315,
    "AEGODKFHNPK": 2001223195
  },
  {
    "id": 316,
    "AEGODKFHNPK": -1351859166
  },
  {
    "id": 317,
    "AEGODKFHNPK": 1625236501
  },
  {
    "id": 318,
    "AEGODKFHNPK": 1915608516
  },
  {
    "id": 319,
    "AEGODKFHNPK": -1244530473
  },
  {
    "id": 320,
    "AEGODKFHNPK": -1244530472
  },
  {
    "id": 321,
    "AEGODKFHNPK": -445151481
  },
  {
    "id": 322,
    "AEGODKFHNPK": 941420309
  },
  {
    "id": 323,
    "AEGODKFHNPK": 231928112
  },
  {
    "id": 324,
    "AEGODKFHNPK": 1979570177
  },
  {
    "id": 325,
    "AEGODKFHNPK": -197031652
  },
  {
    "id": 326,
    "AEGODKFHNPK": 483167023
  },
  {
    "id": 327,
    "AEGODKFHNPK": 153787833
  },
  {
    "id": 328,
    "AEGODKFHNPK": -285996479
  },
  {
    "id": 329,
    "AEGODKFHNPK": 1280087462
  },
  {
    "id": 330,
    "AEGODKFHNPK": 1280087465
  },
  {
    "id": 331,
    "AEGODKFHNPK": 1280087464
  },
  {
    "id": 332,
    "AEGODKFHNPK": 1280087467
  },
  {
    "id": 333,
    "AEGODKFHNPK": -1448795893
  },
  {
    "id": 334,
    "AEGODKFHNPK": -1448795890
  },
  {
    "id": 335,
    "AEGODKFHNPK": 1886948773
  },
  {
    "id": 336,
    "AEGODKFHNPK": 1886948774
  },
  {
    "id": 337,
    "AEGODKFHNPK": -2004733995
  },
  {
    "id": 338,
    "AEGODKFHNPK": 724149360
  },
  {
    "id": 339,
    "AEGODKFHNPK": 1483664247
  },
  {
    "id": 340,
    "AEGODKFHNPK": 1886948775
  },
  {
    "id": 341,
    "AEGODKFHNPK": -2004733994
  },
  {
    "id": 342,
    "AEGODKFHNPK": 139972165
  },
  {
    "id": 343,
    "AEGODKFHNPK": -1363354661
  },
  {
    "id": 344,
    "AEGODKFHNPK": 1320001600
  },
  {
    "id": 345,
    "AEGODKFHNPK": 1723286127
  },
  {
    "id": 346,
    "AEGODKFHNPK": 1723286130
  },
  {
    "id": 347,
    "AEGODKFHNPK": 1723286129
  },
  {
    "id": 348,
    "AEGODKFHNPK": 1723286124
  },
  {
    "id": 349,
    "AEGODKFHNPK": 157202186
  },
  {
    "id": 350,
    "AEGODKFHNPK": 157202189
  },
  {
    "id": 351,
    "AEGODKFHNPK": 2131654900
  },
  {
    "id": 352,
    "AEGODKFHNPK": 21252367
  },
  {
    "id": 353,
    "AEGODKFHNPK": 386051466
  },
  {
    "id": 354,
    "AEGODKFHNPK": 1642856206
  },
  {
    "id": 355,
    "AEGODKFHNPK": 1952135407
  },
  {
    "id": 356,
    "AEGODKFHNPK": -1145640934
  },
  {
    "id": 357,
    "AEGODKFHNPK": -776747948
  },
  {
    "id": 358,
    "AEGODKFHNPK": 789335993
  },
  {
    "id": 359,
    "AEGODKFHNPK": -449323218
  },
  {
    "id": 360,
    "AEGODKFHNPK": -1768119334
  },
  {
    "id": 361,
    "AEGODKFHNPK": 1775260789
  },
  {
    "id": 362,
    "AEGODKFHNPK": 1555970144
  },
  {
    "id": 363,
    "AEGODKFHNPK": 1425080429
  },
  {
    "id": 364,
    "AEGODKFHNPK": 1237350564
  },
  {
    "id": 365,
    "AEGODKFHNPK": 1557120381
  },
  {
    "id": 366,
    "AEGODKFHNPK": -1828783064
  },
  {
    "id": 367,
    "AEGODKFHNPK": 2094499275
  },
  {
    "id": 368,
    "AEGODKFHNPK": -222879684
  },
  {
    "id": 369,
    "AEGODKFHNPK": 977910474
  },
  {
    "id": 370,
    "AEGODKFHNPK": -1073088627
  },
  {
    "id": 371,
    "AEGODKFHNPK": -1162845236
  },
  {
    "id": 372,
    "AEGODKFHNPK": 492995314
  },
  {
    "id": 373,
    "AEGODKFHNPK": -1879657681
  },
  {
    "id": 374,
    "AEGODKFHNPK": -1263033221
  },
  {
    "id": 375,
    "AEGODKFHNPK": 1784911468
  },
  {
    "id": 376,
    "AEGODKFHNPK": 1268451142
  },
  {
    "id": 377,
    "AEGODKFHNPK": 1648120097
  },
  {
    "id": 378,
    "AEGODKFHNPK": 407800739
  },
  {
    "id": 379,
    "AEGODKFHNPK": -643189131
  },
  {
    "id": 380,
    "AEGODKFHNPK": 1619769633
  },
  {
    "id": 381,
    "AEGODKFHNPK": -2096656852
  },
  {
    "id": 382,
    "AEGODKFHNPK": 261770981
  },
  {
    "id": 383,
    "AEGODKFHNPK": -1371578745
  },
  {
    "id": 384,
    "AEGODKFHNPK": -1730464510
  },
  {
    "id": 385,
    "AEGODKFHNPK": -1563149201
  },
  {
    "id": 386,
    "AEGODKFHNPK": -557674756
  },
  {
    "id": 387,
    "AEGODKFHNPK": -661821515
  },
  {
    "id": 388,
    "AEGODKFHNPK": -637777575
  },
  {
    "id": 389,
    "AEGODKFHNPK": 255724599
  },
  {
    "id": 390,
    "AEGODKFHNPK": -5182386
  },
  {
    "id": 391,
    "AEGODKFHNPK": 1917351306
  },
  {
    "id": 392,
    "AEGODKFHNPK": -1617636402
  },
  {
    "id": 393,
    "AEGODKFHNPK": -2147104581
  },
  {
    "id": 394,
    "AEGODKFHNPK": 453923283
  },
  {
    "id": 395,
    "AEGODKFHNPK": 524113069
  },
  {
    "id": 396,
    "AEGODKFHNPK": 434635231
  },
  {
    "id": 397,
    "AEGODKFHNPK": 434635200
  },
  {
    "id": 398,
    "AEGODKFHNPK": -537052382
  },
  {
    "id": 399,
    "AEGODKFHNPK": -1564147097
  },
  {
    "id": 400,
    "AEGODKFHNPK": -417043575
  },
  {
    "id": 401,
    "AEGODKFHNPK": -1153538753
  },
  {
    "id": 402,
    "AEGODKFHNPK": -1432772395
  },
  {
    "id": 403,
    "AEGODKFHNPK": 870154867
  },
  {
    "id": 404,
    "AEGODKFHNPK": 1047997597
  },
  {
    "id": 405,
    "AEGODKFHNPK": -1971172538
  },
  {
    "id": 406,
    "AEGODKFHNPK": 1388130263
  },
  {
    "id": 407,
    "AEGODKFHNPK": 739320714
  },
  {
    "id": 408,
    "AEGODKFHNPK": -1408290993
  },
  {
    "id": 409,
    "AEGODKFHNPK": -278990990
  },
  {
    "id": 410,
    "AEGODKFHNPK": 1844291405
  },
  {
    "id": 411,
    "AEGODKFHNPK": 899182734
  },
  {
    "id": 412,
    "AEGODKFHNPK": -174362475,
    "HMIOPOMPFOP": 5
  },
  {
    "id": 413,
    "AEGODKFHNPK": -2051294331
  },
  {
    "id": 414,
    "AEGODKFHNPK": -859354886
  },
  {
    "id": 415,
    "AEGODKFHNPK": -2051294332
  },
  {
    "id": 416,
    "AEGODKFHNPK": -2051294333
  },
  {
    "id": 417,
    "AEGODKFHNPK": 1442320242
  },
  {
    "id": 418,
    "AEGODKFHNPK": 1442320243
  },
  {
    "id": 419,
    "AEGODKFHNPK": 1442320244
  },
  {
    "id": 420,
    "AEGODKFHNPK": 1590952343
  },
  {
    "id": 421,
    "AEGODKFHNPK": 752183209
  },
  {
    "id": 422,
    "AEGODKFHNPK": 501156717
  },
  {
    "id": 423,
    "AEGODKFHNPK": 340398662
  },
  {
    "id": 424,
    "AEGODKFHNPK": 1717685170
  },
  {
    "id": 425,
    "AEGODKFHNPK": -1531988511
  },
  {
    "id": 426,
    "AEGODKFHNPK": -1345430735
  },
  {
    "id": 427,
    "AEGODKFHNPK": -369564199
  },
  {
    "id": 428,
    "AEGODKFHNPK": 1362460994
  },
  {
    "id": 429,
    "AEGODKFHNPK": -1024654049
  },
  {
    "id": 430,
    "AEGODKFHNPK": 733876875
  },
  {
    "id": 431,
    "AEGODKFHNPK": 1308067032
  },
  {
    "id": 432,
    "AEGODKFHNPK": -904945357
  },
  {
    "id": 433,
    "AEGODKFHNPK": 661138584
  },
  {
    "id": 434,
    "AEGODKFHNPK": 1844138918
  },
  {
    "id": 435,
    "AEGODKFHNPK": 1570911159
  },
  {
    "id": 436,
    "AEGODKFHNPK": 1738572099
  },
  {
    "id": 437,
    "AEGODKFHNPK": -51252329
  },
  {
    "id": 438,
    "AEGODKFHNPK": -1581745337
  },
  {
    "id": 439,
    "AEGODKFHNPK": 1620556140
  },
  {
    "id": 440,
    "AEGODKFHNPK": -1628913144
  },
  {
    "id": 441,
    "AEGODKFHNPK": -1687756401
  },
  {
    "id": 442,
    "AEGODKFHNPK": 1234288981
  },
  {
    "id": 443,
    "AEGODKFHNPK": -344879698
  },
  {
    "id": 444,
    "AEGODKFHNPK": -1439336948
  },
  {
    "id": 445,
    "AEGODKFHNPK": 1230574078
  },
  {
    "id": 446,
    "AEGODKFHNPK": -1106873606
  },
  {
    "id": 447,
    "AEGODKFHNPK": -796666444
  },
  {
    "id": 448,
    "AEGODKFHNPK": -169626833
  },
  {
    "id": 449,
    "AEGODKFHNPK": 1777163296
  },
  {
    "id": 450,
    "AEGODKFHNPK": -1612221970
  },
  {
    "id": 451,
    "AEGODKFHNPK": 90096130
  },
  {
    "id": 452,
    "AEGODKFHNPK": 1548710336
  },
  {
    "id": 453,
    "AEGODKFHNPK": 1548710335
  },
  {
    "id": 454,
    "AEGODKFHNPK": -1656365962
  },
  {
    "id": 455,
    "AEGODKFHNPK": 1732980650
  },
  {
    "id": 456,
    "AEGODKFHNPK": -257520423
  },
  {
    "id": 457,
    "AEGODKFHNPK": -560889675
  },
  {
    "id": 458,
    "AEGODKFHNPK": -959129439
  },
  {
    "id": 459,
    "AEGODKFHNPK": -1039794906
  },
  {
    "id": 460,
    "AEGODKFHNPK": 1813556915
  },
  {
    "id": 461,
    "AEGODKFHNPK": 168174761
  },
  {
    "id": 462,
    "AEGODKFHNPK": 312175157
  },
  {
    "id": 463,
    "AEGODKFHNPK": 244608903
  },
  {
    "id": 464,
    "AEGODKFHNPK": 1703771476
  },
  {
    "id": 465,
    "AEGODKFHNPK": 1844671336
  },
  {
    "id": 466,
    "AEGODKFHNPK": 443122851
  },
  {
    "id": 467,
    "AEGODKFHNPK": -419432895
  },
  {
    "id": 468,
    "AEGODKFHNPK": -842592088
  },
  {
    "id": 469,
    "AEGODKFHNPK": -478469704
  },
  {
    "id": 470,
    "AEGODKFHNPK": -39771185
  },
  {
    "id": 471,
    "AEGODKFHNPK": 1526312756
  },
  {
    "id": 472,
    "AEGODKFHNPK": 193472666
  },
  {
    "id": 473,
    "AEGODKFHNPK": -315480127
  },
  {
    "id": 474,
    "AEGODKFHNPK": -924605614
  },
  {
    "id": 475,
    "AEGODKFHNPK": 2076263726
  },
  {
    "id": 476,
    "AEGODKFHNPK": 797107004
  },
  {
    "id": 477,
    "AEGODKFHNPK": 1204133163
  },
  {
    "id": 478,
    "AEGODKFHNPK": 1195774296
  },
  {
    "id": 479,
    "AEGODKFHNPK": -2100247211
  },
  {
    "id": 480,
    "AEGODKFHNPK": -1347589232
  },
  {
    "id": 481,
    "AEGODKFHNPK": 1567120295
  },
  {
    "id": 482,
    "AEGODKFHNPK": 1081018163
  },
  {
    "id": 483,
    "AEGODKFHNPK": 423129247
  },
  {
    "id": 484,
    "AEGODKFHNPK": 696805453
  },
  {
    "id": 485,
    "AEGODKFHNPK": 1451705159
  },
  {
    "id": 486,
    "AEGODKFHNPK": 207416852
  },
  {
    "id": 487,
    "AEGODKFHNPK": -4018215
  },
  {
    "id": 488,
    "AEGODKFHNPK": 1970419393
  },
  {
    "id": 489,
    "AEGODKFHNPK": -1503249336
  },
  {
    "id": 490,
    "AEGODKFHNPK": -2042967855
  },
  {
    "id": 491,
    "AEGODKFHNPK": -655226808
  },
  {
    "id": 492,
    "AEGODKFHNPK": 2023134633
  },
  {
    "id": 493,
    "AEGODKFHNPK": -655229941
  },
  {
    "id": 494,
    "AEGODKFHNPK": -1599187063
  },
  {
    "id": 495,
    "AEGODKFHNPK": 431335705
  },
  {
    "id": 496,
    "AEGODKFHNPK": 689764166
  },
  {
    "id": 497,
    "AEGODKFHNPK": -811741117
  },
  {
    "id": 498,
    "AEGODKFHNPK": -426763406
  },
  {
    "id": 499,
    "AEGODKFHNPK": -1692738967
  },
  {
    "id": 500,
    "AEGODKFHNPK": 6725596
  },
  {
    "id": 501,
    "AEGODKFHNPK": -1905525385
  },
  {
    "id": 502,
    "AEGODKFHNPK": -2104844074
  },
  {
    "id": 503,
    "AEGODKFHNPK": 1424328654
  },
  {
    "id": 504,
    "AEGODKFHNPK": 566670776
  },
  {
    "id": 505,
    "AEGODKFHNPK": 1029963754
  },
  {
    "id": 506,
    "AEGODKFHNPK": -2140729800
  },
  {
    "id": 507,
    "AEGODKFHNPK": 1966887481
  }
]