[
  {
    "id": 1001,
    "baseMaterial": [
      {
        "id": 410001,
        "count": 3
      },
      {}
    ],
    "extraMaterial": [
      {},
      {}
    ],
    "availableAffixList": [
      107
    ],
    "descTextMapHash": 3227026642,
    "nameTextMapHash": 279907021,
    "type": 1,
    "lockType": 1,
    "blurredDescTextMapHash": 493793000
  },
  {
    "id": 1002,
    "baseMaterial": [
      {
        "id": 410001,
        "count": 2
      },
      {}
    ],
    "extraMaterial": [
      {
        "id": 410004,
        "count": 1
      },
      {}
    ],
    "availableAffixList": [
      101
    ],
    "mixingState": "MIDDLE",
    "descTextMapHash": 1566331922,
    "nameTextMapHash": 824804581,
    "type": 1,
    "lockType": 1,
    "blurredDescTextMapHash": 933955344
  },
  {
    "id": 1003,
    "baseMaterial": [
      {
        "id": 410001,
        "count": 1
      },
      {}
    ],
    "extraMaterial": [
      {
        "id": 410004,
        "count": 2
      },
      {}
    ],
    "availableAffixList": [
      101
    ],
    "mixingState": "MIDDLE",
    "descTextMapHash": 904563418,
    "nameTextMapHash": 1369018829,
    "type": 1,
    "lockType": 1,
    "blurredDescTextMapHash": 57706536
  },
  {
    "id": 1004,
    "baseMaterial": [
      {
        "id": 410001,
        "count": 1
      },
      {}
    ],
    "extraMaterial": [
      {
        "id": 410004,
        "count": 1
      },
      {
        "id": 410005,
        "count": 1
      }
    ],
    "availableAffixList": [
      101,
      102
    ],
    "mixingState": "HEAVY",
    "descTextMapHash": 2965680538,
    "nameTextMapHash": 3006562541,
    "type": 1,
    "lockType": 1,
    "blurredDescTextMapHash": 3790105800
  },
  {
    "id": 1005,
    "baseMaterial": [
      {
        "id": 410001,
        "count": 1
      },
      {}
    ],
    "extraMaterial": [
      {
        "id": 410004,
        "count": 1
      },
      {
        "id": 410009,
        "count": 1
      }
    ],
    "availableAffixList": [
      101,
      106
    ],
    "mixingState": "HEAVY",
    "descTextMapHash": 3227715162,
    "nameTextMapHash": 3700902357,
    "type": 1,
    "blurredDescTextMapHash": 723977464
  },
  {
    "id": 1006,
    "baseMaterial": [
      {
        "id": 410001,
        "count": 2
      },
      {}
    ],
    "extraMaterial": [
      {
        "id": 410008,
        "count": 1
      },
      {}
    ],
    "availableAffixList": [
      105
    ],
    "descTextMapHash": 2448071154,
    "nameTextMapHash": 554464981,
    "type": 1,
    "blurredDescTextMapHash": 2644124016
  },
  {
    "id": 1007,
    "baseMaterial": [
      {
        "id": 410001,
        "count": 1
      },
      {
        "id": 410002,
        "count": 1
      }
    ],
    "extraMaterial": [
      {
        "id": 410004,
        "count": 1
      },
      {}
    ],
    "availableAffixList": [
      101
    ],
    "mixingState": "HEAVY",
    "descTextMapHash": 3608628066,
    "nameTextMapHash": 892446045,
    "type": 4,
    "lockType": 1,
    "blurredDescTextMapHash": 3088380888
  },
  {
    "id": 1008,
    "baseMaterial": [
      {
        "id": 410002,
        "count": 3
      },
      {}
    ],
    "extraMaterial": [
      {},
      {}
    ],
    "availableAffixList": [
      108
    ],
    "descTextMapHash": 3082748618,
    "nameTextMapHash": 4033425845,
    "type": 2,
    "blurredDescTextMapHash": 1522481760
  },
  {
    "id": 1009,
    "baseMaterial": [
      {
        "id": 410002,
        "count": 2
      },
      {}
    ],
    "extraMaterial": [
      {
        "id": 410004,
        "count": 1
      },
      {}
    ],
    "availableAffixList": [
      101
    ],
    "mixingState": "MIDDLE",
    "descTextMapHash": 2050809066,
    "nameTextMapHash": 3870560637,
    "type": 2,
    "lockType": 1,
    "blurredDescTextMapHash": 2380823216
  },
  {
    "id": 1010,
    "baseMaterial": [
      {
        "id": 410002,
        "count": 1
      },
      {}
    ],
    "extraMaterial": [
      {
        "id": 410004,
        "count": 2
      },
      {}
    ],
    "availableAffixList": [
      101
    ],
    "mixingState": "MIDDLE",
    "descTextMapHash": 627854674,
    "nameTextMapHash": 3538126213,
    "type": 2,
    "lockType": 1,
    "blurredDescTextMapHash": 2186889096
  },
  {
    "id": 1011,
    "baseMaterial": [
      {
        "id": 410002,
        "count": 1
      },
      {}
    ],
    "extraMaterial": [
      {
        "id": 410004,
        "count": 1
      },
      {
        "id": 410007,
        "count": 1
      }
    ],
    "availableAffixList": [
      101,
      104
    ],
    "mixingState": "HEAVY",
    "descTextMapHash": 234177762,
    "nameTextMapHash": 3546099285,
    "type": 2,
    "lockType": 1,
    "blurredDescTextMapHash": 3229528896
  },
  {
    "id": 1012,
    "baseMaterial": [
      {
        "id": 410002,
        "count": 1
      },
      {}
    ],
    "extraMaterial": [
      {
        "id": 410004,
        "count": 1
      },
      {
        "id": 410005,
        "count": 1
      }
    ],
    "availableAffixList": [
      101,
      102
    ],
    "mixingState": "HEAVY",
    "descTextMapHash": 903798194,
    "nameTextMapHash": 1017894493,
    "type": 2,
    "blurredDescTextMapHash": 2593077112
  },
  {
    "id": 1013,
    "baseMaterial": [
      {
        "id": 410002,
        "count": 1
      },
      {}
    ],
    "extraMaterial": [
      {
        "id": 410004,
        "count": 1
      },
      {
        "id": 410009,
        "count": 1
      }
    ],
    "availableAffixList": [
      101,
      106
    ],
    "mixingState": "HEAVY",
    "descTextMapHash": 1891131738,
    "nameTextMapHash": 242204381,
    "type": 2,
    "lockType": 1,
    "blurredDescTextMapHash": 2093733216
  },
  {
    "id": 1014,
    "baseMaterial": [
      {
        "id": 410002,
        "count": 2
      },
      {}
    ],
    "extraMaterial": [
      {
        "id": 410006,
        "count": 1
      },
      {}
    ],
    "availableAffixList": [
      103
    ],
    "mixingState": "MIDDLE",
    "descTextMapHash": 2294623258,
    "nameTextMapHash": 2399695045,
    "type": 2,
    "lockType": 1,
    "blurredDescTextMapHash": 1300368048
  },
  {
    "id": 1015,
    "baseMaterial": [
      {
        "id": 410002,
        "count": 1
      },
      {
        "id": 410003,
        "count": 2
      }
    ],
    "extraMaterial": [
      {},
      {}
    ],
    "availableAffixList": [],
    "mixingState": "MIDDLE",
    "descTextMapHash": 1067482778,
    "nameTextMapHash": 1176719557,
    "type": 4,
    "blurredDescTextMapHash": 4136993656
  },
  {
    "id": 1016,
    "baseMaterial": [
      {
        "id": 410003,
        "count": 3
      },
      {}
    ],
    "extraMaterial": [
      {},
      {}
    ],
    "availableAffixList": [
      109
    ],
    "descTextMapHash": 3102789626,
    "nameTextMapHash": 1375422429,
    "type": 3,
    "blurredDescTextMapHash": 4229942768
  },
  {
    "id": 1017,
    "baseMaterial": [
      {
        "id": 410003,
        "count": 2
      },
      {}
    ],
    "extraMaterial": [
      {
        "id": 410004,
        "count": 1
      },
      {}
    ],
    "availableAffixList": [
      101
    ],
    "mixingState": "MIDDLE",
    "descTextMapHash": 3319381954,
    "nameTextMapHash": 2114881941,
    "type": 3,
    "blurredDescTextMapHash": 260948864
  },
  {
    "id": 1018,
    "baseMaterial": [
      {
        "id": 410003,
        "count": 1
      },
      {}
    ],
    "extraMaterial": [
      {
        "id": 410004,
        "count": 2
      },
      {}
    ],
    "availableAffixList": [
      101
    ],
    "mixingState": "MIDDLE",
    "descTextMapHash": 3009929226,
    "nameTextMapHash": 228320453,
    "type": 3,
    "lockType": 1,
    "blurredDescTextMapHash": 449591320
  },
  {
    "id": 1019,
    "baseMaterial": [
      {
        "id": 410003,
        "count": 2
      },
      {}
    ],
    "extraMaterial": [
      {
        "id": 410006,
        "count": 1
      },
      {}
    ],
    "availableAffixList": [
      103
    ],
    "mixingState": "MIDDLE",
    "descTextMapHash": 1905478322,
    "nameTextMapHash": 1026221461,
    "type": 3,
    "blurredDescTextMapHash": 3705996520
  },
  {
    "id": 1020,
    "baseMaterial": [
      {
        "id": 410003,
        "count": 2
      },
      {}
    ],
    "extraMaterial": [
      {
        "id": 410008,
        "count": 1
      },
      {}
    ],
    "availableAffixList": [
      105
    ],
    "descTextMapHash": 2029429634,
    "nameTextMapHash": 565660605,
    "type": 3,
    "lockType": 1,
    "blurredDescTextMapHash": 3376043296
  },
  {
    "id": 1021,
    "baseMaterial": [
      {
        "id": 410003,
        "count": 1
      },
      {}
    ],
    "extraMaterial": [
      {
        "id": 410008,
        "count": 1
      },
      {
        "id": 410007,
        "count": 1
      }
    ],
    "availableAffixList": [
      105,
      104
    ],
    "descTextMapHash": 3304135562,
    "nameTextMapHash": 4120115949,
    "type": 3,
    "lockType": 1,
    "blurredDescTextMapHash": 981263816
  },
  {
    "id": 1022,
    "baseMaterial": [
      {},
      {}
    ],
    "extraMaterial": [
      {},
      {}
    ],
    "availableAffixList": [],
    "descTextMapHash": 1902757474,
    "nameTextMapHash": 1181076269,
    "blurredDescTextMapHash": 281863560
  }
]