[
  {
    "id": 1,
    "stage": 2,
    "ADKDAOCJGFD": 15,
    "targetTime": 150,
    "dungeonId": 9301,
    "AAHPKBFCFCB": 13100,
    "galleryId": 52301,
    "groupId": 235914001,
    "watcherList": [
      12023301,
      12023302,
      12023303
    ],
    "buffList": [
      1,
      2
    ],
    "MONIBHGMGIJ": 3271079855,
    "EOBKGPCPJCC": 1058662196
  },
  {
    "id": 2,
    "stage": 3,
    "ADKDAOCJGFD": 15,
    "targetTime": 150,
    "dungeonId": 9302,
    "AAHPKBFCFCB": 13100,
    "galleryId": 52302,
    "groupId": 235915002,
    "watcherList": [
      12023311,
      12023312,
      12023313
    ],
    "buffList": [
      1,
      3
    ],
    "MONIBHGMGIJ": 2403740991,
    "EOBKGPCPJCC": 2194455452
  },
  {
    "id": 3,
    "stage": 4,
    "ADKDAOCJGFD": 15,
    "targetTime": 150,
    "dungeonId": 9303,
    "AAHPKBFCFCB": 13100,
    "galleryId": 52303,
    "groupId": 235916002,
    "watcherList": [
      12023321,
      12023322,
      12023323
    ],
    "buffList": [
      1,
      4
    ],
    "MONIBHGMGIJ": 739350375,
    "EOBKGPCPJCC": 431550132
  },
  {
    "id": 4,
    "stage": 4,
    "ADKDAOCJGFD": 15,
    "targetTime": 150,
    "dungeonId": 9304,
    "AAHPKBFCFCB": 13100,
    "galleryId": 52304,
    "groupId": 235917002,
    "watcherList": [
      12023331,
      12023332,
      12023333
    ],
    "buffList": [
      1,
      5
    ],
    "MONIBHGMGIJ": 3238184983,
    "EOBKGPCPJCC": 4234830092
  }
]