[
  {
    "id": 201,
    "grantRewardCost": 1,
    "iconName": "UI_BlessingV2_RectPhoto_Blue",
    "CGAGPINHLLP": "UI_BlessingV2_CirclePhoto_Blue",
    "nameTextMapHash": 1997099561
  },
  {
    "id": 202,
    "grantRewardCost": 1,
    "iconName": "UI_BlessingV2_RectPhoto_Brown",
    "CGAGPINHLLP": "UI_BlessingV2_CirclePhoto_Brown",
    "nameTextMapHash": 935663753
  },
  {
    "id": 203,
    "grantRewardCost": 1,
    "iconName": "UI_BlessingV2_RectPhoto_Yellow",
    "CGAGPINHLLP": "UI_BlessingV2_CirclePhoto_Yellow",
    "nameTextMapHash": 1580089881
  },
  {
    "id": 204,
    "grantRewardCost": 1,
    "iconName": "UI_BlessingV2_RectPhoto_Red",
    "CGAGPINHLLP": "UI_BlessingV2_CirclePhoto_Red",
    "nameTextMapHash": 1469610633
  },
  {
    "id": 205,
    "grantRewardCost": 1,
    "iconName": "UI_BlessingV2_RectPhoto_Purple",
    "CGAGPINHLLP": "UI_BlessingV2_CirclePhoto_Purple",
    "nameTextMapHash": 2347882681
  }
]