[
  {
    "id": 1,
    "PPDKAMGGIHN": 70210109,
    "NAIBECNLLCD": 1,
    "resin": 20,
    "refreshType": "BLOSSOM_REFRESH_SCOIN"
  },
  {
    "id": 2,
    "PPDKAMGGIHN": 70210110,
    "NAIBECNLLCD": 1,
    "resin": 20,
    "refreshType": "BLOSSOM_REFRESH_EXP"
  },
  {
    "id": 3,
    "PPDKAMGGIHN": 70210113,
    "refreshType": "BLOSSOM_REFRESH_DRAGON_SPINE_A",
    "clientShowType": "BLOSSOM_CHEST_SHOWTYPE_NO_RESIN"
  },
  {
    "id": 4,
    "PPDKAMGGIHN": 70210113,
    "refreshType": "BLOSSOM_REFRESH_DRAGON_SPINE_B",
    "clientShowType": "BLOSSOM_CHEST_SHOWTYPE_NO_RESIN"
  },
  {
    "id": 5,
    "PPDKAMGGIHN": 70210113,
    "refreshType": "BLOSSOM_REFRESH_BLITZ_RUSH_A",
    "clientShowType": "BLOSSOM_CHEST_SHOWTYPE_NO_RESIN"
  },
  {
    "id": 6,
    "PPDKAMGGIHN": 70210113,
    "refreshType": "BLOSSOM_REFRESH_BLITZ_RUSH_B",
    "clientShowType": "BLOSSOM_CHEST_SHOWTYPE_NO_RESIN"
  }
]