[
  {
    "id": 50001,
    "bonusActivityType": "BONUS_XIANGLING",
    "avatarConfigId": 10000023,
    "voiceIndexList": [
      1000,
      1001,
      5001
    ],
    "openPlayerLevel": 20,
    "perfabPath": "ART/UI/Menus/Widget/Activity/Activity_GiveCharacter",
    "unlockTipsTextMapHash": 3225904765
  },
  {
    "id": 50002,
    "bonusActivityType": "BONUS_BABALA",
    "avatarConfigId": 10000014,
    "voiceIndexList": [
      1000,
      2002
    ],
    "questId": 394,
    "openPlayerLevel": 18,
    "perfabPath": "ART/UI/Menus/Widget/Activity/Activity_GiveCharacter_Barbara",
    "unlockTipsTextMapHash": 818002645
  },
  {
    "id": 50003,
    "bonusActivityType": "BONUS_KELAI",
    "avatarConfigId": 10000067,
    "voiceIndexList": [
      600002,
      600003
    ],
    "openPlayerLevel": 20,
    "perfabPath": "ART/UI/Menus/Widget/Activity/Activity_GiveCharacter_Collei",
    "unlockTipsTextMapHash": 684363645
  },
  {
    "id": 50004,
    "bonusActivityType": "BONUS_LINETTE",
    "avatarConfigId": 10000083,
    "voiceIndexList": [
      200001,
      200001,
      600002
    ],
    "openPlayerLevel": 10,
    "perfabPath": "ART/UI/Menus/Widget/Activity/Activity_GiveCharacter_Linette",
    "unlockTipsTextMapHash": 2906823181,
    "PHBHKHFFJKC": 33445
  }
]