[
  {
    "id": 100301,
    "dungeonId": 3050,
    "perWorldLevelID": 100102,
    "limitTime": 600,
    "limitBall": 10,
    "maxSkillCount": 3,
    "galleryId": 30020,
    "groupId": 235870001,
    "levelTitleTextMapHash": 726960303,
    "levelDescTextMapHash": 3015372015,
    "levelMapHash": 15913525257035013192,
    "bossIconHash": 12126114470019505751,
    "brickList": [
      1,
      4,
      6
    ],
    "banElementList": [
      "None",
      "None",
      "None"
    ],
    "scoreParamList": [
      0,
      20,
      3600,
      7,
      50,
      50
    ]
  },
  {
    "id": 200301,
    "dungeonId": 3051,
    "perWorldLevelID": 200102,
    "limitTime": 600,
    "limitBall": 10,
    "maxSkillCount": 3,
    "galleryId": 30021,
    "groupId": 235871001,
    "levelTitleTextMapHash": 1451610279,
    "levelDescTextMapHash": 3172309743,
    "levelMapHash": 9880884398082813374,
    "bossIconHash": 12682025959465688809,
    "brickList": [
      1,
      2,
      3,
      4,
      5
    ],
    "banElementList": [
      "None",
      "None",
      "None"
    ],
    "scoreParamList": [
      0,
      20,
      3500,
      7,
      50,
      50
    ]
  },
  {
    "id": 300301,
    "dungeonId": 3052,
    "perWorldLevelID": 300102,
    "limitTime": 600,
    "limitBall": 10,
    "maxSkillCount": 3,
    "galleryId": 30022,
    "groupId": 235872001,
    "levelTitleTextMapHash": 2147594071,
    "levelDescTextMapHash": 148629903,
    "levelMapHash": 13663315173880132747,
    "bossIconHash": 18396662233936505899,
    "brickList": [
      1,
      2,
      3,
      4,
      5,
      6
    ],
    "banElementList": [
      "None",
      "None",
      "None"
    ],
    "scoreParamList": [
      0,
      20,
      3100,
      7,
      50,
      50
    ]
  }
]