[
  {
    "id": 1001,
    "trophicLevel": 3,
    "enemyCampList": [
      4001,
      4004,
      5001,
      5002,
      5003,
      9001,
      9002,
      5005,
      5007,
      4002
    ]
  },
  {
    "id": 2001,
    "trophicLevel": 3,
    "enemyCampList": []
  },
  {
    "id": 3001,
    "trophicLevel": 4,
    "enemyCampList": [
      4001,
      4004,
      5003,
      9001,
      9002,
      5005
    ]
  },
  {
    "id": 3002,
    "trophicLevel": 4,
    "enemyCampList": [
      4003,
      5008
    ]
  },
  {
    "id": 3003,
    "trophicLevel": 4,
    "enemyCampList": [
      4001,
      4004,
      5010
    ]
  },
  {
    "id": 4001,
    "trophicLevel": 5,
    "enemyCampList": [
      1001,
      3001,
      4004,
      4005,
      9001,
      9002,
      5003,
      5004,
      5005,
      5009
    ]
  },
  {
    "id": 4002,
    "trophicLevel": 5,
    "enemyCampList": [
      4001
    ]
  },
  {
    "id": 4003,
    "trophicLevel": 5,
    "enemyCampList": [
      3002,
      5008
    ]
  },
  {
    "id": 4004,
    "trophicLevel": 5,
    "enemyCampList": [
      1001,
      3001,
      4001,
      4002,
      9001,
      9002,
      5003,
      5004,
      5005,
      5009
    ]
  },
  {
    "id": 4005,
    "trophicLevel": 5,
    "enemyCampList": [
      4004
    ]
  },
  {
    "id": 5001,
    "trophicLevel": 5,
    "enemyCampList": [
      1001,
      3001,
      4001,
      4004,
      5002,
      9001,
      9002,
      5003
    ]
  },
  {
    "id": 5002,
    "trophicLevel": 5,
    "enemyCampList": [
      1001,
      3001,
      4001,
      4004,
      5001,
      9001,
      9002,
      5003
    ]
  },
  {
    "id": 5003,
    "trophicLevel": 5,
    "enemyCampList": [
      1001,
      3001,
      4001,
      4004,
      5002,
      5001,
      9001,
      9002
    ]
  },
  {
    "id": 5004,
    "trophicLevel": 5,
    "enemyCampList": [
      4001,
      4004,
      5002,
      9001,
      9002,
      5002,
      5003
    ]
  },
  {
    "id": 5005,
    "trophicLevel": 5,
    "enemyCampList": [
      1001,
      3001,
      5002,
      9001,
      9002,
      5003
    ]
  },
  {
    "id": 5006,
    "trophicLevel": 3,
    "enemyCampList": []
  },
  {
    "id": 5007,
    "trophicLevel": 5,
    "enemyCampList": [
      5002,
      9001,
      9002,
      5003
    ]
  },
  {
    "id": 5008,
    "trophicLevel": 5,
    "enemyCampList": [
      3002,
      4003
    ]
  },
  {
    "id": 5009,
    "trophicLevel": 5,
    "enemyCampList": []
  },
  {
    "id": 5010,
    "trophicLevel": 5,
    "enemyCampList": [
      3003
    ]
  },
  {
    "id": 9001,
    "enemyCampList": [
      1001,
      3001,
      4001,
      4004,
      5001,
      5002,
      5003
    ]
  },
  {
    "id": 9002,
    "enemyCampList": [
      1001,
      3001,
      4001,
      4004,
      5001,
      5002,
      5003
    ]
  },
  {
    "id": 9999,
    "enemyCampList": [
      1001,
      3001,
      4001,
      4004,
      5001,
      5002,
      5003
    ]
  }
]