[
  {
    "name": "CONST_VALUE_GAME_TIME_PER_DAY",
    "value": [
      "24",
      "",
      "",
      "",
      "",
      ""
    ]
  },
  {
    "name": "CONST_VALUE_INIT_GAME_TIME",
    "value": [
      "7.31",
      "",
      "",
      "",
      "",
      ""
    ]
  },
  {
    "name": "CONST_VALUE_INIT_TEAM_AVATAR",
    "value": [
      "10000005",
      "10000007",
      "",
      "",
      "",
      ""
    ]
  },
  {
    "name": "CONST_VALUE_CHANGE_AVATAR_CD",
    "value": [
      "1",
      "",
      "",
      "",
      "",
      ""
    ]
  },
  {
    "name": "CONST_VALUE_AVATAR_HP_RECOVER",
    "value": [
      "10",
      "10",
      "",
      "",
      "",
      ""
    ]
  },
  {
    "name": "CONST_VALUE_DASH_COST_STAMINA",
    "value": [
      "18",
      "18",
      "",
      "",
      "",
      ""
    ]
  },
  {
    "name": "CONST_VALUE_CLIMB_COST_STAMINA",
    "value": [
      "59",
      "1",
      "91",
      "2",
      "105",
      "3"
    ]
  },
  {
    "name": "CONST_VALUE_CLIMB_JUMP_COST_STAMINA",
    "value": [
      "25",
      "",
      "",
      "",
      "",
      ""
    ]
  },
  {
    "name": "CONST_VALUE_CLIMB_COST_STAMINA_FORMULA",
    "value": [
      "0.8",
      "0.002",
      "0.00016",
      "0.8",
      "2",
      ""
    ]
  },
  {
    "name": "CONST_VALUE_CLIMB_JUMP_COST_STAMINA_FORMULA",
    "value": [
      "20",
      "0.12",
      "20",
      "30",
      "",
      ""
    ]
  },
  {
    "name": "CONST_VALUE_SWIM_COST_STAMINA",
    "value": [
      "4",
      "",
      "",
      "",
      "",
      ""
    ]
  },
  {
    "name": "CONST_VALUE_SWIM_DASH_COST_STAMINA",
    "value": [
      "1",
      "",
      "",
      "",
      "",
      ""
    ]
  },
  {
    "name": "CONST_VALUE_SWIM_DASH_COST_STAMINA_PER_SECOND",
    "value": [
      "10.2",
      "",
      "",
      "",
      "",
      ""
    ]
  },
  {
    "name": "CONST_VALUE_FLY_COST_STAMINA",
    "value": [
      "3",
      "",
      "",
      "",
      "",
      ""
    ]
  },
  {
    "name": "CONST_VALUE_CROUCH_ROLL_COST_STAMINA",
    "value": [
      "50",
      "",
      "",
      "",
      "",
      ""
    ]
  },
  {
    "name": "CONST_VALUE_DASH_BS_COST_STAMINA",
    "value": [
      "18",
      "18",
      "",
      "",
      "",
      ""
    ]
  },
  {
    "name": "CONST_VALUE_WALK_TO_SWIM_ADD_STAMINA",
    "value": [
      "10",
      "",
      "",
      "",
      "",
      ""
    ]
  },
  {
    "name": "CONST_VALUE_STAMINA_RECOVER_WAIT_TIME",
    "value": [
      "1.5",
      "",
      "",
      "",
      "",
      ""
    ]
  },
  {
    "name": "CONST_VALUE_STAMINA_LIMIT",
    "value": [
      "100",
      "",
      "",
      "",
      "",
      ""
    ]
  },
  {
    "name": "CONST_VALUE_EXTRA_STAMINA_LIMIT",
    "value": [
      "140",
      "100",
      "",
      "",
      "",
      ""
    ]
  },
  {
    "name": "CONST_VALUE_FALL_HURT",
    "value": [
      "-24",
      "0.1",
      "-1",
      "0.151",
      "",
      ""
    ]
  },
  {
    "name": "CONST_VALUE_PACK_MAX_WEIGHT",
    "value": [
      "30000",
      "",
      "",
      "",
      "",
      ""
    ]
  },
  {
    "name": "CONST_VALUE_DEPOT_MAX_WEIGHT",
    "value": [
      "2000",
      "",
      "",
      "",
      "",
      ""
    ]
  },
  {
    "name": "CONST_VALUE_KILL_MONSTER_EXP",
    "value": [
      "100",
      "",
      "",
      "",
      "",
      ""
    ]
  },
  {
    "name": "CONST_VALUE_PLAYER_WORLD_SCENE_ID",
    "value": [
      "3",
      "",
      "",
      "",
      "",
      ""
    ]
  },
  {
    "name": "CONST_VALUE_PLAYER_PICKUP_RANGE",
    "value": [
      "2",
      "",
      "",
      "",
      "",
      ""
    ]
  },
  {
    "name": "CONST_VALUE_ITEM_STACK_MAX",
    "value": [
      "255",
      "",
      "",
      "",
      "",
      ""
    ]
  },
  {
    "name": "CONST_VALUE_AVATAR_DIE_MAX_TIME",
    "value": [
      "10",
      "",
      "",
      "",
      "",
      ""
    ]
  },
  {
    "name": "CONST_VALUE_DEFENSE_RESIST_RATIO",
    "value": [
      "5",
      "500",
      "99999999",
      "",
      "",
      ""
    ]
  },
  {
    "name": "CONST_VALUE_CRITICAL_LIMIT",
    "value": [
      "0",
      "1",
      "",
      "",
      "",
      ""
    ]
  },
  {
    "name": "CONST_VALUE_BLOCK_REFRESH_PARAM",
    "value": [
      "60",
      "50",
      "10",
      "",
      "",
      ""
    ]
  },
  {
    "name": "CONST_VALUE_DUNGEON_KEEP_TIME",
    "value": [
      "30",
      "",
      "",
      "",
      "",
      ""
    ]
  },
  {
    "name": "CONST_VALUE_ADSORBATE_PICKUP_RANGE",
    "value": [
      "10",
      "",
      "",
      "",
      "",
      ""
    ]
  },
  {
    "name": "CONST_VALUE_ADSORBATE_STAY_TIME",
    "value": [
      "2",
      "",
      "",
      "",
      "",
      ""
    ]
  },
  {
    "name": "CONST_VALUE_ELEMENT_OVERLOAD_REDUCE",
    "value": [
      "1",
      "",
      "",
      "",
      "",
      ""
    ]
  },
  {
    "name": "CONST_VALUE_PURGE_DECREMENT",
    "value": [
      "0.5",
      "",
      "",
      "",
      "",
      ""
    ]
  },
  {
    "name": "CONST_VALUE_WATER_FIRE_DECRATE",
    "value": [
      "2",
      "",
      "",
      "",
      "",
      ""
    ]
  },
  {
    "name": "CONST_VALUE_ICE_FIRE_DECRATE",
    "value": [
      "0.5",
      "",
      "",
      "",
      "",
      ""
    ]
  },
  {
    "name": "CONST_VALUE_EFFECT_RESIST_LEVEL_FIX",
    "value": [
      "0.05",
      "",
      "",
      "",
      "",
      ""
    ]
  },
  {
    "name": "CONST_VALUE_DUNGEON_REVIVE_WAIT_TIME",
    "value": [
      "30",
      "",
      "",
      "",
      "",
      ""
    ]
  },
  {
    "name": "CONST_VALUE_FOOD_WEAPON_EXP_DISCOUNT_PARAM",
    "value": [
      "0.8",
      "",
      "",
      "",
      "",
      ""
    ]
  },
  {
    "name": "CONST_VALUE_FOOD_RELIQUARY_EXP_DISCOUNT_PARAM",
    "value": [
      "0.8",
      "",
      "",
      "",
      "",
      ""
    ]
  },
  {
    "name": "CONST_VALUE_RELIQUARY_TRANSFER_MATERIALS",
    "value": [
      "105003",
      "105002",
      "",
      "",
      "",
      ""
    ]
  },
  {
    "name": "CONST_VALUE_COMPOUND_SPE_RELIQUARY_PARAMS_1",
    "value": [
      "220109",
      "2",
      "1",
      "105005",
      "1;1;2;4;3",
      "14"
    ]
  },
  {
    "name": "CONST_VALUE_COMPOUND_SPE_RELIQUARY_PARAMS_2",
    "value": [
      "5",
      "5",
      "25",
      "100",
      "1",
      "0;0;0;0;4;5;6;7;8;9;10;11;14;15;16;17;22;23;24;25;30"
    ]
  },
  {
    "name": "CONST_VALUE_COMPOUND_SPE_RELIQUARY_PARAMS_3",
    "value": [
      "13",
      "",
      "",
      "",
      "",
      ""
    ]
  },
  {
    "name": "CONST_VALUE_ENTRANCE_OF_SYNTHESIS_AND_DECOMPOSE",
    "value": [
      "1",
      "1",
      "",
      "",
      "",
      ""
    ]
  },
  {
    "name": "CONST_VALUE_DAMAGE_LEVEL_FIX",
    "value": [
      "1.5",
      "5",
      "8",
      "0.125",
      "5",
      "10"
    ]
  },
  {
    "name": "CONST_VALUE_DUNGEON_CANCEL_WAIT_TIME",
    "value": [
      "30",
      "999",
      "",
      "",
      "",
      ""
    ]
  },
  {
    "name": "CONST_VALUE_ENDURE_LEVEL_FIX",
    "value": [
      "40",
      "5",
      "",
      "",
      "",
      ""
    ]
  },
  {
    "name": "CONST_VALUE_SECRET_CHEST_DAY_LIMIT",
    "value": [
      "3",
      "",
      "",
      "",
      "",
      ""
    ]
  },
  {
    "name": "CONST_VALUE_HURT_REVIVE_HP_PERCENT",
    "value": [
      "35",
      "",
      "",
      "",
      "",
      ""
    ]
  },
  {
    "name": "CONST_VALUE_NO_HURT_DIE_SUB_HP_PERCENT",
    "value": [
      "10",
      "",
      "",
      "",
      "",
      ""
    ]
  },
  {
    "name": "CONST_VALUE_SPRING_RECOVER_TIME",
    "value": [
      "1500",
      "15",
      "",
      "",
      "",
      ""
    ]
  },
  {
    "name": "CONST_VALUE_SPRING_RECOVER_PARAM",
    "value": [
      "1",
      "10",
      "0.3",
      "0.1",
      "",
      ""
    ]
  },
  {
    "name": "CONST_VALUE_SPRING_AUTO_RECOVER_DELAY",
    "value": [
      "2",
      "",
      "",
      "",
      "",
      ""
    ]
  },
  {
    "name": "CONST_VALUE_BACK_AVATAR_AUTO_RECOVER_PARAM",
    "value": [
      "3600",
      "4",
      "",
      "",
      "",
      ""
    ]
  },
  {
    "name": "CONST_VALUE_BORED_LIMIT",
    "value": [
      "50",
      "100",
      "1800",
      "",
      "",
      ""
    ]
  },
  {
    "name": "CONST_VALUE_BORED_CREATE_MONSTER",
    "value": [
      "200",
      "300",
      "50",
      "",
      "",
      ""
    ]
  },
  {
    "name": "CONST_VALUE_SKILL_CD_MIN_PRESERVE_TIME",
    "value": [
      "5",
      "",
      "",
      "",
      "",
      ""
    ]
  },
  {
    "name": "CONST_VALUE_TALENT_POINT_LIMIT",
    "value": [
      "16",
      "16",
      "",
      "",
      "",
      ""
    ]
  },
  {
    "name": "CONST_VALUE_ELEMENTREACTION_AREALEVELDELTA_LIMIT",
    "value": [
      "10",
      "",
      "",
      "",
      "",
      ""
    ]
  },
  {
    "name": "CONST_VALUE_MODIFIER_MIN_PRESERVE_TIME",
    "value": [
      "5",
      "",
      "",
      "",
      "",
      ""
    ]
  },
  {
    "name": "CONST_VALUE_AREA_CHECK_CD",
    "value": [
      "6",
      "",
      "",
      "",
      "",
      ""
    ]
  },
  {
    "name": "CONST_VALUE_NICKNAME_MAX_LENGTH",
    "value": [
      "14",
      "6",
      "",
      "",
      "",
      ""
    ]
  },
  {
    "name": "CONST_VALUE_TEAMNAME_MAX_LENGTH",
    "value": [
      "16",
      "",
      "",
      "",
      "",
      ""
    ]
  },
  {
    "name": "CONST_VALUE_PORTAL_TRANSPORT_TIME",
    "value": [
      "5",
      "",
      "",
      "",
      "",
      ""
    ]
  },
  {
    "name": "CONST_VALUE_ENV_ANIMAL_REFRESH",
    "value": [
      "6",
      "40",
      "5",
      "5",
      "200",
      ""
    ]
  },
  {
    "name": "CONST_VALUE_ENV_ANIMAL_GROUP",
    "value": [
      "50",
      "6",
      "",
      "",
      "",
      ""
    ]
  },
  {
    "name": "CONST_VALUE_BUSH_DROP",
    "value": [
      "8",
      "4",
      "21010200",
      "6",
      "5",
      "300"
    ]
  },
  {
    "name": "CONST_VALUE_COOK_AUTO_QUALITY",
    "value": [
      "5",
      "10",
      "85",
      "",
      "",
      ""
    ]
  },
  {
    "name": "CONST_VALUE_COOK_QTE_PERFECT_RANGE_VALUE",
    "value": [
      "0.25",
      "0.5",
      "",
      "",
      "",
      ""
    ]
  },
  {
    "name": "CONST_VALUE_KILL_DROP_EXP_CONFIG",
    "value": [
      "100",
      "",
      "",
      "",
      "",
      ""
    ]
  },
  {
    "name": "CONST_VALUE_AVATAR_MAX_PROMOTE_LEVEL",
    "value": [
      "6",
      "",
      "",
      "",
      "",
      ""
    ]
  },
  {
    "name": "CONST_VALUE_VIOLIN_LIST",
    "value": [
      "100161",
      "100162",
      "100163",
      "",
      "",
      ""
    ]
  },
  {
    "name": "CONST_VALUE_FIREWORM_ESCAPE_PARMA",
    "value": [
      "3",
      "5",
      "2",
      "",
      "",
      ""
    ]
  },
  {
    "name": "CONST_VALUE_TIMEOUT_SECOND_PARMA",
    "value": [
      "5",
      "",
      "",
      "",
      "",
      ""
    ]
  },
  {
    "name": "CONST_VALUE_TIMEOUT_COUND_PARMA",
    "value": [
      "3",
      "",
      "",
      "",
      "",
      ""
    ]
  },
  {
    "name": "CONST_VALUE_MAIL_MAX_NUM",
    "value": [
      "1000",
      "1000",
      "",
      "",
      "",
      ""
    ]
  },
  {
    "name": "CONST_VALUE_RECORD_MONSTER_DIS",
    "value": [
      "15",
      "",
      "",
      "",
      "",
      ""
    ]
  },
  {
    "name": "CONST_VALUE_RECORD_MONSTER_ANGLE",
    "value": [
      "120",
      "",
      "",
      "",
      "",
      ""
    ]
  },
  {
    "name": "CONST_VALUE_COMPOUND_QUEUE_MAX_COUNT",
    "value": [
      "999",
      "",
      "",
      "",
      "",
      ""
    ]
  },
  {
    "name": "CONST_VALUE_WEAPON_AUTO_HIDE_TIME",
    "value": [
      "10",
      "",
      "",
      "",
      "",
      ""
    ]
  },
  {
    "name": "CONST_VALUE_WEAPON_LEVELUP_COST",
    "value": [
      "0.1",
      "0.1",
      "0.1",
      "0.1",
      "0.1",
      ""
    ]
  },
  {
    "name": "CONST_VALUE_RELIQUARY_LEVELUP_COST",
    "value": [
      "1",
      "1",
      "1",
      "1",
      "1",
      ""
    ]
  },
  {
    "name": "CONST_VALUE_AVATAR_UPGRADE_COST_RATIO",
    "value": [
      "0.2",
      "0.2",
      "0.2",
      "",
      "",
      ""
    ]
  },
  {
    "name": "CONST_VALUE_CLIMB_MIN_STAMINA",
    "value": [
      "5",
      "",
      "",
      "",
      "",
      ""
    ]
  },
  {
    "name": "CONST_VALUE_ELEMENT_SHOW_DISTANCE",
    "value": [
      "20",
      "",
      "",
      "",
      "",
      ""
    ]
  },
  {
    "name": "CONST_VALUE_QUESTGUIDE_SHOW_DISTANCE",
    "value": [
      "300",
      "",
      "",
      "",
      "",
      ""
    ]
  },
  {
    "name": "CONST_VALUE_LIMIT_QUALITY_ONDROP",
    "value": [
      "1",
      "",
      "",
      "",
      "",
      ""
    ]
  },
  {
    "name": "CONST_VALUE_STEER_MIN_ANGLE",
    "value": [
      "70",
      "",
      "",
      "",
      "",
      ""
    ]
  },
  {
    "name": "CONST_VALUE_MAP_WARNING_DISTANCE",
    "value": [
      "80",
      "",
      "",
      "",
      "",
      ""
    ]
  },
  {
    "name": "CONST_VALUE_MAP_WARNING_INTERVAL",
    "value": [
      "20",
      "",
      "",
      "",
      "",
      ""
    ]
  },
  {
    "name": "CONST_VALUE_AREA_LEVEL_WARNING_THR",
    "value": [
      "5",
      "",
      "",
      "",
      "",
      ""
    ]
  },
  {
    "name": "CONST_VALUE_DUNGEON_SHOW_LEVEL_LIMIT",
    "value": [
      "90",
      "",
      "",
      "",
      "",
      ""
    ]
  },
  {
    "name": "CONST_VALUE_ELEMENT_OVERLOAD_MAX",
    "value": [
      "1",
      "",
      "",
      "",
      "",
      ""
    ]
  },
  {
    "name": "CONST_VALUE_SUPERCONDUCTOR_DURABILITY",
    "value": [
      "1",
      "",
      "",
      "",
      "",
      ""
    ]
  },
  {
    "name": "CONST_VALUE_SWIRL_PARAM",
    "value": [
      "1",
      "1",
      "",
      "",
      "",
      ""
    ]
  },
  {
    "name": "CONST_VALUE_IS_MP_OPEN",
    "value": [
      "1",
      "",
      "",
      "",
      "",
      ""
    ]
  },
  {
    "name": "CONST_VALUE_CRASH_PARAM",
    "value": [
      "10",
      "0.4",
      "4.2",
      "2",
      "1,0.9,1",
      ""
    ]
  },
  {
    "name": "CONST_VALUE_ELEMENT_MASTERY_PARAM",
    "value": [
      "16.00",
      "2000",
      "2.78",
      "1400",
      "4.44",
      "1400"
    ]
  },
  {
    "name": "CONST_VALUE_ELEMENT_MASTERY_PARAM_OVERDOSE",
    "value": [
      "5",
      "1200",
      "",
      "",
      "",
      ""
    ]
  },
  {
    "name": "CONST_VALUE_MAX_DAMAGE_LOAN_BY_HP",
    "value": [
      "2",
      "",
      "",
      "",
      "",
      ""
    ]
  },
  {
    "name": "CONST_VALUE_DAILY_TASK_PARAM",
    "value": [
      "4",
      "4",
      "2010137",
      "4",
      "5",
      ""
    ]
  },
  {
    "name": "CONST_VALUE_DAILY_TASK_PARAM2",
    "value": [
      "5",
      "",
      "",
      "",
      "",
      ""
    ]
  },
  {
    "name": "CONST_VALUE_DAILY_TASK_OPEN_CUSTOM_POOL",
    "value": [
      "10106,10107,10204,21700",
      "",
      "",
      "",
      "",
      ""
    ]
  },
  {
    "name": "CONST_VALUE_NEXT_DAY",
    "value": [
      "4",
      "",
      "",
      "",
      "",
      ""
    ]
  },
  {
    "name": "CONST_VALUE_RAND_TASK_REFRESH_UPPER_LIMIT",
    "value": [
      "50",
      "",
      "",
      "",
      "",
      ""
    ]
  },
  {
    "name": "CONST_VALUE_RAND_TASK_COMP_PARAM",
    "value": [
      "1",
      "14",
      "60",
      "",
      "",
      ""
    ]
  },
  {
    "name": "CONST_VALUE_RAND_TASK_REFRESH_PARAM",
    "value": [
      "1",
      "3600",
      "7200",
      "50",
      "100",
      "10"
    ]
  },
  {
    "name": "CONST_VALUE_RAND_TASK_POS_PARAM",
    "value": [
      "60",
      "1.5",
      "2",
      "1.5",
      "2.5",
      ""
    ]
  },
  {
    "name": "CONST_VALUE_RAND_TASK_POINT_PARAM",
    "value": [
      "40",
      "80",
      "",
      "",
      "",
      ""
    ]
  },
  {
    "name": "CONST_VALUE_RAND_TASK_QEST_PARAM",
    "value": [
      "1",
      "3600",
      "102",
      "1000",
      "",
      ""
    ]
  },
  {
    "name": "CONST_VALUE_ENERGY_RECHANGE_RATIO",
    "value": [
      "1,1",
      "1,0.8",
      "1,0.7",
      "1,0.6",
      "",
      ""
    ]
  },
  {
    "name": "CONST_VALUE_DEFAULT_WORLD_ID",
    "value": [
      "1",
      "",
      "",
      "",
      "",
      ""
    ]
  },
  {
    "name": "CONST_VALUE_EXPEDITION_INIT_LIMIT",
    "value": [
      "2",
      "",
      "",
      "",
      "",
      ""
    ]
  },
  {
    "name": "CONST_VALUE_WORLD_LEVEL_FORMULA",
    "value": [
      "-15",
      "15",
      "60",
      "",
      "",
      ""
    ]
  },
  {
    "name": "CONST_VALUE_WEATHER_INTERVAL",
    "value": [
      "8",
      "",
      "",
      "",
      "",
      ""
    ]
  },
  {
    "name": "CONST_VALUE_AVATAR_COMBAT_FORCE_PARAM",
    "value": [
      "1,15,25,20000,10000,4000,40,14000,10000",
      "",
      "",
      "",
      "",
      ""
    ]
  },
  {
    "name": "CONST_VALUE_PLAYER_COMBAT_FORCE_PARAM",
    "value": [
      "5,3,1",
      "5,3,1",
      "5,3,1",
      "5,3,1",
      "5,3,1",
      "5,3,1"
    ]
  },
  {
    "name": "CONST_VALUE_CORE_PROUD_SKILL_MAX_LEVEL",
    "value": [
      "10",
      "",
      "",
      "",
      "",
      ""
    ]
  },
  {
    "name": "CONST_VALUE_INHERENT_PROUD_SKILL_MAX_LEVEL",
    "value": [
      "1",
      "",
      "",
      "",
      "",
      ""
    ]
  },
  {
    "name": "CONST_VALUE_ACTIVE_SKILL_MAX_LEVEL",
    "value": [
      "10",
      "",
      "",
      "",
      "",
      ""
    ]
  },
  {
    "name": "CONST_VALUE_AVATAR_COMBAT_FORCE_PARAM_V2",
    "value": [
      "1,18,20,15000,12000,20000,10000,25000,45,2",
      "",
      "",
      "",
      "",
      ""
    ]
  },
  {
    "name": "CONST_VALUE_DUNGEON_OEPN_QUEST",
    "value": [
      "20501",
      "20501",
      "2050103",
      "",
      "",
      ""
    ]
  },
  {
    "name": "CONST_VALUE_MP_CHAT_PARAM",
    "value": [
      "200",
      "80",
      "1",
      "8",
      "8",
      "60"
    ]
  },
  {
    "name": "CONST_VALUE_DUNGEON_CANDIDATE_INVITE_VAILD_TIME_SEC",
    "value": [
      "10",
      "",
      "",
      "",
      "",
      ""
    ]
  },
  {
    "name": "CONST_VALUE_SET_STRUGGLE_LEVEL_DIFFERENCE_THRESHOLD",
    "value": [
      "20",
      "",
      "",
      "",
      "",
      ""
    ]
  },
  {
    "name": "CONST_VALUE_DUNGEON_INVITE_NEED_TRANS_DISTANCE",
    "value": [
      "10",
      "",
      "",
      "",
      "",
      ""
    ]
  },
  {
    "name": "CONST_VALUE_PLAYER_LEVEL_REWARD_UNLOCK_PREVIEW_LIMIT",
    "value": [
      "5",
      "",
      "",
      "",
      "",
      ""
    ]
  },
  {
    "name": "CONST_VALUE_DROP_SUBFIELD_PARAM",
    "value": [
      "9999",
      "",
      "",
      "",
      "",
      ""
    ]
  },
  {
    "name": "CONST_VALUE_NPC_CONFLICT_DISTANCE",
    "value": [
      "200",
      "",
      "",
      "",
      "",
      ""
    ]
  },
  {
    "name": "CONST_VALUE_SEA_LAMP_ACTIVITY",
    "value": [
      "200004",
      "2000",
      "120",
      "120",
      "120",
      "70800017"
    ]
  },
  {
    "name": "CONST_VALUE_ACTIVITY",
    "value": [
      "7",
      "1000",
      "",
      "",
      "",
      ""
    ]
  },
  {
    "name": "CONST_VALUE_SEA_LAMP_PRAY_URL",
    "value": [
      "https://api-takumi.mihoyo.com/event/e20200203lantern/addbless?authkey_ver=1",
      "https://webstatic.mihoyo.com/ys/event/sealamp/index.html?fullscreen=1#/ingame",
      "https://api-os-takumi.mihoyo.com/event/e20200203lantern/addbless?authkey_ver=1",
      "https://webstatic-sea.mihoyo.com/ys/event/sealamp_os/index.html?fullscreen=1#/ingame",
      "",
      ""
    ]
  },
  {
    "name": "CONST_VALUE_SEA_LAMP_ACTIVITY2",
    "value": [
      "30000",
      "200004",
      "16001",
      "30001",
      "150",
      "151"
    ]
  },
  {
    "name": "CONST_VALUE_SEA_LAMP_QUEST",
    "value": [
      "40001",
      "40002",
      "40003",
      "40004",
      "40005",
      ""
    ]
  },
  {
    "name": "CONST_VALUE_RESIN_PARAM",
    "value": [
      "2000",
      "200",
      "8",
      "60",
      "50,100,100,150,200,200",
      ""
    ]
  },
  {
    "name": "CONST_VALUE_TOWER_DAILY_MAIL_ID",
    "value": [
      "1",
      "",
      "",
      "",
      "",
      ""
    ]
  },
  {
    "name": "CONST_VALUE_TOWER_MONTHLY_MAIL_ID",
    "value": [
      "2",
      "",
      "",
      "",
      "",
      ""
    ]
  },
  {
    "name": "CONST_VALUE_TOWER_OVERFLOW_FIRST_PASS",
    "value": [
      "3",
      "",
      "",
      "",
      "",
      ""
    ]
  },
  {
    "name": "CONST_VALUE_LIMIT_REGION_PATH",
    "value": [
      "47,FreshmeatRegion,48,GlobalOpenArea",
      "",
      "",
      "",
      "",
      ""
    ]
  },
  {
    "name": "CONST_VALUE_SEA_LAMP_ACTIVITY3",
    "value": [
      "-492.42,203.78,285.7",
      "-45",
      "0,0,2",
      "10",
      "",
      ""
    ]
  },
  {
    "name": "CONST_VALUE_DEFAULT_MATERIAL_GADGET_ID",
    "value": [
      "70600065",
      "",
      "",
      "",
      "",
      ""
    ]
  },
  {
    "name": "CONST_VALUE_DISTANCE_CHECK",
    "value": [
      "50",
      "900",
      "",
      "",
      "",
      ""
    ]
  },
  {
    "name": "CONST_VALUE_PROFICIENT_PLAYER_CHILD_QUEST",
    "value": [
      "35802",
      "",
      "",
      "",
      "",
      ""
    ]
  },
  {
    "name": "CONST_VALUE_GACHA_GUARANTEE_START_COEFFICIENT",
    "value": [
      "0.44",
      "",
      "",
      "",
      "",
      ""
    ]
  },
  {
    "name": "CONST_VALUE_GACHA_GUARANTEE_INCREASE_COEFFICIENT",
    "value": [
      "10",
      "",
      "",
      "",
      "",
      ""
    ]
  },
  {
    "name": "CONST_VALUE_GACHA_DYNAMIC_UP_BASE",
    "value": [
      "3",
      "",
      "",
      "",
      "",
      ""
    ]
  },
  {
    "name": "CONST_VALUE_GACHA_WISH_UP_PROB",
    "value": [
      "500",
      "",
      "",
      "",
      "",
      ""
    ]
  },
  {
    "name": "CONST_VALUE_QUEST_TRIAL_AVATAR_COMBAT_FORCE_CONVERT_RATIO",
    "value": [
      "0.9",
      "",
      "",
      "",
      "",
      ""
    ]
  },
  {
    "name": "CONST_VALUE_OUTPUT_LIMIT_SWITCH",
    "value": [
      "",
      "",
      "",
      "",
      "",
      ""
    ]
  },
  {
    "name": "CONST_VALUE_OUTPUT_CONTROL_SWITCH",
    "value": [
      "1",
      "",
      "",
      "",
      "",
      ""
    ]
  },
  {
    "name": "CONST_VALUE_FROMBACK_LIMITTIME",
    "value": [
      "5",
      "",
      "",
      "",
      "",
      ""
    ]
  },
  {
    "name": "CONST_VALUE_FROMBACK_LIMITRATIO",
    "value": [
      "2",
      "",
      "",
      "",
      "",
      ""
    ]
  },
  {
    "name": "CONST_VALUE_FROMBACK_RECONNECT_DURATION",
    "value": [
      "3",
      "",
      "",
      "",
      "",
      ""
    ]
  },
  {
    "name": "CONST_VALUE_RECONNECT_DELAY_BASE",
    "value": [
      "2.5",
      "",
      "",
      "",
      "",
      ""
    ]
  },
  {
    "name": "CONST_VALUE_FORCE_RECONNECT_DURATION",
    "value": [
      "30",
      "",
      "",
      "",
      "",
      ""
    ]
  },
  {
    "name": "CONST_VALUE_SOCIAL_CONFIG",
    "value": [
      "100",
      "50",
      "50",
      "10",
      "50",
      "10"
    ]
  },
  {
    "name": "CONST_VALUE_BATTLE_PASS_MISSION_REFRESH",
    "value": [
      "99",
      "",
      "",
      "",
      "",
      ""
    ]
  },
  {
    "name": "CONST_VALUE_PRODUCT_PARAM",
    "value": [
      "2020-04-26 19:00:00",
      "10",
      "1",
      "320000",
      "1724799600",
      ""
    ]
  },
  {
    "name": "CONST_VALUE_SATIATION_PARAM",
    "value": [
      "100",
      "0.3",
      "30",
      "",
      "",
      ""
    ]
  },
  {
    "name": "CONST_VALUE_MALL_LIMITTIMEPT_SHOWTIME",
    "value": [
      "14",
      "",
      "",
      "",
      "",
      ""
    ]
  },
  {
    "name": "CONST_VALUE_GAGDET_CREATION_LIMIT_DROP_TAG",
    "value": [
      "搜刮点解谜",
      "100",
      "",
      "",
      "",
      ""
    ]
  },
  {
    "name": "CONST_VALUE_LOADING_LIGHT_BG_PERIOD",
    "value": [
      "6",
      "18",
      "",
      "",
      "",
      ""
    ]
  },
  {
    "name": "CONST_VALUE_MOVE_SPEED_CHECK_PARAM",
    "value": [
      "1000",
      "40",
      "40",
      "40",
      "40",
      "40"
    ]
  },
  {
    "name": "CONST_VALUE_DEFAULT_FLYCLOAK_CONFIG",
    "value": [
      "140001",
      "",
      "",
      "",
      "",
      ""
    ]
  },
  {
    "name": "CONST_VALUE_ACTIVITY_CRUCIBLE_QUEST_ID",
    "value": [
      "40911",
      "",
      "",
      "",
      "",
      ""
    ]
  },
  {
    "name": "CONST_VALUE_MP_PLAY_CONFIG",
    "value": [
      "70330039",
      "",
      "",
      "",
      "",
      ""
    ]
  },
  {
    "name": "CONST_VALUE_REBATE_MAIL_ID",
    "value": [
      "8",
      "",
      "",
      "",
      "",
      ""
    ]
  },
  {
    "name": "CONST_VALUE_DEFAULT_NAME_CARD_ID",
    "value": [
      "210001",
      "",
      "",
      "",
      "",
      ""
    ]
  },
  {
    "name": "CONST_VALUE_CRUCIBLE_CONFIG",
    "value": [
      "900",
      "Fire,Water,Grass,Electric,Ice,Frozen,Wind,Rock,AntiFire",
      "",
      "",
      "",
      ""
    ]
  },
  {
    "name": "CONST_VALUE_BATTLEPASS_VIDEO_CONFIG",
    "value": [
      "battlePass.usm",
      "300015",
      "",
      "",
      "",
      ""
    ]
  },
  {
    "name": "CONST_VALUE_MATERIAL_DESTROY_RETURN_MATERIAL_LIMIT",
    "value": [
      "9",
      "",
      "",
      "",
      "",
      ""
    ]
  },
  {
    "name": "CONST_VALUE_BATTLE_PASS_ITEM_USE_CONFIG",
    "value": [
      "20",
      "",
      "",
      "",
      "",
      ""
    ]
  },
  {
    "name": "CONST_VALUE_PERSONAL_LINE_CONFIG",
    "value": [
      "3",
      "8",
      "",
      "",
      "",
      ""
    ]
  },
  {
    "name": "CONST_VALUE_RTT_LOW",
    "value": [
      "100",
      "#A6FF55FF",
      "",
      "",
      "",
      ""
    ]
  },
  {
    "name": "CONST_VALUE_RTT_MID",
    "value": [
      "200",
      "#FFE14BFF",
      "",
      "",
      "",
      ""
    ]
  },
  {
    "name": "CONST_VALUE_RTT_HIGH",
    "value": [
      "999",
      "#FF8080FF",
      "",
      "",
      "",
      ""
    ]
  },
  {
    "name": "CONST_VALUE_RTT_REFRESH_TIME",
    "value": [
      "1",
      "",
      "",
      "",
      "",
      ""
    ]
  },
  {
    "name": "CONST_VALUE_SPEECH_BUBBLE_DEFAULT_DURATION",
    "value": [
      "2",
      "",
      "",
      "",
      "",
      ""
    ]
  },
  {
    "name": "CONST_VALUE_SPEECH_BUBBLE_EXTRA_DURATION",
    "value": [
      "0.5",
      "",
      "",
      "",
      "",
      ""
    ]
  },
  {
    "name": "CONST_VALUE_FORGE_POINT_DAY_LIMIT",
    "value": [
      "300000",
      "",
      "",
      "",
      "",
      ""
    ]
  },
  {
    "name": "CONST_VALUE_FIRST_SHARE_REWARD",
    "value": [
      "240001",
      "",
      "",
      "",
      "",
      ""
    ]
  },
  {
    "name": "CONST_VALUE_POINT_CARD_RECHARGE",
    "value": [
      "hk4e_glb_pointcard_tierx",
      "1",
      "1",
      "",
      "",
      ""
    ]
  },
  {
    "name": "CONST_VALUE_MATERIAL_ITEM_LIMIT",
    "value": [
      "2000",
      "2400",
      "1800",
      "",
      "",
      ""
    ]
  },
  {
    "name": "CONST_VALUE_RELIQUARY_ITEM_LIMIT",
    "value": [
      "1800",
      "2000",
      "",
      "",
      "",
      ""
    ]
  },
  {
    "name": "CONST_VALUE_WEAPON_ITEM_LIMIT",
    "value": [
      "2000",
      "2400",
      "",
      "",
      "",
      ""
    ]
  },
  {
    "name": "CONST_VALUE_FURNITURE_ITEM_LIMIT",
    "value": [
      "2200",
      "2600",
      "",
      "",
      "",
      ""
    ]
  },
  {
    "name": "CONST_VALUE_MAP_MARK_MAX_LENGTH",
    "value": [
      "100",
      "",
      "",
      "",
      "",
      ""
    ]
  },
  {
    "name": "CONST_VALUE_EXPLORE",
    "value": [
      "4",
      "",
      "",
      "",
      "",
      ""
    ]
  },
  {
    "name": "CONST_VALUE_GUIDE_RATING_CHAPTERID",
    "value": [
      "2003",
      "",
      "",
      "",
      "",
      ""
    ]
  },
  {
    "name": "CONST_VALUE_PS4_TROPHY_SWITCH",
    "value": [
      "1",
      "1",
      "",
      "",
      "",
      ""
    ]
  },
  {
    "name": "CONST_VALUE_REMINDER_INTERRUPT_SHOW_DELAY",
    "value": [
      "1",
      "",
      "",
      "",
      "",
      ""
    ]
  },
  {
    "name": "CONST_VALUE_UPGRADE_WEAPON_RETURN_MATERIAL_ID",
    "value": [
      "104013",
      "104012",
      "104011",
      "",
      "",
      ""
    ]
  },
  {
    "name": "CONST_VALUE_CITY_REPUTATION_PARAM",
    "value": [
      "12",
      "3",
      "AbilityGroup_Reputation_Hunting",
      "4043",
      "",
      ""
    ]
  },
  {
    "name": "CONST_VALUE_HUNTING_REVISE_LEVEL",
    "value": [
      "0",
      "0",
      "0",
      "",
      "",
      ""
    ]
  },
  {
    "name": "CONST_VALUE_REPORT_PARAM",
    "value": [
      "250",
      "5",
      "300",
      "5",
      "300",
      ""
    ]
  },
  {
    "name": "CONST_VALUE_DRAGON_SPINE_CONFIG",
    "value": [
      "11413",
      "",
      "",
      "",
      "",
      ""
    ]
  },
  {
    "name": "CONST_VALUE_DUNGEON_RESTART_INVITE_VAILD_TIME_SEC",
    "value": [
      "10",
      "",
      "",
      "",
      "",
      ""
    ]
  },
  {
    "name": "CONST_VALUE_TOWER_RESET",
    "value": [
      "7",
      "3",
      "6",
      "9",
      "",
      ""
    ]
  },
  {
    "name": "CONST_VALUE_ELEMENT_TRIAL_MARK_SHOW_LEVEL_LIMIT",
    "value": [
      "20",
      "",
      "",
      "",
      "",
      ""
    ]
  },
  {
    "name": "CONST_VALUE_SNOW_MOUNTAIN_ROUTINE",
    "value": [
      "209",
      "2",
      "",
      "",
      "",
      ""
    ]
  },
  {
    "name": "CONST_VALUE_REUNION_PARAM",
    "value": [
      "45",
      "14",
      "14",
      "",
      "",
      ""
    ]
  },
  {
    "name": "CONST_VALUE_ANTI_HARASSMENT_CONFIG",
    "value": [
      "10",
      "50",
      "17",
      "0",
      "200",
      ""
    ]
  },
  {
    "name": "CONST_VALUE_DIE_INVINCIBLE_CONFIG",
    "value": [
      "5000",
      "",
      "",
      "",
      "",
      ""
    ]
  },
  {
    "name": "CONST_VALUE_GRASS_TILE_ELEMENT_REACTION_POS_OFFSET",
    "value": [
      "0.8",
      "",
      "",
      "",
      "",
      ""
    ]
  },
  {
    "name": "CONST_VALUE_ASK_ADD_FRIEND_FREQUENCY_CONFIG",
    "value": [
      "20",
      "1",
      "100",
      "5",
      "",
      ""
    ]
  },
  {
    "name": "CONST_VALUE_CHAT_PARAM",
    "value": [
      "4",
      "3",
      "",
      "",
      "",
      ""
    ]
  },
  {
    "name": "CONST_VALUE_MIRACLE_RING_CD",
    "value": [
      "597600",
      "",
      "",
      "",
      "",
      ""
    ]
  },
  {
    "name": "CONST_VALUE_MIRACLE_RING_DROP_COUNT",
    "value": [
      "5",
      "",
      "",
      "",
      "",
      ""
    ]
  },
  {
    "name": "CONST_VALUE_MIRACLE_RING_DELIVER_VALUE",
    "value": [
      "150",
      "",
      "",
      "",
      "",
      ""
    ]
  },
  {
    "name": "CONST_VALUE_BLESSING_CONFIG",
    "value": [
      "7",
      "200030001",
      "8",
      "30601",
      "30602",
      "30603"
    ]
  },
  {
    "name": "CONST_VALUE_MIRACLE_RING_RANDOM_DROP_PROB",
    "value": [
      "0.5",
      "",
      "",
      "",
      "",
      ""
    ]
  },
  {
    "name": "CONST_VALUE_MIRACLE_RING_ITEM_ADD_PACK",
    "value": [
      "104001,104002,104003,104011,104012,104013",
      "",
      "",
      "",
      "",
      ""
    ]
  },
  {
    "name": "CONST_VALUE_MP_REWARD_RESERVED_TIME_CONFIG",
    "value": [
      "30",
      "",
      "",
      "",
      "",
      ""
    ]
  },
  {
    "name": "CONST_VALUE_ACTIVITY_MONSTER_BANNER_DRAKE_PRIMO_ROCK",
    "value": [
      "71022",
      "23",
      "15160",
      "",
      "",
      ""
    ]
  },
  {
    "name": "CONST_VALUE_MECHANICUS_ROTATION_PARAM",
    "value": [
      "180",
      "90",
      "-180",
      "90",
      "",
      ""
    ]
  },
  {
    "name": "CONST_VALUE_SHOP_OUTPUT_SWITCH",
    "value": [
      "1",
      "1",
      "",
      "",
      "",
      ""
    ]
  },
  {
    "name": "CONST_VALUE_MECHANICUS_CARD_PARAM",
    "value": [
      "1",
      "1",
      "2",
      "6",
      "100",
      ""
    ]
  },
  {
    "name": "CONST_VALUE_FORCE_DRAG_BACK_PARAM",
    "value": [
      "10",
      "20",
      "",
      "",
      "",
      ""
    ]
  },
  {
    "name": "CONST_VALUE_MUIP_MAIL_REWARD_LIMIT",
    "value": [
      "2000",
      "1000000",
      "223:10,224:10",
      "1",
      "1",
      "1"
    ]
  },
  {
    "name": "CONST_VALUE_ACTIVITY_WATER_SPRITE_PARA",
    "value": [
      "120",
      "31001",
      "1",
      "41421",
      "41422",
      "220023"
    ]
  },
  {
    "name": "CONST_VALUE_WORLD_LEVEL_ADJUST",
    "value": [
      "2",
      "24",
      "1",
      "",
      "",
      ""
    ]
  },
  {
    "name": "CONST_VALUE_NECHANICUS_OPEN_QUESTID",
    "value": [
      "41311",
      "",
      "",
      "",
      "",
      ""
    ]
  },
  {
    "name": "CONST_VALUE_ARENA_CHALLENGE_REWARD_WORKTOP",
    "value": [
      "3",
      "133209029",
      "29001",
      "0",
      "201",
      ""
    ]
  },
  {
    "name": "CONST_VALUE_ACTIVITY_WATER_SPRITE_PARA_SECONDPART",
    "value": [
      "4142205",
      "4",
      "9004",
      "10010101,10010102,10010103,10010104,10010105",
      "1,2,3,4,5",
      "10010102,4142110"
    ]
  },
  {
    "name": "CONST_VALUE_COOP_QUESTID_INTERVAL",
    "value": [
      "19000",
      "19999",
      "",
      "",
      "",
      ""
    ]
  },
  {
    "name": "CONST_VALUE_MULTI_PLAY_FETTER_EXP_RATIO",
    "value": [
      "2",
      "",
      "",
      "",
      "",
      ""
    ]
  },
  {
    "name": "CONST_VALUE_ROOM_MINIMAP_DEFAULT_SCALE",
    "value": [
      "3",
      "",
      "",
      "",
      "",
      ""
    ]
  },
  {
    "name": "CONST_VALUE_ACTIVITY_EFFIGY_ICE",
    "value": [
      "70143",
      "70141",
      "25",
      "15170",
      "",
      ""
    ]
  },
  {
    "name": "CONST_VALUE_ACTIVITY_HOMEWORLD",
    "value": [
      "11008",
      "31201",
      "5027",
      "",
      "",
      ""
    ]
  },
  {
    "name": "CONST_VALUE_WEEKLY_BOSS_RESIN_DISCOUNT_PARAM",
    "value": [
      "3",
      "0.5",
      "3:133002259",
      "",
      "",
      ""
    ]
  },
  {
    "name": "CONST_VALUE_BUSH_DROP_CACHA_NUM",
    "value": [
      "10",
      "",
      "",
      "",
      "",
      ""
    ]
  },
  {
    "name": "CONST_VALUE_GENERAL_MATCH",
    "value": [
      "2",
      "20",
      "",
      "",
      "",
      ""
    ]
  },
  {
    "name": "CONST_VALUE_CAN_NOT_DESTROY_MATERIAL_TYPE_LIST",
    "value": [
      "假吸附物;吸附物;角色卡;命星;宝箱;任务物品;蛐蛐;元素结晶;可批量使用宝箱;可选宝箱;海灯节花灯;导能原盘buff;名片;小功能道具;时装卡;家具套装图纸;家具图纸",
      "",
      "",
      "",
      "",
      ""
    ]
  },
  {
    "name": "CONST_VALUE_SKIFF_SPRINT_COST_STAMINA",
    "value": [
      "1",
      "",
      "",
      "",
      "",
      ""
    ]
  },
  {
    "name": "CONST_VALUE_SKIFF_DASH_COST_STAMINA",
    "value": [
      "10.2",
      "",
      "",
      "",
      "",
      ""
    ]
  },
  {
    "name": "CONST_VALUE_DEFAULT_COSTUME_ICON",
    "value": [
      "UI_AvatarIcon_Costume_Card",
      "",
      "",
      "",
      "",
      ""
    ]
  },
  {
    "name": "CONST_VALUE_PYRO_REGISVINE_FLASH_EFFECT_PARAMS",
    "value": [
      "1;-2,3,-3;-6:0,3:10,4:50,5:250,6:1000",
      "2;-3,3,-5;-5:0,2:10,5:50,6:250,7:1000",
      "3;-4,4,-5;-4:0,2:10,4:50,6:50,8:1000",
      "",
      "",
      ""
    ]
  },
  {
    "name": "CONST_VALUE_BATTLEPASS_PURCHASE_ABOUT_TO_CLOSE_THRESHOLD",
    "value": [
      "1440",
      "",
      "",
      "",
      "",
      ""
    ]
  },
  {
    "name": "CONST_VALUE_BATTLEPASS_PURCHASE_CLOSE_AHEAD_MINUTES",
    "value": [
      "60",
      "",
      "",
      "",
      "",
      ""
    ]
  },
  {
    "name": "CONST_VALUE_VEHICLE_CONFIG",
    "value": [
      "30",
      "5",
      "1",
      "50",
      "10",
      ""
    ]
  },
  {
    "name": "CONST_VALUE_GATHER_SAVETYPE_TO_GATHERID",
    "value": [
      "990000",
      "990010",
      "990020",
      "990030",
      "",
      ""
    ]
  },
  {
    "name": "CONST_VALUE_MAP_MARK_PARAM",
    "value": [
      "3",
      "250",
      "",
      "",
      "",
      ""
    ]
  },
  {
    "name": "CONST_VALUE_ACTIVITY_DAOQI_ADVERTISEMENT",
    "value": [
      "1201",
      "",
      "",
      "",
      "",
      ""
    ]
  },
  {
    "name": "CONST_VALUE_MECHANICUS_2_ATTACK",
    "value": [
      "8000",
      "2000",
      "SGV_AttackDamageLevel",
      "",
      "",
      ""
    ]
  },
  {
    "name": "CONST_VALUE_MECHANICUS_2_MASTERY",
    "value": [
      "0",
      "75",
      "SGV_ElementMasteryLevel",
      "",
      "",
      ""
    ]
  },
  {
    "name": "CONST_VALUE_MECHANICUS_2_ATTACK_SPEED",
    "value": [
      "0.2",
      "",
      "",
      "",
      "",
      ""
    ]
  },
  {
    "name": "CONST_VALUE_MECHANICUS_2_ALERT_RANGE",
    "value": [
      "8",
      "2",
      "",
      "",
      "",
      ""
    ]
  },
  {
    "name": "CONST_VALUE_CONDENSE_RESINRE_PLACE_RESIN_COUNT",
    "value": [
      "220007",
      "20",
      "",
      "",
      "",
      ""
    ]
  },
  {
    "name": "CONST_VALUE_BLOSSOM_BAG_REWARD_RADIUS",
    "value": [
      "80",
      "",
      "",
      "",
      "",
      ""
    ]
  },
  {
    "name": "CONST_VALUE_CHESS_CARD_CONFIG",
    "value": [
      "0.5",
      "0.2",
      "12:0,14:0,15:0;12:102,1:0,3:0;69:0,4:0,6:0",
      "",
      "",
      ""
    ]
  },
  {
    "name": "CONST_VALUE_PSN_SOCIAL_CONFIG",
    "value": [
      "50",
      "300",
      "",
      "",
      "",
      ""
    ]
  },
  {
    "name": "CONST_VALUE_EMOJI_COLLECT_NUM_LIMIT",
    "value": [
      "32",
      "",
      "",
      "",
      "",
      ""
    ]
  },
  {
    "name": "CONST_VALUE_ACTIVITY_EFFIGY_FIRE",
    "value": [
      "1202",
      "2013",
      "27",
      "",
      "",
      ""
    ]
  },
  {
    "name": "CONST_VALUE_CHESS_PARAMS",
    "value": [
      "0.6",
      "",
      "",
      "",
      "",
      ""
    ]
  },
  {
    "name": "CONST_VALUE_ACTIVITY_EXPEDITION_2_PARAMS",
    "value": [
      "3",
      "60,80",
      "",
      "",
      "",
      ""
    ]
  },
  {
    "name": "CONST_VALUE_GENSHIN_RELEASE_TIME",
    "value": [
      "1601258340",
      "",
      "",
      "",
      "",
      ""
    ]
  },
  {
    "name": "CONST_VALUE_HOME_SUITE_FURNITURE_ID",
    "value": [
      "377101",
      "",
      "",
      "",
      "",
      ""
    ]
  },
  {
    "name": "CONST_VALUE_FISHING",
    "value": [
      "10",
      "10",
      "30",
      "50",
      "1",
      ""
    ]
  },
  {
    "name": "CONST_VALUE_CUSTOM_GADGET_PARTS_MAX_NUM",
    "value": [
      "20",
      "",
      "",
      "",
      "",
      ""
    ]
  },
  {
    "name": "CONST_VALUE_MINORS_GACHA_PARAM",
    "value": [
      "999999999",
      "0",
      "",
      "",
      "",
      ""
    ]
  },
  {
    "name": "CONST_VALUE_COLLECTIBLE_MAIL_PARAM",
    "value": [
      "1641337200",
      "300",
      "201,202,203,223,224,140002,1062,15415,140003,11412",
      "",
      "",
      ""
    ]
  },
  {
    "name": "CONST_VALUE_SHARECD_SERVER_BUFFER_TIME",
    "value": [
      "1000",
      "",
      "",
      "",
      "",
      ""
    ]
  },
  {
    "name": "CONST_VALUE_CUSTOM_DUNGEON_RECOMMEND_1",
    "value": [
      "600;100",
      "200;1000",
      "200;200",
      "200;100",
      "400",
      ""
    ]
  },
  {
    "name": "CONST_VALUE_CUSTOM_DUNGEON_RECOMMEND_2",
    "value": [
      "600;100",
      "200;1000",
      "200;200",
      "200;100",
      "400",
      ""
    ]
  },
  {
    "name": "CONST_VALUE_CUSTOM_DUNGEON_RECOMMEND_FILT",
    "value": [
      "20",
      "1",
      "6",
      "4",
      "4",
      "600"
    ]
  },
  {
    "name": "CONST_VALUE_CUSTOMLEVEL_CUSTOMSUITE_BLOCK_MAX_NUM",
    "value": [
      "100",
      "",
      "",
      "",
      "",
      ""
    ]
  },
  {
    "name": "CONST_VALUE_CUSTOM_DUNGEON",
    "value": [
      "50",
      "4",
      "",
      "",
      "",
      ""
    ]
  },
  {
    "name": "CONST_VALUE_CODEX_GUIDE_PAPAM",
    "value": [
      "29",
      "5",
      "",
      "",
      "",
      ""
    ]
  },
  {
    "name": "CONST_VALUE_GADGET_INTERACT_CHECK_DISTANCE",
    "value": [
      "5",
      "",
      "",
      "",
      "",
      ""
    ]
  },
  {
    "name": "CONST_VALUE_DEFAULT_WEATHER_AREA_ID",
    "value": [
      "1000",
      "",
      "",
      "",
      "",
      ""
    ]
  },
  {
    "name": "CONST_VALUE_PACKET_LOSS_WARNING_THRESHOLD",
    "value": [
      "50",
      "",
      "",
      "",
      "",
      ""
    ]
  },
  {
    "name": "CONST_VALUE_PACKET_LOSS_WARNING_INTERVAL",
    "value": [
      "60000",
      "",
      "",
      "",
      "",
      ""
    ]
  },
  {
    "name": "CONST_VALUE_ACHIEVEMENT_SEARCH_PATTERN_LIMIT",
    "value": [
      "100",
      "",
      "",
      "",
      "",
      ""
    ]
  },
  {
    "name": "CONST_VALUE_FOOD_FILTER_SEARCH_PATTERN_LIMIT",
    "value": [
      "100",
      "",
      "",
      "",
      "",
      ""
    ]
  },
  {
    "name": "CONST_VALUE_NIGHT_CROW_CONFIG",
    "value": [
      "101",
      "0",
      "0.5,0.5,0.5",
      "0.3,0.3,0.3",
      "0.4,0.4,0.4",
      "102"
    ]
  },
  {
    "name": "CONST_VALUE_HANDBOOK_QUEST_GUIDE_MAX_NUM",
    "value": [
      "5",
      "",
      "",
      "",
      "",
      ""
    ]
  },
  {
    "name": "CONST_VALUE_DEATH_ZONE_PARAM",
    "value": [
      "100",
      "10",
      "",
      "",
      "",
      ""
    ]
  },
  {
    "name": "CONST_VALUE_SUMMER_TIME_PORTAL_LOADING",
    "value": [
      "1",
      "1",
      "",
      "",
      "",
      ""
    ]
  },
  {
    "name": "CONST_VALUE_COMPOUND_BOOST_ITEM_ID",
    "value": [
      "220060",
      "",
      "",
      "",
      "",
      ""
    ]
  },
  {
    "name": "CONST_VALUE_COMPOUND_BOOST_TIME_TOLERANCE",
    "value": [
      "1",
      "",
      "",
      "",
      "",
      ""
    ]
  },
  {
    "name": "CONST_VALUE_ACHIEVEMENT_SEARCH_LIMIT",
    "value": [
      "0,3,1,1,3,3,3,3,3,2,2,4,3,3,0,0",
      "",
      "",
      "",
      "",
      ""
    ]
  },
  {
    "name": "CONST_VALUE_NAHIDA_NARRATOR",
    "value": [
      "1000",
      "3",
      "",
      "",
      "",
      ""
    ]
  },
  {
    "name": "CONST_VALUE_ACHIEVEMENT_RESULT_AMOUNT_PER_PAGE",
    "value": [
      "30",
      "",
      "",
      "",
      "",
      ""
    ]
  },
  {
    "name": "CONST_VALUE_REQ_FRIEND_AVATAR_TIME_LIMIT",
    "value": [
      "1000",
      "",
      "",
      "",
      "",
      ""
    ]
  },
  {
    "name": "CONST_VALUE_DAILY_TASK_RELATED_TAG_EFFECT_PROB",
    "value": [
      "0.15",
      "",
      "",
      "",
      "",
      ""
    ]
  },
  {
    "name": "CONST_VALUE_AVATAR_RENAME_AUTO_FAIL_HOUR",
    "value": [
      "24",
      "",
      "",
      "",
      "",
      ""
    ]
  },
  {
    "name": "CONST_VALUE_AVATAR_RENAME_COOL_DOWM",
    "value": [
      "1",
      "1440",
      "3",
      "10080",
      "",
      ""
    ]
  },
  {
    "name": "CONST_VALUE_NAHIDA_DUNGEON_MASK",
    "value": [
      "3",
      "1.5",
      "1.5",
      "",
      "",
      ""
    ]
  },
  {
    "name": "CONST_VALUE_EXCHANGE_CODE_BUTTON_COOL_DOWN",
    "value": [
      "5.0",
      "",
      "",
      "",
      "",
      ""
    ]
  },
  {
    "name": "CONST_VALUE_DESHRET_MANUAL_MAXLEVEL_ICON",
    "value": [
      "UI_ItemIcon_220069b",
      "",
      "",
      "",
      "",
      ""
    ]
  },
  {
    "name": "CONST_VALUE_GADGET_NAHIDA_INTERACT_CHECK_DISTANCE",
    "value": [
      "40",
      "",
      "",
      "",
      "",
      ""
    ]
  },
  {
    "name": "CONST_VALUE_MAIL_STAR_FREQ_CONTROL_PARAM",
    "value": [
      "5000",
      "10",
      "",
      "",
      "",
      ""
    ]
  },
  {
    "name": "CONST_VALUE_VANASARA_OFFERING_MAX_CUTSCENE",
    "value": [
      "116",
      "117",
      "",
      "",
      "",
      ""
    ]
  },
  {
    "name": "CONST_VALUE_VANASARA_OFFERING_LEVEL_TAG_SWITCH_ABILITY",
    "value": [
      "SceneObj_Area_Xm_Property_Prop_XMOfferingTree_01_Ability",
      "ReconnectProtect",
      "",
      "",
      "",
      ""
    ]
  },
  {
    "name": "CONST_VALUE_TALK_AVATAR_SIT_MAX_DISTANCE",
    "value": [
      "10",
      "",
      "",
      "",
      "",
      ""
    ]
  },
  {
    "name": "CONST_VALUE_QUEST_NAVIGATION_OPEN_MAP_THRESHOLD",
    "value": [
      "150",
      "",
      "",
      "",
      "",
      ""
    ]
  },
  {
    "name": "CONST_VALUE_QUEST_NEARBY_AUTO_HINT_IN_DISTANCE",
    "value": [
      "100",
      "",
      "",
      "",
      "",
      ""
    ]
  },
  {
    "name": "CONST_VALUE_QUEST_NEARBY_AUTO_HINT_OUT_DISTANCE",
    "value": [
      "120",
      "",
      "",
      "",
      "",
      ""
    ]
  },
  {
    "name": "CONST_VALUE_QUEST_NEARBY_AUTO_HINT_RADIUS_EXTEND_IN_DISTANCE",
    "value": [
      "30",
      "",
      "",
      "",
      "",
      ""
    ]
  },
  {
    "name": "CONST_VALUE_QUEST_NEARBY_AUTO_HINT_RADIUS_EXTEND_OUT_DISTANCE",
    "value": [
      "50",
      "",
      "",
      "",
      "",
      ""
    ]
  },
  {
    "name": "CONST_VALUE_ROLLER_COASTER_DISABLE_LEAVE_TIPS",
    "value": [
      "PENUMBRA_CHALLENGE",
      "PENUMBRA_CASTLE",
      "PENUMBRA_MURAL",
      "",
      "",
      ""
    ]
  },
  {
    "name": "CONST_VALUE_ENTITY_ENVIRONMENT_TYPE_GV_KEYS",
    "value": [
      "GV_EnvironmentType",
      "SGV_EnvironmentType",
      "",
      "",
      "",
      ""
    ]
  },
  {
    "name": "CONST_VALUE_FISH_MARK_SCENE_POINT_LIST",
    "value": [
      "3:391,400,401,528,1042",
      "",
      "",
      "",
      "",
      ""
    ]
  },
  {
    "name": "CONST_VALUE_QUEST_SPAWN_WARNING_COUNT",
    "value": [
      "30",
      "",
      "",
      "",
      "",
      ""
    ]
  },
  {
    "name": "CONST_VALUE_QUEST_SPAWN_ERROR_COUNT",
    "value": [
      "50",
      "",
      "",
      "",
      "",
      ""
    ]
  },
  {
    "name": "CONST_VALUE_DIRTY_WATER_PARAM",
    "value": [
      "100",
      "821",
      "",
      "",
      "",
      ""
    ]
  },
  {
    "name": "CONST_VALUE_WISHING_POND_OFFERING_LEVEL_TAG_SWITCH_ABILITY",
    "value": [
      "SceneObj_Area_Fd_Property_Prop_WishingPond_01",
      "ReconnectProtect",
      "",
      "",
      "",
      ""
    ]
  },
  {
    "name": "CONST_VALUE_WISP_CAGE_STANDARD_DELIVER_VALUE",
    "value": [
      "300",
      "",
      "",
      "",
      "",
      ""
    ]
  },
  {
    "name": "CONST_VALUE_WISP_CAGE_USE_CD",
    "value": [
      "10",
      "",
      "",
      "",
      "",
      ""
    ]
  },
  {
    "name": "CONST_VALUE_WISP_CAGE_COLLECT_TIME",
    "value": [
      "604800",
      "",
      "",
      "",
      "",
      ""
    ]
  },
  {
    "name": "CONST_VALUE_WISP_CAGE_DELIVERY_ICON",
    "value": [
      "UI_BtnIcon_WispCage",
      "",
      "",
      "",
      "",
      ""
    ]
  },
  {
    "name": "CONST_VALUE_DIVE_STAMINA_LIMIT",
    "value": [
      "120",
      "",
      "",
      "",
      "",
      ""
    ]
  },
  {
    "name": "CONST_VALUE_DIVE_DASH_COST_STAMINA_PER_SECOND",
    "value": [
      "5",
      "",
      "",
      "",
      "",
      ""
    ]
  },
  {
    "name": "CONST_VALUE_DIVE_SWIM_DASH_COST_STAMINA_PER_SECOND",
    "value": [
      "5",
      "",
      "",
      "",
      "",
      ""
    ]
  },
  {
    "name": "CONST_VALUE_DIVE_DASH_BS_COST_STAMINA",
    "value": [
      "5",
      "",
      "",
      "",
      "",
      ""
    ]
  },
  {
    "name": "CONST_VALUE_DIVE_SWIM_DASH_BS_COST_STAMINA",
    "value": [
      "5",
      "",
      "",
      "",
      "",
      ""
    ]
  },
  {
    "name": "CONST_VALUE_DIVE_STAMINA_RECOVER_VALUE_PER_SECOND",
    "value": [
      "20",
      "",
      "",
      "",
      "",
      ""
    ]
  },
  {
    "name": "CONST_VALUE_DIVE_STAMINA_RECOVER_WAIT_TIME",
    "value": [
      "1",
      "",
      "",
      "",
      "",
      ""
    ]
  },
  {
    "name": "CONST_VALUE_IGNORE_TALENT_MODIFIER_CHECK_SECOND_AFTER_CHANGE_SCENE_TEAM",
    "value": [
      "3",
      "",
      "",
      "",
      "",
      ""
    ]
  },
  {
    "name": "CONST_VALUE_PLAYER_DIVE_PICKUP_RADIUS",
    "value": [
      "4",
      "",
      "",
      "",
      "",
      ""
    ]
  },
  {
    "name": "CONST_VALUE_PLAYER_DIVE_PICKUP_HEIGHT",
    "value": [
      "6",
      "",
      "",
      "",
      "",
      ""
    ]
  },
  {
    "name": "CONST_VALUE_HP_DEBTS_DURATION",
    "value": [
      "600",
      "",
      "",
      "",
      "",
      ""
    ]
  },
  {
    "name": "CONST_VALUE_HP_DEBTS_HEAL_PAY_RATE",
    "value": [
      "1",
      "",
      "",
      "",
      "",
      ""
    ]
  },
  {
    "name": "CONST_VALUE_HP_DEBTS_MAX_RATE",
    "value": [
      "2",
      "",
      "",
      "",
      "",
      ""
    ]
  },
  {
    "name": "CONST_VALUE_OCEAN_CURVE_SAFE_STOP_RANGE",
    "value": [
      "7",
      "",
      "",
      "",
      "",
      ""
    ]
  },
  {
    "name": "CONST_VALUE_QUEST_JUSTICE_MALE_PLAYER_ICON",
    "value": [
      "UI_AvatarIcon_PlayerBoy",
      "",
      "",
      "",
      "",
      ""
    ]
  },
  {
    "name": "CONST_VALUE_QUEST_JUSTICE_FEMALE_PLAYER_ICON",
    "value": [
      "UI_AvatarIcon_PlayerGirl",
      "",
      "",
      "",
      "",
      ""
    ]
  },
  {
    "name": "CONST_VALUE_RED_POINT_SERVER_STORAGE_LIMIT",
    "value": [
      "100",
      "",
      "",
      "",
      "",
      ""
    ]
  },
  {
    "name": "CONST_VALUE_REUNION_RECOMMEND_QUEST_NUM_LIMIT",
    "value": [
      "1",
      "",
      "",
      "",
      "",
      ""
    ]
  },
  {
    "name": "CONST_VALUE_REUNION_RECOMMEND_AVATAR_NUM_LIMIT",
    "value": [
      "2",
      "",
      "",
      "",
      "",
      ""
    ]
  },
  {
    "name": "CONST_VALUE_NPC_RAYCAST_LENGTH",
    "value": [
      "0.9",
      "0",
      "",
      "",
      "",
      ""
    ]
  },
  {
    "name": "CONST_VALUE_BATCH_LOCK_EQUIP_CD",
    "value": [
      "3",
      "",
      "",
      "",
      "",
      ""
    ]
  },
  {
    "name": "CONST_VALUE_WEAR_EQUIP_AVATAR_PREVIEW_CD",
    "value": [
      "3",
      "",
      "",
      "",
      "",
      ""
    ]
  },
  {
    "name": "CONST_VALUE_WEAR_EQUIP_BATCH_CD",
    "value": [
      "3",
      "",
      "",
      "",
      "",
      ""
    ]
  },
  {
    "name": "CONST_VALUE_RELIC_QUICK_EQUIP_CONFIG_CAL_WEIGHTS",
    "value": [
      "100",
      "5",
      "2",
      "",
      "",
      ""
    ]
  },
  {
    "name": "CONST_VALUE_WEAR_EQUIP_SELECT_NUM_LIMIT",
    "value": [
      "3",
      "2",
      "3",
      "3",
      "",
      ""
    ]
  },
  {
    "name": "CONST_VALUE_WIDGET_INSTRUMENT_USE_CHECK_CD",
    "value": [
      "0.1",
      "",
      "",
      "",
      "",
      ""
    ]
  },
  {
    "name": "CONST_VALUE_WEAPON_UPGRADE_ITEM_NUM_LIMIT",
    "value": [
      "40",
      "",
      "",
      "",
      "",
      ""
    ]
  },
  {
    "name": "CONST_VALUE_RELIQUARY_UPGRADE_ITEM_NUM_LIMIT",
    "value": [
      "15",
      "",
      "",
      "",
      "",
      ""
    ]
  },
  {
    "name": "CONST_VALUE_PLAYER_PHLOGISTON_TEAM_SGV_KEY",
    "value": [
      "SGV_PlayerTeam_Phlogiston",
      "",
      "",
      "",
      "",
      ""
    ]
  },
  {
    "name": "CONST_VALUE_PLAYER_PHLOGISTON_LIMIT",
    "value": [
      "100",
      "",
      "",
      "",
      "",
      ""
    ]
  },
  {
    "name": "CONST_VALUE_CUSTOM_GADGET_PARAM_LIST_LIMIT",
    "value": [
      "20",
      "",
      "",
      "",
      "",
      ""
    ]
  },
  {
    "name": "CONST_VALUE_QUEST_FOCUS_CD",
    "value": [
      "30",
      "",
      "",
      "",
      "",
      ""
    ]
  },
  {
    "name": "CONST_VALUE_PHLOGISTON_INTERACT_CONSUME_GV",
    "value": [
      "GV_Phlogiston_Cost",
      "",
      "",
      "",
      "",
      ""
    ]
  },
  {
    "name": "CONST_VALUE_VEHICLE_PHLOGISTON_LIMIT",
    "value": [
      "50",
      "",
      "",
      "",
      "",
      ""
    ]
  },
  {
    "name": "CONST_VALUE_MUSIC_UGC_RECOMMEND_PARAM",
    "value": [
      "500;100",
      "300;1000",
      "200;500",
      "300;200",
      "500",
      ""
    ]
  },
  {
    "name": "CONST_VALUE_MUSIC_UGC_RECOMMEND_FILT",
    "value": [
      "8",
      "4",
      "100",
      "",
      "",
      ""
    ]
  },
  {
    "name": "CONST_VALUE_RELIQUARY_APPEND_PROP_DEPOT_ID",
    "value": [
      "501",
      "",
      "",
      "",
      "",
      ""
    ]
  },
  {
    "name": "CONST_VALUE_PHLOGISTON_MAX_CLIENT_PRE_COST_RATIO",
    "value": [
      "0.5",
      "",
      "",
      "",
      "",
      ""
    ]
  },
  {
    "name": "CONST_VALUE_MAP_JOYPAD_SENITIVITY_RANK",
    "value": [
      "1",
      "5",
      "",
      "",
      "",
      ""
    ]
  },
  {
    "name": "CONST_VALUE_MAP_JOYPAD_SENITIVITY",
    "value": [
      "0.1",
      "0.5",
      "",
      "",
      "",
      ""
    ]
  },
  {
    "name": "CONST_VALUE_MAP_JOYPAD_ABSORB_STRENGTH_RANK",
    "value": [
      "1",
      "5",
      "",
      "",
      "",
      ""
    ]
  },
  {
    "name": "CONST_VALUE_MAP_JOYPAD_ABSORB_STRENGTH",
    "value": [
      "15",
      "35",
      "",
      "",
      "",
      ""
    ]
  },
  {
    "name": "CONST_VALUE_TALK_REVIEW_MAX_NUM",
    "value": [
      "200",
      "",
      "",
      "",
      "",
      ""
    ]
  },
  {
    "name": "CONST_VALUE_HUNTING_V2_PARAM",
    "value": [
      "1367,1370,1371",
      "",
      "",
      "",
      "",
      ""
    ]
  },
  {
    "name": "CONST_VALUE_CITY_REPUTATION_PARAM_V2",
    "value": [
      "3",
      "3",
      "",
      "",
      "",
      ""
    ]
  },
  {
    "name": "CONST_VALUE_TRACKING_PARAMS",
    "value": [
      "60",
      "40",
      "4",
      "3",
      "500",
      ""
    ]
  },
  {
    "name": "CONST_VALUE_NATLAN_OFFERING_LEVEL_TAG_SWITCH_ABILITY",
    "value": [
      "SceneObj_Area_Common_Property_Ani_Prop_NatlanOffering_01",
      "ReconnectProtect",
      "",
      "",
      "",
      ""
    ]
  },
  {
    "name": "CONST_VALUE_REUNION_WP_PARAM",
    "value": [
      "30",
      "45",
      "60",
      "",
      "",
      ""
    ]
  },
  {
    "name": "CONST_VALUE_REUNION_REMINDER_MAIL_PARAM",
    "value": [
      "10",
      "168",
      "",
      "",
      "",
      ""
    ]
  },
  {
    "name": "CONST_VALUE_NPC_COLLIDER_ADJUST_BY_VEHICLE_PARAMS",
    "value": [
      "30011,30012,30013",
      "0.3,0.3,0.4",
      "",
      "",
      "",
      ""
    ]
  },
  {
    "name": "CONST_VALUE_BATTLE_PASS_DEFAULT_REWARD_PLAN",
    "value": [
      "2",
      "",
      "",
      "",
      "",
      ""
    ]
  },
  {
    "name": "CONST_VALUE_BP_REWARD_CATEGORY_ITEM_ID",
    "value": [
      "202",
      "104002",
      "104013",
      "105002",
      "",
      ""
    ]
  },
  {
    "name": "CONST_VALUE_OPEN_TRIBAL_QUEST_ID",
    "value": [
      "5002",
      "",
      "",
      "",
      "",
      ""
    ]
  },
  {
    "name": "CONST_VALUE_TRIGGER_PHLOGISTON_BAR_FOCUS_TIME",
    "value": [
      "0.3",
      "",
      "",
      "",
      "",
      ""
    ]
  },
  {
    "name": "CONST_VALUE_ASTER_MIDDLE_RECOVER",
    "value": [
      "3600",
      "100",
      "",
      "",
      "",
      ""
    ]
  },
  {
    "name": "CONST_VALUE_ASTER_MIDDLE_NPC_TALK_ID",
    "value": [
      "4111502",
      "",
      "",
      "",
      "",
      ""
    ]
  },
  {
    "name": "CONST_VALUE_ACTIVITY_EXPEDITION_DAILY_REFRESH_PATH_LIMIT",
    "value": [
      "7",
      "",
      "",
      "",
      "",
      ""
    ]
  },
  {
    "name": "CONST_VALUE_ACTIVITY_EXPEDITION_DAILY_COUNT_LIMIT",
    "value": [
      "4",
      "",
      "",
      "",
      "",
      ""
    ]
  },
  {
    "name": "CONST_VALUE_ACTIVITY_EXPEDITION_SUPER_ELEM_COEF",
    "value": [
      "2",
      "",
      "",
      "",
      "",
      ""
    ]
  },
  {
    "name": "CONST_VALUE_ACTIVITY_EXPEDITION_CONTENT_DURATION",
    "value": [
      "7",
      "",
      "",
      "",
      "",
      ""
    ]
  },
  {
    "name": "CONST_VALUE_ACTIVITY_EXPEDITION_CHALLENGE_HINT_CD",
    "value": [
      "60",
      "",
      "",
      "",
      "",
      ""
    ]
  },
  {
    "name": "CONST_VALUE_CHANNELLER_SLAB_SINGLE_BUFF_ENERGY_LIMIT",
    "value": [
      "1000",
      "",
      "",
      "",
      "",
      ""
    ]
  },
  {
    "name": "CONST_VALUE_CHANNELLER_SLAB_MP_BUFF_ENERGY_LIMIT",
    "value": [
      "1250",
      "",
      "",
      "",
      "",
      ""
    ]
  },
  {
    "name": "CONST_VALUE_DANGERZONE_GET_LOST_COUNTDOWN",
    "value": [
      "300",
      "",
      "",
      "",
      "",
      ""
    ]
  },
  {
    "name": "CONST_VALUE_SIGNAL_ACTIVE_DISTANCE",
    "value": [
      "60",
      "",
      "",
      "",
      "",
      ""
    ]
  },
  {
    "name": "CONST_VALUE_HERO_COURSE_TRANSFER_CONFIG",
    "value": [
      "144005002",
      "2002",
      "45001001",
      "",
      "",
      ""
    ]
  },
  {
    "name": "CONST_VALUE_ACTIVITY_PERPETUAL",
    "value": [
      "1202",
      "2013",
      "28",
      "72180",
      "",
      ""
    ]
  },
  {
    "name": "CONST_VALUE_DIG_ACTIVITY_HINT_RAND_DEGREE",
    "value": [
      "30",
      "",
      "",
      "",
      "",
      ""
    ]
  },
  {
    "name": "CONST_VALUE_ROGUELIKE_ACTIVITY_PARAMS",
    "value": [
      "100",
      "",
      "",
      "",
      "",
      ""
    ]
  },
  {
    "name": "CONST_VALUE_MICHIAE_MATSURI_ACTIVITY_REGIONAL_PLAY_PARAMS",
    "value": [
      "0.013117",
      "0.01875",
      "-0.00764",
      "0.0548",
      "-0.0243",
      "-0.0035"
    ]
  },
  {
    "name": "CONST_VALUE_MICHIAE_MATSURI_ACTIVITY_DARK_PRESURE_MAX_PARAMS",
    "value": [
      "100",
      "100",
      "",
      "",
      "",
      ""
    ]
  },
  {
    "name": "CONST_VALUE_ARCHAEOLOGY_MIN_DISTANCE",
    "value": [
      "0",
      "",
      "",
      "",
      "",
      ""
    ]
  },
  {
    "name": "CONST_VALUE_CLIENT_PLAY_DELETE_WIDGET_SUMMON_RADIUS",
    "value": [
      "20",
      "",
      "",
      "",
      "",
      ""
    ]
  },
  {
    "name": "CONST_VALUE_MUSIC_UGC_SAVE_NUM",
    "value": [
      "50",
      "",
      "",
      "",
      "",
      ""
    ]
  },
  {
    "name": "CONST_VALUE_HIT_TREE_DROP_PARAM",
    "value": [
      "10",
      "500",
      "3",
      "100",
      "",
      ""
    ]
  },
  {
    "name": "CONST_VALUE_HIT_TREE_DROP_PROB",
    "value": [
      "100",
      "100",
      "100",
      "0",
      "",
      ""
    ]
  },
  {
    "name": "CONST_VALUE_DEFAULT_HOME_WORLD_ID",
    "value": [
      "2",
      "",
      "",
      "",
      "",
      ""
    ]
  },
  {
    "name": "CONST_VALUE_HOME_FURNITURE_TYPE_LIMIT",
    "value": [
      "200",
      "",
      "",
      "",
      "",
      ""
    ]
  },
  {
    "name": "CONST_VALUE_HOME_FURNITURE_ARRANGEMENT_COST_LEVEL",
    "value": [
      "10000",
      "15000",
      "16000",
      "",
      "",
      ""
    ]
  },
  {
    "name": "CONST_VALUE_HOME_LEGO_HEIGHT",
    "value": [
      "30",
      "",
      "",
      "",
      "",
      ""
    ]
  },
  {
    "name": "CONST_VALUE_HOME_ACCELERATE_PARAM",
    "value": [
      "1",
      "14400",
      "107013",
      "",
      "",
      ""
    ]
  },
  {
    "name": "CONST_VALUE_HOME_WEEKEND_DJINN_PARAM",
    "value": [
      "77015005",
      "360000",
      "14400",
      "446400",
      "",
      ""
    ]
  },
  {
    "name": "CONST_VALUE_HOME_RESOURCE_PRODUCE_INTERVAL",
    "value": [
      "3600",
      "3600",
      "",
      "",
      "",
      ""
    ]
  },
  {
    "name": "CONST_VALUE_HOMEWORLD_TUTRIAL_QUEST",
    "value": [
      "7165404",
      "",
      "",
      "",
      "",
      ""
    ]
  },
  {
    "name": "CONST_VALUE_HOME_CD_LIMIT",
    "value": [
      "10",
      "10",
      "",
      "",
      "",
      ""
    ]
  },
  {
    "name": "CONST_VALUE_HOME_FURNITURE_NUM_LIMIT",
    "value": [
      "450",
      "150",
      "",
      "",
      "",
      ""
    ]
  },
  {
    "name": "CONST_VALUE_HOME_FURNITURE_ARRANGEMENT_COST_LEVEL_HALL",
    "value": [
      "10000",
      "15000",
      "16000",
      "",
      "",
      ""
    ]
  },
  {
    "name": "CONST_VALUE_HOME_FURNITURE_ARRANGEMENT_COST_LEVEL_ROOM",
    "value": [
      "4000",
      "6000",
      "6400",
      "",
      "",
      ""
    ]
  },
  {
    "name": "CONST_VALUE_HOME_RESOURCE_BASE_VALUE",
    "value": [
      "100",
      "",
      "",
      "",
      "",
      ""
    ]
  },
  {
    "name": "CONST_VALUE_HOME_PRIOR_CHECK_TIME_RANGE",
    "value": [
      "120",
      "480",
      "",
      "",
      "",
      ""
    ]
  },
  {
    "name": "CONST_VALUE_HOME_SPEECHBUBBLE_DEFAULT_DELAY",
    "value": [
      "0",
      "",
      "",
      "",
      "",
      ""
    ]
  },
  {
    "name": "CONST_VALUE_HOME_SPEECHBUBBLE_DEFAULT_INTERVAL",
    "value": [
      "1",
      "",
      "",
      "",
      "",
      ""
    ]
  },
  {
    "name": "CONST_VALUE_HOME_SPEECHBUBBLE_PRIORITY",
    "value": [
      "20",
      "",
      "",
      "",
      "",
      ""
    ]
  },
  {
    "name": "CONST_VALUE_HOME_GREET_DIST_MIN",
    "value": [
      "1.3",
      "",
      "",
      "",
      "",
      ""
    ]
  },
  {
    "name": "CONST_VALUE_HOME_GREET_DIST_MAX",
    "value": [
      "2.6",
      "",
      "",
      "",
      "",
      ""
    ]
  },
  {
    "name": "CONST_VALUE_HOME_GREET_ANGLE_MAX",
    "value": [
      "90",
      "",
      "",
      "",
      "",
      ""
    ]
  },
  {
    "name": "CONST_VALUE_HOME_GREET_TURN_ANGLE",
    "value": [
      "5",
      "",
      "",
      "",
      "",
      ""
    ]
  },
  {
    "name": "CONST_VALUE_HOME_GREET_TURN_DURATION",
    "value": [
      "1",
      "",
      "",
      "",
      "",
      ""
    ]
  },
  {
    "name": "CONST_VALUE_HOME_GREET_LEAVE_DELAY",
    "value": [
      "1",
      "",
      "",
      "",
      "",
      ""
    ]
  },
  {
    "name": "CONST_VALUE_HOME_NPC_EVENT_TRANSFER_TIME",
    "value": [
      "1.5",
      "",
      "",
      "",
      "",
      ""
    ]
  },
  {
    "name": "CONST_VALUE_HOME_PLANT_BOX",
    "value": [
      "220033",
      "",
      "",
      "",
      "",
      ""
    ]
  },
  {
    "name": "CONST_VALUE_HOME_COMFORT_MODIFER",
    "value": [
      "5",
      "15",
      "1",
      "",
      "",
      ""
    ]
  },
  {
    "name": "CONST_VALUE_INIT_HOME_TIME",
    "value": [
      "8",
      "",
      "",
      "",
      "",
      ""
    ]
  },
  {
    "name": "CONST_VALUE_HOME_FURNITURE_GROUP_NUM_LIMIT",
    "value": [
      "20",
      "",
      "",
      "",
      "",
      ""
    ]
  },
  {
    "name": "CONST_VALUE_HOME_FURNITURE_GROUP_RECORD_NUM_LIMIT",
    "value": [
      "20",
      "",
      "",
      "",
      "",
      ""
    ]
  },
  {
    "name": "CONST_VALUE_HOME_FURNITURE_CUSTOM_SUITE_PARAM",
    "value": [
      "150",
      "100",
      "1;2;4;5;6;7;10;11;14",
      "30",
      "",
      ""
    ]
  },
  {
    "name": "CONST_VALUE_FIREWORKS_LAUNCH_PARAM",
    "value": [
      "10",
      "5",
      "8",
      "",
      "",
      ""
    ]
  },
  {
    "name": "CONST_VALUE_HOME_WAIT_ENTER_EDIT_FINISH_RSP",
    "value": [
      "2",
      "",
      "",
      "",
      "",
      ""
    ]
  },
  {
    "name": "CONST_VALUE_HOME_BLUE_PRINT_COMPLETENESS",
    "value": [
      "0.9",
      "",
      "",
      "",
      "",
      ""
    ]
  },
  {
    "name": "CONST_VALUE_HOME_BLUEPRINT_CD_LIMIT",
    "value": [
      "5",
      "10",
      "1",
      "3",
      "",
      ""
    ]
  },
  {
    "name": "CONST_VALUE_HOME_BLUEPRINT_GEN_SHARE_CODE_RETRY_TIMES",
    "value": [
      "2",
      "",
      "",
      "",
      "",
      ""
    ]
  },
  {
    "name": "CONST_VALUE_HOME_BLUEPRINT_SHARE_CODE_SEARCH_PATTERN_LIMIT",
    "value": [
      "15",
      "",
      "",
      "",
      "",
      ""
    ]
  },
  {
    "name": "CONST_VALUE_HOME_FURNITURE_SEARCH_PATTERN_LIMIT",
    "value": [
      "100",
      "",
      "",
      "",
      "",
      ""
    ]
  },
  {
    "name": "CONST_VALUE_HOME_SHOPITEM_EXEMPT_FILTER",
    "value": [
      "213201",
      "",
      "",
      "",
      "",
      ""
    ]
  },
  {
    "name": "CONST_VALUE_ENTITY_TOUCH_CD",
    "value": [
      "10",
      "",
      "",
      "",
      "",
      ""
    ]
  },
  {
    "name": "CONST_VALUE_GCG_DECK_LIMIT_SIZE",
    "value": [
      "30",
      "",
      "",
      "",
      "",
      ""
    ]
  },
  {
    "name": "CONST_VALUE_GCG_CHAR_LIMIT_SIZE",
    "value": [
      "3",
      "",
      "",
      "",
      "",
      ""
    ]
  },
  {
    "name": "CONST_VALUE_GCG_CARD_LIMIT",
    "value": [
      "2",
      "",
      "",
      "",
      "",
      ""
    ]
  },
  {
    "name": "CONST_VALUE_GCG_DECK_SAVE_CD",
    "value": [
      "300",
      "",
      "",
      "",
      "",
      ""
    ]
  },
  {
    "name": "CONST_VALUE_GCG_DECK_CHANGE_NAME_CD",
    "value": [
      "300",
      "",
      "",
      "",
      "",
      ""
    ]
  },
  {
    "name": "CONST_VALUE_GCG_DECK_NAME_SIZE_LIMIT",
    "value": [
      "16",
      "",
      "",
      "",
      "",
      ""
    ]
  },
  {
    "name": "CONST_VALUE_GCG_DEFAULT_CARD_BACK_AND_TABLE",
    "value": [
      "0",
      "0",
      "",
      "",
      "",
      ""
    ]
  },
  {
    "name": "CONST_VALUE_GCG_TAVERN_SCENE_ID",
    "value": [
      "1076",
      "",
      "",
      "",
      "",
      ""
    ]
  },
  {
    "name": "CONST_VALUE_GCG_ROUND_LIMIT",
    "value": [
      "15",
      "",
      "",
      "",
      "",
      ""
    ]
  },
  {
    "name": "CONST_VALUE_GCG_TAVERN_POINT_ID",
    "value": [
      "8:9",
      "8:10",
      "",
      "",
      "",
      ""
    ]
  },
  {
    "name": "CONST_VALUE_GCG_CARD_PROFICIENCY_LIMIT",
    "value": [
      "999",
      "",
      "",
      "",
      "",
      ""
    ]
  },
  {
    "name": "CONST_VALUE_GCG_DEFAULT_PVP_GAME_ID",
    "value": [
      "10",
      "",
      "",
      "",
      "",
      ""
    ]
  },
  {
    "name": "CONST_VALUE_GCG_TAVERN_CONST_NPC_COUNT",
    "value": [
      "4",
      "",
      "",
      "",
      "",
      ""
    ]
  },
  {
    "name": "CONST_VALUE_GCG_TAVERN_GROUP_ID",
    "value": [
      "201076002",
      "",
      "",
      "",
      "",
      ""
    ]
  },
  {
    "name": "CONST_VALUE_GCG_DUNGEON_SETTLE_DOWN_COUNT_TIME",
    "value": [
      "600",
      "",
      "",
      "",
      "",
      ""
    ]
  },
  {
    "name": "CONST_VALUE_GCG_LOCAL_BATTLE_ENTRY_POINT",
    "value": [
      "2",
      "4",
      "",
      "",
      "",
      ""
    ]
  },
  {
    "name": "CONST_VALUE_GCG_DUNGEON_ID",
    "value": [
      "2162",
      "2163",
      "2164",
      "",
      "",
      ""
    ]
  },
  {
    "name": "CONST_VALUE_GCG_INVITE_TIME_EXPIRE",
    "value": [
      "30",
      "",
      "",
      "",
      "",
      ""
    ]
  },
  {
    "name": "CONST_VALUE_GCG_DECK_SYSTEM_INIT_DECK",
    "value": [
      "1301; 1103; 1501",
      "311101; 311201; 311301; 311401; 311501; 312401; 312301; 312101; 312601; 312201; 312501; 312701; 322001; 321004; 321006; 332001; 332002; 333008; 332004; 332006; 332012; 332013; 332014; 332008; 332009; 333005; 332007; 332010; 332011; 332005",
      "",
      "",
      "",
      ""
    ]
  },
  {
    "name": "CONST_VALUE_BATCH_BUY_GOODS_COUNT_LIMIT",
    "value": [
      "30",
      "",
      "",
      "",
      "",
      ""
    ]
  },
  {
    "name": "CONST_VALUE_GCG_UNLOCK_CHARACTER_ITEM_ID",
    "value": [
      "107020",
      "",
      "",
      "",
      "",
      ""
    ]
  },
  {
    "name": "CONST_VALUE_GCG_SHOP_MATERIALS_SHOW_IN_MALL",
    "value": [
      "107021",
      "",
      "",
      "",
      "",
      ""
    ]
  },
  {
    "name": "CONST_VALUE_GCG_RELEASE_TIME",
    "value": [
      "1670356800",
      "",
      "",
      "",
      "",
      ""
    ]
  },
  {
    "name": "CONST_VALUE_GCG_PRE_QUEST_ID",
    "value": [
      "70665",
      "",
      "",
      "",
      "",
      ""
    ]
  },
  {
    "name": "CONST_VALUE_GCG_REPLAY_LIMIT",
    "value": [
      "3",
      "5",
      "",
      "",
      "",
      ""
    ]
  },
  {
    "name": "CONST_VALUE_GCG_REPLAY_TTL",
    "value": [
      "23328000",
      "",
      "",
      "",
      "",
      ""
    ]
  },
  {
    "name": "CONST_VALUE_GCG_TAVERN_POS",
    "value": [
      "2,0,7",
      "10",
      "",
      "",
      "",
      ""
    ]
  },
  {
    "name": "CONST_VALUE_GCG_LY_ROOM_POS",
    "value": [
      "-1009,5,-8",
      "10",
      "",
      "",
      "",
      ""
    ]
  },
  {
    "name": "CONST_VALUE_GCG_ACTIVITY_PUSHTIPSTASK",
    "value": [
      "70672",
      "",
      "",
      "",
      "",
      ""
    ]
  },
  {
    "name": "CONST_VALUE_GCG_SPECTATOR_LIMIT",
    "value": [
      "6",
      "2",
      "",
      "",
      "",
      ""
    ]
  },
  {
    "name": "CONST_VALUE_GCG_DECK_CODE_CD",
    "value": [
      "500",
      "",
      "",
      "",
      "",
      ""
    ]
  },
  {
    "name": "CONST_VALUE_GCG_DECK_CODE_RETRY_LIMIT",
    "value": [
      "5",
      "",
      "",
      "",
      "",
      ""
    ]
  },
  {
    "name": "CONST_VALUE_ROLE_COMBAT_OPEN_LIMIT",
    "value": [
      "35",
      "70045",
      "",
      "",
      "",
      ""
    ]
  },
  {
    "name": "CONST_VALUE_ROLE_COMBAT_PRE_LIMIT",
    "value": [
      "70676",
      "70678",
      "",
      "",
      "",
      ""
    ]
  },
  {
    "name": "CONST_VALUE_ROLE_COMBAT_RENT",
    "value": [
      "7",
      "1",
      "",
      "",
      "",
      ""
    ]
  },
  {
    "name": "CONST_VALUE_ROLE_COMBAT_INIT_AVATAR_NUM",
    "value": [
      "6",
      "",
      "",
      "",
      "",
      ""
    ]
  },
  {
    "name": "CONST_VALUE_ROLE_COMBAT_AVATAR_USE_COUNT_LIMIT",
    "value": [
      "2",
      "",
      "",
      "",
      "",
      ""
    ]
  },
  {
    "name": "CONST_VALUE_ROLE_COMBAT_COIN_ITEM_ID",
    "value": [
      "410016",
      "",
      "",
      "",
      "",
      ""
    ]
  },
  {
    "name": "CONST_VALUE_ROLE_COMBAT_POINT",
    "value": [
      "1004",
      "2",
      "48000",
      "2",
      "",
      ""
    ]
  },
  {
    "name": "CONST_VALUE_ROLE_COMBAT_PHOTO_POSE_SHOP_PARAM",
    "value": [
      "52.4,2.705,28.8",
      "-90",
      "",
      "",
      "",
      ""
    ]
  },
  {
    "name": "CONST_VALUE_ROLE_COMBAT_CARD_NUM_LIMIT",
    "value": [
      "3:20,4:20",
      "1:3",
      "",
      "",
      "",
      ""
    ]
  },
  {
    "name": "CONST_VALUE_ROLE_COMBAT_CD_LIMIT",
    "value": [
      "5",
      "30",
      "600",
      "1",
      "",
      ""
    ]
  },
  {
    "name": "CONST_VALUE_ROLE_COMBAT_RESET_PARAM",
    "value": [
      "7",
      "",
      "",
      "",
      "",
      ""
    ]
  },
  {
    "name": "CONST_VALUE_ROLE_COMBAT_PUSH_TIPS_PARAM",
    "value": [
      "13344",
      "13345",
      "13373",
      "13447",
      "",
      ""
    ]
  },
  {
    "name": "CONST_VALUE_ROLE_COMBAT_DUNGEON_PARAM",
    "value": [
      "156",
      "248000001",
      "",
      "",
      "",
      ""
    ]
  },
  {
    "name": "CONST_VALUE_ROLE_COMBAT_AVATAR_RANDOM_PARAM",
    "value": [
      "0.3,-10000,20000,-5775,0.35,0.125",
      "",
      "",
      "",
      "",
      ""
    ]
  },
  {
    "name": "CONST_VALUE_ROLE_COMBAT_GADGET_PARAM",
    "value": [
      "70350506",
      "70350505",
      "",
      "",
      "",
      ""
    ]
  },
  {
    "name": "CONST_VALUE_ROLE_COMBAT_LEVEL_REWARD_AVATAR_PARAM",
    "value": [
      "1",
      "1",
      "",
      "",
      "",
      ""
    ]
  },
  {
    "name": "CONST_VALUE_ROLE_COMBAT_BUILD_GROUP_RANDOM_PARAM",
    "value": [
      "1",
      "2",
      "1",
      "",
      "",
      ""
    ]
  },
  {
    "name": "CONST_VALUE_ROLE_COMBAT_CARD_TYPE_SORT_PARAM",
    "value": [
      "1,2,3,5,4",
      "",
      "",
      "",
      "",
      ""
    ]
  },
  {
    "name": "CONST_VALUE_ROLE_COMBAT_CARD_TYPE_NONE_WEIGHT",
    "value": [
      "4500",
      "",
      "",
      "",
      "",
      ""
    ]
  }
]