[
  {
    "configId": 1,
    "tagTitleTextMapHash": 1884392407,
    "sortId": 3,
    "isDefault": true
  },
  {
    "configId": 2,
    "tagTitleTextMapHash": 1311973151,
    "sortId": 3,
    "isDefault": true
  },
  {
    "configId": 3,
    "tagTitleTextMapHash": 2946998695,
    "sortId": 3,
    "isDefault": true
  },
  {
    "configId": 4,
    "tagTitleTextMapHash": 1198415335,
    "sortId": 3
  },
  {
    "configId": 5,
    "tagTitleTextMapHash": 2089518711,
    "sortId": 3
  },
  {
    "configId": 6,
    "tagTitleTextMapHash": 136131343,
    "sortId": 3
  },
  {
    "configId": 7,
    "tagTitleTextMapHash": 2663510951,
    "sortId": 3
  },
  {
    "configId": 8,
    "tagTitleTextMapHash": 840116327,
    "sortId": 2
  },
  {
    "configId": 9,
    "tagTitleTextMapHash": 2184405743,
    "sortId": 1
  }
]