[
  {
    "limitId": 1,
    "componentID": 3007,
    "maxCount": 4
  },
  {
    "limitId": 2,
    "componentID": 3007,
    "maxCount": 4
  },
  {
    "limitId": 2,
    "componentID": 2004,
    "maxCount": 2
  },
  {
    "limitId": 3,
    "componentID": 5001,
    "maxCount": 3
  },
  {
    "limitId": 3,
    "componentID": 5002,
    "maxCount": 1
  },
  {
    "limitId": 3,
    "componentID": 5003,
    "maxCount": 1
  },
  {
    "limitId": 3,
    "componentID": 2002,
    "maxCount": 5
  },
  {
    "limitId": 4,
    "componentID": 3007,
    "maxCount": 2
  },
  {
    "limitId": 4,
    "componentID": 5002,
    "maxCount": 2
  },
  {
    "limitId": 4,
    "componentID": 2001,
    "maxCount": 2
  },
  {
    "limitId": 5,
    "componentID": 3007,
    "maxCount": 2
  },
  {
    "limitId": 5,
    "componentID": 5002,
    "maxCount": 2
  },
  {
    "limitId": 5,
    "componentID": 2001,
    "maxCount": 5
  },
  {
    "limitId": 5,
    "componentID": 3008,
    "maxCount": 1
  },
  {
    "limitId": 6,
    "componentID": 3002,
    "maxCount": 3
  },
  {
    "limitId": 6,
    "componentID": 5003,
    "maxCount": 2
  },
  {
    "limitId": 7,
    "componentID": 3001,
    "maxCount": 1
  },
  {
    "limitId": 7,
    "componentID": 3003,
    "maxCount": 1
  },
  {
    "limitId": 7,
    "componentID": 5001,
    "maxCount": 1
  },
  {
    "limitId": 8,
    "componentID": 3002,
    "maxCount": 1
  },
  {
    "limitId": 8,
    "componentID": 5002,
    "maxCount": 3
  },
  {
    "limitId": 8,
    "componentID": 3005,
    "maxCount": 1
  },
  {
    "limitId": 9,
    "componentID": 5003,
    "maxCount": 1
  },
  {
    "limitId": 9,
    "componentID": 3002,
    "maxCount": 2
  },
  {
    "limitId": 10,
    "componentID": 3002,
    "maxCount": 1
  },
  {
    "limitId": 10,
    "componentID": 3006,
    "maxCount": 3
  },
  {
    "limitId": 11,
    "componentID": 3007,
    "maxCount": 3
  },
  {
    "limitId": 11,
    "componentID": 4008,
    "maxCount": 1
  },
  {
    "limitId": 11,
    "componentID": 4004,
    "maxCount": 5
  },
  {
    "limitId": 12,
    "componentID": 5003,
    "maxCount": 2
  },
  {
    "limitId": 12,
    "componentID": 3002,
    "maxCount": 1
  },
  {
    "limitId": 12,
    "componentID": 3003,
    "maxCount": 3
  },
  {
    "limitId": 12,
    "componentID": 3004,
    "maxCount": 3
  },
  {
    "limitId": 12,
    "componentID": 2002,
    "maxCount": 2
  },
  {
    "limitId": 13,
    "componentID": 3001,
    "maxCount": 1
  },
  {
    "limitId": 13,
    "componentID": 3002,
    "maxCount": 3
  },
  {
    "limitId": 13,
    "componentID": 3006,
    "maxCount": 1
  },
  {
    "limitId": 13,
    "componentID": 3004,
    "maxCount": 2
  },
  {
    "limitId": 101,
    "componentID": 6002,
    "maxCount": 1
  },
  {
    "limitId": 101,
    "componentID": 6003,
    "maxCount": 2
  },
  {
    "limitId": 101,
    "componentID": 6004,
    "maxCount": 2
  },
  {
    "limitId": 101,
    "componentID": 6007,
    "maxCount": 4
  },
  {
    "limitId": 101,
    "componentID": 6008,
    "maxCount": 2
  },
  {
    "limitId": 101,
    "componentID": 6009,
    "maxCount": 2
  },
  {
    "limitId": 101,
    "componentID": 6010,
    "maxCount": 2
  },
  {
    "limitId": 101,
    "componentID": 6013,
    "maxCount": 2
  },
  {
    "limitId": 101,
    "componentID": 6015,
    "maxCount": 1
  },
  {
    "limitId": 101,
    "componentID": 6017,
    "maxCount": 2
  },
  {
    "limitId": 102,
    "componentID": 6001,
    "maxCount": 1
  },
  {
    "limitId": 102,
    "componentID": 6002,
    "maxCount": 1
  },
  {
    "limitId": 102,
    "componentID": 6003,
    "maxCount": 2
  },
  {
    "limitId": 102,
    "componentID": 6004,
    "maxCount": 2
  },
  {
    "limitId": 102,
    "componentID": 6007,
    "maxCount": 4
  },
  {
    "limitId": 102,
    "componentID": 6008,
    "maxCount": 2
  },
  {
    "limitId": 102,
    "componentID": 6009,
    "maxCount": 2
  },
  {
    "limitId": 102,
    "componentID": 6010,
    "maxCount": 2
  },
  {
    "limitId": 102,
    "componentID": 6011,
    "maxCount": 2
  },
  {
    "limitId": 102,
    "componentID": 6012,
    "maxCount": 2
  },
  {
    "limitId": 102,
    "componentID": 6013,
    "maxCount": 2
  },
  {
    "limitId": 102,
    "componentID": 6014,
    "maxCount": 2
  },
  {
    "limitId": 102,
    "componentID": 6018,
    "maxCount": 2
  },
  {
    "limitId": 102,
    "componentID": 6020,
    "maxCount": 4
  },
  {
    "limitId": 103,
    "componentID": 6001,
    "maxCount": 1
  },
  {
    "limitId": 103,
    "componentID": 6002,
    "maxCount": 2
  },
  {
    "limitId": 103,
    "componentID": 6003,
    "maxCount": 2
  },
  {
    "limitId": 103,
    "componentID": 6004,
    "maxCount": 2
  },
  {
    "limitId": 103,
    "componentID": 6007,
    "maxCount": 4
  },
  {
    "limitId": 103,
    "componentID": 6008,
    "maxCount": 2
  },
  {
    "limitId": 103,
    "componentID": 6009,
    "maxCount": 2
  },
  {
    "limitId": 103,
    "componentID": 6010,
    "maxCount": 1
  },
  {
    "limitId": 103,
    "componentID": 6011,
    "maxCount": 1
  },
  {
    "limitId": 103,
    "componentID": 6012,
    "maxCount": 2
  },
  {
    "limitId": 103,
    "componentID": 6013,
    "maxCount": 2
  },
  {
    "limitId": 103,
    "componentID": 6014,
    "maxCount": 2
  },
  {
    "limitId": 103,
    "componentID": 6016,
    "maxCount": 2
  },
  {
    "limitId": 103,
    "componentID": 6017,
    "maxCount": 1
  },
  {
    "limitId": 103,
    "componentID": 6019,
    "maxCount": 1
  },
  {
    "limitId": 103,
    "componentID": 6021,
    "maxCount": 2
  }
]