[
  {
    "rootGadgetID": 70290175,
    "customGadgetType": "ACTIVITY_FLOWER",
    "pageTitle": "UI_HOMEWORLD_CUSTOM_BUTTON",
    "recommendConfig": "",
    "tabList": [
      1001,
      1002,
      1003,
      1004
    ],
    "ditherGadgetConfigIdList": []
  },
  {
    "rootGadgetID": 77215027,
    "customGadgetType": "FURNITURE",
    "pageTitle": "UI_HOMEWORLD_CUSTOM_BUTTON",
    "recommendConfig": "",
    "tabList": [
      1005,
      1006,
      1007
    ],
    "ditherGadgetConfigIdList": []
  },
  {
    "rootGadgetID": 77215028,
    "customGadgetType": "FURNITURE",
    "pageTitle": "UI_HOMEWORLD_CUSTOM_BUTTON",
    "recommendConfig": "",
    "tabList": [
      1005,
      1006,
      1007
    ],
    "ditherGadgetConfigIdList": []
  },
  {
    "rootGadgetID": 77215029,
    "customGadgetType": "FURNITURE",
    "pageTitle": "UI_HOMEWORLD_CUSTOM_BUTTON",
    "recommendConfig": "",
    "tabList": [
      1005,
      1006,
      1007
    ],
    "ditherGadgetConfigIdList": []
  },
  {
    "rootGadgetID": 70290197,
    "customGadgetType": "ACTIVITY_SNOWMAN",
    "pageTitle": "UI_HOMEWORLD_CUSTOM_SNOWMANBUTTON",
    "recommendConfig": "",
    "tabList": [
      2001,
      2002,
      2003,
      2004,
      2005,
      2006
    ],
    "ditherGadgetConfigIdList": []
  },
  {
    "rootGadgetID": 70290201,
    "customGadgetType": "ACTIVITY_SNOWMAN",
    "pageTitle": "UI_HOMEWORLD_CUSTOM_SNOWMANBUTTON",
    "recommendConfig": "",
    "tabList": [
      2001,
      2002,
      2003,
      2004,
      2005,
      2006
    ],
    "ditherGadgetConfigIdList": []
  },
  {
    "rootGadgetID": 70290202,
    "customGadgetType": "ACTIVITY_SNOWMAN",
    "pageTitle": "UI_HOMEWORLD_CUSTOM_SNOWMANBUTTON",
    "recommendConfig": "",
    "tabList": [
      2001,
      2002,
      2003,
      2004,
      2005,
      2006
    ],
    "ditherGadgetConfigIdList": []
  },
  {
    "rootGadgetID": 70290203,
    "customGadgetType": "ACTIVITY_SNOWMAN",
    "pageTitle": "UI_HOMEWORLD_CUSTOM_SNOWMANBUTTON",
    "recommendConfig": "",
    "tabList": [
      2001,
      2002,
      2003,
      2004,
      2005,
      2006
    ],
    "ditherGadgetConfigIdList": []
  },
  {
    "rootGadgetID": 77215044,
    "customGadgetType": "FURNITURE",
    "pageTitle": "UI_HOMEWORLD_CUSTOM_SNOWMANBUTTON",
    "recommendConfig": "",
    "tabList": [
      2001,
      2002,
      2003,
      2004,
      2005,
      2006
    ],
    "ditherGadgetConfigIdList": []
  },
  {
    "rootGadgetID": 77215045,
    "customGadgetType": "FURNITURE",
    "pageTitle": "UI_HOMEWORLD_CUSTOM_SNOWMANBUTTON",
    "recommendConfig": "",
    "tabList": [
      2001,
      2002,
      2003,
      2004,
      2005,
      2006
    ],
    "ditherGadgetConfigIdList": []
  },
  {
    "rootGadgetID": 77215046,
    "customGadgetType": "FURNITURE",
    "pageTitle": "UI_HOMEWORLD_CUSTOM_SNOWMANBUTTON",
    "recommendConfig": "",
    "tabList": [
      2001,
      2002,
      2003,
      2004,
      2005,
      2006
    ],
    "ditherGadgetConfigIdList": []
  },
  {
    "rootGadgetID": 77215047,
    "customGadgetType": "FURNITURE",
    "pageTitle": "UI_HOMEWORLD_CUSTOM_SNOWMANBUTTON",
    "recommendConfig": "",
    "tabList": [
      2001,
      2002,
      2003,
      2004,
      2005,
      2006
    ],
    "ditherGadgetConfigIdList": []
  },
  {
    "rootGadgetID": 77215050,
    "customGadgetType": "FURNITURE",
    "pageTitle": "UI_HOMEWORLD_CUSTOM_MINIASCAPE",
    "recommendConfig": "Recommend_Homeworld_General_Common_Thing_Prop_Irodori_Miniascape_01",
    "tabList": [
      3001,
      3002,
      3003,
      3004,
      3005,
      3006,
      3007,
      3008
    ],
    "ditherGadgetConfigIdList": []
  },
  {
    "rootGadgetID": 77215051,
    "customGadgetType": "FURNITURE",
    "pageTitle": "UI_HOMEWORLD_CUSTOM_MINIASCAPE",
    "recommendConfig": "Recommend_Homeworld_General_Common_Thing_Prop_Irodori_Miniascape_02",
    "tabList": [
      3001,
      3002,
      3003,
      3004,
      3005,
      3006,
      3007,
      3008
    ],
    "ditherGadgetConfigIdList": []
  },
  {
    "rootGadgetID": 77215052,
    "customGadgetType": "FURNITURE",
    "pageTitle": "UI_HOMEWORLD_CUSTOM_MINIASCAPE",
    "recommendConfig": "Recommend_Homeworld_General_Common_Thing_Prop_Irodori_Miniascape_03",
    "tabList": [
      3001,
      3002,
      3003,
      3004,
      3005,
      3006,
      3007,
      3008
    ],
    "ditherGadgetConfigIdList": []
  },
  {
    "rootGadgetID": 77215053,
    "customGadgetType": "FURNITURE",
    "pageTitle": "UI_HOMEWORLD_CUSTOM_MINIASCAPE",
    "recommendConfig": "Recommend_Homeworld_General_Common_Thing_Prop_Irodori_Miniascape_04",
    "tabList": [
      3001,
      3002,
      3003,
      3004,
      3005,
      3006,
      3007,
      3008
    ],
    "ditherGadgetConfigIdList": []
  },
  {
    "rootGadgetID": 70290313,
    "customGadgetType": "ACTIVITY_IRODORI_FLOWER",
    "pageTitle": "UI_HOMEWORLD_CUSTOM_MINIASCAPE",
    "recommendConfig": "",
    "tabList": [
      3001,
      3002,
      3003,
      3004,
      3005,
      3006,
      3007,
      3008
    ],
    "ditherGadgetConfigIdList": []
  },
  {
    "rootGadgetID": 70290314,
    "customGadgetType": "ACTIVITY_IRODORI_FLOWER",
    "pageTitle": "UI_HOMEWORLD_CUSTOM_MINIASCAPE",
    "recommendConfig": "",
    "tabList": [
      3001,
      3002,
      3003,
      3004,
      3005,
      3006,
      3007,
      3008
    ],
    "ditherGadgetConfigIdList": []
  },
  {
    "rootGadgetID": 70290315,
    "customGadgetType": "ACTIVITY_IRODORI_FLOWER",
    "pageTitle": "UI_HOMEWORLD_CUSTOM_MINIASCAPE",
    "recommendConfig": "",
    "tabList": [
      3001,
      3002,
      3003,
      3004,
      3005,
      3006,
      3007,
      3008
    ],
    "ditherGadgetConfigIdList": []
  },
  {
    "rootGadgetID": 70290316,
    "customGadgetType": "ACTIVITY_IRODORI_FLOWER",
    "pageTitle": "UI_HOMEWORLD_CUSTOM_MINIASCAPE",
    "recommendConfig": "",
    "tabList": [
      3001,
      3002,
      3003,
      3004,
      3005,
      3006,
      3007,
      3008
    ],
    "ditherGadgetConfigIdList": []
  },
  {
    "rootGadgetID": 70290429,
    "customGadgetType": "ACTIVITY_GRAVEN_INNOCENCE_CARVE",
    "pageTitle": "UI_HOMEWORLD_CUSTOM_LNLWOODCUT",
    "recommendConfig": "",
    "tabList": [
      4001,
      4002,
      4003,
      4004,
      4005
    ],
    "ditherGadgetConfigIdList": [
      70290441,
      70290442,
      70290443,
      70290444,
      70290445,
      70290446,
      70290447,
      70290448,
      77215060,
      77215061,
      77215062,
      77215063,
      77215064,
      77215065,
      77215066,
      77215067,
      77215068,
      77215069,
      77215070,
      77215071,
      77306090,
      77306091,
      77306092,
      77306093,
      77306094,
      77306095,
      77306096,
      77306097,
      77306098,
      77306099,
      77306100,
      77306101,
      77306102,
      77306103,
      77306104,
      77306105,
      77306106,
      77306107,
      77306108,
      77306109,
      77306110,
      77306111,
      77306112,
      77306113
    ]
  },
  {
    "rootGadgetID": 70290430,
    "customGadgetType": "ACTIVITY_GRAVEN_INNOCENCE_CARVE",
    "pageTitle": "UI_HOMEWORLD_CUSTOM_LNLWOODCUT",
    "recommendConfig": "",
    "tabList": [
      4001,
      4002,
      4003,
      4004,
      4005
    ],
    "ditherGadgetConfigIdList": [
      70290441,
      70290442,
      70290443,
      70290444,
      70290445,
      70290446,
      70290447,
      70290448,
      77215060,
      77215061,
      77215062,
      77215063,
      77215064,
      77215065,
      77215066,
      77215067,
      77215068,
      77215069,
      77215070,
      77215071,
      77306090,
      77306091,
      77306092,
      77306093,
      77306094,
      77306095,
      77306096,
      77306097,
      77306098,
      77306099,
      77306100,
      77306101,
      77306102,
      77306103,
      77306104,
      77306105,
      77306106,
      77306107,
      77306108,
      77306109,
      77306110,
      77306111,
      77306112,
      77306113
    ]
  },
  {
    "rootGadgetID": 70290431,
    "customGadgetType": "ACTIVITY_GRAVEN_INNOCENCE_CARVE",
    "pageTitle": "UI_HOMEWORLD_CUSTOM_LNLWOODCUT",
    "recommendConfig": "",
    "tabList": [
      4001,
      4002,
      4003,
      4004,
      4005
    ],
    "ditherGadgetConfigIdList": [
      70290441,
      70290442,
      70290443,
      70290444,
      70290445,
      70290446,
      70290447,
      70290448,
      77215060,
      77215061,
      77215062,
      77215063,
      77215064,
      77215065,
      77215066,
      77215067,
      77215068,
      77215069,
      77215070,
      77215071,
      77306090,
      77306091,
      77306092,
      77306093,
      77306094,
      77306095,
      77306096,
      77306097,
      77306098,
      77306099,
      77306100,
      77306101,
      77306102,
      77306103,
      77306104,
      77306105,
      77306106,
      77306107,
      77306108,
      77306109,
      77306110,
      77306111,
      77306112,
      77306113
    ]
  },
  {
    "rootGadgetID": 70290432,
    "customGadgetType": "ACTIVITY_GRAVEN_INNOCENCE_CARVE",
    "pageTitle": "UI_HOMEWORLD_CUSTOM_LNLWOODCUT",
    "recommendConfig": "",
    "tabList": [
      4001,
      4002,
      4003,
      4004,
      4005
    ],
    "ditherGadgetConfigIdList": [
      70290441,
      70290442,
      70290443,
      70290444,
      70290445,
      70290446,
      70290447,
      70290448,
      77215060,
      77215061,
      77215062,
      77215063,
      77215064,
      77215065,
      77215066,
      77215067,
      77215068,
      77215069,
      77215070,
      77215071,
      77306090,
      77306091,
      77306092,
      77306093,
      77306094,
      77306095,
      77306096,
      77306097,
      77306098,
      77306099,
      77306100,
      77306101,
      77306102,
      77306103,
      77306104,
      77306105,
      77306106,
      77306107,
      77306108,
      77306109,
      77306110,
      77306111,
      77306112,
      77306113
    ]
  },
  {
    "rootGadgetID": 70290433,
    "customGadgetType": "ACTIVITY_GRAVEN_INNOCENCE_CARVE",
    "pageTitle": "UI_HOMEWORLD_CUSTOM_LNLWOODCUT",
    "recommendConfig": "",
    "tabList": [
      4001,
      4002,
      4003,
      4004,
      4005
    ],
    "ditherGadgetConfigIdList": [
      70290441,
      70290442,
      70290443,
      70290444,
      70290445,
      70290446,
      70290447,
      70290448,
      77215060,
      77215061,
      77215062,
      77215063,
      77215064,
      77215065,
      77215066,
      77215067,
      77215068,
      77215069,
      77215070,
      77215071,
      77306090,
      77306091,
      77306092,
      77306093,
      77306094,
      77306095,
      77306096,
      77306097,
      77306098,
      77306099,
      77306100,
      77306101,
      77306102,
      77306103,
      77306104,
      77306105,
      77306106,
      77306107,
      77306108,
      77306109,
      77306110,
      77306111,
      77306112,
      77306113
    ]
  },
  {
    "rootGadgetID": 70290434,
    "customGadgetType": "ACTIVITY_GRAVEN_INNOCENCE_CARVE",
    "pageTitle": "UI_HOMEWORLD_CUSTOM_LNLWOODCUT",
    "recommendConfig": "",
    "tabList": [
      4001,
      4002,
      4003,
      4004,
      4005
    ],
    "ditherGadgetConfigIdList": [
      70290441,
      70290442,
      70290443,
      70290444,
      70290445,
      70290446,
      70290447,
      70290448,
      77215060,
      77215061,
      77215062,
      77215063,
      77215064,
      77215065,
      77215066,
      77215067,
      77215068,
      77215069,
      77215070,
      77215071,
      77306090,
      77306091,
      77306092,
      77306093,
      77306094,
      77306095,
      77306096,
      77306097,
      77306098,
      77306099,
      77306100,
      77306101,
      77306102,
      77306103,
      77306104,
      77306105,
      77306106,
      77306107,
      77306108,
      77306109,
      77306110,
      77306111,
      77306112,
      77306113
    ]
  },
  {
    "rootGadgetID": 77215060,
    "customGadgetType": "FURNITURE",
    "pageTitle": "UI_HOMEWORLD_CUSTOM_LNLWOODCUT",
    "recommendConfig": "",
    "tabList": [
      4006,
      4007,
      4008,
      4009
    ],
    "ditherGadgetConfigIdList": []
  },
  {
    "rootGadgetID": 77215061,
    "customGadgetType": "FURNITURE",
    "pageTitle": "UI_HOMEWORLD_CUSTOM_LNLWOODCUT",
    "recommendConfig": "",
    "tabList": [
      4006,
      4007,
      4008,
      4009
    ],
    "ditherGadgetConfigIdList": []
  },
  {
    "rootGadgetID": 77215062,
    "customGadgetType": "FURNITURE",
    "pageTitle": "UI_HOMEWORLD_CUSTOM_LNLWOODCUT",
    "recommendConfig": "",
    "tabList": [
      4006,
      4007,
      4008,
      4009
    ],
    "ditherGadgetConfigIdList": []
  },
  {
    "rootGadgetID": 77215063,
    "customGadgetType": "FURNITURE",
    "pageTitle": "UI_HOMEWORLD_CUSTOM_LNLWOODCUT",
    "recommendConfig": "",
    "tabList": [
      4006,
      4007,
      4008,
      4009
    ],
    "ditherGadgetConfigIdList": []
  },
  {
    "rootGadgetID": 77215064,
    "customGadgetType": "FURNITURE",
    "pageTitle": "UI_HOMEWORLD_CUSTOM_LNLWOODCUT",
    "recommendConfig": "",
    "tabList": [
      4006,
      4007,
      4008,
      4009
    ],
    "ditherGadgetConfigIdList": []
  },
  {
    "rootGadgetID": 77215065,
    "customGadgetType": "FURNITURE",
    "pageTitle": "UI_HOMEWORLD_CUSTOM_LNLWOODCUT",
    "recommendConfig": "",
    "tabList": [
      4006,
      4007,
      4008,
      4009
    ],
    "ditherGadgetConfigIdList": []
  },
  {
    "rootGadgetID": 77215066,
    "customGadgetType": "FURNITURE",
    "pageTitle": "UI_HOMEWORLD_CUSTOM_LNLWOODCUT",
    "recommendConfig": "",
    "tabList": [
      4006,
      4007,
      4008,
      4009
    ],
    "ditherGadgetConfigIdList": []
  },
  {
    "rootGadgetID": 77215067,
    "customGadgetType": "FURNITURE",
    "pageTitle": "UI_HOMEWORLD_CUSTOM_LNLWOODCUT",
    "recommendConfig": "",
    "tabList": [
      4006,
      4007,
      4008,
      4009
    ],
    "ditherGadgetConfigIdList": []
  },
  {
    "rootGadgetID": 77215068,
    "customGadgetType": "FURNITURE",
    "pageTitle": "UI_HOMEWORLD_CUSTOM_LNLWOODCUT",
    "recommendConfig": "",
    "tabList": [
      4006,
      4007,
      4008,
      4009
    ],
    "ditherGadgetConfigIdList": []
  },
  {
    "rootGadgetID": 77215069,
    "customGadgetType": "FURNITURE",
    "pageTitle": "UI_HOMEWORLD_CUSTOM_LNLWOODCUT",
    "recommendConfig": "",
    "tabList": [
      4006,
      4007,
      4008,
      4009
    ],
    "ditherGadgetConfigIdList": []
  },
  {
    "rootGadgetID": 77215070,
    "customGadgetType": "FURNITURE",
    "pageTitle": "UI_HOMEWORLD_CUSTOM_LNLWOODCUT",
    "recommendConfig": "",
    "tabList": [
      4006,
      4007,
      4008,
      4009
    ],
    "ditherGadgetConfigIdList": []
  },
  {
    "rootGadgetID": 77215071,
    "customGadgetType": "FURNITURE",
    "pageTitle": "UI_HOMEWORLD_CUSTOM_LNLWOODCUT",
    "recommendConfig": "",
    "tabList": [
      4006,
      4007,
      4008,
      4009
    ],
    "ditherGadgetConfigIdList": []
  },
  {
    "rootGadgetID": 70800253,
    "customGadgetType": "ACTIVITY_VINTAGE_BOOTH",
    "pageTitle": "UI_HOMEWORLD_CUSTOM_VINTAGESTALL",
    "recommendConfig": "",
    "tabList": [
      5001,
      5002,
      5003,
      5004,
      5005
    ],
    "ditherGadgetConfigIdList": []
  },
  {
    "rootGadgetID": 77320021,
    "customGadgetType": "FURNITURE",
    "pageTitle": "UI_HOMEWORLD_CUSTOM_VINTAGESTALL",
    "recommendConfig": "",
    "tabList": [
      5001,
      5002,
      5003,
      5004,
      5005
    ],
    "ditherGadgetConfigIdList": []
  },
  {
    "rootGadgetID": 70294009,
    "customGadgetType": "ACTIVITY_FAIRY_TALES_BIG_WORLD",
    "pageTitle": "UI_HOMEWORLD_CUSTOM_BOOTH_TITLE",
    "recommendConfig": "",
    "tabList": [
      7001,
      7002,
      7003,
      7004,
      7005,
      7006,
      7007,
      7008
    ],
    "ditherGadgetConfigIdList": []
  },
  {
    "rootGadgetID": 70294010,
    "customGadgetType": "ACTIVITY_FAIRY_TALES_BIG_WORLD",
    "pageTitle": "UI_HOMEWORLD_CUSTOM_BOOTH_TITLE",
    "recommendConfig": "",
    "tabList": [
      7011,
      7012,
      7013,
      7014,
      7015,
      7016,
      7017,
      7018
    ],
    "ditherGadgetConfigIdList": []
  },
  {
    "rootGadgetID": 70294011,
    "customGadgetType": "ACTIVITY_FAIRY_TALES_BIG_WORLD",
    "pageTitle": "UI_HOMEWORLD_CUSTOM_BOOTH_TITLE",
    "recommendConfig": "",
    "tabList": [
      7021,
      7022,
      7023,
      7024,
      7025,
      7026,
      7027,
      7028
    ],
    "ditherGadgetConfigIdList": []
  },
  {
    "rootGadgetID": 77215105,
    "customGadgetType": "ACTIVITY_FAIRY_TALES",
    "pageTitle": "UI_HOMEWORLD_CUSTOM_BOOTH_TITLE",
    "recommendConfig": "",
    "tabList": [
      7001,
      7002,
      7003,
      7004,
      7005,
      7006,
      7007,
      7008
    ],
    "ditherGadgetConfigIdList": []
  },
  {
    "rootGadgetID": 77215106,
    "customGadgetType": "ACTIVITY_FAIRY_TALES",
    "pageTitle": "UI_HOMEWORLD_CUSTOM_BOOTH_TITLE",
    "recommendConfig": "",
    "tabList": [
      7011,
      7012,
      7013,
      7014,
      7015,
      7016,
      7017,
      7018
    ],
    "ditherGadgetConfigIdList": []
  },
  {
    "rootGadgetID": 77215107,
    "customGadgetType": "ACTIVITY_FAIRY_TALES",
    "pageTitle": "UI_HOMEWORLD_CUSTOM_BOOTH_TITLE",
    "recommendConfig": "",
    "tabList": [
      7021,
      7022,
      7023,
      7024,
      7025,
      7026,
      7027,
      7028
    ],
    "ditherGadgetConfigIdList": []
  },
  {
    "rootGadgetID": 70290379,
    "customGadgetType": "ACTICITY_ISLAND_MOUNTAIN",
    "pageTitle": "UI_HOMEWORLD_CHANGE_MOUNTAIN_BUTTON",
    "recommendConfig": "",
    "tabList": [
      100101,
      100102
    ],
    "ditherGadgetConfigIdList": []
  },
  {
    "rootGadgetID": 70291394,
    "customGadgetType": "ACTIVITY_CATCAFE",
    "pageTitle": "UI_HOMEWORLD_CHANGE_MOUNTAIN_BUTTON",
    "recommendConfig": "",
    "tabList": [],
    "ditherGadgetConfigIdList": []
  },
  {
    "rootGadgetID": 70291395,
    "customGadgetType": "ACTIVITY_CATCAFE",
    "pageTitle": "UI_HOMEWORLD_CHANGE_MOUNTAIN_BUTTON",
    "recommendConfig": "",
    "tabList": [],
    "ditherGadgetConfigIdList": []
  },
  {
    "rootGadgetID": 70291396,
    "customGadgetType": "ACTIVITY_CATCAFE",
    "pageTitle": "UI_HOMEWORLD_CHANGE_MOUNTAIN_BUTTON",
    "recommendConfig": "",
    "tabList": [],
    "ditherGadgetConfigIdList": []
  },
  {
    "rootGadgetID": 70291397,
    "customGadgetType": "ACTIVITY_CATCAFE",
    "pageTitle": "UI_HOMEWORLD_CHANGE_MOUNTAIN_BUTTON",
    "recommendConfig": "",
    "tabList": [],
    "ditherGadgetConfigIdList": []
  },
  {
    "rootGadgetID": 70291398,
    "customGadgetType": "ACTIVITY_CATCAFE",
    "pageTitle": "UI_HOMEWORLD_CHANGE_MOUNTAIN_BUTTON",
    "recommendConfig": "",
    "tabList": [],
    "ditherGadgetConfigIdList": []
  },
  {
    "rootGadgetID": 70291403,
    "customGadgetType": "ACTIVITY_ALCHEMY_SIM",
    "pageTitle": "",
    "recommendConfig": "",
    "tabList": [],
    "ditherGadgetConfigIdList": []
  }
]