[
  {
    "id": 110,
    "MBHIPOHLBFA": [
      13123186528622134696,
      12805555043235379600
    ]
  },
  {
    "id": 111,
    "MBHIPOHLBFA": [
      13123186528622134696,
      12805555043235379600
    ]
  },
  {
    "id": 112,
    "MBHIPOHLBFA": [
      13123186528622134696,
      12805555043235379600
    ]
  },
  {
    "id": 113,
    "MBHIPOHLBFA": [
      13123186528622134696,
      12805555043235379600
    ]
  },
  {
    "id": 114,
    "MBHIPOHLBFA": [
      4257400832941913432,
      12805555043235379600
    ]
  },
  {
    "id": 115,
    "MBHIPOHLBFA": [
      4257400832941913432,
      12805555043235379600
    ]
  },
  {
    "id": 116,
    "MBHIPOHLBFA": [
      4257400832941913432,
      12805555043235379600
    ]
  },
  {
    "id": 117,
    "MBHIPOHLBFA": [
      4257400832941913432,
      12805555043235379600
    ]
  },
  {
    "id": 118,
    "MBHIPOHLBFA": [
      13123186528622134696,
      9804576394392748583
    ]
  },
  {
    "id": 119,
    "MBHIPOHLBFA": [
      13123186528622134696,
      9804576394392748583
    ]
  },
  {
    "id": 120,
    "MBHIPOHLBFA": [
      13123186528622134696,
      9804576394392748583
    ]
  },
  {
    "id": 121,
    "MBHIPOHLBFA": [
      13123186528622134696,
      9804576394392748583
    ]
  },
  {
    "id": 122,
    "MBHIPOHLBFA": [
      4257400832941913432,
      9804576394392748583
    ]
  },
  {
    "id": 123,
    "MBHIPOHLBFA": [
      4257400832941913432,
      9804576394392748583
    ]
  },
  {
    "id": 124,
    "MBHIPOHLBFA": [
      4257400832941913432,
      9804576394392748583
    ]
  },
  {
    "id": 125,
    "MBHIPOHLBFA": [
      4257400832941913432,
      9804576394392748583
    ]
  }
]