[
  {
    "id": 1001,
    "selfContentTextMapHash": 3774456411,
    "selfContent1TextMapHash": 1375562431,
    "selfInteeIconName": "UI_Icon_Intee_Mechanism",
    "otherContentTextMapHash": 1750877531,
    "otherInteeIconName": "",
    "otherCanIntee": true
  },
  {
    "id": 1002,
    "selfContentTextMapHash": 4021807587,
    "selfContent1TextMapHash": 2013927447,
    "selfInteeIconName": "UI_Icon_Intee_Mechanism",
    "otherContentTextMapHash": 397334155,
    "otherInteeIconName": "",
    "otherCanIntee": true
  },
  {
    "id": 1003,
    "selfContentTextMapHash": 2376009675,
    "selfContent1TextMapHash": 2737813839,
    "selfInteeIconName": "",
    "otherContentTextMapHash": 3032296203,
    "otherInteeIconName": "",
    "otherCanIntee": true
  },
  {
    "id": 1004,
    "selfContentTextMapHash": 3540316315,
    "selfContent1TextMapHash": 4191217431,
    "selfInteeIconName": "",
    "otherContentTextMapHash": 2566768979,
    "otherInteeIconName": "",
    "otherCanIntee": true
  },
  {
    "id": 1005,
    "selfContentTextMapHash": 2316181507,
    "selfContent1TextMapHash": 99689175,
    "selfInteeIconName": "",
    "otherContentTextMapHash": 2132019219,
    "otherInteeIconName": "",
    "otherCanIntee": true
  },
  {
    "id": 1006,
    "selfContentTextMapHash": 1601231947,
    "selfContent1TextMapHash": 683005879,
    "selfInteeIconName": "",
    "otherContentTextMapHash": 2206668547,
    "otherInteeIconName": "",
    "otherCanIntee": true
  },
  {
    "id": 1007,
    "selfContentTextMapHash": 439339459,
    "selfContent1TextMapHash": 3414666783,
    "selfInteeIconName": "",
    "otherContentTextMapHash": 1742808539,
    "otherInteeIconName": "",
    "otherCanIntee": true
  },
  {
    "id": 1008,
    "selfContentTextMapHash": 3966815019,
    "selfContent1TextMapHash": 1554985783,
    "selfInteeIconName": "",
    "otherContentTextMapHash": 2035139987,
    "otherInteeIconName": "",
    "otherCanIntee": true
  }
]