[
  {
    "id": 1,
    "openDay": 1,
    "dungeonType": "EFFIGY_V4_DUNGEON_SINGLE",
    "prefabPath": "ART/UI/Menus/Widget/Activity/ActivityEffigyChallenge_Drake_Primo",
    "LAAGCCNDOJA": [
      "UI_EffigyChallengeV4_Monster_Raijin",
      "",
      ""
    ],
    "KHENGMNDHPE": "UI_MonsterIcon_Raijin",
    "titleTextMapHash": 3347469401,
    "DCIFPFCGJBG": 3419806477,
    "descTextMapHash": 2265372152,
    "rewardWatcherList": [
      15135101,
      15135102,
      15135103,
      15135104,
      15135105
    ],
    "EBFJEJNJLBI": [
      1,
      2,
      3,
      4
    ],
    "DOPAGJONHMP": [
      42,
      43,
      44,
      36,
      37,
      38,
      39,
      40,
      41,
      12,
      13,
      14,
      15,
      16,
      17,
      18,
      19,
      20,
      21,
      22,
      23
    ],
    "LGPOHFNDKKA": [
      1,
      2,
      3,
      4,
      5,
      6,
      7,
      8
    ]
  },
  {
    "id": 2,
    "openDay": 3,
    "dungeonType": "EFFIGY_V4_DUNGEON_SINGLE",
    "prefabPath": "ART/UI/Menus/Widget/Activity/ActivityEffigyChallenge_Oceanid",
    "LAAGCCNDOJA": [
      "UI_EffigyChallengeV4_Monster_Gargoyle",
      "",
      ""
    ],
    "KHENGMNDHPE": "UI_MonsterIcon_Gargoyle_Fafnir",
    "titleTextMapHash": 3479942193,
    "DCIFPFCGJBG": 3475757037,
    "descTextMapHash": 1915055976,
    "rewardWatcherList": [
      15135201,
      15135202,
      15135203,
      15135204,
      15135205
    ],
    "EBFJEJNJLBI": [
      5,
      6,
      7,
      8
    ],
    "DOPAGJONHMP": [
      42,
      43,
      44,
      36,
      37,
      38,
      39,
      40,
      41,
      15,
      16,
      17,
      24,
      25,
      26,
      27,
      28,
      29,
      30,
      31,
      32
    ],
    "LGPOHFNDKKA": [
      1,
      2,
      3,
      4,
      5,
      8,
      10,
      11
    ]
  },
  {
    "id": 3,
    "openDay": 5,
    "dungeonType": "EFFIGY_V4_DUNGEON_SINGLE",
    "prefabPath": "ART/UI/Menus/Widget/Activity/ActivityEffigyChallenge_Samurai_Ningyo",
    "LAAGCCNDOJA": [
      "UI_EffigyChallengeV4_Monster_Drake_Deepsea_TwinBossFight",
      "",
      ""
    ],
    "KHENGMNDHPE": "UI_MonsterIcon_Drake_Deepsea_TwinBossFight",
    "titleTextMapHash": 1476728073,
    "DCIFPFCGJBG": 4228155909,
    "descTextMapHash": 2293373152,
    "rewardWatcherList": [
      15135301,
      15135302,
      15135303,
      15135304,
      15135305
    ],
    "EBFJEJNJLBI": [
      9,
      10,
      11,
      12
    ],
    "DOPAGJONHMP": [
      42,
      43,
      44,
      36,
      37,
      38,
      39,
      40,
      41,
      27,
      28,
      29,
      12,
      13,
      14,
      18,
      19,
      20,
      33,
      34,
      35
    ],
    "LGPOHFNDKKA": [
      1,
      2,
      3,
      4,
      5,
      8,
      9,
      11
    ]
  },
  {
    "id": 4,
    "openDay": 7,
    "dungeonType": "EFFIGY_V4_DUNGEON_MULTI",
    "prefabPath": "ART/UI/Menus/Widget/Activity/ActivityEffigyChallenge_Drake_Primo",
    "LAAGCCNDOJA": [
      "UI_EffigyChallengeV4_Monster_Raijin",
      "UI_EffigyChallengeV4_Monster_Gargoyle",
      "UI_EffigyChallengeV4_Monster_Drake_Deepsea_TwinBossFight"
    ],
    "KHENGMNDHPE": "",
    "titleTextMapHash": 408175433,
    "DCIFPFCGJBG": 3776579493,
    "descTextMapHash": 2024351328,
    "rewardWatcherList": [
      15135401,
      15135402,
      15135403,
      15135404,
      15135405
    ],
    "EBFJEJNJLBI": [
      13,
      14,
      15,
      16
    ],
    "DOPAGJONHMP": [
      45,
      46,
      47,
      36,
      37,
      38,
      39,
      40,
      41,
      12,
      13,
      14,
      15,
      16,
      17,
      18,
      19,
      20,
      24,
      25,
      26,
      27,
      28,
      29,
      48,
      49,
      50,
      51,
      52,
      53,
      21,
      22,
      23,
      30,
      31,
      32,
      33,
      34,
      35
    ],
    "LGPOHFNDKKA": [
      1,
      2,
      3,
      4,
      5,
      7,
      8,
      11
    ]
  }
]