[
  {
    "id": 1,
    "scoreGrade": 1500,
    "rewardID": 3004101
  },
  {
    "id": 2,
    "scoreGrade": 3000,
    "rewardID": 3004102
  },
  {
    "id": 3,
    "scoreGrade": 4500,
    "rewardID": 3004103
  },
  {
    "id": 4,
    "scoreGrade": 6000,
    "rewardID": 3004104
  },
  {
    "id": 5,
    "scoreGrade": 7500,
    "rewardID": 3004105
  },
  {
    "id": 6,
    "scoreGrade": 9000,
    "rewardID": 3004106
  },
  {
    "id": 7,
    "scoreGrade": 10500,
    "rewardID": 3004107
  },
  {
    "id": 8,
    "scoreGrade": 12000,
    "rewardID": 3004108
  },
  {
    "id": 9,
    "scoreGrade": 13500,
    "rewardID": 3004109
  },
  {
    "id": 10,
    "scoreGrade": 15000,
    "rewardID": 3004110
  },
  {
    "id": 11,
    "scoreGrade": 16500,
    "rewardID": 3004111
  },
  {
    "id": 12,
    "scoreGrade": 18000,
    "rewardID": 3004112
  },
  {
    "id": 13,
    "scoreGrade": 19500,
    "rewardID": 3004113
  },
  {
    "id": 14,
    "scoreGrade": 21000,
    "rewardID": 3004114
  },
  {
    "id": 15,
    "scoreGrade": 23000,
    "rewardID": 3004115
  },
  {
    "id": 16,
    "scoreGrade": 25000,
    "rewardID": 3004116
  },
  {
    "id": 17,
    "scoreGrade": 27500,
    "rewardID": 3004117
  },
  {
    "id": 18,
    "scoreGrade": 30000,
    "rewardID": 3004118
  }
]