[
  {
    "id": 1,
    "activityId": 5173,
    "scenePointId": 1089,
    "pushTipsId": 6142,
    "endQuestIDList": [
      71528
    ],
    "autoQuitDuration": 999,
    "guideAccumulateValue": 0.333,
    "NPFEBMAMKDN": true,
    "EODMFIAEIKE": 70331040
  }
]