[
  {
    "id": 1,
    "isChar": true,
    "filterType": "CARD_TAG",
    "filterNameTextMapHash": 2898754250,
    "paramList": [
      301,
      302,
      303,
      304,
      307,
      305,
      306
    ],
    "otherOptionNameTextMapHash": 1702719397
  },
  {
    "id": 2,
    "isChar": true,
    "filterType": "CARD_TAG",
    "filterNameTextMapHash": 4130406122,
    "paramList": [
      201,
      202,
      203,
      204,
      205
    ],
    "hasOtherOption": true,
    "otherOptionNameTextMapHash": 1208187341
  },
  {
    "id": 3,
    "isChar": true,
    "filterType": "CARD_TAG",
    "filterNameTextMapHash": 4139357962,
    "paramList": [
      401,
      402,
      403,
      404,
      405,
      501,
      505,
      502,
      503,
      506
    ],
    "hasOtherOption": true,
    "otherOptionNameTextMapHash": 3206503541
  },
  {
    "id": 4,
    "isCard": true,
    "filterType": "CARD_TYPE",
    "filterNameTextMapHash": 2068225106,
    "paramList": [
      2,
      5,
      6
    ],
    "otherOptionNameTextMapHash": 3839654221
  },
  {
    "id": 5,
    "isCard": true,
    "filterType": "CARD_TAG",
    "filterNameTextMapHash": 2435174714,
    "paramList": [
      3,
      4,
      6,
      11,
      7,
      101,
      102,
      103,
      104,
      105
    ],
    "hasOtherOption": true,
    "otherOptionNameTextMapHash": 1928235365
  },
  {
    "id": 6,
    "isCard": true,
    "filterType": "CARD_COST",
    "filterNameTextMapHash": 3654412338,
    "paramList": [
      0,
      1,
      2,
      3,
      4,
      5,
      6
    ],
    "hasOtherOption": true,
    "otherOptionNameTextMapHash": 2503424845
  },
  {
    "id": 7,
    "isChar": true,
    "filterType": "CARD_TAG",
    "filterNameTextMapHash": 3154281962,
    "paramList": [
      602,
      603
    ],
    "otherOptionNameTextMapHash": 3556976437
  }
]