[
  {
    "cardId": 1101,
    "proficiencyRewardList": [
      {
        "proficiency": 10,
        "rewardId": 4202001
      },
      {},
      {}
    ]
  },
  {
    "cardId": 1102,
    "proficiencyRewardList": [
      {
        "proficiency": 10,
        "rewardId": 4202024
      },
      {},
      {}
    ]
  },
  {
    "cardId": 1103,
    "proficiencyRewardList": [
      {
        "proficiency": 10,
        "rewardId": 4202002
      },
      {},
      {}
    ]
  },
  {
    "cardId": 1104,
    "proficiencyRewardList": [
      {
        "proficiency": 10,
        "rewardId": 4202003
      },
      {},
      {}
    ]
  },
  {
    "cardId": 1105,
    "proficiencyRewardList": [
      {
        "proficiency": 10,
        "rewardId": 4202004
      },
      {},
      {}
    ]
  },
  {
    "cardId": 1106,
    "proficiencyRewardList": [
      {
        "proficiency": 10,
        "rewardId": 4202031
      },
      {},
      {}
    ]
  },
  {
    "cardId": 1107,
    "proficiencyRewardList": [
      {
        "proficiency": 10,
        "rewardId": 4202037
      },
      {},
      {}
    ]
  },
  {
    "cardId": 1108,
    "proficiencyRewardList": [
      {
        "proficiency": 10,
        "rewardId": 4202053
      },
      {},
      {}
    ]
  },
  {
    "cardId": 1109,
    "proficiencyRewardList": [
      {
        "proficiency": 10,
        "rewardId": 4202062
      },
      {},
      {}
    ]
  },
  {
    "cardId": 1110,
    "proficiencyRewardList": [
      {
        "proficiency": 10,
        "rewardId": 4202077
      },
      {},
      {}
    ]
  },
  {
    "cardId": 1111,
    "proficiencyRewardList": [
      {
        "proficiency": 10,
        "rewardId": 4202085
      },
      {},
      {}
    ]
  },
  {
    "cardId": 1112,
    "proficiencyRewardList": [
      {
        "proficiency": 10,
        "rewardId": 4202098
      },
      {},
      {}
    ]
  },
  {
    "cardId": 1201,
    "proficiencyRewardList": [
      {
        "proficiency": 10,
        "rewardId": 4202026
      },
      {},
      {}
    ]
  },
  {
    "cardId": 1202,
    "proficiencyRewardList": [
      {
        "proficiency": 10,
        "rewardId": 4202005
      },
      {},
      {}
    ]
  },
  {
    "cardId": 1203,
    "proficiencyRewardList": [
      {
        "proficiency": 10,
        "rewardId": 4202006
      },
      {},
      {}
    ]
  },
  {
    "cardId": 1204,
    "proficiencyRewardList": [
      {
        "proficiency": 10,
        "rewardId": 4202038
      },
      {},
      {}
    ]
  },
  {
    "cardId": 1205,
    "proficiencyRewardList": [
      {
        "proficiency": 10,
        "rewardId": 4202032
      },
      {},
      {}
    ]
  },
  {
    "cardId": 1206,
    "proficiencyRewardList": [
      {
        "proficiency": 10,
        "rewardId": 4202034
      },
      {},
      {}
    ]
  },
  {
    "cardId": 1207,
    "proficiencyRewardList": [
      {
        "proficiency": 10,
        "rewardId": 4202050
      },
      {},
      {}
    ]
  },
  {
    "cardId": 1208,
    "proficiencyRewardList": [
      {
        "proficiency": 10,
        "rewardId": 4202060
      },
      {},
      {}
    ]
  },
  {
    "cardId": 1209,
    "proficiencyRewardList": [
      {
        "proficiency": 10,
        "rewardId": 4202063
      },
      {},
      {}
    ]
  },
  {
    "cardId": 1210,
    "proficiencyRewardList": [
      {
        "proficiency": 10,
        "rewardId": 4202078
      },
      {},
      {}
    ]
  },
  {
    "cardId": 1211,
    "proficiencyRewardList": [
      {
        "proficiency": 10,
        "rewardId": 4202086
      },
      {},
      {}
    ]
  },
  {
    "cardId": 1301,
    "proficiencyRewardList": [
      {
        "proficiency": 10,
        "rewardId": 4202007
      },
      {},
      {}
    ]
  },
  {
    "cardId": 1302,
    "proficiencyRewardList": [
      {
        "proficiency": 10,
        "rewardId": 4202008
      },
      {},
      {}
    ]
  },
  {
    "cardId": 1303,
    "proficiencyRewardList": [
      {
        "proficiency": 10,
        "rewardId": 4202009
      },
      {},
      {}
    ]
  },
  {
    "cardId": 1304,
    "proficiencyRewardList": [
      {
        "proficiency": 10,
        "rewardId": 4202039
      },
      {},
      {}
    ]
  },
  {
    "cardId": 1305,
    "proficiencyRewardList": [
      {
        "proficiency": 10,
        "rewardId": 4202011
      },
      {},
      {}
    ]
  },
  {
    "cardId": 1306,
    "proficiencyRewardList": [
      {
        "proficiency": 10,
        "rewardId": 4202030
      },
      {},
      {}
    ]
  },
  {
    "cardId": 1307,
    "proficiencyRewardList": [
      {
        "proficiency": 10,
        "rewardId": 4202040
      },
      {},
      {}
    ]
  },
  {
    "cardId": 1308,
    "proficiencyRewardList": [
      {
        "proficiency": 10,
        "rewardId": 4202051
      },
      {},
      {}
    ]
  },
  {
    "cardId": 1309,
    "proficiencyRewardList": [
      {
        "proficiency": 10,
        "rewardId": 4202056
      },
      {},
      {}
    ]
  },
  {
    "cardId": 1310,
    "proficiencyRewardList": [
      {
        "proficiency": 10,
        "rewardId": 4202064
      },
      {},
      {}
    ]
  },
  {
    "cardId": 1311,
    "proficiencyRewardList": [
      {
        "proficiency": 10,
        "rewardId": 4202073
      },
      {},
      {}
    ]
  },
  {
    "cardId": 1312,
    "proficiencyRewardList": [
      {
        "proficiency": 10,
        "rewardId": 4202087
      },
      {},
      {}
    ]
  },
  {
    "cardId": 1313,
    "proficiencyRewardList": [
      {
        "proficiency": 10,
        "rewardId": 4202095
      },
      {},
      {}
    ]
  },
  {
    "cardId": 1401,
    "proficiencyRewardList": [
      {
        "proficiency": 10,
        "rewardId": 4202012
      },
      {},
      {}
    ]
  },
  {
    "cardId": 1402,
    "proficiencyRewardList": [
      {
        "proficiency": 10,
        "rewardId": 4202013
      },
      {},
      {}
    ]
  },
  {
    "cardId": 1403,
    "proficiencyRewardList": [
      {
        "proficiency": 10,
        "rewardId": 4202014
      },
      {},
      {}
    ]
  },
  {
    "cardId": 1404,
    "proficiencyRewardList": [
      {
        "proficiency": 10,
        "rewardId": 4202025
      },
      {},
      {}
    ]
  },
  {
    "cardId": 1405,
    "proficiencyRewardList": [
      {
        "proficiency": 10,
        "rewardId": 4202029
      },
      {},
      {}
    ]
  },
  {
    "cardId": 1406,
    "proficiencyRewardList": [
      {
        "proficiency": 10,
        "rewardId": 4202033
      },
      {},
      {}
    ]
  },
  {
    "cardId": 1407,
    "proficiencyRewardList": [
      {
        "proficiency": 10,
        "rewardId": 4202041
      },
      {},
      {}
    ]
  },
  {
    "cardId": 1408,
    "proficiencyRewardList": [
      {
        "proficiency": 10,
        "rewardId": 4202042
      },
      {},
      {}
    ]
  },
  {
    "cardId": 1409,
    "proficiencyRewardList": [
      {
        "proficiency": 10,
        "rewardId": 4202054
      },
      {},
      {}
    ]
  },
  {
    "cardId": 1410,
    "proficiencyRewardList": [
      {
        "proficiency": 10,
        "rewardId": 4202059
      },
      {},
      {}
    ]
  },
  {
    "cardId": 1411,
    "proficiencyRewardList": [
      {
        "proficiency": 10,
        "rewardId": 4202081
      },
      {},
      {}
    ]
  },
  {
    "cardId": 1501,
    "proficiencyRewardList": [
      {
        "proficiency": 10,
        "rewardId": 4202015
      },
      {},
      {}
    ]
  },
  {
    "cardId": 1502,
    "proficiencyRewardList": [
      {
        "proficiency": 10,
        "rewardId": 4202016
      },
      {},
      {}
    ]
  },
  {
    "cardId": 1503,
    "proficiencyRewardList": [
      {
        "proficiency": 10,
        "rewardId": 4202043
      },
      {},
      {}
    ]
  },
  {
    "cardId": 1504,
    "proficiencyRewardList": [
      {
        "proficiency": 10,
        "rewardId": 4202044
      },
      {},
      {}
    ]
  },
  {
    "cardId": 1505,
    "proficiencyRewardList": [
      {
        "proficiency": 10,
        "rewardId": 4202052
      },
      {},
      {}
    ]
  },
  {
    "cardId": 1506,
    "proficiencyRewardList": [
      {
        "proficiency": 10,
        "rewardId": 4202057
      },
      {},
      {}
    ]
  },
  {
    "cardId": 1507,
    "proficiencyRewardList": [
      {
        "proficiency": 10,
        "rewardId": 4202074
      },
      {},
      {}
    ]
  },
  {
    "cardId": 1508,
    "proficiencyRewardList": [
      {
        "proficiency": 10,
        "rewardId": 4202065
      },
      {},
      {}
    ]
  },
  {
    "cardId": 1509,
    "proficiencyRewardList": [
      {
        "proficiency": 10,
        "rewardId": 4202082
      },
      {},
      {}
    ]
  },
  {
    "cardId": 1510,
    "proficiencyRewardList": [
      {
        "proficiency": 10,
        "rewardId": 4202097
      },
      {},
      {}
    ]
  },
  {
    "cardId": 1601,
    "proficiencyRewardList": [
      {
        "proficiency": 10,
        "rewardId": 4202017
      },
      {},
      {}
    ]
  },
  {
    "cardId": 1602,
    "proficiencyRewardList": [
      {
        "proficiency": 10,
        "rewardId": 4202018
      },
      {},
      {}
    ]
  },
  {
    "cardId": 1603,
    "proficiencyRewardList": [
      {
        "proficiency": 10,
        "rewardId": 4202045
      },
      {},
      {}
    ]
  },
  {
    "cardId": 1604,
    "proficiencyRewardList": [
      {
        "proficiency": 10,
        "rewardId": 4202055
      },
      {},
      {}
    ]
  },
  {
    "cardId": 1605,
    "proficiencyRewardList": [
      {
        "proficiency": 10,
        "rewardId": 4202035
      },
      {},
      {}
    ]
  },
  {
    "cardId": 1606,
    "proficiencyRewardList": [
      {
        "proficiency": 10,
        "rewardId": 4202066
      },
      {},
      {}
    ]
  },
  {
    "cardId": 1607,
    "proficiencyRewardList": [
      {
        "proficiency": 10,
        "rewardId": 4202088
      },
      {},
      {}
    ]
  },
  {
    "cardId": 1608,
    "proficiencyRewardList": [
      {
        "proficiency": 10,
        "rewardId": 4202094
      },
      {},
      {}
    ]
  },
  {
    "cardId": 1701,
    "proficiencyRewardList": [
      {
        "proficiency": 10,
        "rewardId": 4202019
      },
      {},
      {}
    ]
  },
  {
    "cardId": 1702,
    "proficiencyRewardList": [
      {
        "proficiency": 10,
        "rewardId": 4202036
      },
      {},
      {}
    ]
  },
  {
    "cardId": 1703,
    "proficiencyRewardList": [
      {
        "proficiency": 10,
        "rewardId": 4202046
      },
      {},
      {}
    ]
  },
  {
    "cardId": 1704,
    "proficiencyRewardList": [
      {
        "proficiency": 10,
        "rewardId": 4202058
      },
      {},
      {}
    ]
  },
  {
    "cardId": 1705,
    "proficiencyRewardList": [
      {
        "proficiency": 10,
        "rewardId": 4202061
      },
      {},
      {}
    ]
  },
  {
    "cardId": 1706,
    "proficiencyRewardList": [
      {
        "proficiency": 10,
        "rewardId": 4202067
      },
      {},
      {}
    ]
  },
  {
    "cardId": 1707,
    "proficiencyRewardList": [
      {
        "proficiency": 10,
        "rewardId": 4202079
      },
      {},
      {}
    ]
  },
  {
    "cardId": 1708,
    "proficiencyRewardList": [
      {
        "proficiency": 10,
        "rewardId": 4202089
      },
      {},
      {}
    ]
  },
  {
    "cardId": 2101,
    "proficiencyRewardList": [
      {
        "proficiency": 10,
        "rewardId": 4202047
      },
      {},
      {}
    ]
  },
  {
    "cardId": 2102,
    "proficiencyRewardList": [
      {
        "proficiency": 10,
        "rewardId": 4202072
      },
      {},
      {}
    ]
  },
  {
    "cardId": 2103,
    "proficiencyRewardList": [
      {
        "proficiency": 10,
        "rewardId": 4202075
      },
      {},
      {}
    ]
  },
  {
    "cardId": 2104,
    "proficiencyRewardList": [
      {
        "proficiency": 10,
        "rewardId": 4202096
      },
      {},
      {}
    ]
  },
  {
    "cardId": 2201,
    "proficiencyRewardList": [
      {
        "proficiency": 10,
        "rewardId": 4202020
      },
      {},
      {}
    ]
  },
  {
    "cardId": 2202,
    "proficiencyRewardList": [
      {
        "proficiency": 10,
        "rewardId": 4202027
      },
      {},
      {}
    ]
  },
  {
    "cardId": 2203,
    "proficiencyRewardList": [
      {
        "proficiency": 10,
        "rewardId": 4202083
      },
      {},
      {}
    ]
  },
  {
    "cardId": 2204,
    "proficiencyRewardList": [
      {
        "proficiency": 10,
        "rewardId": 4202090
      },
      {},
      {}
    ]
  },
  {
    "cardId": 2205,
    "proficiencyRewardList": [
      {
        "proficiency": 10,
        "rewardId": 4202099
      },
      {},
      {}
    ]
  },
  {
    "cardId": 2301,
    "proficiencyRewardList": [
      {
        "proficiency": 10,
        "rewardId": 4202021
      },
      {},
      {}
    ]
  },
  {
    "cardId": 2302,
    "proficiencyRewardList": [
      {
        "proficiency": 10,
        "rewardId": 4202048
      },
      {},
      {}
    ]
  },
  {
    "cardId": 2303,
    "proficiencyRewardList": [
      {
        "proficiency": 10,
        "rewardId": 4202068
      },
      {},
      {}
    ]
  },
  {
    "cardId": 2304,
    "proficiencyRewardList": [
      {
        "proficiency": 10,
        "rewardId": 4202084
      },
      {},
      {}
    ]
  },
  {
    "cardId": 2401,
    "proficiencyRewardList": [
      {
        "proficiency": 10,
        "rewardId": 4202049
      },
      {},
      {}
    ]
  },
  {
    "cardId": 2402,
    "proficiencyRewardList": [
      {
        "proficiency": 10,
        "rewardId": 4202069
      },
      {},
      {}
    ]
  },
  {
    "cardId": 2403,
    "proficiencyRewardList": [
      {
        "proficiency": 10,
        "rewardId": 4202076
      },
      {},
      {}
    ]
  },
  {
    "cardId": 2404,
    "proficiencyRewardList": [
      {
        "proficiency": 10,
        "rewardId": 4202080
      },
      {},
      {}
    ]
  },
  {
    "cardId": 2405,
    "proficiencyRewardList": [
      {
        "proficiency": 10,
        "rewardId": 4202092
      },
      {},
      {}
    ]
  },
  {
    "cardId": 2501,
    "proficiencyRewardList": [
      {
        "proficiency": 10,
        "rewardId": 4202022
      },
      {},
      {}
    ]
  },
  {
    "cardId": 2502,
    "proficiencyRewardList": [
      {
        "proficiency": 10,
        "rewardId": 4202070
      },
      {},
      {}
    ]
  },
  {
    "cardId": 2503,
    "proficiencyRewardList": [
      {
        "proficiency": 10,
        "rewardId": 4202093
      },
      {},
      {}
    ]
  },
  {
    "cardId": 2601,
    "proficiencyRewardList": [
      {
        "proficiency": 10,
        "rewardId": 4202023
      },
      {},
      {}
    ]
  },
  {
    "cardId": 2602,
    "proficiencyRewardList": [
      {
        "proficiency": 10,
        "rewardId": 4202071
      },
      {},
      {}
    ]
  },
  {
    "cardId": 2701,
    "proficiencyRewardList": [
      {
        "proficiency": 10,
        "rewardId": 4202028
      },
      {},
      {}
    ]
  },
  {
    "cardId": 2702,
    "proficiencyRewardList": [
      {
        "proficiency": 10,
        "rewardId": 4202091
      },
      {},
      {}
    ]
  }
]