[
  {
    "levelID": 1,
    "homeCoinProduceRate": 4,
    "companionshipExpProduceRate": 2,
    "levelNameTextMapHash": 1082613177,
    "levelIconHash": 16747745322099471604
  },
  {
    "levelID": 2,
    "comfort": 2000,
    "homeCoinProduceRate": 8,
    "companionshipExpProduceRate": 2,
    "levelNameTextMapHash": 196277833,
    "levelIconHash": 17080293789076112984
  },
  {
    "levelID": 3,
    "comfort": 3000,
    "homeCoinProduceRate": 12,
    "companionshipExpProduceRate": 3,
    "levelNameTextMapHash": 2676568593,
    "levelIconHash": 16279232378385162783
  },
  {
    "levelID": 4,
    "comfort": 4500,
    "homeCoinProduceRate": 16,
    "companionshipExpProduceRate": 3,
    "levelNameTextMapHash": 2172116345,
    "levelIconHash": 3684454611119459078
  },
  {
    "levelID": 5,
    "comfort": 6000,
    "homeCoinProduceRate": 20,
    "companionshipExpProduceRate": 4,
    "levelNameTextMapHash": 672600769,
    "levelIconHash": 10098930141870542043
  },
  {
    "levelID": 6,
    "comfort": 8000,
    "homeCoinProduceRate": 22,
    "companionshipExpProduceRate": 4,
    "levelNameTextMapHash": 1740745673,
    "levelIconHash": 12211725128208153348
  },
  {
    "levelID": 7,
    "comfort": 10000,
    "homeCoinProduceRate": 24,
    "companionshipExpProduceRate": 4,
    "levelNameTextMapHash": 1634133785,
    "levelIconHash": 4695957736439282948
  },
  {
    "levelID": 8,
    "comfort": 12000,
    "homeCoinProduceRate": 26,
    "companionshipExpProduceRate": 5,
    "levelNameTextMapHash": 1001983697,
    "levelIconHash": 5679699180339903404
  },
  {
    "levelID": 9,
    "comfort": 15000,
    "homeCoinProduceRate": 28,
    "companionshipExpProduceRate": 5,
    "levelNameTextMapHash": 1857494105,
    "levelIconHash": 14846993579188463327
  },
  {
    "levelID": 10,
    "comfort": 20000,
    "homeCoinProduceRate": 30,
    "companionshipExpProduceRate": 5,
    "levelNameTextMapHash": 3088092417,
    "levelIconHash": 4801937074232841160
  }
]