[
  {
    "id": 1,
    "cityId": 1,
    "regionId": 101,
    "finishRewardId": 2010101
  },
  {
    "id": 2,
    "cityId": 1,
    "difficulty": "HUNTING_DIFFICULTY_MEDIUM",
    "regionId": 101,
    "finishRewardId": 2010102
  },
  {
    "id": 3,
    "cityId": 1,
    "difficulty": "HUNTING_DIFFICULTY_HARD",
    "regionId": 101,
    "finishRewardId": 2010103
  },
  {
    "id": 4,
    "cityId": 1,
    "regionId": 102,
    "finishRewardId": 2010101
  },
  {
    "id": 5,
    "cityId": 1,
    "difficulty": "HUNTING_DIFFICULTY_MEDIUM",
    "regionId": 102,
    "finishRewardId": 2010102
  },
  {
    "id": 6,
    "cityId": 1,
    "difficulty": "HUNTING_DIFFICULTY_HARD",
    "regionId": 102,
    "finishRewardId": 2010103
  },
  {
    "id": 7,
    "cityId": 1,
    "regionId": 103,
    "finishRewardId": 2010101
  },
  {
    "id": 8,
    "cityId": 1,
    "difficulty": "HUNTING_DIFFICULTY_MEDIUM",
    "regionId": 103,
    "finishRewardId": 2010102
  },
  {
    "id": 9,
    "cityId": 1,
    "difficulty": "HUNTING_DIFFICULTY_HARD",
    "regionId": 103,
    "finishRewardId": 2010103
  },
  {
    "id": 10,
    "cityId": 1,
    "regionId": 104,
    "finishRewardId": 2010101
  },
  {
    "id": 11,
    "cityId": 1,
    "difficulty": "HUNTING_DIFFICULTY_MEDIUM",
    "regionId": 104,
    "finishRewardId": 2010102
  },
  {
    "id": 12,
    "cityId": 1,
    "difficulty": "HUNTING_DIFFICULTY_HARD",
    "regionId": 104,
    "finishRewardId": 2010103
  },
  {
    "id": 13,
    "cityId": 2,
    "regionId": 201,
    "finishRewardId": 2020101
  },
  {
    "id": 14,
    "cityId": 2,
    "difficulty": "HUNTING_DIFFICULTY_MEDIUM",
    "regionId": 201,
    "finishRewardId": 2020102
  },
  {
    "id": 15,
    "cityId": 2,
    "difficulty": "HUNTING_DIFFICULTY_HARD",
    "regionId": 201,
    "finishRewardId": 2020103
  },
  {
    "id": 16,
    "cityId": 2,
    "regionId": 202,
    "finishRewardId": 2020101
  },
  {
    "id": 17,
    "cityId": 2,
    "difficulty": "HUNTING_DIFFICULTY_MEDIUM",
    "regionId": 202,
    "finishRewardId": 2020102
  },
  {
    "id": 18,
    "cityId": 2,
    "difficulty": "HUNTING_DIFFICULTY_HARD",
    "regionId": 202,
    "finishRewardId": 2020103
  },
  {
    "id": 19,
    "cityId": 2,
    "regionId": 203,
    "finishRewardId": 2020101
  },
  {
    "id": 20,
    "cityId": 2,
    "difficulty": "HUNTING_DIFFICULTY_MEDIUM",
    "regionId": 203,
    "finishRewardId": 2020102
  },
  {
    "id": 21,
    "cityId": 2,
    "difficulty": "HUNTING_DIFFICULTY_HARD",
    "regionId": 203,
    "finishRewardId": 2020103
  },
  {
    "id": 22,
    "cityId": 2,
    "regionId": 204,
    "finishRewardId": 2020101
  },
  {
    "id": 23,
    "cityId": 2,
    "difficulty": "HUNTING_DIFFICULTY_MEDIUM",
    "regionId": 204,
    "finishRewardId": 2020102
  },
  {
    "id": 24,
    "cityId": 2,
    "difficulty": "HUNTING_DIFFICULTY_HARD",
    "regionId": 204,
    "finishRewardId": 2020103
  },
  {
    "id": 25,
    "cityId": 3,
    "regionId": 301,
    "finishRewardId": 2030101
  },
  {
    "id": 26,
    "cityId": 3,
    "difficulty": "HUNTING_DIFFICULTY_MEDIUM",
    "regionId": 301,
    "finishRewardId": 2030102
  },
  {
    "id": 27,
    "cityId": 3,
    "difficulty": "HUNTING_DIFFICULTY_HARD",
    "regionId": 301,
    "finishRewardId": 2030103
  },
  {
    "id": 28,
    "cityId": 3,
    "regionId": 302,
    "finishRewardId": 2030101
  },
  {
    "id": 29,
    "cityId": 3,
    "difficulty": "HUNTING_DIFFICULTY_MEDIUM",
    "regionId": 302,
    "finishRewardId": 2030102
  },
  {
    "id": 30,
    "cityId": 3,
    "difficulty": "HUNTING_DIFFICULTY_HARD",
    "regionId": 302,
    "finishRewardId": 2030103
  },
  {
    "id": 31,
    "cityId": 3,
    "regionId": 303,
    "finishRewardId": 2030101
  },
  {
    "id": 32,
    "cityId": 3,
    "difficulty": "HUNTING_DIFFICULTY_MEDIUM",
    "regionId": 303,
    "finishRewardId": 2030102
  },
  {
    "id": 33,
    "cityId": 3,
    "difficulty": "HUNTING_DIFFICULTY_HARD",
    "regionId": 303,
    "finishRewardId": 2030103
  },
  {
    "id": 34,
    "cityId": 3,
    "regionId": 304,
    "finishRewardId": 2030101
  },
  {
    "id": 35,
    "cityId": 3,
    "difficulty": "HUNTING_DIFFICULTY_MEDIUM",
    "regionId": 304,
    "finishRewardId": 2030102
  },
  {
    "id": 36,
    "cityId": 3,
    "difficulty": "HUNTING_DIFFICULTY_HARD",
    "regionId": 304,
    "finishRewardId": 2030103
  },
  {
    "id": 37,
    "cityId": 4,
    "regionId": 401,
    "finishRewardId": 2040101
  },
  {
    "id": 38,
    "cityId": 4,
    "difficulty": "HUNTING_DIFFICULTY_MEDIUM",
    "regionId": 401,
    "finishRewardId": 2040102
  },
  {
    "id": 39,
    "cityId": 4,
    "difficulty": "HUNTING_DIFFICULTY_HARD",
    "regionId": 401,
    "finishRewardId": 2040103
  },
  {
    "id": 40,
    "cityId": 4,
    "regionId": 402,
    "finishRewardId": 2040101
  },
  {
    "id": 41,
    "cityId": 4,
    "difficulty": "HUNTING_DIFFICULTY_MEDIUM",
    "regionId": 402,
    "finishRewardId": 2040102
  },
  {
    "id": 42,
    "cityId": 4,
    "difficulty": "HUNTING_DIFFICULTY_HARD",
    "regionId": 402,
    "finishRewardId": 2040103
  },
  {
    "id": 43,
    "cityId": 4,
    "regionId": 403,
    "finishRewardId": 2040101
  },
  {
    "id": 44,
    "cityId": 4,
    "difficulty": "HUNTING_DIFFICULTY_MEDIUM",
    "regionId": 403,
    "finishRewardId": 2040102
  },
  {
    "id": 45,
    "cityId": 4,
    "difficulty": "HUNTING_DIFFICULTY_HARD",
    "regionId": 403,
    "finishRewardId": 2040103
  },
  {
    "id": 46,
    "cityId": 4,
    "regionId": 404,
    "finishRewardId": 2040101
  },
  {
    "id": 47,
    "cityId": 4,
    "difficulty": "HUNTING_DIFFICULTY_MEDIUM",
    "regionId": 404,
    "finishRewardId": 2040102
  },
  {
    "id": 48,
    "cityId": 4,
    "difficulty": "HUNTING_DIFFICULTY_HARD",
    "regionId": 404,
    "finishRewardId": 2040103
  },
  {
    "id": 49,
    "cityId": 4,
    "regionId": 405,
    "finishRewardId": 2040101
  },
  {
    "id": 50,
    "cityId": 4,
    "difficulty": "HUNTING_DIFFICULTY_MEDIUM",
    "regionId": 405,
    "finishRewardId": 2040102
  },
  {
    "id": 51,
    "cityId": 4,
    "difficulty": "HUNTING_DIFFICULTY_HARD",
    "regionId": 405,
    "finishRewardId": 2040103
  },
  {
    "id": 52,
    "cityId": 4,
    "regionId": 406,
    "finishRewardId": 2040101
  },
  {
    "id": 53,
    "cityId": 4,
    "difficulty": "HUNTING_DIFFICULTY_MEDIUM",
    "regionId": 406,
    "finishRewardId": 2040102
  },
  {
    "id": 54,
    "cityId": 4,
    "difficulty": "HUNTING_DIFFICULTY_HARD",
    "regionId": 406,
    "finishRewardId": 2040103
  },
  {
    "id": 55,
    "cityId": 4,
    "regionId": 407,
    "finishRewardId": 2040101
  },
  {
    "id": 56,
    "cityId": 4,
    "difficulty": "HUNTING_DIFFICULTY_MEDIUM",
    "regionId": 407,
    "finishRewardId": 2040102
  },
  {
    "id": 57,
    "cityId": 4,
    "difficulty": "HUNTING_DIFFICULTY_HARD",
    "regionId": 407,
    "finishRewardId": 2040103
  },
  {
    "id": 58,
    "cityId": 4,
    "regionId": 408,
    "finishRewardId": 2040101
  },
  {
    "id": 59,
    "cityId": 4,
    "difficulty": "HUNTING_DIFFICULTY_MEDIUM",
    "regionId": 408,
    "finishRewardId": 2040102
  },
  {
    "id": 60,
    "cityId": 4,
    "difficulty": "HUNTING_DIFFICULTY_HARD",
    "regionId": 408,
    "finishRewardId": 2040103
  },
  {
    "id": 61,
    "cityId": 5,
    "regionId": 501,
    "finishRewardId": 2050101
  },
  {
    "id": 62,
    "cityId": 5,
    "difficulty": "HUNTING_DIFFICULTY_MEDIUM",
    "regionId": 501,
    "finishRewardId": 2050102
  },
  {
    "id": 63,
    "cityId": 5,
    "difficulty": "HUNTING_DIFFICULTY_HARD",
    "regionId": 501,
    "finishRewardId": 2050103
  },
  {
    "id": 64,
    "cityId": 5,
    "regionId": 502,
    "finishRewardId": 2050101
  },
  {
    "id": 65,
    "cityId": 5,
    "difficulty": "HUNTING_DIFFICULTY_MEDIUM",
    "regionId": 502,
    "finishRewardId": 2050102
  },
  {
    "id": 66,
    "cityId": 5,
    "difficulty": "HUNTING_DIFFICULTY_HARD",
    "regionId": 502,
    "finishRewardId": 2050103
  },
  {
    "id": 67,
    "cityId": 5,
    "regionId": 503,
    "finishRewardId": 2050101
  },
  {
    "id": 68,
    "cityId": 5,
    "difficulty": "HUNTING_DIFFICULTY_MEDIUM",
    "regionId": 503,
    "finishRewardId": 2050102
  },
  {
    "id": 69,
    "cityId": 5,
    "difficulty": "HUNTING_DIFFICULTY_HARD",
    "regionId": 503,
    "finishRewardId": 2050103
  },
  {
    "id": 70,
    "cityId": 5,
    "regionId": 504,
    "finishRewardId": 2050101
  },
  {
    "id": 71,
    "cityId": 5,
    "difficulty": "HUNTING_DIFFICULTY_MEDIUM",
    "regionId": 504,
    "finishRewardId": 2050102
  },
  {
    "id": 72,
    "cityId": 5,
    "difficulty": "HUNTING_DIFFICULTY_HARD",
    "regionId": 504,
    "finishRewardId": 2050103
  },
  {
    "id": 73,
    "cityId": 5,
    "regionId": 505,
    "finishRewardId": 2050101
  },
  {
    "id": 74,
    "cityId": 5,
    "difficulty": "HUNTING_DIFFICULTY_MEDIUM",
    "regionId": 505,
    "finishRewardId": 2050102
  },
  {
    "id": 75,
    "cityId": 5,
    "difficulty": "HUNTING_DIFFICULTY_HARD",
    "regionId": 505,
    "finishRewardId": 2050103
  },
  {
    "id": 76,
    "cityId": 5,
    "regionId": 506,
    "finishRewardId": 2050101
  },
  {
    "id": 77,
    "cityId": 5,
    "difficulty": "HUNTING_DIFFICULTY_MEDIUM",
    "regionId": 506,
    "finishRewardId": 2050102
  },
  {
    "id": 78,
    "cityId": 5,
    "difficulty": "HUNTING_DIFFICULTY_HARD",
    "regionId": 506,
    "finishRewardId": 2050103
  }
]