[
  {
    "activityId": 2028,
    "OJPJNHKAJJN": 3,
    "PPLMJNMCHEL": 1161,
    "LGALHPJNHAJ": 10,
    "KKJCJAFPADO": 60,
    "HDONFCHDMHI": 5,
    "GCKKEOAFLKD": 10,
    "FCGLIIMAODG": 20,
    "BJJNDBPOKIO": [
      2000,
      4000,
      6000
    ],
    "JBHABAPOCAH": [
      1,
      3,
      5
    ],
    "watcherList": [
      2028001,
      2028002,
      2028003,
      2028004,
      2028005,
      2028006,
      2028007,
      2028008,
      2028009,
      2028010,
      2028011,
      2028012
    ],
    "FFAKJADAOOD": []
  }
]