[
  {
    "galleryId": 76101,
    "ECDBLOPCHAB": 13264,
    "levelDescTextMapHash": 1342717109,
    "PCBLNPAPBCO": [
      1,
      2,
      3,
      4
    ],
    "DHBCJADDFCH": 133101334,
    "LIHHFIGFDGG": 2,
    "IOENFEEGJLD": 3082425129,
    "MOEGLEKIEKO": 19,
    "groupBundleID": 20280101,
    "GJNLFNPMKPA": [
      71532
    ],
    "levelID": 1,
    "activityID": 2028,
    "nameTextMapHash": 3113748019,
    "questList": [
      40139,
      71532
    ],
    "IOLJJIINAFC": [],
    "watcherList": [
      12028311,
      12028312,
      12028313
    ],
    "openDay": 3,
    "LBGLFCIGLDE": [
      "ACTIVITY_LEVEL_COND_TYPE_MAIN_QUEST"
    ],
    "MOOLHLOIFGJ": [
      "ACTIVITY_LEVEL_COND_TYPE_OPEN_DAY",
      "ACTIVITY_LEVEL_COND_TYPE_DEFAULT"
    ],
    "OOABMKBBPAF": [
      "ACTIVITY_LEVEL_COND_TYPE_WATCHER_REWARD_TAKEN"
    ]
  },
  {
    "galleryId": 76102,
    "ECDBLOPCHAB": 13265,
    "levelDescTextMapHash": 1210722861,
    "PCBLNPAPBCO": [
      1,
      2,
      3,
      7,
      5
    ],
    "DHBCJADDFCH": 133114029,
    "LIHHFIGFDGG": 2,
    "IOENFEEGJLD": 941488561,
    "MOEGLEKIEKO": 19,
    "groupBundleID": 20280102,
    "GJNLFNPMKPA": [
      71532
    ],
    "levelID": 2,
    "activityID": 2028,
    "nameTextMapHash": 3831582643,
    "questList": [
      40139,
      71532
    ],
    "IOLJJIINAFC": [
      1
    ],
    "watcherList": [
      12028321,
      12028322,
      12028323
    ],
    "openDay": 3,
    "LBGLFCIGLDE": [
      "ACTIVITY_LEVEL_COND_TYPE_MAIN_QUEST"
    ],
    "MOOLHLOIFGJ": [
      "ACTIVITY_LEVEL_COND_TYPE_OPEN_DAY",
      "ACTIVITY_LEVEL_COND_TYPE_PRE_LEVEL_PLAYED"
    ],
    "OOABMKBBPAF": [
      "ACTIVITY_LEVEL_COND_TYPE_WATCHER_REWARD_TAKEN"
    ]
  },
  {
    "galleryId": 76103,
    "ECDBLOPCHAB": 13266,
    "levelDescTextMapHash": 3490423605,
    "PCBLNPAPBCO": [
      1,
      2,
      8,
      3,
      6
    ],
    "DHBCJADDFCH": 133116029,
    "LIHHFIGFDGG": 2,
    "IOENFEEGJLD": 4123171681,
    "MOEGLEKIEKO": 19,
    "groupBundleID": 20280103,
    "GJNLFNPMKPA": [
      71532
    ],
    "levelID": 3,
    "activityID": 2028,
    "nameTextMapHash": 1779913275,
    "questList": [
      40139,
      71532
    ],
    "IOLJJIINAFC": [
      2
    ],
    "watcherList": [
      12028331,
      12028332,
      12028333
    ],
    "openDay": 3,
    "LBGLFCIGLDE": [
      "ACTIVITY_LEVEL_COND_TYPE_MAIN_QUEST"
    ],
    "MOOLHLOIFGJ": [
      "ACTIVITY_LEVEL_COND_TYPE_OPEN_DAY",
      "ACTIVITY_LEVEL_COND_TYPE_PRE_LEVEL_PLAYED"
    ],
    "OOABMKBBPAF": [
      "ACTIVITY_LEVEL_COND_TYPE_WATCHER_REWARD_TAKEN"
    ]
  },
  {
    "galleryId": 76104,
    "ECDBLOPCHAB": 13266,
    "levelDescTextMapHash": 963322645,
    "PCBLNPAPBCO": [
      1,
      2,
      8,
      3,
      7,
      4,
      5,
      6
    ],
    "DHBCJADDFCH": 133101462,
    "LIHHFIGFDGG": 2,
    "IOENFEEGJLD": 3932809809,
    "MOEGLEKIEKO": 19,
    "groupBundleID": 20280104,
    "GJNLFNPMKPA": [
      71532
    ],
    "levelID": 4,
    "activityID": 2028,
    "nameTextMapHash": 3685508203,
    "questList": [
      40139,
      71532
    ],
    "IOLJJIINAFC": [
      3
    ],
    "watcherList": [
      12028341,
      12028342,
      12028343
    ],
    "openDay": 5,
    "LBGLFCIGLDE": [
      "ACTIVITY_LEVEL_COND_TYPE_MAIN_QUEST"
    ],
    "MOOLHLOIFGJ": [
      "ACTIVITY_LEVEL_COND_TYPE_OPEN_DAY",
      "ACTIVITY_LEVEL_COND_TYPE_PRE_LEVEL_PLAYED"
    ],
    "OOABMKBBPAF": [
      "ACTIVITY_LEVEL_COND_TYPE_WATCHER_REWARD_TAKEN"
    ]
  },
  {
    "galleryId": 76105,
    "ECDBLOPCHAB": 13266,
    "levelDescTextMapHash": 1347300125,
    "PCBLNPAPBCO": [
      1,
      2,
      8,
      3,
      7,
      4,
      5,
      6
    ],
    "DHBCJADDFCH": 133101281,
    "LIHHFIGFDGG": 2,
    "IOENFEEGJLD": 2079485785,
    "MOEGLEKIEKO": 19,
    "groupBundleID": 20280105,
    "GJNLFNPMKPA": [
      71532
    ],
    "levelID": 5,
    "activityID": 2028,
    "nameTextMapHash": 1118248811,
    "questList": [
      40139,
      71532
    ],
    "IOLJJIINAFC": [
      4
    ],
    "watcherList": [
      12028351,
      12028352,
      12028353
    ],
    "openDay": 5,
    "LBGLFCIGLDE": [
      "ACTIVITY_LEVEL_COND_TYPE_MAIN_QUEST"
    ],
    "MOOLHLOIFGJ": [
      "ACTIVITY_LEVEL_COND_TYPE_OPEN_DAY",
      "ACTIVITY_LEVEL_COND_TYPE_PRE_LEVEL_PLAYED"
    ],
    "OOABMKBBPAF": [
      "ACTIVITY_LEVEL_COND_TYPE_WATCHER_REWARD_TAKEN"
    ]
  }
]