[
  {
    "id": 1,
    "activityId": 2010,
    "bossDungeonId": 7302,
    "bossStartDay": 7,
    "bossWatcherIdList": [
      12010801,
      12010802,
      12010803,
      12010811,
      12010821
    ],
    "bossExhibitionIdList": [
      11001101,
      11001102,
      11001103,
      11001104,
      11001105,
      11001106,
      11001107,
      11001108,
      11001109,
      11001110,
      11001111
    ],
    "bossPushTipsId": 6043,
    "clothesWatcherIdList": [
      12010001,
      12010002,
      12010003
    ],
    "clothesRewardId": 3035009,
    "bossCardIdList": [
      41,
      42,
      43,
      44,
      45
    ],
    "activityPlayDuration": 19
  }
]