[
  {
    "dungeonID": 9713,
    "IEDCPDKBFNL": 830037481,
    "levelDescTextMapHash": 1763747356,
    "previewPath": "UI_Img_LostSamachurl_Preview_06",
    "PCCHPDMOGDG": 13284,
    "ACJHEEDOMIG": 3600,
    "FCHDCMPIIBG": 2,
    "DCGEDGBHCBB": 4,
    "levelID": 1,
    "activityID": 5175,
    "nameTextMapHash": 830037481,
    "questList": [],
    "IOLJJIINAFC": [
      1
    ],
    "watcherList": [
      1517504,
      1517505,
      1517506
    ],
    "openDay": 1,
    "LBGLFCIGLDE": [
      "ACTIVITY_LEVEL_COND_TYPE_DEFAULT",
      "ACTIVITY_LEVEL_COND_TYPE_DEFAULT"
    ],
    "MOOLHLOIFGJ": [
      "ACTIVITY_LEVEL_COND_TYPE_OPEN_DAY"
    ],
    "OOABMKBBPAF": [
      "ACTIVITY_LEVEL_COND_TYPE_WATCHER_REWARD_TAKEN"
    ]
  },
  {
    "dungeonID": 9712,
    "IEDCPDKBFNL": 339568553,
    "levelDescTextMapHash": 810303228,
    "previewPath": "UI_Img_LostSamachurl_Preview_04",
    "PCCHPDMOGDG": 13283,
    "ACJHEEDOMIG": 3600,
    "FCHDCMPIIBG": 2,
    "DCGEDGBHCBB": 4,
    "levelID": 2,
    "activityID": 5175,
    "nameTextMapHash": 339568553,
    "questList": [],
    "IOLJJIINAFC": [
      3
    ],
    "watcherList": [
      1517507,
      1517508,
      1517509
    ],
    "openDay": 3,
    "LBGLFCIGLDE": [
      "ACTIVITY_LEVEL_COND_TYPE_DEFAULT",
      "ACTIVITY_LEVEL_COND_TYPE_DEFAULT"
    ],
    "MOOLHLOIFGJ": [
      "ACTIVITY_LEVEL_COND_TYPE_OPEN_DAY"
    ],
    "OOABMKBBPAF": [
      "ACTIVITY_LEVEL_COND_TYPE_WATCHER_REWARD_TAKEN"
    ]
  },
  {
    "dungeonID": 9711,
    "IEDCPDKBFNL": 2838188225,
    "levelDescTextMapHash": 2041152084,
    "previewPath": "UI_Img_LostSamachurl_Preview_02",
    "PCCHPDMOGDG": 13255,
    "ACJHEEDOMIG": 3600,
    "FCHDCMPIIBG": 2,
    "DCGEDGBHCBB": 4,
    "levelID": 3,
    "activityID": 5175,
    "nameTextMapHash": 2838188225,
    "questList": [],
    "IOLJJIINAFC": [
      5
    ],
    "watcherList": [
      1517510,
      1517511,
      1517512
    ],
    "openDay": 5,
    "LBGLFCIGLDE": [
      "ACTIVITY_LEVEL_COND_TYPE_DEFAULT",
      "ACTIVITY_LEVEL_COND_TYPE_DEFAULT"
    ],
    "MOOLHLOIFGJ": [
      "ACTIVITY_LEVEL_COND_TYPE_OPEN_DAY"
    ],
    "OOABMKBBPAF": [
      "ACTIVITY_LEVEL_COND_TYPE_WATCHER_REWARD_TAKEN"
    ]
  },
  {
    "dungeonID": 9714,
    "IEDCPDKBFNL": 3417387257,
    "levelDescTextMapHash": 2045557620,
    "previewPath": "UI_Img_LostSamachurl_Preview_07",
    "PCCHPDMOGDG": 13285,
    "ACJHEEDOMIG": 3600,
    "FCHDCMPIIBG": 2,
    "DCGEDGBHCBB": 4,
    "levelID": 4,
    "activityID": 5175,
    "nameTextMapHash": 3417387257,
    "questList": [],
    "IOLJJIINAFC": [
      2,
      4,
      6
    ],
    "watcherList": [
      1517513,
      1517514,
      1517515
    ],
    "openDay": 7,
    "LBGLFCIGLDE": [
      "ACTIVITY_LEVEL_COND_TYPE_DEFAULT",
      "ACTIVITY_LEVEL_COND_TYPE_DEFAULT"
    ],
    "MOOLHLOIFGJ": [
      "ACTIVITY_LEVEL_COND_TYPE_OPEN_DAY"
    ],
    "OOABMKBBPAF": [
      "ACTIVITY_LEVEL_COND_TYPE_WATCHER_REWARD_TAKEN"
    ]
  }
]