[
  {
    "matchId": 1001,
    "matchIconHash": 14828682038547769261,
    "matchBtnName": "UI_ONLINE_MATCH_BUTTON_SINGLE",
    "matchBtnTips": "UI_ONLINE_AUTOMATCH_SINGLE",
    "requirementDescTextMapHash": 3708003537,
    "matchLimitReasonDescTextMapHash": 2562319488,
    "limitWarningDescTextMapHash": 2357156636,
    "inviteGuestDescTextMapHash": 4225393239,
    "inviteHostDescTextMapHash": 2164695162,
    "matchStartDesc": "UI_ONLINE_MATCH_TIP",
    "matchTitleTextMapHash": 2537487916,
    "matchSuccessDescTextMapHash": 2561181040,
    "punishHintTextMapHash": 3320857126,
    "GOEKBIADNAP": 4275533721,
    "EIENICABGCF": 1235837386
  },
  {
    "matchId": 1002,
    "matchIconHash": 3328308462011042033,
    "matchBtnName": "UI_ONLINE_MATCH_BUTTON_SINGLE",
    "matchBtnTips": "UI_ONLINE_AUTOMATCH_SINGLE",
    "requirementDescTextMapHash": 266058065,
    "matchLimitReasonDescTextMapHash": 1777073024,
    "limitWarningDescTextMapHash": 3733421308,
    "inviteGuestDescTextMapHash": 1561050023,
    "inviteHostDescTextMapHash": 2180587170,
    "matchStartDesc": "UI_ONLINE_MATCH_TIP",
    "matchTitleTextMapHash": 3510721180,
    "matchSuccessDescTextMapHash": 760144696,
    "punishHintTextMapHash": 3868587806,
    "GOEKBIADNAP": 1854388577,
    "EIENICABGCF": 3901255554
  },
  {
    "matchId": 1003,
    "matchIconHash": 7479442363256246268,
    "matchBtnName": "UI_ONLINE_MATCH_BUTTON_SINGLE",
    "matchBtnTips": "UI_ONLINE_AUTOMATCH_SINGLE",
    "requirementDescTextMapHash": 4098067777,
    "matchLimitReasonDescTextMapHash": 1443791360,
    "limitWarningDescTextMapHash": 2223407860,
    "inviteGuestDescTextMapHash": 2478497503,
    "inviteHostDescTextMapHash": 3944731234,
    "matchStartDesc": "UI_ONLINE_MATCH_TIP",
    "matchTitleTextMapHash": 2198166212,
    "matchSuccessDescTextMapHash": 1982250352,
    "punishHintTextMapHash": 677224526,
    "GOEKBIADNAP": 2439061897,
    "EIENICABGCF": 3894629658
  },
  {
    "matchId": 1004,
    "matchIconHash": 7479442363256246268,
    "matchBtnName": "UI_ONLINE_MATCH_BUTTON_SINGLE",
    "matchBtnTips": "UI_ONLINE_AUTOMATCH_SINGLE",
    "requirementDescTextMapHash": 1043780809,
    "matchLimitReasonDescTextMapHash": 1247883200,
    "limitWarningDescTextMapHash": 633702004,
    "inviteGuestDescTextMapHash": 3041103279,
    "inviteHostDescTextMapHash": 240390610,
    "matchStartDesc": "UI_ONLINE_MATCH_TIP",
    "matchTitleTextMapHash": 2622074348,
    "matchSuccessDescTextMapHash": 163157112,
    "punishHintTextMapHash": 4146544310,
    "GOEKBIADNAP": 4288081865,
    "EIENICABGCF": 2888155562
  },
  {
    "matchId": 1005,
    "matchIconHash": 2883116014885764205,
    "matchBtnName": "UI_ONLINE_MATCH_BUTTON_SINGLE",
    "matchBtnTips": "UI_ONLINE_AUTOMATCH_SINGLE",
    "requirementDescTextMapHash": 282069993,
    "matchLimitReasonDescTextMapHash": 4277136864,
    "limitWarningDescTextMapHash": 3722984092,
    "inviteGuestDescTextMapHash": 1800051343,
    "inviteHostDescTextMapHash": 4115536146,
    "matchStartDesc": "UI_ONLINE_MATCH_TIP",
    "matchTitleTextMapHash": 408084212,
    "matchSuccessDescTextMapHash": 897187624,
    "punishHintTextMapHash": 1446954998,
    "GOEKBIADNAP": 3440625393,
    "EIENICABGCF": 1341207474
  },
  {
    "matchId": 1006,
    "matchIconHash": 17366766719072818797,
    "matchBtnName": "UI_ONLINE_MATCH_BUTTON_SINGLE",
    "matchBtnTips": "UI_ONLINE_AUTOMATCH_SINGLE",
    "requirementDescTextMapHash": 544011673,
    "matchLimitReasonDescTextMapHash": 2949935840,
    "limitWarningDescTextMapHash": 3173229492,
    "inviteGuestDescTextMapHash": 3210790175,
    "inviteHostDescTextMapHash": 2994955362,
    "matchStartDesc": "UI_ONLINE_MATCH_TIP",
    "matchTitleTextMapHash": 1887758436,
    "matchSuccessDescTextMapHash": 349412744,
    "punishHintTextMapHash": 2265489166,
    "GOEKBIADNAP": 3656646593,
    "EIENICABGCF": 3262004682
  },
  {
    "matchId": 1007,
    "matchIconHash": 11707213720367908349,
    "matchBtnName": "UI_ONLINE_MATCH_BUTTON_SINGLE",
    "matchBtnTips": "UI_ONLINE_AUTOMATCH_SINGLE",
    "requirementDescTextMapHash": 3652897537,
    "matchLimitReasonDescTextMapHash": 171373992,
    "limitWarningDescTextMapHash": 2087105236,
    "inviteGuestDescTextMapHash": 3436651879,
    "inviteHostDescTextMapHash": 1190122418,
    "matchStartDesc": "UI_ONLINE_MATCH_TIP",
    "matchTitleTextMapHash": 587246052,
    "matchSuccessDescTextMapHash": 3198666128,
    "punishHintTextMapHash": 4097314038,
    "GOEKBIADNAP": 1513007161,
    "EIENICABGCF": 2012601458
  },
  {
    "matchId": 1008,
    "matchIconHash": 6284979843985647579,
    "matchBtnName": "UI_ONLINE_MATCH_BUTTON_SINGLE",
    "matchBtnTips": "UI_ONLINE_AUTOMATCH_SINGLE",
    "requirementDescTextMapHash": 3713410017,
    "matchLimitReasonDescTextMapHash": 2202426152,
    "limitWarningDescTextMapHash": 3749184940,
    "inviteGuestDescTextMapHash": 1441427935,
    "inviteHostDescTextMapHash": 3743312002,
    "matchStartDesc": "UI_ONLINE_MATCH_TIP",
    "matchTitleTextMapHash": 660958636,
    "matchSuccessDescTextMapHash": 1936194448,
    "punishHintTextMapHash": 1052761502,
    "GOEKBIADNAP": 3956317457,
    "EIENICABGCF": 2893075674
  },
  {
    "matchId": 100901,
    "matchIconHash": 2269001641686714675,
    "matchBtnName": "UI_ONLINE_MATCH_BUTTON_SINGLE",
    "matchBtnTips": "UI_ONLINE_AUTOMATCH_SINGLE",
    "requirementDescTextMapHash": 1165237353,
    "matchLimitReasonDescTextMapHash": 244671968,
    "limitWarningDescTextMapHash": 1954627852,
    "inviteGuestDescTextMapHash": 2298433199,
    "inviteHostDescTextMapHash": 1953483706,
    "matchStartDesc": "UI_ONLINE_MATCH_TIP",
    "matchTitleTextMapHash": 3007930956,
    "matchSuccessDescTextMapHash": 1967324928,
    "punishHintTextMapHash": 1867007918,
    "GOEKBIADNAP": 1986493609,
    "EIENICABGCF": 963567474
  },
  {
    "matchId": 100902,
    "matchIconHash": 2269001641686714675,
    "matchBtnName": "UI_ONLINE_MATCH_BUTTON_SINGLE",
    "matchBtnTips": "UI_ONLINE_AUTOMATCH_SINGLE",
    "requirementDescTextMapHash": 3390209737,
    "matchLimitReasonDescTextMapHash": 3544618656,
    "limitWarningDescTextMapHash": 3295245652,
    "inviteGuestDescTextMapHash": 2858866631,
    "inviteHostDescTextMapHash": 2070066586,
    "matchStartDesc": "UI_ONLINE_MATCH_TIP",
    "matchTitleTextMapHash": 118034084,
    "matchSuccessDescTextMapHash": 3163920168,
    "punishHintTextMapHash": 14358214,
    "GOEKBIADNAP": 578541625,
    "EIENICABGCF": 1392542106
  },
  {
    "matchId": 100903,
    "matchIconHash": 2269001641686714675,
    "matchBtnName": "UI_ONLINE_MATCH_BUTTON_SINGLE",
    "matchBtnTips": "UI_ONLINE_AUTOMATCH_SINGLE",
    "requirementDescTextMapHash": 1179330593,
    "matchLimitReasonDescTextMapHash": 1243448944,
    "limitWarningDescTextMapHash": 2617901916,
    "inviteGuestDescTextMapHash": 2585348671,
    "inviteHostDescTextMapHash": 2234660210,
    "matchStartDesc": "UI_ONLINE_MATCH_TIP",
    "matchTitleTextMapHash": 973813260,
    "matchSuccessDescTextMapHash": 685512552,
    "punishHintTextMapHash": 1657416710,
    "GOEKBIADNAP": 1789076625,
    "EIENICABGCF": 2964351834
  },
  {
    "matchId": 100904,
    "matchIconHash": 2269001641686714675,
    "matchBtnName": "UI_ONLINE_MATCH_BUTTON_SINGLE",
    "matchBtnTips": "UI_ONLINE_AUTOMATCH_SINGLE",
    "requirementDescTextMapHash": 700560185,
    "matchLimitReasonDescTextMapHash": 4131522216,
    "limitWarningDescTextMapHash": 3804170764,
    "inviteGuestDescTextMapHash": 2557228919,
    "inviteHostDescTextMapHash": 3530996338,
    "matchStartDesc": "UI_ONLINE_MATCH_TIP",
    "matchTitleTextMapHash": 820884164,
    "matchSuccessDescTextMapHash": 3451654976,
    "punishHintTextMapHash": 951358774,
    "GOEKBIADNAP": 619469241,
    "EIENICABGCF": 1286044578
  },
  {
    "matchId": 100905,
    "matchIconHash": 2269001641686714675,
    "matchBtnName": "UI_ONLINE_MATCH_BUTTON_SINGLE",
    "matchBtnTips": "UI_ONLINE_AUTOMATCH_SINGLE",
    "requirementDescTextMapHash": 2867173561,
    "matchLimitReasonDescTextMapHash": 3746752608,
    "limitWarningDescTextMapHash": 1956312356,
    "inviteGuestDescTextMapHash": 3288757415,
    "inviteHostDescTextMapHash": 4180230442,
    "matchStartDesc": "UI_ONLINE_MATCH_TIP",
    "matchTitleTextMapHash": 3346325044,
    "matchSuccessDescTextMapHash": 3966514888,
    "punishHintTextMapHash": 2048020654,
    "GOEKBIADNAP": 665786649,
    "EIENICABGCF": 784804258
  },
  {
    "matchId": 1010,
    "matchIconHash": 15960114903119229054,
    "matchBtnName": "UI_ONLINE_MATCH_BUTTON_SINGLE",
    "matchBtnTips": "UI_ONLINE_AUTOMATCH_SINGLE",
    "requirementDescTextMapHash": 2264049161,
    "matchLimitReasonDescTextMapHash": 515996440,
    "limitWarningDescTextMapHash": 3645963476,
    "inviteGuestDescTextMapHash": 1688835679,
    "inviteHostDescTextMapHash": 3827315506,
    "matchStartDesc": "UI_ONLINE_MATCH_TIP",
    "matchTitleTextMapHash": 746642172,
    "matchSuccessDescTextMapHash": 1656124816,
    "punishHintTextMapHash": 151948486,
    "activityID": 2027,
    "GOEKBIADNAP": 2563954385,
    "EIENICABGCF": 2343936666
  },
  {
    "matchId": 101201,
    "matchIconHash": 10599723384570168089,
    "matchBtnName": "UI_ONLINE_MATCH_BUTTON_SINGLE",
    "matchBtnTips": "UI_ONLINE_AUTOMATCH_SINGLE",
    "requirementDescTextMapHash": 388919329,
    "matchLimitReasonDescTextMapHash": 3928010912,
    "limitWarningDescTextMapHash": 1683893268,
    "inviteGuestDescTextMapHash": 643250935,
    "inviteHostDescTextMapHash": 777669274,
    "matchStartDesc": "UI_ONLINE_MATCH_TIP",
    "matchTitleTextMapHash": 2446482276,
    "matchSuccessDescTextMapHash": 2699786144,
    "punishHintTextMapHash": 591302566,
    "activityID": 2028,
    "GOEKBIADNAP": 2395614825,
    "EIENICABGCF": 1061867618
  },
  {
    "matchId": 101202,
    "matchIconHash": 10599723384570168089,
    "matchBtnName": "UI_ONLINE_MATCH_BUTTON_SINGLE",
    "matchBtnTips": "UI_ONLINE_AUTOMATCH_SINGLE",
    "requirementDescTextMapHash": 3507822169,
    "matchLimitReasonDescTextMapHash": 2880924648,
    "limitWarningDescTextMapHash": 2365165308,
    "inviteGuestDescTextMapHash": 4163247423,
    "inviteHostDescTextMapHash": 3916273186,
    "matchStartDesc": "UI_ONLINE_MATCH_TIP",
    "matchTitleTextMapHash": 4159937740,
    "matchSuccessDescTextMapHash": 3969561960,
    "punishHintTextMapHash": 1689426118,
    "activityID": 2028,
    "GOEKBIADNAP": 2883200193,
    "EIENICABGCF": 2745104210
  },
  {
    "matchId": 101203,
    "matchIconHash": 10599723384570168089,
    "matchBtnName": "UI_ONLINE_MATCH_BUTTON_SINGLE",
    "matchBtnTips": "UI_ONLINE_AUTOMATCH_SINGLE",
    "requirementDescTextMapHash": 2591101201,
    "matchLimitReasonDescTextMapHash": 1468065080,
    "limitWarningDescTextMapHash": 2443272556,
    "inviteGuestDescTextMapHash": 2492963551,
    "inviteHostDescTextMapHash": 1275601034,
    "matchStartDesc": "UI_ONLINE_MATCH_TIP",
    "matchTitleTextMapHash": 2616276588,
    "matchSuccessDescTextMapHash": 4175947120,
    "punishHintTextMapHash": 1029929934,
    "activityID": 2028,
    "GOEKBIADNAP": 3571777129,
    "EIENICABGCF": 2677403466
  },
  {
    "matchId": 1013,
    "matchIconHash": 8650956661296192208,
    "matchBtnName": "UI_ONLINE_MATCH_BUTTON_SINGLE",
    "matchBtnTips": "UI_ONLINE_AUTOMATCH_SINGLE",
    "requirementDescTextMapHash": 2969596329,
    "matchLimitReasonDescTextMapHash": 1929793320,
    "limitWarningDescTextMapHash": 4055416348,
    "inviteGuestDescTextMapHash": 733916943,
    "inviteHostDescTextMapHash": 669268538,
    "matchStartDesc": "UI_ONLINE_MATCH_TIP",
    "matchTitleTextMapHash": 198623004,
    "matchSuccessDescTextMapHash": 4152221992,
    "punishHintTextMapHash": 3233683526,
    "activityID": 5190,
    "GOEKBIADNAP": 1571959513,
    "EIENICABGCF": 3163429858
  },
  {
    "matchId": 1014,
    "matchIconHash": 6875377092493223501,
    "matchBtnName": "UI_ONLINE_MATCH_BUTTON_SINGLE",
    "matchBtnTips": "UI_ONLINE_AUTOMATCH_SINGLE",
    "requirementDescTextMapHash": 492604913,
    "matchLimitReasonDescTextMapHash": 44745360,
    "limitWarningDescTextMapHash": 2720317996,
    "inviteGuestDescTextMapHash": 1244511415,
    "inviteHostDescTextMapHash": 2007765106,
    "matchStartDesc": "UI_ONLINE_MATCH_TIP",
    "matchTitleTextMapHash": 341467868,
    "matchSuccessDescTextMapHash": 3366317184,
    "punishHintTextMapHash": 54692414,
    "GOEKBIADNAP": 2700262161,
    "EIENICABGCF": 3082718450
  },
  {
    "matchId": 1015,
    "matchIconHash": 2046544779656251000,
    "matchBtnName": "UI_ONLINE_MATCH_BUTTON_SINGLE",
    "matchBtnTips": "UI_ONLINE_AUTOMATCH_SINGLE",
    "requirementDescTextMapHash": 2752246609,
    "matchLimitReasonDescTextMapHash": 1708967272,
    "limitWarningDescTextMapHash": 2825799916,
    "inviteGuestDescTextMapHash": 913607583,
    "inviteHostDescTextMapHash": 882600682,
    "matchStartDesc": "UI_ONLINE_MATCH_TIP",
    "matchTitleTextMapHash": 2892796996,
    "matchSuccessDescTextMapHash": 1009079632,
    "punishHintTextMapHash": 2712073118,
    "activityID": 5200,
    "GOEKBIADNAP": 1223514217,
    "EIENICABGCF": 1196636090
  },
  {
    "matchId": 1016,
    "matchIconHash": 2046544779656251000,
    "matchBtnName": "UI_ONLINE_MATCH_BUTTON_SINGLE",
    "matchBtnTips": "UI_ONLINE_AUTOMATCH_SINGLE",
    "requirementDescTextMapHash": 1908104297,
    "matchLimitReasonDescTextMapHash": 1889272032,
    "limitWarningDescTextMapHash": 1121368820,
    "inviteGuestDescTextMapHash": 480200279,
    "inviteHostDescTextMapHash": 1878267250,
    "matchStartDesc": "UI_ONLINE_MATCH_TIP",
    "matchTitleTextMapHash": 308877988,
    "matchSuccessDescTextMapHash": 482874368,
    "punishHintTextMapHash": 238431662,
    "activityID": 5200,
    "GOEKBIADNAP": 3919286145,
    "EIENICABGCF": 2728864138
  },
  {
    "matchId": 1017,
    "matchIconHash": 2046544779656251000,
    "matchBtnName": "UI_ONLINE_MATCH_BUTTON_SINGLE",
    "matchBtnTips": "UI_ONLINE_AUTOMATCH_SINGLE",
    "requirementDescTextMapHash": 3957207873,
    "matchLimitReasonDescTextMapHash": 3724056504,
    "limitWarningDescTextMapHash": 352541204,
    "inviteGuestDescTextMapHash": 1883354031,
    "inviteHostDescTextMapHash": 4125618,
    "matchStartDesc": "UI_ONLINE_MATCH_TIP",
    "matchTitleTextMapHash": 1686494620,
    "matchSuccessDescTextMapHash": 17934256,
    "punishHintTextMapHash": 978259086,
    "activityID": 5200,
    "GOEKBIADNAP": 3070083025,
    "EIENICABGCF": 1210081682
  },
  {
    "matchId": 1018,
    "matchIconHash": 2046544779656251000,
    "matchBtnName": "UI_ONLINE_MATCH_BUTTON_SINGLE",
    "matchBtnTips": "UI_ONLINE_AUTOMATCH_SINGLE",
    "requirementDescTextMapHash": 2912564057,
    "matchLimitReasonDescTextMapHash": 407439992,
    "limitWarningDescTextMapHash": 3818806548,
    "inviteGuestDescTextMapHash": 1444547847,
    "inviteHostDescTextMapHash": 418553570,
    "matchStartDesc": "UI_ONLINE_MATCH_TIP",
    "matchTitleTextMapHash": 1170773988,
    "matchSuccessDescTextMapHash": 623550488,
    "punishHintTextMapHash": 282170118,
    "activityID": 5200,
    "GOEKBIADNAP": 2085453929,
    "EIENICABGCF": 886511434
  },
  {
    "matchId": 1019,
    "matchIconHash": 2046544779656251000,
    "matchBtnName": "UI_ONLINE_MATCH_BUTTON_SINGLE",
    "matchBtnTips": "UI_ONLINE_AUTOMATCH_SINGLE",
    "requirementDescTextMapHash": 2442319737,
    "matchLimitReasonDescTextMapHash": 1579154096,
    "limitWarningDescTextMapHash": 2494299468,
    "inviteGuestDescTextMapHash": 824558199,
    "inviteHostDescTextMapHash": 2484628578,
    "matchStartDesc": "UI_ONLINE_MATCH_TIP",
    "matchTitleTextMapHash": 1545614300,
    "matchSuccessDescTextMapHash": 1288062432,
    "punishHintTextMapHash": 1837843166,
    "activityID": 5200,
    "GOEKBIADNAP": 3079185281,
    "EIENICABGCF": 620770274
  },
  {
    "matchId": 1020,
    "matchIconHash": 2046544779656251000,
    "matchBtnName": "UI_ONLINE_MATCH_BUTTON_SINGLE",
    "matchBtnTips": "UI_ONLINE_AUTOMATCH_SINGLE",
    "requirementDescTextMapHash": 2899946929,
    "matchLimitReasonDescTextMapHash": 940697696,
    "limitWarningDescTextMapHash": 2356212244,
    "inviteGuestDescTextMapHash": 2020701487,
    "inviteHostDescTextMapHash": 3290295058,
    "matchStartDesc": "UI_ONLINE_MATCH_TIP",
    "matchTitleTextMapHash": 625605436,
    "matchSuccessDescTextMapHash": 1338678520,
    "punishHintTextMapHash": 2521837630,
    "activityID": 5200,
    "GOEKBIADNAP": 3769713841,
    "EIENICABGCF": 3175672826
  },
  {
    "matchId": 1021,
    "matchIconHash": 2046544779656251000,
    "matchBtnName": "UI_ONLINE_MATCH_BUTTON_SINGLE",
    "matchBtnTips": "UI_ONLINE_AUTOMATCH_SINGLE",
    "requirementDescTextMapHash": 2897861137,
    "matchLimitReasonDescTextMapHash": 2948908128,
    "limitWarningDescTextMapHash": 3898150244,
    "inviteGuestDescTextMapHash": 3780302287,
    "inviteHostDescTextMapHash": 2911660986,
    "matchStartDesc": "UI_ONLINE_MATCH_TIP",
    "matchTitleTextMapHash": 1660190812,
    "matchSuccessDescTextMapHash": 27348640,
    "punishHintTextMapHash": 69480998,
    "activityID": 5200,
    "GOEKBIADNAP": 2787656241,
    "EIENICABGCF": 3078401738
  }
]