[
  {
    "id": 1,
    "GEDIMKLHFOE": [
      0,
      0
    ],
    "KJKCHOEDOLA": 4,
    "GBDLNFNNHOK": "Eff_Monster_Common_AvailableArea",
    "BIOOJLJKKCH": [
      [
        -7.8,
        7.8
      ],
      [
        7.8,
        7.8
      ],
      [
        7.8,
        -7.8
      ],
      [
        -7.8,
        -7.8
      ],
      [],
      []
    ],
    "OBAMMJAGLHP": 3
  },
  {
    "id": 2,
    "GEDIMKLHFOE": [
      0,
      0
    ],
    "KJKCHOEDOLA": 4,
    "GBDLNFNNHOK": "Eff_Monster_Common_AvailableArea",
    "BIOOJLJKKCH": [
      [
        -9.8,
        7.8
      ],
      [
        9.8,
        7.8
      ],
      [
        9.8,
        -5.8
      ],
      [
        -9.8,
        -5.8
      ],
      [],
      []
    ],
    "OBAMMJAGLHP": 3
  },
  {
    "id": 11,
    "GEDIMKLHFOE": [
      0,
      0
    ],
    "KJKCHOEDOLA": 4,
    "GBDLNFNNHOK": "Eff_Monster_Common_AvailableArea",
    "BIOOJLJKKCH": [
      [
        -3.8,
        7.8
      ],
      [
        7.8,
        7.8
      ],
      [
        7.8,
        -7.8
      ],
      [
        -3.8,
        -7.8
      ],
      [],
      []
    ],
    "OBAMMJAGLHP": 3
  },
  {
    "id": 12,
    "GEDIMKLHFOE": [
      0,
      0
    ],
    "KJKCHOEDOLA": 4,
    "GBDLNFNNHOK": "Eff_Monster_Common_AvailableArea",
    "BIOOJLJKKCH": [
      [
        -7.8,
        7.8
      ],
      [
        3.8,
        7.8
      ],
      [
        3.8,
        -7.8
      ],
      [
        -7.8,
        -7.8
      ],
      [],
      []
    ],
    "OBAMMJAGLHP": 3
  },
  {
    "id": 21,
    "GEDIMKLHFOE": [
      0,
      0
    ],
    "KJKCHOEDOLA": 4,
    "GBDLNFNNHOK": "Eff_Monster_Common_AvailableArea_Circle",
    "BIOOJLJKKCH": [
      [],
      [],
      [],
      [],
      [],
      []
    ],
    "areaRadius": 14.6,
    "OBAMMJAGLHP": 4.91
  },
  {
    "id": 22,
    "GEDIMKLHFOE": [
      0,
      0
    ],
    "KJKCHOEDOLA": 4,
    "GBDLNFNNHOK": "Eff_Monster_Common_AvailableArea_Circle",
    "BIOOJLJKKCH": [
      [],
      [],
      [],
      [],
      [],
      []
    ],
    "areaRadius": 10,
    "OBAMMJAGLHP": 5
  },
  {
    "id": 31,
    "GEDIMKLHFOE": [
      0,
      -1.7
    ],
    "KJKCHOEDOLA": 4,
    "GBDLNFNNHOK": "Eff_Monster_Common_AvailableArea_ATK",
    "BIOOJLJKKCH": [
      [],
      [],
      [],
      [],
      [],
      []
    ]
  },
  {
    "id": 41,
    "GEDIMKLHFOE": [
      0,
      -21.7
    ],
    "KJKCHOEDOLA": 4,
    "GBDLNFNNHOK": "Eff_Monster_Common_AvailableArea_DEF",
    "BIOOJLJKKCH": [
      [],
      [],
      [],
      [],
      [],
      []
    ]
  }
]