[
  {
    "levelId": 1,
    "openDay": 1,
    "watcherID": [],
    "mainQuest": 72659,
    "markPosition": [],
    "levelNameTextMapHash": 3234887321,
    "descriptionTextMapHash": 2276622360,
    "titleTextMapHash": 3004411014
  },
  {
    "levelId": 3,
    "levelType": "MOONFIN_TRIAL_ACTIVITY_LEVEL_TYPE_CHALLENGE_SPECIFIC",
    "specificFishId": 3,
    "galleryId": 11002,
    "challengeId": 111178,
    "openDay": 1,
    "watcherID": [
      1504104,
      1504105,
      1504106
    ],
    "leadingLevel": 1,
    "leadingMainQuest": 72659,
    "markPosition": [
      700.4874,
      202.7161,
      4.608616
    ],
    "rewardPreviewId": 32202,
    "levelNameTextMapHash": 2174984609,
    "descriptionTextMapHash": 968702712,
    "titleTextMapHash": 2619129302
  },
  {
    "levelId": 2,
    "levelType": "MOONFIN_TRIAL_ACTIVITY_LEVEL_TYPE_CHALLENGE_TOTAL",
    "galleryId": 11001,
    "challengeId": 111177,
    "openDay": 2,
    "watcherID": [
      1504101,
      1504102,
      1504103
    ],
    "leadingMainQuest": 72659,
    "markPosition": [
      232.8167,
      200,
      683.4167
    ],
    "rewardPreviewId": 32202,
    "levelNameTextMapHash": 1961999345,
    "descriptionTextMapHash": 3291514400,
    "titleTextMapHash": 169610270
  },
  {
    "levelId": 4,
    "openDay": 3,
    "watcherID": [],
    "leadingMainQuest": 72659,
    "mainQuest": 72661,
    "markPosition": [],
    "levelNameTextMapHash": 3820804857,
    "descriptionTextMapHash": 2776474008,
    "titleTextMapHash": 3421387030
  },
  {
    "levelId": 6,
    "levelType": "MOONFIN_TRIAL_ACTIVITY_LEVEL_TYPE_CHALLENGE_SPECIFIC",
    "specificFishId": 2,
    "galleryId": 11004,
    "challengeId": 111180,
    "openDay": 4,
    "watcherID": [
      1504110,
      1504111,
      1504112
    ],
    "leadingMainQuest": 72659,
    "markPosition": [
      -3366.82,
      200.14,
      -3224.9
    ],
    "rewardPreviewId": 32202,
    "levelNameTextMapHash": 1761732393,
    "descriptionTextMapHash": 1194714008,
    "titleTextMapHash": 1355020662
  },
  {
    "levelId": 5,
    "levelType": "MOONFIN_TRIAL_ACTIVITY_LEVEL_TYPE_CHALLENGE_CONTINUOUS",
    "galleryId": 11003,
    "challengeId": 111179,
    "openDay": 5,
    "watcherID": [
      1504107,
      1504108,
      1504109
    ],
    "leadingMainQuest": 72659,
    "markPosition": [
      1696.45,
      195.4,
      -1602.56
    ],
    "rewardPreviewId": 32202,
    "levelNameTextMapHash": 1639976441,
    "descriptionTextMapHash": 1829272376,
    "titleTextMapHash": 2310614030
  },
  {
    "levelId": 7,
    "openDay": 6,
    "watcherID": [],
    "leadingMainQuest": 72661,
    "mainQuest": 72662,
    "markPosition": [],
    "levelNameTextMapHash": 2001507737,
    "descriptionTextMapHash": 1906710200,
    "titleTextMapHash": 1115684502
  },
  {
    "levelId": 8,
    "openDay": 7,
    "watcherID": [],
    "leadingMainQuest": 72662,
    "mainQuest": 72663,
    "markPosition": [],
    "levelNameTextMapHash": 3918950545,
    "descriptionTextMapHash": 2987271904,
    "titleTextMapHash": 3893103022
  },
  {
    "levelId": 9,
    "levelType": "MOONFIN_TRIAL_ACTIVITY_LEVEL_TYPE_SPECIAL_FISH",
    "specificFishId": 1019,
    "galleryId": 11005,
    "challengeId": 111181,
    "openDay": 7,
    "watcherID": [
      1504113,
      1504114,
      1504115
    ],
    "leadingLevel": 8,
    "leadingMainQuest": 72663,
    "markPosition": [
      -3528.1,
      200,
      -2986.9
    ],
    "rewardPreviewId": 32202,
    "levelNameTextMapHash": 3511339257,
    "descriptionTextMapHash": 3573186264,
    "titleTextMapHash": 2336813670
  }
]