[
  {
    "activityId": 5140,
    "JFIHMOPPIAL": 3,
    "FLBJPEIBEHC": [
      {
        "avatarCount": 4
      },
      {
        "avatarCount": 8
      },
      {
        "avatarCount": 12
      }
    ],
    "HIFOFLCOGME": 4
  }
]