[
  {
    "difficultyId": 1,
    "IHPAEBFMMJG": 1751115106,
    "AAGODKAAHJL": 669744620
  },
  {
    "difficultyId": 2,
    "IHPAEBFMMJG": 3039366418,
    "AAGODKAAHJL": 3710584052
  },
  {
    "difficultyId": 3,
    "IHPAEBFMMJG": 4212894258,
    "AAGODKAAHJL": 1409695444
  },
  {
    "difficultyId": 4,
    "IHPAEBFMMJG": 738303138,
    "AAGODKAAHJL": 2853217812,
    "GADINOLEDPD": 90
  }
]