[
  {
    "ENGCMHHDOKE": 293081660,
    "EHJIMMILOBM": [
      {}
    ]
  },
  {
    "PHPICALADEE": 1,
    "ENGCMHHDOKE": 1969077996,
    "EHJIMMILOBM": [
      {
        "KPEKBDJLINF": "THEME_UNLOCK_ACTIVITY",
        "param": 15
      }
    ]
  },
  {
    "PHPICALADEE": 2,
    "ENGCMHHDOKE": 1919409812,
    "EHJIMMILOBM": [
      {
        "KPEKBDJLINF": "THEME_UNLOCK_ACTIVITY",
        "param": 16
      }
    ]
  },
  {
    "PHPICALADEE": 3,
    "ENGCMHHDOKE": 3929576844,
    "EHJIMMILOBM": [
      {
        "KPEKBDJLINF": "THEME_UNLOCK_ACTIVITY",
        "param": 17
      }
    ]
  },
  {
    "PHPICALADEE": 4,
    "ENGCMHHDOKE": 2971362444,
    "EHJIMMILOBM": [
      {
        "KPEKBDJLINF": "THEME_UNLOCK_ACTIVITY",
        "param": 18
      }
    ]
  },
  {
    "PHPICALADEE": 5,
    "ENGCMHHDOKE": 421214644,
    "EHJIMMILOBM": [
      {
        "KPEKBDJLINF": "THEME_UNLOCK_ACTIVITY",
        "param": 19
      }
    ]
  },
  {
    "PHPICALADEE": 6,
    "ENGCMHHDOKE": 2945368276,
    "EHJIMMILOBM": [
      {
        "KPEKBDJLINF": "THEME_UNLOCK_ACTIVITY",
        "param": 20
      }
    ]
  },
  {
    "PHPICALADEE": 7,
    "ENGCMHHDOKE": 3603328052,
    "EHJIMMILOBM": [
      {
        "KPEKBDJLINF": "THEME_UNLOCK_ACTIVITY",
        "param": 21
      }
    ]
  }
]