[
  {
    "musicId": 1,
    "descTextMapHash": 1954369588,
    "tutorialCatalogId": 101,
    "playList": [
      101
    ],
    "pushTipsId": 12001,
    "explainPushTipsId": 12013,
    "notGetExplainPushTipsId": 12022
  },
  {
    "musicId": 2,
    "descTextMapHash": 166076964,
    "tutorialCatalogId": 102,
    "playList": [
      102
    ],
    "pushTipsId": 12002,
    "explainPushTipsId": 12013,
    "notGetExplainPushTipsId": 12022
  },
  {
    "musicId": 3,
    "descTextMapHash": 818625604,
    "tutorialCatalogId": 103,
    "playList": [
      103
    ],
    "pushTipsId": 12003,
    "explainPushTipsId": 12013,
    "notGetExplainPushTipsId": 12022
  },
  {
    "musicId": 4,
    "descTextMapHash": 1623404364,
    "tutorialCatalogId": 104,
    "playList": [
      104
    ],
    "pushTipsId": 12004,
    "explainPushTipsId": 12014,
    "notGetExplainPushTipsId": 12022
  },
  {
    "musicId": 5,
    "descTextMapHash": 1555168828,
    "tutorialCatalogId": 105,
    "playList": [
      105
    ],
    "pushTipsId": 12005,
    "explainPushTipsId": 12017,
    "notGetExplainPushTipsId": 12022
  },
  {
    "musicId": 6,
    "descTextMapHash": 3505404500,
    "tutorialCatalogId": 106,
    "playList": [
      106
    ],
    "pushTipsId": 12006,
    "explainPushTipsId": 12018,
    "notGetExplainPushTipsId": 12022
  },
  {
    "musicId": 7,
    "descTextMapHash": 2273031148,
    "tutorialCatalogId": 107,
    "playList": [
      107
    ],
    "pushTipsId": 12007,
    "explainPushTipsId": 12019,
    "notGetExplainPushTipsId": 12022
  },
  {
    "musicId": 8,
    "descTextMapHash": 2551906740,
    "tutorialCatalogId": 108,
    "playList": [
      108
    ],
    "pushTipsId": 12008,
    "explainPushTipsId": 12020,
    "notGetExplainPushTipsId": 12022
  },
  {
    "musicId": 9,
    "descTextMapHash": 948885732,
    "tutorialCatalogId": 109,
    "playList": [
      109
    ],
    "pushTipsId": 12009,
    "isHide": true
  },
  {
    "musicId": 10,
    "descTextMapHash": 149190564,
    "tutorialCatalogId": 110,
    "playList": [
      110
    ],
    "pushTipsId": 12010,
    "isHide": true
  },
  {
    "musicId": 11,
    "descTextMapHash": 3676580476,
    "tutorialCatalogId": 111,
    "playList": [
      111
    ],
    "pushTipsId": 12011,
    "isHide": true
  },
  {
    "musicId": 12,
    "descTextMapHash": 4149986884,
    "tutorialCatalogId": 112,
    "playList": [
      112
    ],
    "pushTipsId": 12012,
    "explainPushTipsId": 12021,
    "notGetExplainPushTipsId": 12022
  }
]