[
  {
    "id": 5209,
    "HONJALPEGID": 1,
    "descTextMapHash": 43430014,
    "perfabPath": "ART/UI/Menus/Widget/Activity/Activity_LegendQuest_Kinich"
  },
  {
    "id": 5210,
    "HONJALPEGID": 2,
    "descTextMapHash": 3585243686,
    "perfabPath": "ART/UI/Menus/Widget/Activity/Activity_LegendQuest_Mualani"
  }
]