[
  {
    "id": 2,
    "subQuestIdList": [
      200701
    ],
    "avatarID": 10000002,
    "avatarDescriptionTextMapHash": 4212377856,
    "nameTextMapHash": 609796842,
    "avatarTitleTextMapHash": 3404090200,
    "iconName": ""
  },
  {
    "id": 3,
    "subQuestIdList": [
      35802,
      48606
    ],
    "avatarID": 10000003,
    "avatarDescriptionTextMapHash": 3621073784,
    "nameTextMapHash": 3207845082,
    "avatarTitleTextMapHash": 4255200184,
    "iconName": ""
  },
  {
    "id": 4,
    "subQuestIdList": [
      35802
    ],
    "avatarID": 10000006,
    "avatarDescriptionTextMapHash": 1957511256,
    "nameTextMapHash": 2763332746,
    "avatarTitleTextMapHash": 3514774280,
    "iconName": ""
  },
  {
    "id": 14,
    "subQuestIdList": [
      39602,
      1104004
    ],
    "avatarID": 10000014,
    "avatarDescriptionTextMapHash": 1116661184,
    "nameTextMapHash": 3140664346,
    "avatarTitleTextMapHash": 3493720968,
    "iconName": ""
  },
  {
    "id": 15,
    "subQuestIdList": [
      35723,
      46101
    ],
    "avatarID": 10000015,
    "avatarDescriptionTextMapHash": 1516082192,
    "nameTextMapHash": 1994750058,
    "avatarTitleTextMapHash": 1106355416,
    "iconName": ""
  },
  {
    "id": 16,
    "subQuestIdList": [
      37605
    ],
    "avatarID": 10000016,
    "avatarDescriptionTextMapHash": 3078570088,
    "nameTextMapHash": 3020897578,
    "avatarTitleTextMapHash": 2212531856,
    "iconName": ""
  },
  {
    "id": 20,
    "subQuestIdList": [
      45104
    ],
    "avatarID": 10000020,
    "avatarDescriptionTextMapHash": 873817672,
    "nameTextMapHash": 3224639146,
    "avatarTitleTextMapHash": 3757810616,
    "iconName": ""
  },
  {
    "id": 21,
    "subQuestIdList": [
      35401,
      45201
    ],
    "avatarID": 10000021,
    "avatarDescriptionTextMapHash": 3242457272,
    "nameTextMapHash": 2885766770,
    "avatarTitleTextMapHash": 985529528,
    "iconName": ""
  },
  {
    "id": 22,
    "subQuestIdList": [
      37201
    ],
    "avatarID": 10000022,
    "avatarDescriptionTextMapHash": 4124140040,
    "nameTextMapHash": 1977335690,
    "avatarTitleTextMapHash": 2186704464,
    "iconName": ""
  },
  {
    "id": 23,
    "subQuestIdList": [
      1100003
    ],
    "avatarID": 10000023,
    "avatarDescriptionTextMapHash": 2131383896,
    "nameTextMapHash": 652437514,
    "avatarTitleTextMapHash": 3763962952,
    "iconName": ""
  },
  {
    "id": 24,
    "subQuestIdList": [
      200004
    ],
    "avatarID": 10000024,
    "avatarDescriptionTextMapHash": 39164552,
    "nameTextMapHash": 2088054338,
    "avatarTitleTextMapHash": 1065467648,
    "iconName": ""
  },
  {
    "id": 25,
    "subQuestIdList": [
      1200003
    ],
    "avatarID": 10000025,
    "avatarDescriptionTextMapHash": 2283671152,
    "nameTextMapHash": 2536304986,
    "avatarTitleTextMapHash": 66144328,
    "iconName": ""
  },
  {
    "id": 26,
    "subQuestIdList": [
      100302,
      1110202
    ],
    "avatarID": 10000026,
    "avatarDescriptionTextMapHash": 1330042832,
    "nameTextMapHash": 4071112042,
    "avatarTitleTextMapHash": 440423016,
    "iconName": ""
  },
  {
    "id": 27,
    "subQuestIdList": [
      100008
    ],
    "avatarID": 10000027,
    "avatarDescriptionTextMapHash": 528950352,
    "nameTextMapHash": 1513521994,
    "avatarTitleTextMapHash": 1689705472,
    "iconName": ""
  },
  {
    "id": 29,
    "subQuestIdList": [
      1020009
    ],
    "avatarID": 10000029,
    "avatarDescriptionTextMapHash": 1992139664,
    "nameTextMapHash": 178392970,
    "avatarTitleTextMapHash": 3065205784,
    "iconName": ""
  },
  {
    "id": 30,
    "subQuestIdList": [
      101008
    ],
    "avatarID": 10000030,
    "avatarDescriptionTextMapHash": 1849471072,
    "nameTextMapHash": 3669427226,
    "avatarTitleTextMapHash": 4260747240,
    "iconName": ""
  },
  {
    "id": 31,
    "subQuestIdList": [
      4111101
    ],
    "avatarID": 10000031,
    "avatarDescriptionTextMapHash": 508269488,
    "nameTextMapHash": 2702770194,
    "avatarTitleTextMapHash": 2167445224,
    "iconName": ""
  },
  {
    "id": 32,
    "subQuestIdList": [
      1904101
    ],
    "avatarID": 10000032,
    "avatarDescriptionTextMapHash": 3551887608,
    "nameTextMapHash": 1055191682,
    "avatarTitleTextMapHash": 1082175648,
    "iconName": ""
  },
  {
    "id": 33,
    "subQuestIdList": [
      100013
    ],
    "avatarID": 10000033,
    "avatarDescriptionTextMapHash": 3094047208,
    "nameTextMapHash": 1338547898,
    "avatarTitleTextMapHash": 3601264064,
    "iconName": ""
  },
  {
    "id": 34,
    "subQuestIdList": [
      1906102
    ],
    "avatarID": 10000034,
    "avatarDescriptionTextMapHash": 54320584,
    "nameTextMapHash": 67356066,
    "avatarTitleTextMapHash": 3895014792,
    "iconName": ""
  },
  {
    "id": 35,
    "subQuestIdList": [
      101513
    ],
    "avatarID": 10000035,
    "avatarDescriptionTextMapHash": 2944661432,
    "nameTextMapHash": 2004579234,
    "avatarTitleTextMapHash": 1722541304,
    "iconName": ""
  },
  {
    "id": 36,
    "subQuestIdList": [
      1902101
    ],
    "avatarID": 10000036,
    "avatarDescriptionTextMapHash": 51848360,
    "nameTextMapHash": 1027217178,
    "avatarTitleTextMapHash": 660291664,
    "iconName": ""
  },
  {
    "id": 37,
    "subQuestIdList": [
      101609
    ],
    "avatarID": 10000037,
    "avatarDescriptionTextMapHash": 4088133424,
    "nameTextMapHash": 1830737130,
    "avatarTitleTextMapHash": 225729728,
    "iconName": ""
  },
  {
    "id": 38,
    "subQuestIdList": [
      1104106
    ],
    "avatarID": 10000038,
    "avatarDescriptionTextMapHash": 1525315568,
    "nameTextMapHash": 2243596626,
    "avatarTitleTextMapHash": 649178368,
    "iconName": ""
  },
  {
    "id": 39,
    "subQuestIdList": [
      1910102
    ],
    "avatarID": 10000039,
    "avatarDescriptionTextMapHash": 677773416,
    "nameTextMapHash": 2419182554,
    "avatarTitleTextMapHash": 2898819288,
    "iconName": ""
  },
  {
    "id": 41,
    "subQuestIdList": [
      1050007,
      4111212
    ],
    "avatarID": 10000041,
    "avatarDescriptionTextMapHash": 159795168,
    "nameTextMapHash": 3120486394,
    "avatarTitleTextMapHash": 1079655224,
    "iconName": ""
  },
  {
    "id": 42,
    "subQuestIdList": [
      102006
    ],
    "avatarID": 10000042,
    "avatarDescriptionTextMapHash": 3681864400,
    "nameTextMapHash": 12815138,
    "avatarTitleTextMapHash": 4134440080,
    "iconName": ""
  },
  {
    "id": 43,
    "subQuestIdList": [
      1104002
    ],
    "avatarID": 10000043,
    "avatarDescriptionTextMapHash": 4113791704,
    "nameTextMapHash": 1179611074,
    "avatarTitleTextMapHash": 1764150096,
    "iconName": ""
  },
  {
    "id": 44,
    "subQuestIdList": [],
    "avatarID": 10000044,
    "avatarDescriptionTextMapHash": 1939707608,
    "nameTextMapHash": 1298202698,
    "avatarTitleTextMapHash": 1929918128,
    "iconName": ""
  },
  {
    "id": 45,
    "subQuestIdList": [
      1104004
    ],
    "avatarID": 10000045,
    "avatarDescriptionTextMapHash": 1596122648,
    "nameTextMapHash": 4180878538,
    "avatarTitleTextMapHash": 1498057824,
    "iconName": ""
  },
  {
    "id": 46,
    "subQuestIdList": [
      1111003
    ],
    "avatarID": 10000046,
    "avatarDescriptionTextMapHash": 3048708984,
    "nameTextMapHash": 2229631602,
    "avatarTitleTextMapHash": 2377501448,
    "iconName": ""
  },
  {
    "id": 47,
    "subQuestIdList": [
      200004
    ],
    "avatarID": 10000047,
    "avatarDescriptionTextMapHash": 3283616648,
    "nameTextMapHash": 2946145002,
    "avatarTitleTextMapHash": 497840544,
    "iconName": ""
  },
  {
    "id": 48,
    "subQuestIdList": [
      1100801
    ],
    "avatarID": 10000048,
    "avatarDescriptionTextMapHash": 953509688,
    "nameTextMapHash": 2290944386,
    "avatarTitleTextMapHash": 3383454808,
    "iconName": ""
  },
  {
    "id": 49,
    "subQuestIdList": [
      200702
    ],
    "avatarID": 10000049,
    "avatarDescriptionTextMapHash": 1216870856,
    "nameTextMapHash": 3319009618,
    "avatarTitleTextMapHash": 3964254472,
    "iconName": ""
  },
  {
    "id": 50,
    "subQuestIdList": [
      201107
    ],
    "avatarID": 10000050,
    "avatarDescriptionTextMapHash": 2413315984,
    "nameTextMapHash": 853252706,
    "avatarTitleTextMapHash": 1035563216,
    "iconName": ""
  },
  {
    "id": 51,
    "subQuestIdList": [
      1012008
    ],
    "avatarID": 10000051,
    "avatarDescriptionTextMapHash": 3186749048,
    "nameTextMapHash": 1268164370,
    "avatarTitleTextMapHash": 3758066328,
    "iconName": ""
  },
  {
    "id": 52,
    "subQuestIdList": [
      200801
    ],
    "avatarID": 10000052,
    "avatarDescriptionTextMapHash": 648782656,
    "nameTextMapHash": 936335346,
    "avatarTitleTextMapHash": 153629560,
    "iconName": ""
  },
  {
    "id": 53,
    "subQuestIdList": [
      201702
    ],
    "avatarID": 10000053,
    "avatarDescriptionTextMapHash": 16838560,
    "nameTextMapHash": 348112002,
    "avatarTitleTextMapHash": 3755318368,
    "iconName": ""
  },
  {
    "id": 54,
    "subQuestIdList": [
      200908
    ],
    "avatarID": 10000054,
    "avatarDescriptionTextMapHash": 2851980344,
    "nameTextMapHash": 74064002,
    "avatarTitleTextMapHash": 753905136,
    "iconName": ""
  },
  {
    "id": 55,
    "subQuestIdList": [
      200903
    ],
    "avatarID": 10000055,
    "avatarDescriptionTextMapHash": 3338654368,
    "nameTextMapHash": 2933202,
    "avatarTitleTextMapHash": 1520158208,
    "iconName": ""
  },
  {
    "id": 56,
    "subQuestIdList": [
      200706
    ],
    "avatarID": 10000056,
    "avatarDescriptionTextMapHash": 4083813432,
    "nameTextMapHash": 799421418,
    "avatarTitleTextMapHash": 2010755040,
    "iconName": ""
  },
  {
    "id": 57,
    "subQuestIdList": [
      1202502
    ],
    "avatarID": 10000057,
    "avatarDescriptionTextMapHash": 1672151304,
    "nameTextMapHash": 2290928738,
    "avatarTitleTextMapHash": 4162307152,
    "iconName": ""
  },
  {
    "id": 58,
    "subQuestIdList": [
      200607
    ],
    "avatarID": 10000058,
    "avatarDescriptionTextMapHash": 3879963736,
    "nameTextMapHash": 3873972154,
    "avatarTitleTextMapHash": 1498710520,
    "iconName": ""
  },
  {
    "id": 59,
    "subQuestIdList": [],
    "avatarID": 10000059,
    "avatarDescriptionTextMapHash": 2923775616,
    "nameTextMapHash": 3853784530,
    "avatarTitleTextMapHash": 2742285776,
    "iconName": ""
  },
  {
    "id": 60,
    "subQuestIdList": [],
    "avatarID": 10000060,
    "avatarDescriptionTextMapHash": 686091216,
    "nameTextMapHash": 1077131746,
    "avatarTitleTextMapHash": 1896238432,
    "iconName": ""
  },
  {
    "id": 61,
    "subQuestIdList": [],
    "avatarID": 10000061,
    "avatarDescriptionTextMapHash": 2260056184,
    "nameTextMapHash": 1594714050,
    "avatarTitleTextMapHash": 1519056944,
    "iconName": ""
  },
  {
    "id": 63,
    "subQuestIdList": [
      200607
    ],
    "avatarID": 10000063,
    "avatarDescriptionTextMapHash": 3640964592,
    "nameTextMapHash": 1630053554,
    "avatarTitleTextMapHash": 3200800880,
    "iconName": ""
  },
  {
    "id": 64,
    "subQuestIdList": [],
    "avatarID": 10000064,
    "avatarDescriptionTextMapHash": 1176323328,
    "nameTextMapHash": 3185783338,
    "avatarTitleTextMapHash": 3403295608,
    "iconName": ""
  },
  {
    "id": 65,
    "subQuestIdList": [],
    "avatarID": 10000065,
    "avatarDescriptionTextMapHash": 1854741648,
    "nameTextMapHash": 3626316722,
    "avatarTitleTextMapHash": 840617608,
    "iconName": ""
  },
  {
    "id": 66,
    "subQuestIdList": [
      1203304
    ],
    "avatarID": 10000066,
    "avatarDescriptionTextMapHash": 3389528560,
    "nameTextMapHash": 1275982370,
    "avatarTitleTextMapHash": 590480376,
    "iconName": ""
  },
  {
    "id": 67,
    "subQuestIdList": [],
    "avatarID": 10000067,
    "avatarDescriptionTextMapHash": 2398788960,
    "nameTextMapHash": 2556893370,
    "avatarTitleTextMapHash": 1998617952,
    "iconName": ""
  },
  {
    "id": 68,
    "subQuestIdList": [],
    "avatarID": 10000068,
    "avatarDescriptionTextMapHash": 3884736664,
    "nameTextMapHash": 1633740410,
    "avatarTitleTextMapHash": 864187104,
    "iconName": ""
  },
  {
    "id": 69,
    "subQuestIdList": [],
    "avatarID": 10000069,
    "avatarDescriptionTextMapHash": 702896392,
    "nameTextMapHash": 3516836882,
    "avatarTitleTextMapHash": 783122616,
    "iconName": ""
  },
  {
    "id": 70,
    "subQuestIdList": [],
    "avatarID": 10000070,
    "avatarDescriptionTextMapHash": 1157632080,
    "nameTextMapHash": 2166743682,
    "avatarTitleTextMapHash": 3591942064,
    "iconName": ""
  },
  {
    "id": 71,
    "subQuestIdList": [],
    "avatarID": 10000071,
    "avatarDescriptionTextMapHash": 56492184,
    "nameTextMapHash": 2262048106,
    "avatarTitleTextMapHash": 3745101704,
    "iconName": ""
  },
  {
    "id": 72,
    "subQuestIdList": [],
    "avatarID": 10000072,
    "avatarDescriptionTextMapHash": 1481739784,
    "nameTextMapHash": 1733001938,
    "avatarTitleTextMapHash": 2028301312,
    "iconName": ""
  },
  {
    "id": 73,
    "subQuestIdList": [],
    "avatarID": 10000073,
    "avatarDescriptionTextMapHash": 3420158616,
    "nameTextMapHash": 829538674,
    "avatarTitleTextMapHash": 1583336040,
    "iconName": ""
  },
  {
    "id": 74,
    "subQuestIdList": [],
    "avatarID": 10000074,
    "avatarDescriptionTextMapHash": 2319245416,
    "nameTextMapHash": 1672780514,
    "avatarTitleTextMapHash": 790896840,
    "iconName": ""
  },
  {
    "id": 75,
    "subQuestIdList": [
      303109
    ],
    "avatarID": 10000075,
    "avatarDescriptionTextMapHash": 4129856648,
    "nameTextMapHash": 3766850882,
    "avatarTitleTextMapHash": 1513007800,
    "iconName": ""
  },
  {
    "id": 76,
    "subQuestIdList": [],
    "avatarID": 10000076,
    "avatarDescriptionTextMapHash": 837515896,
    "nameTextMapHash": 3233218994,
    "avatarTitleTextMapHash": 1321126312,
    "iconName": ""
  },
  {
    "id": 77,
    "subQuestIdList": [],
    "avatarID": 10000077,
    "avatarDescriptionTextMapHash": 932255792,
    "nameTextMapHash": 722805978,
    "avatarTitleTextMapHash": 2617170232,
    "iconName": ""
  },
  {
    "id": 78,
    "subQuestIdList": [
      300506
    ],
    "avatarID": 10000078,
    "avatarDescriptionTextMapHash": 288302440,
    "nameTextMapHash": 1479244874,
    "avatarTitleTextMapHash": 712272600,
    "iconName": ""
  },
  {
    "id": 79,
    "subQuestIdList": [
      300408
    ],
    "avatarID": 10000079,
    "avatarDescriptionTextMapHash": 893755824,
    "nameTextMapHash": 360883482,
    "avatarTitleTextMapHash": 4015785368,
    "iconName": ""
  },
  {
    "id": 80,
    "subQuestIdList": [],
    "avatarID": 10000080,
    "avatarDescriptionTextMapHash": 1971409688,
    "nameTextMapHash": 404825002,
    "avatarTitleTextMapHash": 659518272,
    "iconName": ""
  },
  {
    "id": 81,
    "subQuestIdList": [
      302604
    ],
    "avatarID": 10000081,
    "avatarDescriptionTextMapHash": 3473253864,
    "nameTextMapHash": 1981130314,
    "avatarTitleTextMapHash": 1357460664,
    "iconName": ""
  },
  {
    "id": 82,
    "subQuestIdList": [],
    "avatarID": 10000082,
    "avatarDescriptionTextMapHash": 1906636792,
    "nameTextMapHash": 163722210,
    "avatarTitleTextMapHash": 3913789440,
    "iconName": ""
  },
  {
    "id": 83,
    "subQuestIdList": [],
    "avatarID": 10000083,
    "avatarDescriptionTextMapHash": 2662709344,
    "nameTextMapHash": 1759230898,
    "avatarTitleTextMapHash": 2777584864,
    "iconName": ""
  },
  {
    "id": 84,
    "subQuestIdList": [],
    "avatarID": 10000084,
    "avatarDescriptionTextMapHash": 75534720,
    "nameTextMapHash": 3965944778,
    "avatarTitleTextMapHash": 961859992,
    "iconName": ""
  },
  {
    "id": 85,
    "subQuestIdList": [],
    "avatarID": 10000085,
    "avatarDescriptionTextMapHash": 1342056856,
    "nameTextMapHash": 920708754,
    "avatarTitleTextMapHash": 2404470112,
    "iconName": ""
  },
  {
    "id": 86,
    "subQuestIdList": [],
    "avatarID": 10000086,
    "avatarDescriptionTextMapHash": 2995024344,
    "nameTextMapHash": 1993384794,
    "avatarTitleTextMapHash": 3784017672,
    "iconName": ""
  },
  {
    "id": 87,
    "subQuestIdList": [],
    "avatarID": 10000087,
    "avatarDescriptionTextMapHash": 3650387984,
    "nameTextMapHash": 2646559986,
    "avatarTitleTextMapHash": 4102890592,
    "iconName": ""
  },
  {
    "id": 88,
    "subQuestIdList": [],
    "avatarID": 10000088,
    "avatarDescriptionTextMapHash": 2515391592,
    "nameTextMapHash": 2506683954,
    "avatarTitleTextMapHash": 340766576,
    "iconName": ""
  },
  {
    "id": 89,
    "subQuestIdList": [
      400404
    ],
    "avatarID": 10000089,
    "avatarDescriptionTextMapHash": 3906749200,
    "nameTextMapHash": 1003829858,
    "avatarTitleTextMapHash": 4160793256,
    "iconName": ""
  },
  {
    "id": 90,
    "subQuestIdList": [],
    "avatarID": 10000090,
    "avatarDescriptionTextMapHash": 3311059712,
    "nameTextMapHash": 3783013074,
    "avatarTitleTextMapHash": 1638062352,
    "iconName": ""
  },
  {
    "id": 91,
    "subQuestIdList": [],
    "avatarID": 10000091,
    "avatarDescriptionTextMapHash": 2774695384,
    "nameTextMapHash": 4149584818,
    "avatarTitleTextMapHash": 366450000,
    "iconName": ""
  },
  {
    "id": 92,
    "subQuestIdList": [],
    "avatarID": 10000092,
    "avatarDescriptionTextMapHash": 3916370288,
    "nameTextMapHash": 2712866194,
    "avatarTitleTextMapHash": 2236240776,
    "iconName": ""
  },
  {
    "id": 93,
    "subQuestIdList": [],
    "avatarID": 10000093,
    "avatarDescriptionTextMapHash": 2699393664,
    "nameTextMapHash": 127109154,
    "avatarTitleTextMapHash": 3926229632,
    "iconName": ""
  },
  {
    "id": 94,
    "subQuestIdList": [],
    "avatarID": 10000094,
    "avatarDescriptionTextMapHash": 2637679352,
    "nameTextMapHash": 2667916090,
    "avatarTitleTextMapHash": 501870744,
    "iconName": ""
  },
  {
    "id": 95,
    "subQuestIdList": [],
    "avatarID": 10000095,
    "avatarDescriptionTextMapHash": 1078974384,
    "nameTextMapHash": 1506586210,
    "avatarTitleTextMapHash": 1462071736,
    "iconName": ""
  },
  {
    "id": 97,
    "subQuestIdList": [],
    "avatarID": 10000097,
    "avatarDescriptionTextMapHash": 2607365776,
    "nameTextMapHash": 811448514,
    "avatarTitleTextMapHash": 3145569640,
    "iconName": ""
  },
  {
    "id": 96,
    "subQuestIdList": [],
    "avatarID": 10000096,
    "avatarDescriptionTextMapHash": 4094882328,
    "nameTextMapHash": 3111096306,
    "avatarTitleTextMapHash": 2686759048,
    "iconName": ""
  },
  {
    "id": 98,
    "subQuestIdList": [],
    "avatarID": 10000098,
    "avatarDescriptionTextMapHash": 4119632448,
    "nameTextMapHash": 3388811274,
    "avatarTitleTextMapHash": 827378888,
    "iconName": ""
  },
  {
    "id": 99,
    "subQuestIdList": [],
    "avatarID": 10000099,
    "avatarDescriptionTextMapHash": 635205792,
    "nameTextMapHash": 2592206482,
    "avatarTitleTextMapHash": 3972522328,
    "iconName": ""
  },
  {
    "id": 100,
    "subQuestIdList": [],
    "avatarID": 10000100,
    "avatarDescriptionTextMapHash": 502431960,
    "nameTextMapHash": 428276570,
    "avatarTitleTextMapHash": 2025266432,
    "iconName": ""
  },
  {
    "id": 101,
    "subQuestIdList": [],
    "avatarID": 10000101,
    "avatarDescriptionTextMapHash": 1083820824,
    "nameTextMapHash": 3222009682,
    "avatarTitleTextMapHash": 2164978448,
    "iconName": ""
  },
  {
    "id": 102,
    "subQuestIdList": [],
    "avatarID": 10000102,
    "avatarDescriptionTextMapHash": 1493422168,
    "nameTextMapHash": 3009483266,
    "avatarTitleTextMapHash": 4222634624,
    "iconName": ""
  },
  {
    "id": 104,
    "subQuestIdList": [],
    "avatarID": 10000104,
    "avatarDescriptionTextMapHash": 1952790432,
    "nameTextMapHash": 2271711346,
    "avatarTitleTextMapHash": 2117801672,
    "iconName": ""
  },
  {
    "id": 106,
    "subQuestIdList": [],
    "avatarID": 10000106,
    "avatarDescriptionTextMapHash": 403796928,
    "nameTextMapHash": 1446369186,
    "avatarTitleTextMapHash": 2913554112,
    "iconName": ""
  },
  {
    "id": 110,
    "subQuestIdList": [],
    "avatarID": 10000110,
    "avatarDescriptionTextMapHash": 2855196040,
    "nameTextMapHash": 63078026,
    "avatarTitleTextMapHash": 2138923296,
    "iconName": ""
  },
  {
    "id": 1001,
    "subQuestIdList": [
      7217704
    ],
    "avatarDescriptionTextMapHash": 3431521984,
    "nameTextMapHash": 1438260314,
    "avatarTitleTextMapHash": 1311170736,
    "iconName": "UI_NPC_Quest_Fuchikami",
    "npcType": "Passersby"
  },
  {
    "id": 1002,
    "subQuestIdList": [],
    "avatarDescriptionTextMapHash": 2438788992,
    "nameTextMapHash": 2335163042,
    "avatarTitleTextMapHash": 3424288544,
    "iconName": "",
    "npcType": "Passersby"
  }
]