[
  {
    "LMJGCFECGLG": 10097,
    "AJFFHFNFMLI": 2911883204,
    "KELEPOJFMBN": 2432540232,
    "CIBNPACLOJI": 3560978373,
    "KFIPHMDBICN": 2476936942,
    "KDODOPJCFMJ": [
      3489438729,
      1837683250,
      1200628970
    ],
    "AKLEHGFGACG": [
      {
        "type": "PhotographTask_Cond_Time",
        "param": [
          19,
          20,
          0
        ]
      },
      {
        "param": [
          0,
          0,
          0
        ]
      },
      {
        "param": [
          0,
          0,
          0
        ]
      }
    ],
    "LBHEDJHEOMF": "ART/UI/Atlas/CodexSceneryPic/UI_Codex_PhotoDisplayStand_05"
  },
  {
    "LMJGCFECGLG": 10098,
    "AJFFHFNFMLI": 1705120332,
    "KELEPOJFMBN": 2667289920,
    "CIBNPACLOJI": 1227168157,
    "KFIPHMDBICN": 410022518,
    "KDODOPJCFMJ": [
      4270888297,
      8465930,
      4102625802
    ],
    "AKLEHGFGACG": [
      {
        "type": "PhotographTask_Cond_Time",
        "param": [
          15,
          17,
          0
        ]
      },
      {
        "type": "PhotographTask_Cond_Monster_Count",
        "param": [
          28030609,
          1,
          80
        ]
      },
      {
        "type": "PhotographTask_Cond_Monster_Count",
        "param": [
          28030506,
          2,
          0
        ]
      }
    ],
    "LBHEDJHEOMF": "ART/UI/Atlas/CodexSceneryPic/UI_Codex_PhotoDisplayStand_06"
  },
  {
    "LMJGCFECGLG": 10099,
    "AJFFHFNFMLI": 809416036,
    "KELEPOJFMBN": 2069706608,
    "CIBNPACLOJI": 3482910573,
    "KFIPHMDBICN": 3604515958,
    "KDODOPJCFMJ": [
      2128708753,
      1147335970,
      3143568418
    ],
    "AKLEHGFGACG": [
      {
        "type": "PhotographTask_Cond_Time",
        "param": [
          8,
          10,
          0
        ]
      },
      {
        "param": [
          0,
          0,
          0
        ]
      },
      {
        "param": [
          0,
          0,
          0
        ]
      }
    ],
    "LBHEDJHEOMF": "ART/UI/Atlas/CodexSceneryPic/UI_Codex_PhotoDisplayStand_04"
  },
  {
    "LMJGCFECGLG": 10100,
    "AJFFHFNFMLI": 4290628692,
    "KELEPOJFMBN": 3656272272,
    "CIBNPACLOJI": 3145383301,
    "KFIPHMDBICN": 313725630,
    "KDODOPJCFMJ": [
      1680052009,
      3008703298,
      2361516450
    ],
    "AKLEHGFGACG": [
      {
        "type": "PhotographTask_Cond_Time",
        "param": [
          17,
          18,
          0
        ]
      },
      {
        "param": [
          0,
          0,
          0
        ]
      },
      {
        "param": [
          0,
          0,
          0
        ]
      }
    ],
    "LBHEDJHEOMF": "ART/UI/Atlas/CodexSceneryPic/UI_Codex_PhotoDisplayStand_03"
  },
  {
    "LMJGCFECGLG": 10113,
    "AJFFHFNFMLI": 288361900,
    "KELEPOJFMBN": 2945285272,
    "CIBNPACLOJI": 2789687021,
    "KFIPHMDBICN": 2504950606,
    "KDODOPJCFMJ": [
      2645847537,
      3473759994,
      1403815714
    ],
    "AKLEHGFGACG": [
      {
        "type": "PhotographTask_Cond_Time",
        "param": [
          6,
          8,
          0
        ]
      },
      {
        "param": [
          0,
          0,
          0
        ]
      },
      {
        "param": [
          0,
          0,
          0
        ]
      }
    ],
    "LBHEDJHEOMF": ""
  },
  {
    "LMJGCFECGLG": 10116,
    "AJFFHFNFMLI": 2979909692,
    "KELEPOJFMBN": 798076912,
    "CIBNPACLOJI": 3572500517,
    "KFIPHMDBICN": 4165308446,
    "KDODOPJCFMJ": [
      412481297,
      3639031546,
      2268131794
    ],
    "AKLEHGFGACG": [
      {
        "type": "PhotographTask_Cond_Time",
        "param": [
          11,
          13,
          0
        ]
      },
      {
        "param": [
          0,
          0,
          0
        ]
      },
      {
        "param": [
          0,
          0,
          0
        ]
      }
    ],
    "LBHEDJHEOMF": ""
  },
  {
    "LMJGCFECGLG": 10119,
    "AJFFHFNFMLI": 827823324,
    "KELEPOJFMBN": 2915339592,
    "CIBNPACLOJI": 3299104197,
    "KFIPHMDBICN": 2771674958,
    "KDODOPJCFMJ": [
      3274043393,
      1655764594,
      1523981442
    ],
    "AKLEHGFGACG": [
      {
        "type": "PhotographTask_Cond_Time",
        "param": [
          17,
          18,
          0
        ]
      },
      {
        "param": [
          0,
          0,
          0
        ]
      },
      {
        "param": [
          0,
          0,
          0
        ]
      }
    ],
    "LBHEDJHEOMF": ""
  }
]