[
  {
    "id": 1,
    "titleTextMapHash": 1163999925,
    "ABEGDDBGDPI": 1153139704,
    "CHAHNNKHCEL": 1614298062,
    "iconNameHash": 11573026473993489265,
    "GJLJFCOCPEO": 17027464413728068506,
    "descTextMapHash": 296398059,
    "descParams": [
      "",
      "",
      "",
      "",
      ""
    ]
  },
  {
    "id": 2,
    "titleTextMapHash": 214532285,
    "ABEGDDBGDPI": 1982499688,
    "CHAHNNKHCEL": 87121318,
    "iconNameHash": 18053898406022203400,
    "GJLJFCOCPEO": 8659316205176656203,
    "descTextMapHash": 3335505267,
    "descParams": [
      "",
      "",
      "",
      "",
      ""
    ]
  },
  {
    "id": 3,
    "titleTextMapHash": 2022008605,
    "ABEGDDBGDPI": 3866582856,
    "CHAHNNKHCEL": 3488802926,
    "iconNameHash": 9944888610274060661,
    "GJLJFCOCPEO": 4123898640534388666,
    "descTextMapHash": 787035123,
    "descParams": [
      "",
      "",
      "",
      "",
      ""
    ]
  },
  {
    "id": 4,
    "titleTextMapHash": 2648587397,
    "ABEGDDBGDPI": 3380389360,
    "CHAHNNKHCEL": 3447205206,
    "iconNameHash": 13038261720331080323,
    "GJLJFCOCPEO": 6061022186695148874,
    "descTextMapHash": 2342195651,
    "descParams": [
      "",
      "",
      "",
      "",
      ""
    ]
  },
  {
    "id": 5,
    "titleTextMapHash": 1624761069,
    "ABEGDDBGDPI": 1465573656,
    "CHAHNNKHCEL": 1199664110,
    "iconNameHash": 4633664307567549297,
    "GJLJFCOCPEO": 12519788582693621567,
    "descTextMapHash": 494925179,
    "descParams": [
      "",
      "",
      "",
      "",
      ""
    ]
  },
  {
    "id": 6,
    "titleTextMapHash": 4041423661,
    "ABEGDDBGDPI": 3251785984,
    "CHAHNNKHCEL": 1497095694,
    "iconNameHash": 6169871153221829804,
    "GJLJFCOCPEO": 3810656048442175636,
    "descTextMapHash": 570077523,
    "descParams": [
      "",
      "",
      "",
      "",
      ""
    ]
  },
  {
    "id": 7,
    "titleTextMapHash": 2196316981,
    "ICOKKAHHDMI": "OTHER",
    "ABEGDDBGDPI": 2121576784,
    "CHAHNNKHCEL": 2841850510,
    "iconNameHash": 4597255749557410336,
    "GJLJFCOCPEO": 2470746048796947257,
    "descTextMapHash": 306213811,
    "descParams": [
      "",
      "",
      "",
      "",
      ""
    ]
  },
  {
    "id": 8,
    "titleTextMapHash": 2672881965,
    "ICOKKAHHDMI": "OTHER",
    "ABEGDDBGDPI": 709430296,
    "CHAHNNKHCEL": 2591695470,
    "iconNameHash": 12156293860783872870,
    "GJLJFCOCPEO": 13746919630054681514,
    "descTextMapHash": 1419304067,
    "descParams": [
      "",
      "",
      "",
      "",
      ""
    ]
  }
]