[
  {
    "id": 2025,
    "CBJMJDNIMCE": [
      1,
      3,
      5,
      7
    ],
    "KJDIJNBNNJE": 13217,
    "KJEGNMLKEEG": 13148,
    "AOEEDFBLDPA": 13149,
    "PDNGLOMOAMK": 71523,
    "DEBIILDDIBC": 71522,
    "IKGANKGHIHO": 71521,
    "watcherList": [
      12025002,
      12025003,
      12025004,
      12025005,
      12025006
    ],
    "weaponId": 14426,
    "LGHOLMCOODB": 12025001,
    "EFONACNAOOM": [
      40123,
      40124,
      40126
    ]
  }
]