[
  {
    "id": 10101,
    "BMFCLOGAPHE": 101,
    "CDIJLNKLIIC": 2,
    "logicType": "LOGIC_AND",
    "condList": [
      {
        "type": "QUEST_GLOBAL_VAR_EQUAL",
        "paramList": [
          400604,
          1
        ]
      },
      {
        "type": "QUEST_GLOBAL_VAR_GREATER",
        "paramList": [
          400605,
          1
        ]
      }
    ],
    "nameTextMapHash": 198648962,
    "iconPath": "ART/UI/Atlas/ItemIcon/UI_AvatarIcon_Mika_Circle"
  },
  {
    "id": 10102,
    "BMFCLOGAPHE": 101,
    "CDIJLNKLIIC": 5,
    "logicType": "LOGIC_OR",
    "condList": [
      {
        "type": "QUEST_GLOBAL_VAR_EQUAL",
        "paramList": [
          400606,
          1
        ]
      },
      {
        "type": "QUEST_GLOBAL_VAR_LESS",
        "paramList": [
          400607,
          1
        ]
      }
    ],
    "nameTextMapHash": 3938538794,
    "iconPath": "ART/UI/Atlas/ItemIcon/UI_AvatarIcon_Mika_Circle"
  },
  {
    "id": 100501,
    "BMFCLOGAPHE": 1005,
    "CDIJLNKLIIC": 5,
    "condList": [
      {
        "type": "QUEST_GLOBAL_VAR_EQUAL",
        "paramList": [
          1918206,
          0
        ]
      },
      {
        "paramList": [
          0,
          0
        ]
      }
    ],
    "nameTextMapHash": 4078666586,
    "iconPath": "ART/UI/Atlas/AvatarSideIcon/UI_AvatarIcon_Side_Linette"
  },
  {
    "id": 100601,
    "BMFCLOGAPHE": 1006,
    "CDIJLNKLIIC": 5,
    "condList": [
      {
        "type": "QUEST_GLOBAL_VAR_EQUAL",
        "paramList": [
          1918206,
          0
        ]
      },
      {
        "paramList": [
          0,
          0
        ]
      }
    ],
    "nameTextMapHash": 361304730,
    "iconPath": "ART/UI/Atlas/AvatarSideIcon/UI_AvatarIcon_Side_Linette"
  },
  {
    "id": 100701,
    "BMFCLOGAPHE": 1007,
    "CDIJLNKLIIC": 5,
    "condList": [
      {
        "type": "QUEST_GLOBAL_VAR_EQUAL",
        "paramList": [
          1918206,
          0
        ]
      },
      {
        "paramList": [
          0,
          0
        ]
      }
    ],
    "nameTextMapHash": 1101263946,
    "iconPath": "ART/UI/Atlas/AvatarSideIcon/UI_AvatarIcon_Side_Linette"
  },
  {
    "id": 100801,
    "BMFCLOGAPHE": 1008,
    "CDIJLNKLIIC": 5,
    "condList": [
      {
        "type": "QUEST_GLOBAL_VAR_EQUAL",
        "paramList": [
          1918206,
          0
        ]
      },
      {
        "paramList": [
          0,
          0
        ]
      }
    ],
    "nameTextMapHash": 2676849570,
    "iconPath": "ART/UI/Atlas/AvatarSideIcon/UI_AvatarIcon_Side_Linette"
  },
  {
    "id": 100901,
    "BMFCLOGAPHE": 1009,
    "CDIJLNKLIIC": 5,
    "condList": [
      {
        "type": "QUEST_GLOBAL_VAR_EQUAL",
        "paramList": [
          1918206,
          0
        ]
      },
      {
        "paramList": [
          0,
          0
        ]
      }
    ],
    "nameTextMapHash": 81822962,
    "iconPath": "ART/UI/Atlas/AvatarSideIcon/UI_AvatarIcon_Side_Linette"
  },
  {
    "id": 101001,
    "BMFCLOGAPHE": 1010,
    "CDIJLNKLIIC": 3,
    "condList": [
      {
        "type": "QUEST_GLOBAL_VAR_EQUAL",
        "paramList": [
          1918201,
          1
        ]
      },
      {
        "paramList": [
          0,
          0
        ]
      }
    ],
    "nameTextMapHash": 678693394,
    "iconPath": ""
  },
  {
    "id": 101002,
    "BMFCLOGAPHE": 1010,
    "CDIJLNKLIIC": 3,
    "condList": [
      {
        "type": "QUEST_GLOBAL_VAR_EQUAL",
        "paramList": [
          1918202,
          1
        ]
      },
      {
        "paramList": [
          0,
          0
        ]
      }
    ],
    "nameTextMapHash": 3519013818,
    "iconPath": ""
  },
  {
    "id": 101003,
    "BMFCLOGAPHE": 1010,
    "CDIJLNKLIIC": 3,
    "condList": [
      {
        "type": "QUEST_GLOBAL_VAR_EQUAL",
        "paramList": [
          1918203,
          1
        ]
      },
      {
        "paramList": [
          0,
          0
        ]
      }
    ],
    "nameTextMapHash": 238027002,
    "iconPath": ""
  },
  {
    "id": 101004,
    "BMFCLOGAPHE": 1010,
    "CDIJLNKLIIC": 3,
    "condList": [
      {
        "type": "QUEST_GLOBAL_VAR_EQUAL",
        "paramList": [
          1918204,
          1
        ]
      },
      {
        "paramList": [
          0,
          0
        ]
      }
    ],
    "nameTextMapHash": 4053459506,
    "iconPath": ""
  },
  {
    "id": 101005,
    "BMFCLOGAPHE": 1010,
    "CDIJLNKLIIC": 3,
    "condList": [
      {
        "type": "QUEST_GLOBAL_VAR_EQUAL",
        "paramList": [
          1918205,
          1
        ]
      },
      {
        "paramList": [
          0,
          0
        ]
      }
    ],
    "nameTextMapHash": 4239200538,
    "iconPath": ""
  },
  {
    "id": 101301,
    "BMFCLOGAPHE": 1013,
    "CDIJLNKLIIC": 7,
    "condList": [
      {
        "type": "QUEST_GLOBAL_VAR_EQUAL",
        "paramList": [
          1918206,
          0
        ]
      },
      {
        "paramList": [
          0,
          0
        ]
      }
    ],
    "nameTextMapHash": 2461214754,
    "iconPath": "ART/UI/Atlas/AvatarSideIcon/UI_AvatarIcon_Side_Linette"
  },
  {
    "id": 102001,
    "BMFCLOGAPHE": 1020,
    "CDIJLNKLIIC": 5,
    "condList": [
      {
        "type": "QUEST_GLOBAL_VAR_EQUAL",
        "paramList": [
          1918206,
          0
        ]
      },
      {
        "paramList": [
          0,
          0
        ]
      }
    ],
    "nameTextMapHash": 778725770,
    "iconPath": "ART/UI/Atlas/AvatarSideIcon/UI_AvatarIcon_Side_Linette"
  },
  {
    "id": 102002,
    "BMFCLOGAPHE": 1020,
    "CDIJLNKLIIC": 8,
    "condList": [
      {
        "type": "QUEST_GLOBAL_VAR_EQUAL",
        "paramList": [
          1918206,
          0
        ]
      },
      {
        "paramList": [
          0,
          0
        ]
      }
    ],
    "nameTextMapHash": 3292666154,
    "iconPath": "ART/UI/Atlas/AvatarSideIcon/UI_AvatarIcon_Side_Liney"
  },
  {
    "id": 102003,
    "BMFCLOGAPHE": 1020,
    "CDIJLNKLIIC": 5,
    "condList": [
      {
        "type": "QUEST_GLOBAL_VAR_EQUAL",
        "paramList": [
          1918206,
          0
        ]
      },
      {
        "paramList": [
          0,
          0
        ]
      }
    ],
    "nameTextMapHash": 625624970,
    "iconPath": ""
  },
  {
    "id": 102004,
    "BMFCLOGAPHE": 1020,
    "CDIJLNKLIIC": 3,
    "condList": [
      {
        "type": "QUEST_GLOBAL_VAR_EQUAL",
        "paramList": [
          1918206,
          0
        ]
      },
      {
        "paramList": [
          0,
          0
        ]
      }
    ],
    "nameTextMapHash": 1741756890,
    "iconPath": ""
  },
  {
    "id": 102005,
    "BMFCLOGAPHE": 1020,
    "CDIJLNKLIIC": 3,
    "condList": [
      {
        "type": "QUEST_GLOBAL_VAR_EQUAL",
        "paramList": [
          1918206,
          0
        ]
      },
      {
        "paramList": [
          0,
          0
        ]
      }
    ],
    "nameTextMapHash": 546661818,
    "iconPath": ""
  },
  {
    "id": 102101,
    "BMFCLOGAPHE": 1021,
    "CDIJLNKLIIC": 5,
    "condList": [
      {
        "type": "QUEST_GLOBAL_VAR_EQUAL",
        "paramList": [
          1918206,
          0
        ]
      },
      {
        "paramList": [
          0,
          0
        ]
      }
    ],
    "nameTextMapHash": 3831403098,
    "iconPath": "ART/UI/Atlas/AvatarSideIcon/UI_AvatarIcon_Side_Linette"
  },
  {
    "id": 102501,
    "BMFCLOGAPHE": 1025,
    "CDIJLNKLIIC": 7,
    "condList": [
      {
        "type": "QUEST_GLOBAL_VAR_EQUAL",
        "paramList": [
          1918206,
          1
        ]
      },
      {
        "paramList": [
          0,
          0
        ]
      }
    ],
    "nameTextMapHash": 3582237698,
    "iconPath": "ART/UI/Atlas/AvatarSideIcon/UI_AvatarIcon_Side_Linette"
  },
  {
    "id": 102601,
    "BMFCLOGAPHE": 1026,
    "CDIJLNKLIIC": 7,
    "condList": [
      {
        "type": "QUEST_GLOBAL_VAR_EQUAL",
        "paramList": [
          1918206,
          0
        ]
      },
      {
        "paramList": [
          0,
          0
        ]
      }
    ],
    "nameTextMapHash": 525091274,
    "iconPath": "ART/UI/Atlas/AvatarSideIcon/UI_AvatarIcon_Side_Linette"
  },
  {
    "id": 102701,
    "BMFCLOGAPHE": 1027,
    "CDIJLNKLIIC": 6,
    "condList": [
      {
        "type": "QUEST_GLOBAL_VAR_EQUAL",
        "paramList": [
          1918206,
          0
        ]
      },
      {
        "paramList": [
          0,
          0
        ]
      }
    ],
    "nameTextMapHash": 1864941578,
    "iconPath": "ART/UI/Atlas/AvatarSideIcon/UI_AvatarIcon_Side_Liney"
  },
  {
    "id": 102801,
    "BMFCLOGAPHE": 1028,
    "CDIJLNKLIIC": 6,
    "condList": [
      {
        "type": "QUEST_GLOBAL_VAR_EQUAL",
        "paramList": [
          1918206,
          0
        ]
      },
      {
        "paramList": [
          0,
          0
        ]
      }
    ],
    "nameTextMapHash": 334896018,
    "iconPath": "ART/UI/Atlas/AvatarSideIcon/UI_AvatarIcon_Side_Chevreuse"
  },
  {
    "id": 103101,
    "BMFCLOGAPHE": 1031,
    "CDIJLNKLIIC": 5,
    "condList": [
      {
        "type": "QUEST_GLOBAL_VAR_EQUAL",
        "paramList": [
          1918501,
          1
        ]
      },
      {
        "paramList": [
          0,
          0
        ]
      }
    ],
    "nameTextMapHash": 382457858,
    "iconPath": ""
  },
  {
    "id": 103102,
    "BMFCLOGAPHE": 1031,
    "CDIJLNKLIIC": 5,
    "condList": [
      {
        "type": "QUEST_GLOBAL_VAR_EQUAL",
        "paramList": [
          1918502,
          1
        ]
      },
      {
        "paramList": [
          0,
          0
        ]
      }
    ],
    "nameTextMapHash": 408284650,
    "iconPath": ""
  },
  {
    "id": 103103,
    "BMFCLOGAPHE": 1031,
    "CDIJLNKLIIC": 5,
    "condList": [
      {
        "type": "QUEST_GLOBAL_VAR_EQUAL",
        "paramList": [
          1918503,
          1
        ]
      },
      {
        "paramList": [
          0,
          0
        ]
      }
    ],
    "nameTextMapHash": 1066453378,
    "iconPath": ""
  },
  {
    "id": 103104,
    "BMFCLOGAPHE": 1031,
    "CDIJLNKLIIC": 5,
    "condList": [
      {
        "type": "QUEST_GLOBAL_VAR_EQUAL",
        "paramList": [
          1918504,
          1
        ]
      },
      {
        "paramList": [
          0,
          0
        ]
      }
    ],
    "nameTextMapHash": 3785443242,
    "iconPath": ""
  },
  {
    "id": 103501,
    "BMFCLOGAPHE": 1035,
    "CDIJLNKLIIC": 6,
    "condList": [
      {
        "type": "QUEST_GLOBAL_VAR_EQUAL",
        "paramList": [
          1918206,
          0
        ]
      },
      {
        "paramList": [
          0,
          0
        ]
      }
    ],
    "nameTextMapHash": 1933715642,
    "iconPath": "ART/UI/Atlas/AvatarSideIcon/UI_AvatarIcon_Side_Chevreuse"
  },
  {
    "id": 103601,
    "BMFCLOGAPHE": 1036,
    "CDIJLNKLIIC": 8,
    "condList": [
      {
        "type": "QUEST_GLOBAL_VAR_EQUAL",
        "paramList": [
          1918206,
          0
        ]
      },
      {
        "paramList": [
          0,
          0
        ]
      }
    ],
    "nameTextMapHash": 1686996298,
    "iconPath": "ART/UI/Atlas/AvatarSideIcon/UI_AvatarIcon_Side_Liney"
  },
  {
    "id": 103701,
    "BMFCLOGAPHE": 1037,
    "CDIJLNKLIIC": 6,
    "condList": [
      {
        "type": "QUEST_GLOBAL_VAR_EQUAL",
        "paramList": [
          1918206,
          0
        ]
      },
      {
        "paramList": [
          0,
          0
        ]
      }
    ],
    "nameTextMapHash": 408131386,
    "iconPath": "ART/UI/Atlas/AvatarSideIcon/UI_AvatarIcon_Side_Linette"
  },
  {
    "id": 104101,
    "BMFCLOGAPHE": 1041,
    "CDIJLNKLIIC": 7,
    "condList": [
      {
        "type": "QUEST_GLOBAL_VAR_EQUAL",
        "paramList": [
          1918206,
          1
        ]
      },
      {
        "paramList": [
          0,
          0
        ]
      }
    ],
    "nameTextMapHash": 3161643594,
    "iconPath": "ART/UI/Atlas/AvatarSideIcon/UI_AvatarIcon_Side_Linette"
  },
  {
    "id": 200101,
    "BMFCLOGAPHE": 2001,
    "CDIJLNKLIIC": 8,
    "condList": [
      {
        "type": "QUEST_GLOBAL_VAR_EQUAL",
        "paramList": [
          1403202,
          1
        ]
      },
      {
        "paramList": [
          0,
          0
        ]
      }
    ],
    "nameTextMapHash": 2660125202,
    "iconPath": ""
  },
  {
    "id": 200601,
    "BMFCLOGAPHE": 2006,
    "CDIJLNKLIIC": 6,
    "condList": [
      {
        "paramList": [
          0,
          0
        ]
      },
      {
        "paramList": [
          0,
          0
        ]
      }
    ],
    "nameTextMapHash": 2980675514,
    "iconPath": "ART/UI/Atlas/AvatarSideIcon/UI_AvatarIcon_Side_Furina"
  },
  {
    "id": 200701,
    "BMFCLOGAPHE": 2007,
    "CDIJLNKLIIC": 8,
    "condList": [
      {
        "type": "QUEST_GLOBAL_VAR_EQUAL",
        "paramList": [
          1403202,
          1
        ]
      },
      {
        "paramList": [
          0,
          0
        ]
      }
    ],
    "nameTextMapHash": 1219070370,
    "iconPath": ""
  },
  {
    "id": 200901,
    "BMFCLOGAPHE": 2009,
    "CDIJLNKLIIC": 2,
    "condList": [
      {
        "paramList": [
          0,
          0
        ]
      },
      {
        "paramList": [
          0,
          0
        ]
      }
    ],
    "nameTextMapHash": 2488523450,
    "iconPath": "ART/UI/Atlas/AvatarSideIcon/UI_AvatarIcon_Side_Navia"
  }
]