[
  {
    "id": 10533,
    "questId": 73033,
    "descTextMapHash": 3306835624
  },
  {
    "id": 10531,
    "questId": 73031,
    "descTextMapHash": 1890549952
  },
  {
    "id": 10532,
    "questId": 73032,
    "descTextMapHash": 1493323080
  },
  {
    "id": 10535,
    "questId": 73035,
    "descTextMapHash": 1346968376
  },
  {
    "id": 10536,
    "questId": 73036,
    "descTextMapHash": 2726722272
  },
  {
    "id": 10537,
    "questId": 73037,
    "descTextMapHash": 1710335360
  },
  {
    "id": 10538,
    "questId": 73038,
    "descTextMapHash": 2655004168
  },
  {
    "id": 10580,
    "questId": 73080,
    "descTextMapHash": 3640693288
  },
  {
    "id": 10633,
    "questId": 73033,
    "descTextMapHash": 3004163256
  },
  {
    "id": 10631,
    "questId": 73031,
    "descTextMapHash": 992291848
  },
  {
    "id": 10632,
    "questId": 73032,
    "descTextMapHash": 2834943216
  },
  {
    "id": 10635,
    "questId": 73035,
    "descTextMapHash": 3704932928
  },
  {
    "id": 10636,
    "questId": 73036,
    "descTextMapHash": 2711036688
  },
  {
    "id": 10637,
    "questId": 73037,
    "descTextMapHash": 2706863776
  },
  {
    "id": 10638,
    "questId": 73038,
    "descTextMapHash": 4247826792
  },
  {
    "id": 10620,
    "questId": 73020,
    "questMarkID": 7301301,
    "descTextMapHash": 4148338656
  },
  {
    "id": 10621,
    "questId": 73021,
    "descTextMapHash": 373378608
  },
  {
    "id": 10619,
    "questId": 73019,
    "descTextMapHash": 2141886928
  },
  {
    "id": 10622,
    "questId": 73022,
    "descTextMapHash": 2489872896
  },
  {
    "id": 10613,
    "questId": 73013,
    "descTextMapHash": 3997957800
  },
  {
    "id": 10681,
    "questId": 73081,
    "questMarkID": 7308101,
    "descTextMapHash": 2591344312
  },
  {
    "id": 10669,
    "questId": 73069,
    "descTextMapHash": 3754220824
  },
  {
    "id": 10670,
    "questId": 73070,
    "descTextMapHash": 603827448
  },
  {
    "id": 10674,
    "questId": 73074,
    "descTextMapHash": 3585269200
  },
  {
    "id": 10614,
    "questId": 73014,
    "questMarkID": 7301401,
    "descTextMapHash": 1572233688
  },
  {
    "id": 10615,
    "questId": 73015,
    "descTextMapHash": 3173297304
  },
  {
    "id": 10616,
    "questId": 73016,
    "descTextMapHash": 1172620568
  },
  {
    "id": 10617,
    "questId": 73017,
    "descTextMapHash": 2996280512
  },
  {
    "id": 10618,
    "questId": 73018,
    "descTextMapHash": 3645184976
  },
  {
    "id": 106239,
    "questId": 73239,
    "descTextMapHash": 4133675440
  },
  {
    "id": 10661,
    "questId": 73061,
    "descTextMapHash": 701767112
  },
  {
    "id": 10663,
    "questId": 73063,
    "descTextMapHash": 2463631784
  },
  {
    "id": 10666,
    "questId": 73066,
    "descTextMapHash": 3488113536
  },
  {
    "id": 10600,
    "questId": 73000,
    "questMarkID": 7300001,
    "descTextMapHash": 3014477784
  },
  {
    "id": 10673,
    "questId": 73073,
    "descTextMapHash": 2746665072
  },
  {
    "id": 10626,
    "questId": 73026,
    "descTextMapHash": 4070660856
  },
  {
    "id": 10627,
    "questId": 73027,
    "descTextMapHash": 554753744
  },
  {
    "id": 10714,
    "questId": 73014,
    "descTextMapHash": 2708391304
  },
  {
    "id": 10715,
    "questId": 73015,
    "descTextMapHash": 1304988408
  },
  {
    "id": 10716,
    "questId": 73016,
    "descTextMapHash": 863056728
  },
  {
    "id": 10717,
    "questId": 73017,
    "descTextMapHash": 4260942888
  },
  {
    "id": 10718,
    "questId": 73018,
    "descTextMapHash": 1899441080
  },
  {
    "id": 10739,
    "questId": 73239,
    "descTextMapHash": 1536887464
  },
  {
    "id": 10768,
    "questId": 73068,
    "descTextMapHash": 1769470048
  },
  {
    "id": 10732,
    "questId": 73032,
    "descTextMapHash": 3840638024
  },
  {
    "id": 10775,
    "questId": 73075,
    "descTextMapHash": 2283707216
  },
  {
    "id": 10771,
    "questId": 73071,
    "descTextMapHash": 3276482104
  },
  {
    "id": 10861,
    "questId": 73061,
    "descTextMapHash": 3603992896
  },
  {
    "id": 10863,
    "questId": 73063,
    "descTextMapHash": 3817576304
  },
  {
    "id": 10866,
    "questId": 73066,
    "descTextMapHash": 1711764928
  },
  {
    "id": 10832,
    "questId": 73032,
    "descTextMapHash": 3687665832
  },
  {
    "id": 10856,
    "questId": 73056,
    "descTextMapHash": 2335533136
  },
  {
    "id": 10857,
    "questId": 73057,
    "descTextMapHash": 2867652192
  },
  {
    "id": 10858,
    "questId": 73058,
    "descTextMapHash": 3420334440
  },
  {
    "id": 10859,
    "questId": 73059,
    "descTextMapHash": 2854308320
  },
  {
    "id": 10843,
    "questId": 73043,
    "descTextMapHash": 1524303736
  },
  {
    "id": 10900,
    "questId": 73000,
    "questMarkID": 7300001,
    "descTextMapHash": 2538090656
  },
  {
    "id": 10973,
    "questId": 73073,
    "descTextMapHash": 1766596368
  },
  {
    "id": 10926,
    "questId": 73026,
    "descTextMapHash": 3544008640
  },
  {
    "id": 10927,
    "questId": 73027,
    "descTextMapHash": 2759127344
  },
  {
    "id": 10932,
    "questId": 73032,
    "descTextMapHash": 2610188632
  },
  {
    "id": 10962,
    "questId": 73062,
    "descTextMapHash": 2289976128
  },
  {
    "id": 11038,
    "questId": 73038,
    "descTextMapHash": 1269633344
  },
  {
    "id": 11099,
    "questId": 73099,
    "descTextMapHash": 526129448
  },
  {
    "id": 20151,
    "questId": 73052,
    "descTextMapHash": 3418639800
  },
  {
    "id": 20251,
    "questId": 73053,
    "descTextMapHash": 3037829416
  },
  {
    "id": 20351,
    "questId": 73054,
    "descTextMapHash": 1251934808
  },
  {
    "id": 20451,
    "questId": 73055,
    "descTextMapHash": 2600706856
  },
  {
    "id": 20551,
    "questId": 73083,
    "descTextMapHash": 3346401584
  },
  {
    "id": 20651,
    "questId": 73219,
    "descTextMapHash": 2581324248
  },
  {
    "id": 20751,
    "questId": 73305,
    "descTextMapHash": 3675860584
  }
]