[
  {
    "id": 101,
    "parentQuestId": 3009,
    "JIFCALNIKEI": 20,
    "JKCPCMFICEN": 13,
    "bonusList": [
      10101,
      10102
    ],
    "OILOBBLAMHF": true,
    "PADCNNDKLHC": 404327,
    "OAEJBALAFBG": 404328,
    "descContentTextMapHash": 1514393867,
    "iconPath": "",
    "HECNJCDCDMJ": 1792876611
  },
  {
    "id": 1001,
    "parentQuestId": 19180,
    "JIFCALNIKEI": 20,
    "JKCPCMFICEN": 5,
    "bonusList": [],
    "descContentTextMapHash": 1118262803,
    "iconPath": "",
    "HECNJCDCDMJ": 2941348659
  },
  {
    "id": 1002,
    "parentQuestId": 19180,
    "JIFCALNIKEI": 20,
    "JKCPCMFICEN": 10,
    "bonusList": [],
    "descContentTextMapHash": 1538110035,
    "iconPath": "",
    "HECNJCDCDMJ": 1024944867
  },
  {
    "id": 1003,
    "parentQuestId": 19182,
    "JIFCALNIKEI": 20,
    "JKCPCMFICEN": 10,
    "bonusList": [],
    "descContentTextMapHash": 421814507,
    "iconPath": "",
    "HECNJCDCDMJ": 2385950235
  },
  {
    "id": 1004,
    "parentQuestId": 19182,
    "JIFCALNIKEI": 20,
    "JKCPCMFICEN": 5,
    "bonusList": [],
    "OILOBBLAMHF": true,
    "PADCNNDKLHC": 404348,
    "descContentTextMapHash": 890367179,
    "iconPath": "",
    "HECNJCDCDMJ": 190501803
  },
  {
    "id": 1005,
    "parentQuestId": 19182,
    "JIFCALNIKEI": 20,
    "JKCPCMFICEN": 15,
    "bonusList": [
      100501
    ],
    "descContentTextMapHash": 2298628059,
    "iconPath": "",
    "HECNJCDCDMJ": 3674899923
  },
  {
    "id": 1006,
    "parentQuestId": 19182,
    "JIFCALNIKEI": 20,
    "JKCPCMFICEN": 15,
    "bonusList": [
      100601
    ],
    "descContentTextMapHash": 100207563,
    "iconPath": "",
    "HECNJCDCDMJ": 4029390211
  },
  {
    "id": 1007,
    "parentQuestId": 19182,
    "JIFCALNIKEI": 20,
    "JKCPCMFICEN": 12,
    "bonusList": [
      100701
    ],
    "descContentTextMapHash": 919224395,
    "iconPath": "",
    "HECNJCDCDMJ": 3574893459
  },
  {
    "id": 1008,
    "parentQuestId": 19182,
    "JIFCALNIKEI": 20,
    "JKCPCMFICEN": 12,
    "bonusList": [
      100801
    ],
    "descContentTextMapHash": 344369347,
    "iconPath": "",
    "HECNJCDCDMJ": 196148403
  },
  {
    "id": 1009,
    "parentQuestId": 19182,
    "JIFCALNIKEI": 20,
    "JKCPCMFICEN": 12,
    "bonusList": [
      100901
    ],
    "descContentTextMapHash": 3290098299,
    "iconPath": "",
    "HECNJCDCDMJ": 1183809451
  },
  {
    "id": 1010,
    "parentQuestId": 19182,
    "JIFCALNIKEI": 20,
    "JKCPCMFICEN": 15,
    "bonusList": [
      101001,
      101002,
      101003,
      101004,
      101005
    ],
    "descContentTextMapHash": 11757571,
    "iconPath": "",
    "HECNJCDCDMJ": 2463140459
  },
  {
    "id": 1011,
    "parentQuestId": 19185,
    "JIFCALNIKEI": 20,
    "JKCPCMFICEN": 5,
    "bonusList": [],
    "OILOBBLAMHF": true,
    "PADCNNDKLHC": 404349,
    "descContentTextMapHash": 54616579,
    "iconPath": "",
    "HECNJCDCDMJ": 3271339347
  },
  {
    "id": 1012,
    "parentQuestId": 19182,
    "JIFCALNIKEI": 20,
    "JKCPCMFICEN": 10,
    "bonusList": [],
    "OILOBBLAMHF": true,
    "PADCNNDKLHC": 404350,
    "descContentTextMapHash": 3025469339,
    "iconPath": "",
    "HECNJCDCDMJ": 4220878747
  },
  {
    "id": 1013,
    "parentQuestId": 19182,
    "JIFCALNIKEI": 20,
    "JKCPCMFICEN": 10,
    "bonusList": [
      101301
    ],
    "descContentTextMapHash": 360946011,
    "iconPath": "",
    "HECNJCDCDMJ": 3139607883
  },
  {
    "id": 1014,
    "parentQuestId": 19182,
    "JIFCALNIKEI": 20,
    "JKCPCMFICEN": 10,
    "bonusList": [],
    "descContentTextMapHash": 954703627,
    "iconPath": "",
    "HECNJCDCDMJ": 621457907
  },
  {
    "id": 1015,
    "parentQuestId": 19182,
    "JIFCALNIKEI": 20,
    "JKCPCMFICEN": 8,
    "bonusList": [],
    "OILOBBLAMHF": true,
    "PADCNNDKLHC": 404351,
    "descContentTextMapHash": 650059611,
    "iconPath": "",
    "HECNJCDCDMJ": 2747966523
  },
  {
    "id": 1016,
    "parentQuestId": 19182,
    "JIFCALNIKEI": 20,
    "JKCPCMFICEN": 10,
    "bonusList": [],
    "OILOBBLAMHF": true,
    "PADCNNDKLHC": 404352,
    "descContentTextMapHash": 4186775755,
    "iconPath": "",
    "HECNJCDCDMJ": 1379796547
  },
  {
    "id": 1017,
    "parentQuestId": 19182,
    "JIFCALNIKEI": 20,
    "JKCPCMFICEN": 5,
    "bonusList": [],
    "OILOBBLAMHF": true,
    "PADCNNDKLHC": 404353,
    "descContentTextMapHash": 3799718387,
    "iconPath": "",
    "HECNJCDCDMJ": 2252422947
  },
  {
    "id": 1018,
    "parentQuestId": 19182,
    "JIFCALNIKEI": 20,
    "JKCPCMFICEN": 8,
    "bonusList": [],
    "OILOBBLAMHF": true,
    "PADCNNDKLHC": 404354,
    "descContentTextMapHash": 1772707491,
    "iconPath": "",
    "HECNJCDCDMJ": 2781936963
  },
  {
    "id": 1019,
    "parentQuestId": 19182,
    "JIFCALNIKEI": 20,
    "JKCPCMFICEN": 5,
    "bonusList": [],
    "OILOBBLAMHF": true,
    "PADCNNDKLHC": 404355,
    "descContentTextMapHash": 2166840787,
    "iconPath": "",
    "HECNJCDCDMJ": 1705596475
  },
  {
    "id": 1020,
    "parentQuestId": 19182,
    "JIFCALNIKEI": 20,
    "JKCPCMFICEN": 25,
    "bonusList": [
      102001,
      102002,
      102003,
      102004,
      102005
    ],
    "descContentTextMapHash": 1830566515,
    "iconPath": "",
    "HECNJCDCDMJ": 3097893131
  },
  {
    "id": 1021,
    "parentQuestId": 19182,
    "JIFCALNIKEI": 20,
    "JKCPCMFICEN": 6,
    "bonusList": [
      102101
    ],
    "descContentTextMapHash": 3616710251,
    "iconPath": "",
    "HECNJCDCDMJ": 1292428331
  },
  {
    "id": 1022,
    "parentQuestId": 19185,
    "JIFCALNIKEI": 20,
    "JKCPCMFICEN": 10,
    "bonusList": [],
    "OILOBBLAMHF": true,
    "PADCNNDKLHC": 404356,
    "descContentTextMapHash": 935955267,
    "iconPath": "",
    "HECNJCDCDMJ": 315981667
  },
  {
    "id": 1023,
    "parentQuestId": 19185,
    "JIFCALNIKEI": 20,
    "JKCPCMFICEN": 8,
    "bonusList": [],
    "OILOBBLAMHF": true,
    "PADCNNDKLHC": 404357,
    "descContentTextMapHash": 1485110859,
    "iconPath": "",
    "HECNJCDCDMJ": 2127414539
  },
  {
    "id": 1024,
    "parentQuestId": 19185,
    "JIFCALNIKEI": 20,
    "JKCPCMFICEN": 5,
    "bonusList": [],
    "OILOBBLAMHF": true,
    "PADCNNDKLHC": 404358,
    "descContentTextMapHash": 504465283,
    "iconPath": "",
    "HECNJCDCDMJ": 2777530595
  },
  {
    "id": 1025,
    "parentQuestId": 19185,
    "JIFCALNIKEI": 20,
    "JKCPCMFICEN": 12,
    "bonusList": [
      102501
    ],
    "descContentTextMapHash": 1344004211,
    "iconPath": "",
    "HECNJCDCDMJ": 4023111035
  },
  {
    "id": 1026,
    "parentQuestId": 19185,
    "JIFCALNIKEI": 20,
    "JKCPCMFICEN": 8,
    "bonusList": [
      102601
    ],
    "descContentTextMapHash": 3856817027,
    "iconPath": "",
    "HECNJCDCDMJ": 706090699
  },
  {
    "id": 1027,
    "parentQuestId": 19185,
    "JIFCALNIKEI": 20,
    "JKCPCMFICEN": 5,
    "bonusList": [
      102701
    ],
    "descContentTextMapHash": 870357483,
    "iconPath": "",
    "HECNJCDCDMJ": 2258258499
  },
  {
    "id": 1028,
    "parentQuestId": 19185,
    "JIFCALNIKEI": 20,
    "JKCPCMFICEN": 5,
    "bonusList": [
      102801
    ],
    "descContentTextMapHash": 878607563,
    "iconPath": "",
    "HECNJCDCDMJ": 903975571
  },
  {
    "id": 1029,
    "parentQuestId": 19185,
    "JIFCALNIKEI": 20,
    "JKCPCMFICEN": 10,
    "bonusList": [],
    "descContentTextMapHash": 1122916603,
    "iconPath": "",
    "HECNJCDCDMJ": 3921115195
  },
  {
    "id": 1030,
    "parentQuestId": 19185,
    "JIFCALNIKEI": 20,
    "JKCPCMFICEN": 8,
    "bonusList": [],
    "OILOBBLAMHF": true,
    "PADCNNDKLHC": 404359,
    "descContentTextMapHash": 2475194067,
    "iconPath": "",
    "HECNJCDCDMJ": 803198739
  },
  {
    "id": 1031,
    "parentQuestId": 19185,
    "JIFCALNIKEI": 20,
    "JKCPCMFICEN": 20,
    "bonusList": [
      103101,
      103102,
      103103,
      103104
    ],
    "descContentTextMapHash": 3669041995,
    "iconPath": "",
    "HECNJCDCDMJ": 1930117267
  },
  {
    "id": 1032,
    "parentQuestId": 19187,
    "JIFCALNIKEI": 20,
    "JKCPCMFICEN": 10,
    "bonusList": [],
    "OILOBBLAMHF": true,
    "PADCNNDKLHC": 404360,
    "descContentTextMapHash": 1484975531,
    "iconPath": "",
    "HECNJCDCDMJ": 2608875859
  },
  {
    "id": 1033,
    "parentQuestId": 19187,
    "JIFCALNIKEI": 20,
    "JKCPCMFICEN": 10,
    "bonusList": [],
    "OILOBBLAMHF": true,
    "PADCNNDKLHC": 404361,
    "descContentTextMapHash": 3432858051,
    "iconPath": "",
    "HECNJCDCDMJ": 826026067
  },
  {
    "id": 1034,
    "parentQuestId": 19187,
    "JIFCALNIKEI": 20,
    "JKCPCMFICEN": 15,
    "bonusList": [],
    "descContentTextMapHash": 1191645483,
    "iconPath": "",
    "HECNJCDCDMJ": 4078944467
  },
  {
    "id": 1035,
    "parentQuestId": 19187,
    "JIFCALNIKEI": 20,
    "JKCPCMFICEN": 15,
    "bonusList": [
      103501
    ],
    "descContentTextMapHash": 3555202731,
    "iconPath": "",
    "HECNJCDCDMJ": 3072435331
  },
  {
    "id": 1036,
    "parentQuestId": 19187,
    "JIFCALNIKEI": 20,
    "JKCPCMFICEN": 15,
    "bonusList": [
      103601
    ],
    "descContentTextMapHash": 4256203403,
    "iconPath": "",
    "HECNJCDCDMJ": 1896065707
  },
  {
    "id": 1037,
    "parentQuestId": 19187,
    "JIFCALNIKEI": 20,
    "JKCPCMFICEN": 15,
    "bonusList": [
      103701
    ],
    "descContentTextMapHash": 1268164427,
    "iconPath": "",
    "HECNJCDCDMJ": 3428923683
  },
  {
    "id": 1038,
    "parentQuestId": 19187,
    "JIFCALNIKEI": 20,
    "JKCPCMFICEN": 10,
    "bonusList": [],
    "descContentTextMapHash": 545400379,
    "iconPath": "",
    "HECNJCDCDMJ": 1152720339
  },
  {
    "id": 1039,
    "parentQuestId": 19185,
    "JIFCALNIKEI": 20,
    "JKCPCMFICEN": 5,
    "bonusList": [],
    "OILOBBLAMHF": true,
    "PADCNNDKLHC": 404362,
    "descContentTextMapHash": 173138379,
    "iconPath": "",
    "HECNJCDCDMJ": 1299819035
  },
  {
    "id": 1040,
    "parentQuestId": 19182,
    "JIFCALNIKEI": 20,
    "JKCPCMFICEN": 10,
    "bonusList": [],
    "descContentTextMapHash": 3200628283,
    "iconPath": "",
    "HECNJCDCDMJ": 2936858475
  },
  {
    "id": 1041,
    "parentQuestId": 19185,
    "JIFCALNIKEI": 20,
    "JKCPCMFICEN": 8,
    "bonusList": [
      104101
    ],
    "descContentTextMapHash": 1385879339,
    "iconPath": "",
    "HECNJCDCDMJ": 383120651
  },
  {
    "id": 2001,
    "parentQuestId": 14032,
    "JIFCALNIKEI": 20,
    "BCIMIPIBBJO": 1,
    "JKCPCMFICEN": 8,
    "bonusList": [
      200101
    ],
    "descContentTextMapHash": 2950478307,
    "PIADHCMBELB": "COMMON_CHECK",
    "iconPath": "",
    "HECNJCDCDMJ": 2660316451
  },
  {
    "id": 2002,
    "parentQuestId": 14032,
    "JIFCALNIKEI": 20,
    "BCIMIPIBBJO": 10,
    "JKCPCMFICEN": 10,
    "bonusList": [],
    "descContentTextMapHash": 1938910203,
    "PIADHCMBELB": "NPC_DARK_DICE",
    "iconPath": "ART/UI/Atlas/AvatarSideIcon/UI_AvatarIcon_Side_Clorinde",
    "HECNJCDCDMJ": 3526958643
  },
  {
    "id": 2003,
    "parentQuestId": 14032,
    "JIFCALNIKEI": 20,
    "BCIMIPIBBJO": 15,
    "JKCPCMFICEN": 15,
    "bonusList": [],
    "descContentTextMapHash": 2552376435,
    "PIADHCMBELB": "NPC_DARK_DICE",
    "iconPath": "ART/UI/Atlas/AvatarSideIcon/UI_AvatarIcon_Side_Clorinde",
    "HECNJCDCDMJ": 2867064043
  },
  {
    "id": 2004,
    "parentQuestId": 14032,
    "JIFCALNIKEI": 20,
    "BCIMIPIBBJO": 8,
    "JKCPCMFICEN": 8,
    "bonusList": [],
    "descContentTextMapHash": 3779081971,
    "PIADHCMBELB": "NPC_CHECK",
    "iconPath": "ART/UI/Atlas/AvatarSideIcon/UI_AvatarIcon_Side_Navia",
    "HECNJCDCDMJ": 2326209971
  },
  {
    "id": 2005,
    "parentQuestId": 14032,
    "JIFCALNIKEI": 20,
    "BCIMIPIBBJO": 8,
    "JKCPCMFICEN": 8,
    "bonusList": [],
    "descContentTextMapHash": 3413155,
    "PIADHCMBELB": "NPC_CHECK",
    "iconPath": "ART/UI/Atlas/AvatarSideIcon/UI_AvatarIcon_Side_Liney",
    "HECNJCDCDMJ": 3477486035
  },
  {
    "id": 2006,
    "parentQuestId": 14032,
    "JIFCALNIKEI": 20,
    "BCIMIPIBBJO": 1,
    "JKCPCMFICEN": 6,
    "bonusList": [
      200601
    ],
    "descContentTextMapHash": 1091491627,
    "PIADHCMBELB": "NPC_CHECK",
    "iconPath": "ART/UI/Atlas/AvatarSideIcon/UI_AvatarIcon_Side_Furina",
    "HECNJCDCDMJ": 2759955883
  },
  {
    "id": 2007,
    "parentQuestId": 14032,
    "JIFCALNIKEI": 20,
    "BCIMIPIBBJO": 1,
    "JKCPCMFICEN": 8,
    "bonusList": [
      200701
    ],
    "descContentTextMapHash": 2444590579,
    "PIADHCMBELB": "COMMON_CHECK",
    "iconPath": "",
    "HECNJCDCDMJ": 4232003107
  },
  {
    "id": 2008,
    "parentQuestId": 14032,
    "JIFCALNIKEI": 20,
    "BCIMIPIBBJO": 10,
    "JKCPCMFICEN": 10,
    "bonusList": [],
    "descContentTextMapHash": 891867083,
    "PIADHCMBELB": "NPC_DARK_DICE",
    "iconPath": "ART/UI/Atlas/AvatarSideIcon/UI_AvatarIcon_Side_Clorinde",
    "HECNJCDCDMJ": 3038746187
  },
  {
    "id": 2009,
    "parentQuestId": 14032,
    "JIFCALNIKEI": 20,
    "BCIMIPIBBJO": 8,
    "JKCPCMFICEN": 8,
    "bonusList": [],
    "descContentTextMapHash": 4025214827,
    "PIADHCMBELB": "NPC_CHECK",
    "iconPath": "ART/UI/Atlas/AvatarSideIcon/UI_AvatarIcon_Side_Navia",
    "HECNJCDCDMJ": 394549179
  },
  {
    "id": 2010,
    "parentQuestId": 14032,
    "JIFCALNIKEI": 20,
    "BCIMIPIBBJO": 1,
    "JKCPCMFICEN": 8,
    "bonusList": [],
    "descContentTextMapHash": 1392731683,
    "PIADHCMBELB": "COMMON_CHECK",
    "iconPath": "",
    "HECNJCDCDMJ": 3627445931
  },
  {
    "id": 2011,
    "parentQuestId": 14032,
    "JIFCALNIKEI": 20,
    "BCIMIPIBBJO": 1,
    "JKCPCMFICEN": 6,
    "bonusList": [],
    "OILOBBLAMHF": true,
    "descContentTextMapHash": 2992934859,
    "PIADHCMBELB": "COMMON_CHECK",
    "iconPath": "",
    "HECNJCDCDMJ": 449392371
  },
  {
    "id": 3001,
    "parentQuestId": 14033,
    "JIFCALNIKEI": 20,
    "BCIMIPIBBJO": 10,
    "JKCPCMFICEN": 10,
    "bonusList": [],
    "descContentTextMapHash": 1996572571,
    "PIADHCMBELB": "NPC_DARK_DICE",
    "iconPath": "ART/UI/Atlas/AvatarSideIcon/UI_AvatarIcon_Side_Clorinde",
    "HECNJCDCDMJ": 672620651
  },
  {
    "id": 3002,
    "parentQuestId": 14033,
    "JIFCALNIKEI": 20,
    "BCIMIPIBBJO": 10,
    "JKCPCMFICEN": 10,
    "bonusList": [],
    "descContentTextMapHash": 432972291,
    "PIADHCMBELB": "NPC_DARK_DICE",
    "iconPath": "ART/UI/Atlas/AvatarSideIcon/UI_AvatarIcon_Side_Clorinde",
    "HECNJCDCDMJ": 620799851
  },
  {
    "id": 3003,
    "parentQuestId": 14033,
    "JIFCALNIKEI": 20,
    "BCIMIPIBBJO": 8,
    "JKCPCMFICEN": 8,
    "bonusList": [],
    "descContentTextMapHash": 1762532643,
    "PIADHCMBELB": "NPC_CHECK",
    "iconPath": "ART/UI/Atlas/AvatarSideIcon/UI_AvatarIcon_Side_Navia",
    "HECNJCDCDMJ": 4067946979
  }
]