[
  {
    "galleryID": 66002,
    "LOHMJPIMKDA": 20260101,
    "levelDescTextMapHash": 4092300469,
    "EICNFNNOOIH": 133404344,
    "JFCHCGAKPDA": 212100201,
    "levelID": 1,
    "activityID": 2026,
    "nameTextMapHash": 3412200294,
    "questList": [
      40128
    ],
    "IOLJJIINAFC": [],
    "watcherList": [
      12026101
    ],
    "openDay": 1,
    "LBGLFCIGLDE": [
      "ACTIVITY_LEVEL_COND_TYPE_MAIN_QUEST"
    ],
    "MOOLHLOIFGJ": [
      "ACTIVITY_LEVEL_COND_TYPE_OPEN_DAY"
    ],
    "OOABMKBBPAF": [
      "ACTIVITY_LEVEL_COND_TYPE_WATCHER_REWARD_TAKEN"
    ]
  },
  {
    "galleryID": 66003,
    "LOHMJPIMKDA": 20260102,
    "levelDescTextMapHash": 3376491565,
    "EICNFNNOOIH": 133408359,
    "JFCHCGAKPDA": 212100201,
    "levelID": 2,
    "activityID": 2026,
    "nameTextMapHash": 2685452046,
    "questList": [
      40128
    ],
    "IOLJJIINAFC": [],
    "watcherList": [
      12026102
    ],
    "openDay": 2,
    "LBGLFCIGLDE": [
      "ACTIVITY_LEVEL_COND_TYPE_MAIN_QUEST"
    ],
    "MOOLHLOIFGJ": [
      "ACTIVITY_LEVEL_COND_TYPE_OPEN_DAY"
    ],
    "OOABMKBBPAF": [
      "ACTIVITY_LEVEL_COND_TYPE_WATCHER_REWARD_TAKEN"
    ]
  },
  {
    "galleryID": 66004,
    "LOHMJPIMKDA": 20260103,
    "levelDescTextMapHash": 617521501,
    "EICNFNNOOIH": 133401516,
    "JFCHCGAKPDA": 212100201,
    "levelID": 3,
    "activityID": 2026,
    "nameTextMapHash": 2231922070,
    "questList": [
      40128
    ],
    "IOLJJIINAFC": [],
    "watcherList": [
      12026103
    ],
    "openDay": 3,
    "LBGLFCIGLDE": [
      "ACTIVITY_LEVEL_COND_TYPE_MAIN_QUEST"
    ],
    "MOOLHLOIFGJ": [
      "ACTIVITY_LEVEL_COND_TYPE_OPEN_DAY"
    ],
    "OOABMKBBPAF": [
      "ACTIVITY_LEVEL_COND_TYPE_WATCHER_REWARD_TAKEN"
    ]
  },
  {
    "galleryID": 66001,
    "LOHMJPIMKDA": 20260104,
    "levelDescTextMapHash": 570170821,
    "EICNFNNOOIH": 133412029,
    "JFCHCGAKPDA": 212100206,
    "LAINHNBDOOM": true,
    "levelID": 4,
    "activityID": 2026,
    "nameTextMapHash": 1217760694,
    "questList": [],
    "IOLJJIINAFC": [],
    "watcherList": [],
    "LBGLFCIGLDE": [
      "ACTIVITY_LEVEL_COND_TYPE_DEFAULT"
    ],
    "MOOLHLOIFGJ": [
      "ACTIVITY_LEVEL_COND_TYPE_DEFAULT"
    ],
    "OOABMKBBPAF": [
      "ACTIVITY_LEVEL_COND_TYPE_DEFAULT"
    ]
  }
]