[
  {
    "pushTipsID": 13205,
    "MEIHHBEPOEB": 13201,
    "levelDescTextMapHash": 1423193066,
    "FGEFNNEKIHD": 3688771296,
    "DDMMNAJHDFP": 10,
    "LHKHLHHAEIP": [
      1239873832,
      3136443401
    ],
    "IJCHKPHKEOJ": [
      16097277522901232897,
      0
    ],
    "DIDBPPOOFPI": 5,
    "levelID": 1,
    "activityID": 2026,
    "nameTextMapHash": 3066731226,
    "questList": [
      40128
    ],
    "IOLJJIINAFC": [],
    "watcherList": [
      12026201
    ],
    "openDay": 1,
    "LBGLFCIGLDE": [
      "ACTIVITY_LEVEL_COND_TYPE_MAIN_QUEST"
    ],
    "MOOLHLOIFGJ": [
      "ACTIVITY_LEVEL_COND_TYPE_OPEN_DAY",
      "ACTIVITY_LEVEL_COND_TYPE_DEFAULT"
    ],
    "OOABMKBBPAF": [
      "ACTIVITY_LEVEL_COND_TYPE_WATCHER_REWARD_TAKEN"
    ]
  },
  {
    "pushTipsID": 13206,
    "MEIHHBEPOEB": 13202,
    "levelDescTextMapHash": 3098724714,
    "FGEFNNEKIHD": 3251597304,
    "DDMMNAJHDFP": 15,
    "LHKHLHHAEIP": [
      1597372840,
      2172804353
    ],
    "IJCHKPHKEOJ": [
      16097277522901232897,
      9459231202314654734
    ],
    "DIDBPPOOFPI": 5,
    "levelID": 2,
    "activityID": 2026,
    "nameTextMapHash": 3957713034,
    "questList": [
      40128
    ],
    "IOLJJIINAFC": [],
    "watcherList": [
      12026202
    ],
    "openDay": 1,
    "LBGLFCIGLDE": [
      "ACTIVITY_LEVEL_COND_TYPE_MAIN_QUEST"
    ],
    "MOOLHLOIFGJ": [
      "ACTIVITY_LEVEL_COND_TYPE_OPEN_DAY",
      "ACTIVITY_LEVEL_COND_TYPE_PRE_LEVEL_PLAYED"
    ],
    "OOABMKBBPAF": [
      "ACTIVITY_LEVEL_COND_TYPE_WATCHER_REWARD_TAKEN"
    ]
  },
  {
    "pushTipsID": 13206,
    "levelDescTextMapHash": 3919955226,
    "FGEFNNEKIHD": 2845094792,
    "DDMMNAJHDFP": 15,
    "LHKHLHHAEIP": [
      3365123184,
      311249233
    ],
    "IJCHKPHKEOJ": [
      16097277522901232897,
      9459231202314654734
    ],
    "DIDBPPOOFPI": 5,
    "levelID": 3,
    "activityID": 2026,
    "nameTextMapHash": 19653746,
    "questList": [
      40128
    ],
    "IOLJJIINAFC": [
      1,
      2
    ],
    "watcherList": [
      12026203
    ],
    "openDay": 2,
    "LBGLFCIGLDE": [
      "ACTIVITY_LEVEL_COND_TYPE_MAIN_QUEST"
    ],
    "MOOLHLOIFGJ": [
      "ACTIVITY_LEVEL_COND_TYPE_OPEN_DAY",
      "ACTIVITY_LEVEL_COND_TYPE_PRE_LEVEL_PLAYED"
    ],
    "OOABMKBBPAF": [
      "ACTIVITY_LEVEL_COND_TYPE_WATCHER_REWARD_TAKEN"
    ]
  },
  {
    "pushTipsID": 13225,
    "MEIHHBEPOEB": 13224,
    "levelDescTextMapHash": 1564401994,
    "FGEFNNEKIHD": 2130113504,
    "DDMMNAJHDFP": 15,
    "LHKHLHHAEIP": [
      939151896,
      1134381169
    ],
    "IJCHKPHKEOJ": [
      16097277522901232897,
      9459231202314654734
    ],
    "DIDBPPOOFPI": 5,
    "levelID": 4,
    "activityID": 2026,
    "nameTextMapHash": 3674560442,
    "questList": [
      40128
    ],
    "IOLJJIINAFC": [
      1,
      2
    ],
    "watcherList": [
      12026204
    ],
    "openDay": 2,
    "LBGLFCIGLDE": [
      "ACTIVITY_LEVEL_COND_TYPE_MAIN_QUEST"
    ],
    "MOOLHLOIFGJ": [
      "ACTIVITY_LEVEL_COND_TYPE_OPEN_DAY",
      "ACTIVITY_LEVEL_COND_TYPE_PRE_LEVEL_PLAYED"
    ],
    "OOABMKBBPAF": [
      "ACTIVITY_LEVEL_COND_TYPE_WATCHER_REWARD_TAKEN"
    ]
  },
  {
    "pushTipsID": 13207,
    "MEIHHBEPOEB": 13203,
    "levelDescTextMapHash": 1497828506,
    "FGEFNNEKIHD": 734125520,
    "DDMMNAJHDFP": 15,
    "LHKHLHHAEIP": [
      3901333416,
      3331697297
    ],
    "IJCHKPHKEOJ": [
      6262489584781997192,
      9459231202314654734
    ],
    "DIDBPPOOFPI": 5,
    "levelID": 5,
    "activityID": 2026,
    "nameTextMapHash": 1938913778,
    "questList": [
      40128
    ],
    "IOLJJIINAFC": [
      3,
      4
    ],
    "watcherList": [
      12026205
    ],
    "openDay": 3,
    "LBGLFCIGLDE": [
      "ACTIVITY_LEVEL_COND_TYPE_MAIN_QUEST"
    ],
    "MOOLHLOIFGJ": [
      "ACTIVITY_LEVEL_COND_TYPE_OPEN_DAY",
      "ACTIVITY_LEVEL_COND_TYPE_PRE_LEVEL_PLAYED"
    ],
    "OOABMKBBPAF": [
      "ACTIVITY_LEVEL_COND_TYPE_WATCHER_REWARD_TAKEN"
    ]
  },
  {
    "pushTipsID": 13207,
    "levelDescTextMapHash": 906310050,
    "FGEFNNEKIHD": 1694131576,
    "DDMMNAJHDFP": 15,
    "LHKHLHHAEIP": [
      229513480,
      4294951897
    ],
    "IJCHKPHKEOJ": [
      6262489584781997192,
      9459231202314654734
    ],
    "DIDBPPOOFPI": 5,
    "levelID": 6,
    "activityID": 2026,
    "nameTextMapHash": 288302690,
    "questList": [
      40128
    ],
    "IOLJJIINAFC": [
      3,
      4
    ],
    "watcherList": [
      12026206
    ],
    "openDay": 3,
    "LBGLFCIGLDE": [
      "ACTIVITY_LEVEL_COND_TYPE_MAIN_QUEST"
    ],
    "MOOLHLOIFGJ": [
      "ACTIVITY_LEVEL_COND_TYPE_OPEN_DAY",
      "ACTIVITY_LEVEL_COND_TYPE_PRE_LEVEL_PLAYED"
    ],
    "OOABMKBBPAF": [
      "ACTIVITY_LEVEL_COND_TYPE_WATCHER_REWARD_TAKEN"
    ]
  },
  {
    "pushTipsID": 13207,
    "levelDescTextMapHash": 748055178,
    "FGEFNNEKIHD": 440330208,
    "DDMMNAJHDFP": 15,
    "LHKHLHHAEIP": [
      324710864,
      3365884073
    ],
    "IJCHKPHKEOJ": [
      6262489584781997192,
      9459231202314654734
    ],
    "DIDBPPOOFPI": 5,
    "levelID": 7,
    "activityID": 2026,
    "nameTextMapHash": 591856410,
    "questList": [
      40128
    ],
    "IOLJJIINAFC": [
      5,
      6
    ],
    "watcherList": [
      12026207
    ],
    "openDay": 4,
    "LBGLFCIGLDE": [
      "ACTIVITY_LEVEL_COND_TYPE_MAIN_QUEST"
    ],
    "MOOLHLOIFGJ": [
      "ACTIVITY_LEVEL_COND_TYPE_OPEN_DAY",
      "ACTIVITY_LEVEL_COND_TYPE_PRE_LEVEL_PLAYED"
    ],
    "OOABMKBBPAF": [
      "ACTIVITY_LEVEL_COND_TYPE_WATCHER_REWARD_TAKEN"
    ]
  },
  {
    "pushTipsID": 13207,
    "levelDescTextMapHash": 247809506,
    "FGEFNNEKIHD": 997952240,
    "DDMMNAJHDFP": 20,
    "LHKHLHHAEIP": [
      3476873240,
      4248961249
    ],
    "IJCHKPHKEOJ": [
      6262489584781997192,
      9459231202314654734
    ],
    "DIDBPPOOFPI": 5,
    "levelID": 8,
    "activityID": 2026,
    "nameTextMapHash": 2287615658,
    "questList": [
      40128
    ],
    "IOLJJIINAFC": [
      5,
      6
    ],
    "watcherList": [
      12026208
    ],
    "openDay": 4,
    "LBGLFCIGLDE": [
      "ACTIVITY_LEVEL_COND_TYPE_MAIN_QUEST"
    ],
    "MOOLHLOIFGJ": [
      "ACTIVITY_LEVEL_COND_TYPE_OPEN_DAY",
      "ACTIVITY_LEVEL_COND_TYPE_PRE_LEVEL_PLAYED"
    ],
    "OOABMKBBPAF": [
      "ACTIVITY_LEVEL_COND_TYPE_WATCHER_REWARD_TAKEN"
    ]
  },
  {
    "pushTipsID": 13204,
    "MEIHHBEPOEB": 13204,
    "levelDescTextMapHash": 54382602,
    "FGEFNNEKIHD": 315876808,
    "DDMMNAJHDFP": 8,
    "LHKHLHHAEIP": [
      2699010432,
      1595623841
    ],
    "IJCHKPHKEOJ": [
      0,
      0
    ],
    "DIDBPPOOFPI": 2,
    "LAINHNBDOOM": true,
    "levelID": 9,
    "activityID": 2026,
    "nameTextMapHash": 3394152842,
    "questList": [],
    "IOLJJIINAFC": [],
    "watcherList": [],
    "LBGLFCIGLDE": [
      "ACTIVITY_LEVEL_COND_TYPE_DEFAULT"
    ],
    "MOOLHLOIFGJ": [
      "ACTIVITY_LEVEL_COND_TYPE_DEFAULT",
      "ACTIVITY_LEVEL_COND_TYPE_DEFAULT"
    ],
    "OOABMKBBPAF": [
      "ACTIVITY_LEVEL_COND_TYPE_DEFAULT"
    ]
  }
]