[
  {
    "OJOJGKGIMMA": 1,
    "scoreRatio": 1,
    "descTextMapHash": 1774601661
  },
  {
    "OJOJGKGIMMA": 2,
    "scoreRatio": 2,
    "descTextMapHash": 1018699085
  },
  {
    "OJOJGKGIMMA": 3,
    "scoreRatio": 4,
    "descTextMapHash": 26542029
  }
]