[
  {
    "type": "Burning",
    "minDurability": 100,
    "maxDurability": 150,
    "costRatio": 0.01,
    "configID": 2017,
    "poolSize": 4,
    "poolRevivePeriod": 30,
    "poolReviveEnergy": 4,
    "isPersistent": true,
    "costPeriod": 3,
    "dropProb": 63
  },
  {
    "type": "Freeze",
    "minDurability": 80,
    "maxDurability": 120,
    "costRatio": 0.01,
    "configID": 2022,
    "poolSize": 4,
    "poolRevivePeriod": 30,
    "poolReviveEnergy": 4,
    "dropProb": 50
  }
]