[
  {
    "levelDescTextMapHash": 1721693337,
    "dungeonId": 9121,
    "HKHLAOMJCMI": [
      1,
      2,
      3
    ],
    "HBHCHDCKKOE": [
      1,
      2,
      3,
      4,
      14
    ],
    "KEDKINMJCEH": [
      5,
      6,
      7,
      8,
      9
    ],
    "FLNKAMFANFG": [
      10,
      11,
      12,
      13
    ],
    "BHLFGEEEEMC": 1,
    "MOLODIHJCMB": 52021,
    "DIHIFADHJEM": [
      1
    ],
    "medalScoreList": [
      500,
      2000,
      5000
    ],
    "levelID": 1,
    "activityID": 5202,
    "nameTextMapHash": 1563460270,
    "questList": [],
    "IOLJJIINAFC": [],
    "watcherList": [
      15202001,
      15202002,
      15202003
    ],
    "openDay": 1,
    "LBGLFCIGLDE": [
      "ACTIVITY_LEVEL_COND_TYPE_DEFAULT"
    ],
    "MOOLHLOIFGJ": [
      "ACTIVITY_LEVEL_COND_TYPE_OPEN_DAY"
    ],
    "OOABMKBBPAF": [
      "ACTIVITY_LEVEL_COND_TYPE_WATCHER_REWARD_TAKEN"
    ]
  },
  {
    "levelDescTextMapHash": 3060877705,
    "dungeonId": 9122,
    "HKHLAOMJCMI": [
      4,
      5,
      6
    ],
    "HBHCHDCKKOE": [
      1,
      2,
      3,
      4,
      14
    ],
    "KEDKINMJCEH": [
      5,
      6,
      7,
      8,
      9
    ],
    "FLNKAMFANFG": [
      10,
      11,
      12,
      13
    ],
    "BHLFGEEEEMC": 2,
    "MOLODIHJCMB": 52022,
    "DIHIFADHJEM": [
      2
    ],
    "medalScoreList": [
      500,
      2000,
      5000
    ],
    "levelID": 2,
    "activityID": 5202,
    "nameTextMapHash": 3387808382,
    "questList": [],
    "IOLJJIINAFC": [],
    "watcherList": [
      15202004,
      15202005,
      15202006
    ],
    "openDay": 2,
    "LBGLFCIGLDE": [
      "ACTIVITY_LEVEL_COND_TYPE_DEFAULT"
    ],
    "MOOLHLOIFGJ": [
      "ACTIVITY_LEVEL_COND_TYPE_OPEN_DAY"
    ],
    "OOABMKBBPAF": [
      "ACTIVITY_LEVEL_COND_TYPE_WATCHER_REWARD_TAKEN"
    ]
  },
  {
    "levelDescTextMapHash": 3745108953,
    "dungeonId": 9123,
    "HKHLAOMJCMI": [
      7,
      8,
      9
    ],
    "HBHCHDCKKOE": [
      1,
      2,
      3,
      4,
      14
    ],
    "KEDKINMJCEH": [
      5,
      6,
      7,
      8,
      9
    ],
    "FLNKAMFANFG": [
      10,
      11,
      12,
      13
    ],
    "BHLFGEEEEMC": 3,
    "MOLODIHJCMB": 52023,
    "DIHIFADHJEM": [
      3
    ],
    "medalScoreList": [
      500,
      2000,
      5000
    ],
    "levelID": 3,
    "activityID": 5202,
    "nameTextMapHash": 3252245446,
    "questList": [],
    "IOLJJIINAFC": [],
    "watcherList": [
      15202007,
      15202008,
      15202009
    ],
    "openDay": 3,
    "LBGLFCIGLDE": [
      "ACTIVITY_LEVEL_COND_TYPE_DEFAULT"
    ],
    "MOOLHLOIFGJ": [
      "ACTIVITY_LEVEL_COND_TYPE_OPEN_DAY"
    ],
    "OOABMKBBPAF": [
      "ACTIVITY_LEVEL_COND_TYPE_WATCHER_REWARD_TAKEN"
    ]
  },
  {
    "levelDescTextMapHash": 3176631249,
    "dungeonId": 9124,
    "HKHLAOMJCMI": [
      10,
      11,
      12
    ],
    "HBHCHDCKKOE": [
      1,
      2,
      3,
      4,
      14
    ],
    "KEDKINMJCEH": [
      5,
      6,
      7,
      8,
      9
    ],
    "FLNKAMFANFG": [
      10,
      11,
      12,
      13
    ],
    "BHLFGEEEEMC": 4,
    "MOLODIHJCMB": 52024,
    "DIHIFADHJEM": [
      4
    ],
    "medalScoreList": [
      500,
      2000,
      5000
    ],
    "levelID": 4,
    "activityID": 5202,
    "nameTextMapHash": 4268456982,
    "questList": [],
    "IOLJJIINAFC": [],
    "watcherList": [
      15202010,
      15202011,
      15202012
    ],
    "openDay": 4,
    "LBGLFCIGLDE": [
      "ACTIVITY_LEVEL_COND_TYPE_DEFAULT"
    ],
    "MOOLHLOIFGJ": [
      "ACTIVITY_LEVEL_COND_TYPE_OPEN_DAY"
    ],
    "OOABMKBBPAF": [
      "ACTIVITY_LEVEL_COND_TYPE_WATCHER_REWARD_TAKEN"
    ]
  },
  {
    "levelDescTextMapHash": 553076609,
    "dungeonId": 9125,
    "HKHLAOMJCMI": [
      13,
      14,
      15
    ],
    "HBHCHDCKKOE": [
      1,
      2,
      3,
      4,
      14
    ],
    "KEDKINMJCEH": [
      5,
      6,
      7,
      8,
      9
    ],
    "FLNKAMFANFG": [
      10,
      11,
      12,
      13
    ],
    "BHLFGEEEEMC": 5,
    "MOLODIHJCMB": 52025,
    "DIHIFADHJEM": [
      5
    ],
    "medalScoreList": [
      500,
      2000,
      5000
    ],
    "levelID": 5,
    "activityID": 5202,
    "nameTextMapHash": 2916047870,
    "questList": [],
    "IOLJJIINAFC": [],
    "watcherList": [
      15202013,
      15202014,
      15202015
    ],
    "openDay": 5,
    "LBGLFCIGLDE": [
      "ACTIVITY_LEVEL_COND_TYPE_DEFAULT"
    ],
    "MOOLHLOIFGJ": [
      "ACTIVITY_LEVEL_COND_TYPE_OPEN_DAY"
    ],
    "OOABMKBBPAF": [
      "ACTIVITY_LEVEL_COND_TYPE_WATCHER_REWARD_TAKEN"
    ]
  },
  {
    "levelDescTextMapHash": 3599507049,
    "dungeonId": 9126,
    "HKHLAOMJCMI": [
      16,
      17,
      18
    ],
    "HBHCHDCKKOE": [
      1,
      2,
      3,
      4,
      14
    ],
    "KEDKINMJCEH": [
      5,
      6,
      7,
      8,
      9
    ],
    "FLNKAMFANFG": [
      10,
      11,
      12,
      13
    ],
    "BHLFGEEEEMC": 6,
    "MOLODIHJCMB": 52026,
    "DIHIFADHJEM": [
      6
    ],
    "medalScoreList": [
      500,
      2000,
      5000
    ],
    "levelID": 6,
    "activityID": 5202,
    "nameTextMapHash": 4155822374,
    "questList": [],
    "IOLJJIINAFC": [],
    "watcherList": [
      15202016,
      15202017,
      15202018
    ],
    "openDay": 6,
    "LBGLFCIGLDE": [
      "ACTIVITY_LEVEL_COND_TYPE_DEFAULT"
    ],
    "MOOLHLOIFGJ": [
      "ACTIVITY_LEVEL_COND_TYPE_OPEN_DAY"
    ],
    "OOABMKBBPAF": [
      "ACTIVITY_LEVEL_COND_TYPE_WATCHER_REWARD_TAKEN"
    ]
  }
]