[
  {
    "GFAMJEHIPPG": 1000,
    "reminderList": []
  },
  {
    "GFAMJEHIPPG": 1001,
    "reminderList": []
  },
  {
    "GFAMJEHIPPG": 1002,
    "reminderList": [
      1
    ]
  },
  {
    "GFAMJEHIPPG": 1003,
    "reminderList": []
  },
  {
    "GFAMJEHIPPG": 1004,
    "reminderList": [
      2
    ]
  },
  {
    "GFAMJEHIPPG": 1005,
    "reminderList": []
  },
  {
    "GFAMJEHIPPG": 1006,
    "reminderList": []
  },
  {
    "GFAMJEHIPPG": 1007,
    "reminderList": [
      3
    ]
  },
  {
    "GFAMJEHIPPG": 1008,
    "reminderList": [
      4
    ]
  },
  {
    "GFAMJEHIPPG": 2000,
    "reminderList": []
  },
  {
    "GFAMJEHIPPG": 2001,
    "reminderList": []
  },
  {
    "GFAMJEHIPPG": 2002,
    "reminderList": [
      5
    ]
  },
  {
    "GFAMJEHIPPG": 2003,
    "reminderList": []
  },
  {
    "GFAMJEHIPPG": 2004,
    "reminderList": [
      6
    ]
  },
  {
    "GFAMJEHIPPG": 2005,
    "reminderList": []
  },
  {
    "GFAMJEHIPPG": 2006,
    "reminderList": []
  },
  {
    "GFAMJEHIPPG": 2007,
    "reminderList": [
      7
    ]
  },
  {
    "GFAMJEHIPPG": 2008,
    "reminderList": [
      8,
      9
    ]
  },
  {
    "GFAMJEHIPPG": 3000,
    "reminderList": []
  },
  {
    "GFAMJEHIPPG": 3001,
    "reminderList": []
  },
  {
    "GFAMJEHIPPG": 3002,
    "reminderList": [
      10
    ]
  },
  {
    "GFAMJEHIPPG": 3003,
    "reminderList": [
      11
    ]
  },
  {
    "GFAMJEHIPPG": 3004,
    "reminderList": [
      12
    ]
  },
  {
    "GFAMJEHIPPG": 3005,
    "reminderList": []
  },
  {
    "GFAMJEHIPPG": 3006,
    "reminderList": []
  },
  {
    "GFAMJEHIPPG": 3007,
    "reminderList": [
      13
    ]
  },
  {
    "GFAMJEHIPPG": 3008,
    "reminderList": [
      14,
      15,
      16
    ]
  },
  {
    "GFAMJEHIPPG": 4000,
    "reminderList": []
  },
  {
    "GFAMJEHIPPG": 4001,
    "reminderList": []
  },
  {
    "GFAMJEHIPPG": 4002,
    "reminderList": [
      17
    ]
  },
  {
    "GFAMJEHIPPG": 4003,
    "reminderList": [
      11
    ]
  },
  {
    "GFAMJEHIPPG": 4004,
    "reminderList": [
      11
    ]
  },
  {
    "GFAMJEHIPPG": 4005,
    "reminderList": []
  },
  {
    "GFAMJEHIPPG": 4006,
    "reminderList": []
  },
  {
    "GFAMJEHIPPG": 4007,
    "reminderList": [
      11
    ]
  },
  {
    "GFAMJEHIPPG": 4008,
    "reminderList": [
      18,
      19,
      20
    ]
  }
]