[
  {
    "FEMKHLGOEAG": 10001,
    "descTextMapHash": 3629418988,
    "LNCOKDKOJCD": 2566639381,
    "MCOLNICAMAI": 40,
    "HJBFNAKKPOP": 14,
    "jumpType": "REUNION_V2_WP_JUMP_TYPE_HANDBOOK",
    "MJIOMIKHOIM": true,
    "id": 53101,
    "triggerConfig": {
      "triggerType": "TRIGGER_COST_MATERIAL",
      "paramList": [
        "106",
        "",
        ""
      ]
    },
    "progress": 100
  },
  {
    "FEMKHLGOEAG": 10001,
    "descTextMapHash": 1171138916,
    "LNCOKDKOJCD": 3549700157,
    "MCOLNICAMAI": 60,
    "HJBFNAKKPOP": 1,
    "jumpType": "REUNION_V2_WP_JUMP_TYPE_QUEST",
    "id": 53102,
    "triggerConfig": {
      "triggerType": "TRIGGER_REUNION_FINISH_WATCHER",
      "paramList": [
        "2",
        "",
        ""
      ]
    },
    "progress": 1
  },
  {
    "FEMKHLGOEAG": 10001,
    "descTextMapHash": 182147084,
    "LNCOKDKOJCD": 2191489109,
    "MCOLNICAMAI": 30,
    "HJBFNAKKPOP": 18,
    "jumpType": "REUNION_V2_WP_JUMP_TYPE_AREA",
    "id": 53103,
    "triggerConfig": {
      "triggerType": "TRIGGER_REUNION_FINISH_WATCHER",
      "paramList": [
        "1",
        "",
        ""
      ]
    },
    "progress": 1
  },
  {
    "FEMKHLGOEAG": 10001,
    "descTextMapHash": 2094869916,
    "LNCOKDKOJCD": 2165463501,
    "MCOLNICAMAI": 40,
    "HJBFNAKKPOP": 6,
    "jumpType": "REUNION_V2_WP_JUMP_TYPE_AVATAR",
    "id": 53104,
    "triggerConfig": {
      "triggerType": "TRIGGER_REUNION_FINISH_WATCHER",
      "paramList": [
        "3",
        "",
        ""
      ]
    },
    "progress": 1
  }
]