[
  {
    "LMGEBHNCFAA": 10001,
    "descTextMapHash": 1704916690,
    "rewardId": 3006507,
    "EONOHHJGNBC": "REUNION_V2_WATCHER_TYPE_AREA",
    "id": 53001,
    "triggerConfig": {
      "triggerType": "TRIGGER_UNLOCK_ANY_SPECIFIC_AREA",
      "paramList": [
        "3",
        "33,34,35",
        ""
      ]
    },
    "progress": 1
  },
  {
    "LMGEBHNCFAA": 10001,
    "descTextMapHash": 905644378,
    "rewardId": 3006508,
    "EONOHHJGNBC": "REUNION_V2_WATCHER_TYPE_AREA",
    "id": 53002,
    "triggerConfig": {
      "triggerType": "TRIGGER_LEVEL1_AREA_EXPLORE_PERCENT",
      "paramList": [
        "3",
        "33,34,35",
        "15"
      ]
    },
    "progress": 1
  },
  {
    "LMGEBHNCFAA": 10001,
    "descTextMapHash": 2344997634,
    "rewardId": 3006509,
    "EONOHHJGNBC": "REUNION_V2_WATCHER_TYPE_AREA",
    "id": 53003,
    "triggerConfig": {
      "triggerType": "TRIGGER_LEVEL1_AREA_EXPLORE_PERCENT",
      "paramList": [
        "3",
        "33,34,35",
        "30"
      ]
    },
    "progress": 1
  },
  {
    "LMGEBHNCFAA": 10001,
    "descTextMapHash": 3087246066,
    "rewardId": 3006507,
    "EONOHHJGNBC": "REUNION_V2_WATCHER_TYPE_AREA",
    "id": 53004,
    "triggerConfig": {
      "triggerType": "TRIGGER_UNLOCK_ANY_SPECIFIC_AREA",
      "paramList": [
        "3",
        "36,37",
        ""
      ]
    },
    "progress": 1
  },
  {
    "LMGEBHNCFAA": 10001,
    "descTextMapHash": 1503521130,
    "rewardId": 3006508,
    "EONOHHJGNBC": "REUNION_V2_WATCHER_TYPE_AREA",
    "id": 53005,
    "triggerConfig": {
      "triggerType": "TRIGGER_LEVEL1_AREA_EXPLORE_PERCENT",
      "paramList": [
        "3",
        "36,37",
        "15"
      ]
    },
    "progress": 1
  },
  {
    "LMGEBHNCFAA": 10001,
    "descTextMapHash": 37351178,
    "rewardId": 3006509,
    "EONOHHJGNBC": "REUNION_V2_WATCHER_TYPE_AREA",
    "id": 53006,
    "triggerConfig": {
      "triggerType": "TRIGGER_LEVEL1_AREA_EXPLORE_PERCENT",
      "paramList": [
        "3",
        "36,37",
        "30"
      ]
    },
    "progress": 1
  },
  {
    "LMGEBHNCFAA": 10001,
    "descTextMapHash": 713466042,
    "rewardId": 3006510,
    "EONOHHJGNBC": "REUNION_V2_WATCHER_TYPE_QUEST",
    "id": 53007,
    "triggerConfig": {
      "triggerType": "TRIGGER_FINISH_CHAPTER",
      "paramList": [
        "1001",
        "",
        ""
      ]
    },
    "progress": 1
  },
  {
    "LMGEBHNCFAA": 10001,
    "descTextMapHash": 496390522,
    "rewardId": 3006510,
    "EONOHHJGNBC": "REUNION_V2_WATCHER_TYPE_QUEST",
    "id": 53008,
    "triggerConfig": {
      "triggerType": "TRIGGER_FINISH_CHAPTER",
      "paramList": [
        "1002",
        "",
        ""
      ]
    },
    "progress": 1
  },
  {
    "LMGEBHNCFAA": 10001,
    "descTextMapHash": 1784192490,
    "rewardId": 3006510,
    "EONOHHJGNBC": "REUNION_V2_WATCHER_TYPE_QUEST",
    "id": 53009,
    "triggerConfig": {
      "triggerType": "TRIGGER_FINISH_CHAPTER",
      "paramList": [
        "1003",
        "",
        ""
      ]
    },
    "progress": 1
  },
  {
    "LMGEBHNCFAA": 10001,
    "descTextMapHash": 323433738,
    "rewardId": 3006510,
    "EONOHHJGNBC": "REUNION_V2_WATCHER_TYPE_QUEST",
    "id": 53010,
    "triggerConfig": {
      "triggerType": "TRIGGER_FINISH_CHAPTER",
      "paramList": [
        "1101",
        "",
        ""
      ]
    },
    "progress": 1
  },
  {
    "LMGEBHNCFAA": 10001,
    "descTextMapHash": 3128267650,
    "rewardId": 3006510,
    "EONOHHJGNBC": "REUNION_V2_WATCHER_TYPE_QUEST",
    "id": 53011,
    "triggerConfig": {
      "triggerType": "TRIGGER_FINISH_CHAPTER",
      "paramList": [
        "1102",
        "",
        ""
      ]
    },
    "progress": 1
  },
  {
    "LMGEBHNCFAA": 10001,
    "descTextMapHash": 785766162,
    "rewardId": 3006510,
    "EONOHHJGNBC": "REUNION_V2_WATCHER_TYPE_QUEST",
    "id": 53012,
    "triggerConfig": {
      "triggerType": "TRIGGER_FINISH_CHAPTER",
      "paramList": [
        "1103",
        "",
        ""
      ]
    },
    "progress": 1
  },
  {
    "LMGEBHNCFAA": 10001,
    "descTextMapHash": 1350185474,
    "rewardId": 3006510,
    "EONOHHJGNBC": "REUNION_V2_WATCHER_TYPE_QUEST",
    "id": 53013,
    "triggerConfig": {
      "triggerType": "TRIGGER_FINISH_CHAPTER",
      "paramList": [
        "1104",
        "",
        ""
      ]
    },
    "progress": 1
  },
  {
    "LMGEBHNCFAA": 10001,
    "descTextMapHash": 445124458,
    "rewardId": 3006510,
    "EONOHHJGNBC": "REUNION_V2_WATCHER_TYPE_QUEST",
    "id": 53014,
    "triggerConfig": {
      "triggerType": "TRIGGER_FINISH_CHAPTER",
      "paramList": [
        "1201",
        "",
        ""
      ]
    },
    "progress": 1
  },
  {
    "LMGEBHNCFAA": 10001,
    "descTextMapHash": 2714311186,
    "rewardId": 3006510,
    "EONOHHJGNBC": "REUNION_V2_WATCHER_TYPE_QUEST",
    "id": 53015,
    "triggerConfig": {
      "triggerType": "TRIGGER_FINISH_CHAPTER",
      "paramList": [
        "1202",
        "",
        ""
      ]
    },
    "progress": 1
  },
  {
    "LMGEBHNCFAA": 10001,
    "descTextMapHash": 3699832202,
    "rewardId": 3006510,
    "EONOHHJGNBC": "REUNION_V2_WATCHER_TYPE_QUEST",
    "id": 53016,
    "triggerConfig": {
      "triggerType": "TRIGGER_FINISH_CHAPTER",
      "paramList": [
        "1203",
        "",
        ""
      ]
    },
    "progress": 1
  },
  {
    "LMGEBHNCFAA": 10001,
    "descTextMapHash": 994100466,
    "rewardId": 3006510,
    "EONOHHJGNBC": "REUNION_V2_WATCHER_TYPE_QUEST",
    "id": 53017,
    "triggerConfig": {
      "triggerType": "TRIGGER_FINISH_CHAPTER",
      "paramList": [
        "1204",
        "",
        ""
      ]
    },
    "progress": 1
  },
  {
    "LMGEBHNCFAA": 10001,
    "descTextMapHash": 603979066,
    "rewardId": 3006510,
    "EONOHHJGNBC": "REUNION_V2_WATCHER_TYPE_QUEST",
    "id": 53018,
    "triggerConfig": {
      "triggerType": "TRIGGER_FINISH_CHAPTER",
      "paramList": [
        "1206",
        "",
        ""
      ]
    },
    "progress": 1
  },
  {
    "LMGEBHNCFAA": 10001,
    "descTextMapHash": 774684138,
    "rewardId": 3006510,
    "EONOHHJGNBC": "REUNION_V2_WATCHER_TYPE_QUEST",
    "id": 53019,
    "triggerConfig": {
      "triggerType": "TRIGGER_FINISH_CHAPTER",
      "paramList": [
        "1301",
        "",
        ""
      ]
    },
    "progress": 1
  },
  {
    "LMGEBHNCFAA": 10001,
    "descTextMapHash": 880758698,
    "rewardId": 3006510,
    "EONOHHJGNBC": "REUNION_V2_WATCHER_TYPE_QUEST",
    "id": 53020,
    "triggerConfig": {
      "triggerType": "TRIGGER_FINISH_CHAPTER",
      "paramList": [
        "1302",
        "",
        ""
      ]
    },
    "progress": 1
  },
  {
    "LMGEBHNCFAA": 10001,
    "descTextMapHash": 241278170,
    "rewardId": 3006510,
    "EONOHHJGNBC": "REUNION_V2_WATCHER_TYPE_QUEST",
    "id": 53021,
    "triggerConfig": {
      "triggerType": "TRIGGER_FINISH_CHAPTER",
      "paramList": [
        "1303",
        "",
        ""
      ]
    },
    "progress": 1
  },
  {
    "LMGEBHNCFAA": 10001,
    "descTextMapHash": 2157444130,
    "rewardId": 3006510,
    "EONOHHJGNBC": "REUNION_V2_WATCHER_TYPE_QUEST",
    "id": 53022,
    "triggerConfig": {
      "triggerType": "TRIGGER_FINISH_CHAPTER",
      "paramList": [
        "1304",
        "",
        ""
      ]
    },
    "progress": 1
  },
  {
    "LMGEBHNCFAA": 10001,
    "descTextMapHash": 399383954,
    "rewardId": 3006510,
    "EONOHHJGNBC": "REUNION_V2_WATCHER_TYPE_QUEST",
    "id": 53023,
    "triggerConfig": {
      "triggerType": "TRIGGER_FINISH_CHAPTER",
      "paramList": [
        "1305",
        "",
        ""
      ]
    },
    "progress": 1
  },
  {
    "LMGEBHNCFAA": 10001,
    "descTextMapHash": 2046715226,
    "rewardId": 3006510,
    "EONOHHJGNBC": "REUNION_V2_WATCHER_TYPE_QUEST",
    "id": 53024,
    "triggerConfig": {
      "triggerType": "TRIGGER_FINISH_CHAPTER",
      "paramList": [
        "1308",
        "",
        ""
      ]
    },
    "progress": 1
  },
  {
    "LMGEBHNCFAA": 10001,
    "descTextMapHash": 3629753434,
    "rewardId": 3006510,
    "EONOHHJGNBC": "REUNION_V2_WATCHER_TYPE_QUEST",
    "id": 53025,
    "triggerConfig": {
      "triggerType": "TRIGGER_FINISH_CHAPTER",
      "paramList": [
        "1401",
        "",
        ""
      ]
    },
    "progress": 1
  },
  {
    "LMGEBHNCFAA": 10001,
    "descTextMapHash": 1965609722,
    "rewardId": 3006510,
    "EONOHHJGNBC": "REUNION_V2_WATCHER_TYPE_QUEST",
    "id": 53026,
    "triggerConfig": {
      "triggerType": "TRIGGER_FINISH_CHAPTER",
      "paramList": [
        "1402",
        "",
        ""
      ]
    },
    "progress": 1
  },
  {
    "LMGEBHNCFAA": 10001,
    "descTextMapHash": 3758871378,
    "rewardId": 3006510,
    "EONOHHJGNBC": "REUNION_V2_WATCHER_TYPE_QUEST",
    "id": 53027,
    "triggerConfig": {
      "triggerType": "TRIGGER_FINISH_CHAPTER",
      "paramList": [
        "1403",
        "",
        ""
      ]
    },
    "progress": 1
  },
  {
    "LMGEBHNCFAA": 10001,
    "descTextMapHash": 650245634,
    "rewardId": 3006510,
    "EONOHHJGNBC": "REUNION_V2_WATCHER_TYPE_QUEST",
    "id": 53028,
    "triggerConfig": {
      "triggerType": "TRIGGER_FINISH_CHAPTER",
      "paramList": [
        "1404",
        "",
        ""
      ]
    },
    "progress": 1
  },
  {
    "LMGEBHNCFAA": 10001,
    "descTextMapHash": 1816710226,
    "rewardId": 3006510,
    "EONOHHJGNBC": "REUNION_V2_WATCHER_TYPE_QUEST",
    "id": 53029,
    "triggerConfig": {
      "triggerType": "TRIGGER_FINISH_CHAPTER",
      "paramList": [
        "1405",
        "",
        ""
      ]
    },
    "progress": 1
  },
  {
    "LMGEBHNCFAA": 10001,
    "descTextMapHash": 4237264794,
    "rewardId": 3006507,
    "EONOHHJGNBC": "REUNION_V2_WATCHER_TYPE_AREA",
    "id": 53030,
    "triggerConfig": {
      "triggerType": "TRIGGER_UNLOCK_ANY_SPECIFIC_AREA",
      "paramList": [
        "3",
        "38,39",
        ""
      ]
    },
    "progress": 1
  },
  {
    "LMGEBHNCFAA": 10001,
    "descTextMapHash": 1341629722,
    "rewardId": 3006508,
    "EONOHHJGNBC": "REUNION_V2_WATCHER_TYPE_AREA",
    "id": 53031,
    "triggerConfig": {
      "triggerType": "TRIGGER_LEVEL1_AREA_EXPLORE_PERCENT",
      "paramList": [
        "3",
        "38,39",
        "15"
      ]
    },
    "progress": 1
  },
  {
    "LMGEBHNCFAA": 10001,
    "descTextMapHash": 3586645098,
    "rewardId": 3006509,
    "EONOHHJGNBC": "REUNION_V2_WATCHER_TYPE_AREA",
    "id": 53032,
    "triggerConfig": {
      "triggerType": "TRIGGER_LEVEL1_AREA_EXPLORE_PERCENT",
      "paramList": [
        "3",
        "38,39",
        "30"
      ]
    },
    "progress": 1
  },
  {
    "LMGEBHNCFAA": 10001,
    "descTextMapHash": 1077118906,
    "rewardId": 3006507,
    "EONOHHJGNBC": "REUNION_V2_WATCHER_TYPE_AREA",
    "id": 53033,
    "triggerConfig": {
      "triggerType": "TRIGGER_UNLOCK_ANY_SPECIFIC_AREA",
      "paramList": [
        "3",
        "40,41",
        ""
      ]
    },
    "progress": 1
  },
  {
    "LMGEBHNCFAA": 10001,
    "descTextMapHash": 3339274426,
    "rewardId": 3006508,
    "EONOHHJGNBC": "REUNION_V2_WATCHER_TYPE_AREA",
    "id": 53034,
    "triggerConfig": {
      "triggerType": "TRIGGER_LEVEL1_AREA_EXPLORE_PERCENT",
      "paramList": [
        "3",
        "40,41",
        "15"
      ]
    },
    "progress": 1
  },
  {
    "LMGEBHNCFAA": 10001,
    "descTextMapHash": 22790402,
    "rewardId": 3006509,
    "EONOHHJGNBC": "REUNION_V2_WATCHER_TYPE_AREA",
    "id": 53035,
    "triggerConfig": {
      "triggerType": "TRIGGER_LEVEL1_AREA_EXPLORE_PERCENT",
      "paramList": [
        "3",
        "40,41",
        "30"
      ]
    },
    "progress": 1
  },
  {
    "LMGEBHNCFAA": 10001,
    "descTextMapHash": 2947675490,
    "rewardId": 3006507,
    "EONOHHJGNBC": "REUNION_V2_WATCHER_TYPE_AREA",
    "id": 53036,
    "triggerConfig": {
      "triggerType": "TRIGGER_MULTI_SCENE_UNLOCK_ANY_SPECIFIC_AREA",
      "paramList": [
        "42",
        "",
        ""
      ]
    },
    "progress": 1
  },
  {
    "LMGEBHNCFAA": 10001,
    "descTextMapHash": 2455216506,
    "rewardId": 3006508,
    "EONOHHJGNBC": "REUNION_V2_WATCHER_TYPE_AREA",
    "id": 53037,
    "triggerConfig": {
      "triggerType": "TRIGGER_MULTI_SCENE_LEVEL1_AREA_EXPLORE_PERCENT",
      "paramList": [
        "42,600",
        "15",
        ""
      ]
    },
    "progress": 1
  },
  {
    "LMGEBHNCFAA": 10001,
    "descTextMapHash": 924839738,
    "rewardId": 3006509,
    "EONOHHJGNBC": "REUNION_V2_WATCHER_TYPE_AREA",
    "id": 53038,
    "triggerConfig": {
      "triggerType": "TRIGGER_MULTI_SCENE_LEVEL1_AREA_EXPLORE_PERCENT",
      "paramList": [
        "42,600",
        "30",
        ""
      ]
    },
    "progress": 1
  },
  {
    "LMGEBHNCFAA": 10001,
    "descTextMapHash": 2648513698,
    "rewardId": 3006510,
    "EONOHHJGNBC": "REUNION_V2_WATCHER_TYPE_QUEST",
    "id": 53039,
    "triggerConfig": {
      "triggerType": "TRIGGER_FINISH_CHAPTER",
      "paramList": [
        "1406",
        "",
        ""
      ]
    },
    "progress": 1
  },
  {
    "LMGEBHNCFAA": 10002,
    "descTextMapHash": 737393666,
    "rewardId": 3006545,
    "EONOHHJGNBC": "REUNION_V2_WATCHER_TYPE_AVATAR",
    "id": 53040,
    "triggerConfig": {
      "triggerType": "TRIGGER_ANY_AVATAR_UPGRADE_LEVEL",
      "paramList": [
        "",
        "",
        ""
      ]
    },
    "progress": 20
  },
  {
    "LMGEBHNCFAA": 10002,
    "descTextMapHash": 425682266,
    "rewardId": 3006546,
    "EONOHHJGNBC": "REUNION_V2_WATCHER_TYPE_AVATAR",
    "id": 53041,
    "triggerConfig": {
      "triggerType": "TRIGGER_ANY_AVATAR_UPGRADE_LEVEL",
      "paramList": [
        "",
        "",
        ""
      ]
    },
    "progress": 40
  },
  {
    "LMGEBHNCFAA": 10002,
    "descTextMapHash": 931426610,
    "rewardId": 3006547,
    "EONOHHJGNBC": "REUNION_V2_WATCHER_TYPE_AVATAR",
    "id": 53042,
    "triggerConfig": {
      "triggerType": "TRIGGER_ANY_AVATAR_UPGRADE_LEVEL",
      "paramList": [
        "",
        "",
        ""
      ]
    },
    "progress": 60
  },
  {
    "LMGEBHNCFAA": 10002,
    "descTextMapHash": 3926686850,
    "rewardId": 3006548,
    "EONOHHJGNBC": "REUNION_V2_WATCHER_TYPE_AVATAR",
    "id": 53043,
    "triggerConfig": {
      "triggerType": "TRIGGER_ANY_WEAPON_UPGRADE_LEVEL",
      "paramList": [
        "",
        "",
        ""
      ]
    },
    "progress": 20
  },
  {
    "LMGEBHNCFAA": 10002,
    "descTextMapHash": 2150893018,
    "rewardId": 3006549,
    "EONOHHJGNBC": "REUNION_V2_WATCHER_TYPE_AVATAR",
    "id": 53044,
    "triggerConfig": {
      "triggerType": "TRIGGER_ANY_WEAPON_UPGRADE_LEVEL",
      "paramList": [
        "",
        "",
        ""
      ]
    },
    "progress": 40
  },
  {
    "LMGEBHNCFAA": 10002,
    "descTextMapHash": 782062618,
    "rewardId": 3006550,
    "EONOHHJGNBC": "REUNION_V2_WATCHER_TYPE_AVATAR",
    "id": 53045,
    "triggerConfig": {
      "triggerType": "TRIGGER_ANY_WEAPON_UPGRADE_LEVEL",
      "paramList": [
        "",
        "",
        ""
      ]
    },
    "progress": 60
  },
  {
    "LMGEBHNCFAA": 10002,
    "descTextMapHash": 1894150594,
    "rewardId": 3006527,
    "EONOHHJGNBC": "REUNION_V2_WATCHER_TYPE_AREA",
    "id": 53046,
    "triggerConfig": {
      "triggerType": "TRIGGER_UNLOCK_ANY_SPECIFIC_AREA",
      "paramList": [
        "3",
        "40,41",
        ""
      ]
    },
    "progress": 1
  },
  {
    "LMGEBHNCFAA": 10002,
    "descTextMapHash": 783279466,
    "rewardId": 3006528,
    "EONOHHJGNBC": "REUNION_V2_WATCHER_TYPE_AREA",
    "id": 53047,
    "triggerConfig": {
      "triggerType": "TRIGGER_LEVEL1_AREA_EXPLORE_PERCENT",
      "paramList": [
        "3",
        "40,41",
        "10"
      ]
    },
    "progress": 1
  },
  {
    "LMGEBHNCFAA": 10002,
    "descTextMapHash": 2708302890,
    "rewardId": 3006529,
    "EONOHHJGNBC": "REUNION_V2_WATCHER_TYPE_AREA",
    "id": 53048,
    "triggerConfig": {
      "triggerType": "TRIGGER_LEVEL1_AREA_EXPLORE_PERCENT",
      "paramList": [
        "3",
        "40,41",
        "20"
      ]
    },
    "progress": 1
  },
  {
    "LMGEBHNCFAA": 10002,
    "descTextMapHash": 4096367026,
    "rewardId": 3006530,
    "EONOHHJGNBC": "REUNION_V2_WATCHER_TYPE_AREA",
    "id": 53049,
    "triggerConfig": {
      "triggerType": "TRIGGER_LEVEL1_AREA_EXPLORE_PERCENT",
      "paramList": [
        "3",
        "40,41",
        "30"
      ]
    },
    "progress": 1
  },
  {
    "LMGEBHNCFAA": 10002,
    "descTextMapHash": 4169639586,
    "rewardId": 3006531,
    "EONOHHJGNBC": "REUNION_V2_WATCHER_TYPE_AREA",
    "id": 53050,
    "triggerConfig": {
      "triggerType": "TRIGGER_LEVEL1_AREA_EXPLORE_PERCENT",
      "paramList": [
        "3",
        "40,41",
        "40"
      ]
    },
    "progress": 1
  },
  {
    "LMGEBHNCFAA": 10002,
    "descTextMapHash": 3195732290,
    "rewardId": 3006532,
    "EONOHHJGNBC": "REUNION_V2_WATCHER_TYPE_AREA",
    "id": 53051,
    "triggerConfig": {
      "triggerType": "TRIGGER_LEVEL1_AREA_EXPLORE_PERCENT",
      "paramList": [
        "3",
        "40,41",
        "50"
      ]
    },
    "progress": 1
  },
  {
    "LMGEBHNCFAA": 10002,
    "descTextMapHash": 1456454842,
    "rewardId": 3006533,
    "EONOHHJGNBC": "REUNION_V2_WATCHER_TYPE_AREA",
    "id": 53052,
    "triggerConfig": {
      "triggerType": "TRIGGER_MULTI_SCENE_UNLOCK_ANY_SPECIFIC_AREA",
      "paramList": [
        "42",
        "",
        ""
      ]
    },
    "progress": 1
  },
  {
    "LMGEBHNCFAA": 10002,
    "descTextMapHash": 445330018,
    "rewardId": 3006534,
    "EONOHHJGNBC": "REUNION_V2_WATCHER_TYPE_AREA",
    "id": 53053,
    "triggerConfig": {
      "triggerType": "TRIGGER_MULTI_SCENE_LEVEL1_AREA_EXPLORE_PERCENT",
      "paramList": [
        "42,600",
        "10",
        ""
      ]
    },
    "progress": 1
  },
  {
    "LMGEBHNCFAA": 10002,
    "descTextMapHash": 4284291738,
    "rewardId": 3006535,
    "EONOHHJGNBC": "REUNION_V2_WATCHER_TYPE_AREA",
    "id": 53054,
    "triggerConfig": {
      "triggerType": "TRIGGER_MULTI_SCENE_LEVEL1_AREA_EXPLORE_PERCENT",
      "paramList": [
        "42,600",
        "20",
        ""
      ]
    },
    "progress": 1
  },
  {
    "LMGEBHNCFAA": 10002,
    "descTextMapHash": 2353490794,
    "rewardId": 3006536,
    "EONOHHJGNBC": "REUNION_V2_WATCHER_TYPE_AREA",
    "id": 53055,
    "triggerConfig": {
      "triggerType": "TRIGGER_MULTI_SCENE_LEVEL1_AREA_EXPLORE_PERCENT",
      "paramList": [
        "42,600",
        "30",
        ""
      ]
    },
    "progress": 1
  },
  {
    "LMGEBHNCFAA": 10002,
    "descTextMapHash": 621372538,
    "rewardId": 3006537,
    "EONOHHJGNBC": "REUNION_V2_WATCHER_TYPE_AREA",
    "id": 53056,
    "triggerConfig": {
      "triggerType": "TRIGGER_MULTI_SCENE_LEVEL1_AREA_EXPLORE_PERCENT",
      "paramList": [
        "42,600",
        "40",
        ""
      ]
    },
    "progress": 1
  },
  {
    "LMGEBHNCFAA": 10002,
    "descTextMapHash": 2654996802,
    "rewardId": 3006538,
    "EONOHHJGNBC": "REUNION_V2_WATCHER_TYPE_AREA",
    "id": 53057,
    "triggerConfig": {
      "triggerType": "TRIGGER_MULTI_SCENE_LEVEL1_AREA_EXPLORE_PERCENT",
      "paramList": [
        "42,600",
        "50",
        ""
      ]
    },
    "progress": 1
  },
  {
    "LMGEBHNCFAA": 10002,
    "descTextMapHash": 3631996066,
    "rewardId": 3006539,
    "EONOHHJGNBC": "REUNION_V2_WATCHER_TYPE_AREA",
    "id": 53058,
    "triggerConfig": {
      "triggerType": "TRIGGER_MULTI_SCENE_UNLOCK_ANY_SPECIFIC_AREA",
      "paramList": [
        "43,44,45,46",
        "",
        ""
      ]
    },
    "progress": 1
  },
  {
    "LMGEBHNCFAA": 10002,
    "descTextMapHash": 4175228874,
    "rewardId": 3006540,
    "EONOHHJGNBC": "REUNION_V2_WATCHER_TYPE_AREA",
    "id": 53059,
    "triggerConfig": {
      "triggerType": "TRIGGER_MULTI_SCENE_LEVEL1_AREA_EXPLORE_PERCENT",
      "paramList": [
        "43,44,45,46",
        "10",
        ""
      ]
    },
    "progress": 1
  },
  {
    "LMGEBHNCFAA": 10002,
    "descTextMapHash": 4198875162,
    "rewardId": 3006541,
    "EONOHHJGNBC": "REUNION_V2_WATCHER_TYPE_AREA",
    "id": 53060,
    "triggerConfig": {
      "triggerType": "TRIGGER_MULTI_SCENE_LEVEL1_AREA_EXPLORE_PERCENT",
      "paramList": [
        "43,44,45,46",
        "20",
        ""
      ]
    },
    "progress": 1
  },
  {
    "LMGEBHNCFAA": 10002,
    "descTextMapHash": 1988195962,
    "rewardId": 3006542,
    "EONOHHJGNBC": "REUNION_V2_WATCHER_TYPE_AREA",
    "id": 53061,
    "triggerConfig": {
      "triggerType": "TRIGGER_MULTI_SCENE_LEVEL1_AREA_EXPLORE_PERCENT",
      "paramList": [
        "43,44,45,46",
        "30",
        ""
      ]
    },
    "progress": 1
  },
  {
    "LMGEBHNCFAA": 10002,
    "descTextMapHash": 274569354,
    "rewardId": 3006543,
    "EONOHHJGNBC": "REUNION_V2_WATCHER_TYPE_AREA",
    "id": 53062,
    "triggerConfig": {
      "triggerType": "TRIGGER_MULTI_SCENE_LEVEL1_AREA_EXPLORE_PERCENT",
      "paramList": [
        "43,44,45,46",
        "40",
        ""
      ]
    },
    "progress": 1
  },
  {
    "LMGEBHNCFAA": 10002,
    "descTextMapHash": 1044769082,
    "rewardId": 3006544,
    "EONOHHJGNBC": "REUNION_V2_WATCHER_TYPE_AREA",
    "id": 53063,
    "triggerConfig": {
      "triggerType": "TRIGGER_MULTI_SCENE_LEVEL1_AREA_EXPLORE_PERCENT",
      "paramList": [
        "43,44,45,46",
        "50",
        ""
      ]
    },
    "progress": 1
  },
  {
    "LMGEBHNCFAA": 10002,
    "descTextMapHash": 3694499850,
    "rewardId": 3006551,
    "EONOHHJGNBC": "REUNION_V2_WATCHER_TYPE_QUEST",
    "id": 53064,
    "triggerConfig": {
      "triggerType": "TRIGGER_FINISH_CHAPTER",
      "paramList": [
        "1500",
        "",
        ""
      ]
    },
    "progress": 1
  }
]