[
  {
    "id": 1,
    "levelNameTextMapHash": 3688303244,
    "levelDescTextMapHash": 984452511,
    "DBFLLGKMHPJ": [
      "",
      "",
      ""
    ]
  },
  {
    "id": 2,
    "levelNameTextMapHash": 2625351164,
    "levelDescTextMapHash": 21235975,
    "DBFLLGKMHPJ": [
      "",
      "",
      ""
    ]
  },
  {
    "id": 3,
    "levelType": "PROTECT",
    "levelNameTextMapHash": 3855002956,
    "levelDescTextMapHash": 1596631071,
    "DBFLLGKMHPJ": [
      "",
      "",
      ""
    ]
  },
  {
    "id": 4,
    "levelType": "PROTECT",
    "levelNameTextMapHash": 421204628,
    "levelDescTextMapHash": 2618772535,
    "DBFLLGKMHPJ": [
      "",
      "",
      ""
    ]
  },
  {
    "id": 5,
    "levelType": "BOSS",
    "levelNameTextMapHash": 1148758620,
    "levelDescTextMapHash": 461370815,
    "DBFLLGKMHPJ": [
      "",
      "",
      ""
    ]
  },
  {
    "id": 6,
    "levelType": "SPECIAL",
    "levelNameTextMapHash": 3036878748,
    "levelDescTextMapHash": 4149599591,
    "DBFLLGKMHPJ": [
      "90",
      "",
      ""
    ]
  },
  {
    "id": 7,
    "levelType": "PROTECT",
    "levelNameTextMapHash": 3428897468,
    "levelDescTextMapHash": 4008920911,
    "DBFLLGKMHPJ": [
      "",
      "",
      ""
    ]
  },
  {
    "id": 8,
    "levelType": "PROTECT",
    "levelNameTextMapHash": 3397824788,
    "levelDescTextMapHash": 569283015,
    "DBFLLGKMHPJ": [
      "",
      "",
      ""
    ]
  },
  {
    "id": 9,
    "levelNameTextMapHash": 1509426956,
    "levelDescTextMapHash": 2332426423,
    "DBFLLGKMHPJ": [
      "",
      "",
      ""
    ]
  },
  {
    "id": 10,
    "levelNameTextMapHash": 3327937444,
    "levelDescTextMapHash": 2572170263,
    "DBFLLGKMHPJ": [
      "",
      "",
      ""
    ]
  },
  {
    "id": 11,
    "levelNameTextMapHash": 2804837740,
    "levelDescTextMapHash": 169585023,
    "DBFLLGKMHPJ": [
      "",
      "",
      ""
    ]
  },
  {
    "id": 12,
    "levelNameTextMapHash": 685099940,
    "levelDescTextMapHash": 4049202599,
    "DBFLLGKMHPJ": [
      "",
      "",
      ""
    ]
  }
]