[
  {
    "id": 1,
    "iconName": "UI_RoleCombat_Build_Stream",
    "titleTextMapHash": 2011850259,
    "KBNIKPGHNIE": [
      2,
      3
    ]
  },
  {
    "id": 2,
    "iconName": "UI_RoleCombat_Build_Overgrow",
    "titleTextMapHash": 3365688211,
    "KBNIKPGHNIE": [
      3,
      4
    ]
  },
  {
    "id": 3,
    "iconName": "UI_RoleCombat_Build_Burning",
    "titleTextMapHash": 2171091931,
    "KBNIKPGHNIE": [
      2,
      4
    ]
  },
  {
    "id": 4,
    "iconName": "UI_RoleCombat_Build_CrystallizeFire",
    "titleTextMapHash": 1826754691,
    "KBNIKPGHNIE": [
      2,
      8
    ]
  },
  {
    "id": 5,
    "iconName": "UI_RoleCombat_Build_CrystallizeElectric",
    "titleTextMapHash": 3821726219,
    "KBNIKPGHNIE": [
      5,
      8
    ]
  },
  {
    "id": 6,
    "iconName": "UI_RoleCombat_Build_Explode",
    "titleTextMapHash": 1336059803,
    "KBNIKPGHNIE": [
      2,
      5
    ]
  }
]