[
  {
    "id": 1,
    "LEPDJCLNKLP": true,
    "type": "TIME",
    "descTextMapHash": 4006706794,
    "descParamList": [
      "45",
      "",
      "",
      ""
    ]
  },
  {
    "id": 2,
    "JBAPIBGDBFO": 20,
    "type": "PROTECT_TARGET_HP_REMAIN",
    "descTextMapHash": 1040127618,
    "descParamList": [
      "15",
      "",
      "",
      ""
    ]
  },
  {
    "id": 3,
    "JBAPIBGDBFO": 20,
    "type": "KILL_MONSTER",
    "descTextMapHash": 1876044218,
    "descParamList": [
      "{24010101,24010301}",
      "6",
      "",
      ""
    ]
  },
  {
    "id": 4,
    "JBAPIBGDBFO": 20,
    "type": "KILL_MONSTER_BY_SPECIFIC_ATTACK",
    "descTextMapHash": 3324952578,
    "descParamList": [
      "{1}",
      "2",
      "",
      ""
    ]
  },
  {
    "id": 5,
    "JBAPIBGDBFO": 20,
    "type": "KILL_MONSTER_BY_SPECIFIC_ATTACK",
    "descTextMapHash": 2427675434,
    "descParamList": [
      "{2}",
      "2",
      "",
      ""
    ]
  },
  {
    "id": 6,
    "JBAPIBGDBFO": 20,
    "type": "KILL_MONSTER_BY_SPECIFIC_ATTACK",
    "descTextMapHash": 3907601626,
    "descParamList": [
      "{3}",
      "2",
      "",
      ""
    ]
  },
  {
    "id": 7,
    "JBAPIBGDBFO": 20,
    "type": "KILL_MONSTER_BY_SPECIFIC_ATTACK",
    "descTextMapHash": 4003032650,
    "descParamList": [
      "{4}",
      "1",
      "",
      ""
    ]
  },
  {
    "id": 8,
    "JBAPIBGDBFO": 20,
    "type": "KILL_MONSTER_BY_SPECIFIC_ATTACK",
    "descTextMapHash": 4212258226,
    "descParamList": [
      "{5}",
      "5",
      "",
      ""
    ]
  },
  {
    "id": 9,
    "JBAPIBGDBFO": 20,
    "type": "KILL_MONSTER_IN_SPECIFIC_STATE",
    "descTextMapHash": 677603794,
    "descParamList": [
      "{6}",
      "5",
      "",
      ""
    ]
  },
  {
    "id": 10,
    "JBAPIBGDBFO": 20,
    "type": "KILL_MONSTER_IN_SPECIFIC_STATE",
    "descTextMapHash": 2324998010,
    "descParamList": [
      "{7}",
      "5",
      "",
      ""
    ]
  },
  {
    "id": 11,
    "JBAPIBGDBFO": 20,
    "type": "KILL_MONSTER_IN_SPECIFIC_STATE",
    "descTextMapHash": 3778477786,
    "descParamList": [
      "{8}",
      "5",
      "",
      ""
    ]
  },
  {
    "id": 12,
    "JBAPIBGDBFO": 20,
    "type": "DIE",
    "descTextMapHash": 2426774770,
    "descParamList": [
      "1",
      "",
      "",
      ""
    ]
  },
  {
    "id": 13,
    "JBAPIBGDBFO": 20,
    "type": "TRIGGER_ELEMENT_REACTION",
    "descTextMapHash": 2468881322,
    "descParamList": [
      "{1}",
      "20",
      "",
      ""
    ]
  },
  {
    "id": 14,
    "JBAPIBGDBFO": 20,
    "type": "TRIGGER_ELEMENT_REACTION",
    "descTextMapHash": 1871333474,
    "descParamList": [
      "{2}",
      "20",
      "",
      ""
    ]
  },
  {
    "id": 15,
    "JBAPIBGDBFO": 20,
    "type": "TRIGGER_ELEMENT_REACTION",
    "descTextMapHash": 778049210,
    "descParamList": [
      "{3}",
      "5",
      "",
      ""
    ]
  },
  {
    "id": 16,
    "JBAPIBGDBFO": 20,
    "type": "TRIGGER_ELEMENT_REACTION",
    "descTextMapHash": 3505537274,
    "descParamList": [
      "{4}",
      "20",
      "",
      ""
    ]
  },
  {
    "id": 17,
    "JBAPIBGDBFO": 20,
    "type": "TRIGGER_ELEMENT_REACTION",
    "descTextMapHash": 1256147434,
    "descParamList": [
      "{5}",
      "5",
      "",
      ""
    ]
  },
  {
    "id": 18,
    "JBAPIBGDBFO": 20,
    "type": "TRIGGER_ELEMENT_REACTION",
    "descTextMapHash": 2277925898,
    "descParamList": [
      "{6}",
      "20",
      "",
      ""
    ]
  },
  {
    "id": 19,
    "JBAPIBGDBFO": 20,
    "type": "TRIGGER_ELEMENT_REACTION",
    "descTextMapHash": 396843962,
    "descParamList": [
      "{7}",
      "20",
      "",
      ""
    ]
  },
  {
    "id": 20,
    "JBAPIBGDBFO": 20,
    "type": "TRIGGER_ELEMENT_REACTION",
    "descTextMapHash": 489036322,
    "descParamList": [
      "{8}",
      "20",
      "",
      ""
    ]
  },
  {
    "id": 21,
    "JBAPIBGDBFO": 20,
    "type": "TRIGGER_ELEMENT_REACTION",
    "descTextMapHash": 3069137322,
    "descParamList": [
      "{9}",
      "20",
      "",
      ""
    ]
  },
  {
    "id": 22,
    "JBAPIBGDBFO": 20,
    "type": "TRIGGER_ELEMENT_REACTION",
    "descTextMapHash": 3430146802,
    "descParamList": [
      "{10}",
      "20",
      "",
      ""
    ]
  },
  {
    "id": 23,
    "JBAPIBGDBFO": 20,
    "type": "TRIGGER_ELEMENT_REACTION",
    "descTextMapHash": 90262042,
    "descParamList": [
      "{11}",
      "20",
      "",
      ""
    ]
  },
  {
    "id": 24,
    "JBAPIBGDBFO": 20,
    "type": "USE_SKILL",
    "descTextMapHash": 129396026,
    "descParamList": [
      "1",
      "20",
      "1",
      ""
    ]
  },
  {
    "id": 25,
    "JBAPIBGDBFO": 20,
    "type": "USE_SKILL",
    "descTextMapHash": 4270406434,
    "descParamList": [
      "2",
      "6",
      "1",
      ""
    ]
  },
  {
    "id": 26,
    "JBAPIBGDBFO": 20,
    "type": "KEEP_TEAM_HP",
    "descTextMapHash": 3219715226,
    "descParamList": [
      "30",
      "",
      "",
      ""
    ]
  },
  {
    "id": 27,
    "JBAPIBGDBFO": 20,
    "type": "FROZEN_TIMES",
    "descTextMapHash": 2776859450,
    "descParamList": [
      "6",
      "",
      "",
      ""
    ]
  },
  {
    "id": 28,
    "JBAPIBGDBFO": 20,
    "type": "NO_DAMAGE",
    "descTextMapHash": 3037754274,
    "descParamList": [
      "",
      "",
      "",
      ""
    ]
  },
  {
    "id": 29,
    "JBAPIBGDBFO": 20,
    "type": "ANNIHILATE",
    "descTextMapHash": 3795375498,
    "descParamList": [
      "5",
      "",
      "",
      ""
    ]
  },
  {
    "id": 30,
    "LEPDJCLNKLP": true,
    "type": "KILL_MONSTER",
    "descTextMapHash": 1804771202,
    "descParamList": [
      "{}",
      "30",
      "",
      ""
    ]
  },
  {
    "id": 31,
    "LEPDJCLNKLP": true,
    "type": "KILL_MONSTER",
    "descTextMapHash": 2856687050,
    "descParamList": [
      "{}",
      "9",
      "",
      ""
    ]
  },
  {
    "id": 32,
    "LEPDJCLNKLP": true,
    "type": "KILL_MONSTER",
    "descTextMapHash": 1040690298,
    "descParamList": [
      "{}",
      "24",
      "",
      ""
    ]
  },
  {
    "id": 33,
    "LEPDJCLNKLP": true,
    "type": "KILL_MONSTER",
    "descTextMapHash": 2015237426,
    "descParamList": [
      "{}",
      "27",
      "",
      ""
    ]
  },
  {
    "id": 34,
    "LEPDJCLNKLP": true,
    "type": "KILL_MONSTER",
    "descTextMapHash": 2499736490,
    "descParamList": [
      "{}",
      "22",
      "",
      ""
    ]
  },
  {
    "id": 35,
    "LEPDJCLNKLP": true,
    "type": "KILL_MONSTER",
    "descTextMapHash": 3121685586,
    "descParamList": [
      "{}",
      "32",
      "",
      ""
    ]
  },
  {
    "id": 36,
    "LEPDJCLNKLP": true,
    "type": "KILL_MONSTER",
    "descTextMapHash": 932094226,
    "descParamList": [
      "{}",
      "30",
      "",
      ""
    ]
  },
  {
    "id": 37,
    "LEPDJCLNKLP": true,
    "type": "KILL_MONSTER",
    "descTextMapHash": 1055620922,
    "descParamList": [
      "{}",
      "18",
      "",
      ""
    ]
  },
  {
    "id": 38,
    "LEPDJCLNKLP": true,
    "type": "KILL_MONSTER",
    "descTextMapHash": 3102980698,
    "descParamList": [
      "{21010402}",
      "6",
      "",
      ""
    ]
  },
  {
    "id": 39,
    "JBAPIBGDBFO": 20,
    "type": "KILL_MONSTER",
    "descTextMapHash": 3777974362,
    "descParamList": [
      "{21020101,21020401}",
      "14",
      "",
      ""
    ]
  },
  {
    "id": 40,
    "JBAPIBGDBFO": 20,
    "type": "KILL_MONSTER",
    "descTextMapHash": 4123672098,
    "descParamList": [
      "{21020202,21020703,21040201}",
      "16",
      "",
      ""
    ]
  },
  {
    "id": 41,
    "JBAPIBGDBFO": 20,
    "type": "KILL_MONSTER",
    "descTextMapHash": 537035018,
    "descParamList": [
      "{21040101,25100101,25100201}",
      "8",
      "",
      ""
    ]
  },
  {
    "id": 42,
    "JBAPIBGDBFO": 20,
    "type": "KILL_MONSTER",
    "descTextMapHash": 1101954114,
    "descParamList": [
      "{26120101,26120201,26120301,26120401,22010104}",
      "20",
      "",
      ""
    ]
  },
  {
    "id": 43,
    "JBAPIBGDBFO": 20,
    "type": "KILL_MONSTER",
    "descTextMapHash": 3111979354,
    "descParamList": [
      "{26120101,26120201,26120301,26120401,22010202}",
      "20",
      "",
      ""
    ]
  },
  {
    "id": 44,
    "JBAPIBGDBFO": 20,
    "type": "KILL_MONSTER",
    "descTextMapHash": 3321494722,
    "descParamList": [
      "{24010101,24066202}",
      "6",
      "",
      ""
    ]
  },
  {
    "id": 45,
    "JBAPIBGDBFO": 20,
    "type": "KILL_MONSTER",
    "descTextMapHash": 968950434,
    "descParamList": [
      "{23010101,23010201,23010501,23010401,25410101,25410201}",
      "20",
      "",
      ""
    ]
  },
  {
    "id": 46,
    "JBAPIBGDBFO": 20,
    "type": "KILL_MONSTER",
    "descTextMapHash": 3923301378,
    "descParamList": [
      "{24010301,23020102}",
      "10",
      "",
      ""
    ]
  },
  {
    "id": 47,
    "JBAPIBGDBFO": 20,
    "type": "KILL_MONSTER",
    "descTextMapHash": 2139349218,
    "descParamList": [
      "{22050201,24060802,24061002}",
      "8",
      "",
      ""
    ]
  },
  {
    "id": 48,
    "JBAPIBGDBFO": 20,
    "type": "TRIGGER_ELEMENT_REACTION",
    "descTextMapHash": 2044293746,
    "descParamList": [
      "{1,3}",
      "20",
      "",
      ""
    ]
  },
  {
    "id": 49,
    "JBAPIBGDBFO": 20,
    "type": "TRIGGER_ELEMENT_REACTION",
    "descTextMapHash": 3188780146,
    "descParamList": [
      "{1,10}",
      "20",
      "",
      ""
    ]
  },
  {
    "id": 50,
    "JBAPIBGDBFO": 20,
    "type": "TRIGGER_ELEMENT_REACTION",
    "descTextMapHash": 3783320218,
    "descParamList": [
      "{1,3,10}",
      "20",
      "",
      ""
    ]
  },
  {
    "id": 51,
    "LEPDJCLNKLP": true,
    "type": "TIME",
    "descTextMapHash": 559738722,
    "descParamList": [
      "75",
      "",
      "",
      ""
    ]
  },
  {
    "id": 52,
    "LEPDJCLNKLP": true,
    "type": "TIME",
    "descTextMapHash": 1451340682,
    "descParamList": [
      "85",
      "",
      "",
      ""
    ]
  },
  {
    "id": 53,
    "LEPDJCLNKLP": true,
    "type": "TIME",
    "descTextMapHash": 3082637962,
    "descParamList": [
      "90",
      "",
      "",
      ""
    ]
  },
  {
    "id": 54,
    "LEPDJCLNKLP": true,
    "type": "TIME",
    "descTextMapHash": 3638427338,
    "descParamList": [
      "100",
      "",
      "",
      ""
    ]
  },
  {
    "id": 55,
    "LEPDJCLNKLP": true,
    "type": "TIME",
    "descTextMapHash": 2404858778,
    "descParamList": [
      "80",
      "",
      "",
      ""
    ]
  },
  {
    "id": 56,
    "JBAPIBGDBFO": 20,
    "type": "GENERAL_INFORM_TO_SUCCESS",
    "descTextMapHash": 702241154,
    "descParamList": [
      "4",
      "",
      "",
      ""
    ]
  },
  {
    "id": 57,
    "JBAPIBGDBFO": 20,
    "type": "GENERAL_COUNT_TO_FAIL",
    "descTextMapHash": 667600442,
    "descParamList": [
      "10",
      "4",
      "",
      ""
    ]
  },
  {
    "id": 58,
    "JBAPIBGDBFO": 20,
    "type": "GENERAL_INFORM_TO_SUCCESS",
    "descTextMapHash": 607465250,
    "descParamList": [
      "6",
      "",
      "",
      ""
    ]
  },
  {
    "id": 59,
    "JBAPIBGDBFO": 20,
    "type": "TRIGGER_ELEMENT_REACTION",
    "descTextMapHash": 2249452794,
    "descParamList": [
      "{1}",
      "10",
      "",
      ""
    ]
  },
  {
    "id": 60,
    "JBAPIBGDBFO": 20,
    "type": "TRIGGER_ELEMENT_REACTION",
    "descTextMapHash": 3627298130,
    "descParamList": [
      "{1}",
      "15",
      "",
      ""
    ]
  },
  {
    "id": 61,
    "JBAPIBGDBFO": 20,
    "type": "KILL_MONSTER_BY_SPECIFIC_ATTACK",
    "descTextMapHash": 4243267834,
    "descParamList": [
      "{3}",
      "1",
      "",
      ""
    ]
  },
  {
    "id": 62,
    "JBAPIBGDBFO": 20,
    "type": "TRIGGER_ELEMENT_REACTION",
    "descTextMapHash": 3478829250,
    "descParamList": [
      "{5}",
      "10",
      "",
      ""
    ]
  },
  {
    "id": 63,
    "JBAPIBGDBFO": 20,
    "type": "TRIGGER_ELEMENT_REACTION",
    "descTextMapHash": 1200791290,
    "descParamList": [
      "{1}",
      "5",
      "",
      ""
    ]
  },
  {
    "id": 64,
    "JBAPIBGDBFO": 20,
    "type": "TRIGGER_ELEMENT_REACTION",
    "descTextMapHash": 1710620426,
    "descParamList": [
      "{3}",
      "10",
      "",
      ""
    ]
  },
  {
    "id": 65,
    "JBAPIBGDBFO": 20,
    "type": "KILL_MONSTER_BY_SPECIFIC_ATTACK",
    "descTextMapHash": 512258218,
    "descParamList": [
      "{1}",
      "8",
      "",
      ""
    ]
  },
  {
    "id": 66,
    "JBAPIBGDBFO": 20,
    "type": "TRIGGER_ELEMENT_REACTION",
    "descTextMapHash": 1677990626,
    "descParamList": [
      "{4,7}",
      "20",
      "",
      ""
    ]
  },
  {
    "id": 67,
    "LEPDJCLNKLP": true,
    "type": "KILL_MONSTER",
    "descTextMapHash": 3942665402,
    "descParamList": [
      "{}",
      "7",
      "",
      ""
    ]
  },
  {
    "id": 68,
    "LEPDJCLNKLP": true,
    "type": "KILL_MONSTER",
    "descTextMapHash": 3920531266,
    "descParamList": [
      "{}",
      "45",
      "",
      ""
    ]
  },
  {
    "id": 69,
    "JBAPIBGDBFO": 20,
    "type": "TRIGGER_ELEMENT_REACTION",
    "descTextMapHash": 3602154138,
    "descParamList": [
      "{4}",
      "6",
      "",
      ""
    ]
  },
  {
    "id": 70,
    "JBAPIBGDBFO": 20,
    "type": "KILL_MONSTER_BY_SPECIFIC_ATTACK",
    "descTextMapHash": 3883699522,
    "descParamList": [
      "{4}",
      "2",
      "",
      ""
    ]
  },
  {
    "id": 71,
    "JBAPIBGDBFO": 20,
    "type": "KILL_MONSTER_BY_SPECIFIC_ATTACK",
    "descTextMapHash": 2684145994,
    "descParamList": [
      "{4}",
      "5",
      "",
      ""
    ]
  },
  {
    "id": 72,
    "JBAPIBGDBFO": 20,
    "type": "TRIGGER_ELEMENT_REACTION",
    "descTextMapHash": 2546700474,
    "descParamList": [
      "{10}",
      "10",
      "",
      ""
    ]
  },
  {
    "id": 73,
    "JBAPIBGDBFO": 20,
    "type": "KILL_MONSTER_BY_SPECIFIC_ATTACK",
    "descTextMapHash": 4128680826,
    "descParamList": [
      "{4}",
      "8",
      "",
      ""
    ]
  },
  {
    "id": 74,
    "LEPDJCLNKLP": true,
    "type": "KILL_MONSTER",
    "descTextMapHash": 3937607002,
    "descParamList": [
      "{}",
      "40",
      "",
      ""
    ]
  },
  {
    "id": 75,
    "JBAPIBGDBFO": 20,
    "type": "KILL_MONSTER_BY_SPECIFIC_ATTACK",
    "descTextMapHash": 3030937018,
    "descParamList": [
      "{2}",
      "12",
      "",
      ""
    ]
  },
  {
    "id": 76,
    "LEPDJCLNKLP": true,
    "type": "KILL_MONSTER",
    "descTextMapHash": 2827888386,
    "descParamList": [
      "{}",
      "14",
      "",
      ""
    ]
  },
  {
    "id": 77,
    "JBAPIBGDBFO": 20,
    "type": "KEEP_TEAM_HP",
    "descTextMapHash": 3069509306,
    "descParamList": [
      "75",
      "",
      "",
      ""
    ]
  },
  {
    "id": 78,
    "JBAPIBGDBFO": 20,
    "type": "TRIGGER_ELEMENT_REACTION",
    "descTextMapHash": 3619684090,
    "descParamList": [
      "{1}",
      "6",
      "",
      ""
    ]
  },
  {
    "id": 79,
    "LEPDJCLNKLP": true,
    "type": "KILL_MONSTER",
    "descTextMapHash": 3476996906,
    "descParamList": [
      "{}",
      "4",
      "",
      ""
    ]
  },
  {
    "id": 80,
    "JBAPIBGDBFO": 20,
    "type": "GENERAL_INFORM_TO_SUCCESS",
    "descTextMapHash": 3698623394,
    "descParamList": [
      "14",
      "",
      "",
      ""
    ]
  },
  {
    "id": 81,
    "JBAPIBGDBFO": 20,
    "type": "GENERAL_INFORM_TO_SUCCESS",
    "descTextMapHash": 1288336530,
    "descParamList": [
      "11",
      "",
      "",
      ""
    ]
  },
  {
    "id": 82,
    "JBAPIBGDBFO": 20,
    "type": "GENERAL_INFORM_TO_SUCCESS",
    "descTextMapHash": 415882842,
    "descParamList": [
      "15",
      "",
      "",
      ""
    ]
  },
  {
    "id": 83,
    "JBAPIBGDBFO": 20,
    "type": "TRIGGER_ELEMENT_REACTION",
    "descTextMapHash": 3208310778,
    "descParamList": [
      "{4}",
      "10",
      "",
      ""
    ]
  },
  {
    "id": 84,
    "JBAPIBGDBFO": 20,
    "type": "TRIGGER_ELEMENT_REACTION",
    "descTextMapHash": 2892166178,
    "descParamList": [
      "{11}",
      "15",
      "",
      ""
    ]
  },
  {
    "id": 85,
    "JBAPIBGDBFO": 20,
    "type": "KILL_MONSTER_BY_SPECIFIC_ATTACK",
    "descTextMapHash": 3673271882,
    "descParamList": [
      "{2}",
      "4",
      "",
      ""
    ]
  },
  {
    "id": 86,
    "JBAPIBGDBFO": 20,
    "type": "ANNIHILATE",
    "descTextMapHash": 443516738,
    "descParamList": [
      "2",
      "",
      "",
      ""
    ]
  },
  {
    "id": 87,
    "JBAPIBGDBFO": 20,
    "type": "TRIGGER_ELEMENT_REACTION",
    "descTextMapHash": 4168082354,
    "descParamList": [
      "{4}",
      "15",
      "",
      ""
    ]
  },
  {
    "id": 88,
    "LEPDJCLNKLP": true,
    "type": "KILL_MONSTER",
    "descTextMapHash": 3294520930,
    "descParamList": [
      "{}",
      "5",
      "",
      ""
    ]
  },
  {
    "id": 89,
    "LEPDJCLNKLP": true,
    "type": "KILL_MONSTER",
    "descTextMapHash": 641745626,
    "descParamList": [
      "{}",
      "15",
      "",
      ""
    ]
  },
  {
    "id": 90,
    "JBAPIBGDBFO": 20,
    "type": "TRIGGER_ELEMENT_REACTION",
    "descTextMapHash": 2612356306,
    "descParamList": [
      "{11}",
      "30",
      "",
      ""
    ]
  },
  {
    "id": 91,
    "LEPDJCLNKLP": true,
    "type": "KILL_MONSTER",
    "descTextMapHash": 3608511898,
    "descParamList": [
      "{}",
      "18",
      "",
      ""
    ]
  },
  {
    "id": 92,
    "LEPDJCLNKLP": true,
    "type": "KILL_MONSTER",
    "descTextMapHash": 268896522,
    "descParamList": [
      "{}",
      "6",
      "",
      ""
    ]
  },
  {
    "id": 93,
    "LEPDJCLNKLP": true,
    "type": "TIMEV2",
    "descTextMapHash": 78677018,
    "descParamList": [
      "60",
      "",
      "",
      ""
    ]
  },
  {
    "id": 94,
    "JBAPIBGDBFO": 20,
    "type": "KILL_MONSTER",
    "descTextMapHash": 831185458,
    "descParamList": [
      "{}",
      "22",
      "",
      ""
    ]
  },
  {
    "id": 95,
    "LEPDJCLNKLP": true,
    "type": "TIMEV2",
    "descTextMapHash": 3869912498,
    "descParamList": [
      "80",
      "",
      "",
      ""
    ]
  },
  {
    "id": 96,
    "JBAPIBGDBFO": 20,
    "type": "KILL_MONSTER",
    "descTextMapHash": 3692759986,
    "descParamList": [
      "{}",
      "9",
      "",
      ""
    ]
  },
  {
    "id": 97,
    "LEPDJCLNKLP": true,
    "type": "TIMEV2",
    "descTextMapHash": 433117146,
    "descParamList": [
      "65",
      "",
      "",
      ""
    ]
  },
  {
    "id": 98,
    "JBAPIBGDBFO": 20,
    "type": "KILL_MONSTER",
    "descTextMapHash": 2363673722,
    "descParamList": [
      "{}",
      "18",
      "",
      ""
    ]
  },
  {
    "id": 99,
    "JBAPIBGDBFO": 20,
    "type": "KILL_MONSTER",
    "descTextMapHash": 1880519218,
    "descParamList": [
      "{}",
      "6",
      "",
      ""
    ]
  },
  {
    "id": 100,
    "LEPDJCLNKLP": true,
    "type": "TIMEV2",
    "descTextMapHash": 75853698,
    "descParamList": [
      "85",
      "",
      "",
      ""
    ]
  },
  {
    "id": 101,
    "JBAPIBGDBFO": 20,
    "type": "KILL_MONSTER",
    "descTextMapHash": 4253290658,
    "descParamList": [
      "{}",
      "12",
      "",
      ""
    ]
  },
  {
    "id": 102,
    "JBAPIBGDBFO": 20,
    "type": "TRIGGER_ELEMENT_REACTION",
    "descTextMapHash": 3330160386,
    "descParamList": [
      "{2}",
      "5",
      "",
      ""
    ]
  },
  {
    "id": 103,
    "LEPDJCLNKLP": true,
    "type": "KILL_MONSTER",
    "descTextMapHash": 259977642,
    "descParamList": [
      "{}",
      "9",
      "",
      ""
    ]
  },
  {
    "id": 104,
    "LEPDJCLNKLP": true,
    "type": "TIMEV2",
    "descTextMapHash": 2294011706,
    "descParamList": [
      "70",
      "",
      "",
      ""
    ]
  },
  {
    "id": 105,
    "JBAPIBGDBFO": 20,
    "type": "KILL_MONSTER",
    "descTextMapHash": 2583300098,
    "descParamList": [
      "{}",
      "15",
      "",
      ""
    ]
  },
  {
    "id": 106,
    "LEPDJCLNKLP": true,
    "type": "TIME",
    "descTextMapHash": 2272727378,
    "descParamList": [
      "60",
      "",
      "",
      ""
    ]
  },
  {
    "id": 107,
    "LEPDJCLNKLP": true,
    "type": "TIME",
    "descTextMapHash": 3572102474,
    "descParamList": [
      "65",
      "",
      "",
      ""
    ]
  },
  {
    "id": 108,
    "LEPDJCLNKLP": true,
    "type": "TIME",
    "descTextMapHash": 1175745498,
    "descParamList": [
      "80",
      "",
      "",
      ""
    ]
  },
  {
    "id": 109,
    "LEPDJCLNKLP": true,
    "type": "KILL_MONSTER",
    "descTextMapHash": 2343345562,
    "descParamList": [
      "{}",
      "24",
      "",
      ""
    ]
  },
  {
    "id": 110,
    "JBAPIBGDBFO": 20,
    "type": "GENERAL_INFORM_TO_SUCCESS",
    "descTextMapHash": 3421218458,
    "descParamList": [
      "7",
      "",
      "",
      ""
    ]
  },
  {
    "id": 111,
    "JBAPIBGDBFO": 20,
    "type": "GENERAL_INFORM_TO_SUCCESS",
    "descTextMapHash": 3025565242,
    "descParamList": [
      "19",
      "",
      "",
      ""
    ]
  },
  {
    "id": 112,
    "JBAPIBGDBFO": 20,
    "type": "TIME_BY_FIRST_KILL",
    "descTextMapHash": 1182301210,
    "descParamList": [
      "10",
      "",
      "",
      ""
    ]
  },
  {
    "id": 113,
    "JBAPIBGDBFO": 20,
    "type": "GENERAL_COUNT_TO_FAIL",
    "descTextMapHash": 2911898498,
    "descParamList": [
      "20",
      "20",
      "",
      ""
    ]
  },
  {
    "id": 114,
    "JBAPIBGDBFO": 20,
    "type": "GENERAL_INFORM_TO_SUCCESS",
    "descTextMapHash": 830807378,
    "descParamList": [
      "21",
      "",
      "",
      ""
    ]
  },
  {
    "id": 115,
    "JBAPIBGDBFO": 20,
    "type": "GENERAL_INFORM_TO_FAIL",
    "descTextMapHash": 1093604666,
    "descParamList": [
      "22",
      "",
      "",
      ""
    ]
  },
  {
    "id": 116,
    "JBAPIBGDBFO": 20,
    "type": "GENERAL_INFORM_TO_SUCCESS",
    "descTextMapHash": 3090342522,
    "descParamList": [
      "23",
      "",
      "",
      ""
    ]
  },
  {
    "id": 117,
    "JBAPIBGDBFO": 20,
    "type": "GENERAL_INFORM_TO_SUCCESS",
    "descTextMapHash": 1727516226,
    "descParamList": [
      "24",
      "",
      "",
      ""
    ]
  },
  {
    "id": 118,
    "JBAPIBGDBFO": 20,
    "type": "KILL_MONSTER",
    "descTextMapHash": 864248810,
    "descParamList": [
      "{}",
      "7",
      "",
      ""
    ]
  },
  {
    "id": 119,
    "JBAPIBGDBFO": 20,
    "type": "KILL_MONSTER",
    "descTextMapHash": 1210405458,
    "descParamList": [
      "{}",
      "4",
      "",
      ""
    ]
  },
  {
    "id": 120,
    "JBAPIBGDBFO": 20,
    "type": "TRIGGER_ELEMENT_REACTION",
    "descTextMapHash": 2929683770,
    "descParamList": [
      "{2}",
      "15",
      "",
      ""
    ]
  },
  {
    "id": 121,
    "LEPDJCLNKLP": true,
    "type": "PROTECT_TARGET_HP_REMAIN",
    "descTextMapHash": 418410106,
    "descParamList": [
      "35",
      "",
      "",
      ""
    ]
  },
  {
    "id": 122,
    "LEPDJCLNKLP": true,
    "type": "TIME",
    "descTextMapHash": 2848988410,
    "descParamList": [
      "70",
      "",
      "",
      ""
    ]
  },
  {
    "id": 123,
    "LEPDJCLNKLP": true,
    "type": "TIME",
    "descTextMapHash": 3957152562,
    "descParamList": [
      "75",
      "",
      "",
      ""
    ]
  },
  {
    "id": 124,
    "LEPDJCLNKLP": true,
    "type": "TIME",
    "descTextMapHash": 2203705314,
    "descParamList": [
      "85",
      "",
      "",
      ""
    ]
  },
  {
    "id": 125,
    "LEPDJCLNKLP": true,
    "type": "TIME",
    "descTextMapHash": 1730375066,
    "descParamList": [
      "90",
      "",
      "",
      ""
    ]
  }
]