[
  {
    "id": 1,
    "subTagNameTextMapHash": 2204087482
  },
  {
    "id": 2,
    "subTagNameTextMapHash": 507386946
  },
  {
    "id": 3,
    "subTagNameTextMapHash": 70083202
  },
  {
    "id": 4,
    "subTagNameTextMapHash": 1865916290
  },
  {
    "id": 6,
    "subTagNameTextMapHash": 1953601074
  },
  {
    "id": 8,
    "subTagNameTextMapHash": 2291512362
  },
  {
    "id": 9,
    "subTagNameTextMapHash": 2214255602
  },
  {
    "id": 10,
    "subTagNameTextMapHash": 4024463786
  }
]