[
  {
    "id": 1,
    "stage": 2,
    "NLPBHKJHKNB": 1,
    "CPHNKHNHFDK": 4,
    "BCDLLGLIPDJ": 6,
    "KPOIAOFEMML": 10,
    "prefabPath": "ART/UI/UIScene/ShuffleBoardLevel/Penumbra_ShuffleBoard_Level_01",
    "AAHPKBFCFCB": 13112,
    "titleTextMapHash": 2858109786,
    "descTextMapHash": 2957994537,
    "previewItems": [
      1,
      1,
      1,
      1
    ],
    "PCDLBMDACGA": "ART/UI/Atlas/Activity/PenAdv/UI_Pic_ShuffleBoardMap_01",
    "watcherList": [
      12023401,
      12023402,
      12023403
    ]
  },
  {
    "id": 2,
    "stage": 2,
    "DPAMCIMPFCF": 1,
    "NLPBHKJHKNB": 1,
    "CPHNKHNHFDK": 4,
    "BCDLLGLIPDJ": 6,
    "KPOIAOFEMML": 10,
    "prefabPath": "ART/UI/UIScene/ShuffleBoardLevel/Penumbra_ShuffleBoard_Level_02",
    "CLDOEBNMAHK": 1475,
    "AAHPKBFCFCB": 13112,
    "titleTextMapHash": 1051620882,
    "descTextMapHash": 932360721,
    "previewItems": [
      1,
      3,
      1,
      3
    ],
    "PCDLBMDACGA": "ART/UI/Atlas/Activity/PenAdv/UI_Pic_ShuffleBoardMap_02",
    "watcherList": [
      12023411,
      12023412,
      12023413
    ]
  },
  {
    "id": 3,
    "stage": 3,
    "DPAMCIMPFCF": 2,
    "NLPBHKJHKNB": 1,
    "CPHNKHNHFDK": 4,
    "BCDLLGLIPDJ": 6,
    "KPOIAOFEMML": 10,
    "prefabPath": "ART/UI/UIScene/ShuffleBoardLevel/Penumbra_ShuffleBoard_Level_03",
    "CLDOEBNMAHK": 1474,
    "AAHPKBFCFCB": 13112,
    "titleTextMapHash": 3540545386,
    "descTextMapHash": 590010489,
    "previewItems": [
      1,
      2,
      1,
      2
    ],
    "PCDLBMDACGA": "ART/UI/Atlas/Activity/PenAdv/UI_Pic_ShuffleBoardMap_03",
    "watcherList": [
      12023421,
      12023422,
      12023423
    ]
  },
  {
    "id": 4,
    "stage": 3,
    "DPAMCIMPFCF": 3,
    "NLPBHKJHKNB": 1,
    "CPHNKHNHFDK": 4,
    "BCDLLGLIPDJ": 6,
    "KPOIAOFEMML": 10,
    "prefabPath": "ART/UI/UIScene/ShuffleBoardLevel/Penumbra_ShuffleBoard_Level_04",
    "AAHPKBFCFCB": 13112,
    "titleTextMapHash": 3843062538,
    "descTextMapHash": 1275259745,
    "previewItems": [
      1,
      3,
      1,
      2
    ],
    "PCDLBMDACGA": "ART/UI/Atlas/Activity/PenAdv/UI_Pic_ShuffleBoardMap_04",
    "watcherList": [
      12023431,
      12023432,
      12023433
    ]
  },
  {
    "id": 5,
    "stage": 4,
    "DPAMCIMPFCF": 4,
    "NLPBHKJHKNB": 1,
    "CPHNKHNHFDK": 5,
    "BCDLLGLIPDJ": 8,
    "KPOIAOFEMML": 12,
    "prefabPath": "ART/UI/UIScene/ShuffleBoardLevel/Penumbra_ShuffleBoard_Level_05",
    "AAHPKBFCFCB": 13112,
    "titleTextMapHash": 3622637778,
    "descTextMapHash": 1778582945,
    "previewItems": [
      1,
      1,
      2,
      3,
      1
    ],
    "PCDLBMDACGA": "ART/UI/Atlas/Activity/PenAdv/UI_Pic_ShuffleBoardMap_05",
    "watcherList": [
      12023441,
      12023442,
      12023443
    ]
  },
  {
    "id": 6,
    "stage": 4,
    "DPAMCIMPFCF": 5,
    "NLPBHKJHKNB": 1,
    "CPHNKHNHFDK": 5,
    "BCDLLGLIPDJ": 8,
    "KPOIAOFEMML": 12,
    "prefabPath": "ART/UI/UIScene/ShuffleBoardLevel/Penumbra_ShuffleBoard_Level_06",
    "AAHPKBFCFCB": 13112,
    "titleTextMapHash": 106854914,
    "descTextMapHash": 3333181273,
    "previewItems": [
      1,
      3,
      1,
      3,
      1
    ],
    "PCDLBMDACGA": "ART/UI/Atlas/Activity/PenAdv/UI_Pic_ShuffleBoardMap_06",
    "watcherList": [
      12023451,
      12023452,
      12023453
    ]
  },
  {
    "id": 7,
    "stage": 4,
    "DPAMCIMPFCF": 6,
    "NLPBHKJHKNB": 1,
    "CPHNKHNHFDK": 5,
    "BCDLLGLIPDJ": 8,
    "KPOIAOFEMML": 12,
    "prefabPath": "ART/UI/UIScene/ShuffleBoardLevel/Penumbra_ShuffleBoard_Level_07",
    "AAHPKBFCFCB": 13112,
    "titleTextMapHash": 2082301130,
    "descTextMapHash": 2637970433,
    "previewItems": [
      1,
      1,
      3,
      3,
      2
    ],
    "PCDLBMDACGA": "ART/UI/Atlas/Activity/PenAdv/UI_Pic_ShuffleBoardMap_07",
    "watcherList": [
      12023461,
      12023462,
      12023463
    ]
  },
  {
    "id": 8,
    "stage": 4,
    "DPAMCIMPFCF": 7,
    "NLPBHKJHKNB": 1,
    "CPHNKHNHFDK": 5,
    "BCDLLGLIPDJ": 8,
    "KPOIAOFEMML": 12,
    "prefabPath": "ART/UI/UIScene/ShuffleBoardLevel/Penumbra_ShuffleBoard_Level_08",
    "AAHPKBFCFCB": 13112,
    "titleTextMapHash": 2008895442,
    "descTextMapHash": 1531152193,
    "previewItems": [
      1,
      1,
      3,
      2,
      3
    ],
    "PCDLBMDACGA": "ART/UI/Atlas/Activity/PenAdv/UI_Pic_ShuffleBoardMap_08",
    "watcherList": [
      12023471,
      12023472,
      12023473
    ]
  }
]