[
  {
    "eulerAngle": [
      -7.5,
      165.3,
      0
    ],
    "cameraPos": [
      551.4,
      336.4,
      5961.7
    ],
    "picNameTextMapHash": 1826107005,
    "id": 1,
    "galleryId": 44501,
    "startTransConfigId": 220008,
    "endTransConfigId": 220010,
    "levelTitleTextMapHash": 4083353230,
    "levelDescTextMapHash": 1723316174,
    "groupLinkID": 51320301,
    "groupID": 133317220,
    "watcherList": [
      15132301
    ]
  },
  {
    "eulerAngle": [
      -13.3,
      184.9,
      0
    ],
    "cameraPos": [
      676.5,
      158.8,
      6754.8
    ],
    "picNameTextMapHash": 1598389445,
    "id": 2,
    "galleryId": 44502,
    "startTransConfigId": 323008,
    "endTransConfigId": 323010,
    "levelTitleTextMapHash": 3151124494,
    "levelDescTextMapHash": 1957026974,
    "groupLinkID": 51320302,
    "groupID": 133316323,
    "watcherList": [
      15132302
    ]
  },
  {
    "eulerAngle": [
      -16.5,
      6.2,
      0
    ],
    "cameraPos": [
      755.3,
      210.4,
      6173.2
    ],
    "picNameTextMapHash": 2610704461,
    "id": 3,
    "galleryId": 44503,
    "startTransConfigId": 278008,
    "endTransConfigId": 278010,
    "levelTitleTextMapHash": 387504670,
    "levelDescTextMapHash": 210592102,
    "groupLinkID": 51320303,
    "groupID": 133317278,
    "watcherList": [
      15132303
    ]
  },
  {
    "eulerAngle": [
      -14.3,
      85.5,
      0
    ],
    "cameraPos": [
      919.2,
      414.6,
      6028.5
    ],
    "picNameTextMapHash": 3042056565,
    "id": 4,
    "galleryId": 44504,
    "startTransConfigId": 292008,
    "endTransConfigId": 292010,
    "levelTitleTextMapHash": 3847173710,
    "levelDescTextMapHash": 3299483934,
    "groupLinkID": 51320304,
    "groupID": 133317292,
    "watcherList": [
      15132304
    ]
  },
  {
    "eulerAngle": [
      -2.3,
      17.2,
      0
    ],
    "cameraPos": [
      367.2,
      280.9,
      6169.275
    ],
    "picNameTextMapHash": 1659342565,
    "id": 5,
    "galleryId": 44505,
    "startTransConfigId": 326008,
    "endTransConfigId": 326010,
    "levelTitleTextMapHash": 2083446726,
    "levelDescTextMapHash": 2615849750,
    "groupLinkID": 51320305,
    "groupID": 133316326,
    "watcherList": [
      15132305
    ]
  },
  {
    "eulerAngle": [
      5.2,
      44.3,
      0
    ],
    "cameraPos": [
      315.8,
      295.7,
      6276.7
    ],
    "picNameTextMapHash": 4047398741,
    "id": 6,
    "galleryId": 44506,
    "startTransConfigId": 324008,
    "endTransConfigId": 324010,
    "levelTitleTextMapHash": 3251599478,
    "levelDescTextMapHash": 3453948350,
    "groupLinkID": 51320306,
    "groupID": 133316324,
    "watcherList": [
      15132306
    ]
  }
]