[
  {
    "itemId": 104101,
    "LKECLFACDCC": "ToMark",
    "param1": 11
  },
  {
    "itemId": 104102,
    "LKECLFACDCC": "ToMark",
    "param1": 11
  },
  {
    "itemId": 104103,
    "LKECLFACDCC": "ToMark",
    "param1": 11
  },
  {
    "itemId": 104104,
    "LKECLFACDCC": "ToMark",
    "param1": 11
  },
  {
    "itemId": 104319,
    "LKECLFACDCC": "HideGoToButton"
  }
]