[
  {
    "MNBOKJIIBAH": 1,
    "reviseLevel": 74,
    "difficultyDescTextMapHash": 3587390508,
    "timeLimit": 600
  },
  {
    "MNBOKJIIBAH": 2,
    "reviseLevel": 79,
    "difficultyDescTextMapHash": 3319124148,
    "timeLimit": 150
  },
  {
    "MNBOKJIIBAH": 3,
    "reviseLevel": 84,
    "difficultyDescTextMapHash": 949860244,
    "timeLimit": 90
  }
]