[
  {
    "difficultyLevel": 1,
    "scoreMagnification": 1,
    "dungeonLevel": 39,
    "descTextMapHash": 2583884040
  },
  {
    "difficultyLevel": 2,
    "scoreMagnification": 2,
    "dungeonLevel": 69,
    "descTextMapHash": 2543625056
  },
  {
    "difficultyLevel": 3,
    "scoreMagnification": 4,
    "dungeonLevel": 89,
    "descTextMapHash": 57733808
  }
]