[
  {
    "id": 2024,
    "ANFCPDBBAMN": 80,
    "MPNCGKGJBFC": 800,
    "OBHDGGNAAAG": [
      70291542,
      70291543,
      70291544,
      70291545,
      70291546,
      70291550
    ],
    "COBIPEJOBAD": "Data/Environment/EnviroSystemProfile/UI/ESP_UI_Fd_FDC_TXMOGame",
    "IMMDHEPOCHA": "Data/Environment/Weather/UI/Weather_UI_GcgCard",
    "JMDPPDKBDID": [
      -100,
      100,
      10
    ],
    "ANGEFHMMLNJ": [
      10,
      20
    ]
  }
]