[
  {
    "DBODHLMNNNC": 15001,
    "DHNPOIAHDHE": "BOSS",
    "JDBJIFDDFLD": "UI_TRAININGGUIDE_SOURCE_BOSS_ANY_TIP",
    "cost": 40
  },
  {
    "DBODHLMNNNC": 15003,
    "DHNPOIAHDHE": "BOSS",
    "JDBJIFDDFLD": "UI_TRAININGGUIDE_SOURCE_BOSS_ANY_TIP",
    "cost": 40
  }
]