[
  {
    "AKCBEODIODI": 20,
    "NOOKAPBHAJB": 10,
    "OJDLPJLGJAH": 20
  },
  {
    "worldLevel": 1,
    "AKCBEODIODI": 40,
    "NOOKAPBHAJB": 19,
    "OJDLPJLGJAH": 30
  },
  {
    "worldLevel": 2,
    "AKCBEODIODI": 50,
    "NOOKAPBHAJB": 39,
    "OJDLPJLGJAH": 45
  },
  {
    "worldLevel": 3,
    "AKCBEODIODI": 60,
    "NOOKAPBHAJB": 49,
    "OJDLPJLGJAH": 55
  },
  {
    "worldLevel": 4,
    "AKCBEODIODI": 70,
    "NOOKAPBHAJB": 59,
    "OJDLPJLGJAH": 65
  },
  {
    "worldLevel": 5,
    "AKCBEODIODI": 80,
    "NOOKAPBHAJB": 69,
    "OJDLPJLGJAH": 75
  },
  {
    "worldLevel": 6,
    "AKCBEODIODI": 80,
    "NOOKAPBHAJB": 69,
    "OJDLPJLGJAH": 75
  },
  {
    "worldLevel": 7,
    "AKCBEODIODI": 90,
    "NOOKAPBHAJB": 79,
    "OJDLPJLGJAH": 85
  },
  {
    "worldLevel": 8,
    "AKCBEODIODI": 90,
    "NOOKAPBHAJB": 79,
    "OJDLPJLGJAH": 85
  },
  {
    "worldLevel": 9,
    "AKCBEODIODI": 90,
    "NOOKAPBHAJB": 79,
    "OJDLPJLGJAH": 85
  }
]