[
  {
    "id": 1,
    "treePattern": "Area_Ljxs_Tree_Common_Birchtree01_Lod0",
    "treeType": "TREE_TYPE_BIRCH"
  },
  {
    "id": 2,
    "treePattern": "Area_Ljxs_Tree_Common_Pt_01_NoSnow_Lod0",
    "treeType": "TREE_TYPE_PINE"
  },
  {
    "id": 3,
    "treePattern": "Tree_Area_Ljxs_Tree_Common_Pt_01_Lod0",
    "treeType": "TREE_TYPE_PINE"
  },
  {
    "id": 4,
    "treePattern": "Tree_Area_Ljxs_Tree_Common_Pt_02_Lod0",
    "treeType": "TREE_TYPE_PINE"
  },
  {
    "id": 5,
    "treePattern": "Tree_Area_Ljxs_Tree_Common_Pt_03_Lod0",
    "treeType": "TREE_TYPE_PINE"
  },
  {
    "id": 6,
    "treePattern": "Tree_Area_Ljxs_Tree_Common_Pt_04_Lod0",
    "treeType": "TREE_TYPE_PINE"
  },
  {
    "id": 7,
    "treePattern": "Tree_Area_Ly_Tree_Common_Gg_02_Lod0",
    "treeType": "TREE_TYPE_POPULUS_EUPHRATICA"
  },
  {
    "id": 8,
    "treePattern": "Tree_Area_Ly_Tree_Common_Gg_03_Lod0",
    "treeType": "TREE_TYPE_POPULUS_EUPHRATICA"
  },
  {
    "id": 9,
    "treePattern": "Tree_Area_Ly_Tree_Common_Gg_06_Lod0",
    "treeType": "TREE_TYPE_POPULUS_EUPHRATICA"
  },
  {
    "id": 10,
    "treePattern": "Tree_Area_Ly_Tree_Common_Pt_01_Lod0",
    "treeType": "TREE_TYPE_PINE"
  },
  {
    "id": 11,
    "treePattern": "Tree_Area_Ly_Tree_Common_Pt_02_Lod0",
    "treeType": "TREE_TYPE_PINE"
  },
  {
    "id": 12,
    "treePattern": "Tree_Area_Ly_Tree_Common_Pt_03_Lod0",
    "treeType": "TREE_TYPE_PINE"
  },
  {
    "id": 13,
    "treePattern": "Tree_Area_Ly_Tree_Common_Pt_05_Lod0",
    "treeType": "TREE_TYPE_PINE"
  },
  {
    "id": 14,
    "treePattern": "Tree_Area_Ly_Tree_QC_Bamboo_01_Lod0",
    "treeType": "TREE_TYPE_BAMBOO"
  },
  {
    "id": 15,
    "treePattern": "Tree_Area_Ly_Tree_QC_Bamboo_02_Lod0",
    "treeType": "TREE_TYPE_BAMBOO"
  },
  {
    "id": 16,
    "treePattern": "Tree_Area_Ly_Tree_QC_Bamboo_03_Lod0",
    "treeType": "TREE_TYPE_BAMBOO"
  },
  {
    "id": 17,
    "treePattern": "Tree_Area_Ly_Tree_QC_Bamboo_04_Lod0",
    "treeType": "TREE_TYPE_BAMBOO"
  },
  {
    "id": 18,
    "treePattern": "Tree_Stages_AppleTree01_Vo",
    "treeType": "TREE_TYPE_MAPLE"
  },
  {
    "id": 19,
    "treePattern": "Tree_Stages_Birchtree01_Fin",
    "treeType": "TREE_TYPE_BIRCH"
  },
  {
    "id": 20,
    "treePattern": "Tree_Stages_CyPinetree01_Fin",
    "treeType": "TREE_TYPE_PINE"
  },
  {
    "id": 21,
    "treePattern": "Tree_Stages_CyPinetree02_Fin",
    "treeType": "TREE_TYPE_PINE"
  },
  {
    "id": 22,
    "treePattern": "Tree_Stages_CyPinetree03_Fin",
    "treeType": "TREE_TYPE_PINE"
  },
  {
    "id": 23,
    "treePattern": "Tree_Stages_CyTree01_Fin",
    "treeType": "TREE_TYPE_CYPRESS"
  },
  {
    "id": 24,
    "treePattern": "Tree_Stages_CyTree02_Fin",
    "treeType": "TREE_TYPE_CYPRESS"
  },
  {
    "id": 25,
    "treePattern": "Tree_Stages_CyTree03_Fin",
    "treeType": "TREE_TYPE_CYPRESS"
  },
  {
    "id": 26,
    "treePattern": "Tree_Stages_CyTree04_Fin",
    "treeType": "TREE_TYPE_CYPRESS"
  },
  {
    "id": 27,
    "treePattern": "Tree_Stages_CyTree05_Fin",
    "treeType": "TREE_TYPE_CYPRESS"
  },
  {
    "id": 28,
    "treePattern": "Tree_Stages_FirTree01_Fin",
    "treeType": "TREE_TYPE_FIRTREE"
  },
  {
    "id": 29,
    "treePattern": "Tree_Stages_FirTree02_Fin",
    "treeType": "TREE_TYPE_FIRTREE"
  },
  {
    "id": 30,
    "treePattern": "Tree_Stages_FirTree03_Fin",
    "treeType": "TREE_TYPE_FIRTREE"
  },
  {
    "id": 31,
    "treePattern": "Tree_Stages_Fleur_CyPineTree_01_Fin",
    "treeType": "TREE_TYPE_PINE"
  },
  {
    "id": 32,
    "treePattern": "Tree_Area_Dq_Common_Fs_01_01_Fin",
    "treeType": "TREE_TYPE_ACER"
  },
  {
    "id": 33,
    "treePattern": "Tree_Area_Dq_Common_Fs_02_01_Fin",
    "treeType": "TREE_TYPE_ACER"
  },
  {
    "id": 34,
    "treePattern": "Tree_Area_Dq_Common_Liushan_02_01_Fin",
    "treeType": "TREE_TYPE_CRYPTOMERIA"
  },
  {
    "id": 35,
    "treePattern": "Tree_Area_Dq_Common_Liushan_03_01_Fin",
    "treeType": "TREE_TYPE_CRYPTOMERIA"
  },
  {
    "id": 36,
    "treePattern": "Tree_Area_Dq_Common_Liushan_05_01_Fin",
    "treeType": "TREE_TYPE_CRYPTOMERIA"
  },
  {
    "id": 37,
    "treePattern": "Tree_Area_Dq_Common_Ls_01_01_Fin",
    "treeType": "TREE_TYPE_OTOGI"
  },
  {
    "id": 38,
    "treePattern": "Tree_Area_Dq_Common_Ls_03_01_Fin",
    "treeType": "TREE_TYPE_OTOGI"
  },
  {
    "id": 39,
    "treePattern": "Tree_Area_Dq_Common_Ls_04_01_Fin",
    "treeType": "TREE_TYPE_OTOGI"
  },
  {
    "id": 40,
    "treePattern": "Tree_Area_Dq_Common_Ls_05_01_Fin",
    "treeType": "TREE_TYPE_OTOGI"
  },
  {
    "id": 41,
    "treePattern": "Tree_Area_Dq_Common_Ls_06_01_Fin",
    "treeType": "TREE_TYPE_OTOGI"
  },
  {
    "id": 42,
    "treePattern": "Tree_Area_Dq_Common_Pt_01_01_Fin",
    "treeType": "TREE_TYPE_PINE"
  },
  {
    "id": 43,
    "treePattern": "Tree_Area_Dq_Common_Pt_02_01_Fin",
    "treeType": "TREE_TYPE_PINE"
  },
  {
    "id": 44,
    "treePattern": "Tree_Area_Dq_Common_Pt_03_01_Fin",
    "treeType": "TREE_TYPE_PINE"
  },
  {
    "id": 45,
    "treePattern": "Tree_Area_Dq_Common_Pt_05_01_Fin",
    "treeType": "TREE_TYPE_PINE"
  },
  {
    "id": 46,
    "treePattern": "Tree_Area_Dq_Common_Sak_01_01_Fin",
    "treeType": "TREE_TYPE_CERASUS"
  },
  {
    "id": 47,
    "treePattern": "Tree_Area_Dq_Common_Sak_06_01_Fin",
    "treeType": "TREE_TYPE_CERASUS"
  },
  {
    "id": 48,
    "treePattern": "Tree_Area_Dq_HZD_Ty_02_01_Fin",
    "treeType": "TREE_TYPE_CYPRESS"
  },
  {
    "id": 49,
    "treePattern": "Tree_Area_Dq_Common_Sak_07_01_Fin",
    "treeType": "TREE_TYPE_CERASUS"
  },
  {
    "id": 50,
    "treePattern": "Tree_Area_Dq_Tree_Common_Pt_04_Lod0",
    "treeType": "TREE_TYPE_PINE"
  },
  {
    "id": 51,
    "treePattern": "Tree_Area_Dq_Tree_HG_Ty_01_Lod0",
    "treeType": "TREE_TYPE_CRYPTOMERIA"
  },
  {
    "id": 52,
    "treePattern": "Tree_Area_Cyjy_Tree_UP_E_01_Lod0",
    "treeType": "TREE_TYPE_POPULUS_EUPHRATICA"
  },
  {
    "id": 53,
    "treePattern": "Tree_Area_Cyjy_Tree_UP_E_02_Lod0",
    "treeType": "TREE_TYPE_POPULUS_EUPHRATICA"
  },
  {
    "id": 54,
    "treePattern": "Tree_Area_Cyjy_Tree_UP_Hys_01_Lod0",
    "treeType": "TREE_TYPE_POPULUS_EUPHRATICA"
  },
  {
    "id": 55,
    "treePattern": "Tree_Area_Cyjy_Tree_UP_Hys_04_Lod0",
    "treeType": "TREE_TYPE_POPULUS_EUPHRATICA"
  },
  {
    "id": 56,
    "treePattern": "Tree_Area_Cyjy_Tree_UP_Hys_05_Lod0",
    "treeType": "TREE_TYPE_POPULUS_EUPHRATICA"
  },
  {
    "id": 57,
    "treePattern": "Tree_Area_Cyjy_Tree_UP_Hys_06_Lod0",
    "treeType": "TREE_TYPE_POPULUS_EUPHRATICA"
  },
  {
    "id": 58,
    "treePattern": "Tree_Area_Cyjy_Tree_UP_Hys_07_Lod0",
    "treeType": "TREE_TYPE_POPULUS_EUPHRATICA"
  },
  {
    "id": 59,
    "treePattern": "Tree_Area_Cyjy_Tree_UP_Hys_08_Lod0",
    "treeType": "TREE_TYPE_POPULUS_EUPHRATICA"
  },
  {
    "id": 60,
    "treePattern": "Tree_Area_Cyjy_Tree_UP_Hys_09_Lod0",
    "treeType": "TREE_TYPE_POPULUS_EUPHRATICA"
  },
  {
    "id": 61,
    "treePattern": "Tree_Area_Cyjy_Tree_UP_Hys_13_Lod0",
    "treeType": "TREE_TYPE_POPULUS_EUPHRATICA"
  },
  {
    "id": 62,
    "treePattern": "Tree_Area_Cyjy_Tree_UP_Hys_14_Lod0",
    "treeType": "TREE_TYPE_POPULUS_EUPHRATICA"
  },
  {
    "id": 63,
    "treePattern": "Tree_Area_Cyjy_Tree_UP_Hys_15_Lod0",
    "treeType": "TREE_TYPE_POPULUS_EUPHRATICA"
  },
  {
    "id": 64,
    "treePattern": "Tree_Area_Xm_Tree_ARC_PingShu_08_Bark_Lod0",
    "treeType": "TREE_TYPE_FICUS"
  },
  {
    "id": 65,
    "treePattern": "Tree_Area_Xm_Tree_ARC_PingShu_09_Bark_Lod0",
    "treeType": "TREE_TYPE_FICUS"
  },
  {
    "id": 66,
    "treePattern": "Tree_Area_Xm_Tree_Common_Cys_01_Lod0",
    "treeType": "TREE_TYPE_MELIA"
  },
  {
    "id": 67,
    "treePattern": "Tree_Area_Xm_Tree_Common_Cys_02_Lod0",
    "treeType": "TREE_TYPE_MELIA"
  },
  {
    "id": 68,
    "treePattern": "Tree_Area_Xm_Tree_Common_Hds_04_Lod0",
    "treeType": "TREE_TYPE_MARATTIA"
  },
  {
    "id": 69,
    "treePattern": "Tree_Area_Xm_Tree_Common_Hyds_01_Lod0",
    "treeType": "TREE_TYPE_MARATTIA"
  },
  {
    "id": 70,
    "treePattern": "Tree_Area_Xm_Tree_Common_Palm_01_Lod0",
    "treeType": "TREE_TYPE_MELIA"
  },
  {
    "id": 71,
    "treePattern": "Tree_Area_Xm_Tree_Common_Palm_03_Lod0",
    "treeType": "TREE_TYPE_MELIA"
  },
  {
    "id": 72,
    "treePattern": "Tree_Area_Xm_Tree_Common_Palm_04_Lod0",
    "treeType": "TREE_TYPE_MELIA"
  },
  {
    "id": 73,
    "treePattern": "Tree_Area_Xm_Tree_Common_Qgs_01_Lod0",
    "treeType": "TREE_TYPE_MARATTIA"
  },
  {
    "id": 74,
    "treePattern": "Tree_Area_Xm_Tree_Common_Sxs_02_Lod0",
    "treeType": "TREE_TYPE_MARATTIA"
  },
  {
    "id": 75,
    "treePattern": "Tree_Area_Xm_Tree_Common_Sxs_04_Lod0",
    "treeType": "TREE_TYPE_MARATTIA"
  },
  {
    "id": 76,
    "treePattern": "Tree_Area_Xm_Tree_Common_Tieshu_01_Lod0",
    "treeType": "TREE_TYPE_MARATTIA"
  },
  {
    "id": 77,
    "treePattern": "Tree_Area_Xm_Tree_Common_Tieshu_02_Lod0",
    "treeType": "TREE_TYPE_MARATTIA"
  },
  {
    "id": 78,
    "treePattern": "Tree_Area_Xm_Tree_Common_Tys_07_Lod0",
    "treeType": "TREE_TYPE_FICUS"
  },
  {
    "id": 79,
    "treePattern": "Tree_Area_Xm_Tree_Common_Tys_08_Lod0",
    "treeType": "TREE_TYPE_FICUS"
  },
  {
    "id": 80,
    "treePattern": "Tree_Area_Xm_Tree_Common_Zhs_02_Lod0",
    "treeType": "TREE_TYPE_MARATTIA"
  },
  {
    "id": 81,
    "treePattern": "Tree_Area_Xm_Tree_Common_Zhs_03_Lod0",
    "treeType": "TREE_TYPE_MARATTIA"
  },
  {
    "id": 82,
    "treePattern": "Tree_Area_Xm_Tree_CWSM_Blb_01_Fin",
    "treeType": "TREE_TYPE_SYLVESTRIS"
  },
  {
    "id": 83,
    "treePattern": "Tree_Area_Xm_Tree_CWSM_Blb_04_Fin",
    "treeType": "TREE_TYPE_SYLVESTRIS"
  },
  {
    "id": 84,
    "treePattern": "Tree_Area_Xm_Tree_CWSM_Blb_05_Fin",
    "treeType": "TREE_TYPE_SYLVESTRIS"
  },
  {
    "id": 85,
    "treePattern": "Tree_Area_Xm_Tree_CWSM_Blb_06_Fin",
    "treeType": "TREE_TYPE_SYLVESTRIS"
  },
  {
    "id": 86,
    "treePattern": "Tree_Area_Xm_Tree_CWSM_Bls_02_Fin",
    "treeType": "TREE_TYPE_SYLVESTRIS"
  },
  {
    "id": 87,
    "treePattern": "Tree_Area_Xm_Tree_CWSM_Bls_03_Fin",
    "treeType": "TREE_TYPE_SYLVESTRIS"
  },
  {
    "id": 88,
    "treePattern": "Tree_Area_Xm_Tree_CWSM_Cjs_01_Fin",
    "treeType": "TREE_TYPE_SYLVESTRIS"
  },
  {
    "id": 89,
    "treePattern": "Tree_Area_Xm_Tree_CWSM_Ds_02_Fin",
    "treeType": "TREE_TYPE_TAMARIX"
  },
  {
    "id": 93,
    "treePattern": "Tree_Area_Xm_Tree_CWSM_Mbs_02_Lod0",
    "treeType": "TREE_TYPE_SYLVESTRIS"
  },
  {
    "id": 94,
    "treePattern": "Tree_Area_Xm_Tree_CWSM_Xrzs_01_Fin",
    "treeType": "TREE_TYPE_SYLVESTRIS"
  },
  {
    "id": 95,
    "treePattern": "Tree_Area_Xm_Tree_CWSM_Xrzs_02_Fin",
    "treeType": "TREE_TYPE_SYLVESTRIS"
  },
  {
    "id": 96,
    "treePattern": "Tree_Area_Xm_Tree_CWSM_Xrzs_04_Fin",
    "treeType": "TREE_TYPE_SYLVESTRIS"
  },
  {
    "id": 97,
    "treePattern": "Tree_Area_Xm_Tree_CWSM_Yzs_01_Lod0",
    "treeType": "TREE_TYPE_TAMARIX"
  },
  {
    "id": 98,
    "treePattern": "Tree_Area_Xm_Tree_CWSM_Yzs_02_Lod0",
    "treeType": "TREE_TYPE_TAMARIX"
  },
  {
    "id": 99,
    "treePattern": "Tree_Area_Xm_Tree_CWSM_Yzs_04_Lod0",
    "treeType": "TREE_TYPE_TAMARIX"
  },
  {
    "id": 100,
    "treePattern": "Tree_Area_Xm_Tree_CWSM_Yzs_05_Lod0",
    "treeType": "TREE_TYPE_TAMARIX"
  },
  {
    "id": 101,
    "treePattern": "Tree_Area_Xm_Tree_HYZS_Hyds_02_Fin",
    "treeType": "TREE_TYPE_MARATTIA"
  },
  {
    "id": 102,
    "treePattern": "Tree_Area_Xm_Tree_ARC_PingShu_01_Lod0",
    "treeType": "TREE_TYPE_FICUS"
  },
  {
    "id": 103,
    "treePattern": "Tree_Area_Xm_Tree_ARC_PingShu_04_Lod0",
    "treeType": "TREE_TYPE_FICUS"
  },
  {
    "id": 104,
    "treePattern": "Tree_Area_Xm_Tree_Common_Hds_01_Lod0",
    "treeType": "TREE_TYPE_MARATTIA"
  },
  {
    "id": 105,
    "treePattern": "Tree_Area_Xm_Tree_Common_Hds_02_Lod0",
    "treeType": "TREE_TYPE_MARATTIA"
  },
  {
    "id": 106,
    "treePattern": "Tree_Area_Xm_Tree_Common_Hds_03_Lod0",
    "treeType": "TREE_TYPE_MARATTIA"
  },
  {
    "id": 107,
    "treePattern": "Tree_Area_Xm_Tree_Common_Hds_05_Lod0",
    "treeType": "TREE_TYPE_MARATTIA"
  },
  {
    "id": 108,
    "treePattern": "Tree_Area_Xm_Tree_Common_Palm_02_Lod0",
    "treeType": "TREE_TYPE_MELIA"
  },
  {
    "id": 109,
    "treePattern": "Tree_Area_Xm_Tree_Common_Sxs_01_Lod0",
    "treeType": "TREE_TYPE_MARATTIA"
  },
  {
    "id": 110,
    "treePattern": "Tree_Area_Xm_Tree_Common_Sxs_03_Lod0",
    "treeType": "TREE_TYPE_MARATTIA"
  },
  {
    "id": 111,
    "treePattern": "Tree_Area_Xm_Tree_Common_Tieshu_03_Lod0",
    "treeType": "TREE_TYPE_MARATTIA"
  },
  {
    "id": 112,
    "treePattern": "Tree_Area_Xm_Tree_CWSM_Ds_01_Lod0",
    "treeType": "TREE_TYPE_TAMARIX"
  },
  {
    "id": 114,
    "treePattern": "Tree_Area_Xm_Tree_CWSM_Yzs_03_Lod0",
    "treeType": "TREE_TYPE_TAMARIX"
  },
  {
    "id": 115,
    "treePattern": "Tree_Area_Xm_Tree_SH_Hys_03_Lod0",
    "treeType": "TREE_TYPE_TAMARIX"
  },
  {
    "id": 116,
    "treePattern": "Tree_Area_Xm_Tree_SH_Hys_04_Lod0",
    "treeType": "TREE_TYPE_TAMARIX"
  },
  {
    "id": 117,
    "treePattern": "Tree_Area_Xm_Tree_SH_Hys_05_Lod0",
    "treeType": "TREE_TYPE_TAMARIX"
  },
  {
    "id": 118,
    "treePattern": "Area_Fd_Tree_Common_BaiShu_01_Lod0",
    "treeType": "TREE_TYPE_CUPRESSUS_SEMPERVIRENS"
  },
  {
    "id": 119,
    "treePattern": "Area_Fd_Tree_Common_BaiShu_02_Lod0",
    "treeType": "TREE_TYPE_CUPRESSUS_SEMPERVIRENS"
  },
  {
    "id": 120,
    "treePattern": "Area_Fd_Tree_Common_BaiShu_03_Lod0",
    "treeType": "TREE_TYPE_CUPRESSUS_SEMPERVIRENS"
  },
  {
    "id": 121,
    "treePattern": "Area_Fd_Tree_Common_DaShu_B_01_Lod0",
    "treeType": "TREE_TYPE_TILIA_CORDATA"
  },
  {
    "id": 122,
    "treePattern": "Area_Fd_Tree_Common_DaShu_B_02_Lod0",
    "treeType": "TREE_TYPE_TILIA_CORDATA"
  },
  {
    "id": 123,
    "treePattern": "Area_Fd_Tree_Common_Hygm_01_Lod0",
    "treeType": "TREE_TYPE_FRAXINUS_EXCELSIOR"
  },
  {
    "id": 124,
    "treePattern": "Area_Fd_Tree_Common_Hygm_02_Lod0",
    "treeType": "TREE_TYPE_FRAXINUS_EXCELSIOR"
  },
  {
    "id": 125,
    "treePattern": "Area_Fd_Tree_Common_Pingsong_01_Lod0",
    "treeType": "TREE_TYPE_PLATANUS_ACERIFOLIA"
  },
  {
    "id": 126,
    "treePattern": "Area_Fd_Tree_Common_Pingsong_02_Lod0",
    "treeType": "TREE_TYPE_PLATANUS_ACERIFOLIA"
  },
  {
    "id": 127,
    "treePattern": "Area_Fd_Tree_Common_Pingsong_03_Lod0",
    "treeType": "TREE_TYPE_PLATANUS_ACERIFOLIA"
  },
  {
    "id": 128,
    "treePattern": "Area_Fd_Tree_Common_Pingsong_04_Lod0",
    "treeType": "TREE_TYPE_PLATANUS_ACERIFOLIA"
  },
  {
    "id": 129,
    "treePattern": "Area_Fd_Tree_Common_Songshus_01_Lod0",
    "treeType": "TREE_TYPE_CUPRESSUS_SEMPERVIRENS"
  },
  {
    "id": 130,
    "treePattern": "Area_Fd_Tree_Common_Songshus_02_Lod0",
    "treeType": "TREE_TYPE_CUPRESSUS_SEMPERVIRENS"
  },
  {
    "id": 131,
    "treePattern": "Area_Fd_Tree_Common_Songshus_03_Lod0",
    "treeType": "TREE_TYPE_CUPRESSUS_SEMPERVIRENS"
  },
  {
    "id": 132,
    "treePattern": "Area_Fd_Tree_Common_Songshus_04_Lod0",
    "treeType": "TREE_TYPE_CUPRESSUS_SEMPERVIRENS"
  },
  {
    "id": 133,
    "treePattern": "Area_Fd_Tree_Common_Songshus_05_Lod0",
    "treeType": "TREE_TYPE_CUPRESSUS_SEMPERVIRENS"
  },
  {
    "id": 134,
    "treePattern": "Area_Fd_Tree_Common_Songshus_06_Lod0",
    "treeType": "TREE_TYPE_CUPRESSUS_SEMPERVIRENS"
  },
  {
    "id": 135,
    "treePattern": "Area_Fd_Tree_Common_Songshus_08_Lod0",
    "treeType": "TREE_TYPE_CUPRESSUS_SEMPERVIRENS"
  },
  {
    "id": 136,
    "treePattern": "Area_Fd_Tree_Common_Songshus_09_Lod0",
    "treeType": "TREE_TYPE_CUPRESSUS_SEMPERVIRENS"
  },
  {
    "id": 137,
    "treePattern": "Area_Fd_Tree_Common_Songshus_10_Lod0",
    "treeType": "TREE_TYPE_CUPRESSUS_SEMPERVIRENS"
  },
  {
    "id": 138,
    "treePattern": "Area_Fd_Tree_Common_Songshus_11_Lod0",
    "treeType": "TREE_TYPE_CUPRESSUS_SEMPERVIRENS"
  },
  {
    "id": 139,
    "treePattern": "Area_Fd_Tree_HZPQ_XueSong_06_Lod0",
    "treeType": "TREE_TYPE_CUPRESSUS_SEMPERVIRENS"
  },
  {
    "id": 140,
    "treePattern": "Area_Fd_Tree_HZPQ_XueSong_07_Lod0",
    "treeType": "TREE_TYPE_CUPRESSUS_SEMPERVIRENS"
  },
  {
    "id": 141,
    "treePattern": "Area_Fd_Tree_HZPQ_XueSong_08_Lod0",
    "treeType": "TREE_TYPE_CUPRESSUS_SEMPERVIRENS"
  },
  {
    "id": 142,
    "treePattern": "Area_Fd_Tree_HZPQ_XueSong_09_Lod0",
    "treeType": "TREE_TYPE_CUPRESSUS_SEMPERVIRENS"
  },
  {
    "id": 143,
    "treePattern": "Area_Fd_Tree_JSD_FireLeaves_01_Lod0",
    "treeType": "TREE_TYPE_COTINUS"
  },
  {
    "id": 144,
    "treePattern": "Area_Fd_Tree_JSD_FireLeaves_02_Lod0",
    "treeType": "TREE_TYPE_COTINUS"
  },
  {
    "id": 145,
    "treePattern": "Area_Fd_Tree_JSNQ_Hudieshu_01_Lod0",
    "treeType": "TREE_TYPE_COTINUS"
  },
  {
    "id": 146,
    "treePattern": "Area_Fd_Tree_JSNQ_Hudieshu_02_Lod0",
    "treeType": "TREE_TYPE_COTINUS"
  },
  {
    "id": 147,
    "treePattern": "Area_Fd_Tree_PQS_XueSong_01_Lod0",
    "treeType": "TREE_TYPE_CUPRESSUS_SEMPERVIRENS"
  },
  {
    "id": 148,
    "treePattern": "Area_Fd_Tree_PQS_XueSong_02_Lod0",
    "treeType": "TREE_TYPE_CUPRESSUS_SEMPERVIRENS"
  },
  {
    "id": 149,
    "treePattern": "Area_Fd_Tree_PQS_XueSong_03_Lod0",
    "treeType": "TREE_TYPE_CUPRESSUS_SEMPERVIRENS"
  },
  {
    "id": 150,
    "treePattern": "Area_Fd_Tree_PSHA_XueSong_LutTree_01_Fin",
    "treeType": "TREE_TYPE_CUPRESSUS_SEMPERVIRENS"
  },
  {
    "id": 151,
    "treePattern": "Area_Fd_Tree_PSHA_XueSong_LutTree_03_Fin",
    "treeType": "TREE_TYPE_CUPRESSUS_SEMPERVIRENS"
  },
  {
    "id": 152,
    "treePattern": "Tree__Area_Cyg_Tree_Common_Sbb_LutTree_02_Lod0",
    "treeType": "TREE_TYPE_BAMBOO"
  },
  {
    "id": 155,
    "treePattern": "Tree__Area_Cyg_Tree_Common_Pt_LutTree_04_Lod0",
    "treeType": "TREE_TYPE_PINE"
  },
  {
    "id": 156,
    "treePattern": "Tree__Area_Cyg_Tree_Common_Pt_LutTree_06_Lod0",
    "treeType": "TREE_TYPE_PINE"
  },
  {
    "id": 157,
    "treePattern": "Tree__Area_Cyg_Tree_Common_Pt_LutTree_02_Lod0",
    "treeType": "TREE_TYPE_PINE"
  },
  {
    "id": 158,
    "treePattern": "Tree__Area_Cyg_Tree_Common_Pt_LutTree_01_Lod0",
    "treeType": "TREE_TYPE_PINE"
  },
  {
    "id": 159,
    "treePattern": "Tree__Area_Cyg_Tree_Common_Lxs_LutTree_06_Lod0",
    "treeType": "TREE_TYPE_CYPRESS"
  },
  {
    "id": 160,
    "treePattern": "Tree__Area_Cyg_Tree_Common_Lxs_LutTree_03_Lod0",
    "treeType": "TREE_TYPE_CYPRESS"
  },
  {
    "id": 162,
    "treePattern": "Tree__Cyg_Tree_Common_Lxs_LutTree_01_Lod0",
    "treeType": "TREE_TYPE_CYPRESS"
  },
  {
    "id": 163,
    "treePattern": "Tree__Cyg_Tree_Common_Fs_01_01_Fin",
    "treeType": "TREE_TYPE_CYPRESS"
  },
  {
    "id": 164,
    "treePattern": "Tree_Area_Nt_Tree_Common_Yellow_LutTree_02_Lod0",
    "treeType": "TREE_TYPE_QUERCUS"
  },
  {
    "id": 165,
    "treePattern": "Tree_Area_Nt_Tree_Common_PlainSmall_LutTree_01_Lod0",
    "treeType": "TREE_TYPE_QUERCUS"
  },
  {
    "id": 166,
    "treePattern": "Tree_Area_Nt_Tree_Common_PlainSmall_LutTree_02_Lod0",
    "treeType": "TREE_TYPE_QUERCUS"
  },
  {
    "id": 167,
    "treePattern": "Tree_Area_Nt_Tree_Common_PlainSmall_LutTree_03_Lod0",
    "treeType": "TREE_TYPE_QUERCUS"
  },
  {
    "id": 168,
    "treePattern": "Tree_Area_Nt_Tree_Common_PlainSmall_LutTree_07_Lod0",
    "treeType": "TREE_TYPE_QUERCUS"
  },
  {
    "id": 169,
    "treePattern": "Tree_Area_Nt_Tree_Common_PlainSmall_LutTree_08_Lod0",
    "treeType": "TREE_TYPE_QUERCUS"
  },
  {
    "id": 170,
    "treePattern": "Tree_Area_Nt_Tree_Common_WetlandBig_01_Lod0",
    "treeType": "TREE_TYPE_DELICIOSA"
  },
  {
    "id": 176,
    "treePattern": "Tree_Area_Nt_Tree_Common_AllSmall_LutTree_03_Lod0",
    "treeType": "TREE_TYPE_COUROUPITA"
  },
  {
    "id": 182,
    "treePattern": "Tree_Area_Nt_Tree_Common_AllSmall_LutTree_04_Lod0",
    "treeType": "TREE_TYPE_COUROUPITA"
  },
  {
    "id": 188,
    "treePattern": "Tree_Area_Nt_Tree_Common_AllSmall_LutTree_05_Lod0",
    "treeType": "TREE_TYPE_COUROUPITA"
  },
  {
    "id": 194,
    "treePattern": "Tree_Area_Nt_Tree_Common_Cactus_02_Lod0",
    "treeType": "TREE_TYPE_COUROUPITA"
  },
  {
    "id": 200,
    "treePattern": "Tree_Area_Nt_Tree_LCGY_DLT_01_Lod0",
    "treeType": "TREE_TYPE_BACTRIS"
  },
  {
    "id": 206,
    "treePattern": "Tree_Area_Nt_Tree_LCGY_DLT_02_Lod0",
    "treeType": "TREE_TYPE_BACTRIS"
  },
  {
    "id": 212,
    "treePattern": "Tree_Area_Nt_Tree_LCGY_DLT_03_Lod0",
    "treeType": "TREE_TYPE_BACTRIS"
  }
]