[
  {
    "materialId": 10001,
    "GMGAPHBLMOP": 101,
    "OCHGFCOGCAD": 100
  },
  {
    "materialId": 10002,
    "GMGAPHBLMOP": 101,
    "OCHGFCOGCAD": 100
  },
  {
    "materialId": 10003,
    "GMGAPHBLMOP": 101,
    "OCHGFCOGCAD": 100
  },
  {
    "materialId": 10004,
    "GMGAPHBLMOP": 101,
    "OCHGFCOGCAD": 100
  },
  {
    "materialId": 10005,
    "GMGAPHBLMOP": 101,
    "OCHGFCOGCAD": 100
  },
  {
    "materialId": 10006,
    "GMGAPHBLMOP": 101,
    "OCHGFCOGCAD": 100
  },
  {
    "materialId": 10007,
    "GMGAPHBLMOP": 101,
    "OCHGFCOGCAD": 100
  },
  {
    "materialId": 10008,
    "GMGAPHBLMOP": 101,
    "OCHGFCOGCAD": 100
  },
  {
    "materialId": 10009,
    "GMGAPHBLMOP": 101,
    "OCHGFCOGCAD": 100
  },
  {
    "materialId": 10010,
    "GMGAPHBLMOP": 101,
    "OCHGFCOGCAD": 100
  },
  {
    "materialId": 10011,
    "GMGAPHBLMOP": 101,
    "OCHGFCOGCAD": 100
  },
  {
    "materialId": 10012,
    "GMGAPHBLMOP": 101,
    "OCHGFCOGCAD": 100
  },
  {
    "materialId": 10013,
    "GMGAPHBLMOP": 101,
    "OCHGFCOGCAD": 100
  },
  {
    "materialId": 10014,
    "GMGAPHBLMOP": 101,
    "OCHGFCOGCAD": 100
  },
  {
    "materialId": 10015,
    "GMGAPHBLMOP": 101,
    "OCHGFCOGCAD": 100
  },
  {
    "materialId": 10016,
    "GMGAPHBLMOP": 101,
    "OCHGFCOGCAD": 100
  },
  {
    "materialId": 10017,
    "GMGAPHBLMOP": 101,
    "OCHGFCOGCAD": 100
  },
  {
    "materialId": 10018,
    "GMGAPHBLMOP": 101,
    "OCHGFCOGCAD": 100
  },
  {
    "materialId": 10019,
    "GMGAPHBLMOP": 101,
    "OCHGFCOGCAD": 100
  },
  {
    "materialId": 10020,
    "GMGAPHBLMOP": 101,
    "OCHGFCOGCAD": 100
  },
  {
    "materialId": 10021,
    "GMGAPHBLMOP": 101,
    "OCHGFCOGCAD": 100
  },
  {
    "materialId": 10022,
    "GMGAPHBLMOP": 101,
    "OCHGFCOGCAD": 100
  },
  {
    "materialId": 10023,
    "GMGAPHBLMOP": 101,
    "OCHGFCOGCAD": 100
  },
  {
    "materialId": 10024,
    "GMGAPHBLMOP": 101,
    "OCHGFCOGCAD": 100
  },
  {
    "materialId": 10025,
    "GMGAPHBLMOP": 101,
    "OCHGFCOGCAD": 100
  },
  {
    "materialId": 10026,
    "GMGAPHBLMOP": 101,
    "OCHGFCOGCAD": 100
  },
  {
    "materialId": 10027,
    "GMGAPHBLMOP": 101,
    "OCHGFCOGCAD": 100
  },
  {
    "materialId": 10028,
    "GMGAPHBLMOP": 101,
    "OCHGFCOGCAD": 100
  },
  {
    "materialId": 10029,
    "GMGAPHBLMOP": 101,
    "OCHGFCOGCAD": 100
  },
  {
    "materialId": 10030,
    "GMGAPHBLMOP": 101,
    "OCHGFCOGCAD": 100
  },
  {
    "materialId": 10031,
    "GMGAPHBLMOP": 101,
    "OCHGFCOGCAD": 100
  },
  {
    "materialId": 10032,
    "GMGAPHBLMOP": 101,
    "OCHGFCOGCAD": 100
  },
  {
    "materialId": 10033,
    "GMGAPHBLMOP": 101,
    "OCHGFCOGCAD": 100
  },
  {
    "materialId": 10034,
    "GMGAPHBLMOP": 101,
    "OCHGFCOGCAD": 100
  },
  {
    "materialId": 10035,
    "GMGAPHBLMOP": 101,
    "OCHGFCOGCAD": 100
  },
  {
    "materialId": 10036,
    "GMGAPHBLMOP": 101,
    "OCHGFCOGCAD": 100
  },
  {
    "materialId": 10037,
    "GMGAPHBLMOP": 101,
    "OCHGFCOGCAD": 100
  },
  {
    "materialId": 10038,
    "GMGAPHBLMOP": 101,
    "OCHGFCOGCAD": 100
  },
  {
    "materialId": 10039,
    "GMGAPHBLMOP": 101,
    "OCHGFCOGCAD": 100
  },
  {
    "materialId": 10040,
    "GMGAPHBLMOP": 101,
    "OCHGFCOGCAD": 100
  },
  {
    "materialId": 10041,
    "GMGAPHBLMOP": 101,
    "OCHGFCOGCAD": 100
  },
  {
    "materialId": 10042,
    "GMGAPHBLMOP": 101,
    "OCHGFCOGCAD": 100
  },
  {
    "materialId": 10043,
    "GMGAPHBLMOP": 101,
    "OCHGFCOGCAD": 100
  },
  {
    "materialId": 10044,
    "GMGAPHBLMOP": 101,
    "OCHGFCOGCAD": 100
  },
  {
    "materialId": 10045,
    "GMGAPHBLMOP": 101,
    "OCHGFCOGCAD": 100
  },
  {
    "materialId": 10046,
    "GMGAPHBLMOP": 101,
    "OCHGFCOGCAD": 100
  },
  {
    "materialId": 10047,
    "GMGAPHBLMOP": 101,
    "OCHGFCOGCAD": 100
  },
  {
    "materialId": 10048,
    "GMGAPHBLMOP": 101,
    "OCHGFCOGCAD": 100
  },
  {
    "materialId": 10049,
    "GMGAPHBLMOP": 101,
    "OCHGFCOGCAD": 100
  },
  {
    "materialId": 10050,
    "GMGAPHBLMOP": 101,
    "OCHGFCOGCAD": 100
  },
  {
    "materialId": 10051,
    "GMGAPHBLMOP": 101,
    "OCHGFCOGCAD": 100
  },
  {
    "materialId": 10052,
    "GMGAPHBLMOP": 101,
    "OCHGFCOGCAD": 100
  },
  {
    "materialId": 10053,
    "GMGAPHBLMOP": 101,
    "OCHGFCOGCAD": 100
  },
  {
    "materialId": 10054,
    "GMGAPHBLMOP": 101,
    "OCHGFCOGCAD": 100
  },
  {
    "materialId": 10055,
    "GMGAPHBLMOP": 101,
    "OCHGFCOGCAD": 100
  },
  {
    "materialId": 10056,
    "GMGAPHBLMOP": 101,
    "OCHGFCOGCAD": 100
  },
  {
    "materialId": 10057,
    "GMGAPHBLMOP": 101,
    "OCHGFCOGCAD": 100
  },
  {
    "materialId": 10058,
    "GMGAPHBLMOP": 101,
    "OCHGFCOGCAD": 100
  },
  {
    "materialId": 10059,
    "GMGAPHBLMOP": 101,
    "OCHGFCOGCAD": 100
  },
  {
    "materialId": 10060,
    "GMGAPHBLMOP": 101,
    "OCHGFCOGCAD": 100
  },
  {
    "materialId": 10061,
    "GMGAPHBLMOP": 101,
    "OCHGFCOGCAD": 100
  },
  {
    "materialId": 10062,
    "GMGAPHBLMOP": 101,
    "OCHGFCOGCAD": 100
  },
  {
    "materialId": 10063,
    "GMGAPHBLMOP": 101,
    "OCHGFCOGCAD": 100
  },
  {
    "materialId": 10064,
    "GMGAPHBLMOP": 101,
    "OCHGFCOGCAD": 100
  },
  {
    "materialId": 10065,
    "GMGAPHBLMOP": 101,
    "OCHGFCOGCAD": 100
  },
  {
    "materialId": 20001,
    "GMGAPHBLMOP": 101,
    "OCHGFCOGCAD": 40
  },
  {
    "materialId": 20002,
    "GMGAPHBLMOP": 101,
    "OCHGFCOGCAD": 40
  },
  {
    "materialId": 20003,
    "GMGAPHBLMOP": 101,
    "OCHGFCOGCAD": 40
  },
  {
    "materialId": 20004,
    "GMGAPHBLMOP": 101,
    "OCHGFCOGCAD": 40
  },
  {
    "materialId": 20005,
    "GMGAPHBLMOP": 101,
    "OCHGFCOGCAD": 40
  },
  {
    "materialId": 20006,
    "GMGAPHBLMOP": 101,
    "OCHGFCOGCAD": 40
  },
  {
    "materialId": 20007,
    "GMGAPHBLMOP": 101,
    "OCHGFCOGCAD": 40
  },
  {
    "materialId": 20008,
    "GMGAPHBLMOP": 101,
    "OCHGFCOGCAD": 40
  },
  {
    "materialId": 20009,
    "GMGAPHBLMOP": 101,
    "OCHGFCOGCAD": 40
  },
  {
    "materialId": 20010,
    "GMGAPHBLMOP": 101,
    "OCHGFCOGCAD": 40
  },
  {
    "materialId": 20011,
    "GMGAPHBLMOP": 101,
    "OCHGFCOGCAD": 40
  },
  {
    "materialId": 20012,
    "GMGAPHBLMOP": 101,
    "OCHGFCOGCAD": 40
  },
  {
    "materialId": 20013,
    "GMGAPHBLMOP": 101,
    "OCHGFCOGCAD": 40
  },
  {
    "materialId": 20014,
    "GMGAPHBLMOP": 101,
    "OCHGFCOGCAD": 40
  },
  {
    "materialId": 20015,
    "GMGAPHBLMOP": 101,
    "OCHGFCOGCAD": 40
  },
  {
    "materialId": 20016,
    "GMGAPHBLMOP": 101,
    "OCHGFCOGCAD": 40
  },
  {
    "materialId": 20017,
    "GMGAPHBLMOP": 101,
    "OCHGFCOGCAD": 40
  },
  {
    "materialId": 20018,
    "GMGAPHBLMOP": 101,
    "OCHGFCOGCAD": 40
  },
  {
    "materialId": 20019,
    "GMGAPHBLMOP": 101,
    "OCHGFCOGCAD": 40
  },
  {
    "materialId": 20020,
    "GMGAPHBLMOP": 101,
    "OCHGFCOGCAD": 40
  },
  {
    "materialId": 20021,
    "GMGAPHBLMOP": 101,
    "OCHGFCOGCAD": 40
  },
  {
    "materialId": 20022,
    "GMGAPHBLMOP": 101,
    "OCHGFCOGCAD": 40
  },
  {
    "materialId": 20023,
    "GMGAPHBLMOP": 101,
    "OCHGFCOGCAD": 40
  },
  {
    "materialId": 20024,
    "GMGAPHBLMOP": 101,
    "OCHGFCOGCAD": 40
  },
  {
    "materialId": 20025,
    "GMGAPHBLMOP": 101,
    "OCHGFCOGCAD": 40
  },
  {
    "materialId": 20026,
    "GMGAPHBLMOP": 101,
    "OCHGFCOGCAD": 40
  },
  {
    "materialId": 20027,
    "GMGAPHBLMOP": 101,
    "OCHGFCOGCAD": 40
  },
  {
    "materialId": 20028,
    "GMGAPHBLMOP": 101,
    "OCHGFCOGCAD": 40
  },
  {
    "materialId": 20029,
    "GMGAPHBLMOP": 101,
    "OCHGFCOGCAD": 40
  },
  {
    "materialId": 30001,
    "GMGAPHBLMOP": 101,
    "OCHGFCOGCAD": 20
  },
  {
    "materialId": 30002,
    "GMGAPHBLMOP": 101,
    "OCHGFCOGCAD": 20
  },
  {
    "materialId": 30003,
    "GMGAPHBLMOP": 101,
    "OCHGFCOGCAD": 20
  },
  {
    "materialId": 30004,
    "GMGAPHBLMOP": 101,
    "OCHGFCOGCAD": 20
  },
  {
    "materialId": 30005,
    "GMGAPHBLMOP": 101,
    "OCHGFCOGCAD": 20
  }
]