[
  {
    "id": 11428,
    "ONHKADIGJED": true,
    "PAFIKAGIBFL": "UI_EquipIcon_Sword_Purewill_Awaken",
    "JJJMMMFNNJE": "ART/Equip/AvatarEquip/Equip_Sword_Purewill/Equip_Sword_Purewill_OverrideTexture/Equip_Sword_Purewill_02_Tex_Diffuse",
    "MBBIDNLCELF": "ART/Equip/AvatarEquip/Equip_Sword_Purewill/Equip_Sword_Purewill_OverrideTexture/Equip_Sword_Purewill_01_Tex_Lightmap",
    "MIHJHDAFOMC": "UI_EquipIcon_Sword_Purewill_Awaken",
    "DCHFOHEKCBN": "ART/Equip/AvatarEquip/Equip_Sword_Purewill/Equip_Sword_Purewill_OverrideTexture/Equip_Sword_Purewill_02_Tex_Diffuse",
    "JICAMPKHPPC": "ART/Equip/AvatarEquip/Equip_Sword_Purewill/Equip_Sword_Purewill_OverrideTexture/Equip_Sword_Purewill_01_Tex_Lightmap"
  }
]