[
  {
    "materialID": 220001,
    "canUseInOtherWorld": true,
    "forbiddenSceneIdList": [],
    "MMDLPABOBHA": true,
    "forbiddenDungeonTypeList": [],
    "forbiddenDungeonPlayTypeList": [],
    "dungeonTypeWhiteList": []
  },
  {
    "materialID": 220002,
    "canUseInOtherWorld": true,
    "forbiddenSceneIdList": [],
    "MMDLPABOBHA": true,
    "forbiddenDungeonTypeList": [],
    "forbiddenDungeonPlayTypeList": [],
    "dungeonTypeWhiteList": []
  },
  {
    "materialID": 220003,
    "forbiddenSceneIdList": [],
    "MMDLPABOBHA": true,
    "forbiddenDungeonTypeList": [],
    "forbiddenDungeonPlayTypeList": [],
    "dungeonTypeWhiteList": []
  },
  {
    "materialID": 220004,
    "canUseInOtherWorld": true,
    "forbiddenSceneIdList": [],
    "canUseInDungeon": true,
    "canUseInMirrorBigWorld": true,
    "canUseInHomeworld": true,
    "MMDLPABOBHA": true,
    "forbiddenDungeonTypeList": [
      22
    ],
    "forbiddenDungeonPlayTypeList": [],
    "dungeonTypeWhiteList": []
  },
  {
    "materialID": 220005,
    "forbiddenSceneIdList": [
      4,
      7,
      9,
      10,
      100
    ],
    "FALHHOPHFOL": true,
    "MMDLPABOBHA": true,
    "forbiddenDungeonTypeList": [],
    "forbiddenDungeonPlayTypeList": [],
    "dungeonTypeWhiteList": []
  },
  {
    "materialID": 220006,
    "canUseInOtherWorld": true,
    "forbiddenSceneIdList": [],
    "canUseInDungeon": true,
    "canUseInMirrorBigWorld": true,
    "MMDLPABOBHA": true,
    "forbiddenDungeonTypeList": [
      12,
      18,
      22
    ],
    "forbiddenDungeonPlayTypeList": [],
    "dungeonTypeWhiteList": []
  },
  {
    "materialID": 220008,
    "canUseInOtherWorld": true,
    "canUseInRoom": true,
    "forbiddenSceneIdList": [],
    "canUseInLimitRegion": true,
    "canUseInDungeon": true,
    "canUseInMirrorBigWorld": true,
    "canUseInHomeworld": true,
    "FALHHOPHFOL": true,
    "MMDLPABOBHA": true,
    "forbiddenDungeonTypeList": [
      17,
      18,
      22,
      24,
      29,
      30,
      37,
      38,
      59,
      63,
      68,
      91
    ],
    "forbiddenDungeonPlayTypeList": [
      3
    ],
    "dungeonTypeWhiteList": []
  },
  {
    "materialID": 220009,
    "forbiddenSceneIdList": [],
    "MMDLPABOBHA": true,
    "forbiddenDungeonTypeList": [],
    "forbiddenDungeonPlayTypeList": [],
    "dungeonTypeWhiteList": []
  },
  {
    "materialID": 220013,
    "canUseInOtherWorld": true,
    "forbiddenSceneIdList": [],
    "MMDLPABOBHA": true,
    "forbiddenDungeonTypeList": [],
    "forbiddenDungeonPlayTypeList": [],
    "dungeonTypeWhiteList": []
  },
  {
    "materialID": 220014,
    "canUseInOtherWorld": true,
    "canUseInRoom": true,
    "forbiddenSceneIdList": [],
    "canUseInLimitRegion": true,
    "canUseInDungeon": true,
    "canUseInMirrorBigWorld": true,
    "canUseInHomeworld": true,
    "MMDLPABOBHA": true,
    "forbiddenDungeonTypeList": [],
    "forbiddenDungeonPlayTypeList": [],
    "dungeonTypeWhiteList": []
  },
  {
    "materialID": 220015,
    "canUseInOtherWorld": true,
    "canUseInRoom": true,
    "forbiddenSceneIdList": [],
    "canUseInLimitRegion": true,
    "canUseInDungeon": true,
    "canUseInMirrorBigWorld": true,
    "canUseInHomeworld": true,
    "MMDLPABOBHA": true,
    "forbiddenDungeonTypeList": [],
    "forbiddenDungeonPlayTypeList": [],
    "dungeonTypeWhiteList": []
  },
  {
    "materialID": 220016,
    "canUseInOtherWorld": true,
    "canUseInRoom": true,
    "forbiddenSceneIdList": [],
    "canUseInLimitRegion": true,
    "canUseInDungeon": true,
    "canUseInMirrorBigWorld": true,
    "canUseInHomeworld": true,
    "MMDLPABOBHA": true,
    "forbiddenDungeonTypeList": [],
    "forbiddenDungeonPlayTypeList": [],
    "dungeonTypeWhiteList": []
  },
  {
    "materialID": 220017,
    "canUseInOtherWorld": true,
    "forbiddenSceneIdList": [],
    "canUseInLimitRegion": true,
    "canUseInDungeon": true,
    "canUseInMirrorBigWorld": true,
    "MMDLPABOBHA": true,
    "forbiddenDungeonTypeList": [],
    "forbiddenDungeonPlayTypeList": [],
    "dungeonTypeWhiteList": []
  },
  {
    "materialID": 220018,
    "canUseInOtherWorld": true,
    "canUseInRoom": true,
    "forbiddenSceneIdList": [],
    "canUseInLimitRegion": true,
    "canUseInHomeworld": true,
    "FALHHOPHFOL": true,
    "MMDLPABOBHA": true,
    "forbiddenDungeonTypeList": [],
    "forbiddenDungeonPlayTypeList": [],
    "dungeonTypeWhiteList": []
  },
  {
    "materialID": 220019,
    "canUseInOtherWorld": true,
    "canUseInRoom": true,
    "forbiddenSceneIdList": [],
    "canUseInLimitRegion": true,
    "canUseInHomeworld": true,
    "FALHHOPHFOL": true,
    "MMDLPABOBHA": true,
    "forbiddenDungeonTypeList": [],
    "forbiddenDungeonPlayTypeList": [],
    "dungeonTypeWhiteList": []
  },
  {
    "materialID": 220020,
    "canUseInOtherWorld": true,
    "canUseInRoom": true,
    "forbiddenSceneIdList": [],
    "canUseInLimitRegion": true,
    "canUseInHomeworld": true,
    "FALHHOPHFOL": true,
    "MMDLPABOBHA": true,
    "forbiddenDungeonTypeList": [],
    "forbiddenDungeonPlayTypeList": [],
    "dungeonTypeWhiteList": []
  },
  {
    "materialID": 220021,
    "canUseInOtherWorld": true,
    "forbiddenSceneIdList": [],
    "MMDLPABOBHA": true,
    "forbiddenDungeonTypeList": [],
    "forbiddenDungeonPlayTypeList": [],
    "dungeonTypeWhiteList": []
  },
  {
    "materialID": 220022,
    "canUseInOtherWorld": true,
    "forbiddenSceneIdList": [],
    "MMDLPABOBHA": true,
    "forbiddenDungeonTypeList": [],
    "forbiddenDungeonPlayTypeList": [],
    "dungeonTypeWhiteList": []
  },
  {
    "materialID": 220023,
    "canUseInOtherWorld": true,
    "canUseInRoom": true,
    "forbiddenSceneIdList": [],
    "canUseInLimitRegion": true,
    "canUseInDungeon": true,
    "canUseInMirrorBigWorld": true,
    "canUseInHomeworld": true,
    "FALHHOPHFOL": true,
    "MMDLPABOBHA": true,
    "forbiddenDungeonTypeList": [],
    "forbiddenDungeonPlayTypeList": [],
    "dungeonTypeWhiteList": []
  },
  {
    "materialID": 220024,
    "canUseInOtherWorld": true,
    "canUseInRoom": true,
    "forbiddenSceneIdList": [],
    "canUseInDungeon": true,
    "canUseInMirrorBigWorld": true,
    "MMDLPABOBHA": true,
    "forbiddenDungeonTypeList": [
      22
    ],
    "forbiddenDungeonPlayTypeList": [],
    "dungeonTypeWhiteList": []
  },
  {
    "materialID": 220025,
    "canUseInOtherWorld": true,
    "canUseInRoom": true,
    "forbiddenSceneIdList": [],
    "canUseInHomeworld": true,
    "MMDLPABOBHA": true,
    "forbiddenDungeonTypeList": [],
    "forbiddenDungeonPlayTypeList": [],
    "dungeonTypeWhiteList": []
  },
  {
    "materialID": 220026,
    "forbiddenSceneIdList": [],
    "canUseInHomeworld": true,
    "MMDLPABOBHA": true,
    "forbiddenDungeonTypeList": [],
    "forbiddenDungeonPlayTypeList": [],
    "dungeonTypeWhiteList": []
  },
  {
    "materialID": 220027,
    "canUseInOtherWorld": true,
    "forbiddenSceneIdList": [],
    "forbiddenDungeonTypeList": [],
    "forbiddenDungeonPlayTypeList": [],
    "dungeonTypeWhiteList": []
  },
  {
    "materialID": 220028,
    "canUseInOtherWorld": true,
    "forbiddenSceneIdList": [],
    "vehicleLimit": "VEHICLE_LIMIT_ONLY_VEHICLE",
    "MMDLPABOBHA": true,
    "forbiddenDungeonTypeList": [],
    "forbiddenDungeonPlayTypeList": [],
    "dungeonTypeWhiteList": []
  },
  {
    "materialID": 220029,
    "canUseInOtherWorld": true,
    "forbiddenSceneIdList": [],
    "MMDLPABOBHA": true,
    "forbiddenDungeonTypeList": [],
    "forbiddenDungeonPlayTypeList": [],
    "dungeonTypeWhiteList": []
  },
  {
    "materialID": 220030,
    "canUseInOtherWorld": true,
    "forbiddenSceneIdList": [],
    "MMDLPABOBHA": true,
    "forbiddenDungeonTypeList": [],
    "forbiddenDungeonPlayTypeList": [],
    "dungeonTypeWhiteList": []
  },
  {
    "materialID": 220031,
    "canUseInOtherWorld": true,
    "forbiddenSceneIdList": [],
    "MMDLPABOBHA": true,
    "forbiddenDungeonTypeList": [],
    "forbiddenDungeonPlayTypeList": [],
    "dungeonTypeWhiteList": []
  },
  {
    "materialID": 220032,
    "canUseInOtherWorld": true,
    "forbiddenSceneIdList": [],
    "MMDLPABOBHA": true,
    "forbiddenDungeonTypeList": [],
    "forbiddenDungeonPlayTypeList": [],
    "dungeonTypeWhiteList": []
  },
  {
    "materialID": 220033,
    "canUseInOtherWorld": true,
    "forbiddenSceneIdList": [],
    "MMDLPABOBHA": true,
    "forbiddenDungeonTypeList": [],
    "forbiddenDungeonPlayTypeList": [],
    "dungeonTypeWhiteList": []
  },
  {
    "materialID": 220034,
    "forbiddenSceneIdList": [
      7
    ],
    "MMDLPABOBHA": true,
    "forbiddenDungeonTypeList": [],
    "forbiddenDungeonPlayTypeList": [],
    "dungeonTypeWhiteList": []
  },
  {
    "materialID": 220035,
    "canUseInOtherWorld": true,
    "forbiddenSceneIdList": [],
    "canUseInDungeon": true,
    "canUseInMirrorBigWorld": true,
    "canUseInHomeworld": true,
    "MMDLPABOBHA": true,
    "forbiddenDungeonTypeList": [
      22
    ],
    "forbiddenDungeonPlayTypeList": [],
    "dungeonTypeWhiteList": []
  },
  {
    "materialID": 220036,
    "forbiddenSceneIdList": [],
    "canUseInDungeon": true,
    "canUseInMirrorBigWorld": true,
    "MMDLPABOBHA": true,
    "forbiddenDungeonTypeList": [],
    "forbiddenDungeonPlayTypeList": [],
    "dungeonTypeWhiteList": []
  },
  {
    "materialID": 220037,
    "forbiddenSceneIdList": [],
    "MMDLPABOBHA": true,
    "forbiddenDungeonTypeList": [],
    "forbiddenDungeonPlayTypeList": [],
    "dungeonTypeWhiteList": []
  },
  {
    "materialID": 220038,
    "canUseInOtherWorld": true,
    "canUseInRoom": true,
    "forbiddenSceneIdList": [],
    "canUseInLimitRegion": true,
    "canUseInDungeon": true,
    "canUseInMirrorBigWorld": true,
    "canUseInHomeworld": true,
    "MMDLPABOBHA": true,
    "forbiddenDungeonTypeList": [],
    "forbiddenDungeonPlayTypeList": [],
    "dungeonTypeWhiteList": []
  },
  {
    "materialID": 220039,
    "canUseInOtherWorld": true,
    "canUseInRoom": true,
    "forbiddenSceneIdList": [],
    "canUseInDungeon": true,
    "canUseInMirrorBigWorld": true,
    "MMDLPABOBHA": true,
    "forbiddenDungeonTypeList": [],
    "forbiddenDungeonPlayTypeList": [],
    "dungeonTypeWhiteList": []
  },
  {
    "materialID": 220040,
    "canUseInOtherWorld": true,
    "canUseInRoom": true,
    "forbiddenSceneIdList": [],
    "canUseInDungeon": true,
    "canUseInMirrorBigWorld": true,
    "MMDLPABOBHA": true,
    "forbiddenDungeonTypeList": [],
    "forbiddenDungeonPlayTypeList": [],
    "dungeonTypeWhiteList": []
  },
  {
    "materialID": 220042,
    "forbiddenSceneIdList": [],
    "MMDLPABOBHA": true,
    "forbiddenDungeonTypeList": [],
    "forbiddenDungeonPlayTypeList": [],
    "dungeonTypeWhiteList": []
  },
  {
    "materialID": 220043,
    "canUseInOtherWorld": true,
    "forbiddenSceneIdList": [],
    "forbiddenDungeonTypeList": [],
    "forbiddenDungeonPlayTypeList": [],
    "dungeonTypeWhiteList": []
  },
  {
    "materialID": 220044,
    "canUseInOtherWorld": true,
    "canUseInRoom": true,
    "forbiddenSceneIdList": [],
    "canUseInHomeworld": true,
    "MMDLPABOBHA": true,
    "forbiddenDungeonTypeList": [],
    "forbiddenDungeonPlayTypeList": [],
    "dungeonTypeWhiteList": []
  },
  {
    "materialID": 220045,
    "canUseInOtherWorld": true,
    "canUseInRoom": true,
    "forbiddenSceneIdList": [],
    "canUseInLimitRegion": true,
    "canUseInDungeon": true,
    "canUseInMirrorBigWorld": true,
    "canUseInHomeworld": true,
    "MMDLPABOBHA": true,
    "forbiddenDungeonTypeList": [],
    "forbiddenDungeonPlayTypeList": [],
    "dungeonTypeWhiteList": []
  },
  {
    "materialID": 220046,
    "canUseInOtherWorld": true,
    "forbiddenSceneIdList": [],
    "forbiddenDungeonTypeList": [],
    "forbiddenDungeonPlayTypeList": [],
    "dungeonTypeWhiteList": []
  },
  {
    "materialID": 220047,
    "canUseInOtherWorld": true,
    "forbiddenSceneIdList": [],
    "MMDLPABOBHA": true,
    "forbiddenDungeonTypeList": [],
    "forbiddenDungeonPlayTypeList": [],
    "dungeonTypeWhiteList": []
  },
  {
    "materialID": 220048,
    "canUseInOtherWorld": true,
    "forbiddenSceneIdList": [],
    "canUseInDungeon": true,
    "canUseInMirrorBigWorld": true,
    "MMDLPABOBHA": true,
    "forbiddenDungeonTypeList": [
      22
    ],
    "forbiddenDungeonPlayTypeList": [],
    "dungeonTypeWhiteList": []
  },
  {
    "materialID": 220049,
    "canUseInOtherWorld": true,
    "forbiddenSceneIdList": [],
    "MMDLPABOBHA": true,
    "forbiddenDungeonTypeList": [],
    "forbiddenDungeonPlayTypeList": [],
    "dungeonTypeWhiteList": []
  },
  {
    "materialID": 220050,
    "canUseInOtherWorld": true,
    "forbiddenSceneIdList": [],
    "MMDLPABOBHA": true,
    "forbiddenDungeonTypeList": [],
    "forbiddenDungeonPlayTypeList": [],
    "dungeonTypeWhiteList": []
  },
  {
    "materialID": 220051,
    "canUseInOtherWorld": true,
    "canUseInRoom": true,
    "forbiddenSceneIdList": [],
    "canUseInHomeworld": true,
    "MMDLPABOBHA": true,
    "forbiddenDungeonTypeList": [],
    "forbiddenDungeonPlayTypeList": [],
    "dungeonTypeWhiteList": []
  },
  {
    "materialID": 220052,
    "canUseInOtherWorld": true,
    "canUseInRoom": true,
    "forbiddenSceneIdList": [],
    "MMDLPABOBHA": true,
    "forbiddenDungeonTypeList": [],
    "forbiddenDungeonPlayTypeList": [],
    "dungeonTypeWhiteList": []
  },
  {
    "materialID": 220053,
    "forbiddenSceneIdList": [],
    "forbiddenDungeonTypeList": [],
    "forbiddenDungeonPlayTypeList": [],
    "dungeonTypeWhiteList": []
  },
  {
    "materialID": 220061,
    "forbiddenSceneIdList": [],
    "MMDLPABOBHA": true,
    "forbiddenDungeonTypeList": [],
    "forbiddenDungeonPlayTypeList": [],
    "dungeonTypeWhiteList": []
  },
  {
    "materialID": 220062,
    "canUseInOtherWorld": true,
    "canUseInRoom": true,
    "forbiddenSceneIdList": [],
    "canUseInLimitRegion": true,
    "canUseInDungeon": true,
    "canUseInMirrorBigWorld": true,
    "canUseInHomeworld": true,
    "MMDLPABOBHA": true,
    "forbiddenDungeonTypeList": [],
    "forbiddenDungeonPlayTypeList": [],
    "dungeonTypeWhiteList": []
  },
  {
    "materialID": 220056,
    "canUseInOtherWorld": true,
    "canUseInRoom": true,
    "forbiddenSceneIdList": [],
    "canUseInHomeworld": true,
    "FALHHOPHFOL": true,
    "MMDLPABOBHA": true,
    "IHFMDFLPPEH": true,
    "forbiddenDungeonTypeList": [],
    "forbiddenDungeonPlayTypeList": [],
    "dungeonTypeWhiteList": []
  },
  {
    "materialID": 220057,
    "canUseInOtherWorld": true,
    "forbiddenSceneIdList": [],
    "MMDLPABOBHA": true,
    "forbiddenDungeonTypeList": [],
    "forbiddenDungeonPlayTypeList": [],
    "dungeonTypeWhiteList": []
  },
  {
    "materialID": 220058,
    "forbiddenSceneIdList": [],
    "MMDLPABOBHA": true,
    "forbiddenDungeonTypeList": [],
    "forbiddenDungeonPlayTypeList": [],
    "dungeonTypeWhiteList": []
  },
  {
    "materialID": 220059,
    "canUseInOtherWorld": true,
    "forbiddenSceneIdList": [
      100
    ],
    "MMDLPABOBHA": true,
    "forbiddenDungeonTypeList": [],
    "forbiddenDungeonPlayTypeList": [],
    "dungeonTypeWhiteList": []
  },
  {
    "materialID": 220064,
    "forbiddenSceneIdList": [],
    "MMDLPABOBHA": true,
    "forbiddenDungeonTypeList": [],
    "forbiddenDungeonPlayTypeList": [],
    "dungeonTypeWhiteList": []
  },
  {
    "materialID": 220065,
    "canUseInOtherWorld": true,
    "canUseInRoom": true,
    "forbiddenSceneIdList": [],
    "canUseInLimitRegion": true,
    "canUseInDungeon": true,
    "canUseInMirrorBigWorld": true,
    "canUseInHomeworld": true,
    "FALHHOPHFOL": true,
    "MMDLPABOBHA": true,
    "forbiddenDungeonTypeList": [],
    "forbiddenDungeonPlayTypeList": [],
    "dungeonTypeWhiteList": []
  },
  {
    "materialID": 220066,
    "canUseInOtherWorld": true,
    "canUseInRoom": true,
    "forbiddenSceneIdList": [],
    "canUseInHomeworld": true,
    "MMDLPABOBHA": true,
    "forbiddenDungeonTypeList": [],
    "forbiddenDungeonPlayTypeList": [],
    "dungeonTypeWhiteList": [
      1
    ]
  },
  {
    "materialID": 220063,
    "canUseInOtherWorld": true,
    "forbiddenSceneIdList": [],
    "FALHHOPHFOL": true,
    "MMDLPABOBHA": true,
    "forbiddenDungeonTypeList": [
      17,
      18,
      22,
      24,
      29,
      30
    ],
    "forbiddenDungeonPlayTypeList": [],
    "dungeonTypeWhiteList": []
  },
  {
    "materialID": 220067,
    "canUseInOtherWorld": true,
    "canUseInRoom": true,
    "forbiddenSceneIdList": [],
    "canUseInDungeon": true,
    "canUseInMirrorBigWorld": true,
    "MMDLPABOBHA": true,
    "forbiddenDungeonTypeList": [
      22
    ],
    "forbiddenDungeonPlayTypeList": [],
    "dungeonTypeWhiteList": []
  },
  {
    "materialID": 220070,
    "canUseInOtherWorld": true,
    "canUseInRoom": true,
    "forbiddenSceneIdList": [],
    "canUseInLimitRegion": true,
    "canUseInHomeworld": true,
    "FALHHOPHFOL": true,
    "MMDLPABOBHA": true,
    "forbiddenDungeonTypeList": [],
    "forbiddenDungeonPlayTypeList": [],
    "dungeonTypeWhiteList": []
  },
  {
    "materialID": 220071,
    "forbiddenSceneIdList": [],
    "forbiddenDungeonTypeList": [],
    "forbiddenDungeonPlayTypeList": [],
    "dungeonTypeWhiteList": []
  },
  {
    "materialID": 220072,
    "canUseInOtherWorld": true,
    "canUseInRoom": true,
    "forbiddenSceneIdList": [],
    "canUseInLimitRegion": true,
    "canUseInDungeon": true,
    "canUseInMirrorBigWorld": true,
    "canUseInHomeworld": true,
    "MMDLPABOBHA": true,
    "forbiddenDungeonTypeList": [],
    "forbiddenDungeonPlayTypeList": [],
    "dungeonTypeWhiteList": []
  },
  {
    "materialID": 220073,
    "forbiddenSceneIdList": [],
    "canUseInLimitRegion": true,
    "MMDLPABOBHA": true,
    "forbiddenDungeonTypeList": [],
    "forbiddenDungeonPlayTypeList": [],
    "dungeonTypeWhiteList": []
  },
  {
    "materialID": 220074,
    "canUseInOtherWorld": true,
    "canUseInRoom": true,
    "forbiddenSceneIdList": [],
    "canUseInLimitRegion": true,
    "canUseInDungeon": true,
    "canUseInMirrorBigWorld": true,
    "canUseInHomeworld": true,
    "MMDLPABOBHA": true,
    "forbiddenDungeonTypeList": [],
    "forbiddenDungeonPlayTypeList": [],
    "dungeonTypeWhiteList": []
  },
  {
    "materialID": 220075,
    "canUseInOtherWorld": true,
    "forbiddenSceneIdList": [],
    "canUseInLimitRegion": true,
    "MMDLPABOBHA": true,
    "forbiddenDungeonTypeList": [],
    "forbiddenDungeonPlayTypeList": [],
    "dungeonTypeWhiteList": []
  },
  {
    "materialID": 220076,
    "canUseInOtherWorld": true,
    "canUseInRoom": true,
    "forbiddenSceneIdList": [],
    "canUseInLimitRegion": true,
    "canUseInDungeon": true,
    "canUseInMirrorBigWorld": true,
    "canUseInHomeworld": true,
    "MMDLPABOBHA": true,
    "forbiddenDungeonTypeList": [],
    "forbiddenDungeonPlayTypeList": [],
    "dungeonTypeWhiteList": [
      45
    ]
  },
  {
    "materialID": 220077,
    "canUseInOtherWorld": true,
    "canUseInRoom": true,
    "forbiddenSceneIdList": [],
    "canUseInLimitRegion": true,
    "canUseInHomeworld": true,
    "MMDLPABOBHA": true,
    "forbiddenDungeonTypeList": [],
    "forbiddenDungeonPlayTypeList": [],
    "dungeonTypeWhiteList": []
  },
  {
    "materialID": 220078,
    "canUseInOtherWorld": true,
    "canUseInRoom": true,
    "forbiddenSceneIdList": [],
    "canUseInHomeworld": true,
    "MMDLPABOBHA": true,
    "forbiddenDungeonTypeList": [],
    "forbiddenDungeonPlayTypeList": [],
    "dungeonTypeWhiteList": []
  },
  {
    "materialID": 220079,
    "canUseInOtherWorld": true,
    "canUseInRoom": true,
    "forbiddenSceneIdList": [],
    "canUseInLimitRegion": true,
    "canUseInDungeon": true,
    "canUseInMirrorBigWorld": true,
    "canUseInHomeworld": true,
    "MMDLPABOBHA": true,
    "forbiddenDungeonTypeList": [],
    "forbiddenDungeonPlayTypeList": [],
    "dungeonTypeWhiteList": [
      45
    ]
  },
  {
    "materialID": 220080,
    "forbiddenSceneIdList": [],
    "MMDLPABOBHA": true,
    "forbiddenDungeonTypeList": [],
    "forbiddenDungeonPlayTypeList": [],
    "dungeonTypeWhiteList": []
  },
  {
    "materialID": 220082,
    "forbiddenSceneIdList": [],
    "MMDLPABOBHA": true,
    "forbiddenDungeonTypeList": [],
    "forbiddenDungeonPlayTypeList": [],
    "dungeonTypeWhiteList": []
  },
  {
    "materialID": 220083,
    "forbiddenSceneIdList": [],
    "MMDLPABOBHA": true,
    "forbiddenDungeonTypeList": [],
    "forbiddenDungeonPlayTypeList": [],
    "dungeonTypeWhiteList": []
  },
  {
    "materialID": 220084,
    "canUseInOtherWorld": true,
    "canUseInRoom": true,
    "forbiddenSceneIdList": [],
    "canUseInLimitRegion": true,
    "canUseInDungeon": true,
    "canUseInMirrorBigWorld": true,
    "canUseInHomeworld": true,
    "FALHHOPHFOL": true,
    "MMDLPABOBHA": true,
    "forbiddenDungeonTypeList": [],
    "forbiddenDungeonPlayTypeList": [],
    "dungeonTypeWhiteList": []
  },
  {
    "materialID": 220085,
    "forbiddenSceneIdList": [],
    "canUseInLimitRegion": true,
    "MMDLPABOBHA": true,
    "forbiddenDungeonTypeList": [],
    "forbiddenDungeonPlayTypeList": [],
    "dungeonTypeWhiteList": []
  },
  {
    "materialID": 220086,
    "canUseInOtherWorld": true,
    "forbiddenSceneIdList": [],
    "FALHHOPHFOL": true,
    "MMDLPABOBHA": true,
    "forbiddenDungeonTypeList": [],
    "forbiddenDungeonPlayTypeList": [],
    "dungeonTypeWhiteList": []
  },
  {
    "materialID": 220087,
    "forbiddenSceneIdList": [],
    "FALHHOPHFOL": true,
    "MMDLPABOBHA": true,
    "forbiddenDungeonTypeList": [],
    "forbiddenDungeonPlayTypeList": [],
    "dungeonTypeWhiteList": []
  },
  {
    "materialID": 220088,
    "forbiddenSceneIdList": [
      100
    ],
    "MMDLPABOBHA": true,
    "forbiddenDungeonTypeList": [],
    "forbiddenDungeonPlayTypeList": [],
    "dungeonTypeWhiteList": []
  },
  {
    "materialID": 220089,
    "canUseInOtherWorld": true,
    "forbiddenSceneIdList": [],
    "MMDLPABOBHA": true,
    "forbiddenDungeonTypeList": [],
    "forbiddenDungeonPlayTypeList": [],
    "dungeonTypeWhiteList": []
  },
  {
    "materialID": 220090,
    "canUseInOtherWorld": true,
    "forbiddenSceneIdList": [],
    "FALHHOPHFOL": true,
    "MMDLPABOBHA": true,
    "forbiddenDungeonTypeList": [],
    "forbiddenDungeonPlayTypeList": [],
    "dungeonTypeWhiteList": []
  },
  {
    "materialID": 220091,
    "canUseInOtherWorld": true,
    "forbiddenSceneIdList": [],
    "forbiddenDungeonTypeList": [],
    "forbiddenDungeonPlayTypeList": [],
    "dungeonTypeWhiteList": []
  },
  {
    "materialID": 220093,
    "canUseInOtherWorld": true,
    "canUseInRoom": true,
    "forbiddenSceneIdList": [],
    "canUseInLimitRegion": true,
    "canUseInDungeon": true,
    "canUseInMirrorBigWorld": true,
    "canUseInHomeworld": true,
    "FALHHOPHFOL": true,
    "MMDLPABOBHA": true,
    "forbiddenDungeonTypeList": [],
    "forbiddenDungeonPlayTypeList": [],
    "dungeonTypeWhiteList": []
  },
  {
    "materialID": 220094,
    "canUseInOtherWorld": true,
    "forbiddenSceneIdList": [],
    "canUseInDungeon": true,
    "FALHHOPHFOL": true,
    "MMDLPABOBHA": true,
    "forbiddenDungeonTypeList": [],
    "forbiddenDungeonPlayTypeList": [],
    "dungeonTypeWhiteList": []
  },
  {
    "materialID": 220095,
    "forbiddenSceneIdList": [],
    "FALHHOPHFOL": true,
    "MMDLPABOBHA": true,
    "forbiddenDungeonTypeList": [],
    "forbiddenDungeonPlayTypeList": [],
    "dungeonTypeWhiteList": []
  },
  {
    "materialID": 220096,
    "canUseInOtherWorld": true,
    "canUseInRoom": true,
    "forbiddenSceneIdList": [],
    "canUseInLimitRegion": true,
    "canUseInDungeon": true,
    "canUseInMirrorBigWorld": true,
    "canUseInHomeworld": true,
    "FALHHOPHFOL": true,
    "MMDLPABOBHA": true,
    "forbiddenDungeonTypeList": [],
    "forbiddenDungeonPlayTypeList": [],
    "dungeonTypeWhiteList": []
  },
  {
    "materialID": 220097,
    "canUseInOtherWorld": true,
    "canUseInRoom": true,
    "forbiddenSceneIdList": [],
    "canUseInHomeworld": true,
    "MMDLPABOBHA": true,
    "forbiddenDungeonTypeList": [],
    "forbiddenDungeonPlayTypeList": [],
    "dungeonTypeWhiteList": []
  },
  {
    "materialID": 220098,
    "canUseInOtherWorld": true,
    "forbiddenSceneIdList": [],
    "MMDLPABOBHA": true,
    "forbiddenDungeonTypeList": [],
    "forbiddenDungeonPlayTypeList": [],
    "dungeonTypeWhiteList": []
  },
  {
    "materialID": 220099,
    "forbiddenSceneIdList": [],
    "MMDLPABOBHA": true,
    "forbiddenDungeonTypeList": [],
    "forbiddenDungeonPlayTypeList": [],
    "dungeonTypeWhiteList": []
  },
  {
    "materialID": 220100,
    "forbiddenSceneIdList": [],
    "MMDLPABOBHA": true,
    "forbiddenDungeonTypeList": [],
    "forbiddenDungeonPlayTypeList": [],
    "dungeonTypeWhiteList": []
  },
  {
    "materialID": 220101,
    "canUseInOtherWorld": true,
    "canUseInRoom": true,
    "forbiddenSceneIdList": [],
    "canUseInDungeon": true,
    "canUseInMirrorBigWorld": true,
    "MMDLPABOBHA": true,
    "forbiddenDungeonTypeList": [
      22
    ],
    "forbiddenDungeonPlayTypeList": [],
    "dungeonTypeWhiteList": []
  },
  {
    "materialID": 220102,
    "canUseInOtherWorld": true,
    "canUseInRoom": true,
    "forbiddenSceneIdList": [],
    "canUseInLimitRegion": true,
    "canUseInHomeworld": true,
    "MMDLPABOBHA": true,
    "forbiddenDungeonTypeList": [],
    "forbiddenDungeonPlayTypeList": [],
    "dungeonTypeWhiteList": []
  },
  {
    "materialID": 220103,
    "canUseInOtherWorld": true,
    "forbiddenSceneIdList": [],
    "FALHHOPHFOL": true,
    "MMDLPABOBHA": true,
    "forbiddenDungeonTypeList": [],
    "forbiddenDungeonPlayTypeList": [],
    "dungeonTypeWhiteList": []
  },
  {
    "materialID": 220104,
    "forbiddenSceneIdList": [],
    "FALHHOPHFOL": true,
    "MMDLPABOBHA": true,
    "forbiddenDungeonTypeList": [],
    "forbiddenDungeonPlayTypeList": [],
    "dungeonTypeWhiteList": []
  },
  {
    "materialID": 220105,
    "canUseInOtherWorld": true,
    "canUseInRoom": true,
    "forbiddenSceneIdList": [],
    "canUseInLimitRegion": true,
    "canUseInDungeon": true,
    "canUseInMirrorBigWorld": true,
    "canUseInHomeworld": true,
    "MMDLPABOBHA": true,
    "forbiddenDungeonTypeList": [],
    "forbiddenDungeonPlayTypeList": [],
    "dungeonTypeWhiteList": []
  },
  {
    "materialID": 220106,
    "canUseInOtherWorld": true,
    "forbiddenSceneIdList": [],
    "MMDLPABOBHA": true,
    "forbiddenDungeonTypeList": [],
    "forbiddenDungeonPlayTypeList": [],
    "dungeonTypeWhiteList": []
  },
  {
    "materialID": 220107,
    "canUseInOtherWorld": true,
    "forbiddenSceneIdList": [],
    "canUseInHomeworld": true,
    "MMDLPABOBHA": true,
    "forbiddenDungeonTypeList": [],
    "forbiddenDungeonPlayTypeList": [],
    "dungeonTypeWhiteList": []
  },
  {
    "materialID": 220108,
    "canUseInOtherWorld": true,
    "canUseInRoom": true,
    "forbiddenSceneIdList": [],
    "canUseInLimitRegion": true,
    "canUseInHomeworld": true,
    "MMDLPABOBHA": true,
    "forbiddenDungeonTypeList": [],
    "forbiddenDungeonPlayTypeList": [],
    "dungeonTypeWhiteList": []
  },
  {
    "materialID": 220109,
    "canUseInOtherWorld": true,
    "canUseInRoom": true,
    "forbiddenSceneIdList": [],
    "canUseInLimitRegion": true,
    "canUseInDungeon": true,
    "canUseInMirrorBigWorld": true,
    "canUseInHomeworld": true,
    "FALHHOPHFOL": true,
    "MMDLPABOBHA": true,
    "IHFMDFLPPEH": true,
    "forbiddenDungeonTypeList": [],
    "forbiddenDungeonPlayTypeList": [],
    "dungeonTypeWhiteList": []
  }
]