[
  {
    "materialID": 220001,
    "customizeDesc": [
      3629774591,
      871310425,
      2088703939
    ],
    "pushTipsId": 13449
  },
  {
    "materialID": 220002,
    "customizeDesc": [
      2560125751,
      1328641489,
      908601947
    ],
    "pushTipsId": 13450
  },
  {
    "materialID": 220003,
    "customizeDesc": [
      3912737791,
      1994584561,
      1902183123
    ],
    "pushTipsId": 13455
  },
  {
    "materialID": 220004,
    "customizeDesc": [
      2585787631,
      3772038129,
      3898309475
    ]
  },
  {
    "materialID": 220005,
    "customizeDesc": [
      3230239311,
      470813393,
      2996411075
    ]
  },
  {
    "materialID": 220006,
    "customizeDesc": [
      1232107607,
      160823129,
      353373587
    ]
  },
  {
    "materialID": 220008,
    "customizeDesc": [
      1370426415,
      3930082457,
      3695954083
    ]
  },
  {
    "materialID": 220009,
    "customizeDesc": [
      949776055,
      1126483025,
      1853042083
    ],
    "pushTipsId": 13455
  },
  {
    "materialID": 220013,
    "showRedpoint": true,
    "customizeDesc": [
      4024216247,
      3699059993,
      4000908827
    ]
  },
  {
    "materialID": 220022,
    "showRedpoint": true,
    "customizeDesc": [
      4092527983,
      2007969305,
      659813587
    ]
  },
  {
    "materialID": 220025,
    "showRedpoint": true,
    "customizeDesc": [
      3954374743,
      398784097,
      1334199211
    ]
  },
  {
    "materialID": 220032,
    "customizeDesc": [
      2411881199,
      68529857,
      3332075995
    ],
    "pushTipsId": 13451
  },
  {
    "materialID": 220033,
    "showRedpoint": true,
    "customizeDesc": [
      153164423,
      789740985,
      3672517227
    ]
  },
  {
    "materialID": 220034,
    "showRedpoint": true,
    "customizeDesc": [
      3979191063,
      661219945,
      2348114187
    ],
    "pushTipsId": 13455
  },
  {
    "materialID": 220036,
    "showRedpoint": true,
    "customizeDesc": [
      2660381967,
      2724316497,
      3204774859
    ]
  },
  {
    "materialID": 220037,
    "showRedpoint": true,
    "customizeDesc": [
      3206580511,
      1677452441,
      3292890323
    ]
  },
  {
    "materialID": 220040,
    "showRedpoint": true,
    "customizeDesc": [
      4106203023,
      3286923729,
      1018109059
    ]
  },
  {
    "materialID": 220042,
    "showRedpoint": true,
    "customizeDesc": [
      428643663,
      2236791889,
      4012790659
    ],
    "pushTipsId": 10006
  },
  {
    "materialID": 220043,
    "showRedpoint": true,
    "customizeDesc": [
      790896367,
      2963530689,
      3022929467
    ],
    "pushTipsId": 7006
  },
  {
    "materialID": 220044,
    "showRedpoint": true,
    "customizeDesc": [
      4291642711,
      3325182625,
      3047131171
    ]
  },
  {
    "materialID": 220045,
    "customizeDesc": [
      2612586191,
      387953225,
      3587922451
    ]
  },
  {
    "materialID": 220046,
    "showRedpoint": true,
    "customizeDesc": [
      3420358031,
      4072873833,
      291567163
    ]
  },
  {
    "materialID": 220047,
    "showRedpoint": true,
    "customizeDesc": [
      950031727,
      1040923481,
      2648347931
    ],
    "pushTipsId": 7007
  },
  {
    "materialID": 220048,
    "showRedpoint": true,
    "customizeDesc": [
      763511239,
      853619401,
      348106803
    ],
    "pushTipsId": 7008
  },
  {
    "materialID": 220049,
    "showRedpoint": true,
    "customizeDesc": [
      2238263951,
      2625541041,
      1430309931
    ],
    "pushTipsId": 6047
  },
  {
    "materialID": 220050,
    "customizeDesc": [
      3922817951,
      1437155209,
      437074419
    ]
  },
  {
    "materialID": 220051,
    "showRedpoint": true,
    "customizeDesc": [
      1112373151,
      3752769785,
      4270725603
    ]
  },
  {
    "materialID": 220052,
    "showRedpoint": true,
    "customizeDesc": [
      1764517791,
      725073625,
      4241205203
    ]
  },
  {
    "materialID": 220053,
    "showRedpoint": true,
    "customizeDesc": [
      1498661975,
      840473161,
      986959043
    ]
  },
  {
    "materialID": 220061,
    "showRedpoint": true,
    "customizeDesc": [
      1177520583,
      2018690937,
      372892115
    ],
    "pushTipsId": 11084
  },
  {
    "materialID": 220056,
    "showRedpoint": true,
    "customizeDesc": [
      2852813343,
      3900628329,
      3670179307
    ],
    "pushTipsId": 11068
  },
  {
    "materialID": 220057,
    "showRedpoint": true,
    "customizeDesc": [
      4287875991,
      537569425,
      1072962267
    ],
    "pushTipsId": 13452
  },
  {
    "materialID": 220058,
    "showRedpoint": true,
    "customizeDesc": [
      1017209695,
      3471780177,
      614222219
    ],
    "pushTipsId": 13455
  },
  {
    "materialID": 220059,
    "showRedpoint": true,
    "customizeDesc": [
      1904792079,
      1718553505,
      694600843
    ]
  },
  {
    "materialID": 220064,
    "showRedpoint": true,
    "customizeDesc": [
      38724447,
      2698651009,
      3137073699
    ]
  },
  {
    "materialID": 220065,
    "showRedpoint": true,
    "customizeDesc": [
      429852231,
      2171368417,
      80606291
    ],
    "pushTipsId": 7009
  },
  {
    "materialID": 220066,
    "showRedpoint": true,
    "customizeDesc": [
      1572724991,
      1755779033,
      2858785027
    ]
  },
  {
    "materialID": 220063,
    "showRedpoint": true,
    "customizeDesc": [
      2446530815,
      340889033,
      3490791091
    ],
    "pushTipsId": 12015
  },
  {
    "materialID": 220067,
    "showRedpoint": true,
    "customizeDesc": [
      1837079575,
      1355229969,
      3452766107
    ]
  },
  {
    "materialID": 220070,
    "showRedpoint": true,
    "customizeDesc": [
      2409578791,
      501406721,
      1532265955
    ]
  },
  {
    "materialID": 220071,
    "showRedpoint": true,
    "customizeDesc": [
      3845421639,
      1901051577,
      631838467
    ]
  },
  {
    "materialID": 220072,
    "showRedpoint": true,
    "customizeDesc": [
      81470623,
      898131505,
      752938363
    ]
  },
  {
    "materialID": 220073,
    "showRedpoint": true,
    "customizeDesc": [
      2647912343,
      1013435057,
      3084958091
    ]
  },
  {
    "materialID": 220074,
    "showRedpoint": true,
    "customizeDesc": [
      3567145111,
      9308601,
      835124283
    ]
  },
  {
    "materialID": 220075,
    "showRedpoint": true,
    "customizeDesc": [
      6034143,
      2175415489,
      2683157907
    ],
    "pushTipsId": 12085
  },
  {
    "materialID": 220076,
    "showRedpoint": true,
    "customizeDesc": [
      3197806399,
      4256502657,
      4160052939
    ],
    "pushTipsId": 13072
  },
  {
    "materialID": 220077,
    "showRedpoint": true,
    "customizeDesc": [
      498647287,
      359429633,
      62091899
    ]
  },
  {
    "materialID": 220078,
    "showRedpoint": true,
    "customizeDesc": [
      3935581103,
      517901569,
      1555597907
    ]
  },
  {
    "materialID": 220079,
    "showRedpoint": true,
    "customizeDesc": [
      3670543959,
      1493048553,
      3702884515
    ],
    "pushTipsId": 13072
  },
  {
    "materialID": 220080,
    "showRedpoint": true,
    "customizeDesc": [
      998809799,
      2282477905,
      3536483195
    ]
  },
  {
    "materialID": 220082,
    "showRedpoint": true,
    "customizeDesc": [
      515736967,
      3299861545,
      2786720283
    ],
    "pushTipsId": 13089
  },
  {
    "materialID": 220083,
    "showRedpoint": true,
    "customizeDesc": [
      3153919439,
      166604769,
      291801147
    ],
    "pushTipsId": 13090
  },
  {
    "materialID": 220084,
    "showRedpoint": true,
    "customizeDesc": [
      584817463,
      1266936041,
      2385394051
    ]
  },
  {
    "materialID": 220085,
    "showRedpoint": true,
    "customizeDesc": [
      1804559383,
      134207177,
      1046806419
    ],
    "pushTipsId": 6140
  },
  {
    "materialID": 220086,
    "showRedpoint": true,
    "customizeDesc": [
      572229679,
      1221006617,
      239820899
    ],
    "pushTipsId": 13453
  },
  {
    "materialID": 220087,
    "showRedpoint": true,
    "customizeDesc": [
      609850263,
      3645138953,
      2272918731
    ],
    "pushTipsId": 13455
  },
  {
    "materialID": 220088,
    "showRedpoint": true,
    "customizeDesc": [
      1800411023,
      1345416185,
      3282531587
    ],
    "pushTipsId": 7010
  },
  {
    "materialID": 220089,
    "showRedpoint": true,
    "customizeDesc": [
      2988652415,
      472476865,
      4175494667
    ]
  },
  {
    "materialID": 220090,
    "showRedpoint": true,
    "customizeDesc": [
      865560831,
      1676140281,
      1691096515
    ],
    "pushTipsId": 13111
  },
  {
    "materialID": 220091,
    "showRedpoint": true,
    "customizeDesc": [
      800966327,
      475482321,
      1448253211
    ]
  },
  {
    "materialID": 220093,
    "showRedpoint": true,
    "customizeDesc": [
      2752770095,
      812976689,
      2469480379
    ],
    "pushTipsId": 7011
  },
  {
    "materialID": 220094,
    "showRedpoint": true,
    "customizeDesc": [
      3450161311,
      4028967385,
      3250206843
    ]
  },
  {
    "materialID": 220095,
    "showRedpoint": true,
    "customizeDesc": [
      3512184143,
      1391941769,
      717823155
    ],
    "pushTipsId": 13223
  },
  {
    "materialID": 220097,
    "showRedpoint": true,
    "customizeDesc": [
      3914166271,
      4281780705,
      2480834923
    ],
    "pushTipsId": 7012
  },
  {
    "materialID": 220098,
    "showRedpoint": true,
    "customizeDesc": [
      614403391,
      871761905,
      4278814011
    ]
  },
  {
    "materialID": 220099,
    "showRedpoint": true,
    "customizeDesc": [
      2852349111,
      3799025177,
      1263421419
    ],
    "pushTipsId": 13394
  },
  {
    "materialID": 220100,
    "showRedpoint": true,
    "customizeDesc": [
      3973045679,
      4022106393,
      560517611
    ],
    "pushTipsId": 13395
  },
  {
    "materialID": 220101,
    "showRedpoint": true,
    "customizeDesc": [
      2459822623,
      1780033529,
      2197306755
    ]
  },
  {
    "materialID": 220102,
    "showRedpoint": true,
    "customizeDesc": [
      3448766335,
      2427652577,
      2978107827
    ]
  },
  {
    "materialID": 220103,
    "showRedpoint": true,
    "customizeDesc": [
      1103403095,
      1781156681,
      3136475347
    ],
    "pushTipsId": 13454
  },
  {
    "materialID": 220104,
    "showRedpoint": true,
    "customizeDesc": [
      241206607,
      2664204577,
      2355195067
    ],
    "pushTipsId": 13455
  },
  {
    "materialID": 220105,
    "showRedpoint": true,
    "customizeDesc": [
      2558577631,
      2559305849,
      1910290467
    ]
  },
  {
    "materialID": 220106,
    "showRedpoint": true,
    "customizeDesc": [
      1744188919,
      2455814201,
      3102716963
    ]
  },
  {
    "materialID": 220107,
    "showRedpoint": true,
    "customizeDesc": [
      3709171991,
      1808973033,
      2908685699
    ]
  },
  {
    "materialID": 220108,
    "showRedpoint": true,
    "customizeDesc": [
      3181800647,
      1725669257,
      2153099411
    ]
  },
  {
    "materialID": 220109,
    "showRedpoint": true,
    "customizeDesc": [
      800339407,
      1819881521,
      608818523
    ],
    "pushTipsId": 7013
  }
]