[
  {
    "Default": {
      "$type": "CBPBEHLOHKI",
      "abilityName": "Animal_Capybara_Nyx_Pose",
      "abilityMixins": [
        {
          "$type": "AOKOIIHJJPJ",
          "alertness": [
            2
          ],
          "modifierName": "Capybara_Nyx_AlertHandler"
        }
      ],
      "modifiers": {
        "Capybara_Nyx_AlertHandler": {
          "modifierName": "",
          "IPFJJJGABPL": 100.0,
          "modifierMixins": [
            {
              "$type": "MLJAPFBGEEH",
              "globalValueKey": "_ANIMAL_Capybara_Nyx_Pose_",
              "gvInTalk": 1.0,
              "valueSteps": [
                0.5,
                1.5,
                2.5
              ],
              "modifierNameSteps": [
                "Pose_Normal",
                "Pose_Rage"
              ]
            }
          ],
          "onRemoved": [
            {
              "$type": "BOBCOJHOKKD",
              "param3": 0.0,
              "key": "_WATCHER_82237_ENBREAK_COUNT",
              "param2": 0.0,
              "repeatTimes": 0.0
            },
            {
              "$type": "BOBCOJHOKKD",
              "param3": 0.0,
              "key": "_WATCHER_82236_NO_RAGEATK_HIT",
              "param2": 0.0,
              "repeatTimes": 0.0
            }
          ]
        },
        "Pose_Normal": {
          "modifierName": "",
          "IPFJJJGABPL": 100.0,
          "onAdded": [
            {
              "$type": "GFFKENEJFFB",
              "intID": "StateType",
              "value": 1
            }
          ]
        },
        "Pose_Rage": {
          "modifierName": "",
          "IPFJJJGABPL": 100.0,
          "onAdded": [
            {
              "$type": "GFFKENEJFFB",
              "intID": "StateType",
              "value": 2
            }
          ]
        }
      },
      "onAdded": [
        {
          "$type": "BOBCOJHOKKD",
          "param3": 1.0,
          "key": "_ANIMAL_Capybara_Nyx_Pose_",
          "param2": 0.0,
          "repeatTimes": 0.0
        }
      ]
    }
  },
  {
    "Default": {
      "$type": "CBPBEHLOHKI",
      "abilityName": "Animal_Capybara_Nyx_Steer",
      "abilityMixins": [
        {
          "$type": "IILHMBGONGM",
          "steerStateIDs": [
            "NormalMove"
          ],
          "endNormalizedTime": 999.0,
          "angularSpeed": 90.0,
          "attackTrigger": "",
          "DGFCLAIDIFI": ""
        },
        {
          "$type": "IILHMBGONGM",
          "steerStateIDs": [
            "Run"
          ],
          "endNormalizedTime": 999.0,
          "angularSpeed": 90.0,
          "attackTrigger": "",
          "DGFCLAIDIFI": ""
        },
        {
          "$type": "IILHMBGONGM",
          "steerStateIDs": [
            "NormalAtk02_BS"
          ],
          "startNormalizedTime": 0.7310000061988831,
          "endNormalizedTime": 0.8560000061988831,
          "angularSpeed": 180.0,
          "attackTrigger": "",
          "DGFCLAIDIFI": ""
        },
        {
          "$type": "IILHMBGONGM",
          "steerStateIDs": [
            "NormalAtk02_Loop"
          ],
          "startNormalizedTime": 0.03799999877810478,
          "endNormalizedTime": 0.17399999499320984,
          "angularSpeed": 180.0,
          "attackTrigger": "",
          "DGFCLAIDIFI": ""
        },
        {
          "$type": "IILHMBGONGM",
          "steerStateIDs": [
            "NormalAtk02_Loop"
          ],
          "startNormalizedTime": 1.0379999876022339,
          "endNormalizedTime": 1.1740000247955322,
          "angularSpeed": 180.0,
          "attackTrigger": "",
          "DGFCLAIDIFI": ""
        },
        {
          "$type": "IILHMBGONGM",
          "steerStateIDs": [
            "NormalAtk02_Loop"
          ],
          "startNormalizedTime": 2.0380001068115234,
          "endNormalizedTime": 2.1740000247955322,
          "angularSpeed": 180.0,
          "attackTrigger": "",
          "DGFCLAIDIFI": ""
        },
        {
          "$type": "IILHMBGONGM",
          "steerStateIDs": [
            "NormalAtk02_Loop"
          ],
          "startNormalizedTime": 0.38100001215934753,
          "endNormalizedTime": 0.4650000035762787,
          "angularSpeed": 180.0,
          "attackTrigger": "",
          "DGFCLAIDIFI": ""
        },
        {
          "$type": "IILHMBGONGM",
          "steerStateIDs": [
            "NormalAtk02_Loop"
          ],
          "startNormalizedTime": 1.38100004196167,
          "endNormalizedTime": 1.465000033378601,
          "angularSpeed": 180.0,
          "attackTrigger": "",
          "DGFCLAIDIFI": ""
        },
        {
          "$type": "IILHMBGONGM",
          "steerStateIDs": [
            "NormalAtk02_Loop"
          ],
          "startNormalizedTime": 2.38100004196167,
          "endNormalizedTime": 2.4649999141693115,
          "angularSpeed": 180.0,
          "attackTrigger": "",
          "DGFCLAIDIFI": ""
        },
        {
          "$type": "IILHMBGONGM",
          "steerStateIDs": [
            "NormalAtk02_Loop"
          ],
          "startNormalizedTime": 0.5860000252723694,
          "endNormalizedTime": 0.7020000219345093,
          "angularSpeed": 180.0,
          "attackTrigger": "",
          "DGFCLAIDIFI": ""
        },
        {
          "$type": "IILHMBGONGM",
          "steerStateIDs": [
            "NormalAtk02_Loop"
          ],
          "startNormalizedTime": 1.5859999656677246,
          "endNormalizedTime": 1.7020000219345093,
          "angularSpeed": 180.0,
          "attackTrigger": "",
          "DGFCLAIDIFI": ""
        },
        {
          "$type": "IILHMBGONGM",
          "steerStateIDs": [
            "NormalAtk02_Loop"
          ],
          "startNormalizedTime": 2.5859999656677246,
          "endNormalizedTime": 2.7019999027252197,
          "angularSpeed": 180.0,
          "attackTrigger": "",
          "DGFCLAIDIFI": ""
        },
        {
          "$type": "IILHMBGONGM",
          "steerStateIDs": [
            "NormalAtk02_Loop"
          ],
          "startNormalizedTime": 0.8679999709129333,
          "endNormalizedTime": 0.9309999942779541,
          "angularSpeed": 180.0,
          "attackTrigger": "",
          "DGFCLAIDIFI": ""
        },
        {
          "$type": "IILHMBGONGM",
          "steerStateIDs": [
            "NormalAtk02_Loop"
          ],
          "startNormalizedTime": 1.8680000305175781,
          "endNormalizedTime": 1.930999994277954,
          "angularSpeed": 180.0,
          "attackTrigger": "",
          "DGFCLAIDIFI": ""
        },
        {
          "$type": "IILHMBGONGM",
          "steerStateIDs": [
            "NormalAtk02_Loop"
          ],
          "startNormalizedTime": 2.868000030517578,
          "endNormalizedTime": 2.930999994277954,
          "angularSpeed": 180.0,
          "attackTrigger": "",
          "DGFCLAIDIFI": ""
        },
        {
          "$type": "IILHMBGONGM",
          "steerStateIDs": [
            "NormalAtk01"
          ],
          "startNormalizedTime": 0.10999999940395355,
          "endNormalizedTime": 0.23600000143051147,
          "angularSpeed": 120.0,
          "attackTrigger": "",
          "DGFCLAIDIFI": ""
        },
        {
          "$type": "IILHMBGONGM",
          "steerStateIDs": [
            "NormalAtk03"
          ],
          "startNormalizedTime": 0.10999999940395355,
          "endNormalizedTime": 0.23600000143051147,
          "angularSpeed": 120.0,
          "attackTrigger": "",
          "DGFCLAIDIFI": ""
        },
        {
          "$type": "IILHMBGONGM",
          "steerStateIDs": [
            "NormalToRage_BeHit"
          ],
          "startNormalizedTime": 0.22200000286102295,
          "endNormalizedTime": 0.3070000112056732,
          "angularSpeed": 120.0,
          "attackTrigger": "",
          "DGFCLAIDIFI": ""
        },
        {
          "$type": "IILHMBGONGM",
          "steerStateIDs": [
            "NormalAtk_Rest"
          ],
          "startNormalizedTime": 0.22200000286102295,
          "endNormalizedTime": 0.3070000112056732,
          "angularSpeed": 120.0,
          "attackTrigger": "",
          "DGFCLAIDIFI": ""
        },
        {
          "$type": "IILHMBGONGM",
          "steerStateIDs": [
            "NormalAtk04_1",
            "NormalAtk02_AS2"
          ],
          "startNormalizedTime": 0.09000000357627869,
          "endNormalizedTime": 0.1899999976158142,
          "angularSpeed": 90.0,
          "attackTrigger": "",
          "DGFCLAIDIFI": ""
        },
        {
          "$type": "IILHMBGONGM",
          "steerStateIDs": [
            "NormalAtk04_2"
          ],
          "startNormalizedTime": 0.14000000059604645,
          "endNormalizedTime": 0.1899999976158142,
          "angularSpeed": 90.0,
          "attackTrigger": "",
          "DGFCLAIDIFI": ""
        }
      ]
    }
  },
  {
    "Default": {
      "$type": "CBPBEHLOHKI",
      "abilityName": "Animal_Capybara_Nyx_Alert",
      "abilityMixins": [
        {
          "$type": "EKMHJKDLBJH",
          "stateIDs": [
            "Alert"
          ],
          "modifierName": "Capybara_Nyx_Alert",
          "DGFCLAIDIFI": ""
        }
      ],
      "abilitySpecials": {
        "SubHurtRatio": 3.0
      },
      "modifiers": {
        "Capybara_Nyx_Alert": {
          "modifierName": "",
          "IPFJJJGABPL": 100.0,
          "properties": {
            "Actor_PhysicalSubHurtDelta": "SubHurtRatio",
            "Actor_FireSubHurtDelta": "SubHurtRatio",
            "Actor_ElecSubHurtDelta": "SubHurtRatio",
            "Actor_WaterSubHurtDelta": "SubHurtRatio",
            "Actor_GrassSubHurtDelta": "SubHurtRatio",
            "Actor_WindSubHurtDelta": "SubHurtRatio",
            "Actor_IceSubHurtDelta": "SubHurtRatio",
            "Actor_RockSubHurtDelta": "SubHurtRatio"
          }
        }
      }
    }
  },
  {
    "Default": {
      "$type": "CBPBEHLOHKI",
      "abilityName": "Animal_Capybara_Nyx_InitialConfig",
      "abilityMixins": [
        {
          "$type": "EKMHJKDLBJH",
          "stateIDs": [
            "NormalAtk01",
            "NormalAtk_Rest",
            "NormalAtk03",
            "NormalAtk02_BS",
            "NormalAtk02_Loop",
            "NormalAtk02_AS2",
            "NormalAtk04_1",
            "NormalAtk04_2"
          ],
          "modifierName": "Animal_Capybara_Nyx_CommonEndure",
          "DGFCLAIDIFI": ""
        },
        {
          "$type": "EKMHJKDLBJH",
          "stateIDs": [
            "NormalToRage_BS1",
            "NormalToRage_BS2",
            "NormalToRage_Loop",
            "NormalToRage_AS1",
            "NormalToRage_AS2",
            "NormalToRage_BeHit",
            "RageAtk_BS1",
            "RageAtk_BS2",
            "RageAtk_BS3",
            "RageAtk_Loop1",
            "RageAtk_Loop2",
            "RageAtk_Loop3",
            "RageAtk_AS1",
            "RageAtk_AS2",
            "RageAtk_AS3"
          ],
          "modifierName": "Animal_Capybara_Nyx_CommonRegist",
          "DGFCLAIDIFI": ""
        }
      ],
      "modifiers": {
        "Animal_Capybara_Nyx_InitialConfig": {
          "modifierName": "",
          "IPFJJJGABPL": 100.0,
          "onAdded": [
            {
              "$type": "OPAOGKPJLIG",
              "resistanceListID": 14002,
              "durationRatio": 0.8999999761581421
            }
          ]
        },
        "Animal_Capybara_Nyx_CommonEndure": {
          "modifierName": "",
          "IPFJJJGABPL": 100.0,
          "properties": {
            "Actor_EndureDelta": 0.0
          }
        },
        "Animal_Capybara_Nyx_CommonRegist": {
          "modifierName": "",
          "IPFJJJGABPL": 100.0,
          "onAdded": [
            {
              "$type": "OPAOGKPJLIG",
              "resistanceListID": 13002
            }
          ]
        },
        "Monster_Set_Ac_Level1": {
          "modifierName": "",
          "elementDurability": 0.029999999329447746,
          "IPFJJJGABPL": 100.0,
          "onAdded": [
            {
              "$type": "BOBCOJHOKKD",
              "param3": 1.0,
              "key": "_NYX_CHALLENGE_LEVEL",
              "param2": 0.0,
              "repeatTimes": 0.0
            }
          ]
        },
        "Monster_Set_Ac_Level2": {
          "modifierName": "",
          "elementDurability": 0.029999999329447746,
          "IPFJJJGABPL": 100.0,
          "onAdded": [
            {
              "$type": "BOBCOJHOKKD",
              "param3": 2.0,
              "key": "_NYX_CHALLENGE_LEVEL",
              "param2": 0.0,
              "repeatTimes": 0.0
            }
          ]
        },
        "Monster_Set_Ac_Level3": {
          "modifierName": "",
          "elementDurability": 0.029999999329447746,
          "IPFJJJGABPL": 100.0,
          "onAdded": [
            {
              "$type": "BOBCOJHOKKD",
              "param3": 3.0,
              "key": "_NYX_CHALLENGE_LEVEL",
              "param2": 0.0,
              "repeatTimes": 0.0
            }
          ]
        }
      },
      "onAdded": [
        {
          "$type": "BOBCOJHOKKD",
          "param3": 0.0,
          "key": "_WATCHER_82237_ENBREAK_COUNT",
          "param2": 0.0,
          "repeatTimes": 0.0
        },
        {
          "$type": "BOBCOJHOKKD",
          "param3": 0.0,
          "key": "_WATCHER_82236_NO_RAGEATK_HIT",
          "param2": 0.0,
          "repeatTimes": 0.0
        },
        {
          "$type": "KFCDMIMBBLD",
          "born": {
            "$type": "IAENDIPDFKD",
            "onGround": true,
            "alongGround": true,
            "useRotation": true
          },
          "sightGroupWithOwner": true,
          "lifeByOwnerV2": true,
          "gadgetID": 42802203,
          "byServer": true
        },
        {
          "$type": "MPAGCPPAIHJ",
          "key": "InitialPos",
          "born": {
            "$type": "IAENDIPDFKD",
            "onGround": true,
            "alongGround": true,
            "useRotation": true
          }
        },
        {
          "$type": "PELJALPANCA",
          "modifierName": "Animal_Capybara_Nyx_InitialConfig"
        }
      ],
      "onKill": [
        {
          "$type": "PELJALPANCA",
          "target": "Team",
          "modifierName": "Monster_Set_Ac_Level1"
        },
        {
          "$type": "PELJALPANCA",
          "target": "Team",
          "predicates": [
            {
              "$type": "CNGGLKHONAA",
              "target": "Self",
              "key": "_WATCHER_82236_NO_RAGEATK_HIT",
              "param3": 0.0,
              "compareType": "NoneOrEqual"
            },
            {
              "$type": "EBOHLEJJMIG",
              "IKILOJFBKMA": 82235
            }
          ],
          "modifierName": "Monster_Set_Ac_Level2"
        },
        {
          "$type": "PELJALPANCA",
          "target": "Team",
          "predicates": [
            {
              "$type": "CNGGLKHONAA",
              "target": "Self",
              "key": "_WATCHER_82237_ENBREAK_COUNT",
              "param3": 3.0,
              "compareType": "MoreThanAndEqual"
            },
            {
              "$type": "EBOHLEJJMIG",
              "IKILOJFBKMA": 82236
            }
          ],
          "modifierName": "Monster_Set_Ac_Level3"
        },
        {
          "$type": "HCLAKBJKPLE",
          "predicates": [
            {
              "$type": "CNGGLKHONAA",
              "target": "Self",
              "key": "_WATCHER_82237_ENBREAK_COUNT",
              "param3": 3.0,
              "compareType": "MoreThanAndEqual"
            },
            {
              "$type": "EBOHLEJJMIG",
              "IKILOJFBKMA": 82236
            }
          ],
          "watcherId": 82237
        },
        {
          "$type": "HCLAKBJKPLE",
          "predicates": [
            {
              "$type": "CNGGLKHONAA",
              "target": "Self",
              "key": "_WATCHER_82236_NO_RAGEATK_HIT",
              "param3": 0.0,
              "compareType": "NoneOrEqual"
            },
            {
              "$type": "EBOHLEJJMIG",
              "IKILOJFBKMA": 82235
            }
          ],
          "watcherId": 82236
        },
        {
          "$type": "HCLAKBJKPLE",
          "watcherId": 82235
        }
      ]
    }
  },
  {
    "Default": {
      "$type": "CBPBEHLOHKI",
      "abilityName": "Animal_Capybara_Nyx_NormalAtk_Random",
      "abilityMixins": [
        {
          "$type": "EKMHJKDLBJH",
          "stateIDs": [
            "NormalAtk01",
            "NormalAtk03"
          ],
          "modifierName": "Capybara_Nyx_NormalAtk_RandomToRest",
          "DGFCLAIDIFI": ""
        },
        {
          "$type": "EKMHJKDLBJH",
          "stateIDs": [
            "NormalAtk_Rest"
          ],
          "modifierName": "Capybara_Nyx_NormalAtk_RandomToNormalAtk",
          "DGFCLAIDIFI": ""
        },
        {
          "$type": "EKMHJKDLBJH",
          "stateIDs": [
            "NormalAtk01"
          ],
          "modifierName": "Capybara_Nyx_NormalAtk01",
          "DGFCLAIDIFI": ""
        },
        {
          "$type": "EKMHJKDLBJH",
          "stateIDs": [
            "NormalAtk03"
          ],
          "modifierName": "Capybara_Nyx_NormalAtk03",
          "DGFCLAIDIFI": ""
        },
        {
          "$type": "EKMHJKDLBJH",
          "stateIDs": [
            "NormalAtk01",
            "NormalAtk03",
            "NormalAtk_Rest"
          ],
          "modifierName": "Capybara_Nyx_NormalAtk_Handler",
          "DGFCLAIDIFI": ""
        }
      ],
      "modifiers": {
        "Capybara_Nyx_NormalAtk_RandomToRest": {
          "modifierName": "",
          "IPFJJJGABPL": 100.0,
          "onAdded": [
            {
              "$type": "LCOEFEMOHLP",
              "param3": 1.0,
              "key": "_ANIMAL_Capybara_Nyx_NormalAtk_",
              "param2": 0.0,
              "repeatTimes": 0.0
            },
            {
              "$type": "AKEEDILMOJF",
              "canBeHandledOnRecover": true,
              "intID": "NormalAtkRandom",
              "param3": 0.0
            }
          ],
          "onAttackLanded": [
            {
              "$type": "AKEEDILMOJF",
              "predicates": [
                {
                  "$type": "CNGGLKHONAA",
                  "key": "_ANIMAL_Capybara_Nyx_NormalAtk_",
                  "param3": 2.0,
                  "compareType": "LessAndEqual"
                }
              ],
              "intID": "NormalAtkRandom",
              "param3": 1.0
            }
          ]
        },
        "Capybara_Nyx_NormalAtk_RandomToNormalAtk": {
          "modifierName": "",
          "IPFJJJGABPL": 100.0,
          "onAdded": [
            {
              "$type": "INBCDALOHMP",
              "targetPredicates": [
                {
                  "$type": "CNGGLKHONAA",
                  "key": "_ANIMAL_Capybara_Nyx_NormalAtk01_",
                  "param3": 1.0
                }
              ],
              "successActions": [
                {
                  "$type": "AKEEDILMOJF",
                  "intID": "NormalAtkRandom",
                  "param3": 3.0
                }
              ]
            },
            {
              "$type": "INBCDALOHMP",
              "targetPredicates": [
                {
                  "$type": "CNGGLKHONAA",
                  "key": "_ANIMAL_Capybara_Nyx_NormalAtk03_",
                  "param3": 1.0
                }
              ],
              "successActions": [
                {
                  "$type": "AKEEDILMOJF",
                  "intID": "NormalAtkRandom",
                  "param3": 2.0
                }
              ]
            }
          ]
        },
        "Capybara_Nyx_NormalAtk01": {
          "modifierName": "",
          "IPFJJJGABPL": 100.0,
          "onAdded": [
            {
              "$type": "BOBCOJHOKKD",
              "param3": 1.0,
              "key": "_ANIMAL_Capybara_Nyx_NormalAtk01_",
              "param2": 0.0,
              "repeatTimes": 0.0
            },
            {
              "$type": "BOBCOJHOKKD",
              "param3": 0.0,
              "key": "_ANIMAL_Capybara_Nyx_NormalAtk03_",
              "param2": 0.0,
              "repeatTimes": 0.0
            }
          ]
        },
        "Capybara_Nyx_NormalAtk03": {
          "modifierName": "",
          "IPFJJJGABPL": 100.0,
          "onAdded": [
            {
              "$type": "BOBCOJHOKKD",
              "param3": 0.0,
              "key": "_ANIMAL_Capybara_Nyx_NormalAtk01_",
              "param2": 0.0,
              "repeatTimes": 0.0
            },
            {
              "$type": "BOBCOJHOKKD",
              "param3": 1.0,
              "key": "_ANIMAL_Capybara_Nyx_NormalAtk03_",
              "param2": 0.0,
              "repeatTimes": 0.0
            }
          ]
        },
        "Capybara_Nyx_NormalAtk_Handler": {
          "modifierName": "",
          "IPFJJJGABPL": 100.0,
          "onRemoved": [
            {
              "$type": "BOBCOJHOKKD",
              "param3": 0.0,
              "key": "_ANIMAL_Capybara_Nyx_NormalAtk_",
              "param2": 0.0,
              "repeatTimes": 0.0
            }
          ]
        }
      },
      "onAdded": [
        {
          "$type": "BOBCOJHOKKD",
          "param3": 0.0,
          "key": "_ANIMAL_Capybara_Nyx_NormalAtk_",
          "param2": 0.0,
          "repeatTimes": 0.0
        },
        {
          "$type": "BOBCOJHOKKD",
          "param3": 0.0,
          "key": "_ANIMAL_Capybara_Nyx_NormalAtk01_",
          "param2": 0.0,
          "repeatTimes": 0.0
        },
        {
          "$type": "BOBCOJHOKKD",
          "param3": 0.0,
          "key": "_ANIMAL_Capybara_Nyx_NormalAtk03_",
          "param2": 0.0,
          "repeatTimes": 0.0
        }
      ]
    }
  },
  {
    "Default": {
      "$type": "CBPBEHLOHKI",
      "abilityName": "Animal_Capybara_Nyx_NormalAtk_Rush",
      "onAbilityStart": [
        {
          "$type": "PAGFCBCKEBH",
          "toPos": {
            "$type": "IAENDIPDFKD",
            "offset": {
              "KGEPIMHBMOL": 0.0,
              "JEBHCGDPFEJ": 0.0,
              "LPCHALMFFOD": 1.5
            },
            "useRotation": true
          },
          "NKPCHMCNNOK": 0.18000000715255737,
          "maxRange": 3.0,
          "animatorStateIDs": [
            "NormalAtk01",
            "NormalAtk03"
          ],
          "overrideMoveCollider": "",
          "MNNIGHIIPHJ": 0.30000001192092896,
          "GIBHGJHPGOC": 0.30000001192092896
        }
      ]
    }
  },
  {
    "Default": {
      "$type": "CBPBEHLOHKI",
      "abilityName": "Animal_Capybara_Nyx_NormalAtk02_FollowBullet",
      "abilityMixins": [
        {
          "$type": "EKMHJKDLBJH",
          "stateIDs": [
            "NormalAtk02_BS",
            "NormalAtk02_Loop"
          ],
          "modifierName": "Capybara_Nyx_NormalAtk02_GVHandler",
          "DGFCLAIDIFI": ""
        },
        {
          "$type": "EJDKAKLFCPA",
          "stateIDs": [
            "NormalAtk02_Loop"
          ],
          "modifierName": "Capybara_Nyx_NormalAtk02_Loop",
          "DGFCLAIDIFI": ""
        }
      ],
      "modifiers": {
        "Capybara_Nyx_NormalAtk02_GVHandler": {
          "modifierName": "",
          "IPFJJJGABPL": 100.0,
          "onAdded": [
            {
              "$type": "BOBCOJHOKKD",
              "param3": 0.0,
              "key": "_ANIMAL_Capybara_Nyx_FollowBullet_",
              "param2": 0.0,
              "repeatTimes": 0.0
            },
            {
              "$type": "GNAEJNBIFAC",
              "PLLJBINMGJK": "NormalAtk02End"
            }
          ],
          "onRemoved": [
            {
              "$type": "BOBCOJHOKKD",
              "param3": 1.0,
              "key": "_ANIMAL_Capybara_Nyx_FollowBullet_",
              "param2": 0.0,
              "repeatTimes": 0.0
            }
          ]
        },
        "Capybara_Nyx_NormalAtk02_Loop": {
          "modifierName": "",
          "IPFJJJGABPL": 100.0,
          "onAdded": [
            {
              "$type": "CAKDDHLKOAB",
              "bulletID": 42802201,
              "born": {
                "$type": "KLPANPDGHHA",
                "offset": {
                  "KGEPIMHBMOL": 0.0,
                  "JEBHCGDPFEJ": 2.0,
                  "LPCHALMFFOD": -2.0
                },
                "useRotation": true,
                "attachPointName": "RootNode"
              },
              "trackTarget": "Self",
              "lifeByOwnerV2": true
            }
          ]
        }
      },
      "onAdded": [
        {
          "$type": "BOBCOJHOKKD",
          "param3": 0.0,
          "key": "_ANIMAL_Capybara_Nyx_FollowBullet_",
          "param2": 0.0,
          "repeatTimes": 0.0
        }
      ]
    }
  },
  {
    "Default": {
      "$type": "CBPBEHLOHKI",
      "abilityName": "Capybara_Nyx_NormalAtk02_FollowBullet_Hit",
      "abilityMixins": [
        {
          "$type": "CCNIOPJEHOE",
          "globalValueTarget": "Owner",
          "globalValueKey": "_ANIMAL_Capybara_Nyx_FollowBullet_",
          "valueSteps": [
            -0.5,
            0.5,
            1.5
          ],
          "modifierNameSteps": [
            "Blank",
            "Capybara_Nyx_NormalAtk02_Loop_FollowBullet_Kill"
          ]
        }
      ],
      "modifiers": {
        "Capybara_Nyx_NormalAtk02_Loop_FollowBullet_Kill": {
          "modifierName": "",
          "IPFJJJGABPL": 100.0,
          "onAdded": [
            {
              "$type": "NCFFNDHGCMH",
              "configIdArray": [
                42802201
              ]
            }
          ]
        },
        "Blank": {
          "modifierName": "",
          "IPFJJJGABPL": 100.0
        }
      },
      "onAbilityStart": [
        {
          "$type": "INBCDALOHMP",
          "target": "Target",
          "targetPredicates": [
            {
              "$type": "NIMAPECDNKD",
              "entityTypes": [
                "Avatar",
                "Vehicle",
                "Partner"
              ]
            }
          ],
          "successActions": [
            {
              "$type": "BLCCGIPAOIP",
              "target": "Owner",
              "PLLJBINMGJK": "NormalAtk02End"
            }
          ]
        }
      ]
    }
  },
  {
    "Default": {
      "$type": "CBPBEHLOHKI",
      "abilityName": "Animal_Capybara_Nyx_NormalAtk04",
      "abilityMixins": [
        {
          "$type": "EKMHJKDLBJH",
          "stateIDs": [
            "NormalAtk04_1",
            "NormalAtk04_2"
          ],
          "modifierName": "Animal_Capybara_Nyx_NormalAtk04",
          "DGFCLAIDIFI": ""
        }
      ],
      "modifiers": {
        "Animal_Capybara_Nyx_NormalAtk04": {
          "modifierName": "",
          "IPFJJJGABPL": 100.0,
          "onAdded": [
            {
              "$type": "BOBCOJHOKKD",
              "param3": 1.0,
              "key": "_ANIMAL_Capybara_Nyx_NormalAtk04_Combo_",
              "param2": 0.0,
              "repeatTimes": 0.0
            }
          ],
          "onRemoved": [
            {
              "$type": "KJCHPDPBJHL",
              "boolID": "NormalAtk04Combo",
              "param3": true
            },
            {
              "$type": "BOBCOJHOKKD",
              "param3": 1.0,
              "key": "_ANIMAL_Capybara_Nyx_NormalAtk04_Combo_",
              "param2": 0.0,
              "repeatTimes": 0.0
            }
          ],
          "onAttackLanded": [
            {
              "$type": "KJCHPDPBJHL",
              "predicates": [
                {
                  "$type": "NNEHDJHMING",
                  "attackTags": [
                    "Animal_Capybara_Nyx_NormalAtk04"
                  ]
                }
              ],
              "boolID": "NormalAtk04Combo"
            },
            {
              "$type": "BOBCOJHOKKD",
              "param3": 0.0,
              "key": "_ANIMAL_Capybara_Nyx_NormalAtk04_Combo_",
              "param2": 0.0,
              "repeatTimes": 0.0
            }
          ]
        }
      },
      "onAdded": [
        {
          "$type": "BOBCOJHOKKD",
          "param3": 1.0,
          "key": "_ANIMAL_Capybara_Nyx_NormalAtk04_Combo_",
          "param2": 0.0,
          "repeatTimes": 0.0
        }
      ],
      "onAbilityStart": [
        {
          "$type": "PAGFCBCKEBH",
          "toPos": {
            "$type": "IAENDIPDFKD",
            "offset": {
              "KGEPIMHBMOL": 0.0,
              "JEBHCGDPFEJ": 0.0,
              "LPCHALMFFOD": 5.0
            },
            "useRotation": true
          },
          "NKPCHMCNNOK": 0.18000000715255737,
          "maxRange": 6.0,
          "animatorStateIDs": [
            "NormalAtk04_1",
            "NormalAtk04_2",
            "NormalAtk02_AS2"
          ],
          "overrideMoveCollider": "",
          "MNNIGHIIPHJ": 0.30000001192092896,
          "GIBHGJHPGOC": 0.30000001192092896
        }
      ]
    }
  },
  {
    "Default": {
      "$type": "CBPBEHLOHKI",
      "abilityName": "Animal_Capybara_Nyx_NormalAtk04_Combo",
      "onAbilityStart": [
        {
          "$type": "INBCDALOHMP",
          "target": "SelfAttackTarget",
          "targetPredicates": [
            {
              "$type": "FMBJAJFLDIP",
              "param3": 0.0,
              "DDALGNLEHOD": ""
            },
            {
              "$type": "FMBJAJFLDIP",
              "logic": "LesserOrEqual",
              "param3": 6.0,
              "DDALGNLEHOD": ""
            },
            {
              "$type": "NDOONLLEPBJ",
              "logic": "LesserOrEqual",
              "param3": 45.0,
              "CIDFOBBCPNL": false,
              "namedTransform": ""
            },
            {
              "$type": "CNGGLKHONAA",
              "target": "Self",
              "key": "_ANIMAL_Capybara_Nyx_NormalAtk04_Combo_",
              "param3": 1.0
            }
          ],
          "successActions": [
            {
              "$type": "KJCHPDPBJHL",
              "boolID": "NormalAtk04Combo",
              "param3": true
            }
          ]
        }
      ]
    }
  },
  {
    "Default": {
      "$type": "CBPBEHLOHKI",
      "abilityName": "Animal_Capybara_Nyx_NormalAtk04_FollowBullet",
      "abilityMixins": [
        {
          "$type": "EKMHJKDLBJH",
          "stateIDs": [
            "NormalAtk02_AS2",
            "NormalAtk04_1",
            "NormalAtk04_2"
          ],
          "modifierName": "Capybara_Nyx_NormalAtk04_GVHandler",
          "DGFCLAIDIFI": ""
        },
        {
          "$type": "EKMHJKDLBJH",
          "stateIDs": [
            "NormalAtk04_2"
          ],
          "modifierName": "Capybara_Nyx_NormalAtk04_GVReset",
          "DGFCLAIDIFI": ""
        }
      ],
      "modifiers": {
        "Capybara_Nyx_NormalAtk04_GVHandler": {
          "modifierName": "",
          "IPFJJJGABPL": 100.0,
          "onAdded": [
            {
              "$type": "BOBCOJHOKKD",
              "param3": 0.0,
              "key": "_ANIMAL_Capybara_Nyx_NormalAtk04_FollowBullet_",
              "param2": 0.0,
              "repeatTimes": 0.0
            }
          ],
          "onRemoved": [
            {
              "$type": "BOBCOJHOKKD",
              "param3": 1.0,
              "key": "_ANIMAL_Capybara_Nyx_NormalAtk04_FollowBullet_",
              "param2": 0.0,
              "repeatTimes": 0.0
            },
            {
              "$type": "FDFGJPNDKEA",
              "pushColliderNames": [
                "PushCollider_NormalAtk"
              ]
            }
          ]
        },
        "Capybara_Nyx_NormalAtk04_GVReset": {
          "modifierName": "",
          "IPFJJJGABPL": 100.0,
          "onAdded": [
            {
              "$type": "BOBCOJHOKKD",
              "param3": 0.0,
              "key": "_ANIMAL_Capybara_Nyx_NormalAtk04_FollowBullet_",
              "param2": 0.0,
              "repeatTimes": 0.0
            },
            {
              "$type": "FDFGJPNDKEA",
              "pushColliderNames": [
                "PushCollider_NormalAtk"
              ]
            }
          ],
          "onRemoved": [
            {
              "$type": "BOBCOJHOKKD",
              "param3": 1.0,
              "key": "_ANIMAL_Capybara_Nyx_NormalAtk04_FollowBullet_",
              "param2": 0.0,
              "repeatTimes": 0.0
            },
            {
              "$type": "FDFGJPNDKEA",
              "pushColliderNames": [
                "PushCollider_NormalAtk"
              ],
              "setEnable": true
            }
          ]
        }
      },
      "onAdded": [
        {
          "$type": "BOBCOJHOKKD",
          "param3": 0.0,
          "key": "_ANIMAL_Capybara_Nyx_NormalAtk04_FollowBullet_",
          "param2": 0.0,
          "repeatTimes": 0.0
        }
      ],
      "onAbilityStart": [
        {
          "$type": "CAKDDHLKOAB",
          "bulletID": 42802205,
          "born": {
            "$type": "KLPANPDGHHA",
            "offset": {
              "KGEPIMHBMOL": 0.0,
              "JEBHCGDPFEJ": 0.0,
              "LPCHALMFFOD": 0.0
            },
            "useRotation": true,
            "attachPointName": "RootNode"
          },
          "trackTarget": "Self",
          "lifeByOwnerV2": true
        },
        {
          "$type": "FDFGJPNDKEA",
          "pushColliderNames": [
            "PushCollider_NormalAtk"
          ],
          "setEnable": true
        }
      ]
    }
  },
  {
    "Default": {
      "$type": "CBPBEHLOHKI",
      "abilityName": "Animal_Capybara_Nyx_NormalAtk04_FollowBullet_Kill",
      "onAbilityStart": [
        {
          "$type": "BOBCOJHOKKD",
          "param3": 1.0,
          "key": "_ANIMAL_Capybara_Nyx_NormalAtk04_FollowBullet_",
          "param2": 0.0,
          "repeatTimes": 0.0
        }
      ]
    }
  },
  {
    "Default": {
      "$type": "CBPBEHLOHKI",
      "abilityName": "Capybara_Nyx_NormalAtk04_FollowBullet_Hit",
      "abilityMixins": [
        {
          "$type": "CCNIOPJEHOE",
          "globalValueTarget": "Owner",
          "globalValueKey": "_ANIMAL_Capybara_Nyx_NormalAtk04_FollowBullet_",
          "valueSteps": [
            -0.5,
            0.5,
            1.5
          ],
          "modifierNameSteps": [
            "Blank",
            "Capybara_Nyx_NormalAtk04_FollowBullet_Kill"
          ]
        }
      ],
      "modifiers": {
        "Capybara_Nyx_NormalAtk04_FollowBullet_Kill": {
          "modifierName": "",
          "IPFJJJGABPL": 100.0,
          "onAdded": [
            {
              "$type": "NCFFNDHGCMH",
              "configIdArray": [
                42802205
              ]
            }
          ]
        },
        "Blank": {
          "modifierName": "",
          "IPFJJJGABPL": 100.0
        }
      },
      "onAbilityStart": [
        {
          "$type": "AIFPLABJNMA",
          "attackEvent": {
            "attackPattern": {
              "$type": "BELNOFAKNBA",
              "triggerType": "TriggerNoRepeat",
              "born": {
                "$type": "JGEBAJLEBMO"
              },
              "OAHPDLJIADP": 1.0
            },
            "attackInfo": {
              "attackTag": "Animal_Capybara_Nyx_NormalAtk04",
              "attenuationTag": "",
              "attenuationGroup": "default",
              "attackProperty": {
                "actorGrassSubHurtDelta": 1.0,
                "actorWindSubHurtDelta": 0.0,
                "IPFJJJGABPL": 25.0,
                "strikeType": "Blunt",
                "enBreak": 25.0,
                "GLKMCMDJBIK": 0.0
              },
              "hitPattern": {
                "onHitEffectName": "default",
                "hitImpulseY": "",
                "hitImpulseType": "LV3",
                "hitHaltTimeScale": 0.009999999776482582
              },
              "canBeModifiedBy": "OriginOwner"
            }
          },
          "targetType": "Enemy"
        }
      ]
    }
  },
  {
    "Default": {
      "$type": "CBPBEHLOHKI",
      "abilityName": "Animal_Capybara_Nyx_NormalToRage",
      "abilityMixins": [
        {
          "$type": "EKMHJKDLBJH",
          "stateIDs": [
            "NormalToRage_BS1",
            "NormalToRage_BS2",
            "NormalToRage_Loop",
            "NormalToRage_AS1",
            "NormalToRage_AS2",
            "NormalToRage_BeHit",
            "NormalToRage_Weak"
          ],
          "modifierName": "Animal_Capybara_Nyx_NormalToRage_Handler",
          "DGFCLAIDIFI": ""
        },
        {
          "$type": "EJDKAKLFCPA",
          "stateIDs": [
            "NormalToRage_BS2",
            "NormalToRage_Loop",
            "NormalToRage_AS1",
            "NormalToRage_BeHit"
          ],
          "modifierName": "Animal_Capybara_Nyx_NormalToRage_Loop",
          "DGFCLAIDIFI": ""
        },
        {
          "$type": "EKMHJKDLBJH",
          "stateIDs": [
            "NormalToRage_Weak"
          ],
          "modifierName": "Animal_Capybara_Nyx_NormalToRage_WeakHandler",
          "DGFCLAIDIFI": ""
        },
        {
          "$type": "EKMHJKDLBJH",
          "stateIDs": [
            "NormalToRage_BS1",
            "NormalToRage_BS2",
            "NormalToRage_Loop",
            "NormalToRage_AS1",
            "NormalToRage_AS2",
            "NormalToRage_BeHit"
          ],
          "modifierName": "Animal_Capybara_Nyx_NormalToRage_Recover",
          "DGFCLAIDIFI": ""
        },
        {
          "$type": "EKMHJKDLBJH",
          "stateIDs": [
            "NormalToRage_Weak",
            "RageAtk_BS1",
            "RageAtk_BS2",
            "RageAtk_BS3",
            "RageAtk_Loop1",
            "RageAtk_Loop2",
            "RageAtk_Loop3",
            "RageAtk_AS1",
            "RageAtk_AS2",
            "RageAtk_AS3"
          ],
          "modifierName": "Animal_Capybara_Nyx_NormalToRage_Retrigger",
          "DGFCLAIDIFI": ""
        }
      ],
      "abilitySpecials": {
        "SubHurtRatio": 3.0
      },
      "modifiers": {
        "Animal_Capybara_Nyx_NormalToRage_Handler": {
          "modifierName": "",
          "IPFJJJGABPL": 100.0,
          "onAdded": [
            {
              "$type": "GNAEJNBIFAC",
              "canBeHandledOnRecover": true,
              "PLLJBINMGJK": "NormalToRageEnd"
            }
          ]
        },
        "Animal_Capybara_Nyx_NormalToRage_Loop": {
          "modifierName": "",
          "IPFJJJGABPL": 100.0,
          "properties": {
            "Actor_PhysicalSubHurtDelta": "SubHurtRatio",
            "Actor_FireSubHurtDelta": "SubHurtRatio",
            "Actor_ElecSubHurtDelta": "SubHurtRatio",
            "Actor_WaterSubHurtDelta": "SubHurtRatio",
            "Actor_GrassSubHurtDelta": "SubHurtRatio",
            "Actor_WindSubHurtDelta": "SubHurtRatio",
            "Actor_IceSubHurtDelta": "SubHurtRatio",
            "Actor_RockSubHurtDelta": "SubHurtRatio"
          },
          "onAdded": [
            {
              "$type": "GJCAPCBELPA",
              "abilityName": "Animal_Capybara_Nyx_Endure_Remove"
            },
            {
              "$type": "GJCAPCBELPA",
              "abilityName": "Animal_Capybara_Nyx_Endure_Add"
            },
            {
              "$type": "JLDEMMJAMLC",
              "modifierName": "Animal_Capybara_Nyx_NormalToRage_Loop_Protect"
            }
          ],
          "onRemoved": [
            {
              "$type": "GJCAPCBELPA",
              "abilityName": "Animal_Capybara_Nyx_Endure_Remove"
            }
          ]
        },
        "Animal_Capybara_Nyx_NormalToRage_Loop_Protect": {
          "modifierName": "",
          "elementDurability": 6.0,
          "IPFJJJGABPL": 100.0,
          "onRemoved": [
            {
              "$type": "GNAEJNBIFAC",
              "canBeHandledOnRecover": true,
              "PLLJBINMGJK": "SpecialBeHit"
            },
            {
              "$type": "BLCCGIPAOIP",
              "canBeHandledOnRecover": true,
              "PLLJBINMGJK": "NormalToRageEnd",
              "mpTriggerOnRemote": true
            }
          ]
        },
        "Animal_Capybara_Nyx_NormalToRage_WeakHandler": {
          "modifierName": "",
          "IPFJJJGABPL": 100.0,
          "onAdded": [
            {
              "$type": "DLLGNJPHFDE",
              "shieldHP": true,
              "GHINLKIEMFA": 0.0,
              "CKDBFHCIJEK": 0.10000000149011612,
              "lethal": false,
              "enableInvincible": true,
              "enableLockHP": true,
              "disableWhenLoading": true,
              "BJKGFBGEFPB": ""
            }
          ]
        },
        "Animal_Capybara_Nyx_NormalToRage_Recover": {
          "modifierName": "",
          "IPFJJJGABPL": 100.0,
          "onReconnect": [
            {
              "$type": "IPMMJGMONCI",
              "skillIDs": [
                301
              ]
            }
          ]
        },
        "Animal_Capybara_Nyx_NormalToRage_Retrigger": {
          "modifierName": "",
          "IPFJJJGABPL": 100.0,
          "onReconnect": [
            {
              "$type": "DOANGHCALGB",
              "skillIDs": [
                301
              ]
            }
          ]
        }
      },
      "onAbilityStart": [
        {
          "$type": "BLCCGIPAOIP",
          "canBeHandledOnRecover": true,
          "PLLJBINMGJK": "RageAtk",
          "mpTriggerOnRemote": true
        }
      ]
    }
  },
  {
    "Default": {
      "$type": "CBPBEHLOHKI",
      "abilityName": "Animal_Capybara_Nyx_Endure",
      "abilityMixins": [
        {
          "$type": "PHLKCMFKFIN",
          "globalValueKey": "_ANIMAL_Capybara_Nyx_Enbreak_Statistic_",
          "valueSteps": [
            -0.5,
            1249.5,
            1849.5,
            2499.5,
            99999.0
          ],
          "modifierNameSteps": [
            "Blank",
            "Capybara_Nyx_Endure_Level1",
            "Capybara_Nyx_Endure_Level2",
            "Capybara_Nyx_Endure_Weak"
          ]
        }
      ],
      "modifiers": {
        "Blank": {
          "modifierName": "",
          "IPFJJJGABPL": 100.0
        },
        "Capybara_Nyx_Endure_Level1": {
          "modifierName": "",
          "IPFJJJGABPL": 100.0,
          "onAdded": [
            {
              "$type": "BLCCGIPAOIP",
              "canBeHandledOnRecover": true,
              "PLLJBINMGJK": "SpecialBeHit",
              "mpTriggerOnRemote": true
            }
          ]
        },
        "Capybara_Nyx_Endure_Level2": {
          "modifierName": "",
          "IPFJJJGABPL": 100.0,
          "thinkInterval": 3.0,
          "onAdded": [
            {
              "$type": "BLCCGIPAOIP",
              "canBeHandledOnRecover": true,
              "predicates": [
                {
                  "$type": "BHFFBBOLCCP",
                  "modifierName": "Animal_Capybara_Nyx_NormalToRage_Loop_Protect"
                }
              ],
              "PLLJBINMGJK": "SpecialBeHit",
              "mpTriggerOnRemote": true
            }
          ],
          "onThinkInterval": [
            {
              "$type": "BLCCGIPAOIP",
              "canBeHandledOnRecover": true,
              "predicates": [
                {
                  "$type": "BHFFBBOLCCP",
                  "modifierName": "Animal_Capybara_Nyx_NormalToRage_Loop_Protect"
                }
              ],
              "PLLJBINMGJK": "SpecialBeHit",
              "mpTriggerOnRemote": true
            }
          ]
        },
        "Capybara_Nyx_Endure_Weak": {
          "modifierName": "",
          "IPFJJJGABPL": 100.0,
          "onAdded": [
            {
              "$type": "BOBCOJHOKKD",
              "param3": 1.0,
              "key": "_ANIMAL_Capybara_Nyx_Weak_",
              "param2": 0.0,
              "repeatTimes": 0.0
            },
            {
              "$type": "BLCCGIPAOIP",
              "canBeHandledOnRecover": true,
              "PLLJBINMGJK": "WeakTrigger",
              "mpTriggerOnRemote": true
            },
            {
              "$type": "DLEIPBPNAIM",
              "paramList": [
                0,
                0,
                1
              ]
            },
            {
              "$type": "LCOEFEMOHLP",
              "param3": 1.0,
              "key": "_WATCHER_82237_ENBREAK_COUNT",
              "param2": 0.0,
              "repeatTimes": 0.0
            }
          ]
        }
      },
      "onAdded": [
        {
          "$type": "BOBCOJHOKKD",
          "param3": 0.0,
          "key": "_ANIMAL_Capybara_Nyx_Weak_",
          "param2": 0.0,
          "repeatTimes": 0.0
        },
        {
          "$type": "BOBCOJHOKKD",
          "param3": 0.0,
          "key": "_ANIMAL_Capybara_Nyx_Enbreak_Statistic_",
          "param2": 0.0,
          "repeatTimes": 0.0
        }
      ]
    }
  },
  {
    "Default": {
      "$type": "CBPBEHLOHKI",
      "abilityName": "Animal_Capybara_Nyx_Endure_Add",
      "abilityMixins": [
        {
          "$type": "EKMHJKDLBJH",
          "stateIDs": [
            "NormalToRage_BS1",
            "NormalToRage_BS2",
            "NormalToRage_Loop",
            "NormalToRage_AS1",
            "NormalToRage_AS2",
            "NormalToRage_BeHit",
            "NormalToRage_Weak",
            "RageAtk_BS1",
            "RageAtk_BS2",
            "RageAtk_BS3",
            "RageAtk_Loop1",
            "RageAtk_Loop2",
            "RageAtk_Loop3",
            "RageAtk_AS1",
            "RageAtk_AS2",
            "RageAtk_AS3"
          ],
          "modifierName": "Capybara_Nyx_Endure_Properties",
          "DGFCLAIDIFI": ""
        }
      ],
      "modifiers": {
        "UNIQUE_Capybara_Nyx_Endure_Handler": {
          "modifierName": "",
          "forceTriggerWhenChangeAuthority": true,
          "IPFJJJGABPL": 100.0,
          "modifierMixins": [
            {
              "$type": "FAPGJHHOBAJ",
              "globalValueKey": "_ANIMAL_Capybara_Nyx_Enbreak_Statistic_",
              "LNJGJCGMENM": "HasDamage",
              "LFKFHOBDFNA": true,
              "IOMPHJPAPHP": {
                "Blunt": 5.0
              },
              "NAJDPGAGJJE": 800.0
            }
          ],
          "onAdded": [
            {
              "$type": "PELJALPANCA",
              "modifierName": "Capybara_Nyx_Endure_Eff"
            },
            {
              "$type": "JLDEMMJAMLC",
              "modifierName": "Capybara_Nyx_NormalToRage_EffHandler"
            },
            {
              "$type": "BAKEBEKLLAC",
              "id": 202210135
            },
            {
              "$type": "DLEIPBPNAIM",
              "paramList": [
                0,
                0,
                0
              ]
            }
          ],
          "onRemoved": [
            {
              "$type": "GNAEJNBIFAC",
              "canBeHandledOnRecover": true,
              "PLLJBINMGJK": "SpecialBeHit"
            },
            {
              "$type": "GNAEJNBIFAC",
              "canBeHandledOnRecover": true,
              "PLLJBINMGJK": "WeakTrigger"
            },
            {
              "$type": "BOBCOJHOKKD",
              "predicates": [
                {
                  "$type": "CNGGLKHONAA",
                  "key": "_ANIMAL_Capybara_Nyx_Weak_",
                  "param3": 1.0
                }
              ],
              "param3": 1.0,
              "key": "_ANIMAL_Capybara_Nyx_Pose_",
              "param2": 0.0,
              "repeatTimes": 0.0
            },
            {
              "$type": "BOBCOJHOKKD",
              "param3": 0.0,
              "key": "_ANIMAL_Capybara_Nyx_Weak_",
              "param2": 0.0,
              "repeatTimes": 0.0
            },
            {
              "$type": "PELJALPANCA",
              "modifierName": "Capybara_Nyx_Endure_Eff_Remove"
            }
          ]
        },
        "Capybara_Nyx_Endure_Eff": {
          "modifierName": "",
          "IPFJJJGABPL": 100.0,
          "onAdded": [
            {
              "$type": "ANLOBBMKNIJ",
              "rotationDampTime": "Eff_Animal_Capybara_Nyx_Endure",
              "PPPDJGDDOGD": 1.0,
              "AJDILHJFNKE": -1.0
            }
          ]
        },
        "Capybara_Nyx_Endure_Eff_Remove": {
          "modifierName": "",
          "elementDurability": 3.0,
          "IPFJJJGABPL": 100.0,
          "onAdded": [
            {
              "$type": "GFOOGEIKGBI",
              "parameter": "EndureEndTrigger",
              "attachPoint": "",
              "rotationDampTime": "Eff_Animal_Capybara_Nyx_Endure"
            }
          ],
          "onRemoved": [
            {
              "$type": "PFKNEFGOHIH",
              "modifierName": "Capybara_Nyx_Endure_Eff"
            }
          ]
        },
        "Capybara_Nyx_Endure_Properties": {
          "modifierName": "",
          "IPFJJJGABPL": 100.0,
          "properties": {
            "Actor_EndureDelta": 0.0
          }
        },
        "Capybara_Nyx_NormalToRage_EffHandler": {
          "modifierName": "",
          "IPFJJJGABPL": 100.0,
          "onAdded": [
            {
              "$type": "ANLOBBMKNIJ",
              "rotationDampTime": "Eff_Animal_Capybara_Nyx_NormalToRage",
              "PPPDJGDDOGD": 1.0,
              "AJDILHJFNKE": -1.0
            },
            {
              "$type": "GFOOGEIKGBI",
              "canBeHandledOnRecover": true,
              "parameter": "Stage",
              "attachPoint": "",
              "damageRatio": "Int",
              "value": 1,
              "rotationDampTime": "Eff_Animal_Capybara_Nyx_NormalToRage"
            },
            {
              "$type": "PELJALPANCA",
              "modifierName": "Capybara_Nyx_NormalToRage_EffHandler_Lv2"
            },
            {
              "$type": "PELJALPANCA",
              "modifierName": "Capybara_Nyx_NormalToRage_EffHandler_Lv3"
            }
          ]
        },
        "Capybara_Nyx_NormalToRage_EffHandler_Lv2": {
          "modifierName": "",
          "elementDurability": 3.0,
          "IPFJJJGABPL": 100.0,
          "onRemoved": [
            {
              "$type": "GFOOGEIKGBI",
              "canBeHandledOnRecover": true,
              "parameter": "Stage",
              "attachPoint": "",
              "damageRatio": "Int",
              "value": 2,
              "rotationDampTime": "Eff_Animal_Capybara_Nyx_NormalToRage"
            }
          ]
        },
        "Capybara_Nyx_NormalToRage_EffHandler_Lv3": {
          "modifierName": "",
          "elementDurability": 5.0,
          "IPFJJJGABPL": 100.0,
          "onRemoved": [
            {
              "$type": "GFOOGEIKGBI",
              "canBeHandledOnRecover": true,
              "parameter": "Stage",
              "attachPoint": "",
              "damageRatio": "Int",
              "value": 3,
              "rotationDampTime": "Eff_Animal_Capybara_Nyx_NormalToRage"
            }
          ]
        }
      },
      "onAbilityStart": [
        {
          "$type": "PELJALPANCA",
          "modifierName": "UNIQUE_Capybara_Nyx_Endure_Handler"
        }
      ],
      "onKill": [
        {
          "$type": "PFKNEFGOHIH",
          "modifierName": "Capybara_Nyx_Endure_Eff"
        }
      ]
    }
  },
  {
    "Default": {
      "$type": "CBPBEHLOHKI",
      "abilityName": "Animal_Capybara_Nyx_Endure_Remove",
      "onAbilityStart": [
        {
          "$type": "BOBCOJHOKKD",
          "param3": 0.0,
          "key": "_ANIMAL_Capybara_Nyx_Enbreak_Statistic_",
          "param2": 0.0,
          "repeatTimes": 0.0
        },
        {
          "$type": "KBODPNEEFGD",
          "modifierName": "UNIQUE_Capybara_Nyx_Endure_Handler"
        }
      ]
    }
  },
  {
    "Default": {
      "$type": "CBPBEHLOHKI",
      "abilityName": "Animal_Capybara_Nyx_RageAtk",
      "abilityMixins": [
        {
          "$type": "IILHMBGONGM",
          "steerStateIDs": [
            "NormalToRage_AS2"
          ],
          "startNormalizedTime": 0.6010000109672546,
          "endNormalizedTime": 0.753000020980835,
          "angularSpeed": 1080.0,
          "attackTrigger": "",
          "DGFCLAIDIFI": ""
        },
        {
          "$type": "IILHMBGONGM",
          "steerStateIDs": [
            "NormalToRage_AS2"
          ],
          "startNormalizedTime": 0.765999972820282,
          "endNormalizedTime": 0.8809999823570251,
          "angularSpeed": 1080.0,
          "attackTrigger": "",
          "DGFCLAIDIFI": ""
        },
        {
          "$type": "IILHMBGONGM",
          "steerStateIDs": [
            "RageAtk_BS1"
          ],
          "startNormalizedTime": 0.15800000727176666,
          "endNormalizedTime": 0.656000018119812,
          "angularSpeed": 1080.0,
          "attackTrigger": "",
          "DGFCLAIDIFI": ""
        },
        {
          "$type": "IILHMBGONGM",
          "steerStateIDs": [
            "RageAtk_BS2"
          ],
          "startNormalizedTime": 0.15800000727176666,
          "endNormalizedTime": 0.656000018119812,
          "angularSpeed": 1080.0,
          "attackTrigger": "",
          "DGFCLAIDIFI": ""
        },
        {
          "$type": "IILHMBGONGM",
          "steerStateIDs": [
            "RageAtk_BS3"
          ],
          "startNormalizedTime": 0.15800000727176666,
          "endNormalizedTime": 0.656000018119812,
          "angularSpeed": 1080.0,
          "attackTrigger": "",
          "DGFCLAIDIFI": ""
        },
        {
          "$type": "EKMHJKDLBJH",
          "stateIDs": [
            "RageAtk_BS1",
            "RageAtk_BS2",
            "RageAtk_BS3",
            "RageAtk_Loop1",
            "RageAtk_Loop2",
            "RageAtk_Loop3",
            "RageAtk_AS1",
            "RageAtk_AS2",
            "RageAtk_AS3"
          ],
          "modifierName": "Animal_Capybara_Nyx_RageAtk_Handler",
          "DGFCLAIDIFI": ""
        },
        {
          "$type": "EKMHJKDLBJH",
          "stateIDs": [
            "RageAtk_AS1",
            "RageAtk_AS2",
            "RageAtk_AS3"
          ],
          "modifierName": "Animal_Capybara_Nyx_RageAtk_ASHandler",
          "DGFCLAIDIFI": ""
        }
      ],
      "modifiers": {
        "Animal_Capybara_Nyx_RageAtk_RushHandler": {
          "modifierName": "",
          "IPFJJJGABPL": 100.0,
          "modifierMixins": [
            {
              "$type": "CIGJDPCDOEB",
              "onAdded": [
                {
                  "$type": "FDFGJPNDKEA",
                  "pushColliderNames": [
                    "PushCollider"
                  ]
                }
              ],
              "onRemoved": [
                {
                  "$type": "FDFGJPNDKEA",
                  "pushColliderNames": [
                    "PushCollider"
                  ],
                  "setEnable": true
                }
              ]
            }
          ],
          "onAdded": [
            {
              "$type": "INBCDALOHMP",
              "target": "SelfAttackTarget",
              "targetPredicates": [
                {
                  "$type": "FMBJAJFLDIP",
                  "logic": "LesserOrEqual",
                  "param3": 10.0,
                  "DDALGNLEHOD": ""
                }
              ],
              "successActions": [
                {
                  "$type": "INBCDALOHMP",
                  "otherTargets": {
                    "$type": "MEOIGEJCJLB",
                    "configID": 42802203
                  },
                  "targetPredicates": [
                    {
                      "$type": "NDOONLLEPBJ",
                      "logic": "Lesser",
                      "param3": 45.0,
                      "namedTransform": ""
                    }
                  ],
                  "successActions": [
                    {
                      "$type": "AKEEDILMOJF",
                      "intID": "RageAtkLevel",
                      "param3": 3.0
                    },
                    {
                      "$type": "PAGFCBCKEBH",
                      "toPos": {
                        "$type": "IAENDIPDFKD",
                        "offset": {
                          "KGEPIMHBMOL": 0.0,
                          "JEBHCGDPFEJ": 0.0,
                          "LPCHALMFFOD": 30.0
                        },
                        "useRotation": true
                      },
                      "NKPCHMCNNOK": 0.5299999713897705,
                      "maxRange": 32.0,
                      "animatorStateIDs": [
                        "NormalToRage_AS2",
                        "RageAtk_BS1",
                        "RageAtk_BS2",
                        "RageAtk_BS3",
                        "RageAtk_Loop1",
                        "RageAtk_Loop2",
                        "RageAtk_Loop3",
                        "RageAtk_AS1",
                        "RageAtk_AS2",
                        "RageAtk_AS3"
                      ],
                      "overrideMoveCollider": "",
                      "GIBHGJHPGOC": 0.15000000596046448
                    }
                  ],
                  "failActions": [
                    {
                      "$type": "AKEEDILMOJF",
                      "intID": "RageAtkLevel",
                      "param3": 1.0
                    },
                    {
                      "$type": "PAGFCBCKEBH",
                      "toPos": {
                        "$type": "IAENDIPDFKD",
                        "offset": {
                          "KGEPIMHBMOL": 0.0,
                          "JEBHCGDPFEJ": 0.0,
                          "LPCHALMFFOD": 14.0
                        },
                        "useRotation": true
                      },
                      "NKPCHMCNNOK": 0.30000001192092896,
                      "maxRange": 14.0,
                      "animatorStateIDs": [
                        "NormalToRage_AS2",
                        "RageAtk_BS1",
                        "RageAtk_BS2",
                        "RageAtk_BS3",
                        "RageAtk_Loop1",
                        "RageAtk_Loop2",
                        "RageAtk_Loop3",
                        "RageAtk_AS1",
                        "RageAtk_AS2",
                        "RageAtk_AS3"
                      ],
                      "overrideMoveCollider": "",
                      "GIBHGJHPGOC": 0.30000001192092896
                    }
                  ]
                }
              ]
            },
            {
              "$type": "INBCDALOHMP",
              "target": "SelfAttackTarget",
              "targetPredicates": [
                {
                  "$type": "FMBJAJFLDIP",
                  "param3": 10.0,
                  "DDALGNLEHOD": ""
                },
                {
                  "$type": "FMBJAJFLDIP",
                  "logic": "LesserOrEqual",
                  "param3": 20.0,
                  "DDALGNLEHOD": ""
                }
              ],
              "successActions": [
                {
                  "$type": "INBCDALOHMP",
                  "otherTargets": {
                    "$type": "MEOIGEJCJLB",
                    "configID": 42802203
                  },
                  "targetPredicates": [
                    {
                      "$type": "NDOONLLEPBJ",
                      "logic": "Lesser",
                      "param3": 90.0,
                      "namedTransform": ""
                    }
                  ],
                  "successActions": [
                    {
                      "$type": "AKEEDILMOJF",
                      "intID": "RageAtkLevel",
                      "param3": 2.0
                    },
                    {
                      "$type": "PAGFCBCKEBH",
                      "toPos": {
                        "$type": "IAENDIPDFKD",
                        "offset": {
                          "KGEPIMHBMOL": 0.0,
                          "JEBHCGDPFEJ": 0.0,
                          "LPCHALMFFOD": 20.0
                        },
                        "useRotation": true
                      },
                      "NKPCHMCNNOK": 0.36000001430511475,
                      "maxRange": 22.0,
                      "animatorStateIDs": [
                        "NormalToRage_AS2",
                        "RageAtk_BS1",
                        "RageAtk_BS2",
                        "RageAtk_BS3",
                        "RageAtk_Loop1",
                        "RageAtk_Loop2",
                        "RageAtk_Loop3",
                        "RageAtk_AS1",
                        "RageAtk_AS2",
                        "RageAtk_AS3"
                      ],
                      "overrideMoveCollider": "",
                      "GIBHGJHPGOC": 0.20000000298023224
                    }
                  ],
                  "failActions": [
                    {
                      "$type": "AKEEDILMOJF",
                      "intID": "RageAtkLevel",
                      "param3": 1.0
                    },
                    {
                      "$type": "PAGFCBCKEBH",
                      "toPos": {
                        "$type": "IAENDIPDFKD",
                        "offset": {
                          "KGEPIMHBMOL": 0.0,
                          "JEBHCGDPFEJ": 0.0,
                          "LPCHALMFFOD": 14.0
                        },
                        "useRotation": true
                      },
                      "NKPCHMCNNOK": 0.30000001192092896,
                      "maxRange": 14.0,
                      "animatorStateIDs": [
                        "NormalToRage_AS2",
                        "RageAtk_BS1",
                        "RageAtk_BS2",
                        "RageAtk_BS3",
                        "RageAtk_Loop1",
                        "RageAtk_Loop2",
                        "RageAtk_Loop3",
                        "RageAtk_AS1",
                        "RageAtk_AS2",
                        "RageAtk_AS3"
                      ],
                      "overrideMoveCollider": "",
                      "GIBHGJHPGOC": 0.30000001192092896
                    }
                  ]
                }
              ]
            },
            {
              "$type": "INBCDALOHMP",
              "target": "SelfAttackTarget",
              "targetPredicates": [
                {
                  "$type": "FMBJAJFLDIP",
                  "param3": 20.0,
                  "DDALGNLEHOD": ""
                },
                {
                  "$type": "FMBJAJFLDIP",
                  "logic": "LesserOrEqual",
                  "param3": 30.0,
                  "DDALGNLEHOD": ""
                }
              ],
              "successActions": [
                {
                  "$type": "INBCDALOHMP",
                  "otherTargets": {
                    "$type": "MEOIGEJCJLB",
                    "configID": 42802203
                  },
                  "targetPredicates": [
                    {
                      "$type": "NDOONLLEPBJ",
                      "logic": "Lesser",
                      "param3": 70.0,
                      "namedTransform": ""
                    }
                  ],
                  "successActions": [
                    {
                      "$type": "AKEEDILMOJF",
                      "intID": "RageAtkLevel",
                      "param3": 3.0
                    },
                    {
                      "$type": "PAGFCBCKEBH",
                      "toPos": {
                        "$type": "IAENDIPDFKD",
                        "offset": {
                          "KGEPIMHBMOL": 0.0,
                          "JEBHCGDPFEJ": 0.0,
                          "LPCHALMFFOD": 30.0
                        },
                        "useRotation": true
                      },
                      "NKPCHMCNNOK": 0.5299999713897705,
                      "maxRange": 32.0,
                      "animatorStateIDs": [
                        "NormalToRage_AS2",
                        "RageAtk_BS1",
                        "RageAtk_BS2",
                        "RageAtk_BS3",
                        "RageAtk_Loop1",
                        "RageAtk_Loop2",
                        "RageAtk_Loop3",
                        "RageAtk_AS1",
                        "RageAtk_AS2",
                        "RageAtk_AS3"
                      ],
                      "overrideMoveCollider": "",
                      "GIBHGJHPGOC": 0.15000000596046448
                    }
                  ],
                  "failActions": [
                    {
                      "$type": "AKEEDILMOJF",
                      "intID": "RageAtkLevel",
                      "param3": 1.0
                    },
                    {
                      "$type": "PAGFCBCKEBH",
                      "toPos": {
                        "$type": "IAENDIPDFKD",
                        "offset": {
                          "KGEPIMHBMOL": 0.0,
                          "JEBHCGDPFEJ": 0.0,
                          "LPCHALMFFOD": 14.0
                        },
                        "useRotation": true
                      },
                      "NKPCHMCNNOK": 0.30000001192092896,
                      "maxRange": 14.0,
                      "animatorStateIDs": [
                        "NormalToRage_AS2",
                        "RageAtk_BS1",
                        "RageAtk_BS2",
                        "RageAtk_BS3",
                        "RageAtk_Loop1",
                        "RageAtk_Loop2",
                        "RageAtk_Loop3",
                        "RageAtk_AS1",
                        "RageAtk_AS2",
                        "RageAtk_AS3"
                      ],
                      "overrideMoveCollider": "",
                      "GIBHGJHPGOC": 0.30000001192092896
                    }
                  ]
                }
              ]
            },
            {
              "$type": "INBCDALOHMP",
              "target": "SelfAttackTarget",
              "targetPredicates": [
                {
                  "$type": "FMBJAJFLDIP",
                  "param3": 30.0,
                  "DDALGNLEHOD": ""
                },
                {
                  "$type": "FMBJAJFLDIP",
                  "logic": "LesserOrEqual",
                  "param3": 40.0,
                  "DDALGNLEHOD": ""
                }
              ],
              "successActions": [
                {
                  "$type": "INBCDALOHMP",
                  "otherTargets": {
                    "$type": "MEOIGEJCJLB",
                    "configID": 42802203
                  },
                  "targetPredicates": [
                    {
                      "$type": "NDOONLLEPBJ",
                      "logic": "Lesser",
                      "param3": 45.0,
                      "namedTransform": ""
                    }
                  ],
                  "successActions": [
                    {
                      "$type": "AKEEDILMOJF",
                      "intID": "RageAtkLevel",
                      "param3": 4.0
                    },
                    {
                      "$type": "PAGFCBCKEBH",
                      "toPos": {
                        "$type": "IAENDIPDFKD",
                        "offset": {
                          "KGEPIMHBMOL": 0.0,
                          "JEBHCGDPFEJ": 0.0,
                          "LPCHALMFFOD": 40.0
                        },
                        "useRotation": true
                      },
                      "NKPCHMCNNOK": 0.699999988079071,
                      "maxRange": 42.0,
                      "animatorStateIDs": [
                        "NormalToRage_AS2",
                        "RageAtk_BS1",
                        "RageAtk_BS2",
                        "RageAtk_BS3",
                        "RageAtk_Loop1",
                        "RageAtk_Loop2",
                        "RageAtk_Loop3",
                        "RageAtk_AS1",
                        "RageAtk_AS2",
                        "RageAtk_AS3"
                      ],
                      "overrideMoveCollider": "",
                      "GIBHGJHPGOC": 0.10000000149011612
                    }
                  ],
                  "failActions": [
                    {
                      "$type": "AKEEDILMOJF",
                      "intID": "RageAtkLevel",
                      "param3": 1.0
                    },
                    {
                      "$type": "PAGFCBCKEBH",
                      "toPos": {
                        "$type": "IAENDIPDFKD",
                        "offset": {
                          "KGEPIMHBMOL": 0.0,
                          "JEBHCGDPFEJ": 0.0,
                          "LPCHALMFFOD": 14.0
                        },
                        "useRotation": true
                      },
                      "NKPCHMCNNOK": 0.30000001192092896,
                      "maxRange": 14.0,
                      "animatorStateIDs": [
                        "NormalToRage_AS2",
                        "RageAtk_BS1",
                        "RageAtk_BS2",
                        "RageAtk_BS3",
                        "RageAtk_Loop1",
                        "RageAtk_Loop2",
                        "RageAtk_Loop3",
                        "RageAtk_AS1",
                        "RageAtk_AS2",
                        "RageAtk_AS3"
                      ],
                      "overrideMoveCollider": "",
                      "GIBHGJHPGOC": 0.30000001192092896
                    }
                  ]
                }
              ]
            },
            {
              "$type": "CAKDDHLKOAB",
              "bulletID": 42802202,
              "born": {
                "$type": "KLPANPDGHHA",
                "offset": {
                  "KGEPIMHBMOL": 0.0,
                  "JEBHCGDPFEJ": 0.0,
                  "LPCHALMFFOD": 0.0
                },
                "useRotation": true,
                "attachPointName": "Body"
              },
              "trackTarget": "Self",
              "lifeByOwnerV2": true
            },
            {
              "$type": "CAKDDHLKOAB",
              "bulletID": 42802204,
              "born": {
                "$type": "KLPANPDGHHA",
                "offset": {
                  "KGEPIMHBMOL": 0.0,
                  "JEBHCGDPFEJ": 0.0,
                  "LPCHALMFFOD": 0.0
                },
                "useRotation": true,
                "attachPointName": "Body"
              },
              "trackTarget": "Self",
              "lifeByOwnerV2": true
            }
          ],
          "onRemoved": [
            {
              "$type": "BOBCOJHOKKD",
              "param3": 1.0,
              "key": "_ANIMAL_Capybara_Nyx_RageAtk_Bullet_",
              "param2": 0.0,
              "repeatTimes": 0.0
            }
          ]
        },
        "Animal_Capybara_Nyx_RageAtk_Handler": {
          "modifierName": "",
          "IPFJJJGABPL": 100.0,
          "onAdded": [
            {
              "$type": "BOBCOJHOKKD",
              "param3": 0.0,
              "key": "_ANIMAL_Capybara_Nyx_RageAtk_Bullet_",
              "param2": 0.0,
              "repeatTimes": 0.0
            }
          ],
          "onRemoved": [
            {
              "$type": "PFKNEFGOHIH",
              "modifierName": "Animal_Capybara_Nyx_RageAtk_RushHandler"
            },
            {
              "$type": "BOBCOJHOKKD",
              "param3": 1.0,
              "key": "_ANIMAL_Capybara_Nyx_Pose_",
              "param2": 0.0,
              "repeatTimes": 0.0
            }
          ]
        },
        "Animal_Capybara_Nyx_RageAtk_ASHandler": {
          "modifierName": "",
          "IPFJJJGABPL": 100.0,
          "onRemoved": [
            {
              "$type": "PFKNEFGOHIH",
              "modifierName": "Animal_Capybara_Nyx_RageAtk_RushHandler"
            }
          ]
        }
      },
      "onAdded": [
        {
          "$type": "BOBCOJHOKKD",
          "param3": 0.0,
          "key": "_ANIMAL_Capybara_Nyx_RageAtk_Bullet_",
          "param2": 0.0,
          "repeatTimes": 0.0
        }
      ],
      "onAbilityStart": [
        {
          "$type": "BOBCOJHOKKD",
          "param3": 0.0,
          "key": "_ANIMAL_Capybara_Nyx_RageAtk_Bullet_",
          "param2": 0.0,
          "repeatTimes": 0.0
        },
        {
          "$type": "PELJALPANCA",
          "modifierName": "Animal_Capybara_Nyx_RageAtk_RushHandler"
        }
      ]
    }
  },
  {
    "Default": {
      "$type": "CBPBEHLOHKI",
      "abilityName": "Animal_Capybara_Nyx_RageAtk_03",
      "abilityMixins": [
        {
          "$type": "EKMHJKDLBJH",
          "stateIDs": [
            "RageAtk_BS3",
            "RageAtk_Loop3",
            "RageAtk_AS3"
          ],
          "modifierName": "Animal_Capybara_Nyx_RageAtk03_Handler",
          "DGFCLAIDIFI": ""
        },
        {
          "$type": "EKMHJKDLBJH",
          "stateIDs": [
            "RageAtk_AS3"
          ],
          "modifierName": "Animal_Capybara_Nyx_RageAtk03_ASHandler",
          "DGFCLAIDIFI": ""
        }
      ],
      "modifiers": {
        "Animal_Capybara_Nyx_RageAtk03_RushHandler": {
          "modifierName": "",
          "IPFJJJGABPL": 100.0,
          "modifierMixins": [
            {
              "$type": "CIGJDPCDOEB",
              "onAdded": [
                {
                  "$type": "FDFGJPNDKEA",
                  "pushColliderNames": [
                    "PushCollider"
                  ]
                }
              ],
              "onRemoved": [
                {
                  "$type": "FDFGJPNDKEA",
                  "pushColliderNames": [
                    "PushCollider"
                  ],
                  "setEnable": true
                }
              ]
            }
          ],
          "onAdded": [
            {
              "$type": "INBCDALOHMP",
              "target": "SelfAttackTarget",
              "targetPredicates": [
                {
                  "$type": "FMBJAJFLDIP",
                  "logic": "LesserOrEqual",
                  "param3": 10.0,
                  "DDALGNLEHOD": ""
                }
              ],
              "successActions": [
                {
                  "$type": "AKEEDILMOJF",
                  "intID": "RageAtkLevel",
                  "param3": 1.0
                },
                {
                  "$type": "PAGFCBCKEBH",
                  "toPos": {
                    "$type": "IAENDIPDFKD",
                    "offset": {
                      "KGEPIMHBMOL": 0.0,
                      "JEBHCGDPFEJ": 0.0,
                      "LPCHALMFFOD": 14.0
                    },
                    "useRotation": true
                  },
                  "NKPCHMCNNOK": 0.30000001192092896,
                  "maxRange": 14.0,
                  "animatorStateIDs": [
                    "NormalToRage_AS2",
                    "RageAtk_BS1",
                    "RageAtk_BS2",
                    "RageAtk_BS3",
                    "RageAtk_Loop1",
                    "RageAtk_Loop2",
                    "RageAtk_Loop3",
                    "RageAtk_AS1",
                    "RageAtk_AS2",
                    "RageAtk_AS3"
                  ],
                  "overrideMoveCollider": "",
                  "GIBHGJHPGOC": 0.30000001192092896
                }
              ],
              "failActions": [
                {
                  "$type": "INBCDALOHMP",
                  "target": "SelfAttackTarget",
                  "targetPredicates": [
                    {
                      "$type": "FMBJAJFLDIP",
                      "param3": 10.0,
                      "DDALGNLEHOD": ""
                    },
                    {
                      "$type": "FMBJAJFLDIP",
                      "logic": "LesserOrEqual",
                      "param3": 20.0,
                      "DDALGNLEHOD": ""
                    }
                  ],
                  "successActions": [
                    {
                      "$type": "AKEEDILMOJF",
                      "intID": "RageAtkLevel",
                      "param3": 2.0
                    },
                    {
                      "$type": "PAGFCBCKEBH",
                      "toPos": {
                        "$type": "IAENDIPDFKD",
                        "offset": {
                          "KGEPIMHBMOL": 0.0,
                          "JEBHCGDPFEJ": 0.0,
                          "LPCHALMFFOD": 20.0
                        },
                        "useRotation": true
                      },
                      "NKPCHMCNNOK": 0.36000001430511475,
                      "maxRange": 22.0,
                      "animatorStateIDs": [
                        "NormalToRage_AS2",
                        "RageAtk_BS1",
                        "RageAtk_BS2",
                        "RageAtk_BS3",
                        "RageAtk_Loop1",
                        "RageAtk_Loop2",
                        "RageAtk_Loop3",
                        "RageAtk_AS1",
                        "RageAtk_AS2",
                        "RageAtk_AS3"
                      ],
                      "overrideMoveCollider": "",
                      "GIBHGJHPGOC": 0.20000000298023224
                    }
                  ],
                  "failActions": [
                    {
                      "$type": "INBCDALOHMP",
                      "target": "SelfAttackTarget",
                      "targetPredicates": [
                        {
                          "$type": "FMBJAJFLDIP",
                          "param3": 20.0,
                          "DDALGNLEHOD": ""
                        },
                        {
                          "$type": "FMBJAJFLDIP",
                          "logic": "LesserOrEqual",
                          "param3": 30.0,
                          "DDALGNLEHOD": ""
                        }
                      ],
                      "successActions": [
                        {
                          "$type": "AKEEDILMOJF",
                          "intID": "RageAtkLevel",
                          "param3": 3.0
                        },
                        {
                          "$type": "PAGFCBCKEBH",
                          "toPos": {
                            "$type": "IAENDIPDFKD",
                            "offset": {
                              "KGEPIMHBMOL": 0.0,
                              "JEBHCGDPFEJ": 0.0,
                              "LPCHALMFFOD": 30.0
                            },
                            "useRotation": true
                          },
                          "NKPCHMCNNOK": 0.5299999713897705,
                          "maxRange": 32.0,
                          "animatorStateIDs": [
                            "NormalToRage_AS2",
                            "RageAtk_BS1",
                            "RageAtk_BS2",
                            "RageAtk_BS3",
                            "RageAtk_Loop1",
                            "RageAtk_Loop2",
                            "RageAtk_Loop3",
                            "RageAtk_AS1",
                            "RageAtk_AS2",
                            "RageAtk_AS3"
                          ],
                          "overrideMoveCollider": "",
                          "GIBHGJHPGOC": 0.15000000596046448
                        }
                      ],
                      "failActions": [
                        {
                          "$type": "INBCDALOHMP",
                          "target": "SelfAttackTarget",
                          "targetPredicates": [
                            {
                              "$type": "FMBJAJFLDIP",
                              "param3": 30.0,
                              "DDALGNLEHOD": ""
                            },
                            {
                              "$type": "FMBJAJFLDIP",
                              "logic": "LesserOrEqual",
                              "param3": 40.0,
                              "DDALGNLEHOD": ""
                            }
                          ],
                          "successActions": [
                            {
                              "$type": "AKEEDILMOJF",
                              "intID": "RageAtkLevel",
                              "param3": 4.0
                            },
                            {
                              "$type": "PAGFCBCKEBH",
                              "toPos": {
                                "$type": "IAENDIPDFKD",
                                "offset": {
                                  "KGEPIMHBMOL": 0.0,
                                  "JEBHCGDPFEJ": 0.0,
                                  "LPCHALMFFOD": 40.0
                                },
                                "useRotation": true
                              },
                              "NKPCHMCNNOK": 0.699999988079071,
                              "maxRange": 42.0,
                              "animatorStateIDs": [
                                "NormalToRage_AS2",
                                "RageAtk_BS1",
                                "RageAtk_BS2",
                                "RageAtk_BS3",
                                "RageAtk_Loop1",
                                "RageAtk_Loop2",
                                "RageAtk_Loop3",
                                "RageAtk_AS1",
                                "RageAtk_AS2",
                                "RageAtk_AS3"
                              ],
                              "overrideMoveCollider": "",
                              "GIBHGJHPGOC": 0.10000000149011612
                            }
                          ],
                          "failActions": [
                            {
                              "$type": "AKEEDILMOJF",
                              "intID": "RageAtkLevel",
                              "param3": 1.0
                            },
                            {
                              "$type": "PAGFCBCKEBH",
                              "toPos": {
                                "$type": "IAENDIPDFKD",
                                "offset": {
                                  "KGEPIMHBMOL": 0.0,
                                  "JEBHCGDPFEJ": 0.0,
                                  "LPCHALMFFOD": 14.0
                                },
                                "useRotation": true
                              },
                              "NKPCHMCNNOK": 0.30000001192092896,
                              "maxRange": 14.0,
                              "animatorStateIDs": [
                                "NormalToRage_AS2",
                                "RageAtk_BS1",
                                "RageAtk_BS2",
                                "RageAtk_BS3",
                                "RageAtk_Loop1",
                                "RageAtk_Loop2",
                                "RageAtk_Loop3",
                                "RageAtk_AS1",
                                "RageAtk_AS2",
                                "RageAtk_AS3"
                              ],
                              "overrideMoveCollider": "",
                              "GIBHGJHPGOC": 0.30000001192092896
                            }
                          ]
                        }
                      ]
                    }
                  ]
                }
              ]
            },
            {
              "$type": "CAKDDHLKOAB",
              "bulletID": 42802202,
              "born": {
                "$type": "KLPANPDGHHA",
                "offset": {
                  "KGEPIMHBMOL": 0.0,
                  "JEBHCGDPFEJ": 0.0,
                  "LPCHALMFFOD": 0.0
                },
                "useRotation": true,
                "attachPointName": "Body"
              },
              "trackTarget": "Self",
              "lifeByOwnerV2": true
            },
            {
              "$type": "CAKDDHLKOAB",
              "bulletID": 42802204,
              "born": {
                "$type": "KLPANPDGHHA",
                "offset": {
                  "KGEPIMHBMOL": 0.0,
                  "JEBHCGDPFEJ": 0.0,
                  "LPCHALMFFOD": 0.0
                },
                "useRotation": true,
                "attachPointName": "Body"
              },
              "trackTarget": "Self",
              "lifeByOwnerV2": true
            }
          ],
          "onRemoved": [
            {
              "$type": "BOBCOJHOKKD",
              "param3": 1.0,
              "key": "_ANIMAL_Capybara_Nyx_RageAtk_Bullet_",
              "param2": 0.0,
              "repeatTimes": 0.0
            }
          ]
        },
        "Animal_Capybara_Nyx_RageAtk03_Handler": {
          "modifierName": "",
          "IPFJJJGABPL": 100.0,
          "onAdded": [
            {
              "$type": "BOBCOJHOKKD",
              "param3": 0.0,
              "key": "_ANIMAL_Capybara_Nyx_RageAtk_Bullet_",
              "param2": 0.0,
              "repeatTimes": 0.0
            }
          ],
          "onRemoved": [
            {
              "$type": "PFKNEFGOHIH",
              "modifierName": "Animal_Capybara_Nyx_RageAtk03_RushHandler"
            }
          ]
        },
        "Animal_Capybara_Nyx_RageAtk03_ASHandler": {
          "modifierName": "",
          "IPFJJJGABPL": 100.0,
          "onRemoved": [
            {
              "$type": "PFKNEFGOHIH",
              "modifierName": "Animal_Capybara_Nyx_RageAtk03_RushHandler"
            }
          ]
        }
      },
      "onAbilityStart": [
        {
          "$type": "BOBCOJHOKKD",
          "param3": 0.0,
          "key": "_ANIMAL_Capybara_Nyx_RageAtk_Bullet_",
          "param2": 0.0,
          "repeatTimes": 0.0
        },
        {
          "$type": "PELJALPANCA",
          "modifierName": "Animal_Capybara_Nyx_RageAtk03_RushHandler"
        }
      ]
    }
  },
  {
    "Default": {
      "$type": "CBPBEHLOHKI",
      "abilityName": "Capybara_Nyx_RageAtk_FollowBullet",
      "abilityMixins": [
        {
          "$type": "CCNIOPJEHOE",
          "globalValueTarget": "Owner",
          "globalValueKey": "_ANIMAL_Capybara_Nyx_RageAtk_Bullet_",
          "valueSteps": [
            -0.5,
            0.5,
            1.5
          ],
          "modifierNameSteps": [
            "Blank",
            "Capybara_Nyx_RageAtk_FollowBullet_Kill"
          ],
          "targetRegisterType": "RegisterAlways"
        }
      ],
      "modifiers": {
        "Capybara_Nyx_Watcher_82236": {
          "modifierName": "",
          "elementDurability": 0.20000000298023224,
          "IPFJJJGABPL": 100.0,
          "onAdded": [
            {
              "$type": "BOBCOJHOKKD",
              "param3": 1.0,
              "key": "_WATCHER_82236_NO_RAGEATK_HIT",
              "param2": 0.0,
              "repeatTimes": 0.0
            }
          ]
        },
        "Capybara_Nyx_RageAtk_FollowBullet_Kill": {
          "modifierName": "",
          "IPFJJJGABPL": 100.0,
          "onAdded": [
            {
              "$type": "NCFFNDHGCMH",
              "configIdArray": [
                42802202
              ]
            }
          ]
        },
        "Blank": {
          "modifierName": "",
          "IPFJJJGABPL": 100.0
        }
      },
      "onAbilityStart": [
        {
          "$type": "INBCDALOHMP",
          "target": "Target",
          "targetPredicates": [
            {
              "$type": "NIMAPECDNKD",
              "entityTypes": [
                "Avatar"
              ]
            }
          ],
          "successActions": [
            {
              "$type": "PELJALPANCA",
              "target": "CasterOriginOwner",
              "modifierName": "Capybara_Nyx_Watcher_82236"
            }
          ]
        },
        {
          "$type": "AIFPLABJNMA",
          "attackEvent": {
            "attackPattern": {
              "$type": "BELNOFAKNBA",
              "triggerType": "TriggerNoRepeat",
              "born": {
                "$type": "JGEBAJLEBMO"
              },
              "OAHPDLJIADP": 1.0
            },
            "attackInfo": {
              "attackTag": "",
              "attenuationTag": "",
              "attenuationGroup": "default",
              "attackProperty": {
                "actorGrassSubHurtDelta": 3.0,
                "actorWindSubHurtDelta": 0.0,
                "IPFJJJGABPL": 25.0,
                "strikeType": "Blunt",
                "enBreak": 1.0,
                "GLKMCMDJBIK": 0.0
              },
              "hitPattern": {
                "onHitEffectName": "default",
                "hitImpulseY": "",
                "hitImpulseType": "LV1",
                "hitHaltTimeScale": 0.009999999776482582
              },
              "canBeModifiedBy": "OriginOwner"
            }
          },
          "targetType": "Enemy"
        }
      ]
    }
  },
  {
    "Default": {
      "$type": "CBPBEHLOHKI",
      "abilityName": "Capybara_Nyx_RageAtk_KillSummonBullet",
      "abilityMixins": [
        {
          "$type": "CCNIOPJEHOE",
          "globalValueTarget": "Owner",
          "globalValueKey": "_ANIMAL_Capybara_Nyx_RageAtk_Bullet_",
          "valueSteps": [
            -0.5,
            0.5,
            1.5
          ],
          "modifierNameSteps": [
            "Blank",
            "Capybara_Nyx_RageAtk_KillSummonBullet_Kill"
          ],
          "targetRegisterType": "RegisterAlways"
        }
      ],
      "modifiers": {
        "Capybara_Nyx_RageAtk_KillSummonBullet_Kill": {
          "modifierName": "",
          "IPFJJJGABPL": 100.0,
          "onAdded": [
            {
              "$type": "NCFFNDHGCMH",
              "configIdArray": [
                42802204
              ]
            }
          ]
        },
        "Kill_Summon_Gadget": {
          "modifierName": "",
          "IPFJJJGABPL": 100.0,
          "onAdded": [
            {
              "$type": "NCFFNDHGCMH",
              "configIdArray": [
                70000000
              ]
            }
          ]
        },
        "Empty": {
          "modifierName": "",
          "IPFJJJGABPL": 100.0
        }
      },
      "onAbilityStart": [
        {
          "$type": "INBCDALOHMP",
          "target": "Target",
          "targetPredicates": [
            {
              "$type": "CNGGLKHONAA",
              "key": "_COMMON_GADGET_ISSUMMON",
              "param3": 0.0,
              "compareType": "MoreThan"
            }
          ],
          "successActions": [
            {
              "$type": "PELJALPANCA",
              "target": "Target",
              "modifierName": "Kill_Summon_Gadget"
            }
          ]
        }
      ]
    }
  }
]