[
  {
    "Default": {
      "$type": "CBPBEHLOHKI",
      "abilityName": "Animal_Goat_StateChange",
      "abilityMixins": [
        {
          "$type": "AOKOIIHJJPJ",
          "alertness": [
            2
          ],
          "modifierName": "SetPoseFalse"
        }
      ],
      "modifiers": {
        "SetPoseFalse": {
          "modifierName": "",
          "IPFJJJGABPL": 100.0,
          "onAdded": [
            {
              "$type": "IDNGFEEBPAM",
              "boolID": "LookAround"
            },
            {
              "$type": "IDNGFEEBPAM",
              "boolID": "Stretch"
            },
            {
              "$type": "IDNGFEEBPAM",
              "boolID": "AlertCrush"
            },
            {
              "$type": "HBNEMPLJCMB"
            }
          ]
        }
      }
    }
  },
  {
    "Default": {
      "$type": "CBPBEHLOHKI",
      "abilityName": "Animal_Goat_Random",
      "abilityMixins": [
        {
          "$type": "EJDKAKLFCPA",
          "stateIDs": [
            "Personality_103_BS"
          ],
          "modifierName": "Random_MoveSpeedRatio",
          "DGFCLAIDIFI": ""
        }
      ],
      "abilitySpecials": {
        "RandomTimes": 0.0
      },
      "modifiers": {
        "Random_MoveSpeedRatio": {
          "modifierName": "",
          "IPFJJJGABPL": 100.0,
          "onAdded": [
            {
              "$type": "FLJLMOKONMB",
              "valueRangeMax": 4.0,
              "valueRangeMin": 2.0,
              "overrideMapKey": "RandomTimes"
            },
            {
              "$type": "AKEEDILMOJF",
              "intID": "LoopTimes",
              "param3": "RandomTimes"
            }
          ]
        }
      }
    }
  },
  {
    "Default": {
      "$type": "CBPBEHLOHKI",
      "abilityName": "Animal_Goat_Disappear",
      "abilityMixins": [
        {
          "$type": "EJDKAKLFCPA",
          "stateIDs": [
            "Disappear"
          ],
          "modifierName": "DisappearTimer",
          "DGFCLAIDIFI": ""
        }
      ],
      "modifiers": {
        "DisappearTimer": {
          "modifierName": "",
          "IPFJJJGABPL": 100.0,
          "onAdded": [
            {
              "$type": "AKIIMECIGKE",
              "duration": 3.0
            },
            {
              "$type": "HBNEMPLJCMB",
              "hide": true
            },
            {
              "$type": "KJCHPDPBJHL",
              "boolID": "Disappear",
              "param3": true
            },
            {
              "$type": "NCFFNDHGCMH",
              "duration": 1.5,
              "killSelfType": "Disappear",
              "value": true,
              "banExp": true
            }
          ]
        }
      }
    }
  },
  {
    "Default": {
      "$type": "CBPBEHLOHKI",
      "abilityName": "Animal_Goat_FleeMode",
      "abilityMixins": [
        {
          "$type": "LEOGLBFIELL",
          "poseIDs": [
            1,
            2
          ],
          "modifierName": "FleeMode_Monitor"
        }
      ],
      "modifiers": {
        "FleeMode_Monitor": {
          "modifierName": "",
          "IPFJJJGABPL": 100.0,
          "onAdded": [
            {
              "$type": "IDNGFEEBPAM",
              "boolID": "FleeMode",
              "param3": true
            }
          ],
          "onBeingHit": [
            {
              "$type": "IDNGFEEBPAM",
              "boolID": "FleeMode"
            },
            {
              "$type": "INBCDALOHMP",
              "target": "Target",
              "targetPredicates": [
                {
                  "$type": "FMBJAJFLDIP",
                  "logic": "GreaterOrEqual",
                  "param3": 5.0,
                  "DDALGNLEHOD": ""
                }
              ],
              "successActions": [
                {
                  "$type": "IDNGFEEBPAM",
                  "boolID": "FleeMode",
                  "param3": true
                }
              ]
            },
            {
              "$type": "INBCDALOHMP",
              "target": "TargetOriginOwner",
              "targetPredicates": [
                {
                  "$type": "FMBJAJFLDIP",
                  "logic": "GreaterOrEqual",
                  "param3": 5.0,
                  "DDALGNLEHOD": ""
                }
              ],
              "successActions": [
                {
                  "$type": "IDNGFEEBPAM",
                  "boolID": "FleeMode",
                  "param3": true
                }
              ]
            },
            {
              "$type": "IDNGFEEBPAM",
              "boolID": "HitFlag",
              "param3": true
            }
          ]
        }
      }
    }
  },
  {
    "Default": {
      "$type": "CBPBEHLOHKI",
      "abilityName": "Animal_Goat_CrushAtk",
      "abilityMixins": [
        {
          "$type": "IILHMBGONGM",
          "steerStateIDs": [
            "CrushAtk"
          ],
          "startNormalizedTime": 0.07999999821186066,
          "endNormalizedTime": 0.6169999837875366,
          "angularSpeed": 180.0,
          "attackTrigger": "",
          "attackDistance": 1.5,
          "DGFCLAIDIFI": ""
        },
        {
          "$type": "IILHMBGONGM",
          "steerStateIDs": [
            "AlertCrush_BS"
          ],
          "startNormalizedTime": 0.23999999463558197,
          "endNormalizedTime": 0.550000011920929,
          "angularSpeed": 180.0,
          "attackTrigger": "",
          "attackDistance": 1.5,
          "DGFCLAIDIFI": ""
        },
        {
          "$type": "EJDKAKLFCPA",
          "stateIDs": [
            "AlertCrush_Loop"
          ],
          "modifierName": "AlertCrush_TargetMonitor",
          "DGFCLAIDIFI": ""
        }
      ],
      "modifiers": {
        "AlertCrush_TargetMonitor": {
          "modifierName": "",
          "IPFJJJGABPL": 100.0,
          "thinkInterval": 0.30000001192092896,
          "onRemoved": [
            {
              "$type": "IDNGFEEBPAM",
              "boolID": "FleeMode",
              "param3": true
            }
          ],
          "onThinkInterval": [
            {
              "$type": "BLCCGIPAOIP",
              "predicates": [
                {
                  "$type": "FMBJAJFLDIP",
                  "target": "SelfAttackTarget",
                  "logic": "LesserOrEqual",
                  "param3": 6.0,
                  "DDALGNLEHOD": ""
                }
              ],
              "PLLJBINMGJK": "AlertCrush"
            }
          ]
        }
      },
      "onAbilityStart": [
        {
          "$type": "AIFPLABJNMA",
          "attackEvent": {
            "attackPattern": {
              "$type": "JHKEHNJBMOF",
              "triggerType": "TriggerNoRepeat",
              "born": {
                "$type": "IAENDIPDFKD",
                "offset": {
                  "KGEPIMHBMOL": 0.0,
                  "JEBHCGDPFEJ": 0.5,
                  "LPCHALMFFOD": 0.0
                },
                "useRotation": true
              },
              "size": {
                "KGEPIMHBMOL": 1.5,
                "JEBHCGDPFEJ": 2.0,
                "LPCHALMFFOD": 2.5
              }
            },
            "attackInfo": {
              "attackTag": "",
              "attenuationTag": "",
              "attenuationGroup": "default",
              "attackProperty": {
                "actorGrassSubHurtDelta": 1.0,
                "actorWindSubHurtDelta": 0.0,
                "IPFJJJGABPL": 100.0,
                "strikeType": "Blunt",
                "enBreak": 1000.0,
                "GLKMCMDJBIK": 0.0
              },
              "hitPattern": {
                "onHitEffectName": "default",
                "hitImpulseY": "",
                "hitImpulseType": "LV4",
                "canBeDefenceHalt": true
              }
            }
          },
          "targetType": "Enemy"
        },
        {
          "$type": "IDNGFEEBPAM",
          "boolID": "FleeMode",
          "param3": true
        }
      ]
    }
  }
]