[
  {
    "Default": {
      "$type": "CBPBEHLOHKI",
      "abilityName": "Animal_Tortoise_Giant_01_State",
      "abilityMixins": [
        {
          "$type": "NIJGPDECHLC"
        }
      ],
      "onAdded": [
        {
          "$type": "LCOEFEMOHLP",
          "param3": 1.0,
          "key": "_ANIMAL_ENTITY_TYPE",
          "useLimitRange": true,
          "param2": 1.0,
          "repeatTimes": 0.0
        }
      ]
    }
  },
  {
    "Default": {
      "$type": "CBPBEHLOHKI",
      "abilityName": "Animal_Tortoise_02_Initial",
      "abilityMixins": [
        {
          "$type": "LEOGLBFIELL",
          "poseIDs": [
            0,
            1
          ],
          "modifierName": "Animal_Tortoise_01_BeforeBattle"
        },
        {
          "$type": "LEOGLBFIELL",
          "poseIDs": [
            901
          ],
          "modifierName": "Animal_Tortoise_01_OutOfBattle"
        },
        {
          "$type": "EKMHJKDLBJH",
          "stateIDs": [
            "Defend_Loop",
            "Standby_Defend_Loop"
          ],
          "modifierName": "Animal_Tortoise_01_InDefendAnim",
          "DGFCLAIDIFI": ""
        },
        {
          "$type": "EKMHJKDLBJH",
          "stateIDs": [
            "Defend_BS",
            "Defend_Loop",
            "Defend_AS"
          ],
          "modifierName": "Animal_Tortoise_01_CanShake",
          "DGFCLAIDIFI": ""
        }
      ],
      "modifiers": {
        "Animal_Tortoise_01_OutOfBattle": {
          "modifierName": "",
          "IPFJJJGABPL": 100.0,
          "onAdded": [
            {
              "$type": "BOBCOJHOKKD",
              "param3": 0.0,
              "key": "_AVATAR_NUMS_NEAR_TORTOISE",
              "param2": 0.0,
              "repeatTimes": 0.0
            },
            {
              "$type": "KJCHPDPBJHL",
              "boolID": "InAttack"
            },
            {
              "$type": "PFKNEFGOHIH",
              "modifierName": "Animal_Tortoise_DefendDuration"
            },
            {
              "$type": "KJCHPDPBJHL",
              "boolID": "InDefend"
            },
            {
              "$type": "KJCHPDPBJHL",
              "boolID": "InStandbyDefend"
            }
          ]
        },
        "Animal_Tortoise_01_InDefendAnim": {
          "modifierName": "",
          "IPFJJJGABPL": 100.0,
          "onAdded": [
            {
              "$type": "KJCHPDPBJHL",
              "boolID": "InDefendAnim",
              "param3": true
            }
          ],
          "onRemoved": [
            {
              "$type": "KJCHPDPBJHL",
              "boolID": "InDefendAnim"
            }
          ]
        },
        "Animal_Tortoise_01_CanShake": {
          "modifierName": "",
          "IPFJJJGABPL": 100.0,
          "onAdded": [
            {
              "$type": "KJCHPDPBJHL",
              "boolID": "CanShake",
              "param3": true
            }
          ],
          "onRemoved": [
            {
              "$type": "KJCHPDPBJHL",
              "boolID": "CanShake"
            }
          ]
        },
        "Animal_Tortoise_01_BeforeBattle": {
          "modifierName": "",
          "IPFJJJGABPL": 100.0,
          "modifierMixins": [
            {
              "$type": "CBKLCFKNHGH",
              "campTargetType": "AllExceptSelf",
              "targetPredicates": [
                {
                  "$type": "NIMAPECDNKD",
                  "entityTypes": [
                    "Avatar",
                    "Vehicle"
                  ]
                }
              ],
              "simpleCountGlobaValueKey": "_AVATAR_NUMS_NEAR_TORTOISE",
              "simpleCountUseLimitRange": true,
              "simpleCountMaxValue": 10.0,
              "simpleCountMinValue": 0.0
            },
            {
              "$type": "MLJAPFBGEEH",
              "globalValueKey": "_AVATAR_NUMS_NEAR_TORTOISE",
              "gvInTalk": 0.0,
              "valueSteps": [
                -0.5,
                0.5,
                11.0
              ],
              "modifierNameSteps": [
                "No_AvatarNear",
                "AvatarNear"
              ]
            }
          ],
          "onAdded": [
            {
              "$type": "BOBCOJHOKKD",
              "param3": 0.0,
              "key": "_AVATAR_NUMS_NEAR_TORTOISE",
              "param2": 0.0,
              "repeatTimes": 0.0
            },
            {
              "$type": "KJCHPDPBJHL",
              "boolID": "InAttack"
            },
            {
              "$type": "PFKNEFGOHIH",
              "modifierName": "Animal_Tortoise_DefendDuration"
            },
            {
              "$type": "KJCHPDPBJHL",
              "boolID": "InDefend"
            }
          ]
        },
        "No_AvatarNear": {
          "modifierName": "",
          "IPFJJJGABPL": 100.0,
          "onAdded": [
            {
              "$type": "KJCHPDPBJHL",
              "boolID": "InStandbyDefend"
            }
          ]
        },
        "AvatarNear": {
          "modifierName": "",
          "IPFJJJGABPL": 100.0,
          "onAdded": [
            {
              "$type": "KJCHPDPBJHL",
              "boolID": "InStandbyDefend",
              "param3": true
            }
          ]
        },
        "Animal_Tortoise_01_Initial": {
          "modifierName": "",
          "IPFJJJGABPL": 100.0,
          "state": "LockHP",
          "onAdded": [
            {
              "$type": "HBNEMPLJCMB",
              "canBeHandledOnRecover": true,
              "hide": true
            },
            {
              "$type": "OPAOGKPJLIG",
              "resistanceListID": 11001
            }
          ]
        },
        "Animal_Tortoise_01_BeHitHandler": {
          "modifierName": "",
          "IPFJJJGABPL": 100.0,
          "modifierMixins": [
            {
              "$type": "MLJAPFBGEEH",
              "globalValueKey": "_BE_HIT_TIMES",
              "gvInTalk": 0.0,
              "valueSteps": [
                -0.5,
                0.5,
                11.0
              ],
              "modifierNameSteps": [
                "Peace",
                "Defend"
              ]
            }
          ],
          "onAdded": [
            {
              "$type": "BOBCOJHOKKD",
              "param3": 0.0,
              "key": "_BE_HIT_TIMES",
              "param2": 0.0,
              "repeatTimes": 0.0
            },
            {
              "$type": "BOBCOJHOKKD",
              "param3": 0.0,
              "key": "_DEFEND_BE_HIT_TIMES",
              "param2": 0.0,
              "repeatTimes": 0.0
            }
          ],
          "onBeingHit": [
            {
              "$type": "LCOEFEMOHLP",
              "param3": 1.0,
              "key": "_BE_HIT_TIMES",
              "useLimitRange": true,
              "param2": 10.0,
              "repeatTimes": 0.0
            },
            {
              "$type": "LCOEFEMOHLP",
              "param3": 1.0,
              "key": "_DEFEND_BE_HIT_TIMES",
              "useLimitRange": true,
              "param2": 10.0,
              "repeatTimes": 0.0
            }
          ]
        },
        "Peace": {
          "modifierName": "",
          "IPFJJJGABPL": 100.0,
          "onAdded": [
            {
              "$type": "IDNGFEEBPAM",
              "boolID": "InDefend"
            },
            {
              "$type": "KJCHPDPBJHL",
              "boolID": "InDefend"
            }
          ]
        },
        "Defend": {
          "modifierName": "",
          "IPFJJJGABPL": 100.0,
          "onAdded": [
            {
              "$type": "BLCCGIPAOIP",
              "PLLJBINMGJK": "GoDefend"
            },
            {
              "$type": "IDNGFEEBPAM",
              "boolID": "InDefend",
              "param3": true
            },
            {
              "$type": "KJCHPDPBJHL",
              "boolID": "InDefend",
              "param3": true
            },
            {
              "$type": "PELJALPANCA",
              "modifierName": "Animal_Tortoise_DefendDuration"
            }
          ]
        },
        "Animal_Tortoise_DefendDuration": {
          "modifierName": "",
          "elementDurability": 30.0,
          "IPFJJJGABPL": 100.0,
          "onAdded": [
            {
              "$type": "BOBCOJHOKKD",
              "param3": 0.0,
              "key": "_DEFEND_BE_HIT_TIMES",
              "param2": 0.0,
              "repeatTimes": 0.0
            }
          ],
          "onRemoved": [
            {
              "$type": "BOBCOJHOKKD",
              "param3": 0.0,
              "key": "_BE_HIT_TIMES",
              "param2": 0.0,
              "repeatTimes": 0.0
            },
            {
              "$type": "BOBCOJHOKKD",
              "param3": 0.0,
              "key": "_DEFEND_BE_HIT_TIMES",
              "param2": 0.0,
              "repeatTimes": 0.0
            }
          ]
        }
      },
      "onAdded": [
        {
          "$type": "LCOEFEMOHLP",
          "param3": 1.0,
          "key": "_ANIMAL_ENTITY_TYPE",
          "useLimitRange": true,
          "param2": 1.0,
          "repeatTimes": 0.0
        },
        {
          "$type": "PELJALPANCA",
          "modifierName": "Animal_Tortoise_01_Initial"
        },
        {
          "$type": "PELJALPANCA",
          "modifierName": "Animal_Tortoise_01_BeHitHandler"
        }
      ]
    }
  },
  {
    "Default": {
      "$type": "CBPBEHLOHKI",
      "abilityName": "Animal_Tortoise_Giant_01_WaterEffect",
      "modifiers": {
        "WaterEffect": {
          "modifierName": "",
          "IPFJJJGABPL": 100.0,
          "onAdded": [
            {
              "$type": "ANLOBBMKNIJ",
              "rotationDampTime": "Eff_Animal_GiantTortoise_Standby_Water",
              "PPPDJGDDOGD": 1.0,
              "AJDILHJFNKE": -1.0
            }
          ]
        }
      },
      "onAdded": [
        {
          "$type": "JLDEMMJAMLC",
          "modifierName": "WaterEffect"
        }
      ]
    }
  },
  {
    "Default": {
      "$type": "CBPBEHLOHKI",
      "abilityName": "Animal_Tortoise_Giant_01_Initial",
      "abilityMixins": [
        {
          "$type": "EKMHJKDLBJH",
          "stateIDs": [
            "Attack_AS"
          ],
          "modifierName": "Animal_Tortoise_01_OutOfBattle",
          "DGFCLAIDIFI": ""
        },
        {
          "$type": "EKMHJKDLBJH",
          "stateIDs": [
            "Defend_Loop"
          ],
          "modifierName": "Animal_Tortoise_01_InDefendAnim",
          "DGFCLAIDIFI": ""
        },
        {
          "$type": "EKMHJKDLBJH",
          "stateIDs": [
            "Defend_BS",
            "Defend_Loop",
            "Defend_AS"
          ],
          "modifierName": "Animal_Tortoise_01_CanShake",
          "DGFCLAIDIFI": ""
        }
      ],
      "modifiers": {
        "Animal_Tortoise_01_OutOfBattle": {
          "modifierName": "",
          "IPFJJJGABPL": 100.0,
          "onRemoved": [
            {
              "$type": "KJCHPDPBJHL",
              "boolID": "InAttack"
            },
            {
              "$type": "PFKNEFGOHIH",
              "modifierName": "Animal_Tortoise_DefendDuration"
            },
            {
              "$type": "KJCHPDPBJHL",
              "boolID": "InDefend"
            }
          ]
        },
        "Animal_Tortoise_01_InDefendAnim": {
          "modifierName": "",
          "IPFJJJGABPL": 100.0,
          "onAdded": [
            {
              "$type": "KJCHPDPBJHL",
              "boolID": "InDefendAnim",
              "param3": true
            }
          ],
          "onRemoved": [
            {
              "$type": "KJCHPDPBJHL",
              "boolID": "InDefendAnim"
            }
          ]
        },
        "Animal_Tortoise_01_CanShake": {
          "modifierName": "",
          "IPFJJJGABPL": 100.0,
          "onAdded": [
            {
              "$type": "KJCHPDPBJHL",
              "boolID": "CanShake",
              "param3": true
            }
          ],
          "onRemoved": [
            {
              "$type": "KJCHPDPBJHL",
              "boolID": "CanShake"
            }
          ]
        },
        "Animal_Tortoise_01_Initial": {
          "modifierName": "",
          "IPFJJJGABPL": 100.0,
          "state": "LockHP",
          "onAdded": [
            {
              "$type": "HBNEMPLJCMB",
              "canBeHandledOnRecover": true,
              "hide": true
            },
            {
              "$type": "OPAOGKPJLIG",
              "resistanceListID": 11001
            }
          ]
        },
        "Animal_Tortoise_01_BeHitHandler": {
          "modifierName": "",
          "IPFJJJGABPL": 100.0,
          "modifierMixins": [
            {
              "$type": "MLJAPFBGEEH",
              "globalValueKey": "_BE_HIT_TIMES",
              "gvInTalk": 0.0,
              "valueSteps": [
                -0.5,
                4.5,
                11.0
              ],
              "modifierNameSteps": [
                "Peace",
                "Defend"
              ]
            },
            {
              "$type": "MLJAPFBGEEH",
              "globalValueKey": "_DEFEND_BE_HIT_TIMES",
              "gvInTalk": 0.0,
              "valueSteps": [
                -0.5,
                5.5,
                11.0
              ],
              "modifierNameSteps": [
                "InDefend",
                "Attack"
              ]
            }
          ],
          "onAdded": [
            {
              "$type": "BOBCOJHOKKD",
              "param3": 0.0,
              "key": "_BE_HIT_TIMES",
              "param2": 0.0,
              "repeatTimes": 0.0
            },
            {
              "$type": "BOBCOJHOKKD",
              "param3": 0.0,
              "key": "_DEFEND_BE_HIT_TIMES",
              "param2": 0.0,
              "repeatTimes": 0.0
            }
          ],
          "onBeingHit": [
            {
              "$type": "INBCDALOHMP",
              "targetPredicates": [
                {
                  "$type": "HHHMNCNPBDK",
                  "predicates": [
                    {
                      "$type": "OHKJOADLOBB",
                      "hitBoxNames": [
                        "HitBoxHead"
                      ]
                    },
                    {
                      "$type": "KNBFJBFMGLD",
                      "logic": "GreaterOrEqual",
                      "enBreak": 100.0
                    }
                  ]
                }
              ],
              "successActions": [
                {
                  "$type": "BLCCGIPAOIP",
                  "PLLJBINMGJK": "RealShakeTrigger",
                  "mpTriggerOnRemote": true
                },
                {
                  "$type": "LCOEFEMOHLP",
                  "predicates": [
                    {
                      "$type": "BCFNGJHILAG",
                      "predicates": [
                        {
                          "$type": "BHFFBBOLCCP",
                          "modifierName": "Animal_Tortoise_01_OutOfBattle"
                        }
                      ]
                    }
                  ],
                  "param3": 1.0,
                  "key": "_BE_HIT_TIMES",
                  "useLimitRange": true,
                  "param2": 10.0,
                  "repeatTimes": 0.0
                },
                {
                  "$type": "LCOEFEMOHLP",
                  "predicates": [
                    {
                      "$type": "BCFNGJHILAG",
                      "predicates": [
                        {
                          "$type": "BHFFBBOLCCP",
                          "modifierName": "Animal_Tortoise_01_OutOfBattle"
                        }
                      ]
                    }
                  ],
                  "param3": 1.0,
                  "key": "_DEFEND_BE_HIT_TIMES",
                  "useLimitRange": true,
                  "param2": 10.0,
                  "repeatTimes": 0.0
                }
              ]
            }
          ]
        },
        "Peace": {
          "modifierName": "",
          "IPFJJJGABPL": 100.0,
          "onAdded": [
            {
              "$type": "IDNGFEEBPAM",
              "boolID": "InDefend"
            },
            {
              "$type": "KJCHPDPBJHL",
              "boolID": "InDefend"
            }
          ]
        },
        "Defend": {
          "modifierName": "",
          "IPFJJJGABPL": 100.0,
          "onAdded": [
            {
              "$type": "BLCCGIPAOIP",
              "PLLJBINMGJK": "GoDefend"
            },
            {
              "$type": "IDNGFEEBPAM",
              "boolID": "InDefend",
              "param3": true
            },
            {
              "$type": "KJCHPDPBJHL",
              "boolID": "InDefend",
              "param3": true
            },
            {
              "$type": "PELJALPANCA",
              "modifierName": "Animal_Tortoise_DefendDuration"
            },
            {
              "$type": "BOBCOJHOKKD",
              "param3": 0.0,
              "key": "_DEFEND_BE_HIT_TIMES",
              "param2": 0.0,
              "repeatTimes": 0.0
            }
          ],
          "onBeingHit": [
            {
              "$type": "PELJALPANCA",
              "modifierName": "Animal_Tortoise_DefendDuration"
            }
          ]
        },
        "Animal_Tortoise_DefendDuration": {
          "modifierName": "",
          "elementDurability": 8.0,
          "IPFJJJGABPL": 100.0,
          "onRemoved": [
            {
              "$type": "BOBCOJHOKKD",
              "param3": 0.0,
              "key": "_BE_HIT_TIMES",
              "param2": 0.0,
              "repeatTimes": 0.0
            },
            {
              "$type": "BOBCOJHOKKD",
              "param3": 0.0,
              "key": "_DEFEND_BE_HIT_TIMES",
              "param2": 0.0,
              "repeatTimes": 0.0
            }
          ]
        },
        "InDefend": {
          "modifierName": "",
          "IPFJJJGABPL": 100.0,
          "onAdded": [
            {
              "$type": "KJCHPDPBJHL",
              "boolID": "InAttack"
            }
          ]
        },
        "Attack": {
          "modifierName": "",
          "IPFJJJGABPL": 100.0,
          "onAdded": [
            {
              "$type": "BLCCGIPAOIP",
              "PLLJBINMGJK": "GoAttack"
            },
            {
              "$type": "KJCHPDPBJHL",
              "boolID": "InAttack",
              "param3": true
            },
            {
              "$type": "PELJALPANCA",
              "modifierName": "Animal_Tortoise_AttackDuration"
            }
          ],
          "onBeingHit": [
            {
              "$type": "PELJALPANCA",
              "modifierName": "Animal_Tortoise_AttackDuration"
            }
          ]
        },
        "Animal_Tortoise_AttackDuration": {
          "modifierName": "",
          "elementDurability": 8.0,
          "IPFJJJGABPL": 100.0,
          "onRemoved": [
            {
              "$type": "BOBCOJHOKKD",
              "param3": 0.0,
              "key": "_DEFEND_BE_HIT_TIMES",
              "param2": 0.0,
              "repeatTimes": 0.0
            }
          ]
        }
      },
      "onAdded": [
        {
          "$type": "AOOCGNCCAJB",
          "isAdd": true,
          "tag": "IS_GIANT_TORTOISE"
        },
        {
          "$type": "PELJALPANCA",
          "modifierName": "Animal_Tortoise_01_Initial"
        },
        {
          "$type": "PELJALPANCA",
          "modifierName": "Animal_Tortoise_01_BeHitHandler"
        }
      ]
    }
  },
  {
    "Default": {
      "$type": "CBPBEHLOHKI",
      "abilityName": "Animal_Tortoise_01_Initial",
      "abilityMixins": [
        {
          "$type": "LEOGLBFIELL",
          "poseIDs": [
            0,
            1
          ],
          "modifierName": "Animal_Tortoise_01_BeforeBattle"
        },
        {
          "$type": "LEOGLBFIELL",
          "poseIDs": [
            901
          ],
          "modifierName": "Animal_Tortoise_01_OutOfBattle"
        },
        {
          "$type": "EKMHJKDLBJH",
          "stateIDs": [
            "Attack_AS"
          ],
          "modifierName": "Animal_Tortoise_01_AttackEffAS",
          "DGFCLAIDIFI": ""
        },
        {
          "$type": "EKMHJKDLBJH",
          "stateIDs": [
            "Defend_Loop",
            "Standby_Defend_Loop"
          ],
          "modifierName": "Animal_Tortoise_01_InDefendAnim",
          "DGFCLAIDIFI": ""
        },
        {
          "$type": "EKMHJKDLBJH",
          "stateIDs": [
            "Defend_BS",
            "Defend_Loop",
            "Defend_AS"
          ],
          "modifierName": "Animal_Tortoise_01_CanShake",
          "DGFCLAIDIFI": ""
        }
      ],
      "modifiers": {
        "Animal_Tortoise_01_OutOfBattle": {
          "modifierName": "",
          "IPFJJJGABPL": 100.0,
          "onAdded": [
            {
              "$type": "BOBCOJHOKKD",
              "param3": 0.0,
              "key": "_AVATAR_NUMS_NEAR_TORTOISE",
              "param2": 0.0,
              "repeatTimes": 0.0
            },
            {
              "$type": "KJCHPDPBJHL",
              "boolID": "InAttack"
            },
            {
              "$type": "PFKNEFGOHIH",
              "modifierName": "Animal_Tortoise_DefendDuration"
            },
            {
              "$type": "KJCHPDPBJHL",
              "boolID": "InDefend"
            },
            {
              "$type": "KJCHPDPBJHL",
              "boolID": "InStandbyDefend"
            }
          ]
        },
        "Animal_Tortoise_01_InDefendAnim": {
          "modifierName": "",
          "IPFJJJGABPL": 100.0,
          "onAdded": [
            {
              "$type": "KJCHPDPBJHL",
              "boolID": "InDefendAnim",
              "param3": true
            }
          ],
          "onRemoved": [
            {
              "$type": "KJCHPDPBJHL",
              "boolID": "InDefendAnim"
            }
          ]
        },
        "Animal_Tortoise_01_CanShake": {
          "modifierName": "",
          "IPFJJJGABPL": 100.0,
          "onAdded": [
            {
              "$type": "KJCHPDPBJHL",
              "boolID": "CanShake",
              "param3": true
            }
          ],
          "onRemoved": [
            {
              "$type": "KJCHPDPBJHL",
              "boolID": "CanShake"
            }
          ]
        },
        "Animal_Tortoise_01_AttackEffAS": {
          "modifierName": "",
          "IPFJJJGABPL": 100.0,
          "onAdded": [
            {
              "$type": "KBFEIHEAMBM",
              "rotationDampTime": "Eff_Animal_Tortoise_Attack_AS",
              "PPPDJGDDOGD": 1.0,
              "AJDILHJFNKE": -1.0
            }
          ]
        },
        "Animal_Tortoise_01_BeforeBattle": {
          "modifierName": "",
          "IPFJJJGABPL": 100.0,
          "modifierMixins": [
            {
              "$type": "CBKLCFKNHGH",
              "campTargetType": "AllExceptSelf",
              "targetPredicates": [
                {
                  "$type": "NIMAPECDNKD",
                  "entityTypes": [
                    "Avatar",
                    "Vehicle"
                  ]
                }
              ],
              "simpleCountGlobaValueKey": "_AVATAR_NUMS_NEAR_TORTOISE",
              "simpleCountUseLimitRange": true,
              "simpleCountMaxValue": 10.0,
              "simpleCountMinValue": 0.0
            },
            {
              "$type": "MLJAPFBGEEH",
              "globalValueKey": "_AVATAR_NUMS_NEAR_TORTOISE",
              "gvInTalk": 0.0,
              "valueSteps": [
                -0.5,
                0.5,
                11.0
              ],
              "modifierNameSteps": [
                "No_AvatarNear",
                "AvatarNear"
              ]
            }
          ],
          "onAdded": [
            {
              "$type": "BOBCOJHOKKD",
              "param3": 0.0,
              "key": "_AVATAR_NUMS_NEAR_TORTOISE",
              "param2": 0.0,
              "repeatTimes": 0.0
            },
            {
              "$type": "KJCHPDPBJHL",
              "boolID": "InAttack"
            },
            {
              "$type": "PFKNEFGOHIH",
              "modifierName": "Animal_Tortoise_DefendDuration"
            },
            {
              "$type": "KJCHPDPBJHL",
              "boolID": "InDefend"
            }
          ]
        },
        "No_AvatarNear": {
          "modifierName": "",
          "IPFJJJGABPL": 100.0,
          "onAdded": [
            {
              "$type": "KJCHPDPBJHL",
              "boolID": "InStandbyDefend"
            }
          ]
        },
        "AvatarNear": {
          "modifierName": "",
          "IPFJJJGABPL": 100.0,
          "onAdded": [
            {
              "$type": "KJCHPDPBJHL",
              "boolID": "InStandbyDefend",
              "param3": true
            }
          ]
        },
        "Animal_Tortoise_01_Initial": {
          "modifierName": "",
          "IPFJJJGABPL": 100.0,
          "state": "LockHP",
          "onAdded": [
            {
              "$type": "HBNEMPLJCMB",
              "canBeHandledOnRecover": true,
              "hide": true
            },
            {
              "$type": "OPAOGKPJLIG",
              "resistanceListID": 11001
            }
          ]
        },
        "Animal_Tortoise_01_BeHitHandler": {
          "modifierName": "",
          "IPFJJJGABPL": 100.0,
          "modifierMixins": [
            {
              "$type": "MLJAPFBGEEH",
              "globalValueKey": "_BE_HIT_TIMES",
              "gvInTalk": 0.0,
              "valueSteps": [
                -0.5,
                0.5,
                11.0
              ],
              "modifierNameSteps": [
                "Peace",
                "Defend"
              ]
            },
            {
              "$type": "MLJAPFBGEEH",
              "globalValueKey": "_DEFEND_BE_HIT_TIMES",
              "gvInTalk": 0.0,
              "valueSteps": [
                -0.5,
                5.0,
                11.0
              ],
              "modifierNameSteps": [
                "InDefend",
                "Attack"
              ]
            }
          ],
          "onAdded": [
            {
              "$type": "BOBCOJHOKKD",
              "param3": 0.0,
              "key": "_BE_HIT_TIMES",
              "param2": 0.0,
              "repeatTimes": 0.0
            },
            {
              "$type": "BOBCOJHOKKD",
              "param3": 0.0,
              "key": "_DEFEND_BE_HIT_TIMES",
              "param2": 0.0,
              "repeatTimes": 0.0
            }
          ],
          "onBeingHit": [
            {
              "$type": "LCOEFEMOHLP",
              "param3": 1.0,
              "key": "_BE_HIT_TIMES",
              "useLimitRange": true,
              "param2": 10.0,
              "repeatTimes": 0.0
            },
            {
              "$type": "LCOEFEMOHLP",
              "param3": 1.0,
              "key": "_DEFEND_BE_HIT_TIMES",
              "useLimitRange": true,
              "param2": 10.0,
              "repeatTimes": 0.0
            }
          ]
        },
        "Peace": {
          "modifierName": "",
          "IPFJJJGABPL": 100.0,
          "onAdded": [
            {
              "$type": "IDNGFEEBPAM",
              "boolID": "InDefend"
            },
            {
              "$type": "KJCHPDPBJHL",
              "boolID": "InDefend"
            }
          ]
        },
        "Defend": {
          "modifierName": "",
          "IPFJJJGABPL": 100.0,
          "onAdded": [
            {
              "$type": "BLCCGIPAOIP",
              "PLLJBINMGJK": "GoDefend"
            },
            {
              "$type": "IDNGFEEBPAM",
              "boolID": "InDefend",
              "param3": true
            },
            {
              "$type": "KJCHPDPBJHL",
              "boolID": "InDefend",
              "param3": true
            },
            {
              "$type": "PELJALPANCA",
              "modifierName": "Animal_Tortoise_DefendDuration"
            }
          ]
        },
        "Animal_Tortoise_DefendDuration": {
          "modifierName": "",
          "elementDurability": 20.0,
          "IPFJJJGABPL": 100.0,
          "onAdded": [
            {
              "$type": "BOBCOJHOKKD",
              "param3": 0.0,
              "key": "_DEFEND_BE_HIT_TIMES",
              "param2": 0.0,
              "repeatTimes": 0.0
            }
          ],
          "onRemoved": [
            {
              "$type": "BOBCOJHOKKD",
              "param3": 0.0,
              "key": "_BE_HIT_TIMES",
              "param2": 0.0,
              "repeatTimes": 0.0
            },
            {
              "$type": "BOBCOJHOKKD",
              "param3": 0.0,
              "key": "_DEFEND_BE_HIT_TIMES",
              "param2": 0.0,
              "repeatTimes": 0.0
            }
          ]
        },
        "InDefend": {
          "modifierName": "",
          "IPFJJJGABPL": 100.0,
          "onAdded": [
            {
              "$type": "KJCHPDPBJHL",
              "boolID": "InAttack"
            }
          ]
        },
        "Attack": {
          "modifierName": "",
          "IPFJJJGABPL": 100.0,
          "onAdded": [
            {
              "$type": "BLCCGIPAOIP",
              "PLLJBINMGJK": "GoAttack"
            },
            {
              "$type": "KJCHPDPBJHL",
              "boolID": "InAttack",
              "param3": true
            },
            {
              "$type": "PELJALPANCA",
              "modifierName": "Animal_Tortoise_AttackDuration"
            }
          ],
          "onBeingHit": [
            {
              "$type": "PELJALPANCA",
              "modifierName": "Animal_Tortoise_AttackDuration"
            }
          ]
        },
        "Animal_Tortoise_AttackDuration": {
          "modifierName": "",
          "elementDurability": 4.0,
          "IPFJJJGABPL": 100.0,
          "onRemoved": [
            {
              "$type": "BOBCOJHOKKD",
              "param3": 0.0,
              "key": "_DEFEND_BE_HIT_TIMES",
              "param2": 0.0,
              "repeatTimes": 0.0
            }
          ]
        },
        "Animal_Tortoise_01_Attack": {
          "modifierName": "",
          "IPFJJJGABPL": 100.0,
          "thinkInterval": 0.20000000298023224,
          "onThinkInterval": [
            {
              "$type": "AIFPLABJNMA",
              "attackEvent": {
                "attackPattern": {
                  "$type": "GMDIMKKHACA",
                  "triggerType": "TriggerNoRepeat",
                  "born": {
                    "$type": "IAENDIPDFKD",
                    "useRotation": true
                  },
                  "height": 2.0,
                  "OAHPDLJIADP": 1.7999999523162842
                },
                "attackInfo": {
                  "attackTag": "",
                  "attenuationTag": "Tortoise_Attack",
                  "attenuationGroup": "Tortoise_Attack",
                  "attackProperty": {
                    "actorGrassSubHurtDelta": 1.0,
                    "actorWindSubHurtDelta": 0.0,
                    "IPFJJJGABPL": 100.0,
                    "strikeType": "Blunt",
                    "enBreak": 120.0,
                    "GLKMCMDJBIK": 0.0
                  },
                  "hitPattern": {
                    "onHitEffectName": "default",
                    "hitImpulseY": "",
                    "hitImpulseType": "LV4",
                    "hitHaltTimeScale": 0.05000000074505806
                  }
                }
              },
              "targetType": "Enemy"
            }
          ]
        }
      },
      "onAdded": [
        {
          "$type": "PELJALPANCA",
          "modifierName": "Animal_Tortoise_01_Initial"
        },
        {
          "$type": "PELJALPANCA",
          "modifierName": "Animal_Tortoise_01_BeHitHandler"
        }
      ]
    }
  },
  {
    "Default": {
      "$type": "CBPBEHLOHKI",
      "abilityName": "Animal_Tortoise_Electric_CombatStage",
      "abilityMixins": [
        {
          "$type": "LEOGLBFIELL",
          "poseIDs": [
            101,
            201,
            301
          ],
          "modifierName": "Animal_Tortoise_Electric_AIInCombat"
        },
        {
          "$type": "EKMHJKDLBJH",
          "stateIDs": [
            "Weak_BS",
            "Weak_Loop",
            "Weak_AS"
          ],
          "modifierName": "Animal_Tortoise_Electric_WeakState",
          "DGFCLAIDIFI": ""
        },
        {
          "$type": "EKMHJKDLBJH",
          "stateIDs": [
            "Weak_AS"
          ],
          "modifierName": "Animal_Tortoise_Electric_ForceSetCombatStage",
          "DGFCLAIDIFI": ""
        },
        {
          "$type": "JCLLHEBBFON",
          "watcherId": 82225,
          "predicates": [
            {
              "$type": "CNGGLKHONAA",
              "target": "Self",
              "key": "_WATCHER_82225_FLAG_02_",
              "param3": 1.0
            },
            {
              "$type": "CNGGLKHONAA",
              "target": "Self",
              "key": "_WATCHER_82225_FLAG_01_",
              "param3": 0.0,
              "compareType": "NoneOrEqual"
            }
          ],
          "predicatesForeach": [
            {
              "$type": "EBOHLEJJMIG",
              "IKILOJFBKMA": 82224
            }
          ]
        },
        {
          "$type": "JCLLHEBBFON",
          "watcherId": 82224,
          "predicates": [
            {
              "$type": "CNGGLKHONAA",
              "target": "Self",
              "key": "_WATCHER_82224_FLAG_01_",
              "param3": 0.0,
              "compareType": "NoneOrEqual"
            }
          ],
          "predicatesForeach": [
            {
              "$type": "EBOHLEJJMIG",
              "IKILOJFBKMA": 82223
            }
          ]
        },
        {
          "$type": "JCLLHEBBFON",
          "watcherId": 82223
        }
      ],
      "modifiers": {
        "Animal_Tortoise_Electric_AIInCombat": {
          "modifierName": "",
          "IPFJJJGABPL": 100.0,
          "modifierMixins": [
            {
              "$type": "MLJAPFBGEEH",
              "globalValueKey": "_ANIMAL_TORTOISE_ELECTRIC_COMBATSTAGE_",
              "gvInTalk": 0.0,
              "valueSteps": [
                -0.5,
                0.5,
                1.5,
                2.5
              ],
              "modifierNameSteps": [
                "UNIQUE_Animal_Tortoise_Electric_Stage1",
                "UNIQUE_Animal_Tortoise_Electric_Stage2",
                "UNIQUE_Animal_Tortoise_Electric_Weak"
              ]
            }
          ],
          "onAdded": [
            {
              "$type": "BOBCOJHOKKD",
              "param3": 1.0,
              "key": "_AI_INCOMBAT_",
              "param2": 0.0,
              "repeatTimes": 0.0
            },
            {
              "$type": "OPAOGKPJLIG",
              "resistanceListID": 14002,
              "durationRatio": 0.8999999761581421
            }
          ],
          "onRemoved": [
            {
              "$type": "BOBCOJHOKKD",
              "param3": 0.0,
              "key": "_AI_INCOMBAT_",
              "param2": 0.0,
              "repeatTimes": 0.0
            },
            {
              "$type": "BOBCOJHOKKD",
              "param3": 0.0,
              "key": "_ANIMAL_TORTOISE_ELECTRIC_COMBATSTAGE_",
              "param2": 0.0,
              "repeatTimes": 0.0
            },
            {
              "$type": "IDNGFEEBPAM",
              "boolID": "FuryState"
            },
            {
              "$type": "FNPMFLOOCDD",
              "shieldHP": true,
              "param3": 0.0,
              "key": "_WATCHER_82224_FLAG_01_",
              "param2": 0.0,
              "repeatTimes": 0.0
            },
            {
              "$type": "FNPMFLOOCDD",
              "shieldHP": true,
              "param3": 0.0,
              "key": "_WATCHER_82225_FLAG_01_",
              "param2": 0.0,
              "repeatTimes": 0.0
            },
            {
              "$type": "FNPMFLOOCDD",
              "shieldHP": true,
              "param3": 0.0,
              "key": "_WATCHER_82225_FLAG_02_",
              "param2": 0.0,
              "repeatTimes": 0.0
            }
          ]
        },
        "UNIQUE_Animal_Tortoise_Electric_Stage1": {
          "modifierName": "",
          "forceTriggerWhenChangeAuthority": true,
          "IPFJJJGABPL": 100.0,
          "onAdded": [
            {
              "$type": "IDNGFEEBPAM",
              "boolID": "FuryState"
            },
            {
              "$type": "OHPMBBJIJFG",
              "value": 2.0
            },
            {
              "$type": "BOBCOJHOKKD",
              "param3": 0.0,
              "key": "_ANIMAL_TORTOISE_ELECTRIC_FURYSTATE_",
              "param2": 0.0,
              "repeatTimes": 0.0
            },
            {
              "$type": "PELJALPANCA",
              "modifierName": "UNIQUE_Animal_Tortoise_Electric_ChargeBar"
            }
          ],
          "onRemoved": [
            {
              "$type": "KBODPNEEFGD",
              "modifierName": "UNIQUE_Animal_Tortoise_Electric_ChargeBar"
            }
          ]
        },
        "UNIQUE_Animal_Tortoise_Electric_Stage2": {
          "modifierName": "",
          "forceTriggerWhenChangeAuthority": true,
          "IPFJJJGABPL": 100.0,
          "onAdded": [
            {
              "$type": "IDNGFEEBPAM",
              "boolID": "FuryState",
              "param3": true
            },
            {
              "$type": "OHPMBBJIJFG",
              "value": 1.5
            },
            {
              "$type": "IPMMJGMONCI",
              "skillIDs": [
                401
              ]
            }
          ],
          "onRemoved": [
            {
              "$type": "KBODPNEEFGD",
              "modifierName": "UNIQUE_Animal_Tortoise_Electric_ElementShield"
            },
            {
              "$type": "BOBCOJHOKKD",
              "param3": 0.0,
              "key": "_ANIMAL_TORTOISE_ELECTRIC_FURYSTATE_",
              "param2": 0.0,
              "repeatTimes": 0.0
            }
          ]
        },
        "UNIQUE_Animal_Tortoise_Electric_Weak": {
          "modifierName": "",
          "forceTriggerWhenChangeAuthority": true,
          "IPFJJJGABPL": 100.0,
          "onAdded": [
            {
              "$type": "BLCCGIPAOIP",
              "PLLJBINMGJK": "WeakStart",
              "mpTriggerOnRemote": true
            },
            {
              "$type": "BOBCOJHOKKD",
              "param3": 0.0,
              "key": "_CHARGEBAR_VALUE",
              "param2": 0.0,
              "repeatTimes": 0.0
            }
          ]
        },
        "Animal_Tortoise_Electric_WeakState": {
          "modifierName": "",
          "IPFJJJGABPL": 100.0,
          "modifierMixins": [
            {
              "$type": "CIBMLJJLANN",
              "muteAll": true
            },
            {
              "$type": "IHIOPCLMJGE"
            }
          ],
          "onRemoved": [
            {
              "$type": "BOBCOJHOKKD",
              "param3": 0.0,
              "key": "_ANIMAL_TORTOISE_ELECTRIC_COMBATSTAGE_",
              "param2": 0.0,
              "repeatTimes": 0.0
            }
          ]
        },
        "UNIQUE_Animal_Tortoise_Electric_ChargeBar": {
          "modifierName": "",
          "forceTriggerWhenChangeAuthority": true,
          "IPFJJJGABPL": 100.0,
          "modifierMixins": [
            {
              "$type": "HBPDEMIJCDL",
              "chargeBarElementType": "Electric",
              "chargeBarIconID": 2,
              "initialValue": 0.0,
              "param2": 100.0
            },
            {
              "$type": "MLJAPFBGEEH",
              "globalValueKey": "_CHARGEBAR_VALUE",
              "gvInTalk": 0.0,
              "valueSteps": [
                99.5,
                100.5
              ],
              "modifierNameSteps": [
                "UNIQUE_Animal_Tortoise_Electric_ChargeBarFull"
              ]
            }
          ],
          "onBeingHit": [
            {
              "$type": "PMJJNECJCLE",
              "predicates": [
                {
                  "$type": "GAGDDICMFEH",
                  "damage": 0.0,
                  "useOriginDamage": true
                },
                {
                  "$type": "BCFNGJHILAG",
                  "predicates": [
                    {
                      "$type": "NNEHDJHMING",
                      "attackTags": [
                        "BurningDamage"
                      ]
                    }
                  ]
                }
              ],
              "param3": 3.0,
              "param2": 0.0,
              "repeatTimes": 0.0
            }
          ]
        },
        "UNIQUE_Animal_Tortoise_Electric_ChargeBarFull": {
          "modifierName": "",
          "forceTriggerWhenChangeAuthority": true,
          "IPFJJJGABPL": 100.0,
          "onAdded": [
            {
              "$type": "BOBCOJHOKKD",
              "param3": 1.0,
              "key": "_ANIMAL_TORTOISE_ELECTRIC_COMBATSTAGE_",
              "param2": 0.0,
              "repeatTimes": 0.0
            }
          ]
        },
        "Animal_Tortoise_Electric_ForceSetCombatStage": {
          "modifierName": "",
          "IPFJJJGABPL": 100.0,
          "onAdded": [
            {
              "$type": "FNPMFLOOCDD",
              "param3": 0.0,
              "key": "_ANIMAL_TORTOISE_ELECTRIC_COMBATSTAGE_",
              "param2": 0.0,
              "repeatTimes": 0.0
            }
          ]
        }
      },
      "onAdded": [
        {
          "$type": "MPAGCPPAIHJ",
          "key": "_ANIMAL_TORTOISE_ELECTRIC_BORNPOS_",
          "born": {
            "$type": "IAENDIPDFKD",
            "onGround": true,
            "direction": {
              "$type": "LEIHCELGBNN",
              "angleOffset": {
                "KGEPIMHBMOL": 0.0,
                "JEBHCGDPFEJ": 0.0,
                "LPCHALMFFOD": 0.0
              }
            },
            "useRotation": true
          },
          "setTarget": false
        },
        {
          "$type": "BOBCOJHOKKD",
          "param3": 0.0,
          "key": "_CHARGEBAR_VALUE",
          "param2": 0.0,
          "repeatTimes": 0.0
        },
        {
          "$type": "BOBCOJHOKKD",
          "param3": 0.0,
          "key": "_AI_INCOMBAT_",
          "param2": 0.0,
          "repeatTimes": 0.0
        }
      ]
    }
  },
  {
    "Default": {
      "$type": "CBPBEHLOHKI",
      "abilityName": "Animal_Tortoise_Electric_JumpAtk",
      "modifiers": {
        "Animal_Tortoise_Electric_JumpAtkDamage": {
          "modifierName": "",
          "elementDurability": 0.699999988079071,
          "IPFJJJGABPL": 100.0,
          "onAdded": [
            {
              "$type": "KBFEIHEAMBM",
              "predicates": [
                {
                  "$type": "CNGGLKHONAA",
                  "target": "Self",
                  "key": "_ANIMAL_TORTOISE_ELECTRIC_FURYSTATE_",
                  "param3": 0.0
                }
              ],
              "rotationDampTime": "Eff_Ani_Animal_Tortoise_Electric_JumpAtk_Normal",
              "PPPDJGDDOGD": 1.0,
              "AJDILHJFNKE": -1.0
            },
            {
              "$type": "KBFEIHEAMBM",
              "predicates": [
                {
                  "$type": "CNGGLKHONAA",
                  "target": "Self",
                  "key": "_ANIMAL_TORTOISE_ELECTRIC_FURYSTATE_",
                  "param3": 1.0
                }
              ],
              "rotationDampTime": "Eff_Ani_Animal_Tortoise_Electric_JumpAtk_Strong",
              "PPPDJGDDOGD": 1.0,
              "AJDILHJFNKE": -1.0
            }
          ],
          "onRemoved": [
            {
              "$type": "AIFPLABJNMA",
              "predicates": [
                {
                  "$type": "CNGGLKHONAA",
                  "target": "Self",
                  "key": "_ANIMAL_TORTOISE_ELECTRIC_FURYSTATE_",
                  "param3": 0.0
                }
              ],
              "attackEvent": {
                "attackPattern": {
                  "$type": "GMDIMKKHACA",
                  "triggerType": "TriggerNoRepeat",
                  "born": {
                    "$type": "IAENDIPDFKD",
                    "offset": {
                      "KGEPIMHBMOL": 0.0,
                      "JEBHCGDPFEJ": -1.0,
                      "LPCHALMFFOD": 0.0
                    },
                    "useRotation": true
                  },
                  "height": 3.0,
                  "OAHPDLJIADP": 5.0
                },
                "attackInfo": {
                  "attackTag": "",
                  "attenuationTag": "",
                  "attenuationGroup": "default",
                  "attackProperty": {
                    "actorGrassSubHurtDelta": 0.5,
                    "actorWindSubHurtDelta": 0.0,
                    "elementType": "Electric",
                    "IPFJJJGABPL": 25.0,
                    "strikeType": "Blunt",
                    "enBreak": 200.0,
                    "GLKMCMDJBIK": 0.0
                  },
                  "hitPattern": {
                    "onHitEffectName": "default",
                    "hitImpulseY": "",
                    "hitImpulseType": "LV3",
                    "hitHaltTimeScale": 0.05000000074505806
                  },
                  "forceCameraShake": true,
                  "cameraShake": {
                    "shakeType": "CustomVector",
                    "shakeRange": 0.5,
                    "shakeTime": 0.20000000298023224,
                    "shakeDistance": 30.0,
                    "shakeDir": {
                      "y": -1.0
                    }
                  }
                }
              },
              "targetType": "Enemy"
            },
            {
              "$type": "AIFPLABJNMA",
              "predicates": [
                {
                  "$type": "CNGGLKHONAA",
                  "target": "Self",
                  "key": "_ANIMAL_TORTOISE_ELECTRIC_FURYSTATE_",
                  "param3": 1.0
                }
              ],
              "attackEvent": {
                "attackPattern": {
                  "$type": "GMDIMKKHACA",
                  "triggerType": "TriggerNoRepeat",
                  "born": {
                    "$type": "IAENDIPDFKD",
                    "offset": {
                      "KGEPIMHBMOL": 0.0,
                      "JEBHCGDPFEJ": -1.0,
                      "LPCHALMFFOD": 0.0
                    },
                    "useRotation": true
                  },
                  "height": 3.0,
                  "OAHPDLJIADP": 7.5
                },
                "attackInfo": {
                  "attackTag": "",
                  "attenuationTag": "",
                  "attenuationGroup": "default",
                  "attackProperty": {
                    "actorGrassSubHurtDelta": 0.699999988079071,
                    "actorWindSubHurtDelta": 0.0,
                    "elementType": "Electric",
                    "IPFJJJGABPL": 25.0,
                    "strikeType": "Blunt",
                    "enBreak": 200.0,
                    "GLKMCMDJBIK": 0.0
                  },
                  "hitPattern": {
                    "onHitEffectName": "default",
                    "hitImpulseY": "",
                    "hitImpulseType": "LV3",
                    "hitHaltTimeScale": 0.05000000074505806
                  },
                  "forceCameraShake": true,
                  "cameraShake": {
                    "shakeType": "CustomVector",
                    "shakeRange": 0.5,
                    "shakeTime": 0.20000000298023224,
                    "shakeDistance": 30.0,
                    "shakeDir": {
                      "y": -1.0
                    }
                  }
                }
              },
              "targetType": "Enemy"
            }
          ]
        }
      },
      "onAbilityStart": [
        {
          "$type": "PELJALPANCA",
          "modifierName": "Animal_Tortoise_Electric_JumpAtkDamage"
        }
      ]
    }
  },
  {
    "Default": {
      "$type": "CBPBEHLOHKI",
      "abilityName": "Animal_Tortoise_Electric_FireBullet",
      "abilityMixins": [
        {
          "$type": "EKMHJKDLBJH",
          "stateIDs": [
            "FireBullet"
          ],
          "modifierName": "Animal_Tortoise_Electric_FireBulletState",
          "DGFCLAIDIFI": ""
        }
      ],
      "modifiers": {
        "Animal_Tortoise_Electric_FireBulletState": {
          "modifierName": "",
          "IPFJJJGABPL": 100.0,
          "onAdded": [
            {
              "$type": "KBFEIHEAMBM",
              "rotationDampTime": "Eff_Ani_Animal_Tortoise_Electric_FireBulletBS",
              "PPPDJGDDOGD": 1.0,
              "AJDILHJFNKE": -1.0
            }
          ]
        }
      },
      "onAbilityStart": [
        {
          "$type": "CAKDDHLKOAB",
          "bulletID": 42802131,
          "born": {
            "$type": "KLPANPDGHHA",
            "direction": {
              "$type": "MEADFIJAHPG",
              "maxAngle": 20.0,
              "startPoint": ""
            },
            "useRotation": true,
            "attachPointName": "FireBulletPos"
          },
          "lifeByOwnerV2": true
        }
      ]
    }
  },
  {
    "Default": {
      "$type": "CBPBEHLOHKI",
      "abilityName": "Tortoise_Electric_ElectricBall_Hit",
      "modifiers": {
        "Tortoise_Electric_ElectricBall_Effect": {
          "modifierName": "",
          "elementDurability": 5.0,
          "IPFJJJGABPL": 100.0,
          "onAdded": [
            {
              "$type": "ANLOBBMKNIJ",
              "rotationDampTime": "Eff_Ani_Animal_Tortoise_Electric_FireBullet_ElectricBallLoop",
              "PPPDJGDDOGD": 1.0,
              "AJDILHJFNKE": -1.0
            }
          ],
          "onRemoved": [
            {
              "$type": "KBFEIHEAMBM",
              "rotationDampTime": "Eff_Ani_Animal_Tortoise_Electric_FireBullet_ElectricBallAS",
              "PPPDJGDDOGD": 1.0,
              "AJDILHJFNKE": -1.0
            },
            {
              "$type": "NCFFNDHGCMH",
              "configIdArray": [
                42802131
              ]
            }
          ]
        }
      },
      "onAdded": [
        {
          "$type": "PELJALPANCA",
          "modifierName": "Tortoise_Electric_ElectricBall_Effect"
        }
      ],
      "onAbilityStart": [
        {
          "$type": "AIFPLABJNMA",
          "attackEvent": {
            "attackPattern": {
              "$type": "BELNOFAKNBA",
              "triggerType": "TriggerNoRepeat",
              "born": {
                "$type": "JGEBAJLEBMO"
              },
              "OAHPDLJIADP": 1.25
            },
            "attackInfo": {
              "attackTag": "",
              "attenuationTag": "",
              "attenuationGroup": "default",
              "attackProperty": {
                "actorGrassSubHurtDelta": 1.0,
                "actorWindSubHurtDelta": 0.0,
                "elementType": "Electric",
                "IPFJJJGABPL": 25.0,
                "strikeType": "Blunt",
                "enBreak": 100.0,
                "GLKMCMDJBIK": 0.0
              },
              "hitPattern": {
                "onHitEffectName": "default",
                "hitImpulseY": "",
                "hitImpulseType": "LV2",
                "hitHaltTimeScale": 0.05000000074505806
              }
            }
          },
          "targetType": "Enemy"
        }
      ]
    }
  },
  {
    "Default": {
      "$type": "CBPBEHLOHKI",
      "abilityName": "Animal_Tortoise_Electric_Fury",
      "abilityMixins": [
        {
          "$type": "EKMHJKDLBJH",
          "stateIDs": [
            "Fury"
          ],
          "modifierName": "Animal_Tortoise_Electric_FuryState",
          "DGFCLAIDIFI": ""
        }
      ],
      "modifiers": {
        "UNIQUE_Animal_Tortoise_Electric_ElementShield": {
          "stacking": "Unique",
          "modifierName": "",
          "forceTriggerWhenChangeAuthority": true,
          "elementType": "Electric",
          "IPFJJJGABPL": 400.0,
          "modifierMixins": [
            {
              "$type": "AAPIOACHKCI",
              "elementType": "Electric",
              "showDamageText": "",
              "DLBHHADKGJN": 360.0,
              "maxShieldByHPRatio": 1.0,
              "shieldAngle": 0.0,
              "useMutiPlayerFixData": true
            },
            {
              "$type": "CIBMLJJLANN",
              "excludeForces": [
                "WindZoneType"
              ]
            }
          ],
          "onAdded": [
            {
              "$type": "ANLOBBMKNIJ",
              "rotationDampTime": "Eff_Ani_Animal_Tortoise_Electric_Fury_ElectricShield",
              "PPPDJGDDOGD": 1.0,
              "AJDILHJFNKE": -1.0
            },
            {
              "$type": "FNPMFLOOCDD",
              "shieldHP": true,
              "param3": 1.0,
              "key": "_WATCHER_82224_FLAG_01_",
              "param2": 0.0,
              "repeatTimes": 0.0
            },
            {
              "$type": "FNPMFLOOCDD",
              "shieldHP": true,
              "param3": 1.0,
              "key": "_WATCHER_82225_FLAG_02_",
              "param2": 0.0,
              "repeatTimes": 0.0
            }
          ],
          "onRemoved": [
            {
              "$type": "KBFEIHEAMBM",
              "rotationDampTime": "Eff_Ani_Animal_Tortoise_Electric_Fury_ElectricShield_AS",
              "PPPDJGDDOGD": 1.0,
              "AJDILHJFNKE": -1.0
            },
            {
              "$type": "BOBCOJHOKKD",
              "predicates": [
                {
                  "$type": "CNGGLKHONAA",
                  "target": "Self",
                  "key": "_AI_INCOMBAT_",
                  "param3": 1.0
                }
              ],
              "param3": 2.0,
              "key": "_ANIMAL_TORTOISE_ELECTRIC_COMBATSTAGE_",
              "param2": 0.0,
              "repeatTimes": 0.0
            }
          ],
          "onBeingHit": [
            {
              "$type": "INBCDALOHMP",
              "target": "Target",
              "targetPredicates": [
                {
                  "$type": "FMBJAJFLDIP",
                  "logic": "LesserOrEqual",
                  "compareType": "XYZ",
                  "param3": 4.5,
                  "DDALGNLEHOD": ""
                },
                {
                  "$type": "GAGDDICMFEH",
                  "damage": 0.0,
                  "useOriginDamage": true
                },
                {
                  "$type": "NIMAPECDNKD",
                  "entityTypes": [
                    "Avatar",
                    "Vehicle",
                    "Partner"
                  ]
                }
              ],
              "successActions": [
                {
                  "$type": "KBFEIHEAMBM",
                  "rotationDampTime": "Eff_Ani_Animal_Tortoise_Fury_ElectricShield_ElectricWave",
                  "PPPDJGDDOGD": 1.0,
                  "AJDILHJFNKE": -1.0
                },
                {
                  "$type": "PELJALPANCA",
                  "target": "Target",
                  "modifierName": "Animal_Tortoise_Electric_ElementShield_ElectricWave"
                }
              ],
              "failActions": [
                {
                  "$type": "INBCDALOHMP",
                  "target": "TargetOriginOwner",
                  "targetPredicates": [
                    {
                      "$type": "NIMAPECDNKD",
                      "entityTypes": [
                        "Avatar",
                        "Vehicle",
                        "Partner"
                      ]
                    },
                    {
                      "$type": "FMBJAJFLDIP",
                      "logic": "LesserOrEqual",
                      "compareType": "XYZ",
                      "param3": 4.5,
                      "DDALGNLEHOD": ""
                    },
                    {
                      "$type": "GAGDDICMFEH",
                      "damage": 0.0,
                      "useOriginDamage": true
                    }
                  ],
                  "successActions": [
                    {
                      "$type": "KBFEIHEAMBM",
                      "rotationDampTime": "Eff_Ani_Animal_Tortoise_Fury_ElectricShield_ElectricWave",
                      "PPPDJGDDOGD": 1.0,
                      "AJDILHJFNKE": -1.0
                    },
                    {
                      "$type": "PELJALPANCA",
                      "target": "Target",
                      "modifierName": "Animal_Tortoise_Electric_ElementShield_ElectricWave"
                    }
                  ]
                }
              ]
            },
            {
              "$type": "INBCDALOHMP",
              "target": "Target",
              "targetPredicates": [
                {
                  "$type": "FMBJAJFLDIP",
                  "logic": "LesserOrEqual",
                  "compareType": "XYZ",
                  "param3": 12.5,
                  "DDALGNLEHOD": ""
                },
                {
                  "$type": "FMBJAJFLDIP",
                  "compareType": "XYZ",
                  "param3": 4.5,
                  "DDALGNLEHOD": ""
                },
                {
                  "$type": "GAGDDICMFEH",
                  "damage": 0.0,
                  "useOriginDamage": true
                },
                {
                  "$type": "NIMAPECDNKD",
                  "entityTypes": [
                    "Avatar",
                    "Vehicle",
                    "Partner"
                  ]
                }
              ],
              "successActions": [
                {
                  "$type": "PELJALPANCA",
                  "target": "Target",
                  "modifierName": "Animal_Tortoise_Electric_ElementShield_Lightning"
                }
              ],
              "failActions": [
                {
                  "$type": "INBCDALOHMP",
                  "target": "TargetOriginOwner",
                  "targetPredicates": [
                    {
                      "$type": "NIMAPECDNKD",
                      "entityTypes": [
                        "Avatar",
                        "Vehicle",
                        "Partner"
                      ]
                    },
                    {
                      "$type": "FMBJAJFLDIP",
                      "logic": "LesserOrEqual",
                      "compareType": "XYZ",
                      "param3": 12.5,
                      "DDALGNLEHOD": ""
                    },
                    {
                      "$type": "FMBJAJFLDIP",
                      "compareType": "XYZ",
                      "param3": 4.5,
                      "DDALGNLEHOD": ""
                    },
                    {
                      "$type": "GAGDDICMFEH",
                      "damage": 0.0,
                      "useOriginDamage": true
                    }
                  ],
                  "successActions": [
                    {
                      "$type": "PELJALPANCA",
                      "target": "Target",
                      "modifierName": "Animal_Tortoise_Electric_ElementShield_Lightning"
                    }
                  ]
                }
              ]
            }
          ],
          "onAttackLanded": [
            {
              "$type": "INBCDALOHMP",
              "target": "Other",
              "targetPredicates": [
                {
                  "$type": "NIMAPECDNKD",
                  "entityTypes": [
                    "Avatar"
                  ]
                },
                {
                  "$type": "NNEHDJHMING",
                  "attackTags": [
                    "Animal_Tortoise_Electric_Lightning"
                  ]
                }
              ],
              "successActions": [
                {
                  "$type": "PELJALPANCA",
                  "modifierName": "Animal_Tortoise_Electric_SetWatcherFlag"
                }
              ]
            }
          ]
        },
        "Animal_Tortoise_Electric_FuryState": {
          "modifierName": "",
          "IPFJJJGABPL": 100.0,
          "onAdded": [
            {
              "$type": "ANLOBBMKNIJ",
              "rotationDampTime": "Eff_Ani_Animal_Tortoise_Electric_FuryBS",
              "PPPDJGDDOGD": 1.0,
              "AJDILHJFNKE": -1.0
            },
            {
              "$type": "BOBCOJHOKKD",
              "param3": 1.0,
              "key": "_ANIMAL_TORTOISE_ELECTRIC_FURYSTATE_",
              "param2": 0.0,
              "repeatTimes": 0.0
            },
            {
              "$type": "BOBCOJHOKKD",
              "param3": 0.0,
              "key": "_CHARGEBAR_VALUE",
              "param2": 0.0,
              "repeatTimes": 0.0
            }
          ]
        },
        "Animal_Tortoise_Electric_ElementShield_ElectricWave": {
          "stacking": "Multiple",
          "modifierName": "",
          "elementDurability": 0.10000000149011612,
          "IPFJJJGABPL": 100.0,
          "onAdded": [
            {
              "$type": "CCNPNMMONDO",
              "born": {
                "$type": "KLPANPDGHHA",
                "offset": {
                  "KGEPIMHBMOL": 0.0,
                  "JEBHCGDPFEJ": 0.0,
                  "LPCHALMFFOD": 0.0
                },
                "useRotation": true,
                "attachPointName": "RootNode",
                "attachPointTargetType": "Self"
              },
              "attackInfo": {
                "attackTag": "Animal_Tortoise_Electric_Lightning",
                "attenuationTag": "Animal_Tortoise_Electric_Lightning",
                "attenuationGroup": "Animal_Tortoise_Electric_Lightning",
                "attackProperty": {
                  "actorGrassSubHurtDelta": 0.25,
                  "actorWindSubHurtDelta": 0.0,
                  "elementType": "Electric",
                  "IPFJJJGABPL": 25.0,
                  "strikeType": "Blunt",
                  "enBreak": 1.0,
                  "GLKMCMDJBIK": 0.0
                },
                "hitPattern": {
                  "onHitEffectName": "default",
                  "hitImpulseY": "",
                  "hitImpulseType": "LV1",
                  "hitHaltTimeScale": 0.009999999776482582
                }
              }
            }
          ]
        },
        "Animal_Tortoise_Electric_ElementShield_Lightning": {
          "stacking": "Multiple",
          "modifierName": "",
          "elementDurability": 0.10000000149011612,
          "IPFJJJGABPL": 100.0,
          "onAdded": [
            {
              "$type": "CCNPNMMONDO",
              "born": {
                "$type": "KLPANPDGHHA",
                "offset": {
                  "KGEPIMHBMOL": 0.0,
                  "JEBHCGDPFEJ": 0.0,
                  "LPCHALMFFOD": 0.0
                },
                "useRotation": true,
                "attachPointName": "RootNode",
                "attachPointTargetType": "Self"
              },
              "attackInfo": {
                "attackTag": "Animal_Tortoise_Electric_Lightning",
                "attenuationTag": "Animal_Tortoise_Electric_Lightning",
                "attenuationGroup": "Animal_Tortoise_Electric_Lightning",
                "attackProperty": {
                  "actorGrassSubHurtDelta": 0.25,
                  "actorWindSubHurtDelta": 0.0,
                  "elementType": "Electric",
                  "IPFJJJGABPL": 25.0,
                  "strikeType": "Blunt",
                  "enBreak": 1.0,
                  "GLKMCMDJBIK": 0.0
                },
                "hitPattern": {
                  "onHitEffectName": "default",
                  "hitImpulseY": "",
                  "hitImpulseType": "LV1",
                  "hitHaltTimeScale": 0.009999999776482582
                }
              }
            },
            {
              "$type": "KBFEIHEAMBM",
              "rotationDampTime": "Eff_Ani_Animal_Tortoise_Electric_Fury_ElectricShield_Lightning",
              "born": {
                "$type": "KLPANPDGHHA",
                "offset": {
                  "KGEPIMHBMOL": 0.0,
                  "JEBHCGDPFEJ": 0.0,
                  "LPCHALMFFOD": 0.0
                },
                "useRotation": true,
                "attachPointName": "LightningAttachPos",
                "attachPointTargetType": "Caster"
              },
              "PPPDJGDDOGD": 1.0,
              "AJDILHJFNKE": -1.0,
              "setSelfAsEffectPluginTarget": true
            }
          ]
        },
        "Animal_Tortoise_Electric_SetWatcherFlag": {
          "modifierName": "",
          "elementDurability": 0.10000000149011612,
          "IPFJJJGABPL": 100.0,
          "onAdded": [
            {
              "$type": "FNPMFLOOCDD",
              "shieldHP": true,
              "param3": 1.0,
              "key": "_WATCHER_82225_FLAG_01_",
              "param2": 0.0,
              "repeatTimes": 0.0
            }
          ]
        }
      },
      "onAbilityStart": [
        {
          "$type": "PELJALPANCA",
          "modifierName": "UNIQUE_Animal_Tortoise_Electric_ElementShield"
        }
      ]
    }
  },
  {
    "Default": {
      "$type": "CBPBEHLOHKI",
      "abilityName": "Animal_Tortoise_Electric_RushAtk",
      "abilityMixins": [
        {
          "$type": "EKMHJKDLBJH",
          "stateIDs": [
            "RushAtk_Loop"
          ],
          "modifierName": "Animal_Tortoise_Electric_RushAtkLoopState",
          "DGFCLAIDIFI": ""
        },
        {
          "$type": "EKMHJKDLBJH",
          "stateIDs": [
            "RushAtk_Loop",
            "RushAtk_AS"
          ],
          "modifierName": "Animal_Tortoise_Electric_ForceKillBullet",
          "DGFCLAIDIFI": ""
        },
        {
          "$type": "IILHMBGONGM",
          "steerStateIDs": [
            "RushAtk_BS",
            "RushAtk_Loop"
          ],
          "startNormalizedTime": 0.33000001311302185,
          "endNormalizedTime": 7.0,
          "angularSpeed": 90.0,
          "attackTrigger": "",
          "attackDistance": 2.0,
          "DGFCLAIDIFI": ""
        }
      ],
      "modifiers": {
        "Animal_Tortoise_Electric_RushAtkLoopState": {
          "modifierName": "",
          "IPFJJJGABPL": 100.0,
          "thinkInterval": 0.33000001311302185,
          "onAdded": [
            {
              "$type": "ANLOBBMKNIJ",
              "rotationDampTime": "Eff_Ani_Animal_Tortoise_Electric_RushAtkLoop",
              "PPPDJGDDOGD": 1.0,
              "AJDILHJFNKE": -1.0
            },
            {
              "$type": "CAKDDHLKOAB",
              "predicates": [
                {
                  "$type": "CNGGLKHONAA",
                  "target": "Self",
                  "key": "_ANIMAL_TORTOISE_ELECTRIC_FURYSTATE_",
                  "param3": 1.0
                }
              ],
              "bulletID": 42802134,
              "born": {
                "$type": "IAENDIPDFKD",
                "useRotation": true
              },
              "lifeByOwnerV2": true
            }
          ],
          "onThinkInterval": [
            {
              "$type": "AIFPLABJNMA",
              "attackEvent": {
                "attackPattern": {
                  "$type": "GMDIMKKHACA",
                  "triggerType": "TriggerNoRepeat",
                  "born": {
                    "$type": "IAENDIPDFKD",
                    "offset": {
                      "KGEPIMHBMOL": 0.0,
                      "JEBHCGDPFEJ": -1.0,
                      "LPCHALMFFOD": 0.0
                    },
                    "useRotation": true
                  },
                  "height": 4.0,
                  "OAHPDLJIADP": 4.0
                },
                "attackInfo": {
                  "attackTag": "",
                  "attenuationTag": "Animal_Tortoise_Electric_RushAtk",
                  "attenuationGroup": "Animal_Tortoise_Electric_RushAtk",
                  "attackProperty": {
                    "actorGrassSubHurtDelta": 0.699999988079071,
                    "actorWindSubHurtDelta": 0.0,
                    "elementType": "Electric",
                    "IPFJJJGABPL": 25.0,
                    "strikeType": "Blunt",
                    "enBreak": 200.0,
                    "GLKMCMDJBIK": 0.0
                  },
                  "hitPattern": {
                    "onHitEffectName": "default",
                    "hitImpulseY": "",
                    "hitImpulseType": "LV1",
                    "hitHaltTimeScale": 0.05000000074505806
                  }
                }
              },
              "targetType": "Enemy"
            }
          ]
        },
        "Animal_Tortoise_Electric_ForceKillBullet": {
          "modifierName": "",
          "IPFJJJGABPL": 100.0,
          "onRemoved": [
            {
              "$type": "GCHLGDKBHCC",
              "shieldHP": true,
              "gadgetInfo": {
                "configID": 42802134
              }
            }
          ]
        }
      },
      "onKill": [
        {
          "$type": "GCHLGDKBHCC",
          "shieldHP": true,
          "gadgetInfo": {
            "configID": 42802134
          }
        }
      ]
    }
  },
  {
    "Default": {
      "$type": "CBPBEHLOHKI",
      "abilityName": "Tortoise_Electric_RushAtk_ElectricBall_Hit",
      "onAbilityStart": [
        {
          "$type": "AIFPLABJNMA",
          "attackEvent": {
            "attackPattern": {
              "$type": "BELNOFAKNBA",
              "triggerType": "TriggerNoRepeat",
              "born": {
                "$type": "JGEBAJLEBMO"
              },
              "OAHPDLJIADP": 0.25
            },
            "attackInfo": {
              "attackTag": "",
              "attenuationTag": "",
              "attenuationGroup": "default",
              "attackProperty": {
                "actorGrassSubHurtDelta": 0.5,
                "actorWindSubHurtDelta": 0.0,
                "elementType": "Electric",
                "IPFJJJGABPL": 25.0,
                "strikeType": "Blunt",
                "enBreak": 1.0,
                "GLKMCMDJBIK": 0.0
              },
              "hitPattern": {
                "onHitEffectName": "default",
                "hitImpulseY": "",
                "hitImpulseType": "LV1",
                "hitHaltTimeScale": 0.05000000074505806
              }
            }
          },
          "targetType": "Enemy"
        },
        {
          "$type": "EDNOMJCBPIM",
          "rotationDampTime": "Eff_Ani_Animal_Tortoise_Electric_RushAtk_ElectricBallAS",
          "born": {
            "$type": "JGEBAJLEBMO"
          }
        }
      ]
    }
  },
  {
    "Default": {
      "$type": "CBPBEHLOHKI",
      "abilityName": "Animal_Tortoise_Electric_ElectricAreaAtk",
      "abilityMixins": [
        {
          "$type": "EKMHJKDLBJH",
          "stateIDs": [
            "ElectricArea_Loop"
          ],
          "modifierName": "Animal_Tortoise_Electric_ElectricAreaLoopState",
          "DGFCLAIDIFI": ""
        }
      ],
      "modifiers": {
        "Animal_Tortoise_Electric_ElectricAreaLoopState": {
          "modifierName": "",
          "IPFJJJGABPL": 100.0,
          "thinkInterval": 0.5,
          "onAdded": [
            {
              "$type": "CAKDDHLKOAB",
              "bulletID": 42802132,
              "born": {
                "$type": "IAENDIPDFKD",
                "offset": {
                  "KGEPIMHBMOL": 0.0,
                  "JEBHCGDPFEJ": 0.0,
                  "LPCHALMFFOD": 0.0
                },
                "useRotation": true
              },
              "lifeByOwnerV2": true
            },
            {
              "$type": "ANLOBBMKNIJ",
              "rotationDampTime": "Eff_Ani_Animal_Tortoise_Electric_ElectricAreaAtkLoop",
              "PPPDJGDDOGD": 1.0,
              "AJDILHJFNKE": -1.0
            }
          ],
          "onRemoved": [
            {
              "$type": "GCHLGDKBHCC",
              "shieldHP": true,
              "gadgetInfo": {
                "configID": 42802132
              }
            }
          ],
          "onThinkInterval": [
            {
              "$type": "INBCDALOHMP",
              "target": "SelfAttackTarget",
              "targetPredicates": [
                {
                  "$type": "FMBJAJFLDIP",
                  "logic": "Lesser",
                  "param3": 30.0,
                  "DDALGNLEHOD": ""
                },
                {
                  "$type": "FMBJAJFLDIP",
                  "logic": "Lesser",
                  "compareType": "Y",
                  "param3": 5.0,
                  "DDALGNLEHOD": ""
                }
              ],
              "successActions": [
                {
                  "$type": "KFCDMIMBBLD",
                  "target": "SelfAttackTarget",
                  "born": {
                    "$type": "MPCGPEHJNNH",
                    "onGround": true,
                    "timeForPredictive": 0.8999999761581421
                  },
                  "gadgetID": 42802133,
                  "campID": 4001
                }
              ]
            }
          ]
        }
      },
      "onKill": [
        {
          "$type": "GCHLGDKBHCC",
          "shieldHP": true,
          "gadgetInfo": {
            "configID": 42802132
          }
        }
      ]
    }
  },
  {
    "Default": {
      "$type": "CBPBEHLOHKI",
      "abilityName": "Tortoise_Electric_ElectricArea_Random_Hit",
      "onAbilityStart": [
        {
          "$type": "AIFPLABJNMA",
          "attackEvent": {
            "attackPattern": {
              "$type": "BELNOFAKNBA",
              "triggerType": "TriggerNoRepeat",
              "born": {
                "$type": "JGEBAJLEBMO",
                "useRotation": true
              },
              "OAHPDLJIADP": 2.0
            },
            "attackInfo": {
              "attackTag": "",
              "attenuationTag": "",
              "attenuationGroup": "default",
              "attackProperty": {
                "actorGrassSubHurtDelta": 0.5,
                "actorWindSubHurtDelta": 0.0,
                "elementType": "Electric",
                "IPFJJJGABPL": 25.0,
                "strikeType": "Blunt",
                "enBreak": 1.0,
                "GLKMCMDJBIK": 0.0
              },
              "hitPattern": {
                "onHitEffectName": "default",
                "hitImpulseY": "",
                "hitImpulseType": "LV1",
                "hitHaltTimeScale": 0.05000000074505806
              }
            }
          },
          "targetType": "Enemy"
        }
      ]
    }
  },
  {
    "Default": {
      "$type": "CBPBEHLOHKI",
      "abilityName": "Tortoise_Electric_ElectricArea_Track_Hit",
      "modifiers": {
        "Tortoise_Electric_ElectricArea_Track_HitAlert": {
          "modifierName": "",
          "elementDurability": 1.100000023841858,
          "IPFJJJGABPL": 100.0,
          "onAdded": [
            {
              "$type": "KBFEIHEAMBM",
              "rotationDampTime": "Eff_Ani_Animal_Tortoise_Electric_ElectricAreaAtk_Single",
              "PPPDJGDDOGD": 1.0,
              "AJDILHJFNKE": -1.0
            }
          ],
          "onRemoved": [
            {
              "$type": "AIFPLABJNMA",
              "attackEvent": {
                "attackPattern": {
                  "$type": "BELNOFAKNBA",
                  "triggerType": "TriggerNoRepeat",
                  "born": {
                    "$type": "IAENDIPDFKD",
                    "useRotation": true
                  },
                  "OAHPDLJIADP": 2.0
                },
                "attackInfo": {
                  "attackTag": "",
                  "attenuationTag": "",
                  "attenuationGroup": "default",
                  "attackProperty": {
                    "actorGrassSubHurtDelta": 0.5,
                    "actorWindSubHurtDelta": 0.0,
                    "elementType": "Electric",
                    "IPFJJJGABPL": 25.0,
                    "strikeType": "Blunt",
                    "enBreak": 1.0,
                    "GLKMCMDJBIK": 0.0
                  },
                  "hitPattern": {
                    "onHitEffectName": "default",
                    "hitImpulseY": "",
                    "hitImpulseType": "LV1",
                    "hitHaltTimeScale": 0.05000000074505806
                  }
                }
              },
              "targetType": "Enemy"
            }
          ]
        }
      },
      "onAdded": [
        {
          "$type": "PELJALPANCA",
          "modifierName": "Tortoise_Electric_ElectricArea_Track_HitAlert"
        }
      ]
    }
  },
  {
    "Default": {
      "$type": "CBPBEHLOHKI",
      "abilityName": "Animal_Tortoise_Electric_ShaderNormal",
      "abilityMixins": [
        {
          "$type": "EJDKAKLFCPA",
          "stateIDs": [
            "NormalIdle"
          ],
          "modifierName": "Animal_Tortoise_Electric_ResetShader",
          "DGFCLAIDIFI": ""
        }
      ],
      "modifiers": {
        "Animal_Tortoise_Electric_ResetShader": {
          "modifierName": "",
          "IPFJJJGABPL": 100.0,
          "onAdded": [
            {
              "$type": "BLCCGIPAOIP",
              "PLLJBINMGJK": "ShaderNormal",
              "mpTriggerOnRemote": true
            }
          ]
        }
      },
      "onAbilityStart": [
        {
          "$type": "BLCCGIPAOIP",
          "PLLJBINMGJK": "ShaderNormal",
          "mpTriggerOnRemote": true
        }
      ]
    }
  },
  {
    "Default": {
      "$type": "CBPBEHLOHKI",
      "abilityName": "Animal_Tortoise_Electric_ShaderSkill",
      "onAbilityStart": [
        {
          "$type": "BLCCGIPAOIP",
          "PLLJBINMGJK": "ShaderSkill",
          "mpTriggerOnRemote": true
        }
      ]
    }
  },
  {
    "Default": {
      "$type": "CBPBEHLOHKI",
      "abilityName": "Animal_Tortoise_Electric_Steer",
      "abilityMixins": [
        {
          "$type": "IILHMBGONGM",
          "steerStateIDs": [
            "FireBullet"
          ],
          "endNormalizedTime": 0.20000000298023224,
          "angularSpeed": 90.0,
          "attackTrigger": "",
          "attackDistance": 12.0,
          "DGFCLAIDIFI": ""
        },
        {
          "$type": "IILHMBGONGM",
          "steerStateIDs": [
            "JumpAtk_BS"
          ],
          "startNormalizedTime": 0.25,
          "endNormalizedTime": 0.75,
          "angularSpeed": 90.0,
          "attackTrigger": "",
          "attackDistance": 12.0,
          "DGFCLAIDIFI": ""
        },
        {
          "$type": "IILHMBGONGM",
          "steerStateIDs": [
            "RushAtk_BS"
          ],
          "endNormalizedTime": 0.30000001192092896,
          "angularSpeed": 90.0,
          "attackTrigger": "",
          "attackDistance": 12.0,
          "DGFCLAIDIFI": ""
        }
      ]
    }
  }
]