[
  {
    "Default": {
      "$type": "CBPBEHLOHKI",
      "abilityName": "Animal_Common_Initial",
      "onAdded": [
        {
          "$type": "HBNEMPLJCMB",
          "hide": true
        },
        {
          "$type": "KDNMCNMAKNK",
          "enable": true
        },
        {
          "$type": "LCOEFEMOHLP",
          "param3": 1.0,
          "key": "_ANIMAL_ENTITY_TYPE",
          "useLimitRange": true,
          "param2": 1.0,
          "repeatTimes": 0.0
        }
      ]
    }
  },
  {
    "Default": {
      "$type": "CBPBEHLOHKI",
      "abilityName": "Animal_Common_HungryCoolDown",
      "abilityMixins": [
        {
          "$type": "EKMHJKDLBJH",
          "stateIDs": [
            "HungryAction"
          ],
          "modifierName": "HungryAction",
          "DGFCLAIDIFI": ""
        }
      ],
      "modifiers": {
        "HungryAction": {
          "modifierName": "",
          "elementDurability": 2.0,
          "IPFJJJGABPL": 100.0,
          "onAdded": [
            {
              "$type": "PGKCCBBGOML",
              "neuronName": "HUNGRY"
            }
          ]
        }
      }
    }
  },
  {
    "Default": {
      "$type": "CBPBEHLOHKI",
      "abilityName": "Animal_Homeworld_Common_Initial",
      "onAdded": [
        {
          "$type": "LCOEFEMOHLP",
          "param3": 1.0,
          "key": "_ANIMAL_ENTITY_TYPE",
          "useLimitRange": true,
          "param2": 1.0,
          "repeatTimes": 0.0
        },
        {
          "$type": "OPAOGKPJLIG",
          "resistanceListID": 11001
        },
        {
          "$type": "OPAOGKPJLIG",
          "resistanceListID": 14001
        }
      ]
    }
  }
]