[
  {
    "Default": {
      "$type": "CBPBEHLOHKI",
      "abilityName": "Animal_Penguin_Inflated_End",
      "onAbilityStart": [
        {
          "$type": "IDNGFEEBPAM",
          "boolID": "Inflated"
        }
      ]
    }
  },
  {
    "Default": {
      "$type": "CBPBEHLOHKI",
      "abilityName": "Animal_Penguin_RollingManager",
      "abilityMixins": [
        {
          "$type": "EJDKAKLFCPA",
          "stateIDs": [
            "Hit_L",
            "Hit_H",
            "Hit_Rolling_Loop",
            "Hit_Rolling_Loop02",
            "Hit_Rolling_Loop_Water",
            "Hit_Rolling_Loop_Water02",
            "Hit_Rolling_AS",
            "Hit_Rolling_AS_Water"
          ],
          "modifierName": "RollingSpeedRateHandler",
          "DGFCLAIDIFI": ""
        },
        {
          "$type": "EJDKAKLFCPA",
          "stateIDs": [
            "Hit_L",
            "Hit_H",
            "Hit_Rolling_Loop",
            "Hit_Rolling_Loop02",
            "Hit_Rolling_Loop_Water",
            "Hit_Rolling_Loop_Water02",
            "Hit_Rolling_AS",
            "Hit_Rolling_AS_Water"
          ],
          "modifierName": "RollingAttack",
          "DGFCLAIDIFI": ""
        },
        {
          "$type": "EJDKAKLFCPA",
          "stateIDs": [
            "StandbyLand_Sit"
          ],
          "modifierName": "SitFixedState",
          "DGFCLAIDIFI": ""
        }
      ],
      "HKFPCGFFKMJ": [
        "GV_Animal_Penguin_BeHitCounter"
      ],
      "modifiers": {
        "RollingSpeedRateHandler": {
          "modifierName": "",
          "IPFJJJGABPL": 100.0,
          "onAdded": [
            {
              "$type": "LCOEFEMOHLP",
              "predicates": [
                {
                  "$type": "CNGGLKHONAA",
                  "key": "GV_Animal_Penguin_BeHitCounter",
                  "param3": 4.0,
                  "compareType": "LessAndEqual"
                }
              ],
              "param3": 4.0,
              "key": "GV_Animal_Penguin_BeHitCounter",
              "param2": 0.0,
              "repeatTimes": 0.0
            },
            {
              "$type": "AKEEDILMOJF",
              "intID": "BeHitCounter",
              "param3": "GV_Animal_Penguin_BeHitCounter"
            },
            {
              "$type": "FEKJDLHHOLE",
              "floatID": "RollingSpeedRate",
              "param3": [
                0.30000001192092896,
                0.699999988079071,
                "GV_Animal_Penguin_BeHitCounter",
                "MUL",
                "ADD"
              ]
            },
            {
              "$type": "FEKJDLHHOLE",
              "floatID": "RollingSpeedRate",
              "param3": 1.0,
              "transitionTime": 0.6000000238418579
            }
          ],
          "onRemoved": [
            {
              "$type": "BOBCOJHOKKD",
              "param3": 0.0,
              "key": "GV_Animal_Penguin_BeHitCounter",
              "param2": 0.0,
              "repeatTimes": 0.0
            }
          ],
          "onBeingHit": [
            {
              "$type": "LCOEFEMOHLP",
              "predicates": [
                {
                  "$type": "CNGGLKHONAA",
                  "key": "GV_Animal_Penguin_BeHitCounter",
                  "param3": 2.0,
                  "compareType": "LessAndEqual"
                }
              ],
              "param3": 2.0,
              "key": "GV_Animal_Penguin_BeHitCounter",
              "param2": 0.0,
              "repeatTimes": 0.0
            },
            {
              "$type": "AKEEDILMOJF",
              "intID": "BeHitCounter",
              "param3": "GV_Animal_Penguin_BeHitCounter"
            },
            {
              "$type": "FEKJDLHHOLE",
              "floatID": "RollingSpeedRate",
              "param3": [
                0.30000001192092896,
                0.699999988079071,
                "GV_Animal_Penguin_BeHitCounter",
                "MUL",
                "ADD"
              ]
            },
            {
              "$type": "FEKJDLHHOLE",
              "floatID": "RollingSpeedRate",
              "param3": 1.0,
              "transitionTime": 0.6000000238418579
            },
            {
              "$type": "BEIEKAHLNED",
              "chance": 0.33000001311302185,
              "successActions": [
                {
                  "$type": "KJCHPDPBJHL",
                  "boolID": "RunVariant",
                  "param3": true
                }
              ],
              "failActions": [
                {
                  "$type": "KJCHPDPBJHL",
                  "boolID": "RunVariant"
                }
              ]
            }
          ]
        },
        "BeHitHandler": {
          "modifierName": "",
          "elementDurability": 5.0,
          "IPFJJJGABPL": 100.0,
          "onRemoved": [
            {
              "$type": "BOBCOJHOKKD",
              "param3": 0.0,
              "key": "GV_Animal_Penguin_BeHitCounter",
              "param2": 0.0,
              "repeatTimes": 0.0
            }
          ]
        },
        "RollingAttack": {
          "modifierName": "",
          "IPFJJJGABPL": 100.0,
          "onAdded": [
            {
              "$type": "CAKDDHLKOAB",
              "bulletID": 42803001,
              "trackTarget": "Self"
            }
          ],
          "onRemoved": [
            {
              "$type": "JKFLDIKGJEF",
              "gadgetInfo": {
                "configID": 42803001
              }
            }
          ]
        },
        "SitFixedState": {
          "modifierName": "",
          "IPFJJJGABPL": 100.0,
          "modifierMixins": [
            {
              "$type": "NIJGPDECHLC"
            }
          ]
        }
      }
    }
  },
  {
    "Default": {
      "$type": "CBPBEHLOHKI",
      "abilityName": "Animal_Penguin_NeuronManager",
      "abilityMixins": [
        {
          "$type": "PHLKCMFKFIN",
          "globalValueKey": "SGV_Animal_Penguin_ControlState",
          "valueSteps": [
            -0.5,
            0.5,
            1.5,
            2.5
          ],
          "modifierNameSteps": [
            "Empty",
            "Penguin_ToSitState",
            "Penguin_FleeState"
          ],
          "NMCLMHFBALJ": true
        },
        {
          "$type": "DIDNLIKKLLF",
          "stateIDs": [
            "ReactActionPoint_Sit"
          ],
          "enterActions": [
            {
              "$type": "GFFKENEJFFB",
              "intID": "RandomPose",
              "value": 1203
            }
          ],
          "DGFCLAIDIFI": ""
        },
        {
          "$type": "LEOGLBFIELL",
          "poseIDs": [
            1203
          ],
          "modifierName": "ActionPointManager"
        },
        {
          "$type": "EKMHJKDLBJH",
          "stateIDs": [
            "Flee"
          ],
          "modifierName": "Penguin_FleeKillSelf",
          "DGFCLAIDIFI": ""
        }
      ],
      "modifiers": {
        "Empty": {
          "modifierName": "",
          "IPFJJJGABPL": 100.0
        },
        "Penguin_ToSitState": {
          "modifierName": "",
          "IPFJJJGABPL": 100.0,
          "onAdded": [
            {
              "$type": "IDNGFEEBPAM",
              "boolID": "ActionPointReacting",
              "param3": true
            },
            {
              "$type": "PGKCCBBGOML",
              "neuronName": "SURROUND",
              "enable": true
            }
          ]
        },
        "Penguin_FleeState": {
          "modifierName": "",
          "IPFJJJGABPL": 100.0,
          "onAdded": [
            {
              "$type": "IDNGFEEBPAM",
              "boolID": "Flee",
              "param3": true
            }
          ]
        },
        "Penguin_FleeKillSelf": {
          "modifierName": "",
          "IPFJJJGABPL": 100.0,
          "onAdded": [
            {
              "$type": "AKIIMECIGKE",
              "duration": 1.0,
              "FJOEKICDALA": 10.0
            },
            {
              "$type": "NCFFNDHGCMH",
              "configIdArray": [
                28030903
              ]
            }
          ]
        },
        "ActionPointManager": {
          "modifierName": "",
          "IPFJJJGABPL": 100.0,
          "onAdded": [
            {
              "$type": "AFLBOAPGDBD",
              "pointType": "SleepPoint"
            }
          ],
          "onRemoved": [
            {
              "$type": "ELPBHEGNGPL",
              "pointType": "SleepPoint"
            }
          ],
          "onKill": [
            {
              "$type": "ELPBHEGNGPL",
              "pointType": "SleepPoint"
            }
          ]
        }
      },
      "isDynamicAbility": true
    }
  },
  {
    "Default": {
      "$type": "CBPBEHLOHKI",
      "abilityName": "Animal_Penguin_WaterStateManager",
      "abilityMixins": [
        {
          "$type": "LEOGLBFIELL",
          "poseIDs": [
            2001,
            2002,
            2004,
            2101,
            2102,
            2103,
            2301
          ],
          "modifierName": "WaterState"
        },
        {
          "$type": "LEOGLBFIELL",
          "poseIDs": [
            1001,
            1002,
            1004,
            1101,
            1201,
            1202,
            1301
          ],
          "modifierName": "LandState"
        }
      ],
      "modifiers": {
        "WaterState": {
          "modifierName": "",
          "IPFJJJGABPL": 100.0,
          "onAdded": [
            {
              "$type": "AENLGPIPPAK",
              "hitBoxNames": [
                "HitBox"
              ]
            },
            {
              "$type": "AENLGPIPPAK",
              "hitBoxNames": [
                "HitBox_Water"
              ],
              "setEnable": true
            },
            {
              "$type": "FDFGJPNDKEA",
              "pushColliderNames": [
                "PushCollider"
              ]
            },
            {
              "$type": "FDFGJPNDKEA",
              "pushColliderNames": [
                "PushCollider_Water01",
                "PushCollider_Water02"
              ],
              "setEnable": true
            }
          ]
        },
        "LandState": {
          "modifierName": "",
          "IPFJJJGABPL": 100.0,
          "onAdded": [
            {
              "$type": "AENLGPIPPAK",
              "hitBoxNames": [
                "HitBox"
              ],
              "setEnable": true
            },
            {
              "$type": "AENLGPIPPAK",
              "hitBoxNames": [
                "HitBox_Water"
              ]
            },
            {
              "$type": "FDFGJPNDKEA",
              "pushColliderNames": [
                "PushCollider"
              ],
              "setEnable": true
            },
            {
              "$type": "FDFGJPNDKEA",
              "pushColliderNames": [
                "PushCollider_Water01",
                "PushCollider_Water02"
              ]
            }
          ]
        }
      },
      "isDynamicAbility": true
    }
  },
  {
    "Default": {
      "$type": "CBPBEHLOHKI",
      "abilityName": "Penguin_PhlogistonEffectManager",
      "abilityMixins": [
        {
          "$type": "MLJAPFBGEEH",
          "globalValueKey": "GV_Is_In_LiquidPhlogiston",
          "gvInTalk": 0.0,
          "valueSteps": [
            -0.5,
            0.5,
            1.5
          ],
          "modifierNameSteps": [
            "Empty",
            "Penguin_PhlogistonEffect"
          ]
        }
      ],
      "modifiers": {
        "Empty": {
          "modifierName": "",
          "IPFJJJGABPL": 100.0
        },
        "Penguin_PhlogistonEffect": {
          "modifierName": "",
          "IPFJJJGABPL": 100.0,
          "modifierMixins": [
            {
              "$type": "HCCJNFOGEKI",
              "oldPatterns": [
                "Animal_Penguin_Water_Idle",
                "Animal_Penguin_Water_Moving",
                "Animal_Penguin_Rolling_Water",
                "Animal_Penguin_HitThrowToGround_Water",
                "Animal_Penguin_Personality1_Water_AS",
                "Animal_Penguin_Personality2_Water",
                "Animal_Penguin_WaterToGround"
              ],
              "newPatterns": [
                "Animal_Penguin_Water_Idle_Phlogiston",
                "Animal_Penguin_Water_Moving_Phlogiston",
                "Animal_Penguin_Rolling_Water_Phlogiston",
                "Animal_Penguin_HitThrowToGround_Water_Phlogiston",
                "Animal_Penguin_Personality1_Water_AS_Phlogiston",
                "Animal_Penguin_Personality2_Water_Phlogiston",
                "Animal_Penguin_WaterToGround_Phlogiston"
              ]
            }
          ]
        }
      }
    }
  },
  {
    "Default": {
      "$type": "CBPBEHLOHKI",
      "abilityName": "Penguin_PhlogistonEffectManager_Reverse",
      "abilityMixins": [
        {
          "$type": "MLJAPFBGEEH",
          "globalValueKey": "GV_Is_In_LiquidPhlogiston",
          "gvInTalk": 0.0,
          "valueSteps": [
            -0.5,
            0.5,
            1.5
          ],
          "modifierNameSteps": [
            "Penguin_WaterEffect",
            "Empty"
          ]
        }
      ],
      "modifiers": {
        "Empty": {
          "modifierName": "",
          "IPFJJJGABPL": 100.0
        },
        "Penguin_WaterEffect": {
          "modifierName": "",
          "IPFJJJGABPL": 100.0,
          "modifierMixins": [
            {
              "$type": "HCCJNFOGEKI",
              "oldPatterns": [
                "Animal_Penguin_Water_Idle_Phlogiston",
                "Animal_Penguin_Water_Moving_Phlogiston",
                "Animal_Penguin_Rolling_Water_Phlogiston",
                "Animal_Penguin_HitThrowToGround_Water_Phlogiston",
                "Animal_Penguin_Personality1_Water_AS_Phlogiston",
                "Animal_Penguin_Personality2_Water_Phlogiston",
                "Animal_Penguin_WaterToGround_Phlogiston"
              ],
              "newPatterns": [
                "Animal_Penguin_Water_Idle",
                "Animal_Penguin_Water_Moving",
                "Animal_Penguin_Rolling_Water",
                "Animal_Penguin_HitThrowToGround_Water",
                "Animal_Penguin_Personality1_Water_AS",
                "Animal_Penguin_Personality2_Water",
                "Animal_Penguin_WaterToGround"
              ]
            }
          ]
        }
      }
    }
  },
  {
    "Default": {
      "$type": "CBPBEHLOHKI",
      "abilityName": "Penguin_RollingAttack_Attack",
      "onAbilityStart": [
        {
          "$type": "INBCDALOHMP",
          "target": "Target",
          "targetPredicates": [
            {
              "$type": "OFFCGHNCBCD",
              "targetType": "Owner",
              "isTarget": false,
              "ALBJEAMOFLG": ""
            },
            {
              "$type": "BCFNGJHILAG",
              "predicates": [
                {
                  "$type": "IGGDNFHNDBO",
                  "campBaseOn": "Owner",
                  "campTargetType": "Enemy"
                }
              ]
            }
          ],
          "successActions": [
            {
              "$type": "CCNPNMMONDO",
              "target": "Target",
              "attackInfo": {
                "attackTag": "",
                "attenuationTag": "",
                "attenuationGroup": "default",
                "attackProperty": {
                  "actorGrassSubHurtDelta": 0.0,
                  "actorWindSubHurtDelta": 0.0,
                  "IPFJJJGABPL": 100.0,
                  "strikeType": "Blunt",
                  "enBreak": 100.0,
                  "attackType": "Melee",
                  "GLKMCMDJBIK": 0.0
                },
                "hitPattern": {
                  "onHitEffectName": "default",
                  "hitImpulseY": "",
                  "hitImpulseType": "LV3",
                  "muteHitText": true
                }
              }
            },
            {
              "$type": "BLCCGIPAOIP",
              "target": "Owner",
              "PLLJBINMGJK": "RollingStopTrigger"
            }
          ]
        }
      ]
    }
  }
]