[
  {
    "Default": {
      "$type": "CBPBEHLOHKI",
      "abilityName": "Animal_Thoarder_Weasel_Alert",
      "modifiers": {
        "SetSelfAttackTarget": {
          "modifierName": "",
          "IPFJJJGABPL": 100.0,
          "onAdded": [
            {
              "$type": "MDIAKCCDEAL",
              "target": "Caster"
            }
          ]
        }
      },
      "onAdded": [
        {
          "$type": "LCOEFEMOHLP",
          "param3": 1.0,
          "key": "_IS_WEASEL",
          "useLimitRange": true,
          "param2": 1.0,
          "repeatTimes": 0.0
        }
      ],
      "onAbilityStart": [
        {
          "$type": "KBODPNEEFGD",
          "shieldHP": true,
          "modifierName": "UNIQUE_Invisible"
        },
        {
          "$type": "ANLOBBMKNIJ",
          "shieldHP": true,
          "rotationDampTime": "Eff_Animal_Thoarder_Weasel_Jump",
          "born": {
            "$type": "IAENDIPDFKD",
            "onGround": true
          },
          "PPPDJGDDOGD": 1.0,
          "AJDILHJFNKE": -1.0
        },
        {
          "$type": "INBCDALOHMP",
          "otherTargets": {
            "$type": "FHBCCNMKPHK",
            "value": 2
          },
          "targetPredicates": [
            {
              "$type": "CNGGLKHONAA",
              "key": "_IS_MOLE_HOLE",
              "param3": 1.0
            }
          ],
          "successActions": [
            {
              "$type": "PELJALPANCA",
              "target": "Target",
              "modifierName": "SetSelfAttackTarget"
            }
          ]
        }
      ]
    }
  },
  {
    "Default": {
      "$type": "CBPBEHLOHKI",
      "abilityName": "Animal_Thoarder_Weasel_Drill",
      "modifiers": {
        "UNIQUE_Blink_Actions": {
          "modifierName": "",
          "forceTriggerWhenChangeAuthority": true,
          "IPFJJJGABPL": 100.0,
          "onAdded": [
            {
              "$type": "JLDEMMJAMLC",
              "modifierName": "Blink_Invincible"
            },
            {
              "$type": "JLDEMMJAMLC",
              "modifierName": "Blink_DenyLockOn"
            },
            {
              "$type": "PJENOLFAFMG"
            },
            {
              "$type": "AENLGPIPPAK",
              "hitBoxNames": [
                "HitBox"
              ]
            }
          ],
          "onRemoved": [
            {
              "$type": "AENLGPIPPAK",
              "hitBoxNames": [
                "HitBox"
              ],
              "setEnable": true
            },
            {
              "$type": "PJENOLFAFMG",
              "KGGEDGKGLDD": true
            }
          ]
        },
        "Blink_Invincible": {
          "modifierName": "",
          "IPFJJJGABPL": 100.0,
          "state": "Invincible"
        },
        "Blink_DenyLockOn": {
          "modifierName": "",
          "IPFJJJGABPL": 100.0,
          "state": "DenyLockOn"
        },
        "TriggerGadgetState": {
          "modifierName": "",
          "IPFJJJGABPL": 100.0,
          "onAdded": [
            {
              "$type": "LBINHEFBJMN",
              "param1": 203
            }
          ]
        }
      },
      "onAdded": [
        {
          "$type": "LCOEFEMOHLP",
          "param3": 1.0,
          "key": "_IS_WEASEL",
          "useLimitRange": true,
          "param2": 1.0,
          "repeatTimes": 0.0
        }
      ],
      "onAbilityStart": [
        {
          "$type": "PELJALPANCA",
          "modifierName": "UNIQUE_Blink_Actions"
        },
        {
          "$type": "INBCDALOHMP",
          "otherTargets": {
            "$type": "FHBCCNMKPHK",
            "value": 2
          },
          "targetPredicates": [
            {
              "$type": "CNGGLKHONAA",
              "key": "_IS_MOLE_HOLE",
              "param3": 1.0
            }
          ],
          "successActions": [
            {
              "$type": "PELJALPANCA",
              "target": "Target",
              "modifierName": "TriggerGadgetState"
            },
            {
              "$type": "KJCHPDPBJHL",
              "boolID": "Disappear",
              "param3": true
            }
          ]
        },
        {
          "$type": "NCFFNDHGCMH",
          "killSelfType": "Disappear",
          "value": true,
          "banExp": true
        }
      ]
    }
  },
  {
    "Default": {
      "$type": "CBPBEHLOHKI",
      "abilityName": "Animal_Thoarder_Weasel_Drill_Exit",
      "modifiers": {
        "Disappear_Invincible": {
          "modifierName": "",
          "IPFJJJGABPL": 100.0,
          "state": "Invincible"
        },
        "Disappear_DenyLockOn": {
          "modifierName": "",
          "IPFJJJGABPL": 100.0,
          "state": "DenyLockOn"
        },
        "Disappear_Display": {
          "modifierName": "",
          "IPFJJJGABPL": 100.0,
          "onAdded": [
            {
              "$type": "JLDEMMJAMLC",
              "modifierName": "Disappear_Invincible"
            },
            {
              "$type": "JLDEMMJAMLC",
              "modifierName": "Disappear_DenyLockOn"
            },
            {
              "$type": "PJENOLFAFMG"
            },
            {
              "$type": "AENLGPIPPAK",
              "hitBoxNames": [
                "HitBox"
              ]
            }
          ]
        }
      },
      "onAbilityStart": [
        {
          "$type": "PELJALPANCA",
          "modifierName": "Disappear_Display"
        },
        {
          "$type": "NCFFNDHGCMH",
          "killSelfType": "Disappear",
          "value": true,
          "banExp": true
        }
      ]
    }
  },
  {
    "Default": {
      "$type": "CBPBEHLOHKI",
      "abilityName": "Animal_Thoarder_Weasel_Jump",
      "abilityMixins": [
        {
          "$type": "LEOGLBFIELL",
          "poseIDs": [
            3
          ],
          "modifierName": "UNIQUE_Invisible"
        }
      ],
      "modifiers": {
        "Invisible": {
          "modifierName": "",
          "IPFJJJGABPL": 100.0,
          "onAdded": [
            {
              "$type": "PELJALPANCA",
              "modifierName": "UNIQUE_Invisible"
            }
          ]
        },
        "UNIQUE_Invisible": {
          "modifierName": "",
          "forceTriggerWhenChangeAuthority": true,
          "IPFJJJGABPL": 100.0,
          "onAdded": [
            {
              "$type": "JLDEMMJAMLC",
              "modifierName": "Invincible"
            },
            {
              "$type": "JLDEMMJAMLC",
              "modifierName": "DenyLockOn"
            },
            {
              "$type": "PJENOLFAFMG"
            },
            {
              "$type": "AENLGPIPPAK",
              "hitBoxNames": [
                "HitBox"
              ]
            }
          ],
          "onRemoved": [
            {
              "$type": "AENLGPIPPAK",
              "hitBoxNames": [
                "HitBox"
              ],
              "setEnable": true
            },
            {
              "$type": "PJENOLFAFMG",
              "KGGEDGKGLDD": true
            }
          ]
        },
        "Invincible": {
          "modifierName": "",
          "IPFJJJGABPL": 100.0,
          "state": "Invincible"
        },
        "DenyLockOn": {
          "modifierName": "",
          "IPFJJJGABPL": 100.0,
          "state": "DenyLockOn"
        }
      }
    }
  },
  {
    "Default": {
      "$type": "CBPBEHLOHKI",
      "abilityName": "Animal_Thoarder_Weasel_Flee",
      "abilityMixins": [
        {
          "$type": "LEOGLBFIELL",
          "poseIDs": [
            901,
            911
          ],
          "modifierName": "DropMora"
        },
        {
          "$type": "EJDKAKLFCPA",
          "stateIDs": [
            "Run",
            "Disappear",
            "Walk",
            "Standby_Walk"
          ],
          "modifierName": "Effect",
          "DGFCLAIDIFI": ""
        },
        {
          "$type": "DIDNLIKKLLF",
          "stateIDs": [
            "Disappear"
          ],
          "enterActions": [
            {
              "$type": "PELJALPANCA",
              "modifierName": "Disappear"
            }
          ],
          "DGFCLAIDIFI": ""
        }
      ],
      "modifiers": {
        "Effect": {
          "modifierName": "",
          "IPFJJJGABPL": 100.0,
          "onAdded": [
            {
              "$type": "ANLOBBMKNIJ",
              "rotationDampTime": "Eff_Animal_Thoarder_Weasel_Walk",
              "PPPDJGDDOGD": 1.0,
              "AJDILHJFNKE": -1.0
            }
          ]
        },
        "DropMora": {
          "modifierName": "",
          "IPFJJJGABPL": 100.0,
          "thinkInterval": 0.5,
          "onThinkInterval": [
            {
              "$type": "MFKEIKOOFJP",
              "subfieldName": "MoraDrop"
            }
          ]
        },
        "Disappear": {
          "modifierName": "",
          "elementDurability": 2.0,
          "IPFJJJGABPL": 100.0,
          "onAdded": [
            {
              "$type": "AKIIMECIGKE",
              "duration": 3.0
            }
          ],
          "onRemoved": [
            {
              "$type": "PFKNEFGOHIH",
              "modifierName": "DropMora"
            },
            {
              "$type": "NCFFNDHGCMH",
              "killSelfType": "Disappear",
              "value": true,
              "banExp": true
            },
            {
              "$type": "KJCHPDPBJHL",
              "boolID": "Disappear",
              "param3": true
            }
          ]
        }
      }
    }
  },
  {
    "Default": {
      "$type": "CBPBEHLOHKI",
      "abilityName": "Animal_Thoarder_Weasel_ToWander",
      "onAbilityStart": [
        {
          "$type": "IDNGFEEBPAM",
          "boolID": "Wander",
          "param3": true
        }
      ]
    }
  },
  {
    "Default": {
      "$type": "CBPBEHLOHKI",
      "abilityName": "Animal_Thoarder_Weasel_ToIdle",
      "onAbilityStart": [
        {
          "$type": "IDNGFEEBPAM",
          "boolID": "Wander"
        }
      ]
    }
  },
  {
    "Default": {
      "$type": "CBPBEHLOHKI",
      "abilityName": "Animal_Thoarder_Weasel_State",
      "abilityMixins": [
        {
          "$type": "LEOGLBFIELL",
          "poseIDs": [
            1,
            2,
            3,
            101,
            102,
            9
          ],
          "modifierName": "LockHp"
        }
      ],
      "modifiers": {
        "LockHp": {
          "modifierName": "",
          "IPFJJJGABPL": 100.0,
          "state": "LockHP"
        },
        "HideUIBillBoard": {
          "modifierName": "",
          "IPFJJJGABPL": 100.0,
          "onAdded": [
            {
              "$type": "HBNEMPLJCMB",
              "hide": true
            }
          ]
        }
      },
      "onAdded": [
        {
          "$type": "PELJALPANCA",
          "modifierName": "HideUIBillBoard"
        },
        {
          "$type": "ANLOBBMKNIJ",
          "predicates": [
            {
              "$type": "CNGGLKHONAA",
              "key": "_THOARDER_WEASEL_LEVEL01",
              "param3": 1.0
            }
          ],
          "rotationDampTime": "Eff_Animal_Thoarder_Weasel_Bag01",
          "PPPDJGDDOGD": 1.0,
          "AJDILHJFNKE": -1.0
        },
        {
          "$type": "ANLOBBMKNIJ",
          "predicates": [
            {
              "$type": "CNGGLKHONAA",
              "key": "_THOARDER_WEASEL_LEVEL02",
              "param3": 1.0
            }
          ],
          "rotationDampTime": "Eff_Animal_Thoarder_Weasel_Bag02",
          "PPPDJGDDOGD": 1.0,
          "AJDILHJFNKE": -1.0
        },
        {
          "$type": "ANLOBBMKNIJ",
          "predicates": [
            {
              "$type": "CNGGLKHONAA",
              "key": "_THOARDER_WEASEL_LEVEL03",
              "param3": 1.0
            }
          ],
          "rotationDampTime": "Eff_Animal_Thoarder_Weasel_Bag03",
          "PPPDJGDDOGD": 1.0,
          "AJDILHJFNKE": -1.0
        }
      ]
    }
  }
]