[
  {
    "Default": {
      "$type": "CBPBEHLOHKI",
      "abilityName": "Animal_Wigeon_AIStateInitial",
      "abilityMixins": [
        {
          "$type": "EAKJOFAIAPH",
          "poseIDs": [
            1
          ],
          "enterActions": [
            {
              "$type": "DOANGHCALGB",
              "skillIDs": [
                202
              ]
            }
          ]
        },
        {
          "$type": "EAKJOFAIAPH",
          "poseIDs": [
            2
          ],
          "enterActions": [
            {
              "$type": "DOANGHCALGB",
              "skillIDs": [
                101,
                102,
                103,
                104,
                201
              ]
            }
          ]
        }
      ]
    }
  },
  {
    "Default": {
      "$type": "CBPBEHLOHKI",
      "abilityName": "Animal_Wigeon_Random",
      "abilityMixins": [
        {
          "$type": "EJDKAKLFCPA",
          "stateIDs": [
            "FlyDown",
            "TakeOff",
            "FlyUp",
            "Disappear"
          ],
          "modifierName": "Random_MoveSpeedRatio",
          "DGFCLAIDIFI": ""
        }
      ],
      "abilitySpecials": {
        "RandomSpeed": 0.0
      },
      "modifiers": {
        "Random_MoveSpeedRatio": {
          "modifierName": "",
          "IPFJJJGABPL": 100.0,
          "properties": {
            "Animator_MoveSpeedRatio": "RandomSpeed"
          }
        }
      },
      "onAdded": [
        {
          "$type": "FLJLMOKONMB",
          "valueRangeMax": 0.10000000149011612,
          "valueRangeMin": -0.10000000149011612,
          "overrideMapKey": "RandomSpeed"
        }
      ]
    }
  },
  {
    "Default": {
      "$type": "CBPBEHLOHKI",
      "abilityName": "Animal_Wigeon_FlyDown",
      "abilityMixins": [
        {
          "$type": "EKMHJKDLBJH",
          "stateIDs": [
            "FlyDown"
          ],
          "modifierName": "FlyState_Down",
          "DGFCLAIDIFI": ""
        },
        {
          "$type": "EJDKAKLFCPA",
          "stateIDs": [
            "Land"
          ],
          "modifierName": "FlyDown_Land",
          "DGFCLAIDIFI": ""
        }
      ],
      "modifiers": {
        "FlyState_Down": {
          "modifierName": "",
          "IPFJJJGABPL": 100.0,
          "onAdded": [
            {
              "$type": "IDNGFEEBPAM",
              "boolID": "FlyState",
              "param3": true
            }
          ],
          "onRemoved": [
            {
              "$type": "IDNGFEEBPAM",
              "boolID": "FlyState"
            }
          ]
        },
        "FlyDown_Land": {
          "modifierName": "",
          "IPFJJJGABPL": 100.0,
          "properties": {
            "Actor_AddGravityScale": -1.9900000095367432
          }
        }
      },
      "onAbilityStart": [
        {
          "$type": "IDNGFEEBPAM",
          "boolID": "FlyState"
        }
      ]
    }
  },
  {
    "Default": {
      "$type": "CBPBEHLOHKI",
      "abilityName": "Animal_Wigeon_FlyUp",
      "onAbilityStart": [
        {
          "$type": "IDNGFEEBPAM",
          "boolID": "FlyState",
          "param3": true
        }
      ]
    }
  },
  {
    "Default": {
      "$type": "CBPBEHLOHKI",
      "abilityName": "Animal_Wigeon_ToWander",
      "abilityMixins": [
        {
          "$type": "EKMHJKDLBJH",
          "stateIDs": [
            "NormalMove"
          ],
          "modifierName": "NormalMove_Effect",
          "DGFCLAIDIFI": ""
        },
        {
          "$type": "EKMHJKDLBJH",
          "stateIDs": [
            "Run"
          ],
          "modifierName": "Run_Effect",
          "DGFCLAIDIFI": ""
        }
      ],
      "modifiers": {
        "NormalMove_Effect": {
          "modifierName": "",
          "IPFJJJGABPL": 100.0,
          "onAdded": [
            {
              "$type": "ANLOBBMKNIJ",
              "rotationDampTime": "Eff_Animal_Wigeon_Ripple_Walk",
              "PPPDJGDDOGD": 1.0,
              "AJDILHJFNKE": -1.0
            }
          ]
        },
        "Run_Effect": {
          "modifierName": "",
          "IPFJJJGABPL": 100.0,
          "onAdded": [
            {
              "$type": "ANLOBBMKNIJ",
              "rotationDampTime": "Eff_Animal_Wigeon_Ripple_Run",
              "PPPDJGDDOGD": 1.0,
              "AJDILHJFNKE": -1.0
            }
          ]
        }
      },
      "onAbilityStart": [
        {
          "$type": "IDNGFEEBPAM",
          "boolID": "WanderState",
          "param3": true
        }
      ]
    }
  },
  {
    "Default": {
      "$type": "CBPBEHLOHKI",
      "abilityName": "Animal_Wigeon_ToIdle",
      "abilityMixins": [
        {
          "$type": "EKMHJKDLBJH",
          "stateIDs": [
            "NormalIdle",
            "Personality_101",
            "Personality_102",
            "Personality_103",
            "ToWander",
            "ToIdle",
            "Aware",
            "Alert",
            "SurroundAction"
          ],
          "modifierName": "NormalIdle_Effect",
          "DGFCLAIDIFI": ""
        }
      ],
      "modifiers": {
        "NormalIdle_Effect": {
          "modifierName": "",
          "IPFJJJGABPL": 100.0,
          "onAdded": [
            {
              "$type": "ANLOBBMKNIJ",
              "rotationDampTime": "Eff_Animal_Wigeon_Ripple_Standby",
              "PPPDJGDDOGD": 1.0,
              "AJDILHJFNKE": -1.0
            }
          ]
        }
      },
      "onAbilityStart": [
        {
          "$type": "IDNGFEEBPAM",
          "boolID": "WanderState"
        }
      ]
    }
  },
  {
    "Default": {
      "$type": "CBPBEHLOHKI",
      "abilityName": "Animal_Wigeon_Flee",
      "abilityMixins": [
        {
          "$type": "EJDKAKLFCPA",
          "stateIDs": [
            "Run"
          ],
          "modifierName": "FleeState",
          "DGFCLAIDIFI": ""
        }
      ],
      "modifiers": {
        "FleeState": {
          "modifierName": "",
          "IPFJJJGABPL": 100.0,
          "onRemoved": [
            {
              "$type": "IDNGFEEBPAM",
              "boolID": "FleeState"
            }
          ]
        },
        "BeHitDetect": {
          "modifierName": "",
          "IPFJJJGABPL": 100.0,
          "onBeingHit": [
            {
              "$type": "IDNGFEEBPAM",
              "boolID": "FleeState",
              "param3": true
            }
          ]
        }
      },
      "onAdded": [
        {
          "$type": "JLDEMMJAMLC",
          "modifierName": "BeHitDetect"
        }
      ],
      "onAbilityStart": [
        {
          "$type": "IDNGFEEBPAM",
          "boolID": "FleeState",
          "param3": true
        }
      ]
    }
  },
  {
    "Default": {
      "$type": "CBPBEHLOHKI",
      "abilityName": "Animal_Wigeon_Hunt_Disappear",
      "abilityMixins": [
        {
          "$type": "EJDKAKLFCPA",
          "stateIDs": [
            "Run"
          ],
          "modifierName": "DisappearTimer",
          "DGFCLAIDIFI": ""
        }
      ],
      "modifiers": {
        "DisappearTimer": {
          "modifierName": "",
          "IPFJJJGABPL": 100.0,
          "onAdded": [
            {
              "$type": "AKIIMECIGKE",
              "duration": 3.0
            },
            {
              "$type": "NCFFNDHGCMH",
              "duration": 2.5,
              "killSelfType": "Disappear",
              "value": true,
              "banExp": true
            }
          ]
        }
      }
    }
  },
  {
    "Default": {
      "$type": "CBPBEHLOHKI",
      "abilityName": "Animal_Wigeon_Disappear",
      "abilityMixins": [
        {
          "$type": "EJDKAKLFCPA",
          "stateIDs": [
            "Disappear"
          ],
          "modifierName": "DisappearTimer",
          "DGFCLAIDIFI": ""
        }
      ],
      "modifiers": {
        "DisappearTimer": {
          "modifierName": "",
          "IPFJJJGABPL": 100.0,
          "onAdded": [
            {
              "$type": "AKIIMECIGKE",
              "duration": 4.0
            },
            {
              "$type": "KJCHPDPBJHL",
              "boolID": "Disappear",
              "param3": true
            },
            {
              "$type": "NCFFNDHGCMH",
              "duration": 3.5,
              "killSelfType": "Disappear",
              "value": true,
              "banExp": true
            }
          ]
        }
      }
    }
  },
  {
    "Default": {
      "$type": "CBPBEHLOHKI",
      "abilityName": "Animal_Wigeon_FlyEffect",
      "onAbilityStart": [
        {
          "$type": "KBFEIHEAMBM",
          "rotationDampTime": "Eff_Animal_Common_Feather",
          "born": {
            "$type": "JHEBKCMEMLN",
            "offset": {
              "KGEPIMHBMOL": 0.0,
              "JEBHCGDPFEJ": 0.0,
              "LPCHALMFFOD": 0.0
            }
          },
          "PPPDJGDDOGD": 1.0,
          "AJDILHJFNKE": -1.0
        }
      ]
    }
  }
]