[
  {
    "Default": {
      "$type": "CBPBEHLOHKI",
      "abilityName": "Animal_Crane_AIStateInitial",
      "abilityMixins": [
        {
          "$type": "EAKJOFAIAPH",
          "poseIDs": [
            1
          ],
          "enterActions": [
            {
              "$type": "DOANGHCALGB",
              "skillIDs": [
                202
              ]
            }
          ]
        },
        {
          "$type": "EAKJOFAIAPH",
          "poseIDs": [
            2
          ],
          "enterActions": [
            {
              "$type": "DOANGHCALGB",
              "skillIDs": [
                101,
                102,
                103,
                104,
                201
              ]
            }
          ]
        }
      ]
    }
  },
  {
    "Default": {
      "$type": "CBPBEHLOHKI",
      "abilityName": "Animal_Crane_Random",
      "abilityMixins": [
        {
          "$type": "EJDKAKLFCPA",
          "stateIDs": [
            "FlyDown",
            "TakeOff",
            "FlyUp",
            "Disappear"
          ],
          "modifierName": "Random_MoveSpeedRatio",
          "DGFCLAIDIFI": ""
        }
      ],
      "abilitySpecials": {
        "RandomSpeed": 0.0
      },
      "modifiers": {
        "Random_MoveSpeedRatio": {
          "modifierName": "",
          "IPFJJJGABPL": 100.0,
          "properties": {
            "Animator_MoveSpeedRatio": "RandomSpeed"
          }
        }
      },
      "onAdded": [
        {
          "$type": "FLJLMOKONMB",
          "valueRangeMax": 0.10000000149011612,
          "valueRangeMin": -0.10000000149011612,
          "overrideMapKey": "RandomSpeed"
        }
      ]
    }
  },
  {
    "Default": {
      "$type": "CBPBEHLOHKI",
      "abilityName": "Animal_Crane_FlyDown",
      "abilityMixins": [
        {
          "$type": "EKMHJKDLBJH",
          "stateIDs": [
            "FlyDown"
          ],
          "modifierName": "FlyState_Down",
          "DGFCLAIDIFI": ""
        },
        {
          "$type": "EJDKAKLFCPA",
          "stateIDs": [
            "Land"
          ],
          "modifierName": "FlyDown_Land",
          "DGFCLAIDIFI": ""
        }
      ],
      "modifiers": {
        "FlyState_Down": {
          "modifierName": "",
          "IPFJJJGABPL": 100.0,
          "onAdded": [
            {
              "$type": "IDNGFEEBPAM",
              "boolID": "FlyState",
              "param3": true
            }
          ],
          "onRemoved": [
            {
              "$type": "IDNGFEEBPAM",
              "boolID": "FlyState"
            }
          ]
        },
        "FlyDown_Land": {
          "modifierName": "",
          "IPFJJJGABPL": 100.0,
          "properties": {
            "Actor_AddGravityScale": -1.9900000095367432
          }
        }
      },
      "onAbilityStart": [
        {
          "$type": "IDNGFEEBPAM",
          "boolID": "FlyState"
        }
      ]
    }
  },
  {
    "Default": {
      "$type": "CBPBEHLOHKI",
      "abilityName": "Animal_Crane_FlyUp",
      "onAbilityStart": [
        {
          "$type": "IDNGFEEBPAM",
          "boolID": "FlyState",
          "param3": true
        }
      ]
    }
  },
  {
    "Default": {
      "$type": "CBPBEHLOHKI",
      "abilityName": "Animal_Crane_ToWander",
      "onAbilityStart": [
        {
          "$type": "IDNGFEEBPAM",
          "boolID": "WanderState",
          "param3": true
        }
      ]
    }
  },
  {
    "Default": {
      "$type": "CBPBEHLOHKI",
      "abilityName": "Animal_Crane_ToIdle",
      "onAbilityStart": [
        {
          "$type": "IDNGFEEBPAM",
          "boolID": "WanderState"
        }
      ]
    }
  },
  {
    "Default": {
      "$type": "CBPBEHLOHKI",
      "abilityName": "Animal_Crane_Disappear",
      "abilityMixins": [
        {
          "$type": "EJDKAKLFCPA",
          "stateIDs": [
            "Disappear"
          ],
          "modifierName": "DisappearTimer",
          "DGFCLAIDIFI": ""
        }
      ],
      "modifiers": {
        "DisappearTimer": {
          "modifierName": "",
          "IPFJJJGABPL": 100.0,
          "onAdded": [
            {
              "$type": "AKIIMECIGKE",
              "duration": 4.0
            },
            {
              "$type": "KJCHPDPBJHL",
              "boolID": "Disappear",
              "param3": true
            },
            {
              "$type": "NCFFNDHGCMH",
              "duration": 3.5,
              "killSelfType": "Disappear",
              "value": true,
              "banExp": true
            }
          ]
        }
      }
    }
  },
  {
    "Default": {
      "$type": "CBPBEHLOHKI",
      "abilityName": "Animal_Crane_FlyEffect",
      "onAbilityStart": [
        {
          "$type": "KBFEIHEAMBM",
          "rotationDampTime": "Eff_Animal_Common_Feather",
          "born": {
            "$type": "JHEBKCMEMLN",
            "offset": {
              "KGEPIMHBMOL": -0.75,
              "JEBHCGDPFEJ": 0.75,
              "LPCHALMFFOD": 0.0
            }
          },
          "PPPDJGDDOGD": 1.0,
          "AJDILHJFNKE": -1.0
        },
        {
          "$type": "KBFEIHEAMBM",
          "rotationDampTime": "Eff_Animal_Common_Feather",
          "born": {
            "$type": "JHEBKCMEMLN",
            "offset": {
              "KGEPIMHBMOL": 0.75,
              "JEBHCGDPFEJ": 0.75,
              "LPCHALMFFOD": 0.0
            }
          },
          "PPPDJGDDOGD": 1.0,
          "AJDILHJFNKE": -1.0
        }
      ]
    }
  },
  {
    "Default": {
      "$type": "CBPBEHLOHKI",
      "abilityName": "Animal_Crane_Scared",
      "abilityMixins": [
        {
          "$type": "IILHMBGONGM",
          "steerStateIDs": [
            "Alert"
          ],
          "angularSpeed": 150.0,
          "attackTrigger": "",
          "attackDistance": 1.5,
          "DGFCLAIDIFI": ""
        }
      ],
      "onAdded": [
        {
          "$type": "KJCHPDPBJHL",
          "boolID": "DistanceFaraway"
        }
      ],
      "onAbilityStart": [
        {
          "$type": "KJCHPDPBJHL",
          "boolID": "DistanceFaraway",
          "param3": true
        }
      ]
    }
  }
]