{
  "luaDataPath": "",
  "entityBan": "",
  "isKeyInteraction": false,
  "group": [
    [
      {
        "$type": "MoleMole.Config.ConfigUITriggerInterAction",
        "type": "UI_TRIGGER",
        "delayTime": 1.5,
        "contextName": "FlyppyHatLevelSelectPage",
        "_param": ""
      },
      {
        "$type": "FJKIHHKJLMJ",
        "type": "CAMERA_MOVE",
        "duration": 1.5,
        "camPosOffset": {
          "x": 305.8999938964844,
          "y": 446.3399963378906,
          "z": 128.02999877929688
        },
        "nearLength": 5.0,
        "camForwardTargetOffset": {
          "x": 306.44000244140625,
          "y": 445.125,
          "z": 128.7010040283203
        },
        "lerpRatio": 5.0,
        "targetNpcAlias": "",
        "KJOEFBPOIIH": "",
        "IICFKKEBIEC": "",
        "EGEHEJEBLBJ": ""
      }
    ],
    [
      {
        "$type": "FJKIHHKJLMJ",
        "type": "CAMERA_MOVE",
        "duration": 1.0,
        "cameraPosType": "EXIT",
        "camTargetType": "TO_INTEE",
        "lerpRatio": 5.0,
        "lerpPattern": 6,
        "targetNpcAlias": "",
        "KJOEFBPOIIH": "",
        "IICFKKEBIEC": "",
        "EGEHEJEBLBJ": ""
      }
    ]
  ]
}