{
  "luaDataPath": "",
  "entityBan": "",
  "isKeyInteraction": false,
  "group": [
    [
      {
        "$type": "MoleMole.Config.ConfigUITriggerInterAction",
        "type": "UI_TRIGGER",
        "contextName": "RemusEntityTouch",
        "_param": "133413020;20006;28020527;RemusCat_Camera02;SceneObj_Area_Fd_Property_Ani_Prop_RemusCatIntee_01;SceneObj_Area_Fd_Property_Ani_Prop_RemusCatIntee_02;20011"
      },
      {
        "$type": "PKKMAMONGEO",
        "type": "DIALOG_CLEAR",
        "playAudio": false
      }
    ],
    [
      {
        "$type": "FJKIHHKJLMJ",
        "type": "CAMERA_MOVE",
        "duration": 1.0,
        "cameraPosType": "EXIT",
        "camTargetType": "TO_INTEE",
        "lerpRatio": 5.0,
        "targetNpcAlias": "",
        "KJOEFBPOIIH": "",
        "IICFKKEBIEC": "",
        "EGEHEJEBLBJ": ""
      }
    ]
  ]
}