{
  "luaDataPath": "",
  "entityBan": "",
  "isKeyInteraction": false,
  "group": [
    [
      {
        "$type": "MoleMole.Config.ConfigUITriggerInterAction",
        "type": "UI_TRIGGER",
        "contextName": "InLevelGhostWallPaintingPage",
        "_param": "2|1673.922,187.6527,3955.566|-4,70,0|90,83,76|64,57,50|2,7,12|-7|3,1|SceneObj_Area_Fd_Property_Ani_Prop_GhostMural_Observer_01|SceneObj_Area_Fd_Property_Ani_Prop_GhostMural_Observer_02|SceneObj_Area_Fd_Property_Ani_Prop_GhostMural_Observer_03|35|30|6,3|0.2|1.0|0.2"
      },
      {
        "$type": "GFMIPLAFDJK",
        "type": "GADGET_TOUCH"
      },
      {
        "$type": "PKKMAMONGEO",
        "type": "DIALOG_CLEAR",
        "playAudio": false
      },
      {
        "$type": "MoleMole.Config.ConfigSimpleBlackScreenAction",
        "type": "SIMPLE_BLACK_SCREEN",
        "duration": 1.0,
        "durationToBlack": 0.20000000298023224,
        "durationKeepBlack": 1.0,
        "durationFromBlack": 0.20000000298023224,
        "textMapID": ""
      },
      {
        "$type": "MoleMole.Config.ConfigTimeProtectAction",
        "type": "TIME_PROTECT",
        "duration": 2.0
      }
    ]
  ]
}