{
  "coopInteractionMap": {
    "1901001": {
      "id": 1901001,
      "coopMap": {
        "111": {
          "$type": "PPJHAFFOIOK",
          "coopNodeId": 111,
          "coopNodeType": "COOP_NODE_SELECT",
          "nextNodeArray": [
            114,
            113
          ],
          "selectList": [
            {
              "dialogId": 190100199,
              "hideCond": {},
              "enableCond": {}
            },
            {
              "dialogId": 190100198,
              "hideCond": {},
              "enableCond": {}
            }
          ]
        },
        "110": {
          "$type": "EFOECCBHIAL",
          "coopNodeId": 110,
          "coopNodeType": "COOP_NODE_TALK",
          "nextNodeArray": [
            111
          ],
          "talkConfig": {
            "id": 110,
            "performCfg": "QuestDialogue/COOP/Coop105301/Q1901001",
            "loadType": "TALK_COOP",
            "questId": 19010,
            "assetIndex": 16961554884635591184,
            "prePerformCfg": ""
          },
          "BJNJIOHKNPL": 10
        },
        "115": {
          "$type": "PPJHAFFOIOK",
          "coopNodeId": 115,
          "coopNodeType": "COOP_NODE_SELECT",
          "nextNodeArray": [
            117,
            118
          ],
          "selectList": [
            {
              "dialogId": 190100299,
              "hideCond": {},
              "enableCond": {}
            },
            {
              "dialogId": 190100298,
              "hideCond": {},
              "enableCond": {}
            }
          ]
        },
        "114": {
          "$type": "EFOECCBHIAL",
          "coopNodeId": 114,
          "coopNodeType": "COOP_NODE_TALK",
          "nextNodeArray": [
            115
          ],
          "talkConfig": {
            "id": 114,
            "performCfg": "QuestDialogue/COOP/Coop105301/Q1901002",
            "loadType": "TALK_COOP",
            "questId": 19010,
            "assetIndex": 2560479361598717959,
            "prePerformCfg": ""
          },
          "BJNJIOHKNPL": 11
        },
        "117": {
          "$type": "EFOECCBHIAL",
          "coopNodeId": 117,
          "coopNodeType": "COOP_NODE_TALK",
          "nextNodeArray": [
            18
          ],
          "talkConfig": {
            "id": 117,
            "performCfg": "QuestDialogue/COOP/Coop105301/Q1901005",
            "loadType": "TALK_COOP",
            "questId": 19010,
            "assetIndex": 7746789976313930301,
            "prePerformCfg": ""
          },
          "BJNJIOHKNPL": 7
        },
        "18": {
          "$type": "COBBCENKLHN",
          "coopNodeId": 18,
          "coopNodeType": "COOP_NODE_END",
          "savePointId": 19010011
        },
        "118": {
          "$type": "EFOECCBHIAL",
          "coopNodeId": 118,
          "coopNodeType": "COOP_NODE_TALK",
          "nextNodeArray": [
            26
          ],
          "talkConfig": {
            "id": 118,
            "performCfg": "QuestDialogue/COOP/Coop105301/Q1901004",
            "loadType": "TALK_COOP",
            "questId": 19010,
            "assetIndex": 16814866827301684078,
            "prePerformCfg": ""
          },
          "BJNJIOHKNPL": 8
        },
        "26": {
          "$type": "COBBCENKLHN",
          "coopNodeId": 26,
          "coopNodeType": "COOP_NODE_END",
          "savePointId": 19010012
        },
        "113": {
          "$type": "EFOECCBHIAL",
          "coopNodeId": 113,
          "coopNodeType": "COOP_NODE_TALK",
          "nextNodeArray": [
            27
          ],
          "talkConfig": {
            "id": 113,
            "performCfg": "QuestDialogue/COOP/Coop105301/Q1901003",
            "loadType": "TALK_COOP",
            "questId": 19010,
            "assetIndex": 5439727225271746909,
            "prePerformCfg": ""
          },
          "BJNJIOHKNPL": 9
        },
        "27": {
          "$type": "COBBCENKLHN",
          "coopNodeId": 27,
          "coopNodeType": "COOP_NODE_END",
          "savePointId": 19010013
        }
      },
      "startNodeId": 110,
      "DHLONCAIIEC": true
    },
    "1901201": {
      "id": 1901201,
      "coopMap": {
        "47": {
          "$type": "EFOECCBHIAL",
          "coopNodeId": 47,
          "coopNodeType": "COOP_NODE_TALK",
          "nextNodeArray": [
            3
          ],
          "talkConfig": {
            "id": 47,
            "performCfg": "QuestDialogue/COOP/Coop105301/Q1901201",
            "loadType": "TALK_COOP",
            "questId": 19012,
            "assetIndex": 6810276111411106795,
            "prePerformCfg": ""
          },
          "BJNJIOHKNPL": 1
        },
        "3": {
          "$type": "COBBCENKLHN",
          "coopNodeId": 3,
          "coopNodeType": "COOP_NODE_END",
          "savePointId": 1901201
        }
      },
      "startNodeId": 47,
      "DHLONCAIIEC": true
    },
    "1901202": {
      "id": 1901202,
      "coopMap": {
        "102": {
          "$type": "EFOECCBHIAL",
          "coopNodeId": 102,
          "coopNodeType": "COOP_NODE_TALK",
          "nextNodeArray": [
            6
          ],
          "talkConfig": {
            "id": 102,
            "performCfg": "QuestDialogue/COOP/Coop105301/Q1901202",
            "loadType": "TALK_COOP",
            "questId": 19012,
            "assetIndex": 5533157701891293273,
            "prePerformCfg": ""
          },
          "BJNJIOHKNPL": 2
        },
        "6": {
          "$type": "COBBCENKLHN",
          "coopNodeId": 6,
          "coopNodeType": "COOP_NODE_END",
          "savePointId": 1901202
        }
      },
      "startNodeId": 102,
      "DHLONCAIIEC": true
    },
    "1901204": {
      "id": 1901204,
      "coopMap": {
        "103": {
          "$type": "EFOECCBHIAL",
          "coopNodeId": 103,
          "coopNodeType": "COOP_NODE_TALK",
          "nextNodeArray": [
            8
          ],
          "talkConfig": {
            "id": 103,
            "performCfg": "QuestDialogue/COOP/Coop105301/Q1901204",
            "loadType": "TALK_COOP",
            "questId": 19012,
            "assetIndex": 1762497069127551210,
            "prePerformCfg": ""
          },
          "BJNJIOHKNPL": 3
        },
        "8": {
          "$type": "COBBCENKLHN",
          "coopNodeId": 8,
          "coopNodeType": "COOP_NODE_END",
          "savePointId": 1901204
        }
      },
      "startNodeId": 103,
      "DHLONCAIIEC": true
    },
    "1901205": {
      "id": 1901205,
      "coopMap": {
        "105": {
          "$type": "PPJHAFFOIOK",
          "coopNodeId": 105,
          "coopNodeType": "COOP_NODE_SELECT",
          "nextNodeArray": [
            108,
            109
          ],
          "selectList": [
            {
              "dialogId": 190120399,
              "hideCond": {},
              "enableCond": {}
            },
            {
              "dialogId": 190120398,
              "hideCond": {},
              "enableCond": {}
            }
          ]
        },
        "104": {
          "$type": "EFOECCBHIAL",
          "coopNodeId": 104,
          "coopNodeType": "COOP_NODE_TALK",
          "nextNodeArray": [
            105
          ],
          "talkConfig": {
            "id": 104,
            "performCfg": "QuestDialogue/COOP/Coop105301/Q1901203",
            "loadType": "TALK_COOP",
            "questId": 19012,
            "assetIndex": 18222138942791525455,
            "prePerformCfg": ""
          },
          "BJNJIOHKNPL": 6
        },
        "108": {
          "$type": "EFOECCBHIAL",
          "coopNodeId": 108,
          "coopNodeType": "COOP_NODE_TALK",
          "nextNodeArray": [
            14
          ],
          "talkConfig": {
            "id": 108,
            "performCfg": "QuestDialogue/COOP/Coop105301/Q1901206",
            "loadType": "TALK_COOP",
            "questId": 19012,
            "assetIndex": 13919875783711679579,
            "prePerformCfg": ""
          },
          "BJNJIOHKNPL": 4
        },
        "14": {
          "$type": "COBBCENKLHN",
          "coopNodeId": 14,
          "coopNodeType": "COOP_NODE_END",
          "savePointId": 19012051
        },
        "109": {
          "$type": "EFOECCBHIAL",
          "coopNodeId": 109,
          "coopNodeType": "COOP_NODE_TALK",
          "nextNodeArray": [
            20
          ],
          "talkConfig": {
            "id": 109,
            "performCfg": "QuestDialogue/COOP/Coop105301/Q1901207",
            "loadType": "TALK_COOP",
            "questId": 19012,
            "assetIndex": 4429485122691144001,
            "prePerformCfg": ""
          },
          "BJNJIOHKNPL": 5
        },
        "20": {
          "$type": "COBBCENKLHN",
          "coopNodeId": 20,
          "coopNodeType": "COOP_NODE_END",
          "savePointId": 19012052
        }
      },
      "startNodeId": 104,
      "DHLONCAIIEC": true
    },
    "1901302": {
      "id": 1901302,
      "coopMap": {
        "120": {
          "$type": "PPJHAFFOIOK",
          "coopNodeId": 120,
          "coopNodeType": "COOP_NODE_SELECT",
          "nextNodeArray": [
            122,
            123
          ],
          "selectList": [
            {
              "dialogId": 190130199,
              "hideCond": {},
              "enableCond": {}
            },
            {
              "dialogId": 190130198,
              "hideCond": {},
              "enableCond": {}
            }
          ]
        },
        "119": {
          "$type": "EFOECCBHIAL",
          "coopNodeId": 119,
          "coopNodeType": "COOP_NODE_TALK",
          "nextNodeArray": [
            120
          ],
          "talkConfig": {
            "id": 119,
            "performCfg": "QuestDialogue/COOP/Coop105301/Q1901301",
            "loadType": "TALK_COOP",
            "questId": 19013,
            "assetIndex": 10426449032425205019,
            "prePerformCfg": ""
          },
          "BJNJIOHKNPL": 21
        },
        "122": {
          "$type": "EFOECCBHIAL",
          "coopNodeId": 122,
          "coopNodeType": "COOP_NODE_TALK",
          "nextNodeArray": [
            161
          ],
          "talkConfig": {
            "id": 122,
            "performCfg": "QuestDialogue/COOP/Coop105301/Q1901302",
            "loadType": "TALK_COOP",
            "questId": 19013,
            "assetIndex": 1829382246682315370,
            "prePerformCfg": ""
          },
          "BJNJIOHKNPL": 20
        },
        "161": {
          "$type": "COBBCENKLHN",
          "coopNodeId": 161,
          "coopNodeType": "COOP_NODE_END",
          "savePointId": 19013021
        },
        "123": {
          "$type": "EFOECCBHIAL",
          "coopNodeId": 123,
          "coopNodeType": "COOP_NODE_TALK",
          "nextNodeArray": [
            69
          ],
          "talkConfig": {
            "id": 123,
            "performCfg": "QuestDialogue/COOP/Coop105301/Q1901303",
            "loadType": "TALK_COOP",
            "questId": 19013,
            "assetIndex": 3882041855654803913,
            "prePerformCfg": ""
          },
          "BJNJIOHKNPL": 19
        },
        "69": {
          "$type": "COBBCENKLHN",
          "coopNodeId": 69,
          "coopNodeType": "COOP_NODE_END",
          "savePointId": 19013022
        }
      },
      "startNodeId": 119,
      "DHLONCAIIEC": true
    },
    "1901305": {
      "id": 1901305,
      "coopMap": {
        "124": {
          "$type": "EFOECCBHIAL",
          "coopNodeId": 124,
          "coopNodeType": "COOP_NODE_TALK",
          "nextNodeArray": [
            72
          ],
          "talkConfig": {
            "id": 124,
            "performCfg": "QuestDialogue/COOP/Coop105301/Q1901305",
            "loadType": "TALK_COOP",
            "questId": 19013,
            "assetIndex": 5213664061926763514,
            "prePerformCfg": ""
          },
          "BJNJIOHKNPL": 27
        },
        "72": {
          "$type": "COBBCENKLHN",
          "coopNodeId": 72,
          "coopNodeType": "COOP_NODE_END",
          "savePointId": 1901305
        }
      },
      "startNodeId": 124,
      "DHLONCAIIEC": true
    },
    "1901306": {
      "id": 1901306,
      "coopMap": {
        "125": {
          "$type": "EFOECCBHIAL",
          "coopNodeId": 125,
          "coopNodeType": "COOP_NODE_TALK",
          "nextNodeArray": [
            145
          ],
          "talkConfig": {
            "id": 125,
            "performCfg": "QuestDialogue/COOP/Coop105301/Q1901306",
            "loadType": "TALK_COOP",
            "questId": 19013,
            "assetIndex": 9487656953568338141,
            "prePerformCfg": ""
          },
          "BJNJIOHKNPL": 28
        },
        "145": {
          "$type": "COBBCENKLHN",
          "coopNodeId": 145,
          "coopNodeType": "COOP_NODE_END",
          "savePointId": 1901306
        }
      },
      "startNodeId": 125,
      "DHLONCAIIEC": true
    },
    "1901307": {
      "id": 1901307,
      "coopMap": {
        "165": {
          "$type": "EFOECCBHIAL",
          "coopNodeId": 165,
          "coopNodeType": "COOP_NODE_TALK",
          "nextNodeArray": [
            163
          ],
          "talkConfig": {
            "id": 165,
            "performCfg": "QuestDialogue/COOP/Coop105301/Q1901307",
            "loadType": "TALK_COOP",
            "questId": 19013,
            "assetIndex": 16652704915459152357,
            "prePerformCfg": ""
          },
          "BJNJIOHKNPL": 35
        },
        "163": {
          "$type": "COBBCENKLHN",
          "coopNodeId": 163,
          "coopNodeType": "COOP_NODE_END",
          "savePointId": 1901307
        }
      },
      "startNodeId": 165,
      "DHLONCAIIEC": true
    },
    "1901402": {
      "id": 1901402,
      "coopMap": {
        "128": {
          "$type": "EFOECCBHIAL",
          "coopNodeId": 128,
          "coopNodeType": "COOP_NODE_TALK",
          "nextNodeArray": [
            58
          ],
          "talkConfig": {
            "id": 128,
            "performCfg": "QuestDialogue/COOP/Coop105301/Q1901402",
            "loadType": "TALK_COOP",
            "questId": 19014,
            "assetIndex": 18343239795613453752,
            "prePerformCfg": ""
          },
          "BJNJIOHKNPL": 22
        },
        "58": {
          "$type": "COBBCENKLHN",
          "coopNodeId": 58,
          "coopNodeType": "COOP_NODE_END",
          "savePointId": 1901402
        }
      },
      "startNodeId": 128,
      "DHLONCAIIEC": true
    },
    "1901404": {
      "id": 1901404,
      "coopMap": {
        "129": {
          "$type": "EFOECCBHIAL",
          "coopNodeId": 129,
          "coopNodeType": "COOP_NODE_TALK",
          "nextNodeArray": [
            78
          ],
          "talkConfig": {
            "id": 129,
            "performCfg": "QuestDialogue/COOP/Coop105301/Q1901404",
            "loadType": "TALK_COOP",
            "questId": 19014,
            "assetIndex": 6445644047608194155,
            "prePerformCfg": ""
          },
          "BJNJIOHKNPL": 29
        },
        "78": {
          "$type": "COBBCENKLHN",
          "coopNodeId": 78,
          "coopNodeType": "COOP_NODE_END",
          "savePointId": 1901404
        }
      },
      "startNodeId": 129,
      "DHLONCAIIEC": true
    },
    "1901405": {
      "id": 1901405,
      "coopMap": {
        "130": {
          "$type": "EFOECCBHIAL",
          "coopNodeId": 130,
          "coopNodeType": "COOP_NODE_TALK",
          "nextNodeArray": [
            80
          ],
          "talkConfig": {
            "id": 130,
            "performCfg": "QuestDialogue/COOP/Coop105301/Q1901405",
            "loadType": "TALK_COOP",
            "questId": 19014,
            "assetIndex": 2150807989785354296,
            "prePerformCfg": ""
          },
          "BJNJIOHKNPL": 30
        },
        "80": {
          "$type": "COBBCENKLHN",
          "coopNodeId": 80,
          "coopNodeType": "COOP_NODE_END",
          "savePointId": 1901405
        }
      },
      "startNodeId": 130,
      "DHLONCAIIEC": true
    },
    "1901407": {
      "id": 1901407,
      "coopMap": {
        "131": {
          "$type": "EFOECCBHIAL",
          "coopNodeId": 131,
          "coopNodeType": "COOP_NODE_TALK",
          "nextNodeArray": [
            90
          ],
          "talkConfig": {
            "id": 131,
            "performCfg": "QuestDialogue/COOP/Coop105301/Q1901406",
            "loadType": "TALK_COOP",
            "questId": 19014,
            "assetIndex": 11434696653425311114,
            "prePerformCfg": ""
          },
          "BJNJIOHKNPL": 31
        },
        "90": {
          "$type": "COBBCENKLHN",
          "coopNodeId": 90,
          "coopNodeType": "COOP_NODE_END",
          "savePointId": 1901407
        }
      },
      "startNodeId": 131,
      "DHLONCAIIEC": true
    },
    "1901409": {
      "id": 1901409,
      "coopMap": {
        "173": {
          "$type": "EFOECCBHIAL",
          "coopNodeId": 173,
          "coopNodeType": "COOP_NODE_TALK",
          "nextNodeArray": [
            171
          ],
          "talkConfig": {
            "id": 173,
            "performCfg": "QuestDialogue/COOP/Coop105301/Q1901403",
            "loadType": "TALK_COOP",
            "questId": 19014,
            "assetIndex": 18266745100187411260,
            "prePerformCfg": ""
          },
          "BJNJIOHKNPL": 36
        },
        "171": {
          "$type": "COBBCENKLHN",
          "coopNodeId": 171,
          "coopNodeType": "COOP_NODE_END",
          "savePointId": 1901409
        }
      },
      "startNodeId": 173,
      "DHLONCAIIEC": true
    },
    "1901501": {
      "id": 1901501,
      "coopMap": {
        "189": {
          "$type": "BFGLIPPHAJP",
          "coopNodeId": 189,
          "coopNodeType": "COOP_NODE_COND",
          "nextNodeArray": [
            132,
            188
          ],
          "coopCondGrp": {
            "condCombType": "LOGIC_AND",
            "coopCondList": [
              {
                "damageRatio": "COOP_COND_TEMP_VALUE_COMPARE",
                "param": [
                  1,
                  1,
                  0
                ]
              }
            ]
          }
        },
        "132": {
          "$type": "EFOECCBHIAL",
          "coopNodeId": 132,
          "coopNodeType": "COOP_NODE_TALK",
          "nextNodeArray": [
            195
          ],
          "talkConfig": {
            "id": 132,
            "performCfg": "QuestDialogue/COOP/Coop105301/Q1901501",
            "loadType": "TALK_COOP",
            "questId": 19015,
            "assetIndex": 306750458208302717,
            "prePerformCfg": ""
          },
          "BJNJIOHKNPL": 17
        },
        "195": {
          "$type": "BEMIGNHPIPC",
          "coopNodeId": 195,
          "coopNodeType": "COOP_NODE_ACTION",
          "nextNodeArray": [
            39
          ],
          "actionList": [
            {
              "actionType": "COOP_ACTION_TEMP_VALUE_SET",
              "param": [
                1,
                1
              ]
            }
          ]
        },
        "39": {
          "$type": "COBBCENKLHN",
          "coopNodeId": 39,
          "coopNodeType": "COOP_NODE_END",
          "savePointId": 1901501
        },
        "188": {
          "$type": "EFOECCBHIAL",
          "coopNodeId": 188,
          "coopNodeType": "COOP_NODE_TALK",
          "nextNodeArray": [
            195
          ],
          "talkConfig": {
            "id": 188,
            "performCfg": "QuestDialogue/COOP/Coop105301/Q1901508",
            "loadType": "TALK_COOP",
            "questId": 19015,
            "assetIndex": 18317485297201051158,
            "prePerformCfg": ""
          },
          "BJNJIOHKNPL": 18
        }
      },
      "startNodeId": 189,
      "DHLONCAIIEC": true
    },
    "1901503": {
      "id": 1901503,
      "coopMap": {
        "196": {
          "$type": "BEMIGNHPIPC",
          "coopNodeId": 196,
          "coopNodeType": "COOP_NODE_ACTION",
          "nextNodeArray": [
            178
          ],
          "actionList": [
            {
              "actionType": "COOP_ACTION_TEMP_VALUE_SET",
              "param": [
                1,
                0
              ]
            }
          ]
        },
        "178": {
          "$type": "BFGLIPPHAJP",
          "coopNodeId": 178,
          "coopNodeType": "COOP_NODE_COND",
          "nextNodeArray": [
            133,
            182
          ],
          "coopCondGrp": {
            "coopCondList": [
              {
                "damageRatio": "COOP_COND_QUEST_FINISH",
                "param": [
                  1901503
                ]
              }
            ]
          }
        },
        "133": {
          "$type": "EFOECCBHIAL",
          "coopNodeId": 133,
          "coopNodeType": "COOP_NODE_TALK",
          "nextNodeArray": [
            60
          ],
          "talkConfig": {
            "id": 133,
            "performCfg": "QuestDialogue/COOP/Coop105301/Q1901502",
            "loadType": "TALK_COOP",
            "questId": 19015,
            "assetIndex": 17853336262901362839,
            "prePerformCfg": ""
          },
          "BJNJIOHKNPL": 23
        },
        "60": {
          "$type": "COBBCENKLHN",
          "coopNodeId": 60,
          "coopNodeType": "COOP_NODE_END",
          "savePointId": 1901503
        },
        "182": {
          "$type": "BFGLIPPHAJP",
          "coopNodeId": 182,
          "coopNodeType": "COOP_NODE_COND",
          "nextNodeArray": [
            180,
            183
          ],
          "coopCondGrp": {
            "coopCondList": [
              {
                "damageRatio": "COOP_COND_QUEST_FINISH",
                "param": [
                  1901508
                ]
              }
            ]
          }
        },
        "180": {
          "$type": "EFOECCBHIAL",
          "coopNodeId": 180,
          "coopNodeType": "COOP_NODE_TALK",
          "nextNodeArray": [
            60
          ],
          "talkConfig": {
            "id": 180,
            "performCfg": "QuestDialogue/COOP/Coop105301/Q1901503",
            "loadType": "TALK_COOP",
            "questId": 19015,
            "assetIndex": 9509516916725101027,
            "prePerformCfg": ""
          },
          "BJNJIOHKNPL": 25
        },
        "183": {
          "$type": "BFGLIPPHAJP",
          "coopNodeId": 183,
          "coopNodeType": "COOP_NODE_COND",
          "nextNodeArray": [
            181,
            0
          ],
          "coopCondGrp": {
            "coopCondList": [
              {
                "damageRatio": "COOP_COND_QUEST_FINISH",
                "param": [
                  1901509
                ]
              }
            ]
          }
        },
        "181": {
          "$type": "EFOECCBHIAL",
          "coopNodeId": 181,
          "coopNodeType": "COOP_NODE_TALK",
          "nextNodeArray": [
            60
          ],
          "talkConfig": {
            "id": 181,
            "performCfg": "QuestDialogue/COOP/Coop105301/Q1901507",
            "loadType": "TALK_COOP",
            "questId": 19015,
            "assetIndex": 10643973197484645562,
            "prePerformCfg": ""
          },
          "BJNJIOHKNPL": 24
        }
      },
      "startNodeId": 196,
      "DHLONCAIIEC": true
    },
    "1901504": {
      "id": 1901504,
      "coopMap": {
        "134": {
          "$type": "EFOECCBHIAL",
          "coopNodeId": 134,
          "coopNodeType": "COOP_NODE_TALK",
          "nextNodeArray": [
            84
          ],
          "talkConfig": {
            "id": 134,
            "performCfg": "QuestDialogue/COOP/Coop105301/Q1901504",
            "loadType": "TALK_COOP",
            "questId": 19015,
            "assetIndex": 12042709456361291529,
            "prePerformCfg": ""
          },
          "BJNJIOHKNPL": 37
        },
        "84": {
          "$type": "COBBCENKLHN",
          "coopNodeId": 84,
          "coopNodeType": "COOP_NODE_END",
          "savePointId": 1901504
        }
      },
      "startNodeId": 134,
      "DHLONCAIIEC": true
    },
    "1901506": {
      "id": 1901506,
      "coopMap": {
        "135": {
          "$type": "EFOECCBHIAL",
          "coopNodeId": 135,
          "coopNodeType": "COOP_NODE_TALK",
          "nextNodeArray": [
            86
          ],
          "talkConfig": {
            "id": 135,
            "performCfg": "QuestDialogue/COOP/Coop105301/Q1901505",
            "loadType": "TALK_COOP",
            "questId": 19015,
            "assetIndex": 2422692707396555790,
            "prePerformCfg": ""
          },
          "BJNJIOHKNPL": 32
        },
        "86": {
          "$type": "COBBCENKLHN",
          "coopNodeId": 86,
          "coopNodeType": "COOP_NODE_END",
          "savePointId": 1901506
        }
      },
      "startNodeId": 135,
      "DHLONCAIIEC": true
    },
    "1901507": {
      "id": 1901507,
      "coopMap": {
        "136": {
          "$type": "EFOECCBHIAL",
          "coopNodeId": 136,
          "coopNodeType": "COOP_NODE_TALK",
          "nextNodeArray": [
            88
          ],
          "talkConfig": {
            "id": 136,
            "performCfg": "QuestDialogue/COOP/Coop105301/Q1901506",
            "loadType": "TALK_COOP",
            "questId": 19015,
            "assetIndex": 1780670260152414537,
            "prePerformCfg": ""
          },
          "BJNJIOHKNPL": 33
        },
        "88": {
          "$type": "COBBCENKLHN",
          "coopNodeId": 88,
          "coopNodeType": "COOP_NODE_END",
          "savePointId": 1901507
        }
      },
      "startNodeId": 136,
      "DHLONCAIIEC": true
    },
    "1901601": {
      "id": 1901601,
      "coopMap": {
        "138": {
          "$type": "PPJHAFFOIOK",
          "coopNodeId": 138,
          "coopNodeType": "COOP_NODE_SELECT",
          "nextNodeArray": [
            140,
            141
          ],
          "selectList": [
            {
              "dialogId": 190160198,
              "hideCond": {},
              "enableCond": {}
            },
            {
              "dialogId": 190160199,
              "hideCond": {},
              "enableCond": {}
            }
          ]
        },
        "137": {
          "$type": "EFOECCBHIAL",
          "coopNodeId": 137,
          "coopNodeType": "COOP_NODE_TALK",
          "nextNodeArray": [
            138
          ],
          "talkConfig": {
            "id": 137,
            "performCfg": "QuestDialogue/COOP/Coop105301/Q1901601",
            "loadType": "TALK_COOP",
            "questId": 19016,
            "assetIndex": 4649769101241928735,
            "prePerformCfg": ""
          },
          "BJNJIOHKNPL": 14
        },
        "140": {
          "$type": "EFOECCBHIAL",
          "coopNodeId": 140,
          "coopNodeType": "COOP_NODE_TALK",
          "nextNodeArray": [
            23
          ],
          "talkConfig": {
            "id": 140,
            "performCfg": "QuestDialogue/COOP/Coop105301/Q1901602",
            "loadType": "TALK_COOP",
            "questId": 19016,
            "assetIndex": 12659212906879861701,
            "prePerformCfg": ""
          },
          "BJNJIOHKNPL": 12
        },
        "23": {
          "$type": "COBBCENKLHN",
          "coopNodeId": 23,
          "coopNodeType": "COOP_NODE_END",
          "savePointId": 19016011
        },
        "141": {
          "$type": "EFOECCBHIAL",
          "coopNodeId": 141,
          "coopNodeType": "COOP_NODE_TALK",
          "nextNodeArray": [
            29
          ],
          "talkConfig": {
            "id": 141,
            "performCfg": "QuestDialogue/COOP/Coop105301/Q1901603",
            "loadType": "TALK_COOP",
            "questId": 19016,
            "assetIndex": 3900757394556701080,
            "prePerformCfg": ""
          },
          "BJNJIOHKNPL": 13
        },
        "29": {
          "$type": "COBBCENKLHN",
          "coopNodeId": 29,
          "coopNodeType": "COOP_NODE_END",
          "savePointId": 19016012
        }
      },
      "startNodeId": 137,
      "DHLONCAIIEC": true
    },
    "1901602": {
      "id": 1901602,
      "coopMap": {
        "143": {
          "$type": "EFOECCBHIAL",
          "coopNodeId": 143,
          "coopNodeType": "COOP_NODE_TALK",
          "nextNodeArray": [
            33
          ],
          "talkConfig": {
            "id": 143,
            "performCfg": "QuestDialogue/COOP/Coop105301/Q1901604",
            "loadType": "TALK_COOP",
            "questId": 19016,
            "assetIndex": 17910615712325824595,
            "prePerformCfg": ""
          },
          "BJNJIOHKNPL": 16
        },
        "33": {
          "$type": "COBBCENKLHN",
          "coopNodeId": 33,
          "coopNodeType": "COOP_NODE_END",
          "savePointId": 1901602
        }
      },
      "startNodeId": 143,
      "DHLONCAIIEC": true
    },
    "1901604": {
      "id": 1901604,
      "coopMap": {
        "144": {
          "$type": "EFOECCBHIAL",
          "coopNodeId": 144,
          "coopNodeType": "COOP_NODE_TALK",
          "nextNodeArray": [
            198
          ],
          "talkConfig": {
            "id": 144,
            "performCfg": "QuestDialogue/COOP/Coop105301/Q1901605",
            "loadType": "TALK_COOP",
            "questId": 19016,
            "assetIndex": 10940404107738042214,
            "prePerformCfg": ""
          },
          "BJNJIOHKNPL": 26
        },
        "198": {
          "$type": "COBBCENKLHN",
          "coopNodeId": 198,
          "coopNodeType": "COOP_NODE_END",
          "savePointId": 1901604
        }
      },
      "startNodeId": 144,
      "DHLONCAIIEC": true
    },
    "1901605": {
      "id": 1901605,
      "coopMap": {
        "142": {
          "$type": "EFOECCBHIAL",
          "coopNodeId": 142,
          "coopNodeType": "COOP_NODE_TALK",
          "nextNodeArray": [
            156
          ],
          "talkConfig": {
            "id": 142,
            "performCfg": "QuestDialogue/COOP/Coop105301/Q1901606",
            "loadType": "TALK_COOP",
            "questId": 19016,
            "assetIndex": 5235580462124977163,
            "prePerformCfg": ""
          },
          "BJNJIOHKNPL": 15
        },
        "156": {
          "$type": "COBBCENKLHN",
          "coopNodeId": 156,
          "coopNodeType": "COOP_NODE_END",
          "savePointId": 1901605
        }
      },
      "startNodeId": 142,
      "DHLONCAIIEC": true
    },
    "1901607": {
      "id": 1901607,
      "coopMap": {
        "160": {
          "$type": "EFOECCBHIAL",
          "coopNodeId": 160,
          "coopNodeType": "COOP_NODE_TALK",
          "nextNodeArray": [
            158
          ],
          "talkConfig": {
            "id": 160,
            "performCfg": "QuestDialogue/COOP/Coop105301/Q1901607",
            "loadType": "TALK_COOP",
            "questId": 19016,
            "assetIndex": 6859579467966699689,
            "prePerformCfg": ""
          },
          "BJNJIOHKNPL": 34
        },
        "158": {
          "$type": "COBBCENKLHN",
          "coopNodeId": 158,
          "coopNodeType": "COOP_NODE_END",
          "savePointId": 1901607
        }
      },
      "startNodeId": 160,
      "DHLONCAIIEC": true
    }
  },
  "subStartPointMap": {
    "1901001": {
      "id": 1901001,
      "coopInteractionId": 1901001
    },
    "1901201": {
      "id": 1901201,
      "coopInteractionId": 1901201
    },
    "1901202": {
      "id": 1901202,
      "coopInteractionId": 1901202
    },
    "1901204": {
      "id": 1901204,
      "coopInteractionId": 1901204
    },
    "1901205": {
      "id": 1901205,
      "coopInteractionId": 1901205
    },
    "1901302": {
      "id": 1901302,
      "coopInteractionId": 1901302
    },
    "1901305": {
      "id": 1901305,
      "coopInteractionId": 1901305
    },
    "1901306": {
      "id": 1901306,
      "coopInteractionId": 1901306
    },
    "1901307": {
      "id": 1901307,
      "coopInteractionId": 1901307
    },
    "1901402": {
      "id": 1901402,
      "coopInteractionId": 1901402
    },
    "1901404": {
      "id": 1901404,
      "coopInteractionId": 1901404
    },
    "1901405": {
      "id": 1901405,
      "coopInteractionId": 1901405
    },
    "1901407": {
      "id": 1901407,
      "coopInteractionId": 1901407
    },
    "1901409": {
      "id": 1901409,
      "coopInteractionId": 1901409
    },
    "1901501": {
      "id": 1901501,
      "coopInteractionId": 1901501
    },
    "1901503": {
      "id": 1901503,
      "coopInteractionId": 1901503
    },
    "1901504": {
      "id": 1901504,
      "coopInteractionId": 1901504
    },
    "1901506": {
      "id": 1901506,
      "coopInteractionId": 1901506
    },
    "1901507": {
      "id": 1901507,
      "coopInteractionId": 1901507
    },
    "1901601": {
      "id": 1901601,
      "coopInteractionId": 1901601
    },
    "1901602": {
      "id": 1901602,
      "coopInteractionId": 1901602
    },
    "1901604": {
      "id": 1901604,
      "coopInteractionId": 1901604
    },
    "1901605": {
      "id": 1901605,
      "coopInteractionId": 1901605
    },
    "1901607": {
      "id": 1901607,
      "coopInteractionId": 1901607
    }
  },
  "savePointMap": {
    "19010011": {
      "id": 19010011
    },
    "19010012": {
      "id": 19010012
    },
    "19010013": {
      "id": 19010013
    },
    "1901201": {
      "id": 1901201
    },
    "1901202": {
      "id": 1901202
    },
    "1901204": {
      "id": 1901204
    },
    "19012051": {
      "id": 19012051
    },
    "19012052": {
      "id": 19012052
    },
    "19013021": {
      "id": 19013021
    },
    "19013022": {
      "id": 19013022
    },
    "1901305": {
      "id": 1901305
    },
    "1901306": {
      "id": 1901306,
      "isEnd": true
    },
    "1901307": {
      "id": 1901307,
      "isEnd": true
    },
    "1901402": {
      "id": 1901402
    },
    "1901404": {
      "id": 1901404
    },
    "1901405": {
      "id": 1901405
    },
    "1901407": {
      "id": 1901407,
      "isEnd": true
    },
    "1901409": {
      "id": 1901409
    },
    "1901501": {
      "id": 1901501
    },
    "1901503": {
      "id": 1901503
    },
    "1901504": {
      "id": 1901504
    },
    "1901506": {
      "id": 1901506
    },
    "1901507": {
      "id": 1901507,
      "isEnd": true
    },
    "19016011": {
      "id": 19016011
    },
    "19016012": {
      "id": 19016012
    },
    "1901602": {
      "id": 1901602
    },
    "1901604": {
      "id": 1901604,
      "isEnd": true
    },
    "1901605": {
      "id": 1901605
    },
    "1901607": {
      "id": 1901607,
      "isEnd": true
    }
  },
  "confidenceValue": 5,
  "maxConfidenceValue": 5,
  "temperamentMap": {
    "COOP_TEMPERAMENT_1": {
      "param3": 50,
      "hpRatio": 1.0
    },
    "COOP_TEMPERAMENT_2": {
      "param3": 50,
      "hpRatio": 1.0
    },
    "COOP_TEMPERAMENT_3": {
      "param3": 50,
      "hpRatio": 1.0
    },
    "COOP_TEMPERAMENT_4": {
      "param3": 50,
      "hpRatio": 1.0
    }
  },
  "useTemperament": false,
  "coopTempValueMap": {
    "1": {
      "id": 1,
      "isCoopVar": true
    }
  },
  "DHLONCAIIEC": true
}