{
  "coopInteractionMap": {
    "1913101": {
      "id": 1913101,
      "coopMap": {
        "5": {
          "$type": "EFOECCBHIAL",
          "coopNodeId": 5,
          "coopNodeType": "COOP_NODE_TALK",
          "nextNodeArray": [
            3
          ],
          "talkConfig": {
            "id": 5,
            "performCfg": "QuestDialogue/COOP/Coop102701/Q1913101",
            "loadType": "TALK_COOP",
            "questId": 19131,
            "assetIndex": 3105152095885085742,
            "prePerformCfg": ""
          },
          "BJNJIOHKNPL": 1
        },
        "3": {
          "$type": "COBBCENKLHN",
          "coopNodeId": 3,
          "coopNodeType": "COOP_NODE_END",
          "savePointId": 101
        }
      },
      "startNodeId": 5,
      "DHLONCAIIEC": true
    },
    "1913102": {
      "id": 1913102,
      "coopMap": {
        "9": {
          "$type": "PPJHAFFOIOK",
          "coopNodeId": 9,
          "coopNodeType": "COOP_NODE_SELECT",
          "nextNodeArray": [
            11,
            12
          ],
          "selectList": [
            {
              "dialogId": 191310299,
              "hideCond": {},
              "enableCond": {}
            },
            {
              "dialogId": 191310298,
              "hideCond": {},
              "enableCond": {}
            }
          ]
        },
        "8": {
          "$type": "EFOECCBHIAL",
          "coopNodeId": 8,
          "coopNodeType": "COOP_NODE_TALK",
          "nextNodeArray": [
            9
          ],
          "talkConfig": {
            "id": 8,
            "performCfg": "QuestDialogue/COOP/Coop102701/Q1913102",
            "loadType": "TALK_COOP",
            "questId": 19131,
            "assetIndex": 10989098968020154612,
            "prePerformCfg": ""
          },
          "BJNJIOHKNPL": 4
        },
        "11": {
          "$type": "EFOECCBHIAL",
          "coopNodeId": 11,
          "coopNodeType": "COOP_NODE_TALK",
          "nextNodeArray": [
            6
          ],
          "talkConfig": {
            "id": 11,
            "performCfg": "QuestDialogue/COOP/Coop102701/Q1913103",
            "loadType": "TALK_COOP",
            "questId": 19131,
            "assetIndex": 7108374889704533044,
            "prePerformCfg": ""
          },
          "BJNJIOHKNPL": 2
        },
        "6": {
          "$type": "COBBCENKLHN",
          "coopNodeId": 6,
          "coopNodeType": "COOP_NODE_END",
          "savePointId": 102
        },
        "12": {
          "$type": "EFOECCBHIAL",
          "coopNodeId": 12,
          "coopNodeType": "COOP_NODE_TALK",
          "nextNodeArray": [
            13
          ],
          "talkConfig": {
            "id": 12,
            "performCfg": "QuestDialogue/COOP/Coop102701/Q1913104",
            "loadType": "TALK_COOP",
            "questId": 19131,
            "assetIndex": 7278117293279401223,
            "prePerformCfg": ""
          },
          "BJNJIOHKNPL": 3
        },
        "13": {
          "$type": "COBBCENKLHN",
          "coopNodeId": 13,
          "coopNodeType": "COOP_NODE_END",
          "savePointId": 103
        }
      },
      "startNodeId": 8,
      "DHLONCAIIEC": true
    },
    "1913201": {
      "id": 1913201,
      "coopMap": {
        "15": {
          "$type": "EFOECCBHIAL",
          "coopNodeId": 15,
          "coopNodeType": "COOP_NODE_TALK",
          "nextNodeArray": [
            8
          ],
          "talkConfig": {
            "id": 15,
            "performCfg": "QuestDialogue/COOP/Coop102701/Q1913201",
            "loadType": "TALK_COOP",
            "questId": 19132,
            "assetIndex": 10315677208773267762,
            "prePerformCfg": ""
          },
          "BJNJIOHKNPL": 5
        },
        "8": {
          "$type": "COBBCENKLHN",
          "coopNodeId": 8,
          "coopNodeType": "COOP_NODE_END",
          "savePointId": 201
        }
      },
      "startNodeId": 15,
      "DHLONCAIIEC": true
    },
    "1913202": {
      "id": 1913202,
      "coopMap": {
        "18": {
          "$type": "EFOECCBHIAL",
          "coopNodeId": 18,
          "coopNodeType": "COOP_NODE_TALK",
          "nextNodeArray": [
            10
          ],
          "talkConfig": {
            "id": 18,
            "performCfg": "QuestDialogue/COOP/Coop102701/Q1913202",
            "loadType": "TALK_COOP",
            "questId": 19132,
            "assetIndex": 4670583658158417086,
            "prePerformCfg": ""
          },
          "BJNJIOHKNPL": 6
        },
        "10": {
          "$type": "COBBCENKLHN",
          "coopNodeId": 10,
          "coopNodeType": "COOP_NODE_END",
          "savePointId": 202
        }
      },
      "startNodeId": 18,
      "DHLONCAIIEC": true
    },
    "1913203": {
      "id": 1913203,
      "coopMap": {
        "206": {
          "$type": "BFGLIPPHAJP",
          "coopNodeId": 206,
          "coopNodeType": "COOP_NODE_COND",
          "nextNodeArray": [
            22,
            208
          ],
          "coopCondGrp": {
            "condCombType": "LOGIC_AND",
            "coopCondList": [
              {
                "damageRatio": "COOP_COND_QUEST_FINISH",
                "param": [
                  1913209
                ]
              }
            ]
          }
        },
        "22": {
          "$type": "EFOECCBHIAL",
          "coopNodeId": 22,
          "coopNodeType": "COOP_NODE_TALK",
          "nextNodeArray": [
            20
          ],
          "talkConfig": {
            "id": 22,
            "performCfg": "QuestDialogue/COOP/Coop102701/Q1913213",
            "loadType": "TALK_COOP",
            "questId": 19132,
            "assetIndex": 4141433347882875608,
            "prePerformCfg": ""
          },
          "BJNJIOHKNPL": 7
        },
        "20": {
          "$type": "COBBCENKLHN",
          "coopNodeId": 20,
          "coopNodeType": "COOP_NODE_END",
          "savePointId": 203
        },
        "208": {
          "$type": "EFOECCBHIAL",
          "coopNodeId": 208,
          "coopNodeType": "COOP_NODE_TALK",
          "nextNodeArray": [
            20
          ],
          "talkConfig": {
            "id": 208,
            "performCfg": "QuestDialogue/COOP/Coop102701/Q1913206",
            "loadType": "TALK_COOP",
            "questId": 19132,
            "assetIndex": 17374774479426496314,
            "prePerformCfg": ""
          },
          "BJNJIOHKNPL": 8
        }
      },
      "startNodeId": 206,
      "DHLONCAIIEC": true
    },
    "1913204": {
      "id": 1913204,
      "coopMap": {
        "27": {
          "$type": "PPJHAFFOIOK",
          "coopNodeId": 27,
          "coopNodeType": "COOP_NODE_SELECT",
          "nextNodeArray": [
            29,
            30
          ],
          "selectList": [
            {
              "dialogId": 191320799,
              "hideCond": {},
              "enableCond": {}
            },
            {
              "dialogId": 191320798,
              "hideCond": {},
              "enableCond": {}
            }
          ]
        },
        "26": {
          "$type": "EFOECCBHIAL",
          "coopNodeId": 26,
          "coopNodeType": "COOP_NODE_TALK",
          "nextNodeArray": [
            27
          ],
          "talkConfig": {
            "id": 26,
            "performCfg": "QuestDialogue/COOP/Coop102701/Q1913207",
            "loadType": "TALK_COOP",
            "questId": 19132,
            "assetIndex": 5724673180672224460,
            "prePerformCfg": ""
          },
          "BJNJIOHKNPL": 11
        },
        "29": {
          "$type": "EFOECCBHIAL",
          "coopNodeId": 29,
          "coopNodeType": "COOP_NODE_TALK",
          "nextNodeArray": [
            24
          ],
          "talkConfig": {
            "id": 29,
            "performCfg": "QuestDialogue/COOP/Coop102701/Q1913208",
            "loadType": "TALK_COOP",
            "questId": 19132,
            "assetIndex": 2168193059765018097,
            "prePerformCfg": ""
          },
          "BJNJIOHKNPL": 9
        },
        "24": {
          "$type": "COBBCENKLHN",
          "coopNodeId": 24,
          "coopNodeType": "COOP_NODE_END",
          "savePointId": 20401
        },
        "30": {
          "$type": "EFOECCBHIAL",
          "coopNodeId": 30,
          "coopNodeType": "COOP_NODE_TALK",
          "nextNodeArray": [
            31
          ],
          "talkConfig": {
            "id": 30,
            "performCfg": "QuestDialogue/COOP/Coop102701/Q1913209",
            "loadType": "TALK_COOP",
            "questId": 19132,
            "assetIndex": 2559697387576140212,
            "prePerformCfg": ""
          },
          "BJNJIOHKNPL": 10
        },
        "31": {
          "$type": "COBBCENKLHN",
          "coopNodeId": 31,
          "coopNodeType": "COOP_NODE_END",
          "savePointId": 20402
        }
      },
      "startNodeId": 26,
      "DHLONCAIIEC": true
    },
    "1913301": {
      "id": 1913301,
      "coopMap": {
        "35": {
          "$type": "EFOECCBHIAL",
          "coopNodeId": 35,
          "coopNodeType": "COOP_NODE_TALK",
          "nextNodeArray": [
            33
          ],
          "talkConfig": {
            "id": 35,
            "performCfg": "QuestDialogue/COOP/Coop102701/Q1913301",
            "loadType": "TALK_COOP",
            "questId": 19133,
            "assetIndex": 12577106501409480250,
            "prePerformCfg": ""
          },
          "BJNJIOHKNPL": 12
        },
        "33": {
          "$type": "COBBCENKLHN",
          "coopNodeId": 33,
          "coopNodeType": "COOP_NODE_END",
          "savePointId": 301
        }
      },
      "startNodeId": 35,
      "DHLONCAIIEC": true
    },
    "1913302": {
      "id": 1913302,
      "coopMap": {
        "39": {
          "$type": "EFOECCBHIAL",
          "coopNodeId": 39,
          "coopNodeType": "COOP_NODE_TALK",
          "nextNodeArray": [
            37
          ],
          "talkConfig": {
            "id": 39,
            "performCfg": "QuestDialogue/COOP/Coop102701/Q1913302",
            "loadType": "TALK_COOP",
            "questId": 19133,
            "assetIndex": 3336662723063420360,
            "prePerformCfg": ""
          },
          "BJNJIOHKNPL": 13
        },
        "37": {
          "$type": "COBBCENKLHN",
          "coopNodeId": 37,
          "coopNodeType": "COOP_NODE_END",
          "savePointId": 302
        }
      },
      "startNodeId": 39,
      "DHLONCAIIEC": true
    },
    "1913303": {
      "id": 1913303,
      "coopMap": {
        "43": {
          "$type": "EFOECCBHIAL",
          "coopNodeId": 43,
          "coopNodeType": "COOP_NODE_TALK",
          "nextNodeArray": [
            41
          ],
          "talkConfig": {
            "id": 43,
            "performCfg": "QuestDialogue/COOP/Coop102701/Q1913303",
            "loadType": "TALK_COOP",
            "questId": 19133,
            "assetIndex": 690979521587450650,
            "prePerformCfg": ""
          },
          "BJNJIOHKNPL": 14
        },
        "41": {
          "$type": "COBBCENKLHN",
          "coopNodeId": 41,
          "coopNodeType": "COOP_NODE_END",
          "savePointId": 303
        }
      },
      "startNodeId": 43,
      "DHLONCAIIEC": true
    },
    "1913304": {
      "id": 1913304,
      "coopMap": {
        "47": {
          "$type": "EFOECCBHIAL",
          "coopNodeId": 47,
          "coopNodeType": "COOP_NODE_TALK",
          "nextNodeArray": [
            45
          ],
          "talkConfig": {
            "id": 47,
            "performCfg": "QuestDialogue/COOP/Coop102701/Q1913304",
            "loadType": "TALK_COOP",
            "questId": 19133,
            "assetIndex": 1292060801256853034,
            "prePerformCfg": ""
          },
          "BJNJIOHKNPL": 15
        },
        "45": {
          "$type": "COBBCENKLHN",
          "coopNodeId": 45,
          "coopNodeType": "COOP_NODE_END",
          "savePointId": 304
        }
      },
      "startNodeId": 47,
      "DHLONCAIIEC": true
    },
    "1913305": {
      "id": 1913305,
      "coopMap": {
        "56": {
          "$type": "EFOECCBHIAL",
          "coopNodeId": 56,
          "coopNodeType": "COOP_NODE_TALK",
          "nextNodeArray": [
            54
          ],
          "talkConfig": {
            "id": 56,
            "performCfg": "QuestDialogue/COOP/Coop102701/Q1913305",
            "loadType": "TALK_COOP",
            "questId": 19133,
            "assetIndex": 17872567377979973126,
            "prePerformCfg": ""
          },
          "BJNJIOHKNPL": 16
        },
        "54": {
          "$type": "COBBCENKLHN",
          "coopNodeId": 54,
          "coopNodeType": "COOP_NODE_END",
          "savePointId": 1
        }
      },
      "startNodeId": 56,
      "DHLONCAIIEC": true
    },
    "1913401": {
      "id": 1913401,
      "coopMap": {
        "201": {
          "$type": "EFOECCBHIAL",
          "coopNodeId": 201,
          "coopNodeType": "COOP_NODE_TALK",
          "nextNodeArray": [
            58
          ],
          "talkConfig": {
            "id": 201,
            "performCfg": "QuestDialogue/COOP/Coop102701/Q1913401",
            "loadType": "TALK_COOP",
            "questId": 19134,
            "assetIndex": 7911336882596709741,
            "prePerformCfg": ""
          },
          "BJNJIOHKNPL": 17
        },
        "58": {
          "$type": "COBBCENKLHN",
          "coopNodeId": 58,
          "coopNodeType": "COOP_NODE_END",
          "savePointId": 401
        }
      },
      "startNodeId": 201,
      "DHLONCAIIEC": true
    },
    "1913402": {
      "id": 1913402,
      "coopMap": {
        "64": {
          "$type": "EFOECCBHIAL",
          "coopNodeId": 64,
          "coopNodeType": "COOP_NODE_TALK",
          "nextNodeArray": [
            62
          ],
          "talkConfig": {
            "id": 64,
            "performCfg": "QuestDialogue/COOP/Coop102701/Q1913408",
            "loadType": "TALK_COOP",
            "questId": 19134,
            "assetIndex": 16874933940628920897,
            "prePerformCfg": ""
          },
          "BJNJIOHKNPL": 18
        },
        "62": {
          "$type": "COBBCENKLHN",
          "coopNodeId": 62,
          "coopNodeType": "COOP_NODE_END",
          "savePointId": 402
        }
      },
      "startNodeId": 64,
      "DHLONCAIIEC": true
    },
    "1913403": {
      "id": 1913403,
      "coopMap": {
        "70": {
          "$type": "EFOECCBHIAL",
          "coopNodeId": 70,
          "coopNodeType": "COOP_NODE_TALK",
          "nextNodeArray": [
            68
          ],
          "talkConfig": {
            "id": 70,
            "performCfg": "QuestDialogue/COOP/Coop102701/Q1913412",
            "loadType": "TALK_COOP",
            "questId": 19134,
            "assetIndex": 14513728705609998134,
            "prePerformCfg": ""
          },
          "BJNJIOHKNPL": 19
        },
        "68": {
          "$type": "COBBCENKLHN",
          "coopNodeId": 68,
          "coopNodeType": "COOP_NODE_END",
          "savePointId": 2
        }
      },
      "startNodeId": 70,
      "DHLONCAIIEC": true
    },
    "1913501": {
      "id": 1913501,
      "coopMap": {
        "89": {
          "$type": "EFOECCBHIAL",
          "coopNodeId": 89,
          "coopNodeType": "COOP_NODE_TALK",
          "nextNodeArray": [
            87
          ],
          "talkConfig": {
            "id": 89,
            "performCfg": "QuestDialogue/COOP/Coop102701/Q1913501",
            "loadType": "TALK_COOP",
            "questId": 19135,
            "assetIndex": 12118831880777289073,
            "prePerformCfg": ""
          },
          "BJNJIOHKNPL": 25
        },
        "87": {
          "$type": "COBBCENKLHN",
          "coopNodeId": 87,
          "coopNodeType": "COOP_NODE_END",
          "savePointId": 501
        }
      },
      "startNodeId": 89,
      "DHLONCAIIEC": true
    },
    "1913502": {
      "id": 1913502,
      "coopMap": {
        "93": {
          "$type": "EFOECCBHIAL",
          "coopNodeId": 93,
          "coopNodeType": "COOP_NODE_TALK",
          "nextNodeArray": [
            91
          ],
          "talkConfig": {
            "id": 93,
            "performCfg": "QuestDialogue/COOP/Coop102701/Q1913502",
            "loadType": "TALK_COOP",
            "questId": 19135,
            "assetIndex": 16546587259595135324,
            "prePerformCfg": ""
          },
          "BJNJIOHKNPL": 26
        },
        "91": {
          "$type": "COBBCENKLHN",
          "coopNodeId": 91,
          "coopNodeType": "COOP_NODE_END",
          "savePointId": 502
        }
      },
      "startNodeId": 93,
      "DHLONCAIIEC": true
    },
    "1913503": {
      "id": 1913503,
      "coopMap": {
        "97": {
          "$type": "EFOECCBHIAL",
          "coopNodeId": 97,
          "coopNodeType": "COOP_NODE_TALK",
          "nextNodeArray": [
            95
          ],
          "talkConfig": {
            "id": 97,
            "performCfg": "QuestDialogue/COOP/Coop102701/Q1913503",
            "loadType": "TALK_COOP",
            "questId": 19135,
            "assetIndex": 8573624493844256300,
            "prePerformCfg": ""
          },
          "BJNJIOHKNPL": 27
        },
        "95": {
          "$type": "COBBCENKLHN",
          "coopNodeId": 95,
          "coopNodeType": "COOP_NODE_END",
          "savePointId": 3
        }
      },
      "startNodeId": 97,
      "DHLONCAIIEC": true
    },
    "1913601": {
      "id": 1913601,
      "coopMap": {
        "101": {
          "$type": "EFOECCBHIAL",
          "coopNodeId": 101,
          "coopNodeType": "COOP_NODE_TALK",
          "nextNodeArray": [
            99
          ],
          "talkConfig": {
            "id": 101,
            "performCfg": "QuestDialogue/COOP/Coop102701/Q1913601",
            "loadType": "TALK_COOP",
            "questId": 19136,
            "assetIndex": 1138901716898622640,
            "prePerformCfg": ""
          },
          "BJNJIOHKNPL": 28
        },
        "99": {
          "$type": "COBBCENKLHN",
          "coopNodeId": 99,
          "coopNodeType": "COOP_NODE_END",
          "savePointId": 601
        }
      },
      "startNodeId": 101,
      "DHLONCAIIEC": true
    },
    "1913602": {
      "id": 1913602,
      "coopMap": {
        "105": {
          "$type": "EFOECCBHIAL",
          "coopNodeId": 105,
          "coopNodeType": "COOP_NODE_TALK",
          "nextNodeArray": [
            103
          ],
          "talkConfig": {
            "id": 105,
            "performCfg": "QuestDialogue/COOP/Coop102701/Q1913602",
            "loadType": "TALK_COOP",
            "questId": 19136,
            "assetIndex": 3181839384895432275,
            "prePerformCfg": ""
          },
          "BJNJIOHKNPL": 29
        },
        "103": {
          "$type": "COBBCENKLHN",
          "coopNodeId": 103,
          "coopNodeType": "COOP_NODE_END",
          "savePointId": 602
        }
      },
      "startNodeId": 105,
      "DHLONCAIIEC": true
    },
    "1913603": {
      "id": 1913603,
      "coopMap": {
        "109": {
          "$type": "EFOECCBHIAL",
          "coopNodeId": 109,
          "coopNodeType": "COOP_NODE_TALK",
          "nextNodeArray": [
            107
          ],
          "talkConfig": {
            "id": 109,
            "performCfg": "QuestDialogue/COOP/Coop102701/Q1913603",
            "loadType": "TALK_COOP",
            "questId": 19136,
            "assetIndex": 6224559869234404792,
            "prePerformCfg": ""
          },
          "BJNJIOHKNPL": 30
        },
        "107": {
          "$type": "COBBCENKLHN",
          "coopNodeId": 107,
          "coopNodeType": "COOP_NODE_END",
          "savePointId": 603
        }
      },
      "startNodeId": 109,
      "DHLONCAIIEC": true
    },
    "1913604": {
      "id": 1913604,
      "coopMap": {
        "113": {
          "$type": "EFOECCBHIAL",
          "coopNodeId": 113,
          "coopNodeType": "COOP_NODE_TALK",
          "nextNodeArray": [
            111
          ],
          "talkConfig": {
            "id": 113,
            "performCfg": "QuestDialogue/COOP/Coop102701/Q1913604",
            "loadType": "TALK_COOP",
            "questId": 19136,
            "assetIndex": 16946792938293393280,
            "prePerformCfg": ""
          },
          "BJNJIOHKNPL": 31
        },
        "111": {
          "$type": "COBBCENKLHN",
          "coopNodeId": 111,
          "coopNodeType": "COOP_NODE_END",
          "savePointId": 4
        }
      },
      "startNodeId": 113,
      "DHLONCAIIEC": true
    },
    "1913605": {
      "id": 1913605,
      "coopMap": {
        "196": {
          "$type": "EFOECCBHIAL",
          "coopNodeId": 196,
          "coopNodeType": "COOP_NODE_TALK",
          "nextNodeArray": [
            194
          ],
          "talkConfig": {
            "id": 196,
            "performCfg": "QuestDialogue/COOP/Coop102701/Q1913605",
            "loadType": "TALK_COOP",
            "questId": 19136,
            "assetIndex": 16177317208681082156,
            "prePerformCfg": ""
          },
          "BJNJIOHKNPL": 55
        },
        "194": {
          "$type": "COBBCENKLHN",
          "coopNodeId": 194,
          "coopNodeType": "COOP_NODE_END",
          "savePointId": 605
        }
      },
      "startNodeId": 196,
      "DHLONCAIIEC": true
    },
    "1913606": {
      "id": 1913606,
      "coopMap": {
        "200": {
          "$type": "EFOECCBHIAL",
          "coopNodeId": 200,
          "coopNodeType": "COOP_NODE_TALK",
          "nextNodeArray": [
            198
          ],
          "talkConfig": {
            "id": 200,
            "performCfg": "QuestDialogue/COOP/Coop102701/Q1913606",
            "loadType": "TALK_COOP",
            "questId": 19136,
            "assetIndex": 9562058083206100966,
            "prePerformCfg": ""
          },
          "BJNJIOHKNPL": 56
        },
        "198": {
          "$type": "COBBCENKLHN",
          "coopNodeId": 198,
          "coopNodeType": "COOP_NODE_END",
          "savePointId": 606
        }
      },
      "startNodeId": 200,
      "DHLONCAIIEC": true
    },
    "1913609": {
      "id": 1913609,
      "coopMap": {
        "243": {
          "$type": "EFOECCBHIAL",
          "coopNodeId": 243,
          "coopNodeType": "COOP_NODE_TALK",
          "nextNodeArray": [
            244
          ],
          "talkConfig": {
            "id": 243,
            "performCfg": "QuestDialogue/COOP/Coop102701/Q1913609",
            "loadType": "TALK_COOP",
            "questId": 19136,
            "assetIndex": 8744285647916895788,
            "prePerformCfg": ""
          },
          "BJNJIOHKNPL": 57
        },
        "244": {
          "$type": "COBBCENKLHN",
          "coopNodeId": 244,
          "coopNodeType": "COOP_NODE_END",
          "savePointId": 607
        }
      },
      "startNodeId": 243,
      "DHLONCAIIEC": true
    },
    "1913701": {
      "id": 1913701,
      "coopMap": {
        "117": {
          "$type": "EFOECCBHIAL",
          "coopNodeId": 117,
          "coopNodeType": "COOP_NODE_TALK",
          "nextNodeArray": [
            115
          ],
          "talkConfig": {
            "id": 117,
            "performCfg": "QuestDialogue/COOP/Coop102701/Q1913701",
            "loadType": "TALK_COOP",
            "questId": 19137,
            "assetIndex": 14994633220409111223,
            "prePerformCfg": ""
          },
          "BJNJIOHKNPL": 32
        },
        "115": {
          "$type": "COBBCENKLHN",
          "coopNodeId": 115,
          "coopNodeType": "COOP_NODE_END",
          "savePointId": 701
        }
      },
      "startNodeId": 117,
      "DHLONCAIIEC": true
    },
    "1913702": {
      "id": 1913702,
      "coopMap": {
        "121": {
          "$type": "EFOECCBHIAL",
          "coopNodeId": 121,
          "coopNodeType": "COOP_NODE_TALK",
          "nextNodeArray": [
            119
          ],
          "talkConfig": {
            "id": 121,
            "performCfg": "QuestDialogue/COOP/Coop102701/Q1913702",
            "loadType": "TALK_COOP",
            "questId": 19137,
            "assetIndex": 14397982613325650608,
            "prePerformCfg": ""
          },
          "BJNJIOHKNPL": 33
        },
        "119": {
          "$type": "COBBCENKLHN",
          "coopNodeId": 119,
          "coopNodeType": "COOP_NODE_END",
          "savePointId": 702
        }
      },
      "startNodeId": 121,
      "DHLONCAIIEC": true
    },
    "1913703": {
      "id": 1913703,
      "coopMap": {
        "125": {
          "$type": "EFOECCBHIAL",
          "coopNodeId": 125,
          "coopNodeType": "COOP_NODE_TALK",
          "nextNodeArray": [
            123
          ],
          "talkConfig": {
            "id": 125,
            "performCfg": "QuestDialogue/COOP/Coop102701/Q1913703",
            "loadType": "TALK_COOP",
            "questId": 19137,
            "assetIndex": 13274296064389505714,
            "prePerformCfg": ""
          },
          "BJNJIOHKNPL": 34
        },
        "123": {
          "$type": "COBBCENKLHN",
          "coopNodeId": 123,
          "coopNodeType": "COOP_NODE_END",
          "savePointId": 703
        }
      },
      "startNodeId": 125,
      "DHLONCAIIEC": true
    },
    "1913704": {
      "id": 1913704,
      "coopMap": {
        "129": {
          "$type": "EFOECCBHIAL",
          "coopNodeId": 129,
          "coopNodeType": "COOP_NODE_TALK",
          "nextNodeArray": [
            130
          ],
          "talkConfig": {
            "id": 129,
            "performCfg": "QuestDialogue/COOP/Coop102701/Q1913704",
            "loadType": "TALK_COOP",
            "questId": 19137,
            "assetIndex": 322913022016352189,
            "prePerformCfg": "",
            "stayFreeStyle": true
          },
          "BJNJIOHKNPL": 35
        },
        "130": {
          "$type": "BEMIGNHPIPC",
          "coopNodeId": 130,
          "coopNodeType": "COOP_NODE_ACTION",
          "nextNodeArray": [
            127
          ],
          "actionList": [
            {
              "actionType": "COOP_ACTION_CONFIDENCE_MINUS",
              "param": [
                1
              ]
            }
          ]
        },
        "127": {
          "$type": "COBBCENKLHN",
          "coopNodeId": 127,
          "coopNodeType": "COOP_NODE_END",
          "savePointId": 70401
        },
        "217": {
          "$type": "EFOECCBHIAL",
          "coopNodeId": 217,
          "coopNodeType": "COOP_NODE_TALK",
          "nextNodeArray": [
            131
          ],
          "talkConfig": {
            "id": 217,
            "performCfg": "QuestDialogue/COOP/Coop102701/Q1913719",
            "loadType": "TALK_COOP",
            "questId": 19137,
            "assetIndex": 3989211571313822920,
            "prePerformCfg": ""
          },
          "BJNJIOHKNPL": 36
        },
        "131": {
          "$type": "COBBCENKLHN",
          "coopNodeId": 131,
          "coopNodeType": "COOP_NODE_END",
          "savePointId": 70402
        }
      },
      "startNodeId": 129,
      "failNodeId": 217,
      "DHLONCAIIEC": true
    },
    "1913705": {
      "id": 1913705,
      "coopMap": {
        "135": {
          "$type": "EFOECCBHIAL",
          "coopNodeId": 135,
          "coopNodeType": "COOP_NODE_TALK",
          "nextNodeArray": [
            136
          ],
          "talkConfig": {
            "id": 135,
            "performCfg": "QuestDialogue/COOP/Coop102701/Q1913705",
            "loadType": "TALK_COOP",
            "questId": 19137,
            "assetIndex": 11146774535144918640,
            "prePerformCfg": "",
            "stayFreeStyle": true
          },
          "BJNJIOHKNPL": 37
        },
        "136": {
          "$type": "BEMIGNHPIPC",
          "coopNodeId": 136,
          "coopNodeType": "COOP_NODE_ACTION",
          "nextNodeArray": [
            133
          ],
          "actionList": [
            {
              "actionType": "COOP_ACTION_CONFIDENCE_MINUS",
              "param": [
                1
              ]
            }
          ]
        },
        "133": {
          "$type": "COBBCENKLHN",
          "coopNodeId": 133,
          "coopNodeType": "COOP_NODE_END",
          "savePointId": 70501
        },
        "220": {
          "$type": "EFOECCBHIAL",
          "coopNodeId": 220,
          "coopNodeType": "COOP_NODE_TALK",
          "nextNodeArray": [
            137
          ],
          "talkConfig": {
            "id": 220,
            "performCfg": "QuestDialogue/COOP/Coop102701/Q1913719",
            "loadType": "TALK_COOP",
            "questId": 19137,
            "assetIndex": 8724669586049960012,
            "prePerformCfg": ""
          },
          "BJNJIOHKNPL": 38
        },
        "137": {
          "$type": "COBBCENKLHN",
          "coopNodeId": 137,
          "coopNodeType": "COOP_NODE_END",
          "savePointId": 70502
        }
      },
      "startNodeId": 135,
      "failNodeId": 220,
      "DHLONCAIIEC": true
    },
    "1913706": {
      "id": 1913706,
      "coopMap": {
        "141": {
          "$type": "EFOECCBHIAL",
          "coopNodeId": 141,
          "coopNodeType": "COOP_NODE_TALK",
          "nextNodeArray": [
            142
          ],
          "talkConfig": {
            "id": 141,
            "performCfg": "QuestDialogue/COOP/Coop102701/Q1913706",
            "loadType": "TALK_COOP",
            "questId": 19137,
            "assetIndex": 10399710380320058717,
            "prePerformCfg": "",
            "stayFreeStyle": true
          },
          "BJNJIOHKNPL": 39
        },
        "142": {
          "$type": "BEMIGNHPIPC",
          "coopNodeId": 142,
          "coopNodeType": "COOP_NODE_ACTION",
          "nextNodeArray": [
            139
          ],
          "actionList": [
            {
              "actionType": "COOP_ACTION_CONFIDENCE_MINUS",
              "param": [
                1
              ]
            }
          ]
        },
        "139": {
          "$type": "COBBCENKLHN",
          "coopNodeId": 139,
          "coopNodeType": "COOP_NODE_END",
          "savePointId": 70601
        },
        "221": {
          "$type": "EFOECCBHIAL",
          "coopNodeId": 221,
          "coopNodeType": "COOP_NODE_TALK",
          "nextNodeArray": [
            143
          ],
          "talkConfig": {
            "id": 221,
            "performCfg": "QuestDialogue/COOP/Coop102701/Q1913719",
            "loadType": "TALK_COOP",
            "questId": 19137,
            "assetIndex": 11759124539129578252,
            "prePerformCfg": ""
          },
          "BJNJIOHKNPL": 40
        },
        "143": {
          "$type": "COBBCENKLHN",
          "coopNodeId": 143,
          "coopNodeType": "COOP_NODE_END",
          "savePointId": 70602
        }
      },
      "startNodeId": 141,
      "failNodeId": 221,
      "DHLONCAIIEC": true
    },
    "1913707": {
      "id": 1913707,
      "coopMap": {
        "147": {
          "$type": "EFOECCBHIAL",
          "coopNodeId": 147,
          "coopNodeType": "COOP_NODE_TALK",
          "nextNodeArray": [
            145
          ],
          "talkConfig": {
            "id": 147,
            "performCfg": "QuestDialogue/COOP/Coop102701/Q1913707",
            "loadType": "TALK_COOP",
            "questId": 19137,
            "assetIndex": 2668503548920402260,
            "prePerformCfg": ""
          },
          "BJNJIOHKNPL": 41
        },
        "145": {
          "$type": "COBBCENKLHN",
          "coopNodeId": 145,
          "coopNodeType": "COOP_NODE_END",
          "savePointId": 707
        }
      },
      "startNodeId": 147,
      "DHLONCAIIEC": true
    },
    "1913708": {
      "id": 1913708,
      "coopMap": {
        "153": {
          "$type": "EFOECCBHIAL",
          "coopNodeId": 153,
          "coopNodeType": "COOP_NODE_TALK",
          "nextNodeArray": [
            154
          ],
          "talkConfig": {
            "id": 153,
            "performCfg": "QuestDialogue/COOP/Coop102701/Q1913708",
            "loadType": "TALK_COOP",
            "questId": 19137,
            "assetIndex": 7162647380214406342,
            "prePerformCfg": "",
            "stayFreeStyle": true
          },
          "BJNJIOHKNPL": 42
        },
        "154": {
          "$type": "BEMIGNHPIPC",
          "coopNodeId": 154,
          "coopNodeType": "COOP_NODE_ACTION",
          "nextNodeArray": [
            151
          ],
          "actionList": [
            {
              "actionType": "COOP_ACTION_CONFIDENCE_MINUS",
              "param": [
                1
              ]
            }
          ]
        },
        "151": {
          "$type": "COBBCENKLHN",
          "coopNodeId": 151,
          "coopNodeType": "COOP_NODE_END",
          "savePointId": 70801
        },
        "222": {
          "$type": "EFOECCBHIAL",
          "coopNodeId": 222,
          "coopNodeType": "COOP_NODE_TALK",
          "nextNodeArray": [
            155
          ],
          "talkConfig": {
            "id": 222,
            "performCfg": "QuestDialogue/COOP/Coop102701/Q1913719",
            "loadType": "TALK_COOP",
            "questId": 19137,
            "assetIndex": 14910374372863866277,
            "prePerformCfg": ""
          },
          "BJNJIOHKNPL": 43
        },
        "155": {
          "$type": "COBBCENKLHN",
          "coopNodeId": 155,
          "coopNodeType": "COOP_NODE_END",
          "savePointId": 70802
        }
      },
      "startNodeId": 153,
      "failNodeId": 222,
      "DHLONCAIIEC": true
    },
    "1913709": {
      "id": 1913709,
      "coopMap": {
        "160": {
          "$type": "EFOECCBHIAL",
          "coopNodeId": 160,
          "coopNodeType": "COOP_NODE_TALK",
          "nextNodeArray": [
            161
          ],
          "talkConfig": {
            "id": 160,
            "performCfg": "QuestDialogue/COOP/Coop102701/Q1913709",
            "loadType": "TALK_COOP",
            "questId": 19137,
            "assetIndex": 14085823581039987506,
            "prePerformCfg": "",
            "stayFreeStyle": true
          },
          "BJNJIOHKNPL": 44
        },
        "161": {
          "$type": "BEMIGNHPIPC",
          "coopNodeId": 161,
          "coopNodeType": "COOP_NODE_ACTION",
          "nextNodeArray": [
            158
          ],
          "actionList": [
            {
              "actionType": "COOP_ACTION_CONFIDENCE_MINUS",
              "param": [
                1
              ]
            }
          ]
        },
        "158": {
          "$type": "COBBCENKLHN",
          "coopNodeId": 158,
          "coopNodeType": "COOP_NODE_END",
          "savePointId": 70901
        },
        "223": {
          "$type": "EFOECCBHIAL",
          "coopNodeId": 223,
          "coopNodeType": "COOP_NODE_TALK",
          "nextNodeArray": [
            162
          ],
          "talkConfig": {
            "id": 223,
            "performCfg": "QuestDialogue/COOP/Coop102701/Q1913719",
            "loadType": "TALK_COOP",
            "questId": 19137,
            "assetIndex": 3059269942149071210,
            "prePerformCfg": ""
          },
          "BJNJIOHKNPL": 45
        },
        "162": {
          "$type": "COBBCENKLHN",
          "coopNodeId": 162,
          "coopNodeType": "COOP_NODE_END",
          "savePointId": 70902
        }
      },
      "startNodeId": 160,
      "failNodeId": 223,
      "DHLONCAIIEC": true
    },
    "1913710": {
      "id": 1913710,
      "coopMap": {
        "166": {
          "$type": "EFOECCBHIAL",
          "coopNodeId": 166,
          "coopNodeType": "COOP_NODE_TALK",
          "nextNodeArray": [
            167
          ],
          "talkConfig": {
            "id": 166,
            "performCfg": "QuestDialogue/COOP/Coop102701/Q1913710",
            "loadType": "TALK_COOP",
            "questId": 19137,
            "assetIndex": 14093486764163413276,
            "prePerformCfg": "",
            "stayFreeStyle": true
          },
          "BJNJIOHKNPL": 46
        },
        "167": {
          "$type": "BEMIGNHPIPC",
          "coopNodeId": 167,
          "coopNodeType": "COOP_NODE_ACTION",
          "nextNodeArray": [
            164
          ],
          "actionList": [
            {
              "actionType": "COOP_ACTION_CONFIDENCE_MINUS",
              "param": [
                1
              ]
            }
          ]
        },
        "164": {
          "$type": "COBBCENKLHN",
          "coopNodeId": 164,
          "coopNodeType": "COOP_NODE_END",
          "savePointId": 71001
        },
        "224": {
          "$type": "EFOECCBHIAL",
          "coopNodeId": 224,
          "coopNodeType": "COOP_NODE_TALK",
          "nextNodeArray": [
            168
          ],
          "talkConfig": {
            "id": 224,
            "performCfg": "QuestDialogue/COOP/Coop102701/Q1913719",
            "loadType": "TALK_COOP",
            "questId": 19137,
            "assetIndex": 6696370842029234457,
            "prePerformCfg": ""
          },
          "BJNJIOHKNPL": 47
        },
        "168": {
          "$type": "COBBCENKLHN",
          "coopNodeId": 168,
          "coopNodeType": "COOP_NODE_END",
          "savePointId": 71002
        }
      },
      "startNodeId": 166,
      "failNodeId": 224,
      "DHLONCAIIEC": true
    },
    "1913711": {
      "id": 1913711,
      "coopMap": {
        "172": {
          "$type": "EFOECCBHIAL",
          "coopNodeId": 172,
          "coopNodeType": "COOP_NODE_TALK",
          "nextNodeArray": [
            170
          ],
          "talkConfig": {
            "id": 172,
            "performCfg": "QuestDialogue/COOP/Coop102701/Q1913711",
            "loadType": "TALK_COOP",
            "questId": 19137,
            "assetIndex": 13303568417168343575,
            "prePerformCfg": ""
          },
          "BJNJIOHKNPL": 48
        },
        "170": {
          "$type": "COBBCENKLHN",
          "coopNodeId": 170,
          "coopNodeType": "COOP_NODE_END",
          "savePointId": 711
        }
      },
      "startNodeId": 172,
      "DHLONCAIIEC": true
    },
    "1913712": {
      "id": 1913712,
      "coopMap": {
        "176": {
          "$type": "EFOECCBHIAL",
          "coopNodeId": 176,
          "coopNodeType": "COOP_NODE_TALK",
          "nextNodeArray": [
            177
          ],
          "talkConfig": {
            "id": 176,
            "performCfg": "QuestDialogue/COOP/Coop102701/Q1913712",
            "loadType": "TALK_COOP",
            "questId": 19137,
            "assetIndex": 3361813758268689771,
            "prePerformCfg": ""
          },
          "BJNJIOHKNPL": 49
        },
        "177": {
          "$type": "BEMIGNHPIPC",
          "coopNodeId": 177,
          "coopNodeType": "COOP_NODE_ACTION",
          "nextNodeArray": [
            174
          ],
          "actionList": [
            {
              "actionType": "COOP_ACTION_CONFIDENCE_MINUS",
              "param": [
                10
              ]
            }
          ]
        },
        "174": {
          "$type": "COBBCENKLHN",
          "coopNodeId": 174,
          "coopNodeType": "COOP_NODE_END",
          "savePointId": 71201
        },
        "226": {
          "$type": "EFOECCBHIAL",
          "coopNodeId": 226,
          "coopNodeType": "COOP_NODE_TALK",
          "nextNodeArray": [
            178
          ],
          "talkConfig": {
            "id": 226,
            "performCfg": "QuestDialogue/COOP/Coop102701/Q1913720",
            "loadType": "TALK_COOP",
            "questId": 19137,
            "assetIndex": 3252456284910212151,
            "prePerformCfg": ""
          },
          "BJNJIOHKNPL": 50
        },
        "178": {
          "$type": "COBBCENKLHN",
          "coopNodeId": 178,
          "coopNodeType": "COOP_NODE_END",
          "savePointId": 71202
        }
      },
      "startNodeId": 176,
      "failNodeId": 226,
      "DHLONCAIIEC": true
    },
    "1913713": {
      "id": 1913713,
      "coopMap": {
        "182": {
          "$type": "EFOECCBHIAL",
          "coopNodeId": 182,
          "coopNodeType": "COOP_NODE_TALK",
          "nextNodeArray": [
            183
          ],
          "talkConfig": {
            "id": 182,
            "performCfg": "QuestDialogue/COOP/Coop102701/Q1913713",
            "loadType": "TALK_COOP",
            "questId": 19137,
            "assetIndex": 7310757851824130748,
            "prePerformCfg": ""
          },
          "BJNJIOHKNPL": 51
        },
        "183": {
          "$type": "BEMIGNHPIPC",
          "coopNodeId": 183,
          "coopNodeType": "COOP_NODE_ACTION",
          "nextNodeArray": [
            180
          ],
          "actionList": [
            {
              "actionType": "COOP_ACTION_CONFIDENCE_MINUS",
              "param": [
                10
              ]
            }
          ]
        },
        "180": {
          "$type": "COBBCENKLHN",
          "coopNodeId": 180,
          "coopNodeType": "COOP_NODE_END",
          "savePointId": 71301
        },
        "227": {
          "$type": "EFOECCBHIAL",
          "coopNodeId": 227,
          "coopNodeType": "COOP_NODE_TALK",
          "nextNodeArray": [
            184
          ],
          "talkConfig": {
            "id": 227,
            "performCfg": "QuestDialogue/COOP/Coop102701/Q1913720",
            "loadType": "TALK_COOP",
            "questId": 19137,
            "assetIndex": 3176754890749593430,
            "prePerformCfg": ""
          },
          "BJNJIOHKNPL": 52
        },
        "184": {
          "$type": "COBBCENKLHN",
          "coopNodeId": 184,
          "coopNodeType": "COOP_NODE_END",
          "savePointId": 71302
        }
      },
      "startNodeId": 182,
      "failNodeId": 227,
      "DHLONCAIIEC": true
    },
    "1913714": {
      "id": 1913714,
      "coopMap": {
        "188": {
          "$type": "EFOECCBHIAL",
          "coopNodeId": 188,
          "coopNodeType": "COOP_NODE_TALK",
          "nextNodeArray": [
            186
          ],
          "talkConfig": {
            "id": 188,
            "performCfg": "QuestDialogue/COOP/Coop102701/Q1913714",
            "loadType": "TALK_COOP",
            "questId": 19137,
            "assetIndex": 4410300233283392725,
            "prePerformCfg": ""
          },
          "BJNJIOHKNPL": 53
        },
        "186": {
          "$type": "COBBCENKLHN",
          "coopNodeId": 186,
          "coopNodeType": "COOP_NODE_END",
          "savePointId": 714
        }
      },
      "startNodeId": 188,
      "DHLONCAIIEC": true
    },
    "1913715": {
      "id": 1913715,
      "coopMap": {
        "192": {
          "$type": "EFOECCBHIAL",
          "coopNodeId": 192,
          "coopNodeType": "COOP_NODE_TALK",
          "nextNodeArray": [
            190
          ],
          "talkConfig": {
            "id": 192,
            "performCfg": "QuestDialogue/COOP/Coop102701/Q1913715",
            "loadType": "TALK_COOP",
            "questId": 19137,
            "assetIndex": 1634187617578039024,
            "prePerformCfg": ""
          },
          "BJNJIOHKNPL": 54
        },
        "190": {
          "$type": "COBBCENKLHN",
          "coopNodeId": 190,
          "coopNodeType": "COOP_NODE_END",
          "savePointId": 5
        }
      },
      "startNodeId": 192,
      "DHLONCAIIEC": true
    },
    "1913716": {
      "id": 1913716,
      "coopMap": {
        "248": {
          "$type": "EFOECCBHIAL",
          "coopNodeId": 248,
          "coopNodeType": "COOP_NODE_TALK",
          "nextNodeArray": [
            278
          ],
          "talkConfig": {
            "id": 248,
            "performCfg": "QuestDialogue/COOP/Coop102701/Q1913704",
            "loadType": "TALK_COOP",
            "questId": 19137,
            "assetIndex": 12459330865609111064,
            "prePerformCfg": "",
            "stayFreeStyle": true
          },
          "BJNJIOHKNPL": 58
        },
        "278": {
          "$type": "BEMIGNHPIPC",
          "coopNodeId": 278,
          "coopNodeType": "COOP_NODE_ACTION",
          "nextNodeArray": [
            249
          ],
          "actionList": [
            {
              "actionType": "COOP_ACTION_CONFIDENCE_MINUS",
              "param": [
                1
              ]
            }
          ]
        },
        "249": {
          "$type": "COBBCENKLHN",
          "coopNodeId": 249,
          "coopNodeType": "COOP_NODE_END",
          "savePointId": 71501
        },
        "279": {
          "$type": "EFOECCBHIAL",
          "coopNodeId": 279,
          "coopNodeType": "COOP_NODE_TALK",
          "nextNodeArray": [
            280
          ],
          "talkConfig": {
            "id": 279,
            "performCfg": "QuestDialogue/COOP/Coop102701/Q1913719",
            "loadType": "TALK_COOP",
            "questId": 19137,
            "assetIndex": 7503934262342048493,
            "prePerformCfg": ""
          },
          "BJNJIOHKNPL": 59
        },
        "280": {
          "$type": "COBBCENKLHN",
          "coopNodeId": 280,
          "coopNodeType": "COOP_NODE_END",
          "savePointId": 71502
        }
      },
      "startNodeId": 248,
      "failNodeId": 279,
      "DHLONCAIIEC": true
    },
    "1913717": {
      "id": 1913717,
      "coopMap": {
        "252": {
          "$type": "EFOECCBHIAL",
          "coopNodeId": 252,
          "coopNodeType": "COOP_NODE_TALK",
          "nextNodeArray": [
            330
          ],
          "talkConfig": {
            "id": 252,
            "performCfg": "QuestDialogue/COOP/Coop102701/Q1913705",
            "loadType": "TALK_COOP",
            "questId": 19137,
            "assetIndex": 8577893477399692441,
            "prePerformCfg": "",
            "stayFreeStyle": true
          },
          "BJNJIOHKNPL": 60
        },
        "330": {
          "$type": "BEMIGNHPIPC",
          "coopNodeId": 330,
          "coopNodeType": "COOP_NODE_ACTION",
          "nextNodeArray": [
            253
          ],
          "actionList": [
            {
              "actionType": "COOP_ACTION_CONFIDENCE_MINUS",
              "param": [
                1
              ]
            }
          ]
        },
        "253": {
          "$type": "COBBCENKLHN",
          "coopNodeId": 253,
          "coopNodeType": "COOP_NODE_END",
          "savePointId": 71601
        },
        "281": {
          "$type": "EFOECCBHIAL",
          "coopNodeId": 281,
          "coopNodeType": "COOP_NODE_TALK",
          "nextNodeArray": [
            282
          ],
          "talkConfig": {
            "id": 281,
            "performCfg": "QuestDialogue/COOP/Coop102701/Q1913719",
            "loadType": "TALK_COOP",
            "questId": 19137,
            "assetIndex": 15297790041352870533,
            "prePerformCfg": ""
          },
          "BJNJIOHKNPL": 61
        },
        "282": {
          "$type": "COBBCENKLHN",
          "coopNodeId": 282,
          "coopNodeType": "COOP_NODE_END",
          "savePointId": 71602
        }
      },
      "startNodeId": 252,
      "failNodeId": 281,
      "DHLONCAIIEC": true
    },
    "1913718": {
      "id": 1913718,
      "coopMap": {
        "256": {
          "$type": "EFOECCBHIAL",
          "coopNodeId": 256,
          "coopNodeType": "COOP_NODE_TALK",
          "nextNodeArray": [
            286
          ],
          "talkConfig": {
            "id": 256,
            "performCfg": "QuestDialogue/COOP/Coop102701/Q1913706",
            "loadType": "TALK_COOP",
            "questId": 19137,
            "assetIndex": 11713492520147503951,
            "prePerformCfg": "",
            "stayFreeStyle": true
          },
          "BJNJIOHKNPL": 62
        },
        "286": {
          "$type": "BEMIGNHPIPC",
          "coopNodeId": 286,
          "coopNodeType": "COOP_NODE_ACTION",
          "nextNodeArray": [
            257
          ],
          "actionList": [
            {
              "actionType": "COOP_ACTION_CONFIDENCE_MINUS",
              "param": [
                1
              ]
            }
          ]
        },
        "257": {
          "$type": "COBBCENKLHN",
          "coopNodeId": 257,
          "coopNodeType": "COOP_NODE_END",
          "savePointId": 71701
        },
        "284": {
          "$type": "EFOECCBHIAL",
          "coopNodeId": 284,
          "coopNodeType": "COOP_NODE_TALK",
          "nextNodeArray": [
            285
          ],
          "talkConfig": {
            "id": 284,
            "performCfg": "QuestDialogue/COOP/Coop102701/Q1913719",
            "loadType": "TALK_COOP",
            "questId": 19137,
            "assetIndex": 7109752636839489525,
            "prePerformCfg": ""
          },
          "BJNJIOHKNPL": 63
        },
        "285": {
          "$type": "COBBCENKLHN",
          "coopNodeId": 285,
          "coopNodeType": "COOP_NODE_END",
          "savePointId": 71702
        }
      },
      "startNodeId": 256,
      "failNodeId": 284,
      "DHLONCAIIEC": true
    },
    "1913719": {
      "id": 1913719,
      "coopMap": {
        "260": {
          "$type": "EFOECCBHIAL",
          "coopNodeId": 260,
          "coopNodeType": "COOP_NODE_TALK",
          "nextNodeArray": [
            289
          ],
          "talkConfig": {
            "id": 260,
            "performCfg": "QuestDialogue/COOP/Coop102701/Q1913704",
            "loadType": "TALK_COOP",
            "questId": 19137,
            "assetIndex": 10864262383883713598,
            "prePerformCfg": "",
            "stayFreeStyle": true
          },
          "BJNJIOHKNPL": 64
        },
        "289": {
          "$type": "BEMIGNHPIPC",
          "coopNodeId": 289,
          "coopNodeType": "COOP_NODE_ACTION",
          "nextNodeArray": [
            261
          ],
          "actionList": [
            {
              "actionType": "COOP_ACTION_CONFIDENCE_MINUS",
              "param": [
                1
              ]
            }
          ]
        },
        "261": {
          "$type": "COBBCENKLHN",
          "coopNodeId": 261,
          "coopNodeType": "COOP_NODE_END",
          "savePointId": 71901
        },
        "287": {
          "$type": "EFOECCBHIAL",
          "coopNodeId": 287,
          "coopNodeType": "COOP_NODE_TALK",
          "nextNodeArray": [
            288
          ],
          "talkConfig": {
            "id": 287,
            "performCfg": "QuestDialogue/COOP/Coop102701/Q1913719",
            "loadType": "TALK_COOP",
            "questId": 19137,
            "assetIndex": 17123664234381087712,
            "prePerformCfg": ""
          },
          "BJNJIOHKNPL": 65
        },
        "288": {
          "$type": "COBBCENKLHN",
          "coopNodeId": 288,
          "coopNodeType": "COOP_NODE_END",
          "savePointId": 71902
        }
      },
      "startNodeId": 260,
      "failNodeId": 287,
      "DHLONCAIIEC": true
    },
    "1913720": {
      "id": 1913720,
      "coopMap": {
        "264": {
          "$type": "EFOECCBHIAL",
          "coopNodeId": 264,
          "coopNodeType": "COOP_NODE_TALK",
          "nextNodeArray": [
            292
          ],
          "talkConfig": {
            "id": 264,
            "performCfg": "QuestDialogue/COOP/Coop102701/Q1913706",
            "loadType": "TALK_COOP",
            "questId": 19137,
            "assetIndex": 6187821653736359091,
            "prePerformCfg": "",
            "stayFreeStyle": true
          },
          "BJNJIOHKNPL": 66
        },
        "292": {
          "$type": "BEMIGNHPIPC",
          "coopNodeId": 292,
          "coopNodeType": "COOP_NODE_ACTION",
          "nextNodeArray": [
            265
          ],
          "actionList": [
            {
              "actionType": "COOP_ACTION_CONFIDENCE_MINUS",
              "param": [
                1
              ]
            }
          ]
        },
        "265": {
          "$type": "COBBCENKLHN",
          "coopNodeId": 265,
          "coopNodeType": "COOP_NODE_END",
          "savePointId": 72001
        },
        "290": {
          "$type": "EFOECCBHIAL",
          "coopNodeId": 290,
          "coopNodeType": "COOP_NODE_TALK",
          "nextNodeArray": [
            291
          ],
          "talkConfig": {
            "id": 290,
            "performCfg": "QuestDialogue/COOP/Coop102701/Q1913719",
            "loadType": "TALK_COOP",
            "questId": 19137,
            "assetIndex": 3854658568252079554,
            "prePerformCfg": ""
          },
          "BJNJIOHKNPL": 67
        },
        "291": {
          "$type": "COBBCENKLHN",
          "coopNodeId": 291,
          "coopNodeType": "COOP_NODE_END",
          "savePointId": 72002
        }
      },
      "startNodeId": 264,
      "failNodeId": 290,
      "DHLONCAIIEC": true
    },
    "1913721": {
      "id": 1913721,
      "coopMap": {
        "268": {
          "$type": "EFOECCBHIAL",
          "coopNodeId": 268,
          "coopNodeType": "COOP_NODE_TALK",
          "nextNodeArray": [
            295
          ],
          "talkConfig": {
            "id": 268,
            "performCfg": "QuestDialogue/COOP/Coop102701/Q1913704",
            "loadType": "TALK_COOP",
            "questId": 19137,
            "assetIndex": 13528749481014776030,
            "prePerformCfg": "",
            "stayFreeStyle": true
          },
          "BJNJIOHKNPL": 68
        },
        "295": {
          "$type": "BEMIGNHPIPC",
          "coopNodeId": 295,
          "coopNodeType": "COOP_NODE_ACTION",
          "nextNodeArray": [
            269
          ],
          "actionList": [
            {
              "actionType": "COOP_ACTION_CONFIDENCE_MINUS",
              "param": [
                1
              ]
            }
          ]
        },
        "269": {
          "$type": "COBBCENKLHN",
          "coopNodeId": 269,
          "coopNodeType": "COOP_NODE_END",
          "savePointId": 72101
        },
        "293": {
          "$type": "EFOECCBHIAL",
          "coopNodeId": 293,
          "coopNodeType": "COOP_NODE_TALK",
          "nextNodeArray": [
            294
          ],
          "talkConfig": {
            "id": 293,
            "performCfg": "QuestDialogue/COOP/Coop102701/Q1913719",
            "loadType": "TALK_COOP",
            "questId": 19137,
            "assetIndex": 6939595853298602696,
            "prePerformCfg": ""
          },
          "BJNJIOHKNPL": 69
        },
        "294": {
          "$type": "COBBCENKLHN",
          "coopNodeId": 294,
          "coopNodeType": "COOP_NODE_END",
          "savePointId": 72102
        }
      },
      "startNodeId": 268,
      "failNodeId": 293,
      "DHLONCAIIEC": true
    },
    "1913722": {
      "id": 1913722,
      "coopMap": {
        "272": {
          "$type": "EFOECCBHIAL",
          "coopNodeId": 272,
          "coopNodeType": "COOP_NODE_TALK",
          "nextNodeArray": [
            298
          ],
          "talkConfig": {
            "id": 272,
            "performCfg": "QuestDialogue/COOP/Coop102701/Q1913709",
            "loadType": "TALK_COOP",
            "questId": 19137,
            "assetIndex": 8242319694446032214,
            "prePerformCfg": "",
            "stayFreeStyle": true
          },
          "BJNJIOHKNPL": 70
        },
        "298": {
          "$type": "BEMIGNHPIPC",
          "coopNodeId": 298,
          "coopNodeType": "COOP_NODE_ACTION",
          "nextNodeArray": [
            273
          ],
          "actionList": [
            {
              "actionType": "COOP_ACTION_CONFIDENCE_MINUS",
              "param": [
                1
              ]
            }
          ]
        },
        "273": {
          "$type": "COBBCENKLHN",
          "coopNodeId": 273,
          "coopNodeType": "COOP_NODE_END",
          "savePointId": 72201
        },
        "296": {
          "$type": "EFOECCBHIAL",
          "coopNodeId": 296,
          "coopNodeType": "COOP_NODE_TALK",
          "nextNodeArray": [
            297
          ],
          "talkConfig": {
            "id": 296,
            "performCfg": "QuestDialogue/COOP/Coop102701/Q1913719",
            "loadType": "TALK_COOP",
            "questId": 19137,
            "assetIndex": 8659695175480470212,
            "prePerformCfg": ""
          },
          "BJNJIOHKNPL": 71
        },
        "297": {
          "$type": "COBBCENKLHN",
          "coopNodeId": 297,
          "coopNodeType": "COOP_NODE_END",
          "savePointId": 72202
        }
      },
      "startNodeId": 272,
      "failNodeId": 296,
      "DHLONCAIIEC": true
    },
    "1913723": {
      "id": 1913723,
      "coopMap": {
        "276": {
          "$type": "EFOECCBHIAL",
          "coopNodeId": 276,
          "coopNodeType": "COOP_NODE_TALK",
          "nextNodeArray": [
            301
          ],
          "talkConfig": {
            "id": 276,
            "performCfg": "QuestDialogue/COOP/Coop102701/Q1913706",
            "loadType": "TALK_COOP",
            "questId": 19137,
            "assetIndex": 9843904726287749573,
            "prePerformCfg": "",
            "stayFreeStyle": true
          },
          "BJNJIOHKNPL": 72
        },
        "301": {
          "$type": "BEMIGNHPIPC",
          "coopNodeId": 301,
          "coopNodeType": "COOP_NODE_ACTION",
          "nextNodeArray": [
            277
          ],
          "actionList": [
            {
              "actionType": "COOP_ACTION_CONFIDENCE_MINUS",
              "param": [
                1
              ]
            }
          ]
        },
        "277": {
          "$type": "COBBCENKLHN",
          "coopNodeId": 277,
          "coopNodeType": "COOP_NODE_END",
          "savePointId": 72301
        },
        "299": {
          "$type": "EFOECCBHIAL",
          "coopNodeId": 299,
          "coopNodeType": "COOP_NODE_TALK",
          "nextNodeArray": [
            300
          ],
          "talkConfig": {
            "id": 299,
            "performCfg": "QuestDialogue/COOP/Coop102701/Q1913719",
            "loadType": "TALK_COOP",
            "questId": 19137,
            "assetIndex": 15497020764543015538,
            "prePerformCfg": ""
          },
          "BJNJIOHKNPL": 73
        },
        "300": {
          "$type": "COBBCENKLHN",
          "coopNodeId": 300,
          "coopNodeType": "COOP_NODE_END",
          "savePointId": 72302
        }
      },
      "startNodeId": 276,
      "failNodeId": 299,
      "DHLONCAIIEC": true
    },
    "1913724": {
      "id": 1913724,
      "coopMap": {
        "304": {
          "$type": "EFOECCBHIAL",
          "coopNodeId": 304,
          "coopNodeType": "COOP_NODE_TALK",
          "nextNodeArray": [
            320
          ],
          "talkConfig": {
            "id": 304,
            "performCfg": "QuestDialogue/COOP/Coop102701/Q1913709",
            "loadType": "TALK_COOP",
            "questId": 19137,
            "assetIndex": 16829661027555295316,
            "prePerformCfg": "",
            "stayFreeStyle": true
          },
          "BJNJIOHKNPL": 74
        },
        "320": {
          "$type": "BEMIGNHPIPC",
          "coopNodeId": 320,
          "coopNodeType": "COOP_NODE_ACTION",
          "nextNodeArray": [
            305
          ],
          "actionList": [
            {
              "actionType": "COOP_ACTION_CONFIDENCE_MINUS",
              "param": [
                1
              ]
            }
          ]
        },
        "305": {
          "$type": "COBBCENKLHN",
          "coopNodeId": 305,
          "coopNodeType": "COOP_NODE_END",
          "savePointId": 72401
        },
        "318": {
          "$type": "EFOECCBHIAL",
          "coopNodeId": 318,
          "coopNodeType": "COOP_NODE_TALK",
          "nextNodeArray": [
            319
          ],
          "talkConfig": {
            "id": 318,
            "performCfg": "QuestDialogue/COOP/Coop102701/Q1913719",
            "loadType": "TALK_COOP",
            "questId": 19137,
            "assetIndex": 2147612704931818342,
            "prePerformCfg": ""
          },
          "BJNJIOHKNPL": 75
        },
        "319": {
          "$type": "COBBCENKLHN",
          "coopNodeId": 319,
          "coopNodeType": "COOP_NODE_END",
          "savePointId": 72402
        }
      },
      "startNodeId": 304,
      "failNodeId": 318,
      "DHLONCAIIEC": true
    },
    "1913725": {
      "id": 1913725,
      "coopMap": {
        "308": {
          "$type": "EFOECCBHIAL",
          "coopNodeId": 308,
          "coopNodeType": "COOP_NODE_TALK",
          "nextNodeArray": [
            331
          ],
          "talkConfig": {
            "id": 308,
            "performCfg": "QuestDialogue/COOP/Coop102701/Q1913708",
            "loadType": "TALK_COOP",
            "questId": 19137,
            "assetIndex": 15559170141917937773,
            "prePerformCfg": "",
            "stayFreeStyle": true
          },
          "BJNJIOHKNPL": 76
        },
        "331": {
          "$type": "BEMIGNHPIPC",
          "coopNodeId": 331,
          "coopNodeType": "COOP_NODE_ACTION",
          "nextNodeArray": [
            309
          ],
          "actionList": [
            {
              "actionType": "COOP_ACTION_CONFIDENCE_MINUS",
              "param": [
                1
              ]
            }
          ]
        },
        "309": {
          "$type": "COBBCENKLHN",
          "coopNodeId": 309,
          "coopNodeType": "COOP_NODE_END",
          "savePointId": 72501
        },
        "321": {
          "$type": "EFOECCBHIAL",
          "coopNodeId": 321,
          "coopNodeType": "COOP_NODE_TALK",
          "nextNodeArray": [
            332
          ],
          "talkConfig": {
            "id": 321,
            "performCfg": "QuestDialogue/COOP/Coop102701/Q1913719",
            "loadType": "TALK_COOP",
            "questId": 19137,
            "assetIndex": 46282105931823474,
            "prePerformCfg": ""
          },
          "BJNJIOHKNPL": 77
        },
        "332": {
          "$type": "COBBCENKLHN",
          "coopNodeId": 332,
          "coopNodeType": "COOP_NODE_END",
          "savePointId": 72502
        }
      },
      "startNodeId": 308,
      "failNodeId": 321,
      "DHLONCAIIEC": true
    },
    "1913726": {
      "id": 1913726,
      "coopMap": {
        "312": {
          "$type": "EFOECCBHIAL",
          "coopNodeId": 312,
          "coopNodeType": "COOP_NODE_TALK",
          "nextNodeArray": [
            326
          ],
          "talkConfig": {
            "id": 312,
            "performCfg": "QuestDialogue/COOP/Coop102701/Q1913709",
            "loadType": "TALK_COOP",
            "questId": 19137,
            "assetIndex": 3504467548166056051,
            "prePerformCfg": "",
            "stayFreeStyle": true
          },
          "BJNJIOHKNPL": 78
        },
        "326": {
          "$type": "BEMIGNHPIPC",
          "coopNodeId": 326,
          "coopNodeType": "COOP_NODE_ACTION",
          "nextNodeArray": [
            313
          ],
          "actionList": [
            {
              "actionType": "COOP_ACTION_CONFIDENCE_MINUS",
              "param": [
                1
              ]
            }
          ]
        },
        "313": {
          "$type": "COBBCENKLHN",
          "coopNodeId": 313,
          "coopNodeType": "COOP_NODE_END",
          "savePointId": 72601
        },
        "324": {
          "$type": "EFOECCBHIAL",
          "coopNodeId": 324,
          "coopNodeType": "COOP_NODE_TALK",
          "nextNodeArray": [
            333
          ],
          "talkConfig": {
            "id": 324,
            "performCfg": "QuestDialogue/COOP/Coop102701/Q1913719",
            "loadType": "TALK_COOP",
            "questId": 19137,
            "assetIndex": 592011570074989728,
            "prePerformCfg": ""
          },
          "BJNJIOHKNPL": 79
        },
        "333": {
          "$type": "COBBCENKLHN",
          "coopNodeId": 333,
          "coopNodeType": "COOP_NODE_END",
          "savePointId": 72602
        }
      },
      "startNodeId": 312,
      "failNodeId": 324,
      "DHLONCAIIEC": true
    },
    "1913727": {
      "id": 1913727,
      "coopMap": {
        "316": {
          "$type": "EFOECCBHIAL",
          "coopNodeId": 316,
          "coopNodeType": "COOP_NODE_TALK",
          "nextNodeArray": [
            329
          ],
          "talkConfig": {
            "id": 316,
            "performCfg": "QuestDialogue/COOP/Coop102701/Q1913710",
            "loadType": "TALK_COOP",
            "questId": 19137,
            "assetIndex": 12574988141696070804,
            "prePerformCfg": "",
            "stayFreeStyle": true
          },
          "BJNJIOHKNPL": 80
        },
        "329": {
          "$type": "BEMIGNHPIPC",
          "coopNodeId": 329,
          "coopNodeType": "COOP_NODE_ACTION",
          "nextNodeArray": [
            317
          ],
          "actionList": [
            {
              "actionType": "COOP_ACTION_CONFIDENCE_MINUS",
              "param": [
                1
              ]
            }
          ]
        },
        "317": {
          "$type": "COBBCENKLHN",
          "coopNodeId": 317,
          "coopNodeType": "COOP_NODE_END",
          "savePointId": 72701
        },
        "327": {
          "$type": "EFOECCBHIAL",
          "coopNodeId": 327,
          "coopNodeType": "COOP_NODE_TALK",
          "nextNodeArray": [
            334
          ],
          "talkConfig": {
            "id": 327,
            "performCfg": "QuestDialogue/COOP/Coop102701/Q1913719",
            "loadType": "TALK_COOP",
            "questId": 19137,
            "assetIndex": 5053238403679492735,
            "prePerformCfg": ""
          },
          "BJNJIOHKNPL": 81
        },
        "334": {
          "$type": "COBBCENKLHN",
          "coopNodeId": 334,
          "coopNodeType": "COOP_NODE_END",
          "savePointId": 72702
        }
      },
      "startNodeId": 316,
      "failNodeId": 327,
      "DHLONCAIIEC": true
    },
    "1913801": {
      "id": 1913801,
      "coopMap": {
        "75": {
          "$type": "PPJHAFFOIOK",
          "coopNodeId": 75,
          "coopNodeType": "COOP_NODE_SELECT",
          "nextNodeArray": [
            77,
            79
          ],
          "selectList": [
            {
              "dialogId": 191380199,
              "hideCond": {},
              "enableCond": {}
            },
            {
              "dialogId": 191380198,
              "hideCond": {},
              "enableCond": {}
            }
          ]
        },
        "74": {
          "$type": "EFOECCBHIAL",
          "coopNodeId": 74,
          "coopNodeType": "COOP_NODE_TALK",
          "nextNodeArray": [
            75
          ],
          "talkConfig": {
            "id": 74,
            "performCfg": "QuestDialogue/COOP/Coop102701/Q1913801",
            "loadType": "TALK_COOP",
            "questId": 19138,
            "assetIndex": 3112446613251174690,
            "prePerformCfg": ""
          },
          "BJNJIOHKNPL": 23
        },
        "202": {
          "$type": "PPJHAFFOIOK",
          "coopNodeId": 202,
          "coopNodeType": "COOP_NODE_SELECT",
          "nextNodeArray": [
            204,
            205
          ],
          "selectList": [
            {
              "dialogId": 191380399,
              "hideCond": {},
              "enableCond": {}
            },
            {
              "dialogId": 191380398,
              "hideCond": {},
              "enableCond": {}
            }
          ]
        },
        "79": {
          "$type": "EFOECCBHIAL",
          "coopNodeId": 79,
          "coopNodeType": "COOP_NODE_TALK",
          "nextNodeArray": [
            202
          ],
          "talkConfig": {
            "id": 79,
            "performCfg": "QuestDialogue/COOP/Coop102701/Q1913803",
            "loadType": "TALK_COOP",
            "questId": 19138,
            "assetIndex": 3743695719975230094,
            "prePerformCfg": ""
          },
          "BJNJIOHKNPL": 24
        },
        "204": {
          "$type": "EFOECCBHIAL",
          "coopNodeId": 204,
          "coopNodeType": "COOP_NODE_TALK",
          "nextNodeArray": [
            84
          ],
          "talkConfig": {
            "id": 204,
            "performCfg": "QuestDialogue/COOP/Coop102701/Q1913804",
            "loadType": "TALK_COOP",
            "questId": 19138,
            "assetIndex": 5789819188115574792,
            "prePerformCfg": ""
          },
          "BJNJIOHKNPL": 21
        },
        "84": {
          "$type": "COBBCENKLHN",
          "coopNodeId": 84,
          "coopNodeType": "COOP_NODE_END",
          "savePointId": 10302
        },
        "205": {
          "$type": "EFOECCBHIAL",
          "coopNodeId": 205,
          "coopNodeType": "COOP_NODE_TALK",
          "nextNodeArray": [
            85
          ],
          "talkConfig": {
            "id": 205,
            "performCfg": "QuestDialogue/COOP/Coop102701/Q1913805",
            "loadType": "TALK_COOP",
            "questId": 19138,
            "assetIndex": 15533304324135552809,
            "prePerformCfg": ""
          },
          "BJNJIOHKNPL": 22
        },
        "85": {
          "$type": "COBBCENKLHN",
          "coopNodeId": 85,
          "coopNodeType": "COOP_NODE_END",
          "savePointId": 10303
        },
        "77": {
          "$type": "EFOECCBHIAL",
          "coopNodeId": 77,
          "coopNodeType": "COOP_NODE_TALK",
          "nextNodeArray": [
            72
          ],
          "talkConfig": {
            "id": 77,
            "performCfg": "QuestDialogue/COOP/Coop102701/Q1913802",
            "loadType": "TALK_COOP",
            "questId": 19138,
            "assetIndex": 9920613285492893363,
            "prePerformCfg": ""
          },
          "BJNJIOHKNPL": 20
        },
        "72": {
          "$type": "COBBCENKLHN",
          "coopNodeId": 72,
          "coopNodeType": "COOP_NODE_END",
          "savePointId": 10301
        }
      },
      "startNodeId": 74,
      "DHLONCAIIEC": true
    }
  },
  "subStartPointMap": {
    "1913101": {
      "id": 1913101,
      "coopInteractionId": 1913101
    },
    "1913102": {
      "id": 1913102,
      "coopInteractionId": 1913102
    },
    "1913201": {
      "id": 1913201,
      "coopInteractionId": 1913201
    },
    "1913202": {
      "id": 1913202,
      "coopInteractionId": 1913202
    },
    "1913203": {
      "id": 1913203,
      "coopInteractionId": 1913203
    },
    "1913204": {
      "id": 1913204,
      "coopInteractionId": 1913204
    },
    "1913301": {
      "id": 1913301,
      "coopInteractionId": 1913301
    },
    "1913302": {
      "id": 1913302,
      "coopInteractionId": 1913302
    },
    "1913303": {
      "id": 1913303,
      "coopInteractionId": 1913303
    },
    "1913304": {
      "id": 1913304,
      "coopInteractionId": 1913304
    },
    "1913305": {
      "id": 1913305,
      "coopInteractionId": 1913305
    },
    "1913401": {
      "id": 1913401,
      "coopInteractionId": 1913401
    },
    "1913402": {
      "id": 1913402,
      "coopInteractionId": 1913402
    },
    "1913403": {
      "id": 1913403,
      "coopInteractionId": 1913403
    },
    "1913501": {
      "id": 1913501,
      "coopInteractionId": 1913501
    },
    "1913502": {
      "id": 1913502,
      "coopInteractionId": 1913502
    },
    "1913503": {
      "id": 1913503,
      "coopInteractionId": 1913503
    },
    "1913601": {
      "id": 1913601,
      "coopInteractionId": 1913601
    },
    "1913602": {
      "id": 1913602,
      "coopInteractionId": 1913602
    },
    "1913603": {
      "id": 1913603,
      "coopInteractionId": 1913603
    },
    "1913604": {
      "id": 1913604,
      "coopInteractionId": 1913604
    },
    "1913605": {
      "id": 1913605,
      "coopInteractionId": 1913605
    },
    "1913606": {
      "id": 1913606,
      "coopInteractionId": 1913606
    },
    "1913609": {
      "id": 1913609,
      "coopInteractionId": 1913609
    },
    "1913701": {
      "id": 1913701,
      "coopInteractionId": 1913701
    },
    "1913702": {
      "id": 1913702,
      "coopInteractionId": 1913702
    },
    "1913703": {
      "id": 1913703,
      "coopInteractionId": 1913703
    },
    "1913704": {
      "id": 1913704,
      "coopInteractionId": 1913704
    },
    "1913705": {
      "id": 1913705,
      "coopInteractionId": 1913705
    },
    "1913706": {
      "id": 1913706,
      "coopInteractionId": 1913706
    },
    "1913707": {
      "id": 1913707,
      "coopInteractionId": 1913707
    },
    "1913708": {
      "id": 1913708,
      "coopInteractionId": 1913708
    },
    "1913709": {
      "id": 1913709,
      "coopInteractionId": 1913709
    },
    "1913710": {
      "id": 1913710,
      "coopInteractionId": 1913710
    },
    "1913711": {
      "id": 1913711,
      "coopInteractionId": 1913711
    },
    "1913712": {
      "id": 1913712,
      "coopInteractionId": 1913712
    },
    "1913713": {
      "id": 1913713,
      "coopInteractionId": 1913713
    },
    "1913714": {
      "id": 1913714,
      "coopInteractionId": 1913714
    },
    "1913715": {
      "id": 1913715,
      "coopInteractionId": 1913715
    },
    "1913716": {
      "id": 1913716,
      "coopInteractionId": 1913716
    },
    "1913717": {
      "id": 1913717,
      "coopInteractionId": 1913717
    },
    "1913718": {
      "id": 1913718,
      "coopInteractionId": 1913718
    },
    "1913719": {
      "id": 1913719,
      "coopInteractionId": 1913719
    },
    "1913720": {
      "id": 1913720,
      "coopInteractionId": 1913720
    },
    "1913721": {
      "id": 1913721,
      "coopInteractionId": 1913721
    },
    "1913722": {
      "id": 1913722,
      "coopInteractionId": 1913722
    },
    "1913723": {
      "id": 1913723,
      "coopInteractionId": 1913723
    },
    "1913724": {
      "id": 1913724,
      "coopInteractionId": 1913724
    },
    "1913725": {
      "id": 1913725,
      "coopInteractionId": 1913725
    },
    "1913726": {
      "id": 1913726,
      "coopInteractionId": 1913726
    },
    "1913727": {
      "id": 1913727,
      "coopInteractionId": 1913727
    },
    "1913801": {
      "id": 1913801,
      "coopInteractionId": 1913801
    }
  },
  "savePointMap": {
    "101": {
      "id": 101
    },
    "102": {
      "id": 102
    },
    "103": {
      "id": 103
    },
    "201": {
      "id": 201
    },
    "202": {
      "id": 202
    },
    "203": {
      "id": 203
    },
    "20401": {
      "id": 20401
    },
    "20402": {
      "id": 20402
    },
    "301": {
      "id": 301
    },
    "302": {
      "id": 302
    },
    "303": {
      "id": 303
    },
    "304": {
      "id": 304
    },
    "1": {
      "id": 1,
      "isEnd": true
    },
    "401": {
      "id": 401
    },
    "402": {
      "id": 402
    },
    "2": {
      "id": 2,
      "isEnd": true
    },
    "501": {
      "id": 501
    },
    "502": {
      "id": 502
    },
    "3": {
      "id": 3,
      "isEnd": true
    },
    "601": {
      "id": 601
    },
    "602": {
      "id": 602
    },
    "603": {
      "id": 603
    },
    "4": {
      "id": 4,
      "isEnd": true
    },
    "605": {
      "id": 605
    },
    "606": {
      "id": 606
    },
    "607": {
      "id": 607
    },
    "701": {
      "id": 701
    },
    "702": {
      "id": 702
    },
    "703": {
      "id": 703
    },
    "70401": {
      "id": 70401
    },
    "70402": {
      "id": 70402,
      "isEnd": true
    },
    "70501": {
      "id": 70501
    },
    "70502": {
      "id": 70502,
      "isEnd": true
    },
    "70601": {
      "id": 70601
    },
    "70602": {
      "id": 70602,
      "isEnd": true
    },
    "707": {
      "id": 707
    },
    "70801": {
      "id": 70801
    },
    "70802": {
      "id": 70802,
      "isEnd": true
    },
    "70901": {
      "id": 70901
    },
    "70902": {
      "id": 70902,
      "isEnd": true
    },
    "71001": {
      "id": 71001
    },
    "71002": {
      "id": 71002,
      "isEnd": true
    },
    "711": {
      "id": 711
    },
    "71201": {
      "id": 71201
    },
    "71202": {
      "id": 71202,
      "isEnd": true
    },
    "71301": {
      "id": 71301
    },
    "71302": {
      "id": 71302,
      "isEnd": true
    },
    "714": {
      "id": 714
    },
    "5": {
      "id": 5,
      "isEnd": true
    },
    "71501": {
      "id": 71501
    },
    "71502": {
      "id": 71502,
      "isEnd": true
    },
    "71601": {
      "id": 71601
    },
    "71602": {
      "id": 71602,
      "isEnd": true
    },
    "71701": {
      "id": 71701
    },
    "71702": {
      "id": 71702,
      "isEnd": true
    },
    "71901": {
      "id": 71901
    },
    "71902": {
      "id": 71902,
      "isEnd": true
    },
    "72001": {
      "id": 72001
    },
    "72002": {
      "id": 72002,
      "isEnd": true
    },
    "72101": {
      "id": 72101
    },
    "72102": {
      "id": 72102,
      "isEnd": true
    },
    "72201": {
      "id": 72201
    },
    "72202": {
      "id": 72202
    },
    "72301": {
      "id": 72301
    },
    "72302": {
      "id": 72302,
      "isEnd": true
    },
    "72401": {
      "id": 72401
    },
    "72402": {
      "id": 72402,
      "isEnd": true
    },
    "72501": {
      "id": 72501
    },
    "72502": {
      "id": 72502,
      "isEnd": true
    },
    "72601": {
      "id": 72601
    },
    "72602": {
      "id": 72602,
      "isEnd": true
    },
    "72701": {
      "id": 72701
    },
    "72702": {
      "id": 72702,
      "isEnd": true
    },
    "10302": {
      "id": 10302
    },
    "10303": {
      "id": 10303
    },
    "10301": {
      "id": 10301
    }
  },
  "confidenceValue": 5,
  "maxConfidenceValue": 5,
  "temperamentMap": {
    "COOP_TEMPERAMENT_1": {
      "param3": 50,
      "hpRatio": 1.0
    },
    "COOP_TEMPERAMENT_2": {
      "param3": 50,
      "hpRatio": 1.0
    },
    "COOP_TEMPERAMENT_3": {
      "param3": 50,
      "hpRatio": 1.0
    },
    "COOP_TEMPERAMENT_4": {
      "param3": 50,
      "hpRatio": 1.0
    }
  },
  "useTemperament": false,
  "DHLONCAIIEC": true
}