{
  "coopInteractionMap": {
    "1900102": {
      "id": 1900102,
      "coopMap": {
        "8": {
          "$type": "PPJHAFFOIOK",
          "coopNodeId": 8,
          "coopNodeType": "COOP_NODE_SELECT",
          "nextNodeArray": [
            10,
            100
          ],
          "selectList": [
            {
              "dialogId": 1900102191,
              "hideCond": {},
              "enableCond": {}
            },
            {
              "dialogId": 1900102192,
              "hideCond": {},
              "enableCond": {}
            }
          ]
        },
        "7": {
          "$type": "EFOECCBHIAL",
          "coopNodeId": 7,
          "coopNodeType": "COOP_NODE_TALK",
          "nextNodeArray": [
            8
          ],
          "talkConfig": {
            "id": 7,
            "performCfg": "QuestDialogue/COOP/Coop101401/Q19001021",
            "loadType": "TALK_COOP",
            "questId": 19001,
            "assetIndex": 5962883510941828953,
            "prePerformCfg": ""
          },
          "BJNJIOHKNPL": 46
        },
        "10": {
          "$type": "EFOECCBHIAL",
          "coopNodeId": 10,
          "coopNodeType": "COOP_NODE_TALK",
          "nextNodeArray": [
            11
          ],
          "talkConfig": {
            "id": 10,
            "performCfg": "QuestDialogue/COOP/Coop101401/Q19001022",
            "loadType": "TALK_COOP",
            "questId": 19001,
            "assetIndex": 11209820833306278716,
            "prePerformCfg": ""
          },
          "BJNJIOHKNPL": 1
        },
        "11": {
          "$type": "COBBCENKLHN",
          "coopNodeId": 11,
          "coopNodeType": "COOP_NODE_END",
          "savePointId": 10201
        },
        "100": {
          "$type": "EFOECCBHIAL",
          "coopNodeId": 100,
          "coopNodeType": "COOP_NODE_TALK",
          "nextNodeArray": [
            101
          ],
          "talkConfig": {
            "id": 100,
            "performCfg": "QuestDialogue/COOP/Coop101401/Q19001023",
            "loadType": "TALK_COOP",
            "questId": 19001,
            "assetIndex": 18177290946726150901,
            "prePerformCfg": ""
          },
          "BJNJIOHKNPL": 15
        },
        "101": {
          "$type": "COBBCENKLHN",
          "coopNodeId": 101,
          "coopNodeType": "COOP_NODE_END",
          "savePointId": 10202
        }
      },
      "startNodeId": 7,
      "DHLONCAIIEC": true
    },
    "1900103": {
      "id": 1900103,
      "coopMap": {
        "102": {
          "$type": "PPJHAFFOIOK",
          "coopNodeId": 102,
          "coopNodeType": "COOP_NODE_SELECT",
          "nextNodeArray": [
            107,
            109,
            116
          ],
          "selectList": [
            {
              "dialogId": 1900103191,
              "hideCond": {},
              "enableCond": {}
            },
            {
              "dialogId": 1900103192,
              "hideCond": {},
              "enableCond": {}
            },
            {
              "dialogId": 1900103193,
              "hideCond": {},
              "enableCond": {}
            }
          ]
        },
        "13": {
          "$type": "EFOECCBHIAL",
          "coopNodeId": 13,
          "coopNodeType": "COOP_NODE_TALK",
          "nextNodeArray": [
            102
          ],
          "talkConfig": {
            "id": 13,
            "performCfg": "QuestDialogue/COOP/Coop101401/Q19001031",
            "loadType": "TALK_COOP",
            "questId": 19001,
            "assetIndex": 8025694741805740721,
            "prePerformCfg": ""
          },
          "BJNJIOHKNPL": 51
        },
        "107": {
          "$type": "EFOECCBHIAL",
          "coopNodeId": 107,
          "coopNodeType": "COOP_NODE_TALK",
          "nextNodeArray": [
            108
          ],
          "talkConfig": {
            "id": 107,
            "performCfg": "QuestDialogue/COOP/Coop101401/Q19001032",
            "loadType": "TALK_COOP",
            "questId": 19001,
            "assetIndex": 4421419077756289183,
            "prePerformCfg": ""
          },
          "BJNJIOHKNPL": 17
        },
        "108": {
          "$type": "BEMIGNHPIPC",
          "coopNodeId": 108,
          "coopNodeType": "COOP_NODE_ACTION",
          "nextNodeArray": [
            119
          ],
          "actionList": [
            {
              "actionType": "COOP_ACTION_CONFIDENCE_MINUS",
              "param": [
                5
              ]
            }
          ]
        },
        "119": {
          "$type": "COBBCENKLHN",
          "coopNodeId": 119,
          "coopNodeType": "COOP_NODE_END",
          "savePointId": 10301
        },
        "109": {
          "$type": "EFOECCBHIAL",
          "coopNodeId": 109,
          "coopNodeType": "COOP_NODE_TALK",
          "nextNodeArray": [
            119
          ],
          "talkConfig": {
            "id": 109,
            "performCfg": "QuestDialogue/COOP/Coop101401/Q19001033",
            "loadType": "TALK_COOP",
            "questId": 19001,
            "assetIndex": 17693699463096951627,
            "prePerformCfg": ""
          },
          "BJNJIOHKNPL": 16
        },
        "229": {
          "$type": "PPJHAFFOIOK",
          "coopNodeId": 229,
          "coopNodeType": "COOP_NODE_SELECT",
          "nextNodeArray": [
            117,
            115
          ],
          "selectList": [
            {
              "dialogId": 1900103491,
              "hideCond": {},
              "enableCond": {}
            },
            {
              "dialogId": 1900103492,
              "hideCond": {},
              "enableCond": {}
            }
          ]
        },
        "116": {
          "$type": "EFOECCBHIAL",
          "coopNodeId": 116,
          "coopNodeType": "COOP_NODE_TALK",
          "nextNodeArray": [
            229
          ],
          "talkConfig": {
            "id": 116,
            "performCfg": "QuestDialogue/COOP/Coop101401/Q19001034",
            "loadType": "TALK_COOP",
            "questId": 19001,
            "assetIndex": 10461212171701961666,
            "prePerformCfg": ""
          },
          "BJNJIOHKNPL": 57
        },
        "117": {
          "$type": "EFOECCBHIAL",
          "coopNodeId": 117,
          "coopNodeType": "COOP_NODE_TALK",
          "nextNodeArray": [
            231
          ],
          "talkConfig": {
            "id": 117,
            "performCfg": "QuestDialogue/COOP/Coop101401/Q19001035",
            "loadType": "TALK_COOP",
            "questId": 19001,
            "assetIndex": 16432035289805751648,
            "prePerformCfg": ""
          },
          "BJNJIOHKNPL": 39
        },
        "231": {
          "$type": "COBBCENKLHN",
          "coopNodeId": 231,
          "coopNodeType": "COOP_NODE_END",
          "savePointId": 10302
        },
        "115": {
          "$type": "BEMIGNHPIPC",
          "coopNodeId": 115,
          "coopNodeType": "COOP_NODE_ACTION",
          "nextNodeArray": [
            232
          ],
          "actionList": [
            {
              "actionType": "COOP_ACTION_CONFIDENCE_MINUS",
              "param": [
                1
              ]
            }
          ]
        },
        "232": {
          "$type": "EFOECCBHIAL",
          "coopNodeId": 232,
          "coopNodeType": "COOP_NODE_TALK",
          "nextNodeArray": [
            233
          ],
          "talkConfig": {
            "id": 232,
            "performCfg": "QuestDialogue/COOP/Coop101401/Q19001036",
            "loadType": "TALK_COOP",
            "questId": 19001,
            "assetIndex": 5742704930722347271,
            "prePerformCfg": ""
          },
          "BJNJIOHKNPL": 40
        },
        "233": {
          "$type": "COBBCENKLHN",
          "coopNodeId": 233,
          "coopNodeType": "COOP_NODE_END",
          "savePointId": 10303
        },
        "151": {
          "$type": "EFOECCBHIAL",
          "coopNodeId": 151,
          "coopNodeType": "COOP_NODE_TALK",
          "nextNodeArray": [
            150
          ],
          "talkConfig": {
            "id": 151,
            "performCfg": "QuestDialogue/COOP/Coop101401/Q19001001",
            "loadType": "TALK_COOP",
            "questId": 19001,
            "assetIndex": 6742151495563282953,
            "prePerformCfg": ""
          },
          "BJNJIOHKNPL": 22
        },
        "150": {
          "$type": "COBBCENKLHN",
          "coopNodeId": 150,
          "coopNodeType": "COOP_NODE_END",
          "savePointId": 201
        }
      },
      "startNodeId": 13,
      "failNodeId": 151,
      "DHLONCAIIEC": true
    },
    "1900301": {
      "id": 1900301,
      "coopMap": {
        "18": {
          "$type": "PPJHAFFOIOK",
          "coopNodeId": 18,
          "coopNodeType": "COOP_NODE_SELECT",
          "nextNodeArray": [
            22,
            21
          ],
          "selectList": [
            {
              "dialogId": 1900301191,
              "hideCond": {},
              "enableCond": {}
            },
            {
              "dialogId": 1900301192,
              "hideCond": {},
              "enableCond": {}
            }
          ]
        },
        "16": {
          "$type": "EFOECCBHIAL",
          "coopNodeId": 16,
          "coopNodeType": "COOP_NODE_TALK",
          "nextNodeArray": [
            18
          ],
          "talkConfig": {
            "id": 16,
            "performCfg": "QuestDialogue/COOP/Coop101401/Q19003011",
            "loadType": "TALK_COOP",
            "questId": 19003,
            "assetIndex": 15225283388456499190,
            "prePerformCfg": ""
          },
          "BJNJIOHKNPL": 47
        },
        "22": {
          "$type": "EFOECCBHIAL",
          "coopNodeId": 22,
          "coopNodeType": "COOP_NODE_TALK",
          "nextNodeArray": [
            298
          ],
          "talkConfig": {
            "id": 22,
            "performCfg": "QuestDialogue/COOP/Coop101401/Q19003012",
            "loadType": "TALK_COOP",
            "questId": 19003,
            "assetIndex": 6914454401063639243,
            "prePerformCfg": ""
          },
          "BJNJIOHKNPL": 3
        },
        "298": {
          "$type": "BEMIGNHPIPC",
          "coopNodeId": 298,
          "coopNodeType": "COOP_NODE_ACTION",
          "nextNodeArray": [
            26
          ],
          "actionList": [
            {
              "actionType": "COOP_ACTION_CONFIDENCE_MINUS",
              "param": [
                5
              ]
            }
          ]
        },
        "26": {
          "$type": "COBBCENKLHN",
          "coopNodeId": 26,
          "coopNodeType": "COOP_NODE_END",
          "savePointId": 30101
        },
        "21": {
          "$type": "EFOECCBHIAL",
          "coopNodeId": 21,
          "coopNodeType": "COOP_NODE_TALK",
          "nextNodeArray": [
            26
          ],
          "talkConfig": {
            "id": 21,
            "performCfg": "QuestDialogue/COOP/Coop101401/Q19003013",
            "loadType": "TALK_COOP",
            "questId": 19003,
            "assetIndex": 169754272088690698,
            "prePerformCfg": ""
          },
          "BJNJIOHKNPL": 2
        },
        "300": {
          "$type": "EFOECCBHIAL",
          "coopNodeId": 300,
          "coopNodeType": "COOP_NODE_TALK",
          "nextNodeArray": [
            299
          ],
          "talkConfig": {
            "id": 300,
            "performCfg": "QuestDialogue/COOP/Coop101401/Q19003001",
            "loadType": "TALK_COOP",
            "questId": 19003,
            "assetIndex": 8759711289457274137,
            "prePerformCfg": ""
          },
          "BJNJIOHKNPL": 41
        },
        "299": {
          "$type": "COBBCENKLHN",
          "coopNodeId": 299,
          "coopNodeType": "COOP_NODE_END",
          "savePointId": 203
        }
      },
      "startNodeId": 16,
      "failNodeId": 300,
      "DHLONCAIIEC": true
    },
    "1900901": {
      "id": 1900901,
      "coopMap": {
        "37": {
          "$type": "EFOECCBHIAL",
          "coopNodeId": 37,
          "coopNodeType": "COOP_NODE_TALK",
          "nextNodeArray": [
            43
          ],
          "talkConfig": {
            "id": 37,
            "performCfg": "QuestDialogue/COOP/Coop101401/Q19009011",
            "loadType": "TALK_COOP",
            "questId": 19009,
            "assetIndex": 6177048485314221067,
            "prePerformCfg": ""
          },
          "BJNJIOHKNPL": 4
        },
        "43": {
          "$type": "COBBCENKLHN",
          "coopNodeId": 43,
          "coopNodeType": "COOP_NODE_END",
          "savePointId": 90101
        }
      },
      "startNodeId": 37,
      "DHLONCAIIEC": true
    },
    "1900905": {
      "id": 1900905,
      "coopMap": {
        "46": {
          "$type": "BFGLIPPHAJP",
          "coopNodeId": 46,
          "coopNodeType": "COOP_NODE_COND",
          "nextNodeArray": [
            47,
            48
          ],
          "coopCondGrp": {
            "coopCondList": [
              {
                "damageRatio": "COOP_COND_ENDING_FINISH",
                "param": [
                  0,
                  90202
                ]
              },
              {
                "damageRatio": "COOP_COND_ENDING_FINISH",
                "param": [
                  0,
                  90302
                ]
              },
              {
                "damageRatio": "COOP_COND_ENDING_FINISH",
                "param": [
                  0,
                  90402
                ]
              }
            ]
          }
        },
        "47": {
          "$type": "EFOECCBHIAL",
          "coopNodeId": 47,
          "coopNodeType": "COOP_NODE_TALK",
          "nextNodeArray": [
            50
          ],
          "talkConfig": {
            "id": 47,
            "performCfg": "QuestDialogue/COOP/Coop101401/Q19009051",
            "loadType": "TALK_COOP",
            "questId": 19009,
            "assetIndex": 8828917246047993691,
            "prePerformCfg": ""
          },
          "BJNJIOHKNPL": 5
        },
        "50": {
          "$type": "COBBCENKLHN",
          "coopNodeId": 50,
          "coopNodeType": "COOP_NODE_END",
          "savePointId": 90501
        },
        "48": {
          "$type": "EFOECCBHIAL",
          "coopNodeId": 48,
          "coopNodeType": "COOP_NODE_TALK",
          "nextNodeArray": [
            50
          ],
          "talkConfig": {
            "id": 48,
            "performCfg": "QuestDialogue/COOP/Coop101401/Q19009052",
            "loadType": "TALK_COOP",
            "questId": 19009,
            "assetIndex": 12815040319367807647,
            "prePerformCfg": ""
          },
          "BJNJIOHKNPL": 6
        }
      },
      "startNodeId": 46,
      "DHLONCAIIEC": true
    },
    "1900906": {
      "id": 1900906,
      "coopMap": {
        "274": {
          "$type": "PPJHAFFOIOK",
          "coopNodeId": 274,
          "coopNodeType": "COOP_NODE_SELECT",
          "nextNodeArray": [
            279,
            280,
            281,
            282
          ],
          "selectList": [
            {
              "dialogId": 1900906191,
              "hideCond": {},
              "enableCond": {}
            },
            {
              "dialogId": 1900906192,
              "hideCond": {},
              "enableCond": {}
            },
            {
              "dialogId": 1900906193,
              "hideCond": {},
              "enableCond": {
                "condCombType": "LOGIC_OR",
                "coopCondList": [
                  {
                    "damageRatio": "COOP_COND_ENDING_FINISH",
                    "param": [
                      0,
                      20101
                    ]
                  },
                  {
                    "damageRatio": "COOP_COND_ENDING_FINISH",
                    "param": [
                      0,
                      20102
                    ]
                  }
                ]
              }
            },
            {
              "dialogId": 1900906194,
              "hideCond": {},
              "enableCond": {}
            }
          ]
        },
        "52": {
          "$type": "EFOECCBHIAL",
          "coopNodeId": 52,
          "coopNodeType": "COOP_NODE_TALK",
          "nextNodeArray": [
            274
          ],
          "talkConfig": {
            "id": 52,
            "performCfg": "QuestDialogue/COOP/Coop101401/Q19009061",
            "loadType": "TALK_COOP",
            "questId": 19009,
            "assetIndex": 10751133793885549445,
            "prePerformCfg": ""
          },
          "BJNJIOHKNPL": 61
        },
        "279": {
          "$type": "EFOECCBHIAL",
          "coopNodeId": 279,
          "coopNodeType": "COOP_NODE_TALK",
          "nextNodeArray": [
            283
          ],
          "talkConfig": {
            "id": 279,
            "performCfg": "QuestDialogue/COOP/Coop101401/Q19009062",
            "loadType": "TALK_COOP",
            "questId": 19009,
            "assetIndex": 3118397853377393832,
            "prePerformCfg": ""
          },
          "BJNJIOHKNPL": 7
        },
        "283": {
          "$type": "EFOECCBHIAL",
          "coopNodeId": 283,
          "coopNodeType": "COOP_NODE_TALK",
          "nextNodeArray": [
            53
          ],
          "talkConfig": {
            "id": 283,
            "performCfg": "QuestDialogue/COOP/Coop101401/Q19009066",
            "loadType": "TALK_COOP",
            "questId": 19009,
            "assetIndex": 16673228845035181473,
            "prePerformCfg": ""
          },
          "BJNJIOHKNPL": 7
        },
        "53": {
          "$type": "COBBCENKLHN",
          "coopNodeId": 53,
          "coopNodeType": "COOP_NODE_END",
          "savePointId": 105
        },
        "280": {
          "$type": "EFOECCBHIAL",
          "coopNodeId": 280,
          "coopNodeType": "COOP_NODE_TALK",
          "nextNodeArray": [
            283
          ],
          "talkConfig": {
            "id": 280,
            "performCfg": "QuestDialogue/COOP/Coop101401/Q19009063",
            "loadType": "TALK_COOP",
            "questId": 19009,
            "assetIndex": 897732751361233799,
            "prePerformCfg": ""
          },
          "BJNJIOHKNPL": 7
        },
        "281": {
          "$type": "EFOECCBHIAL",
          "coopNodeId": 281,
          "coopNodeType": "COOP_NODE_TALK",
          "nextNodeArray": [
            283
          ],
          "talkConfig": {
            "id": 281,
            "performCfg": "QuestDialogue/COOP/Coop101401/Q19009064",
            "loadType": "TALK_COOP",
            "questId": 19009,
            "assetIndex": 7316004993663869015,
            "prePerformCfg": ""
          },
          "BJNJIOHKNPL": 7
        },
        "282": {
          "$type": "EFOECCBHIAL",
          "coopNodeId": 282,
          "coopNodeType": "COOP_NODE_TALK",
          "nextNodeArray": [
            283
          ],
          "talkConfig": {
            "id": 282,
            "performCfg": "QuestDialogue/COOP/Coop101401/Q19009065",
            "loadType": "TALK_COOP",
            "questId": 19009,
            "assetIndex": 17667994799890150137,
            "prePerformCfg": ""
          },
          "BJNJIOHKNPL": 7
        }
      },
      "startNodeId": 52,
      "DHLONCAIIEC": true
    },
    "1900903": {
      "id": 1900903,
      "coopMap": {
        "59": {
          "$type": "PPJHAFFOIOK",
          "coopNodeId": 59,
          "coopNodeType": "COOP_NODE_SELECT",
          "nextNodeArray": [
            316,
            63
          ],
          "selectList": [
            {
              "dialogId": 1900903191,
              "hideCond": {},
              "enableCond": {}
            },
            {
              "dialogId": 1900903192,
              "hideCond": {},
              "enableCond": {}
            }
          ]
        },
        "58": {
          "$type": "EFOECCBHIAL",
          "coopNodeId": 58,
          "coopNodeType": "COOP_NODE_TALK",
          "nextNodeArray": [
            59
          ],
          "talkConfig": {
            "id": 58,
            "performCfg": "QuestDialogue/COOP/Coop101401/Q19009031",
            "loadType": "TALK_COOP",
            "questId": 19009,
            "assetIndex": 2886020675696427350,
            "prePerformCfg": ""
          },
          "BJNJIOHKNPL": 48
        },
        "316": {
          "$type": "BEMIGNHPIPC",
          "coopNodeId": 316,
          "coopNodeType": "COOP_NODE_ACTION",
          "nextNodeArray": [
            62
          ],
          "actionList": [
            {
              "actionType": "COOP_ACTION_CONFIDENCE_MINUS",
              "param": [
                1
              ]
            }
          ]
        },
        "62": {
          "$type": "EFOECCBHIAL",
          "coopNodeId": 62,
          "coopNodeType": "COOP_NODE_TALK",
          "nextNodeArray": [
            64
          ],
          "talkConfig": {
            "id": 62,
            "performCfg": "QuestDialogue/COOP/Coop101401/Q19009032",
            "loadType": "TALK_COOP",
            "questId": 19009,
            "assetIndex": 6609257118536800375,
            "prePerformCfg": ""
          },
          "BJNJIOHKNPL": 8
        },
        "64": {
          "$type": "COBBCENKLHN",
          "coopNodeId": 64,
          "coopNodeType": "COOP_NODE_END",
          "savePointId": 90301
        },
        "63": {
          "$type": "EFOECCBHIAL",
          "coopNodeId": 63,
          "coopNodeType": "COOP_NODE_TALK",
          "nextNodeArray": [
            65
          ],
          "talkConfig": {
            "id": 63,
            "performCfg": "QuestDialogue/COOP/Coop101401/Q19009033",
            "loadType": "TALK_COOP",
            "questId": 19009,
            "assetIndex": 12593615963045923998,
            "prePerformCfg": ""
          },
          "BJNJIOHKNPL": 9
        },
        "65": {
          "$type": "COBBCENKLHN",
          "coopNodeId": 65,
          "coopNodeType": "COOP_NODE_END",
          "savePointId": 90302
        },
        "321": {
          "$type": "EFOECCBHIAL",
          "coopNodeId": 321,
          "coopNodeType": "COOP_NODE_TALK",
          "nextNodeArray": [
            320
          ],
          "talkConfig": {
            "id": 321,
            "performCfg": "QuestDialogue/COOP/Coop101401/Q19009001",
            "loadType": "TALK_COOP",
            "questId": 19009,
            "assetIndex": 10342302078645329203,
            "prePerformCfg": ""
          },
          "BJNJIOHKNPL": 44
        },
        "320": {
          "$type": "COBBCENKLHN",
          "coopNodeId": 320,
          "coopNodeType": "COOP_NODE_END",
          "savePointId": 205
        }
      },
      "startNodeId": 58,
      "failNodeId": 321,
      "DHLONCAIIEC": true
    },
    "1900904": {
      "id": 1900904,
      "coopMap": {
        "68": {
          "$type": "PPJHAFFOIOK",
          "coopNodeId": 68,
          "coopNodeType": "COOP_NODE_SELECT",
          "nextNodeArray": [
            317,
            70
          ],
          "selectList": [
            {
              "dialogId": 1900904191,
              "hideCond": {},
              "enableCond": {}
            },
            {
              "dialogId": 1900904192,
              "hideCond": {},
              "enableCond": {}
            }
          ]
        },
        "66": {
          "$type": "EFOECCBHIAL",
          "coopNodeId": 66,
          "coopNodeType": "COOP_NODE_TALK",
          "nextNodeArray": [
            68
          ],
          "talkConfig": {
            "id": 66,
            "performCfg": "QuestDialogue/COOP/Coop101401/Q19009041",
            "loadType": "TALK_COOP",
            "questId": 19009,
            "assetIndex": 8421664001071791143,
            "prePerformCfg": ""
          },
          "BJNJIOHKNPL": 49
        },
        "317": {
          "$type": "BEMIGNHPIPC",
          "coopNodeId": 317,
          "coopNodeType": "COOP_NODE_ACTION",
          "nextNodeArray": [
            71
          ],
          "actionList": [
            {
              "actionType": "COOP_ACTION_CONFIDENCE_MINUS",
              "param": [
                1
              ]
            }
          ]
        },
        "71": {
          "$type": "EFOECCBHIAL",
          "coopNodeId": 71,
          "coopNodeType": "COOP_NODE_TALK",
          "nextNodeArray": [
            73
          ],
          "talkConfig": {
            "id": 71,
            "performCfg": "QuestDialogue/COOP/Coop101401/Q19009042",
            "loadType": "TALK_COOP",
            "questId": 19009,
            "assetIndex": 14460341470177287157,
            "prePerformCfg": ""
          },
          "BJNJIOHKNPL": 11
        },
        "73": {
          "$type": "COBBCENKLHN",
          "coopNodeId": 73,
          "coopNodeType": "COOP_NODE_END",
          "savePointId": 90401
        },
        "70": {
          "$type": "EFOECCBHIAL",
          "coopNodeId": 70,
          "coopNodeType": "COOP_NODE_TALK",
          "nextNodeArray": [
            72
          ],
          "talkConfig": {
            "id": 70,
            "performCfg": "QuestDialogue/COOP/Coop101401/Q19009043",
            "loadType": "TALK_COOP",
            "questId": 19009,
            "assetIndex": 14292498707677913653,
            "prePerformCfg": ""
          },
          "BJNJIOHKNPL": 10
        },
        "72": {
          "$type": "COBBCENKLHN",
          "coopNodeId": 72,
          "coopNodeType": "COOP_NODE_END",
          "savePointId": 90402
        },
        "323": {
          "$type": "EFOECCBHIAL",
          "coopNodeId": 323,
          "coopNodeType": "COOP_NODE_TALK",
          "nextNodeArray": [
            322
          ],
          "talkConfig": {
            "id": 323,
            "performCfg": "QuestDialogue/COOP/Coop101401/Q19009001",
            "loadType": "TALK_COOP",
            "questId": 19009,
            "assetIndex": 940768613397607619,
            "prePerformCfg": ""
          },
          "BJNJIOHKNPL": 45
        },
        "322": {
          "$type": "COBBCENKLHN",
          "coopNodeId": 322,
          "coopNodeType": "COOP_NODE_END",
          "savePointId": 206
        }
      },
      "startNodeId": 66,
      "failNodeId": 323,
      "DHLONCAIIEC": true
    },
    "1900902": {
      "id": 1900902,
      "coopMap": {
        "75": {
          "$type": "PPJHAFFOIOK",
          "coopNodeId": 75,
          "coopNodeType": "COOP_NODE_SELECT",
          "nextNodeArray": [
            315,
            79
          ],
          "selectList": [
            {
              "dialogId": 1900902191,
              "hideCond": {},
              "enableCond": {}
            },
            {
              "dialogId": 1900902192,
              "hideCond": {},
              "enableCond": {}
            }
          ]
        },
        "74": {
          "$type": "EFOECCBHIAL",
          "coopNodeId": 74,
          "coopNodeType": "COOP_NODE_TALK",
          "nextNodeArray": [
            75
          ],
          "talkConfig": {
            "id": 74,
            "performCfg": "QuestDialogue/COOP/Coop101401/Q19009021",
            "loadType": "TALK_COOP",
            "questId": 19009,
            "assetIndex": 15222887036078895593,
            "prePerformCfg": ""
          },
          "BJNJIOHKNPL": 50
        },
        "315": {
          "$type": "BEMIGNHPIPC",
          "coopNodeId": 315,
          "coopNodeType": "COOP_NODE_ACTION",
          "nextNodeArray": [
            78
          ],
          "actionList": [
            {
              "actionType": "COOP_ACTION_CONFIDENCE_MINUS",
              "param": [
                1
              ]
            }
          ]
        },
        "78": {
          "$type": "EFOECCBHIAL",
          "coopNodeId": 78,
          "coopNodeType": "COOP_NODE_TALK",
          "nextNodeArray": [
            80
          ],
          "talkConfig": {
            "id": 78,
            "performCfg": "QuestDialogue/COOP/Coop101401/Q19009022",
            "loadType": "TALK_COOP",
            "questId": 19009,
            "assetIndex": 17555476679384294983,
            "prePerformCfg": ""
          },
          "BJNJIOHKNPL": 12
        },
        "80": {
          "$type": "COBBCENKLHN",
          "coopNodeId": 80,
          "coopNodeType": "COOP_NODE_END",
          "savePointId": 90201
        },
        "79": {
          "$type": "EFOECCBHIAL",
          "coopNodeId": 79,
          "coopNodeType": "COOP_NODE_TALK",
          "nextNodeArray": [
            81
          ],
          "talkConfig": {
            "id": 79,
            "performCfg": "QuestDialogue/COOP/Coop101401/Q19009023",
            "loadType": "TALK_COOP",
            "questId": 19009,
            "assetIndex": 6004823482588756478,
            "prePerformCfg": ""
          },
          "BJNJIOHKNPL": 13
        },
        "81": {
          "$type": "COBBCENKLHN",
          "coopNodeId": 81,
          "coopNodeType": "COOP_NODE_END",
          "savePointId": 90202
        },
        "319": {
          "$type": "EFOECCBHIAL",
          "coopNodeId": 319,
          "coopNodeType": "COOP_NODE_TALK",
          "nextNodeArray": [
            318
          ],
          "talkConfig": {
            "id": 319,
            "performCfg": "QuestDialogue/COOP/Coop101401/Q19009001",
            "loadType": "TALK_COOP",
            "questId": 19009,
            "assetIndex": 2614415255143425375,
            "prePerformCfg": ""
          },
          "BJNJIOHKNPL": 43
        },
        "318": {
          "$type": "COBBCENKLHN",
          "coopNodeId": 318,
          "coopNodeType": "COOP_NODE_END",
          "savePointId": 204
        }
      },
      "startNodeId": 74,
      "failNodeId": 319,
      "DHLONCAIIEC": true
    },
    "1900104": {
      "id": 1900104,
      "coopMap": {
        "91": {
          "$type": "EFOECCBHIAL",
          "coopNodeId": 91,
          "coopNodeType": "COOP_NODE_TALK",
          "nextNodeArray": [
            90
          ],
          "talkConfig": {
            "id": 91,
            "performCfg": "QuestDialogue/COOP/Coop101401/Q19001041",
            "loadType": "TALK_COOP",
            "questId": 19001,
            "assetIndex": 3137229122723412483,
            "prePerformCfg": ""
          },
          "BJNJIOHKNPL": 14
        },
        "90": {
          "$type": "COBBCENKLHN",
          "coopNodeId": 90,
          "coopNodeType": "COOP_NODE_END",
          "savePointId": 10401
        }
      },
      "startNodeId": 91,
      "DHLONCAIIEC": true
    },
    "1900303": {
      "id": 1900303,
      "coopMap": {
        "153": {
          "$type": "PPJHAFFOIOK",
          "coopNodeId": 153,
          "coopNodeType": "COOP_NODE_SELECT",
          "nextNodeArray": [
            155,
            156
          ],
          "selectList": [
            {
              "dialogId": 1900303192,
              "hideCond": {},
              "enableCond": {}
            },
            {
              "dialogId": 1900303191,
              "hideCond": {},
              "enableCond": {}
            }
          ]
        },
        "28": {
          "$type": "EFOECCBHIAL",
          "coopNodeId": 28,
          "coopNodeType": "COOP_NODE_TALK",
          "nextNodeArray": [
            153
          ],
          "talkConfig": {
            "id": 28,
            "performCfg": "QuestDialogue/COOP/Coop101401/Q19003031",
            "loadType": "TALK_COOP",
            "questId": 19003,
            "assetIndex": 10061216397117411337,
            "prePerformCfg": ""
          },
          "BJNJIOHKNPL": 53
        },
        "155": {
          "$type": "EFOECCBHIAL",
          "coopNodeId": 155,
          "coopNodeType": "COOP_NODE_TALK",
          "nextNodeArray": [
            161
          ],
          "talkConfig": {
            "id": 155,
            "performCfg": "QuestDialogue/COOP/Coop101401/Q19003033",
            "loadType": "TALK_COOP",
            "questId": 19003,
            "assetIndex": 17843742909994989994,
            "prePerformCfg": ""
          },
          "BJNJIOHKNPL": 23
        },
        "161": {
          "$type": "COBBCENKLHN",
          "coopNodeId": 161,
          "coopNodeType": "COOP_NODE_END",
          "savePointId": 30301
        },
        "157": {
          "$type": "PPJHAFFOIOK",
          "coopNodeId": 157,
          "coopNodeType": "COOP_NODE_SELECT",
          "nextNodeArray": [
            159,
            160
          ],
          "selectList": [
            {
              "dialogId": 1900303291,
              "hideCond": {},
              "enableCond": {}
            },
            {
              "dialogId": 1900303292,
              "hideCond": {},
              "enableCond": {}
            }
          ]
        },
        "156": {
          "$type": "EFOECCBHIAL",
          "coopNodeId": 156,
          "coopNodeType": "COOP_NODE_TALK",
          "nextNodeArray": [
            157
          ],
          "talkConfig": {
            "id": 156,
            "performCfg": "QuestDialogue/COOP/Coop101401/Q19003032",
            "loadType": "TALK_COOP",
            "questId": 19003,
            "assetIndex": 6116084528084303238,
            "prePerformCfg": ""
          },
          "BJNJIOHKNPL": 54
        },
        "159": {
          "$type": "EFOECCBHIAL",
          "coopNodeId": 159,
          "coopNodeType": "COOP_NODE_TALK",
          "nextNodeArray": [
            162
          ],
          "talkConfig": {
            "id": 159,
            "performCfg": "QuestDialogue/COOP/Coop101401/Q19003034",
            "loadType": "TALK_COOP",
            "questId": 19003,
            "assetIndex": 13097427528157763741,
            "prePerformCfg": ""
          },
          "BJNJIOHKNPL": 24
        },
        "162": {
          "$type": "COBBCENKLHN",
          "coopNodeId": 162,
          "coopNodeType": "COOP_NODE_END",
          "savePointId": 30302
        },
        "160": {
          "$type": "EFOECCBHIAL",
          "coopNodeId": 160,
          "coopNodeType": "COOP_NODE_TALK",
          "nextNodeArray": [
            163
          ],
          "talkConfig": {
            "id": 160,
            "performCfg": "QuestDialogue/COOP/Coop101401/Q19003035",
            "loadType": "TALK_COOP",
            "questId": 19003,
            "assetIndex": 9275657634458258544,
            "prePerformCfg": ""
          },
          "BJNJIOHKNPL": 25
        },
        "163": {
          "$type": "COBBCENKLHN",
          "coopNodeId": 163,
          "coopNodeType": "COOP_NODE_END",
          "savePointId": 30303
        }
      },
      "startNodeId": 28,
      "DHLONCAIIEC": true
    },
    "1900201": {
      "id": 1900201,
      "coopMap": {
        "122": {
          "$type": "PPJHAFFOIOK",
          "coopNodeId": 122,
          "coopNodeType": "COOP_NODE_SELECT",
          "nextNodeArray": [
            124,
            126
          ],
          "selectList": [
            {
              "dialogId": 1900201191,
              "hideCond": {},
              "enableCond": {}
            },
            {
              "dialogId": 1900201192,
              "hideCond": {},
              "enableCond": {}
            }
          ]
        },
        "121": {
          "$type": "EFOECCBHIAL",
          "coopNodeId": 121,
          "coopNodeType": "COOP_NODE_TALK",
          "nextNodeArray": [
            122
          ],
          "talkConfig": {
            "id": 121,
            "performCfg": "QuestDialogue/COOP/Coop101401/Q19002011",
            "loadType": "TALK_COOP",
            "questId": 19002,
            "assetIndex": 5064277708365607204,
            "prePerformCfg": ""
          },
          "BJNJIOHKNPL": 52
        },
        "124": {
          "$type": "EFOECCBHIAL",
          "coopNodeId": 124,
          "coopNodeType": "COOP_NODE_TALK",
          "nextNodeArray": [
            234
          ],
          "talkConfig": {
            "id": 124,
            "performCfg": "QuestDialogue/COOP/Coop101401/Q19002012",
            "loadType": "TALK_COOP",
            "questId": 19002,
            "assetIndex": 8597028681835653578,
            "prePerformCfg": ""
          },
          "BJNJIOHKNPL": 58
        },
        "235": {
          "$type": "PPJHAFFOIOK",
          "coopNodeId": 235,
          "coopNodeType": "COOP_NODE_SELECT",
          "nextNodeArray": [
            287,
            288,
            290
          ],
          "selectList": [
            {
              "dialogId": 1900201491,
              "hideCond": {},
              "enableCond": {}
            },
            {
              "dialogId": 1900201492,
              "hideCond": {},
              "enableCond": {}
            },
            {
              "dialogId": 1900201493,
              "hideCond": {},
              "enableCond": {}
            }
          ]
        },
        "234": {
          "$type": "EFOECCBHIAL",
          "coopNodeId": 234,
          "coopNodeType": "COOP_NODE_TALK",
          "nextNodeArray": [
            235
          ],
          "talkConfig": {
            "id": 234,
            "performCfg": "QuestDialogue/COOP/Coop101401/Q19002014",
            "loadType": "TALK_COOP",
            "questId": 19002,
            "assetIndex": 11545213616117516979,
            "prePerformCfg": ""
          },
          "BJNJIOHKNPL": 58
        },
        "287": {
          "$type": "BEMIGNHPIPC",
          "coopNodeId": 287,
          "coopNodeType": "COOP_NODE_ACTION",
          "nextNodeArray": [
            238
          ],
          "actionList": [
            {
              "actionType": "COOP_ACTION_TEMP_VALUE_ADD",
              "param": [
                3,
                0
              ]
            }
          ]
        },
        "238": {
          "$type": "EFOECCBHIAL",
          "coopNodeId": 238,
          "coopNodeType": "COOP_NODE_TALK",
          "nextNodeArray": [
            246
          ],
          "talkConfig": {
            "id": 238,
            "performCfg": "QuestDialogue/COOP/Coop101401/Q1900201501",
            "loadType": "TALK_COOP",
            "questId": 19002,
            "assetIndex": 10865412582135895436,
            "prePerformCfg": ""
          },
          "BJNJIOHKNPL": 59
        },
        "250": {
          "$type": "PPJHAFFOIOK",
          "coopNodeId": 250,
          "coopNodeType": "COOP_NODE_SELECT",
          "nextNodeArray": [
            297,
            293,
            292
          ],
          "selectList": [
            {
              "dialogId": 1900201591,
              "hideCond": {},
              "enableCond": {}
            },
            {
              "dialogId": 1900201592,
              "hideCond": {},
              "enableCond": {}
            },
            {
              "dialogId": 1900201593,
              "hideCond": {},
              "enableCond": {}
            }
          ]
        },
        "246": {
          "$type": "EFOECCBHIAL",
          "coopNodeId": 246,
          "coopNodeType": "COOP_NODE_TALK",
          "nextNodeArray": [
            250
          ],
          "talkConfig": {
            "id": 246,
            "performCfg": "QuestDialogue/COOP/Coop101401/Q1900201504",
            "loadType": "TALK_COOP",
            "questId": 19002,
            "assetIndex": 15198772639834928705,
            "prePerformCfg": ""
          },
          "BJNJIOHKNPL": 59
        },
        "297": {
          "$type": "BEMIGNHPIPC",
          "coopNodeId": 297,
          "coopNodeType": "COOP_NODE_ACTION",
          "nextNodeArray": [
            255
          ],
          "actionList": [
            {
              "actionType": "COOP_ACTION_TEMP_VALUE_ADD",
              "param": [
                3,
                1
              ]
            }
          ]
        },
        "255": {
          "$type": "EFOECCBHIAL",
          "coopNodeId": 255,
          "coopNodeType": "COOP_NODE_TALK",
          "nextNodeArray": [
            248
          ],
          "talkConfig": {
            "id": 255,
            "performCfg": "QuestDialogue/COOP/Coop101401/Q1900201601",
            "loadType": "TALK_COOP",
            "questId": 19002,
            "assetIndex": 6971701596363060604,
            "prePerformCfg": ""
          },
          "BJNJIOHKNPL": 60
        },
        "260": {
          "$type": "PPJHAFFOIOK",
          "coopNodeId": 260,
          "coopNodeType": "COOP_NODE_SELECT",
          "nextNodeArray": [
            294,
            295,
            296
          ],
          "selectList": [
            {
              "dialogId": 1900201691,
              "hideCond": {},
              "enableCond": {}
            },
            {
              "dialogId": 1900201692,
              "hideCond": {},
              "enableCond": {}
            },
            {
              "dialogId": 1900201693,
              "hideCond": {},
              "enableCond": {}
            }
          ]
        },
        "248": {
          "$type": "EFOECCBHIAL",
          "coopNodeId": 248,
          "coopNodeType": "COOP_NODE_TALK",
          "nextNodeArray": [
            260
          ],
          "talkConfig": {
            "id": 248,
            "performCfg": "QuestDialogue/COOP/Coop101401/Q1900201604",
            "loadType": "TALK_COOP",
            "questId": 19002,
            "assetIndex": 11341436309605658784,
            "prePerformCfg": ""
          },
          "BJNJIOHKNPL": 60
        },
        "294": {
          "$type": "BEMIGNHPIPC",
          "coopNodeId": 294,
          "coopNodeType": "COOP_NODE_ACTION",
          "nextNodeArray": [
            257
          ],
          "actionList": [
            {
              "actionType": "COOP_ACTION_TEMP_VALUE_MINUS",
              "param": [
                3,
                1
              ]
            }
          ]
        },
        "257": {
          "$type": "EFOECCBHIAL",
          "coopNodeId": 257,
          "coopNodeType": "COOP_NODE_TALK",
          "nextNodeArray": [
            267
          ],
          "talkConfig": {
            "id": 257,
            "performCfg": "QuestDialogue/COOP/Coop101401/Q1900201701",
            "loadType": "TALK_COOP",
            "questId": 19002,
            "assetIndex": 11543658978763558003,
            "prePerformCfg": ""
          },
          "BJNJIOHKNPL": 62
        },
        "267": {
          "$type": "BFGLIPPHAJP",
          "coopNodeId": 267,
          "coopNodeType": "COOP_NODE_COND",
          "nextNodeArray": [
            272,
            273
          ],
          "coopCondGrp": {
            "coopCondList": [
              {
                "damageRatio": "COOP_COND_TEMP_VALUE_COMPARE",
                "param": [
                  4,
                  3,
                  4
                ]
              }
            ]
          }
        },
        "272": {
          "$type": "EFOECCBHIAL",
          "coopNodeId": 272,
          "coopNodeType": "COOP_NODE_TALK",
          "nextNodeArray": [
            141
          ],
          "talkConfig": {
            "id": 272,
            "performCfg": "QuestDialogue/COOP/Coop101401/Q19002019",
            "loadType": "TALK_COOP",
            "questId": 19002,
            "assetIndex": 14617151056179973620,
            "prePerformCfg": ""
          },
          "BJNJIOHKNPL": 19
        },
        "141": {
          "$type": "COBBCENKLHN",
          "coopNodeId": 141,
          "coopNodeType": "COOP_NODE_END",
          "savePointId": 20102
        },
        "273": {
          "$type": "EFOECCBHIAL",
          "coopNodeId": 273,
          "coopNodeType": "COOP_NODE_TALK",
          "nextNodeArray": [
            140
          ],
          "talkConfig": {
            "id": 273,
            "performCfg": "QuestDialogue/COOP/Coop101401/Q19002018",
            "loadType": "TALK_COOP",
            "questId": 19002,
            "assetIndex": 8114981486190466436,
            "prePerformCfg": ""
          },
          "BJNJIOHKNPL": 18
        },
        "140": {
          "$type": "COBBCENKLHN",
          "coopNodeId": 140,
          "coopNodeType": "COOP_NODE_END",
          "savePointId": 20101
        },
        "295": {
          "$type": "BEMIGNHPIPC",
          "coopNodeId": 295,
          "coopNodeType": "COOP_NODE_ACTION",
          "nextNodeArray": [
            258
          ],
          "actionList": [
            {
              "actionType": "COOP_ACTION_TEMP_VALUE_ADD",
              "param": [
                3,
                0
              ]
            }
          ]
        },
        "258": {
          "$type": "EFOECCBHIAL",
          "coopNodeId": 258,
          "coopNodeType": "COOP_NODE_TALK",
          "nextNodeArray": [
            267
          ],
          "talkConfig": {
            "id": 258,
            "performCfg": "QuestDialogue/COOP/Coop101401/Q1900201702",
            "loadType": "TALK_COOP",
            "questId": 19002,
            "assetIndex": 9054518658045911948,
            "prePerformCfg": ""
          },
          "BJNJIOHKNPL": 63
        },
        "296": {
          "$type": "BEMIGNHPIPC",
          "coopNodeId": 296,
          "coopNodeType": "COOP_NODE_ACTION",
          "nextNodeArray": [
            263
          ],
          "actionList": [
            {
              "actionType": "COOP_ACTION_TEMP_VALUE_ADD",
              "param": [
                3,
                1
              ]
            }
          ]
        },
        "263": {
          "$type": "EFOECCBHIAL",
          "coopNodeId": 263,
          "coopNodeType": "COOP_NODE_TALK",
          "nextNodeArray": [
            267
          ],
          "talkConfig": {
            "id": 263,
            "performCfg": "QuestDialogue/COOP/Coop101401/Q1900201703",
            "loadType": "TALK_COOP",
            "questId": 19002,
            "assetIndex": 10866755145240417758,
            "prePerformCfg": ""
          },
          "BJNJIOHKNPL": 64
        },
        "293": {
          "$type": "BEMIGNHPIPC",
          "coopNodeId": 293,
          "coopNodeType": "COOP_NODE_ACTION",
          "nextNodeArray": [
            256
          ],
          "actionList": [
            {
              "actionType": "COOP_ACTION_TEMP_VALUE_MINUS",
              "param": [
                3,
                1
              ]
            }
          ]
        },
        "256": {
          "$type": "EFOECCBHIAL",
          "coopNodeId": 256,
          "coopNodeType": "COOP_NODE_TALK",
          "nextNodeArray": [
            248
          ],
          "talkConfig": {
            "id": 256,
            "performCfg": "QuestDialogue/COOP/Coop101401/Q1900201602",
            "loadType": "TALK_COOP",
            "questId": 19002,
            "assetIndex": 12549676825751861148,
            "prePerformCfg": ""
          },
          "BJNJIOHKNPL": 60
        },
        "292": {
          "$type": "BEMIGNHPIPC",
          "coopNodeId": 292,
          "coopNodeType": "COOP_NODE_ACTION",
          "nextNodeArray": [
            253
          ],
          "actionList": [
            {
              "actionType": "COOP_ACTION_TEMP_VALUE_ADD",
              "param": [
                3,
                0
              ]
            }
          ]
        },
        "253": {
          "$type": "EFOECCBHIAL",
          "coopNodeId": 253,
          "coopNodeType": "COOP_NODE_TALK",
          "nextNodeArray": [
            248
          ],
          "talkConfig": {
            "id": 253,
            "performCfg": "QuestDialogue/COOP/Coop101401/Q1900201603",
            "loadType": "TALK_COOP",
            "questId": 19002,
            "assetIndex": 1124956640305857038,
            "prePerformCfg": ""
          },
          "BJNJIOHKNPL": 60
        },
        "288": {
          "$type": "BEMIGNHPIPC",
          "coopNodeId": 288,
          "coopNodeType": "COOP_NODE_ACTION",
          "nextNodeArray": [
            239
          ],
          "actionList": [
            {
              "actionType": "COOP_ACTION_TEMP_VALUE_MINUS",
              "param": [
                3,
                1
              ]
            }
          ]
        },
        "239": {
          "$type": "EFOECCBHIAL",
          "coopNodeId": 239,
          "coopNodeType": "COOP_NODE_TALK",
          "nextNodeArray": [
            246
          ],
          "talkConfig": {
            "id": 239,
            "performCfg": "QuestDialogue/COOP/Coop101401/Q1900201502",
            "loadType": "TALK_COOP",
            "questId": 19002,
            "assetIndex": 9411199272974578295,
            "prePerformCfg": ""
          },
          "BJNJIOHKNPL": 59
        },
        "290": {
          "$type": "BEMIGNHPIPC",
          "coopNodeId": 290,
          "coopNodeType": "COOP_NODE_ACTION",
          "nextNodeArray": [
            240
          ],
          "actionList": [
            {
              "actionType": "COOP_ACTION_TEMP_VALUE_ADD",
              "param": [
                3,
                1
              ]
            }
          ]
        },
        "240": {
          "$type": "EFOECCBHIAL",
          "coopNodeId": 240,
          "coopNodeType": "COOP_NODE_TALK",
          "nextNodeArray": [
            246
          ],
          "talkConfig": {
            "id": 240,
            "performCfg": "QuestDialogue/COOP/Coop101401/Q1900201503",
            "loadType": "TALK_COOP",
            "questId": 19002,
            "assetIndex": 4748731492243334331,
            "prePerformCfg": ""
          },
          "BJNJIOHKNPL": 59
        },
        "126": {
          "$type": "EFOECCBHIAL",
          "coopNodeId": 126,
          "coopNodeType": "COOP_NODE_TALK",
          "nextNodeArray": [
            234
          ],
          "talkConfig": {
            "id": 126,
            "performCfg": "QuestDialogue/COOP/Coop101401/Q19002013",
            "loadType": "TALK_COOP",
            "questId": 19002,
            "assetIndex": 8442065694489508109,
            "prePerformCfg": ""
          },
          "BJNJIOHKNPL": 58
        }
      },
      "startNodeId": 121,
      "DHLONCAIIEC": true
    },
    "1900202": {
      "id": 1900202,
      "coopMap": {
        "142": {
          "$type": "EFOECCBHIAL",
          "coopNodeId": 142,
          "coopNodeType": "COOP_NODE_TALK",
          "nextNodeArray": [
            145
          ],
          "talkConfig": {
            "id": 142,
            "performCfg": "QuestDialogue/COOP/Coop101401/Q19002021",
            "loadType": "TALK_COOP",
            "questId": 19002,
            "assetIndex": 7253636299906545697,
            "prePerformCfg": ""
          },
          "BJNJIOHKNPL": 20
        },
        "145": {
          "$type": "COBBCENKLHN",
          "coopNodeId": 145,
          "coopNodeType": "COOP_NODE_END",
          "savePointId": 101
        }
      },
      "startNodeId": 142,
      "DHLONCAIIEC": true
    },
    "1900203": {
      "id": 1900203,
      "coopMap": {
        "146": {
          "$type": "EFOECCBHIAL",
          "coopNodeId": 146,
          "coopNodeType": "COOP_NODE_TALK",
          "nextNodeArray": [
            149
          ],
          "talkConfig": {
            "id": 146,
            "performCfg": "QuestDialogue/COOP/Coop101401/Q19002031",
            "loadType": "TALK_COOP",
            "questId": 19002,
            "assetIndex": 18251837821956487669,
            "prePerformCfg": ""
          },
          "BJNJIOHKNPL": 21
        },
        "149": {
          "$type": "COBBCENKLHN",
          "coopNodeId": 149,
          "coopNodeType": "COOP_NODE_END",
          "savePointId": 20301
        }
      },
      "startNodeId": 146,
      "DHLONCAIIEC": true
    },
    "1900401": {
      "id": 1900401,
      "coopMap": {
        "165": {
          "$type": "EFOECCBHIAL",
          "coopNodeId": 165,
          "coopNodeType": "COOP_NODE_TALK",
          "nextNodeArray": [
            164
          ],
          "talkConfig": {
            "id": 165,
            "performCfg": "QuestDialogue/COOP/Coop101401/Q19004011",
            "loadType": "TALK_COOP",
            "questId": 19004,
            "assetIndex": 4389171001944653346,
            "prePerformCfg": ""
          },
          "BJNJIOHKNPL": 26
        },
        "164": {
          "$type": "COBBCENKLHN",
          "coopNodeId": 164,
          "coopNodeType": "COOP_NODE_END",
          "savePointId": 40101
        }
      },
      "startNodeId": 165,
      "DHLONCAIIEC": true
    },
    "1900402": {
      "id": 1900402,
      "coopMap": {
        "168": {
          "$type": "EFOECCBHIAL",
          "coopNodeId": 168,
          "coopNodeType": "COOP_NODE_TALK",
          "nextNodeArray": [
            175
          ],
          "talkConfig": {
            "id": 168,
            "performCfg": "QuestDialogue/COOP/Coop101401/Q19004021",
            "loadType": "TALK_COOP",
            "questId": 19004,
            "assetIndex": 7597426306157609491,
            "prePerformCfg": ""
          },
          "BJNJIOHKNPL": 27
        },
        "175": {
          "$type": "COBBCENKLHN",
          "coopNodeId": 175,
          "coopNodeType": "COOP_NODE_END",
          "savePointId": 40201
        }
      },
      "startNodeId": 168,
      "DHLONCAIIEC": true
    },
    "1900501": {
      "id": 1900501,
      "coopMap": {
        "188": {
          "$type": "PPJHAFFOIOK",
          "coopNodeId": 188,
          "coopNodeType": "COOP_NODE_SELECT",
          "nextNodeArray": [
            186,
            189,
            190
          ],
          "selectList": [
            {
              "dialogId": 1900501191,
              "hideCond": {},
              "enableCond": {}
            },
            {
              "dialogId": 1900501192,
              "hideCond": {},
              "enableCond": {}
            },
            {
              "dialogId": 1900501193,
              "hideCond": {},
              "enableCond": {}
            }
          ]
        },
        "180": {
          "$type": "EFOECCBHIAL",
          "coopNodeId": 180,
          "coopNodeType": "COOP_NODE_TALK",
          "nextNodeArray": [
            188
          ],
          "talkConfig": {
            "id": 180,
            "performCfg": "QuestDialogue/COOP/Coop101401/Q19005011",
            "loadType": "TALK_COOP",
            "questId": 19005,
            "assetIndex": 2078175838128494937,
            "prePerformCfg": ""
          },
          "BJNJIOHKNPL": 55
        },
        "189": {
          "$type": "EFOECCBHIAL",
          "coopNodeId": 189,
          "coopNodeType": "COOP_NODE_TALK",
          "nextNodeArray": [
            185
          ],
          "talkConfig": {
            "id": 189,
            "performCfg": "QuestDialogue/COOP/Coop101401/Q19005013",
            "loadType": "TALK_COOP",
            "questId": 19005,
            "assetIndex": 3693185606566793912,
            "prePerformCfg": ""
          },
          "BJNJIOHKNPL": 29
        },
        "185": {
          "$type": "BEMIGNHPIPC",
          "coopNodeId": 185,
          "coopNodeType": "COOP_NODE_ACTION",
          "nextNodeArray": [
            191
          ],
          "actionList": [
            {
              "actionType": "COOP_ACTION_CONFIDENCE_MINUS",
              "param": [
                5
              ]
            }
          ]
        },
        "191": {
          "$type": "COBBCENKLHN",
          "coopNodeId": 191,
          "coopNodeType": "COOP_NODE_END",
          "savePointId": 50101
        },
        "190": {
          "$type": "EFOECCBHIAL",
          "coopNodeId": 190,
          "coopNodeType": "COOP_NODE_TALK",
          "nextNodeArray": [
            192
          ],
          "talkConfig": {
            "id": 190,
            "performCfg": "QuestDialogue/COOP/Coop101401/Q19005014",
            "loadType": "TALK_COOP",
            "questId": 19005,
            "assetIndex": 8228944684391661045,
            "prePerformCfg": ""
          },
          "BJNJIOHKNPL": 31
        },
        "192": {
          "$type": "COBBCENKLHN",
          "coopNodeId": 192,
          "coopNodeType": "COOP_NODE_END",
          "savePointId": 50102
        },
        "186": {
          "$type": "EFOECCBHIAL",
          "coopNodeId": 186,
          "coopNodeType": "COOP_NODE_TALK",
          "nextNodeArray": [
            191
          ],
          "talkConfig": {
            "id": 186,
            "performCfg": "QuestDialogue/COOP/Coop101401/Q19005012",
            "loadType": "TALK_COOP",
            "questId": 19005,
            "assetIndex": 15618046905015657385,
            "prePerformCfg": ""
          },
          "BJNJIOHKNPL": 30
        },
        "179": {
          "$type": "EFOECCBHIAL",
          "coopNodeId": 179,
          "coopNodeType": "COOP_NODE_TALK",
          "nextNodeArray": [
            181
          ],
          "talkConfig": {
            "id": 179,
            "performCfg": "QuestDialogue/COOP/Coop101401/Q19005001",
            "loadType": "TALK_COOP",
            "questId": 19005,
            "assetIndex": 16126200731928375945,
            "prePerformCfg": ""
          },
          "BJNJIOHKNPL": 28
        },
        "181": {
          "$type": "COBBCENKLHN",
          "coopNodeId": 181,
          "coopNodeType": "COOP_NODE_END",
          "savePointId": 202
        }
      },
      "startNodeId": 180,
      "failNodeId": 179,
      "DHLONCAIIEC": true
    },
    "1900502": {
      "id": 1900502,
      "coopMap": {
        "194": {
          "$type": "EFOECCBHIAL",
          "coopNodeId": 194,
          "coopNodeType": "COOP_NODE_TALK",
          "nextNodeArray": [
            196
          ],
          "talkConfig": {
            "id": 194,
            "performCfg": "QuestDialogue/COOP/Coop101401/Q19005021",
            "loadType": "TALK_COOP",
            "questId": 19005,
            "assetIndex": 14553886250092675436,
            "prePerformCfg": ""
          },
          "BJNJIOHKNPL": 32
        },
        "196": {
          "$type": "COBBCENKLHN",
          "coopNodeId": 196,
          "coopNodeType": "COOP_NODE_END",
          "savePointId": 102
        }
      },
      "startNodeId": 194,
      "DHLONCAIIEC": true
    },
    "1900504": {
      "id": 1900504,
      "coopMap": {
        "201": {
          "$type": "EFOECCBHIAL",
          "coopNodeId": 201,
          "coopNodeType": "COOP_NODE_TALK",
          "nextNodeArray": [
            204
          ],
          "talkConfig": {
            "id": 201,
            "performCfg": "QuestDialogue/COOP/Coop101401/Q19005041",
            "loadType": "TALK_COOP",
            "questId": 19005,
            "assetIndex": 17441132805089184217,
            "prePerformCfg": "",
            "lockGameTime": true
          },
          "BJNJIOHKNPL": 33
        },
        "204": {
          "$type": "COBBCENKLHN",
          "coopNodeId": 204,
          "coopNodeType": "COOP_NODE_END",
          "savePointId": 103
        }
      },
      "startNodeId": 201,
      "DHLONCAIIEC": true
    },
    "1900601": {
      "id": 1900601,
      "coopMap": {
        "208": {
          "$type": "PPJHAFFOIOK",
          "coopNodeId": 208,
          "coopNodeType": "COOP_NODE_SELECT",
          "nextNodeArray": [
            210,
            211
          ],
          "selectList": [
            {
              "dialogId": 1900601191,
              "hideCond": {},
              "enableCond": {}
            },
            {
              "dialogId": 1900601192,
              "hideCond": {},
              "enableCond": {}
            }
          ]
        },
        "206": {
          "$type": "EFOECCBHIAL",
          "coopNodeId": 206,
          "coopNodeType": "COOP_NODE_TALK",
          "nextNodeArray": [
            208
          ],
          "talkConfig": {
            "id": 206,
            "performCfg": "QuestDialogue/COOP/Coop101401/Q19006011",
            "loadType": "TALK_COOP",
            "questId": 19006,
            "assetIndex": 14107197006298154951,
            "prePerformCfg": ""
          },
          "BJNJIOHKNPL": 56
        },
        "210": {
          "$type": "EFOECCBHIAL",
          "coopNodeId": 210,
          "coopNodeType": "COOP_NODE_TALK",
          "nextNodeArray": [
            212
          ],
          "talkConfig": {
            "id": 210,
            "performCfg": "QuestDialogue/COOP/Coop101401/Q19006012",
            "loadType": "TALK_COOP",
            "questId": 19006,
            "assetIndex": 4611439604175820656,
            "prePerformCfg": ""
          },
          "BJNJIOHKNPL": 34
        },
        "212": {
          "$type": "COBBCENKLHN",
          "coopNodeId": 212,
          "coopNodeType": "COOP_NODE_END",
          "savePointId": 60101
        },
        "211": {
          "$type": "EFOECCBHIAL",
          "coopNodeId": 211,
          "coopNodeType": "COOP_NODE_TALK",
          "nextNodeArray": [
            213
          ],
          "talkConfig": {
            "id": 211,
            "performCfg": "QuestDialogue/COOP/Coop101401/Q19006013",
            "loadType": "TALK_COOP",
            "questId": 19006,
            "assetIndex": 13895492609084414077,
            "prePerformCfg": ""
          },
          "BJNJIOHKNPL": 35
        },
        "213": {
          "$type": "COBBCENKLHN",
          "coopNodeId": 213,
          "coopNodeType": "COOP_NODE_END",
          "savePointId": 60102
        }
      },
      "startNodeId": 206,
      "DHLONCAIIEC": true
    },
    "1900701": {
      "id": 1900701,
      "coopMap": {
        "215": {
          "$type": "EFOECCBHIAL",
          "coopNodeId": 215,
          "coopNodeType": "COOP_NODE_TALK",
          "nextNodeArray": [
            217
          ],
          "talkConfig": {
            "id": 215,
            "performCfg": "QuestDialogue/COOP/Coop101401/Q19007011",
            "loadType": "TALK_COOP",
            "questId": 19007,
            "assetIndex": 8912658467932775009,
            "prePerformCfg": ""
          },
          "BJNJIOHKNPL": 36
        },
        "217": {
          "$type": "COBBCENKLHN",
          "coopNodeId": 217,
          "coopNodeType": "COOP_NODE_END",
          "savePointId": 104
        }
      },
      "startNodeId": 215,
      "DHLONCAIIEC": true
    },
    "1900801": {
      "id": 1900801,
      "coopMap": {
        "220": {
          "$type": "EFOECCBHIAL",
          "coopNodeId": 220,
          "coopNodeType": "COOP_NODE_TALK",
          "nextNodeArray": [
            221
          ],
          "talkConfig": {
            "id": 220,
            "performCfg": "QuestDialogue/COOP/Coop101401/Q19008011",
            "loadType": "TALK_COOP",
            "questId": 19008,
            "assetIndex": 14567381622934689774,
            "prePerformCfg": ""
          },
          "BJNJIOHKNPL": 37
        },
        "221": {
          "$type": "COBBCENKLHN",
          "coopNodeId": 221,
          "coopNodeType": "COOP_NODE_END",
          "savePointId": 80101
        }
      },
      "startNodeId": 220,
      "DHLONCAIIEC": true
    },
    "1900802": {
      "id": 1900802,
      "coopMap": {
        "222": {
          "$type": "EFOECCBHIAL",
          "coopNodeId": 222,
          "coopNodeType": "COOP_NODE_TALK",
          "nextNodeArray": [
            224
          ],
          "talkConfig": {
            "id": 222,
            "performCfg": "QuestDialogue/COOP/Coop101401/Q19008021",
            "loadType": "TALK_COOP",
            "questId": 19008,
            "assetIndex": 5988173503865714477,
            "prePerformCfg": ""
          },
          "BJNJIOHKNPL": 38
        },
        "224": {
          "$type": "COBBCENKLHN",
          "coopNodeId": 224,
          "coopNodeType": "COOP_NODE_END",
          "savePointId": 80201
        }
      },
      "startNodeId": 222,
      "DHLONCAIIEC": true
    },
    "1900306": {
      "id": 1900306,
      "coopMap": {
        "308": {
          "$type": "EFOECCBHIAL",
          "coopNodeId": 308,
          "coopNodeType": "COOP_NODE_TALK",
          "nextNodeArray": [
            307
          ],
          "talkConfig": {
            "id": 308,
            "performCfg": "QuestDialogue/COOP/Coop101401/Q19003061",
            "loadType": "TALK_COOP",
            "questId": 19003,
            "assetIndex": 14066444169288932337,
            "prePerformCfg": ""
          },
          "BJNJIOHKNPL": 42
        },
        "307": {
          "$type": "COBBCENKLHN",
          "coopNodeId": 307,
          "coopNodeType": "COOP_NODE_END",
          "savePointId": 30601
        }
      },
      "startNodeId": 308,
      "DHLONCAIIEC": true
    }
  },
  "subStartPointMap": {
    "1900102": {
      "id": 1900102,
      "coopInteractionId": 1900102
    },
    "1900103": {
      "id": 1900103,
      "coopInteractionId": 1900103
    },
    "1900301": {
      "id": 1900301,
      "coopInteractionId": 1900301
    },
    "1900901": {
      "id": 1900901,
      "coopInteractionId": 1900901
    },
    "1900905": {
      "id": 1900905,
      "coopInteractionId": 1900905
    },
    "1900906": {
      "id": 1900906,
      "coopInteractionId": 1900906
    },
    "1900903": {
      "id": 1900903,
      "coopInteractionId": 1900903
    },
    "1900904": {
      "id": 1900904,
      "coopInteractionId": 1900904
    },
    "1900902": {
      "id": 1900902,
      "coopInteractionId": 1900902
    },
    "1900104": {
      "id": 1900104,
      "coopInteractionId": 1900104
    },
    "1900303": {
      "id": 1900303,
      "coopInteractionId": 1900303
    },
    "1900201": {
      "id": 1900201,
      "coopInteractionId": 1900201
    },
    "1900202": {
      "id": 1900202,
      "coopInteractionId": 1900202
    },
    "1900203": {
      "id": 1900203,
      "coopInteractionId": 1900203
    },
    "1900401": {
      "id": 1900401,
      "coopInteractionId": 1900401
    },
    "1900402": {
      "id": 1900402,
      "coopInteractionId": 1900402
    },
    "1900501": {
      "id": 1900501,
      "coopInteractionId": 1900501
    },
    "1900502": {
      "id": 1900502,
      "coopInteractionId": 1900502
    },
    "1900504": {
      "id": 1900504,
      "coopInteractionId": 1900504
    },
    "1900601": {
      "id": 1900601,
      "coopInteractionId": 1900601
    },
    "1900701": {
      "id": 1900701,
      "coopInteractionId": 1900701
    },
    "1900801": {
      "id": 1900801,
      "coopInteractionId": 1900801
    },
    "1900802": {
      "id": 1900802,
      "coopInteractionId": 1900802
    },
    "1900306": {
      "id": 1900306,
      "coopInteractionId": 1900306
    }
  },
  "savePointMap": {
    "10201": {
      "id": 10201
    },
    "10202": {
      "id": 10202
    },
    "10301": {
      "id": 10301
    },
    "10302": {
      "id": 10302
    },
    "10303": {
      "id": 10303
    },
    "201": {
      "id": 201,
      "isEnd": true
    },
    "30101": {
      "id": 30101
    },
    "203": {
      "id": 203,
      "isEnd": true
    },
    "90101": {
      "id": 90101
    },
    "90501": {
      "id": 90501
    },
    "105": {
      "id": 105,
      "isEnd": true
    },
    "90301": {
      "id": 90301
    },
    "90302": {
      "id": 90302
    },
    "205": {
      "id": 205,
      "isEnd": true
    },
    "90401": {
      "id": 90401
    },
    "90402": {
      "id": 90402
    },
    "206": {
      "id": 206,
      "isEnd": true
    },
    "90201": {
      "id": 90201
    },
    "90202": {
      "id": 90202
    },
    "204": {
      "id": 204,
      "isEnd": true
    },
    "10401": {
      "id": 10401
    },
    "30301": {
      "id": 30301
    },
    "30302": {
      "id": 30302
    },
    "30303": {
      "id": 30303
    },
    "20102": {
      "id": 20102
    },
    "20101": {
      "id": 20101
    },
    "101": {
      "id": 101,
      "isEnd": true
    },
    "20301": {
      "id": 20301
    },
    "40101": {
      "id": 40101
    },
    "40201": {
      "id": 40201
    },
    "50101": {
      "id": 50101
    },
    "50102": {
      "id": 50102
    },
    "202": {
      "id": 202,
      "isEnd": true
    },
    "102": {
      "id": 102,
      "isEnd": true
    },
    "103": {
      "id": 103,
      "isEnd": true
    },
    "60101": {
      "id": 60101
    },
    "60102": {
      "id": 60102
    },
    "104": {
      "id": 104,
      "isEnd": true
    },
    "80101": {
      "id": 80101
    },
    "80201": {
      "id": 80201
    },
    "30601": {
      "id": 30601
    }
  },
  "confidenceValue": 5,
  "maxConfidenceValue": 5,
  "temperamentMap": {
    "COOP_TEMPERAMENT_1": {
      "param3": 50,
      "hpRatio": 1.0
    },
    "COOP_TEMPERAMENT_2": {
      "param3": 50,
      "hpRatio": 1.0
    },
    "COOP_TEMPERAMENT_3": {
      "param3": 50,
      "hpRatio": 1.0
    },
    "COOP_TEMPERAMENT_4": {
      "param3": 50,
      "hpRatio": 1.0
    }
  },
  "useTemperament": false,
  "coopTempValueMap": {
    "3": {
      "id": 3,
      "param3": 3,
      "isCoopVar": true
    }
  },
  "DHLONCAIIEC": true
}