{
  "coopInteractionMap": {
    "1907302": {
      "id": 1907302,
      "coopMap": {
        "4": {
          "$type": "EFOECCBHIAL",
          "coopNodeId": 4,
          "coopNodeType": "COOP_NODE_TALK",
          "nextNodeArray": [
            235
          ],
          "talkConfig": {
            "id": 4,
            "performCfg": "QuestDialogue/COOP/Coop101501/Q1907302",
            "loadType": "TALK_COOP",
            "questId": 19073,
            "assetIndex": 12453855309227951693,
            "prePerformCfg": "",
            "lockGameTime": true
          },
          "BJNJIOHKNPL": 1
        },
        "235": {
          "$type": "COBBCENKLHN",
          "coopNodeId": 235,
          "coopNodeType": "COOP_NODE_END",
          "savePointId": 190730201
        }
      },
      "startNodeId": 4,
      "DHLONCAIIEC": true
    },
    "1907304": {
      "id": 1907304,
      "coopMap": {
        "14": {
          "$type": "PPJHAFFOIOK",
          "coopNodeId": 14,
          "coopNodeType": "COOP_NODE_SELECT",
          "nextNodeArray": [
            26,
            27
          ],
          "selectList": [
            {
              "dialogId": 190730398,
              "hideCond": {},
              "enableCond": {}
            },
            {
              "dialogId": 190730399,
              "hideCond": {},
              "enableCond": {}
            }
          ]
        },
        "8": {
          "$type": "EFOECCBHIAL",
          "coopNodeId": 8,
          "coopNodeType": "COOP_NODE_TALK",
          "nextNodeArray": [
            14
          ],
          "talkConfig": {
            "id": 8,
            "performCfg": "QuestDialogue/COOP/Coop101501/Q1907303",
            "loadType": "TALK_COOP",
            "questId": 19073,
            "assetIndex": 6700235530943473944,
            "prePerformCfg": "",
            "lockGameTime": true
          },
          "BJNJIOHKNPL": 4
        },
        "26": {
          "$type": "EFOECCBHIAL",
          "coopNodeId": 26,
          "coopNodeType": "COOP_NODE_TALK",
          "nextNodeArray": [
            301
          ],
          "talkConfig": {
            "id": 26,
            "performCfg": "QuestDialogue/COOP/Coop101501/Q1907305",
            "loadType": "TALK_COOP",
            "questId": 19073,
            "assetIndex": 17966978698885795859,
            "prePerformCfg": "",
            "stayFreeStyle": true,
            "lockGameTime": true
          },
          "BJNJIOHKNPL": 3
        },
        "301": {
          "$type": "COBBCENKLHN",
          "coopNodeId": 301,
          "coopNodeType": "COOP_NODE_END",
          "savePointId": 190730402
        },
        "27": {
          "$type": "EFOECCBHIAL",
          "coopNodeId": 27,
          "coopNodeType": "COOP_NODE_TALK",
          "nextNodeArray": [
            28
          ],
          "talkConfig": {
            "id": 27,
            "performCfg": "QuestDialogue/COOP/Coop101501/Q1907304",
            "loadType": "TALK_COOP",
            "questId": 19073,
            "assetIndex": 6647536762079523386,
            "prePerformCfg": "",
            "stayFreeStyle": true,
            "lockGameTime": true
          },
          "BJNJIOHKNPL": 2
        },
        "28": {
          "$type": "COBBCENKLHN",
          "coopNodeId": 28,
          "coopNodeType": "COOP_NODE_END",
          "savePointId": 190730401
        }
      },
      "startNodeId": 8,
      "DHLONCAIIEC": true
    },
    "1907903": {
      "id": 1907903,
      "coopMap": {
        "65": {
          "$type": "PPJHAFFOIOK",
          "coopNodeId": 65,
          "coopNodeType": "COOP_NODE_SELECT",
          "nextNodeArray": [
            66,
            69
          ],
          "selectList": [
            {
              "dialogId": 190790299,
              "hideCond": {},
              "enableCond": {}
            },
            {
              "dialogId": 190790298,
              "hideCond": {},
              "enableCond": {}
            }
          ]
        },
        "63": {
          "$type": "EFOECCBHIAL",
          "coopNodeId": 63,
          "coopNodeType": "COOP_NODE_TALK",
          "nextNodeArray": [
            65
          ],
          "talkConfig": {
            "id": 63,
            "performCfg": "QuestDialogue/COOP/Coop101501/Q1907902",
            "loadType": "TALK_COOP",
            "questId": 19079,
            "assetIndex": 71128560789737707,
            "prePerformCfg": "",
            "lockGameTime": true
          },
          "BJNJIOHKNPL": 13
        },
        "66": {
          "$type": "EFOECCBHIAL",
          "coopNodeId": 66,
          "coopNodeType": "COOP_NODE_TALK",
          "nextNodeArray": [
            67
          ],
          "talkConfig": {
            "id": 66,
            "performCfg": "QuestDialogue/COOP/Coop101501/Q1907906",
            "loadType": "TALK_COOP",
            "questId": 19079,
            "assetIndex": 5239224406247497468,
            "prePerformCfg": "",
            "stayFreeStyle": true,
            "lockGameTime": true
          },
          "BJNJIOHKNPL": 11
        },
        "67": {
          "$type": "COBBCENKLHN",
          "coopNodeId": 67,
          "coopNodeType": "COOP_NODE_END",
          "savePointId": 190790301
        },
        "69": {
          "$type": "EFOECCBHIAL",
          "coopNodeId": 69,
          "coopNodeType": "COOP_NODE_TALK",
          "nextNodeArray": [
            70
          ],
          "talkConfig": {
            "id": 69,
            "performCfg": "QuestDialogue/COOP/Coop101501/Q1907907",
            "loadType": "TALK_COOP",
            "questId": 19079,
            "assetIndex": 12894004969737260562,
            "prePerformCfg": "",
            "stayFreeStyle": true,
            "lockGameTime": true
          },
          "BJNJIOHKNPL": 12
        },
        "70": {
          "$type": "COBBCENKLHN",
          "coopNodeId": 70,
          "coopNodeType": "COOP_NODE_END",
          "savePointId": 190790302
        }
      },
      "startNodeId": 63,
      "DHLONCAIIEC": true
    },
    "1908001": {
      "id": 1908001,
      "coopMap": {
        "77": {
          "$type": "EFOECCBHIAL",
          "coopNodeId": 77,
          "coopNodeType": "COOP_NODE_TALK",
          "nextNodeArray": [
            236
          ],
          "talkConfig": {
            "id": 77,
            "performCfg": "QuestDialogue/COOP/Coop101501/Q1908001",
            "loadType": "TALK_COOP",
            "questId": 19080,
            "assetIndex": 13598507413530907867,
            "prePerformCfg": "",
            "lockGameTime": true
          },
          "BJNJIOHKNPL": 17
        },
        "236": {
          "$type": "COBBCENKLHN",
          "coopNodeId": 236,
          "coopNodeType": "COOP_NODE_END",
          "savePointId": 190800101
        }
      },
      "startNodeId": 77,
      "DHLONCAIIEC": true
    },
    "1908002": {
      "id": 1908002,
      "coopMap": {
        "239": {
          "$type": "EFOECCBHIAL",
          "coopNodeId": 239,
          "coopNodeType": "COOP_NODE_TALK",
          "nextNodeArray": [
            241
          ],
          "talkConfig": {
            "id": 239,
            "performCfg": "QuestDialogue/COOP/Coop101501/Q1908002",
            "loadType": "TALK_COOP",
            "questId": 19080,
            "assetIndex": 8750914770827943376,
            "prePerformCfg": "",
            "lockGameTime": true
          },
          "BJNJIOHKNPL": 36
        },
        "241": {
          "$type": "COBBCENKLHN",
          "coopNodeId": 241,
          "coopNodeType": "COOP_NODE_END",
          "savePointId": 190800201
        }
      },
      "startNodeId": 239,
      "DHLONCAIIEC": true
    },
    "1908003": {
      "id": 1908003,
      "coopMap": {
        "244": {
          "$type": "EFOECCBHIAL",
          "coopNodeId": 244,
          "coopNodeType": "COOP_NODE_TALK",
          "nextNodeArray": [
            246
          ],
          "talkConfig": {
            "id": 244,
            "performCfg": "QuestDialogue/COOP/Coop101501/Q1908003",
            "loadType": "TALK_COOP",
            "questId": 19080,
            "assetIndex": 537299979126585271,
            "prePerformCfg": "",
            "lockGameTime": true
          },
          "BJNJIOHKNPL": 37
        },
        "246": {
          "$type": "COBBCENKLHN",
          "coopNodeId": 246,
          "coopNodeType": "COOP_NODE_END",
          "savePointId": 190800301
        }
      },
      "startNodeId": 244,
      "DHLONCAIIEC": true
    },
    "1908004": {
      "id": 1908004,
      "coopMap": {
        "249": {
          "$type": "EFOECCBHIAL",
          "coopNodeId": 249,
          "coopNodeType": "COOP_NODE_TALK",
          "nextNodeArray": [
            251
          ],
          "talkConfig": {
            "id": 249,
            "performCfg": "QuestDialogue/COOP/Coop101501/Q1908004",
            "loadType": "TALK_COOP",
            "questId": 19080,
            "assetIndex": 4297543291077050663,
            "prePerformCfg": "",
            "lockGameTime": true
          },
          "BJNJIOHKNPL": 38
        },
        "251": {
          "$type": "COBBCENKLHN",
          "coopNodeId": 251,
          "coopNodeType": "COOP_NODE_END",
          "savePointId": 190800401
        }
      },
      "startNodeId": 249,
      "DHLONCAIIEC": true
    },
    "1908005": {
      "id": 1908005,
      "coopMap": {
        "254": {
          "$type": "EFOECCBHIAL",
          "coopNodeId": 254,
          "coopNodeType": "COOP_NODE_TALK",
          "nextNodeArray": [
            256
          ],
          "talkConfig": {
            "id": 254,
            "performCfg": "QuestDialogue/COOP/Coop101501/Q1908005",
            "loadType": "TALK_COOP",
            "questId": 19080,
            "assetIndex": 7878307441302283515,
            "prePerformCfg": "",
            "lockGameTime": true
          },
          "BJNJIOHKNPL": 39
        },
        "256": {
          "$type": "COBBCENKLHN",
          "coopNodeId": 256,
          "coopNodeType": "COOP_NODE_END",
          "savePointId": 190800501
        }
      },
      "startNodeId": 254,
      "DHLONCAIIEC": true
    },
    "1908007": {
      "id": 1908007,
      "coopMap": {
        "259": {
          "$type": "EFOECCBHIAL",
          "coopNodeId": 259,
          "coopNodeType": "COOP_NODE_TALK",
          "nextNodeArray": [
            303
          ],
          "talkConfig": {
            "id": 259,
            "performCfg": "QuestDialogue/COOP/Coop101501/Q1908007",
            "loadType": "TALK_COOP",
            "questId": 19080,
            "assetIndex": 7598697010147660752,
            "prePerformCfg": "",
            "lockGameTime": true
          },
          "BJNJIOHKNPL": 40
        },
        "303": {
          "$type": "COBBCENKLHN",
          "coopNodeId": 303,
          "coopNodeType": "COOP_NODE_END",
          "savePointId": 190800701
        }
      },
      "startNodeId": 259,
      "DHLONCAIIEC": true
    },
    "1908008": {
      "id": 1908008,
      "coopMap": {
        "264": {
          "$type": "EFOECCBHIAL",
          "coopNodeId": 264,
          "coopNodeType": "COOP_NODE_TALK",
          "nextNodeArray": [
            266
          ],
          "talkConfig": {
            "id": 264,
            "performCfg": "QuestDialogue/COOP/Coop101501/Q1908008",
            "loadType": "TALK_COOP",
            "questId": 19080,
            "assetIndex": 7232951021090976745,
            "prePerformCfg": "",
            "lockGameTime": true
          },
          "BJNJIOHKNPL": 41
        },
        "266": {
          "$type": "COBBCENKLHN",
          "coopNodeId": 266,
          "coopNodeType": "COOP_NODE_END",
          "savePointId": 190800801
        }
      },
      "startNodeId": 264,
      "DHLONCAIIEC": true
    },
    "1908009": {
      "id": 1908009,
      "coopMap": {
        "273": {
          "$type": "EFOECCBHIAL",
          "coopNodeId": 273,
          "coopNodeType": "COOP_NODE_TALK",
          "nextNodeArray": [
            275
          ],
          "talkConfig": {
            "id": 273,
            "performCfg": "QuestDialogue/COOP/Coop101501/Q1908009",
            "loadType": "TALK_COOP",
            "questId": 19080,
            "assetIndex": 13197149837225298063,
            "prePerformCfg": "",
            "lockGameTime": true
          },
          "BJNJIOHKNPL": 42
        },
        "275": {
          "$type": "COBBCENKLHN",
          "coopNodeId": 275,
          "coopNodeType": "COOP_NODE_END",
          "savePointId": 190800901
        }
      },
      "startNodeId": 273,
      "DHLONCAIIEC": true
    },
    "1908013": {
      "id": 1908013,
      "coopMap": {
        "278": {
          "$type": "EFOECCBHIAL",
          "coopNodeId": 278,
          "coopNodeType": "COOP_NODE_TALK",
          "nextNodeArray": [
            280
          ],
          "talkConfig": {
            "id": 278,
            "performCfg": "QuestDialogue/COOP/Coop101501/Q1908013",
            "loadType": "TALK_COOP",
            "questId": 19080,
            "assetIndex": 6639671055352689098,
            "prePerformCfg": "",
            "lockGameTime": true
          },
          "BJNJIOHKNPL": 43
        },
        "280": {
          "$type": "COBBCENKLHN",
          "coopNodeId": 280,
          "coopNodeType": "COOP_NODE_END",
          "savePointId": 190801301
        }
      },
      "startNodeId": 278,
      "DHLONCAIIEC": true
    },
    "1908016": {
      "id": 1908016,
      "coopMap": {
        "283": {
          "$type": "EFOECCBHIAL",
          "coopNodeId": 283,
          "coopNodeType": "COOP_NODE_TALK",
          "nextNodeArray": [
            285
          ],
          "talkConfig": {
            "id": 283,
            "performCfg": "QuestDialogue/COOP/Coop101501/Q1908016",
            "loadType": "TALK_COOP",
            "questId": 19080,
            "assetIndex": 12903312865703855701,
            "prePerformCfg": "",
            "lockGameTime": true
          },
          "BJNJIOHKNPL": 44
        },
        "285": {
          "$type": "COBBCENKLHN",
          "coopNodeId": 285,
          "coopNodeType": "COOP_NODE_END",
          "savePointId": 190801601
        }
      },
      "startNodeId": 283,
      "DHLONCAIIEC": true
    },
    "1908017": {
      "id": 1908017,
      "coopMap": {
        "306": {
          "$type": "EFOECCBHIAL",
          "coopNodeId": 306,
          "coopNodeType": "COOP_NODE_TALK",
          "nextNodeArray": [
            308
          ],
          "talkConfig": {
            "id": 306,
            "performCfg": "QuestDialogue/COOP/Coop101501/Q1908017",
            "loadType": "TALK_COOP",
            "questId": 19080,
            "assetIndex": 9954328208822346501,
            "prePerformCfg": "",
            "lockGameTime": true
          },
          "BJNJIOHKNPL": 46
        },
        "308": {
          "$type": "COBBCENKLHN",
          "coopNodeId": 308,
          "coopNodeType": "COOP_NODE_END",
          "savePointId": 190801701
        }
      },
      "startNodeId": 306,
      "DHLONCAIIEC": true
    },
    "1908018": {
      "id": 1908018,
      "coopMap": {
        "311": {
          "$type": "EFOECCBHIAL",
          "coopNodeId": 311,
          "coopNodeType": "COOP_NODE_TALK",
          "nextNodeArray": [
            313
          ],
          "talkConfig": {
            "id": 311,
            "performCfg": "QuestDialogue/COOP/Coop101501/Q1908018",
            "loadType": "TALK_COOP",
            "questId": 19080,
            "assetIndex": 9570799433125267779,
            "prePerformCfg": "",
            "lockGameTime": true
          },
          "BJNJIOHKNPL": 47
        },
        "313": {
          "$type": "COBBCENKLHN",
          "coopNodeId": 313,
          "coopNodeType": "COOP_NODE_END",
          "savePointId": 190801801
        }
      },
      "startNodeId": 311,
      "DHLONCAIIEC": true
    },
    "1908019": {
      "id": 1908019,
      "coopMap": {
        "326": {
          "$type": "EFOECCBHIAL",
          "coopNodeId": 326,
          "coopNodeType": "COOP_NODE_TALK",
          "nextNodeArray": [
            328
          ],
          "talkConfig": {
            "id": 326,
            "performCfg": "QuestDialogue/COOP/Coop101501/Q1908019",
            "loadType": "TALK_COOP",
            "questId": 19080,
            "assetIndex": 6556142467459243462,
            "prePerformCfg": "",
            "lockGameTime": true
          },
          "BJNJIOHKNPL": 50
        },
        "328": {
          "$type": "COBBCENKLHN",
          "coopNodeId": 328,
          "coopNodeType": "COOP_NODE_END",
          "savePointId": 190801901
        }
      },
      "startNodeId": 326,
      "DHLONCAIIEC": true
    },
    "1908021": {
      "id": 1908021,
      "coopMap": {
        "331": {
          "$type": "EFOECCBHIAL",
          "coopNodeId": 331,
          "coopNodeType": "COOP_NODE_TALK",
          "nextNodeArray": [
            334
          ],
          "talkConfig": {
            "id": 331,
            "performCfg": "QuestDialogue/COOP/Coop101501/Q1908021",
            "loadType": "TALK_COOP",
            "questId": 19080,
            "assetIndex": 8364644708503257794,
            "prePerformCfg": "",
            "lockGameTime": true
          },
          "BJNJIOHKNPL": 51
        },
        "334": {
          "$type": "EFOECCBHIAL",
          "coopNodeId": 334,
          "coopNodeType": "COOP_NODE_TALK",
          "nextNodeArray": [
            333
          ],
          "talkConfig": {
            "id": 334,
            "performCfg": "QuestDialogue/COOP/Coop101501/Q1908022",
            "loadType": "TALK_COOP",
            "questId": 19080,
            "assetIndex": 16091819908415938505,
            "prePerformCfg": "",
            "lockGameTime": true
          },
          "BJNJIOHKNPL": 51
        },
        "333": {
          "$type": "COBBCENKLHN",
          "coopNodeId": 333,
          "coopNodeType": "COOP_NODE_END",
          "savePointId": 190802101
        }
      },
      "startNodeId": 331,
      "DHLONCAIIEC": true
    },
    "1909301": {
      "id": 1909301,
      "coopMap": {
        "79": {
          "$type": "PPJHAFFOIOK",
          "coopNodeId": 79,
          "coopNodeType": "COOP_NODE_SELECT",
          "nextNodeArray": [
            80,
            82
          ],
          "selectList": [
            {
              "dialogId": 190930197,
              "hideCond": {},
              "enableCond": {}
            },
            {
              "dialogId": 190930196,
              "hideCond": {},
              "enableCond": {}
            }
          ]
        },
        "73": {
          "$type": "EFOECCBHIAL",
          "coopNodeId": 73,
          "coopNodeType": "COOP_NODE_TALK",
          "nextNodeArray": [
            79
          ],
          "talkConfig": {
            "id": 73,
            "performCfg": "QuestDialogue/COOP/Coop101501/Q1909301",
            "loadType": "TALK_COOP",
            "questId": 19093,
            "assetIndex": 5623143299141016099,
            "prePerformCfg": "",
            "stayFreeStyle": true,
            "lockGameTime": true
          },
          "BJNJIOHKNPL": 16
        },
        "80": {
          "$type": "EFOECCBHIAL",
          "coopNodeId": 80,
          "coopNodeType": "COOP_NODE_TALK",
          "nextNodeArray": [
            209
          ],
          "talkConfig": {
            "id": 80,
            "performCfg": "QuestDialogue/COOP/Coop101501/Q1909304",
            "loadType": "TALK_COOP",
            "questId": 19093,
            "assetIndex": 4048288284950409251,
            "prePerformCfg": "",
            "stayFreeStyle": true,
            "lockGameTime": true
          },
          "BJNJIOHKNPL": 14
        },
        "209": {
          "$type": "COBBCENKLHN",
          "coopNodeId": 209,
          "coopNodeType": "COOP_NODE_END",
          "savePointId": 190930101
        },
        "82": {
          "$type": "EFOECCBHIAL",
          "coopNodeId": 82,
          "coopNodeType": "COOP_NODE_TALK",
          "nextNodeArray": [
            210
          ],
          "talkConfig": {
            "id": 82,
            "performCfg": "QuestDialogue/COOP/Coop101501/Q1909303",
            "loadType": "TALK_COOP",
            "questId": 19093,
            "assetIndex": 11771567718802549817,
            "prePerformCfg": "",
            "stayFreeStyle": true,
            "lockGameTime": true
          },
          "BJNJIOHKNPL": 15
        },
        "210": {
          "$type": "COBBCENKLHN",
          "coopNodeId": 210,
          "coopNodeType": "COOP_NODE_END",
          "savePointId": 190930102
        }
      },
      "startNodeId": 73,
      "DHLONCAIIEC": true
    },
    "1909402": {
      "id": 1909402,
      "coopMap": {
        "87": {
          "$type": "EFOECCBHIAL",
          "coopNodeId": 87,
          "coopNodeType": "COOP_NODE_TALK",
          "nextNodeArray": [
            202
          ],
          "talkConfig": {
            "id": 87,
            "performCfg": "QuestDialogue/COOP/Coop101501/Q1909402",
            "loadType": "TALK_COOP",
            "questId": 19094,
            "assetIndex": 6145214473676773987,
            "prePerformCfg": "",
            "lockGameTime": true
          },
          "BJNJIOHKNPL": 18
        },
        "202": {
          "$type": "COBBCENKLHN",
          "coopNodeId": 202,
          "coopNodeType": "COOP_NODE_END",
          "savePointId": 190940201
        }
      },
      "startNodeId": 87,
      "DHLONCAIIEC": true
    },
    "1909403": {
      "id": 1909403,
      "coopMap": {
        "95": {
          "$type": "EFOECCBHIAL",
          "coopNodeId": 95,
          "coopNodeType": "COOP_NODE_TALK",
          "nextNodeArray": [
            203
          ],
          "talkConfig": {
            "id": 95,
            "performCfg": "QuestDialogue/COOP/Coop101501/Q1909403",
            "loadType": "TALK_COOP",
            "questId": 19094,
            "assetIndex": 12932585456468682400,
            "prePerformCfg": "",
            "lockGameTime": true
          },
          "BJNJIOHKNPL": 20
        },
        "203": {
          "$type": "COBBCENKLHN",
          "coopNodeId": 203,
          "coopNodeType": "COOP_NODE_END",
          "savePointId": 190940301
        }
      },
      "startNodeId": 95,
      "DHLONCAIIEC": true
    },
    "1909405": {
      "id": 1909405,
      "coopMap": {
        "99": {
          "$type": "EFOECCBHIAL",
          "coopNodeId": 99,
          "coopNodeType": "COOP_NODE_TALK",
          "nextNodeArray": [
            204
          ],
          "talkConfig": {
            "id": 99,
            "performCfg": "QuestDialogue/COOP/Coop101501/Q1909405",
            "loadType": "TALK_COOP",
            "questId": 19094,
            "assetIndex": 1028631392188871791,
            "prePerformCfg": "",
            "lockGameTime": true
          },
          "BJNJIOHKNPL": 21
        },
        "204": {
          "$type": "COBBCENKLHN",
          "coopNodeId": 204,
          "coopNodeType": "COOP_NODE_END",
          "savePointId": 190940501
        }
      },
      "startNodeId": 99,
      "DHLONCAIIEC": true
    },
    "1909406": {
      "id": 1909406,
      "coopMap": {
        "103": {
          "$type": "EFOECCBHIAL",
          "coopNodeId": 103,
          "coopNodeType": "COOP_NODE_TALK",
          "nextNodeArray": [
            205
          ],
          "talkConfig": {
            "id": 103,
            "performCfg": "QuestDialogue/COOP/Coop101501/Q1909406",
            "loadType": "TALK_COOP",
            "questId": 19094,
            "assetIndex": 1905615599308717167,
            "prePerformCfg": "",
            "lockGameTime": true
          },
          "BJNJIOHKNPL": 22
        },
        "205": {
          "$type": "COBBCENKLHN",
          "coopNodeId": 205,
          "coopNodeType": "COOP_NODE_END",
          "savePointId": 190940601
        }
      },
      "startNodeId": 103,
      "DHLONCAIIEC": true
    },
    "1909408": {
      "id": 1909408,
      "coopMap": {
        "316": {
          "$type": "EFOECCBHIAL",
          "coopNodeId": 316,
          "coopNodeType": "COOP_NODE_TALK",
          "nextNodeArray": [
            318
          ],
          "talkConfig": {
            "id": 316,
            "performCfg": "QuestDialogue/COOP/Coop101501/Q1909408",
            "loadType": "TALK_COOP",
            "questId": 19094,
            "assetIndex": 11272200035932327513,
            "prePerformCfg": "",
            "enableCameraDisplacement": true,
            "lockGameTime": true
          },
          "BJNJIOHKNPL": 48
        },
        "318": {
          "$type": "COBBCENKLHN",
          "coopNodeId": 318,
          "coopNodeType": "COOP_NODE_END",
          "savePointId": 190940801
        }
      },
      "startNodeId": 316,
      "DHLONCAIIEC": true
    },
    "1909409": {
      "id": 1909409,
      "coopMap": {
        "321": {
          "$type": "EFOECCBHIAL",
          "coopNodeId": 321,
          "coopNodeType": "COOP_NODE_TALK",
          "nextNodeArray": [
            323
          ],
          "talkConfig": {
            "id": 321,
            "performCfg": "QuestDialogue/COOP/Coop101501/Q1909409",
            "loadType": "TALK_COOP",
            "questId": 19094,
            "assetIndex": 17640326079198402763,
            "prePerformCfg": "",
            "lockGameTime": true
          },
          "BJNJIOHKNPL": 49
        },
        "323": {
          "$type": "COBBCENKLHN",
          "coopNodeId": 323,
          "coopNodeType": "COOP_NODE_END",
          "savePointId": 190940901
        }
      },
      "startNodeId": 321,
      "DHLONCAIIEC": true
    },
    "1909502": {
      "id": 1909502,
      "coopMap": {
        "91": {
          "$type": "EFOECCBHIAL",
          "coopNodeId": 91,
          "coopNodeType": "COOP_NODE_TALK",
          "nextNodeArray": [
            233
          ],
          "talkConfig": {
            "id": 91,
            "performCfg": "QuestDialogue/COOP/Coop101501/Q1909501",
            "loadType": "TALK_COOP",
            "questId": 19095,
            "assetIndex": 6973116263038195726,
            "prePerformCfg": "",
            "lockGameTime": true
          },
          "BJNJIOHKNPL": 19
        },
        "233": {
          "$type": "COBBCENKLHN",
          "coopNodeId": 233,
          "coopNodeType": "COOP_NODE_END",
          "savePointId": 190950201
        }
      },
      "startNodeId": 91,
      "DHLONCAIIEC": true
    },
    "1909503": {
      "id": 1909503,
      "coopMap": {
        "129": {
          "$type": "PPJHAFFOIOK",
          "coopNodeId": 129,
          "coopNodeType": "COOP_NODE_SELECT",
          "nextNodeArray": [
            131,
            132
          ],
          "selectList": [
            {
              "dialogId": 190950397,
              "hideCond": {},
              "enableCond": {}
            },
            {
              "dialogId": 190950396,
              "hideCond": {},
              "enableCond": {}
            }
          ]
        },
        "127": {
          "$type": "EFOECCBHIAL",
          "coopNodeId": 127,
          "coopNodeType": "COOP_NODE_TALK",
          "nextNodeArray": [
            129
          ],
          "talkConfig": {
            "id": 127,
            "performCfg": "QuestDialogue/COOP/Coop101501/Q1909503",
            "loadType": "TALK_COOP",
            "questId": 19095,
            "assetIndex": 815177700175848767,
            "prePerformCfg": "",
            "enableCameraDisplacement": true
          },
          "BJNJIOHKNPL": 25
        },
        "131": {
          "$type": "EFOECCBHIAL",
          "coopNodeId": 131,
          "coopNodeType": "COOP_NODE_TALK",
          "nextNodeArray": [
            133
          ],
          "talkConfig": {
            "id": 131,
            "performCfg": "QuestDialogue/COOP/Coop101501/Q1909504",
            "loadType": "TALK_COOP",
            "questId": 19095,
            "assetIndex": 5054220993644701008,
            "prePerformCfg": ""
          },
          "BJNJIOHKNPL": 23
        },
        "133": {
          "$type": "COBBCENKLHN",
          "coopNodeId": 133,
          "coopNodeType": "COOP_NODE_END",
          "savePointId": 190950301
        },
        "132": {
          "$type": "EFOECCBHIAL",
          "coopNodeId": 132,
          "coopNodeType": "COOP_NODE_TALK",
          "nextNodeArray": [
            135
          ],
          "talkConfig": {
            "id": 132,
            "performCfg": "QuestDialogue/COOP/Coop101501/Q1909505",
            "loadType": "TALK_COOP",
            "questId": 19095,
            "assetIndex": 6728743233882739511,
            "prePerformCfg": ""
          },
          "BJNJIOHKNPL": 24
        },
        "135": {
          "$type": "COBBCENKLHN",
          "coopNodeId": 135,
          "coopNodeType": "COOP_NODE_END",
          "savePointId": 190950302
        }
      },
      "startNodeId": 127,
      "DHLONCAIIEC": true
    },
    "1909601": {
      "id": 1909601,
      "coopMap": {
        "138": {
          "$type": "EFOECCBHIAL",
          "coopNodeId": 138,
          "coopNodeType": "COOP_NODE_TALK",
          "nextNodeArray": [
            216
          ],
          "talkConfig": {
            "id": 138,
            "performCfg": "QuestDialogue/COOP/Coop101501/Q1909601",
            "loadType": "TALK_COOP",
            "questId": 19096,
            "assetIndex": 4495775321442829743,
            "prePerformCfg": "",
            "lockGameTime": true
          },
          "BJNJIOHKNPL": 26
        },
        "216": {
          "$type": "COBBCENKLHN",
          "coopNodeId": 216,
          "coopNodeType": "COOP_NODE_END",
          "savePointId": 190960101
        }
      },
      "startNodeId": 138,
      "DHLONCAIIEC": true
    },
    "1909602": {
      "id": 1909602,
      "coopMap": {
        "150": {
          "$type": "EFOECCBHIAL",
          "coopNodeId": 150,
          "coopNodeType": "COOP_NODE_TALK",
          "nextNodeArray": [
            218
          ],
          "talkConfig": {
            "id": 150,
            "performCfg": "QuestDialogue/COOP/Coop101501/Q1909602",
            "loadType": "TALK_COOP",
            "questId": 19096,
            "assetIndex": 5678941793452474004,
            "prePerformCfg": "",
            "lockGameTime": true
          },
          "BJNJIOHKNPL": 28
        },
        "218": {
          "$type": "COBBCENKLHN",
          "coopNodeId": 218,
          "coopNodeType": "COOP_NODE_END",
          "savePointId": 190960201
        }
      },
      "startNodeId": 150,
      "DHLONCAIIEC": true
    },
    "1909604": {
      "id": 1909604,
      "coopMap": {
        "160": {
          "$type": "EFOECCBHIAL",
          "coopNodeId": 160,
          "coopNodeType": "COOP_NODE_TALK",
          "nextNodeArray": [
            219
          ],
          "talkConfig": {
            "id": 160,
            "performCfg": "QuestDialogue/COOP/Coop101501/Q1909604",
            "loadType": "TALK_COOP",
            "questId": 19096,
            "assetIndex": 12744006621847151761,
            "prePerformCfg": "",
            "lockGameTime": true
          },
          "BJNJIOHKNPL": 29
        },
        "219": {
          "$type": "COBBCENKLHN",
          "coopNodeId": 219,
          "coopNodeType": "COOP_NODE_END",
          "savePointId": 190960401
        }
      },
      "startNodeId": 160,
      "DHLONCAIIEC": true
    },
    "1909605": {
      "id": 1909605,
      "coopMap": {
        "164": {
          "$type": "EFOECCBHIAL",
          "coopNodeId": 164,
          "coopNodeType": "COOP_NODE_TALK",
          "nextNodeArray": [
            220
          ],
          "talkConfig": {
            "id": 164,
            "performCfg": "QuestDialogue/COOP/Coop101501/Q1909605",
            "loadType": "TALK_COOP",
            "questId": 19096,
            "assetIndex": 8354272236774962391,
            "prePerformCfg": "",
            "lockGameTime": true
          },
          "BJNJIOHKNPL": 30
        },
        "220": {
          "$type": "COBBCENKLHN",
          "coopNodeId": 220,
          "coopNodeType": "COOP_NODE_END",
          "savePointId": 190960501
        }
      },
      "startNodeId": 164,
      "DHLONCAIIEC": true
    },
    "1909608": {
      "id": 1909608,
      "coopMap": {
        "168": {
          "$type": "EFOECCBHIAL",
          "coopNodeId": 168,
          "coopNodeType": "COOP_NODE_TALK",
          "nextNodeArray": [
            222
          ],
          "talkConfig": {
            "id": 168,
            "performCfg": "QuestDialogue/COOP/Coop101501/Q1909608",
            "loadType": "TALK_COOP",
            "questId": 19096,
            "assetIndex": 16721163151062479760,
            "prePerformCfg": "",
            "lockGameTime": true
          },
          "BJNJIOHKNPL": 31
        },
        "222": {
          "$type": "COBBCENKLHN",
          "coopNodeId": 222,
          "coopNodeType": "COOP_NODE_END",
          "savePointId": 190960801
        }
      },
      "startNodeId": 168,
      "DHLONCAIIEC": true
    },
    "1909701": {
      "id": 1909701,
      "coopMap": {
        "142": {
          "$type": "EFOECCBHIAL",
          "coopNodeId": 142,
          "coopNodeType": "COOP_NODE_TALK",
          "nextNodeArray": [
            300
          ],
          "talkConfig": {
            "id": 142,
            "performCfg": "QuestDialogue/COOP/Coop101501/Q1909701",
            "loadType": "TALK_COOP",
            "questId": 19097,
            "assetIndex": 1814455065759414109,
            "prePerformCfg": "",
            "lockGameTime": true
          },
          "BJNJIOHKNPL": 27
        },
        "300": {
          "$type": "COBBCENKLHN",
          "coopNodeId": 300,
          "coopNodeType": "COOP_NODE_END",
          "savePointId": 190970101
        }
      },
      "startNodeId": 142,
      "DHLONCAIIEC": true
    },
    "1909702": {
      "id": 1909702,
      "coopMap": {
        "176": {
          "$type": "EFOECCBHIAL",
          "coopNodeId": 176,
          "coopNodeType": "COOP_NODE_TALK",
          "nextNodeArray": [
            224
          ],
          "talkConfig": {
            "id": 176,
            "performCfg": "QuestDialogue/COOP/Coop101501/Q1909702",
            "loadType": "TALK_COOP",
            "questId": 19097,
            "assetIndex": 15234430774313991185,
            "prePerformCfg": "",
            "lockGameTime": true
          },
          "BJNJIOHKNPL": 32
        },
        "224": {
          "$type": "COBBCENKLHN",
          "coopNodeId": 224,
          "coopNodeType": "COOP_NODE_END",
          "savePointId": 190970201
        }
      },
      "startNodeId": 176,
      "DHLONCAIIEC": true
    },
    "1909703": {
      "id": 1909703,
      "coopMap": {
        "180": {
          "$type": "EFOECCBHIAL",
          "coopNodeId": 180,
          "coopNodeType": "COOP_NODE_TALK",
          "nextNodeArray": [
            225
          ],
          "talkConfig": {
            "id": 180,
            "performCfg": "QuestDialogue/COOP/Coop101501/Q1909703",
            "loadType": "TALK_COOP",
            "questId": 19097,
            "assetIndex": 988185406069982027,
            "prePerformCfg": "",
            "lockGameTime": true
          },
          "BJNJIOHKNPL": 33
        },
        "225": {
          "$type": "COBBCENKLHN",
          "coopNodeId": 225,
          "coopNodeType": "COOP_NODE_END",
          "savePointId": 190970301
        }
      },
      "startNodeId": 180,
      "DHLONCAIIEC": true
    },
    "1909705": {
      "id": 1909705,
      "coopMap": {
        "188": {
          "$type": "EFOECCBHIAL",
          "coopNodeId": 188,
          "coopNodeType": "COOP_NODE_TALK",
          "nextNodeArray": [
            227
          ],
          "talkConfig": {
            "id": 188,
            "performCfg": "QuestDialogue/COOP/Coop101501/Q1909705",
            "loadType": "TALK_COOP",
            "questId": 19097,
            "assetIndex": 472183087138855721,
            "prePerformCfg": "",
            "lockGameTime": true
          },
          "BJNJIOHKNPL": 34
        },
        "227": {
          "$type": "COBBCENKLHN",
          "coopNodeId": 227,
          "coopNodeType": "COOP_NODE_END",
          "savePointId": 190970501
        }
      },
      "startNodeId": 188,
      "DHLONCAIIEC": true
    },
    "1909706": {
      "id": 1909706,
      "coopMap": {
        "192": {
          "$type": "EFOECCBHIAL",
          "coopNodeId": 192,
          "coopNodeType": "COOP_NODE_TALK",
          "nextNodeArray": [
            228
          ],
          "talkConfig": {
            "id": 192,
            "performCfg": "QuestDialogue/COOP/Coop101501/Q1909706",
            "loadType": "TALK_COOP",
            "questId": 19097,
            "assetIndex": 2191359105357722993,
            "prePerformCfg": "",
            "lockGameTime": true
          },
          "BJNJIOHKNPL": 35
        },
        "228": {
          "$type": "COBBCENKLHN",
          "coopNodeId": 228,
          "coopNodeType": "COOP_NODE_END",
          "savePointId": 190970601
        }
      },
      "startNodeId": 192,
      "DHLONCAIIEC": true
    },
    "1909707": {
      "id": 1909707,
      "coopMap": {
        "288": {
          "$type": "EFOECCBHIAL",
          "coopNodeId": 288,
          "coopNodeType": "COOP_NODE_TALK",
          "nextNodeArray": [
            290
          ],
          "talkConfig": {
            "id": 288,
            "performCfg": "QuestDialogue/COOP/Coop101501/Q1909707",
            "loadType": "TALK_COOP",
            "questId": 19097,
            "assetIndex": 1713757454292226871,
            "prePerformCfg": "",
            "lockGameTime": true
          },
          "BJNJIOHKNPL": 45
        },
        "290": {
          "$type": "COBBCENKLHN",
          "coopNodeId": 290,
          "coopNodeType": "COOP_NODE_END",
          "savePointId": 190970701
        }
      },
      "startNodeId": 288,
      "DHLONCAIIEC": true
    },
    "1909801": {
      "id": 1909801,
      "coopMap": {
        "31": {
          "$type": "EFOECCBHIAL",
          "coopNodeId": 31,
          "coopNodeType": "COOP_NODE_TALK",
          "nextNodeArray": [
            294
          ],
          "talkConfig": {
            "id": 31,
            "performCfg": "QuestDialogue/COOP/Coop101501/Q1909801",
            "loadType": "TALK_COOP",
            "questId": 19098,
            "assetIndex": 1393222711233426304,
            "prePerformCfg": "",
            "lockGameTime": true
          },
          "BJNJIOHKNPL": 5
        },
        "294": {
          "$type": "COBBCENKLHN",
          "coopNodeId": 294,
          "coopNodeType": "COOP_NODE_END",
          "savePointId": 190980101
        }
      },
      "startNodeId": 31,
      "DHLONCAIIEC": true
    },
    "1909802": {
      "id": 1909802,
      "coopMap": {
        "35": {
          "$type": "EFOECCBHIAL",
          "coopNodeId": 35,
          "coopNodeType": "COOP_NODE_TALK",
          "nextNodeArray": [
            36
          ],
          "talkConfig": {
            "id": 35,
            "performCfg": "QuestDialogue/COOP/Coop101501/Q1909802",
            "loadType": "TALK_COOP",
            "questId": 19098,
            "assetIndex": 3659002210102352833,
            "prePerformCfg": "",
            "lockGameTime": true
          },
          "BJNJIOHKNPL": 6
        },
        "36": {
          "$type": "COBBCENKLHN",
          "coopNodeId": 36,
          "coopNodeType": "COOP_NODE_END",
          "savePointId": 190980201
        }
      },
      "startNodeId": 35,
      "DHLONCAIIEC": true
    },
    "1909803": {
      "id": 1909803,
      "coopMap": {
        "39": {
          "$type": "EFOECCBHIAL",
          "coopNodeId": 39,
          "coopNodeType": "COOP_NODE_TALK",
          "nextNodeArray": [
            40
          ],
          "talkConfig": {
            "id": 39,
            "performCfg": "QuestDialogue/COOP/Coop101501/Q1909803",
            "loadType": "TALK_COOP",
            "questId": 19098,
            "assetIndex": 10997139040367568571,
            "prePerformCfg": "",
            "lockGameTime": true
          },
          "BJNJIOHKNPL": 7
        },
        "40": {
          "$type": "COBBCENKLHN",
          "coopNodeId": 40,
          "coopNodeType": "COOP_NODE_END",
          "savePointId": 190980301
        }
      },
      "startNodeId": 39,
      "DHLONCAIIEC": true
    },
    "1909805": {
      "id": 1909805,
      "coopMap": {
        "47": {
          "$type": "EFOECCBHIAL",
          "coopNodeId": 47,
          "coopNodeType": "COOP_NODE_TALK",
          "nextNodeArray": [
            48
          ],
          "talkConfig": {
            "id": 47,
            "performCfg": "QuestDialogue/COOP/Coop101501/Q1909805",
            "loadType": "TALK_COOP",
            "questId": 19098,
            "assetIndex": 17936502094261287686,
            "prePerformCfg": "",
            "lockGameTime": true
          },
          "BJNJIOHKNPL": 8
        },
        "48": {
          "$type": "COBBCENKLHN",
          "coopNodeId": 48,
          "coopNodeType": "COOP_NODE_END",
          "savePointId": 190980501
        }
      },
      "startNodeId": 47,
      "DHLONCAIIEC": true
    },
    "1909806": {
      "id": 1909806,
      "coopMap": {
        "51": {
          "$type": "EFOECCBHIAL",
          "coopNodeId": 51,
          "coopNodeType": "COOP_NODE_TALK",
          "nextNodeArray": [
            52
          ],
          "talkConfig": {
            "id": 51,
            "performCfg": "QuestDialogue/COOP/Coop101501/Q1909806",
            "loadType": "TALK_COOP",
            "questId": 19098,
            "assetIndex": 12725148366409910002,
            "prePerformCfg": "",
            "lockGameTime": true
          },
          "BJNJIOHKNPL": 9
        },
        "52": {
          "$type": "COBBCENKLHN",
          "coopNodeId": 52,
          "coopNodeType": "COOP_NODE_END",
          "savePointId": 190980601
        }
      },
      "startNodeId": 51,
      "DHLONCAIIEC": true
    },
    "1909807": {
      "id": 1909807,
      "coopMap": {
        "55": {
          "$type": "EFOECCBHIAL",
          "coopNodeId": 55,
          "coopNodeType": "COOP_NODE_TALK",
          "nextNodeArray": [
            56
          ],
          "talkConfig": {
            "id": 55,
            "performCfg": "QuestDialogue/COOP/Coop101501/Q1909807",
            "loadType": "TALK_COOP",
            "questId": 19098,
            "assetIndex": 16329095655457027813,
            "prePerformCfg": "",
            "lockGameTime": true
          },
          "BJNJIOHKNPL": 10
        },
        "56": {
          "$type": "COBBCENKLHN",
          "coopNodeId": 56,
          "coopNodeType": "COOP_NODE_END",
          "savePointId": 190980701
        }
      },
      "startNodeId": 55,
      "DHLONCAIIEC": true
    }
  },
  "subStartPointMap": {
    "1907302": {
      "id": 1907302,
      "coopInteractionId": 1907302
    },
    "1907304": {
      "id": 1907304,
      "coopInteractionId": 1907304
    },
    "1907903": {
      "id": 1907903,
      "coopInteractionId": 1907903
    },
    "1908001": {
      "id": 1908001,
      "coopInteractionId": 1908001
    },
    "1908002": {
      "id": 1908002,
      "coopInteractionId": 1908002
    },
    "1908003": {
      "id": 1908003,
      "coopInteractionId": 1908003
    },
    "1908004": {
      "id": 1908004,
      "coopInteractionId": 1908004
    },
    "1908005": {
      "id": 1908005,
      "coopInteractionId": 1908005
    },
    "1908007": {
      "id": 1908007,
      "coopInteractionId": 1908007
    },
    "1908008": {
      "id": 1908008,
      "coopInteractionId": 1908008
    },
    "1908009": {
      "id": 1908009,
      "coopInteractionId": 1908009
    },
    "1908013": {
      "id": 1908013,
      "coopInteractionId": 1908013
    },
    "1908016": {
      "id": 1908016,
      "coopInteractionId": 1908016
    },
    "1908017": {
      "id": 1908017,
      "coopInteractionId": 1908017
    },
    "1908018": {
      "id": 1908018,
      "coopInteractionId": 1908018
    },
    "1908019": {
      "id": 1908019,
      "coopInteractionId": 1908019
    },
    "1908021": {
      "id": 1908021,
      "coopInteractionId": 1908021
    },
    "1909301": {
      "id": 1909301,
      "coopInteractionId": 1909301
    },
    "1909402": {
      "id": 1909402,
      "coopInteractionId": 1909402
    },
    "1909403": {
      "id": 1909403,
      "coopInteractionId": 1909403
    },
    "1909405": {
      "id": 1909405,
      "coopInteractionId": 1909405
    },
    "1909406": {
      "id": 1909406,
      "coopInteractionId": 1909406
    },
    "1909408": {
      "id": 1909408,
      "coopInteractionId": 1909408
    },
    "1909409": {
      "id": 1909409,
      "coopInteractionId": 1909409
    },
    "1909502": {
      "id": 1909502,
      "coopInteractionId": 1909502
    },
    "1909503": {
      "id": 1909503,
      "coopInteractionId": 1909503
    },
    "1909601": {
      "id": 1909601,
      "coopInteractionId": 1909601
    },
    "1909602": {
      "id": 1909602,
      "coopInteractionId": 1909602
    },
    "1909604": {
      "id": 1909604,
      "coopInteractionId": 1909604
    },
    "1909605": {
      "id": 1909605,
      "coopInteractionId": 1909605
    },
    "1909608": {
      "id": 1909608,
      "coopInteractionId": 1909608
    },
    "1909701": {
      "id": 1909701,
      "coopInteractionId": 1909701
    },
    "1909702": {
      "id": 1909702,
      "coopInteractionId": 1909702
    },
    "1909703": {
      "id": 1909703,
      "coopInteractionId": 1909703
    },
    "1909705": {
      "id": 1909705,
      "coopInteractionId": 1909705
    },
    "1909706": {
      "id": 1909706,
      "coopInteractionId": 1909706
    },
    "1909707": {
      "id": 1909707,
      "coopInteractionId": 1909707
    },
    "1909801": {
      "id": 1909801,
      "coopInteractionId": 1909801
    },
    "1909802": {
      "id": 1909802,
      "coopInteractionId": 1909802
    },
    "1909803": {
      "id": 1909803,
      "coopInteractionId": 1909803
    },
    "1909805": {
      "id": 1909805,
      "coopInteractionId": 1909805
    },
    "1909806": {
      "id": 1909806,
      "coopInteractionId": 1909806
    },
    "1909807": {
      "id": 1909807,
      "coopInteractionId": 1909807
    }
  },
  "savePointMap": {
    "190730201": {
      "id": 190730201
    },
    "190730402": {
      "id": 190730402
    },
    "190730401": {
      "id": 190730401
    },
    "190790301": {
      "id": 190790301
    },
    "190790302": {
      "id": 190790302
    },
    "190800101": {
      "id": 190800101
    },
    "190800201": {
      "id": 190800201
    },
    "190800301": {
      "id": 190800301
    },
    "190800401": {
      "id": 190800401
    },
    "190800501": {
      "id": 190800501
    },
    "190800701": {
      "id": 190800701
    },
    "190800801": {
      "id": 190800801
    },
    "190800901": {
      "id": 190800901,
      "isEnd": true,
      "isEndSaveData": true
    },
    "190801301": {
      "id": 190801301
    },
    "190801601": {
      "id": 190801601
    },
    "190801701": {
      "id": 190801701
    },
    "190801801": {
      "id": 190801801
    },
    "190801901": {
      "id": 190801901
    },
    "190802101": {
      "id": 190802101
    },
    "190930101": {
      "id": 190930101
    },
    "190930102": {
      "id": 190930102
    },
    "190940201": {
      "id": 190940201
    },
    "190940301": {
      "id": 190940301
    },
    "190940501": {
      "id": 190940501
    },
    "190940601": {
      "id": 190940601
    },
    "190940801": {
      "id": 190940801
    },
    "190940901": {
      "id": 190940901,
      "isEnd": true,
      "isEndSaveData": true
    },
    "190950201": {
      "id": 190950201
    },
    "190950301": {
      "id": 190950301
    },
    "190950302": {
      "id": 190950302
    },
    "190960101": {
      "id": 190960101
    },
    "190960201": {
      "id": 190960201
    },
    "190960401": {
      "id": 190960401
    },
    "190960501": {
      "id": 190960501
    },
    "190960801": {
      "id": 190960801,
      "isEnd": true,
      "isEndSaveData": true
    },
    "190970101": {
      "id": 190970101
    },
    "190970201": {
      "id": 190970201
    },
    "190970301": {
      "id": 190970301
    },
    "190970501": {
      "id": 190970501
    },
    "190970601": {
      "id": 190970601
    },
    "190970701": {
      "id": 190970701,
      "isEnd": true,
      "isEndSaveData": true
    },
    "190980101": {
      "id": 190980101
    },
    "190980201": {
      "id": 190980201
    },
    "190980301": {
      "id": 190980301
    },
    "190980501": {
      "id": 190980501
    },
    "190980601": {
      "id": 190980601
    },
    "190980701": {
      "id": 190980701,
      "isEnd": true,
      "isEndSaveData": true
    }
  },
  "confidenceValue": 5,
  "maxConfidenceValue": 5,
  "temperamentMap": {
    "COOP_TEMPERAMENT_1": {
      "param3": 50,
      "hpRatio": 1.0
    },
    "COOP_TEMPERAMENT_2": {
      "param3": 50,
      "hpRatio": 1.0
    },
    "COOP_TEMPERAMENT_3": {
      "param3": 50,
      "hpRatio": 1.0
    },
    "COOP_TEMPERAMENT_4": {
      "param3": 50,
      "hpRatio": 1.0
    }
  },
  "useConfidence": false,
  "useTemperament": false,
  "DHLONCAIIEC": true
}