{
  "coopInteractionMap": {
    "1904101": {
      "id": 1904101,
      "coopMap": {
        "4": {
          "$type": "PPJHAFFOIOK",
          "coopNodeId": 4,
          "coopNodeType": "COOP_NODE_SELECT",
          "nextNodeArray": [
            6,
            7
          ],
          "selectList": [
            {
              "dialogId": 1904101191,
              "hideCond": {},
              "enableCond": {}
            },
            {
              "dialogId": 1904101192,
              "hideCond": {},
              "enableCond": {}
            }
          ]
        },
        "3": {
          "$type": "EFOECCBHIAL",
          "coopNodeId": 3,
          "coopNodeType": "COOP_NODE_TALK",
          "nextNodeArray": [
            4
          ],
          "talkConfig": {
            "id": 3,
            "performCfg": "QuestDialogue/COOP/Coop103201/Q19041011",
            "loadType": "TALK_COOP",
            "questId": 19041,
            "assetIndex": 16742208587007495778,
            "prePerformCfg": ""
          },
          "BJNJIOHKNPL": 39
        },
        "103": {
          "$type": "PPJHAFFOIOK",
          "coopNodeId": 103,
          "coopNodeType": "COOP_NODE_SELECT",
          "nextNodeArray": [
            109,
            106,
            116
          ],
          "selectList": [
            {
              "dialogId": 1904101210,
              "hideCond": {},
              "enableCond": {}
            },
            {
              "dialogId": 1904101212,
              "hideCond": {},
              "enableCond": {}
            },
            {
              "dialogId": 1904101215,
              "hideCond": {},
              "enableCond": {}
            }
          ]
        },
        "6": {
          "$type": "EFOECCBHIAL",
          "coopNodeId": 6,
          "coopNodeType": "COOP_NODE_TALK",
          "nextNodeArray": [
            103
          ],
          "talkConfig": {
            "id": 6,
            "performCfg": "QuestDialogue/COOP/Coop103201/Q19041012",
            "loadType": "TALK_COOP",
            "questId": 19041,
            "assetIndex": 6905177363699212180,
            "prePerformCfg": ""
          },
          "BJNJIOHKNPL": 44
        },
        "109": {
          "$type": "EFOECCBHIAL",
          "coopNodeId": 109,
          "coopNodeType": "COOP_NODE_TALK",
          "nextNodeArray": [
            111
          ],
          "talkConfig": {
            "id": 109,
            "performCfg": "QuestDialogue/COOP/Coop103201/Q19041022",
            "loadType": "TALK_COOP",
            "questId": 19041,
            "assetIndex": 6240544824860753099,
            "prePerformCfg": ""
          },
          "BJNJIOHKNPL": 40
        },
        "9": {
          "$type": "PPJHAFFOIOK",
          "coopNodeId": 9,
          "coopNodeType": "COOP_NODE_SELECT",
          "nextNodeArray": [
            8,
            12
          ],
          "selectList": [
            {
              "dialogId": 1904101291,
              "hideCond": {},
              "enableCond": {}
            },
            {
              "dialogId": 1904101292,
              "hideCond": {},
              "enableCond": {}
            }
          ]
        },
        "111": {
          "$type": "EFOECCBHIAL",
          "coopNodeId": 111,
          "coopNodeType": "COOP_NODE_TALK",
          "nextNodeArray": [
            9
          ],
          "talkConfig": {
            "id": 111,
            "performCfg": "QuestDialogue/COOP/Coop103201/Q19041024",
            "loadType": "TALK_COOP",
            "questId": 19041,
            "assetIndex": 9363810982149687474,
            "prePerformCfg": ""
          },
          "BJNJIOHKNPL": 40
        },
        "112": {
          "$type": "PPJHAFFOIOK",
          "coopNodeId": 112,
          "coopNodeType": "COOP_NODE_SELECT",
          "nextNodeArray": [
            114,
            117
          ],
          "selectList": [
            {
              "dialogId": 1904101403,
              "hideCond": {},
              "enableCond": {}
            },
            {
              "dialogId": 1904101405,
              "hideCond": {},
              "enableCond": {}
            }
          ]
        },
        "8": {
          "$type": "EFOECCBHIAL",
          "coopNodeId": 8,
          "coopNodeType": "COOP_NODE_TALK",
          "nextNodeArray": [
            112
          ],
          "talkConfig": {
            "id": 8,
            "performCfg": "QuestDialogue/COOP/Coop103201/Q19041014",
            "loadType": "TALK_COOP",
            "questId": 19041,
            "assetIndex": 13332645940367453311,
            "prePerformCfg": ""
          },
          "BJNJIOHKNPL": 45
        },
        "114": {
          "$type": "BEMIGNHPIPC",
          "coopNodeId": 114,
          "coopNodeType": "COOP_NODE_ACTION",
          "nextNodeArray": [
            118
          ],
          "actionList": [
            {
              "actionType": "COOP_ACTION_CONFIDENCE_ADD",
              "param": [
                1
              ]
            }
          ]
        },
        "118": {
          "$type": "EFOECCBHIAL",
          "coopNodeId": 118,
          "coopNodeType": "COOP_NODE_TALK",
          "nextNodeArray": [
            17
          ],
          "talkConfig": {
            "id": 118,
            "performCfg": "QuestDialogue/COOP/Coop103201/Q19041031",
            "loadType": "TALK_COOP",
            "questId": 19041,
            "assetIndex": 9064328256623727518,
            "prePerformCfg": ""
          },
          "BJNJIOHKNPL": 1
        },
        "17": {
          "$type": "COBBCENKLHN",
          "coopNodeId": 17,
          "coopNodeType": "COOP_NODE_END",
          "savePointId": 10101
        },
        "117": {
          "$type": "BEMIGNHPIPC",
          "coopNodeId": 117,
          "coopNodeType": "COOP_NODE_ACTION",
          "nextNodeArray": [
            119
          ],
          "actionList": [
            {
              "actionType": "COOP_ACTION_CONFIDENCE_MINUS",
              "param": [
                1
              ]
            }
          ]
        },
        "119": {
          "$type": "EFOECCBHIAL",
          "coopNodeId": 119,
          "coopNodeType": "COOP_NODE_TALK",
          "nextNodeArray": [
            17
          ],
          "talkConfig": {
            "id": 119,
            "performCfg": "QuestDialogue/COOP/Coop103201/Q19041032",
            "loadType": "TALK_COOP",
            "questId": 19041,
            "assetIndex": 12824131620873283225,
            "prePerformCfg": ""
          },
          "BJNJIOHKNPL": 2
        },
        "134": {
          "$type": "PPJHAFFOIOK",
          "coopNodeId": 134,
          "coopNodeType": "COOP_NODE_SELECT",
          "nextNodeArray": [
            136,
            137
          ],
          "selectList": [
            {
              "dialogId": 1904101506,
              "hideCond": {},
              "enableCond": {}
            },
            {
              "dialogId": 1904101508,
              "hideCond": {},
              "enableCond": {}
            }
          ]
        },
        "12": {
          "$type": "EFOECCBHIAL",
          "coopNodeId": 12,
          "coopNodeType": "COOP_NODE_TALK",
          "nextNodeArray": [
            134
          ],
          "talkConfig": {
            "id": 12,
            "performCfg": "QuestDialogue/COOP/Coop103201/Q19041015",
            "loadType": "TALK_COOP",
            "questId": 19041,
            "assetIndex": 14562353243502504615,
            "prePerformCfg": ""
          },
          "BJNJIOHKNPL": 49
        },
        "136": {
          "$type": "BEMIGNHPIPC",
          "coopNodeId": 136,
          "coopNodeType": "COOP_NODE_ACTION",
          "nextNodeArray": [
            138
          ],
          "actionList": [
            {
              "actionType": "COOP_ACTION_CONFIDENCE_ADD",
              "param": [
                1
              ]
            }
          ]
        },
        "138": {
          "$type": "EFOECCBHIAL",
          "coopNodeId": 138,
          "coopNodeType": "COOP_NODE_TALK",
          "nextNodeArray": [
            18
          ],
          "talkConfig": {
            "id": 138,
            "performCfg": "QuestDialogue/COOP/Coop103201/Q19041041",
            "loadType": "TALK_COOP",
            "questId": 19041,
            "assetIndex": 2585604566332088126,
            "prePerformCfg": ""
          },
          "BJNJIOHKNPL": 3
        },
        "18": {
          "$type": "COBBCENKLHN",
          "coopNodeId": 18,
          "coopNodeType": "COOP_NODE_END",
          "savePointId": 10102
        },
        "137": {
          "$type": "BEMIGNHPIPC",
          "coopNodeId": 137,
          "coopNodeType": "COOP_NODE_ACTION",
          "nextNodeArray": [
            139
          ],
          "actionList": [
            {
              "actionType": "COOP_ACTION_CONFIDENCE_MINUS",
              "param": [
                1
              ]
            }
          ]
        },
        "139": {
          "$type": "EFOECCBHIAL",
          "coopNodeId": 139,
          "coopNodeType": "COOP_NODE_TALK",
          "nextNodeArray": [
            18
          ],
          "talkConfig": {
            "id": 139,
            "performCfg": "QuestDialogue/COOP/Coop103201/Q19041042",
            "loadType": "TALK_COOP",
            "questId": 19041,
            "assetIndex": 1461829310233175580,
            "prePerformCfg": ""
          },
          "BJNJIOHKNPL": 4
        },
        "106": {
          "$type": "BEMIGNHPIPC",
          "coopNodeId": 106,
          "coopNodeType": "COOP_NODE_ACTION",
          "nextNodeArray": [
            108
          ],
          "actionList": [
            {
              "actionType": "COOP_ACTION_CONFIDENCE_ADD",
              "param": [
                1
              ]
            }
          ]
        },
        "108": {
          "$type": "EFOECCBHIAL",
          "coopNodeId": 108,
          "coopNodeType": "COOP_NODE_TALK",
          "nextNodeArray": [
            111
          ],
          "talkConfig": {
            "id": 108,
            "performCfg": "QuestDialogue/COOP/Coop103201/Q19041021",
            "loadType": "TALK_COOP",
            "questId": 19041,
            "assetIndex": 13886976143647256059,
            "prePerformCfg": ""
          },
          "BJNJIOHKNPL": 40
        },
        "116": {
          "$type": "BEMIGNHPIPC",
          "coopNodeId": 116,
          "coopNodeType": "COOP_NODE_ACTION",
          "nextNodeArray": [
            110
          ],
          "actionList": [
            {
              "actionType": "COOP_ACTION_CONFIDENCE_MINUS",
              "param": [
                1
              ]
            }
          ]
        },
        "110": {
          "$type": "EFOECCBHIAL",
          "coopNodeId": 110,
          "coopNodeType": "COOP_NODE_TALK",
          "nextNodeArray": [
            111
          ],
          "talkConfig": {
            "id": 110,
            "performCfg": "QuestDialogue/COOP/Coop103201/Q19041023",
            "loadType": "TALK_COOP",
            "questId": 19041,
            "assetIndex": 4727550783149382346,
            "prePerformCfg": ""
          },
          "BJNJIOHKNPL": 40
        },
        "158": {
          "$type": "PPJHAFFOIOK",
          "coopNodeId": 158,
          "coopNodeType": "COOP_NODE_SELECT",
          "nextNodeArray": [
            161,
            160
          ],
          "selectList": [
            {
              "dialogId": 1904101304,
              "hideCond": {},
              "enableCond": {}
            },
            {
              "dialogId": 1904101306,
              "hideCond": {},
              "enableCond": {}
            }
          ]
        },
        "7": {
          "$type": "EFOECCBHIAL",
          "coopNodeId": 7,
          "coopNodeType": "COOP_NODE_TALK",
          "nextNodeArray": [
            158
          ],
          "talkConfig": {
            "id": 7,
            "performCfg": "QuestDialogue/COOP/Coop103201/Q19041013",
            "loadType": "TALK_COOP",
            "questId": 19041,
            "assetIndex": 16908430883073686525,
            "prePerformCfg": ""
          },
          "BJNJIOHKNPL": 53
        },
        "161": {
          "$type": "EFOECCBHIAL",
          "coopNodeId": 161,
          "coopNodeType": "COOP_NODE_TALK",
          "nextNodeArray": [
            163
          ],
          "talkConfig": {
            "id": 161,
            "performCfg": "QuestDialogue/COOP/Coop103201/Q19041051",
            "loadType": "TALK_COOP",
            "questId": 19041,
            "assetIndex": 518753058008213370,
            "prePerformCfg": ""
          },
          "BJNJIOHKNPL": 41
        },
        "13": {
          "$type": "PPJHAFFOIOK",
          "coopNodeId": 13,
          "coopNodeType": "COOP_NODE_SELECT",
          "nextNodeArray": [
            15,
            16
          ],
          "selectList": [
            {
              "dialogId": 1904101391,
              "hideCond": {},
              "enableCond": {}
            },
            {
              "dialogId": 1904101392,
              "hideCond": {},
              "enableCond": {}
            }
          ]
        },
        "163": {
          "$type": "EFOECCBHIAL",
          "coopNodeId": 163,
          "coopNodeType": "COOP_NODE_TALK",
          "nextNodeArray": [
            13
          ],
          "talkConfig": {
            "id": 163,
            "performCfg": "QuestDialogue/COOP/Coop103201/Q19041053",
            "loadType": "TALK_COOP",
            "questId": 19041,
            "assetIndex": 9420914841613663576,
            "prePerformCfg": ""
          },
          "BJNJIOHKNPL": 41
        },
        "15": {
          "$type": "EFOECCBHIAL",
          "coopNodeId": 15,
          "coopNodeType": "COOP_NODE_TALK",
          "nextNodeArray": [
            177
          ],
          "talkConfig": {
            "id": 15,
            "performCfg": "QuestDialogue/COOP/Coop103201/Q19041016",
            "loadType": "TALK_COOP",
            "questId": 19041,
            "assetIndex": 13085999830750251664,
            "prePerformCfg": ""
          },
          "BJNJIOHKNPL": 5
        },
        "177": {
          "$type": "BEMIGNHPIPC",
          "coopNodeId": 177,
          "coopNodeType": "COOP_NODE_ACTION",
          "nextNodeArray": [
            19
          ],
          "actionList": [
            {
              "actionType": "COOP_ACTION_TEMP_VALUE_SET",
              "param": [
                1,
                1
              ]
            }
          ]
        },
        "19": {
          "$type": "COBBCENKLHN",
          "coopNodeId": 19,
          "coopNodeType": "COOP_NODE_END",
          "savePointId": 10103
        },
        "16": {
          "$type": "EFOECCBHIAL",
          "coopNodeId": 16,
          "coopNodeType": "COOP_NODE_TALK",
          "nextNodeArray": [
            178
          ],
          "talkConfig": {
            "id": 16,
            "performCfg": "QuestDialogue/COOP/Coop103201/Q19041017",
            "loadType": "TALK_COOP",
            "questId": 19041,
            "assetIndex": 3203854774201261944,
            "prePerformCfg": ""
          },
          "BJNJIOHKNPL": 6
        },
        "178": {
          "$type": "BEMIGNHPIPC",
          "coopNodeId": 178,
          "coopNodeType": "COOP_NODE_ACTION",
          "nextNodeArray": [
            20
          ],
          "actionList": [
            {
              "actionType": "COOP_ACTION_TEMP_VALUE_SET",
              "param": [
                1,
                2
              ]
            }
          ]
        },
        "20": {
          "$type": "COBBCENKLHN",
          "coopNodeId": 20,
          "coopNodeType": "COOP_NODE_END",
          "savePointId": 10104
        },
        "160": {
          "$type": "BEMIGNHPIPC",
          "coopNodeId": 160,
          "coopNodeType": "COOP_NODE_ACTION",
          "nextNodeArray": [
            162
          ],
          "actionList": [
            {
              "actionType": "COOP_ACTION_CONFIDENCE_ADD",
              "param": [
                1
              ]
            }
          ]
        },
        "162": {
          "$type": "EFOECCBHIAL",
          "coopNodeId": 162,
          "coopNodeType": "COOP_NODE_TALK",
          "nextNodeArray": [
            163
          ],
          "talkConfig": {
            "id": 162,
            "performCfg": "QuestDialogue/COOP/Coop103201/Q19041052",
            "loadType": "TALK_COOP",
            "questId": 19041,
            "assetIndex": 15603935127223821998,
            "prePerformCfg": ""
          },
          "BJNJIOHKNPL": 41
        },
        "179": {
          "$type": "EFOECCBHIAL",
          "coopNodeId": 179,
          "coopNodeType": "COOP_NODE_TALK",
          "nextNodeArray": [
            181
          ],
          "talkConfig": {
            "id": 179,
            "performCfg": "QuestDialogue/COOP/Coop103201/Q19041099",
            "loadType": "TALK_COOP",
            "questId": 19041,
            "assetIndex": 1839929914970827006,
            "prePerformCfg": ""
          },
          "BJNJIOHKNPL": 34
        },
        "181": {
          "$type": "COBBCENKLHN",
          "coopNodeId": 181,
          "coopNodeType": "COOP_NODE_END",
          "savePointId": 902
        }
      },
      "startNodeId": 3,
      "failNodeId": 179,
      "DHLONCAIIEC": true
    },
    "1904201": {
      "id": 1904201,
      "coopMap": {
        "22": {
          "$type": "EFOECCBHIAL",
          "coopNodeId": 22,
          "coopNodeType": "COOP_NODE_TALK",
          "nextNodeArray": [
            23
          ],
          "talkConfig": {
            "id": 22,
            "performCfg": "QuestDialogue/COOP/Coop103201/Q19042011",
            "loadType": "TALK_COOP",
            "questId": 19042,
            "assetIndex": 9169956721894651024,
            "prePerformCfg": ""
          },
          "BJNJIOHKNPL": 7
        },
        "23": {
          "$type": "COBBCENKLHN",
          "coopNodeId": 23,
          "coopNodeType": "COOP_NODE_END",
          "savePointId": 20101
        }
      },
      "startNodeId": 22,
      "DHLONCAIIEC": true
    },
    "1904202": {
      "id": 1904202,
      "coopMap": {
        "26": {
          "$type": "EFOECCBHIAL",
          "coopNodeId": 26,
          "coopNodeType": "COOP_NODE_TALK",
          "nextNodeArray": [
            24
          ],
          "talkConfig": {
            "id": 26,
            "performCfg": "QuestDialogue/COOP/Coop103201/Q19042021",
            "loadType": "TALK_COOP",
            "questId": 19042,
            "assetIndex": 12213522596806633539,
            "prePerformCfg": ""
          },
          "BJNJIOHKNPL": 8
        },
        "24": {
          "$type": "COBBCENKLHN",
          "coopNodeId": 24,
          "coopNodeType": "COOP_NODE_END",
          "savePointId": 20201
        }
      },
      "startNodeId": 26,
      "DHLONCAIIEC": true
    },
    "1904203": {
      "id": 1904203,
      "coopMap": {
        "120": {
          "$type": "PPJHAFFOIOK",
          "coopNodeId": 120,
          "coopNodeType": "COOP_NODE_SELECT",
          "nextNodeArray": [
            123,
            122
          ],
          "selectList": [
            {
              "dialogId": 1904203107,
              "hideCond": {},
              "enableCond": {}
            },
            {
              "dialogId": 1904203108,
              "hideCond": {},
              "enableCond": {}
            }
          ]
        },
        "28": {
          "$type": "EFOECCBHIAL",
          "coopNodeId": 28,
          "coopNodeType": "COOP_NODE_TALK",
          "nextNodeArray": [
            120
          ],
          "talkConfig": {
            "id": 28,
            "performCfg": "QuestDialogue/COOP/Coop103201/Q19042031",
            "loadType": "TALK_COOP",
            "questId": 19042,
            "assetIndex": 12076060485858563221,
            "prePerformCfg": ""
          },
          "BJNJIOHKNPL": 46
        },
        "129": {
          "$type": "PPJHAFFOIOK",
          "coopNodeId": 129,
          "coopNodeType": "COOP_NODE_SELECT",
          "nextNodeArray": [
            131,
            132
          ],
          "selectList": [
            {
              "dialogId": 1904203133,
              "hideCond": {},
              "enableCond": {}
            },
            {
              "dialogId": 1904203135,
              "hideCond": {},
              "enableCond": {}
            }
          ]
        },
        "123": {
          "$type": "EFOECCBHIAL",
          "coopNodeId": 123,
          "coopNodeType": "COOP_NODE_TALK",
          "nextNodeArray": [
            129
          ],
          "talkConfig": {
            "id": 123,
            "performCfg": "QuestDialogue/COOP/Coop103201/Q19042041",
            "loadType": "TALK_COOP",
            "questId": 19042,
            "assetIndex": 8184461671054954982,
            "prePerformCfg": ""
          },
          "BJNJIOHKNPL": 48
        },
        "131": {
          "$type": "EFOECCBHIAL",
          "coopNodeId": 131,
          "coopNodeType": "COOP_NODE_TALK",
          "nextNodeArray": [
            175
          ],
          "talkConfig": {
            "id": 131,
            "performCfg": "QuestDialogue/COOP/Coop103201/Q19042043",
            "loadType": "TALK_COOP",
            "questId": 19042,
            "assetIndex": 5146185899110480154,
            "prePerformCfg": ""
          },
          "BJNJIOHKNPL": 9
        },
        "175": {
          "$type": "EFOECCBHIAL",
          "coopNodeId": 175,
          "coopNodeType": "COOP_NODE_TALK",
          "nextNodeArray": [
            29
          ],
          "talkConfig": {
            "id": 175,
            "performCfg": "QuestDialogue/COOP/Coop103201/Q19042045",
            "loadType": "TALK_COOP",
            "questId": 19042,
            "assetIndex": 18430046202674065879,
            "prePerformCfg": ""
          },
          "BJNJIOHKNPL": 9
        },
        "29": {
          "$type": "COBBCENKLHN",
          "coopNodeId": 29,
          "coopNodeType": "COOP_NODE_END",
          "savePointId": 101
        },
        "132": {
          "$type": "BEMIGNHPIPC",
          "coopNodeId": 132,
          "coopNodeType": "COOP_NODE_ACTION",
          "nextNodeArray": [
            133
          ],
          "actionList": [
            {
              "actionType": "COOP_ACTION_CONFIDENCE_MINUS",
              "param": [
                1
              ]
            }
          ]
        },
        "133": {
          "$type": "EFOECCBHIAL",
          "coopNodeId": 133,
          "coopNodeType": "COOP_NODE_TALK",
          "nextNodeArray": [
            175
          ],
          "talkConfig": {
            "id": 133,
            "performCfg": "QuestDialogue/COOP/Coop103201/Q19042044",
            "loadType": "TALK_COOP",
            "questId": 19042,
            "assetIndex": 5418253175911513089,
            "prePerformCfg": ""
          },
          "BJNJIOHKNPL": 9
        },
        "122": {
          "$type": "BEMIGNHPIPC",
          "coopNodeId": 122,
          "coopNodeType": "COOP_NODE_ACTION",
          "nextNodeArray": [
            124
          ],
          "actionList": [
            {
              "actionType": "COOP_ACTION_CONFIDENCE_ADD",
              "param": [
                1
              ]
            }
          ]
        },
        "124": {
          "$type": "EFOECCBHIAL",
          "coopNodeId": 124,
          "coopNodeType": "COOP_NODE_TALK",
          "nextNodeArray": [
            123
          ],
          "talkConfig": {
            "id": 124,
            "performCfg": "QuestDialogue/COOP/Coop103201/Q19042042",
            "loadType": "TALK_COOP",
            "questId": 19042,
            "assetIndex": 3699945264622495129,
            "prePerformCfg": ""
          },
          "BJNJIOHKNPL": 48
        },
        "184": {
          "$type": "EFOECCBHIAL",
          "coopNodeId": 184,
          "coopNodeType": "COOP_NODE_TALK",
          "nextNodeArray": [
            185
          ],
          "talkConfig": {
            "id": 184,
            "performCfg": "QuestDialogue/COOP/Coop103201/Q19041099",
            "loadType": "TALK_COOP",
            "questId": 19042,
            "assetIndex": 11809833822501313238,
            "prePerformCfg": ""
          },
          "BJNJIOHKNPL": 36
        },
        "185": {
          "$type": "COBBCENKLHN",
          "coopNodeId": 185,
          "coopNodeType": "COOP_NODE_END",
          "savePointId": 904
        }
      },
      "startNodeId": 28,
      "failNodeId": 184,
      "DHLONCAIIEC": true
    },
    "1904301": {
      "id": 1904301,
      "coopMap": {
        "140": {
          "$type": "PPJHAFFOIOK",
          "coopNodeId": 140,
          "coopNodeType": "COOP_NODE_SELECT",
          "nextNodeArray": [
            145,
            143,
            144
          ],
          "selectList": [
            {
              "dialogId": 1904301108,
              "hideCond": {},
              "enableCond": {}
            },
            {
              "dialogId": 1904301110,
              "hideCond": {},
              "enableCond": {}
            },
            {
              "dialogId": 1904301112,
              "hideCond": {},
              "enableCond": {}
            }
          ]
        },
        "31": {
          "$type": "EFOECCBHIAL",
          "coopNodeId": 31,
          "coopNodeType": "COOP_NODE_TALK",
          "nextNodeArray": [
            140
          ],
          "talkConfig": {
            "id": 31,
            "performCfg": "QuestDialogue/COOP/Coop103201/Q19043011",
            "loadType": "TALK_COOP",
            "questId": 19043,
            "assetIndex": 5039304992261664306,
            "prePerformCfg": ""
          },
          "BJNJIOHKNPL": 50
        },
        "145": {
          "$type": "EFOECCBHIAL",
          "coopNodeId": 145,
          "coopNodeType": "COOP_NODE_TALK",
          "nextNodeArray": [
            176
          ],
          "talkConfig": {
            "id": 145,
            "performCfg": "QuestDialogue/COOP/Coop103201/Q19043012",
            "loadType": "TALK_COOP",
            "questId": 19043,
            "assetIndex": 16894374333220086592,
            "prePerformCfg": ""
          },
          "BJNJIOHKNPL": 10
        },
        "176": {
          "$type": "EFOECCBHIAL",
          "coopNodeId": 176,
          "coopNodeType": "COOP_NODE_TALK",
          "nextNodeArray": [
            32
          ],
          "talkConfig": {
            "id": 176,
            "performCfg": "QuestDialogue/COOP/Coop103201/Q19043015",
            "loadType": "TALK_COOP",
            "questId": 19043,
            "assetIndex": 10388861353870131772,
            "prePerformCfg": ""
          },
          "BJNJIOHKNPL": 10
        },
        "32": {
          "$type": "COBBCENKLHN",
          "coopNodeId": 32,
          "coopNodeType": "COOP_NODE_END",
          "savePointId": 30101
        },
        "143": {
          "$type": "BEMIGNHPIPC",
          "coopNodeId": 143,
          "coopNodeType": "COOP_NODE_ACTION",
          "nextNodeArray": [
            146
          ],
          "actionList": [
            {
              "actionType": "COOP_ACTION_CONFIDENCE_ADD",
              "param": [
                1
              ]
            }
          ]
        },
        "146": {
          "$type": "EFOECCBHIAL",
          "coopNodeId": 146,
          "coopNodeType": "COOP_NODE_TALK",
          "nextNodeArray": [
            176
          ],
          "talkConfig": {
            "id": 146,
            "performCfg": "QuestDialogue/COOP/Coop103201/Q19043013",
            "loadType": "TALK_COOP",
            "questId": 19043,
            "assetIndex": 5240561154114892432,
            "prePerformCfg": ""
          },
          "BJNJIOHKNPL": 10
        },
        "144": {
          "$type": "BEMIGNHPIPC",
          "coopNodeId": 144,
          "coopNodeType": "COOP_NODE_ACTION",
          "nextNodeArray": [
            147
          ],
          "actionList": [
            {
              "actionType": "COOP_ACTION_CONFIDENCE_MINUS",
              "param": [
                1
              ]
            }
          ]
        },
        "147": {
          "$type": "EFOECCBHIAL",
          "coopNodeId": 147,
          "coopNodeType": "COOP_NODE_TALK",
          "nextNodeArray": [
            176
          ],
          "talkConfig": {
            "id": 147,
            "performCfg": "QuestDialogue/COOP/Coop103201/Q19043014",
            "loadType": "TALK_COOP",
            "questId": 19043,
            "assetIndex": 16690114320877140494,
            "prePerformCfg": ""
          },
          "BJNJIOHKNPL": 10
        },
        "182": {
          "$type": "EFOECCBHIAL",
          "coopNodeId": 182,
          "coopNodeType": "COOP_NODE_TALK",
          "nextNodeArray": [
            183
          ],
          "talkConfig": {
            "id": 182,
            "performCfg": "QuestDialogue/COOP/Coop103201/Q19041099",
            "loadType": "TALK_COOP",
            "questId": 19043,
            "assetIndex": 12670963073317538786,
            "prePerformCfg": ""
          },
          "BJNJIOHKNPL": 35
        },
        "183": {
          "$type": "COBBCENKLHN",
          "coopNodeId": 183,
          "coopNodeType": "COOP_NODE_END",
          "savePointId": 903
        }
      },
      "startNodeId": 31,
      "failNodeId": 182,
      "DHLONCAIIEC": true
    },
    "1904302": {
      "id": 1904302,
      "coopMap": {
        "34": {
          "$type": "EFOECCBHIAL",
          "coopNodeId": 34,
          "coopNodeType": "COOP_NODE_TALK",
          "nextNodeArray": [
            35
          ],
          "talkConfig": {
            "id": 34,
            "performCfg": "QuestDialogue/COOP/Coop103201/Q19043021",
            "loadType": "TALK_COOP",
            "questId": 19043,
            "assetIndex": 14761532070669722761,
            "prePerformCfg": ""
          },
          "BJNJIOHKNPL": 11
        },
        "35": {
          "$type": "COBBCENKLHN",
          "coopNodeId": 35,
          "coopNodeType": "COOP_NODE_END",
          "savePointId": 30201
        }
      },
      "startNodeId": 34,
      "DHLONCAIIEC": true
    },
    "1904303": {
      "id": 1904303,
      "coopMap": {
        "148": {
          "$type": "PPJHAFFOIOK",
          "coopNodeId": 148,
          "coopNodeType": "COOP_NODE_SELECT",
          "nextNodeArray": [
            150,
            151
          ],
          "selectList": [
            {
              "dialogId": 1904303115,
              "hideCond": {},
              "enableCond": {}
            },
            {
              "dialogId": 1904303118,
              "hideCond": {},
              "enableCond": {}
            }
          ]
        },
        "37": {
          "$type": "EFOECCBHIAL",
          "coopNodeId": 37,
          "coopNodeType": "COOP_NODE_TALK",
          "nextNodeArray": [
            148
          ],
          "talkConfig": {
            "id": 37,
            "performCfg": "QuestDialogue/COOP/Coop103201/Q19043031",
            "loadType": "TALK_COOP",
            "questId": 19043,
            "assetIndex": 586437270456806526,
            "prePerformCfg": ""
          },
          "BJNJIOHKNPL": 51
        },
        "150": {
          "$type": "BEMIGNHPIPC",
          "coopNodeId": 150,
          "coopNodeType": "COOP_NODE_ACTION",
          "nextNodeArray": [
            152
          ],
          "actionList": [
            {
              "actionType": "COOP_ACTION_CONFIDENCE_MINUS",
              "param": [
                1
              ]
            }
          ]
        },
        "152": {
          "$type": "EFOECCBHIAL",
          "coopNodeId": 152,
          "coopNodeType": "COOP_NODE_TALK",
          "nextNodeArray": [
            38
          ],
          "talkConfig": {
            "id": 152,
            "performCfg": "QuestDialogue/COOP/Coop103201/Q19043032",
            "loadType": "TALK_COOP",
            "questId": 19043,
            "assetIndex": 8564858531134105544,
            "prePerformCfg": ""
          },
          "BJNJIOHKNPL": 12
        },
        "38": {
          "$type": "COBBCENKLHN",
          "coopNodeId": 38,
          "coopNodeType": "COOP_NODE_END",
          "savePointId": 30301
        },
        "151": {
          "$type": "EFOECCBHIAL",
          "coopNodeId": 151,
          "coopNodeType": "COOP_NODE_TALK",
          "nextNodeArray": [
            38
          ],
          "talkConfig": {
            "id": 151,
            "performCfg": "QuestDialogue/COOP/Coop103201/Q19043033",
            "loadType": "TALK_COOP",
            "questId": 19043,
            "assetIndex": 3706713785386139601,
            "prePerformCfg": ""
          },
          "BJNJIOHKNPL": 13
        },
        "186": {
          "$type": "EFOECCBHIAL",
          "coopNodeId": 186,
          "coopNodeType": "COOP_NODE_TALK",
          "nextNodeArray": [
            187
          ],
          "talkConfig": {
            "id": 186,
            "performCfg": "QuestDialogue/COOP/Coop103201/Q19041099",
            "loadType": "TALK_COOP",
            "questId": 19043,
            "assetIndex": 7895454160102215696,
            "prePerformCfg": ""
          },
          "BJNJIOHKNPL": 37
        },
        "187": {
          "$type": "COBBCENKLHN",
          "coopNodeId": 187,
          "coopNodeType": "COOP_NODE_END",
          "savePointId": 905
        }
      },
      "startNodeId": 37,
      "failNodeId": 186,
      "DHLONCAIIEC": true
    },
    "1904304": {
      "id": 1904304,
      "coopMap": {
        "153": {
          "$type": "PPJHAFFOIOK",
          "coopNodeId": 153,
          "coopNodeType": "COOP_NODE_SELECT",
          "nextNodeArray": [
            155,
            157
          ],
          "selectList": [
            {
              "dialogId": 1904304109,
              "hideCond": {},
              "enableCond": {}
            },
            {
              "dialogId": 1904304111,
              "hideCond": {},
              "enableCond": {}
            }
          ]
        },
        "40": {
          "$type": "EFOECCBHIAL",
          "coopNodeId": 40,
          "coopNodeType": "COOP_NODE_TALK",
          "nextNodeArray": [
            153
          ],
          "talkConfig": {
            "id": 40,
            "performCfg": "QuestDialogue/COOP/Coop103201/Q19043041",
            "loadType": "TALK_COOP",
            "questId": 19043,
            "assetIndex": 3213537920194614433,
            "prePerformCfg": ""
          },
          "BJNJIOHKNPL": 52
        },
        "155": {
          "$type": "BEMIGNHPIPC",
          "coopNodeId": 155,
          "coopNodeType": "COOP_NODE_ACTION",
          "nextNodeArray": [
            156
          ],
          "actionList": [
            {
              "actionType": "COOP_ACTION_CONFIDENCE_ADD",
              "param": [
                1
              ]
            }
          ]
        },
        "156": {
          "$type": "EFOECCBHIAL",
          "coopNodeId": 156,
          "coopNodeType": "COOP_NODE_TALK",
          "nextNodeArray": [
            41
          ],
          "talkConfig": {
            "id": 156,
            "performCfg": "QuestDialogue/COOP/Coop103201/Q19043042",
            "loadType": "TALK_COOP",
            "questId": 19043,
            "assetIndex": 8928578367151909548,
            "prePerformCfg": ""
          },
          "BJNJIOHKNPL": 14
        },
        "41": {
          "$type": "COBBCENKLHN",
          "coopNodeId": 41,
          "coopNodeType": "COOP_NODE_END",
          "savePointId": 201
        },
        "157": {
          "$type": "EFOECCBHIAL",
          "coopNodeId": 157,
          "coopNodeType": "COOP_NODE_TALK",
          "nextNodeArray": [
            41
          ],
          "talkConfig": {
            "id": 157,
            "performCfg": "QuestDialogue/COOP/Coop103201/Q19043043",
            "loadType": "TALK_COOP",
            "questId": 19043,
            "assetIndex": 3183811635264886897,
            "prePerformCfg": ""
          },
          "BJNJIOHKNPL": 15
        }
      },
      "startNodeId": 40,
      "DHLONCAIIEC": true
    },
    "1904401": {
      "id": 1904401,
      "coopMap": {
        "44": {
          "$type": "EFOECCBHIAL",
          "coopNodeId": 44,
          "coopNodeType": "COOP_NODE_TALK",
          "nextNodeArray": [
            42
          ],
          "talkConfig": {
            "id": 44,
            "performCfg": "QuestDialogue/COOP/Coop103201/Q19044011",
            "loadType": "TALK_COOP",
            "questId": 19044,
            "assetIndex": 192491016307816831,
            "prePerformCfg": ""
          },
          "BJNJIOHKNPL": 16
        },
        "42": {
          "$type": "COBBCENKLHN",
          "coopNodeId": 42,
          "coopNodeType": "COOP_NODE_END",
          "savePointId": 40101
        }
      },
      "startNodeId": 44,
      "DHLONCAIIEC": true
    },
    "1904402": {
      "id": 1904402,
      "coopMap": {
        "46": {
          "$type": "EFOECCBHIAL",
          "coopNodeId": 46,
          "coopNodeType": "COOP_NODE_TALK",
          "nextNodeArray": [
            49
          ],
          "talkConfig": {
            "id": 46,
            "performCfg": "QuestDialogue/COOP/Coop103201/Q19044021",
            "loadType": "TALK_COOP",
            "questId": 19044,
            "assetIndex": 6349203479150325979,
            "prePerformCfg": ""
          },
          "BJNJIOHKNPL": 17
        },
        "49": {
          "$type": "EFOECCBHIAL",
          "coopNodeId": 49,
          "coopNodeType": "COOP_NODE_TALK",
          "nextNodeArray": [
            50
          ],
          "talkConfig": {
            "id": 49,
            "performCfg": "QuestDialogue/COOP/Coop103201/Q19044031",
            "loadType": "TALK_COOP",
            "questId": 19044,
            "assetIndex": 13219975198700928189,
            "prePerformCfg": ""
          },
          "BJNJIOHKNPL": 17
        },
        "50": {
          "$type": "COBBCENKLHN",
          "coopNodeId": 50,
          "coopNodeType": "COOP_NODE_END",
          "savePointId": 40301
        }
      },
      "startNodeId": 46,
      "DHLONCAIIEC": true
    },
    "1904403": {
      "id": 1904403,
      "DHLONCAIIEC": true
    },
    "1904404": {
      "id": 1904404,
      "coopMap": {
        "53": {
          "$type": "PPJHAFFOIOK",
          "coopNodeId": 53,
          "coopNodeType": "COOP_NODE_SELECT",
          "nextNodeArray": [
            55,
            57
          ],
          "selectList": [
            {
              "dialogId": 1904404191,
              "hideCond": {},
              "enableCond": {}
            },
            {
              "dialogId": 1904404192,
              "hideCond": {},
              "enableCond": {}
            }
          ]
        },
        "52": {
          "$type": "EFOECCBHIAL",
          "coopNodeId": 52,
          "coopNodeType": "COOP_NODE_TALK",
          "nextNodeArray": [
            53
          ],
          "talkConfig": {
            "id": 52,
            "performCfg": "QuestDialogue/COOP/Coop103201/Q19044041",
            "loadType": "TALK_COOP",
            "questId": 19044,
            "assetIndex": 13291959096771233159,
            "prePerformCfg": ""
          },
          "BJNJIOHKNPL": 42
        },
        "55": {
          "$type": "EFOECCBHIAL",
          "coopNodeId": 55,
          "coopNodeType": "COOP_NODE_TALK",
          "nextNodeArray": [
            56
          ],
          "talkConfig": {
            "id": 55,
            "performCfg": "QuestDialogue/COOP/Coop103201/Q19044042",
            "loadType": "TALK_COOP",
            "questId": 19044,
            "assetIndex": 17756724344698103873,
            "prePerformCfg": ""
          },
          "BJNJIOHKNPL": 18
        },
        "56": {
          "$type": "COBBCENKLHN",
          "coopNodeId": 56,
          "coopNodeType": "COOP_NODE_END",
          "savePointId": 301
        },
        "57": {
          "$type": "EFOECCBHIAL",
          "coopNodeId": 57,
          "coopNodeType": "COOP_NODE_TALK",
          "nextNodeArray": [
            58
          ],
          "talkConfig": {
            "id": 57,
            "performCfg": "QuestDialogue/COOP/Coop103201/Q19044043",
            "loadType": "TALK_COOP",
            "questId": 19044,
            "assetIndex": 2357823723031643163,
            "prePerformCfg": ""
          },
          "BJNJIOHKNPL": 19
        },
        "58": {
          "$type": "COBBCENKLHN",
          "coopNodeId": 58,
          "coopNodeType": "COOP_NODE_END",
          "savePointId": 40401
        }
      },
      "startNodeId": 52,
      "DHLONCAIIEC": true
    },
    "1904405": {
      "id": 1904405,
      "coopMap": {
        "60": {
          "$type": "EFOECCBHIAL",
          "coopNodeId": 60,
          "coopNodeType": "COOP_NODE_TALK",
          "nextNodeArray": [
            61
          ],
          "talkConfig": {
            "id": 60,
            "performCfg": "QuestDialogue/COOP/Coop103201/Q19044051",
            "loadType": "TALK_COOP",
            "questId": 19044,
            "assetIndex": 9519533341861038630,
            "prePerformCfg": ""
          },
          "BJNJIOHKNPL": 20
        },
        "61": {
          "$type": "COBBCENKLHN",
          "coopNodeId": 61,
          "coopNodeType": "COOP_NODE_END",
          "savePointId": 302
        }
      },
      "startNodeId": 60,
      "DHLONCAIIEC": true
    },
    "1904501": {
      "id": 1904501,
      "coopMap": {
        "63": {
          "$type": "EFOECCBHIAL",
          "coopNodeId": 63,
          "coopNodeType": "COOP_NODE_TALK",
          "nextNodeArray": [
            64
          ],
          "talkConfig": {
            "id": 63,
            "performCfg": "QuestDialogue/COOP/Coop103201/Q19045011",
            "loadType": "TALK_COOP",
            "questId": 19045,
            "assetIndex": 8850400654980828130,
            "prePerformCfg": ""
          },
          "BJNJIOHKNPL": 21
        },
        "64": {
          "$type": "COBBCENKLHN",
          "coopNodeId": 64,
          "coopNodeType": "COOP_NODE_END",
          "savePointId": 50101
        }
      },
      "startNodeId": 63,
      "DHLONCAIIEC": true
    },
    "1904502": {
      "id": 1904502,
      "coopMap": {
        "68": {
          "$type": "PPJHAFFOIOK",
          "coopNodeId": 68,
          "coopNodeType": "COOP_NODE_SELECT",
          "nextNodeArray": [
            69,
            75
          ],
          "selectList": [
            {
              "dialogId": 1904502191,
              "hideCond": {},
              "enableCond": {}
            },
            {
              "dialogId": 1904502192,
              "hideCond": {},
              "enableCond": {}
            }
          ]
        },
        "67": {
          "$type": "EFOECCBHIAL",
          "coopNodeId": 67,
          "coopNodeType": "COOP_NODE_TALK",
          "nextNodeArray": [
            68
          ],
          "talkConfig": {
            "id": 67,
            "performCfg": "QuestDialogue/COOP/Coop103201/Q19045021",
            "loadType": "TALK_COOP",
            "questId": 19045,
            "assetIndex": 1779229438465838086,
            "prePerformCfg": ""
          },
          "BJNJIOHKNPL": 43
        },
        "125": {
          "$type": "PPJHAFFOIOK",
          "coopNodeId": 125,
          "coopNodeType": "COOP_NODE_SELECT",
          "nextNodeArray": [
            127,
            128
          ],
          "selectList": [
            {
              "dialogId": 1904502204,
              "hideCond": {},
              "enableCond": {}
            },
            {
              "dialogId": 1904502206,
              "hideCond": {},
              "enableCond": {}
            }
          ]
        },
        "69": {
          "$type": "EFOECCBHIAL",
          "coopNodeId": 69,
          "coopNodeType": "COOP_NODE_TALK",
          "nextNodeArray": [
            125
          ],
          "talkConfig": {
            "id": 69,
            "performCfg": "QuestDialogue/COOP/Coop103201/Q19045022",
            "loadType": "TALK_COOP",
            "questId": 19045,
            "assetIndex": 3028119448199446206,
            "prePerformCfg": ""
          },
          "BJNJIOHKNPL": 47
        },
        "127": {
          "$type": "EFOECCBHIAL",
          "coopNodeId": 127,
          "coopNodeType": "COOP_NODE_TALK",
          "nextNodeArray": [
            73
          ],
          "talkConfig": {
            "id": 127,
            "performCfg": "QuestDialogue/COOP/Coop103201/Q19045025",
            "loadType": "TALK_COOP",
            "questId": 19045,
            "assetIndex": 16379608379329377632,
            "prePerformCfg": ""
          },
          "BJNJIOHKNPL": 23
        },
        "73": {
          "$type": "COBBCENKLHN",
          "coopNodeId": 73,
          "coopNodeType": "COOP_NODE_END",
          "savePointId": 401
        },
        "128": {
          "$type": "EFOECCBHIAL",
          "coopNodeId": 128,
          "coopNodeType": "COOP_NODE_TALK",
          "nextNodeArray": [
            73
          ],
          "talkConfig": {
            "id": 128,
            "performCfg": "QuestDialogue/COOP/Coop103201/Q19045026",
            "loadType": "TALK_COOP",
            "questId": 19045,
            "assetIndex": 14601110680376626778,
            "prePerformCfg": ""
          },
          "BJNJIOHKNPL": 24
        },
        "75": {
          "$type": "EFOECCBHIAL",
          "coopNodeId": 75,
          "coopNodeType": "COOP_NODE_TALK",
          "nextNodeArray": [
            65
          ],
          "talkConfig": {
            "id": 75,
            "performCfg": "QuestDialogue/COOP/Coop103201/Q19045023",
            "loadType": "TALK_COOP",
            "questId": 19045,
            "assetIndex": 10562114872822091925,
            "prePerformCfg": ""
          },
          "BJNJIOHKNPL": 22
        },
        "65": {
          "$type": "COBBCENKLHN",
          "coopNodeId": 65,
          "coopNodeType": "COOP_NODE_END",
          "savePointId": 50201
        }
      },
      "startNodeId": 67,
      "DHLONCAIIEC": true
    },
    "1904503": {
      "id": 1904503,
      "coopMap": {
        "164": {
          "$type": "PPJHAFFOIOK",
          "coopNodeId": 164,
          "coopNodeType": "COOP_NODE_SELECT",
          "nextNodeArray": [
            166,
            167
          ],
          "selectList": [
            {
              "dialogId": 1904503317,
              "hideCond": {},
              "enableCond": {}
            },
            {
              "dialogId": 1904503319,
              "hideCond": {},
              "enableCond": {}
            }
          ]
        },
        "77": {
          "$type": "EFOECCBHIAL",
          "coopNodeId": 77,
          "coopNodeType": "COOP_NODE_TALK",
          "nextNodeArray": [
            164
          ],
          "talkConfig": {
            "id": 77,
            "performCfg": "QuestDialogue/COOP/Coop103201/Q19045031",
            "loadType": "TALK_COOP",
            "questId": 19045,
            "assetIndex": 7801190125193896856,
            "prePerformCfg": ""
          },
          "BJNJIOHKNPL": 54
        },
        "166": {
          "$type": "BEMIGNHPIPC",
          "coopNodeId": 166,
          "coopNodeType": "COOP_NODE_ACTION",
          "nextNodeArray": [
            168
          ],
          "actionList": [
            {
              "actionType": "COOP_ACTION_CONFIDENCE_ADD",
              "param": [
                1
              ]
            }
          ]
        },
        "168": {
          "$type": "EFOECCBHIAL",
          "coopNodeId": 168,
          "coopNodeType": "COOP_NODE_TALK",
          "nextNodeArray": [
            84
          ],
          "talkConfig": {
            "id": 168,
            "performCfg": "QuestDialogue/COOP/Coop103201/Q19045032",
            "loadType": "TALK_COOP",
            "questId": 19045,
            "assetIndex": 17741969246034356476,
            "prePerformCfg": ""
          },
          "BJNJIOHKNPL": 25
        },
        "84": {
          "$type": "COBBCENKLHN",
          "coopNodeId": 84,
          "coopNodeType": "COOP_NODE_END",
          "savePointId": 50301
        },
        "167": {
          "$type": "BEMIGNHPIPC",
          "coopNodeId": 167,
          "coopNodeType": "COOP_NODE_ACTION",
          "nextNodeArray": [
            169
          ],
          "actionList": [
            {
              "actionType": "COOP_ACTION_CONFIDENCE_MINUS",
              "param": [
                1
              ]
            }
          ]
        },
        "169": {
          "$type": "EFOECCBHIAL",
          "coopNodeId": 169,
          "coopNodeType": "COOP_NODE_TALK",
          "nextNodeArray": [
            84
          ],
          "talkConfig": {
            "id": 169,
            "performCfg": "QuestDialogue/COOP/Coop103201/Q19045033",
            "loadType": "TALK_COOP",
            "questId": 19045,
            "assetIndex": 13217798287454940542,
            "prePerformCfg": ""
          },
          "BJNJIOHKNPL": 26
        },
        "188": {
          "$type": "EFOECCBHIAL",
          "coopNodeId": 188,
          "coopNodeType": "COOP_NODE_TALK",
          "nextNodeArray": [
            189
          ],
          "talkConfig": {
            "id": 188,
            "performCfg": "QuestDialogue/COOP/Coop103201/Q19041099",
            "loadType": "TALK_COOP",
            "questId": 19045,
            "assetIndex": 3026514820423575497,
            "prePerformCfg": ""
          },
          "BJNJIOHKNPL": 38
        },
        "189": {
          "$type": "COBBCENKLHN",
          "coopNodeId": 189,
          "coopNodeType": "COOP_NODE_END",
          "savePointId": 906
        }
      },
      "startNodeId": 77,
      "failNodeId": 188,
      "DHLONCAIIEC": true
    },
    "1904504": {
      "id": 1904504,
      "coopMap": {
        "86": {
          "$type": "EFOECCBHIAL",
          "coopNodeId": 86,
          "coopNodeType": "COOP_NODE_TALK",
          "nextNodeArray": [
            87
          ],
          "talkConfig": {
            "id": 86,
            "performCfg": "QuestDialogue/COOP/Coop103201/Q19045041",
            "loadType": "TALK_COOP",
            "questId": 19045,
            "assetIndex": 8526003053732434734,
            "prePerformCfg": ""
          },
          "BJNJIOHKNPL": 27
        },
        "87": {
          "$type": "COBBCENKLHN",
          "coopNodeId": 87,
          "coopNodeType": "COOP_NODE_END",
          "savePointId": 50401
        }
      },
      "startNodeId": 86,
      "DHLONCAIIEC": true
    },
    "1904505": {
      "id": 1904505,
      "coopMap": {
        "89": {
          "$type": "EFOECCBHIAL",
          "coopNodeId": 89,
          "coopNodeType": "COOP_NODE_TALK",
          "nextNodeArray": [
            92
          ],
          "talkConfig": {
            "id": 89,
            "performCfg": "QuestDialogue/COOP/Coop103201/Q19045051",
            "loadType": "TALK_COOP",
            "questId": 19045,
            "assetIndex": 18178085906556738844,
            "prePerformCfg": ""
          },
          "BJNJIOHKNPL": 29
        },
        "92": {
          "$type": "BEMIGNHPIPC",
          "coopNodeId": 92,
          "coopNodeType": "COOP_NODE_ACTION",
          "nextNodeArray": [
            91
          ],
          "actionList": [
            {
              "actionType": "COOP_ACTION_CONFIDENCE_MINUS",
              "param": [
                50
              ]
            }
          ]
        },
        "91": {
          "$type": "COBBCENKLHN",
          "coopNodeId": 91,
          "coopNodeType": "COOP_NODE_END",
          "savePointId": 402
        },
        "97": {
          "$type": "EFOECCBHIAL",
          "coopNodeId": 97,
          "coopNodeType": "COOP_NODE_TALK",
          "nextNodeArray": [
            190
          ],
          "talkConfig": {
            "id": 97,
            "performCfg": "QuestDialogue/COOP/Coop103201/Q19045052",
            "loadType": "TALK_COOP",
            "questId": 19045,
            "assetIndex": 14862018732176145055,
            "prePerformCfg": ""
          },
          "BJNJIOHKNPL": 30
        },
        "190": {
          "$type": "EFOECCBHIAL",
          "coopNodeId": 190,
          "coopNodeType": "COOP_NODE_TALK",
          "nextNodeArray": [
            96
          ],
          "talkConfig": {
            "id": 190,
            "performCfg": "QuestDialogue/COOP/Coop103201/Q19041099",
            "loadType": "TALK_COOP",
            "questId": 19045,
            "assetIndex": 1543767656574987649,
            "prePerformCfg": ""
          },
          "BJNJIOHKNPL": 30
        },
        "96": {
          "$type": "COBBCENKLHN",
          "coopNodeId": 96,
          "coopNodeType": "COOP_NODE_END",
          "savePointId": 901
        }
      },
      "startNodeId": 89,
      "failNodeId": 97,
      "DHLONCAIIEC": true
    },
    "1904506": {
      "id": 1904506,
      "coopMap": {
        "94": {
          "$type": "EFOECCBHIAL",
          "coopNodeId": 94,
          "coopNodeType": "COOP_NODE_TALK",
          "nextNodeArray": [
            91
          ],
          "talkConfig": {
            "id": 94,
            "performCfg": "QuestDialogue/COOP/Coop103201/Q19045061",
            "loadType": "TALK_COOP",
            "questId": 19045,
            "assetIndex": 8814598068933206201,
            "prePerformCfg": ""
          },
          "BJNJIOHKNPL": 28
        },
        "91": {
          "$type": "COBBCENKLHN",
          "coopNodeId": 91,
          "coopNodeType": "COOP_NODE_END",
          "savePointId": 402
        }
      },
      "startNodeId": 94,
      "DHLONCAIIEC": true
    },
    "1904507": {
      "id": 1904507,
      "coopMap": {
        "72": {
          "$type": "EFOECCBHIAL",
          "coopNodeId": 72,
          "coopNodeType": "COOP_NODE_TALK",
          "nextNodeArray": [
            99
          ],
          "talkConfig": {
            "id": 72,
            "performCfg": "QuestDialogue/COOP/Coop103201/Q19045024",
            "loadType": "TALK_COOP",
            "questId": 19045,
            "assetIndex": 7550158160448079740,
            "prePerformCfg": ""
          },
          "BJNJIOHKNPL": 31
        },
        "99": {
          "$type": "COBBCENKLHN",
          "coopNodeId": 99,
          "coopNodeType": "COOP_NODE_END",
          "savePointId": 701
        }
      },
      "startNodeId": 72,
      "DHLONCAIIEC": true
    },
    "1904508": {
      "id": 1904508,
      "coopMap": {
        "170": {
          "$type": "PPJHAFFOIOK",
          "coopNodeId": 170,
          "coopNodeType": "COOP_NODE_SELECT",
          "nextNodeArray": [
            173,
            172
          ],
          "selectList": [
            {
              "dialogId": 1904508102,
              "hideCond": {},
              "enableCond": {}
            },
            {
              "dialogId": 1904508104,
              "hideCond": {},
              "enableCond": {}
            }
          ]
        },
        "101": {
          "$type": "EFOECCBHIAL",
          "coopNodeId": 101,
          "coopNodeType": "COOP_NODE_TALK",
          "nextNodeArray": [
            170
          ],
          "talkConfig": {
            "id": 101,
            "performCfg": "QuestDialogue/COOP/Coop103201/Q19045081",
            "loadType": "TALK_COOP",
            "questId": 19045,
            "assetIndex": 1462481458458326416,
            "prePerformCfg": ""
          },
          "BJNJIOHKNPL": 55
        },
        "173": {
          "$type": "EFOECCBHIAL",
          "coopNodeId": 173,
          "coopNodeType": "COOP_NODE_TALK",
          "nextNodeArray": [
            102
          ],
          "talkConfig": {
            "id": 173,
            "performCfg": "QuestDialogue/COOP/Coop103201/Q19045082",
            "loadType": "TALK_COOP",
            "questId": 19045,
            "assetIndex": 6574813479382854046,
            "prePerformCfg": ""
          },
          "BJNJIOHKNPL": 33
        },
        "102": {
          "$type": "COBBCENKLHN",
          "coopNodeId": 102,
          "coopNodeType": "COOP_NODE_END",
          "savePointId": 801
        },
        "172": {
          "$type": "BEMIGNHPIPC",
          "coopNodeId": 172,
          "coopNodeType": "COOP_NODE_ACTION",
          "nextNodeArray": [
            174
          ],
          "actionList": [
            {
              "actionType": "COOP_ACTION_CONFIDENCE_ADD",
              "param": [
                1
              ]
            }
          ]
        },
        "174": {
          "$type": "EFOECCBHIAL",
          "coopNodeId": 174,
          "coopNodeType": "COOP_NODE_TALK",
          "nextNodeArray": [
            102
          ],
          "talkConfig": {
            "id": 174,
            "performCfg": "QuestDialogue/COOP/Coop103201/Q19045083",
            "loadType": "TALK_COOP",
            "questId": 19045,
            "assetIndex": 2378886776157969313,
            "prePerformCfg": ""
          },
          "BJNJIOHKNPL": 32
        }
      },
      "startNodeId": 101,
      "DHLONCAIIEC": true
    }
  },
  "subStartPointMap": {
    "1904101": {
      "id": 1904101,
      "coopInteractionId": 1904101
    },
    "1904201": {
      "id": 1904201,
      "coopInteractionId": 1904201
    },
    "1904202": {
      "id": 1904202,
      "coopInteractionId": 1904202
    },
    "1904203": {
      "id": 1904203,
      "coopInteractionId": 1904203
    },
    "1904301": {
      "id": 1904301,
      "coopInteractionId": 1904301
    },
    "1904302": {
      "id": 1904302,
      "coopInteractionId": 1904302
    },
    "1904303": {
      "id": 1904303,
      "coopInteractionId": 1904303
    },
    "1904304": {
      "id": 1904304,
      "coopInteractionId": 1904304
    },
    "1904401": {
      "id": 1904401,
      "coopInteractionId": 1904401
    },
    "1904402": {
      "id": 1904402,
      "coopInteractionId": 1904402
    },
    "1904403": {
      "id": 1904403,
      "coopInteractionId": 1904403
    },
    "1904404": {
      "id": 1904404,
      "coopInteractionId": 1904404
    },
    "1904405": {
      "id": 1904405,
      "coopInteractionId": 1904405
    },
    "1904501": {
      "id": 1904501,
      "coopInteractionId": 1904501
    },
    "1904502": {
      "id": 1904502,
      "coopInteractionId": 1904502
    },
    "1904503": {
      "id": 1904503,
      "coopInteractionId": 1904503
    },
    "1904504": {
      "id": 1904504,
      "coopInteractionId": 1904504
    },
    "1904505": {
      "id": 1904505,
      "coopInteractionId": 1904505
    },
    "1904506": {
      "id": 1904506,
      "coopInteractionId": 1904506
    },
    "1904507": {
      "id": 1904507,
      "coopInteractionId": 1904507
    },
    "1904508": {
      "id": 1904508,
      "coopInteractionId": 1904508
    }
  },
  "savePointMap": {
    "10101": {
      "id": 10101
    },
    "10102": {
      "id": 10102
    },
    "10103": {
      "id": 10103
    },
    "10104": {
      "id": 10104
    },
    "902": {
      "id": 902,
      "isEnd": true
    },
    "20101": {
      "id": 20101
    },
    "20201": {
      "id": 20201
    },
    "101": {
      "id": 101,
      "isEnd": true
    },
    "904": {
      "id": 904,
      "isEnd": true
    },
    "30101": {
      "id": 30101
    },
    "903": {
      "id": 903,
      "isEnd": true
    },
    "30201": {
      "id": 30201
    },
    "30301": {
      "id": 30301
    },
    "905": {
      "id": 905,
      "isEnd": true
    },
    "201": {
      "id": 201,
      "isEnd": true
    },
    "40101": {
      "id": 40101
    },
    "40301": {
      "id": 40301
    },
    "301": {
      "id": 301,
      "isEnd": true
    },
    "40401": {
      "id": 40401
    },
    "302": {
      "id": 302,
      "isEnd": true
    },
    "50101": {
      "id": 50101
    },
    "401": {
      "id": 401,
      "isEnd": true
    },
    "50201": {
      "id": 50201
    },
    "50301": {
      "id": 50301
    },
    "906": {
      "id": 906,
      "isEnd": true
    },
    "50401": {
      "id": 50401
    },
    "402": {
      "id": 402,
      "isEnd": true
    },
    "901": {
      "id": 901,
      "isEnd": true
    },
    "701": {
      "id": 701
    },
    "801": {
      "id": 801
    }
  },
  "confidenceValue": 5,
  "maxConfidenceValue": 5,
  "temperamentMap": {
    "COOP_TEMPERAMENT_1": {
      "param3": 50,
      "hpRatio": 1.0
    },
    "COOP_TEMPERAMENT_2": {
      "param3": 50,
      "hpRatio": 1.0
    },
    "COOP_TEMPERAMENT_3": {
      "param3": 50,
      "hpRatio": 1.0
    },
    "COOP_TEMPERAMENT_4": {
      "param3": 50,
      "hpRatio": 1.0
    }
  },
  "useTemperament": false,
  "coopTempValueMap": {
    "1": {
      "id": 1,
      "isCoopVar": true
    }
  },
  "DHLONCAIIEC": true
}