{
  "luaDataPath": "",
  "isSimpleTalk": true,
  "startBlackKeepTime": 0.5,
  "entityBan": "",
  "disableNpcLod": true,
  "isBanWidgetPet": true,
  "protectNpcMobileLod": true,
  "talkFlag": 5,
  "startFade": {
    "startFadeInDuration": 0.5,
    "startFadeOutDuration": 0.5
  },
  "endFade": {
    "startFadeOutDuration": 0.0
  },
  "actors": [
    {
      "alias": "Avatar",
      "visible": true,
      "bornPointName": "N10000005_T7326602",
      "relativePosType": "AVATAR_NEW",
      "relativePosNpcAlias": "",
      "_bindMovingTargetKey": ""
    },
    {
      "configID": 1005,
      "alias": "1005",
      "visible": true,
      "bornPointName": "",
      "useRelativePos": true,
      "relativePos": {
        "x": -0.5,
        "z": 0.5
      },
      "removeActorType": "NEW_REMOVE_WITH_DISAPPEAR",
      "relativePosType": "AVATAR_NEW",
      "relativePosNpcAlias": "",
      "_bindMovingTargetKey": ""
    },
    {
      "configID": 4019,
      "alias": "4019",
      "visible": true,
      "bornPointName": "",
      "removeActorType": "REMOVE",
      "forceCreateDaily": true,
      "relativePosType": "AVATAR_NEW",
      "relativePosNpcAlias": "",
      "_bindMovingTargetKey": ""
    }
  ],
  "group": [
    [
      {
        "$type": "FJKIHHKJLMJ",
        "type": "CAMERA_FOCUS",
        "duration": 0.10000000149011612,
        "actionId": 103,
        "targetNpcAlias": "",
        "KJOEFBPOIIH": "",
        "IICFKKEBIEC": "",
        "EGEHEJEBLBJ": ""
      },
      {
        "$type": "MoleMole.Config.ConfigTimeProtectAction",
        "type": "TIME_PROTECT",
        "duration": 0.10000000149011612,
        "actionId": 104
      },
      {
        "$type": "MoleMole.Config.ConfigBlackScreenAction",
        "type": "BLACK_SCREEN",
        "actionId": 140,
        "blackScreenType": "KEEP_BLACK",
        "durationToBlack": 0.5,
        "durationKeepBlack": 0.5,
        "durationFromBlack": 0.5,
        "inteePos": "",
        "textMapID": ""
      },
      {
        "$type": "LLGANGLOEEO",
        "type": "STEER_TO",
        "delayTime": 0.30000001192092896,
        "duration": 0.800000011920929,
        "aliasList": [
          "Avatar"
        ],
        "actionId": 137,
        "steerType": "TO_TARGET_ADVANCED",
        "useSteerAnim": true,
        "interruptFreestyle": true,
        "forceSteer": true,
        "targetNpcAlias": "1005",
        "fixInterNull": true,
        "OAFJBHJHLJG": ""
      },
      {
        "$type": "LLGANGLOEEO",
        "type": "STEER_TO",
        "delayTime": 0.30000001192092896,
        "duration": 0.800000011920929,
        "aliasList": [
          "4019"
        ],
        "actionId": 138,
        "steerType": "TO_LOCAL_AVATAR_ADVANCED",
        "useSteerAnim": true,
        "interruptFreestyle": true,
        "forceSteer": true,
        "targetNpcAlias": "",
        "fixInterNull": true,
        "OAFJBHJHLJG": ""
      }
    ],
    [
      {
        "$type": "MoleMole.Config.ConfigBlackScreenAction",
        "type": "BLACK_SCREEN",
        "actionId": 141,
        "blackScreenType": "FROM_BLACK",
        "durationToBlack": 0.5,
        "durationKeepBlack": 0.5,
        "durationFromBlack": 0.5,
        "inteePos": "",
        "textMapID": ""
      },
      {
        "$type": "PKKMAMONGEO",
        "type": "DIALOG",
        "aliasList": [
          "1005"
        ],
        "actionId": 107,
        "dialogID": 732322501,
        "protectTime": 0.5
      }
    ],
    [
      {
        "$type": "PKKMAMONGEO",
        "type": "DIALOG",
        "aliasList": [
          "4019"
        ],
        "actionId": 109,
        "dialogID": 732322502,
        "protectTime": 0.5
      }
    ],
    [
      {
        "$type": "PKKMAMONGEO",
        "type": "DIALOG",
        "aliasList": [
          "4019"
        ],
        "actionId": 111,
        "dialogID": 732322503,
        "protectTime": 0.5
      }
    ],
    [
      {
        "$type": "PKKMAMONGEO",
        "type": "DIALOG",
        "aliasList": [
          "1005"
        ],
        "actionId": 113,
        "dialogID": 732322504,
        "protectTime": 0.5
      }
    ],
    [
      {
        "$type": "PKKMAMONGEO",
        "type": "DIALOG",
        "aliasList": [
          "1005"
        ],
        "actionId": 115,
        "dialogID": 732322505,
        "protectTime": 0.5
      }
    ],
    [
      {
        "$type": "PKKMAMONGEO",
        "type": "DIALOG",
        "aliasList": [
          "4019"
        ],
        "actionId": 117,
        "dialogID": 732322506,
        "protectTime": 0.5
      }
    ],
    [
      {
        "$type": "PKKMAMONGEO",
        "type": "DIALOG",
        "aliasList": [
          "4019"
        ],
        "actionId": 119,
        "dialogID": 732322507,
        "protectTime": 0.5
      },
      {
        "$type": "HDGKHDNFMIM",
        "type": "DIALOG_SELECT",
        "delayTime": 0.4000000059604645,
        "aliasList": [
          "Avatar"
        ],
        "actionId": 120,
        "dialogIDList": [
          732322508,
          732322509
        ],
        "grpIDList": [
          3001797392,
          3001797392
        ],
        "useGrpId": true,
        "countDownGrpId": 3001797383
      }
    ],
    [
      {
        "$type": "PKKMAMONGEO",
        "type": "DIALOG",
        "aliasList": [
          "4019"
        ],
        "actionId": 122,
        "dialogID": 732322510,
        "protectTime": 0.5
      }
    ],
    [
      {
        "$type": "PKKMAMONGEO",
        "type": "DIALOG",
        "aliasList": [
          "4019"
        ],
        "actionId": 124,
        "dialogID": 732322511,
        "protectTime": 0.5
      }
    ],
    [
      {
        "$type": "PKKMAMONGEO",
        "type": "DIALOG",
        "aliasList": [
          "4019"
        ],
        "actionId": 126,
        "dialogID": 732322512,
        "protectTime": 0.5
      }
    ],
    [
      {
        "$type": "PKKMAMONGEO",
        "type": "DIALOG",
        "aliasList": [
          "1005"
        ],
        "actionId": 128,
        "dialogID": 732322513,
        "protectTime": 0.5
      }
    ],
    [
      {
        "$type": "PKKMAMONGEO",
        "type": "DIALOG",
        "aliasList": [
          "4019"
        ],
        "actionId": 130,
        "dialogID": 732322514,
        "protectTime": 0.5
      }
    ],
    [
      {
        "$type": "PKKMAMONGEO",
        "type": "DIALOG",
        "aliasList": [
          "4019"
        ],
        "actionId": 132,
        "dialogID": 732322515,
        "protectTime": 0.5
      }
    ],
    [
      {
        "$type": "PKKMAMONGEO",
        "type": "DIALOG",
        "aliasList": [
          "1005"
        ],
        "actionId": 134,
        "dialogID": 732322516,
        "protectTime": 0.5
      }
    ],
    [
      {
        "$type": "PKKMAMONGEO",
        "type": "DIALOG",
        "aliasList": [
          "4019"
        ],
        "actionId": 136,
        "dialogID": 732322517,
        "protectTime": 0.5
      }
    ],
    [
      {
        "$type": "MoleMole.Config.ConfigTimeProtectAction",
        "type": "TIME_PROTECT",
        "duration": 0.10000000149011612,
        "actionId": 105
      },
      {
        "$type": "MoleMole.Config.ConfigSimpleBlackScreenAction",
        "type": "SIMPLE_BLACK_SCREEN",
        "actionId": 143,
        "durationToBlack": 0.5,
        "durationKeepBlack": 1.0,
        "durationFromBlack": 0.5,
        "textMapID": ""
      },
      {
        "$type": "LLGANGLOEEO",
        "type": "STEER_TO",
        "duration": 1.0,
        "aliasList": [
          "4019"
        ],
        "actionId": 139,
        "steerType": "RETURN",
        "useSteerAnim": true,
        "interruptFreestyle": true,
        "forceSteer": true,
        "targetNpcAlias": "",
        "ignoreY": true,
        "fixInterNull": true,
        "OAFJBHJHLJG": ""
      }
    ]
  ],
  "groupId": [
    {
      "grpId": 3001797384,
      "nextGrpId": 3001797385
    },
    {
      "index": 1,
      "grpId": 3001797385,
      "nextGrpId": 3001797386
    },
    {
      "index": 2,
      "grpId": 3001797386,
      "nextGrpId": 3001797387
    },
    {
      "index": 3,
      "grpId": 3001797387,
      "nextGrpId": 3001797388
    },
    {
      "index": 4,
      "grpId": 3001797388,
      "nextGrpId": 3001797389
    },
    {
      "index": 5,
      "grpId": 3001797389,
      "nextGrpId": 3001797390
    },
    {
      "index": 6,
      "grpId": 3001797390,
      "nextGrpId": 3001797391
    },
    {
      "index": 7,
      "grpId": 3001797391,
      "nextGrpId": 3001797392
    },
    {
      "index": 8,
      "grpId": 3001797392,
      "nextGrpId": 2861405736
    },
    {
      "index": 9,
      "grpId": 2861405736,
      "nextGrpId": 2861405737
    },
    {
      "index": 10,
      "grpId": 2861405737,
      "nextGrpId": 2861405738
    },
    {
      "index": 11,
      "grpId": 2861405738,
      "nextGrpId": 2861405739
    },
    {
      "index": 12,
      "grpId": 2861405739,
      "nextGrpId": 2861405740
    },
    {
      "index": 13,
      "grpId": 2861405740,
      "nextGrpId": 2861405741
    },
    {
      "index": 14,
      "grpId": 2861405741,
      "nextGrpId": 2861405742
    },
    {
      "index": 15,
      "grpId": 2861405742,
      "nextGrpId": 2861405743
    },
    {
      "index": 16,
      "grpId": 2861405743,
      "nextGrpId": 2861405744
    }
  ],
  "freeStyleDic": {
    "4019": []
  }
}