{
  "luaDataPath": "",
  "startBlackKeepTime": 1.0,
  "entityBan": "",
  "disableNpcLod": true,
  "isBanWidgetPet": true,
  "protectNpcMobileLod": true,
  "talkFlag": 5,
  "startFade": {
    "startFadeInDuration": 0.5,
    "startFadeOutDuration": 0.5
  },
  "endFade": {
    "startFadeOutDuration": 0.0
  },
  "actors": [
    {
      "alias": "Avatar",
      "visible": true,
      "bornPointName": "Q7323206_guide",
      "relativePosType": "AVATAR_NEW",
      "relativePosNpcAlias": "",
      "_bindMovingTargetKey": ""
    },
    {
      "configID": 1005,
      "alias": "1005",
      "visible": true,
      "bornPointName": "Q7323206_N1005",
      "relativePos": {
        "x": 1.0,
        "z": 1.0
      },
      "removeActorType": "REMOVE_WITH_DISAPPEAR",
      "relativePosType": "AVATAR_NEW",
      "relativePosNpcAlias": "",
      "_bindMovingTargetKey": ""
    },
    {
      "configID": 20883,
      "alias": "20883",
      "visible": true,
      "bornPointName": "",
      "relativePos": {
        "x": -1.0,
        "z": -1.0
      },
      "relativePosType": "AVATAR_NEW",
      "relativePosNpcAlias": "",
      "_bindMovingTargetKey": ""
    }
  ],
  "group": [
    [
      {
        "$type": "MoleMole.Config.ConfigTimeProtectAction",
        "type": "TIME_PROTECT",
        "duration": 0.10000000149011612,
        "actionId": 104
      },
      {
        "$type": "MoleMole.Config.ConfigBlackScreenAction",
        "type": "BLACK_SCREEN",
        "actionId": 142,
        "blackScreenType": "KEEP_BLACK",
        "durationToBlack": 0.5,
        "durationKeepBlack": 1.0,
        "durationFromBlack": 0.5,
        "inteePos": "",
        "textMapID": ""
      },
      {
        "$type": "MoleMole.Config.ConfigTeleportToAction",
        "type": "TELEPORT_TO",
        "aliasList": [
          "Avatar"
        ],
        "actionId": 146,
        "position": {
          "x": 589.5590209960938,
          "y": 212.51300048828125,
          "z": 5713.41015625
        },
        "forward": {
          "x": -0.3160000145435333,
          "y": -0.05299999937415123,
          "z": -0.9490000009536743
        },
        "openLongDisTeleport": true,
        "_posBindMovingTargetKey": "",
        "_forwardBindMovingTargetKey": ""
      },
      {
        "$type": "LJLMDHDCAMK",
        "type": "LOOK_AT",
        "aliasList": [
          "Avatar"
        ],
        "actionId": 147,
        "headTurnTime": 0.5,
        "targetNpcAlias": "",
        "openBackProtect": true,
        "targetNpcLookAtPoint": "",
        "OAFJBHJHLJG": ""
      },
      {
        "$type": "MoleMole.Config.ConfigTeleportToAction",
        "type": "TELEPORT_TO",
        "aliasList": [
          "1005"
        ],
        "actionId": 145,
        "position": {
          "x": 590.1259765625,
          "y": 212.51600646972656,
          "z": 5712.9951171875
        },
        "forward": {
          "x": -0.5299999713897705,
          "y": -0.11500000208616257,
          "z": -0.8479999899864197
        },
        "openLongDisTeleport": true,
        "_posBindMovingTargetKey": "",
        "_forwardBindMovingTargetKey": ""
      },
      {
        "$type": "MoleMole.Config.ConfigTeleportToAction",
        "type": "TELEPORT_TO",
        "aliasList": [
          "20883"
        ],
        "actionId": 144,
        "position": {
          "x": 589.2009887695312,
          "y": 212.51699829101562,
          "z": 5711.98779296875
        },
        "forward": {
          "x": 0.48100000619888306,
          "y": -0.1289999932050705,
          "z": 0.8769999742507935
        },
        "openLongDisTeleport": true,
        "_posBindMovingTargetKey": "",
        "_forwardBindMovingTargetKey": ""
      },
      {
        "$type": "LJLMDHDCAMK",
        "type": "LOOK_AT",
        "aliasList": [
          "20883"
        ],
        "actionId": 148,
        "headTurnTime": 0.5,
        "targetNpcAlias": "",
        "openBackProtect": true,
        "targetNpcLookAtPoint": "",
        "OAFJBHJHLJG": ""
      },
      {
        "$type": "MoleMole.Config.ConfigVisibleInterAction",
        "type": "VISIBLE",
        "aliasList": [
          "20883"
        ],
        "actionId": 158,
        "_extraParam": ""
      },
      {
        "$type": "FABLGECDBCH",
        "type": "BODY_LANG",
        "aliasList": [
          "20883"
        ],
        "actionId": 161,
        "bodyLangParam": 6050,
        "forceDoFreeStyle": true,
        "canDoRepeatFreeStyle": false,
        "cantBackToIdleWhenSitLoop": true,
        "eventPatternSuiteKey": "",
        "FOHHKFAIAAJ": ""
      }
    ],
    [
      {
        "$type": "CPJKOIHIPBE",
        "type": "EMO_SYNC",
        "aliasList": [
          "Avatar"
        ],
        "actionId": 203,
        "dataPath": "",
        "phonemePath": "Cs_Emo_Avatar_Common/Cs_Emo_Avatar_Normal01",
        "emotionPath": "Cs_Emo_Avatar_Common/Cs_Emo_Avatar_Normal03_B",
        "mateDataPath": "",
        "matePhonemePath": "",
        "mateEmotionPath": "",
        "phonemePathHashList": [
          9445916536337636767,
          14128686126614747219,
          10779105391569104182,
          11659242061757756269
        ],
        "emotionPathHashList": [
          8109629315330560184,
          16519384742446628706,
          7123033935345142849,
          4060367471782777589
        ],
        "FMDPBECPELH": "",
        "ADKBLPOKGIK": ""
      },
      {
        "$type": "PKKMAMONGEO",
        "type": "DIALOG",
        "aliasList": [
          "1005"
        ],
        "actionId": 107,
        "dialogID": 732320601,
        "protectTime": 0.5
      }
    ],
    [
      {
        "$type": "MoleMole.Config.ConfigSimpleUIShowInterAction",
        "type": "SIMPLE_UI_SHOW",
        "actionId": 141,
        "contextName": "BlinkDialog",
        "_param": ""
      },
      {
        "$type": "MoleMole.Config.ConfigBlackScreenAction",
        "type": "BLACK_SCREEN",
        "actionId": 143,
        "blackScreenType": "FROM_BLACK",
        "durationToBlack": 0.5,
        "durationKeepBlack": 0.5,
        "durationFromBlack": 0.5,
        "inteePos": "",
        "textMapID": "",
        "useTextFade": true
      },
      {
        "$type": "FJKIHHKJLMJ",
        "type": "CAMERA_MOVE",
        "duration": 0.5,
        "actionId": 156,
        "camPosOffset": {
          "x": 589.0679931640625,
          "y": 212.9810028076172,
          "z": 5711.6708984375
        },
        "camForwardTargetOffset": {
          "x": 589.4609985351562,
          "y": 213.33999633789062,
          "z": 5712.51806640625
        },
        "camFov": 25.0,
        "lerpPattern": 6,
        "cameraBlendType": "EaseInOutCubic",
        "NJBNNOMLKCK": {},
        "needZAxisRotate": true,
        "openCameraDither": false,
        "targetNpcAlias": "",
        "closeTreeLeafDither": true,
        "KJOEFBPOIIH": "",
        "IICFKKEBIEC": "",
        "EGEHEJEBLBJ": ""
      },
      {
        "$type": "LJLMDHDCAMK",
        "type": "LOOK_AT",
        "aliasList": [
          "Avatar"
        ],
        "actionId": 152,
        "enableHead": true,
        "useTargetPos": true,
        "enableAbsolute": true,
        "targetPosition": {
          "x": 589.322021484375,
          "y": 212.96800231933594,
          "z": 5712.09912109375
        },
        "headTurnTime": 0.5,
        "targetNpcAlias": "",
        "lookAtTargetType": "NONE",
        "openBackProtect": true,
        "targetNpcLookAtPoint": "",
        "OAFJBHJHLJG": ""
      },
      {
        "$type": "LJLMDHDCAMK",
        "type": "LOOK_AT",
        "aliasList": [
          "1005"
        ],
        "actionId": 151,
        "enableHead": true,
        "useTargetPos": true,
        "enableAbsolute": true,
        "targetPosition": {
          "x": 589.322021484375,
          "y": 212.96800231933594,
          "z": 5712.09912109375
        },
        "headTurnTime": 0.5,
        "targetNpcAlias": "",
        "lookAtTargetType": "NONE",
        "openBackProtect": true,
        "targetNpcLookAtPoint": "",
        "OAFJBHJHLJG": ""
      },
      {
        "$type": "CPJKOIHIPBE",
        "type": "EMO_SYNC",
        "aliasList": [
          "1005"
        ],
        "actionId": 201,
        "dataPath": "",
        "phonemePath": "Cs_Emo_Pet_Common/Cs_Emo_Paimon_Angry01",
        "emotionPath": "Cs_Emo_Pet_Common/Cs_Emo_Paimon_Sad02_B",
        "mateDataPath": "",
        "matePhonemePath": "",
        "mateEmotionPath": "",
        "phonemePathHashList": [
          8887624181441475292,
          18209086005751125871,
          3291038487434063407,
          2002509548947436691
        ],
        "emotionPathHashList": [
          10196364279317691902,
          12678606423422164646,
          10964908064445692598,
          6575421560758570707
        ],
        "FMDPBECPELH": "",
        "ADKBLPOKGIK": ""
      },
      {
        "$type": "PKKMAMONGEO",
        "type": "DIALOG",
        "aliasList": [
          "20883"
        ],
        "actionId": 109,
        "dialogID": 732320602,
        "protectTime": 2.0
      },
      {
        "$type": "FJKIHHKJLMJ",
        "type": "CAMERA_MOVE",
        "delayTime": 0.10000000149011612,
        "duration": 6.420000076293945,
        "actionId": 153,
        "camPosOffset": {
          "x": 589.0679931640625,
          "y": 212.9810028076172,
          "z": 5711.6708984375
        },
        "camForwardTargetOffset": {
          "x": 589.4550170898438,
          "y": 213.37399291992188,
          "z": 5712.5048828125
        },
        "camFov": 25.0,
        "cameraBlendType": "EaseOutQuad",
        "NJBNNOMLKCK": {},
        "needZAxisRotate": true,
        "openCameraDither": false,
        "targetNpcAlias": "",
        "closeTreeLeafDither": true,
        "KJOEFBPOIIH": "",
        "IICFKKEBIEC": "",
        "EGEHEJEBLBJ": ""
      }
    ],
    [
      {
        "$type": "FJKIHHKJLMJ",
        "type": "CAMERA_MOVE",
        "duration": 3.5,
        "actionId": 154,
        "camPosOffset": {
          "x": 588.9929809570312,
          "y": 213.5850067138672,
          "z": 5711.544921875
        },
        "camForwardTargetOffset": {
          "x": 589.416015625,
          "y": 213.61700439453125,
          "z": 5712.4501953125
        },
        "camFov": 25.0,
        "cameraBlendType": "EaseOutQuad",
        "NJBNNOMLKCK": {},
        "needZAxisRotate": true,
        "openCameraDither": false,
        "targetNpcAlias": "",
        "closeTreeLeafDither": true,
        "KJOEFBPOIIH": "",
        "IICFKKEBIEC": "",
        "EGEHEJEBLBJ": ""
      },
      {
        "$type": "LJLMDHDCAMK",
        "type": "LOOK_AT",
        "aliasList": [
          "Avatar"
        ],
        "actionId": 167,
        "enableHead": true,
        "useTargetPos": true,
        "enableAbsolute": true,
        "targetPosition": {
          "x": 589.322021484375,
          "y": 213.2550048828125,
          "z": 5712.09912109375
        },
        "headTurnTime": 0.800000011920929,
        "targetNpcAlias": "",
        "lookAtTargetType": "NONE",
        "openBackProtect": true,
        "targetNpcLookAtPoint": "",
        "OAFJBHJHLJG": ""
      },
      {
        "$type": "PKKMAMONGEO",
        "type": "DIALOG",
        "aliasList": [
          "1005"
        ],
        "actionId": 111,
        "dialogID": 732320603,
        "protectTime": 1.7120000123977661
      },
      {
        "$type": "LJLMDHDCAMK",
        "type": "LOOK_AT",
        "aliasList": [
          "1005"
        ],
        "actionId": 169,
        "enableHead": true,
        "useTargetPos": true,
        "enableAbsolute": true,
        "targetPosition": {
          "x": 589.322021484375,
          "y": 213.2550048828125,
          "z": 5712.09912109375
        },
        "headTurnTime": 0.800000011920929,
        "targetNpcAlias": "",
        "lookAtTargetType": "NONE",
        "openBackProtect": true,
        "targetNpcLookAtPoint": "",
        "OAFJBHJHLJG": ""
      },
      {
        "$type": "FABLGECDBCH",
        "type": "BODY_LANG",
        "aliasList": [
          "1005"
        ],
        "actionId": 174,
        "bodyLangParam": 1170,
        "forceDoFreeStyle": true,
        "canDoRepeatFreeStyle": false,
        "cantBackToIdleWhenSitLoop": true,
        "eventPatternSuiteKey": "",
        "FOHHKFAIAAJ": ""
      },
      {
        "$type": "FJKIHHKJLMJ",
        "type": "CAMERA_MOVE",
        "delayTime": 0.8659999966621399,
        "duration": 0.5,
        "actionId": 165,
        "camPosOffset": {
          "x": 590.427001953125,
          "y": 213.61199951171875,
          "z": 5714.35888671875
        },
        "camForwardTargetOffset": {
          "x": 589.97900390625,
          "y": 213.60499572753906,
          "z": 5713.46484375
        },
        "camFov": 25.0,
        "lerpPattern": 6,
        "cameraBlendType": "EaseOutQuad",
        "NJBNNOMLKCK": {},
        "needZAxisRotate": true,
        "openCameraDither": false,
        "targetNpcAlias": "",
        "closeTreeLeafDither": true,
        "KJOEFBPOIIH": "",
        "IICFKKEBIEC": "",
        "EGEHEJEBLBJ": ""
      },
      {
        "$type": "LJLMDHDCAMK",
        "type": "LOOK_AT",
        "delayTime": 0.8659999966621399,
        "aliasList": [
          "Avatar"
        ],
        "actionId": 171,
        "enableHead": true,
        "useTargetPos": true,
        "enableAbsolute": true,
        "targetPosition": {
          "x": 589.322021484375,
          "y": 213.75900268554688,
          "z": 5712.09912109375
        },
        "headTurnTime": 0.5,
        "targetNpcAlias": "",
        "lookAtTargetType": "NONE",
        "openBackProtect": true,
        "targetNpcLookAtPoint": "",
        "OAFJBHJHLJG": ""
      },
      {
        "$type": "LJLMDHDCAMK",
        "type": "LOOK_AT",
        "delayTime": 0.8659999966621399,
        "aliasList": [
          "1005"
        ],
        "actionId": 172,
        "enableHead": true,
        "useTargetPos": true,
        "enableAbsolute": true,
        "targetPosition": {
          "x": 589.322021484375,
          "y": 213.75900268554688,
          "z": 5712.09912109375
        },
        "headTurnTime": 0.5,
        "targetNpcAlias": "",
        "lookAtTargetType": "NONE",
        "openBackProtect": true,
        "targetNpcLookAtPoint": "",
        "OAFJBHJHLJG": ""
      },
      {
        "$type": "FABLGECDBCH",
        "type": "BODY_LANG",
        "delayTime": 0.8659999966621399,
        "aliasList": [
          "20883"
        ],
        "actionId": 162,
        "isContinue": true,
        "forceDoFreeStyle": true,
        "canDoRepeatFreeStyle": false,
        "cantBackToIdleWhenSitLoop": true,
        "eventPatternSuiteKey": "",
        "FOHHKFAIAAJ": ""
      },
      {
        "$type": "MoleMole.Config.ConfigVisibleInterAction",
        "type": "VISIBLE",
        "delayTime": 0.8659999966621399,
        "aliasList": [
          "20883"
        ],
        "actionId": 164,
        "isVisible": true,
        "_extraParam": ""
      },
      {
        "$type": "FJKIHHKJLMJ",
        "type": "CAMERA_MOVE",
        "delayTime": 0.9660000205039978,
        "duration": 1.5,
        "actionId": 163,
        "camPosOffset": {
          "x": 590.427001953125,
          "y": 213.61199951171875,
          "z": 5714.35888671875
        },
        "camForwardTargetOffset": {
          "x": 589.97998046875,
          "y": 213.677001953125,
          "z": 5713.466796875
        },
        "camFov": 25.0,
        "cameraBlendType": "EaseOutQuad",
        "NJBNNOMLKCK": {},
        "needZAxisRotate": true,
        "openCameraDither": false,
        "targetNpcAlias": "",
        "closeTreeLeafDither": true,
        "KJOEFBPOIIH": "",
        "IICFKKEBIEC": "",
        "EGEHEJEBLBJ": ""
      },
      {
        "$type": "LJLMDHDCAMK",
        "type": "LOOK_AT",
        "delayTime": 1.0729999542236328,
        "aliasList": [
          "20883"
        ],
        "actionId": 173,
        "enableHead": true,
        "useTargetPos": true,
        "enableAbsolute": true,
        "targetPosition": {
          "x": 590.135009765625,
          "y": 213.75599670410156,
          "z": 5713.01318359375
        },
        "headTurnTime": 0.5,
        "targetNpcAlias": "",
        "lookAtTargetType": "NONE",
        "openBackProtect": true,
        "targetNpcLookAtPoint": "",
        "OAFJBHJHLJG": ""
      },
      {
        "$type": "FJKIHHKJLMJ",
        "type": "CAMERA_MOVE",
        "delayTime": 1.8040000200271606,
        "duration": 2.9730000495910645,
        "actionId": 166,
        "camPosOffset": {
          "x": 590.427001953125,
          "y": 213.61199951171875,
          "z": 5714.35888671875
        },
        "camForwardTargetOffset": {
          "x": 589.97998046875,
          "y": 213.677001953125,
          "z": 5713.466796875
        },
        "camFov": 25.0,
        "cameraBlendType": "EaseOutQuad",
        "NJBNNOMLKCK": {},
        "needZAxisRotate": true,
        "openCameraDither": false,
        "targetNpcAlias": "",
        "closeTreeLeafDither": true,
        "KJOEFBPOIIH": "",
        "IICFKKEBIEC": "",
        "EGEHEJEBLBJ": ""
      },
      {
        "$type": "FABLGECDBCH",
        "type": "BODY_LANG",
        "delayTime": 2.0940001010894775,
        "aliasList": [
          "1005"
        ],
        "actionId": 175,
        "isContinue": true,
        "forceDoFreeStyle": true,
        "canDoRepeatFreeStyle": false,
        "cantBackToIdleWhenSitLoop": true,
        "eventPatternSuiteKey": "",
        "FOHHKFAIAAJ": ""
      }
    ],
    [
      {
        "$type": "FABLGECDBCH",
        "type": "BODY_LANG",
        "aliasList": [
          "1005"
        ],
        "actionId": 176,
        "isContinue": true,
        "forceDoFreeStyle": true,
        "canDoRepeatFreeStyle": false,
        "cantBackToIdleWhenSitLoop": true,
        "eventPatternSuiteKey": "",
        "FOHHKFAIAAJ": ""
      },
      {
        "$type": "PKKMAMONGEO",
        "type": "DIALOG",
        "aliasList": [
          "20883"
        ],
        "actionId": 113,
        "dialogID": 732320604,
        "protectTime": 0.5
      },
      {
        "$type": "FABLGECDBCH",
        "type": "BODY_LANG",
        "delayTime": 0.28700000047683716,
        "aliasList": [
          "20883"
        ],
        "actionId": 177,
        "bodyLangParam": 4040,
        "forceDoFreeStyle": true,
        "canDoRepeatFreeStyle": false,
        "cantBackToIdleWhenSitLoop": true,
        "eventPatternSuiteKey": "",
        "FOHHKFAIAAJ": ""
      }
    ],
    [
      {
        "$type": "PKKMAMONGEO",
        "type": "DIALOG",
        "aliasList": [
          "1005"
        ],
        "actionId": 115,
        "dialogID": 732320605,
        "protectTime": 4.0
      },
      {
        "$type": "FABLGECDBCH",
        "type": "BODY_LANG",
        "aliasList": [
          "1005"
        ],
        "actionId": 181,
        "bodyLangParam": 1300,
        "forceDoFreeStyle": true,
        "canDoRepeatFreeStyle": false,
        "cantBackToIdleWhenSitLoop": true,
        "eventPatternSuiteKey": "",
        "FOHHKFAIAAJ": ""
      },
      {
        "$type": "FJKIHHKJLMJ",
        "type": "CAMERA_MOVE",
        "delayTime": 0.010999999940395355,
        "duration": 0.5,
        "actionId": 194,
        "camPosOffset": {
          "x": 589.791015625,
          "y": 213.74600219726562,
          "z": 5710.05615234375
        },
        "camForwardTargetOffset": {
          "x": 589.6929931640625,
          "y": 213.71800231933594,
          "z": 5711.05078125
        },
        "camFov": 20.0,
        "lerpPattern": 6,
        "cameraBlendType": "EaseInOutCubic",
        "NJBNNOMLKCK": {},
        "needZAxisRotate": true,
        "openCameraDither": false,
        "targetNpcAlias": "",
        "closeTreeLeafDither": true,
        "KJOEFBPOIIH": "",
        "IICFKKEBIEC": "",
        "EGEHEJEBLBJ": ""
      },
      {
        "$type": "FJKIHHKJLMJ",
        "type": "CAMERA_MOVE",
        "delayTime": 0.10000000149011612,
        "duration": 3.5290000438690186,
        "actionId": 180,
        "camPosOffset": {
          "x": 589.8980102539062,
          "y": 213.7449951171875,
          "z": 5710.06689453125
        },
        "camForwardTargetOffset": {
          "x": 589.7999877929688,
          "y": 213.7169952392578,
          "z": 5711.06201171875
        },
        "camFov": 20.0,
        "cameraBlendType": "Linear",
        "NJBNNOMLKCK": {},
        "needZAxisRotate": true,
        "openCameraDither": false,
        "targetNpcAlias": "",
        "closeTreeLeafDither": true,
        "KJOEFBPOIIH": "",
        "IICFKKEBIEC": "",
        "EGEHEJEBLBJ": ""
      },
      {
        "$type": "FABLGECDBCH",
        "type": "BODY_LANG",
        "delayTime": 2.6519999504089355,
        "aliasList": [
          "1005"
        ],
        "actionId": 182,
        "bodyLangParam": 1110,
        "forceDoFreeStyle": true,
        "canDoRepeatFreeStyle": false,
        "cantBackToIdleWhenSitLoop": true,
        "eventPatternSuiteKey": "",
        "FOHHKFAIAAJ": ""
      },
      {
        "$type": "FJKIHHKJLMJ",
        "type": "CAMERA_MOVE",
        "delayTime": 3.5,
        "duration": 0.5,
        "actionId": 195,
        "camPosOffset": {
          "x": 624.2130126953125,
          "y": 228.21299743652344,
          "z": 5712.3837890625
        },
        "camForwardTargetOffset": {
          "x": 623.2589721679688,
          "y": 227.91700744628906,
          "z": 5712.333984375
        },
        "camFov": 35.0,
        "lerpPattern": 6,
        "cameraBlendType": "EaseInOutCubic",
        "NJBNNOMLKCK": {},
        "needZAxisRotate": true,
        "openCameraDither": false,
        "targetNpcAlias": "",
        "closeTreeLeafDither": true,
        "KJOEFBPOIIH": "",
        "IICFKKEBIEC": "",
        "EGEHEJEBLBJ": ""
      },
      {
        "$type": "FJKIHHKJLMJ",
        "type": "CAMERA_MOVE",
        "delayTime": 3.5999999046325684,
        "duration": 8.163000106811523,
        "actionId": 179,
        "camPosOffset": {
          "x": 629.7169799804688,
          "y": 229.92100524902344,
          "z": 5712.66796875
        },
        "camForwardTargetOffset": {
          "x": 628.7630004882812,
          "y": 229.625,
          "z": 5712.619140625
        },
        "camFov": 35.0,
        "cameraBlendType": "EaseOutQuad",
        "NJBNNOMLKCK": {},
        "needZAxisRotate": true,
        "openCameraDither": false,
        "targetNpcAlias": "",
        "closeTreeLeafDither": true,
        "KJOEFBPOIIH": "",
        "IICFKKEBIEC": "",
        "EGEHEJEBLBJ": ""
      }
    ],
    [
      {
        "$type": "PKKMAMONGEO",
        "type": "DIALOG",
        "aliasList": [
          "1005"
        ],
        "actionId": 221,
        "dialogID": 732320606,
        "protectTime": 0.5
      }
    ],
    [
      {
        "$type": "FJKIHHKJLMJ",
        "type": "CAMERA_MOVE",
        "duration": 0.5,
        "actionId": 196,
        "camPosOffset": {
          "x": 599.8670043945312,
          "y": 213.1320037841797,
          "z": 5716.1181640625
        },
        "camForwardTargetOffset": {
          "x": 598.916015625,
          "y": 213.17599487304688,
          "z": 5715.81103515625
        },
        "camFov": 25.0,
        "lerpPattern": 6,
        "cameraBlendType": "EaseInOutCubic",
        "NJBNNOMLKCK": {},
        "needZAxisRotate": true,
        "openCameraDither": false,
        "targetNpcAlias": "",
        "closeTreeLeafDither": true,
        "KJOEFBPOIIH": "",
        "IICFKKEBIEC": "",
        "EGEHEJEBLBJ": ""
      },
      {
        "$type": "FABLGECDBCH",
        "type": "BODY_LANG",
        "aliasList": [
          "1005"
        ],
        "actionId": 187,
        "isContinue": true,
        "forceDoFreeStyle": true,
        "canDoRepeatFreeStyle": false,
        "cantBackToIdleWhenSitLoop": true,
        "eventPatternSuiteKey": "",
        "FOHHKFAIAAJ": ""
      },
      {
        "$type": "PKKMAMONGEO",
        "type": "DIALOG",
        "aliasList": [
          "20883"
        ],
        "actionId": 117,
        "dialogID": 732320607,
        "protectTime": 0.5
      },
      {
        "$type": "FABLGECDBCH",
        "type": "BODY_LANG",
        "aliasList": [
          "20883"
        ],
        "actionId": 204,
        "bodyLangParam": 6030,
        "forceDoFreeStyle": true,
        "canDoRepeatFreeStyle": false,
        "cantBackToIdleWhenSitLoop": true,
        "eventPatternSuiteKey": "",
        "FOHHKFAIAAJ": ""
      },
      {
        "$type": "FJKIHHKJLMJ",
        "type": "CAMERA_MOVE",
        "delayTime": 0.10000000149011612,
        "duration": 29.429000854492188,
        "actionId": 183,
        "camPosOffset": {
          "x": 600.2630004882812,
          "y": 213.5800018310547,
          "z": 5711.462890625
        },
        "camForwardTargetOffset": {
          "x": 599.27001953125,
          "y": 213.57899475097656,
          "z": 5711.58203125
        },
        "camFov": 25.0,
        "cameraBlendType": "EaseOutQuad",
        "NJBNNOMLKCK": {},
        "needZAxisRotate": true,
        "openCameraDither": false,
        "targetNpcAlias": "",
        "closeTreeLeafDither": true,
        "KJOEFBPOIIH": "",
        "IICFKKEBIEC": "",
        "EGEHEJEBLBJ": ""
      },
      {
        "$type": "FABLGECDBCH",
        "type": "BODY_LANG",
        "delayTime": 3.015000104904175,
        "aliasList": [
          "20883"
        ],
        "actionId": 205,
        "isContinue": true,
        "forceDoFreeStyle": true,
        "canDoRepeatFreeStyle": false,
        "cantBackToIdleWhenSitLoop": true,
        "eventPatternSuiteKey": "",
        "FOHHKFAIAAJ": ""
      }
    ],
    [
      {
        "$type": "PKKMAMONGEO",
        "type": "DIALOG",
        "aliasList": [
          "20883"
        ],
        "actionId": 119,
        "dialogID": 732320608,
        "protectTime": 0.5
      },
      {
        "$type": "FABLGECDBCH",
        "type": "BODY_LANG",
        "aliasList": [
          "20883"
        ],
        "actionId": 211,
        "isContinue": true,
        "forceDoFreeStyle": true,
        "canDoRepeatFreeStyle": false,
        "cantBackToIdleWhenSitLoop": true,
        "eventPatternSuiteKey": "",
        "FOHHKFAIAAJ": ""
      }
    ],
    [
      {
        "$type": "FJKIHHKJLMJ",
        "type": "CAMERA_MOVE",
        "duration": 0.5,
        "actionId": 197,
        "camPosOffset": {
          "x": 590.6649780273438,
          "y": 213.50599670410156,
          "z": 5712.92919921875
        },
        "camForwardTargetOffset": {
          "x": 589.81298828125,
          "y": 213.6699981689453,
          "z": 5712.43212890625
        },
        "camFov": 25.0,
        "lerpPattern": 6,
        "cameraBlendType": "EaseInOutCubic",
        "NJBNNOMLKCK": {},
        "openCameraDither": false,
        "targetNpcAlias": "",
        "closeTreeLeafDither": true,
        "KJOEFBPOIIH": "",
        "IICFKKEBIEC": "",
        "EGEHEJEBLBJ": ""
      },
      {
        "$type": "MoleMole.Config.ConfigVisibleInterAction",
        "type": "VISIBLE",
        "aliasList": [
          "1005"
        ],
        "actionId": 217,
        "_extraParam": ""
      },
      {
        "$type": "PKKMAMONGEO",
        "type": "DIALOG",
        "aliasList": [
          "20883"
        ],
        "actionId": 121,
        "dialogID": 732320609,
        "protectTime": 0.5
      },
      {
        "$type": "FABLGECDBCH",
        "type": "BODY_LANG",
        "aliasList": [
          "20883"
        ],
        "actionId": 209,
        "isContinue": true,
        "forceDoFreeStyle": true,
        "canDoRepeatFreeStyle": false,
        "cantBackToIdleWhenSitLoop": true,
        "eventPatternSuiteKey": "",
        "FOHHKFAIAAJ": ""
      },
      {
        "$type": "LJLMDHDCAMK",
        "type": "LOOK_AT",
        "aliasList": [
          "20883"
        ],
        "actionId": 210,
        "enableHead": true,
        "useTargetPos": true,
        "enableAbsolute": true,
        "targetPosition": {
          "x": 590.135009765625,
          "y": 213.1909942626953,
          "z": 5713.01318359375
        },
        "headTurnTime": 0.5,
        "targetNpcAlias": "",
        "lookAtTargetType": "NONE",
        "openBackProtect": true,
        "targetNpcLookAtPoint": "",
        "OAFJBHJHLJG": ""
      }
    ],
    [
      {
        "$type": "FJKIHHKJLMJ",
        "type": "CAMERA_MOVE",
        "duration": 0.5,
        "actionId": 185,
        "camPosOffset": {
          "x": 590.3070068359375,
          "y": 213.82000732421875,
          "z": 5711.18701171875
        },
        "camForwardTargetOffset": {
          "x": 590.093017578125,
          "y": 213.80099487304688,
          "z": 5712.1640625
        },
        "camFov": 20.0,
        "lerpPattern": 6,
        "cameraBlendType": "EaseInOutCubic",
        "NJBNNOMLKCK": {},
        "needZAxisRotate": true,
        "openCameraDither": false,
        "targetNpcAlias": "",
        "closeTreeLeafDither": true,
        "KJOEFBPOIIH": "",
        "IICFKKEBIEC": "",
        "EGEHEJEBLBJ": ""
      },
      {
        "$type": "PKKMAMONGEO",
        "type": "DIALOG",
        "aliasList": [
          "1005"
        ],
        "actionId": 123,
        "dialogID": 732320610,
        "protectTime": 0.5
      },
      {
        "$type": "FABLGECDBCH",
        "type": "BODY_LANG",
        "aliasList": [
          "1005"
        ],
        "actionId": 186,
        "bodyLangParam": 1030,
        "forceDoFreeStyle": true,
        "canDoRepeatFreeStyle": false,
        "cantBackToIdleWhenSitLoop": true,
        "eventPatternSuiteKey": "",
        "FOHHKFAIAAJ": ""
      },
      {
        "$type": "MoleMole.Config.ConfigVisibleInterAction",
        "type": "VISIBLE",
        "aliasList": [
          "1005"
        ],
        "actionId": 218,
        "isVisible": true,
        "_extraParam": ""
      },
      {
        "$type": "LJLMDHDCAMK",
        "type": "LOOK_AT",
        "aliasList": [
          "20883"
        ],
        "actionId": 212,
        "enableHead": true,
        "useTargetPos": true,
        "enableAbsolute": true,
        "targetPosition": {
          "x": 589.4660034179688,
          "y": 213.75999450683594,
          "z": 5713.01318359375
        },
        "headTurnTime": 0.5,
        "targetNpcAlias": "",
        "lookAtTargetType": "NONE",
        "openBackProtect": true,
        "targetNpcLookAtPoint": "",
        "OAFJBHJHLJG": ""
      },
      {
        "$type": "FABLGECDBCH",
        "type": "BODY_LANG",
        "delayTime": 0.39500001072883606,
        "aliasList": [
          "Avatar"
        ],
        "actionId": 188,
        "bodyLangParam": 1230,
        "forceDoFreeStyle": true,
        "canDoRepeatFreeStyle": false,
        "cantBackToIdleWhenSitLoop": true,
        "eventPatternSuiteKey": "",
        "FOHHKFAIAAJ": ""
      },
      {
        "$type": "HDGKHDNFMIM",
        "type": "DIALOG_SELECT",
        "delayTime": 0.4000000059604645,
        "aliasList": [
          "Avatar"
        ],
        "actionId": 124,
        "dialogIDList": [
          732320611
        ],
        "grpIDList": [
          2859588487
        ],
        "useGrpId": true,
        "countDownGrpId": 3001738762
      },
      {
        "$type": "FABLGECDBCH",
        "type": "BODY_LANG",
        "delayTime": 2.6389999389648438,
        "aliasList": [
          "1005"
        ],
        "actionId": 191,
        "isContinue": true,
        "forceDoFreeStyle": true,
        "canDoRepeatFreeStyle": false,
        "cantBackToIdleWhenSitLoop": true,
        "eventPatternSuiteKey": "",
        "FOHHKFAIAAJ": ""
      }
    ],
    [
      {
        "$type": "FJKIHHKJLMJ",
        "type": "CAMERA_MOVE",
        "duration": 0.5,
        "actionId": 199,
        "camPosOffset": {
          "x": 593.0780029296875,
          "y": 213.51300048828125,
          "z": 5713.31103515625
        },
        "camForwardTargetOffset": {
          "x": 592.094970703125,
          "y": 213.5570068359375,
          "z": 5713.1318359375
        },
        "camFov": 20.0,
        "lerpPattern": 6,
        "cameraBlendType": "EaseInOutCubic",
        "NJBNNOMLKCK": {},
        "needZAxisRotate": true,
        "openCameraDither": false,
        "targetNpcAlias": "",
        "closeTreeLeafDither": true,
        "KJOEFBPOIIH": "",
        "IICFKKEBIEC": "",
        "EGEHEJEBLBJ": ""
      },
      {
        "$type": "FABLGECDBCH",
        "type": "BODY_LANG",
        "aliasList": [
          "Avatar"
        ],
        "actionId": 198,
        "isContinue": true,
        "forceDoFreeStyle": true,
        "canDoRepeatFreeStyle": false,
        "cantBackToIdleWhenSitLoop": true,
        "eventPatternSuiteKey": "",
        "FOHHKFAIAAJ": ""
      },
      {
        "$type": "FABLGECDBCH",
        "type": "BODY_LANG",
        "aliasList": [
          "1005"
        ],
        "actionId": 190,
        "isContinue": true,
        "forceDoFreeStyle": true,
        "canDoRepeatFreeStyle": false,
        "cantBackToIdleWhenSitLoop": true,
        "eventPatternSuiteKey": "",
        "FOHHKFAIAAJ": ""
      },
      {
        "$type": "PKKMAMONGEO",
        "type": "DIALOG",
        "aliasList": [
          "1005"
        ],
        "actionId": 222,
        "dialogID": 732320612,
        "protectTime": 0.5
      },
      {
        "$type": "FABLGECDBCH",
        "type": "BODY_LANG",
        "aliasList": [
          "20883"
        ],
        "actionId": 213,
        "bodyLangParam": 4030,
        "forceDoFreeStyle": true,
        "canDoRepeatFreeStyle": false,
        "cantBackToIdleWhenSitLoop": true,
        "eventPatternSuiteKey": "",
        "FOHHKFAIAAJ": ""
      },
      {
        "$type": "FJKIHHKJLMJ",
        "type": "CAMERA_MOVE",
        "delayTime": 0.10000000149011612,
        "duration": 9.642999649047852,
        "actionId": 192,
        "camPosOffset": {
          "x": 593.093017578125,
          "y": 213.52499389648438,
          "z": 5713.23291015625
        },
        "camForwardTargetOffset": {
          "x": 592.1099853515625,
          "y": 213.56900024414062,
          "z": 5713.05419921875
        },
        "camFov": 20.0,
        "cameraBlendType": "EaseOutQuad",
        "NJBNNOMLKCK": {},
        "needZAxisRotate": true,
        "openCameraDither": false,
        "targetNpcAlias": "",
        "closeTreeLeafDither": true,
        "KJOEFBPOIIH": "",
        "IICFKKEBIEC": "",
        "EGEHEJEBLBJ": ""
      }
    ],
    [
      {
        "$type": "PKKMAMONGEO",
        "type": "DIALOG",
        "aliasList": [
          "20883"
        ],
        "actionId": 128,
        "dialogID": 732320613,
        "protectTime": 0.5
      },
      {
        "$type": "FABLGECDBCH",
        "type": "BODY_LANG",
        "aliasList": [
          "20883"
        ],
        "actionId": 214,
        "bodyLangParam": 6040,
        "forceDoFreeStyle": true,
        "canDoRepeatFreeStyle": false,
        "cantBackToIdleWhenSitLoop": true,
        "eventPatternSuiteKey": "",
        "FOHHKFAIAAJ": ""
      },
      {
        "$type": "FABLGECDBCH",
        "type": "BODY_LANG",
        "delayTime": 2.9030001163482666,
        "aliasList": [
          "20883"
        ],
        "actionId": 215,
        "isContinue": true,
        "forceDoFreeStyle": true,
        "canDoRepeatFreeStyle": false,
        "cantBackToIdleWhenSitLoop": true,
        "eventPatternSuiteKey": "",
        "FOHHKFAIAAJ": ""
      }
    ],
    [
      {
        "$type": "FJKIHHKJLMJ",
        "type": "CAMERA_MOVE",
        "duration": 0.5,
        "actionId": 200,
        "camPosOffset": {
          "x": 592.2650146484375,
          "y": 218.36599731445312,
          "z": 5701.3759765625
        },
        "camForwardTargetOffset": {
          "x": 592.0419921875,
          "y": 217.968994140625,
          "z": 5702.26611328125
        },
        "camFov": 25.0,
        "lerpPattern": 6,
        "cameraBlendType": "EaseInOutCubic",
        "NJBNNOMLKCK": {},
        "needZAxisRotate": true,
        "openCameraDither": false,
        "targetNpcAlias": "",
        "closeTreeLeafDither": true,
        "KJOEFBPOIIH": "",
        "IICFKKEBIEC": "",
        "EGEHEJEBLBJ": ""
      },
      {
        "$type": "PKKMAMONGEO",
        "type": "DIALOG",
        "aliasList": [
          "20883"
        ],
        "actionId": 130,
        "dialogID": 732320614,
        "protectTime": 0.5
      },
      {
        "$type": "FABLGECDBCH",
        "type": "BODY_LANG",
        "aliasList": [
          "20883"
        ],
        "actionId": 216,
        "isContinue": true,
        "forceDoFreeStyle": true,
        "canDoRepeatFreeStyle": false,
        "cantBackToIdleWhenSitLoop": true,
        "eventPatternSuiteKey": "",
        "FOHHKFAIAAJ": ""
      },
      {
        "$type": "FJKIHHKJLMJ",
        "type": "CAMERA_MOVE",
        "delayTime": 0.10000000149011612,
        "duration": 9.815999984741211,
        "actionId": 193,
        "camPosOffset": {
          "x": 592.7880249023438,
          "y": 219.29800415039062,
          "z": 5699.2880859375
        },
        "camForwardTargetOffset": {
          "x": 592.5650024414062,
          "y": 218.9010009765625,
          "z": 5700.17822265625
        },
        "camFov": 25.0,
        "cameraBlendType": "EaseOutQuad",
        "NJBNNOMLKCK": {},
        "needZAxisRotate": true,
        "openCameraDither": false,
        "targetNpcAlias": "",
        "closeTreeLeafDither": true,
        "KJOEFBPOIIH": "",
        "IICFKKEBIEC": "",
        "EGEHEJEBLBJ": ""
      }
    ],
    [
      {
        "$type": "PKKMAMONGEO",
        "type": "DIALOG",
        "aliasList": [
          "1005"
        ],
        "actionId": 225,
        "dialogID": 732320615,
        "protectTime": 0.5
      }
    ],
    [
      {
        "$type": "PKKMAMONGEO",
        "type": "DIALOG",
        "aliasList": [
          "20883"
        ],
        "actionId": 226,
        "dialogID": 732320616,
        "protectTime": 0.5
      }
    ],
    [
      {
        "$type": "MoleMole.Config.ConfigTimeProtectAction",
        "type": "TIME_PROTECT",
        "duration": 0.699999988079071,
        "actionId": 105
      },
      {
        "$type": "PKKMAMONGEO",
        "type": "DIALOG_CLEAR",
        "actionId": 138
      },
      {
        "$type": "MoleMole.Config.ConfigSimpleBlackScreenAction",
        "type": "SIMPLE_BLACK_SCREEN",
        "actionId": 139,
        "durationToBlack": 0.5,
        "durationKeepBlack": 2.0,
        "durationFromBlack": 0.5,
        "textMapID": ""
      },
      {
        "$type": "FJKIHHKJLMJ",
        "type": "CAMERA_MOVE",
        "delayTime": 0.6000000238418579,
        "duration": 0.10000000149011612,
        "actionId": 219,
        "camPosOffset": {
          "x": 590.5689697265625,
          "y": 213.6510009765625,
          "z": 5716.6337890625
        },
        "camForwardTargetOffset": {
          "x": 590.2559814453125,
          "y": 213.5989990234375,
          "z": 5715.68603515625
        },
        "lerpPattern": 6,
        "cameraBlendType": "EaseInOutCubic",
        "NJBNNOMLKCK": {},
        "needZAxisRotate": true,
        "openCameraDither": false,
        "targetNpcAlias": "",
        "closeTreeLeafDither": true,
        "KJOEFBPOIIH": "",
        "IICFKKEBIEC": "",
        "EGEHEJEBLBJ": ""
      }
    ]
  ],
  "groupId": [
    {
      "grpId": 3001738763,
      "nextGrpId": 3001738764
    },
    {
      "index": 1,
      "grpId": 3001738764,
      "nextGrpId": 3001738765
    },
    {
      "index": 2,
      "grpId": 3001738765,
      "nextGrpId": 3001738766
    },
    {
      "index": 3,
      "grpId": 3001738766,
      "nextGrpId": 3001738767
    },
    {
      "index": 4,
      "grpId": 3001738767,
      "nextGrpId": 3001738768
    },
    {
      "index": 5,
      "grpId": 3001738768,
      "nextGrpId": 3001738769
    },
    {
      "index": 6,
      "grpId": 3001738769,
      "nextGrpId": 3001738770
    },
    {
      "index": 7,
      "grpId": 3001738770,
      "nextGrpId": 3001738771
    },
    {
      "index": 8,
      "grpId": 3001738771,
      "nextGrpId": 2859588485
    },
    {
      "index": 9,
      "grpId": 2859588485,
      "nextGrpId": 2859588486
    },
    {
      "index": 10,
      "grpId": 2859588486,
      "nextGrpId": 2859588487
    },
    {
      "index": 11,
      "grpId": 2859588487,
      "nextGrpId": 2859588488
    },
    {
      "index": 12,
      "grpId": 2859588488,
      "nextGrpId": 2859588489
    },
    {
      "index": 13,
      "grpId": 2859588489,
      "nextGrpId": 2859588490
    },
    {
      "index": 14,
      "grpId": 2859588490,
      "nextGrpId": 2859588491
    },
    {
      "index": 15,
      "grpId": 2859588491,
      "nextGrpId": 2859588492
    },
    {
      "index": 16,
      "grpId": 2859588492,
      "nextGrpId": 2859588493
    }
  ],
  "freeStyleDic": {
    "20883": [
      6050,
      4040,
      6030,
      4030,
      6040
    ]
  }
}