[
  {
    "tileName": "Grass",
    "specialType": "WorldGrass",
    "DGPIGFKHFIF": "",
    "initialElements": [
      {
        "elementType": "Grass",
        "elementDurability": 120.0
      },
      {
        "elementType": "AntiFire",
        "elementDurability": 35.0
      }
    ],
    "fieldMapMaterial": "",
    "effectMaterial": ""
  },
  {
    "tileName": "Water",
    "specialType": "WorldWater",
    "DGPIGFKHFIF": "",
    "initialElements": [
      {
        "elementType": "Water",
        "elementDurability": 80.0,
        "isElementDurabilityMutable": false
      }
    ],
    "fieldMapMaterial": "",
    "effectMaterial": ""
  },
  {
    "tileName": "ElectricWater",
    "specialType": "WorldElectricWater",
    "DGPIGFKHFIF": "",
    "initialElements": [
      {
        "elementType": "Water",
        "elementDurability": 80.0,
        "isElementDurabilityMutable": false
      },
      {
        "elementType": "Electric",
        "elementDurability": 120.0,
        "isElementDurabilityMutable": false
      }
    ],
    "fieldMapMaterial": "",
    "effectMaterial": ""
  },
  {
    "tileName": "LiquidPhlogiston",
    "specialType": "WorldLiquidPhlogiston",
    "PANNBCCALDN": true,
    "DGPIGFKHFIF": "",
    "initialElements": [
      {
        "elementType": "LiquidPhlogiston",
        "elementDurability": 80.0,
        "isElementDurabilityMutable": false
      }
    ],
    "fieldMapMaterial": "",
    "effectMaterial": ""
  },
  {
    "tileName": "LaSignora_Tile_Ice",
    "fixedY": 0.15000000596046448,
    "DGPIGFKHFIF": "",
    "initialElements": [
      {
        "elementType": "Ice",
        "elementDurability": 120.0,
        "isElementDurabilityMutable": false
      }
    ],
    "basicAction": {
      "attackID": "TileAtk_LaSignora_Tile_Ice",
      "actionID": ""
    },
    "fieldMapMaterial": "Build/Rendering/Lava/Lava_DistanceField",
    "effectMaterial": "Build/Rendering/Lava/Frost"
  },
  {
    "tileName": "LaSignora_Tile_Fire",
    "fixedY": 0.15000000596046448,
    "DGPIGFKHFIF": "",
    "initialElements": [
      {
        "elementType": "Fire",
        "elementDurability": 120.0,
        "isElementDurabilityMutable": false
      }
    ],
    "basicAction": {
      "attackID": "TileAtk_LaSignora_Tile_Fire",
      "actionID": ""
    },
    "fieldMapMaterial": "Build/Rendering/Lava/Lava_DistanceField",
    "effectMaterial": "Build/Rendering/Lava/Lava"
  },
  {
    "tileName": "Monster_Nada_Tile_Ice",
    "fixedY": 5.809999942779541,
    "DGPIGFKHFIF": "",
    "initialElements": [
      {
        "elementType": "Ice",
        "elementDurability": 100.0,
        "isElementDurabilityMutable": false
      }
    ],
    "basicAction": {
      "attackID": "Monster_Nada_Tile_Attack_Ice",
      "actionID": ""
    },
    "fieldMapMaterial": "Build/Rendering/Lava/Lava_DistanceField",
    "effectMaterial": "Build/Rendering/Lava/Frost"
  },
  {
    "tileName": "Monster_Nada_Tile_Fire",
    "fixedY": 5.809999942779541,
    "DGPIGFKHFIF": "",
    "initialElements": [
      {
        "elementType": "Fire",
        "elementDurability": 100.0,
        "isElementDurabilityMutable": false
      }
    ],
    "basicAction": {
      "attackID": "Monster_Nada_Tile_Attack_Fire",
      "actionID": ""
    },
    "fieldMapMaterial": "Build/Rendering/Lava/Lava_DistanceField",
    "effectMaterial": "Build/Rendering/Lava/Lava"
  },
  {
    "tileName": "Monster_FauneAbyssale_HermitCrab_Primo_Tile_Fire",
    "fixedY": 357.45001220703125,
    "MHDFJAHGCKF": {
      "x": 2168.0,
      "z": 4390.0
    },
    "DGPIGFKHFIF": "CircleR150",
    "initialElements": [
      {
        "elementType": "Fire",
        "elementDurability": 120.0,
        "isElementDurabilityMutable": false
      }
    ],
    "basicAction": {
      "duration": 10.0,
      "attackID": "TileAtk_Monster_FauneAbyssale_HermitCrab_Primo_Tile_Fire",
      "actionID": ""
    },
    "fieldMapMaterial": "Build/Rendering/Lava/Lava_DistanceField",
    "effectMaterial": "Build/Rendering/Lava/Lava"
  },
  {
    "tileName": "Monster_FauneAbyssale_HermitCrab_Primo_Tile_Fire_Hard",
    "fixedY": 0.009999999776482582,
    "DGPIGFKHFIF": "",
    "initialElements": [
      {
        "elementType": "Fire",
        "elementDurability": 120.0,
        "isElementDurabilityMutable": false
      }
    ],
    "basicAction": {
      "duration": 60.0,
      "attackID": "TileAtk_Monster_FauneAbyssale_HermitCrab_Primo_Tile_Fire_Hard",
      "actionID": ""
    },
    "fieldMapMaterial": "Build/Rendering/Lava/Lava_DistanceField",
    "effectMaterial": "Build/Rendering/Lava/Lava"
  },
  {
    "tileName": "Monster_FauneAbyssale_HermitCrab_Primo_Tile_Fire_RoleCombat",
    "fixedY": 56.709999084472656,
    "DGPIGFKHFIF": "",
    "initialElements": [
      {
        "elementType": "Fire",
        "elementDurability": 120.0,
        "isElementDurabilityMutable": false
      }
    ],
    "basicAction": {
      "duration": 60.0,
      "attackID": "TileAtk_Monster_FauneAbyssale_HermitCrab_Primo_Tile_Fire_Hard",
      "actionID": ""
    },
    "fieldMapMaterial": "Build/Rendering/Lava/Lava_DistanceField",
    "effectMaterial": "Build/Rendering/Lava/Lava"
  },
  {
    "tileName": "Monster_FauneAbyssale_Seahorse_Primo_Tile",
    "fixedY": 185.10000610351562,
    "MHDFJAHGCKF": {
      "x": 4785.0,
      "z": 4763.0
    },
    "DGPIGFKHFIF": "CircleR25",
    "initialElements": [
      {
        "elementType": "Electric",
        "elementDurability": 60.0,
        "isElementDurabilityMutable": false
      }
    ],
    "basicAction": {
      "duration": 15.0,
      "attackID": "TileAtk_Monster_FauneAbyssale_Seahorse_Primo_Tile",
      "actionID": ""
    },
    "fieldMapMaterial": "Build/Rendering/Lava/Lava_DistanceField",
    "effectMaterial": "Build/Rendering/Lava/Lightning"
  },
  {
    "tileName": "Monster_FauneAbyssale_Seahorse_Primo_Tile_Dungeon",
    "fixedY": 0.009999999776482582,
    "DGPIGFKHFIF": "",
    "initialElements": [
      {
        "elementType": "Electric",
        "elementDurability": 60.0,
        "isElementDurabilityMutable": false
      }
    ],
    "basicAction": {
      "duration": 15.0,
      "attackID": "TileAtk_Monster_FauneAbyssale_Seahorse_Primo_Tile",
      "actionID": ""
    },
    "fieldMapMaterial": "Build/Rendering/Lava/Lava_DistanceField",
    "effectMaterial": "Build/Rendering/Lava/Lightning"
  },
  {
    "tileName": "Monster_FauneAbyssale_Seahorse_Primo_Tile_RoleCombat",
    "fixedY": 56.709999084472656,
    "DGPIGFKHFIF": "",
    "initialElements": [
      {
        "elementType": "Electric",
        "elementDurability": 60.0,
        "isElementDurabilityMutable": false
      }
    ],
    "basicAction": {
      "duration": 15.0,
      "attackID": "TileAtk_Monster_FauneAbyssale_Seahorse_Primo_Tile",
      "actionID": ""
    },
    "fieldMapMaterial": "Build/Rendering/Lava/Lava_DistanceField",
    "effectMaterial": "Build/Rendering/Lava/Lightning"
  },
  {
    "tileName": "Monster_Natsaurus_Hookwalker_Primo_Tile_Fire",
    "fixedY": -90.5,
    "MHDFJAHGCKF": {
      "x": -1843.0,
      "z": 8514.0
    },
    "DGPIGFKHFIF": "CircleR150",
    "initialElements": [
      {
        "elementType": "Fire",
        "elementDurability": 120.0,
        "isElementDurabilityMutable": false
      }
    ],
    "basicAction": {
      "duration": 10.0,
      "attackID": "TileAtk_Monster_Natsaurus_Hookwalker_Primo_Tile_Fire",
      "actionID": ""
    },
    "fieldMapMaterial": "Build/Rendering/Lava/Lava_DistanceField",
    "effectMaterial": "Build/Rendering/Lava/Lava"
  },
  {
    "tileName": "Monster_Natsaurus_Hookwalker_Primo_Tile_Fire_Hard",
    "fixedY": 0.009999999776482582,
    "DGPIGFKHFIF": "",
    "initialElements": [
      {
        "elementType": "Fire",
        "elementDurability": 120.0,
        "isElementDurabilityMutable": false
      }
    ],
    "basicAction": {
      "duration": 60.0,
      "attackID": "TileAtk_Monster_Natsaurus_Hookwalker_Primo_Tile_Fire_Hard",
      "actionID": ""
    },
    "fieldMapMaterial": "Build/Rendering/Lava/Lava_DistanceField",
    "effectMaterial": "Build/Rendering/Lava/Lava"
  },
  {
    "tileName": "Monster_Natsaurus_Hookwalker_Primo_Tile_Fire_RoleCombat",
    "fixedY": 56.709999084472656,
    "DGPIGFKHFIF": "",
    "initialElements": [
      {
        "elementType": "Fire",
        "elementDurability": 120.0,
        "isElementDurabilityMutable": false
      }
    ],
    "basicAction": {
      "duration": 60.0,
      "attackID": "TileAtk_Monster_Natsaurus_Hookwalker_Primo_Tile_Fire_Hard",
      "actionID": ""
    },
    "fieldMapMaterial": "Build/Rendering/Lava/Lava_DistanceField",
    "effectMaterial": "Build/Rendering/Lava/Lava"
  }
]