{
  "luaDataPath": "",
  "dontUseDefaultFinish": true,
  "entityBan": "",
  "disableNpcLod": true,
  "isAutoBanNpc": true,
  "isBanWidgetPet": true,
  "protectNpcMobileLod": true,
  "talkFlag": 7,
  "startFade": {
    "startFadeOutDuration": 0.0
  },
  "endFade": {
    "startFadeOutDuration": 0.0
  },
  "actors": [
    {
      "alias": "Avatar",
      "visible": true,
      "bornPointName": "",
      "relativePosType": "AVATAR_NEW",
      "relativePosNpcAlias": "",
      "_bindMovingTargetKey": ""
    },
    {
      "configID": 21128,
      "alias": "21128",
      "visible": true,
      "bornPointName": "",
      "forceCreateDaily": true,
      "relativePosType": "AVATAR_NEW",
      "relativePosNpcAlias": "",
      "_bindMovingTargetKey": ""
    }
  ],
  "group": [
    [
      {
        "$type": "MoleMole.Config.ConfigTimeProtectAction",
        "type": "TIME_PROTECT",
        "duration": 1.0,
        "actionId": 104
      },
      {
        "$type": "MoleMole.Config.ConfigBlackScreenAction",
        "type": "BLACK_SCREEN",
        "duration": 1.0,
        "actionId": 141,
        "blackScreenType": "KEEP_BLACK",
        "durationToBlack": 0.5,
        "durationKeepBlack": 1.0,
        "durationFromBlack": 0.5,
        "inteePos": "",
        "textMapID": "",
        "useTextFade": true,
        "_changeAudioState": true
      },
      {
        "$type": "FABLGECDBCH",
        "type": "BODY_LANG",
        "aliasList": [
          "21128"
        ],
        "actionId": 139,
        "isContinue": true,
        "forceDoFreeStyle": true,
        "canDoRepeatFreeStyle": false,
        "eventPatternSuiteKey": "",
        "FOHHKFAIAAJ": ""
      }
    ],
    [
      {
        "$type": "MoleMole.Config.ConfigBlackScreenAction",
        "type": "BLACK_SCREEN",
        "duration": 0.5,
        "actionId": 142,
        "blackScreenType": "FROM_BLACK",
        "durationToBlack": 0.5,
        "durationKeepBlack": 0.5,
        "durationFromBlack": 0.5,
        "inteePos": "",
        "textMapID": "",
        "useTextFade": true,
        "_changeAudioState": true
      },
      {
        "$type": "PKKMAMONGEO",
        "type": "DIALOG",
        "aliasList": [
          "21128"
        ],
        "actionId": 107,
        "dialogID": 741082101,
        "protectTime": 0.5
      },
      {
        "$type": "HDGKHDNFMIM",
        "type": "DIALOG_SELECT",
        "delayTime": 0.4000000059604645,
        "aliasList": [
          "Avatar"
        ],
        "actionId": 108,
        "dialogIDList": [
          741082102,
          741082109,
          741082118
        ],
        "grpIDList": [
          3687408661,
          3687408666,
          2640518787
        ],
        "useGrpId": true,
        "countDownGrpId": 3687408658
      }
    ],
    [
      {
        "$type": "MoleMole.Config.ConfigTimeProtectAction",
        "type": "TIME_PROTECT",
        "duration": 0.5,
        "aliasList": [
          "Avatar"
        ],
        "actionId": 144
      },
      {
        "$type": "HDGKHDNFMIM",
        "type": "DIALOG_SELECT",
        "delayTime": 0.4000000059604645,
        "aliasList": [
          "Avatar"
        ],
        "actionId": 110,
        "dialogIDList": [
          741082103,
          741082105
        ],
        "grpIDList": [
          3687408662,
          3687408663
        ],
        "useGrpId": true,
        "countDownGrpId": 3687408658
      }
    ],
    [
      {
        "$type": "PKKMAMONGEO",
        "type": "DIALOG",
        "aliasList": [
          "21128"
        ],
        "actionId": 112,
        "dialogID": 741082104,
        "protectTime": 0.5
      }
    ],
    [
      {
        "$type": "PKKMAMONGEO",
        "type": "DIALOG",
        "aliasList": [
          "21128"
        ],
        "actionId": 114,
        "dialogID": 741082106,
        "protectTime": 0.5
      }
    ],
    [
      {
        "$type": "PKKMAMONGEO",
        "type": "DIALOG",
        "aliasList": [
          "21128"
        ],
        "actionId": 116,
        "dialogID": 741082107,
        "protectTime": 0.5
      }
    ],
    [
      {
        "$type": "PKKMAMONGEO",
        "type": "DIALOG",
        "aliasList": [
          "21128"
        ],
        "actionId": 118,
        "dialogID": 741082108,
        "protectTime": 0.5
      }
    ],
    [
      {
        "$type": "PKKMAMONGEO",
        "type": "DIALOG",
        "aliasList": [
          "21128"
        ],
        "actionId": 120,
        "dialogID": 741082110,
        "protectTime": 0.5
      }
    ],
    [
      {
        "$type": "PKKMAMONGEO",
        "type": "DIALOG",
        "aliasList": [
          "21128"
        ],
        "actionId": 122,
        "dialogID": 741082111,
        "protectTime": 0.5
      }
    ],
    [
      {
        "$type": "PKKMAMONGEO",
        "type": "DIALOG",
        "aliasList": [
          "21128"
        ],
        "actionId": 124,
        "dialogID": 741082112,
        "protectTime": 0.5
      }
    ],
    [
      {
        "$type": "PKKMAMONGEO",
        "type": "DIALOG",
        "aliasList": [
          "21128"
        ],
        "actionId": 126,
        "dialogID": 741082113,
        "protectTime": 0.5
      }
    ],
    [
      {
        "$type": "PKKMAMONGEO",
        "type": "DIALOG",
        "aliasList": [
          "21128"
        ],
        "actionId": 128,
        "dialogID": 741082114,
        "protectTime": 0.5
      }
    ],
    [
      {
        "$type": "PKKMAMONGEO",
        "type": "DIALOG",
        "aliasList": [
          "21128"
        ],
        "actionId": 130,
        "dialogID": 741082115,
        "protectTime": 0.5
      }
    ],
    [
      {
        "$type": "PKKMAMONGEO",
        "type": "DIALOG",
        "aliasList": [
          "21128"
        ],
        "actionId": 132,
        "dialogID": 741082116,
        "protectTime": 0.5
      }
    ],
    [
      {
        "$type": "PKKMAMONGEO",
        "type": "DIALOG",
        "aliasList": [
          "21128"
        ],
        "actionId": 134,
        "dialogID": 741082117,
        "protectTime": 0.5
      }
    ],
    [
      {
        "$type": "PKKMAMONGEO",
        "type": "DIALOG",
        "aliasList": [
          "21128"
        ],
        "actionId": 136,
        "dialogID": 741082119,
        "protectTime": 0.5
      }
    ],
    [
      {
        "$type": "MoleMole.Config.ConfigTimeProtectAction",
        "type": "TIME_PROTECT",
        "duration": 0.10000000149011612,
        "actionId": 138
      }
    ],
    [
      {
        "$type": "MoleMole.Config.ConfigTimeProtectAction",
        "type": "TIME_PROTECT",
        "duration": 0.10000000149011612,
        "actionId": 105
      },
      {
        "$type": "FJKIHHKJLMJ",
        "type": "CAMERA_MOVE",
        "delayTime": 0.5,
        "duration": 0.10000000149011612,
        "actionId": 143,
        "cameraPosType": "EXIT",
        "camForwardTargetOffset": {
          "z": 1.0
        },
        "camFov": 30.0,
        "lerpPattern": 5,
        "cameraBlendType": "EaseInOutCubic",
        "NJBNNOMLKCK": {},
        "openCameraDither": false,
        "targetNpcAlias": "",
        "closeTreeLeafDither": true,
        "KJOEFBPOIIH": "",
        "IICFKKEBIEC": "",
        "EGEHEJEBLBJ": ""
      },
      {
        "$type": "FABLGECDBCH",
        "type": "BODY_LANG",
        "delayTime": 0.6000000238418579,
        "aliasList": [
          "21128"
        ],
        "actionId": 140,
        "isContinue": true,
        "forceDoFreeStyle": true,
        "canDoRepeatFreeStyle": false,
        "eventPatternSuiteKey": "",
        "FOHHKFAIAAJ": ""
      }
    ]
  ],
  "groupId": [
    {
      "grpId": 3687408659,
      "nextGrpId": 3687408660
    },
    {
      "index": 1,
      "grpId": 3687408660,
      "nextGrpId": 3687408661
    },
    {
      "index": 2,
      "grpId": 3687408661,
      "nextGrpId": 3687408662
    },
    {
      "index": 3,
      "grpId": 3687408662,
      "nextGrpId": 3687408664
    },
    {
      "index": 4,
      "grpId": 3687408663,
      "nextGrpId": 3687408664
    },
    {
      "index": 5,
      "grpId": 3687408664,
      "nextGrpId": 3687408665
    },
    {
      "index": 6,
      "grpId": 3687408665,
      "nextGrpId": 2640518788
    },
    {
      "index": 7,
      "grpId": 3687408666,
      "nextGrpId": 3687408667
    },
    {
      "index": 8,
      "grpId": 3687408667,
      "nextGrpId": 2640518781
    },
    {
      "index": 9,
      "grpId": 2640518781,
      "nextGrpId": 2640518782
    },
    {
      "index": 10,
      "grpId": 2640518782,
      "nextGrpId": 2640518783
    },
    {
      "index": 11,
      "grpId": 2640518783,
      "nextGrpId": 2640518784
    },
    {
      "index": 12,
      "grpId": 2640518784,
      "nextGrpId": 2640518785
    },
    {
      "index": 13,
      "grpId": 2640518785,
      "nextGrpId": 2640518786
    },
    {
      "index": 14,
      "grpId": 2640518786,
      "nextGrpId": 2640518788
    },
    {
      "index": 15,
      "grpId": 2640518787,
      "nextGrpId": 2640518788
    },
    {
      "index": 16,
      "grpId": 2640518788,
      "nextGrpId": 2640518789
    },
    {
      "index": 17,
      "grpId": 2640518789,
      "nextGrpId": 2640518790
    }
  ],
  "freeStyleDic": {
    "21128": []
  }
}