{
  "luaDataPath": "",
  "dontUseDefaultFinish": true,
  "entityBan": "",
  "disableNpcLod": true,
  "isAutoBanNpc": true,
  "isBanWidgetPet": true,
  "protectNpcMobileLod": true,
  "talkFlag": 7,
  "startFade": {
    "startFadeOutDuration": 0.0
  },
  "endFade": {
    "startFadeOutDuration": 0.0
  },
  "actors": [
    {
      "alias": "Avatar",
      "visible": true,
      "bornPointName": "",
      "relativePosType": "AVATAR_NEW",
      "relativePosNpcAlias": "",
      "_bindMovingTargetKey": ""
    },
    {
      "configID": 21129,
      "alias": "21129",
      "visible": true,
      "bornPointName": "",
      "forceCreateDaily": true,
      "relativePosType": "AVATAR_NEW",
      "relativePosNpcAlias": "",
      "_bindMovingTargetKey": ""
    }
  ],
  "group": [
    [
      {
        "$type": "MoleMole.Config.ConfigTimeProtectAction",
        "type": "TIME_PROTECT",
        "duration": 1.0,
        "actionId": 104
      },
      {
        "$type": "MoleMole.Config.ConfigBlackScreenAction",
        "type": "BLACK_SCREEN",
        "duration": 1.0,
        "actionId": 141,
        "blackScreenType": "KEEP_BLACK",
        "durationToBlack": 0.5,
        "durationKeepBlack": 1.0,
        "durationFromBlack": 0.5,
        "inteePos": "",
        "textMapID": "",
        "useTextFade": true,
        "_changeAudioState": true
      },
      {
        "$type": "FABLGECDBCH",
        "type": "BODY_LANG",
        "aliasList": [
          "21129"
        ],
        "actionId": 139,
        "isContinue": true,
        "forceDoFreeStyle": true,
        "canDoRepeatFreeStyle": false,
        "eventPatternSuiteKey": "",
        "FOHHKFAIAAJ": ""
      }
    ],
    [
      {
        "$type": "MoleMole.Config.ConfigBlackScreenAction",
        "type": "BLACK_SCREEN",
        "duration": 0.5,
        "actionId": 142,
        "blackScreenType": "FROM_BLACK",
        "durationToBlack": 0.5,
        "durationKeepBlack": 0.5,
        "durationFromBlack": 0.5,
        "inteePos": "",
        "textMapID": "",
        "useTextFade": true,
        "_changeAudioState": true
      },
      {
        "$type": "PKKMAMONGEO",
        "type": "DIALOG",
        "aliasList": [
          "21129"
        ],
        "actionId": 107,
        "dialogID": 741085201,
        "protectTime": 0.5
      },
      {
        "$type": "HDGKHDNFMIM",
        "type": "DIALOG_SELECT",
        "delayTime": 0.4000000059604645,
        "aliasList": [
          "Avatar"
        ],
        "actionId": 108,
        "dialogIDList": [
          741085202,
          741085216,
          741085221
        ],
        "grpIDList": [
          3687498995,
          2643319137,
          2643319140
        ],
        "useGrpId": true,
        "countDownGrpId": 3687498992
      }
    ],
    [
      {
        "$type": "MoleMole.Config.ConfigTimeProtectAction",
        "type": "TIME_PROTECT",
        "duration": 0.5,
        "aliasList": [
          "Avatar"
        ],
        "actionId": 144
      },
      {
        "$type": "HDGKHDNFMIM",
        "type": "DIALOG_SELECT",
        "delayTime": 0.4000000059604645,
        "aliasList": [
          "Avatar"
        ],
        "actionId": 110,
        "dialogIDList": [
          741085203,
          741085205
        ],
        "grpIDList": [
          3687498996,
          3687498997
        ],
        "useGrpId": true,
        "countDownGrpId": 3687498992
      }
    ],
    [
      {
        "$type": "PKKMAMONGEO",
        "type": "DIALOG",
        "aliasList": [
          "21129"
        ],
        "actionId": 112,
        "dialogID": 741085204,
        "protectTime": 0.5
      }
    ],
    [
      {
        "$type": "PKKMAMONGEO",
        "type": "DIALOG",
        "aliasList": [
          "21129"
        ],
        "actionId": 114,
        "dialogID": 741085206,
        "protectTime": 0.5
      },
      {
        "$type": "HDGKHDNFMIM",
        "type": "DIALOG_SELECT",
        "delayTime": 0.4000000059604645,
        "aliasList": [
          "Avatar"
        ],
        "actionId": 115,
        "dialogIDList": [
          741085207
        ],
        "grpIDList": [
          3687498998
        ],
        "useGrpId": true,
        "countDownGrpId": 3687498992
      }
    ],
    [
      {
        "$type": "MoleMole.Config.ConfigTimeProtectAction",
        "type": "TIME_PROTECT",
        "duration": 0.5,
        "aliasList": [
          "Avatar"
        ],
        "actionId": 145
      },
      {
        "$type": "HDGKHDNFMIM",
        "type": "DIALOG_SELECT",
        "delayTime": 0.4000000059604645,
        "aliasList": [
          "Avatar"
        ],
        "actionId": 117,
        "dialogIDList": [
          741085208,
          741085210,
          741085214
        ],
        "grpIDList": [
          3687498999,
          3687499000,
          2643319136
        ],
        "useGrpId": true,
        "countDownGrpId": 3687498992
      }
    ],
    [
      {
        "$type": "PKKMAMONGEO",
        "type": "DIALOG",
        "aliasList": [
          "21129"
        ],
        "actionId": 119,
        "dialogID": 741085209,
        "protectTime": 0.5
      }
    ],
    [
      {
        "$type": "PKKMAMONGEO",
        "type": "DIALOG",
        "aliasList": [
          "21129"
        ],
        "actionId": 121,
        "dialogID": 741085211,
        "protectTime": 0.5
      }
    ],
    [
      {
        "$type": "PKKMAMONGEO",
        "type": "DIALOG",
        "aliasList": [
          "21129"
        ],
        "actionId": 123,
        "dialogID": 741085212,
        "protectTime": 0.5
      }
    ],
    [
      {
        "$type": "PKKMAMONGEO",
        "type": "DIALOG",
        "aliasList": [
          "21129"
        ],
        "actionId": 125,
        "dialogID": 741085213,
        "protectTime": 0.5
      }
    ],
    [
      {
        "$type": "PKKMAMONGEO",
        "type": "DIALOG",
        "aliasList": [
          "21129"
        ],
        "actionId": 127,
        "dialogID": 741085215,
        "protectTime": 0.5
      }
    ],
    [
      {
        "$type": "PKKMAMONGEO",
        "type": "DIALOG",
        "aliasList": [
          "21129"
        ],
        "actionId": 129,
        "dialogID": 741085217,
        "protectTime": 0.5
      },
      {
        "$type": "HDGKHDNFMIM",
        "type": "DIALOG_SELECT",
        "delayTime": 0.4000000059604645,
        "aliasList": [
          "Avatar"
        ],
        "actionId": 130,
        "dialogIDList": [
          741085218
        ],
        "grpIDList": [
          2643319138
        ],
        "useGrpId": true,
        "countDownGrpId": 3687498992
      }
    ],
    [
      {
        "$type": "PKKMAMONGEO",
        "type": "DIALOG",
        "aliasList": [
          "21129"
        ],
        "actionId": 132,
        "dialogID": 741085219,
        "protectTime": 0.5
      }
    ],
    [
      {
        "$type": "PKKMAMONGEO",
        "type": "DIALOG",
        "aliasList": [
          "21129"
        ],
        "actionId": 134,
        "dialogID": 741085220,
        "protectTime": 0.5
      }
    ],
    [
      {
        "$type": "PKKMAMONGEO",
        "type": "DIALOG",
        "aliasList": [
          "21129"
        ],
        "actionId": 136,
        "dialogID": 741085222,
        "protectTime": 0.5
      }
    ],
    [
      {
        "$type": "MoleMole.Config.ConfigTimeProtectAction",
        "type": "TIME_PROTECT",
        "duration": 0.10000000149011612,
        "actionId": 138
      }
    ],
    [
      {
        "$type": "MoleMole.Config.ConfigTimeProtectAction",
        "type": "TIME_PROTECT",
        "duration": 0.10000000149011612,
        "actionId": 105
      },
      {
        "$type": "FJKIHHKJLMJ",
        "type": "CAMERA_MOVE",
        "delayTime": 0.5,
        "duration": 0.10000000149011612,
        "actionId": 143,
        "cameraPosType": "EXIT",
        "camForwardTargetOffset": {
          "z": 1.0
        },
        "camFov": 30.0,
        "lerpPattern": 5,
        "cameraBlendType": "EaseInOutCubic",
        "NJBNNOMLKCK": {},
        "openCameraDither": false,
        "targetNpcAlias": "",
        "closeTreeLeafDither": true,
        "KJOEFBPOIIH": "",
        "IICFKKEBIEC": "",
        "EGEHEJEBLBJ": ""
      },
      {
        "$type": "FABLGECDBCH",
        "type": "BODY_LANG",
        "delayTime": 0.6000000238418579,
        "aliasList": [
          "21129"
        ],
        "actionId": 140,
        "isContinue": true,
        "forceDoFreeStyle": true,
        "canDoRepeatFreeStyle": false,
        "eventPatternSuiteKey": "",
        "FOHHKFAIAAJ": ""
      }
    ]
  ],
  "groupId": [
    {
      "grpId": 3687498993,
      "nextGrpId": 3687498994
    },
    {
      "index": 1,
      "grpId": 3687498994,
      "nextGrpId": 3687498995
    },
    {
      "index": 2,
      "grpId": 3687498995,
      "nextGrpId": 3687498996
    },
    {
      "index": 3,
      "grpId": 3687498996,
      "nextGrpId": 2643319141
    },
    {
      "index": 4,
      "grpId": 3687498997,
      "nextGrpId": 3687498998
    },
    {
      "index": 5,
      "grpId": 3687498998,
      "nextGrpId": 3687498999
    },
    {
      "index": 6,
      "grpId": 3687498999,
      "nextGrpId": 2643319141
    },
    {
      "index": 7,
      "grpId": 3687499000,
      "nextGrpId": 3687499001
    },
    {
      "index": 8,
      "grpId": 3687499001,
      "nextGrpId": 2643319135
    },
    {
      "index": 9,
      "grpId": 2643319135,
      "nextGrpId": 2643319141
    },
    {
      "index": 10,
      "grpId": 2643319136,
      "nextGrpId": 2643319141
    },
    {
      "index": 11,
      "grpId": 2643319137,
      "nextGrpId": 2643319138
    },
    {
      "index": 12,
      "grpId": 2643319138,
      "nextGrpId": 2643319139
    },
    {
      "index": 13,
      "grpId": 2643319139,
      "nextGrpId": 2643319141
    },
    {
      "index": 14,
      "grpId": 2643319140,
      "nextGrpId": 2643319141
    },
    {
      "index": 15,
      "grpId": 2643319141,
      "nextGrpId": 2643319142
    },
    {
      "index": 16,
      "grpId": 2643319142,
      "nextGrpId": 2643319143
    }
  ],
  "freeStyleDic": {
    "21129": []
  }
}