{
  "luaDataPath": "",
  "startBlackKeepTime": 0.5,
  "entityBan": "",
  "disableNpcLod": true,
  "isAutoBanNpc": true,
  "isBanWidgetPet": true,
  "protectNpcMobileLod": true,
  "startFade": {
    "startFadeInDuration": 0.5,
    "startFadeOutDuration": 0.5
  },
  "endFade": {
    "startFadeOutDuration": 0.0
  },
  "actors": [
    {
      "alias": "Avatar",
      "visible": true,
      "bornPointName": "",
      "relativePosType": "AVATAR_NEW",
      "relativePosNpcAlias": "",
      "_bindMovingTargetKey": ""
    },
    {
      "configID": 1005,
      "alias": "1005",
      "visible": true,
      "bornPointName": "",
      "relativePos": {
        "x": 0.5,
        "z": -0.5
      },
      "removeActorType": "REMOVE_WITH_DISAPPEAR",
      "relativePosType": "AVATAR_NEW",
      "relativePosNpcAlias": "",
      "_bindMovingTargetKey": ""
    },
    {
      "configID": 13019,
      "alias": "13019",
      "visible": true,
      "bornPointName": "",
      "relativePosType": "AVATAR_NEW",
      "relativePosNpcAlias": "",
      "_bindMovingTargetKey": ""
    },
    {
      "configID": 1044,
      "alias": "1044",
      "visible": true,
      "bornPointName": "",
      "relativePosType": "AVATAR_NEW",
      "relativePosNpcAlias": "",
      "_bindMovingTargetKey": ""
    }
  ],
  "group": [
    [
      {
        "$type": "MoleMole.Config.ConfigTimeProtectAction",
        "type": "TIME_PROTECT",
        "duration": 1.0,
        "actionId": 104
      },
      {
        "$type": "CPJKOIHIPBE",
        "type": "EMO_SYNC",
        "aliasList": [
          "13019"
        ],
        "actionId": 219,
        "dataPath": "",
        "phonemePath": "Cs_Emo_NPC_Common/Cs_Emo_NPC_Normal01",
        "emotionPath": "Cs_Emo_NPC_Common/Cs_Emo_NPC_Normal01",
        "mateDataPath": "",
        "matePhonemePath": "",
        "mateEmotionPath": "",
        "phonemePathHashList": [
          12803840960998583578,
          3437050431160283015,
          6548526936325855136,
          1274732080047098512
        ],
        "emotionPathHashList": [
          10638823098752766568,
          16550434959365186937,
          16779490980036678760,
          2038118027140397243
        ],
        "FMDPBECPELH": "",
        "ADKBLPOKGIK": ""
      },
      {
        "$type": "LJLMDHDCAMK",
        "type": "LOOK_AT",
        "aliasList": [
          "13019"
        ],
        "actionId": 130,
        "enableHead": true,
        "headTurnTime": 0.5,
        "targetNpcAlias": "1044",
        "openBackProtect": true,
        "targetNpcLookAtPoint": "",
        "OAFJBHJHLJG": ""
      },
      {
        "$type": "MoleMole.Config.ConfigTeleportToAction",
        "type": "TELEPORT_TO",
        "aliasList": [
          "1005"
        ],
        "actionId": 235,
        "position": {
          "x": -2188.992919921875,
          "y": 200.43099975585938,
          "z": -3480.43994140625
        },
        "forward": {
          "x": 0.8840000033378601,
          "z": -0.46700000762939453
        },
        "openLongDisTeleport": true,
        "_posBindMovingTargetKey": "",
        "_forwardBindMovingTargetKey": ""
      },
      {
        "$type": "LJLMDHDCAMK",
        "type": "LOOK_AT",
        "aliasList": [
          "1044"
        ],
        "actionId": 131,
        "enableHead": true,
        "headTurnTime": 0.5,
        "targetNpcAlias": "13019",
        "openBackProtect": true,
        "targetNpcLookAtPoint": "",
        "OAFJBHJHLJG": ""
      },
      {
        "$type": "LJLMDHDCAMK",
        "type": "LOOK_AT",
        "aliasList": [
          "1005"
        ],
        "actionId": 151,
        "enableHead": true,
        "targetPosition": {
          "x": -2186.97705078125,
          "y": 201.6790008544922,
          "z": -3479.694091796875
        },
        "headTurnTime": 0.5,
        "targetNpcAlias": "13019",
        "openBackProtect": true,
        "targetNpcLookAtPoint": "",
        "OAFJBHJHLJG": ""
      },
      {
        "$type": "CPJKOIHIPBE",
        "type": "EMO_SYNC",
        "aliasList": [
          "1005"
        ],
        "actionId": 228,
        "dataPath": "",
        "phonemePath": "Cs_Emo_Pet_Common/Cs_Emo_Paimon_None",
        "emotionPath": "Cs_Emo_Pet_Common/Cs_Emo_Paimon_Normal01",
        "mateDataPath": "",
        "matePhonemePath": "",
        "mateEmotionPath": "",
        "phonemePathHashList": [
          1796869206626684908,
          2049648015653630001,
          14015965774222061559,
          873259039409222856
        ],
        "emotionPathHashList": [
          312453201720762420,
          9562322946389574798,
          18422542724361145117,
          17949024460815132449
        ],
        "FMDPBECPELH": "",
        "ADKBLPOKGIK": ""
      },
      {
        "$type": "MoleMole.Config.ConfigTeleportToAction",
        "type": "TELEPORT_TO",
        "aliasList": [
          "Avatar"
        ],
        "actionId": 234,
        "position": {
          "x": -2188.760009765625,
          "y": 200.4149932861328,
          "z": -3479.760009765625
        },
        "forward": {
          "x": 0.9509999752044678,
          "y": -0.009999999776482582,
          "z": -0.6970000267028809
        },
        "openLongDisTeleport": true,
        "_posBindMovingTargetKey": "",
        "_forwardBindMovingTargetKey": ""
      },
      {
        "$type": "LJLMDHDCAMK",
        "type": "LOOK_AT",
        "aliasList": [
          "Avatar"
        ],
        "actionId": 161,
        "enableHead": true,
        "headTurnTime": 0.5,
        "targetNpcAlias": "13019",
        "openBackProtect": true,
        "targetNpcLookAtPoint": "",
        "OAFJBHJHLJG": ""
      },
      {
        "$type": "MoleMole.Config.ConfigBlackScreenAction",
        "type": "BLACK_SCREEN",
        "actionId": 232,
        "blackScreenType": "KEEP_BLACK",
        "durationToBlack": 0.5,
        "durationKeepBlack": 1.0,
        "durationFromBlack": 0.5,
        "inteePos": "",
        "textMapID": "",
        "useTextFade": true
      },
      {
        "$type": "MoleMole.Config.ConfigCameraFocusNewInterAction",
        "type": "CAMERA_FOCUS_NEW",
        "duration": 0.10000000149011612,
        "actionId": 231,
        "useExtendedFocus": true,
        "focusExtendedSetting": {
          "radius": 3.119999885559082,
          "duration": 1.0,
          "refPosData": {
            "type": "TARGET_NPC",
            "posOffset": {
              "y": 1.062999963760376
            },
            "npcAlias": "1044"
          },
          "tarPosData": {
            "type": "TARGET_NPC",
            "posOffset": {
              "y": 1.0119999647140503
            },
            "npcAlias": "13019"
          }
        }
      },
      {
        "$type": "FABLGECDBCH",
        "type": "BODY_LANG",
        "aliasList": [
          "1005"
        ],
        "actionId": 150,
        "isContinue": true,
        "forceDoFreeStyle": true,
        "canDoRepeatFreeStyle": false,
        "cantBackToIdleWhenSitLoop": true,
        "eventPatternSuiteKey": "",
        "FOHHKFAIAAJ": ""
      },
      {
        "$type": "CPJKOIHIPBE",
        "type": "EMO_SYNC",
        "aliasList": [
          "1044"
        ],
        "actionId": 222,
        "dataPath": "",
        "phonemePath": "Cs_Emo_Avatar_Common/Cs_Emo_Avatar_Normal01",
        "emotionPath": "Cs_Emo_Avatar_Common/Cs_Emo_Avatar_Default01",
        "mateDataPath": "",
        "matePhonemePath": "",
        "mateEmotionPath": "",
        "phonemePathHashList": [
          9445916536337636767,
          14128686126614747219,
          10779105391569104182,
          11659242061757756269
        ],
        "emotionPathHashList": [
          17551147554270584215,
          11567349927864383394,
          11535483659151300012,
          3124390413002392171
        ],
        "FMDPBECPELH": "",
        "ADKBLPOKGIK": ""
      },
      {
        "$type": "LLGANGLOEEO",
        "type": "STEER_TO",
        "delayTime": 0.10000000149011612,
        "duration": 1.0,
        "aliasList": [
          "13019"
        ],
        "actionId": 128,
        "steerType": "TO_TARGET",
        "steerDir": {
          "x": -2187.55908203125,
          "y": 200.44500732421875,
          "z": -3481.743896484375
        },
        "useSteerAnim": true,
        "interruptFreestyle": true,
        "forceSteer": true,
        "targetNpcAlias": "1044",
        "ignoreY": true,
        "fixInterNull": true,
        "OAFJBHJHLJG": ""
      },
      {
        "$type": "LLGANGLOEEO",
        "type": "STEER_TO",
        "delayTime": 0.30000001192092896,
        "duration": 1.0,
        "aliasList": [
          "1044"
        ],
        "actionId": 127,
        "steerType": "TO_TARGET",
        "steerDir": {
          "x": -2187.55908203125,
          "y": 200.44500732421875,
          "z": -3481.743896484375
        },
        "useSteerAnim": true,
        "interruptFreestyle": true,
        "forceSteer": true,
        "targetNpcAlias": "13019",
        "ignoreY": true,
        "fixInterNull": true,
        "OAFJBHJHLJG": ""
      },
      {
        "$type": "MoleMole.Config.ConfigTeleportToAction",
        "type": "TELEPORT_TO",
        "delayTime": 0.5,
        "aliasList": [
          "Avatar"
        ],
        "actionId": 236,
        "position": {
          "x": -2188.760009765625,
          "y": 200.4149932861328,
          "z": -3479.760009765625
        },
        "forward": {
          "x": 0.9509999752044678,
          "y": -0.009999999776482582,
          "z": -0.6970000267028809
        },
        "openLongDisTeleport": true,
        "_posBindMovingTargetKey": "",
        "_forwardBindMovingTargetKey": ""
      },
      {
        "$type": "MoleMole.Config.ConfigTeleportToAction",
        "type": "TELEPORT_TO",
        "delayTime": 0.5,
        "aliasList": [
          "1005"
        ],
        "actionId": 237,
        "position": {
          "x": -2188.992919921875,
          "y": 200.43099975585938,
          "z": -3480.43994140625
        },
        "forward": {
          "x": 0.8840000033378601,
          "z": -0.46700000762939453
        },
        "openLongDisTeleport": true,
        "_posBindMovingTargetKey": "",
        "_forwardBindMovingTargetKey": ""
      }
    ],
    [
      {
        "$type": "MoleMole.Config.ConfigBlackScreenAction",
        "type": "BLACK_SCREEN",
        "actionId": 233,
        "blackScreenType": "FROM_BLACK",
        "durationToBlack": 0.5,
        "durationKeepBlack": 1.0,
        "durationFromBlack": 0.5,
        "inteePos": "",
        "textMapID": "",
        "useTextFade": true
      },
      {
        "$type": "PKKMAMONGEO",
        "type": "DIALOG",
        "aliasList": [
          "13019"
        ],
        "actionId": 107,
        "dialogID": 727310701,
        "protectTime": 0.5
      },
      {
        "$type": "LJLMDHDCAMK",
        "type": "LOOK_AT",
        "aliasList": [
          "13019"
        ],
        "actionId": 148,
        "enableHead": true,
        "headTurnTime": 0.5,
        "targetNpcAlias": "1044",
        "openBackProtect": true,
        "targetNpcLookAtPoint": "",
        "OAFJBHJHLJG": ""
      },
      {
        "$type": "CPJKOIHIPBE",
        "type": "EMO_SYNC",
        "aliasList": [
          "13019"
        ],
        "actionId": 209,
        "dataPath": "Cs_Emo_Avatar_Simple_Common_Set/Cs_Emo_Avatar_Talk/Cs_Emo_WorldQuest/Cs_Emo_Daoqi_72730/Cs_Emo_727310701",
        "phonemePath": "",
        "emotionPath": "",
        "mateDataPath": "",
        "matePhonemePath": "",
        "mateEmotionPath": "",
        "dataPathHashList": [
          4418507716817905123,
          7168704231565786172,
          16451543469825558447,
          15289777084062468589
        ],
        "FMDPBECPELH": "",
        "ADKBLPOKGIK": ""
      },
      {
        "$type": "FABLGECDBCH",
        "type": "BODY_LANG",
        "delayTime": 1.621999979019165,
        "aliasList": [
          "13019"
        ],
        "actionId": 132,
        "bodyLangParam": 4030,
        "forceDoFreeStyle": true,
        "canDoRepeatFreeStyle": false,
        "cantBackToIdleWhenSitLoop": true,
        "eventPatternSuiteKey": "",
        "FOHHKFAIAAJ": ""
      },
      {
        "$type": "FABLGECDBCH",
        "type": "BODY_LANG",
        "delayTime": 4.61299991607666,
        "aliasList": [
          "13019"
        ],
        "actionId": 133,
        "bodyLangParam": 1130,
        "forceDoFreeStyle": true,
        "canDoRepeatFreeStyle": false,
        "cantBackToIdleWhenSitLoop": true,
        "eventPatternSuiteKey": "",
        "FOHHKFAIAAJ": ""
      }
    ],
    [
      {
        "$type": "PKKMAMONGEO",
        "type": "DIALOG",
        "aliasList": [
          "13019"
        ],
        "actionId": 109,
        "dialogID": 727310702,
        "protectTime": 0.5
      },
      {
        "$type": "FABLGECDBCH",
        "type": "BODY_LANG",
        "aliasList": [
          "13019"
        ],
        "actionId": 134,
        "isContinue": true,
        "forceDoFreeStyle": true,
        "canDoRepeatFreeStyle": false,
        "cantBackToIdleWhenSitLoop": true,
        "eventPatternSuiteKey": "",
        "FOHHKFAIAAJ": ""
      },
      {
        "$type": "CPJKOIHIPBE",
        "type": "EMO_SYNC",
        "aliasList": [
          "13019"
        ],
        "actionId": 210,
        "dataPath": "Cs_Emo_Avatar_Simple_Common_Set/Cs_Emo_Avatar_Talk/Cs_Emo_WorldQuest/Cs_Emo_Daoqi_72730/Cs_Emo_727310702",
        "phonemePath": "",
        "emotionPath": "",
        "mateDataPath": "",
        "matePhonemePath": "",
        "mateEmotionPath": "",
        "dataPathHashList": [
          16727802657346852327,
          11937968317097087832,
          8678815719704746336,
          9093905667633297967
        ],
        "FMDPBECPELH": "",
        "ADKBLPOKGIK": ""
      },
      {
        "$type": "FABLGECDBCH",
        "type": "BODY_LANG",
        "delayTime": 2.7060000896453857,
        "aliasList": [
          "13019"
        ],
        "actionId": 135,
        "bodyLangParam": 1171,
        "forceDoFreeStyle": true,
        "canDoRepeatFreeStyle": false,
        "cantBackToIdleWhenSitLoop": true,
        "eventPatternSuiteKey": "",
        "FOHHKFAIAAJ": ""
      }
    ],
    [
      {
        "$type": "PKKMAMONGEO",
        "type": "DIALOG",
        "aliasList": [
          "13019"
        ],
        "actionId": 111,
        "dialogID": 727310703,
        "protectTime": 0.5
      },
      {
        "$type": "FABLGECDBCH",
        "type": "BODY_LANG",
        "aliasList": [
          "13019"
        ],
        "actionId": 136,
        "bodyLangParam": 1230,
        "forceDoFreeStyle": true,
        "canDoRepeatFreeStyle": false,
        "cantBackToIdleWhenSitLoop": true,
        "eventPatternSuiteKey": "",
        "FOHHKFAIAAJ": ""
      },
      {
        "$type": "CPJKOIHIPBE",
        "type": "EMO_SYNC",
        "aliasList": [
          "13019"
        ],
        "actionId": 211,
        "dataPath": "Cs_Emo_Avatar_Simple_Common_Set/Cs_Emo_Avatar_Talk/Cs_Emo_WorldQuest/Cs_Emo_Daoqi_72730/Cs_Emo_727310703",
        "phonemePath": "",
        "emotionPath": "",
        "mateDataPath": "",
        "matePhonemePath": "",
        "mateEmotionPath": "",
        "dataPathHashList": [
          4078985244981087124,
          1045706077080959679,
          10707060585035976072,
          3216986174249155954
        ],
        "FMDPBECPELH": "",
        "ADKBLPOKGIK": ""
      }
    ],
    [
      {
        "$type": "LJLMDHDCAMK",
        "type": "LOOK_AT",
        "aliasList": [
          "Avatar"
        ],
        "actionId": 153,
        "enableHead": true,
        "headTurnTime": 0.5,
        "targetNpcAlias": "1044",
        "openBackProtect": true,
        "targetNpcLookAtPoint": "",
        "OAFJBHJHLJG": ""
      },
      {
        "$type": "LJLMDHDCAMK",
        "type": "LOOK_AT",
        "aliasList": [
          "1005"
        ],
        "actionId": 152,
        "enableHead": true,
        "headTurnTime": 0.5,
        "targetNpcAlias": "1044",
        "openBackProtect": true,
        "targetNpcLookAtPoint": "",
        "OAFJBHJHLJG": ""
      },
      {
        "$type": "CPJKOIHIPBE",
        "type": "EMO_SYNC",
        "aliasList": [
          "13019"
        ],
        "actionId": 220,
        "dataPath": "",
        "phonemePath": "Cs_Emo_NPC_Common/Cs_Emo_NPC_Normal01",
        "emotionPath": "Cs_Emo_NPC_Common/Cs_Emo_NPC_Angry02",
        "mateDataPath": "",
        "matePhonemePath": "",
        "mateEmotionPath": "",
        "phonemePathHashList": [
          12803840960998583578,
          3437050431160283015,
          6548526936325855136,
          1274732080047098512
        ],
        "emotionPathHashList": [
          17424158304308273489,
          7432893190496723502,
          9624311454472802,
          6439573939338459323
        ],
        "FMDPBECPELH": "",
        "ADKBLPOKGIK": ""
      },
      {
        "$type": "PKKMAMONGEO",
        "type": "DIALOG",
        "aliasList": [
          "1044"
        ],
        "actionId": 113,
        "dialogID": 727310704,
        "protectTime": 0.5
      },
      {
        "$type": "FABLGECDBCH",
        "type": "BODY_LANG",
        "aliasList": [
          "1044"
        ],
        "actionId": 137,
        "bodyLangParam": 1060,
        "forceDoFreeStyle": true,
        "canDoRepeatFreeStyle": false,
        "cantBackToIdleWhenSitLoop": true,
        "eventPatternSuiteKey": "",
        "FOHHKFAIAAJ": ""
      },
      {
        "$type": "CPJKOIHIPBE",
        "type": "EMO_SYNC",
        "aliasList": [
          "1044"
        ],
        "actionId": 212,
        "dataPath": "Cs_Emo_Avatar_Simple_Common_Set/Cs_Emo_Avatar_Talk/Cs_Emo_WorldQuest/Cs_Emo_Daoqi_72730/Cs_Emo_727310704",
        "phonemePath": "",
        "emotionPath": "",
        "mateDataPath": "",
        "matePhonemePath": "",
        "mateEmotionPath": "",
        "dataPathHashList": [
          16886004943086400156,
          548605891613901985,
          11317162745472642808,
          9944332640756631383
        ],
        "FMDPBECPELH": "",
        "ADKBLPOKGIK": ""
      }
    ],
    [
      {
        "$type": "PKKMAMONGEO",
        "type": "DIALOG",
        "aliasList": [
          "1044"
        ],
        "actionId": 115,
        "dialogID": 727310705,
        "protectTime": 0.5
      },
      {
        "$type": "FABLGECDBCH",
        "type": "BODY_LANG",
        "aliasList": [
          "1044"
        ],
        "actionId": 138,
        "isContinue": true,
        "forceDoFreeStyle": true,
        "canDoRepeatFreeStyle": false,
        "cantBackToIdleWhenSitLoop": true,
        "eventPatternSuiteKey": "",
        "FOHHKFAIAAJ": ""
      },
      {
        "$type": "CPJKOIHIPBE",
        "type": "EMO_SYNC",
        "aliasList": [
          "1044"
        ],
        "actionId": 213,
        "dataPath": "Cs_Emo_Avatar_Simple_Common_Set/Cs_Emo_Avatar_Talk/Cs_Emo_WorldQuest/Cs_Emo_Daoqi_72730/Cs_Emo_727310705",
        "phonemePath": "",
        "emotionPath": "",
        "mateDataPath": "",
        "matePhonemePath": "",
        "mateEmotionPath": "",
        "dataPathHashList": [
          15897603807229013320,
          7704163583805291268,
          8892846892231013968,
          7089496985093638395
        ],
        "FMDPBECPELH": "",
        "ADKBLPOKGIK": ""
      },
      {
        "$type": "FABLGECDBCH",
        "type": "BODY_LANG",
        "delayTime": 1.0889999866485596,
        "aliasList": [
          "1044"
        ],
        "actionId": 139,
        "bodyLangParam": 1190,
        "forceDoFreeStyle": true,
        "canDoRepeatFreeStyle": false,
        "cantBackToIdleWhenSitLoop": true,
        "eventPatternSuiteKey": "",
        "FOHHKFAIAAJ": ""
      },
      {
        "$type": "LJLMDHDCAMK",
        "type": "LOOK_AT",
        "delayTime": 1.0889999866485596,
        "aliasList": [
          "1044"
        ],
        "actionId": 139,
        "headTurnTime": 0.5,
        "targetNpcAlias": "",
        "openBackProtect": true,
        "targetNpcLookAtPoint": "",
        "OAFJBHJHLJG": ""
      },
      {
        "$type": "EMEHNEMOMMM",
        "type": "LOOK_AT_EYECTRL",
        "delayTime": 1.1019999980926514,
        "aliasList": [
          "1044"
        ],
        "actionId": 223,
        "useTargetPos": false,
        "eyeRotateVecLeft": {
          "z": 3.0
        },
        "eyeRotateVecRight": {
          "z": 3.0
        },
        "turnTime": 0.20000000298023224,
        "targetNpcAlias": "",
        "targetPoint": "Face"
      },
      {
        "$type": "LJLMDHDCAMK",
        "type": "LOOK_AT",
        "delayTime": 4.394999980926514,
        "aliasList": [
          "1044"
        ],
        "actionId": 142,
        "enableHead": true,
        "headTurnTime": 0.5,
        "targetNpcAlias": "13019",
        "openBackProtect": true,
        "targetNpcLookAtPoint": "",
        "OAFJBHJHLJG": ""
      },
      {
        "$type": "EMEHNEMOMMM",
        "type": "LOOK_AT_EYECTRL",
        "delayTime": 4.440000057220459,
        "aliasList": [
          "1044"
        ],
        "actionId": 224,
        "useTargetPos": false,
        "turnTime": 0.20000000298023224,
        "targetNpcAlias": "",
        "targetPoint": "Face"
      },
      {
        "$type": "FABLGECDBCH",
        "type": "BODY_LANG",
        "delayTime": 4.830999851226807,
        "aliasList": [
          "1044"
        ],
        "actionId": 141,
        "isContinue": true,
        "forceDoFreeStyle": true,
        "canDoRepeatFreeStyle": false,
        "cantBackToIdleWhenSitLoop": true,
        "eventPatternSuiteKey": "",
        "FOHHKFAIAAJ": ""
      }
    ],
    [
      {
        "$type": "PKKMAMONGEO",
        "type": "DIALOG",
        "aliasList": [
          "1044"
        ],
        "actionId": 117,
        "dialogID": 727310706,
        "protectTime": 0.5
      },
      {
        "$type": "FABLGECDBCH",
        "type": "BODY_LANG",
        "aliasList": [
          "1044"
        ],
        "actionId": 144,
        "isContinue": true,
        "forceDoFreeStyle": true,
        "canDoRepeatFreeStyle": false,
        "cantBackToIdleWhenSitLoop": true,
        "eventPatternSuiteKey": "",
        "FOHHKFAIAAJ": ""
      },
      {
        "$type": "LJLMDHDCAMK",
        "type": "LOOK_AT",
        "aliasList": [
          "1044"
        ],
        "actionId": 147,
        "enableHead": true,
        "headTurnTime": 0.5,
        "targetNpcAlias": "13019",
        "openBackProtect": true,
        "targetNpcLookAtPoint": "",
        "OAFJBHJHLJG": ""
      },
      {
        "$type": "CPJKOIHIPBE",
        "type": "EMO_SYNC",
        "aliasList": [
          "1044"
        ],
        "actionId": 214,
        "dataPath": "Cs_Emo_Avatar_Simple_Common_Set/Cs_Emo_Avatar_Talk/Cs_Emo_WorldQuest/Cs_Emo_Daoqi_72730/Cs_Emo_727310706",
        "phonemePath": "",
        "emotionPath": "",
        "mateDataPath": "",
        "matePhonemePath": "",
        "mateEmotionPath": "",
        "dataPathHashList": [
          18435650746869606839,
          6508380740955402225,
          11621143873866800471,
          1225689439795423067
        ],
        "FMDPBECPELH": "",
        "ADKBLPOKGIK": ""
      },
      {
        "$type": "EMEHNEMOMMM",
        "type": "LOOK_AT_EYECTRL",
        "aliasList": [
          "1044"
        ],
        "actionId": 225,
        "useTargetPos": false,
        "turnTime": 0.20000000298023224,
        "targetNpcAlias": "",
        "targetPoint": "Face"
      },
      {
        "$type": "FABLGECDBCH",
        "type": "BODY_LANG",
        "delayTime": 1.5390000343322754,
        "aliasList": [
          "1044"
        ],
        "actionId": 145,
        "bodyLangParam": 1172,
        "forceDoFreeStyle": true,
        "canDoRepeatFreeStyle": false,
        "cantBackToIdleWhenSitLoop": true,
        "eventPatternSuiteKey": "",
        "FOHHKFAIAAJ": ""
      },
      {
        "$type": "FABLGECDBCH",
        "type": "BODY_LANG",
        "delayTime": 5.784999847412109,
        "aliasList": [
          "1044"
        ],
        "actionId": 146,
        "bodyLangParam": 4031,
        "forceDoFreeStyle": true,
        "canDoRepeatFreeStyle": false,
        "cantBackToIdleWhenSitLoop": true,
        "eventPatternSuiteKey": "",
        "FOHHKFAIAAJ": ""
      }
    ],
    [
      {
        "$type": "PKKMAMONGEO",
        "type": "DIALOG",
        "aliasList": [
          "1005"
        ],
        "actionId": 119,
        "dialogID": 727310707,
        "protectTime": 1.5
      },
      {
        "$type": "LJLMDHDCAMK",
        "type": "LOOK_AT",
        "aliasList": [
          "1005"
        ],
        "actionId": 155,
        "enableHead": true,
        "targetPosition": {
          "x": -2197.423095703125,
          "y": 201.66400146484375,
          "z": -3476.69189453125
        },
        "headTurnTime": 0.5,
        "targetNpcAlias": "Avatar",
        "targetNpcRotateVecPlus": {
          "y": -10.0
        },
        "openBackProtect": true,
        "targetNpcLookAtPoint": "",
        "OAFJBHJHLJG": ""
      },
      {
        "$type": "CPJKOIHIPBE",
        "type": "EMO_SYNC",
        "aliasList": [
          "1005"
        ],
        "actionId": 215,
        "dataPath": "Cs_Emo_Avatar_Simple_Common_Set/Cs_Emo_Avatar_Talk/Cs_Emo_WorldQuest/Cs_Emo_Daoqi_72730/Cs_Emo_727310707",
        "phonemePath": "",
        "emotionPath": "",
        "mateDataPath": "",
        "matePhonemePath": "",
        "mateEmotionPath": "",
        "dataPathHashList": [
          10402571685555340820,
          16161967918796141895,
          9133380809571196411,
          3146774448639885974
        ],
        "FMDPBECPELH": "",
        "ADKBLPOKGIK": ""
      },
      {
        "$type": "CPJKOIHIPBE",
        "type": "EMO_SYNC",
        "aliasList": [
          "1044"
        ],
        "actionId": 226,
        "dataPath": "",
        "phonemePath": "Cs_Emo_Avatar_Common/Cs_Emo_Avatar_Smile01",
        "emotionPath": "Cs_Emo_Avatar_Common/Cs_Emo_Avatar_Default01",
        "mateDataPath": "",
        "matePhonemePath": "",
        "mateEmotionPath": "",
        "phonemePathHashList": [
          10690861126541730163,
          10307265193832958374,
          9401534900849971975,
          18440618347769519338
        ],
        "emotionPathHashList": [
          17551147554270584215,
          11567349927864383394,
          11535483659151300012,
          3124390413002392171
        ],
        "FMDPBECPELH": "",
        "ADKBLPOKGIK": ""
      },
      {
        "$type": "LLGANGLOEEO",
        "type": "STEER_TO",
        "delayTime": 0.10000000149011612,
        "duration": 1.0,
        "aliasList": [
          "1005"
        ],
        "actionId": 230,
        "steerType": "TO_TARGET",
        "steerDir": {
          "x": -2197.069091796875,
          "y": 200.3730010986328,
          "z": -3477.238037109375
        },
        "useSteerAnim": true,
        "interruptFreestyle": true,
        "forceSteer": true,
        "targetNpcAlias": "Avatar",
        "ignoreY": true,
        "fixInterNull": true,
        "OAFJBHJHLJG": ""
      },
      {
        "$type": "LJLMDHDCAMK",
        "type": "LOOK_AT",
        "delayTime": 0.2939999997615814,
        "aliasList": [
          "Avatar"
        ],
        "actionId": 160,
        "enableHead": true,
        "headTurnTime": 0.5,
        "targetNpcAlias": "1005",
        "targetNpcRotateVecPlus": {
          "y": -15.0
        },
        "openBackProtect": true,
        "targetNpcLookAtPoint": "",
        "OAFJBHJHLJG": ""
      },
      {
        "$type": "LLGANGLOEEO",
        "type": "STEER_TO",
        "delayTime": 0.49399998784065247,
        "duration": 1.0,
        "aliasList": [
          "Avatar"
        ],
        "actionId": 229,
        "steerType": "TO_TARGET",
        "steerDir": {
          "x": -2196.493896484375,
          "y": 200.36199951171875,
          "z": -3477.032958984375
        },
        "useSteerAnim": true,
        "interruptFreestyle": true,
        "forceSteer": true,
        "targetNpcAlias": "1005",
        "ignoreY": true,
        "fixInterNull": true,
        "OAFJBHJHLJG": ""
      },
      {
        "$type": "FABLGECDBCH",
        "type": "BODY_LANG",
        "delayTime": 1.6019999980926514,
        "aliasList": [
          "1005"
        ],
        "actionId": 158,
        "bodyLangParam": 1260,
        "forceDoFreeStyle": true,
        "canDoRepeatFreeStyle": false,
        "cantBackToIdleWhenSitLoop": true,
        "eventPatternSuiteKey": "",
        "FOHHKFAIAAJ": ""
      },
      {
        "$type": "FABLGECDBCH",
        "type": "BODY_LANG",
        "delayTime": 3.993000030517578,
        "aliasList": [
          "1005"
        ],
        "actionId": 217,
        "bodyLangParam": 1170,
        "forceDoFreeStyle": true,
        "canDoRepeatFreeStyle": false,
        "cantBackToIdleWhenSitLoop": true,
        "eventPatternSuiteKey": "",
        "FOHHKFAIAAJ": ""
      },
      {
        "$type": "FABLGECDBCH",
        "type": "BODY_LANG",
        "delayTime": 5.567999839782715,
        "aliasList": [
          "1005"
        ],
        "actionId": 218,
        "isContinue": true,
        "forceDoFreeStyle": true,
        "canDoRepeatFreeStyle": false,
        "cantBackToIdleWhenSitLoop": true,
        "eventPatternSuiteKey": "",
        "FOHHKFAIAAJ": ""
      },
      {
        "$type": "FABLGECDBCH",
        "type": "BODY_LANG",
        "delayTime": 6.2729997634887695,
        "aliasList": [
          "1005"
        ],
        "actionId": 159,
        "bodyLangParam": 4030,
        "forceDoFreeStyle": true,
        "canDoRepeatFreeStyle": false,
        "cantBackToIdleWhenSitLoop": true,
        "eventPatternSuiteKey": "",
        "FOHHKFAIAAJ": ""
      }
    ],
    [
      {
        "$type": "MoleMole.Config.ConfigTimeProtectAction",
        "type": "TIME_PROTECT",
        "duration": 0.10000000149011612,
        "actionId": 105
      },
      {
        "$type": "LJLMDHDCAMK",
        "type": "LOOK_AT",
        "aliasList": [
          "1005"
        ],
        "actionId": 198,
        "headTurnTime": 0.5,
        "targetNpcAlias": "",
        "openBackProtect": true,
        "targetNpcLookAtPoint": "",
        "OAFJBHJHLJG": ""
      },
      {
        "$type": "FABLGECDBCH",
        "type": "BODY_LANG",
        "aliasList": [
          "1005"
        ],
        "actionId": 199,
        "isContinue": true,
        "forceDoFreeStyle": true,
        "canDoRepeatFreeStyle": false,
        "cantBackToIdleWhenSitLoop": true,
        "eventPatternSuiteKey": "",
        "FOHHKFAIAAJ": ""
      },
      {
        "$type": "CPJKOIHIPBE",
        "type": "EMO_SYNC",
        "aliasList": [
          "1005"
        ],
        "actionId": 227,
        "dataPath": "",
        "phonemePath": "Cs_Emo_Pet_Common/Cs_Emo_Paimon_None",
        "emotionPath": "Cs_Emo_Pet_Common/Cs_Emo_Paimon_Normal01",
        "mateDataPath": "",
        "matePhonemePath": "",
        "mateEmotionPath": "",
        "phonemePathHashList": [
          1796869206626684908,
          2049648015653630001,
          14015965774222061559,
          873259039409222856
        ],
        "emotionPathHashList": [
          312453201720762420,
          9562322946389574798,
          18422542724361145117,
          17949024460815132449
        ],
        "FMDPBECPELH": "",
        "ADKBLPOKGIK": ""
      },
      {
        "$type": "LLGANGLOEEO",
        "type": "STEER_TO",
        "duration": 1.0,
        "aliasList": [
          "13019"
        ],
        "actionId": 194,
        "steerType": "RETURN",
        "steerDir": {
          "x": -2197.069091796875,
          "y": 200.3730010986328,
          "z": -3477.238037109375
        },
        "useSteerAnim": true,
        "interruptFreestyle": true,
        "forceSteer": true,
        "targetNpcAlias": "",
        "ignoreY": true,
        "fixInterNull": true,
        "OAFJBHJHLJG": ""
      },
      {
        "$type": "LJLMDHDCAMK",
        "type": "LOOK_AT",
        "aliasList": [
          "13019"
        ],
        "actionId": 195,
        "headTurnTime": 0.5,
        "targetNpcAlias": "",
        "openBackProtect": true,
        "targetNpcLookAtPoint": "",
        "OAFJBHJHLJG": ""
      },
      {
        "$type": "FABLGECDBCH",
        "type": "BODY_LANG",
        "aliasList": [
          "13019"
        ],
        "actionId": 200,
        "isContinue": true,
        "forceDoFreeStyle": true,
        "canDoRepeatFreeStyle": false,
        "cantBackToIdleWhenSitLoop": true,
        "eventPatternSuiteKey": "",
        "FOHHKFAIAAJ": ""
      },
      {
        "$type": "CPJKOIHIPBE",
        "type": "EMO_SYNC",
        "aliasList": [
          "13019"
        ],
        "actionId": 216,
        "dataPath": "",
        "phonemePath": "Cs_Emo_NPC_Common/Cs_Emo_NPC_Normal01",
        "emotionPath": "Cs_Emo_NPC_Common/Cs_Emo_NPC_Normal01_B",
        "mateDataPath": "",
        "matePhonemePath": "",
        "mateEmotionPath": "",
        "phonemePathHashList": [
          12803840960998583578,
          3437050431160283015,
          6548526936325855136,
          1274732080047098512
        ],
        "emotionPathHashList": [
          15191155715402440098,
          420038106395935518,
          2651432695756251320,
          4209314551981667660
        ],
        "FMDPBECPELH": "",
        "ADKBLPOKGIK": ""
      },
      {
        "$type": "LLGANGLOEEO",
        "type": "STEER_TO",
        "duration": 1.0,
        "aliasList": [
          "1044"
        ],
        "actionId": 191,
        "steerType": "RETURN",
        "steerDir": {
          "x": -2197.069091796875,
          "y": 200.3730010986328,
          "z": -3477.238037109375
        },
        "useSteerAnim": true,
        "interruptFreestyle": true,
        "forceSteer": true,
        "targetNpcAlias": "",
        "ignoreY": true,
        "fixInterNull": true,
        "OAFJBHJHLJG": ""
      },
      {
        "$type": "LJLMDHDCAMK",
        "type": "LOOK_AT",
        "aliasList": [
          "1044"
        ],
        "actionId": 193,
        "headTurnTime": 0.5,
        "targetNpcAlias": "",
        "openBackProtect": true,
        "targetNpcLookAtPoint": "",
        "OAFJBHJHLJG": ""
      },
      {
        "$type": "FABLGECDBCH",
        "type": "BODY_LANG",
        "aliasList": [
          "1044"
        ],
        "actionId": 201,
        "isContinue": true,
        "forceDoFreeStyle": true,
        "canDoRepeatFreeStyle": false,
        "cantBackToIdleWhenSitLoop": true,
        "eventPatternSuiteKey": "",
        "FOHHKFAIAAJ": ""
      },
      {
        "$type": "CPJKOIHIPBE",
        "type": "EMO_SYNC",
        "aliasList": [
          "1044"
        ],
        "actionId": 221,
        "dataPath": "",
        "phonemePath": "Cs_Emo_Avatar_Common/Cs_Emo_Avatar_Normal01",
        "emotionPath": "Cs_Emo_Avatar_Common/Cs_Emo_Avatar_Default01",
        "mateDataPath": "",
        "matePhonemePath": "",
        "mateEmotionPath": "",
        "phonemePathHashList": [
          9445916536337636767,
          14128686126614747219,
          10779105391569104182,
          11659242061757756269
        ],
        "emotionPathHashList": [
          17551147554270584215,
          11567349927864383394,
          11535483659151300012,
          3124390413002392171
        ],
        "FMDPBECPELH": "",
        "ADKBLPOKGIK": ""
      }
    ]
  ],
  "groupId": [
    {
      "grpId": 3586051225,
      "nextGrpId": 3586051226
    },
    {
      "index": 1,
      "grpId": 3586051226,
      "nextGrpId": 3586051227
    },
    {
      "index": 2,
      "grpId": 3586051227,
      "nextGrpId": 3586051228
    },
    {
      "index": 3,
      "grpId": 3586051228,
      "nextGrpId": 3586051229
    },
    {
      "index": 4,
      "grpId": 3586051229,
      "nextGrpId": 3586051230
    },
    {
      "index": 5,
      "grpId": 3586051230,
      "nextGrpId": 3586051231
    },
    {
      "index": 6,
      "grpId": 3586051231,
      "nextGrpId": 3586051232
    },
    {
      "index": 7,
      "grpId": 3586051232,
      "nextGrpId": 3586051233
    },
    {
      "index": 8,
      "grpId": 3586051233,
      "nextGrpId": 3793405623
    }
  ],
  "freeStyleDic": {
    "13019": [
      4030,
      1130,
      1171,
      1230
    ],
    "1044": [
      1060,
      1190,
      1172,
      4031
    ]
  }
}