{
  "freeStyleStateMap": {
    "10100": [],
    "10101": [],
    "10201": [],
    "10301": [],
    "10401": [],
    "10501": [],
    "10601": [],
    "10701": [],
    "10801": [],
    "1231": [
      "Ani_Avatar_NPC_AkimboHand01BS_0",
      "Ani_Avatar_NPC_AkimboHand01BS_Sync_0",
      "Ani_Avatar_NPC_AkimboHand01Loop_0",
      "Ani_Avatar_NPC_AkimboHand01Loop_Sync_0",
      "Ani_Avatar_NPC_AkimboHand01AS_0",
      "Ani_Avatar_NPC_AkimboHand01AS_Sync_0",
      "Ani_Avatar_NPC_Akimbo01Loop_0",
      "Ani_Avatar_NPC_Akimbo01Loop_Sync_0",
      "Ani_Avatar_NPC_Akimbo01AS_0",
      "Ani_Avatar_NPC_Akimbo01AS_Sync_0"
    ],
    "1121": [
      "Ani_Avatar_NPC_HoldArmHand01BS_0",
      "Ani_Avatar_NPC_HoldArmHand01BS_Sync_0",
      "Ani_Avatar_NPC_HoldArmHand01Loop_0",
      "Ani_Avatar_NPC_HoldArmHand01Loop_Sync_0",
      "Ani_Avatar_NPC_HoldArmHand01AS_0",
      "Ani_Avatar_NPC_HoldArmHand01AS_Sync_0",
      "Ani_Avatar_NPC_HoldArm01Loop_0",
      "Ani_Avatar_NPC_HoldArm01Loop_Sync_0",
      "Ani_Avatar_NPC_HoldArm01AS_0",
      "Ani_Avatar_NPC_HoldArm01AS_Sync_0"
    ],
    "1191": [
      "Ani_Avatar_NPC_ThinkHand01BS_0",
      "Ani_Avatar_NPC_ThinkHand01BS_Sync_0",
      "Ani_Avatar_NPC_ThinkHand01Loop_0",
      "Ani_Avatar_NPC_ThinkHand01Loop_Sync_0",
      "Ani_Avatar_NPC_ThinkHand01AS_0",
      "Ani_Avatar_NPC_ThinkHand01AS_Sync_0",
      "Ani_Avatar_NPC_Think01Loop_0",
      "Ani_Avatar_NPC_Think01Loop_Sync_0",
      "Ani_Avatar_NPC_Think01AS_0",
      "Ani_Avatar_NPC_Think01AS_Sync_0"
    ],
    "1221": [
      "Ani_Avatar_NPC_AkimboHand02BS_0",
      "Ani_Avatar_NPC_AkimboHand02BS_Sync_0",
      "Ani_Avatar_NPC_AkimboHand02Loop_0",
      "Ani_Avatar_NPC_AkimboHand02Loop_Sync_0",
      "Ani_Avatar_NPC_AkimboHand02AS_0",
      "Ani_Avatar_NPC_AkimboHand02AS_Sync_0",
      "Ani_Avatar_NPC_Akimbo02Loop_0",
      "Ani_Avatar_NPC_Akimbo02Loop_Sync_0",
      "Ani_Avatar_NPC_Akimbo02AS_0",
      "Ani_Avatar_NPC_Akimbo02AS_Sync_0"
    ],
    "8040": [
      "Ani_Avatar_NPC_SitHoldArm01BS_0",
      "Ani_Avatar_NPC_SitHoldArm01BS_Sync_0",
      "Ani_Avatar_NPC_SitHoldArm01Loop_0",
      "Ani_Avatar_NPC_SitHoldArm01Loop_Sync_0",
      "Ani_Avatar_NPC_SitHoldArm01AS_0",
      "Ani_Avatar_NPC_SitHoldArm01AS_Sync_0"
    ],
    "8041": [
      "Ani_Avatar_NPC_SitHoldArmHand01BS_0",
      "Ani_Avatar_NPC_SitHoldArmHand01BS_Sync_0",
      "Ani_Avatar_NPC_SitHoldArmHand01Loop_0",
      "Ani_Avatar_NPC_SitHoldArmHand01Loop_Sync_0",
      "Ani_Avatar_NPC_SitHoldArmHand01AS_0",
      "Ani_Avatar_NPC_SitHoldArmHand01AS_Sync_0",
      "Ani_Avatar_NPC_SitHoldArm01Loop_0",
      "Ani_Avatar_NPC_SitHoldArm01Loop_Sync_0",
      "Ani_Avatar_NPC_SitHoldArm01AS_0",
      "Ani_Avatar_NPC_SitHoldArm01AS_Sync_0"
    ],
    "1230": [
      "Ani_Avatar_NPC_Akimbo01BS_0",
      "Ani_Avatar_NPC_Akimbo01BS_Sync_0",
      "Ani_Avatar_NPC_Akimbo01Loop_0",
      "Ani_Avatar_NPC_Akimbo01Loop_Sync_0",
      "Ani_Avatar_NPC_Akimbo01AS_0",
      "Ani_Avatar_NPC_Akimbo01AS_Sync_0"
    ],
    "1040": [
      "Ani_Avatar_NPC_Backrake01BS_0",
      "Ani_Avatar_NPC_Backrake01BS_Sync_0",
      "Ani_Avatar_NPC_Backrake01Loop_0",
      "Ani_Avatar_NPC_Backrake01Loop_Sync_0",
      "Ani_Avatar_NPC_Backrake01AS_0",
      "Ani_Avatar_NPC_Backrake01AS_Sync_0"
    ],
    "1050": [
      "Ani_Avatar_NPC_Confuse01BS_0",
      "Ani_Avatar_NPC_Confuse01BS_Sync_0",
      "Ani_Avatar_NPC_Confuse01Loop_0",
      "Ani_Avatar_NPC_Confuse01Loop_Sync_0",
      "Ani_Avatar_NPC_Confuse01AS_0",
      "Ani_Avatar_NPC_Confuse01AS_Sync_0"
    ],
    "1060": [
      "Ani_Avatar_NPC_Forerake01BS_0",
      "Ani_Avatar_NPC_Forerake01BS_Sync_0",
      "Ani_Avatar_NPC_Forerake01Loop_0",
      "Ani_Avatar_NPC_Forerake01Loop_Sync_0",
      "Ani_Avatar_NPC_Forerake01AS_0",
      "Ani_Avatar_NPC_Forerake01AS_Sync_0"
    ],
    "1070": [
      "Ani_Avatar_NPC_Afraid01BS_0",
      "Ani_Avatar_NPC_Afraid01BS_Sync_0",
      "Ani_Avatar_NPC_Afraid01Loop_0",
      "Ani_Avatar_NPC_Afraid01Loop_Sync_0",
      "Ani_Avatar_NPC_Afraid01AS_0",
      "Ani_Avatar_NPC_Afraid01AS_Sync_0"
    ],
    "1080": [
      "Ani_Avatar_NPC_Alert01BS_0",
      "Ani_Avatar_NPC_Alert01BS_Sync_0",
      "Ani_Avatar_NPC_Alert01Loop_0",
      "Ani_Avatar_NPC_Alert01Loop_Sync_0",
      "Ani_Avatar_NPC_Alert01AS_0",
      "Ani_Avatar_NPC_Alert01AS_Sync_0"
    ],
    "1090": [
      "Ani_Avatar_NPC_Shy01BS_0",
      "Ani_Avatar_NPC_Shy01BS_Sync_0",
      "Ani_Avatar_NPC_Shy01Loop_0",
      "Ani_Avatar_NPC_Shy01Loop_Sync_0",
      "Ani_Avatar_NPC_Shy01AS_0",
      "Ani_Avatar_NPC_Shy01AS_Sync_0"
    ],
    "1110": [
      "Ani_Avatar_NPC_Shrug01BS_0",
      "Ani_Avatar_NPC_Shrug01BS_Sync_0",
      "Ani_Avatar_NPC_Shrug01Loop_0",
      "Ani_Avatar_NPC_Shrug01Loop_Sync_0",
      "Ani_Avatar_NPC_Shrug01AS_0",
      "Ani_Avatar_NPC_Shrug01AS_Sync_0"
    ],
    "1120": [
      "Ani_Avatar_NPC_HoldArm01BS_0",
      "Ani_Avatar_NPC_HoldArm01BS_Sync_0",
      "Ani_Avatar_NPC_HoldArm01Loop_0",
      "Ani_Avatar_NPC_HoldArm01Loop_Sync_0",
      "Ani_Avatar_NPC_HoldArm01AS_0",
      "Ani_Avatar_NPC_HoldArm01AS_Sync_0"
    ],
    "1130": [
      "Ani_Avatar_NPC_StrikeChest01BS_0",
      "Ani_Avatar_NPC_StrikeChest01BS_Sync_0",
      "Ani_Avatar_NPC_StrikeChest01Loop_0",
      "Ani_Avatar_NPC_StrikeChest01Loop_Sync_0",
      "Ani_Avatar_NPC_StrikeChest01AS_0",
      "Ani_Avatar_NPC_StrikeChest01AS_Sync_0"
    ],
    "1150": [
      "Ani_Avatar_NPC_Refuse01_0",
      "Ani_Avatar_NPC_Refuse01_Sync_0"
    ],
    "1160": [
      "Ani_Avatar_NPC_Downcast01BS_0",
      "Ani_Avatar_NPC_Downcast01BS_Sync_0",
      "Ani_Avatar_NPC_Downcast01Loop_0",
      "Ani_Avatar_NPC_Downcast01Loop_Sync_0",
      "Ani_Avatar_NPC_Downcast01AS_0",
      "Ani_Avatar_NPC_Downcast01AS_Sync_0"
    ],
    "1170": [
      "Ani_Avatar_NPC_Chat01BS_0",
      "Ani_Avatar_NPC_Chat01BS_Sync_0",
      "Ani_Avatar_NPC_Chat01Loop_0",
      "Ani_Avatar_NPC_Chat01Loop_Sync_0",
      "Ani_Avatar_NPC_Chat01AS_0",
      "Ani_Avatar_NPC_Chat01AS_Sync_0"
    ],
    "1180": [
      "Ani_Avatar_NPC_Chat02BS_0",
      "Ani_Avatar_NPC_Chat02BS_Sync_0",
      "Ani_Avatar_NPC_Chat02Loop_0",
      "Ani_Avatar_NPC_Chat02Loop_Sync_0",
      "Ani_Avatar_NPC_Chat02AS_0",
      "Ani_Avatar_NPC_Chat02AS_Sync_0"
    ],
    "1190": [
      "Ani_Avatar_NPC_Think01BS_0",
      "Ani_Avatar_NPC_Think01BS_Sync_0",
      "Ani_Avatar_NPC_Think01Loop_0",
      "Ani_Avatar_NPC_Think01Loop_Sync_0",
      "Ani_Avatar_NPC_Think01AS_0",
      "Ani_Avatar_NPC_Think01AS_Sync_0"
    ],
    "9030": [],
    "9040": [],
    "1140": [
      "Ani_Avatar_NPC_PointR01BS_0",
      "Ani_Avatar_NPC_PointR01BS_Sync_0",
      "Ani_Avatar_NPC_PointR01Loop_0",
      "Ani_Avatar_NPC_PointR01Loop_Sync_0",
      "Ani_Avatar_NPC_PointR01AS_0",
      "Ani_Avatar_NPC_PointR01AS_Sync_0"
    ],
    "1200": [
      "Ani_Avatar_NPC_Greet01_0",
      "Ani_Avatar_NPC_Greet01_Sync_0"
    ],
    "1220": [
      "Ani_Avatar_NPC_Akimbo02BS_0",
      "Ani_Avatar_NPC_Akimbo02BS_Sync_0",
      "Ani_Avatar_NPC_Akimbo02Loop_0",
      "Ani_Avatar_NPC_Akimbo02Loop_Sync_0",
      "Ani_Avatar_NPC_Akimbo02AS_0",
      "Ani_Avatar_NPC_Akimbo02AS_Sync_0"
    ],
    "1240": [
      "Ani_Avatar_NPC_HoldHead01BS_0",
      "Ani_Avatar_NPC_HoldHead01BS_Sync_0",
      "Ani_Avatar_NPC_HoldHead01Loop_0",
      "Ani_Avatar_NPC_HoldHead01Loop_Sync_0",
      "Ani_Avatar_NPC_HoldHead01AS_0",
      "Ani_Avatar_NPC_HoldHead01AS_Sync_0"
    ],
    "1031": [
      "Ani_Avatar_NPC_PutHand01BS_0",
      "Ani_Avatar_NPC_PutHand01BS_Sync_0",
      "Ani_Avatar_NPC_PutHand01Loop_0",
      "Ani_Avatar_NPC_PutHand01Loop_Sync_0",
      "Ani_Avatar_NPC_PutHand01AS_0",
      "Ani_Avatar_NPC_PutHand01AS_Sync_0"
    ],
    "8010": [],
    "8020": [],
    "1141": [
      "Ani_Avatar_NPC_PointF01BS_0",
      "Ani_Avatar_NPC_PointF01BS_Sync_0",
      "Ani_Avatar_NPC_PointF01Loop_0",
      "Ani_Avatar_NPC_PointF01Loop_Sync_0",
      "Ani_Avatar_NPC_PointF01AS_0",
      "Ani_Avatar_NPC_PointF01AS_Sync_0"
    ],
    "1142": [
      "Ani_Avatar_NPC_PointL01BS_0",
      "Ani_Avatar_NPC_PointL01BS_Sync_0",
      "Ani_Avatar_NPC_PointL01Loop_0",
      "Ani_Avatar_NPC_PointL01Loop_Sync_0",
      "Ani_Avatar_NPC_PointL01AS_0",
      "Ani_Avatar_NPC_PointL01AS_Sync_0"
    ],
    "1171": [
      "Ani_Avatar_NPC_Talk01_0",
      "Ani_Avatar_NPC_Talk01_Sync_0"
    ],
    "1172": [
      "Ani_Avatar_NPC_Talk02_0",
      "Ani_Avatar_NPC_Talk02_Sync_0"
    ],
    "1173": [
      "Ani_Avatar_NPC_Talk03_0",
      "Ani_Avatar_NPC_Talk03_Sync_0"
    ],
    "1250": [
      "Ani_Avatar_NPC_Request01BS_0",
      "Ani_Avatar_NPC_Request01BS_Sync_0",
      "Ani_Avatar_NPC_Request01Loop_0",
      "Ani_Avatar_NPC_Request01Loop_Sync_0",
      "Ani_Avatar_NPC_Request01AS_0",
      "Ani_Avatar_NPC_Request01AS_Sync_0"
    ],
    "1260": [
      "Ani_Avatar_NPC_Clap01_0",
      "Ani_Avatar_NPC_Clap01_Sync_0"
    ],
    "1270": [
      "Ani_Avatar_NPC_Cheer01BS_0",
      "Ani_Avatar_NPC_Cheer01BS_Sync_0",
      "Ani_Avatar_NPC_Cheer01Loop_0",
      "Ani_Avatar_NPC_Cheer01Loop_Sync_0",
      "Ani_Avatar_NPC_Cheer01AS_0",
      "Ani_Avatar_NPC_Cheer01AS_Sync_0"
    ],
    "1280": [
      "Ani_Avatar_NPC_Investigate01BS_0",
      "Ani_Avatar_NPC_Investigate01BS_Sync_0",
      "Ani_Avatar_NPC_Investigate01Loop_0",
      "Ani_Avatar_NPC_Investigate01Loop_Sync_0",
      "Ani_Avatar_NPC_Investigate01AS_0",
      "Ani_Avatar_NPC_Investigate01AS_Sync_0"
    ],
    "1290": [
      "Ani_Avatar_NPC_Laugh01_0",
      "Ani_Avatar_NPC_Laugh01_Sync_0"
    ],
    "1300": [
      "Ani_Avatar_NPC_Encourage01_0",
      "Ani_Avatar_NPC_Encourage01_Sync_0"
    ],
    "1310": [
      "Ani_Avatar_NPC_Dusting01_0",
      "Ani_Avatar_NPC_Dusting01_Sync_0"
    ],
    "1342": [
      "Ani_Avatar_Channel01BS_0",
      "Ani_Avatar_Catalyst_Channel01BS_Sync_0",
      "Ani_Avatar_Channel01Loop_0",
      "Ani_Avatar_Catalyst_Channel01Loop_Sync_0",
      "Ani_Avatar_Channel01AS_0",
      "Ani_Avatar_Catalyst_Channel01AS_Sync_0"
    ],
    "1340": [
      "Ani_Avatar_Catalyst_Show_01_0",
      "Ani_Avatar_Catalyst_Show_01_Sync_0"
    ]
  },
  "stateAnimeMap": {
    "Ani_Avatar_NPC_Akimbo01BS_0": 9894750056315489379,
    "Ani_Avatar_NPC_Akimbo01BS_Sync_0": 12742456876567495022,
    "Ani_Avatar_NPC_Akimbo01Loop_0": 5683819947908215801,
    "Ani_Avatar_NPC_Akimbo01Loop_Sync_0": 16209796753027126934,
    "Ani_Avatar_NPC_Akimbo01AS_0": 11618350450731950779,
    "Ani_Avatar_NPC_Akimbo01AS_Sync_0": 17990813461301155748,
    "Ani_Avatar_NPC_Backrake01BS_0": 609115743736117145,
    "Ani_Avatar_NPC_Backrake01BS_Sync_0": 13280079781647377318,
    "Ani_Avatar_NPC_Backrake01Loop_0": 5426846433777750271,
    "Ani_Avatar_NPC_Backrake01Loop_Sync_0": 11771931002967639968,
    "Ani_Avatar_NPC_Backrake01AS_0": 7743781469006292763,
    "Ani_Avatar_NPC_Backrake01AS_Sync_0": 13601449086917285983,
    "Ani_Avatar_NPC_Confuse01BS_0": 6296092152066771720,
    "Ani_Avatar_NPC_Confuse01BS_Sync_0": 18054487189831138772,
    "Ani_Avatar_NPC_Confuse01Loop_0": 6261456716270600088,
    "Ani_Avatar_NPC_Confuse01Loop_Sync_0": 4393319638927733809,
    "Ani_Avatar_NPC_Confuse01AS_0": 12575342532991040453,
    "Ani_Avatar_NPC_Confuse01AS_Sync_0": 14627847484151966798,
    "Ani_Avatar_NPC_Forerake01BS_0": 12721161765159242120,
    "Ani_Avatar_NPC_Forerake01BS_Sync_0": 10708164245823709764,
    "Ani_Avatar_NPC_Forerake01Loop_0": 971543439301895627,
    "Ani_Avatar_NPC_Forerake01Loop_Sync_0": 4426173874972065910,
    "Ani_Avatar_NPC_Forerake01AS_0": 7956434380396307548,
    "Ani_Avatar_NPC_Forerake01AS_Sync_0": 15839527962820272256,
    "Ani_Avatar_NPC_Afraid01BS_0": 5720206767844326682,
    "Ani_Avatar_NPC_Afraid01BS_Sync_0": 13513907639271052849,
    "Ani_Avatar_NPC_Afraid01Loop_0": 13389689192828963643,
    "Ani_Avatar_NPC_Afraid01Loop_Sync_0": 17219003165759413564,
    "Ani_Avatar_NPC_Afraid01AS_0": 3015783125055661424,
    "Ani_Avatar_NPC_Afraid01AS_Sync_0": 9741432535629924582,
    "Ani_Avatar_NPC_Alert01BS_0": 1800160457350494415,
    "Ani_Avatar_NPC_Alert01BS_Sync_0": 10686063779356086960,
    "Ani_Avatar_NPC_Alert01Loop_0": 2081123329349907391,
    "Ani_Avatar_NPC_Alert01Loop_Sync_0": 10955388127713844038,
    "Ani_Avatar_NPC_Alert01AS_0": 9245718048703486296,
    "Ani_Avatar_NPC_Alert01AS_Sync_0": 8389622499501723806,
    "Ani_Avatar_NPC_Shy01BS_0": 4319967935625997481,
    "Ani_Avatar_NPC_Shy01BS_Sync_0": 15670789507838186420,
    "Ani_Avatar_NPC_Shy01Loop_0": 1435386237905721166,
    "Ani_Avatar_NPC_Shy01Loop_Sync_0": 13317897239654460423,
    "Ani_Avatar_NPC_Shy01AS_0": 6736230090706020194,
    "Ani_Avatar_NPC_Shy01AS_Sync_0": 17794922368201951457,
    "Ani_Avatar_NPC_Shrug01BS_0": 17243720745109519711,
    "Ani_Avatar_NPC_Shrug01BS_Sync_0": 16883348382769810774,
    "Ani_Avatar_NPC_Shrug01Loop_0": 6138891224574048523,
    "Ani_Avatar_NPC_Shrug01Loop_Sync_0": 16169725478619147489,
    "Ani_Avatar_NPC_Shrug01AS_0": 15204849751145300318,
    "Ani_Avatar_NPC_Shrug01AS_Sync_0": 1277152050915645221,
    "Ani_Avatar_NPC_HoldArm01BS_0": 18085020278304723914,
    "Ani_Avatar_NPC_HoldArm01BS_Sync_0": 1774100898045726033,
    "Ani_Avatar_NPC_HoldArm01Loop_0": 1074719989511044743,
    "Ani_Avatar_NPC_HoldArm01Loop_Sync_0": 10959992553919099925,
    "Ani_Avatar_NPC_HoldArm01AS_0": 10298249062520914514,
    "Ani_Avatar_NPC_HoldArm01AS_Sync_0": 13670341529375837006,
    "Ani_Avatar_NPC_StrikeChest01BS_0": 16605807345728825578,
    "Ani_Avatar_NPC_StrikeChest01BS_Sync_0": 12467578336502057594,
    "Ani_Avatar_NPC_StrikeChest01Loop_0": 16195389530045249612,
    "Ani_Avatar_NPC_StrikeChest01Loop_Sync_0": 2066247666189719095,
    "Ani_Avatar_NPC_StrikeChest01AS_0": 12155696169412457370,
    "Ani_Avatar_NPC_StrikeChest01AS_Sync_0": 15196507122955488533,
    "Ani_Avatar_NPC_Refuse01_0": 2434157818483042282,
    "Ani_Avatar_NPC_Refuse01_Sync_0": 13898607762956537584,
    "Ani_Avatar_NPC_Downcast01BS_0": 12744135146215054902,
    "Ani_Avatar_NPC_Downcast01BS_Sync_0": 4734169299878220746,
    "Ani_Avatar_NPC_Downcast01AS_0": 4499997577370896273,
    "Ani_Avatar_NPC_Downcast01AS_Sync_0": 4016924224158558487,
    "Ani_Avatar_NPC_Downcast01Loop_0": 14086191746441379148,
    "Ani_Avatar_NPC_Downcast01Loop_Sync_0": 4818172638912008907,
    "Ani_Avatar_NPC_Chat01BS_0": 8431756845444701669,
    "Ani_Avatar_NPC_Chat01BS_Sync_0": 1361411801798868578,
    "Ani_Avatar_NPC_Chat01Loop_0": 11348668363516587054,
    "Ani_Avatar_NPC_Chat01Loop_Sync_0": 11020975165283050720,
    "Ani_Avatar_NPC_Chat01AS_0": 15860999662234225863,
    "Ani_Avatar_NPC_Chat01AS_Sync_0": 1491895315478642838,
    "Ani_Avatar_NPC_Chat02BS_0": 13661433695689053449,
    "Ani_Avatar_NPC_Chat02BS_Sync_0": 4057263408358336657,
    "Ani_Avatar_NPC_Chat02AS_0": 2369988303129737207,
    "Ani_Avatar_NPC_Chat02AS_Sync_0": 15847199170326582068,
    "Ani_Avatar_NPC_Chat02Loop_0": 13815759820223268923,
    "Ani_Avatar_NPC_Chat02Loop_Sync_0": 10873221717002292099,
    "Ani_Avatar_NPC_Think01BS_0": 9418737744702202900,
    "Ani_Avatar_NPC_Think01BS_Sync_0": 6055548425945312263,
    "Ani_Avatar_NPC_Think01Loop_0": 4059775693643483551,
    "Ani_Avatar_NPC_Think01Loop_Sync_0": 62084761817670909,
    "Ani_Avatar_NPC_Think01AS_0": 17802477366539877838,
    "Ani_Avatar_NPC_Think01AS_Sync_0": 13760429101867278002,
    "Ani_Avatar_NPC_PointR01BS_0": 14235631168158615507,
    "Ani_Avatar_NPC_PointR01BS_Sync_0": 8299250039927271888,
    "Ani_Avatar_NPC_PointR01Loop_0": 13187615017626399666,
    "Ani_Avatar_NPC_PointR01Loop_Sync_0": 13583793151905312156,
    "Ani_Avatar_NPC_PointR01AS_0": 3558522160421276754,
    "Ani_Avatar_NPC_PointR01AS_Sync_0": 16964293869885697178,
    "Ani_Avatar_NPC_Greet01_0": 8751951871341705508,
    "Ani_Avatar_NPC_Greet01_Sync_0": 16979295316125968063,
    "Ani_Avatar_NPC_AkimboHand01BS_0": 8857541105481380627,
    "Ani_Avatar_NPC_AkimboHand01BS_Sync_0": 6742796093489581242,
    "Ani_Avatar_NPC_AkimboHand01Loop_0": 11551181726408833446,
    "Ani_Avatar_NPC_AkimboHand01Loop_Sync_0": 13631383589503133185,
    "Ani_Avatar_NPC_AkimboHand01AS_0": 9297521490164528782,
    "Ani_Avatar_NPC_AkimboHand01AS_Sync_0": 16974762618294972668,
    "Ani_Avatar_NPC_Akimbo02BS_0": 720986908675531374,
    "Ani_Avatar_NPC_Akimbo02BS_Sync_0": 15134204762473829711,
    "Ani_Avatar_NPC_Akimbo02Loop_0": 5705057098647269143,
    "Ani_Avatar_NPC_Akimbo02Loop_Sync_0": 14833999366503975378,
    "Ani_Avatar_NPC_Akimbo02AS_0": 5115640417781970884,
    "Ani_Avatar_NPC_Akimbo02AS_Sync_0": 14871228707471244606,
    "Ani_Avatar_NPC_HoldArmHand01BS_0": 3439466427485591233,
    "Ani_Avatar_NPC_HoldArmHand01BS_Sync_0": 8358058391675359497,
    "Ani_Avatar_NPC_HoldArmHand01Loop_0": 13585516037197730917,
    "Ani_Avatar_NPC_HoldArmHand01Loop_Sync_0": 14929426816870248888,
    "Ani_Avatar_NPC_HoldArmHand01AS_0": 17813699528866990893,
    "Ani_Avatar_NPC_HoldArmHand01AS_Sync_0": 2647304345706666951,
    "Ani_Avatar_NPC_ThinkHand01BS_0": 17414682328136920244,
    "Ani_Avatar_NPC_ThinkHand01BS_Sync_0": 18142567081988537991,
    "Ani_Avatar_NPC_ThinkHand01Loop_0": 4832180803051765364,
    "Ani_Avatar_NPC_ThinkHand01Loop_Sync_0": 14084949411173069170,
    "Ani_Avatar_NPC_ThinkHand01AS_0": 13734832927525756738,
    "Ani_Avatar_NPC_ThinkHand01AS_Sync_0": 3058533300186929737,
    "Ani_Avatar_NPC_AkimboHand02BS_0": 7494846765989715621,
    "Ani_Avatar_NPC_AkimboHand02BS_Sync_0": 12117075486432889412,
    "Ani_Avatar_NPC_AkimboHand02AS_0": 5903300534433215218,
    "Ani_Avatar_NPC_AkimboHand02AS_Sync_0": 5553362130048246693,
    "Ani_Avatar_NPC_AkimboHand02Loop_0": 11077751571716254102,
    "Ani_Avatar_NPC_AkimboHand02Loop_Sync_0": 16931633633474916876,
    "Ani_Avatar_NPC_HoldHead01BS_0": 12530878568633721843,
    "Ani_Avatar_NPC_HoldHead01BS_Sync_0": 17117655631433091534,
    "Ani_Avatar_NPC_HoldHead01Loop_0": 7103473527005532417,
    "Ani_Avatar_NPC_HoldHead01Loop_Sync_0": 5827631124570725290,
    "Ani_Avatar_NPC_HoldHead01AS_0": 15342654286961679638,
    "Ani_Avatar_NPC_HoldHead01AS_Sync_0": 4191790048786399219,
    "Ani_Avatar_NPC_PutHand01BS_0": 11807033685188993617,
    "Ani_Avatar_NPC_PutHand01BS_Sync_0": 15858958091774347395,
    "Ani_Avatar_NPC_PutHand01Loop_0": 10309432978905551788,
    "Ani_Avatar_NPC_PutHand01Loop_Sync_0": 1622209781128627973,
    "Ani_Avatar_NPC_PutHand01AS_0": 10980703499232346876,
    "Ani_Avatar_NPC_PutHand01AS_Sync_0": 10246972511076691896,
    "Ani_Avatar_NPC_PointF01BS_0": 69076340494546906,
    "Ani_Avatar_NPC_PointF01BS_Sync_0": 6294455414778375259,
    "Ani_Avatar_NPC_PointF01Loop_0": 18139300234661333703,
    "Ani_Avatar_NPC_PointF01Loop_Sync_0": 13505317063280379386,
    "Ani_Avatar_NPC_PointF01AS_0": 13794732784747862870,
    "Ani_Avatar_NPC_PointF01AS_Sync_0": 15580814408414843342,
    "Ani_Avatar_NPC_PointL01AS_0": 2819808036935179073,
    "Ani_Avatar_NPC_PointL01AS_Sync_0": 15697146450854904462,
    "Ani_Avatar_NPC_PointL01Loop_0": 2158846999322528443,
    "Ani_Avatar_NPC_PointL01Loop_Sync_0": 1767754255672986633,
    "Ani_Avatar_NPC_PointL01BS_0": 11535528426030784344,
    "Ani_Avatar_NPC_PointL01BS_Sync_0": 5966782695828280503,
    "Ani_Avatar_NPC_Talk01_0": 12000557581333078913,
    "Ani_Avatar_NPC_Talk01_Sync_0": 10274813229118729561,
    "Ani_Avatar_NPC_Talk02_0": 16541016490784633886,
    "Ani_Avatar_NPC_Talk02_Sync_0": 5188025435549436723,
    "Ani_Avatar_NPC_Talk03_0": 5365889676164302285,
    "Ani_Avatar_NPC_Talk03_Sync_0": 11645753089919249566,
    "Ani_Avatar_NPC_Request01BS_0": 10603741536520634561,
    "Ani_Avatar_NPC_Request01BS_Sync_0": 6051540967944164638,
    "Ani_Avatar_NPC_Request01Loop_0": 16458779240915521924,
    "Ani_Avatar_NPC_Request01Loop_Sync_0": 2303428978048249459,
    "Ani_Avatar_NPC_Request01AS_0": 1895266265016634365,
    "Ani_Avatar_NPC_Request01AS_Sync_0": 17350851356408967988,
    "Ani_Avatar_NPC_Clap01_0": 6298790338943266283,
    "Ani_Avatar_NPC_Clap01_Sync_0": 16939114315025381682,
    "Ani_Avatar_NPC_Cheer01BS_0": 9580495509509123084,
    "Ani_Avatar_NPC_Cheer01BS_Sync_0": 7319848789247524660,
    "Ani_Avatar_NPC_Cheer01Loop_0": 7514768620519143154,
    "Ani_Avatar_NPC_Cheer01Loop_Sync_0": 14975531107562332320,
    "Ani_Avatar_NPC_Cheer01AS_0": 8027615039375626189,
    "Ani_Avatar_NPC_Cheer01AS_Sync_0": 6118912690939628207,
    "Ani_Avatar_NPC_Investigate01BS_0": 1528222160455317327,
    "Ani_Avatar_NPC_Investigate01BS_Sync_0": 17312172118620812584,
    "Ani_Avatar_NPC_Investigate01Loop_0": 5632702267837898119,
    "Ani_Avatar_NPC_Investigate01Loop_Sync_0": 11981590297918503845,
    "Ani_Avatar_NPC_Investigate01AS_0": 6771934722640717261,
    "Ani_Avatar_NPC_Investigate01AS_Sync_0": 10884031619918856709,
    "Ani_Avatar_NPC_Laugh01_0": 10033373552230241103,
    "Ani_Avatar_NPC_Laugh01_Sync_0": 11014682733404574728,
    "Ani_Avatar_NPC_Encourage01_0": 12902309016991473435,
    "Ani_Avatar_NPC_Encourage01_Sync_0": 1806808687343785334,
    "Ani_Avatar_NPC_Dusting01_0": 7598165850607868609,
    "Ani_Avatar_NPC_Dusting01_Sync_0": 7138520548166149473,
    "Ani_Avatar_NPC_SitHoldArm01BS_0": 8500672814168362511,
    "Ani_Avatar_NPC_SitHoldArm01BS_Sync_0": 2419376040448871123,
    "Ani_Avatar_NPC_SitHoldArm01Loop_0": 7531958540909516069,
    "Ani_Avatar_NPC_SitHoldArm01Loop_Sync_0": 8007025980386825710,
    "Ani_Avatar_NPC_SitHoldArm01AS_0": 17736316390583505660,
    "Ani_Avatar_NPC_SitHoldArm01AS_Sync_0": 9579551085805473231,
    "Ani_Avatar_NPC_SitHoldArmHand01BS_0": 4387103102105629905,
    "Ani_Avatar_NPC_SitHoldArmHand01BS_Sync_0": 14058602353759831881,
    "Ani_Avatar_NPC_SitHoldArmHand01Loop_0": 13323461900747501976,
    "Ani_Avatar_NPC_SitHoldArmHand01Loop_Sync_0": 2316814470713065184,
    "Ani_Avatar_NPC_SitHoldArmHand01AS_0": 11548469614556551561,
    "Ani_Avatar_NPC_SitHoldArmHand01AS_Sync_0": 17136340453497315759,
    "Ani_Avatar_Channel01BS_0": 9096531150401256253,
    "Ani_Avatar_Catalyst_Channel01BS_Sync_0": 14631216572876115013,
    "Ani_Avatar_Channel01Loop_0": 16407971731511897304,
    "Ani_Avatar_Catalyst_Channel01Loop_Sync_0": 17690990689657854516,
    "Ani_Avatar_Channel01AS_0": 17268789033835202419,
    "Ani_Avatar_Catalyst_Channel01AS_Sync_0": 240815614417998517,
    "Ani_Avatar_Catalyst_Show_01_0": 4478039839883473258,
    "Ani_Avatar_Catalyst_Show_01_Sync_0": 4478039839883473258
  }
}