{
  "freeStyleStateMap": {
    "10100": [],
    "10101": [],
    "10201": [],
    "10301": [],
    "10401": [],
    "10501": [],
    "10601": [],
    "10701": [],
    "10801": [],
    "1231": [
      "Ani_Avatar_NPC_AkimboHand01BS_0",
      "Ani_Avatar_NPC_AkimboHand01BS_Sync_0",
      "Ani_Avatar_NPC_AkimboHand01Loop_0",
      "Ani_Avatar_NPC_AkimboHand01Loop_Sync_0",
      "Ani_Avatar_NPC_AkimboHand01AS_0",
      "Ani_Avatar_NPC_AkimboHand01AS_Sync_0",
      "Ani_Avatar_NPC_Akimbo01Loop_0",
      "Ani_Avatar_NPC_Akimbo01Loop_Sync_0",
      "Ani_Avatar_NPC_Akimbo01AS_0",
      "Ani_Avatar_NPC_Akimbo01AS_Sync_0"
    ],
    "1121": [
      "Ani_Avatar_NPC_HoldArmHand01BS_0",
      "Ani_Avatar_NPC_HoldArmHand01BS_Sync_0",
      "Ani_Avatar_NPC_HoldArmHand01Loop_0",
      "Ani_Avatar_NPC_HoldArmHand01Loop_Sync_0",
      "Ani_Avatar_NPC_HoldArmHand01AS_0",
      "Ani_Avatar_NPC_HoldArmHand01AS_Sync_0",
      "Ani_Avatar_NPC_HoldArm01Loop_0",
      "Ani_Avatar_NPC_HoldArm01Loop_Sync_0",
      "Ani_Avatar_NPC_HoldArm01AS_0",
      "Ani_Avatar_NPC_HoldArm01AS_Sync_0"
    ],
    "1191": [
      "Ani_Avatar_NPC_ThinkHand01BS_0",
      "Ani_Avatar_NPC_ThinkHand01BS_Sync_0",
      "Ani_Avatar_NPC_ThinkHand01Loop_0",
      "Ani_Avatar_NPC_ThinkHand01Loop_Sync_0",
      "Ani_Avatar_NPC_ThinkHand01AS_0",
      "Ani_Avatar_NPC_ThinkHand01AS_Sync_0",
      "Ani_Avatar_NPC_Think01Loop_0",
      "Ani_Avatar_NPC_Think01Loop_Sync_0",
      "Ani_Avatar_NPC_Think01AS_0",
      "Ani_Avatar_NPC_Think01AS_Sync_0"
    ],
    "1221": [
      "Ani_Avatar_NPC_AkimboHand02BS_0",
      "Ani_Avatar_NPC_AkimboHand02BS_Sync_0",
      "Ani_Avatar_NPC_AkimboHand02Loop_0",
      "Ani_Avatar_NPC_AkimboHand02Loop_Sync_0",
      "Ani_Avatar_NPC_AkimboHand02AS_0",
      "Ani_Avatar_NPC_AkimboHand02AS_Sync_0",
      "Ani_Avatar_NPC_Akimbo02Loop_0",
      "Ani_Avatar_NPC_Akimbo02Loop_Sync_0",
      "Ani_Avatar_NPC_Akimbo02AS_0",
      "Ani_Avatar_NPC_Akimbo02AS_Sync_0"
    ],
    "8040": [
      "Ani_Avatar_NPC_SitHoldArm01BS_0",
      "Ani_Avatar_NPC_SitHoldArm01BS_Sync_0",
      "Ani_Avatar_NPC_SitHoldArm01Loop_0",
      "Ani_Avatar_NPC_SitHoldArm01Loop_Sync_0",
      "Ani_Avatar_NPC_SitHoldArm01AS_0",
      "Ani_Avatar_NPC_SitHoldArm01AS_Sync_0"
    ],
    "8012": [
      "Ani_Avatar_NPC_SitShrug01BS_0",
      "Ani_Avatar_NPC_SitShrug01BS_Sync_0",
      "Ani_Avatar_NPC_SitShrug01Loop_0",
      "Ani_Avatar_NPC_SitShrug01Loop_Sync_0",
      "Ani_Avatar_NPC_SitShrug01AS_0",
      "Ani_Avatar_NPC_SitShrug01AS_Sync_0"
    ],
    "8013": [
      "Ani_Avatar_NPC_SitThink01BS_0",
      "Ani_Avatar_NPC_SitThink01BS_Sync_0",
      "Ani_Avatar_NPC_SitThink01Loop_0",
      "Ani_Avatar_NPC_SitThink01Loop_Sync_0",
      "Ani_Avatar_NPC_SitThink01AS_0",
      "Ani_Avatar_NPC_SitThink01AS_Sync_0"
    ],
    "8011": [
      "Ani_Avatar_NPC_SitChat01BS_0",
      "Ani_Avatar_NPC_SitChat01BS_Sync_0",
      "Ani_Avatar_NPC_SitChat01Loop_0",
      "Ani_Avatar_NPC_SitChat01Loop_Sync_0",
      "Ani_Avatar_NPC_SitChat01AS_0",
      "Ani_Avatar_NPC_SitChat01AS_Sync_0"
    ],
    "8060": [
      "Ani_Avatar_NPC_SitPutArm01BS_0",
      "Ani_Avatar_NPC_SitPutArm01BS_Sync_0",
      "Ani_Avatar_NPC_SitPutArm01Loop_0",
      "Ani_Avatar_NPC_SitPutArm01Loop_Sync_0",
      "Ani_Avatar_NPC_SitPutArm01AS_0",
      "Ani_Avatar_NPC_SitPutArm01AS_Sync_0"
    ],
    "8041": [
      "Ani_Avatar_NPC_SitHoldArmHand01BS_0",
      "Ani_Avatar_NPC_SitHoldArmHand01BS_Sync_0",
      "Ani_Avatar_NPC_SitHoldArmHand01Loop_0",
      "Ani_Avatar_NPC_SitHoldArmHand01Loop_Sync_0",
      "Ani_Avatar_NPC_SitHoldArmHand01AS_0",
      "Ani_Avatar_NPC_SitHoldArmHand01AS_Sync_0",
      "Ani_Avatar_NPC_SitHoldArm01Loop_0",
      "Ani_Avatar_NPC_SitHoldArm01Loop_Sync_0",
      "Ani_Avatar_NPC_SitHoldArm01AS_0",
      "Ani_Avatar_NPC_SitHoldArm01AS_Sync_0"
    ],
    "8065": [
      "Ani_Avatar_NPC_SitHoldHead01BS_0",
      "Ani_Avatar_NPC_SitHoldHead01Loop_0",
      "Ani_Avatar_NPC_SitHoldHead01AS_0",
      "Ani_Avatar_NPC_SitPutArm01Loop_0",
      "Ani_Avatar_NPC_SitPutArm01Loop_Sync_0",
      "Ani_Avatar_NPC_SitPutArm01AS_0",
      "Ani_Avatar_NPC_SitPutArm01AS_Sync_0"
    ],
    "1230": [
      "Ani_Avatar_NPC_Akimbo01BS_0",
      "Ani_Avatar_NPC_Akimbo01BS_Sync_0",
      "Ani_Avatar_NPC_Akimbo01Loop_0",
      "Ani_Avatar_NPC_Akimbo01Loop_Sync_0",
      "Ani_Avatar_NPC_Akimbo01AS_0",
      "Ani_Avatar_NPC_Akimbo01AS_Sync_0"
    ],
    "1040": [
      "Ani_Avatar_NPC_Backrake01BS_0",
      "Ani_Avatar_NPC_Backrake01BS_Sync_0",
      "Ani_Avatar_NPC_Backrake01Loop_0",
      "Ani_Avatar_NPC_Backrake01Loop_Sync_0",
      "Ani_Avatar_NPC_Backrake01AS_0",
      "Ani_Avatar_NPC_Backrake01AS_Sync_0"
    ],
    "1050": [
      "Ani_Avatar_NPC_Confuse01BS_0",
      "Ani_Avatar_NPC_Confuse01BS_Sync_0",
      "Ani_Avatar_NPC_Confuse01Loop_0",
      "Ani_Avatar_NPC_Confuse01Loop_Sync_0",
      "Ani_Avatar_NPC_Confuse01AS_0",
      "Ani_Avatar_NPC_Confuse01AS_Sync_0"
    ],
    "1060": [
      "Ani_Avatar_NPC_Forerake01BS_0",
      "Ani_Avatar_NPC_Forerake01BS_Sync_0",
      "Ani_Avatar_NPC_Forerake01Loop_0",
      "Ani_Avatar_NPC_Forerake01Loop_Sync_0",
      "Ani_Avatar_NPC_Forerake01AS_0",
      "Ani_Avatar_NPC_Forerake01AS_Sync_0"
    ],
    "1070": [
      "Ani_Avatar_NPC_Afraid01BS_0",
      "Ani_Avatar_NPC_Afraid01BS_Sync_0",
      "Ani_Avatar_NPC_Afraid01Loop_0",
      "Ani_Avatar_NPC_Afraid01Loop_Sync_0",
      "Ani_Avatar_NPC_Afraid01AS_0",
      "Ani_Avatar_NPC_Afraid01AS_Sync_0"
    ],
    "1080": [
      "Ani_Avatar_NPC_Alert01BS_0",
      "Ani_Avatar_NPC_Alert01BS_Sync_0",
      "Ani_Avatar_NPC_Alert01Loop_0",
      "Ani_Avatar_NPC_Alert01Loop_Sync_0",
      "Ani_Avatar_NPC_Alert01AS_0",
      "Ani_Avatar_NPC_Alert01AS_Sync_0"
    ],
    "1090": [
      "Ani_Avatar_NPC_Shy01BS_0",
      "Ani_Avatar_NPC_Shy01BS_Sync_0",
      "Ani_Avatar_NPC_Shy01Loop_0",
      "Ani_Avatar_NPC_Shy01Loop_Sync_0",
      "Ani_Avatar_NPC_Shy01AS_0",
      "Ani_Avatar_NPC_Shy01AS_Sync_0"
    ],
    "1110": [
      "Ani_Avatar_NPC_Shrug01BS_0",
      "Ani_Avatar_NPC_Shrug01BS_Sync_0",
      "Ani_Avatar_NPC_Shrug01Loop_0",
      "Ani_Avatar_NPC_Shrug01Loop_Sync_0",
      "Ani_Avatar_NPC_Shrug01AS_0",
      "Ani_Avatar_NPC_Shrug01AS_Sync_0"
    ],
    "1120": [
      "Ani_Avatar_NPC_HoldArm01BS_0",
      "Ani_Avatar_NPC_HoldArm01BS_Sync_0",
      "Ani_Avatar_NPC_HoldArm01Loop_0",
      "Ani_Avatar_NPC_HoldArm01Loop_Sync_0",
      "Ani_Avatar_NPC_HoldArm01AS_0",
      "Ani_Avatar_NPC_HoldArm01AS_Sync_0"
    ],
    "1130": [
      "Ani_Avatar_NPC_StrikeChest01BS_0",
      "Ani_Avatar_NPC_StrikeChest01BS_Sync_0",
      "Ani_Avatar_NPC_StrikeChest01Loop_0",
      "Ani_Avatar_NPC_StrikeChest01Loop_Sync_0",
      "Ani_Avatar_NPC_StrikeChest01AS_0",
      "Ani_Avatar_NPC_StrikeChest01AS_Sync_0"
    ],
    "1150": [
      "Ani_Avatar_NPC_Refuse01_0",
      "Ani_Avatar_NPC_Refuse01_Sync_0"
    ],
    "1160": [
      "Ani_Avatar_NPC_Downcast01BS_0",
      "Ani_Avatar_NPC_Downcast01BS_Sync_0",
      "Ani_Avatar_NPC_Downcast01Loop_0",
      "Ani_Avatar_NPC_Downcast01Loop_Sync_0",
      "Ani_Avatar_NPC_Downcast01AS_0",
      "Ani_Avatar_NPC_Downcast01AS_Sync_0"
    ],
    "1170": [
      "Ani_Avatar_NPC_Chat01BS_0",
      "Ani_Avatar_NPC_Chat01BS_Sync_0",
      "Ani_Avatar_NPC_Chat01Loop_0",
      "Ani_Avatar_NPC_Chat01Loop_Sync_0",
      "Ani_Avatar_NPC_Chat01AS_0",
      "Ani_Avatar_NPC_Chat01AS_Sync_0"
    ],
    "1180": [
      "Ani_Avatar_NPC_Chat02BS_0",
      "Ani_Avatar_NPC_Chat02BS_Sync_0",
      "Ani_Avatar_NPC_Chat02Loop_0",
      "Ani_Avatar_NPC_Chat02Loop_Sync_0",
      "Ani_Avatar_NPC_Chat02AS_0",
      "Ani_Avatar_NPC_Chat02AS_Sync_0"
    ],
    "1190": [
      "Ani_Avatar_NPC_Think01BS_0",
      "Ani_Avatar_NPC_Think01BS_Sync_0",
      "Ani_Avatar_NPC_Think01Loop_0",
      "Ani_Avatar_NPC_Think01Loop_Sync_0",
      "Ani_Avatar_NPC_Think01AS_0",
      "Ani_Avatar_NPC_Think01AS_Sync_0"
    ],
    "9030": [],
    "9040": [],
    "1140": [
      "Ani_Avatar_NPC_PointR01BS_0",
      "Ani_Avatar_NPC_PointR01BS_Sync_0",
      "Ani_Avatar_NPC_PointR01Loop_0",
      "Ani_Avatar_NPC_PointR01Loop_Sync_0",
      "Ani_Avatar_NPC_PointR01AS_0",
      "Ani_Avatar_NPC_PointR01AS_Sync_0"
    ],
    "1210": [
      "Ani_Avatar_NPC_SaluteMengde01BS_0",
      "Ani_Avatar_NPC_SaluteMengde01BS_Sync_0",
      "Ani_Avatar_NPC_SaluteMengde01Loop_0",
      "Ani_Avatar_NPC_SaluteMengde01Loop_Sync_0",
      "Ani_Avatar_NPC_SaluteMengde01AS_0",
      "Ani_Avatar_NPC_SaluteMengde01AS_Sync_0"
    ],
    "1200": [
      "Ani_Avatar_NPC_Greet01_0",
      "Ani_Avatar_NPC_Greet01_Sync_0"
    ],
    "1240": [
      "Ani_Avatar_NPC_HoldHead01BS_0",
      "Ani_Avatar_NPC_HoldHead01BS_Sync_0",
      "Ani_Avatar_NPC_HoldHead01Loop_0",
      "Ani_Avatar_NPC_HoldHead01Loop_Sync_0",
      "Ani_Avatar_NPC_HoldHead01AS_0",
      "Ani_Avatar_NPC_HoldHead01AS_Sync_0"
    ],
    "1030": [
      "Ani_Avatar_NPC_PutHand01BS_0",
      "Ani_Avatar_NPC_PutHand01BS_Sync_0",
      "Ani_Avatar_NPC_PutHand01Loop_0",
      "Ani_Avatar_NPC_PutHand01Loop_Sync_0",
      "Ani_Avatar_NPC_PutHand01AS_0",
      "Ani_Avatar_NPC_PutHand01AS_Sync_0"
    ],
    "1220": [
      "Ani_Avatar_NPC_Akimbo02BS_0",
      "Ani_Avatar_NPC_Akimbo02BS_Sync_0",
      "Ani_Avatar_NPC_Akimbo02Loop_0",
      "Ani_Avatar_NPC_Akimbo02Loop_Sync_0",
      "Ani_Avatar_NPC_Akimbo02AS_0",
      "Ani_Avatar_NPC_Akimbo02AS_Sync_0"
    ],
    "8010": [],
    "8020": [],
    "1142": [
      "Ani_Avatar_NPC_PointL01BS_0",
      "Ani_Avatar_NPC_PointL01Loop_0",
      "Ani_Avatar_NPC_PointL01AS_0"
    ],
    "1141": [
      "Ani_Avatar_NPC_PointF01BS_0",
      "Ani_Avatar_NPC_PointF01Loop_0",
      "Ani_Avatar_NPC_PointF01AS_0"
    ],
    "1171": [
      "Ani_Avatar_NPC_Talk01_0",
      "Ani_Avatar_NPC_Talk01_Sync_0"
    ],
    "1172": [
      "Ani_Avatar_NPC_Talk02_0",
      "Ani_Avatar_NPC_Talk02_Sync_0"
    ],
    "1173": [
      "Ani_Avatar_NPC_Talk03_0",
      "Ani_Avatar_NPC_Talk03_Sync_0"
    ],
    "1250": [
      "Ani_Avatar_NPC_Request01BS_0",
      "Ani_Avatar_NPC_Request01BS_Sync_0",
      "Ani_Avatar_NPC_Request01Loop_0",
      "Ani_Avatar_NPC_Request01Loop_Sync_0",
      "Ani_Avatar_NPC_Request01AS_0",
      "Ani_Avatar_NPC_Request01AS_Sync_0"
    ],
    "1260": [
      "Ani_Avatar_NPC_Clap01_0",
      "Ani_Avatar_NPC_Clap01_Sync_0"
    ],
    "1270": [
      "Ani_Avatar_NPC_Cheer01BS_0",
      "Ani_Avatar_NPC_Cheer01BS_Sync_0",
      "Ani_Avatar_NPC_Cheer01Loop_0",
      "Ani_Avatar_NPC_Cheer01Loop_Sync_0",
      "Ani_Avatar_NPC_Cheer01AS_0",
      "Ani_Avatar_NPC_Cheer01AS_Sync_0"
    ],
    "1280": [
      "Ani_Avatar_NPC_Investigate01BS_0",
      "Ani_Avatar_NPC_Investigate01BS_Sync_0",
      "Ani_Avatar_NPC_Investigate01Loop_0",
      "Ani_Avatar_NPC_Investigate01Loop_Sync_0",
      "Ani_Avatar_NPC_Investigate01AS_0",
      "Ani_Avatar_NPC_Investigate01AS_Sync_0"
    ],
    "1290": [
      "Ani_Avatar_NPC_Laugh01_0",
      "Ani_Avatar_NPC_Laugh01_Sync_0"
    ],
    "1300": [
      "Ani_Avatar_NPC_Encourage01_0",
      "Ani_Avatar_NPC_Encourage01_Sync_0"
    ],
    "1310": [
      "Ani_Avatar_NPC_Dusting01_0",
      "Ani_Avatar_NPC_Dusting01_Sync_0"
    ],
    "4091": [
      "Ani_Avatar_PlayQin01BS_0",
      "Ani_Avatar_Sword_PlayQin01BS_Sync_0",
      "Ani_Avatar_PlayQin01Loop_0",
      "Ani_Avatar_Sword_PlayQin01Loop_Sync_0",
      "Ani_Avatar_PlayQin01AS_0",
      "Ani_Avatar_Sword_PlayQin01AS_Sync_0"
    ],
    "4090": [
      "Ani_Avatar_PlayLyre01BS_0",
      "Ani_Avatar_Sword_PlayLyre01BS_Sync_0",
      "Ani_Avatar_PlayLyre01Loop_0",
      "Ani_Avatar_Sword_PlayLyre01Loop_Sync_0",
      "Ani_Avatar_PlayLyre01AS_0",
      "Ani_Avatar_Sword_PlayLyre01AS_Sync_0"
    ],
    "4600": [
      "Ani_Avatar_Sword_TeamConfig_01_BS_0",
      "Ani_Avatar_Sword_TeamConfig_01_BS_Sync_0",
      "Ani_Avatar_Sword_TeamConfig_01_Loop_0",
      "Ani_Avatar_Sword_TeamConfig_01_Loop_Sync_0",
      "Ani_Avatar_Sword_TeamConfig_01_AS_0",
      "Ani_Avatar_Sword_TeamConfig_01_AS_Sync_0"
    ],
    "301040": [
      "Ani_Avatar_NPC_DiveBackrake01BS_0",
      "Ani_Avatar_NPC_DiveBackrake01BS_Sync_0",
      "Ani_Avatar_NPC_DiveBackrake01Loop_0",
      "Ani_Avatar_NPC_DiveBackrake01Loop_Sync_0",
      "Ani_Avatar_NPC_DiveBackrake01AS_0",
      "Ani_Avatar_NPC_DiveBackrake01AS_Sync_0"
    ],
    "301060": [
      "Ani_Avatar_NPC_DiveForerake01BS_0",
      "Ani_Avatar_NPC_DiveForerake01BS_Sync_0",
      "Ani_Avatar_NPC_DiveForerake01Loop_0",
      "Ani_Avatar_NPC_DiveForerake01Loop_Sync_0",
      "Ani_Avatar_NPC_DiveForerake01AS_0",
      "Ani_Avatar_NPC_DiveForerake01AS_Sync_0"
    ],
    "301200": [
      "Ani_Avatar_NPC_DiveGreet01_0",
      "Ani_Avatar_NPC_DiveGreet01_Sync_0"
    ],
    "301120": [
      "Ani_Avatar_NPC_DiveHoldArm01BS_0",
      "Ani_Avatar_NPC_DiveHoldArm01Loop_0",
      "Ani_Avatar_NPC_DiveHoldArm01AS_0"
    ],
    "301280": [
      "Ani_Avatar_NPC_DiveInvestigate01BS_0",
      "Ani_Avatar_NPC_DiveInvestigate01Loop_0",
      "Ani_Avatar_NPC_DiveInvestigate01AS_0"
    ],
    "301141": [
      "Ani_Avatar_NPC_DivePointF01BS_0",
      "Ani_Avatar_NPC_DivePointF01BS_Sync_0",
      "Ani_Avatar_NPC_DivePointF01Loop_0",
      "Ani_Avatar_NPC_DivePointF01Loop_Sync_0",
      "Ani_Avatar_NPC_DivePointF01AS_0",
      "Ani_Avatar_NPC_DivePointF01AS_Sync_0"
    ],
    "301142": [
      "Ani_Avatar_NPC_DivePointL01BS_0",
      "Ani_Avatar_NPC_DivePointL01BS_Sync_0",
      "Ani_Avatar_NPC_DivePointL01Loop_0",
      "Ani_Avatar_NPC_DivePointL01Loop_Sync_0",
      "Ani_Avatar_NPC_DivePointL01AS_0",
      "Ani_Avatar_NPC_DivePointL01AS_Sync_0"
    ],
    "301150": [
      "Ani_Avatar_NPC_DiveRefuse01_0",
      "Ani_Avatar_NPC_DiveRefuse01_Sync_0"
    ],
    "301030": [
      "Ani_Avatar_NPC_DivePutHand01BS_0",
      "Ani_Avatar_NPC_DivePutHand01BS_Sync_0",
      "Ani_Avatar_NPC_DivePutHand01Loop_0",
      "Ani_Avatar_NPC_DivePutHand01Loop_Sync_0",
      "Ani_Avatar_NPC_DivePutHand01AS_0",
      "Ani_Avatar_NPC_DivePutHand01AS_Sync_0"
    ],
    "301110": [
      "Ani_Avatar_NPC_DiveShrug01BS_0",
      "Ani_Avatar_NPC_DiveShrug01Loop_0",
      "Ani_Avatar_NPC_DiveShrug01AS_0"
    ],
    "301130": [
      "Ani_Avatar_NPC_DiveStrikeChest01BS_0",
      "Ani_Avatar_NPC_DiveStrikeChest01BS_Sync_0",
      "Ani_Avatar_NPC_DiveStrikeChest01Loop_0",
      "Ani_Avatar_NPC_DiveStrikeChest01Loop_Sync_0",
      "Ani_Avatar_NPC_DiveStrikeChest01AS_0",
      "Ani_Avatar_NPC_DiveStrikeChest01AS_Sync_0"
    ],
    "301171": [
      "Ani_Avatar_NPC_DiveTalk01_0"
    ],
    "301172": [
      "Ani_Avatar_NPC_DiveTalk02_0",
      "Ani_Avatar_NPC_DiveTalk02_Sync_0"
    ],
    "301173": [
      "Ani_Avatar_NPC_DiveTalk03_0"
    ],
    "301190": [
      "Ani_Avatar_NPC_DiveThink01BS_0",
      "Ani_Avatar_NPC_DiveThink01Loop_0",
      "Ani_Avatar_NPC_DiveThink01AS_0"
    ],
    "9031": [],
    "9041": []
  },
  "stateAnimeMap": {
    "Ani_Avatar_NPC_Akimbo01BS_0": 12002732006589543497,
    "Ani_Avatar_NPC_Akimbo01BS_Sync_0": 4602320718454335708,
    "Ani_Avatar_NPC_Backrake01BS_0": 12304312941631364880,
    "Ani_Avatar_NPC_Backrake01BS_Sync_0": 12270766682555882115,
    "Ani_Avatar_NPC_Confuse01BS_0": 3139081683793024625,
    "Ani_Avatar_NPC_Confuse01BS_Sync_0": 7260654569896596407,
    "Ani_Avatar_NPC_Forerake01BS_0": 15489957333636784756,
    "Ani_Avatar_NPC_Forerake01BS_Sync_0": 12513286761594434467,
    "Ani_Avatar_NPC_Afraid01BS_0": 12118280073056191585,
    "Ani_Avatar_NPC_Afraid01BS_Sync_0": 10220174394707806105,
    "Ani_Avatar_NPC_Alert01BS_0": 6218644576028995025,
    "Ani_Avatar_NPC_Alert01BS_Sync_0": 213822682462267521,
    "Ani_Avatar_NPC_Shy01BS_0": 10475580930823327634,
    "Ani_Avatar_NPC_Shy01BS_Sync_0": 11155551361105684107,
    "Ani_Avatar_NPC_Shrug01BS_0": 2344160388602314054,
    "Ani_Avatar_NPC_Shrug01BS_Sync_0": 6529919794766292935,
    "Ani_Avatar_NPC_HoldArm01BS_0": 14454480652233980313,
    "Ani_Avatar_NPC_HoldArm01BS_Sync_0": 13418784307072282208,
    "Ani_Avatar_NPC_StrikeChest01BS_0": 2199181609597335826,
    "Ani_Avatar_NPC_StrikeChest01BS_Sync_0": 18131635814928953798,
    "Ani_Avatar_NPC_Refuse01_0": 13212186097833847035,
    "Ani_Avatar_NPC_Refuse01_Sync_0": 15567669636757418614,
    "Ani_Avatar_NPC_Akimbo01Loop_0": 5876594105244376747,
    "Ani_Avatar_NPC_Akimbo01Loop_Sync_0": 12923321652093381400,
    "Ani_Avatar_NPC_Akimbo01AS_0": 17515976922844950932,
    "Ani_Avatar_NPC_Akimbo01AS_Sync_0": 14570438295014359020,
    "Ani_Avatar_NPC_Backrake01Loop_0": 6937731160617886434,
    "Ani_Avatar_NPC_Backrake01Loop_Sync_0": 7879690278655474391,
    "Ani_Avatar_NPC_Backrake01AS_0": 6062109248297129891,
    "Ani_Avatar_NPC_Backrake01AS_Sync_0": 9256017007230248503,
    "Ani_Avatar_NPC_Confuse01Loop_0": 15757847635688408548,
    "Ani_Avatar_NPC_Confuse01Loop_Sync_0": 14200623870862189483,
    "Ani_Avatar_NPC_Confuse01AS_0": 10125542119570611131,
    "Ani_Avatar_NPC_Confuse01AS_Sync_0": 16694377180723966715,
    "Ani_Avatar_NPC_Forerake01Loop_0": 8170168353111961343,
    "Ani_Avatar_NPC_Forerake01Loop_Sync_0": 18241117711110404497,
    "Ani_Avatar_NPC_Forerake01AS_0": 8527096408826045181,
    "Ani_Avatar_NPC_Forerake01AS_Sync_0": 3076402607639609099,
    "Ani_Avatar_NPC_Afraid01Loop_0": 15632757109642416464,
    "Ani_Avatar_NPC_Afraid01Loop_Sync_0": 9924550374594535919,
    "Ani_Avatar_NPC_Afraid01AS_0": 16878525226519596410,
    "Ani_Avatar_NPC_Afraid01AS_Sync_0": 17842056169243786968,
    "Ani_Avatar_NPC_Alert01Loop_0": 16238299689047756731,
    "Ani_Avatar_NPC_Alert01Loop_Sync_0": 10126535737445965878,
    "Ani_Avatar_NPC_Alert01AS_0": 7006777614685145405,
    "Ani_Avatar_NPC_Alert01AS_Sync_0": 1599843245054118582,
    "Ani_Avatar_NPC_Shy01Loop_0": 13293611592878795963,
    "Ani_Avatar_NPC_Shy01Loop_Sync_0": 1077315557390221108,
    "Ani_Avatar_NPC_Shy01AS_0": 3140275080341386018,
    "Ani_Avatar_NPC_Shy01AS_Sync_0": 8508079985220683404,
    "Ani_Avatar_NPC_Shrug01Loop_0": 12914892828708297928,
    "Ani_Avatar_NPC_Shrug01Loop_Sync_0": 9688511477109334835,
    "Ani_Avatar_NPC_Shrug01AS_0": 5795392761848685567,
    "Ani_Avatar_NPC_Shrug01AS_Sync_0": 12663740588698829558,
    "Ani_Avatar_NPC_HoldArm01Loop_0": 2712784722907725023,
    "Ani_Avatar_NPC_HoldArm01Loop_Sync_0": 6451890944916281007,
    "Ani_Avatar_NPC_HoldArm01AS_0": 14956858484718116242,
    "Ani_Avatar_NPC_HoldArm01AS_Sync_0": 13780648988177670005,
    "Ani_Avatar_NPC_StrikeChest01Loop_0": 12289133401867920319,
    "Ani_Avatar_NPC_StrikeChest01Loop_Sync_0": 14860313829781373796,
    "Ani_Avatar_NPC_StrikeChest01AS_0": 15082139529621809394,
    "Ani_Avatar_NPC_StrikeChest01AS_Sync_0": 3615014040463643333,
    "Ani_Avatar_NPC_Downcast01BS_0": 16972052261006187983,
    "Ani_Avatar_NPC_Downcast01BS_Sync_0": 4234360805619228368,
    "Ani_Avatar_NPC_Chat01BS_0": 12334278457379334854,
    "Ani_Avatar_NPC_Chat01BS_Sync_0": 17335899295156060014,
    "Ani_Avatar_NPC_Chat02BS_0": 5822508329159035797,
    "Ani_Avatar_NPC_Chat02BS_Sync_0": 12363514298560288924,
    "Ani_Avatar_NPC_Think01BS_0": 13723847955209670272,
    "Ani_Avatar_NPC_Think01BS_Sync_0": 13295391473714079445,
    "Ani_Avatar_NPC_Downcast01AS_0": 2318526436723880692,
    "Ani_Avatar_NPC_Downcast01AS_Sync_0": 13795531890635166251,
    "Ani_Avatar_NPC_Downcast01Loop_0": 13654891879356656175,
    "Ani_Avatar_NPC_Downcast01Loop_Sync_0": 7605058416626604444,
    "Ani_Avatar_NPC_Chat01Loop_0": 13955028106685023541,
    "Ani_Avatar_NPC_Chat01Loop_Sync_0": 18028910679294871191,
    "Ani_Avatar_NPC_Chat01AS_0": 8373659355821280247,
    "Ani_Avatar_NPC_Chat01AS_Sync_0": 13336266346599487285,
    "Ani_Avatar_NPC_Chat02AS_0": 10289732853286531923,
    "Ani_Avatar_NPC_Chat02AS_Sync_0": 10504927924519755564,
    "Ani_Avatar_NPC_Chat02Loop_0": 13499657539522866334,
    "Ani_Avatar_NPC_Chat02Loop_Sync_0": 3073891926281074013,
    "Ani_Avatar_NPC_Think01Loop_0": 5147551597555091732,
    "Ani_Avatar_NPC_Think01Loop_Sync_0": 3867383409571497110,
    "Ani_Avatar_NPC_Think01AS_0": 1840744184921628751,
    "Ani_Avatar_NPC_Think01AS_Sync_0": 10378197382439621792,
    "Ani_Avatar_NPC_PointR01BS_0": 10887847079340830859,
    "Ani_Avatar_NPC_PointR01BS_Sync_0": 6930046062680539978,
    "Ani_Avatar_NPC_PointR01Loop_0": 9395754805933613668,
    "Ani_Avatar_NPC_PointR01Loop_Sync_0": 16936107109884868634,
    "Ani_Avatar_NPC_PointR01AS_0": 8726068157042884252,
    "Ani_Avatar_NPC_PointR01AS_Sync_0": 9814981049643438563,
    "Ani_Avatar_NPC_AkimboHand01Loop_0": 1231815773482736845,
    "Ani_Avatar_NPC_AkimboHand01Loop_Sync_0": 3875052669489501397,
    "Ani_Avatar_NPC_HoldArmHand01Loop_0": 18218276883247647089,
    "Ani_Avatar_NPC_HoldArmHand01Loop_Sync_0": 12115486274924174544,
    "Ani_Avatar_NPC_ThinkHand01Loop_0": 13535106672637416471,
    "Ani_Avatar_NPC_ThinkHand01Loop_Sync_0": 18238950030827779572,
    "Ani_Avatar_NPC_AkimboHand01BS_0": 16610762320734700397,
    "Ani_Avatar_NPC_AkimboHand01BS_Sync_0": 387426149895761680,
    "Ani_Avatar_NPC_AkimboHand01AS_0": 13056383738308938672,
    "Ani_Avatar_NPC_AkimboHand01AS_Sync_0": 13918961094962660230,
    "Ani_Avatar_NPC_HoldArmHand01BS_0": 6817790876420330362,
    "Ani_Avatar_NPC_HoldArmHand01BS_Sync_0": 11025731893068054275,
    "Ani_Avatar_NPC_HoldArmHand01AS_0": 3377678925020103837,
    "Ani_Avatar_NPC_HoldArmHand01AS_Sync_0": 16845601805424511816,
    "Ani_Avatar_NPC_ThinkHand01BS_0": 3924216980230896905,
    "Ani_Avatar_NPC_ThinkHand01BS_Sync_0": 2374040423302659001,
    "Ani_Avatar_NPC_ThinkHand01AS_0": 9966080335549816475,
    "Ani_Avatar_NPC_ThinkHand01AS_Sync_0": 15887536152378916141,
    "Ani_Avatar_NPC_SaluteMengde01BS_0": 6948710577134158709,
    "Ani_Avatar_NPC_SaluteMengde01BS_Sync_0": 5009142356943260274,
    "Ani_Avatar_NPC_Greet01_0": 4807574160995883665,
    "Ani_Avatar_NPC_Greet01_Sync_0": 6588273273776200487,
    "Ani_Avatar_NPC_HoldHead01BS_0": 3172197871657557207,
    "Ani_Avatar_NPC_HoldHead01BS_Sync_0": 631258573213267481,
    "Ani_Avatar_NPC_HoldHead01Loop_0": 15134216858968829851,
    "Ani_Avatar_NPC_HoldHead01Loop_Sync_0": 16503970911074589548,
    "Ani_Avatar_NPC_HoldHead01AS_0": 511842456851281478,
    "Ani_Avatar_NPC_HoldHead01AS_Sync_0": 14153382958668413562,
    "Ani_Avatar_NPC_PutHand01BS_0": 15504407369039152460,
    "Ani_Avatar_NPC_PutHand01BS_Sync_0": 2750322153624841863,
    "Ani_Avatar_NPC_PutHand01Loop_0": 4643790343390901058,
    "Ani_Avatar_NPC_PutHand01Loop_Sync_0": 1081556909309787259,
    "Ani_Avatar_NPC_PutHand01AS_0": 13645449391005338112,
    "Ani_Avatar_NPC_PutHand01AS_Sync_0": 4282669135753728392,
    "Ani_Avatar_NPC_Akimbo02BS_0": 13596782976026310736,
    "Ani_Avatar_NPC_Akimbo02BS_Sync_0": 4769826862091002795,
    "Ani_Avatar_NPC_Akimbo02Loop_0": 5337688734592544898,
    "Ani_Avatar_NPC_Akimbo02Loop_Sync_0": 10311047713708126321,
    "Ani_Avatar_NPC_Akimbo02AS_0": 7851888299767128152,
    "Ani_Avatar_NPC_Akimbo02AS_Sync_0": 10929836292808858519,
    "Ani_Avatar_NPC_AkimboHand02Loop_0": 605139762964384541,
    "Ani_Avatar_NPC_AkimboHand02Loop_Sync_0": 9918928376849389043,
    "Ani_Avatar_NPC_AkimboHand02BS_0": 8526227671876100202,
    "Ani_Avatar_NPC_AkimboHand02BS_Sync_0": 14332066967345854921,
    "Ani_Avatar_NPC_AkimboHand02AS_0": 16924208477815429150,
    "Ani_Avatar_NPC_AkimboHand02AS_Sync_0": 1562696925331134072,
    "Ani_Avatar_NPC_SaluteMengde01Loop_0": 15575800236833985210,
    "Ani_Avatar_NPC_SaluteMengde01Loop_Sync_0": 7579576460926775203,
    "Ani_Avatar_NPC_SaluteMengde01AS_0": 572634571619495982,
    "Ani_Avatar_NPC_SaluteMengde01AS_Sync_0": 4246675475047664567,
    "Ani_Avatar_NPC_PointF01BS_0": 2402652337658281069,
    "Ani_Avatar_NPC_PointF01Loop_0": 15383296661743566963,
    "Ani_Avatar_NPC_PointF01AS_0": 17534256406230126150,
    "Ani_Avatar_NPC_PointL01BS_0": 10973455785460576960,
    "Ani_Avatar_NPC_PointL01Loop_0": 13955063712576629916,
    "Ani_Avatar_NPC_PointL01AS_0": 830780926405855241,
    "Ani_Avatar_NPC_Talk01_0": 2607898709680240281,
    "Ani_Avatar_NPC_Talk01_Sync_0": 9208102604035465917,
    "Ani_Avatar_NPC_Talk02_0": 12203867269152116789,
    "Ani_Avatar_NPC_Talk02_Sync_0": 17101640768110194577,
    "Ani_Avatar_NPC_Talk03_0": 9549065577555540971,
    "Ani_Avatar_NPC_Talk03_Sync_0": 11463917776754073671,
    "Ani_Avatar_NPC_Request01BS_0": 1631481629563757939,
    "Ani_Avatar_NPC_Request01BS_Sync_0": 15676297484960743521,
    "Ani_Avatar_NPC_Request01Loop_0": 17913889959995538269,
    "Ani_Avatar_NPC_Request01Loop_Sync_0": 7765735077513505612,
    "Ani_Avatar_NPC_Request01AS_0": 170203550946877348,
    "Ani_Avatar_NPC_Request01AS_Sync_0": 9529895819009394490,
    "Ani_Avatar_NPC_Clap01_0": 2229706450100451062,
    "Ani_Avatar_NPC_Clap01_Sync_0": 10095198653651703841,
    "Ani_Avatar_NPC_Cheer01BS_0": 470026575450229787,
    "Ani_Avatar_NPC_Cheer01BS_Sync_0": 3572318793548247808,
    "Ani_Avatar_NPC_Cheer01Loop_0": 6876549708323835596,
    "Ani_Avatar_NPC_Cheer01Loop_Sync_0": 4434312277640299549,
    "Ani_Avatar_NPC_Cheer01AS_0": 4092214044762322594,
    "Ani_Avatar_NPC_Cheer01AS_Sync_0": 14499900543959157973,
    "Ani_Avatar_NPC_Investigate01BS_0": 7994758252379745588,
    "Ani_Avatar_NPC_Investigate01BS_Sync_0": 10784347893828306637,
    "Ani_Avatar_NPC_Investigate01Loop_0": 593214587457204204,
    "Ani_Avatar_NPC_Investigate01Loop_Sync_0": 7604926568800542050,
    "Ani_Avatar_NPC_Investigate01AS_0": 1846078816518724261,
    "Ani_Avatar_NPC_Investigate01AS_Sync_0": 15463839745984267223,
    "Ani_Avatar_NPC_Laugh01_0": 10620210162053771310,
    "Ani_Avatar_NPC_Laugh01_Sync_0": 14645469117039903136,
    "Ani_Avatar_NPC_Encourage01_0": 5904239476224598071,
    "Ani_Avatar_NPC_Encourage01_Sync_0": 18020548517277013055,
    "Ani_Avatar_NPC_Dusting01_0": 3548156315016490228,
    "Ani_Avatar_NPC_Dusting01_Sync_0": 2765062016332205341,
    "Ani_Avatar_NPC_SitHoldArm01AS_0": 10417777817592031813,
    "Ani_Avatar_NPC_SitHoldArm01AS_Sync_0": 16345497412005263733,
    "Ani_Avatar_NPC_SitHoldArm01Loop_0": 16052087864423792567,
    "Ani_Avatar_NPC_SitHoldArm01Loop_Sync_0": 6902295060204280835,
    "Ani_Avatar_NPC_SitHoldArm01BS_0": 1334257093933679047,
    "Ani_Avatar_NPC_SitHoldArm01BS_Sync_0": 4016764250036006694,
    "Ani_Avatar_NPC_SitHoldArmHand01BS_0": 9952101636424799802,
    "Ani_Avatar_NPC_SitHoldArmHand01BS_Sync_0": 8959816797565053561,
    "Ani_Avatar_NPC_SitHoldArmHand01Loop_0": 8806178906359010329,
    "Ani_Avatar_NPC_SitHoldArmHand01Loop_Sync_0": 16656984211604942877,
    "Ani_Avatar_NPC_SitHoldArmHand01AS_0": 12153681914280866653,
    "Ani_Avatar_NPC_SitHoldArmHand01AS_Sync_0": 9708699484282816322,
    "Ani_Avatar_NPC_SitShrug01BS_0": 5357990700278847010,
    "Ani_Avatar_NPC_SitShrug01BS_Sync_0": 3027489023024352413,
    "Ani_Avatar_NPC_SitShrug01AS_0": 925101602883132821,
    "Ani_Avatar_NPC_SitShrug01AS_Sync_0": 5532174080470846302,
    "Ani_Avatar_NPC_SitShrug01Loop_0": 17945728910104799859,
    "Ani_Avatar_NPC_SitShrug01Loop_Sync_0": 7423150036782281428,
    "Ani_Avatar_NPC_SitThink01BS_0": 15035801160016268432,
    "Ani_Avatar_NPC_SitThink01BS_Sync_0": 8745000132832127959,
    "Ani_Avatar_NPC_SitThink01AS_0": 16283003816497108250,
    "Ani_Avatar_NPC_SitThink01AS_Sync_0": 18424041124960718216,
    "Ani_Avatar_NPC_SitThink01Loop_0": 14435457960484611169,
    "Ani_Avatar_NPC_SitThink01Loop_Sync_0": 4443006729305138157,
    "Ani_Avatar_NPC_SitChat01BS_0": 16311306459120472037,
    "Ani_Avatar_NPC_SitChat01BS_Sync_0": 2096494096816759004,
    "Ani_Avatar_NPC_SitChat01AS_0": 10240025634800466028,
    "Ani_Avatar_NPC_SitChat01AS_Sync_0": 7326021045092801764,
    "Ani_Avatar_NPC_SitChat01Loop_0": 18143174498540232073,
    "Ani_Avatar_NPC_SitChat01Loop_Sync_0": 7232046999937973712,
    "Ani_Avatar_NPC_SitPutArm01BS_0": 2326250563327410541,
    "Ani_Avatar_NPC_SitPutArm01BS_Sync_0": 7709378010914741441,
    "Ani_Avatar_NPC_SitPutArm01Loop_0": 1121145294203526288,
    "Ani_Avatar_NPC_SitPutArm01Loop_Sync_0": 4467878534046829168,
    "Ani_Avatar_NPC_SitPutArm01AS_0": 8168970659030489108,
    "Ani_Avatar_NPC_SitPutArm01AS_Sync_0": 18047655489288468340,
    "Ani_Avatar_NPC_SitHoldHead01BS_0": 4008010287998997599,
    "Ani_Avatar_NPC_SitHoldHead01AS_0": 18102088711552131520,
    "Ani_Avatar_NPC_SitHoldHead01Loop_0": 10427567228858813500,
    "Ani_Avatar_PlayQin01BS_0": 16551969031138959036,
    "Ani_Avatar_Sword_PlayQin01BS_Sync_0": 4863279102911919995,
    "Ani_Avatar_PlayQin01Loop_0": 17418587647401392116,
    "Ani_Avatar_Sword_PlayQin01Loop_Sync_0": 5725712203881226777,
    "Ani_Avatar_PlayQin01AS_0": 5250994942578466823,
    "Ani_Avatar_Sword_PlayQin01AS_Sync_0": 12114000111278499893,
    "Ani_Avatar_PlayLyre01AS_0": 6745461515084530887,
    "Ani_Avatar_Sword_PlayLyre01AS_Sync_0": 6928245126358917808,
    "Ani_Avatar_PlayLyre01Loop_0": 14460331048294565800,
    "Ani_Avatar_Sword_PlayLyre01Loop_Sync_0": 8719247226596033457,
    "Ani_Avatar_PlayLyre01BS_0": 13474228108707133881,
    "Ani_Avatar_Sword_PlayLyre01BS_Sync_0": 16871136602173111679,
    "Ani_Avatar_Sword_TeamConfig_01_AS_0": 2500937383521849727,
    "Ani_Avatar_Sword_TeamConfig_01_AS_Sync_0": 2500937383521849727,
    "Ani_Avatar_Sword_TeamConfig_01_BS_0": 494992934895185392,
    "Ani_Avatar_Sword_TeamConfig_01_BS_Sync_0": 494992934895185392,
    "Ani_Avatar_Sword_TeamConfig_01_Loop_0": 16692866393807712567,
    "Ani_Avatar_Sword_TeamConfig_01_Loop_Sync_0": 16692866393807712567,
    "Ani_Avatar_NPC_DiveBackrake01AS_0": 13745414885020751850,
    "Ani_Avatar_NPC_DiveBackrake01AS_Sync_0": 16744431739976037767,
    "Ani_Avatar_NPC_DiveBackrake01BS_0": 14045479530525961535,
    "Ani_Avatar_NPC_DiveBackrake01BS_Sync_0": 17561036108284620320,
    "Ani_Avatar_NPC_DiveBackrake01Loop_0": 7776993516944271219,
    "Ani_Avatar_NPC_DiveBackrake01Loop_Sync_0": 9017405643319173700,
    "Ani_Avatar_NPC_DiveForerake01AS_0": 1189669955013642242,
    "Ani_Avatar_NPC_DiveForerake01AS_Sync_0": 10067208601072919908,
    "Ani_Avatar_NPC_DiveForerake01BS_0": 3791399906567014627,
    "Ani_Avatar_NPC_DiveForerake01BS_Sync_0": 8619644171580182735,
    "Ani_Avatar_NPC_DiveForerake01Loop_0": 17162374067840877387,
    "Ani_Avatar_NPC_DiveForerake01Loop_Sync_0": 7885770943088334744,
    "Ani_Avatar_NPC_DiveGreet01_0": 7579813470084143930,
    "Ani_Avatar_NPC_DiveGreet01_Sync_0": 8531456412696618018,
    "Ani_Avatar_NPC_DiveHoldArm01AS_0": 7839143588994292585,
    "Ani_Avatar_NPC_DiveHoldArm01BS_0": 477856376308130793,
    "Ani_Avatar_NPC_DiveHoldArm01Loop_0": 4117554916617741119,
    "Ani_Avatar_NPC_DiveInvestigate01AS_0": 7213826833437743589,
    "Ani_Avatar_NPC_DiveInvestigate01BS_0": 15141436352627994944,
    "Ani_Avatar_NPC_DiveInvestigate01Loop_0": 15958999616358372086,
    "Ani_Avatar_NPC_DivePointF01AS_0": 12203129401240415636,
    "Ani_Avatar_NPC_DivePointF01AS_Sync_0": 9925893850689446861,
    "Ani_Avatar_NPC_DivePointF01BS_0": 5150133746556067643,
    "Ani_Avatar_NPC_DivePointF01BS_Sync_0": 2221492889319485156,
    "Ani_Avatar_NPC_DivePointF01Loop_0": 11292253198432848008,
    "Ani_Avatar_NPC_DivePointF01Loop_Sync_0": 7615665309872438138,
    "Ani_Avatar_NPC_DivePointL01AS_0": 6790272399132549614,
    "Ani_Avatar_NPC_DivePointL01AS_Sync_0": 9421392453597288340,
    "Ani_Avatar_NPC_DivePointL01BS_0": 12447499444699691587,
    "Ani_Avatar_NPC_DivePointL01BS_Sync_0": 3199491897312256179,
    "Ani_Avatar_NPC_DivePointL01Loop_0": 4578916094806950473,
    "Ani_Avatar_NPC_DivePointL01Loop_Sync_0": 187454356614879398,
    "Ani_Avatar_NPC_DivePutHand01AS_0": 10355342401201069823,
    "Ani_Avatar_NPC_DivePutHand01AS_Sync_0": 2321961624097482102,
    "Ani_Avatar_NPC_DivePutHand01BS_0": 4519410150358390668,
    "Ani_Avatar_NPC_DivePutHand01BS_Sync_0": 16647826511011587323,
    "Ani_Avatar_NPC_DivePutHand01Loop_0": 4620103537966067813,
    "Ani_Avatar_NPC_DivePutHand01Loop_Sync_0": 10406263499373197162,
    "Ani_Avatar_NPC_DiveRefuse01_0": 10992734437946525631,
    "Ani_Avatar_NPC_DiveRefuse01_Sync_0": 4573937857929064798,
    "Ani_Avatar_NPC_DiveShrug01AS_0": 14211956260097463203,
    "Ani_Avatar_NPC_DiveShrug01BS_0": 15037424322994206681,
    "Ani_Avatar_NPC_DiveShrug01Loop_0": 6539508611885108136,
    "Ani_Avatar_NPC_DiveStrikeChest01AS_0": 15829439769951962034,
    "Ani_Avatar_NPC_DiveStrikeChest01AS_Sync_0": 3978127439460507952,
    "Ani_Avatar_NPC_DiveStrikeChest01BS_0": 5956703259817993429,
    "Ani_Avatar_NPC_DiveStrikeChest01BS_Sync_0": 10421674284096792266,
    "Ani_Avatar_NPC_DiveStrikeChest01Loop_0": 887426774815828890,
    "Ani_Avatar_NPC_DiveStrikeChest01Loop_Sync_0": 15554736460979179225,
    "Ani_Avatar_NPC_DiveTalk01_0": 5227255531376360306,
    "Ani_Avatar_NPC_DiveTalk02_0": 16279784964076539890,
    "Ani_Avatar_NPC_DiveTalk02_Sync_0": 13936679594190858077,
    "Ani_Avatar_NPC_DiveTalk03_0": 14554610633610535206,
    "Ani_Avatar_NPC_DiveThink01AS_0": 13192433489311037666,
    "Ani_Avatar_NPC_DiveThink01BS_0": 13638743315661998935,
    "Ani_Avatar_NPC_DiveThink01Loop_0": 13336925249404048555
  }
}