{
  "freeStyleStateMap": {
    "10100": [],
    "10101": [],
    "10201": [],
    "10301": [],
    "10401": [],
    "10501": [],
    "10601": [],
    "10701": [],
    "10801": [],
    "1231": [
      "Ani_Avatar_NPC_AkimboHand01BS_0",
      "Ani_Avatar_NPC_AkimboHand01BS_Sync_0",
      "Ani_Avatar_NPC_AkimboHand01Loop_0",
      "Ani_Avatar_NPC_AkimboHand01Loop_Sync_0",
      "Ani_Avatar_NPC_AkimboHand01AS_0",
      "Ani_Avatar_NPC_AkimboHand01AS_Sync_0",
      "Ani_Avatar_NPC_Akimbo01Loop_0",
      "Ani_Avatar_NPC_Akimbo01Loop_Sync_0",
      "Ani_Avatar_NPC_Akimbo01AS_0",
      "Ani_Avatar_NPC_Akimbo01AS_Sync_0"
    ],
    "1121": [
      "Ani_Avatar_NPC_HoldArmHand01BS_0",
      "Ani_Avatar_NPC_HoldArmHand01BS_Sync_0",
      "Ani_Avatar_NPC_HoldArmHand01Loop_0",
      "Ani_Avatar_NPC_HoldArmHand01Loop_Sync_0",
      "Ani_Avatar_NPC_HoldArmHand01AS_0",
      "Ani_Avatar_NPC_HoldArmHand01AS_Sync_0",
      "Ani_Avatar_NPC_HoldArm01Loop_0",
      "Ani_Avatar_NPC_HoldArm01Loop_Sync_0",
      "Ani_Avatar_NPC_HoldArm01AS_0",
      "Ani_Avatar_NPC_HoldArm01AS_Sync_0"
    ],
    "1191": [
      "Ani_Avatar_NPC_ThinkHand01BS_0",
      "Ani_Avatar_NPC_ThinkHand01BS_Sync_0",
      "Ani_Avatar_NPC_ThinkHand01Loop_0",
      "Ani_Avatar_NPC_ThinkHand01Loop_Sync_0",
      "Ani_Avatar_NPC_ThinkHand01AS_0",
      "Ani_Avatar_NPC_ThinkHand01AS_Sync_0",
      "Ani_Avatar_NPC_Think01Loop_0",
      "Ani_Avatar_NPC_Think01Loop_Sync_0",
      "Ani_Avatar_NPC_Think01AS_0",
      "Ani_Avatar_NPC_Think01AS_Sync_0"
    ],
    "1221": [
      "Ani_Avatar_NPC_AkimboHand02BS_0",
      "Ani_Avatar_NPC_AkimboHand02BS_Sync_0",
      "Ani_Avatar_NPC_AkimboHand02Loop_0",
      "Ani_Avatar_NPC_AkimboHand02Loop_Sync_0",
      "Ani_Avatar_NPC_AkimboHand02AS_0",
      "Ani_Avatar_NPC_AkimboHand02AS_Sync_0",
      "Ani_Avatar_NPC_Akimbo02Loop_0",
      "Ani_Avatar_NPC_Akimbo02Loop_Sync_0",
      "Ani_Avatar_NPC_Akimbo02AS_0",
      "Ani_Avatar_NPC_Akimbo02AS_Sync_0"
    ],
    "8062": [
      "Ani_Avatar_NPC_SitWrite01BS_0",
      "Ani_Avatar_NPC_SitWrite01Loop_0",
      "Ani_Avatar_NPC_SitWrite01AS_0"
    ],
    "8040": [
      "Ani_Avatar_NPC_SitHoldArm01BS_0",
      "Ani_Avatar_NPC_SitHoldArm01BS_Sync_0",
      "Ani_Avatar_NPC_SitHoldArm01Loop_0",
      "Ani_Avatar_NPC_SitHoldArm01Loop_Sync_0",
      "Ani_Avatar_NPC_SitHoldArm01AS_0",
      "Ani_Avatar_NPC_SitHoldArm01AS_Sync_0"
    ],
    "8012": [
      "Ani_Avatar_NPC_SitShrug01BS_0",
      "Ani_Avatar_NPC_SitShrug01BS_Sync_0",
      "Ani_Avatar_NPC_SitShrug01Loop_0",
      "Ani_Avatar_NPC_SitShrug01Loop_Sync_0",
      "Ani_Avatar_NPC_SitShrug01AS_0",
      "Ani_Avatar_NPC_SitShrug01AS_Sync_0"
    ],
    "8013": [
      "Ani_Avatar_NPC_SitThink01BS_0",
      "Ani_Avatar_NPC_SitThink01BS_Sync_0",
      "Ani_Avatar_NPC_SitThink01Loop_0",
      "Ani_Avatar_NPC_SitThink01Loop_Sync_0",
      "Ani_Avatar_NPC_SitThink01AS_0",
      "Ani_Avatar_NPC_SitThink01AS_Sync_0"
    ],
    "8011": [
      "Ani_Avatar_NPC_SitChat01BS_0",
      "Ani_Avatar_NPC_SitChat01BS_Sync_0",
      "Ani_Avatar_NPC_SitChat01Loop_0",
      "Ani_Avatar_NPC_SitChat01Loop_Sync_0",
      "Ani_Avatar_NPC_SitChat01AS_0",
      "Ani_Avatar_NPC_SitChat01AS_Sync_0"
    ],
    "8060": [
      "Ani_Avatar_NPC_SitPutArm01BS_0",
      "Ani_Avatar_NPC_SitPutArm01Loop_0",
      "Ani_Avatar_NPC_SitPutArm01AS_0"
    ],
    "8081": [
      "Ani_Avatar_NPC_SitSpecial02BS_0",
      "Ani_Avatar_NPC_SitSpecial02BS_Sync_0",
      "Ani_Avatar_NPC_SitSpecial02Loop_0",
      "Ani_Avatar_NPC_SitSpecial02Loop_Sync_0",
      "Ani_Avatar_NPC_SitSpecial02AS_0",
      "Ani_Avatar_NPC_SitSpecial02AS_Sync_0"
    ],
    "8041": [
      "Ani_Avatar_NPC_SitHoldArmHand01BS_0",
      "Ani_Avatar_NPC_SitHoldArmHand01BS_Sync_0",
      "Ani_Avatar_NPC_SitHoldArmHand01Loop_0",
      "Ani_Avatar_NPC_SitHoldArmHand01Loop_Sync_0",
      "Ani_Avatar_NPC_SitHoldArmHand01AS_0",
      "Ani_Avatar_NPC_SitHoldArmHand01AS_Sync_0",
      "Ani_Avatar_NPC_SitHoldArm01Loop_0",
      "Ani_Avatar_NPC_SitHoldArm01Loop_Sync_0",
      "Ani_Avatar_NPC_SitHoldArm01AS_0",
      "Ani_Avatar_NPC_SitHoldArm01AS_Sync_0"
    ],
    "8061": [
      "Ani_Avatar_NPC_SitCrouch01BS_0",
      "Ani_Avatar_NPC_SitCrouch01Loop_0",
      "Ani_Avatar_NPC_SitCrouch01AS_0",
      "Ani_Avatar_NPC_SitPutArm01Loop_0",
      "Ani_Avatar_NPC_SitPutArm01AS_0"
    ],
    "1230": [
      "Ani_Avatar_NPC_Akimbo01BS_0",
      "Ani_Avatar_NPC_Akimbo01BS_Sync_0",
      "Ani_Avatar_NPC_Akimbo01Loop_0",
      "Ani_Avatar_NPC_Akimbo01Loop_Sync_0",
      "Ani_Avatar_NPC_Akimbo01AS_0",
      "Ani_Avatar_NPC_Akimbo01AS_Sync_0"
    ],
    "1040": [
      "Ani_Avatar_NPC_Backrake01BS_0",
      "Ani_Avatar_NPC_Backrake01BS_Sync_0",
      "Ani_Avatar_NPC_Backrake01Loop_0",
      "Ani_Avatar_NPC_Backrake01Loop_Sync_0",
      "Ani_Avatar_NPC_Backrake01AS_0",
      "Ani_Avatar_NPC_Backrake01AS_Sync_0"
    ],
    "1050": [
      "Ani_Avatar_NPC_Confuse01BS_0",
      "Ani_Avatar_NPC_Confuse01BS_Sync_0",
      "Ani_Avatar_NPC_Confuse01Loop_0",
      "Ani_Avatar_NPC_Confuse01Loop_Sync_0",
      "Ani_Avatar_NPC_Confuse01AS_0",
      "Ani_Avatar_NPC_Confuse01AS_Sync_0"
    ],
    "1060": [
      "Ani_Avatar_NPC_Forerake01BS_0",
      "Ani_Avatar_NPC_Forerake01BS_Sync_0",
      "Ani_Avatar_NPC_Forerake01Loop_0",
      "Ani_Avatar_NPC_Forerake01Loop_Sync_0",
      "Ani_Avatar_NPC_Forerake01AS_0",
      "Ani_Avatar_NPC_Forerake01AS_Sync_0"
    ],
    "1070": [
      "Ani_Avatar_NPC_Afraid01BS_0",
      "Ani_Avatar_NPC_Afraid01Loop_0",
      "Ani_Avatar_NPC_Afraid01AS_0"
    ],
    "1080": [
      "Ani_Avatar_NPC_Alert01BS_0",
      "Ani_Avatar_NPC_Alert01BS_Sync_0",
      "Ani_Avatar_NPC_Alert01Loop_0",
      "Ani_Avatar_NPC_Alert01Loop_Sync_0",
      "Ani_Avatar_NPC_Alert01AS_0",
      "Ani_Avatar_NPC_Alert01AS_Sync_0"
    ],
    "1090": [
      "Ani_Avatar_NPC_Shy01BS_0",
      "Ani_Avatar_NPC_Shy01BS_Sync_0",
      "Ani_Avatar_NPC_Shy01Loop_0",
      "Ani_Avatar_NPC_Shy01Loop_Sync_0",
      "Ani_Avatar_NPC_Shy01AS_0",
      "Ani_Avatar_NPC_Shy01AS_Sync_0"
    ],
    "1110": [
      "Ani_Avatar_NPC_Shrug01BS_0",
      "Ani_Avatar_NPC_Shrug01BS_Sync_0",
      "Ani_Avatar_NPC_Shrug01Loop_0",
      "Ani_Avatar_NPC_Shrug01Loop_Sync_0",
      "Ani_Avatar_NPC_Shrug01AS_0",
      "Ani_Avatar_NPC_Shrug01AS_Sync_0"
    ],
    "1120": [
      "Ani_Avatar_NPC_HoldArm01BS_0",
      "Ani_Avatar_NPC_HoldArm01BS_Sync_0",
      "Ani_Avatar_NPC_HoldArm01Loop_0",
      "Ani_Avatar_NPC_HoldArm01Loop_Sync_0",
      "Ani_Avatar_NPC_HoldArm01AS_0",
      "Ani_Avatar_NPC_HoldArm01AS_Sync_0"
    ],
    "1130": [
      "Ani_Avatar_NPC_StrikeChest01BS_0",
      "Ani_Avatar_NPC_StrikeChest01BS_Sync_0",
      "Ani_Avatar_NPC_StrikeChest01Loop_0",
      "Ani_Avatar_NPC_StrikeChest01Loop_Sync_0",
      "Ani_Avatar_NPC_StrikeChest01AS_0",
      "Ani_Avatar_NPC_StrikeChest01AS_Sync_0"
    ],
    "1150": [
      "Ani_Avatar_NPC_Refuse01_0",
      "Ani_Avatar_NPC_Refuse01_Sync_0"
    ],
    "1160": [
      "Ani_Avatar_NPC_Downcast01BS_0",
      "Ani_Avatar_NPC_Downcast01BS_Sync_0",
      "Ani_Avatar_NPC_Downcast01Loop_0",
      "Ani_Avatar_NPC_Downcast01Loop_Sync_0",
      "Ani_Avatar_NPC_Downcast01AS_0",
      "Ani_Avatar_NPC_Downcast01AS_Sync_0"
    ],
    "1170": [
      "Ani_Avatar_NPC_Chat01BS_0",
      "Ani_Avatar_NPC_Chat01Loop_0",
      "Ani_Avatar_NPC_Chat01AS_0"
    ],
    "1180": [
      "Ani_Avatar_NPC_Chat02BS_0",
      "Ani_Avatar_NPC_Chat02Loop_0",
      "Ani_Avatar_NPC_Chat02AS_0"
    ],
    "1190": [
      "Ani_Avatar_NPC_Think01BS_0",
      "Ani_Avatar_NPC_Think01BS_Sync_0",
      "Ani_Avatar_NPC_Think01Loop_0",
      "Ani_Avatar_NPC_Think01Loop_Sync_0",
      "Ani_Avatar_NPC_Think01AS_0",
      "Ani_Avatar_NPC_Think01AS_Sync_0"
    ],
    "9030": [],
    "9040": [],
    "1140": [
      "Ani_Avatar_NPC_PointR01BS_0",
      "Ani_Avatar_NPC_PointR01BS_Sync_0",
      "Ani_Avatar_NPC_PointR01Loop_0",
      "Ani_Avatar_NPC_PointR01Loop_Sync_0",
      "Ani_Avatar_NPC_PointR01AS_0",
      "Ani_Avatar_NPC_PointR01AS_Sync_0"
    ],
    "1200": [
      "Ani_Avatar_NPC_Greet01_0",
      "Ani_Avatar_NPC_Greet01_Sync_0"
    ],
    "1220": [
      "Ani_Avatar_NPC_Akimbo02BS_0",
      "Ani_Avatar_NPC_Akimbo02BS_Sync_0",
      "Ani_Avatar_NPC_Akimbo02Loop_0",
      "Ani_Avatar_NPC_Akimbo02Loop_Sync_0",
      "Ani_Avatar_NPC_Akimbo02AS_0",
      "Ani_Avatar_NPC_Akimbo02AS_Sync_0"
    ],
    "1210": [
      "Ani_Avatar_NPC_SaluteMengde01BS_0",
      "Ani_Avatar_NPC_SaluteMengde01Loop_0",
      "Ani_Avatar_NPC_SaluteMengde01AS_0"
    ],
    "1240": [
      "Ani_Avatar_NPC_HoldHead01BS_0",
      "Ani_Avatar_NPC_HoldHead01BS_Sync_0",
      "Ani_Avatar_NPC_HoldHead01Loop_0",
      "Ani_Avatar_NPC_HoldHead01Loop_Sync_0",
      "Ani_Avatar_NPC_HoldHead01AS_0",
      "Ani_Avatar_NPC_HoldHead01AS_Sync_0"
    ],
    "1030": [
      "Ani_Avatar_NPC_PutHand01BS_0",
      "Ani_Avatar_NPC_PutHand01BS_Sync_0",
      "Ani_Avatar_NPC_PutHand01Loop_0",
      "Ani_Avatar_NPC_PutHand01Loop_Sync_0",
      "Ani_Avatar_NPC_PutHand01AS_0",
      "Ani_Avatar_NPC_PutHand01AS_Sync_0"
    ],
    "8010": [],
    "8020": [],
    "1141": [
      "Ani_Avatar_NPC_PointF01BS_0",
      "Ani_Avatar_NPC_PointF01BS_Sync_0",
      "Ani_Avatar_NPC_PointF01Loop_0",
      "Ani_Avatar_NPC_PointF01Loop_Sync_0",
      "Ani_Avatar_NPC_PointF01AS_0",
      "Ani_Avatar_NPC_PointF01AS_Sync_0"
    ],
    "1142": [
      "Ani_Avatar_NPC_PointL01BS_0",
      "Ani_Avatar_NPC_PointL01BS_Sync_0",
      "Ani_Avatar_NPC_PointL01Loop_0",
      "Ani_Avatar_NPC_PointL01Loop_Sync_0",
      "Ani_Avatar_NPC_PointL01AS_0",
      "Ani_Avatar_NPC_PointL01AS_Sync_0"
    ],
    "1171": [
      "Ani_Avatar_NPC_Talk01_0",
      "Ani_Avatar_NPC_Talk01_Sync_0"
    ],
    "1172": [
      "Ani_Avatar_NPC_Talk02_0",
      "Ani_Avatar_NPC_Talk02_Sync_0"
    ],
    "1173": [
      "Ani_Avatar_NPC_Talk03_0",
      "Ani_Avatar_NPC_Talk03_Sync_0"
    ],
    "1250": [
      "Ani_Avatar_NPC_Request01BS_0",
      "Ani_Avatar_NPC_Request01Loop_0",
      "Ani_Avatar_NPC_Request01AS_0"
    ],
    "1260": [
      "Ani_Avatar_NPC_Clap01_0",
      "Ani_Avatar_NPC_Clap01_Sync_0"
    ],
    "1270": [
      "Ani_Avatar_NPC_Cheer01BS_0",
      "Ani_Avatar_NPC_Cheer01Loop_0",
      "Ani_Avatar_NPC_Cheer01AS_0"
    ],
    "1280": [
      "Ani_Avatar_NPC_Investigate01BS_0",
      "Ani_Avatar_NPC_Investigate01BS_Sync_0",
      "Ani_Avatar_NPC_Investigate01Loop_0",
      "Ani_Avatar_NPC_Investigate01Loop_Sync_0",
      "Ani_Avatar_NPC_Investigate01AS_0",
      "Ani_Avatar_NPC_Investigate01AS_Sync_0"
    ],
    "1290": [
      "Ani_Avatar_NPC_Laugh01_0",
      "Ani_Avatar_NPC_Laugh01_Sync_0"
    ],
    "1300": [
      "Ani_Avatar_NPC_Encourage01_0",
      "Ani_Avatar_NPC_Encourage01_Sync_0"
    ],
    "1310": [
      "Ani_Avatar_NPC_Dusting01_0"
    ],
    "4503": [
      "Ani_Avatar_Claymore_WeaponStandby_0"
    ],
    "1342": [
      "Ani_Avatar_Channel01BS_0",
      "Ani_Avatar_Claymore_Channel01BS_Sync_0",
      "Ani_Avatar_Channel01Loop_0",
      "Ani_Avatar_Claymore_Channel01Loop_Sync_0",
      "Ani_Avatar_Channel01AS_0",
      "Ani_Avatar_Claymore_Channel01AS_Sync_0"
    ],
    "133002": [
      "Ani_Avatar_NPC_PersonalRead01BS_0",
      "Ani_Avatar_NPC_PersonalRead01Loop_0",
      "Ani_Avatar_NPC_PersonalRead01AS_0"
    ],
    "1343": [],
    "4600": [],
    "1340": []
  },
  "stateAnimeMap": {
    "Ani_Avatar_NPC_Akimbo01BS_0": 17808563838262250903,
    "Ani_Avatar_NPC_Akimbo01BS_Sync_0": 2008342774476118311,
    "Ani_Avatar_NPC_Akimbo01Loop_0": 3698990100384912758,
    "Ani_Avatar_NPC_Akimbo01Loop_Sync_0": 763953191831098050,
    "Ani_Avatar_NPC_Akimbo01AS_0": 17231282099813686918,
    "Ani_Avatar_NPC_Akimbo01AS_Sync_0": 2933303820596628108,
    "Ani_Avatar_NPC_Backrake01BS_0": 10541301572794611904,
    "Ani_Avatar_NPC_Backrake01BS_Sync_0": 1402437702442671462,
    "Ani_Avatar_NPC_Backrake01Loop_0": 17851746432415068884,
    "Ani_Avatar_NPC_Backrake01Loop_Sync_0": 1369668638442557157,
    "Ani_Avatar_NPC_Backrake01AS_0": 15979133594291744427,
    "Ani_Avatar_NPC_Backrake01AS_Sync_0": 9318233041093061009,
    "Ani_Avatar_NPC_Confuse01BS_0": 16825985772937717983,
    "Ani_Avatar_NPC_Confuse01BS_Sync_0": 10262840018559053329,
    "Ani_Avatar_NPC_Confuse01Loop_0": 14322486160117559263,
    "Ani_Avatar_NPC_Confuse01Loop_Sync_0": 16662579194679227934,
    "Ani_Avatar_NPC_Confuse01AS_0": 5862776028816915474,
    "Ani_Avatar_NPC_Confuse01AS_Sync_0": 16904928336766575278,
    "Ani_Avatar_NPC_Forerake01BS_0": 10372470894623871992,
    "Ani_Avatar_NPC_Forerake01BS_Sync_0": 17017632092442352122,
    "Ani_Avatar_NPC_Forerake01Loop_0": 10944675270973061941,
    "Ani_Avatar_NPC_Forerake01Loop_Sync_0": 2110998596524290125,
    "Ani_Avatar_NPC_Forerake01AS_0": 1878485755215805895,
    "Ani_Avatar_NPC_Forerake01AS_Sync_0": 4980648964235220885,
    "Ani_Avatar_NPC_Afraid01BS_0": 5919571007522644361,
    "Ani_Avatar_NPC_Afraid01Loop_0": 16140323329418155251,
    "Ani_Avatar_NPC_Afraid01AS_0": 5108029159097340126,
    "Ani_Avatar_NPC_Alert01BS_0": 11947342516082398809,
    "Ani_Avatar_NPC_Alert01BS_Sync_0": 2070921550152889231,
    "Ani_Avatar_NPC_Alert01Loop_0": 7999215008345676699,
    "Ani_Avatar_NPC_Alert01Loop_Sync_0": 10038975602811548859,
    "Ani_Avatar_NPC_Alert01AS_0": 3093315304569279358,
    "Ani_Avatar_NPC_Alert01AS_Sync_0": 10479428115600441235,
    "Ani_Avatar_NPC_Shy01BS_0": 9961865173928422733,
    "Ani_Avatar_NPC_Shy01BS_Sync_0": 12207220434640501439,
    "Ani_Avatar_NPC_Shy01Loop_0": 4041581189663958796,
    "Ani_Avatar_NPC_Shy01Loop_Sync_0": 1843893842648899771,
    "Ani_Avatar_NPC_Shy01AS_0": 7649532895684221791,
    "Ani_Avatar_NPC_Shy01AS_Sync_0": 12973588771759126771,
    "Ani_Avatar_NPC_Shrug01BS_0": 16806136975575635866,
    "Ani_Avatar_NPC_Shrug01BS_Sync_0": 4162439435055724162,
    "Ani_Avatar_NPC_Shrug01Loop_0": 15451686239166989946,
    "Ani_Avatar_NPC_Shrug01Loop_Sync_0": 7144182580699950829,
    "Ani_Avatar_NPC_Shrug01AS_0": 16760501205338179306,
    "Ani_Avatar_NPC_Shrug01AS_Sync_0": 2031997887873416905,
    "Ani_Avatar_NPC_HoldArm01BS_0": 17093605301484238355,
    "Ani_Avatar_NPC_HoldArm01BS_Sync_0": 4646590809157165639,
    "Ani_Avatar_NPC_HoldArm01Loop_0": 6194030211062479584,
    "Ani_Avatar_NPC_HoldArm01Loop_Sync_0": 853883422640278760,
    "Ani_Avatar_NPC_HoldArm01AS_0": 1813075382803065542,
    "Ani_Avatar_NPC_HoldArm01AS_Sync_0": 9509239818944261239,
    "Ani_Avatar_NPC_StrikeChest01BS_0": 14922601239525796892,
    "Ani_Avatar_NPC_StrikeChest01BS_Sync_0": 5630480143124981396,
    "Ani_Avatar_NPC_StrikeChest01Loop_0": 17650358728252941721,
    "Ani_Avatar_NPC_StrikeChest01Loop_Sync_0": 6436734704865111966,
    "Ani_Avatar_NPC_StrikeChest01AS_0": 16613496432812205125,
    "Ani_Avatar_NPC_StrikeChest01AS_Sync_0": 2444031862592204702,
    "Ani_Avatar_NPC_Refuse01_0": 5802797809675852601,
    "Ani_Avatar_NPC_Refuse01_Sync_0": 5900033310479893056,
    "Ani_Avatar_NPC_Downcast01BS_0": 3016140030360198665,
    "Ani_Avatar_NPC_Downcast01BS_Sync_0": 10101155048072574432,
    "Ani_Avatar_NPC_Downcast01AS_0": 16487625481055186522,
    "Ani_Avatar_NPC_Downcast01AS_Sync_0": 2105459705041896908,
    "Ani_Avatar_NPC_Downcast01Loop_0": 4517546540247200367,
    "Ani_Avatar_NPC_Downcast01Loop_Sync_0": 14336961428439387747,
    "Ani_Avatar_NPC_Chat01BS_0": 10544371832341776162,
    "Ani_Avatar_NPC_Chat01Loop_0": 17969213660672431327,
    "Ani_Avatar_NPC_Chat01AS_0": 17332028244544208519,
    "Ani_Avatar_NPC_Chat02BS_0": 6193289113049372972,
    "Ani_Avatar_NPC_Chat02AS_0": 5618997472169333350,
    "Ani_Avatar_NPC_Chat02Loop_0": 13117115527499436123,
    "Ani_Avatar_NPC_Think01BS_0": 10702816432768187363,
    "Ani_Avatar_NPC_Think01BS_Sync_0": 7047108329740846158,
    "Ani_Avatar_NPC_Think01Loop_0": 2129849238023720320,
    "Ani_Avatar_NPC_Think01Loop_Sync_0": 14843801971919422785,
    "Ani_Avatar_NPC_Think01AS_0": 2177979098496024738,
    "Ani_Avatar_NPC_Think01AS_Sync_0": 9565024692723351027,
    "Ani_Avatar_NPC_PointR01BS_0": 18338399901394187061,
    "Ani_Avatar_NPC_PointR01BS_Sync_0": 18344771184016667356,
    "Ani_Avatar_NPC_PointR01Loop_0": 17048663202693339122,
    "Ani_Avatar_NPC_PointR01Loop_Sync_0": 12872398647715013187,
    "Ani_Avatar_NPC_PointR01AS_0": 3960469674015953513,
    "Ani_Avatar_NPC_PointR01AS_Sync_0": 4318291351222763187,
    "Ani_Avatar_NPC_Greet01_0": 7820351069042579524,
    "Ani_Avatar_NPC_Greet01_Sync_0": 11359064853284178927,
    "Ani_Avatar_NPC_AkimboHand01BS_0": 4724428577586130788,
    "Ani_Avatar_NPC_AkimboHand01BS_Sync_0": 4427467399620761160,
    "Ani_Avatar_NPC_AkimboHand01Loop_0": 5382625325982941049,
    "Ani_Avatar_NPC_AkimboHand01Loop_Sync_0": 15886447215046761393,
    "Ani_Avatar_NPC_AkimboHand01AS_0": 1290942189728818014,
    "Ani_Avatar_NPC_AkimboHand01AS_Sync_0": 2279396793562535367,
    "Ani_Avatar_NPC_Akimbo02BS_0": 3917820622504503976,
    "Ani_Avatar_NPC_Akimbo02BS_Sync_0": 1683791274805238561,
    "Ani_Avatar_NPC_Akimbo02Loop_0": 2830221956127583306,
    "Ani_Avatar_NPC_Akimbo02Loop_Sync_0": 6835010894034286543,
    "Ani_Avatar_NPC_Akimbo02AS_0": 14049918462833621321,
    "Ani_Avatar_NPC_Akimbo02AS_Sync_0": 15560454561057332126,
    "Ani_Avatar_NPC_HoldArmHand01BS_0": 461812467861540165,
    "Ani_Avatar_NPC_HoldArmHand01BS_Sync_0": 90046095816457801,
    "Ani_Avatar_NPC_HoldArmHand01Loop_0": 5595527951911308988,
    "Ani_Avatar_NPC_HoldArmHand01Loop_Sync_0": 15466586547203199781,
    "Ani_Avatar_NPC_HoldArmHand01AS_0": 12548631340555500145,
    "Ani_Avatar_NPC_HoldArmHand01AS_Sync_0": 4060756523523460403,
    "Ani_Avatar_NPC_ThinkHand01BS_0": 3921681851626916138,
    "Ani_Avatar_NPC_ThinkHand01BS_Sync_0": 9653198146764575870,
    "Ani_Avatar_NPC_ThinkHand01Loop_0": 10950933107933844262,
    "Ani_Avatar_NPC_ThinkHand01Loop_Sync_0": 11182669287264835947,
    "Ani_Avatar_NPC_ThinkHand01AS_0": 118426546131643651,
    "Ani_Avatar_NPC_ThinkHand01AS_Sync_0": 12741186578649667538,
    "Ani_Avatar_NPC_AkimboHand02BS_0": 10667457411689929881,
    "Ani_Avatar_NPC_AkimboHand02BS_Sync_0": 64982995322575496,
    "Ani_Avatar_NPC_AkimboHand02AS_0": 5438593478066181355,
    "Ani_Avatar_NPC_AkimboHand02AS_Sync_0": 18016373437396117047,
    "Ani_Avatar_NPC_AkimboHand02Loop_0": 1215253095530864433,
    "Ani_Avatar_NPC_AkimboHand02Loop_Sync_0": 17333348316356907382,
    "Ani_Avatar_NPC_SaluteMengde01BS_0": 16025055723338215473,
    "Ani_Avatar_NPC_HoldHead01BS_0": 3671211971999795114,
    "Ani_Avatar_NPC_HoldHead01BS_Sync_0": 16208823298821543147,
    "Ani_Avatar_NPC_HoldHead01Loop_0": 17513417648005269961,
    "Ani_Avatar_NPC_HoldHead01Loop_Sync_0": 18401435655900490591,
    "Ani_Avatar_NPC_HoldHead01AS_0": 16840336586170293822,
    "Ani_Avatar_NPC_HoldHead01AS_Sync_0": 17391521541331347305,
    "Ani_Avatar_NPC_PutHand01BS_0": 10708705061107342757,
    "Ani_Avatar_NPC_PutHand01BS_Sync_0": 17773291002731425444,
    "Ani_Avatar_NPC_PutHand01Loop_0": 3167276611893355623,
    "Ani_Avatar_NPC_PutHand01Loop_Sync_0": 2043005812132175693,
    "Ani_Avatar_NPC_PutHand01AS_0": 7863968327219607263,
    "Ani_Avatar_NPC_PutHand01AS_Sync_0": 4009451653111223973,
    "Ani_Avatar_NPC_SaluteMengde01Loop_0": 8041053879500403015,
    "Ani_Avatar_NPC_SaluteMengde01AS_0": 4070098330587948583,
    "Ani_Avatar_NPC_SitCrouch01BS_0": 16377650867527407991,
    "Ani_Avatar_NPC_SitCrouch01Loop_0": 2104335253519582698,
    "Ani_Avatar_NPC_SitCrouch01AS_0": 11422202999520014270,
    "Ani_Avatar_NPC_SitWrite01BS_0": 11685458251476772801,
    "Ani_Avatar_NPC_SitWrite01Loop_0": 5787887012403168987,
    "Ani_Avatar_NPC_SitWrite01AS_0": 2107246607652567887,
    "Ani_Avatar_NPC_PointF01BS_0": 1502068314405378117,
    "Ani_Avatar_NPC_PointF01BS_Sync_0": 13823930793148276163,
    "Ani_Avatar_NPC_PointF01Loop_0": 1930762153072332943,
    "Ani_Avatar_NPC_PointF01Loop_Sync_0": 4230668204910335417,
    "Ani_Avatar_NPC_PointF01AS_0": 6688215028527780726,
    "Ani_Avatar_NPC_PointF01AS_Sync_0": 13312124238977554937,
    "Ani_Avatar_NPC_PointL01AS_0": 12948180242273430091,
    "Ani_Avatar_NPC_PointL01AS_Sync_0": 2155027746571345876,
    "Ani_Avatar_NPC_PointL01Loop_0": 10812944103398014260,
    "Ani_Avatar_NPC_PointL01Loop_Sync_0": 9670924667221779448,
    "Ani_Avatar_NPC_PointL01BS_0": 5437460205690976927,
    "Ani_Avatar_NPC_PointL01BS_Sync_0": 7687138963166290089,
    "Ani_Avatar_NPC_Talk01_0": 9540975369266547718,
    "Ani_Avatar_NPC_Talk01_Sync_0": 8306593398883288192,
    "Ani_Avatar_NPC_Talk02_0": 6447496390808125435,
    "Ani_Avatar_NPC_Talk02_Sync_0": 16585572246286334188,
    "Ani_Avatar_NPC_Talk03_0": 2199872620430507824,
    "Ani_Avatar_NPC_Talk03_Sync_0": 1323157431834927852,
    "Ani_Avatar_NPC_Request01BS_0": 2826673581370689991,
    "Ani_Avatar_NPC_Request01Loop_0": 5633701326608576861,
    "Ani_Avatar_NPC_Request01AS_0": 6299310106475775042,
    "Ani_Avatar_NPC_Clap01_0": 2462539563624645565,
    "Ani_Avatar_NPC_Clap01_Sync_0": 2562273771153262470,
    "Ani_Avatar_NPC_Cheer01BS_0": 7850706655445033247,
    "Ani_Avatar_NPC_Cheer01Loop_0": 7944607208050787803,
    "Ani_Avatar_NPC_Cheer01AS_0": 6908818964935966017,
    "Ani_Avatar_NPC_Investigate01BS_0": 9183443271303046901,
    "Ani_Avatar_NPC_Investigate01BS_Sync_0": 12871938459900083564,
    "Ani_Avatar_NPC_Investigate01Loop_0": 8053637901786458385,
    "Ani_Avatar_NPC_Investigate01Loop_Sync_0": 6147827850055605352,
    "Ani_Avatar_NPC_Investigate01AS_0": 16883245911650572960,
    "Ani_Avatar_NPC_Investigate01AS_Sync_0": 18274150474647679780,
    "Ani_Avatar_NPC_Laugh01_0": 4763790946361231747,
    "Ani_Avatar_NPC_Laugh01_Sync_0": 3222383194439836599,
    "Ani_Avatar_NPC_Encourage01_0": 4392172275753143126,
    "Ani_Avatar_NPC_Encourage01_Sync_0": 10937965903385272414,
    "Ani_Avatar_NPC_Dusting01_0": 16016546907284346176,
    "Ani_Avatar_NPC_SitHoldArm01BS_0": 7203237215697025650,
    "Ani_Avatar_NPC_SitHoldArm01BS_Sync_0": 5400526280444847206,
    "Ani_Avatar_NPC_SitHoldArm01Loop_0": 1530863151218984108,
    "Ani_Avatar_NPC_SitHoldArm01Loop_Sync_0": 1523809430977412622,
    "Ani_Avatar_NPC_SitHoldArm01AS_0": 5032155922292631097,
    "Ani_Avatar_NPC_SitHoldArm01AS_Sync_0": 11328488630837655557,
    "Ani_Avatar_NPC_SitHoldArmHand01BS_0": 2697517464634689899,
    "Ani_Avatar_NPC_SitHoldArmHand01BS_Sync_0": 6916731889062825884,
    "Ani_Avatar_NPC_SitHoldArmHand01Loop_0": 7901661565080280533,
    "Ani_Avatar_NPC_SitHoldArmHand01Loop_Sync_0": 16413148134829417263,
    "Ani_Avatar_NPC_SitHoldArmHand01AS_0": 5099273143024645464,
    "Ani_Avatar_NPC_SitHoldArmHand01AS_Sync_0": 1180297278318252457,
    "Ani_Avatar_NPC_SitShrug01BS_0": 18012543257860463999,
    "Ani_Avatar_NPC_SitShrug01BS_Sync_0": 9670339246105377419,
    "Ani_Avatar_NPC_SitShrug01Loop_0": 7685905376183659032,
    "Ani_Avatar_NPC_SitShrug01Loop_Sync_0": 5985124030085834125,
    "Ani_Avatar_NPC_SitShrug01AS_0": 8076551927708502423,
    "Ani_Avatar_NPC_SitShrug01AS_Sync_0": 16103139688429165916,
    "Ani_Avatar_NPC_SitThink01AS_0": 6342589349718439430,
    "Ani_Avatar_NPC_SitThink01AS_Sync_0": 13793845767454123035,
    "Ani_Avatar_NPC_SitThink01Loop_0": 3140317074149009586,
    "Ani_Avatar_NPC_SitThink01Loop_Sync_0": 2710289555578203680,
    "Ani_Avatar_NPC_SitThink01BS_0": 17971500871652460375,
    "Ani_Avatar_NPC_SitThink01BS_Sync_0": 8423174083886639291,
    "Ani_Avatar_NPC_SitChat01BS_0": 5703001016424349310,
    "Ani_Avatar_NPC_SitChat01BS_Sync_0": 2996702707132838510,
    "Ani_Avatar_NPC_SitChat01Loop_0": 6015520269550301143,
    "Ani_Avatar_NPC_SitChat01Loop_Sync_0": 4238319962764623452,
    "Ani_Avatar_NPC_SitChat01AS_0": 4599467693686570190,
    "Ani_Avatar_NPC_SitChat01AS_Sync_0": 641560207459442571,
    "Ani_Avatar_NPC_SitPutArm01AS_0": 1534472885200781678,
    "Ani_Avatar_NPC_SitPutArm01Loop_0": 7488374744401222076,
    "Ani_Avatar_NPC_SitPutArm01BS_0": 5251557896352250162,
    "Ani_Avatar_Claymore_WeaponStandby_0": 18144611884920624643,
    "Ani_Avatar_Channel01BS_0": 17716834562657040573,
    "Ani_Avatar_Claymore_Channel01BS_Sync_0": 17655372447646621200,
    "Ani_Avatar_Channel01Loop_0": 4049080772741828837,
    "Ani_Avatar_Claymore_Channel01Loop_Sync_0": 5515933873673115554,
    "Ani_Avatar_Channel01AS_0": 14938924386977001243,
    "Ani_Avatar_Claymore_Channel01AS_Sync_0": 6894123836709240895,
    "Ani_Avatar_NPC_PersonalRead01BS_0": 4177112113144078247,
    "Ani_Avatar_NPC_PersonalRead01AS_0": 6103553323604167264,
    "Ani_Avatar_NPC_PersonalRead01Loop_0": 17759036613520653774,
    "Ani_Avatar_NPC_SitSpecial02AS_0": 8852837881756154874,
    "Ani_Avatar_NPC_SitSpecial02AS_Sync_0": 2036297856608194350,
    "Ani_Avatar_NPC_SitSpecial02BS_0": 12036186459982447420,
    "Ani_Avatar_NPC_SitSpecial02BS_Sync_0": 1951044925170783249,
    "Ani_Avatar_NPC_SitSpecial02Loop_0": 15076471133230556871,
    "Ani_Avatar_NPC_SitSpecial02Loop_Sync_0": 15381403447808781065
  }
}