{
  "freeStyleStateMap": {
    "10100": [],
    "10101": [],
    "10201": [],
    "10301": [],
    "10401": [],
    "10501": [],
    "10601": [],
    "10701": [],
    "10801": [],
    "1231": [
      "Ani_Avatar_NPC_AkimboHand01BS_0",
      "Ani_Avatar_NPC_AkimboHand01BS_Sync_0",
      "Ani_Avatar_NPC_AkimboHand01Loop_0",
      "Ani_Avatar_NPC_AkimboHand01Loop_Sync_0",
      "Ani_Avatar_NPC_AkimboHand01AS_0",
      "Ani_Avatar_NPC_AkimboHand01AS_Sync_0",
      "Ani_Avatar_NPC_Akimbo01Loop_0",
      "Ani_Avatar_NPC_Akimbo01Loop_Sync_0",
      "Ani_Avatar_NPC_Akimbo01AS_0",
      "Ani_Avatar_NPC_Akimbo01AS_Sync_0"
    ],
    "1121": [
      "Ani_Avatar_NPC_HoldArmHand01BS_0",
      "Ani_Avatar_NPC_HoldArmHand01BS_Sync_0",
      "Ani_Avatar_NPC_HoldArmHand01Loop_0",
      "Ani_Avatar_NPC_HoldArmHand01Loop_Sync_0",
      "Ani_Avatar_NPC_HoldArmHand01AS_0",
      "Ani_Avatar_NPC_HoldArmHand01AS_Sync_0",
      "Ani_Avatar_NPC_HoldArm01Loop_0",
      "Ani_Avatar_NPC_HoldArm01Loop_Sync_0",
      "Ani_Avatar_NPC_HoldArm01AS_0",
      "Ani_Avatar_NPC_HoldArm01AS_Sync_0"
    ],
    "1191": [
      "Ani_Avatar_NPC_ThinkHand01BS_0",
      "Ani_Avatar_NPC_ThinkHand01BS_Sync_0",
      "Ani_Avatar_NPC_ThinkHand01Loop_0",
      "Ani_Avatar_NPC_ThinkHand01Loop_Sync_0",
      "Ani_Avatar_NPC_ThinkHand01AS_0",
      "Ani_Avatar_NPC_ThinkHand01AS_Sync_0",
      "Ani_Avatar_NPC_Think01Loop_0",
      "Ani_Avatar_NPC_Think01Loop_Sync_0",
      "Ani_Avatar_NPC_Think01AS_0",
      "Ani_Avatar_NPC_Think01AS_Sync_0"
    ],
    "1221": [
      "Ani_Avatar_NPC_AkimboHand02BS_0",
      "Ani_Avatar_NPC_AkimboHand02BS_Sync_0",
      "Ani_Avatar_NPC_AkimboHand02Loop_0",
      "Ani_Avatar_NPC_AkimboHand02Loop_Sync_0",
      "Ani_Avatar_NPC_AkimboHand02AS_0",
      "Ani_Avatar_NPC_AkimboHand02AS_Sync_0",
      "Ani_Avatar_NPC_Akimbo02Loop_0",
      "Ani_Avatar_NPC_Akimbo02Loop_Sync_0",
      "Ani_Avatar_NPC_Akimbo02AS_0",
      "Ani_Avatar_NPC_Akimbo02AS_Sync_0"
    ],
    "8040": [
      "Ani_Avatar_NPC_SitHoldArm01BS_0",
      "Ani_Avatar_NPC_SitHoldArm01BS_Sync_0",
      "Ani_Avatar_NPC_SitHoldArm01Loop_0",
      "Ani_Avatar_NPC_SitHoldArm01Loop_Sync_0",
      "Ani_Avatar_NPC_SitHoldArm01AS_0",
      "Ani_Avatar_NPC_SitHoldArm01AS_Sync_0"
    ],
    "8012": [
      "Ani_Avatar_NPC_SitShrug01BS_0",
      "Ani_Avatar_NPC_SitShrug01BS_Sync_0",
      "Ani_Avatar_NPC_SitShrug01Loop_0",
      "Ani_Avatar_NPC_SitShrug01Loop_Sync_0",
      "Ani_Avatar_NPC_SitShrug01AS_0",
      "Ani_Avatar_NPC_SitShrug01AS_Sync_0"
    ],
    "8013": [
      "Ani_Avatar_NPC_SitThink01BS_0",
      "Ani_Avatar_NPC_SitThink01BS_Sync_0",
      "Ani_Avatar_NPC_SitThink01Loop_0",
      "Ani_Avatar_NPC_SitThink01Loop_Sync_0",
      "Ani_Avatar_NPC_SitThink01AS_0",
      "Ani_Avatar_NPC_SitThink01AS_Sync_0"
    ],
    "8011": [
      "Ani_Avatar_NPC_SitChat01BS_0",
      "Ani_Avatar_NPC_SitChat01BS_Sync_0",
      "Ani_Avatar_NPC_SitChat01Loop_0",
      "Ani_Avatar_NPC_SitChat01Loop_Sync_0",
      "Ani_Avatar_NPC_SitChat01AS_0",
      "Ani_Avatar_NPC_SitChat01AS_Sync_0"
    ],
    "8060": [
      "Ani_Avatar_NPC_SitPutArm01BS_0",
      "Ani_Avatar_NPC_SitPutArm01Loop_0",
      "Ani_Avatar_NPC_SitPutArm01AS_0"
    ],
    "8041": [
      "Ani_Avatar_NPC_SitHoldArmHand01BS_0",
      "Ani_Avatar_NPC_SitHoldArmHand01BS_Sync_0",
      "Ani_Avatar_NPC_SitHoldArmHand01Loop_0",
      "Ani_Avatar_NPC_SitHoldArmHand01Loop_Sync_0",
      "Ani_Avatar_NPC_SitHoldArmHand01AS_0",
      "Ani_Avatar_NPC_SitHoldArmHand01AS_Sync_0",
      "Ani_Avatar_NPC_SitHoldArm01Loop_0",
      "Ani_Avatar_NPC_SitHoldArm01Loop_Sync_0",
      "Ani_Avatar_NPC_SitHoldArm01AS_0",
      "Ani_Avatar_NPC_SitHoldArm01AS_Sync_0"
    ],
    "8065": [
      "Ani_Avatar_NPC_SitHoldHead01BS_0",
      "Ani_Avatar_NPC_SitHoldHead01Loop_0",
      "Ani_Avatar_NPC_SitHoldHead01AS_0",
      "Ani_Avatar_NPC_SitPutArm01Loop_0",
      "Ani_Avatar_NPC_SitPutArm01AS_0"
    ],
    "1230": [
      "Ani_Avatar_NPC_Akimbo01BS_0",
      "Ani_Avatar_NPC_Akimbo01BS_Sync_0",
      "Ani_Avatar_NPC_Akimbo01Loop_0",
      "Ani_Avatar_NPC_Akimbo01Loop_Sync_0",
      "Ani_Avatar_NPC_Akimbo01AS_0",
      "Ani_Avatar_NPC_Akimbo01AS_Sync_0"
    ],
    "1040": [
      "Ani_Avatar_NPC_Backrake01BS_0",
      "Ani_Avatar_NPC_Backrake01BS_Sync_0",
      "Ani_Avatar_NPC_Backrake01Loop_0",
      "Ani_Avatar_NPC_Backrake01Loop_Sync_0",
      "Ani_Avatar_NPC_Backrake01AS_0",
      "Ani_Avatar_NPC_Backrake01AS_Sync_0"
    ],
    "1050": [
      "Ani_Avatar_NPC_Confuse01BS_0",
      "Ani_Avatar_NPC_Confuse01BS_Sync_0",
      "Ani_Avatar_NPC_Confuse01Loop_0",
      "Ani_Avatar_NPC_Confuse01Loop_Sync_0",
      "Ani_Avatar_NPC_Confuse01AS_0",
      "Ani_Avatar_NPC_Confuse01AS_Sync_0"
    ],
    "1060": [
      "Ani_Avatar_NPC_Forerake01BS_0",
      "Ani_Avatar_NPC_Forerake01BS_Sync_0",
      "Ani_Avatar_NPC_Forerake01Loop_0",
      "Ani_Avatar_NPC_Forerake01Loop_Sync_0",
      "Ani_Avatar_NPC_Forerake01AS_0",
      "Ani_Avatar_NPC_Forerake01AS_Sync_0"
    ],
    "1070": [
      "Ani_Avatar_NPC_Afraid01BS_0",
      "Ani_Avatar_NPC_Afraid01Loop_0",
      "Ani_Avatar_NPC_Afraid01AS_0"
    ],
    "1080": [
      "Ani_Avatar_NPC_Alert01BS_0",
      "Ani_Avatar_NPC_Alert01BS_Sync_0",
      "Ani_Avatar_NPC_Alert01Loop_0",
      "Ani_Avatar_NPC_Alert01Loop_Sync_0",
      "Ani_Avatar_NPC_Alert01AS_0",
      "Ani_Avatar_NPC_Alert01AS_Sync_0"
    ],
    "1090": [
      "Ani_Avatar_NPC_Shy01BS_0",
      "Ani_Avatar_NPC_Shy01BS_Sync_0",
      "Ani_Avatar_NPC_Shy01Loop_0",
      "Ani_Avatar_NPC_Shy01Loop_Sync_0",
      "Ani_Avatar_NPC_Shy01AS_0",
      "Ani_Avatar_NPC_Shy01AS_Sync_0"
    ],
    "1110": [
      "Ani_Avatar_NPC_Shrug01BS_0",
      "Ani_Avatar_NPC_Shrug01BS_Sync_0",
      "Ani_Avatar_NPC_Shrug01Loop_0",
      "Ani_Avatar_NPC_Shrug01Loop_Sync_0",
      "Ani_Avatar_NPC_Shrug01AS_0",
      "Ani_Avatar_NPC_Shrug01AS_Sync_0"
    ],
    "1120": [
      "Ani_Avatar_NPC_HoldArm01BS_0",
      "Ani_Avatar_NPC_HoldArm01BS_Sync_0",
      "Ani_Avatar_NPC_HoldArm01Loop_0",
      "Ani_Avatar_NPC_HoldArm01Loop_Sync_0",
      "Ani_Avatar_NPC_HoldArm01AS_0",
      "Ani_Avatar_NPC_HoldArm01AS_Sync_0"
    ],
    "1130": [
      "Ani_Avatar_NPC_StrikeChest01BS_0",
      "Ani_Avatar_NPC_StrikeChest01BS_Sync_0",
      "Ani_Avatar_NPC_StrikeChest01Loop_0",
      "Ani_Avatar_NPC_StrikeChest01Loop_Sync_0",
      "Ani_Avatar_NPC_StrikeChest01AS_0",
      "Ani_Avatar_NPC_StrikeChest01AS_Sync_0"
    ],
    "1150": [
      "Ani_Avatar_NPC_Refuse01_0",
      "Ani_Avatar_NPC_Refuse01_Sync_0"
    ],
    "1160": [
      "Ani_Avatar_NPC_Downcast01BS_0",
      "Ani_Avatar_NPC_Downcast01BS_Sync_0",
      "Ani_Avatar_NPC_Downcast01Loop_0",
      "Ani_Avatar_NPC_Downcast01Loop_Sync_0",
      "Ani_Avatar_NPC_Downcast01AS_0",
      "Ani_Avatar_NPC_Downcast01AS_Sync_0"
    ],
    "1170": [
      "Ani_Avatar_NPC_Chat01BS_0",
      "Ani_Avatar_NPC_Chat01BS_Sync_0",
      "Ani_Avatar_NPC_Chat01Loop_0",
      "Ani_Avatar_NPC_Chat01Loop_Sync_0",
      "Ani_Avatar_NPC_Chat01AS_0",
      "Ani_Avatar_NPC_Chat01AS_Sync_0"
    ],
    "1180": [
      "Ani_Avatar_NPC_Chat02BS_0",
      "Ani_Avatar_NPC_Chat02BS_Sync_0",
      "Ani_Avatar_NPC_Chat02Loop_0",
      "Ani_Avatar_NPC_Chat02Loop_Sync_0",
      "Ani_Avatar_NPC_Chat02AS_0",
      "Ani_Avatar_NPC_Chat02AS_Sync_0"
    ],
    "1190": [
      "Ani_Avatar_NPC_Think01BS_0",
      "Ani_Avatar_NPC_Think01BS_Sync_0",
      "Ani_Avatar_NPC_Think01Loop_0",
      "Ani_Avatar_NPC_Think01Loop_Sync_0",
      "Ani_Avatar_NPC_Think01AS_0",
      "Ani_Avatar_NPC_Think01AS_Sync_0"
    ],
    "9030": [],
    "9040": [],
    "1140": [
      "Ani_Avatar_NPC_PointR01BS_0",
      "Ani_Avatar_NPC_PointR01BS_Sync_0",
      "Ani_Avatar_NPC_PointR01Loop_0",
      "Ani_Avatar_NPC_PointR01Loop_Sync_0",
      "Ani_Avatar_NPC_PointR01AS_0",
      "Ani_Avatar_NPC_PointR01AS_Sync_0"
    ],
    "1210": [
      "Ani_Avatar_NPC_SaluteMengde01BS_0",
      "Ani_Avatar_NPC_SaluteMengde01Loop_0",
      "Ani_Avatar_NPC_SaluteMengde01AS_0"
    ],
    "1200": [
      "Ani_Avatar_NPC_Greet01_0",
      "Ani_Avatar_NPC_Greet01_Sync_0"
    ],
    "1240": [
      "Ani_Avatar_NPC_HoldHead01BS_0",
      "Ani_Avatar_NPC_HoldHead01BS_Sync_0",
      "Ani_Avatar_NPC_HoldHead01Loop_0",
      "Ani_Avatar_NPC_HoldHead01Loop_Sync_0",
      "Ani_Avatar_NPC_HoldHead01AS_0",
      "Ani_Avatar_NPC_HoldHead01AS_Sync_0"
    ],
    "1030": [
      "Ani_Avatar_NPC_PutHand01BS_0",
      "Ani_Avatar_NPC_PutHand01BS_Sync_0",
      "Ani_Avatar_NPC_PutHand01Loop_0",
      "Ani_Avatar_NPC_PutHand01Loop_Sync_0",
      "Ani_Avatar_NPC_PutHand01AS_0",
      "Ani_Avatar_NPC_PutHand01AS_Sync_0"
    ],
    "1220": [
      "Ani_Avatar_NPC_Akimbo02BS_0",
      "Ani_Avatar_NPC_Akimbo02BS_Sync_0",
      "Ani_Avatar_NPC_Akimbo02Loop_0",
      "Ani_Avatar_NPC_Akimbo02Loop_Sync_0",
      "Ani_Avatar_NPC_Akimbo02AS_0",
      "Ani_Avatar_NPC_Akimbo02AS_Sync_0"
    ],
    "8010": [],
    "8020": [],
    "1142": [
      "Ani_Avatar_NPC_PointL01BS_0",
      "Ani_Avatar_NPC_PointL01BS_Sync_0",
      "Ani_Avatar_NPC_PointL01Loop_0",
      "Ani_Avatar_NPC_PointL01Loop_Sync_0",
      "Ani_Avatar_NPC_PointL01AS_0",
      "Ani_Avatar_NPC_PointL01AS_Sync_0"
    ],
    "1141": [
      "Ani_Avatar_NPC_PointF01BS_0",
      "Ani_Avatar_NPC_PointF01BS_Sync_0",
      "Ani_Avatar_NPC_PointF01Loop_0",
      "Ani_Avatar_NPC_PointF01Loop_Sync_0",
      "Ani_Avatar_NPC_PointF01AS_0",
      "Ani_Avatar_NPC_PointF01AS_Sync_0"
    ],
    "1171": [
      "Ani_Avatar_NPC_Talk01_0",
      "Ani_Avatar_NPC_Talk01_Sync_0"
    ],
    "1172": [
      "Ani_Avatar_NPC_Talk02_0",
      "Ani_Avatar_NPC_Talk02_Sync_0"
    ],
    "1173": [
      "Ani_Avatar_NPC_Talk03_0",
      "Ani_Avatar_NPC_Talk03_Sync_0"
    ],
    "1250": [
      "Ani_Avatar_NPC_Request01BS_0",
      "Ani_Avatar_NPC_Request01Loop_0",
      "Ani_Avatar_NPC_Request01AS_0"
    ],
    "1260": [
      "Ani_Avatar_NPC_Clap01_0",
      "Ani_Avatar_NPC_Clap01_Sync_0"
    ],
    "1270": [
      "Ani_Avatar_NPC_Cheer01BS_0",
      "Ani_Avatar_NPC_Cheer01Loop_0",
      "Ani_Avatar_NPC_Cheer01AS_0"
    ],
    "1280": [
      "Ani_Avatar_NPC_Investigate01BS_0",
      "Ani_Avatar_NPC_Investigate01BS_Sync_0",
      "Ani_Avatar_NPC_Investigate01Loop_0",
      "Ani_Avatar_NPC_Investigate01Loop_Sync_0",
      "Ani_Avatar_NPC_Investigate01AS_0",
      "Ani_Avatar_NPC_Investigate01AS_Sync_0"
    ],
    "1290": [
      "Ani_Avatar_NPC_Laugh01_0",
      "Ani_Avatar_NPC_Laugh01_Sync_0"
    ],
    "1300": [
      "Ani_Avatar_NPC_Encourage01_0",
      "Ani_Avatar_NPC_Encourage01_Sync_0"
    ],
    "1310": [
      "Ani_Avatar_NPC_Dusting01_0",
      "Ani_Avatar_NPC_Dusting01_Sync_0"
    ],
    "4091": [
      "Ani_Avatar_PlayQin01BS_0",
      "Ani_Avatar_Bow_PlayQin01BS_Sync_0",
      "Ani_Avatar_PlayQin01Loop_0",
      "Ani_Avatar_Bow_PlayQin01Loop_Sync_0",
      "Ani_Avatar_PlayQin01AS_0",
      "Ani_Avatar_Bow_PlayQin01AS_Sync_0"
    ],
    "4090": [
      "Ani_Avatar_PlayLyre01BS_0",
      "Ani_Avatar_Bow_PlayLyre01BS_Sync_0",
      "Ani_Avatar_PlayLyre01Loop_0",
      "Ani_Avatar_Bow_PlayLyre01Loop_Sync_0",
      "Ani_Avatar_PlayLyre01AS_0",
      "Ani_Avatar_Bow_PlayLyre01AS_Sync_0"
    ],
    "1342": [
      "Ani_Avatar_Channel01BS_0",
      "Ani_Avatar_Bow_Channel01BS_Sync_0",
      "Ani_Avatar_Channel01Loop_0",
      "Ani_Avatar_Bow_Channel01Loop_Sync_0",
      "Ani_Avatar_Channel01AS_0",
      "Ani_Avatar_Bow_Channel01AS_Sync_0"
    ],
    "4503": [
      "Ani_Avatar_Bow_WeaponStandby_0",
      "Ani_Avatar_Bow_WeaponStandby_Sync_0"
    ],
    "1340": [
      "Ani_Avatar_Bow_Show_01_0",
      "Ani_Avatar_Bow_Show_01_Sync_0"
    ],
    "1343": [
      "Ani_Avatar_Bow_Show_02_0",
      "Ani_Avatar_Bow_Show_02_Sync_0"
    ],
    "4100": [
      "Ani_Avatar_NPC_SitOnFloor01Cycle_0"
    ],
    "4504": [
      "Ani_Avatar_Bow_ElementalArt_BS_0",
      "Ani_Avatar_Bow_ElementalArt_BS_Sync_0",
      "Ani_Avatar_Bow_ElementalArt_NoCaharge_0",
      "Ani_Avatar_Bow_ElementalArt_NoCaharge_Sync_0",
      "Ani_Avatar_Bow_ElementalArt_NoCaharge_AS_0",
      "Ani_Avatar_Bow_ElementalArt_NoCaharge_AS_Sync_0"
    ]
  },
  "stateAnimeMap": {
    "Ani_Avatar_NPC_Akimbo01BS_0": 12002732006589543497,
    "Ani_Avatar_NPC_Akimbo01BS_Sync_0": 11055373101801249389,
    "Ani_Avatar_NPC_Backrake01BS_0": 12304312941631364880,
    "Ani_Avatar_NPC_Backrake01BS_Sync_0": 13071469786477171936,
    "Ani_Avatar_NPC_Confuse01BS_0": 3139081683793024625,
    "Ani_Avatar_NPC_Confuse01BS_Sync_0": 8552167005041984301,
    "Ani_Avatar_NPC_Forerake01BS_0": 15489957333636784756,
    "Ani_Avatar_NPC_Forerake01BS_Sync_0": 1523283693543808430,
    "Ani_Avatar_NPC_Afraid01BS_0": 12118280073056191585,
    "Ani_Avatar_NPC_Alert01BS_0": 6218644576028995025,
    "Ani_Avatar_NPC_Alert01BS_Sync_0": 1586995744571054516,
    "Ani_Avatar_NPC_Shy01BS_0": 10475580930823327634,
    "Ani_Avatar_NPC_Shy01BS_Sync_0": 14786592702093381835,
    "Ani_Avatar_NPC_Shrug01BS_0": 2344160388602314054,
    "Ani_Avatar_NPC_Shrug01BS_Sync_0": 3073068879076696801,
    "Ani_Avatar_NPC_HoldArm01BS_0": 14454480652233980313,
    "Ani_Avatar_NPC_HoldArm01BS_Sync_0": 12985812590135381122,
    "Ani_Avatar_NPC_StrikeChest01BS_0": 2199181609597335826,
    "Ani_Avatar_NPC_StrikeChest01BS_Sync_0": 17137167350650050730,
    "Ani_Avatar_NPC_Refuse01_0": 13212186097833847035,
    "Ani_Avatar_NPC_Refuse01_Sync_0": 3086123093271801796,
    "Ani_Avatar_NPC_Akimbo01Loop_0": 5876594105244376747,
    "Ani_Avatar_NPC_Akimbo01Loop_Sync_0": 15723548452818809906,
    "Ani_Avatar_NPC_Akimbo01AS_0": 17515976922844950932,
    "Ani_Avatar_NPC_Akimbo01AS_Sync_0": 10021450192622715449,
    "Ani_Avatar_NPC_Backrake01Loop_0": 6937731160617886434,
    "Ani_Avatar_NPC_Backrake01Loop_Sync_0": 12059836648727358210,
    "Ani_Avatar_NPC_Backrake01AS_0": 6062109248297129891,
    "Ani_Avatar_NPC_Backrake01AS_Sync_0": 2209212714325356424,
    "Ani_Avatar_NPC_Confuse01Loop_0": 15757847635688408548,
    "Ani_Avatar_NPC_Confuse01Loop_Sync_0": 11102030953825291881,
    "Ani_Avatar_NPC_Confuse01AS_0": 10125542119570611131,
    "Ani_Avatar_NPC_Confuse01AS_Sync_0": 12326645479163346481,
    "Ani_Avatar_NPC_Forerake01Loop_0": 8170168353111961343,
    "Ani_Avatar_NPC_Forerake01Loop_Sync_0": 12264574905111963009,
    "Ani_Avatar_NPC_Forerake01AS_0": 8527096408826045181,
    "Ani_Avatar_NPC_Forerake01AS_Sync_0": 984825212925216876,
    "Ani_Avatar_NPC_Afraid01Loop_0": 15632757109642416464,
    "Ani_Avatar_NPC_Afraid01AS_0": 16878525226519596410,
    "Ani_Avatar_NPC_Alert01Loop_0": 16238299689047756731,
    "Ani_Avatar_NPC_Alert01Loop_Sync_0": 202696888461601999,
    "Ani_Avatar_NPC_Alert01AS_0": 7006777614685145405,
    "Ani_Avatar_NPC_Alert01AS_Sync_0": 7809662265200199830,
    "Ani_Avatar_NPC_Shy01Loop_0": 13293611592878795963,
    "Ani_Avatar_NPC_Shy01Loop_Sync_0": 4055144436938097235,
    "Ani_Avatar_NPC_Shy01AS_0": 3140275080341386018,
    "Ani_Avatar_NPC_Shy01AS_Sync_0": 17242020547139507035,
    "Ani_Avatar_NPC_Shrug01Loop_0": 12914892828708297928,
    "Ani_Avatar_NPC_Shrug01Loop_Sync_0": 3815269012900427368,
    "Ani_Avatar_NPC_Shrug01AS_0": 5795392761848685567,
    "Ani_Avatar_NPC_Shrug01AS_Sync_0": 8554831667747248657,
    "Ani_Avatar_NPC_HoldArm01Loop_0": 2712784722907725023,
    "Ani_Avatar_NPC_HoldArm01Loop_Sync_0": 1983971670336404539,
    "Ani_Avatar_NPC_HoldArm01AS_0": 14956858484718116242,
    "Ani_Avatar_NPC_HoldArm01AS_Sync_0": 62847075369867838,
    "Ani_Avatar_NPC_StrikeChest01Loop_0": 12289133401867920319,
    "Ani_Avatar_NPC_StrikeChest01Loop_Sync_0": 13951957583028430920,
    "Ani_Avatar_NPC_StrikeChest01AS_0": 15082139529621809394,
    "Ani_Avatar_NPC_StrikeChest01AS_Sync_0": 9554275383369542556,
    "Ani_Avatar_NPC_Downcast01BS_0": 16972052261006187983,
    "Ani_Avatar_NPC_Downcast01BS_Sync_0": 2795851130915365975,
    "Ani_Avatar_NPC_Chat01BS_0": 12334278457379334854,
    "Ani_Avatar_NPC_Chat01BS_Sync_0": 13948369538726516089,
    "Ani_Avatar_NPC_Chat02BS_0": 5822508329159035797,
    "Ani_Avatar_NPC_Chat02BS_Sync_0": 16971272435456883868,
    "Ani_Avatar_NPC_Think01BS_0": 13723847955209670272,
    "Ani_Avatar_NPC_Think01BS_Sync_0": 7462023373460216586,
    "Ani_Avatar_NPC_Downcast01AS_0": 2318526436723880692,
    "Ani_Avatar_NPC_Downcast01AS_Sync_0": 3727702611023725305,
    "Ani_Avatar_NPC_Downcast01Loop_0": 13654891879356656175,
    "Ani_Avatar_NPC_Downcast01Loop_Sync_0": 1215331493175366009,
    "Ani_Avatar_NPC_Chat01Loop_0": 13955028106685023541,
    "Ani_Avatar_NPC_Chat01Loop_Sync_0": 15409631279035348975,
    "Ani_Avatar_NPC_Chat01AS_0": 8373659355821280247,
    "Ani_Avatar_NPC_Chat01AS_Sync_0": 2948100211379265947,
    "Ani_Avatar_NPC_Chat02AS_0": 10289732853286531923,
    "Ani_Avatar_NPC_Chat02AS_Sync_0": 14476552614368055404,
    "Ani_Avatar_NPC_Chat02Loop_0": 13499657539522866334,
    "Ani_Avatar_NPC_Chat02Loop_Sync_0": 9295601184209697927,
    "Ani_Avatar_NPC_Think01Loop_0": 5147551597555091732,
    "Ani_Avatar_NPC_Think01Loop_Sync_0": 16092684041329842744,
    "Ani_Avatar_NPC_Think01AS_0": 1840744184921628751,
    "Ani_Avatar_NPC_Think01AS_Sync_0": 12676074886388450414,
    "Ani_Avatar_NPC_PointR01BS_0": 10887847079340830859,
    "Ani_Avatar_NPC_PointR01BS_Sync_0": 8216063098726070499,
    "Ani_Avatar_NPC_PointR01Loop_0": 9395754805933613668,
    "Ani_Avatar_NPC_PointR01Loop_Sync_0": 17453974589999210541,
    "Ani_Avatar_NPC_PointR01AS_0": 8726068157042884252,
    "Ani_Avatar_NPC_PointR01AS_Sync_0": 8415301536110509575,
    "Ani_Avatar_NPC_AkimboHand01Loop_0": 1231815773482736845,
    "Ani_Avatar_NPC_AkimboHand01Loop_Sync_0": 11503947206399434846,
    "Ani_Avatar_NPC_HoldArmHand01Loop_0": 18218276883247647089,
    "Ani_Avatar_NPC_HoldArmHand01Loop_Sync_0": 4249578129083496309,
    "Ani_Avatar_NPC_ThinkHand01Loop_0": 13535106672637416471,
    "Ani_Avatar_NPC_ThinkHand01Loop_Sync_0": 14647154559354230279,
    "Ani_Avatar_NPC_AkimboHand01BS_0": 16610762320734700397,
    "Ani_Avatar_NPC_AkimboHand01BS_Sync_0": 2766631601029285269,
    "Ani_Avatar_NPC_AkimboHand01AS_0": 13056383738308938672,
    "Ani_Avatar_NPC_AkimboHand01AS_Sync_0": 6111995534004465021,
    "Ani_Avatar_NPC_HoldArmHand01BS_0": 6817790876420330362,
    "Ani_Avatar_NPC_HoldArmHand01BS_Sync_0": 12004079349948985150,
    "Ani_Avatar_NPC_HoldArmHand01AS_0": 3377678925020103837,
    "Ani_Avatar_NPC_HoldArmHand01AS_Sync_0": 451834311214720186,
    "Ani_Avatar_NPC_ThinkHand01BS_0": 3924216980230896905,
    "Ani_Avatar_NPC_ThinkHand01BS_Sync_0": 11380932052303556279,
    "Ani_Avatar_NPC_ThinkHand01AS_0": 9966080335549816475,
    "Ani_Avatar_NPC_ThinkHand01AS_Sync_0": 14330928896465631144,
    "Ani_Avatar_NPC_SaluteMengde01BS_0": 6948710577134158709,
    "Ani_Avatar_NPC_Greet01_0": 4807574160995883665,
    "Ani_Avatar_NPC_Greet01_Sync_0": 17530395708640042641,
    "Ani_Avatar_NPC_HoldHead01BS_0": 3172197871657557207,
    "Ani_Avatar_NPC_HoldHead01BS_Sync_0": 9498426649555805125,
    "Ani_Avatar_NPC_HoldHead01Loop_0": 15134216858968829851,
    "Ani_Avatar_NPC_HoldHead01Loop_Sync_0": 12886848900905698720,
    "Ani_Avatar_NPC_HoldHead01AS_0": 511842456851281478,
    "Ani_Avatar_NPC_HoldHead01AS_Sync_0": 128261836338077544,
    "Ani_Avatar_NPC_PutHand01BS_0": 15504407369039152460,
    "Ani_Avatar_NPC_PutHand01BS_Sync_0": 269417666458476715,
    "Ani_Avatar_NPC_PutHand01Loop_0": 4643790343390901058,
    "Ani_Avatar_NPC_PutHand01Loop_Sync_0": 10687918476943119030,
    "Ani_Avatar_NPC_PutHand01AS_0": 13645449391005338112,
    "Ani_Avatar_NPC_PutHand01AS_Sync_0": 12920291284047060558,
    "Ani_Avatar_NPC_Akimbo02BS_0": 13596782976026310736,
    "Ani_Avatar_NPC_Akimbo02BS_Sync_0": 10467284169411773275,
    "Ani_Avatar_NPC_Akimbo02Loop_0": 5337688734592544898,
    "Ani_Avatar_NPC_Akimbo02Loop_Sync_0": 1022652887825237775,
    "Ani_Avatar_NPC_Akimbo02AS_0": 7851888299767128152,
    "Ani_Avatar_NPC_Akimbo02AS_Sync_0": 6430494625170982890,
    "Ani_Avatar_NPC_AkimboHand02Loop_0": 605139762964384541,
    "Ani_Avatar_NPC_AkimboHand02Loop_Sync_0": 2108647618025104601,
    "Ani_Avatar_NPC_AkimboHand02BS_0": 8526227671876100202,
    "Ani_Avatar_NPC_AkimboHand02BS_Sync_0": 18111260836897088273,
    "Ani_Avatar_NPC_AkimboHand02AS_0": 16924208477815429150,
    "Ani_Avatar_NPC_AkimboHand02AS_Sync_0": 5712483612272655751,
    "Ani_Avatar_NPC_SaluteMengde01Loop_0": 15575800236833985210,
    "Ani_Avatar_NPC_SaluteMengde01AS_0": 572634571619495982,
    "Ani_Avatar_NPC_PointF01BS_0": 2402652337658281069,
    "Ani_Avatar_NPC_PointF01BS_Sync_0": 1235272620047881696,
    "Ani_Avatar_NPC_PointF01Loop_0": 15383296661743566963,
    "Ani_Avatar_NPC_PointF01Loop_Sync_0": 6045298997330120795,
    "Ani_Avatar_NPC_PointF01AS_0": 17534256406230126150,
    "Ani_Avatar_NPC_PointF01AS_Sync_0": 34303123738537313,
    "Ani_Avatar_NPC_PointL01BS_0": 10973455785460576960,
    "Ani_Avatar_NPC_PointL01BS_Sync_0": 10118231375604414156,
    "Ani_Avatar_NPC_PointL01Loop_0": 13955063712576629916,
    "Ani_Avatar_NPC_PointL01Loop_Sync_0": 5040608181536753350,
    "Ani_Avatar_NPC_PointL01AS_0": 830780926405855241,
    "Ani_Avatar_NPC_PointL01AS_Sync_0": 1916590373571265824,
    "Ani_Avatar_NPC_Talk01_0": 2607898709680240281,
    "Ani_Avatar_NPC_Talk01_Sync_0": 3277440459198052492,
    "Ani_Avatar_NPC_Talk02_0": 12203867269152116789,
    "Ani_Avatar_NPC_Talk02_Sync_0": 15409461060834307650,
    "Ani_Avatar_NPC_Talk03_0": 9549065577555540971,
    "Ani_Avatar_NPC_Talk03_Sync_0": 4257697877085887307,
    "Ani_Avatar_NPC_Request01BS_0": 1631481629563757939,
    "Ani_Avatar_NPC_Request01Loop_0": 17913889959995538269,
    "Ani_Avatar_NPC_Request01AS_0": 170203550946877348,
    "Ani_Avatar_NPC_Clap01_0": 2229706450100451062,
    "Ani_Avatar_NPC_Clap01_Sync_0": 4752779364788039371,
    "Ani_Avatar_NPC_Cheer01BS_0": 470026575450229787,
    "Ani_Avatar_NPC_Cheer01Loop_0": 6876549708323835596,
    "Ani_Avatar_NPC_Cheer01AS_0": 4092214044762322594,
    "Ani_Avatar_NPC_Investigate01BS_0": 7994758252379745588,
    "Ani_Avatar_NPC_Investigate01BS_Sync_0": 10300417196396540368,
    "Ani_Avatar_NPC_Investigate01Loop_0": 593214587457204204,
    "Ani_Avatar_NPC_Investigate01Loop_Sync_0": 6185495156897074166,
    "Ani_Avatar_NPC_Investigate01AS_0": 1846078816518724261,
    "Ani_Avatar_NPC_Investigate01AS_Sync_0": 10355414364113203816,
    "Ani_Avatar_NPC_Laugh01_0": 10620210162053771310,
    "Ani_Avatar_NPC_Laugh01_Sync_0": 17758809197009149019,
    "Ani_Avatar_NPC_Encourage01_0": 5904239476224598071,
    "Ani_Avatar_NPC_Encourage01_Sync_0": 15636477314988188311,
    "Ani_Avatar_NPC_Dusting01_0": 3548156315016490228,
    "Ani_Avatar_NPC_Dusting01_Sync_0": 9470530698377519279,
    "Ani_Avatar_NPC_SitHoldArm01AS_0": 10417777817592031813,
    "Ani_Avatar_NPC_SitHoldArm01AS_Sync_0": 10486533305633261548,
    "Ani_Avatar_NPC_SitHoldArm01Loop_0": 16052087864423792567,
    "Ani_Avatar_NPC_SitHoldArm01Loop_Sync_0": 12819639709261794121,
    "Ani_Avatar_NPC_SitHoldArm01BS_0": 1334257093933679047,
    "Ani_Avatar_NPC_SitHoldArm01BS_Sync_0": 14790303652275613328,
    "Ani_Avatar_NPC_SitHoldArmHand01BS_0": 9952101636424799802,
    "Ani_Avatar_NPC_SitHoldArmHand01BS_Sync_0": 12559300364325523258,
    "Ani_Avatar_NPC_SitHoldArmHand01Loop_0": 8806178906359010329,
    "Ani_Avatar_NPC_SitHoldArmHand01Loop_Sync_0": 264083245987268662,
    "Ani_Avatar_NPC_SitHoldArmHand01AS_0": 12153681914280866653,
    "Ani_Avatar_NPC_SitHoldArmHand01AS_Sync_0": 13716549138299311018,
    "Ani_Avatar_NPC_SitShrug01BS_0": 5357990700278847010,
    "Ani_Avatar_NPC_SitShrug01BS_Sync_0": 13418535577510602653,
    "Ani_Avatar_NPC_SitShrug01AS_0": 925101602883132821,
    "Ani_Avatar_NPC_SitShrug01AS_Sync_0": 15495295391431878996,
    "Ani_Avatar_NPC_SitShrug01Loop_0": 17945728910104799859,
    "Ani_Avatar_NPC_SitShrug01Loop_Sync_0": 17618871943178569268,
    "Ani_Avatar_NPC_SitThink01BS_0": 15035801160016268432,
    "Ani_Avatar_NPC_SitThink01BS_Sync_0": 9031221266323434711,
    "Ani_Avatar_NPC_SitThink01AS_0": 16283003816497108250,
    "Ani_Avatar_NPC_SitThink01AS_Sync_0": 6055005015780381717,
    "Ani_Avatar_NPC_SitThink01Loop_0": 14435457960484611169,
    "Ani_Avatar_NPC_SitThink01Loop_Sync_0": 6223493188519554488,
    "Ani_Avatar_NPC_SitChat01BS_0": 16311306459120472037,
    "Ani_Avatar_NPC_SitChat01BS_Sync_0": 13555016612246782117,
    "Ani_Avatar_NPC_SitChat01AS_0": 10240025634800466028,
    "Ani_Avatar_NPC_SitChat01AS_Sync_0": 8478103371110722448,
    "Ani_Avatar_NPC_SitChat01Loop_0": 18143174498540232073,
    "Ani_Avatar_NPC_SitChat01Loop_Sync_0": 6935880831820454658,
    "Ani_Avatar_NPC_SitPutArm01BS_0": 2326250563327410541,
    "Ani_Avatar_NPC_SitPutArm01Loop_0": 1121145294203526288,
    "Ani_Avatar_NPC_SitPutArm01AS_0": 8168970659030489108,
    "Ani_Avatar_NPC_SitHoldHead01BS_0": 4008010287998997599,
    "Ani_Avatar_NPC_SitHoldHead01AS_0": 18102088711552131520,
    "Ani_Avatar_NPC_SitHoldHead01Loop_0": 10427567228858813500,
    "Ani_Avatar_PlayQin01BS_0": 16551969031138959036,
    "Ani_Avatar_Bow_PlayQin01BS_Sync_0": 1888606478051429579,
    "Ani_Avatar_PlayQin01Loop_0": 17418587647401392116,
    "Ani_Avatar_Bow_PlayQin01Loop_Sync_0": 9988952357841728581,
    "Ani_Avatar_PlayQin01AS_0": 5250994942578466823,
    "Ani_Avatar_Bow_PlayQin01AS_Sync_0": 998717770935059906,
    "Ani_Avatar_PlayLyre01AS_0": 6745461515084530887,
    "Ani_Avatar_Bow_PlayLyre01AS_Sync_0": 17291323967997895737,
    "Ani_Avatar_PlayLyre01Loop_0": 14460331048294565800,
    "Ani_Avatar_Bow_PlayLyre01Loop_Sync_0": 16550250870413279123,
    "Ani_Avatar_PlayLyre01BS_0": 13474228108707133881,
    "Ani_Avatar_Bow_PlayLyre01BS_Sync_0": 9911965287400890691,
    "Ani_Avatar_Channel01BS_0": 12207238744912418961,
    "Ani_Avatar_Bow_Channel01BS_Sync_0": 11214493626648218129,
    "Ani_Avatar_Channel01Loop_0": 7012739679889598705,
    "Ani_Avatar_Bow_Channel01Loop_Sync_0": 7218461550691089793,
    "Ani_Avatar_Channel01AS_0": 827808658857509166,
    "Ani_Avatar_Bow_Channel01AS_Sync_0": 11353282410062100592,
    "Ani_Avatar_Bow_WeaponStandby_0": 11328231356504373418,
    "Ani_Avatar_Bow_WeaponStandby_Sync_0": 16464506433093792094,
    "Ani_Avatar_NPC_SitOnFloor01Cycle_0": 17649435608231827287,
    "Ani_Avatar_Bow_Show_02_0": 5504292275153744551,
    "Ani_Avatar_Bow_Show_02_Sync_0": 5504292275153744551,
    "Ani_Avatar_Bow_Show_01_0": 564342598244440103,
    "Ani_Avatar_Bow_Show_01_Sync_0": 564342598244440103,
    "Ani_Avatar_Bow_ElementalArt_BS_0": 15291619750368946094,
    "Ani_Avatar_Bow_ElementalArt_BS_Sync_0": 15291619750368946094,
    "Ani_Avatar_Bow_ElementalArt_NoCaharge_0": 15725966576661567351,
    "Ani_Avatar_Bow_ElementalArt_NoCaharge_Sync_0": 15725966576661567351,
    "Ani_Avatar_Bow_ElementalArt_NoCaharge_AS_0": 4790508856111785807,
    "Ani_Avatar_Bow_ElementalArt_NoCaharge_AS_Sync_0": 4790508856111785807
  }
}