{
  "freeStyleStateMap": {
    "10100": [
      "Ani_Coop_NPC_Smile01AS_0",
      "Ani_Coop_NPC_Happy01AS_0",
      "Ani_Coop_NPC_Sad01AS_0",
      "Ani_Coop_NPC_Flipped01AS_0",
      "Ani_Coop_NPC_Angry01AS_0",
      "Ani_Coop_NPC_Think01AS_0",
      "Ani_Coop_NPC_Surprised01AS_0",
      "Ani_Coop_NPC_Shy01AS_0",
      "Ani_Coop_NPC_CoopStandby_0"
    ],
    "10101": [
      "Ani_Coop_NPC_Smile01BS_0",
      "Ani_Coop_NPC_Smile01Loop_0"
    ],
    "10201": [
      "Ani_Coop_NPC_Happy01BS_0",
      "Ani_Coop_NPC_Happy01Loop_0"
    ],
    "10301": [
      "Ani_Coop_NPC_Sad01BS_0",
      "Ani_Coop_NPC_Sad01Loop_0"
    ],
    "10401": [
      "Ani_Coop_NPC_Flipped01BS_0",
      "Ani_Coop_NPC_Flipped01Loop_0"
    ],
    "10501": [
      "Ani_Coop_NPC_Angry01BS_0",
      "Ani_Coop_NPC_Angry01Loop_0"
    ],
    "10601": [
      "Ani_Coop_NPC_Think01BS_0",
      "Ani_Coop_NPC_Think01Loop_0"
    ],
    "10701": [
      "Ani_Coop_NPC_Surprised01BS_0",
      "Ani_Coop_NPC_Surprised01Loop_0"
    ],
    "10801": [
      "Ani_Coop_NPC_Shy01BS_0",
      "Ani_Coop_NPC_Shy01Loop_0"
    ],
    "1231": [
      "Ani_Avatar_NPC_AkimboHand01BS_0",
      "Ani_Avatar_NPC_AkimboHand01BS_Sync_0",
      "Ani_Avatar_NPC_AkimboHand01Loop_0",
      "Ani_Avatar_NPC_AkimboHand01Loop_Sync_0",
      "Ani_Avatar_NPC_AkimboHand01AS_0",
      "Ani_Avatar_NPC_AkimboHand01AS_Sync_0",
      "Ani_Avatar_NPC_Akimbo01Loop_0",
      "Ani_Avatar_NPC_Akimbo01Loop_Sync_0",
      "Ani_Avatar_NPC_Akimbo01AS_0",
      "Ani_Avatar_NPC_Akimbo01AS_Sync_0"
    ],
    "1121": [
      "Ani_Avatar_NPC_HoldArmHand01BS_0",
      "Ani_Avatar_NPC_HoldArmHand01Loop_0",
      "Ani_Avatar_NPC_HoldArmHand01AS_0",
      "Ani_Avatar_NPC_HoldArm01Loop_0",
      "Ani_Avatar_NPC_HoldArm01Loop_Sync_0",
      "Ani_Avatar_NPC_HoldArm01AS_0",
      "Ani_Avatar_NPC_HoldArm01AS_Sync_0"
    ],
    "1191": [
      "Ani_Avatar_NPC_ThinkHand01BS_0",
      "Ani_Avatar_NPC_ThinkHand01Loop_0",
      "Ani_Avatar_NPC_ThinkHand01AS_0",
      "Ani_Avatar_NPC_Think01Loop_0",
      "Ani_Avatar_NPC_Think01Loop_Sync_0",
      "Ani_Avatar_NPC_Think01AS_0",
      "Ani_Avatar_NPC_Think01AS_Sync_0"
    ],
    "1221": [
      "Ani_Avatar_NPC_AkimboHand02BS_0",
      "Ani_Avatar_NPC_AkimboHand02BS_Sync_0",
      "Ani_Avatar_NPC_AkimboHand02Loop_0",
      "Ani_Avatar_NPC_AkimboHand02Loop_Sync_0",
      "Ani_Avatar_NPC_AkimboHand02AS_0",
      "Ani_Avatar_NPC_AkimboHand02AS_Sync_0",
      "Ani_Avatar_NPC_Akimbo02Loop_0",
      "Ani_Avatar_NPC_Akimbo02Loop_Sync_0",
      "Ani_Avatar_NPC_Akimbo02AS_0",
      "Ani_Avatar_NPC_Akimbo02AS_Sync_0"
    ],
    "8040": [
      "Ani_Avatar_NPC_SitHoldArm01BS_0",
      "Ani_Avatar_NPC_SitHoldArm01BS_Sync_0",
      "Ani_Avatar_NPC_SitHoldArm01Loop_0",
      "Ani_Avatar_NPC_SitHoldArm01Loop_Sync_0",
      "Ani_Avatar_NPC_SitHoldArm01AS_0",
      "Ani_Avatar_NPC_SitHoldArm01AS_Sync_0"
    ],
    "8011": [
      "Ani_Avatar_NPC_SitChat01BS_0",
      "Ani_Avatar_NPC_SitChat01Loop_0",
      "Ani_Avatar_NPC_SitChat01AS_0"
    ],
    "8012": [
      "Ani_Avatar_NPC_SitShrug01BS_0",
      "Ani_Avatar_NPC_SitShrug01Loop_0",
      "Ani_Avatar_NPC_SitShrug01AS_0"
    ],
    "8013": [
      "Ani_Avatar_NPC_SitThink01BS_0",
      "Ani_Avatar_NPC_SitThink01Loop_0",
      "Ani_Avatar_NPC_SitThink01AS_0"
    ],
    "8041": [
      "Ani_Avatar_NPC_SitHoldArmHand01BS_0",
      "Ani_Avatar_NPC_SitHoldArmHand01Loop_0",
      "Ani_Avatar_NPC_SitHoldArmHand01AS_0",
      "Ani_Avatar_NPC_SitHoldArm01Loop_0",
      "Ani_Avatar_NPC_SitHoldArm01Loop_Sync_0",
      "Ani_Avatar_NPC_SitHoldArm01AS_0",
      "Ani_Avatar_NPC_SitHoldArm01AS_Sync_0"
    ],
    "1230": [
      "Ani_Avatar_NPC_Akimbo01BS_0",
      "Ani_Avatar_NPC_Akimbo01BS_Sync_0",
      "Ani_Avatar_NPC_Akimbo01Loop_0",
      "Ani_Avatar_NPC_Akimbo01Loop_Sync_0",
      "Ani_Avatar_NPC_Akimbo01AS_0",
      "Ani_Avatar_NPC_Akimbo01AS_Sync_0"
    ],
    "1040": [
      "Ani_Avatar_NPC_Backrake01BS_0",
      "Ani_Avatar_NPC_Backrake01BS_Sync_0",
      "Ani_Avatar_NPC_Backrake01Loop_0",
      "Ani_Avatar_NPC_Backrake01Loop_Sync_0",
      "Ani_Avatar_NPC_Backrake01AS_0",
      "Ani_Avatar_NPC_Backrake01AS_Sync_0"
    ],
    "1050": [
      "Ani_Avatar_NPC_Confuse01BS_0",
      "Ani_Avatar_NPC_Confuse01BS_Sync_0",
      "Ani_Avatar_NPC_Confuse01Loop_0",
      "Ani_Avatar_NPC_Confuse01Loop_Sync_0",
      "Ani_Avatar_NPC_Confuse01AS_0",
      "Ani_Avatar_NPC_Confuse01AS_Sync_0"
    ],
    "1060": [
      "Ani_Avatar_NPC_Forerake01BS_0",
      "Ani_Avatar_NPC_Forerake01BS_Sync_0",
      "Ani_Avatar_NPC_Forerake01Loop_0",
      "Ani_Avatar_NPC_Forerake01Loop_Sync_0",
      "Ani_Avatar_NPC_Forerake01AS_0",
      "Ani_Avatar_NPC_Forerake01AS_Sync_0"
    ],
    "1070": [
      "Ani_Avatar_NPC_Afraid01BS_0",
      "Ani_Avatar_NPC_Afraid01Loop_0",
      "Ani_Avatar_NPC_Afraid01AS_0"
    ],
    "1080": [
      "Ani_Avatar_NPC_Alert01BS_0",
      "Ani_Avatar_NPC_Alert01BS_Sync_0",
      "Ani_Avatar_NPC_Alert01Loop_0",
      "Ani_Avatar_NPC_Alert01Loop_Sync_0",
      "Ani_Avatar_NPC_Alert01AS_0",
      "Ani_Avatar_NPC_Alert01AS_Sync_0"
    ],
    "1090": [
      "Ani_Avatar_NPC_Shy01BS_0",
      "Ani_Avatar_NPC_Shy01BS_Sync_0",
      "Ani_Avatar_NPC_Shy01Loop_0",
      "Ani_Avatar_NPC_Shy01Loop_Sync_0",
      "Ani_Avatar_NPC_Shy01AS_0",
      "Ani_Avatar_NPC_Shy01AS_Sync_0"
    ],
    "1110": [
      "Ani_Avatar_NPC_Shrug01BS_0",
      "Ani_Avatar_NPC_Shrug01BS_Sync_0",
      "Ani_Avatar_NPC_Shrug01Loop_0",
      "Ani_Avatar_NPC_Shrug01Loop_Sync_0",
      "Ani_Avatar_NPC_Shrug01AS_0",
      "Ani_Avatar_NPC_Shrug01AS_Sync_0"
    ],
    "1120": [
      "Ani_Avatar_NPC_HoldArm01BS_0",
      "Ani_Avatar_NPC_HoldArm01BS_Sync_0",
      "Ani_Avatar_NPC_HoldArm01Loop_0",
      "Ani_Avatar_NPC_HoldArm01Loop_Sync_0",
      "Ani_Avatar_NPC_HoldArm01AS_0",
      "Ani_Avatar_NPC_HoldArm01AS_Sync_0"
    ],
    "1130": [
      "Ani_Avatar_NPC_StrikeChest01BS_0",
      "Ani_Avatar_NPC_StrikeChest01BS_Sync_0",
      "Ani_Avatar_NPC_StrikeChest01Loop_0",
      "Ani_Avatar_NPC_StrikeChest01Loop_Sync_0",
      "Ani_Avatar_NPC_StrikeChest01AS_0",
      "Ani_Avatar_NPC_StrikeChest01AS_Sync_0"
    ],
    "1140": [
      "Ani_Avatar_NPC_PointR01BS_0",
      "Ani_Avatar_NPC_PointR01Loop_0",
      "Ani_Avatar_NPC_PointR01AS_0"
    ],
    "1150": [
      "Ani_Avatar_NPC_Refuse01_0",
      "Ani_Avatar_NPC_Refuse01_Sync_0"
    ],
    "1160": [
      "Ani_Avatar_NPC_Downcast01BS_0",
      "Ani_Avatar_NPC_Downcast01BS_Sync_0",
      "Ani_Avatar_NPC_Downcast01Loop_0",
      "Ani_Avatar_NPC_Downcast01Loop_Sync_0",
      "Ani_Avatar_NPC_Downcast01AS_0",
      "Ani_Avatar_NPC_Downcast01AS_Sync_0"
    ],
    "1170": [
      "Ani_Avatar_NPC_Chat01BS_0",
      "Ani_Avatar_NPC_Chat01Loop_0",
      "Ani_Avatar_NPC_Chat01AS_0"
    ],
    "1180": [
      "Ani_Avatar_NPC_Chat02BS_0",
      "Ani_Avatar_NPC_Chat02Loop_0",
      "Ani_Avatar_NPC_Chat02AS_0"
    ],
    "1190": [
      "Ani_Avatar_NPC_Think01BS_0",
      "Ani_Avatar_NPC_Think01BS_Sync_0",
      "Ani_Avatar_NPC_Think01Loop_0",
      "Ani_Avatar_NPC_Think01Loop_Sync_0",
      "Ani_Avatar_NPC_Think01AS_0",
      "Ani_Avatar_NPC_Think01AS_Sync_0"
    ],
    "9030": [],
    "9040": [],
    "1220": [
      "Ani_Avatar_NPC_Akimbo02BS_0",
      "Ani_Avatar_NPC_Akimbo02BS_Sync_0",
      "Ani_Avatar_NPC_Akimbo02Loop_0",
      "Ani_Avatar_NPC_Akimbo02Loop_Sync_0",
      "Ani_Avatar_NPC_Akimbo02AS_0",
      "Ani_Avatar_NPC_Akimbo02AS_Sync_0"
    ],
    "1240": [
      "Ani_Avatar_NPC_HoldHead01BS_0",
      "Ani_Avatar_NPC_HoldHead01BS_Sync_0",
      "Ani_Avatar_NPC_HoldHead01Loop_0",
      "Ani_Avatar_NPC_HoldHead01Loop_Sync_0",
      "Ani_Avatar_NPC_HoldHead01AS_0",
      "Ani_Avatar_NPC_HoldHead01AS_Sync_0"
    ],
    "1030": [
      "Ani_Avatar_NPC_PutHand01BS_0",
      "Ani_Avatar_NPC_PutHand01BS_Sync_0",
      "Ani_Avatar_NPC_PutHand01Loop_0",
      "Ani_Avatar_NPC_PutHand01Loop_Sync_0",
      "Ani_Avatar_NPC_PutHand01AS_0",
      "Ani_Avatar_NPC_PutHand01AS_Sync_0"
    ],
    "1200": [
      "Ani_Avatar_NPC_Greet01_0",
      "Ani_Avatar_NPC_Greet01_Sync_0"
    ],
    "1210": [
      "Ani_Avatar_NPC_SaluteMengde01BS_0",
      "Ani_Avatar_NPC_SaluteMengde01Loop_0",
      "Ani_Avatar_NPC_SaluteMengde01AS_0"
    ],
    "8010": [],
    "8020": [],
    "1250": [
      "Ani_Avatar_NPC_Request01BS_0",
      "Ani_Avatar_NPC_Request01Loop_0",
      "Ani_Avatar_NPC_Request01AS_0"
    ],
    "1260": [
      "Ani_Avatar_NPC_Clap01_0"
    ],
    "1270": [
      "Ani_Avatar_NPC_Cheer01BS_0",
      "Ani_Avatar_NPC_Cheer01BS_Sync_0",
      "Ani_Avatar_NPC_Cheer01Loop_0",
      "Ani_Avatar_NPC_Cheer01Loop_Sync_0",
      "Ani_Avatar_NPC_Cheer01AS_0",
      "Ani_Avatar_NPC_Cheer01AS_Sync_0"
    ],
    "1280": [
      "Ani_Avatar_NPC_Investigate01BS_0",
      "Ani_Avatar_NPC_Investigate01BS_Sync_0",
      "Ani_Avatar_NPC_Investigate01Loop_0",
      "Ani_Avatar_NPC_Investigate01Loop_Sync_0",
      "Ani_Avatar_NPC_Investigate01AS_0",
      "Ani_Avatar_NPC_Investigate01AS_Sync_0"
    ],
    "1290": [
      "Ani_Avatar_NPC_Laugh01_0",
      "Ani_Avatar_NPC_Laugh01_Sync_0"
    ],
    "1300": [
      "Ani_Avatar_NPC_Encourage01_0",
      "Ani_Avatar_NPC_Encourage01_Sync_0"
    ],
    "1310": [
      "Ani_Avatar_NPC_Dusting01_0",
      "Ani_Avatar_NPC_Dusting01_Sync_0"
    ],
    "1141": [
      "Ani_Avatar_NPC_PointF01BS_0",
      "Ani_Avatar_NPC_PointF01BS_Sync_0",
      "Ani_Avatar_NPC_PointF01Loop_0",
      "Ani_Avatar_NPC_PointF01Loop_Sync_0",
      "Ani_Avatar_NPC_PointF01AS_0",
      "Ani_Avatar_NPC_PointF01AS_Sync_0"
    ],
    "1142": [
      "Ani_Avatar_NPC_PointL01BS_0",
      "Ani_Avatar_NPC_PointL01Loop_0",
      "Ani_Avatar_NPC_PointL01AS_0"
    ],
    "1171": [
      "Ani_Avatar_NPC_Talk01_0",
      "Ani_Avatar_NPC_Talk01_Sync_0"
    ],
    "1172": [
      "Ani_Avatar_NPC_Talk02_0",
      "Ani_Avatar_NPC_Talk02_Sync_0"
    ],
    "1173": [
      "Ani_Avatar_NPC_Talk03_0",
      "Ani_Avatar_NPC_Talk03_Sync_0"
    ],
    "1340": [
      "Ani_Avatar_Catalyst_Show_01_0",
      "Ani_Avatar_Catalyst_Show_01_Sync_0"
    ],
    "1342": [
      "Ani_Avatar_Channel01BS_0",
      "Ani_Avatar_Catalyst_Channel01BS_Sync_0",
      "Ani_Avatar_Channel01Loop_0",
      "Ani_Avatar_Catalyst_Channel01Loop_Sync_0",
      "Ani_Avatar_Channel01AS_0",
      "Ani_Avatar_Catalyst_Channel01AS_Sync_0"
    ],
    "4503": [
      "Ani_Avatar_Catalyst_WeaponStandby_0",
      "Ani_Avatar_Catalyst_WeaponStandby_Sync_0"
    ]
  },
  "stateAnimeMap": {
    "Ani_Coop_NPC_Smile01BS_0": 7917636458323215056,
    "Ani_Coop_NPC_Smile01Loop_0": 7777843230727172239,
    "Ani_Coop_NPC_Smile01AS_0": 13955965164781448243,
    "Ani_Coop_NPC_Happy01BS_0": 5289417381676533838,
    "Ani_Coop_NPC_Happy01Loop_0": 11695558841435330893,
    "Ani_Coop_NPC_Happy01AS_0": 12622676330162434905,
    "Ani_Coop_NPC_Sad01BS_0": 4645914071442670175,
    "Ani_Coop_NPC_Sad01Loop_0": 8532125476003930014,
    "Ani_Coop_NPC_Sad01AS_0": 12412943729040865677,
    "Ani_Coop_NPC_Flipped01BS_0": 619525195459256969,
    "Ani_Coop_NPC_Flipped01Loop_0": 3014202545296219390,
    "Ani_Coop_NPC_Flipped01AS_0": 4639991080296749804,
    "Ani_Coop_NPC_Angry01BS_0": 5241447983804558541,
    "Ani_Coop_NPC_Angry01Loop_0": 7604196051470460540,
    "Ani_Coop_NPC_Angry01AS_0": 13423458685224359888,
    "Ani_Coop_NPC_Think01BS_0": 3557686652247878742,
    "Ani_Coop_NPC_Think01Loop_0": 1363071484044907333,
    "Ani_Coop_NPC_Think01AS_0": 2939319298041912575,
    "Ani_Coop_NPC_Surprised01BS_0": 6656978295910384818,
    "Ani_Coop_NPC_Surprised01Loop_0": 8913388912258541489,
    "Ani_Coop_NPC_Surprised01AS_0": 3065317005896410983,
    "Ani_Coop_NPC_Shy01BS_0": 8678435896136066162,
    "Ani_Coop_NPC_Shy01Loop_0": 12778528897041222429,
    "Ani_Coop_NPC_Shy01AS_0": 6760408784846855364,
    "Ani_Coop_NPC_CoopStandby_0": 4778287063932245988,
    "Ani_Avatar_NPC_Akimbo01BS_0": 8687207375418286163,
    "Ani_Avatar_NPC_Akimbo01BS_Sync_0": 7446878401770511676,
    "Ani_Avatar_NPC_Backrake01BS_0": 18139229080019537150,
    "Ani_Avatar_NPC_Backrake01BS_Sync_0": 5817081510176824185,
    "Ani_Avatar_NPC_Confuse01BS_0": 11715920638266377077,
    "Ani_Avatar_NPC_Confuse01BS_Sync_0": 12501028238794720820,
    "Ani_Avatar_NPC_Forerake01BS_0": 9482724689116420649,
    "Ani_Avatar_NPC_Forerake01BS_Sync_0": 18407933196510402072,
    "Ani_Avatar_NPC_Afraid01BS_0": 765711825507843518,
    "Ani_Avatar_NPC_Alert01BS_0": 13148714946584556741,
    "Ani_Avatar_NPC_Alert01BS_Sync_0": 6726907438431719558,
    "Ani_Avatar_NPC_Shy01BS_0": 12397695083377975973,
    "Ani_Avatar_NPC_Shy01BS_Sync_0": 14478128522912449110,
    "Ani_Avatar_NPC_Shrug01BS_0": 12127153981674536026,
    "Ani_Avatar_NPC_Shrug01BS_Sync_0": 3447569907493582990,
    "Ani_Avatar_NPC_HoldArm01BS_0": 8572885602709724251,
    "Ani_Avatar_NPC_HoldArm01BS_Sync_0": 8984166543772633613,
    "Ani_Avatar_NPC_StrikeChest01BS_0": 171853446183227172,
    "Ani_Avatar_NPC_StrikeChest01BS_Sync_0": 10309971366398001606,
    "Ani_Avatar_NPC_PointR01BS_0": 2450299560933512599,
    "Ani_Avatar_NPC_Refuse01_0": 2696954681140064523,
    "Ani_Avatar_NPC_Refuse01_Sync_0": 1634968328747548979,
    "Ani_Avatar_NPC_Downcast01BS_0": 9956927130043792575,
    "Ani_Avatar_NPC_Downcast01BS_Sync_0": 15011899678869993762,
    "Ani_Avatar_NPC_Chat01BS_0": 14203316671546789106,
    "Ani_Avatar_NPC_Chat02BS_0": 2307247068619310817,
    "Ani_Avatar_NPC_Akimbo01Loop_0": 8134597280124444900,
    "Ani_Avatar_NPC_Akimbo01Loop_Sync_0": 10057648476066140936,
    "Ani_Avatar_NPC_Akimbo01AS_0": 11435557217339532046,
    "Ani_Avatar_NPC_Akimbo01AS_Sync_0": 1970264597912634417,
    "Ani_Avatar_NPC_Backrake01Loop_0": 11326868709249839570,
    "Ani_Avatar_NPC_Backrake01Loop_Sync_0": 14403697027067892673,
    "Ani_Avatar_NPC_Confuse01Loop_0": 18277076844544176847,
    "Ani_Avatar_NPC_Confuse01Loop_Sync_0": 8874254748420973547,
    "Ani_Avatar_NPC_Confuse01AS_0": 2490866027202930585,
    "Ani_Avatar_NPC_Confuse01AS_Sync_0": 12557111173932540175,
    "Ani_Avatar_NPC_Forerake01Loop_0": 139899639811135947,
    "Ani_Avatar_NPC_Forerake01Loop_Sync_0": 9138667885218485523,
    "Ani_Avatar_NPC_Forerake01AS_0": 12853025141386432951,
    "Ani_Avatar_NPC_Forerake01AS_Sync_0": 12693156882288818289,
    "Ani_Avatar_NPC_Afraid01Loop_0": 6665345415241813034,
    "Ani_Avatar_NPC_Afraid01AS_0": 11791885082899028542,
    "Ani_Avatar_NPC_Alert01Loop_0": 15561321928905059974,
    "Ani_Avatar_NPC_Alert01Loop_Sync_0": 8132188633233072572,
    "Ani_Avatar_NPC_Alert01AS_0": 3869554312248714179,
    "Ani_Avatar_NPC_Alert01AS_Sync_0": 8739543639751543512,
    "Ani_Avatar_NPC_Shy01Loop_0": 2350597875515910506,
    "Ani_Avatar_NPC_Shy01Loop_Sync_0": 1911874632409237644,
    "Ani_Avatar_NPC_Shy01AS_0": 12897711137515889451,
    "Ani_Avatar_NPC_Shy01AS_Sync_0": 14914274481285214949,
    "Ani_Avatar_NPC_Shrug01Loop_0": 12058799096195234772,
    "Ani_Avatar_NPC_Shrug01Loop_Sync_0": 14247483487471170994,
    "Ani_Avatar_NPC_Shrug01AS_0": 12804492378682926018,
    "Ani_Avatar_NPC_Shrug01AS_Sync_0": 11740870894267637162,
    "Ani_Avatar_NPC_HoldArm01Loop_0": 3495303117420885207,
    "Ani_Avatar_NPC_HoldArm01Loop_Sync_0": 444109356999273310,
    "Ani_Avatar_NPC_HoldArm01AS_0": 14896751227684016452,
    "Ani_Avatar_NPC_HoldArm01AS_Sync_0": 9624005968654590302,
    "Ani_Avatar_NPC_StrikeChest01Loop_0": 18299091073645162818,
    "Ani_Avatar_NPC_StrikeChest01Loop_Sync_0": 11644768926480091650,
    "Ani_Avatar_NPC_StrikeChest01AS_0": 1076331244716096050,
    "Ani_Avatar_NPC_StrikeChest01AS_Sync_0": 11929984985534367331,
    "Ani_Avatar_NPC_PointR01Loop_0": 13985388450949558776,
    "Ani_Avatar_NPC_PointR01AS_0": 7238902072470349650,
    "Ani_Avatar_NPC_Downcast01Loop_0": 15555115093798985087,
    "Ani_Avatar_NPC_Downcast01Loop_Sync_0": 13204212080378228166,
    "Ani_Avatar_NPC_Downcast01AS_0": 7115919146685306883,
    "Ani_Avatar_NPC_Downcast01AS_Sync_0": 14591901057176904693,
    "Ani_Avatar_NPC_Chat01Loop_0": 14659987411826124975,
    "Ani_Avatar_NPC_Chat01AS_0": 13102734640143592331,
    "Ani_Avatar_NPC_Chat02Loop_0": 3410315206843931438,
    "Ani_Avatar_NPC_Chat02AS_0": 17465793649590367375,
    "Ani_Avatar_NPC_Backrake01AS_0": 16029758900288241219,
    "Ani_Avatar_NPC_Backrake01AS_Sync_0": 9516678337729282060,
    "Ani_Avatar_NPC_Think01BS_0": 3267776653497341819,
    "Ani_Avatar_NPC_Think01BS_Sync_0": 17276434582254695054,
    "Ani_Avatar_NPC_Think01Loop_0": 12870466669703548874,
    "Ani_Avatar_NPC_Think01Loop_Sync_0": 3399208787442634551,
    "Ani_Avatar_NPC_Think01AS_0": 5510419431146566170,
    "Ani_Avatar_NPC_Think01AS_Sync_0": 16587349795677376174,
    "Ani_Avatar_NPC_AkimboHand01Loop_0": 16064249559893479989,
    "Ani_Avatar_NPC_AkimboHand01Loop_Sync_0": 8269360235717293172,
    "Ani_Avatar_NPC_HoldArmHand01Loop_0": 7282614356745302843,
    "Ani_Avatar_NPC_ThinkHand01Loop_0": 1958743396184326307,
    "Ani_Avatar_NPC_Akimbo02BS_0": 11986320645291187843,
    "Ani_Avatar_NPC_Akimbo02BS_Sync_0": 18289951697642355681,
    "Ani_Avatar_NPC_Akimbo02Loop_0": 17957217819281953073,
    "Ani_Avatar_NPC_Akimbo02Loop_Sync_0": 16609289270749853052,
    "Ani_Avatar_NPC_AkimboHand02Loop_0": 1181399341019210846,
    "Ani_Avatar_NPC_AkimboHand02Loop_Sync_0": 14824945548312619931,
    "Ani_Avatar_NPC_Akimbo02AS_0": 18435948481139493343,
    "Ani_Avatar_NPC_Akimbo02AS_Sync_0": 414241661913787568,
    "Ani_Avatar_NPC_HoldHead01BS_0": 3068465902692858479,
    "Ani_Avatar_NPC_HoldHead01BS_Sync_0": 17056949873009249420,
    "Ani_Avatar_NPC_HoldHead01Loop_0": 17543212152755533704,
    "Ani_Avatar_NPC_HoldHead01Loop_Sync_0": 18116088181394023485,
    "Ani_Avatar_NPC_HoldHead01AS_0": 7706419061033644890,
    "Ani_Avatar_NPC_HoldHead01AS_Sync_0": 14602477161907605695,
    "Ani_Avatar_NPC_PutHand01BS_0": 6016005119198646822,
    "Ani_Avatar_NPC_PutHand01BS_Sync_0": 11304666296509741379,
    "Ani_Avatar_NPC_PutHand01Loop_0": 7576767650025618235,
    "Ani_Avatar_NPC_PutHand01Loop_Sync_0": 18173913437536593023,
    "Ani_Avatar_NPC_PutHand01AS_0": 13151329314105255936,
    "Ani_Avatar_NPC_PutHand01AS_Sync_0": 13963352102045490036,
    "Ani_Avatar_NPC_Greet01_0": 5505813724457782911,
    "Ani_Avatar_NPC_Greet01_Sync_0": 2408764667310955230,
    "Ani_Avatar_NPC_AkimboHand02BS_0": 16692740252883503539,
    "Ani_Avatar_NPC_AkimboHand02BS_Sync_0": 14315343374160443806,
    "Ani_Avatar_NPC_AkimboHand02AS_0": 10816773832952764853,
    "Ani_Avatar_NPC_AkimboHand02AS_Sync_0": 11549450640335105495,
    "Ani_Avatar_NPC_ThinkHand01BS_0": 5171352576585395867,
    "Ani_Avatar_NPC_ThinkHand01AS_0": 16997449098437790761,
    "Ani_Avatar_NPC_HoldArmHand01BS_0": 13723733493210159374,
    "Ani_Avatar_NPC_HoldArmHand01AS_0": 14576753436420329001,
    "Ani_Avatar_NPC_AkimboHand01BS_0": 10215559716233001902,
    "Ani_Avatar_NPC_AkimboHand01BS_Sync_0": 6115453680798773294,
    "Ani_Avatar_NPC_AkimboHand01AS_0": 15129101753489867980,
    "Ani_Avatar_NPC_AkimboHand01AS_Sync_0": 129110577298794474,
    "Ani_Avatar_NPC_SaluteMengde01BS_0": 3306235769379269077,
    "Ani_Avatar_NPC_SaluteMengde01Loop_0": 10236314454883616832,
    "Ani_Avatar_NPC_SaluteMengde01AS_0": 14885348931116653476,
    "Ani_Avatar_NPC_Request01BS_0": 9936857264206168529,
    "Ani_Avatar_NPC_Request01Loop_0": 6374177630891191620,
    "Ani_Avatar_NPC_Request01AS_0": 9164730333659093262,
    "Ani_Avatar_NPC_Clap01_0": 4961091061510278021,
    "Ani_Avatar_NPC_Cheer01BS_0": 7988877946935402340,
    "Ani_Avatar_NPC_Cheer01BS_Sync_0": 8233596836753170303,
    "Ani_Avatar_NPC_Cheer01Loop_0": 9777476586530568780,
    "Ani_Avatar_NPC_Cheer01Loop_Sync_0": 17568387558146504694,
    "Ani_Avatar_NPC_Cheer01AS_0": 16407410337300191228,
    "Ani_Avatar_NPC_Cheer01AS_Sync_0": 5695296394832064940,
    "Ani_Avatar_NPC_Investigate01BS_0": 7522376129043743785,
    "Ani_Avatar_NPC_Investigate01BS_Sync_0": 13825558879605440153,
    "Ani_Avatar_NPC_Investigate01Loop_0": 12738416125288287606,
    "Ani_Avatar_NPC_Investigate01Loop_Sync_0": 15170305556103826289,
    "Ani_Avatar_NPC_Investigate01AS_0": 5807098459050076511,
    "Ani_Avatar_NPC_Investigate01AS_Sync_0": 16843478018226772315,
    "Ani_Avatar_NPC_Laugh01_0": 7876482344547923385,
    "Ani_Avatar_NPC_Laugh01_Sync_0": 8171869272356870057,
    "Ani_Avatar_NPC_Encourage01_0": 1534883273217584015,
    "Ani_Avatar_NPC_Encourage01_Sync_0": 17846878740435913160,
    "Ani_Avatar_NPC_Dusting01_0": 4164629401641599748,
    "Ani_Avatar_NPC_Dusting01_Sync_0": 10516752499442953550,
    "Ani_Avatar_NPC_SitHoldArm01BS_0": 15894387410133763959,
    "Ani_Avatar_NPC_SitHoldArm01BS_Sync_0": 14250950685464021300,
    "Ani_Avatar_NPC_SitHoldArm01Loop_0": 17077048878690754462,
    "Ani_Avatar_NPC_SitHoldArm01Loop_Sync_0": 3686896869415026639,
    "Ani_Avatar_NPC_SitHoldArm01AS_0": 8099871174104290865,
    "Ani_Avatar_NPC_SitHoldArm01AS_Sync_0": 16078535036365691981,
    "Ani_Avatar_NPC_SitHoldArmHand01BS_0": 7290034449212747123,
    "Ani_Avatar_NPC_SitHoldArmHand01Loop_0": 17692956009122600378,
    "Ani_Avatar_NPC_SitHoldArmHand01AS_0": 8316703107244978878,
    "Ani_Avatar_NPC_PointF01BS_0": 4269772795759373827,
    "Ani_Avatar_NPC_PointF01BS_Sync_0": 16410313954574472646,
    "Ani_Avatar_NPC_PointF01Loop_0": 18088829858859345885,
    "Ani_Avatar_NPC_PointF01Loop_Sync_0": 10560378446978139719,
    "Ani_Avatar_NPC_PointF01AS_0": 2597239928668397361,
    "Ani_Avatar_NPC_PointF01AS_Sync_0": 12987418410045622981,
    "Ani_Avatar_NPC_PointL01BS_0": 8040414391445719757,
    "Ani_Avatar_NPC_PointL01Loop_0": 14236168800317313477,
    "Ani_Avatar_NPC_PointL01AS_0": 5681792259202939434,
    "Ani_Avatar_NPC_Talk01_0": 16988454061104439873,
    "Ani_Avatar_NPC_Talk01_Sync_0": 10264732120506865010,
    "Ani_Avatar_NPC_Talk02_0": 12917184784851561876,
    "Ani_Avatar_NPC_Talk02_Sync_0": 15437657005173455780,
    "Ani_Avatar_NPC_Talk03_0": 17273248841709214632,
    "Ani_Avatar_NPC_Talk03_Sync_0": 10416498013963876333,
    "Ani_Avatar_Catalyst_Show_01_0": 14291396411133761773,
    "Ani_Avatar_Catalyst_Show_01_Sync_0": 14291396411133761773,
    "Ani_Avatar_NPC_SitChat01BS_0": 17103245973768843628,
    "Ani_Avatar_NPC_SitChat01Loop_0": 18200756731242232918,
    "Ani_Avatar_NPC_SitChat01AS_0": 6753239789011064203,
    "Ani_Avatar_NPC_SitShrug01AS_0": 14887505765630971277,
    "Ani_Avatar_NPC_SitShrug01Loop_0": 12610928121848419269,
    "Ani_Avatar_NPC_SitShrug01BS_0": 14081138902873304601,
    "Ani_Avatar_NPC_SitThink01BS_0": 1620694295148601423,
    "Ani_Avatar_NPC_SitThink01Loop_0": 14270342546635714715,
    "Ani_Avatar_NPC_SitThink01AS_0": 6839562659632883548,
    "Ani_Avatar_Channel01BS_0": 5960687249005625433,
    "Ani_Avatar_Catalyst_Channel01BS_Sync_0": 14318039063319140016,
    "Ani_Avatar_Channel01Loop_0": 838208740136918127,
    "Ani_Avatar_Catalyst_Channel01Loop_Sync_0": 4558261394140853523,
    "Ani_Avatar_Channel01AS_0": 3329961036921765553,
    "Ani_Avatar_Catalyst_Channel01AS_Sync_0": 1830756905782804651,
    "Ani_Avatar_Catalyst_WeaponStandby_0": 3162884957850917646,
    "Ani_Avatar_Catalyst_WeaponStandby_Sync_0": 11154378664789838771
  }
}