{
  "freeStyleStateMap": {
    "10100": [],
    "10101": [],
    "10201": [],
    "10301": [],
    "10401": [],
    "10501": [],
    "10601": [],
    "10701": [],
    "10801": [],
    "1231": [
      "Ani_Avatar_NPC_AkimboHand01BS_0",
      "Ani_Avatar_NPC_AkimboHand01BS_Sync_0",
      "Ani_Avatar_NPC_AkimboHand01Loop_0",
      "Ani_Avatar_NPC_AkimboHand01Loop_Sync_0",
      "Ani_Avatar_NPC_AkimboHand01AS_0",
      "Ani_Avatar_NPC_AkimboHand01AS_Sync_0",
      "Ani_Avatar_NPC_Akimbo01Loop_0",
      "Ani_Avatar_NPC_Akimbo01Loop_Sync_0",
      "Ani_Avatar_NPC_Akimbo01AS_0",
      "Ani_Avatar_NPC_Akimbo01AS_Sync_0"
    ],
    "1121": [
      "Ani_Avatar_NPC_HoldArmHand01BS_0",
      "Ani_Avatar_NPC_HoldArmHand01BS_Sync_0",
      "Ani_Avatar_NPC_HoldArmHand01Loop_0",
      "Ani_Avatar_NPC_HoldArmHand01Loop_Sync_0",
      "Ani_Avatar_NPC_HoldArmHand01AS_0",
      "Ani_Avatar_NPC_HoldArmHand01AS_Sync_0",
      "Ani_Avatar_NPC_HoldArm01Loop_0",
      "Ani_Avatar_NPC_HoldArm01Loop_Sync_0",
      "Ani_Avatar_NPC_HoldArm01AS_0",
      "Ani_Avatar_NPC_HoldArm01AS_Sync_0"
    ],
    "1191": [
      "Ani_Avatar_NPC_ThinkHand01BS_0",
      "Ani_Avatar_NPC_ThinkHand01BS_Sync_0",
      "Ani_Avatar_NPC_ThinkHand01Loop_0",
      "Ani_Avatar_NPC_ThinkHand01Loop_Sync_0",
      "Ani_Avatar_NPC_ThinkHand01AS_0",
      "Ani_Avatar_NPC_ThinkHand01AS_Sync_0",
      "Ani_Avatar_NPC_Think01Loop_0",
      "Ani_Avatar_NPC_Think01Loop_Sync_0",
      "Ani_Avatar_NPC_Think01AS_0",
      "Ani_Avatar_NPC_Think01AS_Sync_0"
    ],
    "1221": [
      "Ani_Avatar_NPC_AkimboHand02BS_0",
      "Ani_Avatar_NPC_AkimboHand02BS_Sync_0",
      "Ani_Avatar_NPC_AkimboHand02Loop_0",
      "Ani_Avatar_NPC_AkimboHand02Loop_Sync_0",
      "Ani_Avatar_NPC_AkimboHand02AS_0",
      "Ani_Avatar_NPC_AkimboHand02AS_Sync_0",
      "Ani_Avatar_NPC_Akimbo02Loop_0",
      "Ani_Avatar_NPC_Akimbo02Loop_Sync_0",
      "Ani_Avatar_NPC_Akimbo02AS_0",
      "Ani_Avatar_NPC_Akimbo02AS_Sync_0"
    ],
    "8040": [
      "Ani_Avatar_NPC_SitHoldArm01BS_0",
      "Ani_Avatar_NPC_SitHoldArm01BS_Sync_0",
      "Ani_Avatar_NPC_SitHoldArm01Loop_0",
      "Ani_Avatar_NPC_SitHoldArm01Loop_Sync_0",
      "Ani_Avatar_NPC_SitHoldArm01AS_0",
      "Ani_Avatar_NPC_SitHoldArm01AS_Sync_0"
    ],
    "8013": [
      "Ani_Avatar_NPC_SitThink01BS_0",
      "Ani_Avatar_NPC_SitThink01BS_Sync_0",
      "Ani_Avatar_NPC_SitThink01Loop_0",
      "Ani_Avatar_NPC_SitThink01Loop_Sync_0",
      "Ani_Avatar_NPC_SitThink01AS_0",
      "Ani_Avatar_NPC_SitThink01AS_Sync_0"
    ],
    "8060": [
      "Ani_Avatar_NPC_SitPutArm01BS_0",
      "Ani_Avatar_NPC_SitPutArm01BS_Sync_0",
      "Ani_Avatar_NPC_SitPutArm01Loop_0",
      "Ani_Avatar_NPC_SitPutArm01Loop_Sync_0",
      "Ani_Avatar_NPC_SitPutArm01AS_0",
      "Ani_Avatar_NPC_SitPutArm01AS_Sync_0"
    ],
    "8011": [
      "Ani_Avatar_NPC_SitChat01BS_0",
      "Ani_Avatar_NPC_SitChat01BS_Sync_0",
      "Ani_Avatar_NPC_SitChat01Loop_0",
      "Ani_Avatar_NPC_SitChat01Loop_Sync_0",
      "Ani_Avatar_NPC_SitChat01AS_0",
      "Ani_Avatar_NPC_SitChat01AS_Sync_0"
    ],
    "8012": [
      "Ani_Avatar_NPC_SitShrug01BS_0",
      "Ani_Avatar_NPC_SitShrug01BS_Sync_0",
      "Ani_Avatar_NPC_SitShrug01Loop_0",
      "Ani_Avatar_NPC_SitShrug01Loop_Sync_0",
      "Ani_Avatar_NPC_SitShrug01AS_0",
      "Ani_Avatar_NPC_SitShrug01AS_Sync_0"
    ],
    "8041": [
      "Ani_Avatar_NPC_SitHoldArmHand01BS_0",
      "Ani_Avatar_NPC_SitHoldArmHand01BS_Sync_0",
      "Ani_Avatar_NPC_SitHoldArmHand01Loop_0",
      "Ani_Avatar_NPC_SitHoldArmHand01Loop_Sync_0",
      "Ani_Avatar_NPC_SitHoldArmHand01AS_0",
      "Ani_Avatar_NPC_SitHoldArmHand01AS_Sync_0",
      "Ani_Avatar_NPC_SitHoldArm01Loop_0",
      "Ani_Avatar_NPC_SitHoldArm01Loop_Sync_0",
      "Ani_Avatar_NPC_SitHoldArm01AS_0",
      "Ani_Avatar_NPC_SitHoldArm01AS_Sync_0"
    ],
    "1230": [
      "Ani_Avatar_NPC_Akimbo01BS_0",
      "Ani_Avatar_NPC_Akimbo01BS_Sync_0",
      "Ani_Avatar_NPC_Akimbo01Loop_0",
      "Ani_Avatar_NPC_Akimbo01Loop_Sync_0",
      "Ani_Avatar_NPC_Akimbo01AS_0",
      "Ani_Avatar_NPC_Akimbo01AS_Sync_0"
    ],
    "1040": [
      "Ani_Avatar_NPC_Backrake01BS_0",
      "Ani_Avatar_NPC_Backrake01BS_Sync_0",
      "Ani_Avatar_NPC_Backrake01Loop_0",
      "Ani_Avatar_NPC_Backrake01Loop_Sync_0",
      "Ani_Avatar_NPC_Backrake01AS_0",
      "Ani_Avatar_NPC_Backrake01AS_Sync_0"
    ],
    "1050": [
      "Ani_Avatar_NPC_Confuse01BS_0",
      "Ani_Avatar_NPC_Confuse01BS_Sync_0",
      "Ani_Avatar_NPC_Confuse01Loop_0",
      "Ani_Avatar_NPC_Confuse01Loop_Sync_0",
      "Ani_Avatar_NPC_Confuse01AS_0",
      "Ani_Avatar_NPC_Confuse01AS_Sync_0"
    ],
    "1060": [
      "Ani_Avatar_NPC_Forerake01BS_0",
      "Ani_Avatar_NPC_Forerake01BS_Sync_0",
      "Ani_Avatar_NPC_Forerake01Loop_0",
      "Ani_Avatar_NPC_Forerake01Loop_Sync_0",
      "Ani_Avatar_NPC_Forerake01AS_0",
      "Ani_Avatar_NPC_Forerake01AS_Sync_0"
    ],
    "1070": [
      "Ani_Avatar_NPC_Afraid01BS_0",
      "Ani_Avatar_NPC_Afraid01Loop_0",
      "Ani_Avatar_NPC_Afraid01AS_0"
    ],
    "1080": [
      "Ani_Avatar_NPC_Alert01BS_0",
      "Ani_Avatar_NPC_Alert01BS_Sync_0",
      "Ani_Avatar_NPC_Alert01Loop_0",
      "Ani_Avatar_NPC_Alert01Loop_Sync_0",
      "Ani_Avatar_NPC_Alert01AS_0",
      "Ani_Avatar_NPC_Alert01AS_Sync_0"
    ],
    "1090": [
      "Ani_Avatar_NPC_Shy01BS_0",
      "Ani_Avatar_NPC_Shy01BS_Sync_0",
      "Ani_Avatar_NPC_Shy01Loop_0",
      "Ani_Avatar_NPC_Shy01Loop_Sync_0",
      "Ani_Avatar_NPC_Shy01AS_0",
      "Ani_Avatar_NPC_Shy01AS_Sync_0"
    ],
    "1110": [
      "Ani_Avatar_NPC_Shrug01BS_0",
      "Ani_Avatar_NPC_Shrug01BS_Sync_0",
      "Ani_Avatar_NPC_Shrug01Loop_0",
      "Ani_Avatar_NPC_Shrug01Loop_Sync_0",
      "Ani_Avatar_NPC_Shrug01AS_0",
      "Ani_Avatar_NPC_Shrug01AS_Sync_0"
    ],
    "1120": [
      "Ani_Avatar_NPC_HoldArm01BS_0",
      "Ani_Avatar_NPC_HoldArm01BS_Sync_0",
      "Ani_Avatar_NPC_HoldArm01Loop_0",
      "Ani_Avatar_NPC_HoldArm01Loop_Sync_0",
      "Ani_Avatar_NPC_HoldArm01AS_0",
      "Ani_Avatar_NPC_HoldArm01AS_Sync_0"
    ],
    "1130": [
      "Ani_Avatar_NPC_StrikeChest01BS_0",
      "Ani_Avatar_NPC_StrikeChest01BS_Sync_0",
      "Ani_Avatar_NPC_StrikeChest01Loop_0",
      "Ani_Avatar_NPC_StrikeChest01Loop_Sync_0",
      "Ani_Avatar_NPC_StrikeChest01AS_0",
      "Ani_Avatar_NPC_StrikeChest01AS_Sync_0"
    ],
    "1140": [
      "Ani_Avatar_NPC_PointR01BS_0",
      "Ani_Avatar_NPC_PointR01BS_Sync_0",
      "Ani_Avatar_NPC_PointR01Loop_0",
      "Ani_Avatar_NPC_PointR01Loop_Sync_0",
      "Ani_Avatar_NPC_PointR01AS_0",
      "Ani_Avatar_NPC_PointR01AS_Sync_0"
    ],
    "1150": [
      "Ani_Avatar_NPC_Refuse01_0",
      "Ani_Avatar_NPC_Refuse01_Sync_0"
    ],
    "1160": [
      "Ani_Avatar_NPC_Downcast01BS_0",
      "Ani_Avatar_NPC_Downcast01BS_Sync_0",
      "Ani_Avatar_NPC_Downcast01Loop_0",
      "Ani_Avatar_NPC_Downcast01Loop_Sync_0",
      "Ani_Avatar_NPC_Downcast01AS_0",
      "Ani_Avatar_NPC_Downcast01AS_Sync_0"
    ],
    "1170": [
      "Ani_Avatar_NPC_Chat01BS_0",
      "Ani_Avatar_NPC_Chat01BS_Sync_0",
      "Ani_Avatar_NPC_Chat01Loop_0",
      "Ani_Avatar_NPC_Chat01Loop_Sync_0",
      "Ani_Avatar_NPC_Chat01AS_0",
      "Ani_Avatar_NPC_Chat01AS_Sync_0"
    ],
    "1180": [
      "Ani_Avatar_NPC_Chat02BS_0",
      "Ani_Avatar_NPC_Chat02BS_Sync_0",
      "Ani_Avatar_NPC_Chat02Loop_0",
      "Ani_Avatar_NPC_Chat02Loop_Sync_0",
      "Ani_Avatar_NPC_Chat02AS_0",
      "Ani_Avatar_NPC_Chat02AS_Sync_0"
    ],
    "1190": [
      "Ani_Avatar_NPC_Think01BS_0",
      "Ani_Avatar_NPC_Think01BS_Sync_0",
      "Ani_Avatar_NPC_Think01Loop_0",
      "Ani_Avatar_NPC_Think01Loop_Sync_0",
      "Ani_Avatar_NPC_Think01AS_0",
      "Ani_Avatar_NPC_Think01AS_Sync_0"
    ],
    "9030": [],
    "9040": [],
    "1220": [
      "Ani_Avatar_NPC_Akimbo02BS_0",
      "Ani_Avatar_NPC_Akimbo02BS_Sync_0",
      "Ani_Avatar_NPC_Akimbo02Loop_0",
      "Ani_Avatar_NPC_Akimbo02Loop_Sync_0",
      "Ani_Avatar_NPC_Akimbo02AS_0",
      "Ani_Avatar_NPC_Akimbo02AS_Sync_0"
    ],
    "1240": [
      "Ani_Avatar_NPC_HoldHead01BS_0",
      "Ani_Avatar_NPC_HoldHead01BS_Sync_0",
      "Ani_Avatar_NPC_HoldHead01Loop_0",
      "Ani_Avatar_NPC_HoldHead01Loop_Sync_0",
      "Ani_Avatar_NPC_HoldHead01AS_0",
      "Ani_Avatar_NPC_HoldHead01AS_Sync_0"
    ],
    "1030": [
      "Ani_Avatar_NPC_PutHand01BS_0",
      "Ani_Avatar_NPC_PutHand01BS_Sync_0",
      "Ani_Avatar_NPC_PutHand01Loop_0",
      "Ani_Avatar_NPC_PutHand01Loop_Sync_0",
      "Ani_Avatar_NPC_PutHand01AS_0",
      "Ani_Avatar_NPC_PutHand01AS_Sync_0"
    ],
    "1200": [
      "Ani_Avatar_NPC_Greet01_0",
      "Ani_Avatar_NPC_Greet01_Sync_0"
    ],
    "1210": [
      "Ani_Avatar_NPC_SaluteMengde01BS_0",
      "Ani_Avatar_NPC_SaluteMengde01Loop_0",
      "Ani_Avatar_NPC_SaluteMengde01AS_0"
    ],
    "8010": [],
    "8020": [],
    "1250": [
      "Ani_Avatar_NPC_Request01BS_0",
      "Ani_Avatar_NPC_Request01Loop_0",
      "Ani_Avatar_NPC_Request01AS_0"
    ],
    "1260": [
      "Ani_Avatar_NPC_Clap01_0"
    ],
    "1270": [
      "Ani_Avatar_NPC_Cheer01BS_0",
      "Ani_Avatar_NPC_Cheer01BS_Sync_0",
      "Ani_Avatar_NPC_Cheer01Loop_0",
      "Ani_Avatar_NPC_Cheer01Loop_Sync_0",
      "Ani_Avatar_NPC_Cheer01AS_0",
      "Ani_Avatar_NPC_Cheer01AS_Sync_0"
    ],
    "1280": [
      "Ani_Avatar_NPC_Investigate01BS_0",
      "Ani_Avatar_NPC_Investigate01BS_Sync_0",
      "Ani_Avatar_NPC_Investigate01Loop_0",
      "Ani_Avatar_NPC_Investigate01Loop_Sync_0",
      "Ani_Avatar_NPC_Investigate01AS_0",
      "Ani_Avatar_NPC_Investigate01AS_Sync_0"
    ],
    "1290": [
      "Ani_Avatar_NPC_Laugh01_0",
      "Ani_Avatar_NPC_Laugh01_Sync_0"
    ],
    "1300": [
      "Ani_Avatar_NPC_Encourage01_0",
      "Ani_Avatar_NPC_Encourage01_Sync_0"
    ],
    "1310": [
      "Ani_Avatar_NPC_Dusting01_0"
    ],
    "1141": [
      "Ani_Avatar_NPC_PointF01BS_0",
      "Ani_Avatar_NPC_PointF01BS_Sync_0",
      "Ani_Avatar_NPC_PointF01Loop_0",
      "Ani_Avatar_NPC_PointF01Loop_Sync_0",
      "Ani_Avatar_NPC_PointF01AS_0",
      "Ani_Avatar_NPC_PointF01AS_Sync_0"
    ],
    "1142": [
      "Ani_Avatar_NPC_PointL01BS_0",
      "Ani_Avatar_NPC_PointL01BS_Sync_0",
      "Ani_Avatar_NPC_PointL01Loop_0",
      "Ani_Avatar_NPC_PointL01Loop_Sync_0",
      "Ani_Avatar_NPC_PointL01AS_0",
      "Ani_Avatar_NPC_PointL01AS_Sync_0"
    ],
    "1171": [
      "Ani_Avatar_NPC_Talk01_0",
      "Ani_Avatar_NPC_Talk01_Sync_0"
    ],
    "1172": [
      "Ani_Avatar_NPC_Talk02_0",
      "Ani_Avatar_NPC_Talk02_Sync_0"
    ],
    "1173": [
      "Ani_Avatar_NPC_Talk03_0",
      "Ani_Avatar_NPC_Talk03_Sync_0"
    ],
    "4091": [
      "Ani_Avatar_PlayQin01BS_0",
      "Ani_Avatar_Pole_PlayQin01BS_Sync_0",
      "Ani_Avatar_PlayQin01Loop_0",
      "Ani_Avatar_Pole_PlayQin01Loop_Sync_0",
      "Ani_Avatar_PlayQin01AS_0",
      "Ani_Avatar_Pole_PlayQin01AS_Sync_0"
    ],
    "4090": [
      "Ani_Avatar_PlayLyre01BS_0",
      "Ani_Avatar_Pole_PlayLyre01BS_Sync_0",
      "Ani_Avatar_PlayLyre01Loop_0",
      "Ani_Avatar_Pole_PlayLyre01Loop_Sync_0",
      "Ani_Avatar_PlayLyre01AS_0",
      "Ani_Avatar_Pole_PlayLyre01AS_Sync_0"
    ],
    "4100": [
      "Ani_Avatar_NPC_SitOnFloor01Cycle_0",
      "Ani_Avatar_NPC_SitOnFloor01Cycle_Sync_0"
    ],
    "4503": [
      "Ani_Avatar_Pole_WeaponStandby_0",
      "Ani_Avatar_Pole_WeaponStandby_Sync_0"
    ],
    "1342": [
      "Ani_Avatar_Channel01BS_0",
      "Ani_Avatar_Pole_Channel01BS_Sync_0",
      "Ani_Avatar_Channel01Loop_0",
      "Ani_Avatar_Pole_Channel01Loop_Sync_0",
      "Ani_Avatar_Channel01AS_0",
      "Ani_Avatar_Pole_Channel01AS_Sync_0"
    ],
    "4504": [
      "Ani_Avatar_Pole_ElementalArt_0",
      "Ani_Avatar_Pole_ElementalArt_Sync_0",
      "Ani_Avatar_Pole_ElementalArt_AS_0",
      "Ani_Avatar_Pole_ElementalArt_AS_Sync_0"
    ]
  },
  "stateAnimeMap": {
    "Ani_Avatar_NPC_Akimbo01BS_0": 8687207375418286163,
    "Ani_Avatar_NPC_Akimbo01BS_Sync_0": 8464416215531666862,
    "Ani_Avatar_NPC_Backrake01BS_0": 18139229080019537150,
    "Ani_Avatar_NPC_Backrake01BS_Sync_0": 10869920180889545521,
    "Ani_Avatar_NPC_Confuse01BS_0": 11715920638266377077,
    "Ani_Avatar_NPC_Confuse01BS_Sync_0": 9302713021529509287,
    "Ani_Avatar_NPC_Forerake01BS_0": 9482724689116420649,
    "Ani_Avatar_NPC_Forerake01BS_Sync_0": 10423039413115402281,
    "Ani_Avatar_NPC_Afraid01BS_0": 765711825507843518,
    "Ani_Avatar_NPC_Alert01BS_0": 13148714946584556741,
    "Ani_Avatar_NPC_Alert01BS_Sync_0": 11360330886469246677,
    "Ani_Avatar_NPC_Shy01BS_0": 12397695083377975973,
    "Ani_Avatar_NPC_Shy01BS_Sync_0": 14396151150971351169,
    "Ani_Avatar_NPC_Shrug01BS_0": 12127153981674536026,
    "Ani_Avatar_NPC_Shrug01BS_Sync_0": 11146186499869199316,
    "Ani_Avatar_NPC_HoldArm01BS_0": 8572885602709724251,
    "Ani_Avatar_NPC_HoldArm01BS_Sync_0": 6855894636371408994,
    "Ani_Avatar_NPC_StrikeChest01BS_0": 171853446183227172,
    "Ani_Avatar_NPC_StrikeChest01BS_Sync_0": 3193314343556519127,
    "Ani_Avatar_NPC_PointR01BS_0": 2450299560933512599,
    "Ani_Avatar_NPC_PointR01BS_Sync_0": 12817190291878537752,
    "Ani_Avatar_NPC_Refuse01_0": 2696954681140064523,
    "Ani_Avatar_NPC_Refuse01_Sync_0": 15197433481155796237,
    "Ani_Avatar_NPC_Downcast01BS_0": 9956927130043792575,
    "Ani_Avatar_NPC_Downcast01BS_Sync_0": 9659857460452489720,
    "Ani_Avatar_NPC_Chat01BS_0": 14203316671546789106,
    "Ani_Avatar_NPC_Chat01BS_Sync_0": 18109302129408170638,
    "Ani_Avatar_NPC_Chat02BS_0": 2307247068619310817,
    "Ani_Avatar_NPC_Chat02BS_Sync_0": 1878759046571988869,
    "Ani_Avatar_NPC_Akimbo01Loop_0": 8134597280124444900,
    "Ani_Avatar_NPC_Akimbo01Loop_Sync_0": 18132789887407382360,
    "Ani_Avatar_NPC_Akimbo01AS_0": 11435557217339532046,
    "Ani_Avatar_NPC_Akimbo01AS_Sync_0": 2620774379225472177,
    "Ani_Avatar_NPC_Backrake01Loop_0": 11326868709249839570,
    "Ani_Avatar_NPC_Backrake01Loop_Sync_0": 3053263569882368873,
    "Ani_Avatar_NPC_Confuse01Loop_0": 18277076844544176847,
    "Ani_Avatar_NPC_Confuse01Loop_Sync_0": 10890303198656742409,
    "Ani_Avatar_NPC_Confuse01AS_0": 2490866027202930585,
    "Ani_Avatar_NPC_Confuse01AS_Sync_0": 4760109435853430734,
    "Ani_Avatar_NPC_Forerake01Loop_0": 139899639811135947,
    "Ani_Avatar_NPC_Forerake01Loop_Sync_0": 16089314827722129362,
    "Ani_Avatar_NPC_Forerake01AS_0": 12853025141386432951,
    "Ani_Avatar_NPC_Forerake01AS_Sync_0": 16300770252186200365,
    "Ani_Avatar_NPC_Afraid01Loop_0": 6665345415241813034,
    "Ani_Avatar_NPC_Afraid01AS_0": 11791885082899028542,
    "Ani_Avatar_NPC_Alert01Loop_0": 15561321928905059974,
    "Ani_Avatar_NPC_Alert01Loop_Sync_0": 9430137253423933705,
    "Ani_Avatar_NPC_Alert01AS_0": 3869554312248714179,
    "Ani_Avatar_NPC_Alert01AS_Sync_0": 14156417172910751347,
    "Ani_Avatar_NPC_Shy01Loop_0": 2350597875515910506,
    "Ani_Avatar_NPC_Shy01Loop_Sync_0": 9715079779903226365,
    "Ani_Avatar_NPC_Shy01AS_0": 12897711137515889451,
    "Ani_Avatar_NPC_Shy01AS_Sync_0": 15243380303374290110,
    "Ani_Avatar_NPC_Shrug01Loop_0": 12058799096195234772,
    "Ani_Avatar_NPC_Shrug01Loop_Sync_0": 6230484031140659017,
    "Ani_Avatar_NPC_Shrug01AS_0": 12804492378682926018,
    "Ani_Avatar_NPC_Shrug01AS_Sync_0": 5404571621062211957,
    "Ani_Avatar_NPC_HoldArm01Loop_0": 3495303117420885207,
    "Ani_Avatar_NPC_HoldArm01Loop_Sync_0": 356871748901087442,
    "Ani_Avatar_NPC_HoldArm01AS_0": 14896751227684016452,
    "Ani_Avatar_NPC_HoldArm01AS_Sync_0": 6053161974785613445,
    "Ani_Avatar_NPC_StrikeChest01Loop_0": 18299091073645162818,
    "Ani_Avatar_NPC_StrikeChest01Loop_Sync_0": 8247657197543774296,
    "Ani_Avatar_NPC_StrikeChest01AS_0": 1076331244716096050,
    "Ani_Avatar_NPC_StrikeChest01AS_Sync_0": 4646161901346512880,
    "Ani_Avatar_NPC_PointR01Loop_0": 13985388450949558776,
    "Ani_Avatar_NPC_PointR01Loop_Sync_0": 2099206983919628755,
    "Ani_Avatar_NPC_PointR01AS_0": 7238902072470349650,
    "Ani_Avatar_NPC_PointR01AS_Sync_0": 5601573941411704258,
    "Ani_Avatar_NPC_Downcast01Loop_0": 15555115093798985087,
    "Ani_Avatar_NPC_Downcast01Loop_Sync_0": 10518286822515586851,
    "Ani_Avatar_NPC_Downcast01AS_0": 7115919146685306883,
    "Ani_Avatar_NPC_Downcast01AS_Sync_0": 10865335332719606276,
    "Ani_Avatar_NPC_Chat01Loop_0": 14659987411826124975,
    "Ani_Avatar_NPC_Chat01Loop_Sync_0": 7529606617861787422,
    "Ani_Avatar_NPC_Chat01AS_0": 13102734640143592331,
    "Ani_Avatar_NPC_Chat01AS_Sync_0": 8982977208935068866,
    "Ani_Avatar_NPC_Chat02Loop_0": 3410315206843931438,
    "Ani_Avatar_NPC_Chat02Loop_Sync_0": 4294204288774794120,
    "Ani_Avatar_NPC_Chat02AS_0": 17465793649590367375,
    "Ani_Avatar_NPC_Chat02AS_Sync_0": 14414622296109055058,
    "Ani_Avatar_NPC_Backrake01AS_0": 16029758900288241219,
    "Ani_Avatar_NPC_Backrake01AS_Sync_0": 13762164297349094588,
    "Ani_Avatar_NPC_Think01BS_0": 3267776653497341819,
    "Ani_Avatar_NPC_Think01BS_Sync_0": 272063968481687747,
    "Ani_Avatar_NPC_Think01Loop_0": 12870466669703548874,
    "Ani_Avatar_NPC_Think01Loop_Sync_0": 11644648726739719156,
    "Ani_Avatar_NPC_Think01AS_0": 5510419431146566170,
    "Ani_Avatar_NPC_Think01AS_Sync_0": 8853606174466616615,
    "Ani_Avatar_NPC_AkimboHand01Loop_0": 16064249559893479989,
    "Ani_Avatar_NPC_AkimboHand01Loop_Sync_0": 5767219870774769699,
    "Ani_Avatar_NPC_HoldArmHand01Loop_0": 7282614356745302843,
    "Ani_Avatar_NPC_HoldArmHand01Loop_Sync_0": 11242727639135691970,
    "Ani_Avatar_NPC_ThinkHand01Loop_0": 1958743396184326307,
    "Ani_Avatar_NPC_ThinkHand01Loop_Sync_0": 4300867271222734406,
    "Ani_Avatar_NPC_Akimbo02BS_0": 11986320645291187843,
    "Ani_Avatar_NPC_Akimbo02BS_Sync_0": 9029711807093257965,
    "Ani_Avatar_NPC_Akimbo02Loop_0": 17957217819281953073,
    "Ani_Avatar_NPC_Akimbo02Loop_Sync_0": 9156662612769905825,
    "Ani_Avatar_NPC_AkimboHand02Loop_0": 1181399341019210846,
    "Ani_Avatar_NPC_AkimboHand02Loop_Sync_0": 13395327811699352434,
    "Ani_Avatar_NPC_Akimbo02AS_0": 18435948481139493343,
    "Ani_Avatar_NPC_Akimbo02AS_Sync_0": 11172524191413349548,
    "Ani_Avatar_NPC_HoldHead01BS_0": 3068465902692858479,
    "Ani_Avatar_NPC_HoldHead01BS_Sync_0": 15817074790929444724,
    "Ani_Avatar_NPC_HoldHead01Loop_0": 17543212152755533704,
    "Ani_Avatar_NPC_HoldHead01Loop_Sync_0": 9845141617841116038,
    "Ani_Avatar_NPC_HoldHead01AS_0": 7706419061033644890,
    "Ani_Avatar_NPC_HoldHead01AS_Sync_0": 11591717270982345163,
    "Ani_Avatar_NPC_PutHand01BS_0": 6016005119198646822,
    "Ani_Avatar_NPC_PutHand01BS_Sync_0": 11421949593906200630,
    "Ani_Avatar_NPC_PutHand01Loop_0": 7576767650025618235,
    "Ani_Avatar_NPC_PutHand01Loop_Sync_0": 5106301278773866387,
    "Ani_Avatar_NPC_PutHand01AS_0": 13151329314105255936,
    "Ani_Avatar_NPC_PutHand01AS_Sync_0": 15634483561483235886,
    "Ani_Avatar_NPC_Greet01_0": 5505813724457782911,
    "Ani_Avatar_NPC_Greet01_Sync_0": 6108039139874184478,
    "Ani_Avatar_NPC_AkimboHand02AS_0": 10816773832952764853,
    "Ani_Avatar_NPC_AkimboHand02AS_Sync_0": 15692629058910010273,
    "Ani_Avatar_NPC_ThinkHand01BS_0": 5171352576585395867,
    "Ani_Avatar_NPC_ThinkHand01BS_Sync_0": 2600589702069861725,
    "Ani_Avatar_NPC_ThinkHand01AS_0": 16997449098437790761,
    "Ani_Avatar_NPC_ThinkHand01AS_Sync_0": 8066828125903256685,
    "Ani_Avatar_NPC_HoldArmHand01BS_0": 13723733493210159374,
    "Ani_Avatar_NPC_HoldArmHand01BS_Sync_0": 7794614893952545009,
    "Ani_Avatar_NPC_HoldArmHand01AS_0": 14576753436420329001,
    "Ani_Avatar_NPC_HoldArmHand01AS_Sync_0": 2805078630112267658,
    "Ani_Avatar_NPC_AkimboHand01BS_0": 10215559716233001902,
    "Ani_Avatar_NPC_AkimboHand01BS_Sync_0": 9469984404755938225,
    "Ani_Avatar_NPC_AkimboHand01AS_0": 15129101753489867980,
    "Ani_Avatar_NPC_AkimboHand01AS_Sync_0": 14603295718396432335,
    "Ani_Avatar_NPC_SaluteMengde01BS_0": 3306235769379269077,
    "Ani_Avatar_NPC_SaluteMengde01Loop_0": 10236314454883616832,
    "Ani_Avatar_NPC_SaluteMengde01AS_0": 14885348931116653476,
    "Ani_Avatar_NPC_Request01BS_0": 9936857264206168529,
    "Ani_Avatar_NPC_Request01Loop_0": 6374177630891191620,
    "Ani_Avatar_NPC_Request01AS_0": 9164730333659093262,
    "Ani_Avatar_NPC_Clap01_0": 4961091061510278021,
    "Ani_Avatar_NPC_Cheer01BS_0": 7988877946935402340,
    "Ani_Avatar_NPC_Cheer01BS_Sync_0": 12722936667038873125,
    "Ani_Avatar_NPC_Cheer01Loop_0": 9777476586530568780,
    "Ani_Avatar_NPC_Cheer01Loop_Sync_0": 10393058276040114221,
    "Ani_Avatar_NPC_Cheer01AS_0": 16407410337300191228,
    "Ani_Avatar_NPC_Cheer01AS_Sync_0": 12599800935527600954,
    "Ani_Avatar_NPC_Investigate01BS_0": 7522376129043743785,
    "Ani_Avatar_NPC_Investigate01BS_Sync_0": 7586108081664713030,
    "Ani_Avatar_NPC_Investigate01Loop_0": 12738416125288287606,
    "Ani_Avatar_NPC_Investigate01Loop_Sync_0": 8870531679920694590,
    "Ani_Avatar_NPC_Investigate01AS_0": 5807098459050076511,
    "Ani_Avatar_NPC_Investigate01AS_Sync_0": 11822598505102239497,
    "Ani_Avatar_NPC_Laugh01_0": 7876482344547923385,
    "Ani_Avatar_NPC_Laugh01_Sync_0": 12626345576839885040,
    "Ani_Avatar_NPC_Encourage01_0": 1534883273217584015,
    "Ani_Avatar_NPC_Encourage01_Sync_0": 17500686616192355790,
    "Ani_Avatar_NPC_Dusting01_0": 4164629401641599748,
    "Ani_Avatar_NPC_SitHoldArm01BS_0": 15894387410133763959,
    "Ani_Avatar_NPC_SitHoldArm01BS_Sync_0": 15627844030955398049,
    "Ani_Avatar_NPC_SitHoldArm01Loop_0": 17077048878690754462,
    "Ani_Avatar_NPC_SitHoldArm01Loop_Sync_0": 7969286903116824720,
    "Ani_Avatar_NPC_SitHoldArm01AS_0": 8099871174104290865,
    "Ani_Avatar_NPC_SitHoldArm01AS_Sync_0": 14329434610389001226,
    "Ani_Avatar_NPC_SitHoldArmHand01BS_0": 7290034449212747123,
    "Ani_Avatar_NPC_SitHoldArmHand01BS_Sync_0": 3250193230350516395,
    "Ani_Avatar_NPC_SitHoldArmHand01Loop_0": 17692956009122600378,
    "Ani_Avatar_NPC_SitHoldArmHand01Loop_Sync_0": 4351334910672072557,
    "Ani_Avatar_NPC_SitHoldArmHand01AS_0": 8316703107244978878,
    "Ani_Avatar_NPC_SitHoldArmHand01AS_Sync_0": 1017786176832520978,
    "Ani_Avatar_NPC_PointF01BS_0": 4269772795759373827,
    "Ani_Avatar_NPC_PointF01BS_Sync_0": 13600212501113079039,
    "Ani_Avatar_NPC_PointF01Loop_0": 18088829858859345885,
    "Ani_Avatar_NPC_PointF01Loop_Sync_0": 5381967402948277590,
    "Ani_Avatar_NPC_PointF01AS_0": 2597239928668397361,
    "Ani_Avatar_NPC_PointF01AS_Sync_0": 6877911634388372099,
    "Ani_Avatar_NPC_PointL01BS_0": 8040414391445719757,
    "Ani_Avatar_NPC_PointL01BS_Sync_0": 12120344162412751177,
    "Ani_Avatar_NPC_PointL01Loop_0": 14236168800317313477,
    "Ani_Avatar_NPC_PointL01Loop_Sync_0": 18052438306429033864,
    "Ani_Avatar_NPC_PointL01AS_0": 5681792259202939434,
    "Ani_Avatar_NPC_PointL01AS_Sync_0": 8113507776975500844,
    "Ani_Avatar_NPC_Talk01_0": 16988454061104439873,
    "Ani_Avatar_NPC_Talk01_Sync_0": 11121041885364949117,
    "Ani_Avatar_NPC_Talk02_0": 12917184784851561876,
    "Ani_Avatar_NPC_Talk02_Sync_0": 3611043745603724754,
    "Ani_Avatar_NPC_Talk03_0": 17273248841709214632,
    "Ani_Avatar_NPC_Talk03_Sync_0": 7038651523466227981,
    "Ani_Avatar_NPC_AkimboHand02BS_0": 16692740252883503539,
    "Ani_Avatar_NPC_AkimboHand02BS_Sync_0": 12836571511326191598,
    "Ani_Avatar_NPC_SitThink01BS_0": 1620694295148601423,
    "Ani_Avatar_NPC_SitThink01BS_Sync_0": 8677995678359211609,
    "Ani_Avatar_NPC_SitThink01Loop_0": 14270342546635714715,
    "Ani_Avatar_NPC_SitThink01Loop_Sync_0": 11503047287754687913,
    "Ani_Avatar_NPC_SitThink01AS_0": 6839562659632883548,
    "Ani_Avatar_NPC_SitThink01AS_Sync_0": 7844823057389235588,
    "Ani_Avatar_NPC_SitPutArm01AS_0": 17285163506801410232,
    "Ani_Avatar_NPC_SitPutArm01AS_Sync_0": 16869911070040467424,
    "Ani_Avatar_NPC_SitPutArm01Loop_0": 4122839000073631794,
    "Ani_Avatar_NPC_SitPutArm01Loop_Sync_0": 6572860425859203487,
    "Ani_Avatar_NPC_SitPutArm01BS_0": 10794887061802215500,
    "Ani_Avatar_NPC_SitPutArm01BS_Sync_0": 13406201023892681362,
    "Ani_Avatar_PlayQin01AS_0": 13248638879348282577,
    "Ani_Avatar_Pole_PlayQin01AS_Sync_0": 9239523789831262440,
    "Ani_Avatar_PlayQin01Loop_0": 2742947307808133794,
    "Ani_Avatar_Pole_PlayQin01Loop_Sync_0": 17279145978950522943,
    "Ani_Avatar_PlayQin01BS_0": 16259296573426315965,
    "Ani_Avatar_Pole_PlayQin01BS_Sync_0": 12384747825589111601,
    "Ani_Avatar_PlayLyre01AS_0": 12848518866858537694,
    "Ani_Avatar_Pole_PlayLyre01AS_Sync_0": 3045546081676345317,
    "Ani_Avatar_PlayLyre01Loop_0": 12818683838036969682,
    "Ani_Avatar_Pole_PlayLyre01Loop_Sync_0": 7694717501330916331,
    "Ani_Avatar_PlayLyre01BS_0": 2701183934356345748,
    "Ani_Avatar_Pole_PlayLyre01BS_Sync_0": 1141969083475082236,
    "Ani_Avatar_NPC_SitOnFloor01Cycle_0": 6434905894950122607,
    "Ani_Avatar_NPC_SitOnFloor01Cycle_Sync_0": 4084358792004950976,
    "Ani_Avatar_Pole_WeaponStandby_0": 10291034642150596113,
    "Ani_Avatar_Pole_WeaponStandby_Sync_0": 16748446412673534150,
    "Ani_Avatar_Channel01BS_0": 5960687249005625433,
    "Ani_Avatar_Pole_Channel01BS_Sync_0": 2975936170049278434,
    "Ani_Avatar_Channel01Loop_0": 838208740136918127,
    "Ani_Avatar_Pole_Channel01Loop_Sync_0": 7712996394192415724,
    "Ani_Avatar_Channel01AS_0": 3329961036921765553,
    "Ani_Avatar_Pole_Channel01AS_Sync_0": 4777388765471689264,
    "Ani_Avatar_Pole_ElementalArt_0": 6029671277729825411,
    "Ani_Avatar_Pole_ElementalArt_Sync_0": 6029671277729825411,
    "Ani_Avatar_Pole_ElementalArt_AS_0": 10221033472169781379,
    "Ani_Avatar_Pole_ElementalArt_AS_Sync_0": 10221033472169781379,
    "Ani_Avatar_NPC_SitChat01BS_0": 17103245973768843628,
    "Ani_Avatar_NPC_SitChat01BS_Sync_0": 9256473636280544124,
    "Ani_Avatar_NPC_SitChat01Loop_0": 18200756731242232918,
    "Ani_Avatar_NPC_SitChat01Loop_Sync_0": 14297965218831359428,
    "Ani_Avatar_NPC_SitChat01AS_0": 6753239789011064203,
    "Ani_Avatar_NPC_SitChat01AS_Sync_0": 4228494507595085730,
    "Ani_Avatar_NPC_SitShrug01AS_0": 14887505765630971277,
    "Ani_Avatar_NPC_SitShrug01AS_Sync_0": 12367110186463618826,
    "Ani_Avatar_NPC_SitShrug01Loop_0": 12610928121848419269,
    "Ani_Avatar_NPC_SitShrug01Loop_Sync_0": 9570182913682388434,
    "Ani_Avatar_NPC_SitShrug01BS_0": 14081138902873304601,
    "Ani_Avatar_NPC_SitShrug01BS_Sync_0": 14268604203641904821
  }
}