{
  "luaDataPath": "",
  "entityBan": "",
  "group": [
    [
      {
        "$type": "FJKIHHKJLMJ",
        "type": "CAMERA_FOCUS",
        "duration": 1.0,
        "cameraPosType": "RELATIVE_TO_INTER",
        "camPosOffset": {
          "y": 0.5
        },
        "nearLength": 2.0,
        "camTargetType": "TO_INTEE",
        "camForwardTargetOffset": {
          "y": 0.5
        },
        "lerpRatio": 5.0,
        "lerpPattern": 6,
        "targetNpcAlias": "",
        "KJOEFBPOIIH": "",
        "IICFKKEBIEC": "",
        "EGEHEJEBLBJ": ""
      },
      {
        "$type": "MoleMole.Config.ConfigRequestMsgAction",
        "type": "REQUEST_MSG",
        "msgName": "ClearWorldChallengeTalk",
        "_param": ""
      }
    ]
  ]
}