{
  "luaDataPath": "",
  "dontUseDefaultFinish": true,
  "entityBan": "",
  "disableNpcLod": true,
  "isAutoBanNpc": true,
  "isBanWidgetPet": true,
  "protectNpcMobileLod": true,
  "talkFlag": 103,
  "startFade": {
    "startFadeOutDuration": 0.0
  },
  "endFade": {
    "startFadeOutDuration": 0.0
  },
  "actors": [
    {
      "alias": "LocalAvatar",
      "visible": true,
      "bornPointName": "",
      "relativePosType": "AVATAR_NEW",
      "relativePosNpcAlias": "",
      "_bindMovingTargetKey": ""
    },
    {
      "configID": 21459,
      "alias": "21459",
      "visible": true,
      "bornPointName": "[3_8658:-1477.381,10.068,8718.485]",
      "removeActorType": "NEW_REMOVE",
      "relativePosType": "AVATAR_NEW",
      "relativePosNpcAlias": "",
      "_notDestroyInTalk": true,
      "_bindMovingTargetKey": ""
    }
  ],
  "group": [
    [
      {
        "$type": "MoleMole.Config.ConfigTimeProtectAction",
        "type": "TIME_PROTECT",
        "duration": 1.5,
        "actionId": 104
      },
      {
        "$type": "FJKIHHKJLMJ",
        "type": "CAMERA_MOVE",
        "duration": 1.5,
        "actionId": 118,
        "camPosOffset": {
          "x": -1473.8719482421875,
          "y": 12.458999633789062,
          "z": 8721.5380859375
        },
        "camForwardTargetOffset": {
          "x": -1474.5439453125,
          "y": 12.309000015258789,
          "z": 8720.8134765625
        },
        "camFov": 57.92599868774414,
        "lerpPattern": 2,
        "cameraBlendType": "EaseOutQuart",
        "needZAxisRotate": true,
        "openCameraDither": false,
        "targetNpcAlias": "",
        "closeTreeLeafDither": true,
        "KJOEFBPOIIH": "",
        "IICFKKEBIEC": "",
        "EGEHEJEBLBJ": "",
        "cutFrameTrans": {
          "_elevMinValue": -50.0,
          "_elevMaxValue": 50.0,
          "_poleMinValue": -50.0,
          "_poleMaxValue": 50.0
        }
      }
    ],
    [
      {
        "$type": "FJKIHHKJLMJ",
        "type": "CAMERA_MOVE",
        "duration": 3.0,
        "actionId": 114,
        "camPosOffset": {
          "x": -1456.989013671875,
          "y": 20.163999557495117,
          "z": 8717.1220703125
        },
        "camForwardTargetOffset": {
          "x": -1457.93896484375,
          "y": 20.031999588012695,
          "z": 8716.8408203125
        },
        "camFov": 55.82500076293945,
        "lerpPattern": 1,
        "cameraBlendType": "EaseInQuart",
        "needZAxisRotate": true,
        "openCameraDither": false,
        "targetNpcAlias": "",
        "closeTreeLeafDither": true,
        "KJOEFBPOIIH": "",
        "IICFKKEBIEC": "",
        "EGEHEJEBLBJ": "",
        "cutFrameTrans": {
          "_elevMinValue": -50.0,
          "_elevMaxValue": 50.0,
          "_poleMinValue": -50.0,
          "_poleMaxValue": 50.0
        }
      },
      {
        "$type": "MoleMole.Config.ConfigTimeProtectAction",
        "type": "TIME_PROTECT",
        "duration": 6.0,
        "actionId": 116
      },
      {
        "$type": "MoleMole.Config.ConfigCameraShakeAction",
        "type": "CAMERA_SHAKE",
        "delayTime": 3.5,
        "actionId": 117,
        "shakeRange": 3.0,
        "shakeTime": 1.0,
        "_shakeDir": {
          "y": 1.0
        },
        "useExtendSetting": true,
        "randomSetting": {}
      }
    ],
    [
      {
        "$type": "MoleMole.Config.ConfigTimeProtectAction",
        "type": "TIME_PROTECT",
        "duration": 0.5,
        "actionId": 105
      },
      {
        "$type": "FJKIHHKJLMJ",
        "type": "CAMERA_MOVE",
        "duration": 1.0,
        "actionId": 111,
        "cameraPosType": "EXIT",
        "camForwardTargetOffset": {
          "z": 1.0
        },
        "camFov": 30.0,
        "lerpPattern": 5,
        "cameraBlendType": "EaseInOutCubic",
        "openCameraDither": false,
        "targetNpcAlias": "",
        "closeTreeLeafDither": true,
        "KJOEFBPOIIH": "",
        "IICFKKEBIEC": "",
        "EGEHEJEBLBJ": "",
        "cutFrameTrans": {
          "_elevMinValue": -50.0,
          "_elevMaxValue": 50.0,
          "_poleMinValue": -50.0,
          "_poleMaxValue": 50.0
        }
      }
    ]
  ],
  "groupId": [
    {
      "grpId": 3350034187,
      "nextGrpId": 3350034188,
      "_noCircleNextGrpId": 3350034188
    },
    {
      "index": 1,
      "grpId": 3350034188,
      "nextGrpId": 3350034189,
      "_noCircleNextGrpId": 3350034189
    },
    {
      "index": 2,
      "grpId": 3350034189,
      "nextGrpId": 3350034190,
      "_noCircleNextGrpId": 3350034190
    }
  ],
  "NPFDEBDMHJP": 3350034189
}