{
  "luaDataPath": "",
  "startBlackKeepTime": 0.5,
  "entityBan": "",
  "disableNpcLod": true,
  "isAutoBanNpc": true,
  "isBanWidgetPet": true,
  "startFade": {
    "startFadeInDuration": 0.5,
    "startFadeOutDuration": 0.5
  },
  "endFade": {
    "startFadeOutDuration": 0.0
  },
  "actors": [
    {
      "alias": "Avatar",
      "visible": true,
      "bornPointName": "",
      "relativePosNpcAlias": "",
      "_bindMovingTargetKey": ""
    },
    {
      "configID": 10011,
      "alias": "10011",
      "visible": true,
      "bornPointName": "Q4007304_N10011",
      "relativePosNpcAlias": "",
      "_bindMovingTargetKey": ""
    },
    {
      "configID": 10012,
      "alias": "10012",
      "visible": true,
      "bornPointName": "T4007304_oz",
      "removeActorType": "REMOVE_WITH_DISAPPEAR",
      "relativePosNpcAlias": "",
      "_bindMovingTargetKey": ""
    },
    {
      "configID": 1005,
      "alias": "1005",
      "visible": true,
      "bornPointName": "",
      "removeActorType": "REMOVE_WITH_DISAPPEAR",
      "relativePosType": "AVATAR_NEW",
      "relativePosNpcAlias": "",
      "_bindMovingTargetKey": ""
    },
    {
      "configID": 1032,
      "alias": "1032",
      "visible": true,
      "bornPointName": "Q4007304_N1032",
      "relativePosType": "AVATAR_NEW",
      "relativePosNpcAlias": "",
      "_bindMovingTargetKey": ""
    },
    {
      "configID": 1042,
      "alias": "1042",
      "visible": true,
      "bornPointName": "Q4007304_N1042",
      "relativePosType": "AVATAR_NEW",
      "relativePosNpcAlias": "",
      "_bindMovingTargetKey": ""
    },
    {
      "configID": 10095,
      "alias": "10095",
      "visible": true,
      "bornPointName": "Q4007304_N10095",
      "relativePosType": "AVATAR_NEW",
      "relativePosNpcAlias": "",
      "_bindMovingTargetKey": ""
    }
  ],
  "group": [
    [
      {
        "$type": "MoleMole.Config.ConfigTimeProtectAction",
        "type": "TIME_PROTECT",
        "duration": 0.10000000149011612
      },
      {
        "$type": "MoleMole.Config.ConfigBlackScreenAction",
        "type": "BLACK_SCREEN",
        "actionId": 118,
        "blackScreenType": "KEEP_BLACK",
        "durationKeepBlack": 0.5,
        "inteePos": "",
        "textMapID": "",
        "useTextFade": true
      },
      {
        "$type": "MoleMole.Config.ConfigTeleportToAction",
        "type": "TELEPORT_TO",
        "aliasList": [
          "Avatar"
        ],
        "actionId": 122,
        "position": {
          "x": -132.58399963378906,
          "y": 85.88800048828125,
          "z": 23.55299949645996
        },
        "forward": {
          "x": 1.6729999780654907,
          "z": -0.16300000250339508
        },
        "openLongDisTeleport": true,
        "_posBindMovingTargetKey": "",
        "_forwardBindMovingTargetKey": ""
      },
      {
        "$type": "LJLMDHDCAMK",
        "type": "LOOK_AT",
        "aliasList": [
          "Avatar"
        ],
        "actionId": 123,
        "enableHead": true,
        "useTargetPos": true,
        "enableAbsolute": true,
        "targetPosition": {
          "x": -130.63999938964844,
          "y": 88.0009994506836,
          "z": 23.511999130249023
        },
        "headTurnTime": 0.5,
        "targetNpcAlias": "",
        "lookAtTargetType": "NONE",
        "targetNpcLookAtPoint": "",
        "OAFJBHJHLJG": ""
      },
      {
        "$type": "LJLMDHDCAMK",
        "type": "LOOK_AT",
        "aliasList": [
          "10011"
        ],
        "actionId": 124,
        "enableHead": true,
        "useTargetPos": true,
        "enableAbsolute": true,
        "targetPosition": {
          "x": -132.0469970703125,
          "y": 88.18199920654297,
          "z": 22.325000762939453
        },
        "headTurnTime": 0.5,
        "targetNpcAlias": "",
        "lookAtTargetType": "NONE",
        "targetNpcLookAtPoint": "",
        "OAFJBHJHLJG": ""
      },
      {
        "$type": "MoleMole.Config.ConfigTeleportToAction",
        "type": "TELEPORT_TO",
        "aliasList": [
          "10011"
        ],
        "actionId": 125,
        "position": {
          "x": -134.4250030517578,
          "y": 85.88800048828125,
          "z": 22.322999954223633
        },
        "forward": {
          "x": 1.0
        },
        "openLongDisTeleport": true,
        "_posBindMovingTargetKey": "",
        "_forwardBindMovingTargetKey": ""
      },
      {
        "$type": "MoleMole.Config.ConfigTeleportToAction",
        "type": "TELEPORT_TO",
        "aliasList": [
          "10012"
        ],
        "actionId": 126,
        "position": {
          "x": -135.26699829101562,
          "y": 85.88800048828125,
          "z": 21.35700035095215
        },
        "forward": {
          "x": 0.9909999966621399,
          "z": 0.13099999725818634
        },
        "openLongDisTeleport": true,
        "_posBindMovingTargetKey": "",
        "_forwardBindMovingTargetKey": ""
      },
      {
        "$type": "LJLMDHDCAMK",
        "type": "LOOK_AT",
        "aliasList": [
          "1005"
        ],
        "actionId": 127,
        "enableHead": true,
        "useTargetPos": true,
        "enableAbsolute": true,
        "targetPosition": {
          "x": -130.61500549316406,
          "y": 87.95500183105469,
          "z": 23.941999435424805
        },
        "headTurnTime": 0.5,
        "targetNpcAlias": "",
        "lookAtTargetType": "NONE",
        "targetNpcLookAtPoint": "",
        "OAFJBHJHLJG": ""
      },
      {
        "$type": "MoleMole.Config.ConfigTeleportToAction",
        "type": "TELEPORT_TO",
        "aliasList": [
          "1005"
        ],
        "actionId": 128,
        "position": {
          "x": -133.20700073242188,
          "y": 85.88800048828125,
          "z": 24.263999938964844
        },
        "forward": {
          "x": 1.902999997138977,
          "z": -0.5210000276565552
        },
        "openLongDisTeleport": true,
        "_posBindMovingTargetKey": "",
        "_forwardBindMovingTargetKey": ""
      },
      {
        "$type": "MoleMole.Config.ConfigTeleportToAction",
        "type": "TELEPORT_TO",
        "aliasList": [
          "1032"
        ],
        "actionId": 129,
        "position": {
          "x": -133.00999450683594,
          "y": 85.88800048828125,
          "z": 20.25
        },
        "forward": {
          "x": 0.8600000143051147,
          "z": 0.5099999904632568
        },
        "openLongDisTeleport": true,
        "_posBindMovingTargetKey": "",
        "_forwardBindMovingTargetKey": ""
      },
      {
        "$type": "LJLMDHDCAMK",
        "type": "LOOK_AT",
        "aliasList": [
          "1032"
        ],
        "actionId": 130,
        "enableHead": true,
        "useTargetPos": true,
        "enableAbsolute": true,
        "targetPosition": {
          "x": -129.96800231933594,
          "y": 88.35900115966797,
          "z": 20.249000549316406
        },
        "headTurnTime": 0.5,
        "targetNpcAlias": "",
        "lookAtTargetType": "NONE",
        "targetNpcLookAtPoint": "",
        "OAFJBHJHLJG": ""
      },
      {
        "$type": "LJLMDHDCAMK",
        "type": "LOOK_AT",
        "aliasList": [
          "1042"
        ],
        "actionId": 131,
        "enableHead": true,
        "useTargetPos": true,
        "enableAbsolute": true,
        "targetPosition": {
          "x": -131.31900024414062,
          "y": 88.33399963378906,
          "z": 20.76300048828125
        },
        "headTurnTime": 0.5,
        "targetNpcAlias": "",
        "lookAtTargetType": "NONE",
        "targetNpcLookAtPoint": "",
        "OAFJBHJHLJG": ""
      },
      {
        "$type": "MoleMole.Config.ConfigTeleportToAction",
        "type": "TELEPORT_TO",
        "aliasList": [
          "1042"
        ],
        "actionId": 132,
        "position": {
          "x": -133.66000366210938,
          "y": 85.88800048828125,
          "z": 20.760000228881836
        },
        "forward": {
          "x": 0.9959999918937683,
          "z": 0.08500000089406967
        },
        "openLongDisTeleport": true,
        "_posBindMovingTargetKey": "",
        "_forwardBindMovingTargetKey": ""
      },
      {
        "$type": "MoleMole.Config.ConfigTeleportToAction",
        "type": "TELEPORT_TO",
        "aliasList": [
          "10095"
        ],
        "actionId": 133,
        "position": {
          "x": -134.86000061035156,
          "y": 85.88800048828125,
          "z": 23.190000534057617
        },
        "forward": {
          "x": 0.9990000128746033,
          "z": -0.05299999937415123
        },
        "openLongDisTeleport": true,
        "_posBindMovingTargetKey": "",
        "_forwardBindMovingTargetKey": ""
      },
      {
        "$type": "LJLMDHDCAMK",
        "type": "LOOK_AT",
        "aliasList": [
          "10095"
        ],
        "actionId": 134,
        "enableHead": true,
        "useTargetPos": true,
        "enableAbsolute": true,
        "targetPosition": {
          "x": -132.8769989013672,
          "y": 88.05999755859375,
          "z": 23.191999435424805
        },
        "headTurnTime": 0.5,
        "targetNpcAlias": "",
        "lookAtTargetType": "NONE",
        "targetNpcLookAtPoint": "",
        "OAFJBHJHLJG": ""
      }
    ],
    [
      {
        "$type": "FJKIHHKJLMJ",
        "type": "CAMERA_MOVE",
        "duration": 1.0,
        "actionId": 112,
        "camPosOffset": {
          "x": -150.44200134277344,
          "y": 91.79399871826172,
          "z": 21.41200065612793
        },
        "camForwardTargetOffset": {
          "x": -149.5290069580078,
          "y": 92.20099639892578,
          "z": 21.422000885009766
        },
        "lerpPattern": 6,
        "cameraBlendType": "EaseInOutCubic",
        "NJBNNOMLKCK": {},
        "needZAxisRotate": true,
        "openCameraDither": false,
        "targetNpcAlias": "",
        "closeTreeLeafDither": true,
        "KJOEFBPOIIH": "",
        "IICFKKEBIEC": "",
        "EGEHEJEBLBJ": ""
      },
      {
        "$type": "MoleMole.Config.ConfigTimeProtectAction",
        "type": "TIME_PROTECT",
        "duration": 7.492000102996826,
        "actionId": 117
      },
      {
        "$type": "MoleMole.Config.ConfigBlackScreenAction",
        "type": "BLACK_SCREEN",
        "actionId": 119,
        "blackScreenType": "FROM_BLACK",
        "durationFromBlack": 0.5,
        "inteePos": "",
        "textMapID": "",
        "useTextFade": true
      },
      {
        "$type": "FJKIHHKJLMJ",
        "type": "CAMERA_MOVE",
        "delayTime": 0.09200000017881393,
        "duration": 10.0,
        "actionId": 112,
        "camPosOffset": {
          "x": -148.33799743652344,
          "y": 88.6510009765625,
          "z": 21.965999603271484
        },
        "camForwardTargetOffset": {
          "x": -147.34300231933594,
          "y": 88.552001953125,
          "z": 21.968000411987305
        },
        "lerpPattern": 2,
        "cameraBlendType": "Linear",
        "NJBNNOMLKCK": {},
        "needZAxisRotate": true,
        "openCameraDither": false,
        "targetNpcAlias": "",
        "closeTreeLeafDither": true,
        "KJOEFBPOIIH": "",
        "IICFKKEBIEC": "",
        "EGEHEJEBLBJ": ""
      }
    ],
    [
      {
        "$type": "FJKIHHKJLMJ",
        "type": "CAMERA_MOVE",
        "duration": 1.0,
        "actionId": 112,
        "camPosOffset": {
          "x": -125.51899719238281,
          "y": 89.05500030517578,
          "z": 21.878000259399414
        },
        "camForwardTargetOffset": {
          "x": -126.4990005493164,
          "y": 88.8550033569336,
          "z": 21.881999969482422
        },
        "camFov": 35.0,
        "lerpPattern": 6,
        "cameraBlendType": "EaseInOutCubic",
        "NJBNNOMLKCK": {},
        "needZAxisRotate": true,
        "openCameraDither": false,
        "targetNpcAlias": "",
        "closeTreeLeafDither": true,
        "KJOEFBPOIIH": "",
        "IICFKKEBIEC": "",
        "EGEHEJEBLBJ": ""
      },
      {
        "$type": "PKKMAMONGEO",
        "type": "DIALOG",
        "aliasList": [
          "10011"
        ],
        "dialogID": 400730401,
        "protectTime": 0.5
      },
      {
        "$type": "CPJKOIHIPBE",
        "type": "EMO_SYNC",
        "aliasList": [
          "10011"
        ],
        "dataPath": "Cs_Emo_Avatar_Simple_Common_Set/Cs_Emo_Avatar_Talk/Cs_Emo_Avatar_MainLine/Cs_Emo_Avatar_DreamIsland/Cs_Emo_400730401",
        "phonemePath": "",
        "emotionPath": "",
        "mateDataPath": "",
        "matePhonemePath": "",
        "mateEmotionPath": "",
        "dataPathHashList": [
          16801252174241166844,
          11266089983262209324,
          10408240285474917625,
          3874768034718484266
        ],
        "FMDPBECPELH": "",
        "ADKBLPOKGIK": ""
      },
      {
        "$type": "FJKIHHKJLMJ",
        "type": "CAMERA_MOVE",
        "delayTime": 0.09200000017881393,
        "duration": 7.232999801635742,
        "actionId": 112,
        "camPosOffset": {
          "x": -125.29000091552734,
          "y": 87.93499755859375,
          "z": 21.865999221801758
        },
        "camForwardTargetOffset": {
          "x": -126.2699966430664,
          "y": 87.73500061035156,
          "z": 21.8700008392334
        },
        "camFov": 35.0,
        "lerpPattern": 2,
        "cameraBlendType": "EaseOutQuad",
        "NJBNNOMLKCK": {},
        "needZAxisRotate": true,
        "openCameraDither": false,
        "targetNpcAlias": "",
        "closeTreeLeafDither": true,
        "KJOEFBPOIIH": "",
        "IICFKKEBIEC": "",
        "EGEHEJEBLBJ": ""
      },
      {
        "$type": "LJLMDHDCAMK",
        "type": "LOOK_AT",
        "delayTime": 0.40799999237060547,
        "aliasList": [
          "10095"
        ],
        "actionId": 143,
        "enableHead": true,
        "useTargetPos": true,
        "enableAbsolute": true,
        "targetPosition": {
          "x": -134.28199768066406,
          "y": 87.20099639892578,
          "z": 21.895999908447266
        },
        "headTurnTime": 0.5,
        "targetNpcAlias": "",
        "lookAtTargetType": "NONE",
        "targetNpcLookAtPoint": "",
        "OAFJBHJHLJG": ""
      },
      {
        "$type": "LLGANGLOEEO",
        "type": "STEER_TO",
        "delayTime": 1.1330000162124634,
        "duration": 1.0,
        "aliasList": [
          "1042"
        ],
        "actionId": 148,
        "steerType": "ABSOLUTE",
        "steerDir": {
          "x": -133.7429962158203,
          "y": 85.88800048828125,
          "z": 22.35099983215332
        },
        "useSteerAnim": true,
        "targetNpcAlias": "",
        "OAFJBHJHLJG": ""
      },
      {
        "$type": "LJLMDHDCAMK",
        "type": "LOOK_AT",
        "delayTime": 1.1579999923706055,
        "aliasList": [
          "1042"
        ],
        "actionId": 149,
        "enableHead": true,
        "useTargetPos": true,
        "enableAbsolute": true,
        "targetPosition": {
          "x": -134.50599670410156,
          "y": 87.23799896240234,
          "z": 22.55299949645996
        },
        "headTurnTime": 0.5,
        "targetNpcAlias": "",
        "lookAtTargetType": "NONE",
        "targetNpcLookAtPoint": "",
        "OAFJBHJHLJG": ""
      },
      {
        "$type": "FABLGECDBCH",
        "type": "BODY_LANG",
        "delayTime": 1.7079999446868896,
        "aliasList": [
          "10011"
        ],
        "actionId": 137,
        "bodyLangParam": 1180,
        "forceDoFreeStyle": true,
        "canDoRepeatFreeStyle": false,
        "eventPatternSuiteKey": "",
        "FOHHKFAIAAJ": ""
      },
      {
        "$type": "LLGANGLOEEO",
        "type": "STEER_TO",
        "delayTime": 2.1080000400543213,
        "duration": 1.0,
        "aliasList": [
          "1032"
        ],
        "actionId": 150,
        "steerType": "ABSOLUTE",
        "steerDir": {
          "x": -133.4759979248047,
          "y": 85.88800048828125,
          "z": 21.902999877929688
        },
        "useSteerAnim": true,
        "targetNpcAlias": "",
        "OAFJBHJHLJG": ""
      },
      {
        "$type": "LJLMDHDCAMK",
        "type": "LOOK_AT",
        "delayTime": 2.132999897003174,
        "aliasList": [
          "1032"
        ],
        "actionId": 151,
        "enableHead": true,
        "useTargetPos": true,
        "enableAbsolute": true,
        "targetPosition": {
          "x": -134.56700134277344,
          "y": 87.28900146484375,
          "z": 22.552000045776367
        },
        "headTurnTime": 0.5,
        "targetNpcAlias": "",
        "lookAtTargetType": "NONE",
        "targetNpcLookAtPoint": "",
        "OAFJBHJHLJG": ""
      },
      {
        "$type": "FABLGECDBCH",
        "type": "BODY_LANG",
        "delayTime": 5.357999801635742,
        "aliasList": [
          "10011"
        ],
        "actionId": 138,
        "isContinue": true,
        "forceDoFreeStyle": true,
        "canDoRepeatFreeStyle": false,
        "eventPatternSuiteKey": "",
        "FOHHKFAIAAJ": ""
      },
      {
        "$type": "FABLGECDBCH",
        "type": "BODY_LANG",
        "delayTime": 7.158999919891357,
        "aliasList": [
          "10011"
        ],
        "actionId": 139,
        "bodyLangParam": 1130,
        "forceDoFreeStyle": true,
        "canDoRepeatFreeStyle": false,
        "eventPatternSuiteKey": "",
        "FOHHKFAIAAJ": ""
      }
    ],
    [
      {
        "$type": "FJKIHHKJLMJ",
        "type": "CAMERA_MOVE",
        "duration": 1.0,
        "actionId": 152,
        "camPosOffset": {
          "x": -131.05599975585938,
          "y": 87.43399810791016,
          "z": 23.360000610351562
        },
        "camForwardTargetOffset": {
          "x": -132.0229949951172,
          "y": 87.23100280761719,
          "z": 23.208999633789062
        },
        "camFov": 35.0,
        "lerpPattern": 6,
        "cameraBlendType": "EaseInOutCubic",
        "NJBNNOMLKCK": {},
        "needZAxisRotate": true,
        "openCameraDither": false,
        "targetNpcAlias": "",
        "closeTreeLeafDither": true,
        "KJOEFBPOIIH": "",
        "IICFKKEBIEC": "",
        "EGEHEJEBLBJ": ""
      },
      {
        "$type": "LLGANGLOEEO",
        "type": "STEER_TO",
        "duration": 1.0,
        "aliasList": [
          "Avatar"
        ],
        "actionId": 135,
        "steerType": "ABSOLUTE",
        "steerDir": {
          "x": -133.6649932861328,
          "y": 85.88800048828125,
          "z": 22.46500015258789
        },
        "useSteerAnim": true,
        "targetNpcAlias": "",
        "OAFJBHJHLJG": ""
      },
      {
        "$type": "LJLMDHDCAMK",
        "type": "LOOK_AT",
        "aliasList": [
          "Avatar"
        ],
        "actionId": 136,
        "enableHead": true,
        "useTargetPos": true,
        "enableAbsolute": true,
        "targetPosition": {
          "x": -135.20700073242188,
          "y": 87.27300262451172,
          "z": 21.878999710083008
        },
        "headTurnTime": 0.5,
        "targetNpcAlias": "",
        "lookAtTargetType": "NONE",
        "targetNpcLookAtPoint": "",
        "OAFJBHJHLJG": ""
      },
      {
        "$type": "FABLGECDBCH",
        "type": "BODY_LANG",
        "aliasList": [
          "10011"
        ],
        "actionId": 140,
        "isContinue": true,
        "forceDoFreeStyle": true,
        "canDoRepeatFreeStyle": false,
        "eventPatternSuiteKey": "",
        "FOHHKFAIAAJ": ""
      },
      {
        "$type": "PKKMAMONGEO",
        "type": "DIALOG",
        "aliasList": [
          "10012"
        ],
        "dialogID": 400730402,
        "protectTime": 0.5
      },
      {
        "$type": "LLGANGLOEEO",
        "type": "STEER_TO",
        "duration": 2.0,
        "aliasList": [
          "10012"
        ],
        "actionId": 155,
        "steerType": "ABSOLUTE",
        "steerDir": {
          "x": -134.3090057373047,
          "y": 85.88800048828125,
          "z": 21.790000915527344
        },
        "targetNpcAlias": "",
        "OAFJBHJHLJG": ""
      },
      {
        "$type": "CPJKOIHIPBE",
        "type": "EMO_SYNC",
        "aliasList": [
          "10012"
        ],
        "dataPath": "Cs_Emo_Avatar_Simple_Common_Set/Cs_Emo_Avatar_Talk/Cs_Emo_Avatar_MainLine/Cs_Emo_Avatar_DreamIsland/Cs_Emo_400730402",
        "phonemePath": "",
        "emotionPath": "",
        "mateDataPath": "",
        "matePhonemePath": "",
        "mateEmotionPath": "",
        "dataPathHashList": [
          6624688817540004058,
          2512458858539342464,
          14063057877133700042,
          5851776655197411632
        ],
        "FMDPBECPELH": "",
        "ADKBLPOKGIK": ""
      },
      {
        "$type": "FJKIHHKJLMJ",
        "type": "CAMERA_MOVE",
        "delayTime": 0.08299999684095383,
        "duration": 7.267000198364258,
        "actionId": 152,
        "camPosOffset": {
          "x": -131.02499389648438,
          "y": 87.41300201416016,
          "z": 23.191999435424805
        },
        "camForwardTargetOffset": {
          "x": -131.99200439453125,
          "y": 87.20999908447266,
          "z": 23.041000366210938
        },
        "camFov": 35.0,
        "lerpPattern": 2,
        "cameraBlendType": "EaseOutQuad",
        "NJBNNOMLKCK": {},
        "needZAxisRotate": true,
        "openCameraDither": false,
        "targetNpcAlias": "",
        "closeTreeLeafDither": true,
        "KJOEFBPOIIH": "",
        "IICFKKEBIEC": "",
        "EGEHEJEBLBJ": ""
      },
      {
        "$type": "LJLMDHDCAMK",
        "type": "LOOK_AT",
        "delayTime": 0.257999986410141,
        "aliasList": [
          "10011"
        ],
        "actionId": 154,
        "enableHead": true,
        "useTargetPos": true,
        "enableAbsolute": true,
        "targetPosition": {
          "x": -132.55099487304688,
          "y": 87.24500274658203,
          "z": 23.55500030517578
        },
        "headTurnTime": 0.5,
        "targetNpcAlias": "",
        "lookAtTargetType": "NONE",
        "targetNpcLookAtPoint": "",
        "OAFJBHJHLJG": ""
      },
      {
        "$type": "LLGANGLOEEO",
        "type": "STEER_TO",
        "delayTime": 1.0829999446868896,
        "duration": 3.0,
        "aliasList": [
          "1005"
        ],
        "actionId": 141,
        "steerType": "ABSOLUTE",
        "steerDir": {
          "x": -134.46400451660156,
          "y": 85.88800048828125,
          "z": 22.05699920654297
        },
        "useSteerAnim": true,
        "targetNpcAlias": "",
        "OAFJBHJHLJG": ""
      },
      {
        "$type": "LJLMDHDCAMK",
        "type": "LOOK_AT",
        "delayTime": 1.0829999446868896,
        "aliasList": [
          "1005"
        ],
        "actionId": 142,
        "enableHead": true,
        "useTargetPos": true,
        "enableAbsolute": true,
        "targetPosition": {
          "x": -134.73699951171875,
          "y": 87.16500091552734,
          "z": 21.950000762939453
        },
        "headTurnTime": 0.5,
        "targetNpcAlias": "",
        "lookAtTargetType": "NONE",
        "targetNpcLookAtPoint": "",
        "OAFJBHJHLJG": ""
      }
    ],
    [
      {
        "$type": "MoleMole.Config.ConfigSimpleBlackScreenAction",
        "type": "SIMPLE_BLACK_SCREEN",
        "durationToBlack": 0.5,
        "durationKeepBlack": 1.0,
        "durationFromBlack": 0.5,
        "textMapID": ""
      },
      {
        "$type": "MoleMole.Config.ConfigTimeProtectAction",
        "type": "TIME_PROTECT",
        "duration": 0.699999988079071
      },
      {
        "$type": "FJKIHHKJLMJ",
        "type": "CAMERA_MOVE",
        "delayTime": 0.6000000238418579,
        "duration": 0.10000000149011612,
        "actionId": 156,
        "camPosOffset": {
          "x": -135.2830047607422,
          "y": 87.58499908447266,
          "z": 24.10300064086914
        },
        "camForwardTargetOffset": {
          "x": -134.33900451660156,
          "y": 87.32099914550781,
          "z": 23.9060001373291
        },
        "lerpPattern": 6,
        "cameraBlendType": "EaseInOutCubic",
        "NJBNNOMLKCK": {},
        "needZAxisRotate": true,
        "openCameraDither": false,
        "targetNpcAlias": "",
        "closeTreeLeafDither": true,
        "KJOEFBPOIIH": "",
        "IICFKKEBIEC": "",
        "EGEHEJEBLBJ": ""
      },
      {
        "$type": "MoleMole.Config.ConfigTeleportToAction",
        "type": "TELEPORT_TO",
        "delayTime": 0.6000000238418579,
        "aliasList": [
          "Avatar"
        ],
        "actionId": 122,
        "position": {
          "x": -132.58399963378906,
          "y": 85.88800048828125,
          "z": 23.55299949645996
        },
        "forward": {
          "x": 1.6729999780654907,
          "z": -0.16300000250339508
        },
        "openLongDisTeleport": true,
        "_posBindMovingTargetKey": "",
        "_forwardBindMovingTargetKey": ""
      },
      {
        "$type": "MoleMole.Config.ConfigVisibleInterAction",
        "type": "VISIBLE",
        "delayTime": 0.6000000238418579,
        "aliasList": [
          "10011"
        ],
        "actionId": 158,
        "_extraParam": ""
      },
      {
        "$type": "MoleMole.Config.ConfigVisibleInterAction",
        "type": "VISIBLE",
        "delayTime": 0.6079999804496765,
        "aliasList": [
          "1032"
        ],
        "actionId": 159,
        "_extraParam": ""
      },
      {
        "$type": "MoleMole.Config.ConfigVisibleInterAction",
        "type": "VISIBLE",
        "delayTime": 0.6330000162124634,
        "aliasList": [
          "1042"
        ],
        "actionId": 160,
        "_extraParam": ""
      },
      {
        "$type": "MoleMole.Config.ConfigVisibleInterAction",
        "type": "VISIBLE",
        "delayTime": 0.6579999923706055,
        "aliasList": [
          "10095"
        ],
        "actionId": 161,
        "_extraParam": ""
      }
    ]
  ],
  "groupId": [
    {
      "grpId": 2955977014,
      "nextGrpId": 2955977015
    },
    {
      "index": 1,
      "grpId": 2955977015,
      "nextGrpId": 2955977016
    },
    {
      "index": 2,
      "grpId": 2955977016,
      "nextGrpId": 2955977017
    },
    {
      "index": 3,
      "grpId": 2955977017,
      "nextGrpId": 2955977018
    },
    {
      "index": 4,
      "grpId": 2955977018,
      "nextGrpId": 2955977019
    }
  ],
  "freeStyleDic": {
    "10011": [
      1180,
      1130
    ],
    "1032": [],
    "1042": [],
    "10095": []
  }
}