{
  "luaDataPath": "",
  "isSimpleTalk": true,
  "entityBan": "",
  "disableNpcLod": true,
  "startFade": {
    "startFadeOutDuration": 0.0
  },
  "endFade": {
    "startFadeOutDuration": 0.0
  },
  "actors": [
    {
      "alias": "Avatar",
      "visible": true,
      "bornPointName": "",
      "relativePosNpcAlias": "",
      "_bindMovingTargetKey": ""
    },
    {
      "configID": 164201,
      "alias": "164201",
      "visible": true,
      "bornPointName": "",
      "relativePosNpcAlias": "",
      "_bindMovingTargetKey": ""
    },
    {
      "configID": 1005,
      "alias": "1005",
      "visible": true,
      "bornPointName": "",
      "useRelativePos": true,
      "relativePos": {
        "x": -0.5,
        "z": 0.5
      },
      "removeActorType": "REMOVE_WITH_DISAPPEAR",
      "relativePosNpcAlias": "",
      "_bindMovingTargetKey": ""
    }
  ],
  "group": [
    [
      {
        "$type": "FJKIHHKJLMJ",
        "type": "CAMERA_FOCUS",
        "duration": 0.10000000149011612,
        "targetNpcAlias": "",
        "KJOEFBPOIIH": "",
        "IICFKKEBIEC": "",
        "EGEHEJEBLBJ": ""
      },
      {
        "$type": "MoleMole.Config.ConfigTimeProtectAction",
        "type": "TIME_PROTECT",
        "duration": 0.10000000149011612
      }
    ],
    [
      {
        "$type": "PKKMAMONGEO",
        "type": "DIALOG",
        "aliasList": [
          "164201"
        ],
        "dialogID": 790041201,
        "protectTime": 0.5
      }
    ],
    [
      {
        "$type": "PKKMAMONGEO",
        "type": "DIALOG",
        "aliasList": [
          "1005"
        ],
        "dialogID": 790041202,
        "protectTime": 0.5
      }
    ],
    [
      {
        "$type": "PKKMAMONGEO",
        "type": "DIALOG",
        "aliasList": [
          "164201"
        ],
        "dialogID": 790041203,
        "protectTime": 0.5
      }
    ],
    [
      {
        "$type": "HDGKHDNFMIM",
        "type": "DIALOG_SELECT",
        "delayTime": 0.4000000059604645,
        "aliasList": [
          "Avatar"
        ],
        "dialogIDList": [
          790041205
        ],
        "grpIDList": [
          1815174387
        ],
        "useGrpId": true
      },
      {
        "$type": "PKKMAMONGEO",
        "type": "DIALOG",
        "aliasList": [
          "164201"
        ],
        "dialogID": 790041204,
        "protectTime": 0.5
      }
    ],
    [
      {
        "$type": "MoleMole.Config.ConfigTimeProtectAction",
        "type": "TIME_PROTECT",
        "duration": 1.5
      },
      {
        "$type": "MoleMole.Config.ConfigSimpleBlackScreenAction",
        "type": "SIMPLE_BLACK_SCREEN",
        "delayTime": 0.5,
        "durationToBlack": 0.5,
        "durationKeepBlack": 3.0,
        "durationFromBlack": 0.5,
        "textMapID": "QUEST_Message_Q7900403"
      }
    ],
    [
      {
        "$type": "PKKMAMONGEO",
        "type": "DIALOG",
        "aliasList": [
          "164201"
        ],
        "dialogID": 790041206,
        "protectTime": 0.5
      }
    ],
    [
      {
        "$type": "HDGKHDNFMIM",
        "type": "DIALOG_SELECT",
        "delayTime": 0.4000000059604645,
        "aliasList": [
          "Avatar"
        ],
        "dialogIDList": [
          790041208,
          790041210
        ],
        "grpIDList": [
          1815174390,
          435831042
        ],
        "useGrpId": true
      },
      {
        "$type": "PKKMAMONGEO",
        "type": "DIALOG",
        "aliasList": [
          "164201"
        ],
        "dialogID": 790041207,
        "protectTime": 0.5
      }
    ],
    [
      {
        "$type": "PKKMAMONGEO",
        "type": "DIALOG",
        "aliasList": [
          "164201"
        ],
        "dialogID": 790041209,
        "protectTime": 0.5
      }
    ],
    [
      {
        "$type": "PKKMAMONGEO",
        "type": "DIALOG",
        "aliasList": [
          "164201"
        ],
        "dialogID": 790041211,
        "protectTime": 0.5
      }
    ],
    [
      {
        "$type": "PKKMAMONGEO",
        "type": "DIALOG",
        "aliasList": [
          "164201"
        ],
        "dialogID": 790041212,
        "protectTime": 0.5
      }
    ],
    [
      {
        "$type": "HDGKHDNFMIM",
        "type": "DIALOG_SELECT",
        "delayTime": 0.4000000059604645,
        "aliasList": [
          "Avatar"
        ],
        "dialogIDList": [
          790041214
        ],
        "grpIDList": [
          435831045
        ],
        "useGrpId": true
      },
      {
        "$type": "PKKMAMONGEO",
        "type": "DIALOG",
        "aliasList": [
          "164201"
        ],
        "dialogID": 790041213,
        "protectTime": 0.5
      }
    ],
    [
      {
        "$type": "PKKMAMONGEO",
        "type": "DIALOG",
        "aliasList": [
          "164201"
        ],
        "dialogID": 790041215,
        "protectTime": 0.5
      }
    ],
    [
      {
        "$type": "MoleMole.Config.ConfigTimeProtectAction",
        "type": "TIME_PROTECT",
        "duration": 0.10000000149011612
      },
      {
        "$type": "MoleMole.Config.ConfigSimpleBlackScreenAction",
        "type": "SIMPLE_BLACK_SCREEN",
        "delayTime": 0.5749998092651367,
        "durationToBlack": 0.5,
        "durationKeepBlack": 2.0,
        "durationFromBlack": 0.5,
        "textMapID": "QUEST_Message_Q7900404"
      }
    ]
  ],
  "groupId": [
    {
      "grpId": 1815174382,
      "nextGrpId": 1815174383
    },
    {
      "index": 1,
      "grpId": 1815174383,
      "nextGrpId": 1815174384
    },
    {
      "index": 2,
      "grpId": 1815174384,
      "nextGrpId": 1815174385
    },
    {
      "index": 3,
      "grpId": 1815174385,
      "nextGrpId": 1815174386
    },
    {
      "index": 4,
      "grpId": 1815174386,
      "nextGrpId": 1815174387
    },
    {
      "index": 5,
      "grpId": 1815174387,
      "nextGrpId": 1815174388
    },
    {
      "index": 6,
      "grpId": 1815174388,
      "nextGrpId": 1815174389
    },
    {
      "index": 7,
      "grpId": 1815174389,
      "nextGrpId": 1815174390
    },
    {
      "index": 8,
      "grpId": 1815174390,
      "nextGrpId": 435831044
    },
    {
      "index": 9,
      "grpId": 435831042,
      "nextGrpId": 435831043
    },
    {
      "index": 10,
      "grpId": 435831043,
      "nextGrpId": 435831044
    },
    {
      "index": 11,
      "grpId": 435831044,
      "nextGrpId": 435831045
    },
    {
      "index": 12,
      "grpId": 435831045,
      "nextGrpId": 435831046
    },
    {
      "index": 13,
      "grpId": 435831046,
      "nextGrpId": 435831047
    }
  ],
  "freeStyleDic": {
    "164201": []
  }
}