{
  "luaDataPath": "",
  "isSimpleTalk": true,
  "entityBan": "",
  "disableNpcLod": true,
  "startFade": {
    "startFadeOutDuration": 0.0
  },
  "endFade": {
    "startFadeOutDuration": 0.0
  },
  "actors": [
    {
      "alias": "Avatar",
      "visible": true,
      "bornPointName": "",
      "relativePosNpcAlias": "",
      "_bindMovingTargetKey": ""
    },
    {
      "configID": 164201,
      "alias": "164201",
      "bornPointName": "",
      "relativePosNpcAlias": "",
      "_bindMovingTargetKey": ""
    }
  ],
  "group": [
    [
      {
        "$type": "PKKMAMONGEO",
        "type": "DIALOG",
        "aliasList": [
          "164201"
        ],
        "dialogID": 790040401,
        "protectTime": 0.5
      }
    ],
    [
      {
        "$type": "MoleMole.Config.ConfigLuaAction",
        "type": "LUA_ACTION",
        "delayTime": 0.75,
        "duration": 0.10000000149011612,
        "invoke": true,
        "invokeAlias": "79004",
        "invokeParam": 1
      },
      {
        "$type": "PKKMAMONGEO",
        "type": "DIALOG",
        "aliasList": [
          "164201"
        ],
        "dialogID": 790040402,
        "protectTime": 0.5
      }
    ],
    [
      {
        "$type": "PKKMAMONGEO",
        "type": "DIALOG",
        "aliasList": [
          "164201"
        ],
        "dialogID": 790040403,
        "protectTime": 0.5
      }
    ],
    [
      {
        "$type": "PKKMAMONGEO",
        "type": "DIALOG",
        "aliasList": [
          "164201"
        ],
        "dialogID": 790040404,
        "protectTime": 0.5
      }
    ],
    [
      {
        "$type": "MoleMole.Config.ConfigLuaAction",
        "type": "LUA_ACTION",
        "delayTime": 1.0,
        "duration": 0.10000000149011612,
        "invoke": true,
        "invokeAlias": "79004",
        "invokeParam": 2
      },
      {
        "$type": "PKKMAMONGEO",
        "type": "DIALOG",
        "aliasList": [
          "164201"
        ],
        "dialogID": 790040405,
        "protectTime": 0.5
      }
    ],
    [
      {
        "$type": "PKKMAMONGEO",
        "type": "DIALOG",
        "aliasList": [
          "164201"
        ],
        "dialogID": 790040406,
        "protectTime": 0.5
      }
    ],
    [
      {
        "$type": "HDGKHDNFMIM",
        "type": "DIALOG_SELECT",
        "delayTime": 0.4000000059604645,
        "aliasList": [
          "Avatar"
        ],
        "dialogIDList": [
          790040414,
          790040415
        ],
        "grpIDList": [
          1815146520,
          1815146520
        ],
        "useGrpId": true
      },
      {
        "$type": "PKKMAMONGEO",
        "type": "DIALOG",
        "aliasList": [
          "164201"
        ],
        "dialogID": 790040407,
        "protectTime": 0.5
      }
    ],
    [
      {
        "$type": "PKKMAMONGEO",
        "type": "DIALOG",
        "aliasList": [
          "164201"
        ],
        "dialogID": 790040408,
        "protectTime": 0.5
      }
    ],
    [
      {
        "$type": "PKKMAMONGEO",
        "type": "DIALOG",
        "aliasList": [
          "164201"
        ],
        "dialogID": 790040409,
        "protectTime": 0.5
      }
    ],
    [
      {
        "$type": "MoleMole.Config.ConfigLuaAction",
        "type": "LUA_ACTION",
        "delayTime": 0.75,
        "duration": 0.10000000149011612,
        "invoke": true,
        "invokeAlias": "79004",
        "invokeParam": 3
      },
      {
        "$type": "PKKMAMONGEO",
        "type": "DIALOG",
        "aliasList": [
          "164201"
        ],
        "dialogID": 790040410,
        "protectTime": 0.5
      }
    ],
    [
      {
        "$type": "PKKMAMONGEO",
        "type": "DIALOG",
        "aliasList": [
          "164201"
        ],
        "dialogID": 790040411,
        "protectTime": 0.5
      }
    ],
    [
      {
        "$type": "PKKMAMONGEO",
        "type": "DIALOG",
        "aliasList": [
          "164201"
        ],
        "dialogID": 790040412,
        "protectTime": 0.5
      }
    ],
    [
      {
        "$type": "PKKMAMONGEO",
        "type": "DIALOG",
        "aliasList": [
          "164201"
        ],
        "dialogID": 790040413,
        "protectTime": 0.5
      }
    ],
    [
      {
        "$type": "PKKMAMONGEO",
        "type": "DIALOG",
        "aliasList": [
          "164201"
        ],
        "dialogID": 790040416,
        "protectTime": 0.5
      }
    ],
    [
      {
        "$type": "MoleMole.Config.ConfigLuaAction",
        "type": "LUA_ACTION",
        "delayTime": 0.5,
        "duration": 0.10000000149011612,
        "invoke": true,
        "invokeAlias": "79004",
        "invokeParam": 4
      },
      {
        "$type": "PKKMAMONGEO",
        "type": "DIALOG",
        "aliasList": [
          "164201"
        ],
        "dialogID": 790040417,
        "protectTime": 0.5
      }
    ],
    [
      {
        "$type": "PKKMAMONGEO",
        "type": "DIALOG",
        "aliasList": [
          "164201"
        ],
        "dialogID": 790040418,
        "protectTime": 0.5
      }
    ],
    [
      {
        "$type": "PKKMAMONGEO",
        "type": "DIALOG",
        "aliasList": [
          "164201"
        ],
        "dialogID": 790040419,
        "protectTime": 0.5
      }
    ],
    [
      {
        "$type": "MoleMole.Config.ConfigLuaAction",
        "type": "LUA_ACTION",
        "delayTime": 0.5,
        "duration": 0.10000000149011612,
        "invoke": true,
        "invokeAlias": "79004",
        "invokeParam": 5
      },
      {
        "$type": "PKKMAMONGEO",
        "type": "DIALOG",
        "aliasList": [
          "164201"
        ],
        "dialogID": 790040422,
        "protectTime": 0.5
      }
    ],
    [
      {
        "$type": "HDGKHDNFMIM",
        "type": "DIALOG_SELECT",
        "delayTime": 0.4000000059604645,
        "aliasList": [
          "Avatar"
        ],
        "dialogIDList": [
          790040424,
          790040428
        ],
        "grpIDList": [
          434967134,
          434967137
        ],
        "useGrpId": true
      },
      {
        "$type": "PKKMAMONGEO",
        "type": "DIALOG",
        "aliasList": [
          "164201"
        ],
        "dialogID": 790040423,
        "protectTime": 0.5
      }
    ],
    [
      {
        "$type": "PKKMAMONGEO",
        "type": "DIALOG",
        "aliasList": [
          "164201"
        ],
        "dialogID": 790040425,
        "protectTime": 0.5
      }
    ],
    [
      {
        "$type": "PKKMAMONGEO",
        "type": "DIALOG",
        "aliasList": [
          "164201"
        ],
        "dialogID": 790040426,
        "protectTime": 0.5
      }
    ],
    [
      {
        "$type": "PKKMAMONGEO",
        "type": "DIALOG",
        "aliasList": [
          "164201"
        ],
        "dialogID": 790040427,
        "protectTime": 0.5
      }
    ],
    [
      {
        "$type": "PKKMAMONGEO",
        "type": "DIALOG",
        "aliasList": [
          "164201"
        ],
        "dialogID": 790040429,
        "protectTime": 0.5
      }
    ],
    [
      {
        "$type": "MoleMole.Config.ConfigTimeProtectAction",
        "type": "TIME_PROTECT",
        "duration": 0.10000000149011612
      }
    ],
    [
      {
        "$type": "MoleMole.Config.ConfigTimeProtectAction",
        "type": "TIME_PROTECT",
        "duration": 0.10000000149011612
      }
    ]
  ],
  "groupId": [
    {
      "grpId": 1815146513,
      "nextGrpId": 1815146514
    },
    {
      "index": 1,
      "grpId": 1815146514,
      "nextGrpId": 1815146515
    },
    {
      "index": 2,
      "grpId": 1815146515,
      "nextGrpId": 1815146516
    },
    {
      "index": 3,
      "grpId": 1815146516,
      "nextGrpId": 1815146517
    },
    {
      "index": 4,
      "grpId": 1815146517,
      "nextGrpId": 1815146518
    },
    {
      "index": 5,
      "grpId": 1815146518,
      "nextGrpId": 1815146519
    },
    {
      "index": 6,
      "grpId": 1815146519,
      "nextGrpId": 1815146520
    },
    {
      "index": 7,
      "grpId": 1815146520,
      "nextGrpId": 1815146521
    },
    {
      "index": 8,
      "grpId": 1815146521,
      "nextGrpId": 434967103
    },
    {
      "index": 9,
      "grpId": 434967103,
      "nextGrpId": 434967104
    },
    {
      "index": 10,
      "grpId": 434967104,
      "nextGrpId": 434967105
    },
    {
      "index": 11,
      "grpId": 434967105,
      "nextGrpId": 434967106
    },
    {
      "index": 12,
      "grpId": 434967106,
      "nextGrpId": 434967107
    },
    {
      "index": 13,
      "grpId": 434967107,
      "nextGrpId": 434967108
    },
    {
      "index": 14,
      "grpId": 434967108,
      "nextGrpId": 434967109
    },
    {
      "index": 15,
      "grpId": 434967109,
      "nextGrpId": 434967110
    },
    {
      "index": 16,
      "grpId": 434967110,
      "nextGrpId": 434967111
    },
    {
      "index": 17,
      "grpId": 434967111,
      "nextGrpId": 434967112
    },
    {
      "index": 18,
      "grpId": 434967112,
      "nextGrpId": 434967134
    },
    {
      "index": 19,
      "grpId": 434967134,
      "nextGrpId": 434967135
    },
    {
      "index": 20,
      "grpId": 434967135,
      "nextGrpId": 434967136
    },
    {
      "index": 21,
      "grpId": 434967136,
      "nextGrpId": 434967138
    },
    {
      "index": 22,
      "grpId": 434967137,
      "nextGrpId": 434967135
    },
    {
      "index": 23,
      "grpId": 434967138,
      "nextGrpId": 434967139
    },
    {
      "index": 24,
      "grpId": 434967139,
      "nextGrpId": 434967140
    }
  ],
  "freeStyleDic": {
    "164201": []
  }
}