{
  "luaDataPath": "",
  "startBlackKeepTime": 1.0,
  "entityBan": "",
  "disableNpcLod": true,
  "isAutoBanNpc": true,
  "startFade": {
    "startFadeInDuration": 0.5,
    "startFadeOutDuration": 0.5
  },
  "endFade": {
    "startFadeOutDuration": 0.0
  },
  "actors": [
    {
      "alias": "Avatar",
      "visible": true,
      "bornPointName": "",
      "relativePosNpcAlias": "",
      "_bindMovingTargetKey": ""
    },
    {
      "configID": 2061,
      "alias": "2061",
      "visible": true,
      "bornPointName": "Q71037_AmuNPCBorn",
      "relativePosNpcAlias": "",
      "_bindMovingTargetKey": ""
    },
    {
      "configID": 20006,
      "alias": "20006",
      "visible": true,
      "bornPointName": "Q7104429_N20006",
      "relativePosNpcAlias": "",
      "_bindMovingTargetKey": ""
    }
  ],
  "group": [
    [
      {
        "$type": "LJLMDHDCAMK",
        "type": "LOOK_AT",
        "aliasList": [
          "2061"
        ],
        "enableHead": true,
        "useTargetPos": true,
        "enableAbsolute": true,
        "targetPosition": {
          "x": -765.2830200195312,
          "y": 206.60299682617188,
          "z": 1476.5670166015625
        },
        "headTurnTime": 0.5,
        "targetNpcAlias": "",
        "lookAtTargetType": "NONE",
        "targetNpcLookAtPoint": "",
        "OAFJBHJHLJG": ""
      },
      {
        "$type": "MoleMole.Config.ConfigTeleportToAction",
        "type": "TELEPORT_TO",
        "aliasList": [
          "2061"
        ],
        "position": {
          "x": -767.5440063476562,
          "y": 205.06900024414062,
          "z": 1474.553955078125
        },
        "forward": {
          "x": 0.6679999828338623,
          "z": 0.7440000176429749
        },
        "openLongDisTeleport": true,
        "_posBindMovingTargetKey": "",
        "_forwardBindMovingTargetKey": ""
      },
      {
        "$type": "MoleMole.Config.ConfigTeleportToAction",
        "type": "TELEPORT_TO",
        "aliasList": [
          "20006"
        ],
        "position": {
          "x": -765.27099609375,
          "y": 205.01199340820312,
          "z": 1476.594970703125
        },
        "forward": {
          "x": -0.7400000095367432,
          "z": -0.6729999780654907
        },
        "openLongDisTeleport": true,
        "_posBindMovingTargetKey": "",
        "_forwardBindMovingTargetKey": ""
      },
      {
        "$type": "EMEHNEMOMMM",
        "type": "LOOK_AT_EYECTRL",
        "aliasList": [
          "20006"
        ],
        "useTargetPos": false,
        "eyeRotateVecLeft": {
          "z": 3.0
        },
        "eyeRotateVecRight": {
          "z": 3.0
        },
        "turnTime": 0.30000001192092896,
        "targetNpcAlias": "",
        "targetPoint": "Face"
      },
      {
        "$type": "LJLMDHDCAMK",
        "type": "LOOK_AT",
        "aliasList": [
          "20006"
        ],
        "enableHead": true,
        "useTargetPos": true,
        "enableAbsolute": true,
        "targetPosition": {
          "x": -767.2650146484375,
          "y": 206.66099548339844,
          "z": 1474.8389892578125
        },
        "headTurnTime": 0.5,
        "targetNpcAlias": "",
        "lookAtTargetType": "NONE",
        "targetNpcLookAtPoint": "",
        "OAFJBHJHLJG": ""
      },
      {
        "$type": "LJLMDHDCAMK",
        "type": "LOOK_AT",
        "aliasList": [
          "Avatar"
        ],
        "enableHead": true,
        "useTargetPos": true,
        "enableAbsolute": true,
        "targetPosition": {
          "x": -767.2479858398438,
          "y": 206.70399475097656,
          "z": 1474.748046875
        },
        "headTurnTime": 0.5,
        "targetNpcAlias": "",
        "lookAtTargetType": "NONE",
        "targetNpcLookAtPoint": "",
        "OAFJBHJHLJG": ""
      },
      {
        "$type": "MoleMole.Config.ConfigBlackScreenAction",
        "type": "BLACK_SCREEN",
        "blackScreenType": "KEEP_BLACK",
        "durationKeepBlack": 1.0,
        "inteePos": "",
        "textMapID": "",
        "useTextFade": true
      },
      {
        "$type": "MoleMole.Config.ConfigTimeProtectAction",
        "type": "TIME_PROTECT",
        "duration": 0.10000000149011612
      },
      {
        "$type": "FJKIHHKJLMJ",
        "type": "CAMERA_MOVE",
        "duration": 0.20000000298023224,
        "camPosOffset": {
          "x": -766.323974609375,
          "y": 207.42100524902344,
          "z": 1494.426025390625
        },
        "camForwardTargetOffset": {
          "x": -766.364013671875,
          "y": 207.36000061035156,
          "z": 1493.428955078125
        },
        "camFov": 30.0,
        "lerpPattern": 6,
        "cameraBlendType": "EaseInOutCubic",
        "NJBNNOMLKCK": {},
        "needZAxisRotate": true,
        "openCameraDither": false,
        "targetNpcAlias": "",
        "closeTreeLeafDither": true,
        "KJOEFBPOIIH": "",
        "IICFKKEBIEC": "",
        "EGEHEJEBLBJ": ""
      },
      {
        "$type": "MoleMole.Config.ConfigVisibleInterAction",
        "type": "VISIBLE",
        "aliasList": [
          "Avatar"
        ],
        "_extraParam": ""
      },
      {
        "$type": "MoleMole.Config.ConfigTeleportToAction",
        "type": "TELEPORT_TO",
        "aliasList": [
          "Avatar"
        ],
        "position": {
          "x": -764.6339721679688,
          "y": 205.02200317382812,
          "z": 1475.6600341796875
        },
        "forward": {
          "x": -0.9890000224113464,
          "z": -0.4259999990463257
        },
        "openLongDisTeleport": true,
        "_posBindMovingTargetKey": "",
        "_forwardBindMovingTargetKey": ""
      }
    ],
    [
      {
        "$type": "PKKMAMONGEO",
        "type": "DIALOG",
        "aliasList": [
          "2061"
        ],
        "dialogID": 710441901,
        "protectTime": 0.5
      },
      {
        "$type": "FABLGECDBCH",
        "type": "BODY_LANG",
        "aliasList": [
          "2061"
        ],
        "bodyLangParam": 1120,
        "forceDoFreeStyle": true,
        "canDoRepeatFreeStyle": false,
        "eventPatternSuiteKey": "",
        "FOHHKFAIAAJ": ""
      },
      {
        "$type": "CPJKOIHIPBE",
        "type": "EMO_SYNC",
        "aliasList": [
          "2061"
        ],
        "dataPath": "",
        "phonemePath": "Cs_Emo_NPC_Common/Cs_Emo_NPC_Angry01",
        "emotionPath": "Cs_Emo_NPC_Common/Cs_Emo_NPC_Angry01_B",
        "mateDataPath": "",
        "matePhonemePath": "",
        "mateEmotionPath": "",
        "phonemePathHashList": [
          9218657655395275517,
          6356428425152214583,
          11840959722219800112,
          50070356133267922
        ],
        "emotionPathHashList": [
          7899044606840785740,
          10175703066045221409,
          10119021136772445063,
          4929826079990131913
        ],
        "FMDPBECPELH": "",
        "ADKBLPOKGIK": ""
      },
      {
        "$type": "FJKIHHKJLMJ",
        "type": "CAMERA_MOVE",
        "duration": 1.0,
        "camPosOffset": {
          "x": -766.323974609375,
          "y": 207.42100524902344,
          "z": 1494.426025390625
        },
        "camForwardTargetOffset": {
          "x": -766.364013671875,
          "y": 207.36000061035156,
          "z": 1493.428955078125
        },
        "camFov": 30.0,
        "lerpPattern": 6,
        "cameraBlendType": "EaseInOutCubic",
        "NJBNNOMLKCK": {},
        "needZAxisRotate": true,
        "openCameraDither": false,
        "targetNpcAlias": "",
        "closeTreeLeafDither": true,
        "KJOEFBPOIIH": "",
        "IICFKKEBIEC": "",
        "EGEHEJEBLBJ": ""
      },
      {
        "$type": "MoleMole.Config.ConfigBlackScreenAction",
        "type": "BLACK_SCREEN",
        "blackScreenType": "FROM_BLACK",
        "durationFromBlack": 0.5,
        "inteePos": "",
        "textMapID": "",
        "useTextFade": true
      },
      {
        "$type": "FJKIHHKJLMJ",
        "type": "CAMERA_MOVE",
        "delayTime": 0.10000000149011612,
        "duration": 15.0,
        "camPosOffset": {
          "x": -766.4760131835938,
          "y": 208.16600036621094,
          "z": 1494.3609619140625
        },
        "camForwardTargetOffset": {
          "x": -766.5070190429688,
          "y": 208.052001953125,
          "z": 1493.3680419921875
        },
        "camFov": 30.0,
        "cameraBlendType": "EaseOutQuad",
        "NJBNNOMLKCK": {},
        "needZAxisRotate": true,
        "openCameraDither": false,
        "targetNpcAlias": "",
        "closeTreeLeafDither": true,
        "KJOEFBPOIIH": "",
        "IICFKKEBIEC": "",
        "EGEHEJEBLBJ": ""
      },
      {
        "$type": "FABLGECDBCH",
        "type": "BODY_LANG",
        "delayTime": 2.186000108718872,
        "aliasList": [
          "2061"
        ],
        "bodyLangParam": 4040,
        "forceDoFreeStyle": true,
        "canDoRepeatFreeStyle": false,
        "eventPatternSuiteKey": "",
        "FOHHKFAIAAJ": ""
      }
    ],
    [
      {
        "$type": "MoleMole.Config.ConfigVisibleInterAction",
        "type": "VISIBLE",
        "aliasList": [
          "Avatar"
        ],
        "isVisible": true,
        "_extraParam": ""
      },
      {
        "$type": "PKKMAMONGEO",
        "type": "DIALOG",
        "aliasList": [
          "2061"
        ],
        "dialogID": 710441902,
        "protectTime": 0.5
      },
      {
        "$type": "FABLGECDBCH",
        "type": "BODY_LANG",
        "aliasList": [
          "2061"
        ],
        "isContinue": true,
        "forceDoFreeStyle": true,
        "canDoRepeatFreeStyle": false,
        "eventPatternSuiteKey": "",
        "FOHHKFAIAAJ": ""
      },
      {
        "$type": "FJKIHHKJLMJ",
        "type": "CAMERA_MOVE",
        "duration": 1.0,
        "camPosOffset": {
          "x": -764.60302734375,
          "y": 206.5800018310547,
          "z": 1477.9739990234375
        },
        "camForwardTargetOffset": {
          "x": -765.1380004882812,
          "y": 206.5399932861328,
          "z": 1477.1300048828125
        },
        "camFov": 20.0,
        "lerpPattern": 6,
        "cameraBlendType": "EaseInOutCubic",
        "NJBNNOMLKCK": {},
        "needZAxisRotate": true,
        "openCameraDither": false,
        "targetNpcAlias": "",
        "closeTreeLeafDither": true,
        "KJOEFBPOIIH": "",
        "IICFKKEBIEC": "",
        "EGEHEJEBLBJ": ""
      },
      {
        "$type": "MoleMole.Config.ConfigTeleportToAction",
        "type": "TELEPORT_TO",
        "aliasList": [
          "Avatar"
        ],
        "position": {
          "x": -761.447998046875,
          "y": 204.88999938964844,
          "z": 1477.280029296875
        },
        "forward": {
          "x": -0.9179999828338623,
          "z": -0.3959999978542328
        },
        "openLongDisTeleport": true,
        "_posBindMovingTargetKey": "",
        "_forwardBindMovingTargetKey": ""
      },
      {
        "$type": "FJKIHHKJLMJ",
        "type": "CAMERA_MOVE",
        "delayTime": 0.10000000149011612,
        "duration": 10.0,
        "camPosOffset": {
          "x": -764.666015625,
          "y": 206.5800018310547,
          "z": 1478.011962890625
        },
        "camForwardTargetOffset": {
          "x": -765.18798828125,
          "y": 206.5399932861328,
          "z": 1477.1600341796875
        },
        "camFov": 20.0,
        "cameraBlendType": "EaseOutQuad",
        "NJBNNOMLKCK": {},
        "needZAxisRotate": true,
        "openCameraDither": false,
        "targetNpcAlias": "",
        "closeTreeLeafDither": true,
        "KJOEFBPOIIH": "",
        "IICFKKEBIEC": "",
        "EGEHEJEBLBJ": ""
      },
      {
        "$type": "CPJKOIHIPBE",
        "type": "EMO_SYNC",
        "delayTime": 0.20000000298023224,
        "aliasList": [
          "2061"
        ],
        "dataPath": "",
        "phonemePath": "Cs_Emo_NPC_Common/Cs_Emo_NPC_Angry01",
        "emotionPath": "Cs_Emo_NPC_Common/Cs_Emo_NPC_Angry02_B",
        "mateDataPath": "",
        "matePhonemePath": "",
        "mateEmotionPath": "",
        "phonemePathHashList": [
          9218657655395275517,
          6356428425152214583,
          11840959722219800112,
          50070356133267922
        ],
        "emotionPathHashList": [
          1543470474401446125,
          3621513871663053736,
          12092980173931013338,
          10310327394382951583
        ],
        "FMDPBECPELH": "",
        "ADKBLPOKGIK": ""
      },
      {
        "$type": "FABLGECDBCH",
        "type": "BODY_LANG",
        "delayTime": 1.0759999752044678,
        "aliasList": [
          "2061"
        ],
        "bodyLangParam": 1171,
        "forceDoFreeStyle": true,
        "canDoRepeatFreeStyle": false,
        "eventPatternSuiteKey": "",
        "FOHHKFAIAAJ": ""
      },
      {
        "$type": "FABLGECDBCH",
        "type": "BODY_LANG",
        "delayTime": 4.289999961853027,
        "aliasList": [
          "2061"
        ],
        "bodyLangParam": 1060,
        "forceDoFreeStyle": true,
        "canDoRepeatFreeStyle": false,
        "eventPatternSuiteKey": "",
        "FOHHKFAIAAJ": ""
      },
      {
        "$type": "FABLGECDBCH",
        "type": "BODY_LANG",
        "delayTime": 5.702000141143799,
        "aliasList": [
          "2061"
        ],
        "isContinue": true,
        "forceDoFreeStyle": true,
        "canDoRepeatFreeStyle": false,
        "eventPatternSuiteKey": "",
        "FOHHKFAIAAJ": ""
      }
    ],
    [
      {
        "$type": "LJLMDHDCAMK",
        "type": "LOOK_AT",
        "aliasList": [
          "2061"
        ],
        "enableHead": true,
        "useTargetPos": true,
        "enableAbsolute": true,
        "targetPosition": {
          "x": -764.8779907226562,
          "y": 206.41799926757812,
          "z": 1475.83203125
        },
        "headTurnTime": 0.5,
        "targetNpcAlias": "",
        "lookAtTargetType": "NONE",
        "targetNpcLookAtPoint": "",
        "OAFJBHJHLJG": ""
      },
      {
        "$type": "FABLGECDBCH",
        "type": "BODY_LANG",
        "aliasList": [
          "2061"
        ],
        "isContinue": true,
        "forceDoFreeStyle": true,
        "canDoRepeatFreeStyle": false,
        "eventPatternSuiteKey": "",
        "FOHHKFAIAAJ": ""
      },
      {
        "$type": "CPJKOIHIPBE",
        "type": "EMO_SYNC",
        "aliasList": [
          "20006"
        ],
        "dataPath": "",
        "phonemePath": "Cs_Emo_NPC_Common/Cs_Emo_NPC_Normal01",
        "emotionPath": "Cs_Emo_NPC_Common/Cs_Emo_NPC_Normal01_B",
        "mateDataPath": "",
        "matePhonemePath": "",
        "mateEmotionPath": "",
        "phonemePathHashList": [
          12803840960998583578,
          3437050431160283015,
          6548526936325855136,
          1274732080047098512
        ],
        "emotionPathHashList": [
          15191155715402440098,
          420038106395935518,
          2651432695756251320,
          4209314551981667660
        ],
        "FMDPBECPELH": "",
        "ADKBLPOKGIK": ""
      },
      {
        "$type": "LJLMDHDCAMK",
        "type": "LOOK_AT",
        "aliasList": [
          "20006"
        ],
        "enableHead": true,
        "useTargetPos": true,
        "enableAbsolute": true,
        "targetPosition": {
          "x": -764.8779907226562,
          "y": 206.41799926757812,
          "z": 1475.83203125
        },
        "headTurnTime": 0.5,
        "targetNpcAlias": "",
        "lookAtTargetType": "NONE",
        "targetNpcLookAtPoint": "",
        "OAFJBHJHLJG": ""
      },
      {
        "$type": "PKKMAMONGEO",
        "type": "DIALOG",
        "aliasList": [
          "2061"
        ],
        "dialogID": 710441903,
        "protectTime": 3.0
      },
      {
        "$type": "FJKIHHKJLMJ",
        "type": "CAMERA_MOVE",
        "duration": 1.0,
        "camPosOffset": {
          "x": -769.4630126953125,
          "y": 206.95899963378906,
          "z": 1474.2449951171875
        },
        "camForwardTargetOffset": {
          "x": -768.5289916992188,
          "y": 206.78799438476562,
          "z": 1474.5589599609375
        },
        "camFov": 20.0,
        "lerpPattern": 6,
        "cameraBlendType": "EaseInOutCubic",
        "NJBNNOMLKCK": {},
        "needZAxisRotate": true,
        "openCameraDither": false,
        "targetNpcAlias": "",
        "closeTreeLeafDither": true,
        "KJOEFBPOIIH": "",
        "IICFKKEBIEC": "",
        "EGEHEJEBLBJ": ""
      },
      {
        "$type": "MoleMole.Config.ConfigMoveToAction",
        "type": "MOVE_TO",
        "aliasList": [
          "Avatar"
        ],
        "moveType": "WALK",
        "routeList": [
          {
            "x": -764.7239990234375,
            "y": 204.99600219726562,
            "z": 1475.8690185546875
          }
        ],
        "exactlyMove": true,
        "_bindMovingTargetKey": ""
      },
      {
        "$type": "FJKIHHKJLMJ",
        "type": "CAMERA_MOVE",
        "delayTime": 0.10000000149011612,
        "duration": 10.0,
        "camPosOffset": {
          "x": -769.47998046875,
          "y": 206.9530029296875,
          "z": 1474.2950439453125
        },
        "camForwardTargetOffset": {
          "x": -768.5390014648438,
          "y": 206.78500366210938,
          "z": 1474.5889892578125
        },
        "camFov": 20.0,
        "cameraBlendType": "EaseOutQuad",
        "NJBNNOMLKCK": {},
        "needZAxisRotate": true,
        "openCameraDither": false,
        "targetNpcAlias": "",
        "closeTreeLeafDither": true,
        "KJOEFBPOIIH": "",
        "IICFKKEBIEC": "",
        "EGEHEJEBLBJ": ""
      },
      {
        "$type": "HDGKHDNFMIM",
        "type": "DIALOG_SELECT",
        "delayTime": 0.4000000059604645,
        "aliasList": [
          "Avatar"
        ],
        "dialogIDList": [
          710441904,
          710441905
        ],
        "grpIDList": [
          1170703420,
          1170703420
        ],
        "useGrpId": true
      },
      {
        "$type": "FABLGECDBCH",
        "type": "BODY_LANG",
        "delayTime": 0.8999999761581421,
        "aliasList": [
          "2061"
        ],
        "bodyLangParam": 1230,
        "forceDoFreeStyle": true,
        "canDoRepeatFreeStyle": false,
        "eventPatternSuiteKey": "",
        "FOHHKFAIAAJ": ""
      },
      {
        "$type": "LJLMDHDCAMK",
        "type": "LOOK_AT",
        "delayTime": 1.7760000228881836,
        "aliasList": [
          "20006"
        ],
        "enableHead": true,
        "useTargetPos": true,
        "enableAbsolute": true,
        "targetPosition": {
          "x": -767.2650146484375,
          "y": 206.66099548339844,
          "z": 1474.8389892578125
        },
        "headTurnTime": 0.5,
        "targetNpcAlias": "",
        "lookAtTargetType": "NONE",
        "targetNpcLookAtPoint": "",
        "OAFJBHJHLJG": ""
      }
    ],
    [
      {
        "$type": "FABLGECDBCH",
        "type": "BODY_LANG",
        "aliasList": [
          "2061"
        ],
        "isContinue": true,
        "forceDoFreeStyle": true,
        "canDoRepeatFreeStyle": false,
        "eventPatternSuiteKey": "",
        "FOHHKFAIAAJ": ""
      },
      {
        "$type": "LJLMDHDCAMK",
        "type": "LOOK_AT",
        "aliasList": [
          "20006"
        ],
        "enableHead": true,
        "useTargetPos": true,
        "enableAbsolute": true,
        "targetPosition": {
          "x": -767.2650146484375,
          "y": 206.66099548339844,
          "z": 1474.8389892578125
        },
        "headTurnTime": 0.5,
        "targetNpcAlias": "",
        "lookAtTargetType": "NONE",
        "targetNpcLookAtPoint": "",
        "OAFJBHJHLJG": ""
      },
      {
        "$type": "CPJKOIHIPBE",
        "type": "EMO_SYNC",
        "aliasList": [
          "20006"
        ],
        "dataPath": "",
        "phonemePath": "Cs_Emo_NPC_Common/Cs_Emo_NPC_Normal01",
        "emotionPath": "Cs_Emo_NPC_Common/Cs_Emo_NPC_Normal01",
        "mateDataPath": "",
        "matePhonemePath": "",
        "mateEmotionPath": "",
        "phonemePathHashList": [
          12803840960998583578,
          3437050431160283015,
          6548526936325855136,
          1274732080047098512
        ],
        "emotionPathHashList": [
          10638823098752766568,
          16550434959365186937,
          16779490980036678760,
          2038118027140397243
        ],
        "FMDPBECPELH": "",
        "ADKBLPOKGIK": ""
      },
      {
        "$type": "FJKIHHKJLMJ",
        "type": "CAMERA_MOVE",
        "duration": 1.0,
        "camPosOffset": {
          "x": -762.5399780273438,
          "y": 206.57000732421875,
          "z": 1477.863037109375
        },
        "camForwardTargetOffset": {
          "x": -763.3759765625,
          "y": 206.52099609375,
          "z": 1477.3160400390625
        },
        "camFov": 15.0,
        "lerpPattern": 6,
        "cameraBlendType": "EaseInOutCubic",
        "NJBNNOMLKCK": {},
        "needZAxisRotate": true,
        "openCameraDither": false,
        "targetNpcAlias": "",
        "closeTreeLeafDither": true,
        "KJOEFBPOIIH": "",
        "IICFKKEBIEC": "",
        "EGEHEJEBLBJ": ""
      },
      {
        "$type": "PKKMAMONGEO",
        "type": "DIALOG",
        "aliasList": [
          "2061"
        ],
        "dialogID": 710441906,
        "protectTime": 3.0
      },
      {
        "$type": "FJKIHHKJLMJ",
        "type": "CAMERA_MOVE",
        "delayTime": 0.10000000149011612,
        "duration": 10.0,
        "camPosOffset": {
          "x": -762.68701171875,
          "y": 206.56199645996094,
          "z": 1477.7659912109375
        },
        "camForwardTargetOffset": {
          "x": -763.5230102539062,
          "y": 206.51300048828125,
          "z": 1477.218994140625
        },
        "camFov": 15.0,
        "cameraBlendType": "EaseOutQuad",
        "NJBNNOMLKCK": {},
        "needZAxisRotate": true,
        "openCameraDither": false,
        "targetNpcAlias": "",
        "closeTreeLeafDither": true,
        "KJOEFBPOIIH": "",
        "IICFKKEBIEC": "",
        "EGEHEJEBLBJ": ""
      },
      {
        "$type": "FABLGECDBCH",
        "type": "BODY_LANG",
        "delayTime": 0.9129999876022339,
        "aliasList": [
          "2061"
        ],
        "bodyLangParam": 1173,
        "forceDoFreeStyle": true,
        "canDoRepeatFreeStyle": false,
        "eventPatternSuiteKey": "",
        "FOHHKFAIAAJ": ""
      }
    ],
    [
      {
        "$type": "LJLMDHDCAMK",
        "type": "LOOK_AT",
        "aliasList": [
          "20006"
        ],
        "enableHead": true,
        "useTargetPos": true,
        "enableAbsolute": true,
        "targetPosition": {
          "x": -764.5230102539062,
          "y": 206.38600158691406,
          "z": 1475.6619873046875
        },
        "headTurnTime": 0.5,
        "targetNpcAlias": "",
        "lookAtTargetType": "NONE",
        "targetNpcLookAtPoint": "",
        "OAFJBHJHLJG": ""
      },
      {
        "$type": "LLGANGLOEEO",
        "type": "STEER_TO",
        "duration": 1.0,
        "aliasList": [
          "20006"
        ],
        "steerType": "ABSOLUTE",
        "steerDir": {
          "x": -764.9210205078125,
          "y": 205.00399780273438,
          "z": 1475.635986328125
        },
        "useSteerAnim": true,
        "targetNpcAlias": "",
        "OAFJBHJHLJG": ""
      },
      {
        "$type": "PKKMAMONGEO",
        "type": "DIALOG",
        "aliasList": [
          "20006"
        ],
        "dialogID": 710441907,
        "protectTime": 1.0
      },
      {
        "$type": "FJKIHHKJLMJ",
        "type": "CAMERA_MOVE",
        "duration": 1.0,
        "camPosOffset": {
          "x": -754.3359985351562,
          "y": 211.95899963378906,
          "z": 1501.3260498046875
        },
        "camForwardTargetOffset": {
          "x": -754.7150268554688,
          "y": 211.67999267578125,
          "z": 1500.4439697265625
        },
        "camFov": 30.0,
        "lerpPattern": 6,
        "cameraBlendType": "EaseInOutCubic",
        "NJBNNOMLKCK": {},
        "needZAxisRotate": true,
        "openCameraDither": false,
        "targetNpcAlias": "",
        "closeTreeLeafDither": true,
        "KJOEFBPOIIH": "",
        "IICFKKEBIEC": "",
        "EGEHEJEBLBJ": ""
      },
      {
        "$type": "MoleMole.Config.ConfigTeleportToAction",
        "type": "TELEPORT_TO",
        "aliasList": [
          "Avatar"
        ],
        "position": {
          "x": -764.7239990234375,
          "y": 205.0019989013672,
          "z": 1475.8690185546875
        },
        "forward": {
          "x": -0.9179999828338623,
          "z": -0.3959999978542328
        },
        "openLongDisTeleport": true,
        "_posBindMovingTargetKey": "",
        "_forwardBindMovingTargetKey": ""
      },
      {
        "$type": "FJKIHHKJLMJ",
        "type": "CAMERA_MOVE",
        "delayTime": 0.10000000149011612,
        "duration": 10.0,
        "camPosOffset": {
          "x": -754.843994140625,
          "y": 212.0229949951172,
          "z": 1501.5159912109375
        },
        "camForwardTargetOffset": {
          "x": -755.2050170898438,
          "y": 211.74400329589844,
          "z": 1500.6259765625
        },
        "camFov": 30.0,
        "cameraBlendType": "EaseOutQuad",
        "NJBNNOMLKCK": {},
        "needZAxisRotate": true,
        "openCameraDither": false,
        "targetNpcAlias": "",
        "closeTreeLeafDither": true,
        "KJOEFBPOIIH": "",
        "IICFKKEBIEC": "",
        "EGEHEJEBLBJ": ""
      },
      {
        "$type": "LLGANGLOEEO",
        "type": "STEER_TO",
        "delayTime": 0.4050000011920929,
        "duration": 1.0,
        "aliasList": [
          "Avatar"
        ],
        "steerType": "ABSOLUTE",
        "steerDir": {
          "x": -765.1270141601562,
          "y": 204.98699951171875,
          "z": 1476.2659912109375
        },
        "useSteerAnim": true,
        "targetNpcAlias": "",
        "OAFJBHJHLJG": ""
      },
      {
        "$type": "LJLMDHDCAMK",
        "type": "LOOK_AT",
        "delayTime": 0.4050000011920929,
        "aliasList": [
          "Avatar"
        ],
        "enableHead": true,
        "useTargetPos": true,
        "enableAbsolute": true,
        "targetPosition": {
          "x": -765.176025390625,
          "y": 206.5,
          "z": 1476.383056640625
        },
        "headTurnTime": 0.5,
        "targetNpcAlias": "",
        "lookAtTargetType": "NONE",
        "targetNpcLookAtPoint": "",
        "OAFJBHJHLJG": ""
      },
      {
        "$type": "LJLMDHDCAMK",
        "type": "LOOK_AT",
        "delayTime": 1.0,
        "aliasList": [
          "20006"
        ],
        "enableHead": true,
        "useTargetPos": true,
        "enableAbsolute": true,
        "targetPosition": {
          "x": -764.5230102539062,
          "y": 206.38600158691406,
          "z": 1475.6619873046875
        },
        "headTurnTime": 0.30000001192092896,
        "targetNpcAlias": "",
        "lookAtTargetType": "NONE",
        "targetNpcLookAtPoint": "",
        "OAFJBHJHLJG": ""
      },
      {
        "$type": "FABLGECDBCH",
        "type": "BODY_LANG",
        "delayTime": 1.2050000429153442,
        "aliasList": [
          "20006"
        ],
        "bodyLangParam": 1172,
        "forceDoFreeStyle": true,
        "canDoRepeatFreeStyle": false,
        "eventPatternSuiteKey": "",
        "FOHHKFAIAAJ": ""
      },
      {
        "$type": "LJLMDHDCAMK",
        "type": "LOOK_AT",
        "delayTime": 1.4049999713897705,
        "aliasList": [
          "Avatar"
        ],
        "enableHead": true,
        "useTargetPos": true,
        "enableAbsolute": true,
        "targetPosition": {
          "x": -765.176025390625,
          "y": 206.5,
          "z": 1476.383056640625
        },
        "headTurnTime": 0.30000001192092896,
        "targetNpcAlias": "",
        "lookAtTargetType": "NONE",
        "targetNpcLookAtPoint": "",
        "OAFJBHJHLJG": ""
      },
      {
        "$type": "FABLGECDBCH",
        "type": "BODY_LANG",
        "delayTime": 4.250999927520752,
        "aliasList": [
          "20006"
        ],
        "bodyLangParam": 1173,
        "forceDoFreeStyle": true,
        "canDoRepeatFreeStyle": false,
        "eventPatternSuiteKey": "",
        "FOHHKFAIAAJ": ""
      }
    ],
    [
      {
        "$type": "FABLGECDBCH",
        "type": "BODY_LANG",
        "aliasList": [
          "20006"
        ],
        "bodyLangParam": 1120,
        "forceDoFreeStyle": true,
        "canDoRepeatFreeStyle": false,
        "eventPatternSuiteKey": "",
        "FOHHKFAIAAJ": ""
      },
      {
        "$type": "FABLGECDBCH",
        "type": "BODY_LANG",
        "aliasList": [
          "20006"
        ],
        "bodyLangParam": 4040,
        "forceDoFreeStyle": true,
        "canDoRepeatFreeStyle": false,
        "eventPatternSuiteKey": "",
        "FOHHKFAIAAJ": ""
      },
      {
        "$type": "PKKMAMONGEO",
        "type": "DIALOG",
        "aliasList": [
          "20006"
        ],
        "dialogID": 710441908,
        "protectTime": 0.5
      },
      {
        "$type": "FJKIHHKJLMJ",
        "type": "CAMERA_MOVE",
        "duration": 1.0,
        "camPosOffset": {
          "x": -777.2249755859375,
          "y": 208.2989959716797,
          "z": 1481.5699462890625
        },
        "camForwardTargetOffset": {
          "x": -776.3359985351562,
          "y": 208.11099243164062,
          "z": 1481.1529541015625
        },
        "camFov": 20.0,
        "lerpPattern": 6,
        "cameraBlendType": "EaseInOutCubic",
        "NJBNNOMLKCK": {},
        "needZAxisRotate": true,
        "openCameraDither": false,
        "targetNpcAlias": "",
        "closeTreeLeafDither": true,
        "KJOEFBPOIIH": "",
        "IICFKKEBIEC": "",
        "EGEHEJEBLBJ": ""
      },
      {
        "$type": "FJKIHHKJLMJ",
        "type": "CAMERA_MOVE",
        "delayTime": 0.10000000149011612,
        "duration": 10.0,
        "camPosOffset": {
          "x": -777.343017578125,
          "y": 208.8159942626953,
          "z": 1481.0240478515625
        },
        "camForwardTargetOffset": {
          "x": -776.4429931640625,
          "y": 208.5919952392578,
          "z": 1480.6510009765625
        },
        "camFov": 20.0,
        "cameraBlendType": "EaseOutQuad",
        "NJBNNOMLKCK": {},
        "needZAxisRotate": true,
        "openCameraDither": false,
        "targetNpcAlias": "",
        "closeTreeLeafDither": true,
        "KJOEFBPOIIH": "",
        "IICFKKEBIEC": "",
        "EGEHEJEBLBJ": ""
      }
    ],
    [
      {
        "$type": "PKKMAMONGEO",
        "type": "DIALOG",
        "aliasList": [
          "20006"
        ],
        "dialogID": 710441918,
        "protectTime": 0.5
      },
      {
        "$type": "FJKIHHKJLMJ",
        "type": "CAMERA_MOVE",
        "duration": 1.0,
        "camPosOffset": {
          "x": -766.406005859375,
          "y": 206.63999938964844,
          "z": 1476.779052734375
        },
        "camForwardTargetOffset": {
          "x": -765.47998046875,
          "y": 206.4550018310547,
          "z": 1476.449951171875
        },
        "camFov": 30.0,
        "lerpPattern": 6,
        "cameraBlendType": "EaseInOutCubic",
        "NJBNNOMLKCK": {},
        "needZAxisRotate": true,
        "openCameraDither": false,
        "targetNpcAlias": "",
        "closeTreeLeafDither": true,
        "KJOEFBPOIIH": "",
        "IICFKKEBIEC": "",
        "EGEHEJEBLBJ": ""
      },
      {
        "$type": "FJKIHHKJLMJ",
        "type": "CAMERA_MOVE",
        "delayTime": 0.10000000149011612,
        "duration": 10.0,
        "camPosOffset": {
          "x": -766.4180297851562,
          "y": 206.64100646972656,
          "z": 1476.7449951171875
        },
        "camForwardTargetOffset": {
          "x": -765.4829711914062,
          "y": 206.45599365234375,
          "z": 1476.4429931640625
        },
        "camFov": 30.0,
        "cameraBlendType": "EaseOutQuad",
        "NJBNNOMLKCK": {},
        "needZAxisRotate": true,
        "openCameraDither": false,
        "targetNpcAlias": "",
        "closeTreeLeafDither": true,
        "KJOEFBPOIIH": "",
        "IICFKKEBIEC": "",
        "EGEHEJEBLBJ": ""
      }
    ],
    [
      {
        "$type": "PKKMAMONGEO",
        "type": "DIALOG",
        "aliasList": [
          "20006"
        ],
        "dialogID": 710441909,
        "protectTime": 0.5
      },
      {
        "$type": "FABLGECDBCH",
        "type": "BODY_LANG",
        "aliasList": [
          "20006"
        ],
        "isContinue": true,
        "forceDoFreeStyle": true,
        "canDoRepeatFreeStyle": false,
        "eventPatternSuiteKey": "",
        "FOHHKFAIAAJ": ""
      },
      {
        "$type": "MoleMole.Config.ConfigTeleportToAction",
        "type": "TELEPORT_TO",
        "aliasList": [
          "Avatar"
        ],
        "position": {
          "x": -764.4340209960938,
          "y": 204.98800659179688,
          "z": 1475.5450439453125
        },
        "forward": {
          "x": -0.796999990940094,
          "z": 0.6039999723434448
        },
        "openLongDisTeleport": true,
        "_posBindMovingTargetKey": "",
        "_forwardBindMovingTargetKey": ""
      },
      {
        "$type": "FJKIHHKJLMJ",
        "type": "CAMERA_MOVE",
        "duration": 1.0,
        "camPosOffset": {
          "x": -764.47802734375,
          "y": 206.4929962158203,
          "z": 1473.7449951171875
        },
        "camForwardTargetOffset": {
          "x": -764.6279907226562,
          "y": 206.4320068359375,
          "z": 1474.7320556640625
        },
        "camFov": 20.0,
        "lerpPattern": 6,
        "cameraBlendType": "EaseInOutCubic",
        "NJBNNOMLKCK": {},
        "needZAxisRotate": true,
        "openCameraDither": false,
        "targetNpcAlias": "",
        "closeTreeLeafDither": true,
        "KJOEFBPOIIH": "",
        "IICFKKEBIEC": "",
        "EGEHEJEBLBJ": ""
      },
      {
        "$type": "FJKIHHKJLMJ",
        "type": "CAMERA_MOVE",
        "delayTime": 0.10000000149011612,
        "duration": 10.0,
        "camPosOffset": {
          "x": -764.5029907226562,
          "y": 206.48300170898438,
          "z": 1473.905029296875
        },
        "camForwardTargetOffset": {
          "x": -764.6530151367188,
          "y": 206.4219970703125,
          "z": 1474.8919677734375
        },
        "camFov": 20.0,
        "cameraBlendType": "EaseOutQuad",
        "NJBNNOMLKCK": {},
        "openCameraDither": false,
        "targetNpcAlias": "",
        "closeTreeLeafDither": true,
        "KJOEFBPOIIH": "",
        "IICFKKEBIEC": "",
        "EGEHEJEBLBJ": ""
      },
      {
        "$type": "FABLGECDBCH",
        "type": "BODY_LANG",
        "delayTime": 1.375,
        "aliasList": [
          "20006"
        ],
        "bodyLangParam": 1130,
        "forceDoFreeStyle": true,
        "canDoRepeatFreeStyle": false,
        "eventPatternSuiteKey": "",
        "FOHHKFAIAAJ": ""
      },
      {
        "$type": "FABLGECDBCH",
        "type": "BODY_LANG",
        "delayTime": 4.090000152587891,
        "aliasList": [
          "20006"
        ],
        "isContinue": true,
        "forceDoFreeStyle": true,
        "canDoRepeatFreeStyle": false,
        "eventPatternSuiteKey": "",
        "FOHHKFAIAAJ": ""
      }
    ],
    [
      {
        "$type": "FABLGECDBCH",
        "type": "BODY_LANG",
        "aliasList": [
          "20006"
        ],
        "isContinue": true,
        "forceDoFreeStyle": true,
        "canDoRepeatFreeStyle": false,
        "eventPatternSuiteKey": "",
        "FOHHKFAIAAJ": ""
      },
      {
        "$type": "PKKMAMONGEO",
        "type": "DIALOG",
        "aliasList": [
          "20006"
        ],
        "dialogID": 710441910,
        "protectTime": 0.5
      },
      {
        "$type": "FJKIHHKJLMJ",
        "type": "CAMERA_MOVE",
        "duration": 1.0,
        "camPosOffset": {
          "x": -765.364013671875,
          "y": 206.51699829101562,
          "z": 1474.115966796875
        },
        "camForwardTargetOffset": {
          "x": -765.302001953125,
          "y": 206.5279998779297,
          "z": 1475.114013671875
        },
        "camFov": 10.0,
        "lerpPattern": 6,
        "cameraBlendType": "EaseInOutCubic",
        "NJBNNOMLKCK": {},
        "needZAxisRotate": true,
        "openCameraDither": false,
        "targetNpcAlias": "",
        "closeTreeLeafDither": true,
        "KJOEFBPOIIH": "",
        "IICFKKEBIEC": "",
        "EGEHEJEBLBJ": ""
      },
      {
        "$type": "FABLGECDBCH",
        "type": "BODY_LANG",
        "delayTime": 1.1920000314712524,
        "aliasList": [
          "20006"
        ],
        "bodyLangParam": 1171,
        "forceDoFreeStyle": true,
        "canDoRepeatFreeStyle": false,
        "eventPatternSuiteKey": "",
        "FOHHKFAIAAJ": ""
      }
    ],
    [
      {
        "$type": "LLGANGLOEEO",
        "type": "STEER_TO",
        "duration": 1.0,
        "aliasList": [
          "20006"
        ],
        "steerType": "ABSOLUTE",
        "steerDir": {
          "x": -764.3109741210938,
          "y": 205.01199340820312,
          "z": 1476.875
        },
        "useSteerAnim": true,
        "targetNpcAlias": "",
        "OAFJBHJHLJG": ""
      },
      {
        "$type": "PKKMAMONGEO",
        "type": "DIALOG",
        "aliasList": [
          "20006"
        ],
        "dialogID": 710441911,
        "protectTime": 1.0
      },
      {
        "$type": "LJLMDHDCAMK",
        "type": "LOOK_AT",
        "aliasList": [
          "20006"
        ],
        "enableHead": true,
        "useTargetPos": true,
        "enableAbsolute": true,
        "targetPosition": {
          "x": -763.197021484375,
          "y": 206.4550018310547,
          "z": 1478.0679931640625
        },
        "headTurnTime": 0.5,
        "targetNpcAlias": "",
        "lookAtTargetType": "NONE",
        "targetNpcLookAtPoint": "",
        "OAFJBHJHLJG": ""
      },
      {
        "$type": "FJKIHHKJLMJ",
        "type": "CAMERA_MOVE",
        "duration": 1.0,
        "camPosOffset": {
          "x": -769.8319702148438,
          "y": 206.78599548339844,
          "z": 1470.6309814453125
        },
        "camForwardTargetOffset": {
          "x": -769.1610107421875,
          "y": 206.73399353027344,
          "z": 1471.3709716796875
        },
        "camFov": 10.0,
        "lerpPattern": 6,
        "cameraBlendType": "EaseInOutCubic",
        "NJBNNOMLKCK": {},
        "needZAxisRotate": true,
        "openCameraDither": false,
        "targetNpcAlias": "",
        "closeTreeLeafDither": true,
        "KJOEFBPOIIH": "",
        "IICFKKEBIEC": "",
        "EGEHEJEBLBJ": ""
      },
      {
        "$type": "FJKIHHKJLMJ",
        "type": "CAMERA_MOVE",
        "delayTime": 0.10000000149011612,
        "duration": 10.0,
        "camPosOffset": {
          "x": -769.2620239257812,
          "y": 206.74200439453125,
          "z": 1471.259033203125
        },
        "camForwardTargetOffset": {
          "x": -768.5910034179688,
          "y": 206.69000244140625,
          "z": 1471.9990234375
        },
        "camFov": 10.0,
        "cameraBlendType": "EaseOutQuad",
        "NJBNNOMLKCK": {},
        "needZAxisRotate": true,
        "openCameraDither": false,
        "targetNpcAlias": "",
        "closeTreeLeafDither": true,
        "KJOEFBPOIIH": "",
        "IICFKKEBIEC": "",
        "EGEHEJEBLBJ": ""
      },
      {
        "$type": "LLGANGLOEEO",
        "type": "STEER_TO",
        "delayTime": 0.5649999976158142,
        "duration": 1.0,
        "aliasList": [
          "Avatar"
        ],
        "steerType": "ABSOLUTE",
        "steerDir": {
          "x": -764.0380249023438,
          "y": 204.98800659179688,
          "z": 1476.4630126953125
        },
        "useSteerAnim": true,
        "targetNpcAlias": "",
        "OAFJBHJHLJG": ""
      },
      {
        "$type": "LJLMDHDCAMK",
        "type": "LOOK_AT",
        "delayTime": 0.5649999976158142,
        "aliasList": [
          "Avatar"
        ],
        "enableHead": true,
        "useTargetPos": true,
        "enableAbsolute": true,
        "targetPosition": {
          "x": -763.406982421875,
          "y": 206.37399291992188,
          "z": 1476.676025390625
        },
        "headTurnTime": 0.5,
        "targetNpcAlias": "",
        "lookAtTargetType": "NONE",
        "targetNpcLookAtPoint": "",
        "OAFJBHJHLJG": ""
      },
      {
        "$type": "LJLMDHDCAMK",
        "type": "LOOK_AT",
        "delayTime": 1.0,
        "aliasList": [
          "20006"
        ],
        "enableHead": true,
        "useTargetPos": true,
        "enableAbsolute": true,
        "targetPosition": {
          "x": -763.197021484375,
          "y": 206.4550018310547,
          "z": 1478.0679931640625
        },
        "headTurnTime": 0.30000001192092896,
        "targetNpcAlias": "",
        "lookAtTargetType": "NONE",
        "targetNpcLookAtPoint": "",
        "OAFJBHJHLJG": ""
      },
      {
        "$type": "LJLMDHDCAMK",
        "type": "LOOK_AT",
        "delayTime": 1.565000057220459,
        "aliasList": [
          "Avatar"
        ],
        "enableHead": true,
        "useTargetPos": true,
        "enableAbsolute": true,
        "targetPosition": {
          "x": -763.406982421875,
          "y": 206.37399291992188,
          "z": 1476.676025390625
        },
        "headTurnTime": 0.30000001192092896,
        "targetNpcAlias": "",
        "lookAtTargetType": "NONE",
        "targetNpcLookAtPoint": "",
        "OAFJBHJHLJG": ""
      },
      {
        "$type": "FABLGECDBCH",
        "type": "BODY_LANG",
        "delayTime": 1.9739999771118164,
        "aliasList": [
          "20006"
        ],
        "bodyLangParam": 1172,
        "forceDoFreeStyle": true,
        "canDoRepeatFreeStyle": false,
        "eventPatternSuiteKey": "",
        "FOHHKFAIAAJ": ""
      }
    ],
    [
      {
        "$type": "PKKMAMONGEO",
        "type": "DIALOG",
        "aliasList": [
          "20006"
        ],
        "dialogID": 710441912,
        "protectTime": 1.5
      },
      {
        "$type": "LLGANGLOEEO",
        "type": "STEER_TO",
        "duration": 1.0,
        "aliasList": [
          "20006"
        ],
        "steerType": "ABSOLUTE",
        "steerDir": {
          "x": -766.6599731445312,
          "y": 205.06399536132812,
          "z": 1477.6800537109375
        },
        "useSteerAnim": true,
        "targetNpcAlias": "",
        "OAFJBHJHLJG": ""
      },
      {
        "$type": "LJLMDHDCAMK",
        "type": "LOOK_AT",
        "aliasList": [
          "20006"
        ],
        "enableHead": true,
        "useTargetPos": true,
        "enableAbsolute": true,
        "targetPosition": {
          "x": -766.1069946289062,
          "y": 206.5279998779297,
          "z": 1477.0369873046875
        },
        "headTurnTime": 0.5,
        "targetNpcAlias": "",
        "lookAtTargetType": "NONE",
        "targetNpcLookAtPoint": "",
        "OAFJBHJHLJG": ""
      },
      {
        "$type": "LJLMDHDCAMK",
        "type": "LOOK_AT",
        "delayTime": 0.800000011920929,
        "aliasList": [
          "Avatar"
        ],
        "enableHead": true,
        "useTargetPos": true,
        "enableAbsolute": true,
        "targetPosition": {
          "x": -765.3309936523438,
          "y": 206.37399291992188,
          "z": 1476.5159912109375
        },
        "headTurnTime": 0.5,
        "targetNpcAlias": "",
        "lookAtTargetType": "NONE",
        "targetNpcLookAtPoint": "",
        "OAFJBHJHLJG": ""
      },
      {
        "$type": "LLGANGLOEEO",
        "type": "STEER_TO",
        "delayTime": 0.800000011920929,
        "duration": 1.0,
        "aliasList": [
          "Avatar"
        ],
        "steerType": "ABSOLUTE",
        "steerDir": {
          "x": -765.3289794921875,
          "y": 205.01699829101562,
          "z": 1476.363037109375
        },
        "useSteerAnim": true,
        "targetNpcAlias": "",
        "OAFJBHJHLJG": ""
      },
      {
        "$type": "LJLMDHDCAMK",
        "type": "LOOK_AT",
        "delayTime": 1.0,
        "aliasList": [
          "20006"
        ],
        "enableHead": true,
        "useTargetPos": true,
        "enableAbsolute": true,
        "targetPosition": {
          "x": -766.1069946289062,
          "y": 206.5279998779297,
          "z": 1477.0369873046875
        },
        "headTurnTime": 0.30000001192092896,
        "targetNpcAlias": "",
        "lookAtTargetType": "NONE",
        "targetNpcLookAtPoint": "",
        "OAFJBHJHLJG": ""
      },
      {
        "$type": "FJKIHHKJLMJ",
        "type": "CAMERA_MOVE",
        "delayTime": 1.0,
        "duration": 1.0,
        "camPosOffset": {
          "x": -758.5339965820312,
          "y": 209.04100036621094,
          "z": 1488.030029296875
        },
        "camForwardTargetOffset": {
          "x": -759.5289916992188,
          "y": 208.94200134277344,
          "z": 1488.031005859375
        },
        "camFov": 10.0,
        "lerpPattern": 6,
        "cameraBlendType": "EaseInOutCubic",
        "NJBNNOMLKCK": {},
        "needZAxisRotate": true,
        "openCameraDither": false,
        "targetNpcAlias": "",
        "closeTreeLeafDither": true,
        "KJOEFBPOIIH": "",
        "IICFKKEBIEC": "",
        "EGEHEJEBLBJ": ""
      },
      {
        "$type": "FJKIHHKJLMJ",
        "type": "CAMERA_MOVE",
        "delayTime": 1.100000023841858,
        "duration": 10.0,
        "camPosOffset": {
          "x": -760.39599609375,
          "y": 208.85499572753906,
          "z": 1488.031005859375
        },
        "camForwardTargetOffset": {
          "x": -761.3909912109375,
          "y": 208.75599670410156,
          "z": 1488.031005859375
        },
        "camFov": 10.0,
        "cameraBlendType": "EaseOutQuad",
        "NJBNNOMLKCK": {},
        "needZAxisRotate": true,
        "openCameraDither": false,
        "targetNpcAlias": "",
        "closeTreeLeafDither": true,
        "KJOEFBPOIIH": "",
        "IICFKKEBIEC": "",
        "EGEHEJEBLBJ": ""
      },
      {
        "$type": "LJLMDHDCAMK",
        "type": "LOOK_AT",
        "delayTime": 1.7999999523162842,
        "aliasList": [
          "Avatar"
        ],
        "enableHead": true,
        "useTargetPos": true,
        "enableAbsolute": true,
        "targetPosition": {
          "x": -765.3309936523438,
          "y": 206.37399291992188,
          "z": 1476.5159912109375
        },
        "headTurnTime": 0.30000001192092896,
        "targetNpcAlias": "",
        "lookAtTargetType": "NONE",
        "targetNpcLookAtPoint": "",
        "OAFJBHJHLJG": ""
      }
    ],
    [
      {
        "$type": "LJLMDHDCAMK",
        "type": "LOOK_AT",
        "aliasList": [
          "20006"
        ],
        "enableHead": true,
        "useTargetPos": true,
        "enableAbsolute": true,
        "targetPosition": {
          "x": -764.6680297851562,
          "y": 206.5279998779297,
          "z": 1476.7569580078125
        },
        "headTurnTime": 0.5,
        "targetNpcAlias": "",
        "lookAtTargetType": "NONE",
        "targetNpcLookAtPoint": "",
        "OAFJBHJHLJG": ""
      },
      {
        "$type": "LLGANGLOEEO",
        "type": "STEER_TO",
        "duration": 1.0,
        "aliasList": [
          "20006"
        ],
        "steerType": "ABSOLUTE",
        "steerDir": {
          "x": -764.3109741210938,
          "y": 205.01199340820312,
          "z": 1476.875
        },
        "useSteerAnim": true,
        "targetNpcAlias": "",
        "OAFJBHJHLJG": ""
      },
      {
        "$type": "PKKMAMONGEO",
        "type": "DIALOG",
        "aliasList": [
          "20006"
        ],
        "dialogID": 710441913,
        "protectTime": 1.5
      },
      {
        "$type": "FJKIHHKJLMJ",
        "type": "CAMERA_MOVE",
        "duration": 1.0,
        "camPosOffset": {
          "x": -771.4539794921875,
          "y": 206.7790069580078,
          "z": 1476.0489501953125
        },
        "camForwardTargetOffset": {
          "x": -770.4619750976562,
          "y": 206.70899963378906,
          "z": 1476.1519775390625
        },
        "camFov": 10.0,
        "lerpPattern": 6,
        "cameraBlendType": "EaseInOutCubic",
        "NJBNNOMLKCK": {},
        "needZAxisRotate": true,
        "openCameraDither": false,
        "targetNpcAlias": "",
        "closeTreeLeafDither": true,
        "KJOEFBPOIIH": "",
        "IICFKKEBIEC": "",
        "EGEHEJEBLBJ": ""
      },
      {
        "$type": "MoleMole.Config.ConfigTeleportToAction",
        "type": "TELEPORT_TO",
        "aliasList": [
          "Avatar"
        ],
        "position": {
          "x": -764.5430297851562,
          "y": 204.9969940185547,
          "z": 1475.9530029296875
        },
        "forward": {
          "x": -0.9800000190734863,
          "z": -0.19699999690055847
        },
        "openLongDisTeleport": true,
        "_posBindMovingTargetKey": "",
        "_forwardBindMovingTargetKey": ""
      },
      {
        "$type": "FJKIHHKJLMJ",
        "type": "CAMERA_MOVE",
        "delayTime": 0.10000000149011612,
        "duration": 10.0,
        "camPosOffset": {
          "x": -770.8920288085938,
          "y": 206.73899841308594,
          "z": 1476.1080322265625
        },
        "camForwardTargetOffset": {
          "x": -769.9000244140625,
          "y": 206.66900634765625,
          "z": 1476.2110595703125
        },
        "camFov": 10.0,
        "cameraBlendType": "EaseOutQuad",
        "NJBNNOMLKCK": {},
        "needZAxisRotate": true,
        "openCameraDither": false,
        "targetNpcAlias": "",
        "closeTreeLeafDither": true,
        "KJOEFBPOIIH": "",
        "IICFKKEBIEC": "",
        "EGEHEJEBLBJ": ""
      },
      {
        "$type": "LLGANGLOEEO",
        "type": "STEER_TO",
        "delayTime": 0.800000011920929,
        "duration": 1.0,
        "aliasList": [
          "Avatar"
        ],
        "steerType": "ABSOLUTE",
        "steerDir": {
          "x": -763.7589721679688,
          "y": 204.9969940185547,
          "z": 1476.572998046875
        },
        "useSteerAnim": true,
        "targetNpcAlias": "",
        "OAFJBHJHLJG": ""
      },
      {
        "$type": "LJLMDHDCAMK",
        "type": "LOOK_AT",
        "delayTime": 0.800000011920929,
        "aliasList": [
          "Avatar"
        ],
        "enableHead": true,
        "useTargetPos": true,
        "enableAbsolute": true,
        "targetPosition": {
          "x": -764.0150146484375,
          "y": 206.37399291992188,
          "z": 1476.071044921875
        },
        "headTurnTime": 0.5,
        "targetNpcAlias": "",
        "lookAtTargetType": "NONE",
        "targetNpcLookAtPoint": "",
        "OAFJBHJHLJG": ""
      },
      {
        "$type": "LJLMDHDCAMK",
        "type": "LOOK_AT",
        "delayTime": 1.0,
        "aliasList": [
          "20006"
        ],
        "enableHead": true,
        "useTargetPos": true,
        "enableAbsolute": true,
        "targetPosition": {
          "x": -764.6680297851562,
          "y": 206.5279998779297,
          "z": 1476.7569580078125
        },
        "headTurnTime": 0.30000001192092896,
        "targetNpcAlias": "",
        "lookAtTargetType": "NONE",
        "targetNpcLookAtPoint": "",
        "OAFJBHJHLJG": ""
      },
      {
        "$type": "LJLMDHDCAMK",
        "type": "LOOK_AT",
        "delayTime": 1.7999999523162842,
        "aliasList": [
          "Avatar"
        ],
        "enableHead": true,
        "useTargetPos": true,
        "enableAbsolute": true,
        "targetPosition": {
          "x": -764.0150146484375,
          "y": 206.37399291992188,
          "z": 1476.071044921875
        },
        "headTurnTime": 0.30000001192092896,
        "targetNpcAlias": "",
        "lookAtTargetType": "NONE",
        "targetNpcLookAtPoint": "",
        "OAFJBHJHLJG": ""
      },
      {
        "$type": "FABLGECDBCH",
        "type": "BODY_LANG",
        "delayTime": 2.427000045776367,
        "aliasList": [
          "20006"
        ],
        "bodyLangParam": 1171,
        "forceDoFreeStyle": true,
        "canDoRepeatFreeStyle": false,
        "eventPatternSuiteKey": "",
        "FOHHKFAIAAJ": ""
      }
    ],
    [
      {
        "$type": "PKKMAMONGEO",
        "type": "DIALOG",
        "aliasList": [
          "20006"
        ],
        "dialogID": 710441914,
        "protectTime": 0.5
      },
      {
        "$type": "LJLMDHDCAMK",
        "type": "LOOK_AT",
        "aliasList": [
          "Avatar"
        ],
        "enableHead": true,
        "useTargetPos": true,
        "enableAbsolute": true,
        "targetPosition": {
          "x": -765.176025390625,
          "y": 206.5,
          "z": 1476.383056640625
        },
        "headTurnTime": 0.5,
        "targetNpcAlias": "",
        "lookAtTargetType": "NONE",
        "targetNpcLookAtPoint": "",
        "OAFJBHJHLJG": ""
      },
      {
        "$type": "LJLMDHDCAMK",
        "type": "LOOK_AT",
        "aliasList": [
          "20006"
        ],
        "enableHead": true,
        "useTargetPos": true,
        "enableAbsolute": true,
        "targetPosition": {
          "x": -764.5230102539062,
          "y": 206.38600158691406,
          "z": 1475.6619873046875
        },
        "headTurnTime": 0.5,
        "targetNpcAlias": "",
        "lookAtTargetType": "NONE",
        "targetNpcLookAtPoint": "",
        "OAFJBHJHLJG": ""
      },
      {
        "$type": "MoleMole.Config.ConfigTeleportToAction",
        "type": "TELEPORT_TO",
        "aliasList": [
          "20006"
        ],
        "position": {
          "x": -765.27099609375,
          "y": 205.01199340820312,
          "z": 1476.594970703125
        },
        "forward": {
          "x": 1.3630000352859497,
          "z": 0.06400000303983688
        },
        "openLongDisTeleport": true,
        "_posBindMovingTargetKey": "",
        "_forwardBindMovingTargetKey": ""
      },
      {
        "$type": "FJKIHHKJLMJ",
        "type": "CAMERA_MOVE",
        "duration": 1.0,
        "camPosOffset": {
          "x": -764.6950073242188,
          "y": 206.53799438476562,
          "z": 1474.2889404296875
        },
        "camForwardTargetOffset": {
          "x": -764.7440185546875,
          "y": 206.427001953125,
          "z": 1475.281005859375
        },
        "camFov": 30.0,
        "lerpPattern": 6,
        "cameraBlendType": "EaseInOutCubic",
        "NJBNNOMLKCK": {},
        "needZAxisRotate": true,
        "openCameraDither": false,
        "targetNpcAlias": "",
        "closeTreeLeafDither": true,
        "KJOEFBPOIIH": "",
        "IICFKKEBIEC": "",
        "EGEHEJEBLBJ": ""
      },
      {
        "$type": "MoleMole.Config.ConfigTeleportToAction",
        "type": "TELEPORT_TO",
        "aliasList": [
          "Avatar"
        ],
        "position": {
          "x": -764.4340209960938,
          "y": 204.98800659179688,
          "z": 1475.5450439453125
        },
        "forward": {
          "x": 0.7480000257492065,
          "z": 0.28999999165534973
        },
        "openLongDisTeleport": true,
        "_posBindMovingTargetKey": "",
        "_forwardBindMovingTargetKey": ""
      },
      {
        "$type": "FJKIHHKJLMJ",
        "type": "CAMERA_MOVE",
        "delayTime": 0.10000000149011612,
        "duration": 10.0,
        "camPosOffset": {
          "x": -764.7009887695312,
          "y": 206.52499389648438,
          "z": 1474.4019775390625
        },
        "camForwardTargetOffset": {
          "x": -764.75,
          "y": 206.41400146484375,
          "z": 1475.39501953125
        },
        "camFov": 30.0,
        "cameraBlendType": "EaseOutQuad",
        "NJBNNOMLKCK": {},
        "needZAxisRotate": true,
        "openCameraDither": false,
        "targetNpcAlias": "",
        "closeTreeLeafDither": true,
        "KJOEFBPOIIH": "",
        "IICFKKEBIEC": "",
        "EGEHEJEBLBJ": ""
      },
      {
        "$type": "LLGANGLOEEO",
        "type": "STEER_TO",
        "delayTime": 0.10000000149011612,
        "duration": 1.0,
        "aliasList": [
          "20006"
        ],
        "steerType": "ABSOLUTE",
        "steerDir": {
          "x": -764.927978515625,
          "y": 205.01199340820312,
          "z": 1475.656005859375
        },
        "useSteerAnim": true,
        "targetNpcAlias": "",
        "OAFJBHJHLJG": ""
      },
      {
        "$type": "LLGANGLOEEO",
        "type": "STEER_TO",
        "delayTime": 0.10000000149011612,
        "duration": 1.0,
        "aliasList": [
          "Avatar"
        ],
        "steerType": "ABSOLUTE",
        "steerDir": {
          "x": -765.2310180664062,
          "y": 204.98800659179688,
          "z": 1476.1490478515625
        },
        "useSteerAnim": true,
        "targetNpcAlias": "",
        "OAFJBHJHLJG": ""
      },
      {
        "$type": "LJLMDHDCAMK",
        "type": "LOOK_AT",
        "delayTime": 1.0,
        "aliasList": [
          "20006"
        ],
        "enableHead": true,
        "useTargetPos": true,
        "enableAbsolute": true,
        "targetPosition": {
          "x": -764.5230102539062,
          "y": 206.38600158691406,
          "z": 1475.6619873046875
        },
        "headTurnTime": 0.30000001192092896,
        "targetNpcAlias": "",
        "lookAtTargetType": "NONE",
        "targetNpcLookAtPoint": "",
        "OAFJBHJHLJG": ""
      },
      {
        "$type": "LJLMDHDCAMK",
        "type": "LOOK_AT",
        "delayTime": 1.0,
        "aliasList": [
          "Avatar"
        ],
        "enableHead": true,
        "useTargetPos": true,
        "enableAbsolute": true,
        "targetPosition": {
          "x": -765.176025390625,
          "y": 206.5,
          "z": 1476.383056640625
        },
        "headTurnTime": 0.30000001192092896,
        "targetNpcAlias": "",
        "lookAtTargetType": "NONE",
        "targetNpcLookAtPoint": "",
        "OAFJBHJHLJG": ""
      },
      {
        "$type": "FABLGECDBCH",
        "type": "BODY_LANG",
        "delayTime": 1.215000033378601,
        "aliasList": [
          "20006"
        ],
        "bodyLangParam": 1171,
        "forceDoFreeStyle": true,
        "canDoRepeatFreeStyle": false,
        "eventPatternSuiteKey": "",
        "FOHHKFAIAAJ": ""
      },
      {
        "$type": "CPJKOIHIPBE",
        "type": "EMO_SYNC",
        "delayTime": 2.744999885559082,
        "aliasList": [
          "20006"
        ],
        "dataPath": "",
        "phonemePath": "Cs_Emo_NPC_Common/Cs_Emo_NPC_Smile01",
        "emotionPath": "Cs_Emo_NPC_Common/Cs_Emo_NPC_WinkA01",
        "mateDataPath": "",
        "matePhonemePath": "",
        "mateEmotionPath": "",
        "enableBlink": false,
        "phonemePathHashList": [
          16904578549667717032,
          1816638257688317738,
          5794653667040553837,
          4994398500180388018
        ],
        "emotionPathHashList": [
          3765270258116979292,
          5819579798871825639,
          6466964524325215505,
          5921498707822553356
        ],
        "FMDPBECPELH": "",
        "ADKBLPOKGIK": ""
      }
    ],
    [
      {
        "$type": "CPJKOIHIPBE",
        "type": "EMO_SYNC",
        "aliasList": [
          "20006"
        ],
        "dataPath": "",
        "phonemePath": "Cs_Emo_NPC_Common/Cs_Emo_NPC_Smile01",
        "emotionPath": "Cs_Emo_NPC_Common/Cs_Emo_NPC_Normal01",
        "mateDataPath": "",
        "matePhonemePath": "",
        "mateEmotionPath": "",
        "phonemePathHashList": [
          16904578549667717032,
          1816638257688317738,
          5794653667040553837,
          4994398500180388018
        ],
        "emotionPathHashList": [
          10638823098752766568,
          16550434959365186937,
          16779490980036678760,
          2038118027140397243
        ],
        "FMDPBECPELH": "",
        "ADKBLPOKGIK": ""
      },
      {
        "$type": "FABLGECDBCH",
        "type": "BODY_LANG",
        "aliasList": [
          "20006"
        ],
        "bodyLangParam": 1060,
        "forceDoFreeStyle": true,
        "canDoRepeatFreeStyle": false,
        "eventPatternSuiteKey": "",
        "FOHHKFAIAAJ": ""
      },
      {
        "$type": "PKKMAMONGEO",
        "type": "DIALOG",
        "aliasList": [
          "20006"
        ],
        "dialogID": 710441915,
        "protectTime": 0.5
      },
      {
        "$type": "FJKIHHKJLMJ",
        "type": "CAMERA_MOVE",
        "duration": 1.0,
        "camPosOffset": {
          "x": -766.0709838867188,
          "y": 206.70799255371094,
          "z": 1476.83203125
        },
        "camForwardTargetOffset": {
          "x": -765.198974609375,
          "y": 206.4810028076172,
          "z": 1476.39794921875
        },
        "camFov": 30.0,
        "lerpPattern": 6,
        "cameraBlendType": "EaseInOutCubic",
        "NJBNNOMLKCK": {},
        "needZAxisRotate": true,
        "openCameraDither": false,
        "targetNpcAlias": "",
        "closeTreeLeafDither": true,
        "KJOEFBPOIIH": "",
        "IICFKKEBIEC": "",
        "EGEHEJEBLBJ": ""
      },
      {
        "$type": "FJKIHHKJLMJ",
        "type": "CAMERA_MOVE",
        "delayTime": 0.10000000149011612,
        "duration": 5.0,
        "camPosOffset": {
          "x": -766.0800170898438,
          "y": 206.677001953125,
          "z": 1476.8299560546875
        },
        "camForwardTargetOffset": {
          "x": -765.2000122070312,
          "y": 206.4709930419922,
          "z": 1476.4019775390625
        },
        "camFov": 30.0,
        "cameraBlendType": "EaseOutQuad",
        "NJBNNOMLKCK": {},
        "needZAxisRotate": true,
        "openCameraDither": false,
        "targetNpcAlias": "",
        "closeTreeLeafDither": true,
        "KJOEFBPOIIH": "",
        "IICFKKEBIEC": "",
        "EGEHEJEBLBJ": ""
      },
      {
        "$type": "FABLGECDBCH",
        "type": "BODY_LANG",
        "delayTime": 2.0209999084472656,
        "aliasList": [
          "20006"
        ],
        "isContinue": true,
        "forceDoFreeStyle": true,
        "canDoRepeatFreeStyle": false,
        "eventPatternSuiteKey": "",
        "FOHHKFAIAAJ": ""
      },
      {
        "$type": "FABLGECDBCH",
        "type": "BODY_LANG",
        "delayTime": 2.680999994277954,
        "aliasList": [
          "20006"
        ],
        "bodyLangParam": 1173,
        "forceDoFreeStyle": true,
        "canDoRepeatFreeStyle": false,
        "eventPatternSuiteKey": "",
        "FOHHKFAIAAJ": ""
      }
    ],
    [
      {
        "$type": "PKKMAMONGEO",
        "type": "DIALOG",
        "aliasList": [
          "20006"
        ],
        "dialogID": 710441916,
        "protectTime": 0.5
      },
      {
        "$type": "FABLGECDBCH",
        "type": "BODY_LANG",
        "aliasList": [
          "20006"
        ],
        "isContinue": true,
        "forceDoFreeStyle": true,
        "canDoRepeatFreeStyle": false,
        "eventPatternSuiteKey": "",
        "FOHHKFAIAAJ": ""
      },
      {
        "$type": "FJKIHHKJLMJ",
        "type": "CAMERA_MOVE",
        "duration": 1.0,
        "camPosOffset": {
          "x": -765.3250122070312,
          "y": 206.63299560546875,
          "z": 1474.803955078125
        },
        "camForwardTargetOffset": {
          "x": -765.22802734375,
          "y": 206.5540008544922,
          "z": 1475.7960205078125
        },
        "camFov": 20.0,
        "lerpPattern": 6,
        "cameraBlendType": "EaseInOutCubic",
        "NJBNNOMLKCK": {},
        "needZAxisRotate": true,
        "openCameraDither": false,
        "targetNpcAlias": "",
        "closeTreeLeafDither": true,
        "KJOEFBPOIIH": "",
        "IICFKKEBIEC": "",
        "EGEHEJEBLBJ": ""
      },
      {
        "$type": "FJKIHHKJLMJ",
        "type": "CAMERA_MOVE",
        "delayTime": 0.10000000149011612,
        "duration": 5.0,
        "camPosOffset": {
          "x": -765.3709716796875,
          "y": 206.6280059814453,
          "z": 1474.8079833984375
        },
        "camForwardTargetOffset": {
          "x": -765.2739868164062,
          "y": 206.5500030517578,
          "z": 1475.800048828125
        },
        "camFov": 20.0,
        "cameraBlendType": "EaseOutQuad",
        "NJBNNOMLKCK": {},
        "needZAxisRotate": true,
        "openCameraDither": false,
        "targetNpcAlias": "",
        "closeTreeLeafDither": true,
        "KJOEFBPOIIH": "",
        "IICFKKEBIEC": "",
        "EGEHEJEBLBJ": ""
      }
    ],
    [
      {
        "$type": "PKKMAMONGEO",
        "type": "DIALOG",
        "aliasList": [
          "20006"
        ],
        "dialogID": 710441917,
        "protectTime": 0.5
      },
      {
        "$type": "FJKIHHKJLMJ",
        "type": "CAMERA_MOVE",
        "duration": 1.0,
        "camPosOffset": {
          "x": -744.864013671875,
          "y": 208.62899780273438,
          "z": 1493.156005859375
        },
        "camForwardTargetOffset": {
          "x": -745.6849975585938,
          "y": 208.5709991455078,
          "z": 1492.5880126953125
        },
        "camFov": 30.0,
        "lerpPattern": 6,
        "cameraBlendType": "EaseInOutCubic",
        "NJBNNOMLKCK": {},
        "needZAxisRotate": true,
        "openCameraDither": false,
        "targetNpcAlias": "",
        "closeTreeLeafDither": true,
        "KJOEFBPOIIH": "",
        "IICFKKEBIEC": "",
        "EGEHEJEBLBJ": ""
      },
      {
        "$type": "FJKIHHKJLMJ",
        "type": "CAMERA_MOVE",
        "delayTime": 0.10000000149011612,
        "duration": 10.0,
        "camPosOffset": {
          "x": -744.6810302734375,
          "y": 209.26800537109375,
          "z": 1492.8280029296875
        },
        "camForwardTargetOffset": {
          "x": -745.5020141601562,
          "y": 209.2100067138672,
          "z": 1492.260009765625
        },
        "camFov": 30.0,
        "cameraBlendType": "EaseOutQuad",
        "NJBNNOMLKCK": {},
        "needZAxisRotate": true,
        "openCameraDither": false,
        "targetNpcAlias": "",
        "closeTreeLeafDither": true,
        "KJOEFBPOIIH": "",
        "IICFKKEBIEC": "",
        "EGEHEJEBLBJ": ""
      }
    ],
    [
      {
        "$type": "MoleMole.Config.ConfigTimeProtectAction",
        "type": "TIME_PROTECT",
        "duration": 0.699999988079071
      },
      {
        "$type": "MoleMole.Config.ConfigSimpleBlackScreenAction",
        "type": "SIMPLE_BLACK_SCREEN",
        "durationToBlack": 0.5,
        "durationKeepBlack": 1.0,
        "durationFromBlack": 0.5,
        "textMapID": ""
      },
      {
        "$type": "MoleMole.Config.ConfigVisibleInterAction",
        "type": "VISIBLE",
        "delayTime": 0.6000000238418579,
        "aliasList": [
          "20006"
        ],
        "_extraParam": ""
      },
      {
        "$type": "FJKIHHKJLMJ",
        "type": "CAMERA_MOVE",
        "delayTime": 0.6000000238418579,
        "duration": 0.10000000149011612,
        "camPosOffset": {
          "x": -763.083984375,
          "y": 206.20599365234375,
          "z": 1473.8050537109375
        },
        "camForwardTargetOffset": {
          "x": -763.6810302734375,
          "y": 206.0469970703125,
          "z": 1474.5909423828125
        },
        "lerpPattern": 6,
        "cameraBlendType": "EaseInOutCubic",
        "NJBNNOMLKCK": {},
        "needZAxisRotate": true,
        "openCameraDither": false,
        "targetNpcAlias": "",
        "closeTreeLeafDither": true,
        "KJOEFBPOIIH": "",
        "IICFKKEBIEC": "",
        "EGEHEJEBLBJ": ""
      }
    ]
  ],
  "groupId": [
    {
      "grpId": 1170703416,
      "nextGrpId": 1170703417
    },
    {
      "index": 1,
      "grpId": 1170703417,
      "nextGrpId": 1170703418
    },
    {
      "index": 2,
      "grpId": 1170703418,
      "nextGrpId": 1170703419
    },
    {
      "index": 3,
      "grpId": 1170703419,
      "nextGrpId": 1170703420
    },
    {
      "index": 4,
      "grpId": 1170703420,
      "nextGrpId": 1170703421
    },
    {
      "index": 5,
      "grpId": 1170703421,
      "nextGrpId": 1170703422
    },
    {
      "index": 6,
      "grpId": 1170703422,
      "nextGrpId": 1170703423
    },
    {
      "index": 7,
      "grpId": 1170703423,
      "nextGrpId": 1170703424
    },
    {
      "index": 8,
      "grpId": 1170703424,
      "nextGrpId": 1932067576
    },
    {
      "index": 9,
      "grpId": 1932067576,
      "nextGrpId": 1932067577
    },
    {
      "index": 10,
      "grpId": 1932067577,
      "nextGrpId": 1932067578
    },
    {
      "index": 11,
      "grpId": 1932067578,
      "nextGrpId": 1932067579
    },
    {
      "index": 12,
      "grpId": 1932067579,
      "nextGrpId": 1932067580
    },
    {
      "index": 13,
      "grpId": 1932067580,
      "nextGrpId": 1932067581
    },
    {
      "index": 14,
      "grpId": 1932067581,
      "nextGrpId": 1932067582
    },
    {
      "index": 15,
      "grpId": 1932067582,
      "nextGrpId": 1932067583
    },
    {
      "index": 16,
      "grpId": 1932067583,
      "nextGrpId": 1932067584
    },
    {
      "index": 17,
      "grpId": 1932067584,
      "nextGrpId": 1932067585
    }
  ],
  "freeStyleDic": {
    "2061": [
      1120,
      4040,
      1171,
      1060,
      1230,
      1173
    ],
    "20006": [
      1172,
      1173,
      1120,
      4040,
      1130,
      1171,
      1060
    ]
  }
}