[
  {
    "$type": "JAHHMHMPFAD",
    "id": 10080001,
    "gameParam": "SceneId",
    "values": [
      1005,
      1030
    ]
  },
  {
    "$type": "JAHHMHMPFAD",
    "id": 10080002,
    "gameParam": "SceneId",
    "values": [
      1018,
      50000
    ]
  },
  {
    "$type": "JAHHMHMPFAD",
    "id": 10080003,
    "gameParam": "SceneId",
    "values": [
      40400,
      40401,
      40402,
      40403,
      40404,
      40405,
      40406,
      40407,
      40408
    ]
  },
  {
    "$type": "JAHHMHMPFAD",
    "id": 10080004,
    "gameParam": "SceneId",
    "values": [
      1017,
      1019,
      40100,
      40101,
      40102,
      40103,
      40104,
      40105,
      50011,
      50013
    ]
  },
  {
    "$type": "JAHHMHMPFAD",
    "id": 10080005,
    "gameParam": "SceneId",
    "values": [
      20005,
      40200,
      40201,
      40202,
      40203,
      40204,
      40205,
      50012
    ]
  },
  {
    "$type": "JAHHMHMPFAD",
    "id": 10080006,
    "gameParam": "SceneId",
    "values": [
      1006,
      40007,
      40616
    ]
  },
  {
    "$type": "JAHHMHMPFAD",
    "id": 10080007,
    "gameParam": "SceneId",
    "values": [
      20006,
      20012,
      20014,
      20022,
      20024,
      20031,
      40002,
      40003
    ]
  },
  {
    "$type": "JAHHMHMPFAD",
    "id": 10080008,
    "gameParam": "SceneId",
    "values": [
      1016,
      20009,
      20013,
      20016,
      40001,
      40004,
      40010,
      40013,
      50006
    ]
  },
  {
    "$type": "JAHHMHMPFAD",
    "id": 10080009,
    "gameParam": "SceneId",
    "values": [
      20008,
      40005,
      40006
    ]
  },
  {
    "$type": "JAHHMHMPFAD",
    "id": 10080010,
    "gameParam": "SceneId",
    "values": [
      20010,
      20011,
      20015,
      20019,
      40012,
      40014
    ]
  },
  {
    "$type": "JAHHMHMPFAD",
    "id": 10080011,
    "gameParam": "SceneId",
    "values": [
      40300,
      40301,
      40302,
      40303,
      40304,
      40305
    ]
  },
  {
    "$type": "JAHHMHMPFAD",
    "id": 10080012,
    "gameParam": "SceneId",
    "values": [
      1015,
      1023,
      1024,
      1031,
      20023,
      30100,
      30101,
      30102,
      30103,
      30104,
      30200,
      30201,
      30202,
      30203,
      30204,
      30300,
      30301,
      30302,
      30303,
      30304,
      30400,
      30401,
      30402,
      30403,
      30404,
      30500,
      30501,
      30502,
      30503,
      30504,
      30600,
      30601,
      30602,
      30603,
      30604,
      30700,
      30701,
      30702,
      30703,
      30704,
      30800,
      30801,
      30802,
      30803,
      30804,
      30900,
      30901,
      30902,
      30903,
      30904,
      31000,
      31001,
      31002,
      31003,
      31004,
      40500,
      40501,
      40502,
      40503,
      40504,
      40505,
      40506,
      40507,
      40508,
      40509,
      40510,
      40511,
      40512,
      40513,
      40600,
      40601,
      40602,
      40603,
      40604,
      40605,
      40606,
      40607,
      40608,
      40609,
      40610,
      40611,
      40612,
      40613,
      40614,
      40615,
      50015,
      50020
    ]
  },
  {
    "$type": "JAHHMHMPFAD",
    "id": 10080013,
    "gameParam": "SceneId",
    "values": [
      20017,
      20020
    ]
  }
]