{
  "luaDataPath": "",
  "dontUseDefaultFinish": true,
  "startBlackKeepTime": 0.5,
  "entityBan": "",
  "disableNpcLod": true,
  "isAutoBanNpc": true,
  "isBanWidgetPet": true,
  "protectNpcMobileLod": true,
  "talkFlag": 7,
  "startFade": {
    "startFadeInDuration": 0.5,
    "startFadeOutDuration": 0.5
  },
  "endFade": {
    "startFadeOutDuration": 0.0
  },
  "actors": [
    {
      "alias": "Avatar",
      "visible": true,
      "bornPointName": "[3_7911:-465.575,237.600,2744.690,0.000,80.900,0.000]",
      "relativePosType": "AVATAR_NEW",
      "relativePosNpcAlias": "",
      "_notDestroyInTalk": true,
      "_bindMovingTargetKey": ""
    },
    {
      "alias": "AvatarNpc",
      "visible": true,
      "bornPointName": "[3_7911:-465.575,237.600,2744.690,0.000,80.900,0.000]",
      "relativePos": {
        "x": -462.1700134277344,
        "y": 236.69700622558594,
        "z": 2753.655029296875
      },
      "relativeRot": {
        "y": 13.54699993133545
      },
      "removeActorType": "NEW_REMOVE",
      "relativePosType": "AVATAR_NEW",
      "relativePosNpcAlias": "",
      "_notDestroyInTalk": true,
      "_bindMovingTargetKey": "",
      "notDestroyInTalk": true
    },
    {
      "configID": 1058,
      "alias": "1058",
      "visible": true,
      "bornPointName": "[3_7912:-463.870,237.599,2744.070,0.000,72.050,0.000]",
      "relativePosType": "AVATAR_NEW",
      "relativePosNpcAlias": "",
      "_notDestroyInTalk": true,
      "_bindMovingTargetKey": ""
    },
    {
      "configID": 1050,
      "alias": "1050",
      "visible": true,
      "bornPointName": "[3_7913:-464.622,237.599,2745.859,0.000,71.170,0.000]",
      "removeActorType": "NEW_REMOVE",
      "relativePosType": "AVATAR_NEW",
      "relativePosNpcAlias": "",
      "_notDestroyInTalk": true,
      "_bindMovingTargetKey": ""
    },
    {
      "configID": 1005,
      "alias": "1005",
      "visible": true,
      "bornPointName": "",
      "useRelativePos": true,
      "relativePos": {
        "x": -1.0,
        "z": 0.5
      },
      "removeActorType": "NEW_REMOVE_WITH_DISAPPEAR",
      "relativePosType": "AVATAR_NEW",
      "relativePosNpcAlias": "",
      "_notDestroyInTalk": true,
      "_bindMovingTargetKey": ""
    }
  ],
  "group": [
    [
      {
        "$type": "MoleMole.Config.ConfigTimeProtectAction",
        "type": "TIME_PROTECT",
        "duration": 1.0,
        "actionId": 104
      },
      {
        "$type": "AHHBJGEHACH",
        "type": "BODY_LANG",
        "aliasList": [
          "1058"
        ],
        "actionId": 124,
        "isContinue": true,
        "forceDoFreeStyle": true,
        "canDoRepeatFreeStyle": false,
        "cantBackToIdleWhenSitLoop": true,
        "eventPatternSuiteKey": ""
      },
      {
        "$type": "AHHBJGEHACH",
        "type": "BODY_LANG",
        "aliasList": [
          "1050"
        ],
        "actionId": 126,
        "isContinue": true,
        "forceDoFreeStyle": true,
        "canDoRepeatFreeStyle": false,
        "cantBackToIdleWhenSitLoop": true,
        "eventPatternSuiteKey": ""
      },
      {
        "$type": "AHHBJGEHACH",
        "type": "BODY_LANG",
        "delayTime": 0.00800000037997961,
        "aliasList": [
          "1005"
        ],
        "actionId": 128,
        "isContinue": true,
        "forceDoFreeStyle": true,
        "canDoRepeatFreeStyle": false,
        "cantBackToIdleWhenSitLoop": true,
        "eventPatternSuiteKey": ""
      },
      {
        "$type": "MoleMole.Config.ConfigBlackScreenAction",
        "type": "BLACK_SCREEN",
        "duration": 1.0,
        "actionId": 130,
        "_flag": 2048,
        "blackScreenType": "KEEP_BLACK",
        "durationToBlack": 0.5,
        "durationKeepBlack": 1.0,
        "durationFromBlack": 0.5,
        "inteePos": "",
        "textMapID": "",
        "useTextFade": true,
        "showClickBtnDelayTime": 0.5,
        "waitClickBtnTipTime": 0.5,
        "_changeAudioState": true
      },
      {
        "$type": "MoleMole.Config.ConfigSitOrStandAction",
        "type": "SIT_OR_STAND",
        "aliasList": [
          "Avatar"
        ],
        "actionId": 135,
        "_flag": 8192,
        "banResetFreestyle": true
      },
      {
        "$type": "MoleMole.Config.ConfigPlayerNPCEnergyTypeAction",
        "type": "SET_PLAYER_NPC_ENERGY_TYPE",
        "aliasList": [
          "AvatarNpc"
        ],
        "actionId": 136,
        "setHeroEngergyType": true
      },
      {
        "$type": "AHHBJGEHACH",
        "type": "BODY_LANG",
        "aliasList": [
          "AvatarNpc"
        ],
        "actionId": 139,
        "isContinue": true,
        "forceDoFreeStyle": true,
        "canDoRepeatFreeStyle": false,
        "cantBackToIdleWhenSitLoop": true,
        "eventPatternSuiteKey": ""
      },
      {
        "$type": "MoleMole.Config.ConfigVisibleInterAction",
        "type": "VISIBLE",
        "aliasList": [
          "Avatar"
        ],
        "actionId": 141,
        "_extraParam": ""
      },
      {
        "$type": "KMKDFCOPMLP",
        "type": "LOOK_AT",
        "aliasList": [
          "1050"
        ],
        "actionId": 142,
        "_flag": 64,
        "headTurnTime": 0.5,
        "targetNpcAlias": "",
        "openBackProtect": true,
        "backProtectAngle": 10.0,
        "targetNpcLookAtPoint": "",
        "APKIBBLJLON": ""
      },
      {
        "$type": "KMKDFCOPMLP",
        "type": "LOOK_AT",
        "aliasList": [
          "1005"
        ],
        "actionId": 143,
        "_flag": 64,
        "headTurnTime": 0.5,
        "targetNpcAlias": "",
        "openBackProtect": true,
        "backProtectAngle": 10.0,
        "targetNpcLookAtPoint": "",
        "APKIBBLJLON": ""
      },
      {
        "$type": "KMKDFCOPMLP",
        "type": "LOOK_AT",
        "aliasList": [
          "1058"
        ],
        "actionId": 144,
        "_flag": 64,
        "headTurnTime": 0.5,
        "targetNpcAlias": "",
        "openBackProtect": true,
        "backProtectAngle": 10.0,
        "targetNpcLookAtPoint": "",
        "APKIBBLJLON": ""
      },
      {
        "$type": "KMKDFCOPMLP",
        "type": "LOOK_AT",
        "aliasList": [
          "AvatarNpc"
        ],
        "actionId": 145,
        "_flag": 64,
        "headTurnTime": 0.5,
        "targetNpcAlias": "",
        "openBackProtect": true,
        "backProtectAngle": 10.0,
        "targetNpcLookAtPoint": "",
        "APKIBBLJLON": ""
      },
      {
        "$type": "MoleMole.Config.ConfigTeleportToAction",
        "type": "TELEPORT_TO",
        "aliasList": [
          "AvatarNpc"
        ],
        "actionId": 147,
        "position": {
          "x": -462.1700134277344,
          "y": 236.69700622558594,
          "z": 2753.655029296875
        },
        "forward": {
          "x": 0.23399999737739563,
          "z": 0.972000002861023
        },
        "openLongDisTeleport": true,
        "syncForward": true,
        "_posBindMovingTargetKey": "",
        "_forwardBindMovingTargetKey": ""
      },
      {
        "$type": "MoleMole.Config.ConfigTeleportToAction",
        "type": "TELEPORT_TO",
        "aliasList": [
          "1058"
        ],
        "actionId": 148,
        "position": {
          "x": -461.2690124511719,
          "y": 236.69700622558594,
          "z": 2755.0849609375
        },
        "forward": {
          "x": 0.5289999842643738,
          "z": 0.8489999771118164
        },
        "openLongDisTeleport": true,
        "syncForward": true,
        "_posBindMovingTargetKey": "",
        "_forwardBindMovingTargetKey": ""
      },
      {
        "$type": "MoleMole.Config.ConfigTeleportToAction",
        "type": "TELEPORT_TO",
        "aliasList": [
          "1050"
        ],
        "actionId": 149,
        "position": {
          "x": -462.43798828125,
          "y": 236.69700622558594,
          "z": 2755.092041015625
        },
        "forward": {
          "x": 0.45399999618530273,
          "z": 0.890999972820282
        },
        "openLongDisTeleport": true,
        "syncForward": true,
        "_posBindMovingTargetKey": "",
        "_forwardBindMovingTargetKey": ""
      },
      {
        "$type": "MoleMole.Config.ConfigTeleportToAction",
        "type": "TELEPORT_TO",
        "aliasList": [
          "1005"
        ],
        "actionId": 150,
        "position": {
          "x": -462.8210144042969,
          "y": 236.69700622558594,
          "z": 2753.9990234375
        },
        "forward": {
          "x": 0.13099999725818634,
          "z": 0.9909999966621399
        },
        "openLongDisTeleport": true,
        "syncForward": true,
        "_posBindMovingTargetKey": "",
        "_forwardBindMovingTargetKey": ""
      },
      {
        "$type": "MoleMole.Config.ConfigTeleportToAction",
        "type": "TELEPORT_TO",
        "aliasList": [
          "Avatar"
        ],
        "actionId": 214,
        "position": {
          "x": -462.1700134277344,
          "y": 236.69700622558594,
          "z": 2753.655029296875
        },
        "forward": {
          "x": 0.23399999737739563,
          "z": 0.972000002861023
        },
        "openLongDisTeleport": true,
        "syncForward": true,
        "_posBindMovingTargetKey": "",
        "_forwardBindMovingTargetKey": ""
      },
      {
        "$type": "MoleMole.Config.ConfigChangeTimeInterAction",
        "type": "CHANGE_TIME",
        "actionId": 227,
        "toTime": 16.0,
        "force": true
      }
    ],
    [
      {
        "$type": "MoleMole.Config.ConfigBlackScreenAction",
        "type": "BLACK_SCREEN",
        "duration": 0.5,
        "actionId": 157,
        "_flag": 2048,
        "blackScreenType": "FROM_BLACK",
        "durationToBlack": 0.5,
        "durationKeepBlack": 0.5,
        "durationFromBlack": 0.5,
        "inteePos": "",
        "textMapID": "",
        "useTextFade": true,
        "showClickBtnDelayTime": 0.5,
        "waitClickBtnTipTime": 0.5,
        "_changeAudioState": true
      },
      {
        "$type": "DNOIKEDAKBN",
        "type": "CAMERA_MOVE",
        "duration": 0.5,
        "actionId": 158,
        "camPosOffset": {
          "x": -465.52398681640625,
          "y": 244.37100219726562,
          "z": 2738.64794921875
        },
        "camForwardTargetOffset": {
          "x": -465.3659973144531,
          "y": 244.01400756835938,
          "z": 2739.569091796875
        },
        "lerpPattern": 6,
        "cameraBlendType": "EaseInOutCubic",
        "needZAxisRotate": true,
        "openCameraDither": false,
        "targetNpcAlias": "",
        "closeTreeLeafDither": true,
        "FPHOLHODOFL": "",
        "JOAEMNHLBAH": "",
        "DMBMJMEHOBJ": "",
        "cutFrameTrans": {
          "_elevMinValue": -50.0,
          "_elevMaxValue": 50.0,
          "_poleMinValue": -50.0,
          "_poleMaxValue": 50.0
        }
      },
      {
        "$type": "MoleMole.Config.ConfigTimeProtectAction",
        "type": "TIME_PROTECT",
        "duration": 1.0,
        "actionId": 159
      },
      {
        "$type": "MoleMole.Config.ConfigMoveToAction",
        "type": "MOVE_TO",
        "delayTime": 0.15800000727176666,
        "aliasList": [
          "AvatarNpc"
        ],
        "actionId": 160,
        "moveType": "WALK",
        "routeList": [
          {
            "x": -461.25,
            "y": 236.69700622558594,
            "z": 2755.340087890625
          }
        ],
        "exactlyMove": true,
        "closeNavMesh": true,
        "openSetPos": true,
        "_bindMovingTargetKey": "",
        "_delayTriggerNextTime": 0.30000001192092896
      },
      {
        "$type": "MoleMole.Config.ConfigMoveToAction",
        "type": "MOVE_TO",
        "aliasList": [
          "1058"
        ],
        "actionId": 161,
        "moveType": "WALK",
        "routeList": [
          {
            "x": -460.3529968261719,
            "y": 236.69700622558594,
            "z": 2756.554931640625
          }
        ],
        "exactlyMove": true,
        "closeNavMesh": true,
        "openSetPos": true,
        "_bindMovingTargetKey": "",
        "_delayTriggerNextTime": 0.30000001192092896
      },
      {
        "$type": "MoleMole.Config.ConfigMoveToAction",
        "type": "MOVE_TO",
        "delayTime": 0.06700000166893005,
        "aliasList": [
          "1050"
        ],
        "actionId": 162,
        "moveType": "WALK",
        "routeList": [
          {
            "x": -461.4800109863281,
            "y": 236.69700622558594,
            "z": 2756.830078125
          }
        ],
        "exactlyMove": true,
        "closeNavMesh": true,
        "openSetPos": true,
        "_bindMovingTargetKey": "",
        "_delayTriggerNextTime": 0.30000001192092896
      },
      {
        "$type": "MoleMole.Config.ConfigMoveToAction",
        "type": "MOVE_TO",
        "delayTime": 0.2750000059604645,
        "aliasList": [
          "1005"
        ],
        "actionId": 163,
        "moveType": "WALK",
        "routeList": [
          {
            "x": -461.9129943847656,
            "y": 236.69700622558594,
            "z": 2755.52587890625
          }
        ],
        "exactlyMove": true,
        "closeNavMesh": true,
        "openSetPos": true,
        "_bindMovingTargetKey": "",
        "_delayTriggerNextTime": 0.30000001192092896
      },
      {
        "$type": "DNOIKEDAKBN",
        "type": "CAMERA_MOVE",
        "delayTime": 0.10000000149011612,
        "duration": 0.8999999761581421,
        "actionId": 170,
        "camPosOffset": {
          "x": -465.4700012207031,
          "y": 244.37100219726562,
          "z": 2738.638916015625
        },
        "camForwardTargetOffset": {
          "x": -465.31298828125,
          "y": 244.01400756835938,
          "z": 2739.55908203125
        },
        "cameraBlendType": "Linear",
        "needZAxisRotate": true,
        "openCameraDither": false,
        "targetNpcAlias": "",
        "closeTreeLeafDither": true,
        "FPHOLHODOFL": "",
        "JOAEMNHLBAH": "",
        "DMBMJMEHOBJ": "",
        "cutFrameTrans": {
          "_elevMinValue": -50.0,
          "_elevMaxValue": 50.0,
          "_poleMinValue": -50.0,
          "_poleMaxValue": 50.0
        }
      },
      {
        "$type": "MoleMole.Config.ConfigMoveToAction",
        "type": "MOVE_TO",
        "delayTime": 0.15800000727176666,
        "aliasList": [
          "Avatar"
        ],
        "actionId": 215,
        "moveType": "WALK",
        "routeList": [
          {
            "x": -461.25,
            "y": 236.69700622558594,
            "z": 2755.340087890625
          }
        ],
        "exactlyMove": true,
        "closeNavMesh": true,
        "closeAvatarNavMesh": true,
        "openSetPos": true,
        "_bindMovingTargetKey": "",
        "_delayTriggerNextTime": 0.30000001192092896
      }
    ],
    [
      {
        "$type": "NDPINFEKFAN",
        "type": "DIALOG",
        "aliasList": [
          "1005"
        ],
        "actionId": 107,
        "dialogID": 130391001,
        "protectTime": 3.5
      },
      {
        "$type": "DNOIKEDAKBN",
        "type": "CAMERA_MOVE",
        "delayTime": 0.5,
        "duration": 0.5,
        "actionId": 155,
        "camPosOffset": {
          "x": -450.4419860839844,
          "y": 240.86000061035156,
          "z": 2760.76904296875
        },
        "camForwardTargetOffset": {
          "x": -451.3059997558594,
          "y": 240.5989990234375,
          "z": 2760.339111328125
        },
        "camFov": 25.0,
        "lerpPattern": 6,
        "cameraBlendType": "EaseInOutCubic",
        "needZAxisRotate": true,
        "openCameraDither": false,
        "targetNpcAlias": "",
        "closeTreeLeafDither": true,
        "FPHOLHODOFL": "",
        "JOAEMNHLBAH": "",
        "DMBMJMEHOBJ": "",
        "cutFrameTrans": {
          "_elevMinValue": -50.0,
          "_elevMaxValue": 50.0,
          "_poleMinValue": -50.0,
          "_poleMaxValue": 50.0
        }
      },
      {
        "$type": "MFLLBDNLNBG",
        "type": "STEER_TO",
        "delayTime": 1.9170000553131104,
        "duration": 1.0,
        "aliasList": [
          "1050"
        ],
        "actionId": 164,
        "_flag": 32,
        "steerType": "ABSOLUTE",
        "steerDir": {
          "x": -461.6990051269531,
          "y": 236.69700622558594,
          "z": 2755.5390625
        },
        "useSteerAnim": true,
        "interruptFreestyle": true,
        "forceSteer": true,
        "targetNpcAlias": "",
        "ignoreY": true,
        "fixInterNull": true,
        "APKIBBLJLON": ""
      },
      {
        "$type": "MFLLBDNLNBG",
        "type": "STEER_TO",
        "delayTime": 2.2170000076293945,
        "duration": 1.0,
        "aliasList": [
          "1058"
        ],
        "actionId": 165,
        "_flag": 32,
        "steerType": "ABSOLUTE",
        "steerDir": {
          "x": -461.6990051269531,
          "y": 236.69700622558594,
          "z": 2755.5390625
        },
        "useSteerAnim": true,
        "interruptFreestyle": true,
        "forceSteer": true,
        "targetNpcAlias": "",
        "ignoreY": true,
        "fixInterNull": true,
        "APKIBBLJLON": ""
      },
      {
        "$type": "AHHBJGEHACH",
        "type": "BODY_LANG",
        "delayTime": 2.2079999446868896,
        "aliasList": [
          "1005"
        ],
        "actionId": 166,
        "bodyLangParam": 1130,
        "forceDoFreeStyle": true,
        "canDoRepeatFreeStyle": false,
        "cantBackToIdleWhenSitLoop": true,
        "eventPatternSuiteKey": ""
      },
      {
        "$type": "KMKDFCOPMLP",
        "type": "LOOK_AT",
        "delayTime": 1.8580000400543213,
        "aliasList": [
          "1050"
        ],
        "actionId": 167,
        "_flag": 64,
        "enableHead": true,
        "useTargetPos": true,
        "enableAbsolute": true,
        "targetPosition": {
          "x": -461.9079895019531,
          "y": 238.00399780273438,
          "z": 2755.570068359375
        },
        "headTurnTime": 0.5,
        "targetNpcAlias": "",
        "lookAtTargetType": "NONE",
        "openBackProtect": true,
        "backProtectAngle": 10.0,
        "targetNpcLookAtPoint": "",
        "APKIBBLJLON": ""
      },
      {
        "$type": "KMKDFCOPMLP",
        "type": "LOOK_AT",
        "delayTime": 2.1579999923706055,
        "aliasList": [
          "1058"
        ],
        "actionId": 168,
        "_flag": 64,
        "enableHead": true,
        "useTargetPos": true,
        "enableAbsolute": true,
        "targetPosition": {
          "x": -461.9079895019531,
          "y": 238.00399780273438,
          "z": 2755.570068359375
        },
        "headTurnTime": 0.5,
        "targetNpcAlias": "",
        "lookAtTargetType": "NONE",
        "openBackProtect": true,
        "backProtectAngle": 10.0,
        "targetNpcLookAtPoint": "",
        "APKIBBLJLON": ""
      },
      {
        "$type": "KMKDFCOPMLP",
        "type": "LOOK_AT",
        "aliasList": [
          "AvatarNpc"
        ],
        "actionId": 169,
        "_flag": 64,
        "enableHead": true,
        "useTargetPos": true,
        "enableAbsolute": true,
        "targetPosition": {
          "x": -461.9079895019531,
          "y": 238.00399780273438,
          "z": 2755.570068359375
        },
        "enableBody": true,
        "bodyAngle": -15.0,
        "headTurnTime": 0.5,
        "bodyTurnTime": 0.5,
        "targetNpcAlias": "",
        "lookAtTargetType": "NONE",
        "openBackProtect": true,
        "backProtectAngle": 10.0,
        "targetNpcLookAtPoint": "",
        "APKIBBLJLON": ""
      },
      {
        "$type": "DNOIKEDAKBN",
        "type": "CAMERA_MOVE",
        "delayTime": 0.6000000238418579,
        "duration": 9.708000183105469,
        "actionId": 171,
        "camPosOffset": {
          "x": -450.84600830078125,
          "y": 240.73800659179688,
          "z": 2760.568115234375
        },
        "camForwardTargetOffset": {
          "x": -451.7099914550781,
          "y": 240.47799682617188,
          "z": 2760.137939453125
        },
        "camFov": 25.0,
        "cameraBlendType": "EaseOutQuad",
        "needZAxisRotate": true,
        "openCameraDither": false,
        "targetNpcAlias": "",
        "closeTreeLeafDither": true,
        "FPHOLHODOFL": "",
        "JOAEMNHLBAH": "",
        "DMBMJMEHOBJ": "",
        "cutFrameTrans": {
          "_elevMinValue": -50.0,
          "_elevMaxValue": 50.0,
          "_poleMinValue": -50.0,
          "_poleMaxValue": 50.0
        }
      },
      {
        "$type": "KMKDFCOPMLP",
        "type": "LOOK_AT",
        "aliasList": [
          "1005"
        ],
        "actionId": 172,
        "_flag": 64,
        "enableHead": true,
        "headTurnTime": 0.5,
        "targetNpcAlias": "1058",
        "targetNpcRotateVecPlus": {
          "x": 359.3999938964844,
          "y": 356.6340026855469
        },
        "openBackProtect": true,
        "backProtectAngle": 10.0,
        "targetNpcLookAtPoint": "",
        "APKIBBLJLON": ""
      },
      {
        "$type": "KNDPHIODCAO",
        "type": "EMO_SYNC",
        "aliasList": [
          "1005"
        ],
        "actionId": 224,
        "_flag": 256,
        "dataPath": "Cs_Emo_Avatar_Simple_Common_Set/Cs_Emo_Avatar_Talk/Cs_Emo_Avatar_PersonalLine/Cs_Emo_Avatar_Cyno02/Cs_Emo_130391001",
        "phonemePath": "",
        "emotionPath": "",
        "mateDataPath": "",
        "matePhonemePath": "",
        "mateEmotionPath": "",
        "dataPathHashList": [
          2345089703917801968,
          6433774788762901134,
          6795031357716446506,
          6225362152170679567
        ],
        "LGOOHJOPJOJ": "",
        "HCHELJAGBIB": ""
      }
    ],
    [
      {
        "$type": "NDPINFEKFAN",
        "type": "DIALOG",
        "aliasList": [
          "1005"
        ],
        "actionId": 109,
        "dialogID": 130391002,
        "protectTime": 4.099999904632568
      },
      {
        "$type": "FAHGFJPOMGP",
        "type": "DIALOG_SELECT",
        "delayTime": 4.0,
        "aliasList": [
          "AvatarNpc"
        ],
        "actionId": 133,
        "dialogIDList": [
          130391003
        ],
        "grpIDList": [
          2928116057
        ],
        "useGrpId": true,
        "countDownGrpId": 2928116052
      },
      {
        "$type": "DNOIKEDAKBN",
        "type": "CAMERA_MOVE",
        "duration": 0.5,
        "actionId": 173,
        "camPosOffset": {
          "x": -459.3609924316406,
          "y": 238.09300231933594,
          "z": 2756.68408203125
        },
        "camForwardTargetOffset": {
          "x": -460.2690124511719,
          "y": 238.03599548339844,
          "z": 2756.26904296875
        },
        "camFov": 25.0,
        "lerpPattern": 6,
        "cameraBlendType": "EaseInOutCubic",
        "needZAxisRotate": true,
        "openCameraDither": false,
        "targetNpcAlias": "",
        "closeTreeLeafDither": true,
        "FPHOLHODOFL": "",
        "JOAEMNHLBAH": "",
        "DMBMJMEHOBJ": "",
        "cutFrameTrans": {
          "_elevMinValue": -50.0,
          "_elevMaxValue": 50.0,
          "_poleMinValue": -50.0,
          "_poleMaxValue": 50.0
        }
      },
      {
        "$type": "AHHBJGEHACH",
        "type": "BODY_LANG",
        "aliasList": [
          "1005"
        ],
        "actionId": 174,
        "bodyLangParam": 1170,
        "forceDoFreeStyle": true,
        "canDoRepeatFreeStyle": false,
        "cantBackToIdleWhenSitLoop": true,
        "eventPatternSuiteKey": ""
      },
      {
        "$type": "KMKDFCOPMLP",
        "type": "LOOK_AT",
        "aliasList": [
          "1005"
        ],
        "actionId": 176,
        "_flag": 64,
        "enableHead": true,
        "headTurnTime": 0.5,
        "targetNpcAlias": "AvatarNpc",
        "targetNpcRotateVecPlus": {
          "x": 6.7210001945495605,
          "y": 349.7179870605469
        },
        "openBackProtect": true,
        "backProtectAngle": 10.0,
        "targetNpcLookAtPoint": "",
        "APKIBBLJLON": ""
      },
      {
        "$type": "AHHBJGEHACH",
        "type": "BODY_LANG",
        "delayTime": 2.132999897003174,
        "aliasList": [
          "1005"
        ],
        "actionId": 177,
        "isContinue": true,
        "forceDoFreeStyle": true,
        "canDoRepeatFreeStyle": false,
        "cantBackToIdleWhenSitLoop": true,
        "eventPatternSuiteKey": ""
      },
      {
        "$type": "AHHBJGEHACH",
        "type": "BODY_LANG",
        "delayTime": 3.625,
        "aliasList": [
          "1005"
        ],
        "actionId": 178,
        "bodyLangParam": 1230,
        "forceDoFreeStyle": true,
        "canDoRepeatFreeStyle": false,
        "cantBackToIdleWhenSitLoop": true,
        "eventPatternSuiteKey": ""
      },
      {
        "$type": "AHHBJGEHACH",
        "type": "BODY_LANG",
        "delayTime": 6.566999912261963,
        "aliasList": [
          "1005"
        ],
        "actionId": 179,
        "bodyLangParam": 1130,
        "forceDoFreeStyle": true,
        "canDoRepeatFreeStyle": false,
        "cantBackToIdleWhenSitLoop": true,
        "eventPatternSuiteKey": ""
      },
      {
        "$type": "KMKDFCOPMLP",
        "type": "LOOK_AT",
        "delayTime": 6.5,
        "aliasList": [
          "1005"
        ],
        "actionId": 180,
        "_flag": 64,
        "enableHead": true,
        "headTurnTime": 0.5,
        "targetNpcAlias": "1058",
        "targetNpcRotateVecPlus": {
          "x": 6.7210001945495605,
          "y": 349.7179870605469
        },
        "openBackProtect": true,
        "backProtectAngle": 10.0,
        "targetNpcLookAtPoint": "",
        "APKIBBLJLON": ""
      },
      {
        "$type": "MFLLBDNLNBG",
        "type": "STEER_TO",
        "duration": 1.0,
        "aliasList": [
          "1005"
        ],
        "actionId": 181,
        "_flag": 32,
        "steerType": "ABSOLUTE",
        "steerDir": {
          "x": -461.0840148925781,
          "y": 236.69700622558594,
          "z": 2755.468017578125
        },
        "interruptFreestyle": true,
        "forceSteer": true,
        "targetNpcAlias": "",
        "ignoreY": true,
        "fixInterNull": true,
        "APKIBBLJLON": ""
      },
      {
        "$type": "MFLLBDNLNBG",
        "type": "STEER_TO",
        "delayTime": 6.474999904632568,
        "duration": 1.0,
        "aliasList": [
          "1005"
        ],
        "actionId": 182,
        "_flag": 32,
        "steerType": "ABSOLUTE",
        "steerDir": {
          "x": -461.13800048828125,
          "y": 236.69700622558594,
          "z": 2756.10205078125
        },
        "interruptFreestyle": true,
        "forceSteer": true,
        "targetNpcAlias": "",
        "ignoreY": true,
        "fixInterNull": true,
        "APKIBBLJLON": ""
      },
      {
        "$type": "AHHBJGEHACH",
        "type": "BODY_LANG",
        "delayTime": 8.807999610900879,
        "aliasList": [
          "1005"
        ],
        "actionId": 183,
        "bodyLangParam": 1260,
        "forceDoFreeStyle": true,
        "canDoRepeatFreeStyle": false,
        "cantBackToIdleWhenSitLoop": true,
        "eventPatternSuiteKey": ""
      },
      {
        "$type": "KNDPHIODCAO",
        "type": "EMO_SYNC",
        "aliasList": [
          "1005"
        ],
        "actionId": 225,
        "_flag": 320,
        "dataPath": "Cs_Emo_Avatar_Simple_Common_Set/Cs_Emo_Avatar_Talk/Cs_Emo_Avatar_PersonalLine/Cs_Emo_Avatar_Cyno02/Cs_Emo_130391002",
        "phonemePath": "",
        "emotionPath": "",
        "mateDataPath": "",
        "matePhonemePath": "",
        "mateEmotionPath": "",
        "dataPathHashList": [
          11014451591502616895,
          14900625865857070251,
          8098165766870157533,
          14478523310106239776
        ],
        "LGOOHJOPJOJ": "",
        "HCHELJAGBIB": ""
      }
    ],
    [
      {
        "$type": "NDPINFEKFAN",
        "type": "DIALOG",
        "aliasList": [
          "1058"
        ],
        "actionId": 112,
        "dialogID": 130391004,
        "protectTime": 0.5
      },
      {
        "$type": "AHHBJGEHACH",
        "type": "BODY_LANG",
        "aliasList": [
          "1005"
        ],
        "actionId": 184,
        "isContinue": true,
        "forceDoFreeStyle": true,
        "canDoRepeatFreeStyle": false,
        "cantBackToIdleWhenSitLoop": true,
        "eventPatternSuiteKey": ""
      },
      {
        "$type": "DNOIKEDAKBN",
        "type": "CAMERA_MOVE",
        "duration": 0.5,
        "actionId": 185,
        "camPosOffset": {
          "x": -461.635009765625,
          "y": 238.43800354003906,
          "z": 2752.842041015625
        },
        "camForwardTargetOffset": {
          "x": -461.51800537109375,
          "y": 238.26199340820312,
          "z": 2753.819091796875
        },
        "camFov": 25.0,
        "lerpPattern": 6,
        "cameraBlendType": "EaseInOutCubic",
        "needZAxisRotate": true,
        "openCameraDither": false,
        "targetNpcAlias": "",
        "closeTreeLeafDither": true,
        "FPHOLHODOFL": "",
        "JOAEMNHLBAH": "",
        "DMBMJMEHOBJ": "",
        "cutFrameTrans": {
          "_elevMinValue": -50.0,
          "_elevMaxValue": 50.0,
          "_poleMinValue": -50.0,
          "_poleMaxValue": 50.0
        }
      },
      {
        "$type": "KMKDFCOPMLP",
        "type": "LOOK_AT",
        "aliasList": [
          "1058"
        ],
        "actionId": 186,
        "_flag": 64,
        "enableHead": true,
        "headTurnTime": 0.5,
        "targetNpcAlias": "AvatarNpc",
        "targetNpcRotateVecPlus": {
          "x": 359.9679870605469,
          "y": 353.8699951171875
        },
        "openBackProtect": true,
        "backProtectAngle": 10.0,
        "targetNpcLookAtPoint": "",
        "APKIBBLJLON": ""
      },
      {
        "$type": "KMKDFCOPMLP",
        "type": "LOOK_AT",
        "delayTime": 0.8169999718666077,
        "aliasList": [
          "1058"
        ],
        "actionId": 187,
        "_flag": 64,
        "enableHead": true,
        "headTurnTime": 0.5,
        "targetNpcAlias": "AvatarNpc",
        "targetNpcRotateVecPlus": {
          "x": 16.711999893188477,
          "y": 357.5010070800781
        },
        "openBackProtect": true,
        "backProtectAngle": 10.0,
        "targetNpcLookAtPoint": "",
        "APKIBBLJLON": ""
      },
      {
        "$type": "KMKDFCOPMLP",
        "type": "LOOK_AT",
        "delayTime": 1.6670000553131104,
        "aliasList": [
          "1058"
        ],
        "actionId": 188,
        "_flag": 64,
        "enableHead": true,
        "headTurnTime": 0.5,
        "targetNpcAlias": "1050",
        "targetNpcRotateVecPlus": {
          "x": 359.9679870605469,
          "y": 353.8699951171875
        },
        "openBackProtect": true,
        "backProtectAngle": 10.0,
        "targetNpcLookAtPoint": "",
        "APKIBBLJLON": ""
      },
      {
        "$type": "KMKDFCOPMLP",
        "type": "LOOK_AT",
        "aliasList": [
          "AvatarNpc"
        ],
        "actionId": 189,
        "_flag": 64,
        "enableHead": true,
        "headTurnTime": 0.5,
        "targetNpcAlias": "1058",
        "targetNpcRotateVecPlus": {
          "x": 359.9729919433594,
          "y": 356.5329895019531
        },
        "openBackProtect": true,
        "backProtectAngle": 10.0,
        "targetNpcLookAtPoint": "",
        "APKIBBLJLON": ""
      },
      {
        "$type": "KMKDFCOPMLP",
        "type": "LOOK_AT",
        "aliasList": [
          "1005"
        ],
        "actionId": 191,
        "_flag": 64,
        "enableHead": true,
        "headTurnTime": 0.5,
        "targetNpcAlias": "1058",
        "targetNpcRotateVecPlus": {
          "x": 359.9729919433594,
          "y": 356.5329895019531
        },
        "openBackProtect": true,
        "backProtectAngle": 10.0,
        "targetNpcLookAtPoint": "",
        "APKIBBLJLON": ""
      },
      {
        "$type": "AHHBJGEHACH",
        "type": "BODY_LANG",
        "delayTime": 3.3499999046325684,
        "aliasList": [
          "1058"
        ],
        "actionId": 192,
        "bodyLangParam": 1171,
        "forceDoFreeStyle": true,
        "canDoRepeatFreeStyle": false,
        "cantBackToIdleWhenSitLoop": true,
        "eventPatternSuiteKey": ""
      },
      {
        "$type": "DNOIKEDAKBN",
        "type": "CAMERA_MOVE",
        "delayTime": 0.10000000149011612,
        "duration": 10.142000198364258,
        "actionId": 193,
        "camPosOffset": {
          "x": -461.6199951171875,
          "y": 238.41700744628906,
          "z": 2752.9609375
        },
        "camForwardTargetOffset": {
          "x": -461.5039978027344,
          "y": 238.24099731445312,
          "z": 2753.93896484375
        },
        "camFov": 25.0,
        "cameraBlendType": "EaseOutQuad",
        "needZAxisRotate": true,
        "openCameraDither": false,
        "targetNpcAlias": "",
        "closeTreeLeafDither": true,
        "FPHOLHODOFL": "",
        "JOAEMNHLBAH": "",
        "DMBMJMEHOBJ": "",
        "cutFrameTrans": {
          "_elevMinValue": -50.0,
          "_elevMaxValue": 50.0,
          "_poleMinValue": -50.0,
          "_poleMaxValue": 50.0
        }
      },
      {
        "$type": "MoleMole.Config.ConfigTeleportToAction",
        "type": "TELEPORT_TO",
        "aliasList": [
          "1050"
        ],
        "actionId": 216,
        "position": {
          "x": -461.4800109863281,
          "y": 236.69700622558594,
          "z": 2756.830078125
        },
        "forward": {
          "x": 0.5490000247955322,
          "z": -0.8360000252723694
        },
        "openLongDisTeleport": true,
        "syncForward": true,
        "_posBindMovingTargetKey": "",
        "_forwardBindMovingTargetKey": ""
      },
      {
        "$type": "KMKDFCOPMLP",
        "type": "LOOK_AT",
        "aliasList": [
          "1050"
        ],
        "actionId": 218,
        "_flag": 64,
        "enableHead": true,
        "bodyAngle": -30.0,
        "headTurnTime": 0.5,
        "targetNpcAlias": "1058",
        "targetNpcRotateVecPlus": {
          "x": 21.218000411987305,
          "y": 352.8599853515625
        },
        "openBackProtect": true,
        "backProtectAngle": 10.0,
        "targetNpcLookAtPoint": "",
        "APKIBBLJLON": ""
      },
      {
        "$type": "ADLFFDIAEGI",
        "type": "LOOK_AT_EYECTRL",
        "aliasList": [
          "1050"
        ],
        "actionId": 219,
        "_flag": 4672,
        "useTargetPos": false,
        "eyeRotateVecLeft": {
          "x": -3.0
        },
        "eyeRotateVecRight": {
          "x": -3.0
        },
        "turnTime": 0.20000000298023224,
        "targetNpcAlias": "",
        "targetPoint": "Face"
      },
      {
        "$type": "KNDPHIODCAO",
        "type": "EMO_SYNC",
        "aliasList": [
          "1058"
        ],
        "actionId": 220,
        "_flag": 256,
        "dataPath": "Cs_Emo_Avatar_Simple_Common_Set/Cs_Emo_Avatar_Talk/Cs_Emo_Avatar_PersonalLine/Cs_Emo_Avatar_Cyno02/Cs_Emo_130391004",
        "phonemePath": "",
        "emotionPath": "",
        "mateDataPath": "",
        "matePhonemePath": "",
        "mateEmotionPath": "",
        "dataPathHashList": [
          6128480337016937319,
          18152866555480969408,
          17829267662036514944,
          8415342865137172153
        ],
        "LGOOHJOPJOJ": "",
        "HCHELJAGBIB": ""
      }
    ],
    [
      {
        "$type": "NDPINFEKFAN",
        "type": "DIALOG",
        "aliasList": [
          "1058"
        ],
        "actionId": 114,
        "dialogID": 130391005,
        "protectTime": 2.0999999046325684
      },
      {
        "$type": "FAHGFJPOMGP",
        "type": "DIALOG_SELECT",
        "delayTime": 2.0,
        "aliasList": [
          "AvatarNpc"
        ],
        "actionId": 134,
        "dialogIDList": [
          130391006
        ],
        "grpIDList": [
          2928116059
        ],
        "useGrpId": true,
        "countDownGrpId": 2928116052
      },
      {
        "$type": "DNOIKEDAKBN",
        "type": "CAMERA_MOVE",
        "duration": 0.5,
        "actionId": 194,
        "camPosOffset": {
          "x": -461.2139892578125,
          "y": 238.05099487304688,
          "z": 2754.580078125
        },
        "camForwardTargetOffset": {
          "x": -460.9580078125,
          "y": 238.02999877929688,
          "z": 2755.547119140625
        },
        "camFov": 25.0,
        "lerpPattern": 6,
        "cameraBlendType": "EaseInOutCubic",
        "needZAxisRotate": true,
        "openCameraDither": false,
        "targetNpcAlias": "",
        "closeTreeLeafDither": true,
        "FPHOLHODOFL": "",
        "JOAEMNHLBAH": "",
        "DMBMJMEHOBJ": "",
        "cutFrameTrans": {
          "_elevMinValue": -50.0,
          "_elevMaxValue": 50.0,
          "_poleMinValue": -50.0,
          "_poleMaxValue": 50.0
        }
      },
      {
        "$type": "KMKDFCOPMLP",
        "type": "LOOK_AT",
        "aliasList": [
          "1058"
        ],
        "actionId": 195,
        "_flag": 64,
        "enableHead": true,
        "headTurnTime": 0.5,
        "targetNpcAlias": "AvatarNpc",
        "targetNpcRotateVecPlus": {
          "x": 359.9679870605469,
          "y": 353.8699951171875
        },
        "openBackProtect": true,
        "backProtectAngle": 10.0,
        "targetNpcLookAtPoint": "",
        "APKIBBLJLON": ""
      },
      {
        "$type": "AHHBJGEHACH",
        "type": "BODY_LANG",
        "aliasList": [
          "1058"
        ],
        "actionId": 196,
        "bodyLangParam": 1220,
        "forceDoFreeStyle": true,
        "canDoRepeatFreeStyle": false,
        "cantBackToIdleWhenSitLoop": true,
        "eventPatternSuiteKey": ""
      },
      {
        "$type": "AHHBJGEHACH",
        "type": "BODY_LANG",
        "delayTime": 2.632999897003174,
        "aliasList": [
          "AvatarNpc"
        ],
        "actionId": 197,
        "bodyLangParam": 4030,
        "forceDoFreeStyle": true,
        "canDoRepeatFreeStyle": false,
        "dontClearPreFreeStyle": true,
        "cantBackToIdleWhenSitLoop": true,
        "eventPatternSuiteKey": ""
      },
      {
        "$type": "DNOIKEDAKBN",
        "type": "CAMERA_MOVE",
        "delayTime": 0.10000000149011612,
        "duration": 6.3420000076293945,
        "actionId": 198,
        "camPosOffset": {
          "x": -461.2139892578125,
          "y": 238.06199645996094,
          "z": 2754.5810546875
        },
        "camForwardTargetOffset": {
          "x": -460.9580078125,
          "y": 238.04100036621094,
          "z": 2755.547119140625
        },
        "camFov": 25.0,
        "cameraBlendType": "EaseOutQuad",
        "needZAxisRotate": true,
        "openCameraDither": false,
        "targetNpcAlias": "",
        "closeTreeLeafDither": true,
        "FPHOLHODOFL": "",
        "JOAEMNHLBAH": "",
        "DMBMJMEHOBJ": "",
        "cutFrameTrans": {
          "_elevMinValue": -50.0,
          "_elevMaxValue": 50.0,
          "_poleMinValue": -50.0,
          "_poleMaxValue": 50.0
        }
      },
      {
        "$type": "ADLFFDIAEGI",
        "type": "LOOK_AT_EYECTRL",
        "aliasList": [
          "1050"
        ],
        "actionId": 202,
        "_flag": 4672,
        "useTargetPos": false,
        "eyeRotateVecLeft": {
          "x": -2.0,
          "z": -1.0
        },
        "eyeRotateVecRight": {
          "x": -2.0,
          "z": -1.0
        },
        "turnTime": 0.20000000298023224,
        "targetNpcAlias": "",
        "targetPoint": "Face"
      },
      {
        "$type": "KNDPHIODCAO",
        "type": "EMO_SYNC",
        "aliasList": [
          "1058"
        ],
        "actionId": 221,
        "_flag": 256,
        "dataPath": "Cs_Emo_Avatar_Simple_Common_Set/Cs_Emo_Avatar_Talk/Cs_Emo_Avatar_PersonalLine/Cs_Emo_Avatar_Cyno02/Cs_Emo_130391005",
        "phonemePath": "",
        "emotionPath": "",
        "mateDataPath": "",
        "matePhonemePath": "",
        "mateEmotionPath": "",
        "dataPathHashList": [
          4935351579750919702,
          1685300480842294929,
          11837721148373942290,
          18307840744132140922
        ],
        "LGOOHJOPJOJ": "",
        "HCHELJAGBIB": ""
      }
    ],
    [
      {
        "$type": "NDPINFEKFAN",
        "type": "DIALOG",
        "aliasList": [
          "1058"
        ],
        "actionId": 117,
        "dialogID": 130391007,
        "protectTime": 0.5
      },
      {
        "$type": "DNOIKEDAKBN",
        "type": "CAMERA_MOVE",
        "duration": 0.5,
        "actionId": 200,
        "camPosOffset": {
          "x": -459.72900390625,
          "y": 238.0959930419922,
          "z": 2755.8759765625
        },
        "camForwardTargetOffset": {
          "x": -460.51300048828125,
          "y": 238.07200622558594,
          "z": 2756.49609375
        },
        "camFov": 25.0,
        "lerpPattern": 6,
        "cameraBlendType": "EaseInOutCubic",
        "needZAxisRotate": true,
        "openCameraDither": false,
        "targetNpcAlias": "",
        "closeTreeLeafDither": true,
        "FPHOLHODOFL": "",
        "JOAEMNHLBAH": "",
        "DMBMJMEHOBJ": "",
        "cutFrameTrans": {
          "_elevMinValue": -50.0,
          "_elevMaxValue": 50.0,
          "_poleMinValue": -50.0,
          "_poleMaxValue": 50.0
        }
      },
      {
        "$type": "ADLFFDIAEGI",
        "type": "LOOK_AT_EYECTRL",
        "aliasList": [
          "1050"
        ],
        "actionId": 201,
        "_flag": 4672,
        "useTargetPos": false,
        "eyeRotateVecLeft": {
          "x": -3.0
        },
        "eyeRotateVecRight": {
          "x": -3.0
        },
        "turnTime": 0.20000000298023224,
        "targetNpcAlias": "",
        "targetPoint": "Face"
      },
      {
        "$type": "DNOIKEDAKBN",
        "type": "CAMERA_MOVE",
        "delayTime": 0.10000000149011612,
        "duration": 4.583000183105469,
        "actionId": 204,
        "camPosOffset": {
          "x": -459.74200439453125,
          "y": 238.0959930419922,
          "z": 2755.85888671875
        },
        "camForwardTargetOffset": {
          "x": -460.5270080566406,
          "y": 238.07200622558594,
          "z": 2756.47900390625
        },
        "camFov": 25.0,
        "cameraBlendType": "EaseOutQuad",
        "needZAxisRotate": true,
        "openCameraDither": false,
        "targetNpcAlias": "",
        "closeTreeLeafDither": true,
        "FPHOLHODOFL": "",
        "JOAEMNHLBAH": "",
        "DMBMJMEHOBJ": "",
        "cutFrameTrans": {
          "_elevMinValue": -50.0,
          "_elevMaxValue": 50.0,
          "_poleMinValue": -50.0,
          "_poleMaxValue": 50.0
        }
      },
      {
        "$type": "KMKDFCOPMLP",
        "type": "LOOK_AT",
        "aliasList": [
          "1050"
        ],
        "actionId": 217,
        "_flag": 64,
        "enableHead": true,
        "bodyAngle": -30.0,
        "headTurnTime": 0.5,
        "targetNpcAlias": "1058",
        "targetNpcRotateVecPlus": {
          "x": 21.218000411987305,
          "y": 352.8599853515625
        },
        "openBackProtect": true,
        "backProtectAngle": 10.0,
        "targetNpcLookAtPoint": "",
        "APKIBBLJLON": ""
      },
      {
        "$type": "KNDPHIODCAO",
        "type": "EMO_SYNC",
        "aliasList": [
          "1058"
        ],
        "actionId": 222,
        "_flag": 320,
        "dataPath": "Cs_Emo_Avatar_Simple_Common_Set/Cs_Emo_Avatar_Talk/Cs_Emo_Avatar_PersonalLine/Cs_Emo_Avatar_Cyno02/Cs_Emo_130391007",
        "phonemePath": "",
        "emotionPath": "",
        "mateDataPath": "",
        "matePhonemePath": "",
        "mateEmotionPath": "",
        "dataPathHashList": [
          2085983445196144796,
          10555812246316277989,
          4932877381563785365,
          17828769413765209485
        ],
        "LGOOHJOPJOJ": "",
        "HCHELJAGBIB": ""
      },
      {
        "$type": "KMKDFCOPMLP",
        "type": "LOOK_AT",
        "aliasList": [
          "1058"
        ],
        "actionId": 229,
        "_flag": 64,
        "enableHead": true,
        "headTurnTime": 0.5,
        "targetNpcAlias": "AvatarNpc",
        "targetNpcRotateVecPlus": {
          "x": 0.028999999165534973,
          "y": 355.1789855957031
        },
        "openBackProtect": true,
        "backProtectAngle": 10.0,
        "targetNpcLookAtPoint": "",
        "APKIBBLJLON": ""
      },
      {
        "$type": "AHHBJGEHACH",
        "type": "BODY_LANG",
        "aliasList": [
          "1058"
        ],
        "actionId": 230,
        "isContinue": true,
        "forceDoFreeStyle": true,
        "canDoRepeatFreeStyle": false,
        "cantBackToIdleWhenSitLoop": true,
        "eventPatternSuiteKey": ""
      }
    ],
    [
      {
        "$type": "NDPINFEKFAN",
        "type": "DIALOG",
        "aliasList": [
          "1050"
        ],
        "actionId": 119,
        "dialogID": 130391008,
        "protectTime": 3.0
      },
      {
        "$type": "DNOIKEDAKBN",
        "type": "CAMERA_MOVE",
        "duration": 7.267000198364258,
        "actionId": 206,
        "camPosOffset": {
          "x": -459.76300048828125,
          "y": 238.0959930419922,
          "z": 2755.8330078125
        },
        "camForwardTargetOffset": {
          "x": -460.5469970703125,
          "y": 238.07200622558594,
          "z": 2756.4541015625
        },
        "camFov": 25.0,
        "cameraBlendType": "EaseOutQuad",
        "needZAxisRotate": true,
        "openCameraDither": false,
        "targetNpcAlias": "",
        "closeTreeLeafDither": true,
        "FPHOLHODOFL": "",
        "JOAEMNHLBAH": "",
        "DMBMJMEHOBJ": "",
        "cutFrameTrans": {
          "_elevMinValue": -50.0,
          "_elevMaxValue": 50.0,
          "_poleMinValue": -50.0,
          "_poleMaxValue": 50.0
        }
      },
      {
        "$type": "KMKDFCOPMLP",
        "type": "LOOK_AT",
        "aliasList": [
          "1050"
        ],
        "actionId": 207,
        "_flag": 64,
        "enableHead": true,
        "headTurnTime": 0.5,
        "targetNpcAlias": "AvatarNpc",
        "targetNpcRotateVecPlus": {
          "x": 346.9729919433594,
          "y": 355.4639892578125
        },
        "openBackProtect": true,
        "backProtectAngle": 10.0,
        "targetNpcLookAtPoint": "",
        "APKIBBLJLON": ""
      },
      {
        "$type": "AHHBJGEHACH",
        "type": "BODY_LANG",
        "delayTime": 2.433000087738037,
        "aliasList": [
          "1050"
        ],
        "actionId": 208,
        "bodyLangParam": 4030,
        "forceDoFreeStyle": true,
        "canDoRepeatFreeStyle": false,
        "dontClearPreFreeStyle": true,
        "cantBackToIdleWhenSitLoop": true,
        "eventPatternSuiteKey": ""
      },
      {
        "$type": "AHHBJGEHACH",
        "type": "BODY_LANG",
        "delayTime": 1.1670000553131104,
        "aliasList": [
          "1050"
        ],
        "actionId": 209,
        "bodyLangParam": 1230,
        "forceDoFreeStyle": true,
        "canDoRepeatFreeStyle": false,
        "cantBackToIdleWhenSitLoop": true,
        "eventPatternSuiteKey": ""
      },
      {
        "$type": "KNDPHIODCAO",
        "type": "EMO_SYNC",
        "aliasList": [
          "1050"
        ],
        "actionId": 223,
        "_flag": 320,
        "dataPath": "Cs_Emo_Avatar_Simple_Common_Set/Cs_Emo_Avatar_Talk/Cs_Emo_Avatar_PersonalLine/Cs_Emo_Avatar_Cyno02/Cs_Emo_130391008",
        "phonemePath": "",
        "emotionPath": "",
        "mateDataPath": "",
        "matePhonemePath": "",
        "mateEmotionPath": "",
        "dataPathHashList": [
          8235092416896022384,
          186506562239481196,
          7114716096595216507,
          16619068208839248909
        ],
        "LGOOHJOPJOJ": "",
        "HCHELJAGBIB": ""
      },
      {
        "$type": "ADLFFDIAEGI",
        "type": "LOOK_AT_EYECTRL",
        "aliasList": [
          "1050"
        ],
        "actionId": 228,
        "_flag": 4672,
        "useTargetPos": false,
        "turnTime": 0.20000000298023224,
        "targetNpcAlias": "",
        "targetPoint": "Face"
      }
    ],
    [
      {
        "$type": "NDPINFEKFAN",
        "type": "DIALOG",
        "aliasList": [
          "1005"
        ],
        "actionId": 121,
        "dialogID": 130391009,
        "protectTime": 0.5
      },
      {
        "$type": "DNOIKEDAKBN",
        "type": "CAMERA_MOVE",
        "duration": 0.5,
        "actionId": 210,
        "camPosOffset": {
          "x": -460.9049987792969,
          "y": 238.052001953125,
          "z": 2755.759033203125
        },
        "camForwardTargetOffset": {
          "x": -461.8800048828125,
          "y": 237.98899841308594,
          "z": 2755.544921875
        },
        "camFov": 25.0,
        "lerpPattern": 6,
        "cameraBlendType": "EaseInOutCubic",
        "needZAxisRotate": true,
        "openCameraDither": false,
        "targetNpcAlias": "",
        "closeTreeLeafDither": true,
        "FPHOLHODOFL": "",
        "JOAEMNHLBAH": "",
        "DMBMJMEHOBJ": "",
        "cutFrameTrans": {
          "_elevMinValue": -50.0,
          "_elevMaxValue": 50.0,
          "_poleMinValue": -50.0,
          "_poleMaxValue": 50.0
        }
      },
      {
        "$type": "AHHBJGEHACH",
        "type": "BODY_LANG",
        "delayTime": 1.715000033378601,
        "aliasList": [
          "1005"
        ],
        "actionId": 211,
        "bodyLangParam": 1260,
        "forceDoFreeStyle": true,
        "canDoRepeatFreeStyle": false,
        "cantBackToIdleWhenSitLoop": true,
        "eventPatternSuiteKey": ""
      },
      {
        "$type": "AHHBJGEHACH",
        "type": "BODY_LANG",
        "aliasList": [
          "1005"
        ],
        "actionId": 212,
        "bodyLangParam": 1170,
        "forceDoFreeStyle": true,
        "canDoRepeatFreeStyle": false,
        "cantBackToIdleWhenSitLoop": true,
        "eventPatternSuiteKey": ""
      },
      {
        "$type": "DNOIKEDAKBN",
        "type": "CAMERA_MOVE",
        "delayTime": 0.10000000149011612,
        "duration": 8.925000190734863,
        "actionId": 213,
        "camPosOffset": {
          "x": -460.98199462890625,
          "y": 238.0469970703125,
          "z": 2755.741943359375
        },
        "camForwardTargetOffset": {
          "x": -461.9570007324219,
          "y": 237.98399353027344,
          "z": 2755.529052734375
        },
        "camFov": 25.0,
        "cameraBlendType": "EaseOutQuad",
        "needZAxisRotate": true,
        "openCameraDither": false,
        "targetNpcAlias": "",
        "closeTreeLeafDither": true,
        "FPHOLHODOFL": "",
        "JOAEMNHLBAH": "",
        "DMBMJMEHOBJ": "",
        "cutFrameTrans": {
          "_elevMinValue": -50.0,
          "_elevMaxValue": 50.0,
          "_poleMinValue": -50.0,
          "_poleMaxValue": 50.0
        }
      },
      {
        "$type": "KNDPHIODCAO",
        "type": "EMO_SYNC",
        "aliasList": [
          "1005"
        ],
        "actionId": 226,
        "_flag": 320,
        "dataPath": "Cs_Emo_Avatar_Simple_Common_Set/Cs_Emo_Avatar_Talk/Cs_Emo_Avatar_PersonalLine/Cs_Emo_Avatar_Cyno02/Cs_Emo_130391009",
        "phonemePath": "",
        "emotionPath": "",
        "mateDataPath": "",
        "matePhonemePath": "",
        "mateEmotionPath": "",
        "dataPathHashList": [
          5240667568559796286,
          14035497574424476351,
          9358363463157241882,
          4874682318498359545
        ],
        "LGOOHJOPJOJ": "",
        "HCHELJAGBIB": ""
      }
    ],
    [
      {
        "$type": "MoleMole.Config.ConfigTimeProtectAction",
        "type": "TIME_PROTECT",
        "duration": 0.10000000149011612,
        "actionId": 105
      },
      {
        "$type": "MoleMole.Config.ConfigSimpleBlackScreenAction",
        "type": "SIMPLE_BLACK_SCREEN",
        "actionId": 122,
        "durationToBlack": 0.5,
        "durationKeepBlack": 1.5,
        "durationFromBlack": 0.5,
        "textMapID": ""
      },
      {
        "$type": "MoleMole.Config.ConfigTimeProtectAction",
        "type": "TIME_PROTECT",
        "duration": 0.699999988079071,
        "actionId": 123
      },
      {
        "$type": "AHHBJGEHACH",
        "type": "BODY_LANG",
        "delayTime": 0.6000000238418579,
        "aliasList": [
          "1058"
        ],
        "actionId": 125,
        "isContinue": true,
        "forceDoFreeStyle": true,
        "canDoRepeatFreeStyle": false,
        "cantBackToIdleWhenSitLoop": true,
        "eventPatternSuiteKey": ""
      },
      {
        "$type": "AHHBJGEHACH",
        "type": "BODY_LANG",
        "delayTime": 0.6000000238418579,
        "aliasList": [
          "1050"
        ],
        "actionId": 127,
        "isContinue": true,
        "forceDoFreeStyle": true,
        "canDoRepeatFreeStyle": false,
        "cantBackToIdleWhenSitLoop": true,
        "eventPatternSuiteKey": ""
      },
      {
        "$type": "AHHBJGEHACH",
        "type": "BODY_LANG",
        "delayTime": 0.6000000238418579,
        "aliasList": [
          "1005"
        ],
        "actionId": 129,
        "isContinue": true,
        "forceDoFreeStyle": true,
        "canDoRepeatFreeStyle": false,
        "cantBackToIdleWhenSitLoop": true,
        "eventPatternSuiteKey": ""
      },
      {
        "$type": "DNOIKEDAKBN",
        "type": "CAMERA_MOVE",
        "delayTime": 0.5,
        "duration": 0.10000000149011612,
        "actionId": 132,
        "cameraPosType": "EXIT",
        "camForwardTargetOffset": {
          "z": 1.0
        },
        "camFov": 30.0,
        "lerpPattern": 5,
        "cameraBlendType": "EaseInOutCubic",
        "openCameraDither": false,
        "targetNpcAlias": "",
        "closeTreeLeafDither": true,
        "FPHOLHODOFL": "",
        "JOAEMNHLBAH": "",
        "DMBMJMEHOBJ": ""
      },
      {
        "$type": "MoleMole.Config.ConfigVisibleInterAction",
        "type": "VISIBLE",
        "delayTime": 0.6000000238418579,
        "aliasList": [
          "AvatarNpc"
        ],
        "actionId": 137,
        "_extraParam": ""
      },
      {
        "$type": "MoleMole.Config.ConfigVisibleInterAction",
        "type": "VISIBLE",
        "delayTime": 0.6000000238418579,
        "aliasList": [
          "Avatar"
        ],
        "actionId": 138,
        "isVisible": true,
        "_extraParam": ""
      },
      {
        "$type": "AHHBJGEHACH",
        "type": "BODY_LANG",
        "delayTime": 0.6000000238418579,
        "aliasList": [
          "AvatarNpc"
        ],
        "actionId": 140,
        "isContinue": true,
        "forceDoFreeStyle": true,
        "canDoRepeatFreeStyle": false,
        "cantBackToIdleWhenSitLoop": true,
        "eventPatternSuiteKey": ""
      }
    ]
  ],
  "groupId": [
    {
      "grpId": 2928116053,
      "nextGrpId": 2928116054,
      "_noCircleNextGrpId": 2928116054
    },
    {
      "index": 1,
      "grpId": 2928116054,
      "nextGrpId": 2928116055,
      "_noCircleNextGrpId": 2928116055
    },
    {
      "index": 2,
      "grpId": 2928116055,
      "nextGrpId": 2928116056,
      "_noCircleNextGrpId": 2928116056
    },
    {
      "index": 3,
      "grpId": 2928116056,
      "nextGrpId": 2928116057,
      "_noCircleNextGrpId": 2928116057
    },
    {
      "index": 4,
      "grpId": 2928116057,
      "nextGrpId": 2928116058,
      "_noCircleNextGrpId": 2928116058
    },
    {
      "index": 5,
      "grpId": 2928116058,
      "nextGrpId": 2928116059,
      "_noCircleNextGrpId": 2928116059
    },
    {
      "index": 6,
      "grpId": 2928116059,
      "nextGrpId": 2928116060,
      "_noCircleNextGrpId": 2928116060
    },
    {
      "index": 7,
      "grpId": 2928116060,
      "nextGrpId": 2928116061,
      "_noCircleNextGrpId": 2928116061
    },
    {
      "index": 8,
      "grpId": 2928116061,
      "nextGrpId": 577284475,
      "_noCircleNextGrpId": 577284475
    },
    {
      "index": 9,
      "grpId": 577284475,
      "nextGrpId": 577284476,
      "_noCircleNextGrpId": 577284476
    }
  ],
  "freeStyleDic": {
    "1025": [
      4030
    ],
    "1026": [
      4030
    ],
    "1058": [
      1171,
      1220
    ],
    "1050": [
      4030,
      1230
    ]
  },
  "GJNILPCMCFC": {
    "AvatarNpc": [
      "SitChat01AS",
      "SitHoldArm01AS",
      "SitShrug01AS",
      "SitThink01AS"
    ],
    "1058": [
      "SitChat01AS",
      "SitHoldArm01AS",
      "SitShrug01AS",
      "SitThink01AS"
    ],
    "1050": [
      "SitChat01AS",
      "SitHoldArm01AS",
      "SitShrug01AS",
      "SitThink01AS"
    ]
  },
  "DOGNDDGFIOE": 577284475
}