{
  "luaDataPath": "",
  "isSimpleTalk": true,
  "startBlackKeepTime": 1.0,
  "entityBan": "",
  "disableNpcLod": true,
  "startFade": {
    "startFadeInDuration": 0.5,
    "startFadeOutDuration": 0.5
  },
  "endFade": {
    "startFadeOutDuration": 0.0
  },
  "actors": [
    {
      "alias": "Avatar",
      "visible": true,
      "bornPointName": "72173_plyersong",
      "relativePosNpcAlias": "",
      "_bindMovingTargetKey": ""
    },
    {
      "configID": 20320,
      "alias": "20320",
      "visible": true,
      "bornPointName": "72173_song",
      "relativePosNpcAlias": "",
      "_bindMovingTargetKey": ""
    },
    {
      "configID": 1005,
      "alias": "1005",
      "visible": true,
      "bornPointName": "",
      "useRelativePos": true,
      "relativePos": {
        "x": -0.5,
        "z": -0.5
      },
      "removeActorType": "REMOVE_WITH_DISAPPEAR",
      "relativePosNpcAlias": "",
      "_bindMovingTargetKey": ""
    }
  ],
  "group": [
    [
      {
        "$type": "MoleMole.Config.ConfigTimeProtectAction",
        "type": "TIME_PROTECT",
        "duration": 0.4000000059604645
      },
      {
        "$type": "FJKIHHKJLMJ",
        "type": "CAMERA_FOCUS",
        "delayTime": 0.30000001192092896,
        "duration": 0.10000000149011612,
        "targetNpcAlias": "",
        "KJOEFBPOIIH": "",
        "IICFKKEBIEC": "",
        "EGEHEJEBLBJ": ""
      }
    ],
    [
      {
        "$type": "PKKMAMONGEO",
        "type": "DIALOG",
        "aliasList": [
          "20320"
        ],
        "dialogID": 721732601,
        "protectTime": 0.5
      },
      {
        "$type": "HDGKHDNFMIM",
        "type": "DIALOG_SELECT",
        "delayTime": 0.4000000059604645,
        "aliasList": [
          "Avatar"
        ],
        "dialogIDList": [
          721732602,
          721732603
        ],
        "grpIDList": [
          1971068599,
          1971068599
        ],
        "useGrpId": true
      }
    ],
    [
      {
        "$type": "PKKMAMONGEO",
        "type": "DIALOG",
        "aliasList": [
          "1005"
        ],
        "dialogID": 721732604,
        "protectTime": 0.5
      }
    ],
    [
      {
        "$type": "PKKMAMONGEO",
        "type": "DIALOG",
        "aliasList": [
          "1005"
        ],
        "dialogID": 721732605,
        "protectTime": 0.5
      }
    ],
    [
      {
        "$type": "PKKMAMONGEO",
        "type": "DIALOG",
        "aliasList": [
          "20320"
        ],
        "dialogID": 721732606,
        "protectTime": 0.5
      }
    ],
    [
      {
        "$type": "PKKMAMONGEO",
        "type": "DIALOG",
        "aliasList": [
          "20320"
        ],
        "dialogID": 721732607,
        "protectTime": 0.5
      }
    ],
    [
      {
        "$type": "PKKMAMONGEO",
        "type": "DIALOG",
        "aliasList": [
          "20320"
        ],
        "dialogID": 721732608,
        "protectTime": 0.5
      }
    ],
    [
      {
        "$type": "PKKMAMONGEO",
        "type": "DIALOG",
        "aliasList": [
          "1005"
        ],
        "dialogID": 721732609,
        "protectTime": 0.5
      }
    ],
    [
      {
        "$type": "PKKMAMONGEO",
        "type": "DIALOG",
        "aliasList": [
          "1005"
        ],
        "dialogID": 721732610,
        "protectTime": 0.5
      }
    ],
    [
      {
        "$type": "PKKMAMONGEO",
        "type": "DIALOG",
        "aliasList": [
          "20320"
        ],
        "dialogID": 721732611,
        "protectTime": 0.5
      }
    ],
    [
      {
        "$type": "PKKMAMONGEO",
        "type": "DIALOG",
        "aliasList": [
          "20320"
        ],
        "dialogID": 721732612,
        "protectTime": 0.5
      }
    ],
    [
      {
        "$type": "PKKMAMONGEO",
        "type": "DIALOG",
        "aliasList": [
          "20320"
        ],
        "dialogID": 721732613,
        "protectTime": 0.5
      }
    ],
    [
      {
        "$type": "PKKMAMONGEO",
        "type": "DIALOG",
        "aliasList": [
          "20320"
        ],
        "dialogID": 721732614,
        "protectTime": 0.5
      }
    ],
    [
      {
        "$type": "PKKMAMONGEO",
        "type": "DIALOG",
        "aliasList": [
          "20320"
        ],
        "dialogID": 721732615,
        "protectTime": 0.5
      }
    ],
    [
      {
        "$type": "PKKMAMONGEO",
        "type": "DIALOG",
        "aliasList": [
          "20320"
        ],
        "dialogID": 721732616,
        "protectTime": 0.5
      }
    ],
    [
      {
        "$type": "MoleMole.Config.ConfigTimeProtectAction",
        "type": "TIME_PROTECT",
        "duration": 0.10000000149011612
      }
    ]
  ],
  "groupId": [
    {
      "grpId": 1971068597,
      "nextGrpId": 1971068598
    },
    {
      "index": 1,
      "grpId": 1971068598,
      "nextGrpId": 1971068599
    },
    {
      "index": 2,
      "grpId": 1971068599,
      "nextGrpId": 1971068600
    },
    {
      "index": 3,
      "grpId": 1971068600,
      "nextGrpId": 1971068601
    },
    {
      "index": 4,
      "grpId": 1971068601,
      "nextGrpId": 1971068602
    },
    {
      "index": 5,
      "grpId": 1971068602,
      "nextGrpId": 1971068603
    },
    {
      "index": 6,
      "grpId": 1971068603,
      "nextGrpId": 1971068604
    },
    {
      "index": 7,
      "grpId": 1971068604,
      "nextGrpId": 1971068605
    },
    {
      "index": 8,
      "grpId": 1971068605,
      "nextGrpId": 973584411
    },
    {
      "index": 9,
      "grpId": 973584411,
      "nextGrpId": 973584412
    },
    {
      "index": 10,
      "grpId": 973584412,
      "nextGrpId": 973584413
    },
    {
      "index": 11,
      "grpId": 973584413,
      "nextGrpId": 973584414
    },
    {
      "index": 12,
      "grpId": 973584414,
      "nextGrpId": 973584415
    },
    {
      "index": 13,
      "grpId": 973584415,
      "nextGrpId": 973584416
    },
    {
      "index": 14,
      "grpId": 973584416,
      "nextGrpId": 973584417
    },
    {
      "index": 15,
      "grpId": 973584417,
      "nextGrpId": 973584418
    }
  ],
  "freeStyleDic": {
    "20320": []
  }
}