{
  "luaDataPath": "",
  "dontUseDefaultFinish": true,
  "entityBan": "",
  "disableNpcLod": true,
  "isAutoBanNpc": true,
  "isBanWidgetPet": true,
  "protectNpcMobileLod": true,
  "entityBanSetting": [
    {
      "isBlack": true,
      "entityType": "Gadget",
      "entityIds": [
        70800028
      ]
    }
  ],
  "talkFlag": 7,
  "startFade": {
    "startFadeOutDuration": 0.0
  },
  "endFade": {
    "startFadeOutDuration": 0.0
  },
  "actors": [
    {
      "alias": "Avatar",
      "visible": true,
      "bornPointName": "",
      "relativePosType": "AVATAR_NEW",
      "relativePosNpcAlias": "",
      "_bindMovingTargetKey": ""
    },
    {
      "alias": "AvatarNpc",
      "visible": true,
      "bornPointName": "",
      "removeActorType": "NEW_REMOVE",
      "relativePosType": "AVATAR_NEW",
      "relativePosNpcAlias": "",
      "_bindMovingTargetKey": ""
    },
    {
      "configID": 1005,
      "alias": "1005",
      "visible": true,
      "bornPointName": "",
      "removeActorType": "NEW_REMOVE_WITH_DISAPPEAR",
      "relativePosType": "AVATAR_NEW",
      "relativePosNpcAlias": "",
      "_bindMovingTargetKey": ""
    },
    {
      "configID": 1075,
      "alias": "1075",
      "visible": true,
      "bornPointName": "",
      "removeActorType": "NEW_REMOVE",
      "relativePosType": "AVATAR_NEW",
      "relativePosNpcAlias": "",
      "_bindMovingTargetKey": ""
    },
    {
      "configID": 13316,
      "alias": "13316",
      "visible": true,
      "bornPointName": "",
      "relativePosType": "AVATAR_NEW",
      "relativePosNpcAlias": "",
      "_bindMovingTargetKey": ""
    },
    {
      "configID": 1071,
      "alias": "1071",
      "visible": true,
      "bornPointName": "",
      "relativePosType": "AVATAR_NEW",
      "relativePosNpcAlias": "",
      "_bindMovingTargetKey": ""
    },
    {
      "configID": 1072,
      "alias": "1072",
      "visible": true,
      "bornPointName": "",
      "removeActorType": "NEW_REMOVE",
      "relativePosType": "AVATAR_NEW",
      "relativePosNpcAlias": "",
      "_bindMovingTargetKey": ""
    },
    {
      "configID": 13372,
      "alias": "13372",
      "visible": true,
      "bornPointName": "",
      "removeActorType": "NEW_REMOVE",
      "relativePosType": "AVATAR_NEW",
      "relativePosNpcAlias": "",
      "_bindMovingTargetKey": ""
    },
    {
      "configID": 13597,
      "alias": "13597",
      "visible": true,
      "bornPointName": "",
      "removeActorType": "NEW_REMOVE",
      "relativePosType": "AVATAR_NEW",
      "relativePosNpcAlias": "",
      "_bindMovingTargetKey": ""
    }
  ],
  "group": [
    [
      {
        "$type": "MoleMole.Config.ConfigLocalGadgetOP",
        "type": "LOCAL_GADGET_OP",
        "actionId": 270,
        "gadgetId": 70330645,
        "subKey": 645,
        "oprCode": 1,
        "slotName": "",
        "sceneId": 1085,
        "position": {
          "z": 60.0
        },
        "euler": {
          "y": 180.0
        },
        "gvKey": "",
        "gvKeyList": [
          "GV_CrowdTeamPose_1",
          "GV_CrowdTeamPose_2",
          "GV_CrowdTeamPose_3",
          "GV_CrowdTeamPose_4",
          "GV_CrowdTeamPose_5",
          "GV_CrowdTeamPose_6",
          "GV_CrowdTeamPose_7",
          "GV_CrowdTeamPose_8"
        ],
        "gvValueList": [
          0.0,
          0.0,
          0.0,
          0.0,
          0.0,
          0.0,
          0.0,
          0.0
        ]
      },
      {
        "$type": "MoleMole.Config.ConfigTimeProtectAction",
        "type": "TIME_PROTECT",
        "duration": 0.10000000149011612,
        "actionId": 104
      },
      {
        "$type": "MoleMole.Config.ConfigSitOrStandAction",
        "type": "SIT_OR_STAND",
        "aliasList": [
          "Avatar"
        ],
        "actionId": 128,
        "banResetFreestyle": true
      },
      {
        "$type": "MoleMole.Config.ConfigVisibleInterAction",
        "type": "VISIBLE",
        "aliasList": [
          "Avatar"
        ],
        "actionId": 134,
        "_extraParam": ""
      }
    ],
    [
      {
        "$type": "MoleMole.Config.ConfigLocalGadgetOP",
        "type": "LOCAL_GADGET_OP",
        "actionId": 278,
        "gadgetId": 70330645,
        "subKey": 645,
        "oprCode": 3,
        "slotName": "",
        "sceneId": 1085,
        "position": {
          "z": 60.0
        },
        "euler": {
          "y": 180.0
        },
        "gvKey": "GV_CrowdHide_1_2",
        "gvValue": 1.0,
        "gvKeyList": [
          "GV_CrowdHide_1_3",
          "GV_CrowdHide_1_2",
          "GV_CrowdHide_5_2",
          "GV_CrowdHide_3_2",
          "GV_CrowdHide_1_1"
        ],
        "gvValueList": [
          1.0,
          1.0,
          1.0,
          1.0,
          1.0
        ]
      },
      {
        "$type": "MoleMole.Config.ConfigTeleportToAction",
        "type": "TELEPORT_TO",
        "aliasList": [
          "13597"
        ],
        "actionId": 319,
        "position": {
          "x": 24.190000534057617,
          "y": 15.378000259399414,
          "z": 33.21200180053711
        },
        "forward": {
          "x": -0.9470000267028809,
          "z": 0.3199999928474426
        },
        "openLongDisTeleport": true,
        "_posBindMovingTargetKey": "",
        "_forwardBindMovingTargetKey": ""
      },
      {
        "$type": "FABLGECDBCH",
        "type": "BODY_LANG",
        "aliasList": [
          "13372"
        ],
        "actionId": 317,
        "isContinue": true,
        "forceDoFreeStyle": true,
        "canDoRepeatFreeStyle": false,
        "cantBackToIdleWhenSitLoop": true,
        "eventPatternSuiteKey": "",
        "FOHHKFAIAAJ": ""
      },
      {
        "$type": "MoleMole.Config.ConfigTeleportToAction",
        "type": "TELEPORT_TO",
        "aliasList": [
          "13372"
        ],
        "actionId": 316,
        "position": {
          "x": 25.836000442504883,
          "y": 15.376999855041504,
          "z": 34.571998596191406
        },
        "forward": {
          "x": -0.984000027179718,
          "z": -0.1770000010728836
        },
        "openLongDisTeleport": true,
        "_posBindMovingTargetKey": "",
        "_forwardBindMovingTargetKey": ""
      },
      {
        "$type": "EMEHNEMOMMM",
        "type": "LOOK_AT_EYECTRL",
        "aliasList": [
          "1072"
        ],
        "actionId": 315,
        "_flag": 576,
        "useTargetPos": false,
        "eyeRotateVecLeft": {
          "x": -6.0
        },
        "eyeRotateVecRight": {
          "x": -6.0
        },
        "turnTime": 0.20000000298023224,
        "targetNpcAlias": "",
        "targetPoint": "Face"
      },
      {
        "$type": "LJLMDHDCAMK",
        "type": "LOOK_AT",
        "aliasList": [
          "1072"
        ],
        "actionId": 314,
        "_flag": 64,
        "enableHead": true,
        "useTargetPos": true,
        "enableAbsolute": true,
        "targetPosition": {
          "x": -24.08099937438965,
          "y": 16.722000122070312,
          "z": 32.222999572753906
        },
        "headTurnTime": 0.5,
        "targetNpcAlias": "",
        "lookAtTargetType": "NONE",
        "openBackProtect": true,
        "backProtectAngle": 60.0,
        "targetNpcLookAtPoint": "",
        "OAFJBHJHLJG": ""
      },
      {
        "$type": "MoleMole.Config.ConfigTeleportToAction",
        "type": "TELEPORT_TO",
        "aliasList": [
          "1072"
        ],
        "actionId": 313,
        "position": {
          "x": -24.753999710083008,
          "y": 15.376999855041504,
          "z": 31.378000259399414
        },
        "forward": {
          "x": 0.8539999723434448,
          "z": 0.5210000276565552
        },
        "openLongDisTeleport": true,
        "_posBindMovingTargetKey": "",
        "_forwardBindMovingTargetKey": ""
      },
      {
        "$type": "LJLMDHDCAMK",
        "type": "LOOK_AT",
        "aliasList": [
          "1071"
        ],
        "actionId": 324,
        "_flag": 64,
        "enableHead": true,
        "useTargetPos": true,
        "enableAbsolute": true,
        "targetPosition": {
          "x": -24.173999786376953,
          "y": 16.711999893188477,
          "z": 34.23099899291992
        },
        "headTurnTime": 0.5,
        "targetNpcAlias": "",
        "lookAtTargetType": "NONE",
        "openBackProtect": true,
        "backProtectAngle": 10.0,
        "targetNpcLookAtPoint": "",
        "OAFJBHJHLJG": ""
      },
      {
        "$type": "EMEHNEMOMMM",
        "type": "LOOK_AT_EYECTRL",
        "aliasList": [
          "1071"
        ],
        "actionId": 311,
        "_flag": 576,
        "useTargetPos": false,
        "turnTime": 0.20000000298023224,
        "targetNpcAlias": "",
        "targetPoint": "Face"
      },
      {
        "$type": "MoleMole.Config.ConfigTeleportToAction",
        "type": "TELEPORT_TO",
        "aliasList": [
          "1071"
        ],
        "actionId": 309,
        "position": {
          "x": -24.570999145507812,
          "y": 15.376999855041504,
          "z": 32.70899963378906
        },
        "forward": {
          "x": 0.9660000205039978,
          "z": 0.257999986410141
        },
        "openLongDisTeleport": true,
        "_posBindMovingTargetKey": "",
        "_forwardBindMovingTargetKey": ""
      },
      {
        "$type": "CPJKOIHIPBE",
        "type": "EMO_SYNC",
        "aliasList": [
          "13316"
        ],
        "actionId": 322,
        "_flag": 320,
        "dataPath": "",
        "phonemePath": "Cs_Emo_Avatar_Common/Cs_Emo_Avatar_Normal01",
        "emotionPath": "Cs_Emo_Avatar_Common/Cs_Emo_Avatar_Normal01_B",
        "mateDataPath": "",
        "matePhonemePath": "",
        "mateEmotionPath": "",
        "phonemePathHashList": [
          9445916536337636767,
          14128686126614747219,
          10779105391569104182,
          11659242061757756269
        ],
        "emotionPathHashList": [
          12958401574658666588,
          15474241282904027449,
          9323653209111416134,
          8508374650737503979
        ],
        "FMDPBECPELH": "",
        "ADKBLPOKGIK": ""
      },
      {
        "$type": "LJLMDHDCAMK",
        "type": "LOOK_AT",
        "aliasList": [
          "13316"
        ],
        "actionId": 307,
        "_flag": 64,
        "enableHead": true,
        "headTurnTime": 0.5,
        "targetNpcAlias": "AvatarNpc",
        "openBackProtect": true,
        "backProtectAngle": 60.0,
        "targetNpcLookAtPoint": "",
        "OAFJBHJHLJG": ""
      },
      {
        "$type": "MoleMole.Config.ConfigTeleportToAction",
        "type": "TELEPORT_TO",
        "aliasList": [
          "13316"
        ],
        "actionId": 306,
        "position": {
          "x": 24.240999221801758,
          "y": 15.376999855041504,
          "z": 33.65800094604492
        },
        "forward": {
          "x": -0.9990000128746033,
          "z": -0.050999999046325684
        },
        "openLongDisTeleport": true,
        "_posBindMovingTargetKey": "",
        "_forwardBindMovingTargetKey": ""
      },
      {
        "$type": "MoleMole.Config.ConfigTeleportToAction",
        "type": "TELEPORT_TO",
        "aliasList": [
          "1075"
        ],
        "actionId": 304,
        "position": {
          "x": -26.700000762939453,
          "y": -1.6970000267028809,
          "z": 54.7859992980957
        },
        "forward": {
          "x": 0.1770000010728836,
          "z": -0.984000027179718
        },
        "openLongDisTeleport": true,
        "_posBindMovingTargetKey": "",
        "_forwardBindMovingTargetKey": ""
      },
      {
        "$type": "LJLMDHDCAMK",
        "type": "LOOK_AT",
        "aliasList": [
          "13597"
        ],
        "actionId": 320,
        "_flag": 64,
        "enableHead": true,
        "headTurnTime": 0.5,
        "targetNpcAlias": "AvatarNpc",
        "openBackProtect": true,
        "backProtectAngle": 60.0,
        "targetNpcLookAtPoint": "",
        "OAFJBHJHLJG": ""
      },
      {
        "$type": "LJLMDHDCAMK",
        "type": "LOOK_AT",
        "aliasList": [
          "1005"
        ],
        "actionId": 302,
        "_flag": 64,
        "enableHead": true,
        "targetPosition": {
          "x": -23.288999557495117,
          "y": 16.808000564575195,
          "z": 34.15399932861328
        },
        "headTurnTime": 0.5,
        "targetNpcAlias": "13316",
        "openBackProtect": true,
        "backProtectAngle": 60.0,
        "targetNpcLookAtPoint": "",
        "OAFJBHJHLJG": ""
      },
      {
        "$type": "MoleMole.Config.ConfigVisibleInterAction",
        "type": "VISIBLE",
        "aliasList": [
          "13597"
        ],
        "actionId": 321,
        "_extraParam": ""
      },
      {
        "$type": "CPJKOIHIPBE",
        "type": "EMO_SYNC",
        "aliasList": [
          "1005"
        ],
        "actionId": 224,
        "_flag": 256,
        "dataPath": "Cs_Emo_Avatar_Simple_Common_Set/Cs_Emo_Avatar_Talk/Cs_Emo_Avatar_MainLine/Cs_Emo_Avatar_Fontaine/Cs_Emo_40065801",
        "phonemePath": "",
        "emotionPath": "",
        "mateDataPath": "",
        "matePhonemePath": "",
        "mateEmotionPath": "",
        "dataPathHashList": [
          1685030633020419288,
          16851484118481128455,
          12511473409449799489,
          5492314360882890354
        ],
        "FMDPBECPELH": "",
        "ADKBLPOKGIK": ""
      },
      {
        "$type": "FJKIHHKJLMJ",
        "type": "CAMERA_MOVE",
        "duration": 0.5,
        "actionId": 146,
        "camPosOffset": {
          "x": -21.341999053955078,
          "y": 16.990999221801758,
          "z": 32.94599914550781
        },
        "camForwardTargetOffset": {
          "x": -22.243999481201172,
          "y": 16.86400032043457,
          "z": 33.36000061035156
        },
        "camFov": 20.0,
        "lerpPattern": 6,
        "cameraBlendType": "EaseInOutCubic",
        "NJBNNOMLKCK": {},
        "needZAxisRotate": true,
        "rotateAngle": 359.7279968261719,
        "openCameraDither": false,
        "targetNpcAlias": "",
        "closeTreeLeafDither": true,
        "KJOEFBPOIIH": "",
        "IICFKKEBIEC": "",
        "EGEHEJEBLBJ": ""
      },
      {
        "$type": "MoleMole.Config.ConfigTeleportToAction",
        "type": "TELEPORT_TO",
        "aliasList": [
          "Avatar"
        ],
        "actionId": 286,
        "position": {
          "x": -25.009000778198242,
          "y": 15.376999855041504,
          "z": 33.64799880981445
        },
        "forward": {
          "x": 0.9829999804496765,
          "z": -0.18299999833106995
        },
        "openLongDisTeleport": true,
        "_posBindMovingTargetKey": "",
        "_forwardBindMovingTargetKey": ""
      },
      {
        "$type": "MoleMole.Config.ConfigPlayerNPCEnergyTypeAction",
        "type": "SET_PLAYER_NPC_ENERGY_TYPE",
        "aliasList": [
          "AvatarNpc"
        ],
        "actionId": 280,
        "setHeroEngergyType": true
      },
      {
        "$type": "FABLGECDBCH",
        "type": "BODY_LANG",
        "aliasList": [
          "AvatarNpc"
        ],
        "actionId": 281,
        "isContinue": true,
        "forceDoFreeStyle": true,
        "canDoRepeatFreeStyle": false,
        "eventPatternSuiteKey": "",
        "FOHHKFAIAAJ": ""
      },
      {
        "$type": "MoleMole.Config.ConfigTeleportToAction",
        "type": "TELEPORT_TO",
        "aliasList": [
          "AvatarNpc"
        ],
        "actionId": 282,
        "position": {
          "x": -25.009000778198242,
          "y": 15.376999855041504,
          "z": 33.64799880981445
        },
        "forward": {
          "x": 0.9829999804496765,
          "z": -0.18299999833106995
        },
        "openLongDisTeleport": true,
        "_posBindMovingTargetKey": "",
        "_forwardBindMovingTargetKey": ""
      },
      {
        "$type": "MoleMole.Config.ConfigTeleportToAction",
        "type": "TELEPORT_TO",
        "aliasList": [
          "1005"
        ],
        "actionId": 301,
        "position": {
          "x": -24.218000411987305,
          "y": 15.376999855041504,
          "z": 34.236000061035156
        },
        "forward": {
          "x": 0.9649999737739563,
          "z": 0.26100000739097595
        },
        "openLongDisTeleport": true,
        "_posBindMovingTargetKey": "",
        "_forwardBindMovingTargetKey": ""
      },
      {
        "$type": "EMEHNEMOMMM",
        "type": "LOOK_AT_EYECTRL",
        "aliasList": [
          "AvatarNpc"
        ],
        "actionId": 284,
        "_flag": 576,
        "useTargetPos": false,
        "eyeRotateVecLeft": {
          "x": -2.0
        },
        "eyeRotateVecRight": {
          "x": -2.0
        },
        "turnTime": 0.20000000298023224,
        "targetNpcAlias": "",
        "targetPoint": "Face"
      },
      {
        "$type": "LJLMDHDCAMK",
        "type": "LOOK_AT",
        "aliasList": [
          "AvatarNpc"
        ],
        "actionId": 283,
        "_flag": 64,
        "enableHead": true,
        "useTargetPos": true,
        "enableAbsolute": true,
        "targetPosition": {
          "x": -24.340999603271484,
          "y": 16.674999237060547,
          "z": 33.87200164794922
        },
        "headTurnTime": 0.5,
        "targetNpcAlias": "1005",
        "lookAtTargetType": "NONE",
        "openBackProtect": true,
        "backProtectAngle": 60.0,
        "targetNpcLookAtPoint": "",
        "OAFJBHJHLJG": ""
      },
      {
        "$type": "FABLGECDBCH",
        "type": "BODY_LANG",
        "aliasList": [
          "1005"
        ],
        "actionId": 179,
        "bodyLangParam": 1270,
        "forceDoFreeStyle": true,
        "canDoRepeatFreeStyle": false,
        "cantBackToIdleWhenSitLoop": true,
        "eventPatternSuiteKey": "",
        "FOHHKFAIAAJ": ""
      },
      {
        "$type": "PKKMAMONGEO",
        "type": "DIALOG",
        "aliasList": [
          "1005"
        ],
        "actionId": 107,
        "dialogID": 40065801,
        "protectTime": 0.5
      },
      {
        "$type": "FABLGECDBCH",
        "type": "BODY_LANG",
        "delayTime": 0.10000000149011612,
        "aliasList": [
          "1071"
        ],
        "actionId": 308,
        "isContinue": true,
        "forceDoFreeStyle": true,
        "canDoRepeatFreeStyle": false,
        "eventPatternSuiteKey": "",
        "FOHHKFAIAAJ": ""
      },
      {
        "$type": "FABLGECDBCH",
        "type": "BODY_LANG",
        "delayTime": 0.10000000149011612,
        "aliasList": [
          "1072"
        ],
        "actionId": 312,
        "isContinue": true,
        "forceDoFreeStyle": true,
        "canDoRepeatFreeStyle": false,
        "eventPatternSuiteKey": "",
        "FOHHKFAIAAJ": ""
      },
      {
        "$type": "FABLGECDBCH",
        "type": "BODY_LANG",
        "delayTime": 0.10000000149011612,
        "aliasList": [
          "13316"
        ],
        "actionId": 305,
        "isContinue": true,
        "forceDoFreeStyle": true,
        "canDoRepeatFreeStyle": false,
        "eventPatternSuiteKey": "",
        "FOHHKFAIAAJ": ""
      },
      {
        "$type": "FJKIHHKJLMJ",
        "type": "CAMERA_MOVE",
        "delayTime": 0.10000000149011612,
        "duration": 7.894999980926514,
        "actionId": 177,
        "camPosOffset": {
          "x": -21.89299964904785,
          "y": 16.913000106811523,
          "z": 33.19900131225586
        },
        "camForwardTargetOffset": {
          "x": -22.79400062561035,
          "y": 16.785999298095703,
          "z": 33.612998962402344
        },
        "camFov": 20.0,
        "cameraBlendType": "EaseOutQuad",
        "NJBNNOMLKCK": {},
        "needZAxisRotate": true,
        "rotateAngle": 359.7279968261719,
        "openCameraDither": false,
        "targetNpcAlias": "",
        "closeTreeLeafDither": true,
        "KJOEFBPOIIH": "",
        "IICFKKEBIEC": "",
        "EGEHEJEBLBJ": ""
      },
      {
        "$type": "FABLGECDBCH",
        "type": "BODY_LANG",
        "delayTime": 0.10000000149011612,
        "aliasList": [
          "13597"
        ],
        "actionId": 318,
        "isContinue": true,
        "forceDoFreeStyle": true,
        "canDoRepeatFreeStyle": false,
        "eventPatternSuiteKey": "",
        "FOHHKFAIAAJ": ""
      },
      {
        "$type": "MoleMole.Config.ConfigSitOrStandAction",
        "type": "SIT_OR_STAND",
        "delayTime": 0.10000000149011612,
        "aliasList": [
          "1075"
        ],
        "actionId": 303,
        "isSit": true,
        "standDirection": "FRONT",
        "banResetFreestyle": true
      },
      {
        "$type": "FABLGECDBCH",
        "type": "BODY_LANG",
        "delayTime": 1.0049999952316284,
        "aliasList": [
          "1005"
        ],
        "actionId": 149,
        "bodyLangParam": 1300,
        "forceDoFreeStyle": true,
        "canDoRepeatFreeStyle": false,
        "cantBackToIdleWhenSitLoop": true,
        "eventPatternSuiteKey": "",
        "FOHHKFAIAAJ": ""
      },
      {
        "$type": "FABLGECDBCH",
        "type": "BODY_LANG",
        "delayTime": 4.39300012588501,
        "aliasList": [
          "1005"
        ],
        "actionId": 151,
        "isContinue": true,
        "forceDoFreeStyle": true,
        "canDoRepeatFreeStyle": false,
        "cantBackToIdleWhenSitLoop": true,
        "eventPatternSuiteKey": "",
        "FOHHKFAIAAJ": ""
      },
      {
        "$type": "FABLGECDBCH",
        "type": "BODY_LANG",
        "delayTime": 4.5980000495910645,
        "aliasList": [
          "1005"
        ],
        "actionId": 150,
        "bodyLangParam": 1110,
        "forceDoFreeStyle": true,
        "canDoRepeatFreeStyle": false,
        "cantBackToIdleWhenSitLoop": true,
        "eventPatternSuiteKey": "",
        "FOHHKFAIAAJ": ""
      },
      {
        "$type": "FABLGECDBCH",
        "type": "BODY_LANG",
        "delayTime": 6.919000148773193,
        "aliasList": [
          "1005"
        ],
        "actionId": 153,
        "isContinue": true,
        "forceDoFreeStyle": true,
        "canDoRepeatFreeStyle": false,
        "cantBackToIdleWhenSitLoop": true,
        "eventPatternSuiteKey": "",
        "FOHHKFAIAAJ": ""
      }
    ],
    [
      {
        "$type": "FJKIHHKJLMJ",
        "type": "CAMERA_MOVE",
        "duration": 0.5,
        "actionId": 155,
        "camPosOffset": {
          "x": -23.493999481201172,
          "y": 16.636999130249023,
          "z": 35.31800079345703
        },
        "camForwardTargetOffset": {
          "x": -23.989999771118164,
          "y": 16.642000198364258,
          "z": 34.44900131225586
        },
        "camFov": 20.0,
        "lerpPattern": 6,
        "cameraBlendType": "EaseInOutCubic",
        "NJBNNOMLKCK": {},
        "needZAxisRotate": true,
        "rotateAngle": 359.7300109863281,
        "openCameraDither": false,
        "targetNpcAlias": "",
        "closeTreeLeafDither": true,
        "KJOEFBPOIIH": "",
        "IICFKKEBIEC": "",
        "EGEHEJEBLBJ": ""
      },
      {
        "$type": "PKKMAMONGEO",
        "type": "DIALOG",
        "aliasList": [
          "1005"
        ],
        "actionId": 109,
        "dialogID": 40065802,
        "protectTime": 0.5
      },
      {
        "$type": "FABLGECDBCH",
        "type": "BODY_LANG",
        "aliasList": [
          "1005"
        ],
        "actionId": 152,
        "isContinue": true,
        "forceDoFreeStyle": true,
        "canDoRepeatFreeStyle": false,
        "cantBackToIdleWhenSitLoop": true,
        "eventPatternSuiteKey": "",
        "FOHHKFAIAAJ": ""
      },
      {
        "$type": "CPJKOIHIPBE",
        "type": "EMO_SYNC",
        "aliasList": [
          "1005"
        ],
        "actionId": 225,
        "_flag": 256,
        "dataPath": "Cs_Emo_Avatar_Simple_Common_Set/Cs_Emo_Avatar_Talk/Cs_Emo_Avatar_MainLine/Cs_Emo_Avatar_Fontaine/Cs_Emo_40065802",
        "phonemePath": "",
        "emotionPath": "",
        "mateDataPath": "",
        "matePhonemePath": "",
        "mateEmotionPath": "",
        "dataPathHashList": [
          3722227482446505471,
          14036774830282276143,
          8199180388429317435,
          10522307778441557679
        ],
        "FMDPBECPELH": "",
        "ADKBLPOKGIK": ""
      },
      {
        "$type": "EMEHNEMOMMM",
        "type": "LOOK_AT_EYECTRL",
        "aliasList": [
          "1071"
        ],
        "actionId": 325,
        "_flag": 576,
        "useTargetPos": false,
        "eyeRotateVecLeft": {
          "x": -2.0
        },
        "eyeRotateVecRight": {
          "x": -2.0
        },
        "turnTime": 0.20000000298023224,
        "targetNpcAlias": "",
        "targetPoint": "Face"
      },
      {
        "$type": "FJKIHHKJLMJ",
        "type": "CAMERA_MOVE",
        "delayTime": 0.10000000149011612,
        "duration": 8.593000411987305,
        "actionId": 172,
        "camPosOffset": {
          "x": -23.44300079345703,
          "y": 16.63800048828125,
          "z": 35.28799819946289
        },
        "camForwardTargetOffset": {
          "x": -23.93899917602539,
          "y": 16.64299964904785,
          "z": 34.41999816894531
        },
        "camFov": 20.0,
        "cameraBlendType": "EaseOutQuad",
        "NJBNNOMLKCK": {},
        "needZAxisRotate": true,
        "rotateAngle": 359.7300109863281,
        "openCameraDither": false,
        "targetNpcAlias": "",
        "closeTreeLeafDither": true,
        "KJOEFBPOIIH": "",
        "IICFKKEBIEC": "",
        "EGEHEJEBLBJ": ""
      },
      {
        "$type": "FABLGECDBCH",
        "type": "BODY_LANG",
        "delayTime": 0.3869999945163727,
        "aliasList": [
          "1005"
        ],
        "actionId": 169,
        "bodyLangParam": 1180,
        "forceDoFreeStyle": true,
        "canDoRepeatFreeStyle": false,
        "cantBackToIdleWhenSitLoop": true,
        "eventPatternSuiteKey": "",
        "FOHHKFAIAAJ": ""
      },
      {
        "$type": "FABLGECDBCH",
        "type": "BODY_LANG",
        "delayTime": 5.396999835968018,
        "aliasList": [
          "1005"
        ],
        "actionId": 170,
        "isContinue": true,
        "forceDoFreeStyle": true,
        "canDoRepeatFreeStyle": false,
        "cantBackToIdleWhenSitLoop": true,
        "eventPatternSuiteKey": "",
        "FOHHKFAIAAJ": ""
      }
    ],
    [
      {
        "$type": "FJKIHHKJLMJ",
        "type": "CAMERA_MOVE",
        "duration": 0.5,
        "actionId": 174,
        "camPosOffset": {
          "x": -23.347999572753906,
          "y": 17.033000946044922,
          "z": 34.3650016784668
        },
        "camForwardTargetOffset": {
          "x": -24.266000747680664,
          "y": 16.666000366210938,
          "z": 34.220001220703125
        },
        "camFov": 20.0,
        "lerpPattern": 6,
        "cameraBlendType": "EaseInOutCubic",
        "NJBNNOMLKCK": {},
        "needZAxisRotate": true,
        "rotateAngle": 359.7099914550781,
        "openCameraDither": false,
        "targetNpcAlias": "",
        "closeTreeLeafDither": true,
        "KJOEFBPOIIH": "",
        "IICFKKEBIEC": "",
        "EGEHEJEBLBJ": ""
      },
      {
        "$type": "CPJKOIHIPBE",
        "type": "EMO_SYNC",
        "aliasList": [
          "1005"
        ],
        "actionId": 230,
        "_flag": 256,
        "dataPath": "Cs_Emo_Avatar_Simple_Common_Set/Cs_Emo_Avatar_Talk/Cs_Emo_Avatar_MainLine/Cs_Emo_Avatar_Fontaine/Cs_Emo_40065803",
        "phonemePath": "",
        "emotionPath": "",
        "mateDataPath": "",
        "matePhonemePath": "",
        "mateEmotionPath": "",
        "dataPathHashList": [
          11327140785587205341,
          4506568537010632146,
          1958490207453938227,
          101405120141475897
        ],
        "FMDPBECPELH": "",
        "ADKBLPOKGIK": ""
      },
      {
        "$type": "LJLMDHDCAMK",
        "type": "LOOK_AT",
        "aliasList": [
          "1005"
        ],
        "actionId": 182,
        "_flag": 64,
        "enableHead": true,
        "useTargetPos": true,
        "enableAbsolute": true,
        "targetPosition": {
          "x": -24.034000396728516,
          "y": 16.733999252319336,
          "z": 34.35100173950195
        },
        "headTurnTime": 0.5,
        "targetNpcAlias": "",
        "lookAtTargetType": "NONE",
        "openBackProtect": true,
        "backProtectAngle": 60.0,
        "targetNpcLookAtPoint": "",
        "OAFJBHJHLJG": ""
      },
      {
        "$type": "FABLGECDBCH",
        "type": "BODY_LANG",
        "aliasList": [
          "1005"
        ],
        "actionId": 171,
        "isContinue": true,
        "forceDoFreeStyle": true,
        "canDoRepeatFreeStyle": false,
        "cantBackToIdleWhenSitLoop": true,
        "eventPatternSuiteKey": "",
        "FOHHKFAIAAJ": ""
      },
      {
        "$type": "PKKMAMONGEO",
        "type": "DIALOG",
        "aliasList": [
          "1005"
        ],
        "actionId": 111,
        "dialogID": 40065803,
        "protectTime": 0.5
      },
      {
        "$type": "LJLMDHDCAMK",
        "type": "LOOK_AT",
        "aliasList": [
          "1075"
        ],
        "actionId": 190,
        "_flag": 64,
        "enableHead": true,
        "useTargetPos": true,
        "enableAbsolute": true,
        "targetPosition": {
          "x": -26.650999069213867,
          "y": -0.035999998450279236,
          "z": 54.3380012512207
        },
        "headTurnTime": 0.5,
        "targetNpcAlias": "",
        "lookAtTargetType": "NONE",
        "openBackProtect": true,
        "backProtectAngle": 60.0,
        "targetNpcLookAtPoint": "",
        "OAFJBHJHLJG": ""
      },
      {
        "$type": "FABLGECDBCH",
        "type": "BODY_LANG",
        "delayTime": 0.09799999743700027,
        "aliasList": [
          "1005"
        ],
        "actionId": 176,
        "bodyLangParam": 1120,
        "forceDoFreeStyle": true,
        "canDoRepeatFreeStyle": false,
        "cantBackToIdleWhenSitLoop": true,
        "eventPatternSuiteKey": "",
        "FOHHKFAIAAJ": ""
      },
      {
        "$type": "FJKIHHKJLMJ",
        "type": "CAMERA_MOVE",
        "delayTime": 0.10000000149011612,
        "duration": 0.8109999895095825,
        "actionId": 175,
        "camPosOffset": {
          "x": -23.374000549316406,
          "y": 16.33300018310547,
          "z": 33.5260009765625
        },
        "camForwardTargetOffset": {
          "x": -24.114999771118164,
          "y": 16.632999420166016,
          "z": 34.125999450683594
        },
        "camFov": 20.0,
        "cameraBlendType": "EaseOutQuint",
        "NJBNNOMLKCK": {},
        "needZAxisRotate": true,
        "rotateAngle": 359.7170104980469,
        "openCameraDither": false,
        "targetNpcAlias": "",
        "closeTreeLeafDither": true,
        "KJOEFBPOIIH": "",
        "IICFKKEBIEC": "",
        "EGEHEJEBLBJ": ""
      },
      {
        "$type": "MoleMole.Config.ConfigSimpleUIShowInterAction",
        "type": "SIMPLE_UI_SHOW",
        "delayTime": 1.2200000286102295,
        "duration": 0.30000001192092896,
        "actionId": 238,
        "contextName": "LetterBoxDialog",
        "_param": ""
      },
      {
        "$type": "FJKIHHKJLMJ",
        "type": "CAMERA_MOVE",
        "delayTime": 1.2400000095367432,
        "duration": 0.5,
        "actionId": 178,
        "camPosOffset": {
          "x": -23.850000381469727,
          "y": 16.733999252319336,
          "z": 33.94499969482422
        },
        "camForwardTargetOffset": {
          "x": -24.850000381469727,
          "y": 16.740999221801758,
          "z": 33.92599868774414
        },
        "camFov": 15.0,
        "lerpPattern": 6,
        "cameraBlendType": "EaseInOutCubic",
        "NJBNNOMLKCK": {},
        "needZAxisRotate": true,
        "rotateAngle": 359.7300109863281,
        "openCameraDither": false,
        "targetNpcAlias": "",
        "closeTreeLeafDither": true,
        "KJOEFBPOIIH": "",
        "IICFKKEBIEC": "",
        "EGEHEJEBLBJ": ""
      },
      {
        "$type": "FJKIHHKJLMJ",
        "type": "CAMERA_MOVE",
        "delayTime": 1.3259999752044678,
        "duration": 0.9509999752044678,
        "actionId": 180,
        "camPosOffset": {
          "x": -23.91900062561035,
          "y": 16.729999542236328,
          "z": 34.01599884033203
        },
        "camForwardTargetOffset": {
          "x": -24.80699920654297,
          "y": 16.732999801635742,
          "z": 34.47600173950195
        },
        "camFov": 15.0,
        "cameraBlendType": "EaseOutQuint",
        "NJBNNOMLKCK": {},
        "needZAxisRotate": true,
        "rotateAngle": 13.96399974822998,
        "openCameraDither": false,
        "targetNpcAlias": "",
        "closeTreeLeafDither": true,
        "KJOEFBPOIIH": "",
        "IICFKKEBIEC": "",
        "EGEHEJEBLBJ": ""
      },
      {
        "$type": "EMEHNEMOMMM",
        "type": "LOOK_AT_EYECTRL",
        "delayTime": 1.3860000371932983,
        "aliasList": [
          "1005"
        ],
        "actionId": 242,
        "_flag": 576,
        "useTargetPos": false,
        "eyeRotateVecLeft": {
          "x": -6.0
        },
        "eyeRotateVecRight": {
          "x": -6.0
        },
        "turnTime": 0.20000000298023224,
        "targetNpcAlias": "",
        "targetPoint": "Face"
      },
      {
        "$type": "LJLMDHDCAMK",
        "type": "LOOK_AT",
        "delayTime": 1.6180000305175781,
        "aliasList": [
          "1005"
        ],
        "actionId": 183,
        "_flag": 64,
        "enableHead": true,
        "headTurnTime": 0.20000000298023224,
        "targetNpcAlias": "13316",
        "openBackProtect": true,
        "backProtectAngle": 60.0,
        "targetNpcLookAtPoint": "",
        "OAFJBHJHLJG": ""
      },
      {
        "$type": "EMEHNEMOMMM",
        "type": "LOOK_AT_EYECTRL",
        "delayTime": 1.940999984741211,
        "aliasList": [
          "1005"
        ],
        "actionId": 234,
        "_flag": 576,
        "useTargetPos": false,
        "eyeRotateVecLeft": {
          "x": 4.0
        },
        "eyeRotateVecRight": {
          "x": 4.0
        },
        "turnTime": 0.019999999552965164,
        "targetNpcAlias": "",
        "targetPoint": "Face"
      },
      {
        "$type": "FJKIHHKJLMJ",
        "type": "CAMERA_MOVE",
        "delayTime": 2.2760000228881836,
        "duration": 2.490000009536743,
        "actionId": 241,
        "camPosOffset": {
          "x": -23.908000946044922,
          "y": 16.736000061035156,
          "z": 34.0369987487793
        },
        "camForwardTargetOffset": {
          "x": -24.79599952697754,
          "y": 16.73900032043457,
          "z": 34.49700164794922
        },
        "camFov": 15.0,
        "cameraBlendType": "EaseOutQuad",
        "NJBNNOMLKCK": {},
        "needZAxisRotate": true,
        "rotateAngle": 13.96399974822998,
        "openCameraDither": false,
        "targetNpcAlias": "",
        "closeTreeLeafDither": true,
        "KJOEFBPOIIH": "",
        "IICFKKEBIEC": "",
        "EGEHEJEBLBJ": ""
      },
      {
        "$type": "EMEHNEMOMMM",
        "type": "LOOK_AT_EYECTRL",
        "delayTime": 2.6029999256134033,
        "aliasList": [
          "1005"
        ],
        "actionId": 264,
        "_flag": 576,
        "useTargetPos": false,
        "eyeRotateVecLeft": {
          "x": 5.0,
          "z": 0.30000001192092896
        },
        "eyeRotateVecRight": {
          "x": 5.0,
          "z": 0.30000001192092896
        },
        "turnTime": 0.019999999552965164,
        "targetNpcAlias": "",
        "targetPoint": "Face"
      },
      {
        "$type": "EMEHNEMOMMM",
        "type": "LOOK_AT_EYECTRL",
        "delayTime": 3.2130000591278076,
        "aliasList": [
          "1005"
        ],
        "actionId": 265,
        "_flag": 576,
        "useTargetPos": false,
        "eyeRotateVecLeft": {
          "x": 5.5,
          "z": 0.6000000238418579
        },
        "eyeRotateVecRight": {
          "x": 5.5,
          "z": 0.6000000238418579
        },
        "turnTime": 0.019999999552965164,
        "targetNpcAlias": "",
        "targetPoint": "Face"
      },
      {
        "$type": "FJKIHHKJLMJ",
        "type": "CAMERA_MOVE",
        "delayTime": 4.7179999351501465,
        "duration": 1.50600004196167,
        "actionId": 184,
        "camPosOffset": {
          "x": -23.132999420166016,
          "y": 16.66200065612793,
          "z": 34.2239990234375
        },
        "camForwardTargetOffset": {
          "x": -24.131999969482422,
          "y": 16.66900062561035,
          "z": 34.20500183105469
        },
        "camFov": 20.0,
        "cameraBlendType": "EaseInOutQuart",
        "NJBNNOMLKCK": {},
        "needZAxisRotate": true,
        "rotateAngle": 359.7300109863281,
        "openCameraDither": false,
        "targetNpcAlias": "",
        "closeTreeLeafDither": true,
        "KJOEFBPOIIH": "",
        "IICFKKEBIEC": "",
        "EGEHEJEBLBJ": ""
      },
      {
        "$type": "FABLGECDBCH",
        "type": "BODY_LANG",
        "delayTime": 4.78000020980835,
        "aliasList": [
          "1005"
        ],
        "actionId": 181,
        "bodyLangParam": 1430,
        "forceDoFreeStyle": true,
        "canDoRepeatFreeStyle": false,
        "cantBackToIdleWhenSitLoop": true,
        "eventPatternSuiteKey": "",
        "FOHHKFAIAAJ": ""
      },
      {
        "$type": "EMEHNEMOMMM",
        "type": "LOOK_AT_EYECTRL",
        "delayTime": 4.833000183105469,
        "aliasList": [
          "1005"
        ],
        "actionId": 235,
        "_flag": 576,
        "useTargetPos": false,
        "turnTime": 0.20000000298023224,
        "targetNpcAlias": "",
        "targetPoint": "Face"
      },
      {
        "$type": "MoleMole.Config.ConfigSimpleUIShowInterAction",
        "type": "SIMPLE_UI_SHOW",
        "delayTime": 5.059000015258789,
        "duration": 0.30000001192092896,
        "actionId": 239,
        "contextName": "LetterBoxDialog",
        "isClose": true,
        "_param": ""
      }
    ],
    [
      {
        "$type": "FJKIHHKJLMJ",
        "type": "CAMERA_MOVE",
        "duration": 0.5,
        "actionId": 188,
        "camPosOffset": {
          "x": -26.479999542236328,
          "y": -0.35100001096725464,
          "z": 53.55799865722656
        },
        "camForwardTargetOffset": {
          "x": -27.121000289916992,
          "y": -0.14900000393390656,
          "z": 54.29899978637695
        },
        "camFov": 20.0,
        "lerpPattern": 6,
        "cameraBlendType": "EaseInOutCubic",
        "NJBNNOMLKCK": {},
        "needZAxisRotate": true,
        "rotateAngle": 359.7250061035156,
        "openCameraDither": false,
        "targetNpcAlias": "",
        "closeTreeLeafDither": true,
        "KJOEFBPOIIH": "",
        "IICFKKEBIEC": "",
        "EGEHEJEBLBJ": ""
      },
      {
        "$type": "MoleMole.Config.ConfigSimpleUIShowInterAction",
        "type": "SIMPLE_UI_SHOW",
        "duration": 0.0,
        "actionId": 240,
        "contextName": "LetterBoxDialog",
        "isClose": true,
        "_param": ""
      },
      {
        "$type": "MoleMole.Config.ConfigAudioPlayAction",
        "type": "AUDIO_PLAY",
        "actionId": 299,
        "audioEventStr": "Play_sfx_quest_DQAQ_4006_crowds_loop"
      },
      {
        "$type": "FABLGECDBCH",
        "type": "BODY_LANG",
        "aliasList": [
          "1005"
        ],
        "actionId": 185,
        "isContinue": true,
        "forceDoFreeStyle": true,
        "canDoRepeatFreeStyle": false,
        "cantBackToIdleWhenSitLoop": true,
        "eventPatternSuiteKey": "",
        "FOHHKFAIAAJ": ""
      },
      {
        "$type": "CPJKOIHIPBE",
        "type": "EMO_SYNC",
        "aliasList": [
          "1005"
        ],
        "actionId": 285,
        "_flag": 320,
        "dataPath": "",
        "phonemePath": "Cs_Emo_Pet_Common/Cs_Emo_Paimon_None",
        "emotionPath": "Cs_Emo_Pet_Common/Cs_Emo_Paimon_Normal01_B",
        "mateDataPath": "",
        "matePhonemePath": "",
        "mateEmotionPath": "",
        "phonemePathHashList": [
          1796869206626684908,
          2049648015653630001,
          14015965774222061559,
          873259039409222856
        ],
        "emotionPathHashList": [
          14892026956990897578,
          7647528750435710781,
          2171559387429051042,
          15358483104891988261
        ],
        "FMDPBECPELH": "",
        "ADKBLPOKGIK": ""
      },
      {
        "$type": "MoleMole.Config.ConfigSitOrStandAction",
        "type": "SIT_OR_STAND",
        "aliasList": [
          "1075"
        ],
        "actionId": 189,
        "banResetFreestyle": true
      },
      {
        "$type": "LJLMDHDCAMK",
        "type": "LOOK_AT",
        "aliasList": [
          "13316"
        ],
        "actionId": 251,
        "_flag": 64,
        "enableHead": true,
        "useTargetPos": true,
        "enableAbsolute": true,
        "targetPosition": {
          "x": 23.832000732421875,
          "y": 16.65999984741211,
          "z": 33.67300033569336
        },
        "headTurnTime": 0.5,
        "targetNpcAlias": "",
        "lookAtTargetType": "NONE",
        "openBackProtect": true,
        "backProtectAngle": 60.0,
        "targetNpcLookAtPoint": "",
        "OAFJBHJHLJG": ""
      },
      {
        "$type": "FJKIHHKJLMJ",
        "type": "CAMERA_MOVE",
        "delayTime": 0.10000000149011612,
        "duration": 0.5649999976158142,
        "actionId": 193,
        "camPosOffset": {
          "x": -25.957000732421875,
          "y": -0.36899998784065247,
          "z": 54.01599884033203
        },
        "camForwardTargetOffset": {
          "x": -26.597999572753906,
          "y": -0.1679999977350235,
          "z": 54.75699996948242
        },
        "camFov": 20.0,
        "cameraBlendType": "EaseOutQuint",
        "NJBNNOMLKCK": {},
        "needZAxisRotate": true,
        "rotateAngle": 359.7250061035156,
        "openCameraDither": false,
        "targetNpcAlias": "",
        "closeTreeLeafDither": true,
        "KJOEFBPOIIH": "",
        "IICFKKEBIEC": "",
        "EGEHEJEBLBJ": ""
      },
      {
        "$type": "PKKMAMONGEO",
        "type": "DIALOG",
        "delayTime": 0.20499999821186066,
        "aliasList": [
          "1075"
        ],
        "actionId": 113,
        "dialogID": 40065804,
        "protectTime": 0.5
      },
      {
        "$type": "CPJKOIHIPBE",
        "type": "EMO_SYNC",
        "delayTime": 0.20499999821186066,
        "aliasList": [
          "1075"
        ],
        "actionId": 226,
        "_flag": 320,
        "dataPath": "Cs_Emo_Avatar_Simple_Common_Set/Cs_Emo_Avatar_Talk/Cs_Emo_Avatar_MainLine/Cs_Emo_Avatar_Fontaine/Cs_Emo_40065804",
        "phonemePath": "",
        "emotionPath": "",
        "mateDataPath": "",
        "matePhonemePath": "",
        "mateEmotionPath": "",
        "enableBlink": false,
        "dataPathHashList": [
          8806845726218086996,
          14764263118891042202,
          8000075266829569050,
          5784192530637503396
        ],
        "FMDPBECPELH": "",
        "ADKBLPOKGIK": ""
      },
      {
        "$type": "FABLGECDBCH",
        "type": "BODY_LANG",
        "delayTime": 0.22599999606609344,
        "aliasList": [
          "1075"
        ],
        "actionId": 191,
        "bodyLangParam": 1300,
        "forceDoFreeStyle": true,
        "canDoRepeatFreeStyle": false,
        "cantBackToIdleWhenSitLoop": true,
        "eventPatternSuiteKey": "",
        "FOHHKFAIAAJ": ""
      }
    ],
    [
      {
        "$type": "FJKIHHKJLMJ",
        "type": "CAMERA_MOVE",
        "actionId": 194,
        "haveNextAction": true,
        "camPosOffset": {
          "x": 23.719999313354492,
          "y": 16.759000778198242,
          "z": 33.6510009765625
        },
        "camForwardTargetOffset": {
          "x": 24.719999313354492,
          "y": 16.77899932861328,
          "z": 33.6619987487793
        },
        "camFov": 20.0,
        "lerpPattern": 6,
        "cameraBlendType": "EaseInOutCubic",
        "NJBNNOMLKCK": {},
        "needZAxisRotate": true,
        "rotateAngle": 359.7300109863281,
        "openCameraDither": false,
        "targetNpcAlias": "",
        "closeTreeLeafDither": true,
        "KJOEFBPOIIH": "",
        "IICFKKEBIEC": "",
        "EGEHEJEBLBJ": ""
      },
      {
        "$type": "FABLGECDBCH",
        "type": "BODY_LANG",
        "aliasList": [
          "13597"
        ],
        "actionId": 254,
        "isContinue": true,
        "forceDoFreeStyle": true,
        "canDoRepeatFreeStyle": false,
        "cantBackToIdleWhenSitLoop": true,
        "eventPatternSuiteKey": "",
        "FOHHKFAIAAJ": ""
      },
      {
        "$type": "MoleMole.Config.ConfigVisibleInterAction",
        "type": "VISIBLE",
        "aliasList": [
          "13597"
        ],
        "actionId": 253,
        "_extraParam": ""
      },
      {
        "$type": "EMEHNEMOMMM",
        "type": "LOOK_AT_EYECTRL",
        "aliasList": [
          "13316"
        ],
        "actionId": 236,
        "_flag": 576,
        "useTargetPos": false,
        "eyeRotateVecLeft": {
          "z": 1.0
        },
        "eyeRotateVecRight": {
          "z": 1.0
        },
        "eyeScaleX": 0.800000011920929,
        "eyeScaleZ": 0.800000011920929,
        "turnTime": 0.20000000298023224,
        "targetNpcAlias": "",
        "targetPoint": "Face"
      },
      {
        "$type": "CPJKOIHIPBE",
        "type": "EMO_SYNC",
        "aliasList": [
          "13316"
        ],
        "actionId": 227,
        "_flag": 320,
        "dataPath": "Cs_Emo_Avatar_Simple_Common_Set/Cs_Emo_Avatar_Talk/Cs_Emo_Avatar_MainLine/Cs_Emo_Avatar_Fontaine/Cs_Emo_40065805",
        "phonemePath": "",
        "emotionPath": "",
        "mateDataPath": "",
        "matePhonemePath": "",
        "mateEmotionPath": "",
        "dataPathHashList": [
          9428429853473503694,
          4330221109129151563,
          13225113203755632701,
          7940342036376811246
        ],
        "FMDPBECPELH": "",
        "ADKBLPOKGIK": ""
      },
      {
        "$type": "PKKMAMONGEO",
        "type": "DIALOG",
        "aliasList": [
          "13316"
        ],
        "actionId": 115,
        "dialogID": 40065805,
        "protectTime": 2.5999999046325684
      },
      {
        "$type": "LJLMDHDCAMK",
        "type": "LOOK_AT",
        "aliasList": [
          "13316"
        ],
        "actionId": 252,
        "_flag": 64,
        "enableHead": true,
        "useTargetPos": true,
        "enableAbsolute": true,
        "targetPosition": {
          "x": 23.832000732421875,
          "y": 16.733999252319336,
          "z": 33.67300033569336
        },
        "headTurnTime": 0.25,
        "targetNpcAlias": "",
        "lookAtTargetType": "NONE",
        "openBackProtect": true,
        "backProtectAngle": 60.0,
        "targetNpcLookAtPoint": "",
        "OAFJBHJHLJG": ""
      },
      {
        "$type": "MoleMole.Config.ConfigUITriggerInterAction",
        "type": "UI_TRIGGER",
        "actionId": 323,
        "contextName": "ForceHideHandbookBtn",
        "_param": "true"
      },
      {
        "$type": "FABLGECDBCH",
        "type": "BODY_LANG",
        "aliasList": [
          "1075"
        ],
        "actionId": 192,
        "forceDoFreeStyle": true,
        "canDoRepeatFreeStyle": false,
        "cantBackToIdleWhenSitLoop": true,
        "eventPatternSuiteKey": "",
        "FOHHKFAIAAJ": ""
      },
      {
        "$type": "CPJKOIHIPBE",
        "type": "EMO_SYNC",
        "delayTime": 0.20800000429153442,
        "aliasList": [
          "13597"
        ],
        "actionId": 263,
        "_flag": 320,
        "dataPath": "Cs_Emo_Avatar_Simple_Common_Set/Cs_Emo_Avatar_Talk/Cs_Emo_Avatar_Event/Cs_Emo_FleurFair02/Cs_Emo_40065805_01",
        "phonemePath": "",
        "emotionPath": "",
        "mateDataPath": "",
        "matePhonemePath": "",
        "mateEmotionPath": "",
        "dataPathHashList": [
          8358245243087161032,
          2915258229869857368,
          6849534254992593267,
          5264679123712570362
        ],
        "FMDPBECPELH": "",
        "ADKBLPOKGIK": ""
      },
      {
        "$type": "MoleMole.Config.ConfigAudioPlayAction",
        "type": "AUDIO_PLAY",
        "delayTime": 0.43299999833106995,
        "actionId": 297,
        "audioEventStr": "Play_sfx_quest_DQAQ_4004_memory_in"
      },
      {
        "$type": "FJKIHHKJLMJ",
        "type": "CAMERA_MOVE",
        "delayTime": 0.453000009059906,
        "duration": 1.1369999647140503,
        "actionId": 205,
        "camPosOffset": {
          "x": 22.790000915527344,
          "y": 16.851999282836914,
          "z": 33.70800018310547
        },
        "camForwardTargetOffset": {
          "x": 23.766000747680664,
          "y": 16.749000549316406,
          "z": 33.518001556396484
        },
        "camFov": 20.0,
        "cameraBlendType": "EaseInOutQuart",
        "NJBNNOMLKCK": {},
        "needZAxisRotate": true,
        "rotateAngle": 359.72900390625,
        "openCameraDither": false,
        "targetNpcAlias": "",
        "closeTreeLeafDither": true,
        "KJOEFBPOIIH": "",
        "IICFKKEBIEC": "",
        "EGEHEJEBLBJ": ""
      },
      {
        "$type": "MoleMole.Config.ConfigSpecialElementViewAction",
        "type": "SPECIAL_ELEMENT_VIEW",
        "delayTime": 0.46000000834465027,
        "actionId": 247,
        "_isOpen": true,
        "effectColor": {
          "r": 0.6039999723434448,
          "g": 0.9490000009536743,
          "b": 1.0,
          "a": 1.0
        },
        "noEffectAliasList": [
          "13371",
          "13316"
        ]
      },
      {
        "$type": "MoleMole.Config.ConfigAudioPlayAction",
        "type": "AUDIO_PLAY",
        "delayTime": 0.5,
        "actionId": 300,
        "audioEventStr": "Stop_sfx_quest_DQAQ_4006_crowds_loop"
      },
      {
        "$type": "FABLGECDBCH",
        "type": "BODY_LANG",
        "delayTime": 1.0779999494552612,
        "aliasList": [
          "13597"
        ],
        "actionId": 204,
        "bodyLangParam": 1040,
        "forceDoFreeStyle": true,
        "canDoRepeatFreeStyle": false,
        "cantBackToIdleWhenSitLoop": true,
        "eventPatternSuiteKey": "",
        "FOHHKFAIAAJ": ""
      },
      {
        "$type": "MoleMole.Config.ConfigVisibleInterAction",
        "type": "VISIBLE",
        "delayTime": 1.1089999675750732,
        "duration": 0.5,
        "aliasList": [
          "13597"
        ],
        "actionId": 245,
        "isVisible": true,
        "useDither": true,
        "_extraParam": ""
      },
      {
        "$type": "LJLMDHDCAMK",
        "type": "LOOK_AT",
        "delayTime": 1.1510000228881836,
        "aliasList": [
          "13597"
        ],
        "actionId": 206,
        "_flag": 64,
        "enableHead": true,
        "useTargetPos": true,
        "enableAbsolute": true,
        "targetPosition": {
          "x": 23.687999725341797,
          "y": 16.53499984741211,
          "z": 33.222999572753906
        },
        "headTurnTime": 0.5,
        "targetNpcAlias": "",
        "lookAtTargetType": "NONE",
        "openBackProtect": true,
        "backProtectAngle": 60.0,
        "targetNpcLookAtPoint": "",
        "OAFJBHJHLJG": ""
      },
      {
        "$type": "EMEHNEMOMMM",
        "type": "LOOK_AT_EYECTRL",
        "delayTime": 1.4049999713897705,
        "aliasList": [
          "13597"
        ],
        "actionId": 207,
        "_flag": 576,
        "useTargetPos": false,
        "eyeRotateVecLeft": {
          "x": -1.0,
          "z": 1.0
        },
        "eyeRotateVecRight": {
          "x": -1.0,
          "z": 1.0
        },
        "turnTime": 0.019999999552965164,
        "targetNpcAlias": "",
        "targetPoint": "Face"
      },
      {
        "$type": "EMEHNEMOMMM",
        "type": "LOOK_AT_EYECTRL",
        "delayTime": 2.115999937057495,
        "aliasList": [
          "13597"
        ],
        "actionId": 208,
        "_flag": 576,
        "useTargetPos": false,
        "eyeRotateVecLeft": {
          "x": -4.0,
          "z": 2.0
        },
        "eyeRotateVecRight": {
          "x": -4.0,
          "z": 2.0
        },
        "turnTime": 0.019999999552965164,
        "targetNpcAlias": "",
        "targetPoint": "Face"
      },
      {
        "$type": "LJLMDHDCAMK",
        "type": "LOOK_AT",
        "delayTime": 2.809000015258789,
        "aliasList": [
          "13597"
        ],
        "actionId": 260,
        "_flag": 64,
        "enableHead": true,
        "useTargetPos": true,
        "enableAbsolute": true,
        "targetPosition": {
          "x": 23.650999069213867,
          "y": 16.68400001525879,
          "z": 33.430999755859375
        },
        "headTurnTime": 0.5,
        "targetNpcAlias": "",
        "lookAtTargetType": "NONE",
        "openBackProtect": true,
        "backProtectAngle": 60.0,
        "targetNpcLookAtPoint": "",
        "OAFJBHJHLJG": ""
      },
      {
        "$type": "EMEHNEMOMMM",
        "type": "LOOK_AT_EYECTRL",
        "delayTime": 2.8310000896453857,
        "aliasList": [
          "13597"
        ],
        "actionId": 212,
        "_flag": 576,
        "useTargetPos": false,
        "eyeRotateVecLeft": {
          "x": 3.0
        },
        "eyeRotateVecRight": {
          "x": 3.0
        },
        "turnTime": 0.019999999552965164,
        "targetNpcAlias": "",
        "targetPoint": "Face"
      }
    ],
    [
      {
        "$type": "MoleMole.Config.ConfigSpecialElementViewAction",
        "type": "SPECIAL_ELEMENT_VIEW",
        "actionId": 248,
        "effectColor": {
          "r": 0.16899999976158142,
          "g": 0.1550000011920929,
          "b": 0.13600000739097595,
          "a": 1.0
        },
        "noEffectAliasList": [
          "13316",
          "13371"
        ]
      },
      {
        "$type": "MoleMole.Config.ConfigTeleportToAction",
        "type": "TELEPORT_TO",
        "aliasList": [
          "1071"
        ],
        "actionId": 291,
        "position": {
          "x": -24.570999145507812,
          "y": 15.381999969482422,
          "z": 32.1609992980957
        },
        "forward": {
          "x": 0.9660000205039978,
          "z": 0.257999986410141
        },
        "openLongDisTeleport": true,
        "syncForward": true,
        "_posBindMovingTargetKey": "",
        "_forwardBindMovingTargetKey": ""
      },
      {
        "$type": "LJLMDHDCAMK",
        "type": "LOOK_AT",
        "aliasList": [
          "1005"
        ],
        "actionId": 290,
        "_flag": 64,
        "enableHead": true,
        "headTurnTime": 0.5,
        "targetNpcAlias": "13316",
        "openBackProtect": true,
        "backProtectAngle": 10.0,
        "targetNpcLookAtPoint": "",
        "OAFJBHJHLJG": ""
      },
      {
        "$type": "MoleMole.Config.ConfigTeleportToAction",
        "type": "TELEPORT_TO",
        "aliasList": [
          "1005"
        ],
        "actionId": 289,
        "position": {
          "x": -24.413999557495117,
          "y": 15.381999969482422,
          "z": 34.75299835205078
        },
        "forward": {
          "x": 0.9649999737739563,
          "z": 0.26100000739097595
        },
        "openLongDisTeleport": true,
        "syncForward": true,
        "_posBindMovingTargetKey": "",
        "_forwardBindMovingTargetKey": ""
      },
      {
        "$type": "MoleMole.Config.ConfigVisibleInterAction",
        "type": "VISIBLE",
        "duration": 0.5,
        "aliasList": [
          "13597"
        ],
        "actionId": 217,
        "useDither": true,
        "_extraParam": ""
      },
      {
        "$type": "LJLMDHDCAMK",
        "type": "LOOK_AT",
        "aliasList": [
          "AvatarNpc"
        ],
        "actionId": 288,
        "_flag": 64,
        "useTargetPos": true,
        "enableAbsolute": true,
        "targetPosition": {
          "x": -23.972999572753906,
          "y": 16.649999618530273,
          "z": 32.915000915527344
        },
        "headTurnTime": 0.5,
        "targetNpcAlias": "",
        "lookAtTargetType": "NONE",
        "openBackProtect": true,
        "backProtectAngle": 10.0,
        "targetNpcLookAtPoint": "",
        "OAFJBHJHLJG": ""
      },
      {
        "$type": "MoleMole.Config.ConfigTeleportToAction",
        "type": "TELEPORT_TO",
        "aliasList": [
          "AvatarNpc"
        ],
        "actionId": 292,
        "position": {
          "x": -25.30299949645996,
          "y": 15.381999969482422,
          "z": 33.058998107910156
        },
        "forward": {
          "x": 0.9980000257492065,
          "z": 0.06199999898672104
        },
        "openLongDisTeleport": true,
        "syncForward": true,
        "_posBindMovingTargetKey": "",
        "_forwardBindMovingTargetKey": ""
      },
      {
        "$type": "MoleMole.Config.ConfigTeleportToAction",
        "type": "TELEPORT_TO",
        "aliasList": [
          "Avatar"
        ],
        "actionId": 296,
        "position": {
          "x": -25.30299949645996,
          "y": 15.381999969482422,
          "z": 33.058998107910156
        },
        "forward": {
          "x": 0.9980000257492065,
          "z": 0.06199999898672104
        },
        "openLongDisTeleport": true,
        "syncForward": true,
        "_posBindMovingTargetKey": "",
        "_forwardBindMovingTargetKey": ""
      },
      {
        "$type": "MoleMole.Config.ConfigAudioPlayAction",
        "type": "AUDIO_PLAY",
        "actionId": 298,
        "audioEventStr": "Play_sfx_quest_DQAQ_4004_memory_out"
      },
      {
        "$type": "EMEHNEMOMMM",
        "type": "LOOK_AT_EYECTRL",
        "aliasList": [
          "13597"
        ],
        "actionId": 266,
        "_flag": 576,
        "useTargetPos": false,
        "turnTime": 0.20000000298023224,
        "targetNpcAlias": "",
        "targetPoint": "Face"
      },
      {
        "$type": "FJKIHHKJLMJ",
        "type": "CAMERA_MOVE",
        "delayTime": 0.5139999985694885,
        "duration": 1.0230000019073486,
        "actionId": 258,
        "camPosOffset": {
          "x": 22.743999481201172,
          "y": 16.558000564575195,
          "z": 33.4739990234375
        },
        "camForwardTargetOffset": {
          "x": 23.733999252319336,
          "y": 16.64900016784668,
          "z": 33.577999114990234
        },
        "camFov": 20.0,
        "cameraBlendType": "EaseOutQuart",
        "NJBNNOMLKCK": {},
        "needZAxisRotate": true,
        "rotateAngle": 359.72900390625,
        "openCameraDither": false,
        "targetNpcAlias": "",
        "closeTreeLeafDither": true,
        "KJOEFBPOIIH": "",
        "IICFKKEBIEC": "",
        "EGEHEJEBLBJ": ""
      },
      {
        "$type": "PKKMAMONGEO",
        "type": "DIALOG",
        "delayTime": 0.7250000238418579,
        "aliasList": [
          "13316"
        ],
        "actionId": 117,
        "dialogID": 40065806,
        "protectTime": 8.5
      },
      {
        "$type": "CPJKOIHIPBE",
        "type": "EMO_SYNC",
        "delayTime": 0.7250000238418579,
        "aliasList": [
          "13316"
        ],
        "actionId": 228,
        "_flag": 320,
        "dataPath": "Cs_Emo_Avatar_Simple_Common_Set/Cs_Emo_Avatar_Talk/Cs_Emo_Avatar_MainLine/Cs_Emo_Avatar_Fontaine/Cs_Emo_40065806",
        "phonemePath": "",
        "emotionPath": "",
        "mateDataPath": "",
        "matePhonemePath": "",
        "mateEmotionPath": "",
        "dataPathHashList": [
          5837813844511551093,
          6112632479316040113,
          11041640872599576746,
          17212174491037059980
        ],
        "FMDPBECPELH": "",
        "ADKBLPOKGIK": ""
      },
      {
        "$type": "LJLMDHDCAMK",
        "type": "LOOK_AT",
        "delayTime": 0.7250000238418579,
        "aliasList": [
          "13316"
        ],
        "actionId": 255,
        "_flag": 64,
        "enableHead": true,
        "useTargetPos": true,
        "enableAbsolute": true,
        "targetPosition": {
          "x": 23.393999099731445,
          "y": 16.691999435424805,
          "z": 33.55799865722656
        },
        "headTurnTime": 0.5,
        "targetNpcAlias": "",
        "lookAtTargetType": "NONE",
        "openBackProtect": true,
        "backProtectAngle": 60.0,
        "targetNpcLookAtPoint": "",
        "OAFJBHJHLJG": ""
      },
      {
        "$type": "EMEHNEMOMMM",
        "type": "LOOK_AT_EYECTRL",
        "delayTime": 1.6030000448226929,
        "aliasList": [
          "13316"
        ],
        "actionId": 267,
        "_flag": 576,
        "useTargetPos": false,
        "turnTime": 0.20000000298023224,
        "targetNpcAlias": "",
        "targetPoint": "Face"
      },
      {
        "$type": "FABLGECDBCH",
        "type": "BODY_LANG",
        "delayTime": 2.885999917984009,
        "aliasList": [
          "13316"
        ],
        "actionId": 220,
        "bodyLangParam": 1060,
        "forceDoFreeStyle": true,
        "canDoRepeatFreeStyle": false,
        "cantBackToIdleWhenSitLoop": true,
        "eventPatternSuiteKey": "",
        "FOHHKFAIAAJ": ""
      },
      {
        "$type": "FJKIHHKJLMJ",
        "type": "CAMERA_MOVE",
        "delayTime": 5.460000038146973,
        "duration": 0.5,
        "actionId": 272,
        "_flag": 1,
        "camPosOffset": {
          "x": -23.607999801635742,
          "y": 16.753999710083008,
          "z": 33.35100173950195
        },
        "camForwardTargetOffset": {
          "x": -24.600000381469727,
          "y": 16.73200035095215,
          "z": 33.22999954223633
        },
        "camFov": 20.0,
        "lerpPattern": 6,
        "cameraBlendType": "EaseInOutCubic",
        "NJBNNOMLKCK": {},
        "needZAxisRotate": true,
        "rotateAngle": 359.7300109863281,
        "openCameraDither": false,
        "targetNpcAlias": "",
        "closeTreeLeafDither": true,
        "KJOEFBPOIIH": "",
        "IICFKKEBIEC": "",
        "EGEHEJEBLBJ": ""
      },
      {
        "$type": "FJKIHHKJLMJ",
        "type": "CAMERA_MOVE",
        "delayTime": 5.559000015258789,
        "duration": 0.5,
        "actionId": 295,
        "_flag": 2,
        "camPosOffset": {
          "x": -23.6560001373291,
          "y": 16.69099998474121,
          "z": 33.18199920654297
        },
        "camForwardTargetOffset": {
          "x": -24.649999618530273,
          "y": 16.67799949645996,
          "z": 33.077999114990234
        },
        "camFov": 20.0,
        "lerpPattern": 6,
        "cameraBlendType": "EaseInOutCubic",
        "NJBNNOMLKCK": {},
        "needZAxisRotate": true,
        "rotateAngle": 359.7300109863281,
        "openCameraDither": false,
        "targetNpcAlias": "",
        "closeTreeLeafDither": true,
        "KJOEFBPOIIH": "",
        "IICFKKEBIEC": "",
        "EGEHEJEBLBJ": ""
      },
      {
        "$type": "FABLGECDBCH",
        "type": "BODY_LANG",
        "delayTime": 6.446000099182129,
        "aliasList": [
          "AvatarNpc"
        ],
        "actionId": 274,
        "bodyLangParam": 1190,
        "forceDoFreeStyle": true,
        "canDoRepeatFreeStyle": false,
        "cantBackToIdleWhenSitLoop": true,
        "eventPatternSuiteKey": "",
        "FOHHKFAIAAJ": ""
      },
      {
        "$type": "CPJKOIHIPBE",
        "type": "EMO_SYNC",
        "delayTime": 6.683000087738037,
        "aliasList": [
          "AvatarNpc"
        ],
        "actionId": 277,
        "_flag": 320,
        "dataPath": "",
        "phonemePath": "Cs_Emo_Avatar_Common/Cs_Emo_Avatar_Angry01",
        "emotionPath": "Cs_Emo_Avatar_Common/Cs_Emo_Avatar_Normal01_B",
        "mateDataPath": "",
        "matePhonemePath": "",
        "mateEmotionPath": "",
        "phonemePathHashList": [
          14296606849723709100,
          5508348580450379567,
          7627497203169383327,
          8979581647593659876
        ],
        "emotionPathHashList": [
          12958401574658666588,
          15474241282904027449,
          9323653209111416134,
          8508374650737503979
        ],
        "FMDPBECPELH": "",
        "ADKBLPOKGIK": ""
      },
      {
        "$type": "HDGKHDNFMIM",
        "type": "DIALOG_SELECT",
        "delayTime": 7.067999839782715,
        "aliasList": [
          "AvatarNpc"
        ],
        "actionId": 127,
        "dialogIDList": [
          40065807
        ],
        "grpIDList": [
          2748799644
        ],
        "useGrpId": true,
        "countDownGrpId": 2748799636
      }
    ],
    [
      {
        "$type": "MoleMole.Config.ConfigTimeProtectAction",
        "type": "TIME_PROTECT",
        "duration": 0.10000000149011612,
        "actionId": 120
      },
      {
        "$type": "PKKMAMONGEO",
        "type": "DIALOG_CLEAR",
        "actionId": 132
      },
      {
        "$type": "MoleMole.Config.ConfigUITriggerInterAction",
        "type": "UI_TRIGGER",
        "actionId": 133,
        "contextName": "QuestInferenceDialog",
        "_param": "400601"
      }
    ],
    [
      {
        "$type": "MoleMole.Config.ConfigTimeProtectAction",
        "type": "TIME_PROTECT",
        "duration": 0.10000000149011612,
        "actionId": 105
      },
      {
        "$type": "FABLGECDBCH",
        "type": "BODY_LANG",
        "delayTime": 0.6000000238418579,
        "aliasList": [
          "1005"
        ],
        "actionId": 122,
        "isContinue": true,
        "forceDoFreeStyle": true,
        "canDoRepeatFreeStyle": false,
        "eventPatternSuiteKey": "",
        "FOHHKFAIAAJ": ""
      },
      {
        "$type": "FABLGECDBCH",
        "type": "BODY_LANG",
        "delayTime": 0.6000000238418579,
        "aliasList": [
          "1075"
        ],
        "actionId": 124,
        "isContinue": true,
        "forceDoFreeStyle": true,
        "canDoRepeatFreeStyle": false,
        "eventPatternSuiteKey": "",
        "FOHHKFAIAAJ": ""
      },
      {
        "$type": "FABLGECDBCH",
        "type": "BODY_LANG",
        "delayTime": 0.6000000238418579,
        "aliasList": [
          "13316"
        ],
        "actionId": 126,
        "isContinue": true,
        "forceDoFreeStyle": true,
        "canDoRepeatFreeStyle": false,
        "eventPatternSuiteKey": "",
        "FOHHKFAIAAJ": ""
      },
      {
        "$type": "FABLGECDBCH",
        "type": "BODY_LANG",
        "delayTime": 0.6000000238418579,
        "aliasList": [
          "1071"
        ],
        "actionId": 157,
        "isContinue": true,
        "forceDoFreeStyle": true,
        "canDoRepeatFreeStyle": false,
        "eventPatternSuiteKey": "",
        "FOHHKFAIAAJ": ""
      }
    ]
  ],
  "groupId": [
    {
      "grpId": 2748799637,
      "nextGrpId": 2748799638
    },
    {
      "index": 1,
      "grpId": 2748799638,
      "nextGrpId": 2748799639
    },
    {
      "index": 2,
      "grpId": 2748799639,
      "nextGrpId": 2748799640
    },
    {
      "index": 3,
      "grpId": 2748799640,
      "nextGrpId": 2748799641
    },
    {
      "index": 4,
      "grpId": 2748799641,
      "nextGrpId": 2748799642
    },
    {
      "index": 5,
      "grpId": 2748799642,
      "nextGrpId": 2748799643
    },
    {
      "index": 6,
      "grpId": 2748799643,
      "nextGrpId": 2748799644
    },
    {
      "index": 7,
      "grpId": 2748799644,
      "nextGrpId": 2748799645
    },
    {
      "index": 8,
      "grpId": 2748799645,
      "nextGrpId": 3608410171
    }
  ],
  "freeStyleDic": {
    "1025": [
      1190
    ],
    "1026": [
      1190
    ],
    "1075": [
      1300
    ],
    "13316": [
      1060
    ],
    "1071": [],
    "1072": [],
    "13372": [],
    "13597": [
      1040
    ]
  },
  "EKFBDAIDEEF": {
    "AvatarNpc": [
      "SitChat01AS",
      "SitHoldArm01AS",
      "SitShrug01AS",
      "SitThink01AS"
    ],
    "1075": [
      "SitChat01AS",
      "SitHoldArm01AS",
      "SitPutArm01AS",
      "SitShrug01AS",
      "SitThink01AS",
      "SitWrite01AS"
    ],
    "13316": [
      "SitChat01AS",
      "SitHoldArm01AS",
      "SitPutArm01AS",
      "SitShrug01AS",
      "SitSpecial01AS",
      "SitThink01AS"
    ],
    "13372": [
      "SitHoldArm01AS",
      "SitPutArm01AS",
      "SitRaiseHand01AS"
    ],
    "13597": [
      "SitChat01AS",
      "SitHoldArm01AS",
      "SitPutArm01AS",
      "SitShrug01AS",
      "SitSpecial01AS",
      "SitThink01AS"
    ]
  }
}