{
  "luaDataPath": "",
  "startBlackKeepTime": 1.0,
  "entityBan": "",
  "disableNpcLod": true,
  "startFade": {
    "startFadeInDuration": 0.5,
    "startFadeOutDuration": 0.5
  },
  "endFade": {
    "startFadeOutDuration": 0.0
  },
  "actors": [
    {
      "alias": "Avatar",
      "visible": true,
      "bornPointName": "Q7150001",
      "relativePosNpcAlias": "",
      "_bindMovingTargetKey": ""
    },
    {
      "configID": 10258,
      "alias": "10258",
      "visible": true,
      "bornPointName": "Q7150001",
      "relativePosNpcAlias": "",
      "_bindMovingTargetKey": ""
    }
  ],
  "group": [
    [
      {
        "$type": "MoleMole.Config.ConfigBlackScreenAction",
        "type": "BLACK_SCREEN",
        "duration": 0.5,
        "blackScreenType": "KEEP_BLACK",
        "durationKeepBlack": 0.5,
        "inteePos": "",
        "textMapID": "",
        "useTextFade": true
      },
      {
        "$type": "MoleMole.Config.ConfigTimeProtectAction",
        "type": "TIME_PROTECT",
        "duration": 0.6000000238418579
      },
      {
        "$type": "LJLMDHDCAMK",
        "type": "LOOK_AT",
        "aliasList": [
          "Avatar"
        ],
        "enableHead": true,
        "useTargetPos": true,
        "enableAbsolute": true,
        "headTurnTime": 0.5,
        "targetNpcAlias": "10258",
        "targetNpcLookAtPoint": "",
        "OAFJBHJHLJG": ""
      },
      {
        "$type": "MoleMole.Config.ConfigTeleportToAction",
        "type": "TELEPORT_TO",
        "aliasList": [
          "Avatar"
        ],
        "position": {
          "x": 945.9979858398438,
          "y": 376.406005859375,
          "z": 1576.300048828125
        },
        "forward": {
          "x": -0.18199999630451202,
          "y": -0.4050000011920929,
          "z": -2.7279999256134033
        },
        "_posBindMovingTargetKey": "",
        "_forwardBindMovingTargetKey": ""
      },
      {
        "$type": "LJLMDHDCAMK",
        "type": "LOOK_AT",
        "aliasList": [
          "10258"
        ],
        "enableHead": true,
        "useTargetPos": true,
        "enableAbsolute": true,
        "targetPosition": {
          "x": 941.7689819335938,
          "y": 377.53399658203125,
          "z": 1573.4730224609375
        },
        "headTurnTime": 0.5,
        "targetNpcAlias": "",
        "targetNpcLookAtPoint": "",
        "OAFJBHJHLJG": ""
      },
      {
        "$type": "MoleMole.Config.ConfigTeleportToAction",
        "type": "TELEPORT_TO",
        "aliasList": [
          "10258"
        ],
        "position": {
          "x": 946.1300048828125,
          "y": 376.385009765625,
          "z": 1573.572021484375
        },
        "forward": {
          "x": -2.2920000553131104,
          "y": 0.6499999761581421,
          "z": 1.0
        },
        "_posBindMovingTargetKey": "",
        "_forwardBindMovingTargetKey": ""
      }
    ],
    [
      {
        "$type": "MoleMole.Config.ConfigBlackScreenAction",
        "type": "BLACK_SCREEN",
        "duration": 0.5,
        "blackScreenType": "FROM_BLACK",
        "durationFromBlack": 0.5,
        "inteePos": "",
        "textMapID": "",
        "useTextFade": true
      },
      {
        "$type": "FJKIHHKJLMJ",
        "type": "CAMERA_MOVE",
        "delayTime": 0.125,
        "duration": 7.294000148773193,
        "camPosOffset": {
          "x": 945.31298828125,
          "y": 378.1700134277344,
          "z": 1574.5899658203125
        },
        "camForwardTargetOffset": {
          "x": 945.4539794921875,
          "y": 378.1990051269531,
          "z": 1573.5999755859375
        },
        "camFov": 30.0,
        "cameraBlendType": "EaseOutQuart",
        "NJBNNOMLKCK": {},
        "openCameraDither": false,
        "targetNpcAlias": "",
        "KJOEFBPOIIH": "",
        "IICFKKEBIEC": "",
        "EGEHEJEBLBJ": ""
      },
      {
        "$type": "FJKIHHKJLMJ",
        "type": "CAMERA_MOVE",
        "duration": 1.0,
        "camPosOffset": {
          "x": 945.3250122070312,
          "y": 378.1730041503906,
          "z": 1574.5
        },
        "camForwardTargetOffset": {
          "x": 945.4660034179688,
          "y": 378.2019958496094,
          "z": 1573.510009765625
        },
        "camFov": 30.0,
        "lerpPattern": 6,
        "cameraBlendType": "EaseInOutCubic",
        "NJBNNOMLKCK": {},
        "openCameraDither": false,
        "targetNpcAlias": "",
        "KJOEFBPOIIH": "",
        "IICFKKEBIEC": "",
        "EGEHEJEBLBJ": ""
      },
      {
        "$type": "FABLGECDBCH",
        "type": "BODY_LANG",
        "aliasList": [
          "Avatar"
        ],
        "isContinue": true,
        "forceDoFreeStyle": true,
        "canDoRepeatFreeStyle": false,
        "eventPatternSuiteKey": "",
        "FOHHKFAIAAJ": ""
      },
      {
        "$type": "PKKMAMONGEO",
        "type": "DIALOG",
        "aliasList": [
          "10258"
        ],
        "dialogID": 715000101,
        "protectTime": 0.5
      }
    ],
    [
      {
        "$type": "MoleMole.Config.ConfigTimeProtectAction",
        "type": "TIME_PROTECT",
        "duration": 4.427000045776367
      },
      {
        "$type": "FJKIHHKJLMJ",
        "type": "CAMERA_MOVE",
        "delayTime": 0.10000000149011612,
        "duration": 13.282999992370605,
        "camPosOffset": {
          "x": 945.594970703125,
          "y": 377.8580017089844,
          "z": 1576.7230224609375
        },
        "camForwardTargetOffset": {
          "x": 945.7360229492188,
          "y": 377.8869934082031,
          "z": 1575.7340087890625
        },
        "camFov": 30.0,
        "cameraBlendType": "Linear",
        "NJBNNOMLKCK": {},
        "openCameraDither": false,
        "targetNpcAlias": "",
        "KJOEFBPOIIH": "",
        "IICFKKEBIEC": "",
        "EGEHEJEBLBJ": ""
      },
      {
        "$type": "FJKIHHKJLMJ",
        "type": "CAMERA_MOVE",
        "duration": 1.2599999904632568,
        "camPosOffset": {
          "x": 945.6610107421875,
          "y": 377.87200927734375,
          "z": 1576.258056640625
        },
        "camForwardTargetOffset": {
          "x": 945.802001953125,
          "y": 377.9010009765625,
          "z": 1575.26904296875
        },
        "camFov": 30.0,
        "lerpPattern": 6,
        "cameraBlendType": "EaseInOutCubic",
        "NJBNNOMLKCK": {},
        "openCameraDither": false,
        "targetNpcAlias": "",
        "KJOEFBPOIIH": "",
        "IICFKKEBIEC": "",
        "EGEHEJEBLBJ": ""
      },
      {
        "$type": "HDGKHDNFMIM",
        "type": "DIALOG_SELECT",
        "delayTime": 0.42899999022483826,
        "aliasList": [
          "Avatar"
        ],
        "dialogIDList": [
          715000103,
          715000105
        ],
        "grpIDList": [
          3619461684,
          3619461685
        ],
        "useGrpId": true
      },
      {
        "$type": "MoleMole.Config.ConfigMoveToAction",
        "type": "MOVE_TO",
        "delayTime": 0.42399999499320984,
        "aliasList": [
          "Avatar"
        ],
        "moveType": "WALK",
        "routeList": [
          {
            "x": 946.4140014648438,
            "y": 376.3590087890625,
            "z": 1574.5760498046875
          }
        ],
        "exactlyMove": true,
        "_bindMovingTargetKey": ""
      },
      {
        "$type": "PKKMAMONGEO",
        "type": "DIALOG",
        "aliasList": [
          "10258"
        ],
        "dialogID": 715000102,
        "protectTime": 3.0
      },
      {
        "$type": "LJLMDHDCAMK",
        "type": "LOOK_AT",
        "delayTime": 0.23399999737739563,
        "aliasList": [
          "10258"
        ],
        "enableHead": true,
        "useTargetPos": true,
        "enableAbsolute": true,
        "headTurnTime": 0.800000011920929,
        "targetNpcAlias": "Avatar",
        "targetNpcLookAtPoint": "",
        "OAFJBHJHLJG": ""
      }
    ],
    [
      {
        "$type": "FJKIHHKJLMJ",
        "type": "CAMERA_MOVE",
        "delayTime": 0.09000000357627869,
        "duration": 8.156000137329102,
        "camPosOffset": {
          "x": 949.2410278320312,
          "y": 378.4939880371094,
          "z": 1574.0250244140625
        },
        "camForwardTargetOffset": {
          "x": 948.2509765625,
          "y": 378.3680114746094,
          "z": 1574.0880126953125
        },
        "camFov": 30.0,
        "cameraBlendType": "EaseOutQuad",
        "NJBNNOMLKCK": {},
        "openCameraDither": false,
        "targetNpcAlias": "",
        "KJOEFBPOIIH": "",
        "IICFKKEBIEC": "",
        "EGEHEJEBLBJ": ""
      },
      {
        "$type": "FJKIHHKJLMJ",
        "type": "CAMERA_MOVE",
        "duration": 1.0,
        "camPosOffset": {
          "x": 949.2529907226562,
          "y": 378.4049987792969,
          "z": 1574.053955078125
        },
        "camForwardTargetOffset": {
          "x": 948.2620239257812,
          "y": 378.2879943847656,
          "z": 1574.114013671875
        },
        "camFov": 30.0,
        "lerpPattern": 6,
        "cameraBlendType": "EaseInOutCubic",
        "NJBNNOMLKCK": {},
        "openCameraDither": false,
        "targetNpcAlias": "",
        "KJOEFBPOIIH": "",
        "IICFKKEBIEC": "",
        "EGEHEJEBLBJ": ""
      },
      {
        "$type": "MoleMole.Config.ConfigTeleportToAction",
        "type": "TELEPORT_TO",
        "aliasList": [
          "Avatar"
        ],
        "position": {
          "x": 946.4119873046875,
          "y": 376.3590087890625,
          "z": 1574.571044921875
        },
        "forward": {
          "x": -0.47999998927116394,
          "y": 1.5729999542236328,
          "z": -0.6340000033378601
        },
        "_posBindMovingTargetKey": "",
        "_forwardBindMovingTargetKey": ""
      },
      {
        "$type": "LJLMDHDCAMK",
        "type": "LOOK_AT",
        "delayTime": 1.1979999542236328,
        "aliasList": [
          "Avatar"
        ],
        "enableHead": true,
        "useTargetPos": true,
        "enableAbsolute": true,
        "targetPosition": {
          "x": 943.427001953125,
          "y": 378.2799987792969,
          "z": 1574.8900146484375
        },
        "enableBody": true,
        "headTurnTime": 0.5,
        "targetNpcAlias": "",
        "targetNpcLookAtPoint": "",
        "OAFJBHJHLJG": ""
      },
      {
        "$type": "PKKMAMONGEO",
        "type": "DIALOG",
        "aliasList": [
          "10258"
        ],
        "dialogID": 715000104,
        "protectTime": 0.5
      },
      {
        "$type": "LJLMDHDCAMK",
        "type": "LOOK_AT",
        "aliasList": [
          "10258"
        ],
        "enableHead": true,
        "useTargetPos": true,
        "enableAbsolute": true,
        "targetPosition": {
          "x": 942.22900390625,
          "y": 378.1419982910156,
          "z": 1574.6290283203125
        },
        "headTurnTime": 0.5,
        "targetNpcAlias": "",
        "targetNpcLookAtPoint": "",
        "OAFJBHJHLJG": ""
      }
    ],
    [
      {
        "$type": "FJKIHHKJLMJ",
        "type": "CAMERA_MOVE",
        "delayTime": 0.09000000357627869,
        "duration": 7.491000175476074,
        "camPosOffset": {
          "x": 944.1400146484375,
          "y": 378.3320007324219,
          "z": 1574.6939697265625
        },
        "camForwardTargetOffset": {
          "x": 945.0869750976562,
          "y": 378.1820068359375,
          "z": 1574.4090576171875
        },
        "camFov": 30.0,
        "cameraBlendType": "EaseOutQuad",
        "NJBNNOMLKCK": {},
        "openCameraDither": false,
        "targetNpcAlias": "",
        "KJOEFBPOIIH": "",
        "IICFKKEBIEC": "",
        "EGEHEJEBLBJ": ""
      },
      {
        "$type": "FJKIHHKJLMJ",
        "type": "CAMERA_MOVE",
        "duration": 1.0,
        "camPosOffset": {
          "x": 943.8560180664062,
          "y": 378.37701416015625,
          "z": 1574.779052734375
        },
        "camForwardTargetOffset": {
          "x": 944.802978515625,
          "y": 378.22698974609375,
          "z": 1574.4949951171875
        },
        "camFov": 30.0,
        "lerpPattern": 6,
        "cameraBlendType": "EaseInOutCubic",
        "NJBNNOMLKCK": {},
        "openCameraDither": false,
        "targetNpcAlias": "",
        "KJOEFBPOIIH": "",
        "IICFKKEBIEC": "",
        "EGEHEJEBLBJ": ""
      },
      {
        "$type": "LJLMDHDCAMK",
        "type": "LOOK_AT",
        "delayTime": 1.434000015258789,
        "aliasList": [
          "Avatar"
        ],
        "enableHead": true,
        "useTargetPos": true,
        "enableAbsolute": true,
        "headTurnTime": 0.5,
        "targetNpcAlias": "10258",
        "targetNpcLookAtPoint": "",
        "OAFJBHJHLJG": ""
      },
      {
        "$type": "PKKMAMONGEO",
        "type": "DIALOG",
        "aliasList": [
          "10258"
        ],
        "dialogID": 715000106,
        "protectTime": 0.5
      },
      {
        "$type": "LJLMDHDCAMK",
        "type": "LOOK_AT",
        "delayTime": 0.7059999704360962,
        "aliasList": [
          "10258"
        ],
        "enableHead": true,
        "useTargetPos": true,
        "enableAbsolute": true,
        "targetPosition": {
          "x": 944.9639892578125,
          "y": 377.93499755859375,
          "z": 1574.6610107421875
        },
        "headTurnTime": 0.5,
        "targetNpcAlias": "",
        "targetNpcLookAtPoint": "",
        "OAFJBHJHLJG": ""
      }
    ],
    [
      {
        "$type": "FJKIHHKJLMJ",
        "type": "CAMERA_MOVE",
        "delayTime": 0.10000000149011612,
        "duration": 17.535999298095703,
        "camPosOffset": {
          "x": 932.280029296875,
          "y": 379.1570129394531,
          "z": 1577.3680419921875
        },
        "camForwardTargetOffset": {
          "x": 931.3839721679688,
          "y": 379.01300048828125,
          "z": 1576.948974609375
        },
        "camFov": 30.0,
        "cameraBlendType": "EaseOutQuad",
        "NJBNNOMLKCK": {},
        "openCameraDither": false,
        "targetNpcAlias": "",
        "KJOEFBPOIIH": "",
        "IICFKKEBIEC": "",
        "EGEHEJEBLBJ": ""
      },
      {
        "$type": "FJKIHHKJLMJ",
        "type": "CAMERA_MOVE",
        "duration": 1.0,
        "camPosOffset": {
          "x": 932.1859741210938,
          "y": 379.1889953613281,
          "z": 1577.5439453125
        },
        "camForwardTargetOffset": {
          "x": 931.3159790039062,
          "y": 379.0360107421875,
          "z": 1577.074951171875
        },
        "camFov": 30.0,
        "lerpPattern": 6,
        "cameraBlendType": "EaseInOutCubic",
        "NJBNNOMLKCK": {},
        "openCameraDither": false,
        "targetNpcAlias": "",
        "KJOEFBPOIIH": "",
        "IICFKKEBIEC": "",
        "EGEHEJEBLBJ": ""
      },
      {
        "$type": "LJLMDHDCAMK",
        "type": "LOOK_AT",
        "delayTime": 0.8579999804496765,
        "aliasList": [
          "Avatar"
        ],
        "enableHead": true,
        "useTargetPos": true,
        "enableAbsolute": true,
        "targetPosition": {
          "x": 943.5159912109375,
          "y": 378.25299072265625,
          "z": 1574.93994140625
        },
        "headTurnTime": 0.5,
        "targetNpcAlias": "",
        "targetNpcLookAtPoint": "",
        "OAFJBHJHLJG": ""
      },
      {
        "$type": "LJLMDHDCAMK",
        "type": "LOOK_AT",
        "aliasList": [
          "Avatar"
        ],
        "enableHead": true,
        "useTargetPos": true,
        "enableAbsolute": true,
        "headTurnTime": 0.5,
        "targetNpcAlias": "10258",
        "targetNpcLookAtPoint": "",
        "OAFJBHJHLJG": ""
      },
      {
        "$type": "LLGANGLOEEO",
        "type": "STEER_TO",
        "duration": 0.800000011920929,
        "aliasList": [
          "Avatar"
        ],
        "steerType": "ABSOLUTE",
        "steerDir": {
          "x": 945.6420288085938,
          "y": 376.4649963378906,
          "z": 1574.262939453125
        },
        "useSteerAnim": true,
        "targetNpcAlias": "",
        "OAFJBHJHLJG": ""
      },
      {
        "$type": "PKKMAMONGEO",
        "type": "DIALOG",
        "aliasList": [
          "10258"
        ],
        "dialogID": 715000107,
        "protectTime": 0.5
      },
      {
        "$type": "LJLMDHDCAMK",
        "type": "LOOK_AT",
        "delayTime": 0.5139999985694885,
        "aliasList": [
          "10258"
        ],
        "enableHead": true,
        "useTargetPos": true,
        "enableAbsolute": true,
        "targetPosition": {
          "x": 941.8419799804688,
          "y": 378.0159912109375,
          "z": 1574.5159912109375
        },
        "headTurnTime": 0.5,
        "targetNpcAlias": "",
        "targetNpcLookAtPoint": "",
        "OAFJBHJHLJG": ""
      },
      {
        "$type": "LJLMDHDCAMK",
        "type": "LOOK_AT",
        "aliasList": [
          "10258"
        ],
        "enableHead": true,
        "useTargetPos": true,
        "enableAbsolute": true,
        "targetPosition": {
          "x": 944.9639892578125,
          "y": 377.93499755859375,
          "z": 1574.6610107421875
        },
        "headTurnTime": 0.5,
        "targetNpcAlias": "",
        "targetNpcLookAtPoint": "",
        "OAFJBHJHLJG": ""
      }
    ],
    [
      {
        "$type": "FJKIHHKJLMJ",
        "type": "CAMERA_MOVE",
        "delayTime": 0.09300000220537186,
        "duration": 9.782999992370605,
        "camPosOffset": {
          "x": 945.614990234375,
          "y": 377.64898681640625,
          "z": 1576.7530517578125
        },
        "camForwardTargetOffset": {
          "x": 945.6909790039062,
          "y": 377.7380065917969,
          "z": 1575.760009765625
        },
        "camFov": 30.0,
        "cameraBlendType": "EaseOutQuad",
        "NJBNNOMLKCK": {},
        "openCameraDither": false,
        "targetNpcAlias": "",
        "KJOEFBPOIIH": "",
        "IICFKKEBIEC": "",
        "EGEHEJEBLBJ": ""
      },
      {
        "$type": "FJKIHHKJLMJ",
        "type": "CAMERA_MOVE",
        "duration": 1.0,
        "camPosOffset": {
          "x": 945.5079956054688,
          "y": 377.63800048828125,
          "z": 1576.7430419921875
        },
        "camForwardTargetOffset": {
          "x": 945.583984375,
          "y": 377.72698974609375,
          "z": 1575.75
        },
        "camFov": 30.0,
        "lerpPattern": 6,
        "cameraBlendType": "EaseInOutCubic",
        "NJBNNOMLKCK": {},
        "openCameraDither": false,
        "targetNpcAlias": "",
        "KJOEFBPOIIH": "",
        "IICFKKEBIEC": "",
        "EGEHEJEBLBJ": ""
      },
      {
        "$type": "PKKMAMONGEO",
        "type": "DIALOG",
        "aliasList": [
          "10258"
        ],
        "dialogID": 715000108,
        "protectTime": 0.5
      }
    ],
    [
      {
        "$type": "FJKIHHKJLMJ",
        "type": "CAMERA_MOVE",
        "delayTime": 0.07599999755620956,
        "duration": 24.702999114990234,
        "camPosOffset": {
          "x": 926.64501953125,
          "y": 378.9320068359375,
          "z": 1577.6949462890625
        },
        "camForwardTargetOffset": {
          "x": 927.5880126953125,
          "y": 378.8299865722656,
          "z": 1577.376953125
        },
        "camFov": 30.0,
        "cameraBlendType": "EaseOutQuad",
        "NJBNNOMLKCK": {},
        "openCameraDither": false,
        "targetNpcAlias": "",
        "KJOEFBPOIIH": "",
        "IICFKKEBIEC": "",
        "EGEHEJEBLBJ": ""
      },
      {
        "$type": "FJKIHHKJLMJ",
        "type": "CAMERA_MOVE",
        "duration": 1.0,
        "camPosOffset": {
          "x": 926.552001953125,
          "y": 378.9179992675781,
          "z": 1577.425048828125
        },
        "camForwardTargetOffset": {
          "x": 927.4949951171875,
          "y": 378.8160095214844,
          "z": 1577.1070556640625
        },
        "camFov": 30.0,
        "lerpPattern": 6,
        "cameraBlendType": "EaseInOutCubic",
        "NJBNNOMLKCK": {},
        "openCameraDither": false,
        "targetNpcAlias": "",
        "KJOEFBPOIIH": "",
        "IICFKKEBIEC": "",
        "EGEHEJEBLBJ": ""
      },
      {
        "$type": "PKKMAMONGEO",
        "type": "DIALOG",
        "aliasList": [
          "10258"
        ],
        "dialogID": 715000109,
        "protectTime": 0.5
      }
    ],
    [
      {
        "$type": "FJKIHHKJLMJ",
        "type": "CAMERA_MOVE",
        "delayTime": 0.09399999678134918,
        "duration": 9.277999877929688,
        "camPosOffset": {
          "x": 931.77001953125,
          "y": 378.1419982910156,
          "z": 1574.0670166015625
        },
        "camForwardTargetOffset": {
          "x": 931.0479736328125,
          "y": 377.56500244140625,
          "z": 1574.448974609375
        },
        "camFov": 30.0,
        "cameraBlendType": "EaseOutQuad",
        "NJBNNOMLKCK": {},
        "openCameraDither": false,
        "targetNpcAlias": "",
        "KJOEFBPOIIH": "",
        "IICFKKEBIEC": "",
        "EGEHEJEBLBJ": ""
      },
      {
        "$type": "MoleMole.Config.ConfigPlayEffectAction",
        "type": "PLAY_EFFECT",
        "effectIndex": "",
        "patternName": "Property_Prop_Delicioussmell_01",
        "_otherTargetNpcAlias": "",
        "_overrideFollowPath": ""
      },
      {
        "$type": "FJKIHHKJLMJ",
        "type": "CAMERA_MOVE",
        "duration": 1.0,
        "camPosOffset": {
          "x": 931.9119873046875,
          "y": 378.1419982910156,
          "z": 1574.3680419921875
        },
        "camForwardTargetOffset": {
          "x": 931.156982421875,
          "y": 377.56500244140625,
          "z": 1574.678955078125
        },
        "camFov": 30.0,
        "lerpPattern": 6,
        "cameraBlendType": "EaseInOutCubic",
        "NJBNNOMLKCK": {},
        "openCameraDither": false,
        "targetNpcAlias": "",
        "KJOEFBPOIIH": "",
        "IICFKKEBIEC": "",
        "EGEHEJEBLBJ": ""
      },
      {
        "$type": "HDGKHDNFMIM",
        "type": "DIALOG_SELECT",
        "delayTime": 0.753000020980835,
        "aliasList": [
          "Avatar"
        ],
        "dialogIDList": [
          715000111
        ],
        "grpIDList": [
          534162463
        ],
        "useGrpId": true
      },
      {
        "$type": "MoleMole.Config.ConfigPlayEffectAction",
        "type": "PLAY_EFFECT",
        "delayTime": 1.593000054359436,
        "aliasList": [
          "Avatar"
        ],
        "effectIndex": "",
        "patternName": "",
        "_otherTargetNpcAlias": "",
        "_overrideFollowPath": ""
      },
      {
        "$type": "PKKMAMONGEO",
        "type": "DIALOG",
        "aliasList": [
          "10258"
        ],
        "dialogID": 715000110,
        "protectTime": 0.5
      }
    ],
    [
      {
        "$type": "FJKIHHKJLMJ",
        "type": "CAMERA_MOVE",
        "duration": 0.6729999780654907,
        "camPosOffset": {
          "x": 934.72900390625,
          "y": 381.7669982910156,
          "z": 1569.324951171875
        },
        "camForwardTargetOffset": {
          "x": 934.2490234375,
          "y": 381.50799560546875,
          "z": 1570.1629638671875
        },
        "camFov": 30.0,
        "lerpPattern": 6,
        "cameraBlendType": "EaseInOutCubic",
        "NJBNNOMLKCK": {},
        "openCameraDither": false,
        "targetNpcAlias": "",
        "KJOEFBPOIIH": "",
        "IICFKKEBIEC": "",
        "EGEHEJEBLBJ": ""
      },
      {
        "$type": "FJKIHHKJLMJ",
        "type": "CAMERA_MOVE",
        "delayTime": 0.10000000149011612,
        "duration": 8.72599983215332,
        "camPosOffset": {
          "x": 934.4810180664062,
          "y": 381.7669982910156,
          "z": 1569.18896484375
        },
        "camForwardTargetOffset": {
          "x": 934.031005859375,
          "y": 381.50799560546875,
          "z": 1570.0439453125
        },
        "camFov": 30.0,
        "cameraBlendType": "EaseOutQuad",
        "NJBNNOMLKCK": {},
        "openCameraDither": false,
        "targetNpcAlias": "",
        "KJOEFBPOIIH": "",
        "IICFKKEBIEC": "",
        "EGEHEJEBLBJ": ""
      },
      {
        "$type": "LJLMDHDCAMK",
        "type": "LOOK_AT",
        "delayTime": 1.3309999704360962,
        "aliasList": [
          "Avatar"
        ],
        "enableHead": true,
        "useTargetPos": true,
        "enableAbsolute": true,
        "headTurnTime": 0.5,
        "targetNpcAlias": "10258",
        "targetNpcLookAtPoint": "",
        "OAFJBHJHLJG": ""
      },
      {
        "$type": "PKKMAMONGEO",
        "type": "DIALOG",
        "aliasList": [
          "10258"
        ],
        "dialogID": 715000112,
        "protectTime": 0.5
      },
      {
        "$type": "LJLMDHDCAMK",
        "type": "LOOK_AT",
        "delayTime": 0.4869999885559082,
        "aliasList": [
          "10258"
        ],
        "enableHead": true,
        "useTargetPos": true,
        "enableAbsolute": true,
        "targetPosition": {
          "x": 943.5239868164062,
          "y": 377.83099365234375,
          "z": 1574.7110595703125
        },
        "headTurnTime": 0.5,
        "targetNpcAlias": "",
        "targetNpcLookAtPoint": "",
        "OAFJBHJHLJG": ""
      }
    ],
    [
      {
        "$type": "FJKIHHKJLMJ",
        "type": "CAMERA_MOVE",
        "duration": 4.250999927520752,
        "camPosOffset": {
          "x": 943.2039794921875,
          "y": 377.95599365234375,
          "z": 1578.31298828125
        },
        "camForwardTargetOffset": {
          "x": 943.7039794921875,
          "y": 377.8689880371094,
          "z": 1577.4510498046875
        },
        "camFov": 30.0,
        "lerpPattern": 6,
        "cameraBlendType": "EaseInOutCubic",
        "NJBNNOMLKCK": {},
        "openCameraDither": false,
        "targetNpcAlias": "",
        "KJOEFBPOIIH": "",
        "IICFKKEBIEC": "",
        "EGEHEJEBLBJ": ""
      },
      {
        "$type": "HDGKHDNFMIM",
        "type": "DIALOG_SELECT",
        "delayTime": 0.5600000023841858,
        "aliasList": [
          "Avatar"
        ],
        "dialogIDList": [
          715000114
        ],
        "grpIDList": [
          534162465
        ],
        "useGrpId": true
      },
      {
        "$type": "LJLMDHDCAMK",
        "type": "LOOK_AT",
        "aliasList": [
          "Avatar"
        ],
        "enableHead": true,
        "useTargetPos": true,
        "enableAbsolute": true,
        "targetPosition": {
          "x": 942.9520263671875,
          "y": 378.1189880371094,
          "z": 1574.2960205078125
        },
        "headTurnTime": 0.5,
        "targetNpcAlias": "10258",
        "targetNpcLookAtPoint": "",
        "OAFJBHJHLJG": ""
      },
      {
        "$type": "PKKMAMONGEO",
        "type": "DIALOG",
        "aliasList": [
          "10258"
        ],
        "dialogID": 715000113,
        "protectTime": 0.5
      },
      {
        "$type": "LJLMDHDCAMK",
        "type": "LOOK_AT",
        "aliasList": [
          "10258"
        ],
        "enableHead": true,
        "useTargetPos": true,
        "enableAbsolute": true,
        "headTurnTime": 0.5,
        "targetNpcAlias": "Avatar",
        "targetNpcLookAtPoint": "",
        "OAFJBHJHLJG": ""
      }
    ],
    [
      {
        "$type": "FJKIHHKJLMJ",
        "type": "CAMERA_MOVE",
        "delayTime": 0.06400000303983688,
        "duration": 8.947999954223633,
        "camPosOffset": {
          "x": 951.64697265625,
          "y": 378.87799072265625,
          "z": 1573.7120361328125
        },
        "camForwardTargetOffset": {
          "x": 950.6630249023438,
          "y": 378.72198486328125,
          "z": 1573.7919921875
        },
        "camFov": 30.0,
        "cameraBlendType": "EaseOutQuad",
        "NJBNNOMLKCK": {},
        "openCameraDither": false,
        "targetNpcAlias": "",
        "KJOEFBPOIIH": "",
        "IICFKKEBIEC": "",
        "EGEHEJEBLBJ": ""
      },
      {
        "$type": "FJKIHHKJLMJ",
        "type": "CAMERA_MOVE",
        "duration": 1.0,
        "camPosOffset": {
          "x": 952.0599975585938,
          "y": 378.9429931640625,
          "z": 1573.677978515625
        },
        "camForwardTargetOffset": {
          "x": 951.0759887695312,
          "y": 378.7869873046875,
          "z": 1573.758056640625
        },
        "camFov": 30.0,
        "lerpPattern": 6,
        "cameraBlendType": "EaseInOutCubic",
        "NJBNNOMLKCK": {},
        "openCameraDither": false,
        "targetNpcAlias": "",
        "KJOEFBPOIIH": "",
        "IICFKKEBIEC": "",
        "EGEHEJEBLBJ": ""
      },
      {
        "$type": "PKKMAMONGEO",
        "type": "DIALOG",
        "aliasList": [
          "10258"
        ],
        "dialogID": 715000115,
        "protectTime": 0.5
      }
    ],
    [
      {
        "$type": "FJKIHHKJLMJ",
        "type": "CAMERA_MOVE",
        "delayTime": 0.06400000303983688,
        "duration": 7.75,
        "camPosOffset": {
          "x": 941.9509887695312,
          "y": 378.8630065917969,
          "z": 1575.2220458984375
        },
        "camForwardTargetOffset": {
          "x": 942.875,
          "y": 378.58099365234375,
          "z": 1574.9649658203125
        },
        "camFov": 30.0,
        "cameraBlendType": "EaseOutQuad",
        "NJBNNOMLKCK": {},
        "openCameraDither": false,
        "targetNpcAlias": "",
        "KJOEFBPOIIH": "",
        "IICFKKEBIEC": "",
        "EGEHEJEBLBJ": ""
      },
      {
        "$type": "FJKIHHKJLMJ",
        "type": "CAMERA_MOVE",
        "duration": 1.0,
        "camPosOffset": {
          "x": 941.7459716796875,
          "y": 378.9259948730469,
          "z": 1575.279052734375
        },
        "camForwardTargetOffset": {
          "x": 942.6699829101562,
          "y": 378.6440124511719,
          "z": 1575.02197265625
        },
        "camFov": 30.0,
        "lerpPattern": 6,
        "cameraBlendType": "EaseInOutCubic",
        "NJBNNOMLKCK": {},
        "openCameraDither": false,
        "targetNpcAlias": "",
        "KJOEFBPOIIH": "",
        "IICFKKEBIEC": "",
        "EGEHEJEBLBJ": ""
      },
      {
        "$type": "LJLMDHDCAMK",
        "type": "LOOK_AT",
        "delayTime": 0.5720000267028809,
        "aliasList": [
          "Avatar"
        ],
        "enableHead": true,
        "useTargetPos": true,
        "enableAbsolute": true,
        "targetPosition": {
          "x": 944.0859985351562,
          "y": 378.2030029296875,
          "z": 1574.2960205078125
        },
        "headTurnTime": 0.5,
        "targetNpcAlias": "10258",
        "targetNpcLookAtPoint": "",
        "OAFJBHJHLJG": ""
      },
      {
        "$type": "PKKMAMONGEO",
        "type": "DIALOG",
        "aliasList": [
          "10258"
        ],
        "dialogID": 715000116,
        "protectTime": 0.5
      },
      {
        "$type": "LJLMDHDCAMK",
        "type": "LOOK_AT",
        "aliasList": [
          "10258"
        ],
        "enableHead": true,
        "useTargetPos": true,
        "enableAbsolute": true,
        "headTurnTime": 0.5,
        "targetNpcAlias": "Avatar",
        "targetNpcLookAtPoint": "",
        "OAFJBHJHLJG": ""
      }
    ],
    [
      {
        "$type": "FJKIHHKJLMJ",
        "type": "CAMERA_MOVE",
        "delayTime": 0.10000000149011612,
        "duration": 5.482999801635742,
        "camPosOffset": {
          "x": 944.7420043945312,
          "y": 378.2080078125,
          "z": 1574.031005859375
        },
        "camForwardTargetOffset": {
          "x": 945.72802734375,
          "y": 378.1059875488281,
          "z": 1574.1610107421875
        },
        "cameraBlendType": "EaseOutQuad",
        "NJBNNOMLKCK": {},
        "openCameraDither": false,
        "targetNpcAlias": "",
        "KJOEFBPOIIH": "",
        "IICFKKEBIEC": "",
        "EGEHEJEBLBJ": ""
      },
      {
        "$type": "FJKIHHKJLMJ",
        "type": "CAMERA_MOVE",
        "duration": 1.0,
        "camPosOffset": {
          "x": 944.6820068359375,
          "y": 378.2139892578125,
          "z": 1574.0240478515625
        },
        "camForwardTargetOffset": {
          "x": 945.6680297851562,
          "y": 378.11199951171875,
          "z": 1574.154052734375
        },
        "lerpPattern": 6,
        "cameraBlendType": "EaseInOutCubic",
        "NJBNNOMLKCK": {},
        "openCameraDither": false,
        "targetNpcAlias": "",
        "KJOEFBPOIIH": "",
        "IICFKKEBIEC": "",
        "EGEHEJEBLBJ": ""
      },
      {
        "$type": "PKKMAMONGEO",
        "type": "DIALOG",
        "aliasList": [
          "10258"
        ],
        "dialogID": 715000117,
        "protectTime": 0.5
      },
      {
        "$type": "LJLMDHDCAMK",
        "type": "LOOK_AT",
        "aliasList": [
          "10258"
        ],
        "enableHead": true,
        "useTargetPos": true,
        "enableAbsolute": true,
        "targetPosition": {
          "x": 945.9810180664062,
          "y": 377.68499755859375,
          "z": 1575.20703125
        },
        "headTurnTime": 0.5,
        "targetNpcAlias": "",
        "targetNpcLookAtPoint": "",
        "OAFJBHJHLJG": ""
      }
    ],
    [
      {
        "$type": "FJKIHHKJLMJ",
        "type": "CAMERA_MOVE",
        "delayTime": 0.10000000149011612,
        "duration": 10.166000366210938,
        "camPosOffset": {
          "x": 945.8109741210938,
          "y": 377.8489990234375,
          "z": 1575.176025390625
        },
        "camForwardTargetOffset": {
          "x": 946.0029907226562,
          "y": 377.8689880371094,
          "z": 1574.1949462890625
        },
        "camFov": 65.0,
        "cameraBlendType": "EaseOutQuad",
        "NJBNNOMLKCK": {},
        "openCameraDither": false,
        "targetNpcAlias": "",
        "KJOEFBPOIIH": "",
        "IICFKKEBIEC": "",
        "EGEHEJEBLBJ": ""
      },
      {
        "$type": "FJKIHHKJLMJ",
        "type": "CAMERA_MOVE",
        "duration": 1.0,
        "camPosOffset": {
          "x": 945.8560180664062,
          "y": 377.8529968261719,
          "z": 1575.18505859375
        },
        "camForwardTargetOffset": {
          "x": 946.0479736328125,
          "y": 377.87298583984375,
          "z": 1574.2039794921875
        },
        "camFov": 65.0,
        "lerpPattern": 6,
        "cameraBlendType": "EaseInOutCubic",
        "NJBNNOMLKCK": {},
        "openCameraDither": false,
        "targetNpcAlias": "",
        "KJOEFBPOIIH": "",
        "IICFKKEBIEC": "",
        "EGEHEJEBLBJ": ""
      },
      {
        "$type": "HDGKHDNFMIM",
        "type": "DIALOG_SELECT",
        "delayTime": 0.6959999799728394,
        "aliasList": [
          "Avatar"
        ],
        "dialogIDList": [
          715000119,
          715000122
        ],
        "grpIDList": [
          534162469,
          534162471
        ],
        "useGrpId": true
      },
      {
        "$type": "LJLMDHDCAMK",
        "type": "LOOK_AT",
        "delayTime": 0.46000000834465027,
        "aliasList": [
          "Avatar"
        ],
        "enableHead": true,
        "useTargetPos": true,
        "enableAbsolute": true,
        "targetPosition": {
          "x": 944.9390258789062,
          "y": 378.0140075683594,
          "z": 1574.56298828125
        },
        "headTurnTime": 0.5,
        "targetNpcAlias": "",
        "targetNpcLookAtPoint": "",
        "OAFJBHJHLJG": ""
      },
      {
        "$type": "PKKMAMONGEO",
        "type": "DIALOG",
        "aliasList": [
          "10258"
        ],
        "dialogID": 715000118,
        "protectTime": 0.5
      },
      {
        "$type": "LJLMDHDCAMK",
        "type": "LOOK_AT",
        "aliasList": [
          "10258"
        ],
        "enableHead": true,
        "useTargetPos": true,
        "enableAbsolute": true,
        "targetPosition": {
          "x": 944.5380249023438,
          "y": 378.22198486328125,
          "z": 1574.0350341796875
        },
        "headTurnTime": 0.5,
        "targetNpcAlias": "",
        "targetNpcLookAtPoint": "",
        "OAFJBHJHLJG": ""
      }
    ],
    [
      {
        "$type": "FJKIHHKJLMJ",
        "type": "CAMERA_MOVE",
        "delayTime": 0.10000000149011612,
        "duration": 12.557999610900879,
        "camPosOffset": {
          "x": 943.0640258789062,
          "y": 377.9859924316406,
          "z": 1577.3909912109375
        },
        "camForwardTargetOffset": {
          "x": 943.6320190429688,
          "y": 377.89300537109375,
          "z": 1576.572998046875
        },
        "camFov": 30.0,
        "cameraBlendType": "EaseOutQuad",
        "NJBNNOMLKCK": {},
        "openCameraDither": false,
        "targetNpcAlias": "",
        "KJOEFBPOIIH": "",
        "IICFKKEBIEC": "",
        "EGEHEJEBLBJ": ""
      },
      {
        "$type": "FJKIHHKJLMJ",
        "type": "CAMERA_MOVE",
        "duration": 1.0,
        "camPosOffset": {
          "x": 942.97802734375,
          "y": 378.0,
          "z": 1577.5140380859375
        },
        "camForwardTargetOffset": {
          "x": 943.5460205078125,
          "y": 377.9070129394531,
          "z": 1576.696044921875
        },
        "camFov": 30.0,
        "lerpPattern": 6,
        "cameraBlendType": "EaseInOutCubic",
        "NJBNNOMLKCK": {},
        "openCameraDither": false,
        "targetNpcAlias": "",
        "KJOEFBPOIIH": "",
        "IICFKKEBIEC": "",
        "EGEHEJEBLBJ": ""
      },
      {
        "$type": "LJLMDHDCAMK",
        "type": "LOOK_AT",
        "delayTime": 1.2589999437332153,
        "aliasList": [
          "Avatar"
        ],
        "enableHead": true,
        "useTargetPos": true,
        "enableAbsolute": true,
        "headTurnTime": 0.5,
        "targetNpcAlias": "10258",
        "targetNpcLookAtPoint": "",
        "OAFJBHJHLJG": ""
      },
      {
        "$type": "PKKMAMONGEO",
        "type": "DIALOG",
        "aliasList": [
          "10258"
        ],
        "dialogID": 715000120,
        "protectTime": 0.5
      },
      {
        "$type": "LJLMDHDCAMK",
        "type": "LOOK_AT",
        "aliasList": [
          "10258"
        ],
        "enableHead": true,
        "useTargetPos": true,
        "enableAbsolute": true,
        "targetPosition": {
          "x": 943.9459838867188,
          "y": 379.239013671875,
          "z": 1574.2950439453125
        },
        "headTurnTime": 0.5,
        "targetNpcAlias": "",
        "targetNpcLookAtPoint": "",
        "OAFJBHJHLJG": ""
      },
      {
        "$type": "LJLMDHDCAMK",
        "type": "LOOK_AT",
        "delayTime": 0.9490000009536743,
        "aliasList": [
          "10258"
        ],
        "enableHead": true,
        "useTargetPos": true,
        "enableAbsolute": true,
        "targetPosition": {
          "x": 943.5960083007812,
          "y": 378.3630065917969,
          "z": 1574.3079833984375
        },
        "headTurnTime": 0.5,
        "targetNpcAlias": "",
        "targetNpcLookAtPoint": "",
        "OAFJBHJHLJG": ""
      },
      {
        "$type": "MoleMole.Config.ConfigTimeProtectAction",
        "type": "TIME_PROTECT",
        "duration": 1.5,
        "aliasList": [
          "10258"
        ]
      }
    ],
    [
      {
        "$type": "FJKIHHKJLMJ",
        "type": "CAMERA_MOVE",
        "delayTime": 0.10000000149011612,
        "duration": 20.825000762939453,
        "camPosOffset": {
          "x": 882.8880004882812,
          "y": 392.96099853515625,
          "z": 1582.9539794921875
        },
        "camForwardTargetOffset": {
          "x": 883.8419799804688,
          "y": 392.6940002441406,
          "z": 1582.81494140625
        },
        "camFov": 10.0,
        "cameraBlendType": "EaseOutQuad",
        "NJBNNOMLKCK": {},
        "openCameraDither": false,
        "targetNpcAlias": "",
        "KJOEFBPOIIH": "",
        "IICFKKEBIEC": "",
        "EGEHEJEBLBJ": ""
      },
      {
        "$type": "FJKIHHKJLMJ",
        "type": "CAMERA_MOVE",
        "duration": 1.0,
        "camPosOffset": {
          "x": 883.0850219726562,
          "y": 392.9639892578125,
          "z": 1584.1949462890625
        },
        "camForwardTargetOffset": {
          "x": 884.0349731445312,
          "y": 392.6969909667969,
          "z": 1584.032958984375
        },
        "camFov": 10.0,
        "lerpPattern": 6,
        "cameraBlendType": "EaseInOutCubic",
        "NJBNNOMLKCK": {},
        "openCameraDither": false,
        "targetNpcAlias": "",
        "KJOEFBPOIIH": "",
        "IICFKKEBIEC": "",
        "EGEHEJEBLBJ": ""
      },
      {
        "$type": "PKKMAMONGEO",
        "type": "DIALOG",
        "aliasList": [
          "10258"
        ],
        "dialogID": 715000121,
        "protectTime": 0.5
      }
    ],
    [
      {
        "$type": "FJKIHHKJLMJ",
        "type": "CAMERA_MOVE",
        "delayTime": 0.10000000149011612,
        "duration": 13.230999946594238,
        "camPosOffset": {
          "x": 939.2260131835938,
          "y": 379.17401123046875,
          "z": 1574.741943359375
        },
        "camForwardTargetOffset": {
          "x": 940.1939697265625,
          "y": 378.9469909667969,
          "z": 1574.633056640625
        },
        "camFov": 30.0,
        "cameraBlendType": "EaseOutQuad",
        "NJBNNOMLKCK": {},
        "openCameraDither": false,
        "targetNpcAlias": "",
        "KJOEFBPOIIH": "",
        "IICFKKEBIEC": "",
        "EGEHEJEBLBJ": ""
      },
      {
        "$type": "FJKIHHKJLMJ",
        "type": "CAMERA_MOVE",
        "duration": 3.7790000438690186,
        "camPosOffset": {
          "x": 939.0770263671875,
          "y": 379.2090148925781,
          "z": 1574.758056640625
        },
        "camForwardTargetOffset": {
          "x": 940.0449829101562,
          "y": 378.98199462890625,
          "z": 1574.6490478515625
        },
        "camFov": 30.0,
        "lerpPattern": 6,
        "cameraBlendType": "EaseInOutCubic",
        "NJBNNOMLKCK": {},
        "openCameraDither": false,
        "targetNpcAlias": "",
        "KJOEFBPOIIH": "",
        "IICFKKEBIEC": "",
        "EGEHEJEBLBJ": ""
      },
      {
        "$type": "PKKMAMONGEO",
        "type": "DIALOG",
        "aliasList": [
          "10258"
        ],
        "dialogID": 715000123,
        "protectTime": 0.5
      }
    ],
    [
      {
        "$type": "FJKIHHKJLMJ",
        "type": "CAMERA_MOVE",
        "delayTime": 0.10000000149011612,
        "duration": 16.378000259399414,
        "camPosOffset": {
          "x": 900.031005859375,
          "y": 384.9909973144531,
          "z": 1584.89404296875
        },
        "camForwardTargetOffset": {
          "x": 900.9810180664062,
          "y": 384.8110046386719,
          "z": 1584.6390380859375
        },
        "camFov": 15.0,
        "cameraBlendType": "EaseOutQuad",
        "NJBNNOMLKCK": {},
        "openCameraDither": false,
        "targetNpcAlias": "",
        "KJOEFBPOIIH": "",
        "IICFKKEBIEC": "",
        "EGEHEJEBLBJ": ""
      },
      {
        "$type": "FJKIHHKJLMJ",
        "type": "CAMERA_MOVE",
        "duration": 1.0880000591278076,
        "camPosOffset": {
          "x": 899.7490234375,
          "y": 384.9909973144531,
          "z": 1583.7840576171875
        },
        "camForwardTargetOffset": {
          "x": 900.7059936523438,
          "y": 384.8110046386719,
          "z": 1583.5550537109375
        },
        "camFov": 15.0,
        "lerpPattern": 6,
        "cameraBlendType": "EaseInOutCubic",
        "NJBNNOMLKCK": {},
        "openCameraDither": false,
        "targetNpcAlias": "",
        "KJOEFBPOIIH": "",
        "IICFKKEBIEC": "",
        "EGEHEJEBLBJ": ""
      },
      {
        "$type": "LJLMDHDCAMK",
        "type": "LOOK_AT",
        "aliasList": [
          "Avatar"
        ],
        "enableHead": true,
        "useTargetPos": true,
        "enableAbsolute": true,
        "targetPosition": {
          "x": 942.3759765625,
          "y": 378.4679870605469,
          "z": 1574.7120361328125
        },
        "headTurnTime": 0.5,
        "targetNpcAlias": "",
        "targetNpcLookAtPoint": "",
        "OAFJBHJHLJG": ""
      },
      {
        "$type": "PKKMAMONGEO",
        "type": "DIALOG",
        "aliasList": [
          "10258"
        ],
        "dialogID": 715000124,
        "protectTime": 0.5
      }
    ],
    [
      {
        "$type": "FJKIHHKJLMJ",
        "type": "CAMERA_MOVE",
        "delayTime": 0.10000000149011612,
        "duration": 16.006000518798828,
        "camPosOffset": {
          "x": 936.5020141601562,
          "y": 378.5159912109375,
          "z": 1580.633056640625
        },
        "camForwardTargetOffset": {
          "x": 937.3040161132812,
          "y": 378.44000244140625,
          "z": 1580.0400390625
        },
        "camFov": 10.0,
        "cameraBlendType": "EaseOutQuad",
        "NJBNNOMLKCK": {},
        "openCameraDither": false,
        "targetNpcAlias": "",
        "KJOEFBPOIIH": "",
        "IICFKKEBIEC": "",
        "EGEHEJEBLBJ": ""
      },
      {
        "$type": "FJKIHHKJLMJ",
        "type": "CAMERA_MOVE",
        "duration": 1.0,
        "camPosOffset": {
          "x": 936.531005859375,
          "y": 378.51800537109375,
          "z": 1580.6729736328125
        },
        "camForwardTargetOffset": {
          "x": 937.3330078125,
          "y": 378.4419860839844,
          "z": 1580.0799560546875
        },
        "camFov": 10.0,
        "lerpPattern": 6,
        "cameraBlendType": "EaseInOutCubic",
        "NJBNNOMLKCK": {},
        "openCameraDither": false,
        "targetNpcAlias": "",
        "KJOEFBPOIIH": "",
        "IICFKKEBIEC": "",
        "EGEHEJEBLBJ": ""
      },
      {
        "$type": "PKKMAMONGEO",
        "type": "DIALOG",
        "aliasList": [
          "10258"
        ],
        "dialogID": 715000125,
        "protectTime": 0.5
      },
      {
        "$type": "LJLMDHDCAMK",
        "type": "LOOK_AT",
        "aliasList": [
          "10258"
        ],
        "enableHead": true,
        "useTargetPos": true,
        "enableAbsolute": true,
        "targetPosition": {
          "x": 943.7260131835938,
          "y": 377.9100036621094,
          "z": 1573.5760498046875
        },
        "headTurnTime": 0.5,
        "targetNpcAlias": "",
        "targetNpcLookAtPoint": "",
        "OAFJBHJHLJG": ""
      }
    ],
    [
      {
        "$type": "FJKIHHKJLMJ",
        "type": "CAMERA_MOVE",
        "delayTime": 0.10000000149011612,
        "duration": 5.59499979019165,
        "camPosOffset": {
          "x": 948.1220092773438,
          "y": 378.1419982910156,
          "z": 1575.06201171875
        },
        "camForwardTargetOffset": {
          "x": 947.135986328125,
          "y": 377.99798583984375,
          "z": 1574.97900390625
        },
        "cameraBlendType": "EaseOutQuad",
        "NJBNNOMLKCK": {},
        "openCameraDither": false,
        "targetNpcAlias": "",
        "KJOEFBPOIIH": "",
        "IICFKKEBIEC": "",
        "EGEHEJEBLBJ": ""
      },
      {
        "$type": "FJKIHHKJLMJ",
        "type": "CAMERA_MOVE",
        "duration": 0.8889999985694885,
        "camPosOffset": {
          "x": 948.2139892578125,
          "y": 378.156005859375,
          "z": 1575.0699462890625
        },
        "camForwardTargetOffset": {
          "x": 947.22802734375,
          "y": 378.0119934082031,
          "z": 1574.987060546875
        },
        "lerpPattern": 6,
        "cameraBlendType": "EaseInOutCubic",
        "NJBNNOMLKCK": {},
        "openCameraDither": false,
        "targetNpcAlias": "",
        "KJOEFBPOIIH": "",
        "IICFKKEBIEC": "",
        "EGEHEJEBLBJ": ""
      },
      {
        "$type": "LJLMDHDCAMK",
        "type": "LOOK_AT",
        "delayTime": 0.3330000042915344,
        "aliasList": [
          "Avatar"
        ],
        "enableHead": true,
        "useTargetPos": true,
        "enableAbsolute": true,
        "targetPosition": {
          "x": 944.6220092773438,
          "y": 378.00299072265625,
          "z": 1574.7919921875
        },
        "enableBody": true,
        "headTurnTime": 0.5,
        "targetNpcAlias": "",
        "targetNpcLookAtPoint": "",
        "OAFJBHJHLJG": ""
      },
      {
        "$type": "PKKMAMONGEO",
        "type": "DIALOG",
        "aliasList": [
          "10258"
        ],
        "dialogID": 715000126,
        "protectTime": 0.5
      },
      {
        "$type": "LJLMDHDCAMK",
        "type": "LOOK_AT",
        "aliasList": [
          "10258"
        ],
        "enableHead": true,
        "useTargetPos": true,
        "enableAbsolute": true,
        "targetPosition": {
          "x": 944.031982421875,
          "y": 378.2650146484375,
          "z": 1574.1689453125
        },
        "headTurnTime": 0.5,
        "targetNpcAlias": "",
        "targetNpcLookAtPoint": "",
        "OAFJBHJHLJG": ""
      }
    ],
    [
      {
        "$type": "FJKIHHKJLMJ",
        "type": "CAMERA_MOVE",
        "duration": 4.593999862670898,
        "camPosOffset": {
          "x": 941.3330078125,
          "y": 378.2640075683594,
          "z": 1574.4420166015625
        },
        "camForwardTargetOffset": {
          "x": 942.3200073242188,
          "y": 378.1440124511719,
          "z": 1574.3310546875
        },
        "camFov": 30.0,
        "lerpPattern": 6,
        "cameraBlendType": "EaseInOutCubic",
        "NJBNNOMLKCK": {},
        "openCameraDither": false,
        "targetNpcAlias": "",
        "KJOEFBPOIIH": "",
        "IICFKKEBIEC": "",
        "EGEHEJEBLBJ": ""
      },
      {
        "$type": "LJLMDHDCAMK",
        "type": "LOOK_AT",
        "delayTime": 0.5479999780654907,
        "aliasList": [
          "Avatar"
        ],
        "enableHead": true,
        "useTargetPos": true,
        "enableAbsolute": true,
        "headTurnTime": 0.5,
        "targetNpcAlias": "10258",
        "targetNpcLookAtPoint": "",
        "OAFJBHJHLJG": ""
      },
      {
        "$type": "LJLMDHDCAMK",
        "type": "LOOK_AT",
        "aliasList": [
          "Avatar"
        ],
        "enableHead": true,
        "useTargetPos": true,
        "enableAbsolute": true,
        "targetPosition": {
          "x": 944.6220092773438,
          "y": 378.00299072265625,
          "z": 1574.7919921875
        },
        "enableBody": true,
        "headTurnTime": 0.5,
        "targetNpcAlias": "",
        "targetNpcLookAtPoint": "",
        "OAFJBHJHLJG": ""
      },
      {
        "$type": "PKKMAMONGEO",
        "type": "DIALOG",
        "aliasList": [
          "10258"
        ],
        "dialogID": 715000127,
        "protectTime": 0.5
      },
      {
        "$type": "LJLMDHDCAMK",
        "type": "LOOK_AT",
        "aliasList": [
          "10258"
        ],
        "enableHead": true,
        "useTargetPos": true,
        "enableAbsolute": true,
        "headTurnTime": 0.5,
        "targetNpcAlias": "Avatar",
        "targetNpcLookAtPoint": "",
        "OAFJBHJHLJG": ""
      }
    ],
    [
      {
        "$type": "FJKIHHKJLMJ",
        "type": "CAMERA_MOVE",
        "delayTime": 0.10000000149011612,
        "duration": 5.669000148773193,
        "camPosOffset": {
          "x": 946.2689819335938,
          "y": 377.7640075683594,
          "z": 1575.5469970703125
        },
        "camForwardTargetOffset": {
          "x": 946.1480102539062,
          "y": 377.87701416015625,
          "z": 1574.56103515625
        },
        "camFov": 30.0,
        "cameraBlendType": "EaseOutQuad",
        "NJBNNOMLKCK": {},
        "openCameraDither": false,
        "targetNpcAlias": "",
        "KJOEFBPOIIH": "",
        "IICFKKEBIEC": "",
        "EGEHEJEBLBJ": ""
      },
      {
        "$type": "FJKIHHKJLMJ",
        "type": "CAMERA_MOVE",
        "duration": 1.0,
        "camPosOffset": {
          "x": 946.2750244140625,
          "y": 377.7590026855469,
          "z": 1575.593994140625
        },
        "camForwardTargetOffset": {
          "x": 946.1539916992188,
          "y": 377.87200927734375,
          "z": 1574.6080322265625
        },
        "camFov": 30.0,
        "lerpPattern": 6,
        "cameraBlendType": "EaseInOutCubic",
        "NJBNNOMLKCK": {},
        "openCameraDither": false,
        "targetNpcAlias": "",
        "KJOEFBPOIIH": "",
        "IICFKKEBIEC": "",
        "EGEHEJEBLBJ": ""
      },
      {
        "$type": "PKKMAMONGEO",
        "type": "DIALOG",
        "aliasList": [
          "10258"
        ],
        "dialogID": 715000128,
        "protectTime": 0.5
      }
    ],
    [
      {
        "$type": "FJKIHHKJLMJ",
        "type": "CAMERA_MOVE",
        "delayTime": 0.10000000149011612,
        "duration": 5.816999912261963,
        "camPosOffset": {
          "x": 954.030029296875,
          "y": 379.9339904785156,
          "z": 1577.5269775390625
        },
        "camForwardTargetOffset": {
          "x": 953.0540161132812,
          "y": 379.760009765625,
          "z": 1577.39501953125
        },
        "camFov": 30.0,
        "cameraBlendType": "EaseOutQuad",
        "NJBNNOMLKCK": {},
        "openCameraDither": false,
        "targetNpcAlias": "",
        "KJOEFBPOIIH": "",
        "IICFKKEBIEC": "",
        "EGEHEJEBLBJ": ""
      },
      {
        "$type": "FJKIHHKJLMJ",
        "type": "CAMERA_MOVE",
        "duration": 1.0,
        "camPosOffset": {
          "x": 954.1909790039062,
          "y": 379.9630126953125,
          "z": 1577.5489501953125
        },
        "camForwardTargetOffset": {
          "x": 953.2150268554688,
          "y": 379.78900146484375,
          "z": 1577.4169921875
        },
        "camFov": 30.0,
        "lerpPattern": 6,
        "cameraBlendType": "EaseInOutCubic",
        "NJBNNOMLKCK": {},
        "openCameraDither": false,
        "targetNpcAlias": "",
        "KJOEFBPOIIH": "",
        "IICFKKEBIEC": "",
        "EGEHEJEBLBJ": ""
      },
      {
        "$type": "PKKMAMONGEO",
        "type": "DIALOG",
        "aliasList": [
          "10258"
        ],
        "dialogID": 715000129,
        "protectTime": 0.5
      },
      {
        "$type": "LJLMDHDCAMK",
        "type": "LOOK_AT",
        "aliasList": [
          "10258"
        ],
        "enableHead": true,
        "useTargetPos": true,
        "enableAbsolute": true,
        "targetPosition": {
          "x": 941.39501953125,
          "y": 378.12799072265625,
          "z": 1574.16796875
        },
        "headTurnTime": 0.5,
        "targetNpcAlias": "",
        "targetNpcLookAtPoint": "",
        "OAFJBHJHLJG": ""
      }
    ],
    [
      {
        "$type": "FJKIHHKJLMJ",
        "type": "CAMERA_MOVE",
        "delayTime": 0.10000000149011612,
        "duration": 6.076000213623047,
        "camPosOffset": {
          "x": 944.0170288085938,
          "y": 378.1159973144531,
          "z": 1574.387939453125
        },
        "camForwardTargetOffset": {
          "x": 945.0020141601562,
          "y": 378.0610046386719,
          "z": 1574.2259521484375
        },
        "camFov": 30.0,
        "cameraBlendType": "EaseOutQuad",
        "NJBNNOMLKCK": {},
        "openCameraDither": false,
        "targetNpcAlias": "",
        "KJOEFBPOIIH": "",
        "IICFKKEBIEC": "",
        "EGEHEJEBLBJ": ""
      },
      {
        "$type": "FJKIHHKJLMJ",
        "type": "CAMERA_MOVE",
        "duration": 0.9629999995231628,
        "camPosOffset": {
          "x": 943.9359741210938,
          "y": 378.1210021972656,
          "z": 1574.4010009765625
        },
        "camForwardTargetOffset": {
          "x": 944.9210205078125,
          "y": 378.0660095214844,
          "z": 1574.239013671875
        },
        "camFov": 30.0,
        "lerpPattern": 6,
        "cameraBlendType": "EaseInOutCubic",
        "NJBNNOMLKCK": {},
        "openCameraDither": false,
        "targetNpcAlias": "",
        "KJOEFBPOIIH": "",
        "IICFKKEBIEC": "",
        "EGEHEJEBLBJ": ""
      },
      {
        "$type": "PKKMAMONGEO",
        "type": "DIALOG",
        "aliasList": [
          "10258"
        ],
        "dialogID": 715000130,
        "protectTime": 0.5
      },
      {
        "$type": "LJLMDHDCAMK",
        "type": "LOOK_AT",
        "aliasList": [
          "10258"
        ],
        "enableHead": true,
        "useTargetPos": true,
        "enableAbsolute": true,
        "headTurnTime": 0.5,
        "targetNpcAlias": "Avatar",
        "targetNpcLookAtPoint": "",
        "OAFJBHJHLJG": ""
      }
    ],
    [
      {
        "$type": "FJKIHHKJLMJ",
        "type": "CAMERA_MOVE",
        "delayTime": 0.10000000149011612,
        "duration": 20.445999145507812,
        "camPosOffset": {
          "x": 938.4019775390625,
          "y": 382.5140075683594,
          "z": 1578.2440185546875
        },
        "camForwardTargetOffset": {
          "x": 939.1630249023438,
          "y": 382.02301025390625,
          "z": 1577.8199462890625
        },
        "camFov": 30.0,
        "cameraBlendType": "EaseOutQuad",
        "NJBNNOMLKCK": {},
        "openCameraDither": false,
        "targetNpcAlias": "",
        "KJOEFBPOIIH": "",
        "IICFKKEBIEC": "",
        "EGEHEJEBLBJ": ""
      },
      {
        "$type": "FJKIHHKJLMJ",
        "type": "CAMERA_MOVE",
        "duration": 1.0,
        "camPosOffset": {
          "x": 938.72998046875,
          "y": 382.4639892578125,
          "z": 1578.833984375
        },
        "camForwardTargetOffset": {
          "x": 939.4569702148438,
          "y": 381.9779968261719,
          "z": 1578.3480224609375
        },
        "camFov": 30.0,
        "lerpPattern": 6,
        "cameraBlendType": "EaseInOutCubic",
        "NJBNNOMLKCK": {},
        "openCameraDither": false,
        "targetNpcAlias": "",
        "KJOEFBPOIIH": "",
        "IICFKKEBIEC": "",
        "EGEHEJEBLBJ": ""
      },
      {
        "$type": "LJLMDHDCAMK",
        "type": "LOOK_AT",
        "delayTime": 0.5920000076293945,
        "aliasList": [
          "Avatar"
        ],
        "enableHead": true,
        "useTargetPos": true,
        "enableAbsolute": true,
        "targetPosition": {
          "x": 943.2869873046875,
          "y": 377.9259948730469,
          "z": 1574.5560302734375
        },
        "headTurnTime": 0.5,
        "targetNpcAlias": "",
        "targetNpcLookAtPoint": "",
        "OAFJBHJHLJG": ""
      },
      {
        "$type": "PKKMAMONGEO",
        "type": "DIALOG",
        "aliasList": [
          "10258"
        ],
        "dialogID": 715000131,
        "protectTime": 0.5
      },
      {
        "$type": "LJLMDHDCAMK",
        "type": "LOOK_AT",
        "aliasList": [
          "10258"
        ],
        "enableHead": true,
        "useTargetPos": true,
        "enableAbsolute": true,
        "targetPosition": {
          "x": 943.7440185546875,
          "y": 377.5299987792969,
          "z": 1572.281005859375
        },
        "headTurnTime": 0.5,
        "targetNpcAlias": "",
        "targetNpcLookAtPoint": "",
        "OAFJBHJHLJG": ""
      },
      {
        "$type": "LJLMDHDCAMK",
        "type": "LOOK_AT",
        "delayTime": 0.8790000081062317,
        "aliasList": [
          "10258"
        ],
        "enableHead": true,
        "useTargetPos": true,
        "enableAbsolute": true,
        "targetPosition": {
          "x": 943.4299926757812,
          "y": 377.5190124511719,
          "z": 1574.615966796875
        },
        "headTurnTime": 0.5,
        "targetNpcAlias": "",
        "targetNpcLookAtPoint": "",
        "OAFJBHJHLJG": ""
      },
      {
        "$type": "MoleMole.Config.ConfigTimeProtectAction",
        "type": "TIME_PROTECT",
        "duration": 1.5,
        "aliasList": [
          "10258"
        ]
      }
    ],
    [
      {
        "$type": "FJKIHHKJLMJ",
        "type": "CAMERA_MOVE",
        "duration": 3.4079999923706055,
        "camPosOffset": {
          "x": 945.1519775390625,
          "y": 378.1369934082031,
          "z": 1575.1839599609375
        },
        "camForwardTargetOffset": {
          "x": 945.3759765625,
          "y": 378.0849914550781,
          "z": 1574.2110595703125
        },
        "camFov": 30.0,
        "lerpPattern": 6,
        "cameraBlendType": "EaseInOutCubic",
        "NJBNNOMLKCK": {},
        "openCameraDither": false,
        "targetNpcAlias": "",
        "KJOEFBPOIIH": "",
        "IICFKKEBIEC": "",
        "EGEHEJEBLBJ": ""
      },
      {
        "$type": "PKKMAMONGEO",
        "type": "DIALOG",
        "aliasList": [
          "10258"
        ],
        "dialogID": 715000132,
        "protectTime": 0.5
      },
      {
        "$type": "LJLMDHDCAMK",
        "type": "LOOK_AT",
        "aliasList": [
          "10258"
        ],
        "enableHead": true,
        "useTargetPos": true,
        "enableAbsolute": true,
        "targetPosition": {
          "x": 942.5460205078125,
          "y": 378.4460144042969,
          "z": 1574.696044921875
        },
        "headTurnTime": 0.5,
        "targetNpcAlias": "",
        "targetNpcLookAtPoint": "",
        "OAFJBHJHLJG": ""
      }
    ],
    [
      {
        "$type": "MoleMole.Config.ConfigLuaAction",
        "type": "LUA_ACTION",
        "duration": 0.10000000149011612,
        "invoke": true,
        "invokeAlias": "71500",
        "invokeParam": 1
      },
      {
        "$type": "FJKIHHKJLMJ",
        "type": "CAMERA_MOVE",
        "delayTime": 0.10000000149011612,
        "duration": 2.9119999408721924,
        "camPosOffset": {
          "x": 932.1640014648438,
          "y": 380.2019958496094,
          "z": 1575.2440185546875
        },
        "camForwardTargetOffset": {
          "x": 931.2459716796875,
          "y": 379.8380126953125,
          "z": 1575.4029541015625
        },
        "camFov": 30.0,
        "cameraBlendType": "Linear",
        "NJBNNOMLKCK": {},
        "openCameraDither": false,
        "targetNpcAlias": "",
        "KJOEFBPOIIH": "",
        "IICFKKEBIEC": "",
        "EGEHEJEBLBJ": ""
      },
      {
        "$type": "FJKIHHKJLMJ",
        "type": "CAMERA_MOVE",
        "delayTime": 3.0299999713897705,
        "duration": 1.944000005722046,
        "camPosOffset": {
          "x": 936.1259765625,
          "y": 382.0889892578125,
          "z": 1568.4580078125
        },
        "camForwardTargetOffset": {
          "x": 935.64501953125,
          "y": 381.85400390625,
          "z": 1569.302978515625
        },
        "camFov": 30.0,
        "cameraBlendType": "EaseOutQuint",
        "NJBNNOMLKCK": {},
        "openCameraDither": false,
        "targetNpcAlias": "",
        "KJOEFBPOIIH": "",
        "IICFKKEBIEC": "",
        "EGEHEJEBLBJ": ""
      },
      {
        "$type": "FJKIHHKJLMJ",
        "type": "CAMERA_MOVE",
        "delayTime": 4.985000133514404,
        "duration": 11.387999534606934,
        "camPosOffset": {
          "x": 935.8930053710938,
          "y": 382.06201171875,
          "z": 1568.322998046875
        },
        "camForwardTargetOffset": {
          "x": 935.43798828125,
          "y": 381.8299865722656,
          "z": 1569.1820068359375
        },
        "camFov": 30.0,
        "cameraBlendType": "EaseOutQuad",
        "NJBNNOMLKCK": {},
        "openCameraDither": false,
        "targetNpcAlias": "",
        "KJOEFBPOIIH": "",
        "IICFKKEBIEC": "",
        "EGEHEJEBLBJ": ""
      },
      {
        "$type": "MoleMole.Config.ConfigTimeProtectAction",
        "type": "TIME_PROTECT",
        "delayTime": 6.947000026702881,
        "duration": 2.0
      },
      {
        "$type": "FJKIHHKJLMJ",
        "type": "CAMERA_MOVE",
        "duration": 1.0,
        "camPosOffset": {
          "x": 932.1820068359375,
          "y": 380.2019958496094,
          "z": 1575.3570556640625
        },
        "camForwardTargetOffset": {
          "x": 931.2589721679688,
          "y": 379.8380126953125,
          "z": 1575.4830322265625
        },
        "camFov": 30.0,
        "lerpPattern": 6,
        "cameraBlendType": "EaseInOutCubic",
        "NJBNNOMLKCK": {},
        "openCameraDither": false,
        "targetNpcAlias": "",
        "KJOEFBPOIIH": "",
        "IICFKKEBIEC": "",
        "EGEHEJEBLBJ": ""
      },
      {
        "$type": "PKKMAMONGEO",
        "type": "DIALOG",
        "aliasList": [
          "10258"
        ],
        "dialogID": 715000133,
        "protectTime": 0.5
      },
      {
        "$type": "MoleMole.Config.ConfigTimeProtectAction",
        "type": "TIME_PROTECT",
        "duration": 6.0,
        "aliasList": [
          "10258"
        ]
      }
    ],
    [
      {
        "$type": "FJKIHHKJLMJ",
        "type": "CAMERA_MOVE",
        "delayTime": 0.10000000149011612,
        "duration": 15.121000289916992,
        "camPosOffset": {
          "x": 952.4829711914062,
          "y": 379.1629943847656,
          "z": 1568.72705078125
        },
        "camForwardTargetOffset": {
          "x": 951.6829833984375,
          "y": 379.0610046386719,
          "z": 1569.3179931640625
        },
        "camFov": 30.0,
        "cameraBlendType": "EaseOutQuad",
        "NJBNNOMLKCK": {},
        "openCameraDither": false,
        "targetNpcAlias": "",
        "KJOEFBPOIIH": "",
        "IICFKKEBIEC": "",
        "EGEHEJEBLBJ": ""
      },
      {
        "$type": "FJKIHHKJLMJ",
        "type": "CAMERA_MOVE",
        "duration": 1.9259999990463257,
        "camPosOffset": {
          "x": 952.552978515625,
          "y": 379.1780090332031,
          "z": 1568.8280029296875
        },
        "camForwardTargetOffset": {
          "x": 951.739013671875,
          "y": 379.072998046875,
          "z": 1569.4000244140625
        },
        "camFov": 30.0,
        "lerpPattern": 6,
        "cameraBlendType": "EaseInOutCubic",
        "NJBNNOMLKCK": {},
        "openCameraDither": false,
        "targetNpcAlias": "",
        "KJOEFBPOIIH": "",
        "IICFKKEBIEC": "",
        "EGEHEJEBLBJ": ""
      },
      {
        "$type": "LJLMDHDCAMK",
        "type": "LOOK_AT",
        "delayTime": 0.28999999165534973,
        "aliasList": [
          "Avatar"
        ],
        "enableHead": true,
        "useTargetPos": true,
        "enableAbsolute": true,
        "headTurnTime": 0.5,
        "targetNpcAlias": "10258",
        "targetNpcLookAtPoint": "",
        "OAFJBHJHLJG": ""
      },
      {
        "$type": "PKKMAMONGEO",
        "type": "DIALOG",
        "aliasList": [
          "10258"
        ],
        "dialogID": 715000134,
        "protectTime": 0.5
      },
      {
        "$type": "LJLMDHDCAMK",
        "type": "LOOK_AT",
        "aliasList": [
          "10258"
        ],
        "enableHead": true,
        "useTargetPos": true,
        "enableAbsolute": true,
        "headTurnTime": 0.5,
        "targetNpcAlias": "Avatar",
        "targetNpcLookAtPoint": "",
        "OAFJBHJHLJG": ""
      }
    ],
    [
      {
        "$type": "FJKIHHKJLMJ",
        "type": "CAMERA_MOVE",
        "delayTime": 0.5460000038146973,
        "duration": 0.10000000149011612,
        "camPosOffset": {
          "x": 949.1610107421875,
          "y": 377.635009765625,
          "z": 1577.2950439453125
        },
        "camForwardTargetOffset": {
          "x": 948.448974609375,
          "y": 377.54901123046875,
          "z": 1576.5980224609375
        },
        "lerpPattern": 6,
        "cameraBlendType": "EaseInOutCubic",
        "NJBNNOMLKCK": {},
        "openCameraDither": false,
        "targetNpcAlias": "",
        "KJOEFBPOIIH": "",
        "IICFKKEBIEC": "",
        "EGEHEJEBLBJ": ""
      },
      {
        "$type": "MoleMole.Config.ConfigTimeProtectAction",
        "type": "TIME_PROTECT",
        "duration": 1.0
      },
      {
        "$type": "MoleMole.Config.ConfigSimpleBlackScreenAction",
        "type": "SIMPLE_BLACK_SCREEN",
        "duration": 2.0,
        "durationToBlack": 0.5,
        "durationKeepBlack": 1.0,
        "durationFromBlack": 0.5,
        "textMapID": "",
        "useTextFade": true
      }
    ]
  ],
  "groupId": [
    {
      "grpId": 3619461681,
      "nextGrpId": 3619461682
    },
    {
      "index": 1,
      "grpId": 3619461682,
      "nextGrpId": 3619461683
    },
    {
      "index": 2,
      "grpId": 3619461683,
      "nextGrpId": 3619461684
    },
    {
      "index": 3,
      "grpId": 3619461684,
      "nextGrpId": 3619461685
    },
    {
      "index": 4,
      "grpId": 3619461685,
      "nextGrpId": 3619461686
    },
    {
      "index": 5,
      "grpId": 3619461686,
      "nextGrpId": 3619461687
    },
    {
      "index": 6,
      "grpId": 3619461687,
      "nextGrpId": 3619461688
    },
    {
      "index": 7,
      "grpId": 3619461688,
      "nextGrpId": 3619461689
    },
    {
      "index": 8,
      "grpId": 3619461689,
      "nextGrpId": 534162463
    },
    {
      "index": 9,
      "grpId": 534162463,
      "nextGrpId": 534162464
    },
    {
      "index": 10,
      "grpId": 534162464,
      "nextGrpId": 534162465
    },
    {
      "index": 11,
      "grpId": 534162465,
      "nextGrpId": 534162466
    },
    {
      "index": 12,
      "grpId": 534162466,
      "nextGrpId": 534162467
    },
    {
      "index": 13,
      "grpId": 534162467,
      "nextGrpId": 534162468
    },
    {
      "index": 14,
      "grpId": 534162468,
      "nextGrpId": 534162469
    },
    {
      "index": 15,
      "grpId": 534162469,
      "nextGrpId": 534162470
    },
    {
      "index": 16,
      "grpId": 534162470,
      "nextGrpId": 534162494
    },
    {
      "index": 17,
      "grpId": 534162471,
      "nextGrpId": 534162472
    },
    {
      "index": 18,
      "grpId": 534162472,
      "nextGrpId": 534162494
    },
    {
      "index": 19,
      "grpId": 534162494,
      "nextGrpId": 534162495
    },
    {
      "index": 20,
      "grpId": 534162495,
      "nextGrpId": 534162496
    },
    {
      "index": 21,
      "grpId": 534162496,
      "nextGrpId": 534162497
    },
    {
      "index": 22,
      "grpId": 534162497,
      "nextGrpId": 534162498
    },
    {
      "index": 23,
      "grpId": 534162498,
      "nextGrpId": 534162499
    },
    {
      "index": 24,
      "grpId": 534162499,
      "nextGrpId": 534162500
    },
    {
      "index": 25,
      "grpId": 534162500,
      "nextGrpId": 534162501
    },
    {
      "index": 26,
      "grpId": 534162501,
      "nextGrpId": 534162502
    },
    {
      "index": 27,
      "grpId": 534162502,
      "nextGrpId": 534162503
    },
    {
      "index": 28,
      "grpId": 534162503,
      "nextGrpId": 534162525
    },
    {
      "index": 29,
      "grpId": 534162525,
      "nextGrpId": 534162526
    }
  ]
}