{
  "luaDataPath": "",
  "startBlackKeepTime": 1.0,
  "entityBan": "",
  "disableNpcLod": true,
  "protectNpcMobileLod": true,
  "talkFlag": 7,
  "startFade": {
    "startFadeInDuration": 0.20000000298023224,
    "startFadeOutDuration": 0.20000000298023224
  },
  "endFade": {
    "startFadeOutDuration": 0.0
  },
  "actors": [
    {
      "alias": "Avatar",
      "visible": true,
      "bornPointName": "",
      "relativePosType": "AVATAR_NEW",
      "relativePosNpcAlias": "",
      "_notDestroyInTalk": true,
      "_bindMovingTargetKey": ""
    },
    {
      "configID": 501,
      "alias": "501",
      "visible": true,
      "bornPointName": "COOP101401Babala01",
      "relativePosType": "AVATAR_NEW",
      "relativePosNpcAlias": "",
      "_notDestroyInTalk": true,
      "_bindMovingTargetKey": ""
    }
  ],
  "group": [
    [
      {
        "$type": "MoleMole.Config.ConfigCameraDOFAction",
        "type": "CAMERA_DOF",
        "delayTime": 0.30000001192092896,
        "actionId": 128,
        "focusDistance": 6.0,
        "focusRange": 6.0,
        "quality": 3
      },
      {
        "$type": "FJKIHHKJLMJ",
        "type": "CAMERA_MOVE",
        "delayTime": 0.30000001192092896,
        "actionId": 129,
        "cameraPosType": "RELATIVE_TO_TARGET_ENTITY",
        "camTargetType": "RELATIVE_TO_TARGET_ENTITY",
        "camFov": 30.0,
        "lerpPattern": 6,
        "cameraBlendType": "EaseInOutCubic",
        "NJBNNOMLKCK": {},
        "targetNpcAlias": "501",
        "KJOEFBPOIIH": "",
        "IICFKKEBIEC": "",
        "EGEHEJEBLBJ": ""
      },
      {
        "$type": "MoleMole.Config.ConfigVisibleInterAction",
        "type": "VISIBLE",
        "delayTime": 0.30000001192092896,
        "aliasList": [
          "Avatar"
        ],
        "actionId": 137,
        "_extraParam": ""
      },
      {
        "$type": "MoleMole.Config.ConfigEmotionTemplateAction",
        "type": "EMOTION_TEMPLATE",
        "delayTime": 0.30000001192092896,
        "aliasList": [
          "501"
        ],
        "actionId": 144,
        "_flag": 384,
        "emoTemplateID": 10100
      },
      {
        "$type": "LJLMDHDCAMK",
        "type": "LOOK_AT",
        "delayTime": 0.30000001192092896,
        "aliasList": [
          "501"
        ],
        "actionId": 145,
        "_flag": 64,
        "enableHead": true,
        "enableAbsolute": true,
        "targetOffset": {
          "x": 2347.527099609375,
          "y": 261.25201416015625,
          "z": -699.9879760742188
        },
        "targetPosition": {
          "x": 2020.490966796875,
          "y": 261.9219970703125,
          "z": -359.2409973144531
        },
        "headTurnTime": 0.30000001192092896,
        "targetNpcAlias": "",
        "lookAtTargetType": "CAMERA",
        "targetNpcLookAtPoint": "",
        "OAFJBHJHLJG": ""
      }
    ],
    [
      {
        "$type": "FJKIHHKJLMJ",
        "type": "CAMERA_MOVE",
        "actionId": 130,
        "cameraPosType": "RELATIVE_TO_TARGET_ENTITY",
        "camTargetType": "RELATIVE_TO_TARGET_ENTITY",
        "camFov": 30.0,
        "lerpPattern": 6,
        "cameraBlendType": "EaseInOutCubic",
        "NJBNNOMLKCK": {},
        "targetNpcAlias": "501",
        "KJOEFBPOIIH": "",
        "IICFKKEBIEC": "",
        "EGEHEJEBLBJ": ""
      },
      {
        "$type": "PKKMAMONGEO",
        "type": "DIALOG",
        "aliasList": [
          "501"
        ],
        "actionId": 146,
        "dialogID": 1900203101,
        "protectTime": 0.4000000059604645
      },
      {
        "$type": "MoleMole.Config.ConfigEmotionTemplateAction",
        "type": "EMOTION_TEMPLATE",
        "aliasList": [
          "501"
        ],
        "actionId": 147,
        "_flag": 384,
        "emoTemplateID": 10100
      },
      {
        "$type": "CPJKOIHIPBE",
        "type": "EMO_SYNC",
        "aliasList": [
          "501"
        ],
        "actionId": 148,
        "_flag": 256,
        "dataPath": "Cs_Emo_Avatar_Simple_Common_Set/Cs_Emo_Avatar_Talk/Cs_Emo_Coop_Common/Cs_Emo_Coop_Barbara_01/Cs_Emo_1900203101",
        "phonemePath": "",
        "emotionPath": "",
        "mateDataPath": "",
        "matePhonemePath": "",
        "mateEmotionPath": "",
        "dataPathHashList": [
          4626981221058833153,
          11927966542294429707,
          16314304224837231368,
          10466285243074615307
        ],
        "FMDPBECPELH": "",
        "ADKBLPOKGIK": ""
      },
      {
        "$type": "HDGKHDNFMIM",
        "type": "DIALOG_SELECT",
        "delayTime": 0.4000000059604645,
        "aliasList": [
          "Avatar"
        ],
        "actionId": 138,
        "dialogIDList": [
          1900203102
        ],
        "grpIDList": [
          1286890596
        ],
        "useGrpId": true,
        "countDownGrpId": 1286890593
      }
    ],
    [
      {
        "$type": "PKKMAMONGEO",
        "type": "DIALOG",
        "aliasList": [
          "501"
        ],
        "actionId": 149,
        "dialogID": 1900203103,
        "protectTime": 0.4000000059604645
      },
      {
        "$type": "CPJKOIHIPBE",
        "type": "EMO_SYNC",
        "aliasList": [
          "501"
        ],
        "actionId": 150,
        "_flag": 256,
        "dataPath": "Cs_Emo_Avatar_Simple_Common_Set/Cs_Emo_Avatar_Talk/Cs_Emo_Coop_Common/Cs_Emo_Coop_Barbara_01/Cs_Emo_1900203103",
        "phonemePath": "",
        "emotionPath": "",
        "mateDataPath": "",
        "matePhonemePath": "",
        "mateEmotionPath": "",
        "dataPathHashList": [
          4876172649255051283,
          15054135710813115770,
          12544859173777068459,
          14302808034038031945
        ],
        "FMDPBECPELH": "",
        "ADKBLPOKGIK": ""
      },
      {
        "$type": "HDGKHDNFMIM",
        "type": "DIALOG_SELECT",
        "delayTime": 0.4000000059604645,
        "aliasList": [
          "Avatar"
        ],
        "actionId": 139,
        "dialogIDList": [
          1900203104
        ],
        "grpIDList": [
          1286890597
        ],
        "useGrpId": true,
        "countDownGrpId": 1286890593
      }
    ],
    [
      {
        "$type": "PKKMAMONGEO",
        "type": "DIALOG",
        "aliasList": [
          "501"
        ],
        "actionId": 151,
        "dialogID": 1900203105
      },
      {
        "$type": "MoleMole.Config.ConfigEmotionTemplateAction",
        "type": "EMOTION_TEMPLATE",
        "aliasList": [
          "501"
        ],
        "actionId": 152,
        "_flag": 384,
        "emoTemplateID": 10801
      },
      {
        "$type": "CPJKOIHIPBE",
        "type": "EMO_SYNC",
        "aliasList": [
          "501"
        ],
        "actionId": 153,
        "_flag": 256,
        "dataPath": "Cs_Emo_Avatar_Simple_Common_Set/Cs_Emo_Avatar_Talk/Cs_Emo_Coop_Common/Cs_Emo_Coop_Barbara_01/Cs_Emo_1900203105",
        "phonemePath": "",
        "emotionPath": "",
        "mateDataPath": "",
        "matePhonemePath": "",
        "mateEmotionPath": "",
        "dataPathHashList": [
          6136446510310276861,
          4692146962184027322,
          12487407532301515913,
          9177667251906900032
        ],
        "FMDPBECPELH": "",
        "ADKBLPOKGIK": ""
      }
    ],
    [
      {
        "$type": "PKKMAMONGEO",
        "type": "DIALOG",
        "aliasList": [
          "501"
        ],
        "actionId": 154,
        "dialogID": 1900203106
      },
      {
        "$type": "MoleMole.Config.ConfigEmotionTemplateAction",
        "type": "EMOTION_TEMPLATE",
        "aliasList": [
          "501"
        ],
        "actionId": 155,
        "_flag": 384,
        "emoTemplateID": 10100
      },
      {
        "$type": "CPJKOIHIPBE",
        "type": "EMO_SYNC",
        "aliasList": [
          "501"
        ],
        "actionId": 156,
        "_flag": 256,
        "dataPath": "Cs_Emo_Avatar_Simple_Common_Set/Cs_Emo_Avatar_Talk/Cs_Emo_Coop_Common/Cs_Emo_Coop_Barbara_01/Cs_Emo_1900203106",
        "phonemePath": "",
        "emotionPath": "",
        "mateDataPath": "",
        "matePhonemePath": "",
        "mateEmotionPath": "",
        "dataPathHashList": [
          12350358633978998541,
          13136999028688078679,
          11689351478609975302,
          6413267854923321895
        ],
        "FMDPBECPELH": "",
        "ADKBLPOKGIK": ""
      }
    ],
    [
      {
        "$type": "PKKMAMONGEO",
        "type": "DIALOG",
        "aliasList": [
          "501"
        ],
        "actionId": 157,
        "dialogID": 1900203107
      },
      {
        "$type": "CPJKOIHIPBE",
        "type": "EMO_SYNC",
        "aliasList": [
          "501"
        ],
        "actionId": 158,
        "_flag": 256,
        "dataPath": "Cs_Emo_Avatar_Simple_Common_Set/Cs_Emo_Avatar_Talk/Cs_Emo_Coop_Common/Cs_Emo_Coop_Barbara_01/Cs_Emo_1900203107",
        "phonemePath": "",
        "emotionPath": "",
        "mateDataPath": "",
        "matePhonemePath": "",
        "mateEmotionPath": "",
        "dataPathHashList": [
          12450150109492601568,
          7106476270362924403,
          14699978637746335385,
          958237984623093694
        ],
        "FMDPBECPELH": "",
        "ADKBLPOKGIK": ""
      },
      {
        "$type": "MoleMole.Config.ConfigEmotionTemplateAction",
        "type": "EMOTION_TEMPLATE",
        "aliasList": [
          "501"
        ],
        "actionId": 159,
        "_flag": 384,
        "emoTemplateID": 10801
      }
    ],
    [
      {
        "$type": "PKKMAMONGEO",
        "type": "DIALOG",
        "aliasList": [
          "501"
        ],
        "actionId": 160,
        "dialogID": 1900203108
      },
      {
        "$type": "CPJKOIHIPBE",
        "type": "EMO_SYNC",
        "aliasList": [
          "501"
        ],
        "actionId": 161,
        "_flag": 256,
        "dataPath": "Cs_Emo_Avatar_Simple_Common_Set/Cs_Emo_Avatar_Talk/Cs_Emo_Coop_Common/Cs_Emo_Coop_Barbara_01/Cs_Emo_1900203108",
        "phonemePath": "",
        "emotionPath": "",
        "mateDataPath": "",
        "matePhonemePath": "",
        "mateEmotionPath": "",
        "dataPathHashList": [
          6109774435856963294,
          9193843816926376335,
          12657947484481590878,
          7684462605822472025
        ],
        "FMDPBECPELH": "",
        "ADKBLPOKGIK": ""
      }
    ],
    [
      {
        "$type": "PKKMAMONGEO",
        "type": "DIALOG",
        "aliasList": [
          "501"
        ],
        "actionId": 162,
        "dialogID": 1900203109
      },
      {
        "$type": "MoleMole.Config.ConfigEmotionTemplateAction",
        "type": "EMOTION_TEMPLATE",
        "aliasList": [
          "501"
        ],
        "actionId": 163,
        "_flag": 384,
        "emoTemplateID": 10100
      },
      {
        "$type": "CPJKOIHIPBE",
        "type": "EMO_SYNC",
        "aliasList": [
          "501"
        ],
        "actionId": 164,
        "_flag": 256,
        "dataPath": "Cs_Emo_Avatar_Simple_Common_Set/Cs_Emo_Avatar_Talk/Cs_Emo_Coop_Common/Cs_Emo_Coop_Barbara_01/Cs_Emo_1900203109",
        "phonemePath": "",
        "emotionPath": "",
        "mateDataPath": "",
        "matePhonemePath": "",
        "mateEmotionPath": "",
        "dataPathHashList": [
          2910723984531628397,
          8886147108901694800,
          9725592434409055971,
          9540626458524848069
        ],
        "FMDPBECPELH": "",
        "ADKBLPOKGIK": ""
      }
    ],
    [
      {
        "$type": "PKKMAMONGEO",
        "type": "DIALOG",
        "aliasList": [
          "501"
        ],
        "actionId": 165,
        "dialogID": 1900203110
      },
      {
        "$type": "CPJKOIHIPBE",
        "type": "EMO_SYNC",
        "aliasList": [
          "501"
        ],
        "actionId": 166,
        "_flag": 256,
        "dataPath": "Cs_Emo_Avatar_Simple_Common_Set/Cs_Emo_Avatar_Talk/Cs_Emo_Coop_Common/Cs_Emo_Coop_Barbara_01/Cs_Emo_1900203110",
        "phonemePath": "",
        "emotionPath": "",
        "mateDataPath": "",
        "matePhonemePath": "",
        "mateEmotionPath": "",
        "dataPathHashList": [
          18435485598369685043,
          1582664385316855562,
          1489853724997626817,
          16448964379494747155
        ],
        "FMDPBECPELH": "",
        "ADKBLPOKGIK": ""
      }
    ],
    [
      {
        "$type": "PKKMAMONGEO",
        "type": "DIALOG",
        "aliasList": [
          "501"
        ],
        "actionId": 167,
        "dialogID": 1900203111
      },
      {
        "$type": "CPJKOIHIPBE",
        "type": "EMO_SYNC",
        "aliasList": [
          "501"
        ],
        "actionId": 168,
        "_flag": 256,
        "dataPath": "Cs_Emo_Avatar_Simple_Common_Set/Cs_Emo_Avatar_Talk/Cs_Emo_Coop_Common/Cs_Emo_Coop_Barbara_01/Cs_Emo_1900203111",
        "phonemePath": "",
        "emotionPath": "",
        "mateDataPath": "",
        "matePhonemePath": "",
        "mateEmotionPath": "",
        "dataPathHashList": [
          7987314804013900041,
          7792084570857204391,
          17753462619008523127,
          17597420333981149007
        ],
        "FMDPBECPELH": "",
        "ADKBLPOKGIK": ""
      },
      {
        "$type": "MoleMole.Config.ConfigEmotionTemplateAction",
        "type": "EMOTION_TEMPLATE",
        "aliasList": [
          "501"
        ],
        "actionId": 169,
        "_flag": 384,
        "emoTemplateID": 10301
      }
    ],
    [
      {
        "$type": "PKKMAMONGEO",
        "type": "DIALOG",
        "aliasList": [
          "501"
        ],
        "actionId": 170,
        "dialogID": 1900203112
      },
      {
        "$type": "CPJKOIHIPBE",
        "type": "EMO_SYNC",
        "aliasList": [
          "501"
        ],
        "actionId": 171,
        "_flag": 256,
        "dataPath": "Cs_Emo_Avatar_Simple_Common_Set/Cs_Emo_Avatar_Talk/Cs_Emo_Coop_Common/Cs_Emo_Coop_Barbara_01/Cs_Emo_1900203112",
        "phonemePath": "",
        "emotionPath": "",
        "mateDataPath": "",
        "matePhonemePath": "",
        "mateEmotionPath": "",
        "dataPathHashList": [
          8198479863052150193,
          2209216472067182579,
          9516049451704579770,
          18089331926480060731
        ],
        "FMDPBECPELH": "",
        "ADKBLPOKGIK": ""
      },
      {
        "$type": "MoleMole.Config.ConfigEmotionTemplateAction",
        "type": "EMOTION_TEMPLATE",
        "aliasList": [
          "501"
        ],
        "actionId": 172,
        "_flag": 384,
        "emoTemplateID": 10100
      }
    ],
    [
      {
        "$type": "PKKMAMONGEO",
        "type": "DIALOG",
        "aliasList": [
          "501"
        ],
        "actionId": 173,
        "dialogID": 1900203113
      },
      {
        "$type": "CPJKOIHIPBE",
        "type": "EMO_SYNC",
        "aliasList": [
          "501"
        ],
        "actionId": 174,
        "_flag": 256,
        "dataPath": "Cs_Emo_Avatar_Simple_Common_Set/Cs_Emo_Avatar_Talk/Cs_Emo_Coop_Common/Cs_Emo_Coop_Barbara_01/Cs_Emo_1900203113",
        "phonemePath": "",
        "emotionPath": "",
        "mateDataPath": "",
        "matePhonemePath": "",
        "mateEmotionPath": "",
        "dataPathHashList": [
          2834177791027353018,
          7593099108850461729,
          14307092478066690202,
          16317274623380734236
        ],
        "FMDPBECPELH": "",
        "ADKBLPOKGIK": ""
      }
    ],
    [
      {
        "$type": "PKKMAMONGEO",
        "type": "DIALOG",
        "aliasList": [
          "501"
        ],
        "actionId": 175,
        "dialogID": 1900203114
      },
      {
        "$type": "MoleMole.Config.ConfigEmotionTemplateAction",
        "type": "EMOTION_TEMPLATE",
        "aliasList": [
          "501"
        ],
        "actionId": 176,
        "_flag": 384,
        "emoTemplateID": 10101
      },
      {
        "$type": "CPJKOIHIPBE",
        "type": "EMO_SYNC",
        "aliasList": [
          "501"
        ],
        "actionId": 177,
        "_flag": 256,
        "dataPath": "Cs_Emo_Avatar_Simple_Common_Set/Cs_Emo_Avatar_Talk/Cs_Emo_Coop_Common/Cs_Emo_Coop_Barbara_01/Cs_Emo_1900203114",
        "phonemePath": "",
        "emotionPath": "",
        "mateDataPath": "",
        "matePhonemePath": "",
        "mateEmotionPath": "",
        "dataPathHashList": [
          10262183852631183292,
          13236487424984952383,
          11848236882248547055,
          7197369633324525709
        ],
        "FMDPBECPELH": "",
        "ADKBLPOKGIK": ""
      }
    ],
    [
      {
        "$type": "PKKMAMONGEO",
        "type": "DIALOG",
        "aliasList": [
          "501"
        ],
        "actionId": 178,
        "dialogID": 1900203115,
        "protectTime": 0.4000000059604645
      },
      {
        "$type": "CPJKOIHIPBE",
        "type": "EMO_SYNC",
        "aliasList": [
          "501"
        ],
        "actionId": 179,
        "_flag": 256,
        "dataPath": "Cs_Emo_Avatar_Simple_Common_Set/Cs_Emo_Avatar_Talk/Cs_Emo_Coop_Common/Cs_Emo_Coop_Barbara_01/Cs_Emo_1900203115",
        "phonemePath": "",
        "emotionPath": "",
        "mateDataPath": "",
        "matePhonemePath": "",
        "mateEmotionPath": "",
        "dataPathHashList": [
          850377380815762740,
          2567471857470278799,
          7435077591686507576,
          13936654179424298869
        ],
        "FMDPBECPELH": "",
        "ADKBLPOKGIK": ""
      },
      {
        "$type": "MoleMole.Config.ConfigEmotionTemplateAction",
        "type": "EMOTION_TEMPLATE",
        "aliasList": [
          "501"
        ],
        "actionId": 180,
        "_flag": 384,
        "emoTemplateID": 10100
      },
      {
        "$type": "HDGKHDNFMIM",
        "type": "DIALOG_SELECT",
        "delayTime": 0.4000000059604645,
        "aliasList": [
          "Avatar"
        ],
        "actionId": 140,
        "dialogIDList": [
          1900203116
        ],
        "grpIDList": [
          1238902803
        ],
        "useGrpId": true,
        "countDownGrpId": 1286890593
      }
    ],
    [
      {
        "$type": "PKKMAMONGEO",
        "type": "DIALOG",
        "aliasList": [
          "501"
        ],
        "actionId": 181,
        "dialogID": 1900203117
      },
      {
        "$type": "MoleMole.Config.ConfigEmotionTemplateAction",
        "type": "EMOTION_TEMPLATE",
        "aliasList": [
          "501"
        ],
        "actionId": 182,
        "_flag": 384,
        "emoTemplateID": 10601
      },
      {
        "$type": "CPJKOIHIPBE",
        "type": "EMO_SYNC",
        "aliasList": [
          "501"
        ],
        "actionId": 183,
        "_flag": 256,
        "dataPath": "Cs_Emo_Avatar_Simple_Common_Set/Cs_Emo_Avatar_Talk/Cs_Emo_Coop_Common/Cs_Emo_Coop_Barbara_01/Cs_Emo_1900203117",
        "phonemePath": "",
        "emotionPath": "",
        "mateDataPath": "",
        "matePhonemePath": "",
        "mateEmotionPath": "",
        "dataPathHashList": [
          15676195121997685169,
          13596342292156399188,
          5730215942634457267,
          16274679555758740329
        ],
        "FMDPBECPELH": "",
        "ADKBLPOKGIK": ""
      }
    ],
    [
      {
        "$type": "PKKMAMONGEO",
        "type": "DIALOG",
        "aliasList": [
          "501"
        ],
        "actionId": 184,
        "dialogID": 1900203118,
        "protectTime": 0.4000000059604645
      },
      {
        "$type": "MoleMole.Config.ConfigEmotionTemplateAction",
        "type": "EMOTION_TEMPLATE",
        "aliasList": [
          "501"
        ],
        "actionId": 185,
        "_flag": 384,
        "emoTemplateID": 10100
      },
      {
        "$type": "CPJKOIHIPBE",
        "type": "EMO_SYNC",
        "aliasList": [
          "501"
        ],
        "actionId": 186,
        "_flag": 256,
        "dataPath": "Cs_Emo_Avatar_Simple_Common_Set/Cs_Emo_Avatar_Talk/Cs_Emo_Coop_Common/Cs_Emo_Coop_Barbara_01/Cs_Emo_1900203118",
        "phonemePath": "",
        "emotionPath": "",
        "mateDataPath": "",
        "matePhonemePath": "",
        "mateEmotionPath": "",
        "dataPathHashList": [
          7938740088440291263,
          17838467774322627893,
          11347261179728274144,
          12930682833184078660
        ],
        "FMDPBECPELH": "",
        "ADKBLPOKGIK": ""
      },
      {
        "$type": "HDGKHDNFMIM",
        "type": "DIALOG_SELECT",
        "delayTime": 0.4000000059604645,
        "aliasList": [
          "Avatar"
        ],
        "actionId": 141,
        "dialogIDList": [
          1900203119
        ],
        "grpIDList": [
          1238902805
        ],
        "useGrpId": true,
        "countDownGrpId": 1286890593
      }
    ],
    [
      {
        "$type": "PKKMAMONGEO",
        "type": "DIALOG",
        "aliasList": [
          "501"
        ],
        "actionId": 187,
        "dialogID": 1900203120
      },
      {
        "$type": "MoleMole.Config.ConfigEmotionTemplateAction",
        "type": "EMOTION_TEMPLATE",
        "aliasList": [
          "501"
        ],
        "actionId": 188,
        "_flag": 384,
        "emoTemplateID": 10701
      },
      {
        "$type": "CPJKOIHIPBE",
        "type": "EMO_SYNC",
        "aliasList": [
          "501"
        ],
        "actionId": 189,
        "_flag": 320,
        "dataPath": "Cs_Emo_Avatar_Simple_Common_Set/Cs_Emo_Avatar_Talk/Cs_Emo_Coop_Common/Cs_Emo_Coop_Barbara_01/Cs_Emo_1900203120",
        "phonemePath": "",
        "emotionPath": "",
        "mateDataPath": "",
        "matePhonemePath": "",
        "mateEmotionPath": "",
        "dataPathHashList": [
          4446542836092518166,
          8545207795990094357,
          7025480960130877035,
          16251724362995125522
        ],
        "FMDPBECPELH": "",
        "ADKBLPOKGIK": ""
      }
    ],
    [
      {
        "$type": "MoleMole.Config.ConfigTimeProtectAction",
        "type": "TIME_PROTECT",
        "duration": 0.30000001192092896,
        "actionId": 131
      },
      {
        "$type": "PKKMAMONGEO",
        "type": "DIALOG_CLEAR",
        "duration": 2.0,
        "actionId": 132
      },
      {
        "$type": "MoleMole.Config.ConfigBlackScreenAction",
        "type": "BLACK_SCREEN",
        "duration": 1.5,
        "actionId": 133,
        "_flag": 2048,
        "durationToBlack": 0.30000001192092896,
        "durationKeepBlack": 1.0,
        "durationFromBlack": 0.30000001192092896,
        "inteePos": "",
        "textMapID": "COOP_Message_101401_Dialog_1900203121"
      },
      {
        "$type": "MoleMole.Config.ConfigEmotionTemplateAction",
        "type": "EMOTION_TEMPLATE",
        "aliasList": [
          "501"
        ],
        "actionId": 190,
        "_flag": 384,
        "emoTemplateID": 10100
      }
    ],
    [
      {
        "$type": "PKKMAMONGEO",
        "type": "DIALOG",
        "aliasList": [
          "501"
        ],
        "actionId": 191,
        "dialogID": 1900203122
      },
      {
        "$type": "MoleMole.Config.ConfigEmotionTemplateAction",
        "type": "EMOTION_TEMPLATE",
        "aliasList": [
          "501"
        ],
        "actionId": 192,
        "_flag": 384,
        "emoTemplateID": 10100
      },
      {
        "$type": "CPJKOIHIPBE",
        "type": "EMO_SYNC",
        "aliasList": [
          "501"
        ],
        "actionId": 193,
        "_flag": 256,
        "dataPath": "Cs_Emo_Avatar_Simple_Common_Set/Cs_Emo_Avatar_Talk/Cs_Emo_Coop_Common/Cs_Emo_Coop_Barbara_01/Cs_Emo_1900203122",
        "phonemePath": "",
        "emotionPath": "",
        "mateDataPath": "",
        "matePhonemePath": "",
        "mateEmotionPath": "",
        "dataPathHashList": [
          14391733446995103016,
          5472835570096178426,
          8233776709079663503,
          6030591635900355916
        ],
        "FMDPBECPELH": "",
        "ADKBLPOKGIK": ""
      }
    ],
    [
      {
        "$type": "PKKMAMONGEO",
        "type": "DIALOG",
        "aliasList": [
          "501"
        ],
        "actionId": 194,
        "dialogID": 1900203123
      },
      {
        "$type": "MoleMole.Config.ConfigEmotionTemplateAction",
        "type": "EMOTION_TEMPLATE",
        "aliasList": [
          "501"
        ],
        "actionId": 195,
        "_flag": 384,
        "emoTemplateID": 10301
      },
      {
        "$type": "CPJKOIHIPBE",
        "type": "EMO_SYNC",
        "aliasList": [
          "501"
        ],
        "actionId": 196,
        "_flag": 256,
        "dataPath": "Cs_Emo_Avatar_Simple_Common_Set/Cs_Emo_Avatar_Talk/Cs_Emo_Coop_Common/Cs_Emo_Coop_Barbara_01/Cs_Emo_1900203123",
        "phonemePath": "",
        "emotionPath": "",
        "mateDataPath": "",
        "matePhonemePath": "",
        "mateEmotionPath": "",
        "dataPathHashList": [
          13818530390295911357,
          6212359209925116601,
          3155118412913951576,
          14512185431447712509
        ],
        "FMDPBECPELH": "",
        "ADKBLPOKGIK": ""
      }
    ],
    [
      {
        "$type": "PKKMAMONGEO",
        "type": "DIALOG",
        "aliasList": [
          "501"
        ],
        "actionId": 197,
        "dialogID": 1900203124
      },
      {
        "$type": "CPJKOIHIPBE",
        "type": "EMO_SYNC",
        "aliasList": [
          "501"
        ],
        "actionId": 198,
        "_flag": 256,
        "dataPath": "Cs_Emo_Avatar_Simple_Common_Set/Cs_Emo_Avatar_Talk/Cs_Emo_Coop_Common/Cs_Emo_Coop_Barbara_01/Cs_Emo_1900203124",
        "phonemePath": "",
        "emotionPath": "",
        "mateDataPath": "",
        "matePhonemePath": "",
        "mateEmotionPath": "",
        "dataPathHashList": [
          7287578805481805086,
          2255340127787528834,
          15363320323440942820,
          3116635307865358323
        ],
        "FMDPBECPELH": "",
        "ADKBLPOKGIK": ""
      },
      {
        "$type": "MoleMole.Config.ConfigEmotionTemplateAction",
        "type": "EMOTION_TEMPLATE",
        "aliasList": [
          "501"
        ],
        "actionId": 199,
        "_flag": 384,
        "emoTemplateID": 10100
      }
    ],
    [
      {
        "$type": "PKKMAMONGEO",
        "type": "DIALOG",
        "aliasList": [
          "501"
        ],
        "actionId": 200,
        "dialogID": 1900203125
      },
      {
        "$type": "CPJKOIHIPBE",
        "type": "EMO_SYNC",
        "aliasList": [
          "501"
        ],
        "actionId": 201,
        "_flag": 256,
        "dataPath": "Cs_Emo_Avatar_Simple_Common_Set/Cs_Emo_Avatar_Talk/Cs_Emo_Coop_Common/Cs_Emo_Coop_Barbara_01/Cs_Emo_1900203125",
        "phonemePath": "",
        "emotionPath": "",
        "mateDataPath": "",
        "matePhonemePath": "",
        "mateEmotionPath": "",
        "dataPathHashList": [
          11534624745048409707,
          6715724497106097914,
          3864557150937356231,
          8518050145404931138
        ],
        "FMDPBECPELH": "",
        "ADKBLPOKGIK": ""
      },
      {
        "$type": "MoleMole.Config.ConfigEmotionTemplateAction",
        "type": "EMOTION_TEMPLATE",
        "aliasList": [
          "501"
        ],
        "actionId": 202,
        "_flag": 384,
        "emoTemplateID": 10301
      }
    ],
    [
      {
        "$type": "PKKMAMONGEO",
        "type": "DIALOG",
        "aliasList": [
          "501"
        ],
        "actionId": 203,
        "dialogID": 1900203126,
        "protectTime": 0.4000000059604645
      },
      {
        "$type": "MoleMole.Config.ConfigEmotionTemplateAction",
        "type": "EMOTION_TEMPLATE",
        "aliasList": [
          "501"
        ],
        "actionId": 204,
        "_flag": 384,
        "emoTemplateID": 10100
      },
      {
        "$type": "CPJKOIHIPBE",
        "type": "EMO_SYNC",
        "aliasList": [
          "501"
        ],
        "actionId": 205,
        "_flag": 256,
        "dataPath": "Cs_Emo_Avatar_Simple_Common_Set/Cs_Emo_Avatar_Talk/Cs_Emo_Coop_Common/Cs_Emo_Coop_Barbara_01/Cs_Emo_1900203126",
        "phonemePath": "",
        "emotionPath": "",
        "mateDataPath": "",
        "matePhonemePath": "",
        "mateEmotionPath": "",
        "dataPathHashList": [
          13820349145686548246,
          9974627339595716185,
          16727052011791784913,
          8205568269804872295
        ],
        "FMDPBECPELH": "",
        "ADKBLPOKGIK": ""
      },
      {
        "$type": "HDGKHDNFMIM",
        "type": "DIALOG_SELECT",
        "delayTime": 0.4000000059604645,
        "aliasList": [
          "Avatar"
        ],
        "actionId": 142,
        "dialogIDList": [
          1900203127
        ],
        "grpIDList": [
          1238902833
        ],
        "useGrpId": true,
        "countDownGrpId": 1286890593
      }
    ],
    [
      {
        "$type": "PKKMAMONGEO",
        "type": "DIALOG",
        "aliasList": [
          "501"
        ],
        "actionId": 206,
        "dialogID": 1900203128
      },
      {
        "$type": "MoleMole.Config.ConfigEmotionTemplateAction",
        "type": "EMOTION_TEMPLATE",
        "aliasList": [
          "501"
        ],
        "actionId": 207,
        "_flag": 384,
        "emoTemplateID": 10501
      },
      {
        "$type": "CPJKOIHIPBE",
        "type": "EMO_SYNC",
        "aliasList": [
          "501"
        ],
        "actionId": 208,
        "_flag": 256,
        "dataPath": "Cs_Emo_Avatar_Simple_Common_Set/Cs_Emo_Avatar_Talk/Cs_Emo_Coop_Common/Cs_Emo_Coop_Barbara_01/Cs_Emo_1900203128",
        "phonemePath": "",
        "emotionPath": "",
        "mateDataPath": "",
        "matePhonemePath": "",
        "mateEmotionPath": "",
        "dataPathHashList": [
          5863926507519013030,
          13122592046660494016,
          16441367319443298253,
          5824181225337870401
        ],
        "FMDPBECPELH": "",
        "ADKBLPOKGIK": ""
      }
    ],
    [
      {
        "$type": "PKKMAMONGEO",
        "type": "DIALOG",
        "aliasList": [
          "501"
        ],
        "actionId": 209,
        "dialogID": 1900203129
      },
      {
        "$type": "CPJKOIHIPBE",
        "type": "EMO_SYNC",
        "aliasList": [
          "501"
        ],
        "actionId": 210,
        "_flag": 256,
        "dataPath": "Cs_Emo_Avatar_Simple_Common_Set/Cs_Emo_Avatar_Talk/Cs_Emo_Coop_Common/Cs_Emo_Coop_Barbara_01/Cs_Emo_1900203129",
        "phonemePath": "",
        "emotionPath": "",
        "mateDataPath": "",
        "matePhonemePath": "",
        "mateEmotionPath": "",
        "dataPathHashList": [
          17849278693315137186,
          18199735598760248208,
          9124832918625590072,
          1095730126959124775
        ],
        "FMDPBECPELH": "",
        "ADKBLPOKGIK": ""
      }
    ],
    [
      {
        "$type": "PKKMAMONGEO",
        "type": "DIALOG",
        "aliasList": [
          "501"
        ],
        "actionId": 211,
        "dialogID": 1900203130
      },
      {
        "$type": "MoleMole.Config.ConfigEmotionTemplateAction",
        "type": "EMOTION_TEMPLATE",
        "aliasList": [
          "501"
        ],
        "actionId": 212,
        "_flag": 384,
        "emoTemplateID": 10100
      },
      {
        "$type": "CPJKOIHIPBE",
        "type": "EMO_SYNC",
        "aliasList": [
          "501"
        ],
        "actionId": 213,
        "_flag": 320,
        "dataPath": "Cs_Emo_Avatar_Simple_Common_Set/Cs_Emo_Avatar_Talk/Cs_Emo_Coop_Common/Cs_Emo_Coop_Barbara_01/Cs_Emo_1900203130",
        "phonemePath": "",
        "emotionPath": "",
        "mateDataPath": "",
        "matePhonemePath": "",
        "mateEmotionPath": "",
        "dataPathHashList": [
          17534153293594143815,
          944127673845594933,
          13591350142947454817,
          11207959397089122982
        ],
        "FMDPBECPELH": "",
        "ADKBLPOKGIK": ""
      }
    ],
    [
      {
        "$type": "MoleMole.Config.ConfigTimeProtectAction",
        "type": "TIME_PROTECT",
        "duration": 0.30000001192092896,
        "actionId": 134
      },
      {
        "$type": "MoleMole.Config.ConfigSimpleBlackScreenAction",
        "type": "SIMPLE_BLACK_SCREEN",
        "duration": 1.7999999523162842,
        "actionId": 135,
        "durationToBlack": 0.30000001192092896,
        "durationKeepBlack": 1.2000000476837158,
        "durationFromBlack": 0.30000001192092896,
        "textMapID": ""
      },
      {
        "$type": "PKKMAMONGEO",
        "type": "DIALOG_CLEAR",
        "delayTime": 0.30000001192092896,
        "actionId": 136
      },
      {
        "$type": "MoleMole.Config.ConfigVisibleInterAction",
        "type": "VISIBLE",
        "delayTime": 0.30000001192092896,
        "aliasList": [
          "Avatar"
        ],
        "actionId": 143,
        "isVisible": true,
        "_extraParam": ""
      },
      {
        "$type": "LJLMDHDCAMK",
        "type": "LOOK_AT",
        "delayTime": 0.30000001192092896,
        "aliasList": [
          "501"
        ],
        "actionId": 214,
        "_flag": 64,
        "enableHead": true,
        "enableAbsolute": true,
        "targetOffset": {
          "x": 2347.527099609375,
          "y": 261.25201416015625,
          "z": -699.9879760742188
        },
        "targetPosition": {
          "x": 2020.490966796875,
          "y": 261.9219970703125,
          "z": -359.2409973144531
        },
        "headTurnTime": 0.30000001192092896,
        "targetNpcAlias": "",
        "lookAtTargetType": "NONE",
        "targetNpcLookAtPoint": "",
        "OAFJBHJHLJG": ""
      }
    ],
    [
      {
        "$type": "MoleMole.Config.ConfigCameraDOFAction",
        "type": "CAMERA_DOF",
        "actionId": 292,
        "_actionTagList": [
          "TalkSkip"
        ],
        "focusDistance": 6.0,
        "focusRange": 6.0,
        "quality": 3
      },
      {
        "$type": "MoleMole.Config.ConfigBlackScreenAction",
        "type": "BLACK_SCREEN",
        "duration": 0.10000000149011612,
        "actionId": 293,
        "_flag": 2048,
        "_actionTagList": [
          "TalkSkip"
        ],
        "durationToBlack": 0.10000000149011612,
        "durationKeepBlack": 0.10000000149011612,
        "durationFromBlack": 0.10000000149011612,
        "inteePos": "",
        "textMapID": "",
        "showClickBtnDelayTime": 0.5,
        "waitClickBtnTipTime": 0.5
      },
      {
        "$type": "MoleMole.Config.ConfigVisibleInterAction",
        "type": "VISIBLE",
        "aliasList": [
          "Avatar"
        ],
        "actionId": 295,
        "_actionTagList": [
          "TalkSkip"
        ],
        "isVisible": true,
        "_extraParam": ""
      },
      {
        "$type": "CPJKOIHIPBE",
        "type": "EMO_SYNC",
        "aliasList": [
          "501"
        ],
        "actionId": 287,
        "_flag": 256,
        "_actionTagList": [
          "TalkSkip"
        ],
        "dataPath": "Cs_Emo_Avatar_Simple_Common_Set/Cs_Emo_Avatar_Talk/Cs_Emo_Coop_Common/Cs_Emo_Coop_Avatar/Barbara/Cs_Emo_Avatar_Coop_Standby",
        "phonemePath": "",
        "emotionPath": "",
        "mateDataPath": "",
        "matePhonemePath": "",
        "mateEmotionPath": "",
        "dataPathHashList": [
          11496802585744343795,
          15208087810713921936,
          2845173955046873145,
          14188960041736200772
        ],
        "FMDPBECPELH": "",
        "ADKBLPOKGIK": ""
      },
      {
        "$type": "PKKMAMONGEO",
        "type": "DIALOG",
        "aliasList": [
          "501"
        ],
        "actionId": 291,
        "_actionTagList": [
          "TalkSkip"
        ],
        "dialogID": 1900203130
      },
      {
        "$type": "LJLMDHDCAMK",
        "type": "LOOK_AT",
        "aliasList": [
          "501"
        ],
        "actionId": 294,
        "_flag": 64,
        "_actionTagList": [
          "TalkSkip"
        ],
        "enableHead": true,
        "enableAbsolute": true,
        "targetOffset": {
          "x": 2347.527099609375,
          "y": 261.25201416015625,
          "z": -699.9879760742188
        },
        "targetPosition": {
          "x": 2020.490966796875,
          "y": 261.9219970703125,
          "z": -359.2409973144531
        },
        "headTurnTime": 0.30000001192092896,
        "targetNpcAlias": "",
        "lookAtTargetType": "NONE",
        "targetNpcLookAtPoint": "",
        "OAFJBHJHLJG": ""
      },
      {
        "$type": "FJKIHHKJLMJ",
        "type": "CAMERA_MOVE",
        "delayTime": 0.5,
        "duration": 0.10000000149011612,
        "actionId": 290,
        "_actionTagList": [
          "TalkSkip"
        ],
        "cameraPosType": "RELATIVE_TO_TARGET_ENTITY",
        "camTargetType": "RELATIVE_TO_TARGET_ENTITY",
        "camFov": 30.0,
        "lerpPattern": 6,
        "cameraBlendType": "EaseInOutCubic",
        "NJBNNOMLKCK": {},
        "targetNpcAlias": "501",
        "KJOEFBPOIIH": "",
        "IICFKKEBIEC": "",
        "EGEHEJEBLBJ": ""
      },
      {
        "$type": "CPJKOIHIPBE",
        "type": "EMO_SYNC",
        "delayTime": 0.5,
        "aliasList": [
          "501"
        ],
        "actionId": 288,
        "_flag": 256,
        "_actionTagList": [
          "TalkSkip"
        ],
        "dataPath": "Cs_Emo_Avatar_Simple_Common_Set/Cs_Emo_Avatar_Talk/Cs_Emo_Coop_Common/Cs_Emo_Coop_Barbara_01/Cs_Emo_1900203130",
        "phonemePath": "",
        "emotionPath": "",
        "mateDataPath": "",
        "matePhonemePath": "",
        "mateEmotionPath": "",
        "dataPathHashList": [
          17534153293594143815,
          944127673845594933,
          13591350142947454817,
          11207959397089122982
        ],
        "FMDPBECPELH": "",
        "ADKBLPOKGIK": ""
      },
      {
        "$type": "FABLGECDBCH",
        "type": "BODY_LANG",
        "delayTime": 1.0,
        "aliasList": [
          "501"
        ],
        "actionId": 289,
        "_actionTagList": [
          "TalkSkip"
        ],
        "bodyLangParam": 10100,
        "forceDoFreeStyle": true,
        "canDoRepeatFreeStyle": false,
        "cantBackToIdleWhenSitLoop": true,
        "eventPatternSuiteKey": "",
        "FOHHKFAIAAJ": ""
      }
    ]
  ],
  "groupId": [
    {
      "grpId": 1286890594,
      "nextGrpId": 1286890595,
      "_noCircleNextGrpId": 1286890595
    },
    {
      "index": 1,
      "grpId": 1286890595,
      "nextGrpId": 1286890596,
      "_noCircleNextGrpId": 1286890596
    },
    {
      "index": 2,
      "grpId": 1286890596,
      "nextGrpId": 1286890597,
      "_noCircleNextGrpId": 1286890597
    },
    {
      "index": 3,
      "grpId": 1286890597,
      "nextGrpId": 1286890598,
      "_noCircleNextGrpId": 1286890598
    },
    {
      "index": 4,
      "grpId": 1286890598,
      "nextGrpId": 1286890599,
      "_noCircleNextGrpId": 1286890599
    },
    {
      "index": 5,
      "grpId": 1286890599,
      "nextGrpId": 1286890600,
      "_noCircleNextGrpId": 1286890600
    },
    {
      "index": 6,
      "grpId": 1286890600,
      "nextGrpId": 1286890601,
      "_noCircleNextGrpId": 1286890601
    },
    {
      "index": 7,
      "grpId": 1286890601,
      "nextGrpId": 1286890602,
      "_noCircleNextGrpId": 1286890602
    },
    {
      "index": 8,
      "grpId": 1286890602,
      "nextGrpId": 1238902798,
      "_noCircleNextGrpId": 1238902798
    },
    {
      "index": 9,
      "grpId": 1238902798,
      "nextGrpId": 1238902799,
      "_noCircleNextGrpId": 1238902799
    },
    {
      "index": 10,
      "grpId": 1238902799,
      "nextGrpId": 1238902800,
      "_noCircleNextGrpId": 1238902800
    },
    {
      "index": 11,
      "grpId": 1238902800,
      "nextGrpId": 1238902801,
      "_noCircleNextGrpId": 1238902801
    },
    {
      "index": 12,
      "grpId": 1238902801,
      "nextGrpId": 1238902802,
      "_noCircleNextGrpId": 1238902802
    },
    {
      "index": 13,
      "grpId": 1238902802,
      "nextGrpId": 1238902803,
      "_noCircleNextGrpId": 1238902803
    },
    {
      "index": 14,
      "grpId": 1238902803,
      "nextGrpId": 1238902804,
      "_noCircleNextGrpId": 1238902804
    },
    {
      "index": 15,
      "grpId": 1238902804,
      "nextGrpId": 1238902805,
      "_noCircleNextGrpId": 1238902805
    },
    {
      "index": 16,
      "grpId": 1238902805,
      "nextGrpId": 1238902806,
      "_noCircleNextGrpId": 1238902806
    },
    {
      "index": 17,
      "grpId": 1238902806,
      "nextGrpId": 1238902807,
      "_noCircleNextGrpId": 1238902807
    },
    {
      "index": 18,
      "grpId": 1238902807,
      "nextGrpId": 1238902829,
      "_noCircleNextGrpId": 1238902829
    },
    {
      "index": 19,
      "grpId": 1238902829,
      "nextGrpId": 1238902830,
      "_noCircleNextGrpId": 1238902830
    },
    {
      "index": 20,
      "grpId": 1238902830,
      "nextGrpId": 1238902831,
      "_noCircleNextGrpId": 1238902831
    },
    {
      "index": 21,
      "grpId": 1238902831,
      "nextGrpId": 1238902832,
      "_noCircleNextGrpId": 1238902832
    },
    {
      "index": 22,
      "grpId": 1238902832,
      "nextGrpId": 1238902833,
      "_noCircleNextGrpId": 1238902833
    },
    {
      "index": 23,
      "grpId": 1238902833,
      "nextGrpId": 1238902834,
      "_noCircleNextGrpId": 1238902834
    },
    {
      "index": 24,
      "grpId": 1238902834,
      "nextGrpId": 1238902835,
      "_noCircleNextGrpId": 1238902835
    },
    {
      "index": 25,
      "grpId": 1238902835,
      "nextGrpId": 1238902836,
      "_noCircleNextGrpId": 1238902836
    },
    {
      "index": 26,
      "grpId": 1238902836,
      "nextGrpId": 1238902837,
      "_noCircleNextGrpId": 1238902837
    },
    {
      "index": 27,
      "grpId": 1238902837,
      "nextGrpId": 1238902838,
      "_noCircleNextGrpId": 1238902838
    }
  ],
  "freeStyleDic": {
    "501": [
      10100,
      10801,
      10301,
      10101,
      10601,
      10701,
      10501
    ]
  },
  "EKFBDAIDEEF": {
    "501": [
      "SitHoldArm01AS"
    ]
  },
  "GBPIKOLLKJH": {
    "KGFBJNAEBHO": "",
    "ADMLEHAKCPC": ""
  },
  "NPFDEBDMHJP": 1238902837,
  "KEAMPHGKKAG": {
    "ANJBPLIOPCP": ""
  }
}