{
  "luaDataPath": "",
  "entityBan": "",
  "disableNpcLod": true,
  "protectNpcMobileLod": true,
  "talkFlag": 7,
  "startFade": {
    "startFadeOutDuration": 0.0
  },
  "endFade": {
    "startFadeOutDuration": 0.0
  },
  "actors": [
    {
      "alias": "Avatar",
      "visible": true,
      "bornPointName": "",
      "relativePosType": "AVATAR_NEW",
      "relativePosNpcAlias": "",
      "_notDestroyInTalk": true,
      "_bindMovingTargetKey": ""
    },
    {
      "configID": 4169,
      "alias": "4169",
      "visible": true,
      "bornPointName": "",
      "forceCreateDaily": true,
      "relativePosType": "AVATAR_NEW",
      "relativePosNpcAlias": "",
      "_notDestroyInTalk": true,
      "_bindMovingTargetKey": ""
    },
    {
      "configID": 1051,
      "alias": "1051",
      "visible": true,
      "bornPointName": "",
      "relativePosType": "AVATAR_NEW",
      "relativePosNpcAlias": "",
      "_notDestroyInTalk": true,
      "_bindMovingTargetKey": ""
    }
  ],
  "group": [
    [
      {
        "$type": "DNOIKEDAKBN",
        "type": "CAMERA_FOCUS",
        "duration": 0.10000000149011612,
        "actionId": 103,
        "targetNpcAlias": "",
        "FPHOLHODOFL": "",
        "JOAEMNHLBAH": "",
        "DMBMJMEHOBJ": ""
      },
      {
        "$type": "MoleMole.Config.ConfigTimeProtectAction",
        "type": "TIME_PROTECT",
        "duration": 1.5,
        "actionId": 104
      },
      {
        "$type": "MFLLBDNLNBG",
        "type": "STEER_TO",
        "delayTime": 0.30000001192092896,
        "duration": 0.800000011920929,
        "aliasList": [
          "Avatar"
        ],
        "actionId": 110,
        "_flag": 32,
        "steerType": "TO_TARGET_ADVANCED",
        "useSteerAnim": true,
        "interruptFreestyle": true,
        "forceSteer": true,
        "targetNpcAlias": "4169",
        "fixInterNull": true,
        "APKIBBLJLON": ""
      },
      {
        "$type": "MFLLBDNLNBG",
        "type": "STEER_TO",
        "duration": 0.800000011920929,
        "aliasList": [
          "4169"
        ],
        "actionId": 111,
        "_flag": 32,
        "steerType": "TO_LOCAL_AVATAR_ADVANCED",
        "useSteerAnim": true,
        "interruptFreestyle": true,
        "forceSteer": true,
        "targetNpcAlias": "",
        "fixInterNull": true,
        "APKIBBLJLON": ""
      },
      {
        "$type": "MFLLBDNLNBG",
        "type": "STEER_TO",
        "delayTime": 1.0,
        "duration": 0.800000011920929,
        "aliasList": [
          "1051"
        ],
        "actionId": 113,
        "_flag": 32,
        "steerType": "TO_LOCAL_AVATAR_ADVANCED",
        "useSteerAnim": true,
        "interruptFreestyle": true,
        "forceSteer": true,
        "targetNpcAlias": "",
        "fixInterNull": true,
        "APKIBBLJLON": ""
      },
      {
        "$type": "KMKDFCOPMLP",
        "type": "LOOK_AT",
        "aliasList": [
          "1051"
        ],
        "actionId": 118,
        "_flag": 64,
        "enableHead": true,
        "headTurnTime": 0.5,
        "targetNpcAlias": "Avatar",
        "openBackProtect": true,
        "backProtectAngle": 10.0,
        "targetNpcLookAtPoint": "",
        "APKIBBLJLON": ""
      },
      {
        "$type": "AHHBJGEHACH",
        "type": "BODY_LANG",
        "aliasList": [
          "4169"
        ],
        "actionId": 120,
        "_flag": 131072,
        "isContinue": true,
        "forceDoFreeStyle": true,
        "canDoRepeatFreeStyle": false,
        "cantBackToIdleWhenSitLoop": true,
        "eventPatternSuiteKey": ""
      },
      {
        "$type": "AHHBJGEHACH",
        "type": "BODY_LANG",
        "aliasList": [
          "1051"
        ],
        "actionId": 124,
        "_flag": 131072,
        "isContinue": true,
        "forceDoFreeStyle": true,
        "canDoRepeatFreeStyle": false,
        "cantBackToIdleWhenSitLoop": true,
        "eventPatternSuiteKey": ""
      },
      {
        "$type": "KMKDFCOPMLP",
        "type": "LOOK_AT",
        "aliasList": [
          "4169"
        ],
        "actionId": 139,
        "_flag": 64,
        "enableHead": true,
        "headTurnTime": 0.5,
        "targetNpcAlias": "Avatar",
        "openBackProtect": true,
        "backProtectAngle": 10.0,
        "targetNpcLookAtPoint": "",
        "APKIBBLJLON": ""
      }
    ],
    [
      {
        "$type": "NDPINFEKFAN",
        "type": "DIALOG",
        "aliasList": [
          "4169"
        ],
        "actionId": 107,
        "dialogID": 140382401,
        "protectTime": 0.5
      },
      {
        "$type": "KMKDFCOPMLP",
        "type": "LOOK_AT",
        "aliasList": [
          "Avatar"
        ],
        "actionId": 116,
        "_flag": 64,
        "enableHead": true,
        "headTurnTime": 0.5,
        "targetNpcAlias": "4169",
        "openBackProtect": true,
        "backProtectAngle": 10.0,
        "targetNpcLookAtPoint": "",
        "APKIBBLJLON": ""
      },
      {
        "$type": "AHHBJGEHACH",
        "type": "BODY_LANG",
        "aliasList": [
          "4169"
        ],
        "actionId": 121,
        "_flag": 131072,
        "bodyLangParam": 1130,
        "forceDoFreeStyle": true,
        "canDoRepeatFreeStyle": false,
        "cantBackToIdleWhenSitLoop": true,
        "eventPatternSuiteKey": ""
      },
      {
        "$type": "AHHBJGEHACH",
        "type": "BODY_LANG",
        "delayTime": 2.0450000762939453,
        "aliasList": [
          "4169"
        ],
        "actionId": 122,
        "_flag": 131072,
        "isContinue": true,
        "forceDoFreeStyle": true,
        "canDoRepeatFreeStyle": false,
        "cantBackToIdleWhenSitLoop": true,
        "eventPatternSuiteKey": ""
      },
      {
        "$type": "AHHBJGEHACH",
        "type": "BODY_LANG",
        "delayTime": 2.7829999923706055,
        "aliasList": [
          "4169"
        ],
        "actionId": 123,
        "_flag": 131072,
        "bodyLangParam": 1172,
        "forceDoFreeStyle": true,
        "canDoRepeatFreeStyle": false,
        "cantBackToIdleWhenSitLoop": true,
        "eventPatternSuiteKey": ""
      },
      {
        "$type": "KNDPHIODCAO",
        "type": "EMO_SYNC",
        "aliasList": [
          "4169"
        ],
        "actionId": 131,
        "_flag": 320,
        "dataPath": "Cs_Emo_Avatar_Simple_Common_Set/Cs_Emo_Avatar_Talk/Cs_Emo_Avatar_PersonalLine/Cs_Emo_Avatar_Emilie/Cs_Emo_140382401",
        "phonemePath": "",
        "emotionPath": "",
        "mateDataPath": "",
        "matePhonemePath": "",
        "mateEmotionPath": "",
        "dataPathHashList": [
          17469160773446624944,
          9205389759058940571,
          14634551260283855108,
          17129865400611936300
        ],
        "LGOOHJOPJOJ": "",
        "HCHELJAGBIB": ""
      },
      {
        "$type": "KMKDFCOPMLP",
        "type": "LOOK_AT",
        "aliasList": [
          "4169"
        ],
        "actionId": 140,
        "_flag": 64,
        "enableHead": true,
        "headTurnTime": 0.5,
        "targetNpcAlias": "Avatar",
        "openBackProtect": true,
        "backProtectAngle": 10.0,
        "targetNpcLookAtPoint": "",
        "APKIBBLJLON": ""
      }
    ],
    [
      {
        "$type": "NDPINFEKFAN",
        "type": "DIALOG",
        "aliasList": [
          "1051"
        ],
        "actionId": 109,
        "dialogID": 140382402,
        "protectTime": 0.5
      },
      {
        "$type": "AHHBJGEHACH",
        "type": "BODY_LANG",
        "aliasList": [
          "1051"
        ],
        "actionId": 125,
        "_flag": 131072,
        "bodyLangParam": 1171,
        "forceDoFreeStyle": true,
        "canDoRepeatFreeStyle": false,
        "cantBackToIdleWhenSitLoop": true,
        "eventPatternSuiteKey": ""
      },
      {
        "$type": "AHHBJGEHACH",
        "type": "BODY_LANG",
        "delayTime": 4.179999828338623,
        "aliasList": [
          "1051"
        ],
        "actionId": 126,
        "_flag": 131072,
        "bodyLangParam": 1130,
        "forceDoFreeStyle": true,
        "canDoRepeatFreeStyle": false,
        "cantBackToIdleWhenSitLoop": true,
        "eventPatternSuiteKey": ""
      },
      {
        "$type": "AHHBJGEHACH",
        "type": "BODY_LANG",
        "delayTime": 6.050000190734863,
        "aliasList": [
          "1051"
        ],
        "actionId": 128,
        "_flag": 131072,
        "isContinue": true,
        "forceDoFreeStyle": true,
        "canDoRepeatFreeStyle": false,
        "cantBackToIdleWhenSitLoop": true,
        "eventPatternSuiteKey": ""
      },
      {
        "$type": "KNDPHIODCAO",
        "type": "EMO_SYNC",
        "aliasList": [
          "1051"
        ],
        "actionId": 132,
        "_flag": 320,
        "dataPath": "Cs_Emo_Avatar_Simple_Common_Set/Cs_Emo_Avatar_Talk/Cs_Emo_Avatar_PersonalLine/Cs_Emo_Avatar_Emilie/Cs_Emo_140382402",
        "phonemePath": "",
        "emotionPath": "",
        "mateDataPath": "",
        "matePhonemePath": "",
        "mateEmotionPath": "",
        "dataPathHashList": [
          4753143099702468256,
          10615289111536670848,
          2934898343670177805,
          6215487892815522976
        ],
        "LGOOHJOPJOJ": "",
        "HCHELJAGBIB": ""
      },
      {
        "$type": "KMKDFCOPMLP",
        "type": "LOOK_AT",
        "aliasList": [
          "Avatar"
        ],
        "actionId": 133,
        "_flag": 64,
        "enableHead": true,
        "headTurnTime": 0.5,
        "targetNpcAlias": "1051",
        "openBackProtect": true,
        "backProtectAngle": 10.0,
        "targetNpcLookAtPoint": "",
        "APKIBBLJLON": ""
      }
    ],
    [
      {
        "$type": "MoleMole.Config.ConfigTimeProtectAction",
        "type": "TIME_PROTECT",
        "duration": 2.5,
        "actionId": 105
      },
      {
        "$type": "MFLLBDNLNBG",
        "type": "STEER_TO",
        "delayTime": 1.0,
        "duration": 1.0,
        "aliasList": [
          "4169"
        ],
        "actionId": 112,
        "_flag": 32,
        "steerType": "RETURN",
        "useSteerAnim": true,
        "interruptFreestyle": true,
        "forceSteer": true,
        "targetNpcAlias": "",
        "ignoreY": true,
        "fixInterNull": true,
        "APKIBBLJLON": ""
      },
      {
        "$type": "MFLLBDNLNBG",
        "type": "STEER_TO",
        "delayTime": 1.0,
        "duration": 1.0,
        "aliasList": [
          "1051"
        ],
        "actionId": 114,
        "_flag": 32,
        "steerType": "RETURN",
        "useSteerAnim": true,
        "interruptFreestyle": true,
        "forceSteer": true,
        "targetNpcAlias": "",
        "ignoreY": true,
        "fixInterNull": true,
        "APKIBBLJLON": ""
      },
      {
        "$type": "AHHBJGEHACH",
        "type": "BODY_LANG",
        "aliasList": [
          "1051"
        ],
        "actionId": 127,
        "_flag": 131072,
        "isContinue": true,
        "forceDoFreeStyle": true,
        "canDoRepeatFreeStyle": false,
        "cantBackToIdleWhenSitLoop": true,
        "eventPatternSuiteKey": ""
      },
      {
        "$type": "AHHBJGEHACH",
        "type": "BODY_LANG",
        "aliasList": [
          "4169"
        ],
        "actionId": 130,
        "_flag": 131072,
        "isContinue": true,
        "forceDoFreeStyle": true,
        "canDoRepeatFreeStyle": false,
        "cantBackToIdleWhenSitLoop": true,
        "eventPatternSuiteKey": ""
      },
      {
        "$type": "KMKDFCOPMLP",
        "type": "LOOK_AT",
        "aliasList": [
          "1051"
        ],
        "actionId": 136,
        "_flag": 64,
        "headTurnTime": 0.5,
        "targetNpcAlias": "",
        "openBackProtect": true,
        "backProtectAngle": 10.0,
        "targetNpcLookAtPoint": "",
        "APKIBBLJLON": ""
      },
      {
        "$type": "KMKDFCOPMLP",
        "type": "LOOK_AT",
        "aliasList": [
          "4169"
        ],
        "actionId": 138,
        "_flag": 64,
        "headTurnTime": 0.5,
        "targetNpcAlias": "",
        "openBackProtect": true,
        "backProtectAngle": 10.0,
        "targetNpcLookAtPoint": "",
        "APKIBBLJLON": ""
      }
    ],
    [
      {
        "$type": "MoleMole.Config.ConfigLuaAction",
        "type": "LUA_ACTION",
        "duration": 0.10000000149011612,
        "actionId": 134,
        "invoke": true,
        "invokeAlias": "14038",
        "invokeParam": 2
      },
      {
        "$type": "MoleMole.Config.ConfigTimeProtectAction",
        "type": "TIME_PROTECT",
        "duration": 0.10000000149011612,
        "actionId": 135
      }
    ]
  ],
  "groupId": [
    {
      "grpId": 4199260328,
      "nextGrpId": 4199260329,
      "_noCircleNextGrpId": 4199260329
    },
    {
      "index": 1,
      "grpId": 4199260329,
      "nextGrpId": 4199260330,
      "_noCircleNextGrpId": 4199260330
    },
    {
      "index": 2,
      "grpId": 4199260330,
      "nextGrpId": 4199260331,
      "_noCircleNextGrpId": 4199260331
    },
    {
      "index": 3,
      "grpId": 4199260331,
      "nextGrpId": 4199260332,
      "_noCircleNextGrpId": 4199260332
    },
    {
      "index": 4,
      "grpId": 4199260332,
      "nextGrpId": 4199260333,
      "_noCircleNextGrpId": 4199260333
    }
  ],
  "freeStyleDic": {
    "4169": [
      1130,
      1172
    ],
    "1051": [
      1171,
      1130
    ]
  },
  "GJNILPCMCFC": {
    "4169": [
      "SitChat01AS",
      "SitHoldArm01AS",
      "SitPutArm01AS",
      "SitRaiseHand01AS",
      "SitRead01AS"
    ],
    "1051": [
      "SitChat01AS",
      "SitHoldArm01AS",
      "SitPutArm01AS",
      "SitShrug01AS",
      "SitThink01AS"
    ]
  },
  "DOGNDDGFIOE": 4199260332
}