{
  "luaDataPath": "",
  "dontUseDefaultFinish": true,
  "entityBan": "",
  "disableNpcLod": true,
  "isBanWidgetPet": true,
  "protectNpcMobileLod": true,
  "talkFlag": 5,
  "startFade": {
    "startFadeOutDuration": 0.0
  },
  "endFade": {
    "startFadeOutDuration": 0.0
  },
  "actors": [
    {
      "alias": "Avatar",
      "visible": true,
      "bornPointName": "",
      "relativePosType": "AVATAR_NEW",
      "relativePosNpcAlias": "",
      "_bindMovingTargetKey": ""
    },
    {
      "configID": 515,
      "alias": "515",
      "visible": true,
      "bornPointName": "",
      "removeActorType": "NEW_REMOVE",
      "relativePosType": "AVATAR_NEW",
      "relativePosNpcAlias": "",
      "_bindMovingTargetKey": ""
    },
    {
      "configID": 4030,
      "alias": "4030",
      "visible": true,
      "bornPointName": "",
      "removeActorType": "NEW_REMOVE",
      "relativePosType": "AVATAR_NEW",
      "relativePosNpcAlias": "",
      "_bindMovingTargetKey": ""
    }
  ],
  "group": [
    [
      {
        "$type": "MoleMole.Config.ConfigTeleportToAction",
        "type": "TELEPORT_TO",
        "aliasList": [
          "Avatar"
        ],
        "actionId": 106,
        "position": {
          "x": 0.3199999928474426,
          "y": 0.7519999742507935,
          "z": -1.8580000400543213
        },
        "forward": {
          "x": -0.9470000267028809,
          "y": 0.0020000000949949026,
          "z": -1.1180000305175781
        },
        "openLongDisTeleport": true,
        "_posBindMovingTargetKey": "",
        "_forwardBindMovingTargetKey": ""
      },
      {
        "$type": "LJLMDHDCAMK",
        "type": "LOOK_AT",
        "aliasList": [
          "Avatar"
        ],
        "actionId": 107,
        "_flag": 64,
        "headTurnTime": 0.5,
        "targetNpcAlias": "",
        "openBackProtect": true,
        "backProtectAngle": 60.0,
        "targetNpcLookAtPoint": "",
        "OAFJBHJHLJG": ""
      },
      {
        "$type": "MoleMole.Config.ConfigTeleportToAction",
        "type": "TELEPORT_TO",
        "aliasList": [
          "515"
        ],
        "actionId": 110,
        "position": {
          "x": -1.340999960899353,
          "y": 0.7540000081062317,
          "z": -3.625
        },
        "forward": {
          "x": 0.6639999747276306,
          "z": 1.0
        },
        "openLongDisTeleport": true,
        "_posBindMovingTargetKey": "",
        "_forwardBindMovingTargetKey": ""
      },
      {
        "$type": "LJLMDHDCAMK",
        "type": "LOOK_AT",
        "aliasList": [
          "515"
        ],
        "actionId": 111,
        "_flag": 64,
        "headTurnTime": 0.5,
        "targetNpcAlias": "",
        "openBackProtect": true,
        "backProtectAngle": 60.0,
        "targetNpcLookAtPoint": "",
        "OAFJBHJHLJG": ""
      },
      {
        "$type": "MoleMole.Config.ConfigTeleportToAction",
        "type": "TELEPORT_TO",
        "aliasList": [
          "4030"
        ],
        "actionId": 108,
        "position": {
          "x": -2.562999963760376,
          "y": 1.0199999809265137,
          "z": 7.127999782562256
        },
        "forward": {
          "x": 0.2680000066757202,
          "y": -0.2669999897480011,
          "z": -9.579999923706055
        },
        "openLongDisTeleport": true,
        "_posBindMovingTargetKey": "",
        "_forwardBindMovingTargetKey": ""
      },
      {
        "$type": "LJLMDHDCAMK",
        "type": "LOOK_AT",
        "aliasList": [
          "4030"
        ],
        "actionId": 109,
        "_flag": 64,
        "headTurnTime": 0.5,
        "targetNpcAlias": "",
        "openBackProtect": true,
        "backProtectAngle": 60.0,
        "targetNpcLookAtPoint": "",
        "OAFJBHJHLJG": ""
      }
    ],
    [
      {
        "$type": "FJKIHHKJLMJ",
        "type": "CAMERA_MOVE",
        "duration": 0.5,
        "actionId": 124,
        "camPosOffset": {
          "x": 0.07800000160932541,
          "y": 2.3269999027252197,
          "z": -2.818000078201294
        },
        "camForwardTargetOffset": {
          "x": 0.328000009059906,
          "y": 2.059000015258789,
          "z": -1.8880000114440918
        },
        "camFov": 25.0,
        "lerpPattern": 6,
        "cameraBlendType": "EaseInOutCubic",
        "NJBNNOMLKCK": {},
        "needZAxisRotate": true,
        "openCameraDither": false,
        "targetNpcAlias": "",
        "closeTreeLeafDither": true,
        "KJOEFBPOIIH": "",
        "IICFKKEBIEC": "",
        "EGEHEJEBLBJ": ""
      },
      {
        "$type": "PKKMAMONGEO",
        "type": "DIALOG",
        "aliasList": [
          "Avatar"
        ],
        "actionId": 102,
        "dialogID": 190581201,
        "protectTime": 1.0
      },
      {
        "$type": "FABLGECDBCH",
        "type": "BODY_LANG",
        "aliasList": [
          "Avatar"
        ],
        "actionId": 112,
        "bodyLangParam": 1190,
        "canDoRepeatFreeStyle": false,
        "cantBackToIdleWhenSitLoop": true,
        "eventPatternSuiteKey": "",
        "FOHHKFAIAAJ": ""
      },
      {
        "$type": "EMEHNEMOMMM",
        "type": "LOOK_AT_EYECTRL",
        "aliasList": [
          "Avatar"
        ],
        "actionId": 115,
        "_flag": 4672,
        "useTargetPos": false,
        "eyeRotateVecLeft": {
          "z": 3.0
        },
        "eyeRotateVecRight": {
          "z": 3.0
        },
        "turnTime": 0.20000000298023224,
        "targetNpcAlias": "",
        "targetPoint": "Face"
      },
      {
        "$type": "MoleMole.Config.ConfigVisibleInterAction",
        "type": "VISIBLE",
        "aliasList": [
          "Avatar"
        ],
        "actionId": 134,
        "isVisible": true,
        "_extraParam": ""
      },
      {
        "$type": "MoleMole.Config.ConfigEmotionTemplateAction",
        "type": "EMOTION_TEMPLATE",
        "aliasList": [
          "515"
        ],
        "actionId": 128,
        "_flag": 384,
        "emoTemplateID": 10100
      },
      {
        "$type": "FJKIHHKJLMJ",
        "type": "CAMERA_MOVE",
        "delayTime": 0.10000000149011612,
        "duration": 13.0,
        "actionId": 114,
        "camPosOffset": {
          "x": 0.11999999731779099,
          "y": 2.2990000247955322,
          "z": -2.677000045776367
        },
        "camForwardTargetOffset": {
          "x": 0.3700000047683716,
          "y": 2.0309998989105225,
          "z": -1.746999979019165
        },
        "camFov": 25.0,
        "cameraBlendType": "EaseOutQuad",
        "NJBNNOMLKCK": {},
        "needZAxisRotate": true,
        "openCameraDither": false,
        "targetNpcAlias": "",
        "closeTreeLeafDither": true,
        "KJOEFBPOIIH": "",
        "IICFKKEBIEC": "",
        "EGEHEJEBLBJ": ""
      },
      {
        "$type": "CPJKOIHIPBE",
        "type": "EMO_SYNC",
        "delayTime": 0.20000000298023224,
        "aliasList": [
          "Avatar"
        ],
        "actionId": 118,
        "_flag": 256,
        "dataPath": "",
        "phonemePath": "Cs_Emo_Avatar_Common/Cs_Emo_Avatar_Angry01",
        "emotionPath": "Cs_Emo_Avatar_Common/Cs_Emo_Avatar_Doubt01_B",
        "mateDataPath": "",
        "matePhonemePath": "",
        "mateEmotionPath": "",
        "phonemePathHashList": [
          14296606849723709100,
          5508348580450379567,
          7627497203169383327,
          8979581647593659876
        ],
        "emotionPathHashList": [
          2728448682492692904,
          1898638695637929735,
          6744657920390554177,
          3457791262489437525
        ],
        "FMDPBECPELH": "",
        "ADKBLPOKGIK": ""
      },
      {
        "$type": "EMEHNEMOMMM",
        "type": "LOOK_AT_EYECTRL",
        "delayTime": 1.8669999837875366,
        "aliasList": [
          "Avatar"
        ],
        "actionId": 116,
        "_flag": 4672,
        "useTargetPos": false,
        "eyeRotateVecLeft": {
          "x": 1.0,
          "z": 4.0
        },
        "eyeRotateVecRight": {
          "x": 1.0,
          "z": 4.0
        },
        "turnTime": 0.20000000298023224,
        "targetNpcAlias": "",
        "targetPoint": "Face"
      }
    ],
    [
      {
        "$type": "FJKIHHKJLMJ",
        "type": "CAMERA_MOVE",
        "duration": 0.5,
        "actionId": 133,
        "camPosOffset": {
          "x": 0.3179999887943268,
          "y": 2.177000045776367,
          "z": -1.1260000467300415
        },
        "camForwardTargetOffset": {
          "x": -0.23499999940395355,
          "y": 2.177000045776367,
          "z": -1.9589999914169312
        },
        "camFov": 20.0,
        "lerpPattern": 6,
        "cameraBlendType": "EaseOutQuad",
        "NJBNNOMLKCK": {},
        "openCameraDither": false,
        "targetNpcAlias": "",
        "closeTreeLeafDither": true,
        "KJOEFBPOIIH": "",
        "IICFKKEBIEC": "",
        "EGEHEJEBLBJ": ""
      },
      {
        "$type": "PKKMAMONGEO",
        "type": "DIALOG",
        "aliasList": [
          "Avatar"
        ],
        "actionId": 104,
        "dialogID": 190581202,
        "protectTime": 1.0
      },
      {
        "$type": "FABLGECDBCH",
        "type": "BODY_LANG",
        "aliasList": [
          "Avatar"
        ],
        "actionId": 120,
        "isContinue": true,
        "canDoRepeatFreeStyle": false,
        "cantBackToIdleWhenSitLoop": true,
        "eventPatternSuiteKey": "",
        "FOHHKFAIAAJ": ""
      },
      {
        "$type": "CPJKOIHIPBE",
        "type": "EMO_SYNC",
        "aliasList": [
          "Avatar"
        ],
        "actionId": 121,
        "_flag": 320,
        "dataPath": "",
        "phonemePath": "Cs_Emo_Avatar_Common/Cs_Emo_Avatar_Angry01",
        "emotionPath": "Cs_Emo_Avatar_Common/Cs_Emo_Avatar_Default01_B",
        "mateDataPath": "",
        "matePhonemePath": "",
        "mateEmotionPath": "",
        "phonemePathHashList": [
          14296606849723709100,
          5508348580450379567,
          7627497203169383327,
          8979581647593659876
        ],
        "emotionPathHashList": [
          12199605016063642592,
          6659610500948409138,
          10783156204328777859,
          13383650154785247612
        ],
        "FMDPBECPELH": "",
        "ADKBLPOKGIK": ""
      },
      {
        "$type": "EMEHNEMOMMM",
        "type": "LOOK_AT_EYECTRL",
        "aliasList": [
          "Avatar"
        ],
        "actionId": 123,
        "_flag": 4672,
        "useTargetPos": false,
        "turnTime": 0.20000000298023224,
        "targetNpcAlias": "",
        "targetPoint": "Face"
      },
      {
        "$type": "MoleMole.Config.ConfigVisibleInterAction",
        "type": "VISIBLE",
        "aliasList": [
          "Avatar"
        ],
        "actionId": 135,
        "_extraParam": ""
      },
      {
        "$type": "MoleMole.Config.ConfigEmotionTemplateAction",
        "type": "EMOTION_TEMPLATE",
        "aliasList": [
          "515"
        ],
        "actionId": 129,
        "_flag": 384,
        "emoTemplateID": 10303
      },
      {
        "$type": "CPJKOIHIPBE",
        "type": "EMO_SYNC",
        "aliasList": [
          "515"
        ],
        "actionId": 136,
        "_flag": 320,
        "dataPath": "Cs_Emo_Avatar_Simple_Common_Set/Cs_Emo_Avatar_Talk/Cs_Emo_Coop_Common/Cs_Emo_Coop_Kaveh_01/Cs_Emo_190581202_N515",
        "phonemePath": "",
        "emotionPath": "",
        "mateDataPath": "",
        "matePhonemePath": "",
        "mateEmotionPath": "",
        "dataPathHashList": [
          17093501193447377545,
          17813112825831147588,
          12680679448894474354,
          1190088458984357870
        ],
        "FMDPBECPELH": "",
        "ADKBLPOKGIK": ""
      },
      {
        "$type": "FABLGECDBCH",
        "type": "BODY_LANG",
        "delayTime": 0.40700000524520874,
        "aliasList": [
          "Avatar"
        ],
        "actionId": 132,
        "bodyLangParam": 1030,
        "canDoRepeatFreeStyle": false,
        "cantBackToIdleWhenSitLoop": true,
        "eventPatternSuiteKey": "",
        "FOHHKFAIAAJ": ""
      },
      {
        "$type": "EMEHNEMOMMM",
        "type": "LOOK_AT_EYECTRL",
        "delayTime": 1.4190000295639038,
        "aliasList": [
          "Avatar"
        ],
        "actionId": 130,
        "_flag": 4672,
        "useTargetPos": false,
        "eyeRotateVecLeft": {
          "x": 0.5,
          "z": -1.0
        },
        "eyeRotateVecRight": {
          "x": 0.5,
          "z": -1.0
        },
        "turnTime": 0.20000000298023224,
        "targetNpcAlias": "",
        "targetPoint": "Face"
      }
    ],
    [
      {
        "$type": "MoleMole.Config.ConfigTeleportToAction",
        "type": "TELEPORT_TO",
        "aliasList": [
          "Avatar"
        ],
        "actionId": 245,
        "_actionTagList": [
          "TalkSkip"
        ],
        "position": {
          "x": 0.3199999928474426,
          "y": 0.7519999742507935,
          "z": -1.8580000400543213
        },
        "forward": {
          "x": -0.9470000267028809,
          "y": 0.0020000000949949026,
          "z": -1.1180000305175781
        },
        "openLongDisTeleport": true,
        "syncForward": true,
        "_posBindMovingTargetKey": "",
        "_forwardBindMovingTargetKey": ""
      },
      {
        "$type": "PKKMAMONGEO",
        "type": "DIALOG",
        "aliasList": [
          "Avatar"
        ],
        "actionId": 255,
        "_actionTagList": [
          "TalkSkip"
        ],
        "dialogID": 190581202,
        "protectTime": 1.0
      },
      {
        "$type": "LJLMDHDCAMK",
        "type": "LOOK_AT",
        "aliasList": [
          "Avatar"
        ],
        "actionId": 256,
        "_flag": 64,
        "_actionTagList": [
          "TalkSkip"
        ],
        "headTurnTime": 0.5,
        "targetNpcAlias": "",
        "openBackProtect": true,
        "backProtectAngle": 60.0,
        "targetNpcLookAtPoint": "",
        "OAFJBHJHLJG": ""
      },
      {
        "$type": "EMEHNEMOMMM",
        "type": "LOOK_AT_EYECTRL",
        "aliasList": [
          "Avatar"
        ],
        "actionId": 259,
        "_flag": 4672,
        "_actionTagList": [
          "TalkSkip"
        ],
        "useTargetPos": false,
        "eyeRotateVecLeft": {
          "x": 0.5,
          "z": -1.0
        },
        "eyeRotateVecRight": {
          "x": 0.5,
          "z": -1.0
        },
        "turnTime": 0.20000000298023224,
        "targetNpcAlias": "",
        "targetPoint": "Face"
      },
      {
        "$type": "MoleMole.Config.ConfigVisibleInterAction",
        "type": "VISIBLE",
        "aliasList": [
          "Avatar"
        ],
        "actionId": 260,
        "_actionTagList": [
          "TalkSkip"
        ],
        "_extraParam": ""
      },
      {
        "$type": "MoleMole.Config.ConfigTeleportToAction",
        "type": "TELEPORT_TO",
        "aliasList": [
          "515"
        ],
        "actionId": 246,
        "_actionTagList": [
          "TalkSkip"
        ],
        "position": {
          "x": -1.340999960899353,
          "y": 0.7540000081062317,
          "z": -3.625
        },
        "forward": {
          "x": 0.6639999747276306,
          "z": 1.0
        },
        "openLongDisTeleport": true,
        "syncForward": true,
        "_posBindMovingTargetKey": "",
        "_forwardBindMovingTargetKey": ""
      },
      {
        "$type": "LJLMDHDCAMK",
        "type": "LOOK_AT",
        "aliasList": [
          "515"
        ],
        "actionId": 257,
        "_flag": 64,
        "_actionTagList": [
          "TalkSkip"
        ],
        "headTurnTime": 0.5,
        "targetNpcAlias": "",
        "openBackProtect": true,
        "backProtectAngle": 60.0,
        "targetNpcLookAtPoint": "",
        "OAFJBHJHLJG": ""
      },
      {
        "$type": "MoleMole.Config.ConfigTeleportToAction",
        "type": "TELEPORT_TO",
        "aliasList": [
          "4030"
        ],
        "actionId": 247,
        "_actionTagList": [
          "TalkSkip"
        ],
        "position": {
          "x": -2.562999963760376,
          "y": 1.0199999809265137,
          "z": 7.127999782562256
        },
        "forward": {
          "x": 0.2680000066757202,
          "y": -0.2669999897480011,
          "z": -9.579999923706055
        },
        "openLongDisTeleport": true,
        "syncForward": true,
        "_posBindMovingTargetKey": "",
        "_forwardBindMovingTargetKey": ""
      },
      {
        "$type": "LJLMDHDCAMK",
        "type": "LOOK_AT",
        "aliasList": [
          "4030"
        ],
        "actionId": 258,
        "_flag": 64,
        "_actionTagList": [
          "TalkSkip"
        ],
        "headTurnTime": 0.5,
        "targetNpcAlias": "",
        "openBackProtect": true,
        "backProtectAngle": 60.0,
        "targetNpcLookAtPoint": "",
        "OAFJBHJHLJG": ""
      },
      {
        "$type": "FJKIHHKJLMJ",
        "type": "CAMERA_MOVE",
        "delayTime": 0.5,
        "duration": 0.10000000149011612,
        "actionId": 254,
        "_actionTagList": [
          "TalkSkip"
        ],
        "camPosOffset": {
          "x": 0.3179999887943268,
          "y": 2.177000045776367,
          "z": -1.1260000467300415
        },
        "camForwardTargetOffset": {
          "x": -0.23499999940395355,
          "y": 2.177000045776367,
          "z": -1.9589999914169312
        },
        "camFov": 20.0,
        "lerpPattern": 6,
        "cameraBlendType": "EaseOutQuad",
        "NJBNNOMLKCK": {},
        "openCameraDither": false,
        "targetNpcAlias": "",
        "closeTreeLeafDither": true,
        "KJOEFBPOIIH": "",
        "IICFKKEBIEC": "",
        "EGEHEJEBLBJ": ""
      },
      {
        "$type": "CPJKOIHIPBE",
        "type": "EMO_SYNC",
        "delayTime": 0.5,
        "aliasList": [
          "Avatar"
        ],
        "actionId": 248,
        "_flag": 256,
        "_actionTagList": [
          "TalkSkip"
        ],
        "dataPath": "",
        "phonemePath": "Cs_Emo_Avatar_Common/Cs_Emo_Avatar_Angry01",
        "emotionPath": "Cs_Emo_Avatar_Common/Cs_Emo_Avatar_Default01_B",
        "mateDataPath": "",
        "matePhonemePath": "",
        "mateEmotionPath": "",
        "phonemePathHashList": [
          14296606849723709100,
          5508348580450379567,
          7627497203169383327,
          8979581647593659876
        ],
        "emotionPathHashList": [
          12199605016063642592,
          6659610500948409138,
          10783156204328777859,
          13383650154785247612
        ],
        "FMDPBECPELH": "",
        "ADKBLPOKGIK": ""
      },
      {
        "$type": "CPJKOIHIPBE",
        "type": "EMO_SYNC",
        "delayTime": 0.5,
        "aliasList": [
          "515"
        ],
        "actionId": 249,
        "_flag": 256,
        "_actionTagList": [
          "TalkSkip"
        ],
        "dataPath": "Cs_Emo_Avatar_Simple_Common_Set/Cs_Emo_Avatar_Talk/Cs_Emo_Coop_Common/Cs_Emo_Coop_Avatar/Kaveh/Cs_Emo_Avatar_Coop_Flipped01",
        "phonemePath": "",
        "emotionPath": "",
        "mateDataPath": "",
        "matePhonemePath": "",
        "mateEmotionPath": "",
        "dataPathHashList": [
          4142854602789711958,
          3561168801418276295,
          10514109196636861107,
          10191575195241532177
        ],
        "FMDPBECPELH": "",
        "ADKBLPOKGIK": ""
      },
      {
        "$type": "FABLGECDBCH",
        "type": "BODY_LANG",
        "delayTime": 1.0,
        "aliasList": [
          "Avatar"
        ],
        "actionId": 251,
        "_actionTagList": [
          "TalkSkip"
        ],
        "bodyLangParam": 1030,
        "canDoRepeatFreeStyle": false,
        "cantBackToIdleWhenSitLoop": true,
        "eventPatternSuiteKey": "",
        "FOHHKFAIAAJ": ""
      },
      {
        "$type": "CPJKOIHIPBE",
        "type": "EMO_SYNC",
        "delayTime": 1.0,
        "aliasList": [
          "515"
        ],
        "actionId": 250,
        "_flag": 256,
        "_actionTagList": [
          "TalkSkip"
        ],
        "dataPath": "Cs_Emo_Avatar_Simple_Common_Set/Cs_Emo_Avatar_Talk/Cs_Emo_Coop_Common/Cs_Emo_Coop_Kaveh_01/Cs_Emo_190581202_N515",
        "phonemePath": "",
        "emotionPath": "",
        "mateDataPath": "",
        "matePhonemePath": "",
        "mateEmotionPath": "",
        "dataPathHashList": [
          17093501193447377545,
          17813112825831147588,
          12680679448894474354,
          1190088458984357870
        ],
        "FMDPBECPELH": "",
        "ADKBLPOKGIK": ""
      },
      {
        "$type": "FABLGECDBCH",
        "type": "BODY_LANG",
        "delayTime": 1.5,
        "aliasList": [
          "515"
        ],
        "actionId": 252,
        "_actionTagList": [
          "TalkSkip"
        ],
        "bodyLangParam": 10100,
        "forceDoFreeStyle": true,
        "canDoRepeatFreeStyle": false,
        "cantBackToIdleWhenSitLoop": true,
        "eventPatternSuiteKey": "",
        "FOHHKFAIAAJ": ""
      },
      {
        "$type": "FABLGECDBCH",
        "type": "BODY_LANG",
        "delayTime": 2.0,
        "aliasList": [
          "515"
        ],
        "actionId": 253,
        "_actionTagList": [
          "TalkSkip"
        ],
        "bodyLangParam": 10401,
        "forceDoFreeStyle": true,
        "canDoRepeatFreeStyle": false,
        "cantBackToIdleWhenSitLoop": true,
        "eventPatternSuiteKey": "",
        "FOHHKFAIAAJ": ""
      }
    ]
  ],
  "groupId": [
    {
      "grpId": 206150332,
      "nextGrpId": 206150333,
      "_noCircleNextGrpId": 206150333
    },
    {
      "index": 1,
      "grpId": 206150333,
      "nextGrpId": 206150334,
      "_noCircleNextGrpId": 206150334
    },
    {
      "index": 2,
      "grpId": 206150334,
      "nextGrpId": 206150335,
      "_noCircleNextGrpId": 206150335
    },
    {
      "index": 3,
      "grpId": 206150335,
      "nextGrpId": 206150336,
      "_noCircleNextGrpId": 206150336
    }
  ],
  "freeStyleDic": {
    "515": [
      10100,
      10401
    ],
    "4030": []
  },
  "EKFBDAIDEEF": {
    "515": [
      "SitChat01AS",
      "SitHoldArm01AS",
      "SitPutArm01AS",
      "SitRead01AS",
      "SitShrug01AS",
      "SitThink01AS"
    ]
  },
  "GBPIKOLLKJH": {
    "KGFBJNAEBHO": "",
    "ADMLEHAKCPC": ""
  },
  "NPFDEBDMHJP": 206150335,
  "KEAMPHGKKAG": {
    "ANJBPLIOPCP": ""
  }
}