{
  "luaDataPath": "",
  "entityBan": "",
  "disableNpcLod": true,
  "protectNpcMobileLod": true,
  "talkFlag": 5,
  "startFade": {
    "startFadeOutDuration": 0.0
  },
  "endFade": {
    "startFadeOutDuration": 0.0
  },
  "actors": [
    {
      "alias": "Avatar",
      "visible": true,
      "bornPointName": "[3_330400461:-1999.523,202.407,2595.228,0.000,111.127,0.000]",
      "relativePosType": "AVATAR_NEW",
      "relativePosNpcAlias": "",
      "_bindMovingTargetKey": ""
    },
    {
      "configID": 515,
      "alias": "515",
      "visible": true,
      "bornPointName": "",
      "removeActorType": "NEW_REMOVE",
      "relativePosType": "AVATAR_NEW",
      "relativePosNpcAlias": "",
      "_bindMovingTargetKey": ""
    },
    {
      "configID": 13277,
      "alias": "13277",
      "visible": true,
      "bornPointName": "",
      "removeActorType": "NEW_REMOVE",
      "relativePosType": "AVATAR_NEW",
      "relativePosNpcAlias": "",
      "_bindMovingTargetKey": ""
    }
  ],
  "group": [
    [
      {
        "$type": "MoleMole.Config.ConfigTimeProtectAction",
        "type": "TIME_PROTECT",
        "duration": 0.5,
        "actionId": 107
      },
      {
        "$type": "FJKIHHKJLMJ",
        "type": "CAMERA_MOVE",
        "duration": 1.0,
        "actionId": 137,
        "cameraPosType": "RELATIVE_TO_TARGET_ENTITY",
        "camTargetType": "RELATIVE_TO_TARGET_ENTITY",
        "camFov": 30.0,
        "lerpPattern": 6,
        "cameraBlendType": "EaseInOutCubic",
        "NJBNNOMLKCK": {},
        "openCameraDither": false,
        "targetNpcAlias": "515",
        "closeTreeLeafDither": true,
        "KJOEFBPOIIH": "",
        "IICFKKEBIEC": "",
        "EGEHEJEBLBJ": ""
      },
      {
        "$type": "PKKMAMONGEO",
        "type": "DIALOG",
        "aliasList": [
          "515"
        ],
        "actionId": 106,
        "dialogID": 190590601,
        "protectTime": 0.5
      },
      {
        "$type": "MoleMole.Config.ConfigEmotionTemplateAction",
        "type": "EMOTION_TEMPLATE",
        "aliasList": [
          "515"
        ],
        "actionId": 108,
        "_flag": 384,
        "emoTemplateID": 10602
      },
      {
        "$type": "CPJKOIHIPBE",
        "type": "EMO_SYNC",
        "aliasList": [
          "515"
        ],
        "actionId": 142,
        "_flag": 256,
        "dataPath": "Cs_Emo_Avatar_Simple_Common_Set/Cs_Emo_Avatar_Talk/Cs_Emo_Coop_Common/Cs_Emo_Coop_Kaveh_01/Cs_Emo_190590601",
        "phonemePath": "",
        "emotionPath": "",
        "mateDataPath": "",
        "matePhonemePath": "",
        "mateEmotionPath": "",
        "dataPathHashList": [
          6684759982140754495,
          9537991510605889928,
          10420858023239568144,
          3972386445941259703
        ],
        "FMDPBECPELH": "",
        "ADKBLPOKGIK": ""
      },
      {
        "$type": "LJLMDHDCAMK",
        "type": "LOOK_AT",
        "aliasList": [
          "515"
        ],
        "actionId": 152,
        "_flag": 64,
        "headTurnTime": 0.5,
        "targetNpcAlias": "",
        "openBackProtect": true,
        "backProtectAngle": 60.0,
        "targetNpcLookAtPoint": "",
        "OAFJBHJHLJG": ""
      },
      {
        "$type": "LJLMDHDCAMK",
        "type": "LOOK_AT",
        "aliasList": [
          "13277"
        ],
        "actionId": 151,
        "_flag": 64,
        "headTurnTime": 0.5,
        "targetNpcAlias": "",
        "openBackProtect": true,
        "backProtectAngle": 60.0,
        "targetNpcLookAtPoint": "",
        "OAFJBHJHLJG": ""
      },
      {
        "$type": "MoleMole.Config.ConfigTeleportToAction",
        "type": "TELEPORT_TO",
        "aliasList": [
          "13277"
        ],
        "actionId": 159,
        "position": {
          "x": -1996.594970703125,
          "y": 202.40699768066406,
          "z": 2593.14404296875
        },
        "forward": {
          "x": -1.684999942779541,
          "z": 2.694000005722046
        },
        "openLongDisTeleport": true,
        "_posBindMovingTargetKey": "",
        "_forwardBindMovingTargetKey": ""
      }
    ],
    [
      {
        "$type": "MoleMole.Config.ConfigTimeProtectAction",
        "type": "TIME_PROTECT",
        "duration": 0.5,
        "actionId": 111
      },
      {
        "$type": "PKKMAMONGEO",
        "type": "DIALOG",
        "aliasList": [
          "515"
        ],
        "actionId": 110,
        "dialogID": 190590602,
        "protectTime": 0.5
      },
      {
        "$type": "MoleMole.Config.ConfigEmotionTemplateAction",
        "type": "EMOTION_TEMPLATE",
        "aliasList": [
          "515"
        ],
        "actionId": 112,
        "_flag": 384,
        "emoTemplateID": 10601
      },
      {
        "$type": "CPJKOIHIPBE",
        "type": "EMO_SYNC",
        "aliasList": [
          "515"
        ],
        "actionId": 143,
        "_flag": 256,
        "dataPath": "Cs_Emo_Avatar_Simple_Common_Set/Cs_Emo_Avatar_Talk/Cs_Emo_Coop_Common/Cs_Emo_Coop_Kaveh_01/Cs_Emo_190590602",
        "phonemePath": "",
        "emotionPath": "",
        "mateDataPath": "",
        "matePhonemePath": "",
        "mateEmotionPath": "",
        "dataPathHashList": [
          3985507814288435380,
          1143730139127011478,
          18319818252095820442,
          10081057575335041810
        ],
        "FMDPBECPELH": "",
        "ADKBLPOKGIK": ""
      }
    ],
    [
      {
        "$type": "MoleMole.Config.ConfigTimeProtectAction",
        "type": "TIME_PROTECT",
        "duration": 0.5,
        "actionId": 115
      },
      {
        "$type": "PKKMAMONGEO",
        "type": "DIALOG",
        "aliasList": [
          "515"
        ],
        "actionId": 114,
        "dialogID": 190590603,
        "protectTime": 0.5
      },
      {
        "$type": "MoleMole.Config.ConfigEmotionTemplateAction",
        "type": "EMOTION_TEMPLATE",
        "aliasList": [
          "515"
        ],
        "actionId": 116,
        "_flag": 384,
        "emoTemplateID": 10100
      },
      {
        "$type": "CPJKOIHIPBE",
        "type": "EMO_SYNC",
        "aliasList": [
          "515"
        ],
        "actionId": 144,
        "_flag": 320,
        "dataPath": "Cs_Emo_Avatar_Simple_Common_Set/Cs_Emo_Avatar_Talk/Cs_Emo_Coop_Common/Cs_Emo_Coop_Kaveh_01/Cs_Emo_190590603",
        "phonemePath": "",
        "emotionPath": "",
        "mateDataPath": "",
        "matePhonemePath": "",
        "mateEmotionPath": "",
        "dataPathHashList": [
          3746989899803081138,
          1502737565252603500,
          4890634059731836888,
          10632075614327874503
        ],
        "FMDPBECPELH": "",
        "ADKBLPOKGIK": ""
      }
    ],
    [
      {
        "$type": "FJKIHHKJLMJ",
        "type": "CAMERA_MOVE",
        "duration": 1.0,
        "actionId": 138,
        "cameraPosType": "RELATIVE_TO_TARGET_ENTITY",
        "camTargetType": "RELATIVE_TO_TARGET_ENTITY",
        "camFov": 30.0,
        "lerpPattern": 6,
        "cameraBlendType": "EaseInOutCubic",
        "NJBNNOMLKCK": {},
        "openCameraDither": false,
        "targetNpcAlias": "13277",
        "closeTreeLeafDither": true,
        "KJOEFBPOIIH": "",
        "IICFKKEBIEC": "",
        "EGEHEJEBLBJ": ""
      },
      {
        "$type": "PKKMAMONGEO",
        "type": "DIALOG",
        "aliasList": [
          "13277"
        ],
        "actionId": 118,
        "dialogID": 190590604,
        "protectTime": 0.5
      },
      {
        "$type": "CPJKOIHIPBE",
        "type": "EMO_SYNC",
        "aliasList": [
          "13277"
        ],
        "actionId": 149,
        "_flag": 320,
        "dataPath": "Cs_Emo_Avatar_Simple_Common_Set/Cs_Emo_Avatar_Talk/Cs_Emo_Coop_Common/Cs_Emo_Coop_Kaveh_01/Cs_Emo_190590604",
        "phonemePath": "",
        "emotionPath": "",
        "mateDataPath": "",
        "matePhonemePath": "",
        "mateEmotionPath": "",
        "dataPathHashList": [
          11986349169322106652,
          14378600333069629756,
          1856829155863172191,
          8456392321451487917
        ],
        "FMDPBECPELH": "",
        "ADKBLPOKGIK": ""
      },
      {
        "$type": "FABLGECDBCH",
        "type": "BODY_LANG",
        "aliasList": [
          "13277"
        ],
        "actionId": 153,
        "bodyLangParam": 1130,
        "canDoRepeatFreeStyle": false,
        "cantBackToIdleWhenSitLoop": true,
        "eventPatternSuiteKey": "",
        "FOHHKFAIAAJ": ""
      },
      {
        "$type": "FABLGECDBCH",
        "type": "BODY_LANG",
        "delayTime": 1.5520000457763672,
        "aliasList": [
          "13277"
        ],
        "actionId": 154,
        "isContinue": true,
        "canDoRepeatFreeStyle": false,
        "cantBackToIdleWhenSitLoop": true,
        "eventPatternSuiteKey": "",
        "FOHHKFAIAAJ": ""
      },
      {
        "$type": "FABLGECDBCH",
        "type": "BODY_LANG",
        "delayTime": 2.6530001163482666,
        "aliasList": [
          "13277"
        ],
        "actionId": 155,
        "bodyLangParam": 1171,
        "canDoRepeatFreeStyle": false,
        "cantBackToIdleWhenSitLoop": true,
        "eventPatternSuiteKey": "",
        "FOHHKFAIAAJ": ""
      }
    ],
    [
      {
        "$type": "MoleMole.Config.ConfigTimeProtectAction",
        "type": "TIME_PROTECT",
        "duration": 0.5,
        "actionId": 122
      },
      {
        "$type": "FJKIHHKJLMJ",
        "type": "CAMERA_MOVE",
        "duration": 1.0,
        "actionId": 139,
        "cameraPosType": "RELATIVE_TO_TARGET_ENTITY",
        "camTargetType": "RELATIVE_TO_TARGET_ENTITY",
        "camFov": 30.0,
        "lerpPattern": 6,
        "cameraBlendType": "EaseInOutCubic",
        "NJBNNOMLKCK": {},
        "openCameraDither": false,
        "targetNpcAlias": "515",
        "closeTreeLeafDither": true,
        "KJOEFBPOIIH": "",
        "IICFKKEBIEC": "",
        "EGEHEJEBLBJ": ""
      },
      {
        "$type": "PKKMAMONGEO",
        "type": "DIALOG",
        "aliasList": [
          "515"
        ],
        "actionId": 120,
        "dialogID": 190590605,
        "protectTime": 0.5
      },
      {
        "$type": "MoleMole.Config.ConfigEmotionTemplateAction",
        "type": "EMOTION_TEMPLATE",
        "aliasList": [
          "515"
        ],
        "actionId": 123,
        "_flag": 384,
        "emoTemplateID": 10303
      },
      {
        "$type": "CPJKOIHIPBE",
        "type": "EMO_SYNC",
        "aliasList": [
          "515"
        ],
        "actionId": 145,
        "_flag": 256,
        "dataPath": "Cs_Emo_Avatar_Simple_Common_Set/Cs_Emo_Avatar_Talk/Cs_Emo_Coop_Common/Cs_Emo_Coop_Kaveh_01/Cs_Emo_190590605",
        "phonemePath": "",
        "emotionPath": "",
        "mateDataPath": "",
        "matePhonemePath": "",
        "mateEmotionPath": "",
        "dataPathHashList": [
          7364711219617242398,
          5882909825879277406,
          6930116966751197316,
          1336147810035019922
        ],
        "FMDPBECPELH": "",
        "ADKBLPOKGIK": ""
      },
      {
        "$type": "FABLGECDBCH",
        "type": "BODY_LANG",
        "aliasList": [
          "13277"
        ],
        "actionId": 156,
        "isContinue": true,
        "canDoRepeatFreeStyle": false,
        "cantBackToIdleWhenSitLoop": true,
        "eventPatternSuiteKey": "",
        "FOHHKFAIAAJ": ""
      },
      {
        "$type": "HDGKHDNFMIM",
        "type": "DIALOG_SELECT",
        "delayTime": 0.4000000059604645,
        "aliasList": [
          "Avatar"
        ],
        "actionId": 121,
        "dialogIDList": [
          190590699
        ],
        "grpIDList": [
          207047911
        ],
        "useGrpId": true,
        "countDownGrpId": 207047905
      }
    ],
    [
      {
        "$type": "MoleMole.Config.ConfigTimeProtectAction",
        "type": "TIME_PROTECT",
        "duration": 0.5,
        "actionId": 127
      },
      {
        "$type": "PKKMAMONGEO",
        "type": "DIALOG",
        "aliasList": [
          "515"
        ],
        "actionId": 125,
        "dialogID": 190590606,
        "protectTime": 0.5
      },
      {
        "$type": "MoleMole.Config.ConfigEmotionTemplateAction",
        "type": "EMOTION_TEMPLATE",
        "aliasList": [
          "515"
        ],
        "actionId": 128,
        "_flag": 384,
        "emoTemplateID": 10100
      },
      {
        "$type": "CPJKOIHIPBE",
        "type": "EMO_SYNC",
        "aliasList": [
          "515"
        ],
        "actionId": 146,
        "_flag": 256,
        "dataPath": "Cs_Emo_Avatar_Simple_Common_Set/Cs_Emo_Avatar_Talk/Cs_Emo_Coop_Common/Cs_Emo_Coop_Kaveh_01/Cs_Emo_190590606",
        "phonemePath": "",
        "emotionPath": "",
        "mateDataPath": "",
        "matePhonemePath": "",
        "mateEmotionPath": "",
        "dataPathHashList": [
          17314190442394446252,
          1166366757066234110,
          8354033120010491912,
          4149937262338257185
        ],
        "FMDPBECPELH": "",
        "ADKBLPOKGIK": ""
      },
      {
        "$type": "HDGKHDNFMIM",
        "type": "DIALOG_SELECT",
        "delayTime": 0.4000000059604645,
        "aliasList": [
          "Avatar"
        ],
        "actionId": 126,
        "dialogIDList": [
          190590698
        ],
        "grpIDList": [
          207047912
        ],
        "useGrpId": true,
        "countDownGrpId": 207047905
      }
    ],
    [
      {
        "$type": "MoleMole.Config.ConfigTimeProtectAction",
        "type": "TIME_PROTECT",
        "duration": 0.5,
        "actionId": 131
      },
      {
        "$type": "PKKMAMONGEO",
        "type": "DIALOG",
        "aliasList": [
          "515"
        ],
        "actionId": 130,
        "dialogID": 190590607,
        "protectTime": 0.5
      },
      {
        "$type": "MoleMole.Config.ConfigEmotionTemplateAction",
        "type": "EMOTION_TEMPLATE",
        "aliasList": [
          "515"
        ],
        "actionId": 132,
        "_flag": 384,
        "emoTemplateID": 10100
      },
      {
        "$type": "CPJKOIHIPBE",
        "type": "EMO_SYNC",
        "aliasList": [
          "515"
        ],
        "actionId": 147,
        "_flag": 256,
        "dataPath": "Cs_Emo_Avatar_Simple_Common_Set/Cs_Emo_Avatar_Talk/Cs_Emo_Coop_Common/Cs_Emo_Coop_Kaveh_01/Cs_Emo_190590607",
        "phonemePath": "",
        "emotionPath": "",
        "mateDataPath": "",
        "matePhonemePath": "",
        "mateEmotionPath": "",
        "dataPathHashList": [
          6066692245666328613,
          17067776554105919916,
          17518542577451429895,
          10387645616674901308
        ],
        "FMDPBECPELH": "",
        "ADKBLPOKGIK": ""
      }
    ],
    [
      {
        "$type": "MoleMole.Config.ConfigTimeProtectAction",
        "type": "TIME_PROTECT",
        "duration": 0.5,
        "actionId": 135
      },
      {
        "$type": "PKKMAMONGEO",
        "type": "DIALOG",
        "aliasList": [
          "515"
        ],
        "actionId": 134,
        "dialogID": 190590608,
        "protectTime": 0.5
      },
      {
        "$type": "MoleMole.Config.ConfigEmotionTemplateAction",
        "type": "EMOTION_TEMPLATE",
        "aliasList": [
          "515"
        ],
        "actionId": 136,
        "_flag": 384,
        "emoTemplateID": 10101
      },
      {
        "$type": "CPJKOIHIPBE",
        "type": "EMO_SYNC",
        "aliasList": [
          "515"
        ],
        "actionId": 148,
        "_flag": 320,
        "dataPath": "Cs_Emo_Avatar_Simple_Common_Set/Cs_Emo_Avatar_Talk/Cs_Emo_Coop_Common/Cs_Emo_Coop_Kaveh_01/Cs_Emo_190590608",
        "phonemePath": "",
        "emotionPath": "",
        "mateDataPath": "",
        "matePhonemePath": "",
        "mateEmotionPath": "",
        "dataPathHashList": [
          7884119768646375328,
          14543768552186936208,
          699701128430487643,
          13856209160901123738
        ],
        "FMDPBECPELH": "",
        "ADKBLPOKGIK": ""
      }
    ],
    [
      {
        "$type": "MoleMole.Config.ConfigSimpleBlackScreenAction",
        "type": "SIMPLE_BLACK_SCREEN",
        "actionId": 102,
        "durationToBlack": 0.5,
        "durationKeepBlack": 2.0,
        "durationFromBlack": 0.5,
        "textMapID": ""
      },
      {
        "$type": "PKKMAMONGEO",
        "type": "DIALOG_CLEAR",
        "actionId": 103
      },
      {
        "$type": "MoleMole.Config.ConfigTimeProtectAction",
        "type": "TIME_PROTECT",
        "duration": 0.800000011920929,
        "actionId": 157
      },
      {
        "$type": "MoleMole.Config.ConfigEmotionTemplateAction",
        "type": "EMOTION_TEMPLATE",
        "aliasList": [
          "515"
        ],
        "actionId": 141,
        "_flag": 384,
        "emoTemplateID": 10100
      },
      {
        "$type": "FJKIHHKJLMJ",
        "type": "CAMERA_MOVE",
        "delayTime": 0.6000000238418579,
        "duration": 0.10000000149011612,
        "actionId": 158,
        "camPosOffset": {
          "x": -2002.2349853515625,
          "y": 204.072998046875,
          "z": 2596.26904296875
        },
        "camForwardTargetOffset": {
          "x": -2001.322021484375,
          "y": 203.83200073242188,
          "z": 2595.93994140625
        },
        "lerpPattern": 6,
        "cameraBlendType": "EaseInOutCubic",
        "NJBNNOMLKCK": {},
        "needZAxisRotate": true,
        "openCameraDither": false,
        "targetNpcAlias": "",
        "closeTreeLeafDither": true,
        "KJOEFBPOIIH": "",
        "IICFKKEBIEC": "",
        "EGEHEJEBLBJ": ""
      },
      {
        "$type": "MoleMole.Config.ConfigVisibleInterAction",
        "type": "VISIBLE",
        "delayTime": 0.6000000238418579,
        "aliasList": [
          "Avatar"
        ],
        "actionId": 104,
        "isVisible": true,
        "_extraParam": ""
      },
      {
        "$type": "MoleMole.Config.ConfigVisibleInterAction",
        "type": "VISIBLE",
        "delayTime": 0.6000000238418579,
        "aliasList": [
          "515"
        ],
        "actionId": 160,
        "_extraParam": ""
      },
      {
        "$type": "MoleMole.Config.ConfigVisibleInterAction",
        "type": "VISIBLE",
        "delayTime": 0.6000000238418579,
        "aliasList": [
          "13277"
        ],
        "actionId": 161,
        "_extraParam": ""
      }
    ],
    [
      {
        "$type": "MoleMole.Config.ConfigVisibleInterAction",
        "type": "VISIBLE",
        "aliasList": [
          "Avatar"
        ],
        "actionId": 261,
        "_actionTagList": [
          "TalkSkip"
        ],
        "isVisible": true,
        "_extraParam": ""
      },
      {
        "$type": "CPJKOIHIPBE",
        "type": "EMO_SYNC",
        "aliasList": [
          "515"
        ],
        "actionId": 251,
        "_flag": 256,
        "_actionTagList": [
          "TalkSkip"
        ],
        "dataPath": "Cs_Emo_Avatar_Simple_Common_Set/Cs_Emo_Avatar_Talk/Cs_Emo_Coop_Common/Cs_Emo_Coop_Kaveh_01/Cs_Emo_190590608",
        "phonemePath": "",
        "emotionPath": "",
        "mateDataPath": "",
        "matePhonemePath": "",
        "mateEmotionPath": "",
        "dataPathHashList": [
          7884119768646375328,
          14543768552186936208,
          699701128430487643,
          13856209160901123738
        ],
        "FMDPBECPELH": "",
        "ADKBLPOKGIK": ""
      },
      {
        "$type": "PKKMAMONGEO",
        "type": "DIALOG",
        "aliasList": [
          "515"
        ],
        "actionId": 256,
        "_actionTagList": [
          "TalkSkip"
        ],
        "dialogID": 190590608,
        "protectTime": 0.5
      },
      {
        "$type": "LJLMDHDCAMK",
        "type": "LOOK_AT",
        "aliasList": [
          "515"
        ],
        "actionId": 257,
        "_flag": 64,
        "_actionTagList": [
          "TalkSkip"
        ],
        "headTurnTime": 0.5,
        "targetNpcAlias": "",
        "openBackProtect": true,
        "backProtectAngle": 60.0,
        "targetNpcLookAtPoint": "",
        "OAFJBHJHLJG": ""
      },
      {
        "$type": "MoleMole.Config.ConfigVisibleInterAction",
        "type": "VISIBLE",
        "aliasList": [
          "515"
        ],
        "actionId": 259,
        "_actionTagList": [
          "TalkSkip"
        ],
        "_extraParam": ""
      },
      {
        "$type": "MoleMole.Config.ConfigTeleportToAction",
        "type": "TELEPORT_TO",
        "aliasList": [
          "13277"
        ],
        "actionId": 250,
        "_actionTagList": [
          "TalkSkip"
        ],
        "position": {
          "x": -1996.594970703125,
          "y": 202.40699768066406,
          "z": 2593.14404296875
        },
        "forward": {
          "x": -1.684999942779541,
          "z": 2.694000005722046
        },
        "openLongDisTeleport": true,
        "syncForward": true,
        "_posBindMovingTargetKey": "",
        "_forwardBindMovingTargetKey": ""
      },
      {
        "$type": "LJLMDHDCAMK",
        "type": "LOOK_AT",
        "aliasList": [
          "13277"
        ],
        "actionId": 258,
        "_flag": 64,
        "_actionTagList": [
          "TalkSkip"
        ],
        "headTurnTime": 0.5,
        "targetNpcAlias": "",
        "openBackProtect": true,
        "backProtectAngle": 60.0,
        "targetNpcLookAtPoint": "",
        "OAFJBHJHLJG": ""
      },
      {
        "$type": "MoleMole.Config.ConfigVisibleInterAction",
        "type": "VISIBLE",
        "aliasList": [
          "13277"
        ],
        "actionId": 260,
        "_actionTagList": [
          "TalkSkip"
        ],
        "_extraParam": ""
      },
      {
        "$type": "FJKIHHKJLMJ",
        "type": "CAMERA_MOVE",
        "delayTime": 0.5,
        "duration": 0.10000000149011612,
        "actionId": 255,
        "_actionTagList": [
          "TalkSkip"
        ],
        "camPosOffset": {
          "x": -2002.2349853515625,
          "y": 204.072998046875,
          "z": 2596.26904296875
        },
        "camForwardTargetOffset": {
          "x": -2001.322021484375,
          "y": 203.83200073242188,
          "z": 2595.93994140625
        },
        "lerpPattern": 6,
        "cameraBlendType": "EaseInOutCubic",
        "NJBNNOMLKCK": {},
        "needZAxisRotate": true,
        "openCameraDither": false,
        "targetNpcAlias": "",
        "closeTreeLeafDither": true,
        "KJOEFBPOIIH": "",
        "IICFKKEBIEC": "",
        "EGEHEJEBLBJ": ""
      },
      {
        "$type": "CPJKOIHIPBE",
        "type": "EMO_SYNC",
        "delayTime": 0.5,
        "aliasList": [
          "515"
        ],
        "actionId": 252,
        "_flag": 256,
        "_actionTagList": [
          "TalkSkip"
        ],
        "dataPath": "Cs_Emo_Avatar_Simple_Common_Set/Cs_Emo_Avatar_Talk/Cs_Emo_Coop_Common/Cs_Emo_Coop_Avatar/Kaveh/Cs_Emo_Avatar_Coop_Standby",
        "phonemePath": "",
        "emotionPath": "",
        "mateDataPath": "",
        "matePhonemePath": "",
        "mateEmotionPath": "",
        "dataPathHashList": [
          2680281186812705618,
          6193980532166180275,
          15869759553901121845,
          9598873381561099387
        ],
        "FMDPBECPELH": "",
        "ADKBLPOKGIK": ""
      },
      {
        "$type": "CPJKOIHIPBE",
        "type": "EMO_SYNC",
        "delayTime": 0.5,
        "aliasList": [
          "13277"
        ],
        "actionId": 253,
        "_flag": 256,
        "_actionTagList": [
          "TalkSkip"
        ],
        "dataPath": "Cs_Emo_Avatar_Simple_Common_Set/Cs_Emo_Avatar_Talk/Cs_Emo_Coop_Common/Cs_Emo_Coop_Kaveh_01/Cs_Emo_190590604",
        "phonemePath": "",
        "emotionPath": "",
        "mateDataPath": "",
        "matePhonemePath": "",
        "mateEmotionPath": "",
        "dataPathHashList": [
          11986349169322106652,
          14378600333069629756,
          1856829155863172191,
          8456392321451487917
        ],
        "FMDPBECPELH": "",
        "ADKBLPOKGIK": ""
      },
      {
        "$type": "MoleMole.Config.ConfigSimpleBlackScreenAction",
        "type": "SIMPLE_BLACK_SCREEN",
        "delayTime": 1.0,
        "actionId": 262,
        "_actionTagList": [
          "TalkSkip"
        ],
        "durationToBlack": 0.5,
        "durationKeepBlack": 2.0,
        "durationFromBlack": 0.5,
        "textMapID": ""
      },
      {
        "$type": "FABLGECDBCH",
        "type": "BODY_LANG",
        "delayTime": 1.0,
        "aliasList": [
          "515"
        ],
        "actionId": 254,
        "_actionTagList": [
          "TalkSkip"
        ],
        "bodyLangParam": 10100,
        "forceDoFreeStyle": true,
        "canDoRepeatFreeStyle": false,
        "cantBackToIdleWhenSitLoop": true,
        "eventPatternSuiteKey": "",
        "FOHHKFAIAAJ": ""
      }
    ]
  ],
  "groupId": [
    {
      "grpId": 207047906,
      "nextGrpId": 207047907,
      "_noCircleNextGrpId": 207047907
    },
    {
      "index": 1,
      "grpId": 207047907,
      "nextGrpId": 207047908,
      "_noCircleNextGrpId": 207047908
    },
    {
      "index": 2,
      "grpId": 207047908,
      "nextGrpId": 207047909,
      "_noCircleNextGrpId": 207047909
    },
    {
      "index": 3,
      "grpId": 207047909,
      "nextGrpId": 207047910,
      "_noCircleNextGrpId": 207047910
    },
    {
      "index": 4,
      "grpId": 207047910,
      "nextGrpId": 207047911,
      "_noCircleNextGrpId": 207047911
    },
    {
      "index": 5,
      "grpId": 207047911,
      "nextGrpId": 207047912,
      "_noCircleNextGrpId": 207047912
    },
    {
      "index": 6,
      "grpId": 207047912,
      "nextGrpId": 207047913,
      "_noCircleNextGrpId": 207047913
    },
    {
      "index": 7,
      "grpId": 207047913,
      "nextGrpId": 207047914,
      "_noCircleNextGrpId": 207047914
    },
    {
      "index": 8,
      "grpId": 207047914,
      "nextGrpId": 2123517838,
      "_noCircleNextGrpId": 2123517838
    },
    {
      "index": 9,
      "grpId": 2123517838,
      "nextGrpId": 2123517839,
      "_noCircleNextGrpId": 2123517839
    }
  ],
  "freeStyleDic": {
    "515": [
      10601,
      10100,
      10401,
      10101
    ],
    "13277": [
      1130,
      1171
    ]
  },
  "EKFBDAIDEEF": {
    "515": [
      "SitChat01AS",
      "SitHoldArm01AS",
      "SitPutArm01AS",
      "SitRead01AS",
      "SitShrug01AS",
      "SitThink01AS"
    ],
    "13277": [
      "SitChat01AS",
      "SitHoldArm01AS",
      "SitPutArm01AS",
      "SitRaiseHand01AS",
      "SitRead01AS"
    ]
  },
  "GBPIKOLLKJH": {
    "KGFBJNAEBHO": "",
    "ADMLEHAKCPC": ""
  },
  "NPFDEBDMHJP": 2123517838,
  "KEAMPHGKKAG": {
    "ANJBPLIOPCP": ""
  }
}