{
  "luaDataPath": "",
  "isSimpleTalk": true,
  "entityBan": "",
  "startFade": {
    "startFadeOutDuration": 0.0
  },
  "endFade": {
    "startFadeOutDuration": 0.0
  },
  "actors": [
    {
      "alias": "Avatar",
      "visible": true,
      "bornPointName": "",
      "relativePosNpcAlias": "",
      "_bindMovingTargetKey": ""
    },
    {
      "configID": 1581,
      "alias": "1581",
      "visible": true,
      "bornPointName": "Q41120_fende",
      "relativePosNpcAlias": "",
      "_bindMovingTargetKey": ""
    },
    {
      "configID": 1005,
      "alias": "1005",
      "visible": true,
      "bornPointName": "",
      "useRelativePos": true,
      "relativePos": {
        "x": 0.5,
        "z": 0.5
      },
      "relativePosNpcAlias": "",
      "_bindMovingTargetKey": ""
    }
  ],
  "group": [
    [
      {
        "$type": "PKKMAMONGEO",
        "type": "DIALOG",
        "aliasList": [
          "1581"
        ],
        "dialogID": 411200401
      },
      {
        "$type": "LLGANGLOEEO",
        "type": "STEER_TO",
        "duration": 1.0,
        "aliasList": [
          "1581"
        ],
        "steerType": "TO_LOCAL_AVATAR",
        "useSteerAnim": true,
        "targetNpcAlias": "",
        "OAFJBHJHLJG": ""
      }
    ],
    [
      {
        "$type": "HDGKHDNFMIM",
        "type": "DIALOG_SELECT",
        "delayTime": 0.4000000059604645,
        "aliasList": [
          "Avatar"
        ],
        "dialogIDList": [
          411200402
        ],
        "grpIDList": [
          1828580107
        ],
        "useGrpId": true
      }
    ],
    [
      {
        "$type": "PKKMAMONGEO",
        "type": "DIALOG",
        "aliasList": [
          "1581"
        ],
        "dialogID": 411200403
      }
    ],
    [
      {
        "$type": "HDGKHDNFMIM",
        "type": "DIALOG_SELECT",
        "delayTime": 0.4000000059604645,
        "aliasList": [
          "Avatar"
        ],
        "dialogIDList": [
          411200404
        ],
        "grpIDList": [
          1828580109
        ],
        "useGrpId": true
      }
    ],
    [
      {
        "$type": "PKKMAMONGEO",
        "type": "DIALOG",
        "aliasList": [
          "1581"
        ],
        "dialogID": 411200405
      }
    ],
    [
      {
        "$type": "PKKMAMONGEO",
        "type": "DIALOG",
        "aliasList": [
          "1005"
        ],
        "dialogID": 411200406
      }
    ]
  ],
  "groupId": [
    {
      "grpId": 1828580105,
      "nextGrpId": 1828580106
    },
    {
      "index": 1,
      "grpId": 1828580106,
      "nextGrpId": 1828580107
    },
    {
      "index": 2,
      "grpId": 1828580107,
      "nextGrpId": 1828580108
    },
    {
      "index": 3,
      "grpId": 1828580108,
      "nextGrpId": 1828580109
    },
    {
      "index": 4,
      "grpId": 1828580109,
      "nextGrpId": 1828580110
    },
    {
      "index": 5,
      "grpId": 1828580110,
      "nextGrpId": 1828580111
    }
  ],
  "freeStyleDic": {
    "1581": []
  }
}