{
  "luaDataPath": "",
  "dontUseDefaultFinish": true,
  "entityBan": "",
  "disableNpcLod": true,
  "isAutoBanNpc": true,
  "isBanWidgetPet": true,
  "protectNpcMobileLod": true,
  "talkFlag": 7,
  "startFade": {
    "startFadeOutDuration": 0.0
  },
  "endFade": {
    "startFadeOutDuration": 0.0
  },
  "actors": [
    {
      "alias": "Avatar",
      "visible": true,
      "bornPointName": "",
      "relativePosType": "AVATAR_NEW",
      "relativePosNpcAlias": "",
      "_notDestroyInTalk": true,
      "_bindMovingTargetKey": ""
    },
    {
      "alias": "AvatarNpc",
      "visible": true,
      "bornPointName": "Q7405603_N10000005",
      "removeActorType": "NEW_REMOVE",
      "relativePosType": "AVATAR_NEW",
      "relativePosNpcAlias": "",
      "_notDestroyInTalk": true,
      "_bindMovingTargetKey": ""
    },
    {
      "configID": 21048,
      "alias": "21048",
      "visible": true,
      "bornPointName": "",
      "removeActorType": "NEW_REMOVE",
      "relativePosType": "AVATAR_NEW",
      "relativePosNpcAlias": "",
      "_notDestroyInTalk": true,
      "_bindMovingTargetKey": ""
    },
    {
      "configID": 5303,
      "alias": "5303",
      "visible": true,
      "bornPointName": "",
      "removeActorType": "NEW_REMOVE",
      "relativePosType": "AVATAR_NEW",
      "relativePosNpcAlias": "",
      "_notDestroyInTalk": true,
      "_bindMovingTargetKey": ""
    },
    {
      "configID": 1005,
      "alias": "1005",
      "visible": true,
      "bornPointName": "",
      "removeActorType": "NEW_REMOVE_WITH_DISAPPEAR",
      "relativePosType": "AVATAR_NEW",
      "relativePosNpcAlias": "",
      "_notDestroyInTalk": true,
      "_bindMovingTargetKey": ""
    },
    {
      "configID": 20995,
      "alias": "20995",
      "visible": true,
      "bornPointName": "",
      "relativePosType": "AVATAR_NEW",
      "relativePosNpcAlias": "",
      "_notDestroyInTalk": true,
      "_bindMovingTargetKey": ""
    }
  ],
  "group": [
    [
      {
        "$type": "MoleMole.Config.ConfigTimeProtectAction",
        "type": "TIME_PROTECT",
        "duration": 0.10000000149011612,
        "actionId": 104
      },
      {
        "$type": "MoleMole.Config.ConfigSitOrStandAction",
        "type": "SIT_OR_STAND",
        "aliasList": [
          "Avatar"
        ],
        "actionId": 300,
        "banResetFreestyle": true
      },
      {
        "$type": "MoleMole.Config.ConfigPlayerNPCEnergyTypeAction",
        "type": "SET_PLAYER_NPC_ENERGY_TYPE",
        "aliasList": [
          "AvatarNpc"
        ],
        "actionId": 301,
        "setHeroEngergyType": true
      },
      {
        "$type": "FABLGECDBCH",
        "type": "BODY_LANG",
        "aliasList": [
          "AvatarNpc"
        ],
        "actionId": 302,
        "isContinue": true,
        "forceDoFreeStyle": true,
        "canDoRepeatFreeStyle": false,
        "eventPatternSuiteKey": "",
        "FOHHKFAIAAJ": ""
      },
      {
        "$type": "FABLGECDBCH",
        "type": "BODY_LANG",
        "aliasList": [
          "21048"
        ],
        "actionId": 282,
        "isContinue": true,
        "forceDoFreeStyle": true,
        "canDoRepeatFreeStyle": false,
        "eventPatternSuiteKey": "",
        "FOHHKFAIAAJ": ""
      },
      {
        "$type": "MoleMole.Config.ConfigVisibleInterAction",
        "type": "VISIBLE",
        "aliasList": [
          "21048"
        ],
        "actionId": 358,
        "isVisible": true,
        "_extraParam": ""
      },
      {
        "$type": "FABLGECDBCH",
        "type": "BODY_LANG",
        "aliasList": [
          "5303"
        ],
        "actionId": 284,
        "isContinue": true,
        "forceDoFreeStyle": true,
        "canDoRepeatFreeStyle": false,
        "eventPatternSuiteKey": "",
        "FOHHKFAIAAJ": ""
      },
      {
        "$type": "MoleMole.Config.ConfigVisibleInterAction",
        "type": "VISIBLE",
        "aliasList": [
          "5303"
        ],
        "actionId": 361,
        "_extraParam": ""
      },
      {
        "$type": "FABLGECDBCH",
        "type": "BODY_LANG",
        "aliasList": [
          "1005"
        ],
        "actionId": 286,
        "isContinue": true,
        "forceDoFreeStyle": true,
        "canDoRepeatFreeStyle": false,
        "eventPatternSuiteKey": "",
        "FOHHKFAIAAJ": ""
      },
      {
        "$type": "FABLGECDBCH",
        "type": "BODY_LANG",
        "aliasList": [
          "20995"
        ],
        "actionId": 288,
        "isContinue": true,
        "forceDoFreeStyle": true,
        "canDoRepeatFreeStyle": false,
        "eventPatternSuiteKey": "",
        "FOHHKFAIAAJ": ""
      }
    ],
    [
      {
        "$type": "FJKIHHKJLMJ",
        "type": "CAMERA_MOVE",
        "duration": 0.5,
        "actionId": 306,
        "camPosOffset": {
          "x": 194.48500061035156,
          "y": -20.50200080871582,
          "z": 193.97799682617188
        },
        "camForwardTargetOffset": {
          "x": 195.20799255371094,
          "y": -20.607999801635742,
          "z": 193.29600524902344
        },
        "camFov": 54.43199920654297,
        "lerpPattern": 6,
        "cameraBlendType": "EaseInOutCubic",
        "NJBNNOMLKCK": {},
        "needZAxisRotate": true,
        "rotateAngle": 358.0660095214844,
        "openCameraDither": false,
        "targetNpcAlias": "",
        "closeTreeLeafDither": true,
        "KJOEFBPOIIH": "",
        "IICFKKEBIEC": "",
        "EGEHEJEBLBJ": ""
      },
      {
        "$type": "MoleMole.Config.ConfigTeleportToAction",
        "type": "TELEPORT_TO",
        "aliasList": [
          "Avatar"
        ],
        "actionId": 322,
        "position": {
          "x": 192.43299865722656,
          "y": -21.562000274658203,
          "z": 193.30099487304688
        },
        "forward": {
          "x": 193.1009979248047,
          "y": -21.562000274658203,
          "z": 192.60699462890625
        },
        "openLongDisTeleport": true,
        "syncForward": true,
        "_posBindMovingTargetKey": "",
        "_forwardBindMovingTargetKey": ""
      },
      {
        "$type": "MoleMole.Config.ConfigTeleportToAction",
        "type": "TELEPORT_TO",
        "aliasList": [
          "AvatarNpc"
        ],
        "actionId": 321,
        "position": {
          "x": 192.43299865722656,
          "y": -21.562000274658203,
          "z": 193.30099487304688
        },
        "forward": {
          "x": 193.1009979248047,
          "y": -21.562000274658203,
          "z": 192.60699462890625
        },
        "openLongDisTeleport": true,
        "syncForward": true,
        "_posBindMovingTargetKey": "",
        "_forwardBindMovingTargetKey": ""
      },
      {
        "$type": "PKKMAMONGEO",
        "type": "DIALOG",
        "aliasList": [
          "21048"
        ],
        "actionId": 107,
        "dialogID": 740561101,
        "protectTime": 0.5
      },
      {
        "$type": "FABLGECDBCH",
        "type": "BODY_LANG",
        "aliasList": [
          "21048"
        ],
        "actionId": 305,
        "bodyLangParam": 1030,
        "forceDoFreeStyle": true,
        "canDoRepeatFreeStyle": false,
        "eventPatternSuiteKey": "",
        "FOHHKFAIAAJ": ""
      },
      {
        "$type": "MoleMole.Config.ConfigVisibleInterAction",
        "type": "VISIBLE",
        "aliasList": [
          "21048"
        ],
        "actionId": 359,
        "isVisible": true,
        "_extraParam": ""
      },
      {
        "$type": "MoleMole.Config.ConfigTeleportToAction",
        "type": "TELEPORT_TO",
        "aliasList": [
          "21048"
        ],
        "actionId": 365,
        "position": {
          "x": 195.13600158691406,
          "y": -21.584999084472656,
          "z": 193.3459930419922
        },
        "forward": {
          "x": -1.3530000448226929,
          "z": 1.3420000076293945
        },
        "openLongDisTeleport": true,
        "syncForward": true,
        "_posBindMovingTargetKey": "",
        "_forwardBindMovingTargetKey": ""
      },
      {
        "$type": "MoleMole.Config.ConfigVisibleInterAction",
        "type": "VISIBLE",
        "aliasList": [
          "5303"
        ],
        "actionId": 362,
        "isVisible": true,
        "_extraParam": ""
      },
      {
        "$type": "MoleMole.Config.ConfigTeleportToAction",
        "type": "TELEPORT_TO",
        "aliasList": [
          "5303"
        ],
        "actionId": 364,
        "position": {
          "x": 194.156005859375,
          "y": -21.54199981689453,
          "z": 196.63299560546875
        },
        "forward": {
          "x": -0.03099999949336052,
          "z": -1.8730000257492065
        },
        "openLongDisTeleport": true,
        "syncForward": true,
        "_posBindMovingTargetKey": "",
        "_forwardBindMovingTargetKey": ""
      }
    ],
    [
      {
        "$type": "FJKIHHKJLMJ",
        "type": "CAMERA_MOVE",
        "duration": 0.5,
        "actionId": 307,
        "camPosOffset": {
          "x": 194.52000427246094,
          "y": -20.89299964904785,
          "z": 194.5989990234375
        },
        "camForwardTargetOffset": {
          "x": 194.27200317382812,
          "y": -20.857999801635742,
          "z": 195.56700134277344
        },
        "camFov": 54.43199920654297,
        "lerpPattern": 6,
        "cameraBlendType": "EaseInOutCubic",
        "NJBNNOMLKCK": {},
        "needZAxisRotate": true,
        "rotateAngle": 358.07501220703125,
        "openCameraDither": false,
        "targetNpcAlias": "",
        "closeTreeLeafDither": true,
        "KJOEFBPOIIH": "",
        "IICFKKEBIEC": "",
        "EGEHEJEBLBJ": ""
      },
      {
        "$type": "FABLGECDBCH",
        "type": "BODY_LANG",
        "aliasList": [
          "21048"
        ],
        "actionId": 360,
        "isContinue": true,
        "forceDoFreeStyle": true,
        "canDoRepeatFreeStyle": false,
        "eventPatternSuiteKey": "",
        "FOHHKFAIAAJ": ""
      },
      {
        "$type": "PKKMAMONGEO",
        "type": "DIALOG",
        "aliasList": [
          "5303"
        ],
        "actionId": 109,
        "dialogID": 740561102,
        "protectTime": 0.5
      }
    ],
    [
      {
        "$type": "FJKIHHKJLMJ",
        "type": "CAMERA_MOVE",
        "duration": 0.5,
        "actionId": 308,
        "camPosOffset": {
          "x": 193.6510009765625,
          "y": -20.270999908447266,
          "z": 191.16299438476562
        },
        "camForwardTargetOffset": {
          "x": 193.66700744628906,
          "y": -20.402999877929688,
          "z": 192.15499877929688
        },
        "camFov": 54.43199920654297,
        "lerpPattern": 6,
        "cameraBlendType": "EaseInOutCubic",
        "NJBNNOMLKCK": {},
        "needZAxisRotate": true,
        "rotateAngle": 358.0589904785156,
        "openCameraDither": false,
        "targetNpcAlias": "",
        "closeTreeLeafDither": true,
        "KJOEFBPOIIH": "",
        "IICFKKEBIEC": "",
        "EGEHEJEBLBJ": ""
      },
      {
        "$type": "PKKMAMONGEO",
        "type": "DIALOG",
        "aliasList": [
          "1005"
        ],
        "actionId": 111,
        "dialogID": 740561103,
        "protectTime": 0.5
      }
    ],
    [
      {
        "$type": "PKKMAMONGEO",
        "type": "DIALOG",
        "aliasList": [
          "20995"
        ],
        "actionId": 113,
        "dialogID": 740561104,
        "protectTime": 0.5
      }
    ],
    [
      {
        "$type": "PKKMAMONGEO",
        "type": "DIALOG",
        "aliasList": [
          "1005"
        ],
        "actionId": 115,
        "dialogID": 740561105,
        "protectTime": 0.5
      }
    ],
    [
      {
        "$type": "PKKMAMONGEO",
        "type": "DIALOG",
        "aliasList": [
          "5303"
        ],
        "actionId": 117,
        "dialogID": 740561106,
        "protectTime": 0.5
      }
    ],
    [
      {
        "$type": "PKKMAMONGEO",
        "type": "DIALOG",
        "aliasList": [
          "20995"
        ],
        "actionId": 119,
        "dialogID": 740561107,
        "protectTime": 0.5
      }
    ],
    [
      {
        "$type": "PKKMAMONGEO",
        "type": "DIALOG",
        "aliasList": [
          "1005"
        ],
        "actionId": 121,
        "dialogID": 740561108,
        "protectTime": 0.5
      }
    ],
    [
      {
        "$type": "PKKMAMONGEO",
        "type": "DIALOG",
        "aliasList": [
          "20995"
        ],
        "actionId": 123,
        "dialogID": 740561109,
        "protectTime": 0.5
      }
    ],
    [
      {
        "$type": "PKKMAMONGEO",
        "type": "DIALOG",
        "aliasList": [
          "5303"
        ],
        "actionId": 125,
        "dialogID": 740561110,
        "protectTime": 0.5
      },
      {
        "$type": "HDGKHDNFMIM",
        "type": "DIALOG_SELECT",
        "delayTime": 0.4000000059604645,
        "aliasList": [
          "AvatarNpc"
        ],
        "actionId": 291,
        "dialogIDList": [
          740561111
        ],
        "grpIDList": [
          1828506110
        ],
        "useGrpId": true,
        "countDownGrpId": 1721552051
      }
    ],
    [
      {
        "$type": "MoleMole.Config.ConfigSimpleBlackScreenAction",
        "type": "SIMPLE_BLACK_SCREEN",
        "actionId": 128,
        "durationToBlack": 0.5,
        "durationKeepBlack": 3.0,
        "durationFromBlack": 0.5,
        "textMapID": "",
        "useTextFade": true,
        "_dialogID": 740561112,
        "_changeAudioState": true
      },
      {
        "$type": "PKKMAMONGEO",
        "type": "DIALOG_CLEAR",
        "actionId": 129
      }
    ],
    [
      {
        "$type": "PKKMAMONGEO",
        "type": "DIALOG",
        "aliasList": [
          "20995"
        ],
        "actionId": 131,
        "dialogID": 740561113,
        "protectTime": 0.5
      }
    ],
    [
      {
        "$type": "PKKMAMONGEO",
        "type": "DIALOG",
        "aliasList": [
          "1005"
        ],
        "actionId": 133,
        "dialogID": 740561114,
        "protectTime": 0.5
      }
    ],
    [
      {
        "$type": "PKKMAMONGEO",
        "type": "DIALOG",
        "aliasList": [
          "5303"
        ],
        "actionId": 135,
        "dialogID": 740561115,
        "protectTime": 0.5
      }
    ],
    [
      {
        "$type": "PKKMAMONGEO",
        "type": "DIALOG",
        "aliasList": [
          "1005"
        ],
        "actionId": 137,
        "dialogID": 740561116,
        "protectTime": 0.5
      }
    ],
    [
      {
        "$type": "PKKMAMONGEO",
        "type": "DIALOG",
        "aliasList": [
          "1005"
        ],
        "actionId": 139,
        "dialogID": 740561117,
        "protectTime": 0.5
      }
    ],
    [
      {
        "$type": "PKKMAMONGEO",
        "type": "DIALOG",
        "aliasList": [
          "5303"
        ],
        "actionId": 141,
        "dialogID": 740561118,
        "protectTime": 0.5
      }
    ],
    [
      {
        "$type": "PKKMAMONGEO",
        "type": "DIALOG",
        "aliasList": [
          "1005"
        ],
        "actionId": 143,
        "dialogID": 740561119,
        "protectTime": 0.5
      }
    ],
    [
      {
        "$type": "PKKMAMONGEO",
        "type": "DIALOG",
        "aliasList": [
          "5303"
        ],
        "actionId": 145,
        "dialogID": 740561120,
        "protectTime": 0.5
      }
    ],
    [
      {
        "$type": "PKKMAMONGEO",
        "type": "DIALOG",
        "aliasList": [
          "20995"
        ],
        "actionId": 147,
        "dialogID": 740561121,
        "protectTime": 0.5
      }
    ],
    [
      {
        "$type": "PKKMAMONGEO",
        "type": "DIALOG",
        "aliasList": [
          "5303"
        ],
        "actionId": 149,
        "dialogID": 740561122,
        "protectTime": 0.5
      },
      {
        "$type": "HDGKHDNFMIM",
        "type": "DIALOG_SELECT",
        "delayTime": 0.4000000059604645,
        "aliasList": [
          "AvatarNpc"
        ],
        "actionId": 292,
        "dialogIDList": [
          740561123
        ],
        "grpIDList": [
          1828506142
        ],
        "useGrpId": true,
        "countDownGrpId": 1721552051
      }
    ],
    [
      {
        "$type": "PKKMAMONGEO",
        "type": "DIALOG",
        "aliasList": [
          "20995"
        ],
        "actionId": 152,
        "dialogID": 740561124,
        "protectTime": 0.5
      }
    ],
    [
      {
        "$type": "PKKMAMONGEO",
        "type": "DIALOG",
        "aliasList": [
          "1005"
        ],
        "actionId": 154,
        "dialogID": 740561125,
        "protectTime": 0.5
      }
    ],
    [
      {
        "$type": "PKKMAMONGEO",
        "type": "DIALOG",
        "aliasList": [
          "20995"
        ],
        "actionId": 156,
        "dialogID": 740561126,
        "protectTime": 0.5
      }
    ],
    [
      {
        "$type": "PKKMAMONGEO",
        "type": "DIALOG",
        "aliasList": [
          "5303"
        ],
        "actionId": 158,
        "dialogID": 740561127,
        "protectTime": 0.5
      }
    ],
    [
      {
        "$type": "FJKIHHKJLMJ",
        "type": "CAMERA_MOVE",
        "duration": 0.5,
        "actionId": 349,
        "camPosOffset": {
          "x": 194.49899291992188,
          "y": -20.114999771118164,
          "z": 193.53900146484375
        },
        "camForwardTargetOffset": {
          "x": 194.5749969482422,
          "y": -20.364999771118164,
          "z": 194.50399780273438
        },
        "camFov": 49.65299987792969,
        "lerpPattern": 6,
        "cameraBlendType": "EaseInOutCubic",
        "NJBNNOMLKCK": {},
        "needZAxisRotate": true,
        "rotateAngle": 0.2290000021457672,
        "openCameraDither": false,
        "targetNpcAlias": "",
        "closeTreeLeafDither": true,
        "KJOEFBPOIIH": "",
        "IICFKKEBIEC": "",
        "EGEHEJEBLBJ": ""
      },
      {
        "$type": "LJLMDHDCAMK",
        "type": "LOOK_AT",
        "aliasList": [
          "1005"
        ],
        "actionId": 343,
        "_flag": 64,
        "enableHead": true,
        "headTurnTime": 0.5,
        "targetNpcAlias": "20995",
        "openBackProtect": true,
        "backProtectAngle": 10.0,
        "targetNpcLookAtPoint": "",
        "OAFJBHJHLJG": ""
      },
      {
        "$type": "PKKMAMONGEO",
        "type": "DIALOG",
        "aliasList": [
          "20995"
        ],
        "actionId": 160,
        "dialogID": 740561128,
        "protectTime": 1.0
      },
      {
        "$type": "LLGANGLOEEO",
        "type": "STEER_TO",
        "duration": 1.0,
        "aliasList": [
          "20995"
        ],
        "actionId": 334,
        "_flag": 32,
        "steerType": "TO_TARGET_ADVANCED",
        "steerDir": {
          "x": 194.27499389648438,
          "y": -21.5,
          "z": 194.3780059814453
        },
        "useSteerAnim": true,
        "interruptFreestyle": true,
        "forceSteer": true,
        "targetNpcAlias": "5303",
        "ignoreY": true,
        "fixInterNull": true,
        "OAFJBHJHLJG": ""
      }
    ],
    [
      {
        "$type": "FJKIHHKJLMJ",
        "type": "CAMERA_MOVE",
        "duration": 0.5,
        "actionId": 350,
        "camPosOffset": {
          "x": 195.7050018310547,
          "y": -20.910999298095703,
          "z": 195.37600708007812
        },
        "camForwardTargetOffset": {
          "x": 194.76100158691406,
          "y": -20.8700008392334,
          "z": 195.70399475097656
        },
        "camFov": 49.65299987792969,
        "lerpPattern": 6,
        "cameraBlendType": "EaseInOutCubic",
        "NJBNNOMLKCK": {},
        "needZAxisRotate": true,
        "rotateAngle": 0.22200000286102295,
        "openCameraDither": false,
        "targetNpcAlias": "",
        "closeTreeLeafDither": true,
        "KJOEFBPOIIH": "",
        "IICFKKEBIEC": "",
        "EGEHEJEBLBJ": ""
      },
      {
        "$type": "PKKMAMONGEO",
        "type": "DIALOG",
        "aliasList": [
          "5303"
        ],
        "actionId": 162,
        "dialogID": 740561129,
        "protectTime": 2.0
      },
      {
        "$type": "FABLGECDBCH",
        "type": "BODY_LANG",
        "aliasList": [
          "5303"
        ],
        "actionId": 317,
        "bodyLangParam": 3,
        "forceDoFreeStyle": true,
        "canDoRepeatFreeStyle": false,
        "eventPatternSuiteKey": "",
        "FOHHKFAIAAJ": ""
      },
      {
        "$type": "LJLMDHDCAMK",
        "type": "LOOK_AT",
        "aliasList": [
          "1005"
        ],
        "actionId": 344,
        "_flag": 64,
        "enableHead": true,
        "headTurnTime": 0.5,
        "targetNpcAlias": "5303",
        "openBackProtect": true,
        "backProtectAngle": 10.0,
        "targetNpcLookAtPoint": "",
        "OAFJBHJHLJG": ""
      }
    ],
    [
      {
        "$type": "FJKIHHKJLMJ",
        "type": "CAMERA_MOVE",
        "duration": 0.5,
        "actionId": 351,
        "camPosOffset": {
          "x": 192.74899291992188,
          "y": -21.3439998626709,
          "z": 194.51699829101562
        },
        "camForwardTargetOffset": {
          "x": 193.5030059814453,
          "y": -21.093000411987305,
          "z": 195.125
        },
        "camFov": 49.65299987792969,
        "lerpPattern": 6,
        "cameraBlendType": "EaseInOutCubic",
        "NJBNNOMLKCK": {},
        "needZAxisRotate": true,
        "rotateAngle": 0.2290000021457672,
        "openCameraDither": false,
        "targetNpcAlias": "",
        "closeTreeLeafDither": true,
        "KJOEFBPOIIH": "",
        "IICFKKEBIEC": "",
        "EGEHEJEBLBJ": ""
      },
      {
        "$type": "PKKMAMONGEO",
        "type": "DIALOG",
        "aliasList": [
          "5303"
        ],
        "actionId": 164,
        "dialogID": 740561130,
        "protectTime": 2.0
      },
      {
        "$type": "FABLGECDBCH",
        "type": "BODY_LANG",
        "aliasList": [
          "5303"
        ],
        "actionId": 318,
        "isContinue": true,
        "forceDoFreeStyle": true,
        "canDoRepeatFreeStyle": false,
        "eventPatternSuiteKey": "",
        "FOHHKFAIAAJ": ""
      }
    ],
    [
      {
        "$type": "FJKIHHKJLMJ",
        "type": "CAMERA_MOVE",
        "duration": 0.5,
        "actionId": 352,
        "camPosOffset": {
          "x": 194.49899291992188,
          "y": -20.114999771118164,
          "z": 193.53900146484375
        },
        "camForwardTargetOffset": {
          "x": 194.5749969482422,
          "y": -20.364999771118164,
          "z": 194.50399780273438
        },
        "camFov": 49.65299987792969,
        "lerpPattern": 6,
        "cameraBlendType": "EaseInOutCubic",
        "NJBNNOMLKCK": {},
        "needZAxisRotate": true,
        "rotateAngle": 0.2290000021457672,
        "openCameraDither": false,
        "targetNpcAlias": "",
        "closeTreeLeafDither": true,
        "KJOEFBPOIIH": "",
        "IICFKKEBIEC": "",
        "EGEHEJEBLBJ": ""
      },
      {
        "$type": "LJLMDHDCAMK",
        "type": "LOOK_AT",
        "aliasList": [
          "1005"
        ],
        "actionId": 345,
        "_flag": 64,
        "enableHead": true,
        "headTurnTime": 0.5,
        "targetNpcAlias": "20995",
        "openBackProtect": true,
        "backProtectAngle": 10.0,
        "targetNpcLookAtPoint": "",
        "OAFJBHJHLJG": ""
      },
      {
        "$type": "PKKMAMONGEO",
        "type": "DIALOG",
        "aliasList": [
          "20995"
        ],
        "actionId": 166,
        "dialogID": 740561131,
        "protectTime": 0.5
      }
    ],
    [
      {
        "$type": "FJKIHHKJLMJ",
        "type": "CAMERA_MOVE",
        "duration": 0.5,
        "actionId": 353,
        "camPosOffset": {
          "x": 195.7050018310547,
          "y": -20.910999298095703,
          "z": 195.37600708007812
        },
        "camForwardTargetOffset": {
          "x": 194.76100158691406,
          "y": -20.8700008392334,
          "z": 195.70399475097656
        },
        "camFov": 49.65299987792969,
        "lerpPattern": 6,
        "cameraBlendType": "EaseInOutCubic",
        "NJBNNOMLKCK": {},
        "needZAxisRotate": true,
        "rotateAngle": 0.22200000286102295,
        "openCameraDither": false,
        "targetNpcAlias": "",
        "closeTreeLeafDither": true,
        "KJOEFBPOIIH": "",
        "IICFKKEBIEC": "",
        "EGEHEJEBLBJ": ""
      },
      {
        "$type": "PKKMAMONGEO",
        "type": "DIALOG",
        "aliasList": [
          "5303"
        ],
        "actionId": 168,
        "dialogID": 740561132,
        "protectTime": 2.0
      },
      {
        "$type": "FABLGECDBCH",
        "type": "BODY_LANG",
        "aliasList": [
          "5303"
        ],
        "actionId": 319,
        "bodyLangParam": 3,
        "forceDoFreeStyle": true,
        "canDoRepeatFreeStyle": false,
        "eventPatternSuiteKey": "",
        "FOHHKFAIAAJ": ""
      },
      {
        "$type": "LJLMDHDCAMK",
        "type": "LOOK_AT",
        "aliasList": [
          "1005"
        ],
        "actionId": 346,
        "_flag": 64,
        "enableHead": true,
        "headTurnTime": 0.5,
        "targetNpcAlias": "5303",
        "openBackProtect": true,
        "backProtectAngle": 10.0,
        "targetNpcLookAtPoint": "",
        "OAFJBHJHLJG": ""
      }
    ],
    [
      {
        "$type": "FJKIHHKJLMJ",
        "type": "CAMERA_MOVE",
        "duration": 0.5,
        "actionId": 354,
        "camPosOffset": {
          "x": 194.49899291992188,
          "y": -20.114999771118164,
          "z": 193.53900146484375
        },
        "camForwardTargetOffset": {
          "x": 194.5749969482422,
          "y": -20.364999771118164,
          "z": 194.50399780273438
        },
        "camFov": 49.65299987792969,
        "lerpPattern": 6,
        "cameraBlendType": "EaseInOutCubic",
        "NJBNNOMLKCK": {},
        "needZAxisRotate": true,
        "rotateAngle": 0.2290000021457672,
        "openCameraDither": false,
        "targetNpcAlias": "",
        "closeTreeLeafDither": true,
        "KJOEFBPOIIH": "",
        "IICFKKEBIEC": "",
        "EGEHEJEBLBJ": ""
      },
      {
        "$type": "LJLMDHDCAMK",
        "type": "LOOK_AT",
        "aliasList": [
          "1005"
        ],
        "actionId": 347,
        "_flag": 64,
        "enableHead": true,
        "headTurnTime": 0.5,
        "targetNpcAlias": "20995",
        "openBackProtect": true,
        "backProtectAngle": 10.0,
        "targetNpcLookAtPoint": "",
        "OAFJBHJHLJG": ""
      },
      {
        "$type": "PKKMAMONGEO",
        "type": "DIALOG",
        "aliasList": [
          "20995"
        ],
        "actionId": 170,
        "dialogID": 740561133,
        "protectTime": 0.5
      }
    ],
    [
      {
        "$type": "FJKIHHKJLMJ",
        "type": "CAMERA_MOVE",
        "duration": 0.5,
        "actionId": 355,
        "camPosOffset": {
          "x": 192.74899291992188,
          "y": -21.3439998626709,
          "z": 194.51699829101562
        },
        "camForwardTargetOffset": {
          "x": 193.5030059814453,
          "y": -21.093000411987305,
          "z": 195.125
        },
        "camFov": 49.65299987792969,
        "lerpPattern": 6,
        "cameraBlendType": "EaseInOutCubic",
        "NJBNNOMLKCK": {},
        "needZAxisRotate": true,
        "rotateAngle": 0.2290000021457672,
        "openCameraDither": false,
        "targetNpcAlias": "",
        "closeTreeLeafDither": true,
        "KJOEFBPOIIH": "",
        "IICFKKEBIEC": "",
        "EGEHEJEBLBJ": ""
      },
      {
        "$type": "PKKMAMONGEO",
        "type": "DIALOG",
        "aliasList": [
          "5303"
        ],
        "actionId": 172,
        "dialogID": 740561134,
        "protectTime": 2.0
      },
      {
        "$type": "FABLGECDBCH",
        "type": "BODY_LANG",
        "aliasList": [
          "5303"
        ],
        "actionId": 320,
        "isContinue": true,
        "forceDoFreeStyle": true,
        "canDoRepeatFreeStyle": false,
        "eventPatternSuiteKey": "",
        "FOHHKFAIAAJ": ""
      },
      {
        "$type": "LJLMDHDCAMK",
        "type": "LOOK_AT",
        "aliasList": [
          "1005"
        ],
        "actionId": 348,
        "_flag": 64,
        "enableHead": true,
        "headTurnTime": 0.5,
        "targetNpcAlias": "5303",
        "openBackProtect": true,
        "backProtectAngle": 10.0,
        "targetNpcLookAtPoint": "",
        "OAFJBHJHLJG": ""
      },
      {
        "$type": "HDGKHDNFMIM",
        "type": "DIALOG_SELECT",
        "delayTime": 0.4000000059604645,
        "aliasList": [
          "AvatarNpc"
        ],
        "actionId": 293,
        "dialogIDList": [
          740561135
        ],
        "grpIDList": [
          1828506174
        ],
        "useGrpId": true,
        "countDownGrpId": 1721552051
      }
    ],
    [
      {
        "$type": "FJKIHHKJLMJ",
        "type": "CAMERA_MOVE",
        "duration": 0.5,
        "actionId": 356,
        "camPosOffset": {
          "x": 193.6510009765625,
          "y": -20.270999908447266,
          "z": 191.16299438476562
        },
        "camForwardTargetOffset": {
          "x": 193.66700744628906,
          "y": -20.402999877929688,
          "z": 192.15499877929688
        },
        "camFov": 54.43199920654297,
        "lerpPattern": 6,
        "cameraBlendType": "EaseInOutCubic",
        "NJBNNOMLKCK": {},
        "needZAxisRotate": true,
        "rotateAngle": 358.0589904785156,
        "openCameraDither": false,
        "targetNpcAlias": "",
        "closeTreeLeafDither": true,
        "KJOEFBPOIIH": "",
        "IICFKKEBIEC": "",
        "EGEHEJEBLBJ": ""
      },
      {
        "$type": "PKKMAMONGEO",
        "type": "DIALOG",
        "aliasList": [
          "1005"
        ],
        "actionId": 175,
        "dialogID": 740561136,
        "protectTime": 1.0
      },
      {
        "$type": "LLGANGLOEEO",
        "type": "STEER_TO",
        "duration": 1.0,
        "aliasList": [
          "20995"
        ],
        "actionId": 335,
        "_flag": 32,
        "steerType": "TO_TARGET_ADVANCED",
        "steerDir": {
          "x": 194.35899353027344,
          "y": -21.5,
          "z": 195.73199462890625
        },
        "useSteerAnim": true,
        "interruptFreestyle": true,
        "forceSteer": true,
        "targetNpcAlias": "AvatarNpc",
        "ignoreY": true,
        "fixInterNull": true,
        "OAFJBHJHLJG": ""
      }
    ],
    [
      {
        "$type": "LJLMDHDCAMK",
        "type": "LOOK_AT",
        "aliasList": [
          "1005"
        ],
        "actionId": 357,
        "_flag": 64,
        "enableHead": true,
        "headTurnTime": 0.5,
        "targetNpcAlias": "21048",
        "openBackProtect": true,
        "backProtectAngle": 10.0,
        "targetNpcLookAtPoint": "",
        "OAFJBHJHLJG": ""
      },
      {
        "$type": "PKKMAMONGEO",
        "type": "DIALOG",
        "aliasList": [
          "20995"
        ],
        "actionId": 177,
        "dialogID": 740561137,
        "protectTime": 1.0
      }
    ],
    [
      {
        "$type": "PKKMAMONGEO",
        "type": "DIALOG",
        "aliasList": [
          "21048"
        ],
        "actionId": 179,
        "dialogID": 740561138,
        "protectTime": 0.5
      }
    ],
    [
      {
        "$type": "PKKMAMONGEO",
        "type": "DIALOG",
        "aliasList": [
          "20995"
        ],
        "actionId": 181,
        "dialogID": 740561139,
        "protectTime": 0.5
      }
    ],
    [
      {
        "$type": "PKKMAMONGEO",
        "type": "DIALOG",
        "aliasList": [
          "21048"
        ],
        "actionId": 183,
        "dialogID": 740561140,
        "protectTime": 0.5
      }
    ],
    [
      {
        "$type": "PKKMAMONGEO",
        "type": "DIALOG",
        "aliasList": [
          "20995"
        ],
        "actionId": 185,
        "dialogID": 740561141,
        "protectTime": 0.5
      }
    ],
    [
      {
        "$type": "PKKMAMONGEO",
        "type": "DIALOG",
        "aliasList": [
          "20995"
        ],
        "actionId": 187,
        "dialogID": 740561142,
        "protectTime": 0.5
      },
      {
        "$type": "HDGKHDNFMIM",
        "type": "DIALOG_SELECT",
        "delayTime": 0.4000000059604645,
        "aliasList": [
          "AvatarNpc"
        ],
        "actionId": 368,
        "dialogIDList": [
          740561143
        ],
        "grpIDList": [
          1828506202
        ],
        "useGrpId": true,
        "countDownGrpId": 1721552051
      }
    ],
    [
      {
        "$type": "PKKMAMONGEO",
        "type": "DIALOG",
        "aliasList": [
          "1005"
        ],
        "actionId": 191,
        "dialogID": 740561144,
        "protectTime": 0.5
      }
    ],
    [
      {
        "$type": "PKKMAMONGEO",
        "type": "DIALOG",
        "aliasList": [
          "21048"
        ],
        "actionId": 193,
        "dialogID": 740561145,
        "protectTime": 0.5
      }
    ],
    [
      {
        "$type": "PKKMAMONGEO",
        "type": "DIALOG",
        "aliasList": [
          "21048"
        ],
        "actionId": 195,
        "dialogID": 740561146,
        "protectTime": 0.5
      }
    ],
    [
      {
        "$type": "PKKMAMONGEO",
        "type": "DIALOG",
        "aliasList": [
          "21048"
        ],
        "actionId": 197,
        "dialogID": 740561147,
        "protectTime": 0.5
      }
    ],
    [
      {
        "$type": "PKKMAMONGEO",
        "type": "DIALOG",
        "aliasList": [
          "1005"
        ],
        "actionId": 199,
        "dialogID": 740561148,
        "protectTime": 0.5
      }
    ],
    [
      {
        "$type": "PKKMAMONGEO",
        "type": "DIALOG",
        "aliasList": [
          "21048"
        ],
        "actionId": 201,
        "dialogID": 740561149,
        "protectTime": 0.5
      }
    ],
    [
      {
        "$type": "PKKMAMONGEO",
        "type": "DIALOG",
        "aliasList": [
          "20995"
        ],
        "actionId": 203,
        "dialogID": 740561150,
        "protectTime": 0.5
      }
    ],
    [
      {
        "$type": "PKKMAMONGEO",
        "type": "DIALOG",
        "aliasList": [
          "21048"
        ],
        "actionId": 205,
        "dialogID": 740561151,
        "protectTime": 0.5
      }
    ],
    [
      {
        "$type": "PKKMAMONGEO",
        "type": "DIALOG",
        "aliasList": [
          "21048"
        ],
        "actionId": 207,
        "dialogID": 740561152,
        "protectTime": 0.5
      }
    ],
    [
      {
        "$type": "PKKMAMONGEO",
        "type": "DIALOG",
        "aliasList": [
          "1005"
        ],
        "actionId": 209,
        "dialogID": 740561153,
        "protectTime": 0.5
      }
    ],
    [
      {
        "$type": "FJKIHHKJLMJ",
        "type": "CAMERA_MOVE",
        "duration": 0.5,
        "actionId": 370,
        "camPosOffset": {
          "x": 201.66400146484375,
          "y": -15.704999923706055,
          "z": 185.7259979248047
        },
        "camForwardTargetOffset": {
          "x": 201.5659942626953,
          "y": -14.911999702453613,
          "z": 186.3280029296875
        },
        "camFov": 54.43199920654297,
        "lerpPattern": 6,
        "cameraBlendType": "EaseInOutCubic",
        "NJBNNOMLKCK": {},
        "needZAxisRotate": true,
        "openCameraDither": false,
        "targetNpcAlias": "",
        "closeTreeLeafDither": true,
        "KJOEFBPOIIH": "",
        "IICFKKEBIEC": "",
        "EGEHEJEBLBJ": ""
      },
      {
        "$type": "PKKMAMONGEO",
        "type": "DIALOG",
        "aliasList": [
          "1005"
        ],
        "actionId": 211,
        "dialogID": 740561154,
        "protectTime": 2.0
      },
      {
        "$type": "FABLGECDBCH",
        "type": "BODY_LANG",
        "aliasList": [
          "1005"
        ],
        "actionId": 323,
        "bodyLangParam": 1170,
        "forceDoFreeStyle": true,
        "canDoRepeatFreeStyle": false,
        "eventPatternSuiteKey": "",
        "FOHHKFAIAAJ": ""
      },
      {
        "$type": "FJKIHHKJLMJ",
        "type": "CAMERA_MOVE",
        "delayTime": 0.10000000149011612,
        "duration": 5.0,
        "actionId": 369,
        "camPosOffset": {
          "x": 202.5489959716797,
          "y": -15.62600040435791,
          "z": 185.76699829101562
        },
        "camForwardTargetOffset": {
          "x": 202.4499969482422,
          "y": -14.833999633789062,
          "z": 186.36900329589844
        },
        "camFov": 54.43199920654297,
        "cameraBlendType": "EaseOutQuad",
        "NJBNNOMLKCK": {},
        "needZAxisRotate": true,
        "openCameraDither": false,
        "targetNpcAlias": "",
        "closeTreeLeafDither": true,
        "KJOEFBPOIIH": "",
        "IICFKKEBIEC": "",
        "EGEHEJEBLBJ": ""
      }
    ],
    [
      {
        "$type": "FJKIHHKJLMJ",
        "type": "CAMERA_MOVE",
        "duration": 0.5,
        "actionId": 330,
        "camPosOffset": {
          "x": 193.6510009765625,
          "y": -20.270999908447266,
          "z": 191.16299438476562
        },
        "camForwardTargetOffset": {
          "x": 193.66700744628906,
          "y": -20.402999877929688,
          "z": 192.15499877929688
        },
        "camFov": 54.43199920654297,
        "lerpPattern": 6,
        "cameraBlendType": "EaseInOutCubic",
        "NJBNNOMLKCK": {},
        "needZAxisRotate": true,
        "rotateAngle": 358.0589904785156,
        "openCameraDither": false,
        "targetNpcAlias": "",
        "closeTreeLeafDither": true,
        "KJOEFBPOIIH": "",
        "IICFKKEBIEC": "",
        "EGEHEJEBLBJ": ""
      },
      {
        "$type": "PKKMAMONGEO",
        "type": "DIALOG",
        "aliasList": [
          "21048"
        ],
        "actionId": 213,
        "dialogID": 740561155,
        "protectTime": 0.5
      }
    ],
    [
      {
        "$type": "PKKMAMONGEO",
        "type": "DIALOG",
        "aliasList": [
          "21048"
        ],
        "actionId": 215,
        "dialogID": 740561156,
        "protectTime": 0.5
      },
      {
        "$type": "HDGKHDNFMIM",
        "type": "DIALOG_SELECT",
        "delayTime": 0.4000000059604645,
        "aliasList": [
          "AvatarNpc"
        ],
        "actionId": 295,
        "dialogIDList": [
          740561157
        ],
        "grpIDList": [
          1828506236
        ],
        "useGrpId": true,
        "countDownGrpId": 1721552051
      }
    ],
    [
      {
        "$type": "PKKMAMONGEO",
        "type": "DIALOG",
        "aliasList": [
          "21048"
        ],
        "actionId": 218,
        "dialogID": 740561158,
        "protectTime": 0.5
      }
    ],
    [
      {
        "$type": "PKKMAMONGEO",
        "type": "DIALOG",
        "aliasList": [
          "1005"
        ],
        "actionId": 220,
        "dialogID": 740561159,
        "protectTime": 0.5
      }
    ],
    [
      {
        "$type": "PKKMAMONGEO",
        "type": "DIALOG",
        "aliasList": [
          "21048"
        ],
        "actionId": 222,
        "dialogID": 740561160,
        "protectTime": 0.5
      }
    ],
    [
      {
        "$type": "PKKMAMONGEO",
        "type": "DIALOG",
        "aliasList": [
          "21048"
        ],
        "actionId": 224,
        "dialogID": 740561161,
        "protectTime": 0.5
      }
    ],
    [
      {
        "$type": "PKKMAMONGEO",
        "type": "DIALOG",
        "aliasList": [
          "21048"
        ],
        "actionId": 226,
        "dialogID": 740561162,
        "protectTime": 0.5
      }
    ],
    [
      {
        "$type": "PKKMAMONGEO",
        "type": "DIALOG",
        "aliasList": [
          "1005"
        ],
        "actionId": 228,
        "dialogID": 740561163,
        "protectTime": 0.5
      }
    ],
    [
      {
        "$type": "PKKMAMONGEO",
        "type": "DIALOG",
        "aliasList": [
          "21048"
        ],
        "actionId": 230,
        "dialogID": 740561164,
        "protectTime": 0.5
      }
    ],
    [
      {
        "$type": "PKKMAMONGEO",
        "type": "DIALOG",
        "aliasList": [
          "21048"
        ],
        "actionId": 232,
        "dialogID": 740561165,
        "protectTime": 0.5
      }
    ],
    [
      {
        "$type": "PKKMAMONGEO",
        "type": "DIALOG",
        "aliasList": [
          "21048"
        ],
        "actionId": 234,
        "dialogID": 740561166,
        "protectTime": 0.5
      }
    ],
    [
      {
        "$type": "PKKMAMONGEO",
        "type": "DIALOG",
        "aliasList": [
          "1005"
        ],
        "actionId": 236,
        "dialogID": 740561167,
        "protectTime": 0.5
      },
      {
        "$type": "HDGKHDNFMIM",
        "type": "DIALOG_SELECT",
        "delayTime": 0.4000000059604645,
        "aliasList": [
          "AvatarNpc"
        ],
        "actionId": 296,
        "dialogIDList": [
          740561168
        ],
        "grpIDList": [
          1828506267
        ],
        "useGrpId": true,
        "countDownGrpId": 1721552051
      }
    ],
    [
      {
        "$type": "MoleMole.Config.ConfigBlackScreenAction",
        "type": "BLACK_SCREEN",
        "actionId": 239,
        "_flag": 2048,
        "durationToBlack": 0.5,
        "durationKeepBlack": 3.0,
        "durationFromBlack": 0.5,
        "inteePos": "",
        "textMapID": "",
        "useTextFade": true,
        "_dialogID": 740561169,
        "needWaitClick": true,
        "_changeAudioState": true
      },
      {
        "$type": "PKKMAMONGEO",
        "type": "DIALOG_CLEAR",
        "actionId": 240
      }
    ],
    [
      {
        "$type": "PKKMAMONGEO",
        "type": "DIALOG",
        "aliasList": [
          "5303"
        ],
        "actionId": 242,
        "dialogID": 740561170,
        "protectTime": 0.5
      }
    ],
    [
      {
        "$type": "PKKMAMONGEO",
        "type": "DIALOG",
        "aliasList": [
          "20995"
        ],
        "actionId": 244,
        "dialogID": 740561171,
        "protectTime": 0.5
      },
      {
        "$type": "HDGKHDNFMIM",
        "type": "DIALOG_SELECT",
        "delayTime": 0.4000000059604645,
        "aliasList": [
          "AvatarNpc"
        ],
        "actionId": 297,
        "dialogIDList": [
          740561172
        ],
        "grpIDList": [
          1828506270
        ],
        "useGrpId": true,
        "countDownGrpId": 1721552051
      }
    ],
    [
      {
        "$type": "PKKMAMONGEO",
        "type": "DIALOG",
        "aliasList": [
          "20995"
        ],
        "actionId": 247,
        "dialogID": 740561173,
        "protectTime": 0.5
      }
    ],
    [
      {
        "$type": "PKKMAMONGEO",
        "type": "DIALOG",
        "aliasList": [
          "1005"
        ],
        "actionId": 249,
        "dialogID": 740561174,
        "protectTime": 0.5
      }
    ],
    [
      {
        "$type": "PKKMAMONGEO",
        "type": "DIALOG",
        "aliasList": [
          "21048"
        ],
        "actionId": 251,
        "dialogID": 740561175,
        "protectTime": 0.5
      }
    ],
    [
      {
        "$type": "PKKMAMONGEO",
        "type": "DIALOG",
        "aliasList": [
          "21048"
        ],
        "actionId": 253,
        "dialogID": 740561176,
        "protectTime": 0.5
      }
    ],
    [
      {
        "$type": "PKKMAMONGEO",
        "type": "DIALOG",
        "aliasList": [
          "21048"
        ],
        "actionId": 255,
        "dialogID": 740561177,
        "protectTime": 0.5
      }
    ],
    [
      {
        "$type": "PKKMAMONGEO",
        "type": "DIALOG",
        "aliasList": [
          "1005"
        ],
        "actionId": 257,
        "dialogID": 740561178,
        "protectTime": 0.5
      }
    ],
    [
      {
        "$type": "PKKMAMONGEO",
        "type": "DIALOG",
        "aliasList": [
          "21048"
        ],
        "actionId": 259,
        "dialogID": 740561179,
        "protectTime": 0.5
      },
      {
        "$type": "HDGKHDNFMIM",
        "type": "DIALOG_SELECT",
        "delayTime": 0.4000000059604645,
        "aliasList": [
          "AvatarNpc"
        ],
        "actionId": 298,
        "dialogIDList": [
          740561180
        ],
        "grpIDList": [
          1828506298
        ],
        "useGrpId": true,
        "countDownGrpId": 1721552051
      }
    ],
    [
      {
        "$type": "PKKMAMONGEO",
        "type": "DIALOG",
        "aliasList": [
          "1005"
        ],
        "actionId": 262,
        "dialogID": 740561181,
        "protectTime": 0.5
      }
    ],
    [
      {
        "$type": "PKKMAMONGEO",
        "type": "DIALOG",
        "aliasList": [
          "1005"
        ],
        "actionId": 264,
        "dialogID": 740561182,
        "protectTime": 0.5
      }
    ],
    [
      {
        "$type": "PKKMAMONGEO",
        "type": "DIALOG",
        "aliasList": [
          "1005"
        ],
        "actionId": 266,
        "dialogID": 740561183,
        "protectTime": 0.5
      }
    ],
    [
      {
        "$type": "PKKMAMONGEO",
        "type": "DIALOG",
        "aliasList": [
          "20995"
        ],
        "actionId": 268,
        "dialogID": 740561184,
        "protectTime": 0.5
      }
    ],
    [
      {
        "$type": "PKKMAMONGEO",
        "type": "DIALOG",
        "aliasList": [
          "1005"
        ],
        "actionId": 270,
        "dialogID": 740561185,
        "protectTime": 0.5
      },
      {
        "$type": "HDGKHDNFMIM",
        "type": "DIALOG_SELECT",
        "delayTime": 0.4000000059604645,
        "aliasList": [
          "AvatarNpc"
        ],
        "actionId": 299,
        "dialogIDList": [
          740561186,
          740561187
        ],
        "grpIDList": [
          1828506303,
          1828506303
        ],
        "useGrpId": true,
        "countDownGrpId": 1721552051
      }
    ],
    [
      {
        "$type": "PKKMAMONGEO",
        "type": "DIALOG",
        "aliasList": [
          "21048"
        ],
        "actionId": 273,
        "dialogID": 740561188,
        "protectTime": 0.5
      }
    ],
    [
      {
        "$type": "PKKMAMONGEO",
        "type": "DIALOG",
        "aliasList": [
          "20995"
        ],
        "actionId": 275,
        "dialogID": 740561189,
        "protectTime": 0.5
      }
    ],
    [
      {
        "$type": "PKKMAMONGEO",
        "type": "DIALOG",
        "aliasList": [
          "5303"
        ],
        "actionId": 277,
        "dialogID": 740561190,
        "protectTime": 0.5
      }
    ],
    [
      {
        "$type": "PKKMAMONGEO",
        "type": "DIALOG",
        "aliasList": [
          "21048"
        ],
        "actionId": 279,
        "dialogID": 740561191,
        "protectTime": 0.5
      }
    ],
    [
      {
        "$type": "MoleMole.Config.ConfigTimeProtectAction",
        "type": "TIME_PROTECT",
        "duration": 0.10000000149011612,
        "actionId": 105
      },
      {
        "$type": "MoleMole.Config.ConfigSimpleBlackScreenAction",
        "type": "SIMPLE_BLACK_SCREEN",
        "actionId": 280,
        "durationToBlack": 0.5,
        "durationKeepBlack": 1.5,
        "durationFromBlack": 0.5,
        "textMapID": ""
      },
      {
        "$type": "MoleMole.Config.ConfigTimeProtectAction",
        "type": "TIME_PROTECT",
        "duration": 0.699999988079071,
        "actionId": 281
      },
      {
        "$type": "FJKIHHKJLMJ",
        "type": "CAMERA_MOVE",
        "delayTime": 0.5,
        "duration": 0.10000000149011612,
        "actionId": 290,
        "cameraPosType": "EXIT",
        "camForwardTargetOffset": {
          "z": 1.0
        },
        "camFov": 30.0,
        "lerpPattern": 5,
        "cameraBlendType": "EaseInOutCubic",
        "NJBNNOMLKCK": {},
        "openCameraDither": false,
        "targetNpcAlias": "",
        "closeTreeLeafDither": true,
        "KJOEFBPOIIH": "",
        "IICFKKEBIEC": "",
        "EGEHEJEBLBJ": ""
      },
      {
        "$type": "MoleMole.Config.ConfigVisibleInterAction",
        "type": "VISIBLE",
        "delayTime": 0.6000000238418579,
        "aliasList": [
          "Avatar"
        ],
        "actionId": 304,
        "isVisible": true,
        "_extraParam": ""
      },
      {
        "$type": "FABLGECDBCH",
        "type": "BODY_LANG",
        "delayTime": 0.6000000238418579,
        "aliasList": [
          "AvatarNpc"
        ],
        "actionId": 303,
        "isContinue": true,
        "forceDoFreeStyle": true,
        "canDoRepeatFreeStyle": false,
        "eventPatternSuiteKey": "",
        "FOHHKFAIAAJ": ""
      },
      {
        "$type": "MoleMole.Config.ConfigVisibleInterAction",
        "type": "VISIBLE",
        "delayTime": 0.6000000238418579,
        "aliasList": [
          "AvatarNpc"
        ],
        "actionId": 366,
        "_extraParam": ""
      },
      {
        "$type": "FABLGECDBCH",
        "type": "BODY_LANG",
        "delayTime": 0.6000000238418579,
        "aliasList": [
          "21048"
        ],
        "actionId": 283,
        "isContinue": true,
        "forceDoFreeStyle": true,
        "canDoRepeatFreeStyle": false,
        "eventPatternSuiteKey": "",
        "FOHHKFAIAAJ": ""
      },
      {
        "$type": "FABLGECDBCH",
        "type": "BODY_LANG",
        "delayTime": 0.6000000238418579,
        "aliasList": [
          "5303"
        ],
        "actionId": 285,
        "isContinue": true,
        "forceDoFreeStyle": true,
        "canDoRepeatFreeStyle": false,
        "eventPatternSuiteKey": "",
        "FOHHKFAIAAJ": ""
      },
      {
        "$type": "FABLGECDBCH",
        "type": "BODY_LANG",
        "delayTime": 0.6000000238418579,
        "aliasList": [
          "1005"
        ],
        "actionId": 287,
        "isContinue": true,
        "forceDoFreeStyle": true,
        "canDoRepeatFreeStyle": false,
        "eventPatternSuiteKey": "",
        "FOHHKFAIAAJ": ""
      },
      {
        "$type": "FABLGECDBCH",
        "type": "BODY_LANG",
        "delayTime": 0.6000000238418579,
        "aliasList": [
          "20995"
        ],
        "actionId": 289,
        "isContinue": true,
        "forceDoFreeStyle": true,
        "canDoRepeatFreeStyle": false,
        "eventPatternSuiteKey": "",
        "FOHHKFAIAAJ": ""
      }
    ]
  ],
  "groupId": [
    {
      "grpId": 1721552052,
      "nextGrpId": 1721552053
    },
    {
      "index": 1,
      "grpId": 1721552053,
      "nextGrpId": 1721552054
    },
    {
      "index": 2,
      "grpId": 1721552054,
      "nextGrpId": 1721552055
    },
    {
      "index": 3,
      "grpId": 1721552055,
      "nextGrpId": 1721552056
    },
    {
      "index": 4,
      "grpId": 1721552056,
      "nextGrpId": 1721552057
    },
    {
      "index": 5,
      "grpId": 1721552057,
      "nextGrpId": 1721552058
    },
    {
      "index": 6,
      "grpId": 1721552058,
      "nextGrpId": 1721552059
    },
    {
      "index": 7,
      "grpId": 1721552059,
      "nextGrpId": 1721552060
    },
    {
      "index": 8,
      "grpId": 1721552060,
      "nextGrpId": 1828506108
    },
    {
      "index": 9,
      "grpId": 1828506108,
      "nextGrpId": 1828506109
    },
    {
      "index": 10,
      "grpId": 1828506109,
      "nextGrpId": 1828506110
    },
    {
      "index": 11,
      "grpId": 1828506110,
      "nextGrpId": 1828506111
    },
    {
      "index": 12,
      "grpId": 1828506111,
      "nextGrpId": 1828506112
    },
    {
      "index": 13,
      "grpId": 1828506112,
      "nextGrpId": 1828506113
    },
    {
      "index": 14,
      "grpId": 1828506113,
      "nextGrpId": 1828506114
    },
    {
      "index": 15,
      "grpId": 1828506114,
      "nextGrpId": 1828506115
    },
    {
      "index": 16,
      "grpId": 1828506115,
      "nextGrpId": 1828506116
    },
    {
      "index": 17,
      "grpId": 1828506116,
      "nextGrpId": 1828506117
    },
    {
      "index": 18,
      "grpId": 1828506117,
      "nextGrpId": 1828506139
    },
    {
      "index": 19,
      "grpId": 1828506139,
      "nextGrpId": 1828506140
    },
    {
      "index": 20,
      "grpId": 1828506140,
      "nextGrpId": 1828506141
    },
    {
      "index": 21,
      "grpId": 1828506141,
      "nextGrpId": 1828506142
    },
    {
      "index": 22,
      "grpId": 1828506142,
      "nextGrpId": 1828506143
    },
    {
      "index": 23,
      "grpId": 1828506143,
      "nextGrpId": 1828506144
    },
    {
      "index": 24,
      "grpId": 1828506144,
      "nextGrpId": 1828506145
    },
    {
      "index": 25,
      "grpId": 1828506145,
      "nextGrpId": 1828506146
    },
    {
      "index": 26,
      "grpId": 1828506146,
      "nextGrpId": 1828506147
    },
    {
      "index": 27,
      "grpId": 1828506147,
      "nextGrpId": 1828506148
    },
    {
      "index": 28,
      "grpId": 1828506148,
      "nextGrpId": 1828506170
    },
    {
      "index": 29,
      "grpId": 1828506170,
      "nextGrpId": 1828506171
    },
    {
      "index": 30,
      "grpId": 1828506171,
      "nextGrpId": 1828506172
    },
    {
      "index": 31,
      "grpId": 1828506172,
      "nextGrpId": 1828506173
    },
    {
      "index": 32,
      "grpId": 1828506173,
      "nextGrpId": 1828506174
    },
    {
      "index": 33,
      "grpId": 1828506174,
      "nextGrpId": 1828506175
    },
    {
      "index": 34,
      "grpId": 1828506175,
      "nextGrpId": 1828506176
    },
    {
      "index": 35,
      "grpId": 1828506176,
      "nextGrpId": 1828506177
    },
    {
      "index": 36,
      "grpId": 1828506177,
      "nextGrpId": 1828506178
    },
    {
      "index": 37,
      "grpId": 1828506178,
      "nextGrpId": 1828506179
    },
    {
      "index": 38,
      "grpId": 1828506179,
      "nextGrpId": 1828506201
    },
    {
      "index": 39,
      "grpId": 1828506201,
      "nextGrpId": 1828506202
    },
    {
      "index": 40,
      "grpId": 1828506202,
      "nextGrpId": 1828506203
    },
    {
      "index": 41,
      "grpId": 1828506203,
      "nextGrpId": 1828506204
    },
    {
      "index": 42,
      "grpId": 1828506204,
      "nextGrpId": 1828506205
    },
    {
      "index": 43,
      "grpId": 1828506205,
      "nextGrpId": 1828506206
    },
    {
      "index": 44,
      "grpId": 1828506206,
      "nextGrpId": 1828506207
    },
    {
      "index": 45,
      "grpId": 1828506207,
      "nextGrpId": 1828506208
    },
    {
      "index": 46,
      "grpId": 1828506208,
      "nextGrpId": 1828506209
    },
    {
      "index": 47,
      "grpId": 1828506209,
      "nextGrpId": 1828506210
    },
    {
      "index": 48,
      "grpId": 1828506210,
      "nextGrpId": 1828506232
    },
    {
      "index": 49,
      "grpId": 1828506232,
      "nextGrpId": 1828506233
    },
    {
      "index": 50,
      "grpId": 1828506233,
      "nextGrpId": 1828506234
    },
    {
      "index": 51,
      "grpId": 1828506234,
      "nextGrpId": 1828506235
    },
    {
      "index": 52,
      "grpId": 1828506235,
      "nextGrpId": 1828506236
    },
    {
      "index": 53,
      "grpId": 1828506236,
      "nextGrpId": 1828506237
    },
    {
      "index": 54,
      "grpId": 1828506237,
      "nextGrpId": 1828506238
    },
    {
      "index": 55,
      "grpId": 1828506238,
      "nextGrpId": 1828506239
    },
    {
      "index": 56,
      "grpId": 1828506239,
      "nextGrpId": 1828506240
    },
    {
      "index": 57,
      "grpId": 1828506240,
      "nextGrpId": 1828506241
    },
    {
      "index": 58,
      "grpId": 1828506241,
      "nextGrpId": 1828506263
    },
    {
      "index": 59,
      "grpId": 1828506263,
      "nextGrpId": 1828506264
    },
    {
      "index": 60,
      "grpId": 1828506264,
      "nextGrpId": 1828506265
    },
    {
      "index": 61,
      "grpId": 1828506265,
      "nextGrpId": 1828506266
    },
    {
      "index": 62,
      "grpId": 1828506266,
      "nextGrpId": 1828506267
    },
    {
      "index": 63,
      "grpId": 1828506267,
      "nextGrpId": 1828506268
    },
    {
      "index": 64,
      "grpId": 1828506268,
      "nextGrpId": 1828506269
    },
    {
      "index": 65,
      "grpId": 1828506269,
      "nextGrpId": 1828506270
    },
    {
      "index": 66,
      "grpId": 1828506270,
      "nextGrpId": 1828506271
    },
    {
      "index": 67,
      "grpId": 1828506271,
      "nextGrpId": 1828506272
    },
    {
      "index": 68,
      "grpId": 1828506272,
      "nextGrpId": 1828506294
    },
    {
      "index": 69,
      "grpId": 1828506294,
      "nextGrpId": 1828506295
    },
    {
      "index": 70,
      "grpId": 1828506295,
      "nextGrpId": 1828506296
    },
    {
      "index": 71,
      "grpId": 1828506296,
      "nextGrpId": 1828506297
    },
    {
      "index": 72,
      "grpId": 1828506297,
      "nextGrpId": 1828506298
    },
    {
      "index": 73,
      "grpId": 1828506298,
      "nextGrpId": 1828506299
    },
    {
      "index": 74,
      "grpId": 1828506299,
      "nextGrpId": 1828506300
    },
    {
      "index": 75,
      "grpId": 1828506300,
      "nextGrpId": 1828506301
    },
    {
      "index": 76,
      "grpId": 1828506301,
      "nextGrpId": 1828506302
    },
    {
      "index": 77,
      "grpId": 1828506302,
      "nextGrpId": 1828506303
    },
    {
      "index": 78,
      "grpId": 1828506303,
      "nextGrpId": 1828506325
    },
    {
      "index": 79,
      "grpId": 1828506325,
      "nextGrpId": 1828506326
    },
    {
      "index": 80,
      "grpId": 1828506326,
      "nextGrpId": 1828506327
    },
    {
      "index": 81,
      "grpId": 1828506327,
      "nextGrpId": 1828506328
    },
    {
      "index": 82,
      "grpId": 1828506328,
      "nextGrpId": 1828506329
    }
  ],
  "freeStyleDic": {
    "1025": [],
    "1026": [],
    "21048": [
      1030
    ]
  }
}