{
  "NFHJKDMMEMF": 32103,
  "KIMNCBFBKIN": [
    {
      "HAFIBJMBFAE": 3210301,
      "regionPolygons": [
        {
          "minArea": {
            "x": -1808.536376953125,
            "y": 84.14820098876953,
            "z": 2008.1497802734375
          },
          "maxArea": {
            "x": -1479.6715087890625,
            "y": 283.66827392578125,
            "z": 2373.178466796875
          },
          "roadPoints": [
            {
              "x": -1479.6715087890625,
              "y": 84.14820098876953,
              "z": 2139.59423828125
            },
            {
              "x": -1514.4732666015625,
              "y": 84.14820098876953,
              "z": 2029.244384765625
            },
            {
              "x": -1617.0030517578125,
              "y": 84.14820098876953,
              "z": 2014.2076416015625
            },
            {
              "x": -1735.3135986328125,
              "y": 84.14820098876953,
              "z": 2008.1497802734375
            },
            {
              "x": -1793.2611083984375,
              "y": 84.14820098876953,
              "z": 2104.32666015625
            },
            {
              "x": -1804.2989501953125,
              "y": 84.14820098876953,
              "z": 2245.8330078125
            },
            {
              "x": -1808.536376953125,
              "y": 84.14820098876953,
              "z": 2355.976318359375
            },
            {
              "x": -1731.024658203125,
              "y": 84.14820098876953,
              "z": 2373.178466796875
            },
            {
              "x": -1600.2977294921875,
              "y": 84.14820098876953,
              "z": 2368.853515625
            },
            {
              "x": -1554.014404296875,
              "y": 84.14820098876953,
              "z": 2306.987060546875
            },
            {
              "x": -1494.810302734375,
              "y": 84.14820098876953,
              "z": 2246.97216796875
            }
          ]
        }
      ]
    }
  ],
  "minArea": {
    "x": -1808.536376953125,
    "y": 84.148193359375,
    "z": 2008.149658203125
  },
  "maxArea": {
    "x": -1479.671630859375,
    "y": 283.66827392578125,
    "z": 2373.178466796875
  }
}