{
  "NFHJKDMMEMF": 32603,
  "KIMNCBFBKIN": [
    {
      "HAFIBJMBFAE": 3260301,
      "limitShapes": [
        {
          "pos": {
            "x": -2456.861328125,
            "y": 306.0281066894531,
            "z": 4005.1220703125
          },
          "rot": {
            "y": 15.000000953674316
          },
          "shape": {
            "$type": "LCFGLDCOCOH",
            "useHeight": true,
            "height": 40.685550689697266,
            "centerType": "Center",
            "width": 37.097412109375,
            "length": 24.368331909179688
          }
        },
        {
          "pos": {
            "x": -2421.99755859375,
            "y": 277.46502685546875,
            "z": 3984.484375
          },
          "shape": {
            "$type": "LCFGLDCOCOH",
            "useHeight": true,
            "height": 70.98542785644531,
            "centerType": "Center",
            "width": 37.546443939208984,
            "length": 51.111297607421875
          }
        },
        {
          "pos": {
            "x": -2438.140869140625,
            "y": 275.0745849609375,
            "z": 3899.611328125
          },
          "shape": {
            "$type": "EMOKHIGKKBE",
            "useHeight": true,
            "height": 72.30751037597656,
            "radius": 82.1950912475586
          }
        }
      ]
    }
  ],
  "minArea": {
    "x": -2520.3359375,
    "y": 238.92083740234375,
    "z": 3817.41650390625
  },
  "maxArea": {
    "x": -2355.94580078125,
    "y": 326.37091064453125,
    "z": 4021.69189453125
  }
}