{
  "NFHJKDMMEMF": 32704,
  "KIMNCBFBKIN": [
    {
      "HAFIBJMBFAE": 3270401,
      "regionPolygons": [
        {
          "minArea": {
            "x": -2889.034423828125,
            "y": -22.585559844970703,
            "z": 5643.3984375
          },
          "maxArea": {
            "x": -2537.2001953125,
            "y": 148.6181640625,
            "z": 5940.61572265625
          },
          "roadPoints": [
            {
              "x": -2580.902099609375,
              "y": -22.585559844970703,
              "z": 5643.3984375
            },
            {
              "x": -2648.91455078125,
              "y": -22.585559844970703,
              "z": 5643.4423828125
            },
            {
              "x": -2669.27001953125,
              "y": -22.585559844970703,
              "z": 5648.7158203125
            },
            {
              "x": -2696.745361328125,
              "y": -22.585559844970703,
              "z": 5704.6416015625
            },
            {
              "x": -2741.755126953125,
              "y": -22.585559844970703,
              "z": 5731.537109375
            },
            {
              "x": -2752.250244140625,
              "y": -22.585559844970703,
              "z": 5773.75146484375
            },
            {
              "x": -2752.34765625,
              "y": -22.585559844970703,
              "z": 5803.35888671875
            },
            {
              "x": -2814.726806640625,
              "y": -22.585559844970703,
              "z": 5767.49853515625
            },
            {
              "x": -2889.034423828125,
              "y": -22.585559844970703,
              "z": 5778.21630859375
            },
            {
              "x": -2861.392578125,
              "y": -22.585559844970703,
              "z": 5858.4765625
            },
            {
              "x": -2690.548828125,
              "y": -22.585559844970703,
              "z": 5910.42236328125
            },
            {
              "x": -2571.0576171875,
              "y": -22.585559844970703,
              "z": 5940.61572265625
            },
            {
              "x": -2537.2001953125,
              "y": -22.585559844970703,
              "z": 5887.76025390625
            },
            {
              "x": -2546.95849609375,
              "y": -22.585559844970703,
              "z": 5826.3623046875
            },
            {
              "x": -2583.040771484375,
              "y": -22.585559844970703,
              "z": 5796.78125
            },
            {
              "x": -2589.224853515625,
              "y": -22.585559844970703,
              "z": 5774.0966796875
            },
            {
              "x": -2587.339599609375,
              "y": -22.585559844970703,
              "z": 5714.1669921875
            }
          ]
        },
        {
          "minArea": {
            "x": -2587.603271484375,
            "y": 16.37212371826172,
            "z": 5637.0986328125
          },
          "maxArea": {
            "x": -2451.71337890625,
            "y": 57.64232635498047,
            "z": 5716.95166015625
          },
          "roadPoints": [
            {
              "x": -2587.603271484375,
              "y": 16.37212371826172,
              "z": 5716.95166015625
            },
            {
              "x": -2585.4765625,
              "y": 16.37212371826172,
              "z": 5687.05224609375
            },
            {
              "x": -2557.63671875,
              "y": 16.37212371826172,
              "z": 5684.76318359375
            },
            {
              "x": -2530.203125,
              "y": 16.37212371826172,
              "z": 5663.978515625
            },
            {
              "x": -2510.920654296875,
              "y": 16.37212371826172,
              "z": 5637.0986328125
            },
            {
              "x": -2489.57861328125,
              "y": 16.37212371826172,
              "z": 5640.98193359375
            },
            {
              "x": -2463.01123046875,
              "y": 16.37212371826172,
              "z": 5647.9189453125
            },
            {
              "x": -2451.71337890625,
              "y": 16.37212371826172,
              "z": 5664.5703125
            },
            {
              "x": -2470.314697265625,
              "y": 16.37212371826172,
              "z": 5682.81689453125
            },
            {
              "x": -2476.885498046875,
              "y": 16.37212371826172,
              "z": 5665.43359375
            },
            {
              "x": -2487.909912109375,
              "y": 16.37212371826172,
              "z": 5655.50390625
            },
            {
              "x": -2508.580078125,
              "y": 16.37212371826172,
              "z": 5672.5361328125
            },
            {
              "x": -2532.165771484375,
              "y": 16.37212371826172,
              "z": 5695.83642578125
            },
            {
              "x": -2545.85546875,
              "y": 16.37212371826172,
              "z": 5712.04833984375
            }
          ]
        },
        {
          "minArea": {
            "x": -2681.40625,
            "y": 17.75337791442871,
            "z": 5537.4931640625
          },
          "maxArea": {
            "x": -2596.313720703125,
            "y": 88.11093139648438,
            "z": 5645.421875
          },
          "roadPoints": [
            {
              "x": -2596.313720703125,
              "y": 17.75337791442871,
              "z": 5644.3203125
            },
            {
              "x": -2597.23681640625,
              "y": 17.75337791442871,
              "z": 5607.25341796875
            },
            {
              "x": -2608.006591796875,
              "y": 17.75337791442871,
              "z": 5606.91552734375
            },
            {
              "x": -2606.61474609375,
              "y": 17.75337791442871,
              "z": 5583.6982421875
            },
            {
              "x": -2606.377197265625,
              "y": 17.75337791442871,
              "z": 5537.4931640625
            },
            {
              "x": -2636.0166015625,
              "y": 17.75337791442871,
              "z": 5541.3232421875
            },
            {
              "x": -2681.358642578125,
              "y": 17.75337791442871,
              "z": 5548.4951171875
            },
            {
              "x": -2681.40625,
              "y": 17.75337791442871,
              "z": 5583.5185546875
            },
            {
              "x": -2670.384521484375,
              "y": 17.75337791442871,
              "z": 5620.0078125
            },
            {
              "x": -2641.977294921875,
              "y": 17.75337791442871,
              "z": 5621.56640625
            },
            {
              "x": -2646.552001953125,
              "y": 17.75337791442871,
              "z": 5645.421875
            }
          ]
        }
      ]
    },
    {
      "HAFIBJMBFAE": 3270402,
      "regionPolygons": [
        {
          "minArea": {
            "x": -2606.99609375,
            "y": -103.16873168945312,
            "z": 5439.47314453125
          },
          "maxArea": {
            "x": -2435.448974609375,
            "y": 88.40594482421875,
            "z": 5630.2001953125
          },
          "roadPoints": [
            {
              "x": -2606.352294921875,
              "y": -103.16873168945312,
              "z": 5606.759765625
            },
            {
              "x": -2592.577392578125,
              "y": -103.16873168945312,
              "z": 5606.43017578125
            },
            {
              "x": -2580.955322265625,
              "y": -103.16873168945312,
              "z": 5605.48876953125
            },
            {
              "x": -2577.435791015625,
              "y": -103.16873168945312,
              "z": 5628.93701171875
            },
            {
              "x": -2455.18896484375,
              "y": -103.16873168945312,
              "z": 5630.2001953125
            },
            {
              "x": -2456.01708984375,
              "y": -103.16873168945312,
              "z": 5514.8818359375
            },
            {
              "x": -2435.523681640625,
              "y": -103.16873168945312,
              "z": 5499.83056640625
            },
            {
              "x": -2435.448974609375,
              "y": -103.16873168945312,
              "z": 5446.42041015625
            },
            {
              "x": -2487.93359375,
              "y": -103.16873168945312,
              "z": 5445.13525390625
            },
            {
              "x": -2526.341552734375,
              "y": -103.16873168945312,
              "z": 5440.8720703125
            },
            {
              "x": -2581.7216796875,
              "y": -103.16873168945312,
              "z": 5439.47314453125
            },
            {
              "x": -2581.026123046875,
              "y": -103.16873168945312,
              "z": 5493.2265625
            },
            {
              "x": -2606.99609375,
              "y": -103.16873168945312,
              "z": 5531.21533203125
            }
          ]
        }
      ],
      "limitShapes": [
        {
          "pos": {
            "x": -2442.74169921875,
            "y": 29.336915969848633,
            "z": 5567.71484375
          },
          "shape": {
            "$type": "LCFGLDCOCOH",
            "useHeight": true,
            "height": 42.869041442871094,
            "centerType": "Center",
            "width": 26.919111251831055,
            "length": 50.830135345458984
          }
        },
        {
          "pos": {
            "x": -2368.4619140625,
            "y": 48.89041519165039,
            "z": 5567.6826171875
          },
          "shape": {
            "$type": "LCFGLDCOCOH",
            "useHeight": true,
            "height": 117.09156036376953,
            "centerType": "Center",
            "width": 122.5593490600586,
            "length": 137.88131713867188
          }
        },
        {
          "pos": {
            "x": -2303.37158203125,
            "y": 58.096351623535156,
            "z": 5607.69921875
          },
          "shape": {
            "$type": "LCFGLDCOCOH",
            "useHeight": true,
            "height": 83.60344696044922,
            "centerType": "Center",
            "width": 10.346573829650879,
            "length": 53.025760650634766
          }
        },
        {
          "pos": {
            "x": -2303.20703125,
            "y": 53.44401168823242,
            "z": 5527.8076171875
          },
          "shape": {
            "$type": "LCFGLDCOCOH",
            "useHeight": true,
            "height": 95.30878448486328,
            "centerType": "Center",
            "width": 9.498899459838867,
            "length": 56.61570358276367
          }
        },
        {
          "pos": {
            "x": -2303.61669921875,
            "y": 34.15812683105469,
            "z": 5566.55126953125
          },
          "shape": {
            "$type": "LCFGLDCOCOH",
            "useHeight": true,
            "height": 25.549591064453125,
            "centerType": "Center",
            "width": 13.692644119262695,
            "length": 32.4632453918457
          }
        },
        {
          "pos": {
            "x": -2307.03564453125,
            "y": 72.67404174804688,
            "z": 5582.05078125
          },
          "rot": {
            "y": 45.95584487915039
          },
          "shape": {
            "$type": "LCFGLDCOCOH",
            "useHeight": true,
            "height": 55.93120574951172,
            "centerType": "Center",
            "width": 11.437602043151855,
            "length": 15.704848289489746
          }
        },
        {
          "pos": {
            "x": -2306.52197265625,
            "y": 73.32269287109375,
            "z": 5556.75048828125
          },
          "rot": {
            "y": 316.80322265625
          },
          "shape": {
            "$type": "LCFGLDCOCOH",
            "useHeight": true,
            "height": 54.92888641357422,
            "centerType": "Center",
            "width": 7.866623878479004,
            "length": 16.70184326171875
          }
        }
      ]
    },
    {
      "HAFIBJMBFAE": 3270403,
      "regionPolygons": [
        {
          "minArea": {
            "x": -2589.4033203125,
            "y": -53.72935485839844,
            "z": 5713.2490234375
          },
          "maxArea": {
            "x": -2497.8271484375,
            "y": 0.7410316467285156,
            "z": 5772.251953125
          },
          "roadPoints": [
            {
              "x": -2588.717529296875,
              "y": -53.72935485839844,
              "z": 5749.5078125
            },
            {
              "x": -2589.4033203125,
              "y": -53.72935485839844,
              "z": 5765.50830078125
            },
            {
              "x": -2578.33935546875,
              "y": -53.72935485839844,
              "z": 5772.251953125
            },
            {
              "x": -2564.861572265625,
              "y": -53.72935485839844,
              "z": 5770.443359375
            },
            {
              "x": -2548.848388671875,
              "y": -53.72935485839844,
              "z": 5765.2470703125
            },
            {
              "x": -2530.48583984375,
              "y": -53.72935485839844,
              "z": 5753.70654296875
            },
            {
              "x": -2515.3681640625,
              "y": -53.72935485839844,
              "z": 5751.271484375
            },
            {
              "x": -2504.111083984375,
              "y": -53.72935485839844,
              "z": 5737.63037109375
            },
            {
              "x": -2497.8271484375,
              "y": -53.72935485839844,
              "z": 5724.64208984375
            },
            {
              "x": -2514.196533203125,
              "y": -53.72935485839844,
              "z": 5713.2490234375
            },
            {
              "x": -2517.500732421875,
              "y": -53.72935485839844,
              "z": 5716.333984375
            },
            {
              "x": -2523.815185546875,
              "y": -53.72935485839844,
              "z": 5724.68359375
            },
            {
              "x": -2532.260009765625,
              "y": -53.72935485839844,
              "z": 5734.8125
            },
            {
              "x": -2552.28271484375,
              "y": -53.72935485839844,
              "z": 5737.33056640625
            },
            {
              "x": -2568.11181640625,
              "y": -53.72935485839844,
              "z": 5750.36279296875
            }
          ]
        },
        {
          "minArea": {
            "x": -2544.091796875,
            "y": -64.66156005859375,
            "z": 5669.97265625
          },
          "maxArea": {
            "x": -2463.006591796875,
            "y": -35.20726013183594,
            "z": 5727.51611328125
          },
          "roadPoints": [
            {
              "x": -2513.51220703125,
              "y": -64.66156005859375,
              "z": 5714.18408203125
            },
            {
              "x": -2498.453125,
              "y": -64.66156005859375,
              "z": 5724.4033203125
            },
            {
              "x": -2489.765625,
              "y": -64.66156005859375,
              "z": 5722.28466796875
            },
            {
              "x": -2480.708740234375,
              "y": -64.66156005859375,
              "z": 5722.47265625
            },
            {
              "x": -2466.979736328125,
              "y": -64.66156005859375,
              "z": 5727.51611328125
            },
            {
              "x": -2463.006591796875,
              "y": -64.66156005859375,
              "z": 5708.7724609375
            },
            {
              "x": -2478.45068359375,
              "y": -64.66156005859375,
              "z": 5704.14111328125
            },
            {
              "x": -2496.127685546875,
              "y": -64.66156005859375,
              "z": 5700.16455078125
            },
            {
              "x": -2510.583984375,
              "y": -64.66156005859375,
              "z": 5686.11279296875
            },
            {
              "x": -2521.48046875,
              "y": -64.66156005859375,
              "z": 5673.373046875
            },
            {
              "x": -2543.711669921875,
              "y": -64.66156005859375,
              "z": 5669.97265625
            },
            {
              "x": -2544.091796875,
              "y": -64.66156005859375,
              "z": 5704.99853515625
            },
            {
              "x": -2522.4375,
              "y": -64.66156005859375,
              "z": 5707.6728515625
            }
          ]
        }
      ]
    },
    {
      "HAFIBJMBFAE": 3270404,
      "limitShapes": [
        {
          "pos": {
            "x": -2620.46435546875,
            "y": -68.53671264648438,
            "z": 5748.5107421875
          },
          "shape": {
            "$type": "LCFGLDCOCOH",
            "useHeight": true,
            "height": 46.04216766357422,
            "centerType": "Center",
            "width": 153.586181640625,
            "length": 192.5640411376953
          }
        },
        {
          "pos": {
            "x": -2616.283447265625,
            "y": -34.63018035888672,
            "z": 5674.7919921875
          },
          "shape": {
            "$type": "LCFGLDCOCOH",
            "useHeight": true,
            "height": 24.597902297973633,
            "centerType": "Center",
            "width": 47.39841842651367,
            "length": 43.714839935302734
          }
        }
      ]
    }
  ],
  "minArea": {
    "x": -2889.03466796875,
    "y": -103.16873168945312,
    "z": 5439.4736328125
  },
  "maxArea": {
    "x": -2296.77001953125,
    "y": 148.6181640625,
    "z": 5940.615234375
  }
}