{
  "NFHJKDMMEMF": 33401,
  "KIMNCBFBKIN": [
    {
      "HAFIBJMBFAE": 3340101,
      "regionPolygons": [
        {
          "minArea": {
            "x": 2346.241943359375,
            "y": 403.2659912109375,
            "z": 4418.0126953125
          },
          "maxArea": {
            "x": 2553.06982421875,
            "y": 438.99932861328125,
            "z": 4549.9521484375
          },
          "roadPoints": [
            {
              "x": 2349.1650390625,
              "y": 403.2659912109375,
              "z": 4418.0126953125
            },
            {
              "x": 2370.03857421875,
              "y": 403.2659912109375,
              "z": 4427.25732421875
            },
            {
              "x": 2381.05029296875,
              "y": 403.2659912109375,
              "z": 4433.28759765625
            },
            {
              "x": 2394.25,
              "y": 403.2659912109375,
              "z": 4432.29736328125
            },
            {
              "x": 2405.55078125,
              "y": 403.2659912109375,
              "z": 4437.12890625
            },
            {
              "x": 2428.94140625,
              "y": 403.2659912109375,
              "z": 4443.6572265625
            },
            {
              "x": 2454.828369140625,
              "y": 403.2659912109375,
              "z": 4459.51611328125
            },
            {
              "x": 2477.3740234375,
              "y": 403.2659912109375,
              "z": 4479.849609375
            },
            {
              "x": 2507.027099609375,
              "y": 403.2659912109375,
              "z": 4482.431640625
            },
            {
              "x": 2553.06982421875,
              "y": 403.2659912109375,
              "z": 4472.9423828125
            },
            {
              "x": 2550.347900390625,
              "y": 403.2659912109375,
              "z": 4510.921875
            },
            {
              "x": 2546.91796875,
              "y": 403.2659912109375,
              "z": 4549.9521484375
            },
            {
              "x": 2470.7685546875,
              "y": 403.2659912109375,
              "z": 4541.60009765625
            },
            {
              "x": 2453.673583984375,
              "y": 403.2659912109375,
              "z": 4536.4267578125
            },
            {
              "x": 2431.306396484375,
              "y": 403.2659912109375,
              "z": 4534.24560546875
            },
            {
              "x": 2409.60888671875,
              "y": 403.2659912109375,
              "z": 4514.32373046875
            },
            {
              "x": 2398.45947265625,
              "y": 403.2659912109375,
              "z": 4496.0625
            },
            {
              "x": 2394.47705078125,
              "y": 403.2659912109375,
              "z": 4461.48828125
            },
            {
              "x": 2377.506591796875,
              "y": 403.2659912109375,
              "z": 4450.78173828125
            },
            {
              "x": 2367.62548828125,
              "y": 403.2659912109375,
              "z": 4443.86376953125
            },
            {
              "x": 2346.241943359375,
              "y": 403.2659912109375,
              "z": 4437.1923828125
            }
          ]
        }
      ],
      "limitShapes": [
        {
          "pos": {
            "x": 2113.3369140625,
            "y": 430.768798828125,
            "z": 4452.17431640625
          },
          "rot": {
            "y": 34.4820442199707
          },
          "shape": {
            "$type": "LCFGLDCOCOH",
            "useHeight": true,
            "height": 16.463180541992188,
            "centerType": "Center",
            "width": 59.517982482910156,
            "length": 45.85325241088867
          }
        },
        {
          "pos": {
            "x": 2169.187255859375,
            "y": 427.0880126953125,
            "z": 4427.58642578125
          },
          "shape": {
            "$type": "LCFGLDCOCOH",
            "useHeight": true,
            "height": 23.825027465820312,
            "centerType": "Center",
            "width": 78.59284210205078,
            "length": 45.34197235107422
          }
        },
        {
          "pos": {
            "x": 2212.537109375,
            "y": 428.156005859375,
            "z": 4448.6865234375
          },
          "rot": {
            "y": 331.10546875
          },
          "shape": {
            "$type": "LCFGLDCOCOH",
            "useHeight": true,
            "height": 21.688194274902344,
            "centerType": "Center",
            "width": 80.35681915283203,
            "length": 57.425655364990234
          }
        },
        {
          "pos": {
            "x": 2265.306396484375,
            "y": 428.9989929199219,
            "z": 4462.515625
          },
          "shape": {
            "$type": "LCFGLDCOCOH",
            "useHeight": true,
            "height": 20.00179672241211,
            "centerType": "Center",
            "width": 53.5321044921875,
            "length": 49.729957580566406
          }
        },
        {
          "pos": {
            "x": 2305.8935546875,
            "y": 425.0090026855469,
            "z": 4451.4541015625
          },
          "rot": {
            "y": 15.427509307861328
          },
          "shape": {
            "$type": "LCFGLDCOCOH",
            "useHeight": true,
            "height": 27.980918884277344,
            "centerType": "Center",
            "width": 40.730037689208984,
            "length": 47.52140808105469
          }
        },
        {
          "pos": {
            "x": 2323.7958984375,
            "y": 411.07000732421875,
            "z": 4432.3173828125
          },
          "rot": {
            "y": 34.21214294433594
          },
          "shape": {
            "$type": "LCFGLDCOCOH",
            "useHeight": true,
            "height": 53.85242462158203,
            "centerType": "Center",
            "width": 21.690492630004883,
            "length": 27.002029418945312
          }
        },
        {
          "pos": {
            "x": 2344.0771484375,
            "y": 433.8609924316406,
            "z": 4427.826171875
          },
          "rot": {
            "y": 16.43332862854004
          },
          "shape": {
            "$type": "LCFGLDCOCOH",
            "useHeight": true,
            "height": 10.27706241607666,
            "centerType": "Center",
            "width": 19.53734588623047,
            "length": 17.414289474487305
          }
        },
        {
          "pos": {
            "x": 2581.390625,
            "y": 372.6570129394531,
            "z": 4466.98388671875
          },
          "rot": {
            "y": 51.811893463134766
          },
          "shape": {
            "$type": "LCFGLDCOCOH",
            "useHeight": true,
            "height": 132.68626403808594,
            "centerType": "Center",
            "width": 174.8199920654297,
            "length": 87.60586547851562
          }
        },
        {
          "pos": {
            "x": 2713.802490234375,
            "y": 411.0,
            "z": 4400.62158203125
          },
          "rot": {
            "y": 7.256464958190918
          },
          "shape": {
            "$type": "LCFGLDCOCOH",
            "useHeight": true,
            "height": 55.9298210144043,
            "centerType": "Center",
            "width": 208.596923828125,
            "length": 85.00634002685547
          }
        },
        {
          "pos": {
            "x": 2870.447265625,
            "y": 402.2070007324219,
            "z": 4323.8193359375
          },
          "rot": {
            "y": 36.2317008972168
          },
          "shape": {
            "$type": "LCFGLDCOCOH",
            "useHeight": true,
            "height": 73.58586120605469,
            "centerType": "Center",
            "width": 188.99632263183594,
            "length": 130.63473510742188
          }
        },
        {
          "pos": {
            "x": 2589.90576171875,
            "y": 329.2356262207031,
            "z": 4489.31103515625
          },
          "shape": {
            "$type": "EMOKHIGKKBE",
            "useHeight": true,
            "height": 117.84783935546875,
            "radius": 45.699100494384766
          }
        },
        {
          "pos": {
            "x": 2741.22998046875,
            "y": 316.49993896484375,
            "z": 4236.04052734375
          },
          "rot": {
            "y": 341.0395812988281
          },
          "shape": {
            "$type": "LCFGLDCOCOH",
            "useHeight": true,
            "height": 46.80643844604492,
            "centerType": "Center",
            "width": 59.42322540283203,
            "length": 63.488739013671875
          }
        },
        {
          "pos": {
            "x": 2699.3798828125,
            "y": 330.13189697265625,
            "z": 4341.048828125
          },
          "rot": {
            "x": 3.6617813110351562,
            "y": 336.4360046386719,
            "z": 5.347001774680393e-08
          },
          "shape": {
            "$type": "PAPCPHMEHFC",
            "useHeight": true,
            "height": 107.51811218261719,
            "width": 122.69198608398438,
            "length": 168.85902404785156
          }
        },
        {
          "pos": {
            "x": 2269.8291015625,
            "y": 385.032958984375,
            "z": 4456.658203125
          },
          "rot": {
            "y": 334.7799072265625
          },
          "shape": {
            "$type": "LCFGLDCOCOH",
            "useHeight": true,
            "height": 71.54696655273438,
            "centerType": "Center",
            "width": 39.293704986572266,
            "length": 68.54613494873047
          }
        },
        {
          "pos": {
            "x": 2470.3115234375,
            "y": 372.63336181640625,
            "z": 4527.81005859375
          },
          "rot": {
            "y": 354.0743408203125
          },
          "shape": {
            "$type": "LCFGLDCOCOH",
            "useHeight": true,
            "height": 84.26185607910156,
            "centerType": "Center",
            "width": 87.04496765136719,
            "length": 42.77593994140625
          }
        }
      ]
    },
    {
      "HAFIBJMBFAE": 3340102,
      "limitShapes": [
        {
          "pos": {
            "x": 2679.083984375,
            "y": 356.40301513671875,
            "z": 4509.4736328125
          },
          "rot": {
            "y": 356.56414794921875
          },
          "shape": {
            "$type": "LCFGLDCOCOH",
            "useHeight": true,
            "height": 165.19479370117188,
            "centerType": "Center",
            "width": 312.51788330078125,
            "length": 191.24642944335938
          }
        },
        {
          "pos": {
            "x": 2987.318359375,
            "y": 406.8710021972656,
            "z": 4629.638671875
          },
          "shape": {
            "$type": "LCFGLDCOCOH",
            "useHeight": true,
            "height": 64.25840759277344,
            "centerType": "Center",
            "width": 98.53189086914062,
            "length": 98.7881088256836
          }
        },
        {
          "pos": {
            "x": 2914.399658203125,
            "y": 429.0639953613281,
            "z": 4611.8037109375
          },
          "shape": {
            "$type": "LCFGLDCOCOH",
            "useHeight": true,
            "height": 19.871288299560547,
            "centerType": "Center",
            "width": 49.707149505615234,
            "length": 56.80342102050781
          }
        }
      ]
    },
    {
      "HAFIBJMBFAE": 3340103,
      "limitShapes": [
        {
          "pos": {
            "x": 3021.239501953125,
            "y": 360.54400634765625,
            "z": 4160.90283203125
          },
          "rot": {
            "y": 355.9300231933594
          },
          "shape": {
            "$type": "LCFGLDCOCOH",
            "useHeight": true,
            "height": 156.91188049316406,
            "centerType": "Center",
            "width": 192.9947967529297,
            "length": 405.23101806640625
          }
        },
        {
          "pos": {
            "x": 3004.1884765625,
            "y": 395.2879943847656,
            "z": 4468.4970703125
          },
          "shape": {
            "$type": "LCFGLDCOCOH",
            "useHeight": true,
            "height": 87.4244384765625,
            "centerType": "Center",
            "width": 361.5699768066406,
            "length": 239.78274536132812
          }
        },
        {
          "pos": {
            "x": 3502.31640625,
            "y": 412.81396484375,
            "z": 4131.66748046875
          },
          "shape": {
            "$type": "LCFGLDCOCOH",
            "useHeight": true,
            "height": 52.37075424194336,
            "centerType": "Center",
            "width": 383.448974609375,
            "length": 553.3790283203125
          }
        },
        {
          "pos": {
            "x": 3143.231201171875,
            "y": 391.635009765625,
            "z": 4684.900390625
          },
          "rot": {
            "y": 20.000011444091797
          },
          "shape": {
            "$type": "LCFGLDCOCOH",
            "useHeight": true,
            "height": 94.72797393798828,
            "centerType": "Center",
            "width": 289.175048828125,
            "length": 255.8641357421875
          }
        },
        {
          "pos": {
            "x": 3322.22412109375,
            "y": 363.40966796875,
            "z": 4837.6865234375
          },
          "rot": {
            "y": 112.63301086425781
          },
          "shape": {
            "$type": "LCFGLDCOCOH",
            "useHeight": true,
            "height": 151.1660614013672,
            "centerType": "Center",
            "width": 224.34356689453125,
            "length": 368.6634826660156
          }
        },
        {
          "pos": {
            "x": 3227.00830078125,
            "y": 412.55126953125,
            "z": 4154.3271484375
          },
          "shape": {
            "$type": "LCFGLDCOCOH",
            "useHeight": true,
            "height": 52.896026611328125,
            "centerType": "Center",
            "width": 333.8002014160156,
            "length": 500.553955078125
          }
        },
        {
          "pos": {
            "x": 3119.468017578125,
            "y": 417.6603088378906,
            "z": 3870.289306640625
          },
          "rot": {
            "y": 50.00001525878906
          },
          "shape": {
            "$type": "LCFGLDCOCOH",
            "useHeight": true,
            "height": 42.68056869506836,
            "centerType": "Center",
            "width": 338.1214294433594,
            "length": 211.23257446289062
          }
        },
        {
          "pos": {
            "x": 3865.06787109375,
            "y": 368.7250061035156,
            "z": 4246.0654296875
          },
          "rot": {
            "y": 50.00001525878906
          },
          "shape": {
            "$type": "LCFGLDCOCOH",
            "useHeight": true,
            "height": 140.54798889160156,
            "centerType": "Center",
            "width": 295.53594970703125,
            "length": 672.7254638671875
          }
        },
        {
          "pos": {
            "x": 3413.5478515625,
            "y": 379.66925048828125,
            "z": 4944.89599609375
          },
          "rot": {
            "y": 357.134765625
          },
          "shape": {
            "$type": "LCFGLDCOCOH",
            "useHeight": true,
            "height": 118.6615982055664,
            "centerType": "Center",
            "width": 364.9259033203125,
            "length": 246.39697265625
          }
        },
        {
          "pos": {
            "x": 3420.75048828125,
            "y": 431.4639892578125,
            "z": 4722.9931640625
          },
          "rot": {
            "y": 326.510009765625
          },
          "shape": {
            "$type": "LCFGLDCOCOH",
            "useHeight": true,
            "height": 15.072335243225098,
            "centerType": "Center",
            "width": 108.7275390625,
            "length": 59.38288497924805
          }
        },
        {
          "pos": {
            "x": 3283.69677734375,
            "y": 427.20111083984375,
            "z": 4456.33740234375
          },
          "rot": {
            "y": 4.213136196136475,
            "z": 2.0844098669314803e-10
          },
          "shape": {
            "$type": "PAPCPHMEHFC",
            "useHeight": true,
            "height": 23.597299575805664,
            "width": 235.5505828857422,
            "length": 157.47161865234375
          }
        },
        {
          "pos": {
            "x": 3318.251953125,
            "y": 427.36724853515625,
            "z": 4615.970703125
          },
          "rot": {
            "y": 20.62298011779785,
            "z": 1.3343215421457444e-08
          },
          "shape": {
            "$type": "PAPCPHMEHFC",
            "useHeight": true,
            "height": 23.263111114501953,
            "width": 92.87528228759766,
            "length": 204.78945922851562
          }
        },
        {
          "pos": {
            "x": 3466.655517578125,
            "y": 303.1380615234375,
            "z": 4970.357421875
          },
          "shape": {
            "$type": "LCFGLDCOCOH",
            "useHeight": true,
            "height": 55.092750549316406,
            "centerType": "Center",
            "width": 110.42088317871094,
            "length": 102.81051635742188
          }
        },
        {
          "pos": {
            "x": 3220.02294921875,
            "y": 339.04620361328125,
            "z": 4155.24169921875
          },
          "rot": {
            "y": 326.767333984375
          },
          "shape": {
            "$type": "LCFGLDCOCOH",
            "useHeight": true,
            "height": 58.26798629760742,
            "centerType": "Center",
            "width": 223.2018585205078,
            "length": 113.27849578857422
          }
        },
        {
          "pos": {
            "x": 3502.31640625,
            "y": 390.12554931640625,
            "z": 4163.80029296875
          },
          "shape": {
            "$type": "LCFGLDCOCOH",
            "useHeight": true,
            "height": 97.74766540527344,
            "centerType": "Center",
            "width": 383.448974609375,
            "length": 489.1144104003906
          }
        },
        {
          "pos": {
            "x": 3227.00830078125,
            "y": 391.81719970703125,
            "z": 4161.6240234375
          },
          "shape": {
            "$type": "LCFGLDCOCOH",
            "useHeight": true,
            "height": 94.36400604248047,
            "centerType": "Center",
            "width": 333.8002014160156,
            "length": 485.9592590332031
          }
        },
        {
          "pos": {
            "x": 3105.826171875,
            "y": 418.0610046386719,
            "z": 3937.51171875
          },
          "rot": {
            "y": 50.00001525878906
          },
          "shape": {
            "$type": "LCFGLDCOCOH",
            "useHeight": true,
            "height": 41.87900161743164,
            "centerType": "Center",
            "width": 217.59912109375,
            "length": 276.748779296875
          }
        },
        {
          "pos": {
            "x": 3536.95849609375,
            "y": 390.12548828125,
            "z": 4131.6669921875
          },
          "shape": {
            "$type": "LCFGLDCOCOH",
            "useHeight": true,
            "height": 97.74767303466797,
            "centerType": "Center",
            "width": 314.1617431640625,
            "length": 553.3790283203125
          }
        },
        {
          "pos": {
            "x": 3092.94189453125,
            "y": 420.5610046386719,
            "z": 3848.03125
          },
          "rot": {
            "y": 50.00001907348633
          },
          "shape": {
            "$type": "LCFGLDCOCOH",
            "useHeight": true,
            "height": 36.87900161743164,
            "centerType": "Center",
            "width": 338.12139892578125,
            "length": 141.97265625
          }
        },
        {
          "pos": {
            "x": 3136.37060546875,
            "y": 417.6603088378906,
            "z": 3901.1103515625
          },
          "rot": {
            "y": 50.00001907348633
          },
          "shape": {
            "$type": "LCFGLDCOCOH",
            "useHeight": true,
            "height": 42.68056869506836,
            "centerType": "Center",
            "width": 312.64361572265625,
            "length": 276.7488098144531
          }
        },
        {
          "pos": {
            "x": 3237.9453125,
            "y": 412.6603088378906,
            "z": 3969.70361328125
          },
          "rot": {
            "y": 50.00001907348633
          },
          "shape": {
            "$type": "LCFGLDCOCOH",
            "useHeight": true,
            "height": 52.68056869506836,
            "centerType": "Center",
            "width": 338.12139892578125,
            "length": 32.94114685058594
          }
        },
        {
          "pos": {
            "x": 3415.29833984375,
            "y": 418.14910888671875,
            "z": 5115.513671875
          },
          "rot": {
            "y": 356.7320556640625
          },
          "shape": {
            "$type": "LCFGLDCOCOH",
            "useHeight": true,
            "height": 43.89934539794922,
            "centerType": "Center",
            "width": 338.95574951171875,
            "length": 174.12594604492188
          }
        },
        {
          "pos": {
            "x": 3129.6005859375,
            "y": 413.0,
            "z": 3818.9443359375
          },
          "shape": {
            "$type": "EMOKHIGKKBE",
            "useHeight": true,
            "height": 40.0,
            "radius": 60.0
          }
        },
        {
          "pos": {
            "x": 3126.76171875,
            "y": 393.0,
            "z": 3812.5302734375
          },
          "shape": {
            "$type": "EMOKHIGKKBE",
            "useHeight": true,
            "height": 40.0,
            "radius": 33.0
          }
        }
      ]
    },
    {
      "HAFIBJMBFAE": 3340104,
      "regionPolygons": [
        {
          "minArea": {
            "x": 4077.60302734375,
            "y": 267.59161376953125,
            "z": 4305.908203125
          },
          "maxArea": {
            "x": 4577.236328125,
            "y": 439.0082702636719,
            "z": 4667.5302734375
          },
          "roadPoints": [
            {
              "x": 4077.60302734375,
              "y": 267.59161376953125,
              "z": 4510.2451171875
            },
            {
              "x": 4150.25927734375,
              "y": 267.59161376953125,
              "z": 4484.19384765625
            },
            {
              "x": 4212.2109375,
              "y": 267.59161376953125,
              "z": 4528.775390625
            },
            {
              "x": 4263.94580078125,
              "y": 267.59161376953125,
              "z": 4564.05517578125
            },
            {
              "x": 4274.42822265625,
              "y": 267.59161376953125,
              "z": 4667.5302734375
            },
            {
              "x": 4347.392578125,
              "y": 267.59161376953125,
              "z": 4573.7255859375
            },
            {
              "x": 4319.13916015625,
              "y": 267.59161376953125,
              "z": 4525.21875
            },
            {
              "x": 4326.3125,
              "y": 267.59161376953125,
              "z": 4503.04736328125
            },
            {
              "x": 4271.4345703125,
              "y": 267.59161376953125,
              "z": 4441.31494140625
            },
            {
              "x": 4299.03173828125,
              "y": 267.59161376953125,
              "z": 4412.44287109375
            },
            {
              "x": 4364.33154296875,
              "y": 267.59161376953125,
              "z": 4481.93017578125
            },
            {
              "x": 4389.015625,
              "y": 267.59161376953125,
              "z": 4469.06982421875
            },
            {
              "x": 4407.421875,
              "y": 267.59161376953125,
              "z": 4441.52099609375
            },
            {
              "x": 4427.6259765625,
              "y": 267.59161376953125,
              "z": 4459.197265625
            },
            {
              "x": 4455.759765625,
              "y": 267.59161376953125,
              "z": 4501.01123046875
            },
            {
              "x": 4577.236328125,
              "y": 267.59161376953125,
              "z": 4502.37548828125
            },
            {
              "x": 4564.99365234375,
              "y": 267.59161376953125,
              "z": 4464.19091796875
            },
            {
              "x": 4569.24609375,
              "y": 267.59161376953125,
              "z": 4437.9287109375
            },
            {
              "x": 4553.1865234375,
              "y": 267.59161376953125,
              "z": 4372.43701171875
            },
            {
              "x": 4567.98974609375,
              "y": 267.59161376953125,
              "z": 4329.21142578125
            },
            {
              "x": 4439.78173828125,
              "y": 267.59161376953125,
              "z": 4305.908203125
            },
            {
              "x": 4261.20703125,
              "y": 267.59161376953125,
              "z": 4321.57861328125
            },
            {
              "x": 4214.716796875,
              "y": 267.59161376953125,
              "z": 4345.83203125
            },
            {
              "x": 4184.2763671875,
              "y": 267.59161376953125,
              "z": 4383.42724609375
            }
          ]
        },
        {
          "minArea": {
            "x": 4266.29248046875,
            "y": 398.05859375,
            "z": 4397.93701171875
          },
          "maxArea": {
            "x": 4490.630859375,
            "y": 439.0082702636719,
            "z": 4580.42138671875
          },
          "roadPoints": [
            {
              "x": 4317.00244140625,
              "y": 398.05859375,
              "z": 4499.7177734375
            },
            {
              "x": 4312.90283203125,
              "y": 398.05859375,
              "z": 4545.68017578125
            },
            {
              "x": 4339.46044921875,
              "y": 398.05859375,
              "z": 4580.42138671875
            },
            {
              "x": 4448.75146484375,
              "y": 398.05859375,
              "z": 4556.353515625
            },
            {
              "x": 4480.8037109375,
              "y": 398.05859375,
              "z": 4529.6123046875
            },
            {
              "x": 4490.630859375,
              "y": 398.05859375,
              "z": 4496.48095703125
            },
            {
              "x": 4421.5625,
              "y": 398.05859375,
              "z": 4444.8984375
            },
            {
              "x": 4284.49560546875,
              "y": 398.05859375,
              "z": 4397.93701171875
            },
            {
              "x": 4266.29248046875,
              "y": 398.05859375,
              "z": 4443.4501953125
            }
          ]
        },
        {
          "minArea": {
            "x": 4312.4287109375,
            "y": 299.766845703125,
            "z": 4488.95166015625
          },
          "maxArea": {
            "x": 4643.900390625,
            "y": 439.0082702636719,
            "z": 4608.603515625
          },
          "roadPoints": [
            {
              "x": 4409.12890625,
              "y": 299.766845703125,
              "z": 4510.84033203125
            },
            {
              "x": 4393.82177734375,
              "y": 299.766845703125,
              "z": 4519.8671875
            },
            {
              "x": 4393.84619140625,
              "y": 299.766845703125,
              "z": 4521.56494140625
            },
            {
              "x": 4390.21435546875,
              "y": 299.766845703125,
              "z": 4543.6318359375
            },
            {
              "x": 4370.67431640625,
              "y": 299.766845703125,
              "z": 4557.3193359375
            },
            {
              "x": 4343.91552734375,
              "y": 299.766845703125,
              "z": 4552.53515625
            },
            {
              "x": 4312.4287109375,
              "y": 299.766845703125,
              "z": 4607.47021484375
            },
            {
              "x": 4463.15234375,
              "y": 299.766845703125,
              "z": 4608.603515625
            },
            {
              "x": 4612.830078125,
              "y": 299.766845703125,
              "z": 4585.94873046875
            },
            {
              "x": 4643.900390625,
              "y": 299.766845703125,
              "z": 4499.67529296875
            },
            {
              "x": 4586.94287109375,
              "y": 299.766845703125,
              "z": 4497.521484375
            },
            {
              "x": 4455.14990234375,
              "y": 299.766845703125,
              "z": 4488.95166015625
            },
            {
              "x": 4448.8681640625,
              "y": 299.766845703125,
              "z": 4516.16455078125
            }
          ]
        },
        {
          "minArea": {
            "x": 4257.47119140625,
            "y": 267.59161376953125,
            "z": 4466.79541015625
          },
          "maxArea": {
            "x": 5044.22265625,
            "y": 439.0082702636719,
            "z": 5299.96337890625
          },
          "roadPoints": [
            {
              "x": 4274.42822265625,
              "y": 267.59161376953125,
              "z": 4667.5302734375
            },
            {
              "x": 4257.47119140625,
              "y": 267.59161376953125,
              "z": 4753.82861328125
            },
            {
              "x": 4300.7568359375,
              "y": 267.59161376953125,
              "z": 4814.69580078125
            },
            {
              "x": 4269.77392578125,
              "y": 267.59161376953125,
              "z": 4869.14892578125
            },
            {
              "x": 4262.31396484375,
              "y": 267.59161376953125,
              "z": 4914.22314453125
            },
            {
              "x": 4319.77685546875,
              "y": 267.59161376953125,
              "z": 4954.18408203125
            },
            {
              "x": 4369.611328125,
              "y": 267.59161376953125,
              "z": 4874.16455078125
            },
            {
              "x": 4457.41845703125,
              "y": 267.59161376953125,
              "z": 4915.8466796875
            },
            {
              "x": 4520.322265625,
              "y": 267.59161376953125,
              "z": 4985.5869140625
            },
            {
              "x": 4631.94287109375,
              "y": 267.59161376953125,
              "z": 5037.35888671875
            },
            {
              "x": 4755.36083984375,
              "y": 267.59161376953125,
              "z": 5103.27294921875
            },
            {
              "x": 4802.8779296875,
              "y": 267.59161376953125,
              "z": 5165.30029296875
            },
            {
              "x": 4818.85400390625,
              "y": 267.59161376953125,
              "z": 5293.13330078125
            },
            {
              "x": 4921.06396484375,
              "y": 267.59161376953125,
              "z": 5299.96337890625
            },
            {
              "x": 4967.4765625,
              "y": 267.59161376953125,
              "z": 5123.77001953125
            },
            {
              "x": 5041.9443359375,
              "y": 267.59161376953125,
              "z": 5007.908203125
            },
            {
              "x": 5044.22265625,
              "y": 267.59161376953125,
              "z": 4903.4970703125
            },
            {
              "x": 5005.58740234375,
              "y": 267.59161376953125,
              "z": 4820.947265625
            },
            {
              "x": 4892.544921875,
              "y": 267.59161376953125,
              "z": 4775.25390625
            },
            {
              "x": 4899.94580078125,
              "y": 267.59161376953125,
              "z": 4703.326171875
            },
            {
              "x": 4879.859375,
              "y": 267.59161376953125,
              "z": 4638.19140625
            },
            {
              "x": 4833.4990234375,
              "y": 267.59161376953125,
              "z": 4591.8974609375
            },
            {
              "x": 4785.63037109375,
              "y": 267.59161376953125,
              "z": 4592.97119140625
            },
            {
              "x": 4735.7568359375,
              "y": 267.59161376953125,
              "z": 4554.255859375
            },
            {
              "x": 4649.087890625,
              "y": 267.59161376953125,
              "z": 4466.79541015625
            },
            {
              "x": 4610.8916015625,
              "y": 267.59161376953125,
              "z": 4578.93603515625
            },
            {
              "x": 4493.0048828125,
              "y": 267.59161376953125,
              "z": 4600.2509765625
            },
            {
              "x": 4319.15380859375,
              "y": 267.59161376953125,
              "z": 4605.45654296875
            },
            {
              "x": 4283.19775390625,
              "y": 267.59161376953125,
              "z": 4641.6875
            }
          ]
        }
      ]
    },
    {
      "HAFIBJMBFAE": 3340105,
      "regionPolygons": [
        {
          "minArea": {
            "x": 4424.84375,
            "y": 267.59161376953125,
            "z": 3772.309814453125
          },
          "maxArea": {
            "x": 4882.69580078125,
            "y": 439.0291442871094,
            "z": 4336.0888671875
          },
          "roadPoints": [
            {
              "x": 4593.3154296875,
              "y": 267.59161376953125,
              "z": 4336.0888671875
            },
            {
              "x": 4465.66748046875,
              "y": 267.59161376953125,
              "z": 4313.23876953125
            },
            {
              "x": 4443.00537109375,
              "y": 267.59161376953125,
              "z": 4276.1728515625
            },
            {
              "x": 4443.66650390625,
              "y": 267.59161376953125,
              "z": 4175.52880859375
            },
            {
              "x": 4424.84375,
              "y": 267.59161376953125,
              "z": 4020.67333984375
            },
            {
              "x": 4497.3271484375,
              "y": 267.59161376953125,
              "z": 4019.581787109375
            },
            {
              "x": 4495.96875,
              "y": 267.59161376953125,
              "z": 3931.412109375
            },
            {
              "x": 4543.99365234375,
              "y": 267.59161376953125,
              "z": 3968.1640625
            },
            {
              "x": 4606.0263671875,
              "y": 267.59161376953125,
              "z": 3918.633544921875
            },
            {
              "x": 4695.92333984375,
              "y": 267.59161376953125,
              "z": 3902.020263671875
            },
            {
              "x": 4810.59716796875,
              "y": 267.59161376953125,
              "z": 3772.309814453125
            },
            {
              "x": 4882.69580078125,
              "y": 267.59161376953125,
              "z": 3850.9775390625
            },
            {
              "x": 4816.61376953125,
              "y": 267.59161376953125,
              "z": 3878.5390625
            },
            {
              "x": 4772.439453125,
              "y": 267.59161376953125,
              "z": 3937.9267578125
            },
            {
              "x": 4711.50830078125,
              "y": 267.59161376953125,
              "z": 4004.311767578125
            },
            {
              "x": 4653.79052734375,
              "y": 267.59161376953125,
              "z": 4085.24609375
            },
            {
              "x": 4634.99658203125,
              "y": 267.59161376953125,
              "z": 4168.5673828125
            },
            {
              "x": 4607.19677734375,
              "y": 267.59161376953125,
              "z": 4250.1455078125
            }
          ]
        }
      ],
      "limitShapes": [
        {
          "pos": {
            "x": 4466.04443359375,
            "y": 430.89227294921875,
            "z": 3978.739013671875
          },
          "shape": {
            "$type": "LCFGLDCOCOH",
            "useHeight": true,
            "height": 16.165010452270508,
            "centerType": "Center",
            "width": 66.29978942871094,
            "length": 83.56340789794922
          }
        }
      ]
    },
    {
      "HAFIBJMBFAE": 3340106,
      "regionPolygons": [
        {
          "minArea": {
            "x": 2994.52197265625,
            "y": 310.1000061035156,
            "z": 2673.26611328125
          },
          "maxArea": {
            "x": 3761.945068359375,
            "y": 438.9049377441406,
            "z": 3779.369140625
          },
          "roadPoints": [
            {
              "x": 3190.55224609375,
              "y": 310.1000061035156,
              "z": 3710.5546875
            },
            {
              "x": 3226.309814453125,
              "y": 310.1000061035156,
              "z": 3740.846923828125
            },
            {
              "x": 3269.659423828125,
              "y": 310.1000061035156,
              "z": 3779.369140625
            },
            {
              "x": 3274.065185546875,
              "y": 310.1000061035156,
              "z": 3693.70263671875
            },
            {
              "x": 3217.13818359375,
              "y": 310.1000061035156,
              "z": 3627.2509765625
            },
            {
              "x": 3180.938232421875,
              "y": 310.1000061035156,
              "z": 3561.205810546875
            },
            {
              "x": 3160.236572265625,
              "y": 310.1000061035156,
              "z": 3528.78564453125
            },
            {
              "x": 3123.9931640625,
              "y": 310.1000061035156,
              "z": 3511.416748046875
            },
            {
              "x": 3132.3642578125,
              "y": 310.1000061035156,
              "z": 3469.5986328125
            },
            {
              "x": 3159.80908203125,
              "y": 310.1000061035156,
              "z": 3404.697509765625
            },
            {
              "x": 3187.6083984375,
              "y": 310.1000061035156,
              "z": 3354.659912109375
            },
            {
              "x": 3165.40576171875,
              "y": 310.1000061035156,
              "z": 3317.724609375
            },
            {
              "x": 3164.174560546875,
              "y": 310.1000061035156,
              "z": 3269.052978515625
            },
            {
              "x": 3205.427978515625,
              "y": 310.1000061035156,
              "z": 3229.727783203125
            },
            {
              "x": 3201.683837890625,
              "y": 310.1000061035156,
              "z": 3209.64453125
            },
            {
              "x": 3225.988525390625,
              "y": 310.1000061035156,
              "z": 3182.2841796875
            },
            {
              "x": 3230.604736328125,
              "y": 310.1000061035156,
              "z": 3125.443359375
            },
            {
              "x": 3255.30859375,
              "y": 310.1000061035156,
              "z": 3097.769775390625
            },
            {
              "x": 3297.440185546875,
              "y": 310.1000061035156,
              "z": 3092.735107421875
            },
            {
              "x": 3314.10498046875,
              "y": 310.1000061035156,
              "z": 3068.09912109375
            },
            {
              "x": 3295.64892578125,
              "y": 310.1000061035156,
              "z": 3052.60400390625
            },
            {
              "x": 3275.46435546875,
              "y": 310.1000061035156,
              "z": 3016.82861328125
            },
            {
              "x": 3296.37158203125,
              "y": 310.1000061035156,
              "z": 2989.788330078125
            },
            {
              "x": 3306.030517578125,
              "y": 310.1000061035156,
              "z": 2924.31640625
            },
            {
              "x": 3322.46044921875,
              "y": 310.1000061035156,
              "z": 2915.359130859375
            },
            {
              "x": 3322.75390625,
              "y": 310.1000061035156,
              "z": 2901.148681640625
            },
            {
              "x": 3343.871337890625,
              "y": 310.1000061035156,
              "z": 2851.9990234375
            },
            {
              "x": 3385.23974609375,
              "y": 310.1000061035156,
              "z": 2812.428466796875
            },
            {
              "x": 3427.049072265625,
              "y": 310.1000061035156,
              "z": 2817.545654296875
            },
            {
              "x": 3461.471923828125,
              "y": 310.1000061035156,
              "z": 2825.329833984375
            },
            {
              "x": 3479.607421875,
              "y": 310.1000061035156,
              "z": 2862.44287109375
            },
            {
              "x": 3501.30078125,
              "y": 310.1000061035156,
              "z": 2825.71240234375
            },
            {
              "x": 3523.18505859375,
              "y": 310.1000061035156,
              "z": 2792.392822265625
            },
            {
              "x": 3563.563720703125,
              "y": 310.1000061035156,
              "z": 2803.75390625
            },
            {
              "x": 3602.568359375,
              "y": 310.1000061035156,
              "z": 2755.25927734375
            },
            {
              "x": 3652.521240234375,
              "y": 310.1000061035156,
              "z": 2764.355712890625
            },
            {
              "x": 3681.41357421875,
              "y": 310.1000061035156,
              "z": 2768.8671875
            },
            {
              "x": 3705.02587890625,
              "y": 310.1000061035156,
              "z": 2749.193115234375
            },
            {
              "x": 3734.18212890625,
              "y": 310.1000061035156,
              "z": 2769.403564453125
            },
            {
              "x": 3748.977294921875,
              "y": 310.1000061035156,
              "z": 2764.059814453125
            },
            {
              "x": 3754.693115234375,
              "y": 310.1000061035156,
              "z": 2753.728759765625
            },
            {
              "x": 3761.945068359375,
              "y": 310.1000061035156,
              "z": 2714.054443359375
            },
            {
              "x": 3740.47509765625,
              "y": 310.1000061035156,
              "z": 2681.071533203125
            },
            {
              "x": 3655.91552734375,
              "y": 310.1000061035156,
              "z": 2681.66015625
            },
            {
              "x": 3611.7802734375,
              "y": 310.1000061035156,
              "z": 2673.26611328125
            },
            {
              "x": 3591.807861328125,
              "y": 310.1000061035156,
              "z": 2706.297607421875
            },
            {
              "x": 3576.614990234375,
              "y": 310.1000061035156,
              "z": 2707.87841796875
            },
            {
              "x": 3564.260498046875,
              "y": 310.1000061035156,
              "z": 2717.141845703125
            },
            {
              "x": 3534.30712890625,
              "y": 310.1000061035156,
              "z": 2704.291748046875
            },
            {
              "x": 3512.92236328125,
              "y": 310.1000061035156,
              "z": 2720.39208984375
            },
            {
              "x": 3487.58642578125,
              "y": 310.1000061035156,
              "z": 2709.113037109375
            },
            {
              "x": 3480.24755859375,
              "y": 310.1000061035156,
              "z": 2733.059326171875
            },
            {
              "x": 3449.7578125,
              "y": 310.1000061035156,
              "z": 2729.28564453125
            },
            {
              "x": 3390.283447265625,
              "y": 310.1000061035156,
              "z": 2768.417236328125
            },
            {
              "x": 3305.7626953125,
              "y": 310.1000061035156,
              "z": 2850.4833984375
            },
            {
              "x": 3296.472412109375,
              "y": 310.1000061035156,
              "z": 2875.877197265625
            },
            {
              "x": 3272.557373046875,
              "y": 310.1000061035156,
              "z": 2906.925048828125
            },
            {
              "x": 3249.336181640625,
              "y": 310.1000061035156,
              "z": 2906.1689453125
            },
            {
              "x": 3221.311767578125,
              "y": 310.1000061035156,
              "z": 2935.326904296875
            },
            {
              "x": 3187.800537109375,
              "y": 310.1000061035156,
              "z": 2929.962646484375
            },
            {
              "x": 3170.621337890625,
              "y": 310.1000061035156,
              "z": 2923.941650390625
            },
            {
              "x": 3138.47265625,
              "y": 310.1000061035156,
              "z": 2922.4521484375
            },
            {
              "x": 3111.44873046875,
              "y": 310.1000061035156,
              "z": 2899.904052734375
            },
            {
              "x": 3106.41845703125,
              "y": 310.1000061035156,
              "z": 2872.94384765625
            },
            {
              "x": 3079.0908203125,
              "y": 310.1000061035156,
              "z": 2872.7890625
            },
            {
              "x": 3009.806396484375,
              "y": 310.1000061035156,
              "z": 2857.99462890625
            },
            {
              "x": 2994.52197265625,
              "y": 310.1000061035156,
              "z": 2874.497802734375
            },
            {
              "x": 3038.539306640625,
              "y": 310.1000061035156,
              "z": 2969.279296875
            },
            {
              "x": 3074.90869140625,
              "y": 310.1000061035156,
              "z": 3020.576416015625
            },
            {
              "x": 3108.09765625,
              "y": 310.1000061035156,
              "z": 3173.20166015625
            },
            {
              "x": 3114.406494140625,
              "y": 310.1000061035156,
              "z": 3404.45556640625
            },
            {
              "x": 3078.35009765625,
              "y": 310.1000061035156,
              "z": 3420.965087890625
            },
            {
              "x": 3075.73974609375,
              "y": 310.1000061035156,
              "z": 3425.93359375
            },
            {
              "x": 3087.790771484375,
              "y": 310.1000061035156,
              "z": 3457.40283203125
            },
            {
              "x": 3186.3681640625,
              "y": 310.1000061035156,
              "z": 3710.966552734375
            }
          ]
        }
      ]
    },
    {
      "HAFIBJMBFAE": 3340108,
      "regionPolygons": [
        {
          "minArea": {
            "x": 3.4028234663852886e+38,
            "z": 3.4028234663852886e+38
          },
          "maxArea": {
            "x": -3.4028234663852886e+38,
            "z": -3.4028234663852886e+38
          }
        },
        {
          "minArea": {
            "x": 2179.970703125,
            "y": 394.1707763671875,
            "z": 3461.6279296875
          },
          "maxArea": {
            "x": 2300.81884765625,
            "y": 439.016357421875,
            "z": 3723.9541015625
          },
          "roadPoints": [
            {
              "x": 2300.81884765625,
              "y": 394.1707763671875,
              "z": 3536.05810546875
            },
            {
              "x": 2266.8056640625,
              "y": 394.1707763671875,
              "z": 3518.291015625
            },
            {
              "x": 2257.813720703125,
              "y": 394.1707763671875,
              "z": 3482.81591796875
            },
            {
              "x": 2232.990234375,
              "y": 394.1707763671875,
              "z": 3461.6279296875
            },
            {
              "x": 2201.329345703125,
              "y": 394.1707763671875,
              "z": 3483.25390625
            },
            {
              "x": 2179.970703125,
              "y": 394.1707763671875,
              "z": 3546.89208984375
            },
            {
              "x": 2180.001220703125,
              "y": 394.1707763671875,
              "z": 3628.8759765625
            },
            {
              "x": 2188.2890625,
              "y": 394.1707763671875,
              "z": 3680.016357421875
            },
            {
              "x": 2205.4775390625,
              "y": 394.1707763671875,
              "z": 3723.9541015625
            },
            {
              "x": 2255.7333984375,
              "y": 394.1707763671875,
              "z": 3709.056396484375
            },
            {
              "x": 2266.539306640625,
              "y": 394.1707763671875,
              "z": 3706.222900390625
            }
          ]
        },
        {
          "minArea": {
            "x": 2933.52978515625,
            "y": 414.0,
            "z": 3562.87353515625
          },
          "maxArea": {
            "x": 3038.92919921875,
            "y": 439.35125732421875,
            "z": 3668.6826171875
          },
          "roadPoints": [
            {
              "x": 3038.92919921875,
              "y": 414.0,
              "z": 3663.78466796875
            },
            {
              "x": 3028.90625,
              "y": 414.0,
              "z": 3668.6826171875
            },
            {
              "x": 2933.52978515625,
              "y": 414.0,
              "z": 3647.60546875
            },
            {
              "x": 2953.36962890625,
              "y": 414.0,
              "z": 3562.87353515625
            },
            {
              "x": 2970.19140625,
              "y": 414.0,
              "z": 3563.499755859375
            },
            {
              "x": 2986.09326171875,
              "y": 414.0,
              "z": 3600.979248046875
            },
            {
              "x": 2994.4755859375,
              "y": 414.0,
              "z": 3630.24072265625
            },
            {
              "x": 3021.792724609375,
              "y": 414.0,
              "z": 3639.166015625
            }
          ]
        },
        {
          "minArea": {
            "x": 2998.4892578125,
            "y": 411.79998779296875,
            "z": 3632.91845703125
          },
          "maxArea": {
            "x": 3188.80419921875,
            "y": 438.95001220703125,
            "z": 3818.893310546875
          },
          "roadPoints": [
            {
              "x": 3020.11279296875,
              "y": 411.79998779296875,
              "z": 3663.111572265625
            },
            {
              "x": 3043.216552734375,
              "y": 411.79998779296875,
              "z": 3644.4384765625
            },
            {
              "x": 3060.912109375,
              "y": 411.79998779296875,
              "z": 3649.47216796875
            },
            {
              "x": 3080.394775390625,
              "y": 411.79998779296875,
              "z": 3635.534912109375
            },
            {
              "x": 3119.046875,
              "y": 411.79998779296875,
              "z": 3632.91845703125
            },
            {
              "x": 3169.037353515625,
              "y": 411.79998779296875,
              "z": 3647.2041015625
            },
            {
              "x": 3188.80419921875,
              "y": 411.79998779296875,
              "z": 3704.55517578125
            },
            {
              "x": 3048.78076171875,
              "y": 411.79998779296875,
              "z": 3818.893310546875
            },
            {
              "x": 2998.4892578125,
              "y": 411.79998779296875,
              "z": 3783.547119140625
            },
            {
              "x": 3018.65478515625,
              "y": 411.79998779296875,
              "z": 3683.79638671875
            }
          ]
        },
        {
          "minArea": {
            "x": 3031.205078125,
            "y": 401.49639892578125,
            "z": 3377.891845703125
          },
          "maxArea": {
            "x": 3179.47265625,
            "y": 438.98968505859375,
            "z": 3652.29931640625
          },
          "roadPoints": [
            {
              "x": 3145.9697265625,
              "y": 401.49639892578125,
              "z": 3646.830810546875
            },
            {
              "x": 3130.951171875,
              "y": 401.49639892578125,
              "z": 3612.20068359375
            },
            {
              "x": 3113.11181640625,
              "y": 401.49639892578125,
              "z": 3586.247802734375
            },
            {
              "x": 3086.46630859375,
              "y": 401.49639892578125,
              "z": 3576.869873046875
            },
            {
              "x": 3063.62255859375,
              "y": 401.49639892578125,
              "z": 3563.02880859375
            },
            {
              "x": 3072.111328125,
              "y": 401.49639892578125,
              "z": 3509.93017578125
            },
            {
              "x": 3031.205078125,
              "y": 401.49639892578125,
              "z": 3408.133056640625
            },
            {
              "x": 3063.082763671875,
              "y": 401.49639892578125,
              "z": 3398.116455078125
            },
            {
              "x": 3122.284423828125,
              "y": 401.49639892578125,
              "z": 3377.891845703125
            },
            {
              "x": 3112.93994140625,
              "y": 401.49639892578125,
              "z": 3430.950927734375
            },
            {
              "x": 3140.423095703125,
              "y": 401.49639892578125,
              "z": 3558.96044921875
            },
            {
              "x": 3179.47265625,
              "y": 401.49639892578125,
              "z": 3652.29931640625
            }
          ]
        },
        {
          "minArea": {
            "x": 2963.80224609375,
            "y": 344.08453369140625,
            "z": 2932.165771484375
          },
          "maxArea": {
            "x": 3127.30859375,
            "y": 438.9182434082031,
            "z": 3395.833984375
          },
          "roadPoints": [
            {
              "x": 3093.1533203125,
              "y": 344.08453369140625,
              "z": 3395.833984375
            },
            {
              "x": 3044.533447265625,
              "y": 344.08453369140625,
              "z": 3353.18603515625
            },
            {
              "x": 3057.39794921875,
              "y": 344.08453369140625,
              "z": 3304.669677734375
            },
            {
              "x": 3044.736328125,
              "y": 344.08453369140625,
              "z": 3245.247802734375
            },
            {
              "x": 3014.39697265625,
              "y": 344.08453369140625,
              "z": 3235.25927734375
            },
            {
              "x": 2992.510498046875,
              "y": 344.08453369140625,
              "z": 3196.7080078125
            },
            {
              "x": 2992.786376953125,
              "y": 344.08453369140625,
              "z": 3170.986572265625
            },
            {
              "x": 2963.80224609375,
              "y": 344.08453369140625,
              "z": 3145.081787109375
            },
            {
              "x": 2970.17041015625,
              "y": 344.08453369140625,
              "z": 3103.74365234375
            },
            {
              "x": 3008.53564453125,
              "y": 344.08453369140625,
              "z": 3103.62060546875
            },
            {
              "x": 3027.840576171875,
              "y": 344.08453369140625,
              "z": 3077.838623046875
            },
            {
              "x": 3008.982177734375,
              "y": 344.08453369140625,
              "z": 3055.04638671875
            },
            {
              "x": 2992.859130859375,
              "y": 344.08453369140625,
              "z": 3021.76416015625
            },
            {
              "x": 2993.191162109375,
              "y": 344.08453369140625,
              "z": 2979.855712890625
            },
            {
              "x": 2981.168212890625,
              "y": 344.08453369140625,
              "z": 2969.34130859375
            },
            {
              "x": 3031.97802734375,
              "y": 344.08453369140625,
              "z": 2932.165771484375
            },
            {
              "x": 3093.022216796875,
              "y": 344.08453369140625,
              "z": 3027.80810546875
            },
            {
              "x": 3121.18408203125,
              "y": 344.08453369140625,
              "z": 3176.891845703125
            },
            {
              "x": 3125.76513671875,
              "y": 344.08453369140625,
              "z": 3256.23291015625
            },
            {
              "x": 3127.30859375,
              "y": 344.08453369140625,
              "z": 3386.4951171875
            }
          ]
        },
        {
          "minArea": {
            "x": 2397.85009765625,
            "y": 369.9077453613281,
            "z": 2882.5068359375
          },
          "maxArea": {
            "x": 3044.009033203125,
            "y": 438.2320251464844,
            "z": 3287.506103515625
          },
          "roadPoints": [
            {
              "x": 2987.905029296875,
              "y": 369.9077453613281,
              "z": 2991.3583984375
            },
            {
              "x": 3044.009033203125,
              "y": 369.9077453613281,
              "z": 2942.662109375
            },
            {
              "x": 3010.297119140625,
              "y": 369.9077453613281,
              "z": 2882.5068359375
            },
            {
              "x": 2916.67919921875,
              "y": 369.9077453613281,
              "z": 2903.39990234375
            },
            {
              "x": 2888.2431640625,
              "y": 369.9077453613281,
              "z": 2941.75341796875
            },
            {
              "x": 2824.295654296875,
              "y": 369.9077453613281,
              "z": 2950.234375
            },
            {
              "x": 2752.785888671875,
              "y": 369.9077453613281,
              "z": 2974.185302734375
            },
            {
              "x": 2699.37158203125,
              "y": 369.9077453613281,
              "z": 3029.8271484375
            },
            {
              "x": 2599.25439453125,
              "y": 369.9077453613281,
              "z": 3035.870849609375
            },
            {
              "x": 2566.182861328125,
              "y": 369.9077453613281,
              "z": 3066.90869140625
            },
            {
              "x": 2566.62451171875,
              "y": 369.9077453613281,
              "z": 3139.039306640625
            },
            {
              "x": 2548.0185546875,
              "y": 369.9077453613281,
              "z": 3170.715576171875
            },
            {
              "x": 2460.407958984375,
              "y": 369.9077453613281,
              "z": 3145.830078125
            },
            {
              "x": 2397.85009765625,
              "y": 369.9077453613281,
              "z": 3255.07080078125
            },
            {
              "x": 2419.95166015625,
              "y": 369.9077453613281,
              "z": 3287.506103515625
            },
            {
              "x": 2496.353759765625,
              "y": 369.9077453613281,
              "z": 3196.16845703125
            },
            {
              "x": 2513.943115234375,
              "y": 369.9077453613281,
              "z": 3225.556396484375
            },
            {
              "x": 2557.653076171875,
              "y": 369.9077453613281,
              "z": 3227.793701171875
            },
            {
              "x": 2581.49853515625,
              "y": 369.9077453613281,
              "z": 3275.642822265625
            },
            {
              "x": 2623.76220703125,
              "y": 369.9077453613281,
              "z": 3282.87890625
            },
            {
              "x": 2680.858642578125,
              "y": 369.9077453613281,
              "z": 3266.1669921875
            },
            {
              "x": 2684.874755859375,
              "y": 369.9077453613281,
              "z": 3184.728271484375
            },
            {
              "x": 2760.7646484375,
              "y": 369.9077453613281,
              "z": 3160.45263671875
            },
            {
              "x": 2822.26318359375,
              "y": 369.9077453613281,
              "z": 3121.0732421875
            },
            {
              "x": 2881.094970703125,
              "y": 369.9077453613281,
              "z": 3102.681640625
            },
            {
              "x": 2895.137451171875,
              "y": 369.9077453613281,
              "z": 3089.20849609375
            },
            {
              "x": 2878.810302734375,
              "y": 369.9077453613281,
              "z": 3031.156494140625
            },
            {
              "x": 2918.2255859375,
              "y": 369.9077453613281,
              "z": 3010.122314453125
            },
            {
              "x": 2921.3017578125,
              "y": 369.9077453613281,
              "z": 2996.747802734375
            },
            {
              "x": 2949.692626953125,
              "y": 369.9077453613281,
              "z": 3000.42822265625
            }
          ]
        }
      ],
      "limitShapes": [
        {
          "pos": {
            "x": 2449.08935546875,
            "y": 340.25616455078125,
            "z": 3600.490234375
          },
          "rot": {
            "y": 346.649658203125
          },
          "shape": {
            "$type": "LCFGLDCOCOH",
            "useHeight": true,
            "height": 100.0,
            "centerType": "Center",
            "width": 50.0,
            "length": 300.0
          }
        },
        {
          "pos": {
            "x": 2392.3740234375,
            "y": 351.2560119628906,
            "z": 3660.620849609375
          },
          "rot": {
            "y": 346.6496887207031
          },
          "shape": {
            "$type": "LCFGLDCOCOH",
            "useHeight": true,
            "height": 50.0,
            "centerType": "Center",
            "width": 50.0,
            "length": 100.0
          }
        },
        {
          "pos": {
            "x": 2414.5615234375,
            "y": 381.2322998046875,
            "z": 3595.64599609375
          },
          "rot": {
            "y": 346.649658203125
          },
          "shape": {
            "$type": "LCFGLDCOCOH",
            "useHeight": true,
            "height": 50.0,
            "centerType": "Center",
            "width": 50.0,
            "length": 200.0
          }
        },
        {
          "pos": {
            "x": 2398.163818359375,
            "y": 382.2186279296875,
            "z": 3529.804443359375
          },
          "rot": {
            "y": 346.6496887207031
          },
          "shape": {
            "$type": "LCFGLDCOCOH",
            "useHeight": true,
            "height": 50.0,
            "centerType": "Center",
            "width": 100.0,
            "length": 100.0
          }
        },
        {
          "pos": {
            "x": 2368.2080078125,
            "y": 414.0,
            "z": 3563.370361328125
          },
          "rot": {
            "y": 346.6496887207031
          },
          "shape": {
            "$type": "LCFGLDCOCOH",
            "useHeight": true,
            "height": 50.0,
            "centerType": "Center",
            "width": 150.0,
            "length": 550.0
          }
        },
        {
          "pos": {
            "x": 2549.892578125,
            "y": 338.9837646484375,
            "z": 3519.715087890625
          },
          "rot": {
            "y": 18.070404052734375
          },
          "shape": {
            "$type": "LCFGLDCOCOH",
            "useHeight": true,
            "height": 100.0,
            "centerType": "Center",
            "width": 200.0,
            "length": 100.0
          }
        },
        {
          "pos": {
            "x": 2609.763916015625,
            "y": 319.0,
            "z": 3593.843505859375
          },
          "rot": {
            "y": 18.07040023803711
          },
          "shape": {
            "$type": "LCFGLDCOCOH",
            "useHeight": true,
            "height": 240.0,
            "centerType": "Center",
            "width": 100.0,
            "length": 100.0
          }
        },
        {
          "pos": {
            "x": 2496.420654296875,
            "y": 339.0,
            "z": 3558.078369140625
          },
          "rot": {
            "y": 346.6496887207031
          },
          "shape": {
            "$type": "LCFGLDCOCOH",
            "useHeight": true,
            "height": 200.0,
            "centerType": "Center",
            "width": 100.0,
            "length": 600.0
          }
        },
        {
          "pos": {
            "x": 2611.036865234375,
            "y": 389.0,
            "z": 3491.38818359375
          },
          "rot": {
            "y": 346.6496887207031
          },
          "shape": {
            "$type": "LCFGLDCOCOH",
            "useHeight": true,
            "height": 100.0,
            "centerType": "Center",
            "width": 100.0,
            "length": 200.0
          }
        },
        {
          "pos": {
            "x": 2559.140380859375,
            "y": 319.0,
            "z": 3700.630859375
          },
          "rot": {
            "y": 346.6496887207031
          },
          "shape": {
            "$type": "LCFGLDCOCOH",
            "useHeight": true,
            "height": 240.0,
            "centerType": "Center",
            "width": 100.0,
            "length": 300.0
          }
        },
        {
          "pos": {
            "x": 2759.712158203125,
            "y": 319.0,
            "z": 3703.1748046875
          },
          "rot": {
            "y": 346.6496887207031
          },
          "shape": {
            "$type": "LCFGLDCOCOH",
            "useHeight": true,
            "height": 240.0,
            "centerType": "Center",
            "width": 320.0,
            "length": 550.0
          }
        },
        {
          "pos": {
            "x": 2994.097900390625,
            "y": 414.0,
            "z": 3486.894775390625
          },
          "rot": {
            "y": 23.36290168762207
          },
          "shape": {
            "$type": "LCFGLDCOCOH",
            "useHeight": true,
            "height": 50.0,
            "centerType": "Center",
            "width": 150.0,
            "length": 120.0
          }
        },
        {
          "pos": {
            "x": 2954.305908203125,
            "y": 425.0,
            "z": 3781.786865234375
          },
          "rot": {
            "y": 346.6496887207031
          },
          "shape": {
            "$type": "LCFGLDCOCOH",
            "useHeight": true,
            "height": 28.0,
            "centerType": "Center",
            "width": 100.0,
            "length": 300.0
          }
        },
        {
          "pos": {
            "x": 2377.165283203125,
            "y": 384.29669189453125,
            "z": 3568.865966796875
          },
          "rot": {
            "y": 346.6496887207031
          },
          "shape": {
            "$type": "LCFGLDCOCOH",
            "useHeight": true,
            "height": 30.0,
            "centerType": "Center",
            "width": 50.0,
            "length": 300.0
          }
        },
        {
          "pos": {
            "x": 2429.881591796875,
            "y": 354.5093078613281,
            "z": 3547.63916015625
          },
          "rot": {
            "y": 346.6496887207031
          },
          "shape": {
            "$type": "LCFGLDCOCOH",
            "useHeight": true,
            "height": 10.0,
            "centerType": "Center",
            "width": 30.0,
            "length": 80.0
          }
        },
        {
          "pos": {
            "x": 2429.881591796875,
            "y": 347.0104064941406,
            "z": 3547.63916015625
          },
          "rot": {
            "y": 346.6496887207031
          },
          "shape": {
            "$type": "LCFGLDCOCOH",
            "useHeight": true,
            "height": 10.0,
            "centerType": "Center",
            "width": 20.0,
            "length": 60.0
          }
        }
      ]
    },
    {
      "HAFIBJMBFAE": 3340109,
      "limitShapes": [
        {
          "pos": {
            "x": 2654.246337890625,
            "y": 252.8585205078125,
            "z": 3640.847412109375
          },
          "shape": {
            "$type": "LCFGLDCOCOH",
            "useHeight": true,
            "height": 54.56769561767578,
            "centerType": "Center",
            "width": 40.19545364379883,
            "length": 46.70328140258789
          }
        }
      ]
    }
  ],
  "maxArea": {
    "x": 5044.22265625,
    "y": 440.09881591796875,
    "z": 5299.9638671875
  }
}