{
  "NFHJKDMMEMF": 33701,
  "KIMNCBFBKIN": [
    {
      "HAFIBJMBFAE": 3370101,
      "limitShapes": [
        {
          "pos": {
            "x": 4417.3759765625,
            "y": 527.91015625,
            "z": 3704.597900390625
          },
          "rot": {
            "y": 3.466327428817749
          },
          "shape": {
            "$type": "LCFGLDCOCOH",
            "useHeight": true,
            "height": 22.19968605041504,
            "centerType": "Center",
            "width": 86.31429290771484,
            "length": 162.23329162597656
          }
        },
        {
          "pos": {
            "x": 4399.2578125,
            "y": 500.06854248046875,
            "z": 3636.199462890625
          },
          "shape": {
            "$type": "EMOKHIGKKBE",
            "useHeight": true,
            "height": 50.76498031616211,
            "radius": 18.36898422241211
          }
        }
      ]
    },
    {
      "HAFIBJMBFAE": 3370102,
      "regionPolygons": [
        {
          "minArea": {
            "x": 4281.6826171875,
            "y": 452.253662109375,
            "z": 3611.45703125
          },
          "maxArea": {
            "x": 4426.03515625,
            "y": 478.9699401855469,
            "z": 3673.894775390625
          },
          "roadPoints": [
            {
              "x": 4379.3564453125,
              "y": 452.253662109375,
              "z": 3673.64990234375
            },
            {
              "x": 4403.54052734375,
              "y": 452.253662109375,
              "z": 3664.392822265625
            },
            {
              "x": 4421.24853515625,
              "y": 452.253662109375,
              "z": 3657.683349609375
            },
            {
              "x": 4426.03515625,
              "y": 452.253662109375,
              "z": 3636.13134765625
            },
            {
              "x": 4411.052734375,
              "y": 452.253662109375,
              "z": 3614.843505859375
            },
            {
              "x": 4353.6044921875,
              "y": 452.253662109375,
              "z": 3611.45703125
            },
            {
              "x": 4281.6826171875,
              "y": 452.253662109375,
              "z": 3644.408447265625
            },
            {
              "x": 4299.966796875,
              "y": 452.253662109375,
              "z": 3673.894775390625
            },
            {
              "x": 4306.884765625,
              "y": 452.253662109375,
              "z": 3668.569091796875
            },
            {
              "x": 4325.134765625,
              "y": 452.253662109375,
              "z": 3658.52685546875
            },
            {
              "x": 4358.94189453125,
              "y": 452.253662109375,
              "z": 3673.677734375
            }
          ]
        }
      ]
    },
    {
      "HAFIBJMBFAE": 3370103,
      "limitShapes": [
        {
          "pos": {
            "x": 4363.6025390625,
            "y": 454.3339538574219,
            "z": 3751.581787109375
          },
          "rot": {
            "y": 28.714845657348633
          },
          "shape": {
            "$type": "LCFGLDCOCOH",
            "useHeight": true,
            "height": 108.40975952148438,
            "centerType": "Center",
            "width": 154.30918884277344,
            "length": 202.3633270263672
          }
        },
        {
          "pos": {
            "x": 4368.55322265625,
            "y": 391.3173828125,
            "z": 3747.509765625
          },
          "shape": {
            "$type": "EMOKHIGKKBE",
            "useHeight": true,
            "height": 18.42967987060547,
            "radius": 12.623133659362793
          }
        }
      ]
    },
    {
      "HAFIBJMBFAE": 3370104,
      "limitShapes": [
        {
          "pos": {
            "x": 4376.03466796875,
            "y": 341.45361328125,
            "z": 3850.790283203125
          },
          "shape": {
            "$type": "LCFGLDCOCOH",
            "useHeight": true,
            "height": 131.35118103027344,
            "centerType": "Center",
            "width": 247.78355407714844,
            "length": 338.9150390625
          }
        },
        {
          "pos": {
            "x": 4479.15673828125,
            "y": 408.8702087402344,
            "z": 3979.65576171875
          },
          "shape": {
            "$type": "EMOKHIGKKBE",
            "useHeight": true,
            "height": 36.569252014160156,
            "radius": 11.635798454284668
          }
        }
      ]
    }
  ],
  "minArea": {
    "x": 4247.3232421875,
    "y": 275.77801513671875,
    "z": 3611.45703125
  },
  "maxArea": {
    "x": 4499.9267578125,
    "y": 539.010009765625,
    "z": 4020.248046875
  }
}