{
  "NFHJKDMMEMF": 33803,
  "KIMNCBFBKIN": [
    {
      "HAFIBJMBFAE": 3380301,
      "limitShapes": [
        {
          "pos": {
            "x": 3830.044921875,
            "y": 461.68206787109375,
            "z": 3061.404296875
          },
          "shape": {
            "$type": "LCFGLDCOCOH",
            "useHeight": true,
            "height": 18.910018920898438,
            "centerType": "Center",
            "width": 13.461052894592285,
            "length": 19.09719467163086
          }
        },
        {
          "pos": {
            "x": 3830.431640625,
            "y": 453.0826416015625,
            "z": 3042.82568359375
          },
          "shape": {
            "$type": "LCFGLDCOCOH",
            "useHeight": true,
            "height": 21.82476806640625,
            "centerType": "Center",
            "width": 26.50103187561035,
            "length": 20.086069107055664
          }
        },
        {
          "pos": {
            "x": 3793.16259765625,
            "y": 444.5859375,
            "z": 2976.146484375
          },
          "rot": {
            "y": 28.385210037231445
          },
          "shape": {
            "$type": "LCFGLDCOCOH",
            "useHeight": true,
            "height": 33.420082092285156,
            "centerType": "Center",
            "width": 67.56584167480469,
            "length": 141.41587829589844
          }
        },
        {
          "pos": {
            "x": 3765.8564453125,
            "y": 442.4163818359375,
            "z": 2909.8544921875
          },
          "rot": {
            "y": 314.61126708984375
          },
          "shape": {
            "$type": "LCFGLDCOCOH",
            "useHeight": true,
            "height": 13.65916633605957,
            "centerType": "Center",
            "width": 20.171838760375977,
            "length": 48.84035110473633
          }
        },
        {
          "pos": {
            "x": 3786.35107421875,
            "y": 444.9570617675781,
            "z": 2870.310546875
          },
          "rot": {
            "y": 1.3576802015304565
          },
          "shape": {
            "$type": "LCFGLDCOCOH",
            "useHeight": true,
            "height": 26.44349479675293,
            "centerType": "Center",
            "width": 39.9324951171875,
            "length": 57.5665397644043
          }
        }
      ]
    }
  ],
  "minArea": {
    "x": 3729.82666015625,
    "y": 427.8758544921875,
    "z": 2841.06201171875
  },
  "maxArea": {
    "x": 3856.49853515625,
    "y": 471.1370849609375,
    "z": 3070.95263671875
  }
}