{
  "NFHJKDMMEMF": 33904,
  "KIMNCBFBKIN": [
    {
      "HAFIBJMBFAE": 3390401,
      "regionPolygons": [
        {
          "minArea": {
            "x": 2371.11669921875,
            "y": 289.2239074707031,
            "z": 3508.261962890625
          },
          "maxArea": {
            "x": 2427.40869140625,
            "y": 344.5981750488281,
            "z": 3606.319091796875
          },
          "roadPoints": [
            {
              "x": 2424.114501953125,
              "y": 289.2239074707031,
              "z": 3606.319091796875
            },
            {
              "x": 2427.40869140625,
              "y": 289.2239074707031,
              "z": 3588.77490234375
            },
            {
              "x": 2424.18505859375,
              "y": 289.2239074707031,
              "z": 3508.261962890625
            },
            {
              "x": 2387.942626953125,
              "y": 289.2239074707031,
              "z": 3520.91357421875
            },
            {
              "x": 2371.11669921875,
              "y": 289.2239074707031,
              "z": 3556.3740234375
            },
            {
              "x": 2393.354248046875,
              "y": 289.2239074707031,
              "z": 3602.673583984375
            }
          ]
        },
        {
          "minArea": {
            "x": 2388.514892578125,
            "y": 342.31378173828125,
            "z": 3580.185791015625
          },
          "maxArea": {
            "x": 2427.744384765625,
            "y": 356.64154052734375,
            "z": 3608.36669921875
          },
          "roadPoints": [
            {
              "x": 2422.25244140625,
              "y": 342.31378173828125,
              "z": 3608.36669921875
            },
            {
              "x": 2388.514892578125,
              "y": 342.31378173828125,
              "z": 3603.39794921875
            },
            {
              "x": 2416.136962890625,
              "y": 342.31378173828125,
              "z": 3580.185791015625
            },
            {
              "x": 2427.744384765625,
              "y": 342.31378173828125,
              "z": 3581.87646484375
            }
          ]
        },
        {
          "minArea": {
            "x": 2384.23388671875,
            "y": 334.4068298339844,
            "z": 3544.923095703125
          },
          "maxArea": {
            "x": 2417.16845703125,
            "y": 350.3678283691406,
            "z": 3601.09375
          },
          "roadPoints": [
            {
              "x": 2394.540771484375,
              "y": 334.4068298339844,
              "z": 3601.09375
            },
            {
              "x": 2384.23388671875,
              "y": 334.4068298339844,
              "z": 3547.3662109375
            },
            {
              "x": 2402.7880859375,
              "y": 334.4068298339844,
              "z": 3544.923095703125
            },
            {
              "x": 2405.111083984375,
              "y": 334.4068298339844,
              "z": 3563.103515625
            },
            {
              "x": 2411.41064453125,
              "y": 334.4068298339844,
              "z": 3567.91357421875
            },
            {
              "x": 2417.16845703125,
              "y": 334.4068298339844,
              "z": 3581.55517578125
            }
          ]
        }
      ]
    },
    {
      "HAFIBJMBFAE": 3390402,
      "limitShapes": [
        {
          "pos": {
            "x": 2379.169921875,
            "y": 316.8135986328125,
            "z": 3405.959228515625
          },
          "rot": {
            "y": 342.6578674316406
          },
          "shape": {
            "$type": "LCFGLDCOCOH",
            "useHeight": true,
            "height": 80.0,
            "centerType": "Center",
            "width": 200.0,
            "length": 150.0
          }
        },
        {
          "pos": {
            "x": 2403.60986328125,
            "y": 334.17999267578125,
            "z": 3489.315185546875
          },
          "rot": {
            "y": 24.29891586303711
          },
          "shape": {
            "$type": "LCFGLDCOCOH",
            "useHeight": true,
            "height": 50.0,
            "centerType": "Center",
            "width": 50.0,
            "length": 50.0
          }
        }
      ]
    }
  ],
  "minArea": {
    "x": 2261.35986328125,
    "y": 276.8135986328125,
    "z": 3304.56103515625
  },
  "maxArea": {
    "x": 2496.97998046875,
    "y": 359.17999267578125,
    "z": 3608.36669921875
  }
}