{
  "NFHJKDMMEMF": 34101,
  "KIMNCBFBKIN": [
    {
      "HAFIBJMBFAE": 3410101,
      "regionPolygons": [
        {
          "minArea": {
            "x": 1518.0169677734375,
            "y": 6.936603546142578,
            "z": 2866.236083984375
          },
          "maxArea": {
            "x": 1593.13916015625,
            "y": 53.670475006103516,
            "z": 2964.623046875
          },
          "roadPoints": [
            {
              "x": 1581.5712890625,
              "y": 6.936603546142578,
              "z": 2872.431396484375
            },
            {
              "x": 1568.1002197265625,
              "y": 6.936603546142578,
              "z": 2866.236083984375
            },
            {
              "x": 1551.4794921875,
              "y": 6.936603546142578,
              "z": 2889.080322265625
            },
            {
              "x": 1551.870849609375,
              "y": 6.936603546142578,
              "z": 2906.749267578125
            },
            {
              "x": 1518.0169677734375,
              "y": 6.936603546142578,
              "z": 2953.977783203125
            },
            {
              "x": 1530.806884765625,
              "y": 6.936603546142578,
              "z": 2964.623046875
            },
            {
              "x": 1575.7674560546875,
              "y": 6.936603546142578,
              "z": 2930.999755859375
            },
            {
              "x": 1593.13916015625,
              "y": 6.936603546142578,
              "z": 2907.96533203125
            }
          ]
        }
      ]
    },
    {
      "HAFIBJMBFAE": 3410102,
      "regionPolygons": [
        {
          "minArea": {
            "x": 1555.3638916015625,
            "y": -6.112749099731445,
            "z": 2804.1884765625
          },
          "maxArea": {
            "x": 1599.97314453125,
            "y": 23.970565795898438,
            "z": 2876.028564453125
          },
          "roadPoints": [
            {
              "x": 1559.5758056640625,
              "y": -6.112749099731445,
              "z": 2864.057861328125
            },
            {
              "x": 1589.101318359375,
              "y": -6.112749099731445,
              "z": 2876.028564453125
            },
            {
              "x": 1593.40087890625,
              "y": -6.112749099731445,
              "z": 2844.063720703125
            },
            {
              "x": 1599.97314453125,
              "y": -6.112749099731445,
              "z": 2816.076904296875
            },
            {
              "x": 1580.6453857421875,
              "y": -6.112749099731445,
              "z": 2808.6083984375
            },
            {
              "x": 1565.4600830078125,
              "y": -6.112749099731445,
              "z": 2804.1884765625
            },
            {
              "x": 1555.3638916015625,
              "y": -6.112749099731445,
              "z": 2824.417724609375
            },
            {
              "x": 1566.264892578125,
              "y": -6.112749099731445,
              "z": 2831.166748046875
            },
            {
              "x": 1571.6768798828125,
              "y": -6.112749099731445,
              "z": 2842.506591796875
            },
            {
              "x": 1570.29541015625,
              "y": -6.112749099731445,
              "z": 2851.761962890625
            }
          ]
        }
      ]
    },
    {
      "HAFIBJMBFAE": 3410103,
      "regionPolygons": [
        {
          "minArea": {
            "x": 1537.66650390625,
            "y": -32.04800033569336,
            "z": 2798.737060546875
          },
          "maxArea": {
            "x": 1572.153076171875,
            "y": 18.429174423217773,
            "z": 2826.0478515625
          },
          "roadPoints": [
            {
              "x": 1572.153076171875,
              "y": -32.04800033569336,
              "z": 2817.734619140625
            },
            {
              "x": 1567.3834228515625,
              "y": -32.04800033569336,
              "z": 2804.1796875
            },
            {
              "x": 1560.9580078125,
              "y": -32.04800033569336,
              "z": 2799.6728515625
            },
            {
              "x": 1553.8912353515625,
              "y": -32.04800033569336,
              "z": 2798.737060546875
            },
            {
              "x": 1537.66650390625,
              "y": -32.04800033569336,
              "z": 2813.295166015625
            },
            {
              "x": 1551.9427490234375,
              "y": -32.04800033569336,
              "z": 2824.76171875
            },
            {
              "x": 1563.7374267578125,
              "y": -32.04800033569336,
              "z": 2826.0478515625
            }
          ]
        },
        {
          "minArea": {
            "x": 1526.318115234375,
            "y": -28.998456954956055,
            "z": 2781.22607421875
          },
          "maxArea": {
            "x": 1557.9302978515625,
            "y": -11.566215515136719,
            "z": 2817.1171875
          },
          "roadPoints": [
            {
              "x": 1538.767333984375,
              "y": -28.998456954956055,
              "z": 2817.1171875
            },
            {
              "x": 1528.3507080078125,
              "y": -28.998456954956055,
              "z": 2800.8349609375
            },
            {
              "x": 1526.318115234375,
              "y": -28.998456954956055,
              "z": 2786.722900390625
            },
            {
              "x": 1535.095703125,
              "y": -28.998456954956055,
              "z": 2781.22607421875
            },
            {
              "x": 1543.77587890625,
              "y": -28.998456954956055,
              "z": 2794.54833984375
            },
            {
              "x": 1557.9302978515625,
              "y": -28.998456954956055,
              "z": 2797.55615234375
            }
          ]
        },
        {
          "minArea": {
            "x": 1421.2681884765625,
            "y": -54.099998474121094,
            "z": 2595.57861328125
          },
          "maxArea": {
            "x": 1538.5037841796875,
            "y": 22.885181427001953,
            "z": 2794.254150390625
          },
          "roadPoints": [
            {
              "x": 1528.049072265625,
              "y": -54.099998474121094,
              "z": 2786.158935546875
            },
            {
              "x": 1504.98388671875,
              "y": -54.099998474121094,
              "z": 2794.254150390625
            },
            {
              "x": 1475.835205078125,
              "y": -54.099998474121094,
              "z": 2791.09130859375
            },
            {
              "x": 1453.677978515625,
              "y": -54.099998474121094,
              "z": 2763.963134765625
            },
            {
              "x": 1440.7772216796875,
              "y": -54.099998474121094,
              "z": 2721.751953125
            },
            {
              "x": 1421.2681884765625,
              "y": -54.099998474121094,
              "z": 2641.8447265625
            },
            {
              "x": 1484.8717041015625,
              "y": -54.099998474121094,
              "z": 2595.57861328125
            },
            {
              "x": 1533.0255126953125,
              "y": -54.099998474121094,
              "z": 2669.079345703125
            },
            {
              "x": 1536.3646240234375,
              "y": -54.099998474121094,
              "z": 2728.243408203125
            },
            {
              "x": 1538.5037841796875,
              "y": -54.099998474121094,
              "z": 2765.743896484375
            },
            {
              "x": 1534.34912109375,
              "y": -54.099998474121094,
              "z": 2782.922119140625
            }
          ]
        }
      ]
    }
  ],
  "minArea": {
    "x": 1421.268310546875,
    "y": -54.099998474121094,
    "z": 2595.57861328125
  },
  "maxArea": {
    "x": 1599.97314453125,
    "y": 53.67047882080078,
    "z": 2964.623046875
  }
}