{
  "NFHJKDMMEMF": 34401,
  "KIMNCBFBKIN": [
    {
      "HAFIBJMBFAE": 3440101,
      "limitShapes": [
        {
          "pos": {
            "x": -1852.8355712890625,
            "y": 71.24813842773438,
            "z": 9053.744140625
          },
          "rot": {
            "y": 20.496761322021484
          },
          "shape": {
            "$type": "LCFGLDCOCOH",
            "useHeight": true,
            "height": 10.235119819641113,
            "centerType": "Center",
            "width": 16.7439022064209,
            "length": 9.835433006286621
          }
        },
        {
          "pos": {
            "x": -1851.9495849609375,
            "y": 71.24813842773438,
            "z": 9061.2626953125
          },
          "rot": {
            "y": 1.9481443166732788
          },
          "shape": {
            "$type": "LCFGLDCOCOH",
            "useHeight": true,
            "height": 10.235116958618164,
            "centerType": "Center",
            "width": 15.193571090698242,
            "length": 18.04863929748535
          }
        },
        {
          "pos": {
            "x": -1848.7371826171875,
            "y": 71.24813842773438,
            "z": 9073.99609375
          },
          "rot": {
            "y": 349.7401428222656
          },
          "shape": {
            "$type": "LCFGLDCOCOH",
            "useHeight": true,
            "height": 10.235119819641113,
            "centerType": "Center",
            "width": 23.09217071533203,
            "length": 30.052837371826172
          }
        },
        {
          "pos": {
            "x": -1848.56396484375,
            "y": 71.24813842773438,
            "z": 9091.083984375
          },
          "rot": {
            "y": 331.9315490722656
          },
          "shape": {
            "$type": "LCFGLDCOCOH",
            "useHeight": true,
            "height": 10.235119819641113,
            "centerType": "Center",
            "width": 29.833341598510742,
            "length": 9.006426811218262
          }
        },
        {
          "pos": {
            "x": -1852.6688232421875,
            "y": 71.24813842773438,
            "z": 9097.6923828125
          },
          "rot": {
            "y": 328.7135009765625
          },
          "shape": {
            "$type": "LCFGLDCOCOH",
            "useHeight": true,
            "height": 10.235119819641113,
            "centerType": "Center",
            "width": 31.11310386657715,
            "length": 14.284525871276855
          }
        },
        {
          "pos": {
            "x": -1862.6505126953125,
            "y": 71.24813842773438,
            "z": 9110.345703125
          },
          "rot": {
            "x": -7.539337332218565e-08,
            "y": 314.9466552734375,
            "z": 7.553389025360957e-08
          },
          "shape": {
            "$type": "PAPCPHMEHFC",
            "useHeight": true,
            "height": 10.235119819641113,
            "width": 31.043672561645508,
            "length": 29.369140625
          }
        },
        {
          "pos": {
            "x": -1883.189208984375,
            "y": 71.24813842773438,
            "z": 9123.3486328125
          },
          "rot": {
            "y": 300.854736328125
          },
          "shape": {
            "$type": "LCFGLDCOCOH",
            "useHeight": true,
            "height": 10.235119819641113,
            "centerType": "Center",
            "width": 32.06752395629883,
            "length": 28.13880157470703
          }
        },
        {
          "pos": {
            "x": -1911.753173828125,
            "y": 60.90232849121094,
            "z": 9011.4208984375
          },
          "rot": {
            "y": 355.8420104980469
          },
          "shape": {
            "$type": "LCFGLDCOCOH",
            "useHeight": true,
            "height": 20.42101287841797,
            "centerType": "Center",
            "width": 12.523594856262207,
            "length": 14.152975082397461
          }
        },
        {
          "pos": {
            "x": -1918.314453125,
            "y": 60.90232849121094,
            "z": 9004.9697265625
          },
          "rot": {
            "y": 10.425359725952148
          },
          "shape": {
            "$type": "LCFGLDCOCOH",
            "useHeight": true,
            "height": 23.639820098876953,
            "centerType": "Center",
            "width": 17.97661018371582,
            "length": 0.5345509648323059
          }
        },
        {
          "pos": {
            "x": -1934.9490966796875,
            "y": 60.90232849121094,
            "z": 9021.1201171875
          },
          "rot": {
            "y": 27.303966522216797
          },
          "shape": {
            "$type": "LCFGLDCOCOH",
            "useHeight": true,
            "height": 23.639820098876953,
            "centerType": "Center",
            "width": 23.253093719482422,
            "length": 14.106853485107422
          }
        },
        {
          "pos": {
            "x": -1936.317138671875,
            "y": 51.09221649169922,
            "z": 9035.5009765625
          },
          "rot": {
            "y": 321.0016784667969
          },
          "shape": {
            "$type": "LCFGLDCOCOH",
            "useHeight": true,
            "height": 23.639820098876953,
            "centerType": "Center",
            "width": 31.126117706298828,
            "length": 31.287195205688477
          }
        },
        {
          "pos": {
            "x": -1917.7933349609375,
            "y": 51.092220306396484,
            "z": 9028.400390625
          },
          "rot": {
            "y": 20.520524978637695
          },
          "shape": {
            "$type": "LCFGLDCOCOH",
            "useHeight": true,
            "height": 23.639820098876953,
            "centerType": "Center",
            "width": 18.503690719604492,
            "length": 27.037921905517578
          }
        },
        {
          "pos": {
            "x": -1910.5579833984375,
            "y": 51.092220306396484,
            "z": 9020.9248046875
          },
          "rot": {
            "y": 4.053433418273926
          },
          "shape": {
            "$type": "LCFGLDCOCOH",
            "useHeight": true,
            "height": 23.639820098876953,
            "centerType": "Center",
            "width": 8.40394115447998,
            "length": 35.855106353759766
          }
        },
        {
          "pos": {
            "x": -1947.0723876953125,
            "y": 66.5675048828125,
            "z": 9032.2353515625
          },
          "rot": {
            "y": 316.66717529296875
          },
          "shape": {
            "$type": "LCFGLDCOCOH",
            "useHeight": true,
            "height": 12.277372360229492,
            "centerType": "Center",
            "width": 13.040690422058105,
            "length": 18.49930191040039
          }
        },
        {
          "pos": {
            "x": -1890.469970703125,
            "y": 65.746826171875,
            "z": 9114.1552734375
          },
          "rot": {
            "y": 28.020952224731445
          },
          "shape": {
            "$type": "LCFGLDCOCOH",
            "useHeight": true,
            "height": 8.836498260498047,
            "centerType": "Center",
            "width": 22.27328109741211,
            "length": 19.01268768310547
          }
        },
        {
          "pos": {
            "x": -1836.2774658203125,
            "y": 69.99712371826172,
            "z": 9104.8193359375
          },
          "rot": {
            "y": 328.9848327636719
          },
          "shape": {
            "$type": "LCFGLDCOCOH",
            "useHeight": true,
            "height": 11.962127685546875,
            "centerType": "Center",
            "width": 20.660295486450195,
            "length": 26.099119186401367
          }
        },
        {
          "pos": {
            "x": -1919.326171875,
            "y": 60.62635803222656,
            "z": 9012.8125
          },
          "rot": {
            "y": 11.474812507629395
          },
          "shape": {
            "$type": "LCFGLDCOCOH",
            "useHeight": true,
            "height": 24.110733032226562,
            "centerType": "Center",
            "width": 18.827728271484375,
            "length": 16.309099197387695
          }
        }
      ]
    },
    {
      "HAFIBJMBFAE": 3440102,
      "limitShapes": [
        {
          "pos": {
            "x": -1879.479736328125,
            "y": 53.475460052490234,
            "z": 9107.173828125
          },
          "rot": {
            "y": 34.53095626831055
          },
          "shape": {
            "$type": "LCFGLDCOCOH",
            "useHeight": true,
            "height": 19.064125061035156,
            "centerType": "Center",
            "width": 45.51942443847656,
            "length": 40.50665283203125
          }
        },
        {
          "pos": {
            "x": -1868.1558837890625,
            "y": 53.475460052490234,
            "z": 9070.06640625
          },
          "rot": {
            "y": 345.7957763671875
          },
          "shape": {
            "$type": "LCFGLDCOCOH",
            "useHeight": true,
            "height": 19.064130783081055,
            "centerType": "Center",
            "width": 23.9786319732666,
            "length": 43.99999237060547
          }
        },
        {
          "pos": {
            "x": -1874.723388671875,
            "y": 53.475460052490234,
            "z": 9055.2919921875
          },
          "rot": {
            "y": 20.339496612548828
          },
          "shape": {
            "$type": "LCFGLDCOCOH",
            "useHeight": true,
            "height": 19.064130783081055,
            "centerType": "Center",
            "width": 13.398988723754883,
            "length": 15.494729995727539
          }
        },
        {
          "pos": {
            "x": -1896.4132080078125,
            "y": 53.4754638671875,
            "z": 9095.5361328125
          },
          "rot": {
            "x": -1.987846699118444e-16,
            "y": 19.622743606567383,
            "z": -1.3340528681737851e-08
          },
          "shape": {
            "$type": "PAPCPHMEHFC",
            "useHeight": true,
            "height": 19.064130783081055,
            "width": 29.06590461730957,
            "length": 8.074186325073242
          }
        },
        {
          "pos": {
            "x": -1881.678466796875,
            "y": 53.475460052490234,
            "z": 9086.3671875
          },
          "rot": {
            "x": 359.1921691894531,
            "y": 316.329833984375,
            "z": 359.6589660644531
          },
          "shape": {
            "$type": "PAPCPHMEHFC",
            "useHeight": true,
            "height": 19.064130783081055,
            "width": 9.87153148651123,
            "length": 19.384450912475586
          }
        }
      ]
    }
  ],
  "minArea": {
    "x": -1958.256591796875,
    "y": 39.272308349609375,
    "z": 9002.744140625
  },
  "maxArea": {
    "x": -1820.7001953125,
    "y": 76.3656997680664,
    "z": 9144.330078125
  }
}