{
  "luaDataPath": "",
  "startBlackKeepTime": 0.5,
  "entityBan": "",
  "disableNpcLod": true,
  "isAutoBanNpc": true,
  "isBanWidgetPet": true,
  "protectNpcMobileLod": true,
  "startFade": {
    "startFadeInDuration": 0.5,
    "startFadeOutDuration": 0.5
  },
  "endFade": {
    "startFadeOutDuration": 0.0
  },
  "actors": [
    {
      "alias": "Avatar",
      "visible": true,
      "bornPointName": "Q13014Area6Talk3Player",
      "relativePosType": "AVATAR_NEW",
      "relativePosNpcAlias": "",
      "_bindMovingTargetKey": ""
    },
    {
      "configID": 12847,
      "alias": "12847",
      "visible": true,
      "bornPointName": "Q13014Area6Haydar",
      "relativePosType": "AVATAR_NEW",
      "relativePosNpcAlias": "",
      "_bindMovingTargetKey": ""
    },
    {
      "configID": 12846,
      "alias": "12846",
      "visible": true,
      "bornPointName": "Q13014Area6Maynar",
      "relativePosType": "AVATAR_NEW",
      "relativePosNpcAlias": "",
      "_bindMovingTargetKey": ""
    },
    {
      "configID": 12840,
      "alias": "12840",
      "visible": true,
      "bornPointName": "Q13014Area6Ilman",
      "relativePosType": "AVATAR_NEW",
      "relativePosNpcAlias": "",
      "_bindMovingTargetKey": ""
    },
    {
      "configID": 1005,
      "alias": "1005",
      "visible": true,
      "bornPointName": "Q13014Area6Talk3Paimon",
      "removeActorType": "REMOVE_WITH_DISAPPEAR",
      "relativePosType": "AVATAR_NEW",
      "relativePosNpcAlias": "",
      "_bindMovingTargetKey": ""
    },
    {
      "configID": 1056,
      "alias": "1056",
      "visible": true,
      "bornPointName": "Q13014Area6Talk3Nahida",
      "removeActorType": "REMOVE",
      "relativePosType": "AVATAR_NEW",
      "relativePosNpcAlias": "",
      "_bindMovingTargetKey": ""
    }
  ],
  "group": [
    [
      {
        "$type": "MoleMole.Config.ConfigTimeProtectAction",
        "type": "TIME_PROTECT",
        "duration": 0.5,
        "actionId": 104
      },
      {
        "$type": "MoleMole.Config.ConfigBlackScreenAction",
        "type": "BLACK_SCREEN",
        "duration": 0.5,
        "actionId": 120,
        "blackScreenType": "KEEP_BLACK",
        "durationKeepBlack": 0.5,
        "inteePos": "",
        "textMapID": "",
        "useTextFade": true
      },
      {
        "$type": "LJLMDHDCAMK",
        "type": "LOOK_AT",
        "aliasList": [
          "Avatar"
        ],
        "actionId": 128,
        "headTurnTime": 0.5,
        "targetNpcAlias": "",
        "openBackProtect": true,
        "targetNpcLookAtPoint": "",
        "OAFJBHJHLJG": ""
      },
      {
        "$type": "MoleMole.Config.ConfigTeleportToAction",
        "type": "TELEPORT_TO",
        "aliasList": [
          "Avatar"
        ],
        "actionId": 129,
        "position": {
          "x": -554.8170166015625,
          "y": 51.395999908447266,
          "z": 766.0880126953125
        },
        "forward": {
          "x": 5.0929999351501465,
          "z": -7.136000156402588
        },
        "openLongDisTeleport": true,
        "_posBindMovingTargetKey": "",
        "_forwardBindMovingTargetKey": ""
      },
      {
        "$type": "LJLMDHDCAMK",
        "type": "LOOK_AT",
        "aliasList": [
          "12847"
        ],
        "actionId": 131,
        "headTurnTime": 0.5,
        "targetNpcAlias": "",
        "openBackProtect": true,
        "targetNpcLookAtPoint": "",
        "OAFJBHJHLJG": ""
      },
      {
        "$type": "MoleMole.Config.ConfigTeleportToAction",
        "type": "TELEPORT_TO",
        "aliasList": [
          "12847"
        ],
        "actionId": 144,
        "position": {
          "x": -544.52197265625,
          "y": 51.395999908447266,
          "z": 753.947998046875
        },
        "forward": {
          "x": -0.2290000021457672,
          "z": -2.062999963760376
        },
        "openLongDisTeleport": true,
        "_posBindMovingTargetKey": "",
        "_forwardBindMovingTargetKey": ""
      },
      {
        "$type": "LJLMDHDCAMK",
        "type": "LOOK_AT",
        "aliasList": [
          "12846"
        ],
        "actionId": 132,
        "enableHead": true,
        "headTurnTime": 0.5,
        "targetNpcAlias": "12847",
        "openBackProtect": true,
        "targetNpcLookAtPoint": "",
        "OAFJBHJHLJG": ""
      },
      {
        "$type": "MoleMole.Config.ConfigTeleportToAction",
        "type": "TELEPORT_TO",
        "aliasList": [
          "12846"
        ],
        "actionId": 133,
        "position": {
          "x": -547.593017578125,
          "y": 51.395999908447266,
          "z": 757.5390014648438
        },
        "forward": {
          "x": -0.36000001430511475,
          "z": -0.9330000281333923
        },
        "openLongDisTeleport": true,
        "_posBindMovingTargetKey": "",
        "_forwardBindMovingTargetKey": ""
      },
      {
        "$type": "LJLMDHDCAMK",
        "type": "LOOK_AT",
        "aliasList": [
          "12840"
        ],
        "actionId": 134,
        "enableHead": true,
        "headTurnTime": 0.5,
        "targetNpcAlias": "12847",
        "openBackProtect": true,
        "targetNpcLookAtPoint": "",
        "OAFJBHJHLJG": ""
      },
      {
        "$type": "MoleMole.Config.ConfigTeleportToAction",
        "type": "TELEPORT_TO",
        "aliasList": [
          "12840"
        ],
        "actionId": 135,
        "position": {
          "x": -548.1890258789062,
          "y": 51.395999908447266,
          "z": 758.1630249023438
        },
        "forward": {
          "x": 0.45100000500679016,
          "z": -0.8920000195503235
        },
        "openLongDisTeleport": true,
        "_posBindMovingTargetKey": "",
        "_forwardBindMovingTargetKey": ""
      },
      {
        "$type": "LJLMDHDCAMK",
        "type": "LOOK_AT",
        "aliasList": [
          "1005"
        ],
        "actionId": 136,
        "headTurnTime": 0.5,
        "targetNpcAlias": "",
        "openBackProtect": true,
        "targetNpcLookAtPoint": "",
        "OAFJBHJHLJG": ""
      },
      {
        "$type": "MoleMole.Config.ConfigTeleportToAction",
        "type": "TELEPORT_TO",
        "aliasList": [
          "1005"
        ],
        "actionId": 137,
        "position": {
          "x": -553.3280029296875,
          "y": 51.395999908447266,
          "z": 765.8179931640625
        },
        "forward": {
          "x": 3.174999952316284,
          "z": -5.289000034332275
        },
        "openLongDisTeleport": true,
        "_posBindMovingTargetKey": "",
        "_forwardBindMovingTargetKey": ""
      },
      {
        "$type": "LJLMDHDCAMK",
        "type": "LOOK_AT",
        "aliasList": [
          "1056"
        ],
        "actionId": 138,
        "headTurnTime": 0.5,
        "targetNpcAlias": "",
        "openBackProtect": true,
        "targetNpcLookAtPoint": "",
        "OAFJBHJHLJG": ""
      },
      {
        "$type": "MoleMole.Config.ConfigTeleportToAction",
        "type": "TELEPORT_TO",
        "aliasList": [
          "1056"
        ],
        "actionId": 140,
        "position": {
          "x": -555.2940063476562,
          "y": 51.395999908447266,
          "z": 764.0770263671875
        },
        "forward": {
          "x": 3.9210000038146973,
          "z": -4.870999813079834
        },
        "openLongDisTeleport": true,
        "_posBindMovingTargetKey": "",
        "_forwardBindMovingTargetKey": ""
      },
      {
        "$type": "MoleMole.Config.ConfigMoveToAction",
        "type": "MOVE_TO",
        "delayTime": 0.15800000727176666,
        "aliasList": [
          "12847"
        ],
        "actionId": 143,
        "moveType": "RUN",
        "routeList": [
          {
            "x": -544.9829711914062,
            "y": 51.395999908447266,
            "z": 750.5469970703125
          }
        ],
        "exactlyMove": true,
        "closeNavMesh": true,
        "_bindMovingTargetKey": ""
      }
    ],
    [
      {
        "$type": "MoleMole.Config.ConfigBlackScreenAction",
        "type": "BLACK_SCREEN",
        "duration": 0.5,
        "actionId": 121,
        "blackScreenType": "FROM_BLACK",
        "durationFromBlack": 0.5,
        "inteePos": "",
        "textMapID": "",
        "useTextFade": true
      },
      {
        "$type": "FJKIHHKJLMJ",
        "type": "CAMERA_MOVE",
        "duration": 0.5,
        "actionId": 154,
        "camPosOffset": {
          "x": -545.458984375,
          "y": 52.02899932861328,
          "z": 752.9089965820312
        },
        "camForwardTargetOffset": {
          "x": -545.56298828125,
          "y": 52.275001525878906,
          "z": 751.9450073242188
        },
        "lerpPattern": 6,
        "cameraBlendType": "EaseInOutCubic",
        "NJBNNOMLKCK": {},
        "needZAxisRotate": true,
        "openCameraDither": false,
        "targetNpcAlias": "",
        "closeTreeLeafDither": true,
        "KJOEFBPOIIH": "",
        "IICFKKEBIEC": "",
        "EGEHEJEBLBJ": ""
      },
      {
        "$type": "LJLMDHDCAMK",
        "type": "LOOK_AT",
        "aliasList": [
          "12846"
        ],
        "actionId": 227,
        "enableHead": true,
        "headTurnTime": 0.5,
        "targetNpcAlias": "12847",
        "openBackProtect": true,
        "targetNpcLookAtPoint": "",
        "OAFJBHJHLJG": ""
      },
      {
        "$type": "FJKIHHKJLMJ",
        "type": "CAMERA_MOVE",
        "delayTime": 0.10000000149011612,
        "duration": 10.192000389099121,
        "actionId": 127,
        "camPosOffset": {
          "x": -545.2689819335938,
          "y": 51.69900131225586,
          "z": 752.8040161132812
        },
        "camForwardTargetOffset": {
          "x": -545.3729858398438,
          "y": 51.94499969482422,
          "z": 751.8400268554688
        },
        "lerpPattern": 2,
        "cameraBlendType": "EaseOutQuad",
        "NJBNNOMLKCK": {},
        "needZAxisRotate": true,
        "openCameraDither": false,
        "targetNpcAlias": "",
        "closeTreeLeafDither": true,
        "KJOEFBPOIIH": "",
        "IICFKKEBIEC": "",
        "EGEHEJEBLBJ": ""
      },
      {
        "$type": "PKKMAMONGEO",
        "type": "DIALOG",
        "delayTime": 1.0,
        "aliasList": [
          "12847"
        ],
        "actionId": 107,
        "dialogID": 130144601,
        "protectTime": 0.5
      },
      {
        "$type": "CPJKOIHIPBE",
        "type": "EMO_SYNC",
        "delayTime": 1.0,
        "aliasList": [
          "12847"
        ],
        "actionId": 219,
        "dataPath": "Cs_Emo_Avatar_Simple_Common_Set/Cs_Emo_Avatar_Talk/Cs_Emo_Avatar_PersonalLine/Cs_Emo_Avatar_Nahida/Cs_Emo_130144601",
        "phonemePath": "",
        "emotionPath": "",
        "mateDataPath": "",
        "matePhonemePath": "",
        "mateEmotionPath": "",
        "dataPathHashList": [
          8172848744178609150,
          8259034117828661742,
          1504833746719471085,
          8078049842177164969
        ],
        "FMDPBECPELH": "",
        "ADKBLPOKGIK": ""
      },
      {
        "$type": "FABLGECDBCH",
        "type": "BODY_LANG",
        "delayTime": 1.0499999523162842,
        "aliasList": [
          "12847"
        ],
        "actionId": 146,
        "bodyLangParam": 1060,
        "forceDoFreeStyle": true,
        "canDoRepeatFreeStyle": false,
        "cantBackToIdleWhenSitLoop": true,
        "eventPatternSuiteKey": "",
        "FOHHKFAIAAJ": ""
      },
      {
        "$type": "FABLGECDBCH",
        "type": "BODY_LANG",
        "delayTime": 2.3580000400543213,
        "aliasList": [
          "12847"
        ],
        "actionId": 147,
        "isContinue": true,
        "forceDoFreeStyle": true,
        "canDoRepeatFreeStyle": false,
        "cantBackToIdleWhenSitLoop": true,
        "eventPatternSuiteKey": "",
        "FOHHKFAIAAJ": ""
      },
      {
        "$type": "LJLMDHDCAMK",
        "type": "LOOK_AT",
        "delayTime": 3.7669999599456787,
        "aliasList": [
          "12847"
        ],
        "actionId": 149,
        "enableHead": true,
        "useTargetPos": true,
        "enableAbsolute": true,
        "targetPosition": {
          "x": -547.4559936523438,
          "y": 52.5880012512207,
          "z": 758.156005859375
        },
        "headTurnTime": 0.4000000059604645,
        "targetNpcAlias": "",
        "lookAtTargetType": "NONE",
        "openBackProtect": true,
        "targetNpcLookAtPoint": "",
        "OAFJBHJHLJG": ""
      },
      {
        "$type": "LLGANGLOEEO",
        "type": "STEER_TO",
        "delayTime": 3.7750000953674316,
        "duration": 0.800000011920929,
        "aliasList": [
          "12847"
        ],
        "actionId": 148,
        "steerType": "ABSOLUTE",
        "steerDir": {
          "x": -545.4450073242188,
          "y": 51.395999908447266,
          "z": 751.3930053710938
        },
        "useSteerAnim": true,
        "interruptFreestyle": true,
        "forceSteer": true,
        "targetNpcAlias": "",
        "ignoreY": true,
        "fixInterNull": true,
        "OAFJBHJHLJG": ""
      },
      {
        "$type": "FABLGECDBCH",
        "type": "BODY_LANG",
        "delayTime": 5.050000190734863,
        "aliasList": [
          "12847"
        ],
        "actionId": 150,
        "bodyLangParam": 5010,
        "forceDoFreeStyle": true,
        "canDoRepeatFreeStyle": false,
        "cantBackToIdleWhenSitLoop": true,
        "eventPatternSuiteKey": "",
        "FOHHKFAIAAJ": ""
      }
    ],
    [
      {
        "$type": "LJLMDHDCAMK",
        "type": "LOOK_AT",
        "aliasList": [
          "1056"
        ],
        "actionId": 176,
        "enableHead": true,
        "headTurnTime": 0.5,
        "targetNpcAlias": "12840",
        "openBackProtect": true,
        "targetNpcLookAtPoint": "",
        "OAFJBHJHLJG": ""
      },
      {
        "$type": "LJLMDHDCAMK",
        "type": "LOOK_AT",
        "aliasList": [
          "1005"
        ],
        "actionId": 174,
        "enableHead": true,
        "headTurnTime": 0.5,
        "targetNpcAlias": "12840",
        "openBackProtect": true,
        "targetNpcLookAtPoint": "",
        "OAFJBHJHLJG": ""
      },
      {
        "$type": "MoleMole.Config.ConfigMoveToAction",
        "type": "MOVE_TO",
        "aliasList": [
          "1005"
        ],
        "actionId": 171,
        "moveType": "WALK",
        "routeList": [
          {
            "x": -549.1699829101562,
            "y": 51.395999908447266,
            "z": 759.0989990234375
          }
        ],
        "exactlyMove": true,
        "closeNavMesh": true,
        "_bindMovingTargetKey": ""
      },
      {
        "$type": "MoleMole.Config.ConfigCloseGPUCullingInterAction",
        "type": "CLOSE_GPU_CULLING",
        "actionId": 166
      },
      {
        "$type": "MoleMole.Config.ConfigMoveToAction",
        "type": "MOVE_TO",
        "aliasList": [
          "Avatar"
        ],
        "actionId": 170,
        "moveType": "WALK",
        "routeList": [
          {
            "x": -550.3350219726562,
            "y": 51.395999908447266,
            "z": 759.6329956054688
          }
        ],
        "exactlyMove": true,
        "closeNavMesh": true,
        "closeAvatarNavMesh": true,
        "_bindMovingTargetKey": ""
      },
      {
        "$type": "LJLMDHDCAMK",
        "type": "LOOK_AT",
        "aliasList": [
          "Avatar"
        ],
        "actionId": 173,
        "enableHead": true,
        "headTurnTime": 0.5,
        "targetNpcAlias": "12840",
        "openBackProtect": true,
        "targetNpcLookAtPoint": "",
        "OAFJBHJHLJG": ""
      },
      {
        "$type": "FABLGECDBCH",
        "type": "BODY_LANG",
        "aliasList": [
          "12847"
        ],
        "actionId": 158,
        "isContinue": true,
        "forceDoFreeStyle": true,
        "canDoRepeatFreeStyle": false,
        "cantBackToIdleWhenSitLoop": true,
        "eventPatternSuiteKey": "",
        "FOHHKFAIAAJ": ""
      },
      {
        "$type": "CPJKOIHIPBE",
        "type": "EMO_SYNC",
        "aliasList": [
          "12846"
        ],
        "actionId": 220,
        "dataPath": "Cs_Emo_Avatar_Simple_Common_Set/Cs_Emo_Avatar_Talk/Cs_Emo_Avatar_PersonalLine/Cs_Emo_Avatar_Nahida/Cs_Emo_130144602",
        "phonemePath": "",
        "emotionPath": "",
        "mateDataPath": "",
        "matePhonemePath": "",
        "mateEmotionPath": "",
        "dataPathHashList": [
          11235986527976734231,
          7944071245488482238,
          12355013654576171915,
          16679591060910090076
        ],
        "FMDPBECPELH": "",
        "ADKBLPOKGIK": ""
      },
      {
        "$type": "MoleMole.Config.ConfigMoveToAction",
        "type": "MOVE_TO",
        "aliasList": [
          "1056"
        ],
        "actionId": 172,
        "moveType": "WALK",
        "routeList": [
          {
            "x": -550.5139770507812,
            "y": 51.395999908447266,
            "z": 758.2830200195312
          }
        ],
        "exactlyMove": true,
        "closeNavMesh": true,
        "_bindMovingTargetKey": ""
      },
      {
        "$type": "PKKMAMONGEO",
        "type": "DIALOG",
        "aliasList": [
          "12846"
        ],
        "actionId": 109,
        "dialogID": 130144602,
        "protectTime": 3.0
      },
      {
        "$type": "FJKIHHKJLMJ",
        "type": "CAMERA_MOVE",
        "delayTime": 0.10000000149011612,
        "duration": 0.5,
        "actionId": 157,
        "camPosOffset": {
          "x": -545.0800170898438,
          "y": 52.62799835205078,
          "z": 749.6710205078125
        },
        "camForwardTargetOffset": {
          "x": -545.2119750976562,
          "y": 52.56999969482422,
          "z": 750.6610107421875
        },
        "camFov": 30.0,
        "lerpPattern": 6,
        "cameraBlendType": "EaseInOutCubic",
        "NJBNNOMLKCK": {},
        "needZAxisRotate": true,
        "openCameraDither": false,
        "targetNpcAlias": "",
        "closeTreeLeafDither": true,
        "KJOEFBPOIIH": "",
        "IICFKKEBIEC": "",
        "EGEHEJEBLBJ": ""
      },
      {
        "$type": "FABLGECDBCH",
        "type": "BODY_LANG",
        "delayTime": 0.9330000281333923,
        "aliasList": [
          "12846"
        ],
        "actionId": 165,
        "bodyLangParam": 1172,
        "forceDoFreeStyle": true,
        "canDoRepeatFreeStyle": false,
        "cantBackToIdleWhenSitLoop": true,
        "eventPatternSuiteKey": "",
        "FOHHKFAIAAJ": ""
      },
      {
        "$type": "LLGANGLOEEO",
        "type": "STEER_TO",
        "delayTime": 1.0169999599456787,
        "duration": 1.0,
        "aliasList": [
          "12847"
        ],
        "actionId": 159,
        "steerType": "ABSOLUTE",
        "steerDir": {
          "x": -548.10498046875,
          "y": 51.395999908447266,
          "z": 749.2869873046875
        },
        "useSteerAnim": true,
        "interruptFreestyle": true,
        "forceSteer": true,
        "targetNpcAlias": "",
        "ignoreY": true,
        "fixInterNull": true,
        "OAFJBHJHLJG": ""
      },
      {
        "$type": "LJLMDHDCAMK",
        "type": "LOOK_AT",
        "delayTime": 1.024999976158142,
        "aliasList": [
          "12847"
        ],
        "actionId": 161,
        "enableHead": true,
        "useTargetPos": true,
        "enableAbsolute": true,
        "targetPosition": {
          "x": -553.6019897460938,
          "y": 52.58700180053711,
          "z": 747.8980102539062
        },
        "headTurnTime": 0.5,
        "targetNpcAlias": "",
        "lookAtTargetType": "NONE",
        "openBackProtect": true,
        "targetNpcLookAtPoint": "",
        "OAFJBHJHLJG": ""
      },
      {
        "$type": "MoleMole.Config.ConfigMoveToAction",
        "type": "MOVE_TO",
        "delayTime": 2.125,
        "aliasList": [
          "12847"
        ],
        "actionId": 160,
        "moveType": "RUN",
        "routeList": [
          {
            "x": -551.9390258789062,
            "y": 51.395999908447266,
            "z": 747.77001953125
          }
        ],
        "exactlyMove": true,
        "closeNavMesh": true,
        "_bindMovingTargetKey": ""
      },
      {
        "$type": "FJKIHHKJLMJ",
        "type": "CAMERA_MOVE",
        "delayTime": 2.3919999599456787,
        "duration": 2.316999912261963,
        "actionId": 162,
        "camPosOffset": {
          "x": -545.0800170898438,
          "y": 52.62799835205078,
          "z": 749.6710205078125
        },
        "camForwardTargetOffset": {
          "x": -545.4739990234375,
          "y": 52.57899856567383,
          "z": 750.5889892578125
        },
        "camFov": 30.0,
        "lerpPattern": 2,
        "cameraBlendType": "EaseInOutQuad",
        "NJBNNOMLKCK": {},
        "needZAxisRotate": true,
        "openCameraDither": false,
        "targetNpcAlias": "",
        "closeTreeLeafDither": true,
        "KJOEFBPOIIH": "",
        "IICFKKEBIEC": "",
        "EGEHEJEBLBJ": ""
      },
      {
        "$type": "FJKIHHKJLMJ",
        "type": "CAMERA_MOVE",
        "delayTime": 4.324999809265137,
        "duration": 3.575000047683716,
        "actionId": 164,
        "camPosOffset": {
          "x": -545.0800170898438,
          "y": 52.62799835205078,
          "z": 749.6710205078125
        },
        "camForwardTargetOffset": {
          "x": -545.5250244140625,
          "y": 52.57899856567383,
          "z": 750.5650024414062
        },
        "camFov": 30.0,
        "lerpPattern": 2,
        "cameraBlendType": "EaseOutQuad",
        "NJBNNOMLKCK": {},
        "needZAxisRotate": true,
        "openCameraDither": false,
        "targetNpcAlias": "",
        "closeTreeLeafDither": true,
        "KJOEFBPOIIH": "",
        "IICFKKEBIEC": "",
        "EGEHEJEBLBJ": ""
      }
    ],
    [
      {
        "$type": "FJKIHHKJLMJ",
        "type": "CAMERA_MOVE",
        "duration": 0.5,
        "actionId": 178,
        "camPosOffset": {
          "x": -552.7160034179688,
          "y": 53.055999755859375,
          "z": 759.6389770507812
        },
        "camForwardTargetOffset": {
          "x": -551.7570190429688,
          "y": 52.95100021362305,
          "z": 759.3770141601562
        },
        "camFov": 30.0,
        "lerpPattern": 6,
        "cameraBlendType": "EaseInOutCubic",
        "NJBNNOMLKCK": {},
        "needZAxisRotate": true,
        "openCameraDither": false,
        "targetNpcAlias": "",
        "closeTreeLeafDither": true,
        "KJOEFBPOIIH": "",
        "IICFKKEBIEC": "",
        "EGEHEJEBLBJ": ""
      },
      {
        "$type": "LJLMDHDCAMK",
        "type": "LOOK_AT",
        "aliasList": [
          "12840"
        ],
        "actionId": 179,
        "enableHead": true,
        "useTargetPos": true,
        "enableAbsolute": true,
        "targetPosition": {
          "x": -549.9390258789062,
          "y": 52.82400131225586,
          "z": 759.3259887695312
        },
        "headTurnTime": 0.5,
        "targetNpcAlias": "",
        "lookAtTargetType": "NONE",
        "openBackProtect": true,
        "targetNpcLookAtPoint": "",
        "OAFJBHJHLJG": ""
      },
      {
        "$type": "LLGANGLOEEO",
        "type": "STEER_TO",
        "duration": 1.0,
        "aliasList": [
          "12840"
        ],
        "actionId": 181,
        "steerType": "ABSOLUTE",
        "steerDir": {
          "x": -549.6209716796875,
          "y": 51.395999908447266,
          "z": 758.7310180664062
        },
        "useSteerAnim": true,
        "interruptFreestyle": true,
        "forceSteer": true,
        "targetNpcAlias": "",
        "ignoreY": true,
        "fixInterNull": true,
        "OAFJBHJHLJG": ""
      },
      {
        "$type": "FJKIHHKJLMJ",
        "type": "CAMERA_MOVE",
        "delayTime": 0.10000000149011612,
        "duration": 3.625,
        "actionId": 177,
        "camPosOffset": {
          "x": -552.739990234375,
          "y": 52.81700134277344,
          "z": 759.64697265625
        },
        "camForwardTargetOffset": {
          "x": -551.781005859375,
          "y": 52.71200180053711,
          "z": 759.385009765625
        },
        "camFov": 30.0,
        "lerpPattern": 2,
        "cameraBlendType": "EaseOutQuad",
        "NJBNNOMLKCK": {},
        "needZAxisRotate": true,
        "openCameraDither": false,
        "targetNpcAlias": "",
        "closeTreeLeafDither": true,
        "KJOEFBPOIIH": "",
        "IICFKKEBIEC": "",
        "EGEHEJEBLBJ": ""
      },
      {
        "$type": "PKKMAMONGEO",
        "type": "DIALOG",
        "delayTime": 0.800000011920929,
        "aliasList": [
          "12840"
        ],
        "actionId": 111,
        "dialogID": 130144603,
        "protectTime": 2.299999952316284
      },
      {
        "$type": "CPJKOIHIPBE",
        "type": "EMO_SYNC",
        "delayTime": 0.800000011920929,
        "aliasList": [
          "12840"
        ],
        "actionId": 221,
        "dataPath": "Cs_Emo_Avatar_Simple_Common_Set/Cs_Emo_Avatar_Talk/Cs_Emo_Avatar_PersonalLine/Cs_Emo_Avatar_Nahida/Cs_Emo_130144603",
        "phonemePath": "",
        "emotionPath": "",
        "mateDataPath": "",
        "matePhonemePath": "",
        "mateEmotionPath": "",
        "dataPathHashList": [
          8658160538025237231,
          14729310560365084839,
          17793924537938186773,
          1564951161146545907
        ],
        "FMDPBECPELH": "",
        "ADKBLPOKGIK": ""
      },
      {
        "$type": "LLGANGLOEEO",
        "type": "STEER_TO",
        "delayTime": 2.058000087738037,
        "duration": 1.0,
        "aliasList": [
          "12846"
        ],
        "actionId": 183,
        "steerType": "ABSOLUTE",
        "steerDir": {
          "x": -549.0859985351562,
          "y": 51.395999908447266,
          "z": 757.8359985351562
        },
        "useSteerAnim": true,
        "interruptFreestyle": true,
        "forceSteer": true,
        "targetNpcAlias": "",
        "ignoreY": true,
        "fixInterNull": true,
        "OAFJBHJHLJG": ""
      },
      {
        "$type": "LJLMDHDCAMK",
        "type": "LOOK_AT",
        "delayTime": 2.066999912261963,
        "aliasList": [
          "12846"
        ],
        "actionId": 182,
        "enableHead": true,
        "useTargetPos": true,
        "enableAbsolute": true,
        "targetPosition": {
          "x": -549.9249877929688,
          "y": 52.5989990234375,
          "z": 758.176025390625
        },
        "headTurnTime": 0.5,
        "targetNpcAlias": "",
        "lookAtTargetType": "NONE",
        "openBackProtect": true,
        "targetNpcLookAtPoint": "",
        "OAFJBHJHLJG": ""
      },
      {
        "$type": "LJLMDHDCAMK",
        "type": "LOOK_AT",
        "delayTime": 2.2249999046325684,
        "aliasList": [
          "12840"
        ],
        "actionId": 184,
        "enableHead": true,
        "useTargetPos": true,
        "enableAbsolute": true,
        "targetPosition": {
          "x": -550.177978515625,
          "y": 52.54600143432617,
          "z": 758.3779907226562
        },
        "headTurnTime": 0.5,
        "targetNpcAlias": "",
        "lookAtTargetType": "NONE",
        "openBackProtect": true,
        "targetNpcLookAtPoint": "",
        "OAFJBHJHLJG": ""
      }
    ],
    [
      {
        "$type": "FJKIHHKJLMJ",
        "type": "CAMERA_MOVE",
        "duration": 0.5,
        "actionId": 200,
        "camPosOffset": {
          "x": -547.2319946289062,
          "y": 53.196998596191406,
          "z": 755.4429931640625
        },
        "camForwardTargetOffset": {
          "x": -547.7470092773438,
          "y": 53.013999938964844,
          "z": 756.281005859375
        },
        "camFov": 30.0,
        "lerpPattern": 6,
        "cameraBlendType": "EaseInOutCubic",
        "NJBNNOMLKCK": {},
        "needZAxisRotate": true,
        "openCameraDither": false,
        "targetNpcAlias": "",
        "closeTreeLeafDither": true,
        "KJOEFBPOIIH": "",
        "IICFKKEBIEC": "",
        "EGEHEJEBLBJ": ""
      },
      {
        "$type": "MoleMole.Config.ConfigTeleportToAction",
        "type": "TELEPORT_TO",
        "aliasList": [
          "Avatar"
        ],
        "actionId": 187,
        "position": {
          "x": -550.2039794921875,
          "y": 51.395999908447266,
          "z": 759.3250122070312
        },
        "forward": {
          "x": 0.7200000286102295,
          "z": -0.6940000057220459
        },
        "openLongDisTeleport": true,
        "_posBindMovingTargetKey": "",
        "_forwardBindMovingTargetKey": ""
      },
      {
        "$type": "MoleMole.Config.ConfigTeleportToAction",
        "type": "TELEPORT_TO",
        "aliasList": [
          "12847"
        ],
        "actionId": 225,
        "position": {
          "x": -549.6699829101562,
          "y": 51.395999908447266,
          "z": 743.7999877929688
        },
        "forward": {
          "x": -0.9559999704360962,
          "z": 0.2939999997615814
        },
        "openLongDisTeleport": true,
        "_posBindMovingTargetKey": "",
        "_forwardBindMovingTargetKey": ""
      },
      {
        "$type": "LJLMDHDCAMK",
        "type": "LOOK_AT",
        "aliasList": [
          "12847"
        ],
        "actionId": 226,
        "headTurnTime": 0.5,
        "targetNpcAlias": "",
        "openBackProtect": true,
        "targetNpcLookAtPoint": "",
        "OAFJBHJHLJG": ""
      },
      {
        "$type": "MoleMole.Config.ConfigTeleportToAction",
        "type": "TELEPORT_TO",
        "aliasList": [
          "12846"
        ],
        "actionId": 189,
        "position": {
          "x": -547.7470092773438,
          "y": 51.395999908447266,
          "z": 757.3270263671875
        },
        "forward": {
          "x": -0.9810000061988831,
          "z": 0.19499999284744263
        },
        "openLongDisTeleport": true,
        "_posBindMovingTargetKey": "",
        "_forwardBindMovingTargetKey": ""
      },
      {
        "$type": "LJLMDHDCAMK",
        "type": "LOOK_AT",
        "aliasList": [
          "12846"
        ],
        "actionId": 205,
        "enableHead": true,
        "useTargetPos": true,
        "enableAbsolute": true,
        "targetPosition": {
          "x": -549.9349975585938,
          "y": 52.862998962402344,
          "z": 759.0280151367188
        },
        "headTurnTime": 0.5,
        "targetNpcAlias": "",
        "lookAtTargetType": "NONE",
        "openBackProtect": true,
        "targetNpcLookAtPoint": "",
        "OAFJBHJHLJG": ""
      },
      {
        "$type": "MoleMole.Config.ConfigTeleportToAction",
        "type": "TELEPORT_TO",
        "aliasList": [
          "12840"
        ],
        "actionId": 190,
        "position": {
          "x": -548.4089965820312,
          "y": 51.395999908447266,
          "z": 758.2670288085938
        },
        "forward": {
          "x": -1.0549999475479126,
          "z": 0.22499999403953552
        },
        "openLongDisTeleport": true,
        "_posBindMovingTargetKey": "",
        "_forwardBindMovingTargetKey": ""
      },
      {
        "$type": "LJLMDHDCAMK",
        "type": "LOOK_AT",
        "aliasList": [
          "12840"
        ],
        "actionId": 191,
        "enableHead": true,
        "useTargetPos": true,
        "enableAbsolute": true,
        "targetPosition": {
          "x": -549.0880126953125,
          "y": 52.82600021362305,
          "z": 758.9290161132812
        },
        "headTurnTime": 0.5,
        "targetNpcAlias": "",
        "lookAtTargetType": "NONE",
        "openBackProtect": true,
        "targetNpcLookAtPoint": "",
        "OAFJBHJHLJG": ""
      },
      {
        "$type": "PKKMAMONGEO",
        "type": "DIALOG",
        "aliasList": [
          "1005"
        ],
        "actionId": 113,
        "dialogID": 130144604,
        "protectTime": 0.5
      },
      {
        "$type": "MoleMole.Config.ConfigTeleportToAction",
        "type": "TELEPORT_TO",
        "aliasList": [
          "1005"
        ],
        "actionId": 188,
        "position": {
          "x": -549.572021484375,
          "y": 51.395999908447266,
          "z": 759.3790283203125
        },
        "forward": {
          "x": 0.5619999766349792,
          "z": -0.8270000219345093
        },
        "openLongDisTeleport": true,
        "_posBindMovingTargetKey": "",
        "_forwardBindMovingTargetKey": ""
      },
      {
        "$type": "FABLGECDBCH",
        "type": "BODY_LANG",
        "aliasList": [
          "1005"
        ],
        "actionId": 192,
        "bodyLangParam": 1060,
        "forceDoFreeStyle": true,
        "canDoRepeatFreeStyle": false,
        "cantBackToIdleWhenSitLoop": true,
        "eventPatternSuiteKey": "",
        "FOHHKFAIAAJ": ""
      },
      {
        "$type": "CPJKOIHIPBE",
        "type": "EMO_SYNC",
        "aliasList": [
          "1005"
        ],
        "actionId": 223,
        "dataPath": "Cs_Emo_Avatar_Simple_Common_Set/Cs_Emo_Avatar_Talk/Cs_Emo_Avatar_PersonalLine/Cs_Emo_Avatar_Nahida/Cs_Emo_130144604",
        "phonemePath": "",
        "emotionPath": "",
        "mateDataPath": "",
        "matePhonemePath": "",
        "mateEmotionPath": "",
        "dataPathHashList": [
          6232938155155431438,
          5985442469701419100,
          12017897464598669391,
          18334838556264790241
        ],
        "FMDPBECPELH": "",
        "ADKBLPOKGIK": ""
      },
      {
        "$type": "MoleMole.Config.ConfigTeleportToAction",
        "type": "TELEPORT_TO",
        "aliasList": [
          "1056"
        ],
        "actionId": 186,
        "position": {
          "x": -550.489013671875,
          "y": 51.395999908447266,
          "z": 758.4819946289062
        },
        "forward": {
          "x": 0.9300000071525574,
          "z": -0.3659999966621399
        },
        "openLongDisTeleport": true,
        "_posBindMovingTargetKey": "",
        "_forwardBindMovingTargetKey": ""
      },
      {
        "$type": "FJKIHHKJLMJ",
        "type": "CAMERA_MOVE",
        "delayTime": 0.10000000149011612,
        "duration": 8.574999809265137,
        "actionId": 185,
        "camPosOffset": {
          "x": -547.4039916992188,
          "y": 53.180999755859375,
          "z": 755.3330078125
        },
        "camForwardTargetOffset": {
          "x": -547.906005859375,
          "y": 52.994998931884766,
          "z": 756.177978515625
        },
        "camFov": 30.0,
        "lerpPattern": 2,
        "cameraBlendType": "EaseOutQuad",
        "NJBNNOMLKCK": {},
        "needZAxisRotate": true,
        "openCameraDither": false,
        "targetNpcAlias": "",
        "closeTreeLeafDither": true,
        "KJOEFBPOIIH": "",
        "IICFKKEBIEC": "",
        "EGEHEJEBLBJ": ""
      },
      {
        "$type": "FABLGECDBCH",
        "type": "BODY_LANG",
        "delayTime": 1.475000023841858,
        "aliasList": [
          "1005"
        ],
        "actionId": 193,
        "isContinue": true,
        "forceDoFreeStyle": true,
        "canDoRepeatFreeStyle": false,
        "cantBackToIdleWhenSitLoop": true,
        "eventPatternSuiteKey": "",
        "FOHHKFAIAAJ": ""
      },
      {
        "$type": "FABLGECDBCH",
        "type": "BODY_LANG",
        "delayTime": 2.049999952316284,
        "aliasList": [
          "1005"
        ],
        "actionId": 194,
        "bodyLangParam": 1300,
        "forceDoFreeStyle": true,
        "canDoRepeatFreeStyle": false,
        "cantBackToIdleWhenSitLoop": true,
        "eventPatternSuiteKey": "",
        "FOHHKFAIAAJ": ""
      }
    ],
    [
      {
        "$type": "FJKIHHKJLMJ",
        "type": "CAMERA_MOVE",
        "duration": 0.5,
        "actionId": 201,
        "camPosOffset": {
          "x": -550.8729858398438,
          "y": 52.74300003051758,
          "z": 759.364013671875
        },
        "camForwardTargetOffset": {
          "x": -549.8909912109375,
          "y": 52.784000396728516,
          "z": 759.1810302734375
        },
        "camFov": 30.0,
        "lerpPattern": 6,
        "cameraBlendType": "EaseInOutCubic",
        "NJBNNOMLKCK": {},
        "needZAxisRotate": true,
        "openCameraDither": false,
        "targetNpcAlias": "",
        "closeTreeLeafDither": true,
        "KJOEFBPOIIH": "",
        "IICFKKEBIEC": "",
        "EGEHEJEBLBJ": ""
      },
      {
        "$type": "PKKMAMONGEO",
        "type": "DIALOG",
        "aliasList": [
          "12840"
        ],
        "actionId": 115,
        "dialogID": 130144605,
        "protectTime": 0.5
      },
      {
        "$type": "LJLMDHDCAMK",
        "type": "LOOK_AT",
        "aliasList": [
          "12840"
        ],
        "actionId": 202,
        "enableHead": true,
        "useTargetPos": true,
        "enableAbsolute": true,
        "targetPosition": {
          "x": -549.3989868164062,
          "y": 52.42499923706055,
          "z": 758.5969848632812
        },
        "headTurnTime": 0.30000001192092896,
        "targetNpcAlias": "",
        "lookAtTargetType": "NONE",
        "openBackProtect": true,
        "targetNpcLookAtPoint": "",
        "OAFJBHJHLJG": ""
      },
      {
        "$type": "CPJKOIHIPBE",
        "type": "EMO_SYNC",
        "aliasList": [
          "12840"
        ],
        "actionId": 222,
        "dataPath": "Cs_Emo_Avatar_Simple_Common_Set/Cs_Emo_Avatar_Talk/Cs_Emo_Avatar_PersonalLine/Cs_Emo_Avatar_Nahida/Cs_Emo_130144605",
        "phonemePath": "",
        "emotionPath": "",
        "mateDataPath": "",
        "matePhonemePath": "",
        "mateEmotionPath": "",
        "dataPathHashList": [
          4779056464029842238,
          5717836151617856960,
          18114225022676385995,
          7120427954702877031
        ],
        "FMDPBECPELH": "",
        "ADKBLPOKGIK": ""
      },
      {
        "$type": "FABLGECDBCH",
        "type": "BODY_LANG",
        "aliasList": [
          "1005"
        ],
        "actionId": 195,
        "isContinue": true,
        "forceDoFreeStyle": true,
        "canDoRepeatFreeStyle": false,
        "cantBackToIdleWhenSitLoop": true,
        "eventPatternSuiteKey": "",
        "FOHHKFAIAAJ": ""
      },
      {
        "$type": "MoleMole.Config.ConfigTeleportToAction",
        "type": "TELEPORT_TO",
        "aliasList": [
          "1005"
        ],
        "actionId": 206,
        "position": {
          "x": -549.5590209960938,
          "y": 51.395999908447266,
          "z": 759.5570068359375
        },
        "forward": {
          "x": 0.5619999766349792,
          "z": -0.8270000219345093
        },
        "openLongDisTeleport": true,
        "_posBindMovingTargetKey": "",
        "_forwardBindMovingTargetKey": ""
      },
      {
        "$type": "FJKIHHKJLMJ",
        "type": "CAMERA_MOVE",
        "delayTime": 0.10000000149011612,
        "duration": 9.157999992370605,
        "actionId": 126,
        "camPosOffset": {
          "x": -550.885986328125,
          "y": 52.75,
          "z": 759.2969970703125
        },
        "camForwardTargetOffset": {
          "x": -549.9039916992188,
          "y": 52.79100036621094,
          "z": 759.114013671875
        },
        "camFov": 30.0,
        "lerpPattern": 2,
        "cameraBlendType": "EaseOutQuad",
        "NJBNNOMLKCK": {},
        "needZAxisRotate": true,
        "openCameraDither": false,
        "targetNpcAlias": "",
        "closeTreeLeafDither": true,
        "KJOEFBPOIIH": "",
        "IICFKKEBIEC": "",
        "EGEHEJEBLBJ": ""
      },
      {
        "$type": "FABLGECDBCH",
        "type": "BODY_LANG",
        "delayTime": 1.1239999532699585,
        "aliasList": [
          "12840"
        ],
        "actionId": 196,
        "bodyLangParam": 1110,
        "forceDoFreeStyle": true,
        "canDoRepeatFreeStyle": false,
        "cantBackToIdleWhenSitLoop": true,
        "eventPatternSuiteKey": "",
        "FOHHKFAIAAJ": ""
      },
      {
        "$type": "LJLMDHDCAMK",
        "type": "LOOK_AT",
        "delayTime": 1.218999981880188,
        "aliasList": [
          "12840"
        ],
        "actionId": 204,
        "enableHead": true,
        "useTargetPos": true,
        "enableAbsolute": true,
        "targetPosition": {
          "x": -549.7109985351562,
          "y": 52.75400161743164,
          "z": 759.468994140625
        },
        "headTurnTime": 0.4000000059604645,
        "targetNpcAlias": "",
        "lookAtTargetType": "NONE",
        "openBackProtect": true,
        "targetNpcLookAtPoint": "",
        "OAFJBHJHLJG": ""
      },
      {
        "$type": "LJLMDHDCAMK",
        "type": "LOOK_AT",
        "delayTime": 2.8329999446868896,
        "aliasList": [
          "12840"
        ],
        "actionId": 203,
        "enableHead": true,
        "useTargetPos": true,
        "enableAbsolute": true,
        "targetPosition": {
          "x": -550.0390014648438,
          "y": 52.87200164794922,
          "z": 759.18798828125
        },
        "headTurnTime": 0.5,
        "targetNpcAlias": "",
        "lookAtTargetType": "NONE",
        "openBackProtect": true,
        "targetNpcLookAtPoint": "",
        "OAFJBHJHLJG": ""
      },
      {
        "$type": "FABLGECDBCH",
        "type": "BODY_LANG",
        "delayTime": 2.940000057220459,
        "aliasList": [
          "12840"
        ],
        "actionId": 197,
        "isContinue": true,
        "forceDoFreeStyle": true,
        "canDoRepeatFreeStyle": false,
        "cantBackToIdleWhenSitLoop": true,
        "eventPatternSuiteKey": "",
        "FOHHKFAIAAJ": ""
      },
      {
        "$type": "FABLGECDBCH",
        "type": "BODY_LANG",
        "delayTime": 4.381999969482422,
        "aliasList": [
          "12840"
        ],
        "actionId": 198,
        "bodyLangParam": 1171,
        "forceDoFreeStyle": true,
        "canDoRepeatFreeStyle": false,
        "cantBackToIdleWhenSitLoop": true,
        "eventPatternSuiteKey": "",
        "FOHHKFAIAAJ": ""
      }
    ],
    [
      {
        "$type": "FJKIHHKJLMJ",
        "type": "CAMERA_MOVE",
        "duration": 0.5,
        "actionId": 208,
        "camPosOffset": {
          "x": -548.843994140625,
          "y": 52.52899932861328,
          "z": 759.2639770507812
        },
        "camForwardTargetOffset": {
          "x": -549.72998046875,
          "y": 52.45000076293945,
          "z": 758.8070068359375
        },
        "camFov": 20.0,
        "lerpPattern": 6,
        "cameraBlendType": "EaseInOutCubic",
        "NJBNNOMLKCK": {},
        "needZAxisRotate": true,
        "openCameraDither": false,
        "targetNpcAlias": "",
        "closeTreeLeafDither": true,
        "KJOEFBPOIIH": "",
        "IICFKKEBIEC": "",
        "EGEHEJEBLBJ": ""
      },
      {
        "$type": "FABLGECDBCH",
        "type": "BODY_LANG",
        "aliasList": [
          "12840"
        ],
        "actionId": 199,
        "isContinue": true,
        "forceDoFreeStyle": true,
        "canDoRepeatFreeStyle": false,
        "cantBackToIdleWhenSitLoop": true,
        "eventPatternSuiteKey": "",
        "FOHHKFAIAAJ": ""
      },
      {
        "$type": "PKKMAMONGEO",
        "type": "DIALOG",
        "aliasList": [
          "1056"
        ],
        "actionId": 117,
        "dialogID": 130144606,
        "protectTime": 0.5
      },
      {
        "$type": "FABLGECDBCH",
        "type": "BODY_LANG",
        "aliasList": [
          "1056"
        ],
        "actionId": 209,
        "bodyLangParam": 1192,
        "forceDoFreeStyle": true,
        "canDoRepeatFreeStyle": false,
        "cantBackToIdleWhenSitLoop": true,
        "eventPatternSuiteKey": "",
        "FOHHKFAIAAJ": ""
      },
      {
        "$type": "LJLMDHDCAMK",
        "type": "LOOK_AT",
        "aliasList": [
          "1056"
        ],
        "actionId": 210,
        "enableHead": true,
        "useTargetPos": true,
        "enableAbsolute": true,
        "targetPosition": {
          "x": -549.948974609375,
          "y": 52.40399932861328,
          "z": 758.2750244140625
        },
        "headTurnTime": 0.5,
        "targetNpcAlias": "",
        "lookAtTargetType": "NONE",
        "openBackProtect": true,
        "targetNpcLookAtPoint": "",
        "OAFJBHJHLJG": ""
      },
      {
        "$type": "CPJKOIHIPBE",
        "type": "EMO_SYNC",
        "aliasList": [
          "1056"
        ],
        "actionId": 224,
        "dataPath": "Cs_Emo_Avatar_Simple_Common_Set/Cs_Emo_Avatar_Talk/Cs_Emo_Avatar_PersonalLine/Cs_Emo_Avatar_Nahida/Cs_Emo_130144606",
        "phonemePath": "",
        "emotionPath": "",
        "mateDataPath": "",
        "matePhonemePath": "",
        "mateEmotionPath": "",
        "dataPathHashList": [
          12289057572902018886,
          18205413312105373719,
          9063191171733798242,
          2212669239165018673
        ],
        "FMDPBECPELH": "",
        "ADKBLPOKGIK": ""
      },
      {
        "$type": "FJKIHHKJLMJ",
        "type": "CAMERA_MOVE",
        "delayTime": 0.10000000149011612,
        "duration": 6.625,
        "actionId": 207,
        "camPosOffset": {
          "x": -548.801025390625,
          "y": 52.52899932861328,
          "z": 759.1799926757812
        },
        "camForwardTargetOffset": {
          "x": -549.68701171875,
          "y": 52.45000076293945,
          "z": 758.7230224609375
        },
        "camFov": 20.0,
        "lerpPattern": 2,
        "cameraBlendType": "EaseOutQuad",
        "NJBNNOMLKCK": {},
        "needZAxisRotate": true,
        "openCameraDither": false,
        "targetNpcAlias": "",
        "closeTreeLeafDither": true,
        "KJOEFBPOIIH": "",
        "IICFKKEBIEC": "",
        "EGEHEJEBLBJ": ""
      },
      {
        "$type": "EMEHNEMOMMM",
        "type": "LOOK_AT_EYECTRL",
        "delayTime": 0.6389999985694885,
        "aliasList": [
          "1056"
        ],
        "actionId": 211,
        "useTargetPos": false,
        "eyeRotateVecLeft": {
          "z": 3.0
        },
        "eyeRotateVecRight": {
          "z": 3.0
        },
        "turnTime": 0.20000000298023224,
        "targetNpcAlias": "",
        "targetPoint": "Face"
      },
      {
        "$type": "LJLMDHDCAMK",
        "type": "LOOK_AT",
        "delayTime": 3.3239998817443848,
        "aliasList": [
          "1056"
        ],
        "actionId": 213,
        "enableHead": true,
        "useTargetPos": true,
        "enableAbsolute": true,
        "targetPosition": {
          "x": -549.3610229492188,
          "y": 52.74700164794922,
          "z": 759.3809814453125
        },
        "headTurnTime": 0.5,
        "targetNpcAlias": "",
        "lookAtTargetType": "NONE",
        "openBackProtect": true,
        "targetNpcLookAtPoint": "",
        "OAFJBHJHLJG": ""
      },
      {
        "$type": "EMEHNEMOMMM",
        "type": "LOOK_AT_EYECTRL",
        "delayTime": 3.381999969482422,
        "aliasList": [
          "1056"
        ],
        "actionId": 214,
        "useTargetPos": false,
        "turnTime": 0.20000000298023224,
        "targetNpcAlias": "",
        "targetPoint": "Face"
      }
    ],
    [
      {
        "$type": "MoleMole.Config.ConfigSimpleBlackScreenAction",
        "type": "SIMPLE_BLACK_SCREEN",
        "actionId": 118,
        "durationToBlack": 0.5,
        "durationKeepBlack": 1.0,
        "durationFromBlack": 0.5,
        "textMapID": ""
      },
      {
        "$type": "MoleMole.Config.ConfigTimeProtectAction",
        "type": "TIME_PROTECT",
        "duration": 0.699999988079071,
        "actionId": 119
      },
      {
        "$type": "FJKIHHKJLMJ",
        "type": "CAMERA_MOVE",
        "delayTime": 0.6000000238418579,
        "duration": 0.10000000149011612,
        "actionId": 215,
        "camPosOffset": {
          "x": -551.7470092773438,
          "y": 53.21099853515625,
          "z": 761.2979736328125
        },
        "camForwardTargetOffset": {
          "x": -551.1810302734375,
          "y": 52.89500045776367,
          "z": 760.5360107421875
        },
        "lerpPattern": 6,
        "cameraBlendType": "EaseInOutCubic",
        "NJBNNOMLKCK": {},
        "needZAxisRotate": true,
        "openCameraDither": false,
        "targetNpcAlias": "",
        "closeTreeLeafDither": true,
        "KJOEFBPOIIH": "",
        "IICFKKEBIEC": "",
        "EGEHEJEBLBJ": ""
      },
      {
        "$type": "MoleMole.Config.ConfigTeleportToAction",
        "type": "TELEPORT_TO",
        "delayTime": 0.6000000238418579,
        "aliasList": [
          "12846"
        ],
        "actionId": 217,
        "position": {
          "x": -547.2620239257812,
          "y": 51.395999908447266,
          "z": 756.958984375
        },
        "forward": {
          "x": -0.017999999225139618,
          "z": -1.0
        },
        "openLongDisTeleport": true,
        "_posBindMovingTargetKey": "",
        "_forwardBindMovingTargetKey": ""
      },
      {
        "$type": "MoleMole.Config.ConfigTeleportToAction",
        "type": "TELEPORT_TO",
        "delayTime": 0.6000000238418579,
        "aliasList": [
          "12840"
        ],
        "actionId": 218,
        "position": {
          "x": -548.1810302734375,
          "y": 51.395999908447266,
          "z": 757.3519897460938
        },
        "forward": {
          "x": 0.7369999885559082,
          "z": -0.6759999990463257
        },
        "openLongDisTeleport": true,
        "_posBindMovingTargetKey": "",
        "_forwardBindMovingTargetKey": ""
      },
      {
        "$type": "MoleMole.Config.ConfigVisibleInterAction",
        "type": "VISIBLE",
        "delayTime": 0.6000000238418579,
        "aliasList": [
          "1056"
        ],
        "actionId": 216,
        "_extraParam": ""
      }
    ]
  ],
  "groupId": [
    {
      "grpId": 1800482291,
      "nextGrpId": 1800482292
    },
    {
      "index": 1,
      "grpId": 1800482292,
      "nextGrpId": 1800482293
    },
    {
      "index": 2,
      "grpId": 1800482293,
      "nextGrpId": 1800482294
    },
    {
      "index": 3,
      "grpId": 1800482294,
      "nextGrpId": 1800482295
    },
    {
      "index": 4,
      "grpId": 1800482295,
      "nextGrpId": 1800482296
    },
    {
      "index": 5,
      "grpId": 1800482296,
      "nextGrpId": 1800482297
    },
    {
      "index": 6,
      "grpId": 1800482297,
      "nextGrpId": 1800482298
    },
    {
      "index": 7,
      "grpId": 1800482298,
      "nextGrpId": 1800482299
    }
  ],
  "freeStyleDic": {
    "12847": [
      1060,
      5010
    ],
    "12846": [
      1172
    ],
    "12840": [
      1110,
      1171
    ],
    "1056": [
      1192
    ]
  }
}