{
  "luaDataPath": "",
  "isSimpleTalk": true,
  "entityBan": "",
  "disableNpcLod": true,
  "startFade": {
    "startFadeOutDuration": 0.0
  },
  "endFade": {
    "startFadeOutDuration": 0.0
  },
  "actors": [
    {
      "alias": "Avatar",
      "visible": true,
      "bornPointName": "",
      "relativePosNpcAlias": "",
      "_bindMovingTargetKey": ""
    },
    {
      "configID": 20352,
      "alias": "20352",
      "visible": true,
      "bornPointName": "",
      "relativePosNpcAlias": "",
      "_bindMovingTargetKey": ""
    },
    {
      "configID": 1005,
      "alias": "1005",
      "visible": true,
      "bornPointName": "",
      "useRelativePos": true,
      "relativePos": {
        "x": 0.5,
        "z": 0.5
      },
      "removeActorType": "REMOVE_WITH_DISAPPEAR",
      "relativePosNpcAlias": "",
      "_bindMovingTargetKey": ""
    }
  ],
  "group": [
    [
      {
        "$type": "MoleMole.Config.ConfigTimeProtectAction",
        "type": "TIME_PROTECT",
        "duration": 0.10000000149011612
      },
      {
        "$type": "FJKIHHKJLMJ",
        "type": "CAMERA_FOCUS",
        "duration": 0.10000000149011612,
        "targetNpcAlias": "",
        "KJOEFBPOIIH": "",
        "IICFKKEBIEC": "",
        "EGEHEJEBLBJ": ""
      }
    ],
    [
      {
        "$type": "PKKMAMONGEO",
        "type": "DIALOG",
        "aliasList": [
          "20352"
        ],
        "dialogID": 722391902,
        "protectTime": 0.5
      }
    ],
    [
      {
        "$type": "PKKMAMONGEO",
        "type": "DIALOG",
        "aliasList": [
          "20352"
        ],
        "dialogID": 722391903,
        "protectTime": 0.5
      }
    ],
    [
      {
        "$type": "PKKMAMONGEO",
        "type": "DIALOG",
        "aliasList": [
          "20352"
        ],
        "dialogID": 722391904,
        "protectTime": 0.5
      },
      {
        "$type": "HDGKHDNFMIM",
        "type": "DIALOG_SELECT",
        "delayTime": 0.4000000059604645,
        "aliasList": [
          "Avatar"
        ],
        "dialogIDList": [
          722391905
        ],
        "grpIDList": [
          4192119613
        ],
        "useGrpId": true
      }
    ],
    [
      {
        "$type": "PKKMAMONGEO",
        "type": "DIALOG",
        "aliasList": [
          "20352"
        ],
        "dialogID": 722391906,
        "protectTime": 0.5
      }
    ],
    [
      {
        "$type": "PKKMAMONGEO",
        "type": "DIALOG",
        "aliasList": [
          "20352"
        ],
        "dialogID": 722391907,
        "protectTime": 0.5
      }
    ],
    [
      {
        "$type": "PKKMAMONGEO",
        "type": "DIALOG",
        "aliasList": [
          "1005"
        ],
        "dialogID": 722391908,
        "protectTime": 0.5
      }
    ],
    [
      {
        "$type": "PKKMAMONGEO",
        "type": "DIALOG",
        "aliasList": [
          "20352"
        ],
        "dialogID": 722391909,
        "protectTime": 0.5
      }
    ],
    [
      {
        "$type": "PKKMAMONGEO",
        "type": "DIALOG",
        "aliasList": [
          "20352"
        ],
        "dialogID": 722391910,
        "protectTime": 0.5
      }
    ],
    [
      {
        "$type": "PKKMAMONGEO",
        "type": "DIALOG",
        "aliasList": [
          "1005"
        ],
        "dialogID": 722391911,
        "protectTime": 0.5
      }
    ],
    [
      {
        "$type": "PKKMAMONGEO",
        "type": "DIALOG",
        "aliasList": [
          "1005"
        ],
        "dialogID": 722391912,
        "protectTime": 0.5
      }
    ],
    [
      {
        "$type": "PKKMAMONGEO",
        "type": "DIALOG",
        "aliasList": [
          "20352"
        ],
        "dialogID": 722391913,
        "protectTime": 0.5
      }
    ],
    [
      {
        "$type": "PKKMAMONGEO",
        "type": "DIALOG",
        "aliasList": [
          "20352"
        ],
        "dialogID": 722391914,
        "protectTime": 0.5
      }
    ],
    [
      {
        "$type": "PKKMAMONGEO",
        "type": "DIALOG",
        "aliasList": [
          "20352"
        ],
        "dialogID": 722391915,
        "protectTime": 0.5
      },
      {
        "$type": "HDGKHDNFMIM",
        "type": "DIALOG_SELECT",
        "delayTime": 0.4000000059604645,
        "aliasList": [
          "Avatar"
        ],
        "dialogIDList": [
          722391916
        ],
        "grpIDList": [
          1106689052
        ],
        "useGrpId": true
      }
    ],
    [
      {
        "$type": "PKKMAMONGEO",
        "type": "DIALOG",
        "aliasList": [
          "20352"
        ],
        "dialogID": 722391917,
        "protectTime": 0.5
      }
    ],
    [
      {
        "$type": "PKKMAMONGEO",
        "type": "DIALOG",
        "aliasList": [
          "1005"
        ],
        "dialogID": 722391918,
        "protectTime": 0.5
      }
    ],
    [
      {
        "$type": "PKKMAMONGEO",
        "type": "DIALOG",
        "aliasList": [
          "20352"
        ],
        "dialogID": 722391919,
        "protectTime": 0.5
      }
    ],
    [
      {
        "$type": "PKKMAMONGEO",
        "type": "DIALOG",
        "aliasList": [
          "20352"
        ],
        "dialogID": 722391920,
        "protectTime": 0.5
      }
    ],
    [
      {
        "$type": "PKKMAMONGEO",
        "type": "DIALOG",
        "aliasList": [
          "20352"
        ],
        "dialogID": 722391921,
        "protectTime": 0.5
      }
    ],
    [
      {
        "$type": "PKKMAMONGEO",
        "type": "DIALOG",
        "aliasList": [
          "20352"
        ],
        "dialogID": 722391922,
        "protectTime": 0.5
      }
    ],
    [
      {
        "$type": "PKKMAMONGEO",
        "type": "DIALOG",
        "aliasList": [
          "1005"
        ],
        "dialogID": 722391923,
        "protectTime": 0.5
      }
    ],
    [
      {
        "$type": "PKKMAMONGEO",
        "type": "DIALOG",
        "aliasList": [
          "20352"
        ],
        "dialogID": 722391924,
        "protectTime": 0.5
      }
    ],
    [
      {
        "$type": "PKKMAMONGEO",
        "type": "DIALOG",
        "aliasList": [
          "20352"
        ],
        "dialogID": 722391925,
        "protectTime": 0.5
      }
    ],
    [
      {
        "$type": "PKKMAMONGEO",
        "type": "DIALOG",
        "aliasList": [
          "20352"
        ],
        "dialogID": 722391926,
        "protectTime": 0.5
      },
      {
        "$type": "HDGKHDNFMIM",
        "type": "DIALOG_SELECT",
        "delayTime": 0.4000000059604645,
        "aliasList": [
          "Avatar"
        ],
        "dialogIDList": [
          722391927
        ],
        "grpIDList": [
          1106689083
        ],
        "useGrpId": true
      }
    ],
    [
      {
        "$type": "PKKMAMONGEO",
        "type": "DIALOG",
        "aliasList": [
          "20352"
        ],
        "dialogID": 722391928,
        "protectTime": 0.5
      }
    ],
    [
      {
        "$type": "PKKMAMONGEO",
        "type": "DIALOG",
        "aliasList": [
          "20352"
        ],
        "dialogID": 722391929,
        "protectTime": 0.5
      }
    ],
    [
      {
        "$type": "PKKMAMONGEO",
        "type": "DIALOG",
        "aliasList": [
          "1005"
        ],
        "dialogID": 722391930,
        "protectTime": 0.5
      }
    ],
    [
      {
        "$type": "PKKMAMONGEO",
        "type": "DIALOG",
        "aliasList": [
          "20352"
        ],
        "dialogID": 722391931,
        "protectTime": 0.5
      }
    ],
    [
      {
        "$type": "PKKMAMONGEO",
        "type": "DIALOG",
        "aliasList": [
          "20352"
        ],
        "dialogID": 722391932,
        "protectTime": 0.5
      }
    ],
    [
      {
        "$type": "PKKMAMONGEO",
        "type": "DIALOG",
        "aliasList": [
          "20352"
        ],
        "dialogID": 722391933,
        "protectTime": 0.5
      }
    ],
    [
      {
        "$type": "PKKMAMONGEO",
        "type": "DIALOG",
        "aliasList": [
          "20352"
        ],
        "dialogID": 722391934,
        "protectTime": 0.5
      }
    ],
    [
      {
        "$type": "PKKMAMONGEO",
        "type": "DIALOG",
        "aliasList": [
          "1005"
        ],
        "dialogID": 722391935,
        "protectTime": 0.5
      }
    ],
    [
      {
        "$type": "PKKMAMONGEO",
        "type": "DIALOG",
        "aliasList": [
          "20352"
        ],
        "dialogID": 722391948,
        "protectTime": 0.5
      }
    ],
    [
      {
        "$type": "PKKMAMONGEO",
        "type": "DIALOG",
        "aliasList": [
          "20352"
        ],
        "dialogID": 722391949,
        "protectTime": 0.5
      }
    ],
    [
      {
        "$type": "PKKMAMONGEO",
        "type": "DIALOG",
        "aliasList": [
          "20352"
        ],
        "dialogID": 722391936,
        "protectTime": 0.5
      }
    ],
    [
      {
        "$type": "PKKMAMONGEO",
        "type": "DIALOG",
        "aliasList": [
          "20352"
        ],
        "dialogID": 722391947,
        "protectTime": 0.5
      }
    ],
    [
      {
        "$type": "PKKMAMONGEO",
        "type": "DIALOG",
        "aliasList": [
          "20352"
        ],
        "dialogID": 722391950,
        "protectTime": 0.5
      }
    ],
    [
      {
        "$type": "PKKMAMONGEO",
        "type": "DIALOG",
        "aliasList": [
          "20352"
        ],
        "dialogID": 722391937,
        "protectTime": 0.5
      }
    ],
    [
      {
        "$type": "PKKMAMONGEO",
        "type": "DIALOG",
        "aliasList": [
          "20352"
        ],
        "dialogID": 722391938,
        "protectTime": 0.5
      },
      {
        "$type": "HDGKHDNFMIM",
        "type": "DIALOG_SELECT",
        "delayTime": 0.4000000059604645,
        "aliasList": [
          "Avatar"
        ],
        "dialogIDList": [
          722391939,
          722391940
        ],
        "grpIDList": [
          1106689140,
          1106689116
        ],
        "useGrpId": true
      }
    ],
    [
      {
        "$type": "PKKMAMONGEO",
        "type": "DIALOG",
        "aliasList": [
          "20352"
        ],
        "dialogID": 722391941,
        "protectTime": 0.5
      }
    ],
    [
      {
        "$type": "PKKMAMONGEO",
        "type": "DIALOG",
        "aliasList": [
          "20352"
        ],
        "dialogID": 722391942,
        "protectTime": 0.5
      }
    ],
    [
      {
        "$type": "PKKMAMONGEO",
        "type": "DIALOG",
        "aliasList": [
          "20352"
        ],
        "dialogID": 722391943,
        "protectTime": 0.5
      }
    ],
    [
      {
        "$type": "PKKMAMONGEO",
        "type": "DIALOG",
        "aliasList": [
          "20352"
        ],
        "dialogID": 722391944,
        "protectTime": 0.5
      }
    ],
    [
      {
        "$type": "PKKMAMONGEO",
        "type": "DIALOG",
        "aliasList": [
          "20352"
        ],
        "dialogID": 722391945,
        "protectTime": 0.5
      }
    ],
    [
      {
        "$type": "PKKMAMONGEO",
        "type": "DIALOG",
        "aliasList": [
          "20352"
        ],
        "dialogID": 722391946,
        "protectTime": 0.5
      }
    ],
    [
      {
        "$type": "MoleMole.Config.ConfigTimeProtectAction",
        "type": "TIME_PROTECT",
        "duration": 0.699999988079071
      },
      {
        "$type": "MoleMole.Config.ConfigSimpleBlackScreenAction",
        "type": "SIMPLE_BLACK_SCREEN",
        "durationToBlack": 0.5,
        "durationKeepBlack": 1.0,
        "durationFromBlack": 0.5,
        "textMapID": ""
      },
      {
        "$type": "MoleMole.Config.ConfigTimeProtectAction",
        "type": "TIME_PROTECT",
        "duration": 0.10000000149011612
      }
    ]
  ],
  "groupId": [
    {
      "grpId": 4192119609,
      "nextGrpId": 4192119610
    },
    {
      "index": 1,
      "grpId": 4192119610,
      "nextGrpId": 4192119611
    },
    {
      "index": 2,
      "grpId": 4192119611,
      "nextGrpId": 4192119612
    },
    {
      "index": 3,
      "grpId": 4192119612,
      "nextGrpId": 4192119613
    },
    {
      "index": 4,
      "grpId": 4192119613,
      "nextGrpId": 4192119614
    },
    {
      "index": 5,
      "grpId": 4192119614,
      "nextGrpId": 4192119615
    },
    {
      "index": 6,
      "grpId": 4192119615,
      "nextGrpId": 4192119616
    },
    {
      "index": 7,
      "grpId": 4192119616,
      "nextGrpId": 4192119617
    },
    {
      "index": 8,
      "grpId": 4192119617,
      "nextGrpId": 1106689047
    },
    {
      "index": 9,
      "grpId": 1106689047,
      "nextGrpId": 1106689048
    },
    {
      "index": 10,
      "grpId": 1106689048,
      "nextGrpId": 1106689049
    },
    {
      "index": 11,
      "grpId": 1106689049,
      "nextGrpId": 1106689050
    },
    {
      "index": 12,
      "grpId": 1106689050,
      "nextGrpId": 1106689051
    },
    {
      "index": 13,
      "grpId": 1106689051,
      "nextGrpId": 1106689052
    },
    {
      "index": 14,
      "grpId": 1106689052,
      "nextGrpId": 1106689053
    },
    {
      "index": 15,
      "grpId": 1106689053,
      "nextGrpId": 1106689054
    },
    {
      "index": 16,
      "grpId": 1106689054,
      "nextGrpId": 1106689055
    },
    {
      "index": 17,
      "grpId": 1106689055,
      "nextGrpId": 1106689056
    },
    {
      "index": 18,
      "grpId": 1106689056,
      "nextGrpId": 1106689078
    },
    {
      "index": 19,
      "grpId": 1106689078,
      "nextGrpId": 1106689079
    },
    {
      "index": 20,
      "grpId": 1106689079,
      "nextGrpId": 1106689080
    },
    {
      "index": 21,
      "grpId": 1106689080,
      "nextGrpId": 1106689081
    },
    {
      "index": 22,
      "grpId": 1106689081,
      "nextGrpId": 1106689082
    },
    {
      "index": 23,
      "grpId": 1106689082,
      "nextGrpId": 1106689083
    },
    {
      "index": 24,
      "grpId": 1106689083,
      "nextGrpId": 1106689084
    },
    {
      "index": 25,
      "grpId": 1106689084,
      "nextGrpId": 1106689085
    },
    {
      "index": 26,
      "grpId": 1106689085,
      "nextGrpId": 1106689086
    },
    {
      "index": 27,
      "grpId": 1106689086,
      "nextGrpId": 1106689087
    },
    {
      "index": 28,
      "grpId": 1106689087,
      "nextGrpId": 1106689109
    },
    {
      "index": 29,
      "grpId": 1106689109,
      "nextGrpId": 1106689110
    },
    {
      "index": 30,
      "grpId": 1106689110,
      "nextGrpId": 1106689111
    },
    {
      "index": 31,
      "grpId": 1106689111,
      "nextGrpId": 1106689112
    },
    {
      "index": 32,
      "grpId": 1106689112,
      "nextGrpId": 1106689113
    },
    {
      "index": 33,
      "grpId": 1106689113,
      "nextGrpId": 1106689114
    },
    {
      "index": 34,
      "grpId": 1106689114,
      "nextGrpId": 1106689115
    },
    {
      "index": 35,
      "grpId": 1106689115,
      "nextGrpId": 1106689116
    },
    {
      "index": 36,
      "grpId": 1106689116,
      "nextGrpId": 1106689117
    },
    {
      "index": 37,
      "grpId": 1106689117,
      "nextGrpId": 1106689118
    },
    {
      "index": 38,
      "grpId": 1106689118,
      "nextGrpId": 1106689140
    },
    {
      "index": 39,
      "grpId": 1106689140,
      "nextGrpId": 1106689141
    },
    {
      "index": 40,
      "grpId": 1106689141,
      "nextGrpId": 1106689142
    },
    {
      "index": 41,
      "grpId": 1106689142,
      "nextGrpId": 1106689143
    },
    {
      "index": 42,
      "grpId": 1106689143,
      "nextGrpId": 1106689144
    },
    {
      "index": 43,
      "grpId": 1106689144,
      "nextGrpId": 1106689145
    },
    {
      "index": 44,
      "grpId": 1106689145,
      "nextGrpId": 1106689146
    },
    {
      "index": 45,
      "grpId": 1106689146,
      "nextGrpId": 1106689147
    }
  ]
}