{
  "luaDataPath": "",
  "dontUseDefaultFinish": true,
  "startBlackKeepTime": 0.6000000238418579,
  "entityBan": "10501_Dialog",
  "startFade": {
    "startFadeInDuration": 0.30000001192092896,
    "startFadeOutDuration": 0.30000001192092896
  },
  "endFade": {
    "startFadeOutDuration": 0.0
  },
  "actors": [
    {
      "alias": "Avatar",
      "visible": true,
      "bornPointName": "",
      "relativePosNpcAlias": "",
      "_bindMovingTargetKey": ""
    },
    {
      "configID": 1005,
      "alias": "1005",
      "visible": true,
      "bornPointName": "Q10501PaimonSpawn2",
      "relativePosNpcAlias": "",
      "_bindMovingTargetKey": ""
    },
    {
      "configID": 10095,
      "alias": "10095",
      "visible": true,
      "bornPointName": "",
      "relativePosNpcAlias": "",
      "_bindMovingTargetKey": ""
    },
    {
      "configID": 220601,
      "alias": "220601",
      "bornPointName": "",
      "relativePosNpcAlias": "",
      "_bindMovingTargetKey": ""
    }
  ],
  "group": [
    [
      {
        "$type": "MoleMole.Config.ConfigLuaAction",
        "type": "LUA_ACTION",
        "duration": 0.10000000149011612,
        "invoke": true,
        "invokeAlias": "10501",
        "invokeParam": 8
      },
      {
        "$type": "FJKIHHKJLMJ",
        "type": "CAMERA_MOVE",
        "delayTime": 0.009999999776482582,
        "duration": 25.0,
        "camPosOffset": {
          "x": 940.2499389648438,
          "y": 214.283935546875,
          "z": 347.098388671875
        },
        "camForwardTargetOffset": {
          "x": 939.2702026367188,
          "y": 214.125,
          "z": 346.9766845703125
        },
        "camFov": 35.0,
        "lerpPattern": 1,
        "cameraBlendType": "EaseOutQuad",
        "NJBNNOMLKCK": {},
        "targetNpcAlias": "",
        "KJOEFBPOIIH": "",
        "IICFKKEBIEC": "",
        "EGEHEJEBLBJ": ""
      },
      {
        "$type": "FJKIHHKJLMJ",
        "type": "CAMERA_MOVE",
        "duration": 1.0,
        "camPosOffset": {
          "x": 940.19189453125,
          "y": 214.3717498779297,
          "z": 345.8973083496094
        },
        "camForwardTargetOffset": {
          "x": 939.2255859375,
          "y": 214.19210815429688,
          "z": 346.0815734863281
        },
        "camFov": 35.0,
        "lerpPattern": 6,
        "cameraBlendType": "EaseInOutCubic",
        "NJBNNOMLKCK": {},
        "targetNpcAlias": "",
        "KJOEFBPOIIH": "",
        "IICFKKEBIEC": "",
        "EGEHEJEBLBJ": ""
      },
      {
        "$type": "MoleMole.Config.ConfigTimeProtectAction",
        "type": "TIME_PROTECT",
        "duration": 2.0
      },
      {
        "$type": "LJLMDHDCAMK",
        "type": "LOOK_AT",
        "delayTime": 1.0,
        "aliasList": [
          "Avatar"
        ],
        "enableHead": true,
        "headTurnTime": 0.4000000059604645,
        "targetNpcAlias": "10095",
        "targetNpcLookAtPoint": "",
        "OAFJBHJHLJG": ""
      },
      {
        "$type": "MoleMole.Config.ConfigSitOrStandAction",
        "type": "SIT_OR_STAND",
        "aliasList": [
          "Avatar"
        ],
        "isSit": true
      },
      {
        "$type": "PKKMAMONGEO",
        "type": "DIALOG",
        "delayTime": 0.6000000238418579,
        "aliasList": [
          "1005"
        ],
        "dialogID": 105010101
      },
      {
        "$type": "MoleMole.Config.ConfigMoveToAction",
        "type": "MOVE_TO",
        "aliasList": [
          "1005"
        ],
        "routeList": [
          {
            "x": 936.06640625,
            "y": 212.77969360351562,
            "z": 346.50982666015625
          }
        ],
        "_bindMovingTargetKey": ""
      },
      {
        "$type": "LLGANGLOEEO",
        "type": "STEER_TO",
        "delayTime": 0.30000001192092896,
        "aliasList": [
          "1005"
        ],
        "steerDir": {
          "x": 0.8906681537628174,
          "z": -0.454653799533844
        },
        "targetNpcAlias": "",
        "OAFJBHJHLJG": ""
      },
      {
        "$type": "FABLGECDBCH",
        "type": "BODY_LANG",
        "delayTime": 2.4244468212127686,
        "aliasList": [
          "1005"
        ],
        "bodyLangParam": 1190,
        "eventPatternSuiteKey": "",
        "FOHHKFAIAAJ": ""
      },
      {
        "$type": "LJLMDHDCAMK",
        "type": "LOOK_AT",
        "delayTime": 0.30000001192092896,
        "aliasList": [
          "1005"
        ],
        "enableHead": true,
        "headTurnTime": 0.4000000059604645,
        "targetNpcAlias": "10095",
        "targetNpcLookAtPoint": "",
        "OAFJBHJHLJG": ""
      },
      {
        "$type": "CPJKOIHIPBE",
        "type": "EMO_SYNC",
        "delayTime": 0.6000000238418579,
        "aliasList": [
          "1005"
        ],
        "dataPath": "Cs_Emo_Avatar_Simple_Common_Set/Cs_Emo_Avatar_Talk/Cs_Emo_Avatar_PersonalLine/Cs_Emo_Avatar_MoNa/Cs_Emo_105010101P",
        "phonemePath": "",
        "emotionPath": "",
        "mateDataPath": "",
        "matePhonemePath": "",
        "mateEmotionPath": "",
        "dataPathHashList": [
          5500154129501493951,
          1136892156095392402,
          690647878255669214,
          14692514415895500955
        ],
        "FMDPBECPELH": "",
        "ADKBLPOKGIK": ""
      },
      {
        "$type": "LJLMDHDCAMK",
        "type": "LOOK_AT",
        "aliasList": [
          "10095"
        ],
        "enableHead": true,
        "headRotateVec": {
          "y": -5.0
        },
        "headTurnTime": 0.10000000149011612,
        "targetNpcAlias": "",
        "targetNpcLookAtPoint": "",
        "OAFJBHJHLJG": ""
      },
      {
        "$type": "MoleMole.Config.ConfigVisibleInterAction",
        "type": "VISIBLE",
        "aliasList": [
          "220601"
        ],
        "_extraParam": ""
      }
    ],
    [
      {
        "$type": "PKKMAMONGEO",
        "type": "DIALOG",
        "aliasList": [
          "10095"
        ],
        "dialogID": 105010102
      },
      {
        "$type": "LJLMDHDCAMK",
        "type": "LOOK_AT",
        "delayTime": 4.8378472328186035,
        "aliasList": [
          "10095"
        ],
        "enableHead": true,
        "headTurnTime": 0.6000000238418579,
        "targetNpcAlias": "Avatar",
        "targetNpcLookAtPoint": "",
        "OAFJBHJHLJG": ""
      },
      {
        "$type": "LJLMDHDCAMK",
        "type": "LOOK_AT",
        "delayTime": 1.2244470119476318,
        "aliasList": [
          "10095"
        ],
        "enableHead": true,
        "headRotateVec": {
          "x": -10.0,
          "y": -20.0
        },
        "headTurnTime": 0.5,
        "targetNpcAlias": "",
        "targetNpcLookAtPoint": "",
        "OAFJBHJHLJG": ""
      },
      {
        "$type": "LJLMDHDCAMK",
        "type": "LOOK_AT",
        "aliasList": [
          "10095"
        ],
        "enableHead": true,
        "headTurnTime": 0.4000000059604645,
        "targetNpcAlias": "Avatar",
        "targetNpcLookAtPoint": "",
        "OAFJBHJHLJG": ""
      },
      {
        "$type": "CPJKOIHIPBE",
        "type": "EMO_SYNC",
        "aliasList": [
          "10095"
        ],
        "dataPath": "Cs_Emo_Avatar_Simple_Common_Set/Cs_Emo_Avatar_Talk/Cs_Emo_Avatar_PersonalLine/Cs_Emo_Avatar_MoNa/Cs_Emo_105010102A",
        "phonemePath": "",
        "emotionPath": "",
        "mateDataPath": "",
        "matePhonemePath": "",
        "mateEmotionPath": "",
        "dataPathHashList": [
          17280726114405234982,
          10586293589494458267,
          13219633265552889758,
          607524342791119176
        ],
        "FMDPBECPELH": "",
        "ADKBLPOKGIK": ""
      }
    ]
  ],
  "groupId": [
    {
      "grpId": 2346473430,
      "nextGrpId": 2346473431
    },
    {
      "index": 1,
      "grpId": 2346473431,
      "nextGrpId": 2346473432
    }
  ],
  "freeStyleDic": {
    "10095": [],
    "220601": []
  }
}