{
  "luaDataPath": "",
  "startBlackKeepTime": 0.10000000149011612,
  "entityBan": "",
  "startFade": {
    "startFadeInDuration": 0.30000001192092896,
    "startFadeOutDuration": 0.30000001192092896
  },
  "endFade": {
    "startFadeOutDuration": 0.0
  },
  "actors": [
    {
      "alias": "Avatar",
      "visible": true,
      "bornPointName": "Q37114Player",
      "relativePosNpcAlias": "",
      "_bindMovingTargetKey": ""
    },
    {
      "configID": 1243,
      "alias": "1243",
      "visible": true,
      "bornPointName": "Q37114Paimon",
      "relativePosNpcAlias": "",
      "_bindMovingTargetKey": ""
    }
  ],
  "group": [
    [
      {
        "$type": "FJKIHHKJLMJ",
        "type": "CAMERA_MOVE",
        "duration": 1.0,
        "camPosOffset": {
          "x": 2325.044189453125,
          "y": 225.63926696777344,
          "z": -829.2866821289062
        },
        "camForwardTargetOffset": {
          "x": 2325.31689453125,
          "y": 225.48333740234375,
          "z": -828.3372802734375
        },
        "camFov": 20.0,
        "lerpRatio": 6.0,
        "lerpPattern": 6,
        "NJBNNOMLKCK": {},
        "targetNpcAlias": "",
        "KJOEFBPOIIH": "",
        "IICFKKEBIEC": "",
        "EGEHEJEBLBJ": ""
      },
      {
        "$type": "LJLMDHDCAMK",
        "type": "LOOK_AT",
        "aliasList": [
          "Avatar"
        ],
        "enableHead": true,
        "useTargetPos": true,
        "enableAbsolute": true,
        "targetPosition": {
          "x": 2326.220458984375,
          "y": 224.4773712158203,
          "z": -825.4376831054688
        },
        "headTurnTime": 0.20000000298023224,
        "targetNpcAlias": "",
        "targetNpcLookAtPoint": "",
        "OAFJBHJHLJG": ""
      },
      {
        "$type": "PKKMAMONGEO",
        "type": "DIALOG",
        "aliasList": [
          "1243"
        ],
        "dialogID": 3711501
      },
      {
        "$type": "FABLGECDBCH",
        "type": "BODY_LANG",
        "aliasList": [
          "1243"
        ],
        "bodyLangParam": 1190,
        "eventPatternSuiteKey": "",
        "FOHHKFAIAAJ": ""
      },
      {
        "$type": "LJLMDHDCAMK",
        "type": "LOOK_AT",
        "aliasList": [
          "1243"
        ],
        "enableHead": true,
        "targetPosition": {
          "x": 2326.220458984375,
          "y": 224.4773712158203,
          "z": -825.4376831054688
        },
        "headRotateVec": {
          "y": 30.0
        },
        "headTurnTime": 0.30000001192092896,
        "targetNpcAlias": "",
        "targetNpcLookAtPoint": "",
        "OAFJBHJHLJG": ""
      },
      {
        "$type": "CPJKOIHIPBE",
        "type": "EMO_SYNC",
        "aliasList": [
          "1243"
        ],
        "dataPath": "Cs_Emo_Avatar_Simple_Common_Set/Cs_Emo_Avatar_Talk/Cs_Emo_Avatar_MainLine/Cs_Emo_Avatar_MengDe/Cs_Emo_3711501",
        "phonemePath": "",
        "emotionPath": "",
        "mateDataPath": "",
        "matePhonemePath": "",
        "mateEmotionPath": "",
        "dataPathHashList": [
          4938567155153206143,
          13780851646065436850,
          12384959335673403044,
          8661928987362119854
        ],
        "FMDPBECPELH": "",
        "ADKBLPOKGIK": ""
      }
    ],
    [
      {
        "$type": "FJKIHHKJLMJ",
        "type": "CAMERA_MOVE",
        "delayTime": 0.35962536931037903,
        "duration": 2.0,
        "camPosOffset": {
          "x": 2325.13671875,
          "y": 226.14556884765625,
          "z": -828.6767578125
        },
        "camForwardTargetOffset": {
          "x": 2325.236328125,
          "y": 226.7839813232422,
          "z": -827.9135131835938
        },
        "camFov": 30.0,
        "cameraBlendType": "EaseInOutCubic",
        "NJBNNOMLKCK": {},
        "targetNpcAlias": "",
        "KJOEFBPOIIH": "",
        "IICFKKEBIEC": "",
        "EGEHEJEBLBJ": ""
      },
      {
        "$type": "HDGKHDNFMIM",
        "type": "DIALOG_SELECT",
        "delayTime": 1.0,
        "aliasList": [
          "Avatar"
        ],
        "dialogIDList": [
          3711502
        ],
        "grpIDList": [
          3300827339
        ],
        "useGrpId": true
      },
      {
        "$type": "LJLMDHDCAMK",
        "type": "LOOK_AT",
        "delayTime": 0.26291728019714355,
        "aliasList": [
          "Avatar"
        ],
        "enableHead": true,
        "useTargetPos": true,
        "enableAbsolute": true,
        "targetPosition": {
          "x": 2328.8671875,
          "y": 225.6287841796875,
          "z": -818.6109619140625
        },
        "enableBody": true,
        "bodyAngle": 5.0,
        "headTurnTime": 0.30000001192092896,
        "targetNpcAlias": "",
        "targetNpcLookAtPoint": "",
        "OAFJBHJHLJG": ""
      },
      {
        "$type": "FABLGECDBCH",
        "type": "BODY_LANG",
        "aliasList": [
          "1243"
        ],
        "isContinue": true,
        "bodyLangParam": 1190,
        "eventPatternSuiteKey": "",
        "FOHHKFAIAAJ": ""
      },
      {
        "$type": "LLGANGLOEEO",
        "type": "STEER_TO",
        "duration": 1.0,
        "aliasList": [
          "1243"
        ],
        "useAngle": true,
        "steerAngle": -90.0,
        "targetNpcAlias": "",
        "OAFJBHJHLJG": ""
      },
      {
        "$type": "LJLMDHDCAMK",
        "type": "LOOK_AT",
        "aliasList": [
          "1243"
        ],
        "enableHead": true,
        "useTargetPos": true,
        "enableAbsolute": true,
        "targetPosition": {
          "x": 2328.8671875,
          "y": 225.6287841796875,
          "z": -818.6109619140625
        },
        "headTurnTime": 0.30000001192092896,
        "targetNpcAlias": "",
        "targetNpcLookAtPoint": "",
        "OAFJBHJHLJG": ""
      }
    ],
    [
      {
        "$type": "FJKIHHKJLMJ",
        "type": "CAMERA_MOVE",
        "delayTime": 0.4000000059604645,
        "duration": 0.10000000149011612,
        "camPosOffset": {
          "x": 2325.87646484375,
          "y": 224.97410583496094,
          "z": -829.5491943359375
        },
        "camForwardTargetOffset": {
          "x": 2326.064697265625,
          "y": 225.0275115966797,
          "z": -828.5685424804688
        },
        "lerpPattern": 6,
        "cameraBlendType": "EaseInOutCubic",
        "NJBNNOMLKCK": {},
        "targetNpcAlias": "",
        "KJOEFBPOIIH": "",
        "IICFKKEBIEC": "",
        "EGEHEJEBLBJ": ""
      },
      {
        "$type": "PKKMAMONGEO",
        "type": "DIALOG_CLEAR",
        "delayTime": 0.30000001192092896,
        "protectTime": 0.19999998807907104
      },
      {
        "$type": "MoleMole.Config.ConfigBlackScreenAction",
        "type": "BLACK_SCREEN",
        "duration": 1.0,
        "durationToBlack": 0.30000001192092896,
        "durationKeepBlack": 0.4000000059604645,
        "durationFromBlack": 0.30000001192092896,
        "inteePos": "",
        "textMapID": ""
      },
      {
        "$type": "MoleMole.Config.ConfigTimeProtectAction",
        "type": "TIME_PROTECT",
        "duration": 1.0
      }
    ],
    [
      {
        "$type": "LJLMDHDCAMK",
        "type": "LOOK_AT",
        "aliasList": [
          "Avatar"
        ],
        "targetNpcAlias": "",
        "targetNpcLookAtPoint": "",
        "OAFJBHJHLJG": ""
      },
      {
        "$type": "LJLMDHDCAMK",
        "type": "LOOK_AT",
        "aliasList": [
          "1243"
        ],
        "targetNpcAlias": "",
        "targetNpcLookAtPoint": "",
        "OAFJBHJHLJG": ""
      }
    ]
  ],
  "groupId": [
    {
      "grpId": 3300827337,
      "nextGrpId": 3300827338
    },
    {
      "index": 1,
      "grpId": 3300827338,
      "nextGrpId": 3300827339
    },
    {
      "index": 2,
      "grpId": 3300827339,
      "nextGrpId": 3300827340
    },
    {
      "index": 3,
      "grpId": 3300827340,
      "nextGrpId": 3300827341
    }
  ]
}