{
  "luaDataPath": "",
  "startBlackKeepTime": 0.5,
  "entityBan": "",
  "disableNpcLod": true,
  "isAutoBanNpc": true,
  "isBanWidgetPet": true,
  "protectNpcMobileLod": true,
  "startFade": {
    "startFadeInDuration": 0.5,
    "startFadeOutDuration": 0.5
  },
  "endFade": {
    "startFadeOutDuration": 0.0
  },
  "actors": [
    {
      "alias": "Avatar",
      "visible": true,
      "bornPointName": "N10000005_T7902306",
      "relativePosNpcAlias": "",
      "_bindMovingTargetKey": ""
    },
    {
      "configID": 20623,
      "alias": "20623",
      "visible": true,
      "bornPointName": "Q7902301_N20623",
      "relativePosNpcAlias": "",
      "_bindMovingTargetKey": ""
    },
    {
      "configID": 20622,
      "alias": "20622",
      "visible": true,
      "bornPointName": "Q7902308_N20622",
      "relativePosNpcAlias": "",
      "_bindMovingTargetKey": ""
    },
    {
      "configID": 1005,
      "alias": "1005",
      "visible": true,
      "bornPointName": "",
      "useRelativePos": true,
      "relativePos": {
        "x": -0.5,
        "z": 0.5
      },
      "removeActorType": "REMOVE_WITH_DISAPPEAR",
      "relativePosNpcAlias": "",
      "_bindMovingTargetKey": ""
    }
  ],
  "group": [
    [
      {
        "$type": "MoleMole.Config.ConfigTimeProtectAction",
        "type": "TIME_PROTECT",
        "duration": 0.10000000149011612
      },
      {
        "$type": "FJKIHHKJLMJ",
        "type": "CAMERA_FOCUS",
        "delayTime": 0.5080000162124634,
        "duration": 1.0,
        "actionId": 165,
        "targetNpcAlias": "",
        "KJOEFBPOIIH": "",
        "IICFKKEBIEC": "",
        "EGEHEJEBLBJ": ""
      }
    ],
    [
      {
        "$type": "PKKMAMONGEO",
        "type": "DIALOG",
        "aliasList": [
          "20623"
        ],
        "dialogID": 790230601,
        "protectTime": 0.5
      }
    ],
    [
      {
        "$type": "PKKMAMONGEO",
        "type": "DIALOG",
        "aliasList": [
          "20623"
        ],
        "dialogID": 790230602,
        "protectTime": 0.5
      }
    ],
    [
      {
        "$type": "PKKMAMONGEO",
        "type": "DIALOG",
        "aliasList": [
          "20622"
        ],
        "dialogID": 790230603,
        "protectTime": 0.5
      }
    ],
    [
      {
        "$type": "PKKMAMONGEO",
        "type": "DIALOG",
        "aliasList": [
          "1005"
        ],
        "dialogID": 790230604,
        "protectTime": 0.5
      }
    ],
    [
      {
        "$type": "PKKMAMONGEO",
        "type": "DIALOG",
        "aliasList": [
          "20622"
        ],
        "dialogID": 790230605,
        "protectTime": 0.5
      }
    ],
    [
      {
        "$type": "PKKMAMONGEO",
        "type": "DIALOG",
        "aliasList": [
          "20622"
        ],
        "dialogID": 790230606,
        "protectTime": 0.5
      }
    ],
    [
      {
        "$type": "PKKMAMONGEO",
        "type": "DIALOG",
        "aliasList": [
          "20622"
        ],
        "dialogID": 790230607,
        "protectTime": 0.5
      }
    ],
    [
      {
        "$type": "PKKMAMONGEO",
        "type": "DIALOG",
        "aliasList": [
          "20623"
        ],
        "dialogID": 790230608,
        "protectTime": 0.5
      }
    ],
    [
      {
        "$type": "PKKMAMONGEO",
        "type": "DIALOG",
        "aliasList": [
          "1005"
        ],
        "dialogID": 790230609,
        "protectTime": 0.5
      }
    ],
    [
      {
        "$type": "PKKMAMONGEO",
        "type": "DIALOG",
        "aliasList": [
          "20622"
        ],
        "dialogID": 790230610,
        "protectTime": 0.5
      }
    ],
    [
      {
        "$type": "PKKMAMONGEO",
        "type": "DIALOG",
        "aliasList": [
          "1005"
        ],
        "dialogID": 790230611,
        "protectTime": 0.5
      }
    ],
    [
      {
        "$type": "PKKMAMONGEO",
        "type": "DIALOG",
        "aliasList": [
          "20622"
        ],
        "dialogID": 790230612,
        "protectTime": 0.5
      }
    ],
    [
      {
        "$type": "PKKMAMONGEO",
        "type": "DIALOG",
        "aliasList": [
          "20622"
        ],
        "dialogID": 790230613,
        "protectTime": 0.5
      }
    ],
    [
      {
        "$type": "PKKMAMONGEO",
        "type": "DIALOG",
        "aliasList": [
          "20622"
        ],
        "dialogID": 790230614,
        "protectTime": 0.5
      }
    ],
    [
      {
        "$type": "PKKMAMONGEO",
        "type": "DIALOG",
        "aliasList": [
          "20622"
        ],
        "dialogID": 790230615,
        "protectTime": 0.5
      }
    ],
    [
      {
        "$type": "PKKMAMONGEO",
        "type": "DIALOG",
        "aliasList": [
          "1005"
        ],
        "dialogID": 790230616,
        "protectTime": 0.5
      }
    ],
    [
      {
        "$type": "PKKMAMONGEO",
        "type": "DIALOG",
        "aliasList": [
          "20622"
        ],
        "dialogID": 790230617,
        "protectTime": 0.5
      }
    ],
    [
      {
        "$type": "PKKMAMONGEO",
        "type": "DIALOG",
        "aliasList": [
          "1005"
        ],
        "dialogID": 790230618,
        "protectTime": 0.5
      }
    ],
    [
      {
        "$type": "PKKMAMONGEO",
        "type": "DIALOG",
        "aliasList": [
          "20622"
        ],
        "dialogID": 790230619,
        "protectTime": 0.5
      }
    ],
    [
      {
        "$type": "PKKMAMONGEO",
        "type": "DIALOG",
        "aliasList": [
          "20622"
        ],
        "dialogID": 790230620,
        "protectTime": 0.5
      }
    ],
    [
      {
        "$type": "PKKMAMONGEO",
        "type": "DIALOG",
        "aliasList": [
          "20622"
        ],
        "dialogID": 790230621,
        "protectTime": 0.5
      }
    ],
    [
      {
        "$type": "PKKMAMONGEO",
        "type": "DIALOG",
        "aliasList": [
          "20622"
        ],
        "dialogID": 790230622,
        "protectTime": 0.5
      }
    ],
    [
      {
        "$type": "PKKMAMONGEO",
        "type": "DIALOG",
        "aliasList": [
          "20622"
        ],
        "dialogID": 790230623,
        "protectTime": 0.5
      }
    ],
    [
      {
        "$type": "PKKMAMONGEO",
        "type": "DIALOG",
        "aliasList": [
          "1005"
        ],
        "dialogID": 790230624,
        "protectTime": 0.5
      },
      {
        "$type": "HDGKHDNFMIM",
        "type": "DIALOG_SELECT",
        "delayTime": 0.4000000059604645,
        "aliasList": [
          "Avatar"
        ],
        "dialogIDList": [
          790230625
        ],
        "grpIDList": [
          1463690690
        ],
        "useGrpId": true
      }
    ],
    [
      {
        "$type": "PKKMAMONGEO",
        "type": "DIALOG",
        "aliasList": [
          "20622"
        ],
        "dialogID": 790230626,
        "protectTime": 0.5
      }
    ],
    [
      {
        "$type": "PKKMAMONGEO",
        "type": "DIALOG",
        "aliasList": [
          "20622"
        ],
        "dialogID": 790230627,
        "protectTime": 0.5
      }
    ],
    [
      {
        "$type": "PKKMAMONGEO",
        "type": "DIALOG",
        "aliasList": [
          "20622"
        ],
        "dialogID": 790230628,
        "protectTime": 0.5
      }
    ],
    [
      {
        "$type": "PKKMAMONGEO",
        "type": "DIALOG",
        "aliasList": [
          "20622"
        ],
        "dialogID": 790230629,
        "protectTime": 0.5
      }
    ],
    [
      {
        "$type": "MoleMole.Config.ConfigTimeProtectAction",
        "type": "TIME_PROTECT",
        "duration": 0.10000000149011612
      },
      {
        "$type": "MoleMole.Config.ConfigSimpleBlackScreenAction",
        "type": "SIMPLE_BLACK_SCREEN",
        "durationToBlack": 0.5,
        "durationKeepBlack": 1.0,
        "durationFromBlack": 0.5,
        "textMapID": ""
      },
      {
        "$type": "MoleMole.Config.ConfigTimeProtectAction",
        "type": "TIME_PROTECT",
        "duration": 0.699999988079071
      }
    ]
  ],
  "groupId": [
    {
      "grpId": 1155594483,
      "nextGrpId": 1155594484
    },
    {
      "index": 1,
      "grpId": 1155594484,
      "nextGrpId": 1155594485
    },
    {
      "index": 2,
      "grpId": 1155594485,
      "nextGrpId": 1155594486
    },
    {
      "index": 3,
      "grpId": 1155594486,
      "nextGrpId": 1155594487
    },
    {
      "index": 4,
      "grpId": 1155594487,
      "nextGrpId": 1155594488
    },
    {
      "index": 5,
      "grpId": 1155594488,
      "nextGrpId": 1155594489
    },
    {
      "index": 6,
      "grpId": 1155594489,
      "nextGrpId": 1155594490
    },
    {
      "index": 7,
      "grpId": 1155594490,
      "nextGrpId": 1155594491
    },
    {
      "index": 8,
      "grpId": 1155594491,
      "nextGrpId": 1463690653
    },
    {
      "index": 9,
      "grpId": 1463690653,
      "nextGrpId": 1463690654
    },
    {
      "index": 10,
      "grpId": 1463690654,
      "nextGrpId": 1463690655
    },
    {
      "index": 11,
      "grpId": 1463690655,
      "nextGrpId": 1463690656
    },
    {
      "index": 12,
      "grpId": 1463690656,
      "nextGrpId": 1463690657
    },
    {
      "index": 13,
      "grpId": 1463690657,
      "nextGrpId": 1463690658
    },
    {
      "index": 14,
      "grpId": 1463690658,
      "nextGrpId": 1463690659
    },
    {
      "index": 15,
      "grpId": 1463690659,
      "nextGrpId": 1463690660
    },
    {
      "index": 16,
      "grpId": 1463690660,
      "nextGrpId": 1463690661
    },
    {
      "index": 17,
      "grpId": 1463690661,
      "nextGrpId": 1463690662
    },
    {
      "index": 18,
      "grpId": 1463690662,
      "nextGrpId": 1463690684
    },
    {
      "index": 19,
      "grpId": 1463690684,
      "nextGrpId": 1463690685
    },
    {
      "index": 20,
      "grpId": 1463690685,
      "nextGrpId": 1463690686
    },
    {
      "index": 21,
      "grpId": 1463690686,
      "nextGrpId": 1463690687
    },
    {
      "index": 22,
      "grpId": 1463690687,
      "nextGrpId": 1463690688
    },
    {
      "index": 23,
      "grpId": 1463690688,
      "nextGrpId": 1463690689
    },
    {
      "index": 24,
      "grpId": 1463690689,
      "nextGrpId": 1463690690
    },
    {
      "index": 25,
      "grpId": 1463690690,
      "nextGrpId": 1463690691
    },
    {
      "index": 26,
      "grpId": 1463690691,
      "nextGrpId": 1463690692
    },
    {
      "index": 27,
      "grpId": 1463690692,
      "nextGrpId": 1463690693
    },
    {
      "index": 28,
      "grpId": 1463690693,
      "nextGrpId": 1463690715
    },
    {
      "index": 29,
      "grpId": 1463690715,
      "nextGrpId": 1463690716
    }
  ]
}