{
  "luaDataPath": "",
  "isSimpleTalk": true,
  "entityBan": "",
  "disableNpcLod": true,
  "startFade": {
    "startFadeOutDuration": 0.0
  },
  "endFade": {
    "startFadeOutDuration": 0.0
  },
  "actors": [
    {
      "alias": "Avatar",
      "visible": true,
      "bornPointName": "",
      "relativePosNpcAlias": "",
      "_bindMovingTargetKey": ""
    },
    {
      "configID": 20291,
      "alias": "20291",
      "visible": true,
      "bornPointName": "",
      "relativePosNpcAlias": "",
      "_bindMovingTargetKey": ""
    },
    {
      "configID": 1005,
      "alias": "1005",
      "visible": true,
      "bornPointName": "",
      "useRelativePos": true,
      "relativePos": {
        "x": -0.5,
        "z": 0.5
      },
      "removeActorType": "REMOVE_WITH_DISAPPEAR",
      "relativePosNpcAlias": "",
      "_bindMovingTargetKey": ""
    }
  ],
  "group": [
    [
      {
        "$type": "FJKIHHKJLMJ",
        "type": "CAMERA_FOCUS",
        "delayTime": 0.30000001192092896,
        "duration": 0.10000000149011612,
        "targetNpcAlias": "",
        "KJOEFBPOIIH": "",
        "IICFKKEBIEC": "",
        "EGEHEJEBLBJ": ""
      },
      {
        "$type": "MoleMole.Config.ConfigTimeProtectAction",
        "type": "TIME_PROTECT",
        "duration": 0.4000000059604645
      }
    ],
    [
      {
        "$type": "PKKMAMONGEO",
        "type": "DIALOG",
        "aliasList": [
          "20291"
        ],
        "dialogID": 721610101,
        "protectTime": 0.5
      }
    ],
    [
      {
        "$type": "HDGKHDNFMIM",
        "type": "DIALOG_SELECT",
        "delayTime": 0.4000000059604645,
        "aliasList": [
          "Avatar"
        ],
        "dialogIDList": [
          721610103,
          721610104
        ],
        "grpIDList": [
          1975765589,
          1975765589
        ],
        "useGrpId": true
      },
      {
        "$type": "PKKMAMONGEO",
        "type": "DIALOG",
        "aliasList": [
          "1005"
        ],
        "dialogID": 721610102,
        "protectTime": 0.5
      }
    ],
    [
      {
        "$type": "PKKMAMONGEO",
        "type": "DIALOG",
        "aliasList": [
          "20291"
        ],
        "dialogID": 721610105,
        "protectTime": 0.5
      }
    ],
    [
      {
        "$type": "PKKMAMONGEO",
        "type": "DIALOG",
        "aliasList": [
          "1005"
        ],
        "dialogID": 721610106,
        "protectTime": 0.5
      }
    ],
    [
      {
        "$type": "HDGKHDNFMIM",
        "type": "DIALOG_SELECT",
        "delayTime": 0.4000000059604645,
        "aliasList": [
          "Avatar"
        ],
        "dialogIDList": [
          721610108,
          721610109
        ],
        "grpIDList": [
          1975765592,
          1975765592
        ],
        "useGrpId": true
      },
      {
        "$type": "PKKMAMONGEO",
        "type": "DIALOG",
        "aliasList": [
          "20291"
        ],
        "dialogID": 721610107,
        "protectTime": 0.5
      }
    ],
    [
      {
        "$type": "PKKMAMONGEO",
        "type": "DIALOG",
        "aliasList": [
          "20291"
        ],
        "dialogID": 721610110,
        "protectTime": 0.5
      }
    ],
    [
      {
        "$type": "HDGKHDNFMIM",
        "type": "DIALOG_SELECT",
        "delayTime": 0.4000000059604645,
        "aliasList": [
          "Avatar"
        ],
        "dialogIDList": [
          721610112
        ],
        "grpIDList": [
          1975765594
        ],
        "useGrpId": true
      },
      {
        "$type": "PKKMAMONGEO",
        "type": "DIALOG",
        "aliasList": [
          "20291"
        ],
        "dialogID": 721610111,
        "protectTime": 0.5
      }
    ],
    [
      {
        "$type": "PKKMAMONGEO",
        "type": "DIALOG",
        "aliasList": [
          "20291"
        ],
        "dialogID": 721610113,
        "protectTime": 0.5
      }
    ],
    [
      {
        "$type": "HDGKHDNFMIM",
        "type": "DIALOG_SELECT",
        "delayTime": 0.4000000059604645,
        "aliasList": [
          "Avatar"
        ],
        "dialogIDList": [
          721610115,
          721610116
        ],
        "grpIDList": [
          1119191071,
          1119191071
        ],
        "useGrpId": true
      },
      {
        "$type": "PKKMAMONGEO",
        "type": "DIALOG",
        "aliasList": [
          "20291"
        ],
        "dialogID": 721610114,
        "protectTime": 0.5
      }
    ],
    [
      {
        "$type": "PKKMAMONGEO",
        "type": "DIALOG",
        "aliasList": [
          "20291"
        ],
        "dialogID": 721610117,
        "protectTime": 0.5
      }
    ],
    [
      {
        "$type": "PKKMAMONGEO",
        "type": "DIALOG",
        "aliasList": [
          "20291"
        ],
        "dialogID": 721610118,
        "protectTime": 0.5
      }
    ],
    [
      {
        "$type": "PKKMAMONGEO",
        "type": "DIALOG",
        "aliasList": [
          "20291"
        ],
        "dialogID": 721610119,
        "protectTime": 0.5
      }
    ],
    [
      {
        "$type": "PKKMAMONGEO",
        "type": "DIALOG",
        "aliasList": [
          "20291"
        ],
        "dialogID": 721610120,
        "protectTime": 0.5
      }
    ],
    [
      {
        "$type": "PKKMAMONGEO",
        "type": "DIALOG",
        "aliasList": [
          "20291"
        ],
        "dialogID": 721610121,
        "protectTime": 0.5
      }
    ],
    [
      {
        "$type": "HDGKHDNFMIM",
        "type": "DIALOG_SELECT",
        "delayTime": 0.4000000059604645,
        "aliasList": [
          "Avatar"
        ],
        "dialogIDList": [
          721610123
        ],
        "grpIDList": [
          1119191077
        ],
        "useGrpId": true
      },
      {
        "$type": "PKKMAMONGEO",
        "type": "DIALOG",
        "aliasList": [
          "20291"
        ],
        "dialogID": 721610122,
        "protectTime": 0.5
      }
    ],
    [
      {
        "$type": "PKKMAMONGEO",
        "type": "DIALOG",
        "aliasList": [
          "20291"
        ],
        "dialogID": 721610124,
        "protectTime": 0.5
      }
    ],
    [
      {
        "$type": "PKKMAMONGEO",
        "type": "DIALOG",
        "aliasList": [
          "20291"
        ],
        "dialogID": 721610125,
        "protectTime": 0.5
      }
    ],
    [
      {
        "$type": "PKKMAMONGEO",
        "type": "DIALOG",
        "aliasList": [
          "20291"
        ],
        "dialogID": 721610126,
        "protectTime": 0.5
      }
    ],
    [
      {
        "$type": "PKKMAMONGEO",
        "type": "DIALOG",
        "aliasList": [
          "20291"
        ],
        "dialogID": 721610127,
        "protectTime": 0.5
      }
    ],
    [
      {
        "$type": "PKKMAMONGEO",
        "type": "DIALOG",
        "aliasList": [
          "20291"
        ],
        "dialogID": 721610128,
        "protectTime": 0.5
      }
    ],
    [
      {
        "$type": "PKKMAMONGEO",
        "type": "DIALOG",
        "aliasList": [
          "20291"
        ],
        "dialogID": 721610129,
        "protectTime": 0.5
      }
    ],
    [
      {
        "$type": "HDGKHDNFMIM",
        "type": "DIALOG_SELECT",
        "delayTime": 0.4000000059604645,
        "aliasList": [
          "Avatar"
        ],
        "dialogIDList": [
          721610131,
          721610132
        ],
        "grpIDList": [
          1119191105,
          1119191105
        ],
        "useGrpId": true
      },
      {
        "$type": "PKKMAMONGEO",
        "type": "DIALOG",
        "aliasList": [
          "20291"
        ],
        "dialogID": 721610130,
        "protectTime": 0.5
      }
    ],
    [
      {
        "$type": "PKKMAMONGEO",
        "type": "DIALOG",
        "aliasList": [
          "20291"
        ],
        "dialogID": 721610133,
        "protectTime": 0.5
      }
    ],
    [
      {
        "$type": "PKKMAMONGEO",
        "type": "DIALOG",
        "aliasList": [
          "20291"
        ],
        "dialogID": 721610134,
        "protectTime": 0.5
      }
    ],
    [
      {
        "$type": "PKKMAMONGEO",
        "type": "DIALOG",
        "aliasList": [
          "20291"
        ],
        "dialogID": 721610135,
        "protectTime": 0.5
      }
    ],
    [
      {
        "$type": "MoleMole.Config.ConfigTimeProtectAction",
        "type": "TIME_PROTECT",
        "duration": 0.10000000149011612
      }
    ]
  ],
  "groupId": [
    {
      "grpId": 1975765586,
      "nextGrpId": 1975765587
    },
    {
      "index": 1,
      "grpId": 1975765587,
      "nextGrpId": 1975765588
    },
    {
      "index": 2,
      "grpId": 1975765588,
      "nextGrpId": 1975765589
    },
    {
      "index": 3,
      "grpId": 1975765589,
      "nextGrpId": 1975765590
    },
    {
      "index": 4,
      "grpId": 1975765590,
      "nextGrpId": 1975765591
    },
    {
      "index": 5,
      "grpId": 1975765591,
      "nextGrpId": 1975765592
    },
    {
      "index": 6,
      "grpId": 1975765592,
      "nextGrpId": 1975765593
    },
    {
      "index": 7,
      "grpId": 1975765593,
      "nextGrpId": 1975765594
    },
    {
      "index": 8,
      "grpId": 1975765594,
      "nextGrpId": 1119191070
    },
    {
      "index": 9,
      "grpId": 1119191070,
      "nextGrpId": 1119191071
    },
    {
      "index": 10,
      "grpId": 1119191071,
      "nextGrpId": 1119191072
    },
    {
      "index": 11,
      "grpId": 1119191072,
      "nextGrpId": 1119191073
    },
    {
      "index": 12,
      "grpId": 1119191073,
      "nextGrpId": 1119191074
    },
    {
      "index": 13,
      "grpId": 1119191074,
      "nextGrpId": 1119191075
    },
    {
      "index": 14,
      "grpId": 1119191075,
      "nextGrpId": 1119191076
    },
    {
      "index": 15,
      "grpId": 1119191076,
      "nextGrpId": 1119191077
    },
    {
      "index": 16,
      "grpId": 1119191077,
      "nextGrpId": 1119191078
    },
    {
      "index": 17,
      "grpId": 1119191078,
      "nextGrpId": 1119191079
    },
    {
      "index": 18,
      "grpId": 1119191079,
      "nextGrpId": 1119191101
    },
    {
      "index": 19,
      "grpId": 1119191101,
      "nextGrpId": 1119191102
    },
    {
      "index": 20,
      "grpId": 1119191102,
      "nextGrpId": 1119191103
    },
    {
      "index": 21,
      "grpId": 1119191103,
      "nextGrpId": 1119191104
    },
    {
      "index": 22,
      "grpId": 1119191104,
      "nextGrpId": 1119191105
    },
    {
      "index": 23,
      "grpId": 1119191105,
      "nextGrpId": 1119191106
    },
    {
      "index": 24,
      "grpId": 1119191106,
      "nextGrpId": 1119191107
    },
    {
      "index": 25,
      "grpId": 1119191107,
      "nextGrpId": 1119191108
    },
    {
      "index": 26,
      "grpId": 1119191108,
      "nextGrpId": 1119191109
    }
  ]
}