{
  "luaDataPath": "",
  "dontUseDefaultFinish": true,
  "startBlackKeepTime": 0.5,
  "entityBan": "",
  "disableNpcLod": true,
  "isAutoBanNpc": true,
  "isBanWidgetPet": true,
  "protectNpcMobileLod": true,
  "talkFlag": 7,
  "startFade": {
    "startFadeInDuration": 0.5,
    "startFadeOutDuration": 0.5
  },
  "endFade": {
    "startFadeOutDuration": 0.0
  },
  "actors": [
    {
      "alias": "Avatar",
      "visible": true,
      "bornPointName": "[20202_12:-0.807,-0.111,33.445,0.000,183.848,0.000]",
      "relativePosType": "AVATAR_NEW",
      "relativePosNpcAlias": "",
      "_bindMovingTargetKey": ""
    },
    {
      "configID": 13316,
      "alias": "13316",
      "visible": true,
      "bornPointName": "[20202_12:-0.807,-0.111,33.445,0.000,183.848,0.000]",
      "relativePosType": "AVATAR_NEW",
      "relativePosNpcAlias": "",
      "_bindMovingTargetKey": ""
    },
    {
      "configID": 13724,
      "alias": "13724",
      "visible": true,
      "bornPointName": "[20202_12:-0.807,-0.111,33.445,0.000,183.848,0.000]",
      "relativePosType": "AVATAR_NEW",
      "relativePosNpcAlias": "",
      "_bindMovingTargetKey": ""
    },
    {
      "configID": 13725,
      "alias": "13725",
      "visible": true,
      "bornPointName": "[20202_12:-0.807,-0.111,33.445,0.000,183.848,0.000]",
      "removeActorType": "NEW_REMOVE",
      "relativePosType": "AVATAR_NEW",
      "relativePosNpcAlias": "",
      "_bindMovingTargetKey": ""
    },
    {
      "configID": 13726,
      "alias": "13726",
      "visible": true,
      "bornPointName": "[20202_12:-0.807,-0.111,33.445,0.000,183.848,0.000]",
      "removeActorType": "NEW_REMOVE",
      "relativePosType": "AVATAR_NEW",
      "relativePosNpcAlias": "",
      "_bindMovingTargetKey": ""
    },
    {
      "configID": 13597,
      "alias": "13597",
      "visible": true,
      "bornPointName": "",
      "removeActorType": "NEW_REMOVE",
      "relativePosType": "AVATAR_NEW",
      "relativePosNpcAlias": "",
      "_bindMovingTargetKey": ""
    }
  ],
  "group": [
    [
      {
        "$type": "MoleMole.Config.ConfigTimeProtectAction",
        "type": "TIME_PROTECT",
        "duration": 1.0,
        "actionId": 104
      },
      {
        "$type": "MoleMole.Config.ConfigBlackScreenAction",
        "type": "BLACK_SCREEN",
        "duration": 1.0,
        "actionId": 154,
        "_flag": 2048,
        "blackScreenType": "KEEP_BLACK",
        "durationToBlack": 0.5,
        "durationKeepBlack": 1.0,
        "durationFromBlack": 0.5,
        "inteePos": "",
        "textMapID": "",
        "useTextFade": true,
        "_changeAudioState": true
      },
      {
        "$type": "FJKIHHKJLMJ",
        "type": "CAMERA_MOVE",
        "duration": 0.5,
        "actionId": 161,
        "camPosOffset": {
          "x": 2.819000005722046,
          "y": 2.2990000247955322,
          "z": 26.55699920654297
        },
        "camForwardTargetOffset": {
          "x": 2.246000051498413,
          "y": 2.125999927520752,
          "z": 25.756000518798828
        },
        "camFov": 52.25199890136719,
        "lerpPattern": 6,
        "cameraBlendType": "EaseInOutCubic",
        "NJBNNOMLKCK": {},
        "needZAxisRotate": true,
        "openCameraDither": false,
        "targetNpcAlias": "",
        "closeTreeLeafDither": true,
        "KJOEFBPOIIH": "",
        "IICFKKEBIEC": "",
        "EGEHEJEBLBJ": ""
      },
      {
        "$type": "MoleMole.Config.ConfigVisibleInterAction",
        "type": "VISIBLE",
        "aliasList": [
          "Avatar"
        ],
        "actionId": 159,
        "_extraParam": ""
      },
      {
        "$type": "FABLGECDBCH",
        "type": "BODY_LANG",
        "aliasList": [
          "13316"
        ],
        "actionId": 146,
        "isContinue": true,
        "forceDoFreeStyle": true,
        "canDoRepeatFreeStyle": false,
        "eventPatternSuiteKey": "",
        "FOHHKFAIAAJ": ""
      },
      {
        "$type": "MoleMole.Config.ConfigVisibleInterAction",
        "type": "VISIBLE",
        "aliasList": [
          "13597"
        ],
        "actionId": 376,
        "_extraParam": ""
      },
      {
        "$type": "MoleMole.Config.ConfigSitOrStandAction",
        "type": "SIT_OR_STAND",
        "delayTime": 0.03200000151991844,
        "aliasList": [
          "13316"
        ],
        "actionId": 214,
        "_flag": 8192,
        "isSit": true,
        "chairPos": {
          "x": 1.3389999866485596,
          "y": -0.014000000432133675,
          "z": 19.774999618530273
        },
        "chairEulerAngle": {
          "x": 359.968994140625,
          "y": 96.41500091552734,
          "z": 0.828000009059906
        },
        "banResetFreestyle": true,
        "_forceFastSitOrStand": true,
        "_useVirtualChair": true
      },
      {
        "$type": "MoleMole.Config.ConfigTeleportToAction",
        "type": "TELEPORT_TO",
        "delayTime": 0.03200000151991844,
        "aliasList": [
          "13316"
        ],
        "actionId": 215,
        "position": {
          "x": 1.3389999866485596,
          "y": -0.039000000804662704,
          "z": 19.599000930786133
        },
        "forward": {
          "x": 0.8259999752044678,
          "y": -0.07199999690055847,
          "z": -0.06300000101327896
        },
        "openLongDisTeleport": true,
        "syncForward": true,
        "_posBindMovingTargetKey": "",
        "_forwardBindMovingTargetKey": ""
      }
    ],
    [
      {
        "$type": "FJKIHHKJLMJ",
        "type": "CAMERA_MOVE",
        "duration": 0.5,
        "actionId": 187,
        "camPosOffset": {
          "x": 0.9879999756813049,
          "y": 0.847000002861023,
          "z": 22.108999252319336
        },
        "camForwardTargetOffset": {
          "x": 0.9679999947547913,
          "y": 0.9340000152587891,
          "z": 21.113000869750977
        },
        "camFov": 25.0,
        "lerpPattern": 6,
        "cameraBlendType": "EaseInOutCubic",
        "NJBNNOMLKCK": {},
        "needZAxisRotate": true,
        "openCameraDither": false,
        "targetNpcAlias": "",
        "closeTreeLeafDither": true,
        "KJOEFBPOIIH": "",
        "IICFKKEBIEC": "",
        "EGEHEJEBLBJ": ""
      },
      {
        "$type": "FABLGECDBCH",
        "type": "BODY_LANG",
        "delayTime": 0.03200000151991844,
        "aliasList": [
          "13316"
        ],
        "actionId": 184,
        "bodyLangParam": 8069,
        "forceDoFreeStyle": true,
        "cantBackToIdleWhenSitLoop": true,
        "eventPatternSuiteKey": "",
        "FOHHKFAIAAJ": ""
      },
      {
        "$type": "MoleMole.Config.ConfigSetModelTransform",
        "type": "SET_MODEL_TRANSFORM",
        "delayTime": 0.03200000151991844,
        "aliasList": [
          "13316"
        ],
        "actionId": 185,
        "groudHight": 0.30000001192092896
      },
      {
        "$type": "MoleMole.Config.ConfigColliderOpInterAction",
        "type": "COLLIDER_OP",
        "delayTime": 0.03200000151991844,
        "aliasList": [
          "13316"
        ],
        "actionId": 186,
        "isClose": true
      },
      {
        "$type": "LJLMDHDCAMK",
        "type": "LOOK_AT",
        "delayTime": 0.03200000151991844,
        "aliasList": [
          "13316"
        ],
        "actionId": 192,
        "_flag": 64,
        "useTargetPos": true,
        "enableAbsolute": true,
        "targetPosition": {
          "x": 2.5199999809265137,
          "y": 2.010999917984009,
          "z": 19.615999221801758
        },
        "headTurnTime": 0.5,
        "targetNpcAlias": "",
        "lookAtTargetType": "NONE",
        "openBackProtect": true,
        "backProtectAngle": 10.0,
        "targetNpcLookAtPoint": "",
        "OAFJBHJHLJG": ""
      },
      {
        "$type": "FJKIHHKJLMJ",
        "type": "CAMERA_MOVE",
        "delayTime": 0.10000000149011612,
        "duration": 11.050999641418457,
        "actionId": 188,
        "camPosOffset": {
          "x": 1.2009999752044678,
          "y": 0.8500000238418579,
          "z": 22.104999542236328
        },
        "camForwardTargetOffset": {
          "x": 1.180999994277954,
          "y": 0.9359999895095825,
          "z": 21.108999252319336
        },
        "camFov": 25.0,
        "cameraBlendType": "EaseOutQuad",
        "NJBNNOMLKCK": {},
        "needZAxisRotate": true,
        "openCameraDither": false,
        "targetNpcAlias": "",
        "closeTreeLeafDither": true,
        "KJOEFBPOIIH": "",
        "IICFKKEBIEC": "",
        "EGEHEJEBLBJ": ""
      },
      {
        "$type": "MoleMole.Config.ConfigBlackScreenAction",
        "type": "BLACK_SCREEN",
        "delayTime": 1.0,
        "duration": 0.5,
        "actionId": 155,
        "_flag": 2048,
        "blackScreenType": "FROM_BLACK",
        "durationToBlack": 0.5,
        "durationKeepBlack": 0.5,
        "durationFromBlack": 0.5,
        "inteePos": "",
        "textMapID": "",
        "useTextFade": true,
        "_changeAudioState": true
      },
      {
        "$type": "PKKMAMONGEO",
        "type": "DIALOG",
        "delayTime": 1.5,
        "aliasList": [
          "13316"
        ],
        "actionId": 107,
        "dialogID": 40241901,
        "protectTime": 0.5
      },
      {
        "$type": "CPJKOIHIPBE",
        "type": "EMO_SYNC",
        "delayTime": 1.5,
        "aliasList": [
          "13316"
        ],
        "actionId": 320,
        "_flag": 256,
        "dataPath": "Cs_Emo_Avatar_Simple_Common_Set/Cs_Emo_Avatar_Talk/Cs_Emo_Avatar_MainLine/Cs_Emo_Avatar_Fontaine03/Cs_Emo_40241901",
        "phonemePath": "",
        "emotionPath": "",
        "mateDataPath": "",
        "matePhonemePath": "",
        "mateEmotionPath": "",
        "dataPathHashList": [
          14804413496437417249,
          16550985631843603775,
          18091056935006435395,
          4861763697429874131
        ],
        "FMDPBECPELH": "",
        "ADKBLPOKGIK": ""
      }
    ],
    [
      {
        "$type": "FJKIHHKJLMJ",
        "type": "CAMERA_MOVE",
        "duration": 0.5,
        "actionId": 189,
        "camPosOffset": {
          "x": 1.656999945640564,
          "y": 1.1649999618530273,
          "z": 20.1299991607666
        },
        "camForwardTargetOffset": {
          "x": 0.8050000071525574,
          "y": 1.2990000247955322,
          "z": 19.624000549316406
        },
        "camFov": 25.0,
        "lerpPattern": 6,
        "cameraBlendType": "EaseInOutCubic",
        "NJBNNOMLKCK": {},
        "needZAxisRotate": true,
        "openCameraDither": false,
        "targetNpcAlias": "",
        "closeTreeLeafDither": true,
        "KJOEFBPOIIH": "",
        "IICFKKEBIEC": "",
        "EGEHEJEBLBJ": ""
      },
      {
        "$type": "PKKMAMONGEO",
        "type": "DIALOG",
        "aliasList": [
          "13316"
        ],
        "actionId": 109,
        "dialogID": 40241902,
        "protectTime": 0.5
      },
      {
        "$type": "LJLMDHDCAMK",
        "type": "LOOK_AT",
        "aliasList": [
          "13316"
        ],
        "actionId": 190,
        "_flag": 64,
        "enableHead": true,
        "useTargetPos": true,
        "enableAbsolute": true,
        "targetPosition": {
          "x": 2.5199999809265137,
          "y": 2.010999917984009,
          "z": 19.615999221801758
        },
        "headTurnTime": 1.0,
        "targetNpcAlias": "",
        "lookAtTargetType": "NONE",
        "openBackProtect": true,
        "backProtectAngle": 10.0,
        "targetNpcLookAtPoint": "",
        "OAFJBHJHLJG": ""
      },
      {
        "$type": "CPJKOIHIPBE",
        "type": "EMO_SYNC",
        "aliasList": [
          "13316"
        ],
        "actionId": 321,
        "_flag": 256,
        "dataPath": "Cs_Emo_Avatar_Simple_Common_Set/Cs_Emo_Avatar_Talk/Cs_Emo_Avatar_MainLine/Cs_Emo_Avatar_Fontaine03/Cs_Emo_40241902",
        "phonemePath": "",
        "emotionPath": "",
        "mateDataPath": "",
        "matePhonemePath": "",
        "mateEmotionPath": "",
        "dataPathHashList": [
          8352777541604494742,
          9164265841181370175,
          9852777273005738325,
          14984209964700410883
        ],
        "FMDPBECPELH": "",
        "ADKBLPOKGIK": ""
      },
      {
        "$type": "FJKIHHKJLMJ",
        "type": "CAMERA_MOVE",
        "delayTime": 0.10000000149011612,
        "duration": 8.9350004196167,
        "actionId": 284,
        "camPosOffset": {
          "x": 1.656999945640564,
          "y": 1.2070000171661377,
          "z": 20.1299991607666
        },
        "camForwardTargetOffset": {
          "x": 0.8050000071525574,
          "y": 1.340999960899353,
          "z": 19.624000549316406
        },
        "camFov": 25.0,
        "cameraBlendType": "EaseOutQuad",
        "NJBNNOMLKCK": {},
        "needZAxisRotate": true,
        "openCameraDither": false,
        "targetNpcAlias": "",
        "closeTreeLeafDither": true,
        "KJOEFBPOIIH": "",
        "IICFKKEBIEC": "",
        "EGEHEJEBLBJ": ""
      }
    ],
    [
      {
        "$type": "FJKIHHKJLMJ",
        "type": "CAMERA_MOVE",
        "duration": 0.5,
        "actionId": 193,
        "camPosOffset": {
          "x": 3.253999948501587,
          "y": 4.013000011444092,
          "z": 20.840999603271484
        },
        "camForwardTargetOffset": {
          "x": 2.7679998874664307,
          "y": 3.2279999256134033,
          "z": 20.45800018310547
        },
        "camFov": 25.0,
        "lerpPattern": 6,
        "cameraBlendType": "EaseInOutCubic",
        "NJBNNOMLKCK": {},
        "needZAxisRotate": true,
        "openCameraDither": false,
        "targetNpcAlias": "",
        "closeTreeLeafDither": true,
        "KJOEFBPOIIH": "",
        "IICFKKEBIEC": "",
        "EGEHEJEBLBJ": ""
      },
      {
        "$type": "PKKMAMONGEO",
        "type": "DIALOG",
        "aliasList": [
          "13316"
        ],
        "actionId": 111,
        "dialogID": 40241903,
        "protectTime": 0.5
      },
      {
        "$type": "CPJKOIHIPBE",
        "type": "EMO_SYNC",
        "aliasList": [
          "13316"
        ],
        "actionId": 322,
        "_flag": 256,
        "dataPath": "Cs_Emo_Avatar_Simple_Common_Set/Cs_Emo_Avatar_Talk/Cs_Emo_Avatar_MainLine/Cs_Emo_Avatar_Fontaine03/Cs_Emo_40241903",
        "phonemePath": "",
        "emotionPath": "",
        "mateDataPath": "",
        "matePhonemePath": "",
        "mateEmotionPath": "",
        "dataPathHashList": [
          17892646428810802968,
          3174171013331398654,
          2479322725373215019,
          12552930047273288861
        ],
        "FMDPBECPELH": "",
        "ADKBLPOKGIK": ""
      },
      {
        "$type": "FJKIHHKJLMJ",
        "type": "CAMERA_MOVE",
        "delayTime": 0.10000000149011612,
        "duration": 10.395000457763672,
        "actionId": 194,
        "camPosOffset": {
          "x": 3.424999952316284,
          "y": 4.288000106811523,
          "z": 20.974000930786133
        },
        "camForwardTargetOffset": {
          "x": 2.937999963760376,
          "y": 3.503000020980835,
          "z": 20.591999053955078
        },
        "camFov": 25.0,
        "cameraBlendType": "EaseOutQuad",
        "NJBNNOMLKCK": {},
        "needZAxisRotate": true,
        "openCameraDither": false,
        "targetNpcAlias": "",
        "closeTreeLeafDither": true,
        "KJOEFBPOIIH": "",
        "IICFKKEBIEC": "",
        "EGEHEJEBLBJ": ""
      }
    ],
    [
      {
        "$type": "FJKIHHKJLMJ",
        "type": "CAMERA_MOVE",
        "duration": 0.5,
        "actionId": 195,
        "camPosOffset": {
          "x": 2.51200008392334,
          "y": 1.2580000162124634,
          "z": 16.615999221801758
        },
        "camForwardTargetOffset": {
          "x": 2.1110000610351562,
          "y": 1.2300000190734863,
          "z": 17.531999588012695
        },
        "camFov": 20.0,
        "lerpPattern": 6,
        "cameraBlendType": "EaseInOutCubic",
        "NJBNNOMLKCK": {},
        "needZAxisRotate": true,
        "openCameraDither": false,
        "targetNpcAlias": "",
        "closeTreeLeafDither": true,
        "KJOEFBPOIIH": "",
        "IICFKKEBIEC": "",
        "EGEHEJEBLBJ": ""
      },
      {
        "$type": "PKKMAMONGEO",
        "type": "DIALOG",
        "aliasList": [
          "13316"
        ],
        "actionId": 113,
        "dialogID": 40241904,
        "protectTime": 0.5
      },
      {
        "$type": "LJLMDHDCAMK",
        "type": "LOOK_AT",
        "aliasList": [
          "13316"
        ],
        "actionId": 198,
        "_flag": 64,
        "enableHead": true,
        "useTargetPos": true,
        "enableAbsolute": true,
        "targetPosition": {
          "x": 2.5199999809265137,
          "y": 1.5640000104904175,
          "z": 19.615999221801758
        },
        "headTurnTime": 1.0,
        "targetNpcAlias": "",
        "lookAtTargetType": "NONE",
        "openBackProtect": true,
        "backProtectAngle": 10.0,
        "targetNpcLookAtPoint": "",
        "OAFJBHJHLJG": ""
      },
      {
        "$type": "CPJKOIHIPBE",
        "type": "EMO_SYNC",
        "aliasList": [
          "13316"
        ],
        "actionId": 323,
        "_flag": 320,
        "dataPath": "Cs_Emo_Avatar_Simple_Common_Set/Cs_Emo_Avatar_Talk/Cs_Emo_Avatar_MainLine/Cs_Emo_Avatar_Fontaine03/Cs_Emo_40241904",
        "phonemePath": "",
        "emotionPath": "",
        "mateDataPath": "",
        "matePhonemePath": "",
        "mateEmotionPath": "",
        "dataPathHashList": [
          17216508131883413267,
          14761343476173480638,
          3705323237563333949,
          4176554010477709594
        ],
        "FMDPBECPELH": "",
        "ADKBLPOKGIK": ""
      },
      {
        "$type": "FJKIHHKJLMJ",
        "type": "CAMERA_MOVE",
        "delayTime": 0.10000000149011612,
        "duration": 11.564000129699707,
        "actionId": 196,
        "camPosOffset": {
          "x": 2.4089999198913574,
          "y": 1.2549999952316284,
          "z": 16.570999145507812
        },
        "camForwardTargetOffset": {
          "x": 2.007999897003174,
          "y": 1.2280000448226929,
          "z": 17.48699951171875
        },
        "camFov": 20.0,
        "cameraBlendType": "EaseOutQuad",
        "NJBNNOMLKCK": {},
        "needZAxisRotate": true,
        "openCameraDither": false,
        "targetNpcAlias": "",
        "closeTreeLeafDither": true,
        "KJOEFBPOIIH": "",
        "IICFKKEBIEC": "",
        "EGEHEJEBLBJ": ""
      },
      {
        "$type": "FABLGECDBCH",
        "type": "BODY_LANG",
        "delayTime": 1.812000036239624,
        "aliasList": [
          "13316"
        ],
        "actionId": 197,
        "bodyLangParam": 4041,
        "forceDoFreeStyle": true,
        "canDoRepeatFreeStyle": false,
        "cantBackToIdleWhenSitLoop": true,
        "eventPatternSuiteKey": "",
        "FOHHKFAIAAJ": ""
      }
    ],
    [
      {
        "$type": "MoleMole.Config.ConfigBlackScreenAction",
        "type": "BLACK_SCREEN",
        "actionId": 342,
        "_flag": 2048,
        "blackScreenType": "TO_BLACK",
        "durationToBlack": 0.5,
        "durationKeepBlack": 0.5,
        "durationFromBlack": 0.5,
        "inteePos": "",
        "textMapID": "",
        "useTextFade": true,
        "_changeAudioState": true
      },
      {
        "$type": "PKKMAMONGEO",
        "type": "DIALOG_CLEAR",
        "actionId": 352
      },
      {
        "$type": "MoleMole.Config.ConfigSimpleUIShowInterAction",
        "type": "SIMPLE_UI_SHOW",
        "delayTime": 0.30000001192092896,
        "actionId": 335,
        "contextName": "General",
        "_param": "ART/UI/Menus/Dialog/InLevel/InLevelQuestAnnounceNumDialog"
      },
      {
        "$type": "FABLGECDBCH",
        "type": "BODY_LANG",
        "delayTime": 0.5569999814033508,
        "aliasList": [
          "13316"
        ],
        "actionId": 211,
        "isContinue": true,
        "forceDoFreeStyle": true,
        "canDoRepeatFreeStyle": false,
        "cantBackToIdleWhenSitLoop": true,
        "eventPatternSuiteKey": "",
        "FOHHKFAIAAJ": ""
      },
      {
        "$type": "MoleMole.Config.ConfigLocalGadgetOP",
        "type": "LOCAL_GADGET_OP",
        "delayTime": 1.1299999952316284,
        "actionId": 179,
        "gadgetId": 70711353,
        "subKey": 1,
        "oprCode": 2,
        "questMainId": 4024,
        "slotName": "",
        "sceneId": 20202,
        "gvKey": ""
      },
      {
        "$type": "MoleMole.Config.ConfigSetAnimatorAction",
        "type": "SET_ANIMATOR",
        "delayTime": 1.2000000476837158,
        "actionId": 337,
        "paramType": "Int",
        "paramName": "ActNumber",
        "intValue": 4,
        "_targetType": 1,
        "_extraParam": "ART/UI/Menus/Dialog/InLevel/InLevelQuestAnnounceNumDialog"
      },
      {
        "$type": "MoleMole.Config.ConfigLocalGadgetOP",
        "type": "LOCAL_GADGET_OP",
        "delayTime": 1.4520000219345093,
        "actionId": 171,
        "gadgetId": 70711353,
        "subKey": 1,
        "oprCode": 1,
        "slotName": "",
        "position": {
          "x": -0.7099999785423279,
          "y": -0.10999999940395355,
          "z": 36.970001220703125
        },
        "gvKey": ""
      },
      {
        "$type": "MoleMole.Config.ConfigSetModelTransform",
        "type": "SET_MODEL_TRANSFORM",
        "delayTime": 1.50600004196167,
        "aliasList": [
          "13316"
        ],
        "actionId": 217,
        "isReset": true
      },
      {
        "$type": "MoleMole.Config.ConfigSitOrStandAction",
        "type": "SIT_OR_STAND",
        "delayTime": 1.5670000314712524,
        "aliasList": [
          "13316"
        ],
        "actionId": 221,
        "_flag": 8192,
        "banResetFreestyle": true,
        "_forceFastSitOrStand": true
      },
      {
        "$type": "PKKMAMONGEO",
        "type": "DIALOG",
        "delayTime": 3.0,
        "actionId": 333,
        "dialogType": "BOTTOM_SUBTITLE",
        "dialogID": 40241905,
        "protectTime": 6.0,
        "playAudio": false,
        "fadeInTime": 0.5,
        "fadeOutTime": 0.5,
        "MHBHJCBCEHO": true
      },
      {
        "$type": "FJKIHHKJLMJ",
        "type": "CAMERA_MOVE",
        "delayTime": 5.567999839782715,
        "duration": 0.5,
        "actionId": 341,
        "camPosOffset": {
          "x": -4.552999973297119,
          "y": 1.9270000457763672,
          "z": 37.22200012207031
        },
        "camForwardTargetOffset": {
          "x": -3.6010000705718994,
          "y": 1.6829999685287476,
          "z": 37.40599822998047
        },
        "camFov": 30.0,
        "lerpPattern": 6,
        "cameraBlendType": "EaseInOutCubic",
        "NJBNNOMLKCK": {},
        "needZAxisRotate": true,
        "openCameraDither": false,
        "targetNpcAlias": "",
        "closeTreeLeafDither": true,
        "KJOEFBPOIIH": "",
        "IICFKKEBIEC": "",
        "EGEHEJEBLBJ": ""
      },
      {
        "$type": "MoleMole.Config.ConfigSimpleBlackScreenAction",
        "type": "SIMPLE_BLACK_SCREEN",
        "delayTime": 8.0,
        "duration": 2.0,
        "actionId": 350,
        "durationToBlack": 0.5,
        "durationKeepBlack": 1.0,
        "durationFromBlack": 0.5,
        "textMapID": "",
        "useTextFade": true,
        "_changeAudioState": true
      },
      {
        "$type": "MoleMole.Config.ConfigSimpleUIShowInterAction",
        "type": "SIMPLE_UI_SHOW",
        "delayTime": 8.600000381469727,
        "actionId": 349,
        "contextName": "General",
        "isClose": true,
        "_param": "ART/UI/Menus/Dialog/InLevel/InLevelQuestAnnounceNumDialog"
      },
      {
        "$type": "MoleMole.Config.ConfigSkipGroupAction",
        "type": "SKIP_GROUP",
        "delayTime": 9.0,
        "actionId": 351
      }
    ],
    [
      {
        "$type": "FJKIHHKJLMJ",
        "type": "CAMERA_MOVE",
        "duration": 0.5,
        "actionId": 202,
        "camPosOffset": {
          "x": -4.552999973297119,
          "y": 1.9270000457763672,
          "z": 37.22200012207031
        },
        "camForwardTargetOffset": {
          "x": -3.6010000705718994,
          "y": 1.6829999685287476,
          "z": 37.40599822998047
        },
        "camFov": 30.0,
        "lerpPattern": 6,
        "cameraBlendType": "EaseInOutCubic",
        "NJBNNOMLKCK": {},
        "needZAxisRotate": true,
        "openCameraDither": false,
        "targetNpcAlias": "",
        "closeTreeLeafDither": true,
        "KJOEFBPOIIH": "",
        "IICFKKEBIEC": "",
        "EGEHEJEBLBJ": ""
      },
      {
        "$type": "MoleMole.Config.ConfigBlackScreenAction",
        "type": "BLACK_SCREEN",
        "actionId": 343,
        "_flag": 2048,
        "blackScreenType": "FROM_BLACK",
        "durationToBlack": 0.5,
        "durationKeepBlack": 0.5,
        "durationFromBlack": 0.5,
        "inteePos": "",
        "textMapID": "",
        "useTextFade": true,
        "_changeAudioState": true
      },
      {
        "$type": "LJLMDHDCAMK",
        "type": "LOOK_AT",
        "aliasList": [
          "13316"
        ],
        "actionId": 222,
        "_flag": 64,
        "headTurnTime": 0.5,
        "targetNpcAlias": "",
        "openBackProtect": true,
        "backProtectAngle": 10.0,
        "targetNpcLookAtPoint": "",
        "OAFJBHJHLJG": ""
      },
      {
        "$type": "FABLGECDBCH",
        "type": "BODY_LANG",
        "aliasList": [
          "13316"
        ],
        "actionId": 223,
        "bodyLangParam": 1190,
        "forceDoFreeStyle": true,
        "canDoRepeatFreeStyle": false,
        "cantBackToIdleWhenSitLoop": true,
        "eventPatternSuiteKey": "",
        "FOHHKFAIAAJ": ""
      },
      {
        "$type": "MoleMole.Config.ConfigTeleportToAction",
        "type": "TELEPORT_TO",
        "aliasList": [
          "13316"
        ],
        "actionId": 252,
        "position": {
          "x": 0.2669999897480011,
          "y": -0.04800000041723251,
          "z": 37.862998962402344
        },
        "forward": {
          "x": -0.15600000321865082,
          "y": 0.04800000041723251,
          "z": -2.428999900817871
        },
        "openLongDisTeleport": true,
        "syncForward": true,
        "_posBindMovingTargetKey": "",
        "_forwardBindMovingTargetKey": ""
      },
      {
        "$type": "FJKIHHKJLMJ",
        "type": "CAMERA_MOVE",
        "delayTime": 0.10000000149011612,
        "duration": 7.440999984741211,
        "actionId": 218,
        "camPosOffset": {
          "x": -4.534999847412109,
          "y": 1.9299999475479126,
          "z": 37.13199996948242
        },
        "camForwardTargetOffset": {
          "x": -3.5829999446868896,
          "y": 1.6859999895095825,
          "z": 37.316001892089844
        },
        "camFov": 30.0,
        "cameraBlendType": "EaseOutQuad",
        "NJBNNOMLKCK": {},
        "needZAxisRotate": true,
        "openCameraDither": false,
        "targetNpcAlias": "",
        "closeTreeLeafDither": true,
        "KJOEFBPOIIH": "",
        "IICFKKEBIEC": "",
        "EGEHEJEBLBJ": ""
      },
      {
        "$type": "PKKMAMONGEO",
        "type": "DIALOG",
        "delayTime": 0.5,
        "aliasList": [
          "13724"
        ],
        "actionId": 118,
        "dialogID": 40241906,
        "protectTime": 0.5
      },
      {
        "$type": "CPJKOIHIPBE",
        "type": "EMO_SYNC",
        "delayTime": 0.5,
        "aliasList": [
          "13724"
        ],
        "actionId": 330,
        "_flag": 320,
        "dataPath": "Cs_Emo_Avatar_Simple_Common_Set/Cs_Emo_Avatar_Talk/Cs_Emo_Avatar_MainLine/Cs_Emo_Avatar_Fontaine03/Cs_Emo_40241906",
        "phonemePath": "",
        "emotionPath": "",
        "mateDataPath": "",
        "matePhonemePath": "",
        "mateEmotionPath": "",
        "dataPathHashList": [
          10389100986916639130,
          4043096693476004012,
          2771796453899186084,
          5603157357224186784
        ],
        "FMDPBECPELH": "",
        "ADKBLPOKGIK": ""
      }
    ],
    [
      {
        "$type": "FJKIHHKJLMJ",
        "type": "CAMERA_MOVE",
        "duration": 0.5,
        "actionId": 219,
        "camPosOffset": {
          "x": -0.6690000295639038,
          "y": 1.444000005722046,
          "z": 37.75600051879883
        },
        "camForwardTargetOffset": {
          "x": 0.3160000145435333,
          "y": 1.2910000085830688,
          "z": 37.84400177001953
        },
        "camFov": 20.0,
        "lerpPattern": 6,
        "cameraBlendType": "EaseInOutCubic",
        "NJBNNOMLKCK": {},
        "needZAxisRotate": true,
        "openCameraDither": false,
        "targetNpcAlias": "",
        "closeTreeLeafDither": true,
        "KJOEFBPOIIH": "",
        "IICFKKEBIEC": "",
        "EGEHEJEBLBJ": ""
      },
      {
        "$type": "MoleMole.Config.ConfigCameraDOFAction",
        "type": "CAMERA_DOF",
        "actionId": 246,
        "enabled": true,
        "focusDistance": 1.2829999923706055,
        "focusRange": 0.07999999821186066,
        "nearFocalDistance": -0.23399999737739563,
        "nearFocalTransDistance": 1.0,
        "quality": 3
      },
      {
        "$type": "PKKMAMONGEO",
        "type": "DIALOG",
        "aliasList": [
          "13316"
        ],
        "actionId": 120,
        "dialogID": 40241907,
        "protectTime": 1.5
      },
      {
        "$type": "FABLGECDBCH",
        "type": "BODY_LANG",
        "aliasList": [
          "13316"
        ],
        "actionId": 224,
        "isContinue": true,
        "forceDoFreeStyle": true,
        "canDoRepeatFreeStyle": false,
        "cantBackToIdleWhenSitLoop": true,
        "eventPatternSuiteKey": "",
        "FOHHKFAIAAJ": ""
      },
      {
        "$type": "LJLMDHDCAMK",
        "type": "LOOK_AT",
        "aliasList": [
          "13316"
        ],
        "actionId": 225,
        "_flag": 64,
        "enableHead": true,
        "useTargetPos": true,
        "enableAbsolute": true,
        "targetPosition": {
          "x": -0.7039999961853027,
          "y": 1.5740000009536743,
          "z": 36.9630012512207
        },
        "headTurnTime": -1.0,
        "targetNpcAlias": "",
        "lookAtTargetType": "NONE",
        "backProtectAngle": 10.0,
        "targetNpcLookAtPoint": "",
        "OAFJBHJHLJG": ""
      },
      {
        "$type": "EMEHNEMOMMM",
        "type": "LOOK_AT_EYECTRL",
        "aliasList": [
          "13316"
        ],
        "actionId": 253,
        "_flag": 4672,
        "useTargetPos": false,
        "eyeRotateVecLeft": {
          "x": 7.0
        },
        "eyeRotateVecRight": {
          "x": 7.0
        },
        "turnTime": 0.20000000298023224,
        "targetNpcAlias": "",
        "targetPoint": "Face"
      },
      {
        "$type": "CPJKOIHIPBE",
        "type": "EMO_SYNC",
        "aliasList": [
          "13316"
        ],
        "actionId": 324,
        "_flag": 320,
        "dataPath": "Cs_Emo_Avatar_Simple_Common_Set/Cs_Emo_Avatar_Talk/Cs_Emo_Avatar_MainLine/Cs_Emo_Avatar_Fontaine03/Cs_Emo_40241907",
        "phonemePath": "",
        "emotionPath": "",
        "mateDataPath": "",
        "matePhonemePath": "",
        "mateEmotionPath": "",
        "dataPathHashList": [
          16664240838938118706,
          14200197039512659409,
          13065827766572685824,
          150611153150348037
        ],
        "FMDPBECPELH": "",
        "ADKBLPOKGIK": ""
      }
    ],
    [
      {
        "$type": "PKKMAMONGEO",
        "type": "DIALOG_CLEAR",
        "actionId": 123
      },
      {
        "$type": "MoleMole.Config.ConfigTeleportToAction",
        "type": "TELEPORT_TO",
        "aliasList": [
          "13316"
        ],
        "actionId": 233,
        "position": {
          "x": 0.2669999897480011,
          "y": -0.04800000041723251,
          "z": 37.862998962402344
        },
        "forward": {
          "x": -0.15600000321865082,
          "y": 0.04800000041723251,
          "z": -2.428999900817871
        },
        "openLongDisTeleport": true,
        "syncForward": true,
        "_posBindMovingTargetKey": "",
        "_forwardBindMovingTargetKey": ""
      },
      {
        "$type": "MoleMole.Config.ConfigSitOrStandAction",
        "type": "SIT_OR_STAND",
        "aliasList": [
          "13316"
        ],
        "actionId": 231,
        "_flag": 8192,
        "banResetFreestyle": true
      },
      {
        "$type": "MoleMole.Config.ConfigTimeProtectAction",
        "type": "TIME_PROTECT",
        "duration": 2.4040000438690186,
        "actionId": 248
      },
      {
        "$type": "MoleMole.Config.ConfigCameraDOFAction",
        "type": "CAMERA_DOF",
        "duration": 1.562000036239624,
        "actionId": 244,
        "enabled": true,
        "focusDistance": 1.2829999923706055,
        "focusRange": 0.07999999821186066,
        "nearFocalDistance": -0.23399999737739563,
        "nearFocalTransDistance": 1.0,
        "dofBlurAmount": 15.0,
        "quality": 3
      },
      {
        "$type": "FJKIHHKJLMJ",
        "type": "CAMERA_MOVE",
        "delayTime": 0.012000000104308128,
        "duration": 1.5,
        "actionId": 227,
        "camPosOffset": {
          "x": 0.2529999911785126,
          "y": 1.3480000495910645,
          "z": 37.18899917602539
        },
        "camForwardTargetOffset": {
          "x": 0.26499998569488525,
          "y": 1.2990000247955322,
          "z": 38.1879997253418
        },
        "camFov": 20.0,
        "cameraBlendType": "EaseInQuart",
        "NJBNNOMLKCK": {},
        "needZAxisRotate": true,
        "openCameraDither": false,
        "targetNpcAlias": "",
        "closeTreeLeafDither": true,
        "KJOEFBPOIIH": "",
        "IICFKKEBIEC": "",
        "EGEHEJEBLBJ": ""
      },
      {
        "$type": "MoleMole.Config.ConfigAudioPlayAction",
        "type": "AUDIO_PLAY",
        "delayTime": 0.8920000195503235,
        "actionId": 358,
        "audioEventStr": "Play_Chapter_Sfx_Whoosh_Common_Mid_03"
      },
      {
        "$type": "LJLMDHDCAMK",
        "type": "LOOK_AT",
        "delayTime": 0.9869999885559082,
        "duration": 0.5,
        "aliasList": [
          "13597"
        ],
        "actionId": 372,
        "_flag": 64,
        "targetPosition": {
          "x": 2.996000051498413,
          "y": 1.215000033378601,
          "z": 37.74399948120117
        },
        "headTurnTime": 1.0,
        "targetNpcAlias": "",
        "lookAtTargetType": "NONE",
        "openBackProtect": true,
        "backProtectAngle": 10.0,
        "targetNpcLookAtPoint": "",
        "OAFJBHJHLJG": ""
      },
      {
        "$type": "LJLMDHDCAMK",
        "type": "LOOK_AT",
        "delayTime": 0.9869999885559082,
        "duration": 0.5,
        "aliasList": [
          "13316"
        ],
        "actionId": 239,
        "_flag": 64,
        "targetPosition": {
          "x": 2.996000051498413,
          "y": 1.215000033378601,
          "z": 37.74399948120117
        },
        "headTurnTime": 1.0,
        "targetNpcAlias": "",
        "lookAtTargetType": "NONE",
        "openBackProtect": true,
        "backProtectAngle": 10.0,
        "targetNpcLookAtPoint": "",
        "OAFJBHJHLJG": ""
      },
      {
        "$type": "MoleMole.Config.ConfigVisibleInterAction",
        "type": "VISIBLE",
        "delayTime": 1.065000057220459,
        "aliasList": [
          "13597"
        ],
        "actionId": 377,
        "isVisible": true,
        "_extraParam": ""
      },
      {
        "$type": "MoleMole.Config.ConfigTeleportToAction",
        "type": "TELEPORT_TO",
        "delayTime": 1.1080000400543213,
        "aliasList": [
          "13597"
        ],
        "actionId": 367,
        "position": {
          "x": 21.43600082397461,
          "y": -0.04899999871850014,
          "z": 36.07699966430664
        },
        "forward": {
          "y": -0.06499999761581421,
          "z": -1.0
        },
        "openLongDisTeleport": true,
        "syncForward": true,
        "_posBindMovingTargetKey": "",
        "_forwardBindMovingTargetKey": ""
      },
      {
        "$type": "MoleMole.Config.ConfigSitOrStandAction",
        "type": "SIT_OR_STAND",
        "delayTime": 1.1449999809265137,
        "aliasList": [
          "13597"
        ],
        "actionId": 368,
        "_flag": 8192,
        "isSit": true,
        "banResetFreestyle": true,
        "_forceFastSitOrStand": true
      },
      {
        "$type": "MoleMole.Config.ConfigLocalGadgetOP",
        "type": "LOCAL_GADGET_OP",
        "delayTime": 1.2359999418258667,
        "actionId": 173,
        "gadgetId": 70711353,
        "subKey": 2,
        "oprCode": 1,
        "slotName": "",
        "position": {
          "x": 19.652000427246094,
          "y": -0.10999999940395355,
          "z": 36.9370002746582
        },
        "gvKey": ""
      },
      {
        "$type": "FJKIHHKJLMJ",
        "type": "CAMERA_MOVE",
        "delayTime": 1.5110000371932983,
        "duration": 0.5,
        "actionId": 234,
        "camPosOffset": {
          "x": 21.424999237060547,
          "y": 0.9829999804496765,
          "z": 35.724998474121094
        },
        "camForwardTargetOffset": {
          "x": 21.437000274658203,
          "y": 0.9340000152587891,
          "z": 36.7239990234375
        },
        "camFov": 20.0,
        "lerpPattern": 6,
        "cameraBlendType": "EaseInOutCubic",
        "NJBNNOMLKCK": {},
        "needZAxisRotate": true,
        "openCameraDither": false,
        "targetNpcAlias": "",
        "closeTreeLeafDither": true,
        "KJOEFBPOIIH": "",
        "IICFKKEBIEC": "",
        "EGEHEJEBLBJ": ""
      },
      {
        "$type": "FJKIHHKJLMJ",
        "type": "CAMERA_MOVE",
        "delayTime": 1.5609999895095825,
        "duration": 1.5,
        "actionId": 240,
        "camPosOffset": {
          "x": 22.27400016784668,
          "y": 0.9879999756813049,
          "z": 35.7130012512207
        },
        "camForwardTargetOffset": {
          "x": 21.507999420166016,
          "y": 0.9359999895095825,
          "z": 36.35499954223633
        },
        "camFov": 20.0,
        "cameraBlendType": "EaseOutQuint",
        "NJBNNOMLKCK": {},
        "needZAxisRotate": true,
        "openCameraDither": false,
        "targetNpcAlias": "",
        "closeTreeLeafDither": true,
        "KJOEFBPOIIH": "",
        "IICFKKEBIEC": "",
        "EGEHEJEBLBJ": ""
      },
      {
        "$type": "MoleMole.Config.ConfigCameraDOFAction",
        "type": "CAMERA_DOF",
        "delayTime": 1.562999963760376,
        "duration": 1.0,
        "actionId": 243,
        "enabled": true,
        "focusDistance": 1.2829999923706055,
        "focusRange": 0.07999999821186066,
        "nearFocalDistance": -0.23399999737739563,
        "nearFocalTransDistance": 1.0,
        "dofBlurAmount": 1.0,
        "quality": 3
      },
      {
        "$type": "FABLGECDBCH",
        "type": "BODY_LANG",
        "delayTime": 1.7170000076293945,
        "aliasList": [
          "13597"
        ],
        "actionId": 371,
        "bodyLangParam": 8080,
        "forceDoFreeStyle": true,
        "canDoRepeatFreeStyle": false,
        "cantBackToIdleWhenSitLoop": true,
        "eventPatternSuiteKey": "",
        "FOHHKFAIAAJ": ""
      }
    ],
    [
      {
        "$type": "FJKIHHKJLMJ",
        "type": "CAMERA_MOVE",
        "duration": 0.5,
        "actionId": 247,
        "camPosOffset": {
          "x": 22.29199981689453,
          "y": 2.187000036239624,
          "z": 30.104000091552734
        },
        "camForwardTargetOffset": {
          "x": 21.999000549316406,
          "y": 1.9190000295639038,
          "z": 31.02199935913086
        },
        "camFov": 25.0,
        "lerpPattern": 6,
        "cameraBlendType": "EaseInOutCubic",
        "NJBNNOMLKCK": {},
        "needZAxisRotate": true,
        "openCameraDither": false,
        "targetNpcAlias": "",
        "closeTreeLeafDither": true,
        "KJOEFBPOIIH": "",
        "IICFKKEBIEC": "",
        "EGEHEJEBLBJ": ""
      },
      {
        "$type": "MoleMole.Config.ConfigCameraDOFAction",
        "type": "CAMERA_DOF",
        "actionId": 250,
        "enabled": true,
        "focusDistance": 24.888999938964844,
        "focusRange": 0.07999999821186066,
        "nearFocalDistance": 2.453000068664551,
        "nearFocalTransDistance": 0.4830000102519989,
        "dofBlurAmount": 1.0,
        "quality": 3
      },
      {
        "$type": "MoleMole.Config.ConfigLocalGadgetOP",
        "type": "LOCAL_GADGET_OP",
        "actionId": 361,
        "gadgetId": 70711353,
        "subKey": 1,
        "oprCode": 2,
        "slotName": "",
        "position": {
          "x": -0.7099999785423279,
          "y": -0.10999999940395355,
          "z": 36.970001220703125
        },
        "gvKey": ""
      },
      {
        "$type": "PKKMAMONGEO",
        "type": "DIALOG",
        "aliasList": [
          "13725"
        ],
        "actionId": 125,
        "dialogID": 40241909,
        "protectTime": 0.5
      },
      {
        "$type": "CPJKOIHIPBE",
        "type": "EMO_SYNC",
        "aliasList": [
          "13725"
        ],
        "actionId": 331,
        "_flag": 320,
        "dataPath": "Cs_Emo_Avatar_Simple_Common_Set/Cs_Emo_Avatar_Talk/Cs_Emo_Avatar_MainLine/Cs_Emo_Avatar_Fontaine03/Cs_Emo_40241909",
        "phonemePath": "",
        "emotionPath": "",
        "mateDataPath": "",
        "matePhonemePath": "",
        "mateEmotionPath": "",
        "dataPathHashList": [
          223123243338205912,
          7260491374709642854,
          1718877254268163257,
          9113110486797168584
        ],
        "FMDPBECPELH": "",
        "ADKBLPOKGIK": ""
      },
      {
        "$type": "FJKIHHKJLMJ",
        "type": "CAMERA_MOVE",
        "delayTime": 0.10000000149011612,
        "duration": 8.62399959564209,
        "actionId": 249,
        "camPosOffset": {
          "x": 22.392000198364258,
          "y": 2.186000108718872,
          "z": 30.13599967956543
        },
        "camForwardTargetOffset": {
          "x": 22.099000930786133,
          "y": 1.9190000295639038,
          "z": 31.054000854492188
        },
        "camFov": 25.0,
        "cameraBlendType": "EaseOutQuad",
        "NJBNNOMLKCK": {},
        "needZAxisRotate": true,
        "openCameraDither": false,
        "targetNpcAlias": "",
        "closeTreeLeafDither": true,
        "KJOEFBPOIIH": "",
        "IICFKKEBIEC": "",
        "EGEHEJEBLBJ": ""
      }
    ],
    [
      {
        "$type": "FJKIHHKJLMJ",
        "type": "CAMERA_MOVE",
        "duration": 0.5,
        "actionId": 251,
        "camPosOffset": {
          "x": 22.663000106811523,
          "y": 0.39399999380111694,
          "z": 35.36899948120117
        },
        "camForwardTargetOffset": {
          "x": 21.996999740600586,
          "y": 0.6629999876022339,
          "z": 36.064998626708984
        },
        "camFov": 25.0,
        "lerpPattern": 6,
        "cameraBlendType": "EaseInOutCubic",
        "NJBNNOMLKCK": {},
        "needZAxisRotate": true,
        "openCameraDither": false,
        "targetNpcAlias": "",
        "closeTreeLeafDither": true,
        "KJOEFBPOIIH": "",
        "IICFKKEBIEC": "",
        "EGEHEJEBLBJ": ""
      },
      {
        "$type": "MoleMole.Config.ConfigCameraDOFAction",
        "type": "CAMERA_DOF",
        "actionId": 263,
        "enabled": true,
        "focusDistance": 5.0,
        "focusRange": 10.0,
        "nearFocalDistance": 1.0,
        "nearFocalTransDistance": 1.0,
        "dofBlurAmount": 1.0,
        "quality": 3
      },
      {
        "$type": "PKKMAMONGEO",
        "type": "DIALOG",
        "aliasList": [
          "13316"
        ],
        "actionId": 127,
        "dialogID": 40241910,
        "protectTime": 0.5
      },
      {
        "$type": "CPJKOIHIPBE",
        "type": "EMO_SYNC",
        "aliasList": [
          "13316"
        ],
        "actionId": 325,
        "_flag": 320,
        "dataPath": "Cs_Emo_Avatar_Simple_Common_Set/Cs_Emo_Avatar_Talk/Cs_Emo_Avatar_MainLine/Cs_Emo_Avatar_Fontaine03/Cs_Emo_40241910",
        "phonemePath": "",
        "emotionPath": "",
        "mateDataPath": "",
        "matePhonemePath": "",
        "mateEmotionPath": "",
        "dataPathHashList": [
          16591499626135975666,
          9008402288622651892,
          8741511098440594991,
          11609517652678189673
        ],
        "FMDPBECPELH": "",
        "ADKBLPOKGIK": ""
      },
      {
        "$type": "CPJKOIHIPBE",
        "type": "EMO_SYNC",
        "aliasList": [
          "13597"
        ],
        "actionId": 382,
        "_flag": 320,
        "dataPath": "Cs_Emo_Avatar_Simple_Common_Set/Cs_Emo_Avatar_Talk/Cs_Emo_Avatar_MainLine/Cs_Emo_Avatar_Fontaine03/Cs_Emo_40241910",
        "phonemePath": "",
        "emotionPath": "",
        "mateDataPath": "",
        "matePhonemePath": "",
        "mateEmotionPath": "",
        "dataPathHashList": [
          16591499626135975666,
          9008402288622651892,
          8741511098440594991,
          11609517652678189673
        ],
        "FMDPBECPELH": "",
        "ADKBLPOKGIK": ""
      }
    ],
    [
      {
        "$type": "PKKMAMONGEO",
        "type": "DIALOG_CLEAR",
        "actionId": 130
      },
      {
        "$type": "MoleMole.Config.ConfigLocalGadgetOP",
        "type": "LOCAL_GADGET_OP",
        "actionId": 174,
        "gadgetId": 70711353,
        "subKey": 3,
        "oprCode": 1,
        "slotName": "",
        "position": {
          "x": -19.139999389648438,
          "y": -0.10999999940395355,
          "z": 36.145999908447266
        },
        "gvKey": ""
      },
      {
        "$type": "FJKIHHKJLMJ",
        "type": "CAMERA_MOVE",
        "duration": 0.5,
        "actionId": 256,
        "camPosOffset": {
          "x": 22.663000106811523,
          "y": 0.39399999380111694,
          "z": 35.36899948120117
        },
        "camForwardTargetOffset": {
          "x": 21.996999740600586,
          "y": 0.6629999876022339,
          "z": 36.064998626708984
        },
        "camFov": 25.0,
        "lerpPattern": 6,
        "cameraBlendType": "EaseInOutCubic",
        "NJBNNOMLKCK": {},
        "needZAxisRotate": true,
        "openCameraDither": false,
        "targetNpcAlias": "",
        "closeTreeLeafDither": true,
        "KJOEFBPOIIH": "",
        "IICFKKEBIEC": "",
        "EGEHEJEBLBJ": ""
      },
      {
        "$type": "MoleMole.Config.ConfigCameraDOFAction",
        "type": "CAMERA_DOF",
        "duration": 1.5880000591278076,
        "actionId": 264,
        "enabled": true,
        "focusDistance": 7.854000091552734,
        "focusRange": 10.0,
        "nearFocalDistance": 0.4020000100135803,
        "nearFocalTransDistance": 0.054999999701976776,
        "dofBlurAmount": 15.0,
        "quality": 3
      },
      {
        "$type": "MoleMole.Config.ConfigCloseGPUCullingInterAction",
        "type": "CLOSE_GPU_CULLING",
        "duration": 4.0,
        "actionId": 348
      },
      {
        "$type": "FJKIHHKJLMJ",
        "type": "CAMERA_MOVE",
        "delayTime": 0.10000000149011612,
        "duration": 1.5,
        "actionId": 257,
        "camPosOffset": {
          "x": 23.253000259399414,
          "y": 0.5099999904632568,
          "z": 36.7760009765625
        },
        "camForwardTargetOffset": {
          "x": 22.275999069213867,
          "y": 0.7179999947547913,
          "z": 36.72999954223633
        },
        "camFov": 25.0,
        "cameraBlendType": "EaseInQuart",
        "NJBNNOMLKCK": {},
        "needZAxisRotate": true,
        "openCameraDither": false,
        "targetNpcAlias": "",
        "closeTreeLeafDither": true,
        "KJOEFBPOIIH": "",
        "IICFKKEBIEC": "",
        "EGEHEJEBLBJ": ""
      },
      {
        "$type": "MoleMole.Config.ConfigAudioPlayAction",
        "type": "AUDIO_PLAY",
        "delayTime": 0.9570000171661377,
        "actionId": 359,
        "audioEventStr": "Play_Chapter_Sfx_Whoosh_Common_Mid_03"
      },
      {
        "$type": "MoleMole.Config.ConfigSitOrStandAction",
        "type": "SIT_OR_STAND",
        "delayTime": 1.4630000591278076,
        "aliasList": [
          "13316"
        ],
        "actionId": 258,
        "_flag": 8192,
        "banResetFreestyle": true,
        "_forceFastSitOrStand": true
      },
      {
        "$type": "MoleMole.Config.ConfigTeleportToAction",
        "type": "TELEPORT_TO",
        "delayTime": 1.4709999561309814,
        "aliasList": [
          "13316"
        ],
        "actionId": 166,
        "position": {
          "x": -20.874000549316406,
          "y": -0.06199999898672104,
          "z": 33.77399826049805
        },
        "forward": {
          "x": -2.505000114440918,
          "y": 0.06199999898672104,
          "z": 0.10100000351667404
        },
        "openLongDisTeleport": true,
        "syncForward": true,
        "_posBindMovingTargetKey": "",
        "_forwardBindMovingTargetKey": ""
      },
      {
        "$type": "MoleMole.Config.ConfigVisibleInterAction",
        "type": "VISIBLE",
        "delayTime": 1.49399995803833,
        "aliasList": [
          "13597"
        ],
        "actionId": 384,
        "_extraParam": ""
      },
      {
        "$type": "FJKIHHKJLMJ",
        "type": "CAMERA_MOVE",
        "delayTime": 1.600000023841858,
        "duration": 0.5,
        "actionId": 259,
        "camPosOffset": {
          "x": -21.881000518798828,
          "y": 6.0970001220703125,
          "z": 33.54999923706055
        },
        "camForwardTargetOffset": {
          "x": -21.881000518798828,
          "y": 5.0970001220703125,
          "z": 33.57500076293945
        },
        "camFov": 35.0,
        "lerpPattern": 6,
        "cameraBlendType": "EaseInOutCubic",
        "NJBNNOMLKCK": {},
        "needZAxisRotate": true,
        "rotateAngle": 0.0010000000474974513,
        "openCameraDither": false,
        "targetNpcAlias": "",
        "closeTreeLeafDither": true,
        "useDissolve": true,
        "dissolveTime": 0.20000000298023224,
        "KJOEFBPOIIH": "",
        "IICFKKEBIEC": "",
        "EGEHEJEBLBJ": ""
      },
      {
        "$type": "FABLGECDBCH",
        "type": "BODY_LANG",
        "delayTime": 1.656999945640564,
        "aliasList": [
          "13316"
        ],
        "actionId": 261,
        "bodyLangParam": 1190,
        "forceDoFreeStyle": true,
        "canDoRepeatFreeStyle": false,
        "cantBackToIdleWhenSitLoop": true,
        "eventPatternSuiteKey": "",
        "FOHHKFAIAAJ": ""
      },
      {
        "$type": "FJKIHHKJLMJ",
        "type": "CAMERA_MOVE",
        "delayTime": 1.7000000476837158,
        "duration": 1.5,
        "actionId": 260,
        "camPosOffset": {
          "x": -21.107999801635742,
          "y": 6.0970001220703125,
          "z": 33.54399871826172
        },
        "camForwardTargetOffset": {
          "x": -21.107999801635742,
          "y": 5.0970001220703125,
          "z": 33.569000244140625
        },
        "camFov": 35.0,
        "cameraBlendType": "EaseOutQuart",
        "NJBNNOMLKCK": {},
        "needZAxisRotate": true,
        "rotateAngle": 0.0010000000474974513,
        "openCameraDither": false,
        "targetNpcAlias": "",
        "closeTreeLeafDither": true,
        "KJOEFBPOIIH": "",
        "IICFKKEBIEC": "",
        "EGEHEJEBLBJ": ""
      }
    ],
    [
      {
        "$type": "FJKIHHKJLMJ",
        "type": "CAMERA_MOVE",
        "duration": 0.5,
        "actionId": 266,
        "camPosOffset": {
          "x": -15.866999626159668,
          "y": 1.9140000343322754,
          "z": 37.433998107910156
        },
        "camForwardTargetOffset": {
          "x": -16.746000289916992,
          "y": 1.7610000371932983,
          "z": 36.98400115966797
        },
        "camFov": 35.0,
        "lerpPattern": 6,
        "cameraBlendType": "EaseInOutCubic",
        "NJBNNOMLKCK": {},
        "needZAxisRotate": true,
        "openCameraDither": false,
        "targetNpcAlias": "",
        "closeTreeLeafDither": true,
        "KJOEFBPOIIH": "",
        "IICFKKEBIEC": "",
        "EGEHEJEBLBJ": ""
      },
      {
        "$type": "FABLGECDBCH",
        "type": "BODY_LANG",
        "aliasList": [
          "13316"
        ],
        "actionId": 267,
        "isContinue": true,
        "forceDoFreeStyle": true,
        "canDoRepeatFreeStyle": false,
        "cantBackToIdleWhenSitLoop": true,
        "eventPatternSuiteKey": "",
        "FOHHKFAIAAJ": ""
      },
      {
        "$type": "MoleMole.Config.ConfigVisibleInterAction",
        "type": "VISIBLE",
        "aliasList": [
          "13597"
        ],
        "actionId": 385,
        "isVisible": true,
        "_extraParam": ""
      },
      {
        "$type": "PKKMAMONGEO",
        "type": "DIALOG",
        "delayTime": 0.014999999664723873,
        "aliasList": [
          "13726"
        ],
        "actionId": 132,
        "dialogID": 40241912,
        "protectTime": 1.1260000467300415
      },
      {
        "$type": "CPJKOIHIPBE",
        "type": "EMO_SYNC",
        "delayTime": 0.014999999664723873,
        "aliasList": [
          "13726"
        ],
        "actionId": 332,
        "_flag": 320,
        "dataPath": "Cs_Emo_Avatar_Simple_Common_Set/Cs_Emo_Avatar_Talk/Cs_Emo_Avatar_MainLine/Cs_Emo_Avatar_Fontaine03/Cs_Emo_40241912",
        "phonemePath": "",
        "emotionPath": "",
        "mateDataPath": "",
        "matePhonemePath": "",
        "mateEmotionPath": "",
        "dataPathHashList": [
          14088658999666675512,
          6691447134154372325,
          6254960560900507363,
          14362801794124421537
        ],
        "FMDPBECPELH": "",
        "ADKBLPOKGIK": ""
      },
      {
        "$type": "FJKIHHKJLMJ",
        "type": "CAMERA_MOVE",
        "delayTime": 0.10000000149011612,
        "duration": 6.017000198364258,
        "actionId": 268,
        "camPosOffset": {
          "x": -15.776000022888184,
          "y": 1.9140000343322754,
          "z": 37.25699996948242
        },
        "camForwardTargetOffset": {
          "x": -16.655000686645508,
          "y": 1.7610000371932983,
          "z": 36.805999755859375
        },
        "camFov": 35.0,
        "cameraBlendType": "EaseOutQuad",
        "NJBNNOMLKCK": {},
        "needZAxisRotate": true,
        "openCameraDither": false,
        "targetNpcAlias": "",
        "closeTreeLeafDither": true,
        "KJOEFBPOIIH": "",
        "IICFKKEBIEC": "",
        "EGEHEJEBLBJ": ""
      },
      {
        "$type": "MoleMole.Config.ConfigSitOrStandAction",
        "type": "SIT_OR_STAND",
        "delayTime": 0.27900001406669617,
        "aliasList": [
          "13597"
        ],
        "actionId": 386,
        "_flag": 8192,
        "banResetFreestyle": true,
        "_forceFastSitOrStand": true
      },
      {
        "$type": "MoleMole.Config.ConfigTeleportToAction",
        "type": "TELEPORT_TO",
        "delayTime": 0.7829999923706055,
        "aliasList": [
          "13597"
        ],
        "actionId": 387,
        "position": {
          "x": 21.43600082397461,
          "y": -0.11100000143051147,
          "z": 40.117000579833984
        },
        "forward": {
          "y": 0.06199999898672104,
          "z": -5.039999961853027
        },
        "openLongDisTeleport": true,
        "syncForward": true,
        "_posBindMovingTargetKey": "",
        "_forwardBindMovingTargetKey": ""
      }
    ],
    [
      {
        "$type": "FJKIHHKJLMJ",
        "type": "CAMERA_MOVE",
        "duration": 0.5,
        "actionId": 269,
        "camPosOffset": {
          "x": -20.458999633789062,
          "y": 1.2480000257492065,
          "z": 34.7140007019043
        },
        "camForwardTargetOffset": {
          "x": -20.957000732421875,
          "y": 1.2890000343322754,
          "z": 33.847999572753906
        },
        "camFov": 20.0,
        "lerpPattern": 6,
        "cameraBlendType": "EaseInOutCubic",
        "NJBNNOMLKCK": {},
        "openCameraDither": false,
        "targetNpcAlias": "",
        "closeTreeLeafDither": true,
        "KJOEFBPOIIH": "",
        "IICFKKEBIEC": "",
        "EGEHEJEBLBJ": ""
      },
      {
        "$type": "PKKMAMONGEO",
        "type": "DIALOG",
        "aliasList": [
          "13316"
        ],
        "actionId": 134,
        "dialogID": 40241913,
        "protectTime": 0.5
      },
      {
        "$type": "LJLMDHDCAMK",
        "type": "LOOK_AT",
        "aliasList": [
          "13316"
        ],
        "actionId": 270,
        "_flag": 64,
        "enableHead": true,
        "headRotateVec": {
          "x": 49.75600051879883
        },
        "headTurnTime": 0.5,
        "targetNpcAlias": "",
        "lookAtTargetType": "NONE",
        "openBackProtect": true,
        "backProtectAngle": 10.0,
        "targetNpcLookAtPoint": "",
        "OAFJBHJHLJG": ""
      },
      {
        "$type": "CPJKOIHIPBE",
        "type": "EMO_SYNC",
        "aliasList": [
          "13316"
        ],
        "actionId": 326,
        "_flag": 320,
        "dataPath": "Cs_Emo_Avatar_Simple_Common_Set/Cs_Emo_Avatar_Talk/Cs_Emo_Avatar_MainLine/Cs_Emo_Avatar_Fontaine03/Cs_Emo_40241913",
        "phonemePath": "",
        "emotionPath": "",
        "mateDataPath": "",
        "matePhonemePath": "",
        "mateEmotionPath": "",
        "dataPathHashList": [
          10178953471588706337,
          14368956739274491592,
          7229932004891567358,
          13072824107291339553
        ],
        "FMDPBECPELH": "",
        "ADKBLPOKGIK": ""
      },
      {
        "$type": "MoleMole.Config.ConfigSpawnAttachInterAction",
        "type": "SPAWN_ATTACH",
        "aliasList": [
          "13316"
        ],
        "actionId": 363,
        "attachName": "Talk_402419_363",
        "_attachSetting": {
          "MNOBMANDDDE": "",
          "attachPath": "",
          "effectPath": ""
        }
      },
      {
        "$type": "MoleMole.Config.ConfigVisibleInterAction",
        "type": "VISIBLE",
        "aliasList": [
          "13597"
        ],
        "actionId": 388,
        "_extraParam": ""
      }
    ],
    [
      {
        "$type": "PKKMAMONGEO",
        "type": "DIALOG_CLEAR",
        "actionId": 137
      },
      {
        "$type": "MoleMole.Config.ConfigTeleportToAction",
        "type": "TELEPORT_TO",
        "aliasList": [
          "13316"
        ],
        "actionId": 298,
        "position": {
          "x": -20.874000549316406,
          "y": -0.06199999898672104,
          "z": 33.77399826049805
        },
        "forward": {
          "x": -0.9990000128746033,
          "z": 0.03999999910593033
        },
        "openLongDisTeleport": true,
        "syncForward": true,
        "_posBindMovingTargetKey": "",
        "_forwardBindMovingTargetKey": ""
      },
      {
        "$type": "LJLMDHDCAMK",
        "type": "LOOK_AT",
        "aliasList": [
          "13316"
        ],
        "actionId": 294,
        "_flag": 64,
        "headTurnTime": 0.5,
        "targetNpcAlias": "",
        "openBackProtect": true,
        "backProtectAngle": 10.0,
        "targetNpcLookAtPoint": "",
        "OAFJBHJHLJG": ""
      },
      {
        "$type": "FABLGECDBCH",
        "type": "BODY_LANG",
        "aliasList": [
          "13316"
        ],
        "actionId": 302,
        "bodyLangParam": 8010,
        "forceDoFreeStyle": true,
        "canDoRepeatFreeStyle": false,
        "cantBackToIdleWhenSitLoop": true,
        "eventPatternSuiteKey": "",
        "FOHHKFAIAAJ": ""
      },
      {
        "$type": "MoleMole.Config.ConfigTimeProtectAction",
        "type": "TIME_PROTECT",
        "duration": 3.1459999084472656,
        "actionId": 311
      },
      {
        "$type": "MoleMole.Config.ConfigSetAnimatorSpeedAction",
        "type": "SET_ANIMATOR_SPEED",
        "aliasList": [
          "13316"
        ],
        "actionId": 303,
        "speedRatio": 0.5,
        "blendType": "EaseInOutQuad"
      },
      {
        "$type": "MoleMole.Config.ConfigCameraDOFAction",
        "type": "CAMERA_DOF",
        "duration": 0.5,
        "actionId": 296,
        "enabled": true,
        "focusDistance": 2.812000036239624,
        "focusRange": 0.08900000154972076,
        "nearFocalDistance": 0.4020000100135803,
        "nearFocalTransDistance": 0.054999999701976776,
        "quality": 3,
        "useBlendType": true
      },
      {
        "$type": "FJKIHHKJLMJ",
        "type": "CAMERA_MOVE",
        "duration": 0.5,
        "actionId": 300,
        "camPosOffset": {
          "x": -18.459999084472656,
          "y": 0.8769999742507935,
          "z": 33.70600128173828
        },
        "camForwardTargetOffset": {
          "x": -19.448999404907227,
          "y": 1.0290000438690186,
          "z": 33.73099899291992
        },
        "camFov": 20.0,
        "lerpPattern": 6,
        "cameraBlendType": "EaseInOutCubic",
        "NJBNNOMLKCK": {},
        "needZAxisRotate": true,
        "openCameraDither": false,
        "targetNpcAlias": "",
        "closeTreeLeafDither": true,
        "KJOEFBPOIIH": "",
        "IICFKKEBIEC": "",
        "EGEHEJEBLBJ": ""
      },
      {
        "$type": "FJKIHHKJLMJ",
        "type": "CAMERA_MOVE",
        "delayTime": 0.10000000149011612,
        "duration": 1.7289999723434448,
        "actionId": 304,
        "camPosOffset": {
          "x": -19.625,
          "y": 0.8840000033378601,
          "z": 33.72800064086914
        },
        "camForwardTargetOffset": {
          "x": -20.61400032043457,
          "y": 1.034999966621399,
          "z": 33.75299835205078
        },
        "cameraBlendType": "EaseInQuint",
        "NJBNNOMLKCK": {},
        "needZAxisRotate": true,
        "openCameraDither": false,
        "targetNpcAlias": "",
        "closeTreeLeafDither": true,
        "KJOEFBPOIIH": "",
        "IICFKKEBIEC": "",
        "EGEHEJEBLBJ": ""
      },
      {
        "$type": "MoleMole.Config.ConfigCameraDOFAction",
        "type": "CAMERA_DOF",
        "delayTime": 0.5,
        "duration": 1.3569999933242798,
        "actionId": 308,
        "enabled": true,
        "focusDistance": 1.25600004196167,
        "focusRange": 0.08900000154972076,
        "nearFocalDistance": 0.4020000100135803,
        "nearFocalTransDistance": 0.054999999701976776,
        "dofBlurAmount": 15.0,
        "quality": 3,
        "useBlendType": true,
        "blendType": "EaseInQuart"
      },
      {
        "$type": "MoleMole.Config.ConfigLocalGadgetOP",
        "type": "LOCAL_GADGET_OP",
        "delayTime": 0.8939999938011169,
        "actionId": 356,
        "gadgetId": 70711353,
        "subKey": 4,
        "oprCode": 1,
        "slotName": "",
        "position": {
          "x": 0.2409999966621399,
          "y": -0.11100000143051147,
          "z": 19.368000030517578
        },
        "gvKey": ""
      },
      {
        "$type": "MoleMole.Config.ConfigAudioPlayAction",
        "type": "AUDIO_PLAY",
        "delayTime": 1.097000002861023,
        "actionId": 360,
        "audioEventStr": "Play_Chapter_Sfx_Whoosh_Common_Mid_03"
      },
      {
        "$type": "MoleMole.Config.ConfigLocalGadgetOP",
        "type": "LOCAL_GADGET_OP",
        "delayTime": 1.6100000143051147,
        "actionId": 176,
        "gadgetId": 70711353,
        "subKey": 3,
        "oprCode": 1,
        "slotName": "",
        "position": {
          "x": -19.139999389648438,
          "y": -0.10999999940395355,
          "z": 36.145999908447266
        },
        "gvKey": ""
      },
      {
        "$type": "MoleMole.Config.ConfigSetModelTransform",
        "type": "SET_MODEL_TRANSFORM",
        "delayTime": 1.8289999961853027,
        "aliasList": [
          "13316"
        ],
        "actionId": 289,
        "groudHight": 0.30000001192092896
      },
      {
        "$type": "MoleMole.Config.ConfigTeleportToAction",
        "type": "TELEPORT_TO",
        "delayTime": 1.8289999961853027,
        "aliasList": [
          "13316"
        ],
        "actionId": 288,
        "position": {
          "x": 1.3389999866485596,
          "y": -0.032999999821186066,
          "z": 19.774999618530273
        },
        "forward": {
          "x": 1.0,
          "z": -0.007000000216066837
        },
        "openLongDisTeleport": true,
        "syncForward": true,
        "_posBindMovingTargetKey": "",
        "_forwardBindMovingTargetKey": ""
      },
      {
        "$type": "LJLMDHDCAMK",
        "type": "LOOK_AT",
        "delayTime": 1.8289999961853027,
        "aliasList": [
          "13316"
        ],
        "actionId": 285,
        "_flag": 64,
        "useTargetPos": true,
        "enableAbsolute": true,
        "targetPosition": {
          "x": 2.5199999809265137,
          "y": 2.010999917984009,
          "z": 19.615999221801758
        },
        "headTurnTime": 0.5,
        "targetNpcAlias": "",
        "lookAtTargetType": "NONE",
        "openBackProtect": true,
        "backProtectAngle": 10.0,
        "targetNpcLookAtPoint": "",
        "OAFJBHJHLJG": ""
      },
      {
        "$type": "EMEHNEMOMMM",
        "type": "LOOK_AT_EYECTRL",
        "delayTime": 1.8289999961853027,
        "aliasList": [
          "13316"
        ],
        "actionId": 286,
        "_flag": 4672,
        "useTargetPos": false,
        "turnTime": 0.20000000298023224,
        "targetNpcAlias": "",
        "targetPoint": "Face"
      },
      {
        "$type": "MoleMole.Config.ConfigSitOrStandAction",
        "type": "SIT_OR_STAND",
        "delayTime": 1.8289999961853027,
        "aliasList": [
          "13316"
        ],
        "actionId": 287,
        "_flag": 8192,
        "isSit": true,
        "chairPos": {
          "x": 1.3389999866485596,
          "y": -0.014000000432133675,
          "z": 19.774999618530273
        },
        "chairEulerAngle": {
          "y": 90.41699981689453
        },
        "_forceFastSitOrStand": true,
        "_useVirtualChair": true
      },
      {
        "$type": "FJKIHHKJLMJ",
        "type": "CAMERA_MOVE",
        "delayTime": 1.8289999961853027,
        "duration": 0.5,
        "actionId": 305,
        "camPosOffset": {
          "x": 0.09200000017881393,
          "y": 1.1519999504089355,
          "z": 19.822999954223633
        },
        "camForwardTargetOffset": {
          "x": 1.0729999542236328,
          "y": 1.340999960899353,
          "z": 19.780000686645508
        },
        "lerpPattern": 6,
        "cameraBlendType": "EaseInOutCubic",
        "NJBNNOMLKCK": {},
        "needZAxisRotate": true,
        "openCameraDither": false,
        "targetNpcAlias": "",
        "closeTreeLeafDither": true,
        "KJOEFBPOIIH": "",
        "IICFKKEBIEC": "",
        "EGEHEJEBLBJ": ""
      },
      {
        "$type": "MoleMole.Config.ConfigCameraDOFAction",
        "type": "CAMERA_DOF",
        "delayTime": 1.8589999675750732,
        "duration": 0.5600000023841858,
        "actionId": 307,
        "enabled": true,
        "focusDistance": 3.750999927520752,
        "focusRange": 0.08900000154972076,
        "nearFocalDistance": 0.4020000100135803,
        "nearFocalTransDistance": 0.054999999701976776,
        "dofBlurAmount": 1.0,
        "quality": 3,
        "useBlendType": true,
        "blendType": "EaseOutQuart"
      },
      {
        "$type": "FJKIHHKJLMJ",
        "type": "CAMERA_MOVE",
        "delayTime": 1.878999948501587,
        "duration": 1.2760000228881836,
        "actionId": 306,
        "camPosOffset": {
          "x": -1.0779999494552612,
          "y": 0.925000011920929,
          "z": 19.874000549316406
        },
        "camForwardTargetOffset": {
          "x": -0.09700000286102295,
          "y": 1.1150000095367432,
          "z": 19.83099937438965
        },
        "camFov": 20.0,
        "NJBNNOMLKCK": {},
        "needZAxisRotate": true,
        "openCameraDither": false,
        "targetNpcAlias": "",
        "closeTreeLeafDither": true,
        "KJOEFBPOIIH": "",
        "IICFKKEBIEC": "",
        "EGEHEJEBLBJ": ""
      },
      {
        "$type": "MoleMole.Config.ConfigCameraDOFAction",
        "type": "CAMERA_DOF",
        "delayTime": 2.4179999828338623,
        "duration": 0.7279999852180481,
        "actionId": 309,
        "enabled": true,
        "focusDistance": 3.569999933242798,
        "focusRange": 0.08900000154972076,
        "nearFocalDistance": 0.4020000100135803,
        "nearFocalTransDistance": 0.054999999701976776,
        "dofBlurAmount": 1.0,
        "quality": 3,
        "useBlendType": true
      }
    ],
    [
      {
        "$type": "MoleMole.Config.ConfigCameraDOFAction",
        "type": "CAMERA_DOF",
        "actionId": 271,
        "focusDistance": 7.353000164031982,
        "focusRange": 1.4179999828338623,
        "nearFocalDistance": -0.1899999976158142,
        "nearFocalTransDistance": 1.0,
        "dofBlurAmount": 1.0,
        "quality": 3
      },
      {
        "$type": "FJKIHHKJLMJ",
        "type": "CAMERA_MOVE",
        "duration": 4.828999996185303,
        "actionId": 310,
        "camPosOffset": {
          "x": -3.382999897003174,
          "y": 0.4790000021457672,
          "z": 19.975000381469727
        },
        "camForwardTargetOffset": {
          "x": -2.4030001163482666,
          "y": 0.6690000295639038,
          "z": 19.93199920654297
        },
        "camFov": 20.0,
        "cameraBlendType": "EaseInOutQuad",
        "NJBNNOMLKCK": {},
        "needZAxisRotate": true,
        "openCameraDither": false,
        "targetNpcAlias": "",
        "closeTreeLeafDither": true,
        "KJOEFBPOIIH": "",
        "IICFKKEBIEC": "",
        "EGEHEJEBLBJ": ""
      },
      {
        "$type": "PKKMAMONGEO",
        "type": "DIALOG",
        "aliasList": [
          "13316"
        ],
        "actionId": 139,
        "dialogID": 40241915,
        "protectTime": 0.5
      },
      {
        "$type": "FABLGECDBCH",
        "type": "BODY_LANG",
        "aliasList": [
          "13316"
        ],
        "actionId": 278,
        "bodyLangParam": 8069,
        "forceDoFreeStyle": true,
        "cantBackToIdleWhenSitLoop": true,
        "eventPatternSuiteKey": "",
        "FOHHKFAIAAJ": ""
      },
      {
        "$type": "CPJKOIHIPBE",
        "type": "EMO_SYNC",
        "aliasList": [
          "13316"
        ],
        "actionId": 327,
        "_flag": 256,
        "dataPath": "Cs_Emo_Avatar_Simple_Common_Set/Cs_Emo_Avatar_Talk/Cs_Emo_Avatar_MainLine/Cs_Emo_Avatar_Fontaine03/Cs_Emo_40241915",
        "phonemePath": "",
        "emotionPath": "",
        "mateDataPath": "",
        "matePhonemePath": "",
        "mateEmotionPath": "",
        "dataPathHashList": [
          15600991238180478647,
          14546641393302858444,
          14924941468234159073,
          10704994715454652930
        ],
        "FMDPBECPELH": "",
        "ADKBLPOKGIK": ""
      }
    ],
    [
      {
        "$type": "FJKIHHKJLMJ",
        "type": "CAMERA_MOVE",
        "duration": 0.5,
        "actionId": 313,
        "camPosOffset": {
          "x": 1.569000005722046,
          "y": 0.6589999794960022,
          "z": 17.854999542236328
        },
        "camForwardTargetOffset": {
          "x": 1.159999966621399,
          "y": 0.9279999732971191,
          "z": 18.726999282836914
        },
        "camFov": 20.0,
        "lerpPattern": 6,
        "cameraBlendType": "EaseOutQuad",
        "NJBNNOMLKCK": {},
        "needZAxisRotate": true,
        "openCameraDither": false,
        "targetNpcAlias": "",
        "closeTreeLeafDither": true,
        "KJOEFBPOIIH": "",
        "IICFKKEBIEC": "",
        "EGEHEJEBLBJ": ""
      },
      {
        "$type": "MoleMole.Config.ConfigCameraDOFAction",
        "type": "CAMERA_DOF",
        "actionId": 314,
        "enabled": true,
        "focusDistance": 5.0,
        "focusRange": 10.0,
        "nearFocalDistance": 1.347000002861023,
        "nearFocalTransDistance": 0.07400000095367432,
        "dofBlurAmount": 5.0,
        "quality": 3
      },
      {
        "$type": "PKKMAMONGEO",
        "type": "DIALOG",
        "aliasList": [
          "13316"
        ],
        "actionId": 141,
        "dialogID": 40241916,
        "protectTime": 0.5
      },
      {
        "$type": "CPJKOIHIPBE",
        "type": "EMO_SYNC",
        "aliasList": [
          "13316"
        ],
        "actionId": 328,
        "_flag": 256,
        "dataPath": "Cs_Emo_Avatar_Simple_Common_Set/Cs_Emo_Avatar_Talk/Cs_Emo_Avatar_MainLine/Cs_Emo_Avatar_Fontaine03/Cs_Emo_40241916",
        "phonemePath": "",
        "emotionPath": "",
        "mateDataPath": "",
        "matePhonemePath": "",
        "mateEmotionPath": "",
        "dataPathHashList": [
          3594737423962465351,
          17928848555556205482,
          6756966762882928499,
          1908122780599193530
        ],
        "FMDPBECPELH": "",
        "ADKBLPOKGIK": ""
      },
      {
        "$type": "MoleMole.Config.ConfigSetAnimatorSpeedAction",
        "type": "SET_ANIMATOR_SPEED",
        "aliasList": [
          "13316"
        ],
        "actionId": 346,
        "speedRatio": 1.0,
        "blendType": "EaseInOutQuad"
      },
      {
        "$type": "FJKIHHKJLMJ",
        "type": "CAMERA_MOVE",
        "delayTime": 0.10000000149011612,
        "duration": 7.553999900817871,
        "actionId": 312,
        "camPosOffset": {
          "x": 1.5399999618530273,
          "y": 0.6589999794960022,
          "z": 17.840999603271484
        },
        "camForwardTargetOffset": {
          "x": 1.13100004196167,
          "y": 0.9279999732971191,
          "z": 18.71299934387207
        },
        "camFov": 20.0,
        "cameraBlendType": "EaseOutQuad",
        "NJBNNOMLKCK": {},
        "needZAxisRotate": true,
        "openCameraDither": false,
        "targetNpcAlias": "",
        "closeTreeLeafDither": true,
        "KJOEFBPOIIH": "",
        "IICFKKEBIEC": "",
        "EGEHEJEBLBJ": ""
      }
    ],
    [
      {
        "$type": "FJKIHHKJLMJ",
        "type": "CAMERA_MOVE",
        "duration": 7.718999862670898,
        "actionId": 315,
        "camPosOffset": {
          "x": 1.5260000228881836,
          "y": 0.6589999794960022,
          "z": 17.833999633789062
        },
        "camForwardTargetOffset": {
          "x": 1.1169999837875366,
          "y": 0.9279999732971191,
          "z": 18.70599937438965
        },
        "camFov": 20.0,
        "cameraBlendType": "EaseOutQuad",
        "NJBNNOMLKCK": {},
        "needZAxisRotate": true,
        "openCameraDither": false,
        "targetNpcAlias": "",
        "closeTreeLeafDither": true,
        "KJOEFBPOIIH": "",
        "IICFKKEBIEC": "",
        "EGEHEJEBLBJ": ""
      },
      {
        "$type": "PKKMAMONGEO",
        "type": "DIALOG",
        "aliasList": [
          "13316"
        ],
        "actionId": 143,
        "dialogID": 40241917,
        "protectTime": 0.5
      },
      {
        "$type": "CPJKOIHIPBE",
        "type": "EMO_SYNC",
        "aliasList": [
          "13316"
        ],
        "actionId": 329,
        "_flag": 320,
        "dataPath": "Cs_Emo_Avatar_Simple_Common_Set/Cs_Emo_Avatar_Talk/Cs_Emo_Avatar_MainLine/Cs_Emo_Avatar_Fontaine03/Cs_Emo_40241917",
        "phonemePath": "",
        "emotionPath": "",
        "mateDataPath": "",
        "matePhonemePath": "",
        "mateEmotionPath": "",
        "dataPathHashList": [
          1624827076255955946,
          17482988879031656748,
          13114396295910067722,
          17782409111534080195
        ],
        "FMDPBECPELH": "",
        "ADKBLPOKGIK": ""
      }
    ],
    [
      {
        "$type": "FJKIHHKJLMJ",
        "type": "CAMERA_MOVE",
        "duration": 2.996000051498413,
        "actionId": 317,
        "camPosOffset": {
          "x": 1.2879999876022339,
          "y": 0.6589999794960022,
          "z": 17.722000122070312
        },
        "camForwardTargetOffset": {
          "x": 0.878000020980835,
          "y": 0.9279999732971191,
          "z": 18.5939998626709
        },
        "camFov": 20.0,
        "cameraBlendType": "EaseInQuad",
        "NJBNNOMLKCK": {},
        "needZAxisRotate": true,
        "openCameraDither": false,
        "targetNpcAlias": "",
        "closeTreeLeafDither": true,
        "KJOEFBPOIIH": "",
        "IICFKKEBIEC": "",
        "EGEHEJEBLBJ": ""
      },
      {
        "$type": "MoleMole.Config.ConfigTimeProtectAction",
        "type": "TIME_PROTECT",
        "duration": 2.492000102996826,
        "actionId": 318
      },
      {
        "$type": "PKKMAMONGEO",
        "type": "DIALOG_CLEAR",
        "actionId": 319
      },
      {
        "$type": "MoleMole.Config.ConfigBlackScreenAction",
        "type": "BLACK_SCREEN",
        "delayTime": 1.5,
        "duration": 0.5,
        "actionId": 181,
        "_flag": 2048,
        "blackScreenType": "TO_BLACK",
        "durationToBlack": 0.5,
        "durationKeepBlack": 3.0,
        "inteePos": "",
        "textMapID": "",
        "useTextFade": true,
        "_dialogID": 40242001,
        "_changeAudioState": true
      }
    ],
    [
      {
        "$type": "MoleMole.Config.ConfigSimpleBlackScreenAction",
        "type": "SIMPLE_BLACK_SCREEN",
        "actionId": 144,
        "durationToBlack": 0.5,
        "durationKeepBlack": 1.5,
        "durationFromBlack": 0.5,
        "textMapID": ""
      },
      {
        "$type": "MoleMole.Config.ConfigTimeProtectAction",
        "type": "TIME_PROTECT",
        "duration": 1.0,
        "actionId": 145
      },
      {
        "$type": "MoleMole.Config.ConfigLocalGadgetOP",
        "type": "LOCAL_GADGET_OP",
        "actionId": 353,
        "gadgetId": 70711353,
        "subKey": 1,
        "oprCode": 2,
        "slotName": "",
        "gvKey": ""
      },
      {
        "$type": "MoleMole.Config.ConfigLocalGadgetOP",
        "type": "LOCAL_GADGET_OP",
        "actionId": 354,
        "gadgetId": 70711353,
        "subKey": 2,
        "oprCode": 2,
        "slotName": "",
        "gvKey": ""
      },
      {
        "$type": "MoleMole.Config.ConfigLocalGadgetOP",
        "type": "LOCAL_GADGET_OP",
        "actionId": 355,
        "gadgetId": 70711353,
        "subKey": 3,
        "oprCode": 2,
        "slotName": "",
        "gvKey": ""
      },
      {
        "$type": "MoleMole.Config.ConfigLocalGadgetOP",
        "type": "LOCAL_GADGET_OP",
        "actionId": 357,
        "gadgetId": 70711353,
        "subKey": 4,
        "oprCode": 2,
        "slotName": "",
        "gvKey": ""
      },
      {
        "$type": "MoleMole.Config.ConfigTeleportToAction",
        "type": "TELEPORT_TO",
        "delayTime": 0.550000011920929,
        "aliasList": [
          "Avatar"
        ],
        "actionId": 158,
        "position": {
          "x": -0.1860000044107437,
          "y": -0.11100000143051147,
          "z": 22.56800079345703
        },
        "forward": {
          "x": 0.07699999958276749,
          "y": 0.11100000143051147,
          "z": 1.6859999895095825
        },
        "openLongDisTeleport": true,
        "syncForward": true,
        "_posBindMovingTargetKey": "",
        "_forwardBindMovingTargetKey": ""
      },
      {
        "$type": "FJKIHHKJLMJ",
        "type": "CAMERA_MOVE",
        "delayTime": 0.6000000238418579,
        "duration": 0.10000000149011612,
        "actionId": 156,
        "cameraPosType": "EXIT",
        "camForwardTargetOffset": {
          "z": 1.0
        },
        "camFov": 30.0,
        "lerpPattern": 5,
        "cameraBlendType": "EaseInOutCubic",
        "NJBNNOMLKCK": {},
        "openCameraDither": false,
        "targetNpcAlias": "",
        "closeTreeLeafDither": true,
        "KJOEFBPOIIH": "",
        "IICFKKEBIEC": "",
        "EGEHEJEBLBJ": ""
      },
      {
        "$type": "MoleMole.Config.ConfigBlackScreenAction",
        "type": "BLACK_SCREEN",
        "delayTime": 0.6000000238418579,
        "actionId": 340,
        "_flag": 2048,
        "blackScreenType": "FROM_BLACK",
        "durationToBlack": 0.5,
        "durationKeepBlack": 0.5,
        "durationFromBlack": 0.5,
        "inteePos": "",
        "textMapID": "",
        "useTextFade": true,
        "_changeAudioState": true
      },
      {
        "$type": "FABLGECDBCH",
        "type": "BODY_LANG",
        "delayTime": 0.6000000238418579,
        "aliasList": [
          "13316"
        ],
        "actionId": 147,
        "isContinue": true,
        "forceDoFreeStyle": true,
        "canDoRepeatFreeStyle": false,
        "eventPatternSuiteKey": "",
        "FOHHKFAIAAJ": ""
      },
      {
        "$type": "MoleMole.Config.ConfigSitOrStandAction",
        "type": "SIT_OR_STAND",
        "delayTime": 0.6110000014305115,
        "aliasList": [
          "13316"
        ],
        "actionId": 339,
        "_flag": 8192,
        "banResetFreestyle": true,
        "_forceFastSitOrStand": true
      },
      {
        "$type": "MoleMole.Config.ConfigSetModelTransform",
        "type": "SET_MODEL_TRANSFORM",
        "delayTime": 0.6240000128746033,
        "aliasList": [
          "13316"
        ],
        "actionId": 344,
        "isReset": true
      }
    ]
  ],
  "groupId": [
    {
      "grpId": 2361193554,
      "nextGrpId": 2361193555
    },
    {
      "index": 1,
      "grpId": 2361193555,
      "nextGrpId": 2361193556
    },
    {
      "index": 2,
      "grpId": 2361193556,
      "nextGrpId": 2361193557
    },
    {
      "index": 3,
      "grpId": 2361193557,
      "nextGrpId": 2361193558
    },
    {
      "index": 4,
      "grpId": 2361193558,
      "nextGrpId": 2361193559
    },
    {
      "index": 5,
      "grpId": 2361193559,
      "nextGrpId": 2361193560
    },
    {
      "index": 6,
      "grpId": 2361193560,
      "nextGrpId": 2361193561
    },
    {
      "index": 7,
      "grpId": 2361193561,
      "nextGrpId": 2361193562
    },
    {
      "index": 8,
      "grpId": 2361193562,
      "nextGrpId": 182556190
    },
    {
      "index": 9,
      "grpId": 182556190,
      "nextGrpId": 182556191
    },
    {
      "index": 10,
      "grpId": 182556191,
      "nextGrpId": 182556192
    },
    {
      "index": 11,
      "grpId": 182556192,
      "nextGrpId": 182556193
    },
    {
      "index": 12,
      "grpId": 182556193,
      "nextGrpId": 182556194
    },
    {
      "index": 13,
      "grpId": 182556194,
      "nextGrpId": 182556195
    },
    {
      "index": 14,
      "grpId": 182556195,
      "nextGrpId": 182556196
    },
    {
      "index": 15,
      "grpId": 182556196,
      "nextGrpId": 182556197
    },
    {
      "index": 16,
      "grpId": 182556197,
      "nextGrpId": 182556198
    },
    {
      "index": 17,
      "grpId": 182556198,
      "nextGrpId": 182556199
    },
    {
      "index": 18,
      "grpId": 182556199,
      "nextGrpId": 182556221
    },
    {
      "index": 19,
      "grpId": 182556221,
      "nextGrpId": 182556222
    }
  ],
  "freeStyleDic": {
    "13316": [
      8069,
      4041,
      1190,
      8010
    ],
    "13597": [
      8080
    ]
  },
  "EKFBDAIDEEF": {
    "13316": [
      "SitChat01AS",
      "SitDowncast01AS",
      "SitHoldArm01AS",
      "SitPutArm01AS",
      "SitShrug01AS",
      "SitSpecial01AS",
      "SitThink01AS"
    ],
    "13597": [
      "SitChat01AS",
      "SitDowncast01AS",
      "SitHoldArm01AS",
      "SitPutArm01AS",
      "SitShrug01AS",
      "SitSpecial01AS",
      "SitThink01AS"
    ]
  },
  "GBPIKOLLKJH": {
    "KGFBJNAEBHO": "",
    "ADMLEHAKCPC": ""
  }
}