{
  "luaDataPath": "",
  "dontUseDefaultFinish": true,
  "entityBan": "",
  "disableNpcLod": true,
  "isAutoBanNpc": true,
  "isBanWidgetPet": true,
  "protectNpcMobileLod": true,
  "talkFlag": 7,
  "startFade": {
    "startFadeOutDuration": 0.0
  },
  "endFade": {
    "startFadeOutDuration": 0.0
  },
  "actors": [
    {
      "alias": "Avatar",
      "visible": true,
      "bornPointName": "",
      "relativePosType": "AVATAR_NEW",
      "relativePosNpcAlias": "",
      "_bindMovingTargetKey": ""
    },
    {
      "alias": "AvatarNpc",
      "visible": true,
      "bornPointName": "[3_7278:1257.215,96.712,3801.764,0.000,181.057,0.000]",
      "relativePos": {
        "x": 1256.136962890625,
        "y": 96.39399719238281,
        "z": 3801.916015625
      },
      "relativeRot": {
        "y": 175.21499633789062
      },
      "removeActorType": "NEW_REMOVE",
      "relativePosType": "AVATAR_NEW",
      "relativePosNpcAlias": "",
      "_notDestroyInTalk": true,
      "_bindMovingTargetKey": "",
      "notDestroyInTalk": true
    },
    {
      "configID": 21338,
      "alias": "21338",
      "visible": true,
      "bornPointName": "",
      "relativePosType": "AVATAR_NEW",
      "relativePosNpcAlias": "",
      "_notDestroyInTalk": true,
      "_bindMovingTargetKey": ""
    },
    {
      "configID": 1005,
      "alias": "1005",
      "visible": true,
      "bornPointName": "",
      "relativePos": {
        "x": 2.0,
        "y": 1.0,
        "z": -2.0
      },
      "removeActorType": "NEW_REMOVE_WITH_DISAPPEAR",
      "relativePosType": "AVATAR_NEW",
      "relativePosNpcAlias": "",
      "_notDestroyInTalk": true,
      "_bindMovingTargetKey": ""
    }
  ],
  "group": [
    [
      {
        "$type": "MoleMole.Config.ConfigTimeProtectAction",
        "type": "TIME_PROTECT",
        "duration": 0.10000000149011612,
        "actionId": 104
      },
      {
        "$type": "FABLGECDBCH",
        "type": "BODY_LANG",
        "aliasList": [
          "21338"
        ],
        "actionId": 126,
        "isContinue": true,
        "forceDoFreeStyle": true,
        "canDoRepeatFreeStyle": false,
        "eventPatternSuiteKey": "",
        "FOHHKFAIAAJ": ""
      },
      {
        "$type": "FABLGECDBCH",
        "type": "BODY_LANG",
        "aliasList": [
          "1005"
        ],
        "actionId": 128,
        "isContinue": true,
        "forceDoFreeStyle": true,
        "canDoRepeatFreeStyle": false,
        "eventPatternSuiteKey": "",
        "FOHHKFAIAAJ": ""
      },
      {
        "$type": "MoleMole.Config.ConfigSitOrStandAction",
        "type": "SIT_OR_STAND",
        "aliasList": [
          "Avatar"
        ],
        "actionId": 131,
        "_flag": 8192,
        "banResetFreestyle": true
      },
      {
        "$type": "MoleMole.Config.ConfigPlayerNPCEnergyTypeAction",
        "type": "SET_PLAYER_NPC_ENERGY_TYPE",
        "aliasList": [
          "AvatarNpc"
        ],
        "actionId": 132,
        "setHeroEngergyType": true
      },
      {
        "$type": "FABLGECDBCH",
        "type": "BODY_LANG",
        "aliasList": [
          "AvatarNpc"
        ],
        "actionId": 133,
        "isContinue": true,
        "forceDoFreeStyle": true,
        "canDoRepeatFreeStyle": false,
        "eventPatternSuiteKey": "",
        "FOHHKFAIAAJ": ""
      },
      {
        "$type": "MoleMole.Config.ConfigTeleportToAction",
        "type": "TELEPORT_TO",
        "aliasList": [
          "AvatarNpc"
        ],
        "actionId": 138,
        "position": {
          "x": 1256.136962890625,
          "y": 96.39399719238281,
          "z": 3801.916015625
        },
        "forward": {
          "x": 0.2290000021457672,
          "y": 0.08900000154972076,
          "z": -2.739000082015991
        },
        "openLongDisTeleport": true,
        "syncForward": true,
        "_posBindMovingTargetKey": "",
        "_forwardBindMovingTargetKey": ""
      },
      {
        "$type": "MoleMole.Config.ConfigTeleportToAction",
        "type": "TELEPORT_TO",
        "aliasList": [
          "1005"
        ],
        "actionId": 139,
        "position": {
          "x": 1256.9949951171875,
          "y": 96.39199829101562,
          "z": 3801.885986328125
        },
        "forward": {
          "x": -0.3199999928474426,
          "z": -3.053999900817871
        },
        "openLongDisTeleport": true,
        "syncForward": true,
        "_posBindMovingTargetKey": "",
        "_forwardBindMovingTargetKey": ""
      },
      {
        "$type": "LJLMDHDCAMK",
        "type": "LOOK_AT",
        "aliasList": [
          "1005"
        ],
        "actionId": 140,
        "_flag": 64,
        "enableHead": true,
        "useTargetPos": true,
        "enableAbsolute": true,
        "targetPosition": {
          "x": 1256.7340087890625,
          "y": 97.80400085449219,
          "z": 3797.512939453125
        },
        "headTurnTime": 0.5,
        "targetNpcAlias": "",
        "lookAtTargetType": "NONE",
        "openBackProtect": true,
        "backProtectAngle": 10.0,
        "targetNpcLookAtPoint": "",
        "OAFJBHJHLJG": ""
      },
      {
        "$type": "LJLMDHDCAMK",
        "type": "LOOK_AT",
        "aliasList": [
          "AvatarNpc"
        ],
        "actionId": 141,
        "_flag": 64,
        "enableHead": true,
        "useTargetPos": true,
        "enableAbsolute": true,
        "targetPosition": {
          "x": 1256.5340576171875,
          "y": 97.9010009765625,
          "z": 3797.544921875
        },
        "headTurnTime": 0.5,
        "targetNpcAlias": "",
        "lookAtTargetType": "NONE",
        "openBackProtect": true,
        "backProtectAngle": 10.0,
        "targetNpcLookAtPoint": "",
        "OAFJBHJHLJG": ""
      },
      {
        "$type": "MoleMole.Config.ConfigTeleportToAction",
        "type": "TELEPORT_TO",
        "aliasList": [
          "Avatar"
        ],
        "actionId": 146,
        "position": {
          "x": 1256.136962890625,
          "y": 96.39399719238281,
          "z": 3801.916015625
        },
        "forward": {
          "x": 0.2290000021457672,
          "y": 0.08900000154972076,
          "z": -2.739000082015991
        },
        "openLongDisTeleport": true,
        "syncForward": true,
        "_posBindMovingTargetKey": "",
        "_forwardBindMovingTargetKey": ""
      }
    ],
    [
      {
        "$type": "PKKMAMONGEO",
        "type": "DIALOG",
        "aliasList": [
          "21338"
        ],
        "actionId": 107,
        "dialogID": 741958502,
        "protectTime": 0.5
      }
    ],
    [
      {
        "$type": "PKKMAMONGEO",
        "type": "DIALOG",
        "aliasList": [
          "21338"
        ],
        "actionId": 109,
        "dialogID": 741958503,
        "protectTime": 0.5
      },
      {
        "$type": "FJKIHHKJLMJ",
        "type": "CAMERA_MOVE",
        "duration": 0.5,
        "actionId": 143,
        "camPosOffset": {
          "x": 1247.072998046875,
          "y": 98.23300170898438,
          "z": 3797.9150390625
        },
        "camForwardTargetOffset": {
          "x": 1248.06298828125,
          "y": 98.14299774169922,
          "z": 3798.02490234375
        },
        "camFov": 30.0,
        "lerpPattern": 6,
        "cameraBlendType": "EaseInOutCubic",
        "needZAxisRotate": true,
        "openCameraDither": false,
        "targetNpcAlias": "",
        "closeTreeLeafDither": true,
        "KJOEFBPOIIH": "",
        "IICFKKEBIEC": "",
        "EGEHEJEBLBJ": ""
      },
      {
        "$type": "FJKIHHKJLMJ",
        "type": "CAMERA_MOVE",
        "delayTime": 0.10000000149011612,
        "duration": 8.017000198364258,
        "actionId": 144,
        "camPosOffset": {
          "x": 1246.4730224609375,
          "y": 98.28700256347656,
          "z": 3797.847900390625
        },
        "camForwardTargetOffset": {
          "x": 1247.4630126953125,
          "y": 98.197998046875,
          "z": 3797.9580078125
        },
        "camFov": 30.0,
        "cameraBlendType": "EaseOutQuad",
        "needZAxisRotate": true,
        "openCameraDither": false,
        "targetNpcAlias": "",
        "closeTreeLeafDither": true,
        "KJOEFBPOIIH": "",
        "IICFKKEBIEC": "",
        "EGEHEJEBLBJ": ""
      },
      {
        "$type": "MoleMole.Config.ConfigTeleportToAction",
        "type": "TELEPORT_TO",
        "aliasList": [
          "21338"
        ],
        "actionId": 164,
        "position": {
          "x": 1256.6280517578125,
          "y": 97.62899780273438,
          "z": 3796.408935546875
        },
        "forward": {
          "x": 0.04800000041723251,
          "y": -0.41100001335144043,
          "z": 2.181999921798706
        },
        "openLongDisTeleport": true,
        "syncForward": true,
        "_posBindMovingTargetKey": "",
        "_forwardBindMovingTargetKey": ""
      }
    ],
    [
      {
        "$type": "PKKMAMONGEO",
        "type": "DIALOG",
        "aliasList": [
          "21338"
        ],
        "actionId": 111,
        "dialogID": 741958504,
        "protectTime": 0.5
      },
      {
        "$type": "FJKIHHKJLMJ",
        "type": "CAMERA_MOVE",
        "duration": 0.5,
        "actionId": 145,
        "camPosOffset": {
          "x": 1248.4849853515625,
          "y": 97.06900024414062,
          "z": 3830.654052734375
        },
        "camForwardTargetOffset": {
          "x": 1247.9849853515625,
          "y": 97.177001953125,
          "z": 3829.7939453125
        },
        "camFov": 20.0,
        "lerpPattern": 6,
        "cameraBlendType": "EaseInOutCubic",
        "needZAxisRotate": true,
        "openCameraDither": false,
        "targetNpcAlias": "",
        "closeTreeLeafDither": true,
        "KJOEFBPOIIH": "",
        "IICFKKEBIEC": "",
        "EGEHEJEBLBJ": ""
      },
      {
        "$type": "FJKIHHKJLMJ",
        "type": "CAMERA_MOVE",
        "delayTime": 0.10000000149011612,
        "duration": 10.350000381469727,
        "actionId": 147,
        "camPosOffset": {
          "x": 1248.0030517578125,
          "y": 97.36499786376953,
          "z": 3830.051025390625
        },
        "camForwardTargetOffset": {
          "x": 1247.498046875,
          "y": 97.4729995727539,
          "z": 3829.195068359375
        },
        "camFov": 20.0,
        "cameraBlendType": "EaseOutQuad",
        "needZAxisRotate": true,
        "openCameraDither": false,
        "targetNpcAlias": "",
        "closeTreeLeafDither": true,
        "KJOEFBPOIIH": "",
        "IICFKKEBIEC": "",
        "EGEHEJEBLBJ": ""
      }
    ],
    [
      {
        "$type": "PKKMAMONGEO",
        "type": "DIALOG",
        "aliasList": [
          "21338"
        ],
        "actionId": 113,
        "dialogID": 741958505,
        "protectTime": 0.5
      },
      {
        "$type": "FJKIHHKJLMJ",
        "type": "CAMERA_MOVE",
        "duration": 0.5,
        "actionId": 148,
        "camPosOffset": {
          "x": 1251.5350341796875,
          "y": 98.74700164794922,
          "z": 3809.153076171875
        },
        "camForwardTargetOffset": {
          "x": 1251.987060546875,
          "y": 98.64199829101562,
          "z": 3808.26708984375
        },
        "camFov": 20.0,
        "lerpPattern": 6,
        "cameraBlendType": "EaseInOutCubic",
        "needZAxisRotate": true,
        "openCameraDither": false,
        "targetNpcAlias": "",
        "closeTreeLeafDither": true,
        "KJOEFBPOIIH": "",
        "IICFKKEBIEC": "",
        "EGEHEJEBLBJ": ""
      },
      {
        "$type": "FJKIHHKJLMJ",
        "type": "CAMERA_MOVE",
        "delayTime": 0.10000000149011612,
        "duration": 8.383000373840332,
        "actionId": 149,
        "camPosOffset": {
          "x": 1251.5360107421875,
          "y": 98.55400085449219,
          "z": 3809.176025390625
        },
        "camForwardTargetOffset": {
          "x": 1251.988037109375,
          "y": 98.4489974975586,
          "z": 3808.2900390625
        },
        "camFov": 20.0,
        "cameraBlendType": "EaseOutQuad",
        "needZAxisRotate": true,
        "openCameraDither": false,
        "targetNpcAlias": "",
        "closeTreeLeafDither": true,
        "KJOEFBPOIIH": "",
        "IICFKKEBIEC": "",
        "EGEHEJEBLBJ": ""
      }
    ],
    [
      {
        "$type": "PKKMAMONGEO",
        "type": "DIALOG",
        "aliasList": [
          "21338"
        ],
        "actionId": 115,
        "dialogID": 741958506,
        "protectTime": 0.5
      },
      {
        "$type": "FJKIHHKJLMJ",
        "type": "CAMERA_MOVE",
        "duration": 0.5,
        "actionId": 150,
        "camPosOffset": {
          "x": 1252.969970703125,
          "y": 98.60099792480469,
          "z": 3800.26611328125
        },
        "camForwardTargetOffset": {
          "x": 1253.6519775390625,
          "y": 98.45800018310547,
          "z": 3799.549072265625
        },
        "camFov": 20.0,
        "lerpPattern": 6,
        "cameraBlendType": "EaseInOutCubic",
        "needZAxisRotate": true,
        "openCameraDither": false,
        "targetNpcAlias": "",
        "closeTreeLeafDither": true,
        "KJOEFBPOIIH": "",
        "IICFKKEBIEC": "",
        "EGEHEJEBLBJ": ""
      },
      {
        "$type": "FJKIHHKJLMJ",
        "type": "CAMERA_MOVE",
        "delayTime": 0.10000000149011612,
        "duration": 8.767000198364258,
        "actionId": 151,
        "camPosOffset": {
          "x": 1253.2530517578125,
          "y": 98.54199981689453,
          "z": 3799.968994140625
        },
        "camForwardTargetOffset": {
          "x": 1253.93505859375,
          "y": 98.39800262451172,
          "z": 3799.2509765625
        },
        "camFov": 20.0,
        "cameraBlendType": "EaseOutQuad",
        "needZAxisRotate": true,
        "openCameraDither": false,
        "targetNpcAlias": "",
        "closeTreeLeafDither": true,
        "KJOEFBPOIIH": "",
        "IICFKKEBIEC": "",
        "EGEHEJEBLBJ": ""
      }
    ],
    [
      {
        "$type": "FJKIHHKJLMJ",
        "type": "CAMERA_MOVE",
        "duration": 0.5,
        "actionId": 152,
        "camPosOffset": {
          "x": 1254.60498046875,
          "y": 97.94599914550781,
          "z": 3798.64599609375
        },
        "camForwardTargetOffset": {
          "x": 1255.0770263671875,
          "y": 97.84100341796875,
          "z": 3799.52099609375
        },
        "camFov": 20.0,
        "lerpPattern": 6,
        "cameraBlendType": "EaseInOutCubic",
        "needZAxisRotate": true,
        "openCameraDither": false,
        "targetNpcAlias": "",
        "closeTreeLeafDither": true,
        "KJOEFBPOIIH": "",
        "IICFKKEBIEC": "",
        "EGEHEJEBLBJ": ""
      },
      {
        "$type": "FJKIHHKJLMJ",
        "type": "CAMERA_MOVE",
        "delayTime": 0.10000000149011612,
        "duration": 5.400000095367432,
        "actionId": 153,
        "camPosOffset": {
          "x": 1254.7110595703125,
          "y": 97.92400360107422,
          "z": 3798.798095703125
        },
        "camForwardTargetOffset": {
          "x": 1255.1829833984375,
          "y": 97.81900024414062,
          "z": 3799.674072265625
        },
        "camFov": 20.0,
        "cameraBlendType": "EaseOutQuad",
        "needZAxisRotate": true,
        "openCameraDither": false,
        "targetNpcAlias": "",
        "closeTreeLeafDither": true,
        "KJOEFBPOIIH": "",
        "IICFKKEBIEC": "",
        "EGEHEJEBLBJ": ""
      },
      {
        "$type": "FABLGECDBCH",
        "type": "BODY_LANG",
        "delayTime": 0.11699999868869781,
        "aliasList": [
          "AvatarNpc"
        ],
        "actionId": 154,
        "bodyLangParam": 1220,
        "forceDoFreeStyle": true,
        "canDoRepeatFreeStyle": false,
        "cantBackToIdleWhenSitLoop": true,
        "eventPatternSuiteKey": "",
        "FOHHKFAIAAJ": ""
      },
      {
        "$type": "HDGKHDNFMIM",
        "type": "DIALOG_SELECT",
        "aliasList": [
          "AvatarNpc"
        ],
        "actionId": 165,
        "dialogIDList": [
          741958507
        ],
        "grpIDList": [
          914607832
        ],
        "useGrpId": true,
        "countDownGrpId": 914607824
      }
    ],
    [
      {
        "$type": "PKKMAMONGEO",
        "type": "DIALOG",
        "aliasList": [
          "21338"
        ],
        "actionId": 119,
        "dialogID": 741958508,
        "protectTime": 0.5
      },
      {
        "$type": "FJKIHHKJLMJ",
        "type": "CAMERA_MOVE",
        "duration": 0.5,
        "actionId": 155,
        "camPosOffset": {
          "x": 1255.740966796875,
          "y": 97.72200012207031,
          "z": 3802.947021484375
        },
        "camForwardTargetOffset": {
          "x": 1255.97900390625,
          "y": 97.72200012207031,
          "z": 3801.97607421875
        },
        "camFov": 20.0,
        "lerpPattern": 6,
        "cameraBlendType": "EaseInOutCubic",
        "needZAxisRotate": true,
        "openCameraDither": false,
        "targetNpcAlias": "",
        "closeTreeLeafDither": true,
        "KJOEFBPOIIH": "",
        "IICFKKEBIEC": "",
        "EGEHEJEBLBJ": ""
      },
      {
        "$type": "FJKIHHKJLMJ",
        "type": "CAMERA_MOVE",
        "delayTime": 0.10000000149011612,
        "duration": 7.242000102996826,
        "actionId": 156,
        "camPosOffset": {
          "x": 1255.654052734375,
          "y": 97.72200012207031,
          "z": 3802.926025390625
        },
        "camForwardTargetOffset": {
          "x": 1255.8929443359375,
          "y": 97.72200012207031,
          "z": 3801.955078125
        },
        "camFov": 20.0,
        "cameraBlendType": "EaseOutQuad",
        "needZAxisRotate": true,
        "openCameraDither": false,
        "targetNpcAlias": "",
        "closeTreeLeafDither": true,
        "KJOEFBPOIIH": "",
        "IICFKKEBIEC": "",
        "EGEHEJEBLBJ": ""
      }
    ],
    [
      {
        "$type": "PKKMAMONGEO",
        "type": "DIALOG",
        "aliasList": [
          "21338"
        ],
        "actionId": 121,
        "dialogID": 741958509,
        "protectTime": 0.5
      },
      {
        "$type": "FABLGECDBCH",
        "type": "BODY_LANG",
        "aliasList": [
          "AvatarNpc"
        ],
        "actionId": 157,
        "isContinue": true,
        "forceDoFreeStyle": true,
        "canDoRepeatFreeStyle": false,
        "cantBackToIdleWhenSitLoop": true,
        "eventPatternSuiteKey": "",
        "FOHHKFAIAAJ": ""
      },
      {
        "$type": "FJKIHHKJLMJ",
        "type": "CAMERA_MOVE",
        "duration": 0.5,
        "actionId": 158,
        "camPosOffset": {
          "x": 1260.9210205078125,
          "y": 97.16699981689453,
          "z": 3837.780029296875
        },
        "camForwardTargetOffset": {
          "x": 1260.197998046875,
          "y": 97.56700134277344,
          "z": 3837.215087890625
        },
        "camFov": 20.0,
        "lerpPattern": 6,
        "cameraBlendType": "EaseInOutCubic",
        "needZAxisRotate": true,
        "openCameraDither": false,
        "targetNpcAlias": "",
        "closeTreeLeafDither": true,
        "KJOEFBPOIIH": "",
        "IICFKKEBIEC": "",
        "EGEHEJEBLBJ": ""
      },
      {
        "$type": "FJKIHHKJLMJ",
        "type": "CAMERA_MOVE",
        "delayTime": 0.10000000149011612,
        "duration": 9.666999816894531,
        "actionId": 159,
        "camPosOffset": {
          "x": 1260.3310546875,
          "y": 97.14800262451172,
          "z": 3838.426025390625
        },
        "camForwardTargetOffset": {
          "x": 1259.6920166015625,
          "y": 97.55000305175781,
          "z": 3837.77001953125
        },
        "camFov": 20.0,
        "cameraBlendType": "EaseOutQuad",
        "needZAxisRotate": true,
        "openCameraDither": false,
        "targetNpcAlias": "",
        "closeTreeLeafDither": true,
        "KJOEFBPOIIH": "",
        "IICFKKEBIEC": "",
        "EGEHEJEBLBJ": ""
      }
    ],
    [
      {
        "$type": "PKKMAMONGEO",
        "type": "DIALOG",
        "aliasList": [
          "21338"
        ],
        "actionId": 123,
        "dialogID": 741958510,
        "protectTime": 0.5
      },
      {
        "$type": "FJKIHHKJLMJ",
        "type": "CAMERA_MOVE",
        "duration": 0.5,
        "actionId": 160,
        "camPosOffset": {
          "x": 1249.3909912109375,
          "y": 103.50700378417969,
          "z": 3805.783935546875
        },
        "camForwardTargetOffset": {
          "x": 1249.9510498046875,
          "y": 103.12899780273438,
          "z": 3805.0458984375
        },
        "camFov": 20.0,
        "lerpPattern": 6,
        "cameraBlendType": "EaseInOutCubic",
        "needZAxisRotate": true,
        "openCameraDither": false,
        "targetNpcAlias": "",
        "closeTreeLeafDither": true,
        "KJOEFBPOIIH": "",
        "IICFKKEBIEC": "",
        "EGEHEJEBLBJ": ""
      },
      {
        "$type": "FJKIHHKJLMJ",
        "type": "CAMERA_MOVE",
        "delayTime": 0.10000000149011612,
        "duration": 7.732999801635742,
        "actionId": 161,
        "camPosOffset": {
          "x": 1249.6910400390625,
          "y": 102.58999633789062,
          "z": 3805.43896484375
        },
        "camForwardTargetOffset": {
          "x": 1250.2509765625,
          "y": 102.21199798583984,
          "z": 3804.700927734375
        },
        "camFov": 20.0,
        "cameraBlendType": "EaseOutQuad",
        "needZAxisRotate": true,
        "openCameraDither": false,
        "targetNpcAlias": "",
        "closeTreeLeafDither": true,
        "KJOEFBPOIIH": "",
        "IICFKKEBIEC": "",
        "EGEHEJEBLBJ": ""
      }
    ],
    [
      {
        "$type": "PKKMAMONGEO",
        "type": "DIALOG",
        "aliasList": [
          "21338"
        ],
        "actionId": 125,
        "dialogID": 741958511,
        "protectTime": 0.5
      }
    ],
    [
      {
        "$type": "MoleMole.Config.ConfigTimeProtectAction",
        "type": "TIME_PROTECT",
        "duration": 0.10000000149011612,
        "actionId": 105
      }
    ]
  ],
  "groupId": [
    {
      "grpId": 914607825,
      "nextGrpId": 914607826,
      "_noCircleNextGrpId": 914607826
    },
    {
      "index": 1,
      "grpId": 914607826,
      "nextGrpId": 914607827,
      "_noCircleNextGrpId": 914607827
    },
    {
      "index": 2,
      "grpId": 914607827,
      "nextGrpId": 914607828,
      "_noCircleNextGrpId": 914607828
    },
    {
      "index": 3,
      "grpId": 914607828,
      "nextGrpId": 914607829,
      "_noCircleNextGrpId": 914607829
    },
    {
      "index": 4,
      "grpId": 914607829,
      "nextGrpId": 914607830,
      "_noCircleNextGrpId": 914607830
    },
    {
      "index": 5,
      "grpId": 914607830,
      "nextGrpId": 914607831,
      "_noCircleNextGrpId": 914607831
    },
    {
      "index": 6,
      "grpId": 914607831,
      "nextGrpId": 914607832,
      "_noCircleNextGrpId": 914607832
    },
    {
      "index": 7,
      "grpId": 914607832,
      "nextGrpId": 914607833,
      "_noCircleNextGrpId": 914607833
    },
    {
      "index": 8,
      "grpId": 914607833,
      "nextGrpId": 2583038847,
      "_noCircleNextGrpId": 2583038847
    },
    {
      "index": 9,
      "grpId": 2583038847,
      "nextGrpId": 2583038848,
      "_noCircleNextGrpId": 2583038848
    },
    {
      "index": 10,
      "grpId": 2583038848,
      "nextGrpId": 2583038849,
      "_noCircleNextGrpId": 2583038849
    },
    {
      "index": 11,
      "grpId": 2583038849,
      "nextGrpId": 2583038850,
      "_noCircleNextGrpId": 2583038850
    }
  ],
  "freeStyleDic": {
    "1025": [
      1220
    ],
    "1026": [
      1220
    ]
  },
  "EKFBDAIDEEF": {
    "AvatarNpc": [
      "SitChat01AS",
      "SitHoldArm01AS",
      "SitShrug01AS",
      "SitThink01AS"
    ]
  },
  "NPFDEBDMHJP": 2583038849
}