{
  "talkId": 6848001,
  "damageRatio": "GADGET",
  "dialogList": [
    {
      "id": 684800101,
      "talkRole": {
        "type": "TALK_ROLE_GADGET",
        "_id": "70330975"
      },
      "talkContentTextMapHash": 2562875170,
      "talkRoleNameTextMapHash": 2457758507,
      "talkAssetPath": "",
      "talkAssetPathAlter": "",
      "talkAudioName": "",
      "actionBefore": "SimpleTalk/LerpInNpcNoSteer_Start",
      "actionWhile": "",
      "actionAfter": "",
      "optionIcon": "",
      "PEMKNDAABBE": 135248660,
      "iconPath": ""
    }
  ]
}