{
  "talkId": 6848014,
  "damageRatio": "GADGET",
  "dialogList": [
    {
      "id": 684801401,
      "nextDialogs": [
        684801402
      ],
      "talkShowType": "TALK_SHOW_FORCE_SELECT",
      "talkRole": {
        "type": "TALK_ROLE_PLAYER",
        "_id": ""
      },
      "talkContentTextMapHash": 1400963778,
      "talkAssetPath": "",
      "talkAssetPathAlter": "",
      "talkAudioName": "",
      "actionBefore": "",
      "actionWhile": "",
      "actionAfter": "",
      "optionIcon": "",
      "iconPath": ""
    },
    {
      "id": 684801402,
      "nextDialogs": [
        684801403
      ],
      "talkRole": {
        "type": "TALK_ROLE_GADGET",
        "_id": "70330991"
      },
      "talkContentTextMapHash": 827751714,
      "talkRoleNameTextMapHash": 2985956403,
      "talkAssetPath": "",
      "talkAssetPathAlter": "",
      "talkAudioName": "",
      "actionBefore": "",
      "actionWhile": "DialogAction/V4.6GadgetCat/GadgetCat_Talk",
      "actionAfter": "",
      "optionIcon": "",
      "PEMKNDAABBE": 1005605980,
      "iconPath": ""
    },
    {
      "id": 684801403,
      "nextDialogs": [
        684801404
      ],
      "talkRole": {
        "type": "TALK_ROLE_GADGET",
        "_id": "70330991"
      },
      "talkContentTextMapHash": 862693626,
      "talkRoleNameTextMapHash": 3986316403,
      "talkAssetPath": "",
      "talkAssetPathAlter": "",
      "talkAudioName": "",
      "actionBefore": "",
      "actionWhile": "",
      "actionAfter": "",
      "optionIcon": "",
      "PEMKNDAABBE": 1603088908,
      "iconPath": ""
    },
    {
      "id": 684801404,
      "nextDialogs": [
        684801405
      ],
      "talkRole": {
        "type": "TALK_ROLE_GADGET",
        "_id": "70330991"
      },
      "talkContentTextMapHash": 3427033322,
      "talkRoleNameTextMapHash": 1443460483,
      "talkAssetPath": "",
      "talkAssetPathAlter": "",
      "talkAudioName": "",
      "actionBefore": "",
      "actionWhile": "",
      "actionAfter": "",
      "optionIcon": "",
      "PEMKNDAABBE": 4116423724,
      "iconPath": ""
    },
    {
      "id": 684801405,
      "nextDialogs": [
        684801406
      ],
      "talkRole": {
        "type": "TALK_ROLE_GADGET",
        "_id": "70330991"
      },
      "talkContentTextMapHash": 2520193754,
      "talkRoleNameTextMapHash": 2203505635,
      "talkAssetPath": "",
      "talkAssetPathAlter": "",
      "talkAudioName": "",
      "actionBefore": "",
      "actionWhile": "DialogAction/V4.6GadgetCat/GadgetCat_Groom",
      "actionAfter": "",
      "optionIcon": "",
      "PEMKNDAABBE": 3462592676,
      "iconPath": ""
    },
    {
      "id": 684801406,
      "nextDialogs": [
        684801407
      ],
      "talkRole": {
        "type": "TALK_ROLE_GADGET",
        "_id": "70330991"
      },
      "talkContentTextMapHash": 2573090546,
      "talkRoleNameTextMapHash": 2323968123,
      "talkAssetPath": "",
      "talkAssetPathAlter": "",
      "talkAudioName": "",
      "actionBefore": "",
      "actionWhile": "",
      "actionAfter": "",
      "optionIcon": "",
      "PEMKNDAABBE": 2046605788,
      "iconPath": ""
    },
    {
      "id": 684801407,
      "nextDialogs": [
        684801408
      ],
      "talkRole": {
        "type": "TALK_ROLE_GADGET",
        "_id": "70330991"
      },
      "talkContentTextMapHash": 3797180986,
      "talkRoleNameTextMapHash": 3309444515,
      "talkAssetPath": "",
      "talkAssetPathAlter": "",
      "talkAudioName": "",
      "actionBefore": "",
      "actionWhile": "DialogAction/V4.6GadgetCat/GadgetCat_Weak_HandRight",
      "actionAfter": "",
      "optionIcon": "",
      "PEMKNDAABBE": 644718388,
      "iconPath": ""
    },
    {
      "id": 684801408,
      "talkRole": {
        "type": "TALK_ROLE_GADGET",
        "_id": "70330991"
      },
      "talkContentTextMapHash": 2926883890,
      "talkRoleNameTextMapHash": 4232637195,
      "talkAssetPath": "",
      "talkAssetPathAlter": "",
      "talkAudioName": "",
      "actionBefore": "",
      "actionWhile": "",
      "actionAfter": "SimpleTalk/LerpOutNpcNoSteer_End",
      "optionIcon": "",
      "PEMKNDAABBE": 2320967612,
      "iconPath": ""
    }
  ]
}