{
  "talkId": 6848008,
  "damageRatio": "GADGET",
  "dialogList": [
    {
      "id": 684800801,
      "nextDialogs": [
        684800802
      ],
      "talkShowType": "TALK_SHOW_FORCE_SELECT",
      "talkRole": {
        "type": "TALK_ROLE_PLAYER",
        "_id": ""
      },
      "talkContentTextMapHash": 885070810,
      "talkAssetPath": "",
      "talkAssetPathAlter": "",
      "talkAudioName": "",
      "actionBefore": "",
      "actionWhile": "",
      "actionAfter": "",
      "optionIcon": "",
      "iconPath": ""
    },
    {
      "id": 684800802,
      "talkRole": {
        "type": "TALK_ROLE_GADGET",
        "_id": "70330975"
      },
      "talkContentTextMapHash": 476209530,
      "talkRoleNameTextMapHash": 3673930611,
      "talkAssetPath": "",
      "talkAssetPathAlter": "",
      "talkAudioName": "",
      "actionBefore": "",
      "actionWhile": "DialogAction/V4.6GadgetCat/GadgetCat_Weak_Face",
      "actionAfter": "",
      "optionIcon": "",
      "PEMKNDAABBE": 3669043252,
      "iconPath": ""
    }
  ]
}