{
  "talkId": 6848302,
  "damageRatio": "GADGET",
  "dialogList": [
    {
      "id": 684830201,
      "nextDialogs": [
        684830202
      ],
      "talkRole": {
        "type": "TALK_ROLE_GADGET",
        "_id": "70950134"
      },
      "talkContentTextMapHash": 3457744786,
      "talkRoleNameTextMapHash": 3286577091,
      "talkAssetPath": "",
      "talkAssetPathAlter": "",
      "talkAudioName": "",
      "actionBefore": "TEST/LerpInNpcNoSteer",
      "actionWhile": "",
      "actionAfter": "",
      "optionIcon": "",
      "PEMKNDAABBE": 1590983620,
      "iconPath": ""
    },
    {
      "id": 684830202,
      "nextDialogs": [
        684830203
      ],
      "talkRole": {
        "type": "TALK_ROLE_GADGET",
        "_id": "70950134"
      },
      "talkContentTextMapHash": 3685046114,
      "talkRoleNameTextMapHash": 4021524195,
      "talkAssetPath": "",
      "talkAssetPathAlter": "",
      "talkAudioName": "",
      "actionBefore": "",
      "actionWhile": "",
      "actionAfter": "",
      "optionIcon": "",
      "PEMKNDAABBE": 3227771916,
      "iconPath": ""
    },
    {
      "id": 684830203,
      "talkRole": {
        "type": "TALK_ROLE_GADGET",
        "_id": "70950134"
      },
      "talkContentTextMapHash": 2023418226,
      "talkRoleNameTextMapHash": 344564475,
      "talkAssetPath": "",
      "talkAssetPathAlter": "",
      "talkAudioName": "",
      "actionBefore": "",
      "actionWhile": "",
      "actionAfter": "TEST/LerpOutNpcNoSteer",
      "optionIcon": "",
      "PEMKNDAABBE": 4286962940,
      "iconPath": ""
    }
  ]
}