{
  "talkId": 6848300,
  "damageRatio": "GADGET",
  "dialogList": [
    {
      "id": 684830001,
      "nextDialogs": [
        684830002
      ],
      "talkRole": {
        "type": "TALK_ROLE_GADGET",
        "_id": "70950134"
      },
      "talkContentTextMapHash": 1318733282,
      "talkRoleNameTextMapHash": 4119846203,
      "talkAssetPath": "",
      "talkAssetPathAlter": "",
      "talkAudioName": "",
      "actionBefore": "TEST/LerpInNpcNoSteer",
      "actionWhile": "",
      "actionAfter": "",
      "optionIcon": "",
      "PEMKNDAABBE": 3395609100,
      "iconPath": ""
    },
    {
      "id": 684830002,
      "nextDialogs": [
        684830003
      ],
      "talkRole": {
        "type": "TALK_ROLE_GADGET",
        "_id": "70950134"
      },
      "talkContentTextMapHash": 3562511762,
      "talkRoleNameTextMapHash": 3146420603,
      "talkAssetPath": "",
      "talkAssetPathAlter": "",
      "talkAudioName": "",
      "actionBefore": "",
      "actionWhile": "",
      "actionAfter": "",
      "optionIcon": "",
      "PEMKNDAABBE": 434182724,
      "iconPath": ""
    },
    {
      "id": 684830003,
      "talkRole": {
        "type": "TALK_ROLE_GADGET",
        "_id": "70950134"
      },
      "talkContentTextMapHash": 61718810,
      "talkRoleNameTextMapHash": 3372413995,
      "talkAssetPath": "",
      "talkAssetPathAlter": "",
      "talkAudioName": "",
      "actionBefore": "",
      "actionWhile": "",
      "actionAfter": "TEST/LerpOutNpcNoSteer",
      "optionIcon": "",
      "PEMKNDAABBE": 3252644596,
      "iconPath": ""
    }
  ]
}