{
  "talkId": 6850200,
  "damageRatio": "GADGET",
  "dialogList": [
    {
      "id": 685020001,
      "nextDialogs": [
        685020002
      ],
      "talkRole": {
        "type": "TALK_ROLE_GADGET",
        "_id": "70950134"
      },
      "talkContentTextMapHash": 1366227290,
      "talkRoleNameTextMapHash": 1578549483,
      "talkAssetPath": "",
      "talkAssetPathAlter": "",
      "talkAudioName": "",
      "actionBefore": "SimpleTalk/LerpInNpcNoSteer_Start",
      "actionWhile": "SimpleTalk/LerpInNpcNoSteer_Start",
      "actionAfter": "",
      "optionIcon": "",
      "PEMKNDAABBE": 523472652,
      "iconPath": ""
    },
    {
      "id": 685020002,
      "talkRole": {
        "type": "TALK_ROLE_GADGET",
        "_id": "70950134"
      },
      "talkContentTextMapHash": 3070014090,
      "talkRoleNameTextMapHash": 3367447115,
      "talkAssetPath": "",
      "talkAssetPathAlter": "",
      "talkAudioName": "",
      "actionBefore": "",
      "actionWhile": "",
      "actionAfter": "SimpleTalk/LerpOutNpcNoSteer_End",
      "optionIcon": "",
      "PEMKNDAABBE": 2594015972,
      "iconPath": ""
    }
  ]
}