{
  "talkId": 6852013,
  "damageRatio": "GADGET",
  "dialogList": [
    {
      "id": 685201301,
      "nextDialogs": [
        685201302
      ],
      "talkShowType": "TALK_SHOW_FORCE_SELECT",
      "talkRole": {
        "type": "TALK_ROLE_PLAYER",
        "_id": ""
      },
      "talkContentTextMapHash": 933917250,
      "talkAssetPath": "",
      "talkAssetPathAlter": "",
      "talkAudioName": "",
      "actionBefore": "",
      "actionWhile": "",
      "actionAfter": "",
      "optionIcon": "",
      "iconPath": ""
    },
    {
      "id": 685201302,
      "nextDialogs": [
        685201303
      ],
      "talkRole": {
        "type": "TALK_ROLE_GADGET",
        "_id": "70330991"
      },
      "talkContentTextMapHash": 3670513274,
      "talkRoleNameTextMapHash": 4056891123,
      "talkAssetPath": "",
      "talkAssetPathAlter": "",
      "talkAudioName": "",
      "actionBefore": "",
      "actionWhile": "DialogAction/V4.6GadgetCat/GadgetCat_Groom",
      "actionAfter": "",
      "optionIcon": "",
      "PEMKNDAABBE": 1087274700,
      "iconPath": ""
    },
    {
      "id": 685201303,
      "nextDialogs": [
        685201304
      ],
      "talkRole": {
        "type": "TALK_ROLE_GADGET",
        "_id": "70330991"
      },
      "talkContentTextMapHash": 3186012146,
      "talkRoleNameTextMapHash": 2908706835,
      "talkAssetPath": "",
      "talkAssetPathAlter": "",
      "talkAudioName": "",
      "actionBefore": "",
      "actionWhile": "",
      "actionAfter": "",
      "optionIcon": "",
      "PEMKNDAABBE": 2966158148,
      "iconPath": ""
    },
    {
      "id": 685201304,
      "nextDialogs": [
        685201305
      ],
      "talkRole": {
        "type": "TALK_ROLE_GADGET",
        "_id": "70330991"
      },
      "talkContentTextMapHash": 2785281810,
      "talkRoleNameTextMapHash": 3609351555,
      "talkAssetPath": "",
      "talkAssetPathAlter": "",
      "talkAudioName": "",
      "actionBefore": "",
      "actionWhile": "",
      "actionAfter": "",
      "optionIcon": "",
      "PEMKNDAABBE": 766006692,
      "iconPath": ""
    },
    {
      "id": 685201305,
      "nextDialogs": [
        685201306
      ],
      "talkRole": {
        "type": "TALK_ROLE_GADGET",
        "_id": "70330991"
      },
      "talkContentTextMapHash": 174801962,
      "talkRoleNameTextMapHash": 1314159411,
      "talkAssetPath": "",
      "talkAssetPathAlter": "",
      "talkAudioName": "",
      "actionBefore": "",
      "actionWhile": "DialogAction/V4.6GadgetCat/GadgetCat_Weak_HandRight",
      "actionAfter": "",
      "optionIcon": "",
      "PEMKNDAABBE": 3942863660,
      "iconPath": ""
    },
    {
      "id": 685201306,
      "nextDialogs": [
        685201307
      ],
      "talkRole": {
        "type": "TALK_ROLE_GADGET",
        "_id": "70330991"
      },
      "talkContentTextMapHash": 113540938,
      "talkRoleNameTextMapHash": 1441643059,
      "talkAssetPath": "",
      "talkAssetPathAlter": "",
      "talkAudioName": "",
      "actionBefore": "",
      "actionWhile": "",
      "actionAfter": "",
      "optionIcon": "",
      "PEMKNDAABBE": 3248939204,
      "iconPath": ""
    },
    {
      "id": 685201307,
      "nextDialogs": [
        685201308
      ],
      "talkRole": {
        "type": "TALK_ROLE_GADGET",
        "_id": "70330991"
      },
      "talkContentTextMapHash": 2634872098,
      "talkRoleNameTextMapHash": 389842635,
      "talkAssetPath": "",
      "talkAssetPathAlter": "",
      "talkAudioName": "",
      "actionBefore": "",
      "actionWhile": "DialogAction/V4.6GadgetCat/GadgetCat_Weak_HandLeft",
      "actionAfter": "",
      "optionIcon": "",
      "PEMKNDAABBE": 2029040228,
      "iconPath": ""
    },
    {
      "id": 685201308,
      "nextDialogs": [
        685201309
      ],
      "talkRole": {
        "type": "TALK_ROLE_GADGET",
        "_id": "70330991"
      },
      "talkContentTextMapHash": 4043689922,
      "talkRoleNameTextMapHash": 2019829187,
      "talkAssetPath": "",
      "talkAssetPathAlter": "",
      "talkAudioName": "",
      "actionBefore": "",
      "actionWhile": "",
      "actionAfter": "",
      "optionIcon": "",
      "PEMKNDAABBE": 3176108756,
      "iconPath": ""
    },
    {
      "id": 685201309,
      "nextDialogs": [
        685201310
      ],
      "talkRole": {
        "type": "TALK_ROLE_GADGET",
        "_id": "70330991"
      },
      "talkContentTextMapHash": 3654674314,
      "talkRoleNameTextMapHash": 3372479011,
      "talkAssetPath": "",
      "talkAssetPathAlter": "",
      "talkAudioName": "",
      "actionBefore": "",
      "actionWhile": "DialogAction/V4.6GadgetCat/GadgetCat_Talk",
      "actionAfter": "",
      "optionIcon": "",
      "PEMKNDAABBE": 2350702972,
      "iconPath": ""
    },
    {
      "id": 685201310,
      "nextDialogs": [
        685201311
      ],
      "talkRole": {
        "type": "TALK_ROLE_GADGET",
        "_id": "70330991"
      },
      "talkContentTextMapHash": 2931451818,
      "talkRoleNameTextMapHash": 2557239075,
      "talkAssetPath": "",
      "talkAssetPathAlter": "",
      "talkAudioName": "",
      "actionBefore": "",
      "actionWhile": "",
      "actionAfter": "",
      "optionIcon": "",
      "PEMKNDAABBE": 1182772540,
      "iconPath": ""
    },
    {
      "id": 685201311,
      "nextDialogs": [
        685201312
      ],
      "talkRole": {
        "type": "TALK_ROLE_GADGET",
        "_id": "70330991"
      },
      "talkContentTextMapHash": 3140390330,
      "talkRoleNameTextMapHash": 35212555,
      "talkAssetPath": "",
      "talkAssetPathAlter": "",
      "talkAudioName": "",
      "actionBefore": "",
      "actionWhile": "",
      "actionAfter": "",
      "optionIcon": "",
      "PEMKNDAABBE": 110761644,
      "iconPath": ""
    },
    {
      "id": 685201312,
      "talkRole": {
        "type": "TALK_ROLE_GADGET",
        "_id": "70330991"
      },
      "talkContentTextMapHash": 1993899106,
      "talkRoleNameTextMapHash": 1198111627,
      "talkAssetPath": "",
      "talkAssetPathAlter": "",
      "talkAudioName": "",
      "actionBefore": "",
      "actionWhile": "",
      "actionAfter": "SimpleTalk/LerpOutNpcNoSteer_End",
      "optionIcon": "",
      "PEMKNDAABBE": 786680004,
      "iconPath": ""
    }
  ]
}