{
  "talkId": 6852001,
  "damageRatio": "GADGET",
  "dialogList": [
    {
      "id": 685200101,
      "talkRole": {
        "type": "TALK_ROLE_GADGET",
        "_id": "70330975"
      },
      "talkContentTextMapHash": 32842674,
      "talkRoleNameTextMapHash": 2265019099,
      "talkAssetPath": "",
      "talkAssetPathAlter": "",
      "talkAudioName": "",
      "actionBefore": "SimpleTalk/LerpInNpcNoSteer_Start",
      "actionWhile": "",
      "actionAfter": "",
      "optionIcon": "",
      "PEMKNDAABBE": 2248515020,
      "iconPath": ""
    }
  ]
}