{
  "talkId": 6852009,
  "damageRatio": "GADGET",
  "dialogList": [
    {
      "id": 685200901,
      "talkRole": {
        "type": "TALK_ROLE_GADGET",
        "_id": "70330991"
      },
      "talkContentTextMapHash": 553012018,
      "talkRoleNameTextMapHash": 4209230603,
      "talkAssetPath": "",
      "talkAssetPathAlter": "",
      "talkAudioName": "",
      "actionBefore": "SimpleTalk/LerpInNpcNoSteer_Start",
      "actionWhile": "",
      "actionAfter": "",
      "optionIcon": "",
      "PEMKNDAABBE": 2482254276,
      "iconPath": ""
    }
  ]
}