{
  "talkId": 6853014,
  "damageRatio": "GADGET",
  "dialogList": [
    {
      "id": 685301401,
      "nextDialogs": [
        685301402
      ],
      "talkShowType": "TALK_SHOW_FORCE_SELECT",
      "talkRole": {
        "type": "TALK_ROLE_PLAYER",
        "_id": ""
      },
      "talkContentTextMapHash": 795272554,
      "talkAssetPath": "",
      "talkAssetPathAlter": "",
      "talkAudioName": "",
      "actionBefore": "",
      "actionWhile": "",
      "actionAfter": "",
      "optionIcon": "",
      "iconPath": ""
    },
    {
      "id": 685301402,
      "nextDialogs": [
        685301403
      ],
      "talkRole": {
        "type": "TALK_ROLE_GADGET",
        "_id": "70330991"
      },
      "talkContentTextMapHash": 781042274,
      "talkRoleNameTextMapHash": 2435883963,
      "talkAssetPath": "",
      "talkAssetPathAlter": "",
      "talkAudioName": "",
      "actionBefore": "",
      "actionWhile": "DialogAction/V4.6GadgetCat/GadgetCat_Groom",
      "actionAfter": "",
      "optionIcon": "",
      "PEMKNDAABBE": 2175755764,
      "iconPath": ""
    },
    {
      "id": 685301403,
      "nextDialogs": [
        685301404
      ],
      "talkRole": {
        "type": "TALK_ROLE_GADGET",
        "_id": "70330991"
      },
      "talkContentTextMapHash": 33801370,
      "talkRoleNameTextMapHash": 2916380651,
      "talkAssetPath": "",
      "talkAssetPathAlter": "",
      "talkAudioName": "",
      "actionBefore": "",
      "actionWhile": "",
      "actionAfter": "",
      "optionIcon": "",
      "PEMKNDAABBE": 3886713492,
      "iconPath": ""
    },
    {
      "id": 685301404,
      "nextDialogs": [
        685301405
      ],
      "talkRole": {
        "type": "TALK_ROLE_GADGET",
        "_id": "70330991"
      },
      "talkContentTextMapHash": 3595293170,
      "talkRoleNameTextMapHash": 668798787,
      "talkAssetPath": "",
      "talkAssetPathAlter": "",
      "talkAudioName": "",
      "actionBefore": "",
      "actionWhile": "",
      "actionAfter": "",
      "optionIcon": "",
      "PEMKNDAABBE": 1654534388,
      "iconPath": ""
    },
    {
      "id": 685301405,
      "nextDialogs": [
        685301406
      ],
      "talkRole": {
        "type": "TALK_ROLE_GADGET",
        "_id": "70330991"
      },
      "talkContentTextMapHash": 1154680698,
      "talkRoleNameTextMapHash": 3101329235,
      "talkAssetPath": "",
      "talkAssetPathAlter": "",
      "talkAudioName": "",
      "actionBefore": "",
      "actionWhile": "DialogAction/V4.6GadgetCat/GadgetCat_Weak_HandRight",
      "actionAfter": "",
      "optionIcon": "",
      "PEMKNDAABBE": 3590130172,
      "iconPath": ""
    },
    {
      "id": 685301406,
      "nextDialogs": [
        685301407
      ],
      "talkRole": {
        "type": "TALK_ROLE_GADGET",
        "_id": "70330991"
      },
      "talkContentTextMapHash": 3651917458,
      "talkRoleNameTextMapHash": 2463241467,
      "talkAssetPath": "",
      "talkAssetPathAlter": "",
      "talkAudioName": "",
      "actionBefore": "",
      "actionWhile": "",
      "actionAfter": "",
      "optionIcon": "",
      "PEMKNDAABBE": 1851867996,
      "iconPath": ""
    },
    {
      "id": 685301407,
      "nextDialogs": [
        685301408
      ],
      "talkRole": {
        "type": "TALK_ROLE_GADGET",
        "_id": "70330991"
      },
      "talkContentTextMapHash": 4012474250,
      "talkRoleNameTextMapHash": 4034769571,
      "talkAssetPath": "",
      "talkAssetPathAlter": "",
      "talkAudioName": "",
      "actionBefore": "",
      "actionWhile": "DialogAction/V4.6GadgetCat/GadgetCat_Weak_HandLeft",
      "actionAfter": "",
      "optionIcon": "",
      "PEMKNDAABBE": 1612381404,
      "iconPath": ""
    },
    {
      "id": 685301408,
      "nextDialogs": [
        685301409
      ],
      "talkRole": {
        "type": "TALK_ROLE_GADGET",
        "_id": "70330991"
      },
      "talkContentTextMapHash": 3482021346,
      "talkRoleNameTextMapHash": 2754219139,
      "talkAssetPath": "",
      "talkAssetPathAlter": "",
      "talkAudioName": "",
      "actionBefore": "",
      "actionWhile": "",
      "actionAfter": "",
      "optionIcon": "",
      "PEMKNDAABBE": 3085320116,
      "iconPath": ""
    },
    {
      "id": 685301409,
      "nextDialogs": [
        685301410
      ],
      "talkRole": {
        "type": "TALK_ROLE_GADGET",
        "_id": "70330991"
      },
      "talkContentTextMapHash": 652746026,
      "talkRoleNameTextMapHash": 3638433267,
      "talkAssetPath": "",
      "talkAssetPathAlter": "",
      "talkAudioName": "",
      "actionBefore": "",
      "actionWhile": "DialogAction/V4.6GadgetCat/GadgetCat_Talk",
      "actionAfter": "",
      "optionIcon": "",
      "PEMKNDAABBE": 1436923756,
      "iconPath": ""
    },
    {
      "id": 685301410,
      "nextDialogs": [
        685301411
      ],
      "talkRole": {
        "type": "TALK_ROLE_GADGET",
        "_id": "70330991"
      },
      "talkContentTextMapHash": 752420066,
      "talkRoleNameTextMapHash": 3757786755,
      "talkAssetPath": "",
      "talkAssetPathAlter": "",
      "talkAudioName": "",
      "actionBefore": "",
      "actionWhile": "",
      "actionAfter": "",
      "optionIcon": "",
      "PEMKNDAABBE": 30644812,
      "iconPath": ""
    },
    {
      "id": 685301411,
      "nextDialogs": [
        685301412
      ],
      "talkRole": {
        "type": "TALK_ROLE_GADGET",
        "_id": "70330991"
      },
      "talkContentTextMapHash": 3997557378,
      "talkRoleNameTextMapHash": 2075380523,
      "talkAssetPath": "",
      "talkAssetPathAlter": "",
      "talkAudioName": "",
      "actionBefore": "",
      "actionWhile": "",
      "actionAfter": "",
      "optionIcon": "",
      "PEMKNDAABBE": 2204374644,
      "iconPath": ""
    },
    {
      "id": 685301412,
      "talkRole": {
        "type": "TALK_ROLE_GADGET",
        "_id": "70330991"
      },
      "talkContentTextMapHash": 379065146,
      "talkRoleNameTextMapHash": 63622891,
      "talkAssetPath": "",
      "talkAssetPathAlter": "",
      "talkAudioName": "",
      "actionBefore": "",
      "actionWhile": "",
      "actionAfter": "SimpleTalk/LerpOutNpcNoSteer_End",
      "optionIcon": "",
      "PEMKNDAABBE": 1665124860,
      "iconPath": ""
    }
  ]
}