{
  "talkId": 6853015,
  "damageRatio": "GADGET",
  "dialogList": [
    {
      "id": 685301501,
      "nextDialogs": [
        685301502
      ],
      "talkShowType": "TALK_SHOW_FORCE_SELECT",
      "talkRole": {
        "type": "TALK_ROLE_PLAYER",
        "_id": ""
      },
      "talkContentTextMapHash": 3828781810,
      "talkAssetPath": "",
      "talkAssetPathAlter": "",
      "talkAudioName": "",
      "actionBefore": "",
      "actionWhile": "",
      "actionAfter": "",
      "optionIcon": "",
      "iconPath": ""
    },
    {
      "id": 685301502,
      "nextDialogs": [
        685301503
      ],
      "talkRole": {
        "type": "TALK_ROLE_GADGET",
        "_id": "70330991"
      },
      "talkContentTextMapHash": 869326714,
      "talkRoleNameTextMapHash": 3500739339,
      "talkAssetPath": "",
      "talkAssetPathAlter": "",
      "talkAudioName": "",
      "actionBefore": "",
      "actionWhile": "DialogAction/V4.6GadgetCat/GadgetCat_Talk",
      "actionAfter": "",
      "optionIcon": "",
      "PEMKNDAABBE": 4214768508,
      "iconPath": ""
    },
    {
      "id": 685301503,
      "nextDialogs": [
        685301504
      ],
      "talkRole": {
        "type": "TALK_ROLE_GADGET",
        "_id": "70330991"
      },
      "talkContentTextMapHash": 3098500002,
      "talkRoleNameTextMapHash": 3408925403,
      "talkAssetPath": "",
      "talkAssetPathAlter": "",
      "talkAudioName": "",
      "actionBefore": "",
      "actionWhile": "",
      "actionAfter": "",
      "optionIcon": "",
      "PEMKNDAABBE": 1715463708,
      "iconPath": ""
    },
    {
      "id": 685301504,
      "nextDialogs": [
        685301505
      ],
      "talkRole": {
        "type": "TALK_ROLE_GADGET",
        "_id": "70330991"
      },
      "talkContentTextMapHash": 1669682738,
      "talkRoleNameTextMapHash": 3140759851,
      "talkAssetPath": "",
      "talkAssetPathAlter": "",
      "talkAudioName": "",
      "actionBefore": "",
      "actionWhile": "",
      "actionAfter": "",
      "optionIcon": "",
      "PEMKNDAABBE": 1313660356,
      "iconPath": ""
    },
    {
      "id": 685301505,
      "nextDialogs": [
        685301506
      ],
      "talkRole": {
        "type": "TALK_ROLE_GADGET",
        "_id": "70330991"
      },
      "talkContentTextMapHash": 61916242,
      "talkRoleNameTextMapHash": 3970352571,
      "talkAssetPath": "",
      "talkAssetPathAlter": "",
      "talkAudioName": "",
      "actionBefore": "",
      "actionWhile": "DialogAction/V4.6GadgetCat/GadgetCat_Weak_Tail",
      "actionAfter": "",
      "optionIcon": "",
      "PEMKNDAABBE": 1723411180,
      "iconPath": ""
    },
    {
      "id": 685301506,
      "nextDialogs": [
        685301507
      ],
      "talkRole": {
        "type": "TALK_ROLE_GADGET",
        "_id": "70330991"
      },
      "talkContentTextMapHash": 4015700674,
      "talkRoleNameTextMapHash": 1400036035,
      "talkAssetPath": "",
      "talkAssetPathAlter": "",
      "talkAudioName": "",
      "actionBefore": "",
      "actionWhile": "",
      "actionAfter": "",
      "optionIcon": "",
      "PEMKNDAABBE": 1081868780,
      "iconPath": ""
    },
    {
      "id": 685301507,
      "nextDialogs": [
        685301508
      ],
      "talkRole": {
        "type": "TALK_ROLE_GADGET",
        "_id": "70330991"
      },
      "talkContentTextMapHash": 4131475538,
      "talkRoleNameTextMapHash": 3948578739,
      "talkAssetPath": "",
      "talkAssetPathAlter": "",
      "talkAudioName": "",
      "actionBefore": "",
      "actionWhile": "",
      "actionAfter": "",
      "optionIcon": "",
      "PEMKNDAABBE": 1074487060,
      "iconPath": ""
    },
    {
      "id": 685301508,
      "nextDialogs": [
        685301509
      ],
      "talkRole": {
        "type": "TALK_ROLE_GADGET",
        "_id": "70330991"
      },
      "talkContentTextMapHash": 485875818,
      "talkRoleNameTextMapHash": 442998923,
      "talkAssetPath": "",
      "talkAssetPathAlter": "",
      "talkAudioName": "",
      "actionBefore": "",
      "actionWhile": "",
      "actionAfter": "",
      "optionIcon": "",
      "PEMKNDAABBE": 917220524,
      "iconPath": ""
    },
    {
      "id": 685301509,
      "talkRole": {
        "type": "TALK_ROLE_GADGET",
        "_id": "70330991"
      },
      "talkContentTextMapHash": 1255302258,
      "talkRoleNameTextMapHash": 882699763,
      "talkAssetPath": "",
      "talkAssetPathAlter": "",
      "talkAudioName": "",
      "actionBefore": "",
      "actionWhile": "",
      "actionAfter": "SimpleTalk/LerpOutNpcNoSteer_End",
      "optionIcon": "",
      "PEMKNDAABBE": 4242572004,
      "iconPath": ""
    }
  ]
}