{
  "talkId": 6853006,
  "damageRatio": "GADGET",
  "dialogList": [
    {
      "id": 685300601,
      "nextDialogs": [
        685300602
      ],
      "talkShowType": "TALK_SHOW_FORCE_SELECT",
      "talkRole": {
        "type": "TALK_ROLE_PLAYER",
        "_id": ""
      },
      "talkContentTextMapHash": 1800396082,
      "talkAssetPath": "",
      "talkAssetPathAlter": "",
      "talkAudioName": "",
      "actionBefore": "",
      "actionWhile": "",
      "actionAfter": "",
      "optionIcon": "",
      "iconPath": ""
    },
    {
      "id": 685300602,
      "nextDialogs": [
        685300603
      ],
      "talkRole": {
        "type": "TALK_ROLE_GADGET",
        "_id": "70330975"
      },
      "talkContentTextMapHash": 2611475578,
      "talkRoleNameTextMapHash": 649958939,
      "talkAssetPath": "",
      "talkAssetPathAlter": "",
      "talkAudioName": "",
      "actionBefore": "",
      "actionWhile": "DialogAction/V4.6GadgetCat/GadgetCat_Groom",
      "actionAfter": "",
      "optionIcon": "",
      "PEMKNDAABBE": 3994737420,
      "iconPath": ""
    },
    {
      "id": 685300603,
      "nextDialogs": [
        685300604
      ],
      "talkRole": {
        "type": "TALK_ROLE_GADGET",
        "_id": "70330975"
      },
      "talkContentTextMapHash": 1685625074,
      "talkRoleNameTextMapHash": 2709328915,
      "talkAssetPath": "",
      "talkAssetPathAlter": "",
      "talkAudioName": "",
      "actionBefore": "",
      "actionWhile": "",
      "actionAfter": "",
      "optionIcon": "",
      "PEMKNDAABBE": 2345848124,
      "iconPath": ""
    },
    {
      "id": 685300604,
      "nextDialogs": [
        685300605
      ],
      "talkRole": {
        "type": "TALK_ROLE_GADGET",
        "_id": "70330975"
      },
      "talkContentTextMapHash": 25585386,
      "talkRoleNameTextMapHash": 3656530843,
      "talkAssetPath": "",
      "talkAssetPathAlter": "",
      "talkAudioName": "",
      "actionBefore": "",
      "actionWhile": "",
      "actionAfter": "",
      "optionIcon": "",
      "PEMKNDAABBE": 849685892,
      "iconPath": ""
    },
    {
      "id": 685300605,
      "nextDialogs": [
        685300606
      ],
      "talkRole": {
        "type": "TALK_ROLE_GADGET",
        "_id": "70330975"
      },
      "talkContentTextMapHash": 66196890,
      "talkRoleNameTextMapHash": 1169777171,
      "talkAssetPath": "",
      "talkAssetPathAlter": "",
      "talkAudioName": "",
      "actionBefore": "",
      "actionWhile": "DialogAction/V4.6GadgetCat/GadgetCat_Weak_Tail",
      "actionAfter": "",
      "optionIcon": "",
      "PEMKNDAABBE": 23996772,
      "iconPath": ""
    },
    {
      "id": 685300606,
      "talkRole": {
        "type": "TALK_ROLE_GADGET",
        "_id": "70330975"
      },
      "talkContentTextMapHash": 513967794,
      "talkRoleNameTextMapHash": 2346426915,
      "talkAssetPath": "",
      "talkAssetPathAlter": "",
      "talkAudioName": "",
      "actionBefore": "",
      "actionWhile": "",
      "actionAfter": "SimpleTalk/LerpOutNpcNoSteer_End",
      "optionIcon": "",
      "PEMKNDAABBE": 63743524,
      "iconPath": ""
    }
  ]
}