{
  "talkId": 6853005,
  "damageRatio": "GADGET",
  "dialogList": [
    {
      "id": 685300501,
      "talkRole": {
        "type": "TALK_ROLE_GADGET",
        "_id": "70330975"
      },
      "talkContentTextMapHash": 2298858434,
      "talkRoleNameTextMapHash": 1295486539,
      "talkAssetPath": "",
      "talkAssetPathAlter": "",
      "talkAudioName": "",
      "actionBefore": "SimpleTalk/LerpInNpcNoSteer_Start",
      "actionWhile": "",
      "actionAfter": "",
      "optionIcon": "",
      "PEMKNDAABBE": 2311998332,
      "iconPath": ""
    }
  ]
}