{
  "talkId": 6855006,
  "damageRatio": "GADGET",
  "dialogList": [
    {
      "id": 685500601,
      "nextDialogs": [
        685500602
      ],
      "talkShowType": "TALK_SHOW_FORCE_SELECT",
      "talkRole": {
        "type": "TALK_ROLE_PLAYER",
        "_id": ""
      },
      "talkContentTextMapHash": 1470161498,
      "talkAssetPath": "",
      "talkAssetPathAlter": "",
      "talkAudioName": "",
      "actionBefore": "",
      "actionWhile": "",
      "actionAfter": "",
      "optionIcon": "",
      "iconPath": ""
    },
    {
      "id": 685500602,
      "nextDialogs": [
        685500603
      ],
      "talkRole": {
        "type": "TALK_ROLE_GADGET",
        "_id": "70330991"
      },
      "talkContentTextMapHash": 1381510802,
      "talkRoleNameTextMapHash": 2301861803,
      "talkAssetPath": "",
      "talkAssetPathAlter": "",
      "talkAudioName": "",
      "actionBefore": "",
      "actionWhile": "DialogAction/V4.6GadgetCat/GadgetCat_Talk",
      "actionAfter": "",
      "optionIcon": "",
      "PEMKNDAABBE": 2515485636,
      "iconPath": ""
    },
    {
      "id": 685500603,
      "nextDialogs": [
        685500604
      ],
      "talkRole": {
        "type": "TALK_ROLE_GADGET",
        "_id": "70330991"
      },
      "talkContentTextMapHash": 1989205194,
      "talkRoleNameTextMapHash": 3651496635,
      "talkAssetPath": "",
      "talkAssetPathAlter": "",
      "talkAudioName": "",
      "actionBefore": "",
      "actionWhile": "",
      "actionAfter": "",
      "optionIcon": "",
      "PEMKNDAABBE": 633786628,
      "iconPath": ""
    },
    {
      "id": 685500604,
      "nextDialogs": [
        685500605
      ],
      "talkRole": {
        "type": "TALK_ROLE_GADGET",
        "_id": "70330991"
      },
      "talkContentTextMapHash": 2340648666,
      "talkRoleNameTextMapHash": 934585507,
      "talkAssetPath": "",
      "talkAssetPathAlter": "",
      "talkAudioName": "",
      "actionBefore": "",
      "actionWhile": "",
      "actionAfter": "",
      "optionIcon": "",
      "PEMKNDAABBE": 1983084460,
      "iconPath": ""
    },
    {
      "id": 685500605,
      "nextDialogs": [
        685500606
      ],
      "talkRole": {
        "type": "TALK_ROLE_GADGET",
        "_id": "70330991"
      },
      "talkContentTextMapHash": 3793897178,
      "talkRoleNameTextMapHash": 1095506299,
      "talkAssetPath": "",
      "talkAssetPathAlter": "",
      "talkAudioName": "",
      "actionBefore": "",
      "actionWhile": "DialogAction/V4.6GadgetCat/GadgetCat_Groom",
      "actionAfter": "",
      "optionIcon": "",
      "PEMKNDAABBE": 4260768108,
      "iconPath": ""
    },
    {
      "id": 685500606,
      "nextDialogs": [
        685500607
      ],
      "talkRole": {
        "type": "TALK_ROLE_GADGET",
        "_id": "70330991"
      },
      "talkContentTextMapHash": 183560018,
      "talkRoleNameTextMapHash": 511095563,
      "talkAssetPath": "",
      "talkAssetPathAlter": "",
      "talkAudioName": "",
      "actionBefore": "",
      "actionWhile": "",
      "actionAfter": "",
      "optionIcon": "",
      "PEMKNDAABBE": 2884637524,
      "iconPath": ""
    },
    {
      "id": 685500607,
      "nextDialogs": [
        685500608
      ],
      "talkRole": {
        "type": "TALK_ROLE_GADGET",
        "_id": "70330991"
      },
      "talkContentTextMapHash": 3862221522,
      "talkRoleNameTextMapHash": 2925091451,
      "talkAssetPath": "",
      "talkAssetPathAlter": "",
      "talkAudioName": "",
      "actionBefore": "",
      "actionWhile": "DialogAction/V4.6GadgetCat/GadgetCat_Weak_HandRight",
      "actionAfter": "",
      "optionIcon": "",
      "PEMKNDAABBE": 1927196788,
      "iconPath": ""
    },
    {
      "id": 685500608,
      "talkRole": {
        "type": "TALK_ROLE_GADGET",
        "_id": "70330991"
      },
      "talkContentTextMapHash": 979256322,
      "talkRoleNameTextMapHash": 40306171,
      "talkAssetPath": "",
      "talkAssetPathAlter": "",
      "talkAudioName": "",
      "actionBefore": "",
      "actionWhile": "",
      "actionAfter": "SimpleTalk/LerpOutNpcNoSteer_End",
      "optionIcon": "",
      "PEMKNDAABBE": 2794374100,
      "iconPath": ""
    }
  ]
}