{
  "luaDataPath": "",
  "isSimpleTalk": true,
  "dontUseDefaultFinish": true,
  "entityBan": "",
  "disableNpcLod": true,
  "startFade": {
    "startFadeOutDuration": 0.0
  },
  "endFade": {
    "startFadeOutDuration": 0.0
  },
  "actors": [
    {
      "alias": "Avatar",
      "visible": true,
      "bornPointName": "",
      "relativePosNpcAlias": "",
      "_bindMovingTargetKey": ""
    },
    {
      "configID": 20522,
      "alias": "20522",
      "visible": true,
      "bornPointName": "",
      "forceCreateDaily": true,
      "relativePosNpcAlias": "",
      "_bindMovingTargetKey": ""
    },
    {
      "configID": 1005,
      "alias": "1005",
      "visible": true,
      "bornPointName": "",
      "useRelativePos": true,
      "relativePos": {
        "x": -0.5,
        "z": 0.5
      },
      "removeActorType": "REMOVE_WITH_DISAPPEAR",
      "relativePosNpcAlias": "",
      "_bindMovingTargetKey": ""
    }
  ],
  "group": [
    [
      {
        "$type": "MoleMole.Config.ConfigTimeProtectAction",
        "type": "TIME_PROTECT",
        "duration": 0.10000000149011612
      },
      {
        "$type": "FJKIHHKJLMJ",
        "type": "CAMERA_FOCUS",
        "duration": 0.10000000149011612,
        "targetNpcAlias": "",
        "KJOEFBPOIIH": "",
        "IICFKKEBIEC": "",
        "EGEHEJEBLBJ": ""
      },
      {
        "$type": "LLGANGLOEEO",
        "type": "STEER_TO",
        "delayTime": 0.30000001192092896,
        "duration": 0.800000011920929,
        "aliasList": [
          "20522"
        ],
        "steerType": "TO_LOCAL_AVATAR_ADVANCED",
        "useSteerAnim": true,
        "interruptFreestyle": true,
        "forceSteer": true,
        "targetNpcAlias": "",
        "OAFJBHJHLJG": ""
      }
    ],
    [
      {
        "$type": "PKKMAMONGEO",
        "type": "DIALOG",
        "aliasList": [
          "1005"
        ],
        "dialogID": 722631102,
        "protectTime": 0.5
      }
    ],
    [
      {
        "$type": "PKKMAMONGEO",
        "type": "DIALOG",
        "aliasList": [
          "20522"
        ],
        "dialogID": 722631103,
        "protectTime": 0.5
      },
      {
        "$type": "MoleMole.Config.ConfigLuaAction",
        "type": "LUA_ACTION",
        "delayTime": 0.10000000149011612,
        "duration": 0.10000000149011612,
        "invoke": true,
        "invokeAlias": "72263",
        "invokeParam": 722631100
      }
    ],
    [
      {
        "$type": "PKKMAMONGEO",
        "type": "DIALOG",
        "aliasList": [
          "1005"
        ],
        "dialogID": 722631104,
        "protectTime": 0.5
      }
    ],
    [
      {
        "$type": "PKKMAMONGEO",
        "type": "DIALOG",
        "aliasList": [
          "20522"
        ],
        "dialogID": 722631105,
        "protectTime": 0.5
      }
    ],
    [
      {
        "$type": "PKKMAMONGEO",
        "type": "DIALOG",
        "aliasList": [
          "1005"
        ],
        "dialogID": 722631106,
        "protectTime": 0.5
      },
      {
        "$type": "HDGKHDNFMIM",
        "type": "DIALOG_SELECT",
        "delayTime": 0.4000000059604645,
        "aliasList": [
          "Avatar"
        ],
        "dialogIDList": [
          722631107,
          722631113,
          722631118
        ],
        "grpIDList": [
          2617752919,
          3840929117,
          3840929121
        ],
        "useGrpId": true
      }
    ],
    [
      {
        "$type": "PKKMAMONGEO",
        "type": "DIALOG",
        "aliasList": [
          "20522"
        ],
        "dialogID": 722631108,
        "protectTime": 0.5
      },
      {
        "$type": "MoleMole.Config.ConfigLuaAction",
        "type": "LUA_ACTION",
        "delayTime": 0.10000000149011612,
        "duration": 0.10000000149011612,
        "invoke": true,
        "invokeAlias": "72263",
        "invokeParam": 722631101
      }
    ],
    [
      {
        "$type": "PKKMAMONGEO",
        "type": "DIALOG",
        "aliasList": [
          "1005"
        ],
        "dialogID": 722631109,
        "protectTime": 0.5
      }
    ],
    [
      {
        "$type": "PKKMAMONGEO",
        "type": "DIALOG",
        "aliasList": [
          "20522"
        ],
        "dialogID": 722631110,
        "protectTime": 0.5
      }
    ],
    [
      {
        "$type": "PKKMAMONGEO",
        "type": "DIALOG",
        "aliasList": [
          "1005"
        ],
        "dialogID": 722631111,
        "protectTime": 0.5
      }
    ],
    [
      {
        "$type": "PKKMAMONGEO",
        "type": "DIALOG",
        "aliasList": [
          "1005"
        ],
        "dialogID": 722631112,
        "protectTime": 0.5
      }
    ],
    [
      {
        "$type": "PKKMAMONGEO",
        "type": "DIALOG",
        "aliasList": [
          "20522"
        ],
        "dialogID": 722631121,
        "protectTime": 0.5
      }
    ],
    [
      {
        "$type": "PKKMAMONGEO",
        "type": "DIALOG",
        "aliasList": [
          "20522"
        ],
        "dialogID": 722631122,
        "protectTime": 0.5
      },
      {
        "$type": "HDGKHDNFMIM",
        "type": "DIALOG_SELECT",
        "delayTime": 0.4000000059604645,
        "aliasList": [
          "Avatar"
        ],
        "dialogIDList": [
          722631123,
          722631126
        ],
        "grpIDList": [
          3840929027,
          3840929029
        ],
        "useGrpId": true
      }
    ],
    [
      {
        "$type": "PKKMAMONGEO",
        "type": "DIALOG",
        "aliasList": [
          "20522"
        ],
        "dialogID": 722631124,
        "protectTime": 0.5
      },
      {
        "$type": "MoleMole.Config.ConfigLuaAction",
        "type": "LUA_ACTION",
        "delayTime": 0.10000000149011612,
        "duration": 0.10000000149011612,
        "invoke": true,
        "invokeAlias": "72263",
        "invokeParam": 722631199
      }
    ],
    [
      {
        "$type": "PKKMAMONGEO",
        "type": "DIALOG",
        "aliasList": [
          "1005"
        ],
        "dialogID": 722631125,
        "protectTime": 0.5
      }
    ],
    [
      {
        "$type": "PKKMAMONGEO",
        "type": "DIALOG",
        "aliasList": [
          "20522"
        ],
        "dialogID": 722631127,
        "protectTime": 0.5
      },
      {
        "$type": "MoleMole.Config.ConfigLuaAction",
        "type": "LUA_ACTION",
        "delayTime": 0.10000000149011612,
        "duration": 0.10000000149011612,
        "invoke": true,
        "invokeAlias": "72263",
        "invokeParam": 722631102
      }
    ],
    [
      {
        "$type": "PKKMAMONGEO",
        "type": "DIALOG",
        "aliasList": [
          "20522"
        ],
        "dialogID": 722631128,
        "protectTime": 0.5
      },
      {
        "$type": "HDGKHDNFMIM",
        "type": "DIALOG_SELECT",
        "delayTime": 0.4000000059604645,
        "aliasList": [
          "Avatar"
        ],
        "dialogIDList": [
          722631129
        ],
        "grpIDList": [
          3840929031
        ],
        "useGrpId": true
      }
    ],
    [
      {
        "$type": "PKKMAMONGEO",
        "type": "DIALOG",
        "aliasList": [
          "20522"
        ],
        "dialogID": 722631130,
        "protectTime": 0.5
      }
    ],
    [
      {
        "$type": "PKKMAMONGEO",
        "type": "DIALOG",
        "aliasList": [
          "20522"
        ],
        "dialogID": 722631131,
        "protectTime": 0.5
      }
    ],
    [
      {
        "$type": "PKKMAMONGEO",
        "type": "DIALOG",
        "aliasList": [
          "20522"
        ],
        "dialogID": 722631132,
        "protectTime": 0.5
      },
      {
        "$type": "HDGKHDNFMIM",
        "type": "DIALOG_SELECT",
        "delayTime": 0.4000000059604645,
        "aliasList": [
          "Avatar"
        ],
        "dialogIDList": [
          722631133,
          722631136,
          722631139
        ],
        "grpIDList": [
          3840929055,
          3840929057,
          3840929059
        ],
        "useGrpId": true
      }
    ],
    [
      {
        "$type": "PKKMAMONGEO",
        "type": "DIALOG",
        "aliasList": [
          "20522"
        ],
        "dialogID": 722631134,
        "protectTime": 0.5
      },
      {
        "$type": "MoleMole.Config.ConfigLuaAction",
        "type": "LUA_ACTION",
        "delayTime": 0.10000000149011612,
        "duration": 0.10000000149011612,
        "invoke": true,
        "invokeAlias": "72263",
        "invokeParam": 722631199
      }
    ],
    [
      {
        "$type": "PKKMAMONGEO",
        "type": "DIALOG",
        "aliasList": [
          "1005"
        ],
        "dialogID": 722631135,
        "protectTime": 0.5
      }
    ],
    [
      {
        "$type": "PKKMAMONGEO",
        "type": "DIALOG",
        "aliasList": [
          "20522"
        ],
        "dialogID": 722631137,
        "protectTime": 0.5
      },
      {
        "$type": "MoleMole.Config.ConfigLuaAction",
        "type": "LUA_ACTION",
        "delayTime": 0.10000000149011612,
        "duration": 0.10000000149011612,
        "invoke": true,
        "invokeAlias": "72263",
        "invokeParam": 722631199
      }
    ],
    [
      {
        "$type": "PKKMAMONGEO",
        "type": "DIALOG",
        "aliasList": [
          "1005"
        ],
        "dialogID": 722631138,
        "protectTime": 0.5
      }
    ],
    [
      {
        "$type": "PKKMAMONGEO",
        "type": "DIALOG",
        "aliasList": [
          "20522"
        ],
        "dialogID": 722631140,
        "protectTime": 0.5
      },
      {
        "$type": "MoleMole.Config.ConfigLuaAction",
        "type": "LUA_ACTION",
        "delayTime": 0.10000000149011612,
        "duration": 0.10000000149011612,
        "invoke": true,
        "invokeAlias": "72263",
        "invokeParam": 722631103
      },
      {
        "$type": "HDGKHDNFMIM",
        "type": "DIALOG_SELECT",
        "delayTime": 0.4000000059604645,
        "aliasList": [
          "Avatar"
        ],
        "dialogIDList": [
          722631141
        ],
        "grpIDList": [
          3840929060
        ],
        "useGrpId": true
      }
    ],
    [
      {
        "$type": "PKKMAMONGEO",
        "type": "DIALOG",
        "aliasList": [
          "1005"
        ],
        "dialogID": 722631142,
        "protectTime": 0.5
      }
    ],
    [
      {
        "$type": "MoleMole.Config.ConfigBlackScreenAction",
        "type": "BLACK_SCREEN",
        "durationToBlack": 0.5,
        "durationKeepBlack": 1.0,
        "durationFromBlack": 0.5,
        "inteePos": "",
        "textMapID": "",
        "useTextFade": true
      },
      {
        "$type": "MoleMole.Config.ConfigLuaAction",
        "type": "LUA_ACTION",
        "delayTime": 0.5,
        "duration": 0.10000000149011612,
        "invoke": true,
        "invokeAlias": "72263",
        "invokeParam": 722631104
      }
    ],
    [
      {
        "$type": "PKKMAMONGEO",
        "type": "DIALOG",
        "aliasList": [
          "20522"
        ],
        "dialogID": 722631145,
        "protectTime": 0.5
      },
      {
        "$type": "HDGKHDNFMIM",
        "type": "DIALOG_SELECT",
        "delayTime": 0.4000000059604645,
        "aliasList": [
          "Avatar"
        ],
        "dialogIDList": [
          722631146,
          722631147
        ],
        "grpIDList": [
          3840929063,
          3840929063
        ],
        "useGrpId": true
      }
    ],
    [
      {
        "$type": "PKKMAMONGEO",
        "type": "DIALOG",
        "aliasList": [
          "1005"
        ],
        "dialogID": 722631148,
        "protectTime": 0.5
      }
    ],
    [
      {
        "$type": "PKKMAMONGEO",
        "type": "DIALOG",
        "aliasList": [
          "20522"
        ],
        "dialogID": 722631149,
        "protectTime": 0.5
      }
    ],
    [
      {
        "$type": "PKKMAMONGEO",
        "type": "DIALOG",
        "aliasList": [
          "1005"
        ],
        "dialogID": 722631150,
        "protectTime": 0.5
      }
    ],
    [
      {
        "$type": "PKKMAMONGEO",
        "type": "DIALOG",
        "aliasList": [
          "20522"
        ],
        "dialogID": 722631151,
        "protectTime": 0.5
      }
    ],
    [
      {
        "$type": "PKKMAMONGEO",
        "type": "DIALOG",
        "aliasList": [
          "1005"
        ],
        "dialogID": 722631152,
        "protectTime": 0.5
      }
    ],
    [
      {
        "$type": "PKKMAMONGEO",
        "type": "DIALOG",
        "aliasList": [
          "20522"
        ],
        "dialogID": 722631153,
        "protectTime": 0.5
      },
      {
        "$type": "HDGKHDNFMIM",
        "type": "DIALOG_SELECT",
        "delayTime": 0.4000000059604645,
        "aliasList": [
          "Avatar"
        ],
        "dialogIDList": [
          722631154
        ],
        "grpIDList": [
          3840929090
        ],
        "useGrpId": true
      }
    ],
    [
      {
        "$type": "PKKMAMONGEO",
        "type": "DIALOG",
        "aliasList": [
          "20522"
        ],
        "dialogID": 722631155,
        "protectTime": 0.5
      }
    ],
    [
      {
        "$type": "PKKMAMONGEO",
        "type": "DIALOG",
        "aliasList": [
          "20522"
        ],
        "dialogID": 722631156,
        "protectTime": 0.5
      }
    ],
    [
      {
        "$type": "PKKMAMONGEO",
        "type": "DIALOG",
        "aliasList": [
          "20522"
        ],
        "dialogID": 722631157,
        "protectTime": 0.5
      },
      {
        "$type": "HDGKHDNFMIM",
        "type": "DIALOG_SELECT",
        "delayTime": 0.4000000059604645,
        "aliasList": [
          "Avatar"
        ],
        "dialogIDList": [
          722631158
        ],
        "grpIDList": [
          3840929093
        ],
        "useGrpId": true
      }
    ],
    [
      {
        "$type": "PKKMAMONGEO",
        "type": "DIALOG",
        "aliasList": [
          "1005"
        ],
        "dialogID": 722631159,
        "protectTime": 0.5
      },
      {
        "$type": "HDGKHDNFMIM",
        "type": "DIALOG_SELECT",
        "delayTime": 0.4000000059604645,
        "aliasList": [
          "Avatar"
        ],
        "dialogIDList": [
          722631160,
          722631161
        ],
        "grpIDList": [
          3840929094,
          3840929094
        ],
        "useGrpId": true
      }
    ],
    [
      {
        "$type": "PKKMAMONGEO",
        "type": "DIALOG",
        "aliasList": [
          "20522"
        ],
        "dialogID": 722631162,
        "protectTime": 0.5
      }
    ],
    [
      {
        "$type": "PKKMAMONGEO",
        "type": "DIALOG",
        "aliasList": [
          "20522"
        ],
        "dialogID": 722631163,
        "protectTime": 0.5
      }
    ],
    [
      {
        "$type": "PKKMAMONGEO",
        "type": "DIALOG",
        "aliasList": [
          "20522"
        ],
        "dialogID": 722631114,
        "protectTime": 0.5
      },
      {
        "$type": "MoleMole.Config.ConfigLuaAction",
        "type": "LUA_ACTION",
        "delayTime": 0.10000000149011612,
        "duration": 0.10000000149011612,
        "invoke": true,
        "invokeAlias": "72263",
        "invokeParam": 722631199
      }
    ],
    [
      {
        "$type": "PKKMAMONGEO",
        "type": "DIALOG",
        "aliasList": [
          "1005"
        ],
        "dialogID": 722631115,
        "protectTime": 0.5
      }
    ],
    [
      {
        "$type": "PKKMAMONGEO",
        "type": "DIALOG",
        "aliasList": [
          "20522"
        ],
        "dialogID": 722631116,
        "protectTime": 0.5
      }
    ],
    [
      {
        "$type": "PKKMAMONGEO",
        "type": "DIALOG",
        "aliasList": [
          "1005"
        ],
        "dialogID": 722631117,
        "protectTime": 0.5
      },
      {
        "$type": "MoleMole.Config.ConfigLuaAction",
        "type": "LUA_ACTION",
        "delayTime": 0.10000000149011612,
        "duration": 0.10000000149011612,
        "invoke": true,
        "invokeAlias": "72263",
        "invokeParam": 722631188
      }
    ],
    [
      {
        "$type": "PKKMAMONGEO",
        "type": "DIALOG",
        "aliasList": [
          "20522"
        ],
        "dialogID": 722631119,
        "protectTime": 0.5
      },
      {
        "$type": "MoleMole.Config.ConfigLuaAction",
        "type": "LUA_ACTION",
        "delayTime": 0.10000000149011612,
        "duration": 0.10000000149011612,
        "invoke": true,
        "invokeAlias": "72263",
        "invokeParam": 722631199
      }
    ],
    [
      {
        "$type": "PKKMAMONGEO",
        "type": "DIALOG",
        "aliasList": [
          "1005"
        ],
        "dialogID": 722631120,
        "protectTime": 0.5
      }
    ],
    [
      {
        "$type": "PKKMAMONGEO",
        "type": "DIALOG",
        "aliasList": [
          "20522"
        ],
        "dialogID": 722631143,
        "protectTime": 0.5
      }
    ],
    [
      {
        "$type": "PKKMAMONGEO",
        "type": "DIALOG",
        "aliasList": [
          "1005"
        ],
        "dialogID": 722631144,
        "protectTime": 0.5
      },
      {
        "$type": "MoleMole.Config.ConfigLuaAction",
        "type": "LUA_ACTION",
        "delayTime": 0.10000000149011612,
        "duration": 0.10000000149011612,
        "invoke": true,
        "invokeAlias": "72263",
        "invokeParam": 722631188
      }
    ],
    [
      {
        "$type": "MoleMole.Config.ConfigTimeProtectAction",
        "type": "TIME_PROTECT",
        "duration": 0.10000000149011612
      }
    ],
    [
      {
        "$type": "MoleMole.Config.ConfigTimeProtectAction",
        "type": "TIME_PROTECT",
        "duration": 0.10000000149011612
      }
    ]
  ],
  "groupId": [
    {
      "grpId": 2617752913,
      "nextGrpId": 2617752914
    },
    {
      "index": 1,
      "grpId": 2617752914,
      "nextGrpId": 2617752915
    },
    {
      "index": 2,
      "grpId": 2617752915,
      "nextGrpId": 2617752916
    },
    {
      "index": 3,
      "grpId": 2617752916,
      "nextGrpId": 2617752917
    },
    {
      "index": 4,
      "grpId": 2617752917,
      "nextGrpId": 2617752918
    },
    {
      "index": 5,
      "grpId": 2617752918,
      "nextGrpId": 2617752919
    },
    {
      "index": 6,
      "grpId": 2617752919,
      "nextGrpId": 2617752920
    },
    {
      "index": 7,
      "grpId": 2617752920,
      "nextGrpId": 2617752921
    },
    {
      "index": 8,
      "grpId": 2617752921,
      "nextGrpId": 3840929023
    },
    {
      "index": 9,
      "grpId": 3840929023,
      "nextGrpId": 3840929024
    },
    {
      "index": 10,
      "grpId": 3840929024,
      "nextGrpId": 3840929025
    },
    {
      "index": 11,
      "grpId": 3840929025,
      "nextGrpId": 3840929026
    },
    {
      "index": 12,
      "grpId": 3840929026,
      "nextGrpId": 3840929027
    },
    {
      "index": 13,
      "grpId": 3840929027,
      "nextGrpId": 3840929028
    },
    {
      "index": 14,
      "grpId": 3840929028,
      "nextGrpId": 3840929123
    },
    {
      "index": 15,
      "grpId": 3840929029,
      "nextGrpId": 3840929030
    },
    {
      "index": 16,
      "grpId": 3840929030,
      "nextGrpId": 3840929031
    },
    {
      "index": 17,
      "grpId": 3840929031,
      "nextGrpId": 3840929032
    },
    {
      "index": 18,
      "grpId": 3840929032,
      "nextGrpId": 3840929054
    },
    {
      "index": 19,
      "grpId": 3840929054,
      "nextGrpId": 3840929055
    },
    {
      "index": 20,
      "grpId": 3840929055,
      "nextGrpId": 3840929056
    },
    {
      "index": 21,
      "grpId": 3840929056,
      "nextGrpId": 3840929123
    },
    {
      "index": 22,
      "grpId": 3840929057,
      "nextGrpId": 3840929058
    },
    {
      "index": 23,
      "grpId": 3840929058,
      "nextGrpId": 3840929123
    },
    {
      "index": 24,
      "grpId": 3840929059,
      "nextGrpId": 3840929060
    },
    {
      "index": 25,
      "grpId": 3840929060,
      "nextGrpId": 3840929061
    },
    {
      "index": 26,
      "grpId": 3840929061,
      "nextGrpId": 3840929062
    },
    {
      "index": 27,
      "grpId": 3840929062,
      "nextGrpId": 3840929063
    },
    {
      "index": 28,
      "grpId": 3840929063,
      "nextGrpId": 3840929085
    },
    {
      "index": 29,
      "grpId": 3840929085,
      "nextGrpId": 3840929086
    },
    {
      "index": 30,
      "grpId": 3840929086,
      "nextGrpId": 3840929087
    },
    {
      "index": 31,
      "grpId": 3840929087,
      "nextGrpId": 3840929088
    },
    {
      "index": 32,
      "grpId": 3840929088,
      "nextGrpId": 3840929089
    },
    {
      "index": 33,
      "grpId": 3840929089,
      "nextGrpId": 3840929090
    },
    {
      "index": 34,
      "grpId": 3840929090,
      "nextGrpId": 3840929091
    },
    {
      "index": 35,
      "grpId": 3840929091,
      "nextGrpId": 3840929092
    },
    {
      "index": 36,
      "grpId": 3840929092,
      "nextGrpId": 3840929093
    },
    {
      "index": 37,
      "grpId": 3840929093,
      "nextGrpId": 3840929094
    },
    {
      "index": 38,
      "grpId": 3840929094,
      "nextGrpId": 3840929116
    },
    {
      "index": 39,
      "grpId": 3840929116,
      "nextGrpId": 3840929125
    },
    {
      "index": 40,
      "grpId": 3840929117,
      "nextGrpId": 3840929118
    },
    {
      "index": 41,
      "grpId": 3840929118,
      "nextGrpId": 3840929119
    },
    {
      "index": 42,
      "grpId": 3840929119,
      "nextGrpId": 3840929120
    },
    {
      "index": 43,
      "grpId": 3840929120,
      "nextGrpId": 3840929125
    },
    {
      "index": 44,
      "grpId": 3840929121,
      "nextGrpId": 3840929122
    },
    {
      "index": 45,
      "grpId": 3840929122,
      "nextGrpId": 3840929123
    },
    {
      "index": 46,
      "grpId": 3840929123,
      "nextGrpId": 3840929124
    },
    {
      "index": 47,
      "grpId": 3840929124,
      "nextGrpId": 3840929125
    },
    {
      "index": 48,
      "grpId": 3840929125,
      "nextGrpId": 3840929147
    },
    {
      "index": 49,
      "grpId": 3840929147,
      "nextGrpId": 3840929148
    }
  ],
  "freeStyleDic": {
    "20522": []
  }
}