{
  "luaDataPath": "",
  "startBlackKeepTime": 1.0,
  "entityBan": "",
  "disableNpcLod": true,
  "startFade": {
    "startFadeInDuration": 0.5,
    "startFadeOutDuration": 0.5
  },
  "endFade": {
    "startFadeOutDuration": 0.0
  },
  "actors": [
    {
      "alias": "Avatar",
      "visible": true,
      "bornPointName": "WQ_72123_Player",
      "relativePosNpcAlias": "",
      "_bindMovingTargetKey": ""
    },
    {
      "configID": 20244,
      "alias": "20244",
      "visible": true,
      "bornPointName": "WQ_72123_Miyuki_p2",
      "relativePosNpcAlias": "",
      "_bindMovingTargetKey": ""
    },
    {
      "configID": 3163,
      "alias": "3163",
      "visible": true,
      "bornPointName": "WQ_72123_Miyuki_p2",
      "relativePosNpcAlias": "",
      "_bindMovingTargetKey": ""
    }
  ],
  "group": [
    [
      {
        "$type": "MoleMole.Config.ConfigTimeProtectAction",
        "type": "TIME_PROTECT",
        "duration": 0.5
      },
      {
        "$type": "FJKIHHKJLMJ",
        "type": "CAMERA_MOVE",
        "duration": 0.5,
        "camPosOffset": {
          "x": -3613.185302734375,
          "y": 201.3852996826172,
          "z": -3332.43310546875
        },
        "camForwardTargetOffset": {
          "x": -3613.973876953125,
          "y": 201.59315490722656,
          "z": -3331.8544921875
        },
        "camFov": 30.0,
        "lerpPattern": 6,
        "cameraBlendType": "EaseInOutCubic",
        "NJBNNOMLKCK": {},
        "needZAxisRotate": true,
        "rotateAngle": 3.0,
        "openCameraDither": false,
        "targetNpcAlias": "",
        "KJOEFBPOIIH": "",
        "IICFKKEBIEC": "",
        "EGEHEJEBLBJ": ""
      },
      {
        "$type": "MoleMole.Config.ConfigTeleportToAction",
        "type": "TELEPORT_TO",
        "aliasList": [
          "Avatar"
        ],
        "position": {
          "x": -3615.86376953125,
          "y": 201.2310333251953,
          "z": -3330.9931640625
        },
        "forward": {
          "x": -1.70068359375,
          "y": 1.52587890625e-05,
          "z": 3.215087890625
        },
        "_posBindMovingTargetKey": "",
        "_forwardBindMovingTargetKey": ""
      },
      {
        "$type": "FABLGECDBCH",
        "type": "BODY_LANG",
        "aliasList": [
          "Avatar"
        ],
        "bodyLangParam": 1230,
        "forceDoFreeStyle": true,
        "canDoRepeatFreeStyle": false,
        "eventPatternSuiteKey": "",
        "FOHHKFAIAAJ": ""
      },
      {
        "$type": "LJLMDHDCAMK",
        "type": "LOOK_AT",
        "aliasList": [
          "Avatar"
        ],
        "enableHead": true,
        "useTargetPos": true,
        "enableAbsolute": true,
        "headTurnTime": 0.5,
        "targetNpcAlias": "20244",
        "targetNpcLookAtPoint": "",
        "OAFJBHJHLJG": ""
      },
      {
        "$type": "CPJKOIHIPBE",
        "type": "EMO_SYNC",
        "aliasList": [
          "Avatar"
        ],
        "dataPath": "",
        "phonemePath": "Cs_Emo_Avatar_Common/Cs_Emo_Avatar_Angry01",
        "emotionPath": "Cs_Emo_Avatar_Common/Cs_Emo_Avatar_Angry02",
        "mateDataPath": "",
        "matePhonemePath": "",
        "mateEmotionPath": "",
        "phonemePathHashList": [
          14296606849723709100,
          5508348580450379567,
          7627497203169383327,
          8979581647593659876
        ],
        "emotionPathHashList": [
          12781774775280653381,
          2106890207229797702,
          3298605151875018548,
          5144712318883339178
        ],
        "FMDPBECPELH": "",
        "ADKBLPOKGIK": ""
      },
      {
        "$type": "MoleMole.Config.ConfigTeleportToAction",
        "type": "TELEPORT_TO",
        "aliasList": [
          "20244"
        ],
        "position": {
          "x": -3617.818115234375,
          "y": 201.24305725097656,
          "z": -3327.2490234375
        },
        "forward": {
          "x": 0.27392578125,
          "y": 0.07708740234375,
          "z": -1.627197265625
        },
        "_posBindMovingTargetKey": "",
        "_forwardBindMovingTargetKey": ""
      },
      {
        "$type": "FABLGECDBCH",
        "type": "BODY_LANG",
        "aliasList": [
          "20244"
        ],
        "bodyLangParam": 4190,
        "forceDoFreeStyle": true,
        "canDoRepeatFreeStyle": false,
        "eventPatternSuiteKey": "",
        "FOHHKFAIAAJ": ""
      },
      {
        "$type": "EMEHNEMOMMM",
        "type": "LOOK_AT_EYECTRL",
        "aliasList": [
          "20244"
        ],
        "useTargetPos": false,
        "eyeRotateVecLeft": {
          "z": 3.0
        },
        "eyeRotateVecRight": {
          "z": 3.0
        },
        "turnTime": 1.0,
        "targetNpcAlias": "",
        "targetPoint": "Face"
      },
      {
        "$type": "CPJKOIHIPBE",
        "type": "EMO_SYNC",
        "aliasList": [
          "20244"
        ],
        "dataPath": "",
        "phonemePath": "Cs_Emo_NPC_Common/Cs_Emo_NPC_Angry01",
        "emotionPath": "Cs_Emo_NPC_Common/Cs_Emo_NPC_Doubt02",
        "mateDataPath": "",
        "matePhonemePath": "",
        "mateEmotionPath": "",
        "phonemePathHashList": [
          9218657655395275517,
          6356428425152214583,
          11840959722219800112,
          50070356133267922
        ],
        "emotionPathHashList": [
          16484844645148770492,
          17348744899866777647,
          4533304175063302973,
          8952699576717212101
        ],
        "FMDPBECPELH": "",
        "ADKBLPOKGIK": ""
      },
      {
        "$type": "LJLMDHDCAMK",
        "type": "LOOK_AT",
        "aliasList": [
          "20244"
        ],
        "enableHead": true,
        "useTargetPos": true,
        "enableAbsolute": true,
        "targetPosition": {
          "x": -3617.966552734375,
          "y": 201.4769744873047,
          "z": -3327.7685546875
        },
        "headTurnTime": 0.5,
        "targetNpcAlias": "",
        "targetNpcLookAtPoint": "",
        "OAFJBHJHLJG": ""
      },
      {
        "$type": "MoleMole.Config.ConfigTeleportToAction",
        "type": "TELEPORT_TO",
        "aliasList": [
          "3163"
        ],
        "position": {
          "x": -3616.904541015625,
          "y": 201.2310333251953,
          "z": -3331.33154296875
        },
        "forward": {
          "x": -0.62646484375,
          "y": -1.52587890625e-05,
          "z": 2.5439453125
        },
        "_posBindMovingTargetKey": "",
        "_forwardBindMovingTargetKey": ""
      },
      {
        "$type": "FABLGECDBCH",
        "type": "BODY_LANG",
        "aliasList": [
          "3163"
        ],
        "forceDoFreeStyle": true,
        "canDoRepeatFreeStyle": false,
        "eventPatternSuiteKey": "",
        "FOHHKFAIAAJ": ""
      },
      {
        "$type": "LJLMDHDCAMK",
        "type": "LOOK_AT",
        "aliasList": [
          "3163"
        ],
        "enableHead": true,
        "useTargetPos": true,
        "enableAbsolute": true,
        "headTurnTime": 0.5,
        "targetNpcAlias": "20244",
        "targetNpcLookAtPoint": "",
        "OAFJBHJHLJG": ""
      },
      {
        "$type": "CPJKOIHIPBE",
        "type": "EMO_SYNC",
        "aliasList": [
          "3163"
        ],
        "dataPath": "",
        "phonemePath": "Cs_Emo_NPC_Common/Cs_Emo_NPC_Angry01",
        "emotionPath": "Cs_Emo_NPC_Common/Cs_Emo_NPC_Angry02",
        "mateDataPath": "",
        "matePhonemePath": "",
        "mateEmotionPath": "",
        "phonemePathHashList": [
          9218657655395275517,
          6356428425152214583,
          11840959722219800112,
          50070356133267922
        ],
        "emotionPathHashList": [
          17424158304308273489,
          7432893190496723502,
          9624311454472802,
          6439573939338459323
        ],
        "FMDPBECPELH": "",
        "ADKBLPOKGIK": ""
      }
    ],
    [
      {
        "$type": "MoleMole.Config.ConfigTimeProtectAction",
        "type": "TIME_PROTECT",
        "duration": 1.0
      },
      {
        "$type": "FJKIHHKJLMJ",
        "type": "CAMERA_MOVE",
        "delayTime": 0.07000000029802322,
        "duration": 2.5,
        "camPosOffset": {
          "x": -3613.124755859375,
          "y": 201.3693389892578,
          "z": -3332.4775390625
        },
        "camForwardTargetOffset": {
          "x": -3613.913330078125,
          "y": 201.5771942138672,
          "z": -3331.89892578125
        },
        "camFov": 30.0,
        "cameraBlendType": "Linear",
        "NJBNNOMLKCK": {},
        "needZAxisRotate": true,
        "rotateAngle": 3.0,
        "openCameraDither": false,
        "targetNpcAlias": "",
        "KJOEFBPOIIH": "",
        "IICFKKEBIEC": "",
        "EGEHEJEBLBJ": ""
      },
      {
        "$type": "FJKIHHKJLMJ",
        "type": "CAMERA_MOVE",
        "delayTime": 2.6500000953674316,
        "duration": 1.8833328485488892,
        "camPosOffset": {
          "x": -3617.037841796875,
          "y": 201.78050231933594,
          "z": -3328.468994140625
        },
        "camForwardTargetOffset": {
          "x": -3617.711181640625,
          "y": 201.875732421875,
          "z": -3327.73583984375
        },
        "camFov": 20.0,
        "cameraBlendType": "EaseOutQuad",
        "NJBNNOMLKCK": {},
        "openCameraDither": false,
        "targetNpcAlias": "",
        "KJOEFBPOIIH": "",
        "IICFKKEBIEC": "",
        "EGEHEJEBLBJ": ""
      },
      {
        "$type": "FJKIHHKJLMJ",
        "type": "CAMERA_MOVE",
        "duration": 0.5,
        "camPosOffset": {
          "x": -3613.185302734375,
          "y": 201.3852996826172,
          "z": -3332.43310546875
        },
        "camForwardTargetOffset": {
          "x": -3613.973876953125,
          "y": 201.59315490722656,
          "z": -3331.8544921875
        },
        "camFov": 30.0,
        "lerpPattern": 6,
        "cameraBlendType": "EaseInOutCubic",
        "NJBNNOMLKCK": {},
        "needZAxisRotate": true,
        "rotateAngle": 3.0,
        "openCameraDither": false,
        "targetNpcAlias": "",
        "KJOEFBPOIIH": "",
        "IICFKKEBIEC": "",
        "EGEHEJEBLBJ": ""
      },
      {
        "$type": "FJKIHHKJLMJ",
        "type": "CAMERA_MOVE",
        "delayTime": 2.5799999237060547,
        "duration": 0.5,
        "camPosOffset": {
          "x": -3617.0,
          "y": 201.7803497314453,
          "z": -3328.43408203125
        },
        "camForwardTargetOffset": {
          "x": -3617.67333984375,
          "y": 201.87557983398438,
          "z": -3327.700927734375
        },
        "camFov": 20.0,
        "lerpPattern": 6,
        "cameraBlendType": "EaseInOutCubic",
        "NJBNNOMLKCK": {},
        "openCameraDither": false,
        "targetNpcAlias": "",
        "KJOEFBPOIIH": "",
        "IICFKKEBIEC": "",
        "EGEHEJEBLBJ": ""
      },
      {
        "$type": "FABLGECDBCH",
        "type": "BODY_LANG",
        "aliasList": [
          "Avatar"
        ],
        "forceDoFreeStyle": true,
        "canDoRepeatFreeStyle": false,
        "eventPatternSuiteKey": "",
        "FOHHKFAIAAJ": ""
      },
      {
        "$type": "PKKMAMONGEO",
        "type": "DIALOG",
        "aliasList": [
          "20244"
        ],
        "dialogID": 721230602,
        "protectTime": 0.9813111424446106
      },
      {
        "$type": "FABLGECDBCH",
        "type": "BODY_LANG",
        "aliasList": [
          "3163"
        ],
        "forceDoFreeStyle": true,
        "canDoRepeatFreeStyle": false,
        "eventPatternSuiteKey": "",
        "FOHHKFAIAAJ": ""
      },
      {
        "$type": "LJLMDHDCAMK",
        "type": "LOOK_AT",
        "aliasList": [
          "3163"
        ],
        "enableHead": true,
        "useTargetPos": true,
        "enableAbsolute": true,
        "headTurnTime": 0.5,
        "targetNpcAlias": "20244",
        "targetNpcLookAtPoint": "",
        "OAFJBHJHLJG": ""
      }
    ],
    [
      {
        "$type": "FJKIHHKJLMJ",
        "type": "CAMERA_MOVE",
        "delayTime": 0.07000000029802322,
        "duration": 2.560962200164795,
        "camPosOffset": {
          "x": -3617.64208984375,
          "y": 202.01039123535156,
          "z": -3326.147216796875
        },
        "camForwardTargetOffset": {
          "x": -3617.60791015625,
          "y": 202.009765625,
          "z": -3327.146728515625
        },
        "camFov": 30.0,
        "cameraBlendType": "EaseOutQuad",
        "NJBNNOMLKCK": {},
        "openCameraDither": false,
        "targetNpcAlias": "",
        "KJOEFBPOIIH": "",
        "IICFKKEBIEC": "",
        "EGEHEJEBLBJ": ""
      },
      {
        "$type": "FJKIHHKJLMJ",
        "type": "CAMERA_MOVE",
        "duration": 0.5,
        "camPosOffset": {
          "x": -3617.56884765625,
          "y": 202.01039123535156,
          "z": -3326.144775390625
        },
        "camForwardTargetOffset": {
          "x": -3617.53466796875,
          "y": 202.009765625,
          "z": -3327.144287109375
        },
        "camFov": 30.0,
        "lerpPattern": 6,
        "cameraBlendType": "EaseInOutCubic",
        "NJBNNOMLKCK": {},
        "openCameraDither": false,
        "targetNpcAlias": "",
        "KJOEFBPOIIH": "",
        "IICFKKEBIEC": "",
        "EGEHEJEBLBJ": ""
      },
      {
        "$type": "MoleMole.Config.ConfigTimeProtectAction",
        "type": "TIME_PROTECT",
        "duration": 4.0
      },
      {
        "$type": "FJKIHHKJLMJ",
        "type": "CAMERA_MOVE",
        "delayTime": 2.6328256130218506,
        "duration": 0.5,
        "camPosOffset": {
          "x": -3616.722412109375,
          "y": 202.63014221191406,
          "z": -3330.3134765625
        },
        "camForwardTargetOffset": {
          "x": -3617.159912109375,
          "y": 202.7194061279297,
          "z": -3331.208251953125
        },
        "camFov": 30.0,
        "lerpPattern": 6,
        "cameraBlendType": "EaseInOutCubic",
        "NJBNNOMLKCK": {},
        "openCameraDither": false,
        "targetNpcAlias": "",
        "KJOEFBPOIIH": "",
        "IICFKKEBIEC": "",
        "EGEHEJEBLBJ": ""
      },
      {
        "$type": "FABLGECDBCH",
        "type": "BODY_LANG",
        "delayTime": 2.7028892040252686,
        "aliasList": [
          "20244"
        ],
        "bodyLangParam": 1280,
        "forceDoFreeStyle": true,
        "canDoRepeatFreeStyle": false,
        "eventPatternSuiteKey": "",
        "FOHHKFAIAAJ": ""
      },
      {
        "$type": "PKKMAMONGEO",
        "type": "DIALOG",
        "aliasList": [
          "3163"
        ],
        "dialogID": 721230603,
        "protectTime": 3.8075101375579834
      },
      {
        "$type": "FABLGECDBCH",
        "type": "BODY_LANG",
        "aliasList": [
          "3163"
        ],
        "bodyLangParam": 1060,
        "forceDoFreeStyle": true,
        "canDoRepeatFreeStyle": false,
        "eventPatternSuiteKey": "",
        "FOHHKFAIAAJ": ""
      }
    ],
    [
      {
        "$type": "FJKIHHKJLMJ",
        "type": "CAMERA_MOVE",
        "delayTime": 4.070000171661377,
        "duration": 2.8499999046325684,
        "camPosOffset": {
          "x": -3621.56787109375,
          "y": 202.86282348632812,
          "z": -3325.439208984375
        },
        "camForwardTargetOffset": {
          "x": -3620.61328125,
          "y": 202.80224609375,
          "z": -3325.730712890625
        },
        "camFov": 20.0,
        "cameraBlendType": "EaseOutQuad",
        "NJBNNOMLKCK": {},
        "openCameraDither": false,
        "targetNpcAlias": "",
        "KJOEFBPOIIH": "",
        "IICFKKEBIEC": "",
        "EGEHEJEBLBJ": ""
      },
      {
        "$type": "FJKIHHKJLMJ",
        "type": "CAMERA_MOVE",
        "duration": 0.5,
        "camPosOffset": {
          "x": -3617.304931640625,
          "y": 203.23904418945312,
          "z": -3328.119873046875
        },
        "camForwardTargetOffset": {
          "x": -3617.859130859375,
          "y": 202.8833770751953,
          "z": -3327.367431640625
        },
        "camFov": 20.0,
        "lerpPattern": 6,
        "cameraBlendType": "EaseInOutCubic",
        "NJBNNOMLKCK": {},
        "openCameraDither": false,
        "targetNpcAlias": "",
        "KJOEFBPOIIH": "",
        "IICFKKEBIEC": "",
        "EGEHEJEBLBJ": ""
      },
      {
        "$type": "MoleMole.Config.ConfigTimeProtectAction",
        "type": "TIME_PROTECT",
        "duration": 5.0
      },
      {
        "$type": "FJKIHHKJLMJ",
        "type": "CAMERA_MOVE",
        "delayTime": 4.0,
        "duration": 0.5,
        "camPosOffset": {
          "x": -3621.580078125,
          "y": 202.86288452148438,
          "z": -3325.47802734375
        },
        "camForwardTargetOffset": {
          "x": -3620.62548828125,
          "y": 202.80230712890625,
          "z": -3325.76953125
        },
        "camFov": 20.0,
        "lerpPattern": 6,
        "cameraBlendType": "EaseInOutCubic",
        "NJBNNOMLKCK": {},
        "openCameraDither": false,
        "targetNpcAlias": "",
        "KJOEFBPOIIH": "",
        "IICFKKEBIEC": "",
        "EGEHEJEBLBJ": ""
      },
      {
        "$type": "PKKMAMONGEO",
        "type": "DIALOG",
        "aliasList": [
          "20244"
        ],
        "dialogID": 721230604,
        "protectTime": 4.972692012786865
      },
      {
        "$type": "FABLGECDBCH",
        "type": "BODY_LANG",
        "delayTime": 0.43796810507774353,
        "aliasList": [
          "20244"
        ],
        "isContinue": true,
        "forceDoFreeStyle": true,
        "canDoRepeatFreeStyle": false,
        "eventPatternSuiteKey": "",
        "FOHHKFAIAAJ": ""
      },
      {
        "$type": "LJLMDHDCAMK",
        "type": "LOOK_AT",
        "delayTime": 4.008333206176758,
        "aliasList": [
          "20244"
        ],
        "enableHead": true,
        "useTargetPos": true,
        "enableAbsolute": true,
        "targetPosition": {
          "x": -20.0
        },
        "enableBody": true,
        "bodyAngle": 20.0,
        "headTurnTime": 0.30000001192092896,
        "targetNpcAlias": "",
        "lookAtTargetType": "CAMERA",
        "targetNpcLookAtPoint": "",
        "OAFJBHJHLJG": ""
      },
      {
        "$type": "EMEHNEMOMMM",
        "type": "LOOK_AT_EYECTRL",
        "delayTime": 4.015138626098633,
        "aliasList": [
          "20244"
        ],
        "useTargetPos": false,
        "eyeRotateVecLeft": {
          "x": 5.0,
          "z": 2.0
        },
        "eyeRotateVecRight": {
          "x": 5.0,
          "z": 2.0
        },
        "turnTime": 0.10000000149011612,
        "targetNpcAlias": "",
        "targetPoint": "Face"
      },
      {
        "$type": "FABLGECDBCH",
        "type": "BODY_LANG",
        "aliasList": [
          "20244"
        ],
        "bodyLangParam": 1280,
        "forceDoFreeStyle": true,
        "canDoRepeatFreeStyle": false,
        "eventPatternSuiteKey": "",
        "FOHHKFAIAAJ": ""
      },
      {
        "$type": "CPJKOIHIPBE",
        "type": "EMO_SYNC",
        "aliasList": [
          "20244"
        ],
        "dataPath": "",
        "phonemePath": "Cs_Emo_NPC_Common/Cs_Emo_NPC_Angry01",
        "emotionPath": "Cs_Emo_NPC_Common/Cs_Emo_NPC_Angry02",
        "mateDataPath": "",
        "matePhonemePath": "",
        "mateEmotionPath": "",
        "phonemePathHashList": [
          9218657655395275517,
          6356428425152214583,
          11840959722219800112,
          50070356133267922
        ],
        "emotionPathHashList": [
          17424158304308273489,
          7432893190496723502,
          9624311454472802,
          6439573939338459323
        ],
        "FMDPBECPELH": "",
        "ADKBLPOKGIK": ""
      },
      {
        "$type": "LJLMDHDCAMK",
        "type": "LOOK_AT",
        "aliasList": [
          "20244"
        ],
        "enableHead": true,
        "useTargetPos": true,
        "enableAbsolute": true,
        "targetPosition": {
          "x": -3617.966552734375,
          "y": 201.4769744873047,
          "z": -3327.7685546875
        },
        "headTurnTime": 0.5,
        "targetNpcAlias": "3163",
        "targetNpcLookAtPoint": "",
        "OAFJBHJHLJG": ""
      }
    ],
    [
      {
        "$type": "FJKIHHKJLMJ",
        "type": "CAMERA_MOVE",
        "delayTime": 0.6000000238418579,
        "duration": 0.5,
        "camPosOffset": {
          "x": -3623.413818359375,
          "y": 201.36961364746094,
          "z": -3326.577880859375
        },
        "camForwardTargetOffset": {
          "x": -3622.518798828125,
          "y": 201.63864135742188,
          "z": -3326.221923828125
        },
        "camFov": 35.0,
        "cameraBlendType": "EaseOutQuad",
        "NJBNNOMLKCK": {},
        "needZAxisRotate": true,
        "rotateAngle": 3.0,
        "openCameraDither": false,
        "targetNpcAlias": "",
        "KJOEFBPOIIH": "",
        "IICFKKEBIEC": "",
        "EGEHEJEBLBJ": ""
      },
      {
        "$type": "FJKIHHKJLMJ",
        "type": "CAMERA_MOVE",
        "duration": 0.20000000298023224,
        "camPosOffset": {
          "x": -3622.849853515625,
          "y": 201.5391082763672,
          "z": -3326.353759765625
        },
        "camForwardTargetOffset": {
          "x": -3621.954833984375,
          "y": 201.80813598632812,
          "z": -3325.997802734375
        },
        "camFov": 35.0,
        "lerpPattern": 6,
        "cameraBlendType": "EaseInOutCubic",
        "NJBNNOMLKCK": {},
        "needZAxisRotate": true,
        "rotateAngle": 3.0,
        "openCameraDither": false,
        "targetNpcAlias": "",
        "KJOEFBPOIIH": "",
        "IICFKKEBIEC": "",
        "EGEHEJEBLBJ": ""
      },
      {
        "$type": "MoleMole.Config.ConfigTimeProtectAction",
        "type": "TIME_PROTECT",
        "duration": 1.5
      },
      {
        "$type": "MoleMole.Config.ConfigCameraShakeAction",
        "type": "CAMERA_SHAKE",
        "delayTime": 0.6683624386787415,
        "shakeRange": 0.10000000149011612,
        "shakeTime": 10.0,
        "shakeDinstance": 0.10000000149011612,
        "_shakeDir": {
          "y": 1.0
        }
      },
      {
        "$type": "MoleMole.Config.ConfigCameraShakeAction",
        "type": "CAMERA_SHAKE",
        "delayTime": 1.6034032106399536,
        "shakeRange": 0.05000000074505806,
        "shakeTime": 10.0,
        "shakeDinstance": 0.05000000074505806,
        "_shakeDir": {
          "x": 1.0
        }
      },
      {
        "$type": "MoleMole.Config.ConfigCameraShakeAction",
        "type": "CAMERA_SHAKE",
        "delayTime": 0.8034239411354065,
        "shakeRange": 0.05000000074505806,
        "shakeTime": 10.0,
        "shakeDinstance": 0.05000000074505806,
        "_shakeDir": {
          "x": 1.0,
          "y": 1.0
        }
      },
      {
        "$type": "MoleMole.Config.ConfigCameraShakeAction",
        "type": "CAMERA_SHAKE",
        "delayTime": 0.9280960559844971,
        "shakeRange": 0.05000000074505806,
        "shakeTime": 10.0,
        "shakeDinstance": 0.05000000074505806,
        "_shakeDir": {
          "x": 1.0,
          "y": 1.0,
          "z": 1.0
        }
      },
      {
        "$type": "MoleMole.Config.ConfigCameraShakeAction",
        "type": "CAMERA_SHAKE",
        "delayTime": 1.0735467672348022,
        "shakeRange": 0.05000000074505806,
        "shakeTime": 10.0,
        "shakeDinstance": 0.05000000074505806,
        "_shakeDir": {
          "y": 1.0,
          "z": 1.0
        }
      },
      {
        "$type": "MoleMole.Config.ConfigCameraShakeAction",
        "type": "CAMERA_SHAKE",
        "delayTime": 1.218997597694397,
        "shakeRange": 0.05000000074505806,
        "shakeTime": 10.0,
        "shakeDinstance": 0.05000000074505806,
        "_shakeDir": {
          "z": 1.0
        }
      },
      {
        "$type": "MoleMole.Config.ConfigCameraShakeAction",
        "type": "CAMERA_SHAKE",
        "delayTime": 1.3644483089447021,
        "shakeRange": 0.05000000074505806,
        "shakeTime": 10.0,
        "shakeDinstance": 0.05000000074505806,
        "_shakeDir": {
          "x": 1.0,
          "z": 1.0
        }
      },
      {
        "$type": "MoleMole.Config.ConfigCameraShakeAction",
        "type": "CAMERA_SHAKE",
        "delayTime": 1.4787311553955078,
        "shakeRange": 0.05000000074505806,
        "shakeTime": 10.0,
        "shakeDinstance": 0.05000000074505806,
        "_shakeDir": {
          "x": 1.0
        }
      },
      {
        "$type": "MoleMole.Config.ConfigCameraShakeAction",
        "type": "CAMERA_SHAKE",
        "delayTime": 1.7184447050094604,
        "shakeRange": 0.05000000074505806,
        "shakeTime": 10.0,
        "shakeDinstance": 0.05000000074505806,
        "_shakeDir": {
          "x": 1.0,
          "y": 1.0
        }
      },
      {
        "$type": "MoleMole.Config.ConfigCameraShakeAction",
        "type": "CAMERA_SHAKE",
        "delayTime": 1.8535058498382568,
        "shakeRange": 0.05000000074505806,
        "shakeTime": 10.0,
        "shakeDinstance": 0.05000000074505806,
        "_shakeDir": {
          "x": 1.0,
          "y": 1.0,
          "z": 1.0
        }
      },
      {
        "$type": "MoleMole.Config.ConfigCameraShakeAction",
        "type": "CAMERA_SHAKE",
        "delayTime": 1.9989566802978516,
        "shakeRange": 0.05000000074505806,
        "shakeTime": 10.0,
        "shakeDinstance": 0.05000000074505806,
        "_shakeDir": {
          "y": 1.0,
          "z": 1.0
        }
      },
      {
        "$type": "MoleMole.Config.ConfigCameraShakeAction",
        "type": "CAMERA_SHAKE",
        "delayTime": 2.123628616333008,
        "shakeRange": 0.05000000074505806,
        "shakeTime": 10.0,
        "shakeDinstance": 0.05000000074505806,
        "_shakeDir": {
          "z": 1.0
        }
      },
      {
        "$type": "MoleMole.Config.ConfigCameraShakeAction",
        "type": "CAMERA_SHAKE",
        "delayTime": 2.2690789699554443,
        "shakeRange": 0.05000000074505806,
        "shakeTime": 10.0,
        "shakeDinstance": 0.05000000074505806,
        "_shakeDir": {
          "x": 1.0,
          "z": 1.0
        }
      },
      {
        "$type": "MoleMole.Config.ConfigCameraShakeAction",
        "type": "CAMERA_SHAKE",
        "delayTime": 2.414529800415039,
        "shakeRange": 0.05000000074505806,
        "shakeTime": 10.0,
        "shakeDinstance": 0.05000000074505806,
        "_shakeDir": {
          "x": 1.0
        }
      },
      {
        "$type": "MoleMole.Config.ConfigCameraShakeAction",
        "type": "CAMERA_SHAKE",
        "delayTime": 2.5599803924560547,
        "shakeRange": 0.05000000074505806,
        "shakeTime": 10.0,
        "shakeDinstance": 0.05000000074505806,
        "_shakeDir": {
          "x": 1.0,
          "y": 1.0
        }
      },
      {
        "$type": "MoleMole.Config.ConfigCameraShakeAction",
        "type": "CAMERA_SHAKE",
        "delayTime": 2.684652328491211,
        "shakeRange": 0.05000000074505806,
        "shakeTime": 10.0,
        "shakeDinstance": 0.05000000074505806,
        "_shakeDir": {
          "y": 1.0,
          "z": 1.0
        }
      },
      {
        "$type": "MoleMole.Config.ConfigCameraShakeAction",
        "type": "CAMERA_SHAKE",
        "delayTime": 2.809325933456421,
        "shakeRange": 0.05000000074505806,
        "shakeTime": 10.0,
        "shakeDinstance": 0.05000000074505806,
        "_shakeDir": {
          "y": 1.0,
          "z": 1.0
        }
      },
      {
        "$type": "MoleMole.Config.ConfigCameraShakeAction",
        "type": "CAMERA_SHAKE",
        "delayTime": 2.9547767639160156,
        "shakeRange": 0.05000000074505806,
        "shakeTime": 10.0,
        "shakeDinstance": 0.05000000074505806,
        "_shakeDir": {
          "x": 1.0
        }
      },
      {
        "$type": "MoleMole.Config.ConfigCameraShakeAction",
        "type": "CAMERA_SHAKE",
        "delayTime": 3.069059133529663,
        "shakeRange": 0.05000000074505806,
        "shakeTime": 10.0,
        "shakeDinstance": 0.05000000074505806,
        "_shakeDir": {
          "z": 1.0
        }
      },
      {
        "$type": "MoleMole.Config.ConfigCameraShakeAction",
        "type": "CAMERA_SHAKE",
        "delayTime": 3.214509963989258,
        "shakeRange": 0.05000000074505806,
        "shakeTime": 10.0,
        "shakeDinstance": 0.05000000074505806,
        "_shakeDir": {
          "x": 1.0,
          "z": 1.0
        }
      },
      {
        "$type": "MoleMole.Config.ConfigCameraShakeAction",
        "type": "CAMERA_SHAKE",
        "delayTime": 3.3599605560302734,
        "shakeRange": 0.05000000074505806,
        "shakeTime": 10.0,
        "shakeDinstance": 0.05000000074505806,
        "_shakeDir": {
          "x": 1.0
        }
      },
      {
        "$type": "MoleMole.Config.ConfigCameraShakeAction",
        "type": "CAMERA_SHAKE",
        "delayTime": 3.4950218200683594,
        "shakeRange": 0.05000000074505806,
        "shakeTime": 10.0,
        "shakeDinstance": 0.05000000074505806,
        "_shakeDir": {
          "z": 1.0
        }
      },
      {
        "$type": "MoleMole.Config.ConfigCameraShakeAction",
        "type": "CAMERA_SHAKE",
        "delayTime": 3.640472173690796,
        "shakeRange": 0.05000000074505806,
        "shakeTime": 10.0,
        "shakeDinstance": 0.05000000074505806,
        "_shakeDir": {
          "x": 1.0,
          "z": 1.0
        }
      },
      {
        "$type": "MoleMole.Config.ConfigCameraShakeAction",
        "type": "CAMERA_SHAKE",
        "delayTime": 3.765144109725952,
        "shakeRange": 0.05000000074505806,
        "shakeTime": 10.0,
        "shakeDinstance": 0.05000000074505806,
        "_shakeDir": {
          "y": 1.0,
          "z": 1.0
        }
      },
      {
        "$type": "MoleMole.Config.ConfigCameraShakeAction",
        "type": "CAMERA_SHAKE",
        "delayTime": 3.8898162841796875,
        "shakeRange": 0.05000000074505806,
        "shakeTime": 10.0,
        "shakeDinstance": 0.05000000074505806,
        "_shakeDir": {
          "y": 1.0,
          "z": 1.0
        }
      },
      {
        "$type": "FABLGECDBCH",
        "type": "BODY_LANG",
        "aliasList": [
          "Avatar"
        ],
        "isContinue": true,
        "forceDoFreeStyle": true,
        "canDoRepeatFreeStyle": false,
        "eventPatternSuiteKey": "",
        "FOHHKFAIAAJ": ""
      },
      {
        "$type": "PKKMAMONGEO",
        "type": "DIALOG",
        "aliasList": [
          "20244"
        ],
        "protectTime": 0.5
      },
      {
        "$type": "FABLGECDBCH",
        "type": "BODY_LANG",
        "aliasList": [
          "20244"
        ],
        "bodyLangParam": 1140,
        "forceDoFreeStyle": true,
        "canDoRepeatFreeStyle": false,
        "eventPatternSuiteKey": "",
        "FOHHKFAIAAJ": ""
      },
      {
        "$type": "LJLMDHDCAMK",
        "type": "LOOK_AT",
        "aliasList": [
          "20244"
        ],
        "enableHead": true,
        "useTargetPos": true,
        "enableAbsolute": true,
        "targetPosition": {
          "x": -3618.680419921875,
          "y": 203.09103393554688,
          "z": -3330.137939453125
        },
        "headTurnTime": 0.30000001192092896,
        "targetNpcAlias": "3163",
        "lookAtTargetType": "NONE",
        "targetNpcLookAtPoint": "",
        "OAFJBHJHLJG": ""
      },
      {
        "$type": "EMEHNEMOMMM",
        "type": "LOOK_AT_EYECTRL",
        "aliasList": [
          "20244"
        ],
        "useTargetPos": false,
        "turnTime": 0.019999999552965164,
        "targetNpcAlias": "",
        "targetPoint": "Face"
      },
      {
        "$type": "MoleMole.Config.ConfigPlayEffectAction",
        "type": "PLAY_EFFECT",
        "delayTime": 0.5,
        "aliasList": [
          "20244"
        ],
        "effectIndex": "123",
        "patternName": "Eff_SceneObj_SealStone_01_Active",
        "_pos": {
          "x": -3620.8701171875,
          "y": 202.02200317382812,
          "z": -3324.9599609375
        },
        "scale": {
          "x": 1.0,
          "y": 1.0,
          "z": 1.0
        },
        "isLoop": true,
        "_otherTargetNpcAlias": "",
        "_overrideFollowPath": ""
      },
      {
        "$type": "MoleMole.Config.ConfigTeleportToAction",
        "type": "TELEPORT_TO",
        "aliasList": [
          "20244"
        ],
        "position": {
          "x": -3617.936279296875,
          "y": 201.2310333251953,
          "z": -3326.892578125
        },
        "forward": {
          "x": -2.186279296875,
          "z": -1.8984375
        },
        "_posBindMovingTargetKey": "",
        "_forwardBindMovingTargetKey": ""
      }
    ],
    [
      {
        "$type": "FJKIHHKJLMJ",
        "type": "CAMERA_MOVE",
        "delayTime": 0.07000000029802322,
        "duration": 2.9216392040252686,
        "camPosOffset": {
          "x": -3620.625732421875,
          "y": 217.93289184570312,
          "z": -3324.9365234375
        },
        "camForwardTargetOffset": {
          "x": -3620.621826171875,
          "y": 216.9329071044922,
          "z": -3324.93505859375
        },
        "camFov": 35.0,
        "cameraBlendType": "EaseOutQuad",
        "NJBNNOMLKCK": {},
        "needZAxisRotate": true,
        "rotateAngle": 3.0,
        "openCameraDither": false,
        "targetNpcAlias": "",
        "KJOEFBPOIIH": "",
        "IICFKKEBIEC": "",
        "EGEHEJEBLBJ": ""
      },
      {
        "$type": "FJKIHHKJLMJ",
        "type": "CAMERA_MOVE",
        "duration": 0.20000000298023224,
        "camPosOffset": {
          "x": -3620.620849609375,
          "y": 216.27493286132812,
          "z": -3324.92919921875
        },
        "camForwardTargetOffset": {
          "x": -3620.61669921875,
          "y": 215.2749481201172,
          "z": -3324.92822265625
        },
        "camFov": 35.0,
        "lerpPattern": 6,
        "cameraBlendType": "EaseInOutCubic",
        "NJBNNOMLKCK": {},
        "needZAxisRotate": true,
        "rotateAngle": 3.0,
        "openCameraDither": false,
        "targetNpcAlias": "",
        "KJOEFBPOIIH": "",
        "IICFKKEBIEC": "",
        "EGEHEJEBLBJ": ""
      },
      {
        "$type": "MoleMole.Config.ConfigTimeProtectAction",
        "type": "TIME_PROTECT",
        "duration": 1.5
      },
      {
        "$type": "MoleMole.Config.ConfigCameraShakeAction",
        "type": "CAMERA_SHAKE",
        "shakeRange": 0.10000000149011612,
        "shakeTime": 10.0,
        "shakeDinstance": 0.10000000149011612,
        "_shakeDir": {
          "y": 1.0
        }
      },
      {
        "$type": "MoleMole.Config.ConfigCameraShakeAction",
        "type": "CAMERA_SHAKE",
        "delayTime": 1.6034032106399536,
        "shakeRange": 0.05000000074505806,
        "shakeTime": 10.0,
        "shakeDinstance": 0.05000000074505806,
        "_shakeDir": {
          "x": 1.0
        }
      },
      {
        "$type": "MoleMole.Config.ConfigCameraShakeAction",
        "type": "CAMERA_SHAKE",
        "delayTime": 0.8034239411354065,
        "shakeRange": 0.05000000074505806,
        "shakeTime": 10.0,
        "shakeDinstance": 0.05000000074505806,
        "_shakeDir": {
          "x": 1.0,
          "y": 1.0
        }
      },
      {
        "$type": "MoleMole.Config.ConfigCameraShakeAction",
        "type": "CAMERA_SHAKE",
        "delayTime": 0.9280960559844971,
        "shakeRange": 0.05000000074505806,
        "shakeTime": 10.0,
        "shakeDinstance": 0.05000000074505806,
        "_shakeDir": {
          "x": 1.0,
          "y": 1.0,
          "z": 1.0
        }
      },
      {
        "$type": "MoleMole.Config.ConfigCameraShakeAction",
        "type": "CAMERA_SHAKE",
        "delayTime": 1.0735467672348022,
        "shakeRange": 0.05000000074505806,
        "shakeTime": 10.0,
        "shakeDinstance": 0.05000000074505806,
        "_shakeDir": {
          "y": 1.0,
          "z": 1.0
        }
      },
      {
        "$type": "MoleMole.Config.ConfigCameraShakeAction",
        "type": "CAMERA_SHAKE",
        "delayTime": 1.218997597694397,
        "shakeRange": 0.05000000074505806,
        "shakeTime": 10.0,
        "shakeDinstance": 0.05000000074505806,
        "_shakeDir": {
          "z": 1.0
        }
      },
      {
        "$type": "MoleMole.Config.ConfigCameraShakeAction",
        "type": "CAMERA_SHAKE",
        "delayTime": 1.3644483089447021,
        "shakeRange": 0.05000000074505806,
        "shakeTime": 10.0,
        "shakeDinstance": 0.05000000074505806,
        "_shakeDir": {
          "x": 1.0,
          "z": 1.0
        }
      },
      {
        "$type": "MoleMole.Config.ConfigCameraShakeAction",
        "type": "CAMERA_SHAKE",
        "delayTime": 1.4787311553955078,
        "shakeRange": 0.05000000074505806,
        "shakeTime": 10.0,
        "shakeDinstance": 0.05000000074505806,
        "_shakeDir": {
          "x": 1.0
        }
      },
      {
        "$type": "MoleMole.Config.ConfigCameraShakeAction",
        "type": "CAMERA_SHAKE",
        "delayTime": 1.7184447050094604,
        "shakeRange": 0.05000000074505806,
        "shakeTime": 10.0,
        "shakeDinstance": 0.05000000074505806,
        "_shakeDir": {
          "x": 1.0,
          "y": 1.0
        }
      },
      {
        "$type": "MoleMole.Config.ConfigCameraShakeAction",
        "type": "CAMERA_SHAKE",
        "delayTime": 1.8535058498382568,
        "shakeRange": 0.05000000074505806,
        "shakeTime": 10.0,
        "shakeDinstance": 0.05000000074505806,
        "_shakeDir": {
          "x": 1.0,
          "y": 1.0,
          "z": 1.0
        }
      },
      {
        "$type": "MoleMole.Config.ConfigCameraShakeAction",
        "type": "CAMERA_SHAKE",
        "delayTime": 1.9989566802978516,
        "shakeRange": 0.05000000074505806,
        "shakeTime": 10.0,
        "shakeDinstance": 0.05000000074505806,
        "_shakeDir": {
          "y": 1.0,
          "z": 1.0
        }
      },
      {
        "$type": "MoleMole.Config.ConfigCameraShakeAction",
        "type": "CAMERA_SHAKE",
        "delayTime": 2.123628616333008,
        "shakeRange": 0.05000000074505806,
        "shakeTime": 10.0,
        "shakeDinstance": 0.05000000074505806,
        "_shakeDir": {
          "z": 1.0
        }
      },
      {
        "$type": "MoleMole.Config.ConfigCameraShakeAction",
        "type": "CAMERA_SHAKE",
        "delayTime": 2.2690789699554443,
        "shakeRange": 0.05000000074505806,
        "shakeTime": 10.0,
        "shakeDinstance": 0.05000000074505806,
        "_shakeDir": {
          "x": 1.0,
          "z": 1.0
        }
      },
      {
        "$type": "MoleMole.Config.ConfigCameraShakeAction",
        "type": "CAMERA_SHAKE",
        "delayTime": 2.414529800415039,
        "shakeRange": 0.05000000074505806,
        "shakeTime": 10.0,
        "shakeDinstance": 0.05000000074505806,
        "_shakeDir": {
          "x": 1.0
        }
      },
      {
        "$type": "MoleMole.Config.ConfigCameraShakeAction",
        "type": "CAMERA_SHAKE",
        "delayTime": 2.5599803924560547,
        "shakeRange": 0.05000000074505806,
        "shakeTime": 10.0,
        "shakeDinstance": 0.05000000074505806,
        "_shakeDir": {
          "x": 1.0,
          "y": 1.0
        }
      },
      {
        "$type": "MoleMole.Config.ConfigCameraShakeAction",
        "type": "CAMERA_SHAKE",
        "delayTime": 2.684652328491211,
        "shakeRange": 0.05000000074505806,
        "shakeTime": 10.0,
        "shakeDinstance": 0.05000000074505806,
        "_shakeDir": {
          "y": 1.0,
          "z": 1.0
        }
      },
      {
        "$type": "MoleMole.Config.ConfigCameraShakeAction",
        "type": "CAMERA_SHAKE",
        "delayTime": 2.809325933456421,
        "shakeRange": 0.05000000074505806,
        "shakeTime": 10.0,
        "shakeDinstance": 0.05000000074505806,
        "_shakeDir": {
          "y": 1.0,
          "z": 1.0
        }
      },
      {
        "$type": "MoleMole.Config.ConfigCameraShakeAction",
        "type": "CAMERA_SHAKE",
        "delayTime": 2.9547767639160156,
        "shakeRange": 0.05000000074505806,
        "shakeTime": 10.0,
        "shakeDinstance": 0.05000000074505806,
        "_shakeDir": {
          "x": 1.0
        }
      },
      {
        "$type": "MoleMole.Config.ConfigCameraShakeAction",
        "type": "CAMERA_SHAKE",
        "delayTime": 3.069059133529663,
        "shakeRange": 0.05000000074505806,
        "shakeTime": 10.0,
        "shakeDinstance": 0.05000000074505806,
        "_shakeDir": {
          "z": 1.0
        }
      },
      {
        "$type": "MoleMole.Config.ConfigCameraShakeAction",
        "type": "CAMERA_SHAKE",
        "delayTime": 3.214509963989258,
        "shakeRange": 0.05000000074505806,
        "shakeTime": 10.0,
        "shakeDinstance": 0.05000000074505806,
        "_shakeDir": {
          "x": 1.0,
          "z": 1.0
        }
      },
      {
        "$type": "MoleMole.Config.ConfigCameraShakeAction",
        "type": "CAMERA_SHAKE",
        "delayTime": 3.3599605560302734,
        "shakeRange": 0.05000000074505806,
        "shakeTime": 10.0,
        "shakeDinstance": 0.05000000074505806,
        "_shakeDir": {
          "x": 1.0
        }
      },
      {
        "$type": "MoleMole.Config.ConfigCameraShakeAction",
        "type": "CAMERA_SHAKE",
        "delayTime": 3.4950218200683594,
        "shakeRange": 0.05000000074505806,
        "shakeTime": 10.0,
        "shakeDinstance": 0.05000000074505806,
        "_shakeDir": {
          "z": 1.0
        }
      },
      {
        "$type": "MoleMole.Config.ConfigCameraShakeAction",
        "type": "CAMERA_SHAKE",
        "delayTime": 3.640472173690796,
        "shakeRange": 0.05000000074505806,
        "shakeTime": 10.0,
        "shakeDinstance": 0.05000000074505806,
        "_shakeDir": {
          "x": 1.0,
          "z": 1.0
        }
      },
      {
        "$type": "MoleMole.Config.ConfigCameraShakeAction",
        "type": "CAMERA_SHAKE",
        "delayTime": 3.765144109725952,
        "shakeRange": 0.05000000074505806,
        "shakeTime": 10.0,
        "shakeDinstance": 0.05000000074505806,
        "_shakeDir": {
          "y": 1.0,
          "z": 1.0
        }
      },
      {
        "$type": "MoleMole.Config.ConfigCameraShakeAction",
        "type": "CAMERA_SHAKE",
        "delayTime": 3.8898162841796875,
        "shakeRange": 0.05000000074505806,
        "shakeTime": 10.0,
        "shakeDinstance": 0.05000000074505806,
        "_shakeDir": {
          "y": 1.0,
          "z": 1.0
        }
      },
      {
        "$type": "MoleMole.Config.ConfigCameraShakeAction",
        "type": "CAMERA_SHAKE",
        "delayTime": 0.6683624386787415,
        "shakeRange": 0.10000000149011612,
        "shakeTime": 10.0,
        "shakeDinstance": 0.10000000149011612,
        "_shakeDir": {
          "y": 1.0
        }
      },
      {
        "$type": "MoleMole.Config.ConfigCameraShakeAction",
        "type": "CAMERA_SHAKE",
        "delayTime": 0.1282080113887787,
        "shakeRange": 0.05000000074505806,
        "shakeTime": 10.0,
        "shakeDinstance": 0.05000000074505806,
        "_shakeDir": {
          "z": 1.0
        }
      },
      {
        "$type": "MoleMole.Config.ConfigCameraShakeAction",
        "type": "CAMERA_SHAKE",
        "delayTime": 0.2528798282146454,
        "shakeRange": 0.05000000074505806,
        "shakeTime": 10.0,
        "shakeDinstance": 0.05000000074505806,
        "_shakeDir": {
          "x": 1.0,
          "y": 1.0
        }
      },
      {
        "$type": "MoleMole.Config.ConfigCameraShakeAction",
        "type": "CAMERA_SHAKE",
        "delayTime": 0.3671625852584839,
        "shakeRange": 0.05000000074505806,
        "shakeTime": 10.0,
        "shakeDinstance": 0.05000000074505806,
        "_shakeDir": {
          "x": 1.0,
          "y": 1.0,
          "z": 1.0
        }
      },
      {
        "$type": "MoleMole.Config.ConfigCameraShakeAction",
        "type": "CAMERA_SHAKE",
        "delayTime": 0.5022239089012146,
        "shakeRange": 0.05000000074505806,
        "shakeTime": 10.0,
        "shakeDinstance": 0.05000000074505806,
        "_shakeDir": {
          "x": 1.0,
          "z": 1.0
        }
      },
      {
        "$type": "FABLGECDBCH",
        "type": "BODY_LANG",
        "aliasList": [
          "Avatar"
        ],
        "bodyLangParam": 1080,
        "forceDoFreeStyle": true,
        "canDoRepeatFreeStyle": false,
        "eventPatternSuiteKey": "",
        "FOHHKFAIAAJ": ""
      },
      {
        "$type": "MoleMole.Config.ConfigTeleportToAction",
        "type": "TELEPORT_TO",
        "aliasList": [
          "20244"
        ],
        "position": {
          "x": -3618.55126953125,
          "y": 201.2310333251953,
          "z": -3327.0244140625
        },
        "forward": {
          "x": -1.815185546875,
          "z": -1.626220703125
        },
        "_posBindMovingTargetKey": "",
        "_forwardBindMovingTargetKey": ""
      }
    ],
    [
      {
        "$type": "MoleMole.Config.ConfigTimeProtectAction",
        "type": "TIME_PROTECT",
        "duration": 0.699999988079071
      },
      {
        "$type": "FJKIHHKJLMJ",
        "type": "CAMERA_MOVE",
        "delayTime": 0.6000000238418579,
        "duration": 0.20000000298023224,
        "camPosOffset": {
          "x": -3613.963134765625,
          "y": 203.35308837890625,
          "z": -3333.6533203125
        },
        "camForwardTargetOffset": {
          "x": -3614.510009765625,
          "y": 203.0512237548828,
          "z": -3332.872314453125
        },
        "lerpPattern": 6,
        "cameraBlendType": "EaseInOutCubic",
        "NJBNNOMLKCK": {},
        "needZAxisRotate": true,
        "rotateAngle": 3.0,
        "openCameraDither": false,
        "targetNpcAlias": "",
        "KJOEFBPOIIH": "",
        "IICFKKEBIEC": "",
        "EGEHEJEBLBJ": ""
      },
      {
        "$type": "MoleMole.Config.ConfigSimpleBlackScreenAction",
        "type": "SIMPLE_BLACK_SCREEN",
        "durationToBlack": 0.5,
        "durationKeepBlack": 1.0,
        "durationFromBlack": 0.5,
        "textMapID": "",
        "useTextFade": true
      },
      {
        "$type": "FABLGECDBCH",
        "type": "BODY_LANG",
        "delayTime": 0.6000000238418579,
        "aliasList": [
          "Avatar"
        ],
        "isContinue": true,
        "forceDoFreeStyle": true,
        "canDoRepeatFreeStyle": false,
        "eventPatternSuiteKey": "",
        "FOHHKFAIAAJ": ""
      },
      {
        "$type": "MoleMole.Config.ConfigVisibleInterAction",
        "type": "VISIBLE",
        "delayTime": 0.6000000238418579,
        "aliasList": [
          "20244"
        ],
        "_extraParam": ""
      },
      {
        "$type": "MoleMole.Config.ConfigPlayEffectAction",
        "type": "PLAY_EFFECT",
        "delayTime": 0.6000000238418579,
        "aliasList": [
          "20244"
        ],
        "effectIndex": "123",
        "patternName": "",
        "isLoop": true,
        "isRemove": true,
        "_otherTargetNpcAlias": "",
        "_overrideFollowPath": ""
      },
      {
        "$type": "MoleMole.Config.ConfigVisibleInterAction",
        "type": "VISIBLE",
        "delayTime": 0.6000000238418579,
        "aliasList": [
          "3163"
        ],
        "_extraParam": ""
      }
    ]
  ],
  "groupId": [
    {
      "grpId": 1819166264,
      "nextGrpId": 1819166265
    },
    {
      "index": 1,
      "grpId": 1819166265,
      "nextGrpId": 1819166266
    },
    {
      "index": 2,
      "grpId": 1819166266,
      "nextGrpId": 1819166267
    },
    {
      "index": 3,
      "grpId": 1819166267,
      "nextGrpId": 1819166268
    },
    {
      "index": 4,
      "grpId": 1819166268,
      "nextGrpId": 1819166269
    },
    {
      "index": 5,
      "grpId": 1819166269,
      "nextGrpId": 1819166270
    },
    {
      "index": 6,
      "grpId": 1819166270,
      "nextGrpId": 1819166271
    }
  ],
  "freeStyleDic": {
    "20244": [
      4190,
      1280,
      1140
    ],
    "3163": [
      1060
    ]
  }
}