{
  "luaDataPath": "",
  "entityBan": "",
  "disableNpcLod": true,
  "startFade": {
    "startFadeOutDuration": 0.0
  },
  "endFade": {
    "startFadeOutDuration": 0.0
  },
  "actors": [
    {
      "alias": "Avatar",
      "visible": true,
      "bornPointName": "",
      "relativePosNpcAlias": "",
      "_bindMovingTargetKey": ""
    },
    {
      "configID": 20244,
      "alias": "20244",
      "visible": true,
      "bornPointName": "",
      "relativePosNpcAlias": "",
      "_bindMovingTargetKey": ""
    },
    {
      "configID": 1005,
      "alias": "1005",
      "visible": true,
      "bornPointName": "",
      "useRelativePos": true,
      "relativePos": {
        "x": -0.5,
        "z": 0.5
      },
      "removeActorType": "REMOVE_WITH_DISAPPEAR",
      "relativePosNpcAlias": "",
      "_bindMovingTargetKey": ""
    }
  ],
  "group": [
    [
      {
        "$type": "FJKIHHKJLMJ",
        "type": "CAMERA_FOCUS",
        "duration": 0.10000000149011612,
        "targetNpcAlias": "",
        "KJOEFBPOIIH": "",
        "IICFKKEBIEC": "",
        "EGEHEJEBLBJ": ""
      },
      {
        "$type": "MoleMole.Config.ConfigTimeProtectAction",
        "type": "TIME_PROTECT",
        "duration": 0.10000000149011612
      }
    ],
    [
      {
        "$type": "LLGANGLOEEO",
        "type": "STEER_TO",
        "duration": 0.800000011920929,
        "aliasList": [
          "Avatar"
        ],
        "steerType": "TO_TARGET",
        "useSteerAnim": true,
        "interruptFreestyle": true,
        "forceSteer": true,
        "targetNpcAlias": "20244",
        "OAFJBHJHLJG": ""
      },
      {
        "$type": "PKKMAMONGEO",
        "type": "DIALOG",
        "aliasList": [
          "20244"
        ],
        "dialogID": 721230204,
        "protectTime": 0.5
      },
      {
        "$type": "MoleMole.Config.ConfigEmojiBubbleAction",
        "type": "EMOJI_BUBBLE",
        "aliasList": [
          "20244"
        ],
        "pattarnName": "EmojiBubble_Emoji_Afraid"
      },
      {
        "$type": "LLGANGLOEEO",
        "type": "STEER_TO",
        "duration": 0.800000011920929,
        "aliasList": [
          "20244"
        ],
        "steerType": "TO_TARGET",
        "useSteerAnim": true,
        "interruptFreestyle": true,
        "forceSteer": true,
        "targetNpcAlias": "Avatar",
        "OAFJBHJHLJG": ""
      }
    ],
    [
      {
        "$type": "PKKMAMONGEO",
        "type": "DIALOG",
        "aliasList": [
          "1005"
        ],
        "dialogID": 721230205,
        "protectTime": 0.5
      }
    ],
    [
      {
        "$type": "PKKMAMONGEO",
        "type": "DIALOG",
        "aliasList": [
          "1005"
        ],
        "dialogID": 721230206,
        "protectTime": 0.5
      }
    ],
    [
      {
        "$type": "HDGKHDNFMIM",
        "type": "DIALOG_SELECT",
        "delayTime": 0.4000000059604645,
        "aliasList": [
          "Avatar"
        ],
        "dialogIDList": [
          721230208
        ],
        "grpIDList": [
          1819162425
        ],
        "useGrpId": true
      },
      {
        "$type": "PKKMAMONGEO",
        "type": "DIALOG",
        "aliasList": [
          "20244"
        ],
        "dialogID": 721230207,
        "protectTime": 0.5
      }
    ],
    [
      {
        "$type": "PKKMAMONGEO",
        "type": "DIALOG",
        "aliasList": [
          "1005"
        ],
        "dialogID": 721230209,
        "protectTime": 0.5
      }
    ],
    [
      {
        "$type": "PKKMAMONGEO",
        "type": "DIALOG",
        "aliasList": [
          "1005"
        ],
        "dialogID": 721230210,
        "protectTime": 0.5
      }
    ],
    [
      {
        "$type": "PKKMAMONGEO",
        "type": "DIALOG",
        "aliasList": [
          "20244"
        ],
        "dialogID": 721230211,
        "protectTime": 0.5
      }
    ],
    [
      {
        "$type": "PKKMAMONGEO",
        "type": "DIALOG",
        "aliasList": [
          "20244"
        ],
        "dialogID": 721230212,
        "protectTime": 0.5
      }
    ],
    [
      {
        "$type": "PKKMAMONGEO",
        "type": "DIALOG",
        "aliasList": [
          "20244"
        ],
        "dialogID": 721230213,
        "protectTime": 0.5
      },
      {
        "$type": "FABLGECDBCH",
        "type": "BODY_LANG",
        "aliasList": [
          "20244"
        ],
        "bodyLangParam": 1171,
        "forceDoFreeStyle": true,
        "canDoRepeatFreeStyle": false,
        "eventPatternSuiteKey": "",
        "FOHHKFAIAAJ": ""
      }
    ],
    [
      {
        "$type": "PKKMAMONGEO",
        "type": "DIALOG",
        "aliasList": [
          "20244"
        ],
        "dialogID": 721230214,
        "protectTime": 0.5
      }
    ],
    [
      {
        "$type": "PKKMAMONGEO",
        "type": "DIALOG",
        "aliasList": [
          "20244"
        ],
        "dialogID": 721230215,
        "protectTime": 0.5
      }
    ],
    [
      {
        "$type": "HDGKHDNFMIM",
        "type": "DIALOG_SELECT",
        "delayTime": 0.4000000059604645,
        "aliasList": [
          "Avatar"
        ],
        "dialogIDList": [
          721230217,
          721230218
        ],
        "grpIDList": [
          559460224,
          559460224
        ],
        "useGrpId": true
      },
      {
        "$type": "PKKMAMONGEO",
        "type": "DIALOG",
        "aliasList": [
          "20244"
        ],
        "dialogID": 721230216,
        "protectTime": 0.5
      }
    ],
    [
      {
        "$type": "PKKMAMONGEO",
        "type": "DIALOG",
        "aliasList": [
          "20244"
        ],
        "dialogID": 721230219,
        "protectTime": 0.5
      },
      {
        "$type": "MoleMole.Config.ConfigEmojiBubbleAction",
        "type": "EMOJI_BUBBLE",
        "aliasList": [
          "20244"
        ],
        "pattarnName": "EmojiBubble_Emoji_Angry"
      }
    ],
    [
      {
        "$type": "PKKMAMONGEO",
        "type": "DIALOG",
        "aliasList": [
          "1005"
        ],
        "dialogID": 721230220,
        "protectTime": 0.5
      }
    ],
    [
      {
        "$type": "PKKMAMONGEO",
        "type": "DIALOG",
        "aliasList": [
          "20244"
        ],
        "dialogID": 721230221,
        "protectTime": 0.5
      }
    ],
    [
      {
        "$type": "PKKMAMONGEO",
        "type": "DIALOG",
        "aliasList": [
          "1005"
        ],
        "dialogID": 721230222,
        "protectTime": 0.5
      }
    ],
    [
      {
        "$type": "PKKMAMONGEO",
        "type": "DIALOG",
        "aliasList": [
          "20244"
        ],
        "dialogID": 721230223,
        "protectTime": 0.5
      },
      {
        "$type": "LLGANGLOEEO",
        "type": "STEER_TO",
        "duration": 0.800000011920929,
        "aliasList": [
          "20244"
        ],
        "targetNpcAlias": "",
        "OAFJBHJHLJG": ""
      },
      {
        "$type": "FABLGECDBCH",
        "type": "BODY_LANG",
        "aliasList": [
          "20244"
        ],
        "bodyLangParam": 1172,
        "forceDoFreeStyle": true,
        "canDoRepeatFreeStyle": false,
        "eventPatternSuiteKey": "",
        "FOHHKFAIAAJ": ""
      }
    ],
    [
      {
        "$type": "PKKMAMONGEO",
        "type": "DIALOG",
        "aliasList": [
          "1005"
        ],
        "dialogID": 721230224,
        "protectTime": 0.5
      }
    ],
    [
      {
        "$type": "FJKIHHKJLMJ",
        "type": "CAMERA_MOVE",
        "delayTime": 0.5616666674613953,
        "duration": 0.8583332896232605,
        "camPosOffset": {
          "x": -3622.887451171875,
          "y": 207.67059326171875,
          "z": -3329.150390625
        },
        "camForwardTargetOffset": {
          "x": -3622.32275390625,
          "y": 207.63450622558594,
          "z": -3329.974853515625
        },
        "camFov": 30.0,
        "cameraBlendType": "EaseOutQuad",
        "NJBNNOMLKCK": {},
        "openCameraDither": false,
        "targetNpcAlias": "",
        "KJOEFBPOIIH": "",
        "IICFKKEBIEC": "",
        "EGEHEJEBLBJ": ""
      },
      {
        "$type": "FJKIHHKJLMJ",
        "type": "CAMERA_MOVE",
        "duration": 0.5,
        "camPosOffset": {
          "x": -3623.1005859375,
          "y": 208.98277282714844,
          "z": -3329.467041015625
        },
        "camForwardTargetOffset": {
          "x": -3622.514404296875,
          "y": 208.81546020507812,
          "z": -3330.259765625
        },
        "camFov": 30.0,
        "cameraBlendType": "EaseInOutCubic",
        "NJBNNOMLKCK": {},
        "openCameraDither": false,
        "targetNpcAlias": "",
        "KJOEFBPOIIH": "",
        "IICFKKEBIEC": "",
        "EGEHEJEBLBJ": ""
      },
      {
        "$type": "FJKIHHKJLMJ",
        "type": "CAMERA_MOVE",
        "delayTime": 0.07000000029802322,
        "duration": 0.5,
        "camPosOffset": {
          "x": -3624.75732421875,
          "y": 207.88037109375,
          "z": -3330.825439453125
        },
        "camForwardTargetOffset": {
          "x": -3624.005615234375,
          "y": 207.82330322265625,
          "z": -3331.482421875
        },
        "camFov": 30.0,
        "lerpPattern": 6,
        "cameraBlendType": "EaseOutQuad",
        "NJBNNOMLKCK": {},
        "openCameraDither": false,
        "targetNpcAlias": "",
        "KJOEFBPOIIH": "",
        "IICFKKEBIEC": "",
        "EGEHEJEBLBJ": ""
      },
      {
        "$type": "PKKMAMONGEO",
        "type": "DIALOG",
        "aliasList": [
          "1005"
        ],
        "dialogID": 721230225,
        "protectTime": 0.5
      }
    ],
    [
      {
        "$type": "MoleMole.Config.ConfigTimeProtectAction",
        "type": "TIME_PROTECT",
        "duration": 0.10000000149011612
      }
    ]
  ],
  "groupId": [
    {
      "grpId": 1819162420,
      "nextGrpId": 1819162421
    },
    {
      "index": 1,
      "grpId": 1819162421,
      "nextGrpId": 1819162422
    },
    {
      "index": 2,
      "grpId": 1819162422,
      "nextGrpId": 1819162423
    },
    {
      "index": 3,
      "grpId": 1819162423,
      "nextGrpId": 1819162424
    },
    {
      "index": 4,
      "grpId": 1819162424,
      "nextGrpId": 1819162425
    },
    {
      "index": 5,
      "grpId": 1819162425,
      "nextGrpId": 1819162426
    },
    {
      "index": 6,
      "grpId": 1819162426,
      "nextGrpId": 1819162427
    },
    {
      "index": 7,
      "grpId": 1819162427,
      "nextGrpId": 1819162428
    },
    {
      "index": 8,
      "grpId": 1819162428,
      "nextGrpId": 559460220
    },
    {
      "index": 9,
      "grpId": 559460220,
      "nextGrpId": 559460221
    },
    {
      "index": 10,
      "grpId": 559460221,
      "nextGrpId": 559460222
    },
    {
      "index": 11,
      "grpId": 559460222,
      "nextGrpId": 559460223
    },
    {
      "index": 12,
      "grpId": 559460223,
      "nextGrpId": 559460224
    },
    {
      "index": 13,
      "grpId": 559460224,
      "nextGrpId": 559460225
    },
    {
      "index": 14,
      "grpId": 559460225,
      "nextGrpId": 559460226
    },
    {
      "index": 15,
      "grpId": 559460226,
      "nextGrpId": 559460227
    },
    {
      "index": 16,
      "grpId": 559460227,
      "nextGrpId": 559460228
    },
    {
      "index": 17,
      "grpId": 559460228,
      "nextGrpId": 559460229
    },
    {
      "index": 18,
      "grpId": 559460229,
      "nextGrpId": 559460251
    },
    {
      "index": 19,
      "grpId": 559460251,
      "nextGrpId": 559460252
    },
    {
      "index": 20,
      "grpId": 559460252,
      "nextGrpId": 559460253
    }
  ],
  "freeStyleDic": {
    "20244": [
      1171,
      1172
    ]
  }
}