{
  "luaDataPath": "",
  "entityBan": "",
  "disableNpcLod": true,
  "protectNpcMobileLod": true,
  "startFade": {
    "startFadeOutDuration": 0.0
  },
  "endFade": {
    "startFadeOutDuration": 0.0
  },
  "actors": [
    {
      "alias": "Avatar",
      "visible": true,
      "bornPointName": "",
      "relativePosType": "AVATAR_NEW",
      "relativePosNpcAlias": "",
      "_bindMovingTargetKey": ""
    },
    {
      "configID": 1039,
      "alias": "1039",
      "visible": true,
      "bornPointName": "",
      "relativePosType": "AVATAR_NEW",
      "relativePosNpcAlias": "",
      "_bindMovingTargetKey": ""
    }
  ],
  "group": [
    [
      {
        "$type": "MoleMole.Config.ConfigTimeProtectAction",
        "type": "TIME_PROTECT",
        "duration": 0.10000000149011612,
        "actionId": 104
      },
      {
        "$type": "MoleMole.Config.ConfigCameraFocusNewInterAction",
        "type": "CAMERA_FOCUS_NEW",
        "duration": 0.10000000149011612,
        "actionId": 117,
        "focusExtendedSetting": {
          "duration": 1.0,
          "refPosData": {
            "npcAlias": ""
          },
          "tarPosData": {
            "npcAlias": ""
          }
        }
      },
      {
        "$type": "LJLMDHDCAMK",
        "type": "LOOK_AT",
        "aliasList": [
          "Avatar"
        ],
        "actionId": 118,
        "enableHead": true,
        "headTurnTime": 0.5,
        "targetNpcAlias": "1039",
        "openBackProtect": true,
        "targetNpcLookAtPoint": "",
        "OAFJBHJHLJG": ""
      },
      {
        "$type": "LJLMDHDCAMK",
        "type": "LOOK_AT",
        "aliasList": [
          "1039"
        ],
        "actionId": 119,
        "headTurnTime": 0.5,
        "targetNpcAlias": "Avatar",
        "openBackProtect": true,
        "targetNpcLookAtPoint": "",
        "OAFJBHJHLJG": ""
      },
      {
        "$type": "LLGANGLOEEO",
        "type": "STEER_TO",
        "delayTime": 0.30000001192092896,
        "duration": 0.800000011920929,
        "aliasList": [
          "Avatar"
        ],
        "actionId": 112,
        "steerType": "TO_TARGET_ADVANCED",
        "useSteerAnim": true,
        "interruptFreestyle": true,
        "forceSteer": true,
        "targetNpcAlias": "1039",
        "fixInterNull": true,
        "OAFJBHJHLJG": ""
      }
    ],
    [
      {
        "$type": "PKKMAMONGEO",
        "type": "DIALOG",
        "aliasList": [
          "1039"
        ],
        "actionId": 107,
        "dialogID": 400901601,
        "protectTime": 0.5
      },
      {
        "$type": "CPJKOIHIPBE",
        "type": "EMO_SYNC",
        "aliasList": [
          "1039"
        ],
        "actionId": 114,
        "dataPath": "Cs_Emo_Avatar_Simple_Common_Set/Cs_Emo_Avatar_Talk/Cs_Emo_Avatar_Event/Cs_Emo_Brick/Cs_Emo_400901601",
        "phonemePath": "",
        "emotionPath": "",
        "mateDataPath": "",
        "matePhonemePath": "",
        "mateEmotionPath": "",
        "dataPathHashList": [
          2986584907338448616,
          7878562685502030462,
          13604168922452936858,
          2988706321683945271
        ],
        "FMDPBECPELH": "",
        "ADKBLPOKGIK": ""
      },
      {
        "$type": "FABLGECDBCH",
        "type": "BODY_LANG",
        "aliasList": [
          "1039"
        ],
        "actionId": 120,
        "bodyLangParam": 1190,
        "forceDoFreeStyle": true,
        "canDoRepeatFreeStyle": false,
        "cantBackToIdleWhenSitLoop": true,
        "eventPatternSuiteKey": "",
        "FOHHKFAIAAJ": ""
      },
      {
        "$type": "LJLMDHDCAMK",
        "type": "LOOK_AT",
        "aliasList": [
          "1039"
        ],
        "actionId": 122,
        "headTurnTime": 0.5,
        "targetNpcAlias": "",
        "openBackProtect": true,
        "targetNpcLookAtPoint": "",
        "OAFJBHJHLJG": ""
      }
    ],
    [
      {
        "$type": "PKKMAMONGEO",
        "type": "DIALOG",
        "aliasList": [
          "1039"
        ],
        "actionId": 109,
        "dialogID": 400901602,
        "protectTime": 1.6059999465942383
      },
      {
        "$type": "CPJKOIHIPBE",
        "type": "EMO_SYNC",
        "aliasList": [
          "1039"
        ],
        "actionId": 115,
        "dataPath": "Cs_Emo_Avatar_Simple_Common_Set/Cs_Emo_Avatar_Talk/Cs_Emo_Avatar_Event/Cs_Emo_Brick/Cs_Emo_400901602",
        "phonemePath": "",
        "emotionPath": "",
        "mateDataPath": "",
        "matePhonemePath": "",
        "mateEmotionPath": "",
        "dataPathHashList": [
          2663558113424100027,
          4989597639836617522,
          11765398804508492616,
          12535997501340412920
        ],
        "FMDPBECPELH": "",
        "ADKBLPOKGIK": ""
      },
      {
        "$type": "FABLGECDBCH",
        "type": "BODY_LANG",
        "aliasList": [
          "1039"
        ],
        "actionId": 121,
        "isContinue": true,
        "forceDoFreeStyle": true,
        "canDoRepeatFreeStyle": false,
        "cantBackToIdleWhenSitLoop": true,
        "eventPatternSuiteKey": "",
        "FOHHKFAIAAJ": ""
      },
      {
        "$type": "LJLMDHDCAMK",
        "type": "LOOK_AT",
        "aliasList": [
          "1039"
        ],
        "actionId": 123,
        "enableHead": true,
        "headTurnTime": 0.5,
        "targetNpcAlias": "Avatar",
        "openBackProtect": true,
        "targetNpcLookAtPoint": "",
        "OAFJBHJHLJG": ""
      },
      {
        "$type": "LLGANGLOEEO",
        "type": "STEER_TO",
        "delayTime": 0.515999972820282,
        "duration": 0.800000011920929,
        "aliasList": [
          "1039"
        ],
        "actionId": 128,
        "steerType": "TO_LOCAL_AVATAR_ADVANCED",
        "useSteerAnim": true,
        "interruptFreestyle": true,
        "forceSteer": true,
        "targetNpcAlias": "",
        "fixInterNull": true,
        "OAFJBHJHLJG": ""
      },
      {
        "$type": "FABLGECDBCH",
        "type": "BODY_LANG",
        "delayTime": 1.5980000495910645,
        "aliasList": [
          "1039"
        ],
        "actionId": 124,
        "bodyLangParam": 1230,
        "forceDoFreeStyle": true,
        "canDoRepeatFreeStyle": false,
        "cantBackToIdleWhenSitLoop": true,
        "eventPatternSuiteKey": "",
        "FOHHKFAIAAJ": ""
      }
    ],
    [
      {
        "$type": "PKKMAMONGEO",
        "type": "DIALOG",
        "aliasList": [
          "1039"
        ],
        "actionId": 111,
        "dialogID": 400901603,
        "protectTime": 0.5
      },
      {
        "$type": "CPJKOIHIPBE",
        "type": "EMO_SYNC",
        "aliasList": [
          "1039"
        ],
        "actionId": 116,
        "dataPath": "Cs_Emo_Avatar_Simple_Common_Set/Cs_Emo_Avatar_Talk/Cs_Emo_Avatar_Event/Cs_Emo_Brick/Cs_Emo_400901603",
        "phonemePath": "",
        "emotionPath": "",
        "mateDataPath": "",
        "matePhonemePath": "",
        "mateEmotionPath": "",
        "dataPathHashList": [
          12485799556969992844,
          2546073259344059305,
          6120337630434675862,
          6591854284370304702
        ],
        "FMDPBECPELH": "",
        "ADKBLPOKGIK": ""
      },
      {
        "$type": "FABLGECDBCH",
        "type": "BODY_LANG",
        "aliasList": [
          "1039"
        ],
        "actionId": 125,
        "isContinue": true,
        "forceDoFreeStyle": true,
        "canDoRepeatFreeStyle": false,
        "cantBackToIdleWhenSitLoop": true,
        "eventPatternSuiteKey": "",
        "FOHHKFAIAAJ": ""
      },
      {
        "$type": "FABLGECDBCH",
        "type": "BODY_LANG",
        "delayTime": 1.8819999694824219,
        "aliasList": [
          "1039"
        ],
        "actionId": 126,
        "bodyLangParam": 1172,
        "forceDoFreeStyle": true,
        "canDoRepeatFreeStyle": false,
        "cantBackToIdleWhenSitLoop": true,
        "eventPatternSuiteKey": "",
        "FOHHKFAIAAJ": ""
      }
    ],
    [
      {
        "$type": "MoleMole.Config.ConfigTimeProtectAction",
        "type": "TIME_PROTECT",
        "duration": 0.10000000149011612,
        "actionId": 105
      },
      {
        "$type": "LLGANGLOEEO",
        "type": "STEER_TO",
        "duration": 1.0,
        "aliasList": [
          "1039"
        ],
        "actionId": 127,
        "steerType": "RETURN",
        "steerDir": {
          "x": -2763.117919921875,
          "y": 228.05999755859375,
          "z": -4500.158203125
        },
        "useSteerAnim": true,
        "interruptFreestyle": true,
        "forceSteer": true,
        "targetNpcAlias": "",
        "ignoreY": true,
        "fixInterNull": true,
        "OAFJBHJHLJG": ""
      }
    ]
  ],
  "groupId": [
    {
      "grpId": 1152735182,
      "nextGrpId": 1152735183
    },
    {
      "index": 1,
      "grpId": 1152735183,
      "nextGrpId": 1152735184
    },
    {
      "index": 2,
      "grpId": 1152735184,
      "nextGrpId": 1152735185
    },
    {
      "index": 3,
      "grpId": 1152735185,
      "nextGrpId": 1152735186
    },
    {
      "index": 4,
      "grpId": 1152735186,
      "nextGrpId": 1152735187
    }
  ],
  "freeStyleDic": {
    "1039": [
      1190,
      1230,
      1172
    ]
  }
}