{
  "Alhatham_Constellation_1": [
    {
      "$type": "PDIMJFAAALL",
      "abilityName": "Avatar_Alhatham_Constellation_1"
    },
    {
      "$type": "CBANBKANPDJ",
      "abilityName": "Avatar_Alhatham_Constellation_1",
      "paramSpecial": "Constellation_1_CD_Delta",
      "paramDelta": "%1"
    },
    {
      "$type": "CBANBKANPDJ",
      "abilityName": "Avatar_Alhatham_Constellation_1",
      "paramSpecial": "Constellation_1_CD",
      "paramDelta": "%2"
    }
  ],
  "Alhatham_Constellation_2": [
    {
      "$type": "PDIMJFAAALL",
      "abilityName": "Avatar_Alhatham_Constellation_2"
    },
    {
      "$type": "NALANCKGMIO",
      "abilityName": "Avatar_Alhatham_ElementalArt_SkillStart",
      "talentParam": "Talent_Alhatham_Constellation_2"
    },
    {
      "$type": "NALANCKGMIO",
      "abilityName": "Avatar_Alhatham_ElementalBurst",
      "talentParam": "Talent_Alhatham_Constellation_2"
    },
    {
      "$type": "NALANCKGMIO",
      "abilityName": "Avatar_Alhatham_PermanentSkill_1",
      "talentParam": "Talent_Alhatham_Constellation_2"
    },
    {
      "$type": "CBANBKANPDJ",
      "abilityName": "Avatar_Alhatham_Constellation_2",
      "paramSpecial": "Constellation_2_ElemMasteryDelta",
      "paramDelta": "%1"
    },
    {
      "$type": "CBANBKANPDJ",
      "abilityName": "Avatar_Alhatham_Constellation_2",
      "paramSpecial": "Constellation_2_BuffDuration",
      "paramDelta": "%2"
    },
    {
      "$type": "CBANBKANPDJ",
      "abilityName": "Avatar_Alhatham_Constellation_2",
      "paramSpecial": "Constellation_2_MaxStack",
      "paramDelta": "%3"
    }
  ],
  "Alhatham_Constellation_3": [
    {
      "$type": "APNPAMFJFHC",
      "talentType": "AvatarSkill",
      "talentIndex": 2,
      "extraLevel": 3
    }
  ],
  "Alhatham_Constellation_4": [
    {
      "$type": "NALANCKGMIO",
      "abilityName": "Avatar_Alhatham_ElementalBurst",
      "talentParam": "Talent_Alhatham_Constellation_4"
    },
    {
      "$type": "CBANBKANPDJ",
      "abilityName": "Avatar_Alhatham_ElementalBurst",
      "paramSpecial": "Constellation_4_CostBuff_Mastery",
      "paramDelta": "%1"
    },
    {
      "$type": "CBANBKANPDJ",
      "abilityName": "Avatar_Alhatham_ElementalBurst",
      "paramSpecial": "Constellation_4_CostBuff_Duration",
      "paramDelta": "%2"
    },
    {
      "$type": "CBANBKANPDJ",
      "abilityName": "Avatar_Alhatham_ElementalBurst",
      "paramSpecial": "Constellation_4_GainBuff_GrassAddHurtDelta",
      "paramDelta": "%3"
    },
    {
      "$type": "CBANBKANPDJ",
      "abilityName": "Avatar_Alhatham_ElementalBurst",
      "paramSpecial": "Constellation_4_GainBuff_Duration",
      "paramDelta": "%4"
    }
  ],
  "Alhatham_Constellation_5": [
    {
      "$type": "APNPAMFJFHC",
      "talentType": "AvatarSkill",
      "talentIndex": 9,
      "extraLevel": 3
    }
  ],
  "Alhatham_Constellation_6": [
    {
      "$type": "PDIMJFAAALL",
      "abilityName": "Avatar_Alhatham_Constellation_6"
    },
    {
      "$type": "NALANCKGMIO",
      "abilityName": "Avatar_Alhatham_ElementalArt_SkillStart",
      "talentParam": "Talent_Alhatham_Constellation_6"
    },
    {
      "$type": "NALANCKGMIO",
      "abilityName": "Avatar_Alhatham_ElementalBurst",
      "talentParam": "Talent_Alhatham_Constellation_6"
    },
    {
      "$type": "NALANCKGMIO",
      "abilityName": "Avatar_Alhatham_PermanentSkill_1",
      "talentParam": "Talent_Alhatham_Constellation_6"
    },
    {
      "$type": "CBANBKANPDJ",
      "abilityName": "Avatar_Alhatham_Constellation_6",
      "paramSpecial": "Constellation_6_CriticalDelta",
      "paramDelta": "%1"
    },
    {
      "$type": "CBANBKANPDJ",
      "abilityName": "Avatar_Alhatham_Constellation_6",
      "paramSpecial": "Constellation_6_CriticalHurtDelta",
      "paramDelta": "%2"
    },
    {
      "$type": "CBANBKANPDJ",
      "abilityName": "Avatar_Alhatham_Constellation_6",
      "paramSpecial": "Constellation_6_Duration",
      "paramDelta": "%3"
    }
  ],
  "Alhatham_PermanentSkill_1": [
    {
      "$type": "PDIMJFAAALL",
      "abilityName": "Avatar_Alhatham_PermanentSkill_1"
    },
    {
      "$type": "CBANBKANPDJ",
      "abilityName": "Avatar_Alhatham_PermanentSkill_1",
      "paramSpecial": "PermanentSkill_1_CD",
      "paramDelta": "%1"
    }
  ],
  "Alhatham_PermanentSkill_2": [
    {
      "$type": "PDIMJFAAALL",
      "abilityName": "Avatar_Alhatham_PermanentSkill_2"
    },
    {
      "$type": "CBANBKANPDJ",
      "abilityName": "Avatar_Alhatham_PermanentSkill_2",
      "paramSpecial": "PermanentSkill_2_MASTERY2DMGRatio",
      "paramDelta": "%1"
    },
    {
      "$type": "CBANBKANPDJ",
      "abilityName": "Avatar_Alhatham_PermanentSkill_2",
      "paramSpecial": "PermanentSkill_2_MaxDMGRatio",
      "paramDelta": "%2"
    }
  ],
  "Alhatham_SkillUpgrade_1": [
    {
      "$type": "CBANBKANPDJ",
      "abilityName": "Avatar_Alhatham_DamageHandler",
      "paramSpecial": "NormalAttack_01_DamagePercentage",
      "paramDelta": "%1"
    },
    {
      "$type": "CBANBKANPDJ",
      "abilityName": "Avatar_Alhatham_DamageHandler",
      "paramSpecial": "NormalAttack_02_DamagePercentage",
      "paramDelta": "%2"
    },
    {
      "$type": "CBANBKANPDJ",
      "abilityName": "Avatar_Alhatham_DamageHandler",
      "paramSpecial": "NormalAttack_03_01_DamagePercentage",
      "paramDelta": "%3"
    },
    {
      "$type": "CBANBKANPDJ",
      "abilityName": "Avatar_Alhatham_DamageHandler",
      "paramSpecial": "NormalAttack_03_02_DamagePercentage",
      "paramDelta": "%4"
    },
    {
      "$type": "CBANBKANPDJ",
      "abilityName": "Avatar_Alhatham_DamageHandler",
      "paramSpecial": "NormalAttack_04_DamagePercentage",
      "paramDelta": "%5"
    },
    {
      "$type": "CBANBKANPDJ",
      "abilityName": "Avatar_Alhatham_DamageHandler",
      "paramSpecial": "NormalAttack_05_DamagePercentage",
      "paramDelta": "%6"
    },
    {
      "$type": "CBANBKANPDJ",
      "abilityName": "Avatar_Alhatham_DamageHandler",
      "paramSpecial": "ExtraAttack_01_DamagePercentage",
      "paramDelta": "%7"
    },
    {
      "$type": "CBANBKANPDJ",
      "abilityName": "Avatar_Alhatham_DamageHandler",
      "paramSpecial": "ExtraAttack_02_DamagePercentage",
      "paramDelta": "%8"
    },
    {
      "$type": "CBANBKANPDJ",
      "abilityName": "Avatar_Alhatham_ExtraAttack",
      "paramSpecial": "ExtraAttack_Sword_Stamina_Cost",
      "paramDelta": "%9"
    },
    {
      "$type": "CBANBKANPDJ",
      "abilityName": "Avatar_Alhatham_FallingAnthem",
      "paramSpecial": "FallingAnthem_Normal_Loop_Damage",
      "paramDelta": "%10"
    },
    {
      "$type": "CBANBKANPDJ",
      "abilityName": "Avatar_Alhatham_FallingAnthem",
      "paramSpecial": "FallingAnthem_Normal_Rank_1_Damage",
      "paramDelta": "%11"
    },
    {
      "$type": "CBANBKANPDJ",
      "abilityName": "Avatar_Alhatham_FallingAnthem",
      "paramSpecial": "FallingAnthem_Normal_Rank_2_Damage",
      "paramDelta": "%12"
    },
    {
      "$type": "CBANBKANPDJ",
      "abilityName": "Avatar_Alhatham_DamageHandler",
      "paramSpecial": "NormalAttack_01_FL_DamagePercentage",
      "paramDelta": "%1"
    },
    {
      "$type": "CBANBKANPDJ",
      "abilityName": "Avatar_Alhatham_DamageHandler",
      "paramSpecial": "NormalAttack_02_FL_DamagePercentage",
      "paramDelta": "%2"
    },
    {
      "$type": "CBANBKANPDJ",
      "abilityName": "Avatar_Alhatham_DamageHandler",
      "paramSpecial": "NormalAttack_03_01_FL_DamagePercentage",
      "paramDelta": "%3"
    },
    {
      "$type": "CBANBKANPDJ",
      "abilityName": "Avatar_Alhatham_DamageHandler",
      "paramSpecial": "NormalAttack_03_02_FL_DamagePercentage",
      "paramDelta": "%4"
    },
    {
      "$type": "CBANBKANPDJ",
      "abilityName": "Avatar_Alhatham_DamageHandler",
      "paramSpecial": "NormalAttack_04_FL_DamagePercentage",
      "paramDelta": "%5"
    },
    {
      "$type": "CBANBKANPDJ",
      "abilityName": "Avatar_Alhatham_DamageHandler",
      "paramSpecial": "NormalAttack_05_FL_DamagePercentage",
      "paramDelta": "%6"
    },
    {
      "$type": "CBANBKANPDJ",
      "abilityName": "Avatar_Alhatham_DamageHandler",
      "paramSpecial": "ExtraAttack_01_FL_DamagePercentage",
      "paramDelta": "%7"
    },
    {
      "$type": "CBANBKANPDJ",
      "abilityName": "Avatar_Alhatham_DamageHandler",
      "paramSpecial": "ExtraAttack_02_FL_DamagePercentage",
      "paramDelta": "%8"
    },
    {
      "$type": "CBANBKANPDJ",
      "abilityName": "Avatar_Alhatham_FallingAnthem",
      "paramSpecial": "FallingAnthem_FL_Loop_Damage",
      "paramDelta": "%10"
    },
    {
      "$type": "CBANBKANPDJ",
      "abilityName": "Avatar_Alhatham_FallingAnthem",
      "paramSpecial": "FallingAnthem_FL_Rank_1_Damage",
      "paramDelta": "%11"
    },
    {
      "$type": "CBANBKANPDJ",
      "abilityName": "Avatar_Alhatham_FallingAnthem",
      "paramSpecial": "FallingAnthem_FL_Rank_2_Damage",
      "paramDelta": "%12"
    }
  ],
  "Alhatham_SkillUpgrade_2": [
    {
      "$type": "CBANBKANPDJ",
      "abilityName": "Avatar_Alhatham_ElementalArt",
      "paramSpecial": "ElementalArt_Damage",
      "paramDelta": "%1"
    },
    {
      "$type": "CBANBKANPDJ",
      "abilityName": "Avatar_Alhatham_ElementalArt",
      "paramSpecial": "ElementalArt_Damage_Mastery",
      "paramDelta": "%2"
    },
    {
      "$type": "CBANBKANPDJ",
      "abilityName": "Avatar_Alhatham_ForlornLotus",
      "paramSpecial": "ForlornLotus_Attack_CD",
      "paramDelta": "%3"
    },
    {
      "$type": "CBANBKANPDJ",
      "abilityName": "SkillObj_Alhatham_ElementalArt_CoAttack01",
      "paramSpecial": "ForlornLotus_Attack_01_Damage",
      "paramDelta": "%4"
    },
    {
      "$type": "CBANBKANPDJ",
      "abilityName": "SkillObj_Alhatham_ElementalArt_CoAttack01",
      "paramSpecial": "ForlornLotus_Attack_01_Damage_Mastery",
      "paramDelta": "%5"
    },
    {
      "$type": "CBANBKANPDJ",
      "abilityName": "SkillObj_Alhatham_ElementalArt_CoAttack02",
      "paramSpecial": "ForlornLotus_Attack_02_Damage",
      "paramDelta": "%6"
    },
    {
      "$type": "CBANBKANPDJ",
      "abilityName": "SkillObj_Alhatham_ElementalArt_CoAttack02",
      "paramSpecial": "ForlornLotus_Attack_02_Damage_Mastery",
      "paramDelta": "%7"
    },
    {
      "$type": "CBANBKANPDJ",
      "abilityName": "SkillObj_Alhatham_ElementalArt_CoAttack03",
      "paramSpecial": "ForlornLotus_Attack_03_Damage",
      "paramDelta": "%8"
    },
    {
      "$type": "CBANBKANPDJ",
      "abilityName": "SkillObj_Alhatham_ElementalArt_CoAttack03",
      "paramSpecial": "ForlornLotus_Attack_03_Damage_Mastery",
      "paramDelta": "%9"
    },
    {
      "$type": "CBANBKANPDJ",
      "abilityName": "Avatar_Alhatham_ForlornLotus",
      "paramSpecial": "ForlornLotus_ReduceCycle",
      "paramDelta": "%10"
    }
  ],
  "Alhatham_SkillUpgrade_3": [
    {
      "$type": "CBANBKANPDJ",
      "abilityName": "SkillObj_Alhatham_ElementalBurst_Dummy",
      "paramSpecial": "ElementalBurst_Damage",
      "paramDelta": "%1"
    },
    {
      "$type": "CBANBKANPDJ",
      "abilityName": "SkillObj_Alhatham_ElementalBurst_Dummy",
      "paramSpecial": "ElementalBurst_Damage_Mastery",
      "paramDelta": "%2"
    },
    {
      "$type": "CBANBKANPDJ",
      "abilityName": "SkillObj_Alhatham_ElementalBurst_Dummy",
      "paramSpecial": "LV0_ATKCount",
      "paramDelta": "%3"
    },
    {
      "$type": "CBANBKANPDJ",
      "abilityName": "SkillObj_Alhatham_ElementalBurst_Dummy",
      "paramSpecial": "LV1_ATKCount",
      "paramDelta": "%4"
    },
    {
      "$type": "CBANBKANPDJ",
      "abilityName": "SkillObj_Alhatham_ElementalBurst_Dummy",
      "paramSpecial": "LV2_ATKCount",
      "paramDelta": "%5"
    },
    {
      "$type": "CBANBKANPDJ",
      "abilityName": "SkillObj_Alhatham_ElementalBurst_Dummy",
      "paramSpecial": "LV3_ATKCount",
      "paramDelta": "%6"
    }
  ]
}