{
  "Arlecchino_Constellation_1": [
    {
      "$type": "NALANCKGMIO",
      "abilityName": "Avatar_Arlecchino_HealToHpDebts",
      "talentParam": "Arlecchino_Constellation_1"
    },
    {
      "$type": "CBANBKANPDJ",
      "abilityName": "Avatar_Arlecchino_HealToHpDebts",
      "paramSpecial": "Constellation_1_Ratio",
      "paramDelta": "%1"
    }
  ],
  "Arlecchino_Constellation_2": [
    {
      "$type": "NALANCKGMIO",
      "abilityName": "Avatar_Arlecchino_HPDebtsMark",
      "talentParam": "Arlecchino_Constellation_2"
    },
    {
      "$type": "NALANCKGMIO",
      "abilityName": "Avatar_Arlecchino_ExtraAttack",
      "talentParam": "Arlecchino_Constellation_2"
    },
    {
      "$type": "CBANBKANPDJ",
      "abilityName": "Avatar_Arlecchino_ExtraAttack",
      "paramSpecial": "Constellation_2_Ratio",
      "paramDelta": "%1"
    },
    {
      "$type": "CBANBKANPDJ",
      "abilityName": "Avatar_Arlecchino_ExtraAttack",
      "paramSpecial": "Arlecchino_Constellation_2_CD",
      "paramDelta": "%2"
    },
    {
      "$type": "CBANBKANPDJ",
      "abilityName": "Avatar_Arlecchino_ExtraAttack",
      "paramSpecial": "Constellation_2_SubHurt_Ratio",
      "paramDelta": "%3"
    },
    {
      "$type": "CBANBKANPDJ",
      "abilityName": "Avatar_Arlecchino_ExtraAttack",
      "paramSpecial": "Constellation_2_SubHurt_Duration",
      "paramDelta": "%4"
    }
  ],
  "Arlecchino_Constellation_3": [
    {
      "$type": "APNPAMFJFHC",
      "talentType": "AvatarSkill",
      "talentIndex": 1,
      "extraLevel": 3
    }
  ],
  "Arlecchino_Constellation_4": [
    {
      "$type": "NALANCKGMIO",
      "abilityName": "Avatar_Arlecchino_ExtraAttack",
      "talentParam": "Arlecchino_Constellation_4"
    },
    {
      "$type": "CBANBKANPDJ",
      "abilityName": "Avatar_Arlecchino_ExtraAttack",
      "paramSpecial": "Constellation_4_ReduceBurstCD_Delta",
      "paramDelta": "%1"
    },
    {
      "$type": "CBANBKANPDJ",
      "abilityName": "Avatar_Arlecchino_ExtraAttack",
      "paramSpecial": "Constellation_4_ReviveEnergy",
      "paramDelta": "%2"
    },
    {
      "$type": "CBANBKANPDJ",
      "abilityName": "Avatar_Arlecchino_ExtraAttack",
      "paramSpecial": "Arlecchino_Constellation_4_CD",
      "paramDelta": "%3"
    }
  ],
  "Arlecchino_Constellation_5": [
    {
      "$type": "APNPAMFJFHC",
      "talentType": "AvatarSkill",
      "talentIndex": 9,
      "extraLevel": 3
    }
  ],
  "Arlecchino_Constellation_6": [
    {
      "$type": "NALANCKGMIO",
      "abilityName": "Avatar_Arlecchino_ElementalArt",
      "talentParam": "Arlecchino_Constellation_6"
    },
    {
      "$type": "CBANBKANPDJ",
      "abilityName": "Avatar_Arlecchino_ElementalArt",
      "paramSpecial": "Constellation_6_CriticalDelta",
      "paramDelta": "%1"
    },
    {
      "$type": "CBANBKANPDJ",
      "abilityName": "Avatar_Arlecchino_ElementalArt",
      "paramSpecial": "Constellation_6_CriticalHurtDelta",
      "paramDelta": "%2"
    },
    {
      "$type": "CBANBKANPDJ",
      "abilityName": "Avatar_Arlecchino_ElementalArt",
      "paramSpecial": "Constellation_6_Duration",
      "paramDelta": "%3"
    },
    {
      "$type": "CBANBKANPDJ",
      "abilityName": "Avatar_Arlecchino_ElementalArt",
      "paramSpecial": "Constellation_6_CD",
      "paramDelta": "%4"
    },
    {
      "$type": "CBANBKANPDJ",
      "abilityName": "Avatar_Arlecchino_ElementalArt",
      "paramSpecial": "Constellation_6_Buff_Ratio",
      "paramDelta": "%5"
    }
  ],
  "Arlecchino_PermanentSkill_1": [
    {
      "$type": "NALANCKGMIO",
      "abilityName": "Avatar_Arlecchino_HPDebtsMark",
      "talentParam": "Arlecchino_PermanentSkill_1"
    },
    {
      "$type": "CBANBKANPDJ",
      "abilityName": "Avatar_Arlecchino_ExtraAttack",
      "paramSpecial": "HpDebts_Level_2_Ratio",
      "paramDelta": "%3"
    },
    {
      "$type": "CBANBKANPDJ",
      "abilityName": "Avatar_Arlecchino_HPDebtsMark",
      "paramSpecial": "HpDebts_KillEnemy_Ratio",
      "paramDelta": "%3"
    }
  ],
  "Arlecchino_PermanentSkill_2": [
    {
      "$type": "PDIMJFAAALL",
      "abilityName": "Avatar_Arlecchino_PermanentSkill_2"
    },
    {
      "$type": "CBANBKANPDJ",
      "abilityName": "Avatar_Arlecchino_PermanentSkill_2",
      "paramSpecial": "Base_Attack",
      "paramDelta": "%1"
    },
    {
      "$type": "CBANBKANPDJ",
      "abilityName": "Avatar_Arlecchino_PermanentSkill_2",
      "paramSpecial": "PermanentSkill_2_SubHurt_Ratio",
      "paramDelta": "%2"
    },
    {
      "$type": "CBANBKANPDJ",
      "abilityName": "Avatar_Arlecchino_PermanentSkill_2",
      "paramSpecial": "Max_Attack",
      "paramDelta": "%4"
    }
  ],
  "Arlecchino_PermanentSkill_3": [
    {
      "$type": "CBANBKANPDJ",
      "abilityName": "Avatar_Arlecchino_HealToHpDebts",
      "paramSpecial": "Arlecchino_HealToHpDebts_FireHurt_Factor",
      "paramDelta": "%1"
    },
    {
      "$type": "CBANBKANPDJ",
      "abilityName": "Avatar_Arlecchino_PermanentSkill_3_Limbo_Trigger",
      "paramSpecial": "HealHpRatio",
      "paramDelta": "%2"
    }
  ],
  "Arlecchino_SkillUpgrade_1": [
    {
      "$type": "CBANBKANPDJ",
      "abilityName": "Avatar_Arlecchino_DamageHandler",
      "paramSpecial": "NormalAttack_01_DamagePercentage",
      "paramDelta": "%1"
    },
    {
      "$type": "CBANBKANPDJ",
      "abilityName": "Avatar_Arlecchino_DamageHandler",
      "paramSpecial": "NormalAttack_02_DamagePercentage",
      "paramDelta": "%2"
    },
    {
      "$type": "CBANBKANPDJ",
      "abilityName": "Avatar_Arlecchino_DamageHandler",
      "paramSpecial": "NormalAttack_03_DamagePercentage",
      "paramDelta": "%3"
    },
    {
      "$type": "CBANBKANPDJ",
      "abilityName": "Avatar_Arlecchino_DamageHandler",
      "paramSpecial": "NormalAttack_04_DamagePercentage",
      "paramDelta": "%4"
    },
    {
      "$type": "CBANBKANPDJ",
      "abilityName": "Avatar_Arlecchino_DamageHandler",
      "paramSpecial": "NormalAttack_05_DamagePercentage",
      "paramDelta": "%5"
    },
    {
      "$type": "CBANBKANPDJ",
      "abilityName": "Avatar_Arlecchino_DamageHandler",
      "paramSpecial": "NormalAttack_06_DamagePercentage",
      "paramDelta": "%6"
    },
    {
      "$type": "CBANBKANPDJ",
      "abilityName": "Avatar_Arlecchino_DamageHandler",
      "paramSpecial": "ExtraAttack_DamagePercentage",
      "paramDelta": "%7"
    },
    {
      "$type": "CBANBKANPDJ",
      "abilityName": "Avatar_Arlecchino_ExtraAttack",
      "paramSpecial": "ExtraAttack_Pole_Stamina_Cost",
      "paramDelta": "%8"
    },
    {
      "$type": "CBANBKANPDJ",
      "abilityName": "Avatar_Arlecchino_FallingAnthem",
      "paramSpecial": "FallingAnthem_Normal_Loop_Damage",
      "paramDelta": "%9"
    },
    {
      "$type": "CBANBKANPDJ",
      "abilityName": "Avatar_Arlecchino_FallingAnthem",
      "paramSpecial": "FallingAnthem_Normal_Rank_1_Damage",
      "paramDelta": "%10"
    },
    {
      "$type": "CBANBKANPDJ",
      "abilityName": "Avatar_Arlecchino_FallingAnthem",
      "paramSpecial": "FallingAnthem_Normal_Rank_2_Damage",
      "paramDelta": "%11"
    },
    {
      "$type": "CBANBKANPDJ",
      "abilityName": "Avatar_Arlecchino_HealToHpDebts",
      "paramSpecial": "FireAttack_Buff_Ratio",
      "paramDelta": "%12"
    },
    {
      "$type": "CBANBKANPDJ",
      "abilityName": "Avatar_Arlecchino_HealToHpDebts",
      "paramSpecial": "Cur_HPDebts_Reduce_Ratio",
      "paramDelta": "%13"
    },
    {
      "$type": "CBANBKANPDJ",
      "abilityName": "Avatar_Arlecchino_HealToHpDebts",
      "paramSpecial": "HPDebts_CriticalPointRatio",
      "paramDelta": "%14"
    },
    {
      "$type": "CBANBKANPDJ",
      "abilityName": "Avatar_Arlecchino_ExtraAttack",
      "paramSpecial": "HPDebts_CriticalPointRatio",
      "paramDelta": "%14"
    },
    {
      "$type": "CBANBKANPDJ",
      "abilityName": "Avatar_Arlecchino_ExtraAttack",
      "paramSpecial": "SpecialMove_Stamina_Cost",
      "paramDelta": "%15"
    }
  ],
  "Arlecchino_SkillUpgrade_2": [
    {
      "$type": "CBANBKANPDJ",
      "abilityName": "Avatar_Arlecchino_ElementalArt",
      "paramSpecial": "Elemental_Art_LoopAttack_Ratio",
      "paramDelta": "%1"
    },
    {
      "$type": "CBANBKANPDJ",
      "abilityName": "Avatar_Arlecchino_ElementalArt",
      "paramSpecial": "Elemental_Art_EndAttack_Ratio",
      "paramDelta": "%2"
    },
    {
      "$type": "CBANBKANPDJ",
      "abilityName": "Avatar_Arlecchino_HPDebtsMark",
      "paramSpecial": "HPDebtsMark_DamagePercentage",
      "paramDelta": "%3"
    },
    {
      "$type": "CBANBKANPDJ",
      "abilityName": "Avatar_Arlecchino_ElementalArt",
      "paramSpecial": "HealHpRatio",
      "paramDelta": "%4"
    },
    {
      "$type": "CBANBKANPDJ",
      "abilityName": "Avatar_Arlecchino_HPDebtsMark",
      "paramSpecial": "Tick_Time",
      "paramDelta": "%6"
    },
    {
      "$type": "CBANBKANPDJ",
      "abilityName": "Avatar_Arlecchino_ExtraAttack",
      "paramSpecial": "HpDebts_Level_1_Ratio",
      "paramDelta": "%7"
    }
  ],
  "Arlecchino_SkillUpgrade_3": [
    {
      "$type": "CBANBKANPDJ",
      "abilityName": "Avatar_Arlecchino_ElementalBurst_Attack",
      "paramSpecial": "Arlecchino_ElementalBurst_Ratio",
      "paramDelta": "%1"
    },
    {
      "$type": "CBANBKANPDJ",
      "abilityName": "Avatar_Arlecchino_ElementalBurst_Attack",
      "paramSpecial": "HPDebts_MaxHPRatio",
      "paramDelta": "%2"
    },
    {
      "$type": "CBANBKANPDJ",
      "abilityName": "Avatar_Arlecchino_ElementalBurst_Attack",
      "paramSpecial": "HealHp_Debt_Ratio",
      "paramDelta": "%3"
    },
    {
      "$type": "CBANBKANPDJ",
      "abilityName": "Avatar_Arlecchino_ElementalBurst_Attack",
      "paramSpecial": "HealHp_Atk_Ratio",
      "paramDelta": "%4"
    }
  ]
}