{
  "Yunjin_Constellation_1": [
    {
      "$type": "LBEBPINAPOH",
      "skillID": 10642,
      "cdRatio": -0.18000000715255737
    }
  ],
  "Yunjin_Constellation_2": [
    {
      "$type": "NALANCKGMIO",
      "abilityName": "Avatar_Yunjin_ElementalBurst_Buff",
      "talentParam": "Yunjin_Constellation_2"
    },
    {
      "$type": "CBANBKANPDJ",
      "abilityName": "Avatar_Yunjin_ElementalBurst_Buff",
      "paramSpecial": "Yunjin_Constellation_2_Buff_DamagePercentageRatio",
      "paramDelta": "%1"
    },
    {
      "$type": "CBANBKANPDJ",
      "abilityName": "Avatar_Yunjin_ElementalBurst_Buff",
      "paramSpecial": "Yunjin_Constellation_2_Buff_Duration",
      "paramDelta": "%2"
    }
  ],
  "Yunjin_Constellation_3": [
    {
      "$type": "APNPAMFJFHC",
      "talentType": "AvatarSkill",
      "talentIndex": 9,
      "extraLevel": 3
    }
  ],
  "Yunjin_Constellation_4": [
    {
      "$type": "PDIMJFAAALL",
      "abilityName": "Avatar_Yunjin_Constellation_4"
    },
    {
      "$type": "CBANBKANPDJ",
      "abilityName": "Avatar_Yunjin_Constellation_4",
      "paramSpecial": "Yunjin_CrystallizeAddDef_DefRatio",
      "paramDelta": "%1"
    },
    {
      "$type": "CBANBKANPDJ",
      "abilityName": "Avatar_Yunjin_Constellation_4",
      "paramSpecial": "Yunjin_CrystallizeAddDef_Duration",
      "paramDelta": "%2"
    }
  ],
  "Yunjin_Constellation_5": [
    {
      "$type": "APNPAMFJFHC",
      "talentType": "AvatarSkill",
      "talentIndex": 2,
      "extraLevel": 3
    }
  ],
  "Yunjin_Constellation_6": [
    {
      "$type": "NALANCKGMIO",
      "abilityName": "Avatar_Yunjin_ElementalBurst_Buff",
      "talentParam": "Yunjin_Constellation_6"
    },
    {
      "$type": "CBANBKANPDJ",
      "abilityName": "Avatar_Yunjin_ElementalBurst_Buff",
      "paramSpecial": "Yunjin_ElementalBurst_Buff_AttackSpeedRatio",
      "paramDelta": "%1"
    }
  ],
  "Yunjin_PermanentSkill_1": [
    {
      "$type": "NALANCKGMIO",
      "abilityName": "Avatar_Yunjin_ElementalArt_Handler",
      "talentParam": "Yunjin_PermanentSkill_1_JustGuard"
    }
  ],
  "Yunjin_PermanentSkill_2": [
    {
      "$type": "NALANCKGMIO",
      "abilityName": "Avatar_Yunjin_ElementalBurst_Buff",
      "talentParam": "Yunjin_PermanentSkill_2_ElementNum"
    },
    {
      "$type": "CBANBKANPDJ",
      "abilityName": "Avatar_Yunjin_ElementalBurst_Buff",
      "paramSpecial": "Yunjin_PermanentSkill_2_ElementNum_Elem_1",
      "paramDelta": "%1"
    },
    {
      "$type": "CBANBKANPDJ",
      "abilityName": "Avatar_Yunjin_ElementalBurst_Buff",
      "paramSpecial": "Yunjin_PermanentSkill_2_ElementNum_Elem_2",
      "paramDelta": "%2"
    },
    {
      "$type": "CBANBKANPDJ",
      "abilityName": "Avatar_Yunjin_ElementalBurst_Buff",
      "paramSpecial": "Yunjin_PermanentSkill_2_ElementNum_Elem_3",
      "paramDelta": "%3"
    },
    {
      "$type": "CBANBKANPDJ",
      "abilityName": "Avatar_Yunjin_ElementalBurst_Buff",
      "paramSpecial": "Yunjin_PermanentSkill_2_ElementNum_Elem_4",
      "paramDelta": "%4"
    }
  ],
  "Yunjin_SkillUpgrade_1": [
    {
      "$type": "CBANBKANPDJ",
      "abilityName": "Avatar_Yunjin_NormalAttack_DamageHandler",
      "paramSpecial": "Yunjin_NormalAttack_01_Damage_AtkRatio",
      "paramDelta": "%1"
    },
    {
      "$type": "CBANBKANPDJ",
      "abilityName": "Avatar_Yunjin_NormalAttack_DamageHandler",
      "paramSpecial": "Yunjin_NormalAttack_02_Damage_AtkRatio",
      "paramDelta": "%2"
    },
    {
      "$type": "CBANBKANPDJ",
      "abilityName": "Avatar_Yunjin_NormalAttack_DamageHandler",
      "paramSpecial": "Yunjin_NormalAttack_03A_Damage_AtkRatio",
      "paramDelta": "%3"
    },
    {
      "$type": "CBANBKANPDJ",
      "abilityName": "Avatar_Yunjin_NormalAttack_DamageHandler",
      "paramSpecial": "Yunjin_NormalAttack_03B_Damage_AtkRatio",
      "paramDelta": "%4"
    },
    {
      "$type": "CBANBKANPDJ",
      "abilityName": "Avatar_Yunjin_NormalAttack_DamageHandler",
      "paramSpecial": "Yunjin_NormalAttack_04A_Damage_AtkRatio",
      "paramDelta": "%5"
    },
    {
      "$type": "CBANBKANPDJ",
      "abilityName": "Avatar_Yunjin_NormalAttack_DamageHandler",
      "paramSpecial": "Yunjin_NormalAttack_04B_Damage_AtkRatio",
      "paramDelta": "%6"
    },
    {
      "$type": "CBANBKANPDJ",
      "abilityName": "Avatar_Yunjin_NormalAttack_DamageHandler",
      "paramSpecial": "Yunjin_NormalAttack_05_Damage_AtkRatio",
      "paramDelta": "%7"
    },
    {
      "$type": "CBANBKANPDJ",
      "abilityName": "Avatar_Yunjin_ExtraAttack_Bullet",
      "paramSpecial": "Yunjin_ExtraAttack_Damage_AtkRatio",
      "paramDelta": "%8"
    },
    {
      "$type": "CBANBKANPDJ",
      "abilityName": "Avatar_Yunjin_ExtraAttack",
      "paramSpecial": "ExtraAttack_Pole_Stamina_Cost",
      "paramDelta": "%9"
    },
    {
      "$type": "CBANBKANPDJ",
      "abilityName": "Avatar_Yunjin_FallingAnthem",
      "paramSpecial": "FallingAnthem_Normal_Loop_Damage",
      "paramDelta": "%10"
    },
    {
      "$type": "CBANBKANPDJ",
      "abilityName": "Avatar_Yunjin_FallingAnthem",
      "paramSpecial": "FallingAnthem_Normal_Rank_1_Damage",
      "paramDelta": "%11"
    },
    {
      "$type": "CBANBKANPDJ",
      "abilityName": "Avatar_Yunjin_FallingAnthem",
      "paramSpecial": "FallingAnthem_Normal_Rank_2_Damage",
      "paramDelta": "%12"
    }
  ],
  "Yunjin_SkillUpgrade_2": [
    {
      "$type": "CBANBKANPDJ",
      "abilityName": "Avatar_Yunjin_ElementalArt_Handler",
      "paramSpecial": "Yunjin_ElementalArt_Shield_HPRatio",
      "paramDelta": "%1"
    },
    {
      "$type": "CBANBKANPDJ",
      "abilityName": "Avatar_Yunjin_ElementalArt_Handler",
      "paramSpecial": "Yunjin_ElementalArt_Shield_Base",
      "paramDelta": "%2"
    },
    {
      "$type": "CBANBKANPDJ",
      "abilityName": "Avatar_Yunjin_ElementalArt_Strike",
      "paramSpecial": "Yunjin_ElementalArt_LV1_Damage_DefRatio",
      "paramDelta": "%3"
    },
    {
      "$type": "CBANBKANPDJ",
      "abilityName": "Avatar_Yunjin_ElementalArt_Strike",
      "paramSpecial": "Yunjin_ElementalArt_LV2_Damage_DefRatio",
      "paramDelta": "%4"
    },
    {
      "$type": "CBANBKANPDJ",
      "abilityName": "Avatar_Yunjin_ElementalArt_Strike",
      "paramSpecial": "Yunjin_ElementalArt_LV3_Damage_DefRatio",
      "paramDelta": "%5"
    }
  ],
  "Yunjin_SkillUpgrade_3": [
    {
      "$type": "CBANBKANPDJ",
      "abilityName": "Avatar_Yunjin_ElementalBurst_Cast",
      "paramSpecial": "Yunjin_ElementalBurst_Damage_AtkRatio",
      "paramDelta": "%1"
    },
    {
      "$type": "CBANBKANPDJ",
      "abilityName": "Avatar_Yunjin_ElementalBurst_Buff",
      "paramSpecial": "Yunjin_ElementalBurst_Buff_ExtraDamage_DefRatio",
      "paramDelta": "%2"
    },
    {
      "$type": "CBANBKANPDJ",
      "abilityName": "Avatar_Yunjin_ElementalBurst_Buff",
      "paramSpecial": "Yunjin_ElementalBurst_Buff_Duration",
      "paramDelta": "%3"
    }
  ]
}