{
  "Albedo_Constellation_1": [
    {
      "$type": "NALANCKGMIO",
      "abilityName": "SkillObj_Albedo_FuriousMonolith_Field",
      "talentParam": "BloomEnergy"
    },
    {
      "$type": "CBANBKANPDJ",
      "abilityName": "SkillObj_Albedo_FuriousMonolith_Field",
      "paramSpecial": "BloomEnergy",
      "paramDelta": "%1"
    }
  ],
  "Albedo_Constellation_2": [
    {
      "$type": "NALANCKGMIO",
      "abilityName": "SkillObj_Albedo_FuriousMonolith_Field",
      "talentParam": "BloomBurst"
    },
    {
      "$type": "CBANBKANPDJ",
      "abilityName": "SkillObj_Albedo_FuriousMonolith_FullBloom",
      "paramSpecial": "DEF2ATK_Ratio",
      "paramDelta": "%1"
    },
    {
      "$type": "CBANBKANPDJ",
      "abilityName": "Avatar_Albedo_AlchemicalBreakOut",
      "paramSpecial": "DEF2ATK_Ratio",
      "paramDelta": "%1"
    }
  ],
  "Albedo_Constellation_3": [
    {
      "$type": "APNPAMFJFHC",
      "talentType": "AvatarSkill",
      "talentIndex": 2,
      "extraLevel": 3
    }
  ],
  "Albedo_Constellation_4": [
    {
      "$type": "NALANCKGMIO",
      "abilityName": "SkillObj_Albedo_FuriousMonolith_Field",
      "talentParam": "FallingAttackUp"
    }
  ],
  "Albedo_Constellation_5": [
    {
      "$type": "APNPAMFJFHC",
      "talentType": "AvatarSkill",
      "talentIndex": 9,
      "extraLevel": 3
    }
  ],
  "Albedo_Constellation_6": [
    {
      "$type": "NALANCKGMIO",
      "abilityName": "SkillObj_Albedo_FuriousMonolith_Field",
      "talentParam": "ShieldFever"
    }
  ],
  "Albedo_PermanentSkill_1": [
    {
      "$type": "NALANCKGMIO",
      "abilityName": "SkillObj_Albedo_FuriousMonolith_Field",
      "talentParam": "BloomExtraDPR"
    }
  ],
  "Albedo_PermanentSkill_2": [
    {
      "$type": "NALANCKGMIO",
      "abilityName": "Avatar_Albedo_AlchemicalBreakOut",
      "talentParam": "ElemMasteryUp"
    },
    {
      "$type": "CBANBKANPDJ",
      "abilityName": "Avatar_Albedo_AlchemicalBreakOut",
      "paramSpecial": "ElemMasteryDelta",
      "paramDelta": "%1"
    },
    {
      "$type": "CBANBKANPDJ",
      "abilityName": "Avatar_Albedo_AlchemicalBreakOut",
      "paramSpecial": "ElemMasteryUpTime",
      "paramDelta": "%2"
    }
  ],
  "Albedo_SkillUpgrade_1": [
    {
      "$type": "CBANBKANPDJ",
      "abilityName": "Avatar_Albedo_DamageHandler",
      "paramSpecial": "damage1",
      "paramDelta": "%1"
    },
    {
      "$type": "CBANBKANPDJ",
      "abilityName": "Avatar_Albedo_DamageHandler",
      "paramSpecial": "damage2",
      "paramDelta": "%2"
    },
    {
      "$type": "CBANBKANPDJ",
      "abilityName": "Avatar_Albedo_DamageHandler",
      "paramSpecial": "damage3",
      "paramDelta": "%3"
    },
    {
      "$type": "CBANBKANPDJ",
      "abilityName": "Avatar_Albedo_DamageHandler",
      "paramSpecial": "damage4",
      "paramDelta": "%4"
    },
    {
      "$type": "CBANBKANPDJ",
      "abilityName": "Avatar_Albedo_DamageHandler",
      "paramSpecial": "damage5",
      "paramDelta": "%5"
    },
    {
      "$type": "CBANBKANPDJ",
      "abilityName": "Avatar_Albedo_DamageHandler",
      "paramSpecial": "damage6",
      "paramDelta": "%6"
    },
    {
      "$type": "CBANBKANPDJ",
      "abilityName": "Avatar_Albedo_DamageHandler",
      "paramSpecial": "damage7",
      "paramDelta": "%7"
    },
    {
      "$type": "CBANBKANPDJ",
      "abilityName": "Avatar_Albedo_ExtraAttack",
      "paramSpecial": "ExtraAttack_Sword_Stamina_Cost",
      "paramDelta": "%8"
    },
    {
      "$type": "CBANBKANPDJ",
      "abilityName": "Avatar_Albedo_FallingAnthem",
      "paramSpecial": "FallingAnthem_Normal_Loop_Damage",
      "paramDelta": "%9"
    },
    {
      "$type": "CBANBKANPDJ",
      "abilityName": "Avatar_Albedo_FallingAnthem",
      "paramSpecial": "FallingAnthem_Normal_Rank_1_Damage",
      "paramDelta": "%10"
    },
    {
      "$type": "CBANBKANPDJ",
      "abilityName": "Avatar_Albedo_FallingAnthem",
      "paramSpecial": "FallingAnthem_Normal_Rank_2_Damage",
      "paramDelta": "%11"
    }
  ],
  "Albedo_SkillUpgrade_2": [
    {
      "$type": "CBANBKANPDJ",
      "abilityName": "SkillObj_Albedo_FuriousMonolith",
      "paramSpecial": "OpeningDamage",
      "paramDelta": "%1"
    },
    {
      "$type": "CBANBKANPDJ",
      "abilityName": "SkillObj_Albedo_FuriousMonolith_Field",
      "paramSpecial": "Damage_Art",
      "paramDelta": "%2"
    }
  ],
  "Albedo_SkillUpgrade_3": [
    {
      "$type": "CBANBKANPDJ",
      "abilityName": "Avatar_Albedo_AlchemicalBreakOut",
      "paramSpecial": "OpeningDamage",
      "paramDelta": "%1"
    },
    {
      "$type": "CBANBKANPDJ",
      "abilityName": "SkillObj_Albedo_FuriousMonolith_FullBloom",
      "paramSpecial": "Damage_Burst",
      "paramDelta": "%2"
    }
  ]
}