{
  "Liney_Constellation_1": [
    {
      "$type": "PDIMJFAAALL",
      "abilityName": "Avatar_Liney_Constellation_1"
    },
    {
      "$type": "NALANCKGMIO",
      "abilityName": "Bullet_Liney_ShootArrow_WithFire_BeforeFission",
      "talentParam": "Liney_Constellation_1"
    },
    {
      "$type": "NALANCKGMIO",
      "abilityName": "Avatar_Liney_ElementalBurst",
      "talentParam": "Liney_Constellation_1"
    },
    {
      "$type": "CBANBKANPDJ",
      "abilityName": "Avatar_Liney_Constellation_1",
      "paramSpecial": "Liney_Constellation_1_CD",
      "paramDelta": "%1"
    }
  ],
  "Liney_Constellation_2": [
    {
      "$type": "PDIMJFAAALL",
      "abilityName": "Avatar_Liney_Constellation_2"
    },
    {
      "$type": "CBANBKANPDJ",
      "abilityName": "Avatar_Liney_Constellation_2",
      "paramSpecial": "Liney_CriticalHurt_CriticalHurt",
      "paramDelta": "%1"
    },
    {
      "$type": "CBANBKANPDJ",
      "abilityName": "Avatar_Liney_Constellation_2",
      "paramSpecial": "Liney_CriticalHurt_Buff_Interval",
      "paramDelta": "%2"
    },
    {
      "$type": "CBANBKANPDJ",
      "abilityName": "Avatar_Liney_Constellation_2",
      "paramSpecial": "Liney_CriticalHurt_MaxCount",
      "paramDelta": "%3"
    }
  ],
  "Liney_Constellation_3": [
    {
      "$type": "APNPAMFJFHC",
      "talentType": "AvatarSkill",
      "talentIndex": 1,
      "extraLevel": 3
    }
  ],
  "Liney_Constellation_4": [
    {
      "$type": "PDIMJFAAALL",
      "abilityName": "Avatar_Liney_Constellation_4"
    },
    {
      "$type": "CBANBKANPDJ",
      "abilityName": "Avatar_Liney_Constellation_4",
      "paramSpecial": "Liney_FireSubHurt",
      "paramDelta": "%1"
    },
    {
      "$type": "CBANBKANPDJ",
      "abilityName": "Avatar_Liney_Constellation_4",
      "paramSpecial": "Liney_FireSubHurt_Time",
      "paramDelta": "%2"
    }
  ],
  "Liney_Constellation_5": [
    {
      "$type": "APNPAMFJFHC",
      "talentType": "AvatarSkill",
      "talentIndex": 9,
      "extraLevel": 3
    }
  ],
  "Liney_Constellation_6": [
    {
      "$type": "NALANCKGMIO",
      "abilityName": "Avatar_Liney_ShootArrow_Aiming",
      "talentParam": "Liney_Constellation_6"
    },
    {
      "$type": "CBANBKANPDJ",
      "abilityName": "Bullet_Liney_FissionAgent_EndBoom_Constellation_6",
      "paramSpecial": "EndBoom_Constellation_6_DMGRatio",
      "paramDelta": "%1"
    }
  ],
  "Liney_PermanentSkill_1": [
    {
      "$type": "NALANCKGMIO",
      "abilityName": "Bullet_Liney_ShootArrow_WithFire_BeforeFission",
      "talentParam": "Liney_PermanentSkill_1"
    },
    {
      "$type": "CBANBKANPDJ",
      "abilityName": "Bullet_Liney_FissionAgent_EndBoom",
      "paramSpecial": "ReviveEnergy",
      "paramDelta": "%1"
    },
    {
      "$type": "CBANBKANPDJ",
      "abilityName": "SkillObj_Liney_FissionAgent_EndBoom_Enhanced",
      "paramSpecial": "ReviveEnergy",
      "paramDelta": "%1"
    },
    {
      "$type": "CBANBKANPDJ",
      "abilityName": "Bullet_Liney_FissionAgent_EndBoom",
      "paramSpecial": "AfterFission_PermanentSkill_1_HurtUpRatio",
      "paramDelta": "%2"
    },
    {
      "$type": "CBANBKANPDJ",
      "abilityName": "SkillObj_Liney_FissionAgent_EndBoom_Enhanced",
      "paramSpecial": "AfterFission_PermanentSkill_1_HurtUpRatio",
      "paramDelta": "%2"
    }
  ],
  "Liney_PermanentSkill_2": [
    {
      "$type": "PDIMJFAAALL",
      "abilityName": "Avatar_Liney_PermanentSkill_2"
    },
    {
      "$type": "CBANBKANPDJ",
      "abilityName": "Avatar_Liney_PermanentSkill_2",
      "paramSpecial": "Liney_PermanentSkill_2_BaseDPR",
      "paramDelta": "%1"
    },
    {
      "$type": "CBANBKANPDJ",
      "abilityName": "Avatar_Liney_PermanentSkill_2",
      "paramSpecial": "Liney_PermanentSkill_2_ExtraDPR",
      "paramDelta": "%2"
    }
  ],
  "Liney_PermanentSkill_3": [
    {
      "$type": "PDIMJFAAALL",
      "abilityName": "Avatar_Liney_PermanentSkill_3"
    }
  ],
  "Liney_SkillUpgrade_1": [
    {
      "$type": "CBANBKANPDJ",
      "abilityName": "Bullet_Liney_ShootArrow",
      "paramSpecial": "NormalAttack_01_DamagePercentage",
      "paramDelta": "%1"
    },
    {
      "$type": "CBANBKANPDJ",
      "abilityName": "Bullet_Liney_ShootArrow",
      "paramSpecial": "NormalAttack_02_DamagePercentage",
      "paramDelta": "%2"
    },
    {
      "$type": "CBANBKANPDJ",
      "abilityName": "Bullet_Liney_ShootArrow",
      "paramSpecial": "NormalAttack_03_01_DamagePercentage",
      "paramDelta": "%3"
    },
    {
      "$type": "CBANBKANPDJ",
      "abilityName": "Bullet_Liney_ShootArrow",
      "paramSpecial": "NormalAttack_03_02_DamagePercentage",
      "paramDelta": "%4"
    },
    {
      "$type": "CBANBKANPDJ",
      "abilityName": "Bullet_Liney_ShootArrow",
      "paramSpecial": "NormalAttack_04_DamagePercentage",
      "paramDelta": "%5"
    },
    {
      "$type": "CBANBKANPDJ",
      "abilityName": "Avatar_Liney_FallingAnthem",
      "paramSpecial": "FallingAnthem_Normal_Loop_Damage",
      "paramDelta": "%6"
    },
    {
      "$type": "CBANBKANPDJ",
      "abilityName": "Avatar_Liney_FallingAnthem",
      "paramSpecial": "FallingAnthem_Normal_Rank_1_Damage",
      "paramDelta": "%7"
    },
    {
      "$type": "CBANBKANPDJ",
      "abilityName": "Avatar_Liney_FallingAnthem",
      "paramSpecial": "FallingAnthem_Normal_Rank_2_Damage",
      "paramDelta": "%8"
    },
    {
      "$type": "CBANBKANPDJ",
      "abilityName": "Avatar_Liney_ShootArrow_Enchanted_WithoutFire",
      "paramSpecial": "DamageWithoutFire",
      "paramDelta": "%9"
    },
    {
      "$type": "CBANBKANPDJ",
      "abilityName": "Bullet_Liney_ShootArrow_WithFire",
      "paramSpecial": "DamageWithFire",
      "paramDelta": "%10"
    },
    {
      "$type": "CBANBKANPDJ",
      "abilityName": "Bullet_Liney_ShootArrow_WithFire_BeforeFission",
      "paramSpecial": "DamageWithFire_BeforeFission",
      "paramDelta": "%11"
    },
    {
      "$type": "CBANBKANPDJ",
      "abilityName": "Bullet_Liney_ShootArrow_WithFire_BeforeFission",
      "paramSpecial": "LoseHP_AmountRatio",
      "paramDelta": "%12"
    },
    {
      "$type": "CBANBKANPDJ",
      "abilityName": "SkillObj_Liney_FissionAgent",
      "paramSpecial": "MaxHPRatio",
      "paramDelta": "%13"
    },
    {
      "$type": "CBANBKANPDJ",
      "abilityName": "SkillObj_Liney_FissionAgent",
      "paramSpecial": "FissionAgent_LifeTime",
      "paramDelta": "%14"
    },
    {
      "$type": "CBANBKANPDJ",
      "abilityName": "Bullet_Liney_FissionAgent_EndBoom",
      "paramSpecial": "DamageWithFire_AfterFission",
      "paramDelta": "%15"
    },
    {
      "$type": "CBANBKANPDJ",
      "abilityName": "Bullet_Liney_FissionAgent_EndBoom_Constellation_6",
      "paramSpecial": "DamageWithFire_AfterFission",
      "paramDelta": "%15"
    },
    {
      "$type": "CBANBKANPDJ",
      "abilityName": "SkillObj_Liney_FissionAgent_EndBoom_Enhanced",
      "paramSpecial": "DamageWithFire_AfterFission_Enhanced",
      "paramDelta": "%15"
    },
    {
      "$type": "CBANBKANPDJ",
      "abilityName": "SkillObj_Liney_ShootArrow_OusiaAgent",
      "paramSpecial": "DamageWithFire_Ousia",
      "paramDelta": "%16"
    },
    {
      "$type": "CBANBKANPDJ",
      "abilityName": "Avatar_Liney_ShootArrow_Aiming",
      "paramSpecial": "Liney_Arrow_Ousia_CD",
      "paramDelta": "%17"
    }
  ],
  "Liney_SkillUpgrade_2": [
    {
      "$type": "CBANBKANPDJ",
      "abilityName": "Avatar_Liney_ElementalArt",
      "paramSpecial": "ElementalArt",
      "paramDelta": "%1"
    },
    {
      "$type": "CBANBKANPDJ",
      "abilityName": "Avatar_Liney_ElementalArt",
      "paramSpecial": "LoseHp_ElementalArtDamage_CountRatio",
      "paramDelta": "%2"
    },
    {
      "$type": "CBANBKANPDJ",
      "abilityName": "Avatar_Liney_ElementalArt",
      "paramSpecial": "HealHP_AmountRatio",
      "paramDelta": "%3"
    },
    {
      "$type": "CBANBKANPDJ",
      "abilityName": "Bullet_Liney_ShootArrow_WithFire_BeforeFission",
      "paramSpecial": "SafeHpRatio",
      "paramDelta": "%6"
    },
    {
      "$type": "CBANBKANPDJ",
      "abilityName": "Bullet_Liney_ShootArrow_WithFire_BeforeFission",
      "paramSpecial": "LoseHp_MaxCount",
      "paramDelta": "%7"
    },
    {
      "$type": "CBANBKANPDJ",
      "abilityName": "Avatar_Liney_ElementalBurst",
      "paramSpecial": "LoseHp_MaxCount",
      "paramDelta": "%7"
    },
    {
      "$type": "CBANBKANPDJ",
      "abilityName": "SkillObj_Liney_FissionAgent",
      "paramSpecial": "Taunt_CD",
      "paramDelta": "%8"
    }
  ],
  "Liney_SkillUpgrade_3": [
    {
      "$type": "CBANBKANPDJ",
      "abilityName": "Avatar_Liney_ElementalBurst",
      "paramSpecial": "MagicMove_Attack",
      "paramDelta": "%1"
    },
    {
      "$type": "CBANBKANPDJ",
      "abilityName": "Avatar_Liney_ElementalBurst",
      "paramSpecial": "MagicMove_EndAttack",
      "paramDelta": "%2"
    },
    {
      "$type": "CBANBKANPDJ",
      "abilityName": "Avatar_Liney_ElementalBurst",
      "paramSpecial": "MagicMove_Time",
      "paramDelta": "%3"
    }
  ]
}