{
  "Qiqi_Constellation_1": [
    {
      "$type": "NALANCKGMIO",
      "abilityName": "Avatar_Qiqi_ElementalArt_Bullet",
      "talentParam": "Qiqi_Constellation_1"
    }
  ],
  "Qiqi_Constellation_2": [
    {
      "$type": "PDIMJFAAALL",
      "abilityName": "Avatar_Qiqi_Frozen_AttackUp"
    }
  ],
  "Qiqi_Constellation_3": [
    {
      "$type": "APNPAMFJFHC",
      "talentType": "AvatarSkill",
      "talentIndex": 9,
      "extraLevel": 3
    }
  ],
  "Qiqi_Constellation_4": [
    {
      "$type": "NALANCKGMIO",
      "abilityName": "Avatar_Qiqi_ElementalBurst_ApplyModifier",
      "talentParam": "Qiqi_Constellation_4"
    }
  ],
  "Qiqi_Constellation_5": [
    {
      "$type": "APNPAMFJFHC",
      "talentType": "AvatarSkill",
      "talentIndex": 2,
      "extraLevel": 3
    }
  ],
  "Qiqi_Constellation_6": [
    {
      "$type": "NALANCKGMIO",
      "abilityName": "Avatar_Qiqi_ElementalBurst",
      "talentParam": "Qiqi_Constellation_6"
    }
  ],
  "Qiqi_PermanentSkill_1": [
    {
      "$type": "NALANCKGMIO",
      "abilityName": "Avatar_Qiqi_ElementalArt_Bullet",
      "talentParam": "Qiqi_PermanentSkill_1"
    }
  ],
  "Qiqi_PermanentSkill_2": [
    {
      "$type": "NALANCKGMIO",
      "abilityName": "Avatar_Qiqi_ElementalBurst_ApplyModifier",
      "talentParam": "Qiqi_PermanentSkill_2"
    }
  ],
  "Qiqi_SkillUpgrade_1": [
    {
      "$type": "CBANBKANPDJ",
      "abilityName": "Avatar_Qiqi_NormalAttackDamage",
      "paramSpecial": "Attack01",
      "paramDelta": "%1",
      "paramRatio": 0.0
    },
    {
      "$type": "CBANBKANPDJ",
      "abilityName": "Avatar_Qiqi_NormalAttackDamage",
      "paramSpecial": "Attack02",
      "paramDelta": "%2",
      "paramRatio": 0.0
    },
    {
      "$type": "CBANBKANPDJ",
      "abilityName": "Avatar_Qiqi_NormalAttackDamage",
      "paramSpecial": "Attack03_1",
      "paramDelta": "%3",
      "paramRatio": 0.0
    },
    {
      "$type": "CBANBKANPDJ",
      "abilityName": "Avatar_Qiqi_NormalAttackDamage",
      "paramSpecial": "Attack03_2",
      "paramDelta": "%3",
      "paramRatio": 0.0
    },
    {
      "$type": "CBANBKANPDJ",
      "abilityName": "Avatar_Qiqi_NormalAttackDamage",
      "paramSpecial": "Attack04_1",
      "paramDelta": "%4",
      "paramRatio": 0.0
    },
    {
      "$type": "CBANBKANPDJ",
      "abilityName": "Avatar_Qiqi_NormalAttackDamage",
      "paramSpecial": "Attack04_2",
      "paramDelta": "%4",
      "paramRatio": 0.0
    },
    {
      "$type": "CBANBKANPDJ",
      "abilityName": "Avatar_Qiqi_NormalAttackDamage",
      "paramSpecial": "Attack05",
      "paramDelta": "%5",
      "paramRatio": 0.0
    },
    {
      "$type": "CBANBKANPDJ",
      "abilityName": "Avatar_Qiqi_NormalAttackDamage",
      "paramSpecial": "ExtraAttack_1",
      "paramDelta": "%6",
      "paramRatio": 0.0
    },
    {
      "$type": "CBANBKANPDJ",
      "abilityName": "Avatar_Qiqi_NormalAttackDamage",
      "paramSpecial": "ExtraAttack_2",
      "paramDelta": "%6",
      "paramRatio": 0.0
    },
    {
      "$type": "CBANBKANPDJ",
      "abilityName": "Avatar_Qiqi_ExtraAttack",
      "paramSpecial": "ExtraAttack_Sword_Stamina_Cost",
      "paramDelta": "%7",
      "paramRatio": 0.0
    },
    {
      "$type": "CBANBKANPDJ",
      "abilityName": "Avatar_Qiqi_FallingAnthem",
      "paramSpecial": "FallingAnthem_Normal_Loop_Damage",
      "paramDelta": "%8"
    },
    {
      "$type": "CBANBKANPDJ",
      "abilityName": "Avatar_Qiqi_FallingAnthem",
      "paramSpecial": "FallingAnthem_Normal_Rank_1_Damage",
      "paramDelta": "%9"
    },
    {
      "$type": "CBANBKANPDJ",
      "abilityName": "Avatar_Qiqi_FallingAnthem",
      "paramSpecial": "FallingAnthem_Normal_Rank_2_Damage",
      "paramDelta": "%10"
    }
  ],
  "Qiqi_SkillUpgrade_2": [
    {
      "$type": "CBANBKANPDJ",
      "abilityName": "Avatar_Qiqi_ElementalArt_Bullet",
      "paramSpecial": "HealHP_OnHittingOthers",
      "paramDelta": "%1",
      "paramRatio": 0.0
    },
    {
      "$type": "CBANBKANPDJ",
      "abilityName": "Avatar_Qiqi_ElementalArt_Bullet",
      "paramSpecial": "HealHP_Const_OnHittingOthers",
      "paramDelta": "%2",
      "paramRatio": 0.0
    },
    {
      "$type": "CBANBKANPDJ",
      "abilityName": "Avatar_Qiqi_ElementalArt_Bullet",
      "paramSpecial": "ElementalArt_HealHp_Ratio",
      "paramDelta": "%3",
      "paramRatio": 0.0
    },
    {
      "$type": "CBANBKANPDJ",
      "abilityName": "Avatar_Qiqi_ElementalArt_Bullet",
      "paramSpecial": "ElementalArt_HealHp_Const",
      "paramDelta": "%4",
      "paramRatio": 0.0
    },
    {
      "$type": "CBANBKANPDJ",
      "abilityName": "Avatar_Qiqi_ElementalArt_Damage",
      "paramSpecial": "Elemental_Art",
      "paramDelta": "%5",
      "paramRatio": 0.0
    },
    {
      "$type": "CBANBKANPDJ",
      "abilityName": "Avatar_Qiqi_ElementalArt_Bullet",
      "paramSpecial": "Elemental_Art_Damage",
      "paramDelta": "%8",
      "paramRatio": 0.0
    }
  ],
  "Qiqi_SkillUpgrade_3": [
    {
      "$type": "CBANBKANPDJ",
      "abilityName": "Avatar_Qiqi_ElementalBurst_ApplyModifier",
      "paramSpecial": "ElementalBurst_HealHp_Ratio",
      "paramDelta": "%1",
      "paramRatio": 0.0
    },
    {
      "$type": "CBANBKANPDJ",
      "abilityName": "Avatar_Qiqi_ElementalBurst_ApplyModifier",
      "paramSpecial": "ElementalBurst_HealHp_Const",
      "paramDelta": "%2",
      "paramRatio": 0.0
    },
    {
      "$type": "CBANBKANPDJ",
      "abilityName": "Avatar_Qiqi_ElementalBurst_TriggerAttack",
      "paramSpecial": "ElementalBurst_Damage",
      "paramDelta": "%3",
      "paramRatio": 0.0
    }
  ],
  "Qiqi_ProudSkill_NonCombat_1": [
    {
      "$type": "PDIMJFAAALL",
      "abilityName": "Avatar_Qiqi_Radar_Collectables_Liyue"
    }
  ]
}