{
  "PlayerBoy_Common_SkillUpgrade_1": [
    {
      "$type": "CBANBKANPDJ",
      "abilityName": "Avatar_PlayerBoy_NormalAttack_DamageHandler",
      "paramSpecial": "NormalAttack_01_DamagePercentage",
      "paramDelta": "%1"
    },
    {
      "$type": "CBANBKANPDJ",
      "abilityName": "Avatar_PlayerBoy_NormalAttack_DamageHandler",
      "paramSpecial": "NormalAttack_02_DamagePercentage",
      "paramDelta": "%2"
    },
    {
      "$type": "CBANBKANPDJ",
      "abilityName": "Avatar_PlayerBoy_NormalAttack_DamageHandler",
      "paramSpecial": "NormalAttack_03_DamagePercentage",
      "paramDelta": "%3"
    },
    {
      "$type": "CBANBKANPDJ",
      "abilityName": "Avatar_PlayerBoy_NormalAttack_DamageHandler",
      "paramSpecial": "NormalAttack_04_DamagePercentage",
      "paramDelta": "%4"
    },
    {
      "$type": "CBANBKANPDJ",
      "abilityName": "Avatar_PlayerBoy_NormalAttack_DamageHandler",
      "paramSpecial": "NormalAttack_05_DamagePercentage",
      "paramDelta": "%5"
    },
    {
      "$type": "CBANBKANPDJ",
      "abilityName": "Avatar_PlayerBoy_NormalAttack_DamageHandler",
      "paramSpecial": "ExtraAttack_01_DamagePercentage",
      "paramDelta": "%6"
    },
    {
      "$type": "CBANBKANPDJ",
      "abilityName": "Avatar_PlayerBoy_NormalAttack_DamageHandler",
      "paramSpecial": "ExtraAttack_02_DamagePercentage",
      "paramDelta": "%7"
    },
    {
      "$type": "CBANBKANPDJ",
      "abilityName": "Avatar_PlayerBoy_ExtraAttack_Common",
      "paramSpecial": "ExtraAttack_Sword_Stamina_Cost",
      "paramDelta": "%8"
    },
    {
      "$type": "CBANBKANPDJ",
      "abilityName": "Avatar_PlayerBoy_ExtraAttack_Wind",
      "paramSpecial": "ExtraAttack_Sword_Stamina_Cost",
      "paramDelta": "%8"
    },
    {
      "$type": "CBANBKANPDJ",
      "abilityName": "Avatar_PlayerBoy_ExtraAttack_Rock",
      "paramSpecial": "ExtraAttack_Sword_Stamina_Cost",
      "paramDelta": "%8"
    },
    {
      "$type": "CBANBKANPDJ",
      "abilityName": "Avatar_PlayerBoy_FallingAnthem",
      "paramSpecial": "FallingAnthem_Normal_Loop_Damage",
      "paramDelta": "%9"
    },
    {
      "$type": "CBANBKANPDJ",
      "abilityName": "Avatar_PlayerBoy_FallingAnthem",
      "paramSpecial": "FallingAnthem_Normal_Rank_1_Damage",
      "paramDelta": "%10"
    },
    {
      "$type": "CBANBKANPDJ",
      "abilityName": "Avatar_PlayerBoy_FallingAnthem",
      "paramSpecial": "FallingAnthem_Normal_Rank_2_Damage",
      "paramDelta": "%11"
    }
  ],
  "PlayerGirl_Common_SkillUpgrade_1": [
    {
      "$type": "CBANBKANPDJ",
      "abilityName": "Avatar_PlayerGirl_NormalAttack_DamageHandler",
      "paramSpecial": "NormalAttack_01_DamagePercentage",
      "paramDelta": "%1"
    },
    {
      "$type": "CBANBKANPDJ",
      "abilityName": "Avatar_PlayerGirl_NormalAttack_DamageHandler",
      "paramSpecial": "NormalAttack_02_DamagePercentage",
      "paramDelta": "%2"
    },
    {
      "$type": "CBANBKANPDJ",
      "abilityName": "Avatar_PlayerGirl_NormalAttack_DamageHandler",
      "paramSpecial": "NormalAttack_03_DamagePercentage",
      "paramDelta": "%3"
    },
    {
      "$type": "CBANBKANPDJ",
      "abilityName": "Avatar_PlayerGirl_NormalAttack_DamageHandler",
      "paramSpecial": "NormalAttack_04_DamagePercentage",
      "paramDelta": "%4"
    },
    {
      "$type": "CBANBKANPDJ",
      "abilityName": "Avatar_PlayerGirl_NormalAttack_DamageHandler",
      "paramSpecial": "NormalAttack_05_DamagePercentage",
      "paramDelta": "%5"
    },
    {
      "$type": "CBANBKANPDJ",
      "abilityName": "Avatar_PlayerGirl_NormalAttack_DamageHandler",
      "paramSpecial": "ExtraAttack_01_DamagePercentage",
      "paramDelta": "%6"
    },
    {
      "$type": "CBANBKANPDJ",
      "abilityName": "Avatar_PlayerGirl_NormalAttack_DamageHandler",
      "paramSpecial": "ExtraAttack_02_DamagePercentage",
      "paramDelta": "%7"
    },
    {
      "$type": "CBANBKANPDJ",
      "abilityName": "Avatar_PlayerGirl_ExtraAttack_Common",
      "paramSpecial": "ExtraAttack_Sword_Stamina_Cost",
      "paramDelta": "%8"
    },
    {
      "$type": "CBANBKANPDJ",
      "abilityName": "Avatar_PlayerGirl_ExtraAttack_Wind",
      "paramSpecial": "ExtraAttack_Sword_Stamina_Cost",
      "paramDelta": "%8"
    },
    {
      "$type": "CBANBKANPDJ",
      "abilityName": "Avatar_PlayerGirl_ExtraAttack_Rock",
      "paramSpecial": "ExtraAttack_Sword_Stamina_Cost",
      "paramDelta": "%8"
    },
    {
      "$type": "CBANBKANPDJ",
      "abilityName": "Avatar_PlayerGirl_FallingAnthem",
      "paramSpecial": "FallingAnthem_Normal_Loop_Damage",
      "paramDelta": "%9"
    },
    {
      "$type": "CBANBKANPDJ",
      "abilityName": "Avatar_PlayerGirl_FallingAnthem",
      "paramSpecial": "FallingAnthem_Normal_Rank_1_Damage",
      "paramDelta": "%10"
    },
    {
      "$type": "CBANBKANPDJ",
      "abilityName": "Avatar_PlayerGirl_FallingAnthem",
      "paramSpecial": "FallingAnthem_Normal_Rank_2_Damage",
      "paramDelta": "%11"
    }
  ],
  "Player_Wind_SkillUpgrade_2": [
    {
      "$type": "CBANBKANPDJ",
      "abilityName": "Avatar_Player_UziExplode",
      "paramSpecial": "SliceDamage1",
      "paramDelta": "%1"
    },
    {
      "$type": "CBANBKANPDJ",
      "abilityName": "Avatar_Player_UziExplode",
      "paramSpecial": "SliceDamage2",
      "paramDelta": "%2"
    },
    {
      "$type": "CBANBKANPDJ",
      "abilityName": "Avatar_Player_UziExplode_Strike_01",
      "paramSpecial": "StrikeDamage1",
      "paramDelta": "%3"
    },
    {
      "$type": "CBANBKANPDJ",
      "abilityName": "Avatar_Player_UziExplode_Strike_02",
      "paramSpecial": "StrikeDamage2",
      "paramDelta": "%4"
    }
  ],
  "Player_Wind_SkillUpgrade_3": [
    {
      "$type": "CBANBKANPDJ",
      "abilityName": "Avatar_Player_WindBreathe_Tornado",
      "paramSpecial": "Tornado_Damage",
      "paramDelta": "%1"
    },
    {
      "$type": "CBANBKANPDJ",
      "abilityName": "Avatar_Player_WindBreathe_Tornado_Mix",
      "paramSpecial": "Tornado_Mixed_Damage",
      "paramDelta": "%2"
    }
  ],
  "Player_Wind_Constellation_1": [
    {
      "$type": "NALANCKGMIO",
      "abilityName": "Avatar_Player_UziExplode",
      "talentParam": "Avatar_Player_Wind_SubVacuum_1"
    },
    {
      "$type": "NALANCKGMIO",
      "abilityName": "Avatar_Player_UziExplode",
      "talentParam": "Avatar_Player_Wind_SubVacuum_2"
    }
  ],
  "Player_Wind_Constellation_2": [],
  "Player_Wind_Constellation_3": [
    {
      "$type": "APNPAMFJFHC",
      "talentType": "AvatarSkill",
      "talentIndex": 9,
      "extraLevel": 3
    }
  ],
  "Player_Wind_Constellation_4": [
    {
      "$type": "NALANCKGMIO",
      "abilityName": "Avatar_Player_UziExplode",
      "talentParam": "Talent_UziExplode_Warden"
    }
  ],
  "Player_Wind_Constellation_5": [
    {
      "$type": "APNPAMFJFHC",
      "talentType": "AvatarSkill",
      "talentIndex": 2,
      "extraLevel": 3
    }
  ],
  "Player_Wind_Constellation_6": [
    {
      "$type": "NALANCKGMIO",
      "abilityName": "Avatar_Player_WindBreathe_Tornado",
      "talentParam": "Talent_Player_Wind_Twisted"
    }
  ],
  "Player_Wind_CoreSkill_1": [],
  "Player_Wind_PermanentSkill_1": [
    {
      "$type": "NALANCKGMIO",
      "abilityName": "Avatar_Player_Wind_Arashi",
      "talentParam": "Talent_Player_Wind_Arashi"
    }
  ],
  "Player_Wind_PermanentSkill_2": [
    {
      "$type": "NALANCKGMIO",
      "abilityName": "Avatar_Player_UziExplode",
      "talentParam": "Talent_Player_Wind_ResurrectUzi"
    }
  ]
}