{
  "PlayerBoy_Water_SkillUpgrade_1": [
    {
      "$type": "CBANBKANPDJ",
      "abilityName": "Avatar_PlayerBoy_NormalAttack_DamageHandler",
      "paramSpecial": "NormalAttack_01_DamagePercentage",
      "paramDelta": "%1"
    },
    {
      "$type": "CBANBKANPDJ",
      "abilityName": "Avatar_PlayerBoy_NormalAttack_DamageHandler",
      "paramSpecial": "NormalAttack_02_DamagePercentage",
      "paramDelta": "%2"
    },
    {
      "$type": "CBANBKANPDJ",
      "abilityName": "Avatar_PlayerBoy_NormalAttack_DamageHandler",
      "paramSpecial": "NormalAttack_03_DamagePercentage",
      "paramDelta": "%3"
    },
    {
      "$type": "CBANBKANPDJ",
      "abilityName": "Avatar_PlayerBoy_NormalAttack_DamageHandler",
      "paramSpecial": "NormalAttack_04_DamagePercentage",
      "paramDelta": "%4"
    },
    {
      "$type": "CBANBKANPDJ",
      "abilityName": "Avatar_PlayerBoy_NormalAttack_DamageHandler",
      "paramSpecial": "NormalAttack_05_DamagePercentage",
      "paramDelta": "%5"
    },
    {
      "$type": "CBANBKANPDJ",
      "abilityName": "Avatar_PlayerBoy_NormalAttack_DamageHandler",
      "paramSpecial": "ExtraAttack_01_DamagePercentage",
      "paramDelta": "%6"
    },
    {
      "$type": "CBANBKANPDJ",
      "abilityName": "Avatar_PlayerBoy_NormalAttack_DamageHandler",
      "paramSpecial": "ExtraAttack_02_DamagePercentage",
      "paramDelta": "%7"
    },
    {
      "$type": "CBANBKANPDJ",
      "abilityName": "Avatar_PlayerBoy_ExtraAttack_Water",
      "paramSpecial": "ExtraAttack_Sword_Stamina_Cost",
      "paramDelta": "%8"
    },
    {
      "$type": "CBANBKANPDJ",
      "abilityName": "Avatar_PlayerBoy_FallingAnthem",
      "paramSpecial": "FallingAnthem_Normal_Loop_Damage",
      "paramDelta": "%9"
    },
    {
      "$type": "CBANBKANPDJ",
      "abilityName": "Avatar_PlayerBoy_FallingAnthem",
      "paramSpecial": "FallingAnthem_Normal_Rank_1_Damage",
      "paramDelta": "%10"
    },
    {
      "$type": "CBANBKANPDJ",
      "abilityName": "Avatar_PlayerBoy_FallingAnthem",
      "paramSpecial": "FallingAnthem_Normal_Rank_2_Damage",
      "paramDelta": "%11"
    }
  ],
  "PlayerGirl_Water_SkillUpgrade_1": [
    {
      "$type": "CBANBKANPDJ",
      "abilityName": "Avatar_PlayerGirl_NormalAttack_DamageHandler",
      "paramSpecial": "NormalAttack_01_DamagePercentage",
      "paramDelta": "%1"
    },
    {
      "$type": "CBANBKANPDJ",
      "abilityName": "Avatar_PlayerGirl_NormalAttack_DamageHandler",
      "paramSpecial": "NormalAttack_02_DamagePercentage",
      "paramDelta": "%2"
    },
    {
      "$type": "CBANBKANPDJ",
      "abilityName": "Avatar_PlayerGirl_NormalAttack_DamageHandler",
      "paramSpecial": "NormalAttack_03_DamagePercentage",
      "paramDelta": "%3"
    },
    {
      "$type": "CBANBKANPDJ",
      "abilityName": "Avatar_PlayerGirl_NormalAttack_DamageHandler",
      "paramSpecial": "NormalAttack_04_DamagePercentage",
      "paramDelta": "%4"
    },
    {
      "$type": "CBANBKANPDJ",
      "abilityName": "Avatar_PlayerGirl_NormalAttack_DamageHandler",
      "paramSpecial": "NormalAttack_05_DamagePercentage",
      "paramDelta": "%5"
    },
    {
      "$type": "CBANBKANPDJ",
      "abilityName": "Avatar_PlayerGirl_NormalAttack_DamageHandler",
      "paramSpecial": "ExtraAttack_01_DamagePercentage",
      "paramDelta": "%6"
    },
    {
      "$type": "CBANBKANPDJ",
      "abilityName": "Avatar_PlayerGirl_NormalAttack_DamageHandler",
      "paramSpecial": "ExtraAttack_02_DamagePercentage",
      "paramDelta": "%7"
    },
    {
      "$type": "CBANBKANPDJ",
      "abilityName": "Avatar_PlayerGirl_ExtraAttack_Water",
      "paramSpecial": "ExtraAttack_Sword_Stamina_Cost",
      "paramDelta": "%8"
    },
    {
      "$type": "CBANBKANPDJ",
      "abilityName": "Avatar_PlayerGirl_FallingAnthem",
      "paramSpecial": "FallingAnthem_Normal_Loop_Damage",
      "paramDelta": "%9"
    },
    {
      "$type": "CBANBKANPDJ",
      "abilityName": "Avatar_PlayerGirl_FallingAnthem",
      "paramSpecial": "FallingAnthem_Normal_Rank_1_Damage",
      "paramDelta": "%10"
    },
    {
      "$type": "CBANBKANPDJ",
      "abilityName": "Avatar_PlayerGirl_FallingAnthem",
      "paramSpecial": "FallingAnthem_Normal_Rank_2_Damage",
      "paramDelta": "%11"
    }
  ],
  "Player_Water_Constellation_1": [
    {
      "$type": "NALANCKGMIO",
      "abilityName": "Avatar_PlayerBoy_Core_Heal",
      "talentParam": "Talent_1"
    },
    {
      "$type": "CBANBKANPDJ",
      "abilityName": "Avatar_PlayerBoy_Core_Heal",
      "paramSpecial": "ReviveEnergy",
      "paramDelta": "%1"
    }
  ],
  "Player_Water_Constellation_2": [
    {
      "$type": "NALANCKGMIO",
      "abilityName": "Player_Water_ElementalBurst_Bullet",
      "talentParam": "Talent_2"
    },
    {
      "$type": "CBANBKANPDJ",
      "abilityName": "Player_Water_ElementalBurst_Bullet",
      "paramSpecial": "T2_Speed_Down_Ratio",
      "paramDelta": "%1"
    },
    {
      "$type": "CBANBKANPDJ",
      "abilityName": "Player_Water_ElementalBurst_Bullet",
      "paramSpecial": "Duration",
      "paramDelta": "%2"
    }
  ],
  "Player_Water_Constellation_3": [
    {
      "$type": "APNPAMFJFHC",
      "talentType": "AvatarSkill",
      "talentIndex": 2,
      "extraLevel": 3
    }
  ],
  "Player_Water_Constellation_4": [
    {
      "$type": "PDIMJFAAALL",
      "abilityName": "Avatar_Player_Water_Talent_4_Shield"
    },
    {
      "$type": "CBANBKANPDJ",
      "abilityName": "Avatar_Player_Water_Talent_4_Shield",
      "paramSpecial": "ShieldRatio",
      "paramDelta": "%1"
    },
    {
      "$type": "CBANBKANPDJ",
      "abilityName": "Avatar_Player_Water_Talent_4_Shield",
      "paramSpecial": "RefreshCD",
      "paramDelta": "%2"
    }
  ],
  "Player_Water_Constellation_5": [
    {
      "$type": "APNPAMFJFHC",
      "talentType": "AvatarSkill",
      "talentIndex": 9,
      "extraLevel": 3
    }
  ],
  "Player_Water_Constellation_6": [
    {
      "$type": "NALANCKGMIO",
      "abilityName": "Avatar_PlayerBoy_Core_Heal",
      "talentParam": "Talent_6"
    },
    {
      "$type": "CBANBKANPDJ",
      "abilityName": "Avatar_PlayerBoy_Core_Heal",
      "paramSpecial": "HealOnceRatioT6",
      "paramDelta": "%1"
    }
  ],
  "Player_Water_PermanentSkill_1": [
    {
      "$type": "NALANCKGMIO",
      "abilityName": "Avatar_PlayerBoy_ElementalArt_Water",
      "talentParam": "PermanentSkill_1"
    },
    {
      "$type": "NALANCKGMIO",
      "abilityName": "Avatar_PlayerBoy_Core_Heal",
      "talentParam": "PermanentSkill_1"
    },
    {
      "$type": "CBANBKANPDJ",
      "abilityName": "Avatar_PlayerBoy_ElementalArt_Water",
      "paramSpecial": "P1_CD",
      "paramDelta": "%1"
    },
    {
      "$type": "CBANBKANPDJ",
      "abilityName": "Avatar_PlayerBoy_ElementalArt_Water",
      "paramSpecial": "Core_Max",
      "paramDelta": "%2"
    },
    {
      "$type": "CBANBKANPDJ",
      "abilityName": "Avatar_PlayerBoy_Core_Heal",
      "paramSpecial": "HealOnceRatio",
      "paramDelta": "%3"
    }
  ],
  "Player_Water_PermanentSkill_2": [
    {
      "$type": "NALANCKGMIO",
      "abilityName": "Avatar_PlayerBoy_ElementalArt_Water",
      "talentParam": "PermanentSkill_2"
    },
    {
      "$type": "CBANBKANPDJ",
      "abilityName": "Avatar_PlayerBoy_ElementalArt_Water",
      "paramSpecial": "LoseHPRatio_P2_DamageUpRatio",
      "paramDelta": "%1"
    },
    {
      "$type": "CBANBKANPDJ",
      "abilityName": "Avatar_PlayerBoy_ElementalArt_Water",
      "paramSpecial": "LoseHPRatio_P2_DamageUp_Max",
      "paramDelta": "%2"
    }
  ],
  "Player_Water_SkillUpgrade_1": [
    {
      "$type": "CBANBKANPDJ",
      "abilityName": "Player_Water_ElementalArt_Bullet_Hold",
      "paramSpecial": "DamageRatio",
      "paramDelta": "%1"
    },
    {
      "$type": "CBANBKANPDJ",
      "abilityName": "Avatar_PlayerBoy_ElementalArt_Water",
      "paramSpecial": "LaserDamageRatio",
      "paramDelta": "%2"
    },
    {
      "$type": "CBANBKANPDJ",
      "abilityName": "Avatar_PlayerBoy_ElementalArt_Water",
      "paramSpecial": "OusiaLaserRatio",
      "paramDelta": "%3"
    },
    {
      "$type": "CBANBKANPDJ",
      "abilityName": "Avatar_PlayerBoy_ElementalArt_Water",
      "paramSpecial": "OusiaCD",
      "paramDelta": "%4"
    },
    {
      "$type": "CBANBKANPDJ",
      "abilityName": "Avatar_PlayerBoy_ElementalArt_Water",
      "paramSpecial": "LoseHPRatio",
      "paramDelta": "%5"
    },
    {
      "$type": "CBANBKANPDJ",
      "abilityName": "Player_Water_ElementalArt_Bullet_Hold",
      "paramSpecial": "DamageUpRatio",
      "paramDelta": "%6"
    },
    {
      "$type": "CBANBKANPDJ",
      "abilityName": "Avatar_PlayerBoy_ElementalArt_Water",
      "paramSpecial": "HPLowerLimit",
      "paramDelta": "%7"
    }
  ],
  "Player_Water_SkillUpgrade_2": [
    {
      "$type": "CBANBKANPDJ",
      "abilityName": "Player_Water_ElementalBurst_Bullet",
      "paramSpecial": "DamageRatio",
      "paramDelta": "%1"
    },
    {
      "$type": "CBANBKANPDJ",
      "abilityName": "Player_Water_ElementalBurst_Bullet",
      "paramSpecial": "Duration",
      "paramDelta": "%2"
    }
  ]
}