{
  "Chevreuse_SkillUpgrade_1": [
    {
      "$type": "CBANBKANPDJ",
      "abilityName": "Avatar_Chevreuse_NormalAttack_DamageHandler",
      "paramSpecial": "Chevreuse_NormalAttack_01",
      "paramDelta": "%1"
    },
    {
      "$type": "CBANBKANPDJ",
      "abilityName": "Avatar_Chevreuse_NormalAttack_DamageHandler",
      "paramSpecial": "Chevreuse_NormalAttack_02",
      "paramDelta": "%2"
    },
    {
      "$type": "CBANBKANPDJ",
      "abilityName": "Avatar_Chevreuse_NormalAttack_DamageHandler",
      "paramSpecial": "Chevreuse_NormalAttack_03",
      "paramDelta": "%3"
    },
    {
      "$type": "CBANBKANPDJ",
      "abilityName": "Avatar_Chevreuse_NormalAttack_DamageHandler",
      "paramSpecial": "Chevreuse_NormalAttack_03_2",
      "paramDelta": "%4"
    },
    {
      "$type": "CBANBKANPDJ",
      "abilityName": "Avatar_Chevreuse_NormalAttack_DamageHandler",
      "paramSpecial": "Chevreuse_NormalAttack_04",
      "paramDelta": "%5"
    },
    {
      "$type": "CBANBKANPDJ",
      "abilityName": "Avatar_Chevreuse_ExtraAttack_Bullet",
      "paramSpecial": "Chevreuse_ExtraAttack",
      "paramDelta": "%6"
    },
    {
      "$type": "CBANBKANPDJ",
      "abilityName": "Avatar_Chevreuse_ExtraAttack",
      "paramSpecial": "ExtraAttack_Pole_Stamina_Cost",
      "paramDelta": "%7"
    },
    {
      "$type": "CBANBKANPDJ",
      "abilityName": "Avatar_Chevreuse_FallingAnthem",
      "paramSpecial": "FallingAnthem_Normal_Loop_Damage",
      "paramDelta": "%8"
    },
    {
      "$type": "CBANBKANPDJ",
      "abilityName": "Avatar_Chevreuse_FallingAnthem",
      "paramSpecial": "FallingAnthem_Normal_Rank_1_Damage",
      "paramDelta": "%9"
    },
    {
      "$type": "CBANBKANPDJ",
      "abilityName": "Avatar_Chevreuse_FallingAnthem",
      "paramSpecial": "FallingAnthem_Normal_Rank_2_Damage",
      "paramDelta": "%10"
    }
  ],
  "Chevreuse_SkillUpgrade_2": [
    {
      "$type": "CBANBKANPDJ",
      "abilityName": "Skillobj_Chevreuse_ElementalArt_Bullet0_Material",
      "paramSpecial": "Click_Damage",
      "paramDelta": "%1"
    },
    {
      "$type": "CBANBKANPDJ",
      "abilityName": "Skillobj_Chevreuse_ElementalArt_Bullet1_Material",
      "paramSpecial": "Shoot_Damage",
      "paramDelta": "%2"
    },
    {
      "$type": "CBANBKANPDJ",
      "abilityName": "Skillobj_Chevreuse_ElementalArt_Bullet2_Material",
      "paramSpecial": "Explode_Damage",
      "paramDelta": "%3"
    },
    {
      "$type": "CBANBKANPDJ",
      "abilityName": "Avatar_Chevreuse_ElementalArt",
      "paramSpecial": "Heal_Dura",
      "paramDelta": "%4"
    },
    {
      "$type": "CBANBKANPDJ",
      "abilityName": "Avatar_Chevreuse_ElementalArt",
      "paramSpecial": "Heal_HPRatio",
      "paramDelta": "%5"
    },
    {
      "$type": "CBANBKANPDJ",
      "abilityName": "Avatar_Chevreuse_ElementalArt",
      "paramSpecial": "Heal_Const",
      "paramDelta": "%6"
    },
    {
      "$type": "CBANBKANPDJ",
      "abilityName": "Skillobj_Chevreuse_ElementalArt_Pneuma_Gadget",
      "paramSpecial": "Arkhe_Damage",
      "paramDelta": "%7"
    },
    {
      "$type": "CBANBKANPDJ",
      "abilityName": "Avatar_Chevreuse_ArkheGrade",
      "paramSpecial": "Arkhe_CD",
      "paramDelta": "%8"
    }
  ],
  "Chevreuse_SkillUpgrade_3": [
    {
      "$type": "CBANBKANPDJ",
      "abilityName": "SkillObj_Chevreuse_ElementalBurst_Material",
      "paramSpecial": "Burst_Damage1",
      "paramDelta": "%1"
    },
    {
      "$type": "CBANBKANPDJ",
      "abilityName": "Chevreuse_ElementalBurst_Gadget_Attack1",
      "paramSpecial": "Burst_Damage2",
      "paramDelta": "%2"
    },
    {
      "$type": "CBANBKANPDJ",
      "abilityName": "Chevreuse_ElementalBurst_Gadget_Attack2",
      "paramSpecial": "Burst_Damage2",
      "paramDelta": "%2"
    },
    {
      "$type": "CBANBKANPDJ",
      "abilityName": "Chevreuse_ElementalBurst_Gadget_Attack4",
      "paramSpecial": "Burst_Damage2",
      "paramDelta": "%2"
    },
    {
      "$type": "CBANBKANPDJ",
      "abilityName": "Chevreuse_ElementalBurst_Gadget_Attack6",
      "paramSpecial": "Burst_Damage2",
      "paramDelta": "%2"
    },
    {
      "$type": "CBANBKANPDJ",
      "abilityName": "Chevreuse_ElementalBurst_Gadget_Attack8",
      "paramSpecial": "Burst_Damage2",
      "paramDelta": "%2"
    }
  ],
  "Chevreuse_PermanentSkill_1": [
    {
      "$type": "PDIMJFAAALL",
      "abilityName": "Avatar_Chevreuse_Buff"
    },
    {
      "$type": "CBANBKANPDJ",
      "abilityName": "Avatar_Chevreuse_Buff",
      "paramSpecial": "DefenceDown",
      "paramDelta": "-%1"
    },
    {
      "$type": "CBANBKANPDJ",
      "abilityName": "Avatar_Chevreuse_Buff",
      "paramSpecial": "Dura1",
      "paramDelta": "%2"
    }
  ],
  "Chevreuse_PermanentSkill_2": [
    {
      "$type": "NALANCKGMIO",
      "abilityName": "Avatar_Chevreuse_ElementalArt_Shoot",
      "talentParam": "PermanentSkill_2"
    },
    {
      "$type": "CBANBKANPDJ",
      "abilityName": "Avatar_Chevreuse_ElementalArt_Shoot",
      "paramSpecial": "DamageUpRatio",
      "paramDelta": "%1"
    },
    {
      "$type": "CBANBKANPDJ",
      "abilityName": "Avatar_Chevreuse_ElementalArt_Shoot",
      "paramSpecial": "Dura2",
      "paramDelta": "%2"
    },
    {
      "$type": "CBANBKANPDJ",
      "abilityName": "Avatar_Chevreuse_ElementalArt_Shoot",
      "paramSpecial": "MaxDamageUp",
      "paramDelta": "%3"
    }
  ],
  "Chevreuse_Constellation_1": [
    {
      "$type": "NALANCKGMIO",
      "abilityName": "Avatar_Chevreuse_Buff",
      "talentParam": "CanGainEnergy"
    },
    {
      "$type": "CBANBKANPDJ",
      "abilityName": "Avatar_Chevreuse_Buff",
      "paramSpecial": "Energy",
      "paramDelta": "%1"
    },
    {
      "$type": "CBANBKANPDJ",
      "abilityName": "Avatar_Chevreuse_Buff",
      "paramSpecial": "CD_Time",
      "paramDelta": "%2"
    }
  ],
  "Chevreuse_Constellation_2": [
    {
      "$type": "NALANCKGMIO",
      "abilityName": "Skillobj_Chevreuse_ElementalArt_Bullet1_Material",
      "talentParam": "ExtraBomb"
    },
    {
      "$type": "NALANCKGMIO",
      "abilityName": "Skillobj_Chevreuse_ElementalArt_Bullet2_Material",
      "talentParam": "ExtraBomb"
    },
    {
      "$type": "PDIMJFAAALL",
      "abilityName": "Avatar_Chevreuse_ExtraBomb"
    },
    {
      "$type": "CBANBKANPDJ",
      "abilityName": "SkillObj_Chevreuse_ExtraBomb_Material",
      "paramSpecial": "BombDamage",
      "paramDelta": "%1"
    },
    {
      "$type": "CBANBKANPDJ",
      "abilityName": "Avatar_Chevreuse_ExtraBomb",
      "paramSpecial": "CD_Time",
      "paramDelta": "%2"
    }
  ],
  "Chevreuse_Constellation_3": [
    {
      "$type": "APNPAMFJFHC",
      "talentType": "AvatarSkill",
      "talentIndex": 2,
      "extraLevel": 3
    }
  ],
  "Chevreuse_Constellation_4": [
    {
      "$type": "NALANCKGMIO",
      "abilityName": "Avatar_Chevreuse_ElementalArt_Shoot",
      "talentParam": "ExtraArt"
    },
    {
      "$type": "NALANCKGMIO",
      "abilityName": "Avatar_Chevreuse_ElementalBurst",
      "talentParam": "ExtraArt"
    },
    {
      "$type": "CBANBKANPDJ",
      "abilityName": "Avatar_Chevreuse_ElementalBurst",
      "paramSpecial": "TalentDura",
      "paramDelta": "%1"
    },
    {
      "$type": "CBANBKANPDJ",
      "abilityName": "Avatar_Chevreuse_ElementalBurst",
      "paramSpecial": "Chance",
      "paramDelta": "%2"
    }
  ],
  "Chevreuse_Constellation_5": [
    {
      "$type": "APNPAMFJFHC",
      "talentType": "AvatarSkill",
      "talentIndex": 9,
      "extraLevel": 3
    }
  ],
  "Chevreuse_Constellation_6": [
    {
      "$type": "NALANCKGMIO",
      "abilityName": "Avatar_Chevreuse_ElementalArt",
      "talentParam": "Heal_All"
    },
    {
      "$type": "CBANBKANPDJ",
      "abilityName": "Avatar_Chevreuse_ElementalArt",
      "paramSpecial": "Middle_Time",
      "paramDelta": "%1"
    },
    {
      "$type": "CBANBKANPDJ",
      "abilityName": "Avatar_Chevreuse_ElementalArt",
      "paramSpecial": "HPRatio",
      "paramDelta": "%2"
    },
    {
      "$type": "CBANBKANPDJ",
      "abilityName": "Avatar_Chevreuse_ElementalArt",
      "paramSpecial": "AttackUp",
      "paramDelta": "%3"
    },
    {
      "$type": "CBANBKANPDJ",
      "abilityName": "Avatar_Chevreuse_ElementalArt",
      "paramSpecial": "AttDura",
      "paramDelta": "%4"
    },
    {
      "$type": "CBANBKANPDJ",
      "abilityName": "Avatar_Chevreuse_ElementalArt",
      "paramSpecial": "MaxStack",
      "paramDelta": "%5"
    }
  ],
  "Chevreuse_PermanentSkill_NonCombat_1": [
    {
      "$type": "PDIMJFAAALL",
      "abilityName": "Avatar_Chevreuse_DashStamina_Reduction"
    }
  ]
}