{
  "Chongyun_Talent_361": [
    {
      "$type": "NALANCKGMIO",
      "abilityName": "Avatar_Chongyun_IceBlade",
      "talentParam": "Avatar_Chongyun_Talent_361"
    },
    {
      "$type": "CBANBKANPDJ",
      "abilityName": "ChongyunTest_TestBlade_Hit",
      "paramSpecial": "Chongyun_Talent_IceBlades_Damage",
      "paramDelta": "%1"
    }
  ],
  "Chongyun_Talent_362": [
    {
      "$type": "NALANCKGMIO",
      "abilityName": "Avatar_Chongyun_IceCrystal",
      "talentParam": "Avatar_Chongyun_Talent_362"
    },
    {
      "$type": "CBANBKANPDJ",
      "abilityName": "Avatar_Chongyun_IceCrystal",
      "paramSpecial": "SkillCDMinusRatio",
      "paramDelta": "%1"
    }
  ],
  "Chongyun_ElementSkill_Up": [
    {
      "$type": "APNPAMFJFHC",
      "talentType": "AvatarSkill",
      "talentIndex": 2,
      "extraLevel": 3
    }
  ],
  "Chongyun_Talent_364": [
    {
      "$type": "NALANCKGMIO",
      "abilityName": "Avatar_Chongyun_IceCrystal",
      "talentParam": "Avatar_Chongyun_Talent_364"
    },
    {
      "$type": "CBANBKANPDJ",
      "abilityName": "Avatar_Chongyun_IceCrystal",
      "paramSpecial": "OverallSpeedRatio",
      "paramDelta": "%1"
    }
  ],
  "Chongyun_ElementBurst_Up": [
    {
      "$type": "APNPAMFJFHC",
      "talentType": "AvatarSkill",
      "talentIndex": 9,
      "extraLevel": 3
    }
  ],
  "Chongyun_Talent_366": [
    {
      "$type": "NALANCKGMIO",
      "abilityName": "Avatar_Chongyun_SoulUnleash_Initiate",
      "talentParam": "Avatar_Chongyun_Talent_366"
    },
    {
      "$type": "CBANBKANPDJ",
      "abilityName": "Avatar_Chongyun_SoulUnleash_Quadra_Damage",
      "paramSpecial": "damagePercentage",
      "paramDelta": "%1"
    }
  ],
  "Chongyun_Talent_21": [
    {
      "$type": "NALANCKGMIO",
      "abilityName": "Avatar_Chongyun_IceCrystal",
      "talentParam": "Avatar_Chongyun_Talent_21"
    },
    {
      "$type": "CBANBKANPDJ",
      "abilityName": "Avatar_Chongyun_IceCrystal_Dummy",
      "paramSpecial": "ElementalArt_Damage_Percentage",
      "paramDelta": "%1"
    },
    {
      "$type": "CBANBKANPDJ",
      "abilityName": "Avatar_Chongyun_IceCrystal_Dummy",
      "paramSpecial": "IceSubHurtDelta",
      "paramDelta": "%2"
    },
    {
      "$type": "CBANBKANPDJ",
      "abilityName": "Avatar_Chongyun_IceCrystal_Dummy",
      "paramSpecial": "IceSubHurtDuration",
      "paramDelta": "%3"
    }
  ],
  "Chongyun_Talent_22": [
    {
      "$type": "PDIMJFAAALL",
      "abilityName": "Avatar_Chongyun_HitReviveElemEnergy"
    },
    {
      "$type": "CBANBKANPDJ",
      "abilityName": "Avatar_Chongyun_HitReviveElemEnergy",
      "paramSpecial": "baseEnergy",
      "paramDelta": "%1"
    },
    {
      "$type": "CBANBKANPDJ",
      "abilityName": "Avatar_Chongyun_HitReviveElemEnergy",
      "paramSpecial": "duration",
      "paramDelta": "%2"
    }
  ],
  "Chongyun_Talent_31": [
    {
      "$type": "CBANBKANPDJ",
      "abilityName": "Avatar_Chongyun_NormalAttack_DamageHandler",
      "paramSpecial": "NormalAttack_01_DamagePercentage",
      "paramDelta": "%1",
      "paramRatio": 0.0
    },
    {
      "$type": "CBANBKANPDJ",
      "abilityName": "Avatar_Chongyun_NormalAttack_DamageHandler",
      "paramSpecial": "NormalAttack_02_DamagePercentage",
      "paramDelta": "%2",
      "paramRatio": 0.0
    },
    {
      "$type": "CBANBKANPDJ",
      "abilityName": "Avatar_Chongyun_NormalAttack_DamageHandler",
      "paramSpecial": "NormalAttack_03_DamagePercentage",
      "paramDelta": "%3",
      "paramRatio": 0.0
    },
    {
      "$type": "CBANBKANPDJ",
      "abilityName": "Avatar_Chongyun_NormalAttack_DamageHandler",
      "paramSpecial": "NormalAttack_04_DamagePercentage",
      "paramDelta": "%4",
      "paramRatio": 0.0
    },
    {
      "$type": "CBANBKANPDJ",
      "abilityName": "Avatar_Chongyun_NormalAttack_DamageHandler",
      "paramSpecial": "ExtraAttack_Loop_DamagePercentage",
      "paramDelta": "%5",
      "paramRatio": 0.0
    },
    {
      "$type": "CBANBKANPDJ",
      "abilityName": "Avatar_Chongyun_NormalAttack_DamageHandler",
      "paramSpecial": "ExtraAttack_End_DamagePercentage",
      "paramDelta": "%6",
      "paramRatio": 0.0
    },
    {
      "$type": "CBANBKANPDJ",
      "abilityName": "Avatar_Beidou_ExtraAttack_Chongyun",
      "paramSpecial": "ExtraAttack_Claymore_Stamina_Cost",
      "paramDelta": "%7",
      "paramRatio": 0.0
    },
    {
      "$type": "CBANBKANPDJ",
      "abilityName": "Avatar_Beidou_ExtraAttack_Chongyun",
      "paramSpecial": "Max_Dura",
      "paramDelta": "%8",
      "paramRatio": 0.0
    },
    {
      "$type": "CBANBKANPDJ",
      "abilityName": "Avatar_Chongyun_FallingAnthem",
      "paramSpecial": "FallingAnthem_Normal_Loop_Damage",
      "paramDelta": "%9"
    },
    {
      "$type": "CBANBKANPDJ",
      "abilityName": "Avatar_Chongyun_FallingAnthem",
      "paramSpecial": "FallingAnthem_Normal_Rank_1_Damage",
      "paramDelta": "%10"
    },
    {
      "$type": "CBANBKANPDJ",
      "abilityName": "Avatar_Chongyun_FallingAnthem",
      "paramSpecial": "FallingAnthem_Normal_Rank_2_Damage",
      "paramDelta": "%11"
    }
  ],
  "Chongyun_Talent_32": [
    {
      "$type": "CBANBKANPDJ",
      "abilityName": "Avatar_Chongyun_ElementalArt_Damage",
      "paramSpecial": "ElementalArt_Damage",
      "paramDelta": "%1"
    },
    {
      "$type": "CBANBKANPDJ",
      "abilityName": "Avatar_Chongyun_IceCrystal_Dummy",
      "paramSpecial": "ElementalArt_Damage",
      "paramDelta": "%1"
    },
    {
      "$type": "CBANBKANPDJ",
      "abilityName": "Avatar_Chongyun_IceCrystal",
      "paramSpecial": "EnchantDuration",
      "paramDelta": "%2"
    }
  ],
  "Chongyun_Talent_39": [
    {
      "$type": "CBANBKANPDJ",
      "abilityName": "Avatar_Chongyun_SoulUnleash_Damage",
      "paramSpecial": "ElementalBurst_Damage",
      "paramDelta": "%1"
    },
    {
      "$type": "CBANBKANPDJ",
      "abilityName": "Avatar_Chongyun_SoulUnleash_Quadra_Damage",
      "paramSpecial": "ElementalBurst_Damage",
      "paramDelta": "%1"
    }
  ]
}