{
  "0": [
    {
      "title": "UI_WispCage_TimeFinishedHint",
      "type": 58,
      "markType": "Widget",
      "markIconTypeList": [
        "MarkWispCage"
      ],
      "iconName": "UI_MarkPoint_WispCage",
      "showHighLight": true,
      "param": ""
    }
  ],
  "3": [
    {
      "title": "UI_MAP_ADVENTURE_TASK_REWARD",
      "type": 7,
      "markType": "ScenePoint",
      "markIconTypeList": [
        "MarkAdventurers"
      ],
      "iconName": "",
      "showHighLight": true,
      "param": ""
    },
    {
      "title": "UI_MAP_ADVENTURE_PLAYER_REWARD",
      "type": 8,
      "markType": "ScenePoint",
      "markIconTypeList": [
        "MarkAdventurers"
      ],
      "iconName": "",
      "showHighLight": true,
      "param": ""
    },
    {
      "title": "UI_MAP_EXPEDITION_PLAYER_REWARD",
      "type": 9,
      "markType": "ScenePoint",
      "markIconTypeList": [
        "MarkAdventurers"
      ],
      "iconName": "",
      "showHighLight": true,
      "param": ""
    },
    {
      "title": "UI_MAP_BLACKSMITH_PLAYER_REWARD",
      "type": 10,
      "markType": "ScenePoint",
      "markIconTypeList": [
        "MarkBlacksmith",
        "MarkBlacksmith_liyue",
        "MarkBlacksmith_Inazuma",
        "MarkBlacksmith_Sumeru",
        "MarkBlacksmith_Fontaine",
        "MarkBlacksmith_Natlan"
      ],
      "iconName": "",
      "showHighLight": true,
      "param": ""
    },
    {
      "title": "UI_MAP_RESTAURANT_PLAYER_REWARD",
      "type": 11,
      "markType": "ScenePoint",
      "markIconTypeList": [
        "MarkRestaurant",
        "MarkRestaurant_liyue",
        "MarkRestaurant_Inazuma",
        "MarkRestaurant_Sumeru",
        "MarkRestaurant_Fontaine",
        "MarkRestaurant_Natlan"
      ],
      "iconName": "",
      "showHighLight": true,
      "param": ""
    },
    {
      "title": "UI_MAPMARK_MISCSMARVS_TITLE",
      "type": 12,
      "markType": "Activity",
      "markIconTypeList": [
        "MarkMiscsMarvs"
      ],
      "iconName": "",
      "showHighLight": true,
      "param": ""
    },
    {
      "title": "UI_ACTIVITY_CHESS_NEW_MAP_TIPS",
      "type": 13,
      "markType": "ScenePoint",
      "markIconTypeList": [
        "MarkMechanicisNPC"
      ],
      "iconName": "",
      "showHighLight": true,
      "param": ""
    },
    {
      "title": "",
      "type": 14,
      "iconName": "",
      "showHighLight": true,
      "param": "1"
    },
    {
      "title": "",
      "type": 14,
      "iconName": "",
      "showHighLight": true,
      "param": "2"
    },
    {
      "title": "",
      "type": 14,
      "iconName": "",
      "showHighLight": true,
      "param": "3"
    },
    {
      "title": "",
      "type": 14,
      "iconName": "",
      "showHighLight": true,
      "param": "4"
    },
    {
      "title": "",
      "type": 14,
      "iconName": "",
      "showHighLight": true,
      "param": "5"
    },
    {
      "title": "REPUTATION_NATLAN_MAPMARK_HINT_REWARD",
      "type": 14,
      "iconName": "",
      "showHighLight": true,
      "param": "6"
    },
    {
      "title": "REPUTATION_QUEST_REFRESH",
      "type": 15,
      "iconName": "",
      "param": "1,2,3,4,5,6"
    },
    {
      "title": "UI_MAPMARK_MarkReputation_NOTE_4",
      "type": 16,
      "markType": "Hunting",
      "markIconTypeList": [
        "MarkHuntingArea"
      ],
      "iconName": "",
      "param": ""
    },
    {
      "title": "UI_MAPMARK_MarkReputation_NOTE_4",
      "type": 69,
      "markType": "Hunting",
      "markIconTypeList": [
        "MarkHuntingV2Area"
      ],
      "iconName": "",
      "param": ""
    },
    {
      "title": "UI_ACTIVITY_WATER_SPRITE_EXPLORE_MAP_TIPS",
      "type": 17,
      "markType": "ActivitySearchRegion",
      "markIconTypeList": [
        "MarkActivityWaterSpriteExploreArea"
      ],
      "iconName": "",
      "param": ""
    },
    {
      "title": "UI_ACTIVITY_EXPEDITION_CHALLENGE_ING",
      "type": 18,
      "markType": "Hunting",
      "markIconTypeList": [
        "MarkActivityExpeditionChallengeArea"
      ],
      "iconName": "",
      "param": ""
    },
    {
      "title": "UI_ACTIVITY_ARENACHALLENGE3_DAILY",
      "type": 19,
      "markIconTypeList": [
        "MarkArenaChallengeV3"
      ],
      "iconName": "",
      "useTransPoints": true,
      "param": ""
    },
    {
      "title": "UI_ACTIVITY_MIMITOMO_MAPTITLE",
      "type": 20,
      "markType": "Hunting",
      "markIconTypeList": [
        "MarkActivityMiniTomoHiliWeiArea"
      ],
      "iconName": "",
      "param": ""
    },
    {
      "title": "UI_MAP_ELDERTREE_PLAYER_REWARD",
      "type": 21,
      "markType": "ScenePoint",
      "markIconTypeList": [
        "MarkElderTree"
      ],
      "iconName": "",
      "nearCity": false,
      "showHighLight": true,
      "param": ""
    },
    {
      "title": "UI_MAP_REWARD_OFFERINGORAIONOKAMI_GATHER",
      "type": 22,
      "markType": "ScenePoint",
      "markIconTypeList": [
        "MarkOraionokamiTree"
      ],
      "iconName": "",
      "nearCity": false,
      "showRewardMapTag": false,
      "showHighLight": true,
      "param": ""
    },
    {
      "title": "UI_MAP_REWARD_OFFERINGORAIONOKAMI_GATHER",
      "type": 23,
      "markType": "ScenePoint",
      "markIconTypeList": [
        "MarkOraionokamiTree"
      ],
      "iconName": "",
      "nearCity": false,
      "showRewardMapTag": false,
      "AEIAEJCEAAN": 22,
      "param": ""
    },
    {
      "title": "UI_MAP_ACTIVITY_PLANT_PLAYER_REWARD",
      "type": 24,
      "markType": "ScenePoint",
      "markIconTypeList": [
        "MarkGrowFlowersNPC"
      ],
      "iconName": "",
      "showRewardMapTag": false,
      "param": ""
    },
    {
      "title": "UI_BLESSING_MAP_TIPS1",
      "type": 25,
      "markType": "ScenePoint",
      "markIconTypeList": [
        "MarkActivityBlessing"
      ],
      "iconName": "",
      "showHighLight": true,
      "param": ""
    },
    {
      "title": "UI_ACTIVITY_CHANNELLERSLAB_NEW_DUNGEON_PROMPT",
      "type": 26,
      "iconName": "",
      "showRewardMapTag": false,
      "param": ""
    },
    {
      "title": "UI_MAP_OFFERINGORAIONOKAMI_SHOP_OPEN",
      "type": 28,
      "markType": "ScenePoint",
      "markIconTypeList": [
        "MarkSouvenir_Inazuma"
      ],
      "iconName": "",
      "showRewardMapTag": false,
      "param": ""
    },
    {
      "title": "UI_ACTIVITY_SUMO2_NEW_DUNGEON_TIPS",
      "type": 29,
      "iconName": "",
      "useTransPoints": true,
      "showRewardMapTag": false,
      "param": ""
    },
    {
      "title": "UI_ACTIVITY_CRYSTALLINK_NEW_LEVEL_TIPS",
      "type": 32,
      "markType": "ScenePoint",
      "markIconTypeList": [
        "MarkCrystalLink"
      ],
      "iconName": "",
      "useTransPoints": true,
      "nearCity": false,
      "showRewardMapTag": false,
      "param": ""
    },
    {
      "title": "UI_ACTIVITY_GACHA_EXCHANGE_TIPS",
      "type": 33,
      "markType": "ScenePoint",
      "markIconTypeList": [
        "MarkActivityGachaNPC"
      ],
      "iconName": "",
      "nearCity": false,
      "showRewardMapTag": false,
      "param": ""
    },
    {
      "title": "UI_MAP_REWARD_VANASARA_GATHER",
      "type": 34,
      "markType": "ScenePoint",
      "markIconTypeList": [
        "MarkVanasaraTree"
      ],
      "iconName": "",
      "nearCity": false,
      "showRewardMapTag": false,
      "showHighLight": true,
      "param": ""
    },
    {
      "title": "UI_MAP_REWARD_VANASARA_GATHER",
      "type": 35,
      "markType": "ScenePoint",
      "markIconTypeList": [
        "MarkVanasaraTree"
      ],
      "iconName": "",
      "nearCity": false,
      "showRewardMapTag": false,
      "AEIAEJCEAAN": 34,
      "param": ""
    },
    {
      "title": "UI_MAP_OFFERINGVANASARA_SHOP_OPEN",
      "type": 36,
      "markType": "ScenePoint",
      "markIconTypeList": [
        "MarkSouvenir_Sumeru"
      ],
      "iconName": "",
      "showRewardMapTag": false,
      "param": ""
    },
    {
      "title": "UI_MAP_REWARD_CATTAIL_GATHER",
      "type": 37,
      "markType": "ScenePoint",
      "markIconTypeList": [
        "MarkGcgPub"
      ],
      "iconName": "UI_MarkPoint_GcgZhanDou_04",
      "showHighLight": true,
      "param": ""
    },
    {
      "title": "UI_MAP_REWARD_CATTAIL_GATHER",
      "type": 38,
      "markType": "ScenePoint",
      "markIconTypeList": [
        "MarkGcgPub"
      ],
      "iconName": "UI_MarkPoint_GcgZhanDou_04",
      "AEIAEJCEAAN": 37,
      "param": ""
    },
    {
      "title": "UI_MAP_REWARD_CATTAIL_GATHER",
      "type": 39,
      "markType": "ScenePoint",
      "markIconTypeList": [
        "MarkGcgPub"
      ],
      "iconName": "UI_MarkPoint_GcgZhanDou_04",
      "AEIAEJCEAAN": 37,
      "param": ""
    },
    {
      "title": "UI_MAP_REWARD_CATTAIL_GATHER",
      "type": 40,
      "markType": "ScenePoint",
      "markIconTypeList": [
        "MarkGcgPub"
      ],
      "iconName": "UI_MarkPoint_GcgZhanDou_04",
      "AEIAEJCEAAN": 37,
      "param": ""
    },
    {
      "title": "UI_MAP_REWARD_CATTAIL_GATHER",
      "type": 41,
      "markType": "ScenePoint",
      "markIconTypeList": [
        "MarkGcgPub"
      ],
      "iconName": "UI_MarkPoint_GcgZhanDou_04",
      "AEIAEJCEAAN": 37,
      "param": ""
    },
    {
      "title": "UI_GCG_MAPNOTICE_WORLD",
      "type": 42,
      "markType": "ScenePoint",
      "markIconTypeList": [
        "MarkGcgNpcNormal"
      ],
      "iconName": "UI_MarkPoint_GcgZhanDou_04",
      "param": ""
    },
    {
      "title": "UI_MAP_REWARD_CATTAIL_GATHER",
      "type": 43,
      "markType": "ScenePoint",
      "markIconTypeList": [
        "MarkGcgPub"
      ],
      "iconName": "UI_MarkPoint_GcgZhanDou_04",
      "nearCity": false,
      "AEIAEJCEAAN": 37,
      "param": ""
    },
    {
      "title": "UI_MAP_REWARD_CATTAIL_GATHER",
      "type": 44,
      "markType": "ScenePoint",
      "markIconTypeList": [
        "MarkGcgPub"
      ],
      "iconName": "UI_MarkPoint_GcgZhanDou_04",
      "nearCity": false,
      "showHighLight": true,
      "AEIAEJCEAAN": 37,
      "param": ""
    },
    {
      "title": "UI_MAP_REWARD_CATTAIL_GATHER",
      "type": 46,
      "markType": "ScenePoint",
      "markIconTypeList": [
        "MarkGcgPub"
      ],
      "iconName": "UI_MarkPoint_GcgZhanDou_04",
      "nearCity": false,
      "AEIAEJCEAAN": 37,
      "param": ""
    },
    {
      "title": "UI_MAP_REWARD_CATTAIL_GATHER",
      "type": 47,
      "markType": "ScenePoint",
      "markIconTypeList": [
        "MarkGcgPub"
      ],
      "iconName": "UI_MarkPoint_GcgZhanDou_04",
      "nearCity": false,
      "AEIAEJCEAAN": 37,
      "param": ""
    },
    {
      "title": "UI_MAP_REWARD_CATTAIL_GATHER",
      "type": 48,
      "markType": "ScenePoint",
      "markIconTypeList": [
        "MarkGcgPub"
      ],
      "iconName": "UI_MarkPoint_GcgZhanDou_04",
      "nearCity": false,
      "showHighLight": true,
      "AEIAEJCEAAN": 37,
      "param": ""
    },
    {
      "title": "UI_MAP_REWARD_CATTAIL_GATHER",
      "type": 49,
      "markType": "ScenePoint",
      "markIconTypeList": [
        "MarkGcgPub"
      ],
      "iconName": "UI_MarkPoint_GcgZhanDou_04",
      "nearCity": false,
      "AEIAEJCEAAN": 37,
      "param": ""
    },
    {
      "title": "UI_MAP_REWARD_CATTAIL_GATHER",
      "type": 50,
      "markType": "ScenePoint",
      "markIconTypeList": [
        "MarkGcgPub"
      ],
      "iconName": "UI_MarkPoint_GcgZhanDou_04",
      "nearCity": false,
      "AEIAEJCEAAN": 37,
      "param": ""
    },
    {
      "title": "UI_MAP_REWARD_CATTAIL_GATHER",
      "type": 51,
      "markType": "ScenePoint",
      "markIconTypeList": [
        "MarkGcgPub"
      ],
      "iconName": "UI_MarkPoint_GcgZhanDou_04",
      "nearCity": false,
      "showHighLight": true,
      "AEIAEJCEAAN": 37,
      "param": ""
    },
    {
      "title": "UI_MAP_REWARD_CATTAIL_GATHER",
      "type": 56,
      "markType": "ScenePoint",
      "markIconTypeList": [
        "MarkGcgPub"
      ],
      "iconName": "UI_MarkPoint_GcgZhanDou_04",
      "nearCity": false,
      "AEIAEJCEAAN": 37,
      "param": ""
    },
    {
      "title": "UI_MAP_REWARD_CATTAIL_GATHER",
      "type": 57,
      "markType": "ScenePoint",
      "markIconTypeList": [
        "MarkGcgPub"
      ],
      "iconName": "UI_MarkPoint_GcgZhanDou_04",
      "nearCity": false,
      "showHighLight": true,
      "AEIAEJCEAAN": 37,
      "param": ""
    },
    {
      "title": "UI_OFFERINGPARI_MAP_TIPS_TITLE",
      "type": 45,
      "markType": "ScenePoint",
      "markIconTypeList": [
        "MarkOfferingPariLake"
      ],
      "iconName": "",
      "nearCity": false,
      "showRewardMapTag": false,
      "showHighLight": true,
      "param": ""
    },
    {
      "title": "UI_MAP_REWARD_WISHINGPOND_GATHER",
      "type": 52,
      "markType": "ScenePoint",
      "markIconTypeList": [
        "MarkOfferingWishingPond"
      ],
      "iconName": "",
      "nearCity": false,
      "showRewardMapTag": false,
      "param": ""
    },
    {
      "title": "UI_MAP_REWARD_WISHINGPOND_GATHER",
      "type": 53,
      "markType": "ScenePoint",
      "markIconTypeList": [
        "MarkOfferingWishingPond"
      ],
      "iconName": "",
      "nearCity": false,
      "showRewardMapTag": false,
      "AEIAEJCEAAN": 52,
      "param": ""
    },
    {
      "title": "UI_MAP_REWARD_WISHINGPOND_GATHER",
      "type": 54,
      "markType": "ScenePoint",
      "markIconTypeList": [
        "MarkOfferingWishingPond"
      ],
      "iconName": "",
      "nearCity": false,
      "showRewardMapTag": false,
      "showHighLight": true,
      "AEIAEJCEAAN": 52,
      "param": ""
    },
    {
      "title": "UI_WISHINGPOND_MAPMARK_SHOP",
      "type": 55,
      "markType": "ScenePoint",
      "markIconTypeList": [
        "MarkSouvenir_Fontaine"
      ],
      "iconName": "",
      "nearCity": false,
      "showRewardMapTag": false,
      "param": ""
    },
    {
      "title": "UI_MAP_REWARD_SPIRALABYSS_GATHER",
      "type": 59,
      "markType": "ScenePoint",
      "markIconTypeList": [
        "MarkTowerDungeonEntry"
      ],
      "iconName": "",
      "useTransPoints": true,
      "nearCity": false,
      "showRewardMapTag": false,
      "showHighLight": true,
      "param": ""
    },
    {
      "title": "UI_SILONG_MAPMARK_UNLOCK",
      "type": 60,
      "markType": "ScenePoint",
      "markIconTypeList": [
        "MarkOfferingSiLong"
      ],
      "iconName": "",
      "nearCity": false,
      "showRewardMapTag": false,
      "param": ""
    },
    {
      "title": "UI_SILONG_MAPMARK_REWARD",
      "type": 61,
      "markType": "ScenePoint",
      "markIconTypeList": [
        "MarkOfferingSiLong"
      ],
      "iconName": "",
      "nearCity": false,
      "showRewardMapTag": false,
      "showHighLight": true,
      "AEIAEJCEAAN": 60,
      "param": ""
    },
    {
      "title": "UI_ROLE_COMBAT_REWARD_UNCLAIM",
      "type": 62,
      "markType": "ScenePoint",
      "markIconTypeList": [
        "MarkRoleCombatDungeonEntry"
      ],
      "iconName": "",
      "useTransPoints": true,
      "nearCity": false,
      "showRewardMapTag": false,
      "showHighLight": true,
      "param": ""
    },
    {
      "title": "UI_CHAR_MASTER_MARK_NEW_LEVEL",
      "type": 63,
      "markType": "ScenePoint",
      "markIconTypeList": [
        "MarkRoleCombatDungeonEntry"
      ],
      "iconName": "UI_MarkPoint_CharMaster",
      "useTransPoints": true,
      "nearCity": false,
      "showRewardMapTag": false,
      "param": ""
    },
    {
      "title": "UI_CHAR_MASTER_MARK_REWARD_HINT",
      "type": 64,
      "markType": "ScenePoint",
      "markIconTypeList": [
        "MarkRoleCombatDungeonEntry"
      ],
      "iconName": "UI_MarkPoint_CharMaster",
      "useTransPoints": true,
      "nearCity": false,
      "showRewardMapTag": false,
      "showHighLight": true,
      "param": ""
    },
    {
      "title": "UI_MAP_REWARD_NATLANTEMPLE_GATHER",
      "type": 65,
      "markType": "TransPoint",
      "markIconTypeList": [
        "MarkOfferingNatlanTemple"
      ],
      "iconName": "",
      "nearCity": false,
      "showRewardMapTag": false,
      "param": ""
    },
    {
      "title": "UI_MAP_REWARD_NATLANTEMPLE_GATHER",
      "type": 66,
      "markType": "TransPoint",
      "markIconTypeList": [
        "MarkOfferingNatlanTemple"
      ],
      "iconName": "",
      "nearCity": false,
      "showRewardMapTag": false,
      "AEIAEJCEAAN": 65,
      "param": ""
    },
    {
      "title": "UI_MAP_REWARD_NATLANTEMPLE_GATHER",
      "type": 67,
      "markType": "TransPoint",
      "markIconTypeList": [
        "MarkOfferingNatlanTemple"
      ],
      "iconName": "",
      "nearCity": false,
      "showRewardMapTag": false,
      "showHighLight": true,
      "AEIAEJCEAAN": 65,
      "param": ""
    },
    {
      "title": "UI_NATLANTEMPLE_MAPMARK_SHOP",
      "type": 68,
      "markType": "ScenePoint",
      "markIconTypeList": [
        "MarkSouvenir_Natlan"
      ],
      "iconName": "",
      "nearCity": false,
      "showRewardMapTag": false,
      "param": ""
    }
  ],
  "2000": [
    {
      "title": "UI_MAP_REWARD_HomeworldLevel",
      "markType": "HomeworldDynamic",
      "markIconTypeList": [
        "MarkHomeworldDjinn"
      ],
      "iconName": "",
      "nearCity": false,
      "showHighLight": true,
      "param": ""
    },
    {
      "title": "UI_MAP_TOGET_HomeworldCoin",
      "type": 1,
      "markType": "HomeworldDynamic",
      "markIconTypeList": [
        "MarkHomeworldDjinn"
      ],
      "iconName": "",
      "nearCity": false,
      "showHighLight": true,
      "param": ""
    },
    {
      "title": "UI_MAP_TOGET_HomeworldCompanionshipExp",
      "type": 2,
      "markType": "HomeworldDynamic",
      "markIconTypeList": [
        "MarkHomeworldDjinn"
      ],
      "iconName": "",
      "nearCity": false,
      "showHighLight": true,
      "param": ""
    },
    {
      "title": "UI_MAP_TOGET_HomeworldBuild",
      "type": 3,
      "markType": "HomeworldDynamic",
      "markIconTypeList": [
        "MarkHomeworldDjinn"
      ],
      "iconName": "",
      "nearCity": false,
      "showHighLight": true,
      "param": ""
    },
    {
      "title": "UI_MAP_REMIND_DjinnWeekendRefresh",
      "type": 4,
      "markType": "HomeworldDynamic",
      "markIconTypeList": [
        "MarkHomeworldDjinnWeekend"
      ],
      "iconName": "",
      "nearCity": false,
      "showHighLight": true,
      "param": ""
    },
    {
      "title": "UI_HOMEWORLD_NPC_MAP_REWARD1",
      "type": 5,
      "markType": "HomeworldDynamic",
      "markIconTypeList": [
        "MarkHomeworldNpc"
      ],
      "iconName": "UI_MarkPoint_FetterReward",
      "nearCity": false,
      "showHighLight": true,
      "param": ""
    },
    {
      "title": "UI_HOMEWORLD_FARMFIELD_MAP_REWARD",
      "type": 6,
      "markType": "HomeworldFarmField",
      "iconName": "",
      "nearCity": false,
      "showHighLight": true,
      "param": ""
    }
  ],
  "7": [
    {
      "title": "UI_ACTIVITY_MICHIAE_CASKET_BATTLE_SKILL_NEW_HINT",
      "type": 30,
      "markType": "Offering",
      "markIconTypeList": [
        "MarkMichiaeOffering"
      ],
      "iconName": "",
      "nearCity": false,
      "showRewardMapTag": false,
      "param": ""
    }
  ],
  "1076": [
    {
      "title": "UI_MAP_REWARD_CATTAILKING_GATHER",
      "type": 37,
      "markType": "ScenePoint",
      "markIconTypeList": [
        "MarkGcgCat"
      ],
      "iconName": "UI_MarkPoint_GcgZhanDou_04",
      "nearCity": false,
      "showHighLight": true,
      "param": ""
    },
    {
      "title": "UI_MAP_REWARD_CATTAILKING_GATHER",
      "type": 38,
      "markType": "ScenePoint",
      "markIconTypeList": [
        "MarkGcgCat"
      ],
      "iconName": "UI_MarkPoint_GcgZhanDou_04",
      "nearCity": false,
      "AEIAEJCEAAN": 37,
      "param": ""
    },
    {
      "title": "UI_MAP_REWARD_CATTAILKING_GATHER",
      "type": 41,
      "markType": "ScenePoint",
      "markIconTypeList": [
        "MarkGcgCat"
      ],
      "iconName": "UI_MarkPoint_GcgZhanDou_04",
      "nearCity": false,
      "AEIAEJCEAAN": 37,
      "param": ""
    },
    {
      "title": "UI_MAP_REWARD_CATTAILKING_GATHER",
      "type": 47,
      "markType": "ScenePoint",
      "markIconTypeList": [
        "MarkGcgCat"
      ],
      "iconName": "UI_MarkPoint_GcgZhanDou_04",
      "nearCity": false,
      "AEIAEJCEAAN": 37,
      "param": ""
    },
    {
      "title": "UI_MAP_REWARD_CATTAILKING_GATHER",
      "type": 48,
      "markType": "ScenePoint",
      "markIconTypeList": [
        "MarkGcgCat"
      ],
      "iconName": "UI_MarkPoint_GcgZhanDou_04",
      "nearCity": false,
      "showHighLight": true,
      "AEIAEJCEAAN": 37,
      "param": ""
    },
    {
      "title": "UI_MAP_REWARD_CATTAILKING_GATHER",
      "type": 50,
      "markType": "ScenePoint",
      "markIconTypeList": [
        "MarkGcgCat"
      ],
      "iconName": "UI_MarkPoint_GcgZhanDou_04",
      "nearCity": false,
      "AEIAEJCEAAN": 37,
      "param": ""
    },
    {
      "title": "UI_MAP_REWARD_CATTAILKING_GATHER",
      "type": 51,
      "markType": "ScenePoint",
      "markIconTypeList": [
        "MarkGcgCat"
      ],
      "iconName": "UI_MarkPoint_GcgZhanDou_04",
      "nearCity": false,
      "showHighLight": true,
      "AEIAEJCEAAN": 37,
      "param": ""
    },
    {
      "title": "UI_MAP_REWARD_CATTAILKING_GATHER",
      "type": 56,
      "markType": "ScenePoint",
      "markIconTypeList": [
        "MarkGcgCat"
      ],
      "iconName": "UI_MarkPoint_GcgZhanDou_04",
      "nearCity": false,
      "AEIAEJCEAAN": 37,
      "param": ""
    },
    {
      "title": "UI_MAP_REWARD_CATTAILKING_GATHER",
      "type": 57,
      "markType": "ScenePoint",
      "markIconTypeList": [
        "MarkGcgCat"
      ],
      "iconName": "UI_MarkPoint_GcgZhanDou_04",
      "nearCity": false,
      "showHighLight": true,
      "AEIAEJCEAAN": 37,
      "param": ""
    },
    {
      "title": "UI_GCG_WEEK_MAP_TIPS1",
      "type": 39,
      "markType": "GcgNpc",
      "markIconTypeList": [
        "MarkGcgWeek"
      ],
      "iconName": "UI_MarkPoint_GcgZhanDou_04",
      "nearCity": false,
      "param": ""
    },
    {
      "title": "UI_GCG_MAPNOTICE_WORLD",
      "type": 42,
      "markType": "GcgNpc",
      "markIconTypeList": [
        "MarkGcgNpcNormal"
      ],
      "iconName": "UI_MarkPoint_GcgZhanDou_04",
      "nearCity": false,
      "globalTrack": true,
      "param": ""
    },
    {
      "title": "UI_MAP_REWARD_CATTAILBOARD_GATHER",
      "type": 40,
      "markType": "ScenePoint",
      "markIconTypeList": [
        "MarkGcgBoard"
      ],
      "iconName": "UI_MarkPoint_GcgZhanDou_04",
      "nearCity": false,
      "param": ""
    },
    {
      "title": "UI_MAP_REWARD_CATTAILBOARD_GATHER",
      "type": 43,
      "markType": "ScenePoint",
      "markIconTypeList": [
        "MarkGcgBoard"
      ],
      "iconName": "UI_MarkPoint_GcgZhanDou_04",
      "nearCity": false,
      "AEIAEJCEAAN": 40,
      "param": ""
    },
    {
      "title": "UI_MAP_REWARD_CATTAILBOARD_GATHER",
      "type": 44,
      "markType": "ScenePoint",
      "markIconTypeList": [
        "MarkGcgBoard"
      ],
      "iconName": "UI_MarkPoint_GcgZhanDou_04",
      "nearCity": false,
      "showHighLight": true,
      "AEIAEJCEAAN": 40,
      "param": ""
    },
    {
      "title": "UI_MAP_REWARD_CATTAILBOARD_GATHER",
      "type": 46,
      "markType": "ScenePoint",
      "markIconTypeList": [
        "MarkGcgBoard"
      ],
      "iconName": "UI_MarkPoint_GcgZhanDou_04",
      "nearCity": false,
      "AEIAEJCEAAN": 40,
      "param": ""
    },
    {
      "title": "UI_MAP_REWARD_CATTAILBOARD_GATHER",
      "type": 49,
      "markType": "ScenePoint",
      "markIconTypeList": [
        "MarkGcgBoard"
      ],
      "iconName": "UI_MarkPoint_GcgZhanDou_04",
      "nearCity": false,
      "AEIAEJCEAAN": 40,
      "param": ""
    }
  ]
}