{
  "common": {
    "effectAttachShape": {
      "$type": "FJNPJANPGGC",
      "mesh": "EffectMesh"
    },
    "mass": 100000.0,
    "affectedByWorld": true,
    "useGrassDisplacement": true
  },
  "headControl": {
    "$type": "KPIPDEBDPIH",
    "useWhiteAnimStates": false,
    "dontAnimStates": [
      "Turn01_90LBS",
      "Turn01_90LAS",
      "Turn01_90RBS",
      "Turn01_90RAS",
      "Downcast01BS",
      "Downcast01AS",
      "Downcast01Loop",
      "DrinkToComplain",
      "FountainPray",
      "FountainSneak",
      "Pray01Loop",
      "Investigate01Loop",
      "Shy01Loop",
      "HoldHead01Loop",
      "Play01BS",
      "Play01Loop",
      "Play01AS"
    ]
  },
  "dither": {
    "normalBetweenCamera": {}
  },
  "stateLayers": {
    "defaultLayer": {
      "$type": "GBGJJIIEMBD",
      "layerIndexName": "",
      "CPAANEIJCGD": "",
      "stateIDs": {
        "Born": {
          "$type": "CKKKJKIBKNP",
          "animatorStates": {
            "Born": [
              "Npc_ResetFreeStyle"
            ]
          }
        },
        "Disappear": {
          "$type": "CKKKJKIBKNP",
          "animatorStates": {
            "Disappear": [
              "Npc_FadeOut"
            ]
          },
          "canBeInter": false
        },
        "FemaleVoiceState": {
          "$type": "CKKKJKIBKNP",
          "animatorStates": {
            "WeakDie_BS": [
              "Audio_Apparatus_BionicDrone_WeakDie"
            ]
          }
        }
      }
    }
  },
  "billboard": {
    "$type": "KMCIKEIBFAH",
    "attachPoint": "BillboardAttach",
    "offset": {
      "x": -0.09000000357627869,
      "y": 0.009999999776482582
    },
    "offsetType": "Character",
    "radiusOffset": 0.12999999523162842,
    "showDistance": 20.0,
    "markShowDistance": 45.0
  },
  "defaultDither": 0.0,
  "useShape": true,
  "aibeta": {
    "enable": true,
    "friendliness": 1,
    "moveSetting": {
      "navMeshAgentName": "Undead01",
      "almostReachedDistanceWalk": 0.30000001192092896,
      "almostReachedDistanceRun": 0.6000000238418579,
      "NILICNIGJKK": true
    },
    "sensing": {
      "enable": false
    },
    "threat": {
      "GHIJMOKOLMB": "",
      "enable": false
    },
    "defendArea": {
      "enable": false
    },
    "profiling": {
      "lodStrategy": "Npc"
    },
    "birdCirclingTactic": [
      {
        "$type": "MJJFBALNDCH",
        "enable": true,
        "JMCOBEPDIGM": {
          "ANLAAGAMIKF": 1,
          "MNPDDAKDHGK": "",
          "GJDMDHIBCME": ""
        }
      }
    ]
  },
  "move": {
    "$type": "IHIDJIBILEL",
    "velocityForce": {
      "includeForces": [
        "RetreatType",
        "RetreatAirType",
        "RushMoveType",
        "WindZoneType",
        "AirflowType",
        "RiseType",
        "SpeedupType",
        "AirflowAccType",
        "InertiaType"
      ]
    },
    "PKHOMJHFAEE": "RootNode"
  },
  "intee": {
    "KAMIAMNMFCP": ""
  },
  "audio": {
    "$type": "DEGGADLMEOK",
    "overrideEmitterName": "",
    "animAudio": {}
  },
  "NJILKBEFPFP": {},
  "elementPendantPoint": "PRIVATE_Pendant"
}