{
  "common": {
    "effectAttachShape": {
      "$type": "FJNPJANPGGC",
      "mesh": "EffectMesh"
    },
    "mass": 100000.0,
    "affectedByWorld": true
  },
  "headControl": {
    "$type": "KPIPDEBDPIH",
    "useHeadControl": true,
    "useWhiteAnimStates": false,
    "dontAnimStates": [
      "Downcast01BS",
      "Downcast01AS",
      "Downcast01Loop",
      "DrinkToComplain",
      "FountainPray",
      "FountainSneak",
      "Pray01Loop",
      "Investigate01Loop",
      "Shy01Loop",
      "HoldHead01Loop",
      "SitCrouch01Loop"
    ]
  },
  "stateLayers": {
    "defaultLayer": {
      "$type": "GBGJJIIEMBD",
      "layerIndexName": "",
      "CPAANEIJCGD": "",
      "stateIDs": {
        "Born": {
          "$type": "CKKKJKIBKNP",
          "animatorStates": {
            "Born": [
              "Npc_ResetFreeStyle"
            ]
          }
        },
        "Disappear": {
          "$type": "CKKKJKIBKNP",
          "animatorStates": {
            "Disappear": [
              "Npc_FadeOut"
            ]
          },
          "canBeInter": false
        },
        "Item_SwordWood_Appear": {
          "$type": "CKKKJKIBKNP",
          "animatorStates": {
            "StandbySword01BS": [
              "Npc_Item_SwordWood_Appear",
              "Audio_NPC_MengDe_Female_StandbySword01BS"
            ]
          },
          "canBeInter": false
        },
        "Item_SwordWood_Disappear": {
          "$type": "CKKKJKIBKNP",
          "animatorStates": {
            "StandbySword01AS": [
              "Npc_Item_SwordWood_Disappear",
              "Audio_NPC_MengDe_Female_StandbySword01AS"
            ]
          },
          "canBeInter": false
        },
        "Item_BardLyre_Appear": {
          "$type": "CKKKJKIBKNP",
          "animatorStates": {
            "PlayAndSing01BS": [
              "Npc_Item_BardLyre_Appear"
            ]
          },
          "canBeInter": false
        },
        "Item_BardLyre_Disappear": {
          "$type": "CKKKJKIBKNP",
          "animatorStates": {
            "PlayAndSing01AS": [
              "Npc_Item_BardLyre_Disappear"
            ]
          },
          "canBeInter": false
        },
        "Item_Book_Appear": {
          "$type": "CKKKJKIBKNP",
          "animatorStates": {
            "Read01BS": [
              "Npc_Item_Book_Appear"
            ]
          },
          "canBeInter": false
        },
        "Item_Book_Disappear": {
          "$type": "CKKKJKIBKNP",
          "animatorStates": {
            "Read01AS": [
              "Npc_Item_Book_Disappear"
            ]
          },
          "canBeInter": false
        },
        "Item_FishingRod_Appear": {
          "$type": "CKKKJKIBKNP",
          "animatorStates": {
            "Fishing01Cycle": [
              "Npc_Item_FishingRod_Appear"
            ]
          }
        },
        "Item_BeerGlass_Appear": {
          "$type": "CKKKJKIBKNP",
          "animatorStates": {
            "DrinkToComplain": [
              "Npc_Item_BeerGlass_Appear"
            ]
          }
        },
        "Item_TeaBowl01_Appear": {
          "$type": "CKKKJKIBKNP",
          "animatorStates": {
            "SitDrink01": [
              "Npc_Item_TeaBowl01_Appear"
            ]
          }
        },
        "Item_ChopsticksAndBow_Appear": {
          "$type": "CKKKJKIBKNP",
          "animatorStates": {
            "SitEat01": [
              "NPC_Item_ChopsticksAndBow_Appear"
            ]
          }
        },
        "Item_Oud_Appear": {
          "$type": "CKKKJKIBKNP",
          "animatorStates": {
            "CrossLegPlayOud01": [
              "Npc_Item_Oud_Appear"
            ]
          }
        },
        "Item_WateringPot_Appear": {
          "$type": "CKKKJKIBKNP",
          "animatorStates": {
            "Watering01Cycle": [
              "Npc_Item_WateringPot_Appear"
            ]
          }
        },
        "Item_CopperMug_Appear": {
          "$type": "CKKKJKIBKNP",
          "animatorStates": {
            "DrinkToComplain_2": [
              "Npc_Item_CopperMug_Appear"
            ]
          }
        },
        "Item_Coffeecup_Appear": {
          "$type": "CKKKJKIBKNP",
          "animatorStates": {
            "SitDrink01_2": [
              "Npc_Item_Coffeecup_Appear"
            ]
          }
        },
        "Item_All_Disappear": {
          "$type": "CKKKJKIBKNP",
          "animatorStates": {
            "Standby": [
              "Npc_Item_SwordWood_Disappear",
              "Npc_Item_BardLyre_Disappear",
              "Npc_Item_Book_Disappear",
              "Npc_Item_TeaBowl01_Disappear",
              "Npc_Item_BeerGlass_Disappear",
              "Npc_Item_FishingRod_Disappear",
              "Npc_Item_Oud_Disappear",
              "Npc_Item_WateringPot_Disappear",
              "Npc_Item_CopperMug_Disappear",
              "Npc_Item_Coffeecup_Disappear"
            ],
            "Sit01Loop": [
              "Npc_Item_SwordWood_Disappear",
              "Npc_Item_BardLyre_Disappear",
              "Npc_Item_Book_Disappear",
              "Npc_Item_TeaBowl01_Disappear",
              "Npc_Item_BeerGlass_Disappear",
              "Npc_Item_FishingRod_Disappear",
              "Npc_Item_Oud_Disappear",
              "Npc_Item_WateringPot_Disappear",
              "Npc_Item_CopperMug_Disappear",
              "Npc_Item_Coffeecup_Disappear"
            ],
            "SitPutArm01Loop": [
              "Npc_Item_SwordWood_Disappear",
              "Npc_Item_BardLyre_Disappear",
              "Npc_Item_Book_Disappear",
              "Npc_Item_TeaBowl01_Disappear",
              "Npc_Item_BeerGlass_Disappear",
              "Npc_Item_FishingRod_Disappear",
              "Npc_Item_Oud_Disappear",
              "Npc_Item_WateringPot_Disappear",
              "Npc_Item_CopperMug_Disappear",
              "Npc_Item_Coffeecup_Disappear"
            ],
            "SitCrouch01Loop": [
              "Npc_Item_SwordWood_Disappear",
              "Npc_Item_BardLyre_Disappear",
              "Npc_Item_Book_Disappear",
              "Npc_Item_TeaBowl01_Disappear",
              "Npc_Item_BeerGlass_Disappear",
              "Npc_Item_FishingRod_Disappear",
              "Npc_Item_Oud_Disappear",
              "Npc_Item_WateringPot_Disappear",
              "Npc_Item_CopperMug_Disappear",
              "Npc_Item_Coffeecup_Disappear"
            ],
            "Turn01_90LBS": [
              "Npc_Item_SwordWood_Disappear",
              "Npc_Item_BardLyre_Disappear",
              "Npc_Item_Book_Disappear",
              "Npc_Item_TeaBowl01_Disappear",
              "Npc_Item_BeerGlass_Disappear",
              "Npc_Item_FishingRod_Disappear",
              "Npc_Item_Oud_Disappear",
              "Npc_Item_WateringPot_Disappear",
              "Npc_Item_CopperMug_Disappear",
              "Npc_Item_Coffeecup_Disappear"
            ],
            "Turn01_90RBS": [
              "Npc_Item_SwordWood_Disappear",
              "Npc_Item_BardLyre_Disappear",
              "Npc_Item_Book_Disappear",
              "Npc_Item_TeaBowl01_Disappear",
              "Npc_Item_BeerGlass_Disappear",
              "Npc_Item_FishingRod_Disappear",
              "Npc_Item_Oud_Disappear",
              "Npc_Item_WateringPot_Disappear",
              "Npc_Item_CopperMug_Disappear",
              "Npc_Item_Coffeecup_Disappear"
            ]
          }
        },
        "FreeStyleReset": {
          "$type": "CKKKJKIBKNP",
          "animatorStates": {
            "HitLightBackrake01": [
              "Npc_ResetFreeStyle",
              "Audio_NPC_MengDe_Famale_HitLightBackrake_footsteps"
            ],
            "HitLightForerake01": [
              "Npc_ResetFreeStyle",
              "Audio_NPC_MengDe_Famale_HitLightForerake_footsteps"
            ],
            "AfraidAS": [
              "Npc_ResetFreeStyle"
            ],
            "Alert01AS": [
              "Npc_ResetFreeStyle"
            ],
            "Clap01": [
              "Npc_ResetFreeStyle",
              "Audio_NPC_MengDe_Female_Clap01"
            ]
          }
        },
        "FemaleVoiceState": {
          "$type": "CKKKJKIBKNP",
          "animatorStates": {
            "Walk": [
              "Audio_NPC_MengDe_Male_Walk_footsteps"
            ],
            "Run": [
              "Audio_NPC_MengDe_Male_Walk_footsteps"
            ],
            "StandbyBow01BS": [
              "Audio_NPC_MengDe_Female_StandbyBow01BS"
            ],
            "StandbyBow01AS": [
              "Audio_NPC_MengDe_Female_StandbyBow01AS"
            ],
            "Shy01BS": [
              "Audio_NPC_MengDe_Female_Shy_BS"
            ],
            "Shy01AS": [
              "Audio_NPC_MengDe_Female_Shy_AS"
            ],
            "Shout01Loop": [
              "Audio_NPC_MengDe_Female_Shout01BS"
            ],
            "Shout01BS": [
              "Audio_NPC_MengDe_Female_Shout01BS"
            ],
            "Shout01AS": [
              "Audio_NPC_MengDe_Female_Shout01AS"
            ],
            "Request01BS": [
              "Audio_NPC_MengDe_Female_Request01BS"
            ],
            "Request01AS": [
              "Audio_NPC_MengDe_Female_Request01AS"
            ],
            "Refuse01BS": [
              "Audio_NPC_MengDe_Female_Refuse01BS"
            ],
            "Pray01BS": [
              "Audio_NPC_MengDe_Female_Pray01BS"
            ],
            "Pray01AS": [
              "Audio_NPC_MengDe_Female_Pray01AS"
            ],
            "Laugh01": [
              "Audio_NPC_MengDe_Female_Laugh01"
            ],
            "Investigate01BS": [
              "Audio_NPC_MengDe_Female_Investigate01BS"
            ],
            "Investigate01AS": [
              "Audio_NPC_MengDe_Female_Investigate01AS"
            ],
            "HoldArmHand01BS": [
              "Audio_NPC_MengDe_Female_HoldArmHand01BS"
            ],
            "HoldArmHand01AS": [
              "Audio_NPC_MengDe_Female_HoldArmHand01AS"
            ],
            "Forerake01AS": [
              "Audio_NPC_MengDe_Female_Forerake01AS"
            ],
            "Forerake01BS": [
              "Audio_NPC_MengDe_Female_Forerake01BS"
            ],
            "Encourage01": [
              "Audio_NPC_MengDe_Female_Encourage01"
            ],
            "Eat01": [
              "Audio_NPC_MengDe_Female_Eat01"
            ],
            "Confuse01AS": [
              "Audio_NPC_MengDe_Female_Confuse01AS"
            ],
            "Confuse01BS": [
              "Audio_NPC_MengDe_Female_Confuse01BS"
            ],
            "Cheer01Loop": [
              "Audio_NPC_MengDe_Female_Cheer01Loop"
            ],
            "Backrake01BS": [
              "Audio_NPC_MengDe_Female_Backrake01BS"
            ],
            "Akimbo01BS": [
              "Audio_NPC_MengDe_Female_Akimbo01BS"
            ],
            "AfraidBS": [
              "Audio_NPC_MengDe_Male_Afraid01BS"
            ],
            "HitHeavyForerake01": [
              "Audio_NPC_MengDe_Famale_HitHeavyForerake_footsteps"
            ],
            "HitHeavyBackrake01": [
              "Audio_NPC_MengDe_Famale_HitHeavyBackrake_footsteps"
            ],
            "Applaud": [
              "Audio_NPC_MengDe_Female_Applaud"
            ],
            "StrikeChest01BS": [
              "Audio_NPC_MengDe_Female_StrikeChest_BS"
            ],
            "StrikeChest01AS": [
              "Audio_NPC_MengDe_Female_StrikeChest_AS"
            ],
            "HoldArm01BS": [
              "Audio_NPC_MengDe_Female_HoldArm_BS"
            ],
            "HoldArm01AS": [
              "Audio_NPC_MengDe_Female_HoldArm_AS"
            ],
            "SaluteFontaine01BS": [
              "Audio_NPC_Fontaine_Female_Common_Salute"
            ],
            "FontaineGreet01": [
              "Audio_NPC_Fontaine_Female_Common_Great01"
            ],
            "Telescope01AS": [
              "Audio_NPC_Fontaine_Female_Common_Telescope01AS"
            ],
            "Telescope01BS": [
              "Audio_NPC_Fontaine_Female_Common_Telescope01BS"
            ],
            "Interview01AS": [
              "Audio_NPC_Fontaine_Female_Interview01AS"
            ],
            "Interview01BS": [
              "Audio_NPC_Fontaine_Female_Interview01BS"
            ],
            "HoldArm02BS": [
              "Audio_NPC_NaTa_Female_HoldArm02BS"
            ],
            "HoldArm02AS": [
              "Audio_NPC_NaTa_Female_HoldArm02AS"
            ],
            "BattleRest01": [
              "Audio_NPC_NaTa_Female_BattleRest01"
            ],
            "BattleRest02BS": [
              "Audio_NPC_NaTa_Female_BattleRest02BS"
            ],
            "BattleRest02AS": [
              "Audio_NPC_NaTa_Female_BattleRest02AS"
            ],
            "BattleRest02Loop": [
              "Audio_NPC_NaTa_Female_BattleRest02Loop"
            ],
            "DanceBattle01": [
              "Audio_NPC_NaTa_Female_DanceBattle01"
            ],
            "DanceBattle02": [
              "Audio_NPC_NaTa_Female_DanceBattle02"
            ],
            "DanceBattle03": [
              "Audio_NPC_NaTa_Female_DanceBattle03"
            ],
            "DanceBattleBack": [
              "Audio_NPC_NaTa_Female_DanceBattleBack"
            ],
            "DanceBattleBS": [
              "Audio_NPC_NaTa_Female_DanceBattleBS"
            ],
            "DanceBattleForward": [
              "Audio_NPC_NaTa_Female_DanceBattleForward"
            ],
            "Sway01": [
              "Audio_NPC_NaTa_Female_Sway01"
            ],
            "Sway02": [
              "Audio_NPC_NaTa_Female_Sway02"
            ],
            "Painting01AS": [
              "Audio_NPC_NaTa_Female_Painting01AS"
            ],
            "Painting01BS": [
              "Audio_NPC_NaTa_Female_Painting01BS"
            ],
            "Painting01Loop": [
              "Audio_NPC_NaTa_Female_Painting01Loop"
            ],
            "Sacrifice01AS": [
              "Audio_NPC_NaTa_Female_Sacrifice01AS"
            ],
            "Sacrifice02": [
              "Audio_NPC_NaTa_Female_Sacrifice02"
            ],
            "SacrificeBS": [
              "Audio_NPC_NaTa_Female_SacrificeBS"
            ],
            "PlayWithNatsaurus01": [
              "Audio_NPC_NaTa_Female_PlayWithNatsaurus01"
            ],
            "Squat01AS": [
              "Audio_NPC_NaTa_Female_Squat01AS"
            ],
            "Squat01BS": [
              "Audio_NPC_NaTa_Female_Squat01BS"
            ],
            "Squat02AS": [
              "Audio_NPC_NaTa_Female_Squat02AS"
            ],
            "Squat02BS": [
              "Audio_NPC_NaTa_Female_Squat02BS"
            ]
          }
        }
      }
    }
  },
  "billboard": {
    "$type": "KMCIKEIBFAH",
    "attachPoint": "BillboardAttach",
    "offset": {
      "x": -0.09000000357627869,
      "y": 0.009999999776482582
    },
    "offsetType": "Character",
    "radiusOffset": 0.12999999523162842,
    "showDistance": 20.0,
    "markShowDistance": 45.0
  },
  "defaultDither": 0.0,
  "aibeta": {
    "enable": true,
    "friendliness": 1,
    "moveSetting": {
      "navMeshAgentName": "Undead01",
      "almostReachedDistanceWalk": 0.30000001192092896,
      "almostReachedDistanceRun": 0.6000000238418579,
      "NILICNIGJKK": true
    },
    "sensing": {
      "enable": false
    },
    "threat": {
      "GHIJMOKOLMB": "",
      "enable": false
    },
    "defendArea": {
      "enable": false
    },
    "profiling": {
      "lodStrategy": "Npc"
    },
    "birdCirclingTactic": [
      {
        "$type": "MJJFBALNDCH",
        "enable": true,
        "JMCOBEPDIGM": {
          "ANLAAGAMIKF": 1,
          "MNPDDAKDHGK": "",
          "GJDMDHIBCME": ""
        }
      }
    ]
  },
  "move": {
    "$type": "IHIDJIBILEL",
    "velocityForce": {
      "includeForces": [
        "RetreatType",
        "RetreatAirType",
        "RushMoveType",
        "WindZoneType",
        "AirflowType",
        "RiseType",
        "SpeedupType",
        "AirflowAccType",
        "InertiaType"
      ]
    },
    "PKHOMJHFAEE": "RootNode"
  },
  "intee": {
    "KAMIAMNMFCP": ""
  },
  "audio": {
    "$type": "DEGGADLMEOK",
    "overrideEmitterName": "",
    "animAudio": {}
  },
  "NJILKBEFPFP": {},
  "elementPendantPoint": "PRIVATE_Pendant"
}