{
  "common": {
    "effectAttachShape": {
      "$type": "FJNPJANPGGC",
      "mesh": "EffectMesh"
    },
    "mass": 100000.0,
    "affectedByWorld": true,
    "useGrassDisplacement": true
  },
  "headControl": {
    "$type": "KPIPDEBDPIH",
    "useHeadControl": true,
    "useWhiteAnimStates": false,
    "dontAnimStates": [
      "Turn01_90LBS",
      "Turn01_90LAS",
      "Turn01_90RBS",
      "Turn01_90RAS",
      "Downcast01BS",
      "Downcast01AS",
      "Downcast01Loop",
      "DrinkToComplain",
      "FountainPray",
      "FountainSneak",
      "Pray01Loop",
      "Investigate01Loop",
      "Shy01Loop",
      "HoldHead01Loop",
      "Play01BS",
      "Play01Loop",
      "Play01AS"
    ]
  },
  "stateLayers": {
    "defaultLayer": {
      "$type": "GBGJJIIEMBD",
      "layerIndexName": "",
      "CPAANEIJCGD": "",
      "stateIDs": {
        "Born": {
          "$type": "CKKKJKIBKNP",
          "animatorStates": {
            "Born": [
              "Npc_ResetFreeStyle"
            ]
          }
        },
        "Disappear": {
          "$type": "CKKKJKIBKNP",
          "animatorStates": {
            "Disappear": [
              "Npc_FadeOut",
              "Audio_NPC_Aranara_Common_Disappear"
            ]
          },
          "canBeInter": false
        },
        "FreeStyleReset": {
          "$type": "CKKKJKIBKNP",
          "animatorStates": {
            "HitLightBackrake01": [
              "Npc_ResetFreeStyle"
            ],
            "HitLightForerake01": [
              "Npc_ResetFreeStyle"
            ],
            "AfraidAS": [
              "Npc_ResetFreeStyle"
            ],
            "Alert01AS": [
              "Npc_ResetFreeStyle"
            ],
            "Clap01": [
              "Npc_ResetFreeStyle"
            ]
          }
        },
        "FemaleVoiceState": {
          "$type": "CKKKJKIBKNP",
          "animatorStates": {
            "Appear": [
              "Audio_NPC_Aranara_Common_Appear"
            ],
            "Seclusion01AS": [
              "Audio_NPC_Aranara_Common_Appear"
            ],
            "Afraid01BS": [
              "Audio_NPC_Aranara_Common_Afraid01BS"
            ],
            "Walk": [
              "Audio_NPC_Aranara_Common_Walk"
            ],
            "Celebrate01": [
              "Audio_NPC_Aranara_Common_Celebrate01"
            ],
            "Seclusion01BS": [
              "Audio_NPC_Aranara_Common_Disappear"
            ],
            "FlyAngry01BS": [
              "Audio_NPC_Aranara_Common_FlyAngry01BS"
            ],
            "FlyEnd": [
              "Audio_NPC_Aranara_Common_FlyEnd"
            ],
            "FlyAS": [
              "Audio_NPC_Aranara_Common_FlyEnd"
            ],
            "FlyAS_02": [
              "Audio_NPC_Aranara_Common_FlyEnd"
            ],
            "FlyHappy01BS": [
              "Audio_NPC_Aranara_Common_FlyHappy01BS"
            ],
            "FlyPutHand01BS": [
              "Audio_NPC_Aranara_Common_FlyPutHand01BS"
            ],
            "FlySad01BS": [
              "Audio_NPC_Aranara_Common_FlySad01BS"
            ],
            "FlySkill01BS": [
              "Audio_NPC_Aranara_Common_FlySkill01BS"
            ],
            "FlySkill02BS": [
              "Audio_NPC_Aranara_Common_FlySkill02BS"
            ],
            "FlySurprise01BS": [
              "Audio_NPC_Aranara_Common_FlySurprise01BS"
            ],
            "SleepLoop": [
              "Audio_NPC_Aranara_Common_SleepLoop"
            ],
            "Turn90L": [
              "Audio_NPC_Aranara_Common_Turn90L"
            ],
            "Turn90R": [
              "Audio_NPC_Aranara_Common_Turn90L"
            ],
            "WakeUP": [
              "Audio_NPC_Aranara_Common_WakeUP"
            ],
            "SleepAS": [
              "Audio_NPC_Aranara_Common_WakeUP"
            ]
          }
        }
      }
    },
    "headAnimLayer": {
      "$type": "GBGJJIIEMBD",
      "layerIndex": 2,
      "layerIndexName": "HeadAnimLayer",
      "CPAANEIJCGD": "",
      "stateIDs": {
        "NodHead01": {
          "$type": "CKKKJKIBKNP",
          "animatorStates": {
            "NodHead01": [
              "Audio_NPC_Aranara_Common_NodHead01"
            ]
          }
        },
        "ShakeHead01": {
          "$type": "CKKKJKIBKNP",
          "animatorStates": {
            "ShakeHead01": [
              "Audio_NPC_Aranara_Common_ShakeHead01"
            ]
          }
        }
      }
    }
  },
  "billboard": {
    "$type": "KMCIKEIBFAH",
    "attachPoint": "BillboardAttach",
    "offset": {
      "x": -0.699999988079071
    },
    "offsetType": "Character",
    "radiusOffset": 0.12999999523162842,
    "showDistance": 20.0,
    "markShowDistance": 45.0
  },
  "defaultDither": 0.0,
  "aibeta": {
    "enable": true,
    "friendliness": 1,
    "moveSetting": {
      "navMeshAgentName": "Undead01",
      "almostReachedDistanceWalk": 0.30000001192092896,
      "almostReachedDistanceRun": 0.6000000238418579,
      "NILICNIGJKK": true
    },
    "sensing": {
      "enable": false
    },
    "threat": {
      "GHIJMOKOLMB": "",
      "enable": false
    },
    "defendArea": {
      "enable": false
    },
    "profiling": {
      "lodStrategy": "Npc"
    },
    "birdCirclingTactic": [
      {
        "$type": "MJJFBALNDCH",
        "enable": true,
        "JMCOBEPDIGM": {
          "ANLAAGAMIKF": 1,
          "MNPDDAKDHGK": "",
          "GJDMDHIBCME": ""
        }
      }
    ]
  },
  "move": {
    "$type": "IHIDJIBILEL",
    "velocityForce": {
      "includeForces": [
        "RetreatType",
        "RetreatAirType",
        "RushMoveType",
        "WindZoneType",
        "AirflowType",
        "RiseType",
        "SpeedupType",
        "AirflowAccType",
        "InertiaType"
      ]
    },
    "PKHOMJHFAEE": "RootNode"
  },
  "intee": {
    "KAMIAMNMFCP": ""
  },
  "audio": {
    "$type": "DEGGADLMEOK",
    "overrideEmitterName": "",
    "animAudio": {}
  },
  "NJILKBEFPFP": {},
  "elementPendantPoint": "PRIVATE_Pendant"
}