{
  "common": {
    "effectAttachShape": {
      "$type": "FJNPJANPGGC",
      "mesh": "EffectMesh"
    },
    "mass": 20.0,
    "height": 0.800000011920929,
    "affectedByWorld": true
  },
  "stateLayers": {
    "defaultLayer": {
      "$type": "GBGJJIIEMBD",
      "layerIndexName": "",
      "CPAANEIJCGD": "",
      "stateIDs": {
        "Born": {
          "$type": "CKKKJKIBKNP",
          "animatorStates": {
            "Born": [
              "Npc_FadeIn"
            ]
          },
          "canBeInter": false
        },
        "Disappear": {
          "$type": "CKKKJKIBKNP",
          "animatorStates": {
            "Disappear": [
              "Npc_FadeOut"
            ]
          },
          "canBeInter": false
        },
        "FreeStyleReset": {
          "$type": "CKKKJKIBKNP",
          "animatorStates": {
            "HitLightBackrake01": [
              "Npc_ResetFreeStyle"
            ],
            "HitLightForerake01": [
              "Npc_ResetFreeStyle"
            ],
            "AfraidAS": [
              "Npc_ResetFreeStyle"
            ],
            "Alert01AS": [
              "Npc_ResetFreeStyle"
            ],
            "Clap01": [
              "Npc_ResetFreeStyle"
            ]
          }
        }
      }
    }
  },
  "billboard": {
    "$type": "KMCIKEIBFAH",
    "attachPoint": "BillboardAttach",
    "offset": {
      "x": -0.09000000357627869,
      "y": 0.009999999776482582
    },
    "offsetType": "Character",
    "radiusOffset": 0.12999999523162842,
    "showDistance": 20.0,
    "markShowDistance": 45.0
  },
  "defaultDither": 0.0,
  "aibeta": {
    "enable": true,
    "friendliness": 1,
    "moveSetting": {
      "navMeshAgentName": "Undead01",
      "almostReachedDistanceWalk": 0.30000001192092896,
      "almostReachedDistanceRun": 0.6000000238418579,
      "NILICNIGJKK": true
    },
    "sensing": {
      "settings": {
        "DefaultSetting": {
          "viewRange": 10.0,
          "horizontalFov": 150.0,
          "verticalFov": 180.0,
          "hearAttractionRange": 9.0,
          "hearFootstepRange": 8.0,
          "feelRange": 2.5
        }
      }
    },
    "threat": {
      "GHIJMOKOLMB": "",
      "clearThreatTargetDistance": 25.0,
      "clearThreatEdgeDistance": 0.0,
      "viewThreatGrow": 35.0,
      "hearThreatGrow": 25.0,
      "feelThreatGrow": 70.0,
      "threatBroadcastRange": 1.0,
      "viewAttenuation": [
        {
          "x": 2.0,
          "y": 4.099999904632568
        },
        {
          "x": 5.0,
          "y": 2.9000000953674316
        },
        {
          "x": 8.0,
          "y": 1.5
        },
        {
          "x": 12.0,
          "y": 0.800000011920929
        },
        {
          "x": 15.0,
          "y": 0.5
        }
      ],
      "hearAttenuation": [
        {
          "x": 3.0,
          "y": 2.0999999046325684
        },
        {
          "x": 5.0,
          "y": 1.100000023841858
        },
        {
          "x": 7.0,
          "y": 0.6000000238418579
        }
      ]
    },
    "defendArea": {
      "enable": false
    },
    "birdCirclingTactic": [
      {
        "$type": "MJJFBALNDCH",
        "enable": true,
        "JMCOBEPDIGM": {
          "ANLAAGAMIKF": 1,
          "DKFEDPBEHOG": true,
          "MNPDDAKDHGK": "",
          "GJDMDHIBCME": ""
        }
      }
    ]
  },
  "move": {
    "$type": "IHIDJIBILEL",
    "PKHOMJHFAEE": "RootNode"
  },
  "elementPendantPoint": "PRIVATE_Pendant"
}