{
  "luaDataPath": "",
  "entityBan": "",
  "disableNpcLod": true,
  "protectNpcMobileLod": true,
  "talkFlag": 7,
  "startFade": {
    "startFadeOutDuration": 0.0
  },
  "endFade": {
    "startFadeOutDuration": 0.0
  },
  "actors": [
    {
      "alias": "Avatar",
      "visible": true,
      "bornPointName": "",
      "relativePosType": "AVATAR_NEW",
      "relativePosNpcAlias": "",
      "_notDestroyInTalk": true,
      "_bindMovingTargetKey": ""
    },
    {
      "configID": 30555,
      "alias": "30555",
      "visible": true,
      "bornPointName": "",
      "relativePosType": "AVATAR_NEW",
      "relativePosNpcAlias": "",
      "_notDestroyInTalk": true,
      "_bindMovingTargetKey": ""
    },
    {
      "configID": 30568,
      "alias": "30568",
      "visible": true,
      "bornPointName": "",
      "relativePosType": "AVATAR_NEW",
      "relativePosNpcAlias": "",
      "_notDestroyInTalk": true,
      "_bindMovingTargetKey": ""
    }
  ],
  "group": [
    [
      {
        "$type": "MoleMole.Config.ConfigTimeProtectAction",
        "type": "TIME_PROTECT",
        "duration": 0.10000000149011612,
        "actionId": 104
      },
      {
        "$type": "MFLLBDNLNBG",
        "type": "STEER_TO",
        "delayTime": 0.30000001192092896,
        "duration": 0.800000011920929,
        "aliasList": [
          "Avatar"
        ],
        "actionId": 114,
        "_flag": 32,
        "steerType": "TO_TARGET_ADVANCED",
        "useSteerAnim": true,
        "interruptFreestyle": true,
        "forceSteer": true,
        "targetNpcAlias": "30555",
        "fixInterNull": true,
        "APKIBBLJLON": ""
      },
      {
        "$type": "KMKDFCOPMLP",
        "type": "LOOK_AT",
        "aliasList": [
          "Avatar"
        ],
        "actionId": 123,
        "_flag": 64,
        "enableHead": true,
        "headTurnTime": 0.5,
        "targetNpcAlias": "30555",
        "openBackProtect": true,
        "backProtectAngle": 10.0,
        "targetNpcLookAtPoint": "",
        "APKIBBLJLON": ""
      },
      {
        "$type": "KMKDFCOPMLP",
        "type": "LOOK_AT",
        "aliasList": [
          "30568"
        ],
        "actionId": 124,
        "_flag": 64,
        "enableHead": true,
        "headTurnTime": 0.5,
        "targetNpcAlias": "30555",
        "openBackProtect": true,
        "backProtectAngle": 10.0,
        "targetNpcLookAtPoint": "",
        "APKIBBLJLON": ""
      },
      {
        "$type": "KMKDFCOPMLP",
        "type": "LOOK_AT",
        "aliasList": [
          "30555"
        ],
        "actionId": 125,
        "_flag": 64,
        "enableHead": true,
        "headTurnTime": 0.5,
        "targetNpcAlias": "30568",
        "openBackProtect": true,
        "backProtectAngle": 10.0,
        "targetNpcLookAtPoint": "",
        "APKIBBLJLON": ""
      },
      {
        "$type": "MoleMole.Config.ConfigCameraFocusNewInterAction",
        "type": "CAMERA_FOCUS_NEW",
        "duration": 0.10000000149011612,
        "actionId": 127,
        "useExtendedFocus": true,
        "focusExtendedSetting": {
          "duration": 1.0,
          "refPosData": {
            "type": "TARGET_NPC",
            "posOffset": {
              "y": 1.100000023841858
            },
            "npcAlias": "30568"
          },
          "tarPosData": {
            "type": "TARGET_NPC",
            "posOffset": {
              "y": 1.100000023841858
            },
            "npcAlias": "30555"
          }
        }
      },
      {
        "$type": "AHHBJGEHACH",
        "type": "BODY_LANG",
        "aliasList": [
          "30555"
        ],
        "actionId": 135,
        "_flag": 131072,
        "isContinue": true,
        "forceDoFreeStyle": true,
        "canDoRepeatFreeStyle": false,
        "cantBackToIdleWhenSitLoop": true,
        "eventPatternSuiteKey": ""
      },
      {
        "$type": "AHHBJGEHACH",
        "type": "BODY_LANG",
        "aliasList": [
          "30568"
        ],
        "actionId": 136,
        "_flag": 131072,
        "isContinue": true,
        "forceDoFreeStyle": true,
        "canDoRepeatFreeStyle": false,
        "cantBackToIdleWhenSitLoop": true,
        "eventPatternSuiteKey": ""
      },
      {
        "$type": "MFLLBDNLNBG",
        "type": "STEER_TO",
        "delayTime": 0.30000001192092896,
        "duration": 1.0,
        "aliasList": [
          "30568"
        ],
        "actionId": 137,
        "_flag": 32,
        "steerType": "TO_TARGET_ADVANCED",
        "useSteerAnim": true,
        "interruptFreestyle": true,
        "targetNpcAlias": "30555",
        "ignoreY": true,
        "fixInterNull": true,
        "advancedMaxSteerAngle": 150.0,
        "advancedMinSteerAngle": 40.0,
        "APKIBBLJLON": ""
      },
      {
        "$type": "MFLLBDNLNBG",
        "type": "STEER_TO",
        "delayTime": 0.30000001192092896,
        "duration": 1.0,
        "aliasList": [
          "30555"
        ],
        "actionId": 138,
        "_flag": 32,
        "steerType": "TO_TARGET_ADVANCED",
        "useSteerAnim": true,
        "interruptFreestyle": true,
        "targetNpcAlias": "30568",
        "ignoreY": true,
        "fixInterNull": true,
        "advancedMaxSteerAngle": 150.0,
        "advancedMinSteerAngle": 40.0,
        "APKIBBLJLON": ""
      }
    ],
    [
      {
        "$type": "NDPINFEKFAN",
        "type": "DIALOG",
        "aliasList": [
          "30555"
        ],
        "actionId": 107,
        "dialogID": 401624301,
        "protectTime": 0.5
      },
      {
        "$type": "AHHBJGEHACH",
        "type": "BODY_LANG",
        "aliasList": [
          "30555"
        ],
        "actionId": 119,
        "_flag": 131072,
        "bodyLangParam": 1,
        "forceDoFreeStyle": true,
        "canDoRepeatFreeStyle": false,
        "cantBackToIdleWhenSitLoop": true,
        "eventPatternSuiteKey": ""
      }
    ],
    [
      {
        "$type": "NDPINFEKFAN",
        "type": "DIALOG",
        "aliasList": [
          "30568"
        ],
        "actionId": 109,
        "dialogID": 401624302,
        "protectTime": 0.5
      },
      {
        "$type": "AHHBJGEHACH",
        "type": "BODY_LANG",
        "aliasList": [
          "30568"
        ],
        "actionId": 120,
        "_flag": 131072,
        "bodyLangParam": 1,
        "forceDoFreeStyle": true,
        "canDoRepeatFreeStyle": false,
        "cantBackToIdleWhenSitLoop": true,
        "eventPatternSuiteKey": ""
      },
      {
        "$type": "KMKDFCOPMLP",
        "type": "LOOK_AT",
        "delayTime": 0.34200000762939453,
        "aliasList": [
          "Avatar"
        ],
        "actionId": 128,
        "_flag": 64,
        "enableHead": true,
        "headTurnTime": 0.5,
        "targetNpcAlias": "30568",
        "openBackProtect": true,
        "backProtectAngle": 10.0,
        "targetNpcLookAtPoint": "",
        "APKIBBLJLON": ""
      },
      {
        "$type": "AHHBJGEHACH",
        "type": "BODY_LANG",
        "aliasList": [
          "30555"
        ],
        "actionId": 132,
        "_flag": 131072,
        "isContinue": true,
        "forceDoFreeStyle": true,
        "canDoRepeatFreeStyle": false,
        "cantBackToIdleWhenSitLoop": true,
        "eventPatternSuiteKey": ""
      },
      {
        "$type": "AHHBJGEHACH",
        "type": "BODY_LANG",
        "delayTime": 6.49399995803833,
        "aliasList": [
          "30568"
        ],
        "actionId": 133,
        "_flag": 131072,
        "bodyLangParam": 5,
        "forceDoFreeStyle": true,
        "canDoRepeatFreeStyle": false,
        "cantBackToIdleWhenSitLoop": true,
        "eventPatternSuiteKey": ""
      }
    ],
    [
      {
        "$type": "NDPINFEKFAN",
        "type": "DIALOG",
        "aliasList": [
          "30555"
        ],
        "actionId": 111,
        "dialogID": 401624303,
        "protectTime": 0.5
      },
      {
        "$type": "AHHBJGEHACH",
        "type": "BODY_LANG",
        "aliasList": [
          "30555"
        ],
        "actionId": 121,
        "_flag": 131072,
        "bodyLangParam": 5,
        "forceDoFreeStyle": true,
        "canDoRepeatFreeStyle": false,
        "cantBackToIdleWhenSitLoop": true,
        "eventPatternSuiteKey": ""
      },
      {
        "$type": "KMKDFCOPMLP",
        "type": "LOOK_AT",
        "delayTime": 0.34200000762939453,
        "aliasList": [
          "Avatar"
        ],
        "actionId": 129,
        "_flag": 64,
        "enableHead": true,
        "headTurnTime": 0.5,
        "targetNpcAlias": "30555",
        "openBackProtect": true,
        "backProtectAngle": 10.0,
        "targetNpcLookAtPoint": "",
        "APKIBBLJLON": ""
      },
      {
        "$type": "AHHBJGEHACH",
        "type": "BODY_LANG",
        "aliasList": [
          "30568"
        ],
        "actionId": 131,
        "_flag": 131072,
        "isContinue": true,
        "forceDoFreeStyle": true,
        "canDoRepeatFreeStyle": false,
        "cantBackToIdleWhenSitLoop": true,
        "eventPatternSuiteKey": ""
      }
    ],
    [
      {
        "$type": "NDPINFEKFAN",
        "type": "DIALOG",
        "aliasList": [
          "30568"
        ],
        "actionId": 113,
        "dialogID": 401624304,
        "protectTime": 0.5
      },
      {
        "$type": "AHHBJGEHACH",
        "type": "BODY_LANG",
        "aliasList": [
          "30568"
        ],
        "actionId": 122,
        "_flag": 131072,
        "bodyLangParam": 1,
        "forceDoFreeStyle": true,
        "canDoRepeatFreeStyle": false,
        "cantBackToIdleWhenSitLoop": true,
        "eventPatternSuiteKey": ""
      },
      {
        "$type": "KMKDFCOPMLP",
        "type": "LOOK_AT",
        "delayTime": 0.34200000762939453,
        "aliasList": [
          "Avatar"
        ],
        "actionId": 130,
        "_flag": 64,
        "enableHead": true,
        "headTurnTime": 0.5,
        "targetNpcAlias": "30568",
        "openBackProtect": true,
        "backProtectAngle": 10.0,
        "targetNpcLookAtPoint": "",
        "APKIBBLJLON": ""
      }
    ],
    [
      {
        "$type": "MoleMole.Config.ConfigTimeProtectAction",
        "type": "TIME_PROTECT",
        "duration": 0.10000000149011612,
        "actionId": 105
      },
      {
        "$type": "KMKDFCOPMLP",
        "type": "LOOK_AT",
        "aliasList": [
          "Avatar"
        ],
        "actionId": 134,
        "_flag": 64,
        "enableHead": true,
        "headTurnTime": 0.5,
        "targetNpcAlias": "",
        "openBackProtect": true,
        "backProtectAngle": 10.0,
        "targetNpcLookAtPoint": "",
        "APKIBBLJLON": ""
      },
      {
        "$type": "KMKDFCOPMLP",
        "type": "LOOK_AT",
        "aliasList": [
          "30568"
        ],
        "actionId": 139,
        "_flag": 64,
        "enableHead": true,
        "headTurnTime": 0.5,
        "targetNpcAlias": "30555",
        "openBackProtect": true,
        "backProtectAngle": 10.0,
        "targetNpcLookAtPoint": "",
        "APKIBBLJLON": ""
      },
      {
        "$type": "MFLLBDNLNBG",
        "type": "STEER_TO",
        "delayTime": 0.30000001192092896,
        "duration": 1.0,
        "aliasList": [
          "30568"
        ],
        "actionId": 140,
        "_flag": 32,
        "steerType": "RETURN",
        "useSteerAnim": true,
        "interruptFreestyle": true,
        "targetNpcAlias": "30555",
        "ignoreY": true,
        "fixInterNull": true,
        "advancedMaxSteerAngle": 150.0,
        "advancedMinSteerAngle": 40.0,
        "APKIBBLJLON": ""
      },
      {
        "$type": "KMKDFCOPMLP",
        "type": "LOOK_AT",
        "aliasList": [
          "30555"
        ],
        "actionId": 141,
        "_flag": 64,
        "enableHead": true,
        "headTurnTime": 0.5,
        "targetNpcAlias": "30568",
        "openBackProtect": true,
        "backProtectAngle": 10.0,
        "targetNpcLookAtPoint": "",
        "APKIBBLJLON": ""
      },
      {
        "$type": "MFLLBDNLNBG",
        "type": "STEER_TO",
        "delayTime": 0.30000001192092896,
        "duration": 1.0,
        "aliasList": [
          "30555"
        ],
        "actionId": 142,
        "_flag": 32,
        "steerType": "RETURN",
        "useSteerAnim": true,
        "interruptFreestyle": true,
        "targetNpcAlias": "30568",
        "ignoreY": true,
        "fixInterNull": true,
        "advancedMaxSteerAngle": 150.0,
        "advancedMinSteerAngle": 40.0,
        "APKIBBLJLON": ""
      }
    ]
  ],
  "groupId": [
    {
      "grpId": 1961823548,
      "nextGrpId": 1961823549,
      "_noCircleNextGrpId": 1961823549
    },
    {
      "index": 1,
      "grpId": 1961823549,
      "nextGrpId": 1961823550,
      "_noCircleNextGrpId": 1961823550
    },
    {
      "index": 2,
      "grpId": 1961823550,
      "nextGrpId": 1961823551,
      "_noCircleNextGrpId": 1961823551
    },
    {
      "index": 3,
      "grpId": 1961823551,
      "nextGrpId": 1961823552,
      "_noCircleNextGrpId": 1961823552
    },
    {
      "index": 4,
      "grpId": 1961823552,
      "nextGrpId": 1961823553,
      "_noCircleNextGrpId": 1961823553
    },
    {
      "index": 5,
      "grpId": 1961823553,
      "nextGrpId": 1961823554,
      "_noCircleNextGrpId": 1961823554
    }
  ],
  "DOGNDDGFIOE": 1961823553
}