[
  {
    "Default": {
      "$type": "CBPBEHLOHKI",
      "abilityName": "FairyBook_MelodramaClockwork_CommonSpring_01",
      "abilityMixins": [
        {
          "$type": "BPKALFNJLIG",
          "modifierName": "EnabledState"
        },
        {
          "$type": "BPKALFNJLIG",
          "gadgetState": 202,
          "modifierName": "DisableState"
        },
        {
          "$type": "LHOLBDMAKGC",
          "MBIGJGBJDPF": "GV_Rotation",
          "isNormalized": false,
          "normalizedRange": [
            -99999.0,
            99999.0
          ],
          "ELEMCOGCPEL": "SpringPart",
          "BHLBKKHBNAA": 1,
          "sgvIDKey": "",
          "MLOLBLAMLIO": 0.20000000298023224,
          "PMFFCMOPHII": true,
          "FCEPGFMMIFM": true
        },
        {
          "$type": "CCNIOPJEHOE",
          "otherTargets": {
            "$type": "DHIEBMIGAPF",
            "EFMFHCKOOIL": 0.0
          },
          "globalValueKey": "GV_Grip_State",
          "valueSteps": [
            -0.5,
            0.5,
            1.5,
            2.5,
            3.5,
            4.5
          ],
          "modifierNameSteps": [
            "Spring_Pause",
            "Spring_Forward",
            "Spring_Reverse",
            "Spring_Stuck",
            "Spring_Finish"
          ]
        },
        {
          "$type": "CCNIOPJEHOE",
          "otherTargets": {
            "$type": "DHIEBMIGAPF",
            "EFMFHCKOOIL": 0.0
          },
          "globalValueKey": "GV_Cur_Order",
          "valueSteps": [
            -0.5,
            0.5,
            1.5,
            2.5,
            3.5,
            4.5
          ],
          "modifierNameSteps": [
            "SyncTimelineIdx_00",
            "SyncTimelineIdx_01",
            "SyncTimelineIdx_02",
            "SyncTimelineIdx_03",
            "SyncTimelineIdx_04"
          ]
        }
      ],
      "HKFPCGFFKMJ": [
        "GV_Rotation",
        "SGV_MeloDrama_Count"
      ],
      "modifiers": {
        "EnabledState": {
          "modifierName": "",
          "IPFJJJGABPL": 100.0
        },
        "SyncTimelineIdx_00": {
          "modifierName": "",
          "elementDurability": 0.20000000298023224,
          "IPFJJJGABPL": 100.0,
          "onAdded": [
            {
              "$type": "FNPMFLOOCDD",
              "param3": 0.0,
              "key": "GV_MeloDrama_Progress",
              "param2": 0.0,
              "repeatTimes": 0.0
            }
          ]
        },
        "SyncTimelineIdx_01": {
          "modifierName": "",
          "elementDurability": 0.20000000298023224,
          "IPFJJJGABPL": 100.0,
          "onAdded": [
            {
              "$type": "FNPMFLOOCDD",
              "param3": 0.0,
              "key": "GV_MeloDrama_Progress",
              "param2": 0.0,
              "repeatTimes": 0.0
            }
          ]
        },
        "SyncTimelineIdx_02": {
          "modifierName": "",
          "elementDurability": 0.20000000298023224,
          "IPFJJJGABPL": 100.0,
          "onAdded": [
            {
              "$type": "FNPMFLOOCDD",
              "param3": [
                1.0,
                "SGV_MeloDrama_Count",
                "DIV"
              ],
              "key": "GV_MeloDrama_Progress",
              "param2": 0.0,
              "repeatTimes": 0.0
            }
          ]
        },
        "SyncTimelineIdx_03": {
          "modifierName": "",
          "elementDurability": 0.20000000298023224,
          "IPFJJJGABPL": 100.0,
          "onAdded": [
            {
              "$type": "FNPMFLOOCDD",
              "param3": [
                2.0,
                "SGV_MeloDrama_Count",
                "DIV"
              ],
              "key": "GV_MeloDrama_Progress",
              "param2": 0.0,
              "repeatTimes": 0.0
            }
          ]
        },
        "SyncTimelineIdx_04": {
          "modifierName": "",
          "elementDurability": 0.20000000298023224,
          "IPFJJJGABPL": 100.0,
          "onAdded": [
            {
              "$type": "FNPMFLOOCDD",
              "param3": [
                3.0,
                "SGV_MeloDrama_Count",
                "DIV"
              ],
              "key": "GV_MeloDrama_Progress",
              "param2": 0.0,
              "repeatTimes": 0.0
            }
          ]
        },
        "DisableState": {
          "modifierName": "",
          "IPFJJJGABPL": 100.0,
          "onAdded": [
            {
              "$type": "FNPMFLOOCDD",
              "param3": 0.0,
              "key": "GV_IconDisplay",
              "param2": 0.0,
              "repeatTimes": 0.0
            }
          ]
        },
        "Spring_Pause": {
          "modifierName": "",
          "IPFJJJGABPL": 100.0,
          "onAdded": [
            {
              "$type": "FNPMFLOOCDD",
              "param3": 0.0,
              "key": "GV_SpringMsg",
              "param2": 0.0,
              "repeatTimes": 0.0
            },
            {
              "$type": "FNPMFLOOCDD",
              "param3": 0.0,
              "key": "GV_Grip_State_Cache",
              "param2": 0.0,
              "repeatTimes": 0.0
            }
          ],
          "onBeingHit": [
            {
              "$type": "KBFEIHEAMBM",
              "predicates": [
                {
                  "$type": "HNLCJOPBDLC"
                }
              ],
              "rotationDampTime": "Eff_SceneObj_MelodramaClockwork_02",
              "PPPDJGDDOGD": 1.0,
              "AJDILHJFNKE": -1.0
            },
            {
              "$type": "AHPEKICBIIL",
              "luaCallType": "FromGroup",
              "funcName": "SLC_PlayerHitSpring",
              "param1": 0.0,
              "MGAMDEHMCOL": 0.0,
              "MMHOHAOGPLP": 0.0
            },
            {
              "$type": "FNPMFLOOCDD",
              "predicates": [
                {
                  "$type": "HNLCJOPBDLC"
                }
              ],
              "param3": 1.0,
              "key": "GV_SpringMsg",
              "param2": 0.0,
              "repeatTimes": 0.0
            }
          ]
        },
        "Spring_Reverse": {
          "modifierName": "",
          "IPFJJJGABPL": 100.0,
          "thinkInterval": 0.10000000149011612,
          "modifierMixins": [
            {
              "$type": "IOMONJDPOEC",
              "onAdded": [
                "V4_8_FairyBook_Clockwork_Wood_TurnBack_On"
              ],
              "onRemoved": [
                "V4_8_FairyBook_Clockwork_Wood_TurnBack_Off"
              ]
            }
          ],
          "onAdded": [
            {
              "$type": "ONEOKBONCFN",
              "otherTargets": {
                "$type": "IJOFJOGLDHE",
                "sortType": "Nearest",
                "shapeName": "CircleR16.5H4",
                "campTargetType": "AllExceptSelf",
                "doOffStage": 1.0
              },
              "predicates": [
                {
                  "$type": "NIMAPECDNKD",
                  "entityTypes": [
                    "Avatar"
                  ]
                }
              ],
              "rotationDampTime": "Fairybook_Screen",
              "effectSlot": "MainPagePlugin",
              "FABDGLCCFEI": true
            },
            {
              "$type": "FNPMFLOOCDD",
              "param3": 1.0,
              "key": "GV_IconDisplay",
              "param2": 0.0,
              "repeatTimes": 0.0
            },
            {
              "$type": "FNPMFLOOCDD",
              "param3": 2.0,
              "key": "GV_Grip_State_Cache",
              "param2": 0.0,
              "repeatTimes": 0.0
            }
          ],
          "onBeingHit": [
            {
              "$type": "AHPEKICBIIL",
              "luaCallType": "FromGroup",
              "funcName": "SLC_PlayerHitSpring",
              "param1": 0.0,
              "MGAMDEHMCOL": 0.0,
              "MMHOHAOGPLP": 0.0
            }
          ],
          "onThinkInterval": [
            {
              "$type": "LCOEFEMOHLP",
              "param3": -0.10000000149011612,
              "key": "GV_Rotation",
              "param2": 0.0,
              "repeatTimes": 0.0
            }
          ]
        },
        "Spring_Forward": {
          "modifierName": "",
          "IPFJJJGABPL": 100.0,
          "thinkInterval": 0.10000000149011612,
          "modifierMixins": [
            {
              "$type": "IOMONJDPOEC",
              "onAdded": [
                "V4_8_FairyBook_Clockwork_Wood_TurnStart_On"
              ],
              "onRemoved": [
                "V4_8_FairyBook_Clockwork_Wood_TurnStart_Off"
              ]
            }
          ],
          "onAdded": [
            {
              "$type": "FNPMFLOOCDD",
              "param3": 0.0,
              "key": "GV_IconDisplay",
              "param2": 0.0,
              "repeatTimes": 0.0
            },
            {
              "$type": "FNPMFLOOCDD",
              "param3": 1.0,
              "key": "GV_Grip_State_Cache",
              "param2": 0.0,
              "repeatTimes": 0.0
            }
          ],
          "onBeingHit": [
            {
              "$type": "AHPEKICBIIL",
              "luaCallType": "FromGroup",
              "funcName": "SLC_PlayerHitSpring",
              "param1": 0.0,
              "MGAMDEHMCOL": 0.0,
              "MMHOHAOGPLP": 0.0
            },
            {
              "$type": "FNPMFLOOCDD",
              "predicates": [
                {
                  "$type": "HNLCJOPBDLC"
                }
              ],
              "param3": 1.0,
              "key": "GV_SpringMsg",
              "param2": 0.0,
              "repeatTimes": 0.0
            }
          ],
          "onThinkInterval": [
            {
              "$type": "LCOEFEMOHLP",
              "param3": 0.019999999552965164,
              "key": "GV_Rotation",
              "param2": 0.0,
              "repeatTimes": 0.0
            }
          ]
        },
        "Spring_Stuck": {
          "modifierName": "",
          "IPFJJJGABPL": 100.0,
          "onAdded": [
            {
              "$type": "FNPMFLOOCDD",
              "param3": 0.0,
              "key": "GV_SpringMsg",
              "param2": 0.0,
              "repeatTimes": 0.0
            },
            {
              "$type": "KBFEIHEAMBM",
              "rotationDampTime": "Eff_SceneObj_MelodramaClockwork_02",
              "PPPDJGDDOGD": 1.0,
              "AJDILHJFNKE": -1.0
            },
            {
              "$type": "BLCCGIPAOIP",
              "PLLJBINMGJK": "Shake",
              "mpTriggerOnRemote": true
            },
            {
              "$type": "FNPMFLOOCDD",
              "param3": 1.0,
              "key": "GV_IconDisplay",
              "param2": 0.0,
              "repeatTimes": 0.0
            },
            {
              "$type": "FNPMFLOOCDD",
              "param3": 3.0,
              "key": "GV_Grip_State_Cache",
              "param2": 0.0,
              "repeatTimes": 0.0
            }
          ],
          "onBeingHit": [
            {
              "$type": "KBFEIHEAMBM",
              "predicates": [
                {
                  "$type": "HNLCJOPBDLC"
                }
              ],
              "rotationDampTime": "Eff_SceneObj_MelodramaClockwork_02",
              "PPPDJGDDOGD": 1.0,
              "AJDILHJFNKE": -1.0
            },
            {
              "$type": "BLCCGIPAOIP",
              "predicates": [
                {
                  "$type": "HNLCJOPBDLC"
                }
              ],
              "PLLJBINMGJK": "Shake",
              "mpTriggerOnRemote": true
            },
            {
              "$type": "AHPEKICBIIL",
              "luaCallType": "FromGroup",
              "funcName": "SLC_PlayerHitSpring",
              "param1": 0.0,
              "MGAMDEHMCOL": 0.0,
              "MMHOHAOGPLP": 0.0
            }
          ]
        },
        "Spring_Finish": {
          "modifierName": "",
          "IPFJJJGABPL": 100.0,
          "onAdded": [
            {
              "$type": "FNPMFLOOCDD",
              "param3": 0.0,
              "key": "GV_SpringMsg",
              "param2": 0.0,
              "repeatTimes": 0.0
            },
            {
              "$type": "FNPMFLOOCDD",
              "param3": 0.0,
              "key": "GV_IconDisplay",
              "param2": 0.0,
              "repeatTimes": 0.0
            },
            {
              "$type": "FNPMFLOOCDD",
              "param3": 4.0,
              "key": "GV_Grip_State_Cache",
              "param2": 0.0,
              "repeatTimes": 0.0
            }
          ],
          "onBeingHit": [
            {
              "$type": "AHPEKICBIIL",
              "luaCallType": "FromGroup",
              "funcName": "SLC_PlayerHitSpring",
              "param1": 0.0,
              "MGAMDEHMCOL": 0.0,
              "MMHOHAOGPLP": 0.0
            },
            {
              "$type": "FNPMFLOOCDD",
              "predicates": [
                {
                  "$type": "HNLCJOPBDLC"
                }
              ],
              "param3": 1.0,
              "key": "GV_SpringMsg",
              "param2": 0.0,
              "repeatTimes": 0.0
            }
          ]
        },
        "Spring_Effect": {
          "modifierName": "",
          "IPFJJJGABPL": 100.0,
          "onAdded": [
            {
              "$type": "ANLOBBMKNIJ",
              "rotationDampTime": "Eff_SceneObj_MelodramaClockwork_01",
              "PPPDJGDDOGD": 1.0,
              "AJDILHJFNKE": -1.0
            }
          ]
        }
      },
      "onAdded": [
        {
          "$type": "FNPMFLOOCDD",
          "param3": 0.0,
          "key": "GV_SpringMsg",
          "param2": 0.0,
          "repeatTimes": 0.0
        },
        {
          "$type": "FNPMFLOOCDD",
          "param3": 0.0,
          "key": "GV_Rotation",
          "param2": 0.0,
          "repeatTimes": 0.0
        },
        {
          "$type": "FNPMFLOOCDD",
          "param3": 0.0,
          "key": "GV_IconDisplay",
          "param2": 0.0,
          "repeatTimes": 0.0
        },
        {
          "$type": "FNPMFLOOCDD",
          "param3": 0.0,
          "key": "GV_Grip_State_Cache",
          "param2": 0.0,
          "repeatTimes": 0.0
        },
        {
          "$type": "FNPMFLOOCDD",
          "param3": 1.0,
          "key": "GV_MeloDrama_Progress",
          "param2": 0.0,
          "repeatTimes": 0.0
        },
        {
          "$type": "JLDEMMJAMLC",
          "modifierName": "Spring_Effect"
        }
      ],
      "onKill": [
        {
          "$type": "KBFEIHEAMBM",
          "rotationDampTime": "Eff_SceneObj_MelodramaClockwork_03",
          "PPPDJGDDOGD": 1.0,
          "AJDILHJFNKE": -1.0
        }
      ]
    }
  },
  {
    "Default": {
      "$type": "CBPBEHLOHKI",
      "abilityName": "FairyBook_MelodramaClockwork_Grip_Init_Ability",
      "abilityMixins": [
        {
          "$type": "MLJAPFBGEEH",
          "globalValueKey": "GV_Grip_State",
          "gvInTalk": 0.0,
          "valueSteps": [
            0.5,
            2.5
          ],
          "modifierNameSteps": [
            "FindRock_AndKill"
          ]
        },
        {
          "$type": "NDFFAEHJMAL",
          "globalValueKey": "GV_Grip_State",
          "actions": [
            {
              "$type": "LDIAIDLOPEE",
              "globalValueKey": "GV_Grip_State",
              "overrideMapKey": "gripState"
            },
            {
              "$type": "AHPEKICBIIL",
              "luaCallType": "FromGroup",
              "funcName": "SLC_GripSyncGlobalValue",
              "paramNum": 1,
              "param1": "gripState",
              "MGAMDEHMCOL": 0.0,
              "MMHOHAOGPLP": 0.0
            }
          ],
          "KBAAABINCDL": true
        },
        {
          "$type": "NDFFAEHJMAL",
          "globalValueKey": "GV_Cur_Timeline",
          "actions": [
            {
              "$type": "LDIAIDLOPEE",
              "globalValueKey": "GV_Cur_Timeline",
              "overrideMapKey": "timelineIdx"
            },
            {
              "$type": "AHPEKICBIIL",
              "luaCallType": "FromGroup",
              "funcName": "SLC_SyncTimelineIdx",
              "paramNum": 1,
              "param1": "timelineIdx",
              "MGAMDEHMCOL": 0.0,
              "MMHOHAOGPLP": 0.0
            }
          ],
          "KBAAABINCDL": true
        },
        {
          "$type": "NDFFAEHJMAL",
          "globalValueKey": "GV_MeloDrama_Event_Both",
          "actions": [
            {
              "$type": "LDIAIDLOPEE",
              "globalValueKey": "GV_MeloDrama_Event_Both",
              "overrideMapKey": "both"
            },
            {
              "$type": "AHPEKICBIIL",
              "luaCallType": "FromGroup",
              "funcName": "SLC_SyncBothEvent",
              "paramNum": 1,
              "param1": "both",
              "MGAMDEHMCOL": 0.0,
              "MMHOHAOGPLP": 0.0
            }
          ],
          "KBAAABINCDL": true
        },
        {
          "$type": "NDFFAEHJMAL",
          "globalValueKey": "GV_MeloDrama_Event_Reverse",
          "actions": [
            {
              "$type": "LDIAIDLOPEE",
              "globalValueKey": "GV_MeloDrama_Event_Reverse",
              "overrideMapKey": "reverse"
            },
            {
              "$type": "AHPEKICBIIL",
              "luaCallType": "FromGroup",
              "funcName": "SLC_SyncReverseEvent",
              "paramNum": 1,
              "param1": "reverse",
              "MGAMDEHMCOL": 0.0,
              "MMHOHAOGPLP": 0.0
            }
          ],
          "KBAAABINCDL": true
        },
        {
          "$type": "NDFFAEHJMAL",
          "globalValueKey": "GV_MeloDrama_Event_Forward",
          "actions": [
            {
              "$type": "LDIAIDLOPEE",
              "globalValueKey": "GV_MeloDrama_Event_Forward",
              "overrideMapKey": "forward"
            },
            {
              "$type": "AHPEKICBIIL",
              "luaCallType": "FromGroup",
              "funcName": "SLC_SyncForwardEvent",
              "paramNum": 1,
              "param1": "forward",
              "MGAMDEHMCOL": 0.0,
              "MMHOHAOGPLP": 0.0
            }
          ],
          "KBAAABINCDL": true
        },
        {
          "$type": "NDFFAEHJMAL",
          "globalValueKey": "GV_MeloDrama_ButtonEnter",
          "actions": [
            {
              "$type": "INBCDALOHMP",
              "targetPredicates": [
                {
                  "$type": "BCFNGJHILAG",
                  "predicates": [
                    {
                      "$type": "CNGGLKHONAA",
                      "key": "GV_MeloDrama_ButtonEnter",
                      "param3": 0.0
                    }
                  ]
                }
              ],
              "successActions": [
                {
                  "$type": "LDIAIDLOPEE",
                  "globalValueKey": "GV_MeloDrama_ButtonEnter",
                  "overrideMapKey": "buttonType"
                },
                {
                  "$type": "AHPEKICBIIL",
                  "luaCallType": "FromGroup",
                  "funcName": "SLC_ButtonEnter",
                  "paramNum": 1,
                  "param1": "buttonType",
                  "MGAMDEHMCOL": 0.0,
                  "MMHOHAOGPLP": 0.0
                },
                {
                  "$type": "PELJALPANCA",
                  "otherTargets": {
                    "$type": "DHIEBMIGAPF",
                    "EFMFHCKOOIL": "GV_MeloDrama_ButtonEnter"
                  },
                  "modifierName": "ButtonDown"
                },
                {
                  "$type": "FNPMFLOOCDD",
                  "param3": 0.0,
                  "key": "GV_MeloDrama_ButtonExit",
                  "param2": 0.0,
                  "repeatTimes": 0.0
                }
              ]
            }
          ],
          "KBAAABINCDL": true
        },
        {
          "$type": "NDFFAEHJMAL",
          "globalValueKey": "GV_MeloDrama_ButtonExit",
          "actions": [
            {
              "$type": "INBCDALOHMP",
              "targetPredicates": [
                {
                  "$type": "BCFNGJHILAG",
                  "predicates": [
                    {
                      "$type": "CNGGLKHONAA",
                      "key": "GV_MeloDrama_ButtonExit",
                      "param3": 0.0
                    }
                  ]
                }
              ],
              "successActions": [
                {
                  "$type": "PELJALPANCA",
                  "otherTargets": {
                    "$type": "DHIEBMIGAPF",
                    "EFMFHCKOOIL": "GV_MeloDrama_ButtonExit"
                  },
                  "modifierName": "ButtonUp"
                },
                {
                  "$type": "FNPMFLOOCDD",
                  "param3": 0.0,
                  "key": "GV_MeloDrama_ButtonEnter",
                  "param2": 0.0,
                  "repeatTimes": 0.0
                }
              ]
            }
          ],
          "KBAAABINCDL": true
        }
      ],
      "abilitySpecials": {
        "gripState": 0.0,
        "timelineIdx": 0.0,
        "forward": 0.0,
        "reverse": 0.0,
        "both": 0.0,
        "buttonType": 0.0
      },
      "HKFPCGFFKMJ": [
        "GV_MeloDrama_ButtonExit"
      ],
      "modifiers": {
        "ButtonDown": {
          "modifierName": "",
          "elementDurability": 0.20000000298023224,
          "IPFJJJGABPL": 100.0,
          "onAdded": [
            {
              "$type": "KJCHPDPBJHL",
              "boolID": "Press",
              "param3": true
            }
          ]
        },
        "ButtonUp": {
          "modifierName": "",
          "elementDurability": 0.20000000298023224,
          "IPFJJJGABPL": 100.0,
          "onAdded": [
            {
              "$type": "KJCHPDPBJHL",
              "boolID": "Press"
            }
          ]
        },
        "FindRock_AndKill": {
          "modifierName": "",
          "IPFJJJGABPL": 100.0,
          "thinkInterval": 0.4000000059604645,
          "onThinkInterval": [
            {
              "$type": "INBCDALOHMP",
              "otherTargets": {
                "$type": "IJOFJOGLDHE",
                "sortType": "Nearest",
                "shapeName": "CircleR16.5H4",
                "campTargetType": "AllExceptSelf",
                "doOffStage": 1.0
              },
              "targetPredicates": [
                {
                  "$type": "NIMAPECDNKD",
                  "entityTypes": [
                    "Gadget",
                    "Bullet",
                    "Field"
                  ]
                },
                {
                  "$type": "CNGGLKHONAA",
                  "key": "_COMMON_GADGET_ISSUMMON",
                  "param3": 1.0
                }
              ],
              "successActions": [
                {
                  "$type": "ELNHKGAPIBJ",
                  "content": "V4_8_FairyBook_SummonGadget_Destroyer -> Check Succ"
                },
                {
                  "$type": "PELJALPANCA",
                  "target": "Target",
                  "modifierName": "Summon_Suicide"
                }
              ]
            }
          ]
        },
        "Summon_Suicide": {
          "modifierName": "",
          "IPFJJJGABPL": 100.0,
          "onAdded": [
            {
              "$type": "NCFFNDHGCMH",
              "configIdArray": [
                70000000
              ]
            }
          ]
        }
      },
      "onAdded": [
        {
          "$type": "FNPMFLOOCDD",
          "param3": 0.0,
          "key": "GV_MeloDrama_Event_Forward",
          "param2": 0.0,
          "repeatTimes": 0.0
        },
        {
          "$type": "FNPMFLOOCDD",
          "param3": 0.0,
          "key": "GV_MeloDrama_Event_Reverse",
          "param2": 0.0,
          "repeatTimes": 0.0
        },
        {
          "$type": "FNPMFLOOCDD",
          "param3": 0.0,
          "key": "GV_MeloDrama_Event_Both",
          "param2": 0.0,
          "repeatTimes": 0.0
        }
      ]
    }
  },
  {
    "Default": {
      "$type": "CBPBEHLOHKI",
      "abilityName": "FairyBook_MelodramaClockwork_Grip_01_Ability",
      "abilityMixins": [
        {
          "$type": "LPKIBKAGPAK",
          "otherTargets": {
            "$type": "DHIEBMIGAPF",
            "EFMFHCKOOIL": 0.0
          },
          "DMIKDNHHEFE": 2.0,
          "PHCHECBJMLI": 5.0,
          "BGPAJMEDGLF": "GV_SpringMsg",
          "FMPIIFHDDHE": "GV_Grip_State",
          "EKPBLADKMFM": "GV_Cur_Timeline",
          "HAKEIFJNKKB": "GV_Cur_Order",
          "DNENJCGPPAF": "SGV_MeloDrama_InitIdx",
          "CPIJBBNNBHD": {
            "1": [
              {
                "KJJPJIDMOEC": 2
              }
            ],
            "2": [
              {
                "KJJPJIDMOEC": 3,
                "predicates": [
                  {
                    "$type": "CNGGLKHONAA",
                    "target": "Self",
                    "key": "SGV_MeloDrama_Step",
                    "param3": 0.0
                  }
                ]
              },
              {
                "KJJPJIDMOEC": 4,
                "predicates": [
                  {
                    "$type": "CNGGLKHONAA",
                    "target": "Self",
                    "key": "SGV_MeloDrama_Step",
                    "param3": 1.0
                  }
                ]
              }
            ]
          },
          "AIBEKFLDFDM": ""
        }
      ],
      "HKFPCGFFKMJ": [
        "SGV_MeloDrama_InitIdx"
      ]
    }
  },
  {
    "Default": {
      "$type": "CBPBEHLOHKI",
      "abilityName": "FairyBook_MelodramaClockwork_Grip_02_Ability",
      "abilityMixins": [
        {
          "$type": "LPKIBKAGPAK",
          "otherTargets": {
            "$type": "DHIEBMIGAPF",
            "EFMFHCKOOIL": 0.0
          },
          "DMIKDNHHEFE": 2.0,
          "PHCHECBJMLI": 5.0,
          "BGPAJMEDGLF": "GV_SpringMsg",
          "FMPIIFHDDHE": "GV_Grip_State",
          "EKPBLADKMFM": "GV_Cur_Timeline",
          "HAKEIFJNKKB": "GV_Cur_Order",
          "DNENJCGPPAF": "SGV_MeloDrama_InitIdx",
          "CPIJBBNNBHD": {
            "1": [
              {
                "KJJPJIDMOEC": 2,
                "predicates": [
                  {
                    "$type": "CNGGLKHONAA",
                    "target": "Self",
                    "key": "SGV_MeloDrama_Step",
                    "param3": 0.0
                  }
                ]
              },
              {
                "KJJPJIDMOEC": 3,
                "predicates": [
                  {
                    "$type": "CNGGLKHONAA",
                    "target": "Self",
                    "key": "SGV_MeloDrama_Step",
                    "param3": 1.0
                  }
                ]
              }
            ]
          },
          "AIBEKFLDFDM": ""
        }
      ],
      "HKFPCGFFKMJ": [
        "SGV_MeloDrama_InitIdx"
      ]
    }
  },
  {
    "Default": {
      "$type": "CBPBEHLOHKI",
      "abilityName": "FairyBook_MelodramaClockwork_Grip_03_Ability",
      "abilityMixins": [
        {
          "$type": "LPKIBKAGPAK",
          "otherTargets": {
            "$type": "DHIEBMIGAPF",
            "EFMFHCKOOIL": 0.0
          },
          "DMIKDNHHEFE": 2.0,
          "PHCHECBJMLI": 5.0,
          "BGPAJMEDGLF": "GV_SpringMsg",
          "FMPIIFHDDHE": "GV_Grip_State",
          "EKPBLADKMFM": "GV_Cur_Timeline",
          "HAKEIFJNKKB": "GV_Cur_Order",
          "DNENJCGPPAF": "SGV_MeloDrama_InitIdx",
          "AIBEKFLDFDM": "SGV_MeloDrama_SwitchIdx"
        }
      ],
      "HKFPCGFFKMJ": [
        "SGV_MeloDrama_InitIdx"
      ]
    }
  },
  {
    "Default": {
      "$type": "CBPBEHLOHKI",
      "abilityName": "FairyBook_MelodramaClockwork_Grip_04_Ability",
      "abilityMixins": [
        {
          "$type": "LPKIBKAGPAK",
          "otherTargets": {
            "$type": "DHIEBMIGAPF",
            "EFMFHCKOOIL": 0.0
          },
          "DMIKDNHHEFE": 2.0,
          "PHCHECBJMLI": 5.0,
          "BGPAJMEDGLF": "GV_SpringMsg",
          "FMPIIFHDDHE": "GV_Grip_State",
          "EKPBLADKMFM": "GV_Cur_Timeline",
          "HAKEIFJNKKB": "GV_Cur_Order",
          "DNENJCGPPAF": "SGV_MeloDrama_InitIdx",
          "CPIJBBNNBHD": {
            "1": [
              {
                "KJJPJIDMOEC": 2,
                "predicates": [
                  {
                    "$type": "CNGGLKHONAA",
                    "target": "Self",
                    "key": "SGV_MeloDrama_Step",
                    "param3": 0.0
                  }
                ]
              },
              {
                "KJJPJIDMOEC": 3,
                "predicates": [
                  {
                    "$type": "CNGGLKHONAA",
                    "target": "Self",
                    "key": "SGV_MeloDrama_Step",
                    "param3": 1.0
                  }
                ]
              },
              {
                "KJJPJIDMOEC": 4,
                "predicates": [
                  {
                    "$type": "CNGGLKHONAA",
                    "target": "Self",
                    "key": "SGV_MeloDrama_Step",
                    "param3": 2.0
                  }
                ]
              }
            ]
          },
          "AIBEKFLDFDM": ""
        }
      ],
      "HKFPCGFFKMJ": [
        "SGV_MeloDrama_InitIdx"
      ]
    }
  },
  {
    "Default": {
      "$type": "CBPBEHLOHKI",
      "abilityName": "FairyBook_MelodramaClockwork_Grip_05_Ability",
      "abilityMixins": [
        {
          "$type": "LPKIBKAGPAK",
          "otherTargets": {
            "$type": "DHIEBMIGAPF",
            "EFMFHCKOOIL": 0.0
          },
          "DMIKDNHHEFE": 2.0,
          "PHCHECBJMLI": 5.0,
          "BGPAJMEDGLF": "GV_SpringMsg",
          "FMPIIFHDDHE": "GV_Grip_State",
          "EKPBLADKMFM": "GV_Cur_Timeline",
          "HAKEIFJNKKB": "GV_Cur_Order",
          "DNENJCGPPAF": "SGV_MeloDrama_InitIdx",
          "CPIJBBNNBHD": {
            "1": [
              {
                "KJJPJIDMOEC": 2,
                "predicates": [
                  {
                    "$type": "CNGGLKHONAA",
                    "target": "Self",
                    "key": "SGV_MeloDrama_Step",
                    "param3": 0.0
                  }
                ]
              },
              {
                "KJJPJIDMOEC": 3,
                "predicates": [
                  {
                    "$type": "CNGGLKHONAA",
                    "target": "Self",
                    "key": "SGV_MeloDrama_Step",
                    "param3": 1.0
                  }
                ]
              },
              {
                "KJJPJIDMOEC": 4,
                "predicates": [
                  {
                    "$type": "CNGGLKHONAA",
                    "target": "Self",
                    "key": "SGV_MeloDrama_Step",
                    "param3": 2.0
                  }
                ]
              }
            ]
          },
          "AIBEKFLDFDM": ""
        }
      ],
      "HKFPCGFFKMJ": [
        "SGV_MeloDrama_InitIdx"
      ]
    }
  },
  {
    "Default": {
      "$type": "CBPBEHLOHKI",
      "abilityName": "FairyBook_MelodramaClockwork_Grip_06_Ability",
      "abilityMixins": [
        {
          "$type": "LPKIBKAGPAK",
          "otherTargets": {
            "$type": "DHIEBMIGAPF",
            "EFMFHCKOOIL": 0.0
          },
          "DMIKDNHHEFE": 2.0,
          "PHCHECBJMLI": 5.0,
          "BGPAJMEDGLF": "GV_SpringMsg",
          "FMPIIFHDDHE": "GV_Grip_State",
          "EKPBLADKMFM": "GV_Cur_Timeline",
          "HAKEIFJNKKB": "GV_Cur_Order",
          "DNENJCGPPAF": "SGV_MeloDrama_InitIdx",
          "CPIJBBNNBHD": {
            "1": [
              {
                "KJJPJIDMOEC": 2
              }
            ],
            "2": [
              {
                "KJJPJIDMOEC": 3,
                "predicates": [
                  {
                    "$type": "CNGGLKHONAA",
                    "target": "Self",
                    "key": "SGV_MeloDrama_Step",
                    "param3": 0.0
                  }
                ]
              },
              {
                "KJJPJIDMOEC": 4,
                "predicates": [
                  {
                    "$type": "CNGGLKHONAA",
                    "target": "Self",
                    "key": "SGV_MeloDrama_Step",
                    "param3": 1.0
                  }
                ]
              }
            ]
          },
          "AIBEKFLDFDM": ""
        }
      ],
      "HKFPCGFFKMJ": [
        "SGV_MeloDrama_InitIdx"
      ]
    }
  },
  {
    "Default": {
      "$type": "CBPBEHLOHKI",
      "abilityName": "FairyBook_MelodramaClockwork_Grip_07_Ability",
      "abilityMixins": [
        {
          "$type": "LPKIBKAGPAK",
          "otherTargets": {
            "$type": "DHIEBMIGAPF",
            "EFMFHCKOOIL": 0.0
          },
          "DMIKDNHHEFE": 2.0,
          "PHCHECBJMLI": 5.0,
          "BGPAJMEDGLF": "GV_SpringMsg",
          "FMPIIFHDDHE": "GV_Grip_State",
          "EKPBLADKMFM": "GV_Cur_Timeline",
          "HAKEIFJNKKB": "GV_Cur_Order",
          "DNENJCGPPAF": "SGV_MeloDrama_InitIdx",
          "CPIJBBNNBHD": {
            "1": [
              {
                "KJJPJIDMOEC": 2
              }
            ],
            "2": [
              {
                "KJJPJIDMOEC": 3
              }
            ],
            "3": [
              {
                "KJJPJIDMOEC": 4,
                "predicates": [
                  {
                    "$type": "CNGGLKHONAA",
                    "target": "Self",
                    "key": "SGV_MeloDrama_Step",
                    "param3": 1.0
                  }
                ]
              }
            ]
          },
          "AIBEKFLDFDM": ""
        }
      ],
      "HKFPCGFFKMJ": [
        "SGV_MeloDrama_InitIdx"
      ]
    }
  },
  {
    "Default": {
      "$type": "CBPBEHLOHKI",
      "abilityName": "FairyBook_MelodramaClockwork_Grip_08_Ability",
      "abilityMixins": [
        {
          "$type": "LPKIBKAGPAK",
          "otherTargets": {
            "$type": "DHIEBMIGAPF",
            "EFMFHCKOOIL": 0.0
          },
          "DMIKDNHHEFE": 2.0,
          "PHCHECBJMLI": 5.0,
          "BGPAJMEDGLF": "GV_SpringMsg",
          "FMPIIFHDDHE": "GV_Grip_State",
          "EKPBLADKMFM": "GV_Cur_Timeline",
          "HAKEIFJNKKB": "GV_Cur_Order",
          "DNENJCGPPAF": "SGV_MeloDrama_InitIdx",
          "CPIJBBNNBHD": {
            "1": [
              {
                "KJJPJIDMOEC": 2
              }
            ],
            "2": [
              {
                "KJJPJIDMOEC": 3
              }
            ],
            "3": [
              {
                "KJJPJIDMOEC": 4
              }
            ],
            "4": [
              {
                "KJJPJIDMOEC": 5,
                "predicates": [
                  {
                    "$type": "CNGGLKHONAA",
                    "target": "Self",
                    "key": "SGV_MeloDrama_Step",
                    "param3": 1.0
                  }
                ]
              }
            ]
          },
          "AIBEKFLDFDM": ""
        }
      ],
      "HKFPCGFFKMJ": [
        "SGV_MeloDrama_InitIdx"
      ]
    }
  },
  {
    "Default": {
      "$type": "CBPBEHLOHKI",
      "abilityName": "FairyBook_Clockwork_GlueColloid_Special_Ability",
      "abilityMixins": [
        {
          "$type": "PHLKCMFKFIN",
          "globalValueKey": "Glue_Level",
          "valueSteps": [
            -0.5,
            0.5,
            999.0
          ],
          "modifierNameSteps": [
            "Glue_Hide",
            "Glue_Big"
          ],
          "NMCLMHFBALJ": true
        },
        {
          "$type": "BPKALFNJLIG",
          "modifierName": "Glue_Level_0"
        },
        {
          "$type": "BPKALFNJLIG",
          "gadgetState": 203,
          "modifierName": "Glue_Level_203"
        }
      ],
      "modifiers": {
        "Glue_Hide": {
          "modifierName": "",
          "IPFJJJGABPL": 100.0,
          "onAdded": [
            {
              "$type": "CLKGEHMNIEF",
              "transformNames": [
                "Small",
                "Mid",
                "Big",
                "Obj"
              ]
            },
            {
              "$type": "HPIDNBEGJLL",
              "predicates": [
                {
                  "$type": "BCFNGJHILAG",
                  "predicates": [
                    {
                      "$type": "HNLCJOPBDLC",
                      "target": "Self"
                    }
                  ]
                }
              ]
            }
          ]
        },
        "Glue_Big": {
          "modifierName": "",
          "IPFJJJGABPL": 100.0,
          "thinkInterval": 0.20000000298023224,
          "onAdded": [
            {
              "$type": "ANNOBMCGOEC",
              "matName": "GlueMat",
              "EKHLCLJELIP": "_TsaAnimeTrans",
              "param3": 2.0,
              "useCurve": true,
              "lerpCurveIndex": 1,
              "lerpTime": 0.5
            },
            {
              "$type": "CLKGEHMNIEF",
              "transformNames": [
                "Small",
                "Mid"
              ]
            },
            {
              "$type": "CLKGEHMNIEF",
              "transformNames": [
                "Big",
                "Obj"
              ],
              "setEnable": true
            },
            {
              "$type": "HPIDNBEGJLL",
              "predicates": [
                {
                  "$type": "BCFNGJHILAG",
                  "predicates": [
                    {
                      "$type": "HNLCJOPBDLC",
                      "target": "Self",
                      "gadgetState": 203
                    }
                  ]
                }
              ],
              "state": 203
            }
          ]
        },
        "Glue_Level_0": {
          "modifierName": "",
          "IPFJJJGABPL": 100.0,
          "onAdded": [
            {
              "$type": "FNPMFLOOCDD",
              "param3": 0.0,
              "key": "Glue_Level",
              "param2": 0.0,
              "repeatTimes": 0.0
            }
          ]
        },
        "Glue_Level_203": {
          "modifierName": "",
          "IPFJJJGABPL": 100.0,
          "onAdded": [
            {
              "$type": "FNPMFLOOCDD",
              "param3": 1.0,
              "key": "Glue_Level",
              "param2": 0.0,
              "repeatTimes": 0.0
            }
          ]
        }
      },
      "onAdded": [
        {
          "$type": "AOOCGNCCAJB",
          "isAdd": true,
          "tag": "GlueColloid"
        }
      ]
    }
  },
  {
    "Default": {
      "$type": "CBPBEHLOHKI",
      "abilityName": "FairyBook_TalkBubble_01_Ability",
      "modifiers": {
        "BubbleTalk_Mixin": {
          "modifierName": "",
          "IPFJJJGABPL": 100.0,
          "modifierMixins": [
            {
              "$type": "LHDMPHGMBBK",
              "showDistance": 48.0
            }
          ]
        }
      },
      "onAdded": [
        {
          "$type": "JLDEMMJAMLC",
          "modifierName": "BubbleTalk_Mixin"
        }
      ]
    }
  }
]