[
  {
    "Default": {
      "$type": "CBPBEHLOHKI",
      "abilityName": "SceneObj_Environment_WaterMaterial_PoisonAttack",
      "modifiers": {
        "poison": {
          "modifierName": "",
          "IPFJJJGABPL": 100.0
        }
      },
      "onAdded": [
        {
          "$type": "JLDEMMJAMLC",
          "modifierName": "poison"
        }
      ]
    }
  }
]