[
  {
    "Default": {
      "$type": "CBPBEHLOHKI",
      "abilityName": "SceneObj_Activity_Common_Property_Ani_Prop_Snipper_01",
      "abilityMixins": [
        {
          "$type": "PHLKCMFKFIN",
          "globalValueKey": "_CURRENT_AMMO_NUMBER",
          "valueSteps": [
            -0.5,
            0.5
          ],
          "modifierNameSteps": [
            "Auto_Trigger_Reload"
          ]
        },
        {
          "$type": "NDFFAEHJMAL",
          "globalValueKey": "GV_Filmfest_Sniper_Pos",
          "actions": [
            {
              "$type": "BEMPFJGAPHG",
              "otherTargets": {
                "$type": "PBLNLAENOGB",
                "tag": "Is_SniperCamera"
              },
              "shieldHP": true,
              "srcTarget": "Self",
              "dstTarget": "Other",
              "srcKey": "GV_Filmfest_Sniper_Pos",
              "dstKey": "GV_Filmfest_Sniper_Pos"
            }
          ]
        },
        {
          "$type": "NDFFAEHJMAL",
          "globalValueKey": "GV_Is_Scope_On",
          "actions": [
            {
              "$type": "BEMPFJGAPHG",
              "otherTargets": {
                "$type": "PBLNLAENOGB",
                "tag": "Is_SniperCamera"
              },
              "shieldHP": true,
              "srcTarget": "Self",
              "dstTarget": "Other",
              "srcKey": "GV_Is_Scope_On",
              "dstKey": "GV_Is_Scope_On"
            }
          ]
        },
        {
          "$type": "IMHJCIOKJPA",
          "uiMessageId": "FireBullet_FromCamera",
          "offsetFromCamera": {
            "x": -0.029999999329447746,
            "y": -0.15000000596046448,
            "z": -2.0
          },
          "gvBulletInitPos": "GV_ShootPos",
          "gvBulletForward": "GV_ShootDir",
          "actionList": [
            {
              "$type": "INBCDALOHMP",
              "predicates": [
                {
                  "$type": "CNGGLKHONAA",
                  "target": "Self",
                  "key": "_CURRENT_AMMO_NUMBER",
                  "param3": 1.0,
                  "compareType": "MoreThanAndEqual"
                }
              ],
              "successActions": [
                {
                  "$type": "CAKDDHLKOAB",
                  "bulletID": 70331002,
                  "born": {
                    "$type": "ICKMMAHFNIM",
                    "positionKey": "GV_ShootPos",
                    "directionKey": "GV_ShootDir"
                  }
                },
                {
                  "$type": "ONALKNNKKLH",
                  "cameraShake": {
                    "shakeType": "CustomVector",
                    "shakeRange": 1.2000000476837158,
                    "shakeTime": 0.6000000238418579,
                    "shakeDistance": 500.0,
                    "shakeDir": {
                      "y": 1.0
                    },
                    "extension": {
                      "baseOnCamera": true,
                      "baseCycle": 1.0,
                      "cycleDamping": 0.0,
                      "rangeAttenuation": 0.10000000149011612
                    }
                  }
                },
                {
                  "$type": "IIGGCBAOAAK",
                  "param3": -1.0,
                  "key": "_CURRENT_AMMO_NUMBER",
                  "param2": 0.0,
                  "repeatTimes": 0.0
                }
              ]
            }
          ]
        }
      ],
      "HKFPCGFFKMJ": [
        "_AMMO_COST"
      ],
      "modifiers": {
        "Reload_Performance": {
          "modifierName": "",
          "elementDurability": 1.2000000476837158,
          "IPFJJJGABPL": 100.0,
          "thinkInterval": 1.0,
          "onThinkInterval": [
            {
              "$type": "ONALKNNKKLH",
              "cameraShake": {
                "shakeType": "CustomVector",
                "shakeRange": 0.5,
                "shakeTime": 1.5,
                "shakeDistance": 500.0,
                "shakeDir": {
                  "x": 1.0,
                  "y": 1.0
                },
                "extension": {
                  "baseOnCamera": true,
                  "baseCycle": 1.0
                }
              }
            }
          ]
        },
        "Reload_Performance_UI": {
          "modifierName": "",
          "elementDurability": 1.0,
          "IPFJJJGABPL": 100.0,
          "thinkInterval": 0.800000011920929,
          "onThinkInterval": [
            {
              "$type": "NBJOOJMEDPD",
              "uiContextName": "FilmfestSniperPlayPage",
              "message": "ReloadStart",
              "floatParam": 1.2000000476837158,
              "stringParam": ""
            }
          ]
        },
        "Auto_Trigger_Reload": {
          "modifierName": "",
          "elementDurability": 0.20000000298023224,
          "IPFJJJGABPL": 100.0,
          "onAdded": [
            {
              "$type": "PELJALPANCA",
              "modifierName": "Reload_Performance_UI"
            },
            {
              "$type": "INBCDALOHMP",
              "targetPredicates": [
                {
                  "$type": "CNGGLKHONAA",
                  "key": "SGV_FilmFestSniper_HasBullet",
                  "param3": 1.0,
                  "compareType": "NoneOrEqual"
                }
              ],
              "successActions": [
                {
                  "$type": "GJCAPCBELPA",
                  "abilityName": "SceneObj_Activity_Common_Property_Ani_Prop_Snipper_Reload"
                }
              ]
            }
          ]
        }
      },
      "onAdded": [
        {
          "$type": "FNPMFLOOCDD",
          "param3": 0.0,
          "key": "_AMMO_RELOADING",
          "param2": 0.0,
          "repeatTimes": 0.0
        },
        {
          "$type": "FNPMFLOOCDD",
          "param3": 1.0,
          "key": "_CURRENT_AMMO_NUMBER",
          "param2": 0.0,
          "repeatTimes": 0.0
        },
        {
          "$type": "FNPMFLOOCDD",
          "param3": 0.0,
          "key": "_AMMO_COST",
          "param2": 0.0,
          "repeatTimes": 0.0
        },
        {
          "$type": "FNPMFLOOCDD",
          "param3": 0.0,
          "key": "GV_Filmfest_Sniper_Pos",
          "param2": 0.0,
          "repeatTimes": 0.0
        },
        {
          "$type": "AHPEKICBIIL",
          "luaCallType": "CurGalleryControlGroup",
          "funcName": "SLC_Filmfest_Sniper_OnInit",
          "param1": 0.0,
          "MGAMDEHMCOL": 0.0,
          "MMHOHAOGPLP": 0.0
        }
      ]
    }
  },
  {
    "Default": {
      "$type": "CBPBEHLOHKI",
      "abilityName": "SceneObj_Activity_Common_Property_Ani_Prop_Snipper_Reload",
      "modifiers": {
        "Snipper_Reload": {
          "modifierName": "",
          "elementDurability": 2.0,
          "IPFJJJGABPL": 100.0,
          "onAdded": [
            {
              "$type": "BOBCOJHOKKD",
              "param3": 1.0,
              "key": "_AMMO_RELOADING",
              "param2": 0.0,
              "repeatTimes": 0.0
            },
            {
              "$type": "IIGGCBAOAAK",
              "param3": 1.0,
              "key": "_AMMO_COST",
              "param2": 0.0,
              "repeatTimes": 0.0
            }
          ],
          "onRemoved": [
            {
              "$type": "BOBCOJHOKKD",
              "param3": 0.0,
              "key": "_AMMO_RELOADING",
              "param2": 0.0,
              "repeatTimes": 0.0
            },
            {
              "$type": "IIGGCBAOAAK",
              "param3": 1.0,
              "key": "_CURRENT_AMMO_NUMBER",
              "param2": 0.0,
              "repeatTimes": 0.0
            }
          ]
        }
      },
      "onAbilityStart": [
        {
          "$type": "PELJALPANCA",
          "modifierName": "Snipper_Reload"
        }
      ]
    }
  },
  {
    "Default": {
      "$type": "CBPBEHLOHKI",
      "abilityName": "SceneObj_Level_Fd_Property_Ani_Prop_FilmfestSniper_BalloonBomb_01",
      "abilityMixins": [
        {
          "$type": "BPKALFNJLIG",
          "gadgetState": 202,
          "modifierName": "BalloonBomb_Suicide"
        }
      ],
      "modifiers": {
        "BalloonBomb_Eff": {
          "modifierName": "",
          "IPFJJJGABPL": 100.0,
          "onAdded": [
            {
              "$type": "ANLOBBMKNIJ",
              "rotationDampTime": "Eff_SceneObj_FilmfestSniper_01_BalloonBombMoving",
              "PPPDJGDDOGD": 1.0,
              "AJDILHJFNKE": -1.0
            }
          ]
        },
        "BalloonBomb_Suicide": {
          "modifierName": "",
          "IPFJJJGABPL": 100.0,
          "onAdded": [
            {
              "$type": "NCFFNDHGCMH"
            }
          ]
        }
      },
      "onAdded": [
        {
          "$type": "KBFEIHEAMBM",
          "rotationDampTime": "Eff_SceneObj_FilmfestSniper_01_BalloonBombAppear",
          "PPPDJGDDOGD": 1.0,
          "AJDILHJFNKE": -1.0
        },
        {
          "$type": "FNPMFLOOCDD",
          "param3": 1.0,
          "key": "Is_FilmfestSniper_Breakable",
          "param2": 0.0,
          "repeatTimes": 0.0
        },
        {
          "$type": "JLDEMMJAMLC",
          "modifierName": "BalloonBomb_Eff"
        }
      ],
      "onKill": [
        {
          "$type": "KBFEIHEAMBM",
          "rotationDampTime": "Eff_SceneObj_FilmfestSniper_01_BalloonBombExplode",
          "PPPDJGDDOGD": 1.0,
          "AJDILHJFNKE": -1.0
        },
        {
          "$type": "AIFPLABJNMA",
          "attackEvent": {
            "attackPattern": {
              "$type": "BELNOFAKNBA",
              "triggerType": "TriggerNoRepeat",
              "ignoreMassive": true,
              "born": {
                "$type": "JHEBKCMEMLN",
                "offset": {
                  "KGEPIMHBMOL": 0.0,
                  "JEBHCGDPFEJ": 0.5,
                  "LPCHALMFFOD": 0.0
                }
              },
              "OAHPDLJIADP": 6.0
            },
            "attackInfo": {
              "attackTag": "FilmfestSniper_Bomb",
              "attenuationTag": "",
              "attenuationGroup": "default",
              "attackProperty": {
                "actorGrassSubHurtDelta": 9999999.0,
                "actorWindSubHurtDelta": 0.0,
                "IPFJJJGABPL": 50.0,
                "strikeType": "Blunt",
                "enBreak": 9999999.0,
                "GLKMCMDJBIK": 0.0
              },
              "hitPattern": {
                "onHitEffectName": "default",
                "hitImpulseY": "",
                "hitImpulseType": "LV6",
                "hitHaltTimeScale": 0.05000000074505806
              },
              "forceCameraShake": true,
              "cameraShake": {
                "shakeRange": 0.36000001430511475,
                "shakeTime": 0.36000001430511475
              }
            }
          },
          "targetType": "Enemy"
        },
        {
          "$type": "AIFPLABJNMA",
          "attackEvent": {
            "attackPattern": {
              "$type": "BELNOFAKNBA",
              "triggerType": "TriggerNoRepeat",
              "born": {
                "$type": "JHEBKCMEMLN"
              },
              "OAHPDLJIADP": 2.0
            },
            "attackInfo": {
              "attackTag": "",
              "attenuationTag": "",
              "attenuationGroup": "default",
              "attackProperty": {
                "actorGrassSubHurtDelta": 1.0,
                "actorWindSubHurtDelta": 0.0,
                "IPFJJJGABPL": 50.0,
                "strikeType": "Blunt",
                "enBreak": 0.0,
                "GLKMCMDJBIK": 0.0
              }
            }
          },
          "targetType": "All"
        }
      ]
    }
  },
  {
    "Default": {
      "$type": "CBPBEHLOHKI",
      "abilityName": "SceneObj_Level_Fd_Property_Ani_Prop_FilmfestSniper_GateForbidArea_01",
      "modifiers": {
        "GateForbidArea_GateMarkRemove": {
          "modifierName": "",
          "elementDurability": 0.10000000149011612,
          "IPFJJJGABPL": 100.0,
          "onAdded": [
            {
              "$type": "PFKNEFGOHIH",
              "modifierName": "GateForbidArea_GateMark"
            },
            {
              "$type": "FNPMFLOOCDD",
              "param3": 0.0,
              "key": "GV_GateForbidArea_GateMark",
              "param2": 0.0,
              "repeatTimes": 0.0
            }
          ]
        },
        "GateForbidArea_GateMark": {
          "modifierName": "",
          "elementDurability": 0.10000000149011612,
          "IPFJJJGABPL": 100.0,
          "onAdded": [
            {
              "$type": "PFKNEFGOHIH",
              "modifierName": "GateForbidArea_GateMarkRemove"
            },
            {
              "$type": "BEMPFJGAPHG",
              "shieldHP": true,
              "dstTarget": "Self",
              "srcKey": "SGV_GateForbidArea_GateMark",
              "dstKey": "GV_GateForbidArea_GateMark"
            }
          ]
        }
      },
      "onFieldEnter": [
        {
          "$type": "INBCDALOHMP",
          "target": "Target",
          "targetPredicates": [
            {
              "$type": "NIMAPECDNKD",
              "entityTypes": [
                "Avatar"
              ]
            }
          ],
          "successActions": [
            {
              "$type": "PELJALPANCA",
              "target": "TargetTeam",
              "modifierName": "GateForbidArea_GateMark"
            }
          ]
        }
      ],
      "onFieldExit": [
        {
          "$type": "INBCDALOHMP",
          "target": "Target",
          "targetPredicates": [
            {
              "$type": "NIMAPECDNKD",
              "entityTypes": [
                "Avatar"
              ]
            }
          ],
          "successActions": [
            {
              "$type": "PELJALPANCA",
              "target": "TargetTeam",
              "modifierName": "GateForbidArea_GateMarkRemove"
            }
          ]
        }
      ]
    }
  },
  {
    "Default": {
      "$type": "CBPBEHLOHKI",
      "abilityName": "SceneObj_Activity_Common_Property_Ani_Prop_SnipperBullet_01",
      "abilitySpecials": {
        "DamagePercentage": 0.0,
        "LevelEntity_AvatarDot_SystemValue": 1.0
      },
      "modifiers": {
        "Blank": {
          "modifierName": "",
          "IPFJJJGABPL": 100.0
        },
        "FilmFest_SniperBullet_HitGroundRespond": {
          "modifierName": "",
          "elementDurability": 0.5,
          "IPFJJJGABPL": 100.0,
          "onAdded": [
            {
              "$type": "FNPMFLOOCDD",
              "param3": 2.0,
              "key": "GV_RespondType",
              "param2": 0.0,
              "repeatTimes": 0.0
            },
            {
              "$type": "GJCAPCBELPA",
              "abilityName": "MonsterAffix_FilmFest_Shooting_MonsterStateSwitch"
            }
          ]
        },
        "FilmFest_SniperBullet_HitGadgetRespond": {
          "modifierName": "",
          "elementDurability": 0.5,
          "IPFJJJGABPL": 100.0,
          "onAdded": [
            {
              "$type": "FNPMFLOOCDD",
              "param3": 3.0,
              "key": "GV_RespondType",
              "param2": 0.0,
              "repeatTimes": 0.0
            },
            {
              "$type": "GJCAPCBELPA",
              "abilityName": "MonsterAffix_FilmFest_Shooting_MonsterStateSwitch"
            }
          ]
        },
        "FilmFest_SniperBullet_HitMonsterRespond": {
          "modifierName": "",
          "elementDurability": 0.5,
          "IPFJJJGABPL": 100.0,
          "onAdded": [
            {
              "$type": "FNPMFLOOCDD",
              "param3": 3.0,
              "key": "GV_RespondType",
              "param2": 0.0,
              "repeatTimes": 0.0
            },
            {
              "$type": "GJCAPCBELPA",
              "abilityName": "MonsterAffix_FilmFest_Shooting_MonsterStateSwitch"
            }
          ]
        },
        "FilmFest_SniperBullet_Killer": {
          "modifierName": "",
          "elementDurability": 0.5,
          "IPFJJJGABPL": 100.0,
          "onAdded": [
            {
              "$type": "AHPEKICBIIL",
              "target": "CasterOwner",
              "luaCallType": "CurGalleryControlGroup",
              "funcName": "SLC_Filmfest_Sniper_HitMonster",
              "param1": 0.0,
              "MGAMDEHMCOL": 0.0,
              "MMHOHAOGPLP": 0.0
            },
            {
              "$type": "INBCDALOHMP",
              "targetPredicates": [
                {
                  "$type": "HHHMNCNPBDK",
                  "predicates": [
                    {
                      "$type": "AFCIHEABHEL",
                      "logic": "Lesser",
                      "ratio": 0.5
                    },
                    {
                      "$type": "CNGGLKHONAA",
                      "key": "_FilmFest_Shooting_MonsterLabel",
                      "param3": 1.0,
                      "compareType": "NoneOrEqual"
                    }
                  ]
                }
              ],
              "successActions": [
                {
                  "$type": "NBJOOJMEDPD",
                  "uiContextName": "FilmfestSniperPlayPage",
                  "message": "MonsterKill",
                  "intParam": 1,
                  "stringParam": ""
                },
                {
                  "$type": "FNPMFLOOCDD",
                  "param3": 0.0,
                  "key": "GV_FilmfestSniper_MonsterResponsable",
                  "param2": 0.0,
                  "repeatTimes": 0.0
                }
              ],
              "failActions": [
                {
                  "$type": "NBJOOJMEDPD",
                  "uiContextName": "FilmfestSniperPlayPage",
                  "message": "MonsterKill",
                  "stringParam": ""
                }
              ]
            },
            {
              "$type": "INBCDALOHMP",
              "targetPredicates": [
                {
                  "$type": "CNGGLKHONAA",
                  "key": "_FilmFest_Shooting_MonsterLabel",
                  "param3": 1.0,
                  "compareType": "NoneOrEqual"
                }
              ],
              "successActions": [
                {
                  "$type": "DLLGNJPHFDE",
                  "CKDBFHCIJEK": 1.0,
                  "BJKGFBGEFPB": ""
                }
              ],
              "failActions": [
                {
                  "$type": "DLLGNJPHFDE",
                  "CKDBFHCIJEK": 0.5099999904632568,
                  "BJKGFBGEFPB": ""
                }
              ]
            }
          ]
        },
        "FilmFest_SniperBullet_Effect": {
          "modifierName": "",
          "IPFJJJGABPL": 100.0,
          "onAdded": [
            {
              "$type": "ANLOBBMKNIJ",
              "rotationDampTime": "Eff_FilmfestSniper_Bullet_01",
              "PPPDJGDDOGD": 1.0,
              "AJDILHJFNKE": -1.0
            },
            {
              "$type": "ANLOBBMKNIJ",
              "rotationDampTime": "Eff_FilmfestSniper_Bullet_01_Trail",
              "PPPDJGDDOGD": 1.0,
              "AJDILHJFNKE": -1.0
            }
          ]
        }
      },
      "onAdded": [
        {
          "$type": "PELJALPANCA",
          "modifierName": "FilmFest_SniperBullet_Effect"
        },
        {
          "$type": "GDHGMAPPGHD",
          "key": "LevelEntity_AvatarDot_SystemValue",
          "damageRatio": "ElementLevelCo"
        }
      ],
      "onAbilityStart": [
        {
          "$type": "INBCDALOHMP",
          "target": "Target",
          "predicates": [
            {
              "$type": "CNGGLKHONAA",
              "target": "Self",
              "key": "GV_Filmfest_SniperBullet_Triggered",
              "param3": 0.0,
              "compareType": "NoneOrEqual"
            }
          ],
          "targetPredicates": [
            {
              "$type": "NIMAPECDNKD",
              "entityTypes": [
                "Monster"
              ]
            }
          ],
          "successActions": [
            {
              "$type": "KBFEIHEAMBM",
              "target": "Target",
              "rotationDampTime": "Eff_FilmfestSniper_Bullet_HitEffect_01",
              "born": {
                "$type": "EHMNFOLDFOF"
              },
              "PPPDJGDDOGD": 1.0,
              "AJDILHJFNKE": -1.0
            },
            {
              "$type": "ELNHKGAPIBJ",
              "content": "############# HitMonster ###############"
            },
            {
              "$type": "FNPMFLOOCDD",
              "param3": 1.0,
              "key": "GV_Filmfest_SniperBullet_Triggered",
              "param2": 0.0,
              "repeatTimes": 0.0
            },
            {
              "$type": "CCNPNMMONDO",
              "target": "Other",
              "predicates": [
                {
                  "$type": "CNGGLKHONAA",
                  "key": "_FilmFest_Shooting_MonsterLabel",
                  "param3": 1.0,
                  "compareType": "NoneOrEqual"
                }
              ],
              "attackInfo": {
                "attackTag": "",
                "attenuationTag": "",
                "attenuationGroup": "default",
                "attackProperty": {
                  "actorGrassSubHurtDelta": 0.0,
                  "actorWindSubHurtDelta": 0.0,
                  "IPFJJJGABPL": 0.0,
                  "strikeType": "Blunt",
                  "enBreak": 99999.0,
                  "ignoreLevelDiff": true,
                  "GLKMCMDJBIK": 0.0
                },
                "hitPattern": {
                  "onHitEffectName": "none",
                  "hitImpulseY": "",
                  "hitImpulseType": "LV5",
                  "hitHaltTimeScale": 0.009999999776482582,
                  "muteHitText": true
                }
              }
            },
            {
              "$type": "CCNPNMMONDO",
              "target": "Other",
              "predicates": [
                {
                  "$type": "CNGGLKHONAA",
                  "key": "_FilmFest_Shooting_MonsterLabel",
                  "param3": 2.0
                }
              ],
              "attackInfo": {
                "attackTag": "",
                "attenuationTag": "",
                "attenuationGroup": "default",
                "attackProperty": {
                  "actorGrassSubHurtDelta": 0.0,
                  "actorWindSubHurtDelta": 0.0,
                  "IPFJJJGABPL": 0.0,
                  "strikeType": "Blunt",
                  "enBreak": 99999.0,
                  "ignoreLevelDiff": true,
                  "GLKMCMDJBIK": 0.0
                },
                "hitPattern": {
                  "onHitEffectName": "none",
                  "hitImpulseY": "",
                  "hitImpulseType": "LV4",
                  "hitHaltTimeScale": 0.009999999776482582,
                  "muteHitText": true
                }
              }
            },
            {
              "$type": "PELJALPANCA",
              "target": "Target",
              "modifierName": "FilmFest_SniperBullet_Killer"
            },
            {
              "$type": "MPAGCPPAIHJ",
              "target": "Target",
              "key": "GV_Hit_Pos",
              "born": {
                "$type": "EHMNFOLDFOF"
              },
              "setTarget": false
            },
            {
              "$type": "INBCDALOHMP",
              "otherTargets": {
                "$type": "PBLNLAENOGB",
                "tag": "Filmfest_Monster"
              },
              "successActions": [
                {
                  "$type": "INBCDALOHMP",
                  "target": "Target",
                  "targetPredicates": [
                    {
                      "$type": "CNGGLKHONAA",
                      "key": "GV_FilmfestSniper_MonsterResponsable",
                      "param3": 1.0
                    }
                  ],
                  "successActions": [
                    {
                      "$type": "BEMPFJGAPHG",
                      "target": "Target",
                      "srcTarget": "Self",
                      "srcKey": "GV_Hit_Pos_0",
                      "dstKey": "GV_Hit_Pos_0"
                    },
                    {
                      "$type": "BEMPFJGAPHG",
                      "target": "Target",
                      "srcTarget": "Self",
                      "srcKey": "GV_Hit_Pos_1",
                      "dstKey": "GV_Hit_Pos_1"
                    },
                    {
                      "$type": "BEMPFJGAPHG",
                      "target": "Target",
                      "srcTarget": "Self",
                      "srcKey": "GV_Hit_Pos_2",
                      "dstKey": "GV_Hit_Pos_2"
                    },
                    {
                      "$type": "PELJALPANCA",
                      "target": "Target",
                      "modifierName": "FilmFest_SniperBullet_HitMonsterRespond"
                    }
                  ]
                }
              ]
            }
          ],
          "failActions": [
            {
              "$type": "INBCDALOHMP",
              "target": "Target",
              "targetPredicates": [
                {
                  "$type": "CNGGLKHONAA",
                  "key": "Is_FilmfestSniper_Breakable",
                  "param3": 1.0,
                  "compareType": "MoreThanAndEqual"
                }
              ],
              "successActions": [
                {
                  "$type": "ELNHKGAPIBJ",
                  "content": "############# HitGadget ###############"
                },
                {
                  "$type": "MPAGCPPAIHJ",
                  "target": "Target",
                  "key": "GV_Hit_Pos",
                  "born": {
                    "$type": "EHMNFOLDFOF"
                  },
                  "setTarget": false
                },
                {
                  "$type": "INBCDALOHMP",
                  "otherTargets": {
                    "$type": "PBLNLAENOGB",
                    "tag": "Filmfest_Monster"
                  },
                  "successActions": [
                    {
                      "$type": "INBCDALOHMP",
                      "target": "Target",
                      "targetPredicates": [
                        {
                          "$type": "CNGGLKHONAA",
                          "key": "GV_FilmfestSniper_MonsterResponsable",
                          "param3": 1.0
                        }
                      ],
                      "successActions": [
                        {
                          "$type": "BEMPFJGAPHG",
                          "target": "Other",
                          "srcTarget": "Self",
                          "dstTarget": "Other",
                          "srcKey": "GV_Hit_Pos_0",
                          "dstKey": "GV_Hit_Pos_0"
                        },
                        {
                          "$type": "BEMPFJGAPHG",
                          "target": "Other",
                          "srcTarget": "Self",
                          "dstTarget": "Other",
                          "srcKey": "GV_Hit_Pos_1",
                          "dstKey": "GV_Hit_Pos_1"
                        },
                        {
                          "$type": "BEMPFJGAPHG",
                          "target": "Other",
                          "srcTarget": "Self",
                          "dstTarget": "Other",
                          "srcKey": "GV_Hit_Pos_2",
                          "dstKey": "GV_Hit_Pos_2"
                        },
                        {
                          "$type": "PELJALPANCA",
                          "target": "Other",
                          "modifierName": "FilmFest_SniperBullet_HitGadgetRespond"
                        }
                      ]
                    }
                  ]
                },
                {
                  "$type": "KBFEIHEAMBM",
                  "target": "Target",
                  "rotationDampTime": "Eff_FilmfestSniper_Bullet_HitEffect_01",
                  "born": {
                    "$type": "EHMNFOLDFOF"
                  },
                  "PPPDJGDDOGD": 1.0,
                  "AJDILHJFNKE": -1.0
                },
                {
                  "$type": "FNPMFLOOCDD",
                  "param3": 1.0,
                  "key": "GV_Filmfest_SniperBullet_Triggered",
                  "param2": 0.0,
                  "repeatTimes": 0.0
                },
                {
                  "$type": "AHPEKICBIIL",
                  "target": "CasterOwner",
                  "shieldHP": true,
                  "luaCallType": "CurGalleryControlGroup",
                  "funcName": "SLC_Filmfest_Sniper_HitGadget",
                  "param1": 0.0,
                  "MGAMDEHMCOL": 0.0,
                  "MMHOHAOGPLP": 0.0
                },
                {
                  "$type": "CCNPNMMONDO",
                  "target": "Target",
                  "attackInfo": {
                    "attackTag": "FilmfestSniper_Bullet",
                    "attenuationTag": "",
                    "attenuationGroup": "default",
                    "attackProperty": {
                      "actorGrassSubHurtDelta": 1.0,
                      "actorWindSubHurtDelta": 0.0,
                      "IPFJJJGABPL": 25.0,
                      "strikeType": "Default",
                      "HMBONGBFIAP": 99999.0,
                      "GLKMCMDJBIK": 0.0
                    },
                    "hitPattern": {
                      "onHitEffectName": "default",
                      "hitImpulseY": "",
                      "hitImpulseType": "LV1",
                      "hitHaltTimeScale": 0.05000000074505806
                    }
                  }
                }
              ],
              "failActions": [
                {
                  "$type": "MPAGCPPAIHJ",
                  "target": "Target",
                  "key": "GV_Hit_Pos",
                  "born": {
                    "$type": "EHMNFOLDFOF"
                  },
                  "setTarget": false
                },
                {
                  "$type": "INBCDALOHMP",
                  "target": "Target",
                  "targetPredicates": [
                    {
                      "$type": "NIMAPECDNKD",
                      "entityTypes": [
                        "Gadget"
                      ]
                    }
                  ],
                  "successActions": [
                    {
                      "$type": "ELNHKGAPIBJ",
                      "content": "############# HitGround(Gadget) ###############"
                    },
                    {
                      "$type": "INBCDALOHMP",
                      "otherTargets": {
                        "$type": "PBLNLAENOGB",
                        "tag": "Filmfest_Monster"
                      },
                      "successActions": [
                        {
                          "$type": "INBCDALOHMP",
                          "target": "Target",
                          "targetPredicates": [
                            {
                              "$type": "CNGGLKHONAA",
                              "key": "GV_FilmfestSniper_MonsterResponsable",
                              "param3": 1.0
                            }
                          ],
                          "successActions": [
                            {
                              "$type": "BEMPFJGAPHG",
                              "target": "Target",
                              "srcTarget": "Self",
                              "srcKey": "GV_Hit_Pos_0",
                              "dstKey": "GV_Hit_Pos_0"
                            },
                            {
                              "$type": "BEMPFJGAPHG",
                              "target": "Target",
                              "srcTarget": "Self",
                              "srcKey": "GV_Hit_Pos_1",
                              "dstKey": "GV_Hit_Pos_1"
                            },
                            {
                              "$type": "BEMPFJGAPHG",
                              "target": "Target",
                              "srcTarget": "Self",
                              "srcKey": "GV_Hit_Pos_2",
                              "dstKey": "GV_Hit_Pos_2"
                            },
                            {
                              "$type": "PELJALPANCA",
                              "target": "Target",
                              "modifierName": "FilmFest_SniperBullet_HitGroundRespond"
                            }
                          ]
                        }
                      ]
                    },
                    {
                      "$type": "KBFEIHEAMBM",
                      "target": "Target",
                      "rotationDampTime": "Eff_FilmfestSniper_Bullet_HitEffect_01",
                      "born": {
                        "$type": "EHMNFOLDFOF"
                      },
                      "PPPDJGDDOGD": 1.0,
                      "AJDILHJFNKE": -1.0
                    },
                    {
                      "$type": "FNPMFLOOCDD",
                      "param3": 1.0,
                      "key": "GV_Filmfest_SniperBullet_Triggered",
                      "param2": 0.0,
                      "repeatTimes": 0.0
                    },
                    {
                      "$type": "AHPEKICBIIL",
                      "target": "CasterOwner",
                      "luaCallType": "CurGalleryControlGroup",
                      "funcName": "SLC_Filmfest_Sniper_HitGround",
                      "param1": 0.0,
                      "MGAMDEHMCOL": 0.0,
                      "MMHOHAOGPLP": 0.0
                    }
                  ],
                  "failActions": [
                    {
                      "$type": "ELNHKGAPIBJ",
                      "content": "############# HitGround ###############"
                    },
                    {
                      "$type": "AHPEKICBIIL",
                      "target": "CasterOwner",
                      "luaCallType": "CurGalleryControlGroup",
                      "funcName": "SLC_Filmfest_Sniper_HitGround",
                      "param1": 0.0,
                      "MGAMDEHMCOL": 0.0,
                      "MMHOHAOGPLP": 0.0
                    },
                    {
                      "$type": "INBCDALOHMP",
                      "otherTargets": {
                        "$type": "PBLNLAENOGB",
                        "tag": "Filmfest_Monster"
                      },
                      "successActions": [
                        {
                          "$type": "INBCDALOHMP",
                          "target": "Target",
                          "targetPredicates": [
                            {
                              "$type": "CNGGLKHONAA",
                              "key": "GV_FilmfestSniper_MonsterResponsable",
                              "param3": 1.0
                            }
                          ],
                          "successActions": [
                            {
                              "$type": "BEMPFJGAPHG",
                              "target": "Target",
                              "srcTarget": "Self",
                              "srcKey": "GV_Hit_Pos_0",
                              "dstKey": "GV_Hit_Pos_0"
                            },
                            {
                              "$type": "BEMPFJGAPHG",
                              "target": "Target",
                              "srcTarget": "Self",
                              "srcKey": "GV_Hit_Pos_1",
                              "dstKey": "GV_Hit_Pos_1"
                            },
                            {
                              "$type": "BEMPFJGAPHG",
                              "target": "Target",
                              "srcTarget": "Self",
                              "srcKey": "GV_Hit_Pos_2",
                              "dstKey": "GV_Hit_Pos_2"
                            },
                            {
                              "$type": "PELJALPANCA",
                              "target": "Target",
                              "modifierName": "FilmFest_SniperBullet_HitGroundRespond"
                            }
                          ]
                        }
                      ]
                    },
                    {
                      "$type": "GFANIJMFNOJ",
                      "hitEntity": "",
                      "hitScene": {
                        "defaultEffect": "Eff_Arrow_Hit_Earth",
                        "surfaceEffect": {
                          "Water": "Eff_Arrow_Hit_Water"
                        }
                      }
                    },
                    {
                      "$type": "FNPMFLOOCDD",
                      "param3": 1.0,
                      "key": "GV_Filmfest_SniperBullet_Triggered",
                      "param2": 0.0,
                      "repeatTimes": 0.0
                    }
                  ]
                }
              ]
            }
          ]
        }
      ]
    }
  },
  {
    "Default": {
      "$type": "CBPBEHLOHKI",
      "abilityName": "SceneObj_Activity_Common_Property_Ani_Prop_FilmFestSniperCamera_01",
      "abilityMixins": [
        {
          "$type": "MLJAPFBGEEH",
          "globalValueKey": "GV_Filmfest_Sniper_Pos",
          "gvInTalk": 0.0,
          "valueSteps": [
            -0.5,
            1.5
          ],
          "modifierNameSteps": [
            "CameraPos_01_Normal"
          ]
        }
      ],
      "modifiers": {
        "CameraPos_01_Normal": {
          "modifierName": "",
          "IPFJJJGABPL": 100.0,
          "modifierMixins": [
            {
              "$type": "BJAMAIBGOPD",
              "JLPODGJBMHD": {
                "$type": "OBILOLCLHFF",
                "AEAMANCFLLA": "CameraPivot_1",
                "BOLMHHFIMFA": {
                  "z": -1.0
                },
                "defaultRadius": 0.10000000149011612,
                "fov": 40.0,
                "HOALMDAEIEN": -20.0,
                "JOLDBHFJJNP": 35.0,
                "GNOFBNGKEJF": -55.0,
                "FPLOLJNIKDN": 55.0,
                "HONBKBEPNEI": true,
                "BAIDPOBCCPN": 150.0,
                "MOBEEJIGMID": [
                  21010105,
                  21020704,
                  21010404,
                  24060903,
                  24061103,
                  25010226,
                  70331003,
                  70331033
                ],
                "GEJNMFFGECL": 1.0,
                "PKGOEJGOCND": 4.411799907684326
              }
            }
          ]
        }
      },
      "onAdded": [
        {
          "$type": "AOOCGNCCAJB",
          "isAdd": true,
          "tag": "Is_SniperCamera"
        }
      ]
    }
  },
  {
    "Default": {
      "$type": "CBPBEHLOHKI",
      "abilityName": "SceneObj_Activity_Common_Property_Ani_Prop_FilmFestSniperCamera_02",
      "abilityMixins": [
        {
          "$type": "MLJAPFBGEEH",
          "globalValueKey": "GV_Filmfest_Sniper_Pos",
          "gvInTalk": 0.0,
          "valueSteps": [
            -0.5,
            0.5,
            1.5
          ],
          "modifierNameSteps": [
            "CameraPos_01_Normal",
            "CameraPos_02_Normal"
          ]
        }
      ],
      "modifiers": {
        "CameraPos_01_Normal": {
          "modifierName": "",
          "IPFJJJGABPL": 100.0,
          "modifierMixins": [
            {
              "$type": "BJAMAIBGOPD",
              "JLPODGJBMHD": {
                "$type": "OBILOLCLHFF",
                "AEAMANCFLLA": "CameraPivot_1",
                "BOLMHHFIMFA": {
                  "z": -1.0
                },
                "defaultRadius": 0.10000000149011612,
                "fov": 40.0,
                "HOALMDAEIEN": -20.0,
                "JOLDBHFJJNP": 30.0,
                "GNOFBNGKEJF": -50.0,
                "FPLOLJNIKDN": 80.0,
                "HONBKBEPNEI": true,
                "BAIDPOBCCPN": 150.0,
                "MOBEEJIGMID": [
                  21010105,
                  21020704,
                  21010404,
                  24060903,
                  24061103,
                  25010226,
                  70331003,
                  70331033
                ],
                "GEJNMFFGECL": 1.0,
                "PKGOEJGOCND": 4.411799907684326
              }
            }
          ]
        },
        "CameraPos_02_Normal": {
          "modifierName": "",
          "IPFJJJGABPL": 100.0,
          "modifierMixins": [
            {
              "$type": "BJAMAIBGOPD",
              "JLPODGJBMHD": {
                "$type": "OBILOLCLHFF",
                "AEAMANCFLLA": "CameraPivot_2",
                "BOLMHHFIMFA": {
                  "z": -1.0
                },
                "defaultRadius": 0.10000000149011612,
                "fov": 40.0,
                "HOALMDAEIEN": -30.0,
                "JOLDBHFJJNP": 30.0,
                "GNOFBNGKEJF": -40.0,
                "FPLOLJNIKDN": 80.0,
                "HONBKBEPNEI": true,
                "BAIDPOBCCPN": 150.0,
                "MOBEEJIGMID": [
                  21010105,
                  21020704,
                  21010404,
                  24060903,
                  24061103,
                  25010226,
                  70331003,
                  70331033
                ],
                "GEJNMFFGECL": 1.0,
                "PKGOEJGOCND": 4.411799907684326
              }
            }
          ]
        }
      },
      "onAdded": [
        {
          "$type": "AOOCGNCCAJB",
          "isAdd": true,
          "tag": "Is_SniperCamera"
        }
      ]
    }
  },
  {
    "Default": {
      "$type": "CBPBEHLOHKI",
      "abilityName": "SceneObj_Activity_Common_Property_Ani_Prop_FilmFestSniperCamera_03",
      "abilityMixins": [
        {
          "$type": "MLJAPFBGEEH",
          "globalValueKey": "GV_Filmfest_Sniper_Pos",
          "gvInTalk": 0.0,
          "valueSteps": [
            -0.5,
            1.5
          ],
          "modifierNameSteps": [
            "CameraPos_01_Normal"
          ]
        }
      ],
      "modifiers": {
        "CameraPos_01_Normal": {
          "modifierName": "",
          "IPFJJJGABPL": 100.0,
          "modifierMixins": [
            {
              "$type": "BJAMAIBGOPD",
              "JLPODGJBMHD": {
                "$type": "OBILOLCLHFF",
                "AEAMANCFLLA": "CameraPivot_1",
                "BOLMHHFIMFA": {
                  "z": -1.0
                },
                "defaultRadius": 0.10000000149011612,
                "fov": 40.0,
                "HOALMDAEIEN": -30.0,
                "JOLDBHFJJNP": 40.0,
                "GNOFBNGKEJF": -50.0,
                "FPLOLJNIKDN": 80.0,
                "HONBKBEPNEI": true,
                "BAIDPOBCCPN": 150.0,
                "MOBEEJIGMID": [
                  21010105,
                  21020704,
                  21010404,
                  24060903,
                  24061103,
                  25010226,
                  70331003,
                  70331033
                ],
                "GEJNMFFGECL": 1.0,
                "PKGOEJGOCND": 4.411799907684326
              }
            }
          ]
        }
      },
      "onAdded": [
        {
          "$type": "AOOCGNCCAJB",
          "isAdd": true,
          "tag": "Is_SniperCamera"
        }
      ]
    }
  },
  {
    "Default": {
      "$type": "CBPBEHLOHKI",
      "abilityName": "SceneObj_Activity_Common_Property_Ani_Prop_FilmFestSniperCamera_04",
      "abilityMixins": [
        {
          "$type": "MLJAPFBGEEH",
          "globalValueKey": "GV_Filmfest_Sniper_Pos",
          "gvInTalk": 0.0,
          "valueSteps": [
            -0.5,
            0.5,
            1.5
          ],
          "modifierNameSteps": [
            "CameraPos_01_Normal",
            "CameraPos_02_Normal"
          ]
        }
      ],
      "modifiers": {
        "CameraPos_01_Normal": {
          "modifierName": "",
          "IPFJJJGABPL": 100.0,
          "modifierMixins": [
            {
              "$type": "BJAMAIBGOPD",
              "JLPODGJBMHD": {
                "$type": "OBILOLCLHFF",
                "AEAMANCFLLA": "CameraPivot_1",
                "BOLMHHFIMFA": {
                  "z": -1.0
                },
                "defaultRadius": 0.10000000149011612,
                "fov": 40.0,
                "HOALMDAEIEN": -30.0,
                "JOLDBHFJJNP": 25.0,
                "GNOFBNGKEJF": -25.0,
                "FPLOLJNIKDN": 85.0,
                "HONBKBEPNEI": true,
                "BAIDPOBCCPN": 150.0,
                "MOBEEJIGMID": [
                  21010105,
                  21020704,
                  21010404,
                  24060903,
                  24061103,
                  25010226,
                  70331003,
                  70331033
                ],
                "GEJNMFFGECL": 1.0,
                "PKGOEJGOCND": 4.411799907684326
              }
            }
          ]
        },
        "CameraPos_02_Normal": {
          "modifierName": "",
          "IPFJJJGABPL": 100.0,
          "modifierMixins": [
            {
              "$type": "BJAMAIBGOPD",
              "JLPODGJBMHD": {
                "$type": "OBILOLCLHFF",
                "AEAMANCFLLA": "CameraPivot_2",
                "BOLMHHFIMFA": {
                  "z": -1.0
                },
                "defaultRadius": 0.10000000149011612,
                "fov": 40.0,
                "HOALMDAEIEN": -30.0,
                "JOLDBHFJJNP": 30.0,
                "GNOFBNGKEJF": -90.0,
                "FPLOLJNIKDN": 60.0,
                "HONBKBEPNEI": true,
                "BAIDPOBCCPN": 150.0,
                "MOBEEJIGMID": [
                  21010105,
                  21020704,
                  21010404,
                  24060903,
                  24061103,
                  25010226,
                  70331003,
                  70331033
                ],
                "GEJNMFFGECL": 1.0,
                "PKGOEJGOCND": 4.411799907684326
              }
            }
          ]
        }
      },
      "onAdded": [
        {
          "$type": "AOOCGNCCAJB",
          "isAdd": true,
          "tag": "Is_SniperCamera"
        }
      ]
    }
  },
  {
    "Default": {
      "$type": "CBPBEHLOHKI",
      "abilityName": "SceneObj_Activity_Common_Property_Ani_Prop_FilmFestSniperCamera_05",
      "abilityMixins": [
        {
          "$type": "MLJAPFBGEEH",
          "globalValueKey": "GV_Filmfest_Sniper_Pos",
          "gvInTalk": 0.0,
          "valueSteps": [
            -0.5,
            1.5
          ],
          "modifierNameSteps": [
            "CameraPos_01_Normal"
          ]
        }
      ],
      "modifiers": {
        "CameraPos_01_Normal": {
          "modifierName": "",
          "IPFJJJGABPL": 100.0,
          "modifierMixins": [
            {
              "$type": "BJAMAIBGOPD",
              "JLPODGJBMHD": {
                "$type": "OBILOLCLHFF",
                "AEAMANCFLLA": "CameraPivot_1",
                "BOLMHHFIMFA": {
                  "z": -1.0
                },
                "defaultRadius": 0.10000000149011612,
                "fov": 40.0,
                "HOALMDAEIEN": -30.0,
                "JOLDBHFJJNP": 20.0,
                "GNOFBNGKEJF": -55.0,
                "FPLOLJNIKDN": 55.0,
                "HONBKBEPNEI": true,
                "BAIDPOBCCPN": 150.0,
                "MOBEEJIGMID": [
                  21010105,
                  21020704,
                  21010404,
                  24060903,
                  24061103,
                  25010226,
                  70331003,
                  70331033
                ],
                "GEJNMFFGECL": 1.0,
                "PKGOEJGOCND": 4.411799907684326
              }
            }
          ]
        }
      },
      "onAdded": [
        {
          "$type": "AOOCGNCCAJB",
          "isAdd": true,
          "tag": "Is_SniperCamera"
        }
      ]
    }
  },
  {
    "Default": {
      "$type": "CBPBEHLOHKI",
      "abilityName": "SceneObj_Level_Fd_Property_Ani_Prop_FilmfestSniper_Blindage_01",
      "onAdded": [
        {
          "$type": "KBFEIHEAMBM",
          "rotationDampTime": "Eff_SceneObj_FilmfestSniper_01_Appear",
          "PPPDJGDDOGD": 1.2000000476837158,
          "AJDILHJFNKE": -1.0
        }
      ],
      "onKill": [
        {
          "$type": "KBFEIHEAMBM",
          "rotationDampTime": "Eff_SceneObj_FilmfestSniper_01_Appear",
          "PPPDJGDDOGD": 1.2000000476837158,
          "AJDILHJFNKE": -1.0
        }
      ]
    }
  },
  {
    "Default": {
      "$type": "CBPBEHLOHKI",
      "abilityName": "SceneObj_Activity_Common_Property_Ani_Prop_FilmFestBallGame_01",
      "modifiers": {
        "FilmfestBallGame": {
          "modifierName": "",
          "IPFJJJGABPL": 100.0,
          "modifierMixins": [
            {
              "$type": "AAFNKBHKBGP",
              "CNGKJAJNCFL": "SGV_FilmFestBallGame_Start",
              "MKDGDICOMAJ": 100,
              "maxClientChaseSpeedRatio": 3.0,
              "FOEKILKAKJF": 300,
              "pingInterval": 100
            }
          ]
        },
        "FilmfestBallGame_Preload": {
          "modifierName": "",
          "IPFJJJGABPL": 100.0,
          "onAdded": [
            {
              "$type": "KBFEIHEAMBM",
              "rotationDampTime": "Eff_SceneObj_FilmfestBallGame_SealBall_01_Appear",
              "PPPDJGDDOGD": 1.0,
              "AJDILHJFNKE": -1.0
            },
            {
              "$type": "KBFEIHEAMBM",
              "rotationDampTime": "Eff_SceneObj_FilmfestBallGame_SealBall_01_Die",
              "PPPDJGDDOGD": 1.0,
              "AJDILHJFNKE": -1.0
            },
            {
              "$type": "ANLOBBMKNIJ",
              "rotationDampTime": "Eff_SceneObj_FilmfestBallGame_SealBall_01_Loop",
              "PPPDJGDDOGD": 1.0,
              "AJDILHJFNKE": -1.0
            },
            {
              "$type": "KBFEIHEAMBM",
              "rotationDampTime": "Eff_SceneObj_FilmfestBallGame_SealBall_02_Appear",
              "PPPDJGDDOGD": 1.0,
              "AJDILHJFNKE": -1.0
            },
            {
              "$type": "KBFEIHEAMBM",
              "rotationDampTime": "Eff_SceneObj_FilmfestBallGame_SealBall_02_Die",
              "PPPDJGDDOGD": 1.0,
              "AJDILHJFNKE": -1.0
            },
            {
              "$type": "ANLOBBMKNIJ",
              "rotationDampTime": "Eff_SceneObj_FilmfestBallGame_SealBall_02_Loop",
              "PPPDJGDDOGD": 1.0,
              "AJDILHJFNKE": -1.0
            }
          ]
        }
      },
      "onAdded": [
        {
          "$type": "JLDEMMJAMLC",
          "modifierName": "FilmfestBallGame"
        }
      ]
    }
  },
  {
    "Default": {
      "$type": "CBPBEHLOHKI",
      "abilityName": "SceneObj_Level_Fd_Property_Ani_Prop_FilmfestSniper_BalloonCart_01",
      "abilityMixins": [
        {
          "$type": "BPKALFNJLIG",
          "gadgetState": 204,
          "modifierName": "Finish"
        }
      ],
      "HKFPCGFFKMJ": [
        "GV_FilmfestBalloon_HP_PERCENT"
      ],
      "modifiers": {
        "BalloonCart_Normal": {
          "modifierName": "",
          "IPFJJJGABPL": 100.0
        },
        "BalloonCart_Hited": {
          "modifierName": "",
          "IPFJJJGABPL": 100.0,
          "onAdded": [
            {
              "$type": "LBINHEFBJMN",
              "param1": 202
            }
          ]
        },
        "BalloonCart_Borken": {
          "modifierName": "",
          "IPFJJJGABPL": 100.0,
          "onAdded": [
            {
              "$type": "LBINHEFBJMN",
              "param1": 203
            }
          ]
        },
        "Finish": {
          "modifierName": "",
          "IPFJJJGABPL": 100.0,
          "onAdded": [
            {
              "$type": "HBNEMPLJCMB",
              "hide": true
            },
            {
              "$type": "PFKNEFGOHIH",
              "modifierName": "Taunting"
            }
          ]
        },
        "Taunting": {
          "modifierName": "",
          "IPFJJJGABPL": 100.0,
          "thinkInterval": 2.0,
          "onBeingHit": [
            {
              "$type": "AHPEKICBIIL",
              "predicates": [
                {
                  "$type": "GAGDDICMFEH",
                  "damage": 0.0
                }
              ],
              "luaCallType": "CurGalleryControlGroup",
              "funcName": "SLC_Filmfest_Sniper_BalloonHPDown",
              "param1": 0.0,
              "MGAMDEHMCOL": 0.0,
              "MMHOHAOGPLP": 0.0
            }
          ],
          "onThinkInterval": [
            {
              "$type": "GKNNJOEDOOF",
              "otherTargets": {
                "$type": "IJOFJOGLDHE",
                "shapeName": "CircleR25",
                "campTargetType": "Enemy",
                "doOffStage": 1.0
              },
              "predicates": [
                {
                  "$type": "NIMAPECDNKD",
                  "entityTypes": [
                    "Monster"
                  ]
                }
              ],
              "careValue": 10.0
            }
          ]
        }
      },
      "onAdded": [
        {
          "$type": "KBFEIHEAMBM",
          "rotationDampTime": "Eff_SceneObj_FilmfestSniper_01_Appear",
          "PPPDJGDDOGD": 2.299999952316284,
          "AJDILHJFNKE": -1.0
        },
        {
          "$type": "PELJALPANCA",
          "modifierName": "Taunting"
        },
        {
          "$type": "BOBCOJHOKKD",
          "param3": 1.0,
          "key": "Is_Filmfest_Balloon",
          "param2": 0.0,
          "repeatTimes": 0.0
        },
        {
          "$type": "AOOCGNCCAJB",
          "isAdd": true,
          "tag": "SniperEscort"
        }
      ],
      "onAbilityStart": [
        {
          "$type": "PELJALPANCA",
          "modifierName": "Taunting"
        }
      ]
    }
  },
  {
    "Default": {
      "$type": "CBPBEHLOHKI",
      "abilityName": "SceneObj_Level_Fd_Property_Ani_Prop_FilmfestSniper_BalloonCart_Brk1",
      "modifiers": {
        "Cart_Brk1_Effect": {
          "modifierName": "",
          "IPFJJJGABPL": 100.0,
          "onAdded": [
            {
              "$type": "ANLOBBMKNIJ",
              "rotationDampTime": "Eff_Balloon_Broken_FanBase_01",
              "PPPDJGDDOGD": 1.0,
              "AJDILHJFNKE": -1.0
            },
            {
              "$type": "ANLOBBMKNIJ",
              "rotationDampTime": "Eff_Balloon_Broken_Base_01",
              "PPPDJGDDOGD": 1.0,
              "AJDILHJFNKE": -1.0
            }
          ]
        }
      },
      "onAbilityStart": [
        {
          "$type": "PELJALPANCA",
          "modifierName": "Cart_Brk1_Effect"
        }
      ]
    }
  },
  {
    "Default": {
      "$type": "CBPBEHLOHKI",
      "abilityName": "SceneObj_Level_Fd_Property_Ani_Prop_FilmfestSniper_BalloonCart_Brk2",
      "modifiers": {
        "Cart_Brk2_Effect": {
          "modifierName": "",
          "IPFJJJGABPL": 100.0,
          "onAdded": [
            {
              "$type": "ANLOBBMKNIJ",
              "rotationDampTime": "Eff_Balloon_Broken_Fan_01",
              "PPPDJGDDOGD": 1.0,
              "AJDILHJFNKE": -1.0
            },
            {
              "$type": "ANLOBBMKNIJ",
              "rotationDampTime": "Eff_Balloon_Broken_Balloon_01",
              "PPPDJGDDOGD": 1.0,
              "AJDILHJFNKE": -1.0
            }
          ]
        }
      },
      "onAbilityStart": [
        {
          "$type": "PELJALPANCA",
          "modifierName": "Cart_Brk2_Effect"
        }
      ]
    }
  },
  {
    "Default": {
      "$type": "CBPBEHLOHKI",
      "abilityName": "SceneObj_Activity_Common_Property_Ani_Prop_FilmFestBallGameGate_01",
      "modifiers": {
        "UNIQUE_FilmFestBallGameGate_MonsterKillSelf": {
          "stacking": "RefreshUniqueDurability",
          "stackingOption": {
            "abilitySpecialName": "",
            "enableMixedUnique": true
          },
          "modifierName": "",
          "forceTriggerWhenChangeAuthority": true,
          "IPFJJJGABPL": 100.0,
          "modifierMixins": [
            {
              "$type": "NAOEBBPINOO",
              "dieForceDisappearTime": 2.0,
              "dieDisappearEffect": "",
              "startDieEndAtOnce": true,
              "ignoreElementDie": true
            },
            {
              "$type": "HCCJNFOGEKI",
              "oldPatterns": [
                "Monster_Slime_Electric_02_Die",
                "Monster_Slime_Electric_03_Die",
                "Monster_Slime_Fire_Die_02",
                "Monster_Slime_Fire_Die_03"
              ],
              "newPatterns": [
                "Monster_Slime_Fire_Die_03_WithFire",
                "Monster_Slime_Fire_Die_03_WithFire",
                "Monster_Slime_Fire_Die_03_WithFire",
                "Monster_Slime_Fire_Die_03_WithFire"
              ]
            }
          ],
          "onAdded": [
            {
              "$type": "NCFFNDHGCMH"
            },
            {
              "$type": "HBNEMPLJCMB",
              "hide": true
            },
            {
              "$type": "KBFEIHEAMBM",
              "rotationDampTime": "Eff_Monster_Slime_Fire_Die",
              "PPPDJGDDOGD": 1.0,
              "AJDILHJFNKE": -1.0
            }
          ]
        }
      },
      "onFieldEnter": [
        {
          "$type": "INBCDALOHMP",
          "target": "Target",
          "targetPredicates": [
            {
              "$type": "NIMAPECDNKD",
              "entityTypes": [
                "Monster"
              ]
            },
            {
              "$type": "BCFNGJHILAG",
              "predicates": [
                {
                  "$type": "BHFFBBOLCCP",
                  "modifierName": "UNIQUE_FilmFestBallGameGate_MonsterKillSelf"
                }
              ]
            }
          ],
          "successActions": [
            {
              "$type": "PELJALPANCA",
              "target": "Target",
              "modifierName": "UNIQUE_FilmFestBallGameGate_MonsterKillSelf"
            }
          ]
        }
      ]
    }
  },
  {
    "Default": {
      "$type": "CBPBEHLOHKI",
      "abilityName": "SceneObj_Activity_Common_Property_Ani_Prop_FilmFestWoodenObject_01",
      "modifiers": {
        "WoodMaterial": {
          "modifierName": "",
          "elementType": "Wood",
          "IPFJJJGABPL": 30.0,
          "state": "Limbo",
          "onAdded": [
            {
              "$type": "JLDEMMJAMLC",
              "modifierName": "Die_Effect"
            }
          ],
          "onRemoved": [
            {
              "$type": "LCOEFEMOHLP",
              "param3": 1.0,
              "key": "_WoodenObject_DeathType",
              "param2": 0.0,
              "repeatTimes": 0.0
            }
          ],
          "onBeingHit": [
            {
              "$type": "INBCDALOHMP",
              "targetPredicates": [
                {
                  "$type": "BCFNGJHILAG",
                  "predicates": [
                    {
                      "$type": "PNLEEOAGKLD",
                      "element": "Fire"
                    },
                    {
                      "$type": "GAGDDICMFEH",
                      "logic": "Equal",
                      "damage": 0.0
                    }
                  ]
                },
                {
                  "$type": "BCFNGJHILAG",
                  "predicates": [
                    {
                      "$type": "NFJHABGCNHE",
                      "element": "Fire"
                    }
                  ]
                }
              ],
              "successActions": [
                {
                  "$type": "KBFEIHEAMBM",
                  "rotationDampTime": "Eff_SceneObj_WoodenObject_Broken",
                  "PPPDJGDDOGD": 1.0,
                  "AJDILHJFNKE": -1.0
                },
                {
                  "$type": "NCFFNDHGCMH"
                }
              ]
            },
            {
              "$type": "INBCDALOHMP",
              "targetPredicates": [
                {
                  "$type": "NFJHABGCNHE",
                  "element": "Water"
                },
                {
                  "$type": "BCFNGJHILAG",
                  "predicates": [
                    {
                      "$type": "GAGDDICMFEH",
                      "logic": "Equal",
                      "damage": 0.0
                    }
                  ]
                }
              ],
              "successActions": [
                {
                  "$type": "KBFEIHEAMBM",
                  "rotationDampTime": "Eff_SceneObj_WoodenObject_Broken",
                  "PPPDJGDDOGD": 1.0,
                  "AJDILHJFNKE": -1.0
                },
                {
                  "$type": "NCFFNDHGCMH"
                }
              ]
            }
          ]
        },
        "Die_Effect": {
          "modifierName": "",
          "IPFJJJGABPL": 100.0,
          "onRemoved": [
            {
              "$type": "KBFEIHEAMBM",
              "predicates": [
                {
                  "$type": "CNGGLKHONAA",
                  "key": "_WoodenObject_DeathType",
                  "param3": 0.0,
                  "compareType": "MoreThan"
                }
              ],
              "rotationDampTime": "Eff_SceneObj_HiliWoodenBox_01_BurnOut",
              "PPPDJGDDOGD": 1.0,
              "AJDILHJFNKE": -1.0
            },
            {
              "$type": "NCFFNDHGCMH",
              "predicates": [
                {
                  "$type": "CNGGLKHONAA",
                  "key": "_WoodenObject_DeathType",
                  "param3": 0.0,
                  "compareType": "MoreThan"
                }
              ]
            }
          ]
        }
      },
      "onAdded": [
        {
          "$type": "KBFEIHEAMBM",
          "rotationDampTime": "Eff_SceneObj_FilmfestSniper_01_Appear",
          "PPPDJGDDOGD": 0.8999999761581421,
          "AJDILHJFNKE": -1.0
        },
        {
          "$type": "PELJALPANCA",
          "modifierName": "WoodMaterial"
        },
        {
          "$type": "LCOEFEMOHLP",
          "param3": 0.0,
          "key": "_WoodenObject_DeathType",
          "param2": 0.0,
          "repeatTimes": 0.0
        },
        {
          "$type": "FNPMFLOOCDD",
          "param3": 1.0,
          "key": "Is_FilmfestSniper_Breakable",
          "param2": 0.0,
          "repeatTimes": 0.0
        },
        {
          "$type": "LCOEFEMOHLP",
          "param3": 1.0,
          "key": "_ABILITY_BURNING_IGNITE_ONLY",
          "useLimitRange": true,
          "param2": 1.0,
          "repeatTimes": 1.0
        }
      ],
      "onKill": [
        {
          "$type": "KBFEIHEAMBM",
          "predicates": [
            {
              "$type": "CNGGLKHONAA",
              "key": "_WoodenObject_DeathType",
              "param3": 0.0,
              "compareType": "NoneOrEqual"
            }
          ],
          "rotationDampTime": "Eff_SceneObj_WoodenObject_Broken",
          "PPPDJGDDOGD": 1.0,
          "AJDILHJFNKE": -1.0
        }
      ]
    }
  },
  {
    "Default": {
      "$type": "CBPBEHLOHKI",
      "abilityName": "SceneObj_Activity_Common_Property_Ani_Prop_FilmFestQQTarget_01",
      "onAdded": [
        {
          "$type": "KBFEIHEAMBM",
          "rotationDampTime": "Eff_SceneObj_FilmfestSniper_01_Appear",
          "PPPDJGDDOGD": 0.44999998807907104,
          "AJDILHJFNKE": -1.0
        },
        {
          "$type": "FNPMFLOOCDD",
          "param3": 1.0,
          "key": "Is_FilmfestSniper_Breakable",
          "param2": 0.0,
          "repeatTimes": 0.0
        }
      ]
    }
  },
  {
    "Default": {
      "$type": "CBPBEHLOHKI",
      "abilityName": "SceneObj_Level_Fd_Property_Ani_Prop_FilmfestSniper_BombBox_01",
      "modifiers": {
        "BombBoxLoop": {
          "modifierName": "",
          "elementType": "Wood",
          "IPFJJJGABPL": 1.0,
          "onRemoved": [
            {
              "$type": "KBFEIHEAMBM",
              "rotationDampTime": "Eff_SceneObj_BombBarrel_03_Explode",
              "PPPDJGDDOGD": 1.0,
              "AJDILHJFNKE": -1.0
            },
            {
              "$type": "AIFPLABJNMA",
              "attackEvent": {
                "attackPattern": {
                  "$type": "BELNOFAKNBA",
                  "triggerType": "TriggerNoRepeat",
                  "ignoreMassive": true,
                  "born": {
                    "$type": "JHEBKCMEMLN",
                    "offset": {
                      "KGEPIMHBMOL": 0.0,
                      "JEBHCGDPFEJ": 0.5,
                      "LPCHALMFFOD": 0.0
                    }
                  },
                  "OAHPDLJIADP": 6.0
                },
                "attackInfo": {
                  "attackTag": "FilmfestSniper_Bomb",
                  "attenuationTag": "",
                  "attenuationGroup": "default",
                  "attackProperty": {
                    "actorGrassSubHurtDelta": 9999999.0,
                    "actorWindSubHurtDelta": 0.0,
                    "IPFJJJGABPL": 50.0,
                    "strikeType": "Blunt",
                    "enBreak": 9999999.0,
                    "GLKMCMDJBIK": 0.0
                  },
                  "hitPattern": {
                    "onHitEffectName": "default",
                    "hitImpulseY": "",
                    "hitImpulseType": "LV6",
                    "hitHaltTimeScale": 0.05000000074505806
                  },
                  "forceCameraShake": true,
                  "cameraShake": {
                    "shakeRange": 0.36000001430511475,
                    "shakeTime": 0.36000001430511475
                  }
                }
              },
              "targetType": "Enemy"
            },
            {
              "$type": "AIFPLABJNMA",
              "attackEvent": {
                "attackPattern": {
                  "$type": "BELNOFAKNBA",
                  "triggerType": "TriggerNoRepeat",
                  "born": {
                    "$type": "JHEBKCMEMLN"
                  },
                  "OAHPDLJIADP": 2.0
                },
                "attackInfo": {
                  "attackTag": "",
                  "attenuationTag": "",
                  "attenuationGroup": "default",
                  "attackProperty": {
                    "actorGrassSubHurtDelta": 1.0,
                    "actorWindSubHurtDelta": 0.0,
                    "IPFJJJGABPL": 50.0,
                    "strikeType": "Blunt",
                    "enBreak": 0.0,
                    "GLKMCMDJBIK": 0.0
                  }
                }
              },
              "targetType": "All"
            },
            {
              "$type": "NCFFNDHGCMH",
              "duration": 1.0,
              "hideEntity": true
            }
          ],
          "onBeingHit": [
            {
              "$type": "PFKNEFGOHIH",
              "predicates": [
                {
                  "$type": "BCFNGJHILAG",
                  "predicates": [
                    {
                      "$type": "GAGDDICMFEH",
                      "logic": "Equal",
                      "damage": 0.0
                    }
                  ]
                }
              ],
              "modifierName": "BombBoxLoop"
            }
          ],
          "onCrash": [
            {
              "$type": "PFKNEFGOHIH",
              "modifierName": "BombBoxLoop"
            }
          ]
        }
      },
      "onAdded": [
        {
          "$type": "PELJALPANCA",
          "modifierName": "BombBoxLoop"
        },
        {
          "$type": "FNPMFLOOCDD",
          "param3": 1.0,
          "key": "Is_FilmfestSniper_Breakable",
          "param2": 0.0,
          "repeatTimes": 0.0
        },
        {
          "$type": "KBFEIHEAMBM",
          "rotationDampTime": "Eff_SceneObj_FilmfestSniper_01_Appear",
          "PPPDJGDDOGD": 0.44999998807907104,
          "AJDILHJFNKE": -1.0
        }
      ],
      "onKill": [
        {
          "$type": "KBFEIHEAMBM",
          "predicates": [
            {
              "$type": "BHFFBBOLCCP",
              "modifierName": "BombBoxLoop"
            }
          ],
          "rotationDampTime": "Eff_SceneObj_FilmfestSniper_01_Appear",
          "PPPDJGDDOGD": 0.44999998807907104,
          "AJDILHJFNKE": -1.0
        }
      ]
    }
  },
  {
    "Default": {
      "$type": "CBPBEHLOHKI",
      "abilityName": "SceneObj_Activity_Common_Property_Ani_Prop_FilmFestBallGameCam_01",
      "onAdded": [
        {
          "$type": "PEAJMIPBILK",
          "canBeHandledOnRecover": true,
          "enable": true
        }
      ]
    }
  },
  {
    "Default": {
      "$type": "CBPBEHLOHKI",
      "abilityName": "SceneObj_Gear_Common_Property_Prop_JumpUp_03",
      "abilityMixins": [
        {
          "$type": "PHLKCMFKFIN",
          "globalValueKey": "CharAmusement_JumpUp",
          "valueSteps": [
            -1.5,
            0.5,
            1.5
          ],
          "modifierNameSteps": [
            "Mute",
            "Interactable"
          ]
        }
      ],
      "modifiers": {
        "Filmfest_BallGame_BuffPicked": {
          "modifierName": "",
          "elementDurability": 0.10000000149011612,
          "IPFJJJGABPL": 100.0,
          "onAdded": [
            {
              "$type": "AHPEKICBIIL",
              "luaCallType": "CurGalleryControlGroup",
              "funcName": "SLC_Filmfest_BallGame_BuffPicked",
              "param1": 0.0,
              "MGAMDEHMCOL": 0.0,
              "MMHOHAOGPLP": 0.0
            }
          ]
        },
        "UNIQUE_JumpUpuff_Filmfest_BallGame": {
          "stacking": "RefreshUniqueDurability",
          "modifierName": "",
          "forceTriggerWhenChangeAuthority": true,
          "elementDurability": 10.0,
          "IPFJJJGABPL": 100.0,
          "onAdded": [
            {
              "$type": "BOBCOJHOKKD",
              "target": "Team",
              "param3": 1.0,
              "key": "GV_JumpUpBuff",
              "useLimitRange": true,
              "param2": 1.0,
              "repeatTimes": 0.0
            }
          ],
          "onRemoved": [
            {
              "$type": "BOBCOJHOKKD",
              "target": "Team",
              "param3": 0.0,
              "key": "GV_JumpUpBuff",
              "useLimitRange": true,
              "param2": 1.0,
              "repeatTimes": 0.0
            }
          ]
        },
        "Interactable": {
          "modifierName": "",
          "IPFJJJGABPL": 100.0,
          "onAdded": [
            {
              "$type": "ANLOBBMKNIJ",
              "rotationDampTime": "Eff_SceneObj_JumpUp_01",
              "PPPDJGDDOGD": 1.0,
              "AJDILHJFNKE": -1.0
            }
          ],
          "onRemoved": [
            {
              "$type": "KBFEIHEAMBM",
              "rotationDampTime": "Eff_SceneObj_JumpUp_01_Dis",
              "PPPDJGDDOGD": 1.0,
              "AJDILHJFNKE": -1.0
            }
          ]
        },
        "Mute": {
          "modifierName": "",
          "elementDurability": 1.0,
          "IPFJJJGABPL": 100.0,
          "onRemoved": [
            {
              "$type": "BOBCOJHOKKD",
              "param3": 1.0,
              "key": "CharAmusement_JumpUp",
              "param2": 0.0,
              "repeatTimes": 0.0
            }
          ]
        }
      },
      "onAdded": [
        {
          "$type": "BOBCOJHOKKD",
          "param3": 1.0,
          "key": "CharAmusement_JumpUp",
          "param2": 0.0,
          "repeatTimes": 0.0
        }
      ],
      "onFieldEnter": [
        {
          "$type": "INBCDALOHMP",
          "target": "Target",
          "targetPredicates": [
            {
              "$type": "CNGGLKHONAA",
              "target": "Self",
              "key": "CharAmusement_JumpUp",
              "param3": 1.0
            }
          ],
          "successActions": [
            {
              "$type": "PELJALPANCA",
              "target": "TargetTeam",
              "modifierName": "UNIQUE_JumpUpuff_Filmfest_BallGame"
            },
            {
              "$type": "PELJALPANCA",
              "target": "TargetTeam",
              "modifierName": "Filmfest_BallGame_BuffPicked"
            },
            {
              "$type": "BOBCOJHOKKD",
              "param3": 0.0,
              "key": "CharAmusement_JumpUp",
              "param2": 0.0,
              "repeatTimes": 0.0
            }
          ]
        }
      ]
    }
  },
  {
    "Default": {
      "$type": "CBPBEHLOHKI",
      "abilityName": "SceneObj_Level_Common_Property_Ani_Light_GoalFollowSpot_01",
      "modifiers": {
        "LightManager": {
          "modifierName": "",
          "IPFJJJGABPL": 100.0,
          "onAdded": [
            {
              "$type": "ANLOBBMKNIJ",
              "rotationDampTime": "Eff_SceneObj_GoalFollowSpot",
              "born": {
                "$type": "KLPANPDGHHA",
                "useRotation": true,
                "attachPointName": "LightAttachPoint"
              },
              "PPPDJGDDOGD": 1.0,
              "AJDILHJFNKE": -1.0
            }
          ]
        },
        "StateManager": {
          "modifierName": "",
          "IPFJJJGABPL": 100.0,
          "modifierMixins": [
            {
              "$type": "BPKALFNJLIG",
              "modifierName": "CloseState"
            },
            {
              "$type": "BPKALFNJLIG",
              "gadgetState": 201,
              "modifierName": "LightOn"
            }
          ]
        },
        "CloseState": {
          "modifierName": "",
          "IPFJJJGABPL": 100.0,
          "modifierMixins": [
            {
              "$type": "GPCGHACDPIF",
              "KJOOHFLCIIK": true,
              "NLIOHMNJBAM": ""
            }
          ],
          "onAdded": [
            {
              "$type": "CLKGEHMNIEF",
              "transformNames": [
                "Light"
              ]
            },
            {
              "$type": "GFOOGEIKGBI",
              "parameter": "State",
              "attachPoint": "",
              "damageRatio": "Int",
              "rotationDampTime": "Eff_SceneObj_GoalFollowSpot"
            }
          ]
        },
        "LightOn": {
          "modifierName": "",
          "IPFJJJGABPL": 100.0,
          "modifierMixins": [
            {
              "$type": "GPCGHACDPIF",
              "DPAOMNELPHI": 1,
              "KJOOHFLCIIK": true,
              "NLIOHMNJBAM": ""
            }
          ],
          "onAdded": [
            {
              "$type": "CLKGEHMNIEF",
              "transformNames": [
                "Light"
              ],
              "setEnable": true
            },
            {
              "$type": "GFOOGEIKGBI",
              "parameter": "State",
              "attachPoint": "",
              "damageRatio": "Int",
              "value": 201,
              "rotationDampTime": "Eff_SceneObj_GoalFollowSpot"
            }
          ]
        }
      },
      "onAdded": [
        {
          "$type": "PELJALPANCA",
          "modifierName": "LightManager"
        },
        {
          "$type": "PELJALPANCA",
          "modifierName": "StateManager"
        }
      ]
    }
  },
  {
    "Default": {
      "$type": "CBPBEHLOHKI",
      "abilityName": "SceneObj_Area_Common_Property_Ani_Decal_Quest_Stain_01",
      "modifiers": {
        "Default_0": {
          "modifierName": "",
          "IPFJJJGABPL": 100.0,
          "onAdded": [
            {
              "$type": "ANLOBBMKNIJ",
              "rotationDampTime": "Eff_SceneObj_GroundDirty_02",
              "PPPDJGDDOGD": 1.0,
              "AJDILHJFNKE": -1.0
            }
          ],
          "onBeingHit": [
            {
              "$type": "LCOEFEMOHLP",
              "predicates": [
                {
                  "$type": "PNLEEOAGKLD",
                  "element": "Wind"
                }
              ],
              "param3": 1.0,
              "key": "_WIND_HIT_COUNT",
              "useLimitRange": true,
              "param2": 2.0,
              "repeatTimes": 0.0
            },
            {
              "$type": "GFOOGEIKGBI",
              "predicates": [
                {
                  "$type": "CNGGLKHONAA",
                  "key": "_WIND_HIT_COUNT",
                  "param3": 1.0
                }
              ],
              "parameter": "HalfDirty",
              "attachPoint": "",
              "rotationDampTime": "Eff_SceneObj_GroundDirty_02"
            },
            {
              "$type": "KBFEIHEAMBM",
              "predicates": [
                {
                  "$type": "PNLEEOAGKLD",
                  "element": "Wind"
                }
              ],
              "rotationDampTime": "Eff_SceneObj_GroundDirty_Blow",
              "PPPDJGDDOGD": 1.0,
              "AJDILHJFNKE": -1.0
            },
            {
              "$type": "PELJALPANCA",
              "target": "Team",
              "predicates": [
                {
                  "$type": "PNLEEOAGKLD",
                  "element": "Wind"
                }
              ],
              "modifierName": "CameraFog"
            },
            {
              "$type": "KBFEIHEAMBM",
              "predicates": [
                {
                  "$type": "PNLEEOAGKLD",
                  "element": "Water"
                }
              ],
              "rotationDampTime": "Eff_SceneObj_GroundDirty_Wash",
              "PPPDJGDDOGD": 1.0,
              "AJDILHJFNKE": -1.0
            },
            {
              "$type": "NCFFNDHGCMH",
              "predicates": [
                {
                  "$type": "PNLEEOAGKLD",
                  "element": "Water"
                }
              ]
            },
            {
              "$type": "NCFFNDHGCMH",
              "predicates": [
                {
                  "$type": "CNGGLKHONAA",
                  "key": "_WIND_HIT_COUNT",
                  "param3": 2.0
                }
              ]
            }
          ],
          "onKill": [
            {
              "$type": "GFOOGEIKGBI",
              "parameter": "NoDirty",
              "attachPoint": "",
              "rotationDampTime": "Eff_SceneObj_GroundDirty_02"
            }
          ]
        },
        "CameraFog": {
          "modifierName": "",
          "elementDurability": 1.5,
          "IPFJJJGABPL": 100.0,
          "modifierMixins": [
            {
              "$type": "COEDOLJOHAK",
              "postEffectAssetName": "PostEffect_Scene_Dust",
              "duration": 1.5
            }
          ]
        }
      },
      "onAdded": [
        {
          "$type": "PELJALPANCA",
          "modifierName": "Default_0"
        }
      ]
    }
  }
]