[
  {
    "Default": {
      "$type": "CBPBEHLOHKI",
      "abilityName": "V4_8_FairyBook_ScanEntity_Avatar_Handler",
      "abilityMixins": [
        {
          "$type": "CCNIOPJEHOE",
          "globalValueTarget": "Team",
          "globalValueKey": "Current_Interact_State",
          "valueSteps": [
            -0.5,
            0.5,
            1.5,
            2.5,
            3.5,
            4.5,
            5.5,
            6.5,
            100.5
          ],
          "modifierNameSteps": [
            "Interact_State_0",
            "Interact_State_1",
            "Interact_State_2",
            "Interact_State_3",
            "Interact_State_4",
            "Interact_State_5",
            "Interact_State_6",
            "Interact_State_99"
          ]
        }
      ],
      "modifiers": {
        "Interact_State_0": {
          "modifierName": "",
          "IPFJJJGABPL": 100.0,
          "modifierMixins": [
            {
              "$type": "KIDAFHCBAKN",
              "tag": "Activity4_8_MainTag",
              "CPNOIJMKBJK": [
                "Line_Type_1",
                "Line_Type_2_Frog",
                "Line_Type_2_Alpaca",
                "Flying_Squirrel",
                "Building_Blocks_Base"
              ]
            }
          ]
        },
        "Interact_State_1": {
          "modifierName": "",
          "IPFJJJGABPL": 100.0,
          "modifierMixins": [
            {
              "$type": "KIDAFHCBAKN",
              "tag": "Activity4_8_MainTag",
              "CPNOIJMKBJK": [
                "4_8_MainSystem_Empty"
              ]
            }
          ]
        },
        "Interact_State_2": {
          "modifierName": "",
          "IPFJJJGABPL": 100.0,
          "modifierMixins": [
            {
              "$type": "KIDAFHCBAKN",
              "tag": "Activity4_8_MainTag",
              "CPNOIJMKBJK": [
                "4_8_MainSystem_Empty"
              ]
            }
          ]
        },
        "Interact_State_3": {
          "modifierName": "",
          "IPFJJJGABPL": 100.0,
          "modifierMixins": [
            {
              "$type": "KIDAFHCBAKN",
              "tag": "Activity4_8_MainTag",
              "CPNOIJMKBJK": [
                "4_8_MainSystem_Empty"
              ]
            }
          ]
        },
        "Interact_State_4": {
          "modifierName": "",
          "IPFJJJGABPL": 100.0,
          "modifierMixins": [
            {
              "$type": "KIDAFHCBAKN",
              "tag": "Activity4_8_MainTag",
              "CPNOIJMKBJK": [
                "4_8_MainSystem_Empty"
              ]
            }
          ]
        },
        "Interact_State_5": {
          "modifierName": "",
          "IPFJJJGABPL": 100.0,
          "modifierMixins": [
            {
              "$type": "KIDAFHCBAKN",
              "tag": "Activity4_8_ToyBrick_Target",
              "CPNOIJMKBJK": [
                "ToyBrick_Target_Dis_16",
                "ToyBrick_Target_Dis_35",
                "Building_Blocks_Change"
              ]
            }
          ]
        },
        "Interact_State_6": {
          "modifierName": "",
          "IPFJJJGABPL": 100.0,
          "modifierMixins": [
            {
              "$type": "KIDAFHCBAKN",
              "tag": "Activity4_8_MainTag",
              "CPNOIJMKBJK": [
                "4_8_MainSystem_Empty"
              ]
            }
          ]
        },
        "Interact_State_99": {
          "modifierName": "",
          "IPFJJJGABPL": 100.0,
          "modifierMixins": [
            {
              "$type": "KIDAFHCBAKN",
              "tag": "Activity4_8_MainTag",
              "CPNOIJMKBJK": [
                "4_8_MainSystem_Empty"
              ]
            }
          ]
        },
        "Control_Skill_Info": {
          "modifierName": "",
          "IPFJJJGABPL": 100.0,
          "onAdded": [
            {
              "$type": "PDFENCBHHAI",
              "shieldHP": true,
              "skillID": 20087
            },
            {
              "$type": "PDFENCBHHAI",
              "shieldHP": true,
              "skillID": 20088
            },
            {
              "$type": "PDFENCBHHAI",
              "shieldHP": true,
              "skillID": 20089
            },
            {
              "$type": "PDFENCBHHAI",
              "shieldHP": true,
              "skillID": 20090
            },
            {
              "$type": "PDFENCBHHAI",
              "shieldHP": true,
              "skillID": 20074
            },
            {
              "$type": "PDFENCBHHAI",
              "shieldHP": true,
              "skillID": 20075
            },
            {
              "$type": "PDFENCBHHAI",
              "shieldHP": true,
              "skillID": 20079
            },
            {
              "$type": "PDFENCBHHAI",
              "shieldHP": true,
              "skillID": 20085
            },
            {
              "$type": "PDFENCBHHAI",
              "shieldHP": true,
              "skillID": 20078
            }
          ],
          "onRemoved": [
            {
              "$type": "KFOBADMAFJF",
              "shieldHP": true,
              "skillID": 20087,
              "refreshAfterRemove": true
            },
            {
              "$type": "KFOBADMAFJF",
              "shieldHP": true,
              "skillID": 20088,
              "refreshAfterRemove": true
            },
            {
              "$type": "KFOBADMAFJF",
              "shieldHP": true,
              "skillID": 20089,
              "refreshAfterRemove": true
            },
            {
              "$type": "KFOBADMAFJF",
              "shieldHP": true,
              "skillID": 20090,
              "refreshAfterRemove": true
            },
            {
              "$type": "KFOBADMAFJF",
              "shieldHP": true,
              "skillID": 20074,
              "refreshAfterRemove": true
            },
            {
              "$type": "KFOBADMAFJF",
              "shieldHP": true,
              "skillID": 20075,
              "refreshAfterRemove": true
            },
            {
              "$type": "KFOBADMAFJF",
              "shieldHP": true,
              "skillID": 20079,
              "refreshAfterRemove": true
            },
            {
              "$type": "KFOBADMAFJF",
              "shieldHP": true,
              "skillID": 20085,
              "refreshAfterRemove": true
            },
            {
              "$type": "KFOBADMAFJF",
              "shieldHP": true,
              "skillID": 20078,
              "refreshAfterRemove": true
            }
          ]
        },
        "ScanEntity_Normal_State": {
          "modifierName": "",
          "IPFJJJGABPL": 100.0,
          "modifierMixins": [
            {
              "$type": "CBMFLELNNFG",
              "tag": "Activity4_8_MainTag",
              "activateSkillKey": "AVATAR_LineType1",
              "DMPKMONDJOG": [
                {
                  "$type": "PELJALPANCA",
                  "target": "Target",
                  "modifierName": "TurnTo_Avatar_By_ScanEntity"
                }
              ],
              "ODIFIJILODN": [
                {
                  "$type": "PFKNEFGOHIH",
                  "target": "Target",
                  "modifierName": "TurnTo_Avatar_By_ScanEntity"
                }
              ],
              "EOMGLCGHMEJ": "Line_Type_1"
            },
            {
              "$type": "CBMFLELNNFG",
              "tag": "Activity4_8_MainTag",
              "activateSkillKey": "AVATAR_LineType2_Frog",
              "DMPKMONDJOG": [
                {
                  "$type": "PELJALPANCA",
                  "target": "Target",
                  "modifierName": "TurnTo_Avatar_By_ScanEntity"
                },
                {
                  "$type": "FNPMFLOOCDD",
                  "target": "Team",
                  "param3": 1.0,
                  "key": "OrigamiFrog_Select_On",
                  "param2": 0.0,
                  "repeatTimes": 0.0
                }
              ],
              "ODIFIJILODN": [
                {
                  "$type": "PFKNEFGOHIH",
                  "target": "Target",
                  "modifierName": "TurnTo_Avatar_By_ScanEntity"
                },
                {
                  "$type": "FNPMFLOOCDD",
                  "target": "Team",
                  "param3": 0.0,
                  "key": "OrigamiFrog_Select_On",
                  "param2": 0.0,
                  "repeatTimes": 0.0
                }
              ],
              "EOMGLCGHMEJ": "Line_Type_2_Frog"
            },
            {
              "$type": "CBMFLELNNFG",
              "tag": "Activity4_8_MainTag",
              "activateSkillKey": "AVATAR_LineType2_Alpaca",
              "DMPKMONDJOG": [
                {
                  "$type": "PELJALPANCA",
                  "target": "Target",
                  "modifierName": "TurnTo_Avatar_By_ScanEntity"
                },
                {
                  "$type": "FNPMFLOOCDD",
                  "target": "Team",
                  "param3": 1.0,
                  "key": "OrigamiAlpaca_Select_On",
                  "param2": 0.0,
                  "repeatTimes": 0.0
                }
              ],
              "ODIFIJILODN": [
                {
                  "$type": "PFKNEFGOHIH",
                  "target": "Target",
                  "modifierName": "TurnTo_Avatar_By_ScanEntity"
                },
                {
                  "$type": "FNPMFLOOCDD",
                  "target": "Team",
                  "param3": 0.0,
                  "key": "OrigamiAlpaca_Select_On",
                  "param2": 0.0,
                  "repeatTimes": 0.0
                }
              ],
              "EOMGLCGHMEJ": "Line_Type_2_Alpaca"
            },
            {
              "$type": "CBMFLELNNFG",
              "tag": "Activity4_8_MainTag",
              "activateSkillKey": "OrigamiSquirrel_Entrance_Energy",
              "DMPKMONDJOG": [
                {
                  "$type": "GJCAPCBELPA",
                  "target": "Other",
                  "abilityName": "V4_8_FairyBook_OrigamiSquirrel_TurnTo_Avatar_By_ScanEntity"
                }
              ],
              "EOMGLCGHMEJ": "Flying_Squirrel"
            },
            {
              "$type": "CBMFLELNNFG",
              "tag": "Activity4_8_MainTag",
              "activateSkillKey": "AVATAR_Building_Block_Charge",
              "EOMGLCGHMEJ": "Building_Blocks_Base"
            },
            {
              "$type": "CBMFLELNNFG",
              "tag": "Activity4_8_MainTag",
              "activateSkillKey": "Telelinestick_Entry_Energy",
              "EOMGLCGHMEJ": "Telelinestick"
            },
            {
              "$type": "CBMFLELNNFG",
              "tag": "Activity4_8_MainTag",
              "activateSkillKey": "LineStick_Entry_Energy",
              "EOMGLCGHMEJ": "LineStick"
            },
            {
              "$type": "MJAFGPBNKJC",
              "tag": "Activity4_8_MainTag",
              "onEnterHookArea": [
                {
                  "$type": "FNPMFLOOCDD",
                  "target": "Team",
                  "shieldHP": true,
                  "param3": 1.0,
                  "key": "ScanEntity_Area_Enter_Mark",
                  "param2": 0.0,
                  "repeatTimes": 0.0
                }
              ],
              "onExitHookArea": [
                {
                  "$type": "FNPMFLOOCDD",
                  "target": "Team",
                  "shieldHP": true,
                  "param3": 0.0,
                  "key": "ScanEntity_Area_Enter_Mark",
                  "param2": 0.0,
                  "repeatTimes": 0.0
                }
              ],
              "activateSkillKey": "4_8_MainTag_Mark"
            }
          ]
        },
        "TurnTo_Avatar_By_ScanEntity": {
          "modifierName": "",
          "IPFJJJGABPL": 100.0,
          "onAdded": [
            {
              "$type": "BOBCOJHOKKD",
              "param3": 1.0,
              "key": "IS_Be_Selected",
              "param2": 0.0,
              "repeatTimes": 0.0
            }
          ],
          "onRemoved": [
            {
              "$type": "BOBCOJHOKKD",
              "param3": 0.0,
              "key": "IS_Be_Selected",
              "param2": 0.0,
              "repeatTimes": 0.0
            }
          ]
        },
        "ScanEntity_ToyBrick_State": {
          "modifierName": "",
          "IPFJJJGABPL": 100.0,
          "modifierMixins": [
            {
              "$type": "CBMFLELNNFG",
              "tag": "Activity4_8_ToyBrick_Target",
              "activateSkillKey": "AVATAR_Building_Block_Far_SelectionMark",
              "DMPKMONDJOG": [
                {
                  "$type": "EGJDFNHCFAA",
                  "target": "Target",
                  "shieldHP": true,
                  "targetKey": "BB_FollowTarget_Runtime_Id",
                  "HGCODPCGCAF": "Team"
                },
                {
                  "$type": "GJCAPCBELPA",
                  "target": "Target",
                  "otherTargets": {
                    "$type": "MKAPNKAKCPG",
                    "targetKey": "Building_Block_Source_Id",
                    "PONIBHCMMOE": "Team"
                  },
                  "abilityName": "V4_8_FairyBook_BasicBrick_Common_Get_TempFollowTarget_01"
                }
              ],
              "EOMGLCGHMEJ": "ToyBrick_Target_Dis_16"
            },
            {
              "$type": "CBMFLELNNFG",
              "tag": "Activity4_8_ToyBrick_Target",
              "activateSkillKey": "AVATAR_Building_Block_Far_SelectionMark",
              "DMPKMONDJOG": [
                {
                  "$type": "EGJDFNHCFAA",
                  "target": "Target",
                  "shieldHP": true,
                  "targetKey": "BB_FollowTarget_Runtime_Id",
                  "HGCODPCGCAF": "Team"
                },
                {
                  "$type": "GJCAPCBELPA",
                  "target": "Target",
                  "otherTargets": {
                    "$type": "MKAPNKAKCPG",
                    "targetKey": "Building_Block_Source_Id",
                    "PONIBHCMMOE": "Team"
                  },
                  "abilityName": "V4_8_FairyBook_BasicBrick_Common_Get_TempFollowTarget_01"
                }
              ],
              "EOMGLCGHMEJ": "ToyBrick_Target_Dis_35"
            },
            {
              "$type": "CBMFLELNNFG",
              "tag": "Activity4_8_ToyBrick_Target",
              "activateSkillKey": "AVATAR_Building_Block_Change_Charge",
              "EOMGLCGHMEJ": "Building_Blocks_Change"
            }
          ]
        }
      },
      "onAdded": [
        {
          "$type": "EGJDFNHCFAA",
          "targetKey": "Player_Runtime_Id"
        },
        {
          "$type": "PELJALPANCA",
          "shieldHP": true,
          "modifierName": "ScanEntity_Normal_State"
        },
        {
          "$type": "PELJALPANCA",
          "shieldHP": true,
          "modifierName": "Control_Skill_Info"
        },
        {
          "$type": "PELJALPANCA",
          "shieldHP": true,
          "modifierName": "ScanEntity_ToyBrick_State"
        }
      ],
      "isDynamicAbility": true
    }
  },
  {
    "Default": {
      "$type": "CBPBEHLOHKI",
      "abilityName": "V4_8_FairyBook_Default_TSkill_Team_Handler",
      "abilityMixins": [
        {
          "$type": "PHLKCMFKFIN",
          "globalValueKey": "ScanEntity_Area_Enter_Mark",
          "valueSteps": [
            -0.5,
            0.5,
            1.5
          ],
          "modifierNameSteps": [
            "Remove_Default_T",
            "ScanEntity_Default_T_Handler"
          ]
        }
      ],
      "abilitySpecials": {
        "Origami_Frog_Check_Dis": 3.799999952316284,
        "Origami_Alpaca_Check_Dis": 4.5,
        "Origami_Squirrel_Check_Dis": 15.0,
        "Toy_Brick_Check_Dis": 20.0,
        "Line_Common_Type1_Check_Dis": 30.0
      },
      "HKFPCGFFKMJ": [
        "Origami_Frog_Dis_Mark",
        "Origami_Alpaca_Dis_Mark",
        "Origami_Squirrel_Dis_Mark",
        "Toy_Brick_Dis_Mark",
        "Line_Common_Type1_Dis_Mark",
        "TeleLineStick_Dis_Mark",
        "LineStick_Dis_Mark"
      ],
      "modifiers": {
        "Remove_Default_T": {
          "modifierName": "",
          "IPFJJJGABPL": 100.0
        },
        "ScanEntity_Default_T_Handler": {
          "modifierName": "",
          "IPFJJJGABPL": 100.0,
          "thinkInterval": 0.20000000298023224,
          "modifierMixins": [
            {
              "$type": "PHLKCMFKFIN",
              "globalValueKey": "Default_T_Calc_Res",
              "valueSteps": [
                -0.5,
                0.5,
                100.0
              ],
              "modifierNameSteps": [
                "Default_T_Off",
                "Default_T_On"
              ]
            }
          ],
          "onRemoved": [
            {
              "$type": "MEBKBLNELMM",
              "globalValueList": [
                {
                  "key": "Default_T_Calc_Res",
                  "param3": 0.0,
                  "param2": 0.0,
                  "repeatTimes": 0.0
                },
                {
                  "key": "Origami_Frog_Dis_Mark",
                  "param3": 0.0,
                  "param2": 0.0,
                  "repeatTimes": 0.0
                },
                {
                  "key": "Origami_Alpaca_Dis_Mark",
                  "param3": 0.0,
                  "param2": 0.0,
                  "repeatTimes": 0.0
                },
                {
                  "key": "Origami_Squirrel_Dis_Mark",
                  "param3": 0.0,
                  "param2": 0.0,
                  "repeatTimes": 0.0
                },
                {
                  "key": "Toy_Brick_Dis_Mark",
                  "param3": 0.0,
                  "param2": 0.0,
                  "repeatTimes": 0.0
                },
                {
                  "key": "Line_Common_Type1_Dis_Mark",
                  "param3": 0.0,
                  "param2": 0.0,
                  "repeatTimes": 0.0
                },
                {
                  "key": "TeleLineStick_Dis_Mark",
                  "param3": 0.0,
                  "param2": 0.0,
                  "repeatTimes": 0.0
                },
                {
                  "key": "LineStick_Dis_Mark",
                  "param3": 0.0,
                  "param2": 0.0,
                  "repeatTimes": 0.0
                }
              ]
            }
          ],
          "onThinkInterval": [
            {
              "$type": "IEFLIBEILGD",
              "targetPredicates": [
                {
                  "$type": "FMBJAJFLDIP",
                  "logic": "Lesser",
                  "compareType": "XYZ",
                  "param3": "Origami_Frog_Check_Dis",
                  "DDALGNLEHOD": ""
                }
              ],
              "successActions": [
                {
                  "$type": "FNPMFLOOCDD",
                  "param3": 1.0,
                  "key": "Origami_Frog_Dis_Mark",
                  "param2": 0.0,
                  "repeatTimes": 0.0
                }
              ],
              "failActions": [
                {
                  "$type": "FNPMFLOOCDD",
                  "param3": 0.0,
                  "key": "Origami_Frog_Dis_Mark",
                  "param2": 0.0,
                  "repeatTimes": 0.0
                }
              ],
              "PLMBOKJJOOK": {
                "$type": "PBLNLAENOGB",
                "topLimit": 1,
                "sortType": "Nearest",
                "tag": "Origami_Frog"
              },
              "OJBCPOFPDGN": [
                {
                  "$type": "FNPMFLOOCDD",
                  "param3": 0.0,
                  "key": "Origami_Frog_Dis_Mark",
                  "param2": 0.0,
                  "repeatTimes": 0.0
                }
              ]
            },
            {
              "$type": "IEFLIBEILGD",
              "targetPredicates": [
                {
                  "$type": "FMBJAJFLDIP",
                  "logic": "Lesser",
                  "compareType": "XYZ",
                  "param3": "Origami_Squirrel_Check_Dis",
                  "DDALGNLEHOD": ""
                }
              ],
              "successActions": [
                {
                  "$type": "FNPMFLOOCDD",
                  "param3": 1.0,
                  "key": "Origami_Squirrel_Dis_Mark",
                  "param2": 0.0,
                  "repeatTimes": 0.0
                }
              ],
              "failActions": [
                {
                  "$type": "FNPMFLOOCDD",
                  "param3": 0.0,
                  "key": "Origami_Squirrel_Dis_Mark",
                  "param2": 0.0,
                  "repeatTimes": 0.0
                }
              ],
              "PLMBOKJJOOK": {
                "$type": "PBLNLAENOGB",
                "topLimit": 1,
                "sortType": "Nearest",
                "tag": "Origami_Squirrel"
              },
              "OJBCPOFPDGN": [
                {
                  "$type": "FNPMFLOOCDD",
                  "param3": 0.0,
                  "key": "Origami_Squirrel_Dis_Mark",
                  "param2": 0.0,
                  "repeatTimes": 0.0
                }
              ]
            },
            {
              "$type": "IEFLIBEILGD",
              "targetPredicates": [
                {
                  "$type": "FMBJAJFLDIP",
                  "logic": "Lesser",
                  "compareType": "XYZ",
                  "param3": "Origami_Alpaca_Check_Dis",
                  "DDALGNLEHOD": ""
                }
              ],
              "successActions": [
                {
                  "$type": "FNPMFLOOCDD",
                  "param3": 1.0,
                  "key": "Origami_Alpaca_Dis_Mark",
                  "param2": 0.0,
                  "repeatTimes": 0.0
                }
              ],
              "failActions": [
                {
                  "$type": "FNPMFLOOCDD",
                  "param3": 0.0,
                  "key": "Origami_Alpaca_Dis_Mark",
                  "param2": 0.0,
                  "repeatTimes": 0.0
                }
              ],
              "PLMBOKJJOOK": {
                "$type": "PBLNLAENOGB",
                "topLimit": 1,
                "sortType": "Nearest",
                "tag": "Origami_Alpaca"
              },
              "OJBCPOFPDGN": [
                {
                  "$type": "FNPMFLOOCDD",
                  "param3": 0.0,
                  "key": "Origami_Alpaca_Dis_Mark",
                  "param2": 0.0,
                  "repeatTimes": 0.0
                }
              ]
            },
            {
              "$type": "IEFLIBEILGD",
              "targetPredicates": [
                {
                  "$type": "FMBJAJFLDIP",
                  "logic": "Lesser",
                  "compareType": "XYZ",
                  "param3": "Toy_Brick_Check_Dis",
                  "DDALGNLEHOD": ""
                }
              ],
              "successActions": [
                {
                  "$type": "FNPMFLOOCDD",
                  "param3": 1.0,
                  "key": "Toy_Brick_Dis_Mark",
                  "param2": 0.0,
                  "repeatTimes": 0.0
                }
              ],
              "failActions": [
                {
                  "$type": "FNPMFLOOCDD",
                  "param3": 0.0,
                  "key": "Toy_Brick_Dis_Mark",
                  "param2": 0.0,
                  "repeatTimes": 0.0
                }
              ],
              "PLMBOKJJOOK": {
                "$type": "PBLNLAENOGB",
                "topLimit": 1,
                "sortType": "Nearest",
                "tag": "Toy_Brick"
              },
              "OJBCPOFPDGN": [
                {
                  "$type": "FNPMFLOOCDD",
                  "param3": 0.0,
                  "key": "Toy_Brick_Dis_Mark",
                  "param2": 0.0,
                  "repeatTimes": 0.0
                }
              ]
            },
            {
              "$type": "IEFLIBEILGD",
              "targetPredicates": [
                {
                  "$type": "FMBJAJFLDIP",
                  "logic": "Lesser",
                  "compareType": "XYZ",
                  "param3": "Line_Common_Type1_Check_Dis",
                  "DDALGNLEHOD": ""
                }
              ],
              "successActions": [
                {
                  "$type": "FNPMFLOOCDD",
                  "param3": 1.0,
                  "key": "Line_Common_Type1_Dis_Mark",
                  "param2": 0.0,
                  "repeatTimes": 0.0
                }
              ],
              "failActions": [
                {
                  "$type": "FNPMFLOOCDD",
                  "param3": 0.0,
                  "key": "Line_Common_Type1_Dis_Mark",
                  "param2": 0.0,
                  "repeatTimes": 0.0
                }
              ],
              "PLMBOKJJOOK": {
                "$type": "PBLNLAENOGB",
                "topLimit": 1,
                "sortType": "Nearest",
                "tag": "Line_Common_Type1"
              },
              "OJBCPOFPDGN": [
                {
                  "$type": "FNPMFLOOCDD",
                  "param3": 0.0,
                  "key": "Line_Common_Type1_Dis_Mark",
                  "param2": 0.0,
                  "repeatTimes": 0.0
                }
              ]
            },
            {
              "$type": "FNPMFLOOCDD",
              "param3": [
                "Origami_Frog_Dis_Mark",
                "Origami_Alpaca_Dis_Mark",
                "ADD",
                "Origami_Squirrel_Dis_Mark",
                "ADD",
                "Toy_Brick_Dis_Mark",
                "ADD",
                "Line_Common_Type1_Dis_Mark",
                "ADD",
                "TeleLineStick_Dis_Mark",
                "ADD",
                "LineStick_Dis_Mark",
                "ADD"
              ],
              "key": "Default_T_Calc_Res",
              "param2": 0.0,
              "repeatTimes": 0.0
            }
          ]
        },
        "Default_T_On": {
          "modifierName": "",
          "IPFJJJGABPL": 100.0,
          "modifierMixins": [
            {
              "$type": "NKEPLGAIEJM",
              "modifierName": "Add_ActivitySkill_20093"
            }
          ]
        },
        "Add_ActivitySkill_20093": {
          "modifierName": "",
          "IPFJJJGABPL": 100.0,
          "modifierMixins": [
            {
              "$type": "LDECLKPNDEB",
              "NNKIFCNNGJL": 20093
            }
          ]
        },
        "Default_T_Off": {
          "modifierName": "",
          "IPFJJJGABPL": 100.0
        }
      },
      "onAdded": [
        {
          "$type": "MEBKBLNELMM",
          "globalValueList": [
            {
              "key": "Default_T_Calc_Res",
              "param3": 0.0,
              "param2": 0.0,
              "repeatTimes": 0.0
            },
            {
              "key": "Origami_Frog_Dis_Mark",
              "param3": 0.0,
              "param2": 0.0,
              "repeatTimes": 0.0
            },
            {
              "key": "Origami_Alpaca_Dis_Mark",
              "param3": 0.0,
              "param2": 0.0,
              "repeatTimes": 0.0
            },
            {
              "key": "Origami_Squirrel_Dis_Mark",
              "param3": 0.0,
              "param2": 0.0,
              "repeatTimes": 0.0
            },
            {
              "key": "Toy_Brick_Dis_Mark",
              "param3": 0.0,
              "param2": 0.0,
              "repeatTimes": 0.0
            },
            {
              "key": "Line_Common_Type1_Dis_Mark",
              "param3": 0.0,
              "param2": 0.0,
              "repeatTimes": 0.0
            },
            {
              "key": "TeleLineStick_Dis_Mark",
              "param3": 0.0,
              "param2": 0.0,
              "repeatTimes": 0.0
            },
            {
              "key": "LineStick_Dis_Mark",
              "param3": 0.0,
              "param2": 0.0,
              "repeatTimes": 0.0
            }
          ]
        }
      ],
      "isDynamicAbility": true
    }
  },
  {
    "Default": {
      "$type": "CBPBEHLOHKI",
      "abilityName": "V4_8_FairyBook_ActivitySkill_Team_Handler",
      "abilityMixins": [
        {
          "$type": "PHLKCMFKFIN",
          "globalValueKey": "Current_Interact_State",
          "valueSteps": [
            -0.5,
            0.5,
            1.5,
            2.5,
            3.5,
            4.5,
            5.5,
            6.5,
            100.5
          ],
          "modifierNameSteps": [
            "T_Skill_State_0",
            "T_Skill_State_1",
            "T_Skill_State_2",
            "T_Skill_State_3",
            "T_Skill_State_4",
            "T_Skill_State_5",
            "T_Skill_State_6",
            "T_Skill_State_99"
          ]
        }
      ],
      "modifiers": {
        "Initialize_stategv": {
          "modifierName": "",
          "IPFJJJGABPL": 100.0,
          "onAdded": [
            {
              "$type": "ELNHKGAPIBJ",
              "content": "Initialize_stategvInitialize_stategvInitialize_stategvInitialize_stategv"
            },
            {
              "$type": "FNPMFLOOCDD",
              "target": "Team",
              "param3": 0.0,
              "key": "Current_Interact_State",
              "param2": 0.0,
              "repeatTimes": 0.0
            }
          ]
        },
        "T_Skill_State_0": {
          "modifierName": "",
          "IPFJJJGABPL": 100.0,
          "modifierMixins": [
            {
              "$type": "PHLKCMFKFIN",
              "globalValueKey": "AVATAR_LineType1",
              "valueSteps": [
                -0.5,
                0.5,
                1.5
              ],
              "modifierNameSteps": [
                "All_Off1",
                "LineType1_Link_On"
              ]
            },
            {
              "$type": "PHLKCMFKFIN",
              "globalValueKey": "AVATAR_LineType2_Frog",
              "valueSteps": [
                -0.5,
                0.5,
                1.5
              ],
              "modifierNameSteps": [
                "All_Off2",
                "Origami_Frog_ActivitySkill_On"
              ]
            },
            {
              "$type": "PHLKCMFKFIN",
              "globalValueKey": "Telelinestick_Entry_Energy",
              "valueSteps": [
                -0.5,
                0.5,
                1.5
              ],
              "modifierNameSteps": [
                "All_Off3",
                "Telelinestick_ActivitySkill_On"
              ]
            },
            {
              "$type": "PHLKCMFKFIN",
              "globalValueKey": "OrigamiSquirrel_Entrance_Energy",
              "valueSteps": [
                -0.5,
                0.5,
                1.5
              ],
              "modifierNameSteps": [
                "All_Off4",
                "Origami_Squirrel_ActivitySkill_On"
              ]
            },
            {
              "$type": "PHLKCMFKFIN",
              "globalValueKey": "AVATAR_Building_Block_Charge",
              "valueSteps": [
                -0.5,
                0.5,
                1.5
              ],
              "modifierNameSteps": [
                "All_Off5",
                "Toy_Brick_ExtraSkill_On"
              ]
            },
            {
              "$type": "PHLKCMFKFIN",
              "globalValueKey": "LineStick_Entry_Energy",
              "valueSteps": [
                -0.5,
                0.5,
                1.5
              ],
              "modifierNameSteps": [
                "All_Off6",
                "LineStick_ActivitySkill_On"
              ]
            },
            {
              "$type": "PHLKCMFKFIN",
              "globalValueKey": "AVATAR_LineType2_Alpaca",
              "valueSteps": [
                -0.5,
                0.5,
                1.5
              ],
              "modifierNameSteps": [
                "All_Off7",
                "Origami_Alpaca_ActivitySkill_On"
              ]
            }
          ]
        },
        "T_Skill_State_1": {
          "modifierName": "",
          "IPFJJJGABPL": 100.0
        },
        "T_Skill_State_2": {
          "modifierName": "",
          "IPFJJJGABPL": 100.0
        },
        "T_Skill_State_3": {
          "modifierName": "",
          "IPFJJJGABPL": 100.0,
          "onAdded": [
            {
              "$type": "JLDEMMJAMLC",
              "modifierName": "Origami_Squirrel_Exit_On"
            }
          ]
        },
        "T_Skill_State_4": {
          "modifierName": "",
          "IPFJJJGABPL": 100.0,
          "onAdded": [
            {
              "$type": "JLDEMMJAMLC",
              "modifierName": "Origami_Frog_GiveUpLink_On"
            }
          ]
        },
        "T_Skill_State_5": {
          "modifierName": "",
          "IPFJJJGABPL": 100.0,
          "modifierMixins": [
            {
              "$type": "PHLKCMFKFIN",
              "globalValueKey": "AVATAR_Building_Block_Change_Charge",
              "valueSteps": [
                -0.5,
                0.5,
                1.5
              ],
              "modifierNameSteps": [
                "All_Off5_SP",
                "Toy_Brick_Change_ExtraSkill_On"
              ]
            }
          ],
          "onAdded": [
            {
              "$type": "JLDEMMJAMLC",
              "modifierName": "Toy_Brick_Exit_On"
            }
          ]
        },
        "T_Skill_State_6": {
          "modifierName": "",
          "IPFJJJGABPL": 100.0,
          "onAdded": [
            {
              "$type": "JLDEMMJAMLC",
              "modifierName": "Origami_Alpaca_GiveUpLink_On"
            }
          ]
        },
        "T_Skill_State_99": {
          "modifierName": "",
          "IPFJJJGABPL": 100.0
        },
        "All_Off1": {
          "modifierName": "",
          "IPFJJJGABPL": 100.0
        },
        "All_Off2": {
          "modifierName": "",
          "IPFJJJGABPL": 100.0
        },
        "All_Off3": {
          "modifierName": "",
          "IPFJJJGABPL": 100.0
        },
        "All_Off4": {
          "modifierName": "",
          "IPFJJJGABPL": 100.0
        },
        "All_Off5": {
          "modifierName": "",
          "IPFJJJGABPL": 100.0
        },
        "All_Off6": {
          "modifierName": "",
          "IPFJJJGABPL": 100.0
        },
        "All_Off7": {
          "modifierName": "",
          "IPFJJJGABPL": 100.0
        },
        "All_Off5_SP": {
          "modifierName": "",
          "IPFJJJGABPL": 100.0
        },
        "Empty": {
          "modifierName": "",
          "IPFJJJGABPL": 100.0
        },
        "Empty_state_1": {
          "modifierName": "",
          "IPFJJJGABPL": 100.0
        },
        "Empty_state_3": {
          "modifierName": "",
          "IPFJJJGABPL": 100.0
        },
        "Empty_state_4": {
          "modifierName": "",
          "IPFJJJGABPL": 100.0
        },
        "Empty_state_5": {
          "modifierName": "",
          "IPFJJJGABPL": 100.0
        },
        "LineType1_Link_On": {
          "modifierName": "",
          "IPFJJJGABPL": 100.0,
          "modifierMixins": [
            {
              "$type": "NKEPLGAIEJM",
              "modifierName": "Add_ActivitySkill_20074"
            }
          ]
        },
        "Add_ActivitySkill_20074": {
          "modifierName": "",
          "IPFJJJGABPL": 100.0,
          "modifierMixins": [
            {
              "$type": "LDECLKPNDEB",
              "priority": "Auto",
              "NNKIFCNNGJL": 20074
            },
            {
              "$type": "LKBIMOJPJPG",
              "JJDAPDKKCAI": {
                "skillId": 20074,
                "LLNAEPLHJMJ": false
              }
            }
          ]
        },
        "Origami_Frog_ActivitySkill_On": {
          "modifierName": "",
          "IPFJJJGABPL": 100.0,
          "modifierMixins": [
            {
              "$type": "NKEPLGAIEJM",
              "modifierName": "Add_ActivitySkill_20075"
            }
          ]
        },
        "Add_ActivitySkill_20075": {
          "modifierName": "",
          "IPFJJJGABPL": 100.0,
          "modifierMixins": [
            {
              "$type": "LDECLKPNDEB",
              "priority": "Auto",
              "NNKIFCNNGJL": 20075
            },
            {
              "$type": "LKBIMOJPJPG",
              "JJDAPDKKCAI": {
                "skillId": 20075,
                "LLNAEPLHJMJ": false
              }
            }
          ]
        },
        "Origami_Frog_GiveUpLink_On": {
          "modifierName": "",
          "IPFJJJGABPL": 100.0,
          "modifierMixins": [
            {
              "$type": "NKEPLGAIEJM",
              "modifierName": "Add_ActivitySkill_20076"
            }
          ]
        },
        "Origami_Alpaca_ActivitySkill_On": {
          "modifierName": "",
          "IPFJJJGABPL": 100.0,
          "modifierMixins": [
            {
              "$type": "NKEPLGAIEJM",
              "modifierName": "Add_ActivitySkill_20111"
            }
          ]
        },
        "Add_ActivitySkill_20111": {
          "modifierName": "",
          "IPFJJJGABPL": 100.0,
          "modifierMixins": [
            {
              "$type": "LDECLKPNDEB",
              "priority": "Auto",
              "NNKIFCNNGJL": 20111
            },
            {
              "$type": "LKBIMOJPJPG",
              "JJDAPDKKCAI": {
                "skillId": 20111,
                "LLNAEPLHJMJ": false
              }
            }
          ]
        },
        "Origami_Alpaca_GiveUpLink_On": {
          "modifierName": "",
          "IPFJJJGABPL": 100.0,
          "modifierMixins": [
            {
              "$type": "NKEPLGAIEJM",
              "modifierName": "Add_ActivitySkill_20076"
            }
          ]
        },
        "Add_ActivitySkill_20076": {
          "modifierName": "",
          "IPFJJJGABPL": 100.0,
          "modifierMixins": [
            {
              "$type": "LDECLKPNDEB",
              "priority": "Auto",
              "NNKIFCNNGJL": 20076
            },
            {
              "$type": "LKBIMOJPJPG",
              "JJDAPDKKCAI": {
                "skillId": 20076,
                "JIFEAGNFFJP": false,
                "LLNAEPLHJMJ": false,
                "NEJEGHAFHFM": false
              }
            }
          ],
          "onAdded": [
            {
              "$type": "BOBCOJHOKKD",
              "target": "Team",
              "param3": 1.0,
              "key": "AVATAR_LineType2_Cancel",
              "useLimitRange": true,
              "param2": 1.0,
              "repeatTimes": 0.0
            },
            {
              "$type": "BGBCLNMIKIF",
              "skillID": 20076,
              "shareCDType": 1
            }
          ]
        },
        "Origami_Squirrel_ActivitySkill_On": {
          "modifierName": "",
          "IPFJJJGABPL": 100.0,
          "modifierMixins": [
            {
              "$type": "NKEPLGAIEJM",
              "modifierName": "Add_ActivitySkill_20069"
            }
          ]
        },
        "Add_ActivitySkill_20069": {
          "modifierName": "",
          "IPFJJJGABPL": 100.0,
          "modifierMixins": [
            {
              "$type": "LDECLKPNDEB",
              "priority": "Auto",
              "NNKIFCNNGJL": 20069
            },
            {
              "$type": "LKBIMOJPJPG",
              "JJDAPDKKCAI": {
                "skillId": 20069,
                "LLNAEPLHJMJ": false
              }
            }
          ]
        },
        "Origami_Squirrel_Exit_On": {
          "modifierName": "",
          "IPFJJJGABPL": 100.0,
          "modifierMixins": [
            {
              "$type": "LDECLKPNDEB",
              "priority": "Auto",
              "NNKIFCNNGJL": 20070
            },
            {
              "$type": "LKBIMOJPJPG",
              "JJDAPDKKCAI": {
                "skillId": 20070,
                "JIFEAGNFFJP": false,
                "LLNAEPLHJMJ": false,
                "NEJEGHAFHFM": false
              }
            }
          ],
          "onAdded": [
            {
              "$type": "BGBCLNMIKIF",
              "skillID": 20070,
              "shareCDType": 1
            }
          ]
        },
        "Toy_Brick_ExtraSkill_On": {
          "modifierName": "",
          "IPFJJJGABPL": 100.0,
          "modifierMixins": [
            {
              "$type": "NKEPLGAIEJM",
              "modifierName": "Add_ActivitySkill_20084"
            }
          ]
        },
        "Add_ActivitySkill_20084": {
          "modifierName": "",
          "IPFJJJGABPL": 100.0,
          "modifierMixins": [
            {
              "$type": "LDECLKPNDEB",
              "priority": "Auto",
              "NNKIFCNNGJL": 20084
            },
            {
              "$type": "LKBIMOJPJPG",
              "JJDAPDKKCAI": {
                "skillId": 20084,
                "LLNAEPLHJMJ": false
              }
            }
          ]
        },
        "Toy_Brick_Change_ExtraSkill_On": {
          "modifierName": "",
          "IPFJJJGABPL": 100.0,
          "modifierMixins": [
            {
              "$type": "LDECLKPNDEB",
              "priority": "Activity",
              "NNKIFCNNGJL": 20108
            },
            {
              "$type": "LKBIMOJPJPG",
              "JJDAPDKKCAI": {
                "skillId": 20108,
                "LLNAEPLHJMJ": false
              }
            }
          ]
        },
        "Toy_Brick_Exit_On": {
          "modifierName": "",
          "IPFJJJGABPL": 100.0,
          "modifierMixins": [
            {
              "$type": "LDECLKPNDEB",
              "priority": "Auto",
              "NNKIFCNNGJL": 20091
            },
            {
              "$type": "LKBIMOJPJPG",
              "JJDAPDKKCAI": {
                "skillId": 20091,
                "JIFEAGNFFJP": false,
                "LLNAEPLHJMJ": false,
                "NEJEGHAFHFM": false
              }
            }
          ]
        },
        "Telelinestick_ActivitySkill_On": {
          "modifierName": "",
          "IPFJJJGABPL": 100.0,
          "modifierMixins": [
            {
              "$type": "LDECLKPNDEB",
              "priority": "Auto",
              "NNKIFCNNGJL": 20065
            },
            {
              "$type": "LKBIMOJPJPG",
              "JJDAPDKKCAI": {
                "skillId": 20065,
                "LLNAEPLHJMJ": false
              }
            }
          ]
        },
        "LineStick_ActivitySkill_On": {
          "modifierName": "",
          "IPFJJJGABPL": 100.0,
          "modifierMixins": [
            {
              "$type": "LDECLKPNDEB",
              "priority": "Auto",
              "NNKIFCNNGJL": 20061
            },
            {
              "$type": "LKBIMOJPJPG",
              "JJDAPDKKCAI": {
                "skillId": 20061,
                "LLNAEPLHJMJ": false
              }
            }
          ]
        }
      },
      "onAdded": [
        {
          "$type": "PELJALPANCA",
          "modifierName": "Initialize_stategv"
        }
      ],
      "isDynamicAbility": true
    }
  },
  {
    "Default": {
      "$type": "CBPBEHLOHKI",
      "abilityName": "V4_8_FairyBook_Intercept_Dive_WaterState",
      "onAdded": [
        {
          "$type": "FNPMFLOOCDD",
          "param3": 1.0,
          "key": "Intercept_Dive_WaterState",
          "param2": 0.0,
          "repeatTimes": 0.0
        }
      ],
      "onRemoved": [
        {
          "$type": "FNPMFLOOCDD",
          "param3": 0.0,
          "key": "Intercept_Dive_WaterState",
          "param2": 0.0,
          "repeatTimes": 0.0
        }
      ],
      "isDynamicAbility": true
    }
  },
  {
    "Default": {
      "$type": "CBPBEHLOHKI",
      "abilityName": "V4_8_FairyBook_Common_CancelAll",
      "modifiers": {
        "Common_Cancel_GV_Listener": {
          "modifierName": "",
          "IPFJJJGABPL": 100.0,
          "modifierMixins": [
            {
              "$type": "JPPFBGJICKI",
              "key": "Team_Common_Cancel",
              "useLimitRange": true,
              "param2": 1.0,
              "repeatTimes": 0.0
            },
            {
              "$type": "PHLKCMFKFIN",
              "globalValueKey": "Team_Common_Cancel",
              "valueSteps": [
                0.5,
                1.5
              ],
              "modifierNameSteps": [
                "Cancel_All"
              ],
              "NMCLMHFBALJ": true
            }
          ]
        },
        "Cancel_All": {
          "modifierName": "",
          "elementDurability": 0.10000000149011612,
          "IPFJJJGABPL": 100.0,
          "onAdded": [
            {
              "$type": "GJCAPCBELPA",
              "abilityName": "V4_8_FairyBook_Common_CancelAll"
            }
          ],
          "onRemoved": [
            {
              "$type": "FNPMFLOOCDD",
              "param3": 0.0,
              "key": "Team_Common_Cancel",
              "param2": 0.0,
              "repeatTimes": 0.0
            }
          ]
        }
      },
      "onAdded": [
        {
          "$type": "JLDEMMJAMLC",
          "modifierName": "Common_Cancel_GV_Listener"
        },
        {
          "$type": "FNPMFLOOCDD",
          "param3": 0.0,
          "key": "Team_Common_Cancel",
          "param2": 0.0,
          "repeatTimes": 0.0
        }
      ],
      "onAbilityStart": [
        {
          "$type": "GJCAPCBELPA",
          "target": "Team",
          "abilityName": "V4_8_FairyBook_OrigamiSquirrel_Exit"
        },
        {
          "$type": "GJCAPCBELPA",
          "target": "Team",
          "abilityName": "V4_8_FairyBook_ToyBrick_Shoot_ManualExit_Entrance"
        },
        {
          "$type": "GJCAPCBELPA",
          "target": "CurLocalAvatar",
          "abilityName": "LineType_2_Avatar_GiveUp_Link"
        }
      ],
      "isDynamicAbility": true
    }
  },
  {
    "Default": {
      "$type": "CBPBEHLOHKI",
      "abilityName": "V4_8_FairyBook_FrogChorus_AvatarAbility",
      "abilityMixins": [
        {
          "$type": "IFICJIKKNLK",
          "reason": "Gallary"
        }
      ],
      "isDynamicAbility": true
    }
  },
  {
    "Default": {
      "$type": "CBPBEHLOHKI",
      "abilityName": "V4_8_FairyBook_DragonDungeon_BossFight_Team",
      "modifiers": {
        "DragonDungeon_ForbidSkill_Team": {
          "modifierName": "",
          "IPFJJJGABPL": 100.0,
          "modifierMixins": [
            {
              "$type": "NKEPLGAIEJM",
              "modifierName": "DragonDungeon_ForbidSkill_Avatar"
            }
          ]
        },
        "DragonDungeon_ForbidSkill_Avatar": {
          "modifierName": "",
          "IPFJJJGABPL": 100.0,
          "modifierMixins": [
            {
              "$type": "KAIOONFFNHC",
              "slotType": "Slot2"
            },
            {
              "$type": "KAIOONFFNHC",
              "slotType": "Slot5"
            },
            {
              "$type": "BAAHKAFDLOB"
            }
          ]
        }
      },
      "onAdded": [
        {
          "$type": "JLDEMMJAMLC",
          "modifierName": "DragonDungeon_ForbidSkill_Team"
        }
      ],
      "isDynamicAbility": true
    }
  },
  {
    "Default": {
      "$type": "CBPBEHLOHKI",
      "abilityName": "V4_8_FairyBook_DragonDungeon_CheckScene_Team",
      "modifiers": {
        "DragonDungeon_CheckScene": {
          "modifierName": "",
          "IPFJJJGABPL": 100.0,
          "thinkInterval": 1.0,
          "onThinkInterval": [
            {
              "$type": "AHPEKICBIIL",
              "predicates": [
                {
                  "$type": "CKHKMHGMACL"
                }
              ],
              "luaCallType": "SpecificGroup",
              "callParamList": [
                220221029
              ],
              "funcName": "SLC_DragonDungeon_SceneLoaded",
              "param1": 0.0,
              "MGAMDEHMCOL": 0.0,
              "MMHOHAOGPLP": 0.0
            },
            {
              "$type": "PFKNEFGOHIH",
              "predicates": [
                {
                  "$type": "CKHKMHGMACL"
                }
              ],
              "modifierName": "DragonDungeon_CheckScene"
            }
          ]
        }
      },
      "onAdded": [
        {
          "$type": "JLDEMMJAMLC",
          "modifierName": "DragonDungeon_CheckScene"
        }
      ],
      "isDynamicAbility": true
    }
  },
  {
    "Default": {
      "$type": "CBPBEHLOHKI",
      "abilityName": "V4_8_FairyBook_DragonDungeon_Audio",
      "abilityMixins": [
        {
          "$type": "PHLKCMFKFIN",
          "globalValueKey": "SGV_DragonDungeon_AudioType",
          "valueSteps": [
            0.5,
            1.5,
            2.5,
            3.5
          ],
          "modifierNameSteps": [
            "AudioType_01",
            "AudioType_02",
            "AudioType_03"
          ],
          "NMCLMHFBALJ": true
        }
      ],
      "modifiers": {
        "AudioType_01": {
          "modifierName": "",
          "IPFJJJGABPL": 100.0,
          "modifierMixins": [
            {
              "$type": "IOMONJDPOEC",
              "onAdded": [
                "v4_8_DragonDungeon_Music_Stage1_On"
              ],
              "onRemoved": [
                "v4_8_DragonDungeon_Music_Stage1_Off"
              ]
            }
          ]
        },
        "AudioType_02": {
          "modifierName": "",
          "IPFJJJGABPL": 100.0,
          "modifierMixins": [
            {
              "$type": "IOMONJDPOEC",
              "onAdded": [
                "v4_8_DragonDungeon_Music_Stage2_On"
              ],
              "onRemoved": [
                "v4_8_DragonDungeon_Music_Stage2_Off"
              ]
            }
          ]
        },
        "AudioType_03": {
          "modifierName": "",
          "IPFJJJGABPL": 100.0,
          "modifierMixins": [
            {
              "$type": "IOMONJDPOEC",
              "onAdded": [
                "v4_8_DragonDungeon_Music_Stage3_On"
              ],
              "onRemoved": [
                "v4_8_DragonDungeon_Music_Stage3_Off"
              ]
            }
          ]
        }
      },
      "isDynamicAbility": true
    }
  },
  {
    "Default": {
      "$type": "CBPBEHLOHKI",
      "abilityName": "V4_8_FairyBook_Common_StateResistance",
      "modifiers": {
        "StateResistance_Handler": {
          "modifierName": "",
          "IPFJJJGABPL": 100.0,
          "onAdded": [
            {
              "$type": "OPAOGKPJLIG",
              "resistanceListID": 11002
            }
          ]
        }
      },
      "onAdded": [
        {
          "$type": "JLDEMMJAMLC",
          "modifierName": "StateResistance_Handler"
        }
      ]
    }
  }
]