[
  {
    "Default": {
      "$type": "CBPBEHLOHKI",
      "abilityName": "SceneObj_Area_Fd_Property_Ani_Prop_EnergyCaster_Caster_01_Ability",
      "abilityMixins": [
        {
          "$type": "BPKALFNJLIG",
          "modifierName": "UnchargedState"
        },
        {
          "$type": "BPKALFNJLIG",
          "gadgetState": 201,
          "modifierName": "ChargedState"
        },
        {
          "$type": "BPKALFNJLIG",
          "gadgetState": 901,
          "modifierName": "InactiveState"
        },
        {
          "$type": "PHLKCMFKFIN",
          "globalValueKey": "SGV_CASTER_TAG",
          "valueSteps": [
            0.5,
            1.5
          ],
          "modifierNameSteps": [
            "CasterTag"
          ],
          "NMCLMHFBALJ": true
        },
        {
          "$type": "CCNIOPJEHOE",
          "globalValueKey": "_Ability_CASTER_INUSE",
          "valueSteps": [
            0.5,
            1.5
          ],
          "modifierNameSteps": [
            "CasterInUse"
          ],
          "NMCLMHFBALJ": true
        }
      ],
      "modifiers": {
        "CasterTag": {
          "modifierName": "",
          "IPFJJJGABPL": 100.0,
          "onAdded": [
            {
              "$type": "AOOCGNCCAJB",
              "isAdd": true,
              "tag": "ENERGYCASTER_FIRST"
            }
          ],
          "onRemoved": [
            {
              "$type": "AOOCGNCCAJB",
              "tag": "ENERGYCASTER_FIRST"
            }
          ]
        },
        "CasterInUse": {
          "modifierName": "",
          "IPFJJJGABPL": 100.0,
          "onAdded": [
            {
              "$type": "KFCDMIMBBLD",
              "born": {
                "$type": "IAENDIPDFKD",
                "useRotation": true
              },
              "lifeByOwnerV2": true,
              "gadgetID": 70320087,
              "campID": 1001,
              "campTargetType": "All"
            }
          ],
          "onRemoved": [
            {
              "$type": "JKFLDIKGJEF",
              "gadgetInfo": {
                "configID": 70320087
              }
            }
          ]
        },
        "UnchargedState": {
          "modifierName": "",
          "IPFJJJGABPL": 100.0,
          "modifierMixins": [
            {
              "$type": "GPCGHACDPIF",
              "DPAOMNELPHI": 2,
              "NLIOHMNJBAM": "Default"
            }
          ],
          "onAdded": [
            {
              "$type": "GICMAMGKKKA",
              "lightName": "Light",
              "targetColor": {
                "r": 0.9043999910354614,
                "g": 0.2761000096797943,
                "b": 0.21940000355243683,
                "a": 1.0
              },
              "targetIntensity": 1.0,
              "shouldSetColor": true,
              "shouldSetIntensity": true,
              "intensityUseCurve": true,
              "lerpTime": 1.0
            }
          ]
        },
        "ChargedState": {
          "modifierName": "",
          "IPFJJJGABPL": 100.0,
          "modifierMixins": [
            {
              "$type": "GPCGHACDPIF",
              "DPAOMNELPHI": 1,
              "NLIOHMNJBAM": "Default"
            }
          ],
          "onAdded": [
            {
              "$type": "GICMAMGKKKA",
              "lightName": "Light",
              "targetColor": {
                "r": 0.30880001187324524,
                "g": 0.9140999913215637,
                "b": 1.0,
                "a": 1.0
              },
              "targetIntensity": 1.0,
              "shouldSetColor": true,
              "shouldSetIntensity": true,
              "intensityUseCurve": true,
              "lerpTime": 1.0
            }
          ]
        },
        "InactiveState": {
          "modifierName": "",
          "IPFJJJGABPL": 100.0,
          "modifierMixins": [
            {
              "$type": "GPCGHACDPIF",
              "NLIOHMNJBAM": "Default"
            }
          ],
          "onAdded": [
            {
              "$type": "GICMAMGKKKA",
              "lightName": "Light",
              "shouldSetIntensity": true,
              "intensityUseCurve": true,
              "lerpTime": 1.0
            }
          ]
        }
      },
      "onAdded": [
        {
          "$type": "AOOCGNCCAJB",
          "isAdd": true,
          "tag": "ENERGYCASTER_TARGET"
        }
      ],
      "onRemoved": [
        {
          "$type": "AOOCGNCCAJB",
          "tag": "ENERGYCASTER_TARGET"
        }
      ]
    }
  },
  {
    "Default": {
      "$type": "CBPBEHLOHKI",
      "abilityName": "SceneObj_Area_Fd_Property_Ani_Prop_EnergyCaster_Operator_01_Ability",
      "abilityMixins": [
        {
          "$type": "BPKALFNJLIG",
          "modifierName": "UnchargedState"
        },
        {
          "$type": "BPKALFNJLIG",
          "gadgetState": 201,
          "modifierName": "ChargedState"
        },
        {
          "$type": "BPKALFNJLIG",
          "gadgetState": 901,
          "modifierName": "LockState"
        },
        {
          "$type": "BPKALFNJLIG",
          "gadgetState": 902,
          "modifierName": "ActiveState"
        }
      ],
      "modifiers": {
        "LockState": {
          "modifierName": "",
          "IPFJJJGABPL": 100.0,
          "modifierMixins": [
            {
              "$type": "GPCGHACDPIF",
              "NLIOHMNJBAM": "Default"
            }
          ],
          "onAdded": [
            {
              "$type": "ANLOBBMKNIJ",
              "rotationDampTime": "Eff_Item_SpecialTreasureBox_LockIdle_UW",
              "born": {
                "$type": "KLPANPDGHHA",
                "useRotation": true,
                "attachPointName": "AttachPoint"
              },
              "PPPDJGDDOGD": 1.0,
              "AJDILHJFNKE": -1.0
            },
            {
              "$type": "KJCHPDPBJHL",
              "boolID": "Rotate"
            },
            {
              "$type": "GICMAMGKKKA",
              "lightName": "Light",
              "shouldSetIntensity": true,
              "intensityUseCurve": true,
              "lerpTime": 1.0
            }
          ],
          "onRemoved": [
            {
              "$type": "KBFEIHEAMBM",
              "rotationDampTime": "Eff_Item_SpecialTreasureBox_Unlock_UW",
              "born": {
                "$type": "KLPANPDGHHA",
                "useRotation": true,
                "attachPointName": "AttachPoint"
              },
              "PPPDJGDDOGD": 1.0,
              "AJDILHJFNKE": -1.0
            }
          ]
        },
        "UnchargedState": {
          "modifierName": "",
          "IPFJJJGABPL": 100.0,
          "modifierMixins": [
            {
              "$type": "GPCGHACDPIF",
              "DPAOMNELPHI": 1,
              "NLIOHMNJBAM": "Default"
            }
          ],
          "onAdded": [
            {
              "$type": "KJCHPDPBJHL",
              "boolID": "Rotate"
            },
            {
              "$type": "GICMAMGKKKA",
              "lightName": "Light",
              "targetColor": {
                "r": 0.9043999910354614,
                "g": 0.2761000096797943,
                "b": 0.21940000355243683,
                "a": 1.0
              },
              "targetIntensity": 1.0,
              "shouldSetColor": true,
              "shouldSetIntensity": true,
              "intensityUseCurve": true,
              "lerpTime": 1.0
            }
          ]
        },
        "ChargedState": {
          "modifierName": "",
          "IPFJJJGABPL": 100.0,
          "modifierMixins": [
            {
              "$type": "GPCGHACDPIF",
              "DPAOMNELPHI": 3,
              "NLIOHMNJBAM": "Default"
            }
          ],
          "onAdded": [
            {
              "$type": "KJCHPDPBJHL",
              "boolID": "Rotate",
              "param3": true
            },
            {
              "$type": "GICMAMGKKKA",
              "lightName": "Light",
              "targetColor": {
                "r": 0.30880001187324524,
                "g": 0.9140999913215637,
                "b": 1.0,
                "a": 1.0
              },
              "targetIntensity": 1.0,
              "shouldSetColor": true,
              "shouldSetIntensity": true,
              "intensityUseCurve": true,
              "lerpTime": 1.0
            }
          ]
        },
        "ActiveState": {
          "modifierName": "",
          "IPFJJJGABPL": 100.0,
          "modifierMixins": [
            {
              "$type": "GPCGHACDPIF",
              "DPAOMNELPHI": 2,
              "NLIOHMNJBAM": "Default"
            }
          ],
          "onAdded": [
            {
              "$type": "KJCHPDPBJHL",
              "boolID": "Rotate",
              "param3": true
            },
            {
              "$type": "GICMAMGKKKA",
              "lightName": "Light",
              "targetColor": {
                "r": 0.30880001187324524,
                "g": 0.9140999913215637,
                "b": 1.0,
                "a": 1.0
              },
              "targetIntensity": 1.0,
              "shouldSetColor": true,
              "shouldSetIntensity": true,
              "intensityUseCurve": true,
              "lerpTime": 1.0
            }
          ]
        },
        "UNIQUE_EnergyCaster_UIPage": {
          "stacking": "Unique",
          "modifierName": "",
          "forceTriggerWhenChangeAuthority": true,
          "IPFJJJGABPL": 100.0,
          "modifierMixins": [
            {
              "$type": "AEGLMCMJMLE",
              "uiMessageId": "OpenPage",
              "actionList": [
                {
                  "$type": "ELNHKGAPIBJ",
                  "content": "EnergyCaster: open page"
                },
                {
                  "$type": "ANNOBMCGOEC",
                  "otherTargets": {
                    "$type": "FHBCCNMKPHK",
                    "value": 1
                  },
                  "muteRemoteAction": true,
                  "matName": "Cell",
                  "EKHLCLJELIP": "_ElementViewEleID",
                  "param3": 9.0
                },
                {
                  "$type": "ANNOBMCGOEC",
                  "otherTargets": {
                    "$type": "FHBCCNMKPHK",
                    "value": 2
                  },
                  "muteRemoteAction": true,
                  "matName": "Caster",
                  "EKHLCLJELIP": "_ElementViewEleID",
                  "param3": 9.0
                },
                {
                  "$type": "INBCDALOHMP",
                  "otherTargets": {
                    "$type": "FHBCCNMKPHK",
                    "value": 2
                  },
                  "targetPredicates": [
                    {
                      "$type": "CNGGLKHONAA",
                      "key": "SGV_CASTER_TAG",
                      "param3": 1.0
                    }
                  ],
                  "successActions": [
                    {
                      "$type": "JLDEMMJAMLC",
                      "otherTargets": {
                        "$type": "FHBCCNMKPHK",
                        "value": 2
                      },
                      "modifierName": "CasterInUse_SetGlobalValue_1"
                    }
                  ]
                },
                {
                  "$type": "HPIDNBEGJLL",
                  "otherTargets": {
                    "$type": "FHBCCNMKPHK",
                    "value": 3
                  },
                  "state": 201
                },
                {
                  "$type": "AHPEKICBIIL",
                  "luaCallType": "FromGroup",
                  "funcName": "SLC_OpenPage",
                  "param1": 0.0,
                  "MGAMDEHMCOL": 0.0,
                  "MMHOHAOGPLP": 0.0
                }
              ],
              "KECHCMKHACO": true
            },
            {
              "$type": "AEGLMCMJMLE",
              "uiMessageId": "ClosePage",
              "actionList": [
                {
                  "$type": "ELNHKGAPIBJ",
                  "content": "EnergyCaster: close page"
                },
                {
                  "$type": "KBODPNEEFGD",
                  "otherTargets": {
                    "$type": "FHBCCNMKPHK",
                    "value": 1
                  },
                  "modifierName": "UNIQUE_CellAim_SetGlobalValue"
                },
                {
                  "$type": "ANNOBMCGOEC",
                  "otherTargets": {
                    "$type": "FHBCCNMKPHK",
                    "value": 1
                  },
                  "matName": "Cell",
                  "EKHLCLJELIP": "_ElementViewEleID",
                  "param3": 0.0
                },
                {
                  "$type": "ANNOBMCGOEC",
                  "otherTargets": {
                    "$type": "FHBCCNMKPHK",
                    "value": 2
                  },
                  "matName": "Caster",
                  "EKHLCLJELIP": "_ElementViewEleID",
                  "param3": 0.0
                },
                {
                  "$type": "JLDEMMJAMLC",
                  "otherTargets": {
                    "$type": "FHBCCNMKPHK",
                    "value": 2
                  },
                  "modifierName": "CasterInUse_SetGlobalValue_0"
                },
                {
                  "$type": "HPIDNBEGJLL",
                  "otherTargets": {
                    "$type": "FHBCCNMKPHK",
                    "value": 3
                  }
                },
                {
                  "$type": "AHPEKICBIIL",
                  "luaCallType": "FromGroup",
                  "funcName": "SLC_ClosePage",
                  "param1": 0.0,
                  "MGAMDEHMCOL": 0.0,
                  "MMHOHAOGPLP": 0.0
                }
              ],
              "KECHCMKHACO": true
            }
          ]
        },
        "CasterInUse_SetGlobalValue_0": {
          "modifierName": "",
          "IPFJJJGABPL": 100.0,
          "onAdded": [
            {
              "$type": "BOBCOJHOKKD",
              "param3": 0.0,
              "key": "_Ability_CASTER_INUSE",
              "param2": 0.0,
              "repeatTimes": 0.0
            }
          ]
        },
        "CasterInUse_SetGlobalValue_1": {
          "modifierName": "",
          "IPFJJJGABPL": 100.0,
          "onAdded": [
            {
              "$type": "BOBCOJHOKKD",
              "param3": 1.0,
              "key": "_Ability_CASTER_INUSE",
              "param2": 0.0,
              "repeatTimes": 0.0
            }
          ]
        }
      },
      "onAdded": [
        {
          "$type": "JLDEMMJAMLC",
          "modifierName": "UNIQUE_EnergyCaster_UIPage"
        },
        {
          "$type": "AHPEKICBIIL",
          "luaCallType": "FromGroup",
          "funcName": "SLC_OperatorReady",
          "param1": 0.0,
          "MGAMDEHMCOL": 0.0,
          "MMHOHAOGPLP": 0.0
        }
      ]
    }
  },
  {
    "Default": {
      "$type": "CBPBEHLOHKI",
      "abilityName": "SceneObj_Area_Fd_Property_Ani_Prop_EnergyCaster_Operator_01_CameraAim_Ability",
      "modifiers": {
        "CameraAim_SetGlobalValue_0": {
          "modifierName": "",
          "IPFJJJGABPL": 100.0,
          "onAdded": [
            {
              "$type": "BOBCOJHOKKD",
              "param3": 0.0,
              "key": "_Ability_CASTER_INUSE",
              "param2": 0.0,
              "repeatTimes": 0.0
            }
          ]
        },
        "CameraAim_SetGlobalValue_1": {
          "modifierName": "",
          "IPFJJJGABPL": 100.0,
          "onAdded": [
            {
              "$type": "BOBCOJHOKKD",
              "param3": 1.0,
              "key": "_Ability_CASTER_INUSE",
              "param2": 0.0,
              "repeatTimes": 0.0
            }
          ]
        }
      },
      "onAbilityStart": [
        {
          "$type": "ELNHKGAPIBJ",
          "content": "CameraAim trigger ability!!!"
        },
        {
          "$type": "JLDEMMJAMLC",
          "otherTargets": {
            "$type": "FHBCCNMKPHK",
            "value": 2
          },
          "modifierName": "CameraAim_SetGlobalValue_0"
        },
        {
          "$type": "JLDEMMJAMLC",
          "target": "Target",
          "modifierName": "CameraAim_SetGlobalValue_1"
        },
        {
          "$type": "AHPEKICBIIL",
          "luaCallType": "FromGroup",
          "funcName": "SLC_CameraAim",
          "param1": 0.0,
          "MGAMDEHMCOL": 0.0,
          "MMHOHAOGPLP": 0.0
        }
      ]
    }
  },
  {
    "Default": {
      "$type": "CBPBEHLOHKI",
      "abilityName": "SceneObj_Area_Fd_Property_Ani_Prop_EnergyCaster_Operator_01_CellAim_Ability",
      "modifiers": {
        "UNIQUE_CellAim_SetGlobalValue": {
          "modifierName": "",
          "forceTriggerWhenChangeAuthority": true,
          "IPFJJJGABPL": 100.0,
          "onAdded": [
            {
              "$type": "BOBCOJHOKKD",
              "param3": 1.0,
              "key": "_ABILITY_CELL_ICON",
              "param2": 0.0,
              "repeatTimes": 0.0
            }
          ],
          "onRemoved": [
            {
              "$type": "BOBCOJHOKKD",
              "param3": 0.0,
              "key": "_ABILITY_CELL_ICON",
              "param2": 0.0,
              "repeatTimes": 0.0
            }
          ]
        }
      },
      "onAbilityStart": [
        {
          "$type": "JLDEMMJAMLC",
          "target": "Target",
          "shieldHP": true,
          "modifierName": "UNIQUE_CellAim_SetGlobalValue"
        }
      ]
    }
  },
  {
    "Default": {
      "$type": "CBPBEHLOHKI",
      "abilityName": "SceneObj_Area_Fd_Property_Ani_Prop_EnergyCaster_Operator_01_CellExit_Ability",
      "onAbilityStart": [
        {
          "$type": "KBODPNEEFGD",
          "target": "Target",
          "shieldHP": true,
          "modifierName": "UNIQUE_CellAim_SetGlobalValue"
        }
      ]
    }
  },
  {
    "Default": {
      "$type": "CBPBEHLOHKI",
      "abilityName": "SceneObj_Area_Fd_Property_Ani_Prop_EnergyCaster_Operator_01_CellClick_Ability",
      "onAbilityStart": [
        {
          "$type": "AKCJLBDMNDE",
          "cameraFogEffectName": "",
          "playerFogEffectName": ""
        },
        {
          "$type": "KBFEIHEAMBM",
          "predicates": [
            {
              "$type": "CNGGLKHONAA",
              "target": "Self",
              "key": "SGV_EnergyCaster_CurEnergy",
              "param3": 0.0
            }
          ],
          "rotationDampTime": "Eff_SceneObj_EnergyCaster_Screen_Abs",
          "born": {
            "$type": "EPICDEIDAMH"
          },
          "PPPDJGDDOGD": 1.0,
          "AJDILHJFNKE": -1.0
        },
        {
          "$type": "KBFEIHEAMBM",
          "predicates": [
            {
              "$type": "CNGGLKHONAA",
              "target": "Self",
              "key": "SGV_EnergyCaster_CurEnergy",
              "param3": 1.0
            }
          ],
          "rotationDampTime": "Eff_SceneObj_EnergyCaster_Screen_Shoot",
          "born": {
            "$type": "EPICDEIDAMH"
          },
          "PPPDJGDDOGD": 1.0,
          "AJDILHJFNKE": -1.0
        },
        {
          "$type": "AHPEKICBIIL",
          "target": "Target",
          "luaCallType": "FromGroup",
          "isTarget": true,
          "funcName": "SLC_BulletHit",
          "param1": 0.0,
          "MGAMDEHMCOL": 0.0,
          "MMHOHAOGPLP": 0.0
        }
      ]
    }
  },
  {
    "Default": {
      "$type": "CBPBEHLOHKI",
      "abilityName": "SceneObj_Area_Fd_Property_Ani_Prop_EnergyCaster_Operator_01_QRCode_Ability",
      "onAbilityStart": [
        {
          "$type": "ELNHKGAPIBJ",
          "content": "qr code ability start!!!"
        },
        {
          "$type": "AHPEKICBIIL",
          "target": "Target",
          "luaCallType": "FromGroup",
          "isTarget": true,
          "funcName": "SLC_ScanQRCode",
          "param1": 0.0,
          "MGAMDEHMCOL": 0.0,
          "MMHOHAOGPLP": 0.0
        }
      ]
    }
  },
  {
    "Default": {
      "$type": "CBPBEHLOHKI",
      "abilityName": "SceneObj_Area_Fd_Property_Ani_Prop_EnergyCaster_CellIcon_Ability",
      "abilityMixins": [
        {
          "$type": "BPKALFNJLIG",
          "modifierName": "UnchargedIcon"
        },
        {
          "$type": "BPKALFNJLIG",
          "gadgetState": 201,
          "modifierName": "ChargedIcon"
        },
        {
          "$type": "MLJAPFBGEEH",
          "globalValueKey": "_ABILITY_CELL_ICON",
          "gvInTalk": 0.0,
          "valueSteps": [
            -0.5,
            0.5,
            1.5
          ],
          "modifierNameSteps": [
            "Blank",
            "UNIQUE_EnergyCaster_BillBoard_Cell"
          ],
          "NMCLMHFBALJ": true
        }
      ],
      "modifiers": {
        "Blank": {
          "modifierName": "",
          "IPFJJJGABPL": 100.0,
          "onAdded": [
            {
              "$type": "KBODPNEEFGD",
              "modifierName": "UNIQUE_EnergyCaster_Billboard_Charged"
            },
            {
              "$type": "KBODPNEEFGD",
              "modifierName": "UNIQUE_EnergyCaster_Billboard_Uncharged"
            }
          ]
        },
        "ChargedIcon": {
          "modifierName": "",
          "IPFJJJGABPL": 100.0,
          "onAdded": [
            {
              "$type": "KBODPNEEFGD",
              "modifierName": "UNIQUE_EnergyCaster_Billboard_Uncharged"
            },
            {
              "$type": "PELJALPANCA",
              "predicates": [
                {
                  "$type": "CNGGLKHONAA",
                  "key": "_ABILITY_CELL_ICON",
                  "param3": 1.0
                }
              ],
              "modifierName": "UNIQUE_EnergyCaster_Billboard_Charged"
            }
          ]
        },
        "UnchargedIcon": {
          "modifierName": "",
          "IPFJJJGABPL": 100.0,
          "onAdded": [
            {
              "$type": "KBODPNEEFGD",
              "modifierName": "UNIQUE_EnergyCaster_Billboard_Charged"
            },
            {
              "$type": "PELJALPANCA",
              "predicates": [
                {
                  "$type": "CNGGLKHONAA",
                  "key": "_ABILITY_CELL_ICON",
                  "param3": 1.0
                }
              ],
              "modifierName": "UNIQUE_EnergyCaster_Billboard_Uncharged"
            }
          ]
        },
        "UNIQUE_EnergyCaster_BillBoard_Cell": {
          "stacking": "Unique",
          "modifierName": "",
          "forceTriggerWhenChangeAuthority": true,
          "IPFJJJGABPL": 100.0,
          "modifierMixins": [
            {
              "$type": "LEMENHLBICL",
              "billboard": {
                "$type": "AKPHLFJFMBD",
                "attachPoint": "BillboardAttach",
                "offset": {
                  "y": 1.399999976158142
                },
                "iconName": "UI_NPCTopIcon_EnergyEmpty",
                "title": ""
              }
            }
          ],
          "onAdded": [
            {
              "$type": "JLDEMMJAMLC",
              "predicates": [
                {
                  "$type": "HNLCJOPBDLC",
                  "gadgetState": 201
                }
              ],
              "modifierName": "UNIQUE_EnergyCaster_Billboard_Charged"
            },
            {
              "$type": "JLDEMMJAMLC",
              "predicates": [
                {
                  "$type": "HNLCJOPBDLC"
                }
              ],
              "modifierName": "UNIQUE_EnergyCaster_Billboard_Uncharged"
            }
          ]
        },
        "UNIQUE_EnergyCaster_Billboard_Uncharged": {
          "stacking": "Unique",
          "modifierName": "",
          "forceTriggerWhenChangeAuthority": true,
          "IPFJJJGABPL": 100.0,
          "modifierMixins": [
            {
              "$type": "OEHAFEPMFGK",
              "iconName": "UI_NPCTopIcon_EnergyEmpty"
            }
          ]
        },
        "UNIQUE_EnergyCaster_Billboard_Charged": {
          "stacking": "Unique",
          "modifierName": "",
          "forceTriggerWhenChangeAuthority": true,
          "IPFJJJGABPL": 100.0,
          "modifierMixins": [
            {
              "$type": "OEHAFEPMFGK",
              "iconName": "UI_NPCTopIcon_EnergyFull"
            }
          ]
        }
      }
    }
  },
  {
    "Default": {
      "$type": "CBPBEHLOHKI",
      "abilityName": "SceneObj_Area_Fd_Property_Ani_Prop_EnergyCaster_NormalCell_01_Ability",
      "abilityMixins": [
        {
          "$type": "BPKALFNJLIG",
          "modifierName": "UnchargedState"
        },
        {
          "$type": "BPKALFNJLIG",
          "gadgetState": 201,
          "modifierName": "ChargedState"
        },
        {
          "$type": "BPKALFNJLIG",
          "gadgetState": 501,
          "modifierName": "OusiaState"
        },
        {
          "$type": "BPKALFNJLIG",
          "gadgetState": 502,
          "modifierName": "PneumaState"
        },
        {
          "$type": "PHLKCMFKFIN",
          "globalValueKey": "SGV_EnvironmentType",
          "valueSteps": [
            1.5,
            2.5
          ],
          "modifierNameSteps": [
            "Underwater"
          ],
          "NMCLMHFBALJ": true
        },
        {
          "$type": "CADNOOEAFHD",
          "actionQueue": [
            {
              "$type": "HPIDNBEGJLL",
              "predicates": [
                {
                  "$type": "CNGGLKHONAA",
                  "key": "arkheGradeKey",
                  "param3": 0.0
                }
              ],
              "state": 201
            }
          ]
        }
      ],
      "modifiers": {
        "Underwater": {
          "modifierName": "",
          "IPFJJJGABPL": 100.0,
          "modifierMixins": [
            {
              "$type": "DKEKMHHIDOB",
              "lockType": "Avatar&Monster_Lv4"
            }
          ]
        },
        "OusiaState": {
          "modifierName": "",
          "IPFJJJGABPL": 100.0,
          "modifierMixins": [
            {
              "$type": "GPCGHACDPIF",
              "NLIOHMNJBAM": "Default"
            }
          ],
          "onAdded": [
            {
              "$type": "ANLOBBMKNIJ",
              "rotationDampTime": "Eff_SceneObj_FixedBattery_01_Ousia",
              "born": {
                "$type": "KLPANPDGHHA",
                "useRotation": true,
                "attachPointName": "AttachPoint01"
              },
              "PPPDJGDDOGD": 1.0,
              "AJDILHJFNKE": -1.0
            },
            {
              "$type": "GICMAMGKKKA",
              "lightName": "Light",
              "targetColor": {
                "r": 0.9043999910354614,
                "g": 0.2761000096797943,
                "b": 0.21940000355243683,
                "a": 1.0
              },
              "targetIntensity": 1.0,
              "shouldSetColor": true,
              "shouldSetIntensity": true,
              "intensityUseCurve": true,
              "lerpTime": 1.0
            },
            {
              "$type": "AENLGPIPPAK",
              "hitBoxNames": [
                "HitBox"
              ],
              "setEnable": true
            }
          ]
        },
        "PneumaState": {
          "modifierName": "",
          "IPFJJJGABPL": 100.0,
          "modifierMixins": [
            {
              "$type": "GPCGHACDPIF",
              "DPAOMNELPHI": 1,
              "NLIOHMNJBAM": "Default"
            }
          ],
          "onAdded": [
            {
              "$type": "ANLOBBMKNIJ",
              "rotationDampTime": "Eff_SceneObj_FixedBattery_01_Pneuma",
              "born": {
                "$type": "KLPANPDGHHA",
                "useRotation": true,
                "attachPointName": "AttachPoint01"
              },
              "PPPDJGDDOGD": 1.0,
              "AJDILHJFNKE": -1.0
            },
            {
              "$type": "GICMAMGKKKA",
              "lightName": "Light",
              "targetColor": {
                "r": 0.9043999910354614,
                "g": 0.2761000096797943,
                "b": 0.21940000355243683,
                "a": 1.0
              },
              "targetIntensity": 1.0,
              "shouldSetColor": true,
              "shouldSetIntensity": true,
              "intensityUseCurve": true,
              "lerpTime": 1.0
            },
            {
              "$type": "AENLGPIPPAK",
              "hitBoxNames": [
                "HitBox"
              ],
              "setEnable": true
            }
          ]
        },
        "UnchargedState": {
          "modifierName": "",
          "IPFJJJGABPL": 100.0,
          "modifierMixins": [
            {
              "$type": "GPCGHACDPIF",
              "DPAOMNELPHI": 2,
              "NLIOHMNJBAM": "Default"
            }
          ],
          "state": "DenyLockOn",
          "onAdded": [
            {
              "$type": "GICMAMGKKKA",
              "lightName": "Light",
              "targetColor": {
                "r": 0.9043999910354614,
                "g": 0.2761000096797943,
                "b": 0.21940000355243683,
                "a": 1.0
              },
              "targetIntensity": 1.0,
              "shouldSetColor": true,
              "shouldSetIntensity": true,
              "intensityUseCurve": true,
              "lerpTime": 1.0
            },
            {
              "$type": "AENLGPIPPAK",
              "hitBoxNames": [
                "HitBox"
              ]
            }
          ]
        },
        "ChargedState": {
          "modifierName": "",
          "IPFJJJGABPL": 100.0,
          "modifierMixins": [
            {
              "$type": "GPCGHACDPIF",
              "DPAOMNELPHI": 3,
              "NLIOHMNJBAM": "Default"
            }
          ],
          "state": "DenyLockOn",
          "onAdded": [
            {
              "$type": "KBFEIHEAMBM",
              "rotationDampTime": "Eff_SceneObj_FixedBattery_Charging",
              "born": {
                "$type": "KLPANPDGHHA",
                "useRotation": true,
                "attachPointName": "AttachPoint"
              },
              "PPPDJGDDOGD": 1.0,
              "AJDILHJFNKE": -1.0
            },
            {
              "$type": "GICMAMGKKKA",
              "lightName": "Light",
              "targetColor": {
                "r": 0.30880001187324524,
                "g": 0.9140999913215637,
                "b": 1.0,
                "a": 1.0
              },
              "targetIntensity": 1.0,
              "shouldSetColor": true,
              "shouldSetIntensity": true,
              "intensityUseCurve": true,
              "lerpTime": 1.0
            },
            {
              "$type": "AENLGPIPPAK",
              "hitBoxNames": [
                "HitBox"
              ]
            }
          ]
        }
      },
      "onAdded": [
        {
          "$type": "AOOCGNCCAJB",
          "isAdd": true,
          "tag": "ENERGYCASTER_TARGET"
        }
      ],
      "onRemoved": [
        {
          "$type": "AOOCGNCCAJB",
          "tag": "ENERGYCASTER_TARGET"
        }
      ]
    }
  },
  {
    "Default": {
      "$type": "CBPBEHLOHKI",
      "abilityName": "SceneObj_Area_Fd_Property_Ani_Prop_EnergyCaster_PortableCell_01_Ability",
      "abilityMixins": [
        {
          "$type": "BPKALFNJLIG",
          "modifierName": "UnchargedState"
        },
        {
          "$type": "BPKALFNJLIG",
          "gadgetState": 201,
          "modifierName": "ChargedState"
        },
        {
          "$type": "BPKALFNJLIG",
          "gadgetState": 901,
          "modifierName": "LockedState"
        },
        {
          "$type": "BPKALFNJLIG",
          "gadgetState": 202,
          "modifierName": "SpecialState"
        },
        {
          "$type": "LNEJGOMCBMO",
          "succActions": [
            {
              "$type": "GJCAPCBELPA",
              "abilityName": "SceneObj_Area_Fd_Property_Ani_Prop_EnergyCaster_PortableCell_01_Ability"
            },
            {
              "$type": "ELNHKGAPIBJ",
              "content": "PortableCell trigger ability!!"
            }
          ]
        }
      ],
      "modifiers": {
        "PortableCell_AddGlobalValue_1": {
          "modifierName": "",
          "elementDurability": 0.20000000298023224,
          "IPFJJJGABPL": 100.0,
          "onAdded": [
            {
              "$type": "LCOEFEMOHLP",
              "param3": 1.0,
              "key": "_Ability_EnergyCaster_ChargedCount",
              "useLimitRange": true,
              "param2": 10.0,
              "repeatTimes": 0.0
            }
          ]
        },
        "PortableCell_SubtractGlobalValue_1": {
          "modifierName": "",
          "elementDurability": 0.20000000298023224,
          "IPFJJJGABPL": 100.0,
          "onAdded": [
            {
              "$type": "LCOEFEMOHLP",
              "param3": -1.0,
              "key": "_Ability_EnergyCaster_ChargedCount",
              "useLimitRange": true,
              "param2": 10.0,
              "repeatTimes": 0.0
            }
          ]
        },
        "UNIQUE_PortableCell_RangeEffect": {
          "stacking": "Unique",
          "modifierName": "",
          "forceTriggerWhenChangeAuthority": true,
          "IPFJJJGABPL": 100.0,
          "onAdded": [
            {
              "$type": "ANLOBBMKNIJ",
              "rotationDampTime": "Eff_SceneObj_MovedBattery_Range",
              "PPPDJGDDOGD": 1.0,
              "AJDILHJFNKE": -1.0
            }
          ]
        },
        "UNIQUE_EnableIntee_Delay": {
          "stacking": "Unique",
          "modifierName": "",
          "forceTriggerWhenChangeAuthority": true,
          "elementDurability": 1.5,
          "IPFJJJGABPL": 100.0,
          "onAdded": [
            {
              "$type": "LEIIOBLDOMP"
            },
            {
              "$type": "BOBCOJHOKKD",
              "param3": 1.0,
              "key": "_Ability_PortableCell_Create",
              "param2": 0.0,
              "repeatTimes": 0.0
            }
          ],
          "onRemoved": [
            {
              "$type": "LEIIOBLDOMP",
              "predicates": [
                {
                  "$type": "HHHMNCNPBDK",
                  "predicates": [
                    {
                      "$type": "HNLCJOPBDLC"
                    },
                    {
                      "$type": "HNLCJOPBDLC",
                      "gadgetState": 201
                    }
                  ]
                }
              ],
              "enable": true
            },
            {
              "$type": "BOBCOJHOKKD",
              "param3": 0.0,
              "key": "_Ability_PortableCell_Create",
              "param2": 0.0,
              "repeatTimes": 0.0
            }
          ]
        },
        "ChargedState": {
          "modifierName": "",
          "IPFJJJGABPL": 100.0,
          "modifierMixins": [
            {
              "$type": "GPCGHACDPIF",
              "DPAOMNELPHI": 1,
              "NLIOHMNJBAM": "Default"
            }
          ],
          "onAdded": [
            {
              "$type": "AOOCGNCCAJB",
              "isAdd": true,
              "tag": "_IS_PORTABLE_CELL"
            },
            {
              "$type": "JLDEMMJAMLC",
              "modifierName": "UNIQUE_PortableCell_RangeEffect"
            },
            {
              "$type": "LEIIOBLDOMP",
              "predicates": [
                {
                  "$type": "CNGGLKHONAA",
                  "key": "_Ability_PortableCell_Create",
                  "param3": 0.0,
                  "compareType": "NoneOrEqual"
                }
              ],
              "enable": true
            },
            {
              "$type": "GICMAMGKKKA",
              "lightName": "Light",
              "targetColor": {
                "r": 0.30880001187324524,
                "g": 0.9140999913215637,
                "b": 1.0,
                "a": 1.0
              },
              "targetIntensity": 1.0,
              "shouldSetColor": true,
              "shouldSetIntensity": true,
              "intensityUseCurve": true,
              "lerpTime": 1.0
            },
            {
              "$type": "INBCDALOHMP",
              "otherTargets": {
                "$type": "IJOFJOGLDHE",
                "sortType": "Nearest",
                "shapeName": "CircleR4H6",
                "campTargetType": "All",
                "doOffStage": 1.0
              },
              "targetPredicates": [
                {
                  "$type": "CNGGLKHONAA",
                  "key": "_Ability_EnergyCaster_ChargedCount",
                  "param3": 0.0,
                  "compareType": "MoreThanAndEqual"
                }
              ],
              "successActions": [
                {
                  "$type": "JLDEMMJAMLC",
                  "target": "Target",
                  "modifierName": "PortableCell_AddGlobalValue_1"
                },
                {
                  "$type": "ELNHKGAPIBJ",
                  "content": "CellComponent: success!!"
                }
              ]
            }
          ],
          "onRemoved": [
            {
              "$type": "INBCDALOHMP",
              "otherTargets": {
                "$type": "IJOFJOGLDHE",
                "sortType": "Nearest",
                "shapeName": "CircleR4H6",
                "campTargetType": "All",
                "doOffStage": 1.0
              },
              "targetPredicates": [
                {
                  "$type": "CNGGLKHONAA",
                  "key": "_Ability_EnergyCaster_ChargedCount",
                  "param3": 1.0,
                  "compareType": "MoreThanAndEqual"
                }
              ],
              "successActions": [
                {
                  "$type": "JLDEMMJAMLC",
                  "target": "Target",
                  "modifierName": "PortableCell_SubtractGlobalValue_1"
                }
              ]
            }
          ]
        },
        "UnchargedState": {
          "modifierName": "",
          "IPFJJJGABPL": 100.0,
          "modifierMixins": [
            {
              "$type": "GPCGHACDPIF",
              "DPAOMNELPHI": 2,
              "NLIOHMNJBAM": "Default"
            }
          ],
          "onAdded": [
            {
              "$type": "AOOCGNCCAJB",
              "tag": "_IS_PORTABLE_CELL"
            },
            {
              "$type": "LEIIOBLDOMP",
              "predicates": [
                {
                  "$type": "CNGGLKHONAA",
                  "key": "_Ability_PortableCell_Create",
                  "param3": 0.0,
                  "compareType": "NoneOrEqual"
                }
              ],
              "enable": true
            },
            {
              "$type": "GICMAMGKKKA",
              "lightName": "Light",
              "targetColor": {
                "r": 0.9043999910354614,
                "g": 0.2761000096797943,
                "b": 0.21940000355243683,
                "a": 1.0
              },
              "targetIntensity": 1.0,
              "shouldSetColor": true,
              "shouldSetIntensity": true,
              "intensityUseCurve": true,
              "lerpTime": 1.0
            }
          ]
        },
        "LockedState": {
          "modifierName": "",
          "IPFJJJGABPL": 100.0,
          "modifierMixins": [
            {
              "$type": "GPCGHACDPIF",
              "NLIOHMNJBAM": "Default"
            }
          ],
          "onAdded": [
            {
              "$type": "ANLOBBMKNIJ",
              "rotationDampTime": "Eff_Item_SpecialTreasureBox_LockIdle_UW",
              "born": {
                "$type": "KLPANPDGHHA",
                "useRotation": true,
                "attachPointName": "AttachPoint"
              },
              "PPPDJGDDOGD": 1.0,
              "AJDILHJFNKE": -1.0
            },
            {
              "$type": "AOOCGNCCAJB",
              "tag": "_IS_PORTABLE_CELL"
            },
            {
              "$type": "GICMAMGKKKA",
              "lightName": "Light",
              "shouldSetIntensity": true,
              "intensityUseCurve": true,
              "lerpTime": 1.0
            }
          ],
          "onRemoved": [
            {
              "$type": "KBFEIHEAMBM",
              "rotationDampTime": "Eff_Item_SpecialTreasureBox_Unlock_UW",
              "born": {
                "$type": "KLPANPDGHHA",
                "useRotation": true,
                "attachPointName": "AttachPoint"
              },
              "PPPDJGDDOGD": 1.0,
              "AJDILHJFNKE": -1.0
            }
          ]
        },
        "SpecialState": {
          "modifierName": "",
          "IPFJJJGABPL": 100.0,
          "modifierMixins": [
            {
              "$type": "GPCGHACDPIF",
              "NLIOHMNJBAM": "Default"
            }
          ],
          "onAdded": [
            {
              "$type": "AOOCGNCCAJB",
              "tag": "_IS_PORTABLE_CELL"
            },
            {
              "$type": "GICMAMGKKKA",
              "lightName": "Light",
              "shouldSetIntensity": true,
              "intensityUseCurve": true,
              "lerpTime": 1.0
            }
          ]
        }
      },
      "onAdded": [
        {
          "$type": "AOOCGNCCAJB",
          "isAdd": true,
          "tag": "ENERGYCASTER_TARGET"
        },
        {
          "$type": "KBFEIHEAMBM",
          "rotationDampTime": "Eff_SceneObj_MovedBattery_Appear",
          "born": {
            "$type": "KLPANPDGHHA",
            "useRotation": true,
            "attachPointName": "AttachPoint"
          },
          "PPPDJGDDOGD": 1.0,
          "AJDILHJFNKE": -1.0
        },
        {
          "$type": "JLDEMMJAMLC",
          "modifierName": "UNIQUE_EnableIntee_Delay"
        }
      ],
      "onRemoved": [
        {
          "$type": "AOOCGNCCAJB",
          "tag": "ENERGYCASTER_TARGET"
        }
      ],
      "onAbilityStart": [
        {
          "$type": "INBCDALOHMP",
          "target": "Team",
          "targetPredicates": [
            {
              "$type": "CNGGLKHONAA",
              "key": "SGV_PortableCell_TotalCount",
              "param3": 0.0,
              "compareType": "NoneOrEqual"
            }
          ],
          "successActions": [
            {
              "$type": "INBCDALOHMP",
              "otherTargets": {
                "$type": "IJOFJOGLDHE",
                "sortType": "Nearest",
                "shapeName": "CircleR4H6",
                "campTargetType": "All",
                "doOffStage": 1.0
              },
              "targetPredicates": [
                {
                  "$type": "CNGGLKHONAA",
                  "key": "_Ability_EnergyCaster_ChargedCount",
                  "param3": 1.0,
                  "compareType": "MoreThanAndEqual"
                }
              ],
              "successActions": [
                {
                  "$type": "JLDEMMJAMLC",
                  "target": "Target",
                  "predicates": [
                    {
                      "$type": "HNLCJOPBDLC",
                      "target": "Self",
                      "gadgetState": 201
                    }
                  ],
                  "modifierName": "PortableCell_SubtractGlobalValue_1"
                }
              ]
            },
            {
              "$type": "AOOCGNCCAJB",
              "tag": "ENERGYCASTER_TARGET"
            },
            {
              "$type": "LEIIOBLDOMP"
            },
            {
              "$type": "KBFEIHEAMBM",
              "rotationDampTime": "Eff_SceneObj_MovedBattery_Disappear",
              "born": {
                "$type": "KLPANPDGHHA",
                "useRotation": true,
                "attachPointName": "AttachPoint"
              },
              "PPPDJGDDOGD": 1.0,
              "AJDILHJFNKE": -1.0
            },
            {
              "$type": "GFOOGEIKGBI",
              "parameter": "Die",
              "attachPoint": "",
              "damageRatio": "Bool",
              "value": 1,
              "rotationDampTime": "Eff_SceneObj_MovedBattery_Range"
            },
            {
              "$type": "CLKGEHMNIEF",
              "transformNames": [
                "Obj"
              ]
            },
            {
              "$type": "AHPEKICBIIL",
              "luaCallType": "FromGroup",
              "funcName": "SLC_TakePortableCell",
              "param1": 0.0,
              "MGAMDEHMCOL": 0.0,
              "MMHOHAOGPLP": 0.0
            }
          ]
        }
      ],
      "onFieldEnter": [
        {
          "$type": "PELJALPANCA",
          "predicates": [
            {
              "$type": "HNLCJOPBDLC",
              "gadgetState": 201
            }
          ],
          "modifierName": "UNIQUE_PortableCell_RangeEffect"
        }
      ],
      "onFieldExit": [
        {
          "$type": "KBODPNEEFGD",
          "modifierName": "UNIQUE_PortableCell_RangeEffect"
        }
      ]
    }
  },
  {
    "Default": {
      "$type": "CBPBEHLOHKI",
      "abilityName": "SceneObj_Area_Fd_Property_Ani_Prop_EnergyCaster_Charged_Ability",
      "abilityMixins": [
        {
          "$type": "MLJAPFBGEEH",
          "globalValueKey": "_Ability_EnergyCaster_ChargedCount",
          "gvInTalk": 0.0,
          "valueSteps": [
            -0.5,
            0.5,
            10.5
          ],
          "modifierNameSteps": [
            "Uncharged_Portable",
            "UNIQUE_EnergyCaster_Charged"
          ],
          "NMCLMHFBALJ": true
        },
        {
          "$type": "PHLKCMFKFIN",
          "globalValueKey": "SGV_EnergyCaster_ChargedCount_NormalCell",
          "valueSteps": [
            -0.5,
            0.5,
            10.5
          ],
          "modifierNameSteps": [
            "Uncharged_Normal",
            "UNIQUE_EnergyCaster_Charged"
          ],
          "NMCLMHFBALJ": true
        },
        {
          "$type": "PHLKCMFKFIN",
          "globalValueKey": "_Ability_EnergyCaster_UnchargedMark",
          "valueSteps": [
            0.5,
            1.5
          ],
          "modifierNameSteps": [
            "CheckSelf"
          ],
          "NMCLMHFBALJ": true
        },
        {
          "$type": "JPPFBGJICKI",
          "key": "_Ability_EnergyCaster_ChargedCount",
          "useLimitRange": true,
          "param2": 10.0,
          "repeatTimes": 0.0
        },
        {
          "$type": "BPKALFNJLIG",
          "modifierName": "UnchargedState_SetGV"
        },
        {
          "$type": "BPKALFNJLIG",
          "gadgetState": 903,
          "modifierName": "NotifyState"
        }
      ],
      "modifiers": {
        "ReconnectHandler": {
          "modifierName": "",
          "IPFJJJGABPL": 100.0,
          "onReconnect": [
            {
              "$type": "BOBCOJHOKKD",
              "shieldHP": true,
              "predicates": [
                {
                  "$type": "NEKDDBABFGJ"
                }
              ],
              "param3": 0.0,
              "key": "_Ability_EnergyCaster_ChargedCount",
              "param2": 0.0,
              "repeatTimes": 0.0
            },
            {
              "$type": "ELNHKGAPIBJ",
              "content": "Component: onReconnect-modifier"
            }
          ]
        },
        "Blank": {
          "modifierName": "",
          "IPFJJJGABPL": 100.0
        },
        "UnchargedState_SetGV": {
          "modifierName": "",
          "IPFJJJGABPL": 100.0,
          "thinkInterval": 1.0,
          "onAdded": [
            {
              "$type": "ELNHKGAPIBJ",
              "content": "SetGV"
            },
            {
              "$type": "BOBCOJHOKKD",
              "shieldHP": true,
              "param3": 0.0,
              "key": "_Ability_EnergyCaster_ChargedCount",
              "param2": 0.0,
              "repeatTimes": 0.0
            },
            {
              "$type": "BOBCOJHOKKD",
              "shieldHP": true,
              "param3": 1.0,
              "key": "_Ability_EnergyCaster_UnchargedMark",
              "param2": 0.0,
              "repeatTimes": 0.0
            }
          ],
          "onRemoved": [
            {
              "$type": "BOBCOJHOKKD",
              "shieldHP": true,
              "param3": 0.0,
              "key": "_Ability_EnergyCaster_UnchargedMark",
              "param2": 0.0,
              "repeatTimes": 0.0
            }
          ],
          "onThinkInterval": [
            {
              "$type": "INBCDALOHMP",
              "otherTargets": {
                "$type": "IJOFJOGLDHE",
                "shapeName": "CircleR4H6",
                "campTargetType": "All",
                "doOffStage": 1.0
              },
              "targetPredicates": [
                {
                  "$type": "CNGGLKHONAA",
                  "key": "_Ability_PortableCell_Create",
                  "param3": 0.0,
                  "compareType": "MoreThanAndEqual"
                },
                {
                  "$type": "HNLCJOPBDLC",
                  "gadgetState": 201
                },
                {
                  "$type": "CNGGLKHONAA",
                  "target": "Self",
                  "key": "_Ability_EnergyCaster_ChargedCount",
                  "param3": 0.0
                }
              ],
              "successActions": [
                {
                  "$type": "ELNHKGAPIBJ",
                  "content": "Component find portable cell"
                },
                {
                  "$type": "LCOEFEMOHLP",
                  "param3": 1.0,
                  "key": "_Ability_EnergyCaster_ChargedCount",
                  "useLimitRange": true,
                  "param2": 10.0,
                  "repeatTimes": 0.0
                }
              ],
              "failActions": [
                {
                  "$type": "ELNHKGAPIBJ",
                  "content": "Onreconnect: Component doesn't find portable cell"
                }
              ]
            }
          ]
        },
        "NotifyState": {
          "modifierName": "",
          "IPFJJJGABPL": 100.0,
          "onAdded": [
            {
              "$type": "HPIDNBEGJLL",
              "predicates": [
                {
                  "$type": "HHHMNCNPBDK",
                  "predicates": [
                    {
                      "$type": "CNGGLKHONAA",
                      "key": "SGV_EnergyCaster_ChargedCount_NormalCell",
                      "param3": 1.0,
                      "compareType": "MoreThanAndEqual"
                    },
                    {
                      "$type": "CNGGLKHONAA",
                      "key": "_Ability_EnergyCaster_ChargedCount",
                      "param3": 1.0,
                      "compareType": "MoreThanAndEqual"
                    }
                  ]
                },
                {
                  "$type": "CNGGLKHONAA",
                  "key": "SGV_EnergyCaster_Mark",
                  "param3": 0.0,
                  "compareType": "NoneOrEqual"
                }
              ],
              "state": 201
            },
            {
              "$type": "HPIDNBEGJLL",
              "predicates": [
                {
                  "$type": "CNGGLKHONAA",
                  "key": "SGV_EnergyCaster_ChargedCount_NormalCell",
                  "param3": 0.0
                },
                {
                  "$type": "CNGGLKHONAA",
                  "key": "_Ability_EnergyCaster_ChargedCount",
                  "param3": 0.0
                },
                {
                  "$type": "CNGGLKHONAA",
                  "key": "SGV_EnergyCaster_Mark",
                  "param3": 0.0,
                  "compareType": "NoneOrEqual"
                }
              ]
            }
          ]
        },
        "CheckSelf": {
          "modifierName": "",
          "elementDurability": 0.10000000149011612,
          "IPFJJJGABPL": 100.0,
          "onAdded": [
            {
              "$type": "HPIDNBEGJLL",
              "predicates": [
                {
                  "$type": "HHHMNCNPBDK",
                  "predicates": [
                    {
                      "$type": "CNGGLKHONAA",
                      "key": "SGV_EnergyCaster_ChargedCount_NormalCell",
                      "param3": 1.0,
                      "compareType": "MoreThanAndEqual"
                    },
                    {
                      "$type": "CNGGLKHONAA",
                      "key": "_Ability_EnergyCaster_ChargedCount",
                      "param3": 1.0,
                      "compareType": "MoreThanAndEqual"
                    }
                  ]
                },
                {
                  "$type": "CNGGLKHONAA",
                  "key": "SGV_EnergyCaster_Mark",
                  "param3": 0.0,
                  "compareType": "NoneOrEqual"
                }
              ],
              "state": 201
            },
            {
              "$type": "HPIDNBEGJLL",
              "predicates": [
                {
                  "$type": "CNGGLKHONAA",
                  "key": "SGV_EnergyCaster_ChargedCount_NormalCell",
                  "param3": 0.0
                },
                {
                  "$type": "CNGGLKHONAA",
                  "key": "_Ability_EnergyCaster_ChargedCount",
                  "param3": 0.0
                },
                {
                  "$type": "CNGGLKHONAA",
                  "key": "SGV_EnergyCaster_Mark",
                  "param3": 0.0,
                  "compareType": "NoneOrEqual"
                }
              ]
            }
          ]
        },
        "Uncharged_Normal": {
          "modifierName": "",
          "IPFJJJGABPL": 100.0,
          "onAdded": [
            {
              "$type": "HPIDNBEGJLL",
              "predicates": [
                {
                  "$type": "CNGGLKHONAA",
                  "key": "SGV_EnergyCaster_ChargedCount_NormalCell",
                  "param3": 0.0,
                  "compareType": "NoneOrEqual"
                },
                {
                  "$type": "CNGGLKHONAA",
                  "key": "_Ability_EnergyCaster_ChargedCount",
                  "param3": 0.0
                },
                {
                  "$type": "CNGGLKHONAA",
                  "key": "SGV_EnergyCaster_Mark",
                  "param3": 0.0,
                  "compareType": "NoneOrEqual"
                },
                {
                  "$type": "HHHMNCNPBDK",
                  "predicates": [
                    {
                      "$type": "HNLCJOPBDLC"
                    },
                    {
                      "$type": "HNLCJOPBDLC",
                      "gadgetState": 902
                    },
                    {
                      "$type": "HNLCJOPBDLC",
                      "gadgetState": 201
                    },
                    {
                      "$type": "HNLCJOPBDLC",
                      "gadgetState": 101
                    },
                    {
                      "$type": "HNLCJOPBDLC",
                      "gadgetState": 102
                    }
                  ]
                }
              ]
            }
          ]
        },
        "Uncharged_Portable": {
          "modifierName": "",
          "IPFJJJGABPL": 100.0,
          "onAdded": [
            {
              "$type": "HPIDNBEGJLL",
              "predicates": [
                {
                  "$type": "CNGGLKHONAA",
                  "key": "SGV_EnergyCaster_ChargedCount_NormalCell",
                  "param3": 0.0,
                  "compareType": "NoneOrEqual"
                },
                {
                  "$type": "CNGGLKHONAA",
                  "key": "_Ability_EnergyCaster_ChargedCount",
                  "param3": 0.0
                },
                {
                  "$type": "CNGGLKHONAA",
                  "key": "SGV_EnergyCaster_Mark",
                  "param3": 0.0,
                  "compareType": "NoneOrEqual"
                },
                {
                  "$type": "HHHMNCNPBDK",
                  "predicates": [
                    {
                      "$type": "HNLCJOPBDLC"
                    },
                    {
                      "$type": "HNLCJOPBDLC",
                      "gadgetState": 902
                    },
                    {
                      "$type": "HNLCJOPBDLC",
                      "gadgetState": 201
                    },
                    {
                      "$type": "HNLCJOPBDLC",
                      "gadgetState": 101
                    },
                    {
                      "$type": "HNLCJOPBDLC",
                      "gadgetState": 102
                    }
                  ]
                }
              ]
            }
          ]
        },
        "UNIQUE_EnergyCaster_Charged": {
          "stacking": "Unique",
          "modifierName": "",
          "forceTriggerWhenChangeAuthority": true,
          "IPFJJJGABPL": 100.0,
          "onAdded": [
            {
              "$type": "HPIDNBEGJLL",
              "shieldHP": true,
              "canBeHandledOnRecover": true,
              "predicates": [
                {
                  "$type": "CNGGLKHONAA",
                  "key": "_Ability_EnergyCaster_UnchargedMark",
                  "param3": 1.0
                },
                {
                  "$type": "CNGGLKHONAA",
                  "key": "SGV_EnergyCaster_Mark",
                  "param3": 0.0,
                  "compareType": "NoneOrEqual"
                }
              ],
              "state": 201
            }
          ]
        }
      },
      "onAdded": [
        {
          "$type": "BOBCOJHOKKD",
          "param3": 0.0,
          "key": "_Ability_EnergyCaster_ChargedCount",
          "param2": 0.0,
          "repeatTimes": 0.0
        },
        {
          "$type": "JLDEMMJAMLC",
          "modifierName": "ReconnectHandler"
        },
        {
          "$type": "AHPEKICBIIL",
          "predicates": [
            {
              "$type": "CNGGLKHONAA",
              "key": "SGV_EnergyCaster_Mark",
              "param3": 0.0,
              "compareType": "NoneOrEqual"
            }
          ],
          "luaCallType": "FromGroup",
          "funcName": "SLC_ComponentReady",
          "param1": 0.0,
          "MGAMDEHMCOL": 0.0,
          "MMHOHAOGPLP": 0.0
        }
      ]
    }
  },
  {
    "Default": {
      "$type": "CBPBEHLOHKI",
      "abilityName": "SceneObj_Area_Fd_Property_Ani_Prop_EnergyCaster_QRCode_01_Ability",
      "abilityMixins": [
        {
          "$type": "BPKALFNJLIG",
          "modifierName": "LightOffState"
        },
        {
          "$type": "BPKALFNJLIG",
          "gadgetState": 201,
          "modifierName": "LightOnState"
        }
      ],
      "modifiers": {
        "LightOffState": {
          "modifierName": "",
          "IPFJJJGABPL": 100.0,
          "modifierMixins": [
            {
              "$type": "GPCGHACDPIF",
              "NLIOHMNJBAM": "Default"
            }
          ]
        },
        "LightOnState": {
          "modifierName": "",
          "IPFJJJGABPL": 100.0,
          "modifierMixins": [
            {
              "$type": "GPCGHACDPIF",
              "DPAOMNELPHI": 1,
              "NLIOHMNJBAM": "Default"
            }
          ]
        }
      },
      "onAdded": [
        {
          "$type": "AOOCGNCCAJB",
          "isAdd": true,
          "tag": "ENERGYCASTER_TARGET"
        }
      ],
      "onRemoved": [
        {
          "$type": "AOOCGNCCAJB",
          "tag": "ENERGYCASTER_TARGET"
        }
      ]
    }
  },
  {
    "Default": {
      "$type": "CBPBEHLOHKI",
      "abilityName": "SceneObj_Area_Fd_Property_Ani_Prop_ResearchConsole_01_Ability",
      "abilityMixins": [
        {
          "$type": "BPKALFNJLIG",
          "modifierName": "UnchargedState"
        },
        {
          "$type": "BPKALFNJLIG",
          "gadgetState": 201,
          "modifierName": "ChargedState"
        },
        {
          "$type": "BPKALFNJLIG",
          "gadgetState": 901,
          "modifierName": "LockState"
        },
        {
          "$type": "BPKALFNJLIG",
          "gadgetState": 902,
          "modifierName": "ActiveState"
        }
      ],
      "modifiers": {
        "UnchargedState": {
          "modifierName": "",
          "IPFJJJGABPL": 100.0,
          "modifierMixins": [
            {
              "$type": "GPCGHACDPIF",
              "DPAOMNELPHI": 1,
              "NLIOHMNJBAM": "Default"
            }
          ],
          "onAdded": [
            {
              "$type": "KJCHPDPBJHL",
              "boolID": "Rotate"
            }
          ],
          "onRemoved": [
            {
              "$type": "KBFEIHEAMBM",
              "rotationDampTime": "Eff_SceneObj_FixedBattery_Charging",
              "born": {
                "$type": "IAENDIPDFKD",
                "offset": {
                  "KGEPIMHBMOL": 0.0,
                  "JEBHCGDPFEJ": -0.20000000298023224,
                  "LPCHALMFFOD": 0.0
                },
                "useRotation": true
              },
              "PPPDJGDDOGD": 1.7000000476837158,
              "AJDILHJFNKE": -1.0
            }
          ]
        },
        "ChargedState": {
          "modifierName": "",
          "IPFJJJGABPL": 100.0,
          "modifierMixins": [
            {
              "$type": "GPCGHACDPIF",
              "DPAOMNELPHI": 3,
              "NLIOHMNJBAM": "Default"
            }
          ],
          "onAdded": [
            {
              "$type": "KJCHPDPBJHL",
              "boolID": "Rotate",
              "param3": true
            }
          ]
        },
        "LockState": {
          "modifierName": "",
          "IPFJJJGABPL": 100.0,
          "modifierMixins": [
            {
              "$type": "GPCGHACDPIF",
              "NLIOHMNJBAM": "Default"
            }
          ],
          "onAdded": [
            {
              "$type": "ANLOBBMKNIJ",
              "rotationDampTime": "Eff_Item_SpecialTreasureBox_LockIdle_UW",
              "born": {
                "$type": "KLPANPDGHHA",
                "useRotation": true,
                "attachPointName": "AttachPoint"
              },
              "PPPDJGDDOGD": 1.0,
              "AJDILHJFNKE": -1.0
            },
            {
              "$type": "KJCHPDPBJHL",
              "boolID": "Rotate"
            }
          ],
          "onRemoved": [
            {
              "$type": "KBFEIHEAMBM",
              "rotationDampTime": "Eff_Item_SpecialTreasureBox_Unlock_UW",
              "born": {
                "$type": "KLPANPDGHHA",
                "useRotation": true,
                "attachPointName": "AttachPoint"
              },
              "PPPDJGDDOGD": 1.0,
              "AJDILHJFNKE": -1.0
            }
          ]
        },
        "ActiveState": {
          "modifierName": "",
          "IPFJJJGABPL": 100.0,
          "modifierMixins": [
            {
              "$type": "GPCGHACDPIF",
              "DPAOMNELPHI": 2,
              "NLIOHMNJBAM": "Default"
            }
          ],
          "onAdded": [
            {
              "$type": "KJCHPDPBJHL",
              "boolID": "Rotate",
              "param3": true
            }
          ]
        }
      }
    }
  },
  {
    "Default": {
      "$type": "CBPBEHLOHKI",
      "abilityName": "SceneObj_Area_Fd_Property_Ani_Prop_FactoryJukebox_01_Ability",
      "abilityMixins": [
        {
          "$type": "BPKALFNJLIG",
          "modifierName": "UnchargedState"
        },
        {
          "$type": "BPKALFNJLIG",
          "gadgetState": 201,
          "modifierName": "ChargedState"
        },
        {
          "$type": "BPKALFNJLIG",
          "gadgetState": 902,
          "modifierName": "ActiveState"
        },
        {
          "$type": "PHLKCMFKFIN",
          "globalValueKey": "SGV_Prison_MonsterAlert",
          "valueSteps": [
            0.5,
            1.5
          ],
          "modifierNameSteps": [
            "JukeBox_MonsterAlert"
          ],
          "NMCLMHFBALJ": true
        }
      ],
      "modifiers": {
        "UnchargedState": {
          "modifierName": "",
          "IPFJJJGABPL": 100.0,
          "modifierMixins": [
            {
              "$type": "GPCGHACDPIF",
              "DPAOMNELPHI": 2,
              "NLIOHMNJBAM": "Default"
            }
          ]
        },
        "ChargedState": {
          "modifierName": "",
          "IPFJJJGABPL": 100.0,
          "modifierMixins": [
            {
              "$type": "GPCGHACDPIF",
              "DPAOMNELPHI": 3,
              "NLIOHMNJBAM": "Default"
            }
          ]
        },
        "ActiveState": {
          "modifierName": "",
          "IPFJJJGABPL": 100.0,
          "modifierMixins": [
            {
              "$type": "GPCGHACDPIF",
              "DPAOMNELPHI": 1,
              "NLIOHMNJBAM": "Default"
            }
          ],
          "onRemoved": [
            {
              "$type": "CLKGEHMNIEF",
              "transformNames": [
                "Activate"
              ]
            }
          ]
        },
        "JukeBox_MonsterAlert": {
          "modifierName": "",
          "IPFJJJGABPL": 100.0,
          "onAdded": [
            {
              "$type": "NNFPKJPFJBE",
              "temperature": 80.0
            }
          ]
        }
      }
    }
  },
  {
    "Default": {
      "$type": "CBPBEHLOHKI",
      "abilityName": "SceneObj_Area_Fd_Property_Ani_Prop_FactoryBoxingMachine_01_Ability",
      "abilityMixins": [
        {
          "$type": "BPKALFNJLIG",
          "modifierName": "UnchargedState"
        },
        {
          "$type": "BPKALFNJLIG",
          "gadgetState": 201,
          "modifierName": "ChargedState"
        },
        {
          "$type": "BPKALFNJLIG",
          "gadgetState": 202,
          "modifierName": "FinishState"
        },
        {
          "$type": "BPKALFNJLIG",
          "gadgetState": 903,
          "modifierName": "QuestState"
        }
      ],
      "modifiers": {
        "UnchargedState": {
          "modifierName": "",
          "IPFJJJGABPL": 100.0,
          "modifierMixins": [
            {
              "$type": "GPCGHACDPIF",
              "DPAOMNELPHI": 1,
              "NLIOHMNJBAM": "Default"
            }
          ],
          "onBeingHit": [
            {
              "$type": "BLCCGIPAOIP",
              "PLLJBINMGJK": "Attack",
              "mpTriggerOnRemote": true
            }
          ]
        },
        "ChargedState": {
          "modifierName": "",
          "IPFJJJGABPL": 100.0,
          "modifierMixins": [
            {
              "$type": "GPCGHACDPIF",
              "NLIOHMNJBAM": "Default"
            }
          ],
          "onAdded": [
            {
              "$type": "ANLOBBMKNIJ",
              "rotationDampTime": "Eff_SceneObj_FactoryBoxingMachine_01_Unqualify",
              "PPPDJGDDOGD": 1.0,
              "AJDILHJFNKE": -1.0
            }
          ],
          "onBeingHit": [
            {
              "$type": "BLCCGIPAOIP",
              "PLLJBINMGJK": "Attack",
              "mpTriggerOnRemote": true
            },
            {
              "$type": "HPIDNBEGJLL",
              "predicates": [
                {
                  "$type": "GAGDDICMFEH",
                  "damage": 100.0,
                  "useOriginDamage": true
                }
              ],
              "state": 202
            }
          ]
        },
        "FinishState": {
          "modifierName": "",
          "IPFJJJGABPL": 100.0,
          "modifierMixins": [
            {
              "$type": "GPCGHACDPIF",
              "NLIOHMNJBAM": "Default"
            }
          ],
          "onAdded": [
            {
              "$type": "ANLOBBMKNIJ",
              "rotationDampTime": "Eff_SceneObj_FactoryBoxingMachine_01_Qualify",
              "PPPDJGDDOGD": 1.0,
              "AJDILHJFNKE": -1.0
            },
            {
              "$type": "KBFEIHEAMBM",
              "rotationDampTime": "Eff_SceneObj_FactoryBoxingMachine_01_Complete",
              "PPPDJGDDOGD": 1.0,
              "AJDILHJFNKE": -1.0
            }
          ],
          "onBeingHit": [
            {
              "$type": "BLCCGIPAOIP",
              "PLLJBINMGJK": "Attack",
              "mpTriggerOnRemote": true
            }
          ]
        },
        "QuestState": {
          "modifierName": "",
          "IPFJJJGABPL": 100.0,
          "modifierMixins": [
            {
              "$type": "GPCGHACDPIF",
              "NLIOHMNJBAM": "Default"
            }
          ],
          "onAdded": [
            {
              "$type": "CLKGEHMNIEF",
              "transformNames": [
                "Charged"
              ],
              "setEnable": true
            }
          ],
          "onBeingHit": [
            {
              "$type": "BLCCGIPAOIP",
              "PLLJBINMGJK": "Attack",
              "mpTriggerOnRemote": true
            }
          ]
        }
      }
    }
  }
]