[
  {
    "Default": {
      "$type": "CBPBEHLOHKI",
      "abilityName": "SceneObj_Environment_GrassMaterial_LeaveStacks_Interact",
      "modifiers": {
        "NormalModifier": {
          "modifierName": "",
          "elementType": "Wood",
          "IPFJJJGABPL": 50.0,
          "onRemoved": [
            {
              "$type": "KBFEIHEAMBM",
              "rotationDampTime": "Eff_SceneObj_LeafBlanket_01_Burnout",
              "born": {
                "$type": "KLPANPDGHHA",
                "attachPointName": "AttachPoint"
              },
              "PPPDJGDDOGD": 1.0,
              "AJDILHJFNKE": -1.0
            },
            {
              "$type": "NCFFNDHGCMH"
            }
          ],
          "onBeingHit": [
            {
              "$type": "JLDEMMJAMLC",
              "predicates": [
                {
                  "$type": "PNLEEOAGKLD",
                  "element": "Wind"
                }
              ],
              "modifierName": "ElementWindModifier"
            }
          ]
        },
        "ElementWindModifier": {
          "modifierName": "",
          "IPFJJJGABPL": 100.0,
          "onAdded": [
            {
              "$type": "KBFEIHEAMBM",
              "rotationDampTime": "Eff_SceneObj_LeafBlanket_01_BlowOff",
              "born": {
                "$type": "KLPANPDGHHA",
                "attachPointName": "AttachPoint"
              },
              "PPPDJGDDOGD": 1.0,
              "AJDILHJFNKE": -1.0
            },
            {
              "$type": "NCFFNDHGCMH"
            }
          ]
        }
      },
      "onAdded": [
        {
          "$type": "OPAOGKPJLIG",
          "resistanceListID": 14005
        },
        {
          "$type": "OPAOGKPJLIG",
          "resistanceListID": 14002
        },
        {
          "$type": "JLDEMMJAMLC",
          "modifierName": "NormalModifier"
        },
        {
          "$type": "LCOEFEMOHLP",
          "param3": 1.0,
          "key": "_ABILITY_BURNING_IGNITE_ONLY",
          "useLimitRange": true,
          "param2": 1.0,
          "repeatTimes": 1.0
        }
      ]
    }
  },
  {
    "Default": {
      "$type": "CBPBEHLOHKI",
      "abilityName": "SceneObj_Environment_GrassMaterial_SakuraStacks_Interact",
      "modifiers": {
        "NormalModifier": {
          "modifierName": "",
          "elementType": "Wood",
          "IPFJJJGABPL": 50.0,
          "onRemoved": [
            {
              "$type": "KBFEIHEAMBM",
              "rotationDampTime": "Eff_SceneObj_LeafBlanket_01_Burnout",
              "born": {
                "$type": "KLPANPDGHHA",
                "attachPointName": "AttachPoint"
              },
              "PPPDJGDDOGD": 1.0,
              "AJDILHJFNKE": -1.0
            },
            {
              "$type": "NCFFNDHGCMH"
            }
          ],
          "onBeingHit": [
            {
              "$type": "JLDEMMJAMLC",
              "predicates": [
                {
                  "$type": "PNLEEOAGKLD",
                  "element": "Wind"
                }
              ],
              "modifierName": "ElementWindModifier"
            }
          ]
        },
        "ElementWindModifier": {
          "modifierName": "",
          "IPFJJJGABPL": 100.0,
          "onAdded": [
            {
              "$type": "KBFEIHEAMBM",
              "rotationDampTime": "Eff_SceneObj_Leavestacks_02_BlowOff",
              "born": {
                "$type": "KLPANPDGHHA",
                "attachPointName": "AttachPoint"
              },
              "PPPDJGDDOGD": 1.0,
              "AJDILHJFNKE": -1.0
            },
            {
              "$type": "NCFFNDHGCMH"
            }
          ]
        }
      },
      "onAdded": [
        {
          "$type": "OPAOGKPJLIG",
          "resistanceListID": 14005
        },
        {
          "$type": "OPAOGKPJLIG",
          "resistanceListID": 14002
        },
        {
          "$type": "JLDEMMJAMLC",
          "modifierName": "NormalModifier"
        },
        {
          "$type": "LCOEFEMOHLP",
          "param3": 1.0,
          "key": "_ABILITY_BURNING_IGNITE_ONLY",
          "useLimitRange": true,
          "param2": 1.0,
          "repeatTimes": 1.0
        }
      ]
    }
  },
  {
    "Default": {
      "$type": "CBPBEHLOHKI",
      "abilityName": "SceneObj_Environment_GrassMaterial_LeafBlanket_Interact",
      "modifiers": {
        "NormalModifier": {
          "modifierName": "",
          "elementType": "Wood",
          "IPFJJJGABPL": 100.0,
          "modifierMixins": [
            {
              "$type": "CLJDJFBAPFM",
              "damageRatio": "Current",
              "onAbilityStateAdded": [
                {
                  "abilityState": "ElementBurning",
                  "actions": [
                    {
                      "$type": "JLDEMMJAMLC",
                      "modifierName": "Burning_Effect"
                    }
                  ]
                }
              ],
              "onAbilityStateRemoved": [
                {
                  "abilityState": "ElementBurning",
                  "actions": [
                    {
                      "$type": "PFKNEFGOHIH",
                      "modifierName": "Burning_Effect"
                    }
                  ]
                }
              ],
              "costEnergyDeltaName": ""
            }
          ],
          "onRemoved": [
            {
              "$type": "KBFEIHEAMBM",
              "rotationDampTime": "Eff_SceneObj_LeafBlanket_01_Burnout",
              "born": {
                "$type": "KLPANPDGHHA",
                "attachPointName": "AttachPoint"
              },
              "PPPDJGDDOGD": 1.0,
              "AJDILHJFNKE": -1.0
            },
            {
              "$type": "NCFFNDHGCMH"
            }
          ]
        },
        "Burning_Effect": {
          "modifierName": "",
          "IPFJJJGABPL": 100.0,
          "onAdded": [
            {
              "$type": "ANLOBBMKNIJ",
              "rotationDampTime": "Eff_Element_Burning",
              "PPPDJGDDOGD": 1.0,
              "AJDILHJFNKE": -1.0
            }
          ]
        }
      },
      "onAdded": [
        {
          "$type": "JLDEMMJAMLC",
          "modifierName": "NormalModifier"
        },
        {
          "$type": "OPAOGKPJLIG",
          "resistanceListID": 14005
        },
        {
          "$type": "OPAOGKPJLIG",
          "resistanceListID": 14002
        },
        {
          "$type": "LCOEFEMOHLP",
          "param3": 2.0,
          "key": "_CUSTOM_ATTACK_SHAPE_TYPE",
          "useLimitRange": true,
          "param2": 2.0,
          "repeatTimes": 2.0
        },
        {
          "$type": "LCOEFEMOHLP",
          "param3": 1.0,
          "key": "_ABILITY_BURNING_IGNITE_ONLY",
          "useLimitRange": true,
          "param2": 1.0,
          "repeatTimes": 1.0
        }
      ]
    }
  },
  {
    "Default": {
      "$type": "CBPBEHLOHKI",
      "abilityName": "SceneObj_Environment_GrassMaterial_GrassStacks_Interact",
      "modifiers": {
        "NormalModifier": {
          "modifierName": "",
          "elementType": "Wood",
          "IPFJJJGABPL": 50.0,
          "onRemoved": [
            {
              "$type": "KBFEIHEAMBM",
              "rotationDampTime": "Eff_SceneObj_Grassstacks_01_Burnt",
              "born": {
                "$type": "KLPANPDGHHA",
                "offset": {
                  "KGEPIMHBMOL": 0.0,
                  "JEBHCGDPFEJ": 0.0,
                  "LPCHALMFFOD": 0.0
                },
                "direction": {
                  "$type": "LHBLDEOLGKF",
                  "attachPointName": "AttachPoint"
                },
                "attachPointName": "AttachPoint"
              },
              "PPPDJGDDOGD": 1.0,
              "AJDILHJFNKE": -1.0
            },
            {
              "$type": "NCFFNDHGCMH"
            }
          ]
        }
      },
      "onAdded": [
        {
          "$type": "JLDEMMJAMLC",
          "modifierName": "NormalModifier"
        },
        {
          "$type": "OPAOGKPJLIG",
          "resistanceListID": 14005
        },
        {
          "$type": "OPAOGKPJLIG",
          "resistanceListID": 14002
        },
        {
          "$type": "LCOEFEMOHLP",
          "param3": 1.0,
          "key": "_ABILITY_BURNING_IGNITE_ONLY",
          "useLimitRange": true,
          "param2": 1.0,
          "repeatTimes": 1.0
        }
      ]
    }
  },
  {
    "Default": {
      "$type": "CBPBEHLOHKI",
      "abilityName": "SceneObj_Environment_GrassMaterial_LeafBlanket02_Interact",
      "modifiers": {
        "NormalModifier": {
          "modifierName": "",
          "elementType": "Wood",
          "IPFJJJGABPL": 100.0,
          "modifierMixins": [
            {
              "$type": "CLJDJFBAPFM",
              "damageRatio": "Current",
              "onAbilityStateAdded": [
                {
                  "abilityState": "ElementBurning",
                  "actions": [
                    {
                      "$type": "JLDEMMJAMLC",
                      "modifierName": "Burning_Effect"
                    }
                  ]
                }
              ],
              "onAbilityStateRemoved": [
                {
                  "abilityState": "ElementBurning",
                  "actions": [
                    {
                      "$type": "PFKNEFGOHIH",
                      "modifierName": "Burning_Effect"
                    }
                  ]
                }
              ],
              "costEnergyDeltaName": ""
            }
          ],
          "onRemoved": [
            {
              "$type": "KBFEIHEAMBM",
              "rotationDampTime": "Eff_SceneObj_LeafBlanket_01_Burnout",
              "born": {
                "$type": "KLPANPDGHHA",
                "attachPointName": "AttachPoint1"
              },
              "PPPDJGDDOGD": 1.0,
              "AJDILHJFNKE": -1.0
            },
            {
              "$type": "KBFEIHEAMBM",
              "rotationDampTime": "Eff_SceneObj_LeafBlanket_01_Burnout",
              "born": {
                "$type": "KLPANPDGHHA",
                "attachPointName": "AttachPoint2"
              },
              "PPPDJGDDOGD": 1.0,
              "AJDILHJFNKE": -1.0
            },
            {
              "$type": "KBFEIHEAMBM",
              "rotationDampTime": "Eff_SceneObj_LeafBlanket_01_Burnout",
              "born": {
                "$type": "KLPANPDGHHA",
                "attachPointName": "AttachPoint3"
              },
              "PPPDJGDDOGD": 1.0,
              "AJDILHJFNKE": -1.0
            },
            {
              "$type": "KBFEIHEAMBM",
              "rotationDampTime": "Eff_SceneObj_LeafBlanket_01_Burnout",
              "born": {
                "$type": "KLPANPDGHHA",
                "attachPointName": "AttachPoint4"
              },
              "PPPDJGDDOGD": 1.0,
              "AJDILHJFNKE": -1.0
            },
            {
              "$type": "KBFEIHEAMBM",
              "rotationDampTime": "Eff_SceneObj_LeafBlanket_01_Burnout",
              "born": {
                "$type": "KLPANPDGHHA",
                "attachPointName": "AttachPoint5"
              },
              "PPPDJGDDOGD": 1.0,
              "AJDILHJFNKE": -1.0
            },
            {
              "$type": "KBFEIHEAMBM",
              "rotationDampTime": "Eff_SceneObj_LeafBlanket_01_Burnout",
              "born": {
                "$type": "KLPANPDGHHA",
                "attachPointName": "AttachPoint6"
              },
              "PPPDJGDDOGD": 1.0,
              "AJDILHJFNKE": -1.0
            },
            {
              "$type": "KBFEIHEAMBM",
              "rotationDampTime": "Eff_SceneObj_LeafBlanket_01_Burnout",
              "born": {
                "$type": "KLPANPDGHHA",
                "attachPointName": "AttachPoint7"
              },
              "PPPDJGDDOGD": 1.0,
              "AJDILHJFNKE": -1.0
            },
            {
              "$type": "KBFEIHEAMBM",
              "rotationDampTime": "Eff_SceneObj_LeafBlanket_01_Burnout",
              "born": {
                "$type": "KLPANPDGHHA",
                "attachPointName": "AttachPoint8"
              },
              "PPPDJGDDOGD": 1.0,
              "AJDILHJFNKE": -1.0
            },
            {
              "$type": "KBFEIHEAMBM",
              "rotationDampTime": "Eff_SceneObj_LeafBlanket_01_Burnout",
              "born": {
                "$type": "KLPANPDGHHA",
                "attachPointName": "AttachPoint9"
              },
              "PPPDJGDDOGD": 1.0,
              "AJDILHJFNKE": -1.0
            },
            {
              "$type": "KBFEIHEAMBM",
              "rotationDampTime": "Eff_SceneObj_LeafBlanket_01_Burnout",
              "born": {
                "$type": "KLPANPDGHHA",
                "attachPointName": "AttachPoint10"
              },
              "PPPDJGDDOGD": 1.0,
              "AJDILHJFNKE": -1.0
            },
            {
              "$type": "KBFEIHEAMBM",
              "rotationDampTime": "Eff_SceneObj_LeafBlanket_01_Burnout",
              "born": {
                "$type": "KLPANPDGHHA",
                "attachPointName": "AttachPoint11"
              },
              "PPPDJGDDOGD": 1.0,
              "AJDILHJFNKE": -1.0
            },
            {
              "$type": "KBFEIHEAMBM",
              "rotationDampTime": "Eff_SceneObj_LeafBlanket_01_Burnout",
              "born": {
                "$type": "KLPANPDGHHA",
                "attachPointName": "AttachPoint12"
              },
              "PPPDJGDDOGD": 1.0,
              "AJDILHJFNKE": -1.0
            },
            {
              "$type": "KBFEIHEAMBM",
              "rotationDampTime": "Eff_SceneObj_LeafBlanket_01_Burnout",
              "born": {
                "$type": "KLPANPDGHHA",
                "attachPointName": "AttachPoint13"
              },
              "PPPDJGDDOGD": 1.0,
              "AJDILHJFNKE": -1.0
            },
            {
              "$type": "KBFEIHEAMBM",
              "rotationDampTime": "Eff_SceneObj_LeafBlanket_01_Burnout",
              "born": {
                "$type": "KLPANPDGHHA",
                "attachPointName": "AttachPoint14"
              },
              "PPPDJGDDOGD": 1.0,
              "AJDILHJFNKE": -1.0
            },
            {
              "$type": "KBFEIHEAMBM",
              "rotationDampTime": "Eff_SceneObj_LeafBlanket_01_Burnout",
              "born": {
                "$type": "KLPANPDGHHA",
                "attachPointName": "AttachPoint15"
              },
              "PPPDJGDDOGD": 1.0,
              "AJDILHJFNKE": -1.0
            },
            {
              "$type": "NCFFNDHGCMH"
            }
          ]
        },
        "Burning_Effect": {
          "modifierName": "",
          "IPFJJJGABPL": 100.0,
          "onAdded": [
            {
              "$type": "ANLOBBMKNIJ",
              "rotationDampTime": "Eff_Element_Burning",
              "PPPDJGDDOGD": 1.0,
              "AJDILHJFNKE": -1.0
            }
          ]
        }
      },
      "onAdded": [
        {
          "$type": "JLDEMMJAMLC",
          "modifierName": "NormalModifier"
        },
        {
          "$type": "OPAOGKPJLIG",
          "resistanceListID": 14005
        },
        {
          "$type": "OPAOGKPJLIG",
          "resistanceListID": 14002
        },
        {
          "$type": "LCOEFEMOHLP",
          "param3": 2.0,
          "key": "_CUSTOM_ATTACK_SHAPE_TYPE",
          "useLimitRange": true,
          "param2": 2.0,
          "repeatTimes": 2.0
        },
        {
          "$type": "LCOEFEMOHLP",
          "param3": 1.0,
          "key": "_ABILITY_BURNING_IGNITE_ONLY",
          "useLimitRange": true,
          "param2": 1.0,
          "repeatTimes": 1.0
        }
      ]
    }
  },
  {
    "Default": {
      "$type": "CBPBEHLOHKI",
      "abilityName": "SceneObj_Environment_CobWeb_Interact",
      "modifiers": {
        "CobWebDestory": {
          "modifierName": "",
          "IPFJJJGABPL": 100.0,
          "onBeingHit": [
            {
              "$type": "AKEEDILMOJF",
              "predicates": [
                {
                  "$type": "ALLFFNEOPGA",
                  "logic": "Equal",
                  "param3": 0,
                  "parameter": "HitProtect"
                }
              ],
              "intID": "Hit",
              "param3": 1.0
            }
          ]
        },
        "ShootCheck": {
          "modifierName": "",
          "IPFJJJGABPL": 100.0,
          "thinkInterval": 0.5,
          "onAdded": [
            {
              "$type": "LCOEFEMOHLP",
              "target": "Applier",
              "param3": 1.0,
              "key": "_Cobweb_Bullet_Shoot",
              "useLimitRange": true,
              "param2": 1.0,
              "repeatTimes": 0.0
            }
          ],
          "onThinkInterval": [
            {
              "$type": "PFKNEFGOHIH",
              "modifierName": "ShootCheck"
            }
          ]
        },
        "AttackCheck": {
          "modifierName": "",
          "IPFJJJGABPL": 100.0,
          "thinkInterval": 1.5,
          "onThinkInterval": [
            {
              "$type": "LCOEFEMOHLP",
              "param3": -1.0,
              "key": "_Cobweb_Bullet_Shoot",
              "useLimitRange": true,
              "param2": 1.0,
              "repeatTimes": 0.0
            },
            {
              "$type": "MDIAKCCDEAL",
              "otherTargets": {
                "$type": "IJOFJOGLDHE",
                "topLimit": 1,
                "sortType": "Nearest",
                "shapeName": "CircleR10",
                "campTargetType": "Enemy",
                "doOffStage": 1.0
              },
              "predicates": [
                {
                  "$type": "NIMAPECDNKD",
                  "entityTypes": [
                    "Avatar"
                  ]
                }
              ]
            },
            {
              "$type": "JLDEMMJAMLC",
              "otherTargets": {
                "$type": "IJOFJOGLDHE",
                "topLimit": 1,
                "sortType": "Nearest",
                "shapeName": "CircleR10",
                "campTargetType": "Enemy",
                "doOffStage": 1.0
              },
              "predicates": [
                {
                  "$type": "NIMAPECDNKD",
                  "entityTypes": [
                    "Avatar"
                  ]
                }
              ],
              "modifierName": "ShootCheck"
            },
            {
              "$type": "CAKDDHLKOAB",
              "predicates": [
                {
                  "$type": "CNGGLKHONAA",
                  "key": "_Cobweb_Bullet_Shoot",
                  "param3": 1.0
                }
              ],
              "bulletID": 70220037,
              "born": {
                "$type": "KLPANPDGHHA",
                "attachPointName": "AttachPoint"
              }
            }
          ]
        }
      },
      "onAdded": [
        {
          "$type": "JLDEMMJAMLC",
          "modifierName": "CobWebDestory"
        },
        {
          "$type": "MDIAKCCDEAL",
          "target": "AllPlayerAvatars"
        },
        {
          "$type": "ANLOBBMKNIJ",
          "rotationDampTime": "Eff_Prop_Arachnel_01",
          "born": {
            "$type": "KLPANPDGHHA",
            "attachPointName": "AttachPoint"
          },
          "PPPDJGDDOGD": 1.0,
          "AJDILHJFNKE": -1.0
        },
        {
          "$type": "LCOEFEMOHLP",
          "param3": 1.0,
          "key": "_Cobweb_Bullet_Shoot",
          "useLimitRange": true,
          "param2": 1.0,
          "repeatTimes": 0.0
        }
      ],
      "onKill": [
        {
          "$type": "KBFEIHEAMBM",
          "rotationDampTime": "Eff_SecenObj_SpiderWeb_Destruction",
          "PPPDJGDDOGD": 1.0,
          "AJDILHJFNKE": -1.0
        }
      ],
      "onFieldEnter": [
        {
          "$type": "JLDEMMJAMLC",
          "modifierName": "AttackCheck"
        }
      ],
      "onFieldExit": [
        {
          "$type": "PFKNEFGOHIH",
          "modifierName": "AttackCheck"
        }
      ]
    }
  },
  {
    "Default": {
      "$type": "CBPBEHLOHKI",
      "abilityName": "SceneObj_Environment_CobWeb_Bullet_Loop",
      "modifiers": {
        "spider_bullet_Loop": {
          "modifierName": "",
          "IPFJJJGABPL": 100.0,
          "onAdded": [
            {
              "$type": "ANLOBBMKNIJ",
              "rotationDampTime": "Eff_Archnel_Bullet_01",
              "PPPDJGDDOGD": 1.0,
              "AJDILHJFNKE": -1.0
            }
          ]
        }
      },
      "onAdded": [
        {
          "$type": "JLDEMMJAMLC",
          "modifierName": "spider_bullet_Loop"
        }
      ]
    }
  },
  {
    "Default": {
      "$type": "CBPBEHLOHKI",
      "abilityName": "SceneObj_Environment_CobWeb_Bullet_Explode",
      "modifiers": {
        "UNIQUE_SlowDown": {
          "modifierName": "",
          "forceTriggerWhenChangeAuthority": true,
          "elementDurability": 3.0,
          "IPFJJJGABPL": 100.0,
          "properties": {
            "Animator_MoveSpeedRatio": -0.5
          },
          "state": "SpeedDown",
          "isLimitedProperties": true
        }
      },
      "onAbilityStart": [
        {
          "$type": "PELJALPANCA",
          "target": "Target",
          "modifierName": "UNIQUE_SlowDown"
        },
        {
          "$type": "AIFPLABJNMA",
          "attackEvent": {
            "attackPattern": {
              "$type": "JHKEHNJBMOF",
              "triggerType": "TriggerNoRepeat",
              "born": {
                "$type": "JGEBAJLEBMO"
              },
              "size": {
                "KGEPIMHBMOL": 0.10000000149011612,
                "JEBHCGDPFEJ": 0.10000000149011612,
                "LPCHALMFFOD": 1.0
              }
            },
            "attackInfo": {
              "attackTag": "",
              "attenuationTag": "",
              "attenuationGroup": "default",
              "attackProperty": {
                "actorGrassSubHurtDelta": 0.25,
                "actorWindSubHurtDelta": 0.0,
                "IPFJJJGABPL": 100.0,
                "strikeType": "Pierce",
                "enBreak": 50.0,
                "GLKMCMDJBIK": 0.0
              },
              "hitPattern": {
                "onHitEffectName": "Eff_Hit_Archnel_01",
                "hitImpulseY": "",
                "hitImpulseType": "LV2",
                "hitHaltTimeScale": 0.009999999776482582
              }
            }
          },
          "targetType": "Enemy"
        }
      ]
    }
  }
]