[
  {
    "Default": {
      "$type": "CBPBEHLOHKI",
      "abilityName": "SceneObj_Gather_Default_Ore",
      "modifiers": {
        "Gather_Ore": {
          "modifierName": "",
          "elementType": "Rock",
          "IPFJJJGABPL": 10.0,
          "modifierMixins": [
            {
              "$type": "BKAAGFNKMLF",
              "showDamageText": ""
            }
          ],
          "state": "Limbo",
          "onRemoved": [
            {
              "$type": "NCFFNDHGCMH"
            }
          ]
        }
      },
      "onAdded": [
        {
          "$type": "JLDEMMJAMLC",
          "modifierName": "Gather_Ore"
        }
      ]
    }
  },
  {
    "Default": {
      "$type": "CBPBEHLOHKI",
      "abilityName": "SceneObj_Gather_Default_Mithril",
      "modifiers": {
        "Gather_Mithril": {
          "modifierName": "",
          "elementType": "Rock",
          "IPFJJJGABPL": 10.0,
          "modifierMixins": [
            {
              "$type": "BKAAGFNKMLF",
              "showDamageText": ""
            }
          ],
          "state": "Limbo",
          "onRemoved": [
            {
              "$type": "NCFFNDHGCMH"
            }
          ]
        }
      },
      "onAdded": [
        {
          "$type": "JLDEMMJAMLC",
          "modifierName": "Gather_Mithril"
        }
      ]
    }
  },
  {
    "Default": {
      "$type": "CBPBEHLOHKI",
      "abilityName": "SceneObj_Gather_Small_Shining_Mushroom",
      "modifiers": {
        "mushroom": {
          "modifierName": "",
          "IPFJJJGABPL": 100.0,
          "onAdded": [
            {
              "$type": "ANLOBBMKNIJ",
              "rotationDampTime": "Eff_SceneObj_ShiningSparkle_02",
              "PPPDJGDDOGD": 1.0,
              "AJDILHJFNKE": -1.0
            }
          ]
        }
      },
      "onAdded": [
        {
          "$type": "JLDEMMJAMLC",
          "modifierName": "mushroom"
        }
      ]
    }
  },
  {
    "Default": {
      "$type": "CBPBEHLOHKI",
      "abilityName": "SceneObj_Gather_ElectricRock02_Interact",
      "modifiers": {
        "ElectricElementModifier": {
          "modifierName": "",
          "elementType": "Electric",
          "IPFJJJGABPL": 25.0,
          "onRemoved": [
            {
              "$type": "PELJALPANCA",
              "modifierName": "Delay"
            }
          ]
        },
        "Delay": {
          "modifierName": "",
          "elementDurability": 0.10000000149011612,
          "IPFJJJGABPL": 100.0,
          "onRemoved": [
            {
              "$type": "PELJALPANCA",
              "modifierName": "ElectricElementModifier"
            }
          ]
        },
        "ElementElectric": {
          "modifierName": "",
          "IPFJJJGABPL": 100.0,
          "thinkInterval": 0.5,
          "onAdded": [
            {
              "$type": "ANLOBBMKNIJ",
              "rotationDampTime": "Eff_SceneObj_ElectricRock_01_Base",
              "PPPDJGDDOGD": 1.0,
              "AJDILHJFNKE": -1.0
            }
          ],
          "onRemoved": [
            {
              "$type": "NCFFNDHGCMH"
            }
          ],
          "onBeingHit": [
            {
              "$type": "PFKNEFGOHIH",
              "predicates": [
                {
                  "$type": "PNLEEOAGKLD",
                  "element": "Fire"
                }
              ],
              "modifierName": "ElementElectric"
            }
          ],
          "onThinkInterval": [
            {
              "$type": "AIFPLABJNMA",
              "attackEvent": {
                "attackPattern": {
                  "$type": "GMDIMKKHACA",
                  "triggerType": "TriggerNoRepeat",
                  "born": {
                    "$type": "IAENDIPDFKD",
                    "offset": {
                      "KGEPIMHBMOL": 0.0,
                      "JEBHCGDPFEJ": 0.0,
                      "LPCHALMFFOD": 0.0
                    }
                  },
                  "OAHPDLJIADP": 1.5
                },
                "attackInfo": {
                  "attackTag": "",
                  "attenuationTag": "",
                  "attenuationGroup": "default",
                  "attackProperty": {
                    "actorGrassSubHurtDelta": 0.5,
                    "actorWindSubHurtDelta": 0.0,
                    "elementType": "Electric",
                    "IPFJJJGABPL": 30.0,
                    "strikeType": "Default",
                    "GLKMCMDJBIK": 0.0
                  },
                  "hitPattern": {
                    "onHitEffectName": "default",
                    "hitImpulseY": "",
                    "hitImpulseType": "LV0",
                    "hitHaltTimeScale": 0.05000000074505806
                  }
                }
              },
              "targetType": "AllExceptSelf"
            }
          ]
        }
      },
      "onAdded": [
        {
          "$type": "JLDEMMJAMLC",
          "modifierName": "ElementElectric"
        },
        {
          "$type": "JLDEMMJAMLC",
          "modifierName": "ElectricElementModifier"
        }
      ]
    }
  },
  {
    "Default": {
      "$type": "CBPBEHLOHKI",
      "abilityName": "SceneObj_Area_Ljxs_Property_Prop_OreDulinsBlood_01",
      "abilityMixins": [
        {
          "$type": "BPKALFNJLIG",
          "modifierName": "Appear"
        },
        {
          "$type": "BPKALFNJLIG",
          "gadgetState": 201,
          "modifierName": "Disppear"
        }
      ],
      "modifiers": {
        "Appear": {
          "modifierName": "",
          "elementType": "Rock",
          "IPFJJJGABPL": 10.0,
          "modifierMixins": [
            {
              "$type": "BKAAGFNKMLF",
              "showDamageText": ""
            }
          ],
          "onAdded": [
            {
              "$type": "ANLOBBMKNIJ",
              "rotationDampTime": "Eff_SceneObj_OreDulinsBlood_01",
              "PPPDJGDDOGD": 1.0,
              "AJDILHJFNKE": -1.0
            }
          ],
          "onRemoved": [
            {
              "$type": "MFKEIKOOFJP",
              "subfieldName": "Dulins_Blood"
            },
            {
              "$type": "LBINHEFBJMN",
              "param1": 201
            },
            {
              "$type": "KBFEIHEAMBM",
              "rotationDampTime": "Eff_SceneObj_OreDulinsBlood_02",
              "PPPDJGDDOGD": 1.0,
              "AJDILHJFNKE": -1.0
            }
          ]
        },
        "Disppear": {
          "modifierName": "",
          "elementDurability": 15.0,
          "IPFJJJGABPL": 100.0,
          "onRemoved": [
            {
              "$type": "LBINHEFBJMN"
            }
          ]
        }
      }
    }
  },
  {
    "Default": {
      "$type": "CBPBEHLOHKI",
      "abilityName": "SceneObj_Gather_FireFlower02_Interact",
      "modifiers": {
        "FireElementModifier": {
          "modifierName": "",
          "elementType": "Fire",
          "IPFJJJGABPL": 25.0,
          "thinkInterval": 4.5,
          "onAdded": [
            {
              "$type": "LCOEFEMOHLP",
              "param3": 1.0,
              "key": "_IS_IN_FIRE",
              "useLimitRange": true,
              "param2": 1.0,
              "repeatTimes": 1.0
            },
            {
              "$type": "ANLOBBMKNIJ",
              "rotationDampTime": "Eff_SceneObj_FireFlower_01_Idle",
              "PPPDJGDDOGD": 1.0,
              "AJDILHJFNKE": -1.0
            }
          ],
          "onRemoved": [
            {
              "$type": "PELJALPANCA",
              "modifierName": "Delay"
            }
          ],
          "onThinkInterval": [
            {
              "$type": "KBFEIHEAMBM",
              "rotationDampTime": "Eff_SceneObj_Fireflower_01_BaseBurst",
              "born": {
                "$type": "KLPANPDGHHA",
                "offset": {
                  "KGEPIMHBMOL": 0.0,
                  "JEBHCGDPFEJ": 0.0,
                  "LPCHALMFFOD": 0.0
                },
                "attachPointName": "attachPoint2"
              },
              "PPPDJGDDOGD": 1.0,
              "AJDILHJFNKE": -1.0
            },
            {
              "$type": "AIFPLABJNMA",
              "attackEvent": {
                "attackPattern": {
                  "$type": "GMDIMKKHACA",
                  "triggerType": "TriggerNoRepeat",
                  "born": {
                    "$type": "IAENDIPDFKD",
                    "offset": {
                      "KGEPIMHBMOL": 0.0,
                      "JEBHCGDPFEJ": 0.0,
                      "LPCHALMFFOD": 0.0
                    }
                  },
                  "OAHPDLJIADP": 1.5
                },
                "attackInfo": {
                  "attackTag": "",
                  "attenuationTag": "",
                  "attenuationGroup": "default",
                  "attackProperty": {
                    "actorGrassSubHurtDelta": 3.0,
                    "actorWindSubHurtDelta": 0.0,
                    "elementType": "Fire",
                    "IPFJJJGABPL": 30.0,
                    "strikeType": "Default",
                    "ignoreLevelDiff": true,
                    "GLKMCMDJBIK": 0.0
                  },
                  "hitPattern": {
                    "onHitEffectName": "default",
                    "hitImpulseY": "",
                    "hitImpulseType": "LV2",
                    "overrideHitImpulse": {
                      "hitLevel": "Light",
                      "IMIJMPGJOGG": 0.0,
                      "BPCDKKBKOBM": 0.0
                    },
                    "hitHaltTimeScale": 0.05000000074505806
                  }
                }
              },
              "targetType": "AllExceptSelf"
            }
          ]
        },
        "Delay": {
          "modifierName": "",
          "IPFJJJGABPL": 100.0,
          "thinkInterval": 0.5,
          "onThinkInterval": [
            {
              "$type": "PELJALPANCA",
              "predicates": [
                {
                  "$type": "CNGGLKHONAA",
                  "key": "_CAN_BE_REVIVE",
                  "param3": 1.0
                },
                {
                  "$type": "BCFNGJHILAG",
                  "predicates": [
                    {
                      "$type": "NFJHABGCNHE",
                      "element": "Water"
                    }
                  ]
                }
              ],
              "modifierName": "FireElementModifier"
            },
            {
              "$type": "PFKNEFGOHIH",
              "predicates": [
                {
                  "$type": "CNGGLKHONAA",
                  "key": "_CAN_BE_REVIVE",
                  "param3": 1.0
                },
                {
                  "$type": "BCFNGJHILAG",
                  "predicates": [
                    {
                      "$type": "NFJHABGCNHE",
                      "element": "Water"
                    }
                  ]
                }
              ],
              "modifierName": "Delay"
            }
          ]
        },
        "ElementFire": {
          "modifierName": "",
          "IPFJJJGABPL": 100.0,
          "onAdded": [
            {
              "$type": "ANLOBBMKNIJ",
              "rotationDampTime": "Eff_SceneObj_Fireflower_01_Base",
              "PPPDJGDDOGD": 1.0,
              "AJDILHJFNKE": -1.0
            }
          ],
          "onRemoved": [
            {
              "$type": "LBINHEFBJMN"
            },
            {
              "$type": "LCOEFEMOHLP",
              "param3": 0.0,
              "key": "_IS_IN_FIRE",
              "useLimitRange": true,
              "param2": 0.0,
              "repeatTimes": 0.0
            },
            {
              "$type": "KBFEIHEAMBM",
              "rotationDampTime": "Eff_SceneObj_FireFlower_01_Hit",
              "PPPDJGDDOGD": 1.0,
              "AJDILHJFNKE": -1.0
            },
            {
              "$type": "BLCCGIPAOIP",
              "PLLJBINMGJK": "FireAttack"
            },
            {
              "$type": "LCOEFEMOHLP",
              "param3": 0.0,
              "key": "_CAN_BE_REVIVE",
              "useLimitRange": true,
              "param2": 0.0,
              "repeatTimes": 0.0
            },
            {
              "$type": "PFKNEFGOHIH",
              "modifierName": "FireElementModifier"
            }
          ],
          "onBeingHit": [
            {
              "$type": "PFKNEFGOHIH",
              "predicates": [
                {
                  "$type": "PNLEEOAGKLD",
                  "element": "Ice"
                }
              ],
              "modifierName": "ElementFire"
            },
            {
              "$type": "PFKNEFGOHIH",
              "predicates": [
                {
                  "$type": "PNLEEOAGKLD",
                  "element": "Water"
                }
              ],
              "modifierName": "ElementFire"
            }
          ]
        },
        "HitMonitor": {
          "modifierName": "",
          "IPFJJJGABPL": 100.0,
          "onBeingHit": [
            {
              "$type": "BLCCGIPAOIP",
              "predicates": [
                {
                  "$type": "BCFNGJHILAG",
                  "predicates": [
                    {
                      "$type": "NNEHDJHMING",
                      "attackTags": [
                        "BurningDamage"
                      ]
                    }
                  ]
                }
              ],
              "PLLJBINMGJK": "NormalAttack"
            }
          ]
        },
        "Ani_Control": {
          "modifierName": "",
          "IPFJJJGABPL": 100.0,
          "onAdded": [
            {
              "$type": "AKEEDILMOJF",
              "predicates": [
                {
                  "$type": "CNGGLKHONAA",
                  "key": "_IS_IN_FIRE",
                  "param3": 0.0
                }
              ],
              "intID": "gadgetState",
              "param3": 901.0
            },
            {
              "$type": "AKEEDILMOJF",
              "predicates": [
                {
                  "$type": "CNGGLKHONAA",
                  "key": "_IS_IN_FIRE",
                  "param3": 1.0
                }
              ],
              "intID": "gadgetState",
              "param3": 0.0
            }
          ]
        }
      },
      "onAdded": [
        {
          "$type": "PELJALPANCA",
          "modifierName": "ElementFire"
        },
        {
          "$type": "PELJALPANCA",
          "modifierName": "HitMonitor"
        },
        {
          "$type": "PELJALPANCA",
          "modifierName": "FireElementModifier"
        },
        {
          "$type": "PELJALPANCA",
          "modifierName": "Ani_Control"
        },
        {
          "$type": "LCOEFEMOHLP",
          "param3": 1.0,
          "key": "_ABILITY_BURNING_IGNITE_ONLY",
          "useLimitRange": true,
          "param2": 1.0,
          "repeatTimes": 1.0
        },
        {
          "$type": "LCOEFEMOHLP",
          "param3": 1.0,
          "key": "_CAN_BE_REVIVE",
          "useLimitRange": true,
          "param2": 1.0,
          "repeatTimes": 1.0
        }
      ]
    }
  },
  {
    "Default": {
      "$type": "CBPBEHLOHKI",
      "abilityName": "SceneObj_Gather_IceFlower02_Interact",
      "modifiers": {
        "IceElementModifier": {
          "modifierName": "",
          "elementType": "Frozen",
          "IPFJJJGABPL": 25.0,
          "onRemoved": [
            {
              "$type": "PELJALPANCA",
              "modifierName": "Delay"
            }
          ]
        },
        "Delay": {
          "modifierName": "",
          "elementDurability": 0.10000000149011612,
          "IPFJJJGABPL": 100.0,
          "onRemoved": [
            {
              "$type": "PELJALPANCA",
              "predicates": [
                {
                  "$type": "CNGGLKHONAA",
                  "key": "_CAN_BE_REVIVE",
                  "param3": 1.0
                }
              ],
              "modifierName": "IceElementModifier"
            }
          ]
        },
        "ElementIce": {
          "modifierName": "",
          "IPFJJJGABPL": 100.0,
          "thinkInterval": 4.5,
          "onAdded": [
            {
              "$type": "ANLOBBMKNIJ",
              "rotationDampTime": "Eff_SceneObj_IceFlower_01_Idle",
              "PPPDJGDDOGD": 1.0,
              "AJDILHJFNKE": -1.0
            },
            {
              "$type": "ANLOBBMKNIJ",
              "rotationDampTime": "Eff_SceneObj_IceFlower_01_Base",
              "PPPDJGDDOGD": 1.0,
              "AJDILHJFNKE": -1.0
            }
          ],
          "onRemoved": [
            {
              "$type": "LBINHEFBJMN"
            },
            {
              "$type": "ANLOBBMKNIJ",
              "rotationDampTime": "Eff_SceneObj_IceFlower_01_Hit",
              "PPPDJGDDOGD": 1.0,
              "AJDILHJFNKE": -1.0
            },
            {
              "$type": "BLCCGIPAOIP",
              "PLLJBINMGJK": "FireAttack"
            },
            {
              "$type": "LCOEFEMOHLP",
              "param3": 0.0,
              "key": "_CAN_BE_REVIVE",
              "useLimitRange": true,
              "param2": 0.0,
              "repeatTimes": 0.0
            },
            {
              "$type": "PFKNEFGOHIH",
              "modifierName": "IceElementModifier"
            }
          ],
          "onBeingHit": [
            {
              "$type": "PFKNEFGOHIH",
              "predicates": [
                {
                  "$type": "PNLEEOAGKLD",
                  "element": "Fire"
                }
              ],
              "modifierName": "ElementIce"
            }
          ],
          "onThinkInterval": [
            {
              "$type": "KBFEIHEAMBM",
              "rotationDampTime": "Eff_SceneObj_IceFlower_01_BaseBurst",
              "born": {
                "$type": "KLPANPDGHHA",
                "offset": {
                  "KGEPIMHBMOL": 0.0,
                  "JEBHCGDPFEJ": 0.0,
                  "LPCHALMFFOD": 0.0
                },
                "attachPointName": "attachPoint2"
              },
              "PPPDJGDDOGD": 1.0,
              "AJDILHJFNKE": -1.0
            },
            {
              "$type": "AIFPLABJNMA",
              "attackEvent": {
                "attackPattern": {
                  "$type": "GMDIMKKHACA",
                  "triggerType": "TriggerNoRepeat",
                  "born": {
                    "$type": "IAENDIPDFKD",
                    "offset": {
                      "KGEPIMHBMOL": 0.0,
                      "JEBHCGDPFEJ": 0.0,
                      "LPCHALMFFOD": 0.0
                    }
                  },
                  "OAHPDLJIADP": 1.5
                },
                "attackInfo": {
                  "attackTag": "",
                  "attenuationTag": "",
                  "attenuationGroup": "default",
                  "attackProperty": {
                    "actorGrassSubHurtDelta": 3.0,
                    "actorWindSubHurtDelta": 0.0,
                    "elementType": "Ice",
                    "IPFJJJGABPL": 30.0,
                    "strikeType": "Default",
                    "ignoreLevelDiff": true,
                    "GLKMCMDJBIK": 0.0
                  },
                  "hitPattern": {
                    "onHitEffectName": "default",
                    "hitImpulseY": "",
                    "hitImpulseType": "LV2",
                    "overrideHitImpulse": {
                      "hitLevel": "Light",
                      "IMIJMPGJOGG": 0.0,
                      "BPCDKKBKOBM": 0.0
                    },
                    "hitHaltTimeScale": 0.05000000074505806
                  }
                }
              },
              "targetType": "AllExceptSelf"
            }
          ]
        },
        "HitMonitor": {
          "modifierName": "",
          "IPFJJJGABPL": 100.0,
          "onBeingHit": [
            {
              "$type": "BLCCGIPAOIP",
              "predicates": [
                {
                  "$type": "BCFNGJHILAG",
                  "predicates": [
                    {
                      "$type": "NNEHDJHMING",
                      "attackTags": [
                        "BurningDamage"
                      ]
                    }
                  ]
                }
              ],
              "PLLJBINMGJK": "NormalAttack"
            }
          ]
        },
        "Ani_Control": {
          "modifierName": "",
          "IPFJJJGABPL": 100.0,
          "onAdded": [
            {
              "$type": "AKEEDILMOJF",
              "predicates": [
                {
                  "$type": "BCFNGJHILAG",
                  "predicates": [
                    {
                      "$type": "NFJHABGCNHE",
                      "element": "Frozen"
                    }
                  ]
                }
              ],
              "intID": "gadgetState",
              "param3": 901.0
            },
            {
              "$type": "AKEEDILMOJF",
              "predicates": [
                {
                  "$type": "NFJHABGCNHE",
                  "element": "Frozen"
                }
              ],
              "intID": "gadgetState",
              "param3": 0.0
            }
          ]
        }
      },
      "onAdded": [
        {
          "$type": "PELJALPANCA",
          "modifierName": "ElementIce"
        },
        {
          "$type": "PELJALPANCA",
          "modifierName": "HitMonitor"
        },
        {
          "$type": "PELJALPANCA",
          "modifierName": "IceElementModifier"
        },
        {
          "$type": "PELJALPANCA",
          "modifierName": "Ani_Control"
        },
        {
          "$type": "LCOEFEMOHLP",
          "param3": 1.0,
          "key": "_CAN_BE_REVIVE",
          "useLimitRange": true,
          "param2": 1.0,
          "repeatTimes": 1.0
        },
        {
          "$type": "OPAOGKPJLIG",
          "resistanceListID": 14002
        }
      ]
    }
  },
  {
    "Default": {
      "$type": "CBPBEHLOHKI",
      "abilityName": "SceneObj_Gather_Advance_Ore_Interact",
      "modifiers": {
        "NormalModifier": {
          "modifierName": "",
          "elementType": "Rock",
          "IPFJJJGABPL": 100.0,
          "modifierMixins": [
            {
              "$type": "BKAAGFNKMLF",
              "showDamageText": ""
            }
          ],
          "state": "Limbo",
          "onRemoved": [
            {
              "$type": "NCFFNDHGCMH"
            }
          ]
        }
      },
      "onAdded": [
        {
          "$type": "JLDEMMJAMLC",
          "modifierName": "NormalModifier"
        }
      ]
    }
  },
  {
    "Default": {
      "$type": "CBPBEHLOHKI",
      "abilityName": "SceneObj_Area_Common_Property_Ani_Prop_SpongePlant_01",
      "abilityMixins": [
        {
          "$type": "FDOLONNOJHG",
          "elementTypes": [
            "Water"
          ],
          "modifierName": "Water_Pick"
        }
      ],
      "modifiers": {
        "NormalModifier": {
          "modifierName": "",
          "IPFJJJGABPL": 100.0,
          "onBeingHit": [
            {
              "$type": "PELJALPANCA",
              "predicates": [
                {
                  "$type": "PNLEEOAGKLD",
                  "element": "Water"
                }
              ],
              "modifierName": "CanPick"
            },
            {
              "$type": "INBCDALOHMP",
              "target": "Target",
              "targetPredicates": [
                {
                  "$type": "CNGGLKHONAA",
                  "key": "IS_IN_CD",
                  "param3": 0.0,
                  "compareType": "NoneOrEqual"
                }
              ],
              "successActions": [
                {
                  "$type": "BLCCGIPAOIP",
                  "PLLJBINMGJK": "NormalAttack"
                },
                {
                  "$type": "PELJALPANCA",
                  "modifierName": "SetCD"
                }
              ]
            }
          ]
        },
        "SetCD": {
          "modifierName": "",
          "elementDurability": 2.0,
          "IPFJJJGABPL": 100.0,
          "onAdded": [
            {
              "$type": "BOBCOJHOKKD",
              "param3": 1.0,
              "key": "IS_IN_CD",
              "param2": 0.0,
              "repeatTimes": 0.0
            }
          ],
          "onRemoved": [
            {
              "$type": "BOBCOJHOKKD",
              "param3": 0.0,
              "key": "IS_IN_CD",
              "param2": 0.0,
              "repeatTimes": 0.0
            }
          ]
        },
        "UnPick": {
          "modifierName": "",
          "IPFJJJGABPL": 100.0,
          "onAdded": [
            {
              "$type": "KMMLIOKPIKN",
              "shieldHP": true,
              "renderNames": [
                "Property_Ani_Prop_SpongePlant_01_02_Vo"
              ],
              "setEnable": true
            },
            {
              "$type": "KMMLIOKPIKN",
              "shieldHP": true,
              "renderNames": [
                "Property_Ani_Prop_SpongePlant_01_03_Vo"
              ]
            },
            {
              "$type": "ANLOBBMKNIJ",
              "rotationDampTime": "Eff_SceneObj_Area_Common_Property_Ani_Prop_SpongePlantBase_02",
              "born": {
                "$type": "JHEBKCMEMLN"
              },
              "PPPDJGDDOGD": 1.0,
              "AJDILHJFNKE": -1.0
            },
            {
              "$type": "ANLOBBMKNIJ",
              "rotationDampTime": "Eff_SceneObj_Area_Common_Property_Ani_Prop_SpongePlantBase_04",
              "PPPDJGDDOGD": 1.0,
              "AJDILHJFNKE": -1.0
            }
          ],
          "onRemoved": [
            {
              "$type": "KMMLIOKPIKN",
              "shieldHP": true,
              "renderNames": [
                "Property_Ani_Prop_SpongePlant_01_02_Vo"
              ]
            },
            {
              "$type": "KMMLIOKPIKN",
              "shieldHP": true,
              "renderNames": [
                "Property_Ani_Prop_SpongePlant_01_03_Vo"
              ],
              "setEnable": true
            },
            {
              "$type": "KBFEIHEAMBM",
              "rotationDampTime": "Eff_SceneObj_Area_Common_Property_Ani_Prop_SpongePlantBase_01",
              "PPPDJGDDOGD": 1.0,
              "AJDILHJFNKE": -1.0
            }
          ]
        },
        "Water_Pick": {
          "modifierName": "",
          "IPFJJJGABPL": 100.0,
          "onAdded": [
            {
              "$type": "INBCDALOHMP",
              "targetPredicates": [
                {
                  "$type": "CNGGLKHONAA",
                  "key": "IS_IN_CD",
                  "param3": 0.0,
                  "compareType": "NoneOrEqual"
                }
              ],
              "successActions": [
                {
                  "$type": "BLCCGIPAOIP",
                  "PLLJBINMGJK": "NormalAttack"
                },
                {
                  "$type": "PELJALPANCA",
                  "modifierName": "SetCD"
                }
              ]
            },
            {
              "$type": "PELJALPANCA",
              "modifierName": "CanPick"
            }
          ]
        },
        "WaterElement": {
          "modifierName": "",
          "elementType": "Water",
          "IPFJJJGABPL": 25.0
        },
        "CanPick": {
          "stacking": "Unique",
          "modifierName": "",
          "IPFJJJGABPL": 100.0,
          "onAdded": [
            {
              "$type": "KMMLIOKPIKN",
              "shieldHP": true,
              "renderNames": [
                "Property_Ani_Prop_SpongePlant_01_02_Vo"
              ]
            },
            {
              "$type": "KMMLIOKPIKN",
              "shieldHP": true,
              "renderNames": [
                "Property_Ani_Prop_SpongePlant_01_03_Vo"
              ],
              "setEnable": true
            },
            {
              "$type": "PFKNEFGOHIH",
              "modifierName": "UnPick"
            },
            {
              "$type": "PELJALPANCA",
              "modifierName": "WaterElement"
            },
            {
              "$type": "ANLOBBMKNIJ",
              "rotationDampTime": "Eff_SceneObj_Area_Common_Property_Ani_Prop_SpongePlantBase_03",
              "born": {
                "$type": "JHEBKCMEMLN"
              },
              "PPPDJGDDOGD": 1.0,
              "AJDILHJFNKE": -1.0
            },
            {
              "$type": "ANLOBBMKNIJ",
              "rotationDampTime": "Eff_SceneObj_Area_Common_Property_Ani_Prop_SpongePlantBase_05",
              "PPPDJGDDOGD": 1.0,
              "AJDILHJFNKE": -1.0
            },
            {
              "$type": "LBINHEFBJMN"
            }
          ]
        }
      },
      "onAdded": [
        {
          "$type": "PELJALPANCA",
          "modifierName": "NormalModifier"
        },
        {
          "$type": "PELJALPANCA",
          "modifierName": "UnPick"
        },
        {
          "$type": "OPAOGKPJLIG",
          "resistanceListID": 11002
        }
      ]
    }
  },
  {
    "Default": {
      "$type": "CBPBEHLOHKI",
      "abilityName": "SceneObj_Area_Common_Property_Ani_Prop_SpongePlant_02",
      "modifiers": {
        "CanPick": {
          "stacking": "Unique",
          "modifierName": "",
          "IPFJJJGABPL": 100.0,
          "onAdded": [
            {
              "$type": "KMMLIOKPIKN",
              "shieldHP": true,
              "renderNames": [
                "Property_Ani_Prop_SpongePlant_01_02_Vo"
              ]
            },
            {
              "$type": "KMMLIOKPIKN",
              "shieldHP": true,
              "renderNames": [
                "Property_Ani_Prop_SpongePlant_01_03_Vo"
              ],
              "setEnable": true
            },
            {
              "$type": "ANLOBBMKNIJ",
              "rotationDampTime": "Eff_SceneObj_Area_Common_Property_Ani_Prop_SpongePlantBase_03",
              "born": {
                "$type": "JHEBKCMEMLN"
              },
              "PPPDJGDDOGD": 1.0,
              "AJDILHJFNKE": -1.0
            },
            {
              "$type": "ANLOBBMKNIJ",
              "rotationDampTime": "Eff_SceneObj_Area_Common_Property_Ani_Prop_SpongePlantBase_05",
              "PPPDJGDDOGD": 1.0,
              "AJDILHJFNKE": -1.0
            }
          ]
        },
        "WaterElement": {
          "modifierName": "",
          "elementType": "Water",
          "IPFJJJGABPL": 25.0
        }
      },
      "onAdded": [
        {
          "$type": "PELJALPANCA",
          "modifierName": "CanPick"
        },
        {
          "$type": "PELJALPANCA",
          "modifierName": "WaterElement"
        },
        {
          "$type": "OPAOGKPJLIG",
          "resistanceListID": 11002
        }
      ]
    }
  },
  {
    "Default": {
      "$type": "CBPBEHLOHKI",
      "abilityName": "SceneObj_Gather_Advance_Ore_Shining",
      "modifiers": {
        "NormalModifier": {
          "modifierName": "",
          "IPFJJJGABPL": 100.0,
          "onAdded": [
            {
              "$type": "ANLOBBMKNIJ",
              "rotationDampTime": "Eff_SceneObj_ShiningSparkle_01",
              "PPPDJGDDOGD": 1.0,
              "AJDILHJFNKE": -1.0
            }
          ]
        }
      },
      "onAdded": [
        {
          "$type": "JLDEMMJAMLC",
          "modifierName": "NormalModifier"
        }
      ]
    }
  },
  {
    "Default": {
      "$type": "CBPBEHLOHKI",
      "abilityName": "SceneObj_Gather_MagicOre_Interact",
      "modifiers": {
        "NormalModifier": {
          "modifierName": "",
          "elementType": "Rock",
          "IPFJJJGABPL": 100.0,
          "modifierMixins": [
            {
              "$type": "BKAAGFNKMLF",
              "showDamageText": ""
            }
          ],
          "state": "Limbo",
          "onRemoved": [
            {
              "$type": "NCFFNDHGCMH"
            }
          ]
        }
      },
      "onAdded": [
        {
          "$type": "JLDEMMJAMLC",
          "modifierName": "NormalModifier"
        }
      ]
    }
  },
  {
    "Default": {
      "$type": "CBPBEHLOHKI",
      "abilityName": "SceneObj_Area_Common_Property_Ani_Prop_OreFountaine_01",
      "modifiers": {
        "NormalModifier": {
          "modifierName": "",
          "elementType": "Rock",
          "IPFJJJGABPL": 100.0,
          "modifierMixins": [
            {
              "$type": "BKAAGFNKMLF",
              "showDamageText": ""
            }
          ],
          "state": "Limbo",
          "onRemoved": [
            {
              "$type": "NCFFNDHGCMH"
            }
          ]
        }
      },
      "onAdded": [
        {
          "$type": "JLDEMMJAMLC",
          "modifierName": "NormalModifier"
        }
      ]
    }
  },
  {
    "Default": {
      "$type": "CBPBEHLOHKI",
      "abilityName": "SceneObj_Area_Common_Property_Ani_Prop_OreFountaine_02",
      "modifiers": {
        "NormalModifier": {
          "modifierName": "",
          "elementType": "Rock",
          "IPFJJJGABPL": 25.0,
          "modifierMixins": [
            {
              "$type": "BKAAGFNKMLF",
              "showDamageText": ""
            }
          ],
          "state": "Limbo",
          "onRemoved": [
            {
              "$type": "NCFFNDHGCMH"
            }
          ]
        }
      },
      "onAdded": [
        {
          "$type": "JLDEMMJAMLC",
          "modifierName": "NormalModifier"
        }
      ]
    }
  },
  {
    "Default": {
      "$type": "CBPBEHLOHKI",
      "abilityName": "SceneObj_Area_Nt_Property_Ani_Prop_OreNatlan_01",
      "modifiers": {
        "NormalModifier": {
          "modifierName": "",
          "elementType": "Rock",
          "IPFJJJGABPL": 100.0,
          "modifierMixins": [
            {
              "$type": "BKAAGFNKMLF",
              "showDamageText": ""
            }
          ],
          "state": "Limbo",
          "onRemoved": [
            {
              "$type": "NCFFNDHGCMH",
              "configIdArray": [
                70540084
              ]
            }
          ]
        }
      },
      "onAdded": [
        {
          "$type": "JLDEMMJAMLC",
          "modifierName": "NormalModifier"
        }
      ]
    }
  },
  {
    "Default": {
      "$type": "CBPBEHLOHKI",
      "abilityName": "SceneObj_Gather_WaterFlower01",
      "abilityMixins": [
        {
          "$type": "EKMHJKDLBJH",
          "stateIDs": [
            "Idle"
          ],
          "modifierName": "HitMonitor",
          "DGFCLAIDIFI": ""
        }
      ],
      "modifiers": {
        "ElementWater": {
          "modifierName": "",
          "elementType": "Water",
          "IPFJJJGABPL": 10.0,
          "onAdded": [
            {
              "$type": "ANLOBBMKNIJ",
              "rotationDampTime": "Eff_SceneObj_IceFlower_01_Idle",
              "PPPDJGDDOGD": 1.0,
              "AJDILHJFNKE": -1.0
            },
            {
              "$type": "ANLOBBMKNIJ",
              "rotationDampTime": "Eff_SceneObj_IceFlower_01_Base",
              "PPPDJGDDOGD": 1.0,
              "AJDILHJFNKE": -1.0
            }
          ],
          "onRemoved": [
            {
              "$type": "KFCDMIMBBLD",
              "born": {
                "$type": "JHEBKCMEMLN",
                "offset": {
                  "KGEPIMHBMOL": 0.0,
                  "JEBHCGDPFEJ": 0.0,
                  "LPCHALMFFOD": 0.0
                }
              },
              "gadgetID": 70270002,
              "campID": 1001,
              "campTargetType": "All"
            },
            {
              "$type": "KBFEIHEAMBM",
              "rotationDampTime": "Eff_SceneObj_Amber_Water_Hit",
              "born": {
                "$type": "JHEBKCMEMLN",
                "offset": {
                  "KGEPIMHBMOL": 0.0,
                  "JEBHCGDPFEJ": 0.30000001192092896,
                  "LPCHALMFFOD": 0.0
                }
              },
              "PPPDJGDDOGD": 1.0,
              "AJDILHJFNKE": -1.0
            },
            {
              "$type": "BLCCGIPAOIP",
              "PLLJBINMGJK": "FireAttack"
            },
            {
              "$type": "PELJALPANCA",
              "modifierName": "Delay"
            }
          ]
        },
        "Delay": {
          "modifierName": "",
          "elementDurability": 5.0,
          "IPFJJJGABPL": 100.0,
          "onAdded": [
            {
              "$type": "ANLOBBMKNIJ",
              "rotationDampTime": "Eff_SceneObj_ElectricRock_01_Base",
              "PPPDJGDDOGD": 1.0,
              "AJDILHJFNKE": -1.0
            }
          ],
          "onRemoved": [
            {
              "$type": "PELJALPANCA",
              "modifierName": "ElementWater"
            }
          ],
          "onBeingHit": [
            {
              "$type": "PFKNEFGOHIH",
              "predicates": [
                {
                  "$type": "PNLEEOAGKLD",
                  "element": "Water"
                }
              ],
              "modifierName": "Delay"
            }
          ]
        },
        "HitMonitor": {
          "modifierName": "",
          "IPFJJJGABPL": 100.0,
          "onBeingHit": [
            {
              "$type": "BLCCGIPAOIP",
              "PLLJBINMGJK": "NormalAttack"
            }
          ]
        }
      },
      "onAdded": [
        {
          "$type": "PELJALPANCA",
          "modifierName": "ElementWater"
        }
      ]
    }
  },
  {
    "Default": {
      "$type": "CBPBEHLOHKI",
      "abilityName": "SceneObj_Gather_Dandelion",
      "modifiers": {
        "Dandelion": {
          "modifierName": "",
          "IPFJJJGABPL": 100.0,
          "onAdded": [
            {
              "$type": "ANLOBBMKNIJ",
              "rotationDampTime": "Eff_DandelionBundle01",
              "PPPDJGDDOGD": 1.0,
              "AJDILHJFNKE": -1.0
            },
            {
              "$type": "LCOEFEMOHLP",
              "param3": 1.0,
              "key": "_DANDELION_ALIVE",
              "useLimitRange": true,
              "param2": 1.0,
              "repeatTimes": 0.0
            }
          ],
          "onRemoved": [
            {
              "$type": "BLCCGIPAOIP",
              "PLLJBINMGJK": "WindHit"
            },
            {
              "$type": "LCOEFEMOHLP",
              "param3": -1.0,
              "key": "_DANDELION_ALIVE",
              "useLimitRange": true,
              "param2": 1.0,
              "repeatTimes": 0.0
            },
            {
              "$type": "LBINHEFBJMN"
            }
          ],
          "onBeingHit": [
            {
              "$type": "INBCDALOHMP",
              "target": "Target",
              "targetPredicates": [
                {
                  "$type": "NIMAPECDNKD",
                  "entityTypes": [
                    "Avatar"
                  ]
                }
              ],
              "successActions": [
                {
                  "$type": "ENBLCDCKLMK",
                  "target": "Target",
                  "key": "_ABILITY_DANDELION_HIT",
                  "born": {
                    "$type": "IAENDIPDFKD",
                    "direction": {
                      "$type": "PIKKPLPCLKE",
                      "angleOffset": {
                        "KGEPIMHBMOL": 0.0,
                        "JEBHCGDPFEJ": 180.0,
                        "LPCHALMFFOD": 0.0
                      },
                      "namedTransform": ""
                    }
                  },
                  "setTarget": false
                }
              ],
              "failActions": [
                {
                  "$type": "ENBLCDCKLMK",
                  "target": "TargetOriginOwner",
                  "key": "_ABILITY_DANDELION_HIT",
                  "born": {
                    "$type": "DHDAAHGFPHK",
                    "direction": {
                      "$type": "OANIBLLHFGH",
                      "angleOffset": {
                        "KGEPIMHBMOL": 0.0,
                        "JEBHCGDPFEJ": 180.0,
                        "LPCHALMFFOD": 0.0
                      }
                    }
                  },
                  "setTarget": false
                }
              ]
            },
            {
              "$type": "CAKDDHLKOAB",
              "predicates": [
                {
                  "$type": "PNLEEOAGKLD",
                  "element": "Wind"
                }
              ],
              "bulletID": 70510010,
              "born": {
                "$type": "KLPANPDGHHA",
                "direction": {
                  "$type": "NNPJOCIHKBI",
                  "directionKey": "_ABILITY_DANDELION_HIT"
                },
                "attachPointName": "flyPoint1"
              }
            },
            {
              "$type": "CAKDDHLKOAB",
              "predicates": [
                {
                  "$type": "PNLEEOAGKLD",
                  "element": "Wind"
                }
              ],
              "bulletID": 70510010,
              "born": {
                "$type": "KLPANPDGHHA",
                "direction": {
                  "$type": "NNPJOCIHKBI",
                  "directionKey": "_ABILITY_DANDELION_HIT"
                },
                "attachPointName": "flyPoint2"
              }
            },
            {
              "$type": "CAKDDHLKOAB",
              "predicates": [
                {
                  "$type": "PNLEEOAGKLD",
                  "element": "Wind"
                }
              ],
              "bulletID": 70510010,
              "born": {
                "$type": "KLPANPDGHHA",
                "direction": {
                  "$type": "NNPJOCIHKBI",
                  "directionKey": "_ABILITY_DANDELION_HIT"
                },
                "attachPointName": "flyPoint3"
              }
            },
            {
              "$type": "PFKNEFGOHIH",
              "predicates": [
                {
                  "$type": "PNLEEOAGKLD",
                  "element": "Wind"
                }
              ],
              "modifierName": "Dandelion"
            }
          ]
        },
        "HitMonitor": {
          "modifierName": "",
          "IPFJJJGABPL": 100.0,
          "onBeingHit": [
            {
              "$type": "BLCCGIPAOIP",
              "predicates": [
                {
                  "$type": "BCFNGJHILAG",
                  "predicates": [
                    {
                      "$type": "PNLEEOAGKLD",
                      "element": "Wind"
                    }
                  ]
                },
                {
                  "$type": "BCFNGJHILAG",
                  "predicates": [
                    {
                      "$type": "NNEHDJHMING",
                      "attackTags": [
                        "BurningDamage"
                      ]
                    }
                  ]
                }
              ],
              "PLLJBINMGJK": "Hit"
            }
          ]
        },
        "Ani_Control": {
          "modifierName": "",
          "IPFJJJGABPL": 100.0,
          "onAdded": [
            {
              "$type": "AKEEDILMOJF",
              "predicates": [
                {
                  "$type": "CNGGLKHONAA",
                  "key": "_DANDELION_ALIVE",
                  "param3": 0.0,
                  "compareType": "NoneOrEqual"
                }
              ],
              "intID": "gadgetState",
              "param3": 901.0
            },
            {
              "$type": "AKEEDILMOJF",
              "predicates": [
                {
                  "$type": "CNGGLKHONAA",
                  "key": "_DANDELION_ALIVE",
                  "param3": 1.0
                }
              ],
              "intID": "gadgetState",
              "param3": 0.0
            }
          ]
        }
      },
      "onAdded": [
        {
          "$type": "PELJALPANCA",
          "modifierName": "Dandelion"
        },
        {
          "$type": "PELJALPANCA",
          "modifierName": "HitMonitor"
        },
        {
          "$type": "PELJALPANCA",
          "modifierName": "Ani_Control"
        }
      ]
    }
  },
  {
    "Default": {
      "$type": "CBPBEHLOHKI",
      "abilityName": "SceneObj_Gather_Gather_Clue",
      "modifiers": {
        "Born": {
          "modifierName": "",
          "elementDurability": 0.5,
          "IPFJJJGABPL": 100.0,
          "onRemoved": [
            {
              "$type": "PELJALPANCA",
              "modifierName": "Active"
            }
          ]
        },
        "Active": {
          "modifierName": "",
          "IPFJJJGABPL": 100.0,
          "onAdded": [
            {
              "$type": "LBINHEFBJMN"
            }
          ]
        }
      },
      "onAdded": [
        {
          "$type": "PELJALPANCA",
          "modifierName": "Born"
        }
      ]
    }
  },
  {
    "Default": {
      "$type": "CBPBEHLOHKI",
      "abilityName": "SceneObj_Gather_NataCrystal_Fly_Gather",
      "onAdded": [
        {
          "$type": "KBFEIHEAMBM",
          "rotationDampTime": "Eff_SceneObj_NataCrystal_Disappear",
          "PPPDJGDDOGD": 1.0,
          "AJDILHJFNKE": -1.0
        }
      ]
    }
  },
  {
    "Default": {
      "$type": "CBPBEHLOHKI",
      "abilityName": "SceneObj_Gather_RockCrystal_Fly_Gather",
      "onAdded": [
        {
          "$type": "KBFEIHEAMBM",
          "rotationDampTime": "Eff_RockCrystal_Smash",
          "PPPDJGDDOGD": 1.0,
          "AJDILHJFNKE": -1.0
        }
      ]
    }
  },
  {
    "Default": {
      "$type": "CBPBEHLOHKI",
      "abilityName": "SceneObj_Gather_WindCrystal_Fly_Gather",
      "onAdded": [
        {
          "$type": "KBFEIHEAMBM",
          "rotationDampTime": "Eff_WindCrystal_Smash",
          "PPPDJGDDOGD": 1.0,
          "AJDILHJFNKE": -1.0
        }
      ]
    }
  },
  {
    "Default": {
      "$type": "CBPBEHLOHKI",
      "abilityName": "SceneObj_Gather_GrassCrystal_Fly_Gather",
      "onAdded": [
        {
          "$type": "KBFEIHEAMBM",
          "rotationDampTime": "Eff_SceneObj_DendroCrystal_Smash",
          "PPPDJGDDOGD": 1.0,
          "AJDILHJFNKE": -1.0
        }
      ]
    }
  },
  {
    "Default": {
      "$type": "CBPBEHLOHKI",
      "abilityName": "SceneObj_Gather_WaterCrystal_Fly_Gather",
      "onAdded": [
        {
          "$type": "KBFEIHEAMBM",
          "rotationDampTime": "Eff_SceneObj_FontaineCrystal_Smash",
          "PPPDJGDDOGD": 1.0,
          "AJDILHJFNKE": -1.0
        }
      ]
    }
  },
  {
    "Default": {
      "$type": "CBPBEHLOHKI",
      "abilityName": "SceneObj_Gather_Mimosa",
      "modifiers": {
        "Normal": {
          "modifierName": "",
          "IPFJJJGABPL": 100.0
        },
        "Mimosa_Close": {
          "modifierName": "",
          "IPFJJJGABPL": 100.0,
          "thinkInterval": 15.0,
          "onThinkInterval": [
            {
              "$type": "LBINHEFBJMN",
              "param1": 1
            }
          ]
        }
      },
      "onAdded": [
        {
          "$type": "ANLOBBMKNIJ",
          "rotationDampTime": "Eff_FlyRace_Goal_Marker_Ambor",
          "PPPDJGDDOGD": 1.0,
          "AJDILHJFNKE": -1.0
        }
      ],
      "onFieldEnter": [
        {
          "$type": "NCFFNDHGCMH"
        }
      ]
    }
  },
  {
    "Default": {
      "$type": "CBPBEHLOHKI",
      "abilityName": "SceneObj_Gather_FireFlower03",
      "modifiers": {
        "ElementFire": {
          "modifierName": "",
          "elementType": "Fire",
          "IPFJJJGABPL": 50.0,
          "forceTriggerBurning": true,
          "modifierMixins": [
            {
              "$type": "BKAAGFNKMLF",
              "showDamageText": ""
            }
          ],
          "onAdded": [
            {
              "$type": "ANLOBBMKNIJ",
              "rotationDampTime": "Eff_SceneObj_FireFlower_01_Idle",
              "PPPDJGDDOGD": 1.0,
              "AJDILHJFNKE": -1.0
            },
            {
              "$type": "ANLOBBMKNIJ",
              "rotationDampTime": "Eff_SceneObj_Fireflower_01_Base",
              "PPPDJGDDOGD": 1.0,
              "AJDILHJFNKE": -1.0
            }
          ],
          "onRemoved": [
            {
              "$type": "LBINHEFBJMN",
              "predicates": [
                {
                  "$type": "CNGGLKHONAA",
                  "key": "_REACTION_TYPE",
                  "param3": 1.0
                }
              ],
              "param1": 1
            },
            {
              "$type": "LBINHEFBJMN",
              "predicates": [
                {
                  "$type": "CNGGLKHONAA",
                  "key": "_REACTION_TYPE",
                  "param3": 0.0
                }
              ]
            },
            {
              "$type": "PELJALPANCA",
              "modifierName": "Delay"
            },
            {
              "$type": "BLCCGIPAOIP",
              "PLLJBINMGJK": "FireAttack"
            }
          ],
          "onBeingHit": [
            {
              "$type": "LCOEFEMOHLP",
              "predicates": [
                {
                  "$type": "PNLEEOAGKLD",
                  "element": "Water"
                }
              ],
              "param3": 1.0,
              "key": "_REACTION_TYPE",
              "useLimitRange": true,
              "param2": 1.0,
              "repeatTimes": 0.0
            },
            {
              "$type": "LCOEFEMOHLP",
              "predicates": [
                {
                  "$type": "PNLEEOAGKLD",
                  "element": "Ice"
                }
              ],
              "param3": 1.0,
              "key": "_REACTION_TYPE",
              "useLimitRange": true,
              "param2": 1.0,
              "repeatTimes": 0.0
            },
            {
              "$type": "LCOEFEMOHLP",
              "predicates": [
                {
                  "$type": "PNLEEOAGKLD",
                  "element": "Wind"
                }
              ],
              "param3": 0.0,
              "key": "_REACTION_TYPE",
              "useLimitRange": true,
              "param2": 0.0,
              "repeatTimes": 0.0
            }
          ]
        },
        "Delay": {
          "modifierName": "",
          "elementDurability": 0.5,
          "IPFJJJGABPL": 100.0,
          "onRemoved": [
            {
              "$type": "ANLOBBMKNIJ",
              "rotationDampTime": "Eff_SceneObj_FireFlower_01_Hit",
              "PPPDJGDDOGD": 1.0,
              "AJDILHJFNKE": -1.0
            }
          ]
        },
        "HitMonitor": {
          "modifierName": "",
          "IPFJJJGABPL": 100.0,
          "onBeingHit": [
            {
              "$type": "BLCCGIPAOIP",
              "PLLJBINMGJK": "NormalAttack"
            }
          ]
        },
        "Ani_Control": {
          "modifierName": "",
          "IPFJJJGABPL": 100.0,
          "onAdded": [
            {
              "$type": "AKEEDILMOJF",
              "predicates": [
                {
                  "$type": "BCFNGJHILAG",
                  "predicates": [
                    {
                      "$type": "NFJHABGCNHE",
                      "element": "Fire"
                    }
                  ]
                }
              ],
              "intID": "gadgetState",
              "param3": 901.0
            },
            {
              "$type": "AKEEDILMOJF",
              "predicates": [
                {
                  "$type": "NFJHABGCNHE",
                  "element": "Fire"
                }
              ],
              "intID": "gadgetState",
              "param3": 0.0
            }
          ]
        }
      },
      "onAdded": [
        {
          "$type": "PELJALPANCA",
          "modifierName": "ElementFire"
        },
        {
          "$type": "PELJALPANCA",
          "modifierName": "HitMonitor"
        },
        {
          "$type": "PELJALPANCA",
          "modifierName": "Ani_Control"
        },
        {
          "$type": "LCOEFEMOHLP",
          "param3": 0.0,
          "key": "_REACTION_TYPE",
          "useLimitRange": true,
          "param2": 1.0,
          "repeatTimes": 0.0
        },
        {
          "$type": "LCOEFEMOHLP",
          "param3": 1.0,
          "key": "_ABILITY_BURNING_IGNITE_ONLY",
          "useLimitRange": true,
          "param2": 1.0,
          "repeatTimes": 1.0
        }
      ]
    }
  },
  {
    "Default": {
      "$type": "CBPBEHLOHKI",
      "abilityName": "SceneObj_Gather_ElectricRock03",
      "modifiers": {
        "ElementElectric": {
          "modifierName": "",
          "elementType": "Electric",
          "IPFJJJGABPL": 50.0,
          "thinkInterval": 0.5,
          "modifierMixins": [
            {
              "$type": "BKAAGFNKMLF",
              "showDamageText": ""
            }
          ],
          "onAdded": [
            {
              "$type": "ANLOBBMKNIJ",
              "rotationDampTime": "Eff_SceneObj_ElectricRock_01_Base",
              "PPPDJGDDOGD": 1.0,
              "AJDILHJFNKE": -1.0
            }
          ],
          "onRemoved": [
            {
              "$type": "MFKEIKOOFJP",
              "predicates": [
                {
                  "$type": "CNGGLKHONAA",
                  "key": "_REACTION_TYPE",
                  "param3": 1.0
                }
              ],
              "subfieldName": "ElectricRock_Destroy"
            },
            {
              "$type": "NCFFNDHGCMH",
              "predicates": [
                {
                  "$type": "CNGGLKHONAA",
                  "key": "_REACTION_TYPE",
                  "param3": 1.0
                }
              ]
            },
            {
              "$type": "LBINHEFBJMN",
              "predicates": [
                {
                  "$type": "CNGGLKHONAA",
                  "key": "_REACTION_TYPE",
                  "param3": 0.0
                }
              ]
            }
          ],
          "onBeingHit": [
            {
              "$type": "LCOEFEMOHLP",
              "predicates": [
                {
                  "$type": "PNLEEOAGKLD",
                  "element": "Fire"
                }
              ],
              "param3": 1.0,
              "key": "_REACTION_TYPE",
              "useLimitRange": true,
              "param2": 1.0,
              "repeatTimes": 1.0
            },
            {
              "$type": "LCOEFEMOHLP",
              "predicates": [
                {
                  "$type": "BCFNGJHILAG",
                  "predicates": [
                    {
                      "$type": "PNLEEOAGKLD",
                      "element": "Fire"
                    }
                  ]
                }
              ],
              "param3": 0.0,
              "key": "_REACTION_TYPE",
              "useLimitRange": true,
              "param2": 0.0,
              "repeatTimes": 0.0
            }
          ],
          "onThinkInterval": [
            {
              "$type": "AIFPLABJNMA",
              "attackEvent": {
                "attackPattern": {
                  "$type": "GMDIMKKHACA",
                  "triggerType": "TriggerNoRepeat",
                  "born": {
                    "$type": "IAENDIPDFKD",
                    "offset": {
                      "KGEPIMHBMOL": 0.0,
                      "JEBHCGDPFEJ": 0.0,
                      "LPCHALMFFOD": 0.0
                    }
                  },
                  "OAHPDLJIADP": 1.5
                },
                "attackInfo": {
                  "attackTag": "",
                  "attenuationTag": "",
                  "attenuationGroup": "default",
                  "attackProperty": {
                    "actorGrassSubHurtDelta": 0.5,
                    "actorWindSubHurtDelta": 0.0,
                    "elementType": "Electric",
                    "IPFJJJGABPL": 30.0,
                    "strikeType": "Default",
                    "GLKMCMDJBIK": 0.0
                  },
                  "hitPattern": {
                    "onHitEffectName": "default",
                    "hitImpulseY": "",
                    "hitImpulseType": "LV0",
                    "hitHaltTimeScale": 0.05000000074505806
                  }
                }
              },
              "targetType": "All"
            }
          ]
        }
      },
      "onAdded": [
        {
          "$type": "JLDEMMJAMLC",
          "modifierName": "ElementElectric"
        },
        {
          "$type": "LCOEFEMOHLP",
          "param3": -5.0,
          "key": "_REACTION_TYPE",
          "useLimitRange": true,
          "param2": 1.0,
          "repeatTimes": 0.0
        },
        {
          "$type": "OPAOGKPJLIG",
          "resistanceListID": 14004
        }
      ]
    }
  },
  {
    "Default": {
      "$type": "CBPBEHLOHKI",
      "abilityName": "SceneObj_Gather_ElementRock_Broken_Eff",
      "onAbilityStart": [
        {
          "$type": "KBFEIHEAMBM",
          "rotationDampTime": "Eff_SceneObj_ElementRock_01_Break",
          "born": {
            "$type": "KLPANPDGHHA",
            "offset": {
              "KGEPIMHBMOL": 0.0,
              "JEBHCGDPFEJ": 0.0,
              "LPCHALMFFOD": 0.0
            },
            "attachPointName": "hiteffPoint"
          },
          "PPPDJGDDOGD": 1.0,
          "AJDILHJFNKE": -1.0
        }
      ]
    }
  },
  {
    "Default": {
      "$type": "CBPBEHLOHKI",
      "abilityName": "SceneObj_Gather_ElementRock_Gather_Eff",
      "modifiers": {
        "CoreEff": {
          "modifierName": "",
          "IPFJJJGABPL": 100.0,
          "onAdded": [
            {
              "$type": "ANLOBBMKNIJ",
              "rotationDampTime": "Eff_SceneObj_ElementRock_01_Open",
              "born": {
                "$type": "KLPANPDGHHA",
                "offset": {
                  "KGEPIMHBMOL": 0.0,
                  "JEBHCGDPFEJ": 0.0,
                  "LPCHALMFFOD": 0.0
                },
                "attachPointName": "corePoint"
              },
              "PPPDJGDDOGD": 1.0,
              "AJDILHJFNKE": -1.0
            }
          ]
        }
      },
      "onAbilityStart": [
        {
          "$type": "PELJALPANCA",
          "modifierName": "CoreEff"
        }
      ]
    }
  },
  {
    "Default": {
      "$type": "CBPBEHLOHKI",
      "abilityName": "SceneObj_Gather_ElementRock",
      "modifiers": {
        "Controller": {
          "modifierName": "",
          "elementType": "Rock",
          "IPFJJJGABPL": 100.0,
          "modifierMixins": [
            {
              "$type": "CGGHGFIOCKN",
              "valueSteps": [
                0.5,
                50.0,
                100.5
              ],
              "modifierNameSteps": [
                "ElmentRockPhase2",
                "ElmentRockPhase1"
              ]
            },
            {
              "$type": "BKAAGFNKMLF",
              "showDamageText": ""
            }
          ],
          "onRemoved": [
            {
              "$type": "PELJALPANCA",
              "modifierName": "ElmentRockPhase3"
            }
          ]
        },
        "ElmentRockPhase1": {
          "modifierName": "",
          "IPFJJJGABPL": 100.0,
          "onAdded": [
            {
              "$type": "LBINHEFBJMN"
            }
          ]
        },
        "ElmentRockPhase2": {
          "modifierName": "",
          "IPFJJJGABPL": 100.0,
          "onAdded": [
            {
              "$type": "LBINHEFBJMN",
              "param1": 201
            },
            {
              "$type": "ANLOBBMKNIJ",
              "rotationDampTime": "Eff_SceneObj_ElementRock_01_Break_Pre",
              "PPPDJGDDOGD": 1.0,
              "AJDILHJFNKE": -1.0
            }
          ]
        },
        "ElmentRockPhase3": {
          "modifierName": "",
          "IPFJJJGABPL": 100.0,
          "onAdded": [
            {
              "$type": "LBINHEFBJMN",
              "param1": 203
            },
            {
              "$type": "LBINHEFBJMN",
              "param1": 1
            }
          ]
        }
      },
      "onAdded": [
        {
          "$type": "PELJALPANCA",
          "modifierName": "Controller"
        }
      ]
    }
  },
  {
    "Default": {
      "$type": "CBPBEHLOHKI",
      "abilityName": "SceneObj_Gather_Ginseng",
      "onAbilityStart": [
        {
          "$type": "KBFEIHEAMBM",
          "rotationDampTime": "Eff_Gear_Platform_WindSlime",
          "PPPDJGDDOGD": 1.0,
          "AJDILHJFNKE": -1.0
        },
        {
          "$type": "AIFPLABJNMA",
          "attackEvent": {
            "attackPattern": {
              "$type": "BELNOFAKNBA",
              "triggerType": "TriggerNoRepeat",
              "born": {
                "$type": "IAENDIPDFKD",
                "offset": {
                  "KGEPIMHBMOL": 0.0,
                  "JEBHCGDPFEJ": 0.0,
                  "LPCHALMFFOD": 0.0
                }
              },
              "OAHPDLJIADP": 1.7999999523162842
            },
            "attackInfo": {
              "attackTag": "GinsengBullet",
              "attenuationTag": "",
              "attenuationGroup": "default",
              "attackProperty": {
                "actorGrassSubHurtDelta": 1.0,
                "actorWindSubHurtDelta": 0.0,
                "elementType": "Electric",
                "IPFJJJGABPL": 0.0,
                "strikeType": "Default",
                "enBreak": 300.0,
                "GLKMCMDJBIK": 0.0
              },
              "hitPattern": {
                "onHitEffectName": "default",
                "hitImpulseY": "",
                "hitImpulseType": "LV2",
                "overrideHitImpulse": {
                  "hitLevel": "Light",
                  "IMIJMPGJOGG": 300.0,
                  "BPCDKKBKOBM": 0.0
                },
                "hitHaltTimeScale": 0.05000000074505806
              }
            }
          },
          "targetType": "All"
        }
      ]
    }
  },
  {
    "Default": {
      "$type": "CBPBEHLOHKI",
      "abilityName": "SceneObj_Gather_Ginseng_Stable",
      "abilityMixins": [
        {
          "$type": "BPKALFNJLIG",
          "gadgetState": 201,
          "modifierName": "Drop_Ginseng"
        }
      ],
      "modifiers": {
        "Normal": {
          "modifierName": "",
          "IPFJJJGABPL": 100.0,
          "onBeingHit": [
            {
              "$type": "LBINHEFBJMN"
            }
          ]
        },
        "Drop_Ginseng": {
          "modifierName": "",
          "IPFJJJGABPL": 100.0,
          "onAdded": [
            {
              "$type": "NCFFNDHGCMH"
            }
          ]
        }
      },
      "onAdded": [
        {
          "$type": "PELJALPANCA",
          "modifierName": "Normal"
        }
      ]
    }
  },
  {
    "Default": {
      "$type": "CBPBEHLOHKI",
      "abilityName": "SceneObj_Gather_Ginseng_Ground",
      "modifiers": {
        "Normal": {
          "modifierName": "",
          "IPFJJJGABPL": 100.0
        }
      },
      "onAdded": [
        {
          "$type": "PELJALPANCA",
          "modifierName": "Normal"
        }
      ]
    }
  },
  {
    "Default": {
      "$type": "CBPBEHLOHKI",
      "abilityName": "SceneObj_Gather_GlazedLily",
      "abilityMixins": [
        {
          "$type": "FOLGIFFIGMM",
          "modifierName": "LilyDay"
        },
        {
          "$type": "FOLGIFFIGMM",
          "OKLNNNNGBIA": "Night",
          "modifierName": "LilyNight"
        }
      ],
      "modifiers": {
        "LilyDay": {
          "modifierName": "",
          "IPFJJJGABPL": 100.0,
          "onAdded": [
            {
              "$type": "LBINHEFBJMN",
              "param1": 201
            }
          ]
        },
        "LilyNight": {
          "modifierName": "",
          "IPFJJJGABPL": 100.0,
          "onAdded": [
            {
              "$type": "LBINHEFBJMN"
            }
          ]
        }
      }
    }
  },
  {
    "Default": {
      "$type": "CBPBEHLOHKI",
      "abilityName": "SceneObj_Gather_ImitationGrass",
      "abilityMixins": [
        {
          "$type": "BPKALFNJLIG",
          "modifierName": "Normal"
        },
        {
          "$type": "BPKALFNJLIG",
          "gadgetState": 102,
          "modifierName": "ImitationGrass_Disappear"
        }
      ],
      "modifiers": {
        "Normal": {
          "modifierName": "",
          "IPFJJJGABPL": 100.0,
          "onAdded": [
            {
              "$type": "AKEEDILMOJF",
              "intID": "gadgetState",
              "param3": 0.0
            },
            {
              "$type": "AKEEDILMOJF",
              "intID": "ApplyDelay",
              "param3": 1.0
            }
          ]
        },
        "ImitationGrass_Disappear": {
          "modifierName": "",
          "IPFJJJGABPL": 100.0,
          "onAdded": [
            {
              "$type": "AKEEDILMOJF",
              "intID": "ApplyDelay",
              "param3": 1.0
            },
            {
              "$type": "LBINHEFBJMN"
            }
          ]
        }
      }
    }
  },
  {
    "Default": {
      "$type": "CBPBEHLOHKI",
      "abilityName": "SceneObj_Gather_ImitationMonster",
      "abilityMixins": [
        {
          "$type": "BPKALFNJLIG",
          "gadgetState": 201,
          "modifierName": "ImitationGrass_Disappear"
        }
      ],
      "modifiers": {
        "ImitationGrass_Disappear": {
          "modifierName": "",
          "IPFJJJGABPL": 100.0
        }
      }
    }
  },
  {
    "Default": {
      "$type": "CBPBEHLOHKI",
      "abilityName": "SceneObj_Gather_GamblingRock_Broken_Eff",
      "onAbilityStart": [
        {
          "$type": "KBFEIHEAMBM",
          "rotationDampTime": "Eff_SceneObj_GambingRock_Destory",
          "born": {
            "$type": "KLPANPDGHHA",
            "offset": {
              "KGEPIMHBMOL": 0.0,
              "JEBHCGDPFEJ": 0.0,
              "LPCHALMFFOD": 0.0
            },
            "attachPointName": "hiteffPoint"
          },
          "PPPDJGDDOGD": 1.0,
          "AJDILHJFNKE": -1.0
        }
      ]
    }
  },
  {
    "Default": {
      "$type": "CBPBEHLOHKI",
      "abilityName": "SceneObj_Gather_GamblingRock_Gather_Eff",
      "modifiers": {
        "CoreEff": {
          "modifierName": "",
          "IPFJJJGABPL": 100.0,
          "onAdded": [
            {
              "$type": "ANLOBBMKNIJ",
              "rotationDampTime": "Eff_SceneObj_GambingRock_Halo",
              "born": {
                "$type": "KLPANPDGHHA",
                "offset": {
                  "KGEPIMHBMOL": 0.0,
                  "JEBHCGDPFEJ": 0.0,
                  "LPCHALMFFOD": 0.0
                },
                "attachPointName": "hiteffPoint"
              },
              "PPPDJGDDOGD": 1.0,
              "AJDILHJFNKE": -1.0
            },
            {
              "$type": "ANLOBBMKNIJ",
              "rotationDampTime": "Eff_SceneObj_GambingRock_Destory",
              "born": {
                "$type": "KLPANPDGHHA",
                "offset": {
                  "KGEPIMHBMOL": 0.0,
                  "JEBHCGDPFEJ": 0.0,
                  "LPCHALMFFOD": 0.0
                },
                "attachPointName": "hiteffPoint"
              },
              "PPPDJGDDOGD": 1.0,
              "AJDILHJFNKE": -1.0
            }
          ]
        }
      },
      "onAbilityStart": [
        {
          "$type": "PELJALPANCA",
          "modifierName": "CoreEff"
        }
      ]
    }
  },
  {
    "Default": {
      "$type": "CBPBEHLOHKI",
      "abilityName": "SceneObj_Gather_GamblingRock",
      "abilityMixins": [
        {
          "$type": "BPKALFNJLIG",
          "gadgetState": 204,
          "modifierName": "Controller"
        }
      ],
      "modifiers": {
        "Controller": {
          "modifierName": "",
          "elementDurability": 1.0,
          "IPFJJJGABPL": 100.0,
          "onRemoved": [
            {
              "$type": "PELJALPANCA",
              "modifierName": "SetAniPhase1"
            }
          ]
        },
        "SetAniPhase1": {
          "modifierName": "",
          "elementDurability": 0.20000000298023224,
          "IPFJJJGABPL": 100.0,
          "onAdded": [
            {
              "$type": "AKEEDILMOJF",
              "intID": "Phase",
              "param3": 2.0
            }
          ]
        }
      },
      "onAdded": [
        {
          "$type": "KBFEIHEAMBM",
          "rotationDampTime": "Eff_SceneObj_Common_AppearMask_02",
          "PPPDJGDDOGD": 1.0,
          "AJDILHJFNKE": -1.0
        }
      ]
    }
  },
  {
    "Default": {
      "$type": "CBPBEHLOHKI",
      "abilityName": "SceneObj_Chest_Wendy_Sword",
      "abilityMixins": [
        {
          "$type": "BPKALFNJLIG",
          "modifierName": "Default"
        },
        {
          "$type": "BPKALFNJLIG",
          "gadgetState": 201,
          "modifierName": "EffectActivation"
        }
      ],
      "modifiers": {
        "Default": {
          "modifierName": "",
          "IPFJJJGABPL": 100.0,
          "onAdded": [
            {
              "$type": "ANLOBBMKNIJ",
              "rotationDampTime": "Eff_Item_SpecialTreasureBox_LockIdle_Little",
              "born": {
                "$type": "KLPANPDGHHA",
                "attachPointName": "AttachPoint"
              },
              "PPPDJGDDOGD": 1.0,
              "AJDILHJFNKE": -1.0
            }
          ]
        },
        "EffectActivation": {
          "modifierName": "",
          "IPFJJJGABPL": 100.0,
          "onAdded": [
            {
              "$type": "ANLOBBMKNIJ",
              "rotationDampTime": "Eff_Item_SpecialTreasureBox_Unlock_Little",
              "born": {
                "$type": "KLPANPDGHHA",
                "attachPointName": "AttachPoint"
              },
              "PPPDJGDDOGD": 1.0,
              "AJDILHJFNKE": -1.0
            }
          ]
        }
      }
    }
  },
  {
    "Default": {
      "$type": "CBPBEHLOHKI",
      "abilityName": "SceneObj_Quest_Wind_Leaves01",
      "onAdded": [
        {
          "$type": "ANLOBBMKNIJ",
          "rotationDampTime": "Eff_SceneObj_Item_Wind_Leaves_01",
          "PPPDJGDDOGD": 1.0,
          "AJDILHJFNKE": -1.0
        }
      ]
    }
  },
  {
    "Default": {
      "$type": "CBPBEHLOHKI",
      "abilityName": "SceneObj_Area_Ljxs_Property_Prop_DropDulinsBlood_01",
      "abilityMixins": [
        {
          "$type": "BPKALFNJLIG",
          "modifierName": "Normal"
        }
      ],
      "modifiers": {
        "Normal": {
          "modifierName": "",
          "elementDurability": 10.0,
          "elementType": "Fire",
          "IPFJJJGABPL": 10.0,
          "onAdded": [
            {
              "$type": "ANLOBBMKNIJ",
              "rotationDampTime": "Eff_SceneObj_DropDulinsBlood_03",
              "PPPDJGDDOGD": 1.0,
              "AJDILHJFNKE": -1.0
            }
          ],
          "onRemoved": [
            {
              "$type": "NCFFNDHGCMH"
            }
          ]
        }
      }
    }
  },
  {
    "Default": {
      "$type": "CBPBEHLOHKI",
      "abilityName": "SceneObj_Gather_ElectricCrystal_Fly_Gather",
      "onAdded": [
        {
          "$type": "KBFEIHEAMBM",
          "rotationDampTime": "Eff_SceneObj_ElectricCrystal_Smash",
          "PPPDJGDDOGD": 1.0,
          "AJDILHJFNKE": -1.0
        }
      ]
    }
  },
  {
    "Default": {
      "$type": "CBPBEHLOHKI",
      "abilityName": "SceneObj_Area_Common_Property_Prop_Cherrypetals_01",
      "modifiers": {
        "ReceiveElectric": {
          "modifierName": "",
          "IPFJJJGABPL": 100.0,
          "thinkInterval": 0.20000000298023224,
          "onBeingHit": [
            {
              "$type": "JLDEMMJAMLC",
              "predicates": [
                {
                  "$type": "PNLEEOAGKLD",
                  "element": "Electric"
                }
              ],
              "modifierName": "Contract"
            }
          ],
          "onThinkInterval": [
            {
              "$type": "INBCDALOHMP",
              "otherTargets": {
                "$type": "IJOFJOGLDHE",
                "shapeName": "CircleR1.5",
                "campTargetType": "Enemy",
                "doOffStage": 1.0
              },
              "targetPredicates": [
                {
                  "$type": "NIMAPECDNKD",
                  "entityTypes": [
                    "Avatar"
                  ]
                }
              ],
              "successActions": [
                {
                  "$type": "INBCDALOHMP",
                  "target": "Target",
                  "targetPredicates": [
                    {
                      "$type": "HHHMNCNPBDK",
                      "predicates": [
                        {
                          "$type": "NFJHABGCNHE",
                          "element": "Electric"
                        },
                        {
                          "$type": "CNGGLKHONAA",
                          "key": "HAS_ELECTRIC_FAIRY_BUFF",
                          "param3": 1.0
                        }
                      ]
                    }
                  ],
                  "successActions": [
                    {
                      "$type": "JLDEMMJAMLC",
                      "modifierName": "Contract"
                    }
                  ],
                  "failActions": [
                    {
                      "$type": "PELJALPANCA",
                      "predicates": [
                        {
                          "$type": "CNGGLKHONAA",
                          "target": "Self",
                          "key": "canSpread",
                          "param3": 1.0
                        }
                      ],
                      "modifierName": "Spread"
                    }
                  ]
                }
              ]
            }
          ]
        },
        "Normal": {
          "modifierName": "",
          "IPFJJJGABPL": 100.0,
          "onAdded": [
            {
              "$type": "BOBCOJHOKKD",
              "param3": 1.0,
              "key": "canSpread",
              "param2": 0.0,
              "repeatTimes": 0.0
            },
            {
              "$type": "ANLOBBMKNIJ",
              "rotationDampTime": "Eff_SceneObj_Cherrypetals_01",
              "born": {
                "$type": "KLPANPDGHHA",
                "attachPointName": "AttachPoint"
              },
              "PPPDJGDDOGD": 1.0,
              "AJDILHJFNKE": -1.0
            },
            {
              "$type": "PELJALPANCA",
              "modifierName": "ReceiveElectric"
            }
          ]
        },
        "Spread": {
          "modifierName": "",
          "IPFJJJGABPL": 100.0,
          "onAdded": [
            {
              "$type": "BOBCOJHOKKD",
              "param3": 0.0,
              "key": "canSpread",
              "param2": 0.0,
              "repeatTimes": 0.0
            },
            {
              "$type": "ANLOBBMKNIJ",
              "rotationDampTime": "Eff_SceneObj_Cherrypetals_01_Spread",
              "born": {
                "$type": "KLPANPDGHHA",
                "attachPointName": "AttachPoint"
              },
              "PPPDJGDDOGD": 1.0,
              "AJDILHJFNKE": -1.0
            },
            {
              "$type": "PFKNEFGOHIH",
              "modifierName": "Normal"
            },
            {
              "$type": "PELJALPANCA",
              "modifierName": "ReceiveElectric"
            }
          ]
        },
        "Contract": {
          "modifierName": "",
          "IPFJJJGABPL": 100.0,
          "onAdded": [
            {
              "$type": "BOBCOJHOKKD",
              "param3": 0.0,
              "key": "canSpread",
              "param2": 0.0,
              "repeatTimes": 0.0
            },
            {
              "$type": "ANLOBBMKNIJ",
              "rotationDampTime": "Eff_SceneObj_Cherrypetals_01_Contract",
              "born": {
                "$type": "KLPANPDGHHA",
                "attachPointName": "AttachPoint"
              },
              "PPPDJGDDOGD": 1.0,
              "AJDILHJFNKE": -1.0
            },
            {
              "$type": "ANLOBBMKNIJ",
              "rotationDampTime": "Eff_SceneObj_Hint_01_Big",
              "born": {
                "$type": "KLPANPDGHHA",
                "attachPointName": "AttachPoint"
              },
              "PPPDJGDDOGD": 1.0,
              "AJDILHJFNKE": -1.0
            },
            {
              "$type": "PFKNEFGOHIH",
              "modifierName": "Spread"
            },
            {
              "$type": "LBINHEFBJMN"
            }
          ]
        }
      },
      "onAdded": [
        {
          "$type": "JLDEMMJAMLC",
          "modifierName": "Normal"
        }
      ]
    }
  },
  {
    "Default": {
      "$type": "CBPBEHLOHKI",
      "abilityName": "SceneObj_Gather_PrimevalDroplet",
      "modifiers": {
        "DropletEffect": {
          "modifierName": "",
          "elementType": "Water",
          "IPFJJJGABPL": 25.0,
          "isElementDurabilityMutable": false,
          "onAdded": [
            {
              "$type": "ANLOBBMKNIJ",
              "rotationDampTime": "Eff_SceneObj_Hint_01_Big_UW",
              "PPPDJGDDOGD": 1.0,
              "AJDILHJFNKE": -1.0
            },
            {
              "$type": "ANLOBBMKNIJ",
              "rotationDampTime": "Eff_ScenObj_PrimevalDroplet_01",
              "PPPDJGDDOGD": 1.0,
              "AJDILHJFNKE": -1.0
            }
          ]
        }
      },
      "onAdded": [
        {
          "$type": "JLDEMMJAMLC",
          "modifierName": "DropletEffect"
        }
      ]
    }
  },
  {
    "Default": {
      "$type": "CBPBEHLOHKI",
      "abilityName": "SceneObj_Area_Nt_Property_Ani_Flower_FiringPlant_01",
      "abilityMixins": [
        {
          "$type": "BPKALFNJLIG",
          "modifierName": "Normal"
        },
        {
          "$type": "BPKALFNJLIG",
          "gadgetState": 201,
          "modifierName": "Blossom"
        }
      ],
      "modifiers": {
        "Eff": {
          "modifierName": "",
          "IPFJJJGABPL": 100.0,
          "onAdded": [
            {
              "$type": "ANLOBBMKNIJ",
              "rotationDampTime": "Eff_SceneObj_FiringPlant_01",
              "PPPDJGDDOGD": 1.0,
              "AJDILHJFNKE": -1.0
            }
          ]
        },
        "Normal": {
          "modifierName": "",
          "IPFJJJGABPL": 100.0,
          "modifierMixins": [
            {
              "$type": "GPCGHACDPIF",
              "NLIOHMNJBAM": ""
            }
          ],
          "onAdded": [
            {
              "$type": "GJCAPCBELPA",
              "otherTargets": {
                "$type": "PBLNLAENOGB",
                "topLimit": 1,
                "sortType": "Nearest",
                "tag": "_FiringPlantBase"
              },
              "predicates": [
                {
                  "$type": "NMAEFLLHEII",
                  "configIdArray": [
                    70540082
                  ]
                }
              ],
              "abilityName": "SceneObj_Area_Nt_Property_Ani_Flower_FiringPlantBase_01"
            }
          ]
        },
        "Blossom": {
          "modifierName": "",
          "IPFJJJGABPL": 100.0,
          "modifierMixins": [
            {
              "$type": "GPCGHACDPIF",
              "DPAOMNELPHI": 1,
              "NLIOHMNJBAM": ""
            }
          ],
          "onAdded": [
            {
              "$type": "ANLOBBMKNIJ",
              "rotationDampTime": "Eff_Item_Hint_Small",
              "PPPDJGDDOGD": 1.0,
              "AJDILHJFNKE": -1.0
            }
          ]
        }
      },
      "onAdded": [
        {
          "$type": "JLDEMMJAMLC",
          "modifierName": "Eff"
        },
        {
          "$type": "BOBCOJHOKKD",
          "param3": 1.0,
          "key": "Has_PhlogistonTag",
          "param2": 0.0,
          "repeatTimes": 0.0
        }
      ]
    }
  },
  {
    "Default": {
      "$type": "CBPBEHLOHKI",
      "abilityName": "SceneObj_Area_Nt_Property_Ani_Flower_FiringPlantBase_01",
      "abilityMixins": [
        {
          "$type": "BPKALFNJLIG",
          "modifierName": "Normal"
        },
        {
          "$type": "BPKALFNJLIG",
          "gadgetState": 201,
          "modifierName": "Blossom"
        }
      ],
      "modifiers": {
        "Normal": {
          "modifierName": "",
          "IPFJJJGABPL": 100.0,
          "modifierMixins": [
            {
              "$type": "GPCGHACDPIF",
              "NLIOHMNJBAM": ""
            }
          ],
          "onAdded": [
            {
              "$type": "AOOCGNCCAJB",
              "isAdd": true,
              "tag": "_IS_SHAMANSAURUS_PAINT"
            }
          ],
          "onBeingHit": [
            {
              "$type": "BOBCOJHOKKD",
              "param3": 1.0,
              "key": "_Blossom_From_Normal",
              "param2": 0.0,
              "repeatTimes": 0.0
            },
            {
              "$type": "LBINHEFBJMN",
              "param1": 1
            }
          ]
        },
        "Blossom": {
          "modifierName": "",
          "IPFJJJGABPL": 100.0,
          "modifierMixins": [
            {
              "$type": "GPCGHACDPIF",
              "DPAOMNELPHI": 1,
              "NLIOHMNJBAM": ""
            }
          ],
          "onAdded": [
            {
              "$type": "OGPDKJJJKNN",
              "shieldHP": true,
              "predicates": [
                {
                  "$type": "CNGGLKHONAA",
                  "key": "_Blossom_From_Normal",
                  "param3": 1.0
                }
              ],
              "configID": 2030,
              "born": {
                "$type": "IAENDIPDFKD",
                "offset": {
                  "KGEPIMHBMOL": 0.0,
                  "JEBHCGDPFEJ": 0.0,
                  "LPCHALMFFOD": 0.0
                },
                "useRotation": true
              },
              "hpRatio": 1.0,
              "baseEnergy": 60.0
            },
            {
              "$type": "AOOCGNCCAJB",
              "tag": "_IS_SHAMANSAURUS_PAINT"
            },
            {
              "$type": "ANLOBBMKNIJ",
              "rotationDampTime": "Eff_SceneObj_FiringPlant_02",
              "PPPDJGDDOGD": 1.0,
              "AJDILHJFNKE": -1.0
            }
          ]
        }
      },
      "onAdded": [
        {
          "$type": "LBINHEFBJMN",
          "param1": 2
        },
        {
          "$type": "AOOCGNCCAJB",
          "isAdd": true,
          "tag": "_FiringPlantBase"
        }
      ],
      "onAbilityStart": [
        {
          "$type": "INBCDALOHMP",
          "targetPredicates": [
            {
              "$type": "HNLCJOPBDLC",
              "target": "Self",
              "gadgetState": 201
            }
          ],
          "successActions": [
            {
              "$type": "LBINHEFBJMN",
              "param1": 1
            }
          ]
        }
      ]
    }
  }
]