[
  {
    "Default": {
      "$type": "CBPBEHLOHKI",
      "abilityName": "SceneObj_Area_Xm_Property_Ani_Prop_AyusProjector_01_Ability",
      "abilityMixins": [
        {
          "$type": "APPKPNCENAH",
          "gadgetStates": [
            0,
            201,
            202
          ],
          "modifierNames": [
            [
              "DefaultState"
            ],
            [
              "ActiveState"
            ],
            [
              "LockState"
            ]
          ]
        }
      ],
      "modifiers": {
        "LockState": {
          "modifierName": "",
          "IPFJJJGABPL": 100.0
        },
        "DefaultState": {
          "modifierName": "",
          "IPFJJJGABPL": 100.0,
          "onAdded": [
            {
              "$type": "ANLOBBMKNIJ",
              "rotationDampTime": "Eff_SceneObj_AyusProjector_01_Idle",
              "born": {
                "$type": "KLPANPDGHHA",
                "attachPointName": "AttachPoint"
              },
              "PPPDJGDDOGD": 1.0,
              "AJDILHJFNKE": -1.0
            }
          ],
          "onBeingHit": [
            {
              "$type": "HPIDNBEGJLL",
              "predicates": [
                {
                  "$type": "NNEHDJHMING",
                  "attackTags": [
                    "GrassSeed",
                    "GrassSeedBig"
                  ]
                }
              ],
              "state": 201
            }
          ]
        },
        "ActiveState": {
          "modifierName": "",
          "IPFJJJGABPL": 100.0,
          "onAdded": [
            {
              "$type": "ANLOBBMKNIJ",
              "rotationDampTime": "Eff_SceneObj_AyusProjector_01_Active",
              "born": {
                "$type": "KLPANPDGHHA",
                "attachPointName": "AttachPoint"
              },
              "PPPDJGDDOGD": 1.0,
              "AJDILHJFNKE": -1.0
            }
          ]
        }
      },
      "onAdded": [
        {
          "$type": "KBFEIHEAMBM",
          "predicates": [
            {
              "$type": "HNLCJOPBDLC",
              "target": "Self"
            }
          ],
          "rotationDampTime": "Eff_SceneObj_BouncingMushroom_01_Appear",
          "PPPDJGDDOGD": 1.0,
          "AJDILHJFNKE": -1.0
        }
      ]
    }
  },
  {
    "Default": {
      "$type": "CBPBEHLOHKI",
      "abilityName": "SceneObj_Area_Xm_Property_Ani_Prop_AyusProjectorLarge_01_Ability",
      "abilityMixins": [
        {
          "$type": "APPKPNCENAH",
          "gadgetStates": [
            0,
            201,
            202
          ],
          "modifierNames": [
            [
              "DefaultState"
            ],
            [
              "ActiveState"
            ],
            [
              "LockState"
            ]
          ]
        }
      ],
      "modifiers": {
        "LockState": {
          "modifierName": "",
          "IPFJJJGABPL": 100.0
        },
        "DefaultState": {
          "modifierName": "",
          "IPFJJJGABPL": 100.0,
          "onAdded": [
            {
              "$type": "ANLOBBMKNIJ",
              "rotationDampTime": "Eff_SceneObj_AyusProjector_02_Idle",
              "born": {
                "$type": "KLPANPDGHHA",
                "attachPointName": "AttachPoint"
              },
              "PPPDJGDDOGD": 1.0,
              "AJDILHJFNKE": -1.0
            }
          ],
          "onBeingHit": [
            {
              "$type": "HPIDNBEGJLL",
              "predicates": [
                {
                  "$type": "HHHMNCNPBDK",
                  "predicates": [
                    {
                      "$type": "NNEHDJHMING",
                      "attackTags": [
                        "GrassSeedBig"
                      ]
                    }
                  ]
                }
              ],
              "state": 201
            }
          ]
        },
        "ActiveState": {
          "modifierName": "",
          "IPFJJJGABPL": 100.0,
          "onAdded": [
            {
              "$type": "ANLOBBMKNIJ",
              "rotationDampTime": "Eff_SceneObj_AyusProjector_02_Active",
              "born": {
                "$type": "KLPANPDGHHA",
                "attachPointName": "AttachPoint"
              },
              "PPPDJGDDOGD": 1.0,
              "AJDILHJFNKE": -1.0
            }
          ]
        }
      },
      "onAdded": [
        {
          "$type": "KBFEIHEAMBM",
          "predicates": [
            {
              "$type": "HNLCJOPBDLC",
              "target": "Self"
            }
          ],
          "rotationDampTime": "Eff_SceneObj_BouncingMushroom_01_Appear",
          "PPPDJGDDOGD": 1.0,
          "AJDILHJFNKE": -1.0
        }
      ]
    }
  },
  {
    "Default": {
      "$type": "CBPBEHLOHKI",
      "abilityName": "SceneObj_Area_Xm_Property_Ani_Stone_XuMiPlantinshitou_01_Ability",
      "modifiers": {
        "IdleState": {
          "modifierName": "",
          "IPFJJJGABPL": 100.0,
          "onAdded": [
            {
              "$type": "ANLOBBMKNIJ",
              "rotationDampTime": "Eff_SceneObj_XuMiPlantinshitou_Grass_01",
              "born": {
                "$type": "KLPANPDGHHA",
                "attachPointName": "SeedPoint01"
              },
              "PPPDJGDDOGD": 1.0,
              "AJDILHJFNKE": -1.0
            },
            {
              "$type": "ANLOBBMKNIJ",
              "rotationDampTime": "Eff_SceneObj_XuMiPlantinshitou_Grass_01",
              "born": {
                "$type": "KLPANPDGHHA",
                "attachPointName": "SeedPoint02"
              },
              "PPPDJGDDOGD": 1.0,
              "AJDILHJFNKE": -1.0
            }
          ],
          "onBeingHit": [
            {
              "$type": "PELJALPANCA",
              "predicates": [
                {
                  "$type": "NNEHDJHMING",
                  "attackTags": [
                    "GrassSeed",
                    "GrassSeedBig"
                  ]
                }
              ],
              "modifierName": "Destory"
            }
          ]
        },
        "Destory": {
          "modifierName": "",
          "IPFJJJGABPL": 100.0,
          "modifierMixins": [
            {
              "$type": "JKCFEGPLHOA",
              "transName": "Collider",
              "tag": "Airwall"
            }
          ],
          "onAdded": [
            {
              "$type": "KBFEIHEAMBM",
              "rotationDampTime": "Eff_SceneObj_Stone_XuMiPlantinshitou_Disappear02",
              "born": {
                "$type": "KLPANPDGHHA",
                "attachPointName": "RootNode"
              },
              "PPPDJGDDOGD": 1.0,
              "AJDILHJFNKE": -1.0
            },
            {
              "$type": "NCFFNDHGCMH"
            }
          ]
        }
      },
      "onAdded": [
        {
          "$type": "PELJALPANCA",
          "modifierName": "IdleState"
        }
      ]
    }
  },
  {
    "Default": {
      "$type": "CBPBEHLOHKI",
      "abilityName": "SceneObj_Area_Xm_Property_Ani_Stone_XuMiPlantinshitou_02_Ability",
      "modifiers": {
        "IdleState": {
          "modifierName": "",
          "IPFJJJGABPL": 100.0,
          "onAdded": [
            {
              "$type": "ANLOBBMKNIJ",
              "rotationDampTime": "Eff_SceneObj_XuMiPlantinshitou_Grass_01",
              "born": {
                "$type": "KLPANPDGHHA",
                "attachPointName": "SeedPoint01"
              },
              "PPPDJGDDOGD": 1.0,
              "AJDILHJFNKE": -1.0
            },
            {
              "$type": "ANLOBBMKNIJ",
              "rotationDampTime": "Eff_SceneObj_XuMiPlantinshitou_Grass_01",
              "born": {
                "$type": "KLPANPDGHHA",
                "attachPointName": "SeedPoint02"
              },
              "PPPDJGDDOGD": 1.0,
              "AJDILHJFNKE": -1.0
            }
          ],
          "onBeingHit": [
            {
              "$type": "PELJALPANCA",
              "predicates": [
                {
                  "$type": "NNEHDJHMING",
                  "attackTags": [
                    "GrassSeed",
                    "GrassSeedBig"
                  ]
                }
              ],
              "modifierName": "Destroy"
            }
          ]
        },
        "Destroy": {
          "modifierName": "",
          "IPFJJJGABPL": 100.0,
          "modifierMixins": [
            {
              "$type": "JKCFEGPLHOA",
              "transName": "Collider",
              "tag": "Airwall"
            }
          ],
          "onAdded": [
            {
              "$type": "KBFEIHEAMBM",
              "rotationDampTime": "Eff_SceneObj_Stone_XuMiPlantinshitou_Disappear",
              "born": {
                "$type": "KLPANPDGHHA",
                "attachPointName": "RootNode"
              },
              "PPPDJGDDOGD": 1.0,
              "AJDILHJFNKE": -1.0
            },
            {
              "$type": "NCFFNDHGCMH"
            }
          ]
        }
      },
      "onAdded": [
        {
          "$type": "PELJALPANCA",
          "modifierName": "IdleState"
        }
      ]
    }
  }
]