[
  {
    "Default": {
      "$type": "CBPBEHLOHKI",
      "abilityName": "SceneObj_Area_Fd_Property_Ani_Prop_UnderseaBac_01",
      "abilityMixins": [
        {
          "$type": "CBKLCFKNHGH",
          "campTargetType": "All",
          "targetPredicates": [
            {
              "$type": "NIMAPECDNKD",
              "entityTypes": [
                "Avatar"
              ]
            }
          ],
          "simpleCountGlobaValueKey": "AvatarCount",
          "simpleCountMaxValue": 0.0,
          "simpleCountMinValue": 0.0
        },
        {
          "$type": "PHLKCMFKFIN",
          "globalValueKey": "AttackCD",
          "valueSteps": [
            -0.5,
            0.5,
            1.5
          ],
          "modifierNameSteps": [
            "TryTrigger",
            "CDTimer"
          ],
          "removeAppliedModifier": false
        },
        {
          "$type": "BPKALFNJLIG",
          "modifierName": "Normal"
        },
        {
          "$type": "BPKALFNJLIG",
          "gadgetState": 201,
          "modifierName": "FakeDeath"
        },
        {
          "$type": "BPKALFNJLIG",
          "gadgetState": 901,
          "modifierName": "TrueDeath"
        }
      ],
      "modifiers": {
        "CDTimer": {
          "modifierName": "",
          "elementDurability": 2.9000000953674316,
          "IPFJJJGABPL": 100.0,
          "onRemoved": [
            {
              "$type": "BOBCOJHOKKD",
              "param3": 0.0,
              "key": "AttackCD",
              "param2": 0.0,
              "repeatTimes": 0.0
            }
          ]
        },
        "TryTrigger": {
          "modifierName": "",
          "elementDurability": 0.10000000149011612,
          "IPFJJJGABPL": 100.0,
          "onRemoved": [
            {
              "$type": "INBCDALOHMP",
              "targetPredicates": [
                {
                  "$type": "CNGGLKHONAA",
                  "key": "AvatarCount",
                  "param3": 1.0,
                  "compareType": "MoreThanAndEqual"
                },
                {
                  "$type": "CNGGLKHONAA",
                  "key": "_IS_Fake_Death",
                  "param3": 0.0
                }
              ],
              "successActions": [
                {
                  "$type": "BLCCGIPAOIP",
                  "PLLJBINMGJK": "Attack",
                  "mpTriggerOnRemote": true
                },
                {
                  "$type": "BOBCOJHOKKD",
                  "param3": 1.0,
                  "key": "AttackCD",
                  "param2": 0.0,
                  "repeatTimes": 0.0
                },
                {
                  "$type": "GJCAPCBELPA",
                  "abilityName": "SceneObj_Area_Fd_Property_Ani_Prop_UnderseaBac_01_Attack01"
                },
                {
                  "$type": "KBFEIHEAMBM",
                  "rotationDampTime": "Eff_SceneObj_Area_Fd_Property_Ani_Prop_UnderseaBac_01_Attack",
                  "PPPDJGDDOGD": 1.0,
                  "AJDILHJFNKE": -1.0
                }
              ]
            }
          ]
        },
        "AttackManager": {
          "modifierName": "",
          "IPFJJJGABPL": 100.0,
          "modifierMixins": [
            {
              "$type": "PHLKCMFKFIN",
              "globalValueKey": "AvatarCount",
              "valueSteps": [
                -0.5,
                0.5,
                4.5
              ],
              "modifierNameSteps": [
                "NoAvatar",
                "HasAvatar"
              ]
            }
          ]
        },
        "NoAvatar": {
          "modifierName": "",
          "IPFJJJGABPL": 100.0,
          "onAdded": [
            {
              "$type": "AKEEDILMOJF",
              "intID": "FieldEnter",
              "param3": 0.0
            },
            {
              "$type": "GNAEJNBIFAC",
              "PLLJBINMGJK": "Attack"
            }
          ]
        },
        "HasAvatar": {
          "modifierName": "",
          "IPFJJJGABPL": 100.0,
          "onAdded": [
            {
              "$type": "AKEEDILMOJF",
              "intID": "FieldEnter",
              "param3": 1.0
            },
            {
              "$type": "INBCDALOHMP",
              "targetPredicates": [
                {
                  "$type": "CNGGLKHONAA",
                  "key": "AttackCD",
                  "param3": 0.0
                },
                {
                  "$type": "CNGGLKHONAA",
                  "key": "_IS_Fake_Death",
                  "param3": 0.0
                }
              ],
              "successActions": [
                {
                  "$type": "BLCCGIPAOIP",
                  "PLLJBINMGJK": "Attack",
                  "mpTriggerOnRemote": true
                },
                {
                  "$type": "BOBCOJHOKKD",
                  "param3": 1.0,
                  "key": "AttackCD",
                  "param2": 0.0,
                  "repeatTimes": 0.0
                },
                {
                  "$type": "GJCAPCBELPA",
                  "abilityName": "SceneObj_Area_Fd_Property_Ani_Prop_UnderseaBac_01_Attack01"
                },
                {
                  "$type": "KBFEIHEAMBM",
                  "rotationDampTime": "Eff_SceneObj_Area_Fd_Property_Ani_Prop_UnderseaBac_01_Attack",
                  "PPPDJGDDOGD": 1.0,
                  "AJDILHJFNKE": -1.0
                }
              ]
            }
          ]
        },
        "HitManager": {
          "modifierName": "",
          "IPFJJJGABPL": 100.0,
          "onBeingHit": [
            {
              "$type": "INBCDALOHMP",
              "targetPredicates": [
                {
                  "$type": "CNGGLKHONAA",
                  "key": "_IS_Fake_Death",
                  "param3": 0.0
                }
              ],
              "successActions": [
                {
                  "$type": "HPIDNBEGJLL",
                  "state": 201
                },
                {
                  "$type": "AHPEKICBIIL",
                  "luaCallType": "FromGroup",
                  "isTarget": true,
                  "funcName": "SLC_player_hit_UnderseaBac_success",
                  "param1": 0.0,
                  "MGAMDEHMCOL": 0.0,
                  "MMHOHAOGPLP": 0.0
                }
              ]
            },
            {
              "$type": "HCLAKBJKPLE",
              "target": "Target",
              "watcherId": 10160
            }
          ]
        },
        "BallManager": {
          "modifierName": "",
          "IPFJJJGABPL": 100.0,
          "onAdded": [
            {
              "$type": "ANLOBBMKNIJ",
              "rotationDampTime": "Eff_SceneObj_Area_Fd_Property_Ani_Prop_UnderseaBac_01_Idle",
              "born": {
                "$type": "KLPANPDGHHA",
                "useRotation": true,
                "attachPointName": "AttachPoint"
              },
              "PPPDJGDDOGD": 1.0,
              "AJDILHJFNKE": -1.0
            },
            {
              "$type": "GFOOGEIKGBI",
              "parameter": "GadgetState",
              "attachPoint": "",
              "damageRatio": "Int",
              "rotationDampTime": "Eff_SceneObj_Area_Fd_Property_Ani_Prop_UnderseaBac_01_Idle"
            }
          ]
        },
        "Normal": {
          "modifierName": "",
          "IPFJJJGABPL": 100.0,
          "modifierMixins": [
            {
              "$type": "GPCGHACDPIF",
              "NLIOHMNJBAM": ""
            }
          ],
          "onAdded": [
            {
              "$type": "BOBCOJHOKKD",
              "param3": 0.0,
              "key": "_IS_Fake_Death",
              "param2": 0.0,
              "repeatTimes": 0.0
            },
            {
              "$type": "BOBCOJHOKKD",
              "param3": 1.0,
              "key": "AttackCD",
              "param2": 0.0,
              "repeatTimes": 0.0
            },
            {
              "$type": "GFOOGEIKGBI",
              "parameter": "GadgetState",
              "attachPoint": "",
              "damageRatio": "Int",
              "rotationDampTime": "Eff_SceneObj_Area_Fd_Property_Ani_Prop_UnderseaBac_01_Idle"
            },
            {
              "$type": "AKEEDILMOJF",
              "intID": "GadgetState",
              "param3": 0.0
            },
            {
              "$type": "INBCDALOHMP",
              "targetPredicates": [
                {
                  "$type": "CNGGLKHONAA",
                  "key": "Already_FakeDeath",
                  "param3": 1.0
                }
              ],
              "failActions": [
                {
                  "$type": "KBFEIHEAMBM",
                  "rotationDampTime": "Eff_SceneObj_Area_Fd_Property_Ani_Prop_UnderseaBac_01_Create",
                  "PPPDJGDDOGD": 1.0,
                  "AJDILHJFNKE": -1.0
                }
              ]
            }
          ]
        },
        "FakeDeath": {
          "modifierName": "",
          "elementDurability": 2.0,
          "IPFJJJGABPL": 100.0,
          "modifierMixins": [
            {
              "$type": "GPCGHACDPIF",
              "DPAOMNELPHI": 1,
              "NLIOHMNJBAM": ""
            }
          ],
          "onAdded": [
            {
              "$type": "BOBCOJHOKKD",
              "param3": 1.0,
              "key": "_IS_Fake_Death",
              "param2": 0.0,
              "repeatTimes": 0.0
            },
            {
              "$type": "BOBCOJHOKKD",
              "param3": 1.0,
              "key": "Already_FakeDeath",
              "param2": 0.0,
              "repeatTimes": 0.0
            },
            {
              "$type": "GFOOGEIKGBI",
              "parameter": "GadgetState",
              "attachPoint": "",
              "damageRatio": "Int",
              "value": 2,
              "rotationDampTime": "Eff_SceneObj_Area_Fd_Property_Ani_Prop_UnderseaBac_01_Idle"
            },
            {
              "$type": "ANLOBBMKNIJ",
              "rotationDampTime": "Eff_SceneObj_UnderseaBac_01_Remnant",
              "born": {
                "$type": "KLPANPDGHHA",
                "useRotation": true,
                "attachPointName": "RootNode"
              },
              "PPPDJGDDOGD": 1.0,
              "AJDILHJFNKE": -1.0
            },
            {
              "$type": "ANLOBBMKNIJ",
              "rotationDampTime": "Eff_SceneObj_UnderseaBac_01_RemnantParticles",
              "born": {
                "$type": "KLPANPDGHHA",
                "useRotation": true,
                "attachPointName": "RootNode"
              },
              "PPPDJGDDOGD": 1.0,
              "AJDILHJFNKE": -1.0
            }
          ],
          "onRemoved": [
            {
              "$type": "INBCDALOHMP",
              "targetPredicates": [
                {
                  "$type": "CNGGLKHONAA",
                  "key": "SGV_TrueDeath",
                  "param3": 0.0
                }
              ],
              "successActions": [
                {
                  "$type": "HPIDNBEGJLL"
                }
              ]
            }
          ]
        },
        "TrueDeath": {
          "modifierName": "",
          "elementDurability": 2.0,
          "IPFJJJGABPL": 100.0,
          "modifierMixins": [
            {
              "$type": "GPCGHACDPIF",
              "DPAOMNELPHI": 2,
              "NLIOHMNJBAM": ""
            }
          ],
          "onAdded": [
            {
              "$type": "BOBCOJHOKKD",
              "param3": 1.0,
              "key": "_IS_Fake_Death",
              "param2": 0.0,
              "repeatTimes": 0.0
            },
            {
              "$type": "BOBCOJHOKKD",
              "param3": 1.0,
              "key": "Already_FakeDeath",
              "param2": 0.0,
              "repeatTimes": 0.0
            },
            {
              "$type": "GFOOGEIKGBI",
              "parameter": "GadgetState",
              "attachPoint": "",
              "damageRatio": "Int",
              "value": 1,
              "rotationDampTime": "Eff_SceneObj_Area_Fd_Property_Ani_Prop_UnderseaBac_01_Idle"
            },
            {
              "$type": "KBFEIHEAMBM",
              "rotationDampTime": "Eff_SceneObj_Area_Fd_Property_Ani_Prop_UnderseaBac_01_PlayDead",
              "PPPDJGDDOGD": 1.0,
              "AJDILHJFNKE": -1.0
            },
            {
              "$type": "GICMAMGKKKA",
              "lightName": "Light",
              "targetColor": {
                "r": 1.0,
                "g": 0.5450000166893005,
                "b": 0.5450000166893005,
                "a": 1.0
              },
              "shouldSetColor": true,
              "shouldSetIntensity": true,
              "intensityUseCurve": true,
              "lerpTime": 1.0
            }
          ],
          "onRemoved": [
            {
              "$type": "NCFFNDHGCMH"
            }
          ]
        }
      },
      "onAdded": [
        {
          "$type": "BOBCOJHOKKD",
          "param3": 1.0,
          "key": "AttackCD",
          "param2": 0.0,
          "repeatTimes": 0.0
        },
        {
          "$type": "BOBCOJHOKKD",
          "param3": 0.0,
          "key": "_IS_Fake_Death",
          "param2": 0.0,
          "repeatTimes": 0.0
        },
        {
          "$type": "BOBCOJHOKKD",
          "param3": 0.0,
          "key": "Already_FakeDeath",
          "param2": 0.0,
          "repeatTimes": 0.0
        },
        {
          "$type": "PELJALPANCA",
          "modifierName": "BallManager"
        },
        {
          "$type": "PELJALPANCA",
          "modifierName": "AttackManager"
        },
        {
          "$type": "PELJALPANCA",
          "modifierName": "HitManager"
        }
      ]
    }
  },
  {
    "Default": {
      "$type": "CBPBEHLOHKI",
      "abilityName": "SceneObj_Area_Fd_Property_Ani_Prop_UnderseaBac_01_Attack01",
      "abilitySpecials": {
        "AvatarDamageValue": 0.4000000059604645,
        "MonsterDamageValue": 0.4000000059604645,
        "DamageSystemValue": 1.0
      },
      "modifiers": {
        "AttackWait": {
          "modifierName": "",
          "elementDurability": 0.10000000149011612,
          "IPFJJJGABPL": 100.0,
          "onRemoved": [
            {
              "$type": "PELJALPANCA",
              "modifierName": "UnderseaBacAttack01"
            }
          ]
        },
        "UnderseaBacAttack01": {
          "stacking": "MultipleRefresh",
          "stackingOption": {
            "abilitySpecialName": "",
            "maxModifierNumForMultipleType": 1.0
          },
          "modifierName": "",
          "IPFJJJGABPL": 100.0,
          "onAdded": [
            {
              "$type": "AIFPLABJNMA",
              "attackEvent": {
                "attackPattern": {
                  "$type": "BELNOFAKNBA",
                  "triggerType": "TriggerNoRepeat",
                  "OAHPDLJIADP": 4.0
                },
                "attackInfo": {
                  "attackTag": "",
                  "attenuationTag": "",
                  "attenuationGroup": "default",
                  "attackProperty": {
                    "actorGrassSubHurtDelta": 1.0,
                    "actorWindSubHurtDelta": 0.0,
                    "IPFJJJGABPL": 100.0,
                    "strikeType": "Default",
                    "enBreak": 0.0,
                    "attackType": "Range",
                    "GLKMCMDJBIK": 0.0
                  },
                  "hitPattern": {
                    "onHitEffectName": "default",
                    "hitImpulseY": "",
                    "hitImpulseType": "LV6"
                  }
                }
              },
              "targetType": "Enemy",
              "entityTypes": [
                "Avatar"
              ]
            }
          ]
        }
      },
      "onAdded": [
        {
          "$type": "GDHGMAPPGHD",
          "key": "DamageSystemValue",
          "damageRatio": "ElementLevelCo"
        }
      ],
      "onAbilityStart": [
        {
          "$type": "PELJALPANCA",
          "modifierName": "AttackWait"
        }
      ]
    }
  },
  {
    "Default": {
      "$type": "CBPBEHLOHKI",
      "abilityName": "SceneObj_Area_Fd_Property_Ani_Prop_UnderseaBac_02",
      "abilityMixins": [
        {
          "$type": "CBKLCFKNHGH",
          "campTargetType": "All",
          "targetPredicates": [
            {
              "$type": "NIMAPECDNKD",
              "entityTypes": [
                "Avatar"
              ]
            }
          ],
          "simpleCountGlobaValueKey": "AvatarCount",
          "simpleCountMaxValue": 0.0,
          "simpleCountMinValue": 0.0
        },
        {
          "$type": "PHLKCMFKFIN",
          "globalValueKey": "AttackCD",
          "valueSteps": [
            -0.5,
            0.5,
            1.5
          ],
          "modifierNameSteps": [
            "TryTrigger",
            "CDTimer"
          ],
          "removeAppliedModifier": false
        },
        {
          "$type": "BPKALFNJLIG",
          "modifierName": "Normal"
        },
        {
          "$type": "BPKALFNJLIG",
          "gadgetState": 201,
          "modifierName": "FakeDeath"
        },
        {
          "$type": "BPKALFNJLIG",
          "gadgetState": 901,
          "modifierName": "TrueDeath"
        }
      ],
      "modifiers": {
        "CDTimer": {
          "modifierName": "",
          "elementDurability": 2.9000000953674316,
          "IPFJJJGABPL": 100.0,
          "onRemoved": [
            {
              "$type": "BOBCOJHOKKD",
              "param3": 0.0,
              "key": "AttackCD",
              "param2": 0.0,
              "repeatTimes": 0.0
            }
          ]
        },
        "TryTrigger": {
          "modifierName": "",
          "elementDurability": 0.10000000149011612,
          "IPFJJJGABPL": 100.0,
          "onRemoved": [
            {
              "$type": "INBCDALOHMP",
              "targetPredicates": [
                {
                  "$type": "CNGGLKHONAA",
                  "key": "AvatarCount",
                  "param3": 1.0,
                  "compareType": "MoreThanAndEqual"
                },
                {
                  "$type": "CNGGLKHONAA",
                  "key": "_IS_Fake_Death",
                  "param3": 0.0
                }
              ],
              "successActions": [
                {
                  "$type": "BLCCGIPAOIP",
                  "PLLJBINMGJK": "Attack",
                  "mpTriggerOnRemote": true
                },
                {
                  "$type": "BOBCOJHOKKD",
                  "param3": 1.0,
                  "key": "AttackCD",
                  "param2": 0.0,
                  "repeatTimes": 0.0
                },
                {
                  "$type": "GJCAPCBELPA",
                  "abilityName": "SceneObj_Area_Fd_Property_Ani_Prop_UnderseaBac_02_Attack01"
                },
                {
                  "$type": "KBFEIHEAMBM",
                  "rotationDampTime": "Eff_SceneObj_Area_Fd_Property_Ani_Prop_UnderseaBac_01_Attack",
                  "PPPDJGDDOGD": 1.0,
                  "AJDILHJFNKE": -1.0
                }
              ]
            }
          ]
        },
        "AttackManager": {
          "modifierName": "",
          "IPFJJJGABPL": 100.0,
          "modifierMixins": [
            {
              "$type": "PHLKCMFKFIN",
              "globalValueKey": "AvatarCount",
              "valueSteps": [
                -0.5,
                0.5,
                4.5
              ],
              "modifierNameSteps": [
                "NoAvatar",
                "HasAvatar"
              ]
            }
          ]
        },
        "NoAvatar": {
          "modifierName": "",
          "IPFJJJGABPL": 100.0,
          "onAdded": [
            {
              "$type": "AKEEDILMOJF",
              "intID": "FieldEnter",
              "param3": 0.0
            },
            {
              "$type": "GNAEJNBIFAC",
              "PLLJBINMGJK": "Attack"
            }
          ]
        },
        "HasAvatar": {
          "modifierName": "",
          "IPFJJJGABPL": 100.0,
          "onAdded": [
            {
              "$type": "AKEEDILMOJF",
              "intID": "FieldEnter",
              "param3": 1.0
            },
            {
              "$type": "INBCDALOHMP",
              "targetPredicates": [
                {
                  "$type": "CNGGLKHONAA",
                  "key": "AttackCD",
                  "param3": 0.0
                },
                {
                  "$type": "CNGGLKHONAA",
                  "key": "_IS_Fake_Death",
                  "param3": 0.0
                }
              ],
              "successActions": [
                {
                  "$type": "BLCCGIPAOIP",
                  "PLLJBINMGJK": "Attack",
                  "mpTriggerOnRemote": true
                },
                {
                  "$type": "BOBCOJHOKKD",
                  "param3": 1.0,
                  "key": "AttackCD",
                  "param2": 0.0,
                  "repeatTimes": 0.0
                },
                {
                  "$type": "GJCAPCBELPA",
                  "abilityName": "SceneObj_Area_Fd_Property_Ani_Prop_UnderseaBac_02_Attack01"
                },
                {
                  "$type": "KBFEIHEAMBM",
                  "rotationDampTime": "Eff_SceneObj_Area_Fd_Property_Ani_Prop_UnderseaBac_01_Attack",
                  "PPPDJGDDOGD": 1.0,
                  "AJDILHJFNKE": -1.0
                }
              ]
            }
          ]
        },
        "HitManager": {
          "modifierName": "",
          "IPFJJJGABPL": 100.0,
          "onBeingHit": [
            {
              "$type": "INBCDALOHMP",
              "targetPredicates": [
                {
                  "$type": "CNGGLKHONAA",
                  "key": "_IS_Fake_Death",
                  "param3": 0.0
                }
              ],
              "successActions": [
                {
                  "$type": "HPIDNBEGJLL",
                  "state": 201
                },
                {
                  "$type": "AHPEKICBIIL",
                  "luaCallType": "FromGroup",
                  "isTarget": true,
                  "funcName": "SLC_player_hit_UnderseaBac_success",
                  "param1": 0.0,
                  "MGAMDEHMCOL": 0.0,
                  "MMHOHAOGPLP": 0.0
                }
              ]
            },
            {
              "$type": "HCLAKBJKPLE",
              "target": "Target",
              "watcherId": 10160
            }
          ]
        },
        "BallManager": {
          "modifierName": "",
          "IPFJJJGABPL": 100.0,
          "onAdded": [
            {
              "$type": "ANLOBBMKNIJ",
              "rotationDampTime": "Eff_SceneObj_Area_Fd_Property_Ani_Prop_UnderseaBac_01_Idle",
              "born": {
                "$type": "KLPANPDGHHA",
                "useRotation": true,
                "attachPointName": "AttachPoint"
              },
              "PPPDJGDDOGD": 1.5,
              "AJDILHJFNKE": -1.0
            },
            {
              "$type": "GFOOGEIKGBI",
              "parameter": "GadgetState",
              "attachPoint": "",
              "damageRatio": "Int",
              "rotationDampTime": "Eff_SceneObj_Area_Fd_Property_Ani_Prop_UnderseaBac_01_Idle"
            }
          ]
        },
        "Normal": {
          "modifierName": "",
          "IPFJJJGABPL": 100.0,
          "modifierMixins": [
            {
              "$type": "GPCGHACDPIF",
              "NLIOHMNJBAM": ""
            }
          ],
          "onAdded": [
            {
              "$type": "BOBCOJHOKKD",
              "param3": 0.0,
              "key": "_IS_Fake_Death",
              "param2": 0.0,
              "repeatTimes": 0.0
            },
            {
              "$type": "BOBCOJHOKKD",
              "param3": 1.0,
              "key": "AttackCD",
              "param2": 0.0,
              "repeatTimes": 0.0
            },
            {
              "$type": "GFOOGEIKGBI",
              "parameter": "GadgetState",
              "attachPoint": "",
              "damageRatio": "Int",
              "rotationDampTime": "Eff_SceneObj_Area_Fd_Property_Ani_Prop_UnderseaBac_01_Idle"
            },
            {
              "$type": "AKEEDILMOJF",
              "intID": "GadgetState",
              "param3": 0.0
            },
            {
              "$type": "INBCDALOHMP",
              "targetPredicates": [
                {
                  "$type": "CNGGLKHONAA",
                  "key": "Already_FakeDeath",
                  "param3": 1.0
                }
              ],
              "failActions": [
                {
                  "$type": "KBFEIHEAMBM",
                  "rotationDampTime": "Eff_SceneObj_Area_Fd_Property_Ani_Prop_UnderseaBac_01_Create",
                  "PPPDJGDDOGD": 1.0,
                  "AJDILHJFNKE": -1.0
                }
              ]
            }
          ]
        },
        "FakeDeath": {
          "modifierName": "",
          "elementDurability": 2.0,
          "IPFJJJGABPL": 100.0,
          "modifierMixins": [
            {
              "$type": "GPCGHACDPIF",
              "DPAOMNELPHI": 1,
              "NLIOHMNJBAM": ""
            }
          ],
          "onAdded": [
            {
              "$type": "BOBCOJHOKKD",
              "param3": 1.0,
              "key": "_IS_Fake_Death",
              "param2": 0.0,
              "repeatTimes": 0.0
            },
            {
              "$type": "BOBCOJHOKKD",
              "param3": 1.0,
              "key": "Already_FakeDeath",
              "param2": 0.0,
              "repeatTimes": 0.0
            },
            {
              "$type": "GFOOGEIKGBI",
              "parameter": "GadgetState",
              "attachPoint": "",
              "damageRatio": "Int",
              "value": 2,
              "rotationDampTime": "Eff_SceneObj_Area_Fd_Property_Ani_Prop_UnderseaBac_01_Idle"
            },
            {
              "$type": "ANLOBBMKNIJ",
              "rotationDampTime": "Eff_SceneObj_UnderseaBac_01_Remnant",
              "born": {
                "$type": "KLPANPDGHHA",
                "useRotation": true,
                "attachPointName": "RootNode"
              },
              "PPPDJGDDOGD": 1.5,
              "AJDILHJFNKE": -1.0
            },
            {
              "$type": "ANLOBBMKNIJ",
              "rotationDampTime": "Eff_SceneObj_UnderseaBac_01_RemnantParticles",
              "born": {
                "$type": "KLPANPDGHHA",
                "useRotation": true,
                "attachPointName": "RootNode"
              },
              "PPPDJGDDOGD": 1.5,
              "AJDILHJFNKE": -1.0
            }
          ],
          "onRemoved": [
            {
              "$type": "INBCDALOHMP",
              "targetPredicates": [
                {
                  "$type": "CNGGLKHONAA",
                  "key": "SGV_TrueDeath",
                  "param3": 0.0
                }
              ],
              "successActions": [
                {
                  "$type": "HPIDNBEGJLL"
                }
              ]
            }
          ]
        },
        "TrueDeath": {
          "modifierName": "",
          "elementDurability": 2.0,
          "IPFJJJGABPL": 100.0,
          "modifierMixins": [
            {
              "$type": "GPCGHACDPIF",
              "DPAOMNELPHI": 2,
              "NLIOHMNJBAM": ""
            }
          ],
          "onAdded": [
            {
              "$type": "BOBCOJHOKKD",
              "param3": 1.0,
              "key": "_IS_Fake_Death",
              "param2": 0.0,
              "repeatTimes": 0.0
            },
            {
              "$type": "BOBCOJHOKKD",
              "param3": 1.0,
              "key": "Already_FakeDeath",
              "param2": 0.0,
              "repeatTimes": 0.0
            },
            {
              "$type": "GFOOGEIKGBI",
              "parameter": "GadgetState",
              "attachPoint": "",
              "damageRatio": "Int",
              "value": 1,
              "rotationDampTime": "Eff_SceneObj_Area_Fd_Property_Ani_Prop_UnderseaBac_01_Idle"
            },
            {
              "$type": "KBFEIHEAMBM",
              "rotationDampTime": "Eff_SceneObj_Area_Fd_Property_Ani_Prop_UnderseaBac_01_PlayDead",
              "PPPDJGDDOGD": 1.0,
              "AJDILHJFNKE": -1.0
            },
            {
              "$type": "GICMAMGKKKA",
              "lightName": "Light",
              "targetColor": {
                "r": 1.0,
                "g": 0.5450000166893005,
                "b": 0.5450000166893005,
                "a": 1.0
              },
              "shouldSetColor": true,
              "shouldSetIntensity": true,
              "intensityUseCurve": true,
              "lerpTime": 1.0
            }
          ],
          "onRemoved": [
            {
              "$type": "NCFFNDHGCMH"
            }
          ]
        }
      },
      "onAdded": [
        {
          "$type": "BOBCOJHOKKD",
          "param3": 1.0,
          "key": "AttackCD",
          "param2": 0.0,
          "repeatTimes": 0.0
        },
        {
          "$type": "BOBCOJHOKKD",
          "param3": 0.0,
          "key": "_IS_Fake_Death",
          "param2": 0.0,
          "repeatTimes": 0.0
        },
        {
          "$type": "BOBCOJHOKKD",
          "param3": 0.0,
          "key": "Already_FakeDeath",
          "param2": 0.0,
          "repeatTimes": 0.0
        },
        {
          "$type": "PELJALPANCA",
          "modifierName": "BallManager"
        },
        {
          "$type": "PELJALPANCA",
          "modifierName": "AttackManager"
        },
        {
          "$type": "PELJALPANCA",
          "modifierName": "HitManager"
        }
      ]
    }
  },
  {
    "Default": {
      "$type": "CBPBEHLOHKI",
      "abilityName": "SceneObj_Area_Fd_Property_Ani_Prop_UnderseaBac_02_Attack01",
      "abilitySpecials": {
        "AvatarDamageValue": 0.4000000059604645,
        "MonsterDamageValue": 0.4000000059604645,
        "DamageSystemValue": 1.0
      },
      "modifiers": {
        "AttackWait": {
          "modifierName": "",
          "elementDurability": 0.10000000149011612,
          "IPFJJJGABPL": 100.0,
          "onRemoved": [
            {
              "$type": "PELJALPANCA",
              "modifierName": "UnderseaBacAttack01"
            }
          ]
        },
        "UnderseaBacAttack01": {
          "stacking": "MultipleRefresh",
          "stackingOption": {
            "abilitySpecialName": "",
            "maxModifierNumForMultipleType": 1.0
          },
          "modifierName": "",
          "IPFJJJGABPL": 100.0,
          "onAdded": [
            {
              "$type": "AIFPLABJNMA",
              "attackEvent": {
                "attackPattern": {
                  "$type": "BELNOFAKNBA",
                  "triggerType": "TriggerNoRepeat",
                  "OAHPDLJIADP": 4.0
                },
                "attackInfo": {
                  "attackTag": "",
                  "attenuationTag": "",
                  "attenuationGroup": "default",
                  "attackProperty": {
                    "actorGrassSubHurtDelta": 1.0,
                    "actorWindSubHurtDelta": 0.0,
                    "IPFJJJGABPL": 100.0,
                    "strikeType": "Default",
                    "enBreak": 0.0,
                    "attackType": "Range",
                    "GLKMCMDJBIK": 0.0
                  },
                  "hitPattern": {
                    "onHitEffectName": "default",
                    "hitImpulseY": "",
                    "hitImpulseType": "LV6"
                  }
                }
              },
              "targetType": "Enemy",
              "entityTypes": [
                "Avatar"
              ]
            }
          ]
        }
      },
      "onAbilityStart": [
        {
          "$type": "PELJALPANCA",
          "modifierName": "AttackWait"
        }
      ]
    }
  },
  {
    "Default": {
      "$type": "CBPBEHLOHKI",
      "abilityName": "SceneObj_Area_Fd_Property_Ani_Prop_UnderseaBacDoor_01",
      "abilityMixins": [
        {
          "$type": "BPKALFNJLIG",
          "modifierName": "Close"
        },
        {
          "$type": "BPKALFNJLIG",
          "gadgetState": 201,
          "modifierName": "Open"
        }
      ],
      "modifiers": {
        "Close": {
          "modifierName": "",
          "IPFJJJGABPL": 100.0,
          "onAdded": [
            {
              "$type": "CLKGEHMNIEF",
              "transformNames": [
                "AirWall"
              ],
              "setEnable": true
            }
          ],
          "onRemoved": [
            {
              "$type": "KBFEIHEAMBM",
              "rotationDampTime": "Eff_SceneObj_UnderseaBacDoor_01_Die",
              "born": {
                "$type": "KLPANPDGHHA",
                "useRotation": true,
                "attachPointName": "RootNode"
              },
              "PPPDJGDDOGD": 1.0,
              "AJDILHJFNKE": -1.0
            }
          ]
        },
        "Open": {
          "modifierName": "",
          "IPFJJJGABPL": 100.0,
          "onAdded": [
            {
              "$type": "AKEEDILMOJF",
              "intID": "Disappear",
              "param3": 201.0
            },
            {
              "$type": "CLKGEHMNIEF",
              "transformNames": [
                "AirWall"
              ]
            }
          ]
        }
      }
    }
  },
  {
    "Default": {
      "$type": "CBPBEHLOHKI",
      "abilityName": "SceneObj_Area_Fd_Property_Ani_Prop_UnderseaBacDoor_02",
      "abilityMixins": [
        {
          "$type": "BPKALFNJLIG",
          "modifierName": "Close"
        },
        {
          "$type": "BPKALFNJLIG",
          "gadgetState": 201,
          "modifierName": "Open"
        }
      ],
      "modifiers": {
        "Close": {
          "modifierName": "",
          "IPFJJJGABPL": 100.0,
          "onAdded": [
            {
              "$type": "CLKGEHMNIEF",
              "transformNames": [
                "AirWall"
              ],
              "setEnable": true
            }
          ],
          "onRemoved": [
            {
              "$type": "KBFEIHEAMBM",
              "rotationDampTime": "Eff_SceneObj_UnderseaBacDoor_01_Die",
              "born": {
                "$type": "KLPANPDGHHA",
                "useRotation": true,
                "attachPointName": "RootNode"
              },
              "PPPDJGDDOGD": 1.0,
              "AJDILHJFNKE": -1.0
            }
          ]
        },
        "Open": {
          "modifierName": "",
          "IPFJJJGABPL": 100.0,
          "onAdded": [
            {
              "$type": "AKEEDILMOJF",
              "intID": "Disappear",
              "param3": 201.0
            },
            {
              "$type": "CLKGEHMNIEF",
              "transformNames": [
                "AirWall"
              ]
            }
          ]
        }
      }
    }
  },
  {
    "Default": {
      "$type": "CBPBEHLOHKI",
      "abilityName": "SceneObj_Area_Fd_Property_Ani_Prop_UnderseaBacDoor_03",
      "abilityMixins": [
        {
          "$type": "BPKALFNJLIG",
          "modifierName": "Close"
        },
        {
          "$type": "BPKALFNJLIG",
          "gadgetState": 201,
          "modifierName": "Open"
        }
      ],
      "modifiers": {
        "Close": {
          "modifierName": "",
          "IPFJJJGABPL": 100.0,
          "onAdded": [
            {
              "$type": "AKEEDILMOJF",
              "intID": "Disappear",
              "param3": 0.0
            },
            {
              "$type": "CLKGEHMNIEF",
              "transformNames": [
                "AirWall"
              ],
              "setEnable": true
            }
          ],
          "onRemoved": [
            {
              "$type": "KBFEIHEAMBM",
              "rotationDampTime": "Eff_SceneObj_UnderseaBacDoor_01_Die",
              "born": {
                "$type": "KLPANPDGHHA",
                "useRotation": true,
                "attachPointName": "RootNode"
              },
              "PPPDJGDDOGD": 1.0,
              "AJDILHJFNKE": -1.0
            }
          ]
        },
        "Open": {
          "modifierName": "",
          "IPFJJJGABPL": 100.0,
          "onAdded": [
            {
              "$type": "AKEEDILMOJF",
              "intID": "Disappear",
              "param3": 201.0
            },
            {
              "$type": "CLKGEHMNIEF",
              "transformNames": [
                "AirWall"
              ]
            }
          ]
        }
      }
    }
  },
  {
    "Default": {
      "$type": "CBPBEHLOHKI",
      "abilityName": "SceneObj_Area_Fd_Property_Ani_Prop_UnderseaBacRes_01",
      "abilityMixins": [
        {
          "$type": "BPKALFNJLIG",
          "modifierName": "NormalState"
        },
        {
          "$type": "BPKALFNJLIG",
          "gadgetState": 201,
          "modifierName": "FakeDeath"
        }
      ],
      "modifiers": {
        "NormalState": {
          "modifierName": "",
          "IPFJJJGABPL": 100.0
        },
        "FakeDeath": {
          "modifierName": "",
          "elementDurability": 5.0,
          "IPFJJJGABPL": 100.0,
          "onAdded": [
            {
              "$type": "ANLOBBMKNIJ",
              "rotationDampTime": "Eff_Item_SpecialTreasureBox_LockIdle",
              "born": {
                "$type": "KLPANPDGHHA",
                "useRotation": true,
                "attachPointName": "AttachPoint"
              },
              "PPPDJGDDOGD": 1.0,
              "AJDILHJFNKE": -1.0
            }
          ],
          "onRemoved": [
            {
              "$type": "KBFEIHEAMBM",
              "rotationDampTime": "Eff_Item_SpecialTreasureBox_Unlock",
              "born": {
                "$type": "KLPANPDGHHA",
                "useRotation": true,
                "attachPointName": "AttachPoint"
              },
              "PPPDJGDDOGD": 1.0,
              "AJDILHJFNKE": -1.0
            },
            {
              "$type": "HPIDNBEGJLL"
            }
          ]
        },
        "HitManager": {
          "modifierName": "",
          "IPFJJJGABPL": 100.0,
          "onBeingHit": [
            {
              "$type": "INBCDALOHMP",
              "targetPredicates": [
                {
                  "$type": "NNEHDJHMING",
                  "attackTags": [
                    "JellyFish_Bomb_Special"
                  ]
                }
              ],
              "successActions": [
                {
                  "$type": "HPIDNBEGJLL",
                  "state": 201
                }
              ],
              "failActions": [
                {
                  "$type": "KBFEIHEAMBM",
                  "rotationDampTime": "Eff_SceneObj_ChargingStation_01_Building",
                  "born": {
                    "$type": "KLPANPDGHHA",
                    "useRotation": true,
                    "attachPointName": "RootNode"
                  },
                  "PPPDJGDDOGD": 1.0,
                  "AJDILHJFNKE": -1.0
                }
              ]
            }
          ]
        }
      },
      "onAdded": [
        {
          "$type": "BOBCOJHOKKD",
          "param3": 1.0,
          "key": "_IS_InUnderseaBacRes",
          "param2": 0.0,
          "repeatTimes": 0.0
        },
        {
          "$type": "PELJALPANCA",
          "modifierName": "HitManager"
        }
      ]
    }
  },
  {
    "Default": {
      "$type": "CBPBEHLOHKI",
      "abilityName": "SceneObj_Area_Fd_Property_Ani_Prop_FDFacPipeValve_01",
      "abilityMixins": [
        {
          "$type": "BPKALFNJLIG",
          "modifierName": "Lock"
        },
        {
          "$type": "BPKALFNJLIG",
          "gadgetState": 101,
          "modifierName": "0Degree"
        },
        {
          "$type": "BPKALFNJLIG",
          "gadgetState": 102,
          "modifierName": "90Degree"
        },
        {
          "$type": "BPKALFNJLIG",
          "gadgetState": 103,
          "modifierName": "180Degree"
        },
        {
          "$type": "BPKALFNJLIG",
          "gadgetState": 104,
          "modifierName": "270Degree"
        },
        {
          "$type": "BPKALFNJLIG",
          "gadgetState": 201,
          "modifierName": "LackValve"
        },
        {
          "$type": "BPKALFNJLIG",
          "gadgetState": 901,
          "modifierName": "SuccessState"
        }
      ],
      "modifiers": {
        "Lock": {
          "modifierName": "",
          "IPFJJJGABPL": 100.0,
          "modifierMixins": [
            {
              "$type": "GPCGHACDPIF",
              "DPAOMNELPHI": 2,
              "NLIOHMNJBAM": ""
            }
          ],
          "onAdded": [
            {
              "$type": "CLKGEHMNIEF",
              "transformNames": [
                "Valve"
              ],
              "setEnable": true
            }
          ]
        },
        "0Degree": {
          "modifierName": "",
          "IPFJJJGABPL": 100.0,
          "modifierMixins": [
            {
              "$type": "GPCGHACDPIF",
              "NLIOHMNJBAM": ""
            }
          ],
          "onAdded": [
            {
              "$type": "CLKGEHMNIEF",
              "transformNames": [
                "Valve"
              ],
              "setEnable": true
            },
            {
              "$type": "AKEEDILMOJF",
              "intID": "degree",
              "param3": 0.0
            },
            {
              "$type": "INBCDALOHMP",
              "targetPredicates": [
                {
                  "$type": "CNGGLKHONAA",
                  "target": "Self",
                  "key": "SGV_PipeDegree",
                  "param3": 1.0
                }
              ],
              "successActions": [
                {
                  "$type": "JLDEMMJAMLC",
                  "modifierName": "UNIQUE_Pipe_RightState"
                }
              ]
            }
          ]
        },
        "90Degree": {
          "modifierName": "",
          "IPFJJJGABPL": 100.0,
          "modifierMixins": [
            {
              "$type": "GPCGHACDPIF",
              "NLIOHMNJBAM": ""
            }
          ],
          "onAdded": [
            {
              "$type": "AKEEDILMOJF",
              "intID": "degree",
              "param3": 90.0
            },
            {
              "$type": "INBCDALOHMP",
              "targetPredicates": [
                {
                  "$type": "CNGGLKHONAA",
                  "target": "Self",
                  "key": "SGV_PipeDegree",
                  "param3": 2.0
                }
              ],
              "successActions": [
                {
                  "$type": "JLDEMMJAMLC",
                  "modifierName": "UNIQUE_Pipe_RightState"
                }
              ]
            }
          ]
        },
        "180Degree": {
          "modifierName": "",
          "IPFJJJGABPL": 100.0,
          "modifierMixins": [
            {
              "$type": "GPCGHACDPIF",
              "NLIOHMNJBAM": ""
            }
          ],
          "onAdded": [
            {
              "$type": "AKEEDILMOJF",
              "intID": "degree",
              "param3": 180.0
            },
            {
              "$type": "INBCDALOHMP",
              "targetPredicates": [
                {
                  "$type": "CNGGLKHONAA",
                  "target": "Self",
                  "key": "SGV_PipeDegree",
                  "param3": 3.0
                }
              ],
              "successActions": [
                {
                  "$type": "JLDEMMJAMLC",
                  "modifierName": "UNIQUE_Pipe_RightState"
                }
              ]
            }
          ]
        },
        "270Degree": {
          "modifierName": "",
          "IPFJJJGABPL": 100.0,
          "modifierMixins": [
            {
              "$type": "GPCGHACDPIF",
              "NLIOHMNJBAM": ""
            }
          ],
          "onAdded": [
            {
              "$type": "AKEEDILMOJF",
              "intID": "degree",
              "param3": 270.0
            },
            {
              "$type": "INBCDALOHMP",
              "targetPredicates": [
                {
                  "$type": "CNGGLKHONAA",
                  "target": "Self",
                  "key": "SGV_PipeDegree",
                  "param3": 4.0
                }
              ],
              "successActions": [
                {
                  "$type": "JLDEMMJAMLC",
                  "modifierName": "UNIQUE_Pipe_RightState"
                }
              ]
            }
          ]
        },
        "LackValve": {
          "modifierName": "",
          "IPFJJJGABPL": 100.0,
          "onAdded": [
            {
              "$type": "CLKGEHMNIEF",
              "transformNames": [
                "Valve"
              ]
            }
          ]
        },
        "SuccessState": {
          "modifierName": "",
          "IPFJJJGABPL": 100.0,
          "modifierMixins": [
            {
              "$type": "GPCGHACDPIF",
              "DPAOMNELPHI": 3,
              "NLIOHMNJBAM": ""
            }
          ]
        },
        "UNIQUE_Pipe_RightState": {
          "modifierName": "",
          "forceTriggerWhenChangeAuthority": true,
          "IPFJJJGABPL": 100.0
        }
      }
    }
  },
  {
    "Default": {
      "$type": "CBPBEHLOHKI",
      "abilityName": "SceneObj_Area_Fd_Property_Ani_Prop_TransparentEel_01_Ability",
      "abilityMixins": [
        {
          "$type": "BPKALFNJLIG",
          "modifierName": "MoveState"
        },
        {
          "$type": "BPKALFNJLIG",
          "gadgetState": 202,
          "modifierName": "DeadState"
        },
        {
          "$type": "BPKALFNJLIG",
          "gadgetState": 203,
          "modifierName": "AfterDeadState"
        }
      ],
      "modifiers": {
        "MoveState": {
          "modifierName": "",
          "IPFJJJGABPL": 100.0,
          "onAdded": [
            {
              "$type": "ANLOBBMKNIJ",
              "rotationDampTime": "Eff_SceneObj_Area_Fd_Property_Ani_Prop_TransparentEel_01",
              "born": {
                "$type": "KLPANPDGHHA",
                "useRotation": true,
                "attachPointName": "RootNode"
              },
              "PPPDJGDDOGD": 1.0,
              "AJDILHJFNKE": -1.0
            }
          ],
          "onBeingHit": [
            {
              "$type": "INBCDALOHMP",
              "target": "Other",
              "targetPredicates": [
                {
                  "$type": "NNEHDJHMING",
                  "attackTags": [
                    "JellyFish_Bomb",
                    "CrabShieldBlunt",
                    "Dive_Echo_Detect",
                    "Dive_Echo_Bullet",
                    "Dive_Slash"
                  ]
                }
              ],
              "successActions": [
                {
                  "$type": "HPIDNBEGJLL",
                  "state": 202
                },
                {
                  "$type": "INBCDALOHMP",
                  "target": "Target",
                  "targetPredicates": [
                    {
                      "$type": "NIMAPECDNKD",
                      "entityTypes": [
                        "Avatar"
                      ]
                    }
                  ],
                  "successActions": [
                    {
                      "$type": "PELJALPANCA",
                      "target": "Target",
                      "modifierName": "TransparentEel_Watcher"
                    }
                  ],
                  "failActions": [
                    {
                      "$type": "PELJALPANCA",
                      "target": "TargetOriginOwner",
                      "modifierName": "TransparentEel_Watcher"
                    }
                  ]
                }
              ]
            }
          ]
        },
        "TransparentEel_Watcher": {
          "modifierName": "",
          "elementDurability": 1.0,
          "IPFJJJGABPL": 100.0,
          "onAdded": [
            {
              "$type": "HCLAKBJKPLE",
              "watcherId": 10161,
              "authorityOnly": true
            }
          ]
        },
        "DeadState": {
          "modifierName": "",
          "IPFJJJGABPL": 100.0,
          "onAdded": [
            {
              "$type": "KBFEIHEAMBM",
              "rotationDampTime": "Eff_SceneObj_Area_Fd_Property_Ani_Prop_TransparentEel_02",
              "born": {
                "$type": "KLPANPDGHHA",
                "useRotation": true,
                "attachPointName": "RootNode"
              },
              "PPPDJGDDOGD": 1.0,
              "AJDILHJFNKE": -1.0
            },
            {
              "$type": "HPIDNBEGJLL",
              "state": 203
            }
          ]
        },
        "AfterDeadState": {
          "modifierName": "",
          "IPFJJJGABPL": 100.0,
          "onAdded": [
            {
              "$type": "NCFFNDHGCMH"
            }
          ]
        }
      }
    }
  }
]