[
  {
    "Default": {
      "$type": "CBPBEHLOHKI",
      "abilityName": "SceneObj_Area_Common_Property_Ani_Prop_SandStacks_Interact",
      "modifiers": {
        "NormalModifier": {
          "modifierName": "",
          "IPFJJJGABPL": 100.0,
          "onBeingHit": [
            {
              "$type": "JLDEMMJAMLC",
              "predicates": [
                {
                  "$type": "PNLEEOAGKLD",
                  "element": "Wind"
                }
              ],
              "modifierName": "ElementWindModifier"
            }
          ]
        },
        "ElementWindModifier": {
          "modifierName": "",
          "elementDurability": 2.0,
          "IPFJJJGABPL": 100.0,
          "onAdded": [
            {
              "$type": "KBFEIHEAMBM",
              "rotationDampTime": "Eff_SceneObj_SandStacks_01_BlowOff",
              "born": {
                "$type": "KLPANPDGHHA",
                "attachPointName": "AttachPoint"
              },
              "PPPDJGDDOGD": 1.0,
              "AJDILHJFNKE": -1.0
            },
            {
              "$type": "BLCCGIPAOIP",
              "PLLJBINMGJK": "DieTrigger"
            }
          ],
          "onRemoved": [
            {
              "$type": "NCFFNDHGCMH"
            }
          ]
        }
      },
      "onAdded": [
        {
          "$type": "OPAOGKPJLIG",
          "resistanceListID": 14005
        },
        {
          "$type": "OPAOGKPJLIG",
          "resistanceListID": 14002
        },
        {
          "$type": "JLDEMMJAMLC",
          "modifierName": "NormalModifier"
        },
        {
          "$type": "LCOEFEMOHLP",
          "param3": 1.0,
          "key": "_ABILITY_BURNING_IGNITE_ONLY",
          "useLimitRange": true,
          "param2": 1.0,
          "repeatTimes": 1.0
        }
      ]
    }
  },
  {
    "Default": {
      "$type": "CBPBEHLOHKI",
      "abilityName": "SceneObj_Area_Common_Property_Ani_Prop_SandStacksInteraction_01",
      "abilityMixins": [
        {
          "$type": "BPKALFNJLIG",
          "gadgetState": 201,
          "modifierName": "ElementWindModifier"
        }
      ],
      "modifiers": {
        "NormalModifier": {
          "modifierName": "",
          "IPFJJJGABPL": 100.0
        },
        "ElementWindModifier": {
          "modifierName": "",
          "elementDurability": 2.0,
          "IPFJJJGABPL": 100.0,
          "onAdded": [
            {
              "$type": "KBFEIHEAMBM",
              "rotationDampTime": "Eff_SceneObj_SandStacks_01_BlowOff",
              "born": {
                "$type": "KLPANPDGHHA",
                "attachPointName": "AttachPoint"
              },
              "PPPDJGDDOGD": 1.0,
              "AJDILHJFNKE": -1.0
            },
            {
              "$type": "BLCCGIPAOIP",
              "PLLJBINMGJK": "DieTrigger"
            }
          ],
          "onRemoved": [
            {
              "$type": "NCFFNDHGCMH"
            }
          ]
        }
      }
    }
  }
]