[
  {
    "Default": {
      "$type": "CBPBEHLOHKI",
      "abilityName": "SceneObj_Homeworld_Exterior_Common_Prop_Thing_TimerEnd_01_Ability",
      "abilityMixins": [
        {
          "$type": "BPKALFNJLIG",
          "gadgetState": 201,
          "modifierName": "ShowEnd"
        }
      ],
      "modifiers": {
        "ShowEnd": {
          "modifierName": "",
          "IPFJJJGABPL": 100.0,
          "onAdded": [
            {
              "$type": "ANLOBBMKNIJ",
              "rotationDampTime": "Eff_SceneObj_Thing_TimerEnd_01_Center",
              "PPPDJGDDOGD": 1.0,
              "AJDILHJFNKE": -1.0
            },
            {
              "$type": "ANLOBBMKNIJ",
              "rotationDampTime": "Eff_Quest_SiteInteract_01",
              "PPPDJGDDOGD": 1.0,
              "AJDILHJFNKE": -1.0
            }
          ]
        }
      }
    }
  },
  {
    "Default": {
      "$type": "CBPBEHLOHKI",
      "abilityName": "SceneObj_Homeworld_Exterior_Ly_Lamp_Build_ScoringShelf_01_Ability",
      "abilityMixins": [
        {
          "$type": "PHLKCMFKFIN",
          "globalValueKey": "SGV_ScoringShelf_01",
          "valueSteps": [
            -1.0,
            0.5,
            20.0
          ],
          "modifierNameSteps": [
            "Light_Off",
            "Light_01_On"
          ]
        },
        {
          "$type": "PHLKCMFKFIN",
          "globalValueKey": "SGV_ScoringShelf_01",
          "valueSteps": [
            1.5,
            20.0
          ],
          "modifierNameSteps": [
            "Light_02_On"
          ]
        },
        {
          "$type": "PHLKCMFKFIN",
          "globalValueKey": "SGV_ScoringShelf_01",
          "valueSteps": [
            2.5,
            20.0
          ],
          "modifierNameSteps": [
            "Light_03_On"
          ]
        },
        {
          "$type": "PHLKCMFKFIN",
          "globalValueKey": "SGV_ScoringShelf_01",
          "valueSteps": [
            3.5,
            20.0
          ],
          "modifierNameSteps": [
            "Light_04_On"
          ]
        },
        {
          "$type": "PHLKCMFKFIN",
          "globalValueKey": "SGV_ScoringShelf_01",
          "valueSteps": [
            4.5,
            20.0
          ],
          "modifierNameSteps": [
            "Light_05_On"
          ]
        },
        {
          "$type": "PHLKCMFKFIN",
          "globalValueKey": "SGV_ScoringShelf_01",
          "valueSteps": [
            5.5,
            20.0
          ],
          "modifierNameSteps": [
            "Light_06_On"
          ]
        },
        {
          "$type": "PHLKCMFKFIN",
          "globalValueKey": "SGV_ScoringShelf_01",
          "valueSteps": [
            6.5,
            20.0
          ],
          "modifierNameSteps": [
            "Light_07_On"
          ]
        },
        {
          "$type": "PHLKCMFKFIN",
          "globalValueKey": "SGV_ScoringShelf_01",
          "valueSteps": [
            7.5,
            20.0
          ],
          "modifierNameSteps": [
            "Light_08_On"
          ]
        },
        {
          "$type": "PHLKCMFKFIN",
          "globalValueKey": "SGV_ScoringShelf_01",
          "valueSteps": [
            8.5,
            20.0
          ],
          "modifierNameSteps": [
            "Light_09_On"
          ]
        },
        {
          "$type": "PHLKCMFKFIN",
          "globalValueKey": "SGV_ScoringShelf_01",
          "valueSteps": [
            9.5,
            20.0
          ],
          "modifierNameSteps": [
            "Light_10_On"
          ]
        }
      ],
      "modifiers": {
        "Light_Off": {
          "modifierName": "",
          "IPFJJJGABPL": 100.0
        },
        "Light_01_On": {
          "modifierName": "",
          "IPFJJJGABPL": 100.0,
          "onAdded": [
            {
              "$type": "ANNOBMCGOEC",
              "canBeHandledOnRecover": true,
              "matName": "Point1",
              "EKHLCLJELIP": "_EmissionStrength",
              "param3": 3.0
            }
          ],
          "onRemoved": [
            {
              "$type": "ANNOBMCGOEC",
              "matName": "Point1",
              "EKHLCLJELIP": "_EmissionStrength",
              "param3": 0.0
            }
          ]
        },
        "Light_02_On": {
          "modifierName": "",
          "IPFJJJGABPL": 100.0,
          "onAdded": [
            {
              "$type": "ANNOBMCGOEC",
              "canBeHandledOnRecover": true,
              "matName": "Point2",
              "EKHLCLJELIP": "_EmissionStrength",
              "param3": 3.0
            }
          ],
          "onRemoved": [
            {
              "$type": "ANNOBMCGOEC",
              "matName": "Point2",
              "EKHLCLJELIP": "_EmissionStrength",
              "param3": 0.0
            }
          ]
        },
        "Light_03_On": {
          "modifierName": "",
          "IPFJJJGABPL": 100.0,
          "onAdded": [
            {
              "$type": "ANNOBMCGOEC",
              "canBeHandledOnRecover": true,
              "matName": "Point3",
              "EKHLCLJELIP": "_EmissionStrength",
              "param3": 3.0
            }
          ],
          "onRemoved": [
            {
              "$type": "ANNOBMCGOEC",
              "matName": "Point3",
              "EKHLCLJELIP": "_EmissionStrength",
              "param3": 0.0
            }
          ]
        },
        "Light_04_On": {
          "modifierName": "",
          "IPFJJJGABPL": 100.0,
          "onAdded": [
            {
              "$type": "ANNOBMCGOEC",
              "canBeHandledOnRecover": true,
              "matName": "Point4",
              "EKHLCLJELIP": "_EmissionStrength",
              "param3": 3.0
            }
          ],
          "onRemoved": [
            {
              "$type": "ANNOBMCGOEC",
              "matName": "Point4",
              "EKHLCLJELIP": "_EmissionStrength",
              "param3": 0.0
            }
          ]
        },
        "Light_05_On": {
          "modifierName": "",
          "IPFJJJGABPL": 100.0,
          "onAdded": [
            {
              "$type": "ANNOBMCGOEC",
              "canBeHandledOnRecover": true,
              "matName": "Point5",
              "EKHLCLJELIP": "_EmissionStrength",
              "param3": 3.0
            }
          ],
          "onRemoved": [
            {
              "$type": "ANNOBMCGOEC",
              "matName": "Point5",
              "EKHLCLJELIP": "_EmissionStrength",
              "param3": 0.0
            }
          ]
        },
        "Light_06_On": {
          "modifierName": "",
          "IPFJJJGABPL": 100.0,
          "onAdded": [
            {
              "$type": "ANNOBMCGOEC",
              "canBeHandledOnRecover": true,
              "matName": "Point6",
              "EKHLCLJELIP": "_EmissionStrength",
              "param3": 3.0
            }
          ],
          "onRemoved": [
            {
              "$type": "ANNOBMCGOEC",
              "matName": "Point6",
              "EKHLCLJELIP": "_EmissionStrength",
              "param3": 0.0
            }
          ]
        },
        "Light_07_On": {
          "modifierName": "",
          "IPFJJJGABPL": 100.0,
          "onAdded": [
            {
              "$type": "ANNOBMCGOEC",
              "canBeHandledOnRecover": true,
              "matName": "Point7",
              "EKHLCLJELIP": "_EmissionStrength",
              "param3": 3.0
            }
          ],
          "onRemoved": [
            {
              "$type": "ANNOBMCGOEC",
              "matName": "Point7",
              "EKHLCLJELIP": "_EmissionStrength",
              "param3": 0.0
            }
          ]
        },
        "Light_08_On": {
          "modifierName": "",
          "IPFJJJGABPL": 100.0,
          "onAdded": [
            {
              "$type": "ANNOBMCGOEC",
              "canBeHandledOnRecover": true,
              "matName": "Point8",
              "EKHLCLJELIP": "_EmissionStrength",
              "param3": 3.0
            }
          ],
          "onRemoved": [
            {
              "$type": "ANNOBMCGOEC",
              "matName": "Point8",
              "EKHLCLJELIP": "_EmissionStrength",
              "param3": 0.0
            }
          ]
        },
        "Light_09_On": {
          "modifierName": "",
          "IPFJJJGABPL": 100.0,
          "onAdded": [
            {
              "$type": "ANNOBMCGOEC",
              "canBeHandledOnRecover": true,
              "matName": "Point9",
              "EKHLCLJELIP": "_EmissionStrength",
              "param3": 3.0
            }
          ],
          "onRemoved": [
            {
              "$type": "ANNOBMCGOEC",
              "matName": "Point9",
              "EKHLCLJELIP": "_EmissionStrength",
              "param3": 0.0
            }
          ]
        },
        "Light_10_On": {
          "modifierName": "",
          "IPFJJJGABPL": 100.0,
          "onAdded": [
            {
              "$type": "ANNOBMCGOEC",
              "canBeHandledOnRecover": true,
              "matName": "Point10",
              "EKHLCLJELIP": "_EmissionStrength",
              "param3": 3.0
            }
          ],
          "onRemoved": [
            {
              "$type": "ANNOBMCGOEC",
              "matName": "Point10",
              "EKHLCLJELIP": "_EmissionStrength",
              "param3": 0.0
            }
          ]
        }
      }
    }
  },
  {
    "Default": {
      "$type": "CBPBEHLOHKI",
      "abilityName": "SceneObj_Homeworld_Exterior_Ly_Thing_Build_Scoringpedal_01_Ability",
      "abilitySpecials": {
        "CDTime": 2.0
      },
      "modifiers": {
        "OnHomeWorld": {
          "modifierName": "",
          "IPFJJJGABPL": 100.0,
          "modifierMixins": [
            {
              "$type": "MLJAPFBGEEH",
              "globalValueKey": "_Entity_Enter_Field",
              "gvInTalk": 0.0,
              "valueSteps": [
                -0.5,
                0.5,
                1.5
              ],
              "modifierNameSteps": [
                "HintLight",
                "Empty"
              ]
            }
          ]
        },
        "Empty": {
          "modifierName": "",
          "IPFJJJGABPL": 100.0
        },
        "HintLight": {
          "modifierName": "",
          "IPFJJJGABPL": 100.0,
          "onAdded": [
            {
              "$type": "ANLOBBMKNIJ",
              "predicates": [
                {
                  "$type": "CNGGLKHONAA",
                  "key": "_ABILITY_Scoringpedal_01",
                  "param3": 0.0
                }
              ],
              "rotationDampTime": "Eff_SceneObj_Homeworld_Scoringpedal_01",
              "PPPDJGDDOGD": 1.0,
              "AJDILHJFNKE": 101.0
            },
            {
              "$type": "ANLOBBMKNIJ",
              "predicates": [
                {
                  "$type": "CNGGLKHONAA",
                  "key": "_ABILITY_Scoringpedal_01",
                  "param3": 1.0
                }
              ],
              "rotationDampTime": "Eff_SceneObj_Homeworld_Scoringpedal_01",
              "PPPDJGDDOGD": 1.0,
              "AJDILHJFNKE": 102.0
            },
            {
              "$type": "ANLOBBMKNIJ",
              "predicates": [
                {
                  "$type": "CNGGLKHONAA",
                  "key": "_ABILITY_Scoringpedal_01",
                  "param3": 2.0
                }
              ],
              "rotationDampTime": "Eff_SceneObj_Homeworld_Scoringpedal_01",
              "PPPDJGDDOGD": 1.0,
              "AJDILHJFNKE": 103.0
            },
            {
              "$type": "ANLOBBMKNIJ",
              "predicates": [
                {
                  "$type": "CNGGLKHONAA",
                  "key": "_ABILITY_Scoringpedal_01",
                  "param3": 3.0
                }
              ],
              "rotationDampTime": "Eff_SceneObj_Homeworld_Scoringpedal_01",
              "PPPDJGDDOGD": 1.0,
              "AJDILHJFNKE": 104.0
            }
          ]
        },
        "EntityEnter": {
          "modifierName": "",
          "elementDurability": "CDTime",
          "IPFJJJGABPL": 100.0,
          "onAdded": [
            {
              "$type": "BOBCOJHOKKD",
              "param3": 1.0,
              "key": "_Entity_Enter_Field",
              "param2": 0.0,
              "repeatTimes": 0.0
            },
            {
              "$type": "AHPEKICBIIL",
              "predicates": [
                {
                  "$type": "CNGGLKHONAA",
                  "key": "_Entity_Enter_Field",
                  "param3": 1.0
                }
              ],
              "luaCallType": "FromGroup",
              "funcName": "EnterField",
              "param1": 0.0,
              "MGAMDEHMCOL": 0.0,
              "MMHOHAOGPLP": 0.0
            },
            {
              "$type": "ANNOBMCGOEC",
              "matName": "Pedal",
              "EKHLCLJELIP": "_EmissionStrength",
              "param3": 10.0
            }
          ],
          "onRemoved": [
            {
              "$type": "BOBCOJHOKKD",
              "param3": 0.0,
              "key": "_Entity_Enter_Field",
              "param2": 0.0,
              "repeatTimes": 0.0
            },
            {
              "$type": "ANNOBMCGOEC",
              "matName": "Pedal",
              "EKHLCLJELIP": "_EmissionStrength",
              "param3": 0.0
            }
          ]
        }
      },
      "onAdded": [
        {
          "$type": "JLDEMMJAMLC",
          "modifierName": "OnHomeWorld"
        }
      ],
      "onFieldEnter": [
        {
          "$type": "INBCDALOHMP",
          "target": "Target",
          "targetPredicates": [
            {
              "$type": "NIMAPECDNKD",
              "entityTypes": [
                "Avatar",
                "Monster"
              ]
            }
          ],
          "successActions": [
            {
              "$type": "PELJALPANCA",
              "predicates": [
                {
                  "$type": "CNGGLKHONAA",
                  "target": "Self",
                  "key": "_Entity_Enter_Field",
                  "param3": 0.0,
                  "compareType": "NoneOrEqual"
                }
              ],
              "modifierName": "EntityEnter"
            }
          ]
        }
      ]
    }
  },
  {
    "Default": {
      "$type": "CBPBEHLOHKI",
      "abilityName": "SceneObj_Homeworld_Exterior_Ly_Thing_Build_Scoringpedal_01_Green",
      "onAdded": [
        {
          "$type": "BOBCOJHOKKD",
          "param3": 0.0,
          "key": "_ABILITY_Scoringpedal_01",
          "param2": 0.0,
          "repeatTimes": 0.0
        }
      ]
    }
  },
  {
    "Default": {
      "$type": "CBPBEHLOHKI",
      "abilityName": "SceneObj_Homeworld_Exterior_Ly_Thing_Build_Scoringpedal_01_Blue",
      "onAdded": [
        {
          "$type": "BOBCOJHOKKD",
          "param3": 1.0,
          "key": "_ABILITY_Scoringpedal_01",
          "param2": 0.0,
          "repeatTimes": 0.0
        }
      ]
    }
  },
  {
    "Default": {
      "$type": "CBPBEHLOHKI",
      "abilityName": "SceneObj_Homeworld_Exterior_Ly_Thing_Build_Scoringpedal_01_Yellow",
      "onAdded": [
        {
          "$type": "BOBCOJHOKKD",
          "param3": 2.0,
          "key": "_ABILITY_Scoringpedal_01",
          "param2": 0.0,
          "repeatTimes": 0.0
        }
      ]
    }
  },
  {
    "Default": {
      "$type": "CBPBEHLOHKI",
      "abilityName": "SceneObj_Homeworld_Exterior_Ly_Thing_Build_Scoringpedal_01_Red",
      "onAdded": [
        {
          "$type": "BOBCOJHOKKD",
          "param3": 3.0,
          "key": "_ABILITY_Scoringpedal_01",
          "param2": 0.0,
          "repeatTimes": 0.0
        }
      ]
    }
  },
  {
    "Default": {
      "$type": "CBPBEHLOHKI",
      "abilityName": "SceneObj_Homeworld_Exterior_Common_Thing_Prop_BalloonArea_01",
      "abilityMixins": [
        {
          "$type": "HPBKCIGDEBG",
          "editorModifierNames": [
            "ShowMode"
          ],
          "worldModifierNames": [
            "HideMode"
          ]
        }
      ],
      "modifiers": {
        "ShowMode": {
          "modifierName": "",
          "IPFJJJGABPL": 100.0,
          "onAdded": [
            {
              "$type": "KMMLIOKPIKN",
              "shieldHP": true,
              "renderNames": [
                "Homescene_Common_Feature_SelectionBox_Balloon_Vo"
              ],
              "setEnable": true
            }
          ]
        },
        "HideMode": {
          "modifierName": "",
          "IPFJJJGABPL": 100.0,
          "onAdded": [
            {
              "$type": "KMMLIOKPIKN",
              "shieldHP": true,
              "renderNames": [
                "Homescene_Common_Feature_SelectionBox_Balloon_Vo"
              ]
            }
          ]
        }
      }
    }
  },
  {
    "Default": {
      "$type": "CBPBEHLOHKI",
      "abilityName": "SceneObj_Homeworld_Exterior_Common_Thing_Prop_BalloonLow_01",
      "modifiers": {
        "ScoreController": {
          "modifierName": "",
          "IPFJJJGABPL": 100.0,
          "onBeingHit": [
            {
              "$type": "AHPEKICBIIL",
              "luaCallType": "CurGalleryControlGroup",
              "funcName": "Homeworld_Gallery_ShootBalloon",
              "paramNum": 1,
              "param1": 1.0,
              "MGAMDEHMCOL": 0.0,
              "MMHOHAOGPLP": 0.0
            },
            {
              "$type": "BOBCOJHOKKD",
              "param3": 1.0,
              "key": "Has_Being_Hit",
              "param2": 0.0,
              "repeatTimes": 0.0
            },
            {
              "$type": "NCFFNDHGCMH"
            }
          ]
        }
      },
      "onAdded": [
        {
          "$type": "PELJALPANCA",
          "modifierName": "ScoreController"
        },
        {
          "$type": "BOBCOJHOKKD",
          "param3": 0.0,
          "key": "Has_Being_Hit",
          "param2": 0.0,
          "repeatTimes": 0.0
        },
        {
          "$type": "KBFEIHEAMBM",
          "rotationDampTime": "Eff_SceneObj_Ballon_Born",
          "PPPDJGDDOGD": 1.0,
          "AJDILHJFNKE": -1.0
        }
      ],
      "onKill": [
        {
          "$type": "KBFEIHEAMBM",
          "rotationDampTime": "Eff_SceneObj_BalloonLow_01",
          "PPPDJGDDOGD": 1.0,
          "AJDILHJFNKE": -1.0
        }
      ]
    }
  },
  {
    "Default": {
      "$type": "CBPBEHLOHKI",
      "abilityName": "SceneObj_Homeworld_Exterior_Common_Thing_Prop_BalloonHigh_01",
      "modifiers": {
        "ScoreController": {
          "modifierName": "",
          "IPFJJJGABPL": 100.0,
          "onBeingHit": [
            {
              "$type": "AHPEKICBIIL",
              "luaCallType": "CurGalleryControlGroup",
              "funcName": "Homeworld_Gallery_ShootBalloon",
              "paramNum": 1,
              "param1": 2.0,
              "MGAMDEHMCOL": 0.0,
              "MMHOHAOGPLP": 0.0
            },
            {
              "$type": "BOBCOJHOKKD",
              "param3": 1.0,
              "key": "Has_Being_Hit",
              "param2": 0.0,
              "repeatTimes": 0.0
            },
            {
              "$type": "NCFFNDHGCMH"
            }
          ]
        }
      },
      "onAdded": [
        {
          "$type": "PELJALPANCA",
          "modifierName": "ScoreController"
        },
        {
          "$type": "KBFEIHEAMBM",
          "rotationDampTime": "Eff_SceneObj_Ballon_Born",
          "PPPDJGDDOGD": 1.0,
          "AJDILHJFNKE": -1.0
        },
        {
          "$type": "BOBCOJHOKKD",
          "param3": 0.0,
          "key": "Has_Being_Hit",
          "param2": 0.0,
          "repeatTimes": 0.0
        }
      ],
      "onKill": [
        {
          "$type": "KBFEIHEAMBM",
          "rotationDampTime": "Eff_SceneObj_BalloonLow_01",
          "PPPDJGDDOGD": 1.0,
          "AJDILHJFNKE": -1.0
        }
      ]
    }
  },
  {
    "Default": {
      "$type": "CBPBEHLOHKI",
      "abilityName": "SceneObj_Homeworld_Exterior_Common_Thing_Prop_WoodenStake_01",
      "modifiers": {
        "BornEffect": {
          "modifierName": "",
          "IPFJJJGABPL": 100.0,
          "onAdded": [
            {
              "$type": "KBFEIHEAMBM",
              "rotationDampTime": "Eff_SceneObj_Homeworld_WoodenStake_01_Rebirth",
              "PPPDJGDDOGD": 1.0,
              "AJDILHJFNKE": -1.0
            }
          ]
        }
      },
      "onAdded": [
        {
          "$type": "PELJALPANCA",
          "modifierName": "BornEffect"
        }
      ]
    }
  }
]