[
  {
    "Default": {
      "$type": "CBPBEHLOHKI",
      "abilityName": "SceneObj_Level_Stage_Ptahur_TSKJ",
      "abilityMixins": [
        {
          "$type": "PHLKCMFKFIN",
          "globalValueKey": "SGV_SummonEff",
          "valueSteps": [
            -0.5,
            0.5,
            1.5
          ],
          "modifierNameSteps": [
            "Summon_Blank",
            "Summon_Eff"
          ],
          "NMCLMHFBALJ": true
        }
      ],
      "modifiers": {
        "Controller": {
          "modifierName": "",
          "IPFJJJGABPL": 100.0,
          "modifierMixins": [
            {
              "$type": "BPKALFNJLIG",
              "modifierName": "StageEff_1"
            },
            {
              "$type": "BPKALFNJLIG",
              "gadgetState": 201,
              "modifierName": "StageEff_2"
            },
            {
              "$type": "BPKALFNJLIG",
              "gadgetState": 202,
              "modifierName": "StageEff_3"
            },
            {
              "$type": "BPKALFNJLIG",
              "gadgetState": 203,
              "modifierName": "StageEff_4"
            }
          ],
          "onAdded": [
            {
              "$type": "ANLOBBMKNIJ",
              "rotationDampTime": "Eff_Stages_SceneObj_Level_Fd_Ptahur_TSKJ_PoSuiAll_01",
              "PPPDJGDDOGD": 1.0,
              "AJDILHJFNKE": -1.0
            }
          ]
        },
        "StageEff_1": {
          "modifierName": "",
          "IPFJJJGABPL": 100.0,
          "onAdded": [
            {
              "$type": "GFOOGEIKGBI",
              "parameter": "State",
              "attachPoint": "",
              "damageRatio": "Int",
              "rotationDampTime": "Eff_Stages_SceneObj_Level_Fd_Ptahur_TSKJ_PoSuiAll_01"
            }
          ],
          "onRemoved": [
            {
              "$type": "KBFEIHEAMBM",
              "rotationDampTime": "Eff_Stages_SceneObj_Level_Fd_Ptahur_TSKJ_PoSui_01_Once",
              "PPPDJGDDOGD": 1.0,
              "AJDILHJFNKE": -1.0
            }
          ]
        },
        "StageEff_2": {
          "modifierName": "",
          "IPFJJJGABPL": 100.0,
          "onAdded": [
            {
              "$type": "GFOOGEIKGBI",
              "parameter": "State",
              "attachPoint": "",
              "damageRatio": "Int",
              "value": 201,
              "rotationDampTime": "Eff_Stages_SceneObj_Level_Fd_Ptahur_TSKJ_PoSuiAll_01"
            }
          ],
          "onRemoved": [
            {
              "$type": "KBFEIHEAMBM",
              "rotationDampTime": "Eff_Stages_SceneObj_Level_Fd_Ptahur_TSKJ_PoSui_01_Once",
              "PPPDJGDDOGD": 1.0,
              "AJDILHJFNKE": -1.0
            }
          ]
        },
        "StageEff_3": {
          "modifierName": "",
          "IPFJJJGABPL": 100.0,
          "onAdded": [
            {
              "$type": "GFOOGEIKGBI",
              "parameter": "State",
              "attachPoint": "",
              "damageRatio": "Int",
              "value": 202,
              "rotationDampTime": "Eff_Stages_SceneObj_Level_Fd_Ptahur_TSKJ_PoSuiAll_01"
            }
          ],
          "onRemoved": [
            {
              "$type": "KBFEIHEAMBM",
              "rotationDampTime": "Eff_Stages_SceneObj_Level_Fd_Ptahur_TSKJ_PoSui_01_Once",
              "PPPDJGDDOGD": 1.0,
              "AJDILHJFNKE": -1.0
            }
          ]
        },
        "StageEff_4": {
          "modifierName": "",
          "IPFJJJGABPL": 100.0,
          "onAdded": [
            {
              "$type": "GFOOGEIKGBI",
              "parameter": "State",
              "attachPoint": "",
              "damageRatio": "Int",
              "value": 203,
              "rotationDampTime": "Eff_Stages_SceneObj_Level_Fd_Ptahur_TSKJ_PoSuiAll_01"
            }
          ]
        },
        "Summon_Blank": {
          "modifierName": "",
          "IPFJJJGABPL": 100.0
        },
        "Summon_Eff": {
          "modifierName": "",
          "IPFJJJGABPL": 100.0,
          "onAdded": [
            {
              "$type": "KBFEIHEAMBM",
              "rotationDampTime": "Eff_Stages_SceneObj_Level_Fd_Ptahur_TSKJ_Summon",
              "PPPDJGDDOGD": 1.0,
              "AJDILHJFNKE": -1.0
            }
          ]
        }
      },
      "onAdded": [
        {
          "$type": "JLDEMMJAMLC",
          "modifierName": "Controller"
        }
      ]
    }
  },
  {
    "Default": {
      "$type": "CBPBEHLOHKI",
      "abilityName": "SceneObj_Level_Decal_Ptahur_TSKJ",
      "abilityMixins": [
        {
          "$type": "BPKALFNJLIG",
          "modifierName": "Controller"
        }
      ],
      "modifiers": {
        "Controller": {
          "modifierName": "",
          "IPFJJJGABPL": 100.0,
          "onAdded": [
            {
              "$type": "ANLOBBMKNIJ",
              "rotationDampTime": "Eff_Stages_POI_Level_Fd_Th_Decal_01",
              "PPPDJGDDOGD": 1.0,
              "AJDILHJFNKE": -1.0
            }
          ]
        }
      }
    }
  }
]