{
  "luaDataPath": "",
  "isSimpleTalk": true,
  "entityBan": "",
  "disableNpcLod": true,
  "protectNpcMobileLod": true,
  "talkFlag": 5,
  "startFade": {
    "startFadeOutDuration": 0.0
  },
  "endFade": {
    "startFadeOutDuration": 0.0
  },
  "actors": [
    {
      "alias": "Avatar",
      "visible": true,
      "bornPointName": "",
      "relativePosType": "AVATAR_NEW",
      "relativePosNpcAlias": "",
      "_bindMovingTargetKey": ""
    },
    {
      "configID": 1005,
      "alias": "1005",
      "visible": true,
      "bornPointName": "",
      "useRelativePos": true,
      "relativePos": {
        "x": 0.5,
        "z": -0.5
      },
      "removeActorType": "NEW_REMOVE_WITH_DISAPPEAR",
      "relativePosType": "AVATAR_NEW",
      "relativePosNpcAlias": "",
      "_bindMovingTargetKey": ""
    },
    {
      "configID": 13247,
      "alias": "13247",
      "visible": true,
      "bornPointName": "",
      "relativePosType": "AVATAR_NEW",
      "relativePosNpcAlias": "",
      "_bindMovingTargetKey": ""
    }
  ],
  "group": [
    [
      {
        "$type": "FJKIHHKJLMJ",
        "type": "CAMERA_FOCUS",
        "duration": 0.10000000149011612,
        "actionId": 103,
        "targetNpcAlias": "",
        "KJOEFBPOIIH": "",
        "IICFKKEBIEC": "",
        "EGEHEJEBLBJ": ""
      },
      {
        "$type": "MoleMole.Config.ConfigTimeProtectAction",
        "type": "TIME_PROTECT",
        "duration": 0.10000000149011612,
        "actionId": 104
      },
      {
        "$type": "LLGANGLOEEO",
        "type": "STEER_TO",
        "delayTime": 0.30000001192092896,
        "duration": 0.800000011920929,
        "aliasList": [
          "Avatar"
        ],
        "actionId": 152,
        "_flag": 32,
        "steerType": "TO_TARGET_ADVANCED",
        "useSteerAnim": true,
        "interruptFreestyle": true,
        "targetNpcAlias": "13247",
        "fixInterNull": true,
        "OAFJBHJHLJG": ""
      },
      {
        "$type": "LLGANGLOEEO",
        "type": "STEER_TO",
        "delayTime": 0.30000001192092896,
        "duration": 0.800000011920929,
        "aliasList": [
          "13247"
        ],
        "actionId": 153,
        "_flag": 32,
        "steerType": "TO_LOCAL_AVATAR_ADVANCED",
        "useSteerAnim": true,
        "interruptFreestyle": true,
        "forceSteer": true,
        "targetNpcAlias": "",
        "fixInterNull": true,
        "OAFJBHJHLJG": ""
      }
    ],
    [
      {
        "$type": "PKKMAMONGEO",
        "type": "DIALOG",
        "aliasList": [
          "1005"
        ],
        "actionId": 107,
        "dialogID": 790411802,
        "protectTime": 0.5
      }
    ],
    [
      {
        "$type": "PKKMAMONGEO",
        "type": "DIALOG",
        "aliasList": [
          "13247"
        ],
        "actionId": 109,
        "dialogID": 790411803,
        "protectTime": 0.5
      }
    ],
    [
      {
        "$type": "PKKMAMONGEO",
        "type": "DIALOG",
        "aliasList": [
          "13247"
        ],
        "actionId": 111,
        "dialogID": 790411804,
        "protectTime": 0.5
      },
      {
        "$type": "HDGKHDNFMIM",
        "type": "DIALOG_SELECT",
        "delayTime": 0.4000000059604645,
        "aliasList": [
          "Avatar"
        ],
        "actionId": 112,
        "dialogIDList": [
          790411805,
          790411806
        ],
        "grpIDList": [
          366066008,
          366066008
        ],
        "useGrpId": true,
        "countDownGrpId": 366066003
      }
    ],
    [
      {
        "$type": "PKKMAMONGEO",
        "type": "DIALOG",
        "aliasList": [
          "1005"
        ],
        "actionId": 114,
        "dialogID": 790411807,
        "protectTime": 0.5
      }
    ],
    [
      {
        "$type": "PKKMAMONGEO",
        "type": "DIALOG",
        "aliasList": [
          "1005"
        ],
        "actionId": 116,
        "dialogID": 790411808,
        "protectTime": 0.5
      }
    ],
    [
      {
        "$type": "PKKMAMONGEO",
        "type": "DIALOG",
        "aliasList": [
          "1005"
        ],
        "actionId": 118,
        "dialogID": 790411809,
        "protectTime": 0.5
      }
    ],
    [
      {
        "$type": "PKKMAMONGEO",
        "type": "DIALOG",
        "aliasList": [
          "1005"
        ],
        "actionId": 120,
        "dialogID": 790411810,
        "protectTime": 0.5
      }
    ],
    [
      {
        "$type": "PKKMAMONGEO",
        "type": "DIALOG",
        "aliasList": [
          "13247"
        ],
        "actionId": 122,
        "dialogID": 790411811,
        "protectTime": 0.5
      }
    ],
    [
      {
        "$type": "PKKMAMONGEO",
        "type": "DIALOG",
        "aliasList": [
          "13247"
        ],
        "actionId": 124,
        "dialogID": 790411812,
        "protectTime": 0.5
      }
    ],
    [
      {
        "$type": "PKKMAMONGEO",
        "type": "DIALOG",
        "aliasList": [
          "13247"
        ],
        "actionId": 126,
        "dialogID": 790411813,
        "protectTime": 0.5
      }
    ],
    [
      {
        "$type": "PKKMAMONGEO",
        "type": "DIALOG",
        "aliasList": [
          "1005"
        ],
        "actionId": 128,
        "dialogID": 790411814,
        "protectTime": 0.5
      }
    ],
    [
      {
        "$type": "PKKMAMONGEO",
        "type": "DIALOG",
        "aliasList": [
          "1005"
        ],
        "actionId": 130,
        "dialogID": 790411815,
        "protectTime": 0.5
      }
    ],
    [
      {
        "$type": "PKKMAMONGEO",
        "type": "DIALOG",
        "aliasList": [
          "1005"
        ],
        "actionId": 132,
        "dialogID": 790411816,
        "protectTime": 0.5
      }
    ],
    [
      {
        "$type": "PKKMAMONGEO",
        "type": "DIALOG",
        "aliasList": [
          "13247"
        ],
        "actionId": 134,
        "dialogID": 790411817,
        "protectTime": 0.5
      }
    ],
    [
      {
        "$type": "PKKMAMONGEO",
        "type": "DIALOG",
        "aliasList": [
          "13247"
        ],
        "actionId": 136,
        "dialogID": 790411818,
        "protectTime": 0.5
      }
    ],
    [
      {
        "$type": "PKKMAMONGEO",
        "type": "DIALOG",
        "aliasList": [
          "13247"
        ],
        "actionId": 138,
        "dialogID": 790411819,
        "protectTime": 0.5
      }
    ],
    [
      {
        "$type": "PKKMAMONGEO",
        "type": "DIALOG",
        "aliasList": [
          "13247"
        ],
        "actionId": 140,
        "dialogID": 790411820,
        "protectTime": 0.5
      }
    ],
    [
      {
        "$type": "PKKMAMONGEO",
        "type": "DIALOG",
        "aliasList": [
          "13247"
        ],
        "actionId": 142,
        "dialogID": 790411821,
        "protectTime": 0.5
      },
      {
        "$type": "HDGKHDNFMIM",
        "type": "DIALOG_SELECT",
        "delayTime": 0.4000000059604645,
        "aliasList": [
          "Avatar"
        ],
        "actionId": 143,
        "dialogIDList": [
          790411822,
          790411823
        ],
        "grpIDList": [
          2758111611,
          2758111611
        ],
        "useGrpId": true,
        "countDownGrpId": 366066003
      }
    ],
    [
      {
        "$type": "PKKMAMONGEO",
        "type": "DIALOG",
        "aliasList": [
          "1005"
        ],
        "actionId": 145,
        "dialogID": 790411824,
        "protectTime": 0.5
      }
    ],
    [
      {
        "$type": "PKKMAMONGEO",
        "type": "DIALOG",
        "aliasList": [
          "1005"
        ],
        "actionId": 147,
        "dialogID": 790411825,
        "protectTime": 0.5
      }
    ],
    [
      {
        "$type": "PKKMAMONGEO",
        "type": "DIALOG",
        "aliasList": [
          "1005"
        ],
        "actionId": 149,
        "dialogID": 790411826,
        "protectTime": 0.5
      }
    ],
    [
      {
        "$type": "PKKMAMONGEO",
        "type": "DIALOG",
        "aliasList": [
          "13247"
        ],
        "actionId": 151,
        "dialogID": 790411827,
        "protectTime": 0.5
      }
    ],
    [
      {
        "$type": "MoleMole.Config.ConfigTimeProtectAction",
        "type": "TIME_PROTECT",
        "duration": 0.10000000149011612,
        "actionId": 105
      },
      {
        "$type": "LLGANGLOEEO",
        "type": "STEER_TO",
        "duration": 1.0,
        "aliasList": [
          "13247"
        ],
        "actionId": 154,
        "_flag": 32,
        "steerType": "RETURN",
        "useSteerAnim": true,
        "interruptFreestyle": true,
        "forceSteer": true,
        "targetNpcAlias": "",
        "ignoreY": true,
        "fixInterNull": true,
        "OAFJBHJHLJG": ""
      }
    ]
  ],
  "groupId": [
    {
      "grpId": 366066004,
      "nextGrpId": 366066005
    },
    {
      "index": 1,
      "grpId": 366066005,
      "nextGrpId": 366066006
    },
    {
      "index": 2,
      "grpId": 366066006,
      "nextGrpId": 366066007
    },
    {
      "index": 3,
      "grpId": 366066007,
      "nextGrpId": 366066008
    },
    {
      "index": 4,
      "grpId": 366066008,
      "nextGrpId": 366066009
    },
    {
      "index": 5,
      "grpId": 366066009,
      "nextGrpId": 366066010
    },
    {
      "index": 6,
      "grpId": 366066010,
      "nextGrpId": 366066011
    },
    {
      "index": 7,
      "grpId": 366066011,
      "nextGrpId": 366066012
    },
    {
      "index": 8,
      "grpId": 366066012,
      "nextGrpId": 2758111580
    },
    {
      "index": 9,
      "grpId": 2758111580,
      "nextGrpId": 2758111581
    },
    {
      "index": 10,
      "grpId": 2758111581,
      "nextGrpId": 2758111582
    },
    {
      "index": 11,
      "grpId": 2758111582,
      "nextGrpId": 2758111583
    },
    {
      "index": 12,
      "grpId": 2758111583,
      "nextGrpId": 2758111584
    },
    {
      "index": 13,
      "grpId": 2758111584,
      "nextGrpId": 2758111585
    },
    {
      "index": 14,
      "grpId": 2758111585,
      "nextGrpId": 2758111586
    },
    {
      "index": 15,
      "grpId": 2758111586,
      "nextGrpId": 2758111587
    },
    {
      "index": 16,
      "grpId": 2758111587,
      "nextGrpId": 2758111588
    },
    {
      "index": 17,
      "grpId": 2758111588,
      "nextGrpId": 2758111589
    },
    {
      "index": 18,
      "grpId": 2758111589,
      "nextGrpId": 2758111611
    },
    {
      "index": 19,
      "grpId": 2758111611,
      "nextGrpId": 2758111612
    },
    {
      "index": 20,
      "grpId": 2758111612,
      "nextGrpId": 2758111613
    },
    {
      "index": 21,
      "grpId": 2758111613,
      "nextGrpId": 2758111614
    },
    {
      "index": 22,
      "grpId": 2758111614,
      "nextGrpId": 2758111615
    },
    {
      "index": 23,
      "grpId": 2758111615,
      "nextGrpId": 2758111616
    }
  ],
  "freeStyleDic": {
    "13247": []
  }
}