{
  "gadgetConfigMap": {
    "0": {
      "maxCountInScene": 2048,
      "maxCountByPlayer": 2048,
      "isCombatDestroy": true
    },
    "2": {
      "maxCountInScene": 1000,
      "maxCountByPlayer": 1600,
      "isCombatDestroy": true
    },
    "4": {
      "maxCountInScene": 600,
      "maxCountByPlayer": 1600,
      "isCombatDestroy": true
    },
    "6": {
      "maxCountInScene": 600,
      "maxCountByPlayer": 1000,
      "isCombatDestroy": true
    },
    "8": {
      "maxCountInScene": 600,
      "maxCountByPlayer": 600,
      "isCombatDestroy": true
    }
  },
  "cdGroupConfigMap": {
    "0": {},
    "2": {},
    "4": {},
    "6": {},
    "8": {},
    "12": {},
    "10": {}
  }
}