{
  "luaDataPath": "",
  "dontUseDefaultFinish": true,
  "startBlackKeepTime": 0.5,
  "entityBan": "",
  "disableNpcLod": true,
  "isAutoBanNpc": true,
  "isBanWidgetPet": true,
  "protectNpcMobileLod": true,
  "talkFlag": 2151,
  "startFade": {
    "startFadeInDuration": 0.5,
    "startFadeOutDuration": 0.5
  },
  "endFade": {
    "startFadeOutDuration": 0.0
  },
  "actors": [
    {
      "alias": "Avatar",
      "visible": true,
      "bornPointName": "",
      "relativePosType": "AVATAR_NEW",
      "relativePosNpcAlias": "",
      "_notDestroyInTalk": true,
      "_bindMovingTargetKey": ""
    },
    {
      "alias": "AvatarNpc",
      "visible": true,
      "bornPointName": "[3_9576:-1434.964,275.855,7652.216]",
      "relativePos": {
        "x": -1431.85400390625,
        "y": 276.1319885253906,
        "z": 7668.68017578125
      },
      "relativeRot": {
        "y": 265.5679931640625
      },
      "removeActorType": "NEW_REMOVE",
      "relativePosType": "AVATAR_NEW",
      "relativePosNpcAlias": "",
      "_notDestroyInTalk": true,
      "_bindMovingTargetKey": "",
      "notDestroyInTalk": true
    },
    {
      "configID": 6175,
      "alias": "6175",
      "visible": true,
      "bornPointName": "",
      "forceCreateDaily": true,
      "relativePosType": "AVATAR_NEW",
      "relativePosNpcAlias": "",
      "_notDestroyInTalk": true,
      "_bindMovingTargetKey": ""
    },
    {
      "configID": 1005,
      "alias": "1005",
      "visible": true,
      "bornPointName": "[3_8486:-1435.777,276.016,7659.996,0.000,100.000,0.000]",
      "removeActorType": "NEW_REMOVE_WITH_DISAPPEAR",
      "relativePosType": "AVATAR_NEW",
      "relativePosNpcAlias": "",
      "_notDestroyInTalk": true,
      "_bindMovingTargetKey": ""
    },
    {
      "configID": 21460,
      "alias": "21460",
      "visible": true,
      "bornPointName": "",
      "relativePosType": "AVATAR_NEW",
      "relativePosNpcAlias": "",
      "_notDestroyInTalk": true,
      "_bindMovingTargetKey": ""
    }
  ],
  "group": [
    [
      {
        "$type": "MoleMole.Config.ConfigTimeProtectAction",
        "type": "TIME_PROTECT",
        "duration": 1.0,
        "actionId": 104
      },
      {
        "$type": "FABLGECDBCH",
        "type": "BODY_LANG",
        "aliasList": [
          "6175"
        ],
        "actionId": 130,
        "_flag": 131072,
        "isContinue": true,
        "forceDoFreeStyle": true,
        "canDoRepeatFreeStyle": false,
        "cantBackToIdleWhenSitLoop": true,
        "eventPatternSuiteKey": "",
        "FOHHKFAIAAJ": ""
      },
      {
        "$type": "FABLGECDBCH",
        "type": "BODY_LANG",
        "aliasList": [
          "1005"
        ],
        "actionId": 132,
        "_flag": 131072,
        "isContinue": true,
        "forceDoFreeStyle": true,
        "canDoRepeatFreeStyle": false,
        "cantBackToIdleWhenSitLoop": true,
        "eventPatternSuiteKey": "",
        "FOHHKFAIAAJ": ""
      },
      {
        "$type": "FABLGECDBCH",
        "type": "BODY_LANG",
        "aliasList": [
          "21460"
        ],
        "actionId": 134,
        "_flag": 131072,
        "isContinue": true,
        "forceDoFreeStyle": true,
        "canDoRepeatFreeStyle": false,
        "cantBackToIdleWhenSitLoop": true,
        "eventPatternSuiteKey": "",
        "FOHHKFAIAAJ": ""
      },
      {
        "$type": "MoleMole.Config.ConfigBlackScreenAction",
        "type": "BLACK_SCREEN",
        "duration": 1.0,
        "actionId": 136,
        "_flag": 2048,
        "blackScreenType": "KEEP_BLACK",
        "durationToBlack": 0.5,
        "durationKeepBlack": 1.0,
        "durationFromBlack": 0.5,
        "inteePos": "",
        "textMapID": "",
        "useTextFade": true,
        "showClickBtnDelayTime": 0.5,
        "waitClickBtnTipTime": 0.5,
        "_changeAudioState": true
      },
      {
        "$type": "MoleMole.Config.ConfigPlayerNPCEnergyTypeAction",
        "type": "SET_PLAYER_NPC_ENERGY_TYPE",
        "aliasList": [
          "AvatarNpc"
        ],
        "actionId": 140,
        "setHeroEngergyType": true
      },
      {
        "$type": "FABLGECDBCH",
        "type": "BODY_LANG",
        "aliasList": [
          "AvatarNpc"
        ],
        "actionId": 143,
        "_flag": 131072,
        "isContinue": true,
        "forceDoFreeStyle": true,
        "canDoRepeatFreeStyle": false,
        "cantBackToIdleWhenSitLoop": true,
        "eventPatternSuiteKey": "",
        "FOHHKFAIAAJ": ""
      },
      {
        "$type": "MoleMole.Config.ConfigVisibleInterAction",
        "type": "VISIBLE",
        "aliasList": [
          "Avatar"
        ],
        "actionId": 145,
        "_extraParam": ""
      },
      {
        "$type": "MoleMole.Config.ConfigTeleportToAction",
        "type": "TELEPORT_TO",
        "aliasList": [
          "AvatarNpc"
        ],
        "actionId": 147,
        "position": {
          "x": -1431.85400390625,
          "y": 276.1319885253906,
          "z": 7668.68017578125
        },
        "forward": {
          "x": -2.437999963760376,
          "y": -0.2770000100135803,
          "z": -0.1889999955892563
        },
        "openLongDisTeleport": true,
        "syncForward": true,
        "_posBindMovingTargetKey": "",
        "_forwardBindMovingTargetKey": ""
      },
      {
        "$type": "MoleMole.Config.ConfigTeleportToAction",
        "type": "TELEPORT_TO",
        "aliasList": [
          "6175"
        ],
        "actionId": 148,
        "position": {
          "x": -1446.780029296875,
          "y": 276.01300048828125,
          "z": 7658.6669921875
        },
        "forward": {
          "x": 1.065999984741211,
          "z": 0.4050000011920929
        },
        "openLongDisTeleport": true,
        "syncForward": true,
        "_posBindMovingTargetKey": "",
        "_forwardBindMovingTargetKey": ""
      },
      {
        "$type": "MoleMole.Config.ConfigTeleportToAction",
        "type": "TELEPORT_TO",
        "aliasList": [
          "1005"
        ],
        "actionId": 149,
        "position": {
          "x": -1431.9820556640625,
          "y": 276.0790100097656,
          "z": 7667.7431640625
        },
        "forward": {
          "x": -3.509000062942505,
          "y": -0.007000000216066837,
          "z": -0.5870000123977661
        },
        "openLongDisTeleport": true,
        "syncForward": true,
        "_posBindMovingTargetKey": "",
        "_forwardBindMovingTargetKey": ""
      },
      {
        "$type": "MoleMole.Config.ConfigTeleportToAction",
        "type": "TELEPORT_TO",
        "aliasList": [
          "21460"
        ],
        "actionId": 150,
        "position": {
          "x": -1435.2230224609375,
          "y": 276.0740051269531,
          "z": 7660.30419921875
        },
        "forward": {
          "x": 0.6389999985694885,
          "y": -0.028999999165534973,
          "z": -4.125
        },
        "openLongDisTeleport": true,
        "syncForward": true,
        "_posBindMovingTargetKey": "",
        "_forwardBindMovingTargetKey": ""
      },
      {
        "$type": "MoleMole.Config.ConfigLocalGadgetOP",
        "type": "LOCAL_GADGET_OP",
        "actionId": 167,
        "gadgetId": 73002108,
        "oprCode": 1,
        "slotName": "",
        "position": {
          "x": -1434.9639892578125,
          "y": 275.8550109863281,
          "z": 7652.2158203125
        },
        "gvKey": "",
        "_stateOnCreate": 0
      },
      {
        "$type": "LJLMDHDCAMK",
        "type": "LOOK_AT",
        "aliasList": [
          "AvatarNpc"
        ],
        "actionId": 170,
        "_flag": 64,
        "headTurnTime": 0.5,
        "targetNpcAlias": "",
        "openBackProtect": true,
        "backProtectAngle": 10.0,
        "targetNpcLookAtPoint": "",
        "OAFJBHJHLJG": ""
      },
      {
        "$type": "LJLMDHDCAMK",
        "type": "LOOK_AT",
        "aliasList": [
          "1005"
        ],
        "actionId": 171,
        "_flag": 64,
        "headTurnTime": 0.5,
        "targetNpcAlias": "",
        "openBackProtect": true,
        "backProtectAngle": 10.0,
        "targetNpcLookAtPoint": "",
        "OAFJBHJHLJG": ""
      },
      {
        "$type": "LJLMDHDCAMK",
        "type": "LOOK_AT",
        "aliasList": [
          "6175"
        ],
        "actionId": 172,
        "_flag": 64,
        "enableHead": true,
        "useTargetPos": true,
        "enableAbsolute": true,
        "targetPosition": {
          "x": -1445.4420166015625,
          "y": 276.78399658203125,
          "z": 7659.0458984375
        },
        "headTurnTime": 0.5,
        "targetNpcAlias": "",
        "lookAtTargetType": "NONE",
        "openBackProtect": true,
        "backProtectAngle": 10.0,
        "targetNpcLookAtPoint": "",
        "OAFJBHJHLJG": ""
      },
      {
        "$type": "CPJKOIHIPBE",
        "type": "EMO_SYNC",
        "aliasList": [
          "1005"
        ],
        "actionId": 177,
        "_flag": 320,
        "dataPath": "",
        "phonemePath": "Cs_Emo_Pet_Common/Cs_Emo_Paimon_Angry01",
        "emotionPath": "Cs_Emo_Pet_Common/Cs_Emo_Paimon_Angry02",
        "mateDataPath": "",
        "matePhonemePath": "",
        "mateEmotionPath": "",
        "phonemePathHashList": [
          8887624181441475292,
          18209086005751125871,
          3291038487434063407,
          2002509548947436691
        ],
        "emotionPathHashList": [
          13678406359050633773,
          17836843097490474413,
          7026439671547410784,
          1714183703031762171
        ],
        "FMDPBECPELH": "",
        "ADKBLPOKGIK": ""
      },
      {
        "$type": "CPJKOIHIPBE",
        "type": "EMO_SYNC",
        "aliasList": [
          "AvatarNpc"
        ],
        "actionId": 178,
        "_flag": 320,
        "dataPath": "",
        "phonemePath": "Cs_Emo_Avatar_Common/Cs_Emo_Avatar_Normal01",
        "emotionPath": "Cs_Emo_Avatar_Common/Cs_Emo_Avatar_Default01",
        "mateDataPath": "",
        "matePhonemePath": "",
        "mateEmotionPath": "",
        "phonemePathHashList": [
          9445916536337636767,
          14128686126614747219,
          10779105391569104182,
          11659242061757756269
        ],
        "emotionPathHashList": [
          17551147554270584215,
          11567349927864383394,
          11535483659151300012,
          3124390413002392171
        ],
        "FMDPBECPELH": "",
        "ADKBLPOKGIK": ""
      },
      {
        "$type": "LJLMDHDCAMK",
        "type": "LOOK_AT",
        "aliasList": [
          "21460"
        ],
        "actionId": 191,
        "_flag": 64,
        "headTurnTime": 0.5,
        "targetNpcAlias": "",
        "openBackProtect": true,
        "backProtectAngle": 10.0,
        "targetNpcLookAtPoint": "",
        "OAFJBHJHLJG": ""
      },
      {
        "$type": "MoleMole.Config.ConfigTeleportToAction",
        "type": "TELEPORT_TO",
        "aliasList": [
          "Avatar"
        ],
        "actionId": 203,
        "position": {
          "x": -1431.85400390625,
          "y": 276.1319885253906,
          "z": 7668.68017578125
        },
        "forward": {
          "x": -2.437999963760376,
          "y": -0.2770000100135803,
          "z": -0.1889999955892563
        },
        "openLongDisTeleport": true,
        "syncForward": true,
        "_posBindMovingTargetKey": "",
        "_forwardBindMovingTargetKey": ""
      }
    ],
    [
      {
        "$type": "PKKMAMONGEO",
        "type": "DIALOG_CLEAR",
        "actionId": 155
      },
      {
        "$type": "MoleMole.Config.ConfigSimpleUIShowInterAction",
        "type": "SIMPLE_UI_SHOW",
        "actionId": 157,
        "contextName": "General",
        "_param": "ART/UI/Menus/Dialog/MovieCanvasProDialog"
      },
      {
        "$type": "FJKIHHKJLMJ",
        "type": "CAMERA_MOVE",
        "duration": 0.5,
        "actionId": 210,
        "camPosOffset": {
          "x": -1436.362060546875,
          "y": 276.1830139160156,
          "z": 7654.166015625
        },
        "camForwardTargetOffset": {
          "x": -1435.76904296875,
          "y": 276.3680114746094,
          "z": 7653.3818359375
        },
        "lerpPattern": 6,
        "cameraBlendType": "EaseInOutCubic",
        "needZAxisRotate": true,
        "openCameraDither": false,
        "targetNpcAlias": "",
        "closeTreeLeafDither": true,
        "KJOEFBPOIIH": "",
        "IICFKKEBIEC": "",
        "EGEHEJEBLBJ": "",
        "cutFrameTrans": {
          "_elevMinValue": -50.0,
          "_elevMaxValue": 50.0,
          "_poleMinValue": -50.0,
          "_poleMaxValue": 50.0
        }
      },
      {
        "$type": "FJKIHHKJLMJ",
        "type": "CAMERA_MOVE",
        "delayTime": 1.0920000076293945,
        "duration": 0.5,
        "actionId": 211,
        "camPosOffset": {
          "x": -1436.4639892578125,
          "y": 276.2980041503906,
          "z": 7661.22607421875
        },
        "camForwardTargetOffset": {
          "x": -1435.8709716796875,
          "y": 276.4830017089844,
          "z": 7660.44189453125
        },
        "cameraBlendType": "EaseInOutQuad",
        "needZAxisRotate": true,
        "openCameraDither": false,
        "targetNpcAlias": "",
        "closeTreeLeafDither": true,
        "KJOEFBPOIIH": "",
        "IICFKKEBIEC": "",
        "EGEHEJEBLBJ": "",
        "cutFrameTrans": {
          "_elevMinValue": -50.0,
          "_elevMaxValue": 50.0,
          "_poleMinValue": -50.0,
          "_poleMaxValue": 50.0
        }
      },
      {
        "$type": "FJKIHHKJLMJ",
        "type": "CAMERA_MOVE",
        "delayTime": 1.5420000553131104,
        "duration": 1.2000000476837158,
        "actionId": 212,
        "camPosOffset": {
          "x": -1436.5360107421875,
          "y": 276.2749938964844,
          "z": 7661.32080078125
        },
        "camForwardTargetOffset": {
          "x": -1435.9429931640625,
          "y": 276.4599914550781,
          "z": 7660.537109375
        },
        "lerpPattern": 1,
        "cameraBlendType": "Linear",
        "needZAxisRotate": true,
        "openCameraDither": false,
        "targetNpcAlias": "",
        "closeTreeLeafDither": true,
        "KJOEFBPOIIH": "",
        "IICFKKEBIEC": "",
        "EGEHEJEBLBJ": "",
        "cutFrameTrans": {
          "_elevMinValue": -50.0,
          "_elevMaxValue": 50.0,
          "_poleMinValue": -50.0,
          "_poleMaxValue": 50.0
        }
      },
      {
        "$type": "MoleMole.Config.ConfigTimeProtectAction",
        "type": "TIME_PROTECT",
        "duration": 4.482999801635742,
        "actionId": 213
      },
      {
        "$type": "MoleMole.Config.ConfigBlackScreenAction",
        "type": "BLACK_SCREEN",
        "duration": 0.5,
        "actionId": 214,
        "_flag": 2048,
        "blackScreenType": "FROM_BLACK",
        "durationToBlack": 0.5,
        "durationKeepBlack": 0.5,
        "durationFromBlack": 0.5,
        "inteePos": "",
        "textMapID": "",
        "useTextFade": true,
        "showClickBtnDelayTime": 0.5,
        "waitClickBtnTipTime": 0.5,
        "_changeAudioState": true
      },
      {
        "$type": "MoleMole.Config.ConfigPlayPostEffectAction",
        "type": "PLAY_POST_EFFECT",
        "actionId": 258,
        "assetName": "Eff_Quest_SpeedLineWhite"
      },
      {
        "$type": "MoleMole.Config.ConfigLocalGadgetOP",
        "type": "LOCAL_GADGET_OP",
        "actionId": 260,
        "gadgetId": 73002108,
        "oprCode": 6,
        "slotName": "",
        "position": {
          "x": -1434.9639892578125,
          "y": 275.8550109863281,
          "z": 7652.2158203125
        },
        "gvKey": "",
        "gadgetState": 203,
        "_stateOnCreate": 201
      },
      {
        "$type": "MoleMole.Config.ConfigLocalGadgetOP",
        "type": "LOCAL_GADGET_OP",
        "delayTime": 0.5170000195503235,
        "actionId": 261,
        "gadgetId": 73002108,
        "oprCode": 6,
        "slotName": "",
        "position": {
          "x": -1434.9639892578125,
          "y": 275.8550109863281,
          "z": 7652.2158203125
        },
        "gvKey": "",
        "_stateOnCreate": 201
      },
      {
        "$type": "FJKIHHKJLMJ",
        "type": "CAMERA_MOVE",
        "delayTime": 0.20000000298023224,
        "duration": 0.5,
        "actionId": 262,
        "camPosOffset": {
          "x": -1436.362060546875,
          "y": 276.1830139160156,
          "z": 7654.166015625
        },
        "camForwardTargetOffset": {
          "x": -1435.9219970703125,
          "y": 276.78399658203125,
          "z": 7653.498046875
        },
        "cameraBlendType": "EaseInOutQuad",
        "needZAxisRotate": true,
        "openCameraDither": false,
        "targetNpcAlias": "",
        "closeTreeLeafDither": true,
        "KJOEFBPOIIH": "",
        "IICFKKEBIEC": "",
        "EGEHEJEBLBJ": "",
        "cutFrameTrans": {
          "_elevMinValue": -50.0,
          "_elevMaxValue": 50.0,
          "_poleMinValue": -50.0,
          "_poleMaxValue": 50.0
        }
      },
      {
        "$type": "FJKIHHKJLMJ",
        "type": "CAMERA_MOVE",
        "delayTime": 0.625,
        "duration": 0.5,
        "actionId": 263,
        "camPosOffset": {
          "x": -1436.362060546875,
          "y": 276.1830139160156,
          "z": 7654.166015625
        },
        "camForwardTargetOffset": {
          "x": -1435.76904296875,
          "y": 276.3680114746094,
          "z": 7653.3818359375
        },
        "lerpPattern": 1,
        "cameraBlendType": "EaseInOutCubic",
        "needZAxisRotate": true,
        "openCameraDither": false,
        "targetNpcAlias": "",
        "closeTreeLeafDither": true,
        "KJOEFBPOIIH": "",
        "IICFKKEBIEC": "",
        "EGEHEJEBLBJ": "",
        "cutFrameTrans": {
          "_elevMinValue": -50.0,
          "_elevMaxValue": 50.0,
          "_poleMinValue": -50.0,
          "_poleMaxValue": 50.0
        }
      },
      {
        "$type": "FJKIHHKJLMJ",
        "type": "CAMERA_MOVE",
        "delayTime": 2.742000102996826,
        "duration": 0.5,
        "actionId": 264,
        "camPosOffset": {
          "x": -1435.9849853515625,
          "y": 276.5559997558594,
          "z": 7659.0029296875
        },
        "camForwardTargetOffset": {
          "x": -1435.448974609375,
          "y": 276.6839904785156,
          "z": 7659.837890625
        },
        "camFov": 30.0,
        "lerpPattern": 6,
        "cameraBlendType": "EaseInOutCubic",
        "needZAxisRotate": true,
        "openCameraDither": false,
        "targetNpcAlias": "",
        "closeTreeLeafDither": true,
        "KJOEFBPOIIH": "",
        "IICFKKEBIEC": "",
        "EGEHEJEBLBJ": "",
        "cutFrameTrans": {
          "_elevMinValue": -50.0,
          "_elevMaxValue": 50.0,
          "_poleMinValue": -50.0,
          "_poleMaxValue": 50.0
        }
      },
      {
        "$type": "FABLGECDBCH",
        "type": "BODY_LANG",
        "delayTime": 2.8499999046325684,
        "aliasList": [
          "21460"
        ],
        "actionId": 265,
        "_flag": 131072,
        "bodyLangParam": 10,
        "forceDoFreeStyle": true,
        "canDoRepeatFreeStyle": false,
        "cantBackToIdleWhenSitLoop": true,
        "eventPatternSuiteKey": "",
        "FOHHKFAIAAJ": ""
      }
    ],
    [
      {
        "$type": "PKKMAMONGEO",
        "type": "DIALOG",
        "aliasList": [
          "1005"
        ],
        "actionId": 107,
        "dialogID": 750231201,
        "protectTime": 0.5
      },
      {
        "$type": "FJKIHHKJLMJ",
        "type": "CAMERA_MOVE",
        "duration": 0.5,
        "actionId": 146,
        "camPosOffset": {
          "x": -1436.97998046875,
          "y": 276.9809875488281,
          "z": 7668.673828125
        },
        "camForwardTargetOffset": {
          "x": -1436.06396484375,
          "y": 277.00201416015625,
          "z": 7669.07421875
        },
        "camFov": 30.0,
        "lerpPattern": 6,
        "cameraBlendType": "EaseInOutCubic",
        "needZAxisRotate": true,
        "openCameraDither": false,
        "targetNpcAlias": "",
        "closeTreeLeafDither": true,
        "KJOEFBPOIIH": "",
        "IICFKKEBIEC": "",
        "EGEHEJEBLBJ": "",
        "cutFrameTrans": {
          "_elevMinValue": -50.0,
          "_elevMaxValue": 50.0,
          "_poleMinValue": -50.0,
          "_poleMaxValue": 50.0
        }
      },
      {
        "$type": "MoleMole.Config.ConfigSimpleUIShowInterAction",
        "type": "SIMPLE_UI_SHOW",
        "actionId": 152,
        "contextName": "General",
        "isClose": true,
        "_param": "ART/UI/Menus/Dialog/MovieCanvasProDialog"
      },
      {
        "$type": "MoleMole.Config.ConfigLocalGadgetOP",
        "type": "LOCAL_GADGET_OP",
        "delayTime": 0.24199999868869781,
        "actionId": 168,
        "gadgetId": 73002108,
        "oprCode": 6,
        "slotName": "",
        "position": {
          "x": -1434.9639892578125,
          "y": 275.8550109863281,
          "z": 7652.2158203125
        },
        "gvKey": "",
        "gadgetState": 201,
        "_stateOnCreate": 201
      },
      {
        "$type": "MoleMole.Config.ConfigLocalGadgetOP",
        "type": "LOCAL_GADGET_OP",
        "actionId": 169,
        "gadgetId": 73002108,
        "oprCode": 6,
        "slotName": "",
        "position": {
          "x": -1434.9639892578125,
          "y": 275.8550109863281,
          "z": 7652.2158203125
        },
        "gvKey": "",
        "_stateOnCreate": 201
      },
      {
        "$type": "MoleMole.Config.ConfigMoveToAction",
        "type": "MOVE_TO",
        "aliasList": [
          "AvatarNpc"
        ],
        "actionId": 173,
        "moveType": "RUN",
        "routeList": [
          {
            "x": -1433.0870361328125,
            "y": 276.1029968261719,
            "z": 7668.67919921875
          }
        ],
        "exactlyMove": true,
        "closeNavMesh": true,
        "openSetPos": true,
        "_bindMovingTargetKey": "",
        "_delayTriggerNextTime": 0.30000001192092896
      },
      {
        "$type": "MoleMole.Config.ConfigMoveToAction",
        "type": "MOVE_TO",
        "aliasList": [
          "1005"
        ],
        "actionId": 175,
        "moveType": "RUN",
        "routeList": [
          {
            "x": -1433.1689453125,
            "y": 276.0559997558594,
            "z": 7667.93603515625
          }
        ],
        "exactlyMove": true,
        "closeNavMesh": true,
        "openSetPos": true,
        "_bindMovingTargetKey": "",
        "_delayTriggerNextTime": 0.30000001192092896
      },
      {
        "$type": "FJKIHHKJLMJ",
        "type": "CAMERA_MOVE",
        "delayTime": 0.10000000149011612,
        "duration": 0.5,
        "actionId": 176,
        "camPosOffset": {
          "x": -1434.6309814453125,
          "y": 277.2879943847656,
          "z": 7667.73095703125
        },
        "camForwardTargetOffset": {
          "x": -1433.7149658203125,
          "y": 277.3089904785156,
          "z": 7668.130859375
        },
        "camFov": 30.0,
        "cameraBlendType": "EaseInOutCubic",
        "needZAxisRotate": true,
        "openCameraDither": false,
        "targetNpcAlias": "",
        "closeTreeLeafDither": true,
        "KJOEFBPOIIH": "",
        "IICFKKEBIEC": "",
        "EGEHEJEBLBJ": "",
        "cutFrameTrans": {
          "_elevMinValue": -50.0,
          "_elevMaxValue": 50.0,
          "_poleMinValue": -50.0,
          "_poleMaxValue": 50.0
        }
      },
      {
        "$type": "FJKIHHKJLMJ",
        "type": "CAMERA_MOVE",
        "delayTime": 0.5669999718666077,
        "duration": 1.9249999523162842,
        "actionId": 179,
        "camPosOffset": {
          "x": -1434.5999755859375,
          "y": 277.3110046386719,
          "z": 7667.6640625
        },
        "camForwardTargetOffset": {
          "x": -1433.6839599609375,
          "y": 277.3320007324219,
          "z": 7668.06298828125
        },
        "camFov": 30.0,
        "lerpPattern": 2,
        "cameraBlendType": "EaseOutQuad",
        "needZAxisRotate": true,
        "openCameraDither": false,
        "targetNpcAlias": "",
        "closeTreeLeafDither": true,
        "KJOEFBPOIIH": "",
        "IICFKKEBIEC": "",
        "EGEHEJEBLBJ": "",
        "cutFrameTrans": {
          "_elevMinValue": -50.0,
          "_elevMaxValue": 50.0,
          "_poleMinValue": -50.0,
          "_poleMaxValue": 50.0
        }
      },
      {
        "$type": "FABLGECDBCH",
        "type": "BODY_LANG",
        "delayTime": 1.0579999685287476,
        "aliasList": [
          "1005"
        ],
        "actionId": 180,
        "_flag": 131072,
        "bodyLangParam": 1060,
        "forceDoFreeStyle": true,
        "canDoRepeatFreeStyle": false,
        "cantBackToIdleWhenSitLoop": true,
        "eventPatternSuiteKey": "",
        "FOHHKFAIAAJ": ""
      },
      {
        "$type": "MoleMole.Config.ConfigMoveToAction",
        "type": "MOVE_TO",
        "aliasList": [
          "Avatar"
        ],
        "actionId": 204,
        "moveType": "RUN",
        "routeList": [
          {
            "x": -1433.0870361328125,
            "y": 276.1029968261719,
            "z": 7668.67919921875
          }
        ],
        "exactlyMove": true,
        "closeNavMesh": true,
        "closeAvatarNavMesh": true,
        "openSetPos": true,
        "_bindMovingTargetKey": "",
        "_delayTriggerNextTime": 0.30000001192092896
      }
    ],
    [
      {
        "$type": "PKKMAMONGEO",
        "type": "DIALOG",
        "aliasList": [
          "6175"
        ],
        "actionId": 109,
        "dialogID": 750231202,
        "protectTime": 0.5
      },
      {
        "$type": "MoleMole.Config.ConfigLocalGadgetOP",
        "type": "LOCAL_GADGET_OP",
        "actionId": 161,
        "gadgetId": 73002108,
        "oprCode": 6,
        "slotName": "",
        "position": {
          "x": -1434.9639892578125,
          "y": 275.8550109863281,
          "z": 7652.2158203125
        },
        "gvKey": "",
        "gadgetState": 203,
        "_stateOnCreate": 201
      },
      {
        "$type": "FJKIHHKJLMJ",
        "type": "CAMERA_MOVE",
        "duration": 0.5,
        "actionId": 181,
        "camPosOffset": {
          "x": -1443.208984375,
          "y": 277.0459899902344,
          "z": 7659.38916015625
        },
        "camForwardTargetOffset": {
          "x": -1444.18994140625,
          "y": 277.1059875488281,
          "z": 7659.205078125
        },
        "camFov": 15.0,
        "lerpPattern": 6,
        "cameraBlendType": "EaseInOutCubic",
        "needZAxisRotate": true,
        "openCameraDither": false,
        "targetNpcAlias": "",
        "closeTreeLeafDither": true,
        "KJOEFBPOIIH": "",
        "IICFKKEBIEC": "",
        "EGEHEJEBLBJ": "",
        "cutFrameTrans": {
          "_elevMinValue": -50.0,
          "_elevMaxValue": 50.0,
          "_poleMinValue": -50.0,
          "_poleMaxValue": 50.0
        }
      },
      {
        "$type": "FABLGECDBCH",
        "type": "BODY_LANG",
        "delayTime": 1.1579999923706055,
        "aliasList": [
          "6175"
        ],
        "actionId": 183,
        "_flag": 131072,
        "bodyLangParam": 1130,
        "forceDoFreeStyle": true,
        "canDoRepeatFreeStyle": false,
        "cantBackToIdleWhenSitLoop": true,
        "eventPatternSuiteKey": "",
        "FOHHKFAIAAJ": ""
      },
      {
        "$type": "FJKIHHKJLMJ",
        "type": "CAMERA_MOVE",
        "delayTime": 0.10000000149011612,
        "duration": 0.5,
        "actionId": 184,
        "camPosOffset": {
          "x": -1443.196044921875,
          "y": 277.2430114746094,
          "z": 7659.38818359375
        },
        "camForwardTargetOffset": {
          "x": -1444.177001953125,
          "y": 277.3030090332031,
          "z": 7659.2041015625
        },
        "camFov": 15.0,
        "cameraBlendType": "EaseInOutQuad",
        "needZAxisRotate": true,
        "openCameraDither": false,
        "targetNpcAlias": "",
        "closeTreeLeafDither": true,
        "KJOEFBPOIIH": "",
        "IICFKKEBIEC": "",
        "EGEHEJEBLBJ": "",
        "cutFrameTrans": {
          "_elevMinValue": -50.0,
          "_elevMaxValue": 50.0,
          "_poleMinValue": -50.0,
          "_poleMaxValue": 50.0
        }
      },
      {
        "$type": "FJKIHHKJLMJ",
        "type": "CAMERA_MOVE",
        "delayTime": 0.550000011920929,
        "duration": 5.517000198364258,
        "actionId": 185,
        "camPosOffset": {
          "x": -1443.1949462890625,
          "y": 277.2659912109375,
          "z": 7659.38818359375
        },
        "camForwardTargetOffset": {
          "x": -1444.176025390625,
          "y": 277.32598876953125,
          "z": 7659.205078125
        },
        "camFov": 15.0,
        "lerpPattern": 1,
        "cameraBlendType": "EaseOutQuad",
        "needZAxisRotate": true,
        "openCameraDither": false,
        "targetNpcAlias": "",
        "closeTreeLeafDither": true,
        "KJOEFBPOIIH": "",
        "IICFKKEBIEC": "",
        "EGEHEJEBLBJ": "",
        "cutFrameTrans": {
          "_elevMinValue": -50.0,
          "_elevMaxValue": 50.0,
          "_poleMinValue": -50.0,
          "_poleMaxValue": 50.0
        }
      },
      {
        "$type": "LJLMDHDCAMK",
        "type": "LOOK_AT",
        "delayTime": 0.382999986410141,
        "aliasList": [
          "6175"
        ],
        "actionId": 186,
        "_flag": 64,
        "enableHead": true,
        "useTargetPos": true,
        "enableAbsolute": true,
        "targetPosition": {
          "x": -1444.865966796875,
          "y": 277.91900634765625,
          "z": 7659.10400390625
        },
        "headTurnTime": 0.5,
        "targetNpcAlias": "",
        "lookAtTargetType": "NONE",
        "openBackProtect": true,
        "backProtectAngle": 10.0,
        "targetNpcLookAtPoint": "",
        "OAFJBHJHLJG": ""
      },
      {
        "$type": "FABLGECDBCH",
        "type": "BODY_LANG",
        "aliasList": [
          "1005"
        ],
        "actionId": 187,
        "_flag": 131072,
        "isContinue": true,
        "forceDoFreeStyle": true,
        "canDoRepeatFreeStyle": false,
        "cantBackToIdleWhenSitLoop": true,
        "eventPatternSuiteKey": "",
        "FOHHKFAIAAJ": ""
      },
      {
        "$type": "FABLGECDBCH",
        "type": "BODY_LANG",
        "delayTime": 3.375,
        "aliasList": [
          "6175"
        ],
        "actionId": 188,
        "_flag": 131072,
        "isContinue": true,
        "forceDoFreeStyle": true,
        "canDoRepeatFreeStyle": false,
        "cantBackToIdleWhenSitLoop": true,
        "eventPatternSuiteKey": "",
        "FOHHKFAIAAJ": ""
      },
      {
        "$type": "MoleMole.Config.ConfigTeleportToAction",
        "type": "TELEPORT_TO",
        "aliasList": [
          "21460"
        ],
        "actionId": 190,
        "position": {
          "x": -1434.79296875,
          "y": 276.0899963378906,
          "z": 7661.5869140625
        },
        "forward": {
          "x": -0.16200000047683716,
          "z": -0.9869999885559082
        },
        "openLongDisTeleport": true,
        "syncForward": true,
        "_posBindMovingTargetKey": "",
        "_forwardBindMovingTargetKey": ""
      },
      {
        "$type": "LJLMDHDCAMK",
        "type": "LOOK_AT",
        "aliasList": [
          "21460"
        ],
        "actionId": 198,
        "_flag": 64,
        "enableHead": true,
        "useTargetPos": true,
        "enableAbsolute": true,
        "targetPosition": {
          "x": -1434.260009765625,
          "y": 276.5719909667969,
          "z": 7660.36279296875
        },
        "headTurnTime": 0.5,
        "targetNpcAlias": "",
        "lookAtTargetType": "NONE",
        "openBackProtect": true,
        "backProtectAngle": 10.0,
        "targetNpcLookAtPoint": "",
        "OAFJBHJHLJG": ""
      }
    ],
    [
      {
        "$type": "PKKMAMONGEO",
        "type": "DIALOG",
        "aliasList": [
          "6175"
        ],
        "actionId": 111,
        "dialogID": 750231203,
        "protectTime": 0.5
      },
      {
        "$type": "MoleMole.Config.ConfigSimpleUIShowInterAction",
        "type": "SIMPLE_UI_SHOW",
        "actionId": 153,
        "contextName": "General",
        "_param": "ART/UI/Menus/Dialog/MovieCanvasProDialog"
      },
      {
        "$type": "MoleMole.Config.ConfigLocalGadgetOP",
        "type": "LOCAL_GADGET_OP",
        "delayTime": 0.4580000042915344,
        "actionId": 162,
        "gadgetId": 73002108,
        "oprCode": 6,
        "slotName": "",
        "position": {
          "x": -1434.9639892578125,
          "y": 275.8550109863281,
          "z": 7652.2158203125
        },
        "gvKey": "",
        "gadgetState": 201,
        "_stateOnCreate": 201
      },
      {
        "$type": "MoleMole.Config.ConfigLocalGadgetOP",
        "type": "LOCAL_GADGET_OP",
        "actionId": 165,
        "gadgetId": 73002108,
        "oprCode": 6,
        "slotName": "",
        "position": {
          "x": -1434.9639892578125,
          "y": 275.8550109863281,
          "z": 7652.2158203125
        },
        "gvKey": "",
        "_stateOnCreate": 201
      },
      {
        "$type": "FABLGECDBCH",
        "type": "BODY_LANG",
        "aliasList": [
          "6175"
        ],
        "actionId": 189,
        "_flag": 131072,
        "isContinue": true,
        "forceDoFreeStyle": true,
        "canDoRepeatFreeStyle": false,
        "cantBackToIdleWhenSitLoop": true,
        "eventPatternSuiteKey": "",
        "FOHHKFAIAAJ": ""
      },
      {
        "$type": "FJKIHHKJLMJ",
        "type": "CAMERA_MOVE",
        "duration": 0.5,
        "actionId": 192,
        "camPosOffset": {
          "x": -1435.4139404296875,
          "y": 276.760986328125,
          "z": 7660.22021484375
        },
        "camForwardTargetOffset": {
          "x": -1434.9420166015625,
          "y": 276.6889953613281,
          "z": 7661.09814453125
        },
        "lerpPattern": 6,
        "cameraBlendType": "EaseInOutCubic",
        "needZAxisRotate": true,
        "openCameraDither": false,
        "targetNpcAlias": "",
        "closeTreeLeafDither": true,
        "KJOEFBPOIIH": "",
        "IICFKKEBIEC": "",
        "EGEHEJEBLBJ": "",
        "cutFrameTrans": {
          "_elevMinValue": -50.0,
          "_elevMaxValue": 50.0,
          "_poleMinValue": -50.0,
          "_poleMaxValue": 50.0
        }
      },
      {
        "$type": "FJKIHHKJLMJ",
        "type": "CAMERA_MOVE",
        "delayTime": 0.43299999833106995,
        "duration": 3.316999912261963,
        "actionId": 193,
        "camPosOffset": {
          "x": -1435.6600341796875,
          "y": 276.2770080566406,
          "z": 7658.52099609375
        },
        "camForwardTargetOffset": {
          "x": -1435.20703125,
          "y": 276.6319885253906,
          "z": 7659.337890625
        },
        "cameraBlendType": "EaseOutSine",
        "needZAxisRotate": true,
        "openCameraDither": false,
        "targetNpcAlias": "",
        "closeTreeLeafDither": true,
        "KJOEFBPOIIH": "",
        "IICFKKEBIEC": "",
        "EGEHEJEBLBJ": "",
        "cutFrameTrans": {
          "_elevMinValue": -50.0,
          "_elevMaxValue": 50.0,
          "_poleMinValue": -50.0,
          "_poleMaxValue": 50.0
        }
      },
      {
        "$type": "MoleMole.Config.ConfigMoveToAction",
        "type": "MOVE_TO",
        "aliasList": [
          "21460"
        ],
        "actionId": 194,
        "moveType": "WALK",
        "routeList": [
          {
            "x": -1435.1109619140625,
            "y": 276.08099365234375,
            "z": 7659.59814453125
          }
        ],
        "exactlyMove": true,
        "closeNavMesh": true,
        "openSetPos": true,
        "_bindMovingTargetKey": "",
        "_delayTriggerNextTime": 0.30000001192092896
      },
      {
        "$type": "MoleMole.Config.ConfigSetAnimatorSpeedAction",
        "type": "SET_ANIMATOR_SPEED",
        "aliasList": [
          "21460"
        ],
        "actionId": 195,
        "speedRatio": 0.5,
        "blendType": "EaseInOutQuad"
      },
      {
        "$type": "LJLMDHDCAMK",
        "type": "LOOK_AT",
        "aliasList": [
          "21460"
        ],
        "actionId": 196,
        "_flag": 64,
        "enableHead": true,
        "useTargetPos": true,
        "enableAbsolute": true,
        "targetPosition": {
          "x": -1435.3900146484375,
          "y": 277.0539855957031,
          "z": 7658.35498046875
        },
        "headTurnTime": 1.0,
        "targetNpcAlias": "",
        "lookAtTargetType": "NONE",
        "openBackProtect": true,
        "backProtectAngle": 10.0,
        "targetNpcLookAtPoint": "",
        "OAFJBHJHLJG": ""
      }
    ],
    [
      {
        "$type": "PKKMAMONGEO",
        "type": "DIALOG",
        "aliasList": [
          "6175"
        ],
        "actionId": 113,
        "dialogID": 750231204,
        "protectTime": 0.5
      },
      {
        "$type": "FABLGECDBCH",
        "type": "BODY_LANG",
        "delayTime": 0.21699999272823334,
        "aliasList": [
          "21460"
        ],
        "actionId": 207,
        "_flag": 131072,
        "bodyLangParam": 10,
        "forceDoFreeStyle": true,
        "canDoRepeatFreeStyle": false,
        "cantBackToIdleWhenSitLoop": true,
        "eventPatternSuiteKey": "",
        "FOHHKFAIAAJ": ""
      },
      {
        "$type": "MoleMole.Config.ConfigSetAnimatorSpeedAction",
        "type": "SET_ANIMATOR_SPEED",
        "duration": 0.5,
        "aliasList": [
          "21460"
        ],
        "actionId": 208,
        "speedRatio": 0.699999988079071,
        "blendType": "EaseInOutQuad"
      },
      {
        "$type": "FABLGECDBCH",
        "type": "BODY_LANG",
        "aliasList": [
          "21460"
        ],
        "actionId": 209,
        "_flag": 131072,
        "isContinue": true,
        "forceDoFreeStyle": true,
        "canDoRepeatFreeStyle": false,
        "cantBackToIdleWhenSitLoop": true,
        "eventPatternSuiteKey": "",
        "FOHHKFAIAAJ": ""
      },
      {
        "$type": "MoleMole.Config.ConfigLocalGadgetOP",
        "type": "LOCAL_GADGET_OP",
        "actionId": 266,
        "gadgetId": 73002108,
        "oprCode": 6,
        "slotName": "",
        "position": {
          "x": -1434.9639892578125,
          "y": 275.8550109863281,
          "z": 7652.2158203125
        },
        "gvKey": "",
        "_stateOnCreate": 201
      }
    ],
    [
      {
        "$type": "PKKMAMONGEO",
        "type": "DIALOG",
        "aliasList": [
          "6175"
        ],
        "actionId": 115,
        "dialogID": 750231205,
        "protectTime": 3.0
      },
      {
        "$type": "MoleMole.Config.ConfigLocalGadgetOP",
        "type": "LOCAL_GADGET_OP",
        "actionId": 216,
        "gadgetId": 73002108,
        "oprCode": 6,
        "slotName": "",
        "position": {
          "x": -1434.9639892578125,
          "y": 275.8550109863281,
          "z": 7652.2158203125
        },
        "gvKey": "",
        "gadgetState": 202,
        "_stateOnCreate": 201
      },
      {
        "$type": "FJKIHHKJLMJ",
        "type": "CAMERA_MOVE",
        "duration": 0.5,
        "actionId": 217,
        "camPosOffset": {
          "x": -1434.4649658203125,
          "y": 276.8330078125,
          "z": 7658.32421875
        },
        "camForwardTargetOffset": {
          "x": -1434.0570068359375,
          "y": 276.8330078125,
          "z": 7657.4111328125
        },
        "lerpPattern": 6,
        "cameraBlendType": "EaseInOutCubic",
        "needZAxisRotate": true,
        "openCameraDither": false,
        "targetNpcAlias": "",
        "closeTreeLeafDither": true,
        "KJOEFBPOIIH": "",
        "IICFKKEBIEC": "",
        "EGEHEJEBLBJ": "",
        "cutFrameTrans": {
          "_elevMinValue": -50.0,
          "_elevMaxValue": 50.0,
          "_poleMinValue": -50.0,
          "_poleMaxValue": 50.0
        }
      },
      {
        "$type": "FJKIHHKJLMJ",
        "type": "CAMERA_MOVE",
        "delayTime": 0.10000000149011612,
        "duration": 5.0,
        "actionId": 218,
        "camPosOffset": {
          "x": -1435.531005859375,
          "y": 276.34100341796875,
          "z": 7658.0048828125
        },
        "camForwardTargetOffset": {
          "x": -1435.0909423828125,
          "y": 276.46099853515625,
          "z": 7657.115234375
        },
        "cameraBlendType": "EaseOutQuad",
        "needZAxisRotate": true,
        "openCameraDither": false,
        "targetNpcAlias": "",
        "closeTreeLeafDither": true,
        "KJOEFBPOIIH": "",
        "IICFKKEBIEC": "",
        "EGEHEJEBLBJ": "",
        "cutFrameTrans": {
          "_elevMinValue": -50.0,
          "_elevMaxValue": 50.0,
          "_poleMinValue": -50.0,
          "_poleMaxValue": 50.0
        }
      },
      {
        "$type": "MoleMole.Config.ConfigLocalGadgetOP",
        "type": "LOCAL_GADGET_OP",
        "delayTime": 0.4580000042915344,
        "actionId": 220,
        "gadgetId": 73002108,
        "oprCode": 4,
        "slotName": "",
        "position": {
          "x": -1434.9639892578125,
          "y": 275.8550109863281,
          "z": 7652.2158203125
        },
        "gvKey": "",
        "moveDatas": [
          {
            "_targetPos": {
              "x": -1434.8160400390625,
              "y": 275.9490051269531,
              "z": 7655.13916015625
            },
            "time": 3.0
          }
        ],
        "gadgetState": 202,
        "_stateOnCreate": 201
      },
      {
        "$type": "MoleMole.Config.ConfigLocalGadgetOP",
        "type": "LOCAL_GADGET_OP",
        "delayTime": 2.881999969482422,
        "actionId": 221,
        "gadgetId": 73002108,
        "oprCode": 6,
        "slotName": "",
        "position": {
          "x": -1434.9639892578125,
          "y": 275.8550109863281,
          "z": 7652.2158203125
        },
        "gvKey": "",
        "_stateOnCreate": 201
      }
    ],
    [
      {
        "$type": "PKKMAMONGEO",
        "type": "DIALOG",
        "aliasList": [
          "6175"
        ],
        "actionId": 117,
        "dialogID": 750231206,
        "protectTime": 0.5
      },
      {
        "$type": "FJKIHHKJLMJ",
        "type": "CAMERA_MOVE",
        "duration": 0.5,
        "actionId": 222,
        "camPosOffset": {
          "x": -1440.3260498046875,
          "y": 276.3389892578125,
          "z": 7658.115234375
        },
        "camForwardTargetOffset": {
          "x": -1439.3389892578125,
          "y": 276.35699462890625,
          "z": 7657.9521484375
        },
        "lerpPattern": 6,
        "cameraBlendType": "EaseInOutCubic",
        "needZAxisRotate": true,
        "openCameraDither": false,
        "targetNpcAlias": "",
        "closeTreeLeafDither": true,
        "KJOEFBPOIIH": "",
        "IICFKKEBIEC": "",
        "EGEHEJEBLBJ": "",
        "cutFrameTrans": {
          "_elevMinValue": -50.0,
          "_elevMaxValue": 50.0,
          "_poleMinValue": -50.0,
          "_poleMaxValue": 50.0
        }
      },
      {
        "$type": "FJKIHHKJLMJ",
        "type": "CAMERA_MOVE",
        "delayTime": 0.10000000149011612,
        "duration": 5.0,
        "actionId": 223,
        "camPosOffset": {
          "x": -1440.322021484375,
          "y": 276.4960021972656,
          "z": 7658.158203125
        },
        "camForwardTargetOffset": {
          "x": -1439.3349609375,
          "y": 276.5140075683594,
          "z": 7657.9951171875
        },
        "cameraBlendType": "EaseOutQuad",
        "needZAxisRotate": true,
        "openCameraDither": false,
        "targetNpcAlias": "",
        "closeTreeLeafDither": true,
        "KJOEFBPOIIH": "",
        "IICFKKEBIEC": "",
        "EGEHEJEBLBJ": "",
        "cutFrameTrans": {
          "_elevMinValue": -50.0,
          "_elevMaxValue": 50.0,
          "_poleMinValue": -50.0,
          "_poleMaxValue": 50.0
        }
      }
    ],
    [
      {
        "$type": "PKKMAMONGEO",
        "type": "DIALOG",
        "aliasList": [
          "6175"
        ],
        "actionId": 119,
        "dialogID": 750231207,
        "protectTime": 0.5
      },
      {
        "$type": "FJKIHHKJLMJ",
        "type": "CAMERA_MOVE",
        "duration": 0.5,
        "actionId": 224,
        "camPosOffset": {
          "x": -1435.260986328125,
          "y": 276.4519958496094,
          "z": 7660.76806640625
        },
        "camForwardTargetOffset": {
          "x": -1435.157958984375,
          "y": 276.6340026855469,
          "z": 7659.7900390625
        },
        "lerpPattern": 6,
        "cameraBlendType": "EaseInOutCubic",
        "needZAxisRotate": true,
        "openCameraDither": false,
        "targetNpcAlias": "",
        "closeTreeLeafDither": true,
        "KJOEFBPOIIH": "",
        "IICFKKEBIEC": "",
        "EGEHEJEBLBJ": "",
        "cutFrameTrans": {
          "_elevMinValue": -50.0,
          "_elevMaxValue": 50.0,
          "_poleMinValue": -50.0,
          "_poleMaxValue": 50.0
        }
      },
      {
        "$type": "FJKIHHKJLMJ",
        "type": "CAMERA_MOVE",
        "delayTime": 0.10000000149011612,
        "duration": 5.0,
        "actionId": 225,
        "camPosOffset": {
          "x": -1436.1009521484375,
          "y": 276.40301513671875,
          "z": 7660.3837890625
        },
        "camForwardTargetOffset": {
          "x": -1435.5419921875,
          "y": 276.614013671875,
          "z": 7659.58203125
        },
        "cameraBlendType": "EaseOutQuad",
        "needZAxisRotate": true,
        "openCameraDither": false,
        "targetNpcAlias": "",
        "closeTreeLeafDither": true,
        "KJOEFBPOIIH": "",
        "IICFKKEBIEC": "",
        "EGEHEJEBLBJ": "",
        "cutFrameTrans": {
          "_elevMinValue": -50.0,
          "_elevMaxValue": 50.0,
          "_poleMinValue": -50.0,
          "_poleMaxValue": 50.0
        }
      }
    ],
    [
      {
        "$type": "PKKMAMONGEO",
        "type": "DIALOG",
        "aliasList": [
          "6175"
        ],
        "actionId": 121,
        "dialogID": 750231208,
        "protectTime": 0.5
      },
      {
        "$type": "FJKIHHKJLMJ",
        "type": "CAMERA_MOVE",
        "duration": 0.5,
        "actionId": 226,
        "camPosOffset": {
          "x": -1436.467041015625,
          "y": 276.5360107421875,
          "z": 7653.240234375
        },
        "camForwardTargetOffset": {
          "x": -1435.93798828125,
          "y": 276.61700439453125,
          "z": 7654.0849609375
        },
        "lerpPattern": 6,
        "cameraBlendType": "EaseInOutCubic",
        "needZAxisRotate": true,
        "openCameraDither": false,
        "targetNpcAlias": "",
        "closeTreeLeafDither": true,
        "KJOEFBPOIIH": "",
        "IICFKKEBIEC": "",
        "EGEHEJEBLBJ": "",
        "cutFrameTrans": {
          "_elevMinValue": -50.0,
          "_elevMaxValue": 50.0,
          "_poleMinValue": -50.0,
          "_poleMaxValue": 50.0
        }
      },
      {
        "$type": "FJKIHHKJLMJ",
        "type": "CAMERA_MOVE",
        "delayTime": 0.10000000149011612,
        "duration": 5.0,
        "actionId": 227,
        "camPosOffset": {
          "x": -1436.72705078125,
          "y": 276.5260009765625,
          "z": 7653.41015625
        },
        "camForwardTargetOffset": {
          "x": -1436.1180419921875,
          "y": 276.6099853515625,
          "z": 7654.19921875
        },
        "cameraBlendType": "EaseOutQuad",
        "needZAxisRotate": true,
        "openCameraDither": false,
        "targetNpcAlias": "",
        "closeTreeLeafDither": true,
        "KJOEFBPOIIH": "",
        "IICFKKEBIEC": "",
        "EGEHEJEBLBJ": "",
        "cutFrameTrans": {
          "_elevMinValue": -50.0,
          "_elevMaxValue": 50.0,
          "_poleMinValue": -50.0,
          "_poleMaxValue": 50.0
        }
      }
    ],
    [
      {
        "$type": "PKKMAMONGEO",
        "type": "DIALOG",
        "aliasList": [
          "6175"
        ],
        "actionId": 123,
        "dialogID": 750231209,
        "protectTime": 1.5
      },
      {
        "$type": "FJKIHHKJLMJ",
        "type": "CAMERA_MOVE",
        "duration": 0.5,
        "actionId": 228,
        "camPosOffset": {
          "x": -1445.1729736328125,
          "y": 277.3479919433594,
          "z": 7658.35498046875
        },
        "camForwardTargetOffset": {
          "x": -1446.1300048828125,
          "y": 277.4289855957031,
          "z": 7658.6318359375
        },
        "camFov": 30.0,
        "lerpPattern": 6,
        "cameraBlendType": "EaseInOutCubic",
        "needZAxisRotate": true,
        "openCameraDither": false,
        "targetNpcAlias": "",
        "closeTreeLeafDither": true,
        "KJOEFBPOIIH": "",
        "IICFKKEBIEC": "",
        "EGEHEJEBLBJ": "",
        "cutFrameTrans": {
          "_elevMinValue": -50.0,
          "_elevMaxValue": 50.0,
          "_poleMinValue": -50.0,
          "_poleMaxValue": 50.0
        }
      },
      {
        "$type": "FABLGECDBCH",
        "type": "BODY_LANG",
        "aliasList": [
          "6175"
        ],
        "actionId": 229,
        "_flag": 131072,
        "bodyLangParam": 1060,
        "forceDoFreeStyle": true,
        "canDoRepeatFreeStyle": false,
        "cantBackToIdleWhenSitLoop": true,
        "eventPatternSuiteKey": "",
        "FOHHKFAIAAJ": ""
      },
      {
        "$type": "FJKIHHKJLMJ",
        "type": "CAMERA_MOVE",
        "delayTime": 1.4210000038146973,
        "duration": 5.0,
        "actionId": 230,
        "camPosOffset": {
          "x": -1435.760009765625,
          "y": 276.5690002441406,
          "z": 7657.73388671875
        },
        "camForwardTargetOffset": {
          "x": -1434.761962890625,
          "y": 276.6109924316406,
          "z": 7657.69921875
        },
        "camFov": 30.0,
        "cameraBlendType": "EaseOutQuad",
        "needZAxisRotate": true,
        "openCameraDither": false,
        "targetNpcAlias": "",
        "closeTreeLeafDither": true,
        "KJOEFBPOIIH": "",
        "IICFKKEBIEC": "",
        "EGEHEJEBLBJ": "",
        "cutFrameTrans": {
          "_elevMinValue": -50.0,
          "_elevMaxValue": 50.0,
          "_poleMinValue": -50.0,
          "_poleMaxValue": 50.0
        }
      },
      {
        "$type": "FJKIHHKJLMJ",
        "type": "CAMERA_MOVE",
        "delayTime": 1.2999999523162842,
        "duration": 0.5,
        "actionId": 231,
        "camPosOffset": {
          "x": -1436.10302734375,
          "y": 276.5260009765625,
          "z": 7657.68310546875
        },
        "camForwardTargetOffset": {
          "x": -1435.10498046875,
          "y": 276.5679931640625,
          "z": 7657.64794921875
        },
        "camFov": 30.0,
        "lerpPattern": 6,
        "cameraBlendType": "EaseInOutCubic",
        "needZAxisRotate": true,
        "openCameraDither": false,
        "targetNpcAlias": "",
        "closeTreeLeafDither": true,
        "KJOEFBPOIIH": "",
        "IICFKKEBIEC": "",
        "EGEHEJEBLBJ": "",
        "cutFrameTrans": {
          "_elevMinValue": -50.0,
          "_elevMaxValue": 50.0,
          "_poleMinValue": -50.0,
          "_poleMaxValue": 50.0
        }
      },
      {
        "$type": "MoleMole.Config.ConfigTeleportToAction",
        "type": "TELEPORT_TO",
        "aliasList": [
          "1005"
        ],
        "actionId": 233,
        "position": {
          "x": -1433.157958984375,
          "y": 276.0469970703125,
          "z": 7667.77783203125
        },
        "forward": {
          "x": -1.378999948501587,
          "y": 0.008999999612569809,
          "z": 0.052000001072883606
        },
        "openLongDisTeleport": true,
        "syncForward": true,
        "_posBindMovingTargetKey": "",
        "_forwardBindMovingTargetKey": ""
      },
      {
        "$type": "MoleMole.Config.ConfigSimpleUIShowInterAction",
        "type": "SIMPLE_UI_SHOW",
        "actionId": 242,
        "contextName": "General",
        "isClose": true,
        "_param": "ART/UI/Menus/Dialog/MovieCanvasProDialog"
      },
      {
        "$type": "MoleMole.Config.ConfigSimpleUIShowInterAction",
        "type": "SIMPLE_UI_SHOW",
        "delayTime": 1.2999999523162842,
        "actionId": 267,
        "contextName": "General",
        "_param": "ART/UI/Menus/Dialog/MovieCanvasProDialog"
      }
    ],
    [
      {
        "$type": "PKKMAMONGEO",
        "type": "DIALOG",
        "aliasList": [
          "1005"
        ],
        "actionId": 125,
        "dialogID": 750231210,
        "protectTime": 1.1649999618530273
      },
      {
        "$type": "FJKIHHKJLMJ",
        "type": "CAMERA_MOVE",
        "duration": 0.5,
        "actionId": 232,
        "camPosOffset": {
          "x": -1431.8929443359375,
          "y": 276.78399658203125,
          "z": 7665.86279296875
        },
        "camForwardTargetOffset": {
          "x": -1432.31494140625,
          "y": 276.9219970703125,
          "z": 7666.7587890625
        },
        "camFov": 30.0,
        "lerpPattern": 6,
        "cameraBlendType": "EaseInOutCubic",
        "needZAxisRotate": true,
        "openCameraDither": false,
        "targetNpcAlias": "",
        "closeTreeLeafDither": true,
        "KJOEFBPOIIH": "",
        "IICFKKEBIEC": "",
        "EGEHEJEBLBJ": "",
        "cutFrameTrans": {
          "_elevMinValue": -50.0,
          "_elevMaxValue": 50.0,
          "_poleMinValue": -50.0,
          "_poleMaxValue": 50.0
        }
      },
      {
        "$type": "LLGANGLOEEO",
        "type": "STEER_TO",
        "duration": 1.0,
        "aliasList": [
          "1005"
        ],
        "actionId": 236,
        "_flag": 32,
        "steerType": "ABSOLUTE",
        "steerDir": {
          "x": -1431.31103515625,
          "y": 276.02099609375,
          "z": 7665.673828125
        },
        "useSteerAnim": true,
        "interruptFreestyle": true,
        "forceSteer": true,
        "targetNpcAlias": "",
        "ignoreY": true,
        "fixInterNull": true,
        "advancedMaxSteerAngle": 150.0,
        "advancedMinSteerAngle": 40.0,
        "OAFJBHJHLJG": ""
      },
      {
        "$type": "LJLMDHDCAMK",
        "type": "LOOK_AT",
        "aliasList": [
          "1005"
        ],
        "actionId": 237,
        "_flag": 64,
        "enableHead": true,
        "useTargetPos": true,
        "enableAbsolute": true,
        "targetPosition": {
          "x": -1426.5660400390625,
          "y": 276.9939880371094,
          "z": 7659.544921875
        },
        "headTurnTime": 0.5,
        "targetNpcAlias": "",
        "lookAtTargetType": "NONE",
        "openBackProtect": true,
        "backProtectAngle": 10.0,
        "targetNpcLookAtPoint": "",
        "OAFJBHJHLJG": ""
      },
      {
        "$type": "LLGANGLOEEO",
        "type": "STEER_TO",
        "duration": 1.0,
        "aliasList": [
          "AvatarNpc"
        ],
        "actionId": 238,
        "_flag": 32,
        "steerType": "ABSOLUTE",
        "steerDir": {
          "x": -1431.31103515625,
          "y": 276.02099609375,
          "z": 7665.673828125
        },
        "useSteerAnim": true,
        "interruptFreestyle": true,
        "forceSteer": true,
        "targetNpcAlias": "",
        "ignoreY": true,
        "fixInterNull": true,
        "advancedMaxSteerAngle": 150.0,
        "advancedMinSteerAngle": 40.0,
        "OAFJBHJHLJG": ""
      },
      {
        "$type": "LJLMDHDCAMK",
        "type": "LOOK_AT",
        "aliasList": [
          "AvatarNpc"
        ],
        "actionId": 240,
        "_flag": 64,
        "enableHead": true,
        "useTargetPos": true,
        "enableAbsolute": true,
        "targetPosition": {
          "x": -1426.5660400390625,
          "y": 276.9939880371094,
          "z": 7659.544921875
        },
        "headTurnTime": 0.5,
        "targetNpcAlias": "",
        "lookAtTargetType": "NONE",
        "openBackProtect": true,
        "backProtectAngle": 10.0,
        "targetNpcLookAtPoint": "",
        "OAFJBHJHLJG": ""
      },
      {
        "$type": "FJKIHHKJLMJ",
        "type": "CAMERA_MOVE",
        "delayTime": 0.10000000149011612,
        "duration": 1.4049999713897705,
        "actionId": 241,
        "camPosOffset": {
          "x": -1431.9010009765625,
          "y": 276.8349914550781,
          "z": 7665.85205078125
        },
        "camForwardTargetOffset": {
          "x": -1432.322998046875,
          "y": 276.97198486328125,
          "z": 7666.748046875
        },
        "camFov": 30.0,
        "cameraBlendType": "Linear",
        "needZAxisRotate": true,
        "openCameraDither": false,
        "targetNpcAlias": "",
        "closeTreeLeafDither": true,
        "KJOEFBPOIIH": "",
        "IICFKKEBIEC": "",
        "EGEHEJEBLBJ": "",
        "cutFrameTrans": {
          "_elevMinValue": -50.0,
          "_elevMaxValue": 50.0,
          "_poleMinValue": -50.0,
          "_poleMaxValue": 50.0
        }
      },
      {
        "$type": "CPJKOIHIPBE",
        "type": "EMO_SYNC",
        "aliasList": [
          "1005"
        ],
        "actionId": 244,
        "_flag": 320,
        "dataPath": "",
        "phonemePath": "Cs_Emo_Pet_Common/Cs_Emo_Paimon_None",
        "emotionPath": "Cs_Emo_Pet_Common/Cs_Emo_Paimon_Normal05",
        "mateDataPath": "",
        "matePhonemePath": "",
        "mateEmotionPath": "",
        "phonemePathHashList": [
          1796869206626684908,
          2049648015653630001,
          14015965774222061559,
          873259039409222856
        ],
        "emotionPathHashList": [
          17581495955544954493,
          2911594418014457715,
          707815351063348776,
          1266058213697104478
        ],
        "FMDPBECPELH": "",
        "ADKBLPOKGIK": ""
      },
      {
        "$type": "FJKIHHKJLMJ",
        "type": "CAMERA_MOVE",
        "delayTime": 1.5049999952316284,
        "duration": 0.5,
        "actionId": 246,
        "camPosOffset": {
          "x": -1430.8280029296875,
          "y": 278.01300048828125,
          "z": 7664.1298828125
        },
        "camForwardTargetOffset": {
          "x": -1430.1519775390625,
          "y": 277.8699951171875,
          "z": 7663.408203125
        },
        "camFov": 30.0,
        "lerpPattern": 6,
        "cameraBlendType": "EaseInOutCubic",
        "needZAxisRotate": true,
        "openCameraDither": false,
        "targetNpcAlias": "",
        "closeTreeLeafDither": true,
        "KJOEFBPOIIH": "",
        "IICFKKEBIEC": "",
        "EGEHEJEBLBJ": "",
        "cutFrameTrans": {
          "_elevMinValue": -50.0,
          "_elevMaxValue": 50.0,
          "_poleMinValue": -50.0,
          "_poleMaxValue": 50.0
        }
      },
      {
        "$type": "FJKIHHKJLMJ",
        "type": "CAMERA_MOVE",
        "delayTime": 1.6050000190734863,
        "duration": 5.0,
        "actionId": 247,
        "camPosOffset": {
          "x": -1430.5340576171875,
          "y": 277.95098876953125,
          "z": 7663.81591796875
        },
        "camForwardTargetOffset": {
          "x": -1429.8570556640625,
          "y": 277.8070068359375,
          "z": 7663.09423828125
        },
        "camFov": 30.0,
        "cameraBlendType": "EaseOutQuad",
        "needZAxisRotate": true,
        "openCameraDither": false,
        "targetNpcAlias": "",
        "closeTreeLeafDither": true,
        "KJOEFBPOIIH": "",
        "IICFKKEBIEC": "",
        "EGEHEJEBLBJ": "",
        "cutFrameTrans": {
          "_elevMinValue": -50.0,
          "_elevMaxValue": 50.0,
          "_poleMinValue": -50.0,
          "_poleMaxValue": 50.0
        }
      }
    ],
    [
      {
        "$type": "PKKMAMONGEO",
        "type": "DIALOG",
        "aliasList": [
          "1005"
        ],
        "actionId": 127,
        "dialogID": 750231211,
        "protectTime": 0.5
      },
      {
        "$type": "FJKIHHKJLMJ",
        "type": "CAMERA_MOVE",
        "duration": 0.5,
        "actionId": 248,
        "camPosOffset": {
          "x": -1432.9239501953125,
          "y": 277.99200439453125,
          "z": 7666.63623046875
        },
        "camForwardTargetOffset": {
          "x": -1433.1419677734375,
          "y": 277.6510009765625,
          "z": 7667.5498046875
        },
        "camFov": 30.0,
        "lerpPattern": 6,
        "cameraBlendType": "EaseInOutCubic",
        "needZAxisRotate": true,
        "openCameraDither": false,
        "targetNpcAlias": "",
        "closeTreeLeafDither": true,
        "KJOEFBPOIIH": "",
        "IICFKKEBIEC": "",
        "EGEHEJEBLBJ": "",
        "cutFrameTrans": {
          "_elevMinValue": -50.0,
          "_elevMaxValue": 50.0,
          "_poleMinValue": -50.0,
          "_poleMaxValue": 50.0
        }
      },
      {
        "$type": "FJKIHHKJLMJ",
        "type": "CAMERA_MOVE",
        "delayTime": 0.10000000149011612,
        "duration": 5.0,
        "actionId": 249,
        "camPosOffset": {
          "x": -1432.948974609375,
          "y": 277.9530029296875,
          "z": 7666.740234375
        },
        "camForwardTargetOffset": {
          "x": -1433.166015625,
          "y": 277.61199951171875,
          "z": 7667.65380859375
        },
        "camFov": 30.0,
        "cameraBlendType": "EaseOutQuad",
        "needZAxisRotate": true,
        "openCameraDither": false,
        "targetNpcAlias": "",
        "closeTreeLeafDither": true,
        "KJOEFBPOIIH": "",
        "IICFKKEBIEC": "",
        "EGEHEJEBLBJ": "",
        "cutFrameTrans": {
          "_elevMinValue": -50.0,
          "_elevMaxValue": 50.0,
          "_poleMinValue": -50.0,
          "_poleMaxValue": 50.0
        }
      },
      {
        "$type": "MoleMole.Config.ConfigTeleportToAction",
        "type": "TELEPORT_TO",
        "aliasList": [
          "1005"
        ],
        "actionId": 251,
        "position": {
          "x": -1433.64501953125,
          "y": 276.05999755859375,
          "z": 7668.27490234375
        },
        "forward": {
          "x": 1.1460000276565552,
          "y": -0.013000000268220901,
          "z": -1.2480000257492065
        },
        "openLongDisTeleport": true,
        "syncForward": true,
        "_posBindMovingTargetKey": "",
        "_forwardBindMovingTargetKey": ""
      },
      {
        "$type": "LJLMDHDCAMK",
        "type": "LOOK_AT",
        "delayTime": 0.16899999976158142,
        "aliasList": [
          "1005"
        ],
        "actionId": 252,
        "_flag": 64,
        "enableHead": true,
        "headTurnTime": 0.5,
        "targetNpcAlias": "AvatarNpc",
        "openBackProtect": true,
        "backProtectAngle": 10.0,
        "targetNpcLookAtPoint": "",
        "OAFJBHJHLJG": ""
      },
      {
        "$type": "LJLMDHDCAMK",
        "type": "LOOK_AT",
        "delayTime": 0.45899999141693115,
        "aliasList": [
          "AvatarNpc"
        ],
        "actionId": 253,
        "_flag": 64,
        "enableHead": true,
        "headTurnTime": 0.5,
        "targetNpcAlias": "1005",
        "openBackProtect": true,
        "backProtectAngle": 10.0,
        "targetNpcLookAtPoint": "",
        "OAFJBHJHLJG": ""
      },
      {
        "$type": "LJLMDHDCAMK",
        "type": "LOOK_AT",
        "delayTime": 2.8919999599456787,
        "aliasList": [
          "1005"
        ],
        "actionId": 255,
        "_flag": 64,
        "enableHead": true,
        "useTargetPos": true,
        "enableAbsolute": true,
        "targetPosition": {
          "x": -1426.5660400390625,
          "y": 276.9939880371094,
          "z": 7659.544921875
        },
        "headTurnTime": 0.5,
        "targetNpcAlias": "",
        "lookAtTargetType": "NONE",
        "openBackProtect": true,
        "backProtectAngle": 10.0,
        "targetNpcLookAtPoint": "",
        "OAFJBHJHLJG": ""
      },
      {
        "$type": "LJLMDHDCAMK",
        "type": "LOOK_AT",
        "delayTime": 3.3540000915527344,
        "aliasList": [
          "AvatarNpc"
        ],
        "actionId": 256,
        "_flag": 64,
        "enableHead": true,
        "useTargetPos": true,
        "enableAbsolute": true,
        "targetPosition": {
          "x": -1426.5660400390625,
          "y": 276.9939880371094,
          "z": 7659.544921875
        },
        "headTurnTime": 0.5,
        "targetNpcAlias": "",
        "lookAtTargetType": "NONE",
        "openBackProtect": true,
        "backProtectAngle": 10.0,
        "targetNpcLookAtPoint": "",
        "OAFJBHJHLJG": ""
      },
      {
        "$type": "FABLGECDBCH",
        "type": "BODY_LANG",
        "delayTime": 0.5550000071525574,
        "aliasList": [
          "1005"
        ],
        "actionId": 257,
        "_flag": 131072,
        "bodyLangParam": 1300,
        "forceDoFreeStyle": true,
        "canDoRepeatFreeStyle": false,
        "cantBackToIdleWhenSitLoop": true,
        "eventPatternSuiteKey": "",
        "FOHHKFAIAAJ": ""
      }
    ],
    [
      {
        "$type": "MoleMole.Config.ConfigTimeProtectAction",
        "type": "TIME_PROTECT",
        "duration": 0.10000000149011612,
        "actionId": 105
      },
      {
        "$type": "MoleMole.Config.ConfigSimpleBlackScreenAction",
        "type": "SIMPLE_BLACK_SCREEN",
        "actionId": 128,
        "durationToBlack": 0.5,
        "durationKeepBlack": 1.5,
        "durationFromBlack": 0.5,
        "textMapID": ""
      },
      {
        "$type": "MoleMole.Config.ConfigTimeProtectAction",
        "type": "TIME_PROTECT",
        "duration": 0.8999999761581421,
        "actionId": 129
      },
      {
        "$type": "FABLGECDBCH",
        "type": "BODY_LANG",
        "delayTime": 0.6000000238418579,
        "aliasList": [
          "6175"
        ],
        "actionId": 131,
        "_flag": 131072,
        "isContinue": true,
        "forceDoFreeStyle": true,
        "canDoRepeatFreeStyle": false,
        "cantBackToIdleWhenSitLoop": true,
        "eventPatternSuiteKey": "",
        "FOHHKFAIAAJ": ""
      },
      {
        "$type": "FABLGECDBCH",
        "type": "BODY_LANG",
        "delayTime": 0.6000000238418579,
        "aliasList": [
          "1005"
        ],
        "actionId": 133,
        "_flag": 131072,
        "isContinue": true,
        "forceDoFreeStyle": true,
        "canDoRepeatFreeStyle": false,
        "cantBackToIdleWhenSitLoop": true,
        "eventPatternSuiteKey": "",
        "FOHHKFAIAAJ": ""
      },
      {
        "$type": "FABLGECDBCH",
        "type": "BODY_LANG",
        "delayTime": 0.6000000238418579,
        "aliasList": [
          "21460"
        ],
        "actionId": 135,
        "_flag": 131072,
        "isContinue": true,
        "forceDoFreeStyle": true,
        "canDoRepeatFreeStyle": false,
        "cantBackToIdleWhenSitLoop": true,
        "eventPatternSuiteKey": "",
        "FOHHKFAIAAJ": ""
      },
      {
        "$type": "FJKIHHKJLMJ",
        "type": "CAMERA_MOVE",
        "delayTime": 0.699999988079071,
        "duration": 0.10000000149011612,
        "actionId": 138,
        "cameraPosType": "EXIT",
        "camForwardTargetOffset": {
          "z": 1.0
        },
        "camFov": 30.0,
        "lerpPattern": 5,
        "cameraBlendType": "EaseInOutCubic",
        "openCameraDither": false,
        "targetNpcAlias": "",
        "closeTreeLeafDither": true,
        "KJOEFBPOIIH": "",
        "IICFKKEBIEC": "",
        "EGEHEJEBLBJ": "",
        "cutFrameTrans": {
          "_elevMinValue": -50.0,
          "_elevMaxValue": 50.0,
          "_poleMinValue": -50.0,
          "_poleMaxValue": 50.0
        }
      },
      {
        "$type": "MoleMole.Config.ConfigVisibleInterAction",
        "type": "VISIBLE",
        "delayTime": 0.6000000238418579,
        "aliasList": [
          "AvatarNpc"
        ],
        "actionId": 141,
        "_extraParam": ""
      },
      {
        "$type": "MoleMole.Config.ConfigVisibleInterAction",
        "type": "VISIBLE",
        "delayTime": 0.6000000238418579,
        "aliasList": [
          "Avatar"
        ],
        "actionId": 142,
        "isVisible": true,
        "_extraParam": ""
      },
      {
        "$type": "FABLGECDBCH",
        "type": "BODY_LANG",
        "delayTime": 0.6000000238418579,
        "aliasList": [
          "AvatarNpc"
        ],
        "actionId": 144,
        "_flag": 131072,
        "isContinue": true,
        "forceDoFreeStyle": true,
        "canDoRepeatFreeStyle": false,
        "cantBackToIdleWhenSitLoop": true,
        "eventPatternSuiteKey": "",
        "FOHHKFAIAAJ": ""
      },
      {
        "$type": "MoleMole.Config.ConfigTeleportToAction",
        "type": "TELEPORT_TO",
        "delayTime": 0.6000000238418579,
        "aliasList": [
          "AvatarNpc"
        ],
        "actionId": 268,
        "position": {
          "x": -1429.3699951171875,
          "y": 276.17498779296875,
          "z": 7661.9150390625
        },
        "forward": {
          "x": 0.8730000257492065,
          "z": -0.9169999957084656
        },
        "openLongDisTeleport": true,
        "syncForward": true,
        "_posBindMovingTargetKey": "",
        "_forwardBindMovingTargetKey": ""
      },
      {
        "$type": "MoleMole.Config.ConfigTeleportToAction",
        "type": "TELEPORT_TO",
        "delayTime": 0.6000000238418579,
        "aliasList": [
          "1005"
        ],
        "actionId": 269,
        "position": {
          "x": -1428.9510498046875,
          "y": 276.1960144042969,
          "z": 7662.72900390625
        },
        "forward": {
          "x": 0.6759999990463257,
          "z": -0.7369999885559082
        },
        "openLongDisTeleport": true,
        "syncForward": true,
        "_posBindMovingTargetKey": "",
        "_forwardBindMovingTargetKey": ""
      },
      {
        "$type": "FJKIHHKJLMJ",
        "type": "CAMERA_MOVE",
        "delayTime": 0.550000011920929,
        "duration": 0.10000000149011612,
        "actionId": 270,
        "camPosOffset": {
          "x": -1431.698974609375,
          "y": 278.15899658203125,
          "z": 7664.05615234375
        },
        "camForwardTargetOffset": {
          "x": -1430.9959716796875,
          "y": 277.87200927734375,
          "z": 7663.40478515625
        },
        "lerpPattern": 6,
        "cameraBlendType": "EaseInOutCubic",
        "needZAxisRotate": true,
        "openCameraDither": false,
        "targetNpcAlias": "",
        "closeTreeLeafDither": true,
        "KJOEFBPOIIH": "",
        "IICFKKEBIEC": "",
        "EGEHEJEBLBJ": "",
        "cutFrameTrans": {
          "_elevMinValue": -50.0,
          "_elevMaxValue": 50.0,
          "_poleMinValue": -50.0,
          "_poleMaxValue": 50.0
        }
      },
      {
        "$type": "MoleMole.Config.ConfigTeleportToAction",
        "type": "TELEPORT_TO",
        "delayTime": 0.6000000238418579,
        "aliasList": [
          "Avatar"
        ],
        "actionId": 271,
        "position": {
          "x": -1429.3699951171875,
          "y": 276.17498779296875,
          "z": 7661.9150390625
        },
        "forward": {
          "x": 0.8730000257492065,
          "z": -0.9169999957084656
        },
        "openLongDisTeleport": true,
        "syncForward": true,
        "_posBindMovingTargetKey": "",
        "_forwardBindMovingTargetKey": ""
      }
    ]
  ],
  "groupId": [
    {
      "grpId": 3494355307,
      "nextGrpId": 3494355308,
      "_noCircleNextGrpId": 3494355308
    },
    {
      "index": 1,
      "grpId": 3494355308,
      "nextGrpId": 3494355309,
      "_noCircleNextGrpId": 3494355309
    },
    {
      "index": 2,
      "grpId": 3494355309,
      "nextGrpId": 3494355310,
      "_noCircleNextGrpId": 3494355310
    },
    {
      "index": 3,
      "grpId": 3494355310,
      "nextGrpId": 3494355311,
      "_noCircleNextGrpId": 3494355311
    },
    {
      "index": 4,
      "grpId": 3494355311,
      "nextGrpId": 3494355312,
      "_noCircleNextGrpId": 3494355312
    },
    {
      "index": 5,
      "grpId": 3494355312,
      "nextGrpId": 3494355313,
      "_noCircleNextGrpId": 3494355313
    },
    {
      "index": 6,
      "grpId": 3494355313,
      "nextGrpId": 3494355314,
      "_noCircleNextGrpId": 3494355314
    },
    {
      "index": 7,
      "grpId": 3494355314,
      "nextGrpId": 3494355315,
      "_noCircleNextGrpId": 3494355315
    },
    {
      "index": 8,
      "grpId": 3494355315,
      "nextGrpId": 950832165,
      "_noCircleNextGrpId": 950832165
    },
    {
      "index": 9,
      "grpId": 950832165,
      "nextGrpId": 950832166,
      "_noCircleNextGrpId": 950832166
    },
    {
      "index": 10,
      "grpId": 950832166,
      "nextGrpId": 950832167,
      "_noCircleNextGrpId": 950832167
    },
    {
      "index": 11,
      "grpId": 950832167,
      "nextGrpId": 950832168,
      "_noCircleNextGrpId": 950832168
    },
    {
      "index": 12,
      "grpId": 950832168,
      "nextGrpId": 950832169,
      "_noCircleNextGrpId": 950832169
    },
    {
      "index": 13,
      "grpId": 950832169,
      "nextGrpId": 950832170,
      "_noCircleNextGrpId": 950832170
    }
  ],
  "freeStyleDic": {
    "1025": [],
    "1026": [],
    "6175": [
      1130,
      1060
    ]
  },
  "EKFBDAIDEEF": {
    "AvatarNpc": [
      "SitChat01AS",
      "SitHoldArm01AS",
      "SitShrug01AS",
      "SitThink01AS"
    ],
    "6175": [
      "SitChat01AS",
      "SitHoldArm01AS",
      "SitPutArm01AS",
      "SitRaiseHand01AS",
      "SitRead01AS"
    ]
  },
  "NPFDEBDMHJP": 950832169
}