{
  "moveRtpcKey": {
    "text": "Param_walkSpeed"
  },
  "platformSettings": [
    {
      "id": 1,
      "MOKBIKEEHMJ": "Linear",
      "moveStartEvent": {
        "text": "Play_amb_sceneObj_gear_dungeonPlane_lp"
      },
      "moveStopEvent": {
        "text": "Stop_amb_sceneObj_gear_dungeonPlane_lp"
      },
      "rotateStartEvent": {
        "text": ""
      },
      "rotateStopEvent": {
        "text": ""
      },
      "linearVelocityThreshold": 0.009999999776482582
    },
    {
      "id": 2,
      "MOKBIKEEHMJ": "Linear",
      "moveStartEvent": {
        "text": "Play_amb_sceneObj_gear_shooter_move_lp"
      },
      "moveStopEvent": {
        "text": "Stop_amb_sceneObj_gear_shooter_move_lp"
      },
      "rotateStartEvent": {
        "text": ""
      },
      "rotateStopEvent": {
        "text": ""
      },
      "linearVelocityThreshold": 0.009999999776482582
    },
    {
      "id": 3,
      "MOKBIKEEHMJ": "Linear",
      "moveStartEvent": {
        "text": "Play_amb_sceneObj_gear_dungeon_waterPlatform_lp"
      },
      "moveStopEvent": {
        "text": "Stop_amb_sceneObj_gear_dungeon_waterPlatform_lp"
      },
      "rotateStartEvent": {
        "text": ""
      },
      "rotateStopEvent": {
        "text": ""
      },
      "linearVelocityThreshold": 0.009999999776482582
    },
    {
      "id": 4,
      "MOKBIKEEHMJ": "Linear",
      "moveStartEvent": {
        "text": "Play_amb_LiYue_object_elevator_lp"
      },
      "moveStopEvent": {
        "text": "Stop_amb_LiYue_object_elevator_lp"
      },
      "rotateStartEvent": {
        "text": ""
      },
      "rotateStopEvent": {
        "text": ""
      },
      "linearVelocityThreshold": 0.009999999776482582
    },
    {
      "id": 5,
      "MOKBIKEEHMJ": "Angular",
      "moveStartEvent": {
        "text": ""
      },
      "moveStopEvent": {
        "text": ""
      },
      "rotateStartEvent": {
        "text": "Play_amb_sceneObj_gear_dungeonPlane_angular"
      },
      "rotateStopEvent": {
        "text": ""
      },
      "angularVelocityThreshold": 35.0
    },
    {
      "id": 6,
      "MOKBIKEEHMJ": "Linear",
      "moveStartEvent": {
        "text": "Play_amb_sceneObj_gear_tartaglia_mechanisn_slowDown"
      },
      "moveStopEvent": {
        "text": "Stop_amb_sceneObj_gear_tartaglia_mechanisn_slowDown"
      },
      "rotateStartEvent": {
        "text": ""
      },
      "rotateStopEvent": {
        "text": ""
      },
      "linearVelocityThreshold": 0.009999999776482582
    },
    {
      "id": 7,
      "MOKBIKEEHMJ": "Both",
      "moveStartEvent": {
        "text": "Play_amb_sceneObj_gear_itto_stairs"
      },
      "rotateStartEvent": {
        "text": "Play_amb_sceneObj_gear_itto_stairs"
      },
      "linearVelocityThreshold": 0.009999999776482582,
      "angularVelocityThreshold": 35.0
    },
    {
      "id": 8,
      "MOKBIKEEHMJ": "Linear",
      "moveStartEvent": {
        "text": "Play_amb_sceneObj_gear_groundDust_01_loop"
      },
      "moveStopEvent": {
        "text": "Stop_amb_sceneObj_gear_groundDust_01_loop"
      },
      "linearVelocityThreshold": 0.009999999776482582
    },
    {
      "id": 9,
      "MOKBIKEEHMJ": "Linear",
      "moveStartEvent": {
        "text": "Play_amb_sceneObj_gear_dungeonPlane_01_loop"
      },
      "moveStopEvent": {
        "text": "Stop_amb_sceneObj_gear_dungeonPlane_01_loop"
      },
      "rotateStartEvent": {
        "text": ""
      },
      "rotateStopEvent": {
        "text": ""
      },
      "linearVelocityThreshold": 0.009999999776482582
    },
    {
      "id": 10,
      "MOKBIKEEHMJ": "Angular",
      "moveStartEvent": {
        "text": ""
      },
      "moveStopEvent": {
        "text": ""
      },
      "rotateStartEvent": {
        "text": "Play_amb_sceneObj_gear_dungeonPlane_01_loop"
      },
      "rotateStopEvent": {
        "text": "Stop_amb_sceneObj_gear_dungeonPlane_01_loop"
      },
      "angularVelocityThreshold": 35.0
    },
    {
      "id": 11,
      "MOKBIKEEHMJ": "Linear",
      "moveStartEvent": {
        "text": "Play_amb_sceneObj_gear_movePlatform_01"
      },
      "moveStopEvent": {
        "text": "Stop_amb_sceneObj_gear_movePlatform_01"
      },
      "rotateStartEvent": {
        "text": ""
      },
      "rotateStopEvent": {
        "text": ""
      },
      "linearVelocityThreshold": 0.009999999776482582
    },
    {
      "id": 12,
      "MOKBIKEEHMJ": "Linear",
      "moveStartEvent": {
        "text": "Play_amb_sceneObj_gear_movePlatform_02"
      },
      "moveStopEvent": {
        "text": "Stop_amb_sceneObj_gear_movePlatform_02"
      },
      "rotateStartEvent": {
        "text": ""
      },
      "rotateStopEvent": {
        "text": ""
      },
      "linearVelocityThreshold": 0.009999999776482582
    },
    {
      "id": 13,
      "MOKBIKEEHMJ": "Linear",
      "moveStartEvent": {
        "text": "Play_amb_sceneObj_gear_muralPuzzlePiece_01"
      },
      "moveStopEvent": {
        "text": ""
      },
      "rotateStartEvent": {
        "text": ""
      },
      "rotateStopEvent": {
        "text": ""
      },
      "linearVelocityThreshold": 0.009999999776482582
    },
    {
      "id": 14,
      "MOKBIKEEHMJ": "Both",
      "moveStartEvent": {
        "text": "Play_amb_sceneObj_gear_movePlatform_01"
      },
      "moveStopEvent": {
        "text": "Stop_amb_sceneObj_gear_movePlatform_01"
      },
      "rotateStartEvent": {
        "text": "Play_amb_sceneObj_gear_movePlatform_01"
      },
      "rotateStopEvent": {
        "text": "Stop_amb_sceneObj_gear_movePlatform_01"
      },
      "linearVelocityThreshold": 0.009999999776482582,
      "angularVelocityThreshold": 35.0
    },
    {
      "id": 15,
      "MOKBIKEEHMJ": "Linear",
      "moveStartEvent": {
        "text": "Play_amb_sceneObj_gear_UGCSpikeBlock_02"
      },
      "moveStopEvent": {
        "text": ""
      },
      "rotateStartEvent": {
        "text": ""
      },
      "rotateStopEvent": {
        "text": ""
      },
      "linearVelocityThreshold": 0.009999999776482582
    },
    {
      "id": 16,
      "MOKBIKEEHMJ": "Linear",
      "moveStartEvent": {
        "text": "Play_amb_sceneObj_gear_minersElevator_loop"
      },
      "moveStopEvent": {
        "text": "Stop_amb_sceneObj_gear_minersElevator_loop"
      },
      "rotateStartEvent": {
        "text": ""
      },
      "rotateStopEvent": {
        "text": ""
      },
      "linearVelocityThreshold": 0.009999999776482582
    },
    {
      "id": 17,
      "MOKBIKEEHMJ": "Linear",
      "moveStartEvent": {
        "text": "Play_amb_sceneObj_gear_groundDust_01_loop"
      },
      "moveStopEvent": {
        "text": "Stop_amb_sceneObj_gear_groundDust_01_loop"
      },
      "rotateStartEvent": {
        "text": ""
      },
      "rotateStopEvent": {
        "text": ""
      },
      "linearVelocityThreshold": 0.009999999776482582
    },
    {
      "id": 18,
      "MOKBIKEEHMJ": "Linear",
      "moveStartEvent": {
        "text": "Play_amb_sceneObj_gear_nightCrowStatue_05_move"
      },
      "moveStopEvent": {
        "text": "Stop_amb_sceneObj_gear_nightCrowStatue_05_move"
      },
      "rotateStartEvent": {
        "text": ""
      },
      "rotateStopEvent": {
        "text": ""
      },
      "linearVelocityThreshold": 0.009999999776482582
    },
    {
      "id": 19,
      "MOKBIKEEHMJ": "Linear",
      "moveStartEvent": {
        "text": "Play_amb_sceneObj_gear_aterplatform_01_move"
      },
      "moveStopEvent": {
        "text": "Stop_amb_sceneObj_gear_aterplatform_01_move"
      },
      "rotateStartEvent": {
        "text": ""
      },
      "rotateStopEvent": {
        "text": ""
      },
      "linearVelocityThreshold": 0.009999999776482582
    },
    {
      "id": 20,
      "MOKBIKEEHMJ": "Linear",
      "moveStartEvent": {
        "text": "Play_amb_sceneObj_gear_mona_stone_move"
      },
      "moveStopEvent": {
        "text": "Stop_amb_sceneObj_gear_mona_stone_move"
      },
      "rotateStartEvent": {
        "text": ""
      },
      "rotateStopEvent": {
        "text": ""
      },
      "linearVelocityThreshold": 0.009999999776482582
    },
    {
      "id": 21,
      "MOKBIKEEHMJ": "Linear",
      "moveStartEvent": {
        "text": "Play_amb_sceneObj_gear_magic_move"
      },
      "moveStopEvent": {
        "text": "Stop_amb_sceneObj_gear_magic_move"
      },
      "rotateStartEvent": {
        "text": ""
      },
      "rotateStopEvent": {
        "text": ""
      },
      "linearVelocityThreshold": 0.009999999776482582
    },
    {
      "id": 22,
      "MOKBIKEEHMJ": "Linear",
      "moveStartEvent": {
        "text": "Play_amb_sceneObj_gear_spinningTower_04_move"
      },
      "moveStopEvent": {
        "text": "Stop_amb_sceneObj_gear_spinningTower_04_move"
      },
      "rotateStartEvent": {
        "text": ""
      },
      "rotateStopEvent": {
        "text": ""
      },
      "linearVelocityThreshold": 0.009999999776482582
    },
    {
      "id": 23,
      "MOKBIKEEHMJ": "Linear",
      "moveStartEvent": {
        "text": "Play_amb_sceneObj_gear_movePlatform_03"
      },
      "moveStopEvent": {
        "text": "Stop_amb_sceneObj_gear_movePlatform_03"
      },
      "rotateStartEvent": {
        "text": ""
      },
      "rotateStopEvent": {
        "text": ""
      },
      "linearVelocityThreshold": 0.009999999776482582
    },
    {
      "id": 24,
      "MOKBIKEEHMJ": "Linear",
      "moveStartEvent": {
        "text": "Play_amb_sceneObj_gear_libraryMovingWall_move"
      },
      "moveStopEvent": {
        "text": "Stop_amb_sceneObj_gear_libraryMovingWall_move"
      },
      "rotateStartEvent": {
        "text": ""
      },
      "rotateStopEvent": {
        "text": ""
      },
      "linearVelocityThreshold": 0.009999999776482582
    },
    {
      "id": 25,
      "MOKBIKEEHMJ": "Angular",
      "moveStartEvent": {
        "text": ""
      },
      "moveStopEvent": {
        "text": ""
      },
      "rotateStartEvent": {
        "text": "Play_amb_sceneObj_gear_stairs_move"
      },
      "rotateStopEvent": {
        "text": ""
      },
      "angularVelocityThreshold": 35.0
    },
    {
      "id": 26,
      "MOKBIKEEHMJ": "Angular",
      "moveStartEvent": {
        "text": ""
      },
      "moveStopEvent": {
        "text": ""
      },
      "rotateStartEvent": {
        "text": "Play_amb_sceneObj_gear_obstaclePillar_01_move"
      },
      "rotateStopEvent": {
        "text": ""
      },
      "angularVelocityThreshold": 35.0
    },
    {
      "id": 27,
      "MOKBIKEEHMJ": "Linear",
      "moveStartEvent": {
        "text": "Play_amb_sceneObj_gear_movingStatue_trail"
      },
      "moveStopEvent": {
        "text": "Stop_amb_sceneObj_gear_movingStatue_trail"
      },
      "rotateStartEvent": {
        "text": ""
      },
      "rotateStopEvent": {
        "text": ""
      },
      "linearVelocityThreshold": 0.009999999776482582
    },
    {
      "id": 28,
      "MOKBIKEEHMJ": "Linear",
      "moveStartEvent": {
        "text": "Play_amb_sceneObj_gear_YDPT_grandLift_01"
      },
      "moveStopEvent": {
        "text": "Stop_amb_sceneObj_gear_YDPT_grandLift_01"
      },
      "rotateStartEvent": {
        "text": ""
      },
      "rotateStopEvent": {
        "text": ""
      },
      "linearVelocityThreshold": 0.009999999776482582
    },
    {
      "id": 29,
      "MOKBIKEEHMJ": "Linear",
      "moveStartEvent": {
        "text": "Play_amb_sceneObj_gear_grandLift_02"
      },
      "moveStopEvent": {
        "text": "Stop_amb_sceneObj_gear_grandLift_02"
      },
      "rotateStartEvent": {
        "text": ""
      },
      "rotateStopEvent": {
        "text": ""
      },
      "linearVelocityThreshold": 0.009999999776482582
    },
    {
      "id": 30,
      "MOKBIKEEHMJ": "Angular",
      "moveStartEvent": {
        "text": ""
      },
      "moveStopEvent": {
        "text": ""
      },
      "rotateStartEvent": {
        "text": "Play_amb_scnerObj_gear_ferriswheel_02"
      },
      "rotateStopEvent": {
        "text": "Stop_amb_scnerObj_gear_ferriswheel_02"
      },
      "angularVelocityThreshold": 35.0
    },
    {
      "id": 31,
      "MOKBIKEEHMJ": "Linear",
      "moveStartEvent": {
        "text": "Play_amb_sceneObj_gear_box_move_01"
      },
      "moveStopEvent": {
        "text": "Stop_amb_sceneObj_gear_box_move_01"
      },
      "rotateStartEvent": {
        "text": ""
      },
      "rotateStopEvent": {
        "text": ""
      },
      "linearVelocityThreshold": 0.009999999776482582
    },
    {
      "id": 32,
      "MOKBIKEEHMJ": "Angular",
      "moveStartEvent": {
        "text": ""
      },
      "moveStopEvent": {
        "text": ""
      },
      "rotateStartEvent": {
        "text": "Play_amb_sceneObj_gear_circusLight_move_LR_A"
      },
      "rotateStopEvent": {
        "text": ""
      },
      "angularVelocityThreshold": 35.0
    },
    {
      "id": 33,
      "MOKBIKEEHMJ": "Linear",
      "moveStartEvent": {
        "text": "Play_amb_sceneObj_gear_box_move"
      },
      "moveStopEvent": {
        "text": "Stop_amb_sceneObj_gear_box_move"
      },
      "rotateStartEvent": {
        "text": ""
      },
      "rotateStopEvent": {
        "text": ""
      },
      "linearVelocityThreshold": 0.009999999776482582
    },
    {
      "id": 34,
      "MOKBIKEEHMJ": "Linear",
      "moveStartEvent": {
        "text": "Play_amb_sceneObj_gear_doubleNodeThorn_move"
      },
      "moveStopEvent": {
        "text": "Stop_amb_sceneObj_gear_doubleNodeThorn_move"
      },
      "rotateStartEvent": {
        "text": ""
      },
      "rotateStopEvent": {
        "text": ""
      },
      "linearVelocityThreshold": 0.009999999776482582
    },
    {
      "id": 35,
      "MOKBIKEEHMJ": "Linear",
      "moveStartEvent": {
        "text": "Play_amb_sceneObj_gear_twoDToy_01_move"
      },
      "moveStopEvent": {
        "text": ""
      },
      "rotateStartEvent": {
        "text": ""
      },
      "rotateStopEvent": {
        "text": ""
      },
      "linearVelocityThreshold": 0.009999999776482582
    },
    {
      "id": 36,
      "MOKBIKEEHMJ": "Linear",
      "moveStartEvent": {
        "text": "Play_amb_sceneObj_gear_twoDToy_move"
      },
      "moveStopEvent": {
        "text": ""
      },
      "rotateStartEvent": {
        "text": ""
      },
      "rotateStopEvent": {
        "text": ""
      },
      "linearVelocityThreshold": 0.009999999776482582
    },
    {
      "id": 37,
      "MOKBIKEEHMJ": "Linear",
      "moveStartEvent": {
        "text": "Play_amb_sceneObj_gear_starPlat_01"
      },
      "moveStopEvent": {
        "text": "Stop_amb_sceneObj_gear_starPlat_01"
      },
      "rotateStartEvent": {
        "text": ""
      },
      "rotateStopEvent": {
        "text": ""
      },
      "linearVelocityThreshold": 0.009999999776482582
    },
    {
      "id": 38,
      "MOKBIKEEHMJ": "Angular",
      "moveStartEvent": {
        "text": ""
      },
      "moveStopEvent": {
        "text": ""
      },
      "rotateStartEvent": {
        "text": "Play_amb_sceneObj_gear_circusLight_move_LR_E"
      },
      "rotateStopEvent": {
        "text": ""
      },
      "angularVelocityThreshold": 35.0
    },
    {
      "id": 39,
      "MOKBIKEEHMJ": "Angular",
      "moveStartEvent": {
        "text": ""
      },
      "moveStopEvent": {
        "text": ""
      },
      "rotateStartEvent": {
        "text": "Play_amb_sceneObj_gear_circusLight_move_LR_F"
      },
      "rotateStopEvent": {
        "text": ""
      },
      "angularVelocityThreshold": 35.0
    },
    {
      "id": 40,
      "MOKBIKEEHMJ": "Linear",
      "moveStartEvent": {
        "text": "Play_amb_sceneObj_gear_portElevatorDoor_01_move"
      },
      "moveStopEvent": {
        "text": "Stop_amb_sceneObj_gear_portElevatorDoor_01_move"
      },
      "rotateStartEvent": {
        "text": ""
      },
      "rotateStopEvent": {
        "text": ""
      },
      "linearVelocityThreshold": 0.009999999776482582
    },
    {
      "id": 41,
      "MOKBIKEEHMJ": "Both",
      "moveStartEvent": {
        "text": "Play_amb_sceneObj_gear_airship_01_ship"
      },
      "moveStopEvent": {
        "text": "Stop_amb_sceneObj_gear_airship_01_ship"
      },
      "rotateStartEvent": {
        "text": ""
      },
      "rotateStopEvent": {
        "text": ""
      },
      "linearVelocityThreshold": 0.009999999776482582
    },
    {
      "id": 42,
      "MOKBIKEEHMJ": "Linear",
      "moveStartEvent": {
        "text": "Play_amb_sceneObj_gear_grandLift_03"
      },
      "moveStopEvent": {
        "text": "Stop_amb_sceneObj_gear_grandLift_03"
      },
      "rotateStartEvent": {
        "text": ""
      },
      "rotateStopEvent": {
        "text": ""
      },
      "linearVelocityThreshold": 0.009999999776482582
    },
    {
      "id": 43,
      "MOKBIKEEHMJ": "Linear",
      "moveStartEvent": {
        "text": "Play_amb_sceneObj_gear_factoryElevator_02_move"
      },
      "moveStopEvent": {
        "text": "Stop_amb_sceneObj_gear_factoryElevator_02_move"
      },
      "rotateStartEvent": {
        "text": ""
      },
      "rotateStopEvent": {
        "text": ""
      },
      "linearVelocityThreshold": 0.009999999776482582
    },
    {
      "id": 44,
      "MOKBIKEEHMJ": "Both",
      "moveStartEvent": {
        "text": "Play_amb_sceneObj_gear_FDFacPipeGear_moved_01"
      },
      "moveStopEvent": {
        "text": "Stop_amb_sceneObj_gear_FDFacPipeGear_moved_01"
      },
      "rotateStartEvent": {
        "text": "Play_amb_sceneObj_gear_FDFacPipeGear_move_01"
      },
      "rotateStopEvent": {
        "text": ""
      },
      "linearVelocityThreshold": 0.009999999776482582,
      "angularVelocityThreshold": 35.0
    },
    {
      "id": 45,
      "MOKBIKEEHMJ": "Linear",
      "moveStartEvent": {
        "text": "Play_amb_sceneObj_gear_fdRuins_elevator_01_move"
      },
      "moveStopEvent": {
        "text": "Stop_amb_sceneObj_gear_fdRuins_elevator_01_move"
      },
      "rotateStartEvent": {
        "text": ""
      },
      "rotateStopEvent": {
        "text": ""
      },
      "linearVelocityThreshold": 0.009999999776482582
    },
    {
      "id": 46,
      "MOKBIKEEHMJ": "Linear",
      "moveStartEvent": {
        "text": "Play_amb_sceneObj_gear_SXFYReservoir_01"
      },
      "moveStopEvent": {
        "text": "Stop_amb_sceneObj_gear_SXFYReservoir_01"
      },
      "rotateStartEvent": {
        "text": ""
      },
      "rotateStopEvent": {
        "text": ""
      },
      "linearVelocityThreshold": 0.009999999776482582
    },
    {
      "id": 47,
      "MOKBIKEEHMJ": "Linear",
      "moveStartEvent": {
        "text": "Play_amb_sceneObj_gear_SXFY_chilun_01_move_01"
      },
      "moveStopEvent": {
        "text": "Stop_amb_sceneObj_gear_SXFY_chilun_01_move_01"
      },
      "rotateStartEvent": {
        "text": ""
      },
      "rotateStopEvent": {
        "text": ""
      },
      "linearVelocityThreshold": 0.009999999776482582
    },
    {
      "id": 48,
      "MOKBIKEEHMJ": "Linear",
      "moveStartEvent": {
        "text": "Play_amb_sceneObj_gear_Cyg_WaterfallGate_Platform"
      },
      "moveStopEvent": {
        "text": ""
      },
      "rotateStartEvent": {
        "text": ""
      },
      "rotateStopEvent": {
        "text": ""
      },
      "linearVelocityThreshold": 0.009999999776482582
    },
    {
      "id": 49,
      "MOKBIKEEHMJ": "Linear",
      "moveStartEvent": {
        "text": "Play_Amb_sceneObj_YLB_lift_loop"
      },
      "moveStopEvent": {
        "text": "Stop_Amb_sceneObj_YLB_lift_loop"
      },
      "rotateStartEvent": {
        "text": ""
      },
      "rotateStopEvent": {
        "text": ""
      },
      "linearVelocityThreshold": 0.009999999776482582
    },
    {
      "id": 50,
      "MOKBIKEEHMJ": "Linear",
      "moveStartEvent": {
        "text": "Play_amb_sceneObj_gear_FloatJadeStone_01_Water_Move"
      },
      "moveStopEvent": {
        "text": ""
      },
      "rotateStartEvent": {
        "text": ""
      },
      "rotateStopEvent": {
        "text": ""
      },
      "linearVelocityThreshold": 0.009999999776482582
    },
    {
      "id": 51,
      "MOKBIKEEHMJ": "Linear",
      "moveStartEvent": {
        "text": "Play_amb_sceneObj_gear_FloatJadeStone_01_Move_Horizon_Start"
      },
      "moveStopEvent": {
        "text": "Play_amb_sceneObj_gear_FloatJadeStone_01_Move_Horizon_Stop"
      },
      "rotateStartEvent": {
        "text": ""
      },
      "rotateStopEvent": {
        "text": ""
      },
      "linearVelocityThreshold": 0.009999999776482582
    },
    {
      "id": 52,
      "MOKBIKEEHMJ": "Angular",
      "moveStartEvent": {
        "text": ""
      },
      "moveStopEvent": {
        "text": ""
      },
      "rotateStartEvent": {
        "text": "Play_amb_sceneObj_gear_SgwDungeonTruckTrackSwitcher_Turn"
      },
      "rotateStopEvent": {
        "text": ""
      },
      "linearVelocityThreshold": 0.009999999776482582,
      "angularVelocityThreshold": 0.009999999776482582
    },
    {
      "id": 53,
      "MOKBIKEEHMJ": "Linear",
      "moveStartEvent": {
        "text": "Play_FairyBook_ClockworkPlatform_Carriage_Big"
      },
      "moveStopEvent": {
        "text": "Stop_FairyBook_ClockworkPlatform_Carriage_Big"
      },
      "rotateStartEvent": {
        "text": ""
      },
      "rotateStopEvent": {
        "text": ""
      },
      "linearVelocityThreshold": 0.009999999776482582,
      "angularVelocityThreshold": 0.009999999776482582
    },
    {
      "id": 54,
      "MOKBIKEEHMJ": "Linear",
      "moveStartEvent": {
        "text": "Play_FairyBook_ClockworkPlatform_Carriage_Small"
      },
      "moveStopEvent": {
        "text": "Stop_FairyBook_ClockworkPlatform_Carriage_Small"
      },
      "rotateStartEvent": {
        "text": ""
      },
      "rotateStopEvent": {
        "text": ""
      },
      "linearVelocityThreshold": 0.009999999776482582,
      "angularVelocityThreshold": 0.009999999776482582
    }
  ],
  "platformSettingUsageMapping": [
    {
      "entityId": 70360014,
      "settingsId": 1
    },
    {
      "entityId": 70360021,
      "settingsId": 2
    },
    {
      "entityId": 70380001,
      "settingsId": 1
    },
    {
      "entityId": 70380002,
      "settingsId": 1
    },
    {
      "entityId": 70380003,
      "settingsId": 1
    },
    {
      "entityId": 70380004,
      "settingsId": 1
    },
    {
      "entityId": 70380005,
      "settingsId": 3
    },
    {
      "entityId": 70380006,
      "settingsId": 1
    },
    {
      "entityId": 70380007,
      "settingsId": 1
    },
    {
      "entityId": 70380009,
      "settingsId": 1
    },
    {
      "entityId": 70380010,
      "settingsId": 1
    },
    {
      "entityId": 70380011,
      "settingsId": 4
    },
    {
      "entityId": 70380014,
      "settingsId": 1
    },
    {
      "entityId": 70380019,
      "settingsId": 4
    },
    {
      "entityId": 70900210,
      "settingsId": 1
    },
    {
      "entityId": 70900211,
      "settingsId": 1
    },
    {
      "entityId": 70900212,
      "settingsId": 1
    },
    {
      "entityId": 70900225,
      "settingsId": 1
    },
    {
      "entityId": 70900226,
      "settingsId": 1
    },
    {
      "entityId": 70900227,
      "settingsId": 2
    },
    {
      "entityId": 70900228,
      "settingsId": 1
    },
    {
      "entityId": 70900229,
      "settingsId": 2
    },
    {
      "entityId": 70900230,
      "settingsId": 1
    },
    {
      "entityId": 70900241,
      "settingsId": 1
    },
    {
      "entityId": 70900242,
      "settingsId": 1
    },
    {
      "entityId": 70900243,
      "settingsId": 1
    },
    {
      "entityId": 70900308,
      "settingsId": 1
    },
    {
      "entityId": 70900311,
      "settingsId": 1
    },
    {
      "entityId": 70900312,
      "settingsId": 1
    },
    {
      "entityId": 71700118,
      "settingsId": 5
    },
    {
      "entityId": 71700119,
      "settingsId": 5
    },
    {
      "entityId": 70710197,
      "settingsId": 6
    },
    {
      "entityId": 70310020,
      "settingsId": 1
    },
    {
      "entityId": 70380029,
      "settingsId": 4
    },
    {
      "entityId": 70380031,
      "settingsId": 4
    },
    {
      "entityId": 70380032,
      "settingsId": 4
    },
    {
      "entityId": 70350293,
      "settingsId": 4
    },
    {
      "entityId": 70360282,
      "settingsId": 1
    },
    {
      "entityId": 70380033,
      "settingsId": 1
    },
    {
      "entityId": 70310080,
      "settingsId": 1
    },
    {
      "entityId": 70290183,
      "settingsId": 7
    },
    {
      "entityId": 70290184,
      "settingsId": 7
    },
    {
      "entityId": 70290241,
      "settingsId": 8
    },
    {
      "entityId": 70290170,
      "settingsId": 9
    },
    {
      "entityId": 70290234,
      "settingsId": 1
    },
    {
      "entityId": 70290228,
      "settingsId": 10
    },
    {
      "entityId": 70330171,
      "settingsId": 12
    },
    {
      "entityId": 70330172,
      "settingsId": 12
    },
    {
      "entityId": 77200117,
      "settingsId": 11
    },
    {
      "entityId": 70330144,
      "settingsId": 11
    },
    {
      "entityId": 70330125,
      "settingsId": 13
    },
    {
      "entityId": 70330126,
      "settingsId": 13
    },
    {
      "entityId": 70330127,
      "settingsId": 13
    },
    {
      "entityId": 70330128,
      "settingsId": 13
    },
    {
      "entityId": 70330130,
      "settingsId": 13
    },
    {
      "entityId": 70330131,
      "settingsId": 13
    },
    {
      "entityId": 70330132,
      "settingsId": 13
    },
    {
      "entityId": 70330193,
      "settingsId": 13
    },
    {
      "entityId": 70350335,
      "settingsId": 15
    },
    {
      "entityId": 70350337,
      "settingsId": 15
    },
    {
      "entityId": 70330177,
      "settingsId": 14
    },
    {
      "entityId": 70380303,
      "settingsId": 16
    },
    {
      "entityId": 70380304,
      "settingsId": 16
    },
    {
      "entityId": 70380305,
      "settingsId": 16
    },
    {
      "entityId": 70290405,
      "settingsId": 17
    },
    {
      "entityId": 70310257,
      "settingsId": 18
    },
    {
      "entityId": 70310258,
      "settingsId": 18
    },
    {
      "entityId": 70310259,
      "settingsId": 18
    },
    {
      "entityId": 70310260,
      "settingsId": 18
    },
    {
      "entityId": 70310261,
      "settingsId": 18
    },
    {
      "entityId": 70310262,
      "settingsId": 18
    },
    {
      "entityId": 70310263,
      "settingsId": 18
    },
    {
      "entityId": 70310264,
      "settingsId": 18
    },
    {
      "entityId": 70310265,
      "settingsId": 18
    },
    {
      "entityId": 70310266,
      "settingsId": 18
    },
    {
      "entityId": 70220113,
      "settingsId": 19
    },
    {
      "entityId": 70380319,
      "settingsId": 1
    },
    {
      "entityId": 70380320,
      "settingsId": 11
    },
    {
      "entityId": 70380301,
      "settingsId": 20
    },
    {
      "entityId": 70310388,
      "settingsId": 11
    },
    {
      "entityId": 70360351,
      "settingsId": 21
    },
    {
      "entityId": 70310375,
      "settingsId": 22
    },
    {
      "entityId": 70290480,
      "settingsId": 11
    },
    {
      "entityId": 70330318,
      "settingsId": 16
    },
    {
      "entityId": 70350447,
      "settingsId": 1
    },
    {
      "entityId": 70380326,
      "settingsId": 16
    },
    {
      "entityId": 70350455,
      "settingsId": 1
    },
    {
      "entityId": 70800274,
      "settingsId": 23
    },
    {
      "entityId": 70800275,
      "settingsId": 23
    },
    {
      "entityId": 70800276,
      "settingsId": 23
    },
    {
      "entityId": 70330316,
      "settingsId": 14
    },
    {
      "entityId": 70330365,
      "settingsId": 14
    },
    {
      "entityId": 70320026,
      "settingsId": 11
    },
    {
      "entityId": 70290796,
      "settingsId": 23
    },
    {
      "entityId": 70290843,
      "settingsId": 24
    },
    {
      "entityId": 70290844,
      "settingsId": 25
    },
    {
      "entityId": 70290875,
      "settingsId": 26
    },
    {
      "entityId": 70950178,
      "settingsId": 18
    },
    {
      "entityId": 70950183,
      "settingsId": 18
    },
    {
      "entityId": 70350474,
      "settingsId": 28
    },
    {
      "entityId": 70350485,
      "settingsId": 29
    },
    {
      "entityId": 70390073,
      "settingsId": 15
    },
    {
      "entityId": 70390055,
      "settingsId": 15
    },
    {
      "entityId": 70800634,
      "settingsId": 30
    },
    {
      "entityId": 70800681,
      "settingsId": 31
    },
    {
      "entityId": 70800683,
      "settingsId": 31
    },
    {
      "entityId": 70800680,
      "settingsId": 32
    },
    {
      "entityId": 70800716,
      "settingsId": 38
    },
    {
      "entityId": 70800717,
      "settingsId": 39
    },
    {
      "entityId": 70800505,
      "settingsId": 33
    },
    {
      "entityId": 70800728,
      "settingsId": 34
    },
    {
      "entityId": 70800729,
      "settingsId": 34
    },
    {
      "entityId": 70800730,
      "settingsId": 34
    },
    {
      "entityId": 70800731,
      "settingsId": 35
    },
    {
      "entityId": 70800698,
      "settingsId": 35
    },
    {
      "entityId": 70800697,
      "settingsId": 36
    },
    {
      "entityId": 70800721,
      "settingsId": 37
    },
    {
      "entityId": 70330595,
      "settingsId": 28
    },
    {
      "entityId": 70330596,
      "settingsId": 42
    },
    {
      "entityId": 70330490,
      "settingsId": 41
    },
    {
      "entityId": 70330579,
      "settingsId": 40
    },
    {
      "entityId": 70330621,
      "settingsId": 11
    },
    {
      "entityId": 70291579,
      "settingsId": 43
    },
    {
      "entityId": 70320102,
      "settingsId": 44
    },
    {
      "entityId": 70320103,
      "settingsId": 44
    },
    {
      "entityId": 70320104,
      "settingsId": 44
    },
    {
      "entityId": 70800935,
      "settingsId": 45
    },
    {
      "entityId": 70900728,
      "settingsId": 11
    },
    {
      "entityId": 70900543,
      "settingsId": 46
    },
    {
      "entityId": 70900729,
      "settingsId": 47
    },
    {
      "entityId": 70330772,
      "settingsId": 40
    },
    {
      "entityId": 70292144,
      "settingsId": 48
    },
    {
      "entityId": 70292153,
      "settingsId": 49
    },
    {
      "entityId": 70292146,
      "settingsId": 50
    },
    {
      "entityId": 70292000,
      "settingsId": 51
    },
    {
      "entityId": 70291429,
      "settingsId": 43
    },
    {
      "entityId": 70330832,
      "settingsId": 28
    },
    {
      "entityId": 70320148,
      "settingsId": 52
    },
    {
      "entityId": 70293188,
      "settingsId": 53
    },
    {
      "entityId": 70293189,
      "settingsId": 54
    },
    {
      "entityId": 70293205,
      "settingsId": 54
    },
    {
      "entityId": 70293272,
      "settingsId": 53
    }
  ]
}