{
  "luaDataPath": "",
  "dontUseDefaultFinish": true,
  "startBlackKeepTime": 0.5,
  "entityBan": "",
  "disableNpcLod": true,
  "isAutoBanNpc": true,
  "isBanWidgetPet": true,
  "protectNpcMobileLod": true,
  "talkFlag": 7,
  "startFade": {
    "startFadeInDuration": 0.5,
    "startFadeOutDuration": 0.5
  },
  "endFade": {
    "startFadeOutDuration": 0.0
  },
  "actors": [
    {
      "alias": "Avatar",
      "visible": true,
      "bornPointName": "[3_7152:3565.350,511.670,3209.390,0.000,23.499,0.000]",
      "relativePosType": "AVATAR_NEW",
      "relativePosNpcAlias": "",
      "_bindMovingTargetKey": ""
    },
    {
      "alias": "AvatarNpc",
      "visible": true,
      "bornPointName": "[3_7152:3565.350,511.670,3209.390,0.000,23.499,0.000]",
      "removeActorType": "NEW_REMOVE",
      "relativePosType": "AVATAR_NEW",
      "relativePosNpcAlias": "",
      "_bindMovingTargetKey": ""
    },
    {
      "configID": 5275,
      "alias": "5275",
      "visible": true,
      "bornPointName": "[3_7153:3564.640,511.657,3209.940,0.000,41.199,0.000]",
      "removeActorType": "NEW_REMOVE",
      "forceCreateDaily": true,
      "relativePosType": "AVATAR_NEW",
      "relativePosNpcAlias": "",
      "_bindMovingTargetKey": ""
    },
    {
      "configID": 1005,
      "alias": "1005",
      "visible": true,
      "bornPointName": "[3_7154:3566.306,511.661,3209.262]",
      "removeActorType": "NEW_REMOVE_WITH_DISAPPEAR",
      "relativePosType": "AVATAR_NEW",
      "relativePosNpcAlias": "",
      "_bindMovingTargetKey": ""
    },
    {
      "configID": 5273,
      "alias": "5273",
      "visible": true,
      "bornPointName": "[3_7155:3564.030,511.711,3210.540,0.000,59.171,0.000]",
      "removeActorType": "NEW_REMOVE",
      "forceCreateDaily": true,
      "relativePosType": "AVATAR_NEW",
      "relativePosNpcAlias": "",
      "_bindMovingTargetKey": ""
    },
    {
      "configID": 5276,
      "alias": "5276",
      "visible": true,
      "bornPointName": "[3_6181:3566.227,511.869,3211.632,0.000,201.037,0.000]",
      "forceCreateDaily": true,
      "relativePosType": "AVATAR_NEW",
      "relativePosNpcAlias": "",
      "_bindMovingTargetKey": ""
    },
    {
      "configID": 5274,
      "alias": "5274",
      "visible": true,
      "bornPointName": "[3_7156:3564.080,511.927,3211.680,0.000,106.175,0.000]",
      "forceCreateDaily": true,
      "relativePosType": "AVATAR_NEW",
      "relativePosNpcAlias": "",
      "_bindMovingTargetKey": ""
    }
  ],
  "group": [
    [
      {
        "$type": "MoleMole.Config.ConfigTimeProtectAction",
        "type": "TIME_PROTECT",
        "duration": 1.0,
        "actionId": 104
      },
      {
        "$type": "MoleMole.Config.ConfigBlackScreenAction",
        "type": "BLACK_SCREEN",
        "duration": 1.0,
        "actionId": 199,
        "_flag": 2048,
        "blackScreenType": "KEEP_BLACK",
        "durationToBlack": 0.5,
        "durationKeepBlack": 1.0,
        "durationFromBlack": 0.5,
        "inteePos": "",
        "textMapID": "",
        "useTextFade": true,
        "_changeAudioState": true
      },
      {
        "$type": "MoleMole.Config.ConfigSitOrStandAction",
        "type": "SIT_OR_STAND",
        "aliasList": [
          "Avatar"
        ],
        "actionId": 207,
        "_flag": 8192,
        "banResetFreestyle": true
      },
      {
        "$type": "MoleMole.Config.ConfigVisibleInterAction",
        "type": "VISIBLE",
        "aliasList": [
          "Avatar"
        ],
        "actionId": 213,
        "_extraParam": ""
      },
      {
        "$type": "MoleMole.Config.ConfigPlayerNPCEnergyTypeAction",
        "type": "SET_PLAYER_NPC_ENERGY_TYPE",
        "aliasList": [
          "AvatarNpc"
        ],
        "actionId": 208,
        "setHeroEngergyType": true
      },
      {
        "$type": "FABLGECDBCH",
        "type": "BODY_LANG",
        "aliasList": [
          "AvatarNpc"
        ],
        "actionId": 211,
        "isContinue": true,
        "forceDoFreeStyle": true,
        "canDoRepeatFreeStyle": false,
        "eventPatternSuiteKey": "",
        "FOHHKFAIAAJ": ""
      },
      {
        "$type": "FABLGECDBCH",
        "type": "BODY_LANG",
        "aliasList": [
          "5275"
        ],
        "actionId": 189,
        "isContinue": true,
        "forceDoFreeStyle": true,
        "canDoRepeatFreeStyle": false,
        "eventPatternSuiteKey": "",
        "FOHHKFAIAAJ": ""
      },
      {
        "$type": "FABLGECDBCH",
        "type": "BODY_LANG",
        "aliasList": [
          "1005"
        ],
        "actionId": 191,
        "isContinue": true,
        "forceDoFreeStyle": true,
        "canDoRepeatFreeStyle": false,
        "eventPatternSuiteKey": "",
        "FOHHKFAIAAJ": ""
      },
      {
        "$type": "FABLGECDBCH",
        "type": "BODY_LANG",
        "aliasList": [
          "5273"
        ],
        "actionId": 193,
        "isContinue": true,
        "forceDoFreeStyle": true,
        "canDoRepeatFreeStyle": false,
        "eventPatternSuiteKey": "",
        "FOHHKFAIAAJ": ""
      },
      {
        "$type": "FABLGECDBCH",
        "type": "BODY_LANG",
        "aliasList": [
          "5276"
        ],
        "actionId": 195,
        "isContinue": true,
        "forceDoFreeStyle": true,
        "canDoRepeatFreeStyle": false,
        "eventPatternSuiteKey": "",
        "FOHHKFAIAAJ": ""
      },
      {
        "$type": "FABLGECDBCH",
        "type": "BODY_LANG",
        "aliasList": [
          "5274"
        ],
        "actionId": 197,
        "isContinue": true,
        "forceDoFreeStyle": true,
        "canDoRepeatFreeStyle": false,
        "eventPatternSuiteKey": "",
        "FOHHKFAIAAJ": ""
      },
      {
        "$type": "MoleMole.Config.ConfigVisibleInterAction",
        "type": "VISIBLE",
        "delayTime": 0.6919999718666077,
        "aliasList": [
          "5276"
        ],
        "actionId": 214,
        "_extraParam": ""
      },
      {
        "$type": "FJKIHHKJLMJ",
        "type": "CAMERA_MOVE",
        "delayTime": 0.8080000281333923,
        "duration": 0.5,
        "actionId": 215,
        "camPosOffset": {
          "x": 3566.196044921875,
          "y": 513.4609985351562,
          "z": 3210.867919921875
        },
        "camForwardTargetOffset": {
          "x": 3565.277099609375,
          "y": 513.2930297851562,
          "z": 3210.512939453125
        },
        "camFov": 56.374000549316406,
        "lerpPattern": 6,
        "cameraBlendType": "EaseInOutCubic",
        "NJBNNOMLKCK": {},
        "needZAxisRotate": true,
        "openCameraDither": false,
        "targetNpcAlias": "",
        "closeTreeLeafDither": true,
        "KJOEFBPOIIH": "",
        "IICFKKEBIEC": "",
        "EGEHEJEBLBJ": ""
      }
    ],
    [
      {
        "$type": "MoleMole.Config.ConfigBlackScreenAction",
        "type": "BLACK_SCREEN",
        "duration": 0.5,
        "actionId": 200,
        "_flag": 2048,
        "blackScreenType": "FROM_BLACK",
        "durationToBlack": 0.5,
        "durationKeepBlack": 0.5,
        "durationFromBlack": 0.5,
        "inteePos": "",
        "textMapID": "",
        "useTextFade": true,
        "_changeAudioState": true
      },
      {
        "$type": "FJKIHHKJLMJ",
        "type": "CAMERA_MOVE",
        "duration": 0.5,
        "actionId": 216,
        "camPosOffset": {
          "x": 3566.14892578125,
          "y": 513.4530029296875,
          "z": 3210.864990234375
        },
        "camForwardTargetOffset": {
          "x": 3565.1689453125,
          "y": 513.2919921875,
          "z": 3210.75
        },
        "camFov": 55.8489990234375,
        "lerpPattern": 6,
        "cameraBlendType": "EaseInOutCubic",
        "NJBNNOMLKCK": {},
        "needZAxisRotate": true,
        "openCameraDither": false,
        "targetNpcAlias": "",
        "closeTreeLeafDither": true,
        "KJOEFBPOIIH": "",
        "IICFKKEBIEC": "",
        "EGEHEJEBLBJ": ""
      },
      {
        "$type": "PKKMAMONGEO",
        "type": "DIALOG",
        "aliasList": [
          "5275"
        ],
        "actionId": 107,
        "dialogID": 741313601,
        "protectTime": 0.5
      },
      {
        "$type": "FJKIHHKJLMJ",
        "type": "CAMERA_MOVE",
        "delayTime": 0.25,
        "duration": 8.0,
        "actionId": 217,
        "camPosOffset": {
          "x": 3566.196044921875,
          "y": 513.4609985351562,
          "z": 3210.868896484375
        },
        "camForwardTargetOffset": {
          "x": 3565.217041015625,
          "y": 513.2869873046875,
          "z": 3210.764892578125
        },
        "camFov": 55.8489990234375,
        "lerpPattern": 2,
        "cameraBlendType": "Linear",
        "NJBNNOMLKCK": {},
        "needZAxisRotate": true,
        "openCameraDither": false,
        "targetNpcAlias": "",
        "closeTreeLeafDither": true,
        "KJOEFBPOIIH": "",
        "IICFKKEBIEC": "",
        "EGEHEJEBLBJ": ""
      }
    ],
    [
      {
        "$type": "FJKIHHKJLMJ",
        "type": "CAMERA_MOVE",
        "duration": 0.5,
        "actionId": 232,
        "camPosOffset": {
          "x": 3566.257080078125,
          "y": 513.0850219726562,
          "z": 3210.51708984375
        },
        "camForwardTargetOffset": {
          "x": 3566.0,
          "y": 512.93798828125,
          "z": 3209.56201171875
        },
        "camFov": 55.8489990234375,
        "lerpPattern": 6,
        "cameraBlendType": "EaseInOutCubic",
        "NJBNNOMLKCK": {},
        "needZAxisRotate": true,
        "openCameraDither": false,
        "targetNpcAlias": "",
        "closeTreeLeafDither": true,
        "KJOEFBPOIIH": "",
        "IICFKKEBIEC": "",
        "EGEHEJEBLBJ": ""
      },
      {
        "$type": "PKKMAMONGEO",
        "type": "DIALOG",
        "aliasList": [
          "1005"
        ],
        "actionId": 109,
        "dialogID": 741313602,
        "protectTime": 0.5
      },
      {
        "$type": "HDGKHDNFMIM",
        "type": "DIALOG_SELECT",
        "delayTime": 0.4000000059604645,
        "aliasList": [
          "AvatarNpc"
        ],
        "actionId": 202,
        "dialogIDList": [
          741313603,
          741313604
        ],
        "grpIDList": [
          1983078010,
          1983078010
        ],
        "useGrpId": true,
        "countDownGrpId": 1983078006
      }
    ],
    [
      {
        "$type": "FJKIHHKJLMJ",
        "type": "CAMERA_MOVE",
        "duration": 0.5,
        "actionId": 233,
        "camPosOffset": {
          "x": 3565.62109375,
          "y": 513.1160278320312,
          "z": 3211.083984375
        },
        "camForwardTargetOffset": {
          "x": 3564.77294921875,
          "y": 513.10400390625,
          "z": 3210.553955078125
        },
        "camFov": 55.8489990234375,
        "lerpPattern": 6,
        "cameraBlendType": "EaseInOutCubic",
        "NJBNNOMLKCK": {},
        "needZAxisRotate": true,
        "openCameraDither": false,
        "targetNpcAlias": "",
        "closeTreeLeafDither": true,
        "KJOEFBPOIIH": "",
        "IICFKKEBIEC": "",
        "EGEHEJEBLBJ": ""
      },
      {
        "$type": "PKKMAMONGEO",
        "type": "DIALOG",
        "aliasList": [
          "5273"
        ],
        "actionId": 112,
        "dialogID": 741313605,
        "protectTime": 0.5
      }
    ],
    [
      {
        "$type": "PKKMAMONGEO",
        "type": "DIALOG",
        "aliasList": [
          "5275"
        ],
        "actionId": 114,
        "dialogID": 741313606,
        "protectTime": 0.5
      }
    ],
    [
      {
        "$type": "PKKMAMONGEO",
        "type": "DIALOG",
        "aliasList": [
          "5273"
        ],
        "actionId": 116,
        "dialogID": 741313607,
        "protectTime": 0.5
      },
      {
        "$type": "LJLMDHDCAMK",
        "type": "LOOK_AT",
        "aliasList": [
          "5273"
        ],
        "actionId": 269,
        "_flag": 64,
        "enableHead": true,
        "headTurnTime": 0.5,
        "targetNpcAlias": "5275",
        "openBackProtect": true,
        "backProtectAngle": 10.0,
        "targetNpcLookAtPoint": "",
        "OAFJBHJHLJG": ""
      }
    ],
    [
      {
        "$type": "PKKMAMONGEO",
        "type": "DIALOG",
        "aliasList": [
          "5275"
        ],
        "actionId": 118,
        "dialogID": 741313608,
        "protectTime": 0.5
      },
      {
        "$type": "MoleMole.Config.ConfigTeleportToAction",
        "type": "TELEPORT_TO",
        "aliasList": [
          "5276"
        ],
        "actionId": 220,
        "position": {
          "x": 3566.006103515625,
          "y": 511.8689880371094,
          "z": 3212.263916015625
        },
        "forward": {
          "x": -0.34299999475479126,
          "z": -1.565000057220459
        },
        "openLongDisTeleport": true,
        "syncForward": true,
        "_posBindMovingTargetKey": "",
        "_forwardBindMovingTargetKey": ""
      },
      {
        "$type": "LJLMDHDCAMK",
        "type": "LOOK_AT",
        "delayTime": 0.004999999888241291,
        "aliasList": [
          "5275"
        ],
        "actionId": 270,
        "_flag": 64,
        "enableHead": true,
        "headTurnTime": 0.5,
        "targetNpcAlias": "5273",
        "openBackProtect": true,
        "backProtectAngle": 10.0,
        "targetNpcLookAtPoint": "",
        "OAFJBHJHLJG": ""
      },
      {
        "$type": "MoleMole.Config.ConfigVisibleInterAction",
        "type": "VISIBLE",
        "delayTime": 0.017000000923871994,
        "aliasList": [
          "5276"
        ],
        "actionId": 218,
        "isVisible": true,
        "_extraParam": ""
      }
    ],
    [
      {
        "$type": "FJKIHHKJLMJ",
        "type": "CAMERA_MOVE",
        "duration": 0.5,
        "actionId": 219,
        "camPosOffset": {
          "x": 3565.551025390625,
          "y": 513.56201171875,
          "z": 3206.802978515625
        },
        "camForwardTargetOffset": {
          "x": 3565.5380859375,
          "y": 513.4119873046875,
          "z": 3207.791015625
        },
        "camFov": 55.8489990234375,
        "lerpPattern": 6,
        "cameraBlendType": "EaseInOutCubic",
        "NJBNNOMLKCK": {},
        "needZAxisRotate": true,
        "openCameraDither": false,
        "targetNpcAlias": "",
        "closeTreeLeafDither": true,
        "KJOEFBPOIIH": "",
        "IICFKKEBIEC": "",
        "EGEHEJEBLBJ": ""
      },
      {
        "$type": "LJLMDHDCAMK",
        "type": "LOOK_AT",
        "aliasList": [
          "5275"
        ],
        "actionId": 271,
        "_flag": 64,
        "enableHead": true,
        "headTurnTime": 0.5,
        "targetNpcAlias": "5276",
        "openBackProtect": true,
        "backProtectAngle": 10.0,
        "targetNpcLookAtPoint": "",
        "OAFJBHJHLJG": ""
      },
      {
        "$type": "LJLMDHDCAMK",
        "type": "LOOK_AT",
        "aliasList": [
          "5273"
        ],
        "actionId": 272,
        "_flag": 64,
        "enableHead": true,
        "headTurnTime": 0.5,
        "targetNpcAlias": "5276",
        "openBackProtect": true,
        "backProtectAngle": 10.0,
        "targetNpcLookAtPoint": "",
        "OAFJBHJHLJG": ""
      },
      {
        "$type": "PKKMAMONGEO",
        "type": "DIALOG",
        "aliasList": [
          "5276"
        ],
        "actionId": 120,
        "dialogID": 741313609,
        "protectTime": 0.5
      },
      {
        "$type": "MoleMole.Config.ConfigMoveToAction",
        "type": "MOVE_TO",
        "delayTime": 0.10999999940395355,
        "aliasList": [
          "5276"
        ],
        "actionId": 221,
        "moveType": "WALK",
        "routeList": [
          {
            "x": 3565.990966796875,
            "y": 511.8689880371094,
            "z": 3210.760009765625
          }
        ],
        "exactlyMove": true,
        "closeNavMesh": true,
        "openSetPos": true,
        "_bindMovingTargetKey": "",
        "_delayTriggerNextTime": 0.30000001192092896
      }
    ],
    [
      {
        "$type": "FJKIHHKJLMJ",
        "type": "CAMERA_MOVE",
        "duration": 0.5,
        "actionId": 225,
        "camPosOffset": {
          "x": 3566.471923828125,
          "y": 513.094970703125,
          "z": 3209.951904296875
        },
        "camForwardTargetOffset": {
          "x": 3566.324951171875,
          "y": 512.989990234375,
          "z": 3208.968994140625
        },
        "camFov": 55.8489990234375,
        "lerpPattern": 6,
        "cameraBlendType": "EaseInOutCubic",
        "NJBNNOMLKCK": {},
        "needZAxisRotate": true,
        "openCameraDither": false,
        "targetNpcAlias": "",
        "closeTreeLeafDither": true,
        "KJOEFBPOIIH": "",
        "IICFKKEBIEC": "",
        "EGEHEJEBLBJ": ""
      },
      {
        "$type": "PKKMAMONGEO",
        "type": "DIALOG",
        "aliasList": [
          "1005"
        ],
        "actionId": 122,
        "dialogID": 741313610,
        "protectTime": 0.5
      },
      {
        "$type": "FABLGECDBCH",
        "type": "BODY_LANG",
        "delayTime": 0.05400000140070915,
        "aliasList": [
          "1005"
        ],
        "actionId": 234,
        "bodyLangParam": 1040,
        "forceDoFreeStyle": true,
        "canDoRepeatFreeStyle": false,
        "cantBackToIdleWhenSitLoop": true,
        "eventPatternSuiteKey": "",
        "FOHHKFAIAAJ": ""
      },
      {
        "$type": "FABLGECDBCH",
        "type": "BODY_LANG",
        "delayTime": 1.2120000123977661,
        "aliasList": [
          "1005"
        ],
        "actionId": 235,
        "isContinue": true,
        "forceDoFreeStyle": true,
        "canDoRepeatFreeStyle": false,
        "cantBackToIdleWhenSitLoop": true,
        "eventPatternSuiteKey": "",
        "FOHHKFAIAAJ": ""
      }
    ],
    [
      {
        "$type": "PKKMAMONGEO",
        "type": "DIALOG",
        "aliasList": [
          "1005"
        ],
        "actionId": 124,
        "dialogID": 741313611,
        "protectTime": 0.5
      },
      {
        "$type": "FABLGECDBCH",
        "type": "BODY_LANG",
        "aliasList": [
          "5276"
        ],
        "actionId": 223,
        "isContinue": true,
        "forceDoFreeStyle": true,
        "canDoRepeatFreeStyle": false,
        "cantBackToIdleWhenSitLoop": true,
        "eventPatternSuiteKey": "",
        "FOHHKFAIAAJ": ""
      },
      {
        "$type": "FABLGECDBCH",
        "type": "BODY_LANG",
        "delayTime": 0.24699999392032623,
        "aliasList": [
          "1005"
        ],
        "actionId": 273,
        "isContinue": true,
        "forceDoFreeStyle": true,
        "canDoRepeatFreeStyle": false,
        "cantBackToIdleWhenSitLoop": true,
        "eventPatternSuiteKey": "",
        "FOHHKFAIAAJ": ""
      }
    ],
    [
      {
        "$type": "FJKIHHKJLMJ",
        "type": "CAMERA_MOVE",
        "duration": 0.5,
        "actionId": 227,
        "camPosOffset": {
          "x": 3567.137939453125,
          "y": 514.8870239257812,
          "z": 3207.462890625
        },
        "camForwardTargetOffset": {
          "x": 3566.763916015625,
          "y": 514.323974609375,
          "z": 3208.199951171875
        },
        "camFov": 56.374000549316406,
        "lerpPattern": 6,
        "cameraBlendType": "EaseInOutCubic",
        "NJBNNOMLKCK": {},
        "needZAxisRotate": true,
        "openCameraDither": false,
        "targetNpcAlias": "",
        "closeTreeLeafDither": true,
        "KJOEFBPOIIH": "",
        "IICFKKEBIEC": "",
        "EGEHEJEBLBJ": ""
      },
      {
        "$type": "PKKMAMONGEO",
        "type": "DIALOG",
        "aliasList": [
          "5276"
        ],
        "actionId": 126,
        "dialogID": 741313612,
        "protectTime": 0.5
      },
      {
        "$type": "FABLGECDBCH",
        "type": "BODY_LANG",
        "aliasList": [
          "5276"
        ],
        "actionId": 236,
        "bodyLangParam": 1171,
        "forceDoFreeStyle": true,
        "canDoRepeatFreeStyle": false,
        "cantBackToIdleWhenSitLoop": true,
        "eventPatternSuiteKey": "",
        "FOHHKFAIAAJ": ""
      },
      {
        "$type": "LJLMDHDCAMK",
        "type": "LOOK_AT",
        "delayTime": 2.441999912261963,
        "aliasList": [
          "5276"
        ],
        "actionId": 244,
        "_flag": 64,
        "enableHead": true,
        "headTurnTime": 0.5,
        "targetNpcAlias": "AvatarNpc",
        "openBackProtect": true,
        "backProtectAngle": 10.0,
        "targetNpcLookAtPoint": "",
        "OAFJBHJHLJG": ""
      },
      {
        "$type": "FABLGECDBCH",
        "type": "BODY_LANG",
        "delayTime": 3.0429999828338623,
        "aliasList": [
          "5276"
        ],
        "actionId": 237,
        "forceDoFreeStyle": true,
        "canDoRepeatFreeStyle": false,
        "cantBackToIdleWhenSitLoop": true,
        "eventPatternSuiteKey": "",
        "FOHHKFAIAAJ": ""
      }
    ],
    [
      {
        "$type": "PKKMAMONGEO",
        "type": "DIALOG",
        "aliasList": [
          "5275"
        ],
        "actionId": 128,
        "dialogID": 741313613,
        "protectTime": 0.5
      },
      {
        "$type": "FJKIHHKJLMJ",
        "type": "CAMERA_MOVE",
        "delayTime": 0.24199999868869781,
        "duration": 0.5,
        "actionId": 229,
        "camPosOffset": {
          "x": 3565.382080078125,
          "y": 513.801025390625,
          "z": 3212.737060546875
        },
        "camForwardTargetOffset": {
          "x": 3565.0390625,
          "y": 513.5050048828125,
          "z": 3211.845947265625
        },
        "camFov": 56.374000549316406,
        "lerpPattern": 6,
        "cameraBlendType": "EaseInOutCubic",
        "NJBNNOMLKCK": {},
        "needZAxisRotate": true,
        "openCameraDither": false,
        "targetNpcAlias": "",
        "closeTreeLeafDither": true,
        "KJOEFBPOIIH": "",
        "IICFKKEBIEC": "",
        "EGEHEJEBLBJ": ""
      },
      {
        "$type": "FABLGECDBCH",
        "type": "BODY_LANG",
        "delayTime": 0.3700000047683716,
        "aliasList": [
          "5275"
        ],
        "actionId": 238,
        "bodyLangParam": 1190,
        "forceDoFreeStyle": true,
        "canDoRepeatFreeStyle": false,
        "cantBackToIdleWhenSitLoop": true,
        "eventPatternSuiteKey": "",
        "FOHHKFAIAAJ": ""
      }
    ],
    [
      {
        "$type": "FJKIHHKJLMJ",
        "type": "CAMERA_MOVE",
        "duration": 0.5,
        "actionId": 240,
        "camPosOffset": {
          "x": 3565.014892578125,
          "y": 513.0460205078125,
          "z": 3210.3798828125
        },
        "camForwardTargetOffset": {
          "x": 3564.39697265625,
          "y": 513.22998046875,
          "z": 3209.615966796875
        },
        "camFov": 56.374000549316406,
        "lerpPattern": 6,
        "cameraBlendType": "EaseInOutCubic",
        "NJBNNOMLKCK": {},
        "needZAxisRotate": true,
        "openCameraDither": false,
        "targetNpcAlias": "",
        "closeTreeLeafDither": true,
        "KJOEFBPOIIH": "",
        "IICFKKEBIEC": "",
        "EGEHEJEBLBJ": ""
      },
      {
        "$type": "PKKMAMONGEO",
        "type": "DIALOG",
        "aliasList": [
          "5275"
        ],
        "actionId": 130,
        "dialogID": 741313614,
        "protectTime": 0.5
      },
      {
        "$type": "FABLGECDBCH",
        "type": "BODY_LANG",
        "delayTime": 0.5,
        "aliasList": [
          "5275"
        ],
        "actionId": 239,
        "isContinue": true,
        "forceDoFreeStyle": true,
        "canDoRepeatFreeStyle": false,
        "cantBackToIdleWhenSitLoop": true,
        "eventPatternSuiteKey": "",
        "FOHHKFAIAAJ": ""
      }
    ],
    [
      {
        "$type": "FJKIHHKJLMJ",
        "type": "CAMERA_MOVE",
        "duration": 0.5,
        "actionId": 242,
        "camPosOffset": {
          "x": 3565.14501953125,
          "y": 513.4229736328125,
          "z": 3210.212890625
        },
        "camForwardTargetOffset": {
          "x": 3565.9140625,
          "y": 513.2470092773438,
          "z": 3210.826904296875
        },
        "camFov": 55.8489990234375,
        "lerpPattern": 6,
        "cameraBlendType": "EaseInOutCubic",
        "NJBNNOMLKCK": {},
        "needZAxisRotate": true,
        "openCameraDither": false,
        "targetNpcAlias": "",
        "closeTreeLeafDither": true,
        "KJOEFBPOIIH": "",
        "IICFKKEBIEC": "",
        "EGEHEJEBLBJ": ""
      },
      {
        "$type": "PKKMAMONGEO",
        "type": "DIALOG",
        "aliasList": [
          "5276"
        ],
        "actionId": 132,
        "dialogID": 741313615,
        "protectTime": 0.5
      },
      {
        "$type": "LJLMDHDCAMK",
        "type": "LOOK_AT",
        "delayTime": 0.019999999552965164,
        "aliasList": [
          "5276"
        ],
        "actionId": 230,
        "_flag": 64,
        "enableHead": true,
        "headTurnTime": 0.5,
        "targetNpcAlias": "5275",
        "openBackProtect": true,
        "backProtectAngle": 10.0,
        "targetNpcLookAtPoint": "",
        "OAFJBHJHLJG": ""
      }
    ],
    [
      {
        "$type": "PKKMAMONGEO",
        "type": "DIALOG",
        "aliasList": [
          "5276"
        ],
        "actionId": 134,
        "dialogID": 741313616,
        "protectTime": 0.5
      }
    ],
    [
      {
        "$type": "FJKIHHKJLMJ",
        "type": "CAMERA_MOVE",
        "duration": 0.5,
        "actionId": 245,
        "camPosOffset": {
          "x": 3566.0400390625,
          "y": 513.1669921875,
          "z": 3210.535888671875
        },
        "camForwardTargetOffset": {
          "x": 3565.85791015625,
          "y": 512.9340209960938,
          "z": 3209.5810546875
        },
        "camFov": 55.8489990234375,
        "lerpPattern": 6,
        "cameraBlendType": "EaseInOutCubic",
        "NJBNNOMLKCK": {},
        "needZAxisRotate": true,
        "openCameraDither": false,
        "targetNpcAlias": "",
        "closeTreeLeafDither": true,
        "KJOEFBPOIIH": "",
        "IICFKKEBIEC": "",
        "EGEHEJEBLBJ": ""
      },
      {
        "$type": "PKKMAMONGEO",
        "type": "DIALOG",
        "aliasList": [
          "1005"
        ],
        "actionId": 136,
        "dialogID": 741313617,
        "protectTime": 0.5
      },
      {
        "$type": "HDGKHDNFMIM",
        "type": "DIALOG_SELECT",
        "delayTime": 0.4000000059604645,
        "aliasList": [
          "AvatarNpc"
        ],
        "actionId": 203,
        "dialogIDList": [
          741313618,
          741313619
        ],
        "grpIDList": [
          1345876128,
          1345876128
        ],
        "useGrpId": true,
        "countDownGrpId": 1983078006
      }
    ],
    [
      {
        "$type": "PKKMAMONGEO",
        "type": "DIALOG",
        "aliasList": [
          "1005"
        ],
        "actionId": 139,
        "dialogID": 741313620,
        "protectTime": 0.5
      }
    ],
    [
      {
        "$type": "FJKIHHKJLMJ",
        "type": "CAMERA_MOVE",
        "duration": 0.5,
        "actionId": 246,
        "camPosOffset": {
          "x": 3563.884033203125,
          "y": 514.0070190429688,
          "z": 3208.283935546875
        },
        "camForwardTargetOffset": {
          "x": 3564.4169921875,
          "y": 513.656982421875,
          "z": 3209.053955078125
        },
        "camFov": 55.8489990234375,
        "lerpPattern": 6,
        "cameraBlendType": "EaseInOutCubic",
        "NJBNNOMLKCK": {},
        "needZAxisRotate": true,
        "openCameraDither": false,
        "targetNpcAlias": "",
        "closeTreeLeafDither": true,
        "KJOEFBPOIIH": "",
        "IICFKKEBIEC": "",
        "EGEHEJEBLBJ": ""
      },
      {
        "$type": "PKKMAMONGEO",
        "type": "DIALOG",
        "aliasList": [
          "5276"
        ],
        "actionId": 141,
        "dialogID": 741313621,
        "protectTime": 0.5
      },
      {
        "$type": "LJLMDHDCAMK",
        "type": "LOOK_AT",
        "aliasList": [
          "5276"
        ],
        "actionId": 274,
        "_flag": 64,
        "enableHead": true,
        "headTurnTime": 0.5,
        "targetNpcAlias": "AvatarNpc",
        "openBackProtect": true,
        "backProtectAngle": 10.0,
        "targetNpcLookAtPoint": "",
        "OAFJBHJHLJG": ""
      }
    ],
    [
      {
        "$type": "FJKIHHKJLMJ",
        "type": "CAMERA_MOVE",
        "duration": 0.5,
        "actionId": 247,
        "camPosOffset": {
          "x": 3565.01611328125,
          "y": 513.3569946289062,
          "z": 3210.303955078125
        },
        "camForwardTargetOffset": {
          "x": 3564.364013671875,
          "y": 513.0239868164062,
          "z": 3209.6240234375
        },
        "camFov": 55.8489990234375,
        "lerpPattern": 6,
        "cameraBlendType": "EaseInOutCubic",
        "NJBNNOMLKCK": {},
        "needZAxisRotate": true,
        "openCameraDither": false,
        "targetNpcAlias": "",
        "closeTreeLeafDither": true,
        "KJOEFBPOIIH": "",
        "IICFKKEBIEC": "",
        "EGEHEJEBLBJ": ""
      },
      {
        "$type": "PKKMAMONGEO",
        "type": "DIALOG",
        "aliasList": [
          "5275"
        ],
        "actionId": 143,
        "dialogID": 741313622,
        "protectTime": 0.5
      }
    ],
    [
      {
        "$type": "FJKIHHKJLMJ",
        "type": "CAMERA_MOVE",
        "duration": 0.5,
        "actionId": 248,
        "camPosOffset": {
          "x": 3564.75390625,
          "y": 513.6619873046875,
          "z": 3209.906005859375
        },
        "camForwardTargetOffset": {
          "x": 3565.532958984375,
          "y": 513.447021484375,
          "z": 3210.4951171875
        },
        "camFov": 55.8489990234375,
        "lerpPattern": 6,
        "cameraBlendType": "EaseInOutCubic",
        "NJBNNOMLKCK": {},
        "needZAxisRotate": true,
        "openCameraDither": false,
        "targetNpcAlias": "",
        "closeTreeLeafDither": true,
        "KJOEFBPOIIH": "",
        "IICFKKEBIEC": "",
        "EGEHEJEBLBJ": ""
      },
      {
        "$type": "PKKMAMONGEO",
        "type": "DIALOG",
        "aliasList": [
          "5276"
        ],
        "actionId": 145,
        "dialogID": 741313623,
        "protectTime": 0.5
      },
      {
        "$type": "LJLMDHDCAMK",
        "type": "LOOK_AT",
        "aliasList": [
          "5276"
        ],
        "actionId": 275,
        "_flag": 64,
        "enableHead": true,
        "headTurnTime": 0.5,
        "targetNpcAlias": "5275",
        "openBackProtect": true,
        "backProtectAngle": 10.0,
        "targetNpcLookAtPoint": "",
        "OAFJBHJHLJG": ""
      }
    ],
    [
      {
        "$type": "PKKMAMONGEO",
        "type": "DIALOG",
        "aliasList": [
          "5276"
        ],
        "actionId": 147,
        "dialogID": 741313624,
        "protectTime": 0.5
      }
    ],
    [
      {
        "$type": "FJKIHHKJLMJ",
        "type": "CAMERA_MOVE",
        "duration": 0.5,
        "actionId": 249,
        "camPosOffset": {
          "x": 3565.926025390625,
          "y": 514.47802734375,
          "z": 3207.125
        },
        "camForwardTargetOffset": {
          "x": 3566.006103515625,
          "y": 514.0,
          "z": 3208.0
        },
        "camFov": 56.374000549316406,
        "lerpPattern": 6,
        "cameraBlendType": "EaseInOutCubic",
        "NJBNNOMLKCK": {},
        "needZAxisRotate": true,
        "openCameraDither": false,
        "targetNpcAlias": "",
        "closeTreeLeafDither": true,
        "KJOEFBPOIIH": "",
        "IICFKKEBIEC": "",
        "EGEHEJEBLBJ": ""
      },
      {
        "$type": "PKKMAMONGEO",
        "type": "DIALOG",
        "aliasList": [
          "5276"
        ],
        "actionId": 149,
        "dialogID": 741313625,
        "protectTime": 0.5
      },
      {
        "$type": "HDGKHDNFMIM",
        "type": "DIALOG_SELECT",
        "delayTime": 0.4000000059604645,
        "aliasList": [
          "AvatarNpc"
        ],
        "actionId": 204,
        "dialogIDList": [
          741313626,
          741313627
        ],
        "grpIDList": [
          1345876155,
          1345876155
        ],
        "useGrpId": true,
        "countDownGrpId": 1983078006
      },
      {
        "$type": "LJLMDHDCAMK",
        "type": "LOOK_AT",
        "delayTime": 0.5170000195503235,
        "aliasList": [
          "5276"
        ],
        "actionId": 268,
        "_flag": 64,
        "enableHead": true,
        "headTurnTime": 0.5,
        "targetNpcAlias": "AvatarNpc",
        "openBackProtect": true,
        "backProtectAngle": 10.0,
        "targetNpcLookAtPoint": "",
        "OAFJBHJHLJG": ""
      }
    ],
    [
      {
        "$type": "FJKIHHKJLMJ",
        "type": "CAMERA_MOVE",
        "duration": 0.5,
        "actionId": 250,
        "camPosOffset": {
          "x": 3564.95703125,
          "y": 513.3989868164062,
          "z": 3210.132080078125
        },
        "camForwardTargetOffset": {
          "x": 3565.845947265625,
          "y": 513.3060302734375,
          "z": 3210.5791015625
        },
        "camFov": 56.374000549316406,
        "lerpPattern": 6,
        "cameraBlendType": "EaseInOutCubic",
        "NJBNNOMLKCK": {},
        "needZAxisRotate": true,
        "openCameraDither": false,
        "targetNpcAlias": "",
        "closeTreeLeafDither": true,
        "KJOEFBPOIIH": "",
        "IICFKKEBIEC": "",
        "EGEHEJEBLBJ": ""
      },
      {
        "$type": "PKKMAMONGEO",
        "type": "DIALOG",
        "aliasList": [
          "5276"
        ],
        "actionId": 152,
        "dialogID": 741313628,
        "protectTime": 0.5
      },
      {
        "$type": "FABLGECDBCH",
        "type": "BODY_LANG",
        "delayTime": 0.38600000739097595,
        "aliasList": [
          "5276"
        ],
        "actionId": 251,
        "bodyLangParam": 1120,
        "forceDoFreeStyle": true,
        "canDoRepeatFreeStyle": false,
        "cantBackToIdleWhenSitLoop": true,
        "eventPatternSuiteKey": "",
        "FOHHKFAIAAJ": ""
      }
    ],
    [
      {
        "$type": "PKKMAMONGEO",
        "type": "DIALOG",
        "aliasList": [
          "5276"
        ],
        "actionId": 154,
        "dialogID": 741313629,
        "protectTime": 0.5
      }
    ],
    [
      {
        "$type": "PKKMAMONGEO",
        "type": "DIALOG",
        "aliasList": [
          "5276"
        ],
        "actionId": 156,
        "dialogID": 741313630,
        "protectTime": 0.5
      }
    ],
    [
      {
        "$type": "PKKMAMONGEO",
        "type": "DIALOG",
        "aliasList": [
          "5276"
        ],
        "actionId": 158,
        "dialogID": 741313631,
        "protectTime": 0.5
      }
    ],
    [
      {
        "$type": "PKKMAMONGEO",
        "type": "DIALOG",
        "aliasList": [
          "5276"
        ],
        "actionId": 160,
        "dialogID": 741313632,
        "protectTime": 0.5
      }
    ],
    [
      {
        "$type": "PKKMAMONGEO",
        "type": "DIALOG",
        "aliasList": [
          "5276"
        ],
        "actionId": 162,
        "dialogID": 741313633,
        "protectTime": 0.5
      }
    ],
    [
      {
        "$type": "FJKIHHKJLMJ",
        "type": "CAMERA_MOVE",
        "duration": 0.5,
        "actionId": 252,
        "camPosOffset": {
          "x": 3564.9970703125,
          "y": 513.47998046875,
          "z": 3211.4951171875
        },
        "camForwardTargetOffset": {
          "x": 3564.029052734375,
          "y": 513.448974609375,
          "z": 3211.7451171875
        },
        "camFov": 55.8489990234375,
        "lerpPattern": 6,
        "cameraBlendType": "EaseInOutCubic",
        "NJBNNOMLKCK": {},
        "needZAxisRotate": true,
        "openCameraDither": false,
        "targetNpcAlias": "",
        "closeTreeLeafDither": true,
        "KJOEFBPOIIH": "",
        "IICFKKEBIEC": "",
        "EGEHEJEBLBJ": ""
      },
      {
        "$type": "PKKMAMONGEO",
        "type": "DIALOG",
        "aliasList": [
          "5274"
        ],
        "actionId": 164,
        "dialogID": 741313634,
        "protectTime": 0.5
      }
    ],
    [
      {
        "$type": "FJKIHHKJLMJ",
        "type": "CAMERA_MOVE",
        "duration": 0.5,
        "actionId": 253,
        "camPosOffset": {
          "x": 3565.35302734375,
          "y": 513.3670043945312,
          "z": 3209.673095703125
        },
        "camForwardTargetOffset": {
          "x": 3565.801025390625,
          "y": 513.291015625,
          "z": 3210.56396484375
        },
        "camFov": 55.8489990234375,
        "lerpPattern": 6,
        "cameraBlendType": "EaseInOutCubic",
        "NJBNNOMLKCK": {},
        "needZAxisRotate": true,
        "openCameraDither": false,
        "targetNpcAlias": "",
        "closeTreeLeafDither": true,
        "KJOEFBPOIIH": "",
        "IICFKKEBIEC": "",
        "EGEHEJEBLBJ": ""
      },
      {
        "$type": "PKKMAMONGEO",
        "type": "DIALOG",
        "aliasList": [
          "5276"
        ],
        "actionId": 166,
        "dialogID": 741313635,
        "protectTime": 0.5
      },
      {
        "$type": "FABLGECDBCH",
        "type": "BODY_LANG",
        "delayTime": 0.3089999854564667,
        "aliasList": [
          "5276"
        ],
        "actionId": 254,
        "bodyLangParam": 1040,
        "forceDoFreeStyle": true,
        "canDoRepeatFreeStyle": false,
        "cantBackToIdleWhenSitLoop": true,
        "eventPatternSuiteKey": "",
        "FOHHKFAIAAJ": ""
      }
    ],
    [
      {
        "$type": "PKKMAMONGEO",
        "type": "DIALOG",
        "aliasList": [
          "5276"
        ],
        "actionId": 168,
        "dialogID": 741313636,
        "protectTime": 0.5
      },
      {
        "$type": "FABLGECDBCH",
        "type": "BODY_LANG",
        "delayTime": 0.20000000298023224,
        "aliasList": [
          "5276"
        ],
        "actionId": 255,
        "forceDoFreeStyle": true,
        "canDoRepeatFreeStyle": false,
        "cantBackToIdleWhenSitLoop": true,
        "eventPatternSuiteKey": "",
        "FOHHKFAIAAJ": ""
      }
    ],
    [
      {
        "$type": "PKKMAMONGEO",
        "type": "DIALOG",
        "aliasList": [
          "5276"
        ],
        "actionId": 170,
        "dialogID": 741313637,
        "protectTime": 0.5
      },
      {
        "$type": "FABLGECDBCH",
        "type": "BODY_LANG",
        "delayTime": 0.34200000762939453,
        "aliasList": [
          "5276"
        ],
        "actionId": 256,
        "bodyLangParam": 1230,
        "forceDoFreeStyle": true,
        "canDoRepeatFreeStyle": false,
        "cantBackToIdleWhenSitLoop": true,
        "eventPatternSuiteKey": "",
        "FOHHKFAIAAJ": ""
      }
    ],
    [
      {
        "$type": "FJKIHHKJLMJ",
        "type": "CAMERA_MOVE",
        "duration": 0.5,
        "actionId": 257,
        "camPosOffset": {
          "x": 3566.22607421875,
          "y": 512.8900146484375,
          "z": 3210.39990234375
        },
        "camForwardTargetOffset": {
          "x": 3565.906005859375,
          "y": 512.8889770507812,
          "z": 3209.451904296875
        },
        "camFov": 56.374000549316406,
        "lerpPattern": 6,
        "cameraBlendType": "EaseInOutCubic",
        "NJBNNOMLKCK": {},
        "needZAxisRotate": true,
        "openCameraDither": false,
        "targetNpcAlias": "",
        "closeTreeLeafDither": true,
        "KJOEFBPOIIH": "",
        "IICFKKEBIEC": "",
        "EGEHEJEBLBJ": ""
      },
      {
        "$type": "PKKMAMONGEO",
        "type": "DIALOG",
        "aliasList": [
          "1005"
        ],
        "actionId": 172,
        "dialogID": 741313638,
        "protectTime": 0.5
      },
      {
        "$type": "HDGKHDNFMIM",
        "type": "DIALOG_SELECT",
        "delayTime": 0.4000000059604645,
        "aliasList": [
          "AvatarNpc"
        ],
        "actionId": 205,
        "dialogIDList": [
          741313639,
          741313640
        ],
        "grpIDList": [
          1345876187,
          1345876187
        ],
        "useGrpId": true,
        "countDownGrpId": 1983078006
      }
    ],
    [
      {
        "$type": "FJKIHHKJLMJ",
        "type": "CAMERA_MOVE",
        "duration": 0.5,
        "actionId": 259,
        "camPosOffset": {
          "x": 3565.8359375,
          "y": 513.427001953125,
          "z": 3211.969970703125
        },
        "camForwardTargetOffset": {
          "x": 3564.97900390625,
          "y": 513.2570190429688,
          "z": 3211.48388671875
        },
        "camFov": 56.374000549316406,
        "lerpPattern": 6,
        "cameraBlendType": "EaseInOutCubic",
        "NJBNNOMLKCK": {},
        "needZAxisRotate": true,
        "openCameraDither": false,
        "targetNpcAlias": "",
        "closeTreeLeafDither": true,
        "KJOEFBPOIIH": "",
        "IICFKKEBIEC": "",
        "EGEHEJEBLBJ": ""
      },
      {
        "$type": "PKKMAMONGEO",
        "type": "DIALOG",
        "aliasList": [
          "5273"
        ],
        "actionId": 175,
        "dialogID": 741313641,
        "protectTime": 0.5
      },
      {
        "$type": "LJLMDHDCAMK",
        "type": "LOOK_AT",
        "delayTime": 0.5550000071525574,
        "aliasList": [
          "5273"
        ],
        "actionId": 260,
        "_flag": 64,
        "enableHead": true,
        "headTurnTime": 0.5,
        "targetNpcAlias": "5274",
        "openBackProtect": true,
        "backProtectAngle": 10.0,
        "targetNpcLookAtPoint": "",
        "OAFJBHJHLJG": ""
      }
    ],
    [
      {
        "$type": "PKKMAMONGEO",
        "type": "DIALOG",
        "aliasList": [
          "5273"
        ],
        "actionId": 177,
        "dialogID": 741313642,
        "protectTime": 0.5
      },
      {
        "$type": "LJLMDHDCAMK",
        "type": "LOOK_AT",
        "delayTime": 0.3140000104904175,
        "aliasList": [
          "5273"
        ],
        "actionId": 261,
        "_flag": 64,
        "enableHead": true,
        "headTurnTime": 0.5,
        "targetNpcAlias": "5275",
        "openBackProtect": true,
        "backProtectAngle": 10.0,
        "targetNpcLookAtPoint": "",
        "OAFJBHJHLJG": ""
      }
    ],
    [
      {
        "$type": "PKKMAMONGEO",
        "type": "DIALOG",
        "aliasList": [
          "5275"
        ],
        "actionId": 179,
        "dialogID": 741313643,
        "protectTime": 0.5
      },
      {
        "$type": "FABLGECDBCH",
        "type": "BODY_LANG",
        "delayTime": 0.44200000166893005,
        "aliasList": [
          "5275"
        ],
        "actionId": 262,
        "bodyLangParam": 1050,
        "forceDoFreeStyle": true,
        "canDoRepeatFreeStyle": false,
        "cantBackToIdleWhenSitLoop": true,
        "eventPatternSuiteKey": "",
        "FOHHKFAIAAJ": ""
      }
    ],
    [
      {
        "$type": "FJKIHHKJLMJ",
        "type": "CAMERA_MOVE",
        "duration": 0.5,
        "actionId": 263,
        "camPosOffset": {
          "x": 3566.22607421875,
          "y": 512.8900146484375,
          "z": 3210.39990234375
        },
        "camForwardTargetOffset": {
          "x": 3565.906005859375,
          "y": 512.8889770507812,
          "z": 3209.451904296875
        },
        "camFov": 56.374000549316406,
        "lerpPattern": 6,
        "cameraBlendType": "EaseInOutCubic",
        "NJBNNOMLKCK": {},
        "needZAxisRotate": true,
        "openCameraDither": false,
        "targetNpcAlias": "",
        "closeTreeLeafDither": true,
        "KJOEFBPOIIH": "",
        "IICFKKEBIEC": "",
        "EGEHEJEBLBJ": ""
      },
      {
        "$type": "PKKMAMONGEO",
        "type": "DIALOG",
        "aliasList": [
          "1005"
        ],
        "actionId": 181,
        "dialogID": 741313644,
        "protectTime": 0.5
      },
      {
        "$type": "HDGKHDNFMIM",
        "type": "DIALOG_SELECT",
        "delayTime": 0.4000000059604645,
        "aliasList": [
          "AvatarNpc"
        ],
        "actionId": 206,
        "dialogIDList": [
          741313645,
          741313646
        ],
        "grpIDList": [
          1345876191,
          1345876191
        ],
        "useGrpId": true,
        "countDownGrpId": 1983078006
      }
    ],
    [
      {
        "$type": "PKKMAMONGEO",
        "type": "DIALOG",
        "aliasList": [
          "5276"
        ],
        "actionId": 184,
        "dialogID": 741313647,
        "protectTime": 0.5
      },
      {
        "$type": "FJKIHHKJLMJ",
        "type": "CAMERA_MOVE",
        "delayTime": 0.00800000037997961,
        "duration": 0.5,
        "actionId": 264,
        "camPosOffset": {
          "x": 3566.02197265625,
          "y": 513.333984375,
          "z": 3209.694091796875
        },
        "camForwardTargetOffset": {
          "x": 3565.8701171875,
          "y": 513.2789916992188,
          "z": 3210.680908203125
        },
        "camFov": 55.8489990234375,
        "lerpPattern": 6,
        "cameraBlendType": "EaseInOutCubic",
        "NJBNNOMLKCK": {},
        "needZAxisRotate": true,
        "openCameraDither": false,
        "targetNpcAlias": "",
        "closeTreeLeafDither": true,
        "KJOEFBPOIIH": "",
        "IICFKKEBIEC": "",
        "EGEHEJEBLBJ": ""
      },
      {
        "$type": "FABLGECDBCH",
        "type": "BODY_LANG",
        "delayTime": 0.3700000047683716,
        "aliasList": [
          "5276"
        ],
        "actionId": 265,
        "bodyLangParam": 1342,
        "forceDoFreeStyle": true,
        "canDoRepeatFreeStyle": false,
        "cantBackToIdleWhenSitLoop": true,
        "eventPatternSuiteKey": "",
        "FOHHKFAIAAJ": ""
      }
    ],
    [
      {
        "$type": "FJKIHHKJLMJ",
        "type": "CAMERA_MOVE",
        "duration": 0.5,
        "actionId": 266,
        "camPosOffset": {
          "x": 3565.193115234375,
          "y": 513.2760009765625,
          "z": 3211.35400390625
        },
        "camForwardTargetOffset": {
          "x": 3564.27099609375,
          "y": 513.2059936523438,
          "z": 3211.73388671875
        },
        "camFov": 55.8489990234375,
        "lerpPattern": 6,
        "cameraBlendType": "EaseInOutCubic",
        "NJBNNOMLKCK": {},
        "needZAxisRotate": true,
        "openCameraDither": false,
        "targetNpcAlias": "",
        "closeTreeLeafDither": true,
        "KJOEFBPOIIH": "",
        "IICFKKEBIEC": "",
        "EGEHEJEBLBJ": ""
      },
      {
        "$type": "PKKMAMONGEO",
        "type": "DIALOG",
        "aliasList": [
          "5274"
        ],
        "actionId": 186,
        "dialogID": 741313648,
        "protectTime": 0.5
      },
      {
        "$type": "FABLGECDBCH",
        "type": "BODY_LANG",
        "delayTime": 0.43299999833106995,
        "aliasList": [
          "5274"
        ],
        "actionId": 267,
        "bodyLangParam": 1230,
        "forceDoFreeStyle": true,
        "canDoRepeatFreeStyle": false,
        "cantBackToIdleWhenSitLoop": true,
        "eventPatternSuiteKey": "",
        "FOHHKFAIAAJ": ""
      }
    ],
    [
      {
        "$type": "MoleMole.Config.ConfigTimeProtectAction",
        "type": "TIME_PROTECT",
        "duration": 0.10000000149011612,
        "actionId": 105
      },
      {
        "$type": "MoleMole.Config.ConfigSimpleBlackScreenAction",
        "type": "SIMPLE_BLACK_SCREEN",
        "actionId": 187,
        "durationToBlack": 0.5,
        "durationKeepBlack": 1.5,
        "durationFromBlack": 0.5,
        "textMapID": ""
      },
      {
        "$type": "MoleMole.Config.ConfigTimeProtectAction",
        "type": "TIME_PROTECT",
        "duration": 0.699999988079071,
        "actionId": 188
      },
      {
        "$type": "FJKIHHKJLMJ",
        "type": "CAMERA_MOVE",
        "delayTime": 0.5,
        "duration": 0.10000000149011612,
        "actionId": 201,
        "cameraPosType": "EXIT",
        "camForwardTargetOffset": {
          "z": 1.0
        },
        "camFov": 30.0,
        "lerpPattern": 5,
        "cameraBlendType": "EaseInOutCubic",
        "NJBNNOMLKCK": {},
        "openCameraDither": false,
        "targetNpcAlias": "",
        "closeTreeLeafDither": true,
        "KJOEFBPOIIH": "",
        "IICFKKEBIEC": "",
        "EGEHEJEBLBJ": ""
      },
      {
        "$type": "MoleMole.Config.ConfigVisibleInterAction",
        "type": "VISIBLE",
        "delayTime": 0.6000000238418579,
        "aliasList": [
          "Avatar"
        ],
        "actionId": 210,
        "isVisible": true,
        "_extraParam": ""
      },
      {
        "$type": "MoleMole.Config.ConfigVisibleInterAction",
        "type": "VISIBLE",
        "delayTime": 0.6000000238418579,
        "aliasList": [
          "AvatarNpc"
        ],
        "actionId": 209,
        "_extraParam": ""
      },
      {
        "$type": "FABLGECDBCH",
        "type": "BODY_LANG",
        "delayTime": 0.6000000238418579,
        "aliasList": [
          "AvatarNpc"
        ],
        "actionId": 212,
        "isContinue": true,
        "forceDoFreeStyle": true,
        "canDoRepeatFreeStyle": false,
        "eventPatternSuiteKey": "",
        "FOHHKFAIAAJ": ""
      },
      {
        "$type": "FABLGECDBCH",
        "type": "BODY_LANG",
        "delayTime": 0.6000000238418579,
        "aliasList": [
          "5275"
        ],
        "actionId": 190,
        "isContinue": true,
        "forceDoFreeStyle": true,
        "canDoRepeatFreeStyle": false,
        "eventPatternSuiteKey": "",
        "FOHHKFAIAAJ": ""
      },
      {
        "$type": "FABLGECDBCH",
        "type": "BODY_LANG",
        "delayTime": 0.6000000238418579,
        "aliasList": [
          "1005"
        ],
        "actionId": 192,
        "isContinue": true,
        "forceDoFreeStyle": true,
        "canDoRepeatFreeStyle": false,
        "eventPatternSuiteKey": "",
        "FOHHKFAIAAJ": ""
      },
      {
        "$type": "FABLGECDBCH",
        "type": "BODY_LANG",
        "delayTime": 0.6000000238418579,
        "aliasList": [
          "5273"
        ],
        "actionId": 194,
        "isContinue": true,
        "forceDoFreeStyle": true,
        "canDoRepeatFreeStyle": false,
        "eventPatternSuiteKey": "",
        "FOHHKFAIAAJ": ""
      },
      {
        "$type": "FABLGECDBCH",
        "type": "BODY_LANG",
        "delayTime": 0.6000000238418579,
        "aliasList": [
          "5276"
        ],
        "actionId": 196,
        "isContinue": true,
        "forceDoFreeStyle": true,
        "canDoRepeatFreeStyle": false,
        "eventPatternSuiteKey": "",
        "FOHHKFAIAAJ": ""
      },
      {
        "$type": "FABLGECDBCH",
        "type": "BODY_LANG",
        "delayTime": 0.6000000238418579,
        "aliasList": [
          "5274"
        ],
        "actionId": 198,
        "isContinue": true,
        "forceDoFreeStyle": true,
        "canDoRepeatFreeStyle": false,
        "eventPatternSuiteKey": "",
        "FOHHKFAIAAJ": ""
      }
    ]
  ],
  "groupId": [
    {
      "grpId": 1983078007,
      "nextGrpId": 1983078008
    },
    {
      "index": 1,
      "grpId": 1983078008,
      "nextGrpId": 1983078009
    },
    {
      "index": 2,
      "grpId": 1983078009,
      "nextGrpId": 1983078010
    },
    {
      "index": 3,
      "grpId": 1983078010,
      "nextGrpId": 1983078011
    },
    {
      "index": 4,
      "grpId": 1983078011,
      "nextGrpId": 1983078012
    },
    {
      "index": 5,
      "grpId": 1983078012,
      "nextGrpId": 1983078013
    },
    {
      "index": 6,
      "grpId": 1983078013,
      "nextGrpId": 1983078014
    },
    {
      "index": 7,
      "grpId": 1983078014,
      "nextGrpId": 1983078015
    },
    {
      "index": 8,
      "grpId": 1983078015,
      "nextGrpId": 1345876121
    },
    {
      "index": 9,
      "grpId": 1345876121,
      "nextGrpId": 1345876122
    },
    {
      "index": 10,
      "grpId": 1345876122,
      "nextGrpId": 1345876123
    },
    {
      "index": 11,
      "grpId": 1345876123,
      "nextGrpId": 1345876124
    },
    {
      "index": 12,
      "grpId": 1345876124,
      "nextGrpId": 1345876125
    },
    {
      "index": 13,
      "grpId": 1345876125,
      "nextGrpId": 1345876126
    },
    {
      "index": 14,
      "grpId": 1345876126,
      "nextGrpId": 1345876127
    },
    {
      "index": 15,
      "grpId": 1345876127,
      "nextGrpId": 1345876128
    },
    {
      "index": 16,
      "grpId": 1345876128,
      "nextGrpId": 1345876129
    },
    {
      "index": 17,
      "grpId": 1345876129,
      "nextGrpId": 1345876130
    },
    {
      "index": 18,
      "grpId": 1345876130,
      "nextGrpId": 1345876152
    },
    {
      "index": 19,
      "grpId": 1345876152,
      "nextGrpId": 1345876153
    },
    {
      "index": 20,
      "grpId": 1345876153,
      "nextGrpId": 1345876154
    },
    {
      "index": 21,
      "grpId": 1345876154,
      "nextGrpId": 1345876155
    },
    {
      "index": 22,
      "grpId": 1345876155,
      "nextGrpId": 1345876156
    },
    {
      "index": 23,
      "grpId": 1345876156,
      "nextGrpId": 1345876157
    },
    {
      "index": 24,
      "grpId": 1345876157,
      "nextGrpId": 1345876158
    },
    {
      "index": 25,
      "grpId": 1345876158,
      "nextGrpId": 1345876159
    },
    {
      "index": 26,
      "grpId": 1345876159,
      "nextGrpId": 1345876160
    },
    {
      "index": 27,
      "grpId": 1345876160,
      "nextGrpId": 1345876161
    },
    {
      "index": 28,
      "grpId": 1345876161,
      "nextGrpId": 1345876183
    },
    {
      "index": 29,
      "grpId": 1345876183,
      "nextGrpId": 1345876184
    },
    {
      "index": 30,
      "grpId": 1345876184,
      "nextGrpId": 1345876185
    },
    {
      "index": 31,
      "grpId": 1345876185,
      "nextGrpId": 1345876186
    },
    {
      "index": 32,
      "grpId": 1345876186,
      "nextGrpId": 1345876187
    },
    {
      "index": 33,
      "grpId": 1345876187,
      "nextGrpId": 1345876188
    },
    {
      "index": 34,
      "grpId": 1345876188,
      "nextGrpId": 1345876189
    },
    {
      "index": 35,
      "grpId": 1345876189,
      "nextGrpId": 1345876190
    },
    {
      "index": 36,
      "grpId": 1345876190,
      "nextGrpId": 1345876191
    },
    {
      "index": 37,
      "grpId": 1345876191,
      "nextGrpId": 1345876192
    },
    {
      "index": 38,
      "grpId": 1345876192,
      "nextGrpId": 1345876214
    },
    {
      "index": 39,
      "grpId": 1345876214,
      "nextGrpId": 1345876215
    }
  ],
  "freeStyleDic": {
    "1025": [],
    "1026": [],
    "5275": [
      1190,
      1050
    ],
    "5273": [],
    "5276": [
      1171,
      1120,
      1040,
      1230,
      1342
    ],
    "5274": [
      1230
    ]
  },
  "EKFBDAIDEEF": {
    "5275": [
      "SitHoldArm01AS",
      "SitPutArm01AS",
      "SitRaiseHand01AS"
    ],
    "5276": [
      "SitChat01AS",
      "SitHoldArm01AS",
      "SitPutArm01AS",
      "SitRaiseHand01AS",
      "SitRead01AS"
    ],
    "5274": [
      "SitChat01AS",
      "SitHoldArm01AS",
      "SitPutArm01AS",
      "SitRaiseHand01AS",
      "SitRead01AS"
    ]
  }
}