{
  "luaDataPath": "",
  "isSimpleTalk": true,
  "entityBan": "",
  "disableNpcLod": true,
  "protectNpcMobileLod": true,
  "talkFlag": 7,
  "startFade": {
    "startFadeOutDuration": 0.0
  },
  "endFade": {
    "startFadeOutDuration": 0.0
  },
  "actors": [
    {
      "alias": "Avatar",
      "visible": true,
      "bornPointName": "",
      "relativePosType": "AVATAR_NEW",
      "relativePosNpcAlias": "",
      "_notDestroyInTalk": true,
      "_bindMovingTargetKey": ""
    },
    {
      "configID": 5031,
      "alias": "5031",
      "visible": true,
      "bornPointName": "",
      "relativePosType": "AVATAR_NEW",
      "relativePosNpcAlias": "",
      "_notDestroyInTalk": true,
      "_bindMovingTargetKey": ""
    },
    {
      "configID": 21293,
      "alias": "21293",
      "visible": true,
      "bornPointName": "",
      "useRelativePos": true,
      "relativePos": {
        "x": 0.5,
        "z": -0.5
      },
      "removeActorType": "NEW_REMOVE_WITH_DISAPPEAR",
      "relativePosType": "AVATAR_NEW",
      "relativePosNpcAlias": "",
      "_notDestroyInTalk": true,
      "_bindMovingTargetKey": ""
    }
  ],
  "group": [
    [
      {
        "$type": "FJKIHHKJLMJ",
        "type": "CAMERA_FOCUS",
        "duration": 0.10000000149011612,
        "actionId": 103,
        "targetNpcAlias": "",
        "KJOEFBPOIIH": "",
        "IICFKKEBIEC": "",
        "EGEHEJEBLBJ": ""
      },
      {
        "$type": "MoleMole.Config.ConfigTimeProtectAction",
        "type": "TIME_PROTECT",
        "duration": 0.10000000149011612,
        "actionId": 104
      },
      {
        "$type": "LLGANGLOEEO",
        "type": "STEER_TO",
        "delayTime": 0.30000001192092896,
        "duration": 0.800000011920929,
        "aliasList": [
          "Avatar"
        ],
        "actionId": 182,
        "_flag": 32,
        "steerType": "TO_TARGET_ADVANCED",
        "useSteerAnim": true,
        "interruptFreestyle": true,
        "forceSteer": true,
        "targetNpcAlias": "5031",
        "fixInterNull": true,
        "OAFJBHJHLJG": ""
      },
      {
        "$type": "LLGANGLOEEO",
        "type": "STEER_TO",
        "delayTime": 0.30000001192092896,
        "duration": 0.800000011920929,
        "aliasList": [
          "5031"
        ],
        "actionId": 183,
        "_flag": 32,
        "steerType": "TO_LOCAL_AVATAR_ADVANCED",
        "useSteerAnim": true,
        "interruptFreestyle": true,
        "forceSteer": true,
        "targetNpcAlias": "",
        "fixInterNull": true,
        "OAFJBHJHLJG": ""
      },
      {
        "$type": "LLGANGLOEEO",
        "type": "STEER_TO",
        "delayTime": 0.30000001192092896,
        "duration": 0.800000011920929,
        "aliasList": [
          "21293"
        ],
        "actionId": 185,
        "_flag": 32,
        "steerType": "TO_LOCAL_AVATAR_ADVANCED",
        "useSteerAnim": true,
        "interruptFreestyle": true,
        "forceSteer": true,
        "targetNpcAlias": "",
        "fixInterNull": true,
        "OAFJBHJHLJG": ""
      }
    ],
    [
      {
        "$type": "PKKMAMONGEO",
        "type": "DIALOG",
        "aliasList": [
          "5031"
        ],
        "actionId": 107,
        "dialogID": 740530101,
        "protectTime": 0.5
      },
      {
        "$type": "HDGKHDNFMIM",
        "type": "DIALOG_SELECT",
        "delayTime": 0.4000000059604645,
        "aliasList": [
          "Avatar"
        ],
        "actionId": 108,
        "dialogIDList": [
          740530102
        ],
        "grpIDList": [
          1331503543
        ],
        "useGrpId": true,
        "countDownGrpId": 1331503540
      }
    ],
    [
      {
        "$type": "PKKMAMONGEO",
        "type": "DIALOG",
        "aliasList": [
          "5031"
        ],
        "actionId": 110,
        "dialogID": 740530103,
        "protectTime": 0.5
      }
    ],
    [
      {
        "$type": "PKKMAMONGEO",
        "type": "DIALOG",
        "aliasList": [
          "5031"
        ],
        "actionId": 112,
        "dialogID": 740530104,
        "protectTime": 0.5
      },
      {
        "$type": "HDGKHDNFMIM",
        "type": "DIALOG_SELECT",
        "delayTime": 0.4000000059604645,
        "aliasList": [
          "Avatar"
        ],
        "actionId": 113,
        "dialogIDList": [
          740530105
        ],
        "grpIDList": [
          1331503545
        ],
        "useGrpId": true,
        "countDownGrpId": 1331503540
      }
    ],
    [
      {
        "$type": "PKKMAMONGEO",
        "type": "DIALOG",
        "aliasList": [
          "21293"
        ],
        "actionId": 115,
        "dialogID": 740530106,
        "protectTime": 0.5
      }
    ],
    [
      {
        "$type": "PKKMAMONGEO",
        "type": "DIALOG",
        "aliasList": [
          "21293"
        ],
        "actionId": 117,
        "dialogID": 740530107,
        "protectTime": 0.5
      }
    ],
    [
      {
        "$type": "PKKMAMONGEO",
        "type": "DIALOG",
        "aliasList": [
          "5031"
        ],
        "actionId": 119,
        "dialogID": 740530108,
        "protectTime": 0.5
      }
    ],
    [
      {
        "$type": "PKKMAMONGEO",
        "type": "DIALOG",
        "aliasList": [
          "5031"
        ],
        "actionId": 121,
        "dialogID": 740530109,
        "protectTime": 0.5
      },
      {
        "$type": "HDGKHDNFMIM",
        "type": "DIALOG_SELECT",
        "delayTime": 0.4000000059604645,
        "aliasList": [
          "Avatar"
        ],
        "actionId": 122,
        "dialogIDList": [
          740530110,
          740530112
        ],
        "grpIDList": [
          1331503549,
          2621904155
        ],
        "useGrpId": true,
        "countDownGrpId": 1331503540
      }
    ],
    [
      {
        "$type": "PKKMAMONGEO",
        "type": "DIALOG",
        "aliasList": [
          "5031"
        ],
        "actionId": 124,
        "dialogID": 740530111,
        "protectTime": 0.5
      }
    ],
    [
      {
        "$type": "PKKMAMONGEO",
        "type": "DIALOG",
        "aliasList": [
          "5031"
        ],
        "actionId": 126,
        "dialogID": 740530113,
        "protectTime": 0.5
      }
    ],
    [
      {
        "$type": "PKKMAMONGEO",
        "type": "DIALOG",
        "aliasList": [
          "5031"
        ],
        "actionId": 128,
        "dialogID": 740530114,
        "protectTime": 0.5
      }
    ],
    [
      {
        "$type": "PKKMAMONGEO",
        "type": "DIALOG",
        "aliasList": [
          "5031"
        ],
        "actionId": 130,
        "dialogID": 740530115,
        "protectTime": 0.5
      }
    ],
    [
      {
        "$type": "PKKMAMONGEO",
        "type": "DIALOG",
        "aliasList": [
          "5031"
        ],
        "actionId": 132,
        "dialogID": 740530116,
        "protectTime": 0.5
      }
    ],
    [
      {
        "$type": "PKKMAMONGEO",
        "type": "DIALOG",
        "aliasList": [
          "5031"
        ],
        "actionId": 134,
        "dialogID": 740530117,
        "protectTime": 0.5
      },
      {
        "$type": "HDGKHDNFMIM",
        "type": "DIALOG_SELECT",
        "delayTime": 0.4000000059604645,
        "aliasList": [
          "Avatar"
        ],
        "actionId": 135,
        "dialogIDList": [
          740530118
        ],
        "grpIDList": [
          2621904160
        ],
        "useGrpId": true,
        "countDownGrpId": 1331503540
      }
    ],
    [
      {
        "$type": "PKKMAMONGEO",
        "type": "DIALOG",
        "aliasList": [
          "5031"
        ],
        "actionId": 137,
        "dialogID": 740530119,
        "protectTime": 0.5
      },
      {
        "$type": "HDGKHDNFMIM",
        "type": "DIALOG_SELECT",
        "delayTime": 0.4000000059604645,
        "aliasList": [
          "Avatar"
        ],
        "actionId": 138,
        "dialogIDList": [
          740530120,
          740530121
        ],
        "grpIDList": [
          2621904161,
          2621904161
        ],
        "useGrpId": true,
        "countDownGrpId": 1331503540
      }
    ],
    [
      {
        "$type": "PKKMAMONGEO",
        "type": "DIALOG",
        "aliasList": [
          "5031"
        ],
        "actionId": 140,
        "dialogID": 740530122,
        "protectTime": 0.5
      },
      {
        "$type": "HDGKHDNFMIM",
        "type": "DIALOG_SELECT",
        "delayTime": 0.4000000059604645,
        "aliasList": [
          "Avatar"
        ],
        "actionId": 141,
        "dialogIDList": [
          740530123
        ],
        "grpIDList": [
          2621904162
        ],
        "useGrpId": true,
        "countDownGrpId": 1331503540
      }
    ],
    [
      {
        "$type": "PKKMAMONGEO",
        "type": "DIALOG",
        "aliasList": [
          "5031"
        ],
        "actionId": 143,
        "dialogID": 740530124,
        "protectTime": 0.5
      }
    ],
    [
      {
        "$type": "PKKMAMONGEO",
        "type": "DIALOG",
        "aliasList": [
          "5031"
        ],
        "actionId": 145,
        "dialogID": 740530125,
        "protectTime": 0.5
      }
    ],
    [
      {
        "$type": "PKKMAMONGEO",
        "type": "DIALOG",
        "aliasList": [
          "21293"
        ],
        "actionId": 147,
        "dialogID": 740530126,
        "protectTime": 0.5
      }
    ],
    [
      {
        "$type": "PKKMAMONGEO",
        "type": "DIALOG",
        "aliasList": [
          "5031"
        ],
        "actionId": 149,
        "dialogID": 740530127,
        "protectTime": 0.5
      }
    ],
    [
      {
        "$type": "PKKMAMONGEO",
        "type": "DIALOG",
        "aliasList": [
          "5031"
        ],
        "actionId": 151,
        "dialogID": 740530128,
        "protectTime": 0.5
      }
    ],
    [
      {
        "$type": "PKKMAMONGEO",
        "type": "DIALOG",
        "aliasList": [
          "5031"
        ],
        "actionId": 153,
        "dialogID": 740530129,
        "protectTime": 0.5
      }
    ],
    [
      {
        "$type": "PKKMAMONGEO",
        "type": "DIALOG",
        "aliasList": [
          "5031"
        ],
        "actionId": 155,
        "dialogID": 740530130,
        "protectTime": 0.5
      }
    ],
    [
      {
        "$type": "PKKMAMONGEO",
        "type": "DIALOG",
        "aliasList": [
          "5031"
        ],
        "actionId": 157,
        "dialogID": 740530131,
        "protectTime": 0.5
      },
      {
        "$type": "HDGKHDNFMIM",
        "type": "DIALOG_SELECT",
        "delayTime": 0.4000000059604645,
        "aliasList": [
          "Avatar"
        ],
        "actionId": 158,
        "dialogIDList": [
          740530132,
          740530133
        ],
        "grpIDList": [
          2621904191,
          2621904191
        ],
        "useGrpId": true,
        "countDownGrpId": 1331503540
      }
    ],
    [
      {
        "$type": "PKKMAMONGEO",
        "type": "DIALOG",
        "aliasList": [
          "21293"
        ],
        "actionId": 160,
        "dialogID": 740530134,
        "protectTime": 0.5
      }
    ],
    [
      {
        "$type": "MoleMole.Config.ConfigBlackScreenAction",
        "type": "BLACK_SCREEN",
        "actionId": 162,
        "durationToBlack": 0.5,
        "durationKeepBlack": 3.0,
        "durationFromBlack": 0.5,
        "inteePos": "",
        "textMapID": "",
        "useTextFade": true,
        "_dialogID": 740530135,
        "needWaitClick": true,
        "_changeAudioState": true
      },
      {
        "$type": "PKKMAMONGEO",
        "type": "DIALOG_CLEAR",
        "actionId": 163
      }
    ],
    [
      {
        "$type": "PKKMAMONGEO",
        "type": "DIALOG",
        "aliasList": [
          "21293"
        ],
        "actionId": 165,
        "dialogID": 740530136,
        "protectTime": 0.5
      },
      {
        "$type": "HDGKHDNFMIM",
        "type": "DIALOG_SELECT",
        "delayTime": 0.4000000059604645,
        "aliasList": [
          "Avatar"
        ],
        "actionId": 166,
        "dialogIDList": [
          740530137
        ],
        "grpIDList": [
          2621904194
        ],
        "useGrpId": true,
        "countDownGrpId": 1331503540
      }
    ],
    [
      {
        "$type": "PKKMAMONGEO",
        "type": "DIALOG",
        "aliasList": [
          "21293"
        ],
        "actionId": 168,
        "dialogID": 740530138,
        "protectTime": 0.5
      }
    ],
    [
      {
        "$type": "PKKMAMONGEO",
        "type": "DIALOG",
        "aliasList": [
          "5031"
        ],
        "actionId": 170,
        "dialogID": 740530139,
        "protectTime": 0.5
      },
      {
        "$type": "HDGKHDNFMIM",
        "type": "DIALOG_SELECT",
        "delayTime": 0.4000000059604645,
        "aliasList": [
          "Avatar"
        ],
        "actionId": 171,
        "dialogIDList": [
          740530140
        ],
        "grpIDList": [
          2621904217
        ],
        "useGrpId": true,
        "countDownGrpId": 1331503540
      }
    ],
    [
      {
        "$type": "PKKMAMONGEO",
        "type": "DIALOG",
        "aliasList": [
          "5031"
        ],
        "actionId": 173,
        "dialogID": 740530141,
        "protectTime": 0.5
      }
    ],
    [
      {
        "$type": "PKKMAMONGEO",
        "type": "DIALOG",
        "aliasList": [
          "5031"
        ],
        "actionId": 175,
        "dialogID": 740530142,
        "protectTime": 0.5
      }
    ],
    [
      {
        "$type": "PKKMAMONGEO",
        "type": "DIALOG",
        "aliasList": [
          "5031"
        ],
        "actionId": 177,
        "dialogID": 740530143,
        "protectTime": 0.5
      }
    ],
    [
      {
        "$type": "PKKMAMONGEO",
        "type": "DIALOG",
        "aliasList": [
          "5031"
        ],
        "actionId": 179,
        "dialogID": 740530144,
        "protectTime": 0.5
      }
    ],
    [
      {
        "$type": "PKKMAMONGEO",
        "type": "DIALOG",
        "aliasList": [
          "5031"
        ],
        "actionId": 181,
        "dialogID": 740530145,
        "protectTime": 0.5
      }
    ],
    [
      {
        "$type": "MoleMole.Config.ConfigTimeProtectAction",
        "type": "TIME_PROTECT",
        "duration": 0.10000000149011612,
        "actionId": 105
      },
      {
        "$type": "LLGANGLOEEO",
        "type": "STEER_TO",
        "duration": 1.0,
        "aliasList": [
          "5031"
        ],
        "actionId": 184,
        "_flag": 32,
        "steerType": "RETURN",
        "useSteerAnim": true,
        "interruptFreestyle": true,
        "forceSteer": true,
        "targetNpcAlias": "",
        "ignoreY": true,
        "fixInterNull": true,
        "OAFJBHJHLJG": ""
      },
      {
        "$type": "LLGANGLOEEO",
        "type": "STEER_TO",
        "duration": 1.0,
        "aliasList": [
          "21293"
        ],
        "actionId": 186,
        "_flag": 32,
        "steerType": "RETURN",
        "useSteerAnim": true,
        "interruptFreestyle": true,
        "forceSteer": true,
        "targetNpcAlias": "",
        "ignoreY": true,
        "fixInterNull": true,
        "OAFJBHJHLJG": ""
      }
    ]
  ],
  "groupId": [
    {
      "grpId": 1331503541,
      "nextGrpId": 1331503542
    },
    {
      "index": 1,
      "grpId": 1331503542,
      "nextGrpId": 1331503543
    },
    {
      "index": 2,
      "grpId": 1331503543,
      "nextGrpId": 1331503544
    },
    {
      "index": 3,
      "grpId": 1331503544,
      "nextGrpId": 1331503545
    },
    {
      "index": 4,
      "grpId": 1331503545,
      "nextGrpId": 1331503546
    },
    {
      "index": 5,
      "grpId": 1331503546,
      "nextGrpId": 1331503547
    },
    {
      "index": 6,
      "grpId": 1331503547,
      "nextGrpId": 1331503548
    },
    {
      "index": 7,
      "grpId": 1331503548,
      "nextGrpId": 1331503549
    },
    {
      "index": 8,
      "grpId": 1331503549,
      "nextGrpId": 2621904156
    },
    {
      "index": 9,
      "grpId": 2621904155,
      "nextGrpId": 2621904156
    },
    {
      "index": 10,
      "grpId": 2621904156,
      "nextGrpId": 2621904157
    },
    {
      "index": 11,
      "grpId": 2621904157,
      "nextGrpId": 2621904158
    },
    {
      "index": 12,
      "grpId": 2621904158,
      "nextGrpId": 2621904159
    },
    {
      "index": 13,
      "grpId": 2621904159,
      "nextGrpId": 2621904160
    },
    {
      "index": 14,
      "grpId": 2621904160,
      "nextGrpId": 2621904161
    },
    {
      "index": 15,
      "grpId": 2621904161,
      "nextGrpId": 2621904162
    },
    {
      "index": 16,
      "grpId": 2621904162,
      "nextGrpId": 2621904163
    },
    {
      "index": 17,
      "grpId": 2621904163,
      "nextGrpId": 2621904164
    },
    {
      "index": 18,
      "grpId": 2621904164,
      "nextGrpId": 2621904186
    },
    {
      "index": 19,
      "grpId": 2621904186,
      "nextGrpId": 2621904187
    },
    {
      "index": 20,
      "grpId": 2621904187,
      "nextGrpId": 2621904188
    },
    {
      "index": 21,
      "grpId": 2621904188,
      "nextGrpId": 2621904189
    },
    {
      "index": 22,
      "grpId": 2621904189,
      "nextGrpId": 2621904190
    },
    {
      "index": 23,
      "grpId": 2621904190,
      "nextGrpId": 2621904191
    },
    {
      "index": 24,
      "grpId": 2621904191,
      "nextGrpId": 2621904192
    },
    {
      "index": 25,
      "grpId": 2621904192,
      "nextGrpId": 2621904193
    },
    {
      "index": 26,
      "grpId": 2621904193,
      "nextGrpId": 2621904194
    },
    {
      "index": 27,
      "grpId": 2621904194,
      "nextGrpId": 2621904195
    },
    {
      "index": 28,
      "grpId": 2621904195,
      "nextGrpId": 2621904217
    },
    {
      "index": 29,
      "grpId": 2621904217,
      "nextGrpId": 2621904218
    },
    {
      "index": 30,
      "grpId": 2621904218,
      "nextGrpId": 2621904219
    },
    {
      "index": 31,
      "grpId": 2621904219,
      "nextGrpId": 2621904220
    },
    {
      "index": 32,
      "grpId": 2621904220,
      "nextGrpId": 2621904221
    },
    {
      "index": 33,
      "grpId": 2621904221,
      "nextGrpId": 2621904222
    },
    {
      "index": 34,
      "grpId": 2621904222,
      "nextGrpId": 2621904223
    }
  ],
  "freeStyleDic": {
    "5031": []
  }
}