{
  "luaDataPath": "",
  "isSimpleTalk": true,
  "entityBan": "",
  "disableNpcLod": true,
  "protectNpcMobileLod": true,
  "talkFlag": 7,
  "startFade": {
    "startFadeOutDuration": 0.0
  },
  "endFade": {
    "startFadeOutDuration": 0.0
  },
  "actors": [
    {
      "alias": "Avatar",
      "visible": true,
      "bornPointName": "",
      "relativePosType": "AVATAR_NEW",
      "relativePosNpcAlias": "",
      "_bindMovingTargetKey": ""
    },
    {
      "configID": 5257,
      "alias": "5257",
      "visible": true,
      "bornPointName": "",
      "forceCreateDaily": true,
      "relativePosType": "AVATAR_NEW",
      "relativePosNpcAlias": "",
      "_bindMovingTargetKey": ""
    },
    {
      "configID": 21293,
      "alias": "21293",
      "visible": true,
      "bornPointName": "",
      "useRelativePos": true,
      "relativePos": {
        "x": 0.5,
        "z": -0.5
      },
      "removeActorType": "NEW_REMOVE_WITH_DISAPPEAR",
      "relativePosType": "AVATAR_NEW",
      "relativePosNpcAlias": "",
      "_bindMovingTargetKey": ""
    }
  ],
  "group": [
    [
      {
        "$type": "FJKIHHKJLMJ",
        "type": "CAMERA_FOCUS",
        "duration": 0.10000000149011612,
        "actionId": 103,
        "targetNpcAlias": "",
        "KJOEFBPOIIH": "",
        "IICFKKEBIEC": "",
        "EGEHEJEBLBJ": ""
      },
      {
        "$type": "MoleMole.Config.ConfigTimeProtectAction",
        "type": "TIME_PROTECT",
        "duration": 0.10000000149011612,
        "actionId": 104
      },
      {
        "$type": "LLGANGLOEEO",
        "type": "STEER_TO",
        "delayTime": 0.30000001192092896,
        "duration": 0.800000011920929,
        "aliasList": [
          "Avatar"
        ],
        "actionId": 230,
        "_flag": 32,
        "steerType": "TO_TARGET_ADVANCED",
        "useSteerAnim": true,
        "interruptFreestyle": true,
        "forceSteer": true,
        "targetNpcAlias": "5257",
        "fixInterNull": true,
        "OAFJBHJHLJG": ""
      },
      {
        "$type": "LLGANGLOEEO",
        "type": "STEER_TO",
        "delayTime": 0.30000001192092896,
        "duration": 0.800000011920929,
        "aliasList": [
          "5257"
        ],
        "actionId": 231,
        "_flag": 32,
        "steerType": "TO_LOCAL_AVATAR_ADVANCED",
        "useSteerAnim": true,
        "interruptFreestyle": true,
        "forceSteer": true,
        "targetNpcAlias": "",
        "fixInterNull": true,
        "OAFJBHJHLJG": ""
      },
      {
        "$type": "LLGANGLOEEO",
        "type": "STEER_TO",
        "delayTime": 0.30000001192092896,
        "duration": 0.800000011920929,
        "aliasList": [
          "21293"
        ],
        "actionId": 233,
        "_flag": 32,
        "steerType": "TO_LOCAL_AVATAR_ADVANCED",
        "useSteerAnim": true,
        "interruptFreestyle": true,
        "forceSteer": true,
        "targetNpcAlias": "",
        "fixInterNull": true,
        "OAFJBHJHLJG": ""
      }
    ],
    [
      {
        "$type": "PKKMAMONGEO",
        "type": "DIALOG",
        "aliasList": [
          "5257"
        ],
        "actionId": 107,
        "dialogID": 740538901,
        "protectTime": 0.5
      },
      {
        "$type": "HDGKHDNFMIM",
        "type": "DIALOG_SELECT",
        "delayTime": 0.4000000059604645,
        "aliasList": [
          "Avatar"
        ],
        "actionId": 108,
        "dialogIDList": [
          740538902,
          740538917,
          740538930,
          740538946,
          740538949,
          740538968
        ],
        "grpIDList": [
          1331749559,
          2629530657,
          2629530688,
          2629530745,
          2629530747,
          2629530806
        ],
        "useGrpId": true,
        "countDownGrpId": 1331749556
      }
    ],
    [
      {
        "$type": "PKKMAMONGEO",
        "type": "DIALOG",
        "aliasList": [
          "5257"
        ],
        "actionId": 110,
        "dialogID": 740538903,
        "protectTime": 0.5
      }
    ],
    [
      {
        "$type": "PKKMAMONGEO",
        "type": "DIALOG",
        "aliasList": [
          "5257"
        ],
        "actionId": 112,
        "dialogID": 740538904,
        "protectTime": 0.5
      }
    ],
    [
      {
        "$type": "PKKMAMONGEO",
        "type": "DIALOG",
        "aliasList": [
          "5257"
        ],
        "actionId": 114,
        "dialogID": 740538905,
        "protectTime": 0.5
      }
    ],
    [
      {
        "$type": "PKKMAMONGEO",
        "type": "DIALOG",
        "aliasList": [
          "5257"
        ],
        "actionId": 116,
        "dialogID": 740538906,
        "protectTime": 0.5
      }
    ],
    [
      {
        "$type": "PKKMAMONGEO",
        "type": "DIALOG",
        "aliasList": [
          "5257"
        ],
        "actionId": 118,
        "dialogID": 740538907,
        "protectTime": 0.5
      }
    ],
    [
      {
        "$type": "PKKMAMONGEO",
        "type": "DIALOG",
        "aliasList": [
          "5257"
        ],
        "actionId": 120,
        "dialogID": 740538908,
        "protectTime": 0.5
      }
    ],
    [
      {
        "$type": "PKKMAMONGEO",
        "type": "DIALOG",
        "aliasList": [
          "5257"
        ],
        "actionId": 122,
        "dialogID": 740538909,
        "protectTime": 0.5
      }
    ],
    [
      {
        "$type": "PKKMAMONGEO",
        "type": "DIALOG",
        "aliasList": [
          "5257"
        ],
        "actionId": 124,
        "dialogID": 740538910,
        "protectTime": 0.5
      }
    ],
    [
      {
        "$type": "PKKMAMONGEO",
        "type": "DIALOG",
        "aliasList": [
          "5257"
        ],
        "actionId": 126,
        "dialogID": 740538911,
        "protectTime": 0.5
      }
    ],
    [
      {
        "$type": "PKKMAMONGEO",
        "type": "DIALOG",
        "aliasList": [
          "5257"
        ],
        "actionId": 128,
        "dialogID": 740538912,
        "protectTime": 0.5
      },
      {
        "$type": "HDGKHDNFMIM",
        "type": "DIALOG_SELECT",
        "delayTime": 0.4000000059604645,
        "aliasList": [
          "Avatar"
        ],
        "actionId": 129,
        "dialogIDList": [
          740538913
        ],
        "grpIDList": [
          2629530654
        ],
        "useGrpId": true,
        "countDownGrpId": 1331749556
      }
    ],
    [
      {
        "$type": "PKKMAMONGEO",
        "type": "DIALOG",
        "aliasList": [
          "5257"
        ],
        "actionId": 131,
        "dialogID": 740538914,
        "protectTime": 0.5
      }
    ],
    [
      {
        "$type": "PKKMAMONGEO",
        "type": "DIALOG",
        "aliasList": [
          "5257"
        ],
        "actionId": 133,
        "dialogID": 740538915,
        "protectTime": 0.5
      }
    ],
    [
      {
        "$type": "PKKMAMONGEO",
        "type": "DIALOG",
        "aliasList": [
          "5257"
        ],
        "actionId": 135,
        "dialogID": 740538916,
        "protectTime": 0.5
      }
    ],
    [
      {
        "$type": "PKKMAMONGEO",
        "type": "DIALOG",
        "aliasList": [
          "5257"
        ],
        "actionId": 137,
        "dialogID": 740538918,
        "protectTime": 0.5
      }
    ],
    [
      {
        "$type": "PKKMAMONGEO",
        "type": "DIALOG",
        "aliasList": [
          "5257"
        ],
        "actionId": 139,
        "dialogID": 740538919,
        "protectTime": 0.5
      }
    ],
    [
      {
        "$type": "PKKMAMONGEO",
        "type": "DIALOG",
        "aliasList": [
          "5257"
        ],
        "actionId": 141,
        "dialogID": 740538920,
        "protectTime": 0.5
      }
    ],
    [
      {
        "$type": "PKKMAMONGEO",
        "type": "DIALOG",
        "aliasList": [
          "5257"
        ],
        "actionId": 143,
        "dialogID": 740538921,
        "protectTime": 0.5
      }
    ],
    [
      {
        "$type": "PKKMAMONGEO",
        "type": "DIALOG",
        "aliasList": [
          "5257"
        ],
        "actionId": 145,
        "dialogID": 740538922,
        "protectTime": 0.5
      }
    ],
    [
      {
        "$type": "PKKMAMONGEO",
        "type": "DIALOG",
        "aliasList": [
          "5257"
        ],
        "actionId": 147,
        "dialogID": 740538923,
        "protectTime": 0.5
      }
    ],
    [
      {
        "$type": "PKKMAMONGEO",
        "type": "DIALOG",
        "aliasList": [
          "5257"
        ],
        "actionId": 149,
        "dialogID": 740538924,
        "protectTime": 0.5
      }
    ],
    [
      {
        "$type": "PKKMAMONGEO",
        "type": "DIALOG",
        "aliasList": [
          "5257"
        ],
        "actionId": 151,
        "dialogID": 740538925,
        "protectTime": 0.5
      }
    ],
    [
      {
        "$type": "PKKMAMONGEO",
        "type": "DIALOG",
        "aliasList": [
          "5257"
        ],
        "actionId": 153,
        "dialogID": 740538926,
        "protectTime": 0.5
      }
    ],
    [
      {
        "$type": "PKKMAMONGEO",
        "type": "DIALOG",
        "aliasList": [
          "5257"
        ],
        "actionId": 156,
        "dialogID": 740538929,
        "protectTime": 0.5
      }
    ],
    [
      {
        "$type": "PKKMAMONGEO",
        "type": "DIALOG",
        "aliasList": [
          "5257"
        ],
        "actionId": 158,
        "dialogID": 740538931,
        "protectTime": 0.5
      }
    ],
    [
      {
        "$type": "PKKMAMONGEO",
        "type": "DIALOG",
        "aliasList": [
          "5257"
        ],
        "actionId": 160,
        "dialogID": 740538932,
        "protectTime": 0.5
      }
    ],
    [
      {
        "$type": "PKKMAMONGEO",
        "type": "DIALOG",
        "aliasList": [
          "5257"
        ],
        "actionId": 162,
        "dialogID": 740538933,
        "protectTime": 0.5
      }
    ],
    [
      {
        "$type": "PKKMAMONGEO",
        "type": "DIALOG",
        "aliasList": [
          "5257"
        ],
        "actionId": 164,
        "dialogID": 740538934,
        "protectTime": 0.5
      }
    ],
    [
      {
        "$type": "PKKMAMONGEO",
        "type": "DIALOG",
        "aliasList": [
          "5257"
        ],
        "actionId": 166,
        "dialogID": 740538935,
        "protectTime": 0.5
      }
    ],
    [
      {
        "$type": "PKKMAMONGEO",
        "type": "DIALOG",
        "aliasList": [
          "5257"
        ],
        "actionId": 168,
        "dialogID": 740538936,
        "protectTime": 0.5
      }
    ],
    [
      {
        "$type": "PKKMAMONGEO",
        "type": "DIALOG",
        "aliasList": [
          "5257"
        ],
        "actionId": 170,
        "dialogID": 740538937,
        "protectTime": 0.5
      }
    ],
    [
      {
        "$type": "PKKMAMONGEO",
        "type": "DIALOG",
        "aliasList": [
          "5257"
        ],
        "actionId": 172,
        "dialogID": 740538938,
        "protectTime": 0.5
      }
    ],
    [
      {
        "$type": "PKKMAMONGEO",
        "type": "DIALOG",
        "aliasList": [
          "5257"
        ],
        "actionId": 174,
        "dialogID": 740538939,
        "protectTime": 0.5
      }
    ],
    [
      {
        "$type": "PKKMAMONGEO",
        "type": "DIALOG",
        "aliasList": [
          "5257"
        ],
        "actionId": 176,
        "dialogID": 740538940,
        "protectTime": 0.5
      }
    ],
    [
      {
        "$type": "PKKMAMONGEO",
        "type": "DIALOG",
        "aliasList": [
          "5257"
        ],
        "actionId": 178,
        "dialogID": 740538941,
        "protectTime": 0.5
      }
    ],
    [
      {
        "$type": "PKKMAMONGEO",
        "type": "DIALOG",
        "aliasList": [
          "5257"
        ],
        "actionId": 180,
        "dialogID": 740538942,
        "protectTime": 0.5
      }
    ],
    [
      {
        "$type": "PKKMAMONGEO",
        "type": "DIALOG",
        "aliasList": [
          "5257"
        ],
        "actionId": 182,
        "dialogID": 740538943,
        "protectTime": 0.5
      }
    ],
    [
      {
        "$type": "PKKMAMONGEO",
        "type": "DIALOG",
        "aliasList": [
          "5257"
        ],
        "actionId": 184,
        "dialogID": 740538944,
        "protectTime": 0.5
      }
    ],
    [
      {
        "$type": "PKKMAMONGEO",
        "type": "DIALOG",
        "aliasList": [
          "5257"
        ],
        "actionId": 186,
        "dialogID": 740538945,
        "protectTime": 0.5
      }
    ],
    [
      {
        "$type": "PKKMAMONGEO",
        "type": "DIALOG",
        "aliasList": [
          "5257"
        ],
        "actionId": 188,
        "dialogID": 740538947,
        "protectTime": 0.5
      }
    ],
    [
      {
        "$type": "PKKMAMONGEO",
        "type": "DIALOG",
        "aliasList": [
          "5257"
        ],
        "actionId": 190,
        "dialogID": 740538948,
        "protectTime": 0.5
      }
    ],
    [
      {
        "$type": "PKKMAMONGEO",
        "type": "DIALOG",
        "aliasList": [
          "5257"
        ],
        "actionId": 192,
        "dialogID": 740538950,
        "protectTime": 0.5
      }
    ],
    [
      {
        "$type": "PKKMAMONGEO",
        "type": "DIALOG",
        "aliasList": [
          "5257"
        ],
        "actionId": 194,
        "dialogID": 740538951,
        "protectTime": 0.5
      }
    ],
    [
      {
        "$type": "PKKMAMONGEO",
        "type": "DIALOG",
        "aliasList": [
          "21293"
        ],
        "actionId": 196,
        "dialogID": 740538952,
        "protectTime": 0.5
      }
    ],
    [
      {
        "$type": "PKKMAMONGEO",
        "type": "DIALOG",
        "aliasList": [
          "5257"
        ],
        "actionId": 198,
        "dialogID": 740538953,
        "protectTime": 0.5
      }
    ],
    [
      {
        "$type": "PKKMAMONGEO",
        "type": "DIALOG",
        "aliasList": [
          "5257"
        ],
        "actionId": 200,
        "dialogID": 740538954,
        "protectTime": 0.5
      }
    ],
    [
      {
        "$type": "PKKMAMONGEO",
        "type": "DIALOG",
        "aliasList": [
          "5257"
        ],
        "actionId": 202,
        "dialogID": 740538955,
        "protectTime": 0.5
      }
    ],
    [
      {
        "$type": "PKKMAMONGEO",
        "type": "DIALOG",
        "aliasList": [
          "5257"
        ],
        "actionId": 204,
        "dialogID": 740538956,
        "protectTime": 0.5
      }
    ],
    [
      {
        "$type": "PKKMAMONGEO",
        "type": "DIALOG",
        "aliasList": [
          "5257"
        ],
        "actionId": 206,
        "dialogID": 740538957,
        "protectTime": 0.5
      }
    ],
    [
      {
        "$type": "PKKMAMONGEO",
        "type": "DIALOG",
        "aliasList": [
          "5257"
        ],
        "actionId": 208,
        "dialogID": 740538958,
        "protectTime": 0.5
      }
    ],
    [
      {
        "$type": "PKKMAMONGEO",
        "type": "DIALOG",
        "aliasList": [
          "5257"
        ],
        "actionId": 210,
        "dialogID": 740538959,
        "protectTime": 0.5
      }
    ],
    [
      {
        "$type": "PKKMAMONGEO",
        "type": "DIALOG",
        "aliasList": [
          "5257"
        ],
        "actionId": 212,
        "dialogID": 740538960,
        "protectTime": 0.5
      }
    ],
    [
      {
        "$type": "PKKMAMONGEO",
        "type": "DIALOG",
        "aliasList": [
          "5257"
        ],
        "actionId": 214,
        "dialogID": 740538961,
        "protectTime": 0.5
      },
      {
        "$type": "HDGKHDNFMIM",
        "type": "DIALOG_SELECT",
        "delayTime": 0.4000000059604645,
        "aliasList": [
          "Avatar"
        ],
        "actionId": 215,
        "dialogIDList": [
          740538962
        ],
        "grpIDList": [
          2629530780
        ],
        "useGrpId": true,
        "countDownGrpId": 1331749556
      }
    ],
    [
      {
        "$type": "PKKMAMONGEO",
        "type": "DIALOG",
        "aliasList": [
          "21293"
        ],
        "actionId": 217,
        "dialogID": 740538963,
        "protectTime": 0.5
      }
    ],
    [
      {
        "$type": "PKKMAMONGEO",
        "type": "DIALOG",
        "aliasList": [
          "21293"
        ],
        "actionId": 219,
        "dialogID": 740538964,
        "protectTime": 0.5
      }
    ],
    [
      {
        "$type": "PKKMAMONGEO",
        "type": "DIALOG",
        "aliasList": [
          "5257"
        ],
        "actionId": 221,
        "dialogID": 740538965,
        "protectTime": 0.5
      }
    ],
    [
      {
        "$type": "PKKMAMONGEO",
        "type": "DIALOG",
        "aliasList": [
          "5257"
        ],
        "actionId": 223,
        "dialogID": 740538966,
        "protectTime": 0.5
      }
    ],
    [
      {
        "$type": "PKKMAMONGEO",
        "type": "DIALOG",
        "aliasList": [
          "5257"
        ],
        "actionId": 225,
        "dialogID": 740538967,
        "protectTime": 0.5
      }
    ],
    [
      {
        "$type": "PKKMAMONGEO",
        "type": "DIALOG",
        "aliasList": [
          "5257"
        ],
        "actionId": 227,
        "dialogID": 740538969,
        "protectTime": 0.5
      }
    ],
    [
      {
        "$type": "MoleMole.Config.ConfigTimeProtectAction",
        "type": "TIME_PROTECT",
        "duration": 0.10000000149011612,
        "actionId": 229
      }
    ],
    [
      {
        "$type": "MoleMole.Config.ConfigTimeProtectAction",
        "type": "TIME_PROTECT",
        "duration": 0.10000000149011612,
        "actionId": 105
      },
      {
        "$type": "LLGANGLOEEO",
        "type": "STEER_TO",
        "duration": 1.0,
        "aliasList": [
          "5257"
        ],
        "actionId": 232,
        "_flag": 32,
        "steerType": "RETURN",
        "useSteerAnim": true,
        "interruptFreestyle": true,
        "forceSteer": true,
        "targetNpcAlias": "",
        "ignoreY": true,
        "fixInterNull": true,
        "OAFJBHJHLJG": ""
      },
      {
        "$type": "LLGANGLOEEO",
        "type": "STEER_TO",
        "duration": 1.0,
        "aliasList": [
          "21293"
        ],
        "actionId": 234,
        "_flag": 32,
        "steerType": "RETURN",
        "useSteerAnim": true,
        "interruptFreestyle": true,
        "forceSteer": true,
        "targetNpcAlias": "",
        "ignoreY": true,
        "fixInterNull": true,
        "OAFJBHJHLJG": ""
      }
    ]
  ],
  "groupId": [
    {
      "grpId": 1331749557,
      "nextGrpId": 1331749558
    },
    {
      "index": 1,
      "grpId": 1331749558,
      "nextGrpId": 1331749559
    },
    {
      "index": 2,
      "grpId": 1331749559,
      "nextGrpId": 1331749560
    },
    {
      "index": 3,
      "grpId": 1331749560,
      "nextGrpId": 1331749561
    },
    {
      "index": 4,
      "grpId": 1331749561,
      "nextGrpId": 1331749562
    },
    {
      "index": 5,
      "grpId": 1331749562,
      "nextGrpId": 1331749563
    },
    {
      "index": 6,
      "grpId": 1331749563,
      "nextGrpId": 1331749564
    },
    {
      "index": 7,
      "grpId": 1331749564,
      "nextGrpId": 1331749565
    },
    {
      "index": 8,
      "grpId": 1331749565,
      "nextGrpId": 2629530651
    },
    {
      "index": 9,
      "grpId": 2629530651,
      "nextGrpId": 2629530652
    },
    {
      "index": 10,
      "grpId": 2629530652,
      "nextGrpId": 2629530653
    },
    {
      "index": 11,
      "grpId": 2629530653,
      "nextGrpId": 2629530654
    },
    {
      "index": 12,
      "grpId": 2629530654,
      "nextGrpId": 2629530655
    },
    {
      "index": 13,
      "grpId": 2629530655,
      "nextGrpId": 2629530656
    },
    {
      "index": 14,
      "grpId": 2629530656,
      "nextGrpId": 2629530807
    },
    {
      "index": 15,
      "grpId": 2629530657,
      "nextGrpId": 2629530658
    },
    {
      "index": 16,
      "grpId": 2629530658,
      "nextGrpId": 2629530659
    },
    {
      "index": 17,
      "grpId": 2629530659,
      "nextGrpId": 2629530660
    },
    {
      "index": 18,
      "grpId": 2629530660,
      "nextGrpId": 2629530682
    },
    {
      "index": 19,
      "grpId": 2629530682,
      "nextGrpId": 2629530683
    },
    {
      "index": 20,
      "grpId": 2629530683,
      "nextGrpId": 2629530684
    },
    {
      "index": 21,
      "grpId": 2629530684,
      "nextGrpId": 2629530685
    },
    {
      "index": 22,
      "grpId": 2629530685,
      "nextGrpId": 2629530686
    },
    {
      "index": 23,
      "grpId": 2629530686,
      "nextGrpId": 2629530687
    },
    {
      "index": 24,
      "grpId": 2629530687,
      "nextGrpId": 2629530807
    },
    {
      "index": 25,
      "grpId": 2629530688,
      "nextGrpId": 2629530689
    },
    {
      "index": 26,
      "grpId": 2629530689,
      "nextGrpId": 2629530690
    },
    {
      "index": 27,
      "grpId": 2629530690,
      "nextGrpId": 2629530691
    },
    {
      "index": 28,
      "grpId": 2629530691,
      "nextGrpId": 2629530713
    },
    {
      "index": 29,
      "grpId": 2629530713,
      "nextGrpId": 2629530714
    },
    {
      "index": 30,
      "grpId": 2629530714,
      "nextGrpId": 2629530715
    },
    {
      "index": 31,
      "grpId": 2629530715,
      "nextGrpId": 2629530716
    },
    {
      "index": 32,
      "grpId": 2629530716,
      "nextGrpId": 2629530717
    },
    {
      "index": 33,
      "grpId": 2629530717,
      "nextGrpId": 2629530718
    },
    {
      "index": 34,
      "grpId": 2629530718,
      "nextGrpId": 2629530719
    },
    {
      "index": 35,
      "grpId": 2629530719,
      "nextGrpId": 2629530720
    },
    {
      "index": 36,
      "grpId": 2629530720,
      "nextGrpId": 2629530721
    },
    {
      "index": 37,
      "grpId": 2629530721,
      "nextGrpId": 2629530722
    },
    {
      "index": 38,
      "grpId": 2629530722,
      "nextGrpId": 2629530744
    },
    {
      "index": 39,
      "grpId": 2629530744,
      "nextGrpId": 2629530807
    },
    {
      "index": 40,
      "grpId": 2629530745,
      "nextGrpId": 2629530746
    },
    {
      "index": 41,
      "grpId": 2629530746,
      "nextGrpId": 2629530807
    },
    {
      "index": 42,
      "grpId": 2629530747,
      "nextGrpId": 2629530748
    },
    {
      "index": 43,
      "grpId": 2629530748,
      "nextGrpId": 2629530749
    },
    {
      "index": 44,
      "grpId": 2629530749,
      "nextGrpId": 2629530750
    },
    {
      "index": 45,
      "grpId": 2629530750,
      "nextGrpId": 2629530751
    },
    {
      "index": 46,
      "grpId": 2629530751,
      "nextGrpId": 2629530752
    },
    {
      "index": 47,
      "grpId": 2629530752,
      "nextGrpId": 2629530753
    },
    {
      "index": 48,
      "grpId": 2629530753,
      "nextGrpId": 2629530775
    },
    {
      "index": 49,
      "grpId": 2629530775,
      "nextGrpId": 2629530776
    },
    {
      "index": 50,
      "grpId": 2629530776,
      "nextGrpId": 2629530777
    },
    {
      "index": 51,
      "grpId": 2629530777,
      "nextGrpId": 2629530778
    },
    {
      "index": 52,
      "grpId": 2629530778,
      "nextGrpId": 2629530779
    },
    {
      "index": 53,
      "grpId": 2629530779,
      "nextGrpId": 2629530780
    },
    {
      "index": 54,
      "grpId": 2629530780,
      "nextGrpId": 2629530781
    },
    {
      "index": 55,
      "grpId": 2629530781,
      "nextGrpId": 2629530782
    },
    {
      "index": 56,
      "grpId": 2629530782,
      "nextGrpId": 2629530783
    },
    {
      "index": 57,
      "grpId": 2629530783,
      "nextGrpId": 2629530784
    },
    {
      "index": 58,
      "grpId": 2629530784,
      "nextGrpId": 2629530807
    },
    {
      "index": 59,
      "grpId": 2629530806,
      "nextGrpId": 2629530807
    },
    {
      "index": 60,
      "grpId": 2629530807,
      "nextGrpId": 2629530808
    },
    {
      "index": 61,
      "grpId": 2629530808,
      "nextGrpId": 2629530809
    }
  ],
  "freeStyleDic": {
    "5257": []
  }
}