{
  "luaDataPath": "",
  "entityBan": "",
  "disableNpcLod": true,
  "protectNpcMobileLod": true,
  "talkFlag": 7,
  "startFade": {
    "startFadeOutDuration": 0.0
  },
  "endFade": {
    "startFadeOutDuration": 0.0
  },
  "actors": [
    {
      "alias": "Avatar",
      "visible": true,
      "bornPointName": "",
      "relativePosType": "AVATAR_NEW",
      "relativePosNpcAlias": "",
      "_notDestroyInTalk": true,
      "_bindMovingTargetKey": ""
    },
    {
      "configID": 9378,
      "alias": "9378",
      "visible": true,
      "bornPointName": "",
      "forceCreateDaily": true,
      "relativePosType": "AVATAR_NEW",
      "relativePosNpcAlias": "",
      "_notDestroyInTalk": true,
      "_bindMovingTargetKey": ""
    }
  ],
  "group": [
    [
      {
        "$type": "MoleMole.Config.ConfigTimeProtectAction",
        "type": "TIME_PROTECT",
        "duration": 0.5,
        "actionId": 104
      },
      {
        "$type": "IEKHMHNHENB",
        "type": "STEER_TO",
        "delayTime": 0.30000001192092896,
        "duration": 1.0,
        "aliasList": [
          "Avatar"
        ],
        "actionId": 112,
        "_flag": 32,
        "steerType": "TO_TARGET_ADVANCED",
        "useSteerAnim": true,
        "interruptFreestyle": true,
        "forceSteer": true,
        "targetNpcAlias": "9378",
        "ignoreY": true,
        "fixInterNull": true,
        "BHGPHGNFCBF": ""
      },
      {
        "$type": "IEKHMHNHENB",
        "type": "STEER_TO",
        "delayTime": 0.10000000149011612,
        "duration": 1.0,
        "aliasList": [
          "9378"
        ],
        "actionId": 113,
        "preActionId": 115,
        "_flag": 32,
        "steerType": "TO_TARGET_ADVANCED",
        "useSteerAnim": true,
        "interruptFreestyle": true,
        "forceSteer": true,
        "targetNpcAlias": "Avatar",
        "ignoreY": true,
        "fixInterNull": true,
        "BHGPHGNFCBF": ""
      },
      {
        "$type": "MoleMole.Config.ConfigSitOrStandAction",
        "type": "SIT_OR_STAND",
        "aliasList": [
          "9378"
        ],
        "actionId": 115,
        "haveNextAction": true,
        "_flag": 40960,
        "standDirection": "FRONT",
        "banResetFreestyle": true
      },
      {
        "$type": "NPCNMEOCADD",
        "type": "LOOK_AT",
        "delayTime": 0.30000001192092896,
        "aliasList": [
          "9378"
        ],
        "actionId": 116,
        "_flag": 64,
        "enableHead": true,
        "headTurnTime": 0.5,
        "targetNpcAlias": "Avatar",
        "openBackProtect": true,
        "backProtectAngle": 10.0,
        "targetNpcLookAtPoint": "",
        "BHGPHGNFCBF": ""
      },
      {
        "$type": "NPCNMEOCADD",
        "type": "LOOK_AT",
        "delayTime": 0.30000001192092896,
        "aliasList": [
          "Avatar"
        ],
        "actionId": 118,
        "_flag": 64,
        "enableHead": true,
        "headTurnTime": 0.5,
        "targetNpcAlias": "9378",
        "openBackProtect": true,
        "backProtectAngle": 10.0,
        "targetNpcLookAtPoint": "",
        "BHGPHGNFCBF": ""
      },
      {
        "$type": "MoleMole.Config.ConfigCameraFocusNewInterAction",
        "type": "CAMERA_FOCUS_NEW",
        "delayTime": 0.20000000298023224,
        "duration": 0.10000000149011612,
        "actionId": 120,
        "focusExtendedSetting": {}
      }
    ],
    [
      {
        "$type": "MJFAIFFAGOF",
        "type": "DIALOG",
        "aliasList": [
          "9378"
        ],
        "actionId": 107,
        "dialogID": 693780301,
        "protectTime": 0.5
      },
      {
        "$type": "ICHLNKHGCAG",
        "type": "EMO_SYNC",
        "aliasList": [
          "9378"
        ],
        "actionId": 121,
        "_flag": 256,
        "dataPath": "Cs_Emo_Avatar_Simple_Common_Set/Cs_Emo_Avatar_Talk/Cs_Emo_RoleCombat/Cs_Emo_Avatar_Chiori/Cs_Emo_693780301",
        "phonemePath": "",
        "emotionPath": "",
        "mateDataPath": "",
        "matePhonemePath": "",
        "mateEmotionPath": "",
        "dataPathHashList": [
          9918160289944040665,
          3977596921339462641,
          453880904998072993,
          295431651077031936
        ],
        "PACNIGOOENN": "",
        "PIBDNPHIAGC": ""
      },
      {
        "$type": "EDCHPJLDKIN",
        "type": "BODY_LANG",
        "aliasList": [
          "9378"
        ],
        "actionId": 125,
        "_flag": 131072,
        "bodyLangParam": 1120,
        "forceDoFreeStyle": true,
        "canDoRepeatFreeStyle": false,
        "cantBackToIdleWhenSitLoop": true,
        "eventPatternSuiteKey": ""
      }
    ],
    [
      {
        "$type": "MJFAIFFAGOF",
        "type": "DIALOG",
        "aliasList": [
          "9378"
        ],
        "actionId": 109,
        "dialogID": 693780302,
        "protectTime": 0.5
      },
      {
        "$type": "ICHLNKHGCAG",
        "type": "EMO_SYNC",
        "aliasList": [
          "9378"
        ],
        "actionId": 122,
        "_flag": 256,
        "dataPath": "Cs_Emo_Avatar_Simple_Common_Set/Cs_Emo_Avatar_Talk/Cs_Emo_RoleCombat/Cs_Emo_Avatar_Chiori/Cs_Emo_693780302",
        "phonemePath": "",
        "emotionPath": "",
        "mateDataPath": "",
        "matePhonemePath": "",
        "mateEmotionPath": "",
        "dataPathHashList": [
          6061898048250592432,
          13593119067898726625,
          2616807986984136184,
          822448806977166061
        ],
        "PACNIGOOENN": "",
        "PIBDNPHIAGC": ""
      },
      {
        "$type": "EDCHPJLDKIN",
        "type": "BODY_LANG",
        "delayTime": 2.99399995803833,
        "aliasList": [
          "9378"
        ],
        "actionId": 130,
        "_flag": 131072,
        "bodyLangParam": 1171,
        "forceDoFreeStyle": true,
        "canDoRepeatFreeStyle": false,
        "cantBackToIdleWhenSitLoop": true,
        "eventPatternSuiteKey": ""
      },
      {
        "$type": "EDCHPJLDKIN",
        "type": "BODY_LANG",
        "aliasList": [
          "9378"
        ],
        "actionId": 135,
        "_flag": 131072,
        "isContinue": true,
        "forceDoFreeStyle": true,
        "canDoRepeatFreeStyle": false,
        "cantBackToIdleWhenSitLoop": true,
        "eventPatternSuiteKey": ""
      }
    ],
    [
      {
        "$type": "MJFAIFFAGOF",
        "type": "DIALOG",
        "aliasList": [
          "9378"
        ],
        "actionId": 111,
        "dialogID": 693780303,
        "protectTime": 0.5
      },
      {
        "$type": "ICHLNKHGCAG",
        "type": "EMO_SYNC",
        "aliasList": [
          "9378"
        ],
        "actionId": 123,
        "_flag": 320,
        "dataPath": "Cs_Emo_Avatar_Simple_Common_Set/Cs_Emo_Avatar_Talk/Cs_Emo_RoleCombat/Cs_Emo_Avatar_Chiori/Cs_Emo_693780303",
        "phonemePath": "",
        "emotionPath": "",
        "mateDataPath": "",
        "matePhonemePath": "",
        "mateEmotionPath": "",
        "dataPathHashList": [
          8215024478765948562,
          6371363399571570102,
          17733695097384732869,
          3620482523848055032
        ],
        "PACNIGOOENN": "",
        "PIBDNPHIAGC": ""
      },
      {
        "$type": "EDCHPJLDKIN",
        "type": "BODY_LANG",
        "aliasList": [
          "9378"
        ],
        "actionId": 132,
        "_flag": 131072,
        "bodyLangParam": 1230,
        "forceDoFreeStyle": true,
        "canDoRepeatFreeStyle": false,
        "cantBackToIdleWhenSitLoop": true,
        "eventPatternSuiteKey": ""
      }
    ],
    [
      {
        "$type": "MoleMole.Config.ConfigTimeProtectAction",
        "type": "TIME_PROTECT",
        "duration": 0.5,
        "actionId": 105
      },
      {
        "$type": "IEKHMHNHENB",
        "type": "STEER_TO",
        "delayTime": 0.48100000619888306,
        "duration": 1.0,
        "aliasList": [
          "9378"
        ],
        "actionId": 114,
        "_flag": 32,
        "steerType": "RETURN",
        "useSteerAnim": true,
        "interruptFreestyle": true,
        "forceSteer": true,
        "targetNpcAlias": "",
        "ignoreY": true,
        "fixInterNull": true,
        "BHGPHGNFCBF": ""
      },
      {
        "$type": "EDCHPJLDKIN",
        "type": "BODY_LANG",
        "aliasList": [
          "9378"
        ],
        "actionId": 117,
        "_flag": 131072,
        "isContinue": true,
        "forceDoFreeStyle": true,
        "canDoRepeatFreeStyle": false,
        "cantBackToIdleWhenSitLoop": true,
        "eventPatternSuiteKey": ""
      },
      {
        "$type": "EDCHPJLDKIN",
        "type": "BODY_LANG",
        "aliasList": [
          "Avatar"
        ],
        "actionId": 119,
        "_flag": 131072,
        "isContinue": true,
        "forceDoFreeStyle": true,
        "canDoRepeatFreeStyle": false,
        "cantBackToIdleWhenSitLoop": true,
        "eventPatternSuiteKey": ""
      }
    ]
  ],
  "groupId": [
    {
      "grpId": 2431934825,
      "nextGrpId": 2431934826,
      "_noCircleNextGrpId": 2431934826
    },
    {
      "index": 1,
      "grpId": 2431934826,
      "nextGrpId": 2431934827,
      "_noCircleNextGrpId": 2431934827
    },
    {
      "index": 2,
      "grpId": 2431934827,
      "nextGrpId": 2431934828,
      "_noCircleNextGrpId": 2431934828
    },
    {
      "index": 3,
      "grpId": 2431934828,
      "nextGrpId": 2431934829,
      "_noCircleNextGrpId": 2431934829
    },
    {
      "index": 4,
      "grpId": 2431934829,
      "nextGrpId": 2431934830,
      "_noCircleNextGrpId": 2431934830
    }
  ],
  "freeStyleDic": {
    "9378": [
      1120,
      1171,
      1230
    ]
  },
  "GHHKLKIGEOD": {
    "9378": [
      "SitChat01AS",
      "SitDowncast01AS",
      "SitHoldArm01AS",
      "SitPutArm01AS",
      "SitShrug01AS",
      "SitThink01AS"
    ]
  },
  "IDMJJGEMEPG": 2431934829
}