{
  "luaDataPath": "",
  "startBlackKeepTime": 1.0,
  "entityBan": "",
  "startFade": {
    "startFadeInDuration": 0.5,
    "startFadeOutDuration": 0.5
  },
  "endFade": {
    "startFadeOutDuration": 0.0
  },
  "actors": [
    {
      "alias": "Avatar",
      "visible": true,
      "bornPointName": "Q1011004Player",
      "relativePosNpcAlias": "",
      "_bindMovingTargetKey": ""
    },
    {
      "configID": 1004,
      "alias": "1004",
      "visible": true,
      "bornPointName": "",
      "relativePosNpcAlias": "",
      "_bindMovingTargetKey": ""
    },
    {
      "configID": 1009,
      "alias": "1009",
      "visible": true,
      "bornPointName": "",
      "relativePosNpcAlias": "",
      "_bindMovingTargetKey": ""
    },
    {
      "configID": 157701,
      "alias": "157701",
      "visible": true,
      "bornPointName": "",
      "relativePosNpcAlias": "",
      "_bindMovingTargetKey": ""
    },
    {
      "configID": 1005,
      "alias": "1005",
      "visible": true,
      "bornPointName": "Q1011004Paimon",
      "relativePosNpcAlias": "",
      "_bindMovingTargetKey": ""
    },
    {
      "configID": 1001,
      "alias": "1001",
      "visible": true,
      "bornPointName": "Q1011004Wendy",
      "relativePosNpcAlias": "",
      "_bindMovingTargetKey": ""
    },
    {
      "configID": 159301,
      "alias": "159301",
      "visible": true,
      "bornPointName": "",
      "relativePosNpcAlias": "",
      "_bindMovingTargetKey": ""
    }
  ],
  "group": [
    [
      {
        "$type": "FJKIHHKJLMJ",
        "type": "CAMERA_MOVE",
        "duration": 1.0,
        "camPosOffset": {
          "x": 2318.6923828125,
          "y": 215.28448486328125,
          "z": -920.9655151367188
        },
        "camForwardTargetOffset": {
          "x": 2319.623291015625,
          "y": 215.1806640625,
          "z": -921.3157958984375
        },
        "camFov": 20.0,
        "lerpPattern": 6,
        "cameraBlendType": "EaseInOutCubic",
        "NJBNNOMLKCK": {},
        "targetNpcAlias": "",
        "KJOEFBPOIIH": "",
        "IICFKKEBIEC": "",
        "EGEHEJEBLBJ": ""
      },
      {
        "$type": "FJKIHHKJLMJ",
        "type": "CAMERA_MOVE",
        "delayTime": 1.0,
        "duration": 10.0,
        "camPosOffset": {
          "x": 2318.7685546875,
          "y": 215.2788848876953,
          "z": -920.767822265625
        },
        "camForwardTargetOffset": {
          "x": 2319.699462890625,
          "y": 215.17506408691406,
          "z": -921.1181030273438
        },
        "camFov": 20.0,
        "cameraBlendType": "EaseInOutQuad",
        "NJBNNOMLKCK": {},
        "targetNpcAlias": "",
        "KJOEFBPOIIH": "",
        "IICFKKEBIEC": "",
        "EGEHEJEBLBJ": ""
      },
      {
        "$type": "MoleMole.Config.ConfigCameraDOFAction",
        "type": "CAMERA_DOF",
        "enabled": true,
        "focusDistance": 8.0,
        "focusRange": 8.0,
        "quality": 3
      },
      {
        "$type": "LJLMDHDCAMK",
        "type": "LOOK_AT",
        "aliasList": [
          "Avatar"
        ],
        "enableHead": true,
        "headRotateVec": {
          "y": 10.0
        },
        "headTurnTime": 0.4000000059604645,
        "targetNpcAlias": "1004",
        "targetNpcLookAtPoint": "",
        "OAFJBHJHLJG": ""
      },
      {
        "$type": "PKKMAMONGEO",
        "type": "DIALOG",
        "delayTime": 2.0,
        "aliasList": [
          "1004"
        ],
        "dialogID": 101100404
      },
      {
        "$type": "LJLMDHDCAMK",
        "type": "LOOK_AT",
        "aliasList": [
          "1004"
        ],
        "enableHead": true,
        "headRotateVec": {
          "y": 30.0
        },
        "headTurnTime": 0.4000000059604645,
        "targetNpcAlias": "",
        "targetNpcLookAtPoint": "",
        "OAFJBHJHLJG": ""
      },
      {
        "$type": "LJLMDHDCAMK",
        "type": "LOOK_AT",
        "delayTime": 3.0,
        "aliasList": [
          "1004"
        ],
        "enableHead": true,
        "headRotateVec": {
          "y": 10.0
        },
        "headTurnTime": 0.699999988079071,
        "targetNpcAlias": "",
        "targetNpcLookAtPoint": "",
        "OAFJBHJHLJG": ""
      },
      {
        "$type": "CPJKOIHIPBE",
        "type": "EMO_SYNC",
        "delayTime": 2.0,
        "aliasList": [
          "1004"
        ],
        "dataPath": "Cs_Emo_Avatar_Simple_Common_Set/Cs_Emo_Avatar_Talk/Cs_Emo_Avatar_PersonalLine/Cs_Emo_Avatar_Wendy/Cs_Emo_101100404",
        "phonemePath": "",
        "emotionPath": "",
        "mateDataPath": "",
        "matePhonemePath": "",
        "mateEmotionPath": "",
        "dataPathHashList": [
          1557325307355470299,
          13719131713424544470,
          2893839636428627209,
          17570081668325313522
        ],
        "FMDPBECPELH": "",
        "ADKBLPOKGIK": ""
      },
      {
        "$type": "LJLMDHDCAMK",
        "type": "LOOK_AT",
        "aliasList": [
          "1009"
        ],
        "enableHead": true,
        "headRotateVec": {
          "y": 10.0
        },
        "headTurnTime": 0.4000000059604645,
        "targetNpcAlias": "1004",
        "targetNpcLookAtPoint": "",
        "OAFJBHJHLJG": ""
      },
      {
        "$type": "FABLGECDBCH",
        "type": "BODY_LANG",
        "aliasList": [
          "157701"
        ],
        "bodyLangParam": 8040,
        "eventPatternSuiteKey": "",
        "FOHHKFAIAAJ": ""
      },
      {
        "$type": "LJLMDHDCAMK",
        "type": "LOOK_AT",
        "aliasList": [
          "157701"
        ],
        "enableHead": true,
        "headRotateVec": {
          "y": 10.0
        },
        "headTurnTime": 0.4000000059604645,
        "targetNpcAlias": "1004",
        "targetNpcLookAtPoint": "",
        "OAFJBHJHLJG": ""
      },
      {
        "$type": "LJLMDHDCAMK",
        "type": "LOOK_AT",
        "aliasList": [
          "1005"
        ],
        "enableHead": true,
        "headRotateVec": {
          "y": 10.0
        },
        "headTurnTime": 0.4000000059604645,
        "targetNpcAlias": "1004",
        "targetNpcLookAtPoint": "",
        "OAFJBHJHLJG": ""
      },
      {
        "$type": "LJLMDHDCAMK",
        "type": "LOOK_AT",
        "aliasList": [
          "1001"
        ],
        "enableHead": true,
        "headRotateVec": {
          "y": 10.0
        },
        "headTurnTime": 0.4000000059604645,
        "targetNpcAlias": "1004",
        "targetNpcLookAtPoint": "",
        "OAFJBHJHLJG": ""
      },
      {
        "$type": "MoleMole.Config.ConfigSitOrStandAction",
        "type": "SIT_OR_STAND",
        "aliasList": [
          "1001"
        ],
        "isSit": true
      },
      {
        "$type": "LJLMDHDCAMK",
        "type": "LOOK_AT",
        "aliasList": [
          "159301"
        ],
        "enableHead": true,
        "headRotateVec": {
          "y": 10.0
        },
        "headTurnTime": 0.4000000059604645,
        "targetNpcAlias": "1004",
        "targetNpcLookAtPoint": "",
        "OAFJBHJHLJG": ""
      }
    ],
    [
      {
        "$type": "FJKIHHKJLMJ",
        "type": "CAMERA_MOVE",
        "duration": 1.0,
        "camPosOffset": {
          "x": 2324.287109375,
          "y": 217.1646270751953,
          "z": -928.4105224609375
        },
        "camForwardTargetOffset": {
          "x": 2324.22216796875,
          "y": 216.78257751464844,
          "z": -927.4886474609375
        },
        "camFov": 20.0,
        "lerpPattern": 6,
        "cameraBlendType": "EaseInOutCubic",
        "NJBNNOMLKCK": {},
        "targetNpcAlias": "",
        "KJOEFBPOIIH": "",
        "IICFKKEBIEC": "",
        "EGEHEJEBLBJ": ""
      },
      {
        "$type": "FJKIHHKJLMJ",
        "type": "CAMERA_MOVE",
        "delayTime": 0.10000000149011612,
        "duration": 5.0,
        "camPosOffset": {
          "x": 2324.374267578125,
          "y": 217.09742736816406,
          "z": -928.4324340820312
        },
        "camForwardTargetOffset": {
          "x": 2324.309326171875,
          "y": 216.7153778076172,
          "z": -927.5105590820312
        },
        "camFov": 20.0,
        "cameraBlendType": "EaseInOutQuad",
        "NJBNNOMLKCK": {},
        "targetNpcAlias": "",
        "KJOEFBPOIIH": "",
        "IICFKKEBIEC": "",
        "EGEHEJEBLBJ": ""
      },
      {
        "$type": "LJLMDHDCAMK",
        "type": "LOOK_AT",
        "delayTime": 0.30000001192092896,
        "aliasList": [
          "1004"
        ],
        "enableHead": true,
        "headRotateVec": {
          "y": 10.0
        },
        "headTurnTime": 0.4000000059604645,
        "targetNpcAlias": "1009",
        "targetNpcLookAtPoint": "",
        "OAFJBHJHLJG": ""
      },
      {
        "$type": "PKKMAMONGEO",
        "type": "DIALOG",
        "aliasList": [
          "1009"
        ],
        "dialogID": 101100405,
        "protectTime": 0.5
      },
      {
        "$type": "CPJKOIHIPBE",
        "type": "EMO_SYNC",
        "aliasList": [
          "1009"
        ],
        "dataPath": "Cs_Emo_Avatar_Simple_Common_Set/Cs_Emo_Avatar_Talk/Cs_Emo_Avatar_PersonalLine/Cs_Emo_Avatar_Wendy/Cs_Emo_101100405",
        "phonemePath": "",
        "emotionPath": "",
        "mateDataPath": "",
        "matePhonemePath": "",
        "mateEmotionPath": "",
        "dataPathHashList": [
          273763635594366661,
          11381134831890342125,
          4248699212618039687,
          982890059765248713
        ],
        "FMDPBECPELH": "",
        "ADKBLPOKGIK": ""
      },
      {
        "$type": "LJLMDHDCAMK",
        "type": "LOOK_AT",
        "delayTime": 0.4000000059604645,
        "aliasList": [
          "159301"
        ],
        "enableHead": true,
        "headRotateVec": {
          "y": 10.0
        },
        "headTurnTime": 0.4000000059604645,
        "targetNpcAlias": "1009",
        "targetNpcLookAtPoint": "",
        "OAFJBHJHLJG": ""
      }
    ],
    [
      {
        "$type": "FJKIHHKJLMJ",
        "type": "CAMERA_MOVE",
        "duration": 1.0,
        "camPosOffset": {
          "x": 2322.210205078125,
          "y": 215.44578552246094,
          "z": -921.4583740234375
        },
        "camForwardTargetOffset": {
          "x": 2323.096435546875,
          "y": 215.32705688476562,
          "z": -921.90625
        },
        "camFov": 20.0,
        "lerpPattern": 6,
        "cameraBlendType": "EaseInOutCubic",
        "NJBNNOMLKCK": {},
        "targetNpcAlias": "",
        "KJOEFBPOIIH": "",
        "IICFKKEBIEC": "",
        "EGEHEJEBLBJ": ""
      },
      {
        "$type": "PKKMAMONGEO",
        "type": "DIALOG",
        "aliasList": [
          "1004"
        ],
        "dialogID": 101100406
      },
      {
        "$type": "CPJKOIHIPBE",
        "type": "EMO_SYNC",
        "aliasList": [
          "1004"
        ],
        "dataPath": "Cs_Emo_Avatar_Simple_Common_Set/Cs_Emo_Avatar_Talk/Cs_Emo_Avatar_PersonalLine/Cs_Emo_Avatar_Wendy/Cs_Emo_101100406",
        "phonemePath": "",
        "emotionPath": "",
        "mateDataPath": "",
        "matePhonemePath": "",
        "mateEmotionPath": "",
        "dataPathHashList": [
          2140994810152491974,
          16813896006673297741,
          10680521822433729316,
          712203300565225659
        ],
        "FMDPBECPELH": "",
        "ADKBLPOKGIK": ""
      }
    ],
    [
      {
        "$type": "FJKIHHKJLMJ",
        "type": "CAMERA_MOVE",
        "duration": 1.0,
        "camPosOffset": {
          "x": 2324.55712890625,
          "y": 215.30577087402344,
          "z": -922.951416015625
        },
        "camForwardTargetOffset": {
          "x": 2323.845703125,
          "y": 215.24978637695312,
          "z": -922.2509765625
        },
        "camFov": 20.0,
        "lerpPattern": 6,
        "cameraBlendType": "EaseInOutCubic",
        "NJBNNOMLKCK": {},
        "targetNpcAlias": "",
        "KJOEFBPOIIH": "",
        "IICFKKEBIEC": "",
        "EGEHEJEBLBJ": ""
      },
      {
        "$type": "FJKIHHKJLMJ",
        "type": "CAMERA_MOVE",
        "delayTime": 0.10000000149011612,
        "duration": 5.0,
        "camPosOffset": {
          "x": 2324.50439453125,
          "y": 215.31317138671875,
          "z": -922.906982421875
        },
        "camForwardTargetOffset": {
          "x": 2323.79296875,
          "y": 215.25718688964844,
          "z": -922.20654296875
        },
        "camFov": 20.0,
        "cameraBlendType": "EaseInOutQuad",
        "NJBNNOMLKCK": {},
        "targetNpcAlias": "",
        "KJOEFBPOIIH": "",
        "IICFKKEBIEC": "",
        "EGEHEJEBLBJ": ""
      },
      {
        "$type": "MoleMole.Config.ConfigCameraDOFAction",
        "type": "CAMERA_DOF",
        "enabled": true,
        "focusDistance": 2.2636878490448,
        "focusRange": 1.4448564052581787,
        "quality": 3
      },
      {
        "$type": "PKKMAMONGEO",
        "type": "DIALOG",
        "aliasList": [
          "1009"
        ],
        "dialogID": 101100407,
        "protectTime": 0.20000000298023224
      },
      {
        "$type": "CPJKOIHIPBE",
        "type": "EMO_SYNC",
        "aliasList": [
          "1009"
        ],
        "dataPath": "Cs_Emo_Avatar_Simple_Common_Set/Cs_Emo_Avatar_Talk/Cs_Emo_Avatar_PersonalLine/Cs_Emo_Avatar_Wendy/Cs_Emo_101100407",
        "phonemePath": "",
        "emotionPath": "",
        "mateDataPath": "",
        "matePhonemePath": "",
        "mateEmotionPath": "",
        "dataPathHashList": [
          2942513531441477131,
          7377283806338824635,
          5138703347356938033,
          6148156632739517584
        ],
        "FMDPBECPELH": "",
        "ADKBLPOKGIK": ""
      }
    ],
    [
      {
        "$type": "FJKIHHKJLMJ",
        "type": "CAMERA_MOVE",
        "duration": 1.0,
        "camPosOffset": {
          "x": 2323.453369140625,
          "y": 215.21044921875,
          "z": -922.4180908203125
        },
        "camForwardTargetOffset": {
          "x": 2324.393310546875,
          "y": 215.26242065429688,
          "z": -922.7557373046875
        },
        "camFov": 20.0,
        "lerpPattern": 6,
        "cameraBlendType": "EaseInOutCubic",
        "NJBNNOMLKCK": {},
        "targetNpcAlias": "",
        "KJOEFBPOIIH": "",
        "IICFKKEBIEC": "",
        "EGEHEJEBLBJ": ""
      },
      {
        "$type": "PKKMAMONGEO",
        "type": "DIALOG",
        "aliasList": [
          "1004"
        ],
        "dialogID": 101100408
      },
      {
        "$type": "CPJKOIHIPBE",
        "type": "EMO_SYNC",
        "aliasList": [
          "1004"
        ],
        "dataPath": "Cs_Emo_Avatar_Simple_Common_Set/Cs_Emo_Avatar_Talk/Cs_Emo_Avatar_PersonalLine/Cs_Emo_Avatar_Wendy/Cs_Emo_101100408",
        "phonemePath": "",
        "emotionPath": "",
        "mateDataPath": "",
        "matePhonemePath": "",
        "mateEmotionPath": "",
        "dataPathHashList": [
          3614894064065333589,
          12472188944708084107,
          15509969764122435645,
          13968402030094921440
        ],
        "FMDPBECPELH": "",
        "ADKBLPOKGIK": ""
      }
    ],
    [
      {
        "$type": "FJKIHHKJLMJ",
        "type": "CAMERA_MOVE",
        "duration": 1.0,
        "camPosOffset": {
          "x": 2322.216552734375,
          "y": 216.33416748046875,
          "z": -928.0949096679688
        },
        "camForwardTargetOffset": {
          "x": 2322.478515625,
          "y": 216.0741729736328,
          "z": -927.16552734375
        },
        "camFov": 20.0,
        "lerpPattern": 6,
        "cameraBlendType": "EaseInOutCubic",
        "NJBNNOMLKCK": {},
        "targetNpcAlias": "",
        "KJOEFBPOIIH": "",
        "IICFKKEBIEC": "",
        "EGEHEJEBLBJ": ""
      },
      {
        "$type": "FJKIHHKJLMJ",
        "type": "CAMERA_MOVE",
        "delayTime": 0.10000000149011612,
        "duration": 15.0,
        "camPosOffset": {
          "x": 2322.222412109375,
          "y": 216.33551025390625,
          "z": -928.0912475585938
        },
        "camForwardTargetOffset": {
          "x": 2322.5087890625,
          "y": 216.06973266601562,
          "z": -927.1707763671875
        },
        "camFov": 20.0,
        "cameraBlendType": "EaseInOutQuad",
        "NJBNNOMLKCK": {},
        "targetNpcAlias": "",
        "KJOEFBPOIIH": "",
        "IICFKKEBIEC": "",
        "EGEHEJEBLBJ": ""
      },
      {
        "$type": "MoleMole.Config.ConfigCameraDOFAction",
        "type": "CAMERA_DOF",
        "enabled": true,
        "focusDistance": 6.89300012588501,
        "focusRange": 2.0565786361694336,
        "quality": 3
      },
      {
        "$type": "PKKMAMONGEO",
        "type": "DIALOG",
        "aliasList": [
          "1009"
        ],
        "dialogID": 101100409,
        "protectTime": 0.20000000298023224
      },
      {
        "$type": "CPJKOIHIPBE",
        "type": "EMO_SYNC",
        "aliasList": [
          "1009"
        ],
        "dataPath": "Cs_Emo_Avatar_Simple_Common_Set/Cs_Emo_Avatar_Talk/Cs_Emo_Avatar_PersonalLine/Cs_Emo_Avatar_Wendy/Cs_Emo_101100409",
        "phonemePath": "",
        "emotionPath": "",
        "mateDataPath": "",
        "matePhonemePath": "",
        "mateEmotionPath": "",
        "dataPathHashList": [
          12743155806830081145,
          4885134275074684706,
          1231565721453362506,
          5014164254024242413
        ],
        "FMDPBECPELH": "",
        "ADKBLPOKGIK": ""
      }
    ],
    [
      {
        "$type": "PKKMAMONGEO",
        "type": "DIALOG",
        "aliasList": [
          "1004"
        ],
        "dialogID": 101100410,
        "protectTime": 0.4000000059604645
      },
      {
        "$type": "CPJKOIHIPBE",
        "type": "EMO_SYNC",
        "aliasList": [
          "1004"
        ],
        "dataPath": "Cs_Emo_Avatar_Simple_Common_Set/Cs_Emo_Avatar_Talk/Cs_Emo_Avatar_PersonalLine/Cs_Emo_Avatar_Wendy/Cs_Emo_101100410",
        "phonemePath": "",
        "emotionPath": "",
        "mateDataPath": "",
        "matePhonemePath": "",
        "mateEmotionPath": "",
        "dataPathHashList": [
          12002863758478378191,
          7070710818523980612,
          10999248882515075739,
          6912183610796147119
        ],
        "FMDPBECPELH": "",
        "ADKBLPOKGIK": ""
      },
      {
        "$type": "LJLMDHDCAMK",
        "type": "LOOK_AT",
        "delayTime": 0.30000001192092896,
        "aliasList": [
          "157701"
        ],
        "enableHead": true,
        "headRotateVec": {
          "y": 10.0
        },
        "headTurnTime": 0.4000000059604645,
        "targetNpcAlias": "1009",
        "targetNpcLookAtPoint": "",
        "OAFJBHJHLJG": ""
      }
    ],
    [
      {
        "$type": "PKKMAMONGEO",
        "type": "DIALOG",
        "aliasList": [
          "1009"
        ],
        "dialogID": 101100411
      },
      {
        "$type": "CPJKOIHIPBE",
        "type": "EMO_SYNC",
        "aliasList": [
          "1009"
        ],
        "dataPath": "Cs_Emo_Avatar_Simple_Common_Set/Cs_Emo_Avatar_Talk/Cs_Emo_Avatar_PersonalLine/Cs_Emo_Avatar_Wendy/Cs_Emo_101100411",
        "phonemePath": "",
        "emotionPath": "",
        "mateDataPath": "",
        "matePhonemePath": "",
        "mateEmotionPath": "",
        "dataPathHashList": [
          14108471870187453431,
          17053873121470355681,
          16518242717072333237,
          13144897157646685680
        ],
        "FMDPBECPELH": "",
        "ADKBLPOKGIK": ""
      }
    ],
    [
      {
        "$type": "FJKIHHKJLMJ",
        "type": "CAMERA_MOVE",
        "duration": 1.0,
        "camPosOffset": {
          "x": 2320.814208984375,
          "y": 215.337158203125,
          "z": -921.5941162109375
        },
        "camForwardTargetOffset": {
          "x": 2321.794677734375,
          "y": 215.26022338867188,
          "z": -921.7755126953125
        },
        "camFov": 20.0,
        "lerpPattern": 6,
        "cameraBlendType": "EaseInOutCubic",
        "NJBNNOMLKCK": {},
        "targetNpcAlias": "",
        "KJOEFBPOIIH": "",
        "IICFKKEBIEC": "",
        "EGEHEJEBLBJ": ""
      },
      {
        "$type": "FJKIHHKJLMJ",
        "type": "CAMERA_MOVE",
        "delayTime": 0.10000000149011612,
        "duration": 5.0,
        "camPosOffset": {
          "x": 2320.9541015625,
          "y": 215.3365936279297,
          "z": -921.6563110351562
        },
        "camForwardTargetOffset": {
          "x": 2321.9345703125,
          "y": 215.25965881347656,
          "z": -921.8377075195312
        },
        "camFov": 20.0,
        "cameraBlendType": "EaseInOutQuad",
        "NJBNNOMLKCK": {},
        "targetNpcAlias": "",
        "KJOEFBPOIIH": "",
        "IICFKKEBIEC": "",
        "EGEHEJEBLBJ": ""
      },
      {
        "$type": "PKKMAMONGEO",
        "type": "DIALOG",
        "aliasList": [
          "1004"
        ],
        "dialogID": 101100412,
        "protectTime": 0.20000000298023224
      },
      {
        "$type": "CPJKOIHIPBE",
        "type": "EMO_SYNC",
        "aliasList": [
          "1004"
        ],
        "dataPath": "Cs_Emo_Avatar_Simple_Common_Set/Cs_Emo_Avatar_Talk/Cs_Emo_Avatar_PersonalLine/Cs_Emo_Avatar_Wendy/Cs_Emo_101100412",
        "phonemePath": "",
        "emotionPath": "",
        "mateDataPath": "",
        "matePhonemePath": "",
        "mateEmotionPath": "",
        "dataPathHashList": [
          13560583755609777746,
          3068384521009240932,
          8225376237217941034,
          12516044308877681688
        ],
        "FMDPBECPELH": "",
        "ADKBLPOKGIK": ""
      }
    ],
    [
      {
        "$type": "FJKIHHKJLMJ",
        "type": "CAMERA_MOVE",
        "duration": 1.0,
        "camPosOffset": {
          "x": 2324.25634765625,
          "y": 215.29489135742188,
          "z": -922.7080078125
        },
        "camForwardTargetOffset": {
          "x": 2323.541748046875,
          "y": 215.27188110351562,
          "z": -922.0087890625
        },
        "camFov": 20.0,
        "lerpPattern": 6,
        "cameraBlendType": "EaseInOutCubic",
        "NJBNNOMLKCK": {},
        "targetNpcAlias": "",
        "KJOEFBPOIIH": "",
        "IICFKKEBIEC": "",
        "EGEHEJEBLBJ": ""
      },
      {
        "$type": "MoleMole.Config.ConfigCameraDOFAction",
        "type": "CAMERA_DOF",
        "enabled": true,
        "focusDistance": 1.829617977142334,
        "focusRange": 2.010836362838745,
        "quality": 3
      },
      {
        "$type": "PKKMAMONGEO",
        "type": "DIALOG",
        "aliasList": [
          "1009"
        ],
        "dialogID": 101100413
      },
      {
        "$type": "CPJKOIHIPBE",
        "type": "EMO_SYNC",
        "aliasList": [
          "1009"
        ],
        "dataPath": "Cs_Emo_Avatar_Simple_Common_Set/Cs_Emo_Avatar_Talk/Cs_Emo_Avatar_PersonalLine/Cs_Emo_Avatar_Wendy/Cs_Emo_101100413",
        "phonemePath": "",
        "emotionPath": "",
        "mateDataPath": "",
        "matePhonemePath": "",
        "mateEmotionPath": "",
        "dataPathHashList": [
          4810421026286954092,
          11659115406123719068,
          1781924862399282736,
          17295485574730903408
        ],
        "FMDPBECPELH": "",
        "ADKBLPOKGIK": ""
      }
    ],
    [
      {
        "$type": "FJKIHHKJLMJ",
        "type": "CAMERA_MOVE",
        "duration": 1.0,
        "camPosOffset": {
          "x": 2323.857421875,
          "y": 215.76405334472656,
          "z": -918.5746459960938
        },
        "camForwardTargetOffset": {
          "x": 2323.855224609375,
          "y": 215.53607177734375,
          "z": -919.5482788085938
        },
        "camFov": 25.0,
        "lerpPattern": 6,
        "cameraBlendType": "EaseInOutCubic",
        "NJBNNOMLKCK": {},
        "targetNpcAlias": "",
        "KJOEFBPOIIH": "",
        "IICFKKEBIEC": "",
        "EGEHEJEBLBJ": ""
      },
      {
        "$type": "FJKIHHKJLMJ",
        "type": "CAMERA_MOVE",
        "delayTime": 0.10000000149011612,
        "duration": 3.0,
        "camPosOffset": {
          "x": 2323.855712890625,
          "y": 215.71322631835938,
          "z": -918.807373046875
        },
        "camForwardTargetOffset": {
          "x": 2323.84765625,
          "y": 215.49986267089844,
          "z": -919.7843017578125
        },
        "camFov": 25.0,
        "cameraBlendType": "EaseInOutQuad",
        "NJBNNOMLKCK": {},
        "targetNpcAlias": "",
        "KJOEFBPOIIH": "",
        "IICFKKEBIEC": "",
        "EGEHEJEBLBJ": ""
      },
      {
        "$type": "MoleMole.Config.ConfigCameraDOFAction",
        "type": "CAMERA_DOF",
        "enabled": true,
        "focusDistance": 6.450369358062744,
        "focusRange": 3.153095245361328,
        "quality": 3
      },
      {
        "$type": "LJLMDHDCAMK",
        "type": "LOOK_AT",
        "delayTime": 0.4000000059604645,
        "aliasList": [
          "1004"
        ],
        "enableHead": true,
        "headRotateVec": {
          "y": 10.0
        },
        "headTurnTime": 0.4000000059604645,
        "targetNpcAlias": "157701",
        "targetNpcLookAtPoint": "",
        "OAFJBHJHLJG": ""
      },
      {
        "$type": "LJLMDHDCAMK",
        "type": "LOOK_AT",
        "delayTime": 0.30000001192092896,
        "aliasList": [
          "1009"
        ],
        "enableHead": true,
        "headRotateVec": {
          "y": 10.0
        },
        "headTurnTime": 0.4000000059604645,
        "targetNpcAlias": "157701",
        "targetNpcLookAtPoint": "",
        "OAFJBHJHLJG": ""
      },
      {
        "$type": "PKKMAMONGEO",
        "type": "DIALOG",
        "aliasList": [
          "157701"
        ],
        "dialogID": 101100414,
        "protectTime": 0.5
      },
      {
        "$type": "FABLGECDBCH",
        "type": "BODY_LANG",
        "delayTime": 1.75,
        "aliasList": [
          "157701"
        ],
        "isContinue": true,
        "eventPatternSuiteKey": "",
        "FOHHKFAIAAJ": ""
      },
      {
        "$type": "CPJKOIHIPBE",
        "type": "EMO_SYNC",
        "aliasList": [
          "157701"
        ],
        "dataPath": "Cs_Emo_Avatar_Simple_Common_Set/Cs_Emo_Avatar_Talk/Cs_Emo_Avatar_PersonalLine/Cs_Emo_Avatar_Wendy/Cs_Emo_101100414",
        "phonemePath": "",
        "emotionPath": "",
        "mateDataPath": "",
        "matePhonemePath": "",
        "mateEmotionPath": "",
        "dataPathHashList": [
          4420710043068706974,
          8135191070938144019,
          8409545250178157531,
          1551206272147557494
        ],
        "FMDPBECPELH": "",
        "ADKBLPOKGIK": ""
      },
      {
        "$type": "LJLMDHDCAMK",
        "type": "LOOK_AT",
        "delayTime": 0.8999999761581421,
        "aliasList": [
          "159301"
        ],
        "enableHead": true,
        "headRotateVec": {
          "y": 10.0
        },
        "headTurnTime": 0.4000000059604645,
        "targetNpcAlias": "157701",
        "targetNpcLookAtPoint": "",
        "OAFJBHJHLJG": ""
      }
    ],
    [
      {
        "$type": "FJKIHHKJLMJ",
        "type": "CAMERA_MOVE",
        "delayTime": 0.5,
        "duration": 1.0,
        "camPosOffset": {
          "x": 2321.889404296875,
          "y": 215.64915466308594,
          "z": -917.7879638671875
        },
        "camForwardTargetOffset": {
          "x": 2322.109130859375,
          "y": 215.54832458496094,
          "z": -918.75830078125
        },
        "camFov": 15.0,
        "lerpPattern": 6,
        "cameraBlendType": "EaseInOutCubic",
        "NJBNNOMLKCK": {},
        "targetNpcAlias": "",
        "KJOEFBPOIIH": "",
        "IICFKKEBIEC": "",
        "EGEHEJEBLBJ": ""
      },
      {
        "$type": "MoleMole.Config.ConfigSimpleUIShowInterAction",
        "type": "SIMPLE_UI_SHOW",
        "delayTime": 0.5,
        "contextName": "TelescopeDialog",
        "_param": ""
      },
      {
        "$type": "FJKIHHKJLMJ",
        "type": "CAMERA_MOVE",
        "delayTime": 0.6000000238418579,
        "duration": 2.0,
        "camPosOffset": {
          "x": 2321.889404296875,
          "y": 215.64915466308594,
          "z": -917.7879638671875
        },
        "camForwardTargetOffset": {
          "x": 2322.0947265625,
          "y": 215.55429077148438,
          "z": -918.7620849609375
        },
        "camFov": 15.0,
        "cameraBlendType": "EaseInOutQuad",
        "NJBNNOMLKCK": {},
        "targetNpcAlias": "",
        "KJOEFBPOIIH": "",
        "IICFKKEBIEC": "",
        "EGEHEJEBLBJ": ""
      },
      {
        "$type": "FJKIHHKJLMJ",
        "type": "CAMERA_MOVE",
        "delayTime": 2.5999999046325684,
        "duration": 0.699999988079071,
        "camPosOffset": {
          "x": 2321.889404296875,
          "y": 215.64915466308594,
          "z": -917.7879638671875
        },
        "camForwardTargetOffset": {
          "x": 2322.239501953125,
          "y": 215.52447509765625,
          "z": -918.71630859375
        },
        "camFov": 20.0,
        "cameraBlendType": "EaseInOutCubic",
        "NJBNNOMLKCK": {},
        "targetNpcAlias": "",
        "KJOEFBPOIIH": "",
        "IICFKKEBIEC": "",
        "EGEHEJEBLBJ": ""
      },
      {
        "$type": "FJKIHHKJLMJ",
        "type": "CAMERA_MOVE",
        "delayTime": 3.299999952316284,
        "duration": 3.0,
        "camPosOffset": {
          "x": 2321.889404296875,
          "y": 215.64915466308594,
          "z": -917.7879638671875
        },
        "camForwardTargetOffset": {
          "x": 2322.264404296875,
          "y": 215.52149963378906,
          "z": -918.7061767578125
        },
        "camFov": 20.0,
        "cameraBlendType": "EaseInOutQuad",
        "NJBNNOMLKCK": {},
        "targetNpcAlias": "",
        "KJOEFBPOIIH": "",
        "IICFKKEBIEC": "",
        "EGEHEJEBLBJ": ""
      },
      {
        "$type": "MoleMole.Config.ConfigTimeProtectAction",
        "type": "TIME_PROTECT",
        "duration": 10.0
      },
      {
        "$type": "MoleMole.Config.ConfigCameraDOFAction",
        "type": "CAMERA_DOF",
        "enabled": true,
        "focusDistance": 8.0,
        "focusRange": 8.0,
        "quality": 3
      },
      {
        "$type": "FJKIHHKJLMJ",
        "type": "CAMERA_MOVE",
        "delayTime": 6.699999809265137,
        "duration": 0.800000011920929,
        "camPosOffset": {
          "x": 2321.83935546875,
          "y": 215.64862060546875,
          "z": -917.7764282226562
        },
        "camForwardTargetOffset": {
          "x": 2321.819091796875,
          "y": 214.67445373535156,
          "z": -918.0013427734375
        },
        "camFov": 20.0,
        "cameraBlendType": "EaseInCubic",
        "NJBNNOMLKCK": {},
        "targetNpcAlias": "",
        "KJOEFBPOIIH": "",
        "IICFKKEBIEC": "",
        "EGEHEJEBLBJ": ""
      },
      {
        "$type": "MoleMole.Config.ConfigBlackScreenAction",
        "type": "BLACK_SCREEN",
        "delayTime": 7.0,
        "duration": 2.0,
        "durationToBlack": 0.5,
        "durationKeepBlack": 1.0,
        "durationFromBlack": 0.5,
        "inteePos": "",
        "textMapID": ""
      },
      {
        "$type": "MoleMole.Config.ConfigSimpleUIShowInterAction",
        "type": "SIMPLE_UI_SHOW",
        "delayTime": 7.5,
        "contextName": "TelescopeDialog",
        "isClose": true,
        "_param": ""
      },
      {
        "$type": "FJKIHHKJLMJ",
        "type": "CAMERA_MOVE",
        "delayTime": 8.0,
        "duration": 1.0,
        "camPosOffset": {
          "x": 2320.085205078125,
          "y": 215.3773193359375,
          "z": -920.7601318359375
        },
        "camForwardTargetOffset": {
          "x": 2320.65283203125,
          "y": 215.3213348388672,
          "z": -919.9387817382812
        },
        "camFov": 20.0,
        "lerpPattern": 6,
        "cameraBlendType": "EaseInOutCubic",
        "NJBNNOMLKCK": {},
        "targetNpcAlias": "",
        "KJOEFBPOIIH": "",
        "IICFKKEBIEC": "",
        "EGEHEJEBLBJ": ""
      },
      {
        "$type": "FJKIHHKJLMJ",
        "type": "CAMERA_MOVE",
        "delayTime": 8.100000381469727,
        "duration": 6.0,
        "camPosOffset": {
          "x": 2320.18310546875,
          "y": 215.36439514160156,
          "z": -920.7142333984375
        },
        "camForwardTargetOffset": {
          "x": 2320.750732421875,
          "y": 215.30841064453125,
          "z": -919.8928833007812
        },
        "camFov": 20.0,
        "cameraBlendType": "EaseInOutQuad",
        "NJBNNOMLKCK": {},
        "targetNpcAlias": "",
        "KJOEFBPOIIH": "",
        "IICFKKEBIEC": "",
        "EGEHEJEBLBJ": ""
      },
      {
        "$type": "MoleMole.Config.ConfigBlackScreenAction",
        "type": "BLACK_SCREEN",
        "duration": 1.0,
        "durationToBlack": 0.4000000059604645,
        "durationKeepBlack": 0.20000000298023224,
        "durationFromBlack": 0.4000000059604645,
        "inteePos": "",
        "textMapID": ""
      },
      {
        "$type": "PKKMAMONGEO",
        "type": "DIALOG_CLEAR"
      },
      {
        "$type": "LJLMDHDCAMK",
        "type": "LOOK_AT",
        "delayTime": 9.199999809265137,
        "aliasList": [
          "Avatar"
        ],
        "enableHead": true,
        "headRotateVec": {
          "y": 10.0
        },
        "headTurnTime": 0.4000000059604645,
        "targetNpcAlias": "1005",
        "targetNpcLookAtPoint": "",
        "OAFJBHJHLJG": ""
      },
      {
        "$type": "LJLMDHDCAMK",
        "type": "LOOK_AT",
        "delayTime": 4.0,
        "aliasList": [
          "1004"
        ],
        "enableHead": true,
        "headRotateVec": {
          "y": 10.0
        },
        "headTurnTime": 0.4000000059604645,
        "targetNpcAlias": "1009",
        "targetNpcLookAtPoint": "",
        "OAFJBHJHLJG": ""
      },
      {
        "$type": "CPJKOIHIPBE",
        "type": "EMO_SYNC",
        "delayTime": 5.315228462219238,
        "aliasList": [
          "1004"
        ],
        "dataPath": "Cs_Emo_Avatar_Simple_Common_Set/Cs_Emo_Avatar_Talk/Cs_Emo_Avatar_PersonalLine/Cs_Emo_Avatar_Wendy/Cs_Emo_101100410",
        "phonemePath": "",
        "emotionPath": "",
        "mateDataPath": "",
        "matePhonemePath": "",
        "mateEmotionPath": "",
        "dataPathHashList": [
          12002863758478378191,
          7070710818523980612,
          10999248882515075739,
          6912183610796147119
        ],
        "FMDPBECPELH": "",
        "ADKBLPOKGIK": ""
      },
      {
        "$type": "LJLMDHDCAMK",
        "type": "LOOK_AT",
        "delayTime": 4.899995803833008,
        "aliasList": [
          "1009"
        ],
        "enableHead": true,
        "headRotateVec": {
          "y": 10.0
        },
        "headTurnTime": 0.4000000059604645,
        "targetNpcAlias": "1004",
        "targetNpcLookAtPoint": "",
        "OAFJBHJHLJG": ""
      },
      {
        "$type": "LJLMDHDCAMK",
        "type": "LOOK_AT",
        "delayTime": 0.800000011920929,
        "aliasList": [
          "157701"
        ],
        "enableHead": true,
        "headRotateVec": {
          "y": 10.0
        },
        "headTurnTime": 0.4000000059604645,
        "targetNpcAlias": "1004",
        "targetNpcLookAtPoint": "",
        "OAFJBHJHLJG": ""
      },
      {
        "$type": "LJLMDHDCAMK",
        "type": "LOOK_AT",
        "delayTime": 5.691666603088379,
        "aliasList": [
          "157701"
        ],
        "enableHead": true,
        "headRotateVec": {
          "y": 10.0
        },
        "headTurnTime": 0.4000000059604645,
        "targetNpcAlias": "1009",
        "targetNpcLookAtPoint": "",
        "OAFJBHJHLJG": ""
      },
      {
        "$type": "CPJKOIHIPBE",
        "type": "EMO_SYNC",
        "delayTime": 1.0,
        "aliasList": [
          "157701"
        ],
        "dataPath": "Cs_Emo_Avatar_Simple_Common_Set/Cs_Emo_Avatar_Talk/Cs_Emo_Avatar_PersonalLine/Cs_Emo_Avatar_Wendy/Cs_Emo_101100414",
        "phonemePath": "",
        "emotionPath": "",
        "mateDataPath": "",
        "matePhonemePath": "",
        "mateEmotionPath": "",
        "dataPathHashList": [
          4420710043068706974,
          8135191070938144019,
          8409545250178157531,
          1551206272147557494
        ],
        "FMDPBECPELH": "",
        "ADKBLPOKGIK": ""
      },
      {
        "$type": "PKKMAMONGEO",
        "type": "DIALOG",
        "delayTime": 9.0,
        "aliasList": [
          "1005"
        ],
        "dialogID": 101100415,
        "protectTime": 0.5
      },
      {
        "$type": "LJLMDHDCAMK",
        "type": "LOOK_AT",
        "delayTime": 9.0,
        "aliasList": [
          "1005"
        ],
        "enableHead": true,
        "headRotateVec": {
          "y": 10.0
        },
        "headTurnTime": 0.10000000149011612,
        "targetNpcAlias": "Avatar",
        "targetNpcLookAtPoint": "",
        "OAFJBHJHLJG": ""
      },
      {
        "$type": "LLGANGLOEEO",
        "type": "STEER_TO",
        "delayTime": 9.0,
        "duration": 2.0,
        "aliasList": [
          "1005"
        ],
        "steerDir": {
          "x": -0.9991026520729065,
          "z": -0.04235353320837021
        },
        "targetNpcAlias": "",
        "OAFJBHJHLJG": ""
      },
      {
        "$type": "FABLGECDBCH",
        "type": "BODY_LANG",
        "delayTime": 9.199999809265137,
        "aliasList": [
          "1005"
        ],
        "bodyLangParam": 1170,
        "eventPatternSuiteKey": "",
        "FOHHKFAIAAJ": ""
      },
      {
        "$type": "FABLGECDBCH",
        "type": "BODY_LANG",
        "delayTime": 13.0,
        "aliasList": [
          "1005"
        ],
        "isContinue": true,
        "eventPatternSuiteKey": "",
        "FOHHKFAIAAJ": ""
      },
      {
        "$type": "LJLMDHDCAMK",
        "type": "LOOK_AT",
        "delayTime": 8.0,
        "aliasList": [
          "1005"
        ],
        "enableHead": true,
        "headRotateVec": {
          "y": 10.0
        },
        "headTurnTime": 0.4000000059604645,
        "targetNpcAlias": "Avatar",
        "targetNpcLookAtPoint": "",
        "OAFJBHJHLJG": ""
      },
      {
        "$type": "CPJKOIHIPBE",
        "type": "EMO_SYNC",
        "delayTime": 9.0,
        "aliasList": [
          "1005"
        ],
        "dataPath": "Cs_Emo_Avatar_Simple_Common_Set/Cs_Emo_Avatar_Talk/Cs_Emo_Avatar_PersonalLine/Cs_Emo_Avatar_Wendy/Cs_Emo_101100415",
        "phonemePath": "",
        "emotionPath": "",
        "mateDataPath": "",
        "matePhonemePath": "",
        "mateEmotionPath": "",
        "dataPathHashList": [
          7100925391579067878,
          13740238861016516621,
          2703347065520896229,
          7355039902348191502
        ],
        "FMDPBECPELH": "",
        "ADKBLPOKGIK": ""
      },
      {
        "$type": "LJLMDHDCAMK",
        "type": "LOOK_AT",
        "delayTime": 9.399999618530273,
        "aliasList": [
          "1001"
        ],
        "enableHead": true,
        "headRotateVec": {
          "y": 10.0
        },
        "headTurnTime": 0.4000000059604645,
        "targetNpcAlias": "1005",
        "targetNpcLookAtPoint": "",
        "OAFJBHJHLJG": ""
      },
      {
        "$type": "LJLMDHDCAMK",
        "type": "LOOK_AT",
        "delayTime": 2.0,
        "aliasList": [
          "159301"
        ],
        "enableHead": true,
        "headRotateVec": {
          "y": 10.0
        },
        "headTurnTime": 0.4000000059604645,
        "targetNpcAlias": "1009",
        "targetNpcLookAtPoint": "",
        "OAFJBHJHLJG": ""
      }
    ],
    [
      {
        "$type": "FJKIHHKJLMJ",
        "type": "CAMERA_MOVE",
        "duration": 1.0,
        "camPosOffset": {
          "x": 2325.354248046875,
          "y": 215.4232177734375,
          "z": -920.2388916015625
        },
        "camForwardTargetOffset": {
          "x": 2324.50732421875,
          "y": 215.34329223632812,
          "z": -919.7131958007812
        },
        "camFov": 20.0,
        "lerpPattern": 6,
        "cameraBlendType": "EaseInOutCubic",
        "NJBNNOMLKCK": {},
        "targetNpcAlias": "",
        "KJOEFBPOIIH": "",
        "IICFKKEBIEC": "",
        "EGEHEJEBLBJ": ""
      },
      {
        "$type": "FJKIHHKJLMJ",
        "type": "CAMERA_MOVE",
        "delayTime": 0.10000000149011612,
        "duration": 5.0,
        "camPosOffset": {
          "x": 2325.322509765625,
          "y": 215.42361450195312,
          "z": -920.2899169921875
        },
        "camForwardTargetOffset": {
          "x": 2324.4755859375,
          "y": 215.34368896484375,
          "z": -919.7642211914062
        },
        "camFov": 20.0,
        "cameraBlendType": "EaseInOutQuad",
        "NJBNNOMLKCK": {},
        "targetNpcAlias": "",
        "KJOEFBPOIIH": "",
        "IICFKKEBIEC": "",
        "EGEHEJEBLBJ": ""
      },
      {
        "$type": "HDGKHDNFMIM",
        "type": "DIALOG_SELECT",
        "delayTime": 0.4000000059604645,
        "aliasList": [
          "Avatar"
        ],
        "dialogIDList": [
          101100417
        ],
        "grpIDList": [
          3759041503
        ],
        "useGrpId": true
      },
      {
        "$type": "LJLMDHDCAMK",
        "type": "LOOK_AT",
        "delayTime": 0.30000001192092896,
        "aliasList": [
          "Avatar"
        ],
        "enableHead": true,
        "headRotateVec": {
          "y": 10.0
        },
        "headTurnTime": 0.4000000059604645,
        "targetNpcAlias": "1001",
        "targetNpcLookAtPoint": "",
        "OAFJBHJHLJG": ""
      },
      {
        "$type": "LJLMDHDCAMK",
        "type": "LOOK_AT",
        "delayTime": 0.4000000059604645,
        "aliasList": [
          "1005"
        ],
        "enableHead": true,
        "headRotateVec": {
          "y": 10.0
        },
        "headTurnTime": 0.4000000059604645,
        "targetNpcAlias": "1001",
        "targetNpcLookAtPoint": "",
        "OAFJBHJHLJG": ""
      },
      {
        "$type": "FABLGECDBCH",
        "type": "BODY_LANG",
        "aliasList": [
          "1005"
        ],
        "isContinue": true,
        "eventPatternSuiteKey": "",
        "FOHHKFAIAAJ": ""
      },
      {
        "$type": "PKKMAMONGEO",
        "type": "DIALOG",
        "aliasList": [
          "1001"
        ],
        "dialogID": 101100416,
        "protectTime": 0.5
      },
      {
        "$type": "CPJKOIHIPBE",
        "type": "EMO_SYNC",
        "aliasList": [
          "1001"
        ],
        "dataPath": "Cs_Emo_Avatar_Simple_Common_Set/Cs_Emo_Avatar_Talk/Cs_Emo_Avatar_PersonalLine/Cs_Emo_Avatar_Wendy/Cs_Emo_101100416",
        "phonemePath": "",
        "emotionPath": "",
        "mateDataPath": "",
        "matePhonemePath": "",
        "mateEmotionPath": "",
        "dataPathHashList": [
          3239109314370692271,
          14880502137936192083,
          12816113077504770252,
          54272704905053478
        ],
        "FMDPBECPELH": "",
        "ADKBLPOKGIK": ""
      },
      {
        "$type": "LJLMDHDCAMK",
        "type": "LOOK_AT",
        "aliasList": [
          "1001"
        ],
        "enableHead": true,
        "headTurnTime": 0.5,
        "targetNpcAlias": "",
        "targetNpcLookAtPoint": "",
        "OAFJBHJHLJG": ""
      }
    ],
    [
      {
        "$type": "FJKIHHKJLMJ",
        "type": "CAMERA_MOVE",
        "duration": 1.0,
        "camPosOffset": {
          "x": 2319.982421875,
          "y": 215.33468627929688,
          "z": -919.6378784179688
        },
        "camForwardTargetOffset": {
          "x": 2320.791259765625,
          "y": 215.28768920898438,
          "z": -919.0517578125
        },
        "camFov": 20.0,
        "lerpPattern": 6,
        "cameraBlendType": "EaseInOutCubic",
        "NJBNNOMLKCK": {},
        "targetNpcAlias": "",
        "KJOEFBPOIIH": "",
        "IICFKKEBIEC": "",
        "EGEHEJEBLBJ": ""
      },
      {
        "$type": "PKKMAMONGEO",
        "type": "DIALOG",
        "aliasList": [
          "1005"
        ],
        "dialogID": 101100418,
        "protectTime": 0.5
      },
      {
        "$type": "FABLGECDBCH",
        "type": "BODY_LANG",
        "aliasList": [
          "1005"
        ],
        "bodyLangParam": 1110,
        "eventPatternSuiteKey": "",
        "FOHHKFAIAAJ": ""
      },
      {
        "$type": "FABLGECDBCH",
        "type": "BODY_LANG",
        "delayTime": 2.5,
        "aliasList": [
          "1005"
        ],
        "isContinue": true,
        "eventPatternSuiteKey": "",
        "FOHHKFAIAAJ": ""
      },
      {
        "$type": "FABLGECDBCH",
        "type": "BODY_LANG",
        "delayTime": 3.0,
        "aliasList": [
          "1005"
        ],
        "bodyLangParam": 1150,
        "eventPatternSuiteKey": "",
        "FOHHKFAIAAJ": ""
      },
      {
        "$type": "CPJKOIHIPBE",
        "type": "EMO_SYNC",
        "aliasList": [
          "1005"
        ],
        "dataPath": "Cs_Emo_Avatar_Simple_Common_Set/Cs_Emo_Avatar_Talk/Cs_Emo_Avatar_PersonalLine/Cs_Emo_Avatar_Wendy/Cs_Emo_101100418",
        "phonemePath": "",
        "emotionPath": "",
        "mateDataPath": "",
        "matePhonemePath": "",
        "mateEmotionPath": "",
        "dataPathHashList": [
          4185622345654428182,
          8535133793472784471,
          14865859301597845141,
          3544358015571663051
        ],
        "FMDPBECPELH": "",
        "ADKBLPOKGIK": ""
      },
      {
        "$type": "LJLMDHDCAMK",
        "type": "LOOK_AT",
        "delayTime": 0.30000001192092896,
        "aliasList": [
          "1001"
        ],
        "enableHead": true,
        "headRotateVec": {
          "y": 10.0
        },
        "headTurnTime": 0.4000000059604645,
        "targetNpcAlias": "1005",
        "targetNpcLookAtPoint": "",
        "OAFJBHJHLJG": ""
      }
    ],
    [
      {
        "$type": "FJKIHHKJLMJ",
        "type": "CAMERA_MOVE",
        "duration": 1.0,
        "camPosOffset": {
          "x": 2322.894775390625,
          "y": 216.4659881591797,
          "z": -923.1085205078125
        },
        "camForwardTargetOffset": {
          "x": 2322.676513671875,
          "y": 216.18865966796875,
          "z": -922.1729125976562
        },
        "camFov": 20.0,
        "lerpPattern": 6,
        "cameraBlendType": "EaseInOutCubic",
        "NJBNNOMLKCK": {},
        "targetNpcAlias": "",
        "KJOEFBPOIIH": "",
        "IICFKKEBIEC": "",
        "EGEHEJEBLBJ": ""
      },
      {
        "$type": "FJKIHHKJLMJ",
        "type": "CAMERA_MOVE",
        "delayTime": 0.10000000149011612,
        "duration": 6.0,
        "camPosOffset": {
          "x": 2322.993408203125,
          "y": 216.3984832763672,
          "z": -923.1054077148438
        },
        "camForwardTargetOffset": {
          "x": 2322.775146484375,
          "y": 216.12115478515625,
          "z": -922.1697998046875
        },
        "camFov": 20.0,
        "cameraBlendType": "EaseInOutQuad",
        "NJBNNOMLKCK": {},
        "targetNpcAlias": "",
        "KJOEFBPOIIH": "",
        "IICFKKEBIEC": "",
        "EGEHEJEBLBJ": ""
      },
      {
        "$type": "FABLGECDBCH",
        "type": "BODY_LANG",
        "aliasList": [
          "1005"
        ],
        "isContinue": true,
        "eventPatternSuiteKey": "",
        "FOHHKFAIAAJ": ""
      },
      {
        "$type": "PKKMAMONGEO",
        "type": "DIALOG",
        "aliasList": [
          "1001"
        ],
        "dialogID": 101100419
      },
      {
        "$type": "LJLMDHDCAMK",
        "type": "LOOK_AT",
        "aliasList": [
          "1001"
        ],
        "enableHead": true,
        "headRotateVec": {
          "y": -15.0
        },
        "headTurnTime": 0.4000000059604645,
        "targetNpcAlias": "",
        "targetNpcLookAtPoint": "",
        "OAFJBHJHLJG": ""
      },
      {
        "$type": "CPJKOIHIPBE",
        "type": "EMO_SYNC",
        "aliasList": [
          "1001"
        ],
        "dataPath": "Cs_Emo_Avatar_Simple_Common_Set/Cs_Emo_Avatar_Talk/Cs_Emo_Avatar_PersonalLine/Cs_Emo_Avatar_Wendy/Cs_Emo_101100419",
        "phonemePath": "",
        "emotionPath": "",
        "mateDataPath": "",
        "matePhonemePath": "",
        "mateEmotionPath": "",
        "dataPathHashList": [
          7026387849630748390,
          9591623110537460061,
          1094296526868448881,
          11031884067442488190
        ],
        "FMDPBECPELH": "",
        "ADKBLPOKGIK": ""
      }
    ],
    [
      {
        "$type": "FJKIHHKJLMJ",
        "type": "CAMERA_MOVE",
        "duration": 1.0,
        "camPosOffset": {
          "x": 2323.76513671875,
          "y": 216.10739135742188,
          "z": -916.9470825195312
        },
        "camForwardTargetOffset": {
          "x": 2322.9599609375,
          "y": 215.75323486328125,
          "z": -917.4226684570312
        },
        "camFov": 20.0,
        "lerpPattern": 6,
        "cameraBlendType": "EaseInOutCubic",
        "NJBNNOMLKCK": {},
        "targetNpcAlias": "",
        "KJOEFBPOIIH": "",
        "IICFKKEBIEC": "",
        "EGEHEJEBLBJ": ""
      },
      {
        "$type": "FJKIHHKJLMJ",
        "type": "CAMERA_MOVE",
        "delayTime": 0.10000000149011612,
        "duration": 3.0,
        "camPosOffset": {
          "x": 2323.73046875,
          "y": 216.0923309326172,
          "z": -916.9677734375
        },
        "camForwardTargetOffset": {
          "x": 2322.9248046875,
          "y": 215.74378967285156,
          "z": -917.4468383789062
        },
        "camFov": 20.0,
        "cameraBlendType": "EaseInOutQuad",
        "NJBNNOMLKCK": {},
        "targetNpcAlias": "",
        "KJOEFBPOIIH": "",
        "IICFKKEBIEC": "",
        "EGEHEJEBLBJ": ""
      },
      {
        "$type": "PKKMAMONGEO",
        "type": "DIALOG",
        "aliasList": [
          "1001"
        ],
        "dialogID": 101100420
      },
      {
        "$type": "LJLMDHDCAMK",
        "type": "LOOK_AT",
        "aliasList": [
          "1001"
        ],
        "enableHead": true,
        "headRotateVec": {
          "y": -15.0
        },
        "headTurnTime": 0.4000000059604645,
        "targetNpcAlias": "Avatar",
        "targetNpcLookAtPoint": "",
        "OAFJBHJHLJG": ""
      },
      {
        "$type": "EMEHNEMOMMM",
        "type": "LOOK_AT_EYECTRL",
        "aliasList": [
          "1001"
        ],
        "useTargetPos": false,
        "eyeRotateVecLeft": {
          "x": -6.0,
          "y": -6.0
        },
        "eyeRotateVecRight": {
          "x": -6.0,
          "y": 6.0
        },
        "turnTime": 1.0,
        "targetNpcAlias": "",
        "targetPoint": "Face"
      },
      {
        "$type": "CPJKOIHIPBE",
        "type": "EMO_SYNC",
        "aliasList": [
          "1001"
        ],
        "dataPath": "Cs_Emo_Avatar_Simple_Common_Set/Cs_Emo_Avatar_Talk/Cs_Emo_Avatar_PersonalLine/Cs_Emo_Avatar_Wendy/Cs_Emo_101100420",
        "phonemePath": "",
        "emotionPath": "",
        "mateDataPath": "",
        "matePhonemePath": "",
        "mateEmotionPath": "",
        "dataPathHashList": [
          2612147858227458749,
          1219665123444637981,
          14577188378719629111,
          3782984172156127670
        ],
        "FMDPBECPELH": "",
        "ADKBLPOKGIK": ""
      }
    ],
    [
      {
        "$type": "FJKIHHKJLMJ",
        "type": "CAMERA_MOVE",
        "delayTime": 0.5,
        "duration": 0.10000000149011612,
        "cameraPosType": "EXIT",
        "camForwardTargetOffset": {
          "z": 1.0
        },
        "lerpPattern": 6,
        "cameraBlendType": "EaseInOutCubic",
        "NJBNNOMLKCK": {},
        "targetNpcAlias": "",
        "KJOEFBPOIIH": "",
        "IICFKKEBIEC": "",
        "EGEHEJEBLBJ": ""
      },
      {
        "$type": "MoleMole.Config.ConfigCameraDOFAction",
        "type": "CAMERA_DOF",
        "delayTime": 0.5
      },
      {
        "$type": "MoleMole.Config.ConfigTimeProtectAction",
        "type": "TIME_PROTECT",
        "duration": 0.6000000238418579
      },
      {
        "$type": "MoleMole.Config.ConfigSimpleBlackScreenAction",
        "type": "SIMPLE_BLACK_SCREEN",
        "durationToBlack": 0.5,
        "durationKeepBlack": 1.0,
        "durationFromBlack": 0.5,
        "textMapID": ""
      },
      {
        "$type": "PKKMAMONGEO",
        "type": "DIALOG_CLEAR",
        "delayTime": 0.30000001192092896
      },
      {
        "$type": "MoleMole.Config.ConfigVisibleInterAction",
        "type": "VISIBLE",
        "delayTime": 0.5,
        "aliasList": [
          "1001"
        ],
        "_extraParam": ""
      }
    ]
  ],
  "groupId": [
    {
      "grpId": 3723490037,
      "nextGrpId": 3723490038
    },
    {
      "index": 1,
      "grpId": 3723490038,
      "nextGrpId": 3723490039
    },
    {
      "index": 2,
      "grpId": 3723490039,
      "nextGrpId": 3723490040
    },
    {
      "index": 3,
      "grpId": 3723490040,
      "nextGrpId": 3723490041
    },
    {
      "index": 4,
      "grpId": 3723490041,
      "nextGrpId": 3723490042
    },
    {
      "index": 5,
      "grpId": 3723490042,
      "nextGrpId": 3723490043
    },
    {
      "index": 6,
      "grpId": 3723490043,
      "nextGrpId": 3723490044
    },
    {
      "index": 7,
      "grpId": 3723490044,
      "nextGrpId": 3723490045
    },
    {
      "index": 8,
      "grpId": 3723490045,
      "nextGrpId": 3759041499
    },
    {
      "index": 9,
      "grpId": 3759041499,
      "nextGrpId": 3759041500
    },
    {
      "index": 10,
      "grpId": 3759041500,
      "nextGrpId": 3759041501
    },
    {
      "index": 11,
      "grpId": 3759041501,
      "nextGrpId": 3759041502
    },
    {
      "index": 12,
      "grpId": 3759041502,
      "nextGrpId": 3759041503
    },
    {
      "index": 13,
      "grpId": 3759041503,
      "nextGrpId": 3759041504
    },
    {
      "index": 14,
      "grpId": 3759041504,
      "nextGrpId": 3759041505
    },
    {
      "index": 15,
      "grpId": 3759041505,
      "nextGrpId": 3759041506
    },
    {
      "index": 16,
      "grpId": 3759041506,
      "nextGrpId": 3759041507
    }
  ],
  "freeStyleDic": {
    "1004": [],
    "1009": [],
    "157701": [
      8040
    ],
    "1001": [],
    "159301": []
  }
}