{
  "luaDataPath": "",
  "startBlackKeepTime": 0.5,
  "entityBan": "",
  "protectNpcMobileLod": true,
  "talkFlag": 7,
  "startFade": {
    "startFadeInDuration": 0.800000011920929
  },
  "endFade": {
    "startFadeOutDuration": 0.0
  },
  "actors": [
    {
      "alias": "Avatar",
      "visible": true,
      "bornPointName": "Q1101110Avatar",
      "relativePosType": "AVATAR_NEW",
      "relativePosNpcAlias": "",
      "_notDestroyInTalk": true,
      "_bindMovingTargetKey": ""
    },
    {
      "configID": 10265,
      "alias": "10265",
      "visible": true,
      "bornPointName": "Q11011Route5",
      "relativePosType": "AVATAR_NEW",
      "relativePosNpcAlias": "",
      "_notDestroyInTalk": true,
      "_bindMovingTargetKey": ""
    },
    {
      "configID": 1005,
      "alias": "1005",
      "visible": true,
      "bornPointName": "Q1101110Paimon",
      "relativePosType": "AVATAR_NEW",
      "relativePosNpcAlias": "",
      "_notDestroyInTalk": true,
      "_bindMovingTargetKey": ""
    }
  ],
  "group": [
    [
      {
        "$type": "FJKIHHKJLMJ",
        "type": "CAMERA_MOVE",
        "delayTime": 0.061000000685453415,
        "duration": 9.269000053405762,
        "actionId": 115,
        "camPosOffset": {
          "x": -600.7999877929688,
          "y": 217.05099487304688,
          "z": 114.35299682617188
        },
        "camForwardTargetOffset": {
          "x": -600.676025390625,
          "y": 216.61900329589844,
          "z": 115.24600219726562
        },
        "camFov": 20.0,
        "cameraBlendType": "Linear",
        "targetNpcAlias": "",
        "KJOEFBPOIIH": "",
        "IICFKKEBIEC": "",
        "EGEHEJEBLBJ": ""
      },
      {
        "$type": "FJKIHHKJLMJ",
        "type": "CAMERA_MOVE",
        "duration": 0.3490000069141388,
        "actionId": 116,
        "camPosOffset": {
          "x": -601.3699951171875,
          "y": 216.68699645996094,
          "z": 114.26200103759766
        },
        "camForwardTargetOffset": {
          "x": -601.2109985351562,
          "y": 216.28799438476562,
          "z": 115.16500091552734
        },
        "camFov": 20.0,
        "lerpPattern": 6,
        "cameraBlendType": "EaseInOutCubic",
        "targetNpcAlias": "",
        "KJOEFBPOIIH": "",
        "IICFKKEBIEC": "",
        "EGEHEJEBLBJ": ""
      },
      {
        "$type": "MoleMole.Config.ConfigCameraDOFAction",
        "type": "CAMERA_DOF",
        "actionId": 117,
        "enabled": true,
        "focusDistance": 44.83000183105469,
        "focusRange": 3.4600000381469727,
        "nearFocalDistance": 10.770000457763672,
        "nearFocalTransDistance": 3.3299999237060547,
        "dofBlurAmount": 1.0
      },
      {
        "$type": "MoleMole.Config.ConfigTimeProtectAction",
        "type": "TIME_PROTECT",
        "duration": 2.492000102996826,
        "actionId": 118
      },
      {
        "$type": "MoleMole.Config.ConfigMoveToAction",
        "type": "MOVE_TO",
        "aliasList": [
          "Avatar"
        ],
        "actionId": 144,
        "routeList": [
          {
            "x": -594.989013671875,
            "y": 204.83399963378906,
            "z": 136.91700744628906
          }
        ],
        "_bindMovingTargetKey": ""
      },
      {
        "$type": "LLGANGLOEEO",
        "type": "STEER_TO",
        "aliasList": [
          "Avatar"
        ],
        "actionId": 145,
        "_flag": 32,
        "steerDir": {
          "x": 0.9169999957084656,
          "z": 0.39800000190734863
        },
        "targetNpcAlias": "",
        "fixInterNull": true,
        "OAFJBHJHLJG": ""
      },
      {
        "$type": "FABLGECDBCH",
        "type": "BODY_LANG",
        "aliasList": [
          "Avatar"
        ],
        "actionId": 146,
        "_flag": 131072,
        "bodyLangParam": 1230,
        "forceDoFreeStyle": true,
        "eventPatternSuiteKey": "",
        "FOHHKFAIAAJ": ""
      },
      {
        "$type": "LJLMDHDCAMK",
        "type": "LOOK_AT",
        "aliasList": [
          "Avatar"
        ],
        "actionId": 147,
        "_flag": 64,
        "enableHead": true,
        "useTargetPos": true,
        "enableAbsolute": true,
        "targetPosition": {
          "x": -593.7349853515625,
          "y": 206.12899780273438,
          "z": 137.4250030517578
        },
        "targetNpcAlias": "",
        "targetNpcLookAtPoint": "",
        "OAFJBHJHLJG": ""
      },
      {
        "$type": "PKKMAMONGEO",
        "type": "DIALOG",
        "delayTime": 1.1080000400543213,
        "aliasList": [
          "10265"
        ],
        "actionId": 158,
        "dialogID": 110111001,
        "protectTime": 2.319999933242798
      },
      {
        "$type": "MoleMole.Config.ConfigMoveToAction",
        "type": "MOVE_TO",
        "aliasList": [
          "10265"
        ],
        "actionId": 159,
        "routeList": [
          {
            "x": -594.0759887695312,
            "y": 204.83200073242188,
            "z": 137.6909942626953
          }
        ],
        "_bindMovingTargetKey": ""
      },
      {
        "$type": "LLGANGLOEEO",
        "type": "STEER_TO",
        "aliasList": [
          "10265"
        ],
        "actionId": 160,
        "_flag": 32,
        "steerDir": {
          "x": 0.9290000200271606,
          "z": 0.3700000047683716
        },
        "targetNpcAlias": "",
        "fixInterNull": true,
        "OAFJBHJHLJG": ""
      },
      {
        "$type": "FABLGECDBCH",
        "type": "BODY_LANG",
        "delayTime": 1.055999994277954,
        "aliasList": [
          "10265"
        ],
        "actionId": 161,
        "_flag": 131072,
        "bodyLangParam": 1060,
        "forceDoFreeStyle": true,
        "eventPatternSuiteKey": "",
        "FOHHKFAIAAJ": ""
      },
      {
        "$type": "LJLMDHDCAMK",
        "type": "LOOK_AT",
        "delayTime": 0.8690000176429749,
        "aliasList": [
          "10265"
        ],
        "actionId": 162,
        "_flag": 64,
        "enableHead": true,
        "useTargetPos": true,
        "enableAbsolute": true,
        "targetPosition": {
          "x": -592.6599731445312,
          "y": 206.7010040283203,
          "z": 138.18499755859375
        },
        "headTurnTime": 0.20000000298023224,
        "targetNpcAlias": "",
        "targetNpcLookAtPoint": "",
        "OAFJBHJHLJG": ""
      },
      {
        "$type": "CPJKOIHIPBE",
        "type": "EMO_SYNC",
        "delayTime": 1.1080000400543213,
        "aliasList": [
          "10265"
        ],
        "actionId": 163,
        "_flag": 320,
        "dataPath": "Cs_Emo_Avatar_Simple_Common_Set/Cs_Emo_Avatar_Talk/Cs_Emo_Avatar_PersonalLine/Cs_Emo_Avatar_Tartaglia/Cs_Emo_110111001",
        "phonemePath": "",
        "emotionPath": "",
        "mateDataPath": "",
        "matePhonemePath": "",
        "mateEmotionPath": "",
        "dataPathHashList": [
          3613960700442264186,
          1208208987155849461,
          15719205905703106666,
          15112746201635435543
        ],
        "FMDPBECPELH": "",
        "ADKBLPOKGIK": ""
      },
      {
        "$type": "MoleMole.Config.ConfigMoveToAction",
        "type": "MOVE_TO",
        "aliasList": [
          "1005"
        ],
        "actionId": 201,
        "routeList": [
          {
            "x": -594.6749877929688,
            "y": 204.76199340820312,
            "z": 138.322998046875
          }
        ],
        "_bindMovingTargetKey": ""
      },
      {
        "$type": "LJLMDHDCAMK",
        "type": "LOOK_AT",
        "aliasList": [
          "1005"
        ],
        "actionId": 202,
        "_flag": 64,
        "enableHead": true,
        "useTargetPos": true,
        "enableAbsolute": true,
        "targetPosition": {
          "x": -593.1190185546875,
          "y": 206.8260040283203,
          "z": 138.53399658203125
        },
        "headTurnTime": 0.20000000298023224,
        "targetNpcAlias": "",
        "targetNpcLookAtPoint": "",
        "OAFJBHJHLJG": ""
      }
    ],
    [
      {
        "$type": "FJKIHHKJLMJ",
        "type": "CAMERA_MOVE",
        "delayTime": 0.03799999877810478,
        "duration": 10.71399974822998,
        "actionId": 119,
        "camPosOffset": {
          "x": -590.0079956054688,
          "y": 207.5290069580078,
          "z": 137.60499572753906
        },
        "camForwardTargetOffset": {
          "x": -590.9240112304688,
          "y": 207.19400024414062,
          "z": 137.8260040283203
        },
        "camFov": 40.0,
        "cameraBlendType": "Linear",
        "targetNpcAlias": "",
        "KJOEFBPOIIH": "",
        "IICFKKEBIEC": "",
        "EGEHEJEBLBJ": ""
      },
      {
        "$type": "FJKIHHKJLMJ",
        "type": "CAMERA_MOVE",
        "duration": 0.5090000033378601,
        "actionId": 120,
        "camPosOffset": {
          "x": -589.635009765625,
          "y": 207.61700439453125,
          "z": 137.52099609375
        },
        "camForwardTargetOffset": {
          "x": -590.5469970703125,
          "y": 207.28399658203125,
          "z": 137.76100158691406
        },
        "camFov": 40.0,
        "lerpPattern": 6,
        "cameraBlendType": "EaseInOutCubic",
        "targetNpcAlias": "",
        "KJOEFBPOIIH": "",
        "IICFKKEBIEC": "",
        "EGEHEJEBLBJ": ""
      },
      {
        "$type": "MoleMole.Config.ConfigCameraDOFAction",
        "type": "CAMERA_DOF",
        "actionId": 121,
        "enabled": true,
        "focusDistance": 6.300000190734863,
        "focusRange": 2.4800000190734863,
        "nearFocalDistance": 0.18000000715255737,
        "nearFocalTransDistance": 2.180000066757202,
        "dofBlurAmount": 1.0
      },
      {
        "$type": "FABLGECDBCH",
        "type": "BODY_LANG",
        "aliasList": [
          "10265"
        ],
        "actionId": 164,
        "_flag": 131072,
        "isContinue": true,
        "bodyLangParam": 1060,
        "forceDoFreeStyle": true,
        "eventPatternSuiteKey": "",
        "FOHHKFAIAAJ": ""
      },
      {
        "$type": "PKKMAMONGEO",
        "type": "DIALOG",
        "aliasList": [
          "1005"
        ],
        "actionId": 203,
        "dialogID": 110111002,
        "protectTime": 1.7599999904632568
      },
      {
        "$type": "LJLMDHDCAMK",
        "type": "LOOK_AT",
        "aliasList": [
          "1005"
        ],
        "actionId": 204,
        "_flag": 64,
        "enableHead": true,
        "useTargetPos": true,
        "enableAbsolute": true,
        "targetPosition": {
          "x": -593.0800170898438,
          "y": 206.16200256347656,
          "z": 137.41600036621094
        },
        "headTurnTime": 0.30000001192092896,
        "targetNpcAlias": "",
        "targetNpcLookAtPoint": "",
        "OAFJBHJHLJG": ""
      },
      {
        "$type": "FABLGECDBCH",
        "type": "BODY_LANG",
        "aliasList": [
          "1005"
        ],
        "actionId": 205,
        "_flag": 131072,
        "bodyLangParam": 1170,
        "forceDoFreeStyle": true,
        "eventPatternSuiteKey": "",
        "FOHHKFAIAAJ": ""
      },
      {
        "$type": "FABLGECDBCH",
        "type": "BODY_LANG",
        "delayTime": 2.319999933242798,
        "aliasList": [
          "1005"
        ],
        "actionId": 206,
        "_flag": 131072,
        "bodyLangParam": 1180,
        "forceDoFreeStyle": true,
        "eventPatternSuiteKey": "",
        "FOHHKFAIAAJ": ""
      },
      {
        "$type": "CPJKOIHIPBE",
        "type": "EMO_SYNC",
        "aliasList": [
          "1005"
        ],
        "actionId": 207,
        "_flag": 320,
        "dataPath": "Cs_Emo_Avatar_Simple_Common_Set/Cs_Emo_Avatar_Talk/Cs_Emo_Avatar_PersonalLine/Cs_Emo_Avatar_Tartaglia/Cs_Emo_110111002",
        "phonemePath": "",
        "emotionPath": "",
        "mateDataPath": "",
        "matePhonemePath": "",
        "mateEmotionPath": "",
        "dataPathHashList": [
          4272536918117659126,
          16535970097870304799,
          10659373098202558117,
          6288247806624230991
        ],
        "FMDPBECPELH": "",
        "ADKBLPOKGIK": ""
      }
    ],
    [
      {
        "$type": "FJKIHHKJLMJ",
        "type": "CAMERA_MOVE",
        "delayTime": 0.01600000075995922,
        "duration": 13.187000274658203,
        "actionId": 122,
        "camPosOffset": {
          "x": -595.47900390625,
          "y": 206.10499572753906,
          "z": 139.6580047607422
        },
        "camForwardTargetOffset": {
          "x": -594.9910278320312,
          "y": 206.02999877929688,
          "z": 138.78900146484375
        },
        "camFov": 20.0,
        "cameraBlendType": "Linear",
        "targetNpcAlias": "",
        "KJOEFBPOIIH": "",
        "IICFKKEBIEC": "",
        "EGEHEJEBLBJ": ""
      },
      {
        "$type": "FJKIHHKJLMJ",
        "type": "CAMERA_MOVE",
        "duration": 0.44600000977516174,
        "actionId": 123,
        "camPosOffset": {
          "x": -595.5819702148438,
          "y": 206.281005859375,
          "z": 139.5800018310547
        },
        "camForwardTargetOffset": {
          "x": -595.0540161132812,
          "y": 206.10499572753906,
          "z": 138.74899291992188
        },
        "camFov": 20.0,
        "lerpPattern": 6,
        "cameraBlendType": "EaseInOutCubic",
        "targetNpcAlias": "",
        "KJOEFBPOIIH": "",
        "IICFKKEBIEC": "",
        "EGEHEJEBLBJ": ""
      },
      {
        "$type": "MoleMole.Config.ConfigTimeProtectAction",
        "type": "TIME_PROTECT",
        "duration": 3.124000072479248,
        "actionId": 124
      },
      {
        "$type": "LLGANGLOEEO",
        "type": "STEER_TO",
        "aliasList": [
          "Avatar"
        ],
        "actionId": 148,
        "_flag": 32,
        "steerDir": {
          "x": 0.5040000081062317,
          "z": 0.8629999756813049
        },
        "targetNpcAlias": "",
        "fixInterNull": true,
        "OAFJBHJHLJG": ""
      },
      {
        "$type": "PKKMAMONGEO",
        "type": "DIALOG",
        "delayTime": 0.7829999923706055,
        "aliasList": [
          "10265"
        ],
        "actionId": 165,
        "dialogID": 110111003,
        "protectTime": 2.9100000858306885
      },
      {
        "$type": "LLGANGLOEEO",
        "type": "STEER_TO",
        "delayTime": 0.04899999871850014,
        "duration": 1.0,
        "aliasList": [
          "10265"
        ],
        "actionId": 166,
        "_flag": 32,
        "steerDir": {
          "x": -0.8669999837875366,
          "z": 0.49799999594688416
        },
        "useSteerAnim": true,
        "targetNpcAlias": "",
        "fixInterNull": true,
        "OAFJBHJHLJG": ""
      },
      {
        "$type": "LJLMDHDCAMK",
        "type": "LOOK_AT",
        "delayTime": 1.031999945640564,
        "aliasList": [
          "10265"
        ],
        "actionId": 167,
        "_flag": 64,
        "enableHead": true,
        "useTargetPos": true,
        "enableAbsolute": true,
        "targetPosition": {
          "x": -595.3920288085938,
          "y": 206.1580047607422,
          "z": 138.4320068359375
        },
        "headTurnTime": 0.4000000059604645,
        "targetNpcAlias": "",
        "targetNpcLookAtPoint": "",
        "OAFJBHJHLJG": ""
      },
      {
        "$type": "LJLMDHDCAMK",
        "type": "LOOK_AT",
        "aliasList": [
          "10265"
        ],
        "actionId": 168,
        "_flag": 64,
        "enableHead": true,
        "useTargetPos": true,
        "enableAbsolute": true,
        "targetPosition": {
          "x": -594.56201171875,
          "y": 206.1580047607422,
          "z": 138.67999267578125
        },
        "headTurnTime": 0.30000001192092896,
        "targetNpcAlias": "",
        "targetNpcLookAtPoint": "",
        "OAFJBHJHLJG": ""
      },
      {
        "$type": "FABLGECDBCH",
        "type": "BODY_LANG",
        "delayTime": 2.753999948501587,
        "aliasList": [
          "10265"
        ],
        "actionId": 169,
        "_flag": 131072,
        "bodyLangParam": 1060,
        "forceDoFreeStyle": true,
        "eventPatternSuiteKey": "",
        "FOHHKFAIAAJ": ""
      },
      {
        "$type": "CPJKOIHIPBE",
        "type": "EMO_SYNC",
        "delayTime": 0.7829999923706055,
        "aliasList": [
          "10265"
        ],
        "actionId": 170,
        "_flag": 256,
        "dataPath": "Cs_Emo_Avatar_Simple_Common_Set/Cs_Emo_Avatar_Talk/Cs_Emo_Avatar_PersonalLine/Cs_Emo_Avatar_Tartaglia/Cs_Emo_110111003",
        "phonemePath": "",
        "emotionPath": "",
        "mateDataPath": "",
        "matePhonemePath": "",
        "mateEmotionPath": "",
        "dataPathHashList": [
          18196980580794606911,
          2383666995662024396,
          17651485701224903099,
          3152294392735471973
        ],
        "FMDPBECPELH": "",
        "ADKBLPOKGIK": ""
      },
      {
        "$type": "MoleMole.Config.ConfigMoveToAction",
        "type": "MOVE_TO",
        "aliasList": [
          "1005"
        ],
        "actionId": 208,
        "routeList": [
          {
            "x": -595.114990234375,
            "y": 204.76199340820312,
            "z": 138.29600524902344
          }
        ],
        "_bindMovingTargetKey": ""
      },
      {
        "$type": "LLGANGLOEEO",
        "type": "STEER_TO",
        "aliasList": [
          "1005"
        ],
        "actionId": 209,
        "_flag": 32,
        "steerDir": {
          "x": 0.8320000171661377,
          "z": -0.5540000200271606
        },
        "targetNpcAlias": "",
        "fixInterNull": true,
        "OAFJBHJHLJG": ""
      },
      {
        "$type": "FABLGECDBCH",
        "type": "BODY_LANG",
        "aliasList": [
          "1005"
        ],
        "actionId": 210,
        "_flag": 131072,
        "isContinue": true,
        "forceDoFreeStyle": true,
        "eventPatternSuiteKey": "",
        "FOHHKFAIAAJ": ""
      }
    ],
    [
      {
        "$type": "PKKMAMONGEO",
        "type": "DIALOG",
        "aliasList": [
          "10265"
        ],
        "actionId": 171,
        "dialogID": 110111004,
        "protectTime": 2.0199999809265137
      },
      {
        "$type": "FABLGECDBCH",
        "type": "BODY_LANG",
        "delayTime": 1.6779999732971191,
        "aliasList": [
          "10265"
        ],
        "actionId": 172,
        "_flag": 131072,
        "bodyLangParam": 1050,
        "forceDoFreeStyle": true,
        "eventPatternSuiteKey": "",
        "FOHHKFAIAAJ": ""
      },
      {
        "$type": "CPJKOIHIPBE",
        "type": "EMO_SYNC",
        "aliasList": [
          "10265"
        ],
        "actionId": 173,
        "_flag": 320,
        "dataPath": "Cs_Emo_Avatar_Simple_Common_Set/Cs_Emo_Avatar_Talk/Cs_Emo_Avatar_PersonalLine/Cs_Emo_Avatar_Tartaglia/Cs_Emo_110111004",
        "phonemePath": "",
        "emotionPath": "",
        "mateDataPath": "",
        "matePhonemePath": "",
        "mateEmotionPath": "",
        "dataPathHashList": [
          1458650806709931298,
          124739870603718545,
          14067441121067489533,
          16505499217446245222
        ],
        "FMDPBECPELH": "",
        "ADKBLPOKGIK": ""
      },
      {
        "$type": "FABLGECDBCH",
        "type": "BODY_LANG",
        "aliasList": [
          "10265"
        ],
        "actionId": 174,
        "_flag": 131072,
        "isContinue": true,
        "forceDoFreeStyle": true,
        "eventPatternSuiteKey": "",
        "FOHHKFAIAAJ": ""
      }
    ],
    [
      {
        "$type": "FJKIHHKJLMJ",
        "type": "CAMERA_MOVE",
        "delayTime": 0.08500000089406967,
        "duration": 10.213000297546387,
        "actionId": 125,
        "camPosOffset": {
          "x": -592.9320068359375,
          "y": 205.7469940185547,
          "z": 137.86199951171875
        },
        "camForwardTargetOffset": {
          "x": -593.9199829101562,
          "y": 205.88699340820312,
          "z": 137.927001953125
        },
        "camFov": 20.0,
        "cameraBlendType": "Linear",
        "targetNpcAlias": "",
        "KJOEFBPOIIH": "",
        "IICFKKEBIEC": "",
        "EGEHEJEBLBJ": ""
      },
      {
        "$type": "FJKIHHKJLMJ",
        "type": "CAMERA_MOVE",
        "duration": 0.9900000095367432,
        "actionId": 126,
        "camPosOffset": {
          "x": -592.93798828125,
          "y": 205.75,
          "z": 137.781005859375
        },
        "camForwardTargetOffset": {
          "x": -593.9240112304688,
          "y": 205.88999938964844,
          "z": 137.875
        },
        "camFov": 20.0,
        "lerpPattern": 6,
        "cameraBlendType": "EaseInOutCubic",
        "targetNpcAlias": "",
        "KJOEFBPOIIH": "",
        "IICFKKEBIEC": "",
        "EGEHEJEBLBJ": ""
      },
      {
        "$type": "LJLMDHDCAMK",
        "type": "LOOK_AT",
        "aliasList": [
          "10265"
        ],
        "actionId": 175,
        "_flag": 64,
        "enableHead": true,
        "useTargetPos": true,
        "enableAbsolute": true,
        "targetPosition": {
          "x": -594.8469848632812,
          "y": 205.91200256347656,
          "z": 138.1529998779297
        },
        "headTurnTime": 0.20000000298023224,
        "targetNpcAlias": "",
        "targetNpcLookAtPoint": "",
        "OAFJBHJHLJG": ""
      },
      {
        "$type": "PKKMAMONGEO",
        "type": "DIALOG",
        "aliasList": [
          "1005"
        ],
        "actionId": 211,
        "dialogID": 110111005,
        "protectTime": 1.9500000476837158
      },
      {
        "$type": "FABLGECDBCH",
        "type": "BODY_LANG",
        "aliasList": [
          "1005"
        ],
        "actionId": 212,
        "_flag": 131072,
        "bodyLangParam": 1090,
        "forceDoFreeStyle": true,
        "eventPatternSuiteKey": "",
        "FOHHKFAIAAJ": ""
      },
      {
        "$type": "CPJKOIHIPBE",
        "type": "EMO_SYNC",
        "aliasList": [
          "1005"
        ],
        "actionId": 213,
        "_flag": 320,
        "dataPath": "Cs_Emo_Avatar_Simple_Common_Set/Cs_Emo_Avatar_Talk/Cs_Emo_Avatar_PersonalLine/Cs_Emo_Avatar_Tartaglia/Cs_Emo_110111005",
        "phonemePath": "",
        "emotionPath": "",
        "mateDataPath": "",
        "matePhonemePath": "",
        "mateEmotionPath": "",
        "dataPathHashList": [
          5300276770604274708,
          16741806962745661591,
          17546100656009176629,
          13774342587060977826
        ],
        "FMDPBECPELH": "",
        "ADKBLPOKGIK": ""
      },
      {
        "$type": "FABLGECDBCH",
        "type": "BODY_LANG",
        "delayTime": 1.9509999752044678,
        "aliasList": [
          "1005"
        ],
        "actionId": 214,
        "_flag": 131072,
        "bodyLangParam": 1110,
        "forceDoFreeStyle": true,
        "eventPatternSuiteKey": "",
        "FOHHKFAIAAJ": ""
      }
    ],
    [
      {
        "$type": "FJKIHHKJLMJ",
        "type": "CAMERA_MOVE",
        "duration": 4.881999969482422,
        "actionId": 127,
        "camPosOffset": {
          "x": -594.7760009765625,
          "y": 205.90199279785156,
          "z": 138.78799438476562
        },
        "camForwardTargetOffset": {
          "x": -594.291015625,
          "y": 205.9320068359375,
          "z": 137.91299438476562
        },
        "camFov": 20.0,
        "lerpPattern": 6,
        "cameraBlendType": "EaseInOutCubic",
        "targetNpcAlias": "",
        "KJOEFBPOIIH": "",
        "IICFKKEBIEC": "",
        "EGEHEJEBLBJ": ""
      },
      {
        "$type": "LJLMDHDCAMK",
        "type": "LOOK_AT",
        "aliasList": [
          "Avatar"
        ],
        "actionId": 149,
        "_flag": 64,
        "enableHead": true,
        "useTargetPos": true,
        "enableAbsolute": true,
        "targetPosition": {
          "x": -594.3109741210938,
          "y": 206.06399536132812,
          "z": 137.8209991455078
        },
        "headTurnTime": 0.20000000298023224,
        "targetNpcAlias": "",
        "targetNpcLookAtPoint": "",
        "OAFJBHJHLJG": ""
      },
      {
        "$type": "PKKMAMONGEO",
        "type": "DIALOG",
        "aliasList": [
          "10265"
        ],
        "actionId": 176,
        "dialogID": 110111006,
        "protectTime": 1.8700000047683716
      },
      {
        "$type": "FABLGECDBCH",
        "type": "BODY_LANG",
        "aliasList": [
          "10265"
        ],
        "actionId": 177,
        "_flag": 131072,
        "isContinue": true,
        "forceDoFreeStyle": true,
        "eventPatternSuiteKey": "",
        "FOHHKFAIAAJ": ""
      },
      {
        "$type": "CPJKOIHIPBE",
        "type": "EMO_SYNC",
        "aliasList": [
          "10265"
        ],
        "actionId": 178,
        "_flag": 256,
        "dataPath": "Cs_Emo_Avatar_Simple_Common_Set/Cs_Emo_Avatar_Talk/Cs_Emo_Avatar_PersonalLine/Cs_Emo_Avatar_Tartaglia/Cs_Emo_110111006",
        "phonemePath": "",
        "emotionPath": "",
        "mateDataPath": "",
        "matePhonemePath": "",
        "mateEmotionPath": "",
        "dataPathHashList": [
          1823909824149557348,
          12198046390381835847,
          13538671750864376241,
          16696004421707362522
        ],
        "FMDPBECPELH": "",
        "ADKBLPOKGIK": ""
      },
      {
        "$type": "LJLMDHDCAMK",
        "type": "LOOK_AT",
        "delayTime": 1.534999966621399,
        "aliasList": [
          "10265"
        ],
        "actionId": 179,
        "_flag": 64,
        "enableHead": true,
        "useTargetPos": true,
        "enableAbsolute": true,
        "targetPosition": {
          "x": -594.8469848632812,
          "y": 206.04400634765625,
          "z": 138.1529998779297
        },
        "headTurnTime": 0.30000001192092896,
        "targetNpcAlias": "",
        "targetNpcLookAtPoint": "",
        "OAFJBHJHLJG": ""
      },
      {
        "$type": "FABLGECDBCH",
        "type": "BODY_LANG",
        "aliasList": [
          "1005"
        ],
        "actionId": 215,
        "_flag": 131072,
        "isContinue": true,
        "forceDoFreeStyle": true,
        "eventPatternSuiteKey": "",
        "FOHHKFAIAAJ": ""
      }
    ],
    [
      {
        "$type": "FJKIHHKJLMJ",
        "type": "CAMERA_MOVE",
        "delayTime": 0.08500000089406967,
        "duration": 11.227999687194824,
        "actionId": 128,
        "camPosOffset": {
          "x": -594.6810302734375,
          "y": 206.2310028076172,
          "z": 142.9929962158203
        },
        "camForwardTargetOffset": {
          "x": -594.6790161132812,
          "y": 206.14100646972656,
          "z": 141.9969940185547
        },
        "camFov": 20.0,
        "cameraBlendType": "Linear",
        "targetNpcAlias": "",
        "KJOEFBPOIIH": "",
        "IICFKKEBIEC": "",
        "EGEHEJEBLBJ": ""
      },
      {
        "$type": "FJKIHHKJLMJ",
        "type": "CAMERA_MOVE",
        "duration": 0.4819999933242798,
        "actionId": 129,
        "camPosOffset": {
          "x": -594.1420288085938,
          "y": 206.21299743652344,
          "z": 142.62899780273438
        },
        "camForwardTargetOffset": {
          "x": -594.2150268554688,
          "y": 206.1199951171875,
          "z": 141.63600158691406
        },
        "camFov": 20.0,
        "lerpPattern": 6,
        "cameraBlendType": "EaseInOutCubic",
        "targetNpcAlias": "",
        "KJOEFBPOIIH": "",
        "IICFKKEBIEC": "",
        "EGEHEJEBLBJ": ""
      },
      {
        "$type": "HDGKHDNFMIM",
        "type": "DIALOG_SELECT",
        "delayTime": 3.7839999198913574,
        "aliasList": [
          "Avatar"
        ],
        "actionId": 150,
        "dialogIDList": [
          110111008,
          110111009
        ],
        "grpIDList": [
          1031506216,
          1031506216
        ],
        "useGrpId": true,
        "countDownGrpId": 1031506208
      },
      {
        "$type": "PKKMAMONGEO",
        "type": "DIALOG",
        "aliasList": [
          "10265"
        ],
        "actionId": 180,
        "dialogID": 110111007,
        "protectTime": 3.7839999198913574
      },
      {
        "$type": "LLGANGLOEEO",
        "type": "STEER_TO",
        "aliasList": [
          "10265"
        ],
        "actionId": 181,
        "_flag": 32,
        "steerDir": {
          "x": -0.9940000176429749,
          "z": 0.1080000028014183
        },
        "targetNpcAlias": "",
        "fixInterNull": true,
        "OAFJBHJHLJG": ""
      },
      {
        "$type": "FABLGECDBCH",
        "type": "BODY_LANG",
        "aliasList": [
          "10265"
        ],
        "actionId": 182,
        "_flag": 131072,
        "bodyLangParam": 1171,
        "forceDoFreeStyle": true,
        "eventPatternSuiteKey": "",
        "FOHHKFAIAAJ": ""
      },
      {
        "$type": "CPJKOIHIPBE",
        "type": "EMO_SYNC",
        "aliasList": [
          "10265"
        ],
        "actionId": 183,
        "_flag": 256,
        "dataPath": "Cs_Emo_Avatar_Simple_Common_Set/Cs_Emo_Avatar_Talk/Cs_Emo_Avatar_PersonalLine/Cs_Emo_Avatar_Tartaglia/Cs_Emo_110111007",
        "phonemePath": "",
        "emotionPath": "",
        "mateDataPath": "",
        "matePhonemePath": "",
        "mateEmotionPath": "",
        "dataPathHashList": [
          5727580183567675756,
          5456549095345881438,
          10319869366911615015,
          1798452612779321890
        ],
        "FMDPBECPELH": "",
        "ADKBLPOKGIK": ""
      },
      {
        "$type": "MoleMole.Config.ConfigMoveToAction",
        "type": "MOVE_TO",
        "aliasList": [
          "1005"
        ],
        "actionId": 216,
        "routeList": [
          {
            "x": -595.4760131835938,
            "y": 204.76199340820312,
            "z": 137.8820037841797
          }
        ],
        "_bindMovingTargetKey": ""
      },
      {
        "$type": "LLGANGLOEEO",
        "type": "STEER_TO",
        "aliasList": [
          "1005"
        ],
        "actionId": 217,
        "_flag": 32,
        "steerDir": {
          "x": 0.9929999709129333,
          "z": -0.11699999868869781
        },
        "targetNpcAlias": "",
        "fixInterNull": true,
        "OAFJBHJHLJG": ""
      },
      {
        "$type": "FABLGECDBCH",
        "type": "BODY_LANG",
        "delayTime": 2.565000057220459,
        "aliasList": [
          "1005"
        ],
        "actionId": 218,
        "_flag": 131072,
        "isContinue": true,
        "forceDoFreeStyle": true,
        "eventPatternSuiteKey": "",
        "FOHHKFAIAAJ": ""
      }
    ],
    [
      {
        "$type": "FJKIHHKJLMJ",
        "type": "CAMERA_MOVE",
        "delayTime": 0.08699999749660492,
        "duration": 10.402000427246094,
        "actionId": 130,
        "camPosOffset": {
          "x": -595.9400024414062,
          "y": 206.4199981689453,
          "z": 136.9040069580078
        },
        "camForwardTargetOffset": {
          "x": -595.0020141601562,
          "y": 206.17999267578125,
          "z": 137.15499877929688
        },
        "camFov": 20.0,
        "cameraBlendType": "Linear",
        "targetNpcAlias": "",
        "KJOEFBPOIIH": "",
        "IICFKKEBIEC": "",
        "EGEHEJEBLBJ": ""
      },
      {
        "$type": "FJKIHHKJLMJ",
        "type": "CAMERA_MOVE",
        "duration": 0.6340000033378601,
        "actionId": 131,
        "camPosOffset": {
          "x": -595.8319702148438,
          "y": 206.38699340820312,
          "z": 136.8209991455078
        },
        "camForwardTargetOffset": {
          "x": -594.9119873046875,
          "y": 206.14599609375,
          "z": 137.1300048828125
        },
        "camFov": 20.0,
        "lerpPattern": 6,
        "cameraBlendType": "EaseInOutCubic",
        "targetNpcAlias": "",
        "KJOEFBPOIIH": "",
        "IICFKKEBIEC": "",
        "EGEHEJEBLBJ": ""
      },
      {
        "$type": "MoleMole.Config.ConfigCameraDOFAction",
        "type": "CAMERA_DOF",
        "actionId": 132,
        "enabled": true,
        "focusDistance": 3.5299999713897705,
        "focusRange": 2.4800000190734863,
        "nearFocalDistance": -0.6899999976158142,
        "nearFocalTransDistance": 2.180000066757202,
        "dofBlurAmount": 1.0
      },
      {
        "$type": "PKKMAMONGEO",
        "type": "DIALOG",
        "aliasList": [
          "10265"
        ],
        "actionId": 184,
        "dialogID": 110111010,
        "protectTime": 5.039999961853027
      },
      {
        "$type": "LLGANGLOEEO",
        "type": "STEER_TO",
        "duration": 0.699999988079071,
        "aliasList": [
          "10265"
        ],
        "actionId": 185,
        "_flag": 32,
        "steerDir": {
          "x": -0.7749999761581421,
          "z": -0.6320000290870667
        },
        "useSteerAnim": true,
        "targetNpcAlias": "",
        "fixInterNull": true,
        "OAFJBHJHLJG": ""
      },
      {
        "$type": "LJLMDHDCAMK",
        "type": "LOOK_AT",
        "aliasList": [
          "10265"
        ],
        "actionId": 186,
        "_flag": 64,
        "enableHead": true,
        "useTargetPos": true,
        "enableAbsolute": true,
        "targetPosition": {
          "x": -594.7630004882812,
          "y": 206.1580047607422,
          "z": 137.08200073242188
        },
        "headTurnTime": 0.20000000298023224,
        "targetNpcAlias": "",
        "targetNpcLookAtPoint": "",
        "OAFJBHJHLJG": ""
      },
      {
        "$type": "FABLGECDBCH",
        "type": "BODY_LANG",
        "delayTime": 3.384000062942505,
        "aliasList": [
          "10265"
        ],
        "actionId": 187,
        "_flag": 131072,
        "bodyLangParam": 1090,
        "forceDoFreeStyle": true,
        "eventPatternSuiteKey": "",
        "FOHHKFAIAAJ": ""
      },
      {
        "$type": "CPJKOIHIPBE",
        "type": "EMO_SYNC",
        "aliasList": [
          "10265"
        ],
        "actionId": 188,
        "_flag": 320,
        "dataPath": "Cs_Emo_Avatar_Simple_Common_Set/Cs_Emo_Avatar_Talk/Cs_Emo_Avatar_PersonalLine/Cs_Emo_Avatar_Tartaglia/Cs_Emo_110111010",
        "phonemePath": "",
        "emotionPath": "",
        "mateDataPath": "",
        "matePhonemePath": "",
        "mateEmotionPath": "",
        "dataPathHashList": [
          18128942062236599723,
          8650944852478841767,
          10015866181301258744,
          11412193392688012795
        ],
        "FMDPBECPELH": "",
        "ADKBLPOKGIK": ""
      }
    ],
    [
      {
        "$type": "FJKIHHKJLMJ",
        "type": "CAMERA_MOVE",
        "duration": 4.881999969482422,
        "actionId": 133,
        "camPosOffset": {
          "x": -594.3880004882812,
          "y": 206.03399658203125,
          "z": 138.18099975585938
        },
        "camForwardTargetOffset": {
          "x": -595.3259887695312,
          "y": 206.11700439453125,
          "z": 137.8459930419922
        },
        "camFov": 20.0,
        "lerpPattern": 6,
        "cameraBlendType": "EaseInOutCubic",
        "targetNpcAlias": "",
        "KJOEFBPOIIH": "",
        "IICFKKEBIEC": "",
        "EGEHEJEBLBJ": ""
      },
      {
        "$type": "PKKMAMONGEO",
        "type": "DIALOG",
        "aliasList": [
          "1005"
        ],
        "actionId": 219,
        "dialogID": 110111011,
        "protectTime": 1.840000033378601
      },
      {
        "$type": "FABLGECDBCH",
        "type": "BODY_LANG",
        "aliasList": [
          "1005"
        ],
        "actionId": 220,
        "_flag": 131072,
        "bodyLangParam": 1090,
        "forceDoFreeStyle": true,
        "eventPatternSuiteKey": "",
        "FOHHKFAIAAJ": ""
      },
      {
        "$type": "CPJKOIHIPBE",
        "type": "EMO_SYNC",
        "aliasList": [
          "1005"
        ],
        "actionId": 221,
        "_flag": 256,
        "dataPath": "Cs_Emo_Avatar_Simple_Common_Set/Cs_Emo_Avatar_Talk/Cs_Emo_Avatar_PersonalLine/Cs_Emo_Avatar_Tartaglia/Cs_Emo_110111011",
        "phonemePath": "",
        "emotionPath": "",
        "mateDataPath": "",
        "matePhonemePath": "",
        "mateEmotionPath": "",
        "dataPathHashList": [
          6003172289816329051,
          16805022727789693962,
          5814007408794090076,
          3044865297461241986
        ],
        "FMDPBECPELH": "",
        "ADKBLPOKGIK": ""
      }
    ],
    [
      {
        "$type": "FJKIHHKJLMJ",
        "type": "CAMERA_MOVE",
        "delayTime": 0.028999999165534973,
        "duration": 9.737000465393066,
        "actionId": 134,
        "camPosOffset": {
          "x": -591.7730102539062,
          "y": 205.7050018310547,
          "z": 136.0449981689453
        },
        "camForwardTargetOffset": {
          "x": -592.6790161132812,
          "y": 205.79800415039062,
          "z": 136.45899963378906
        },
        "camFov": 20.0,
        "cameraBlendType": "Linear",
        "targetNpcAlias": "",
        "KJOEFBPOIIH": "",
        "IICFKKEBIEC": "",
        "EGEHEJEBLBJ": ""
      },
      {
        "$type": "FJKIHHKJLMJ",
        "type": "CAMERA_MOVE",
        "duration": 0.28700000047683716,
        "actionId": 135,
        "camPosOffset": {
          "x": -591.8330078125,
          "y": 205.70599365234375,
          "z": 135.91799926757812
        },
        "camForwardTargetOffset": {
          "x": -592.7230224609375,
          "y": 205.7989959716797,
          "z": 136.36399841308594
        },
        "camFov": 20.0,
        "lerpPattern": 6,
        "cameraBlendType": "EaseInOutCubic",
        "targetNpcAlias": "",
        "KJOEFBPOIIH": "",
        "IICFKKEBIEC": "",
        "EGEHEJEBLBJ": ""
      },
      {
        "$type": "LJLMDHDCAMK",
        "type": "LOOK_AT",
        "delayTime": 2.572000026702881,
        "aliasList": [
          "Avatar"
        ],
        "actionId": 151,
        "_flag": 64,
        "enableHead": true,
        "useTargetPos": true,
        "enableAbsolute": true,
        "targetPosition": {
          "x": -595.0380249023438,
          "y": 206.0800018310547,
          "z": 137.81500244140625
        },
        "headTurnTime": 0.3499999940395355,
        "targetNpcAlias": "",
        "targetNpcLookAtPoint": "",
        "OAFJBHJHLJG": ""
      },
      {
        "$type": "FABLGECDBCH",
        "type": "BODY_LANG",
        "aliasList": [
          "Avatar"
        ],
        "actionId": 152,
        "_flag": 131072,
        "isContinue": true,
        "forceDoFreeStyle": true,
        "eventPatternSuiteKey": "",
        "FOHHKFAIAAJ": ""
      },
      {
        "$type": "LJLMDHDCAMK",
        "type": "LOOK_AT",
        "aliasList": [
          "Avatar"
        ],
        "actionId": 153,
        "_flag": 64,
        "enableHead": true,
        "useTargetPos": true,
        "enableAbsolute": true,
        "targetPosition": {
          "x": -594.4920043945312,
          "y": 206.0800018310547,
          "z": 137.41099548339844
        },
        "headTurnTime": 0.20000000298023224,
        "targetNpcAlias": "",
        "targetNpcLookAtPoint": "",
        "OAFJBHJHLJG": ""
      },
      {
        "$type": "PKKMAMONGEO",
        "type": "DIALOG",
        "aliasList": [
          "1005"
        ],
        "actionId": 222,
        "dialogID": 110111012,
        "protectTime": 2.950000047683716
      },
      {
        "$type": "LJLMDHDCAMK",
        "type": "LOOK_AT",
        "delayTime": 2.36899995803833,
        "aliasList": [
          "1005"
        ],
        "actionId": 223,
        "_flag": 64,
        "enableHead": true,
        "useTargetPos": true,
        "enableAbsolute": true,
        "targetPosition": {
          "x": -594.9190063476562,
          "y": 206.2570037841797,
          "z": 137.19400024414062
        },
        "headTurnTime": 0.44999998807907104,
        "targetNpcAlias": "",
        "targetNpcLookAtPoint": "",
        "OAFJBHJHLJG": ""
      },
      {
        "$type": "CPJKOIHIPBE",
        "type": "EMO_SYNC",
        "aliasList": [
          "1005"
        ],
        "actionId": 224,
        "_flag": 320,
        "dataPath": "Cs_Emo_Avatar_Simple_Common_Set/Cs_Emo_Avatar_Talk/Cs_Emo_Avatar_PersonalLine/Cs_Emo_Avatar_Tartaglia/Cs_Emo_110111012",
        "phonemePath": "",
        "emotionPath": "",
        "mateDataPath": "",
        "matePhonemePath": "",
        "mateEmotionPath": "",
        "dataPathHashList": [
          15493129326080231786,
          5747913758650269550,
          18029643973521134657,
          2500625516537727857
        ],
        "FMDPBECPELH": "",
        "ADKBLPOKGIK": ""
      },
      {
        "$type": "FABLGECDBCH",
        "type": "BODY_LANG",
        "aliasList": [
          "1005"
        ],
        "actionId": 225,
        "_flag": 131072,
        "isContinue": true,
        "forceDoFreeStyle": true,
        "eventPatternSuiteKey": "",
        "FOHHKFAIAAJ": ""
      },
      {
        "$type": "FABLGECDBCH",
        "type": "BODY_LANG",
        "delayTime": 2.171999931335449,
        "aliasList": [
          "1005"
        ],
        "actionId": 226,
        "_flag": 131072,
        "bodyLangParam": 1170,
        "forceDoFreeStyle": true,
        "eventPatternSuiteKey": "",
        "FOHHKFAIAAJ": ""
      }
    ],
    [
      {
        "$type": "FJKIHHKJLMJ",
        "type": "CAMERA_MOVE",
        "delayTime": 0.12300000339746475,
        "duration": 15.963000297546387,
        "actionId": 136,
        "camPosOffset": {
          "x": -595.3250122070312,
          "y": 205.96499633789062,
          "z": 136.73399353027344
        },
        "camForwardTargetOffset": {
          "x": -594.5780029296875,
          "y": 205.9499969482422,
          "z": 137.3990020751953
        },
        "camFov": 20.0,
        "cameraBlendType": "Linear",
        "targetNpcAlias": "",
        "KJOEFBPOIIH": "",
        "IICFKKEBIEC": "",
        "EGEHEJEBLBJ": ""
      },
      {
        "$type": "FJKIHHKJLMJ",
        "type": "CAMERA_MOVE",
        "duration": 0.5659999847412109,
        "actionId": 137,
        "camPosOffset": {
          "x": -594.8889770507812,
          "y": 206.14500427246094,
          "z": 136.38099670410156
        },
        "camForwardTargetOffset": {
          "x": -594.406005859375,
          "y": 206.02000427246094,
          "z": 137.2480010986328
        },
        "camFov": 20.0,
        "lerpPattern": 6,
        "cameraBlendType": "EaseInOutCubic",
        "targetNpcAlias": "",
        "KJOEFBPOIIH": "",
        "IICFKKEBIEC": "",
        "EGEHEJEBLBJ": ""
      },
      {
        "$type": "MoleMole.Config.ConfigCameraDOFAction",
        "type": "CAMERA_DOF",
        "actionId": 138,
        "enabled": true,
        "focusDistance": 2.359999895095825,
        "focusRange": 2.4800000190734863,
        "nearFocalDistance": -0.6899999976158142,
        "nearFocalTransDistance": 2.180000066757202,
        "dofBlurAmount": 1.0
      },
      {
        "$type": "PKKMAMONGEO",
        "type": "DIALOG",
        "aliasList": [
          "10265"
        ],
        "actionId": 189,
        "dialogID": 110111013,
        "protectTime": 2.7699999809265137
      },
      {
        "$type": "FABLGECDBCH",
        "type": "BODY_LANG",
        "delayTime": 2.627000093460083,
        "aliasList": [
          "10265"
        ],
        "actionId": 190,
        "_flag": 131072,
        "bodyLangParam": 1060,
        "forceDoFreeStyle": true,
        "eventPatternSuiteKey": "",
        "FOHHKFAIAAJ": ""
      },
      {
        "$type": "FABLGECDBCH",
        "type": "BODY_LANG",
        "aliasList": [
          "10265"
        ],
        "actionId": 191,
        "_flag": 131072,
        "isContinue": true,
        "forceDoFreeStyle": true,
        "eventPatternSuiteKey": "",
        "FOHHKFAIAAJ": ""
      },
      {
        "$type": "CPJKOIHIPBE",
        "type": "EMO_SYNC",
        "aliasList": [
          "10265"
        ],
        "actionId": 192,
        "_flag": 256,
        "dataPath": "Cs_Emo_Avatar_Simple_Common_Set/Cs_Emo_Avatar_Talk/Cs_Emo_Avatar_PersonalLine/Cs_Emo_Avatar_Tartaglia/Cs_Emo_110111013",
        "phonemePath": "",
        "emotionPath": "",
        "mateDataPath": "",
        "matePhonemePath": "",
        "mateEmotionPath": "",
        "dataPathHashList": [
          3602780255069717998,
          15459265745112298606,
          229670626275091346,
          9733691411576464299
        ],
        "FMDPBECPELH": "",
        "ADKBLPOKGIK": ""
      },
      {
        "$type": "MoleMole.Config.ConfigMoveToAction",
        "type": "MOVE_TO",
        "aliasList": [
          "1005"
        ],
        "actionId": 227,
        "routeList": [
          {
            "x": -595.2340087890625,
            "y": 204.76199340820312,
            "z": 138.0050048828125
          }
        ],
        "_bindMovingTargetKey": ""
      },
      {
        "$type": "MoleMole.Config.ConfigTeleportToAction",
        "type": "TELEPORT_TO",
        "aliasList": [
          "Avatar"
        ],
        "actionId": 234,
        "position": {
          "x": -595.9979858398438,
          "y": 204.8090057373047,
          "z": 134.61599731445312
        },
        "forward": {
          "x": 0.5040000081062317,
          "z": 0.8640000224113464
        },
        "openLongDisTeleport": true,
        "syncForward": true,
        "_posBindMovingTargetKey": "",
        "_forwardBindMovingTargetKey": ""
      }
    ],
    [
      {
        "$type": "PKKMAMONGEO",
        "type": "DIALOG",
        "aliasList": [
          "10265"
        ],
        "actionId": 193,
        "dialogID": 110111014,
        "protectTime": 2.9100000858306885
      },
      {
        "$type": "LLGANGLOEEO",
        "type": "STEER_TO",
        "duration": 0.5,
        "aliasList": [
          "10265"
        ],
        "actionId": 194,
        "_flag": 32,
        "steerDir": {
          "x": -0.7509999871253967,
          "z": 0.6600000262260437
        },
        "useSteerAnim": true,
        "targetNpcAlias": "",
        "fixInterNull": true,
        "OAFJBHJHLJG": ""
      },
      {
        "$type": "MoleMole.Config.ConfigMoveToAction",
        "type": "MOVE_TO",
        "delayTime": 1.562000036239624,
        "aliasList": [
          "10265"
        ],
        "actionId": 195,
        "moveType": "WALK",
        "routeList": [
          {
            "x": -595.6290283203125,
            "y": 204.83200073242188,
            "z": 139.97900390625
          }
        ],
        "_bindMovingTargetKey": ""
      },
      {
        "$type": "FABLGECDBCH",
        "type": "BODY_LANG",
        "aliasList": [
          "10265"
        ],
        "actionId": 196,
        "_flag": 131072,
        "isContinue": true,
        "forceDoFreeStyle": true,
        "eventPatternSuiteKey": "",
        "FOHHKFAIAAJ": ""
      },
      {
        "$type": "LJLMDHDCAMK",
        "type": "LOOK_AT",
        "aliasList": [
          "10265"
        ],
        "actionId": 197,
        "_flag": 64,
        "enableHead": true,
        "useTargetPos": true,
        "enableAbsolute": true,
        "targetPosition": {
          "x": -596.31298828125,
          "y": 206.1320037841797,
          "z": 142.843994140625
        },
        "headTurnTime": 0.20000000298023224,
        "targetNpcAlias": "",
        "targetNpcLookAtPoint": "",
        "OAFJBHJHLJG": ""
      },
      {
        "$type": "CPJKOIHIPBE",
        "type": "EMO_SYNC",
        "aliasList": [
          "10265"
        ],
        "actionId": 198,
        "_flag": 320,
        "dataPath": "Cs_Emo_Avatar_Simple_Common_Set/Cs_Emo_Avatar_Talk/Cs_Emo_Avatar_PersonalLine/Cs_Emo_Avatar_Tartaglia/Cs_Emo_110111014",
        "phonemePath": "",
        "emotionPath": "",
        "mateDataPath": "",
        "matePhonemePath": "",
        "mateEmotionPath": "",
        "dataPathHashList": [
          15149848938584937653,
          12205872234797490840,
          15385875800742277424,
          2297815985823424890
        ],
        "FMDPBECPELH": "",
        "ADKBLPOKGIK": ""
      }
    ],
    [
      {
        "$type": "FJKIHHKJLMJ",
        "type": "CAMERA_MOVE",
        "duration": 3.947999954223633,
        "actionId": 139,
        "camPosOffset": {
          "x": -594.9359741210938,
          "y": 206.093994140625,
          "z": 139.5709991455078
        },
        "camForwardTargetOffset": {
          "x": -595.0349731445312,
          "y": 206.11199951171875,
          "z": 138.5760040283203
        },
        "camFov": 20.0,
        "lerpPattern": 6,
        "cameraBlendType": "EaseInOutCubic",
        "targetNpcAlias": "",
        "KJOEFBPOIIH": "",
        "IICFKKEBIEC": "",
        "EGEHEJEBLBJ": ""
      },
      {
        "$type": "MoleMole.Config.ConfigCameraDOFAction",
        "type": "CAMERA_DOF",
        "actionId": 140,
        "enabled": true,
        "focusDistance": 59.959999084472656,
        "focusRange": 2.4800000190734863,
        "nearFocalDistance": -0.6899999976158142,
        "nearFocalTransDistance": 2.180000066757202,
        "dofBlurAmount": 1.0
      },
      {
        "$type": "FABLGECDBCH",
        "type": "BODY_LANG",
        "delayTime": 0.6150000095367432,
        "aliasList": [
          "Avatar"
        ],
        "actionId": 156,
        "_flag": 131072,
        "bodyLangParam": 1240,
        "forceDoFreeStyle": true,
        "eventPatternSuiteKey": "",
        "FOHHKFAIAAJ": ""
      },
      {
        "$type": "LJLMDHDCAMK",
        "type": "LOOK_AT",
        "aliasList": [
          "Avatar"
        ],
        "actionId": 157,
        "_flag": 64,
        "enableHead": true,
        "useTargetPos": true,
        "enableAbsolute": true,
        "targetPosition": {
          "x": -594.760986328125,
          "y": 205.9770050048828,
          "z": 137.95599365234375
        },
        "headTurnTime": 0.30000001192092896,
        "targetNpcAlias": "",
        "targetNpcLookAtPoint": "",
        "OAFJBHJHLJG": ""
      },
      {
        "$type": "MoleMole.Config.ConfigMoveToAction",
        "type": "MOVE_TO",
        "aliasList": [
          "10265"
        ],
        "actionId": 199,
        "moveType": "WALK",
        "routeList": [
          {
            "x": -593.8870239257812,
            "y": 204.83200073242188,
            "z": 152.69900512695312
          }
        ],
        "_bindMovingTargetKey": ""
      },
      {
        "$type": "LJLMDHDCAMK",
        "type": "LOOK_AT",
        "aliasList": [
          "10265"
        ],
        "actionId": 200,
        "_flag": 64,
        "enableHead": true,
        "useTargetPos": true,
        "enableAbsolute": true,
        "targetPosition": {
          "x": -591.239013671875,
          "y": 206.18699645996094,
          "z": 165.9239959716797
        },
        "headTurnTime": 0.30000001192092896,
        "targetNpcAlias": "",
        "targetNpcLookAtPoint": "",
        "OAFJBHJHLJG": ""
      },
      {
        "$type": "PKKMAMONGEO",
        "type": "DIALOG",
        "aliasList": [
          "1005"
        ],
        "actionId": 228,
        "dialogID": 110111015,
        "protectTime": 2.490000009536743
      },
      {
        "$type": "CPJKOIHIPBE",
        "type": "EMO_SYNC",
        "aliasList": [
          "1005"
        ],
        "actionId": 229,
        "_flag": 320,
        "dataPath": "Cs_Emo_Avatar_Simple_Common_Set/Cs_Emo_Avatar_Talk/Cs_Emo_Avatar_PersonalLine/Cs_Emo_Avatar_Tartaglia/Cs_Emo_110111015",
        "phonemePath": "",
        "emotionPath": "",
        "mateDataPath": "",
        "matePhonemePath": "",
        "mateEmotionPath": "",
        "dataPathHashList": [
          1981564585020482970,
          7757166866938656506,
          2108990904740952063,
          4854204303394951002
        ],
        "FMDPBECPELH": "",
        "ADKBLPOKGIK": ""
      },
      {
        "$type": "LJLMDHDCAMK",
        "type": "LOOK_AT",
        "delayTime": 0.996999979019165,
        "aliasList": [
          "1005"
        ],
        "actionId": 230,
        "_flag": 64,
        "enableHead": true,
        "useTargetPos": true,
        "enableAbsolute": true,
        "targetPosition": {
          "x": -594.5709838867188,
          "y": 206.14300537109375,
          "z": 139.64100646972656
        },
        "headTurnTime": 0.30000001192092896,
        "targetNpcAlias": "",
        "targetNpcLookAtPoint": "",
        "OAFJBHJHLJG": ""
      },
      {
        "$type": "LLGANGLOEEO",
        "type": "STEER_TO",
        "duration": 1.0,
        "aliasList": [
          "1005"
        ],
        "actionId": 231,
        "_flag": 32,
        "steerDir": {
          "x": 0.6290000081062317,
          "z": 0.7770000100135803
        },
        "useSteerAnim": true,
        "targetNpcAlias": "",
        "fixInterNull": true,
        "OAFJBHJHLJG": ""
      },
      {
        "$type": "LJLMDHDCAMK",
        "type": "LOOK_AT",
        "aliasList": [
          "1005"
        ],
        "actionId": 232,
        "_flag": 64,
        "enableHead": true,
        "useTargetPos": true,
        "enableAbsolute": true,
        "targetPosition": {
          "x": -593.9080200195312,
          "y": 206.14300537109375,
          "z": 139.12600708007812
        },
        "headTurnTime": 0.30000001192092896,
        "targetNpcAlias": "",
        "targetNpcLookAtPoint": "",
        "OAFJBHJHLJG": ""
      },
      {
        "$type": "FABLGECDBCH",
        "type": "BODY_LANG",
        "delayTime": 1.3489999771118164,
        "aliasList": [
          "1005"
        ],
        "actionId": 233,
        "_flag": 131072,
        "bodyLangParam": 1060,
        "forceDoFreeStyle": true,
        "eventPatternSuiteKey": "",
        "FOHHKFAIAAJ": ""
      },
      {
        "$type": "MoleMole.Config.ConfigTeleportToAction",
        "type": "TELEPORT_TO",
        "aliasList": [
          "Avatar"
        ],
        "actionId": 235,
        "position": {
          "x": -594.989013671875,
          "y": 204.8090057373047,
          "z": 136.91700744628906
        },
        "forward": {
          "x": 0.5040000081062317,
          "z": 0.8640000224113464
        },
        "openLongDisTeleport": true,
        "syncForward": true,
        "_posBindMovingTargetKey": "",
        "_forwardBindMovingTargetKey": ""
      }
    ],
    [
      {
        "$type": "FJKIHHKJLMJ",
        "type": "CAMERA_MOVE",
        "delayTime": 0.5,
        "duration": 0.10000000149011612,
        "actionId": 141,
        "camPosOffset": {
          "x": -595.5250244140625,
          "y": 206.1840057373047,
          "z": 131.76800537109375
        },
        "camForwardTargetOffset": {
          "x": -595.447021484375,
          "y": 206.1300048828125,
          "z": 132.76300048828125
        },
        "camFov": 30.0,
        "lerpPattern": 6,
        "cameraBlendType": "EaseInOutCubic",
        "targetNpcAlias": "",
        "KJOEFBPOIIH": "",
        "IICFKKEBIEC": "",
        "EGEHEJEBLBJ": ""
      },
      {
        "$type": "MoleMole.Config.ConfigSimpleBlackScreenAction",
        "type": "SIMPLE_BLACK_SCREEN",
        "actionId": 142,
        "durationToBlack": 0.5,
        "durationKeepBlack": 1.0,
        "durationFromBlack": 0.5,
        "textMapID": ""
      },
      {
        "$type": "MoleMole.Config.ConfigTimeProtectAction",
        "type": "TIME_PROTECT",
        "duration": 0.6000000238418579,
        "actionId": 143
      }
    ]
  ],
  "groupId": [
    {
      "grpId": 1031506209,
      "nextGrpId": 1031506210,
      "_noCircleNextGrpId": 1031506210
    },
    {
      "index": 1,
      "grpId": 1031506210,
      "nextGrpId": 1031506211,
      "_noCircleNextGrpId": 1031506211
    },
    {
      "index": 2,
      "grpId": 1031506211,
      "nextGrpId": 1031506212,
      "_noCircleNextGrpId": 1031506212
    },
    {
      "index": 3,
      "grpId": 1031506212,
      "nextGrpId": 1031506213,
      "_noCircleNextGrpId": 1031506213
    },
    {
      "index": 4,
      "grpId": 1031506213,
      "nextGrpId": 1031506214,
      "_noCircleNextGrpId": 1031506214
    },
    {
      "index": 5,
      "grpId": 1031506214,
      "nextGrpId": 1031506215,
      "_noCircleNextGrpId": 1031506215
    },
    {
      "index": 6,
      "grpId": 1031506215,
      "nextGrpId": 1031506216,
      "_noCircleNextGrpId": 1031506216
    },
    {
      "index": 7,
      "grpId": 1031506216,
      "nextGrpId": 1031506217,
      "_noCircleNextGrpId": 1031506217
    },
    {
      "index": 8,
      "grpId": 1031506217,
      "nextGrpId": 1911921455,
      "_noCircleNextGrpId": 1911921455
    },
    {
      "index": 9,
      "grpId": 1911921455,
      "nextGrpId": 1911921456,
      "_noCircleNextGrpId": 1911921456
    },
    {
      "index": 10,
      "grpId": 1911921456,
      "nextGrpId": 1911921457,
      "_noCircleNextGrpId": 1911921457
    },
    {
      "index": 11,
      "grpId": 1911921457,
      "nextGrpId": 1911921458,
      "_noCircleNextGrpId": 1911921458
    },
    {
      "index": 12,
      "grpId": 1911921458,
      "nextGrpId": 1911921459,
      "_noCircleNextGrpId": 1911921459
    },
    {
      "index": 13,
      "grpId": 1911921459,
      "nextGrpId": 1911921460,
      "_noCircleNextGrpId": 1911921460
    }
  ],
  "freeStyleDic": {
    "10265": [
      1060,
      1050,
      1171,
      1090
    ]
  },
  "IGPACMPEAIE": [
    1230,
    1240
  ],
  "NPFDEBDMHJP": 1911921459
}