{
  "luaDataPath": "",
  "dontUseDefaultFinish": true,
  "startBlackKeepTime": 1.0,
  "entityBan": "",
  "disableNpcLod": true,
  "protectNpcMobileLod": true,
  "talkFlag": 7,
  "startFade": {
    "startFadeInDuration": 0.5,
    "startFadeOutDuration": 0.5
  },
  "endFade": {
    "startFadeOutDuration": 0.0
  },
  "actors": [
    {
      "alias": "Avatar",
      "visible": true,
      "bornPointName": "",
      "relativePosType": "AVATAR_NEW",
      "relativePosNpcAlias": "",
      "_notDestroyInTalk": true,
      "_bindMovingTargetKey": ""
    },
    {
      "configID": 509,
      "alias": "509",
      "visible": true,
      "bornPointName": "Q1904009_N509",
      "relativePosType": "AVATAR_NEW",
      "relativePosNpcAlias": "",
      "_notDestroyInTalk": true,
      "_bindMovingTargetKey": ""
    }
  ],
  "group": [
    [
      {
        "$type": "MoleMole.Config.ConfigCameraDOFAction",
        "type": "CAMERA_DOF",
        "actionId": 103,
        "focusDistance": 6.0,
        "focusRange": 6.0,
        "quality": 3
      },
      {
        "$type": "FJKIHHKJLMJ",
        "type": "CAMERA_MOVE",
        "duration": 0.30000001192092896,
        "actionId": 179,
        "cameraPosType": "RELATIVE_TO_TARGET_ENTITY",
        "camTargetType": "RELATIVE_TO_TARGET_ENTITY",
        "camFov": 30.0,
        "lerpPattern": 6,
        "cameraBlendType": "EaseInOutCubic",
        "NJBNNOMLKCK": {},
        "openCameraDither": false,
        "targetNpcAlias": "509",
        "closeTreeLeafDither": true,
        "KJOEFBPOIIH": "",
        "IICFKKEBIEC": "",
        "EGEHEJEBLBJ": ""
      },
      {
        "$type": "MoleMole.Config.ConfigTimeProtectAction",
        "type": "TIME_PROTECT",
        "duration": 0.20000000298023224,
        "actionId": 183
      },
      {
        "$type": "MoleMole.Config.ConfigBlackScreenAction",
        "type": "BLACK_SCREEN",
        "actionId": 185,
        "_flag": 2048,
        "blackScreenType": "KEEP_BLACK",
        "durationKeepBlack": 0.5,
        "inteePos": "",
        "textMapID": "",
        "useTextFade": true
      },
      {
        "$type": "MoleMole.Config.ConfigVisibleInterAction",
        "type": "VISIBLE",
        "aliasList": [
          "Avatar"
        ],
        "actionId": 106,
        "_extraParam": ""
      },
      {
        "$type": "LJLMDHDCAMK",
        "type": "LOOK_AT",
        "aliasList": [
          "509"
        ],
        "actionId": 177,
        "_flag": 64,
        "headTurnTime": 0.5,
        "targetNpcAlias": "",
        "targetNpcLookAtPoint": "",
        "OAFJBHJHLJG": ""
      },
      {
        "$type": "MoleMole.Config.ConfigEmotionTemplateAction",
        "type": "EMOTION_TEMPLATE",
        "delayTime": 0.10000000149011612,
        "aliasList": [
          "509"
        ],
        "actionId": 184,
        "_flag": 384,
        "emoTemplateID": 10100
      }
    ],
    [
      {
        "$type": "FJKIHHKJLMJ",
        "type": "CAMERA_MOVE",
        "duration": 0.30000001192092896,
        "actionId": 153,
        "cameraPosType": "RELATIVE_TO_TARGET_ENTITY",
        "camTargetType": "RELATIVE_TO_TARGET_ENTITY",
        "camFov": 30.0,
        "lerpPattern": 6,
        "cameraBlendType": "EaseInOutCubic",
        "NJBNNOMLKCK": {},
        "openCameraDither": false,
        "targetNpcAlias": "509",
        "closeTreeLeafDither": true,
        "KJOEFBPOIIH": "",
        "IICFKKEBIEC": "",
        "EGEHEJEBLBJ": ""
      },
      {
        "$type": "MoleMole.Config.ConfigBlackScreenAction",
        "type": "BLACK_SCREEN",
        "actionId": 186,
        "_flag": 2048,
        "blackScreenType": "FROM_BLACK",
        "durationFromBlack": 0.5,
        "inteePos": "",
        "textMapID": "",
        "useTextFade": true
      },
      {
        "$type": "PKKMAMONGEO",
        "type": "DIALOG",
        "aliasList": [
          "509"
        ],
        "actionId": 109,
        "dialogID": 190400401,
        "protectTime": 0.5
      },
      {
        "$type": "MoleMole.Config.ConfigEmotionTemplateAction",
        "type": "EMOTION_TEMPLATE",
        "aliasList": [
          "509"
        ],
        "actionId": 154,
        "_flag": 384,
        "emoTemplateID": 10100
      },
      {
        "$type": "CPJKOIHIPBE",
        "type": "EMO_SYNC",
        "aliasList": [
          "509"
        ],
        "actionId": 166,
        "_flag": 320,
        "dataPath": "Cs_Emo_Avatar_Simple_Common_Set/Cs_Emo_Avatar_Talk/Cs_Emo_Coop_Common/Cs_Emo_Coop_Yunjin_01/Cs_Emo_190400401",
        "phonemePath": "",
        "emotionPath": "",
        "mateDataPath": "",
        "matePhonemePath": "",
        "mateEmotionPath": "",
        "dataPathHashList": [
          8797088524888410366,
          16620785734256464359,
          13940303850471107192,
          553473163038290215
        ],
        "FMDPBECPELH": "",
        "ADKBLPOKGIK": ""
      },
      {
        "$type": "HDGKHDNFMIM",
        "type": "DIALOG_SELECT",
        "delayTime": 0.4000000059604645,
        "aliasList": [
          "Avatar"
        ],
        "actionId": 110,
        "dialogIDList": [
          190400402,
          190400403
        ],
        "grpIDList": [
          4228260246,
          4228260245
        ],
        "useGrpId": true,
        "countDownGrpId": 4228260242
      }
    ],
    [
      {
        "$type": "MoleMole.Config.ConfigUITriggerInterAction",
        "type": "UI_TRIGGER",
        "duration": 2.0,
        "actionId": 163,
        "contextName": "CoopItemAdsorbDialog",
        "_param": "107"
      }
    ],
    [
      {
        "$type": "PKKMAMONGEO",
        "type": "DIALOG",
        "aliasList": [
          "509"
        ],
        "actionId": 114,
        "dialogID": 190400404,
        "protectTime": 0.5
      },
      {
        "$type": "MoleMole.Config.ConfigEmotionTemplateAction",
        "type": "EMOTION_TEMPLATE",
        "aliasList": [
          "509"
        ],
        "actionId": 155,
        "_flag": 384,
        "emoTemplateID": 10101
      },
      {
        "$type": "CPJKOIHIPBE",
        "type": "EMO_SYNC",
        "aliasList": [
          "509"
        ],
        "actionId": 167,
        "_flag": 256,
        "dataPath": "Cs_Emo_Avatar_Simple_Common_Set/Cs_Emo_Avatar_Talk/Cs_Emo_Coop_Common/Cs_Emo_Coop_Yunjin_01/Cs_Emo_190400404",
        "phonemePath": "",
        "emotionPath": "",
        "mateDataPath": "",
        "matePhonemePath": "",
        "mateEmotionPath": "",
        "dataPathHashList": [
          7782497322880360984,
          2863551427071220448,
          6780605936480823443,
          7251254657886785060
        ],
        "FMDPBECPELH": "",
        "ADKBLPOKGIK": ""
      }
    ],
    [
      {
        "$type": "PKKMAMONGEO",
        "type": "DIALOG",
        "aliasList": [
          "509"
        ],
        "actionId": 116,
        "dialogID": 190400405,
        "protectTime": 0.5
      },
      {
        "$type": "MoleMole.Config.ConfigEmotionTemplateAction",
        "type": "EMOTION_TEMPLATE",
        "aliasList": [
          "509"
        ],
        "actionId": 156,
        "_flag": 384,
        "emoTemplateID": 10100
      },
      {
        "$type": "CPJKOIHIPBE",
        "type": "EMO_SYNC",
        "aliasList": [
          "509"
        ],
        "actionId": 168,
        "_flag": 320,
        "dataPath": "Cs_Emo_Avatar_Simple_Common_Set/Cs_Emo_Avatar_Talk/Cs_Emo_Coop_Common/Cs_Emo_Coop_Yunjin_01/Cs_Emo_190400405",
        "phonemePath": "",
        "emotionPath": "",
        "mateDataPath": "",
        "matePhonemePath": "",
        "mateEmotionPath": "",
        "dataPathHashList": [
          10792242323189729667,
          5125065645165643022,
          3790312817655390427,
          4399855357333544083
        ],
        "FMDPBECPELH": "",
        "ADKBLPOKGIK": ""
      }
    ],
    [
      {
        "$type": "PKKMAMONGEO",
        "type": "DIALOG",
        "aliasList": [
          "509"
        ],
        "actionId": 118,
        "dialogID": 190400406,
        "protectTime": 0.5
      },
      {
        "$type": "HDGKHDNFMIM",
        "type": "DIALOG_SELECT",
        "delayTime": 0.4000000059604645,
        "aliasList": [
          "Avatar"
        ],
        "actionId": 165,
        "dialogIDList": [
          190400410,
          190400411
        ],
        "grpIDList": [
          2227048703,
          2227048701
        ],
        "useGrpId": true,
        "countDownGrpId": 4228260242
      }
    ],
    [
      {
        "$type": "PKKMAMONGEO",
        "type": "DIALOG",
        "aliasList": [
          "509"
        ],
        "actionId": 120,
        "dialogID": 190400407,
        "protectTime": 0.5
      },
      {
        "$type": "MoleMole.Config.ConfigEmotionTemplateAction",
        "type": "EMOTION_TEMPLATE",
        "aliasList": [
          "509"
        ],
        "actionId": 157,
        "_flag": 384,
        "emoTemplateID": 10101
      },
      {
        "$type": "CPJKOIHIPBE",
        "type": "EMO_SYNC",
        "aliasList": [
          "509"
        ],
        "actionId": 169,
        "_flag": 256,
        "dataPath": "Cs_Emo_Avatar_Simple_Common_Set/Cs_Emo_Avatar_Talk/Cs_Emo_Coop_Common/Cs_Emo_Coop_Yunjin_01/Cs_Emo_190400407",
        "phonemePath": "",
        "emotionPath": "",
        "mateDataPath": "",
        "matePhonemePath": "",
        "mateEmotionPath": "",
        "dataPathHashList": [
          1964205730722638910,
          10113403383189149113,
          14735153851045862374,
          11057812041876403377
        ],
        "FMDPBECPELH": "",
        "ADKBLPOKGIK": ""
      }
    ],
    [
      {
        "$type": "PKKMAMONGEO",
        "type": "DIALOG",
        "aliasList": [
          "509"
        ],
        "actionId": 122,
        "dialogID": 190400408,
        "protectTime": 0.5
      },
      {
        "$type": "MoleMole.Config.ConfigEmotionTemplateAction",
        "type": "EMOTION_TEMPLATE",
        "aliasList": [
          "509"
        ],
        "actionId": 158,
        "_flag": 384,
        "emoTemplateID": 10100
      },
      {
        "$type": "CPJKOIHIPBE",
        "type": "EMO_SYNC",
        "aliasList": [
          "509"
        ],
        "actionId": 170,
        "_flag": 320,
        "dataPath": "Cs_Emo_Avatar_Simple_Common_Set/Cs_Emo_Avatar_Talk/Cs_Emo_Coop_Common/Cs_Emo_Coop_Yunjin_01/Cs_Emo_190400408",
        "phonemePath": "",
        "emotionPath": "",
        "mateDataPath": "",
        "matePhonemePath": "",
        "mateEmotionPath": "",
        "dataPathHashList": [
          14878888772678048745,
          1662906536509649430,
          6891181436684536772,
          17176189270905282244
        ],
        "FMDPBECPELH": "",
        "ADKBLPOKGIK": ""
      }
    ],
    [
      {
        "$type": "PKKMAMONGEO",
        "type": "DIALOG",
        "aliasList": [
          "509"
        ],
        "actionId": 124,
        "dialogID": 190400409,
        "protectTime": 0.5
      },
      {
        "$type": "HDGKHDNFMIM",
        "type": "DIALOG_SELECT",
        "delayTime": 0.4000000059604645,
        "aliasList": [
          "Avatar"
        ],
        "actionId": 125,
        "dialogIDList": [
          190400410,
          190400411
        ],
        "grpIDList": [
          2227048703,
          2227048701
        ],
        "useGrpId": true,
        "countDownGrpId": 4228260242
      }
    ],
    [
      {
        "$type": "PKKMAMONGEO",
        "type": "DIALOG",
        "aliasList": [
          "509"
        ],
        "actionId": 129,
        "dialogID": 190400412,
        "protectTime": 0.5
      },
      {
        "$type": "HDGKHDNFMIM",
        "type": "DIALOG_SELECT",
        "delayTime": 0.4000000059604645,
        "aliasList": [
          "Avatar"
        ],
        "actionId": 130,
        "dialogIDList": [
          190400413
        ],
        "grpIDList": [
          2227048702
        ],
        "useGrpId": true,
        "countDownGrpId": 4228260242
      }
    ],
    [
      {
        "$type": "PKKMAMONGEO",
        "type": "DIALOG",
        "aliasList": [
          "509"
        ],
        "actionId": 132,
        "dialogID": 190400414,
        "protectTime": 0.5
      },
      {
        "$type": "HDGKHDNFMIM",
        "type": "DIALOG_SELECT",
        "delayTime": 0.4000000059604645,
        "aliasList": [
          "Avatar"
        ],
        "actionId": 133,
        "dialogIDList": [
          190400415
        ],
        "grpIDList": [
          2227048703
        ],
        "useGrpId": true,
        "countDownGrpId": 4228260242
      }
    ],
    [
      {
        "$type": "PKKMAMONGEO",
        "type": "DIALOG",
        "aliasList": [
          "509"
        ],
        "actionId": 135,
        "dialogID": 190400416,
        "protectTime": 0.5
      },
      {
        "$type": "HDGKHDNFMIM",
        "type": "DIALOG_SELECT",
        "delayTime": 0.4000000059604645,
        "aliasList": [
          "Avatar"
        ],
        "actionId": 136,
        "dialogIDList": [
          190400417
        ],
        "grpIDList": [
          2227048704
        ],
        "useGrpId": true,
        "countDownGrpId": 4228260242
      }
    ],
    [
      {
        "$type": "PKKMAMONGEO",
        "type": "DIALOG",
        "aliasList": [
          "509"
        ],
        "actionId": 138,
        "dialogID": 190400418,
        "protectTime": 0.5
      },
      {
        "$type": "MoleMole.Config.ConfigEmotionTemplateAction",
        "type": "EMOTION_TEMPLATE",
        "aliasList": [
          "509"
        ],
        "actionId": 159,
        "_flag": 384,
        "emoTemplateID": 10100
      },
      {
        "$type": "CPJKOIHIPBE",
        "type": "EMO_SYNC",
        "aliasList": [
          "509"
        ],
        "actionId": 171,
        "_flag": 256,
        "dataPath": "Cs_Emo_Avatar_Simple_Common_Set/Cs_Emo_Avatar_Talk/Cs_Emo_Coop_Common/Cs_Emo_Coop_Yunjin_01/Cs_Emo_190400418",
        "phonemePath": "",
        "emotionPath": "",
        "mateDataPath": "",
        "matePhonemePath": "",
        "mateEmotionPath": "",
        "dataPathHashList": [
          5038439908415790319,
          10828555848381878257,
          14341954438006479043,
          15205211380598965390
        ],
        "FMDPBECPELH": "",
        "ADKBLPOKGIK": ""
      }
    ],
    [
      {
        "$type": "PKKMAMONGEO",
        "type": "DIALOG",
        "aliasList": [
          "509"
        ],
        "actionId": 140,
        "dialogID": 190400419,
        "protectTime": 0.5
      },
      {
        "$type": "MoleMole.Config.ConfigEmotionTemplateAction",
        "type": "EMOTION_TEMPLATE",
        "aliasList": [
          "509"
        ],
        "actionId": 160,
        "_flag": 384,
        "emoTemplateID": 10601
      },
      {
        "$type": "CPJKOIHIPBE",
        "type": "EMO_SYNC",
        "aliasList": [
          "509"
        ],
        "actionId": 172,
        "_flag": 256,
        "dataPath": "Cs_Emo_Avatar_Simple_Common_Set/Cs_Emo_Avatar_Talk/Cs_Emo_Coop_Common/Cs_Emo_Coop_Yunjin_01/Cs_Emo_190400419",
        "phonemePath": "",
        "emotionPath": "",
        "mateDataPath": "",
        "matePhonemePath": "",
        "mateEmotionPath": "",
        "dataPathHashList": [
          8717392802700949157,
          2043334873895210366,
          699768674703485899,
          5353980947234063486
        ],
        "FMDPBECPELH": "",
        "ADKBLPOKGIK": ""
      },
      {
        "$type": "HDGKHDNFMIM",
        "type": "DIALOG_SELECT",
        "delayTime": 0.4000000059604645,
        "aliasList": [
          "Avatar"
        ],
        "actionId": 141,
        "dialogIDList": [
          190400420,
          190400421
        ],
        "grpIDList": [
          2227048706,
          2227048706
        ],
        "useGrpId": true,
        "countDownGrpId": 4228260242
      }
    ],
    [
      {
        "$type": "PKKMAMONGEO",
        "type": "DIALOG",
        "aliasList": [
          "509"
        ],
        "actionId": 143,
        "dialogID": 190400422,
        "protectTime": 0.5
      },
      {
        "$type": "MoleMole.Config.ConfigEmotionTemplateAction",
        "type": "EMOTION_TEMPLATE",
        "aliasList": [
          "509"
        ],
        "actionId": 161,
        "_flag": 384,
        "emoTemplateID": 10100
      },
      {
        "$type": "CPJKOIHIPBE",
        "type": "EMO_SYNC",
        "aliasList": [
          "509"
        ],
        "actionId": 173,
        "_flag": 256,
        "dataPath": "Cs_Emo_Avatar_Simple_Common_Set/Cs_Emo_Avatar_Talk/Cs_Emo_Coop_Common/Cs_Emo_Coop_Yunjin_01/Cs_Emo_190400422",
        "phonemePath": "",
        "emotionPath": "",
        "mateDataPath": "",
        "matePhonemePath": "",
        "mateEmotionPath": "",
        "dataPathHashList": [
          4734735834446841964,
          10032029079755772690,
          8262504048928446737,
          2560597237416533869
        ],
        "FMDPBECPELH": "",
        "ADKBLPOKGIK": ""
      },
      {
        "$type": "HDGKHDNFMIM",
        "type": "DIALOG_SELECT",
        "delayTime": 0.4000000059604645,
        "aliasList": [
          "Avatar"
        ],
        "actionId": 144,
        "dialogIDList": [
          190400423,
          190400424,
          190400425
        ],
        "grpIDList": [
          2227048708,
          2227048708,
          2227048707
        ],
        "useGrpId": true,
        "countDownGrpId": 4228260242
      }
    ],
    [
      {
        "$type": "PKKMAMONGEO",
        "type": "DIALOG",
        "aliasList": [
          "509"
        ],
        "actionId": 150,
        "dialogID": 190400426,
        "protectTime": 0.5
      },
      {
        "$type": "CPJKOIHIPBE",
        "type": "EMO_SYNC",
        "aliasList": [
          "509"
        ],
        "actionId": 174,
        "_flag": 256,
        "dataPath": "Cs_Emo_Avatar_Simple_Common_Set/Cs_Emo_Avatar_Talk/Cs_Emo_Coop_Common/Cs_Emo_Coop_Yunjin_01/Cs_Emo_190400426",
        "phonemePath": "",
        "emotionPath": "",
        "mateDataPath": "",
        "matePhonemePath": "",
        "mateEmotionPath": "",
        "dataPathHashList": [
          17605016089337695267,
          9303385582502569681,
          12422695095540308268,
          1047886940328090439
        ],
        "FMDPBECPELH": "",
        "ADKBLPOKGIK": ""
      },
      {
        "$type": "MoleMole.Config.ConfigEmotionTemplateAction",
        "type": "EMOTION_TEMPLATE",
        "aliasList": [
          "509"
        ],
        "actionId": 182,
        "_flag": 384,
        "emoTemplateID": 10201
      }
    ],
    [
      {
        "$type": "PKKMAMONGEO",
        "type": "DIALOG",
        "aliasList": [
          "509"
        ],
        "actionId": 152,
        "dialogID": 190400427,
        "protectTime": 0.5
      },
      {
        "$type": "CPJKOIHIPBE",
        "type": "EMO_SYNC",
        "aliasList": [
          "509"
        ],
        "actionId": 175,
        "_flag": 320,
        "dataPath": "Cs_Emo_Avatar_Simple_Common_Set/Cs_Emo_Avatar_Talk/Cs_Emo_Coop_Common/Cs_Emo_Coop_Yunjin_01/Cs_Emo_190400427",
        "phonemePath": "",
        "emotionPath": "",
        "mateDataPath": "",
        "matePhonemePath": "",
        "mateEmotionPath": "",
        "dataPathHashList": [
          4059918385417497338,
          8825710989099132910,
          10742258588016777562,
          3333078569825107985
        ],
        "FMDPBECPELH": "",
        "ADKBLPOKGIK": ""
      },
      {
        "$type": "MoleMole.Config.ConfigEmotionTemplateAction",
        "type": "EMOTION_TEMPLATE",
        "aliasList": [
          "509"
        ],
        "actionId": 181,
        "_flag": 384,
        "emoTemplateID": 10301
      }
    ],
    [
      {
        "$type": "MoleMole.Config.ConfigSimpleBlackScreenAction",
        "type": "SIMPLE_BLACK_SCREEN",
        "actionId": 104,
        "durationToBlack": 0.5,
        "durationKeepBlack": 2.0,
        "durationFromBlack": 0.5,
        "textMapID": ""
      },
      {
        "$type": "PKKMAMONGEO",
        "type": "DIALOG_CLEAR",
        "actionId": 105
      },
      {
        "$type": "MoleMole.Config.ConfigTimeProtectAction",
        "type": "TIME_PROTECT",
        "duration": 0.699999988079071,
        "actionId": 192
      },
      {
        "$type": "FJKIHHKJLMJ",
        "type": "CAMERA_MOVE",
        "delayTime": 0.6000000238418579,
        "duration": 0.10000000149011612,
        "actionId": 191,
        "camPosOffset": {
          "x": -680.7750244140625,
          "y": 221.7550048828125,
          "z": 259.4930114746094
        },
        "camForwardTargetOffset": {
          "x": -681.4879760742188,
          "y": 221.6020050048828,
          "z": 258.8089904785156
        },
        "lerpPattern": 6,
        "cameraBlendType": "EaseInOutCubic",
        "NJBNNOMLKCK": {},
        "needZAxisRotate": true,
        "openCameraDither": false,
        "targetNpcAlias": "",
        "closeTreeLeafDither": true,
        "KJOEFBPOIIH": "",
        "IICFKKEBIEC": "",
        "EGEHEJEBLBJ": ""
      },
      {
        "$type": "MoleMole.Config.ConfigVisibleInterAction",
        "type": "VISIBLE",
        "delayTime": 0.6000000238418579,
        "aliasList": [
          "Avatar"
        ],
        "actionId": 189,
        "isVisible": true,
        "_extraParam": ""
      },
      {
        "$type": "MoleMole.Config.ConfigTeleportToAction",
        "type": "TELEPORT_TO",
        "delayTime": 0.6000000238418579,
        "aliasList": [
          "Avatar"
        ],
        "actionId": 190,
        "position": {
          "x": -682.1209716796875,
          "y": 220.58299255371094,
          "z": 257.635009765625
        },
        "forward": {
          "x": -0.7229999899864197,
          "z": -0.6909999847412109
        },
        "openLongDisTeleport": true,
        "_posBindMovingTargetKey": "",
        "_forwardBindMovingTargetKey": ""
      }
    ],
    [
      {
        "$type": "MoleMole.Config.ConfigCameraDOFAction",
        "type": "CAMERA_DOF",
        "actionId": 282,
        "_actionTagList": [
          "TalkSkip"
        ],
        "focusDistance": 6.0,
        "focusRange": 6.0,
        "quality": 3
      },
      {
        "$type": "MoleMole.Config.ConfigBlackScreenAction",
        "type": "BLACK_SCREEN",
        "duration": 0.10000000149011612,
        "actionId": 283,
        "_flag": 2048,
        "_actionTagList": [
          "TalkSkip"
        ],
        "blackScreenType": "FROM_BLACK",
        "durationToBlack": 0.10000000149011612,
        "durationKeepBlack": 0.10000000149011612,
        "durationFromBlack": 0.10000000149011612,
        "inteePos": "",
        "textMapID": "",
        "showClickBtnDelayTime": 0.5,
        "waitClickBtnTipTime": 0.5
      },
      {
        "$type": "MoleMole.Config.ConfigTeleportToAction",
        "type": "TELEPORT_TO",
        "aliasList": [
          "Avatar"
        ],
        "actionId": 275,
        "_actionTagList": [
          "TalkSkip"
        ],
        "position": {
          "x": -682.1209716796875,
          "y": 220.58299255371094,
          "z": 257.635009765625
        },
        "forward": {
          "x": -0.7229999899864197,
          "z": -0.6909999847412109
        },
        "openLongDisTeleport": true,
        "syncForward": true,
        "_posBindMovingTargetKey": "",
        "_forwardBindMovingTargetKey": ""
      },
      {
        "$type": "MoleMole.Config.ConfigVisibleInterAction",
        "type": "VISIBLE",
        "aliasList": [
          "Avatar"
        ],
        "actionId": 285,
        "_actionTagList": [
          "TalkSkip"
        ],
        "isVisible": true,
        "_extraParam": ""
      },
      {
        "$type": "CPJKOIHIPBE",
        "type": "EMO_SYNC",
        "aliasList": [
          "509"
        ],
        "actionId": 276,
        "_flag": 256,
        "_actionTagList": [
          "TalkSkip"
        ],
        "dataPath": "Cs_Emo_Avatar_Simple_Common_Set/Cs_Emo_Avatar_Talk/Cs_Emo_Coop_Common/Cs_Emo_Coop_Avatar/Yunjin/Cs_Emo_Avatar_Coop_Sad01",
        "phonemePath": "",
        "emotionPath": "",
        "mateDataPath": "",
        "matePhonemePath": "",
        "mateEmotionPath": "",
        "dataPathHashList": [
          17148932361606390371,
          3649303489327728016,
          3469604799769463090,
          8457588649968665970
        ],
        "FMDPBECPELH": "",
        "ADKBLPOKGIK": ""
      },
      {
        "$type": "PKKMAMONGEO",
        "type": "DIALOG",
        "aliasList": [
          "509"
        ],
        "actionId": 281,
        "_actionTagList": [
          "TalkSkip"
        ],
        "dialogID": 190400427,
        "protectTime": 0.5
      },
      {
        "$type": "LJLMDHDCAMK",
        "type": "LOOK_AT",
        "aliasList": [
          "509"
        ],
        "actionId": 284,
        "_flag": 64,
        "_actionTagList": [
          "TalkSkip"
        ],
        "headTurnTime": 0.5,
        "targetNpcAlias": "",
        "targetNpcLookAtPoint": "",
        "OAFJBHJHLJG": ""
      },
      {
        "$type": "FJKIHHKJLMJ",
        "type": "CAMERA_MOVE",
        "delayTime": 0.5,
        "duration": 0.10000000149011612,
        "actionId": 280,
        "_actionTagList": [
          "TalkSkip"
        ],
        "camPosOffset": {
          "x": -680.7750244140625,
          "y": 221.7550048828125,
          "z": 259.4930114746094
        },
        "camForwardTargetOffset": {
          "x": -681.4879760742188,
          "y": 221.6020050048828,
          "z": 258.8089904785156
        },
        "lerpPattern": 6,
        "cameraBlendType": "EaseInOutCubic",
        "NJBNNOMLKCK": {},
        "needZAxisRotate": true,
        "openCameraDither": false,
        "targetNpcAlias": "",
        "closeTreeLeafDither": true,
        "KJOEFBPOIIH": "",
        "IICFKKEBIEC": "",
        "EGEHEJEBLBJ": ""
      },
      {
        "$type": "CPJKOIHIPBE",
        "type": "EMO_SYNC",
        "delayTime": 0.5,
        "aliasList": [
          "509"
        ],
        "actionId": 277,
        "_flag": 256,
        "_actionTagList": [
          "TalkSkip"
        ],
        "dataPath": "Cs_Emo_Avatar_Simple_Common_Set/Cs_Emo_Avatar_Talk/Cs_Emo_Coop_Common/Cs_Emo_Coop_Yunjin_01/Cs_Emo_190400427",
        "phonemePath": "",
        "emotionPath": "",
        "mateDataPath": "",
        "matePhonemePath": "",
        "mateEmotionPath": "",
        "dataPathHashList": [
          4059918385417497338,
          8825710989099132910,
          10742258588016777562,
          3333078569825107985
        ],
        "FMDPBECPELH": "",
        "ADKBLPOKGIK": ""
      },
      {
        "$type": "FABLGECDBCH",
        "type": "BODY_LANG",
        "delayTime": 1.0,
        "aliasList": [
          "509"
        ],
        "actionId": 278,
        "_actionTagList": [
          "TalkSkip"
        ],
        "bodyLangParam": 10100,
        "forceDoFreeStyle": true,
        "canDoRepeatFreeStyle": false,
        "cantBackToIdleWhenSitLoop": true,
        "eventPatternSuiteKey": "",
        "FOHHKFAIAAJ": ""
      },
      {
        "$type": "MoleMole.Config.ConfigSimpleBlackScreenAction",
        "type": "SIMPLE_BLACK_SCREEN",
        "delayTime": 1.5,
        "actionId": 286,
        "_actionTagList": [
          "TalkSkip"
        ],
        "durationToBlack": 0.5,
        "durationKeepBlack": 2.0,
        "durationFromBlack": 0.5,
        "textMapID": ""
      },
      {
        "$type": "FABLGECDBCH",
        "type": "BODY_LANG",
        "delayTime": 1.5,
        "aliasList": [
          "509"
        ],
        "actionId": 279,
        "_actionTagList": [
          "TalkSkip"
        ],
        "bodyLangParam": 10301,
        "forceDoFreeStyle": true,
        "canDoRepeatFreeStyle": false,
        "cantBackToIdleWhenSitLoop": true,
        "eventPatternSuiteKey": "",
        "FOHHKFAIAAJ": ""
      }
    ]
  ],
  "groupId": [
    {
      "grpId": 4228260243,
      "nextGrpId": 4228260244,
      "_noCircleNextGrpId": 4228260244
    },
    {
      "index": 1,
      "grpId": 4228260244,
      "nextGrpId": 4228260245,
      "_noCircleNextGrpId": 4228260245
    },
    {
      "index": 2,
      "grpId": 4228260245,
      "nextGrpId": 4228260251,
      "_noCircleNextGrpId": 4228260251
    },
    {
      "index": 3,
      "grpId": 4228260246,
      "nextGrpId": 4228260247,
      "_noCircleNextGrpId": 4228260247
    },
    {
      "index": 4,
      "grpId": 4228260247,
      "nextGrpId": 4228260248,
      "_noCircleNextGrpId": 4228260248
    },
    {
      "index": 5,
      "grpId": 4228260248,
      "nextGrpId": 4228260249,
      "_noCircleNextGrpId": 2227048703
    },
    {
      "index": 6,
      "grpId": 4228260249,
      "nextGrpId": 4228260250,
      "_noCircleNextGrpId": 4228260250
    },
    {
      "index": 7,
      "grpId": 4228260250,
      "nextGrpId": 4228260251,
      "_noCircleNextGrpId": 4228260251
    },
    {
      "index": 8,
      "grpId": 4228260251,
      "nextGrpId": 2227048701,
      "_noCircleNextGrpId": 2227048703
    },
    {
      "index": 9,
      "grpId": 2227048701,
      "nextGrpId": 2227048702,
      "_noCircleNextGrpId": 2227048702
    },
    {
      "index": 10,
      "grpId": 2227048702,
      "nextGrpId": 2227048703,
      "_noCircleNextGrpId": 2227048703
    },
    {
      "index": 11,
      "grpId": 2227048703,
      "nextGrpId": 2227048704,
      "_noCircleNextGrpId": 2227048704
    },
    {
      "index": 12,
      "grpId": 2227048704,
      "nextGrpId": 2227048705,
      "_noCircleNextGrpId": 2227048705
    },
    {
      "index": 13,
      "grpId": 2227048705,
      "nextGrpId": 2227048706,
      "_noCircleNextGrpId": 2227048706
    },
    {
      "index": 14,
      "grpId": 2227048706,
      "nextGrpId": 2227048707,
      "_noCircleNextGrpId": 2227048708
    },
    {
      "index": 15,
      "grpId": 2227048707,
      "nextGrpId": 2227048709,
      "_noCircleNextGrpId": 2227048709
    },
    {
      "index": 16,
      "grpId": 2227048708,
      "nextGrpId": 2227048709,
      "_noCircleNextGrpId": 2227048709
    },
    {
      "index": 17,
      "grpId": 2227048709,
      "nextGrpId": 2227048710,
      "_noCircleNextGrpId": 2227048710
    },
    {
      "index": 18,
      "grpId": 2227048710,
      "nextGrpId": 2227048732,
      "_noCircleNextGrpId": 2227048732
    }
  ],
  "freeStyleDic": {
    "509": [
      10100,
      10101,
      10601,
      10201,
      10301
    ]
  },
  "EKFBDAIDEEF": {
    "509": [
      "SitChat01AS",
      "SitHoldArm01AS",
      "SitThink01AS"
    ]
  },
  "GBPIKOLLKJH": {
    "KGFBJNAEBHO": "",
    "ADMLEHAKCPC": ""
  },
  "NPFDEBDMHJP": 2227048710,
  "KEAMPHGKKAG": {
    "ANJBPLIOPCP": ""
  }
}