{
  "talkId": 1402903,
  "dialogList": [
    {
      "id": 140290301,
      "nextDialogs": [
        140290302
      ],
      "talkRole": {
        "type": "TALK_ROLE_NPC",
        "_id": "14056"
      },
      "talkContentTextMapHash": 2462481338,
      "talkRoleNameTextMapHash": 1943528939,
      "talkAssetPath": "",
      "talkAssetPathAlter": "",
      "talkAudioName": "",
      "actionBefore": "",
      "actionWhile": "",
      "actionAfter": "",
      "optionIcon": "",
      "iconPath": ""
    },
    {
      "id": 140290302,
      "nextDialogs": [
        140290303
      ],
      "talkRole": {
        "type": "TALK_ROLE_NPC",
        "_id": "1005"
      },
      "talkContentTextMapHash": 3071051026,
      "talkAssetPath": "",
      "talkAssetPathAlter": "",
      "talkAudioName": "",
      "actionBefore": "",
      "actionWhile": "",
      "actionAfter": "",
      "optionIcon": "",
      "iconPath": ""
    },
    {
      "id": 140290303,
      "nextDialogs": [
        140290304
      ],
      "talkRole": {
        "type": "TALK_ROLE_NPC",
        "_id": "14056"
      },
      "talkContentTextMapHash": 2210353226,
      "talkRoleNameTextMapHash": 3056426259,
      "talkAssetPath": "",
      "talkAssetPathAlter": "",
      "talkAudioName": "",
      "actionBefore": "",
      "actionWhile": "",
      "actionAfter": "",
      "optionIcon": "",
      "iconPath": ""
    },
    {
      "id": 140290304,
      "nextDialogs": [
        140290305
      ],
      "talkRole": {
        "type": "TALK_ROLE_NPC",
        "_id": "1079"
      },
      "talkContentTextMapHash": 244209730,
      "talkAssetPath": "",
      "talkAssetPathAlter": "",
      "talkAudioName": "",
      "actionBefore": "",
      "actionWhile": "",
      "actionAfter": "",
      "optionIcon": "",
      "iconPath": ""
    },
    {
      "id": 140290305,
      "nextDialogs": [
        140290306
      ],
      "talkRole": {
        "type": "TALK_ROLE_NPC",
        "_id": "14056"
      },
      "talkContentTextMapHash": 1191360746,
      "talkRoleNameTextMapHash": 2631664163,
      "talkAssetPath": "",
      "talkAssetPathAlter": "",
      "talkAudioName": "",
      "actionBefore": "",
      "actionWhile": "",
      "actionAfter": "",
      "optionIcon": "",
      "iconPath": ""
    },
    {
      "id": 140290306,
      "nextDialogs": [
        140290307
      ],
      "talkRole": {
        "type": "TALK_ROLE_NPC",
        "_id": "1079"
      },
      "talkContentTextMapHash": 2950376970,
      "talkAssetPath": "",
      "talkAssetPathAlter": "",
      "talkAudioName": "",
      "actionBefore": "",
      "actionWhile": "",
      "actionAfter": "",
      "optionIcon": "",
      "iconPath": ""
    },
    {
      "id": 140290307,
      "nextDialogs": [
        140290308
      ],
      "talkRole": {
        "type": "TALK_ROLE_NPC",
        "_id": "14056"
      },
      "talkContentTextMapHash": 2173830466,
      "talkRoleNameTextMapHash": 1021915963,
      "talkAssetPath": "",
      "talkAssetPathAlter": "",
      "talkAudioName": "",
      "actionBefore": "",
      "actionWhile": "",
      "actionAfter": "",
      "optionIcon": "",
      "OMBMBJIACEP": 2254651644,
      "iconPath": ""
    },
    {
      "id": 140290308,
      "nextDialogs": [
        140290309
      ],
      "talkRole": {
        "type": "TALK_ROLE_NPC",
        "_id": "14042"
      },
      "talkContentTextMapHash": 1804237090,
      "talkAssetPath": "",
      "talkAssetPathAlter": "",
      "talkAudioName": "",
      "actionBefore": "",
      "actionWhile": "",
      "actionAfter": "",
      "optionIcon": "",
      "OMBMBJIACEP": 1113806900,
      "iconPath": ""
    },
    {
      "id": 140290309,
      "nextDialogs": [
        140290310
      ],
      "talkRole": {
        "type": "TALK_ROLE_NPC",
        "_id": "14042"
      },
      "talkContentTextMapHash": 466397634,
      "talkAssetPath": "",
      "talkAssetPathAlter": "",
      "talkAudioName": "",
      "actionBefore": "",
      "actionWhile": "",
      "actionAfter": "",
      "optionIcon": "",
      "OMBMBJIACEP": 252384604,
      "iconPath": ""
    },
    {
      "id": 140290310,
      "nextDialogs": [
        140290311
      ],
      "talkRole": {
        "type": "TALK_ROLE_NPC",
        "_id": "14041"
      },
      "talkContentTextMapHash": 3513758914,
      "talkAssetPath": "",
      "talkAssetPathAlter": "",
      "talkAudioName": "",
      "actionBefore": "",
      "actionWhile": "",
      "actionAfter": "",
      "optionIcon": "",
      "OMBMBJIACEP": 3001622828,
      "iconPath": ""
    },
    {
      "id": 140290311,
      "nextDialogs": [
        140290312
      ],
      "talkRole": {
        "type": "TALK_ROLE_NPC",
        "_id": "14041"
      },
      "talkContentTextMapHash": 42384506,
      "talkAssetPath": "",
      "talkAssetPathAlter": "",
      "talkAudioName": "",
      "actionBefore": "",
      "actionWhile": "",
      "actionAfter": "",
      "optionIcon": "",
      "iconPath": ""
    },
    {
      "id": 140290312,
      "talkRole": {
        "type": "TALK_ROLE_NPC",
        "_id": "14042"
      },
      "talkContentTextMapHash": 2805609690,
      "talkAssetPath": "",
      "talkAssetPathAlter": "",
      "talkAudioName": "",
      "actionBefore": "",
      "actionWhile": "",
      "actionAfter": "",
      "optionIcon": "",
      "iconPath": ""
    }
  ]
}