{
  "talkId": 1402910,
  "dialogList": [
    {
      "id": 140291001,
      "nextDialogs": [
        140291002
      ],
      "talkRole": {
        "type": "TALK_ROLE_NPC",
        "_id": "14043"
      },
      "talkContentTextMapHash": 3197143890,
      "talkAssetPath": "",
      "talkAssetPathAlter": "",
      "talkAudioName": "",
      "actionBefore": "",
      "actionWhile": "",
      "actionAfter": "",
      "optionIcon": "",
      "iconPath": ""
    },
    {
      "id": 140291002,
      "nextDialogs": [
        140291003
      ],
      "talkRole": {
        "type": "TALK_ROLE_NPC",
        "_id": "14043"
      },
      "talkContentTextMapHash": 977848634,
      "talkAssetPath": "",
      "talkAssetPathAlter": "",
      "talkAudioName": "",
      "actionBefore": "",
      "actionWhile": "",
      "actionAfter": "",
      "optionIcon": "",
      "iconPath": ""
    },
    {
      "id": 140291003,
      "nextDialogs": [
        140291004
      ],
      "talkRole": {
        "type": "TALK_ROLE_NPC",
        "_id": "14047"
      },
      "talkContentTextMapHash": 696746026,
      "talkRoleNameTextMapHash": 1538962131,
      "talkAssetPath": "",
      "talkAssetPathAlter": "",
      "talkAudioName": "",
      "actionBefore": "",
      "actionWhile": "",
      "actionAfter": "",
      "optionIcon": "",
      "iconPath": ""
    },
    {
      "id": 140291004,
      "nextDialogs": [
        140291005
      ],
      "talkRole": {
        "type": "TALK_ROLE_NPC",
        "_id": "1005"
      },
      "talkContentTextMapHash": 2860266394,
      "talkAssetPath": "",
      "talkAssetPathAlter": "",
      "talkAudioName": "",
      "actionBefore": "",
      "actionWhile": "",
      "actionAfter": "",
      "optionIcon": "",
      "iconPath": ""
    },
    {
      "id": 140291005,
      "nextDialogs": [
        140291006
      ],
      "talkRole": {
        "type": "TALK_ROLE_NPC",
        "_id": "14042"
      },
      "talkContentTextMapHash": 2322988642,
      "talkAssetPath": "",
      "talkAssetPathAlter": "",
      "talkAudioName": "",
      "actionBefore": "",
      "actionWhile": "",
      "actionAfter": "",
      "optionIcon": "",
      "OMBMBJIACEP": 3267373484,
      "iconPath": ""
    },
    {
      "id": 140291006,
      "nextDialogs": [
        140291007
      ],
      "talkRole": {
        "type": "TALK_ROLE_NPC",
        "_id": "1005"
      },
      "talkContentTextMapHash": 2801894698,
      "talkAssetPath": "",
      "talkAssetPathAlter": "",
      "talkAudioName": "",
      "actionBefore": "",
      "actionWhile": "",
      "actionAfter": "",
      "optionIcon": "",
      "iconPath": ""
    },
    {
      "id": 140291007,
      "nextDialogs": [
        140291008
      ],
      "talkRole": {
        "type": "TALK_ROLE_NPC",
        "_id": "14042"
      },
      "talkContentTextMapHash": 2172567106,
      "talkAssetPath": "",
      "talkAssetPathAlter": "",
      "talkAudioName": "",
      "actionBefore": "",
      "actionWhile": "",
      "actionAfter": "",
      "optionIcon": "",
      "OMBMBJIACEP": 2805797668,
      "iconPath": ""
    },
    {
      "id": 140291008,
      "nextDialogs": [
        140291009
      ],
      "talkRole": {
        "type": "TALK_ROLE_NPC",
        "_id": "1079"
      },
      "talkContentTextMapHash": 113746714,
      "talkAssetPath": "",
      "talkAssetPathAlter": "",
      "talkAudioName": "",
      "actionBefore": "",
      "actionWhile": "",
      "actionAfter": "",
      "optionIcon": "",
      "iconPath": ""
    },
    {
      "id": 140291009,
      "nextDialogs": [
        140291010
      ],
      "talkRole": {
        "type": "TALK_ROLE_NPC",
        "_id": "1005"
      },
      "talkContentTextMapHash": 299110794,
      "talkAssetPath": "",
      "talkAssetPathAlter": "",
      "talkAudioName": "",
      "actionBefore": "",
      "actionWhile": "",
      "actionAfter": "",
      "optionIcon": "",
      "iconPath": ""
    },
    {
      "id": 140291010,
      "nextDialogs": [
        140291011
      ],
      "talkRole": {
        "type": "TALK_ROLE_NPC",
        "_id": "14047"
      },
      "talkContentTextMapHash": 2020156050,
      "talkAssetPath": "",
      "talkAssetPathAlter": "",
      "talkAudioName": "",
      "actionBefore": "",
      "actionWhile": "",
      "actionAfter": "",
      "optionIcon": "",
      "iconPath": ""
    },
    {
      "id": 140291011,
      "nextDialogs": [
        140291012
      ],
      "talkRole": {
        "type": "TALK_ROLE_NPC",
        "_id": "14043"
      },
      "talkContentTextMapHash": 1794627754,
      "talkAssetPath": "",
      "talkAssetPathAlter": "",
      "talkAudioName": "",
      "actionBefore": "",
      "actionWhile": "",
      "actionAfter": "",
      "optionIcon": "",
      "OMBMBJIACEP": 2340914716,
      "iconPath": ""
    },
    {
      "id": 140291012,
      "nextDialogs": [
        140291013
      ],
      "talkRole": {
        "type": "TALK_ROLE_NPC",
        "_id": "14047"
      },
      "talkContentTextMapHash": 601360386,
      "talkAssetPath": "",
      "talkAssetPathAlter": "",
      "talkAudioName": "",
      "actionBefore": "",
      "actionWhile": "",
      "actionAfter": "",
      "optionIcon": "",
      "iconPath": ""
    },
    {
      "id": 140291013,
      "nextDialogs": [
        140291014
      ],
      "talkRole": {
        "type": "TALK_ROLE_NPC",
        "_id": "1005"
      },
      "talkContentTextMapHash": 344775074,
      "talkAssetPath": "",
      "talkAssetPathAlter": "",
      "talkAudioName": "",
      "actionBefore": "",
      "actionWhile": "",
      "actionAfter": "",
      "optionIcon": "",
      "iconPath": ""
    },
    {
      "id": 140291014,
      "nextDialogs": [
        140291015
      ],
      "talkRole": {
        "type": "TALK_ROLE_NPC",
        "_id": "14047"
      },
      "talkContentTextMapHash": 2136878930,
      "talkAssetPath": "",
      "talkAssetPathAlter": "",
      "talkAudioName": "",
      "actionBefore": "",
      "actionWhile": "",
      "actionAfter": "",
      "optionIcon": "",
      "iconPath": ""
    },
    {
      "id": 140291015,
      "nextDialogs": [
        140291016
      ],
      "talkRole": {
        "type": "TALK_ROLE_NPC",
        "_id": "14047"
      },
      "talkContentTextMapHash": 3810963186,
      "talkAssetPath": "",
      "talkAssetPathAlter": "",
      "talkAudioName": "",
      "actionBefore": "",
      "actionWhile": "",
      "actionAfter": "",
      "optionIcon": "",
      "iconPath": ""
    },
    {
      "id": 140291016,
      "nextDialogs": [
        140291017
      ],
      "talkRole": {
        "type": "TALK_ROLE_NPC",
        "_id": "14047"
      },
      "talkContentTextMapHash": 216027834,
      "talkAssetPath": "",
      "talkAssetPathAlter": "",
      "talkAudioName": "",
      "actionBefore": "",
      "actionWhile": "",
      "actionAfter": "",
      "optionIcon": "",
      "iconPath": ""
    },
    {
      "id": 140291017,
      "nextDialogs": [
        140291018
      ],
      "talkRole": {
        "type": "TALK_ROLE_NPC",
        "_id": "14042"
      },
      "talkContentTextMapHash": 157210490,
      "talkAssetPath": "",
      "talkAssetPathAlter": "",
      "talkAudioName": "",
      "actionBefore": "",
      "actionWhile": "",
      "actionAfter": "",
      "optionIcon": "",
      "OMBMBJIACEP": 1734498708,
      "iconPath": ""
    },
    {
      "id": 140291018,
      "nextDialogs": [
        140291019
      ],
      "talkRole": {
        "type": "TALK_ROLE_NPC",
        "_id": "14047"
      },
      "talkContentTextMapHash": 2474234602,
      "talkAssetPath": "",
      "talkAssetPathAlter": "",
      "talkAudioName": "",
      "actionBefore": "",
      "actionWhile": "",
      "actionAfter": "",
      "optionIcon": "",
      "iconPath": ""
    },
    {
      "id": 140291019,
      "nextDialogs": [
        140291020
      ],
      "talkRole": {
        "type": "TALK_ROLE_NPC",
        "_id": "14047"
      },
      "talkContentTextMapHash": 934327802,
      "talkAssetPath": "",
      "talkAssetPathAlter": "",
      "talkAudioName": "",
      "actionBefore": "",
      "actionWhile": "",
      "actionAfter": "",
      "optionIcon": "",
      "iconPath": ""
    },
    {
      "id": 140291020,
      "nextDialogs": [
        140291021
      ],
      "talkRole": {
        "type": "TALK_ROLE_NPC",
        "_id": "14037"
      },
      "talkContentTextMapHash": 852226066,
      "talkAssetPath": "",
      "talkAssetPathAlter": "",
      "talkAudioName": "",
      "actionBefore": "",
      "actionWhile": "",
      "actionAfter": "",
      "optionIcon": "",
      "iconPath": ""
    },
    {
      "id": 140291021,
      "nextDialogs": [
        140291022
      ],
      "talkRole": {
        "type": "TALK_ROLE_NPC",
        "_id": "14047"
      },
      "talkContentTextMapHash": 1661981154,
      "talkAssetPath": "",
      "talkAssetPathAlter": "",
      "talkAudioName": "",
      "actionBefore": "",
      "actionWhile": "",
      "actionAfter": "",
      "optionIcon": "",
      "iconPath": ""
    },
    {
      "id": 140291022,
      "nextDialogs": [
        140291023
      ],
      "talkRole": {
        "type": "TALK_ROLE_NPC",
        "_id": "14036"
      },
      "talkContentTextMapHash": 1238094122,
      "talkAssetPath": "",
      "talkAssetPathAlter": "",
      "talkAudioName": "",
      "actionBefore": "",
      "actionWhile": "",
      "actionAfter": "",
      "optionIcon": "",
      "iconPath": ""
    },
    {
      "id": 140291023,
      "nextDialogs": [
        140291024
      ],
      "talkRole": {
        "type": "TALK_ROLE_NPC",
        "_id": "14047"
      },
      "talkContentTextMapHash": 2946786082,
      "talkAssetPath": "",
      "talkAssetPathAlter": "",
      "talkAudioName": "",
      "actionBefore": "",
      "actionWhile": "",
      "actionAfter": "",
      "optionIcon": "",
      "iconPath": ""
    },
    {
      "id": 140291024,
      "nextDialogs": [
        140291025
      ],
      "talkRole": {
        "type": "TALK_ROLE_NPC",
        "_id": "14295"
      },
      "talkContentTextMapHash": 501426802,
      "talkRoleNameTextMapHash": 4119047211,
      "talkAssetPath": "",
      "talkAssetPathAlter": "",
      "talkAudioName": "",
      "actionBefore": "",
      "actionWhile": "",
      "actionAfter": "",
      "optionIcon": "",
      "iconPath": ""
    },
    {
      "id": 140291025,
      "nextDialogs": [
        140291026
      ],
      "talkRole": {
        "type": "TALK_ROLE_NPC",
        "_id": "14047"
      },
      "talkContentTextMapHash": 3910341530,
      "talkAssetPath": "",
      "talkAssetPathAlter": "",
      "talkAudioName": "",
      "actionBefore": "",
      "actionWhile": "",
      "actionAfter": "",
      "optionIcon": "",
      "iconPath": ""
    },
    {
      "id": 140291026,
      "nextDialogs": [
        140291027
      ],
      "talkRole": {
        "type": "TALK_ROLE_NPC",
        "_id": "14048"
      },
      "talkContentTextMapHash": 1673797178,
      "talkRoleNameTextMapHash": 594303115,
      "talkAssetPath": "",
      "talkAssetPathAlter": "",
      "talkAudioName": "",
      "actionBefore": "",
      "actionWhile": "",
      "actionAfter": "",
      "optionIcon": "",
      "iconPath": ""
    },
    {
      "id": 140291027,
      "nextDialogs": [
        140291028
      ],
      "talkRole": {
        "type": "TALK_ROLE_NPC",
        "_id": "14048"
      },
      "talkContentTextMapHash": 1509868226,
      "talkRoleNameTextMapHash": 990208027,
      "talkAssetPath": "",
      "talkAssetPathAlter": "",
      "talkAudioName": "",
      "actionBefore": "",
      "actionWhile": "",
      "actionAfter": "",
      "optionIcon": "",
      "iconPath": ""
    },
    {
      "id": 140291028,
      "nextDialogs": [
        140291029
      ],
      "talkRole": {
        "type": "TALK_ROLE_NPC",
        "_id": "14047"
      },
      "talkContentTextMapHash": 2247629466,
      "talkAssetPath": "",
      "talkAssetPathAlter": "",
      "talkAudioName": "",
      "actionBefore": "",
      "actionWhile": "",
      "actionAfter": "",
      "optionIcon": "",
      "iconPath": ""
    },
    {
      "id": 140291029,
      "nextDialogs": [
        140291030
      ],
      "talkRole": {
        "type": "TALK_ROLE_NPC",
        "_id": "14047"
      },
      "talkContentTextMapHash": 2648303474,
      "talkAssetPath": "",
      "talkAssetPathAlter": "",
      "talkAudioName": "",
      "actionBefore": "",
      "actionWhile": "",
      "actionAfter": "",
      "optionIcon": "",
      "iconPath": ""
    },
    {
      "id": 140291030,
      "nextDialogs": [
        140291031
      ],
      "talkRole": {
        "type": "TALK_ROLE_NPC",
        "_id": "14037"
      },
      "talkContentTextMapHash": 2805010250,
      "talkAssetPath": "",
      "talkAssetPathAlter": "",
      "talkAudioName": "",
      "actionBefore": "",
      "actionWhile": "",
      "actionAfter": "",
      "optionIcon": "",
      "iconPath": ""
    },
    {
      "id": 140291031,
      "nextDialogs": [
        140291032
      ],
      "talkRole": {
        "type": "TALK_ROLE_NPC",
        "_id": "14026"
      },
      "talkContentTextMapHash": 2254377922,
      "talkAssetPath": "",
      "talkAssetPathAlter": "",
      "talkAudioName": "",
      "actionBefore": "",
      "actionWhile": "",
      "actionAfter": "",
      "optionIcon": "",
      "iconPath": ""
    },
    {
      "id": 140291032,
      "nextDialogs": [
        140291033
      ],
      "talkRole": {
        "type": "TALK_ROLE_NPC",
        "_id": "14036"
      },
      "talkContentTextMapHash": 2231026514,
      "talkAssetPath": "",
      "talkAssetPathAlter": "",
      "talkAudioName": "",
      "actionBefore": "",
      "actionWhile": "",
      "actionAfter": "",
      "optionIcon": "",
      "iconPath": ""
    },
    {
      "id": 140291033,
      "nextDialogs": [
        140291034
      ],
      "talkRole": {
        "type": "TALK_ROLE_NPC",
        "_id": "14026"
      },
      "talkContentTextMapHash": 2580666130,
      "talkAssetPath": "",
      "talkAssetPathAlter": "",
      "talkAudioName": "",
      "actionBefore": "",
      "actionWhile": "",
      "actionAfter": "",
      "optionIcon": "",
      "iconPath": ""
    },
    {
      "id": 140291034,
      "nextDialogs": [
        140291035
      ],
      "talkRole": {
        "type": "TALK_ROLE_NPC",
        "_id": "14295"
      },
      "talkContentTextMapHash": 2739611346,
      "talkRoleNameTextMapHash": 1310014139,
      "talkAssetPath": "",
      "talkAssetPathAlter": "",
      "talkAudioName": "",
      "actionBefore": "",
      "actionWhile": "",
      "actionAfter": "",
      "optionIcon": "",
      "iconPath": ""
    },
    {
      "id": 140291035,
      "nextDialogs": [
        140291036
      ],
      "talkRole": {
        "type": "TALK_ROLE_NPC",
        "_id": "14026"
      },
      "talkContentTextMapHash": 1968765266,
      "talkAssetPath": "",
      "talkAssetPathAlter": "",
      "talkAudioName": "",
      "actionBefore": "",
      "actionWhile": "",
      "actionAfter": "",
      "optionIcon": "",
      "iconPath": ""
    },
    {
      "id": 140291036,
      "nextDialogs": [
        140291037
      ],
      "talkRole": {
        "type": "TALK_ROLE_NPC",
        "_id": "14026"
      },
      "talkContentTextMapHash": 3568031938,
      "talkAssetPath": "",
      "talkAssetPathAlter": "",
      "talkAudioName": "",
      "actionBefore": "",
      "actionWhile": "",
      "actionAfter": "",
      "optionIcon": "",
      "iconPath": ""
    },
    {
      "id": 140291037,
      "nextDialogs": [
        140291038
      ],
      "talkRole": {
        "type": "TALK_ROLE_NPC",
        "_id": "14026"
      },
      "talkContentTextMapHash": 3102650138,
      "talkAssetPath": "",
      "talkAssetPathAlter": "",
      "talkAudioName": "",
      "actionBefore": "",
      "actionWhile": "",
      "actionAfter": "",
      "optionIcon": "",
      "iconPath": ""
    },
    {
      "id": 140291038,
      "nextDialogs": [
        140291039
      ],
      "talkRole": {
        "type": "TALK_ROLE_NPC",
        "_id": "14026"
      },
      "talkContentTextMapHash": 1079281234,
      "talkAssetPath": "",
      "talkAssetPathAlter": "",
      "talkAudioName": "",
      "actionBefore": "",
      "actionWhile": "",
      "actionAfter": "",
      "optionIcon": "",
      "iconPath": ""
    },
    {
      "id": 140291039,
      "nextDialogs": [
        140291040
      ],
      "talkRole": {
        "type": "TALK_ROLE_NPC",
        "_id": "14026"
      },
      "talkContentTextMapHash": 2782133954,
      "talkAssetPath": "",
      "talkAssetPathAlter": "",
      "talkAudioName": "",
      "actionBefore": "",
      "actionWhile": "",
      "actionAfter": "",
      "optionIcon": "",
      "iconPath": ""
    },
    {
      "id": 140291040,
      "nextDialogs": [
        140291041
      ],
      "talkRole": {
        "type": "TALK_ROLE_NPC",
        "_id": "14039"
      },
      "talkContentTextMapHash": 883341970,
      "talkAssetPath": "",
      "talkAssetPathAlter": "",
      "talkAudioName": "",
      "actionBefore": "",
      "actionWhile": "",
      "actionAfter": "",
      "optionIcon": "",
      "iconPath": ""
    },
    {
      "id": 140291041,
      "nextDialogs": [
        140291042
      ],
      "talkRole": {
        "type": "TALK_ROLE_NPC",
        "_id": "14026"
      },
      "talkContentTextMapHash": 2743809618,
      "talkAssetPath": "",
      "talkAssetPathAlter": "",
      "talkAudioName": "",
      "actionBefore": "",
      "actionWhile": "",
      "actionAfter": "",
      "optionIcon": "",
      "iconPath": ""
    },
    {
      "id": 140291042,
      "nextDialogs": [
        140291043
      ],
      "talkRole": {
        "type": "TALK_ROLE_NPC",
        "_id": "14026"
      },
      "talkContentTextMapHash": 1530897050,
      "talkAssetPath": "",
      "talkAssetPathAlter": "",
      "talkAudioName": "",
      "actionBefore": "",
      "actionWhile": "",
      "actionAfter": "",
      "optionIcon": "",
      "iconPath": ""
    },
    {
      "id": 140291043,
      "nextDialogs": [
        140291044
      ],
      "talkRole": {
        "type": "TALK_ROLE_NPC",
        "_id": "14047"
      },
      "talkContentTextMapHash": 2689987938,
      "talkAssetPath": "",
      "talkAssetPathAlter": "",
      "talkAudioName": "",
      "actionBefore": "",
      "actionWhile": "",
      "actionAfter": "",
      "optionIcon": "",
      "iconPath": ""
    },
    {
      "id": 140291044,
      "nextDialogs": [
        140291045
      ],
      "talkRole": {
        "type": "TALK_ROLE_NPC",
        "_id": "14047"
      },
      "talkContentTextMapHash": 3868770,
      "talkAssetPath": "",
      "talkAssetPathAlter": "",
      "talkAudioName": "",
      "actionBefore": "",
      "actionWhile": "",
      "actionAfter": "",
      "optionIcon": "",
      "iconPath": ""
    },
    {
      "id": 140291045,
      "nextDialogs": [
        140291046
      ],
      "talkRole": {
        "type": "TALK_ROLE_NPC",
        "_id": "14042"
      },
      "talkContentTextMapHash": 739840610,
      "talkAssetPath": "",
      "talkAssetPathAlter": "",
      "talkAudioName": "",
      "actionBefore": "",
      "actionWhile": "",
      "actionAfter": "",
      "optionIcon": "",
      "OMBMBJIACEP": 4208139916,
      "iconPath": ""
    },
    {
      "id": 140291046,
      "nextDialogs": [
        140291047
      ],
      "talkRole": {
        "type": "TALK_ROLE_NPC",
        "_id": "14042"
      },
      "talkContentTextMapHash": 2621624202,
      "talkAssetPath": "",
      "talkAssetPathAlter": "",
      "talkAudioName": "",
      "actionBefore": "",
      "actionWhile": "",
      "actionAfter": "",
      "optionIcon": "",
      "OMBMBJIACEP": 2433558980,
      "iconPath": ""
    },
    {
      "id": 140291047,
      "nextDialogs": [
        140291048
      ],
      "talkRole": {
        "type": "TALK_ROLE_NPC",
        "_id": "14047"
      },
      "talkContentTextMapHash": 2445704842,
      "talkAssetPath": "",
      "talkAssetPathAlter": "",
      "talkAudioName": "",
      "actionBefore": "",
      "actionWhile": "",
      "actionAfter": "",
      "optionIcon": "",
      "iconPath": ""
    },
    {
      "id": 140291048,
      "nextDialogs": [
        140291049
      ],
      "talkRole": {
        "type": "TALK_ROLE_NPC",
        "_id": "1005"
      },
      "talkContentTextMapHash": 1311230674,
      "talkAssetPath": "",
      "talkAssetPathAlter": "",
      "talkAudioName": "",
      "actionBefore": "",
      "actionWhile": "",
      "actionAfter": "",
      "optionIcon": "",
      "iconPath": ""
    },
    {
      "id": 140291049,
      "nextDialogs": [
        140291050
      ],
      "talkRole": {
        "type": "TALK_ROLE_NPC",
        "_id": "14047"
      },
      "talkContentTextMapHash": 2039257618,
      "talkAssetPath": "",
      "talkAssetPathAlter": "",
      "talkAudioName": "",
      "actionBefore": "",
      "actionWhile": "",
      "actionAfter": "",
      "optionIcon": "",
      "iconPath": ""
    },
    {
      "id": 140291050,
      "nextDialogs": [
        140291051
      ],
      "talkRole": {
        "type": "TALK_ROLE_NPC",
        "_id": "14047"
      },
      "talkContentTextMapHash": 2436058682,
      "talkAssetPath": "",
      "talkAssetPathAlter": "",
      "talkAudioName": "",
      "actionBefore": "",
      "actionWhile": "",
      "actionAfter": "",
      "optionIcon": "",
      "iconPath": ""
    },
    {
      "id": 140291051,
      "nextDialogs": [
        140291052
      ],
      "talkRole": {
        "type": "TALK_ROLE_NPC",
        "_id": "1005"
      },
      "talkContentTextMapHash": 1923385922,
      "talkAssetPath": "",
      "talkAssetPathAlter": "",
      "talkAudioName": "",
      "actionBefore": "",
      "actionWhile": "",
      "actionAfter": "",
      "optionIcon": "",
      "iconPath": ""
    },
    {
      "id": 140291052,
      "nextDialogs": [
        140291053
      ],
      "talkRole": {
        "type": "TALK_ROLE_NPC",
        "_id": "1079"
      },
      "talkContentTextMapHash": 2199517674,
      "talkAssetPath": "",
      "talkAssetPathAlter": "",
      "talkAudioName": "",
      "actionBefore": "",
      "actionWhile": "",
      "actionAfter": "",
      "optionIcon": "",
      "iconPath": ""
    },
    {
      "id": 140291053,
      "nextDialogs": [
        140291054
      ],
      "talkRole": {
        "type": "TALK_ROLE_NPC",
        "_id": "14047"
      },
      "talkContentTextMapHash": 3739200618,
      "talkAssetPath": "",
      "talkAssetPathAlter": "",
      "talkAudioName": "",
      "actionBefore": "",
      "actionWhile": "",
      "actionAfter": "",
      "optionIcon": "",
      "iconPath": ""
    },
    {
      "id": 140291054,
      "nextDialogs": [
        140291055
      ],
      "talkRole": {
        "type": "TALK_ROLE_NPC",
        "_id": "1079"
      },
      "talkContentTextMapHash": 1077290954,
      "talkAssetPath": "",
      "talkAssetPathAlter": "",
      "talkAudioName": "",
      "actionBefore": "",
      "actionWhile": "",
      "actionAfter": "",
      "optionIcon": "",
      "iconPath": ""
    },
    {
      "id": 140291055,
      "nextDialogs": [
        140291056
      ],
      "talkRole": {
        "type": "TALK_ROLE_NPC",
        "_id": "1079"
      },
      "talkContentTextMapHash": 998012730,
      "talkAssetPath": "",
      "talkAssetPathAlter": "",
      "talkAudioName": "",
      "actionBefore": "",
      "actionWhile": "",
      "actionAfter": "",
      "optionIcon": "",
      "iconPath": ""
    },
    {
      "id": 140291056,
      "nextDialogs": [
        140291057
      ],
      "talkRole": {
        "type": "TALK_ROLE_NPC",
        "_id": "14047"
      },
      "talkContentTextMapHash": 3383354874,
      "talkAssetPath": "",
      "talkAssetPathAlter": "",
      "talkAudioName": "",
      "actionBefore": "",
      "actionWhile": "",
      "actionAfter": "",
      "optionIcon": "",
      "iconPath": ""
    },
    {
      "id": 140291057,
      "nextDialogs": [
        140291058
      ],
      "talkRole": {
        "type": "TALK_ROLE_NPC",
        "_id": "1079"
      },
      "talkContentTextMapHash": 164119314,
      "talkAssetPath": "",
      "talkAssetPathAlter": "",
      "talkAudioName": "",
      "actionBefore": "",
      "actionWhile": "",
      "actionAfter": "",
      "optionIcon": "",
      "iconPath": ""
    },
    {
      "id": 140291058,
      "nextDialogs": [
        140291059
      ],
      "talkRole": {
        "type": "TALK_ROLE_NPC",
        "_id": "1079"
      },
      "talkContentTextMapHash": 575032594,
      "talkAssetPath": "",
      "talkAssetPathAlter": "",
      "talkAudioName": "",
      "actionBefore": "",
      "actionWhile": "",
      "actionAfter": "",
      "optionIcon": "",
      "iconPath": ""
    },
    {
      "id": 140291059,
      "nextDialogs": [
        140291060
      ],
      "talkRole": {
        "type": "TALK_ROLE_NPC",
        "_id": "14047"
      },
      "talkContentTextMapHash": 2526494874,
      "talkAssetPath": "",
      "talkAssetPathAlter": "",
      "talkAudioName": "",
      "actionBefore": "",
      "actionWhile": "",
      "actionAfter": "",
      "optionIcon": "",
      "iconPath": ""
    },
    {
      "id": 140291060,
      "nextDialogs": [
        140291061
      ],
      "talkRole": {
        "type": "TALK_ROLE_NPC",
        "_id": "14047"
      },
      "talkContentTextMapHash": 3889050850,
      "talkAssetPath": "",
      "talkAssetPathAlter": "",
      "talkAudioName": "",
      "actionBefore": "",
      "actionWhile": "",
      "actionAfter": "",
      "optionIcon": "",
      "iconPath": ""
    },
    {
      "id": 140291061,
      "nextDialogs": [
        140291062
      ],
      "talkRole": {
        "type": "TALK_ROLE_NPC",
        "_id": "14047"
      },
      "talkContentTextMapHash": 290090258,
      "talkAssetPath": "",
      "talkAssetPathAlter": "",
      "talkAudioName": "",
      "actionBefore": "",
      "actionWhile": "",
      "actionAfter": "",
      "optionIcon": "",
      "iconPath": ""
    },
    {
      "id": 140291062,
      "nextDialogs": [
        140291063
      ],
      "talkRole": {
        "type": "TALK_ROLE_NPC",
        "_id": "1005"
      },
      "talkContentTextMapHash": 1509119562,
      "talkAssetPath": "",
      "talkAssetPathAlter": "",
      "talkAudioName": "",
      "actionBefore": "",
      "actionWhile": "",
      "actionAfter": "",
      "optionIcon": "",
      "iconPath": ""
    },
    {
      "id": 140291063,
      "nextDialogs": [
        140291064
      ],
      "talkRole": {
        "type": "TALK_ROLE_NPC",
        "_id": "1079"
      },
      "talkContentTextMapHash": 852932474,
      "talkAssetPath": "",
      "talkAssetPathAlter": "",
      "talkAudioName": "",
      "actionBefore": "",
      "actionWhile": "",
      "actionAfter": "",
      "optionIcon": "",
      "iconPath": ""
    },
    {
      "id": 140291064,
      "nextDialogs": [
        140291065
      ],
      "talkRole": {
        "type": "TALK_ROLE_NPC",
        "_id": "14047"
      },
      "talkContentTextMapHash": 2365744954,
      "talkAssetPath": "",
      "talkAssetPathAlter": "",
      "talkAudioName": "",
      "actionBefore": "",
      "actionWhile": "",
      "actionAfter": "",
      "optionIcon": "",
      "iconPath": ""
    },
    {
      "id": 140291065,
      "nextDialogs": [
        140291066
      ],
      "talkRole": {
        "type": "TALK_ROLE_NPC",
        "_id": "14047"
      },
      "talkContentTextMapHash": 1321903250,
      "talkAssetPath": "",
      "talkAssetPathAlter": "",
      "talkAudioName": "",
      "actionBefore": "",
      "actionWhile": "",
      "actionAfter": "",
      "optionIcon": "",
      "iconPath": ""
    },
    {
      "id": 140291066,
      "nextDialogs": [
        140291067
      ],
      "talkRole": {
        "type": "TALK_ROLE_NPC",
        "_id": "14047"
      },
      "talkContentTextMapHash": 2976273682,
      "talkAssetPath": "",
      "talkAssetPathAlter": "",
      "talkAudioName": "",
      "actionBefore": "",
      "actionWhile": "",
      "actionAfter": "",
      "optionIcon": "",
      "iconPath": ""
    },
    {
      "id": 140291067,
      "nextDialogs": [
        140291068
      ],
      "talkRole": {
        "type": "TALK_ROLE_NPC",
        "_id": "1079"
      },
      "talkContentTextMapHash": 2774199058,
      "talkAssetPath": "",
      "talkAssetPathAlter": "",
      "talkAudioName": "",
      "actionBefore": "",
      "actionWhile": "",
      "actionAfter": "",
      "optionIcon": "",
      "iconPath": ""
    },
    {
      "id": 140291068,
      "nextDialogs": [
        140291069
      ],
      "talkRole": {
        "type": "TALK_ROLE_NPC",
        "_id": "14047"
      },
      "talkContentTextMapHash": 3123055498,
      "talkAssetPath": "",
      "talkAssetPathAlter": "",
      "talkAudioName": "",
      "actionBefore": "",
      "actionWhile": "",
      "actionAfter": "",
      "optionIcon": "",
      "iconPath": ""
    },
    {
      "id": 140291069,
      "nextDialogs": [
        140291070
      ],
      "talkRole": {
        "type": "TALK_ROLE_NPC",
        "_id": "14042"
      },
      "talkContentTextMapHash": 1631860210,
      "talkAssetPath": "",
      "talkAssetPathAlter": "",
      "talkAudioName": "",
      "actionBefore": "",
      "actionWhile": "",
      "actionAfter": "",
      "optionIcon": "",
      "OMBMBJIACEP": 962888372,
      "iconPath": ""
    },
    {
      "id": 140291070,
      "nextDialogs": [
        140291071
      ],
      "talkRole": {
        "type": "TALK_ROLE_NPC",
        "_id": "1079"
      },
      "talkContentTextMapHash": 1442379794,
      "talkAssetPath": "",
      "talkAssetPathAlter": "",
      "talkAudioName": "",
      "actionBefore": "",
      "actionWhile": "",
      "actionAfter": "",
      "optionIcon": "",
      "iconPath": ""
    },
    {
      "id": 140291071,
      "nextDialogs": [
        140291072
      ],
      "talkRole": {
        "type": "TALK_ROLE_NPC",
        "_id": "1079"
      },
      "talkContentTextMapHash": 368030266,
      "talkAssetPath": "",
      "talkAssetPathAlter": "",
      "talkAudioName": "",
      "actionBefore": "",
      "actionWhile": "",
      "actionAfter": "",
      "optionIcon": "",
      "iconPath": ""
    },
    {
      "id": 140291072,
      "nextDialogs": [
        140291073
      ],
      "talkRole": {
        "type": "TALK_ROLE_NPC",
        "_id": "14042"
      },
      "talkContentTextMapHash": 3294989394,
      "talkAssetPath": "",
      "talkAssetPathAlter": "",
      "talkAudioName": "",
      "actionBefore": "",
      "actionWhile": "",
      "actionAfter": "",
      "optionIcon": "",
      "OMBMBJIACEP": 3049994564,
      "iconPath": ""
    },
    {
      "id": 140291073,
      "nextDialogs": [
        140291074
      ],
      "talkRole": {
        "type": "TALK_ROLE_NPC",
        "_id": "1079"
      },
      "talkContentTextMapHash": 75795962,
      "talkAssetPath": "",
      "talkAssetPathAlter": "",
      "talkAudioName": "",
      "actionBefore": "",
      "actionWhile": "",
      "actionAfter": "",
      "optionIcon": "",
      "iconPath": ""
    },
    {
      "id": 140291074,
      "talkRole": {
        "type": "TALK_ROLE_NPC",
        "_id": "14042"
      },
      "talkContentTextMapHash": 1272224890,
      "talkAssetPath": "",
      "talkAssetPathAlter": "",
      "talkAudioName": "",
      "actionBefore": "",
      "actionWhile": "",
      "actionAfter": "",
      "optionIcon": "",
      "OMBMBJIACEP": 2385025148,
      "iconPath": ""
    }
  ]
}