{
  "talkId": 1402905,
  "dialogList": [
    {
      "id": 140290501,
      "nextDialogs": [
        140290502
      ],
      "talkRole": {
        "type": "TALK_ROLE_NPC",
        "_id": "1005"
      },
      "talkContentTextMapHash": 620075922,
      "talkAssetPath": "",
      "talkAssetPathAlter": "",
      "talkAudioName": "",
      "actionBefore": "",
      "actionWhile": "",
      "actionAfter": "",
      "optionIcon": "",
      "iconPath": ""
    },
    {
      "id": 140290502,
      "nextDialogs": [
        140290503
      ],
      "talkRole": {
        "type": "TALK_ROLE_NPC",
        "_id": "1079"
      },
      "talkContentTextMapHash": 1685521514,
      "talkAssetPath": "",
      "talkAssetPathAlter": "",
      "talkAudioName": "",
      "actionBefore": "",
      "actionWhile": "",
      "actionAfter": "",
      "optionIcon": "",
      "iconPath": ""
    },
    {
      "id": 140290503,
      "nextDialogs": [
        140290504
      ],
      "talkRole": {
        "type": "TALK_ROLE_NPC",
        "_id": "14042"
      },
      "talkContentTextMapHash": 1706845466,
      "talkAssetPath": "",
      "talkAssetPathAlter": "",
      "talkAudioName": "",
      "actionBefore": "",
      "actionWhile": "",
      "actionAfter": "",
      "optionIcon": "",
      "OMBMBJIACEP": 576620172,
      "iconPath": ""
    },
    {
      "id": 140290504,
      "nextDialogs": [
        140290505
      ],
      "talkRole": {
        "type": "TALK_ROLE_NPC",
        "_id": "1005"
      },
      "talkContentTextMapHash": 749468834,
      "talkAssetPath": "",
      "talkAssetPathAlter": "",
      "talkAudioName": "",
      "actionBefore": "",
      "actionWhile": "",
      "actionAfter": "",
      "optionIcon": "",
      "iconPath": ""
    },
    {
      "id": 140290505,
      "nextDialogs": [
        140290506
      ],
      "talkRole": {
        "type": "TALK_ROLE_NPC",
        "_id": "1079"
      },
      "talkContentTextMapHash": 3799883314,
      "talkAssetPath": "",
      "talkAssetPathAlter": "",
      "talkAudioName": "",
      "actionBefore": "",
      "actionWhile": "",
      "actionAfter": "",
      "optionIcon": "",
      "iconPath": ""
    },
    {
      "id": 140290506,
      "nextDialogs": [
        140290507
      ],
      "talkRole": {
        "type": "TALK_ROLE_NPC",
        "_id": "1005"
      },
      "talkContentTextMapHash": 2451211018,
      "talkAssetPath": "",
      "talkAssetPathAlter": "",
      "talkAudioName": "",
      "actionBefore": "",
      "actionWhile": "",
      "actionAfter": "",
      "optionIcon": "",
      "iconPath": ""
    },
    {
      "id": 140290507,
      "nextDialogs": [
        140290508
      ],
      "talkRole": {
        "type": "TALK_ROLE_NPC",
        "_id": "14042"
      },
      "talkContentTextMapHash": 3709590610,
      "talkAssetPath": "",
      "talkAssetPathAlter": "",
      "talkAudioName": "",
      "actionBefore": "",
      "actionWhile": "",
      "actionAfter": "",
      "optionIcon": "",
      "OMBMBJIACEP": 1880580852,
      "iconPath": ""
    },
    {
      "id": 140290508,
      "talkRole": {
        "type": "TALK_ROLE_NPC",
        "_id": "1079"
      },
      "talkContentTextMapHash": 2233259490,
      "talkAssetPath": "",
      "talkAssetPathAlter": "",
      "talkAudioName": "",
      "actionBefore": "",
      "actionWhile": "",
      "actionAfter": "",
      "optionIcon": "",
      "iconPath": ""
    }
  ]
}