{
  "talkId": 1403243,
  "dialogList": [
    {
      "id": 140324301,
      "nextDialogs": [
        140324302
      ],
      "talkRole": {
        "type": "TALK_ROLE_NPC",
        "_id": "1005"
      },
      "talkContentTextMapHash": 2410367826,
      "talkAssetPath": "",
      "talkAssetPathAlter": "",
      "talkAudioName": "",
      "actionBefore": "",
      "actionWhile": "",
      "actionAfter": "",
      "optionIcon": "",
      "OMBMBJIACEP": 3713988164,
      "iconPath": "ART/UI/Atlas/CutSceneUI/UI_TRPGPic/UI_TRPG_Paimon",
      "uiType": "DIALOG_UI_TRPGSP"
    },
    {
      "id": 140324302,
      "nextDialogs": [
        140324303
      ],
      "talkRole": {
        "type": "TALK_ROLE_NPC",
        "_id": "1077"
      },
      "talkContentTextMapHash": 4132727362,
      "talkRoleNameTextMapHash": 1802526643,
      "talkAssetPath": "",
      "talkAssetPathAlter": "",
      "talkAudioName": "",
      "actionBefore": "",
      "actionWhile": "",
      "actionAfter": "",
      "optionIcon": "",
      "OMBMBJIACEP": 2924841412,
      "iconPath": "ART/UI/Atlas/CutSceneUI/UI_TRPGPic/UI_TRPG_Clorinde",
      "uiType": "DIALOG_UI_TRPGSP"
    },
    {
      "id": 140324303,
      "nextDialogs": [
        140324304
      ],
      "talkRole": {
        "type": "TALK_ROLE_NPC",
        "_id": "1077"
      },
      "talkContentTextMapHash": 2181560786,
      "talkRoleNameTextMapHash": 4212305155,
      "talkAssetPath": "",
      "talkAssetPathAlter": "",
      "talkAudioName": "",
      "actionBefore": "",
      "actionWhile": "",
      "actionAfter": "",
      "optionIcon": "",
      "OMBMBJIACEP": 2143361540,
      "iconPath": "ART/UI/Atlas/CutSceneUI/UI_TRPGPic/UI_TRPG_Clorinde",
      "uiType": "DIALOG_UI_TRPGSP"
    },
    {
      "id": 140324304,
      "nextDialogs": [
        140324305
      ],
      "talkRole": {
        "type": "TALK_ROLE_PLAYER",
        "_id": ""
      },
      "talkContentTextMapHash": 2986065986,
      "talkAssetPath": "",
      "talkAssetPathAlter": "",
      "talkAudioName": "",
      "actionBefore": "",
      "actionWhile": "",
      "actionAfter": "",
      "optionIcon": "",
      "OMBMBJIACEP": 1385272284,
      "iconPath": "ART/UI/Atlas/CutSceneUI/UI_TRPGPic/UI_TRPG_PlayerBoy_2|ART/UI/Atlas/CutSceneUI/UI_TRPGPic/UI_TRPG_PlayerGirl_2",
      "uiType": "DIALOG_UI_TRPGSP"
    },
    {
      "id": 140324305,
      "nextDialogs": [
        140324306
      ],
      "talkRole": {
        "type": "TALK_ROLE_NPC",
        "_id": "14093"
      },
      "talkContentTextMapHash": 1314070010,
      "talkAssetPath": "",
      "talkAssetPathAlter": "",
      "talkAudioName": "",
      "actionBefore": "",
      "actionWhile": "",
      "actionAfter": "",
      "optionIcon": "",
      "OMBMBJIACEP": 1610259452,
      "iconPath": "",
      "uiType": "DIALOG_UI_TRPGSP"
    },
    {
      "id": 140324306,
      "nextDialogs": [
        140324307
      ],
      "talkRole": {
        "type": "TALK_ROLE_NPC",
        "_id": "14093"
      },
      "talkContentTextMapHash": 3797174514,
      "talkAssetPath": "",
      "talkAssetPathAlter": "",
      "talkAudioName": "",
      "actionBefore": "",
      "actionWhile": "",
      "actionAfter": "",
      "optionIcon": "",
      "OMBMBJIACEP": 1807230172,
      "iconPath": "",
      "uiType": "DIALOG_UI_TRPGSP"
    },
    {
      "id": 140324307,
      "nextDialogs": [
        140324308
      ],
      "talkRole": {
        "type": "TALK_ROLE_NPC",
        "_id": "1005"
      },
      "talkContentTextMapHash": 2766781530,
      "talkAssetPath": "",
      "talkAssetPathAlter": "",
      "talkAudioName": "",
      "actionBefore": "",
      "actionWhile": "",
      "actionAfter": "",
      "optionIcon": "",
      "OMBMBJIACEP": 1729583740,
      "iconPath": "ART/UI/Atlas/CutSceneUI/UI_TRPGPic/UI_TRPG_Paimon",
      "uiType": "DIALOG_UI_TRPGSP"
    },
    {
      "id": 140324308,
      "nextDialogs": [
        140324309
      ],
      "talkRole": {
        "type": "TALK_ROLE_NPC",
        "_id": "14093"
      },
      "talkContentTextMapHash": 2103445386,
      "talkAssetPath": "",
      "talkAssetPathAlter": "",
      "talkAudioName": "",
      "actionBefore": "",
      "actionWhile": "",
      "actionAfter": "",
      "optionIcon": "",
      "OMBMBJIACEP": 4017138796,
      "iconPath": "",
      "uiType": "DIALOG_UI_TRPGSP"
    },
    {
      "id": 140324309,
      "nextDialogs": [
        140324310
      ],
      "talkRole": {
        "type": "TALK_ROLE_NPC",
        "_id": "14093"
      },
      "talkContentTextMapHash": 3026804330,
      "talkAssetPath": "",
      "talkAssetPathAlter": "",
      "talkAudioName": "",
      "actionBefore": "",
      "actionWhile": "",
      "actionAfter": "",
      "optionIcon": "",
      "OMBMBJIACEP": 3918126100,
      "iconPath": "",
      "uiType": "DIALOG_UI_TRPGSP"
    },
    {
      "id": 140324310,
      "nextDialogs": [
        140324311
      ],
      "talkRole": {
        "type": "TALK_ROLE_NPC",
        "_id": "1071"
      },
      "talkContentTextMapHash": 3544953042,
      "talkAssetPath": "",
      "talkAssetPathAlter": "",
      "talkAudioName": "",
      "actionBefore": "",
      "actionWhile": "",
      "actionAfter": "",
      "optionIcon": "",
      "OMBMBJIACEP": 394261020,
      "iconPath": "ART/UI/Atlas/CutSceneUI/UI_TRPGPic/UI_TRPG_Liney",
      "uiType": "DIALOG_UI_TRPGSP"
    },
    {
      "id": 140324311,
      "nextDialogs": [
        140324312
      ],
      "talkRole": {
        "type": "TALK_ROLE_NPC",
        "_id": "14093"
      },
      "talkContentTextMapHash": 3019507466,
      "talkAssetPath": "",
      "talkAssetPathAlter": "",
      "talkAudioName": "",
      "actionBefore": "",
      "actionWhile": "",
      "actionAfter": "",
      "optionIcon": "",
      "OMBMBJIACEP": 781333908,
      "iconPath": "",
      "uiType": "DIALOG_UI_TRPGSP"
    },
    {
      "id": 140324312,
      "nextDialogs": [
        140324313
      ],
      "talkRole": {
        "type": "TALK_ROLE_NPC",
        "_id": "1073"
      },
      "talkContentTextMapHash": 728372842,
      "talkAssetPath": "",
      "talkAssetPathAlter": "",
      "talkAudioName": "",
      "actionBefore": "",
      "actionWhile": "",
      "actionAfter": "",
      "optionIcon": "",
      "OMBMBJIACEP": 2871249332,
      "iconPath": "ART/UI/Atlas/CutSceneUI/UI_TRPGPic/UI_TRPG_Furina",
      "uiType": "DIALOG_UI_TRPGSP"
    },
    {
      "id": 140324313,
      "nextDialogs": [
        140324314
      ],
      "talkRole": {
        "type": "TALK_ROLE_NPC",
        "_id": "14093"
      },
      "talkContentTextMapHash": 647451090,
      "talkAssetPath": "",
      "talkAssetPathAlter": "",
      "talkAudioName": "",
      "actionBefore": "",
      "actionWhile": "",
      "actionAfter": "",
      "optionIcon": "",
      "OMBMBJIACEP": 501716948,
      "iconPath": "",
      "uiType": "DIALOG_UI_TRPGSP"
    },
    {
      "id": 140324314,
      "nextDialogs": [
        140324315
      ],
      "talkRole": {
        "type": "TALK_ROLE_NPC",
        "_id": "1075"
      },
      "talkContentTextMapHash": 1764812514,
      "talkAssetPath": "",
      "talkAssetPathAlter": "",
      "talkAudioName": "",
      "actionBefore": "",
      "actionWhile": "",
      "actionAfter": "",
      "optionIcon": "",
      "OMBMBJIACEP": 1569791748,
      "iconPath": "ART/UI/Atlas/CutSceneUI/UI_TRPGPic/UI_TRPG_Navia",
      "uiType": "DIALOG_UI_TRPGSP"
    },
    {
      "id": 140324315,
      "nextDialogs": [
        140324316
      ],
      "talkRole": {
        "type": "TALK_ROLE_PLAYER",
        "_id": ""
      },
      "talkContentTextMapHash": 3208740994,
      "talkAssetPath": "",
      "talkAssetPathAlter": "",
      "talkAudioName": "",
      "actionBefore": "",
      "actionWhile": "",
      "actionAfter": "",
      "optionIcon": "",
      "OMBMBJIACEP": 2335707068,
      "iconPath": "ART/UI/Atlas/CutSceneUI/UI_TRPGPic/UI_TRPG_PlayerBoy_2|ART/UI/Atlas/CutSceneUI/UI_TRPGPic/UI_TRPG_PlayerGirl_2",
      "uiType": "DIALOG_UI_TRPGSP"
    },
    {
      "id": 140324316,
      "talkRole": {
        "type": "TALK_ROLE_NPC",
        "_id": "14093"
      },
      "talkContentTextMapHash": 2578781794,
      "talkAssetPath": "",
      "talkAssetPathAlter": "",
      "talkAudioName": "",
      "actionBefore": "",
      "actionWhile": "",
      "actionAfter": "",
      "optionIcon": "",
      "OMBMBJIACEP": 2086491796,
      "iconPath": "",
      "uiType": "DIALOG_UI_TRPGSP"
    }
  ]
}