{
  "talkId": 1403306,
  "dialogList": [
    {
      "id": 140330601,
      "nextDialogs": [
        140330602
      ],
      "talkRole": {
        "type": "TALK_ROLE_NPC",
        "_id": "1077"
      },
      "talkContentTextMapHash": 1584548194,
      "talkRoleNameTextMapHash": 3806921715,
      "talkAssetPath": "",
      "talkAssetPathAlter": "",
      "talkAudioName": "",
      "actionBefore": "",
      "actionWhile": "",
      "actionAfter": "",
      "optionIcon": "",
      "OMBMBJIACEP": 1259033788,
      "iconPath": "ART/UI/Atlas/CutSceneUI/UI_TRPGPic/UI_TRPG_Clorinde",
      "uiType": "DIALOG_UI_TRPGSP"
    },
    {
      "id": 140330602,
      "nextDialogs": [
        140330603
      ],
      "talkRole": {
        "type": "TALK_ROLE_NPC",
        "_id": "1077"
      },
      "talkContentTextMapHash": 2907309266,
      "talkRoleNameTextMapHash": 1456203083,
      "talkAssetPath": "",
      "talkAssetPathAlter": "",
      "talkAudioName": "",
      "actionBefore": "",
      "actionWhile": "",
      "actionAfter": "",
      "optionIcon": "",
      "OMBMBJIACEP": 3238973716,
      "iconPath": "ART/UI/Atlas/CutSceneUI/UI_TRPGPic/UI_TRPG_Clorinde",
      "uiType": "DIALOG_UI_TRPGSP"
    },
    {
      "id": 140330603,
      "nextDialogs": [
        140330604
      ],
      "talkRole": {
        "type": "TALK_ROLE_NPC",
        "_id": "14102"
      },
      "talkContentTextMapHash": 2160370186,
      "talkAssetPath": "",
      "talkAssetPathAlter": "",
      "talkAudioName": "",
      "actionBefore": "",
      "actionWhile": "",
      "actionAfter": "",
      "optionIcon": "",
      "OMBMBJIACEP": 2045811460,
      "iconPath": "",
      "uiType": "DIALOG_UI_TRPGSP"
    },
    {
      "id": 140330604,
      "nextDialogs": [
        140330605
      ],
      "talkRole": {
        "type": "TALK_ROLE_NPC",
        "_id": "1077"
      },
      "talkContentTextMapHash": 2538834178,
      "talkRoleNameTextMapHash": 1073824915,
      "talkAssetPath": "",
      "talkAssetPathAlter": "",
      "talkAudioName": "",
      "actionBefore": "",
      "actionWhile": "",
      "actionAfter": "",
      "optionIcon": "",
      "OMBMBJIACEP": 95456172,
      "iconPath": "ART/UI/Atlas/CutSceneUI/UI_TRPGPic/UI_TRPG_Clorinde",
      "uiType": "DIALOG_UI_TRPGSP"
    },
    {
      "id": 140330605,
      "nextDialogs": [
        140330606
      ],
      "talkRole": {
        "type": "TALK_ROLE_NPC",
        "_id": "1073"
      },
      "talkContentTextMapHash": 239403602,
      "talkAssetPath": "",
      "talkAssetPathAlter": "",
      "talkAudioName": "",
      "actionBefore": "",
      "actionWhile": "",
      "actionAfter": "",
      "optionIcon": "",
      "iconPath": "",
      "uiType": "DIALOG_UI_TRPGSP"
    },
    {
      "id": 140330606,
      "nextDialogs": [
        140330607
      ],
      "talkRole": {
        "type": "TALK_ROLE_NPC",
        "_id": "1071"
      },
      "talkContentTextMapHash": 660133050,
      "talkAssetPath": "",
      "talkAssetPathAlter": "",
      "talkAudioName": "",
      "actionBefore": "",
      "actionWhile": "",
      "actionAfter": "",
      "optionIcon": "",
      "OMBMBJIACEP": 4272531772,
      "iconPath": "ART/UI/Atlas/CutSceneUI/UI_TRPGPic/UI_TRPG_Liney",
      "uiType": "DIALOG_UI_TRPGSP"
    },
    {
      "id": 140330607,
      "nextDialogs": [
        140330608
      ],
      "talkRole": {
        "type": "TALK_ROLE_NPC",
        "_id": "1005"
      },
      "talkContentTextMapHash": 1164272226,
      "talkAssetPath": "",
      "talkAssetPathAlter": "",
      "talkAudioName": "",
      "actionBefore": "",
      "actionWhile": "",
      "actionAfter": "",
      "optionIcon": "",
      "OMBMBJIACEP": 2847017604,
      "iconPath": "ART/UI/Atlas/CutSceneUI/UI_TRPGPic/UI_TRPG_Paimon",
      "uiType": "DIALOG_UI_TRPGSP"
    },
    {
      "id": 140330608,
      "nextDialogs": [
        140330609
      ],
      "talkRole": {
        "type": "TALK_ROLE_NPC",
        "_id": "1077"
      },
      "talkContentTextMapHash": 4183516706,
      "talkRoleNameTextMapHash": 147019931,
      "talkAssetPath": "",
      "talkAssetPathAlter": "",
      "talkAudioName": "",
      "actionBefore": "",
      "actionWhile": "",
      "actionAfter": "",
      "optionIcon": "",
      "OMBMBJIACEP": 2830457380,
      "iconPath": "ART/UI/Atlas/CutSceneUI/UI_TRPGPic/UI_TRPG_Clorinde",
      "uiType": "DIALOG_UI_TRPGSP"
    },
    {
      "id": 140330609,
      "nextDialogs": [
        140330610
      ],
      "talkRole": {
        "type": "TALK_ROLE_NPC",
        "_id": "14103"
      },
      "talkContentTextMapHash": 95348290,
      "talkAssetPath": "",
      "talkAssetPathAlter": "",
      "talkAudioName": "",
      "actionBefore": "",
      "actionWhile": "",
      "actionAfter": "",
      "optionIcon": "",
      "OMBMBJIACEP": 3187542596,
      "iconPath": "",
      "uiType": "DIALOG_UI_TRPGSP"
    },
    {
      "id": 140330610,
      "nextDialogs": [
        140330611
      ],
      "talkRole": {
        "type": "TALK_ROLE_NPC",
        "_id": "1077"
      },
      "talkContentTextMapHash": 1649037698,
      "talkRoleNameTextMapHash": 3824819363,
      "talkAssetPath": "",
      "talkAssetPathAlter": "",
      "talkAudioName": "",
      "actionBefore": "",
      "actionWhile": "",
      "actionAfter": "",
      "optionIcon": "",
      "OMBMBJIACEP": 1398753500,
      "iconPath": "ART/UI/Atlas/CutSceneUI/UI_TRPGPic/UI_TRPG_Clorinde",
      "uiType": "DIALOG_UI_TRPGSP"
    },
    {
      "id": 140330611,
      "nextDialogs": [
        140330612
      ],
      "talkRole": {
        "type": "TALK_ROLE_NPC",
        "_id": "1075"
      },
      "talkContentTextMapHash": 759007066,
      "talkAssetPath": "",
      "talkAssetPathAlter": "",
      "talkAudioName": "",
      "actionBefore": "",
      "actionWhile": "",
      "actionAfter": "",
      "optionIcon": "",
      "OMBMBJIACEP": 349238892,
      "iconPath": "ART/UI/Atlas/CutSceneUI/UI_TRPGPic/UI_TRPG_Navia",
      "uiType": "DIALOG_UI_TRPGSP"
    },
    {
      "id": 140330612,
      "talkRole": {
        "type": "TALK_ROLE_NPC",
        "_id": "14103"
      },
      "talkContentTextMapHash": 1432945618,
      "talkAssetPath": "",
      "talkAssetPathAlter": "",
      "talkAudioName": "",
      "actionBefore": "",
      "actionWhile": "",
      "actionAfter": "",
      "optionIcon": "",
      "OMBMBJIACEP": 3567229748,
      "iconPath": "",
      "uiType": "DIALOG_UI_TRPGSP"
    }
  ]
}