{
  "talkId": 1403241,
  "dialogList": [
    {
      "id": 140324101,
      "nextDialogs": [
        140324102
      ],
      "talkRole": {
        "type": "TALK_ROLE_NPC",
        "_id": "1005"
      },
      "talkContentTextMapHash": 935781490,
      "talkAssetPath": "",
      "talkAssetPathAlter": "",
      "talkAudioName": "",
      "actionBefore": "",
      "actionWhile": "",
      "actionAfter": "",
      "optionIcon": "",
      "OMBMBJIACEP": 1819458828,
      "iconPath": "ART/UI/Atlas/CutSceneUI/UI_TRPGPic/UI_TRPG_Paimon",
      "uiType": "DIALOG_UI_TRPGSP"
    },
    {
      "id": 140324102,
      "nextDialogs": [
        140324103
      ],
      "talkRole": {
        "type": "TALK_ROLE_NPC",
        "_id": "1077"
      },
      "talkContentTextMapHash": 739017762,
      "talkRoleNameTextMapHash": 2973254435,
      "talkAssetPath": "",
      "talkAssetPathAlter": "",
      "talkAudioName": "",
      "actionBefore": "",
      "actionWhile": "",
      "actionAfter": "",
      "optionIcon": "",
      "OMBMBJIACEP": 3089108980,
      "iconPath": "ART/UI/Atlas/CutSceneUI/UI_TRPGPic/UI_TRPG_Clorinde",
      "uiType": "DIALOG_UI_TRPGSP"
    },
    {
      "id": 140324103,
      "nextDialogs": [
        140324104
      ],
      "talkRole": {
        "type": "TALK_ROLE_NPC",
        "_id": "1077"
      },
      "talkContentTextMapHash": 3977501522,
      "talkRoleNameTextMapHash": 89556235,
      "talkAssetPath": "",
      "talkAssetPathAlter": "",
      "talkAudioName": "",
      "actionBefore": "",
      "actionWhile": "",
      "actionAfter": "",
      "optionIcon": "",
      "OMBMBJIACEP": 3309701356,
      "iconPath": "ART/UI/Atlas/CutSceneUI/UI_TRPGPic/UI_TRPG_Clorinde",
      "uiType": "DIALOG_UI_TRPGSP"
    },
    {
      "id": 140324104,
      "nextDialogs": [
        140324105
      ],
      "talkRole": {
        "type": "TALK_ROLE_PLAYER",
        "_id": ""
      },
      "talkContentTextMapHash": 1673927338,
      "talkAssetPath": "",
      "talkAssetPathAlter": "",
      "talkAudioName": "",
      "actionBefore": "",
      "actionWhile": "",
      "actionAfter": "",
      "optionIcon": "",
      "OMBMBJIACEP": 299684444,
      "iconPath": "ART/UI/Atlas/CutSceneUI/UI_TRPGPic/UI_TRPG_PlayerBoy_2|ART/UI/Atlas/CutSceneUI/UI_TRPGPic/UI_TRPG_PlayerGirl_2",
      "uiType": "DIALOG_UI_TRPGSP"
    },
    {
      "id": 140324105,
      "nextDialogs": [
        140324106
      ],
      "talkRole": {
        "type": "TALK_ROLE_NPC",
        "_id": "1075"
      },
      "talkContentTextMapHash": 3670867554,
      "talkAssetPath": "",
      "talkAssetPathAlter": "",
      "talkAudioName": "",
      "actionBefore": "",
      "actionWhile": "",
      "actionAfter": "",
      "optionIcon": "",
      "OMBMBJIACEP": 2609771532,
      "iconPath": "ART/UI/Atlas/CutSceneUI/UI_TRPGPic/UI_TRPG_Navia",
      "uiType": "DIALOG_UI_TRPGSP"
    },
    {
      "id": 140324106,
      "nextDialogs": [
        140324107
      ],
      "talkRole": {
        "type": "TALK_ROLE_NPC",
        "_id": "1073"
      },
      "talkContentTextMapHash": 2635694370,
      "talkAssetPath": "",
      "talkAssetPathAlter": "",
      "talkAudioName": "",
      "actionBefore": "",
      "actionWhile": "",
      "actionAfter": "",
      "optionIcon": "",
      "iconPath": "",
      "uiType": "DIALOG_UI_TRPGSP"
    },
    {
      "id": 140324107,
      "nextDialogs": [
        140324108
      ],
      "talkRole": {
        "type": "TALK_ROLE_NPC",
        "_id": "14093"
      },
      "talkContentTextMapHash": 916189946,
      "talkAssetPath": "",
      "talkAssetPathAlter": "",
      "talkAudioName": "",
      "actionBefore": "",
      "actionWhile": "",
      "actionAfter": "",
      "optionIcon": "",
      "OMBMBJIACEP": 1777420764,
      "iconPath": "",
      "uiType": "DIALOG_UI_TRPGSP"
    },
    {
      "id": 140324108,
      "nextDialogs": [
        140324109
      ],
      "talkRole": {
        "type": "TALK_ROLE_NPC",
        "_id": "14093"
      },
      "talkContentTextMapHash": 951502386,
      "talkAssetPath": "",
      "talkAssetPathAlter": "",
      "talkAudioName": "",
      "actionBefore": "",
      "actionWhile": "",
      "actionAfter": "",
      "optionIcon": "",
      "OMBMBJIACEP": 1176251300,
      "iconPath": "",
      "uiType": "DIALOG_UI_TRPGSP"
    },
    {
      "id": 140324109,
      "nextDialogs": [
        140324110
      ],
      "talkRole": {
        "type": "TALK_ROLE_NPC",
        "_id": "1005"
      },
      "talkContentTextMapHash": 340907474,
      "talkAssetPath": "",
      "talkAssetPathAlter": "",
      "talkAudioName": "",
      "actionBefore": "",
      "actionWhile": "",
      "actionAfter": "",
      "optionIcon": "",
      "OMBMBJIACEP": 3550837212,
      "iconPath": "ART/UI/Atlas/CutSceneUI/UI_TRPGPic/UI_TRPG_Paimon",
      "uiType": "DIALOG_UI_TRPGSP"
    },
    {
      "id": 140324110,
      "talkRole": {
        "type": "TALK_ROLE_NPC",
        "_id": "14093"
      },
      "talkContentTextMapHash": 1580834698,
      "talkAssetPath": "",
      "talkAssetPathAlter": "",
      "talkAudioName": "",
      "actionBefore": "",
      "actionWhile": "",
      "actionAfter": "",
      "optionIcon": "",
      "OMBMBJIACEP": 1639866812,
      "iconPath": "",
      "uiType": "DIALOG_UI_TRPGSP"
    }
  ]
}