{
  "talkId": 1403401,
  "dialogList": [
    {
      "id": 140340101,
      "nextDialogs": [
        140340102
      ],
      "talkRole": {
        "type": "TALK_ROLE_NPC",
        "_id": "1077"
      },
      "talkContentTextMapHash": 689513522,
      "talkRoleNameTextMapHash": 1341499475,
      "talkAssetPath": "",
      "talkAssetPathAlter": "",
      "talkAudioName": "",
      "actionBefore": "",
      "actionWhile": "",
      "actionAfter": "",
      "optionIcon": "",
      "OMBMBJIACEP": 484346588,
      "iconPath": "ART/UI/Atlas/CutSceneUI/UI_TRPGPic/UI_TRPG_Clorinde",
      "uiType": "DIALOG_UI_TRPGSP"
    },
    {
      "id": 140340102,
      "nextDialogs": [
        140340103
      ],
      "talkRole": {
        "type": "TALK_ROLE_NPC",
        "_id": "1077"
      },
      "talkContentTextMapHash": 1113359650,
      "talkRoleNameTextMapHash": 4268449419,
      "talkAssetPath": "",
      "talkAssetPathAlter": "",
      "talkAudioName": "",
      "actionBefore": "",
      "actionWhile": "",
      "actionAfter": "",
      "optionIcon": "",
      "OMBMBJIACEP": 3319922244,
      "iconPath": "ART/UI/Atlas/CutSceneUI/UI_TRPGPic/UI_TRPG_Clorinde",
      "uiType": "DIALOG_UI_TRPGSP"
    },
    {
      "id": 140340103,
      "nextDialogs": [
        140340104
      ],
      "talkRole": {
        "type": "TALK_ROLE_NPC",
        "_id": "1073"
      },
      "talkContentTextMapHash": 2618679866,
      "talkAssetPath": "",
      "talkAssetPathAlter": "",
      "talkAudioName": "",
      "actionBefore": "",
      "actionWhile": "",
      "actionAfter": "",
      "optionIcon": "",
      "iconPath": ""
    },
    {
      "id": 140340104,
      "nextDialogs": [
        140340105
      ],
      "talkRole": {
        "type": "TALK_ROLE_NPC",
        "_id": "1077"
      },
      "talkContentTextMapHash": 90771226,
      "talkRoleNameTextMapHash": 2828447259,
      "talkAssetPath": "",
      "talkAssetPathAlter": "",
      "talkAudioName": "",
      "actionBefore": "",
      "actionWhile": "",
      "actionAfter": "",
      "optionIcon": "",
      "OMBMBJIACEP": 4040013540,
      "iconPath": "ART/UI/Atlas/CutSceneUI/UI_TRPGPic/UI_TRPG_Clorinde",
      "uiType": "DIALOG_UI_TRPGSP"
    },
    {
      "id": 140340105,
      "nextDialogs": [
        140340106
      ],
      "talkRole": {
        "type": "TALK_ROLE_NPC",
        "_id": "1071"
      },
      "talkContentTextMapHash": 1491569522,
      "talkAssetPath": "",
      "talkAssetPathAlter": "",
      "talkAudioName": "",
      "actionBefore": "",
      "actionWhile": "",
      "actionAfter": "",
      "optionIcon": "",
      "OMBMBJIACEP": 2664616636,
      "iconPath": "ART/UI/Atlas/CutSceneUI/UI_TRPGPic/UI_TRPG_Liney",
      "uiType": "DIALOG_UI_TRPGSP"
    },
    {
      "id": 140340106,
      "nextDialogs": [
        140340107
      ],
      "talkRole": {
        "type": "TALK_ROLE_NPC",
        "_id": "1077"
      },
      "talkContentTextMapHash": 4142753002,
      "talkAssetPath": "",
      "talkAssetPathAlter": "",
      "talkAudioName": "",
      "actionBefore": "",
      "actionWhile": "",
      "actionAfter": "",
      "optionIcon": "",
      "iconPath": ""
    },
    {
      "id": 140340107,
      "nextDialogs": [
        140340108
      ],
      "talkRole": {
        "type": "TALK_ROLE_NPC",
        "_id": "14136"
      },
      "talkContentTextMapHash": 303007594,
      "talkRoleNameTextMapHash": 3009944059,
      "talkAssetPath": "",
      "talkAssetPathAlter": "",
      "talkAudioName": "",
      "actionBefore": "",
      "actionWhile": "",
      "actionAfter": "",
      "optionIcon": "",
      "iconPath": ""
    },
    {
      "id": 140340108,
      "nextDialogs": [
        140340109
      ],
      "talkRole": {
        "type": "TALK_ROLE_NPC",
        "_id": "1077"
      },
      "talkContentTextMapHash": 3756310114,
      "talkAssetPath": "",
      "talkAssetPathAlter": "",
      "talkAudioName": "",
      "actionBefore": "",
      "actionWhile": "",
      "actionAfter": "",
      "optionIcon": "",
      "iconPath": ""
    },
    {
      "id": 140340109,
      "nextDialogs": [
        140340110
      ],
      "talkRole": {
        "type": "TALK_ROLE_NPC",
        "_id": "1077"
      },
      "talkContentTextMapHash": 448254954,
      "talkAssetPath": "",
      "talkAssetPathAlter": "",
      "talkAudioName": "",
      "actionBefore": "",
      "actionWhile": "",
      "actionAfter": "",
      "optionIcon": "",
      "iconPath": ""
    },
    {
      "id": 140340110,
      "nextDialogs": [
        140340111
      ],
      "talkRole": {
        "type": "TALK_ROLE_NPC",
        "_id": "14136"
      },
      "talkContentTextMapHash": 921113450,
      "talkRoleNameTextMapHash": 668251363,
      "talkAssetPath": "",
      "talkAssetPathAlter": "",
      "talkAudioName": "",
      "actionBefore": "",
      "actionWhile": "",
      "actionAfter": "",
      "optionIcon": "",
      "iconPath": ""
    },
    {
      "id": 140340111,
      "nextDialogs": [
        140340112
      ],
      "talkRole": {
        "type": "TALK_ROLE_NPC",
        "_id": "1077"
      },
      "talkContentTextMapHash": 1022849154,
      "talkAssetPath": "",
      "talkAssetPathAlter": "",
      "talkAudioName": "",
      "actionBefore": "",
      "actionWhile": "",
      "actionAfter": "",
      "optionIcon": "",
      "iconPath": ""
    },
    {
      "id": 140340112,
      "nextDialogs": [
        140340113
      ],
      "talkRole": {
        "type": "TALK_ROLE_NPC",
        "_id": "14136"
      },
      "talkContentTextMapHash": 795882682,
      "talkRoleNameTextMapHash": 1069287195,
      "talkAssetPath": "",
      "talkAssetPathAlter": "",
      "talkAudioName": "",
      "actionBefore": "",
      "actionWhile": "",
      "actionAfter": "",
      "optionIcon": "",
      "iconPath": ""
    },
    {
      "id": 140340113,
      "nextDialogs": [
        140340114
      ],
      "talkRole": {
        "type": "TALK_ROLE_NPC",
        "_id": "1077"
      },
      "talkContentTextMapHash": 562556322,
      "talkAssetPath": "",
      "talkAssetPathAlter": "",
      "talkAudioName": "",
      "actionBefore": "",
      "actionWhile": "",
      "actionAfter": "",
      "optionIcon": "",
      "iconPath": ""
    },
    {
      "id": 140340114,
      "nextDialogs": [
        140340115
      ],
      "talkRole": {
        "type": "TALK_ROLE_NPC",
        "_id": "14136"
      },
      "talkContentTextMapHash": 363455530,
      "talkRoleNameTextMapHash": 360031027,
      "talkAssetPath": "",
      "talkAssetPathAlter": "",
      "talkAudioName": "",
      "actionBefore": "",
      "actionWhile": "",
      "actionAfter": "",
      "optionIcon": "",
      "iconPath": ""
    },
    {
      "id": 140340115,
      "nextDialogs": [
        140340116
      ],
      "talkRole": {
        "type": "TALK_ROLE_NPC",
        "_id": "14136"
      },
      "talkContentTextMapHash": 3788289706,
      "talkRoleNameTextMapHash": 3933072443,
      "talkAssetPath": "",
      "talkAssetPathAlter": "",
      "talkAudioName": "",
      "actionBefore": "",
      "actionWhile": "",
      "actionAfter": "",
      "optionIcon": "",
      "iconPath": ""
    },
    {
      "id": 140340116,
      "nextDialogs": [
        140340117
      ],
      "talkRole": {
        "type": "TALK_ROLE_NPC",
        "_id": "1077"
      },
      "talkContentTextMapHash": 386768338,
      "talkAssetPath": "",
      "talkAssetPathAlter": "",
      "talkAudioName": "",
      "actionBefore": "",
      "actionWhile": "",
      "actionAfter": "",
      "optionIcon": "",
      "iconPath": ""
    },
    {
      "id": 140340117,
      "nextDialogs": [
        140340118
      ],
      "talkRole": {
        "type": "TALK_ROLE_NPC",
        "_id": "14136"
      },
      "talkContentTextMapHash": 3586685698,
      "talkRoleNameTextMapHash": 2033040187,
      "talkAssetPath": "",
      "talkAssetPathAlter": "",
      "talkAudioName": "",
      "actionBefore": "",
      "actionWhile": "",
      "actionAfter": "",
      "optionIcon": "",
      "iconPath": ""
    },
    {
      "id": 140340118,
      "nextDialogs": [
        140340119
      ],
      "talkRole": {
        "type": "TALK_ROLE_NPC",
        "_id": "14136"
      },
      "talkContentTextMapHash": 3454173578,
      "talkRoleNameTextMapHash": 2373842795,
      "talkAssetPath": "",
      "talkAssetPathAlter": "",
      "talkAudioName": "",
      "actionBefore": "",
      "actionWhile": "",
      "actionAfter": "",
      "optionIcon": "",
      "iconPath": ""
    },
    {
      "id": 140340119,
      "nextDialogs": [
        140340120
      ],
      "talkRole": {
        "type": "TALK_ROLE_NPC",
        "_id": "14136"
      },
      "talkContentTextMapHash": 3334370842,
      "talkRoleNameTextMapHash": 255721395,
      "talkAssetPath": "",
      "talkAssetPathAlter": "",
      "talkAudioName": "",
      "actionBefore": "",
      "actionWhile": "",
      "actionAfter": "",
      "optionIcon": "",
      "iconPath": ""
    },
    {
      "id": 140340120,
      "nextDialogs": [
        140340121
      ],
      "talkRole": {
        "type": "TALK_ROLE_NPC",
        "_id": "1077"
      },
      "talkContentTextMapHash": 712345562,
      "talkAssetPath": "",
      "talkAssetPathAlter": "",
      "talkAudioName": "",
      "actionBefore": "",
      "actionWhile": "",
      "actionAfter": "",
      "optionIcon": "",
      "iconPath": ""
    },
    {
      "id": 140340121,
      "nextDialogs": [
        140340122
      ],
      "talkRole": {
        "type": "TALK_ROLE_NPC",
        "_id": "1077"
      },
      "talkContentTextMapHash": 308760874,
      "talkAssetPath": "",
      "talkAssetPathAlter": "",
      "talkAudioName": "",
      "actionBefore": "",
      "actionWhile": "",
      "actionAfter": "",
      "optionIcon": "",
      "iconPath": ""
    },
    {
      "id": 140340122,
      "nextDialogs": [
        140340123
      ],
      "talkRole": {
        "type": "TALK_ROLE_NPC",
        "_id": "14136"
      },
      "talkContentTextMapHash": 1319145290,
      "talkRoleNameTextMapHash": 2983997539,
      "talkAssetPath": "",
      "talkAssetPathAlter": "",
      "talkAudioName": "",
      "actionBefore": "",
      "actionWhile": "",
      "actionAfter": "",
      "optionIcon": "",
      "iconPath": ""
    },
    {
      "id": 140340123,
      "talkRole": {
        "type": "TALK_ROLE_NPC",
        "_id": "1077"
      },
      "talkContentTextMapHash": 4284607794,
      "talkAssetPath": "",
      "talkAssetPathAlter": "",
      "talkAudioName": "",
      "actionBefore": "",
      "actionWhile": "",
      "actionAfter": "",
      "optionIcon": "",
      "iconPath": ""
    }
  ]
}