{
  "talkId": 1500004,
  "dialogList": [
    {
      "id": 150000401,
      "nextDialogs": [
        150000402
      ],
      "talkRole": {
        "type": "TALK_ROLE_NPC",
        "_id": "14148"
      },
      "talkContentTextMapHash": 2843540242,
      "talkAssetPath": "",
      "talkAssetPathAlter": "",
      "talkAudioName": "",
      "actionBefore": "",
      "actionWhile": "",
      "actionAfter": "",
      "optionIcon": "",
      "PEMKNDAABBE": 964496052,
      "iconPath": ""
    },
    {
      "id": 150000402,
      "nextDialogs": [
        150000403
      ],
      "talkRole": {
        "type": "TALK_ROLE_NPC",
        "_id": "1005"
      },
      "talkContentTextMapHash": 4074372850,
      "talkAssetPath": "",
      "talkAssetPathAlter": "",
      "talkAudioName": "",
      "actionBefore": "",
      "actionWhile": "",
      "actionAfter": "",
      "optionIcon": "",
      "iconPath": ""
    },
    {
      "id": 150000403,
      "nextDialogs": [
        150000404
      ],
      "talkRole": {
        "type": "TALK_ROLE_NPC",
        "_id": "14221"
      },
      "talkContentTextMapHash": 2925136226,
      "talkAssetPath": "",
      "talkAssetPathAlter": "",
      "talkAudioName": "",
      "actionBefore": "",
      "actionWhile": "",
      "actionAfter": "",
      "optionIcon": "",
      "iconPath": ""
    },
    {
      "id": 150000404,
      "nextDialogs": [
        150000405
      ],
      "talkRole": {
        "type": "TALK_ROLE_NPC",
        "_id": "14221"
      },
      "talkContentTextMapHash": 2513437106,
      "talkAssetPath": "",
      "talkAssetPathAlter": "",
      "talkAudioName": "",
      "actionBefore": "",
      "actionWhile": "",
      "actionAfter": "",
      "optionIcon": "",
      "iconPath": ""
    },
    {
      "id": 150000405,
      "nextDialogs": [
        150000406
      ],
      "talkRole": {
        "type": "TALK_ROLE_NPC",
        "_id": "1005"
      },
      "talkContentTextMapHash": 110128154,
      "talkAssetPath": "",
      "talkAssetPathAlter": "",
      "talkAudioName": "",
      "actionBefore": "",
      "actionWhile": "",
      "actionAfter": "",
      "optionIcon": "",
      "iconPath": ""
    },
    {
      "id": 150000406,
      "nextDialogs": [
        150000407
      ],
      "talkRole": {
        "type": "TALK_ROLE_NPC",
        "_id": "14221"
      },
      "talkContentTextMapHash": 3825199690,
      "talkAssetPath": "",
      "talkAssetPathAlter": "",
      "talkAudioName": "",
      "actionBefore": "",
      "actionWhile": "",
      "actionAfter": "",
      "optionIcon": "",
      "iconPath": ""
    },
    {
      "id": 150000407,
      "nextDialogs": [
        150000408
      ],
      "talkRole": {
        "type": "TALK_ROLE_NPC",
        "_id": "14221"
      },
      "talkContentTextMapHash": 2591737050,
      "talkAssetPath": "",
      "talkAssetPathAlter": "",
      "talkAudioName": "",
      "actionBefore": "",
      "actionWhile": "",
      "actionAfter": "",
      "optionIcon": "",
      "iconPath": ""
    },
    {
      "id": 150000408,
      "nextDialogs": [
        150000409,
        150000411
      ],
      "talkRole": {
        "type": "TALK_ROLE_NPC",
        "_id": "1005"
      },
      "talkContentTextMapHash": 2619219050,
      "talkAssetPath": "",
      "talkAssetPathAlter": "",
      "talkAudioName": "",
      "actionBefore": "",
      "actionWhile": "",
      "actionAfter": "",
      "optionIcon": "",
      "iconPath": ""
    },
    {
      "id": 150000409,
      "nextDialogs": [
        150000410
      ],
      "talkRole": {
        "type": "TALK_ROLE_PLAYER",
        "_id": ""
      },
      "talkContentTextMapHash": 2884546162,
      "talkAssetPath": "",
      "talkAssetPathAlter": "",
      "talkAudioName": "",
      "actionBefore": "",
      "actionWhile": "",
      "actionAfter": "",
      "optionIcon": "",
      "iconPath": ""
    },
    {
      "id": 150000410,
      "nextDialogs": [
        150000413
      ],
      "talkRole": {
        "type": "TALK_ROLE_NPC",
        "_id": "14221"
      },
      "talkContentTextMapHash": 1552858946,
      "talkAssetPath": "",
      "talkAssetPathAlter": "",
      "talkAudioName": "",
      "actionBefore": "",
      "actionWhile": "",
      "actionAfter": "",
      "optionIcon": "",
      "iconPath": ""
    },
    {
      "id": 150000413,
      "nextDialogs": [
        150000414
      ],
      "talkRole": {
        "type": "TALK_ROLE_NPC",
        "_id": "14221"
      },
      "talkContentTextMapHash": 2948963962,
      "talkAssetPath": "",
      "talkAssetPathAlter": "",
      "talkAudioName": "",
      "actionBefore": "",
      "actionWhile": "",
      "actionAfter": "",
      "optionIcon": "",
      "iconPath": ""
    },
    {
      "id": 150000414,
      "nextDialogs": [
        150000415
      ],
      "talkRole": {
        "type": "TALK_ROLE_NPC",
        "_id": "1005"
      },
      "talkContentTextMapHash": 2090624186,
      "talkAssetPath": "",
      "talkAssetPathAlter": "",
      "talkAudioName": "",
      "actionBefore": "",
      "actionWhile": "",
      "actionAfter": "",
      "optionIcon": "",
      "iconPath": ""
    },
    {
      "id": 150000415,
      "nextDialogs": [
        150000416
      ],
      "talkRole": {
        "type": "TALK_ROLE_NPC",
        "_id": "14221"
      },
      "talkContentTextMapHash": 3467503818,
      "talkAssetPath": "",
      "talkAssetPathAlter": "",
      "talkAudioName": "",
      "actionBefore": "",
      "actionWhile": "",
      "actionAfter": "",
      "optionIcon": "",
      "iconPath": ""
    },
    {
      "id": 150000416,
      "nextDialogs": [
        150000417
      ],
      "talkRole": {
        "type": "TALK_ROLE_NPC",
        "_id": "1005"
      },
      "talkContentTextMapHash": 648612306,
      "talkAssetPath": "",
      "talkAssetPathAlter": "",
      "talkAudioName": "",
      "actionBefore": "",
      "actionWhile": "",
      "actionAfter": "",
      "optionIcon": "",
      "iconPath": ""
    },
    {
      "id": 150000417,
      "nextDialogs": [
        150000418
      ],
      "talkRole": {
        "type": "TALK_ROLE_NPC",
        "_id": "14221"
      },
      "talkContentTextMapHash": 1957891298,
      "talkAssetPath": "",
      "talkAssetPathAlter": "",
      "talkAudioName": "",
      "actionBefore": "",
      "actionWhile": "",
      "actionAfter": "",
      "optionIcon": "",
      "iconPath": ""
    },
    {
      "id": 150000418,
      "nextDialogs": [
        150000419
      ],
      "talkRole": {
        "type": "TALK_ROLE_NPC",
        "_id": "14221"
      },
      "talkContentTextMapHash": 3973399218,
      "talkAssetPath": "",
      "talkAssetPathAlter": "",
      "talkAudioName": "",
      "actionBefore": "",
      "actionWhile": "",
      "actionAfter": "",
      "optionIcon": "",
      "iconPath": ""
    },
    {
      "id": 150000419,
      "nextDialogs": [
        150000420
      ],
      "talkRole": {
        "type": "TALK_ROLE_NPC",
        "_id": "1005"
      },
      "talkContentTextMapHash": 1641896138,
      "talkAssetPath": "",
      "talkAssetPathAlter": "",
      "talkAudioName": "",
      "actionBefore": "",
      "actionWhile": "",
      "actionAfter": "",
      "optionIcon": "",
      "iconPath": ""
    },
    {
      "id": 150000420,
      "nextDialogs": [
        150000421
      ],
      "talkRole": {
        "type": "TALK_ROLE_NPC",
        "_id": "14221"
      },
      "talkContentTextMapHash": 3432268650,
      "talkAssetPath": "",
      "talkAssetPathAlter": "",
      "talkAudioName": "",
      "actionBefore": "",
      "actionWhile": "",
      "actionAfter": "",
      "optionIcon": "",
      "iconPath": ""
    },
    {
      "id": 150000421,
      "nextDialogs": [
        150000422
      ],
      "talkRole": {
        "type": "TALK_ROLE_NPC",
        "_id": "1005"
      },
      "talkContentTextMapHash": 3791180482,
      "talkAssetPath": "",
      "talkAssetPathAlter": "",
      "talkAudioName": "",
      "actionBefore": "",
      "actionWhile": "",
      "actionAfter": "",
      "optionIcon": "",
      "iconPath": ""
    },
    {
      "id": 150000422,
      "nextDialogs": [
        150000423
      ],
      "talkRole": {
        "type": "TALK_ROLE_NPC",
        "_id": "14221"
      },
      "talkContentTextMapHash": 1966658586,
      "talkAssetPath": "",
      "talkAssetPathAlter": "",
      "talkAudioName": "",
      "actionBefore": "",
      "actionWhile": "",
      "actionAfter": "",
      "optionIcon": "",
      "iconPath": ""
    },
    {
      "id": 150000423,
      "nextDialogs": [
        150000424
      ],
      "talkRole": {
        "type": "TALK_ROLE_NPC",
        "_id": "1005"
      },
      "talkContentTextMapHash": 2582626994,
      "talkAssetPath": "",
      "talkAssetPathAlter": "",
      "talkAudioName": "",
      "actionBefore": "",
      "actionWhile": "",
      "actionAfter": "",
      "optionIcon": "",
      "iconPath": ""
    },
    {
      "id": 150000424,
      "nextDialogs": [
        150000425
      ],
      "talkRole": {
        "type": "TALK_ROLE_NPC",
        "_id": "14221"
      },
      "talkContentTextMapHash": 2750697762,
      "talkAssetPath": "",
      "talkAssetPathAlter": "",
      "talkAudioName": "",
      "actionBefore": "",
      "actionWhile": "",
      "actionAfter": "",
      "optionIcon": "",
      "iconPath": ""
    },
    {
      "id": 150000425,
      "talkRole": {
        "type": "TALK_ROLE_NPC",
        "_id": "14221"
      },
      "talkContentTextMapHash": 1530825842,
      "talkAssetPath": "",
      "talkAssetPathAlter": "",
      "talkAudioName": "",
      "actionBefore": "",
      "actionWhile": "",
      "actionAfter": "",
      "optionIcon": "",
      "iconPath": ""
    },
    {
      "id": 150000411,
      "nextDialogs": [
        150000412
      ],
      "talkRole": {
        "type": "TALK_ROLE_PLAYER",
        "_id": ""
      },
      "talkContentTextMapHash": 933829786,
      "talkAssetPath": "",
      "talkAssetPathAlter": "",
      "talkAudioName": "",
      "actionBefore": "",
      "actionWhile": "",
      "actionAfter": "",
      "optionIcon": "",
      "iconPath": ""
    },
    {
      "id": 150000412,
      "nextDialogs": [
        150000413
      ],
      "talkRole": {
        "type": "TALK_ROLE_NPC",
        "_id": "14221"
      },
      "talkContentTextMapHash": 1669821634,
      "talkAssetPath": "",
      "talkAssetPathAlter": "",
      "talkAudioName": "",
      "actionBefore": "",
      "actionWhile": "",
      "actionAfter": "",
      "optionIcon": "",
      "iconPath": ""
    }
  ]
}