{
  "talkId": 1500101,
  "dialogList": [
    {
      "id": 150010101,
      "nextDialogs": [
        150010102
      ],
      "talkRole": {
        "type": "TALK_ROLE_NPC",
        "_id": "14145"
      },
      "talkContentTextMapHash": 1144607202,
      "talkAssetPath": "",
      "talkAssetPathAlter": "",
      "talkAudioName": "",
      "actionBefore": "",
      "actionWhile": "",
      "actionAfter": "",
      "optionIcon": "",
      "PEMKNDAABBE": 2064620084,
      "iconPath": ""
    },
    {
      "id": 150010102,
      "nextDialogs": [
        150010103
      ],
      "talkRole": {
        "type": "TALK_ROLE_NPC",
        "_id": "14151"
      },
      "talkContentTextMapHash": 3858712114,
      "talkAssetPath": "",
      "talkAssetPathAlter": "",
      "talkAudioName": "",
      "actionBefore": "",
      "actionWhile": "",
      "actionAfter": "",
      "optionIcon": "",
      "iconPath": ""
    },
    {
      "id": 150010103,
      "nextDialogs": [
        150010104
      ],
      "talkRole": {
        "type": "TALK_ROLE_NPC",
        "_id": "14145"
      },
      "talkContentTextMapHash": 3952854434,
      "talkAssetPath": "",
      "talkAssetPathAlter": "",
      "talkAudioName": "",
      "actionBefore": "",
      "actionWhile": "",
      "actionAfter": "",
      "optionIcon": "",
      "PEMKNDAABBE": 1913533180,
      "iconPath": ""
    },
    {
      "id": 150010104,
      "nextDialogs": [
        150010105
      ],
      "talkRole": {
        "type": "TALK_ROLE_NPC",
        "_id": "14151"
      },
      "talkContentTextMapHash": 1042645186,
      "talkAssetPath": "",
      "talkAssetPathAlter": "",
      "talkAudioName": "",
      "actionBefore": "",
      "actionWhile": "",
      "actionAfter": "",
      "optionIcon": "",
      "iconPath": ""
    },
    {
      "id": 150010105,
      "nextDialogs": [
        150010106
      ],
      "talkRole": {
        "type": "TALK_ROLE_NPC",
        "_id": "14145"
      },
      "talkContentTextMapHash": 1724250330,
      "talkAssetPath": "",
      "talkAssetPathAlter": "",
      "talkAudioName": "",
      "actionBefore": "",
      "actionWhile": "",
      "actionAfter": "",
      "optionIcon": "",
      "PEMKNDAABBE": 3037414228,
      "iconPath": ""
    },
    {
      "id": 150010106,
      "nextDialogs": [
        150010107
      ],
      "talkRole": {
        "type": "TALK_ROLE_NPC",
        "_id": "14151"
      },
      "talkContentTextMapHash": 2886791850,
      "talkAssetPath": "",
      "talkAssetPathAlter": "",
      "talkAudioName": "",
      "actionBefore": "",
      "actionWhile": "",
      "actionAfter": "",
      "optionIcon": "",
      "iconPath": ""
    },
    {
      "id": 150010107,
      "nextDialogs": [
        150010108
      ],
      "talkRole": {
        "type": "TALK_ROLE_NPC",
        "_id": "1005"
      },
      "talkContentTextMapHash": 1764923466,
      "talkAssetPath": "",
      "talkAssetPathAlter": "",
      "talkAudioName": "",
      "actionBefore": "",
      "actionWhile": "",
      "actionAfter": "",
      "optionIcon": "",
      "iconPath": ""
    },
    {
      "id": 150010108,
      "nextDialogs": [
        150010109
      ],
      "talkRole": {
        "type": "TALK_ROLE_NPC",
        "_id": "14151"
      },
      "talkContentTextMapHash": 143414322,
      "talkAssetPath": "",
      "talkAssetPathAlter": "",
      "talkAudioName": "",
      "actionBefore": "",
      "actionWhile": "",
      "actionAfter": "",
      "optionIcon": "",
      "iconPath": ""
    },
    {
      "id": 150010109,
      "nextDialogs": [
        150010110
      ],
      "talkRole": {
        "type": "TALK_ROLE_NPC",
        "_id": "14145"
      },
      "talkContentTextMapHash": 3495461530,
      "talkAssetPath": "",
      "talkAssetPathAlter": "",
      "talkAudioName": "",
      "actionBefore": "",
      "actionWhile": "",
      "actionAfter": "",
      "optionIcon": "",
      "PEMKNDAABBE": 22352388,
      "iconPath": ""
    },
    {
      "id": 150010110,
      "nextDialogs": [
        150010111
      ],
      "talkRole": {
        "type": "TALK_ROLE_NPC",
        "_id": "14145"
      },
      "talkContentTextMapHash": 1669568946,
      "talkAssetPath": "",
      "talkAssetPathAlter": "",
      "talkAudioName": "",
      "actionBefore": "",
      "actionWhile": "",
      "actionAfter": "",
      "optionIcon": "",
      "PEMKNDAABBE": 459917780,
      "iconPath": ""
    },
    {
      "id": 150010111,
      "nextDialogs": [
        150010112,
        150010115
      ],
      "talkRole": {
        "type": "TALK_ROLE_NPC",
        "_id": "14145"
      },
      "talkContentTextMapHash": 1011062098,
      "talkAssetPath": "",
      "talkAssetPathAlter": "",
      "talkAudioName": "",
      "actionBefore": "",
      "actionWhile": "",
      "actionAfter": "",
      "optionIcon": "",
      "PEMKNDAABBE": 1124070404,
      "iconPath": ""
    },
    {
      "id": 150010112,
      "nextDialogs": [
        150010113
      ],
      "talkRole": {
        "type": "TALK_ROLE_PLAYER",
        "_id": ""
      },
      "talkContentTextMapHash": 155135650,
      "talkAssetPath": "",
      "talkAssetPathAlter": "",
      "talkAudioName": "",
      "actionBefore": "",
      "actionWhile": "",
      "actionAfter": "",
      "optionIcon": "",
      "iconPath": ""
    },
    {
      "id": 150010113,
      "nextDialogs": [
        150010114
      ],
      "talkRole": {
        "type": "TALK_ROLE_NPC",
        "_id": "1005"
      },
      "talkContentTextMapHash": 1571208410,
      "talkAssetPath": "",
      "talkAssetPathAlter": "",
      "talkAudioName": "",
      "actionBefore": "",
      "actionWhile": "",
      "actionAfter": "",
      "optionIcon": "",
      "iconPath": ""
    },
    {
      "id": 150010114,
      "nextDialogs": [
        150010117
      ],
      "talkRole": {
        "type": "TALK_ROLE_NPC",
        "_id": "14145"
      },
      "talkContentTextMapHash": 776205426,
      "talkAssetPath": "",
      "talkAssetPathAlter": "",
      "talkAudioName": "",
      "actionBefore": "",
      "actionWhile": "",
      "actionAfter": "",
      "optionIcon": "",
      "PEMKNDAABBE": 1812948532,
      "iconPath": ""
    },
    {
      "id": 150010117,
      "nextDialogs": [
        150010118
      ],
      "talkRole": {
        "type": "TALK_ROLE_NPC",
        "_id": "14151"
      },
      "talkContentTextMapHash": 3056831570,
      "talkAssetPath": "",
      "talkAssetPathAlter": "",
      "talkAudioName": "",
      "actionBefore": "",
      "actionWhile": "",
      "actionAfter": "",
      "optionIcon": "",
      "iconPath": ""
    },
    {
      "id": 150010118,
      "nextDialogs": [
        150010119
      ],
      "talkRole": {
        "type": "TALK_ROLE_NPC",
        "_id": "14145"
      },
      "talkContentTextMapHash": 246492090,
      "talkAssetPath": "",
      "talkAssetPathAlter": "",
      "talkAudioName": "",
      "actionBefore": "",
      "actionWhile": "",
      "actionAfter": "",
      "optionIcon": "",
      "PEMKNDAABBE": 4021545668,
      "iconPath": ""
    },
    {
      "id": 150010119,
      "nextDialogs": [
        150010120
      ],
      "talkRole": {
        "type": "TALK_ROLE_NPC",
        "_id": "14145"
      },
      "talkContentTextMapHash": 241924666,
      "talkAssetPath": "",
      "talkAssetPathAlter": "",
      "talkAudioName": "",
      "actionBefore": "",
      "actionWhile": "",
      "actionAfter": "",
      "optionIcon": "",
      "PEMKNDAABBE": 3279406540,
      "iconPath": ""
    },
    {
      "id": 150010120,
      "nextDialogs": [
        150010121
      ],
      "talkShowType": "TALK_SHOW_FORCE_SELECT",
      "talkRole": {
        "type": "TALK_ROLE_PLAYER",
        "_id": ""
      },
      "talkContentTextMapHash": 1309090562,
      "talkAssetPath": "",
      "talkAssetPathAlter": "",
      "talkAudioName": "",
      "actionBefore": "",
      "actionWhile": "",
      "actionAfter": "",
      "optionIcon": "",
      "iconPath": ""
    },
    {
      "id": 150010121,
      "nextDialogs": [
        150010122
      ],
      "talkRole": {
        "type": "TALK_ROLE_NPC",
        "_id": "1005"
      },
      "talkContentTextMapHash": 1991108162,
      "talkAssetPath": "",
      "talkAssetPathAlter": "",
      "talkAudioName": "",
      "actionBefore": "",
      "actionWhile": "",
      "actionAfter": "",
      "optionIcon": "",
      "iconPath": ""
    },
    {
      "id": 150010122,
      "nextDialogs": [
        150010123
      ],
      "talkRole": {
        "type": "TALK_ROLE_NPC",
        "_id": "14145"
      },
      "talkContentTextMapHash": 1539824890,
      "talkAssetPath": "",
      "talkAssetPathAlter": "",
      "talkAudioName": "",
      "actionBefore": "",
      "actionWhile": "",
      "actionAfter": "",
      "optionIcon": "",
      "PEMKNDAABBE": 167983284,
      "iconPath": ""
    },
    {
      "id": 150010123,
      "nextDialogs": [
        150010124
      ],
      "talkRole": {
        "type": "TALK_ROLE_NPC",
        "_id": "14145"
      },
      "talkContentTextMapHash": 1074875250,
      "talkAssetPath": "",
      "talkAssetPathAlter": "",
      "talkAudioName": "",
      "actionBefore": "",
      "actionWhile": "",
      "actionAfter": "",
      "optionIcon": "",
      "PEMKNDAABBE": 205445060,
      "iconPath": ""
    },
    {
      "id": 150010124,
      "nextDialogs": [
        150010125
      ],
      "talkRole": {
        "type": "TALK_ROLE_NPC",
        "_id": "1005"
      },
      "talkContentTextMapHash": 3348140434,
      "talkAssetPath": "",
      "talkAssetPathAlter": "",
      "talkAudioName": "",
      "actionBefore": "",
      "actionWhile": "",
      "actionAfter": "",
      "optionIcon": "",
      "iconPath": ""
    },
    {
      "id": 150010125,
      "nextDialogs": [
        150010126
      ],
      "talkRole": {
        "type": "TALK_ROLE_NPC",
        "_id": "14145"
      },
      "talkContentTextMapHash": 369483858,
      "talkAssetPath": "",
      "talkAssetPathAlter": "",
      "talkAudioName": "",
      "actionBefore": "",
      "actionWhile": "",
      "actionAfter": "",
      "optionIcon": "",
      "PEMKNDAABBE": 3412973204,
      "iconPath": ""
    },
    {
      "id": 150010126,
      "nextDialogs": [
        150010127
      ],
      "talkRole": {
        "type": "TALK_ROLE_NPC",
        "_id": "1005"
      },
      "talkContentTextMapHash": 1376740186,
      "talkAssetPath": "",
      "talkAssetPathAlter": "",
      "talkAudioName": "",
      "actionBefore": "",
      "actionWhile": "",
      "actionAfter": "",
      "optionIcon": "",
      "iconPath": ""
    },
    {
      "id": 150010127,
      "nextDialogs": [
        150010128
      ],
      "talkRole": {
        "type": "TALK_ROLE_NPC",
        "_id": "14145"
      },
      "talkContentTextMapHash": 2254513522,
      "talkAssetPath": "",
      "talkAssetPathAlter": "",
      "talkAudioName": "",
      "actionBefore": "",
      "actionWhile": "",
      "actionAfter": "",
      "optionIcon": "",
      "PEMKNDAABBE": 4001971972,
      "iconPath": ""
    },
    {
      "id": 150010128,
      "nextDialogs": [
        150010129
      ],
      "talkShowType": "TALK_SHOW_FORCE_SELECT",
      "talkRole": {
        "type": "TALK_ROLE_PLAYER",
        "_id": ""
      },
      "talkContentTextMapHash": 2823962986,
      "talkAssetPath": "",
      "talkAssetPathAlter": "",
      "talkAudioName": "",
      "actionBefore": "",
      "actionWhile": "",
      "actionAfter": "",
      "optionIcon": "",
      "iconPath": ""
    },
    {
      "id": 150010129,
      "nextDialogs": [
        150010130
      ],
      "talkRole": {
        "type": "TALK_ROLE_NPC",
        "_id": "14145"
      },
      "talkContentTextMapHash": 903168298,
      "talkAssetPath": "",
      "talkAssetPathAlter": "",
      "talkAudioName": "",
      "actionBefore": "",
      "actionWhile": "",
      "actionAfter": "",
      "optionIcon": "",
      "PEMKNDAABBE": 1186888324,
      "iconPath": ""
    },
    {
      "id": 150010130,
      "nextDialogs": [
        150010131
      ],
      "talkRole": {
        "type": "TALK_ROLE_NPC",
        "_id": "14145"
      },
      "talkContentTextMapHash": 3751434642,
      "talkAssetPath": "",
      "talkAssetPathAlter": "",
      "talkAudioName": "",
      "actionBefore": "",
      "actionWhile": "",
      "actionAfter": "",
      "optionIcon": "",
      "PEMKNDAABBE": 3652769508,
      "iconPath": ""
    },
    {
      "id": 150010131,
      "nextDialogs": [
        150010132
      ],
      "talkRole": {
        "type": "TALK_ROLE_NPC",
        "_id": "14151"
      },
      "talkContentTextMapHash": 4194044218,
      "talkAssetPath": "",
      "talkAssetPathAlter": "",
      "talkAudioName": "",
      "actionBefore": "",
      "actionWhile": "",
      "actionAfter": "",
      "optionIcon": "",
      "iconPath": ""
    },
    {
      "id": 150010132,
      "nextDialogs": [
        150010133
      ],
      "talkRole": {
        "type": "TALK_ROLE_NPC",
        "_id": "1005"
      },
      "talkContentTextMapHash": 169280618,
      "talkAssetPath": "",
      "talkAssetPathAlter": "",
      "talkAudioName": "",
      "actionBefore": "",
      "actionWhile": "",
      "actionAfter": "",
      "optionIcon": "",
      "iconPath": ""
    },
    {
      "id": 150010133,
      "nextDialogs": [
        150010134
      ],
      "talkRole": {
        "type": "TALK_ROLE_NPC",
        "_id": "14145"
      },
      "talkContentTextMapHash": 2750454402,
      "talkAssetPath": "",
      "talkAssetPathAlter": "",
      "talkAudioName": "",
      "actionBefore": "",
      "actionWhile": "",
      "actionAfter": "",
      "optionIcon": "",
      "PEMKNDAABBE": 3349474356,
      "iconPath": ""
    },
    {
      "id": 150010134,
      "nextDialogs": [
        150010135
      ],
      "talkRole": {
        "type": "TALK_ROLE_NPC",
        "_id": "14145"
      },
      "talkContentTextMapHash": 2585559698,
      "talkAssetPath": "",
      "talkAssetPathAlter": "",
      "talkAudioName": "",
      "actionBefore": "",
      "actionWhile": "",
      "actionAfter": "",
      "optionIcon": "",
      "PEMKNDAABBE": 1817419596,
      "iconPath": ""
    },
    {
      "id": 150010135,
      "nextDialogs": [
        150010136
      ],
      "talkRole": {
        "type": "TALK_ROLE_NPC",
        "_id": "14145"
      },
      "talkContentTextMapHash": 756931602,
      "talkAssetPath": "",
      "talkAssetPathAlter": "",
      "talkAudioName": "",
      "actionBefore": "",
      "actionWhile": "",
      "actionAfter": "",
      "optionIcon": "",
      "PEMKNDAABBE": 1445550692,
      "iconPath": ""
    },
    {
      "id": 150010136,
      "nextDialogs": [
        150010137
      ],
      "talkRole": {
        "type": "TALK_ROLE_NPC",
        "_id": "14145"
      },
      "talkContentTextMapHash": 1722450826,
      "talkAssetPath": "",
      "talkAssetPathAlter": "",
      "talkAudioName": "",
      "actionBefore": "",
      "actionWhile": "",
      "actionAfter": "",
      "optionIcon": "",
      "PEMKNDAABBE": 3138724076,
      "iconPath": ""
    },
    {
      "id": 150010137,
      "nextDialogs": [
        150010138
      ],
      "talkRole": {
        "type": "TALK_ROLE_NPC",
        "_id": "14145"
      },
      "talkContentTextMapHash": 62498738,
      "talkAssetPath": "",
      "talkAssetPathAlter": "",
      "talkAudioName": "",
      "actionBefore": "",
      "actionWhile": "",
      "actionAfter": "",
      "optionIcon": "",
      "PEMKNDAABBE": 2562431628,
      "iconPath": ""
    },
    {
      "id": 150010138,
      "nextDialogs": [
        150010139
      ],
      "talkShowType": "TALK_SHOW_FORCE_SELECT",
      "talkRole": {
        "type": "TALK_ROLE_PLAYER",
        "_id": ""
      },
      "talkContentTextMapHash": 2018050866,
      "talkAssetPath": "",
      "talkAssetPathAlter": "",
      "talkAudioName": "",
      "actionBefore": "",
      "actionWhile": "",
      "actionAfter": "",
      "optionIcon": "",
      "iconPath": ""
    },
    {
      "id": 150010139,
      "nextDialogs": [
        150010140
      ],
      "talkRole": {
        "type": "TALK_ROLE_NPC",
        "_id": "14145"
      },
      "talkContentTextMapHash": 1685400242,
      "talkAssetPath": "",
      "talkAssetPathAlter": "",
      "talkAudioName": "",
      "actionBefore": "",
      "actionWhile": "",
      "actionAfter": "",
      "optionIcon": "",
      "PEMKNDAABBE": 540020716,
      "iconPath": ""
    },
    {
      "id": 150010140,
      "nextDialogs": [
        150010141
      ],
      "talkRole": {
        "type": "TALK_ROLE_NPC",
        "_id": "14145"
      },
      "talkContentTextMapHash": 529951314,
      "talkAssetPath": "",
      "talkAssetPathAlter": "",
      "talkAudioName": "",
      "actionBefore": "",
      "actionWhile": "",
      "actionAfter": "",
      "optionIcon": "",
      "PEMKNDAABBE": 2904589788,
      "iconPath": ""
    },
    {
      "id": 150010141,
      "nextDialogs": [
        150010142
      ],
      "talkRole": {
        "type": "TALK_ROLE_NPC",
        "_id": "14145"
      },
      "talkContentTextMapHash": 4036542234,
      "talkAssetPath": "",
      "talkAssetPathAlter": "",
      "talkAudioName": "",
      "actionBefore": "",
      "actionWhile": "",
      "actionAfter": "",
      "optionIcon": "",
      "PEMKNDAABBE": 3336719380,
      "iconPath": ""
    },
    {
      "id": 150010142,
      "nextDialogs": [
        150010143
      ],
      "talkRole": {
        "type": "TALK_ROLE_NPC",
        "_id": "14145"
      },
      "talkContentTextMapHash": 1340740442,
      "talkAssetPath": "",
      "talkAssetPathAlter": "",
      "talkAudioName": "",
      "actionBefore": "",
      "actionWhile": "",
      "actionAfter": "",
      "optionIcon": "",
      "PEMKNDAABBE": 40536260,
      "iconPath": ""
    },
    {
      "id": 150010143,
      "nextDialogs": [
        150010144
      ],
      "talkRole": {
        "type": "TALK_ROLE_NPC",
        "_id": "14145"
      },
      "talkContentTextMapHash": 1258780490,
      "talkAssetPath": "",
      "talkAssetPathAlter": "",
      "talkAudioName": "",
      "actionBefore": "",
      "actionWhile": "",
      "actionAfter": "",
      "optionIcon": "",
      "PEMKNDAABBE": 2715679988,
      "iconPath": ""
    },
    {
      "id": 150010144,
      "nextDialogs": [
        150010145
      ],
      "talkRole": {
        "type": "TALK_ROLE_NPC",
        "_id": "1005"
      },
      "talkContentTextMapHash": 4092519530,
      "talkAssetPath": "",
      "talkAssetPathAlter": "",
      "talkAudioName": "",
      "actionBefore": "",
      "actionWhile": "",
      "actionAfter": "",
      "optionIcon": "",
      "iconPath": ""
    },
    {
      "id": 150010145,
      "nextDialogs": [
        150010146
      ],
      "talkRole": {
        "type": "TALK_ROLE_NPC",
        "_id": "14145"
      },
      "talkContentTextMapHash": 1189528978,
      "talkAssetPath": "",
      "talkAssetPathAlter": "",
      "talkAudioName": "",
      "actionBefore": "",
      "actionWhile": "",
      "actionAfter": "",
      "optionIcon": "",
      "PEMKNDAABBE": 2530937236,
      "iconPath": ""
    },
    {
      "id": 150010146,
      "nextDialogs": [
        150010147
      ],
      "talkRole": {
        "type": "TALK_ROLE_NPC",
        "_id": "14145"
      },
      "talkContentTextMapHash": 4207120986,
      "talkAssetPath": "",
      "talkAssetPathAlter": "",
      "talkAudioName": "",
      "actionBefore": "",
      "actionWhile": "",
      "actionAfter": "",
      "optionIcon": "",
      "PEMKNDAABBE": 1626435436,
      "iconPath": ""
    },
    {
      "id": 150010147,
      "nextDialogs": [
        150010148
      ],
      "talkRole": {
        "type": "TALK_ROLE_NPC",
        "_id": "1005"
      },
      "talkContentTextMapHash": 2698592226,
      "talkAssetPath": "",
      "talkAssetPathAlter": "",
      "talkAudioName": "",
      "actionBefore": "",
      "actionWhile": "",
      "actionAfter": "",
      "optionIcon": "",
      "iconPath": ""
    },
    {
      "id": 150010148,
      "nextDialogs": [
        150010149
      ],
      "talkRole": {
        "type": "TALK_ROLE_NPC",
        "_id": "14145"
      },
      "talkContentTextMapHash": 285840066,
      "talkAssetPath": "",
      "talkAssetPathAlter": "",
      "talkAudioName": "",
      "actionBefore": "",
      "actionWhile": "",
      "actionAfter": "",
      "optionIcon": "",
      "PEMKNDAABBE": 3412593284,
      "iconPath": ""
    },
    {
      "id": 150010149,
      "nextDialogs": [
        150010150
      ],
      "talkRole": {
        "type": "TALK_ROLE_NPC",
        "_id": "14145"
      },
      "talkContentTextMapHash": 734933394,
      "talkAssetPath": "",
      "talkAssetPathAlter": "",
      "talkAudioName": "",
      "actionBefore": "",
      "actionWhile": "",
      "actionAfter": "",
      "optionIcon": "",
      "PEMKNDAABBE": 3198001132,
      "iconPath": ""
    },
    {
      "id": 150010150,
      "nextDialogs": [
        150010151
      ],
      "talkShowType": "TALK_SHOW_FORCE_SELECT",
      "talkRole": {
        "type": "TALK_ROLE_PLAYER",
        "_id": ""
      },
      "talkContentTextMapHash": 2922762826,
      "talkAssetPath": "",
      "talkAssetPathAlter": "",
      "talkAudioName": "",
      "actionBefore": "",
      "actionWhile": "",
      "actionAfter": "",
      "optionIcon": "",
      "iconPath": ""
    },
    {
      "id": 150010151,
      "nextDialogs": [
        150010152
      ],
      "talkRole": {
        "type": "TALK_ROLE_NPC",
        "_id": "14145"
      },
      "talkContentTextMapHash": 461443186,
      "talkAssetPath": "",
      "talkAssetPathAlter": "",
      "talkAudioName": "",
      "actionBefore": "",
      "actionWhile": "",
      "actionAfter": "",
      "optionIcon": "",
      "PEMKNDAABBE": 973326172,
      "iconPath": ""
    },
    {
      "id": 150010152,
      "nextDialogs": [
        150010153
      ],
      "talkRole": {
        "type": "TALK_ROLE_NPC",
        "_id": "1005"
      },
      "talkContentTextMapHash": 66208890,
      "talkAssetPath": "",
      "talkAssetPathAlter": "",
      "talkAudioName": "",
      "actionBefore": "",
      "actionWhile": "",
      "actionAfter": "",
      "optionIcon": "",
      "iconPath": ""
    },
    {
      "id": 150010153,
      "nextDialogs": [
        150010154
      ],
      "talkRole": {
        "type": "TALK_ROLE_NPC",
        "_id": "14145"
      },
      "talkContentTextMapHash": 2725077442,
      "talkAssetPath": "",
      "talkAssetPathAlter": "",
      "talkAudioName": "",
      "actionBefore": "",
      "actionWhile": "",
      "actionAfter": "",
      "optionIcon": "",
      "PEMKNDAABBE": 459387036,
      "iconPath": ""
    },
    {
      "id": 150010154,
      "nextDialogs": [
        150010155,
        150010156
      ],
      "talkRole": {
        "type": "TALK_ROLE_NPC",
        "_id": "14145"
      },
      "talkContentTextMapHash": 151831250,
      "talkAssetPath": "",
      "talkAssetPathAlter": "",
      "talkAudioName": "",
      "actionBefore": "",
      "actionWhile": "",
      "actionAfter": "",
      "optionIcon": "",
      "iconPath": ""
    },
    {
      "id": 150010155,
      "nextDialogs": [
        150010157
      ],
      "talkRole": {
        "type": "TALK_ROLE_PLAYER",
        "_id": ""
      },
      "talkContentTextMapHash": 1817472154,
      "talkAssetPath": "",
      "talkAssetPathAlter": "",
      "talkAudioName": "",
      "actionBefore": "",
      "actionWhile": "",
      "actionAfter": "",
      "optionIcon": "",
      "iconPath": ""
    },
    {
      "id": 150010157,
      "nextDialogs": [
        150010158
      ],
      "talkRole": {
        "type": "TALK_ROLE_NPC",
        "_id": "14145"
      },
      "talkContentTextMapHash": 1307444042,
      "talkAssetPath": "",
      "talkAssetPathAlter": "",
      "talkAudioName": "",
      "actionBefore": "",
      "actionWhile": "",
      "actionAfter": "",
      "optionIcon": "",
      "PEMKNDAABBE": 4091756140,
      "iconPath": ""
    },
    {
      "id": 150010158,
      "nextDialogs": [
        150010159
      ],
      "talkRole": {
        "type": "TALK_ROLE_NPC",
        "_id": "14145"
      },
      "talkContentTextMapHash": 4217123954,
      "talkAssetPath": "",
      "talkAssetPathAlter": "",
      "talkAudioName": "",
      "actionBefore": "",
      "actionWhile": "",
      "actionAfter": "",
      "optionIcon": "",
      "PEMKNDAABBE": 2344169988,
      "iconPath": ""
    },
    {
      "id": 150010159,
      "nextDialogs": [
        150010160
      ],
      "talkRole": {
        "type": "TALK_ROLE_NPC",
        "_id": "1005"
      },
      "talkContentTextMapHash": 2238978962,
      "talkAssetPath": "",
      "talkAssetPathAlter": "",
      "talkAudioName": "",
      "actionBefore": "",
      "actionWhile": "",
      "actionAfter": "",
      "optionIcon": "",
      "iconPath": ""
    },
    {
      "id": 150010160,
      "nextDialogs": [
        150010161,
        150010162,
        150010165
      ],
      "talkRole": {
        "type": "TALK_ROLE_NPC",
        "_id": "14145"
      },
      "talkContentTextMapHash": 3197808762,
      "talkAssetPath": "",
      "talkAssetPathAlter": "",
      "talkAudioName": "",
      "actionBefore": "",
      "actionWhile": "",
      "actionAfter": "",
      "optionIcon": "",
      "PEMKNDAABBE": 1748840828,
      "iconPath": ""
    },
    {
      "id": 150010161,
      "nextDialogs": [
        150010168
      ],
      "talkRole": {
        "type": "TALK_ROLE_PLAYER",
        "_id": ""
      },
      "talkContentTextMapHash": 2187515442,
      "talkAssetPath": "",
      "talkAssetPathAlter": "",
      "talkAudioName": "",
      "actionBefore": "",
      "actionWhile": "",
      "actionAfter": "",
      "optionIcon": "",
      "iconPath": ""
    },
    {
      "id": 150010168,
      "nextDialogs": [
        150010169
      ],
      "talkRole": {
        "type": "TALK_ROLE_NPC",
        "_id": "14145"
      },
      "talkContentTextMapHash": 1921063850,
      "talkAssetPath": "",
      "talkAssetPathAlter": "",
      "talkAudioName": "",
      "actionBefore": "",
      "actionWhile": "",
      "actionAfter": "",
      "optionIcon": "",
      "PEMKNDAABBE": 4162059636,
      "iconPath": ""
    },
    {
      "id": 150010169,
      "talkRole": {
        "type": "TALK_ROLE_NPC",
        "_id": "14145"
      },
      "talkContentTextMapHash": 1374641130,
      "talkAssetPath": "",
      "talkAssetPathAlter": "",
      "talkAudioName": "",
      "actionBefore": "",
      "actionWhile": "",
      "actionAfter": "",
      "optionIcon": "",
      "PEMKNDAABBE": 2204783060,
      "iconPath": ""
    },
    {
      "id": 150010162,
      "nextDialogs": [
        150010163
      ],
      "talkRole": {
        "type": "TALK_ROLE_PLAYER",
        "_id": ""
      },
      "talkContentTextMapHash": 1758865610,
      "talkAssetPath": "",
      "talkAssetPathAlter": "",
      "talkAudioName": "",
      "actionBefore": "",
      "actionWhile": "",
      "actionAfter": "",
      "optionIcon": "",
      "iconPath": ""
    },
    {
      "id": 150010163,
      "nextDialogs": [
        150010164
      ],
      "talkRole": {
        "type": "TALK_ROLE_NPC",
        "_id": "14145"
      },
      "talkContentTextMapHash": 1571306458,
      "talkAssetPath": "",
      "talkAssetPathAlter": "",
      "talkAudioName": "",
      "actionBefore": "",
      "actionWhile": "",
      "actionAfter": "",
      "optionIcon": "",
      "iconPath": ""
    },
    {
      "id": 150010164,
      "nextDialogs": [
        150010168
      ],
      "talkShowType": "TALK_SHOW_FORCE_SELECT",
      "talkRole": {
        "type": "TALK_ROLE_PLAYER",
        "_id": ""
      },
      "talkContentTextMapHash": 2912579002,
      "talkAssetPath": "",
      "talkAssetPathAlter": "",
      "talkAudioName": "",
      "actionBefore": "",
      "actionWhile": "",
      "actionAfter": "",
      "optionIcon": "",
      "iconPath": ""
    },
    {
      "id": 150010165,
      "nextDialogs": [
        150010166
      ],
      "talkRole": {
        "type": "TALK_ROLE_PLAYER",
        "_id": ""
      },
      "talkContentTextMapHash": 3248602266,
      "talkAssetPath": "",
      "talkAssetPathAlter": "",
      "talkAudioName": "",
      "actionBefore": "",
      "actionWhile": "",
      "actionAfter": "",
      "optionIcon": "",
      "iconPath": ""
    },
    {
      "id": 150010166,
      "nextDialogs": [
        150010167
      ],
      "talkRole": {
        "type": "TALK_ROLE_NPC",
        "_id": "14145"
      },
      "talkContentTextMapHash": 3084787914,
      "talkAssetPath": "",
      "talkAssetPathAlter": "",
      "talkAudioName": "",
      "actionBefore": "",
      "actionWhile": "",
      "actionAfter": "",
      "optionIcon": "",
      "PEMKNDAABBE": 3844977596,
      "iconPath": ""
    },
    {
      "id": 150010167,
      "nextDialogs": [
        150010168
      ],
      "talkShowType": "TALK_SHOW_FORCE_SELECT",
      "talkRole": {
        "type": "TALK_ROLE_PLAYER",
        "_id": ""
      },
      "talkContentTextMapHash": 1035058306,
      "talkAssetPath": "",
      "talkAssetPathAlter": "",
      "talkAudioName": "",
      "actionBefore": "",
      "actionWhile": "",
      "actionAfter": "",
      "optionIcon": "",
      "iconPath": ""
    },
    {
      "id": 150010156,
      "nextDialogs": [
        150010157
      ],
      "talkRole": {
        "type": "TALK_ROLE_PLAYER",
        "_id": ""
      },
      "talkContentTextMapHash": 945330090,
      "talkAssetPath": "",
      "talkAssetPathAlter": "",
      "talkAudioName": "",
      "actionBefore": "",
      "actionWhile": "",
      "actionAfter": "",
      "optionIcon": "",
      "iconPath": ""
    },
    {
      "id": 150010115,
      "nextDialogs": [
        150010116
      ],
      "talkRole": {
        "type": "TALK_ROLE_PLAYER",
        "_id": ""
      },
      "talkContentTextMapHash": 1281395602,
      "talkAssetPath": "",
      "talkAssetPathAlter": "",
      "talkAudioName": "",
      "actionBefore": "",
      "actionWhile": "",
      "actionAfter": "",
      "optionIcon": "",
      "iconPath": ""
    },
    {
      "id": 150010116,
      "nextDialogs": [
        150010117
      ],
      "talkRole": {
        "type": "TALK_ROLE_NPC",
        "_id": "14145"
      },
      "talkContentTextMapHash": 3589515818,
      "talkAssetPath": "",
      "talkAssetPathAlter": "",
      "talkAudioName": "",
      "actionBefore": "",
      "actionWhile": "",
      "actionAfter": "",
      "optionIcon": "",
      "PEMKNDAABBE": 4205749452,
      "iconPath": ""
    }
  ]
}