{
  "talkId": 1905455,
  "dialogList": [
    {
      "id": 190545501,
      "talkRole": {
        "type": "TALK_ROLE_NPC",
        "_id": "12226"
      },
      "talkContentTextMapHash": 897209114,
      "talkAssetPath": "",
      "talkAssetPathAlter": "",
      "talkAudioName": "",
      "actionBefore": "",
      "actionWhile": "",
      "actionAfter": "",
      "optionIcon": "",
      "iconPath": ""
    }
  ]
}