{
  "talkId": 4013937,
  "dialogList": [
    {
      "id": 401390201,
      "nextDialogs": [
        401390202
      ],
      "talkRole": {
        "type": "TALK_ROLE_NPC",
        "_id": "13853"
      },
      "talkContentTextMapHash": 2530053370,
      "talkRoleNameTextMapHash": 3055729043,
      "talkAssetPath": "",
      "talkAssetPathAlter": "",
      "talkAudioName": "",
      "actionBefore": "",
      "actionWhile": "",
      "actionAfter": "",
      "optionIcon": "",
      "iconPath": ""
    },
    {
      "id": 401390202,
      "nextDialogs": [
        401390203
      ],
      "talkRole": {
        "type": "TALK_ROLE_NPC",
        "_id": "13854"
      },
      "talkContentTextMapHash": 2647876490,
      "talkRoleNameTextMapHash": 3624709243,
      "talkAssetPath": "",
      "talkAssetPathAlter": "",
      "talkAudioName": "",
      "actionBefore": "",
      "actionWhile": "",
      "actionAfter": "",
      "optionIcon": "",
      "iconPath": ""
    },
    {
      "id": 401390203,
      "nextDialogs": [
        401390204
      ],
      "talkRole": {
        "type": "TALK_ROLE_NPC",
        "_id": "1005"
      },
      "talkContentTextMapHash": 1293183210,
      "talkAssetPath": "",
      "talkAssetPathAlter": "",
      "talkAudioName": "",
      "actionBefore": "",
      "actionWhile": "",
      "actionAfter": "",
      "optionIcon": "",
      "iconPath": ""
    },
    {
      "id": 401390204,
      "nextDialogs": [
        401390205
      ],
      "talkRole": {
        "type": "TALK_ROLE_NPC",
        "_id": "1005"
      },
      "talkContentTextMapHash": 4132104122,
      "talkAssetPath": "",
      "talkAssetPathAlter": "",
      "talkAudioName": "",
      "actionBefore": "",
      "actionWhile": "",
      "actionAfter": "",
      "optionIcon": "",
      "iconPath": ""
    },
    {
      "id": 401390205,
      "nextDialogs": [
        401390206
      ],
      "talkRole": {
        "type": "TALK_ROLE_NPC",
        "_id": "1005"
      },
      "talkContentTextMapHash": 153891050,
      "talkAssetPath": "",
      "talkAssetPathAlter": "",
      "talkAudioName": "",
      "actionBefore": "",
      "actionWhile": "",
      "actionAfter": "",
      "optionIcon": "",
      "iconPath": ""
    },
    {
      "id": 401390206,
      "nextDialogs": [
        401390207
      ],
      "talkRole": {
        "type": "TALK_ROLE_NPC",
        "_id": "13853"
      },
      "talkContentTextMapHash": 3940853170,
      "talkRoleNameTextMapHash": 2584910403,
      "talkAssetPath": "",
      "talkAssetPathAlter": "",
      "talkAudioName": "",
      "actionBefore": "",
      "actionWhile": "",
      "actionAfter": "",
      "optionIcon": "",
      "iconPath": ""
    },
    {
      "id": 401390207,
      "nextDialogs": [
        401390208
      ],
      "talkRole": {
        "type": "TALK_ROLE_NPC",
        "_id": "13854"
      },
      "talkContentTextMapHash": 2315609786,
      "talkRoleNameTextMapHash": 11052723,
      "talkAssetPath": "",
      "talkAssetPathAlter": "",
      "talkAudioName": "",
      "actionBefore": "",
      "actionWhile": "",
      "actionAfter": "",
      "optionIcon": "",
      "iconPath": ""
    },
    {
      "id": 401390208,
      "nextDialogs": [
        401390209
      ],
      "talkRole": {
        "type": "TALK_ROLE_NPC",
        "_id": "13854"
      },
      "talkContentTextMapHash": 3159532994,
      "talkRoleNameTextMapHash": 1167536675,
      "talkAssetPath": "",
      "talkAssetPathAlter": "",
      "talkAudioName": "",
      "actionBefore": "",
      "actionWhile": "",
      "actionAfter": "",
      "optionIcon": "",
      "PEMKNDAABBE": 1294490292,
      "iconPath": ""
    },
    {
      "id": 401390209,
      "nextDialogs": [
        401390210
      ],
      "talkShowType": "TALK_SHOW_FORCE_SELECT",
      "talkRole": {
        "type": "TALK_ROLE_PLAYER",
        "_id": ""
      },
      "talkContentTextMapHash": 315926322,
      "talkAssetPath": "",
      "talkAssetPathAlter": "",
      "talkAudioName": "",
      "actionBefore": "",
      "actionWhile": "",
      "actionAfter": "",
      "optionIcon": "",
      "iconPath": ""
    },
    {
      "id": 401390210,
      "nextDialogs": [
        401390211
      ],
      "talkRole": {
        "type": "TALK_ROLE_NPC",
        "_id": "1005"
      },
      "talkContentTextMapHash": 2290366098,
      "talkAssetPath": "",
      "talkAssetPathAlter": "",
      "talkAudioName": "",
      "actionBefore": "",
      "actionWhile": "",
      "actionAfter": "",
      "optionIcon": "",
      "iconPath": ""
    },
    {
      "id": 401390211,
      "nextDialogs": [
        401390212
      ],
      "talkRole": {
        "type": "TALK_ROLE_NPC",
        "_id": "13853"
      },
      "talkContentTextMapHash": 977380490,
      "talkRoleNameTextMapHash": 1432841843,
      "talkAssetPath": "",
      "talkAssetPathAlter": "",
      "talkAudioName": "",
      "actionBefore": "",
      "actionWhile": "",
      "actionAfter": "",
      "optionIcon": "",
      "iconPath": ""
    },
    {
      "id": 401390212,
      "nextDialogs": [
        401390213
      ],
      "talkRole": {
        "type": "TALK_ROLE_NPC",
        "_id": "1005"
      },
      "talkContentTextMapHash": 615879018,
      "talkAssetPath": "",
      "talkAssetPathAlter": "",
      "talkAudioName": "",
      "actionBefore": "",
      "actionWhile": "",
      "actionAfter": "",
      "optionIcon": "",
      "iconPath": ""
    },
    {
      "id": 401390213,
      "nextDialogs": [
        401390214
      ],
      "talkRole": {
        "type": "TALK_ROLE_NPC",
        "_id": "13853"
      },
      "talkContentTextMapHash": 980883610,
      "talkRoleNameTextMapHash": 207903659,
      "talkAssetPath": "",
      "talkAssetPathAlter": "",
      "talkAudioName": "",
      "actionBefore": "",
      "actionWhile": "",
      "actionAfter": "",
      "optionIcon": "",
      "PEMKNDAABBE": 4017949924,
      "iconPath": ""
    },
    {
      "id": 401390214,
      "nextDialogs": [
        401390215
      ],
      "talkRole": {
        "type": "TALK_ROLE_NPC",
        "_id": "1005"
      },
      "talkContentTextMapHash": 3471601274,
      "talkAssetPath": "",
      "talkAssetPathAlter": "",
      "talkAudioName": "",
      "actionBefore": "",
      "actionWhile": "",
      "actionAfter": "",
      "optionIcon": "",
      "iconPath": ""
    },
    {
      "id": 401390215,
      "nextDialogs": [
        401390216
      ],
      "talkRole": {
        "type": "TALK_ROLE_NPC",
        "_id": "1005"
      },
      "talkContentTextMapHash": 2281787346,
      "talkAssetPath": "",
      "talkAssetPathAlter": "",
      "talkAudioName": "",
      "actionBefore": "",
      "actionWhile": "",
      "actionAfter": "",
      "optionIcon": "",
      "iconPath": ""
    },
    {
      "id": 401390216,
      "nextDialogs": [
        401390217,
        401390218
      ],
      "talkRole": {
        "type": "TALK_ROLE_NPC",
        "_id": "13854"
      },
      "talkContentTextMapHash": 107239530,
      "talkRoleNameTextMapHash": 1035932667,
      "talkAssetPath": "",
      "talkAssetPathAlter": "",
      "talkAudioName": "",
      "actionBefore": "",
      "actionWhile": "",
      "actionAfter": "",
      "optionIcon": "",
      "PEMKNDAABBE": 2104854484,
      "iconPath": ""
    },
    {
      "id": 401390217,
      "nextDialogs": [
        401390219
      ],
      "talkShowType": "TALK_SHOW_FORCE_SELECT",
      "talkRole": {
        "type": "TALK_ROLE_PLAYER",
        "_id": ""
      },
      "talkContentTextMapHash": 3396721634,
      "talkAssetPath": "",
      "talkAssetPathAlter": "",
      "talkAudioName": "",
      "actionBefore": "",
      "actionWhile": "",
      "actionAfter": "",
      "optionIcon": "",
      "iconPath": ""
    },
    {
      "id": 401390219,
      "nextDialogs": [
        401390220
      ],
      "talkRole": {
        "type": "TALK_ROLE_NPC",
        "_id": "1005"
      },
      "talkContentTextMapHash": 3052970466,
      "talkAssetPath": "",
      "talkAssetPathAlter": "",
      "talkAudioName": "",
      "actionBefore": "",
      "actionWhile": "",
      "actionAfter": "",
      "optionIcon": "",
      "iconPath": ""
    },
    {
      "id": 401390220,
      "nextDialogs": [
        401390221
      ],
      "talkRole": {
        "type": "TALK_ROLE_NPC",
        "_id": "13853"
      },
      "talkContentTextMapHash": 5485410,
      "talkRoleNameTextMapHash": 2708613323,
      "talkAssetPath": "",
      "talkAssetPathAlter": "",
      "talkAudioName": "",
      "actionBefore": "",
      "actionWhile": "",
      "actionAfter": "",
      "optionIcon": "",
      "PEMKNDAABBE": 2099493516,
      "iconPath": ""
    },
    {
      "id": 401390221,
      "nextDialogs": [
        401390222
      ],
      "talkRole": {
        "type": "TALK_ROLE_NPC",
        "_id": "13853"
      },
      "talkContentTextMapHash": 3447467410,
      "talkRoleNameTextMapHash": 4260737067,
      "talkAssetPath": "",
      "talkAssetPathAlter": "",
      "talkAudioName": "",
      "actionBefore": "",
      "actionWhile": "",
      "actionAfter": "",
      "optionIcon": "",
      "PEMKNDAABBE": 3465987508,
      "iconPath": ""
    },
    {
      "id": 401390222,
      "nextDialogs": [
        401390223
      ],
      "talkRole": {
        "type": "TALK_ROLE_NPC",
        "_id": "13853"
      },
      "talkContentTextMapHash": 3187838882,
      "talkRoleNameTextMapHash": 368302379,
      "talkAssetPath": "",
      "talkAssetPathAlter": "",
      "talkAudioName": "",
      "actionBefore": "",
      "actionWhile": "",
      "actionAfter": "",
      "optionIcon": "",
      "PEMKNDAABBE": 2388417716,
      "iconPath": ""
    },
    {
      "id": 401390223,
      "nextDialogs": [
        401390224
      ],
      "talkRole": {
        "type": "TALK_ROLE_NPC",
        "_id": "13854"
      },
      "talkContentTextMapHash": 3457937946,
      "talkRoleNameTextMapHash": 1052312475,
      "talkAssetPath": "",
      "talkAssetPathAlter": "",
      "talkAudioName": "",
      "actionBefore": "",
      "actionWhile": "",
      "actionAfter": "",
      "optionIcon": "",
      "PEMKNDAABBE": 2756992636,
      "iconPath": ""
    },
    {
      "id": 401390224,
      "nextDialogs": [
        401390225
      ],
      "talkRole": {
        "type": "TALK_ROLE_NPC",
        "_id": "13853"
      },
      "talkContentTextMapHash": 3866297714,
      "talkRoleNameTextMapHash": 2403503587,
      "talkAssetPath": "",
      "talkAssetPathAlter": "",
      "talkAudioName": "",
      "actionBefore": "",
      "actionWhile": "",
      "actionAfter": "",
      "optionIcon": "",
      "PEMKNDAABBE": 72079428,
      "iconPath": ""
    },
    {
      "id": 401390225,
      "nextDialogs": [
        401390226
      ],
      "talkRole": {
        "type": "TALK_ROLE_NPC",
        "_id": "13853"
      },
      "talkContentTextMapHash": 1243576026,
      "talkRoleNameTextMapHash": 249526787,
      "talkAssetPath": "",
      "talkAssetPathAlter": "",
      "talkAudioName": "",
      "actionBefore": "",
      "actionWhile": "",
      "actionAfter": "",
      "optionIcon": "",
      "PEMKNDAABBE": 2905402836,
      "iconPath": ""
    },
    {
      "id": 401390226,
      "nextDialogs": [
        401390227
      ],
      "talkRole": {
        "type": "TALK_ROLE_NPC",
        "_id": "13854"
      },
      "talkContentTextMapHash": 121746674,
      "talkRoleNameTextMapHash": 2051747571,
      "talkAssetPath": "",
      "talkAssetPathAlter": "",
      "talkAudioName": "",
      "actionBefore": "",
      "actionWhile": "",
      "actionAfter": "",
      "optionIcon": "",
      "PEMKNDAABBE": 2700291708,
      "iconPath": ""
    },
    {
      "id": 401390227,
      "nextDialogs": [
        401390228
      ],
      "talkRole": {
        "type": "TALK_ROLE_NPC",
        "_id": "13853"
      },
      "talkContentTextMapHash": 500269842,
      "talkRoleNameTextMapHash": 1290351595,
      "talkAssetPath": "",
      "talkAssetPathAlter": "",
      "talkAudioName": "",
      "actionBefore": "",
      "actionWhile": "",
      "actionAfter": "",
      "optionIcon": "",
      "PEMKNDAABBE": 3856960868,
      "iconPath": ""
    },
    {
      "id": 401390228,
      "nextDialogs": [
        401390229
      ],
      "talkRole": {
        "type": "TALK_ROLE_NPC",
        "_id": "13853"
      },
      "talkContentTextMapHash": 3478723970,
      "talkRoleNameTextMapHash": 3255236723,
      "talkAssetPath": "",
      "talkAssetPathAlter": "",
      "talkAudioName": "",
      "actionBefore": "",
      "actionWhile": "",
      "actionAfter": "",
      "optionIcon": "",
      "PEMKNDAABBE": 2150689228,
      "iconPath": ""
    },
    {
      "id": 401390229,
      "nextDialogs": [
        401390230
      ],
      "talkRole": {
        "type": "TALK_ROLE_NPC",
        "_id": "13853"
      },
      "talkContentTextMapHash": 986739274,
      "talkRoleNameTextMapHash": 2423527715,
      "talkAssetPath": "",
      "talkAssetPathAlter": "",
      "talkAudioName": "",
      "actionBefore": "",
      "actionWhile": "",
      "actionAfter": "",
      "optionIcon": "",
      "PEMKNDAABBE": 2177726172,
      "iconPath": ""
    },
    {
      "id": 401390230,
      "nextDialogs": [
        401390231
      ],
      "talkRole": {
        "type": "TALK_ROLE_NPC",
        "_id": "13853"
      },
      "talkContentTextMapHash": 3615435362,
      "talkRoleNameTextMapHash": 2807464011,
      "talkAssetPath": "",
      "talkAssetPathAlter": "",
      "talkAudioName": "",
      "actionBefore": "",
      "actionWhile": "",
      "actionAfter": "",
      "optionIcon": "",
      "PEMKNDAABBE": 95056196,
      "iconPath": ""
    },
    {
      "id": 401390231,
      "nextDialogs": [
        401390232
      ],
      "talkRole": {
        "type": "TALK_ROLE_NPC",
        "_id": "13853"
      },
      "talkContentTextMapHash": 1736724826,
      "talkRoleNameTextMapHash": 1366962187,
      "talkAssetPath": "",
      "talkAssetPathAlter": "",
      "talkAudioName": "",
      "actionBefore": "",
      "actionWhile": "",
      "actionAfter": "",
      "optionIcon": "",
      "PEMKNDAABBE": 1108735396,
      "iconPath": ""
    },
    {
      "id": 401390232,
      "nextDialogs": [
        401390233
      ],
      "talkRole": {
        "type": "TALK_ROLE_NPC",
        "_id": "13854"
      },
      "talkContentTextMapHash": 257072034,
      "talkRoleNameTextMapHash": 3433132051,
      "talkAssetPath": "",
      "talkAssetPathAlter": "",
      "talkAudioName": "",
      "actionBefore": "",
      "actionWhile": "",
      "actionAfter": "",
      "optionIcon": "",
      "PEMKNDAABBE": 1343447420,
      "iconPath": ""
    },
    {
      "id": 401390233,
      "nextDialogs": [
        401390234
      ],
      "talkRole": {
        "type": "TALK_ROLE_NPC",
        "_id": "13853"
      },
      "talkContentTextMapHash": 2042605746,
      "talkRoleNameTextMapHash": 779267027,
      "talkAssetPath": "",
      "talkAssetPathAlter": "",
      "talkAudioName": "",
      "actionBefore": "",
      "actionWhile": "",
      "actionAfter": "",
      "optionIcon": "",
      "PEMKNDAABBE": 3285384212,
      "iconPath": ""
    },
    {
      "id": 401390234,
      "nextDialogs": [
        401390235
      ],
      "talkRole": {
        "type": "TALK_ROLE_NPC",
        "_id": "13853"
      },
      "talkContentTextMapHash": 426943762,
      "talkRoleNameTextMapHash": 1363760515,
      "talkAssetPath": "",
      "talkAssetPathAlter": "",
      "talkAudioName": "",
      "actionBefore": "",
      "actionWhile": "",
      "actionAfter": "",
      "optionIcon": "",
      "PEMKNDAABBE": 4026156260,
      "iconPath": ""
    },
    {
      "id": 401390235,
      "nextDialogs": [
        401390236
      ],
      "talkRole": {
        "type": "TALK_ROLE_NPC",
        "_id": "13854"
      },
      "talkContentTextMapHash": 3230194994,
      "talkRoleNameTextMapHash": 4179854179,
      "talkAssetPath": "",
      "talkAssetPathAlter": "",
      "talkAudioName": "",
      "actionBefore": "",
      "actionWhile": "",
      "actionAfter": "",
      "optionIcon": "",
      "PEMKNDAABBE": 3676666988,
      "iconPath": ""
    },
    {
      "id": 401390236,
      "nextDialogs": [
        401390237
      ],
      "talkRole": {
        "type": "TALK_ROLE_NPC",
        "_id": "13853"
      },
      "talkContentTextMapHash": 2503329450,
      "talkRoleNameTextMapHash": 1568398011,
      "talkAssetPath": "",
      "talkAssetPathAlter": "",
      "talkAudioName": "",
      "actionBefore": "",
      "actionWhile": "",
      "actionAfter": "",
      "optionIcon": "",
      "PEMKNDAABBE": 1738416748,
      "iconPath": ""
    },
    {
      "id": 401390237,
      "nextDialogs": [
        401390238
      ],
      "talkShowType": "TALK_SHOW_FORCE_SELECT",
      "talkRole": {
        "type": "TALK_ROLE_PLAYER",
        "_id": ""
      },
      "talkContentTextMapHash": 1161431618,
      "talkAssetPath": "",
      "talkAssetPathAlter": "",
      "talkAudioName": "",
      "actionBefore": "",
      "actionWhile": "",
      "actionAfter": "",
      "optionIcon": "",
      "iconPath": ""
    },
    {
      "id": 401390238,
      "nextDialogs": [
        401390239
      ],
      "talkRole": {
        "type": "TALK_ROLE_NPC",
        "_id": "1005"
      },
      "talkContentTextMapHash": 3967649978,
      "talkAssetPath": "",
      "talkAssetPathAlter": "",
      "talkAudioName": "",
      "actionBefore": "",
      "actionWhile": "",
      "actionAfter": "",
      "optionIcon": "",
      "iconPath": ""
    },
    {
      "id": 401390239,
      "nextDialogs": [
        401390240,
        401390241
      ],
      "talkRole": {
        "type": "TALK_ROLE_NPC",
        "_id": "1005"
      },
      "talkContentTextMapHash": 1503122522,
      "talkAssetPath": "",
      "talkAssetPathAlter": "",
      "talkAudioName": "",
      "actionBefore": "",
      "actionWhile": "",
      "actionAfter": "",
      "optionIcon": "",
      "iconPath": ""
    },
    {
      "id": 401390240,
      "nextDialogs": [
        401390242
      ],
      "talkShowType": "TALK_SHOW_FORCE_SELECT",
      "talkRole": {
        "type": "TALK_ROLE_PLAYER",
        "_id": ""
      },
      "talkContentTextMapHash": 3887217106,
      "talkAssetPath": "",
      "talkAssetPathAlter": "",
      "talkAudioName": "",
      "actionBefore": "",
      "actionWhile": "",
      "actionAfter": "",
      "optionIcon": "",
      "iconPath": ""
    },
    {
      "id": 401390242,
      "nextDialogs": [
        401390243
      ],
      "talkRole": {
        "type": "TALK_ROLE_NPC",
        "_id": "13854"
      },
      "talkContentTextMapHash": 1067319122,
      "talkRoleNameTextMapHash": 3990277651,
      "talkAssetPath": "",
      "talkAssetPathAlter": "",
      "talkAudioName": "",
      "actionBefore": "",
      "actionWhile": "",
      "actionAfter": "",
      "optionIcon": "",
      "PEMKNDAABBE": 1538325068,
      "iconPath": ""
    },
    {
      "id": 401390243,
      "nextDialogs": [
        401390244
      ],
      "talkRole": {
        "type": "TALK_ROLE_NPC",
        "_id": "1005"
      },
      "talkContentTextMapHash": 112515690,
      "talkAssetPath": "",
      "talkAssetPathAlter": "",
      "talkAudioName": "",
      "actionBefore": "",
      "actionWhile": "",
      "actionAfter": "",
      "optionIcon": "",
      "iconPath": ""
    },
    {
      "id": 401390244,
      "nextDialogs": [
        401390245
      ],
      "talkRole": {
        "type": "TALK_ROLE_NPC",
        "_id": "1005"
      },
      "talkContentTextMapHash": 2362428074,
      "talkAssetPath": "",
      "talkAssetPathAlter": "",
      "talkAudioName": "",
      "actionBefore": "",
      "actionWhile": "",
      "actionAfter": "",
      "optionIcon": "",
      "iconPath": ""
    },
    {
      "id": 401390245,
      "nextDialogs": [
        401390246
      ],
      "talkRole": {
        "type": "TALK_ROLE_NPC",
        "_id": "13854"
      },
      "talkContentTextMapHash": 2738119258,
      "talkRoleNameTextMapHash": 3065676147,
      "talkAssetPath": "",
      "talkAssetPathAlter": "",
      "talkAudioName": "",
      "actionBefore": "",
      "actionWhile": "",
      "actionAfter": "",
      "optionIcon": "",
      "PEMKNDAABBE": 4163194980,
      "iconPath": ""
    },
    {
      "id": 401390246,
      "nextDialogs": [
        401390247
      ],
      "talkRole": {
        "type": "TALK_ROLE_NPC",
        "_id": "13853"
      },
      "talkContentTextMapHash": 787562986,
      "talkRoleNameTextMapHash": 603652619,
      "talkAssetPath": "",
      "talkAssetPathAlter": "",
      "talkAudioName": "",
      "actionBefore": "",
      "actionWhile": "",
      "actionAfter": "",
      "optionIcon": "",
      "PEMKNDAABBE": 3824892444,
      "iconPath": ""
    },
    {
      "id": 401390247,
      "nextDialogs": [
        401390248
      ],
      "talkRole": {
        "type": "TALK_ROLE_NPC",
        "_id": "13854"
      },
      "talkContentTextMapHash": 2731277050,
      "talkRoleNameTextMapHash": 192174747,
      "talkAssetPath": "",
      "talkAssetPathAlter": "",
      "talkAudioName": "",
      "actionBefore": "",
      "actionWhile": "",
      "actionAfter": "",
      "optionIcon": "",
      "iconPath": ""
    },
    {
      "id": 401390248,
      "nextDialogs": [
        401390249
      ],
      "talkRole": {
        "type": "TALK_ROLE_NPC",
        "_id": "13853"
      },
      "talkContentTextMapHash": 3114446898,
      "talkRoleNameTextMapHash": 3939179531,
      "talkAssetPath": "",
      "talkAssetPathAlter": "",
      "talkAudioName": "",
      "actionBefore": "",
      "actionWhile": "",
      "actionAfter": "",
      "optionIcon": "",
      "iconPath": ""
    },
    {
      "id": 401390249,
      "nextDialogs": [
        401390250
      ],
      "talkRole": {
        "type": "TALK_ROLE_NPC",
        "_id": "13853"
      },
      "talkContentTextMapHash": 3795441394,
      "talkRoleNameTextMapHash": 4251254835,
      "talkAssetPath": "",
      "talkAssetPathAlter": "",
      "talkAudioName": "",
      "actionBefore": "",
      "actionWhile": "",
      "actionAfter": "",
      "optionIcon": "",
      "PEMKNDAABBE": 577026348,
      "iconPath": ""
    },
    {
      "id": 401390250,
      "nextDialogs": [
        401390251
      ],
      "talkRole": {
        "type": "TALK_ROLE_NPC",
        "_id": "13853"
      },
      "talkContentTextMapHash": 653926410,
      "talkRoleNameTextMapHash": 3748973555,
      "talkAssetPath": "",
      "talkAssetPathAlter": "",
      "talkAudioName": "",
      "actionBefore": "",
      "actionWhile": "",
      "actionAfter": "",
      "optionIcon": "",
      "PEMKNDAABBE": 2540329588,
      "iconPath": ""
    },
    {
      "id": 401390251,
      "nextDialogs": [
        401390252
      ],
      "talkRole": {
        "type": "TALK_ROLE_NPC",
        "_id": "13854"
      },
      "talkContentTextMapHash": 1536155362,
      "talkRoleNameTextMapHash": 902582483,
      "talkAssetPath": "",
      "talkAssetPathAlter": "",
      "talkAudioName": "",
      "actionBefore": "",
      "actionWhile": "",
      "actionAfter": "",
      "optionIcon": "",
      "PEMKNDAABBE": 3579524732,
      "iconPath": ""
    },
    {
      "id": 401390252,
      "nextDialogs": [
        401390253
      ],
      "talkRole": {
        "type": "TALK_ROLE_NPC",
        "_id": "13853"
      },
      "talkContentTextMapHash": 1235601674,
      "talkRoleNameTextMapHash": 1205192443,
      "talkAssetPath": "",
      "talkAssetPathAlter": "",
      "talkAudioName": "",
      "actionBefore": "",
      "actionWhile": "",
      "actionAfter": "",
      "optionIcon": "",
      "PEMKNDAABBE": 556790276,
      "iconPath": ""
    },
    {
      "id": 401390253,
      "nextDialogs": [
        401390254
      ],
      "talkRole": {
        "type": "TALK_ROLE_NPC",
        "_id": "13854"
      },
      "talkContentTextMapHash": 3203031394,
      "talkRoleNameTextMapHash": 3090056363,
      "talkAssetPath": "",
      "talkAssetPathAlter": "",
      "talkAudioName": "",
      "actionBefore": "",
      "actionWhile": "",
      "actionAfter": "",
      "optionIcon": "",
      "PEMKNDAABBE": 2647531916,
      "iconPath": ""
    },
    {
      "id": 401390254,
      "nextDialogs": [
        401390255
      ],
      "talkRole": {
        "type": "TALK_ROLE_NPC",
        "_id": "1005"
      },
      "talkContentTextMapHash": 3349669162,
      "talkAssetPath": "",
      "talkAssetPathAlter": "",
      "talkAudioName": "",
      "actionBefore": "",
      "actionWhile": "",
      "actionAfter": "",
      "optionIcon": "",
      "iconPath": ""
    },
    {
      "id": 401390255,
      "nextDialogs": [
        401390256
      ],
      "talkRole": {
        "type": "TALK_ROLE_NPC",
        "_id": "13853"
      },
      "talkContentTextMapHash": 4269063058,
      "talkRoleNameTextMapHash": 1493022051,
      "talkAssetPath": "",
      "talkAssetPathAlter": "",
      "talkAudioName": "",
      "actionBefore": "",
      "actionWhile": "",
      "actionAfter": "",
      "optionIcon": "",
      "PEMKNDAABBE": 1129104356,
      "iconPath": ""
    },
    {
      "id": 401390256,
      "nextDialogs": [
        401390257
      ],
      "talkRole": {
        "type": "TALK_ROLE_NPC",
        "_id": "13854"
      },
      "talkContentTextMapHash": 1433087898,
      "talkRoleNameTextMapHash": 1388143963,
      "talkAssetPath": "",
      "talkAssetPathAlter": "",
      "talkAudioName": "",
      "actionBefore": "",
      "actionWhile": "",
      "actionAfter": "",
      "optionIcon": "",
      "PEMKNDAABBE": 3009041932,
      "iconPath": ""
    },
    {
      "id": 401390257,
      "nextDialogs": [
        401390258
      ],
      "talkRole": {
        "type": "TALK_ROLE_NPC",
        "_id": "13853"
      },
      "talkContentTextMapHash": 1542493570,
      "talkRoleNameTextMapHash": 3970441955,
      "talkAssetPath": "",
      "talkAssetPathAlter": "",
      "talkAudioName": "",
      "actionBefore": "",
      "actionWhile": "",
      "actionAfter": "",
      "optionIcon": "",
      "PEMKNDAABBE": 719423900,
      "iconPath": ""
    },
    {
      "id": 401390258,
      "nextDialogs": [
        401390259
      ],
      "talkRole": {
        "type": "TALK_ROLE_NPC",
        "_id": "13853"
      },
      "talkContentTextMapHash": 4271291690,
      "talkRoleNameTextMapHash": 665523811,
      "talkAssetPath": "",
      "talkAssetPathAlter": "",
      "talkAudioName": "",
      "actionBefore": "",
      "actionWhile": "",
      "actionAfter": "",
      "optionIcon": "",
      "PEMKNDAABBE": 762105092,
      "iconPath": ""
    },
    {
      "id": 401390259,
      "nextDialogs": [
        401390260
      ],
      "talkRole": {
        "type": "TALK_ROLE_NPC",
        "_id": "1005"
      },
      "talkContentTextMapHash": 2259504730,
      "talkAssetPath": "",
      "talkAssetPathAlter": "",
      "talkAudioName": "",
      "actionBefore": "",
      "actionWhile": "",
      "actionAfter": "",
      "optionIcon": "",
      "iconPath": ""
    },
    {
      "id": 401390260,
      "nextDialogs": [
        401390261
      ],
      "talkRole": {
        "type": "TALK_ROLE_NPC",
        "_id": "1005"
      },
      "talkContentTextMapHash": 361610802,
      "talkAssetPath": "",
      "talkAssetPathAlter": "",
      "talkAudioName": "",
      "actionBefore": "",
      "actionWhile": "",
      "actionAfter": "",
      "optionIcon": "",
      "iconPath": ""
    },
    {
      "id": 401390261,
      "nextDialogs": [
        401390262
      ],
      "talkRole": {
        "type": "TALK_ROLE_NPC",
        "_id": "13854"
      },
      "talkContentTextMapHash": 3496330562,
      "talkRoleNameTextMapHash": 1865374195,
      "talkAssetPath": "",
      "talkAssetPathAlter": "",
      "talkAudioName": "",
      "actionBefore": "",
      "actionWhile": "",
      "actionAfter": "",
      "optionIcon": "",
      "PEMKNDAABBE": 4114752828,
      "iconPath": ""
    },
    {
      "id": 401390262,
      "nextDialogs": [
        401390263
      ],
      "talkRole": {
        "type": "TALK_ROLE_NPC",
        "_id": "1005"
      },
      "talkContentTextMapHash": 3528944466,
      "talkAssetPath": "",
      "talkAssetPathAlter": "",
      "talkAudioName": "",
      "actionBefore": "",
      "actionWhile": "",
      "actionAfter": "",
      "optionIcon": "",
      "iconPath": ""
    },
    {
      "id": 401390263,
      "nextDialogs": [
        401390264
      ],
      "talkRole": {
        "type": "TALK_ROLE_NPC",
        "_id": "1005"
      },
      "talkContentTextMapHash": 2694569770,
      "talkAssetPath": "",
      "talkAssetPathAlter": "",
      "talkAudioName": "",
      "actionBefore": "",
      "actionWhile": "",
      "actionAfter": "",
      "optionIcon": "",
      "iconPath": ""
    },
    {
      "id": 401390264,
      "talkRole": {
        "type": "TALK_ROLE_NPC",
        "_id": "1005"
      },
      "talkContentTextMapHash": 3557629402,
      "talkAssetPath": "",
      "talkAssetPathAlter": "",
      "talkAudioName": "",
      "actionBefore": "",
      "actionWhile": "",
      "actionAfter": "",
      "optionIcon": "",
      "iconPath": ""
    },
    {
      "id": 401390241,
      "nextDialogs": [
        401390242
      ],
      "talkShowType": "TALK_SHOW_FORCE_SELECT",
      "talkRole": {
        "type": "TALK_ROLE_PLAYER",
        "_id": ""
      },
      "talkContentTextMapHash": 1799356834,
      "talkAssetPath": "",
      "talkAssetPathAlter": "",
      "talkAudioName": "",
      "actionBefore": "",
      "actionWhile": "",
      "actionAfter": "",
      "optionIcon": "",
      "iconPath": ""
    },
    {
      "id": 401390218,
      "nextDialogs": [
        401390219
      ],
      "talkShowType": "TALK_SHOW_FORCE_SELECT",
      "talkRole": {
        "type": "TALK_ROLE_PLAYER",
        "_id": ""
      },
      "talkContentTextMapHash": 895392498,
      "talkAssetPath": "",
      "talkAssetPathAlter": "",
      "talkAudioName": "",
      "actionBefore": "",
      "actionWhile": "",
      "actionAfter": "",
      "optionIcon": "",
      "iconPath": ""
    }
  ]
}