{
  "talkId": 4016422,
  "dialogList": [
    {
      "id": 401642201,
      "nextDialogs": [
        401642202
      ],
      "talkRole": {
        "type": "TALK_ROLE_NPC",
        "_id": "1005"
      },
      "talkContentTextMapHash": 692393162,
      "talkAssetPath": "",
      "talkAssetPathAlter": "",
      "talkAudioName": "",
      "actionBefore": "",
      "actionWhile": "",
      "actionAfter": "",
      "optionIcon": "",
      "iconPath": ""
    },
    {
      "id": 401642202,
      "nextDialogs": [
        401642203
      ],
      "talkRole": {
        "type": "TALK_ROLE_NPC",
        "_id": "1065"
      },
      "talkContentTextMapHash": 1603230274,
      "talkAssetPath": "",
      "talkAssetPathAlter": "",
      "talkAudioName": "",
      "actionBefore": "",
      "actionWhile": "",
      "actionAfter": "",
      "optionIcon": "",
      "PEMKNDAABBE": 3251598676,
      "iconPath": ""
    },
    {
      "id": 401642203,
      "nextDialogs": [
        401642204
      ],
      "talkRole": {
        "type": "TALK_ROLE_NPC",
        "_id": "30563"
      },
      "talkContentTextMapHash": 1311231250,
      "talkRoleNameTextMapHash": 3356489715,
      "talkAssetPath": "",
      "talkAssetPathAlter": "",
      "talkAudioName": "",
      "actionBefore": "",
      "actionWhile": "",
      "actionAfter": "",
      "optionIcon": "",
      "iconPath": ""
    },
    {
      "id": 401642204,
      "nextDialogs": [
        401642205
      ],
      "talkRole": {
        "type": "TALK_ROLE_NPC",
        "_id": "1065"
      },
      "talkContentTextMapHash": 1229429434,
      "talkAssetPath": "",
      "talkAssetPathAlter": "",
      "talkAudioName": "",
      "actionBefore": "",
      "actionWhile": "",
      "actionAfter": "",
      "optionIcon": "",
      "PEMKNDAABBE": 3471009212,
      "iconPath": ""
    },
    {
      "id": 401642205,
      "nextDialogs": [
        401642206
      ],
      "talkRole": {
        "type": "TALK_ROLE_NPC",
        "_id": "30563"
      },
      "talkContentTextMapHash": 3820119354,
      "talkRoleNameTextMapHash": 470403371,
      "talkAssetPath": "",
      "talkAssetPathAlter": "",
      "talkAudioName": "",
      "actionBefore": "",
      "actionWhile": "",
      "actionAfter": "",
      "optionIcon": "",
      "iconPath": ""
    },
    {
      "id": 401642206,
      "talkRole": {
        "type": "TALK_ROLE_NPC",
        "_id": "1065"
      },
      "talkContentTextMapHash": 588325394,
      "talkAssetPath": "",
      "talkAssetPathAlter": "",
      "talkAudioName": "",
      "actionBefore": "",
      "actionWhile": "",
      "actionAfter": "",
      "optionIcon": "",
      "PEMKNDAABBE": 3902888412,
      "iconPath": ""
    }
  ]
}