{
  "talkId": 4016404,
  "dialogList": [
    {
      "id": 401640401,
      "nextDialogs": [
        401640402
      ],
      "talkRole": {
        "type": "TALK_ROLE_NPC",
        "_id": "2670"
      },
      "talkContentTextMapHash": 1209862002,
      "talkAssetPath": "",
      "talkAssetPathAlter": "",
      "talkAudioName": "",
      "actionBefore": "",
      "actionWhile": "",
      "actionAfter": "",
      "optionIcon": "",
      "PEMKNDAABBE": 3423914356,
      "iconPath": ""
    },
    {
      "id": 401640402,
      "nextDialogs": [
        401640403
      ],
      "talkRole": {
        "type": "TALK_ROLE_NPC",
        "_id": "1005"
      },
      "talkContentTextMapHash": 1749820954,
      "talkAssetPath": "",
      "talkAssetPathAlter": "",
      "talkAudioName": "",
      "actionBefore": "",
      "actionWhile": "",
      "actionAfter": "",
      "optionIcon": "",
      "iconPath": ""
    },
    {
      "id": 401640403,
      "nextDialogs": [
        401640404
      ],
      "talkRole": {
        "type": "TALK_ROLE_NPC",
        "_id": "30573"
      },
      "talkContentTextMapHash": 2809642706,
      "talkAssetPath": "",
      "talkAssetPathAlter": "",
      "talkAudioName": "",
      "actionBefore": "",
      "actionWhile": "",
      "actionAfter": "",
      "optionIcon": "",
      "PEMKNDAABBE": 1621043396,
      "iconPath": ""
    },
    {
      "id": 401640404,
      "talkRole": {
        "type": "TALK_ROLE_NPC",
        "_id": "1075"
      },
      "talkContentTextMapHash": 2283991498,
      "talkAssetPath": "",
      "talkAssetPathAlter": "",
      "talkAudioName": "",
      "actionBefore": "",
      "actionWhile": "",
      "actionAfter": "",
      "optionIcon": "",
      "PEMKNDAABBE": 1856243004,
      "iconPath": ""
    }
  ]
}