{
  "talkId": 4016440,
  "dialogList": [
    {
      "id": 401644001,
      "talkRole": {
        "type": "TALK_ROLE_NPC",
        "_id": "1075"
      },
      "talkContentTextMapHash": 1852737650,
      "talkAssetPath": "",
      "talkAssetPathAlter": "",
      "talkAudioName": "",
      "actionBefore": "",
      "actionWhile": "",
      "actionAfter": "",
      "optionIcon": "",
      "PEMKNDAABBE": 849295852,
      "iconPath": ""
    }
  ]
}