{
  "talkId": 4016464,
  "dialogList": [
    {
      "id": 401641311,
      "talkRole": {
        "type": "TALK_ROLE_NPC",
        "_id": "1075"
      },
      "talkContentTextMapHash": 4214771610,
      "talkAssetPath": "",
      "talkAssetPathAlter": "",
      "talkAudioName": "",
      "actionBefore": "",
      "actionWhile": "",
      "actionAfter": "",
      "optionIcon": "",
      "PEMKNDAABBE": 1600810132,
      "iconPath": ""
    }
  ]
}