{
  "talkId": 4016402,
  "dialogList": [
    {
      "id": 401640201,
      "nextDialogs": [
        401640202
      ],
      "talkRole": {
        "type": "TALK_ROLE_NPC",
        "_id": "30573"
      },
      "talkContentTextMapHash": 1684557938,
      "talkAssetPath": "",
      "talkAssetPathAlter": "",
      "talkAudioName": "",
      "actionBefore": "",
      "actionWhile": "",
      "actionAfter": "",
      "optionIcon": "",
      "PEMKNDAABBE": 152633532,
      "iconPath": ""
    },
    {
      "id": 401640202,
      "nextDialogs": [
        401640203
      ],
      "talkRole": {
        "type": "TALK_ROLE_NPC",
        "_id": "2670"
      },
      "talkContentTextMapHash": 2134559058,
      "talkAssetPath": "",
      "talkAssetPathAlter": "",
      "talkAudioName": "",
      "actionBefore": "",
      "actionWhile": "",
      "actionAfter": "",
      "optionIcon": "",
      "PEMKNDAABBE": 641836956,
      "iconPath": ""
    },
    {
      "id": 401640203,
      "nextDialogs": [
        401640204
      ],
      "talkRole": {
        "type": "TALK_ROLE_NPC",
        "_id": "30573"
      },
      "talkContentTextMapHash": 1141879554,
      "talkAssetPath": "",
      "talkAssetPathAlter": "",
      "talkAudioName": "",
      "actionBefore": "",
      "actionWhile": "",
      "actionAfter": "",
      "optionIcon": "",
      "PEMKNDAABBE": 2413522596,
      "iconPath": ""
    },
    {
      "id": 401640204,
      "nextDialogs": [
        401640205
      ],
      "talkRole": {
        "type": "TALK_ROLE_NPC",
        "_id": "1005"
      },
      "talkContentTextMapHash": 4243336938,
      "talkAssetPath": "",
      "talkAssetPathAlter": "",
      "talkAudioName": "",
      "actionBefore": "",
      "actionWhile": "",
      "actionAfter": "",
      "optionIcon": "",
      "iconPath": ""
    },
    {
      "id": 401640205,
      "nextDialogs": [
        401640206
      ],
      "talkRole": {
        "type": "TALK_ROLE_NPC",
        "_id": "30575"
      },
      "talkContentTextMapHash": 120678730,
      "talkAssetPath": "",
      "talkAssetPathAlter": "",
      "talkAudioName": "",
      "actionBefore": "",
      "actionWhile": "",
      "actionAfter": "",
      "optionIcon": "",
      "PEMKNDAABBE": 988486716,
      "iconPath": ""
    },
    {
      "id": 401640206,
      "nextDialogs": [
        401640207,
        401640208
      ],
      "talkRole": {
        "type": "TALK_ROLE_NPC",
        "_id": "1075"
      },
      "talkContentTextMapHash": 2538632058,
      "talkAssetPath": "",
      "talkAssetPathAlter": "",
      "talkAudioName": "",
      "actionBefore": "",
      "actionWhile": "",
      "actionAfter": "",
      "optionIcon": "",
      "PEMKNDAABBE": 3960058908,
      "iconPath": ""
    },
    {
      "id": 401640207,
      "nextDialogs": [
        401640209
      ],
      "talkRole": {
        "type": "TALK_ROLE_PLAYER",
        "_id": ""
      },
      "talkContentTextMapHash": 1855214474,
      "talkAssetPath": "",
      "talkAssetPathAlter": "",
      "talkAudioName": "",
      "actionBefore": "",
      "actionWhile": "",
      "actionAfter": "",
      "optionIcon": "",
      "iconPath": ""
    },
    {
      "id": 401640209,
      "nextDialogs": [
        401640210
      ],
      "talkRole": {
        "type": "TALK_ROLE_NPC",
        "_id": "30561"
      },
      "talkContentTextMapHash": 3413935826,
      "talkAssetPath": "",
      "talkAssetPathAlter": "",
      "talkAudioName": "",
      "actionBefore": "",
      "actionWhile": "",
      "actionAfter": "",
      "optionIcon": "",
      "PEMKNDAABBE": 1299989236,
      "iconPath": ""
    },
    {
      "id": 401640210,
      "nextDialogs": [
        401640211
      ],
      "talkRole": {
        "type": "TALK_ROLE_NPC",
        "_id": "1075"
      },
      "talkContentTextMapHash": 1607181530,
      "talkAssetPath": "",
      "talkAssetPathAlter": "",
      "talkAudioName": "",
      "actionBefore": "",
      "actionWhile": "",
      "actionAfter": "",
      "optionIcon": "",
      "PEMKNDAABBE": 1583789468,
      "iconPath": ""
    },
    {
      "id": 401640211,
      "nextDialogs": [
        401640212
      ],
      "talkRole": {
        "type": "TALK_ROLE_NPC",
        "_id": "30575"
      },
      "talkContentTextMapHash": 921346690,
      "talkAssetPath": "",
      "talkAssetPathAlter": "",
      "talkAudioName": "",
      "actionBefore": "",
      "actionWhile": "",
      "actionAfter": "",
      "optionIcon": "",
      "PEMKNDAABBE": 635706548,
      "iconPath": ""
    },
    {
      "id": 401640212,
      "nextDialogs": [
        401640213
      ],
      "talkRole": {
        "type": "TALK_ROLE_NPC",
        "_id": "30561"
      },
      "talkContentTextMapHash": 1746130890,
      "talkAssetPath": "",
      "talkAssetPathAlter": "",
      "talkAudioName": "",
      "actionBefore": "",
      "actionWhile": "",
      "actionAfter": "",
      "optionIcon": "",
      "PEMKNDAABBE": 2919131476,
      "iconPath": ""
    },
    {
      "id": 401640213,
      "nextDialogs": [
        401640214
      ],
      "talkRole": {
        "type": "TALK_ROLE_NPC",
        "_id": "1075"
      },
      "talkContentTextMapHash": 4101182978,
      "talkAssetPath": "",
      "talkAssetPathAlter": "",
      "talkAudioName": "",
      "actionBefore": "",
      "actionWhile": "",
      "actionAfter": "",
      "optionIcon": "",
      "PEMKNDAABBE": 591784812,
      "iconPath": ""
    },
    {
      "id": 401640214,
      "talkRole": {
        "type": "TALK_ROLE_NPC",
        "_id": "1005"
      },
      "talkContentTextMapHash": 2453025650,
      "talkAssetPath": "",
      "talkAssetPathAlter": "",
      "talkAudioName": "",
      "actionBefore": "",
      "actionWhile": "",
      "actionAfter": "",
      "optionIcon": "",
      "iconPath": ""
    },
    {
      "id": 401640208,
      "nextDialogs": [
        401640209
      ],
      "talkRole": {
        "type": "TALK_ROLE_PLAYER",
        "_id": ""
      },
      "talkContentTextMapHash": 353667706,
      "talkAssetPath": "",
      "talkAssetPathAlter": "",
      "talkAudioName": "",
      "actionBefore": "",
      "actionWhile": "",
      "actionAfter": "",
      "optionIcon": "",
      "iconPath": ""
    }
  ]
}