{
  "talkId": 4016305,
  "dialogList": [
    {
      "id": 401630501,
      "nextDialogs": [
        401630502
      ],
      "talkRole": {
        "type": "TALK_ROLE_NPC",
        "_id": "30558"
      },
      "talkContentTextMapHash": 4008646874,
      "talkAssetPath": "",
      "talkAssetPathAlter": "",
      "talkAudioName": "",
      "actionBefore": "",
      "actionWhile": "",
      "actionAfter": "",
      "optionIcon": "",
      "PEMKNDAABBE": 1574330428,
      "iconPath": ""
    },
    {
      "id": 401630502,
      "nextDialogs": [
        401630503
      ],
      "talkRole": {
        "type": "TALK_ROLE_NPC",
        "_id": "1005"
      },
      "talkContentTextMapHash": 679188322,
      "talkAssetPath": "",
      "talkAssetPathAlter": "",
      "talkAudioName": "",
      "actionBefore": "",
      "actionWhile": "",
      "actionAfter": "",
      "optionIcon": "",
      "iconPath": ""
    },
    {
      "id": 401630503,
      "nextDialogs": [
        401630504
      ],
      "talkRole": {
        "type": "TALK_ROLE_NPC",
        "_id": "30558"
      },
      "talkContentTextMapHash": 3122913050,
      "talkAssetPath": "",
      "talkAssetPathAlter": "",
      "talkAudioName": "",
      "actionBefore": "",
      "actionWhile": "",
      "actionAfter": "",
      "optionIcon": "",
      "PEMKNDAABBE": 161864396,
      "iconPath": ""
    },
    {
      "id": 401630504,
      "talkRole": {
        "type": "TALK_ROLE_NPC",
        "_id": "30558"
      },
      "talkContentTextMapHash": 1211283946,
      "talkAssetPath": "",
      "talkAssetPathAlter": "",
      "talkAudioName": "",
      "actionBefore": "",
      "actionWhile": "",
      "actionAfter": "",
      "optionIcon": "",
      "PEMKNDAABBE": 189336700,
      "iconPath": ""
    }
  ]
}