{
  "talkId": 4016420,
  "dialogList": [
    {
      "id": 401642001,
      "nextDialogs": [
        401642002
      ],
      "talkRole": {
        "type": "TALK_ROLE_NPC",
        "_id": "2670"
      },
      "talkContentTextMapHash": 902477490,
      "talkAssetPath": "",
      "talkAssetPathAlter": "",
      "talkAudioName": "",
      "actionBefore": "",
      "actionWhile": "",
      "actionAfter": "",
      "optionIcon": "",
      "PEMKNDAABBE": 3033112556,
      "iconPath": ""
    },
    {
      "id": 401642002,
      "nextDialogs": [
        401642003
      ],
      "talkRole": {
        "type": "TALK_ROLE_NPC",
        "_id": "1005"
      },
      "talkContentTextMapHash": 572192042,
      "talkAssetPath": "",
      "talkAssetPathAlter": "",
      "talkAudioName": "",
      "actionBefore": "",
      "actionWhile": "",
      "actionAfter": "",
      "optionIcon": "",
      "iconPath": ""
    },
    {
      "id": 401642003,
      "nextDialogs": [
        401642004
      ],
      "talkRole": {
        "type": "TALK_ROLE_NPC",
        "_id": "1065"
      },
      "talkContentTextMapHash": 3231349378,
      "talkAssetPath": "",
      "talkAssetPathAlter": "",
      "talkAudioName": "",
      "actionBefore": "",
      "actionWhile": "",
      "actionAfter": "",
      "optionIcon": "",
      "PEMKNDAABBE": 4147505740,
      "iconPath": ""
    },
    {
      "id": 401642004,
      "nextDialogs": [
        401642005
      ],
      "talkRole": {
        "type": "TALK_ROLE_NPC",
        "_id": "1065"
      },
      "talkContentTextMapHash": 1752871418,
      "talkAssetPath": "",
      "talkAssetPathAlter": "",
      "talkAudioName": "",
      "actionBefore": "",
      "actionWhile": "",
      "actionAfter": "",
      "optionIcon": "",
      "PEMKNDAABBE": 882173052,
      "iconPath": ""
    },
    {
      "id": 401642005,
      "nextDialogs": [
        401642006
      ],
      "talkRole": {
        "type": "TALK_ROLE_NPC",
        "_id": "2670"
      },
      "talkContentTextMapHash": 4244904986,
      "talkAssetPath": "",
      "talkAssetPathAlter": "",
      "talkAudioName": "",
      "actionBefore": "",
      "actionWhile": "",
      "actionAfter": "",
      "optionIcon": "",
      "PEMKNDAABBE": 2053693180,
      "iconPath": ""
    },
    {
      "id": 401642006,
      "nextDialogs": [
        401642007
      ],
      "talkRole": {
        "type": "TALK_ROLE_NPC",
        "_id": "1075"
      },
      "talkContentTextMapHash": 278368162,
      "talkAssetPath": "",
      "talkAssetPathAlter": "",
      "talkAudioName": "",
      "actionBefore": "",
      "actionWhile": "",
      "actionAfter": "",
      "optionIcon": "",
      "PEMKNDAABBE": 69388620,
      "iconPath": ""
    },
    {
      "id": 401642007,
      "nextDialogs": [
        401642008
      ],
      "talkRole": {
        "type": "TALK_ROLE_NPC",
        "_id": "1005"
      },
      "talkContentTextMapHash": 71649170,
      "talkAssetPath": "",
      "talkAssetPathAlter": "",
      "talkAudioName": "",
      "actionBefore": "",
      "actionWhile": "",
      "actionAfter": "",
      "optionIcon": "",
      "iconPath": ""
    },
    {
      "id": 401642008,
      "nextDialogs": [
        401642009
      ],
      "talkRole": {
        "type": "TALK_ROLE_NPC",
        "_id": "1065"
      },
      "talkContentTextMapHash": 1368796442,
      "talkAssetPath": "",
      "talkAssetPathAlter": "",
      "talkAudioName": "",
      "actionBefore": "",
      "actionWhile": "",
      "actionAfter": "",
      "optionIcon": "",
      "PEMKNDAABBE": 3599795204,
      "iconPath": ""
    },
    {
      "id": 401642009,
      "nextDialogs": [
        401642010
      ],
      "talkRole": {
        "type": "TALK_ROLE_NPC",
        "_id": "2670"
      },
      "talkContentTextMapHash": 1027676442,
      "talkAssetPath": "",
      "talkAssetPathAlter": "",
      "talkAudioName": "",
      "actionBefore": "",
      "actionWhile": "",
      "actionAfter": "",
      "optionIcon": "",
      "PEMKNDAABBE": 964061572,
      "iconPath": ""
    },
    {
      "id": 401642010,
      "nextDialogs": [
        401642011
      ],
      "talkRole": {
        "type": "TALK_ROLE_NPC",
        "_id": "1065"
      },
      "talkContentTextMapHash": 3939262434,
      "talkAssetPath": "",
      "talkAssetPathAlter": "",
      "talkAudioName": "",
      "actionBefore": "",
      "actionWhile": "",
      "actionAfter": "",
      "optionIcon": "",
      "PEMKNDAABBE": 3578723916,
      "iconPath": ""
    },
    {
      "id": 401642011,
      "talkRole": {
        "type": "TALK_ROLE_NPC",
        "_id": "1065"
      },
      "talkContentTextMapHash": 462824594,
      "talkAssetPath": "",
      "talkAssetPathAlter": "",
      "talkAudioName": "",
      "actionBefore": "",
      "actionWhile": "",
      "actionAfter": "",
      "optionIcon": "",
      "PEMKNDAABBE": 701372916,
      "iconPath": ""
    }
  ]
}