{
  "talkId": 4016406,
  "dialogList": [
    {
      "id": 401640601,
      "nextDialogs": [
        401640602
      ],
      "talkRole": {
        "type": "TALK_ROLE_NPC",
        "_id": "1075"
      },
      "talkContentTextMapHash": 138845386,
      "talkAssetPath": "",
      "talkAssetPathAlter": "",
      "talkAudioName": "",
      "actionBefore": "",
      "actionWhile": "",
      "actionAfter": "",
      "optionIcon": "",
      "PEMKNDAABBE": 3055913508,
      "iconPath": ""
    },
    {
      "id": 401640602,
      "nextDialogs": [
        401640603
      ],
      "talkRole": {
        "type": "TALK_ROLE_NPC",
        "_id": "30573"
      },
      "talkContentTextMapHash": 1583327322,
      "talkAssetPath": "",
      "talkAssetPathAlter": "",
      "talkAudioName": "",
      "actionBefore": "",
      "actionWhile": "",
      "actionAfter": "",
      "optionIcon": "",
      "PEMKNDAABBE": 2241846716,
      "iconPath": ""
    },
    {
      "id": 401640603,
      "nextDialogs": [
        401640604
      ],
      "talkRole": {
        "type": "TALK_ROLE_NPC",
        "_id": "30573"
      },
      "talkContentTextMapHash": 1799858930,
      "talkAssetPath": "",
      "talkAssetPathAlter": "",
      "talkAudioName": "",
      "actionBefore": "",
      "actionWhile": "",
      "actionAfter": "",
      "optionIcon": "",
      "PEMKNDAABBE": 1222533884,
      "iconPath": ""
    },
    {
      "id": 401640604,
      "talkRole": {
        "type": "TALK_ROLE_NPC",
        "_id": "1075"
      },
      "talkContentTextMapHash": 2162482306,
      "talkAssetPath": "",
      "talkAssetPathAlter": "",
      "talkAudioName": "",
      "actionBefore": "",
      "actionWhile": "",
      "actionAfter": "",
      "optionIcon": "",
      "PEMKNDAABBE": 1695465316,
      "iconPath": ""
    }
  ]
}