{
  "talkId": 4016423,
  "dialogList": [
    {
      "id": 401642301,
      "nextDialogs": [
        401642302
      ],
      "talkRole": {
        "type": "TALK_ROLE_NPC",
        "_id": "30577"
      },
      "talkContentTextMapHash": 829965906,
      "talkRoleNameTextMapHash": 1965638547,
      "talkAssetPath": "",
      "talkAssetPathAlter": "",
      "talkAudioName": "",
      "actionBefore": "",
      "actionWhile": "",
      "actionAfter": "",
      "optionIcon": "",
      "iconPath": ""
    },
    {
      "id": 401642302,
      "nextDialogs": [
        401642303
      ],
      "talkRole": {
        "type": "TALK_ROLE_NPC",
        "_id": "30576"
      },
      "talkContentTextMapHash": 3619942018,
      "talkRoleNameTextMapHash": 1286239683,
      "talkAssetPath": "",
      "talkAssetPathAlter": "",
      "talkAudioName": "",
      "actionBefore": "",
      "actionWhile": "",
      "actionAfter": "",
      "optionIcon": "",
      "iconPath": ""
    },
    {
      "id": 401642303,
      "nextDialogs": [
        401642304
      ],
      "talkRole": {
        "type": "TALK_ROLE_NPC",
        "_id": "30577"
      },
      "talkContentTextMapHash": 1877214922,
      "talkRoleNameTextMapHash": 1276901931,
      "talkAssetPath": "",
      "talkAssetPathAlter": "",
      "talkAudioName": "",
      "actionBefore": "",
      "actionWhile": "",
      "actionAfter": "",
      "optionIcon": "",
      "iconPath": ""
    },
    {
      "id": 401642304,
      "nextDialogs": [
        401642305
      ],
      "talkRole": {
        "type": "TALK_ROLE_NPC",
        "_id": "30576"
      },
      "talkContentTextMapHash": 869311754,
      "talkRoleNameTextMapHash": 1121532803,
      "talkAssetPath": "",
      "talkAssetPathAlter": "",
      "talkAudioName": "",
      "actionBefore": "",
      "actionWhile": "",
      "actionAfter": "",
      "optionIcon": "",
      "iconPath": ""
    },
    {
      "id": 401642305,
      "nextDialogs": [
        401642306
      ],
      "talkRole": {
        "type": "TALK_ROLE_NPC",
        "_id": "30576"
      },
      "talkContentTextMapHash": 164222234,
      "talkRoleNameTextMapHash": 3192204803,
      "talkAssetPath": "",
      "talkAssetPathAlter": "",
      "talkAudioName": "",
      "actionBefore": "",
      "actionWhile": "",
      "actionAfter": "",
      "optionIcon": "",
      "iconPath": ""
    },
    {
      "id": 401642306,
      "nextDialogs": [
        401642307
      ],
      "talkRole": {
        "type": "TALK_ROLE_NPC",
        "_id": "30577"
      },
      "talkContentTextMapHash": 330783354,
      "talkRoleNameTextMapHash": 1796464099,
      "talkAssetPath": "",
      "talkAssetPathAlter": "",
      "talkAudioName": "",
      "actionBefore": "",
      "actionWhile": "",
      "actionAfter": "",
      "optionIcon": "",
      "iconPath": ""
    },
    {
      "id": 401642307,
      "nextDialogs": [
        401642308
      ],
      "talkRole": {
        "type": "TALK_ROLE_NPC",
        "_id": "30576"
      },
      "talkContentTextMapHash": 681643178,
      "talkRoleNameTextMapHash": 3645657587,
      "talkAssetPath": "",
      "talkAssetPathAlter": "",
      "talkAudioName": "",
      "actionBefore": "",
      "actionWhile": "",
      "actionAfter": "",
      "optionIcon": "",
      "iconPath": ""
    },
    {
      "id": 401642308,
      "nextDialogs": [
        401642309
      ],
      "talkRole": {
        "type": "TALK_ROLE_NPC",
        "_id": "30576"
      },
      "talkContentTextMapHash": 3634399058,
      "talkRoleNameTextMapHash": 4089044723,
      "talkAssetPath": "",
      "talkAssetPathAlter": "",
      "talkAudioName": "",
      "actionBefore": "",
      "actionWhile": "",
      "actionAfter": "",
      "optionIcon": "",
      "iconPath": ""
    },
    {
      "id": 401642309,
      "nextDialogs": [
        401642310
      ],
      "talkRole": {
        "type": "TALK_ROLE_NPC",
        "_id": "30577"
      },
      "talkContentTextMapHash": 3718251810,
      "talkRoleNameTextMapHash": 2726647107,
      "talkAssetPath": "",
      "talkAssetPathAlter": "",
      "talkAudioName": "",
      "actionBefore": "",
      "actionWhile": "",
      "actionAfter": "",
      "optionIcon": "",
      "iconPath": ""
    },
    {
      "id": 401642310,
      "nextDialogs": [
        401642311
      ],
      "talkRole": {
        "type": "TALK_ROLE_NPC",
        "_id": "30577"
      },
      "talkContentTextMapHash": 2414944170,
      "talkRoleNameTextMapHash": 2544112507,
      "talkAssetPath": "",
      "talkAssetPathAlter": "",
      "talkAudioName": "",
      "actionBefore": "",
      "actionWhile": "",
      "actionAfter": "",
      "optionIcon": "",
      "iconPath": ""
    },
    {
      "id": 401642311,
      "talkRole": {
        "type": "TALK_ROLE_NPC",
        "_id": "1065"
      },
      "talkContentTextMapHash": 110774946,
      "talkAssetPath": "",
      "talkAssetPathAlter": "",
      "talkAudioName": "",
      "actionBefore": "",
      "actionWhile": "",
      "actionAfter": "",
      "optionIcon": "",
      "PEMKNDAABBE": 529157404,
      "iconPath": ""
    }
  ]
}