{
  "talkId": 4016210,
  "dialogList": [
    {
      "id": 401621001,
      "nextDialogs": [
        401621002
      ],
      "talkRole": {
        "type": "TALK_ROLE_NPC",
        "_id": "30568"
      },
      "talkContentTextMapHash": 3782555162,
      "talkAssetPath": "",
      "talkAssetPathAlter": "",
      "talkAudioName": "",
      "actionBefore": "",
      "actionWhile": "",
      "actionAfter": "",
      "optionIcon": "",
      "iconPath": ""
    },
    {
      "id": 401621002,
      "nextDialogs": [
        401621003
      ],
      "talkRole": {
        "type": "TALK_ROLE_NPC",
        "_id": "30555"
      },
      "talkContentTextMapHash": 1405563634,
      "talkAssetPath": "",
      "talkAssetPathAlter": "",
      "talkAudioName": "",
      "actionBefore": "",
      "actionWhile": "",
      "actionAfter": "",
      "optionIcon": "",
      "iconPath": ""
    },
    {
      "id": 401621003,
      "nextDialogs": [
        401621004
      ],
      "talkRole": {
        "type": "TALK_ROLE_NPC",
        "_id": "2670"
      },
      "talkContentTextMapHash": 2556735522,
      "talkAssetPath": "",
      "talkAssetPathAlter": "",
      "talkAudioName": "",
      "actionBefore": "",
      "actionWhile": "",
      "actionAfter": "",
      "optionIcon": "",
      "PEMKNDAABBE": 3554820660,
      "iconPath": ""
    },
    {
      "id": 401621004,
      "nextDialogs": [
        401621005
      ],
      "talkRole": {
        "type": "TALK_ROLE_NPC",
        "_id": "1005"
      },
      "talkContentTextMapHash": 1794964362,
      "talkAssetPath": "",
      "talkAssetPathAlter": "",
      "talkAudioName": "",
      "actionBefore": "",
      "actionWhile": "",
      "actionAfter": "",
      "optionIcon": "",
      "iconPath": ""
    },
    {
      "id": 401621005,
      "nextDialogs": [
        401621006
      ],
      "talkRole": {
        "type": "TALK_ROLE_NPC",
        "_id": "30568"
      },
      "talkContentTextMapHash": 4037274098,
      "talkAssetPath": "",
      "talkAssetPathAlter": "",
      "talkAudioName": "",
      "actionBefore": "",
      "actionWhile": "",
      "actionAfter": "",
      "optionIcon": "",
      "iconPath": ""
    },
    {
      "id": 401621006,
      "nextDialogs": [
        401621007
      ],
      "talkRole": {
        "type": "TALK_ROLE_NPC",
        "_id": "30555"
      },
      "talkContentTextMapHash": 2717875778,
      "talkAssetPath": "",
      "talkAssetPathAlter": "",
      "talkAudioName": "",
      "actionBefore": "",
      "actionWhile": "",
      "actionAfter": "",
      "optionIcon": "",
      "iconPath": ""
    },
    {
      "id": 401621007,
      "nextDialogs": [
        401621008
      ],
      "talkRole": {
        "type": "TALK_ROLE_NPC",
        "_id": "2670"
      },
      "talkContentTextMapHash": 3817487010,
      "talkAssetPath": "",
      "talkAssetPathAlter": "",
      "talkAudioName": "",
      "actionBefore": "",
      "actionWhile": "",
      "actionAfter": "",
      "optionIcon": "",
      "PEMKNDAABBE": 2078851740,
      "iconPath": ""
    },
    {
      "id": 401621008,
      "nextDialogs": [
        401621009
      ],
      "talkRole": {
        "type": "TALK_ROLE_NPC",
        "_id": "30568"
      },
      "talkContentTextMapHash": 289812698,
      "talkAssetPath": "",
      "talkAssetPathAlter": "",
      "talkAudioName": "",
      "actionBefore": "",
      "actionWhile": "",
      "actionAfter": "",
      "optionIcon": "",
      "iconPath": ""
    },
    {
      "id": 401621009,
      "nextDialogs": [
        401621010
      ],
      "talkRole": {
        "type": "TALK_ROLE_NPC",
        "_id": "30568"
      },
      "talkContentTextMapHash": 3889608026,
      "talkAssetPath": "",
      "talkAssetPathAlter": "",
      "talkAudioName": "",
      "actionBefore": "",
      "actionWhile": "",
      "actionAfter": "",
      "optionIcon": "",
      "iconPath": ""
    },
    {
      "id": 401621010,
      "nextDialogs": [
        401621011
      ],
      "talkRole": {
        "type": "TALK_ROLE_NPC",
        "_id": "2670"
      },
      "talkContentTextMapHash": 472265218,
      "talkAssetPath": "",
      "talkAssetPathAlter": "",
      "talkAudioName": "",
      "actionBefore": "",
      "actionWhile": "",
      "actionAfter": "",
      "optionIcon": "",
      "PEMKNDAABBE": 1733801140,
      "iconPath": ""
    },
    {
      "id": 401621011,
      "nextDialogs": [
        401621012
      ],
      "talkRole": {
        "type": "TALK_ROLE_NPC",
        "_id": "30568"
      },
      "talkContentTextMapHash": 209123706,
      "talkAssetPath": "",
      "talkAssetPathAlter": "",
      "talkAudioName": "",
      "actionBefore": "",
      "actionWhile": "",
      "actionAfter": "",
      "optionIcon": "",
      "iconPath": ""
    },
    {
      "id": 401621012,
      "nextDialogs": [
        401621013
      ],
      "talkRole": {
        "type": "TALK_ROLE_NPC",
        "_id": "2670"
      },
      "talkContentTextMapHash": 1524348482,
      "talkAssetPath": "",
      "talkAssetPathAlter": "",
      "talkAudioName": "",
      "actionBefore": "",
      "actionWhile": "",
      "actionAfter": "",
      "optionIcon": "",
      "PEMKNDAABBE": 4121733020,
      "iconPath": ""
    },
    {
      "id": 401621013,
      "nextDialogs": [
        401621014
      ],
      "talkRole": {
        "type": "TALK_ROLE_NPC",
        "_id": "30568"
      },
      "talkContentTextMapHash": 1021635218,
      "talkAssetPath": "",
      "talkAssetPathAlter": "",
      "talkAudioName": "",
      "actionBefore": "",
      "actionWhile": "",
      "actionAfter": "",
      "optionIcon": "",
      "iconPath": ""
    },
    {
      "id": 401621014,
      "nextDialogs": [
        401621015
      ],
      "talkRole": {
        "type": "TALK_ROLE_NPC",
        "_id": "30555"
      },
      "talkContentTextMapHash": 1253350618,
      "talkAssetPath": "",
      "talkAssetPathAlter": "",
      "talkAudioName": "",
      "actionBefore": "",
      "actionWhile": "",
      "actionAfter": "",
      "optionIcon": "",
      "iconPath": ""
    },
    {
      "id": 401621015,
      "nextDialogs": [
        401621016
      ],
      "talkRole": {
        "type": "TALK_ROLE_NPC",
        "_id": "2670"
      },
      "talkContentTextMapHash": 1434576210,
      "talkAssetPath": "",
      "talkAssetPathAlter": "",
      "talkAudioName": "",
      "actionBefore": "",
      "actionWhile": "",
      "actionAfter": "",
      "optionIcon": "",
      "PEMKNDAABBE": 446053628,
      "iconPath": ""
    },
    {
      "id": 401621016,
      "nextDialogs": [
        401621017
      ],
      "talkRole": {
        "type": "TALK_ROLE_NPC",
        "_id": "30555"
      },
      "talkContentTextMapHash": 2923140154,
      "talkAssetPath": "",
      "talkAssetPathAlter": "",
      "talkAudioName": "",
      "actionBefore": "",
      "actionWhile": "",
      "actionAfter": "",
      "optionIcon": "",
      "iconPath": ""
    },
    {
      "id": 401621017,
      "nextDialogs": [
        401621018
      ],
      "talkRole": {
        "type": "TALK_ROLE_NPC",
        "_id": "30555"
      },
      "talkContentTextMapHash": 70691866,
      "talkAssetPath": "",
      "talkAssetPathAlter": "",
      "talkAudioName": "",
      "actionBefore": "",
      "actionWhile": "",
      "actionAfter": "",
      "optionIcon": "",
      "iconPath": ""
    },
    {
      "id": 401621018,
      "nextDialogs": [
        401621019
      ],
      "talkRole": {
        "type": "TALK_ROLE_NPC",
        "_id": "30568"
      },
      "talkContentTextMapHash": 3315570002,
      "talkAssetPath": "",
      "talkAssetPathAlter": "",
      "talkAudioName": "",
      "actionBefore": "",
      "actionWhile": "",
      "actionAfter": "",
      "optionIcon": "",
      "iconPath": ""
    },
    {
      "id": 401621019,
      "nextDialogs": [
        401621020
      ],
      "talkRole": {
        "type": "TALK_ROLE_NPC",
        "_id": "30555"
      },
      "talkContentTextMapHash": 4089204810,
      "talkAssetPath": "",
      "talkAssetPathAlter": "",
      "talkAudioName": "",
      "actionBefore": "",
      "actionWhile": "",
      "actionAfter": "",
      "optionIcon": "",
      "iconPath": ""
    },
    {
      "id": 401621020,
      "nextDialogs": [
        401621021
      ],
      "talkRole": {
        "type": "TALK_ROLE_NPC",
        "_id": "1005"
      },
      "talkContentTextMapHash": 4050669250,
      "talkAssetPath": "",
      "talkAssetPathAlter": "",
      "talkAudioName": "",
      "actionBefore": "",
      "actionWhile": "",
      "actionAfter": "",
      "optionIcon": "",
      "iconPath": ""
    },
    {
      "id": 401621021,
      "nextDialogs": [
        401621022
      ],
      "talkRole": {
        "type": "TALK_ROLE_NPC",
        "_id": "2670"
      },
      "talkContentTextMapHash": 3807497490,
      "talkAssetPath": "",
      "talkAssetPathAlter": "",
      "talkAudioName": "",
      "actionBefore": "",
      "actionWhile": "",
      "actionAfter": "",
      "optionIcon": "",
      "PEMKNDAABBE": 2056114060,
      "iconPath": ""
    },
    {
      "id": 401621022,
      "nextDialogs": [
        401621023
      ],
      "talkRole": {
        "type": "TALK_ROLE_NPC",
        "_id": "2670"
      },
      "talkContentTextMapHash": 3494319986,
      "talkAssetPath": "",
      "talkAssetPathAlter": "",
      "talkAudioName": "",
      "actionBefore": "",
      "actionWhile": "",
      "actionAfter": "",
      "optionIcon": "",
      "PEMKNDAABBE": 3170463524,
      "iconPath": ""
    },
    {
      "id": 401621023,
      "nextDialogs": [
        401621024
      ],
      "talkRole": {
        "type": "TALK_ROLE_NPC",
        "_id": "1005"
      },
      "talkContentTextMapHash": 2662851754,
      "talkAssetPath": "",
      "talkAssetPathAlter": "",
      "talkAudioName": "",
      "actionBefore": "",
      "actionWhile": "",
      "actionAfter": "",
      "optionIcon": "",
      "iconPath": ""
    },
    {
      "id": 401621024,
      "nextDialogs": [
        401621025
      ],
      "talkRole": {
        "type": "TALK_ROLE_NPC",
        "_id": "30568"
      },
      "talkContentTextMapHash": 3412851002,
      "talkAssetPath": "",
      "talkAssetPathAlter": "",
      "talkAudioName": "",
      "actionBefore": "",
      "actionWhile": "",
      "actionAfter": "",
      "optionIcon": "",
      "iconPath": ""
    },
    {
      "id": 401621025,
      "nextDialogs": [
        401621026
      ],
      "talkRole": {
        "type": "TALK_ROLE_NPC",
        "_id": "30555"
      },
      "talkContentTextMapHash": 1953377714,
      "talkAssetPath": "",
      "talkAssetPathAlter": "",
      "talkAudioName": "",
      "actionBefore": "",
      "actionWhile": "",
      "actionAfter": "",
      "optionIcon": "",
      "iconPath": ""
    },
    {
      "id": 401621026,
      "nextDialogs": [
        401621027
      ],
      "talkRole": {
        "type": "TALK_ROLE_NPC",
        "_id": "2670"
      },
      "talkContentTextMapHash": 53040770,
      "talkAssetPath": "",
      "talkAssetPathAlter": "",
      "talkAudioName": "",
      "actionBefore": "",
      "actionWhile": "",
      "actionAfter": "",
      "optionIcon": "",
      "PEMKNDAABBE": 1063407348,
      "iconPath": ""
    },
    {
      "id": 401621027,
      "talkRole": {
        "type": "TALK_ROLE_NPC",
        "_id": "30555"
      },
      "talkContentTextMapHash": 118328034,
      "talkAssetPath": "",
      "talkAssetPathAlter": "",
      "talkAudioName": "",
      "actionBefore": "",
      "actionWhile": "",
      "actionAfter": "",
      "optionIcon": "",
      "iconPath": ""
    }
  ]
}