{
  "talkId": 4016218,
  "dialogList": [
    {
      "id": 401621801,
      "nextDialogs": [
        401621802
      ],
      "talkRole": {
        "type": "TALK_ROLE_NPC",
        "_id": "30571"
      },
      "talkContentTextMapHash": 193819450,
      "talkAssetPath": "",
      "talkAssetPathAlter": "",
      "talkAudioName": "",
      "actionBefore": "",
      "actionWhile": "",
      "actionAfter": "",
      "optionIcon": "",
      "iconPath": ""
    },
    {
      "id": 401621802,
      "nextDialogs": [
        401621803
      ],
      "talkRole": {
        "type": "TALK_ROLE_NPC",
        "_id": "1005"
      },
      "talkContentTextMapHash": 1240200722,
      "talkAssetPath": "",
      "talkAssetPathAlter": "",
      "talkAudioName": "",
      "actionBefore": "",
      "actionWhile": "",
      "actionAfter": "",
      "optionIcon": "",
      "iconPath": ""
    },
    {
      "id": 401621803,
      "nextDialogs": [
        401621804
      ],
      "talkRole": {
        "type": "TALK_ROLE_NPC",
        "_id": "2670"
      },
      "talkContentTextMapHash": 3937601218,
      "talkAssetPath": "",
      "talkAssetPathAlter": "",
      "talkAudioName": "",
      "actionBefore": "",
      "actionWhile": "",
      "actionAfter": "",
      "optionIcon": "",
      "PEMKNDAABBE": 3248350668,
      "iconPath": ""
    },
    {
      "id": 401621804,
      "nextDialogs": [
        401621805
      ],
      "talkRole": {
        "type": "TALK_ROLE_NPC",
        "_id": "30554"
      },
      "talkContentTextMapHash": 1071022242,
      "talkAssetPath": "",
      "talkAssetPathAlter": "",
      "talkAudioName": "",
      "actionBefore": "",
      "actionWhile": "",
      "actionAfter": "",
      "optionIcon": "",
      "PEMKNDAABBE": 1688669612,
      "iconPath": ""
    },
    {
      "id": 401621805,
      "nextDialogs": [
        401621806
      ],
      "talkRole": {
        "type": "TALK_ROLE_NPC",
        "_id": "30554"
      },
      "talkContentTextMapHash": 1451443722,
      "talkAssetPath": "",
      "talkAssetPathAlter": "",
      "talkAudioName": "",
      "actionBefore": "",
      "actionWhile": "",
      "actionAfter": "",
      "optionIcon": "",
      "PEMKNDAABBE": 1160558684,
      "iconPath": ""
    },
    {
      "id": 401621806,
      "nextDialogs": [
        401621807
      ],
      "talkRole": {
        "type": "TALK_ROLE_NPC",
        "_id": "30554"
      },
      "talkContentTextMapHash": 2881796978,
      "talkAssetPath": "",
      "talkAssetPathAlter": "",
      "talkAudioName": "",
      "actionBefore": "",
      "actionWhile": "",
      "actionAfter": "",
      "optionIcon": "",
      "PEMKNDAABBE": 2236461988,
      "iconPath": ""
    },
    {
      "id": 401621807,
      "nextDialogs": [
        401621808
      ],
      "talkRole": {
        "type": "TALK_ROLE_NPC",
        "_id": "1005"
      },
      "talkContentTextMapHash": 1872484850,
      "talkAssetPath": "",
      "talkAssetPathAlter": "",
      "talkAudioName": "",
      "actionBefore": "",
      "actionWhile": "",
      "actionAfter": "",
      "optionIcon": "",
      "iconPath": ""
    },
    {
      "id": 401621808,
      "nextDialogs": [
        401621809
      ],
      "talkRole": {
        "type": "TALK_ROLE_NPC",
        "_id": "30554"
      },
      "talkContentTextMapHash": 1171140002,
      "talkAssetPath": "",
      "talkAssetPathAlter": "",
      "talkAudioName": "",
      "actionBefore": "",
      "actionWhile": "",
      "actionAfter": "",
      "optionIcon": "",
      "PEMKNDAABBE": 1826732380,
      "iconPath": ""
    },
    {
      "id": 401621809,
      "nextDialogs": [
        401621810
      ],
      "talkRole": {
        "type": "TALK_ROLE_NPC",
        "_id": "1005"
      },
      "talkContentTextMapHash": 2528439258,
      "talkAssetPath": "",
      "talkAssetPathAlter": "",
      "talkAudioName": "",
      "actionBefore": "",
      "actionWhile": "",
      "actionAfter": "",
      "optionIcon": "",
      "iconPath": ""
    },
    {
      "id": 401621810,
      "nextDialogs": [
        401621811
      ],
      "talkRole": {
        "type": "TALK_ROLE_NPC",
        "_id": "30554"
      },
      "talkContentTextMapHash": 1419845026,
      "talkAssetPath": "",
      "talkAssetPathAlter": "",
      "talkAudioName": "",
      "actionBefore": "",
      "actionWhile": "",
      "actionAfter": "",
      "optionIcon": "",
      "PEMKNDAABBE": 2126693428,
      "iconPath": ""
    },
    {
      "id": 401621811,
      "nextDialogs": [
        401621812,
        401621814
      ],
      "talkRole": {
        "type": "TALK_ROLE_NPC",
        "_id": "1005"
      },
      "talkContentTextMapHash": 508746434,
      "talkAssetPath": "",
      "talkAssetPathAlter": "",
      "talkAudioName": "",
      "actionBefore": "",
      "actionWhile": "",
      "actionAfter": "",
      "optionIcon": "",
      "iconPath": ""
    },
    {
      "id": 401621812,
      "nextDialogs": [
        401621813
      ],
      "talkRole": {
        "type": "TALK_ROLE_PLAYER",
        "_id": ""
      },
      "talkContentTextMapHash": 4100611890,
      "talkAssetPath": "",
      "talkAssetPathAlter": "",
      "talkAudioName": "",
      "actionBefore": "",
      "actionWhile": "",
      "actionAfter": "",
      "optionIcon": "",
      "iconPath": ""
    },
    {
      "id": 401621813,
      "nextDialogs": [
        401621816
      ],
      "talkRole": {
        "type": "TALK_ROLE_NPC",
        "_id": "1005"
      },
      "talkContentTextMapHash": 2977511994,
      "talkAssetPath": "",
      "talkAssetPathAlter": "",
      "talkAudioName": "",
      "actionBefore": "",
      "actionWhile": "",
      "actionAfter": "",
      "optionIcon": "",
      "iconPath": ""
    },
    {
      "id": 401621816,
      "nextDialogs": [
        401621817
      ],
      "talkRole": {
        "type": "TALK_ROLE_NPC",
        "_id": "30554"
      },
      "talkContentTextMapHash": 241573178,
      "talkAssetPath": "",
      "talkAssetPathAlter": "",
      "talkAudioName": "",
      "actionBefore": "",
      "actionWhile": "",
      "actionAfter": "",
      "optionIcon": "",
      "PEMKNDAABBE": 396723796,
      "iconPath": ""
    },
    {
      "id": 401621817,
      "nextDialogs": [
        401621818,
        401621819
      ],
      "talkRole": {
        "type": "TALK_ROLE_NPC",
        "_id": "2670"
      },
      "talkContentTextMapHash": 2947566202,
      "talkAssetPath": "",
      "talkAssetPathAlter": "",
      "talkAudioName": "",
      "actionBefore": "",
      "actionWhile": "",
      "actionAfter": "",
      "optionIcon": "",
      "PEMKNDAABBE": 3208853692,
      "iconPath": ""
    },
    {
      "id": 401621818,
      "nextDialogs": [
        401621820
      ],
      "talkRole": {
        "type": "TALK_ROLE_PLAYER",
        "_id": ""
      },
      "talkContentTextMapHash": 2949685290,
      "talkAssetPath": "",
      "talkAssetPathAlter": "",
      "talkAudioName": "",
      "actionBefore": "",
      "actionWhile": "",
      "actionAfter": "",
      "optionIcon": "",
      "iconPath": ""
    },
    {
      "id": 401621820,
      "nextDialogs": [
        401621821
      ],
      "talkRole": {
        "type": "TALK_ROLE_NPC",
        "_id": "1005"
      },
      "talkContentTextMapHash": 1142996258,
      "talkAssetPath": "",
      "talkAssetPathAlter": "",
      "talkAudioName": "",
      "actionBefore": "",
      "actionWhile": "",
      "actionAfter": "",
      "optionIcon": "",
      "iconPath": ""
    },
    {
      "id": 401621821,
      "nextDialogs": [
        401621822
      ],
      "talkRole": {
        "type": "TALK_ROLE_NPC",
        "_id": "30554"
      },
      "talkContentTextMapHash": 2934713658,
      "talkAssetPath": "",
      "talkAssetPathAlter": "",
      "talkAudioName": "",
      "actionBefore": "",
      "actionWhile": "",
      "actionAfter": "",
      "optionIcon": "",
      "PEMKNDAABBE": 1599305484,
      "iconPath": ""
    },
    {
      "id": 401621822,
      "nextDialogs": [
        401621823
      ],
      "talkRole": {
        "type": "TALK_ROLE_NPC",
        "_id": "30554"
      },
      "talkContentTextMapHash": 2932678754,
      "talkAssetPath": "",
      "talkAssetPathAlter": "",
      "talkAudioName": "",
      "actionBefore": "",
      "actionWhile": "",
      "actionAfter": "",
      "optionIcon": "",
      "PEMKNDAABBE": 3735294740,
      "iconPath": ""
    },
    {
      "id": 401621823,
      "nextDialogs": [
        401621824
      ],
      "talkRole": {
        "type": "TALK_ROLE_NPC",
        "_id": "30571"
      },
      "talkContentTextMapHash": 1032549338,
      "talkAssetPath": "",
      "talkAssetPathAlter": "",
      "talkAudioName": "",
      "actionBefore": "",
      "actionWhile": "",
      "actionAfter": "",
      "optionIcon": "",
      "iconPath": ""
    },
    {
      "id": 401621824,
      "nextDialogs": [
        401621825
      ],
      "talkRole": {
        "type": "TALK_ROLE_NPC",
        "_id": "2670"
      },
      "talkContentTextMapHash": 741248714,
      "talkAssetPath": "",
      "talkAssetPathAlter": "",
      "talkAudioName": "",
      "actionBefore": "",
      "actionWhile": "",
      "actionAfter": "",
      "optionIcon": "",
      "PEMKNDAABBE": 2261677652,
      "iconPath": ""
    },
    {
      "id": 401621825,
      "nextDialogs": [
        401621826
      ],
      "talkRole": {
        "type": "TALK_ROLE_NPC",
        "_id": "2670"
      },
      "talkContentTextMapHash": 1744383746,
      "talkAssetPath": "",
      "talkAssetPathAlter": "",
      "talkAudioName": "",
      "actionBefore": "",
      "actionWhile": "",
      "actionAfter": "",
      "optionIcon": "",
      "PEMKNDAABBE": 380984532,
      "iconPath": ""
    },
    {
      "id": 401621826,
      "nextDialogs": [
        401621827
      ],
      "talkRole": {
        "type": "TALK_ROLE_NPC",
        "_id": "30571"
      },
      "talkContentTextMapHash": 2821394034,
      "talkAssetPath": "",
      "talkAssetPathAlter": "",
      "talkAudioName": "",
      "actionBefore": "",
      "actionWhile": "",
      "actionAfter": "",
      "optionIcon": "",
      "iconPath": ""
    },
    {
      "id": 401621827,
      "nextDialogs": [
        401621828
      ],
      "talkRole": {
        "type": "TALK_ROLE_NPC",
        "_id": "30554"
      },
      "talkContentTextMapHash": 1433295218,
      "talkAssetPath": "",
      "talkAssetPathAlter": "",
      "talkAudioName": "",
      "actionBefore": "",
      "actionWhile": "",
      "actionAfter": "",
      "optionIcon": "",
      "PEMKNDAABBE": 2083296204,
      "iconPath": ""
    },
    {
      "id": 401621828,
      "nextDialogs": [
        401621829
      ],
      "talkRole": {
        "type": "TALK_ROLE_NPC",
        "_id": "30554"
      },
      "talkContentTextMapHash": 977570650,
      "talkAssetPath": "",
      "talkAssetPathAlter": "",
      "talkAudioName": "",
      "actionBefore": "",
      "actionWhile": "",
      "actionAfter": "",
      "optionIcon": "",
      "PEMKNDAABBE": 3762497756,
      "iconPath": ""
    },
    {
      "id": 401621829,
      "nextDialogs": [
        401621830
      ],
      "talkRole": {
        "type": "TALK_ROLE_NPC",
        "_id": "1005"
      },
      "talkContentTextMapHash": 3184434914,
      "talkAssetPath": "",
      "talkAssetPathAlter": "",
      "talkAudioName": "",
      "actionBefore": "",
      "actionWhile": "",
      "actionAfter": "",
      "optionIcon": "",
      "iconPath": ""
    },
    {
      "id": 401621830,
      "nextDialogs": [
        401621831
      ],
      "talkRole": {
        "type": "TALK_ROLE_NPC",
        "_id": "30556"
      },
      "talkContentTextMapHash": 4092204818,
      "talkAssetPath": "",
      "talkAssetPathAlter": "",
      "talkAudioName": "",
      "actionBefore": "",
      "actionWhile": "",
      "actionAfter": "",
      "optionIcon": "",
      "iconPath": ""
    },
    {
      "id": 401621831,
      "talkRole": {
        "type": "TALK_ROLE_NPC",
        "_id": "1005"
      },
      "talkContentTextMapHash": 1648795178,
      "talkAssetPath": "",
      "talkAssetPathAlter": "",
      "talkAudioName": "",
      "actionBefore": "",
      "actionWhile": "",
      "actionAfter": "",
      "optionIcon": "",
      "iconPath": ""
    },
    {
      "id": 401621819,
      "nextDialogs": [
        401621820
      ],
      "talkRole": {
        "type": "TALK_ROLE_PLAYER",
        "_id": ""
      },
      "talkContentTextMapHash": 3147292858,
      "talkAssetPath": "",
      "talkAssetPathAlter": "",
      "talkAudioName": "",
      "actionBefore": "",
      "actionWhile": "",
      "actionAfter": "",
      "optionIcon": "",
      "iconPath": ""
    },
    {
      "id": 401621814,
      "nextDialogs": [
        401621815
      ],
      "talkRole": {
        "type": "TALK_ROLE_PLAYER",
        "_id": ""
      },
      "talkContentTextMapHash": 1723942442,
      "talkAssetPath": "",
      "talkAssetPathAlter": "",
      "talkAudioName": "",
      "actionBefore": "",
      "actionWhile": "",
      "actionAfter": "",
      "optionIcon": "",
      "iconPath": ""
    },
    {
      "id": 401621815,
      "nextDialogs": [
        401621816
      ],
      "talkRole": {
        "type": "TALK_ROLE_NPC",
        "_id": "1005"
      },
      "talkContentTextMapHash": 1767842330,
      "talkAssetPath": "",
      "talkAssetPathAlter": "",
      "talkAudioName": "",
      "actionBefore": "",
      "actionWhile": "",
      "actionAfter": "",
      "optionIcon": "",
      "iconPath": ""
    }
  ]
}