{
  "talkId": 500022,
  "dialogList": [
    {
      "id": 50002201,
      "talkRole": {
        "type": "TALK_ROLE_NPC",
        "_id": "13577"
      },
      "talkContentTextMapHash": 3410564698,
      "talkAssetPath": "",
      "talkAssetPathAlter": "",
      "talkAudioName": "",
      "actionBefore": "",
      "actionWhile": "",
      "actionAfter": "",
      "optionIcon": "",
      "iconPath": ""
    }
  ]
}