{
  "talkId": 7404602,
  "dialogList": [
    {
      "id": 740460201,
      "talkRole": {
        "type": "TALK_ROLE_NPC",
        "_id": "21393"
      },
      "talkContentTextMapHash": 519337546,
      "talkRoleNameTextMapHash": 2646094243,
      "talkAssetPath": "",
      "talkAssetPathAlter": "",
      "talkAudioName": "",
      "actionBefore": "",
      "actionWhile": "",
      "actionAfter": "",
      "optionIcon": "",
      "PEMKNDAABBE": 933081140,
      "iconPath": ""
    }
  ]
}