{
  "talkId": 7503414,
  "dialogList": [
    {
      "id": 750341401,
      "nextDialogs": [
        750341402
      ],
      "talkRole": {
        "type": "TALK_ROLE_NPC",
        "_id": "1005"
      },
      "talkContentTextMapHash": 3952153722,
      "talkAssetPath": "",
      "talkAssetPathAlter": "",
      "talkAudioName": "",
      "actionBefore": "",
      "actionWhile": "",
      "actionAfter": "",
      "optionIcon": "",
      "iconPath": ""
    },
    {
      "id": 750341402,
      "nextDialogs": [
        750341403
      ],
      "talkRole": {
        "type": "TALK_ROLE_BLACK_SCREEN",
        "_id": ""
      },
      "talkContentTextMapHash": 2202950882,
      "talkAssetPath": "",
      "talkAssetPathAlter": "",
      "talkAudioName": "",
      "actionBefore": "",
      "actionWhile": "",
      "actionAfter": "",
      "optionIcon": "",
      "iconPath": ""
    },
    {
      "id": 750341403,
      "nextDialogs": [
        750341404
      ],
      "talkRole": {
        "type": "TALK_ROLE_NPC",
        "_id": "21570"
      },
      "talkContentTextMapHash": 3585383050,
      "talkAssetPath": "",
      "talkAssetPathAlter": "",
      "talkAudioName": "",
      "actionBefore": "",
      "actionWhile": "",
      "actionAfter": "",
      "optionIcon": "",
      "iconPath": ""
    },
    {
      "id": 750341404,
      "nextDialogs": [
        750341405
      ],
      "talkRole": {
        "type": "TALK_ROLE_NPC",
        "_id": "21570"
      },
      "talkContentTextMapHash": 2548639706,
      "talkAssetPath": "",
      "talkAssetPathAlter": "",
      "talkAudioName": "",
      "actionBefore": "",
      "actionWhile": "",
      "actionAfter": "",
      "optionIcon": "",
      "iconPath": ""
    },
    {
      "id": 750341405,
      "nextDialogs": [
        750341406
      ],
      "talkRole": {
        "type": "TALK_ROLE_NPC",
        "_id": "21570"
      },
      "talkContentTextMapHash": 4263777538,
      "talkAssetPath": "",
      "talkAssetPathAlter": "",
      "talkAudioName": "",
      "actionBefore": "",
      "actionWhile": "",
      "actionAfter": "",
      "optionIcon": "",
      "iconPath": ""
    },
    {
      "id": 750341406,
      "nextDialogs": [
        750341407
      ],
      "talkRole": {
        "type": "TALK_ROLE_NPC",
        "_id": "1005"
      },
      "talkContentTextMapHash": 3274570442,
      "talkAssetPath": "",
      "talkAssetPathAlter": "",
      "talkAudioName": "",
      "actionBefore": "",
      "actionWhile": "",
      "actionAfter": "",
      "optionIcon": "",
      "iconPath": ""
    },
    {
      "id": 750341407,
      "nextDialogs": [
        750341408
      ],
      "talkRole": {
        "type": "TALK_ROLE_NPC",
        "_id": "21570"
      },
      "talkContentTextMapHash": 1887447002,
      "talkAssetPath": "",
      "talkAssetPathAlter": "",
      "talkAudioName": "",
      "actionBefore": "",
      "actionWhile": "",
      "actionAfter": "",
      "optionIcon": "",
      "iconPath": ""
    },
    {
      "id": 750341408,
      "nextDialogs": [
        750341409
      ],
      "talkRole": {
        "type": "TALK_ROLE_NPC",
        "_id": "21570"
      },
      "talkContentTextMapHash": 529716346,
      "talkAssetPath": "",
      "talkAssetPathAlter": "",
      "talkAudioName": "",
      "actionBefore": "",
      "actionWhile": "",
      "actionAfter": "",
      "optionIcon": "",
      "iconPath": ""
    },
    {
      "id": 750341409,
      "nextDialogs": [
        750341410
      ],
      "talkRole": {
        "type": "TALK_ROLE_NPC",
        "_id": "1005"
      },
      "talkContentTextMapHash": 430269906,
      "talkAssetPath": "",
      "talkAssetPathAlter": "",
      "talkAudioName": "",
      "actionBefore": "",
      "actionWhile": "",
      "actionAfter": "",
      "optionIcon": "",
      "iconPath": ""
    },
    {
      "id": 750341410,
      "nextDialogs": [
        750341411
      ],
      "talkRole": {
        "type": "TALK_ROLE_NPC",
        "_id": "21570"
      },
      "talkContentTextMapHash": 2831912978,
      "talkAssetPath": "",
      "talkAssetPathAlter": "",
      "talkAudioName": "",
      "actionBefore": "",
      "actionWhile": "",
      "actionAfter": "",
      "optionIcon": "",
      "iconPath": ""
    },
    {
      "id": 750341411,
      "nextDialogs": [
        750341412
      ],
      "talkRole": {
        "type": "TALK_ROLE_NPC",
        "_id": "21570"
      },
      "talkContentTextMapHash": 3744212962,
      "talkAssetPath": "",
      "talkAssetPathAlter": "",
      "talkAudioName": "",
      "actionBefore": "",
      "actionWhile": "",
      "actionAfter": "",
      "optionIcon": "",
      "iconPath": ""
    },
    {
      "id": 750341412,
      "talkRole": {
        "type": "TALK_ROLE_NPC",
        "_id": "21570"
      },
      "talkContentTextMapHash": 3356178058,
      "talkAssetPath": "",
      "talkAssetPathAlter": "",
      "talkAudioName": "",
      "actionBefore": "",
      "actionWhile": "",
      "actionAfter": "",
      "optionIcon": "",
      "iconPath": ""
    }
  ]
}