{
  "talkId": 7511210,
  "dialogList": [
    {
      "id": 751121001,
      "talkRole": {
        "type": "TALK_ROLE_NPC",
        "_id": "6169"
      },
      "talkContentTextMapHash": 1427218130,
      "talkRoleNameTextMapHash": 1132588835,
      "talkAssetPath": "",
      "talkAssetPathAlter": "",
      "talkAudioName": "",
      "actionBefore": "",
      "actionWhile": "",
      "actionAfter": "",
      "optionIcon": "",
      "PEMKNDAABBE": 967261596,
      "iconPath": ""
    }
  ]
}