{
  "talkId": 7511205,
  "dialogList": [
    {
      "id": 751120501,
      "nextDialogs": [
        751120504
      ],
      "talkRole": {
        "type": "TALK_ROLE_NPC",
        "_id": "6295"
      },
      "talkContentTextMapHash": 4053334402,
      "talkRoleNameTextMapHash": 2510536315,
      "talkAssetPath": "",
      "talkAssetPathAlter": "",
      "talkAudioName": "",
      "actionBefore": "",
      "actionWhile": "",
      "actionAfter": "DialogAction/D751120201_After",
      "optionIcon": "",
      "PEMKNDAABBE": 360793564,
      "iconPath": ""
    },
    {
      "id": 751120504,
      "nextDialogs": [
        751120505
      ],
      "talkRole": {
        "type": "TALK_ROLE_NPC",
        "_id": "6295"
      },
      "talkContentTextMapHash": 1007753546,
      "talkRoleNameTextMapHash": 1608787939,
      "talkAssetPath": "",
      "talkAssetPathAlter": "",
      "talkAudioName": "",
      "actionBefore": "",
      "actionWhile": "",
      "actionAfter": "DialogAction/D751120201_After",
      "optionIcon": "",
      "PEMKNDAABBE": 620032644,
      "iconPath": ""
    },
    {
      "id": 751120505,
      "nextDialogs": [
        751120502,
        751120503
      ],
      "talkRole": {
        "type": "TALK_ROLE_NPC",
        "_id": "6295"
      },
      "talkContentTextMapHash": 516957850,
      "talkRoleNameTextMapHash": 2720715259,
      "talkAssetPath": "",
      "talkAssetPathAlter": "",
      "talkAudioName": "",
      "actionBefore": "",
      "actionWhile": "",
      "actionAfter": "DialogAction/D751120201_After",
      "optionIcon": "",
      "PEMKNDAABBE": 3062457980,
      "iconPath": ""
    },
    {
      "id": 751120502,
      "talkShowType": "TALK_SHOW_FORCE_SELECT",
      "talkRole": {
        "type": "TALK_ROLE_PLAYER",
        "_id": ""
      },
      "talkContentTextMapHash": 220924930,
      "talkRoleNameTextMapHash": 2637976923,
      "talkAssetPath": "",
      "talkAssetPathAlter": "",
      "talkAudioName": "",
      "actionBefore": "",
      "actionWhile": "",
      "actionAfter": "",
      "optionIcon": "UI_NPCTopIcon_NtNpcWorldChallenge",
      "PEMKNDAABBE": 3083297524,
      "iconPath": ""
    },
    {
      "id": 751120503,
      "talkShowType": "TALK_SHOW_FORCE_SELECT",
      "talkRole": {
        "type": "TALK_ROLE_PLAYER",
        "_id": ""
      },
      "talkContentTextMapHash": 968118450,
      "talkRoleNameTextMapHash": 3956131211,
      "talkAssetPath": "",
      "talkAssetPathAlter": "",
      "talkAudioName": "",
      "actionBefore": "",
      "actionWhile": "",
      "actionAfter": "",
      "optionIcon": "",
      "PEMKNDAABBE": 2356076604,
      "iconPath": ""
    }
  ]
}