{
  "talkId": 7906225,
  "dialogList": [
    {
      "id": 790622501,
      "nextDialogs": [
        790622502
      ],
      "talkRole": {
        "type": "TALK_ROLE_NPC",
        "_id": "21540"
      },
      "talkContentTextMapHash": 2716845330,
      "talkAssetPath": "",
      "talkAssetPathAlter": "",
      "talkAudioName": "",
      "actionBefore": "",
      "actionWhile": "",
      "actionAfter": "",
      "optionIcon": "",
      "iconPath": ""
    },
    {
      "id": 790622502,
      "nextDialogs": [
        790622503
      ],
      "talkRole": {
        "type": "TALK_ROLE_NPC",
        "_id": "2661"
      },
      "talkContentTextMapHash": 1555505082,
      "talkAssetPath": "",
      "talkAssetPathAlter": "",
      "talkAudioName": "",
      "actionBefore": "",
      "actionWhile": "",
      "actionAfter": "",
      "optionIcon": "",
      "iconPath": ""
    },
    {
      "id": 790622503,
      "nextDialogs": [
        790622504
      ],
      "talkRole": {
        "type": "TALK_ROLE_NPC",
        "_id": "1005"
      },
      "talkContentTextMapHash": 2131668346,
      "talkAssetPath": "",
      "talkAssetPathAlter": "",
      "talkAudioName": "",
      "actionBefore": "",
      "actionWhile": "",
      "actionAfter": "",
      "optionIcon": "",
      "iconPath": ""
    },
    {
      "id": 790622504,
      "nextDialogs": [
        790622505
      ],
      "talkRole": {
        "type": "TALK_ROLE_NPC",
        "_id": "21440"
      },
      "talkContentTextMapHash": 636106362,
      "talkAssetPath": "",
      "talkAssetPathAlter": "",
      "talkAudioName": "",
      "actionBefore": "",
      "actionWhile": "",
      "actionAfter": "",
      "optionIcon": "",
      "PEMKNDAABBE": 1272684556,
      "iconPath": ""
    },
    {
      "id": 790622505,
      "nextDialogs": [
        790622506
      ],
      "talkRole": {
        "type": "TALK_ROLE_NPC",
        "_id": "21441"
      },
      "talkContentTextMapHash": 3267884202,
      "talkRoleNameTextMapHash": 181743403,
      "talkAssetPath": "",
      "talkAssetPathAlter": "",
      "talkAudioName": "",
      "actionBefore": "",
      "actionWhile": "",
      "actionAfter": "",
      "optionIcon": "",
      "PEMKNDAABBE": 2429026700,
      "iconPath": ""
    },
    {
      "id": 790622506,
      "nextDialogs": [
        790622507
      ],
      "talkRole": {
        "type": "TALK_ROLE_NPC",
        "_id": "21439"
      },
      "talkContentTextMapHash": 3541066202,
      "talkAssetPath": "",
      "talkAssetPathAlter": "",
      "talkAudioName": "",
      "actionBefore": "",
      "actionWhile": "",
      "actionAfter": "",
      "optionIcon": "",
      "PEMKNDAABBE": 3109703532,
      "iconPath": ""
    },
    {
      "id": 790622507,
      "nextDialogs": [
        790622508
      ],
      "talkRole": {
        "type": "TALK_ROLE_NPC",
        "_id": "21440"
      },
      "talkContentTextMapHash": 3273083186,
      "talkAssetPath": "",
      "talkAssetPathAlter": "",
      "talkAudioName": "",
      "actionBefore": "",
      "actionWhile": "",
      "actionAfter": "",
      "optionIcon": "",
      "PEMKNDAABBE": 1457760956,
      "iconPath": ""
    },
    {
      "id": 790622508,
      "nextDialogs": [
        790622509
      ],
      "talkRole": {
        "type": "TALK_ROLE_NPC",
        "_id": "21439"
      },
      "talkContentTextMapHash": 111890242,
      "talkAssetPath": "",
      "talkAssetPathAlter": "",
      "talkAudioName": "",
      "actionBefore": "",
      "actionWhile": "",
      "actionAfter": "",
      "optionIcon": "",
      "PEMKNDAABBE": 651704740,
      "iconPath": ""
    },
    {
      "id": 790622509,
      "nextDialogs": [
        790622510
      ],
      "talkRole": {
        "type": "TALK_ROLE_NPC",
        "_id": "21441"
      },
      "talkContentTextMapHash": 2971729026,
      "talkAssetPath": "",
      "talkAssetPathAlter": "",
      "talkAudioName": "",
      "actionBefore": "",
      "actionWhile": "",
      "actionAfter": "",
      "optionIcon": "",
      "PEMKNDAABBE": 3830186524,
      "iconPath": ""
    },
    {
      "id": 790622510,
      "nextDialogs": [
        790622511
      ],
      "talkShowType": "TALK_SHOW_FORCE_SELECT",
      "talkRole": {
        "type": "TALK_ROLE_PLAYER",
        "_id": ""
      },
      "talkContentTextMapHash": 2226271642,
      "talkAssetPath": "",
      "talkAssetPathAlter": "",
      "talkAudioName": "",
      "actionBefore": "",
      "actionWhile": "",
      "actionAfter": "",
      "optionIcon": "",
      "iconPath": ""
    },
    {
      "id": 790622511,
      "nextDialogs": [
        790622512
      ],
      "talkRole": {
        "type": "TALK_ROLE_NPC",
        "_id": "21441"
      },
      "talkContentTextMapHash": 3156712274,
      "talkAssetPath": "",
      "talkAssetPathAlter": "",
      "talkAudioName": "",
      "actionBefore": "",
      "actionWhile": "",
      "actionAfter": "",
      "optionIcon": "",
      "PEMKNDAABBE": 2242558868,
      "iconPath": ""
    },
    {
      "id": 790622512,
      "nextDialogs": [
        790622513
      ],
      "talkRole": {
        "type": "TALK_ROLE_NPC",
        "_id": "1005"
      },
      "talkContentTextMapHash": 405200634,
      "talkAssetPath": "",
      "talkAssetPathAlter": "",
      "talkAudioName": "",
      "actionBefore": "",
      "actionWhile": "",
      "actionAfter": "",
      "optionIcon": "",
      "iconPath": ""
    },
    {
      "id": 790622513,
      "nextDialogs": [
        790622514
      ],
      "talkRole": {
        "type": "TALK_ROLE_NPC",
        "_id": "21441"
      },
      "talkContentTextMapHash": 3986395362,
      "talkAssetPath": "",
      "talkAssetPathAlter": "",
      "talkAudioName": "",
      "actionBefore": "",
      "actionWhile": "",
      "actionAfter": "",
      "optionIcon": "",
      "PEMKNDAABBE": 1225262556,
      "iconPath": ""
    },
    {
      "id": 790622514,
      "nextDialogs": [
        790622515
      ],
      "talkRole": {
        "type": "TALK_ROLE_NPC",
        "_id": "2661"
      },
      "talkContentTextMapHash": 1533190482,
      "talkAssetPath": "",
      "talkAssetPathAlter": "",
      "talkAudioName": "",
      "actionBefore": "",
      "actionWhile": "",
      "actionAfter": "",
      "optionIcon": "",
      "iconPath": ""
    },
    {
      "id": 790622515,
      "nextDialogs": [
        790622516
      ],
      "talkRole": {
        "type": "TALK_ROLE_NPC",
        "_id": "21441"
      },
      "talkContentTextMapHash": 2921397018,
      "talkAssetPath": "",
      "talkAssetPathAlter": "",
      "talkAudioName": "",
      "actionBefore": "",
      "actionWhile": "",
      "actionAfter": "",
      "optionIcon": "",
      "PEMKNDAABBE": 1404890580,
      "iconPath": ""
    },
    {
      "id": 790622516,
      "nextDialogs": [
        790622517
      ],
      "talkRole": {
        "type": "TALK_ROLE_NPC",
        "_id": "21441"
      },
      "talkContentTextMapHash": 3553813082,
      "talkAssetPath": "",
      "talkAssetPathAlter": "",
      "talkAudioName": "",
      "actionBefore": "",
      "actionWhile": "",
      "actionAfter": "",
      "optionIcon": "",
      "PEMKNDAABBE": 484623988,
      "iconPath": ""
    },
    {
      "id": 790622517,
      "nextDialogs": [
        790622518
      ],
      "talkRole": {
        "type": "TALK_ROLE_NPC",
        "_id": "1005"
      },
      "talkContentTextMapHash": 2776308362,
      "talkAssetPath": "",
      "talkAssetPathAlter": "",
      "talkAudioName": "",
      "actionBefore": "",
      "actionWhile": "",
      "actionAfter": "",
      "optionIcon": "",
      "iconPath": ""
    },
    {
      "id": 790622518,
      "nextDialogs": [
        790622519
      ],
      "talkRole": {
        "type": "TALK_ROLE_NPC",
        "_id": "21441"
      },
      "talkContentTextMapHash": 1688401258,
      "talkAssetPath": "",
      "talkAssetPathAlter": "",
      "talkAudioName": "",
      "actionBefore": "",
      "actionWhile": "",
      "actionAfter": "",
      "optionIcon": "",
      "PEMKNDAABBE": 4190841028,
      "iconPath": ""
    },
    {
      "id": 790622519,
      "nextDialogs": [
        790622520
      ],
      "talkRole": {
        "type": "TALK_ROLE_NPC",
        "_id": "21441"
      },
      "talkContentTextMapHash": 2131107642,
      "talkAssetPath": "",
      "talkAssetPathAlter": "",
      "talkAudioName": "",
      "actionBefore": "",
      "actionWhile": "",
      "actionAfter": "",
      "optionIcon": "",
      "PEMKNDAABBE": 1186035796,
      "iconPath": ""
    },
    {
      "id": 790622520,
      "nextDialogs": [
        790622521
      ],
      "talkRole": {
        "type": "TALK_ROLE_NPC",
        "_id": "21441"
      },
      "talkContentTextMapHash": 457507418,
      "talkRoleNameTextMapHash": 2351160163,
      "talkAssetPath": "",
      "talkAssetPathAlter": "",
      "talkAudioName": "",
      "actionBefore": "",
      "actionWhile": "",
      "actionAfter": "",
      "optionIcon": "",
      "iconPath": ""
    },
    {
      "id": 790622521,
      "nextDialogs": [
        790622522
      ],
      "talkRole": {
        "type": "TALK_ROLE_NPC",
        "_id": "2661"
      },
      "talkContentTextMapHash": 1841751618,
      "talkAssetPath": "",
      "talkAssetPathAlter": "",
      "talkAudioName": "",
      "actionBefore": "",
      "actionWhile": "",
      "actionAfter": "",
      "optionIcon": "",
      "iconPath": ""
    },
    {
      "id": 790622522,
      "nextDialogs": [
        790622523
      ],
      "talkRole": {
        "type": "TALK_ROLE_NPC",
        "_id": "21440"
      },
      "talkContentTextMapHash": 201423018,
      "talkAssetPath": "",
      "talkAssetPathAlter": "",
      "talkAudioName": "",
      "actionBefore": "",
      "actionWhile": "",
      "actionAfter": "",
      "optionIcon": "",
      "PEMKNDAABBE": 3011294516,
      "iconPath": ""
    },
    {
      "id": 790622523,
      "nextDialogs": [
        790622524
      ],
      "talkRole": {
        "type": "TALK_ROLE_NPC",
        "_id": "21441"
      },
      "talkContentTextMapHash": 104519682,
      "talkRoleNameTextMapHash": 1181791011,
      "talkAssetPath": "",
      "talkAssetPathAlter": "",
      "talkAudioName": "",
      "actionBefore": "",
      "actionWhile": "",
      "actionAfter": "",
      "optionIcon": "",
      "iconPath": ""
    },
    {
      "id": 790622524,
      "nextDialogs": [
        790622525
      ],
      "talkRole": {
        "type": "TALK_ROLE_NPC",
        "_id": "21441"
      },
      "talkContentTextMapHash": 1962108802,
      "talkAssetPath": "",
      "talkAssetPathAlter": "",
      "talkAudioName": "",
      "actionBefore": "",
      "actionWhile": "",
      "actionAfter": "",
      "optionIcon": "",
      "PEMKNDAABBE": 4260982980,
      "iconPath": ""
    },
    {
      "id": 790622525,
      "nextDialogs": [
        790622526
      ],
      "talkShowType": "TALK_SHOW_FORCE_SELECT",
      "talkRole": {
        "type": "TALK_ROLE_PLAYER",
        "_id": ""
      },
      "talkContentTextMapHash": 146344274,
      "talkAssetPath": "",
      "talkAssetPathAlter": "",
      "talkAudioName": "",
      "actionBefore": "",
      "actionWhile": "",
      "actionAfter": "",
      "optionIcon": "",
      "iconPath": ""
    },
    {
      "id": 790622526,
      "nextDialogs": [
        790622527
      ],
      "talkRole": {
        "type": "TALK_ROLE_NPC",
        "_id": "2661"
      },
      "talkContentTextMapHash": 794264354,
      "talkAssetPath": "",
      "talkAssetPathAlter": "",
      "talkAudioName": "",
      "actionBefore": "",
      "actionWhile": "",
      "actionAfter": "",
      "optionIcon": "",
      "iconPath": ""
    },
    {
      "id": 790622527,
      "talkRole": {
        "type": "TALK_ROLE_NPC",
        "_id": "21441"
      },
      "talkContentTextMapHash": 2590765682,
      "talkAssetPath": "",
      "talkAssetPathAlter": "",
      "talkAudioName": "",
      "actionBefore": "",
      "actionWhile": "",
      "actionAfter": "",
      "optionIcon": "",
      "PEMKNDAABBE": 3238452508,
      "iconPath": ""
    }
  ]
}