{
  "talkId": 7906228,
  "dialogList": [
    {
      "id": 790622801,
      "nextDialogs": [
        790622802
      ],
      "talkRole": {
        "type": "TALK_ROLE_NPC",
        "_id": "21440"
      },
      "talkContentTextMapHash": 2485532530,
      "talkAssetPath": "",
      "talkAssetPathAlter": "",
      "talkAudioName": "",
      "actionBefore": "",
      "actionWhile": "",
      "actionAfter": "",
      "optionIcon": "",
      "PEMKNDAABBE": 2455735084,
      "iconPath": ""
    },
    {
      "id": 790622802,
      "nextDialogs": [
        790622803
      ],
      "talkRole": {
        "type": "TALK_ROLE_NPC",
        "_id": "21441"
      },
      "talkContentTextMapHash": 4274466874,
      "talkAssetPath": "",
      "talkAssetPathAlter": "",
      "talkAudioName": "",
      "actionBefore": "",
      "actionWhile": "",
      "actionAfter": "",
      "optionIcon": "",
      "PEMKNDAABBE": 3119087468,
      "iconPath": ""
    },
    {
      "id": 790622803,
      "nextDialogs": [
        790622804
      ],
      "talkRole": {
        "type": "TALK_ROLE_NPC",
        "_id": "21441"
      },
      "talkContentTextMapHash": 1003007706,
      "talkAssetPath": "",
      "talkAssetPathAlter": "",
      "talkAudioName": "",
      "actionBefore": "",
      "actionWhile": "",
      "actionAfter": "",
      "optionIcon": "",
      "PEMKNDAABBE": 2259250476,
      "iconPath": ""
    },
    {
      "id": 790622804,
      "nextDialogs": [
        790622805
      ],
      "talkRole": {
        "type": "TALK_ROLE_NPC",
        "_id": "21441"
      },
      "talkContentTextMapHash": 907689746,
      "talkAssetPath": "",
      "talkAssetPathAlter": "",
      "talkAudioName": "",
      "actionBefore": "",
      "actionWhile": "",
      "actionAfter": "",
      "optionIcon": "",
      "PEMKNDAABBE": 1021376172,
      "iconPath": ""
    },
    {
      "id": 790622805,
      "nextDialogs": [
        790622806
      ],
      "talkRole": {
        "type": "TALK_ROLE_NPC",
        "_id": "2661"
      },
      "talkContentTextMapHash": 16035434,
      "talkAssetPath": "",
      "talkAssetPathAlter": "",
      "talkAudioName": "",
      "actionBefore": "",
      "actionWhile": "",
      "actionAfter": "",
      "optionIcon": "",
      "iconPath": ""
    },
    {
      "id": 790622806,
      "talkRole": {
        "type": "TALK_ROLE_NPC",
        "_id": "21441"
      },
      "talkContentTextMapHash": 4048016426,
      "talkAssetPath": "",
      "talkAssetPathAlter": "",
      "talkAudioName": "",
      "actionBefore": "",
      "actionWhile": "",
      "actionAfter": "",
      "optionIcon": "",
      "PEMKNDAABBE": 1021587428,
      "iconPath": ""
    }
  ]
}