{
  "talkId": 7906248,
  "dialogList": [
    {
      "id": 790624801,
      "nextDialogs": [
        790624802
      ],
      "talkRole": {
        "type": "TALK_ROLE_NPC",
        "_id": "21441"
      },
      "talkContentTextMapHash": 2360721458,
      "talkAssetPath": "",
      "talkAssetPathAlter": "",
      "talkAudioName": "",
      "actionBefore": "",
      "actionWhile": "",
      "actionAfter": "",
      "optionIcon": "",
      "PEMKNDAABBE": 421732860,
      "iconPath": ""
    },
    {
      "id": 790624802,
      "nextDialogs": [
        790624803
      ],
      "talkRole": {
        "type": "TALK_ROLE_NPC",
        "_id": "1005"
      },
      "talkContentTextMapHash": 1564685730,
      "talkAssetPath": "",
      "talkAssetPathAlter": "",
      "talkAudioName": "",
      "actionBefore": "",
      "actionWhile": "",
      "actionAfter": "",
      "optionIcon": "",
      "iconPath": ""
    },
    {
      "id": 790624803,
      "nextDialogs": [
        790624804
      ],
      "talkRole": {
        "type": "TALK_ROLE_NPC",
        "_id": "21441"
      },
      "talkContentTextMapHash": 1557005226,
      "talkAssetPath": "",
      "talkAssetPathAlter": "",
      "talkAudioName": "",
      "actionBefore": "",
      "actionWhile": "",
      "actionAfter": "",
      "optionIcon": "",
      "PEMKNDAABBE": 4283925708,
      "iconPath": ""
    },
    {
      "id": 790624804,
      "nextDialogs": [
        790624805
      ],
      "talkRole": {
        "type": "TALK_ROLE_NPC",
        "_id": "21441"
      },
      "talkContentTextMapHash": 2215463778,
      "talkAssetPath": "",
      "talkAssetPathAlter": "",
      "talkAudioName": "",
      "actionBefore": "",
      "actionWhile": "",
      "actionAfter": "",
      "optionIcon": "",
      "PEMKNDAABBE": 1042331436,
      "iconPath": ""
    },
    {
      "id": 790624805,
      "nextDialogs": [
        790624806
      ],
      "talkRole": {
        "type": "TALK_ROLE_NPC",
        "_id": "2661"
      },
      "talkContentTextMapHash": 365161418,
      "talkAssetPath": "",
      "talkAssetPathAlter": "",
      "talkAudioName": "",
      "actionBefore": "",
      "actionWhile": "",
      "actionAfter": "",
      "optionIcon": "",
      "iconPath": ""
    },
    {
      "id": 790624806,
      "nextDialogs": [
        790624807
      ],
      "talkRole": {
        "type": "TALK_ROLE_NPC",
        "_id": "21441"
      },
      "talkContentTextMapHash": 1795366666,
      "talkAssetPath": "",
      "talkAssetPathAlter": "",
      "talkAudioName": "",
      "actionBefore": "",
      "actionWhile": "",
      "actionAfter": "",
      "optionIcon": "",
      "PEMKNDAABBE": 1782960852,
      "iconPath": ""
    },
    {
      "id": 790624807,
      "nextDialogs": [
        790624808
      ],
      "talkRole": {
        "type": "TALK_ROLE_NPC",
        "_id": "21441"
      },
      "talkContentTextMapHash": 67544698,
      "talkAssetPath": "",
      "talkAssetPathAlter": "",
      "talkAudioName": "",
      "actionBefore": "",
      "actionWhile": "",
      "actionAfter": "",
      "optionIcon": "",
      "PEMKNDAABBE": 2844432572,
      "iconPath": ""
    },
    {
      "id": 790624808,
      "nextDialogs": [
        790624809
      ],
      "talkRole": {
        "type": "TALK_ROLE_NPC",
        "_id": "2661"
      },
      "talkContentTextMapHash": 3286524994,
      "talkAssetPath": "",
      "talkAssetPathAlter": "",
      "talkAudioName": "",
      "actionBefore": "",
      "actionWhile": "",
      "actionAfter": "",
      "optionIcon": "",
      "iconPath": ""
    },
    {
      "id": 790624809,
      "nextDialogs": [
        790624810
      ],
      "talkRole": {
        "type": "TALK_ROLE_NPC",
        "_id": "21441"
      },
      "talkContentTextMapHash": 1797776594,
      "talkAssetPath": "",
      "talkAssetPathAlter": "",
      "talkAudioName": "",
      "actionBefore": "",
      "actionWhile": "",
      "actionAfter": "",
      "optionIcon": "",
      "PEMKNDAABBE": 775726652,
      "iconPath": ""
    },
    {
      "id": 790624810,
      "nextDialogs": [
        790624811
      ],
      "talkRole": {
        "type": "TALK_ROLE_NPC",
        "_id": "21441"
      },
      "talkContentTextMapHash": 3138945706,
      "talkAssetPath": "",
      "talkAssetPathAlter": "",
      "talkAudioName": "",
      "actionBefore": "",
      "actionWhile": "",
      "actionAfter": "",
      "optionIcon": "",
      "PEMKNDAABBE": 4262143916,
      "iconPath": ""
    },
    {
      "id": 790624811,
      "nextDialogs": [
        790624812
      ],
      "talkRole": {
        "type": "TALK_ROLE_NPC",
        "_id": "1005"
      },
      "talkContentTextMapHash": 2518585082,
      "talkAssetPath": "",
      "talkAssetPathAlter": "",
      "talkAudioName": "",
      "actionBefore": "",
      "actionWhile": "",
      "actionAfter": "",
      "optionIcon": "",
      "iconPath": ""
    },
    {
      "id": 790624812,
      "nextDialogs": [
        790624813
      ],
      "talkRole": {
        "type": "TALK_ROLE_NPC",
        "_id": "2661"
      },
      "talkContentTextMapHash": 480942826,
      "talkAssetPath": "",
      "talkAssetPathAlter": "",
      "talkAudioName": "",
      "actionBefore": "",
      "actionWhile": "",
      "actionAfter": "",
      "optionIcon": "",
      "iconPath": ""
    },
    {
      "id": 790624813,
      "nextDialogs": [
        790624814
      ],
      "talkRole": {
        "type": "TALK_ROLE_NPC",
        "_id": "2661"
      },
      "talkContentTextMapHash": 1709715554,
      "talkAssetPath": "",
      "talkAssetPathAlter": "",
      "talkAudioName": "",
      "actionBefore": "",
      "actionWhile": "",
      "actionAfter": "",
      "optionIcon": "",
      "iconPath": ""
    },
    {
      "id": 790624814,
      "nextDialogs": [
        790624815
      ],
      "talkRole": {
        "type": "TALK_ROLE_NPC",
        "_id": "2661"
      },
      "talkContentTextMapHash": 3234883794,
      "talkAssetPath": "",
      "talkAssetPathAlter": "",
      "talkAudioName": "",
      "actionBefore": "",
      "actionWhile": "",
      "actionAfter": "",
      "optionIcon": "",
      "iconPath": ""
    },
    {
      "id": 790624815,
      "nextDialogs": [
        790624816
      ],
      "talkRole": {
        "type": "TALK_ROLE_NPC",
        "_id": "21441"
      },
      "talkContentTextMapHash": 1208499554,
      "talkAssetPath": "",
      "talkAssetPathAlter": "",
      "talkAudioName": "",
      "actionBefore": "",
      "actionWhile": "",
      "actionAfter": "",
      "optionIcon": "",
      "PEMKNDAABBE": 3981886620,
      "iconPath": ""
    },
    {
      "id": 790624816,
      "talkRole": {
        "type": "TALK_ROLE_NPC",
        "_id": "2661"
      },
      "talkContentTextMapHash": 580250506,
      "talkAssetPath": "",
      "talkAssetPathAlter": "",
      "talkAudioName": "",
      "actionBefore": "",
      "actionWhile": "",
      "actionAfter": "",
      "optionIcon": "",
      "iconPath": ""
    }
  ]
}