{
  "talkId": 7906209,
  "dialogList": [
    {
      "id": 790620901,
      "nextDialogs": [
        790620902
      ],
      "talkShowType": "TALK_SHOW_FORCE_SELECT",
      "talkRole": {
        "type": "TALK_ROLE_PLAYER",
        "_id": ""
      },
      "talkContentTextMapHash": 3767644018,
      "talkAssetPath": "",
      "talkAssetPathAlter": "",
      "talkAudioName": "",
      "actionBefore": "",
      "actionWhile": "",
      "actionAfter": "",
      "optionIcon": "",
      "iconPath": ""
    },
    {
      "id": 790620902,
      "nextDialogs": [
        790620903
      ],
      "talkRole": {
        "type": "TALK_ROLE_NPC",
        "_id": "21441"
      },
      "talkContentTextMapHash": 3492506490,
      "talkRoleNameTextMapHash": 3644401339,
      "talkAssetPath": "",
      "talkAssetPathAlter": "",
      "talkAudioName": "",
      "actionBefore": "",
      "actionWhile": "",
      "actionAfter": "",
      "optionIcon": "",
      "iconPath": ""
    },
    {
      "id": 790620903,
      "nextDialogs": [
        790620904
      ],
      "talkRole": {
        "type": "TALK_ROLE_NPC",
        "_id": "21439"
      },
      "talkContentTextMapHash": 142958106,
      "talkAssetPath": "",
      "talkAssetPathAlter": "",
      "talkAudioName": "",
      "actionBefore": "",
      "actionWhile": "",
      "actionAfter": "",
      "optionIcon": "",
      "PEMKNDAABBE": 1880220660,
      "iconPath": ""
    },
    {
      "id": 790620904,
      "nextDialogs": [
        790620905
      ],
      "talkRole": {
        "type": "TALK_ROLE_NPC",
        "_id": "21441"
      },
      "talkContentTextMapHash": 3087505642,
      "talkRoleNameTextMapHash": 324916987,
      "talkAssetPath": "",
      "talkAssetPathAlter": "",
      "talkAudioName": "",
      "actionBefore": "",
      "actionWhile": "",
      "actionAfter": "",
      "optionIcon": "",
      "iconPath": ""
    },
    {
      "id": 790620905,
      "talkRole": {
        "type": "TALK_ROLE_NPC",
        "_id": "21537"
      },
      "talkContentTextMapHash": 1107550826,
      "talkAssetPath": "",
      "talkAssetPathAlter": "",
      "talkAudioName": "",
      "actionBefore": "",
      "actionWhile": "",
      "actionAfter": "",
      "optionIcon": "",
      "iconPath": ""
    }
  ]
}