{
  "talkId": 7906221,
  "dialogList": [
    {
      "id": 790622101,
      "nextDialogs": [
        790622102
      ],
      "talkShowType": "TALK_SHOW_FORCE_SELECT",
      "talkRole": {
        "type": "TALK_ROLE_PLAYER",
        "_id": ""
      },
      "talkContentTextMapHash": 3814604778,
      "talkAssetPath": "",
      "talkAssetPathAlter": "",
      "talkAudioName": "",
      "actionBefore": "",
      "actionWhile": "",
      "actionAfter": "",
      "optionIcon": "",
      "iconPath": ""
    },
    {
      "id": 790622102,
      "nextDialogs": [
        790622103
      ],
      "talkRole": {
        "type": "TALK_ROLE_NPC",
        "_id": "21441"
      },
      "talkContentTextMapHash": 4159487458,
      "talkRoleNameTextMapHash": 3874017595,
      "talkAssetPath": "",
      "talkAssetPathAlter": "",
      "talkAudioName": "",
      "actionBefore": "",
      "actionWhile": "",
      "actionAfter": "",
      "optionIcon": "",
      "iconPath": ""
    },
    {
      "id": 790622103,
      "nextDialogs": [
        790622104
      ],
      "talkRole": {
        "type": "TALK_ROLE_NPC",
        "_id": "21441"
      },
      "talkContentTextMapHash": 998695578,
      "talkRoleNameTextMapHash": 3868011211,
      "talkAssetPath": "",
      "talkAssetPathAlter": "",
      "talkAudioName": "",
      "actionBefore": "",
      "actionWhile": "",
      "actionAfter": "",
      "optionIcon": "",
      "iconPath": ""
    },
    {
      "id": 790622104,
      "nextDialogs": [
        790622105
      ],
      "talkRole": {
        "type": "TALK_ROLE_NPC",
        "_id": "21537"
      },
      "talkContentTextMapHash": 973097922,
      "talkAssetPath": "",
      "talkAssetPathAlter": "",
      "talkAudioName": "",
      "actionBefore": "",
      "actionWhile": "",
      "actionAfter": "",
      "optionIcon": "",
      "iconPath": ""
    },
    {
      "id": 790622105,
      "nextDialogs": [
        790622106
      ],
      "talkRole": {
        "type": "TALK_ROLE_BLACK_SCREEN",
        "_id": ""
      },
      "talkContentTextMapHash": 2695400746,
      "talkAssetPath": "",
      "talkAssetPathAlter": "",
      "talkAudioName": "",
      "actionBefore": "",
      "actionWhile": "",
      "actionAfter": "",
      "optionIcon": "",
      "iconPath": ""
    },
    {
      "id": 790622106,
      "nextDialogs": [
        790622107
      ],
      "talkRole": {
        "type": "TALK_ROLE_NPC",
        "_id": "21440"
      },
      "talkContentTextMapHash": 4007047698,
      "talkAssetPath": "",
      "talkAssetPathAlter": "",
      "talkAudioName": "",
      "actionBefore": "",
      "actionWhile": "",
      "actionAfter": "",
      "optionIcon": "",
      "PEMKNDAABBE": 2475903356,
      "iconPath": ""
    },
    {
      "id": 790622107,
      "talkRole": {
        "type": "TALK_ROLE_NPC",
        "_id": "21440"
      },
      "talkContentTextMapHash": 25646682,
      "talkAssetPath": "",
      "talkAssetPathAlter": "",
      "talkAudioName": "",
      "actionBefore": "",
      "actionWhile": "",
      "actionAfter": "",
      "optionIcon": "",
      "PEMKNDAABBE": 4145251572,
      "iconPath": ""
    }
  ]
}