{
  "talkId": 7906218,
  "dialogList": [
    {
      "id": 790621801,
      "nextDialogs": [
        790621802
      ],
      "talkRole": {
        "type": "TALK_ROLE_NPC",
        "_id": "21439"
      },
      "talkContentTextMapHash": 226857362,
      "talkAssetPath": "",
      "talkAssetPathAlter": "",
      "talkAudioName": "",
      "actionBefore": "",
      "actionWhile": "",
      "actionAfter": "",
      "optionIcon": "",
      "PEMKNDAABBE": 2580464740,
      "iconPath": ""
    },
    {
      "id": 790621802,
      "nextDialogs": [
        790621803
      ],
      "talkRole": {
        "type": "TALK_ROLE_NPC",
        "_id": "2661"
      },
      "talkContentTextMapHash": 1902786370,
      "talkAssetPath": "",
      "talkAssetPathAlter": "",
      "talkAudioName": "",
      "actionBefore": "",
      "actionWhile": "",
      "actionAfter": "",
      "optionIcon": "",
      "iconPath": ""
    },
    {
      "id": 790621803,
      "nextDialogs": [
        790621804
      ],
      "talkRole": {
        "type": "TALK_ROLE_NPC",
        "_id": "2661"
      },
      "talkContentTextMapHash": 2754429850,
      "talkAssetPath": "",
      "talkAssetPathAlter": "",
      "talkAudioName": "",
      "actionBefore": "",
      "actionWhile": "",
      "actionAfter": "",
      "optionIcon": "",
      "iconPath": ""
    },
    {
      "id": 790621804,
      "nextDialogs": [
        790621805
      ],
      "talkRole": {
        "type": "TALK_ROLE_NPC",
        "_id": "21439"
      },
      "talkContentTextMapHash": 3060267994,
      "talkAssetPath": "",
      "talkAssetPathAlter": "",
      "talkAudioName": "",
      "actionBefore": "",
      "actionWhile": "",
      "actionAfter": "",
      "optionIcon": "",
      "PEMKNDAABBE": 3574475340,
      "iconPath": ""
    },
    {
      "id": 790621805,
      "talkRole": {
        "type": "TALK_ROLE_NPC",
        "_id": "21440"
      },
      "talkContentTextMapHash": 3020035386,
      "talkAssetPath": "",
      "talkAssetPathAlter": "",
      "talkAudioName": "",
      "actionBefore": "",
      "actionWhile": "",
      "actionAfter": "",
      "optionIcon": "",
      "PEMKNDAABBE": 4164799612,
      "iconPath": ""
    }
  ]
}