{
  "luaDataPath": "",
  "startBlackKeepTime": 0.5,
  "entityBan": "",
  "disableNpcLod": true,
  "startFade": {
    "startFadeInDuration": 0.5,
    "startFadeOutDuration": 0.5
  },
  "endFade": {
    "startFadeOutDuration": 0.0
  },
  "actors": [
    {
      "alias": "Avatar",
      "visible": true,
      "bornPointName": "Talk1202503_player",
      "relativePosNpcAlias": "",
      "_bindMovingTargetKey": ""
    },
    {
      "configID": 1005,
      "alias": "1005",
      "visible": true,
      "bornPointName": "Talk1202503_paimon",
      "removeActorType": "REMOVE_WITH_DISAPPEAR",
      "relativePosNpcAlias": "",
      "_bindMovingTargetKey": ""
    },
    {
      "configID": 1044,
      "alias": "1044",
      "visible": true,
      "bornPointName": "Q1202506_Itto",
      "relativePosNpcAlias": "",
      "_bindMovingTargetKey": ""
    }
  ],
  "group": [
    [
      {
        "$type": "LJLMDHDCAMK",
        "type": "LOOK_AT",
        "aliasList": [
          "1005"
        ],
        "enableHead": true,
        "useTargetPos": true,
        "enableAbsolute": true,
        "headTurnTime": 0.5,
        "targetNpcAlias": "1044",
        "targetNpcLookAtPoint": "",
        "OAFJBHJHLJG": ""
      },
      {
        "$type": "MoleMole.Config.ConfigTeleportToAction",
        "type": "TELEPORT_TO",
        "aliasList": [
          "1005"
        ],
        "position": {
          "x": -3928.720947265625,
          "y": 228.91299438476562,
          "z": -2130.81298828125
        },
        "forward": {
          "x": -0.041999999433755875,
          "y": -0.004000000189989805,
          "z": 0.2919999957084656
        },
        "_posBindMovingTargetKey": "",
        "_forwardBindMovingTargetKey": ""
      },
      {
        "$type": "LJLMDHDCAMK",
        "type": "LOOK_AT",
        "aliasList": [
          "1044"
        ],
        "enableHead": true,
        "useTargetPos": true,
        "enableAbsolute": true,
        "headTurnTime": 0.5,
        "targetNpcAlias": "1005",
        "targetNpcLookAtPoint": "",
        "OAFJBHJHLJG": ""
      },
      {
        "$type": "MoleMole.Config.ConfigTeleportToAction",
        "type": "TELEPORT_TO",
        "aliasList": [
          "1044"
        ],
        "position": {
          "x": -3929.10205078125,
          "y": 228.83599853515625,
          "z": -2128.868896484375
        },
        "forward": {
          "x": 0.5339999794960022,
          "z": -0.8379999995231628
        },
        "_posBindMovingTargetKey": "",
        "_forwardBindMovingTargetKey": ""
      },
      {
        "$type": "MoleMole.Config.ConfigTimeProtectAction",
        "type": "TIME_PROTECT",
        "duration": 0.5
      },
      {
        "$type": "MoleMole.Config.ConfigBlackScreenAction",
        "type": "BLACK_SCREEN",
        "blackScreenType": "KEEP_BLACK",
        "durationKeepBlack": 0.5,
        "inteePos": "",
        "textMapID": "",
        "useTextFade": true
      },
      {
        "$type": "LJLMDHDCAMK",
        "type": "LOOK_AT",
        "aliasList": [
          "Avatar"
        ],
        "enableHead": true,
        "useTargetPos": true,
        "enableAbsolute": true,
        "headTurnTime": 0.5,
        "targetNpcAlias": "1044",
        "targetNpcLookAtPoint": "",
        "OAFJBHJHLJG": ""
      },
      {
        "$type": "MoleMole.Config.ConfigTeleportToAction",
        "type": "TELEPORT_TO",
        "aliasList": [
          "Avatar"
        ],
        "position": {
          "x": -3927.73095703125,
          "y": 228.6909942626953,
          "z": -2130.218994140625
        },
        "forward": {
          "x": -0.7039999961853027,
          "y": 0.44699999690055847,
          "z": 0.7059999704360962
        },
        "_posBindMovingTargetKey": "",
        "_forwardBindMovingTargetKey": ""
      }
    ],
    [
      {
        "$type": "PKKMAMONGEO",
        "type": "DIALOG",
        "aliasList": [
          "1005"
        ],
        "dialogID": 120250301,
        "protectTime": 0.5
      },
      {
        "$type": "FABLGECDBCH",
        "type": "BODY_LANG",
        "aliasList": [
          "1005"
        ],
        "bodyLangParam": 1170,
        "forceDoFreeStyle": true,
        "canDoRepeatFreeStyle": false,
        "eventPatternSuiteKey": "",
        "FOHHKFAIAAJ": ""
      },
      {
        "$type": "CPJKOIHIPBE",
        "type": "EMO_SYNC",
        "aliasList": [
          "1005"
        ],
        "dataPath": "Cs_Emo_Avatar_Simple_Common_Set/Cs_Emo_Avatar_Talk/Cs_Emo_Avatar_PersonalLine/Cs_Emo_Avatar_Itto/Cs_Emo_120250301",
        "phonemePath": "",
        "emotionPath": "",
        "mateDataPath": "",
        "matePhonemePath": "",
        "mateEmotionPath": "",
        "dataPathHashList": [
          5688602624266666271,
          8443905246931385261,
          13195068941289827237,
          4189313328277211543
        ],
        "FMDPBECPELH": "",
        "ADKBLPOKGIK": ""
      },
      {
        "$type": "FJKIHHKJLMJ",
        "type": "CAMERA_MOVE",
        "duration": 0.5,
        "camPosOffset": {
          "x": -3925.39501953125,
          "y": 229.41900634765625,
          "z": -2122.60498046875
        },
        "camForwardTargetOffset": {
          "x": -3925.7890625,
          "y": 229.46600341796875,
          "z": -2123.52294921875
        },
        "camFov": 20.0,
        "lerpPattern": 6,
        "cameraBlendType": "EaseInOutCubic",
        "NJBNNOMLKCK": {},
        "openCameraDither": false,
        "targetNpcAlias": "",
        "closeTreeLeafDither": true,
        "KJOEFBPOIIH": "",
        "IICFKKEBIEC": "",
        "EGEHEJEBLBJ": ""
      },
      {
        "$type": "MoleMole.Config.ConfigBlackScreenAction",
        "type": "BLACK_SCREEN",
        "blackScreenType": "FROM_BLACK",
        "durationFromBlack": 0.5,
        "inteePos": "",
        "textMapID": "",
        "useTextFade": true
      },
      {
        "$type": "FJKIHHKJLMJ",
        "type": "CAMERA_MOVE",
        "delayTime": 0.07000000029802322,
        "duration": 8.807999610900879,
        "camPosOffset": {
          "x": -3925.5,
          "y": 229.41000366210938,
          "z": -2122.56103515625
        },
        "camForwardTargetOffset": {
          "x": -3925.89404296875,
          "y": 229.45700073242188,
          "z": -2123.47900390625
        },
        "camFov": 20.0,
        "cameraBlendType": "EaseOutQuad",
        "NJBNNOMLKCK": {},
        "openCameraDither": false,
        "targetNpcAlias": "",
        "closeTreeLeafDither": true,
        "KJOEFBPOIIH": "",
        "IICFKKEBIEC": "",
        "EGEHEJEBLBJ": ""
      },
      {
        "$type": "FABLGECDBCH",
        "type": "BODY_LANG",
        "delayTime": 3.75,
        "aliasList": [
          "1005"
        ],
        "isContinue": true,
        "forceDoFreeStyle": true,
        "canDoRepeatFreeStyle": false,
        "eventPatternSuiteKey": "",
        "FOHHKFAIAAJ": ""
      }
    ],
    [
      {
        "$type": "PKKMAMONGEO",
        "type": "DIALOG",
        "aliasList": [
          "1044"
        ],
        "dialogID": 120250302,
        "protectTime": 0.5
      },
      {
        "$type": "FABLGECDBCH",
        "type": "BODY_LANG",
        "aliasList": [
          "1044"
        ],
        "bodyLangParam": 1230,
        "forceDoFreeStyle": true,
        "canDoRepeatFreeStyle": false,
        "eventPatternSuiteKey": "",
        "FOHHKFAIAAJ": ""
      },
      {
        "$type": "CPJKOIHIPBE",
        "type": "EMO_SYNC",
        "aliasList": [
          "1044"
        ],
        "dataPath": "Cs_Emo_Avatar_Simple_Common_Set/Cs_Emo_Avatar_Talk/Cs_Emo_Avatar_PersonalLine/Cs_Emo_Avatar_Itto/Cs_Emo_120250302",
        "phonemePath": "",
        "emotionPath": "",
        "mateDataPath": "",
        "matePhonemePath": "",
        "mateEmotionPath": "",
        "dataPathHashList": [
          16821320251024758564,
          14278793117299121689,
          17035353103660598173,
          954017430064156235
        ],
        "FMDPBECPELH": "",
        "ADKBLPOKGIK": ""
      },
      {
        "$type": "FJKIHHKJLMJ",
        "type": "CAMERA_MOVE",
        "duration": 0.5,
        "camPosOffset": {
          "x": -3926.465087890625,
          "y": 229.968994140625,
          "z": -2133.239990234375
        },
        "camForwardTargetOffset": {
          "x": -3927.0048828125,
          "y": 229.98599243164062,
          "z": -2132.39794921875
        },
        "camFov": 20.0,
        "lerpPattern": 6,
        "cameraBlendType": "EaseInOutCubic",
        "NJBNNOMLKCK": {},
        "openCameraDither": false,
        "targetNpcAlias": "",
        "closeTreeLeafDither": true,
        "KJOEFBPOIIH": "",
        "IICFKKEBIEC": "",
        "EGEHEJEBLBJ": ""
      },
      {
        "$type": "FABLGECDBCH",
        "type": "BODY_LANG",
        "aliasList": [
          "1005"
        ],
        "isContinue": true,
        "forceDoFreeStyle": true,
        "canDoRepeatFreeStyle": false,
        "eventPatternSuiteKey": "",
        "FOHHKFAIAAJ": ""
      },
      {
        "$type": "FJKIHHKJLMJ",
        "type": "CAMERA_MOVE",
        "delayTime": 0.07000000029802322,
        "duration": 14.343000411987305,
        "camPosOffset": {
          "x": -3926.62890625,
          "y": 229.99099731445312,
          "z": -2132.97900390625
        },
        "camForwardTargetOffset": {
          "x": -3927.16796875,
          "y": 230.00799560546875,
          "z": -2132.136962890625
        },
        "camFov": 20.0,
        "cameraBlendType": "EaseOutQuad",
        "NJBNNOMLKCK": {},
        "openCameraDither": false,
        "targetNpcAlias": "",
        "closeTreeLeafDither": true,
        "KJOEFBPOIIH": "",
        "IICFKKEBIEC": "",
        "EGEHEJEBLBJ": ""
      },
      {
        "$type": "FABLGECDBCH",
        "type": "BODY_LANG",
        "delayTime": 2.015000104904175,
        "aliasList": [
          "1044"
        ],
        "isContinue": true,
        "forceDoFreeStyle": true,
        "canDoRepeatFreeStyle": false,
        "eventPatternSuiteKey": "",
        "FOHHKFAIAAJ": ""
      },
      {
        "$type": "FABLGECDBCH",
        "type": "BODY_LANG",
        "delayTime": 3.2339999675750732,
        "aliasList": [
          "1044"
        ],
        "bodyLangParam": 1171,
        "forceDoFreeStyle": true,
        "canDoRepeatFreeStyle": false,
        "eventPatternSuiteKey": "",
        "FOHHKFAIAAJ": ""
      },
      {
        "$type": "FABLGECDBCH",
        "type": "BODY_LANG",
        "delayTime": 6.789000034332275,
        "aliasList": [
          "1044"
        ],
        "bodyLangParam": 1110,
        "forceDoFreeStyle": true,
        "canDoRepeatFreeStyle": false,
        "eventPatternSuiteKey": "",
        "FOHHKFAIAAJ": ""
      }
    ],
    [
      {
        "$type": "PKKMAMONGEO",
        "type": "DIALOG",
        "aliasList": [
          "1044"
        ],
        "dialogID": 120250303,
        "protectTime": 0.5
      },
      {
        "$type": "FABLGECDBCH",
        "type": "BODY_LANG",
        "aliasList": [
          "1044"
        ],
        "isContinue": true,
        "forceDoFreeStyle": true,
        "canDoRepeatFreeStyle": false,
        "eventPatternSuiteKey": "",
        "FOHHKFAIAAJ": ""
      },
      {
        "$type": "LJLMDHDCAMK",
        "type": "LOOK_AT",
        "aliasList": [
          "1044"
        ],
        "enableHead": true,
        "useTargetPos": true,
        "enableAbsolute": true,
        "headTurnTime": 0.5,
        "targetNpcAlias": "1005",
        "targetNpcLookAtPoint": "",
        "OAFJBHJHLJG": ""
      },
      {
        "$type": "FJKIHHKJLMJ",
        "type": "CAMERA_MOVE",
        "duration": 0.5,
        "camPosOffset": {
          "x": -3927.428955078125,
          "y": 229.7830047607422,
          "z": -2130.007080078125
        },
        "camForwardTargetOffset": {
          "x": -3928.221923828125,
          "y": 230.08700561523438,
          "z": -2129.47900390625
        },
        "camFov": 20.0,
        "lerpPattern": 6,
        "cameraBlendType": "EaseInOutCubic",
        "NJBNNOMLKCK": {},
        "openCameraDither": false,
        "targetNpcAlias": "",
        "closeTreeLeafDither": true,
        "KJOEFBPOIIH": "",
        "IICFKKEBIEC": "",
        "EGEHEJEBLBJ": ""
      },
      {
        "$type": "CPJKOIHIPBE",
        "type": "EMO_SYNC",
        "delayTime": 0.03999999910593033,
        "aliasList": [
          "1044"
        ],
        "dataPath": "Cs_Emo_Avatar_Simple_Common_Set/Cs_Emo_Avatar_Talk/Cs_Emo_Avatar_PersonalLine/Cs_Emo_Avatar_Itto/Cs_Emo_120250303",
        "phonemePath": "",
        "emotionPath": "",
        "mateDataPath": "",
        "matePhonemePath": "",
        "mateEmotionPath": "",
        "dataPathHashList": [
          5556120674937264907,
          10690303193582958528,
          10319032264070399679,
          8069817384014534346
        ],
        "FMDPBECPELH": "",
        "ADKBLPOKGIK": ""
      },
      {
        "$type": "FJKIHHKJLMJ",
        "type": "CAMERA_MOVE",
        "delayTime": 0.07000000029802322,
        "duration": 13.541999816894531,
        "camPosOffset": {
          "x": -3927.60595703125,
          "y": 229.8679962158203,
          "z": -2129.8740234375
        },
        "camForwardTargetOffset": {
          "x": -3928.39892578125,
          "y": 230.1719970703125,
          "z": -2129.345947265625
        },
        "camFov": 20.0,
        "cameraBlendType": "EaseOutQuad",
        "NJBNNOMLKCK": {},
        "openCameraDither": false,
        "targetNpcAlias": "",
        "closeTreeLeafDither": true,
        "KJOEFBPOIIH": "",
        "IICFKKEBIEC": "",
        "EGEHEJEBLBJ": ""
      },
      {
        "$type": "LJLMDHDCAMK",
        "type": "LOOK_AT",
        "delayTime": 1.7730000019073486,
        "aliasList": [
          "1044"
        ],
        "enableHead": true,
        "headRotateVec": {
          "y": 6.673999786376953
        },
        "headTurnTime": 0.5,
        "targetNpcAlias": "",
        "lookAtTargetType": "NONE",
        "targetNpcLookAtPoint": "",
        "OAFJBHJHLJG": ""
      },
      {
        "$type": "FABLGECDBCH",
        "type": "BODY_LANG",
        "delayTime": 1.7760000228881836,
        "aliasList": [
          "1044"
        ],
        "bodyLangParam": 1190,
        "forceDoFreeStyle": true,
        "canDoRepeatFreeStyle": false,
        "eventPatternSuiteKey": "",
        "FOHHKFAIAAJ": ""
      },
      {
        "$type": "FABLGECDBCH",
        "type": "BODY_LANG",
        "delayTime": 4.177000045776367,
        "aliasList": [
          "1044"
        ],
        "isContinue": true,
        "forceDoFreeStyle": true,
        "canDoRepeatFreeStyle": false,
        "eventPatternSuiteKey": "",
        "FOHHKFAIAAJ": ""
      },
      {
        "$type": "LJLMDHDCAMK",
        "type": "LOOK_AT",
        "delayTime": 4.333000183105469,
        "aliasList": [
          "1044"
        ],
        "enableHead": true,
        "useTargetPos": true,
        "enableAbsolute": true,
        "headTurnTime": 0.5,
        "targetNpcAlias": "1005",
        "targetNpcLookAtPoint": "",
        "OAFJBHJHLJG": ""
      },
      {
        "$type": "FABLGECDBCH",
        "type": "BODY_LANG",
        "delayTime": 5.625,
        "aliasList": [
          "1044"
        ],
        "bodyLangParam": 1220,
        "forceDoFreeStyle": true,
        "canDoRepeatFreeStyle": false,
        "eventPatternSuiteKey": "",
        "FOHHKFAIAAJ": ""
      }
    ],
    [
      {
        "$type": "LJLMDHDCAMK",
        "type": "LOOK_AT",
        "aliasList": [
          "1044"
        ],
        "enableHead": true,
        "enableAbsolute": true,
        "headRotateVec": {
          "y": 3.9619998931884766
        },
        "headTurnTime": 0.5,
        "targetNpcAlias": "1005",
        "lookAtTargetType": "NONE",
        "targetNpcLookAtPoint": "",
        "OAFJBHJHLJG": ""
      },
      {
        "$type": "FABLGECDBCH",
        "type": "BODY_LANG",
        "aliasList": [
          "1044"
        ],
        "bodyLangParam": 1120,
        "forceDoFreeStyle": true,
        "canDoRepeatFreeStyle": false,
        "eventPatternSuiteKey": "",
        "FOHHKFAIAAJ": ""
      },
      {
        "$type": "EMEHNEMOMMM",
        "type": "LOOK_AT_EYECTRL",
        "aliasList": [
          "1044"
        ],
        "useTargetPos": false,
        "eyeRotateVecLeft": {
          "z": 2.0
        },
        "eyeRotateVecRight": {
          "z": 2.0
        },
        "turnTime": 1.0,
        "targetNpcAlias": "",
        "targetPoint": "Face"
      },
      {
        "$type": "CPJKOIHIPBE",
        "type": "EMO_SYNC",
        "aliasList": [
          "1044"
        ],
        "dataPath": "Cs_Emo_Avatar_Simple_Common_Set/Cs_Emo_Avatar_Talk/Cs_Emo_Avatar_PersonalLine/Cs_Emo_Avatar_Itto/Cs_Emo_120250304",
        "phonemePath": "",
        "emotionPath": "",
        "mateDataPath": "",
        "matePhonemePath": "",
        "mateEmotionPath": "",
        "enableBlink": false,
        "dataPathHashList": [
          16088191479458143300,
          1262914057501179252,
          5759285929633420633,
          1039037773634143513
        ],
        "FMDPBECPELH": "",
        "ADKBLPOKGIK": ""
      },
      {
        "$type": "FJKIHHKJLMJ",
        "type": "CAMERA_MOVE",
        "duration": 0.5,
        "camPosOffset": {
          "x": -3927.881103515625,
          "y": 230.00799560546875,
          "z": -2129.672119140625
        },
        "camForwardTargetOffset": {
          "x": -3928.675048828125,
          "y": 230.31199645996094,
          "z": -2129.14501953125
        },
        "camFov": 20.0,
        "cameraBlendType": "EaseInOutQuad",
        "NJBNNOMLKCK": {},
        "openCameraDither": false,
        "targetNpcAlias": "",
        "closeTreeLeafDither": true,
        "KJOEFBPOIIH": "",
        "IICFKKEBIEC": "",
        "EGEHEJEBLBJ": ""
      },
      {
        "$type": "PKKMAMONGEO",
        "type": "DIALOG",
        "aliasList": [
          "1044"
        ],
        "dialogID": 120250304,
        "protectTime": 0.5
      },
      {
        "$type": "HDGKHDNFMIM",
        "type": "DIALOG_SELECT",
        "delayTime": 0.4000000059604645,
        "aliasList": [
          "Avatar"
        ],
        "dialogIDList": [
          120250305,
          120250306
        ],
        "grpIDList": [
          1861379790,
          1861379790
        ],
        "useGrpId": true
      },
      {
        "$type": "FJKIHHKJLMJ",
        "type": "CAMERA_MOVE",
        "delayTime": 0.5260000228881836,
        "duration": 6.809000015258789,
        "camPosOffset": {
          "x": -3927.903076171875,
          "y": 230.01600646972656,
          "z": -2129.657958984375
        },
        "camForwardTargetOffset": {
          "x": -3928.697021484375,
          "y": 230.32000732421875,
          "z": -2129.1298828125
        },
        "camFov": 20.0,
        "cameraBlendType": "EaseOutQuad",
        "NJBNNOMLKCK": {},
        "openCameraDither": false,
        "targetNpcAlias": "",
        "closeTreeLeafDither": true,
        "KJOEFBPOIIH": "",
        "IICFKKEBIEC": "",
        "EGEHEJEBLBJ": ""
      },
      {
        "$type": "LJLMDHDCAMK",
        "type": "LOOK_AT",
        "delayTime": 2.799999952316284,
        "aliasList": [
          "1044"
        ],
        "enableHead": true,
        "enableAbsolute": true,
        "headRotateVec": {
          "y": 352.9410095214844
        },
        "headTurnTime": 0.5,
        "targetNpcAlias": "1005",
        "lookAtTargetType": "NONE",
        "targetNpcLookAtPoint": "",
        "OAFJBHJHLJG": ""
      },
      {
        "$type": "LJLMDHDCAMK",
        "type": "LOOK_AT",
        "delayTime": 3.549999952316284,
        "aliasList": [
          "1044"
        ],
        "enableHead": true,
        "enableAbsolute": true,
        "headTurnTime": 0.5,
        "targetNpcAlias": "1005",
        "lookAtTargetType": "NONE",
        "targetNpcLookAtPoint": "",
        "OAFJBHJHLJG": ""
      }
    ],
    [
      {
        "$type": "LJLMDHDCAMK",
        "type": "LOOK_AT",
        "aliasList": [
          "1044"
        ],
        "enableHead": true,
        "useTargetPos": true,
        "enableAbsolute": true,
        "headTurnTime": 0.5,
        "targetNpcAlias": "Avatar",
        "targetNpcLookAtPoint": "",
        "OAFJBHJHLJG": ""
      },
      {
        "$type": "CPJKOIHIPBE",
        "type": "EMO_SYNC",
        "aliasList": [
          "1044"
        ],
        "dataPath": "Cs_Emo_Avatar_Simple_Common_Set/Cs_Emo_Avatar_Talk/Cs_Emo_Avatar_PersonalLine/Cs_Emo_Avatar_Itto/Cs_Emo_120250307",
        "phonemePath": "",
        "emotionPath": "",
        "mateDataPath": "",
        "matePhonemePath": "",
        "mateEmotionPath": "",
        "dataPathHashList": [
          10027319282268348608,
          12520876020536379235,
          15945880440809161043,
          14326118816132056933
        ],
        "FMDPBECPELH": "",
        "ADKBLPOKGIK": ""
      },
      {
        "$type": "FABLGECDBCH",
        "type": "BODY_LANG",
        "aliasList": [
          "1044"
        ],
        "isContinue": true,
        "forceDoFreeStyle": true,
        "canDoRepeatFreeStyle": false,
        "eventPatternSuiteKey": "",
        "FOHHKFAIAAJ": ""
      },
      {
        "$type": "FJKIHHKJLMJ",
        "type": "CAMERA_MOVE",
        "duration": 0.5,
        "camPosOffset": {
          "x": -3927.720947265625,
          "y": 230.92300415039062,
          "z": -2124.153076171875
        },
        "camForwardTargetOffset": {
          "x": -3927.8720703125,
          "y": 230.76699829101562,
          "z": -2125.12890625
        },
        "camFov": 15.0,
        "lerpPattern": 6,
        "cameraBlendType": "EaseInOutCubic",
        "NJBNNOMLKCK": {},
        "openCameraDither": false,
        "targetNpcAlias": "",
        "closeTreeLeafDither": true,
        "KJOEFBPOIIH": "",
        "IICFKKEBIEC": "",
        "EGEHEJEBLBJ": ""
      },
      {
        "$type": "PKKMAMONGEO",
        "type": "DIALOG",
        "aliasList": [
          "1044"
        ],
        "dialogID": 120250307,
        "protectTime": 0.5
      },
      {
        "$type": "FABLGECDBCH",
        "type": "BODY_LANG",
        "delayTime": 1.9950000047683716,
        "aliasList": [
          "1044"
        ],
        "bodyLangParam": 1173,
        "forceDoFreeStyle": true,
        "canDoRepeatFreeStyle": false,
        "eventPatternSuiteKey": "",
        "FOHHKFAIAAJ": ""
      }
    ],
    [
      {
        "$type": "FABLGECDBCH",
        "type": "BODY_LANG",
        "aliasList": [
          "1044"
        ],
        "bodyLangParam": 1220,
        "forceDoFreeStyle": true,
        "canDoRepeatFreeStyle": false,
        "eventPatternSuiteKey": "",
        "FOHHKFAIAAJ": ""
      },
      {
        "$type": "CPJKOIHIPBE",
        "type": "EMO_SYNC",
        "aliasList": [
          "1044"
        ],
        "dataPath": "Cs_Emo_Avatar_Simple_Common_Set/Cs_Emo_Avatar_Talk/Cs_Emo_Avatar_PersonalLine/Cs_Emo_Avatar_Itto/Cs_Emo_120250308",
        "phonemePath": "",
        "emotionPath": "",
        "mateDataPath": "",
        "matePhonemePath": "",
        "mateEmotionPath": "",
        "dataPathHashList": [
          9421117741074257379,
          7119770572274154416,
          7150374903263211619,
          17225441637115126446
        ],
        "FMDPBECPELH": "",
        "ADKBLPOKGIK": ""
      },
      {
        "$type": "PKKMAMONGEO",
        "type": "DIALOG",
        "aliasList": [
          "1044"
        ],
        "dialogID": 120250308,
        "protectTime": 0.5
      },
      {
        "$type": "FJKIHHKJLMJ",
        "type": "CAMERA_MOVE",
        "duration": 0.5,
        "camPosOffset": {
          "x": -3925.80810546875,
          "y": 229.94400024414062,
          "z": -2130.884033203125
        },
        "camForwardTargetOffset": {
          "x": -3926.702880859375,
          "y": 230.03599548339844,
          "z": -2130.447021484375
        },
        "camFov": 15.0,
        "lerpPattern": 6,
        "cameraBlendType": "EaseInOutCubic",
        "NJBNNOMLKCK": {},
        "openCameraDither": false,
        "targetNpcAlias": "",
        "closeTreeLeafDither": true,
        "KJOEFBPOIIH": "",
        "IICFKKEBIEC": "",
        "EGEHEJEBLBJ": ""
      },
      {
        "$type": "FJKIHHKJLMJ",
        "type": "CAMERA_MOVE",
        "delayTime": 0.07000000029802322,
        "duration": 11.625,
        "camPosOffset": {
          "x": -3925.7900390625,
          "y": 229.94500732421875,
          "z": -2130.84912109375
        },
        "camForwardTargetOffset": {
          "x": -3926.68505859375,
          "y": 230.03700256347656,
          "z": -2130.412109375
        },
        "camFov": 15.0,
        "cameraBlendType": "EaseOutQuad",
        "NJBNNOMLKCK": {},
        "openCameraDither": false,
        "targetNpcAlias": "",
        "closeTreeLeafDither": true,
        "KJOEFBPOIIH": "",
        "IICFKKEBIEC": "",
        "EGEHEJEBLBJ": ""
      },
      {
        "$type": "LJLMDHDCAMK",
        "type": "LOOK_AT",
        "delayTime": 1.3830000162124634,
        "aliasList": [
          "1044"
        ],
        "enableHead": true,
        "enableAbsolute": true,
        "headRotateVec": {
          "y": 352.6650085449219
        },
        "headTurnTime": 0.5,
        "targetNpcAlias": "1005",
        "lookAtTargetType": "NONE",
        "targetNpcLookAtPoint": "",
        "OAFJBHJHLJG": ""
      },
      {
        "$type": "FABLGECDBCH",
        "type": "BODY_LANG",
        "delayTime": 3.1080000400543213,
        "aliasList": [
          "1044"
        ],
        "isContinue": true,
        "forceDoFreeStyle": true,
        "canDoRepeatFreeStyle": false,
        "eventPatternSuiteKey": "",
        "FOHHKFAIAAJ": ""
      },
      {
        "$type": "LJLMDHDCAMK",
        "type": "LOOK_AT",
        "delayTime": 3.5169999599456787,
        "aliasList": [
          "1044"
        ],
        "enableHead": true,
        "useTargetPos": true,
        "enableAbsolute": true,
        "headTurnTime": 0.5,
        "targetNpcAlias": "Avatar",
        "targetNpcLookAtPoint": "",
        "OAFJBHJHLJG": ""
      },
      {
        "$type": "FABLGECDBCH",
        "type": "BODY_LANG",
        "delayTime": 4.40500020980835,
        "aliasList": [
          "1044"
        ],
        "bodyLangParam": 1173,
        "forceDoFreeStyle": true,
        "canDoRepeatFreeStyle": false,
        "eventPatternSuiteKey": "",
        "FOHHKFAIAAJ": ""
      }
    ],
    [
      {
        "$type": "FABLGECDBCH",
        "type": "BODY_LANG",
        "aliasList": [
          "1044"
        ],
        "bodyLangParam": 1150,
        "forceDoFreeStyle": true,
        "canDoRepeatFreeStyle": false,
        "eventPatternSuiteKey": "",
        "FOHHKFAIAAJ": ""
      },
      {
        "$type": "PKKMAMONGEO",
        "type": "DIALOG",
        "aliasList": [
          "1044"
        ],
        "dialogID": 120250309,
        "protectTime": 4.86299991607666
      },
      {
        "$type": "CPJKOIHIPBE",
        "type": "EMO_SYNC",
        "aliasList": [
          "1005"
        ],
        "dataPath": "",
        "phonemePath": "Cs_Emo_Pet_Common/Cs_Emo_Paimon_None",
        "emotionPath": "Cs_Emo_Pet_Common/Cs_Emo_Paimon_Sad01",
        "mateDataPath": "",
        "matePhonemePath": "",
        "mateEmotionPath": "",
        "phonemePathHashList": [
          1796869206626684908,
          2049648015653630001,
          14015965774222061559,
          873259039409222856
        ],
        "emotionPathHashList": [
          11568139502653381171,
          8567928142434099978,
          3831425586395050200,
          16058304373954184060
        ],
        "FMDPBECPELH": "",
        "ADKBLPOKGIK": ""
      },
      {
        "$type": "LJLMDHDCAMK",
        "type": "LOOK_AT",
        "aliasList": [
          "1044"
        ],
        "enableHead": true,
        "useTargetPos": true,
        "enableAbsolute": true,
        "headTurnTime": 0.5,
        "targetNpcAlias": "Avatar",
        "targetNpcLookAtPoint": "",
        "OAFJBHJHLJG": ""
      },
      {
        "$type": "MoleMole.Config.ConfigLuaAction",
        "type": "LUA_ACTION",
        "duration": 0.10000000149011612,
        "invoke": true,
        "invokeAlias": "12025",
        "invokeParam": 1202503
      },
      {
        "$type": "FJKIHHKJLMJ",
        "type": "CAMERA_MOVE",
        "duration": 0.5,
        "camPosOffset": {
          "x": -3927.030029296875,
          "y": 229.9770050048828,
          "z": -2128.950927734375
        },
        "camForwardTargetOffset": {
          "x": -3927.625,
          "y": 230.05099487304688,
          "z": -2129.7509765625
        },
        "camFov": 15.0,
        "lerpPattern": 6,
        "cameraBlendType": "EaseInOutCubic",
        "NJBNNOMLKCK": {},
        "openCameraDither": false,
        "targetNpcAlias": "",
        "closeTreeLeafDither": true,
        "KJOEFBPOIIH": "",
        "IICFKKEBIEC": "",
        "EGEHEJEBLBJ": ""
      },
      {
        "$type": "CPJKOIHIPBE",
        "type": "EMO_SYNC",
        "aliasList": [
          "1044"
        ],
        "dataPath": "Cs_Emo_Avatar_Simple_Common_Set/Cs_Emo_Avatar_Talk/Cs_Emo_Avatar_PersonalLine/Cs_Emo_Avatar_Itto/Cs_Emo_120250309",
        "phonemePath": "",
        "emotionPath": "",
        "mateDataPath": "",
        "matePhonemePath": "",
        "mateEmotionPath": "",
        "dataPathHashList": [
          4351288879813405383,
          14299639998782414111,
          13900103242006122409,
          7619556264532899706
        ],
        "FMDPBECPELH": "",
        "ADKBLPOKGIK": ""
      },
      {
        "$type": "EMEHNEMOMMM",
        "type": "LOOK_AT_EYECTRL",
        "delayTime": 0.1469999998807907,
        "aliasList": [
          "1005"
        ],
        "useTargetPos": false,
        "eyeRotateVecLeft": {
          "x": 4.0
        },
        "eyeRotateVecRight": {
          "x": 4.0
        },
        "turnTime": 1.0,
        "targetNpcAlias": "",
        "targetPoint": "Face"
      },
      {
        "$type": "LJLMDHDCAMK",
        "type": "LOOK_AT",
        "delayTime": 0.15199999511241913,
        "aliasList": [
          "1005"
        ],
        "enableHead": true,
        "useTargetPos": true,
        "enableAbsolute": true,
        "headTurnTime": 0.5,
        "targetNpcAlias": "Avatar",
        "targetNpcLookAtPoint": "",
        "OAFJBHJHLJG": ""
      },
      {
        "$type": "LJLMDHDCAMK",
        "type": "LOOK_AT",
        "delayTime": 0.27399998903274536,
        "aliasList": [
          "Avatar"
        ],
        "enableHead": true,
        "useTargetPos": true,
        "enableAbsolute": true,
        "headTurnTime": 0.5,
        "targetNpcAlias": "1005",
        "targetNpcLookAtPoint": "",
        "OAFJBHJHLJG": ""
      },
      {
        "$type": "LJLMDHDCAMK",
        "type": "LOOK_AT",
        "delayTime": 1.8869999647140503,
        "aliasList": [
          "Avatar"
        ],
        "enableHead": true,
        "useTargetPos": true,
        "enableAbsolute": true,
        "headTurnTime": 0.5,
        "targetNpcAlias": "1044",
        "targetNpcLookAtPoint": "",
        "OAFJBHJHLJG": ""
      },
      {
        "$type": "CPJKOIHIPBE",
        "type": "EMO_SYNC",
        "delayTime": 2.0,
        "aliasList": [
          "1005"
        ],
        "dataPath": "",
        "phonemePath": "Cs_Emo_Pet_Common/Cs_Emo_Paimon_None",
        "emotionPath": "Cs_Emo_Pet_Common/Cs_Emo_Paimon_Normal01_B",
        "mateDataPath": "",
        "matePhonemePath": "",
        "mateEmotionPath": "",
        "phonemePathHashList": [
          1796869206626684908,
          2049648015653630001,
          14015965774222061559,
          873259039409222856
        ],
        "emotionPathHashList": [
          14892026956990897578,
          7647528750435710781,
          2171559387429051042,
          15358483104891988261
        ],
        "FMDPBECPELH": "",
        "ADKBLPOKGIK": ""
      },
      {
        "$type": "EMEHNEMOMMM",
        "type": "LOOK_AT_EYECTRL",
        "delayTime": 2.0380001068115234,
        "aliasList": [
          "1005"
        ],
        "useTargetPos": false,
        "turnTime": 1.0,
        "targetNpcAlias": "",
        "targetPoint": "Face"
      },
      {
        "$type": "LJLMDHDCAMK",
        "type": "LOOK_AT",
        "delayTime": 2.0390000343322754,
        "aliasList": [
          "1005"
        ],
        "enableHead": true,
        "useTargetPos": true,
        "enableAbsolute": true,
        "headTurnTime": 0.5,
        "targetNpcAlias": "1044",
        "targetNpcLookAtPoint": "",
        "OAFJBHJHLJG": ""
      },
      {
        "$type": "FABLGECDBCH",
        "type": "BODY_LANG",
        "delayTime": 3.1540000438690186,
        "aliasList": [
          "1044"
        ],
        "bodyLangParam": 1172,
        "forceDoFreeStyle": true,
        "canDoRepeatFreeStyle": false,
        "eventPatternSuiteKey": "",
        "FOHHKFAIAAJ": ""
      },
      {
        "$type": "FJKIHHKJLMJ",
        "type": "CAMERA_MOVE",
        "delayTime": 4.35099983215332,
        "duration": 0.5,
        "camPosOffset": {
          "x": -3924.216064453125,
          "y": 229.68899536132812,
          "z": -2130.237060546875
        },
        "camForwardTargetOffset": {
          "x": -3925.2080078125,
          "y": 229.7570037841797,
          "z": -2130.134033203125
        },
        "camFov": 20.0,
        "lerpPattern": 6,
        "cameraBlendType": "EaseInOutCubic",
        "NJBNNOMLKCK": {},
        "openCameraDither": false,
        "targetNpcAlias": "",
        "closeTreeLeafDither": true,
        "KJOEFBPOIIH": "",
        "IICFKKEBIEC": "",
        "EGEHEJEBLBJ": ""
      },
      {
        "$type": "FJKIHHKJLMJ",
        "type": "CAMERA_MOVE",
        "delayTime": 4.421000003814697,
        "duration": 12.383000373840332,
        "camPosOffset": {
          "x": -3924.202880859375,
          "y": 229.68800354003906,
          "z": -2130.110107421875
        },
        "camForwardTargetOffset": {
          "x": -3925.195068359375,
          "y": 229.75599670410156,
          "z": -2130.007080078125
        },
        "camFov": 20.0,
        "cameraBlendType": "EaseOutQuad",
        "NJBNNOMLKCK": {},
        "openCameraDither": false,
        "targetNpcAlias": "",
        "closeTreeLeafDither": true,
        "KJOEFBPOIIH": "",
        "IICFKKEBIEC": "",
        "EGEHEJEBLBJ": ""
      },
      {
        "$type": "FABLGECDBCH",
        "type": "BODY_LANG",
        "delayTime": 5.263000011444092,
        "aliasList": [
          "1044"
        ],
        "bodyLangParam": 4040,
        "forceDoFreeStyle": true,
        "canDoRepeatFreeStyle": false,
        "eventPatternSuiteKey": "",
        "FOHHKFAIAAJ": ""
      }
    ],
    [
      {
        "$type": "PKKMAMONGEO",
        "type": "DIALOG",
        "aliasList": [
          "1044"
        ],
        "dialogID": 120250310,
        "protectTime": 1.524999976158142
      },
      {
        "$type": "EMEHNEMOMMM",
        "type": "LOOK_AT_EYECTRL",
        "aliasList": [
          "1005"
        ],
        "useTargetPos": false,
        "turnTime": 1.0,
        "targetNpcAlias": "",
        "targetPoint": "Face"
      },
      {
        "$type": "CPJKOIHIPBE",
        "type": "EMO_SYNC",
        "aliasList": [
          "1044"
        ],
        "dataPath": "Cs_Emo_Avatar_Simple_Common_Set/Cs_Emo_Avatar_Talk/Cs_Emo_Avatar_PersonalLine/Cs_Emo_Avatar_Itto/Cs_Emo_120250310",
        "phonemePath": "",
        "emotionPath": "",
        "mateDataPath": "",
        "matePhonemePath": "",
        "mateEmotionPath": "",
        "enableBlink": false,
        "dataPathHashList": [
          7559525620159270544,
          865149539721513055,
          7231265567676806993,
          7315380190747045084
        ],
        "FMDPBECPELH": "",
        "ADKBLPOKGIK": ""
      },
      {
        "$type": "FABLGECDBCH",
        "type": "BODY_LANG",
        "aliasList": [
          "1044"
        ],
        "bodyLangParam": 1290,
        "forceDoFreeStyle": true,
        "canDoRepeatFreeStyle": false,
        "eventPatternSuiteKey": "",
        "FOHHKFAIAAJ": ""
      },
      {
        "$type": "LJLMDHDCAMK",
        "type": "LOOK_AT",
        "aliasList": [
          "Avatar"
        ],
        "enableHead": true,
        "useTargetPos": true,
        "enableAbsolute": true,
        "headTurnTime": 0.5,
        "targetNpcAlias": "1044",
        "targetNpcLookAtPoint": "",
        "OAFJBHJHLJG": ""
      },
      {
        "$type": "LJLMDHDCAMK",
        "type": "LOOK_AT",
        "aliasList": [
          "1005"
        ],
        "enableHead": true,
        "useTargetPos": true,
        "enableAbsolute": true,
        "headTurnTime": 0.5,
        "targetNpcAlias": "1044",
        "targetNpcLookAtPoint": "",
        "OAFJBHJHLJG": ""
      },
      {
        "$type": "FJKIHHKJLMJ",
        "type": "CAMERA_MOVE",
        "delayTime": 1.2710000276565552,
        "duration": 0.5,
        "camPosOffset": {
          "x": -3927.033935546875,
          "y": 229.89300537109375,
          "z": -2130.027099609375
        },
        "camForwardTargetOffset": {
          "x": -3927.906982421875,
          "y": 230.1009979248047,
          "z": -2129.5869140625
        },
        "camFov": 20.0,
        "lerpPattern": 6,
        "cameraBlendType": "EaseOutQuad",
        "NJBNNOMLKCK": {},
        "openCameraDither": false,
        "targetNpcAlias": "",
        "closeTreeLeafDither": true,
        "KJOEFBPOIIH": "",
        "IICFKKEBIEC": "",
        "EGEHEJEBLBJ": ""
      },
      {
        "$type": "FJKIHHKJLMJ",
        "type": "CAMERA_MOVE",
        "delayTime": 1.371000051498413,
        "duration": 9.774999618530273,
        "camPosOffset": {
          "x": -3927.007080078125,
          "y": 229.8939971923828,
          "z": -2129.97509765625
        },
        "camForwardTargetOffset": {
          "x": -3927.881103515625,
          "y": 230.1020050048828,
          "z": -2129.534912109375
        },
        "camFov": 20.0,
        "cameraBlendType": "EaseOutQuad",
        "NJBNNOMLKCK": {},
        "openCameraDither": false,
        "targetNpcAlias": "",
        "closeTreeLeafDither": true,
        "KJOEFBPOIIH": "",
        "IICFKKEBIEC": "",
        "EGEHEJEBLBJ": ""
      },
      {
        "$type": "LJLMDHDCAMK",
        "type": "LOOK_AT",
        "delayTime": 4.242000102996826,
        "aliasList": [
          "1044"
        ],
        "enableHead": true,
        "enableAbsolute": true,
        "headRotateVec": {
          "y": 352.6650085449219
        },
        "headTurnTime": 0.5,
        "targetNpcAlias": "1005",
        "lookAtTargetType": "NONE",
        "targetNpcLookAtPoint": "",
        "OAFJBHJHLJG": ""
      },
      {
        "$type": "FABLGECDBCH",
        "type": "BODY_LANG",
        "delayTime": 4.242000102996826,
        "aliasList": [
          "1044"
        ],
        "bodyLangParam": 1230,
        "forceDoFreeStyle": true,
        "canDoRepeatFreeStyle": false,
        "eventPatternSuiteKey": "",
        "FOHHKFAIAAJ": ""
      }
    ],
    [
      {
        "$type": "CPJKOIHIPBE",
        "type": "EMO_SYNC",
        "aliasList": [
          "1005"
        ],
        "dataPath": "Cs_Emo_Avatar_Simple_Common_Set/Cs_Emo_Avatar_Talk/Cs_Emo_Avatar_PersonalLine/Cs_Emo_Avatar_Itto/Cs_Emo_120250311",
        "phonemePath": "",
        "emotionPath": "",
        "mateDataPath": "",
        "matePhonemePath": "",
        "mateEmotionPath": "",
        "dataPathHashList": [
          3542714018620988113,
          14376429018859586681,
          7686634345020222269,
          1872305582487665240
        ],
        "FMDPBECPELH": "",
        "ADKBLPOKGIK": ""
      },
      {
        "$type": "FABLGECDBCH",
        "type": "BODY_LANG",
        "aliasList": [
          "1044"
        ],
        "bodyLangParam": 1230,
        "forceDoFreeStyle": true,
        "canDoRepeatFreeStyle": false,
        "eventPatternSuiteKey": "",
        "FOHHKFAIAAJ": ""
      },
      {
        "$type": "LJLMDHDCAMK",
        "type": "LOOK_AT",
        "aliasList": [
          "1044"
        ],
        "enableHead": true,
        "enableAbsolute": true,
        "headRotateVec": {
          "y": 352.6650085449219
        },
        "headTurnTime": 0.5,
        "targetNpcAlias": "1005",
        "lookAtTargetType": "NONE",
        "targetNpcLookAtPoint": "",
        "OAFJBHJHLJG": ""
      },
      {
        "$type": "FJKIHHKJLMJ",
        "type": "CAMERA_MOVE",
        "duration": 0.5,
        "camPosOffset": {
          "x": -3928.802978515625,
          "y": 230.71200561523438,
          "z": -2127.962890625
        },
        "camForwardTargetOffset": {
          "x": -3928.908935546875,
          "y": 230.48800659179688,
          "z": -2128.931884765625
        },
        "camFov": 20.0,
        "lerpPattern": 6,
        "cameraBlendType": "EaseInOutCubic",
        "NJBNNOMLKCK": {},
        "openCameraDither": false,
        "targetNpcAlias": "",
        "closeTreeLeafDither": true,
        "KJOEFBPOIIH": "",
        "IICFKKEBIEC": "",
        "EGEHEJEBLBJ": ""
      },
      {
        "$type": "PKKMAMONGEO",
        "type": "DIALOG",
        "aliasList": [
          "1005"
        ],
        "dialogID": 120250311,
        "protectTime": 0.5
      },
      {
        "$type": "FABLGECDBCH",
        "type": "BODY_LANG",
        "delayTime": 0.7080000042915344,
        "aliasList": [
          "1005"
        ],
        "bodyLangParam": 1100,
        "forceDoFreeStyle": true,
        "canDoRepeatFreeStyle": false,
        "eventPatternSuiteKey": "",
        "FOHHKFAIAAJ": ""
      }
    ],
    [
      {
        "$type": "LJLMDHDCAMK",
        "type": "LOOK_AT",
        "aliasList": [
          "1044"
        ],
        "enableHead": true,
        "useTargetPos": true,
        "enableAbsolute": true,
        "headRotateVec": {
          "y": 352.6650085449219
        },
        "headTurnTime": 0.5,
        "targetNpcAlias": "1005",
        "targetNpcLookAtPoint": "",
        "OAFJBHJHLJG": ""
      },
      {
        "$type": "CPJKOIHIPBE",
        "type": "EMO_SYNC",
        "aliasList": [
          "1044"
        ],
        "dataPath": "Cs_Emo_Avatar_Simple_Common_Set/Cs_Emo_Avatar_Talk/Cs_Emo_Avatar_PersonalLine/Cs_Emo_Avatar_Itto/Cs_Emo_120250312",
        "phonemePath": "",
        "emotionPath": "",
        "mateDataPath": "",
        "matePhonemePath": "",
        "mateEmotionPath": "",
        "dataPathHashList": [
          9944120639296865919,
          1155314626550992748,
          13071404894783003853,
          11060039617723805387
        ],
        "FMDPBECPELH": "",
        "ADKBLPOKGIK": ""
      },
      {
        "$type": "FJKIHHKJLMJ",
        "type": "CAMERA_MOVE",
        "duration": 0.5,
        "camPosOffset": {
          "x": -3928.340087890625,
          "y": 230.22900390625,
          "z": -2129.7529296875
        },
        "camForwardTargetOffset": {
          "x": -3928.965087890625,
          "y": 230.468994140625,
          "z": -2129.010009765625
        },
        "camFov": 20.0,
        "lerpPattern": 6,
        "cameraBlendType": "EaseInOutCubic",
        "NJBNNOMLKCK": {},
        "openCameraDither": false,
        "targetNpcAlias": "",
        "closeTreeLeafDither": true,
        "KJOEFBPOIIH": "",
        "IICFKKEBIEC": "",
        "EGEHEJEBLBJ": ""
      },
      {
        "$type": "PKKMAMONGEO",
        "type": "DIALOG",
        "aliasList": [
          "1044"
        ],
        "dialogID": 120250312,
        "protectTime": 0.5
      }
    ],
    [
      {
        "$type": "FABLGECDBCH",
        "type": "BODY_LANG",
        "aliasList": [
          "1044"
        ],
        "isContinue": true,
        "forceDoFreeStyle": true,
        "canDoRepeatFreeStyle": false,
        "eventPatternSuiteKey": "",
        "FOHHKFAIAAJ": ""
      },
      {
        "$type": "CPJKOIHIPBE",
        "type": "EMO_SYNC",
        "aliasList": [
          "1044"
        ],
        "dataPath": "Cs_Emo_Avatar_Simple_Common_Set/Cs_Emo_Avatar_Talk/Cs_Emo_Avatar_PersonalLine/Cs_Emo_Avatar_Itto/Cs_Emo_120250313",
        "phonemePath": "",
        "emotionPath": "",
        "mateDataPath": "",
        "matePhonemePath": "",
        "mateEmotionPath": "",
        "enableBlink": false,
        "dataPathHashList": [
          4427290419415402656,
          14512217877704758400,
          2220385170117143465,
          2215718610450907148
        ],
        "FMDPBECPELH": "",
        "ADKBLPOKGIK": ""
      },
      {
        "$type": "PKKMAMONGEO",
        "type": "DIALOG",
        "aliasList": [
          "1044"
        ],
        "dialogID": 120250313,
        "protectTime": 0.5
      },
      {
        "$type": "FJKIHHKJLMJ",
        "type": "CAMERA_MOVE",
        "duration": 0.5,
        "camPosOffset": {
          "x": -3926.972900390625,
          "y": 230.03199768066406,
          "z": -2132.75390625
        },
        "camForwardTargetOffset": {
          "x": -3927.4560546875,
          "y": 230.04600524902344,
          "z": -2131.8779296875
        },
        "camFov": 20.0,
        "lerpPattern": 6,
        "cameraBlendType": "EaseInOutCubic",
        "NJBNNOMLKCK": {},
        "openCameraDither": false,
        "targetNpcAlias": "",
        "closeTreeLeafDither": true,
        "KJOEFBPOIIH": "",
        "IICFKKEBIEC": "",
        "EGEHEJEBLBJ": ""
      },
      {
        "$type": "FJKIHHKJLMJ",
        "type": "CAMERA_MOVE",
        "delayTime": 0.07000000029802322,
        "duration": 9.550000190734863,
        "camPosOffset": {
          "x": -3926.7958984375,
          "y": 229.98599243164062,
          "z": -2133.072021484375
        },
        "camForwardTargetOffset": {
          "x": -3927.279052734375,
          "y": 230.0,
          "z": -2132.197021484375
        },
        "camFov": 20.0,
        "cameraBlendType": "EaseOutQuad",
        "NJBNNOMLKCK": {},
        "openCameraDither": false,
        "targetNpcAlias": "",
        "closeTreeLeafDither": true,
        "KJOEFBPOIIH": "",
        "IICFKKEBIEC": "",
        "EGEHEJEBLBJ": ""
      },
      {
        "$type": "FABLGECDBCH",
        "type": "BODY_LANG",
        "delayTime": 0.8479999899864197,
        "aliasList": [
          "1044"
        ],
        "bodyLangParam": 1173,
        "forceDoFreeStyle": true,
        "canDoRepeatFreeStyle": false,
        "eventPatternSuiteKey": "",
        "FOHHKFAIAAJ": ""
      },
      {
        "$type": "LJLMDHDCAMK",
        "type": "LOOK_AT",
        "delayTime": 1.1749999523162842,
        "aliasList": [
          "1044"
        ],
        "enableHead": true,
        "useTargetPos": true,
        "enableAbsolute": true,
        "headRotateVec": {
          "y": 352.6650085449219
        },
        "headTurnTime": 0.5,
        "targetNpcAlias": "Avatar",
        "targetNpcLookAtPoint": "",
        "OAFJBHJHLJG": ""
      },
      {
        "$type": "LJLMDHDCAMK",
        "type": "LOOK_AT",
        "delayTime": 3.2330000400543213,
        "aliasList": [
          "1044"
        ],
        "enableHead": true,
        "useTargetPos": true,
        "enableAbsolute": true,
        "headRotateVec": {
          "y": 352.6650085449219
        },
        "headTurnTime": 0.5,
        "targetNpcAlias": "1005",
        "targetNpcLookAtPoint": "",
        "OAFJBHJHLJG": ""
      },
      {
        "$type": "FABLGECDBCH",
        "type": "BODY_LANG",
        "delayTime": 3.947999954223633,
        "aliasList": [
          "1044"
        ],
        "bodyLangParam": 1120,
        "forceDoFreeStyle": true,
        "canDoRepeatFreeStyle": false,
        "eventPatternSuiteKey": "",
        "FOHHKFAIAAJ": ""
      }
    ],
    [
      {
        "$type": "CPJKOIHIPBE",
        "type": "EMO_SYNC",
        "aliasList": [
          "1044"
        ],
        "dataPath": "Cs_Emo_Avatar_Simple_Common_Set/Cs_Emo_Avatar_Talk/Cs_Emo_Avatar_PersonalLine/Cs_Emo_Avatar_Itto/Cs_Emo_120250314",
        "phonemePath": "",
        "emotionPath": "",
        "mateDataPath": "",
        "matePhonemePath": "",
        "mateEmotionPath": "",
        "dataPathHashList": [
          12846805488034400005,
          6280979423444912088,
          4389528164380077602,
          16499578390393466413
        ],
        "FMDPBECPELH": "",
        "ADKBLPOKGIK": ""
      },
      {
        "$type": "PKKMAMONGEO",
        "type": "DIALOG",
        "aliasList": [
          "1044"
        ],
        "dialogID": 120250314,
        "protectTime": 0.5
      },
      {
        "$type": "LJLMDHDCAMK",
        "type": "LOOK_AT",
        "aliasList": [
          "1044"
        ],
        "enableHead": true,
        "enableAbsolute": true,
        "headRotateVec": {
          "y": 19.121000289916992
        },
        "headTurnTime": 0.5,
        "targetNpcAlias": "1005",
        "lookAtTargetType": "NONE",
        "targetNpcLookAtPoint": "",
        "OAFJBHJHLJG": ""
      },
      {
        "$type": "FABLGECDBCH",
        "type": "BODY_LANG",
        "aliasList": [
          "1044"
        ],
        "isContinue": true,
        "forceDoFreeStyle": true,
        "canDoRepeatFreeStyle": false,
        "eventPatternSuiteKey": "",
        "FOHHKFAIAAJ": ""
      },
      {
        "$type": "FJKIHHKJLMJ",
        "type": "CAMERA_MOVE",
        "duration": 0.5,
        "camPosOffset": {
          "x": -3922.134033203125,
          "y": 228.18099975585938,
          "z": -2124.595947265625
        },
        "camForwardTargetOffset": {
          "x": -3922.909912109375,
          "y": 228.38900756835938,
          "z": -2125.19189453125
        },
        "camFov": 20.0,
        "lerpPattern": 6,
        "cameraBlendType": "EaseInOutCubic",
        "NJBNNOMLKCK": {},
        "openCameraDither": false,
        "targetNpcAlias": "",
        "closeTreeLeafDither": true,
        "KJOEFBPOIIH": "",
        "IICFKKEBIEC": "",
        "EGEHEJEBLBJ": ""
      },
      {
        "$type": "FABLGECDBCH",
        "type": "BODY_LANG",
        "aliasList": [
          "Avatar"
        ],
        "isContinue": true,
        "forceDoFreeStyle": true,
        "canDoRepeatFreeStyle": false,
        "eventPatternSuiteKey": "",
        "FOHHKFAIAAJ": ""
      },
      {
        "$type": "CPJKOIHIPBE",
        "type": "EMO_SYNC",
        "aliasList": [
          "Avatar"
        ],
        "dataPath": "",
        "phonemePath": "Cs_Emo_Avatar_Common/Cs_Emo_Avatar_Default01",
        "emotionPath": "Cs_Emo_Avatar_Common/Cs_Emo_Avatar_Default01",
        "mateDataPath": "",
        "matePhonemePath": "",
        "mateEmotionPath": "",
        "phonemePathHashList": [
          1010565500959774114,
          17914558573000180712,
          14498871351621154070,
          14348654671849899985
        ],
        "emotionPathHashList": [
          17551147554270584215,
          11567349927864383394,
          11535483659151300012,
          3124390413002392171
        ],
        "FMDPBECPELH": "",
        "ADKBLPOKGIK": ""
      },
      {
        "$type": "FJKIHHKJLMJ",
        "type": "CAMERA_MOVE",
        "delayTime": 0.07000000029802322,
        "duration": 9.067000389099121,
        "camPosOffset": {
          "x": -3922.490966796875,
          "y": 228.27699279785156,
          "z": -2124.8701171875
        },
        "camForwardTargetOffset": {
          "x": -3923.26708984375,
          "y": 228.48500061035156,
          "z": -2125.466064453125
        },
        "camFov": 20.0,
        "cameraBlendType": "EaseOutQuad",
        "NJBNNOMLKCK": {},
        "openCameraDither": false,
        "targetNpcAlias": "",
        "closeTreeLeafDither": true,
        "KJOEFBPOIIH": "",
        "IICFKKEBIEC": "",
        "EGEHEJEBLBJ": ""
      },
      {
        "$type": "LJLMDHDCAMK",
        "type": "LOOK_AT",
        "delayTime": 1.8580000400543213,
        "aliasList": [
          "1044"
        ],
        "enableHead": true,
        "useTargetPos": true,
        "enableAbsolute": true,
        "headRotateVec": {
          "y": 19.121000289916992
        },
        "headTurnTime": 0.5,
        "targetNpcAlias": "Avatar",
        "targetNpcLookAtPoint": "",
        "OAFJBHJHLJG": ""
      },
      {
        "$type": "FABLGECDBCH",
        "type": "BODY_LANG",
        "delayTime": 1.8669999837875366,
        "aliasList": [
          "1044"
        ],
        "bodyLangParam": 1173,
        "forceDoFreeStyle": true,
        "canDoRepeatFreeStyle": false,
        "eventPatternSuiteKey": "",
        "FOHHKFAIAAJ": ""
      },
      {
        "$type": "LJLMDHDCAMK",
        "type": "LOOK_AT",
        "delayTime": 3.3329999446868896,
        "aliasList": [
          "1044"
        ],
        "enableHead": true,
        "useTargetPos": true,
        "enableAbsolute": true,
        "headRotateVec": {
          "y": 19.121000289916992
        },
        "headTurnTime": 0.5,
        "targetNpcAlias": "1005",
        "targetNpcLookAtPoint": "",
        "OAFJBHJHLJG": ""
      }
    ],
    [
      {
        "$type": "CPJKOIHIPBE",
        "type": "EMO_SYNC",
        "aliasList": [
          "Avatar"
        ],
        "dataPath": "",
        "phonemePath": "Cs_Emo_Avatar_Common/Cs_Emo_Avatar_Default01",
        "emotionPath": "Cs_Emo_Avatar_Common/Cs_Emo_Avatar_MidClosed01",
        "mateDataPath": "",
        "matePhonemePath": "",
        "mateEmotionPath": "",
        "enableBlink": false,
        "phonemePathHashList": [
          1010565500959774114,
          17914558573000180712,
          14498871351621154070,
          14348654671849899985
        ],
        "emotionPathHashList": [
          12101221148829282739,
          724078210547565342,
          10269858564096462829,
          2913056935467057275
        ],
        "FMDPBECPELH": "",
        "ADKBLPOKGIK": ""
      },
      {
        "$type": "FABLGECDBCH",
        "type": "BODY_LANG",
        "aliasList": [
          "1005"
        ],
        "isContinue": true,
        "forceDoFreeStyle": true,
        "canDoRepeatFreeStyle": false,
        "eventPatternSuiteKey": "",
        "FOHHKFAIAAJ": ""
      },
      {
        "$type": "LJLMDHDCAMK",
        "type": "LOOK_AT",
        "aliasList": [
          "1044"
        ],
        "enableHead": true,
        "useTargetPos": true,
        "enableAbsolute": true,
        "headRotateVec": {
          "y": 19.121000289916992
        },
        "headTurnTime": 0.5,
        "targetNpcAlias": "1005",
        "targetNpcLookAtPoint": "",
        "OAFJBHJHLJG": ""
      },
      {
        "$type": "LJLMDHDCAMK",
        "type": "LOOK_AT",
        "aliasList": [
          "Avatar"
        ],
        "enableHead": true,
        "headRotateVec": {
          "y": 4.367000102996826
        },
        "headTurnTime": 0.5,
        "targetNpcAlias": "",
        "lookAtTargetType": "NONE",
        "targetNpcLookAtPoint": "",
        "OAFJBHJHLJG": ""
      },
      {
        "$type": "FJKIHHKJLMJ",
        "type": "CAMERA_MOVE",
        "duration": 1.559000015258789,
        "camPosOffset": {
          "x": -3927.883056640625,
          "y": 230.17999267578125,
          "z": -2128.632080078125
        },
        "camForwardTargetOffset": {
          "x": -3927.81494140625,
          "y": 230.09300231933594,
          "z": -2129.6259765625
        },
        "camFov": 15.0,
        "lerpPattern": 6,
        "cameraBlendType": "EaseInOutCubic",
        "NJBNNOMLKCK": {},
        "openCameraDither": false,
        "targetNpcAlias": "",
        "closeTreeLeafDither": true,
        "KJOEFBPOIIH": "",
        "IICFKKEBIEC": "",
        "EGEHEJEBLBJ": ""
      },
      {
        "$type": "FABLGECDBCH",
        "type": "BODY_LANG",
        "aliasList": [
          "Avatar"
        ],
        "bodyLangParam": 1240,
        "forceDoFreeStyle": true,
        "canDoRepeatFreeStyle": false,
        "eventPatternSuiteKey": "",
        "FOHHKFAIAAJ": ""
      },
      {
        "$type": "FABLGECDBCH",
        "type": "BODY_LANG",
        "aliasList": [
          "Avatar"
        ],
        "bodyLangParam": 4040,
        "forceDoFreeStyle": true,
        "canDoRepeatFreeStyle": false,
        "eventPatternSuiteKey": "",
        "FOHHKFAIAAJ": ""
      }
    ],
    [
      {
        "$type": "LJLMDHDCAMK",
        "type": "LOOK_AT",
        "aliasList": [
          "1005"
        ],
        "enableHead": true,
        "headRotateVec": {
          "x": 355.78900146484375,
          "y": 357.5320129394531
        },
        "headTurnTime": 0.5,
        "targetNpcAlias": "1044",
        "lookAtTargetType": "NONE",
        "targetNpcLookAtPoint": "",
        "OAFJBHJHLJG": ""
      },
      {
        "$type": "CPJKOIHIPBE",
        "type": "EMO_SYNC",
        "aliasList": [
          "1005"
        ],
        "dataPath": "Cs_Emo_Avatar_Simple_Common_Set/Cs_Emo_Avatar_Talk/Cs_Emo_Avatar_PersonalLine/Cs_Emo_Avatar_Itto/Cs_Emo_120250315",
        "phonemePath": "",
        "emotionPath": "",
        "mateDataPath": "",
        "matePhonemePath": "",
        "mateEmotionPath": "",
        "dataPathHashList": [
          12427566783478247245,
          12673659139357693331,
          10986774913773344681,
          18233006941747467626
        ],
        "FMDPBECPELH": "",
        "ADKBLPOKGIK": ""
      },
      {
        "$type": "FABLGECDBCH",
        "type": "BODY_LANG",
        "aliasList": [
          "1005"
        ],
        "bodyLangParam": 1100,
        "forceDoFreeStyle": true,
        "canDoRepeatFreeStyle": false,
        "eventPatternSuiteKey": "",
        "FOHHKFAIAAJ": ""
      },
      {
        "$type": "FJKIHHKJLMJ",
        "type": "CAMERA_MOVE",
        "duration": 0.5,
        "camPosOffset": {
          "x": -3928.552001953125,
          "y": 229.8249969482422,
          "z": -2127.197998046875
        },
        "camForwardTargetOffset": {
          "x": -3928.68994140625,
          "y": 229.8990020751953,
          "z": -2128.18603515625
        },
        "camFov": 15.0,
        "lerpPattern": 6,
        "cameraBlendType": "EaseInOutCubic",
        "NJBNNOMLKCK": {},
        "openCameraDither": false,
        "targetNpcAlias": "",
        "closeTreeLeafDither": true,
        "KJOEFBPOIIH": "",
        "IICFKKEBIEC": "",
        "EGEHEJEBLBJ": ""
      },
      {
        "$type": "PKKMAMONGEO",
        "type": "DIALOG",
        "aliasList": [
          "1005"
        ],
        "dialogID": 120250315,
        "protectTime": 0.5
      }
    ],
    [
      {
        "$type": "PKKMAMONGEO",
        "type": "DIALOG",
        "aliasList": [
          "1044"
        ],
        "dialogID": 120250316,
        "protectTime": 0.7919999957084656
      },
      {
        "$type": "LJLMDHDCAMK",
        "type": "LOOK_AT",
        "aliasList": [
          "1044"
        ],
        "enableHead": true,
        "useTargetPos": true,
        "enableAbsolute": true,
        "targetPosition": {
          "x": -3929.277099609375,
          "y": 230.48199462890625,
          "z": -2128.571044921875
        },
        "headTurnTime": 0.5,
        "targetNpcAlias": "",
        "lookAtTargetType": "NONE",
        "targetNpcLookAtPoint": "",
        "OAFJBHJHLJG": ""
      },
      {
        "$type": "EMEHNEMOMMM",
        "type": "LOOK_AT_EYECTRL",
        "aliasList": [
          "1044"
        ],
        "useTargetPos": false,
        "eyeRotateVecLeft": {
          "x": -4.0
        },
        "eyeRotateVecRight": {
          "x": -4.0
        },
        "turnTime": 1.0,
        "targetNpcAlias": "",
        "targetPoint": "Face"
      },
      {
        "$type": "LLGANGLOEEO",
        "type": "STEER_TO",
        "duration": 0.800000011920929,
        "aliasList": [
          "1044"
        ],
        "steerType": "ABSOLUTE",
        "steerDir": {
          "x": -3929.052978515625,
          "y": 228.35299682617188,
          "z": -2125.56103515625
        },
        "useSteerAnim": true,
        "targetNpcAlias": "",
        "OAFJBHJHLJG": ""
      },
      {
        "$type": "CPJKOIHIPBE",
        "type": "EMO_SYNC",
        "aliasList": [
          "1044"
        ],
        "dataPath": "Cs_Emo_Avatar_Simple_Common_Set/Cs_Emo_Avatar_Talk/Cs_Emo_Avatar_PersonalLine/Cs_Emo_Avatar_Itto/Cs_Emo_120250316",
        "phonemePath": "",
        "emotionPath": "",
        "mateDataPath": "",
        "matePhonemePath": "",
        "mateEmotionPath": "",
        "dataPathHashList": [
          3549094801050125847,
          10360278089910890865,
          7571159901439607662,
          9903193369754407842
        ],
        "FMDPBECPELH": "",
        "ADKBLPOKGIK": ""
      },
      {
        "$type": "LJLMDHDCAMK",
        "type": "LOOK_AT",
        "aliasList": [
          "Avatar"
        ],
        "enableHead": true,
        "useTargetPos": true,
        "enableAbsolute": true,
        "headRotateVec": {
          "y": 17.986000061035156
        },
        "headTurnTime": 0.5,
        "targetNpcAlias": "1044",
        "targetNpcLookAtPoint": "",
        "OAFJBHJHLJG": ""
      },
      {
        "$type": "FABLGECDBCH",
        "type": "BODY_LANG",
        "aliasList": [
          "Avatar"
        ],
        "isContinue": true,
        "forceDoFreeStyle": true,
        "canDoRepeatFreeStyle": false,
        "eventPatternSuiteKey": "",
        "FOHHKFAIAAJ": ""
      },
      {
        "$type": "FABLGECDBCH",
        "type": "BODY_LANG",
        "aliasList": [
          "1005"
        ],
        "isContinue": true,
        "forceDoFreeStyle": true,
        "canDoRepeatFreeStyle": false,
        "eventPatternSuiteKey": "",
        "FOHHKFAIAAJ": ""
      },
      {
        "$type": "CPJKOIHIPBE",
        "type": "EMO_SYNC",
        "aliasList": [
          "Avatar"
        ],
        "dataPath": "",
        "phonemePath": "Cs_Emo_Avatar_Common/Cs_Emo_Avatar_Default01",
        "emotionPath": "Cs_Emo_Avatar_Common/Cs_Emo_Avatar_Default01",
        "mateDataPath": "",
        "matePhonemePath": "",
        "mateEmotionPath": "",
        "phonemePathHashList": [
          1010565500959774114,
          17914558573000180712,
          14498871351621154070,
          14348654671849899985
        ],
        "emotionPathHashList": [
          17551147554270584215,
          11567349927864383394,
          11535483659151300012,
          3124390413002392171
        ],
        "FMDPBECPELH": "",
        "ADKBLPOKGIK": ""
      },
      {
        "$type": "FJKIHHKJLMJ",
        "type": "CAMERA_MOVE",
        "delayTime": 0.5170000195503235,
        "duration": 0.5,
        "camPosOffset": {
          "x": -3929.714111328125,
          "y": 230.49400329589844,
          "z": -2127.756103515625
        },
        "camForwardTargetOffset": {
          "x": -3929.27490234375,
          "y": 230.447998046875,
          "z": -2128.653076171875
        },
        "camFov": 35.0,
        "lerpPattern": 6,
        "cameraBlendType": "EaseInOutCubic",
        "NJBNNOMLKCK": {},
        "openCameraDither": false,
        "targetNpcAlias": "",
        "closeTreeLeafDither": true,
        "KJOEFBPOIIH": "",
        "IICFKKEBIEC": "",
        "EGEHEJEBLBJ": ""
      },
      {
        "$type": "CPJKOIHIPBE",
        "type": "EMO_SYNC",
        "delayTime": 0.5429999828338623,
        "aliasList": [
          "1005"
        ],
        "dataPath": "",
        "phonemePath": "Cs_Emo_Pet_Common/Cs_Emo_Paimon_None",
        "emotionPath": "Cs_Emo_Pet_Common/Cs_Emo_Paimon_Normal01",
        "mateDataPath": "",
        "matePhonemePath": "",
        "mateEmotionPath": "",
        "phonemePathHashList": [
          1796869206626684908,
          2049648015653630001,
          14015965774222061559,
          873259039409222856
        ],
        "emotionPathHashList": [
          312453201720762420,
          9562322946389574798,
          18422542724361145117,
          17949024460815132449
        ],
        "FMDPBECPELH": "",
        "ADKBLPOKGIK": ""
      },
      {
        "$type": "LJLMDHDCAMK",
        "type": "LOOK_AT",
        "delayTime": 0.8339999914169312,
        "aliasList": [
          "1044"
        ],
        "enableHead": true,
        "useTargetPos": true,
        "enableAbsolute": true,
        "targetPosition": {
          "x": -3929.15087890625,
          "y": 230.48399353027344,
          "z": -2128.64111328125
        },
        "headTurnTime": 0.5,
        "targetNpcAlias": "",
        "lookAtTargetType": "NONE",
        "targetNpcLookAtPoint": "",
        "OAFJBHJHLJG": ""
      },
      {
        "$type": "EMEHNEMOMMM",
        "type": "LOOK_AT_EYECTRL",
        "delayTime": 0.8420000076293945,
        "aliasList": [
          "1044"
        ],
        "useTargetPos": false,
        "eyeRotateVecLeft": {
          "x": 4.0
        },
        "eyeRotateVecRight": {
          "x": 4.0
        },
        "turnTime": 1.0,
        "targetNpcAlias": "",
        "targetPoint": "Face"
      },
      {
        "$type": "LJLMDHDCAMK",
        "type": "LOOK_AT",
        "delayTime": 1.7330000400543213,
        "aliasList": [
          "1044"
        ],
        "enableHead": true,
        "useTargetPos": true,
        "enableAbsolute": true,
        "targetPosition": {
          "x": -3929.277099609375,
          "y": 230.48199462890625,
          "z": -2128.571044921875
        },
        "headTurnTime": 0.5,
        "targetNpcAlias": "",
        "lookAtTargetType": "NONE",
        "targetNpcLookAtPoint": "",
        "OAFJBHJHLJG": ""
      },
      {
        "$type": "EMEHNEMOMMM",
        "type": "LOOK_AT_EYECTRL",
        "delayTime": 1.7419999837875366,
        "aliasList": [
          "1044"
        ],
        "useTargetPos": false,
        "eyeRotateVecLeft": {
          "x": -6.0
        },
        "eyeRotateVecRight": {
          "x": -6.0
        },
        "turnTime": 1.0,
        "targetNpcAlias": "",
        "targetPoint": "Face"
      }
    ],
    [
      {
        "$type": "LJLMDHDCAMK",
        "type": "LOOK_AT",
        "aliasList": [
          "1044"
        ],
        "enableHead": true,
        "useTargetPos": true,
        "enableAbsolute": true,
        "targetPosition": {
          "x": -3929.281982421875,
          "y": 230.49099731445312,
          "z": -2128.827880859375
        },
        "headTurnTime": 0.5,
        "targetNpcAlias": "",
        "lookAtTargetType": "NONE",
        "targetNpcLookAtPoint": "",
        "OAFJBHJHLJG": ""
      },
      {
        "$type": "PKKMAMONGEO",
        "type": "DIALOG",
        "aliasList": [
          "1044"
        ],
        "dialogID": 120250317,
        "protectTime": 1.975000023841858
      },
      {
        "$type": "FABLGECDBCH",
        "type": "BODY_LANG",
        "aliasList": [
          "1044"
        ],
        "bodyLangParam": 1142,
        "forceDoFreeStyle": true,
        "canDoRepeatFreeStyle": false,
        "eventPatternSuiteKey": "",
        "FOHHKFAIAAJ": ""
      },
      {
        "$type": "EMEHNEMOMMM",
        "type": "LOOK_AT_EYECTRL",
        "aliasList": [
          "1044"
        ],
        "useTargetPos": false,
        "eyeRotateVecLeft": {
          "x": -4.0
        },
        "eyeRotateVecRight": {
          "x": -4.0
        },
        "turnTime": 1.0,
        "targetNpcAlias": "",
        "targetPoint": "Face"
      },
      {
        "$type": "CPJKOIHIPBE",
        "type": "EMO_SYNC",
        "aliasList": [
          "1044"
        ],
        "dataPath": "Cs_Emo_Avatar_Simple_Common_Set/Cs_Emo_Avatar_Talk/Cs_Emo_Avatar_PersonalLine/Cs_Emo_Avatar_Itto/Cs_Emo_120250317",
        "phonemePath": "",
        "emotionPath": "",
        "mateDataPath": "",
        "matePhonemePath": "",
        "mateEmotionPath": "",
        "dataPathHashList": [
          3055655898516654643,
          10745279727956823922,
          14948782524038789390,
          16854226224306706571
        ],
        "FMDPBECPELH": "",
        "ADKBLPOKGIK": ""
      },
      {
        "$type": "EMEHNEMOMMM",
        "type": "LOOK_AT_EYECTRL",
        "delayTime": 0.925000011920929,
        "aliasList": [
          "1044"
        ],
        "useTargetPos": false,
        "eyeRotateVecLeft": {
          "x": 4.0
        },
        "eyeRotateVecRight": {
          "x": 4.0
        },
        "turnTime": 1.0,
        "targetNpcAlias": "",
        "targetPoint": "Face"
      },
      {
        "$type": "LJLMDHDCAMK",
        "type": "LOOK_AT",
        "delayTime": 0.925000011920929,
        "aliasList": [
          "1044"
        ],
        "enableHead": true,
        "useTargetPos": true,
        "enableAbsolute": true,
        "targetPosition": {
          "x": -3929.281982421875,
          "y": 230.49099731445312,
          "z": -2128.827880859375
        },
        "headTurnTime": 0.5,
        "targetNpcAlias": "Avatar",
        "targetNpcLookAtPoint": "",
        "OAFJBHJHLJG": ""
      },
      {
        "$type": "MoleMole.Config.ConfigTeleportToAction",
        "type": "TELEPORT_TO",
        "delayTime": 1.3819999694824219,
        "aliasList": [
          "1044"
        ],
        "position": {
          "x": -3929.10205078125,
          "y": 228.83599853515625,
          "z": -2128.868896484375
        },
        "forward": {
          "x": 0.2840000092983246,
          "z": 0.9589999914169312
        },
        "_posBindMovingTargetKey": "",
        "_forwardBindMovingTargetKey": ""
      },
      {
        "$type": "LJLMDHDCAMK",
        "type": "LOOK_AT",
        "delayTime": 1.3910000324249268,
        "aliasList": [
          "Avatar"
        ],
        "useTargetPos": true,
        "enableAbsolute": true,
        "headTurnTime": 0.5,
        "targetNpcAlias": "",
        "lookAtTargetType": "NONE",
        "targetNpcLookAtPoint": "",
        "OAFJBHJHLJG": ""
      },
      {
        "$type": "FJKIHHKJLMJ",
        "type": "CAMERA_MOVE",
        "delayTime": 1.3910000324249268,
        "duration": 0.5,
        "camPosOffset": {
          "x": -3928.912109375,
          "y": 230.4040069580078,
          "z": -2128.531982421875
        },
        "camForwardTargetOffset": {
          "x": -3929.906005859375,
          "y": 230.5050048828125,
          "z": -2128.5029296875
        },
        "camFov": 31.5,
        "lerpPattern": 6,
        "cameraBlendType": "EaseInOutCubic",
        "NJBNNOMLKCK": {},
        "needZAxisRotate": true,
        "openCameraDither": false,
        "targetNpcAlias": "",
        "closeTreeLeafDither": true,
        "KJOEFBPOIIH": "",
        "IICFKKEBIEC": "",
        "EGEHEJEBLBJ": ""
      },
      {
        "$type": "MoleMole.Config.ConfigTeleportToAction",
        "type": "TELEPORT_TO",
        "delayTime": 1.3910000324249268,
        "aliasList": [
          "Avatar"
        ],
        "position": {
          "x": -3927.73095703125,
          "y": 228.6909942626953,
          "z": -2130.218994140625
        },
        "forward": {
          "x": -3.3310000896453857,
          "y": 1.1460000276565552,
          "z": 0.5350000262260437
        },
        "_posBindMovingTargetKey": "",
        "_forwardBindMovingTargetKey": ""
      },
      {
        "$type": "FJKIHHKJLMJ",
        "type": "CAMERA_MOVE",
        "delayTime": 1.4910000562667847,
        "duration": 5.367000102996826,
        "camPosOffset": {
          "x": -3928.9599609375,
          "y": 230.40899658203125,
          "z": -2128.52392578125
        },
        "camForwardTargetOffset": {
          "x": -3929.9541015625,
          "y": 230.50999450683594,
          "z": -2128.4951171875
        },
        "camFov": 31.5,
        "cameraBlendType": "EaseOutQuad",
        "NJBNNOMLKCK": {},
        "needZAxisRotate": true,
        "openCameraDither": false,
        "targetNpcAlias": "",
        "closeTreeLeafDither": true,
        "KJOEFBPOIIH": "",
        "IICFKKEBIEC": "",
        "EGEHEJEBLBJ": ""
      },
      {
        "$type": "FABLGECDBCH",
        "type": "BODY_LANG",
        "delayTime": 2.325000047683716,
        "aliasList": [
          "1044"
        ],
        "isContinue": true,
        "forceDoFreeStyle": true,
        "canDoRepeatFreeStyle": false,
        "eventPatternSuiteKey": "",
        "FOHHKFAIAAJ": ""
      }
    ],
    [
      {
        "$type": "PKKMAMONGEO",
        "type": "DIALOG_CLEAR",
        "dialogID": 120250317
      },
      {
        "$type": "MoleMole.Config.ConfigTimeProtectAction",
        "type": "TIME_PROTECT",
        "duration": 0.699999988079071
      },
      {
        "$type": "MoleMole.Config.ConfigSimpleBlackScreenAction",
        "type": "SIMPLE_BLACK_SCREEN",
        "durationToBlack": 0.5,
        "durationFromBlack": 0.5,
        "textMapID": "",
        "useTextFade": true
      },
      {
        "$type": "MoleMole.Config.ConfigVisibleInterAction",
        "type": "VISIBLE",
        "delayTime": 0.6000000238418579,
        "aliasList": [
          "1044"
        ],
        "_extraParam": ""
      },
      {
        "$type": "FJKIHHKJLMJ",
        "type": "CAMERA_MOVE",
        "delayTime": 0.6000000238418579,
        "duration": 0.10000000149011612,
        "checkNextImmediately": true,
        "camPosOffset": {
          "x": -3925.962890625,
          "y": 229.4499969482422,
          "z": -2131.98095703125
        },
        "camForwardTargetOffset": {
          "x": -3926.676025390625,
          "y": 229.50900268554688,
          "z": -2131.281982421875
        },
        "lerpPattern": 6,
        "cameraBlendType": "EaseInOutCubic",
        "NJBNNOMLKCK": {},
        "openCameraDither": false,
        "targetNpcAlias": "",
        "closeTreeLeafDither": true,
        "KJOEFBPOIIH": "",
        "IICFKKEBIEC": "",
        "EGEHEJEBLBJ": ""
      }
    ]
  ],
  "groupId": [
    {
      "grpId": 1861379785,
      "nextGrpId": 1861379786
    },
    {
      "index": 1,
      "grpId": 1861379786,
      "nextGrpId": 1861379787
    },
    {
      "index": 2,
      "grpId": 1861379787,
      "nextGrpId": 1861379788
    },
    {
      "index": 3,
      "grpId": 1861379788,
      "nextGrpId": 1861379789
    },
    {
      "index": 4,
      "grpId": 1861379789,
      "nextGrpId": 1861379790
    },
    {
      "index": 5,
      "grpId": 1861379790,
      "nextGrpId": 1861379791
    },
    {
      "index": 6,
      "grpId": 1861379791,
      "nextGrpId": 1861379792
    },
    {
      "index": 7,
      "grpId": 1861379792,
      "nextGrpId": 1861379793
    },
    {
      "index": 8,
      "grpId": 1861379793,
      "nextGrpId": 1868198535
    },
    {
      "index": 9,
      "grpId": 1868198535,
      "nextGrpId": 1868198536
    },
    {
      "index": 10,
      "grpId": 1868198536,
      "nextGrpId": 1868198537
    },
    {
      "index": 11,
      "grpId": 1868198537,
      "nextGrpId": 1868198538
    },
    {
      "index": 12,
      "grpId": 1868198538,
      "nextGrpId": 1868198539
    },
    {
      "index": 13,
      "grpId": 1868198539,
      "nextGrpId": 1868198540
    },
    {
      "index": 14,
      "grpId": 1868198540,
      "nextGrpId": 1868198541
    },
    {
      "index": 15,
      "grpId": 1868198541,
      "nextGrpId": 1868198542
    },
    {
      "index": 16,
      "grpId": 1868198542,
      "nextGrpId": 1868198543
    },
    {
      "index": 17,
      "grpId": 1868198543,
      "nextGrpId": 1868198544
    }
  ],
  "freeStyleDic": {
    "1044": [
      1230,
      1110,
      1171,
      1220,
      1190,
      1120,
      1173,
      1150,
      1172,
      4040,
      1290,
      1142
    ]
  }
}