{
  "luaDataPath": "",
  "isSimpleTalk": true,
  "entityBan": "",
  "disableNpcLod": true,
  "isBanWidgetPet": true,
  "protectNpcMobileLod": true,
  "talkFlag": 7,
  "startFade": {
    "startFadeOutDuration": 0.0
  },
  "endFade": {
    "startFadeOutDuration": 0.0
  },
  "actors": [
    {
      "alias": "Avatar",
      "visible": true,
      "bornPointName": "NpcTest1",
      "relativePosType": "AVATAR_NEW",
      "relativePosNpcAlias": "",
      "_notDestroyInTalk": true,
      "_bindMovingTargetKey": ""
    },
    {
      "configID": 1053,
      "alias": "1053",
      "visible": true,
      "bornPointName": "",
      "relativePosType": "AVATAR_NEW",
      "relativePosNpcAlias": "",
      "_notDestroyInTalk": true,
      "_bindMovingTargetKey": ""
    }
  ],
  "group": [
    [
      {
        "$type": "FJKIHHKJLMJ",
        "type": "CAMERA_FOCUS",
        "duration": 0.10000000149011612,
        "actionId": 103,
        "targetNpcAlias": "",
        "KJOEFBPOIIH": "",
        "IICFKKEBIEC": "",
        "EGEHEJEBLBJ": ""
      },
      {
        "$type": "MoleMole.Config.ConfigTimeProtectAction",
        "type": "TIME_PROTECT",
        "duration": 0.10000000149011612,
        "actionId": 104
      },
      {
        "$type": "MoleMole.Config.ConfigLocalGadgetOP",
        "type": "LOCAL_GADGET_OP",
        "actionId": 117,
        "gadgetId": 70330838,
        "subKey": 1,
        "oprCode": 1,
        "questMainId": 803,
        "slotName": "",
        "sceneId": 3,
        "position": {
          "x": 2264.277099609375,
          "y": 219.99000549316406,
          "z": -854.7239990234375
        },
        "euler": {
          "y": 109.69999694824219
        },
        "gvKey": "",
        "_stateOnCreate": 0
      },
      {
        "$type": "LLGANGLOEEO",
        "type": "STEER_TO",
        "delayTime": 0.30000001192092896,
        "duration": 0.800000011920929,
        "aliasList": [
          "Avatar"
        ],
        "actionId": 114,
        "_flag": 32,
        "steerType": "TO_TARGET_ADVANCED",
        "useSteerAnim": true,
        "interruptFreestyle": true,
        "forceSteer": true,
        "targetNpcAlias": "1053",
        "fixInterNull": true,
        "OAFJBHJHLJG": ""
      },
      {
        "$type": "LLGANGLOEEO",
        "type": "STEER_TO",
        "delayTime": 0.30000001192092896,
        "duration": 0.800000011920929,
        "aliasList": [
          "1053"
        ],
        "actionId": 115,
        "_flag": 32,
        "steerType": "TO_LOCAL_AVATAR_ADVANCED",
        "useSteerAnim": true,
        "interruptFreestyle": true,
        "forceSteer": true,
        "targetNpcAlias": "",
        "fixInterNull": true,
        "OAFJBHJHLJG": ""
      }
    ],
    [
      {
        "$type": "MoleMole.Config.ConfigSpecialElementViewAction",
        "type": "SPECIAL_ELEMENT_VIEW",
        "actionId": 119,
        "_isOpen": true,
        "noEffectGadgetList": [
          {
            "gadgetId": 70330838,
            "subKey": 1,
            "questMainId": 803
          }
        ]
      },
      {
        "$type": "PKKMAMONGEO",
        "type": "DIALOG",
        "aliasList": [
          "1053"
        ],
        "actionId": 107,
        "dialogID": 8034001,
        "protectTime": 0.5
      }
    ],
    [
      {
        "$type": "PKKMAMONGEO",
        "type": "DIALOG",
        "aliasList": [
          "1053"
        ],
        "actionId": 109,
        "dialogID": 8034002,
        "protectTime": 0.5
      }
    ],
    [
      {
        "$type": "PKKMAMONGEO",
        "type": "DIALOG",
        "aliasList": [
          "1053"
        ],
        "actionId": 111,
        "dialogID": 8034003,
        "protectTime": 0.5
      }
    ],
    [
      {
        "$type": "PKKMAMONGEO",
        "type": "DIALOG",
        "aliasList": [
          "1053"
        ],
        "actionId": 113,
        "dialogID": 8034004,
        "protectTime": 0.5
      }
    ],
    [
      {
        "$type": "MoleMole.Config.ConfigLuaAction",
        "type": "LUA_ACTION",
        "duration": 0.10000000149011612,
        "actionId": 102,
        "invoke": true,
        "invokeAlias": "803",
        "invokeParam": 80340
      },
      {
        "$type": "MoleMole.Config.ConfigTimeProtectAction",
        "type": "TIME_PROTECT",
        "duration": 0.10000000149011612,
        "actionId": 105
      },
      {
        "$type": "MoleMole.Config.ConfigLocalGadgetOP",
        "type": "LOCAL_GADGET_OP",
        "actionId": 118,
        "gadgetId": 70330838,
        "subKey": 1,
        "oprCode": 2,
        "questMainId": 803,
        "slotName": "",
        "sceneId": 3,
        "position": {
          "x": 2264.277099609375,
          "y": 219.99000549316406,
          "z": -854.7239990234375
        },
        "euler": {
          "y": 109.69999694824219
        },
        "gvKey": "",
        "_stateOnCreate": 0
      },
      {
        "$type": "LLGANGLOEEO",
        "type": "STEER_TO",
        "duration": 1.0,
        "aliasList": [
          "1053"
        ],
        "actionId": 116,
        "_flag": 32,
        "steerType": "RETURN",
        "useSteerAnim": true,
        "interruptFreestyle": true,
        "forceSteer": true,
        "targetNpcAlias": "",
        "ignoreY": true,
        "fixInterNull": true,
        "OAFJBHJHLJG": ""
      }
    ]
  ],
  "groupId": [
    {
      "grpId": 2582016793,
      "nextGrpId": 2582016794,
      "_noCircleNextGrpId": 2582016794
    },
    {
      "index": 1,
      "grpId": 2582016794,
      "nextGrpId": 2582016795,
      "_noCircleNextGrpId": 2582016795
    },
    {
      "index": 2,
      "grpId": 2582016795,
      "nextGrpId": 2582016796,
      "_noCircleNextGrpId": 2582016796
    },
    {
      "index": 3,
      "grpId": 2582016796,
      "nextGrpId": 2582016797,
      "_noCircleNextGrpId": 2582016797
    },
    {
      "index": 4,
      "grpId": 2582016797,
      "nextGrpId": 2582016798,
      "_noCircleNextGrpId": 2582016798
    },
    {
      "index": 5,
      "grpId": 2582016798,
      "nextGrpId": 2582016799,
      "_noCircleNextGrpId": 2582016799
    }
  ],
  "freeStyleDic": {
    "1053": []
  },
  "GBPIKOLLKJH": {
    "KGFBJNAEBHO": "",
    "ADMLEHAKCPC": ""
  },
  "NPFDEBDMHJP": 2582016798,
  "KEAMPHGKKAG": {
    "ANJBPLIOPCP": ""
  }
}