{
  "OCNFANBGMJA": [
    {
      "$type": "PILPMFPDLKN",
      "AJMLMLFOKEH": "SAT_316592951_001",
      "actions": [
        {
          "$type": "DACJCGLBKKE",
          "stateGroup": {
            "text": "StateGroup_MusicInOrOut"
          },
          "stateValue": {
            "text": "OutMusic"
          }
        }
      ]
    },
    {
      "$type": "PILPMFPDLKN",
      "AJMLMLFOKEH": "SAT_316592951_002",
      "actions": [
        {
          "$type": "DACJCGLBKKE",
          "stateGroup": {
            "text": "StateGroup_MusicInOrOut"
          },
          "stateValue": {
            "text": "InMusic"
          }
        }
      ]
    },
    {
      "$type": "PILPMFPDLKN",
      "AJMLMLFOKEH": "SAT_854740038_001",
      "actions": [
        {
          "$type": "DACJCGLBKKE",
          "stateGroup": {
            "text": "StateGroup_MusicInOrOut"
          },
          "stateValue": {
            "text": "OutMusic"
          }
        }
      ]
    },
    {
      "$type": "PILPMFPDLKN",
      "AJMLMLFOKEH": "SAT_854740038_002",
      "actions": [
        {
          "$type": "DACJCGLBKKE",
          "stateGroup": {
            "text": "StateGroup_MusicInOrOut"
          },
          "stateValue": {
            "text": "InMusic"
          }
        }
      ]
    },
    {
      "$type": "PILPMFPDLKN",
      "AJMLMLFOKEH": "SAT_699969663_001",
      "actions": [
        {
          "$type": "DACJCGLBKKE",
          "stateGroup": {
            "text": "StateGroup_MusicInOrOut"
          },
          "stateValue": {
            "text": "OutMusic"
          }
        }
      ]
    },
    {
      "$type": "PILPMFPDLKN",
      "AJMLMLFOKEH": "SAT_699969663_002",
      "actions": [
        {
          "$type": "DACJCGLBKKE",
          "stateGroup": {
            "text": "StateGroup_MusicInOrOut"
          },
          "stateValue": {
            "text": "InMusic"
          }
        }
      ]
    }
  ]
}