{
  "luaDataPath": "",
  "entityBan": "",
  "disableNpcLod": true,
  "protectNpcMobileLod": true,
  "talkFlag": 7,
  "startFade": {
    "startFadeOutDuration": 0.0
  },
  "endFade": {
    "startFadeOutDuration": 0.0
  },
  "actors": [
    {
      "alias": "Avatar",
      "visible": true,
      "bornPointName": "",
      "relativePosType": "AVATAR_NEW",
      "relativePosNpcAlias": "",
      "_notDestroyInTalk": true,
      "_bindMovingTargetKey": ""
    },
    {
      "configID": 1066,
      "alias": "1066",
      "visible": true,
      "bornPointName": "",
      "relativePosType": "AVATAR_NEW",
      "relativePosNpcAlias": "",
      "_notDestroyInTalk": true,
      "_bindMovingTargetKey": ""
    }
  ],
  "group": [
    [
      {
        "$type": "FJKIHHKJLMJ",
        "type": "CAMERA_FOCUS",
        "duration": 0.10000000149011612,
        "actionId": 103,
        "targetNpcAlias": "",
        "KJOEFBPOIIH": "",
        "IICFKKEBIEC": "",
        "EGEHEJEBLBJ": ""
      },
      {
        "$type": "MoleMole.Config.ConfigTimeProtectAction",
        "type": "TIME_PROTECT",
        "duration": 0.5,
        "actionId": 104
      },
      {
        "$type": "LJLMDHDCAMK",
        "type": "LOOK_AT",
        "aliasList": [
          "1066"
        ],
        "actionId": 112,
        "_flag": 64,
        "enableHead": true,
        "headTurnTime": 0.5,
        "targetNpcAlias": "Avatar",
        "openBackProtect": true,
        "backProtectAngle": 10.0,
        "targetNpcLookAtPoint": "",
        "OAFJBHJHLJG": ""
      },
      {
        "$type": "LLGANGLOEEO",
        "type": "STEER_TO",
        "delayTime": 0.30000001192092896,
        "duration": 0.800000011920929,
        "aliasList": [
          "Avatar"
        ],
        "actionId": 108,
        "_flag": 32,
        "steerType": "TO_TARGET_ADVANCED",
        "useSteerAnim": true,
        "interruptFreestyle": true,
        "forceSteer": true,
        "targetNpcAlias": "1066",
        "fixInterNull": true,
        "OAFJBHJHLJG": ""
      },
      {
        "$type": "LLGANGLOEEO",
        "type": "STEER_TO",
        "delayTime": 0.30000001192092896,
        "duration": 0.800000011920929,
        "aliasList": [
          "1066"
        ],
        "actionId": 109,
        "_flag": 32,
        "steerType": "TO_LOCAL_AVATAR_ADVANCED",
        "useSteerAnim": true,
        "interruptFreestyle": true,
        "forceSteer": true,
        "targetNpcAlias": "",
        "fixInterNull": true,
        "OAFJBHJHLJG": ""
      },
      {
        "$type": "LJLMDHDCAMK",
        "type": "LOOK_AT",
        "delayTime": 0.3059999942779541,
        "aliasList": [
          "Avatar"
        ],
        "actionId": 111,
        "_flag": 64,
        "enableHead": true,
        "headTurnTime": 0.5,
        "targetNpcAlias": "1066",
        "openBackProtect": true,
        "backProtectAngle": 10.0,
        "targetNpcLookAtPoint": "",
        "OAFJBHJHLJG": ""
      }
    ],
    [
      {
        "$type": "PKKMAMONGEO",
        "type": "DIALOG",
        "aliasList": [
          "1066"
        ],
        "actionId": 107,
        "dialogID": 401402601,
        "protectTime": 0.5
      },
      {
        "$type": "FABLGECDBCH",
        "type": "BODY_LANG",
        "aliasList": [
          "1066"
        ],
        "actionId": 113,
        "bodyLangParam": 1172,
        "forceDoFreeStyle": true,
        "canDoRepeatFreeStyle": false,
        "cantBackToIdleWhenSitLoop": true,
        "eventPatternSuiteKey": "",
        "FOHHKFAIAAJ": ""
      },
      {
        "$type": "CPJKOIHIPBE",
        "type": "EMO_SYNC",
        "aliasList": [
          "1066"
        ],
        "actionId": 115,
        "_flag": 320,
        "dataPath": "Cs_Emo_Avatar_Simple_Common_Set/Cs_Emo_Avatar_Talk/Cs_Emo_Avatar_Event/Cs_Emo_Avatar_HaiDeng04/Cs_Emo_401402601",
        "phonemePath": "",
        "emotionPath": "",
        "mateDataPath": "",
        "matePhonemePath": "",
        "mateEmotionPath": "",
        "dataPathHashList": [
          11753075208573775297,
          9522933564712545068,
          5775819471139820246,
          13137862601481628010
        ],
        "FMDPBECPELH": "",
        "ADKBLPOKGIK": ""
      }
    ],
    [
      {
        "$type": "MoleMole.Config.ConfigTimeProtectAction",
        "type": "TIME_PROTECT",
        "duration": 0.10000000149011612,
        "actionId": 105
      },
      {
        "$type": "LLGANGLOEEO",
        "type": "STEER_TO",
        "duration": 1.0,
        "aliasList": [
          "1066"
        ],
        "actionId": 110,
        "_flag": 32,
        "steerType": "RETURN",
        "useSteerAnim": true,
        "interruptFreestyle": true,
        "forceSteer": true,
        "targetNpcAlias": "",
        "ignoreY": true,
        "fixInterNull": true,
        "OAFJBHJHLJG": ""
      },
      {
        "$type": "FABLGECDBCH",
        "type": "BODY_LANG",
        "delayTime": 1.0,
        "aliasList": [
          "1066"
        ],
        "actionId": 116,
        "bodyLangParam": 1220,
        "forceDoFreeStyle": true,
        "canDoRepeatFreeStyle": false,
        "cantBackToIdleWhenSitLoop": true,
        "eventPatternSuiteKey": "",
        "FOHHKFAIAAJ": ""
      }
    ]
  ],
  "groupId": [
    {
      "grpId": 4240186214,
      "nextGrpId": 4240186215
    },
    {
      "index": 1,
      "grpId": 4240186215,
      "nextGrpId": 4240186216
    },
    {
      "index": 2,
      "grpId": 4240186216,
      "nextGrpId": 4240186217
    }
  ],
  "freeStyleDic": {
    "1066": [
      1172,
      1220
    ]
  },
  "EKFBDAIDEEF": {
    "1066": [
      "SitHoldArm01AS"
    ]
  },
  "GBPIKOLLKJH": {
    "KGFBJNAEBHO": "",
    "ADMLEHAKCPC": ""
  }
}