{
  "luaDataPath": "",
  "isSimpleTalk": true,
  "startBlackKeepTime": 0.5,
  "entityBan": "",
  "disableNpcLod": true,
  "isAutoBanNpc": true,
  "isBanWidgetPet": true,
  "protectNpcMobileLod": true,
  "startFade": {
    "startFadeInDuration": 0.5,
    "startFadeOutDuration": 0.5
  },
  "endFade": {
    "startFadeOutDuration": 0.0
  },
  "actors": [
    {
      "alias": "Avatar",
      "visible": true,
      "bornPointName": "wq7307733_player",
      "relativePosType": "AVATAR_NEW",
      "relativePosNpcAlias": "",
      "_bindMovingTargetKey": ""
    },
    {
      "configID": 1005,
      "alias": "1005",
      "visible": true,
      "bornPointName": "wq7307733_paim",
      "removeActorType": "REMOVE_WITH_DISAPPEAR",
      "relativePosType": "AVATAR_NEW",
      "relativePosNpcAlias": "",
      "_bindMovingTargetKey": ""
    },
    {
      "configID": 4225,
      "alias": "4225",
      "visible": true,
      "bornPointName": "wq7307733_lnla",
      "removeActorType": "REMOVE_WITH_DISAPPEAR",
      "forceCreateDaily": true,
      "relativePosType": "AVATAR_NEW",
      "relativePosNpcAlias": "",
      "_bindMovingTargetKey": ""
    },
    {
      "configID": 4226,
      "alias": "4226",
      "visible": true,
      "bornPointName": "wq7307733_lnlb",
      "removeActorType": "REMOVE_WITH_DISAPPEAR",
      "forceCreateDaily": true,
      "relativePosType": "AVATAR_NEW",
      "relativePosNpcAlias": "",
      "_bindMovingTargetKey": ""
    },
    {
      "configID": 4227,
      "alias": "4227",
      "visible": true,
      "bornPointName": "wq7307733_lnlc",
      "removeActorType": "REMOVE_WITH_DISAPPEAR",
      "forceCreateDaily": true,
      "relativePosType": "AVATAR_NEW",
      "relativePosNpcAlias": "",
      "_bindMovingTargetKey": ""
    },
    {
      "configID": 4228,
      "alias": "4228",
      "visible": true,
      "bornPointName": "wq7307733_lnld",
      "removeActorType": "REMOVE_WITH_DISAPPEAR",
      "forceCreateDaily": true,
      "relativePosType": "AVATAR_NEW",
      "relativePosNpcAlias": "",
      "_bindMovingTargetKey": ""
    }
  ],
  "group": [
    [
      {
        "$type": "MoleMole.Config.ConfigTimeProtectAction",
        "type": "TIME_PROTECT",
        "duration": 0.10000000149011612
      }
    ],
    [
      {
        "$type": "PKKMAMONGEO",
        "type": "DIALOG",
        "aliasList": [
          "1005"
        ],
        "dialogID": 730771001,
        "protectTime": 0.5
      }
    ],
    [
      {
        "$type": "PKKMAMONGEO",
        "type": "DIALOG",
        "aliasList": [
          "1005"
        ],
        "dialogID": 730771002,
        "protectTime": 0.5
      }
    ],
    [
      {
        "$type": "PKKMAMONGEO",
        "type": "DIALOG",
        "aliasList": [
          "4225"
        ],
        "dialogID": 730771003,
        "protectTime": 0.5
      }
    ],
    [
      {
        "$type": "PKKMAMONGEO",
        "type": "DIALOG",
        "aliasList": [
          "1005"
        ],
        "dialogID": 730771004,
        "protectTime": 0.5
      }
    ],
    [
      {
        "$type": "PKKMAMONGEO",
        "type": "DIALOG",
        "aliasList": [
          "4226"
        ],
        "dialogID": 730771005,
        "protectTime": 0.5
      }
    ],
    [
      {
        "$type": "PKKMAMONGEO",
        "type": "DIALOG",
        "aliasList": [
          "1005"
        ],
        "dialogID": 730771006,
        "protectTime": 0.5
      }
    ],
    [
      {
        "$type": "PKKMAMONGEO",
        "type": "DIALOG",
        "aliasList": [
          "4226"
        ],
        "dialogID": 730771007,
        "protectTime": 0.5
      }
    ],
    [
      {
        "$type": "PKKMAMONGEO",
        "type": "DIALOG",
        "aliasList": [
          "4227"
        ],
        "dialogID": 730771008,
        "protectTime": 0.5
      }
    ],
    [
      {
        "$type": "PKKMAMONGEO",
        "type": "DIALOG",
        "aliasList": [
          "4228"
        ],
        "dialogID": 730771009,
        "protectTime": 0.5
      },
      {
        "$type": "HDGKHDNFMIM",
        "type": "DIALOG_SELECT",
        "delayTime": 0.4000000059604645,
        "aliasList": [
          "Avatar"
        ],
        "dialogIDList": [
          730771010
        ],
        "grpIDList": [
          858487213
        ],
        "useGrpId": true
      }
    ],
    [
      {
        "$type": "PKKMAMONGEO",
        "type": "DIALOG",
        "aliasList": [
          "1005"
        ],
        "dialogID": 730771011,
        "protectTime": 0.5
      }
    ],
    [
      {
        "$type": "PKKMAMONGEO",
        "type": "DIALOG",
        "aliasList": [
          "4225"
        ],
        "dialogID": 730771012,
        "protectTime": 0.5
      }
    ],
    [
      {
        "$type": "PKKMAMONGEO",
        "type": "DIALOG",
        "aliasList": [
          "4225"
        ],
        "dialogID": 730771013,
        "protectTime": 0.5
      }
    ],
    [
      {
        "$type": "PKKMAMONGEO",
        "type": "DIALOG",
        "aliasList": [
          "4225"
        ],
        "dialogID": 730771014,
        "protectTime": 0.5
      }
    ],
    [
      {
        "$type": "PKKMAMONGEO",
        "type": "DIALOG",
        "aliasList": [
          "1005"
        ],
        "dialogID": 730771015,
        "protectTime": 0.5
      }
    ],
    [
      {
        "$type": "PKKMAMONGEO",
        "type": "DIALOG",
        "aliasList": [
          "4225"
        ],
        "dialogID": 730771016,
        "protectTime": 0.5
      }
    ],
    [
      {
        "$type": "PKKMAMONGEO",
        "type": "DIALOG",
        "aliasList": [
          "4226"
        ],
        "dialogID": 730771017,
        "protectTime": 0.5
      }
    ],
    [
      {
        "$type": "PKKMAMONGEO",
        "type": "DIALOG",
        "aliasList": [
          "4226"
        ],
        "dialogID": 730771018,
        "protectTime": 0.5
      }
    ],
    [
      {
        "$type": "PKKMAMONGEO",
        "type": "DIALOG",
        "aliasList": [
          "4226"
        ],
        "dialogID": 730771019,
        "protectTime": 0.5
      }
    ],
    [
      {
        "$type": "PKKMAMONGEO",
        "type": "DIALOG",
        "aliasList": [
          "4226"
        ],
        "dialogID": 730771020,
        "protectTime": 0.5
      }
    ],
    [
      {
        "$type": "PKKMAMONGEO",
        "type": "DIALOG",
        "aliasList": [
          "1005"
        ],
        "dialogID": 730771021,
        "protectTime": 0.5
      }
    ],
    [
      {
        "$type": "PKKMAMONGEO",
        "type": "DIALOG",
        "aliasList": [
          "4226"
        ],
        "dialogID": 730771022,
        "protectTime": 0.5
      }
    ],
    [
      {
        "$type": "PKKMAMONGEO",
        "type": "DIALOG",
        "aliasList": [
          "1005"
        ],
        "dialogID": 730771023,
        "protectTime": 0.5
      }
    ],
    [
      {
        "$type": "PKKMAMONGEO",
        "type": "DIALOG",
        "aliasList": [
          "4227"
        ],
        "dialogID": 730771024,
        "protectTime": 0.5
      }
    ],
    [
      {
        "$type": "PKKMAMONGEO",
        "type": "DIALOG",
        "aliasList": [
          "4227"
        ],
        "dialogID": 730771025,
        "protectTime": 0.5
      }
    ],
    [
      {
        "$type": "PKKMAMONGEO",
        "type": "DIALOG",
        "aliasList": [
          "4227"
        ],
        "dialogID": 730771026,
        "protectTime": 0.5
      }
    ],
    [
      {
        "$type": "PKKMAMONGEO",
        "type": "DIALOG",
        "aliasList": [
          "4225"
        ],
        "dialogID": 730771027,
        "protectTime": 0.5
      }
    ],
    [
      {
        "$type": "PKKMAMONGEO",
        "type": "DIALOG",
        "aliasList": [
          "4225"
        ],
        "dialogID": 730771028,
        "protectTime": 0.5
      }
    ],
    [
      {
        "$type": "PKKMAMONGEO",
        "type": "DIALOG",
        "aliasList": [
          "1005"
        ],
        "dialogID": 730771029,
        "protectTime": 0.5
      }
    ],
    [
      {
        "$type": "PKKMAMONGEO",
        "type": "DIALOG",
        "aliasList": [
          "1005"
        ],
        "dialogID": 730771030,
        "protectTime": 0.5
      }
    ],
    [
      {
        "$type": "PKKMAMONGEO",
        "type": "DIALOG",
        "aliasList": [
          "4225"
        ],
        "dialogID": 730771031,
        "protectTime": 0.5
      },
      {
        "$type": "HDGKHDNFMIM",
        "type": "DIALOG_SELECT",
        "delayTime": 0.4000000059604645,
        "aliasList": [
          "Avatar"
        ],
        "dialogIDList": [
          730771032,
          730771033
        ],
        "grpIDList": [
          858487276,
          858487276
        ],
        "useGrpId": true
      }
    ],
    [
      {
        "$type": "PKKMAMONGEO",
        "type": "DIALOG",
        "aliasList": [
          "4225"
        ],
        "dialogID": 730771034,
        "protectTime": 0.5
      }
    ],
    [
      {
        "$type": "PKKMAMONGEO",
        "type": "DIALOG",
        "aliasList": [
          "1005"
        ],
        "dialogID": 730771035,
        "protectTime": 0.5
      }
    ],
    [
      {
        "$type": "PKKMAMONGEO",
        "type": "DIALOG",
        "aliasList": [
          "4225"
        ],
        "dialogID": 730771036,
        "protectTime": 0.5
      }
    ],
    [
      {
        "$type": "PKKMAMONGEO",
        "type": "DIALOG",
        "aliasList": [
          "4225"
        ],
        "dialogID": 730771037,
        "protectTime": 0.5
      }
    ],
    [
      {
        "$type": "PKKMAMONGEO",
        "type": "DIALOG",
        "aliasList": [
          "4225"
        ],
        "dialogID": 730771038,
        "protectTime": 0.5
      },
      {
        "$type": "HDGKHDNFMIM",
        "type": "DIALOG_SELECT",
        "delayTime": 0.4000000059604645,
        "aliasList": [
          "Avatar"
        ],
        "dialogIDList": [
          730771039,
          730771040
        ],
        "grpIDList": [
          858487281,
          858487281
        ],
        "useGrpId": true
      }
    ],
    [
      {
        "$type": "PKKMAMONGEO",
        "type": "DIALOG",
        "aliasList": [
          "4225"
        ],
        "dialogID": 730771041,
        "protectTime": 0.5
      }
    ],
    [
      {
        "$type": "PKKMAMONGEO",
        "type": "DIALOG",
        "aliasList": [
          "4226"
        ],
        "dialogID": 730771042,
        "protectTime": 0.5
      }
    ],
    [
      {
        "$type": "PKKMAMONGEO",
        "type": "DIALOG",
        "aliasList": [
          "4227"
        ],
        "dialogID": 730771043,
        "protectTime": 0.5
      }
    ],
    [
      {
        "$type": "PKKMAMONGEO",
        "type": "DIALOG",
        "aliasList": [
          "4228"
        ],
        "dialogID": 730771044,
        "protectTime": 0.5
      }
    ],
    [
      {
        "$type": "PKKMAMONGEO",
        "type": "DIALOG",
        "aliasList": [
          "1005"
        ],
        "dialogID": 730771045,
        "protectTime": 0.5
      }
    ],
    [
      {
        "$type": "PKKMAMONGEO",
        "type": "DIALOG",
        "aliasList": [
          "4225"
        ],
        "dialogID": 730771046,
        "protectTime": 0.5
      }
    ],
    [
      {
        "$type": "PKKMAMONGEO",
        "type": "DIALOG",
        "aliasList": [
          "4225"
        ],
        "dialogID": 730771047,
        "protectTime": 0.5
      }
    ],
    [
      {
        "$type": "MoleMole.Config.ConfigTimeProtectAction",
        "type": "TIME_PROTECT",
        "duration": 0.10000000149011612
      },
      {
        "$type": "MoleMole.Config.ConfigSimpleBlackScreenAction",
        "type": "SIMPLE_BLACK_SCREEN",
        "durationToBlack": 0.5,
        "durationKeepBlack": 1.0,
        "durationFromBlack": 0.5,
        "textMapID": ""
      },
      {
        "$type": "MoleMole.Config.ConfigTimeProtectAction",
        "type": "TIME_PROTECT",
        "duration": 0.699999988079071
      }
    ]
  ],
  "groupId": [
    {
      "grpId": 1828808452,
      "nextGrpId": 1828808453
    },
    {
      "index": 1,
      "grpId": 1828808453,
      "nextGrpId": 1828808454
    },
    {
      "index": 2,
      "grpId": 1828808454,
      "nextGrpId": 1828808455
    },
    {
      "index": 3,
      "grpId": 1828808455,
      "nextGrpId": 1828808456
    },
    {
      "index": 4,
      "grpId": 1828808456,
      "nextGrpId": 1828808457
    },
    {
      "index": 5,
      "grpId": 1828808457,
      "nextGrpId": 1828808458
    },
    {
      "index": 6,
      "grpId": 1828808458,
      "nextGrpId": 1828808459
    },
    {
      "index": 7,
      "grpId": 1828808459,
      "nextGrpId": 1828808460
    },
    {
      "index": 8,
      "grpId": 1828808460,
      "nextGrpId": 858487212
    },
    {
      "index": 9,
      "grpId": 858487212,
      "nextGrpId": 858487213
    },
    {
      "index": 10,
      "grpId": 858487213,
      "nextGrpId": 858487214
    },
    {
      "index": 11,
      "grpId": 858487214,
      "nextGrpId": 858487215
    },
    {
      "index": 12,
      "grpId": 858487215,
      "nextGrpId": 858487216
    },
    {
      "index": 13,
      "grpId": 858487216,
      "nextGrpId": 858487217
    },
    {
      "index": 14,
      "grpId": 858487217,
      "nextGrpId": 858487218
    },
    {
      "index": 15,
      "grpId": 858487218,
      "nextGrpId": 858487219
    },
    {
      "index": 16,
      "grpId": 858487219,
      "nextGrpId": 858487220
    },
    {
      "index": 17,
      "grpId": 858487220,
      "nextGrpId": 858487221
    },
    {
      "index": 18,
      "grpId": 858487221,
      "nextGrpId": 858487243
    },
    {
      "index": 19,
      "grpId": 858487243,
      "nextGrpId": 858487244
    },
    {
      "index": 20,
      "grpId": 858487244,
      "nextGrpId": 858487245
    },
    {
      "index": 21,
      "grpId": 858487245,
      "nextGrpId": 858487246
    },
    {
      "index": 22,
      "grpId": 858487246,
      "nextGrpId": 858487247
    },
    {
      "index": 23,
      "grpId": 858487247,
      "nextGrpId": 858487248
    },
    {
      "index": 24,
      "grpId": 858487248,
      "nextGrpId": 858487249
    },
    {
      "index": 25,
      "grpId": 858487249,
      "nextGrpId": 858487250
    },
    {
      "index": 26,
      "grpId": 858487250,
      "nextGrpId": 858487251
    },
    {
      "index": 27,
      "grpId": 858487251,
      "nextGrpId": 858487252
    },
    {
      "index": 28,
      "grpId": 858487252,
      "nextGrpId": 858487274
    },
    {
      "index": 29,
      "grpId": 858487274,
      "nextGrpId": 858487275
    },
    {
      "index": 30,
      "grpId": 858487275,
      "nextGrpId": 858487276
    },
    {
      "index": 31,
      "grpId": 858487276,
      "nextGrpId": 858487277
    },
    {
      "index": 32,
      "grpId": 858487277,
      "nextGrpId": 858487278
    },
    {
      "index": 33,
      "grpId": 858487278,
      "nextGrpId": 858487279
    },
    {
      "index": 34,
      "grpId": 858487279,
      "nextGrpId": 858487280
    },
    {
      "index": 35,
      "grpId": 858487280,
      "nextGrpId": 858487281
    },
    {
      "index": 36,
      "grpId": 858487281,
      "nextGrpId": 858487282
    },
    {
      "index": 37,
      "grpId": 858487282,
      "nextGrpId": 858487283
    },
    {
      "index": 38,
      "grpId": 858487283,
      "nextGrpId": 858487305
    },
    {
      "index": 39,
      "grpId": 858487305,
      "nextGrpId": 858487306
    },
    {
      "index": 40,
      "grpId": 858487306,
      "nextGrpId": 858487307
    },
    {
      "index": 41,
      "grpId": 858487307,
      "nextGrpId": 858487308
    },
    {
      "index": 42,
      "grpId": 858487308,
      "nextGrpId": 858487309
    },
    {
      "index": 43,
      "grpId": 858487309,
      "nextGrpId": 858487310
    }
  ],
  "freeStyleDic": {
    "4225": [],
    "4226": [],
    "4227": [],
    "4228": []
  }
}