{
  "luaDataPath": "",
  "isSimpleTalk": true,
  "startBlackKeepTime": 0.5,
  "entityBan": "",
  "disableNpcLod": true,
  "isAutoBanNpc": true,
  "isBanWidgetPet": true,
  "protectNpcMobileLod": true,
  "startFade": {
    "startFadeInDuration": 0.5,
    "startFadeOutDuration": 0.5
  },
  "endFade": {
    "startFadeOutDuration": 0.0
  },
  "actors": [
    {
      "alias": "Avatar",
      "visible": true,
      "bornPointName": "wq7307733_player",
      "relativePosType": "AVATAR_NEW",
      "relativePosNpcAlias": "",
      "_bindMovingTargetKey": ""
    },
    {
      "configID": 4225,
      "alias": "4225",
      "visible": true,
      "bornPointName": "wq7307733_lnla",
      "removeActorType": "REMOVE_WITH_DISAPPEAR",
      "forceCreateDaily": true,
      "relativePosType": "AVATAR_NEW",
      "relativePosNpcAlias": "",
      "_bindMovingTargetKey": ""
    },
    {
      "configID": 1005,
      "alias": "1005",
      "visible": true,
      "bornPointName": "wq7307733_paim",
      "removeActorType": "REMOVE_WITH_DISAPPEAR",
      "relativePosType": "AVATAR_NEW",
      "relativePosNpcAlias": "",
      "_bindMovingTargetKey": ""
    }
  ],
  "group": [
    [
      {
        "$type": "MoleMole.Config.ConfigTimeProtectAction",
        "type": "TIME_PROTECT",
        "duration": 0.10000000149011612
      }
    ],
    [
      {
        "$type": "PKKMAMONGEO",
        "type": "DIALOG",
        "aliasList": [
          "4225"
        ],
        "dialogID": 730770101,
        "protectTime": 0.5
      }
    ],
    [
      {
        "$type": "PKKMAMONGEO",
        "type": "DIALOG",
        "aliasList": [
          "4225"
        ],
        "dialogID": 730770102,
        "protectTime": 0.5
      }
    ],
    [
      {
        "$type": "PKKMAMONGEO",
        "type": "DIALOG",
        "aliasList": [
          "1005"
        ],
        "dialogID": 730770103,
        "protectTime": 0.5
      }
    ],
    [
      {
        "$type": "PKKMAMONGEO",
        "type": "DIALOG",
        "aliasList": [
          "4225"
        ],
        "dialogID": 730770104,
        "protectTime": 0.5
      }
    ],
    [
      {
        "$type": "PKKMAMONGEO",
        "type": "DIALOG",
        "aliasList": [
          "1005"
        ],
        "dialogID": 730770105,
        "protectTime": 0.5
      }
    ],
    [
      {
        "$type": "PKKMAMONGEO",
        "type": "DIALOG",
        "aliasList": [
          "4225"
        ],
        "dialogID": 730770106,
        "protectTime": 0.5
      }
    ],
    [
      {
        "$type": "PKKMAMONGEO",
        "type": "DIALOG",
        "aliasList": [
          "4225"
        ],
        "dialogID": 730770107,
        "protectTime": 0.5
      }
    ],
    [
      {
        "$type": "PKKMAMONGEO",
        "type": "DIALOG",
        "aliasList": [
          "4225"
        ],
        "dialogID": 730770108,
        "protectTime": 0.5
      }
    ],
    [
      {
        "$type": "PKKMAMONGEO",
        "type": "DIALOG",
        "aliasList": [
          "1005"
        ],
        "dialogID": 730770109,
        "protectTime": 0.5
      },
      {
        "$type": "HDGKHDNFMIM",
        "type": "DIALOG_SELECT",
        "delayTime": 0.4000000059604645,
        "aliasList": [
          "Avatar"
        ],
        "dialogIDList": [
          730770110
        ],
        "grpIDList": [
          857593483
        ],
        "useGrpId": true
      }
    ],
    [
      {
        "$type": "PKKMAMONGEO",
        "type": "DIALOG",
        "aliasList": [
          "4225"
        ],
        "dialogID": 730770111,
        "protectTime": 0.5
      }
    ],
    [
      {
        "$type": "PKKMAMONGEO",
        "type": "DIALOG",
        "aliasList": [
          "4225"
        ],
        "dialogID": 730770112,
        "protectTime": 0.5
      }
    ],
    [
      {
        "$type": "PKKMAMONGEO",
        "type": "DIALOG",
        "aliasList": [
          "4225"
        ],
        "dialogID": 730770113,
        "protectTime": 0.5
      }
    ],
    [
      {
        "$type": "PKKMAMONGEO",
        "type": "DIALOG",
        "aliasList": [
          "1005"
        ],
        "dialogID": 730770114,
        "protectTime": 0.5
      }
    ],
    [
      {
        "$type": "PKKMAMONGEO",
        "type": "DIALOG",
        "aliasList": [
          "4225"
        ],
        "dialogID": 730770115,
        "protectTime": 0.5
      }
    ],
    [
      {
        "$type": "PKKMAMONGEO",
        "type": "DIALOG",
        "aliasList": [
          "4225"
        ],
        "dialogID": 730770116,
        "protectTime": 0.5
      }
    ],
    [
      {
        "$type": "PKKMAMONGEO",
        "type": "DIALOG",
        "aliasList": [
          "1005"
        ],
        "dialogID": 730770117,
        "protectTime": 0.5
      },
      {
        "$type": "HDGKHDNFMIM",
        "type": "DIALOG_SELECT",
        "delayTime": 0.4000000059604645,
        "aliasList": [
          "Avatar"
        ],
        "dialogIDList": [
          730770118,
          730770119
        ],
        "grpIDList": [
          857593491,
          857593490
        ],
        "useGrpId": true
      }
    ],
    [
      {
        "$type": "PKKMAMONGEO",
        "type": "DIALOG",
        "aliasList": [
          "1005"
        ],
        "dialogID": 730770120,
        "protectTime": 0.5
      }
    ],
    [
      {
        "$type": "PKKMAMONGEO",
        "type": "DIALOG",
        "aliasList": [
          "4225"
        ],
        "dialogID": 730770121,
        "protectTime": 0.5
      }
    ],
    [
      {
        "$type": "PKKMAMONGEO",
        "type": "DIALOG",
        "aliasList": [
          "1005"
        ],
        "dialogID": 730770122,
        "protectTime": 0.5
      }
    ],
    [
      {
        "$type": "PKKMAMONGEO",
        "type": "DIALOG",
        "aliasList": [
          "4225"
        ],
        "dialogID": 730770123,
        "protectTime": 0.5
      }
    ],
    [
      {
        "$type": "PKKMAMONGEO",
        "type": "DIALOG",
        "aliasList": [
          "1005"
        ],
        "dialogID": 730770124,
        "protectTime": 0.5
      }
    ],
    [
      {
        "$type": "PKKMAMONGEO",
        "type": "DIALOG",
        "aliasList": [
          "4225"
        ],
        "dialogID": 730770125,
        "protectTime": 0.5
      }
    ],
    [
      {
        "$type": "PKKMAMONGEO",
        "type": "DIALOG",
        "aliasList": [
          "4225"
        ],
        "dialogID": 730770126,
        "protectTime": 0.5
      },
      {
        "$type": "HDGKHDNFMIM",
        "type": "DIALOG_SELECT",
        "delayTime": 0.4000000059604645,
        "aliasList": [
          "Avatar"
        ],
        "dialogIDList": [
          730770127,
          730770128
        ],
        "grpIDList": [
          857593518,
          857593518
        ],
        "useGrpId": true
      }
    ],
    [
      {
        "$type": "PKKMAMONGEO",
        "type": "DIALOG",
        "aliasList": [
          "4225"
        ],
        "dialogID": 730770129,
        "protectTime": 0.5
      }
    ],
    [
      {
        "$type": "PKKMAMONGEO",
        "type": "DIALOG",
        "aliasList": [
          "4225"
        ],
        "dialogID": 730770130,
        "protectTime": 0.5
      }
    ],
    [
      {
        "$type": "PKKMAMONGEO",
        "type": "DIALOG",
        "aliasList": [
          "4225"
        ],
        "dialogID": 730770131,
        "protectTime": 0.5
      }
    ],
    [
      {
        "$type": "PKKMAMONGEO",
        "type": "DIALOG",
        "aliasList": [
          "1005"
        ],
        "dialogID": 730770132,
        "protectTime": 0.5
      }
    ],
    [
      {
        "$type": "PKKMAMONGEO",
        "type": "DIALOG",
        "aliasList": [
          "4225"
        ],
        "dialogID": 730770133,
        "protectTime": 0.5
      }
    ],
    [
      {
        "$type": "MoleMole.Config.ConfigTimeProtectAction",
        "type": "TIME_PROTECT",
        "duration": 0.10000000149011612
      },
      {
        "$type": "MoleMole.Config.ConfigSimpleBlackScreenAction",
        "type": "SIMPLE_BLACK_SCREEN",
        "durationToBlack": 0.5,
        "durationKeepBlack": 1.0,
        "durationFromBlack": 0.5,
        "textMapID": ""
      },
      {
        "$type": "MoleMole.Config.ConfigTimeProtectAction",
        "type": "TIME_PROTECT",
        "duration": 0.699999988079071
      }
    ]
  ],
  "groupId": [
    {
      "grpId": 1828779622,
      "nextGrpId": 1828779623
    },
    {
      "index": 1,
      "grpId": 1828779623,
      "nextGrpId": 1828779624
    },
    {
      "index": 2,
      "grpId": 1828779624,
      "nextGrpId": 1828779625
    },
    {
      "index": 3,
      "grpId": 1828779625,
      "nextGrpId": 1828779626
    },
    {
      "index": 4,
      "grpId": 1828779626,
      "nextGrpId": 1828779627
    },
    {
      "index": 5,
      "grpId": 1828779627,
      "nextGrpId": 1828779628
    },
    {
      "index": 6,
      "grpId": 1828779628,
      "nextGrpId": 1828779629
    },
    {
      "index": 7,
      "grpId": 1828779629,
      "nextGrpId": 1828779630
    },
    {
      "index": 8,
      "grpId": 1828779630,
      "nextGrpId": 857593482
    },
    {
      "index": 9,
      "grpId": 857593482,
      "nextGrpId": 857593483
    },
    {
      "index": 10,
      "grpId": 857593483,
      "nextGrpId": 857593484
    },
    {
      "index": 11,
      "grpId": 857593484,
      "nextGrpId": 857593485
    },
    {
      "index": 12,
      "grpId": 857593485,
      "nextGrpId": 857593486
    },
    {
      "index": 13,
      "grpId": 857593486,
      "nextGrpId": 857593487
    },
    {
      "index": 14,
      "grpId": 857593487,
      "nextGrpId": 857593488
    },
    {
      "index": 15,
      "grpId": 857593488,
      "nextGrpId": 857593489
    },
    {
      "index": 16,
      "grpId": 857593489,
      "nextGrpId": 857593490
    },
    {
      "index": 17,
      "grpId": 857593490,
      "nextGrpId": 857593491
    },
    {
      "index": 18,
      "grpId": 857593491,
      "nextGrpId": 857593513
    },
    {
      "index": 19,
      "grpId": 857593513,
      "nextGrpId": 857593514
    },
    {
      "index": 20,
      "grpId": 857593514,
      "nextGrpId": 857593515
    },
    {
      "index": 21,
      "grpId": 857593515,
      "nextGrpId": 857593516
    },
    {
      "index": 22,
      "grpId": 857593516,
      "nextGrpId": 857593517
    },
    {
      "index": 23,
      "grpId": 857593517,
      "nextGrpId": 857593518
    },
    {
      "index": 24,
      "grpId": 857593518,
      "nextGrpId": 857593519
    },
    {
      "index": 25,
      "grpId": 857593519,
      "nextGrpId": 857593520
    },
    {
      "index": 26,
      "grpId": 857593520,
      "nextGrpId": 857593521
    },
    {
      "index": 27,
      "grpId": 857593521,
      "nextGrpId": 857593522
    },
    {
      "index": 28,
      "grpId": 857593522,
      "nextGrpId": 857593544
    },
    {
      "index": 29,
      "grpId": 857593544,
      "nextGrpId": 857593545
    }
  ],
  "freeStyleDic": {
    "4225": []
  }
}