{
  "luaDataPath": "",
  "startBlackKeepTime": 1.0,
  "entityBan": "",
  "disableNpcLod": true,
  "protectNpcMobileLod": true,
  "talkFlag": 7,
  "startFade": {
    "startFadeInDuration": 0.5,
    "startFadeOutDuration": 0.5
  },
  "endFade": {
    "startFadeOutDuration": 0.0
  },
  "actors": [
    {
      "alias": "Avatar",
      "bornPointName": "Q19015_Player1_Pos",
      "relativePosType": "AVATAR_NEW",
      "relativePosNpcAlias": "",
      "_notDestroyInTalk": true,
      "_bindMovingTargetKey": ""
    },
    {
      "configID": 504,
      "alias": "504",
      "visible": true,
      "bornPointName": "Q19015_Sayu1_Pos",
      "relativePosType": "AVATAR_NEW",
      "relativePosNpcAlias": "",
      "_notDestroyInTalk": true,
      "_bindMovingTargetKey": ""
    },
    {
      "configID": 3106,
      "alias": "3106",
      "visible": true,
      "bornPointName": "Q19015_Wunv4_Pos",
      "forceCreateDaily": true,
      "relativePosType": "AVATAR_NEW",
      "relativePosNpcAlias": "",
      "_notDestroyInTalk": true,
      "_bindMovingTargetKey": ""
    }
  ],
  "group": [
    [
      {
        "$type": "MoleMole.Config.ConfigBlackScreenAction",
        "type": "BLACK_SCREEN",
        "actionId": 193,
        "_flag": 2048,
        "blackScreenType": "KEEP_BLACK",
        "durationKeepBlack": 0.5,
        "inteePos": "",
        "textMapID": "",
        "useTextFade": true
      },
      {
        "$type": "MoleMole.Config.ConfigVisibleInterAction",
        "type": "VISIBLE",
        "aliasList": [
          "Avatar"
        ],
        "actionId": 106,
        "_extraParam": ""
      },
      {
        "$type": "MoleMole.Config.ConfigTeleportToAction",
        "type": "TELEPORT_TO",
        "aliasList": [
          "504"
        ],
        "actionId": 176,
        "position": {
          "x": -2801.469970703125,
          "y": 222.61700439453125,
          "z": -4443.9638671875
        },
        "forward": {
          "x": -1.3760000467300415,
          "y": -0.010999999940395355,
          "z": -0.6880000233650208
        },
        "_posBindMovingTargetKey": "",
        "_forwardBindMovingTargetKey": ""
      },
      {
        "$type": "LJLMDHDCAMK",
        "type": "LOOK_AT",
        "aliasList": [
          "504"
        ],
        "actionId": 180,
        "_flag": 64,
        "enableHead": true,
        "headTurnTime": 0.5,
        "targetNpcAlias": "",
        "lookAtTargetType": "CAMERA",
        "targetNpcLookAtPoint": "",
        "OAFJBHJHLJG": ""
      },
      {
        "$type": "EMEHNEMOMMM",
        "type": "LOOK_AT_EYECTRL",
        "aliasList": [
          "3106"
        ],
        "actionId": 154,
        "_flag": 4672,
        "useTargetPos": false,
        "eyeRotateVecLeft": {
          "z": 5.0
        },
        "eyeRotateVecRight": {
          "z": 5.0
        },
        "turnTime": 1.0,
        "targetNpcAlias": "",
        "targetPoint": "Face"
      },
      {
        "$type": "MoleMole.Config.ConfigTeleportToAction",
        "type": "TELEPORT_TO",
        "aliasList": [
          "3106"
        ],
        "actionId": 175,
        "position": {
          "x": -2802.158935546875,
          "y": 222.68499755859375,
          "z": -4445.14501953125
        },
        "forward": {
          "x": -1.0679999589920044,
          "y": -0.09600000083446503,
          "z": 1.4769999980926514
        },
        "_posBindMovingTargetKey": "",
        "_forwardBindMovingTargetKey": ""
      },
      {
        "$type": "LJLMDHDCAMK",
        "type": "LOOK_AT",
        "aliasList": [
          "3106"
        ],
        "actionId": 178,
        "_flag": 64,
        "enableHead": true,
        "useTargetPos": true,
        "enableAbsolute": true,
        "targetPosition": {
          "x": -2802.492919921875,
          "y": 224.01300048828125,
          "z": -4444.10009765625
        },
        "headRotateVec": {
          "x": 357.5920104980469,
          "y": 13.359999656677246
        },
        "headTurnTime": 0.5,
        "targetNpcAlias": "",
        "lookAtTargetType": "NONE",
        "targetNpcLookAtPoint": "",
        "OAFJBHJHLJG": ""
      },
      {
        "$type": "FJKIHHKJLMJ",
        "type": "CAMERA_MOVE",
        "delayTime": 0.10000000149011612,
        "duration": 1.0,
        "actionId": 173,
        "cameraPosType": "RELATIVE_TO_MULTI_TARGET_ENTITY",
        "camTargetType": "RELATIVE_TO_MULTI_TARGET_ENTITY",
        "camFov": 30.0,
        "lerpPattern": 6,
        "cameraBlendType": "EaseInOutCubic",
        "NJBNNOMLKCK": {},
        "openCameraDither": false,
        "targetNpcAlias": "504",
        "closeTreeLeafDither": true,
        "multiTargetNpcAliasArray": [
          "504",
          "3106"
        ],
        "KJOEFBPOIIH": "",
        "IICFKKEBIEC": "",
        "EGEHEJEBLBJ": ""
      },
      {
        "$type": "MoleMole.Config.ConfigEmotionTemplateAction",
        "type": "EMOTION_TEMPLATE",
        "delayTime": 0.10000000149011612,
        "aliasList": [
          "504"
        ],
        "actionId": 155,
        "_flag": 384,
        "emoTemplateID": 10100
      },
      {
        "$type": "MoleMole.Config.ConfigCameraDOFAction",
        "type": "CAMERA_DOF",
        "delayTime": 0.30000001192092896,
        "actionId": 103,
        "focusDistance": 6.0,
        "focusRange": 6.0,
        "quality": 3
      }
    ],
    [
      {
        "$type": "FJKIHHKJLMJ",
        "type": "CAMERA_MOVE",
        "duration": 1.0,
        "actionId": 177,
        "cameraPosType": "RELATIVE_TO_MULTI_TARGET_ENTITY",
        "camTargetType": "RELATIVE_TO_MULTI_TARGET_ENTITY",
        "camFov": 30.0,
        "lerpPattern": 6,
        "cameraBlendType": "EaseInOutCubic",
        "NJBNNOMLKCK": {},
        "openCameraDither": false,
        "targetNpcAlias": "504",
        "closeTreeLeafDither": true,
        "multiTargetNpcAliasArray": [
          "504",
          "3106"
        ],
        "KJOEFBPOIIH": "",
        "IICFKKEBIEC": "",
        "EGEHEJEBLBJ": ""
      },
      {
        "$type": "MoleMole.Config.ConfigBlackScreenAction",
        "type": "BLACK_SCREEN",
        "actionId": 194,
        "_flag": 2048,
        "blackScreenType": "FROM_BLACK",
        "durationFromBlack": 0.5,
        "inteePos": "",
        "textMapID": "",
        "useTextFade": true
      },
      {
        "$type": "PKKMAMONGEO",
        "type": "DIALOG",
        "aliasList": [
          "504"
        ],
        "actionId": 109,
        "dialogID": 190150101,
        "protectTime": 0.5
      },
      {
        "$type": "MoleMole.Config.ConfigEmotionTemplateAction",
        "type": "EMOTION_TEMPLATE",
        "aliasList": [
          "504"
        ],
        "actionId": 110,
        "_flag": 384,
        "emoTemplateID": 10101
      },
      {
        "$type": "CPJKOIHIPBE",
        "type": "EMO_SYNC",
        "aliasList": [
          "504"
        ],
        "actionId": 159,
        "_flag": 320,
        "dataPath": "Cs_Emo_Avatar_Simple_Common_Set/Cs_Emo_Avatar_Talk/Cs_Emo_Coop_Common/Cs_Emo_Coop_Sayu_01/Cs_Emo_190150101",
        "phonemePath": "",
        "emotionPath": "",
        "mateDataPath": "",
        "matePhonemePath": "",
        "mateEmotionPath": "",
        "dataPathHashList": [
          11250364972928545421,
          16971768110647705539,
          14344562462155535367,
          2738099701799745636
        ],
        "FMDPBECPELH": "",
        "ADKBLPOKGIK": ""
      }
    ],
    [
      {
        "$type": "PKKMAMONGEO",
        "type": "DIALOG",
        "aliasList": [
          "3106"
        ],
        "actionId": 112,
        "dialogID": 190150102,
        "protectTime": 0.5
      },
      {
        "$type": "CPJKOIHIPBE",
        "type": "EMO_SYNC",
        "aliasList": [
          "3106"
        ],
        "actionId": 165,
        "_flag": 256,
        "dataPath": "Cs_Emo_Avatar_Simple_Common_Set/Cs_Emo_Avatar_Talk/Cs_Emo_Coop_Common/Cs_Emo_Coop_Sayu_01/Cs_Emo_190150102",
        "phonemePath": "",
        "emotionPath": "",
        "mateDataPath": "",
        "matePhonemePath": "",
        "mateEmotionPath": "",
        "dataPathHashList": [
          18268464031717419782,
          16380968319538171220,
          4231878994179337934,
          20754574051296493
        ],
        "FMDPBECPELH": "",
        "ADKBLPOKGIK": ""
      },
      {
        "$type": "LJLMDHDCAMK",
        "type": "LOOK_AT",
        "delayTime": 3.0840001106262207,
        "aliasList": [
          "3106"
        ],
        "actionId": 179,
        "_flag": 64,
        "enableHead": true,
        "headRotateVec": {
          "x": 2.371000051498413,
          "y": 13.404999732971191
        },
        "headTurnTime": 0.5,
        "targetNpcAlias": "",
        "lookAtTargetType": "CAMERA",
        "targetNpcLookAtPoint": "",
        "OAFJBHJHLJG": ""
      }
    ],
    [
      {
        "$type": "PKKMAMONGEO",
        "type": "DIALOG",
        "aliasList": [
          "3106"
        ],
        "actionId": 114,
        "dialogID": 190150103,
        "protectTime": 0.5
      },
      {
        "$type": "CPJKOIHIPBE",
        "type": "EMO_SYNC",
        "aliasList": [
          "3106"
        ],
        "actionId": 166,
        "_flag": 256,
        "dataPath": "Cs_Emo_Avatar_Simple_Common_Set/Cs_Emo_Avatar_Talk/Cs_Emo_Coop_Common/Cs_Emo_Coop_Sayu_01/Cs_Emo_190150103",
        "phonemePath": "",
        "emotionPath": "",
        "mateDataPath": "",
        "matePhonemePath": "",
        "mateEmotionPath": "",
        "dataPathHashList": [
          369557589873632821,
          16669929929567748950,
          8559803605349823260,
          11349507926675935718
        ],
        "FMDPBECPELH": "",
        "ADKBLPOKGIK": ""
      },
      {
        "$type": "LJLMDHDCAMK",
        "type": "LOOK_AT",
        "aliasList": [
          "3106"
        ],
        "actionId": 185,
        "_flag": 64,
        "enableHead": true,
        "headRotateVec": {
          "x": 2.371000051498413,
          "y": 13.404999732971191
        },
        "headTurnTime": 0.5,
        "targetNpcAlias": "",
        "lookAtTargetType": "CAMERA",
        "targetNpcLookAtPoint": "",
        "OAFJBHJHLJG": ""
      }
    ],
    [
      {
        "$type": "PKKMAMONGEO",
        "type": "DIALOG",
        "aliasList": [
          "3106"
        ],
        "actionId": 116,
        "dialogID": 190150104,
        "protectTime": 0.5
      },
      {
        "$type": "CPJKOIHIPBE",
        "type": "EMO_SYNC",
        "aliasList": [
          "3106"
        ],
        "actionId": 167,
        "_flag": 320,
        "dataPath": "Cs_Emo_Avatar_Simple_Common_Set/Cs_Emo_Avatar_Talk/Cs_Emo_Coop_Common/Cs_Emo_Coop_Sayu_01/Cs_Emo_190150104",
        "phonemePath": "",
        "emotionPath": "",
        "mateDataPath": "",
        "matePhonemePath": "",
        "mateEmotionPath": "",
        "dataPathHashList": [
          9416051154001833030,
          10648250758135490244,
          15367806529018222301,
          13078418939514650071
        ],
        "FMDPBECPELH": "",
        "ADKBLPOKGIK": ""
      }
    ],
    [
      {
        "$type": "PKKMAMONGEO",
        "type": "DIALOG",
        "aliasList": [
          "504"
        ],
        "actionId": 118,
        "dialogID": 190150105,
        "protectTime": 0.5
      },
      {
        "$type": "MoleMole.Config.ConfigEmotionTemplateAction",
        "type": "EMOTION_TEMPLATE",
        "aliasList": [
          "504"
        ],
        "actionId": 119,
        "_flag": 384,
        "emoTemplateID": 10100
      },
      {
        "$type": "CPJKOIHIPBE",
        "type": "EMO_SYNC",
        "aliasList": [
          "504"
        ],
        "actionId": 160,
        "_flag": 256,
        "dataPath": "Cs_Emo_Avatar_Simple_Common_Set/Cs_Emo_Avatar_Talk/Cs_Emo_Coop_Common/Cs_Emo_Coop_Sayu_01/Cs_Emo_190150105",
        "phonemePath": "",
        "emotionPath": "",
        "mateDataPath": "",
        "matePhonemePath": "",
        "mateEmotionPath": "",
        "dataPathHashList": [
          18367047723982123853,
          7110779764558482727,
          11955782920334367904,
          5163101871389311053
        ],
        "FMDPBECPELH": "",
        "ADKBLPOKGIK": ""
      }
    ],
    [
      {
        "$type": "PKKMAMONGEO",
        "type": "DIALOG",
        "aliasList": [
          "504"
        ],
        "actionId": 121,
        "dialogID": 190150106,
        "protectTime": 0.5
      },
      {
        "$type": "CPJKOIHIPBE",
        "type": "EMO_SYNC",
        "aliasList": [
          "504"
        ],
        "actionId": 161,
        "_flag": 320,
        "dataPath": "Cs_Emo_Avatar_Simple_Common_Set/Cs_Emo_Avatar_Talk/Cs_Emo_Coop_Common/Cs_Emo_Coop_Sayu_01/Cs_Emo_190150106",
        "phonemePath": "",
        "emotionPath": "",
        "mateDataPath": "",
        "matePhonemePath": "",
        "mateEmotionPath": "",
        "dataPathHashList": [
          13660858345039643696,
          434169245159329925,
          6476699134249137841,
          16583347768544861570
        ],
        "FMDPBECPELH": "",
        "ADKBLPOKGIK": ""
      }
    ],
    [
      {
        "$type": "PKKMAMONGEO",
        "type": "DIALOG",
        "aliasList": [
          "3106"
        ],
        "actionId": 124,
        "dialogID": 190150107,
        "protectTime": 0.5
      },
      {
        "$type": "CPJKOIHIPBE",
        "type": "EMO_SYNC",
        "aliasList": [
          "3106"
        ],
        "actionId": 168,
        "_flag": 320,
        "dataPath": "Cs_Emo_Avatar_Simple_Common_Set/Cs_Emo_Avatar_Talk/Cs_Emo_Coop_Common/Cs_Emo_Coop_Sayu_01/Cs_Emo_190150107",
        "phonemePath": "",
        "emotionPath": "",
        "mateDataPath": "",
        "matePhonemePath": "",
        "mateEmotionPath": "",
        "dataPathHashList": [
          4549195125579232852,
          9895958735350534769,
          5084206011303673626,
          15528288663795359572
        ],
        "FMDPBECPELH": "",
        "ADKBLPOKGIK": ""
      }
    ],
    [
      {
        "$type": "PKKMAMONGEO",
        "type": "DIALOG",
        "aliasList": [
          "504"
        ],
        "actionId": 126,
        "dialogID": 190150108,
        "protectTime": 0.5
      },
      {
        "$type": "CPJKOIHIPBE",
        "type": "EMO_SYNC",
        "aliasList": [
          "504"
        ],
        "actionId": 162,
        "_flag": 320,
        "dataPath": "Cs_Emo_Avatar_Simple_Common_Set/Cs_Emo_Avatar_Talk/Cs_Emo_Coop_Common/Cs_Emo_Coop_Sayu_01/Cs_Emo_190150108",
        "phonemePath": "",
        "emotionPath": "",
        "mateDataPath": "",
        "matePhonemePath": "",
        "mateEmotionPath": "",
        "dataPathHashList": [
          9179838311361176767,
          12247088820005411221,
          10318529856243185308,
          17662865562222557514
        ],
        "FMDPBECPELH": "",
        "ADKBLPOKGIK": ""
      },
      {
        "$type": "MoleMole.Config.ConfigEmotionTemplateAction",
        "type": "EMOTION_TEMPLATE",
        "aliasList": [
          "504"
        ],
        "actionId": 195,
        "_flag": 384,
        "emoTemplateID": 10101
      }
    ],
    [
      {
        "$type": "MoleMole.Config.ConfigEmotionTemplateAction",
        "type": "EMOTION_TEMPLATE",
        "aliasList": [
          "504"
        ],
        "actionId": 196,
        "_flag": 384,
        "emoTemplateID": 10100
      },
      {
        "$type": "PKKMAMONGEO",
        "type": "DIALOG",
        "aliasList": [
          "3106"
        ],
        "actionId": 129,
        "dialogID": 190150109,
        "protectTime": 0.5
      },
      {
        "$type": "CPJKOIHIPBE",
        "type": "EMO_SYNC",
        "aliasList": [
          "3106"
        ],
        "actionId": 169,
        "_flag": 320,
        "dataPath": "Cs_Emo_Avatar_Simple_Common_Set/Cs_Emo_Avatar_Talk/Cs_Emo_Coop_Common/Cs_Emo_Coop_Sayu_01/Cs_Emo_190150109",
        "phonemePath": "",
        "emotionPath": "",
        "mateDataPath": "",
        "matePhonemePath": "",
        "mateEmotionPath": "",
        "dataPathHashList": [
          1663782519704718867,
          15971685961965388668,
          1460532104389401714,
          11176073732378099966
        ],
        "FMDPBECPELH": "",
        "ADKBLPOKGIK": ""
      },
      {
        "$type": "LJLMDHDCAMK",
        "type": "LOOK_AT",
        "aliasList": [
          "3106"
        ],
        "actionId": 181,
        "_flag": 64,
        "enableHead": true,
        "headRotateVec": {
          "x": 15.871000289916992,
          "y": 15.67300033569336
        },
        "headTurnTime": 0.5,
        "targetNpcAlias": "",
        "lookAtTargetType": "NONE",
        "targetNpcLookAtPoint": "",
        "OAFJBHJHLJG": ""
      }
    ],
    [
      {
        "$type": "PKKMAMONGEO",
        "type": "DIALOG",
        "aliasList": [
          "504"
        ],
        "actionId": 131,
        "dialogID": 190150110,
        "protectTime": 0.5
      },
      {
        "$type": "MoleMole.Config.ConfigEmotionTemplateAction",
        "type": "EMOTION_TEMPLATE",
        "aliasList": [
          "504"
        ],
        "actionId": 132,
        "_flag": 384,
        "emoTemplateID": 10701
      },
      {
        "$type": "CPJKOIHIPBE",
        "type": "EMO_SYNC",
        "aliasList": [
          "504"
        ],
        "actionId": 163,
        "_flag": 320,
        "dataPath": "Cs_Emo_Avatar_Simple_Common_Set/Cs_Emo_Avatar_Talk/Cs_Emo_Coop_Common/Cs_Emo_Coop_Sayu_01/Cs_Emo_190150110",
        "phonemePath": "",
        "emotionPath": "",
        "mateDataPath": "",
        "matePhonemePath": "",
        "mateEmotionPath": "",
        "dataPathHashList": [
          8701047233007671378,
          14254529541860918751,
          12409830564947221027,
          6375997695483609658
        ],
        "FMDPBECPELH": "",
        "ADKBLPOKGIK": ""
      },
      {
        "$type": "LJLMDHDCAMK",
        "type": "LOOK_AT",
        "aliasList": [
          "504"
        ],
        "actionId": 182,
        "_flag": 64,
        "enableHead": true,
        "useTargetPos": true,
        "enableAbsolute": true,
        "targetPosition": {
          "x": -2802.552978515625,
          "y": 223.76400756835938,
          "z": -4444.64892578125
        },
        "headRotateVec": {
          "x": 349.5509948730469,
          "y": 353.989013671875
        },
        "headTurnTime": 0.5,
        "targetNpcAlias": "",
        "lookAtTargetType": "NONE",
        "targetNpcLookAtPoint": "",
        "OAFJBHJHLJG": ""
      },
      {
        "$type": "EMEHNEMOMMM",
        "type": "LOOK_AT_EYECTRL",
        "aliasList": [
          "504"
        ],
        "actionId": 189,
        "_flag": 4672,
        "useTargetPos": false,
        "eyeRotateVecLeft": {
          "x": -3.0
        },
        "eyeRotateVecRight": {
          "x": -3.0
        },
        "turnTime": 0.5,
        "targetNpcAlias": "",
        "targetPoint": "Face"
      }
    ],
    [
      {
        "$type": "PKKMAMONGEO",
        "type": "DIALOG",
        "aliasList": [
          "3106"
        ],
        "actionId": 134,
        "dialogID": 190150111,
        "protectTime": 0.5
      },
      {
        "$type": "CPJKOIHIPBE",
        "type": "EMO_SYNC",
        "aliasList": [
          "3106"
        ],
        "actionId": 170,
        "_flag": 320,
        "dataPath": "Cs_Emo_Avatar_Simple_Common_Set/Cs_Emo_Avatar_Talk/Cs_Emo_Coop_Common/Cs_Emo_Coop_Sayu_01/Cs_Emo_190150111_2",
        "phonemePath": "",
        "emotionPath": "",
        "mateDataPath": "",
        "matePhonemePath": "",
        "mateEmotionPath": "",
        "dataPathHashList": [
          2637155035653732897,
          9788792021499243830,
          5204892240379710292,
          18153692139093294058
        ],
        "FMDPBECPELH": "",
        "ADKBLPOKGIK": ""
      }
    ],
    [
      {
        "$type": "PKKMAMONGEO",
        "type": "DIALOG",
        "aliasList": [
          "504"
        ],
        "actionId": 136,
        "dialogID": 190150112,
        "protectTime": 0.5
      },
      {
        "$type": "MoleMole.Config.ConfigEmotionTemplateAction",
        "type": "EMOTION_TEMPLATE",
        "aliasList": [
          "504"
        ],
        "actionId": 137,
        "_flag": 384,
        "emoTemplateID": 10100
      },
      {
        "$type": "CPJKOIHIPBE",
        "type": "EMO_SYNC",
        "aliasList": [
          "504"
        ],
        "actionId": 164,
        "_flag": 320,
        "dataPath": "Cs_Emo_Avatar_Simple_Common_Set/Cs_Emo_Avatar_Talk/Cs_Emo_Coop_Common/Cs_Emo_Coop_Sayu_01/Cs_Emo_190150112",
        "phonemePath": "",
        "emotionPath": "",
        "mateDataPath": "",
        "matePhonemePath": "",
        "mateEmotionPath": "",
        "dataPathHashList": [
          6133742993139671112,
          6113388388048138609,
          9877029594824506404,
          7452236331839247613
        ],
        "FMDPBECPELH": "",
        "ADKBLPOKGIK": ""
      },
      {
        "$type": "LJLMDHDCAMK",
        "type": "LOOK_AT",
        "aliasList": [
          "504"
        ],
        "actionId": 188,
        "_flag": 64,
        "enableHead": true,
        "headTurnTime": 0.5,
        "targetNpcAlias": "",
        "lookAtTargetType": "NONE",
        "targetNpcLookAtPoint": "",
        "OAFJBHJHLJG": ""
      },
      {
        "$type": "EMEHNEMOMMM",
        "type": "LOOK_AT_EYECTRL",
        "aliasList": [
          "504"
        ],
        "actionId": 190,
        "_flag": 4672,
        "useTargetPos": false,
        "turnTime": 0.8500000238418579,
        "targetNpcAlias": "",
        "targetPoint": "Face"
      }
    ],
    [
      {
        "$type": "MoleMole.Config.ConfigSimpleBlackScreenAction",
        "type": "SIMPLE_BLACK_SCREEN",
        "actionId": 153,
        "durationToBlack": 0.5,
        "durationKeepBlack": 3.0,
        "durationFromBlack": 0.5,
        "textMapID": "COOP_Black_Q1901501",
        "useTextFade": true
      },
      {
        "$type": "MoleMole.Config.ConfigTimeProtectAction",
        "type": "TIME_PROTECT",
        "duration": 4.0,
        "actionId": 157
      },
      {
        "$type": "PKKMAMONGEO",
        "type": "DIALOG_CLEAR",
        "actionId": 158,
        "dialogID": 190150112
      },
      {
        "$type": "MoleMole.Config.ConfigAudioPlayAction",
        "type": "AUDIO_PLAY",
        "actionId": 197,
        "audioEventStr": "Play_sfx_quest_CoopSayu_1901219_roll"
      },
      {
        "$type": "FJKIHHKJLMJ",
        "type": "CAMERA_MOVE",
        "delayTime": 0.6000000238418579,
        "duration": 0.5,
        "actionId": 183,
        "cameraPosType": "RELATIVE_TO_MULTI_TARGET_ENTITY",
        "camTargetType": "RELATIVE_TO_MULTI_TARGET_ENTITY",
        "camFov": 30.0,
        "lerpPattern": 6,
        "cameraBlendType": "EaseInOutCubic",
        "NJBNNOMLKCK": {},
        "openCameraDither": false,
        "targetNpcAlias": "504",
        "closeTreeLeafDither": true,
        "multiTargetNpcAliasArray": [
          "504",
          "3106"
        ],
        "KJOEFBPOIIH": "",
        "IICFKKEBIEC": "",
        "EGEHEJEBLBJ": ""
      },
      {
        "$type": "LJLMDHDCAMK",
        "type": "LOOK_AT",
        "delayTime": 0.6000000238418579,
        "aliasList": [
          "3106"
        ],
        "actionId": 187,
        "_flag": 64,
        "enableHead": true,
        "headTurnTime": 0.5,
        "targetNpcAlias": "",
        "lookAtTargetType": "CAMERA",
        "targetNpcLookAtPoint": "",
        "OAFJBHJHLJG": ""
      },
      {
        "$type": "MoleMole.Config.ConfigTeleportToAction",
        "type": "TELEPORT_TO",
        "delayTime": 1.0,
        "aliasList": [
          "3106"
        ],
        "actionId": 174,
        "position": {
          "x": -2800.56005859375,
          "y": 222.58900451660156,
          "z": -4446.27099609375
        },
        "forward": {
          "x": -0.8370000123977661,
          "z": 0.546999990940094
        },
        "_posBindMovingTargetKey": "",
        "_forwardBindMovingTargetKey": ""
      },
      {
        "$type": "FJKIHHKJLMJ",
        "type": "CAMERA_MOVE",
        "delayTime": 2.0,
        "duration": 1.0,
        "actionId": 156,
        "cameraPosType": "RELATIVE_TO_TARGET_ENTITY",
        "camTargetType": "RELATIVE_TO_TARGET_ENTITY",
        "camFov": 30.0,
        "lerpPattern": 6,
        "cameraBlendType": "EaseInOutCubic",
        "NJBNNOMLKCK": {},
        "openCameraDither": false,
        "targetNpcAlias": "3106",
        "closeTreeLeafDither": true,
        "KJOEFBPOIIH": "",
        "IICFKKEBIEC": "",
        "EGEHEJEBLBJ": ""
      }
    ],
    [
      {
        "$type": "FJKIHHKJLMJ",
        "type": "CAMERA_MOVE",
        "duration": 1.0,
        "actionId": 151,
        "cameraPosType": "RELATIVE_TO_TARGET_ENTITY",
        "camTargetType": "RELATIVE_TO_TARGET_ENTITY",
        "camFov": 30.0,
        "lerpPattern": 6,
        "cameraBlendType": "EaseInOutCubic",
        "NJBNNOMLKCK": {},
        "openCameraDither": false,
        "targetNpcAlias": "3106",
        "closeTreeLeafDither": true,
        "KJOEFBPOIIH": "",
        "IICFKKEBIEC": "",
        "EGEHEJEBLBJ": ""
      },
      {
        "$type": "PKKMAMONGEO",
        "type": "DIALOG",
        "aliasList": [
          "3106"
        ],
        "actionId": 139,
        "dialogID": 190150113,
        "protectTime": 0.5
      },
      {
        "$type": "CPJKOIHIPBE",
        "type": "EMO_SYNC",
        "aliasList": [
          "3106"
        ],
        "actionId": 171,
        "_flag": 256,
        "dataPath": "Cs_Emo_Avatar_Simple_Common_Set/Cs_Emo_Avatar_Talk/Cs_Emo_Coop_Common/Cs_Emo_Coop_Sayu_01/Cs_Emo_190150113",
        "phonemePath": "",
        "emotionPath": "",
        "mateDataPath": "",
        "matePhonemePath": "",
        "mateEmotionPath": "",
        "dataPathHashList": [
          13164049674173883323,
          16466538794651549448,
          8622981387670282606,
          7938599012659892608
        ],
        "FMDPBECPELH": "",
        "ADKBLPOKGIK": ""
      }
    ],
    [
      {
        "$type": "PKKMAMONGEO",
        "type": "DIALOG",
        "aliasList": [
          "3106"
        ],
        "actionId": 141,
        "dialogID": 190150114,
        "protectTime": 0.5
      },
      {
        "$type": "CPJKOIHIPBE",
        "type": "EMO_SYNC",
        "aliasList": [
          "3106"
        ],
        "actionId": 172,
        "_flag": 320,
        "dataPath": "Cs_Emo_Avatar_Simple_Common_Set/Cs_Emo_Avatar_Talk/Cs_Emo_Coop_Common/Cs_Emo_Coop_Sayu_01/Cs_Emo_190150114",
        "phonemePath": "",
        "emotionPath": "",
        "mateDataPath": "",
        "matePhonemePath": "",
        "mateEmotionPath": "",
        "dataPathHashList": [
          9700955875167965048,
          14937310412412151661,
          14916718907256532235,
          8288184214749790176
        ],
        "FMDPBECPELH": "",
        "ADKBLPOKGIK": ""
      }
    ],
    [
      {
        "$type": "MoleMole.Config.ConfigSimpleBlackScreenAction",
        "type": "SIMPLE_BLACK_SCREEN",
        "actionId": 104,
        "durationToBlack": 0.5,
        "durationKeepBlack": 1.0,
        "durationFromBlack": 0.5,
        "textMapID": ""
      },
      {
        "$type": "PKKMAMONGEO",
        "type": "DIALOG_CLEAR",
        "actionId": 105,
        "dialogID": 190150114
      },
      {
        "$type": "MoleMole.Config.ConfigTimeProtectAction",
        "type": "TIME_PROTECT",
        "duration": 0.699999988079071,
        "actionId": 184
      },
      {
        "$type": "FJKIHHKJLMJ",
        "type": "CAMERA_MOVE",
        "delayTime": 0.6000000238418579,
        "duration": 0.10000000149011612,
        "actionId": 198,
        "camPosOffset": {
          "x": -2806.342041015625,
          "y": 223.46200561523438,
          "z": -4442.86279296875
        },
        "camForwardTargetOffset": {
          "x": -2805.48095703125,
          "y": 223.4340057373047,
          "z": -4443.3701171875
        },
        "lerpPattern": 6,
        "cameraBlendType": "EaseInOutCubic",
        "NJBNNOMLKCK": {},
        "openCameraDither": false,
        "targetNpcAlias": "",
        "closeTreeLeafDither": true,
        "KJOEFBPOIIH": "",
        "IICFKKEBIEC": "",
        "EGEHEJEBLBJ": ""
      },
      {
        "$type": "MoleMole.Config.ConfigVisibleInterAction",
        "type": "VISIBLE",
        "delayTime": 0.6000000238418579,
        "aliasList": [
          "Avatar"
        ],
        "actionId": 107,
        "isVisible": true,
        "_extraParam": ""
      },
      {
        "$type": "MoleMole.Config.ConfigTeleportToAction",
        "type": "TELEPORT_TO",
        "delayTime": 0.6000000238418579,
        "aliasList": [
          "Avatar"
        ],
        "actionId": 199,
        "position": {
          "x": -2803.200927734375,
          "y": 222.70199584960938,
          "z": -4444.77587890625
        },
        "forward": {
          "x": 0.8730000257492065,
          "y": -0.05900000035762787,
          "z": -0.49900001287460327
        },
        "_posBindMovingTargetKey": "",
        "_forwardBindMovingTargetKey": ""
      },
      {
        "$type": "MoleMole.Config.ConfigVisibleInterAction",
        "type": "VISIBLE",
        "delayTime": 0.6000000238418579,
        "aliasList": [
          "504"
        ],
        "actionId": 192,
        "_extraParam": ""
      },
      {
        "$type": "MoleMole.Config.ConfigVisibleInterAction",
        "type": "VISIBLE",
        "delayTime": 0.6000000238418579,
        "aliasList": [
          "3106"
        ],
        "actionId": 191,
        "_extraParam": ""
      }
    ],
    [
      {
        "$type": "MoleMole.Config.ConfigVisibleInterAction",
        "type": "VISIBLE",
        "aliasList": [
          "3106"
        ],
        "actionId": 362,
        "_actionTagList": [
          "TalkSkip"
        ],
        "_extraParam": ""
      },
      {
        "$type": "MoleMole.Config.ConfigCameraDOFAction",
        "type": "CAMERA_DOF",
        "actionId": 355,
        "_actionTagList": [
          "TalkSkip"
        ],
        "focusDistance": 6.0,
        "focusRange": 6.0,
        "quality": 3
      },
      {
        "$type": "MoleMole.Config.ConfigBlackScreenAction",
        "type": "BLACK_SCREEN",
        "duration": 0.10000000149011612,
        "actionId": 356,
        "_flag": 2048,
        "_actionTagList": [
          "TalkSkip"
        ],
        "blackScreenType": "FROM_BLACK",
        "durationToBlack": 0.10000000149011612,
        "durationKeepBlack": 0.10000000149011612,
        "durationFromBlack": 0.10000000149011612,
        "inteePos": "",
        "textMapID": "",
        "showClickBtnDelayTime": 0.5,
        "waitClickBtnTipTime": 0.5
      },
      {
        "$type": "LJLMDHDCAMK",
        "type": "LOOK_AT",
        "aliasList": [
          "3106"
        ],
        "actionId": 358,
        "_flag": 64,
        "_actionTagList": [
          "TalkSkip"
        ],
        "enableHead": true,
        "headTurnTime": 0.5,
        "targetNpcAlias": "",
        "lookAtTargetType": "CAMERA",
        "targetNpcLookAtPoint": "",
        "OAFJBHJHLJG": ""
      },
      {
        "$type": "MoleMole.Config.ConfigTeleportToAction",
        "type": "TELEPORT_TO",
        "aliasList": [
          "Avatar"
        ],
        "actionId": 348,
        "_actionTagList": [
          "TalkSkip"
        ],
        "position": {
          "x": -2803.200927734375,
          "y": 222.70199584960938,
          "z": -4444.77587890625
        },
        "forward": {
          "x": 0.8730000257492065,
          "y": -0.05900000035762787,
          "z": -0.49900001287460327
        },
        "openLongDisTeleport": true,
        "syncForward": true,
        "_posBindMovingTargetKey": "",
        "_forwardBindMovingTargetKey": ""
      },
      {
        "$type": "MoleMole.Config.ConfigVisibleInterAction",
        "type": "VISIBLE",
        "aliasList": [
          "Avatar"
        ],
        "actionId": 363,
        "_actionTagList": [
          "TalkSkip"
        ],
        "isVisible": true,
        "_extraParam": ""
      },
      {
        "$type": "MoleMole.Config.ConfigTeleportToAction",
        "type": "TELEPORT_TO",
        "aliasList": [
          "504"
        ],
        "actionId": 346,
        "_actionTagList": [
          "TalkSkip"
        ],
        "position": {
          "x": -2801.469970703125,
          "y": 222.61700439453125,
          "z": -4443.9638671875
        },
        "forward": {
          "x": -1.3760000467300415,
          "y": -0.010999999940395355,
          "z": -0.6880000233650208
        },
        "openLongDisTeleport": true,
        "syncForward": true,
        "_posBindMovingTargetKey": "",
        "_forwardBindMovingTargetKey": ""
      },
      {
        "$type": "PKKMAMONGEO",
        "type": "DIALOG",
        "aliasList": [
          "3106"
        ],
        "actionId": 354,
        "_actionTagList": [
          "TalkSkip"
        ],
        "dialogID": 190150114,
        "protectTime": 0.5
      },
      {
        "$type": "EMEHNEMOMMM",
        "type": "LOOK_AT_EYECTRL",
        "aliasList": [
          "3106"
        ],
        "actionId": 360,
        "_flag": 4672,
        "_actionTagList": [
          "TalkSkip"
        ],
        "useTargetPos": false,
        "eyeRotateVecLeft": {
          "z": 5.0
        },
        "eyeRotateVecRight": {
          "z": 5.0
        },
        "turnTime": 1.0,
        "targetNpcAlias": "",
        "targetPoint": "Face"
      },
      {
        "$type": "LJLMDHDCAMK",
        "type": "LOOK_AT",
        "aliasList": [
          "504"
        ],
        "actionId": 357,
        "_flag": 64,
        "_actionTagList": [
          "TalkSkip"
        ],
        "enableHead": true,
        "headTurnTime": 0.5,
        "targetNpcAlias": "",
        "lookAtTargetType": "NONE",
        "targetNpcLookAtPoint": "",
        "OAFJBHJHLJG": ""
      },
      {
        "$type": "EMEHNEMOMMM",
        "type": "LOOK_AT_EYECTRL",
        "aliasList": [
          "504"
        ],
        "actionId": 359,
        "_flag": 4672,
        "_actionTagList": [
          "TalkSkip"
        ],
        "useTargetPos": false,
        "turnTime": 0.8500000238418579,
        "targetNpcAlias": "",
        "targetPoint": "Face"
      },
      {
        "$type": "MoleMole.Config.ConfigVisibleInterAction",
        "type": "VISIBLE",
        "aliasList": [
          "504"
        ],
        "actionId": 361,
        "_actionTagList": [
          "TalkSkip"
        ],
        "_extraParam": ""
      },
      {
        "$type": "MoleMole.Config.ConfigTeleportToAction",
        "type": "TELEPORT_TO",
        "aliasList": [
          "3106"
        ],
        "actionId": 347,
        "_actionTagList": [
          "TalkSkip"
        ],
        "position": {
          "x": -2800.56005859375,
          "y": 222.58900451660156,
          "z": -4446.27099609375
        },
        "forward": {
          "x": -0.8370000123977661,
          "z": 0.546999990940094
        },
        "openLongDisTeleport": true,
        "syncForward": true,
        "_posBindMovingTargetKey": "",
        "_forwardBindMovingTargetKey": ""
      },
      {
        "$type": "CPJKOIHIPBE",
        "type": "EMO_SYNC",
        "delayTime": 0.5,
        "aliasList": [
          "3106"
        ],
        "actionId": 351,
        "_flag": 256,
        "_actionTagList": [
          "TalkSkip"
        ],
        "dataPath": "Cs_Emo_Avatar_Simple_Common_Set/Cs_Emo_Avatar_Talk/Cs_Emo_Coop_Common/Cs_Emo_Coop_Sayu_01/Cs_Emo_190150114",
        "phonemePath": "",
        "emotionPath": "",
        "mateDataPath": "",
        "matePhonemePath": "",
        "mateEmotionPath": "",
        "dataPathHashList": [
          9700955875167965048,
          14937310412412151661,
          14916718907256532235,
          8288184214749790176
        ],
        "FMDPBECPELH": "",
        "ADKBLPOKGIK": ""
      },
      {
        "$type": "FJKIHHKJLMJ",
        "type": "CAMERA_MOVE",
        "delayTime": 0.5,
        "duration": 0.10000000149011612,
        "actionId": 353,
        "_actionTagList": [
          "TalkSkip"
        ],
        "camPosOffset": {
          "x": -2806.342041015625,
          "y": 223.46200561523438,
          "z": -4442.86279296875
        },
        "camForwardTargetOffset": {
          "x": -2805.48095703125,
          "y": 223.4340057373047,
          "z": -4443.3701171875
        },
        "lerpPattern": 6,
        "cameraBlendType": "EaseInOutCubic",
        "NJBNNOMLKCK": {},
        "openCameraDither": false,
        "targetNpcAlias": "",
        "closeTreeLeafDither": true,
        "KJOEFBPOIIH": "",
        "IICFKKEBIEC": "",
        "EGEHEJEBLBJ": ""
      },
      {
        "$type": "CPJKOIHIPBE",
        "type": "EMO_SYNC",
        "delayTime": 0.5,
        "aliasList": [
          "504"
        ],
        "actionId": 349,
        "_flag": 256,
        "_actionTagList": [
          "TalkSkip"
        ],
        "dataPath": "Cs_Emo_Avatar_Simple_Common_Set/Cs_Emo_Avatar_Talk/Cs_Emo_Coop_Common/Cs_Emo_Coop_Avatar/Sayu/Cs_Emo_Avatar_Coop_Standby",
        "phonemePath": "",
        "emotionPath": "",
        "mateDataPath": "",
        "matePhonemePath": "",
        "mateEmotionPath": "",
        "dataPathHashList": [
          9484543985545088111,
          3290360141728602384,
          9116787114318128831,
          2762059533199071695
        ],
        "FMDPBECPELH": "",
        "ADKBLPOKGIK": ""
      },
      {
        "$type": "CPJKOIHIPBE",
        "type": "EMO_SYNC",
        "delayTime": 1.0,
        "aliasList": [
          "504"
        ],
        "actionId": 350,
        "_flag": 256,
        "_actionTagList": [
          "TalkSkip"
        ],
        "dataPath": "Cs_Emo_Avatar_Simple_Common_Set/Cs_Emo_Avatar_Talk/Cs_Emo_Coop_Common/Cs_Emo_Coop_Sayu_01/Cs_Emo_190150112",
        "phonemePath": "",
        "emotionPath": "",
        "mateDataPath": "",
        "matePhonemePath": "",
        "mateEmotionPath": "",
        "dataPathHashList": [
          6133742993139671112,
          6113388388048138609,
          9877029594824506404,
          7452236331839247613
        ],
        "FMDPBECPELH": "",
        "ADKBLPOKGIK": ""
      },
      {
        "$type": "MoleMole.Config.ConfigSimpleBlackScreenAction",
        "type": "SIMPLE_BLACK_SCREEN",
        "delayTime": 1.5,
        "actionId": 364,
        "_actionTagList": [
          "TalkSkip"
        ],
        "durationToBlack": 0.5,
        "durationKeepBlack": 1.0,
        "durationFromBlack": 0.5,
        "textMapID": ""
      },
      {
        "$type": "FABLGECDBCH",
        "type": "BODY_LANG",
        "delayTime": 1.5,
        "aliasList": [
          "504"
        ],
        "actionId": 352,
        "_actionTagList": [
          "TalkSkip"
        ],
        "bodyLangParam": 10100,
        "forceDoFreeStyle": true,
        "canDoRepeatFreeStyle": false,
        "cantBackToIdleWhenSitLoop": true,
        "eventPatternSuiteKey": "",
        "FOHHKFAIAAJ": ""
      }
    ]
  ],
  "groupId": [
    {
      "grpId": 3144994328,
      "nextGrpId": 3144994329,
      "_noCircleNextGrpId": 3144994329
    },
    {
      "index": 1,
      "grpId": 3144994329,
      "nextGrpId": 3144994330,
      "_noCircleNextGrpId": 3144994330
    },
    {
      "index": 2,
      "grpId": 3144994330,
      "nextGrpId": 3144994331,
      "_noCircleNextGrpId": 3144994331
    },
    {
      "index": 3,
      "grpId": 3144994331,
      "nextGrpId": 3144994332,
      "_noCircleNextGrpId": 3144994332
    },
    {
      "index": 4,
      "grpId": 3144994332,
      "nextGrpId": 3144994333,
      "_noCircleNextGrpId": 3144994333
    },
    {
      "index": 5,
      "grpId": 3144994333,
      "nextGrpId": 3144994334,
      "_noCircleNextGrpId": 3144994334
    },
    {
      "index": 6,
      "grpId": 3144994334,
      "nextGrpId": 3144994335,
      "_noCircleNextGrpId": 3144994335
    },
    {
      "index": 7,
      "grpId": 3144994335,
      "nextGrpId": 3144994336,
      "_noCircleNextGrpId": 3144994336
    },
    {
      "index": 8,
      "grpId": 3144994336,
      "nextGrpId": 3005543704,
      "_noCircleNextGrpId": 3005543704
    },
    {
      "index": 9,
      "grpId": 3005543704,
      "nextGrpId": 3005543705,
      "_noCircleNextGrpId": 3005543705
    },
    {
      "index": 10,
      "grpId": 3005543705,
      "nextGrpId": 3005543706,
      "_noCircleNextGrpId": 3005543706
    },
    {
      "index": 11,
      "grpId": 3005543706,
      "nextGrpId": 3005543707,
      "_noCircleNextGrpId": 3005543707
    },
    {
      "index": 12,
      "grpId": 3005543707,
      "nextGrpId": 3005543708,
      "_noCircleNextGrpId": 3005543708
    },
    {
      "index": 13,
      "grpId": 3005543708,
      "nextGrpId": 3005543709,
      "_noCircleNextGrpId": 3005543709
    },
    {
      "index": 14,
      "grpId": 3005543709,
      "nextGrpId": 3005543710,
      "_noCircleNextGrpId": 3005543710
    },
    {
      "index": 15,
      "grpId": 3005543710,
      "nextGrpId": 3005543711,
      "_noCircleNextGrpId": 3005543711
    },
    {
      "index": 16,
      "grpId": 3005543711,
      "nextGrpId": 3005543712,
      "_noCircleNextGrpId": 3005543712
    },
    {
      "index": 17,
      "grpId": 3005543712,
      "nextGrpId": 3005543713,
      "_noCircleNextGrpId": 3005543713
    }
  ],
  "freeStyleDic": {
    "504": [
      10100,
      10101,
      10701
    ],
    "3106": []
  },
  "EKFBDAIDEEF": {
    "504": [
      "SitHoldArm01AS"
    ]
  },
  "GBPIKOLLKJH": {
    "KGFBJNAEBHO": "",
    "ADMLEHAKCPC": ""
  },
  "NPFDEBDMHJP": 3005543712,
  "KEAMPHGKKAG": {
    "ANJBPLIOPCP": ""
  }
}