{
  "freeStyleStateMap": {
    "1121": [
      "Ani_NPC_Female_HoldArmHand01BS_0",
      "Ani_NPC_Female_HoldArmHand01Loop_0",
      "Ani_NPC_Female_HoldArmHand01AS_0",
      "Ani_NPC_Female_HoldArm01Loop_0",
      "Ani_NPC_Female_HoldArm01AS_0"
    ],
    "1231": [
      "Ani_NPC_Female_AkimboHand01BS_0",
      "Ani_NPC_Female_AkimboHand01Loop_0",
      "Ani_NPC_Female_AkimboHand01AS_0",
      "Ani_NPC_Female_Akimbo01Loop_0",
      "Ani_NPC_Female_Akimbo01AS_0"
    ],
    "8040": [
      "Ani_NPC_Female_SitHoldArm01BS_0",
      "Ani_NPC_Female_SitHoldArm01Loop_0",
      "Ani_NPC_Female_SitHoldArm01AS_0"
    ],
    "8060": [
      "Ani_NPC_Female_SitPutArm01BS_0",
      "Ani_NPC_Female_SitPutArm01Loop_0",
      "Ani_NPC_Female_SitPutArm01AS_0"
    ],
    "8068": [
      "Ani_NPC_Female_SitRaiseHand01BS_0",
      "Ani_NPC_Female_SitRaiseHand01Loop_0",
      "Ani_NPC_Female_SitRaiseHand01AS_0"
    ],
    "8061": [
      "Ani_NPC_Female_SitCrouch01BS_0",
      "Ani_NPC_Female_SitCrouch01Loop_0",
      "Ani_NPC_Female_SitCrouch01AS_0",
      "Ani_NPC_Female_SitPutArm01Loop_0",
      "Ani_NPC_Female_SitPutArm01AS_0"
    ],
    "8062": [
      "Ani_NPC_Female_SitWrite01Cycle_0",
      "Ani_NPC_Female_SitPutArm01Loop_0",
      "Ani_NPC_Female_SitPutArm01AS_0"
    ],
    "8063": [
      "Ani_NPC_Female_SitEat01_0",
      "Ani_NPC_Female_SitPutArm01Loop_0",
      "Ani_NPC_Female_SitPutArm01AS_0"
    ],
    "8064": [
      "Ani_NPC_Female_SitDrink01_0",
      "Ani_NPC_Female_SitPutArm01Loop_0",
      "Ani_NPC_Female_SitPutArm01AS_0"
    ],
    "806401": [
      "Ani_NPC_Female_SitDrink01_0",
      "Ani_NPC_Female_SitPutArm01Loop_0",
      "Ani_NPC_Female_SitPutArm01AS_0"
    ],
    "4251": [
      "Ani_NPC_Female_Sweep01BS_0",
      "Ani_NPC_Female_Sweep01Loop_0",
      "Ani_NPC_Female_Sweep01AS_0",
      "Ani_NPC_Female_SweepIdle01_0"
    ],
    "4414": [
      "Ani_NPC_Female_PlayGuitar01BS_0",
      "Ani_NPC_Female_PlayGuitar01Loop_0",
      "Ani_NPC_Female_PlayGuitar01AS_0",
      "Ani_NPC_Female_GuitarIdle01_0"
    ],
    "4093": [
      "Ani_NPC_Female_PlayUkulele01Loop_0",
      "Ani_NPC_Female_PlayUkulele01AS_0"
    ],
    "1130": [
      "Ani_NPC_Female_StrikeChest01BS_0",
      "Ani_NPC_Female_StrikeChest01Loop_0",
      "Ani_NPC_Female_StrikeChest01AS_0"
    ],
    "1030": [
      "Ani_NPC_Female_PutHand01BS_0",
      "Ani_NPC_Female_PutHand01Loop_0",
      "Ani_NPC_Female_PutHand01AS_0"
    ],
    "1070": [
      "Ani_NPC_Female_Afraid01BS_0",
      "Ani_NPC_Female_Afraid01Loop_0",
      "Ani_NPC_Female_Afraid01AS_0"
    ],
    "1090": [
      "Ani_NPC_Female_Shy01BS_0",
      "Ani_NPC_Female_Shy01Loop_0",
      "Ani_NPC_Female_Shy01AS_0"
    ],
    "1110": [
      "Ani_NPC_Female_Shrug01BS_0",
      "Ani_NPC_Female_Shrug01Loop_0",
      "Ani_NPC_Female_Shrug01AS_0"
    ],
    "1120": [
      "Ani_NPC_Female_HoldArm01BS_0",
      "Ani_NPC_Female_HoldArm01Loop_0",
      "Ani_NPC_Female_HoldArm01AS_0"
    ],
    "1150": [
      "Ani_NPC_Female_Refuse01_0"
    ],
    "1170": [
      "Ani_NPC_Female_Chat01BS_0",
      "Ani_NPC_Female_Chat01Loop_0",
      "Ani_NPC_Female_Chat01AS_0"
    ],
    "1180": [
      "Ani_NPC_Female_Chat02BS_0",
      "Ani_NPC_Female_Chat02Loop_0",
      "Ani_NPC_Female_Chat02AS_0"
    ],
    "1190": [
      "Ani_NPC_Female_Think01BS_0",
      "Ani_NPC_Female_Think01Loop_0",
      "Ani_NPC_Female_Think01AS_0"
    ],
    "1200": [
      "Ani_NPC_Female_Greet01_0"
    ],
    "1230": [
      "Ani_NPC_Female_Akimbo01BS_0",
      "Ani_NPC_Female_Akimbo01Loop_0",
      "Ani_NPC_Female_Akimbo01AS_0"
    ],
    "1240": [
      "Ani_NPC_Female_HoldHead01BS_0",
      "Ani_NPC_Female_HoldHead01Loop_0",
      "Ani_NPC_Female_HoldHead01AS_0"
    ],
    "1040": [
      "Ani_NPC_Female_Backrake01BS_0",
      "Ani_NPC_Female_Backrake01Loop_0",
      "Ani_NPC_Female_Backrake01AS_0"
    ],
    "1060": [
      "Ani_NPC_Female_Forerake01BS_0",
      "Ani_NPC_Female_Forerake01Loop_0",
      "Ani_NPC_Female_Forerake01AS_0"
    ],
    "1160": [
      "Ani_NPC_Female_Downcast01BS_0",
      "Ani_NPC_Female_Downcast01Loop_0",
      "Ani_NPC_Female_Downcast01AS_0"
    ],
    "1250": [
      "Ani_NPC_Female_Request01BS_0",
      "Ani_NPC_Female_Request01Loop_0",
      "Ani_NPC_Female_Request01AS_0"
    ],
    "1260": [
      "Ani_NPC_Female_Clap01_0"
    ],
    "1270": [
      "Ani_NPC_Female_Cheer01BS_0",
      "Ani_NPC_Female_Cheer01Loop_0",
      "Ani_NPC_Female_Cheer01AS_0"
    ],
    "1280": [
      "Ani_NPC_Female_Investigate01BS_0",
      "Ani_NPC_Female_Investigate01Loop_0",
      "Ani_NPC_Female_Investigate01AS_0"
    ],
    "1140": [
      "Ani_NPC_Female_PointR01BS_0",
      "Ani_NPC_Female_PointR01Loop_0",
      "Ani_NPC_Female_PointR01AS_0"
    ],
    "4010": [
      "Ani_NPC_Female_Shout01BS_0",
      "Ani_NPC_Female_Shout01Loop_0",
      "Ani_NPC_Female_Shout01AS_0"
    ],
    "4120": [
      "Ani_NPC_Female_LieSide01Cycle_0"
    ],
    "4100": [
      "Ani_NPC_Female_SitOnFloor01Cycle_0"
    ],
    "4110": [
      "Ani_NPC_Female_SitOnFloor02Cycle_0"
    ],
    "1290": [
      "Ani_NPC_Female_Laugh01_0"
    ],
    "1300": [
      "Ani_NPC_Female_Encourage01_0"
    ],
    "4020": [
      "Ani_NPC_Female_Eat01_0"
    ],
    "1171": [
      "Ani_NPC_Female_Talk01_0"
    ],
    "1172": [
      "Ani_NPC_Female_Talk02_0"
    ],
    "1173": [
      "Ani_NPC_Female_Talk03_0"
    ],
    "4000": [
      "Ani_NPC_Female_Pray01BS_0",
      "Ani_NPC_Female_Pray01Loop_0",
      "Ani_NPC_Female_Pray01AS_0"
    ],
    "4050": [
      "Ani_NPC_Female_StandbySword01BS_0",
      "Ani_NPC_Female_StandbySword01Loop_0",
      "Ani_NPC_Female_StandbySword01AS_0"
    ],
    "4060": [
      "Ani_NPC_Female_StandbyBow01BS_0",
      "Ani_NPC_Female_StandbyBow01Loop_0",
      "Ani_NPC_Female_StandbyBow01AS_0"
    ],
    "1050": [
      "Ani_NPC_Female_Confuse01BS_0",
      "Ani_NPC_Female_Confuse01Loop_0",
      "Ani_NPC_Female_Confuse01AS_0"
    ],
    "4180": [
      "Ani_NPC_Female_Frightened01_0"
    ],
    "4190": [
      "Ani_NPC_Female_Frightened02_0"
    ],
    "1141": [
      "Ani_NPC_Female_PointF01BS_0",
      "Ani_NPC_Female_PointF01Loop_0",
      "Ani_NPC_Female_PointF01AS_0"
    ],
    "1210": [
      "Ani_NPC_Female_SaluteMengde01BS_0",
      "Ani_NPC_Female_SaluteMengde01Loop_0",
      "Ani_NPC_Female_SaluteMengde01AS_0"
    ],
    "8010": [],
    "8020": [],
    "8073": [
      "Ani_NPC_Female_DrinkToComplain_0"
    ],
    "4150": [
      "Ani_NPC_Female_FountainPray_0"
    ],
    "4200": [
      "Ani_NPC_Female_Cold01_0"
    ],
    "4210": [
      "Ani_NPC_Female_Greet02_0"
    ],
    "4220": [
      "Ani_NPC_Female_Fishing01Cycle_0"
    ],
    "1320": [
      "Ani_NPC_Female_Handle01BS_0",
      "Ani_NPC_Female_Handle01Loop_0",
      "Ani_NPC_Female_Handle01AS_0"
    ],
    "4250": [
      "Ani_NPC_Female_SweepIdle01_0"
    ],
    "4260": [
      "Ani_NPC_Female_Arrange01BS_0",
      "Ani_NPC_Female_Arrange01Loop_0",
      "Ani_NPC_Female_Arrange01AS_0"
    ],
    "4270": [
      "Ani_NPC_Female_Splash01BS_0",
      "Ani_NPC_Female_Splash01Loop_0",
      "Ani_NPC_Female_Splash01AS_0"
    ],
    "4090": [
      "Ani_NPC_Female_PlayAndSing01BS_0",
      "Ani_NPC_Female_PlayAndSing01Loop_0",
      "Ani_NPC_Female_PlayAndSing01AS_0"
    ],
    "4140": [
      "Ani_NPC_Female_WaitressIdle_0"
    ],
    "1080": [
      "Ani_NPC_Female_Alert01BS_0",
      "Ani_NPC_Female_Alert01Loop_0",
      "Ani_NPC_Female_Alert01AS_0"
    ],
    "1281": [
      "Ani_NPC_Female_Investigate01AS_0"
    ],
    "4400": [
      "Ani_NPC_Female_SumeruGreet01_0"
    ],
    "4411": [
      "Ani_NPC_Female_CrossLegPlayOud01_0"
    ],
    "4401": [
      "Ani_NPC_Female_Watering01Cycle_0"
    ],
    "4402": [
      "Ani_NPC_Female_Dance01_0"
    ],
    "4403": [
      "Ani_NPC_Female_Dance02_0"
    ],
    "4404": [
      "Ani_NPC_Female_Dance03_0"
    ],
    "4121": [
      "Ani_NPC_Female_LieOnGround01Cycle_0"
    ],
    "807301": [
      "Ani_NPC_Female_DrinkToComplain_0"
    ],
    "4091": [
      "Ani_NPC_Female_PlayUkulele01BS_0",
      "Ani_NPC_Female_PlayUkulele01Loop_0",
      "Ani_NPC_Female_PlayUkulele01AS_0"
    ],
    "1211": [
      "Ani_NPC_Female_SaluteFontaine01BS_0",
      "Ani_NPC_Female_SaluteFontaine01Loop_0",
      "Ani_NPC_Female_SaluteFontaine01AS_0"
    ],
    "4420": [
      "Ani_NPC_Female_FontaineGreet01_0"
    ],
    "4221": [
      "Ani_NPC_Female_Interview01BS_0",
      "Ani_NPC_Female_Interview01Loop_0",
      "Ani_NPC_Female_Interview01AS_0"
    ],
    "4222": [
      "Ani_NPC_Female_Telescope01BS_0",
      "Ani_NPC_Female_Telescope01Loop_0",
      "Ani_NPC_Female_Telescope01AS_0"
    ],
    "1350": [
      "Ani_NPC_Female_Magic01BS_0",
      "Ani_NPC_Female_Magic01Loop_0",
      "Ani_NPC_Female_Magic01AS_0"
    ],
    "4223": [
      "Ani_NPC_Female_TeaPicking01BS_0",
      "Ani_NPC_Female_TeaPicking01Loop_0",
      "Ani_NPC_Female_TeaPicking01AS_0"
    ],
    "4440": [
      "Ani_NPC_Female_BattleRest01_0"
    ],
    "4441": [
      "Ani_NPC_Female_BattleRest02BS_0",
      "Ani_NPC_Female_BattleRest02Loop_0",
      "Ani_NPC_Female_BattleRest02AS_0"
    ],
    "4413": [
      "Ani_NPC_Female_GuitarIdle01_0"
    ],
    "4445": [
      "Ani_NPC_Female_Sway01_0"
    ],
    "4446": [
      "Ani_NPC_Female_Sway02_0"
    ],
    "4092": [
      "Ani_NPC_Female_UkuleleIdle01_0"
    ],
    "4442": [
      "Ani_NPC_Female_DanceBattle01Forward_0",
      "Ani_NPC_Female_DanceBattle01BS_0",
      "Ani_NPC_Female_DanceBattle01_0",
      "Ani_NPC_Female_DanceBattle01Back_0"
    ],
    "4443": [
      "Ani_NPC_Female_DanceBattle01Forward_0",
      "Ani_NPC_Female_DanceBattle01BS_0",
      "Ani_NPC_Female_DanceBattle02_0",
      "Ani_NPC_Female_DanceBattle01Back_0"
    ],
    "4444": [
      "Ani_NPC_Female_DanceBattle01Forward_0",
      "Ani_NPC_Female_DanceBattle01BS_0",
      "Ani_NPC_Female_DanceBattle03_0",
      "Ani_NPC_Female_DanceBattle01Back_0"
    ],
    "4450": [
      "Ani_NPC_Female_Painting01BS_0",
      "Ani_NPC_Female_Painting01Loop_0",
      "Ani_NPC_Female_Painting01AS_0"
    ],
    "1122": [
      "Ani_NPC_Female_HoldArm02BS_0",
      "Ani_NPC_Female_HoldArm02Loop_0",
      "Ani_NPC_Female_HoldArm02AS_0"
    ],
    "4300": [
      "Ani_NPC_Female_LeanOnWall01_0"
    ],
    "4460": [
      "Ani_NPC_Female_PlayWithNatsaurus01_0"
    ],
    "1282": [
      "Ani_NPC_Female_Squat01BS_0",
      "Ani_NPC_Female_Squat01Loop_0",
      "Ani_NPC_Female_Squat01AS_0"
    ],
    "1283": [
      "Ani_NPC_Female_Squat02BS_0",
      "Ani_NPC_Female_Squat02Loop_0",
      "Ani_NPC_Female_Squat02AS_0"
    ],
    "4447": [
      "Ani_NPC_Female_DanceBattle01BS_0",
      "Ani_NPC_Female_DanceBattle01_0"
    ],
    "4448": [
      "Ani_NPC_Female_DanceBattle01BS_0",
      "Ani_NPC_Female_DanceBattle02_0"
    ],
    "4449": [
      "Ani_NPC_Female_DanceBattle01BS_0",
      "Ani_NPC_Female_DanceBattle03_0"
    ],
    "4451": [
      "Ani_NPC_Female_Sacrifice01BS_0",
      "Ani_NPC_Female_Sacrifice01Loop_0",
      "Ani_NPC_Female_Sacrifice01AS_0"
    ],
    "4452": [
      "Ani_NPC_Female_Sacrifice01BS_0",
      "Ani_NPC_Female_Sacrifice02_0",
      "Ani_NPC_Female_Sacrifice01AS_0"
    ]
  },
  "stateAnimeMap": {
    "Ani_NPC_Female_StrikeChest01BS_0": 6738053191755963639,
    "Ani_NPC_Female_StrikeChest01Loop_0": 13388776770387253719,
    "Ani_NPC_Female_StrikeChest01AS_0": 9656934005748826742,
    "Ani_NPC_Female_PutHand01BS_0": 6105072787305103456,
    "Ani_NPC_Female_PutHand01Loop_0": 14329322521613550152,
    "Ani_NPC_Female_PutHand01AS_0": 1846139794817648059,
    "Ani_NPC_Female_Afraid01BS_0": 14746441980632483587,
    "Ani_NPC_Female_Afraid01Loop_0": 9472572139754842516,
    "Ani_NPC_Female_Afraid01AS_0": 15607802512314724649,
    "Ani_NPC_Female_Shy01BS_0": 1327196993249771215,
    "Ani_NPC_Female_Shy01Loop_0": 3622223531595956208,
    "Ani_NPC_Female_Shy01AS_0": 7229275687186349797,
    "Ani_NPC_Female_Shrug01BS_0": 16328799621963859892,
    "Ani_NPC_Female_Shrug01Loop_0": 9674850908269309352,
    "Ani_NPC_Female_Shrug01AS_0": 12310566051352601644,
    "Ani_NPC_Female_HoldArm01BS_0": 2135376028995263326,
    "Ani_NPC_Female_HoldArm01Loop_0": 14446573672999758215,
    "Ani_NPC_Female_HoldArm01AS_0": 10289561522749771844,
    "Ani_NPC_Female_Refuse01_0": 17753874598283090556,
    "Ani_NPC_Female_Chat01BS_0": 1670477346714042999,
    "Ani_NPC_Female_Chat01Loop_0": 13888430113058861468,
    "Ani_NPC_Female_Chat01AS_0": 388150025306188889,
    "Ani_NPC_Female_Chat02BS_0": 817841342336597547,
    "Ani_NPC_Female_Chat02Loop_0": 574360012039241197,
    "Ani_NPC_Female_Chat02AS_0": 6921247465802385308,
    "Ani_NPC_Female_Think01BS_0": 12972115466816698440,
    "Ani_NPC_Female_Think01Loop_0": 9559947804806545567,
    "Ani_NPC_Female_Think01AS_0": 11228337904479792882,
    "Ani_NPC_Female_Greet01_0": 8455567844000784931,
    "Ani_NPC_Female_Akimbo01BS_0": 14148489766322009888,
    "Ani_NPC_Female_Akimbo01Loop_0": 15323735894439212695,
    "Ani_NPC_Female_Akimbo01AS_0": 408828810520381731,
    "Ani_NPC_Female_HoldHead01BS_0": 7591124742683849548,
    "Ani_NPC_Female_HoldHead01Loop_0": 2649049297463622175,
    "Ani_NPC_Female_HoldHead01AS_0": 355803893423667483,
    "Ani_NPC_Female_Backrake01BS_0": 14731506438245371693,
    "Ani_NPC_Female_Backrake01Loop_0": 16208031890617337175,
    "Ani_NPC_Female_Backrake01AS_0": 10501419671832630978,
    "Ani_NPC_Female_Forerake01BS_0": 11546643882702093464,
    "Ani_NPC_Female_Forerake01Loop_0": 9058493233584137638,
    "Ani_NPC_Female_Forerake01AS_0": 18387759758931569438,
    "Ani_NPC_Female_Downcast01BS_0": 11065916811198152350,
    "Ani_NPC_Female_Downcast01Loop_0": 868162328390429662,
    "Ani_NPC_Female_Downcast01AS_0": 17903908448694000978,
    "Ani_NPC_Female_Request01BS_0": 6666705676139467065,
    "Ani_NPC_Female_Request01Loop_0": 4445131152425734479,
    "Ani_NPC_Female_Request01AS_0": 15460585161552490405,
    "Ani_NPC_Female_Clap01_0": 1073634730426179845,
    "Ani_NPC_Female_Cheer01BS_0": 8135789624313359547,
    "Ani_NPC_Female_Cheer01Loop_0": 12317499436273889321,
    "Ani_NPC_Female_Cheer01AS_0": 16452320334418952005,
    "Ani_NPC_Female_Investigate01BS_0": 2099456806824582413,
    "Ani_NPC_Female_Investigate01Loop_0": 5557395513310528980,
    "Ani_NPC_Female_Investigate01AS_0": 8510246571242268565,
    "Ani_NPC_Female_AkimboHand01BS_0": 13790300513339095390,
    "Ani_NPC_Female_AkimboHand01Loop_0": 16549622547374692230,
    "Ani_NPC_Female_AkimboHand01AS_0": 17998825792098725872,
    "Ani_NPC_Female_HoldArmHand01BS_0": 5682062244420081568,
    "Ani_NPC_Female_HoldArmHand01Loop_0": 12581467357153801667,
    "Ani_NPC_Female_HoldArmHand01AS_0": 17606322128744146318,
    "Ani_NPC_Female_PointR01BS_0": 11646222724945634058,
    "Ani_NPC_Female_PointR01Loop_0": 14136118211191802770,
    "Ani_NPC_Female_PointR01AS_0": 7226297110127164726,
    "Ani_NPC_Female_Shout01BS_0": 18047343161695879083,
    "Ani_NPC_Female_Shout01Loop_0": 6974835312299522241,
    "Ani_NPC_Female_Shout01AS_0": 15039203927208302118,
    "Ani_NPC_Female_LieSide01Cycle_0": 6071353546595479539,
    "Ani_NPC_Female_SitOnFloor01Cycle_0": 9599605107372856185,
    "Ani_NPC_Female_SitOnFloor02Cycle_0": 14880824598587683468,
    "Ani_NPC_Female_Laugh01_0": 14466530642309684446,
    "Ani_NPC_Female_Encourage01_0": 443074828210521096,
    "Ani_NPC_Female_Eat01_0": 10925520023175266519,
    "Ani_NPC_Female_Talk01_0": 17451149920134463208,
    "Ani_NPC_Female_Talk02_0": 15817278725472720254,
    "Ani_NPC_Female_Talk03_0": 16624680011282251935,
    "Ani_NPC_Female_Pray01BS_0": 11737362598109632543,
    "Ani_NPC_Female_Pray01Loop_0": 12065539074618634347,
    "Ani_NPC_Female_Pray01AS_0": 5993886420098731862,
    "Ani_NPC_Female_StandbySword01BS_0": 1977103217701736913,
    "Ani_NPC_Female_StandbySword01Loop_0": 17560505541522941201,
    "Ani_NPC_Female_StandbySword01AS_0": 9905689884232275351,
    "Ani_NPC_Female_StandbyBow01BS_0": 3481585284896653662,
    "Ani_NPC_Female_StandbyBow01Loop_0": 2877038233362434156,
    "Ani_NPC_Female_StandbyBow01AS_0": 13061151038287919079,
    "Ani_NPC_Female_Confuse01BS_0": 6157069478402679609,
    "Ani_NPC_Female_Confuse01Loop_0": 6965478422264313943,
    "Ani_NPC_Female_Confuse01AS_0": 722049260718202246,
    "Ani_NPC_Female_Frightened01_0": 17082954908341700523,
    "Ani_NPC_Female_Frightened02_0": 14519964402191371926,
    "Ani_NPC_Female_PointF01BS_0": 7589163889597930851,
    "Ani_NPC_Female_PointF01Loop_0": 1606951150681211997,
    "Ani_NPC_Female_PointF01AS_0": 2764105503549143141,
    "Ani_NPC_Female_SaluteMengde01BS_0": 13462998463161070863,
    "Ani_NPC_Female_SaluteMengde01Loop_0": 14607016150890161029,
    "Ani_NPC_Female_SaluteMengde01AS_0": 15653248687872987063,
    "Ani_NPC_Female_SitCrouch01BS_0": 15467376258367633137,
    "Ani_NPC_Female_SitCrouch01Loop_0": 1244134055542476935,
    "Ani_NPC_Female_SitCrouch01AS_0": 10452613750919605425,
    "Ani_NPC_Female_SitHoldArm01BS_0": 10380751831523270925,
    "Ani_NPC_Female_SitHoldArm01Loop_0": 3596221849159636096,
    "Ani_NPC_Female_SitHoldArm01AS_0": 11383608233059730490,
    "Ani_NPC_Female_SitPutArm01BS_0": 3800386552388126642,
    "Ani_NPC_Female_DrinkToComplain_0": 8970701232144936989,
    "Ani_NPC_Female_FountainPray_0": 10155306510742773456,
    "Ani_NPC_Female_Cold01_0": 1283176075334579581,
    "Ani_NPC_Female_Greet02_0": 60359953244987779,
    "Ani_NPC_Female_Fishing01Cycle_0": 11842409455096015785,
    "Ani_NPC_Female_SitPutArm01Loop_0": 11797592650171092713,
    "Ani_NPC_Female_SitPutArm01AS_0": 1837680475904935141,
    "Ani_NPC_Female_SitWrite01Cycle_0": 14485107200147976848,
    "Ani_NPC_Female_SitEat01_0": 1302979851782719480,
    "Ani_NPC_Female_Handle01BS_0": 13284277422332468867,
    "Ani_NPC_Female_Handle01Loop_0": 10677290120391790561,
    "Ani_NPC_Female_Handle01AS_0": 8039002121157817675,
    "Ani_NPC_Female_SitDrink01_0": 12245963697548241617,
    "Ani_NPC_Female_SweepIdle01_0": 8270991101048128900,
    "Ani_NPC_Female_Sweep01BS_0": 13269114957159198691,
    "Ani_NPC_Female_Arrange01BS_0": 10922143767348035991,
    "Ani_NPC_Female_Splash01BS_0": 405390134827418774,
    "Ani_NPC_Female_Sweep01Loop_0": 6137128147839252464,
    "Ani_NPC_Female_Sweep01AS_0": 6699396424587779808,
    "Ani_NPC_Female_Arrange01Loop_0": 11216520570929325309,
    "Ani_NPC_Female_Arrange01AS_0": 6942412373767194548,
    "Ani_NPC_Female_Splash01Loop_0": 6093956044138034301,
    "Ani_NPC_Female_Splash01AS_0": 5555019278018544841,
    "Ani_NPC_Female_PlayAndSing01BS_0": 11250543173625864800,
    "Ani_NPC_Female_PlayAndSing01Loop_0": 5625147013676706979,
    "Ani_NPC_Female_PlayAndSing01AS_0": 17777495704987188942,
    "Ani_NPC_Female_WaitressIdle_0": 11012594771222538487,
    "Ani_NPC_Female_SitRaiseHand01BS_0": 11394432794606986614,
    "Ani_NPC_Female_SitRaiseHand01Loop_0": 17301859018515618983,
    "Ani_NPC_Female_SitRaiseHand01AS_0": 16753924042781386807,
    "Ani_NPC_Female_Alert01BS_0": 8592560127057209804,
    "Ani_NPC_Female_Alert01Loop_0": 14889352369263955501,
    "Ani_NPC_Female_Alert01AS_0": 1160703033944749193,
    "Ani_NPC_Female_SumeruGreet01_0": 13876960399492316070,
    "Ani_NPC_Female_CrossLegPlayOud01_0": 8005902070680643298,
    "Ani_NPC_Female_Watering01Cycle_0": 14499585151771161109,
    "Ani_NPC_Female_Dance01_0": 15271622562038400931,
    "Ani_NPC_Female_Dance02_0": 4517535523832513329,
    "Ani_NPC_Female_Dance03_0": 2202757612755586511,
    "Ani_NPC_Female_LieOnGround01Cycle_0": 4918526240025060739,
    "Ani_NPC_Female_PlayUkulele01BS_0": 13811588336034093226,
    "Ani_NPC_Female_PlayUkulele01AS_0": 5192202470785067833,
    "Ani_NPC_Female_PlayUkulele01Loop_0": 13436047175343780171,
    "Ani_NPC_Female_SaluteFontaine01Loop_0": 6816148065984920558,
    "Ani_NPC_Female_SaluteFontaine01BS_0": 5954268581807854262,
    "Ani_NPC_Female_SaluteFontaine01AS_0": 1662321223005200186,
    "Ani_NPC_Female_FontaineGreet01_0": 7211860124085114137,
    "Ani_NPC_Female_Interview01Loop_0": 12880919222396621064,
    "Ani_NPC_Female_Interview01BS_0": 16914519065234722590,
    "Ani_NPC_Female_Interview01AS_0": 14046030663514870593,
    "Ani_NPC_Female_Telescope01Loop_0": 3468701557653970905,
    "Ani_NPC_Female_Telescope01BS_0": 7472615268202953546,
    "Ani_NPC_Female_Telescope01AS_0": 8652669168667643127,
    "Ani_NPC_Female_Magic01AS_0": 502809846222837968,
    "Ani_NPC_Female_Magic01Loop_0": 8041616647497344195,
    "Ani_NPC_Female_Magic01BS_0": 3254288860284034283,
    "Ani_NPC_Female_TeaPicking01BS_0": 9103336640886769288,
    "Ani_NPC_Female_TeaPicking01Loop_0": 4469936931777322359,
    "Ani_NPC_Female_TeaPicking01AS_0": 10785665863770661685,
    "Ani_NPC_Female_BattleRest01_0": 18301807219859894207,
    "Ani_NPC_Female_DanceBattle01_0": 9997851659316272975,
    "Ani_NPC_Female_DanceBattle01BS_0": 4883655569304213756,
    "Ani_NPC_Female_DanceBattle02_0": 7687107738898047451,
    "Ani_NPC_Female_DanceBattle03_0": 7334840712060398937,
    "Ani_NPC_Female_GuitarIdle01_0": 4558833220594599504,
    "Ani_NPC_Female_PlayGuitar01BS_0": 15342459229162910901,
    "Ani_NPC_Female_PlayGuitar01Loop_0": 7614521385947183704,
    "Ani_NPC_Female_PlayGuitar01AS_0": 9648858138723145561,
    "Ani_NPC_Female_UkuleleIdle01_0": 1218164781791410416,
    "Ani_NPC_Female_BattleRest02BS_0": 5448705438105970633,
    "Ani_NPC_Female_BattleRest02Loop_0": 17018312628748415339,
    "Ani_NPC_Female_BattleRest02AS_0": 10192300335041934556,
    "Ani_NPC_Female_Sway01_0": 12453921052075547931,
    "Ani_NPC_Female_Sway02_0": 10243526586108429872,
    "Ani_NPC_Female_DanceBattle01Forward_0": 6405951341311854724,
    "Ani_NPC_Female_DanceBattle01Back_0": 5624428975937784889,
    "Ani_NPC_Female_Painting01BS_0": 6398926315293227904,
    "Ani_NPC_Female_Painting01AS_0": 10967236743028382231,
    "Ani_NPC_Female_Painting01Loop_0": 5187912375278882397,
    "Ani_NPC_Female_HoldArm02BS_0": 14574130444951333038,
    "Ani_NPC_Female_HoldArm02AS_0": 17097017467656155807,
    "Ani_NPC_Female_HoldArm02Loop_0": 23773633126526309,
    "Ani_NPC_Female_LeanOnWall01_0": 667229138772291693,
    "Ani_NPC_Female_PlayWithNatsaurus01_0": 9822443396990517498,
    "Ani_NPC_Female_Squat01AS_0": 16776368586829560210,
    "Ani_NPC_Female_Squat01BS_0": 5093810880341787802,
    "Ani_NPC_Female_Squat01Loop_0": 11443072088829461924,
    "Ani_NPC_Female_Squat02AS_0": 15310911520440763375,
    "Ani_NPC_Female_Squat02BS_0": 12244869397157354862,
    "Ani_NPC_Female_Squat02Loop_0": 9138998637867400167,
    "Ani_NPC_Female_Sacrifice01AS_0": 6136736441023438083,
    "Ani_NPC_Female_Sacrifice01BS_0": 5799395674717500887,
    "Ani_NPC_Female_Sacrifice01Loop_0": 17607038579813642109,
    "Ani_NPC_Female_Sacrifice02_0": 8784707838779413816
  }
}