{
  "luaDataPath": "",
  "dontUseDefaultFinish": true,
  "startBlackKeepTime": 0.20000000298023224,
  "entityBan": "",
  "startFade": {
    "startFadeInDuration": 0.4000000059604645,
    "startFadeOutDuration": 0.4000000059604645
  },
  "endFade": {
    "startFadeOutDuration": 0.0
  },
  "actors": [
    {
      "alias": "Avatar",
      "visible": true,
      "bornPointName": "Q10201AvatarSpawn2",
      "relativePosNpcAlias": "",
      "_bindMovingTargetKey": ""
    },
    {
      "configID": 1005,
      "alias": "1005",
      "visible": true,
      "bornPointName": "Q10201Chaseend",
      "relativePos": {
        "x": 0.699999988079071
      },
      "relativePosNpcAlias": "",
      "_bindMovingTargetKey": ""
    },
    {
      "configID": 10090,
      "alias": "10090",
      "visible": true,
      "bornPointName": "Q10201KleeSpawn2",
      "relativePosNpcAlias": "",
      "_bindMovingTargetKey": ""
    }
  ],
  "group": [
    [
      {
        "$type": "FJKIHHKJLMJ",
        "type": "CAMERA_MOVE",
        "duration": 1.0,
        "camPosOffset": {
          "x": 2539.88134765625,
          "y": 214.44943237304688,
          "z": -1119.1121826171875
        },
        "camForwardTargetOffset": {
          "x": 2540.828369140625,
          "y": 214.72482299804688,
          "z": -1118.9468994140625
        },
        "camFov": 35.0,
        "lerpPattern": 6,
        "cameraBlendType": "EaseInOutCubic",
        "NJBNNOMLKCK": {},
        "targetNpcAlias": "",
        "KJOEFBPOIIH": "",
        "IICFKKEBIEC": "",
        "EGEHEJEBLBJ": ""
      },
      {
        "$type": "FJKIHHKJLMJ",
        "type": "CAMERA_MOVE",
        "delayTime": 0.10000000149011612,
        "duration": 3.0,
        "camPosOffset": {
          "x": 2539.83837890625,
          "y": 214.2440643310547,
          "z": -1119.147705078125
        },
        "camForwardTargetOffset": {
          "x": 2540.823974609375,
          "y": 214.3845977783203,
          "z": -1119.053955078125
        },
        "camFov": 35.0,
        "cameraBlendType": "EaseInOutQuad",
        "NJBNNOMLKCK": {},
        "targetNpcAlias": "",
        "KJOEFBPOIIH": "",
        "IICFKKEBIEC": "",
        "EGEHEJEBLBJ": ""
      },
      {
        "$type": "MoleMole.Config.ConfigTimeProtectAction",
        "type": "TIME_PROTECT",
        "duration": 3.0
      },
      {
        "$type": "MoleMole.Config.ConfigCameraDOFAction",
        "type": "CAMERA_DOF",
        "enabled": true,
        "focusDistance": 15.0,
        "focusRange": 10.0,
        "quality": 3
      },
      {
        "$type": "MoleMole.Config.ConfigMoveToAction",
        "type": "MOVE_TO",
        "duration": 0.10000000149011612,
        "aliasList": [
          "Avatar"
        ],
        "routeList": [
          {
            "x": 2545.179931640625,
            "y": 213.24465942382812,
            "z": -1119.030517578125
          }
        ],
        "_bindMovingTargetKey": ""
      },
      {
        "$type": "LLGANGLOEEO",
        "type": "STEER_TO",
        "delayTime": 0.10000000149011612,
        "duration": 0.10000000149011612,
        "aliasList": [
          "Avatar"
        ],
        "steerDir": {
          "x": 0.6542946100234985,
          "y": 0.18889375030994415,
          "z": 0.7322688698768616
        },
        "targetNpcAlias": "",
        "OAFJBHJHLJG": ""
      },
      {
        "$type": "LJLMDHDCAMK",
        "type": "LOOK_AT",
        "delayTime": 0.10000000149011612,
        "aliasList": [
          "Avatar"
        ],
        "enableHead": true,
        "useTargetPos": true,
        "enableAbsolute": true,
        "targetPosition": {
          "x": 2547.561767578125,
          "y": 214.46876525878906,
          "z": -1116.7291259765625
        },
        "headTurnTime": 0.4000000059604645,
        "targetNpcAlias": "",
        "targetNpcLookAtPoint": "",
        "OAFJBHJHLJG": ""
      },
      {
        "$type": "MoleMole.Config.ConfigMoveToAction",
        "type": "MOVE_TO",
        "duration": 0.10000000149011612,
        "aliasList": [
          "1005"
        ],
        "routeList": [
          {
            "x": 2545.321044921875,
            "y": 213.105712890625,
            "z": -1119.97802734375
          }
        ],
        "_bindMovingTargetKey": ""
      },
      {
        "$type": "LLGANGLOEEO",
        "type": "STEER_TO",
        "delayTime": 0.10000000149011612,
        "duration": 0.10000000149011612,
        "aliasList": [
          "1005"
        ],
        "steerDir": {
          "x": 0.5546548366546631,
          "y": 0.24852433800697327,
          "z": 0.7940992712974548
        },
        "targetNpcAlias": "",
        "OAFJBHJHLJG": ""
      },
      {
        "$type": "LJLMDHDCAMK",
        "type": "LOOK_AT",
        "delayTime": 0.10000000149011612,
        "aliasList": [
          "1005"
        ],
        "enableHead": true,
        "useTargetPos": true,
        "enableAbsolute": true,
        "targetPosition": {
          "x": 2547.561767578125,
          "y": 214.46876525878906,
          "z": -1116.7291259765625
        },
        "headTurnTime": 0.4000000059604645,
        "targetNpcAlias": "",
        "targetNpcLookAtPoint": "",
        "OAFJBHJHLJG": ""
      },
      {
        "$type": "MoleMole.Config.ConfigMoveToAction",
        "type": "MOVE_TO",
        "duration": 0.10000000149011612,
        "aliasList": [
          "10090"
        ],
        "routeList": [
          {
            "x": 2546.86181640625,
            "y": 213.12644958496094,
            "z": -1119.933349609375
          }
        ],
        "_bindMovingTargetKey": ""
      },
      {
        "$type": "LLGANGLOEEO",
        "type": "STEER_TO",
        "delayTime": 0.10000000149011612,
        "duration": 0.10000000149011612,
        "aliasList": [
          "10090"
        ],
        "steerDir": {
          "x": 0.3637754023075104,
          "y": 0.2724071443080902,
          "z": 0.8907647132873535
        },
        "targetNpcAlias": "",
        "OAFJBHJHLJG": ""
      },
      {
        "$type": "FABLGECDBCH",
        "type": "BODY_LANG",
        "delayTime": 0.10000000149011612,
        "aliasList": [
          "10090"
        ],
        "bodyLangParam": 1160,
        "eventPatternSuiteKey": "",
        "FOHHKFAIAAJ": ""
      }
    ],
    [
      {
        "$type": "FJKIHHKJLMJ",
        "type": "CAMERA_MOVE",
        "duration": 1.0,
        "camPosOffset": {
          "x": 2547.71044921875,
          "y": 214.57968139648438,
          "z": -1117.8834228515625
        },
        "camForwardTargetOffset": {
          "x": 2546.86767578125,
          "y": 214.49876403808594,
          "z": -1118.415771484375
        },
        "camFov": 25.0,
        "lerpPattern": 6,
        "cameraBlendType": "EaseInOutCubic",
        "NJBNNOMLKCK": {},
        "targetNpcAlias": "",
        "KJOEFBPOIIH": "",
        "IICFKKEBIEC": "",
        "EGEHEJEBLBJ": ""
      },
      {
        "$type": "MoleMole.Config.ConfigCameraDOFAction",
        "type": "CAMERA_DOF",
        "enabled": true,
        "focusDistance": 5.0,
        "focusRange": 5.0,
        "quality": 3
      },
      {
        "$type": "HDGKHDNFMIM",
        "type": "DIALOG_SELECT",
        "delayTime": 0.4000000059604645,
        "aliasList": [
          "Avatar"
        ],
        "dialogIDList": [
          102010302,
          102010303
        ],
        "grpIDList": [
          649263270,
          649263270
        ],
        "useGrpId": true
      },
      {
        "$type": "PKKMAMONGEO",
        "type": "DIALOG",
        "aliasList": [
          "1005"
        ],
        "dialogID": 102010301,
        "protectTime": 0.5
      },
      {
        "$type": "FABLGECDBCH",
        "type": "BODY_LANG",
        "aliasList": [
          "1005"
        ],
        "bodyLangParam": 1170,
        "eventPatternSuiteKey": "",
        "FOHHKFAIAAJ": ""
      },
      {
        "$type": "FABLGECDBCH",
        "type": "BODY_LANG",
        "delayTime": 0.4000000059604645,
        "aliasList": [
          "1005"
        ],
        "isContinue": true,
        "eventPatternSuiteKey": "",
        "FOHHKFAIAAJ": ""
      },
      {
        "$type": "CPJKOIHIPBE",
        "type": "EMO_SYNC",
        "aliasList": [
          "1005"
        ],
        "dataPath": "Cs_Emo_Avatar_Simple_Common_Set/Cs_Emo_Avatar_Talk/Cs_Emo_Avatar_PersonalLine/Cs_Emo_Avatar_Klee/Cs_Emo_102010301",
        "phonemePath": "",
        "emotionPath": "",
        "mateDataPath": "",
        "matePhonemePath": "",
        "mateEmotionPath": "",
        "dataPathHashList": [
          11600675164015676484,
          10798872230374876745,
          12179332612928827701,
          8635696735526604883
        ],
        "FMDPBECPELH": "",
        "ADKBLPOKGIK": ""
      }
    ],
    [
      {
        "$type": "FJKIHHKJLMJ",
        "type": "CAMERA_MOVE",
        "duration": 1.0,
        "camPosOffset": {
          "x": 2543.848876953125,
          "y": 215.66468811035156,
          "z": -1116.7098388671875
        },
        "camForwardTargetOffset": {
          "x": 2544.362060546875,
          "y": 215.27342224121094,
          "z": -1117.4737548828125
        },
        "camFov": 20.0,
        "lerpPattern": 6,
        "cameraBlendType": "EaseInOutCubic",
        "NJBNNOMLKCK": {},
        "targetNpcAlias": "",
        "KJOEFBPOIIH": "",
        "IICFKKEBIEC": "",
        "EGEHEJEBLBJ": ""
      },
      {
        "$type": "MoleMole.Config.ConfigCameraDOFAction",
        "type": "CAMERA_DOF",
        "delayTime": 0.20000000298023224,
        "duration": 1.5,
        "enabled": true,
        "focusDistance": 5.0,
        "focusRange": 10.0,
        "quality": 3
      },
      {
        "$type": "FJKIHHKJLMJ",
        "type": "CAMERA_MOVE",
        "delayTime": 0.10000000149011612,
        "duration": 5.0,
        "camPosOffset": {
          "x": 2543.947021484375,
          "y": 215.65614318847656,
          "z": -1116.638916015625
        },
        "camForwardTargetOffset": {
          "x": 2544.460205078125,
          "y": 215.26487731933594,
          "z": -1117.40283203125
        },
        "camFov": 20.0,
        "cameraBlendType": "EaseInOutQuad",
        "NJBNNOMLKCK": {},
        "targetNpcAlias": "",
        "KJOEFBPOIIH": "",
        "IICFKKEBIEC": "",
        "EGEHEJEBLBJ": ""
      },
      {
        "$type": "LJLMDHDCAMK",
        "type": "LOOK_AT",
        "delayTime": 0.4000000059604645,
        "aliasList": [
          "Avatar"
        ],
        "enableHead": true,
        "useTargetPos": true,
        "enableAbsolute": true,
        "targetPosition": {
          "x": 2546.897705078125,
          "y": 214.1246795654297,
          "z": -1119.7423095703125
        },
        "headTurnTime": 0.4000000059604645,
        "targetNpcAlias": "",
        "targetNpcLookAtPoint": "",
        "OAFJBHJHLJG": ""
      },
      {
        "$type": "LLGANGLOEEO",
        "type": "STEER_TO",
        "delayTime": 0.4000000059604645,
        "duration": 1.0,
        "aliasList": [
          "Avatar"
        ],
        "steerDir": {
          "x": 0.9851686954498291,
          "z": -0.17158851027488708
        },
        "useSteerAnim": true,
        "targetNpcAlias": "",
        "OAFJBHJHLJG": ""
      },
      {
        "$type": "LJLMDHDCAMK",
        "type": "LOOK_AT",
        "delayTime": 0.20000000298023224,
        "aliasList": [
          "1005"
        ],
        "enableHead": true,
        "useTargetPos": true,
        "enableAbsolute": true,
        "targetPosition": {
          "x": 2546.897705078125,
          "y": 214.1246795654297,
          "z": -1119.7423095703125
        },
        "headTurnTime": 0.4000000059604645,
        "targetNpcAlias": "",
        "targetNpcLookAtPoint": "",
        "OAFJBHJHLJG": ""
      },
      {
        "$type": "LLGANGLOEEO",
        "type": "STEER_TO",
        "delayTime": 0.20000000298023224,
        "duration": 1.0,
        "aliasList": [
          "1005"
        ],
        "steerDir": {
          "x": 0.9783040285110474,
          "z": 0.2071744054555893
        },
        "targetNpcAlias": "",
        "OAFJBHJHLJG": ""
      },
      {
        "$type": "PKKMAMONGEO",
        "type": "DIALOG",
        "aliasList": [
          "10090"
        ],
        "dialogID": 102010304,
        "protectTime": 0.5
      },
      {
        "$type": "CPJKOIHIPBE",
        "type": "EMO_SYNC",
        "aliasList": [
          "10090"
        ],
        "dataPath": "Cs_Emo_Avatar_Simple_Common_Set/Cs_Emo_Avatar_Talk/Cs_Emo_Avatar_PersonalLine/Cs_Emo_Avatar_Klee/Cs_Emo_102010304",
        "phonemePath": "",
        "emotionPath": "",
        "mateDataPath": "",
        "matePhonemePath": "",
        "mateEmotionPath": "",
        "enableBlink": false,
        "dataPathHashList": [
          7471377806512580146,
          8626906926817594311,
          3316189594006249401,
          10928234814517227592
        ],
        "FMDPBECPELH": "",
        "ADKBLPOKGIK": ""
      }
    ],
    [
      {
        "$type": "FJKIHHKJLMJ",
        "type": "CAMERA_MOVE",
        "duration": 1.0,
        "camPosOffset": {
          "x": 2548.784912109375,
          "y": 214.5636444091797,
          "z": -1118.3427734375
        },
        "camForwardTargetOffset": {
          "x": 2547.896728515625,
          "y": 214.42608642578125,
          "z": -1118.7811279296875
        },
        "camFov": 30.0,
        "lerpPattern": 6,
        "cameraBlendType": "EaseInOutCubic",
        "NJBNNOMLKCK": {},
        "targetNpcAlias": "",
        "KJOEFBPOIIH": "",
        "IICFKKEBIEC": "",
        "EGEHEJEBLBJ": ""
      },
      {
        "$type": "PKKMAMONGEO",
        "type": "DIALOG",
        "aliasList": [
          "1005"
        ],
        "dialogID": 102010305,
        "protectTime": 0.5
      },
      {
        "$type": "FABLGECDBCH",
        "type": "BODY_LANG",
        "aliasList": [
          "1005"
        ],
        "bodyLangParam": 1170,
        "eventPatternSuiteKey": "",
        "FOHHKFAIAAJ": ""
      },
      {
        "$type": "CPJKOIHIPBE",
        "type": "EMO_SYNC",
        "aliasList": [
          "1005"
        ],
        "dataPath": "Cs_Emo_Avatar_Simple_Common_Set/Cs_Emo_Avatar_Talk/Cs_Emo_Avatar_PersonalLine/Cs_Emo_Avatar_Klee/Cs_Emo_102010305",
        "phonemePath": "",
        "emotionPath": "",
        "mateDataPath": "",
        "matePhonemePath": "",
        "mateEmotionPath": "",
        "dataPathHashList": [
          2228907619297763392,
          10702471381452503860,
          15402722396787733045,
          9894098447953475685
        ],
        "FMDPBECPELH": "",
        "ADKBLPOKGIK": ""
      }
    ],
    [
      {
        "$type": "PKKMAMONGEO",
        "type": "DIALOG",
        "aliasList": [
          "1005"
        ],
        "dialogID": 102010306,
        "protectTime": 0.8999999761581421
      },
      {
        "$type": "FABLGECDBCH",
        "type": "BODY_LANG",
        "delayTime": 2.0,
        "aliasList": [
          "1005"
        ],
        "isContinue": true,
        "eventPatternSuiteKey": "",
        "FOHHKFAIAAJ": ""
      },
      {
        "$type": "CPJKOIHIPBE",
        "type": "EMO_SYNC",
        "aliasList": [
          "1005"
        ],
        "dataPath": "Cs_Emo_Avatar_Simple_Common_Set/Cs_Emo_Avatar_Talk/Cs_Emo_Avatar_PersonalLine/Cs_Emo_Avatar_Klee/Cs_Emo_102010306",
        "phonemePath": "",
        "emotionPath": "",
        "mateDataPath": "",
        "matePhonemePath": "",
        "mateEmotionPath": "",
        "dataPathHashList": [
          16232199923380533515,
          8563047181670341157,
          1757221499747233940,
          11797921218384249333
        ],
        "FMDPBECPELH": "",
        "ADKBLPOKGIK": ""
      },
      {
        "$type": "LJLMDHDCAMK",
        "type": "LOOK_AT",
        "delayTime": 0.8999999761581421,
        "aliasList": [
          "10090"
        ],
        "enableHead": true,
        "useTargetPos": true,
        "enableAbsolute": true,
        "targetPosition": {
          "x": 2545.37841796875,
          "y": 214.2892303466797,
          "z": -1119.92724609375
        },
        "headTurnTime": 0.4000000059604645,
        "targetNpcAlias": "",
        "targetNpcLookAtPoint": "",
        "OAFJBHJHLJG": ""
      },
      {
        "$type": "FABLGECDBCH",
        "type": "BODY_LANG",
        "aliasList": [
          "10090"
        ],
        "isContinue": true,
        "eventPatternSuiteKey": "",
        "FOHHKFAIAAJ": ""
      },
      {
        "$type": "CPJKOIHIPBE",
        "type": "EMO_SYNC",
        "aliasList": [
          "10090"
        ],
        "dataPath": "Cs_Emo_Avatar_Simple_Common_Set/Cs_Emo_Avatar_Common_Normal",
        "phonemePath": "",
        "emotionPath": "",
        "mateDataPath": "",
        "matePhonemePath": "",
        "mateEmotionPath": "",
        "dataPathHashList": [
          1254595151211172457,
          11740135046283525816,
          13690962357574067534,
          4569976534232268451
        ],
        "FMDPBECPELH": "",
        "ADKBLPOKGIK": ""
      }
    ],
    [
      {
        "$type": "FJKIHHKJLMJ",
        "type": "CAMERA_MOVE",
        "duration": 1.0,
        "camPosOffset": {
          "x": 2543.29296875,
          "y": 215.56158447265625,
          "z": -1119.113525390625
        },
        "camForwardTargetOffset": {
          "x": 2544.1552734375,
          "y": 215.09449768066406,
          "z": -1119.3092041015625
        },
        "camFov": 30.0,
        "lerpPattern": 6,
        "cameraBlendType": "EaseInOutCubic",
        "NJBNNOMLKCK": {},
        "targetNpcAlias": "",
        "KJOEFBPOIIH": "",
        "IICFKKEBIEC": "",
        "EGEHEJEBLBJ": ""
      },
      {
        "$type": "FABLGECDBCH",
        "type": "BODY_LANG",
        "aliasList": [
          "1005"
        ],
        "isContinue": true,
        "eventPatternSuiteKey": "",
        "FOHHKFAIAAJ": ""
      },
      {
        "$type": "PKKMAMONGEO",
        "type": "DIALOG",
        "aliasList": [
          "10090"
        ],
        "dialogID": 102010307,
        "protectTime": 1.0
      },
      {
        "$type": "LLGANGLOEEO",
        "type": "STEER_TO",
        "duration": 0.8999999761581421,
        "aliasList": [
          "10090"
        ],
        "steerDir": {
          "x": -0.9992693066596985,
          "z": -0.03822145238518715
        },
        "useSteerAnim": true,
        "targetNpcAlias": "",
        "OAFJBHJHLJG": ""
      },
      {
        "$type": "FABLGECDBCH",
        "type": "BODY_LANG",
        "delayTime": 0.8999999761581421,
        "aliasList": [
          "10090"
        ],
        "bodyLangParam": 1150,
        "eventPatternSuiteKey": "",
        "FOHHKFAIAAJ": ""
      },
      {
        "$type": "CPJKOIHIPBE",
        "type": "EMO_SYNC",
        "aliasList": [
          "10090"
        ],
        "dataPath": "Cs_Emo_Avatar_Simple_Common_Set/Cs_Emo_Avatar_Talk/Cs_Emo_Avatar_PersonalLine/Cs_Emo_Avatar_Klee/Cs_Emo_102010307",
        "phonemePath": "",
        "emotionPath": "",
        "mateDataPath": "",
        "matePhonemePath": "",
        "mateEmotionPath": "",
        "dataPathHashList": [
          13111575863206848556,
          9234216014452263910,
          1469684912926623019,
          2974144474502218610
        ],
        "FMDPBECPELH": "",
        "ADKBLPOKGIK": ""
      }
    ],
    [
      {
        "$type": "HDGKHDNFMIM",
        "type": "DIALOG_SELECT",
        "delayTime": 0.4000000059604645,
        "aliasList": [
          "Avatar"
        ],
        "dialogIDList": [
          102010309,
          102010310
        ],
        "grpIDList": [
          649263275,
          649263275
        ],
        "useGrpId": true
      },
      {
        "$type": "PKKMAMONGEO",
        "type": "DIALOG",
        "aliasList": [
          "10090"
        ],
        "dialogID": 102010308,
        "protectTime": 0.5
      },
      {
        "$type": "FABLGECDBCH",
        "type": "BODY_LANG",
        "aliasList": [
          "10090"
        ],
        "bodyLangParam": 1130,
        "eventPatternSuiteKey": "",
        "FOHHKFAIAAJ": ""
      },
      {
        "$type": "CPJKOIHIPBE",
        "type": "EMO_SYNC",
        "aliasList": [
          "10090"
        ],
        "dataPath": "Cs_Emo_Avatar_Simple_Common_Set/Cs_Emo_Avatar_Talk/Cs_Emo_Avatar_PersonalLine/Cs_Emo_Avatar_Klee/Cs_Emo_102010308",
        "phonemePath": "",
        "emotionPath": "",
        "mateDataPath": "",
        "matePhonemePath": "",
        "mateEmotionPath": "",
        "dataPathHashList": [
          1955476499128085439,
          12597320518746048390,
          5010961631987790357,
          13066750180580059634
        ],
        "FMDPBECPELH": "",
        "ADKBLPOKGIK": ""
      }
    ],
    [
      {
        "$type": "FJKIHHKJLMJ",
        "type": "CAMERA_MOVE",
        "delayTime": 0.4000000059604645,
        "duration": 1.0,
        "camPosOffset": {
          "x": 2545.43359375,
          "y": 214.94883728027344,
          "z": -1119.1468505859375
        },
        "camForwardTargetOffset": {
          "x": 2546.19091796875,
          "y": 214.45542907714844,
          "z": -1119.57470703125
        },
        "camFov": 25.0,
        "lerpPattern": 6,
        "cameraBlendType": "EaseInOutCubic",
        "NJBNNOMLKCK": {},
        "targetNpcAlias": "",
        "KJOEFBPOIIH": "",
        "IICFKKEBIEC": "",
        "EGEHEJEBLBJ": ""
      },
      {
        "$type": "PKKMAMONGEO",
        "type": "DIALOG",
        "aliasList": [
          "10090"
        ],
        "dialogID": 102010311,
        "protectTime": 0.5
      },
      {
        "$type": "LJLMDHDCAMK",
        "type": "LOOK_AT",
        "aliasList": [
          "10090"
        ],
        "enableHead": true,
        "useTargetPos": true,
        "enableAbsolute": true,
        "targetPosition": {
          "x": 2545.33837890625,
          "y": 214.56900024414062,
          "z": -1119.0833740234375
        },
        "headTurnTime": 0.4000000059604645,
        "targetNpcAlias": "",
        "targetNpcLookAtPoint": "",
        "OAFJBHJHLJG": ""
      },
      {
        "$type": "FABLGECDBCH",
        "type": "BODY_LANG",
        "delayTime": 2.0,
        "aliasList": [
          "10090"
        ],
        "isContinue": true,
        "eventPatternSuiteKey": "",
        "FOHHKFAIAAJ": ""
      },
      {
        "$type": "CPJKOIHIPBE",
        "type": "EMO_SYNC",
        "aliasList": [
          "10090"
        ],
        "dataPath": "Cs_Emo_Avatar_Simple_Common_Set/Cs_Emo_Avatar_Talk/Cs_Emo_Avatar_PersonalLine/Cs_Emo_Avatar_Klee/Cs_Emo_102010311",
        "phonemePath": "",
        "emotionPath": "",
        "mateDataPath": "",
        "matePhonemePath": "",
        "mateEmotionPath": "",
        "dataPathHashList": [
          16676655523363755603,
          18253857713208147147,
          12476708183541694706,
          18076500910769329697
        ],
        "FMDPBECPELH": "",
        "ADKBLPOKGIK": ""
      }
    ],
    [
      {
        "$type": "PKKMAMONGEO",
        "type": "DIALOG",
        "aliasList": [
          "10090"
        ],
        "dialogID": 102010312
      },
      {
        "$type": "FABLGECDBCH",
        "type": "BODY_LANG",
        "aliasList": [
          "10090"
        ],
        "bodyLangParam": 1300,
        "eventPatternSuiteKey": "",
        "FOHHKFAIAAJ": ""
      },
      {
        "$type": "CPJKOIHIPBE",
        "type": "EMO_SYNC",
        "aliasList": [
          "10090"
        ],
        "dataPath": "Cs_Emo_Avatar_Simple_Common_Set/Cs_Emo_Avatar_Talk/Cs_Emo_Avatar_PersonalLine/Cs_Emo_Avatar_Klee/Cs_Emo_102010312",
        "phonemePath": "",
        "emotionPath": "",
        "mateDataPath": "",
        "matePhonemePath": "",
        "mateEmotionPath": "",
        "dataPathHashList": [
          11959084452514869036,
          13681526201853185582,
          18110458586104884076,
          3165908895637715993
        ],
        "FMDPBECPELH": "",
        "ADKBLPOKGIK": ""
      }
    ],
    [
      {
        "$type": "FJKIHHKJLMJ",
        "type": "CAMERA_MOVE",
        "delayTime": 0.5,
        "duration": 0.5,
        "cameraPosType": "EXIT",
        "camPosOffset": {
          "x": 2542.852294921875,
          "y": 215.26025390625,
          "z": -1121.5372314453125
        },
        "camTargetType": "TO_INTEE",
        "camForwardTargetOffset": {
          "x": 14.09483814239502,
          "y": 42.45632553100586,
          "z": -5.281651738187065e-06
        },
        "lerpPattern": 6,
        "cameraBlendType": "EaseInOutCubic",
        "NJBNNOMLKCK": {},
        "targetNpcAlias": "",
        "KJOEFBPOIIH": "",
        "IICFKKEBIEC": "",
        "EGEHEJEBLBJ": ""
      },
      {
        "$type": "PKKMAMONGEO",
        "type": "DIALOG_CLEAR",
        "delayTime": 0.30000001192092896
      },
      {
        "$type": "MoleMole.Config.ConfigCameraDOFAction",
        "type": "CAMERA_DOF",
        "delayTime": 0.5
      },
      {
        "$type": "MoleMole.Config.ConfigTimeProtectAction",
        "type": "TIME_PROTECT",
        "duration": 1.0
      },
      {
        "$type": "MoleMole.Config.ConfigSimpleBlackScreenAction",
        "type": "SIMPLE_BLACK_SCREEN",
        "durationToBlack": 0.5,
        "durationKeepBlack": 1.0,
        "durationFromBlack": 0.5,
        "textMapID": ""
      },
      {
        "$type": "LLGANGLOEEO",
        "type": "STEER_TO",
        "duration": 1.0,
        "aliasList": [
          "Avatar"
        ],
        "steerDir": {
          "x": 0.6542946100234985,
          "y": 0.18889375030994415,
          "z": 0.7322688698768616
        },
        "useSteerAnim": true,
        "targetNpcAlias": "",
        "OAFJBHJHLJG": ""
      },
      {
        "$type": "LJLMDHDCAMK",
        "type": "LOOK_AT",
        "aliasList": [
          "Avatar"
        ],
        "enableHead": true,
        "useTargetPos": true,
        "enableAbsolute": true,
        "targetPosition": {
          "x": 2547.561767578125,
          "y": 214.46876525878906,
          "z": -1116.7291259765625
        },
        "headTurnTime": 0.30000001192092896,
        "targetNpcAlias": "",
        "targetNpcLookAtPoint": "",
        "OAFJBHJHLJG": ""
      },
      {
        "$type": "MoleMole.Config.ConfigVisibleInterAction",
        "type": "VISIBLE",
        "delayTime": 0.5,
        "aliasList": [
          "10090"
        ],
        "_extraParam": ""
      }
    ],
    [
      {
        "$type": "LJLMDHDCAMK",
        "type": "LOOK_AT",
        "aliasList": [
          "Avatar"
        ],
        "targetNpcAlias": "",
        "targetNpcLookAtPoint": "",
        "OAFJBHJHLJG": ""
      },
      {
        "$type": "LJLMDHDCAMK",
        "type": "LOOK_AT",
        "aliasList": [
          "1005"
        ],
        "targetNpcAlias": "",
        "targetNpcLookAtPoint": "",
        "OAFJBHJHLJG": ""
      },
      {
        "$type": "LJLMDHDCAMK",
        "type": "LOOK_AT",
        "aliasList": [
          "10090"
        ],
        "targetNpcAlias": "",
        "targetNpcLookAtPoint": "",
        "OAFJBHJHLJG": ""
      }
    ]
  ],
  "groupId": [
    {
      "grpId": 649263268,
      "nextGrpId": 649263269
    },
    {
      "index": 1,
      "grpId": 649263269,
      "nextGrpId": 649263270
    },
    {
      "index": 2,
      "grpId": 649263270,
      "nextGrpId": 649263271
    },
    {
      "index": 3,
      "grpId": 649263271,
      "nextGrpId": 649263272
    },
    {
      "index": 4,
      "grpId": 649263272,
      "nextGrpId": 649263273
    },
    {
      "index": 5,
      "grpId": 649263273,
      "nextGrpId": 649263274
    },
    {
      "index": 6,
      "grpId": 649263274,
      "nextGrpId": 649263275
    },
    {
      "index": 7,
      "grpId": 649263275,
      "nextGrpId": 649263276
    },
    {
      "index": 8,
      "grpId": 649263276,
      "nextGrpId": 2947292172
    },
    {
      "index": 9,
      "grpId": 2947292172,
      "nextGrpId": 2947292173
    },
    {
      "index": 10,
      "grpId": 2947292173,
      "nextGrpId": 2947292174
    }
  ],
  "freeStyleDic": {
    "10090": [
      1160,
      1150,
      1130,
      1300
    ]
  }
}