{
  "luaDataPath": "",
  "startBlackKeepTime": 0.5,
  "entityBan": "",
  "disableNpcLod": true,
  "isAutoBanNpc": true,
  "isBanWidgetPet": true,
  "protectNpcMobileLod": true,
  "startFade": {
    "startFadeInDuration": 0.5,
    "startFadeOutDuration": 0.5
  },
  "endFade": {
    "startFadeOutDuration": 0.0
  },
  "actors": [
    {
      "alias": "Avatar",
      "visible": true,
      "bornPointName": "T7902422_player",
      "relativePosNpcAlias": "",
      "_bindMovingTargetKey": ""
    },
    {
      "configID": 1005,
      "alias": "1005",
      "visible": true,
      "bornPointName": "",
      "useRelativePos": true,
      "relativePos": {
        "x": -0.5,
        "z": 0.5
      },
      "removeActorType": "REMOVE_WITH_DISAPPEAR",
      "relativePosNpcAlias": "",
      "_bindMovingTargetKey": ""
    },
    {
      "configID": 20621,
      "alias": "20621",
      "visible": true,
      "bornPointName": "Q7902401_N20621",
      "relativePosNpcAlias": "",
      "_bindMovingTargetKey": ""
    },
    {
      "configID": 20623,
      "alias": "20623",
      "visible": true,
      "bornPointName": "Q7902401_N20623",
      "relativePosNpcAlias": "",
      "_bindMovingTargetKey": ""
    },
    {
      "configID": 20620,
      "alias": "20620",
      "visible": true,
      "bornPointName": "Q7902401_N20620",
      "relativePosNpcAlias": "",
      "_bindMovingTargetKey": ""
    },
    {
      "configID": 20622,
      "alias": "20622",
      "visible": true,
      "bornPointName": "Q7902401_N20622",
      "relativePosNpcAlias": "",
      "_bindMovingTargetKey": ""
    }
  ],
  "group": [
    [
      {
        "$type": "MoleMole.Config.ConfigTimeProtectAction",
        "type": "TIME_PROTECT",
        "duration": 0.10000000149011612
      },
      {
        "$type": "MoleMole.Config.ConfigBlackScreenAction",
        "type": "BLACK_SCREEN",
        "actionId": 190,
        "blackScreenType": "KEEP_BLACK",
        "durationKeepBlack": 0.5,
        "inteePos": "",
        "textMapID": "",
        "useTextFade": true
      },
      {
        "$type": "MoleMole.Config.ConfigTeleportToAction",
        "type": "TELEPORT_TO",
        "aliasList": [
          "Avatar"
        ],
        "actionId": 182,
        "position": {
          "x": 132.35400390625,
          "y": 120.16600036621094,
          "z": -164.49899291992188
        },
        "forward": {
          "x": 9.02400016784668,
          "y": 0.11400000005960464,
          "z": -0.5600000023841858
        },
        "openLongDisTeleport": true,
        "_posBindMovingTargetKey": "",
        "_forwardBindMovingTargetKey": ""
      },
      {
        "$type": "LJLMDHDCAMK",
        "type": "LOOK_AT",
        "aliasList": [
          "Avatar"
        ],
        "actionId": 184,
        "enableHead": true,
        "useTargetPos": true,
        "enableAbsolute": true,
        "targetPosition": {
          "x": 141.69900512695312,
          "y": 121.71800231933594,
          "z": -163.83099365234375
        },
        "headTurnTime": 0.5,
        "targetNpcAlias": "",
        "lookAtTargetType": "NONE",
        "targetNpcLookAtPoint": "",
        "OAFJBHJHLJG": ""
      },
      {
        "$type": "MoleMole.Config.ConfigTeleportToAction",
        "type": "TELEPORT_TO",
        "aliasList": [
          "1005"
        ],
        "actionId": 183,
        "position": {
          "x": 132.4219970703125,
          "y": 120.18000030517578,
          "z": -165.49200439453125
        },
        "forward": {
          "x": 9.515999794006348,
          "y": 0.12099999934434891,
          "z": -0.0860000029206276
        },
        "openLongDisTeleport": true,
        "_posBindMovingTargetKey": "",
        "_forwardBindMovingTargetKey": ""
      },
      {
        "$type": "LJLMDHDCAMK",
        "type": "LOOK_AT",
        "aliasList": [
          "1005"
        ],
        "actionId": 184,
        "enableHead": true,
        "useTargetPos": true,
        "enableAbsolute": true,
        "targetPosition": {
          "x": 141.87100219726562,
          "y": 121.71800231933594,
          "z": -164.718994140625
        },
        "headTurnTime": 0.5,
        "targetNpcAlias": "",
        "lookAtTargetType": "NONE",
        "targetNpcLookAtPoint": "",
        "OAFJBHJHLJG": ""
      },
      {
        "$type": "MoleMole.Config.ConfigTeleportToAction",
        "type": "TELEPORT_TO",
        "aliasList": [
          "20621"
        ],
        "actionId": 178,
        "position": {
          "x": 142.44400024414062,
          "y": 120.21099853515625,
          "z": -154.7220001220703
        },
        "forward": {
          "x": -1.1859999895095825,
          "y": -0.15800000727176666,
          "z": -8.906000137329102
        },
        "openLongDisTeleport": true,
        "_posBindMovingTargetKey": "",
        "_forwardBindMovingTargetKey": ""
      },
      {
        "$type": "LJLMDHDCAMK",
        "type": "LOOK_AT",
        "aliasList": [
          "20621"
        ],
        "actionId": 184,
        "enableHead": true,
        "targetPosition": {
          "x": 136.5240020751953,
          "y": 122.00499725341797,
          "z": -162.4550018310547
        },
        "headTurnTime": 0.5,
        "targetNpcAlias": "",
        "targetNpcLookAtPoint": "",
        "OAFJBHJHLJG": ""
      },
      {
        "$type": "MoleMole.Config.ConfigTeleportToAction",
        "type": "TELEPORT_TO",
        "aliasList": [
          "20623"
        ],
        "actionId": 178,
        "position": {
          "x": 140.3040008544922,
          "y": 120.14800262451172,
          "z": -153.91900634765625
        },
        "forward": {
          "x": 4.500999927520752,
          "y": -0.27300000190734863,
          "z": -8.24899959564209
        },
        "openLongDisTeleport": true,
        "_posBindMovingTargetKey": "",
        "_forwardBindMovingTargetKey": ""
      },
      {
        "$type": "LJLMDHDCAMK",
        "type": "LOOK_AT",
        "aliasList": [
          "20623"
        ],
        "actionId": 184,
        "enableHead": true,
        "useTargetPos": true,
        "enableAbsolute": true,
        "targetPosition": {
          "x": 140.2220001220703,
          "y": 121.61199951171875,
          "z": -155.10000610351562
        },
        "headTurnTime": 0.5,
        "targetNpcAlias": "",
        "lookAtTargetType": "NONE",
        "targetNpcLookAtPoint": "",
        "OAFJBHJHLJG": ""
      },
      {
        "$type": "LJLMDHDCAMK",
        "type": "LOOK_AT",
        "aliasList": [
          "20620"
        ],
        "actionId": 203,
        "enableHead": true,
        "targetPosition": {
          "x": 139.69900512695312,
          "y": 121.45500183105469,
          "z": -161.9409942626953
        },
        "headTurnTime": 0.5,
        "targetNpcAlias": "",
        "targetNpcLookAtPoint": "",
        "OAFJBHJHLJG": ""
      },
      {
        "$type": "LJLMDHDCAMK",
        "type": "LOOK_AT",
        "aliasList": [
          "20622"
        ],
        "actionId": 184,
        "enableHead": true,
        "targetPosition": {
          "x": 137.16299438476562,
          "y": 122.37200164794922,
          "z": -162.29600524902344
        },
        "headTurnTime": 0.5,
        "targetNpcAlias": "",
        "targetNpcLookAtPoint": "",
        "OAFJBHJHLJG": ""
      },
      {
        "$type": "MoleMole.Config.ConfigTeleportToAction",
        "type": "TELEPORT_TO",
        "delayTime": 0.008999999612569809,
        "aliasList": [
          "20620"
        ],
        "actionId": 178,
        "position": {
          "x": 143.8260040283203,
          "y": 120.20800018310547,
          "z": -156.8090057373047
        },
        "forward": {
          "x": -1.3320000171661377,
          "y": -0.2070000022649765,
          "z": -6.869999885559082
        },
        "openLongDisTeleport": true,
        "_posBindMovingTargetKey": "",
        "_forwardBindMovingTargetKey": ""
      },
      {
        "$type": "MoleMole.Config.ConfigTeleportToAction",
        "type": "TELEPORT_TO",
        "delayTime": 0.008999999612569809,
        "aliasList": [
          "20622"
        ],
        "actionId": 178,
        "position": {
          "x": 138.04100036621094,
          "y": 120.00599670410156,
          "z": -154.1219940185547
        },
        "forward": {
          "x": 2.759000062942505,
          "y": -0.07199999690055847,
          "z": -6.711999893188477
        },
        "openLongDisTeleport": true,
        "_posBindMovingTargetKey": "",
        "_forwardBindMovingTargetKey": ""
      }
    ],
    [
      {
        "$type": "MoleMole.Config.ConfigBlackScreenAction",
        "type": "BLACK_SCREEN",
        "actionId": 190,
        "blackScreenType": "FROM_BLACK",
        "durationFromBlack": 0.5,
        "inteePos": "",
        "textMapID": "",
        "useTextFade": true
      },
      {
        "$type": "FJKIHHKJLMJ",
        "type": "CAMERA_MOVE",
        "duration": 0.10000000149011612,
        "actionId": 192,
        "camPosOffset": {
          "x": 129.73800659179688,
          "y": 122.01100158691406,
          "z": -165.3040008544922
        },
        "camForwardTargetOffset": {
          "x": 130.7310028076172,
          "y": 121.90499877929688,
          "z": -165.2570037841797
        },
        "camFov": 30.0,
        "lerpPattern": 6,
        "cameraBlendType": "EaseInOutCubic",
        "NJBNNOMLKCK": {},
        "needZAxisRotate": true,
        "rotateAngle": 359.94000244140625,
        "openCameraDither": false,
        "targetNpcAlias": "",
        "closeTreeLeafDither": true,
        "KJOEFBPOIIH": "",
        "IICFKKEBIEC": "",
        "EGEHEJEBLBJ": ""
      },
      {
        "$type": "LJLMDHDCAMK",
        "type": "LOOK_AT",
        "aliasList": [
          "Avatar"
        ],
        "actionId": 184,
        "enableHead": true,
        "useTargetPos": true,
        "enableAbsolute": true,
        "targetPosition": {
          "x": 141.85299682617188,
          "y": 121.71800231933594,
          "z": -163.73599243164062
        },
        "headTurnTime": 0.5,
        "targetNpcAlias": "",
        "lookAtTargetType": "NONE",
        "targetNpcLookAtPoint": "",
        "OAFJBHJHLJG": ""
      },
      {
        "$type": "LJLMDHDCAMK",
        "type": "LOOK_AT",
        "aliasList": [
          "1005"
        ],
        "actionId": 184,
        "enableHead": true,
        "useTargetPos": true,
        "enableAbsolute": true,
        "targetPosition": {
          "x": 141.7469940185547,
          "y": 121.71800231933594,
          "z": -163.6739959716797
        },
        "headTurnTime": 0.5,
        "targetNpcAlias": "",
        "lookAtTargetType": "NONE",
        "targetNpcLookAtPoint": "",
        "OAFJBHJHLJG": ""
      },
      {
        "$type": "PKKMAMONGEO",
        "type": "DIALOG",
        "aliasList": [
          "20621"
        ],
        "dialogID": 790242201,
        "protectTime": 1.0
      },
      {
        "$type": "FJKIHHKJLMJ",
        "type": "CAMERA_MOVE",
        "delayTime": 0.04399999976158142,
        "duration": 14.440999984741211,
        "actionId": 192,
        "camPosOffset": {
          "x": 130.1699981689453,
          "y": 122.06500244140625,
          "z": -165.29299926757812
        },
        "camForwardTargetOffset": {
          "x": 131.16299438476562,
          "y": 121.95899963378906,
          "z": -165.24600219726562
        },
        "camFov": 30.0,
        "cameraBlendType": "EaseOutQuad",
        "NJBNNOMLKCK": {},
        "needZAxisRotate": true,
        "rotateAngle": 359.94000244140625,
        "openCameraDither": false,
        "targetNpcAlias": "",
        "closeTreeLeafDither": true,
        "KJOEFBPOIIH": "",
        "IICFKKEBIEC": "",
        "EGEHEJEBLBJ": ""
      }
    ],
    [
      {
        "$type": "FJKIHHKJLMJ",
        "type": "CAMERA_MOVE",
        "duration": 0.10000000149011612,
        "actionId": 192,
        "camPosOffset": {
          "x": 144.8350067138672,
          "y": 122.65399932861328,
          "z": -165.61599731445312
        },
        "camForwardTargetOffset": {
          "x": 143.96400451660156,
          "y": 122.37999725341797,
          "z": -165.20799255371094
        },
        "camFov": 30.0,
        "lerpPattern": 6,
        "cameraBlendType": "EaseInOutCubic",
        "NJBNNOMLKCK": {},
        "needZAxisRotate": true,
        "rotateAngle": 359.93798828125,
        "openCameraDither": false,
        "targetNpcAlias": "",
        "closeTreeLeafDither": true,
        "KJOEFBPOIIH": "",
        "IICFKKEBIEC": "",
        "EGEHEJEBLBJ": ""
      },
      {
        "$type": "PKKMAMONGEO",
        "type": "DIALOG",
        "aliasList": [
          "20623"
        ],
        "dialogID": 790242202,
        "protectTime": 0.5
      }
    ],
    [
      {
        "$type": "FJKIHHKJLMJ",
        "type": "CAMERA_MOVE",
        "duration": 0.10000000149011612,
        "actionId": 192,
        "camPosOffset": {
          "x": 143.63900756835938,
          "y": 122.26499938964844,
          "z": -163.6280059814453
        },
        "camForwardTargetOffset": {
          "x": 142.71600341796875,
          "y": 121.91500091552734,
          "z": -163.78500366210938
        },
        "camFov": 30.0,
        "lerpPattern": 6,
        "cameraBlendType": "EaseInOutCubic",
        "NJBNNOMLKCK": {},
        "needZAxisRotate": true,
        "rotateAngle": 359.9360046386719,
        "openCameraDither": false,
        "targetNpcAlias": "",
        "closeTreeLeafDither": true,
        "KJOEFBPOIIH": "",
        "IICFKKEBIEC": "",
        "EGEHEJEBLBJ": ""
      },
      {
        "$type": "PKKMAMONGEO",
        "type": "DIALOG",
        "aliasList": [
          "20623"
        ],
        "dialogID": 790242203,
        "protectTime": 0.5
      },
      {
        "$type": "FJKIHHKJLMJ",
        "type": "CAMERA_MOVE",
        "delayTime": 0.04399999976158142,
        "duration": 12.491999626159668,
        "actionId": 192,
        "camPosOffset": {
          "x": 143.53799438476562,
          "y": 122.22699737548828,
          "z": -163.64500427246094
        },
        "camForwardTargetOffset": {
          "x": 142.61500549316406,
          "y": 121.8759994506836,
          "z": -163.802001953125
        },
        "camFov": 30.0,
        "cameraBlendType": "EaseOutQuad",
        "NJBNNOMLKCK": {},
        "needZAxisRotate": true,
        "rotateAngle": 359.9360046386719,
        "openCameraDither": false,
        "targetNpcAlias": "",
        "closeTreeLeafDither": true,
        "KJOEFBPOIIH": "",
        "IICFKKEBIEC": "",
        "EGEHEJEBLBJ": ""
      }
    ],
    [
      {
        "$type": "FJKIHHKJLMJ",
        "type": "CAMERA_MOVE",
        "duration": 0.10000000149011612,
        "actionId": 192,
        "camPosOffset": {
          "x": 144.19400024414062,
          "y": 122.90699768066406,
          "z": -160.5050048828125
        },
        "camForwardTargetOffset": {
          "x": 143.80499267578125,
          "y": 122.59600067138672,
          "z": -161.3719940185547
        },
        "camFov": 30.0,
        "lerpPattern": 6,
        "cameraBlendType": "EaseInOutCubic",
        "NJBNNOMLKCK": {},
        "needZAxisRotate": true,
        "rotateAngle": 359.93798828125,
        "openCameraDither": false,
        "targetNpcAlias": "",
        "closeTreeLeafDither": true,
        "KJOEFBPOIIH": "",
        "IICFKKEBIEC": "",
        "EGEHEJEBLBJ": ""
      },
      {
        "$type": "PKKMAMONGEO",
        "type": "DIALOG",
        "aliasList": [
          "20621"
        ],
        "dialogID": 790242204,
        "protectTime": 0.5
      },
      {
        "$type": "FJKIHHKJLMJ",
        "type": "CAMERA_MOVE",
        "delayTime": 0.03799999877810478,
        "duration": 19.979999542236328,
        "actionId": 192,
        "camPosOffset": {
          "x": 144.58399963378906,
          "y": 122.90599822998047,
          "z": -160.68099975585938
        },
        "camForwardTargetOffset": {
          "x": 144.1909942626953,
          "y": 122.60900115966797,
          "z": -161.55099487304688
        },
        "camFov": 30.0,
        "lerpPattern": 1,
        "cameraBlendType": "EaseOutQuad",
        "NJBNNOMLKCK": {},
        "needZAxisRotate": true,
        "rotateAngle": 359.93798828125,
        "openCameraDither": false,
        "targetNpcAlias": "",
        "closeTreeLeafDither": true,
        "KJOEFBPOIIH": "",
        "IICFKKEBIEC": "",
        "EGEHEJEBLBJ": ""
      }
    ],
    [
      {
        "$type": "FJKIHHKJLMJ",
        "type": "CAMERA_MOVE",
        "duration": 0.10000000149011612,
        "actionId": 192,
        "camPosOffset": {
          "x": 145.04800415039062,
          "y": 125.25,
          "z": -172.4510040283203
        },
        "camForwardTargetOffset": {
          "x": 144.76100158691406,
          "y": 124.30999755859375,
          "z": -172.63699340820312
        },
        "camFov": 30.0,
        "lerpPattern": 6,
        "cameraBlendType": "EaseInOutCubic",
        "NJBNNOMLKCK": {},
        "needZAxisRotate": true,
        "rotateAngle": 359.82598876953125,
        "openCameraDither": false,
        "targetNpcAlias": "",
        "closeTreeLeafDither": true,
        "KJOEFBPOIIH": "",
        "IICFKKEBIEC": "",
        "EGEHEJEBLBJ": ""
      },
      {
        "$type": "PKKMAMONGEO",
        "type": "DIALOG",
        "aliasList": [
          "20623"
        ],
        "dialogID": 790242205,
        "protectTime": 0.5
      },
      {
        "$type": "FJKIHHKJLMJ",
        "type": "CAMERA_MOVE",
        "delayTime": 0.04600000008940697,
        "duration": 9.942000389099121,
        "actionId": 192,
        "camPosOffset": {
          "x": 144.8730010986328,
          "y": 125.26699829101562,
          "z": -172.2689971923828
        },
        "camForwardTargetOffset": {
          "x": 144.58599853515625,
          "y": 124.3270034790039,
          "z": -172.4550018310547
        },
        "camFov": 30.0,
        "cameraBlendType": "EaseOutQuad",
        "NJBNNOMLKCK": {},
        "needZAxisRotate": true,
        "rotateAngle": 359.82598876953125,
        "openCameraDither": false,
        "targetNpcAlias": "",
        "closeTreeLeafDither": true,
        "KJOEFBPOIIH": "",
        "IICFKKEBIEC": "",
        "EGEHEJEBLBJ": ""
      }
    ],
    [
      {
        "$type": "FJKIHHKJLMJ",
        "type": "CAMERA_MOVE",
        "duration": 0.10000000149011612,
        "actionId": 192,
        "camPosOffset": {
          "x": 143.2239990234375,
          "y": 120.45099639892578,
          "z": -171.61300659179688
        },
        "camForwardTargetOffset": {
          "x": 143.19500732421875,
          "y": 120.5790023803711,
          "z": -172.60400390625
        },
        "camFov": 30.0,
        "lerpPattern": 6,
        "cameraBlendType": "EaseInOutCubic",
        "NJBNNOMLKCK": {},
        "needZAxisRotate": true,
        "rotateAngle": 359.94000244140625,
        "openCameraDither": false,
        "targetNpcAlias": "",
        "closeTreeLeafDither": true,
        "KJOEFBPOIIH": "",
        "IICFKKEBIEC": "",
        "EGEHEJEBLBJ": ""
      },
      {
        "$type": "PKKMAMONGEO",
        "type": "DIALOG",
        "aliasList": [
          "20620"
        ],
        "dialogID": 790242206,
        "protectTime": 0.5
      },
      {
        "$type": "FJKIHHKJLMJ",
        "type": "CAMERA_MOVE",
        "delayTime": 0.041999999433755875,
        "duration": 6.910999774932861,
        "actionId": 192,
        "camPosOffset": {
          "x": 143.1820068359375,
          "y": 120.45099639892578,
          "z": -171.61199951171875
        },
        "camForwardTargetOffset": {
          "x": 143.1529998779297,
          "y": 120.5790023803711,
          "z": -172.60299682617188
        },
        "camFov": 30.0,
        "cameraBlendType": "EaseOutQuad",
        "NJBNNOMLKCK": {},
        "needZAxisRotate": true,
        "rotateAngle": 359.94000244140625,
        "openCameraDither": false,
        "targetNpcAlias": "",
        "closeTreeLeafDither": true,
        "KJOEFBPOIIH": "",
        "IICFKKEBIEC": "",
        "EGEHEJEBLBJ": ""
      }
    ],
    [
      {
        "$type": "FJKIHHKJLMJ",
        "type": "CAMERA_MOVE",
        "duration": 0.10000000149011612,
        "actionId": 192,
        "camPosOffset": {
          "x": 145.68800354003906,
          "y": 120.52899932861328,
          "z": -172.6929931640625
        },
        "camForwardTargetOffset": {
          "x": 144.7239990234375,
          "y": 120.552001953125,
          "z": -172.9600067138672
        },
        "camFov": 30.0,
        "lerpPattern": 6,
        "cameraBlendType": "EaseInOutCubic",
        "NJBNNOMLKCK": {},
        "needZAxisRotate": true,
        "rotateAngle": 359.9410095214844,
        "openCameraDither": false,
        "targetNpcAlias": "",
        "closeTreeLeafDither": true,
        "KJOEFBPOIIH": "",
        "IICFKKEBIEC": "",
        "EGEHEJEBLBJ": ""
      },
      {
        "$type": "PKKMAMONGEO",
        "type": "DIALOG",
        "aliasList": [
          "20620"
        ],
        "dialogID": 790242207,
        "protectTime": 0.5
      },
      {
        "$type": "FJKIHHKJLMJ",
        "type": "CAMERA_MOVE",
        "delayTime": 0.04399999976158142,
        "duration": 11.050000190734863,
        "actionId": 192,
        "camPosOffset": {
          "x": 145.5800018310547,
          "y": 120.53199768066406,
          "z": -172.72300720214844
        },
        "camForwardTargetOffset": {
          "x": 144.61599731445312,
          "y": 120.55500030517578,
          "z": -172.99000549316406
        },
        "camFov": 30.0,
        "cameraBlendType": "EaseOutQuad",
        "NJBNNOMLKCK": {},
        "needZAxisRotate": true,
        "rotateAngle": 359.9410095214844,
        "openCameraDither": false,
        "targetNpcAlias": "",
        "closeTreeLeafDither": true,
        "KJOEFBPOIIH": "",
        "IICFKKEBIEC": "",
        "EGEHEJEBLBJ": ""
      }
    ],
    [
      {
        "$type": "FJKIHHKJLMJ",
        "type": "CAMERA_MOVE",
        "duration": 0.10000000149011612,
        "actionId": 192,
        "camPosOffset": {
          "x": 132.74899291992188,
          "y": 120.31999969482422,
          "z": -175.2259979248047
        },
        "camForwardTargetOffset": {
          "x": 131.86000061035156,
          "y": 120.49800109863281,
          "z": -175.6479949951172
        },
        "camFov": 30.0,
        "lerpPattern": 6,
        "cameraBlendType": "EaseInOutCubic",
        "NJBNNOMLKCK": {},
        "needZAxisRotate": true,
        "rotateAngle": 359.94000244140625,
        "openCameraDither": false,
        "targetNpcAlias": "",
        "closeTreeLeafDither": true,
        "KJOEFBPOIIH": "",
        "IICFKKEBIEC": "",
        "EGEHEJEBLBJ": ""
      },
      {
        "$type": "PKKMAMONGEO",
        "type": "DIALOG",
        "aliasList": [
          "20622"
        ],
        "dialogID": 790242208,
        "protectTime": 0.5
      },
      {
        "$type": "FJKIHHKJLMJ",
        "type": "CAMERA_MOVE",
        "delayTime": 0.04600000008940697,
        "duration": 7.982999801635742,
        "actionId": 192,
        "camPosOffset": {
          "x": 132.3459930419922,
          "y": 120.40499877929688,
          "z": -175.46200561523438
        },
        "camForwardTargetOffset": {
          "x": 131.4499969482422,
          "y": 120.58300018310547,
          "z": -175.8679962158203
        },
        "camFov": 30.0,
        "cameraBlendType": "EaseOutQuad",
        "NJBNNOMLKCK": {},
        "needZAxisRotate": true,
        "rotateAngle": 359.94000244140625,
        "openCameraDither": false,
        "targetNpcAlias": "",
        "closeTreeLeafDither": true,
        "KJOEFBPOIIH": "",
        "IICFKKEBIEC": "",
        "EGEHEJEBLBJ": ""
      }
    ],
    [
      {
        "$type": "FJKIHHKJLMJ",
        "type": "CAMERA_MOVE",
        "duration": 0.10000000149011612,
        "actionId": 192,
        "camPosOffset": {
          "x": 122.96099853515625,
          "y": 122.56300354003906,
          "z": -181.1820068359375
        },
        "camForwardTargetOffset": {
          "x": 122.6719970703125,
          "y": 122.43299865722656,
          "z": -180.23399353027344
        },
        "camFov": 30.0,
        "lerpPattern": 6,
        "cameraBlendType": "EaseInOutCubic",
        "NJBNNOMLKCK": {},
        "needZAxisRotate": true,
        "rotateAngle": 359.94000244140625,
        "openCameraDither": false,
        "targetNpcAlias": "",
        "closeTreeLeafDither": true,
        "KJOEFBPOIIH": "",
        "IICFKKEBIEC": "",
        "EGEHEJEBLBJ": ""
      },
      {
        "$type": "PKKMAMONGEO",
        "type": "DIALOG",
        "aliasList": [
          "20623"
        ],
        "dialogID": 790242209,
        "protectTime": 0.5
      },
      {
        "$type": "FJKIHHKJLMJ",
        "type": "CAMERA_MOVE",
        "delayTime": 0.06199999898672104,
        "duration": 17.767000198364258,
        "actionId": 192,
        "camPosOffset": {
          "x": 122.83000183105469,
          "y": 122.58499908447266,
          "z": -181.218994140625
        },
        "camForwardTargetOffset": {
          "x": 122.54100036621094,
          "y": 122.45500183105469,
          "z": -180.27099609375
        },
        "camFov": 30.0,
        "cameraBlendType": "EaseOutQuad",
        "NJBNNOMLKCK": {},
        "needZAxisRotate": true,
        "rotateAngle": 359.94000244140625,
        "openCameraDither": false,
        "targetNpcAlias": "",
        "closeTreeLeafDither": true,
        "KJOEFBPOIIH": "",
        "IICFKKEBIEC": "",
        "EGEHEJEBLBJ": ""
      }
    ],
    [
      {
        "$type": "FJKIHHKJLMJ",
        "type": "CAMERA_MOVE",
        "duration": 0.10000000149011612,
        "actionId": 192,
        "camPosOffset": {
          "x": 123.19000244140625,
          "y": 122.37799835205078,
          "z": -177.656005859375
        },
        "camForwardTargetOffset": {
          "x": 122.44400024414062,
          "y": 122.62300109863281,
          "z": -178.27499389648438
        },
        "camFov": 30.0,
        "lerpPattern": 6,
        "cameraBlendType": "EaseInOutCubic",
        "NJBNNOMLKCK": {},
        "needZAxisRotate": true,
        "rotateAngle": 359.9389953613281,
        "openCameraDither": false,
        "targetNpcAlias": "",
        "closeTreeLeafDither": true,
        "KJOEFBPOIIH": "",
        "IICFKKEBIEC": "",
        "EGEHEJEBLBJ": ""
      },
      {
        "$type": "PKKMAMONGEO",
        "type": "DIALOG",
        "aliasList": [
          "20622"
        ],
        "dialogID": 790242210,
        "protectTime": 0.5
      }
    ],
    [
      {
        "$type": "FJKIHHKJLMJ",
        "type": "CAMERA_MOVE",
        "duration": 0.10000000149011612,
        "actionId": 192,
        "camPosOffset": {
          "x": 121.04100036621094,
          "y": 122.32499694824219,
          "z": -177.13999938964844
        },
        "camForwardTargetOffset": {
          "x": 121.96499633789062,
          "y": 122.21299743652344,
          "z": -177.5050048828125
        },
        "camFov": 30.0,
        "lerpPattern": 6,
        "cameraBlendType": "EaseInOutCubic",
        "NJBNNOMLKCK": {},
        "needZAxisRotate": true,
        "rotateAngle": 359.9410095214844,
        "openCameraDither": false,
        "targetNpcAlias": "",
        "closeTreeLeafDither": true,
        "KJOEFBPOIIH": "",
        "IICFKKEBIEC": "",
        "EGEHEJEBLBJ": ""
      },
      {
        "$type": "PKKMAMONGEO",
        "type": "DIALOG",
        "aliasList": [
          "20620"
        ],
        "dialogID": 790242211,
        "protectTime": 0.5
      }
    ],
    [
      {
        "$type": "PKKMAMONGEO",
        "type": "DIALOG",
        "aliasList": [
          "20623"
        ],
        "dialogID": 790242212,
        "protectTime": 0.5
      }
    ],
    [
      {
        "$type": "FJKIHHKJLMJ",
        "type": "CAMERA_MOVE",
        "duration": 0.10000000149011612,
        "actionId": 192,
        "camPosOffset": {
          "x": 126.58300018310547,
          "y": 125.31999969482422,
          "z": -183.3249969482422
        },
        "camForwardTargetOffset": {
          "x": 126.17900085449219,
          "y": 125.03500366210938,
          "z": -182.45599365234375
        },
        "camFov": 30.0,
        "lerpPattern": 6,
        "cameraBlendType": "EaseInOutCubic",
        "NJBNNOMLKCK": {},
        "needZAxisRotate": true,
        "rotateAngle": 359.93798828125,
        "openCameraDither": false,
        "targetNpcAlias": "",
        "closeTreeLeafDither": true,
        "KJOEFBPOIIH": "",
        "IICFKKEBIEC": "",
        "EGEHEJEBLBJ": ""
      },
      {
        "$type": "PKKMAMONGEO",
        "type": "DIALOG",
        "aliasList": [
          "20623"
        ],
        "dialogID": 790242213,
        "protectTime": 0.5
      },
      {
        "$type": "FJKIHHKJLMJ",
        "type": "CAMERA_MOVE",
        "delayTime": 0.05000000074505806,
        "duration": 13.222000122070312,
        "actionId": 192,
        "camPosOffset": {
          "x": 126.26799774169922,
          "y": 125.09500122070312,
          "z": -183.0
        },
        "camForwardTargetOffset": {
          "x": 125.9229965209961,
          "y": 124.85299682617188,
          "z": -182.09300231933594
        },
        "camFov": 30.0,
        "cameraBlendType": "EaseOutQuad",
        "NJBNNOMLKCK": {},
        "needZAxisRotate": true,
        "rotateAngle": 359.9389953613281,
        "openCameraDither": false,
        "targetNpcAlias": "",
        "closeTreeLeafDither": true,
        "KJOEFBPOIIH": "",
        "IICFKKEBIEC": "",
        "EGEHEJEBLBJ": ""
      }
    ],
    [
      {
        "$type": "PKKMAMONGEO",
        "type": "DIALOG",
        "aliasList": [
          "20622"
        ],
        "dialogID": 790242214,
        "protectTime": 0.5
      }
    ],
    [
      {
        "$type": "FJKIHHKJLMJ",
        "type": "CAMERA_MOVE",
        "duration": 0.10000000149011612,
        "actionId": 192,
        "camPosOffset": {
          "x": 122.0009994506836,
          "y": 123.28299713134766,
          "z": -170.6649932861328
        },
        "camForwardTargetOffset": {
          "x": 121.3550033569336,
          "y": 122.91000366210938,
          "z": -171.33099365234375
        },
        "camFov": 30.0,
        "lerpPattern": 6,
        "cameraBlendType": "EaseInOutCubic",
        "NJBNNOMLKCK": {},
        "needZAxisRotate": true,
        "rotateAngle": 359.9360046386719,
        "openCameraDither": false,
        "targetNpcAlias": "",
        "closeTreeLeafDither": true,
        "KJOEFBPOIIH": "",
        "IICFKKEBIEC": "",
        "EGEHEJEBLBJ": ""
      },
      {
        "$type": "PKKMAMONGEO",
        "type": "DIALOG",
        "aliasList": [
          "20620"
        ],
        "dialogID": 790242215,
        "protectTime": 0.5
      },
      {
        "$type": "FJKIHHKJLMJ",
        "type": "CAMERA_MOVE",
        "delayTime": 0.050999999046325684,
        "duration": 18.159000396728516,
        "actionId": 192,
        "camPosOffset": {
          "x": 121.8010025024414,
          "y": 123.28600311279297,
          "z": -170.48199462890625
        },
        "camForwardTargetOffset": {
          "x": 121.19300079345703,
          "y": 122.91000366210938,
          "z": -171.18099975585938
        },
        "camFov": 30.0,
        "cameraBlendType": "EaseOutQuad",
        "NJBNNOMLKCK": {},
        "needZAxisRotate": true,
        "rotateAngle": 359.9360046386719,
        "openCameraDither": false,
        "targetNpcAlias": "",
        "closeTreeLeafDither": true,
        "KJOEFBPOIIH": "",
        "IICFKKEBIEC": "",
        "EGEHEJEBLBJ": ""
      }
    ],
    [
      {
        "$type": "PKKMAMONGEO",
        "type": "DIALOG",
        "aliasList": [
          "20620"
        ],
        "dialogID": 790242216,
        "protectTime": 0.5
      }
    ],
    [
      {
        "$type": "FJKIHHKJLMJ",
        "type": "CAMERA_MOVE",
        "duration": 0.10000000149011612,
        "actionId": 192,
        "camPosOffset": {
          "x": 137.5189971923828,
          "y": 122.49600219726562,
          "z": -155.7270050048828
        },
        "camForwardTargetOffset": {
          "x": 137.79600524902344,
          "y": 122.49500274658203,
          "z": -154.76600646972656
        },
        "camFov": 30.0,
        "lerpPattern": 6,
        "cameraBlendType": "EaseInOutCubic",
        "NJBNNOMLKCK": {},
        "needZAxisRotate": true,
        "rotateAngle": 359.94000244140625,
        "openCameraDither": false,
        "targetNpcAlias": "",
        "closeTreeLeafDither": true,
        "KJOEFBPOIIH": "",
        "IICFKKEBIEC": "",
        "EGEHEJEBLBJ": ""
      },
      {
        "$type": "PKKMAMONGEO",
        "type": "DIALOG",
        "aliasList": [
          "20622"
        ],
        "dialogID": 790242217,
        "protectTime": 0.5
      }
    ],
    [
      {
        "$type": "PKKMAMONGEO",
        "type": "DIALOG",
        "aliasList": [
          "20623"
        ],
        "dialogID": 790242218,
        "protectTime": 1.0
      },
      {
        "$type": "MoleMole.Config.ConfigTeleportToAction",
        "type": "TELEPORT_TO",
        "aliasList": [
          "20623"
        ],
        "actionId": 272,
        "position": {
          "x": 140.30599975585938,
          "y": 120.14800262451172,
          "z": -153.91900634765625
        },
        "forward": {
          "x": 0.26499998569488525,
          "z": -1.7089999914169312
        },
        "openLongDisTeleport": true,
        "_posBindMovingTargetKey": "",
        "_forwardBindMovingTargetKey": ""
      },
      {
        "$type": "LJLMDHDCAMK",
        "type": "LOOK_AT",
        "aliasList": [
          "20622"
        ],
        "actionId": 273,
        "enableHead": true,
        "useTargetPos": true,
        "enableAbsolute": true,
        "targetPosition": {
          "x": 138.77099609375,
          "y": 122.37100219726562,
          "z": -154.6269989013672
        },
        "headTurnTime": 0.4000000059604645,
        "targetNpcAlias": "",
        "lookAtTargetType": "NONE",
        "targetNpcLookAtPoint": "",
        "OAFJBHJHLJG": ""
      },
      {
        "$type": "FJKIHHKJLMJ",
        "type": "CAMERA_MOVE",
        "delayTime": 0.12800000607967377,
        "duration": 0.7310000061988831,
        "actionId": 192,
        "camPosOffset": {
          "x": 136.93499755859375,
          "y": 122.5,
          "z": -155.25999450683594
        },
        "camForwardTargetOffset": {
          "x": 137.72900390625,
          "y": 122.37000274658203,
          "z": -154.66600036621094
        },
        "camFov": 30.0,
        "cameraBlendType": "EaseInOutQuad",
        "NJBNNOMLKCK": {},
        "needZAxisRotate": true,
        "rotateAngle": 359.94000244140625,
        "openCameraDither": false,
        "targetNpcAlias": "",
        "closeTreeLeafDither": true,
        "KJOEFBPOIIH": "",
        "IICFKKEBIEC": "",
        "EGEHEJEBLBJ": ""
      },
      {
        "$type": "LJLMDHDCAMK",
        "type": "LOOK_AT",
        "delayTime": 0.26100000739097595,
        "aliasList": [
          "20623"
        ],
        "actionId": 184,
        "enableHead": true,
        "useTargetPos": true,
        "enableAbsolute": true,
        "targetPosition": {
          "x": 140.01499938964844,
          "y": 122.29100036621094,
          "z": -155.15699768066406
        },
        "headTurnTime": 0.5,
        "targetNpcAlias": "",
        "lookAtTargetType": "NONE",
        "targetNpcLookAtPoint": "",
        "OAFJBHJHLJG": ""
      }
    ],
    [
      {
        "$type": "FJKIHHKJLMJ",
        "type": "CAMERA_MOVE",
        "duration": 0.10000000149011612,
        "actionId": 192,
        "camPosOffset": {
          "x": 139.7030029296875,
          "y": 121.94999694824219,
          "z": -155.05799865722656
        },
        "camForwardTargetOffset": {
          "x": 140.16900634765625,
          "y": 122.04499816894531,
          "z": -154.1790008544922
        },
        "camFov": 30.0,
        "lerpPattern": 6,
        "cameraBlendType": "EaseInOutCubic",
        "NJBNNOMLKCK": {},
        "needZAxisRotate": true,
        "rotateAngle": 359.94000244140625,
        "openCameraDither": false,
        "targetNpcAlias": "",
        "closeTreeLeafDither": true,
        "KJOEFBPOIIH": "",
        "IICFKKEBIEC": "",
        "EGEHEJEBLBJ": ""
      },
      {
        "$type": "PKKMAMONGEO",
        "type": "DIALOG",
        "aliasList": [
          "20623"
        ],
        "dialogID": 790242219,
        "protectTime": 0.5
      },
      {
        "$type": "FJKIHHKJLMJ",
        "type": "CAMERA_MOVE",
        "delayTime": 0.06400000303983688,
        "duration": 13.027999877929688,
        "actionId": 192,
        "camPosOffset": {
          "x": 139.76300048828125,
          "y": 121.96199798583984,
          "z": -154.9459991455078
        },
        "camForwardTargetOffset": {
          "x": 140.22900390625,
          "y": 122.05699920654297,
          "z": -154.06700134277344
        },
        "camFov": 30.0,
        "cameraBlendType": "EaseOutQuad",
        "NJBNNOMLKCK": {},
        "needZAxisRotate": true,
        "rotateAngle": 359.94000244140625,
        "openCameraDither": false,
        "targetNpcAlias": "",
        "closeTreeLeafDither": true,
        "KJOEFBPOIIH": "",
        "IICFKKEBIEC": "",
        "EGEHEJEBLBJ": ""
      }
    ],
    [
      {
        "$type": "FJKIHHKJLMJ",
        "type": "CAMERA_MOVE",
        "duration": 0.10000000149011612,
        "actionId": 192,
        "camPosOffset": {
          "x": 137.91099548339844,
          "y": 131.2790069580078,
          "z": -158.12100219726562
        },
        "camForwardTargetOffset": {
          "x": 138.093994140625,
          "y": 130.34300231933594,
          "z": -157.81900024414062
        },
        "camFov": 30.0,
        "lerpPattern": 6,
        "cameraBlendType": "EaseInOutCubic",
        "NJBNNOMLKCK": {},
        "needZAxisRotate": true,
        "rotateAngle": 359.83099365234375,
        "openCameraDither": false,
        "targetNpcAlias": "",
        "closeTreeLeafDither": true,
        "KJOEFBPOIIH": "",
        "IICFKKEBIEC": "",
        "EGEHEJEBLBJ": ""
      },
      {
        "$type": "LJLMDHDCAMK",
        "type": "LOOK_AT",
        "aliasList": [
          "Avatar"
        ],
        "actionId": 286,
        "enableHead": true,
        "useTargetPos": true,
        "enableAbsolute": true,
        "targetPosition": {
          "x": 140.50399780273438,
          "y": 121.41400146484375,
          "z": -153.55599975585938
        },
        "headTurnTime": 0.5,
        "targetNpcAlias": "",
        "lookAtTargetType": "NONE",
        "targetNpcLookAtPoint": "",
        "OAFJBHJHLJG": ""
      },
      {
        "$type": "LJLMDHDCAMK",
        "type": "LOOK_AT",
        "aliasList": [
          "1005"
        ],
        "actionId": 286,
        "enableHead": true,
        "useTargetPos": true,
        "enableAbsolute": true,
        "targetPosition": {
          "x": 140.50399780273438,
          "y": 121.41400146484375,
          "z": -153.55599975585938
        },
        "headTurnTime": 0.5,
        "targetNpcAlias": "",
        "lookAtTargetType": "NONE",
        "targetNpcLookAtPoint": "",
        "OAFJBHJHLJG": ""
      },
      {
        "$type": "MoleMole.Config.ConfigTeleportToAction",
        "type": "TELEPORT_TO",
        "aliasList": [
          "20621"
        ],
        "actionId": 281,
        "position": {
          "x": 142.54600524902344,
          "y": 120.20600128173828,
          "z": -154.91600036621094
        },
        "forward": {
          "x": -1.9839999675750732,
          "y": 0.004000000189989805,
          "z": -0.289000004529953
        },
        "openLongDisTeleport": true,
        "_posBindMovingTargetKey": "",
        "_forwardBindMovingTargetKey": ""
      },
      {
        "$type": "LJLMDHDCAMK",
        "type": "LOOK_AT",
        "aliasList": [
          "20621"
        ],
        "actionId": 286,
        "enableHead": true,
        "useTargetPos": true,
        "enableAbsolute": true,
        "targetPosition": {
          "x": 141.76400756835938,
          "y": 122.56400299072266,
          "z": -154.89599609375
        },
        "headTurnTime": 0.5,
        "targetNpcAlias": "",
        "lookAtTargetType": "NONE",
        "targetNpcLookAtPoint": "",
        "OAFJBHJHLJG": ""
      },
      {
        "$type": "PKKMAMONGEO",
        "type": "DIALOG",
        "aliasList": [
          "20623"
        ],
        "dialogID": 790242220,
        "protectTime": 0.5
      },
      {
        "$type": "LJLMDHDCAMK",
        "type": "LOOK_AT",
        "aliasList": [
          "20623"
        ],
        "actionId": 286,
        "enableHead": true,
        "useTargetPos": true,
        "enableAbsolute": true,
        "targetPosition": {
          "x": 140.14300537109375,
          "y": 122.1449966430664,
          "z": -154.6300048828125
        },
        "headTurnTime": 0.5,
        "targetNpcAlias": "",
        "lookAtTargetType": "NONE",
        "targetNpcLookAtPoint": "",
        "OAFJBHJHLJG": ""
      },
      {
        "$type": "MoleMole.Config.ConfigTeleportToAction",
        "type": "TELEPORT_TO",
        "aliasList": [
          "20623"
        ],
        "actionId": 292,
        "position": {
          "x": 140.1529998779297,
          "y": 120.1709976196289,
          "z": -153.2259979248047
        },
        "forward": {
          "x": 0.3070000112056732,
          "y": -0.023000000044703484,
          "z": -1.6820000410079956
        },
        "openLongDisTeleport": true,
        "_posBindMovingTargetKey": "",
        "_forwardBindMovingTargetKey": ""
      },
      {
        "$type": "MoleMole.Config.ConfigTeleportToAction",
        "type": "TELEPORT_TO",
        "aliasList": [
          "20620"
        ],
        "actionId": 281,
        "position": {
          "x": 142.1230010986328,
          "y": 120.14900207519531,
          "z": -157.21400451660156
        },
        "forward": {
          "x": -1.3309999704360962,
          "y": 0.05999999865889549,
          "z": 2.7039999961853027
        },
        "openLongDisTeleport": true,
        "_posBindMovingTargetKey": "",
        "_forwardBindMovingTargetKey": ""
      },
      {
        "$type": "LJLMDHDCAMK",
        "type": "LOOK_AT",
        "aliasList": [
          "20620"
        ],
        "actionId": 286,
        "enableHead": true,
        "useTargetPos": true,
        "enableAbsolute": true,
        "targetPosition": {
          "x": 141.84500122070312,
          "y": 121.54299926757812,
          "z": -156.68899536132812
        },
        "headTurnTime": 0.5,
        "targetNpcAlias": "",
        "lookAtTargetType": "NONE",
        "targetNpcLookAtPoint": "",
        "OAFJBHJHLJG": ""
      },
      {
        "$type": "MoleMole.Config.ConfigTeleportToAction",
        "type": "TELEPORT_TO",
        "aliasList": [
          "20622"
        ],
        "actionId": 281,
        "position": {
          "x": 138.04100036621094,
          "y": 120.00599670410156,
          "z": -154.1219940185547
        },
        "forward": {
          "x": 1.5889999866485596,
          "z": -0.39100000262260437
        },
        "openLongDisTeleport": true,
        "_posBindMovingTargetKey": "",
        "_forwardBindMovingTargetKey": ""
      },
      {
        "$type": "LJLMDHDCAMK",
        "type": "LOOK_AT",
        "aliasList": [
          "20622"
        ],
        "actionId": 286,
        "enableHead": true,
        "useTargetPos": true,
        "enableAbsolute": true,
        "targetPosition": {
          "x": 138.6999969482422,
          "y": 122.58399963378906,
          "z": -154.5070037841797
        },
        "headTurnTime": 0.5,
        "targetNpcAlias": "",
        "lookAtTargetType": "NONE",
        "targetNpcLookAtPoint": "",
        "OAFJBHJHLJG": ""
      },
      {
        "$type": "FJKIHHKJLMJ",
        "type": "CAMERA_MOVE",
        "delayTime": 0.05400000140070915,
        "duration": 15.989999771118164,
        "actionId": 192,
        "camPosOffset": {
          "x": 137.64300537109375,
          "y": 132.65199279785156,
          "z": -158.56399536132812
        },
        "camForwardTargetOffset": {
          "x": 137.8260040283203,
          "y": 131.71600341796875,
          "z": -158.26199340820312
        },
        "camFov": 30.0,
        "cameraBlendType": "EaseOutQuad",
        "NJBNNOMLKCK": {},
        "needZAxisRotate": true,
        "rotateAngle": 359.83099365234375,
        "openCameraDither": false,
        "targetNpcAlias": "",
        "closeTreeLeafDither": true,
        "KJOEFBPOIIH": "",
        "IICFKKEBIEC": "",
        "EGEHEJEBLBJ": ""
      }
    ],
    [
      {
        "$type": "PKKMAMONGEO",
        "type": "DIALOG",
        "aliasList": [
          "20620"
        ],
        "dialogID": 790242221,
        "protectTime": 0.30000001192092896
      }
    ],
    [
      {
        "$type": "PKKMAMONGEO",
        "type": "DIALOG",
        "aliasList": [
          "20623"
        ],
        "dialogID": 790242240,
        "protectTime": 0.5,
        "playAudio": false
      }
    ],
    [
      {
        "$type": "FJKIHHKJLMJ",
        "type": "CAMERA_MOVE",
        "duration": 0.10000000149011612,
        "actionId": 192,
        "camPosOffset": {
          "x": 139.41400146484375,
          "y": 122.22699737548828,
          "z": -152.3780059814453
        },
        "camForwardTargetOffset": {
          "x": 139.968994140625,
          "y": 122.10299682617188,
          "z": -153.2010040283203
        },
        "camFov": 20.0,
        "lerpPattern": 6,
        "cameraBlendType": "EaseInOutCubic",
        "NJBNNOMLKCK": {},
        "needZAxisRotate": true,
        "rotateAngle": 359.94000244140625,
        "openCameraDither": false,
        "targetNpcAlias": "",
        "closeTreeLeafDither": true,
        "KJOEFBPOIIH": "",
        "IICFKKEBIEC": "",
        "EGEHEJEBLBJ": ""
      },
      {
        "$type": "LJLMDHDCAMK",
        "type": "LOOK_AT",
        "aliasList": [
          "Avatar"
        ],
        "actionId": 300,
        "enableHead": true,
        "useTargetPos": true,
        "enableAbsolute": true,
        "targetPosition": {
          "x": 138.8769989013672,
          "y": 121.46600341796875,
          "z": -156.40199279785156
        },
        "headTurnTime": 0.5,
        "targetNpcAlias": "",
        "lookAtTargetType": "NONE",
        "targetNpcLookAtPoint": "",
        "OAFJBHJHLJG": ""
      },
      {
        "$type": "LJLMDHDCAMK",
        "type": "LOOK_AT",
        "aliasList": [
          "1005"
        ],
        "actionId": 300,
        "enableHead": true,
        "useTargetPos": true,
        "enableAbsolute": true,
        "targetPosition": {
          "x": 138.26300048828125,
          "y": 121.46600341796875,
          "z": -156.22500610351562
        },
        "headTurnTime": 0.5,
        "targetNpcAlias": "",
        "lookAtTargetType": "NONE",
        "targetNpcLookAtPoint": "",
        "OAFJBHJHLJG": ""
      },
      {
        "$type": "PKKMAMONGEO",
        "type": "DIALOG",
        "aliasList": [
          "20620"
        ],
        "dialogID": 790242222,
        "protectTime": 0.5
      }
    ],
    [
      {
        "$type": "FJKIHHKJLMJ",
        "type": "CAMERA_MOVE",
        "duration": 0.10000000149011612,
        "actionId": 192,
        "camPosOffset": {
          "x": 140.48399353027344,
          "y": 121.93199920654297,
          "z": -152.23699951171875
        },
        "camForwardTargetOffset": {
          "x": 139.7989959716797,
          "y": 122.06199645996094,
          "z": -152.95399475097656
        },
        "camFov": 30.0,
        "lerpPattern": 6,
        "cameraBlendType": "EaseInOutCubic",
        "NJBNNOMLKCK": {},
        "needZAxisRotate": true,
        "rotateAngle": 359.94000244140625,
        "openCameraDither": false,
        "targetNpcAlias": "",
        "closeTreeLeafDither": true,
        "KJOEFBPOIIH": "",
        "IICFKKEBIEC": "",
        "EGEHEJEBLBJ": ""
      },
      {
        "$type": "MoleMole.Config.ConfigTeleportToAction",
        "type": "TELEPORT_TO",
        "aliasList": [
          "Avatar"
        ],
        "actionId": 298,
        "position": {
          "x": 132.35400390625,
          "y": 120.16600036621094,
          "z": -164.49899291992188
        },
        "forward": {
          "x": 3.6040000915527344,
          "z": 5.298999786376953
        },
        "openLongDisTeleport": true,
        "_posBindMovingTargetKey": "",
        "_forwardBindMovingTargetKey": ""
      },
      {
        "$type": "MoleMole.Config.ConfigTeleportToAction",
        "type": "TELEPORT_TO",
        "aliasList": [
          "1005"
        ],
        "actionId": 298,
        "position": {
          "x": 132.4219970703125,
          "y": 120.18000030517578,
          "z": -165.49200439453125
        },
        "forward": {
          "x": 3.6059999465942383,
          "z": 4.940000057220459
        },
        "openLongDisTeleport": true,
        "_posBindMovingTargetKey": "",
        "_forwardBindMovingTargetKey": ""
      },
      {
        "$type": "PKKMAMONGEO",
        "type": "DIALOG",
        "aliasList": [
          "20622"
        ],
        "dialogID": 790242223,
        "protectTime": 0.5
      },
      {
        "$type": "LJLMDHDCAMK",
        "type": "LOOK_AT",
        "aliasList": [
          "20622"
        ],
        "actionId": 296,
        "enableHead": true,
        "useTargetPos": true,
        "enableAbsolute": true,
        "targetPosition": {
          "x": 139.36500549316406,
          "y": 122.58699798583984,
          "z": -154.07400512695312
        },
        "headTurnTime": 0.4000000059604645,
        "targetNpcAlias": "",
        "lookAtTargetType": "NONE",
        "targetNpcLookAtPoint": "",
        "OAFJBHJHLJG": ""
      },
      {
        "$type": "FJKIHHKJLMJ",
        "type": "CAMERA_MOVE",
        "delayTime": 0.03099999949336052,
        "duration": 6.3480000495910645,
        "actionId": 192,
        "camPosOffset": {
          "x": 140.42300415039062,
          "y": 121.9280014038086,
          "z": -152.17999267578125
        },
        "camForwardTargetOffset": {
          "x": 139.73800659179688,
          "y": 122.05799865722656,
          "z": -152.89700317382812
        },
        "camFov": 30.0,
        "cameraBlendType": "EaseOutQuad",
        "NJBNNOMLKCK": {},
        "needZAxisRotate": true,
        "rotateAngle": 359.94000244140625,
        "openCameraDither": false,
        "targetNpcAlias": "",
        "closeTreeLeafDither": true,
        "KJOEFBPOIIH": "",
        "IICFKKEBIEC": "",
        "EGEHEJEBLBJ": ""
      }
    ],
    [
      {
        "$type": "FJKIHHKJLMJ",
        "type": "CAMERA_MOVE",
        "duration": 0.10000000149011612,
        "actionId": 192,
        "camPosOffset": {
          "x": 136.59100341796875,
          "y": 120.79199981689453,
          "z": -162.0749969482422
        },
        "camForwardTargetOffset": {
          "x": 137.05799865722656,
          "y": 120.84500122070312,
          "z": -161.19200134277344
        },
        "camFov": 30.0,
        "lerpPattern": 6,
        "cameraBlendType": "EaseInOutCubic",
        "NJBNNOMLKCK": {},
        "needZAxisRotate": true,
        "rotateAngle": 359.94000244140625,
        "openCameraDither": false,
        "targetNpcAlias": "",
        "closeTreeLeafDither": true,
        "KJOEFBPOIIH": "",
        "IICFKKEBIEC": "",
        "EGEHEJEBLBJ": ""
      },
      {
        "$type": "PKKMAMONGEO",
        "type": "DIALOG",
        "aliasList": [
          "20623"
        ],
        "dialogID": 790242224,
        "protectTime": 0.5
      },
      {
        "$type": "FJKIHHKJLMJ",
        "type": "CAMERA_MOVE",
        "delayTime": 0.03099999949336052,
        "duration": 12.633999824523926,
        "actionId": 192,
        "camPosOffset": {
          "x": 137.00100708007812,
          "y": 120.76300048828125,
          "z": -162.2779998779297
        },
        "camForwardTargetOffset": {
          "x": 137.4250030517578,
          "y": 120.81900024414062,
          "z": -161.37399291992188
        },
        "camFov": 30.0,
        "cameraBlendType": "EaseOutQuad",
        "NJBNNOMLKCK": {},
        "needZAxisRotate": true,
        "rotateAngle": 359.94000244140625,
        "openCameraDither": false,
        "targetNpcAlias": "",
        "closeTreeLeafDither": true,
        "KJOEFBPOIIH": "",
        "IICFKKEBIEC": "",
        "EGEHEJEBLBJ": ""
      }
    ],
    [
      {
        "$type": "FJKIHHKJLMJ",
        "type": "CAMERA_MOVE",
        "duration": 0.10000000149011612,
        "actionId": 192,
        "camPosOffset": {
          "x": 140.9810028076172,
          "y": 121.50499725341797,
          "z": -156.77699279785156
        },
        "camForwardTargetOffset": {
          "x": 141.93800354003906,
          "y": 121.62100219726562,
          "z": -157.04299926757812
        },
        "camFov": 30.0,
        "lerpPattern": 6,
        "cameraBlendType": "EaseInOutCubic",
        "NJBNNOMLKCK": {},
        "needZAxisRotate": true,
        "rotateAngle": 359.94000244140625,
        "openCameraDither": false,
        "targetNpcAlias": "",
        "closeTreeLeafDither": true,
        "KJOEFBPOIIH": "",
        "IICFKKEBIEC": "",
        "EGEHEJEBLBJ": ""
      },
      {
        "$type": "PKKMAMONGEO",
        "type": "DIALOG",
        "aliasList": [
          "20620"
        ],
        "dialogID": 790242225,
        "protectTime": 0.5
      }
    ],
    [
      {
        "$type": "FJKIHHKJLMJ",
        "type": "CAMERA_MOVE",
        "duration": 0.10000000149011612,
        "actionId": 192,
        "camPosOffset": {
          "x": 140.8699951171875,
          "y": 121.58000183105469,
          "z": -158.23899841308594
        },
        "camForwardTargetOffset": {
          "x": 141.4250030517578,
          "y": 121.70999908447266,
          "z": -157.41799926757812
        },
        "camFov": 30.0,
        "lerpPattern": 6,
        "cameraBlendType": "EaseInOutCubic",
        "NJBNNOMLKCK": {},
        "needZAxisRotate": true,
        "rotateAngle": 359.94000244140625,
        "openCameraDither": false,
        "targetNpcAlias": "",
        "closeTreeLeafDither": true,
        "KJOEFBPOIIH": "",
        "IICFKKEBIEC": "",
        "EGEHEJEBLBJ": ""
      },
      {
        "$type": "PKKMAMONGEO",
        "type": "DIALOG",
        "aliasList": [
          "20621"
        ],
        "dialogID": 790242226,
        "protectTime": 0.5
      }
    ],
    [
      {
        "$type": "FJKIHHKJLMJ",
        "type": "CAMERA_MOVE",
        "duration": 0.10000000149011612,
        "actionId": 192,
        "camPosOffset": {
          "x": 143.6179962158203,
          "y": 121.74600219726562,
          "z": -157.91900634765625
        },
        "camForwardTargetOffset": {
          "x": 142.93099975585938,
          "y": 121.69999694824219,
          "z": -157.19400024414062
        },
        "camFov": 30.0,
        "lerpPattern": 6,
        "cameraBlendType": "EaseInOutCubic",
        "NJBNNOMLKCK": {},
        "needZAxisRotate": true,
        "rotateAngle": 359.94000244140625,
        "openCameraDither": false,
        "targetNpcAlias": "",
        "closeTreeLeafDither": true,
        "KJOEFBPOIIH": "",
        "IICFKKEBIEC": "",
        "EGEHEJEBLBJ": ""
      },
      {
        "$type": "PKKMAMONGEO",
        "type": "DIALOG",
        "aliasList": [
          "20623"
        ],
        "dialogID": 790242227,
        "protectTime": 0.5
      }
    ],
    [
      {
        "$type": "PKKMAMONGEO",
        "type": "DIALOG",
        "aliasList": [
          "20622"
        ],
        "dialogID": 790242228,
        "protectTime": 0.5
      }
    ],
    [
      {
        "$type": "FJKIHHKJLMJ",
        "type": "CAMERA_MOVE",
        "duration": 0.10000000149011612,
        "actionId": 192,
        "camPosOffset": {
          "x": 137.1009979248047,
          "y": 123.0009994506836,
          "z": -155.60400390625
        },
        "camForwardTargetOffset": {
          "x": 137.77099609375,
          "y": 122.78900146484375,
          "z": -154.89300537109375
        },
        "camFov": 20.0,
        "lerpPattern": 6,
        "cameraBlendType": "EaseInOutCubic",
        "NJBNNOMLKCK": {},
        "needZAxisRotate": true,
        "rotateAngle": 359.9389953613281,
        "openCameraDither": false,
        "targetNpcAlias": "",
        "closeTreeLeafDither": true,
        "KJOEFBPOIIH": "",
        "IICFKKEBIEC": "",
        "EGEHEJEBLBJ": ""
      },
      {
        "$type": "PKKMAMONGEO",
        "type": "DIALOG",
        "aliasList": [
          "20623"
        ],
        "dialogID": 790242229,
        "protectTime": 0.5
      },
      {
        "$type": "LJLMDHDCAMK",
        "type": "LOOK_AT",
        "aliasList": [
          "20623"
        ],
        "actionId": 308,
        "enableHead": true,
        "useTargetPos": true,
        "enableAbsolute": true,
        "targetPosition": {
          "x": 138.57400512695312,
          "y": 122.40799713134766,
          "z": -154.3509979248047
        },
        "headTurnTime": 0.4000000059604645,
        "targetNpcAlias": "",
        "lookAtTargetType": "NONE",
        "targetNpcLookAtPoint": "",
        "OAFJBHJHLJG": ""
      }
    ],
    [
      {
        "$type": "FJKIHHKJLMJ",
        "type": "CAMERA_MOVE",
        "duration": 0.10000000149011612,
        "actionId": 192,
        "camPosOffset": {
          "x": 133.87899780273438,
          "y": 121.33999633789062,
          "z": -163.08399963378906
        },
        "camForwardTargetOffset": {
          "x": 133.2519989013672,
          "y": 121.33899688720703,
          "z": -163.86300659179688
        },
        "camFov": 30.0,
        "lerpPattern": 6,
        "cameraBlendType": "EaseInOutCubic",
        "NJBNNOMLKCK": {},
        "needZAxisRotate": true,
        "rotateAngle": 359.94000244140625,
        "openCameraDither": false,
        "targetNpcAlias": "",
        "closeTreeLeafDither": true,
        "KJOEFBPOIIH": "",
        "IICFKKEBIEC": "",
        "EGEHEJEBLBJ": ""
      },
      {
        "$type": "PKKMAMONGEO",
        "type": "DIALOG",
        "aliasList": [
          "1005"
        ],
        "dialogID": 790242230,
        "protectTime": 1.0
      },
      {
        "$type": "MoleMole.Config.ConfigTeleportToAction",
        "type": "TELEPORT_TO",
        "aliasList": [
          "1005"
        ],
        "actionId": 310,
        "position": {
          "x": 132.9499969482422,
          "y": 120.16500091552734,
          "z": -165.02099609375
        },
        "forward": {
          "x": 1.409999966621399,
          "y": 0.01600000075995922,
          "z": 2.2260000705718994
        },
        "openLongDisTeleport": true,
        "_posBindMovingTargetKey": "",
        "_forwardBindMovingTargetKey": ""
      },
      {
        "$type": "FABLGECDBCH",
        "type": "BODY_LANG",
        "aliasList": [
          "1005"
        ],
        "actionId": 311,
        "bodyLangParam": 1260,
        "forceDoFreeStyle": true,
        "canDoRepeatFreeStyle": false,
        "eventPatternSuiteKey": "",
        "FOHHKFAIAAJ": ""
      },
      {
        "$type": "LJLMDHDCAMK",
        "type": "LOOK_AT",
        "aliasList": [
          "20620"
        ],
        "actionId": 317,
        "enableHead": true,
        "useTargetPos": true,
        "enableAbsolute": true,
        "targetPosition": {
          "x": 132.19400024414062,
          "y": 116.87799835205078,
          "z": -165.29100036621094
        },
        "headTurnTime": 0.5,
        "targetNpcAlias": "",
        "lookAtTargetType": "NONE",
        "targetNpcLookAtPoint": "",
        "OAFJBHJHLJG": ""
      },
      {
        "$type": "FABLGECDBCH",
        "type": "BODY_LANG",
        "delayTime": 0.6079999804496765,
        "aliasList": [
          "Avatar"
        ],
        "actionId": 312,
        "bodyLangParam": 1130,
        "forceDoFreeStyle": true,
        "canDoRepeatFreeStyle": false,
        "eventPatternSuiteKey": "",
        "FOHHKFAIAAJ": ""
      },
      {
        "$type": "HDGKHDNFMIM",
        "type": "DIALOG_SELECT",
        "delayTime": 1.0,
        "aliasList": [
          "Avatar"
        ],
        "dialogIDList": [
          790242231
        ],
        "grpIDList": [
          1200644740
        ],
        "useGrpId": true
      }
    ],
    [
      {
        "$type": "FJKIHHKJLMJ",
        "type": "CAMERA_MOVE",
        "duration": 0.10000000149011612,
        "actionId": 192,
        "camPosOffset": {
          "x": 130.8730010986328,
          "y": 121.89199829101562,
          "z": -167.06399536132812
        },
        "camForwardTargetOffset": {
          "x": 131.49200439453125,
          "y": 121.8010025024414,
          "z": -166.28399658203125
        },
        "camFov": 20.0,
        "lerpPattern": 6,
        "cameraBlendType": "EaseInOutCubic",
        "NJBNNOMLKCK": {},
        "needZAxisRotate": true,
        "rotateAngle": 359.94000244140625,
        "openCameraDither": false,
        "targetNpcAlias": "",
        "closeTreeLeafDither": true,
        "KJOEFBPOIIH": "",
        "IICFKKEBIEC": "",
        "EGEHEJEBLBJ": ""
      },
      {
        "$type": "FABLGECDBCH",
        "type": "BODY_LANG",
        "aliasList": [
          "Avatar"
        ],
        "actionId": 334,
        "isContinue": true,
        "forceDoFreeStyle": true,
        "canDoRepeatFreeStyle": false,
        "eventPatternSuiteKey": "",
        "FOHHKFAIAAJ": ""
      },
      {
        "$type": "MoleMole.Config.ConfigTeleportToAction",
        "type": "TELEPORT_TO",
        "aliasList": [
          "20621"
        ],
        "actionId": 314,
        "position": {
          "x": 142.54600524902344,
          "y": 120.20600128173828,
          "z": -154.91600036621094
        },
        "forward": {
          "x": -3.3010001182556152,
          "z": -3.181999921798706
        },
        "openLongDisTeleport": true,
        "_posBindMovingTargetKey": "",
        "_forwardBindMovingTargetKey": ""
      },
      {
        "$type": "LJLMDHDCAMK",
        "type": "LOOK_AT",
        "aliasList": [
          "20621"
        ],
        "actionId": 317,
        "enableHead": true,
        "useTargetPos": true,
        "enableAbsolute": true,
        "targetPosition": {
          "x": 132.19400024414062,
          "y": 122.01899719238281,
          "z": -165.29100036621094
        },
        "headTurnTime": 0.5,
        "targetNpcAlias": "",
        "lookAtTargetType": "NONE",
        "targetNpcLookAtPoint": "",
        "OAFJBHJHLJG": ""
      },
      {
        "$type": "PKKMAMONGEO",
        "type": "DIALOG",
        "aliasList": [
          "20623"
        ],
        "dialogID": 790242232,
        "protectTime": 0.5
      },
      {
        "$type": "LJLMDHDCAMK",
        "type": "LOOK_AT",
        "aliasList": [
          "20623"
        ],
        "actionId": 317,
        "enableHead": true,
        "useTargetPos": true,
        "enableAbsolute": true,
        "targetPosition": {
          "x": 132.19400024414062,
          "y": 122.01899719238281,
          "z": -165.29100036621094
        },
        "headTurnTime": 0.5,
        "targetNpcAlias": "",
        "lookAtTargetType": "NONE",
        "targetNpcLookAtPoint": "",
        "OAFJBHJHLJG": ""
      },
      {
        "$type": "MoleMole.Config.ConfigTeleportToAction",
        "type": "TELEPORT_TO",
        "aliasList": [
          "20620"
        ],
        "actionId": 314,
        "position": {
          "x": 142.1230010986328,
          "y": 120.14900207519531,
          "z": -157.21400451660156
        },
        "forward": {
          "x": -4.743000030517578,
          "z": -3.7090001106262207
        },
        "openLongDisTeleport": true,
        "_posBindMovingTargetKey": "",
        "_forwardBindMovingTargetKey": ""
      },
      {
        "$type": "LJLMDHDCAMK",
        "type": "LOOK_AT",
        "aliasList": [
          "20620"
        ],
        "actionId": 317,
        "enableHead": true,
        "useTargetPos": true,
        "enableAbsolute": true,
        "targetPosition": {
          "x": 132.19400024414062,
          "y": 117.81900024414062,
          "z": -165.29100036621094
        },
        "headTurnTime": 0.5,
        "targetNpcAlias": "",
        "lookAtTargetType": "NONE",
        "targetNpcLookAtPoint": "",
        "OAFJBHJHLJG": ""
      },
      {
        "$type": "MoleMole.Config.ConfigTeleportToAction",
        "type": "TELEPORT_TO",
        "aliasList": [
          "20622"
        ],
        "actionId": 314,
        "position": {
          "x": 138.04100036621094,
          "y": 120.00599670410156,
          "z": -154.1219940185547
        },
        "forward": {
          "x": -2.5230000019073486,
          "z": -4.979000091552734
        },
        "openLongDisTeleport": true,
        "_posBindMovingTargetKey": "",
        "_forwardBindMovingTargetKey": ""
      },
      {
        "$type": "LJLMDHDCAMK",
        "type": "LOOK_AT",
        "aliasList": [
          "20622"
        ],
        "actionId": 317,
        "enableHead": true,
        "useTargetPos": true,
        "enableAbsolute": true,
        "targetPosition": {
          "x": 132.19400024414062,
          "y": 122.01899719238281,
          "z": -165.29100036621094
        },
        "headTurnTime": 0.5,
        "targetNpcAlias": "",
        "lookAtTargetType": "NONE",
        "targetNpcLookAtPoint": "",
        "OAFJBHJHLJG": ""
      },
      {
        "$type": "FJKIHHKJLMJ",
        "type": "CAMERA_MOVE",
        "delayTime": 0.04699999839067459,
        "duration": 11.234999656677246,
        "actionId": 192,
        "camPosOffset": {
          "x": 130.90899658203125,
          "y": 122.11299896240234,
          "z": -167.06700134277344
        },
        "camForwardTargetOffset": {
          "x": 131.5279998779297,
          "y": 122.02200317382812,
          "z": -166.28700256347656
        },
        "camFov": 20.0,
        "cameraBlendType": "EaseOutQuad",
        "NJBNNOMLKCK": {},
        "needZAxisRotate": true,
        "rotateAngle": 359.94000244140625,
        "openCameraDither": false,
        "targetNpcAlias": "",
        "closeTreeLeafDither": true,
        "KJOEFBPOIIH": "",
        "IICFKKEBIEC": "",
        "EGEHEJEBLBJ": ""
      }
    ],
    [
      {
        "$type": "FABLGECDBCH",
        "type": "BODY_LANG",
        "aliasList": [
          "1005"
        ],
        "actionId": 321,
        "isContinue": true,
        "forceDoFreeStyle": true,
        "canDoRepeatFreeStyle": false,
        "eventPatternSuiteKey": "",
        "FOHHKFAIAAJ": ""
      },
      {
        "$type": "PKKMAMONGEO",
        "type": "DIALOG",
        "delayTime": 2.627000093460083,
        "aliasList": [
          "1005"
        ],
        "actionId": 349,
        "dialogID": 790242233,
        "protectTime": 0.5
      }
    ],
    [
      {
        "$type": "HDGKHDNFMIM",
        "type": "DIALOG_SELECT",
        "delayTime": 0.5630000233650208,
        "aliasList": [
          "Avatar"
        ],
        "actionId": 332,
        "dialogIDList": [
          790242234,
          790242235
        ],
        "grpIDList": [
          1200644743,
          1200644743
        ],
        "useGrpId": true
      }
    ],
    [
      {
        "$type": "FJKIHHKJLMJ",
        "type": "CAMERA_MOVE",
        "duration": 0.10000000149011612,
        "actionId": 192,
        "camPosOffset": {
          "x": 141.32699584960938,
          "y": 121.59700012207031,
          "z": -157.927001953125
        },
        "camForwardTargetOffset": {
          "x": 142.01499938964844,
          "y": 121.71299743652344,
          "z": -157.21099853515625
        },
        "camFov": 20.0,
        "lerpPattern": 6,
        "cameraBlendType": "EaseInOutCubic",
        "NJBNNOMLKCK": {},
        "needZAxisRotate": true,
        "rotateAngle": 359.94000244140625,
        "openCameraDither": false,
        "targetNpcAlias": "",
        "closeTreeLeafDither": true,
        "KJOEFBPOIIH": "",
        "IICFKKEBIEC": "",
        "EGEHEJEBLBJ": ""
      },
      {
        "$type": "PKKMAMONGEO",
        "type": "DIALOG",
        "aliasList": [
          "20620"
        ],
        "dialogID": 790242236,
        "protectTime": 0.5
      }
    ],
    [
      {
        "$type": "PKKMAMONGEO",
        "type": "DIALOG",
        "aliasList": [
          "20620"
        ],
        "dialogID": 790242237,
        "protectTime": 0.5
      }
    ],
    [
      {
        "$type": "FJKIHHKJLMJ",
        "type": "CAMERA_MOVE",
        "duration": 0.10000000149011612,
        "actionId": 192,
        "camPosOffset": {
          "x": 142.6580047607422,
          "y": 122.2750015258789,
          "z": -150.6280059814453
        },
        "camForwardTargetOffset": {
          "x": 141.99000549316406,
          "y": 122.18399810791016,
          "z": -151.36599731445312
        },
        "camFov": 20.0,
        "lerpPattern": 6,
        "cameraBlendType": "EaseInOutCubic",
        "NJBNNOMLKCK": {},
        "needZAxisRotate": true,
        "rotateAngle": 359.94000244140625,
        "openCameraDither": false,
        "targetNpcAlias": "",
        "closeTreeLeafDither": true,
        "KJOEFBPOIIH": "",
        "IICFKKEBIEC": "",
        "EGEHEJEBLBJ": ""
      },
      {
        "$type": "PKKMAMONGEO",
        "type": "DIALOG",
        "aliasList": [
          "20623"
        ],
        "dialogID": 790242238,
        "protectTime": 0.5
      },
      {
        "$type": "FJKIHHKJLMJ",
        "type": "CAMERA_MOVE",
        "delayTime": 0.03099999949336052,
        "duration": 7.757999897003174,
        "actionId": 192,
        "camPosOffset": {
          "x": 142.67300415039062,
          "y": 122.25700378417969,
          "z": -150.91600036621094
        },
        "camForwardTargetOffset": {
          "x": 142.0050048828125,
          "y": 122.16600036621094,
          "z": -151.6540069580078
        },
        "camFov": 20.0,
        "cameraBlendType": "EaseOutQuad",
        "NJBNNOMLKCK": {},
        "needZAxisRotate": true,
        "rotateAngle": 359.94000244140625,
        "openCameraDither": false,
        "targetNpcAlias": "",
        "closeTreeLeafDither": true,
        "KJOEFBPOIIH": "",
        "IICFKKEBIEC": "",
        "EGEHEJEBLBJ": ""
      }
    ],
    [
      {
        "$type": "FJKIHHKJLMJ",
        "type": "CAMERA_MOVE",
        "duration": 0.10000000149011612,
        "actionId": 192,
        "camPosOffset": {
          "x": 134.68499755859375,
          "y": 121.46299743652344,
          "z": -162.09100341796875
        },
        "camForwardTargetOffset": {
          "x": 134.07699584960938,
          "y": 121.4229965209961,
          "z": -162.88400268554688
        },
        "camFov": 20.0,
        "lerpPattern": 6,
        "cameraBlendType": "EaseInOutCubic",
        "NJBNNOMLKCK": {},
        "needZAxisRotate": true,
        "rotateAngle": 359.94000244140625,
        "openCameraDither": false,
        "targetNpcAlias": "",
        "closeTreeLeafDither": true,
        "KJOEFBPOIIH": "",
        "IICFKKEBIEC": "",
        "EGEHEJEBLBJ": ""
      },
      {
        "$type": "PKKMAMONGEO",
        "type": "DIALOG",
        "aliasList": [
          "1005"
        ],
        "dialogID": 790242239,
        "protectTime": 0.5
      },
      {
        "$type": "FABLGECDBCH",
        "type": "BODY_LANG",
        "aliasList": [
          "1005"
        ],
        "actionId": 345,
        "bodyLangParam": 1270,
        "forceDoFreeStyle": true,
        "canDoRepeatFreeStyle": false,
        "eventPatternSuiteKey": "",
        "FOHHKFAIAAJ": ""
      },
      {
        "$type": "FJKIHHKJLMJ",
        "type": "CAMERA_MOVE",
        "delayTime": 0.04699999839067459,
        "duration": 9.927000045776367,
        "actionId": 192,
        "camPosOffset": {
          "x": 134.53199768066406,
          "y": 121.4530029296875,
          "z": -162.29100036621094
        },
        "camForwardTargetOffset": {
          "x": 133.9239959716797,
          "y": 121.41300201416016,
          "z": -163.08399963378906
        },
        "camFov": 20.0,
        "cameraBlendType": "EaseOutQuad",
        "NJBNNOMLKCK": {},
        "needZAxisRotate": true,
        "rotateAngle": 359.94000244140625,
        "openCameraDither": false,
        "targetNpcAlias": "",
        "closeTreeLeafDither": true,
        "KJOEFBPOIIH": "",
        "IICFKKEBIEC": "",
        "EGEHEJEBLBJ": ""
      },
      {
        "$type": "FABLGECDBCH",
        "type": "BODY_LANG",
        "delayTime": 2.000999927520752,
        "aliasList": [
          "1005"
        ],
        "actionId": 346,
        "bodyLangParam": 1230,
        "forceDoFreeStyle": true,
        "canDoRepeatFreeStyle": false,
        "eventPatternSuiteKey": "",
        "FOHHKFAIAAJ": ""
      }
    ],
    [
      {
        "$type": "MoleMole.Config.ConfigSimpleBlackScreenAction",
        "type": "SIMPLE_BLACK_SCREEN",
        "durationToBlack": 0.5,
        "durationKeepBlack": 1.0,
        "durationFromBlack": 0.5,
        "textMapID": ""
      },
      {
        "$type": "MoleMole.Config.ConfigTimeProtectAction",
        "type": "TIME_PROTECT",
        "duration": 0.699999988079071
      },
      {
        "$type": "FJKIHHKJLMJ",
        "type": "CAMERA_MOVE",
        "delayTime": 0.6000000238418579,
        "duration": 0.10000000149011612,
        "actionId": 327,
        "camPosOffset": {
          "x": 130.89199829101562,
          "y": 121.61900329589844,
          "z": -166.1699981689453
        },
        "camForwardTargetOffset": {
          "x": 131.5330047607422,
          "y": 121.39800262451172,
          "z": -165.43499755859375
        },
        "lerpPattern": 6,
        "cameraBlendType": "EaseInOutCubic",
        "NJBNNOMLKCK": {},
        "needZAxisRotate": true,
        "rotateAngle": 359.9389953613281,
        "openCameraDither": false,
        "targetNpcAlias": "",
        "closeTreeLeafDither": true,
        "KJOEFBPOIIH": "",
        "IICFKKEBIEC": "",
        "EGEHEJEBLBJ": ""
      }
    ]
  ],
  "groupId": [
    {
      "grpId": 1285656461,
      "nextGrpId": 1285656462
    },
    {
      "index": 1,
      "grpId": 1285656462,
      "nextGrpId": 1285656463
    },
    {
      "index": 2,
      "grpId": 1285656463,
      "nextGrpId": 1285656464
    },
    {
      "index": 3,
      "grpId": 1285656464,
      "nextGrpId": 1285656465
    },
    {
      "index": 4,
      "grpId": 1285656465,
      "nextGrpId": 1285656466
    },
    {
      "index": 5,
      "grpId": 1285656466,
      "nextGrpId": 1285656467
    },
    {
      "index": 6,
      "grpId": 1285656467,
      "nextGrpId": 1285656468
    },
    {
      "index": 7,
      "grpId": 1285656468,
      "nextGrpId": 1285656469
    },
    {
      "index": 8,
      "grpId": 1285656469,
      "nextGrpId": 1200644675
    },
    {
      "index": 9,
      "grpId": 1200644675,
      "nextGrpId": 1200644676
    },
    {
      "index": 10,
      "grpId": 1200644676,
      "nextGrpId": 1200644677
    },
    {
      "index": 11,
      "grpId": 1200644677,
      "nextGrpId": 1200644678
    },
    {
      "index": 12,
      "grpId": 1200644678,
      "nextGrpId": 1200644679
    },
    {
      "index": 13,
      "grpId": 1200644679,
      "nextGrpId": 1200644680
    },
    {
      "index": 14,
      "grpId": 1200644680,
      "nextGrpId": 1200644681
    },
    {
      "index": 15,
      "grpId": 1200644681,
      "nextGrpId": 1200644682
    },
    {
      "index": 16,
      "grpId": 1200644682,
      "nextGrpId": 1200644683
    },
    {
      "index": 17,
      "grpId": 1200644683,
      "nextGrpId": 1200644684
    },
    {
      "index": 18,
      "grpId": 1200644684,
      "nextGrpId": 1200644706
    },
    {
      "index": 19,
      "grpId": 1200644706,
      "nextGrpId": 1200644707
    },
    {
      "index": 20,
      "grpId": 1200644707,
      "nextGrpId": 1200644708
    },
    {
      "index": 21,
      "grpId": 1200644708,
      "nextGrpId": 1200644709
    },
    {
      "index": 22,
      "grpId": 1200644709,
      "nextGrpId": 1200644710
    },
    {
      "index": 23,
      "grpId": 1200644710,
      "nextGrpId": 1200644711
    },
    {
      "index": 24,
      "grpId": 1200644711,
      "nextGrpId": 1200644712
    },
    {
      "index": 25,
      "grpId": 1200644712,
      "nextGrpId": 1200644713
    },
    {
      "index": 26,
      "grpId": 1200644713,
      "nextGrpId": 1200644714
    },
    {
      "index": 27,
      "grpId": 1200644714,
      "nextGrpId": 1200644715
    },
    {
      "index": 28,
      "grpId": 1200644715,
      "nextGrpId": 1200644737
    },
    {
      "index": 29,
      "grpId": 1200644737,
      "nextGrpId": 1200644738
    },
    {
      "index": 30,
      "grpId": 1200644738,
      "nextGrpId": 1200644739
    },
    {
      "index": 31,
      "grpId": 1200644739,
      "nextGrpId": 1200644740
    },
    {
      "index": 32,
      "grpId": 1200644740,
      "nextGrpId": 1200644741
    },
    {
      "index": 33,
      "grpId": 1200644741,
      "nextGrpId": 1200644742
    },
    {
      "index": 34,
      "grpId": 1200644742,
      "nextGrpId": 1200644743
    },
    {
      "index": 35,
      "grpId": 1200644743,
      "nextGrpId": 1200644744
    },
    {
      "index": 36,
      "grpId": 1200644744,
      "nextGrpId": 1200644745
    },
    {
      "index": 37,
      "grpId": 1200644745,
      "nextGrpId": 1200644746
    },
    {
      "index": 38,
      "grpId": 1200644746,
      "nextGrpId": 1200644768
    },
    {
      "index": 39,
      "grpId": 1200644768,
      "nextGrpId": 1200644769
    }
  ]
}