{
  "luaDataPath": "",
  "isSimpleTalk": true,
  "entityBan": "",
  "disableNpcLod": true,
  "startFade": {
    "startFadeOutDuration": 0.0
  },
  "endFade": {
    "startFadeOutDuration": 0.0
  },
  "actors": [
    {
      "alias": "Avatar",
      "visible": true,
      "bornPointName": "",
      "relativePosNpcAlias": "",
      "_bindMovingTargetKey": ""
    },
    {
      "configID": 20392,
      "alias": "20392",
      "visible": true,
      "bornPointName": "",
      "relativePosNpcAlias": "",
      "_bindMovingTargetKey": ""
    },
    {
      "configID": 1005,
      "alias": "1005",
      "visible": true,
      "bornPointName": "",
      "useRelativePos": true,
      "relativePos": {
        "x": 0.5,
        "z": 0.5
      },
      "removeActorType": "REMOVE_WITH_DISAPPEAR",
      "relativePosNpcAlias": "",
      "_bindMovingTargetKey": ""
    }
  ],
  "group": [
    [
      {
        "$type": "FJKIHHKJLMJ",
        "type": "CAMERA_FOCUS",
        "duration": 0.10000000149011612,
        "targetNpcAlias": "",
        "KJOEFBPOIIH": "",
        "IICFKKEBIEC": "",
        "EGEHEJEBLBJ": ""
      },
      {
        "$type": "MoleMole.Config.ConfigTimeProtectAction",
        "type": "TIME_PROTECT",
        "duration": 0.10000000149011612
      }
    ],
    [
      {
        "$type": "HDGKHDNFMIM",
        "type": "DIALOG_SELECT",
        "delayTime": 0.4000000059604645,
        "aliasList": [
          "Avatar"
        ],
        "dialogIDList": [
          721871002,
          721871005,
          721871021
        ],
        "grpIDList": [
          1786596477,
          1786596479,
          3844883228
        ],
        "useGrpId": true
      },
      {
        "$type": "PKKMAMONGEO",
        "type": "DIALOG",
        "aliasList": [
          "20392"
        ],
        "dialogID": 721871001,
        "protectTime": 0.5
      },
      {
        "$type": "LLGANGLOEEO",
        "type": "STEER_TO",
        "duration": 0.800000011920929,
        "aliasList": [
          "20392"
        ],
        "steerType": "TO_LOCAL_AVATAR",
        "useSteerAnim": true,
        "targetNpcAlias": "",
        "OAFJBHJHLJG": ""
      },
      {
        "$type": "LJLMDHDCAMK",
        "type": "LOOK_AT",
        "aliasList": [
          "20392"
        ],
        "headTurnTime": 0.5,
        "targetNpcAlias": "",
        "lookAtTargetType": "NONE",
        "targetNpcLookAtPoint": "",
        "OAFJBHJHLJG": ""
      },
      {
        "$type": "LJLMDHDCAMK",
        "type": "LOOK_AT",
        "delayTime": 0.574999988079071,
        "aliasList": [
          "20392"
        ],
        "enableHead": true,
        "headTurnTime": 0.5,
        "targetNpcAlias": "Avatar",
        "targetNpcLookAtPoint": "",
        "OAFJBHJHLJG": ""
      }
    ],
    [
      {
        "$type": "PKKMAMONGEO",
        "type": "DIALOG",
        "aliasList": [
          "20392"
        ],
        "dialogID": 721871003,
        "protectTime": 0.5
      }
    ],
    [
      {
        "$type": "PKKMAMONGEO",
        "type": "DIALOG",
        "aliasList": [
          "20392"
        ],
        "dialogID": 721871004,
        "protectTime": 0.5
      }
    ],
    [
      {
        "$type": "HDGKHDNFMIM",
        "type": "DIALOG_SELECT",
        "delayTime": 0.4000000059604645,
        "aliasList": [
          "Avatar"
        ],
        "dialogIDList": [
          721871007,
          721871011,
          721871016
        ],
        "grpIDList": [
          1786596480,
          1786596483,
          3844883224
        ],
        "useGrpId": true
      },
      {
        "$type": "PKKMAMONGEO",
        "type": "DIALOG",
        "aliasList": [
          "20392"
        ],
        "dialogID": 721871006,
        "protectTime": 0.5
      }
    ],
    [
      {
        "$type": "PKKMAMONGEO",
        "type": "DIALOG",
        "aliasList": [
          "20392"
        ],
        "dialogID": 721871008,
        "protectTime": 0.5
      }
    ],
    [
      {
        "$type": "PKKMAMONGEO",
        "type": "DIALOG",
        "aliasList": [
          "20392"
        ],
        "dialogID": 721871009,
        "protectTime": 0.5
      }
    ],
    [
      {
        "$type": "PKKMAMONGEO",
        "type": "DIALOG",
        "aliasList": [
          "1005"
        ],
        "dialogID": 721871010,
        "protectTime": 0.5
      }
    ],
    [
      {
        "$type": "PKKMAMONGEO",
        "type": "DIALOG",
        "aliasList": [
          "20392"
        ],
        "dialogID": 721871012,
        "protectTime": 0.5
      }
    ],
    [
      {
        "$type": "PKKMAMONGEO",
        "type": "DIALOG",
        "aliasList": [
          "20392"
        ],
        "dialogID": 721871013,
        "protectTime": 0.5
      }
    ],
    [
      {
        "$type": "PKKMAMONGEO",
        "type": "DIALOG",
        "aliasList": [
          "20392"
        ],
        "dialogID": 721871014,
        "protectTime": 0.5
      }
    ],
    [
      {
        "$type": "PKKMAMONGEO",
        "type": "DIALOG",
        "aliasList": [
          "20392"
        ],
        "dialogID": 721871015,
        "protectTime": 0.5
      }
    ],
    [
      {
        "$type": "PKKMAMONGEO",
        "type": "DIALOG",
        "aliasList": [
          "20392"
        ],
        "dialogID": 721871017,
        "protectTime": 0.5
      }
    ],
    [
      {
        "$type": "PKKMAMONGEO",
        "type": "DIALOG",
        "aliasList": [
          "20392"
        ],
        "dialogID": 721871018,
        "protectTime": 0.5
      }
    ],
    [
      {
        "$type": "PKKMAMONGEO",
        "type": "DIALOG",
        "aliasList": [
          "20392"
        ],
        "dialogID": 721871019,
        "protectTime": 0.5
      }
    ],
    [
      {
        "$type": "PKKMAMONGEO",
        "type": "DIALOG",
        "aliasList": [
          "20392"
        ],
        "dialogID": 721871020,
        "protectTime": 0.5
      }
    ],
    [
      {
        "$type": "PKKMAMONGEO",
        "type": "DIALOG",
        "aliasList": [
          "20392"
        ],
        "dialogID": 721871022,
        "protectTime": 0.5
      }
    ],
    [
      {
        "$type": "MoleMole.Config.ConfigTimeProtectAction",
        "type": "TIME_PROTECT",
        "duration": 0.10000000149011612
      },
      {
        "$type": "LLGANGLOEEO",
        "type": "STEER_TO",
        "duration": 0.800000011920929,
        "aliasList": [
          "20392"
        ],
        "steerType": "RETURN",
        "useSteerAnim": true,
        "targetNpcAlias": "",
        "OAFJBHJHLJG": ""
      },
      {
        "$type": "LJLMDHDCAMK",
        "type": "LOOK_AT",
        "delayTime": 0.02500012516975403,
        "aliasList": [
          "20392"
        ],
        "headTurnTime": 0.5,
        "targetNpcAlias": "",
        "lookAtTargetType": "NONE",
        "targetNpcLookAtPoint": "",
        "OAFJBHJHLJG": ""
      }
    ],
    [
      {
        "$type": "MoleMole.Config.ConfigTimeProtectAction",
        "type": "TIME_PROTECT",
        "duration": 0.10000000149011612
      }
    ]
  ],
  "groupId": [
    {
      "grpId": 1786596475,
      "nextGrpId": 1786596476
    },
    {
      "index": 1,
      "grpId": 1786596476,
      "nextGrpId": 1786596477
    },
    {
      "index": 2,
      "grpId": 1786596477,
      "nextGrpId": 1786596478
    },
    {
      "index": 3,
      "grpId": 1786596478,
      "nextGrpId": 3844883229
    },
    {
      "index": 4,
      "grpId": 1786596479,
      "nextGrpId": 1786596480
    },
    {
      "index": 5,
      "grpId": 1786596480,
      "nextGrpId": 1786596481
    },
    {
      "index": 6,
      "grpId": 1786596481,
      "nextGrpId": 1786596482
    },
    {
      "index": 7,
      "grpId": 1786596482,
      "nextGrpId": 3844883229
    },
    {
      "index": 8,
      "grpId": 1786596483,
      "nextGrpId": 3844883221
    },
    {
      "index": 9,
      "grpId": 3844883221,
      "nextGrpId": 3844883222
    },
    {
      "index": 10,
      "grpId": 3844883222,
      "nextGrpId": 3844883223
    },
    {
      "index": 11,
      "grpId": 3844883223,
      "nextGrpId": 3844883229
    },
    {
      "index": 12,
      "grpId": 3844883224,
      "nextGrpId": 3844883225
    },
    {
      "index": 13,
      "grpId": 3844883225,
      "nextGrpId": 3844883226
    },
    {
      "index": 14,
      "grpId": 3844883226,
      "nextGrpId": 3844883227
    },
    {
      "index": 15,
      "grpId": 3844883227,
      "nextGrpId": 3844883229
    },
    {
      "index": 16,
      "grpId": 3844883228,
      "nextGrpId": 3844883229
    },
    {
      "index": 17,
      "grpId": 3844883229,
      "nextGrpId": 3844883230
    },
    {
      "index": 18,
      "grpId": 3844883230,
      "nextGrpId": 3844883252
    }
  ],
  "freeStyleDic": {
    "20392": []
  }
}