{
  "buttonSequence": [
    {
      "button": "Left_Right",
      "time": 2771
    },
    {
      "button": "Left_Right",
      "time": 3080
    },
    {
      "button": "Left_Right",
      "time": 3596
    },
    {
      "button": "Left_Right",
      "time": 4317
    },
    {
      "button": "Left_Right",
      "time": 4936
    },
    {
      "button": "Left_Right",
      "time": 5245
    },
    {
      "button": "Left_Right",
      "time": 5554
    },
    {
      "button": "Left_Right",
      "time": 6070
    },
    {
      "button": "Left_Right",
      "time": 7410
    },
    {
      "button": "Left_Right",
      "time": 8029
    },
    {
      "button": "Left_Right",
      "time": 8647
    },
    {
      "button": "Left_Right",
      "time": 9884
    },
    {
      "button": "Left_Right",
      "time": 10503
    },
    {
      "button": "Left_Right",
      "time": 11018
    },
    {
      "button": "Left_Right",
      "time": 12358
    },
    {
      "button": "Left_Right",
      "time": 12977
    },
    {
      "button": "Left_Right",
      "time": 13596
    },
    {
      "button": "Left_Right",
      "time": 14833
    },
    {
      "button": "Left_Right",
      "time": 15142
    },
    {
      "button": "Left_Right",
      "time": 15451
    },
    {
      "button": "Left_Right",
      "time": 15657
    },
    {
      "button": "Left_Right",
      "time": 15967
    },
    {
      "button": "Left_Right",
      "time": 17307
    },
    {
      "button": "Left_Right",
      "time": 17925
    },
    {
      "button": "Left_Right",
      "time": 18544
    },
    {
      "button": "Left_Right",
      "time": 19781
    },
    {
      "button": "Left_Right",
      "time": 20400
    },
    {
      "button": "Left_Right",
      "time": 20915
    },
    {
      "button": "Left_Right",
      "time": 22255
    },
    {
      "button": "Left_Right",
      "time": 22874
    },
    {
      "button": "Left_Right",
      "time": 23492
    },
    {
      "button": "Left_Right",
      "time": 24008
    },
    {
      "button": "Left_Right",
      "time": 24730
    },
    {
      "button": "Left_Right",
      "time": 25245
    },
    {
      "button": "Left_Right",
      "time": 25967
    },
    {
      "button": "Left_Right",
      "time": 26482
    },
    {
      "button": "Left_Right",
      "time": 27204
    },
    {
      "button": "Left_Right",
      "time": 27822
    },
    {
      "button": "Left_Right",
      "time": 28441
    },
    {
      "button": "Left_Right",
      "time": 28956
    },
    {
      "button": "Left_Right",
      "time": 29678
    },
    {
      "button": "Left_Right",
      "time": 30297
    },
    {
      "button": "Left_Right",
      "time": 30915
    },
    {
      "button": "Left_Right",
      "time": 31431
    },
    {
      "button": "Left_Right",
      "time": 32152
    },
    {
      "button": "Left_Right",
      "time": 32771
    },
    {
      "button": "Left_Right",
      "time": 33389
    },
    {
      "button": "Left_Right",
      "time": 33905
    },
    {
      "button": "Left_Right",
      "time": 34626
    },
    {
      "button": "Left_Right",
      "time": 35245
    },
    {
      "button": "Left_Right",
      "time": 35864
    },
    {
      "button": "Left_Right",
      "time": 37719
    },
    {
      "button": "Left_Right",
      "time": 38338
    },
    {
      "button": "Left_Right",
      "time": 38853
    },
    {
      "button": "Left_Right",
      "time": 39575
    },
    {
      "button": "Left_Right",
      "time": 40193
    },
    {
      "button": "Left_Right",
      "time": 40812
    },
    {
      "button": "Left_Right",
      "time": 42049
    },
    {
      "button": "Left_Right",
      "time": 42977
    },
    {
      "button": "Left_Right",
      "time": 43905
    },
    {
      "button": "Left_Right",
      "time": 44523
    },
    {
      "button": "Left_Right",
      "time": 45348
    },
    {
      "button": "Left_Right",
      "time": 45760
    },
    {
      "button": "Left_Right",
      "time": 46998
    },
    {
      "button": "Left_Right",
      "time": 47616
    },
    {
      "button": "Left_Right",
      "time": 48235
    },
    {
      "button": "Left_Right",
      "time": 48750
    },
    {
      "button": "Left_Right",
      "time": 49472
    },
    {
      "button": "Left_Right",
      "time": 49987
    },
    {
      "button": "Left_Right",
      "time": 50709
    },
    {
      "button": "Left_Right",
      "time": 51946
    },
    {
      "button": "Left_Right",
      "time": 52462
    },
    {
      "button": "Left_Right",
      "time": 53183
    },
    {
      "button": "Left_Right",
      "time": 53699
    },
    {
      "button": "Left_Right",
      "time": 54420
    },
    {
      "button": "Left_Right",
      "time": 55039
    },
    {
      "button": "Left_Right",
      "time": 55657
    },
    {
      "button": "Left_Right",
      "time": 56173
    },
    {
      "button": "Left_Right",
      "time": 56894
    },
    {
      "button": "Left_Right",
      "time": 57513
    },
    {
      "button": "Left_Right",
      "time": 58132
    },
    {
      "button": "Left_Right",
      "time": 58647
    },
    {
      "button": "Left_Right",
      "time": 59369
    },
    {
      "button": "Left_Right",
      "time": 59987
    },
    {
      "button": "Left_Right",
      "time": 60606
    },
    {
      "button": "Left_Right",
      "time": 61843
    },
    {
      "button": "Left_Right",
      "time": 62771
    },
    {
      "button": "Left_Right",
      "time": 63699
    },
    {
      "button": "Left_Right",
      "time": 64008
    },
    {
      "button": "Left_Right",
      "time": 64317
    },
    {
      "button": "Left_Right",
      "time": 66791
    },
    {
      "button": "Left_Right",
      "time": 67410
    },
    {
      "button": "Left_Right",
      "time": 68029
    },
    {
      "button": "Left_Right",
      "time": 68647
    },
    {
      "button": "Left_Right",
      "time": 69266
    }
  ],
  "instrument": -1507746808,
  "playMusicEvent": {
    "text": "Play_ui_activity_FleurFairV2_musicgame_BGM_Collei"
  },
  "stopMusicEvent": {
    "text": "Stop_ui_activity_FleurFairV2_musicgame_BGM_Collei"
  },
  "pauseMusicEvent": {
    "text": "Pause_ui_activity_FleurFairV2_musicgame_BGM_Collei"
  },
  "resumeMusicEvent": {
    "text": "Resume_ui_activity_FleurFairV2_musicgame_BGM_Collei"
  },
  "playPreviewMusicEvent": {
    "text": "Play_ui_activity_FleurFairV2_musicgame_BGM_Collei_Preview"
  },
  "stopPreviewMusicEvent": {
    "text": "Stop_ui_activity_FleurFairV2_musicgame_BGM_Collei_Preview"
  }
}