{
  "buttonSequence": [
    {
      "button": "Right_Down",
      "time": 5272,
      "note": 59
    },
    {
      "button": "Left_Down",
      "time": 6978,
      "note": 54
    },
    {
      "button": "Right_Down",
      "time": 8115,
      "note": 66
    },
    {
      "button": "Right_Right",
      "time": 8684,
      "note": 71
    },
    {
      "button": "Right_Up",
      "time": 9822,
      "note": 78
    },
    {
      "button": "Right_Up",
      "time": 10390,
      "note": 78
    },
    {
      "time": 12015,
      "note": 76
    },
    {
      "button": "Left_Left",
      "time": 13168,
      "note": 73
    },
    {
      "button": "Left_Down",
      "time": 13745,
      "note": 69
    },
    {
      "button": "Right_Up",
      "time": 15475,
      "note": 74
    },
    {
      "button": "Right_Up",
      "time": 16629,
      "note": 74
    },
    {
      "button": "Right_Up",
      "time": 17206,
      "note": 74
    },
    {
      "button": "Right_Right",
      "time": 17783,
      "note": 73
    },
    {
      "button": "Right_Down",
      "time": 18359,
      "note": 71
    },
    {
      "button": "Right_Left",
      "time": 18936,
      "note": 73
    },
    {
      "button": "Right_Down",
      "time": 20090,
      "note": 69
    },
    {
      "button": "Right_Down",
      "time": 20667,
      "note": 66
    },
    {
      "button": "Left_Down",
      "time": 21820,
      "note": 66
    },
    {
      "button": "Left_Left",
      "time": 22433,
      "note": 71
    },
    {
      "time": 23552,
      "note": 78
    },
    {
      "time": 24111,
      "note": 78
    },
    {
      "button": "Left_Right",
      "time": 25789,
      "note": 76
    },
    {
      "button": "Left_Down",
      "time": 26928,
      "note": 73
    },
    {
      "button": "Left_Left",
      "time": 27497,
      "note": 69
    },
    {
      "button": "Right_Up",
      "time": 29223,
      "note": 74
    },
    {
      "button": "Right_Right",
      "time": 30949,
      "note": 73
    },
    {
      "button": "Right_Down",
      "time": 31524,
      "note": 71
    },
    {
      "button": "Right_Left",
      "time": 32675,
      "note": 71
    },
    {
      "button": "Left_Left",
      "time": 36079,
      "note": 71
    },
    {
      "button": "Left_Right",
      "time": 36651,
      "note": 73
    },
    {
      "button": "Right_Left",
      "time": 37794,
      "note": 67
    },
    {
      "button": "Right_Right",
      "time": 38365,
      "note": 76
    },
    {
      "button": "Right_Left",
      "time": 39509,
      "note": 73
    },
    {
      "button": "Left_Right",
      "time": 40083,
      "note": 74
    },
    {
      "button": "Left_Left",
      "time": 41231,
      "note": 69
    },
    {
      "button": "Right_Right",
      "time": 42953,
      "note": 73
    },
    {
      "button": "Right_Up",
      "time": 43527,
      "note": 74
    },
    {
      "button": "Right_Left",
      "time": 44675,
      "note": 69
    },
    {
      "button": "Left_Right",
      "time": 45240,
      "note": 78
    },
    {
      "time": 46368,
      "note": 76
    },
    {
      "button": "Left_Left",
      "time": 48061,
      "note": 74
    },
    {
      "button": "Left_Down",
      "time": 49798,
      "note": 71
    },
    {
      "button": "Left_Right",
      "time": 50380,
      "note": 73
    },
    {
      "time": 51542,
      "note": 67
    },
    {
      "button": "Left_Left",
      "time": 52124,
      "note": 76
    },
    {
      "button": "Left_Down",
      "time": 53286,
      "note": 73
    },
    {
      "button": "Left_Right",
      "time": 53843,
      "note": 74
    },
    {
      "time": 54956,
      "note": 69
    },
    {
      "button": "Right_Down",
      "time": 56625,
      "note": 73
    },
    {
      "button": "Right_Right",
      "time": 57199,
      "note": 74
    },
    {
      "button": "Right_Up",
      "time": 58348,
      "note": 69
    },
    {
      "button": "Right_Left",
      "time": 58922,
      "note": 78
    },
    {
      "button": "Right_Down",
      "time": 60070,
      "note": 76
    },
    {
      "button": "Left_Right",
      "time": 63515,
      "note": 74
    },
    {
      "button": "Right_Left",
      "time": 63515,
      "note": 74
    }
  ],
  "instrument": 1,
  "playMusicEvent": {
    "text": "Play_ui_musicgame_dawn_winery_theme_hard"
  },
  "stopMusicEvent": {
    "text": "Stop_ui_musicgame_dawn_winery_theme_hard"
  },
  "pauseMusicEvent": {
    "text": "Pause_ui_musicgame_dawn_winery_theme_hard"
  },
  "resumeMusicEvent": {
    "text": "Resume_ui_musicgame_dawn_winery_theme_hard"
  }
}