{
  "buttonSequence": [
    {
      "button": "Left_Down",
      "time": 2240
    },
    {
      "button": "Left_Down",
      "time": 4920
    },
    {
      "button": "Left_Down",
      "time": 7680
    },
    {
      "button": "Left_Down",
      "time": 9600
    },
    {
      "button": "Left_Down",
      "time": 11520
    },
    {
      "button": "Left_Down",
      "time": 13440
    },
    {
      "button": "Left_Down",
      "time": 15360
    },
    {
      "button": "Left_Down",
      "time": 17280
    },
    {
      "button": "Left_Down",
      "time": 19200
    },
    {
      "button": "Left_Down",
      "time": 21120
    },
    {
      "button": "Left_Down",
      "time": 23040
    },
    {
      "button": "Left_Down",
      "time": 28800
    },
    {
      "button": "Left_Down",
      "time": 30720
    },
    {
      "button": "Left_Down",
      "time": 32640
    },
    {
      "button": "Left_Down",
      "time": 33600
    },
    {
      "button": "Left_Down",
      "time": 34560
    },
    {
      "button": "Left_Down",
      "time": 36480
    },
    {
      "button": "Left_Down",
      "time": 41760
    },
    {
      "button": "Left_Down",
      "time": 43200
    },
    {
      "button": "Left_Down",
      "time": 44160
    },
    {
      "button": "Left_Down",
      "time": 45120
    },
    {
      "button": "Left_Down",
      "time": 49440
    },
    {
      "button": "Left_Down",
      "time": 50880
    },
    {
      "button": "Left_Down",
      "time": 51360
    },
    {
      "button": "Left_Down",
      "time": 51840
    },
    {
      "button": "Left_Down",
      "time": 52200
    },
    {
      "button": "Left_Down",
      "time": 52560
    },
    {
      "button": "Left_Down",
      "time": 52800
    },
    {
      "button": "Left_Down",
      "time": 56400
    },
    {
      "button": "Left_Down",
      "time": 60960
    },
    {
      "button": "Left_Down",
      "time": 66000
    },
    {
      "button": "Left_Down",
      "time": 66240
    },
    {
      "button": "Left_Down",
      "time": 76800
    },
    {
      "button": "Left_Down",
      "time": 78120
    },
    {
      "button": "Left_Down",
      "time": 85440
    },
    {
      "button": "Left_Down",
      "time": 87490,
      "isLongPress": true,
      "longPressTime": 3273
    },
    {
      "button": "Left_Down",
      "time": 94036
    },
    {
      "button": "Left_Down",
      "time": 102218,
      "isLongPress": true,
      "longPressTime": 3681
    },
    {
      "button": "Left_Right",
      "time": 24960
    },
    {
      "button": "Left_Right",
      "time": 26880
    },
    {
      "button": "Left_Right",
      "time": 40800
    },
    {
      "button": "Left_Right",
      "time": 67200
    },
    {
      "button": "Left_Right",
      "time": 67560
    },
    {
      "button": "Left_Right",
      "time": 68160
    },
    {
      "button": "Left_Right",
      "time": 78720
    },
    {
      "button": "Left_Right",
      "time": 79680
    },
    {
      "button": "Left_Right",
      "time": 81600
    },
    {
      "button": "Left_Right",
      "time": 83520
    },
    {
      "button": "Left_Right",
      "time": 85120
    },
    {
      "button": "Left_Right",
      "time": 85760
    },
    {
      "button": "Left_Right",
      "time": 87127
    },
    {
      "button": "Left_Right",
      "time": 95672
    },
    {
      "button": "Right_Left",
      "time": 24960
    },
    {
      "button": "Right_Left",
      "time": 26880
    },
    {
      "button": "Right_Left",
      "time": 41280
    },
    {
      "button": "Right_Left",
      "time": 67920
    },
    {
      "button": "Right_Left",
      "time": 68640
    },
    {
      "button": "Right_Left",
      "time": 71040,
      "isLongPress": true,
      "longPressTime": 1440
    },
    {
      "button": "Right_Left",
      "time": 77520
    },
    {
      "button": "Right_Left",
      "time": 78480
    },
    {
      "button": "Right_Left",
      "time": 79080
    },
    {
      "button": "Right_Left",
      "time": 80160
    },
    {
      "button": "Right_Left",
      "time": 80640
    },
    {
      "button": "Right_Left",
      "time": 82560
    },
    {
      "button": "Right_Left",
      "time": 84800
    },
    {
      "button": "Right_Left",
      "time": 86080
    },
    {
      "button": "Right_Left",
      "time": 86763
    },
    {
      "button": "Right_Left",
      "time": 95945
    },
    {
      "button": "Right_Down",
      "time": 3840
    },
    {
      "button": "Right_Down",
      "time": 5640
    },
    {
      "button": "Right_Down",
      "time": 21120
    },
    {
      "button": "Right_Down",
      "time": 21840
    },
    {
      "button": "Right_Down",
      "time": 23040
    },
    {
      "button": "Right_Down",
      "time": 28800
    },
    {
      "button": "Right_Down",
      "time": 31680
    },
    {
      "button": "Right_Down",
      "time": 35520
    },
    {
      "button": "Right_Down",
      "time": 37440
    },
    {
      "button": "Right_Down",
      "time": 38400
    },
    {
      "button": "Right_Down",
      "time": 45600
    },
    {
      "button": "Right_Down",
      "time": 47040
    },
    {
      "button": "Right_Down",
      "time": 48000
    },
    {
      "button": "Right_Down",
      "time": 48960
    },
    {
      "button": "Right_Down",
      "time": 49920
    },
    {
      "button": "Right_Down",
      "time": 51840
    },
    {
      "button": "Right_Down",
      "time": 52200
    },
    {
      "button": "Right_Down",
      "time": 52560
    },
    {
      "button": "Right_Down",
      "time": 52800
    },
    {
      "button": "Right_Down",
      "time": 53760,
      "isLongPress": true,
      "longPressTime": 1920
    },
    {
      "button": "Right_Down",
      "time": 57600
    },
    {
      "button": "Right_Down",
      "time": 58320
    },
    {
      "button": "Right_Down",
      "time": 58560
    },
    {
      "button": "Right_Down",
      "time": 61440,
      "isLongPress": true,
      "longPressTime": 1920
    },
    {
      "button": "Right_Down",
      "time": 64320
    },
    {
      "button": "Right_Down",
      "time": 64800
    },
    {
      "button": "Right_Down",
      "time": 65280
    },
    {
      "button": "Right_Down",
      "time": 69120,
      "isLongPress": true,
      "longPressTime": 1440
    },
    {
      "button": "Right_Down",
      "time": 72960,
      "isLongPress": true,
      "longPressTime": 1440
    },
    {
      "button": "Right_Down",
      "time": 74880,
      "isLongPress": true,
      "longPressTime": 1440
    },
    {
      "button": "Right_Down",
      "time": 79440
    },
    {
      "button": "Right_Down",
      "time": 80400
    },
    {
      "button": "Right_Down",
      "time": 84480
    },
    {
      "button": "Right_Down",
      "time": 86400
    },
    {
      "button": "Right_Down",
      "time": 96218
    },
    {
      "button": "Right_Down",
      "time": 97854
    },
    {
      "button": "Right_Down",
      "time": 99218
    },
    {
      "button": "Right_Down",
      "time": 102218,
      "isLongPress": true,
      "longPressTime": 3681
    }
  ],
  "playMusicEvent": {
    "text": "Play_ui_activity_FleurFairV2_musicgame_BGM_Eula"
  },
  "stopMusicEvent": {
    "text": "Stop_ui_activity_FleurFairV2_musicgame_BGM_Eula"
  },
  "pauseMusicEvent": {
    "text": "Pause_ui_activity_FleurFairV2_musicgame_BGM_Eula"
  },
  "resumeMusicEvent": {
    "text": "Resume_ui_activity_FleurFairV2_musicgame_BGM_Eula"
  },
  "playPreviewMusicEvent": {
    "text": "Play_ui_activity_FleurFairV2_musicgame_BGM_Eula_Preview"
  },
  "stopPreviewMusicEvent": {
    "text": "Stop_ui_activity_FleurFairV2_musicgame_BGM_Eula_Preview"
  }
}