{
  "buttonSequence": [
    {
      "button": "Right_Up",
      "time": 2195,
      "note": 55
    },
    {
      "button": "Right_Right",
      "time": 2561,
      "note": 62
    },
    {
      "button": "Right_Down",
      "time": 2927,
      "note": 71
    },
    {
      "time": 4390,
      "note": 55
    },
    {
      "button": "Left_Left",
      "time": 4756,
      "note": 64
    },
    {
      "button": "Left_Down",
      "time": 5122,
      "note": 69
    },
    {
      "button": "Right_Up",
      "time": 6585,
      "note": 55
    },
    {
      "button": "Right_Right",
      "time": 6951,
      "note": 62
    },
    {
      "button": "Right_Down",
      "time": 7317,
      "note": 71
    },
    {
      "time": 8780,
      "note": 55
    },
    {
      "button": "Left_Left",
      "time": 9146,
      "note": 64
    },
    {
      "button": "Left_Down",
      "time": 9512,
      "note": 73
    },
    {
      "button": "Right_Left",
      "time": 10244,
      "note": 74
    },
    {
      "button": "Right_Down",
      "time": 10976,
      "note": 79
    },
    {
      "button": "Right_Right",
      "time": 12439,
      "note": 81
    },
    {
      "button": "Right_Up",
      "time": 12805,
      "note": 83
    },
    {
      "button": "Right_Left",
      "time": 13171,
      "note": 85
    },
    {
      "button": "Left_Left",
      "time": 14634,
      "note": 83
    },
    {
      "time": 15000,
      "note": 81
    },
    {
      "button": "Left_Right",
      "time": 15366,
      "note": 83
    },
    {
      "button": "Right_Left",
      "time": 16829,
      "note": 81
    },
    {
      "button": "Right_Up",
      "time": 17195,
      "note": 79
    },
    {
      "button": "Right_Right",
      "time": 17561,
      "note": 81
    },
    {
      "button": "Right_Left",
      "time": 18293,
      "note": 76
    },
    {
      "button": "Left_Right",
      "time": 18293,
      "note": 76
    },
    {
      "button": "Left_Left",
      "time": 19756,
      "note": 79
    },
    {
      "button": "Left_Down",
      "time": 21219,
      "note": 79
    },
    {
      "button": "Left_Right",
      "time": 21585,
      "note": 81
    },
    {
      "time": 21951,
      "note": 78
    },
    {
      "button": "Right_Right",
      "time": 22683,
      "note": 76
    },
    {
      "button": "Right_Down",
      "time": 23780,
      "note": 74
    },
    {
      "button": "Right_Left",
      "time": 24146,
      "note": 76
    },
    {
      "button": "Right_Up",
      "time": 24878,
      "note": 83
    },
    {
      "button": "Left_Left",
      "time": 27805,
      "note": 74
    },
    {
      "time": 28537,
      "note": 79
    },
    {
      "button": "Left_Right",
      "time": 30000,
      "note": 81
    },
    {
      "button": "Left_Down",
      "time": 30366,
      "note": 83
    },
    {
      "button": "Left_Left",
      "time": 30732,
      "note": 85
    },
    {
      "button": "Right_Left",
      "time": 32195,
      "note": 83
    },
    {
      "button": "Right_Up",
      "time": 32561,
      "note": 81
    },
    {
      "button": "Right_Right",
      "time": 32927,
      "note": 83
    },
    {
      "button": "Left_Right",
      "time": 34390,
      "note": 81
    },
    {
      "time": 34756,
      "note": 79
    },
    {
      "button": "Left_Left",
      "time": 35122,
      "note": 81
    },
    {
      "button": "Left_Down",
      "time": 35854,
      "note": 76
    },
    {
      "button": "Right_Left",
      "time": 37317,
      "note": 79
    },
    {
      "button": "Left_Right",
      "time": 37317,
      "note": 79
    },
    {
      "button": "Right_Right",
      "time": 38780,
      "note": 79
    },
    {
      "button": "Right_Down",
      "time": 39146,
      "note": 81
    },
    {
      "button": "Right_Left",
      "time": 39512,
      "note": 78
    },
    {
      "button": "Left_Left",
      "time": 40244,
      "note": 76
    },
    {
      "button": "Left_Down",
      "time": 41341,
      "note": 74
    },
    {
      "button": "Left_Right",
      "time": 41707,
      "note": 76
    },
    {
      "button": "Right_Left",
      "time": 45366,
      "note": 83
    },
    {
      "button": "Right_Up",
      "time": 45732,
      "note": 85
    },
    {
      "button": "Right_Right",
      "time": 46097,
      "note": 86
    },
    {
      "button": "Left_Right",
      "time": 47561,
      "note": 86
    },
    {
      "time": 47927,
      "note": 88
    },
    {
      "button": "Left_Left",
      "time": 48293,
      "note": 85
    },
    {
      "button": "Left_Down",
      "time": 49024,
      "note": 83
    },
    {
      "button": "Right_Down",
      "time": 49024,
      "note": 83
    },
    {
      "button": "Right_Down",
      "time": 49756,
      "note": 81
    },
    {
      "button": "Left_Down",
      "time": 49756,
      "note": 81
    },
    {
      "button": "Right_Left",
      "time": 51219,
      "note": 83
    },
    {
      "button": "Right_Up",
      "time": 51951,
      "note": 90
    },
    {
      "button": "Right_Right",
      "time": 52683,
      "note": 85
    },
    {
      "button": "Left_Right",
      "time": 53399,
      "note": 83
    },
    {
      "button": "Left_Down",
      "time": 54146,
      "note": 81
    },
    {
      "button": "Left_Left",
      "time": 54878,
      "note": 83
    },
    {
      "button": "Right_Left",
      "time": 56341,
      "note": 81
    },
    {
      "button": "Right_Down",
      "time": 56707,
      "note": 79
    },
    {
      "button": "Right_Right",
      "time": 57073,
      "note": 78
    },
    {
      "button": "Left_Right",
      "time": 58536,
      "note": 76
    },
    {
      "time": 58902,
      "note": 74
    },
    {
      "button": "Left_Left",
      "time": 59268,
      "note": 76
    },
    {
      "button": "Right_Left",
      "time": 62927,
      "note": 83
    },
    {
      "button": "Right_Up",
      "time": 63293,
      "note": 85
    },
    {
      "button": "Right_Right",
      "time": 63658,
      "note": 86
    },
    {
      "button": "Right_Right",
      "time": 65122,
      "note": 86
    },
    {
      "button": "Right_Up",
      "time": 65488,
      "note": 88
    },
    {
      "button": "Right_Left",
      "time": 65854,
      "note": 85
    },
    {
      "button": "Left_Right",
      "time": 66585,
      "note": 83
    },
    {
      "button": "Left_Right",
      "time": 67317,
      "note": 81
    },
    {
      "button": "Right_Left",
      "time": 68780,
      "note": 83
    },
    {
      "button": "Left_Right",
      "time": 68780,
      "note": 83
    },
    {
      "button": "Right_Up",
      "time": 69512,
      "note": 93
    },
    {
      "time": 69512,
      "note": 93
    },
    {
      "button": "Left_Left",
      "time": 70244,
      "note": 85
    },
    {
      "button": "Right_Right",
      "time": 70244,
      "note": 85
    },
    {
      "button": "Right_Left",
      "time": 70975,
      "note": 83
    },
    {
      "button": "Right_Down",
      "time": 71707,
      "note": 81
    },
    {
      "button": "Right_Right",
      "time": 72439,
      "note": 83
    },
    {
      "button": "Left_Right",
      "time": 73902,
      "note": 81
    },
    {
      "button": "Left_Down",
      "time": 74268,
      "note": 79
    },
    {
      "button": "Left_Left",
      "time": 74634,
      "note": 78
    },
    {
      "button": "Left_Down",
      "time": 75366,
      "note": 76
    },
    {
      "button": "Left_Right",
      "time": 76463,
      "note": 74
    },
    {
      "time": 76829,
      "note": 76
    },
    {
      "button": "Right_Up",
      "time": 76829,
      "note": 76
    }
  ],
  "instrument": 1,
  "playMusicEvent": {
    "text": "Play_ui_musicgame_genshin_maintheme_hard"
  },
  "stopMusicEvent": {
    "text": "Stop_ui_musicgame_genshin_maintheme_hard"
  },
  "pauseMusicEvent": {
    "text": "Pause_ui_musicgame_genshin_maintheme_hard"
  },
  "resumeMusicEvent": {
    "text": "Resume_ui_musicgame_genshin_maintheme_hard"
  }
}