{
  "buttonSequence": [
    {
      "button": "Left_Down",
      "time": 1076
    },
    {
      "button": "Left_Down",
      "time": 3076
    },
    {
      "button": "Left_Down",
      "time": 5076
    },
    {
      "button": "Left_Down",
      "time": 7076
    },
    {
      "button": "Left_Down",
      "time": 8576
    },
    {
      "button": "Left_Down",
      "time": 9076
    },
    {
      "button": "Left_Down",
      "time": 12576
    },
    {
      "button": "Left_Down",
      "time": 13076
    },
    {
      "button": "Left_Down",
      "time": 14576,
      "isLongPress": true,
      "longPressTime": 1500
    },
    {
      "button": "Left_Down",
      "time": 18826
    },
    {
      "button": "Left_Down",
      "time": 19076
    },
    {
      "button": "Left_Down",
      "time": 22826
    },
    {
      "button": "Left_Down",
      "time": 23076
    },
    {
      "button": "Left_Down",
      "time": 27076
    },
    {
      "button": "Left_Down",
      "time": 29076
    },
    {
      "button": "Left_Down",
      "time": 30576
    },
    {
      "button": "Left_Down",
      "time": 32076
    },
    {
      "button": "Left_Down",
      "time": 34576
    },
    {
      "button": "Left_Down",
      "time": 36576
    },
    {
      "button": "Left_Down",
      "time": 38076
    },
    {
      "button": "Left_Down",
      "time": 40076
    },
    {
      "button": "Left_Down",
      "time": 43076
    },
    {
      "button": "Left_Down",
      "time": 45076,
      "isLongPress": true,
      "longPressTime": 2000
    },
    {
      "button": "Left_Down",
      "time": 50076
    },
    {
      "button": "Left_Down",
      "time": 53076
    },
    {
      "button": "Left_Down",
      "time": 57076
    },
    {
      "button": "Left_Down",
      "time": 60076,
      "isLongPress": true,
      "longPressTime": 1000
    },
    {
      "button": "Left_Down",
      "time": 65576
    },
    {
      "button": "Left_Down",
      "time": 68076,
      "isLongPress": true,
      "longPressTime": 1000
    },
    {
      "button": "Left_Down",
      "time": 71576
    },
    {
      "button": "Left_Down",
      "time": 72326
    },
    {
      "button": "Left_Down",
      "time": 72576
    },
    {
      "button": "Left_Down",
      "time": 74076
    },
    {
      "button": "Left_Down",
      "time": 78576
    },
    {
      "button": "Left_Down",
      "time": 80076
    },
    {
      "button": "Left_Down",
      "time": 82076
    },
    {
      "button": "Left_Down",
      "time": 84076
    },
    {
      "button": "Left_Right",
      "time": 10076
    },
    {
      "button": "Left_Right",
      "time": 12076
    },
    {
      "button": "Left_Right",
      "time": 14076
    },
    {
      "button": "Left_Right",
      "time": 17076
    },
    {
      "button": "Left_Right",
      "time": 19576
    },
    {
      "button": "Left_Right",
      "time": 22076
    },
    {
      "button": "Left_Right",
      "time": 23576,
      "isLongPress": true,
      "longPressTime": 2500
    },
    {
      "button": "Left_Right",
      "time": 27576
    },
    {
      "button": "Left_Right",
      "time": 30076
    },
    {
      "button": "Left_Right",
      "time": 31576
    },
    {
      "button": "Left_Right",
      "time": 34076
    },
    {
      "button": "Left_Right",
      "time": 36076
    },
    {
      "button": "Left_Right",
      "time": 37076
    },
    {
      "button": "Left_Right",
      "time": 38576
    },
    {
      "button": "Left_Right",
      "time": 39576
    },
    {
      "button": "Left_Right",
      "time": 42076
    },
    {
      "button": "Left_Right",
      "time": 48576
    },
    {
      "button": "Left_Right",
      "time": 53576
    },
    {
      "button": "Left_Right",
      "time": 55076
    },
    {
      "button": "Left_Right",
      "time": 58076
    },
    {
      "button": "Left_Right",
      "time": 59576
    },
    {
      "button": "Left_Right",
      "time": 61576
    },
    {
      "button": "Left_Right",
      "time": 62576
    },
    {
      "button": "Left_Right",
      "time": 63576
    },
    {
      "button": "Left_Right",
      "time": 64326
    },
    {
      "button": "Left_Right",
      "time": 64576
    },
    {
      "button": "Left_Right",
      "time": 66576
    },
    {
      "button": "Left_Right",
      "time": 69576
    },
    {
      "button": "Left_Right",
      "time": 70576
    },
    {
      "button": "Left_Right",
      "time": 73576
    },
    {
      "button": "Left_Right",
      "time": 76076
    },
    {
      "button": "Left_Right",
      "time": 77576
    },
    {
      "button": "Left_Right",
      "time": 79076
    },
    {
      "button": "Left_Right",
      "time": 81076
    },
    {
      "button": "Left_Right",
      "time": 83076
    },
    {
      "button": "Right_Left",
      "time": 8076
    },
    {
      "button": "Right_Left",
      "time": 10076
    },
    {
      "button": "Right_Left",
      "time": 12076
    },
    {
      "button": "Right_Left",
      "time": 14076
    },
    {
      "button": "Right_Left",
      "time": 17576
    },
    {
      "button": "Right_Left",
      "time": 20076
    },
    {
      "button": "Right_Left",
      "time": 21576
    },
    {
      "button": "Right_Left",
      "time": 23326
    },
    {
      "button": "Right_Left",
      "time": 28076
    },
    {
      "button": "Right_Left",
      "time": 29576
    },
    {
      "button": "Right_Left",
      "time": 32076
    },
    {
      "button": "Right_Left",
      "time": 33576
    },
    {
      "button": "Right_Left",
      "time": 35076,
      "isLongPress": true,
      "longPressTime": 1000
    },
    {
      "button": "Right_Left",
      "time": 37576
    },
    {
      "button": "Right_Left",
      "time": 39076
    },
    {
      "button": "Right_Left",
      "time": 40576
    },
    {
      "button": "Right_Left",
      "time": 41576
    },
    {
      "button": "Right_Left",
      "time": 52076
    },
    {
      "button": "Right_Left",
      "time": 52576
    },
    {
      "button": "Right_Left",
      "time": 54076
    },
    {
      "button": "Right_Left",
      "time": 55576
    },
    {
      "button": "Right_Left",
      "time": 57576
    },
    {
      "button": "Right_Left",
      "time": 59076
    },
    {
      "button": "Right_Left",
      "time": 62076
    },
    {
      "button": "Right_Left",
      "time": 63076
    },
    {
      "button": "Right_Left",
      "time": 64076
    },
    {
      "button": "Right_Left",
      "time": 65076
    },
    {
      "button": "Right_Left",
      "time": 67076,
      "isLongPress": true,
      "longPressTime": 1000
    },
    {
      "button": "Right_Left",
      "time": 71076
    },
    {
      "button": "Right_Left",
      "time": 72076
    },
    {
      "button": "Right_Left",
      "time": 73076
    },
    {
      "button": "Right_Left",
      "time": 75576
    },
    {
      "button": "Right_Left",
      "time": 78076
    },
    {
      "button": "Right_Down",
      "time": 2076
    },
    {
      "button": "Right_Down",
      "time": 4076
    },
    {
      "button": "Right_Down",
      "time": 6076
    },
    {
      "button": "Right_Down",
      "time": 11076
    },
    {
      "button": "Right_Down",
      "time": 14576,
      "isLongPress": true,
      "longPressTime": 1500
    },
    {
      "button": "Right_Down",
      "time": 18076
    },
    {
      "button": "Right_Down",
      "time": 20826
    },
    {
      "button": "Right_Down",
      "time": 21076
    },
    {
      "button": "Right_Down",
      "time": 28576
    },
    {
      "button": "Right_Down",
      "time": 30076
    },
    {
      "button": "Right_Down",
      "time": 31076
    },
    {
      "button": "Right_Down",
      "time": 32576
    },
    {
      "button": "Right_Down",
      "time": 33076
    },
    {
      "button": "Right_Down",
      "time": 38076
    },
    {
      "button": "Right_Down",
      "time": 40076
    },
    {
      "button": "Right_Down",
      "time": 41076
    },
    {
      "button": "Right_Down",
      "time": 42576
    },
    {
      "button": "Right_Down",
      "time": 44076,
      "isLongPress": true,
      "longPressTime": 1000
    },
    {
      "button": "Right_Down",
      "time": 46076
    },
    {
      "button": "Right_Down",
      "time": 48076
    },
    {
      "button": "Right_Down",
      "time": 49076,
      "isLongPress": true,
      "longPressTime": 2000
    },
    {
      "button": "Right_Down",
      "time": 56076,
      "isLongPress": true,
      "longPressTime": 1000
    },
    {
      "button": "Right_Down",
      "time": 58576
    },
    {
      "button": "Right_Down",
      "time": 60076,
      "isLongPress": true,
      "longPressTime": 1000
    },
    {
      "button": "Right_Down",
      "time": 66076
    },
    {
      "button": "Right_Down",
      "time": 69076
    },
    {
      "button": "Right_Down",
      "time": 70076
    },
    {
      "button": "Right_Down",
      "time": 75076
    },
    {
      "button": "Right_Down",
      "time": 77076
    },
    {
      "button": "Right_Down",
      "time": 80076
    },
    {
      "button": "Right_Down",
      "time": 82076
    },
    {
      "button": "Right_Down",
      "time": 84076,
      "isLongPress": true,
      "longPressTime": 5000
    }
  ],
  "instrument": -1507746808,
  "playMusicEvent": {
    "text": "Play_ui_feedback_musicgame_char04_HuTao"
  },
  "stopMusicEvent": {
    "text": "Stop_ui_feedback_musicgame_char04_HuTao"
  },
  "pauseMusicEvent": {
    "text": "Pause_ui_feedback_musicgame_char04_HuTao"
  },
  "resumeMusicEvent": {
    "text": "Resume_ui_feedback_musicgame_char04_HuTao"
  },
  "playPreviewMusicEvent": {
    "text": "Play_ui_feedback_musicgame_char04_HuTao_show"
  },
  "stopPreviewMusicEvent": {
    "text": "Stop_ui_feedback_musicgame_char04_HuTao_show"
  }
}