{
  "buttonSequence": [
    {
      "button": "Left_Left",
      "time": 47500
    },
    {
      "button": "Left_Down",
      "time": 8125
    },
    {
      "button": "Left_Down",
      "time": 9583
    },
    {
      "button": "Left_Down",
      "time": 10000
    },
    {
      "button": "Left_Down",
      "time": 11875
    },
    {
      "button": "Left_Down",
      "time": 13541
    },
    {
      "button": "Left_Down",
      "time": 15208
    },
    {
      "button": "Left_Down",
      "time": 16875
    },
    {
      "button": "Left_Down",
      "time": 21041
    },
    {
      "button": "Left_Down",
      "time": 23541
    },
    {
      "button": "Left_Down",
      "time": 24583
    },
    {
      "button": "Left_Down",
      "time": 35833
    },
    {
      "button": "Left_Down",
      "time": 36666
    },
    {
      "button": "Left_Down",
      "time": 49375
    },
    {
      "button": "Left_Down",
      "time": 50833
    },
    {
      "button": "Left_Down",
      "time": 52916
    },
    {
      "button": "Left_Down",
      "time": 55833
    },
    {
      "button": "Left_Down",
      "time": 57291
    },
    {
      "button": "Left_Down",
      "time": 58125
    },
    {
      "button": "Left_Down",
      "time": 59583
    },
    {
      "button": "Left_Down",
      "time": 61875
    },
    {
      "button": "Left_Down",
      "time": 66250
    },
    {
      "button": "Left_Down",
      "time": 67916
    },
    {
      "button": "Left_Down",
      "time": 69583
    },
    {
      "button": "Left_Down",
      "time": 71250
    },
    {
      "button": "Left_Down",
      "time": 72500
    },
    {
      "button": "Left_Down",
      "time": 72708
    },
    {
      "button": "Left_Down",
      "time": 74166
    },
    {
      "button": "Left_Down",
      "time": 74375
    },
    {
      "button": "Left_Down",
      "time": 75833
    },
    {
      "button": "Left_Down",
      "time": 76041
    },
    {
      "button": "Left_Down",
      "time": 77500
    },
    {
      "button": "Left_Down",
      "time": 77708
    },
    {
      "button": "Left_Right",
      "time": 1458
    },
    {
      "button": "Left_Right",
      "time": 2604
    },
    {
      "button": "Left_Right",
      "time": 3125
    },
    {
      "button": "Left_Right",
      "time": 4895
    },
    {
      "button": "Left_Right",
      "time": 6250
    },
    {
      "button": "Left_Right",
      "time": 6666
    },
    {
      "button": "Left_Right",
      "time": 11666
    },
    {
      "button": "Left_Right",
      "time": 13333
    },
    {
      "button": "Left_Right",
      "time": 15000
    },
    {
      "button": "Left_Right",
      "time": 16666
    },
    {
      "button": "Left_Right",
      "time": 18333
    },
    {
      "button": "Left_Right",
      "time": 18750
    },
    {
      "button": "Left_Right",
      "time": 19166
    },
    {
      "button": "Left_Right",
      "time": 20833
    },
    {
      "button": "Left_Right",
      "time": 22083
    },
    {
      "button": "Left_Right",
      "time": 23333
    },
    {
      "button": "Left_Right",
      "time": 24375
    },
    {
      "button": "Left_Right",
      "time": 25000
    },
    {
      "button": "Left_Right",
      "time": 25833
    },
    {
      "button": "Left_Right",
      "time": 26666
    },
    {
      "button": "Left_Right",
      "time": 26875
    },
    {
      "button": "Left_Right",
      "time": 28541
    },
    {
      "button": "Left_Right",
      "time": 29583
    },
    {
      "button": "Left_Right",
      "time": 30000
    },
    {
      "button": "Left_Right",
      "time": 30416
    },
    {
      "button": "Left_Right",
      "time": 31250
    },
    {
      "button": "Left_Right",
      "time": 32916
    },
    {
      "button": "Left_Right",
      "time": 34166
    },
    {
      "button": "Left_Right",
      "time": 35000
    },
    {
      "button": "Left_Right",
      "time": 37500
    },
    {
      "button": "Left_Right",
      "time": 37708
    },
    {
      "button": "Left_Right",
      "time": 38333
    },
    {
      "button": "Left_Right",
      "time": 39166
    },
    {
      "button": "Left_Right",
      "time": 40000
    },
    {
      "button": "Left_Right",
      "time": 40208
    },
    {
      "button": "Left_Right",
      "time": 41666
    },
    {
      "button": "Left_Right",
      "time": 42500
    },
    {
      "button": "Left_Right",
      "time": 42916
    },
    {
      "button": "Left_Right",
      "time": 43333
    },
    {
      "button": "Left_Right",
      "time": 43750
    },
    {
      "button": "Left_Right",
      "time": 44166
    },
    {
      "button": "Left_Right",
      "time": 44583
    },
    {
      "button": "Left_Right",
      "time": 45000
    },
    {
      "button": "Left_Right",
      "time": 45208
    },
    {
      "button": "Left_Right",
      "time": 45833
    },
    {
      "button": "Left_Right",
      "time": 46458
    },
    {
      "button": "Left_Right",
      "time": 46666
    },
    {
      "button": "Left_Right",
      "time": 46875
    },
    {
      "button": "Left_Right",
      "time": 47916
    },
    {
      "button": "Left_Right",
      "time": 49166
    },
    {
      "button": "Left_Right",
      "time": 52500
    },
    {
      "button": "Left_Right",
      "time": 54166
    },
    {
      "button": "Left_Right",
      "time": 54791
    },
    {
      "button": "Left_Right",
      "time": 55416
    },
    {
      "button": "Left_Right",
      "time": 56458
    },
    {
      "button": "Left_Right",
      "time": 56875
    },
    {
      "button": "Left_Right",
      "time": 57708
    },
    {
      "button": "Left_Right",
      "time": 58333
    },
    {
      "button": "Left_Right",
      "time": 59166
    },
    {
      "button": "Left_Right",
      "time": 60833
    },
    {
      "button": "Left_Right",
      "time": 61458
    },
    {
      "button": "Left_Right",
      "time": 62291
    },
    {
      "button": "Left_Right",
      "time": 63125
    },
    {
      "button": "Left_Right",
      "time": 63541
    },
    {
      "button": "Left_Right",
      "time": 63958
    },
    {
      "button": "Left_Right",
      "time": 64375
    },
    {
      "button": "Left_Right",
      "time": 64791
    },
    {
      "button": "Left_Right",
      "time": 65833
    },
    {
      "button": "Left_Right",
      "time": 67500
    },
    {
      "button": "Left_Right",
      "time": 67708
    },
    {
      "button": "Left_Right",
      "time": 69166
    },
    {
      "button": "Left_Right",
      "time": 69375
    },
    {
      "button": "Left_Right",
      "time": 70833
    },
    {
      "button": "Left_Right",
      "time": 71041
    },
    {
      "button": "Left_Right",
      "time": 72916
    },
    {
      "button": "Left_Right",
      "time": 74583
    },
    {
      "button": "Left_Right",
      "time": 76250
    },
    {
      "button": "Left_Right",
      "time": 77291
    },
    {
      "button": "Left_Right",
      "time": 77916
    },
    {
      "button": "Left_Right",
      "time": 78333
    },
    {
      "button": "Left_Right",
      "time": 81666
    },
    {
      "button": "Right_Left",
      "time": 3437
    },
    {
      "button": "Right_Left",
      "time": 3750
    },
    {
      "button": "Right_Left",
      "time": 4062
    },
    {
      "button": "Right_Left",
      "time": 4375
    },
    {
      "button": "Right_Left",
      "time": 4791
    },
    {
      "button": "Right_Left",
      "time": 5000
    },
    {
      "button": "Right_Left",
      "time": 6458
    },
    {
      "button": "Right_Left",
      "time": 7916
    },
    {
      "button": "Right_Left",
      "time": 8333
    },
    {
      "button": "Right_Left",
      "time": 12500
    },
    {
      "button": "Right_Left",
      "time": 14166
    },
    {
      "button": "Right_Left",
      "time": 15833
    },
    {
      "button": "Right_Left",
      "time": 17500
    },
    {
      "button": "Right_Left",
      "time": 20000
    },
    {
      "button": "Right_Left",
      "time": 21666
    },
    {
      "button": "Right_Left",
      "time": 22500
    },
    {
      "button": "Right_Left",
      "time": 23958
    },
    {
      "button": "Right_Left",
      "time": 24791
    },
    {
      "button": "Right_Left",
      "time": 28333
    },
    {
      "button": "Right_Left",
      "time": 29166
    },
    {
      "button": "Right_Left",
      "time": 30833
    },
    {
      "button": "Right_Left",
      "time": 31666
    },
    {
      "button": "Right_Left",
      "time": 33333
    },
    {
      "button": "Right_Left",
      "time": 37916
    },
    {
      "button": "Right_Left",
      "time": 38125
    },
    {
      "button": "Right_Left",
      "time": 41875
    },
    {
      "button": "Right_Left",
      "time": 48333
    },
    {
      "button": "Right_Left",
      "time": 50000
    },
    {
      "button": "Right_Left",
      "time": 51666
    },
    {
      "button": "Right_Left",
      "time": 53333
    },
    {
      "button": "Right_Left",
      "time": 54583
    },
    {
      "button": "Right_Left",
      "time": 55000
    },
    {
      "button": "Right_Left",
      "time": 56250
    },
    {
      "button": "Right_Left",
      "time": 56666
    },
    {
      "button": "Right_Left",
      "time": 57500
    },
    {
      "button": "Right_Left",
      "time": 60000
    },
    {
      "button": "Right_Left",
      "time": 61250
    },
    {
      "button": "Right_Left",
      "time": 62083
    },
    {
      "button": "Right_Left",
      "time": 62916
    },
    {
      "button": "Right_Left",
      "time": 63333
    },
    {
      "button": "Right_Left",
      "time": 63750
    },
    {
      "button": "Right_Left",
      "time": 64166
    },
    {
      "button": "Right_Left",
      "time": 64583
    },
    {
      "button": "Right_Left",
      "time": 65000
    },
    {
      "button": "Right_Left",
      "time": 65208
    },
    {
      "button": "Right_Left",
      "time": 66666
    },
    {
      "button": "Right_Left",
      "time": 66875
    },
    {
      "button": "Right_Left",
      "time": 68333
    },
    {
      "button": "Right_Left",
      "time": 68541
    },
    {
      "button": "Right_Left",
      "time": 70000
    },
    {
      "button": "Right_Left",
      "time": 70208
    },
    {
      "button": "Right_Left",
      "time": 72083
    },
    {
      "button": "Right_Left",
      "time": 73750
    },
    {
      "button": "Right_Left",
      "time": 75416
    },
    {
      "button": "Right_Left",
      "time": 75625
    },
    {
      "button": "Right_Left",
      "time": 76458
    },
    {
      "button": "Right_Left",
      "time": 77083
    },
    {
      "button": "Right_Left",
      "time": 78125
    },
    {
      "button": "Right_Left",
      "time": 80000
    },
    {
      "button": "Right_Down",
      "time": 9791
    },
    {
      "button": "Right_Down",
      "time": 10833
    },
    {
      "button": "Right_Down",
      "time": 12708
    },
    {
      "button": "Right_Down",
      "time": 14375
    },
    {
      "button": "Right_Down",
      "time": 16041
    },
    {
      "button": "Right_Down",
      "time": 17708
    },
    {
      "button": "Right_Down",
      "time": 20208
    },
    {
      "button": "Right_Down",
      "time": 24166
    },
    {
      "button": "Right_Down",
      "time": 36875
    },
    {
      "button": "Right_Down",
      "time": 48541
    },
    {
      "button": "Right_Down",
      "time": 50208
    },
    {
      "button": "Right_Down",
      "time": 52083
    },
    {
      "button": "Right_Down",
      "time": 53750
    },
    {
      "button": "Right_Down",
      "time": 57083
    },
    {
      "button": "Right_Down",
      "time": 57916
    },
    {
      "button": "Right_Down",
      "time": 60416
    },
    {
      "button": "Right_Down",
      "time": 61666
    },
    {
      "button": "Right_Down",
      "time": 62500
    },
    {
      "button": "Right_Down",
      "time": 65416
    },
    {
      "button": "Right_Down",
      "time": 67083
    },
    {
      "button": "Right_Down",
      "time": 68750
    },
    {
      "button": "Right_Down",
      "time": 70416
    },
    {
      "button": "Right_Down",
      "time": 71666
    },
    {
      "button": "Right_Down",
      "time": 71875
    },
    {
      "button": "Right_Down",
      "time": 73333
    },
    {
      "button": "Right_Down",
      "time": 73541
    },
    {
      "button": "Right_Down",
      "time": 75000
    },
    {
      "button": "Right_Down",
      "time": 75208
    },
    {
      "button": "Right_Down",
      "time": 76666
    },
    {
      "button": "Right_Down",
      "time": 76875
    },
    {
      "button": "Right_Right",
      "time": 35208
    }
  ],
  "instrument": -508589841,
  "playMusicEvent": {
    "text": "Play_ui_feedback_musicgame_char_leishen"
  },
  "stopMusicEvent": {
    "text": "Stop_ui_feedback_musicgame_char_leishen"
  },
  "pauseMusicEvent": {
    "text": "Pause_ui_feedback_musicgame_char_leishen"
  },
  "resumeMusicEvent": {
    "text": "Resume_ui_feedback_musicgame_char_leishen"
  }
}