{
  "buttonSequence": [
    {
      "button": "Right_Right",
      "time": 11923,
      "note": 69
    },
    {
      "button": "Right_Right",
      "time": 12534,
      "note": 69
    },
    {
      "button": "Right_Up",
      "time": 13140,
      "note": 71
    },
    {
      "time": 13140,
      "note": 71
    },
    {
      "button": "Left_Left",
      "time": 14907,
      "note": 69
    },
    {
      "time": 15212,
      "note": 71
    },
    {
      "button": "Left_Right",
      "time": 15497,
      "note": 72
    },
    {
      "button": "Left_Left",
      "time": 15791,
      "note": 71
    },
    {
      "button": "Left_Down",
      "time": 16103,
      "note": 69
    },
    {
      "time": 16394,
      "note": 71
    },
    {
      "button": "Right_Up",
      "time": 16701,
      "note": 69
    },
    {
      "button": "Right_Left",
      "time": 17584,
      "note": 65
    },
    {
      "button": "Right_Right",
      "time": 17901,
      "note": 64,
      "isLongPress": true,
      "longPressTime": 1600
    },
    {
      "button": "Left_Left",
      "time": 21475,
      "note": 62
    },
    {
      "button": "Left_Left",
      "time": 22074,
      "note": 62
    },
    {
      "time": 22683,
      "note": 64
    },
    {
      "button": "Right_Up",
      "time": 22683,
      "note": 64
    },
    {
      "button": "Right_Right",
      "time": 24484,
      "note": 62
    },
    {
      "button": "Right_Down",
      "time": 24753,
      "note": 64
    },
    {
      "button": "Right_Left",
      "time": 25031,
      "note": 65
    },
    {
      "button": "Right_Up",
      "time": 25335,
      "note": 64
    },
    {
      "button": "Right_Down",
      "time": 25622,
      "note": 62
    },
    {
      "button": "Left_Right",
      "time": 25911,
      "note": 64
    },
    {
      "button": "Left_Down",
      "time": 26220,
      "note": 59
    },
    {
      "button": "Left_Left",
      "time": 27461,
      "note": 59,
      "isLongPress": true,
      "longPressTime": 1600
    },
    {
      "button": "Right_Down",
      "time": 31010,
      "note": 69
    },
    {
      "button": "Right_Down",
      "time": 31635,
      "note": 69
    },
    {
      "button": "Right_Up",
      "time": 32217,
      "note": 71,
      "isLongPress": true,
      "longPressTime": 1200
    },
    {
      "button": "Left_Left",
      "time": 34011,
      "note": 69
    },
    {
      "time": 34305,
      "note": 71
    },
    {
      "button": "Left_Down",
      "time": 34599,
      "note": 72
    },
    {
      "button": "Left_Right",
      "time": 34886,
      "note": 71
    },
    {
      "button": "Left_Left",
      "time": 35189,
      "note": 69
    },
    {
      "time": 35477,
      "note": 71
    },
    {
      "button": "Right_Up",
      "time": 35785,
      "note": 69
    },
    {
      "button": "Right_Down",
      "time": 36690,
      "note": 65
    },
    {
      "button": "Right_Right",
      "time": 37008,
      "note": 64,
      "isLongPress": true,
      "longPressTime": 1600
    },
    {
      "button": "Left_Down",
      "time": 39964,
      "note": 64
    },
    {
      "time": 40563,
      "note": 71
    },
    {
      "button": "Right_Up",
      "time": 40563,
      "note": 71
    },
    {
      "button": "Right_Left",
      "time": 43541,
      "note": 71
    },
    {
      "button": "Right_Down",
      "time": 43839,
      "note": 72
    },
    {
      "button": "Right_Right",
      "time": 44138,
      "note": 77
    },
    {
      "button": "Right_Up",
      "time": 44436,
      "note": 76
    },
    {
      "button": "Right_Down",
      "time": 44734,
      "note": 71
    },
    {
      "button": "Right_Left",
      "time": 45032,
      "note": 72
    },
    {
      "button": "Right_Right",
      "time": 45330,
      "note": 71,
      "isLongPress": true,
      "longPressTime": 1600
    },
    {
      "button": "Left_Down",
      "time": 45924,
      "note": 71
    },
    {
      "button": "Left_Right",
      "time": 47716,
      "note": 69,
      "isLongPress": true,
      "longPressTime": 1600
    },
    {
      "button": "Right_Down",
      "time": 48310,
      "note": 69
    },
    {
      "button": "Right_Right",
      "time": 64422,
      "note": 62
    },
    {
      "button": "Left_Right",
      "time": 64422,
      "note": 62
    },
    {
      "button": "Right_Down",
      "time": 65020,
      "note": 62
    },
    {
      "button": "Left_Down",
      "time": 65020,
      "note": 62
    },
    {
      "button": "Right_Up",
      "time": 65629,
      "note": 64
    },
    {
      "time": 65629,
      "note": 64
    },
    {
      "button": "Right_Right",
      "time": 67432,
      "note": 62
    },
    {
      "button": "Right_Down",
      "time": 67699,
      "note": 64
    },
    {
      "button": "Right_Left",
      "time": 67977,
      "note": 65
    },
    {
      "button": "Left_Right",
      "time": 68282,
      "note": 64
    },
    {
      "button": "Left_Down",
      "time": 68570,
      "note": 62
    },
    {
      "button": "Left_Left",
      "time": 68857,
      "note": 64
    },
    {
      "time": 69166,
      "note": 59
    },
    {
      "button": "Right_Up",
      "time": 69166,
      "note": 59
    },
    {
      "button": "Right_Left",
      "time": 70407,
      "note": 59,
      "isLongPress": true,
      "longPressTime": 1600
    },
    {
      "button": "Left_Down",
      "time": 82905,
      "note": 64
    },
    {
      "time": 83504,
      "note": 71,
      "isLongPress": true,
      "longPressTime": 1400
    },
    {
      "button": "Right_Up",
      "time": 83504,
      "note": 71,
      "isLongPress": true,
      "longPressTime": 1400
    },
    {
      "button": "Left_Left",
      "time": 86482,
      "note": 71
    },
    {
      "button": "Left_Down",
      "time": 86780,
      "note": 72
    },
    {
      "button": "Left_Right",
      "time": 87079,
      "note": 77
    },
    {
      "button": "Right_Left",
      "time": 87377,
      "note": 76
    },
    {
      "button": "Right_Down",
      "time": 87675,
      "note": 71
    },
    {
      "button": "Right_Right",
      "time": 87973,
      "note": 72
    },
    {
      "button": "Right_Left",
      "time": 88272,
      "note": 71,
      "isLongPress": true,
      "longPressTime": 1400
    },
    {
      "button": "Left_Left",
      "time": 88272,
      "note": 71,
      "isLongPress": true,
      "longPressTime": 1400
    },
    {
      "button": "Right_Right",
      "time": 90657,
      "note": 69,
      "isLongPress": true,
      "longPressTime": 1400
    },
    {
      "button": "Left_Right",
      "time": 90657,
      "note": 69,
      "isLongPress": true,
      "longPressTime": 1400
    }
  ],
  "instrument": 1,
  "playMusicEvent": {
    "text": "Play_ui_musicgame_LiDao_day_C"
  },
  "stopMusicEvent": {
    "text": "Stop_ui_musicgame_LiDao_day_C"
  },
  "pauseMusicEvent": {
    "text": "Pause_ui_musicgame_LiDao_day_C"
  },
  "resumeMusicEvent": {
    "text": "Resume_ui_musicgame_LiDao_day_C"
  }
}