{
  "buttonSequence": [
    {
      "button": "Left_Down",
      "time": 5073,
      "note": 71
    },
    {
      "button": "Left_Left",
      "time": 5905,
      "note": 74
    },
    {
      "time": 6980,
      "note": 76
    },
    {
      "button": "Left_Right",
      "time": 8145,
      "note": 78
    },
    {
      "button": "Right_Left",
      "time": 8612,
      "note": 76,
      "isLongPress": true,
      "longPressTime": 1650
    },
    {
      "button": "Right_Right",
      "time": 11137,
      "note": 78
    },
    {
      "button": "Right_Down",
      "time": 11577,
      "note": 76
    },
    {
      "button": "Right_Left",
      "time": 11987,
      "note": 74
    },
    {
      "button": "Left_Right",
      "time": 12846,
      "note": 73
    },
    {
      "button": "Left_Down",
      "time": 13711,
      "note": 66
    },
    {
      "button": "Left_Left",
      "time": 14971,
      "note": 73
    },
    {
      "button": "Right_Up",
      "time": 15437,
      "note": 73,
      "isLongPress": true,
      "longPressTime": 1737
    },
    {
      "time": 18870,
      "note": 71
    },
    {
      "button": "Left_Right",
      "time": 19718,
      "note": 74
    },
    {
      "button": "Right_Left",
      "time": 20561,
      "note": 76
    },
    {
      "button": "Right_Up",
      "time": 21848,
      "note": 78
    },
    {
      "button": "Left_Left",
      "time": 22312,
      "note": 76,
      "isLongPress": true,
      "longPressTime": 1709
    },
    {
      "button": "Right_Right",
      "time": 22312,
      "note": 76,
      "isLongPress": true,
      "longPressTime": 1709
    },
    {
      "button": "Left_Right",
      "time": 24830,
      "note": 78
    },
    {
      "button": "Left_Down",
      "time": 25245,
      "note": 76
    },
    {
      "button": "Left_Left",
      "time": 25698,
      "note": 74
    },
    {
      "button": "Right_Left",
      "time": 26555,
      "note": 73
    },
    {
      "button": "Right_Down",
      "time": 27412,
      "note": 73
    },
    {
      "button": "Right_Right",
      "time": 28679,
      "note": 81
    },
    {
      "button": "Right_Up",
      "time": 29145,
      "note": 81,
      "isLongPress": true,
      "longPressTime": 1644
    },
    {
      "time": 29145,
      "note": 81,
      "isLongPress": true,
      "longPressTime": 1644
    },
    {
      "button": "Left_Left",
      "time": 46286,
      "note": 71,
      "isLongPress": true,
      "longPressTime": 771
    },
    {
      "time": 47154,
      "note": 74,
      "isLongPress": true,
      "longPressTime": 771
    },
    {
      "button": "Left_Right",
      "time": 47995,
      "note": 76,
      "isLongPress": true,
      "longPressTime": 771
    },
    {
      "button": "Right_Left",
      "time": 49262,
      "note": 78
    },
    {
      "button": "Right_Right",
      "time": 49727,
      "note": 76,
      "isLongPress": true,
      "longPressTime": 1651
    },
    {
      "button": "Left_Left",
      "time": 52316,
      "note": 78
    },
    {
      "button": "Left_Right",
      "time": 52737,
      "note": 76
    },
    {
      "button": "Right_Left",
      "time": 53191,
      "note": 73
    },
    {
      "button": "Right_Right",
      "time": 54405,
      "note": 69
    },
    {
      "button": "Right_Up",
      "time": 54845,
      "note": 71,
      "isLongPress": true,
      "longPressTime": 6000
    },
    {
      "time": 54845,
      "note": 71,
      "isLongPress": true,
      "longPressTime": 6000
    },
    {
      "button": "Right_Down",
      "time": 60961,
      "note": 69
    },
    {
      "button": "Left_Down",
      "time": 60961,
      "note": 69
    },
    {
      "button": "Right_Left",
      "time": 62368,
      "note": 71,
      "isLongPress": true,
      "longPressTime": 6203
    },
    {
      "button": "Left_Right",
      "time": 62368,
      "note": 71,
      "isLongPress": true,
      "longPressTime": 6203
    }
  ],
  "instrument": 1,
  "playMusicEvent": {
    "text": "Play_ui_musicgame_windingRiver"
  },
  "stopMusicEvent": {
    "text": "Stop_ui_musicgame_windingRiver"
  },
  "pauseMusicEvent": {
    "text": "Pause_ui_musicgame_windingRiver"
  },
  "resumeMusicEvent": {
    "text": "Resume_ui_musicgame_windingRiver"
  }
}