{
  "buttonSequence": [
    {
      "button": "Left_Left",
      "time": 23089
    },
    {
      "button": "Left_Left",
      "time": 26480
    },
    {
      "button": "Left_Left",
      "time": 31435
    },
    {
      "button": "Left_Left",
      "time": 40046
    },
    {
      "button": "Left_Left",
      "time": 42915,
      "isLongPress": true,
      "longPressTime": 522
    },
    {
      "button": "Left_Left",
      "time": 59217
    },
    {
      "button": "Left_Left",
      "time": 59739
    },
    {
      "button": "Left_Left",
      "time": 62219
    },
    {
      "button": "Left_Left",
      "time": 68654
    },
    {
      "button": "Left_Left",
      "time": 71872,
      "isLongPress": true,
      "longPressTime": 521
    },
    {
      "button": "Left_Left",
      "time": 73698
    },
    {
      "button": "Left_Left",
      "time": 74217
    },
    {
      "button": "Left_Left",
      "time": 85046
    },
    {
      "button": "Left_Left",
      "time": 86741,
      "isLongPress": true,
      "longPressTime": 522
    },
    {
      "button": "Left_Left",
      "time": 91959
    },
    {
      "button": "Left_Left",
      "time": 92350
    },
    {
      "button": "Left_Left",
      "time": 104478
    },
    {
      "button": "Left_Down",
      "time": 8480
    },
    {
      "button": "Left_Down",
      "time": 8872
    },
    {
      "button": "Left_Down",
      "time": 12654,
      "isLongPress": true,
      "longPressTime": 522
    },
    {
      "button": "Left_Down",
      "time": 22046,
      "isLongPress": true,
      "longPressTime": 521
    },
    {
      "button": "Left_Down",
      "time": 23611
    },
    {
      "button": "Left_Down",
      "time": 23872
    },
    {
      "button": "Left_Down",
      "time": 26741
    },
    {
      "button": "Left_Down",
      "time": 28306
    },
    {
      "button": "Left_Down",
      "time": 28567
    },
    {
      "button": "Left_Down",
      "time": 30131,
      "isLongPress": true,
      "longPressTime": 523
    },
    {
      "button": "Left_Down",
      "time": 30913
    },
    {
      "button": "Left_Down",
      "time": 31087
    },
    {
      "button": "Left_Down",
      "time": 31304
    },
    {
      "button": "Left_Down",
      "time": 34306,
      "isLongPress": true,
      "longPressTime": 522
    },
    {
      "button": "Left_Down",
      "time": 36132
    },
    {
      "button": "Left_Down",
      "time": 36393,
      "isLongPress": true,
      "longPressTime": 522
    },
    {
      "button": "Left_Down",
      "time": 39698
    },
    {
      "button": "Left_Down",
      "time": 40828
    },
    {
      "button": "Left_Down",
      "time": 41785
    },
    {
      "button": "Left_Down",
      "time": 42524
    },
    {
      "button": "Left_Down",
      "time": 46698,
      "isLongPress": true,
      "longPressTime": 652
    },
    {
      "button": "Left_Down",
      "time": 50741
    },
    {
      "button": "Left_Down",
      "time": 51393
    },
    {
      "button": "Left_Down",
      "time": 53872,
      "isLongPress": true,
      "longPressTime": 521
    },
    {
      "button": "Left_Down",
      "time": 55435,
      "isLongPress": true,
      "longPressTime": 523
    },
    {
      "button": "Left_Down",
      "time": 56480
    },
    {
      "button": "Left_Down",
      "time": 57391
    },
    {
      "button": "Left_Down",
      "time": 58306
    },
    {
      "button": "Left_Down",
      "time": 59022
    },
    {
      "button": "Left_Down",
      "time": 59937
    },
    {
      "button": "Left_Down",
      "time": 61959
    },
    {
      "button": "Left_Down",
      "time": 64044
    },
    {
      "button": "Left_Down",
      "time": 64698,
      "isLongPress": true,
      "longPressTime": 913
    },
    {
      "button": "Left_Down",
      "time": 65872
    },
    {
      "button": "Left_Down",
      "time": 67959
    },
    {
      "button": "Left_Down",
      "time": 69524
    },
    {
      "button": "Left_Down",
      "time": 74741
    },
    {
      "button": "Left_Down",
      "time": 75002
    },
    {
      "button": "Left_Down",
      "time": 77350,
      "isLongPress": true,
      "longPressTime": 782
    },
    {
      "button": "Left_Down",
      "time": 79437
    },
    {
      "button": "Left_Down",
      "time": 79698
    },
    {
      "button": "Left_Down",
      "time": 83089
    },
    {
      "button": "Left_Down",
      "time": 84263
    },
    {
      "button": "Left_Down",
      "time": 86350
    },
    {
      "button": "Left_Down",
      "time": 89872
    },
    {
      "button": "Left_Down",
      "time": 90263
    },
    {
      "button": "Left_Down",
      "time": 93524
    },
    {
      "button": "Left_Down",
      "time": 94046,
      "isLongPress": true,
      "longPressTime": 782
    },
    {
      "button": "Left_Down",
      "time": 95959
    },
    {
      "button": "Left_Down",
      "time": 101872
    },
    {
      "button": "Left_Down",
      "time": 102046
    },
    {
      "button": "Left_Right",
      "time": 1698,
      "isLongPress": true,
      "longPressTime": 1565
    },
    {
      "button": "Left_Right",
      "time": 6393
    },
    {
      "button": "Left_Right",
      "time": 6785
    },
    {
      "button": "Left_Right",
      "time": 9524,
      "isLongPress": true,
      "longPressTime": 522
    },
    {
      "button": "Left_Right",
      "time": 11089
    },
    {
      "button": "Left_Right",
      "time": 12132
    },
    {
      "button": "Left_Right",
      "time": 15263
    },
    {
      "button": "Left_Right",
      "time": 16306
    },
    {
      "button": "Left_Right",
      "time": 17350
    },
    {
      "button": "Left_Right",
      "time": 17872
    },
    {
      "button": "Left_Right",
      "time": 18393
    },
    {
      "button": "Left_Right",
      "time": 18915
    },
    {
      "button": "Left_Right",
      "time": 19306
    },
    {
      "button": "Left_Right",
      "time": 21002,
      "isLongPress": true,
      "longPressTime": 522
    },
    {
      "button": "Left_Right",
      "time": 24132
    },
    {
      "button": "Left_Right",
      "time": 24393
    },
    {
      "button": "Left_Right",
      "time": 25046,
      "isLongPress": true,
      "longPressTime": 652
    },
    {
      "button": "Left_Right",
      "time": 27132,
      "isLongPress": true,
      "longPressTime": 914
    },
    {
      "button": "Left_Right",
      "time": 28959
    },
    {
      "button": "Left_Right",
      "time": 33002
    },
    {
      "button": "Left_Right",
      "time": 33263
    },
    {
      "button": "Left_Right",
      "time": 37176
    },
    {
      "button": "Left_Right",
      "time": 37437
    },
    {
      "button": "Left_Right",
      "time": 37959,
      "isLongPress": true,
      "longPressTime": 1304
    },
    {
      "button": "Left_Right",
      "time": 39437
    },
    {
      "button": "Left_Right",
      "time": 41524
    },
    {
      "button": "Left_Right",
      "time": 42132
    },
    {
      "button": "Left_Right",
      "time": 45350
    },
    {
      "button": "Left_Right",
      "time": 45698
    },
    {
      "button": "Left_Right",
      "time": 46306
    },
    {
      "button": "Left_Right",
      "time": 48132,
      "isLongPress": true,
      "longPressTime": 522
    },
    {
      "button": "Left_Right",
      "time": 49350
    },
    {
      "button": "Left_Right",
      "time": 49698
    },
    {
      "button": "Left_Right",
      "time": 50046
    },
    {
      "button": "Left_Right",
      "time": 50219
    },
    {
      "button": "Left_Right",
      "time": 51654
    },
    {
      "button": "Left_Right",
      "time": 52306,
      "isLongPress": true,
      "longPressTime": 1044
    },
    {
      "button": "Left_Right",
      "time": 56872
    },
    {
      "button": "Left_Right",
      "time": 58046
    },
    {
      "button": "Left_Right",
      "time": 58826
    },
    {
      "button": "Left_Right",
      "time": 60132
    },
    {
      "button": "Left_Right",
      "time": 61698
    },
    {
      "button": "Left_Right",
      "time": 62611,
      "isLongPress": true,
      "longPressTime": 913
    },
    {
      "button": "Left_Right",
      "time": 64306
    },
    {
      "button": "Left_Right",
      "time": 66132
    },
    {
      "button": "Left_Right",
      "time": 66524
    },
    {
      "button": "Left_Right",
      "time": 68306
    },
    {
      "button": "Left_Right",
      "time": 69785
    },
    {
      "button": "Left_Right",
      "time": 70828
    },
    {
      "button": "Left_Right",
      "time": 75524,
      "isLongPress": true,
      "longPressTime": 1043
    },
    {
      "button": "Left_Right",
      "time": 77089
    },
    {
      "button": "Left_Right",
      "time": 78913
    },
    {
      "button": "Left_Right",
      "time": 80219
    },
    {
      "button": "Left_Right",
      "time": 81785,
      "isLongPress": true,
      "longPressTime": 521
    },
    {
      "button": "Left_Right",
      "time": 82480
    },
    {
      "button": "Left_Right",
      "time": 83263
    },
    {
      "button": "Left_Right",
      "time": 83872
    },
    {
      "button": "Left_Right",
      "time": 84654
    },
    {
      "button": "Left_Right",
      "time": 85437
    },
    {
      "button": "Left_Right",
      "time": 85959
    },
    {
      "button": "Left_Right",
      "time": 87785
    },
    {
      "button": "Left_Right",
      "time": 88176
    },
    {
      "button": "Left_Right",
      "time": 95611
    },
    {
      "button": "Left_Right",
      "time": 97176
    },
    {
      "button": "Left_Right",
      "time": 99263,
      "isLongPress": true,
      "longPressTime": 522
    },
    {
      "button": "Left_Right",
      "time": 101350
    },
    {
      "button": "Left_Right",
      "time": 101524
    },
    {
      "button": "Left_Right",
      "time": 102393
    },
    {
      "button": "Left_Right",
      "time": 102567
    },
    {
      "button": "Left_Right",
      "time": 103089
    },
    {
      "button": "Left_Right",
      "time": 103263
    },
    {
      "button": "Left_Right",
      "time": 103437
    },
    {
      "button": "Left_Right",
      "time": 103959
    },
    {
      "button": "Left_Right",
      "time": 104132
    },
    {
      "button": "Right_Left",
      "time": 132,
      "isLongPress": true,
      "longPressTime": 1566
    },
    {
      "button": "Right_Left",
      "time": 3261,
      "isLongPress": true,
      "longPressTime": 3131
    },
    {
      "button": "Right_Left",
      "time": 6915
    },
    {
      "button": "Right_Left",
      "time": 7959
    },
    {
      "button": "Right_Left",
      "time": 9524
    },
    {
      "button": "Right_Left",
      "time": 10046
    },
    {
      "button": "Right_Left",
      "time": 10567
    },
    {
      "button": "Right_Left",
      "time": 10959
    },
    {
      "button": "Right_Left",
      "time": 14741
    },
    {
      "button": "Right_Left",
      "time": 15132
    },
    {
      "button": "Right_Left",
      "time": 17872,
      "isLongPress": true,
      "longPressTime": 521
    },
    {
      "button": "Right_Left",
      "time": 19437
    },
    {
      "button": "Right_Left",
      "time": 20480
    },
    {
      "button": "Right_Left",
      "time": 24654
    },
    {
      "button": "Right_Left",
      "time": 24915
    },
    {
      "button": "Right_Left",
      "time": 27002
    },
    {
      "button": "Right_Left",
      "time": 28046
    },
    {
      "button": "Right_Left",
      "time": 28828
    },
    {
      "button": "Right_Left",
      "time": 33393,
      "isLongPress": true,
      "longPressTime": 913
    },
    {
      "button": "Right_Left",
      "time": 34828
    },
    {
      "button": "Right_Left",
      "time": 37306
    },
    {
      "button": "Right_Left",
      "time": 37567,
      "isLongPress": true,
      "longPressTime": 1696
    },
    {
      "button": "Right_Left",
      "time": 39524
    },
    {
      "button": "Right_Left",
      "time": 41611
    },
    {
      "button": "Right_Left",
      "time": 42131
    },
    {
      "button": "Right_Left",
      "time": 45176
    },
    {
      "button": "Right_Left",
      "time": 45524
    },
    {
      "button": "Right_Left",
      "time": 45872
    },
    {
      "button": "Right_Left",
      "time": 46046
    },
    {
      "button": "Right_Left",
      "time": 47739
    },
    {
      "button": "Right_Left",
      "time": 49524
    },
    {
      "button": "Right_Left",
      "time": 49872
    },
    {
      "button": "Right_Left",
      "time": 51132
    },
    {
      "button": "Right_Left",
      "time": 51524
    },
    {
      "button": "Right_Left",
      "time": 53350,
      "isLongPress": true,
      "longPressTime": 522
    },
    {
      "button": "Right_Left",
      "time": 56741
    },
    {
      "button": "Right_Left",
      "time": 59217
    },
    {
      "button": "Right_Left",
      "time": 59741
    },
    {
      "button": "Right_Left",
      "time": 60654
    },
    {
      "button": "Right_Left",
      "time": 61437
    },
    {
      "button": "Right_Left",
      "time": 62480
    },
    {
      "button": "Right_Left",
      "time": 64567
    },
    {
      "button": "Right_Left",
      "time": 66393
    },
    {
      "button": "Right_Left",
      "time": 70046
    },
    {
      "button": "Right_Left",
      "time": 70959,
      "isLongPress": true,
      "longPressTime": 913
    },
    {
      "button": "Right_Left",
      "time": 72654
    },
    {
      "button": "Right_Left",
      "time": 73957
    },
    {
      "button": "Right_Left",
      "time": 74478
    },
    {
      "button": "Right_Left",
      "time": 74872
    },
    {
      "button": "Right_Left",
      "time": 75132
    },
    {
      "button": "Right_Left",
      "time": 76828
    },
    {
      "button": "Right_Left",
      "time": 79044
    },
    {
      "button": "Right_Left",
      "time": 79959
    },
    {
      "button": "Right_Left",
      "time": 80350,
      "isLongPress": true,
      "longPressTime": 1174
    },
    {
      "button": "Right_Left",
      "time": 82393
    },
    {
      "button": "Right_Left",
      "time": 83437
    },
    {
      "button": "Right_Left",
      "time": 84263
    },
    {
      "button": "Right_Left",
      "time": 85046
    },
    {
      "button": "Right_Left",
      "time": 85611
    },
    {
      "button": "Right_Left",
      "time": 85959
    },
    {
      "button": "Right_Left",
      "time": 88828
    },
    {
      "button": "Right_Left",
      "time": 90915,
      "isLongPress": true,
      "longPressTime": 522
    },
    {
      "button": "Right_Left",
      "time": 93002
    },
    {
      "button": "Right_Left",
      "time": 96132
    },
    {
      "button": "Right_Left",
      "time": 96524
    },
    {
      "button": "Right_Left",
      "time": 101611
    },
    {
      "button": "Right_Left",
      "time": 101785
    },
    {
      "button": "Right_Left",
      "time": 102654
    },
    {
      "button": "Right_Left",
      "time": 103176
    },
    {
      "button": "Right_Left",
      "time": 103350
    },
    {
      "button": "Right_Down",
      "time": 9000
    },
    {
      "button": "Right_Down",
      "time": 13698,
      "isLongPress": true,
      "longPressTime": 521
    },
    {
      "button": "Right_Down",
      "time": 16828
    },
    {
      "button": "Right_Down",
      "time": 17219
    },
    {
      "button": "Right_Down",
      "time": 22044,
      "isLongPress": true,
      "longPressTime": 522
    },
    {
      "button": "Right_Down",
      "time": 25959,
      "isLongPress": true,
      "longPressTime": 521
    },
    {
      "button": "Right_Down",
      "time": 29219,
      "isLongPress": true,
      "longPressTime": 1435
    },
    {
      "button": "Right_Down",
      "time": 30915
    },
    {
      "button": "Right_Down",
      "time": 31089
    },
    {
      "button": "Right_Down",
      "time": 31263
    },
    {
      "button": "Right_Down",
      "time": 32480
    },
    {
      "button": "Right_Down",
      "time": 32741
    },
    {
      "button": "Right_Down",
      "time": 35089
    },
    {
      "button": "Right_Down",
      "time": 36652
    },
    {
      "button": "Right_Down",
      "time": 36913
    },
    {
      "button": "Right_Down",
      "time": 41219
    },
    {
      "button": "Right_Down",
      "time": 42522
    },
    {
      "button": "Right_Down",
      "time": 43959,
      "isLongPress": true,
      "longPressTime": 521
    },
    {
      "button": "Right_Down",
      "time": 47348
    },
    {
      "button": "Right_Down",
      "time": 50611
    },
    {
      "button": "Right_Down",
      "time": 51785
    },
    {
      "button": "Right_Down",
      "time": 54391,
      "isLongPress": true,
      "longPressTime": 1567
    },
    {
      "button": "Right_Down",
      "time": 57132
    },
    {
      "button": "Right_Down",
      "time": 58306
    },
    {
      "button": "Right_Down",
      "time": 59022
    },
    {
      "button": "Right_Down",
      "time": 59935
    },
    {
      "button": "Right_Down",
      "time": 61176
    },
    {
      "button": "Right_Down",
      "time": 63524,
      "isLongPress": true,
      "longPressTime": 522
    },
    {
      "button": "Right_Down",
      "time": 66785,
      "isLongPress": true,
      "longPressTime": 1867
    },
    {
      "button": "Right_Down",
      "time": 70306
    },
    {
      "button": "Right_Down",
      "time": 72391
    },
    {
      "button": "Right_Down",
      "time": 72915
    },
    {
      "button": "Right_Down",
      "time": 76567
    },
    {
      "button": "Right_Down",
      "time": 78131,
      "isLongPress": true,
      "longPressTime": 784
    },
    {
      "button": "Right_Down",
      "time": 82567,
      "isLongPress": true,
      "longPressTime": 522
    },
    {
      "button": "Right_Down",
      "time": 83872
    },
    {
      "button": "Right_Down",
      "time": 85350
    },
    {
      "button": "Right_Down",
      "time": 86350
    },
    {
      "button": "Right_Down",
      "time": 94828
    },
    {
      "button": "Right_Down",
      "time": 95089,
      "isLongPress": true,
      "longPressTime": 522
    },
    {
      "button": "Right_Down",
      "time": 95785
    },
    {
      "button": "Right_Down",
      "time": 98219
    },
    {
      "button": "Right_Down",
      "time": 98611
    },
    {
      "button": "Right_Down",
      "time": 102132
    },
    {
      "button": "Right_Down",
      "time": 102306
    },
    {
      "button": "Right_Down",
      "time": 103698
    },
    {
      "button": "Right_Down",
      "time": 103872
    },
    {
      "button": "Right_Right",
      "time": 23087
    },
    {
      "button": "Right_Right",
      "time": 31437
    },
    {
      "button": "Right_Right",
      "time": 31959
    },
    {
      "button": "Right_Right",
      "time": 32219
    },
    {
      "button": "Right_Right",
      "time": 35350
    },
    {
      "button": "Right_Right",
      "time": 40437
    },
    {
      "button": "Right_Right",
      "time": 42915,
      "isLongPress": true,
      "longPressTime": 522
    },
    {
      "button": "Right_Right",
      "time": 57652
    },
    {
      "button": "Right_Right",
      "time": 58826
    },
    {
      "button": "Right_Right",
      "time": 60132
    },
    {
      "button": "Right_Right",
      "time": 70567
    },
    {
      "button": "Right_Right",
      "time": 73696
    },
    {
      "button": "Right_Right",
      "time": 74219
    },
    {
      "button": "Right_Right",
      "time": 84654
    },
    {
      "button": "Right_Right",
      "time": 86741,
      "isLongPress": true,
      "longPressTime": 522
    },
    {
      "button": "Right_Right",
      "time": 100306
    },
    {
      "button": "Right_Right",
      "time": 100698
    },
    {
      "button": "Right_Right",
      "time": 104219
    }
  ],
  "playMusicEvent": {
    "text": "Play_ui_feedback_musicgame_char01_LinNi"
  },
  "stopMusicEvent": {
    "text": "Stop_ui_feedback_musicgame_char01_LinNi"
  },
  "pauseMusicEvent": {
    "text": "Pause_ui_feedback_musicgame_char01_LinNi"
  },
  "resumeMusicEvent": {
    "text": "Resume_ui_feedback_musicgame_char01_LinNi"
  },
  "playPreviewMusicEvent": {
    "text": "Play_ui_feedback_musicgame_char01_LinNi_show"
  },
  "stopPreviewMusicEvent": {
    "text": "Stop_ui_feedback_musicgame_char01_LinNi_show"
  }
}