{
  "buttonSequence": [
    {
      "button": "Left_Down",
      "time": 4406,
      "isLongPress": true,
      "longPressTime": 714
    },
    {
      "button": "Left_Down",
      "time": 10119,
      "isLongPress": true,
      "longPressTime": 714
    },
    {
      "button": "Left_Down",
      "time": 15833,
      "isLongPress": true,
      "longPressTime": 715
    },
    {
      "button": "Left_Down",
      "time": 17976
    },
    {
      "button": "Left_Down",
      "time": 20833
    },
    {
      "button": "Left_Down",
      "time": 21547,
      "isLongPress": true,
      "longPressTime": 715
    },
    {
      "button": "Left_Down",
      "time": 26190
    },
    {
      "button": "Left_Down",
      "time": 32976
    },
    {
      "button": "Left_Down",
      "time": 41547,
      "isLongPress": true,
      "longPressTime": 715
    },
    {
      "button": "Left_Down",
      "time": 47976
    },
    {
      "button": "Left_Down",
      "time": 55833,
      "isLongPress": true,
      "longPressTime": 715
    },
    {
      "button": "Left_Down",
      "time": 60119,
      "isLongPress": true,
      "longPressTime": 714
    },
    {
      "button": "Left_Down",
      "time": 62976,
      "isLongPress": true,
      "longPressTime": 714
    },
    {
      "button": "Left_Down",
      "time": 76190
    },
    {
      "button": "Left_Down",
      "time": 78690
    },
    {
      "button": "Left_Down",
      "time": 90834
    },
    {
      "button": "Left_Right",
      "time": 6549
    },
    {
      "button": "Left_Right",
      "time": 9049
    },
    {
      "button": "Left_Right",
      "time": 12263
    },
    {
      "button": "Left_Right",
      "time": 14763
    },
    {
      "button": "Left_Right",
      "time": 19406
    },
    {
      "button": "Left_Right",
      "time": 20120
    },
    {
      "button": "Left_Right",
      "time": 23691
    },
    {
      "button": "Left_Right",
      "time": 27263,
      "isLongPress": true,
      "longPressTime": 714
    },
    {
      "button": "Left_Right",
      "time": 29406
    },
    {
      "button": "Left_Right",
      "time": 31549
    },
    {
      "button": "Left_Right",
      "time": 33691
    },
    {
      "button": "Left_Right",
      "time": 35834,
      "isLongPress": true,
      "longPressTime": 2143
    },
    {
      "button": "Left_Right",
      "time": 40120
    },
    {
      "button": "Left_Right",
      "time": 43691
    },
    {
      "button": "Left_Right",
      "time": 49049
    },
    {
      "button": "Left_Right",
      "time": 49763
    },
    {
      "button": "Left_Right",
      "time": 51549,
      "isLongPress": true,
      "longPressTime": 714
    },
    {
      "button": "Left_Right",
      "time": 53334
    },
    {
      "button": "Left_Right",
      "time": 58691
    },
    {
      "button": "Left_Right",
      "time": 59406
    },
    {
      "button": "Left_Right",
      "time": 65120
    },
    {
      "button": "Left_Right",
      "time": 67263,
      "isLongPress": true,
      "longPressTime": 714
    },
    {
      "button": "Left_Right",
      "time": 70120
    },
    {
      "button": "Left_Right",
      "time": 70477
    },
    {
      "button": "Left_Right",
      "time": 71549,
      "isLongPress": true,
      "longPressTime": 714
    },
    {
      "button": "Left_Right",
      "time": 74406,
      "isLongPress": true,
      "longPressTime": 714
    },
    {
      "button": "Left_Right",
      "time": 77261,
      "isLongPress": true,
      "longPressTime": 715
    },
    {
      "button": "Left_Right",
      "time": 79406,
      "isLongPress": true,
      "longPressTime": 2143
    },
    {
      "button": "Left_Right",
      "time": 86549,
      "isLongPress": true,
      "longPressTime": 2142
    },
    {
      "button": "Right_Left",
      "time": 19047
    },
    {
      "button": "Right_Left",
      "time": 19761
    },
    {
      "button": "Right_Left",
      "time": 79047
    },
    {
      "button": "Right_Down",
      "time": 6191
    },
    {
      "button": "Right_Down",
      "time": 7263,
      "isLongPress": true,
      "longPressTime": 714
    },
    {
      "button": "Right_Down",
      "time": 9406
    },
    {
      "button": "Right_Down",
      "time": 11906
    },
    {
      "button": "Right_Down",
      "time": 12976,
      "isLongPress": true,
      "longPressTime": 714
    },
    {
      "button": "Right_Down",
      "time": 15120
    },
    {
      "button": "Right_Down",
      "time": 17620
    },
    {
      "button": "Right_Down",
      "time": 20477
    },
    {
      "button": "Right_Down",
      "time": 23333
    },
    {
      "button": "Right_Down",
      "time": 24404,
      "isLongPress": true,
      "longPressTime": 715
    },
    {
      "button": "Right_Down",
      "time": 26549
    },
    {
      "button": "Right_Down",
      "time": 28691
    },
    {
      "button": "Right_Down",
      "time": 30120,
      "isLongPress": true,
      "longPressTime": 714
    },
    {
      "button": "Right_Down",
      "time": 32263
    },
    {
      "button": "Right_Down",
      "time": 34406
    },
    {
      "button": "Right_Down",
      "time": 35119
    },
    {
      "button": "Right_Down",
      "time": 38690,
      "isLongPress": true,
      "longPressTime": 715
    },
    {
      "button": "Right_Down",
      "time": 40834
    },
    {
      "button": "Right_Down",
      "time": 42977
    },
    {
      "button": "Right_Down",
      "time": 44404,
      "isLongPress": true,
      "longPressTime": 2144
    },
    {
      "button": "Right_Down",
      "time": 47261
    },
    {
      "button": "Right_Down",
      "time": 48691
    },
    {
      "button": "Right_Down",
      "time": 49406
    },
    {
      "button": "Right_Down",
      "time": 50119,
      "isLongPress": true,
      "longPressTime": 714
    },
    {
      "button": "Right_Down",
      "time": 52977
    },
    {
      "button": "Right_Down",
      "time": 53691
    },
    {
      "button": "Right_Down",
      "time": 54404,
      "isLongPress": true,
      "longPressTime": 715
    },
    {
      "button": "Right_Down",
      "time": 57263,
      "isLongPress": true,
      "longPressTime": 714
    },
    {
      "button": "Right_Down",
      "time": 59049
    },
    {
      "button": "Right_Down",
      "time": 61547,
      "isLongPress": true,
      "longPressTime": 715
    },
    {
      "button": "Right_Down",
      "time": 64406
    },
    {
      "button": "Right_Down",
      "time": 64763
    },
    {
      "button": "Right_Down",
      "time": 65834,
      "isLongPress": true,
      "longPressTime": 715
    },
    {
      "button": "Right_Down",
      "time": 68690,
      "isLongPress": true,
      "longPressTime": 715
    },
    {
      "button": "Right_Down",
      "time": 70834
    },
    {
      "button": "Right_Down",
      "time": 72977,
      "isLongPress": true,
      "longPressTime": 714
    },
    {
      "button": "Right_Down",
      "time": 75833
    },
    {
      "button": "Right_Down",
      "time": 76549
    },
    {
      "button": "Right_Down",
      "time": 85120
    },
    {
      "button": "Right_Down",
      "time": 89405
    },
    {
      "button": "Right_Down",
      "time": 92263
    },
    {
      "button": "Right_Right",
      "time": 83691
    }
  ],
  "playMusicEvent": {
    "text": "Play_ui_feedback_musicgame_char02_NaXiDa"
  },
  "stopMusicEvent": {
    "text": "Stop_ui_feedback_musicgame_char02_NaXiDa"
  },
  "pauseMusicEvent": {
    "text": "Pause_ui_feedback_musicgame_char02_NaXiDa"
  },
  "resumeMusicEvent": {
    "text": "Resume_ui_feedback_musicgame_char02_NaXiDa"
  },
  "playPreviewMusicEvent": {
    "text": "Play_ui_feedback_musicgame_char02_NaXiDa_show"
  },
  "stopPreviewMusicEvent": {
    "text": "Stop_ui_feedback_musicgame_char02_NaXiDa_show"
  }
}