{
  "buttonSequence": [
    {
      "button": "Left_Down",
      "time": 33970
    },
    {
      "button": "Left_Down",
      "time": 49411
    },
    {
      "button": "Left_Right",
      "time": 6176
    },
    {
      "button": "Left_Right",
      "time": 7941
    },
    {
      "button": "Left_Right",
      "time": 9705
    },
    {
      "button": "Left_Right",
      "time": 13235
    },
    {
      "button": "Left_Right",
      "time": 13823
    },
    {
      "button": "Left_Right",
      "time": 14999
    },
    {
      "button": "Left_Right",
      "time": 16764
    },
    {
      "button": "Left_Right",
      "time": 17058
    },
    {
      "button": "Left_Right",
      "time": 18529
    },
    {
      "button": "Left_Right",
      "time": 20294
    },
    {
      "button": "Left_Right",
      "time": 20588
    },
    {
      "button": "Left_Right",
      "time": 22941
    },
    {
      "button": "Left_Right",
      "time": 24705
    },
    {
      "button": "Left_Right",
      "time": 25588
    },
    {
      "button": "Left_Right",
      "time": 27647
    },
    {
      "button": "Left_Right",
      "time": 27941
    },
    {
      "button": "Left_Right",
      "time": 30882
    },
    {
      "button": "Left_Right",
      "time": 31470
    },
    {
      "button": "Left_Right",
      "time": 34411
    },
    {
      "button": "Left_Right",
      "time": 37058
    },
    {
      "button": "Left_Right",
      "time": 41470,
      "isLongPress": true,
      "longPressTime": 882
    },
    {
      "button": "Left_Right",
      "time": 44117
    },
    {
      "button": "Left_Right",
      "time": 45882
    },
    {
      "button": "Left_Right",
      "time": 46764,
      "isLongPress": true,
      "longPressTime": 882
    },
    {
      "button": "Left_Right",
      "time": 48970
    },
    {
      "button": "Left_Right",
      "time": 51176
    },
    {
      "button": "Left_Right",
      "time": 55588,
      "isLongPress": true,
      "longPressTime": 882
    },
    {
      "button": "Left_Right",
      "time": 58235
    },
    {
      "button": "Left_Right",
      "time": 60882,
      "isLongPress": true,
      "longPressTime": 882
    },
    {
      "button": "Left_Right",
      "time": 64411,
      "isLongPress": true,
      "longPressTime": 882
    },
    {
      "button": "Left_Right",
      "time": 67058
    },
    {
      "button": "Left_Right",
      "time": 68823
    },
    {
      "button": "Left_Right",
      "time": 70588
    },
    {
      "button": "Left_Right",
      "time": 70882
    },
    {
      "button": "Left_Right",
      "time": 73235
    },
    {
      "button": "Left_Right",
      "time": 74117
    },
    {
      "button": "Left_Right",
      "time": 74558
    },
    {
      "button": "Left_Right",
      "time": 74999
    },
    {
      "button": "Left_Right",
      "time": 77647
    },
    {
      "button": "Left_Right",
      "time": 78088
    },
    {
      "button": "Left_Right",
      "time": 78529
    },
    {
      "button": "Left_Right",
      "time": 80294
    },
    {
      "button": "Left_Right",
      "time": 80588
    },
    {
      "button": "Left_Right",
      "time": 80882
    },
    {
      "button": "Left_Right",
      "time": 83823
    },
    {
      "button": "Right_Left",
      "time": 3529
    },
    {
      "button": "Right_Left",
      "time": 4411
    },
    {
      "button": "Right_Left",
      "time": 5294
    },
    {
      "button": "Right_Left",
      "time": 7058
    },
    {
      "button": "Right_Left",
      "time": 8823
    },
    {
      "button": "Right_Left",
      "time": 10588
    },
    {
      "button": "Right_Left",
      "time": 11470
    },
    {
      "button": "Right_Left",
      "time": 12794
    },
    {
      "button": "Right_Left",
      "time": 13529
    },
    {
      "button": "Right_Left",
      "time": 14117
    },
    {
      "button": "Right_Left",
      "time": 17352
    },
    {
      "button": "Right_Left",
      "time": 17647
    },
    {
      "button": "Right_Left",
      "time": 20882
    },
    {
      "button": "Right_Left",
      "time": 21176
    },
    {
      "button": "Right_Left",
      "time": 23824
    },
    {
      "button": "Right_Left",
      "time": 24264
    },
    {
      "button": "Right_Left",
      "time": 26911
    },
    {
      "button": "Right_Left",
      "time": 27352
    },
    {
      "button": "Right_Left",
      "time": 28235
    },
    {
      "button": "Right_Left",
      "time": 29117
    },
    {
      "button": "Right_Left",
      "time": 31176
    },
    {
      "button": "Right_Left",
      "time": 31764
    },
    {
      "button": "Right_Left",
      "time": 34852
    },
    {
      "button": "Right_Left",
      "time": 37941
    },
    {
      "button": "Right_Left",
      "time": 43235
    },
    {
      "button": "Right_Left",
      "time": 45000
    },
    {
      "button": "Right_Left",
      "time": 48529
    },
    {
      "button": "Right_Left",
      "time": 50294
    },
    {
      "button": "Right_Left",
      "time": 52058,
      "isLongPress": true,
      "longPressTime": 882
    },
    {
      "button": "Right_Left",
      "time": 57352
    },
    {
      "button": "Right_Left",
      "time": 60000
    },
    {
      "button": "Right_Left",
      "time": 62647,
      "isLongPress": true,
      "longPressTime": 882
    },
    {
      "button": "Right_Left",
      "time": 66176
    },
    {
      "button": "Right_Left",
      "time": 67941
    },
    {
      "button": "Right_Left",
      "time": 69705
    },
    {
      "button": "Right_Left",
      "time": 71176
    },
    {
      "button": "Right_Left",
      "time": 71470
    },
    {
      "button": "Right_Left",
      "time": 72352
    },
    {
      "button": "Right_Left",
      "time": 75882
    },
    {
      "button": "Right_Left",
      "time": 76176
    },
    {
      "button": "Right_Left",
      "time": 76470
    },
    {
      "button": "Right_Left",
      "time": 76764
    },
    {
      "button": "Right_Left",
      "time": 79411
    },
    {
      "button": "Right_Left",
      "time": 79705
    },
    {
      "button": "Right_Left",
      "time": 80000
    },
    {
      "button": "Right_Left",
      "time": 81176
    },
    {
      "button": "Right_Left",
      "time": 81470
    },
    {
      "button": "Right_Left",
      "time": 81764
    },
    {
      "button": "Right_Left",
      "time": 83823
    },
    {
      "button": "Right_Down",
      "time": 35294
    },
    {
      "button": "Right_Down",
      "time": 48088
    },
    {
      "button": "Right_Down",
      "time": 53823
    }
  ],
  "instrument": 762885265,
  "playMusicEvent": {
    "text": "Play_ui_feedback_musicgame_char_longwang2"
  },
  "stopMusicEvent": {
    "text": "Stop_ui_feedback_musicgame_char_longwang2"
  },
  "pauseMusicEvent": {
    "text": "Pause_ui_feedback_musicgame_char_longwang2"
  },
  "resumeMusicEvent": {
    "text": "Resume_ui_feedback_musicgame_char_longwang2"
  },
  "playPreviewMusicEvent": {
    "text": "Play_ui_feedback_musicgame_char_longwang2_show"
  },
  "stopPreviewMusicEvent": {
    "text": "Stop_ui_feedback_musicgame_char_longwang2_show"
  }
}