{
  "buttonSequence": [
    {
      "button": "Left_Left",
      "time": 69705
    },
    {
      "button": "Left_Left",
      "time": 73235
    },
    {
      "button": "Left_Down",
      "time": 3529
    },
    {
      "button": "Left_Down",
      "time": 4411
    },
    {
      "button": "Left_Down",
      "time": 5294
    },
    {
      "button": "Left_Down",
      "time": 14117
    },
    {
      "button": "Left_Down",
      "time": 14558
    },
    {
      "button": "Left_Down",
      "time": 15000
    },
    {
      "button": "Left_Down",
      "time": 15441
    },
    {
      "button": "Left_Down",
      "time": 16323
    },
    {
      "button": "Left_Down",
      "time": 18529
    },
    {
      "button": "Left_Down",
      "time": 28235
    },
    {
      "button": "Left_Down",
      "time": 34411
    },
    {
      "button": "Left_Down",
      "time": 34852
    },
    {
      "button": "Left_Down",
      "time": 42352
    },
    {
      "button": "Left_Down",
      "time": 44117
    },
    {
      "button": "Left_Down",
      "time": 47647
    },
    {
      "button": "Left_Down",
      "time": 52941
    },
    {
      "button": "Left_Down",
      "time": 56470
    },
    {
      "button": "Left_Down",
      "time": 58235
    },
    {
      "button": "Left_Down",
      "time": 61764
    },
    {
      "button": "Left_Down",
      "time": 62647
    },
    {
      "button": "Left_Down",
      "time": 65294
    },
    {
      "button": "Left_Down",
      "time": 68823
    },
    {
      "button": "Left_Down",
      "time": 70882
    },
    {
      "button": "Left_Down",
      "time": 71176
    },
    {
      "button": "Left_Down",
      "time": 75000
    },
    {
      "button": "Left_Down",
      "time": 76470
    },
    {
      "button": "Left_Down",
      "time": 76764
    },
    {
      "button": "Left_Down",
      "time": 77647
    },
    {
      "button": "Left_Down",
      "time": 78088
    },
    {
      "button": "Left_Down",
      "time": 80000
    },
    {
      "button": "Left_Down",
      "time": 80882
    },
    {
      "button": "Left_Down",
      "time": 81176
    },
    {
      "button": "Left_Down",
      "time": 83823
    },
    {
      "button": "Left_Right",
      "time": 6176
    },
    {
      "button": "Left_Right",
      "time": 6470
    },
    {
      "button": "Left_Right",
      "time": 6764
    },
    {
      "button": "Left_Right",
      "time": 10147
    },
    {
      "button": "Left_Right",
      "time": 10441
    },
    {
      "button": "Left_Right",
      "time": 11470
    },
    {
      "button": "Left_Right",
      "time": 12794
    },
    {
      "button": "Left_Right",
      "time": 13235
    },
    {
      "button": "Left_Right",
      "time": 13529
    },
    {
      "button": "Left_Right",
      "time": 13823
    },
    {
      "button": "Left_Right",
      "time": 19852
    },
    {
      "button": "Left_Right",
      "time": 21176
    },
    {
      "button": "Left_Right",
      "time": 22500
    },
    {
      "button": "Left_Right",
      "time": 22867
    },
    {
      "button": "Left_Right",
      "time": 23382
    },
    {
      "button": "Left_Right",
      "time": 24264
    },
    {
      "button": "Left_Right",
      "time": 25147
    },
    {
      "button": "Left_Right",
      "time": 26029
    },
    {
      "button": "Left_Right",
      "time": 27352
    },
    {
      "button": "Left_Right",
      "time": 27647
    },
    {
      "button": "Left_Right",
      "time": 28970
    },
    {
      "button": "Left_Right",
      "time": 29117
    },
    {
      "button": "Left_Right",
      "time": 29558
    },
    {
      "button": "Left_Right",
      "time": 30441
    },
    {
      "button": "Left_Right",
      "time": 30735
    },
    {
      "button": "Left_Right",
      "time": 31764
    },
    {
      "button": "Left_Right",
      "time": 33529
    },
    {
      "button": "Left_Right",
      "time": 33970
    },
    {
      "button": "Left_Right",
      "time": 36764
    },
    {
      "button": "Left_Right",
      "time": 37058
    },
    {
      "button": "Left_Right",
      "time": 42058
    },
    {
      "button": "Left_Right",
      "time": 47352
    },
    {
      "button": "Left_Right",
      "time": 48529
    },
    {
      "button": "Left_Right",
      "time": 49411
    },
    {
      "button": "Left_Right",
      "time": 52647
    },
    {
      "button": "Left_Right",
      "time": 56176
    },
    {
      "button": "Left_Right",
      "time": 61470
    },
    {
      "button": "Left_Right",
      "time": 62941
    },
    {
      "button": "Left_Right",
      "time": 64999
    },
    {
      "button": "Left_Right",
      "time": 67941
    },
    {
      "button": "Left_Right",
      "time": 70588
    },
    {
      "button": "Left_Right",
      "time": 71470
    },
    {
      "button": "Left_Right",
      "time": 74117
    },
    {
      "button": "Left_Right",
      "time": 74558
    },
    {
      "button": "Left_Right",
      "time": 76176
    },
    {
      "button": "Left_Right",
      "time": 78529
    },
    {
      "button": "Left_Right",
      "time": 78970
    },
    {
      "button": "Left_Right",
      "time": 79117
    },
    {
      "button": "Left_Right",
      "time": 79264
    },
    {
      "button": "Left_Right",
      "time": 79411
    },
    {
      "button": "Left_Right",
      "time": 79705
    },
    {
      "button": "Left_Right",
      "time": 80294
    },
    {
      "button": "Left_Right",
      "time": 80588
    },
    {
      "button": "Left_Right",
      "time": 81470
    },
    {
      "button": "Left_Right",
      "time": 81764
    },
    {
      "button": "Left_Right",
      "time": 87352
    },
    {
      "button": "Left_Right",
      "time": 88235
    },
    {
      "button": "Right_Left",
      "time": 9705
    },
    {
      "button": "Right_Left",
      "time": 10294
    },
    {
      "button": "Right_Left",
      "time": 10588
    },
    {
      "button": "Right_Left",
      "time": 11911
    },
    {
      "button": "Right_Left",
      "time": 22794
    },
    {
      "button": "Right_Left",
      "time": 22941
    },
    {
      "button": "Right_Left",
      "time": 23823
    },
    {
      "button": "Right_Left",
      "time": 24705
    },
    {
      "button": "Right_Left",
      "time": 25588
    },
    {
      "button": "Right_Left",
      "time": 26911
    },
    {
      "button": "Right_Left",
      "time": 30588
    },
    {
      "button": "Right_Left",
      "time": 30882
    },
    {
      "button": "Right_Left",
      "time": 31176
    },
    {
      "button": "Right_Left",
      "time": 31470
    },
    {
      "button": "Right_Left",
      "time": 32647
    },
    {
      "button": "Right_Left",
      "time": 36911
    },
    {
      "button": "Right_Left",
      "time": 37941
    },
    {
      "button": "Right_Left",
      "time": 41764
    },
    {
      "button": "Right_Left",
      "time": 47058
    },
    {
      "button": "Right_Left",
      "time": 48970
    },
    {
      "button": "Right_Left",
      "time": 52352
    },
    {
      "button": "Right_Left",
      "time": 53823
    },
    {
      "button": "Right_Left",
      "time": 55882
    },
    {
      "button": "Right_Left",
      "time": 61176
    },
    {
      "button": "Right_Left",
      "time": 63235
    },
    {
      "button": "Right_Left",
      "time": 64705
    },
    {
      "button": "Right_Left",
      "time": 75882
    },
    {
      "button": "Right_Down",
      "time": 7058
    },
    {
      "button": "Right_Down",
      "time": 7941
    },
    {
      "button": "Right_Down",
      "time": 8823
    },
    {
      "button": "Right_Down",
      "time": 16764
    },
    {
      "button": "Right_Down",
      "time": 17058
    },
    {
      "button": "Right_Down",
      "time": 17352
    },
    {
      "button": "Right_Down",
      "time": 17647
    },
    {
      "button": "Right_Down",
      "time": 20294
    },
    {
      "button": "Right_Down",
      "time": 20588
    },
    {
      "button": "Right_Down",
      "time": 20882
    },
    {
      "button": "Right_Down",
      "time": 27941
    },
    {
      "button": "Right_Down",
      "time": 35294
    },
    {
      "button": "Right_Down",
      "time": 38823
    },
    {
      "button": "Right_Down",
      "time": 41470
    },
    {
      "button": "Right_Down",
      "time": 43235
    },
    {
      "button": "Right_Down",
      "time": 44999
    },
    {
      "button": "Right_Down",
      "time": 45882
    },
    {
      "button": "Right_Down",
      "time": 46764
    },
    {
      "button": "Right_Down",
      "time": 48088
    },
    {
      "button": "Right_Down",
      "time": 50294
    },
    {
      "button": "Right_Down",
      "time": 51176
    },
    {
      "button": "Right_Down",
      "time": 52058
    },
    {
      "button": "Right_Down",
      "time": 55588
    },
    {
      "button": "Right_Down",
      "time": 57352
    },
    {
      "button": "Right_Down",
      "time": 59117
    },
    {
      "button": "Right_Down",
      "time": 59999
    },
    {
      "button": "Right_Down",
      "time": 60882
    },
    {
      "button": "Right_Down",
      "time": 63529
    },
    {
      "button": "Right_Down",
      "time": 64411
    },
    {
      "button": "Right_Down",
      "time": 66176
    },
    {
      "button": "Right_Down",
      "time": 67058
    },
    {
      "button": "Right_Down",
      "time": 72352
    }
  ],
  "instrument": -508589841,
  "playMusicEvent": {
    "text": "Play_ui_feedback_musicgame_char_longwang2"
  },
  "stopMusicEvent": {
    "text": "Stop_ui_feedback_musicgame_char_longwang2"
  },
  "pauseMusicEvent": {
    "text": "Pause_ui_feedback_musicgame_char_longwang2"
  },
  "resumeMusicEvent": {
    "text": "Resume_ui_feedback_musicgame_char_longwang2"
  }
}