{
  "buttonSequence": [
    {
      "button": "Left_Left",
      "time": 2697,
      "note": 79
    },
    {
      "button": "Left_Left",
      "time": 3371,
      "note": 79
    },
    {
      "button": "Left_Left",
      "time": 4045,
      "note": 79
    },
    {
      "button": "Left_Left",
      "time": 4719,
      "note": 80
    },
    {
      "button": "Left_Left",
      "time": 5393,
      "note": 79
    },
    {
      "button": "Left_Left",
      "time": 6067,
      "note": 79
    },
    {
      "button": "Left_Left",
      "time": 6742,
      "note": 79
    },
    {
      "button": "Left_Down",
      "time": 7416,
      "note": 75
    },
    {
      "button": "Left_Right",
      "time": 7753,
      "note": 77
    },
    {
      "time": 8090,
      "note": 79
    },
    {
      "button": "Right_Right",
      "time": 8764,
      "note": 79
    },
    {
      "button": "Right_Right",
      "time": 9438,
      "note": 79
    },
    {
      "button": "Right_Up",
      "time": 10112,
      "note": 80
    },
    {
      "button": "Right_Left",
      "time": 10787,
      "note": 82
    },
    {
      "button": "Right_Down",
      "time": 11461,
      "note": 80
    },
    {
      "button": "Right_Right",
      "time": 12135,
      "note": 79
    },
    {
      "button": "Right_Up",
      "time": 12809,
      "note": 77
    },
    {
      "button": "Left_Left",
      "time": 13483,
      "note": 75
    },
    {
      "button": "Left_Left",
      "time": 14157,
      "note": 75
    },
    {
      "button": "Left_Left",
      "time": 14831,
      "note": 75
    },
    {
      "button": "Left_Down",
      "time": 15506,
      "note": 77
    },
    {
      "button": "Left_Right",
      "time": 16180,
      "note": 75
    },
    {
      "button": "Left_Right",
      "time": 16854,
      "note": 75
    },
    {
      "button": "Left_Right",
      "time": 17528,
      "note": 75
    },
    {
      "time": 18202,
      "note": 82
    },
    {
      "button": "Right_Down",
      "time": 18876,
      "note": 75
    },
    {
      "button": "Right_Down",
      "time": 19551,
      "note": 75
    },
    {
      "button": "Right_Right",
      "time": 19888,
      "note": 77
    },
    {
      "button": "Right_Up",
      "time": 20225,
      "note": 79
    },
    {
      "button": "Right_Up",
      "time": 20562,
      "note": 77
    },
    {
      "button": "Right_Left",
      "time": 20899,
      "note": 75
    },
    {
      "button": "Right_Down",
      "time": 21236,
      "note": 70
    },
    {
      "button": "Right_Down",
      "time": 21573,
      "note": 75
    },
    {
      "button": "Right_Right",
      "time": 22247,
      "note": 75
    },
    {
      "button": "Right_Up",
      "time": 22584,
      "note": 77
    },
    {
      "button": "Right_Left",
      "time": 22921,
      "note": 79
    },
    {
      "button": "Right_Down",
      "time": 23258,
      "note": 77
    },
    {
      "button": "Right_Right",
      "time": 23595,
      "note": 75
    },
    {
      "button": "Left_Left",
      "time": 24270,
      "note": 79
    },
    {
      "button": "Left_Left",
      "time": 24944,
      "note": 79
    },
    {
      "button": "Left_Left",
      "time": 25618,
      "note": 79
    },
    {
      "button": "Left_Left",
      "time": 26292,
      "note": 80
    },
    {
      "button": "Left_Left",
      "time": 26966,
      "note": 79
    },
    {
      "button": "Left_Left",
      "time": 27640,
      "note": 79
    },
    {
      "button": "Left_Left",
      "time": 28315,
      "note": 79
    },
    {
      "button": "Left_Down",
      "time": 28989,
      "note": 75
    },
    {
      "button": "Left_Right",
      "time": 29326,
      "note": 77
    },
    {
      "time": 29663,
      "note": 79
    },
    {
      "time": 30337,
      "note": 79
    },
    {
      "button": "Left_Left",
      "time": 31011,
      "note": 79
    },
    {
      "button": "Left_Down",
      "time": 31685,
      "note": 80
    },
    {
      "button": "Left_Right",
      "time": 32360,
      "note": 82
    },
    {
      "button": "Right_Up",
      "time": 33034,
      "note": 87
    },
    {
      "time": 33034,
      "note": 87
    },
    {
      "button": "Right_Right",
      "time": 33708,
      "note": 82
    },
    {
      "button": "Right_Down",
      "time": 34045,
      "note": 80
    },
    {
      "button": "Right_Left",
      "time": 34382,
      "note": 79
    },
    {
      "button": "Right_Up",
      "time": 34719,
      "note": 77
    },
    {
      "button": "Right_Right",
      "time": 35056,
      "note": 75
    },
    {
      "button": "Right_Right",
      "time": 35730,
      "note": 75
    },
    {
      "button": "Right_Right",
      "time": 36404,
      "note": 75
    },
    {
      "button": "Right_Down",
      "time": 37079,
      "note": 82
    },
    {
      "button": "Right_Up",
      "time": 37753,
      "note": 87
    },
    {
      "time": 37753,
      "note": 87
    },
    {
      "button": "Left_Left",
      "time": 38427,
      "note": 82
    },
    {
      "button": "Left_Down",
      "time": 38764,
      "note": 80
    },
    {
      "button": "Left_Right",
      "time": 39101,
      "note": 79
    },
    {
      "button": "Right_Left",
      "time": 39438,
      "note": 77
    },
    {
      "button": "Right_Down",
      "time": 39775,
      "note": 75
    },
    {
      "button": "Right_Right",
      "time": 40112,
      "note": 70
    },
    {
      "button": "Left_Left",
      "time": 40449,
      "note": 75
    },
    {
      "button": "Left_Down",
      "time": 40786,
      "note": 70
    },
    {
      "button": "Left_Right",
      "time": 41124,
      "note": 75
    },
    {
      "button": "Right_Left",
      "time": 41461,
      "note": 77
    },
    {
      "button": "Right_Down",
      "time": 41798,
      "note": 79
    },
    {
      "button": "Right_Right",
      "time": 42135,
      "note": 77
    },
    {
      "button": "Left_Left",
      "time": 42472,
      "note": 75
    },
    {
      "button": "Left_Down",
      "time": 42809,
      "note": 70
    },
    {
      "button": "Left_Right",
      "time": 43146,
      "note": 75
    },
    {
      "button": "Right_Left",
      "time": 43820,
      "note": 75
    },
    {
      "button": "Right_Down",
      "time": 44157,
      "note": 82
    },
    {
      "button": "Right_Right",
      "time": 44157,
      "note": 82
    },
    {
      "button": "Right_Up",
      "time": 44494,
      "note": 80
    },
    {
      "button": "Right_Left",
      "time": 44831,
      "note": 79
    },
    {
      "button": "Right_Down",
      "time": 45169,
      "note": 77
    },
    {
      "button": "Left_Left",
      "time": 45843,
      "note": 82
    },
    {
      "button": "Left_Left",
      "time": 46517,
      "note": 82
    },
    {
      "button": "Left_Left",
      "time": 47191,
      "note": 82
    },
    {
      "button": "Left_Left",
      "time": 47865,
      "note": 83
    },
    {
      "button": "Left_Left",
      "time": 48539,
      "note": 82
    },
    {
      "button": "Left_Left",
      "time": 49213,
      "note": 82
    },
    {
      "button": "Left_Left",
      "time": 49888,
      "note": 82
    },
    {
      "button": "Right_Down",
      "time": 50562,
      "note": 78
    },
    {
      "button": "Right_Left",
      "time": 50899,
      "note": 80
    },
    {
      "button": "Right_Up",
      "time": 51236,
      "note": 82
    },
    {
      "button": "Right_Up",
      "time": 51910,
      "note": 82
    },
    {
      "button": "Right_Right",
      "time": 52584,
      "note": 82
    },
    {
      "button": "Right_Down",
      "time": 53258,
      "note": 83
    },
    {
      "button": "Right_Left",
      "time": 53933,
      "note": 85
    },
    {
      "button": "Right_Up",
      "time": 54607,
      "note": 90
    },
    {
      "time": 54607,
      "note": 90
    },
    {
      "button": "Left_Left",
      "time": 55281,
      "note": 85
    },
    {
      "button": "Left_Down",
      "time": 55618,
      "note": 83
    },
    {
      "button": "Left_Right",
      "time": 55955,
      "note": 82
    },
    {
      "button": "Right_Left",
      "time": 56292,
      "note": 80
    },
    {
      "button": "Right_Down",
      "time": 56629,
      "note": 78
    },
    {
      "button": "Right_Down",
      "time": 57303,
      "note": 78
    },
    {
      "button": "Right_Down",
      "time": 57978,
      "note": 78
    },
    {
      "button": "Right_Right",
      "time": 58652,
      "note": 85
    },
    {
      "button": "Right_Up",
      "time": 59268,
      "note": 90
    },
    {
      "time": 59268,
      "note": 90
    },
    {
      "button": "Left_Left",
      "time": 60000,
      "note": 85
    },
    {
      "button": "Left_Down",
      "time": 60337,
      "note": 83
    },
    {
      "button": "Left_Right",
      "time": 60674,
      "note": 82
    },
    {
      "time": 61011,
      "note": 80
    },
    {
      "button": "Left_Left",
      "time": 61348,
      "note": 78
    },
    {
      "button": "Left_Down",
      "time": 61685,
      "note": 73
    },
    {
      "button": "Right_Right",
      "time": 62022,
      "note": 78
    },
    {
      "button": "Right_Up",
      "time": 62697,
      "note": 78
    },
    {
      "button": "Right_Left",
      "time": 63034,
      "note": 80
    },
    {
      "button": "Right_Down",
      "time": 63371,
      "note": 82
    },
    {
      "button": "Right_Right",
      "time": 63708,
      "note": 80
    },
    {
      "button": "Right_Up",
      "time": 64045,
      "note": 78
    },
    {
      "button": "Left_Left",
      "time": 64382,
      "note": 73
    },
    {
      "time": 64719,
      "note": 78
    },
    {
      "button": "Left_Right",
      "time": 65393,
      "note": 78
    },
    {
      "button": "Left_Down",
      "time": 65730,
      "note": 85
    },
    {
      "button": "Left_Left",
      "time": 66067,
      "note": 83
    },
    {
      "time": 66404,
      "note": 82
    },
    {
      "button": "Left_Right",
      "time": 66742,
      "note": 80
    },
    {
      "button": "Right_Down",
      "time": 67633,
      "note": 78
    },
    {
      "button": "Left_Down",
      "time": 67633,
      "note": 78
    }
  ],
  "instrument": 1,
  "playMusicEvent": {
    "text": "Play_ui_musicgame_dawn_snow_mountain_hard"
  },
  "stopMusicEvent": {
    "text": "Stop_ui_musicgame_dawn_snow_mountain_hard"
  },
  "pauseMusicEvent": {
    "text": "Pause_ui_musicgame_dawn_snow_mountain_hard"
  },
  "resumeMusicEvent": {
    "text": "Resume_ui_musicgame_dawn_snow_mountain_hard"
  }
}