{
  "buttonSequence": [
    {
      "button": "Right_Left",
      "time": 3749,
      "note": 78
    },
    {
      "button": "Right_Up",
      "time": 5016,
      "note": 78
    },
    {
      "button": "Right_Right",
      "time": 5860,
      "note": 76
    },
    {
      "button": "Left_Right",
      "time": 7117,
      "note": 76
    },
    {
      "time": 8355,
      "note": 76
    },
    {
      "button": "Left_Left",
      "time": 9180,
      "note": 74
    },
    {
      "button": "Right_Left",
      "time": 10418,
      "note": 71
    },
    {
      "button": "Right_Down",
      "time": 10831,
      "note": 73
    },
    {
      "button": "Right_Right",
      "time": 11243,
      "note": 74
    },
    {
      "button": "Right_Up",
      "time": 11656,
      "note": 81
    },
    {
      "time": 12481,
      "note": 79
    },
    {
      "time": 13307,
      "note": 79
    },
    {
      "button": "Left_Left",
      "time": 14138,
      "note": 78
    },
    {
      "button": "Left_Right",
      "time": 14968,
      "note": 76
    },
    {
      "button": "Left_Down",
      "time": 15799,
      "note": 74
    },
    {
      "button": "Right_Left",
      "time": 17045,
      "note": 78
    },
    {
      "button": "Right_Down",
      "time": 18295,
      "note": 78
    },
    {
      "button": "Right_Right",
      "time": 19129,
      "note": 76
    },
    {
      "button": "Left_Right",
      "time": 20374,
      "note": 76
    },
    {
      "button": "Left_Down",
      "time": 21608,
      "note": 76
    },
    {
      "button": "Left_Left",
      "time": 22431,
      "note": 74
    },
    {
      "button": "Right_Left",
      "time": 23665,
      "note": 71
    },
    {
      "button": "Right_Down",
      "time": 24076,
      "note": 73
    },
    {
      "button": "Right_Right",
      "time": 24493,
      "note": 74
    },
    {
      "button": "Right_Up",
      "time": 24911,
      "note": 81
    },
    {
      "button": "Left_Left",
      "time": 25745,
      "note": 71
    },
    {
      "time": 26162,
      "note": 73
    },
    {
      "button": "Left_Down",
      "time": 26580,
      "note": 73
    },
    {
      "button": "Left_Right",
      "time": 28212,
      "note": 74
    },
    {
      "button": "Right_Left",
      "time": 28212,
      "note": 74
    },
    {
      "button": "Right_Up",
      "time": 30176,
      "note": 78
    },
    {
      "button": "Right_Left",
      "time": 31421,
      "note": 78
    },
    {
      "button": "Right_Down",
      "time": 32224,
      "note": 76
    },
    {
      "time": 33478,
      "note": 76
    },
    {
      "button": "Left_Right",
      "time": 34779,
      "note": 76
    },
    {
      "button": "Left_Down",
      "time": 35568,
      "note": 74
    },
    {
      "button": "Right_Down",
      "time": 36821,
      "note": 71
    },
    {
      "button": "Right_Up",
      "time": 38075,
      "note": 81
    },
    {
      "button": "Right_Left",
      "time": 38911,
      "note": 79
    },
    {
      "time": 39747,
      "note": 79
    },
    {
      "button": "Left_Right",
      "time": 40583,
      "note": 78
    },
    {
      "button": "Left_Left",
      "time": 41418,
      "note": 76
    },
    {
      "button": "Left_Down",
      "time": 42254,
      "note": 74
    },
    {
      "button": "Right_Up",
      "time": 43473,
      "note": 78
    },
    {
      "button": "Right_Right",
      "time": 44762,
      "note": 78
    },
    {
      "button": "Right_Down",
      "time": 45598,
      "note": 76
    },
    {
      "time": 46808,
      "note": 76
    },
    {
      "button": "Left_Left",
      "time": 48082,
      "note": 76
    },
    {
      "button": "Left_Down",
      "time": 48907,
      "note": 74
    },
    {
      "button": "Right_Left",
      "time": 50145,
      "note": 71
    },
    {
      "button": "Right_Down",
      "time": 50559,
      "note": 73
    },
    {
      "button": "Right_Right",
      "time": 50973,
      "note": 74
    },
    {
      "button": "Right_Up",
      "time": 51387,
      "note": 81
    },
    {
      "button": "Left_Right",
      "time": 52214,
      "note": 71
    },
    {
      "button": "Left_Down",
      "time": 52628,
      "note": 73
    },
    {
      "button": "Left_Left",
      "time": 53042,
      "note": 73
    },
    {
      "time": 54697,
      "note": 74
    },
    {
      "button": "Right_Up",
      "time": 54697,
      "note": 74
    },
    {
      "button": "Right_Up",
      "time": 56766,
      "note": 83
    },
    {
      "button": "Right_Left",
      "time": 58008,
      "note": 83
    },
    {
      "button": "Right_Down",
      "time": 58836,
      "note": 81
    },
    {
      "time": 60078,
      "note": 81
    },
    {
      "button": "Left_Right",
      "time": 61320,
      "note": 81
    },
    {
      "button": "Left_Down",
      "time": 62156,
      "note": 79
    },
    {
      "button": "Right_Down",
      "time": 63358,
      "note": 76
    },
    {
      "button": "Right_Left",
      "time": 64610,
      "note": 86
    },
    {
      "button": "Right_Up",
      "time": 65445,
      "note": 84
    },
    {
      "button": "Right_Right",
      "time": 66280,
      "note": 83
    },
    {
      "button": "Left_Left",
      "time": 67900,
      "note": 76
    },
    {
      "time": 68735,
      "note": 77
    },
    {
      "button": "Right_Up",
      "time": 70023,
      "note": 83
    },
    {
      "button": "Right_Left",
      "time": 71205,
      "note": 83
    },
    {
      "button": "Right_Down",
      "time": 72074,
      "note": 81
    },
    {
      "time": 73267,
      "note": 81
    },
    {
      "button": "Left_Right",
      "time": 74487,
      "note": 81
    },
    {
      "button": "Left_Down",
      "time": 75298,
      "note": 79
    },
    {
      "button": "Right_Down",
      "time": 76608,
      "note": 76
    },
    {
      "button": "Right_Left",
      "time": 77028,
      "note": 78
    },
    {
      "button": "Right_Right",
      "time": 77447,
      "note": 79
    },
    {
      "button": "Right_Up",
      "time": 77866,
      "note": 86
    },
    {
      "time": 78286,
      "note": 84
    },
    {
      "button": "Left_Left",
      "time": 78705,
      "note": 76
    },
    {
      "button": "Left_Right",
      "time": 79124,
      "note": 78
    },
    {
      "button": "Left_Down",
      "time": 79544,
      "note": 79
    }
  ],
  "instrument": 1,
  "playMusicEvent": {
    "text": "Play_ui_musicgame_tender_strength_hard"
  },
  "stopMusicEvent": {
    "text": "Stop_ui_musicgame_tender_strength_hard"
  },
  "pauseMusicEvent": {
    "text": "Pause_ui_musicgame_tender_strength_hard"
  },
  "resumeMusicEvent": {
    "text": "Resume_ui_musicgame_tender_strength_hard"
  }
}