{
  "buttonSequence": [
    {
      "button": "Left_Down",
      "time": 110
    },
    {
      "button": "Left_Down",
      "time": 4552
    },
    {
      "button": "Left_Down",
      "time": 5875
    },
    {
      "button": "Left_Down",
      "time": 6317
    },
    {
      "button": "Left_Down",
      "time": 8890
    },
    {
      "button": "Left_Down",
      "time": 10728
    },
    {
      "button": "Left_Down",
      "time": 14258
    },
    {
      "button": "Left_Down",
      "time": 15140
    },
    {
      "button": "Left_Down",
      "time": 19532,
      "isLongPress": true,
      "longPressTime": 1985
    },
    {
      "button": "Left_Down",
      "time": 32295
    },
    {
      "button": "Left_Down",
      "time": 34501
    },
    {
      "button": "Left_Down",
      "time": 34942,
      "isLongPress": true,
      "longPressTime": 2647
    },
    {
      "button": "Left_Down",
      "time": 38251
    },
    {
      "button": "Left_Down",
      "time": 39806
    },
    {
      "button": "Left_Down",
      "time": 41806
    },
    {
      "button": "Left_Down",
      "time": 42917
    },
    {
      "button": "Left_Down",
      "time": 52473
    },
    {
      "button": "Left_Down",
      "time": 53806
    },
    {
      "button": "Left_Down",
      "time": 56028,
      "isLongPress": true,
      "longPressTime": 889
    },
    {
      "button": "Left_Down",
      "time": 57806
    },
    {
      "button": "Left_Down",
      "time": 58139
    },
    {
      "button": "Left_Down",
      "time": 58473
    },
    {
      "button": "Left_Down",
      "time": 58695
    },
    {
      "button": "Left_Down",
      "time": 59139
    },
    {
      "button": "Left_Down",
      "time": 59584,
      "isLongPress": true,
      "longPressTime": 1333
    },
    {
      "button": "Left_Down",
      "time": 61362,
      "isLongPress": true,
      "longPressTime": 1333
    },
    {
      "button": "Left_Down",
      "time": 64917,
      "isLongPress": true,
      "longPressTime": 1777
    },
    {
      "button": "Left_Down",
      "time": 68473
    },
    {
      "button": "Left_Down",
      "time": 69362
    },
    {
      "button": "Left_Down",
      "time": 70251
    },
    {
      "button": "Left_Down",
      "time": 73806
    },
    {
      "button": "Left_Down",
      "time": 74251
    },
    {
      "button": "Left_Down",
      "time": 74695
    },
    {
      "button": "Left_Down",
      "time": 75139
    },
    {
      "button": "Left_Down",
      "time": 75584
    },
    {
      "button": "Left_Down",
      "time": 76028
    },
    {
      "button": "Left_Down",
      "time": 76473
    },
    {
      "button": "Left_Down",
      "time": 76917
    },
    {
      "button": "Left_Down",
      "time": 77362
    },
    {
      "button": "Left_Down",
      "time": 77806
    },
    {
      "button": "Left_Down",
      "time": 78251
    },
    {
      "button": "Left_Down",
      "time": 78695
    },
    {
      "button": "Left_Down",
      "time": 79139
    },
    {
      "button": "Left_Down",
      "time": 79584
    },
    {
      "button": "Left_Down",
      "time": 80028
    },
    {
      "button": "Left_Down",
      "time": 80473
    },
    {
      "button": "Left_Down",
      "time": 80917
    },
    {
      "button": "Left_Down",
      "time": 81362,
      "isLongPress": true,
      "longPressTime": 444
    },
    {
      "button": "Left_Down",
      "time": 86250
    },
    {
      "button": "Left_Down",
      "time": 86584
    },
    {
      "button": "Left_Down",
      "time": 86917
    },
    {
      "button": "Left_Down",
      "time": 89362,
      "isLongPress": true,
      "longPressTime": 1333
    },
    {
      "button": "Left_Down",
      "time": 91584,
      "isLongPress": true,
      "longPressTime": 888
    },
    {
      "button": "Left_Down",
      "time": 96917,
      "isLongPress": true,
      "longPressTime": 888
    },
    {
      "button": "Left_Down",
      "time": 100473,
      "isLongPress": true,
      "longPressTime": 1111
    },
    {
      "button": "Left_Down",
      "time": 101806
    },
    {
      "button": "Left_Down",
      "time": 102028
    },
    {
      "button": "Left_Right",
      "time": 588
    },
    {
      "button": "Left_Right",
      "time": 3670
    },
    {
      "button": "Left_Right",
      "time": 11170
    },
    {
      "button": "Left_Right",
      "time": 15581
    },
    {
      "button": "Left_Right",
      "time": 21707,
      "isLongPress": true,
      "longPressTime": 1323
    },
    {
      "button": "Left_Right",
      "time": 23471,
      "isLongPress": true,
      "longPressTime": 882
    },
    {
      "button": "Left_Right",
      "time": 25236,
      "isLongPress": true,
      "longPressTime": 661
    },
    {
      "button": "Left_Right",
      "time": 26559,
      "isLongPress": true,
      "longPressTime": 442
    },
    {
      "button": "Left_Right",
      "time": 29648
    },
    {
      "button": "Left_Right",
      "time": 30530
    },
    {
      "button": "Left_Right",
      "time": 31412
    },
    {
      "button": "Left_Right",
      "time": 33177
    },
    {
      "button": "Left_Right",
      "time": 46028
    },
    {
      "button": "Left_Right",
      "time": 47139
    },
    {
      "button": "Left_Right",
      "time": 49584
    },
    {
      "button": "Left_Right",
      "time": 50695
    },
    {
      "button": "Left_Right",
      "time": 54251
    },
    {
      "button": "Left_Right",
      "time": 72028
    },
    {
      "button": "Left_Right",
      "time": 82251,
      "isLongPress": true,
      "longPressTime": 444
    },
    {
      "button": "Right_Left",
      "time": 1023
    },
    {
      "button": "Right_Left",
      "time": 3228
    },
    {
      "button": "Right_Left",
      "time": 11611
    },
    {
      "button": "Right_Left",
      "time": 16022
    },
    {
      "button": "Right_Left",
      "time": 24354,
      "isLongPress": true,
      "longPressTime": 882
    },
    {
      "button": "Right_Left",
      "time": 27001,
      "isLongPress": true,
      "longPressTime": 1985
    },
    {
      "button": "Right_Left",
      "time": 29648
    },
    {
      "button": "Right_Left",
      "time": 30530
    },
    {
      "button": "Right_Left",
      "time": 31412
    },
    {
      "button": "Right_Left",
      "time": 33177
    },
    {
      "button": "Right_Left",
      "time": 45362
    },
    {
      "button": "Right_Left",
      "time": 47806
    },
    {
      "button": "Right_Left",
      "time": 48917
    },
    {
      "button": "Right_Left",
      "time": 51584
    },
    {
      "button": "Right_Left",
      "time": 72028
    },
    {
      "button": "Right_Left",
      "time": 83139,
      "isLongPress": true,
      "longPressTime": 444
    },
    {
      "button": "Right_Down",
      "time": 2787
    },
    {
      "button": "Right_Down",
      "time": 8890
    },
    {
      "button": "Right_Down",
      "time": 12493
    },
    {
      "button": "Right_Down",
      "time": 13375
    },
    {
      "button": "Right_Down",
      "time": 16464
    },
    {
      "button": "Right_Down",
      "time": 17015
    },
    {
      "button": "Right_Down",
      "time": 32295
    },
    {
      "button": "Right_Down",
      "time": 34501
    },
    {
      "button": "Right_Down",
      "time": 34942,
      "isLongPress": true,
      "longPressTime": 2647
    },
    {
      "button": "Right_Down",
      "time": 40251
    },
    {
      "button": "Right_Down",
      "time": 43584
    },
    {
      "button": "Right_Down",
      "time": 44028,
      "isLongPress": true,
      "longPressTime": 888
    },
    {
      "button": "Right_Down",
      "time": 52473
    },
    {
      "button": "Right_Down",
      "time": 54695
    },
    {
      "button": "Right_Down",
      "time": 55139
    },
    {
      "button": "Right_Down",
      "time": 55584
    },
    {
      "button": "Right_Down",
      "time": 56917,
      "isLongPress": true,
      "longPressTime": 445
    },
    {
      "button": "Right_Down",
      "time": 57806
    },
    {
      "button": "Right_Down",
      "time": 58139
    },
    {
      "button": "Right_Down",
      "time": 58473
    },
    {
      "button": "Right_Down",
      "time": 58695
    },
    {
      "button": "Right_Down",
      "time": 59139
    },
    {
      "button": "Right_Down",
      "time": 63139,
      "isLongPress": true,
      "longPressTime": 1777
    },
    {
      "button": "Right_Down",
      "time": 66695,
      "isLongPress": true,
      "longPressTime": 1333
    },
    {
      "button": "Right_Down",
      "time": 68917
    },
    {
      "button": "Right_Down",
      "time": 69806
    },
    {
      "button": "Right_Down",
      "time": 84362,
      "isLongPress": true,
      "longPressTime": 1443
    },
    {
      "button": "Right_Down",
      "time": 86250
    },
    {
      "button": "Right_Down",
      "time": 86584
    },
    {
      "button": "Right_Down",
      "time": 86917
    },
    {
      "button": "Right_Down",
      "time": 87584,
      "isLongPress": true,
      "longPressTime": 1555
    },
    {
      "button": "Right_Down",
      "time": 92473,
      "isLongPress": true,
      "longPressTime": 888
    },
    {
      "button": "Right_Down",
      "time": 94473,
      "isLongPress": true,
      "longPressTime": 1555
    },
    {
      "button": "Right_Down",
      "time": 100473,
      "isLongPress": true,
      "longPressTime": 1111
    },
    {
      "button": "Right_Down",
      "time": 101806
    },
    {
      "button": "Right_Down",
      "time": 102028
    }
  ],
  "playMusicEvent": {
    "text": "Play_ui_activity_FleurFairV2_musicgame_BGM_Venti"
  },
  "stopMusicEvent": {
    "text": "Stop_ui_activity_FleurFairV2_musicgame_BGM_Venti"
  },
  "pauseMusicEvent": {
    "text": "Pause_ui_activity_FleurFairV2_musicgame_BGM_Venti"
  },
  "resumeMusicEvent": {
    "text": "Resume_ui_activity_FleurFairV2_musicgame_BGM_Venti"
  },
  "playPreviewMusicEvent": {
    "text": "Play_ui_activity_FleurFairV2_musicgame_BGM_Venti_Preview"
  },
  "stopPreviewMusicEvent": {
    "text": "Stop_ui_activity_FleurFairV2_musicgame_BGM_Venti_Preview"
  }
}