{
  "buttonSequence": [
    {
      "button": "Left_Right",
      "time": 581
    },
    {
      "button": "Left_Right",
      "time": 1022
    },
    {
      "button": "Left_Right",
      "time": 2787
    },
    {
      "button": "Left_Right",
      "time": 3155
    },
    {
      "button": "Left_Right",
      "time": 3596
    },
    {
      "button": "Left_Right",
      "time": 4552
    },
    {
      "button": "Left_Right",
      "time": 5875
    },
    {
      "button": "Left_Right",
      "time": 6243
    },
    {
      "button": "Left_Right",
      "time": 8890
    },
    {
      "button": "Left_Right",
      "time": 10728
    },
    {
      "button": "Left_Right",
      "time": 11096
    },
    {
      "button": "Left_Right",
      "time": 11611
    },
    {
      "button": "Left_Right",
      "time": 12493
    },
    {
      "button": "Left_Right",
      "time": 13375
    },
    {
      "button": "Left_Right",
      "time": 14258
    },
    {
      "button": "Left_Right",
      "time": 15140
    },
    {
      "button": "Left_Right",
      "time": 15581
    },
    {
      "button": "Left_Right",
      "time": 16022
    },
    {
      "button": "Left_Right",
      "time": 16464
    },
    {
      "button": "Left_Right",
      "time": 17052
    },
    {
      "button": "Left_Right",
      "time": 19532
    },
    {
      "button": "Left_Right",
      "time": 21707
    },
    {
      "button": "Left_Right",
      "time": 23471
    },
    {
      "button": "Left_Right",
      "time": 24354
    },
    {
      "button": "Left_Right",
      "time": 25236
    },
    {
      "button": "Left_Right",
      "time": 26559
    },
    {
      "button": "Left_Right",
      "time": 27001
    },
    {
      "button": "Left_Right",
      "time": 29648
    },
    {
      "button": "Left_Right",
      "time": 30530
    },
    {
      "button": "Left_Right",
      "time": 31412
    },
    {
      "button": "Left_Right",
      "time": 32295
    },
    {
      "button": "Left_Right",
      "time": 33177
    },
    {
      "button": "Left_Right",
      "time": 34501
    },
    {
      "button": "Left_Right",
      "time": 34942
    },
    {
      "button": "Left_Right",
      "time": 38251
    },
    {
      "button": "Left_Right",
      "time": 39806
    },
    {
      "button": "Left_Right",
      "time": 40251
    },
    {
      "button": "Left_Right",
      "time": 41806
    },
    {
      "button": "Left_Right",
      "time": 43584
    },
    {
      "button": "Left_Right",
      "time": 44028
    },
    {
      "button": "Left_Right",
      "time": 45362
    },
    {
      "button": "Left_Right",
      "time": 47139
    },
    {
      "button": "Left_Right",
      "time": 48917
    },
    {
      "button": "Left_Right",
      "time": 50695
    },
    {
      "button": "Left_Right",
      "time": 51584
    },
    {
      "button": "Left_Right",
      "time": 52473
    },
    {
      "button": "Left_Right",
      "time": 53806
    },
    {
      "button": "Left_Right",
      "time": 54250
    },
    {
      "button": "Left_Right",
      "time": 54695
    },
    {
      "button": "Left_Right",
      "time": 55139
    },
    {
      "button": "Left_Right",
      "time": 55584
    },
    {
      "button": "Left_Right",
      "time": 56028
    },
    {
      "button": "Left_Right",
      "time": 56917
    },
    {
      "button": "Left_Right",
      "time": 57806
    },
    {
      "button": "Left_Right",
      "time": 58102
    },
    {
      "button": "Left_Right",
      "time": 58473
    },
    {
      "button": "Left_Right",
      "time": 58695
    },
    {
      "button": "Left_Right",
      "time": 59139
    },
    {
      "button": "Left_Right",
      "time": 59584
    },
    {
      "button": "Left_Right",
      "time": 61362
    },
    {
      "button": "Left_Right",
      "time": 63139
    },
    {
      "button": "Left_Right",
      "time": 64917
    },
    {
      "button": "Left_Right",
      "time": 66621
    },
    {
      "button": "Left_Right",
      "time": 68473
    },
    {
      "button": "Left_Right",
      "time": 68917
    },
    {
      "button": "Left_Right",
      "time": 69362
    },
    {
      "button": "Left_Right",
      "time": 69806
    },
    {
      "button": "Left_Right",
      "time": 70250
    },
    {
      "button": "Left_Right",
      "time": 72028
    },
    {
      "button": "Left_Right",
      "time": 73362
    },
    {
      "button": "Left_Right",
      "time": 73806
    },
    {
      "button": "Left_Right",
      "time": 75584
    },
    {
      "button": "Left_Right",
      "time": 77362
    },
    {
      "button": "Left_Right",
      "time": 79139
    },
    {
      "button": "Left_Right",
      "time": 80917
    },
    {
      "button": "Left_Right",
      "time": 81362
    },
    {
      "button": "Left_Right",
      "time": 81806
    },
    {
      "button": "Left_Right",
      "time": 82250
    },
    {
      "button": "Left_Right",
      "time": 82695
    },
    {
      "button": "Left_Right",
      "time": 83139
    },
    {
      "button": "Left_Right",
      "time": 83584
    },
    {
      "button": "Left_Right",
      "time": 84325
    },
    {
      "button": "Left_Right",
      "time": 86250
    },
    {
      "button": "Left_Right",
      "time": 86547
    },
    {
      "button": "Left_Right",
      "time": 86917
    },
    {
      "button": "Left_Right",
      "time": 88028
    },
    {
      "button": "Left_Right",
      "time": 89806
    },
    {
      "button": "Left_Right",
      "time": 91584
    },
    {
      "button": "Left_Right",
      "time": 92473
    },
    {
      "button": "Left_Right",
      "time": 93362
    },
    {
      "button": "Left_Right",
      "time": 95139
    },
    {
      "button": "Left_Right",
      "time": 96917
    },
    {
      "button": "Left_Right",
      "time": 98250
    },
    {
      "button": "Left_Right",
      "time": 98695
    },
    {
      "button": "Left_Right",
      "time": 100473
    },
    {
      "button": "Left_Right",
      "time": 101806
    },
    {
      "button": "Left_Right",
      "time": 102028
    }
  ],
  "instrument": -1507746808,
  "playMusicEvent": {
    "text": "Play_ui_activity_FleurFairV2_musicgame_BGM_Venti"
  },
  "stopMusicEvent": {
    "text": "Stop_ui_activity_FleurFairV2_musicgame_BGM_Venti"
  },
  "pauseMusicEvent": {
    "text": "Pause_ui_activity_FleurFairV2_musicgame_BGM_Venti"
  },
  "resumeMusicEvent": {
    "text": "Resume_ui_activity_FleurFairV2_musicgame_BGM_Venti"
  },
  "playPreviewMusicEvent": {
    "text": "Play_ui_activity_FleurFairV2_musicgame_BGM_Venti_Preview"
  },
  "stopPreviewMusicEvent": {
    "text": "Stop_ui_activity_FleurFairV2_musicgame_BGM_Venti_Preview"
  }
}