{
  "buttonSequence": [
    {
      "button": "Left_Right",
      "time": 1655
    },
    {
      "button": "Left_Right",
      "time": 3310
    },
    {
      "button": "Left_Right",
      "time": 4965
    },
    {
      "button": "Left_Right",
      "time": 5793
    },
    {
      "button": "Left_Right",
      "time": 6620
    },
    {
      "button": "Right_Left",
      "time": 4137
    },
    {
      "button": "Right_Left",
      "time": 7448
    },
    {
      "button": "Right_Left",
      "time": 8276
    },
    {
      "button": "Right_Left",
      "time": 9103
    },
    {
      "button": "Right_Left",
      "time": 9931
    },
    {
      "button": "Right_Left",
      "time": 10759
    },
    {
      "button": "Right_Left",
      "time": 11586
    },
    {
      "button": "Right_Left",
      "time": 12414
    },
    {
      "button": "Right_Left",
      "time": 13241
    },
    {
      "button": "Right_Left",
      "time": 14069
    },
    {
      "button": "Right_Left",
      "time": 14483
    },
    {
      "button": "Right_Left",
      "time": 15724
    },
    {
      "button": "Right_Left",
      "time": 16759
    },
    {
      "button": "Right_Left",
      "time": 17793
    },
    {
      "button": "Right_Left",
      "time": 18207
    },
    {
      "button": "Right_Left",
      "time": 19034
    },
    {
      "button": "Right_Left",
      "time": 19862
    },
    {
      "button": "Right_Left",
      "time": 21517
    },
    {
      "button": "Right_Left",
      "time": 22345
    },
    {
      "button": "Right_Left",
      "time": 23172
    },
    {
      "button": "Right_Left",
      "time": 24828
    },
    {
      "button": "Right_Left",
      "time": 25652
    },
    {
      "button": "Right_Left",
      "time": 25655
    },
    {
      "button": "Right_Left",
      "time": 26483
    },
    {
      "button": "Right_Left",
      "time": 27310
    },
    {
      "button": "Right_Left",
      "time": 28138
    },
    {
      "button": "Right_Left",
      "time": 28966
    },
    {
      "button": "Right_Left",
      "time": 30000
    },
    {
      "button": "Right_Left",
      "time": 31034
    },
    {
      "button": "Right_Left",
      "time": 31448
    },
    {
      "button": "Right_Left",
      "time": 32276
    },
    {
      "button": "Right_Left",
      "time": 33103
    },
    {
      "button": "Right_Left",
      "time": 34759
    },
    {
      "button": "Right_Left",
      "time": 35586
    },
    {
      "button": "Right_Left",
      "time": 36413
    },
    {
      "button": "Right_Left",
      "time": 38069
    },
    {
      "button": "Right_Left",
      "time": 38897
    },
    {
      "button": "Right_Left",
      "time": 40137
    },
    {
      "button": "Right_Left",
      "time": 41379
    },
    {
      "button": "Right_Left",
      "time": 42207
    },
    {
      "button": "Right_Left",
      "time": 43034
    },
    {
      "button": "Right_Left",
      "time": 43862
    },
    {
      "button": "Right_Left",
      "time": 44897
    },
    {
      "button": "Right_Left",
      "time": 45517
    },
    {
      "button": "Right_Left",
      "time": 46345
    },
    {
      "button": "Right_Left",
      "time": 48000
    },
    {
      "button": "Right_Left",
      "time": 48828
    },
    {
      "button": "Right_Left",
      "time": 49655
    },
    {
      "button": "Right_Left",
      "time": 50275
    },
    {
      "button": "Right_Left",
      "time": 51310
    },
    {
      "button": "Right_Left",
      "time": 51724
    },
    {
      "button": "Right_Left",
      "time": 52138
    },
    {
      "button": "Right_Left",
      "time": 52552
    },
    {
      "button": "Right_Left",
      "time": 52966
    },
    {
      "button": "Right_Left",
      "time": 53793
    },
    {
      "button": "Right_Left",
      "time": 54207
    },
    {
      "button": "Right_Left",
      "time": 54621
    },
    {
      "button": "Right_Left",
      "time": 55448
    },
    {
      "button": "Right_Left",
      "time": 56276
    },
    {
      "button": "Right_Left",
      "time": 57103
    },
    {
      "button": "Right_Left",
      "time": 57517
    },
    {
      "button": "Right_Left",
      "time": 57931
    },
    {
      "button": "Right_Left",
      "time": 58345
    },
    {
      "button": "Right_Left",
      "time": 58759
    },
    {
      "button": "Right_Left",
      "time": 59172
    },
    {
      "button": "Right_Left",
      "time": 59586
    },
    {
      "button": "Right_Left",
      "time": 60414
    },
    {
      "button": "Right_Left",
      "time": 60828
    },
    {
      "button": "Right_Left",
      "time": 61241
    },
    {
      "button": "Right_Left",
      "time": 62069
    },
    {
      "button": "Right_Left",
      "time": 62897
    },
    {
      "button": "Right_Left",
      "time": 63724
    },
    {
      "button": "Right_Left",
      "time": 64138
    },
    {
      "button": "Right_Left",
      "time": 64552
    },
    {
      "button": "Right_Left",
      "time": 64966
    },
    {
      "button": "Right_Left",
      "time": 65379
    },
    {
      "button": "Right_Left",
      "time": 65793
    },
    {
      "button": "Right_Left",
      "time": 66207
    },
    {
      "button": "Right_Left",
      "time": 66621
    },
    {
      "button": "Right_Left",
      "time": 67034
    },
    {
      "button": "Right_Left",
      "time": 67448
    },
    {
      "button": "Right_Left",
      "time": 67862
    },
    {
      "button": "Right_Left",
      "time": 68690
    },
    {
      "button": "Right_Left",
      "time": 69517
    },
    {
      "button": "Right_Left",
      "time": 71172
    },
    {
      "button": "Right_Left",
      "time": 72000
    },
    {
      "button": "Right_Left",
      "time": 72828
    },
    {
      "button": "Right_Left",
      "time": 73655
    },
    {
      "button": "Right_Left",
      "time": 74172
    },
    {
      "button": "Right_Left",
      "time": 74897
    },
    {
      "button": "Right_Left",
      "time": 78620
    },
    {
      "button": "Right_Left",
      "time": 79448
    },
    {
      "button": "Right_Left",
      "time": 80276
    },
    {
      "button": "Right_Left",
      "time": 81103
    },
    {
      "button": "Right_Left",
      "time": 82759
    },
    {
      "button": "Right_Left",
      "time": 83586
    },
    {
      "button": "Right_Left",
      "time": 84414
    },
    {
      "button": "Right_Left",
      "time": 86069
    },
    {
      "button": "Right_Left",
      "time": 87724
    },
    {
      "button": "Right_Left",
      "time": 89379
    },
    {
      "button": "Right_Left",
      "time": 91034
    },
    {
      "button": "Right_Left",
      "time": 92690
    },
    {
      "button": "Right_Left",
      "time": 93517
    },
    {
      "button": "Right_Left",
      "time": 94345
    },
    {
      "button": "Right_Left",
      "time": 94655
    },
    {
      "button": "Right_Left",
      "time": 94965
    },
    {
      "button": "Right_Left",
      "time": 95172
    }
  ],
  "instrument": 1108468265,
  "playMusicEvent": {
    "text": ""
  },
  "stopMusicEvent": {
    "text": ""
  },
  "pauseMusicEvent": {
    "text": ""
  },
  "resumeMusicEvent": {
    "text": ""
  }
}