{
  "buttonSequence": [
    {
      "button": "Left_Down",
      "time": 6332
    },
    {
      "button": "Left_Down",
      "time": 20401
    },
    {
      "button": "Left_Down",
      "time": 20814
    },
    {
      "button": "Left_Down",
      "time": 26194
    },
    {
      "button": "Left_Down",
      "time": 35297
    },
    {
      "button": "Left_Down",
      "time": 37780
    },
    {
      "button": "Left_Down",
      "time": 42745
    },
    {
      "button": "Left_Down",
      "time": 45228
    },
    {
      "button": "Left_Down",
      "time": 51021
    },
    {
      "button": "Left_Down",
      "time": 60952
    },
    {
      "button": "Left_Down",
      "time": 62607,
      "isLongPress": true,
      "longPressTime": 828
    },
    {
      "button": "Left_Down",
      "time": 65090
    },
    {
      "button": "Left_Down",
      "time": 71297
    },
    {
      "button": "Left_Down",
      "time": 82056
    },
    {
      "button": "Left_Down",
      "time": 86607
    },
    {
      "button": "Left_Down",
      "time": 87021
    },
    {
      "button": "Left_Down",
      "time": 94056
    },
    {
      "button": "Left_Right",
      "time": 3022
    },
    {
      "button": "Left_Right",
      "time": 11297
    },
    {
      "button": "Left_Right",
      "time": 17090
    },
    {
      "button": "Left_Right",
      "time": 22883
    },
    {
      "button": "Left_Right",
      "time": 27849
    },
    {
      "button": "Left_Right",
      "time": 28676
    },
    {
      "button": "Left_Right",
      "time": 31987
    },
    {
      "button": "Left_Right",
      "time": 33642
    },
    {
      "button": "Left_Right",
      "time": 36125
    },
    {
      "button": "Left_Right",
      "time": 41090
    },
    {
      "button": "Left_Right",
      "time": 67159
    },
    {
      "button": "Left_Right",
      "time": 67573
    },
    {
      "button": "Left_Right",
      "time": 69228,
      "isLongPress": true,
      "longPressTime": 828
    },
    {
      "button": "Left_Right",
      "time": 73367
    },
    {
      "button": "Left_Right",
      "time": 75849
    },
    {
      "button": "Left_Right",
      "time": 77504
    },
    {
      "button": "Left_Right",
      "time": 79160
    },
    {
      "button": "Left_Right",
      "time": 80815
    },
    {
      "button": "Left_Right",
      "time": 81643
    },
    {
      "button": "Left_Right",
      "time": 83297
    },
    {
      "button": "Left_Right",
      "time": 84952
    },
    {
      "button": "Left_Right",
      "time": 97366
    },
    {
      "button": "Left_Right",
      "time": 100676,
      "isLongPress": true,
      "longPressTime": 4138
    },
    {
      "button": "Right_Left",
      "time": 9642
    },
    {
      "button": "Right_Left",
      "time": 14607
    },
    {
      "button": "Right_Left",
      "time": 16263
    },
    {
      "button": "Right_Left",
      "time": 24539
    },
    {
      "button": "Right_Left",
      "time": 25366
    },
    {
      "button": "Right_Left",
      "time": 29504
    },
    {
      "button": "Right_Left",
      "time": 31159
    },
    {
      "button": "Right_Left",
      "time": 32814
    },
    {
      "button": "Right_Left",
      "time": 39435
    },
    {
      "button": "Right_Left",
      "time": 44401
    },
    {
      "button": "Right_Left",
      "time": 46883
    },
    {
      "button": "Right_Left",
      "time": 68401
    },
    {
      "button": "Right_Left",
      "time": 70470
    },
    {
      "button": "Right_Left",
      "time": 70883
    },
    {
      "button": "Right_Left",
      "time": 71711
    },
    {
      "button": "Right_Left",
      "time": 72540
    },
    {
      "button": "Right_Left",
      "time": 74195
    },
    {
      "button": "Right_Left",
      "time": 76676
    },
    {
      "button": "Right_Left",
      "time": 78332
    },
    {
      "button": "Right_Left",
      "time": 85780
    },
    {
      "button": "Right_Left",
      "time": 85988
    },
    {
      "button": "Right_Left",
      "time": 87435
    },
    {
      "button": "Right_Down",
      "time": 1366
    },
    {
      "button": "Right_Down",
      "time": 4676
    },
    {
      "button": "Right_Down",
      "time": 17918
    },
    {
      "button": "Right_Down",
      "time": 18745
    },
    {
      "button": "Right_Down",
      "time": 19573
    },
    {
      "button": "Right_Down",
      "time": 21228
    },
    {
      "button": "Right_Down",
      "time": 22056
    },
    {
      "button": "Right_Down",
      "time": 34470
    },
    {
      "button": "Right_Down",
      "time": 38607
    },
    {
      "button": "Right_Down",
      "time": 41918
    },
    {
      "button": "Right_Down",
      "time": 46056
    },
    {
      "button": "Right_Down",
      "time": 47711,
      "isLongPress": true,
      "longPressTime": 2483
    },
    {
      "button": "Right_Down",
      "time": 60125
    },
    {
      "button": "Right_Down",
      "time": 61780
    },
    {
      "button": "Right_Down",
      "time": 63849
    },
    {
      "button": "Right_Down",
      "time": 64263
    },
    {
      "button": "Right_Down",
      "time": 65918,
      "isLongPress": true,
      "longPressTime": 827
    },
    {
      "button": "Right_Down",
      "time": 72126
    },
    {
      "button": "Right_Down",
      "time": 75435
    },
    {
      "button": "Right_Down",
      "time": 79987
    },
    {
      "button": "Right_Down",
      "time": 82470
    },
    {
      "button": "Right_Down",
      "time": 84125
    },
    {
      "button": "Right_Down",
      "time": 88263,
      "isLongPress": true,
      "longPressTime": 1655
    },
    {
      "button": "Right_Down",
      "time": 92401,
      "isLongPress": true,
      "longPressTime": 827
    },
    {
      "button": "Right_Down",
      "time": 95711,
      "isLongPress": true,
      "longPressTime": 828
    },
    {
      "button": "Right_Down",
      "time": 99021,
      "isLongPress": true,
      "longPressTime": 828
    }
  ],
  "playMusicEvent": {
    "text": "Play_ui_feedback_musicgame_char03_ZhongLi"
  },
  "stopMusicEvent": {
    "text": "Stop_ui_feedback_musicgame_char03_ZhongLi"
  },
  "pauseMusicEvent": {
    "text": "Pause_ui_feedback_musicgame_char03_ZhongLi"
  },
  "resumeMusicEvent": {
    "text": "Resume_ui_feedback_musicgame_char03_ZhongLi"
  },
  "playPreviewMusicEvent": {
    "text": "Play_ui_feedback_musicgame_char03_ZhongLi_show"
  },
  "stopPreviewMusicEvent": {
    "text": "Stop_ui_feedback_musicgame_char03_ZhongLi_show"
  }
}