{
  "buttonSequence": [
    {
      "button": "Left_Left",
      "time": 72540
    },
    {
      "button": "Left_Down",
      "time": 3022
    },
    {
      "button": "Left_Down",
      "time": 7991,
      "isLongPress": true,
      "longPressTime": 827
    },
    {
      "button": "Left_Down",
      "time": 14611
    },
    {
      "button": "Left_Down",
      "time": 15436
    },
    {
      "button": "Left_Down",
      "time": 20818
    },
    {
      "button": "Left_Down",
      "time": 22884,
      "isLongPress": true,
      "longPressTime": 827
    },
    {
      "button": "Left_Down",
      "time": 26195,
      "isLongPress": true,
      "longPressTime": 415
    },
    {
      "button": "Left_Down",
      "time": 27439
    },
    {
      "button": "Left_Down",
      "time": 28677,
      "isLongPress": true,
      "longPressTime": 416
    },
    {
      "button": "Left_Down",
      "time": 31988
    },
    {
      "button": "Left_Down",
      "time": 32818
    },
    {
      "button": "Left_Down",
      "time": 34474,
      "isLongPress": true,
      "longPressTime": 413
    },
    {
      "button": "Left_Down",
      "time": 36129,
      "isLongPress": true,
      "longPressTime": 824
    },
    {
      "button": "Left_Down",
      "time": 40264
    },
    {
      "button": "Left_Down",
      "time": 44818
    },
    {
      "button": "Left_Down",
      "time": 46060,
      "isLongPress": true,
      "longPressTime": 414
    },
    {
      "button": "Left_Down",
      "time": 46884
    },
    {
      "button": "Left_Down",
      "time": 47712,
      "isLongPress": true,
      "longPressTime": 2485
    },
    {
      "button": "Left_Down",
      "time": 58471
    },
    {
      "button": "Left_Down",
      "time": 58887
    },
    {
      "button": "Left_Down",
      "time": 60126
    },
    {
      "button": "Left_Down",
      "time": 60540
    },
    {
      "button": "Left_Down",
      "time": 62611
    },
    {
      "button": "Left_Down",
      "time": 63232
    },
    {
      "button": "Left_Down",
      "time": 63853
    },
    {
      "button": "Left_Down",
      "time": 65919
    },
    {
      "button": "Left_Down",
      "time": 66540
    },
    {
      "button": "Left_Down",
      "time": 67160
    },
    {
      "button": "Left_Down",
      "time": 69229
    },
    {
      "button": "Left_Down",
      "time": 69643
    },
    {
      "button": "Left_Down",
      "time": 70057
    },
    {
      "button": "Left_Down",
      "time": 70471
    },
    {
      "button": "Left_Down",
      "time": 70884
    },
    {
      "button": "Left_Down",
      "time": 72129
    },
    {
      "button": "Left_Down",
      "time": 75853
    },
    {
      "button": "Left_Down",
      "time": 76677
    },
    {
      "button": "Left_Down",
      "time": 76884
    },
    {
      "button": "Left_Down",
      "time": 77508
    },
    {
      "button": "Left_Down",
      "time": 79163,
      "isLongPress": true,
      "longPressTime": 414
    },
    {
      "button": "Left_Down",
      "time": 80402
    },
    {
      "button": "Left_Down",
      "time": 82474
    },
    {
      "button": "Left_Down",
      "time": 83919
    },
    {
      "button": "Left_Down",
      "time": 85577
    },
    {
      "button": "Left_Down",
      "time": 86611
    },
    {
      "button": "Left_Down",
      "time": 99025
    },
    {
      "button": "Left_Down",
      "time": 99850
    },
    {
      "button": "Left_Right",
      "time": 6333
    },
    {
      "button": "Left_Right",
      "time": 11301
    },
    {
      "button": "Left_Right",
      "time": 13781
    },
    {
      "button": "Left_Right",
      "time": 17919
    },
    {
      "button": "Left_Right",
      "time": 18333
    },
    {
      "button": "Left_Right",
      "time": 18746
    },
    {
      "button": "Left_Right",
      "time": 19160
    },
    {
      "button": "Left_Right",
      "time": 19574
    },
    {
      "button": "Left_Right",
      "time": 19988
    },
    {
      "button": "Left_Right",
      "time": 20402
    },
    {
      "button": "Left_Right",
      "time": 21232,
      "isLongPress": true,
      "longPressTime": 414
    },
    {
      "button": "Left_Right",
      "time": 24540,
      "isLongPress": true,
      "longPressTime": 413
    },
    {
      "button": "Left_Right",
      "time": 29505
    },
    {
      "button": "Left_Right",
      "time": 30746
    },
    {
      "button": "Left_Right",
      "time": 31163
    },
    {
      "button": "Left_Right",
      "time": 33646
    },
    {
      "button": "Left_Right",
      "time": 34060
    },
    {
      "button": "Left_Right",
      "time": 37781,
      "isLongPress": true,
      "longPressTime": 416
    },
    {
      "button": "Left_Right",
      "time": 39436,
      "isLongPress": true,
      "longPressTime": 416
    },
    {
      "button": "Left_Right",
      "time": 41091,
      "isLongPress": true,
      "longPressTime": 416
    },
    {
      "button": "Left_Right",
      "time": 42746,
      "isLongPress": true,
      "longPressTime": 827
    },
    {
      "button": "Left_Right",
      "time": 51022
    },
    {
      "button": "Left_Right",
      "time": 60953
    },
    {
      "button": "Left_Right",
      "time": 61577
    },
    {
      "button": "Left_Right",
      "time": 62198
    },
    {
      "button": "Left_Right",
      "time": 64264
    },
    {
      "button": "Left_Right",
      "time": 64884
    },
    {
      "button": "Left_Right",
      "time": 65505
    },
    {
      "button": "Left_Right",
      "time": 67574
    },
    {
      "button": "Left_Right",
      "time": 68195
    },
    {
      "button": "Left_Right",
      "time": 68815
    },
    {
      "button": "Left_Right",
      "time": 71301
    },
    {
      "button": "Left_Right",
      "time": 71712
    },
    {
      "button": "Left_Right",
      "time": 73367
    },
    {
      "button": "Left_Right",
      "time": 73988
    },
    {
      "button": "Left_Right",
      "time": 78336
    },
    {
      "button": "Left_Right",
      "time": 78543
    },
    {
      "button": "Left_Right",
      "time": 81643
    },
    {
      "button": "Left_Right",
      "time": 82884
    },
    {
      "button": "Left_Right",
      "time": 84543
    },
    {
      "button": "Left_Right",
      "time": 87025
    },
    {
      "button": "Left_Right",
      "time": 88267,
      "isLongPress": true,
      "longPressTime": 1655
    },
    {
      "button": "Left_Right",
      "time": 92815
    },
    {
      "button": "Left_Right",
      "time": 94060
    },
    {
      "button": "Left_Right",
      "time": 95712
    },
    {
      "button": "Right_Left",
      "time": 4680
    },
    {
      "button": "Right_Left",
      "time": 12540
    },
    {
      "button": "Right_Left",
      "time": 12953
    },
    {
      "button": "Right_Left",
      "time": 17919
    },
    {
      "button": "Right_Left",
      "time": 18540
    },
    {
      "button": "Right_Left",
      "time": 18746
    },
    {
      "button": "Right_Left",
      "time": 19367
    },
    {
      "button": "Right_Left",
      "time": 19574
    },
    {
      "button": "Right_Left",
      "time": 20195
    },
    {
      "button": "Right_Left",
      "time": 20402
    },
    {
      "button": "Right_Left",
      "time": 22057,
      "isLongPress": true,
      "longPressTime": 416
    },
    {
      "button": "Right_Left",
      "time": 29505,
      "isLongPress": true,
      "longPressTime": 827
    },
    {
      "button": "Right_Left",
      "time": 31163
    },
    {
      "button": "Right_Left",
      "time": 33646
    },
    {
      "button": "Right_Left",
      "time": 37370
    },
    {
      "button": "Right_Left",
      "time": 38608,
      "isLongPress": true,
      "longPressTime": 416
    },
    {
      "button": "Right_Left",
      "time": 39436
    },
    {
      "button": "Right_Left",
      "time": 41919,
      "isLongPress": true,
      "longPressTime": 416
    },
    {
      "button": "Right_Left",
      "time": 42746
    },
    {
      "button": "Right_Left",
      "time": 43991
    },
    {
      "button": "Right_Left",
      "time": 50608
    },
    {
      "button": "Right_Left",
      "time": 51022
    },
    {
      "button": "Right_Left",
      "time": 60953
    },
    {
      "button": "Right_Left",
      "time": 61367
    },
    {
      "button": "Right_Left",
      "time": 61781
    },
    {
      "button": "Right_Left",
      "time": 62195
    },
    {
      "button": "Right_Left",
      "time": 64267
    },
    {
      "button": "Right_Left",
      "time": 64677
    },
    {
      "button": "Right_Left",
      "time": 65091
    },
    {
      "button": "Right_Left",
      "time": 65508
    },
    {
      "button": "Right_Left",
      "time": 67574
    },
    {
      "button": "Right_Left",
      "time": 67988
    },
    {
      "button": "Right_Left",
      "time": 68402
    },
    {
      "button": "Right_Left",
      "time": 68815
    },
    {
      "button": "Right_Left",
      "time": 71298
    },
    {
      "button": "Right_Left",
      "time": 71715
    },
    {
      "button": "Right_Left",
      "time": 73574
    },
    {
      "button": "Right_Left",
      "time": 74195,
      "isLongPress": true,
      "longPressTime": 415
    },
    {
      "button": "Right_Left",
      "time": 75439
    },
    {
      "button": "Right_Left",
      "time": 77922
    },
    {
      "button": "Right_Left",
      "time": 81643
    },
    {
      "button": "Right_Left",
      "time": 83298
    },
    {
      "button": "Right_Left",
      "time": 83505
    },
    {
      "button": "Right_Left",
      "time": 84956
    },
    {
      "button": "Right_Left",
      "time": 85163
    },
    {
      "button": "Right_Left",
      "time": 87439
    },
    {
      "button": "Right_Left",
      "time": 90746
    },
    {
      "button": "Right_Left",
      "time": 91988
    },
    {
      "button": "Right_Left",
      "time": 92402
    },
    {
      "button": "Right_Left",
      "time": 93232
    },
    {
      "button": "Right_Left",
      "time": 95298
    },
    {
      "button": "Right_Left",
      "time": 96543
    },
    {
      "button": "Right_Down",
      "time": 1367,
      "isLongPress": true,
      "longPressTime": 830
    },
    {
      "button": "Right_Down",
      "time": 9646
    },
    {
      "button": "Right_Down",
      "time": 14611
    },
    {
      "button": "Right_Down",
      "time": 16267
    },
    {
      "button": "Right_Down",
      "time": 17091
    },
    {
      "button": "Right_Down",
      "time": 20818
    },
    {
      "button": "Right_Down",
      "time": 22884
    },
    {
      "button": "Right_Down",
      "time": 24129
    },
    {
      "button": "Right_Down",
      "time": 25370,
      "isLongPress": true,
      "longPressTime": 414
    },
    {
      "button": "Right_Down",
      "time": 26195
    },
    {
      "button": "Right_Down",
      "time": 27025
    },
    {
      "button": "Right_Down",
      "time": 27850,
      "isLongPress": true,
      "longPressTime": 416
    },
    {
      "button": "Right_Down",
      "time": 31577
    },
    {
      "button": "Right_Down",
      "time": 32402
    },
    {
      "button": "Right_Down",
      "time": 32818
    },
    {
      "button": "Right_Down",
      "time": 35298,
      "isLongPress": true,
      "longPressTime": 416
    },
    {
      "button": "Right_Down",
      "time": 36126
    },
    {
      "button": "Right_Down",
      "time": 40264
    },
    {
      "button": "Right_Down",
      "time": 40680
    },
    {
      "button": "Right_Down",
      "time": 44405
    },
    {
      "button": "Right_Down",
      "time": 45229,
      "isLongPress": true,
      "longPressTime": 416
    },
    {
      "button": "Right_Down",
      "time": 46057
    },
    {
      "button": "Right_Down",
      "time": 46884,
      "isLongPress": true,
      "longPressTime": 416
    },
    {
      "button": "Right_Down",
      "time": 57643
    },
    {
      "button": "Right_Down",
      "time": 58057
    },
    {
      "button": "Right_Down",
      "time": 59298
    },
    {
      "button": "Right_Down",
      "time": 59715
    },
    {
      "button": "Right_Down",
      "time": 62608
    },
    {
      "button": "Right_Down",
      "time": 63022
    },
    {
      "button": "Right_Down",
      "time": 63436
    },
    {
      "button": "Right_Down",
      "time": 63853
    },
    {
      "button": "Right_Down",
      "time": 65919
    },
    {
      "button": "Right_Down",
      "time": 66333
    },
    {
      "button": "Right_Down",
      "time": 66746
    },
    {
      "button": "Right_Down",
      "time": 67160
    },
    {
      "button": "Right_Down",
      "time": 69229
    },
    {
      "button": "Right_Down",
      "time": 69850
    },
    {
      "button": "Right_Down",
      "time": 70471
    },
    {
      "button": "Right_Down",
      "time": 70887
    },
    {
      "button": "Right_Down",
      "time": 72126
    },
    {
      "button": "Right_Down",
      "time": 75853
    },
    {
      "button": "Right_Down",
      "time": 76264
    },
    {
      "button": "Right_Down",
      "time": 77301
    },
    {
      "button": "Right_Down",
      "time": 78956
    },
    {
      "button": "Right_Down",
      "time": 79988
    },
    {
      "button": "Right_Down",
      "time": 80818,
      "isLongPress": true,
      "longPressTime": 414
    },
    {
      "button": "Right_Down",
      "time": 82060,
      "isLongPress": true,
      "longPressTime": 414
    },
    {
      "button": "Right_Down",
      "time": 84129
    },
    {
      "button": "Right_Down",
      "time": 85784,
      "isLongPress": true,
      "longPressTime": 827
    },
    {
      "button": "Right_Down",
      "time": 98608
    },
    {
      "button": "Right_Down",
      "time": 99436
    },
    {
      "button": "Right_Down",
      "time": 100680,
      "isLongPress": true,
      "longPressTime": 4138
    },
    {
      "button": "Right_Right",
      "time": 72540
    }
  ],
  "playMusicEvent": {
    "text": "Play_ui_feedback_musicgame_char03_ZhongLi"
  },
  "stopMusicEvent": {
    "text": "Stop_ui_feedback_musicgame_char03_ZhongLi"
  },
  "pauseMusicEvent": {
    "text": "Pause_ui_feedback_musicgame_char03_ZhongLi"
  },
  "resumeMusicEvent": {
    "text": "Resume_ui_feedback_musicgame_char03_ZhongLi"
  },
  "playPreviewMusicEvent": {
    "text": "Play_ui_feedback_musicgame_char03_ZhongLi_show"
  },
  "stopPreviewMusicEvent": {
    "text": "Stop_ui_feedback_musicgame_char03_ZhongLi_show"
  }
}