{
  "buttonSequence": [
    {
      "button": "Left_Down",
      "time": 3022
    },
    {
      "button": "Left_Down",
      "time": 4676
    },
    {
      "button": "Left_Down",
      "time": 15849
    },
    {
      "button": "Left_Down",
      "time": 16263
    },
    {
      "button": "Left_Down",
      "time": 17919
    },
    {
      "button": "Left_Down",
      "time": 22057
    },
    {
      "button": "Left_Down",
      "time": 22883,
      "isLongPress": true,
      "longPressTime": 828
    },
    {
      "button": "Left_Down",
      "time": 24540
    },
    {
      "button": "Left_Down",
      "time": 27021
    },
    {
      "button": "Left_Down",
      "time": 27850
    },
    {
      "button": "Left_Down",
      "time": 31160
    },
    {
      "button": "Left_Down",
      "time": 31988,
      "isLongPress": true,
      "longPressTime": 412
    },
    {
      "button": "Left_Down",
      "time": 37367
    },
    {
      "button": "Left_Down",
      "time": 38608
    },
    {
      "button": "Left_Down",
      "time": 44401
    },
    {
      "button": "Left_Down",
      "time": 46883,
      "isLongPress": true,
      "longPressTime": 414
    },
    {
      "button": "Left_Down",
      "time": 50607
    },
    {
      "button": "Left_Down",
      "time": 51021
    },
    {
      "button": "Left_Down",
      "time": 58471
    },
    {
      "button": "Left_Down",
      "time": 58883
    },
    {
      "button": "Left_Down",
      "time": 60126
    },
    {
      "button": "Left_Down",
      "time": 60540
    },
    {
      "button": "Left_Down",
      "time": 60952
    },
    {
      "button": "Left_Down",
      "time": 63849
    },
    {
      "button": "Left_Down",
      "time": 65918,
      "isLongPress": true,
      "longPressTime": 827
    },
    {
      "button": "Left_Down",
      "time": 68402
    },
    {
      "button": "Left_Down",
      "time": 70470
    },
    {
      "button": "Left_Down",
      "time": 72125
    },
    {
      "button": "Left_Down",
      "time": 73366
    },
    {
      "button": "Left_Down",
      "time": 74194,
      "isLongPress": true,
      "longPressTime": 413
    },
    {
      "button": "Left_Down",
      "time": 79988
    },
    {
      "button": "Left_Down",
      "time": 80815
    },
    {
      "button": "Left_Down",
      "time": 82470,
      "isLongPress": true,
      "longPressTime": 413
    },
    {
      "button": "Left_Down",
      "time": 84125,
      "isLongPress": true,
      "longPressTime": 414
    },
    {
      "button": "Left_Down",
      "time": 85781,
      "isLongPress": true,
      "longPressTime": 413
    },
    {
      "button": "Left_Down",
      "time": 87022
    },
    {
      "button": "Left_Down",
      "time": 94056
    },
    {
      "button": "Left_Down",
      "time": 98195
    },
    {
      "button": "Left_Right",
      "time": 7988,
      "isLongPress": true,
      "longPressTime": 825
    },
    {
      "button": "Left_Right",
      "time": 11298
    },
    {
      "button": "Left_Right",
      "time": 13781
    },
    {
      "button": "Left_Right",
      "time": 19574
    },
    {
      "button": "Left_Right",
      "time": 21229
    },
    {
      "button": "Left_Right",
      "time": 28676
    },
    {
      "button": "Left_Right",
      "time": 33642
    },
    {
      "button": "Left_Right",
      "time": 34056
    },
    {
      "button": "Left_Right",
      "time": 36125,
      "isLongPress": true,
      "longPressTime": 827
    },
    {
      "button": "Left_Right",
      "time": 40263
    },
    {
      "button": "Left_Right",
      "time": 40676
    },
    {
      "button": "Left_Right",
      "time": 42745,
      "isLongPress": true,
      "longPressTime": 828
    },
    {
      "button": "Left_Right",
      "time": 44814
    },
    {
      "button": "Left_Right",
      "time": 52264
    },
    {
      "button": "Left_Right",
      "time": 61781
    },
    {
      "button": "Left_Right",
      "time": 64263
    },
    {
      "button": "Left_Right",
      "time": 65090
    },
    {
      "button": "Left_Right",
      "time": 67574
    },
    {
      "button": "Left_Right",
      "time": 71297
    },
    {
      "button": "Left_Right",
      "time": 75436
    },
    {
      "button": "Left_Right",
      "time": 76676
    },
    {
      "button": "Left_Right",
      "time": 78333
    },
    {
      "button": "Left_Right",
      "time": 81643
    },
    {
      "button": "Left_Right",
      "time": 83297
    },
    {
      "button": "Left_Right",
      "time": 84952
    },
    {
      "button": "Left_Right",
      "time": 88264,
      "isLongPress": true,
      "longPressTime": 1653
    },
    {
      "button": "Left_Right",
      "time": 90745
    },
    {
      "button": "Left_Right",
      "time": 94883
    },
    {
      "button": "Left_Right",
      "time": 97367
    },
    {
      "button": "Left_Right",
      "time": 99022
    },
    {
      "button": "Right_Left",
      "time": 9643
    },
    {
      "button": "Right_Left",
      "time": 12540
    },
    {
      "button": "Right_Left",
      "time": 12953
    },
    {
      "button": "Right_Left",
      "time": 20402
    },
    {
      "button": "Right_Left",
      "time": 20815
    },
    {
      "button": "Right_Left",
      "time": 29505,
      "isLongPress": true,
      "longPressTime": 826
    },
    {
      "button": "Right_Left",
      "time": 35298
    },
    {
      "button": "Right_Left",
      "time": 41918
    },
    {
      "button": "Right_Left",
      "time": 45228,
      "isLongPress": true,
      "longPressTime": 414
    },
    {
      "button": "Right_Left",
      "time": 61780
    },
    {
      "button": "Right_Left",
      "time": 64263
    },
    {
      "button": "Right_Left",
      "time": 65090
    },
    {
      "button": "Right_Left",
      "time": 67573
    },
    {
      "button": "Right_Left",
      "time": 69228,
      "isLongPress": true,
      "longPressTime": 828
    },
    {
      "button": "Right_Left",
      "time": 71711
    },
    {
      "button": "Right_Left",
      "time": 75850,
      "isLongPress": true,
      "longPressTime": 412
    },
    {
      "button": "Right_Left",
      "time": 76676
    },
    {
      "button": "Right_Left",
      "time": 77505,
      "isLongPress": true,
      "longPressTime": 412
    },
    {
      "button": "Right_Left",
      "time": 78333
    },
    {
      "button": "Right_Left",
      "time": 79160,
      "isLongPress": true,
      "longPressTime": 413
    },
    {
      "button": "Right_Left",
      "time": 81643
    },
    {
      "button": "Right_Left",
      "time": 83297
    },
    {
      "button": "Right_Left",
      "time": 84952
    },
    {
      "button": "Right_Left",
      "time": 91573
    },
    {
      "button": "Right_Left",
      "time": 93228
    },
    {
      "button": "Right_Left",
      "time": 96539
    },
    {
      "button": "Right_Left",
      "time": 99850
    },
    {
      "button": "Right_Down",
      "time": 1366
    },
    {
      "button": "Right_Down",
      "time": 6333
    },
    {
      "button": "Right_Down",
      "time": 14608,
      "isLongPress": true,
      "longPressTime": 826
    },
    {
      "button": "Right_Down",
      "time": 17090
    },
    {
      "button": "Right_Down",
      "time": 18746
    },
    {
      "button": "Right_Down",
      "time": 24125
    },
    {
      "button": "Right_Down",
      "time": 25367
    },
    {
      "button": "Right_Down",
      "time": 26194,
      "isLongPress": true,
      "longPressTime": 413
    },
    {
      "button": "Right_Down",
      "time": 27436
    },
    {
      "button": "Right_Down",
      "time": 30745
    },
    {
      "button": "Right_Down",
      "time": 31573
    },
    {
      "button": "Right_Down",
      "time": 32815
    },
    {
      "button": "Right_Down",
      "time": 34470
    },
    {
      "button": "Right_Down",
      "time": 37781
    },
    {
      "button": "Right_Down",
      "time": 39436,
      "isLongPress": true,
      "longPressTime": 412
    },
    {
      "button": "Right_Down",
      "time": 41090
    },
    {
      "button": "Right_Down",
      "time": 43987
    },
    {
      "button": "Right_Down",
      "time": 46056,
      "isLongPress": true,
      "longPressTime": 414
    },
    {
      "button": "Right_Down",
      "time": 47711,
      "isLongPress": true,
      "longPressTime": 2483
    },
    {
      "button": "Right_Down",
      "time": 57643
    },
    {
      "button": "Right_Down",
      "time": 58056
    },
    {
      "button": "Right_Down",
      "time": 59298
    },
    {
      "button": "Right_Down",
      "time": 59711
    },
    {
      "button": "Right_Down",
      "time": 60953
    },
    {
      "button": "Right_Down",
      "time": 62607,
      "isLongPress": true,
      "longPressTime": 828
    },
    {
      "button": "Right_Down",
      "time": 67159
    },
    {
      "button": "Right_Down",
      "time": 68401
    },
    {
      "button": "Right_Down",
      "time": 70883
    },
    {
      "button": "Right_Down",
      "time": 72539
    },
    {
      "button": "Right_Down",
      "time": 80402
    },
    {
      "button": "Right_Down",
      "time": 82056
    },
    {
      "button": "Right_Down",
      "time": 86608
    },
    {
      "button": "Right_Down",
      "time": 87436
    },
    {
      "button": "Right_Down",
      "time": 92401
    },
    {
      "button": "Right_Down",
      "time": 95711
    },
    {
      "button": "Right_Down",
      "time": 100676,
      "isLongPress": true,
      "longPressTime": 4138
    }
  ],
  "playMusicEvent": {
    "text": "Play_ui_feedback_musicgame_char03_ZhongLi"
  },
  "stopMusicEvent": {
    "text": "Stop_ui_feedback_musicgame_char03_ZhongLi"
  },
  "pauseMusicEvent": {
    "text": "Pause_ui_feedback_musicgame_char03_ZhongLi"
  },
  "resumeMusicEvent": {
    "text": "Resume_ui_feedback_musicgame_char03_ZhongLi"
  },
  "playPreviewMusicEvent": {
    "text": "Play_ui_feedback_musicgame_char03_ZhongLi_show"
  },
  "stopPreviewMusicEvent": {
    "text": "Stop_ui_feedback_musicgame_char03_ZhongLi_show"
  }
}