{
  "luaDataPath": "",
  "startBlackKeepTime": 0.5,
  "entityBan": "",
  "disableNpcLod": true,
  "isAutoBanNpc": true,
  "isBanWidgetPet": true,
  "protectNpcMobileLod": true,
  "startFade": {
    "startFadeInDuration": 0.5,
    "startFadeOutDuration": 0.5
  },
  "endFade": {
    "startFadeOutDuration": 0.0
  },
  "actors": [
    {
      "alias": "Avatar",
      "visible": true,
      "bornPointName": "",
      "relativePosNpcAlias": "",
      "_bindMovingTargetKey": ""
    },
    {
      "configID": 20729,
      "alias": "20729",
      "visible": true,
      "bornPointName": "Q7902119_N2003051",
      "relativePosNpcAlias": "",
      "_bindMovingTargetKey": ""
    },
    {
      "configID": 1005,
      "alias": "1005",
      "visible": true,
      "bornPointName": "",
      "useRelativePos": true,
      "relativePos": {
        "x": -0.5,
        "z": 0.5
      },
      "removeActorType": "REMOVE_WITH_DISAPPEAR",
      "relativePosNpcAlias": "",
      "_bindMovingTargetKey": ""
    }
  ],
  "group": [
    [
      {
        "$type": "MoleMole.Config.ConfigLuaAction",
        "type": "LUA_ACTION",
        "duration": 0.10000000149011612,
        "invoke": true,
        "invokeAlias": "79021"
      },
      {
        "$type": "MoleMole.Config.ConfigTimeProtectAction",
        "type": "TIME_PROTECT",
        "duration": 0.10000000149011612
      },
      {
        "$type": "MoleMole.Config.ConfigBlackScreenAction",
        "type": "BLACK_SCREEN",
        "actionId": 154,
        "blackScreenType": "KEEP_BLACK",
        "durationKeepBlack": 0.5,
        "inteePos": "",
        "textMapID": "",
        "useTextFade": true
      },
      {
        "$type": "MoleMole.Config.ConfigLocalGadgetOP",
        "type": "LOCAL_GADGET_OP",
        "actionId": 184,
        "gadgetId": 70710743,
        "oprCode": 1,
        "slotName": "",
        "position": {
          "x": 375.57000732421875,
          "y": 120.0,
          "z": 131.1230010986328
        },
        "euler": {
          "y": -93.78099822998047
        },
        "gvKey": ""
      },
      {
        "$type": "MoleMole.Config.ConfigVisibleInterAction",
        "type": "VISIBLE",
        "_target": "VEHICLE_SKIFF",
        "_extraParam": ""
      },
      {
        "$type": "MoleMole.Config.ConfigTeleportToAction",
        "type": "TELEPORT_TO",
        "aliasList": [
          "Avatar"
        ],
        "actionId": 177,
        "position": {
          "x": 363.47198486328125,
          "y": 120.58899688720703,
          "z": 129.5290069580078
        },
        "forward": {
          "x": 5.234000205993652,
          "y": -0.5889999866485596,
          "z": 1.0149999856948853
        },
        "openLongDisTeleport": true,
        "_posBindMovingTargetKey": "",
        "_forwardBindMovingTargetKey": ""
      },
      {
        "$type": "LJLMDHDCAMK",
        "type": "LOOK_AT",
        "aliasList": [
          "Avatar"
        ],
        "actionId": 180,
        "enableHead": true,
        "useTargetPos": true,
        "enableAbsolute": true,
        "targetPosition": {
          "x": 375.2699890136719,
          "y": 121.697998046875,
          "z": 131.7779998779297
        },
        "headTurnTime": 0.5,
        "targetNpcAlias": "",
        "lookAtTargetType": "NONE",
        "targetNpcLookAtPoint": "",
        "OAFJBHJHLJG": ""
      },
      {
        "$type": "MoleMole.Config.ConfigTeleportToAction",
        "type": "TELEPORT_TO",
        "aliasList": [
          "1005"
        ],
        "actionId": 177,
        "position": {
          "x": 363.4580078125,
          "y": 120.4010009765625,
          "z": 130.41700744628906
        },
        "forward": {
          "x": 4.177000045776367,
          "y": -0.4009999930858612,
          "z": 0.07000000029802322
        },
        "openLongDisTeleport": true,
        "_posBindMovingTargetKey": "",
        "_forwardBindMovingTargetKey": ""
      },
      {
        "$type": "LJLMDHDCAMK",
        "type": "LOOK_AT",
        "aliasList": [
          "1005"
        ],
        "actionId": 180,
        "enableHead": true,
        "useTargetPos": true,
        "enableAbsolute": true,
        "targetPosition": {
          "x": 375.32501220703125,
          "y": 121.697998046875,
          "z": 130.62399291992188
        },
        "headTurnTime": 0.5,
        "targetNpcAlias": "",
        "lookAtTargetType": "NONE",
        "targetNpcLookAtPoint": "",
        "OAFJBHJHLJG": ""
      }
    ],
    [
      {
        "$type": "MoleMole.Config.ConfigBlackScreenAction",
        "type": "BLACK_SCREEN",
        "actionId": 154,
        "blackScreenType": "FROM_BLACK",
        "durationFromBlack": 0.5,
        "inteePos": "",
        "textMapID": "",
        "useTextFade": true
      },
      {
        "$type": "FJKIHHKJLMJ",
        "type": "CAMERA_MOVE",
        "duration": 0.10000000149011612,
        "actionId": 161,
        "camPosOffset": {
          "x": 339.0419921875,
          "y": 132.84300231933594,
          "z": 107.0999984741211
        },
        "camForwardTargetOffset": {
          "x": 339.7699890136719,
          "y": 132.48199462890625,
          "z": 107.68199920654297
        },
        "camFov": 30.0,
        "lerpPattern": 6,
        "cameraBlendType": "EaseInOutCubic",
        "NJBNNOMLKCK": {},
        "needZAxisRotate": true,
        "openCameraDither": false,
        "targetNpcAlias": "",
        "closeTreeLeafDither": true,
        "KJOEFBPOIIH": "",
        "IICFKKEBIEC": "",
        "EGEHEJEBLBJ": ""
      },
      {
        "$type": "MoleMole.Config.ConfigLocalGadgetOP",
        "type": "LOCAL_GADGET_OP",
        "actionId": 184,
        "gadgetId": 70710743,
        "oprCode": 3,
        "slotName": "",
        "position": {
          "x": 375.57000732421875,
          "y": 120.0,
          "z": 131.1230010986328
        },
        "euler": {
          "y": -93.78099822998047
        },
        "gvKey": "is_talk",
        "gvValue": 1.0
      },
      {
        "$type": "CPJKOIHIPBE",
        "type": "EMO_SYNC",
        "aliasList": [
          "Avatar"
        ],
        "actionId": 260,
        "dataPath": "",
        "phonemePath": "Cs_Emo_Avatar_Common/Cs_Emo_Avatar_N",
        "emotionPath": "Cs_Emo_Avatar_Common/Cs_Emo_Avatar_Default01_B",
        "mateDataPath": "",
        "matePhonemePath": "",
        "mateEmotionPath": "",
        "phonemePathHashList": [
          8580669323297051107,
          15023355033871486163,
          10579363106450329133,
          10340570440011467750
        ],
        "emotionPathHashList": [
          12199605016063642592,
          6659610500948409138,
          10783156204328777859,
          13383650154785247612
        ],
        "FMDPBECPELH": "",
        "ADKBLPOKGIK": ""
      },
      {
        "$type": "PKKMAMONGEO",
        "type": "DIALOG",
        "aliasList": [
          "20729"
        ],
        "dialogID": 790211928,
        "protectTime": 1.5
      },
      {
        "$type": "CPJKOIHIPBE",
        "type": "EMO_SYNC",
        "aliasList": [
          "20729"
        ],
        "dataPath": "Cs_Emo_Avatar_Simple_Common_Set/Cs_Emo_Avatar_Talk/Cs_Emo_WorldQuest/Cs_Emo_IsLand_790/Cs_Emo_790211928",
        "phonemePath": "",
        "emotionPath": "",
        "mateDataPath": "",
        "matePhonemePath": "",
        "mateEmotionPath": "",
        "dataPathHashList": [
          4335352748956027705,
          701101143166697095,
          5517293795921093771,
          3766417678996404632
        ],
        "FMDPBECPELH": "",
        "ADKBLPOKGIK": ""
      },
      {
        "$type": "FJKIHHKJLMJ",
        "type": "CAMERA_MOVE",
        "delayTime": 0.05000000074505806,
        "duration": 14.383000373840332,
        "actionId": 161,
        "camPosOffset": {
          "x": 340.9909973144531,
          "y": 134.468994140625,
          "z": 105.68399810791016
        },
        "camForwardTargetOffset": {
          "x": 341.6969909667969,
          "y": 134.0850067138672,
          "z": 106.27999877929688
        },
        "camFov": 30.0,
        "cameraBlendType": "EaseOutQuad",
        "NJBNNOMLKCK": {},
        "needZAxisRotate": true,
        "openCameraDither": false,
        "targetNpcAlias": "",
        "closeTreeLeafDither": true,
        "KJOEFBPOIIH": "",
        "IICFKKEBIEC": "",
        "EGEHEJEBLBJ": ""
      },
      {
        "$type": "HDGKHDNFMIM",
        "type": "DIALOG_SELECT",
        "delayTime": 1.5,
        "aliasList": [
          "Avatar"
        ],
        "dialogIDList": [
          790211929
        ],
        "grpIDList": [
          895614679
        ],
        "useGrpId": true
      }
    ],
    [
      {
        "$type": "FJKIHHKJLMJ",
        "type": "CAMERA_MOVE",
        "duration": 0.10000000149011612,
        "actionId": 161,
        "camPosOffset": {
          "x": 369.4119873046875,
          "y": 122.04100036621094,
          "z": 125.85600280761719
        },
        "camForwardTargetOffset": {
          "x": 370.1000061035156,
          "y": 121.83799743652344,
          "z": 126.5530014038086
        },
        "camFov": 30.0,
        "lerpPattern": 6,
        "cameraBlendType": "EaseInOutCubic",
        "NJBNNOMLKCK": {},
        "needZAxisRotate": true,
        "openCameraDither": false,
        "targetNpcAlias": "",
        "closeTreeLeafDither": true,
        "KJOEFBPOIIH": "",
        "IICFKKEBIEC": "",
        "EGEHEJEBLBJ": ""
      },
      {
        "$type": "PKKMAMONGEO",
        "type": "DIALOG",
        "aliasList": [
          "20729"
        ],
        "dialogID": 790211901,
        "protectTime": 0.5
      },
      {
        "$type": "CPJKOIHIPBE",
        "type": "EMO_SYNC",
        "aliasList": [
          "20729"
        ],
        "dataPath": "Cs_Emo_Avatar_Simple_Common_Set/Cs_Emo_Avatar_Talk/Cs_Emo_WorldQuest/Cs_Emo_IsLand_790/Cs_Emo_790211901",
        "phonemePath": "",
        "emotionPath": "",
        "mateDataPath": "",
        "matePhonemePath": "",
        "mateEmotionPath": "",
        "dataPathHashList": [
          17423081779294667382,
          16799088306437592698,
          16483502703514147411,
          8992257648983874287
        ],
        "FMDPBECPELH": "",
        "ADKBLPOKGIK": ""
      },
      {
        "$type": "FJKIHHKJLMJ",
        "type": "CAMERA_MOVE",
        "delayTime": 0.054999999701976776,
        "duration": 5.834000110626221,
        "actionId": 161,
        "camPosOffset": {
          "x": 369.760986328125,
          "y": 121.93800354003906,
          "z": 126.20999908447266
        },
        "camForwardTargetOffset": {
          "x": 370.4490051269531,
          "y": 121.73500061035156,
          "z": 126.90699768066406
        },
        "camFov": 30.0,
        "cameraBlendType": "EaseOutQuad",
        "NJBNNOMLKCK": {},
        "needZAxisRotate": true,
        "openCameraDither": false,
        "targetNpcAlias": "",
        "closeTreeLeafDither": true,
        "KJOEFBPOIIH": "",
        "IICFKKEBIEC": "",
        "EGEHEJEBLBJ": ""
      }
    ],
    [
      {
        "$type": "MoleMole.Config.ConfigLocalGadgetOP",
        "type": "LOCAL_GADGET_OP",
        "actionId": 184,
        "gadgetId": 70710743,
        "oprCode": 3,
        "slotName": "",
        "position": {
          "x": 375.57000732421875,
          "y": 120.0,
          "z": 131.1230010986328
        },
        "euler": {
          "y": -93.78099822998047
        },
        "gvKey": "is_talk"
      },
      {
        "$type": "FJKIHHKJLMJ",
        "type": "CAMERA_MOVE",
        "duration": 0.10000000149011612,
        "actionId": 161,
        "camPosOffset": {
          "x": 364.3710021972656,
          "y": 122.072998046875,
          "z": 128.4250030517578
        },
        "camForwardTargetOffset": {
          "x": 363.95001220703125,
          "y": 121.86699676513672,
          "z": 129.30799865722656
        },
        "camFov": 30.0,
        "lerpPattern": 6,
        "cameraBlendType": "EaseInOutCubic",
        "NJBNNOMLKCK": {},
        "needZAxisRotate": true,
        "openCameraDither": false,
        "targetNpcAlias": "",
        "closeTreeLeafDither": true,
        "KJOEFBPOIIH": "",
        "IICFKKEBIEC": "",
        "EGEHEJEBLBJ": ""
      },
      {
        "$type": "PKKMAMONGEO",
        "type": "DIALOG",
        "aliasList": [
          "1005"
        ],
        "dialogID": 790211902,
        "protectTime": 0.5
      },
      {
        "$type": "FABLGECDBCH",
        "type": "BODY_LANG",
        "aliasList": [
          "1005"
        ],
        "actionId": 186,
        "bodyLangParam": 1170,
        "forceDoFreeStyle": true,
        "canDoRepeatFreeStyle": false,
        "eventPatternSuiteKey": "",
        "FOHHKFAIAAJ": ""
      },
      {
        "$type": "CPJKOIHIPBE",
        "type": "EMO_SYNC",
        "aliasList": [
          "1005"
        ],
        "dataPath": "Cs_Emo_Avatar_Simple_Common_Set/Cs_Emo_Avatar_Talk/Cs_Emo_WorldQuest/Cs_Emo_IsLand_790/Cs_Emo_790211902",
        "phonemePath": "",
        "emotionPath": "",
        "mateDataPath": "",
        "matePhonemePath": "",
        "mateEmotionPath": "",
        "dataPathHashList": [
          12739924353516425660,
          16148115682178139957,
          13203666726334985744,
          9712219283398627463
        ],
        "FMDPBECPELH": "",
        "ADKBLPOKGIK": ""
      },
      {
        "$type": "FABLGECDBCH",
        "type": "BODY_LANG",
        "delayTime": 1.378999948501587,
        "aliasList": [
          "1005"
        ],
        "actionId": 186,
        "bodyLangParam": 1180,
        "forceDoFreeStyle": true,
        "canDoRepeatFreeStyle": false,
        "eventPatternSuiteKey": "",
        "FOHHKFAIAAJ": ""
      },
      {
        "$type": "FABLGECDBCH",
        "type": "BODY_LANG",
        "delayTime": 3.049999952316284,
        "aliasList": [
          "1005"
        ],
        "actionId": 187,
        "isContinue": true,
        "forceDoFreeStyle": true,
        "canDoRepeatFreeStyle": false,
        "eventPatternSuiteKey": "",
        "FOHHKFAIAAJ": ""
      },
      {
        "$type": "FABLGECDBCH",
        "type": "BODY_LANG",
        "delayTime": 3.365000009536743,
        "aliasList": [
          "1005"
        ],
        "actionId": 188,
        "bodyLangParam": 1110,
        "forceDoFreeStyle": true,
        "canDoRepeatFreeStyle": false,
        "eventPatternSuiteKey": "",
        "FOHHKFAIAAJ": ""
      },
      {
        "$type": "FABLGECDBCH",
        "type": "BODY_LANG",
        "delayTime": 5.48199987411499,
        "aliasList": [
          "1005"
        ],
        "actionId": 189,
        "isContinue": true,
        "forceDoFreeStyle": true,
        "canDoRepeatFreeStyle": false,
        "eventPatternSuiteKey": "",
        "FOHHKFAIAAJ": ""
      }
    ],
    [
      {
        "$type": "FJKIHHKJLMJ",
        "type": "CAMERA_MOVE",
        "duration": 0.10000000149011612,
        "actionId": 161,
        "camPosOffset": {
          "x": 360.3479919433594,
          "y": 121.91400146484375,
          "z": 127.5479965209961
        },
        "camForwardTargetOffset": {
          "x": 361.25299072265625,
          "y": 121.78800201416016,
          "z": 127.95500183105469
        },
        "camFov": 30.0,
        "lerpPattern": 6,
        "cameraBlendType": "EaseInOutCubic",
        "NJBNNOMLKCK": {},
        "needZAxisRotate": true,
        "openCameraDither": false,
        "targetNpcAlias": "",
        "closeTreeLeafDither": true,
        "KJOEFBPOIIH": "",
        "IICFKKEBIEC": "",
        "EGEHEJEBLBJ": ""
      },
      {
        "$type": "MoleMole.Config.ConfigLocalGadgetOP",
        "type": "LOCAL_GADGET_OP",
        "actionId": 184,
        "gadgetId": 70710743,
        "oprCode": 3,
        "slotName": "",
        "position": {
          "x": 375.57000732421875,
          "y": 120.0,
          "z": 131.1230010986328
        },
        "euler": {
          "y": -93.78099822998047
        },
        "gvKey": "is_talk",
        "gvValue": 1.0
      },
      {
        "$type": "PKKMAMONGEO",
        "type": "DIALOG",
        "aliasList": [
          "20729"
        ],
        "dialogID": 790211903,
        "protectTime": 0.5
      },
      {
        "$type": "CPJKOIHIPBE",
        "type": "EMO_SYNC",
        "aliasList": [
          "20729"
        ],
        "dataPath": "Cs_Emo_Avatar_Simple_Common_Set/Cs_Emo_Avatar_Talk/Cs_Emo_WorldQuest/Cs_Emo_IsLand_790/Cs_Emo_790211903",
        "phonemePath": "",
        "emotionPath": "",
        "mateDataPath": "",
        "matePhonemePath": "",
        "mateEmotionPath": "",
        "dataPathHashList": [
          8001239001535333607,
          409838432505037165,
          1187401064595970789,
          8417324359928645182
        ],
        "FMDPBECPELH": "",
        "ADKBLPOKGIK": ""
      },
      {
        "$type": "FABLGECDBCH",
        "type": "BODY_LANG",
        "aliasList": [
          "1005"
        ],
        "actionId": 190,
        "isContinue": true,
        "forceDoFreeStyle": true,
        "canDoRepeatFreeStyle": false,
        "eventPatternSuiteKey": "",
        "FOHHKFAIAAJ": ""
      },
      {
        "$type": "FJKIHHKJLMJ",
        "type": "CAMERA_MOVE",
        "delayTime": 0.054999999701976776,
        "duration": 8.484999656677246,
        "actionId": 161,
        "camPosOffset": {
          "x": 360.3890075683594,
          "y": 121.9000015258789,
          "z": 127.81300354003906
        },
        "camForwardTargetOffset": {
          "x": 361.29400634765625,
          "y": 121.77400207519531,
          "z": 128.22000122070312
        },
        "camFov": 30.0,
        "cameraBlendType": "EaseOutQuad",
        "NJBNNOMLKCK": {},
        "needZAxisRotate": true,
        "openCameraDither": false,
        "targetNpcAlias": "",
        "closeTreeLeafDither": true,
        "KJOEFBPOIIH": "",
        "IICFKKEBIEC": "",
        "EGEHEJEBLBJ": ""
      }
    ],
    [
      {
        "$type": "PKKMAMONGEO",
        "type": "DIALOG",
        "aliasList": [
          "20729"
        ],
        "dialogID": 790211904,
        "protectTime": 0.5
      },
      {
        "$type": "CPJKOIHIPBE",
        "type": "EMO_SYNC",
        "aliasList": [
          "20729"
        ],
        "dataPath": "Cs_Emo_Avatar_Simple_Common_Set/Cs_Emo_Avatar_Talk/Cs_Emo_WorldQuest/Cs_Emo_IsLand_790/Cs_Emo_790211904",
        "phonemePath": "",
        "emotionPath": "",
        "mateDataPath": "",
        "matePhonemePath": "",
        "mateEmotionPath": "",
        "dataPathHashList": [
          7423796370564290264,
          1742245449418781319,
          18244981342888920102,
          17674159040209575544
        ],
        "FMDPBECPELH": "",
        "ADKBLPOKGIK": ""
      }
    ],
    [
      {
        "$type": "FJKIHHKJLMJ",
        "type": "CAMERA_MOVE",
        "duration": 0.10000000149011612,
        "actionId": 161,
        "camPosOffset": {
          "x": 378.3609924316406,
          "y": 132.63699340820312,
          "z": 102.2760009765625
        },
        "camForwardTargetOffset": {
          "x": 378.0530090332031,
          "y": 132.3209991455078,
          "z": 103.1729965209961
        },
        "camFov": 30.0,
        "lerpPattern": 6,
        "cameraBlendType": "EaseInOutCubic",
        "NJBNNOMLKCK": {},
        "needZAxisRotate": true,
        "openCameraDither": false,
        "targetNpcAlias": "",
        "closeTreeLeafDither": true,
        "KJOEFBPOIIH": "",
        "IICFKKEBIEC": "",
        "EGEHEJEBLBJ": ""
      },
      {
        "$type": "PKKMAMONGEO",
        "type": "DIALOG",
        "aliasList": [
          "20729"
        ],
        "dialogID": 790211905,
        "protectTime": 0.5
      },
      {
        "$type": "CPJKOIHIPBE",
        "type": "EMO_SYNC",
        "aliasList": [
          "20729"
        ],
        "dataPath": "Cs_Emo_Avatar_Simple_Common_Set/Cs_Emo_Avatar_Talk/Cs_Emo_WorldQuest/Cs_Emo_IsLand_790/Cs_Emo_790211905",
        "phonemePath": "",
        "emotionPath": "",
        "mateDataPath": "",
        "matePhonemePath": "",
        "mateEmotionPath": "",
        "dataPathHashList": [
          12780821654961698882,
          12683131438219512212,
          6439545294380028120,
          7468309102761089335
        ],
        "FMDPBECPELH": "",
        "ADKBLPOKGIK": ""
      },
      {
        "$type": "FJKIHHKJLMJ",
        "type": "CAMERA_MOVE",
        "delayTime": 0.05000000074505806,
        "duration": 8.180000305175781,
        "actionId": 161,
        "camPosOffset": {
          "x": 378.0140075683594,
          "y": 132.1580047607422,
          "z": 103.05999755859375
        },
        "camForwardTargetOffset": {
          "x": 377.7250061035156,
          "y": 131.90499877929688,
          "z": 103.98300170898438
        },
        "camFov": 30.0,
        "cameraBlendType": "EaseOutQuad",
        "NJBNNOMLKCK": {},
        "needZAxisRotate": true,
        "openCameraDither": false,
        "targetNpcAlias": "",
        "closeTreeLeafDither": true,
        "KJOEFBPOIIH": "",
        "IICFKKEBIEC": "",
        "EGEHEJEBLBJ": ""
      }
    ],
    [
      {
        "$type": "FJKIHHKJLMJ",
        "type": "CAMERA_MOVE",
        "duration": 0.10000000149011612,
        "actionId": 161,
        "camPosOffset": {
          "x": 380.6440124511719,
          "y": 121.26699829101562,
          "z": 129.16799926757812
        },
        "camForwardTargetOffset": {
          "x": 379.6570129394531,
          "y": 121.2239990234375,
          "z": 129.32200622558594
        },
        "camFov": 15.0,
        "lerpPattern": 6,
        "cameraBlendType": "EaseInOutCubic",
        "NJBNNOMLKCK": {},
        "needZAxisRotate": true,
        "openCameraDither": false,
        "targetNpcAlias": "",
        "closeTreeLeafDither": true,
        "KJOEFBPOIIH": "",
        "IICFKKEBIEC": "",
        "EGEHEJEBLBJ": ""
      },
      {
        "$type": "MoleMole.Config.ConfigLocalGadgetOP",
        "type": "LOCAL_GADGET_OP",
        "actionId": 184,
        "gadgetId": 70710743,
        "oprCode": 3,
        "slotName": "",
        "position": {
          "x": 375.57000732421875,
          "y": 120.0,
          "z": 131.1230010986328
        },
        "euler": {
          "y": -93.78099822998047
        },
        "gvKey": "is_talk"
      },
      {
        "$type": "PKKMAMONGEO",
        "type": "DIALOG",
        "aliasList": [
          "1005"
        ],
        "dialogID": 790211906,
        "protectTime": 0.5
      },
      {
        "$type": "FABLGECDBCH",
        "type": "BODY_LANG",
        "aliasList": [
          "1005"
        ],
        "actionId": 195,
        "bodyLangParam": 1090,
        "forceDoFreeStyle": true,
        "canDoRepeatFreeStyle": false,
        "eventPatternSuiteKey": "",
        "FOHHKFAIAAJ": ""
      },
      {
        "$type": "CPJKOIHIPBE",
        "type": "EMO_SYNC",
        "aliasList": [
          "1005"
        ],
        "dataPath": "Cs_Emo_Avatar_Simple_Common_Set/Cs_Emo_Avatar_Talk/Cs_Emo_WorldQuest/Cs_Emo_IsLand_790/Cs_Emo_790211906",
        "phonemePath": "",
        "emotionPath": "",
        "mateDataPath": "",
        "matePhonemePath": "",
        "mateEmotionPath": "",
        "dataPathHashList": [
          8019534896920087101,
          5128248880180201598,
          3827600280064855885,
          11214153401265083188
        ],
        "FMDPBECPELH": "",
        "ADKBLPOKGIK": ""
      },
      {
        "$type": "FJKIHHKJLMJ",
        "type": "CAMERA_MOVE",
        "delayTime": 0.052000001072883606,
        "duration": 11.895000457763672,
        "actionId": 161,
        "camPosOffset": {
          "x": 380.5429992675781,
          "y": 121.16100311279297,
          "z": 129.37100219726562
        },
        "camForwardTargetOffset": {
          "x": 379.54901123046875,
          "y": 121.1449966430664,
          "z": 129.4770050048828
        },
        "camFov": 15.0,
        "cameraBlendType": "EaseOutQuad",
        "NJBNNOMLKCK": {},
        "needZAxisRotate": true,
        "openCameraDither": false,
        "targetNpcAlias": "",
        "closeTreeLeafDither": true,
        "KJOEFBPOIIH": "",
        "IICFKKEBIEC": "",
        "EGEHEJEBLBJ": ""
      }
    ],
    [
      {
        "$type": "MoleMole.Config.ConfigLocalGadgetOP",
        "type": "LOCAL_GADGET_OP",
        "actionId": 184,
        "gadgetId": 70710743,
        "oprCode": 3,
        "slotName": "",
        "position": {
          "x": 375.57000732421875,
          "y": 120.0,
          "z": 131.1230010986328
        },
        "euler": {
          "y": -93.78099822998047
        },
        "gvKey": "is_talk",
        "gvValue": 1.0
      },
      {
        "$type": "PKKMAMONGEO",
        "type": "DIALOG",
        "aliasList": [
          "20729"
        ],
        "dialogID": 790211907,
        "protectTime": 0.5
      },
      {
        "$type": "CPJKOIHIPBE",
        "type": "EMO_SYNC",
        "aliasList": [
          "20729"
        ],
        "dataPath": "Cs_Emo_Avatar_Simple_Common_Set/Cs_Emo_Avatar_Talk/Cs_Emo_WorldQuest/Cs_Emo_IsLand_790/Cs_Emo_790211907",
        "phonemePath": "",
        "emotionPath": "",
        "mateDataPath": "",
        "matePhonemePath": "",
        "mateEmotionPath": "",
        "dataPathHashList": [
          16374005334645663969,
          17134433287733816584,
          609699707335852340,
          15100263670950635151
        ],
        "FMDPBECPELH": "",
        "ADKBLPOKGIK": ""
      },
      {
        "$type": "HDGKHDNFMIM",
        "type": "DIALOG_SELECT",
        "delayTime": 0.4000000059604645,
        "aliasList": [
          "Avatar"
        ],
        "dialogIDList": [
          790211908
        ],
        "grpIDList": [
          1994251259
        ],
        "useGrpId": true
      }
    ],
    [
      {
        "$type": "PKKMAMONGEO",
        "type": "DIALOG_CLEAR"
      }
    ],
    [
      {
        "$type": "MoleMole.Config.ConfigBlackScreenAction",
        "type": "BLACK_SCREEN",
        "blackScreenType": "TO_BLACK",
        "durationToBlack": 0.5,
        "inteePos": "",
        "textMapID": "",
        "useTextFade": true
      },
      {
        "$type": "MoleMole.Config.ConfigAudioPlayAction",
        "type": "AUDIO_PLAY",
        "actionId": 267,
        "audioEventStr": "Play_sfx_quest_WQ_ChuanLingShuShi_memory_07"
      }
    ],
    [
      {
        "$type": "MoleMole.Config.ConfigBlackScreenAction",
        "type": "BLACK_SCREEN",
        "blackScreenType": "KEEP_BLACK",
        "durationKeepBlack": -1.0,
        "inteePos": "",
        "textMapID": "QUEST_Message_Q79021191",
        "useTextFade": true,
        "needWaitClick": true,
        "showClickBtnDelayTime": 11.0
      }
    ],
    [
      {
        "$type": "MoleMole.Config.ConfigBlackScreenAction",
        "type": "BLACK_SCREEN",
        "blackScreenType": "KEEP_BLACK",
        "durationKeepBlack": -1.0,
        "inteePos": "",
        "textMapID": "QUEST_Message_Q79021192",
        "useTextFade": true,
        "needWaitClick": true,
        "showClickBtnDelayTime": 10.0
      },
      {
        "$type": "MoleMole.Config.ConfigAudioPlayAction",
        "type": "AUDIO_PLAY",
        "actionId": 269,
        "audioEventStr": "Play_sfx_quest_WQ_ChuanLingShuShi_memory_08"
      }
    ],
    [
      {
        "$type": "MoleMole.Config.ConfigBlackScreenAction",
        "type": "BLACK_SCREEN",
        "blackScreenType": "FROM_BLACK",
        "durationFromBlack": 0.5,
        "inteePos": "",
        "textMapID": "",
        "useTextFade": true
      },
      {
        "$type": "FJKIHHKJLMJ",
        "type": "CAMERA_MOVE",
        "duration": 0.10000000149011612,
        "actionId": 161,
        "camPosOffset": {
          "x": 371.1629943847656,
          "y": 121.06500244140625,
          "z": 129.8699951171875
        },
        "camForwardTargetOffset": {
          "x": 372.1099853515625,
          "y": 120.99500274658203,
          "z": 130.1840057373047
        },
        "camFov": 20.0,
        "lerpPattern": 6,
        "cameraBlendType": "EaseInOutCubic",
        "NJBNNOMLKCK": {},
        "needZAxisRotate": true,
        "openCameraDither": false,
        "targetNpcAlias": "",
        "closeTreeLeafDither": true,
        "KJOEFBPOIIH": "",
        "IICFKKEBIEC": "",
        "EGEHEJEBLBJ": ""
      }
    ],
    [
      {
        "$type": "FJKIHHKJLMJ",
        "type": "CAMERA_MOVE",
        "duration": 0.10000000149011612,
        "actionId": 161,
        "camPosOffset": {
          "x": 371.1629943847656,
          "y": 121.06500244140625,
          "z": 129.8699951171875
        },
        "camForwardTargetOffset": {
          "x": 372.1099853515625,
          "y": 120.99500274658203,
          "z": 130.1840057373047
        },
        "camFov": 20.0,
        "lerpPattern": 6,
        "cameraBlendType": "EaseInOutCubic",
        "NJBNNOMLKCK": {},
        "needZAxisRotate": true,
        "openCameraDither": false,
        "targetNpcAlias": "",
        "closeTreeLeafDither": true,
        "KJOEFBPOIIH": "",
        "IICFKKEBIEC": "",
        "EGEHEJEBLBJ": ""
      },
      {
        "$type": "PKKMAMONGEO",
        "type": "DIALOG",
        "aliasList": [
          "20729"
        ],
        "dialogID": 790211930,
        "protectTime": 0.5
      },
      {
        "$type": "FJKIHHKJLMJ",
        "type": "CAMERA_MOVE",
        "delayTime": 0.054999999701976776,
        "duration": 9.305999755859375,
        "actionId": 161,
        "camPosOffset": {
          "x": 371.3280029296875,
          "y": 121.0530014038086,
          "z": 129.9239959716797
        },
        "camForwardTargetOffset": {
          "x": 372.2749938964844,
          "y": 120.98300170898438,
          "z": 130.23800659179688
        },
        "camFov": 20.0,
        "cameraBlendType": "EaseOutQuad",
        "NJBNNOMLKCK": {},
        "needZAxisRotate": true,
        "openCameraDither": false,
        "targetNpcAlias": "",
        "closeTreeLeafDither": true,
        "KJOEFBPOIIH": "",
        "IICFKKEBIEC": "",
        "EGEHEJEBLBJ": ""
      }
    ],
    [
      {
        "$type": "MoleMole.Config.ConfigLocalGadgetOP",
        "type": "LOCAL_GADGET_OP",
        "actionId": 184,
        "gadgetId": 70710743,
        "oprCode": 3,
        "slotName": "",
        "position": {
          "x": 375.57000732421875,
          "y": 120.0,
          "z": 131.1230010986328
        },
        "euler": {
          "y": -93.78099822998047
        },
        "gvKey": "is_talk"
      },
      {
        "$type": "FJKIHHKJLMJ",
        "type": "CAMERA_MOVE",
        "duration": 0.10000000149011612,
        "actionId": 161,
        "camPosOffset": {
          "x": 367.2489929199219,
          "y": 121.56900024414062,
          "z": 130.26100158691406
        },
        "camForwardTargetOffset": {
          "x": 366.25201416015625,
          "y": 121.5739974975586,
          "z": 130.18699645996094
        },
        "camFov": 20.0,
        "lerpPattern": 6,
        "cameraBlendType": "EaseInOutCubic",
        "NJBNNOMLKCK": {},
        "needZAxisRotate": true,
        "openCameraDither": false,
        "targetNpcAlias": "",
        "closeTreeLeafDither": true,
        "KJOEFBPOIIH": "",
        "IICFKKEBIEC": "",
        "EGEHEJEBLBJ": ""
      },
      {
        "$type": "CPJKOIHIPBE",
        "type": "EMO_SYNC",
        "aliasList": [
          "Avatar"
        ],
        "actionId": 261,
        "dataPath": "",
        "phonemePath": "Cs_Emo_Avatar_Common/Cs_Emo_Avatar_N",
        "emotionPath": "Cs_Emo_Avatar_Common/Cs_Emo_Avatar_Gentle01_B",
        "mateDataPath": "",
        "matePhonemePath": "",
        "mateEmotionPath": "",
        "phonemePathHashList": [
          8580669323297051107,
          15023355033871486163,
          10579363106450329133,
          10340570440011467750
        ],
        "emotionPathHashList": [
          16844822647509768515,
          15752628326139830226,
          2563814041844724990,
          6511930563219247368
        ],
        "FMDPBECPELH": "",
        "ADKBLPOKGIK": ""
      },
      {
        "$type": "PKKMAMONGEO",
        "type": "DIALOG",
        "aliasList": [
          "1005"
        ],
        "dialogID": 790211909,
        "protectTime": 0.5
      },
      {
        "$type": "FABLGECDBCH",
        "type": "BODY_LANG",
        "aliasList": [
          "1005"
        ],
        "actionId": 213,
        "isContinue": true,
        "forceDoFreeStyle": true,
        "canDoRepeatFreeStyle": false,
        "eventPatternSuiteKey": "",
        "FOHHKFAIAAJ": ""
      },
      {
        "$type": "CPJKOIHIPBE",
        "type": "EMO_SYNC",
        "aliasList": [
          "1005"
        ],
        "dataPath": "Cs_Emo_Avatar_Simple_Common_Set/Cs_Emo_Avatar_Talk/Cs_Emo_WorldQuest/Cs_Emo_IsLand_790/Cs_Emo_790211909",
        "phonemePath": "",
        "emotionPath": "",
        "mateDataPath": "",
        "matePhonemePath": "",
        "mateEmotionPath": "",
        "dataPathHashList": [
          4060610168787129800,
          17357853536679445138,
          10064990806454389682,
          8164175666527686800
        ],
        "FMDPBECPELH": "",
        "ADKBLPOKGIK": ""
      }
    ],
    [
      {
        "$type": "MoleMole.Config.ConfigLocalGadgetOP",
        "type": "LOCAL_GADGET_OP",
        "actionId": 184,
        "gadgetId": 70710743,
        "oprCode": 3,
        "slotName": "",
        "position": {
          "x": 375.57000732421875,
          "y": 120.0,
          "z": 131.1230010986328
        },
        "euler": {
          "y": -93.78099822998047
        },
        "gvKey": "is_talk",
        "gvValue": 1.0
      },
      {
        "$type": "FJKIHHKJLMJ",
        "type": "CAMERA_MOVE",
        "duration": 0.10000000149011612,
        "actionId": 161,
        "camPosOffset": {
          "x": 362.27398681640625,
          "y": 121.88500213623047,
          "z": 129.8939971923828
        },
        "camForwardTargetOffset": {
          "x": 363.260986328125,
          "y": 121.75,
          "z": 129.98399353027344
        },
        "camFov": 25.0,
        "lerpPattern": 6,
        "cameraBlendType": "EaseInOutCubic",
        "NJBNNOMLKCK": {},
        "needZAxisRotate": true,
        "openCameraDither": false,
        "targetNpcAlias": "",
        "closeTreeLeafDither": true,
        "KJOEFBPOIIH": "",
        "IICFKKEBIEC": "",
        "EGEHEJEBLBJ": ""
      },
      {
        "$type": "PKKMAMONGEO",
        "type": "DIALOG",
        "aliasList": [
          "20729"
        ],
        "dialogID": 790211910,
        "protectTime": 0.5
      },
      {
        "$type": "CPJKOIHIPBE",
        "type": "EMO_SYNC",
        "aliasList": [
          "20729"
        ],
        "dataPath": "Cs_Emo_Avatar_Simple_Common_Set/Cs_Emo_Avatar_Talk/Cs_Emo_WorldQuest/Cs_Emo_IsLand_790/Cs_Emo_790211910",
        "phonemePath": "",
        "emotionPath": "",
        "mateDataPath": "",
        "matePhonemePath": "",
        "mateEmotionPath": "",
        "dataPathHashList": [
          4861720380177965257,
          5849945325924181459,
          14324185549081256739,
          511275827842529435
        ],
        "FMDPBECPELH": "",
        "ADKBLPOKGIK": ""
      },
      {
        "$type": "FJKIHHKJLMJ",
        "type": "CAMERA_MOVE",
        "delayTime": 0.0560000017285347,
        "duration": 10.135000228881836,
        "actionId": 161,
        "camPosOffset": {
          "x": 362.07598876953125,
          "y": 121.91200256347656,
          "z": 129.87600708007812
        },
        "camForwardTargetOffset": {
          "x": 363.06298828125,
          "y": 121.7770004272461,
          "z": 129.96600341796875
        },
        "camFov": 25.0,
        "cameraBlendType": "EaseOutQuad",
        "NJBNNOMLKCK": {},
        "needZAxisRotate": true,
        "openCameraDither": false,
        "targetNpcAlias": "",
        "closeTreeLeafDither": true,
        "KJOEFBPOIIH": "",
        "IICFKKEBIEC": "",
        "EGEHEJEBLBJ": ""
      }
    ],
    [
      {
        "$type": "PKKMAMONGEO",
        "type": "DIALOG",
        "aliasList": [
          "20729"
        ],
        "dialogID": 790211911,
        "protectTime": 0.5
      },
      {
        "$type": "CPJKOIHIPBE",
        "type": "EMO_SYNC",
        "aliasList": [
          "20729"
        ],
        "dataPath": "Cs_Emo_Avatar_Simple_Common_Set/Cs_Emo_Avatar_Talk/Cs_Emo_WorldQuest/Cs_Emo_IsLand_790/Cs_Emo_790211911",
        "phonemePath": "",
        "emotionPath": "",
        "mateDataPath": "",
        "matePhonemePath": "",
        "mateEmotionPath": "",
        "dataPathHashList": [
          12151115635414733084,
          16546765027818231346,
          13774562445970168272,
          10861590155671644001
        ],
        "FMDPBECPELH": "",
        "ADKBLPOKGIK": ""
      }
    ],
    [
      {
        "$type": "FJKIHHKJLMJ",
        "type": "CAMERA_MOVE",
        "duration": 0.10000000149011612,
        "actionId": 161,
        "camPosOffset": {
          "x": 389.19500732421875,
          "y": 123.29100036621094,
          "z": 136.47900390625
        },
        "camForwardTargetOffset": {
          "x": 388.5899963378906,
          "y": 123.9520034790039,
          "z": 136.92300415039062
        },
        "camFov": 40.0,
        "lerpPattern": 6,
        "cameraBlendType": "EaseInOutCubic",
        "NJBNNOMLKCK": {},
        "needZAxisRotate": true,
        "openCameraDither": false,
        "targetNpcAlias": "",
        "closeTreeLeafDither": true,
        "KJOEFBPOIIH": "",
        "IICFKKEBIEC": "",
        "EGEHEJEBLBJ": ""
      },
      {
        "$type": "PKKMAMONGEO",
        "type": "DIALOG",
        "aliasList": [
          "20729"
        ],
        "dialogID": 790211912,
        "protectTime": 0.5
      },
      {
        "$type": "CPJKOIHIPBE",
        "type": "EMO_SYNC",
        "aliasList": [
          "20729"
        ],
        "dataPath": "Cs_Emo_Avatar_Simple_Common_Set/Cs_Emo_Avatar_Talk/Cs_Emo_WorldQuest/Cs_Emo_IsLand_790/Cs_Emo_790211912",
        "phonemePath": "",
        "emotionPath": "",
        "mateDataPath": "",
        "matePhonemePath": "",
        "mateEmotionPath": "",
        "dataPathHashList": [
          227339104365053958,
          10905982390148660146,
          16533221687507369666,
          4697512720754972207
        ],
        "FMDPBECPELH": "",
        "ADKBLPOKGIK": ""
      },
      {
        "$type": "FJKIHHKJLMJ",
        "type": "CAMERA_MOVE",
        "delayTime": 0.050999999046325684,
        "duration": 10.574000358581543,
        "actionId": 161,
        "camPosOffset": {
          "x": 389.0950012207031,
          "y": 123.15499877929688,
          "z": 136.58099365234375
        },
        "camForwardTargetOffset": {
          "x": 388.572998046875,
          "y": 123.92900085449219,
          "z": 136.94000244140625
        },
        "camFov": 40.0,
        "cameraBlendType": "EaseOutQuad",
        "NJBNNOMLKCK": {},
        "needZAxisRotate": true,
        "openCameraDither": false,
        "targetNpcAlias": "",
        "closeTreeLeafDither": true,
        "KJOEFBPOIIH": "",
        "IICFKKEBIEC": "",
        "EGEHEJEBLBJ": ""
      }
    ],
    [
      {
        "$type": "FJKIHHKJLMJ",
        "type": "CAMERA_MOVE",
        "duration": 0.10000000149011612,
        "actionId": 161,
        "camPosOffset": {
          "x": 348.7909851074219,
          "y": 132.1699981689453,
          "z": 121.03600311279297
        },
        "camForwardTargetOffset": {
          "x": 349.7250061035156,
          "y": 131.98699951171875,
          "z": 121.34400177001953
        },
        "lerpPattern": 6,
        "cameraBlendType": "EaseInOutCubic",
        "NJBNNOMLKCK": {},
        "needZAxisRotate": true,
        "openCameraDither": false,
        "targetNpcAlias": "",
        "closeTreeLeafDither": true,
        "KJOEFBPOIIH": "",
        "IICFKKEBIEC": "",
        "EGEHEJEBLBJ": ""
      },
      {
        "$type": "PKKMAMONGEO",
        "type": "DIALOG",
        "aliasList": [
          "20729"
        ],
        "dialogID": 790211913,
        "protectTime": 0.5
      },
      {
        "$type": "CPJKOIHIPBE",
        "type": "EMO_SYNC",
        "aliasList": [
          "20729"
        ],
        "dataPath": "Cs_Emo_Avatar_Simple_Common_Set/Cs_Emo_Avatar_Talk/Cs_Emo_WorldQuest/Cs_Emo_IsLand_790/Cs_Emo_790211913",
        "phonemePath": "",
        "emotionPath": "",
        "mateDataPath": "",
        "matePhonemePath": "",
        "mateEmotionPath": "",
        "dataPathHashList": [
          3276729263250710279,
          10670185928984332767,
          13607306264360544451,
          12285485549816751849
        ],
        "FMDPBECPELH": "",
        "ADKBLPOKGIK": ""
      },
      {
        "$type": "FJKIHHKJLMJ",
        "type": "CAMERA_MOVE",
        "delayTime": 0.04600000008940697,
        "duration": 18.958999633789062,
        "actionId": 161,
        "camPosOffset": {
          "x": 348.75,
          "y": 132.0659942626953,
          "z": 121.69000244140625
        },
        "camForwardTargetOffset": {
          "x": 349.7179870605469,
          "y": 131.97000122070312,
          "z": 121.45700073242188
        },
        "cameraBlendType": "EaseOutQuad",
        "NJBNNOMLKCK": {},
        "needZAxisRotate": true,
        "openCameraDither": false,
        "targetNpcAlias": "",
        "closeTreeLeafDither": true,
        "KJOEFBPOIIH": "",
        "IICFKKEBIEC": "",
        "EGEHEJEBLBJ": ""
      }
    ],
    [
      {
        "$type": "PKKMAMONGEO",
        "type": "DIALOG",
        "aliasList": [
          "20729"
        ],
        "dialogID": 790211914,
        "protectTime": 0.5
      },
      {
        "$type": "CPJKOIHIPBE",
        "type": "EMO_SYNC",
        "aliasList": [
          "20729"
        ],
        "dataPath": "Cs_Emo_Avatar_Simple_Common_Set/Cs_Emo_Avatar_Talk/Cs_Emo_WorldQuest/Cs_Emo_IsLand_790/Cs_Emo_790211914",
        "phonemePath": "",
        "emotionPath": "",
        "mateDataPath": "",
        "matePhonemePath": "",
        "mateEmotionPath": "",
        "dataPathHashList": [
          2390020005741949037,
          13538772492212470946,
          2520857259014623276,
          4331788764860151603
        ],
        "FMDPBECPELH": "",
        "ADKBLPOKGIK": ""
      },
      {
        "$type": "HDGKHDNFMIM",
        "type": "DIALOG_SELECT",
        "delayTime": 0.4000000059604645,
        "aliasList": [
          "Avatar"
        ],
        "dialogIDList": [
          790211915,
          790211917
        ],
        "grpIDList": [
          1994251292,
          1994251293
        ],
        "useGrpId": true
      }
    ],
    [
      {
        "$type": "FJKIHHKJLMJ",
        "type": "CAMERA_MOVE",
        "duration": 0.10000000149011612,
        "actionId": 161,
        "camPosOffset": {
          "x": 369.072998046875,
          "y": 121.87100219726562,
          "z": 126.64900207519531
        },
        "camForwardTargetOffset": {
          "x": 369.82000732421875,
          "y": 121.65299987792969,
          "z": 127.2770004272461
        },
        "camFov": 30.0,
        "lerpPattern": 6,
        "cameraBlendType": "EaseInOutCubic",
        "NJBNNOMLKCK": {},
        "needZAxisRotate": true,
        "openCameraDither": false,
        "targetNpcAlias": "",
        "closeTreeLeafDither": true,
        "KJOEFBPOIIH": "",
        "IICFKKEBIEC": "",
        "EGEHEJEBLBJ": ""
      },
      {
        "$type": "PKKMAMONGEO",
        "type": "DIALOG",
        "aliasList": [
          "20729"
        ],
        "dialogID": 790211916,
        "protectTime": 0.5
      },
      {
        "$type": "CPJKOIHIPBE",
        "type": "EMO_SYNC",
        "aliasList": [
          "20729"
        ],
        "dataPath": "Cs_Emo_Avatar_Simple_Common_Set/Cs_Emo_Avatar_Talk/Cs_Emo_WorldQuest/Cs_Emo_IsLand_790/Cs_Emo_790211916",
        "phonemePath": "",
        "emotionPath": "",
        "mateDataPath": "",
        "matePhonemePath": "",
        "mateEmotionPath": "",
        "dataPathHashList": [
          13402085834469340729,
          9910767680899150947,
          13180062161373819401,
          13341847508227653298
        ],
        "FMDPBECPELH": "",
        "ADKBLPOKGIK": ""
      }
    ],
    [
      {
        "$type": "FJKIHHKJLMJ",
        "type": "CAMERA_MOVE",
        "duration": 0.10000000149011612,
        "actionId": 161,
        "camPosOffset": {
          "x": 369.072998046875,
          "y": 121.87100219726562,
          "z": 126.64900207519531
        },
        "camForwardTargetOffset": {
          "x": 369.82000732421875,
          "y": 121.65299987792969,
          "z": 127.2770004272461
        },
        "camFov": 30.0,
        "lerpPattern": 6,
        "cameraBlendType": "EaseInOutCubic",
        "NJBNNOMLKCK": {},
        "needZAxisRotate": true,
        "openCameraDither": false,
        "targetNpcAlias": "",
        "closeTreeLeafDither": true,
        "KJOEFBPOIIH": "",
        "IICFKKEBIEC": "",
        "EGEHEJEBLBJ": ""
      },
      {
        "$type": "PKKMAMONGEO",
        "type": "DIALOG",
        "aliasList": [
          "20729"
        ],
        "dialogID": 790211918,
        "protectTime": 0.5
      },
      {
        "$type": "CPJKOIHIPBE",
        "type": "EMO_SYNC",
        "aliasList": [
          "20729"
        ],
        "dataPath": "Cs_Emo_Avatar_Simple_Common_Set/Cs_Emo_Avatar_Talk/Cs_Emo_WorldQuest/Cs_Emo_IsLand_790/Cs_Emo_790211918",
        "phonemePath": "",
        "emotionPath": "",
        "mateDataPath": "",
        "matePhonemePath": "",
        "mateEmotionPath": "",
        "dataPathHashList": [
          6235747924576180340,
          4667326729045493628,
          10605094049746747043,
          16937735875523774066
        ],
        "FMDPBECPELH": "",
        "ADKBLPOKGIK": ""
      }
    ],
    [
      {
        "$type": "FJKIHHKJLMJ",
        "type": "CAMERA_MOVE",
        "duration": 0.10000000149011612,
        "actionId": 161,
        "camPosOffset": {
          "x": 381.74798583984375,
          "y": 122.87300109863281,
          "z": 131.66099548339844
        },
        "camForwardTargetOffset": {
          "x": 380.76300048828125,
          "y": 122.72599792480469,
          "z": 131.56900024414062
        },
        "camFov": 15.0,
        "lerpPattern": 6,
        "cameraBlendType": "EaseInOutCubic",
        "NJBNNOMLKCK": {},
        "openCameraDither": false,
        "targetNpcAlias": "",
        "closeTreeLeafDither": true,
        "KJOEFBPOIIH": "",
        "IICFKKEBIEC": "",
        "EGEHEJEBLBJ": ""
      },
      {
        "$type": "PKKMAMONGEO",
        "type": "DIALOG",
        "aliasList": [
          "20729"
        ],
        "dialogID": 790211919,
        "protectTime": 0.5
      },
      {
        "$type": "CPJKOIHIPBE",
        "type": "EMO_SYNC",
        "aliasList": [
          "20729"
        ],
        "dataPath": "Cs_Emo_Avatar_Simple_Common_Set/Cs_Emo_Avatar_Talk/Cs_Emo_WorldQuest/Cs_Emo_IsLand_790/Cs_Emo_790211919",
        "phonemePath": "",
        "emotionPath": "",
        "mateDataPath": "",
        "matePhonemePath": "",
        "mateEmotionPath": "",
        "dataPathHashList": [
          15571877722603071945,
          11194772098867153741,
          11891327104963556600,
          5613732445013810168
        ],
        "FMDPBECPELH": "",
        "ADKBLPOKGIK": ""
      },
      {
        "$type": "FJKIHHKJLMJ",
        "type": "CAMERA_MOVE",
        "delayTime": 0.04600000008940697,
        "duration": 10.96399974822998,
        "actionId": 161,
        "camPosOffset": {
          "x": 383.43499755859375,
          "y": 123.34500122070312,
          "z": 131.81300354003906
        },
        "camForwardTargetOffset": {
          "x": 382.447998046875,
          "y": 123.21299743652344,
          "z": 131.7209930419922
        },
        "camFov": 15.0,
        "cameraBlendType": "EaseOutQuad",
        "NJBNNOMLKCK": {},
        "needZAxisRotate": true,
        "openCameraDither": false,
        "targetNpcAlias": "",
        "closeTreeLeafDither": true,
        "KJOEFBPOIIH": "",
        "IICFKKEBIEC": "",
        "EGEHEJEBLBJ": ""
      },
      {
        "$type": "HDGKHDNFMIM",
        "type": "DIALOG_SELECT",
        "delayTime": 0.4000000059604645,
        "aliasList": [
          "Avatar"
        ],
        "dialogIDList": [
          790211920,
          790211921
        ],
        "grpIDList": [
          1994251295,
          1994251295
        ],
        "useGrpId": true
      }
    ],
    [
      {
        "$type": "MoleMole.Config.ConfigLocalGadgetOP",
        "type": "LOCAL_GADGET_OP",
        "actionId": 184,
        "gadgetId": 70710743,
        "oprCode": 3,
        "slotName": "",
        "position": {
          "x": 375.57000732421875,
          "y": 120.0,
          "z": 131.1230010986328
        },
        "euler": {
          "y": -93.78099822998047
        },
        "gvKey": "is_talk"
      },
      {
        "$type": "PKKMAMONGEO",
        "type": "DIALOG",
        "aliasList": [
          "1005"
        ],
        "dialogID": 790211922,
        "protectTime": 0.5
      },
      {
        "$type": "FABLGECDBCH",
        "type": "BODY_LANG",
        "aliasList": [
          "1005"
        ],
        "actionId": 224,
        "bodyLangParam": 1270,
        "forceDoFreeStyle": true,
        "canDoRepeatFreeStyle": false,
        "eventPatternSuiteKey": "",
        "FOHHKFAIAAJ": ""
      },
      {
        "$type": "CPJKOIHIPBE",
        "type": "EMO_SYNC",
        "aliasList": [
          "1005"
        ],
        "dataPath": "Cs_Emo_Avatar_Simple_Common_Set/Cs_Emo_Avatar_Talk/Cs_Emo_WorldQuest/Cs_Emo_IsLand_790/Cs_Emo_790211922",
        "phonemePath": "",
        "emotionPath": "",
        "mateDataPath": "",
        "matePhonemePath": "",
        "mateEmotionPath": "",
        "enableBlink": false,
        "dataPathHashList": [
          7000093784211386815,
          5192741886033430923,
          11246404914686946850,
          10258340370312588677
        ],
        "FMDPBECPELH": "",
        "ADKBLPOKGIK": ""
      },
      {
        "$type": "FABLGECDBCH",
        "type": "BODY_LANG",
        "delayTime": 1.8769999742507935,
        "aliasList": [
          "1005"
        ],
        "actionId": 225,
        "bodyLangParam": 1090,
        "forceDoFreeStyle": true,
        "canDoRepeatFreeStyle": false,
        "eventPatternSuiteKey": "",
        "FOHHKFAIAAJ": ""
      }
    ],
    [
      {
        "$type": "MoleMole.Config.ConfigLocalGadgetOP",
        "type": "LOCAL_GADGET_OP",
        "actionId": 184,
        "gadgetId": 70710743,
        "oprCode": 3,
        "slotName": "",
        "position": {
          "x": 375.57000732421875,
          "y": 120.0,
          "z": 131.1230010986328
        },
        "euler": {
          "y": -93.78099822998047
        },
        "gvKey": "is_talk",
        "gvValue": 1.0
      },
      {
        "$type": "FJKIHHKJLMJ",
        "type": "CAMERA_MOVE",
        "duration": 0.10000000149011612,
        "actionId": 161,
        "camPosOffset": {
          "x": 359.07000732421875,
          "y": 122.04499816894531,
          "z": 127.5250015258789
        },
        "camForwardTargetOffset": {
          "x": 360.0169982910156,
          "y": 121.95999908447266,
          "z": 127.83399963378906
        },
        "camFov": 20.0,
        "lerpPattern": 6,
        "cameraBlendType": "EaseInOutCubic",
        "NJBNNOMLKCK": {},
        "needZAxisRotate": true,
        "openCameraDither": false,
        "targetNpcAlias": "",
        "closeTreeLeafDither": true,
        "KJOEFBPOIIH": "",
        "IICFKKEBIEC": "",
        "EGEHEJEBLBJ": ""
      },
      {
        "$type": "PKKMAMONGEO",
        "type": "DIALOG",
        "aliasList": [
          "20729"
        ],
        "dialogID": 790211923,
        "protectTime": 0.5
      },
      {
        "$type": "CPJKOIHIPBE",
        "type": "EMO_SYNC",
        "aliasList": [
          "20729"
        ],
        "dataPath": "Cs_Emo_Avatar_Simple_Common_Set/Cs_Emo_Avatar_Talk/Cs_Emo_WorldQuest/Cs_Emo_IsLand_790/Cs_Emo_790211923",
        "phonemePath": "",
        "emotionPath": "",
        "mateDataPath": "",
        "matePhonemePath": "",
        "mateEmotionPath": "",
        "dataPathHashList": [
          16092466332280348740,
          4678608161342097133,
          7964946128604049390,
          16951768207255147625
        ],
        "FMDPBECPELH": "",
        "ADKBLPOKGIK": ""
      },
      {
        "$type": "MoleMole.Config.ConfigTeleportToAction",
        "type": "TELEPORT_TO",
        "aliasList": [
          "1005"
        ],
        "actionId": 228,
        "position": {
          "x": 363.4849853515625,
          "y": 120.44499969482422,
          "z": 130.20399475097656
        },
        "forward": {
          "x": 0.9729999899864197,
          "y": -0.04399999976158142,
          "z": 0.23000000417232513
        },
        "openLongDisTeleport": true,
        "_posBindMovingTargetKey": "",
        "_forwardBindMovingTargetKey": ""
      },
      {
        "$type": "CPJKOIHIPBE",
        "type": "EMO_SYNC",
        "aliasList": [
          "1005"
        ],
        "actionId": 262,
        "dataPath": "",
        "phonemePath": "Cs_Emo_Pet_Common/Cs_Emo_Paimon_None",
        "emotionPath": "Cs_Emo_Pet_Common/Cs_Emo_Paimon_Normal01",
        "mateDataPath": "",
        "matePhonemePath": "",
        "mateEmotionPath": "",
        "phonemePathHashList": [
          1796869206626684908,
          2049648015653630001,
          14015965774222061559,
          873259039409222856
        ],
        "emotionPathHashList": [
          312453201720762420,
          9562322946389574798,
          18422542724361145117,
          17949024460815132449
        ],
        "FMDPBECPELH": "",
        "ADKBLPOKGIK": ""
      },
      {
        "$type": "FJKIHHKJLMJ",
        "type": "CAMERA_MOVE",
        "delayTime": 0.0560000017285347,
        "duration": 6.961999893188477,
        "actionId": 161,
        "camPosOffset": {
          "x": 358.29998779296875,
          "y": 122.11299896240234,
          "z": 127.27400207519531
        },
        "camForwardTargetOffset": {
          "x": 359.24700927734375,
          "y": 122.02899932861328,
          "z": 127.58300018310547
        },
        "camFov": 20.0,
        "cameraBlendType": "EaseOutQuad",
        "NJBNNOMLKCK": {},
        "needZAxisRotate": true,
        "openCameraDither": false,
        "targetNpcAlias": "",
        "closeTreeLeafDither": true,
        "KJOEFBPOIIH": "",
        "IICFKKEBIEC": "",
        "EGEHEJEBLBJ": ""
      }
    ],
    [
      {
        "$type": "PKKMAMONGEO",
        "type": "DIALOG",
        "aliasList": [
          "20729"
        ],
        "dialogID": 790211924,
        "protectTime": 0.5
      },
      {
        "$type": "CPJKOIHIPBE",
        "type": "EMO_SYNC",
        "aliasList": [
          "20729"
        ],
        "dataPath": "Cs_Emo_Avatar_Simple_Common_Set/Cs_Emo_Avatar_Talk/Cs_Emo_WorldQuest/Cs_Emo_IsLand_790/Cs_Emo_790211924",
        "phonemePath": "",
        "emotionPath": "",
        "mateDataPath": "",
        "matePhonemePath": "",
        "mateEmotionPath": "",
        "dataPathHashList": [
          1009029533539941335,
          2563557733566345881,
          3305404820645091197,
          3264388193052606063
        ],
        "FMDPBECPELH": "",
        "ADKBLPOKGIK": ""
      }
    ],
    [
      {
        "$type": "MoleMole.Config.ConfigLocalGadgetOP",
        "type": "LOCAL_GADGET_OP",
        "actionId": 184,
        "gadgetId": 70710743,
        "oprCode": 3,
        "slotName": "",
        "position": {
          "x": 375.57000732421875,
          "y": 120.0,
          "z": 131.1230010986328
        },
        "euler": {
          "y": -93.78099822998047
        },
        "gvKey": "is_talk",
        "gvValue": 1.0
      },
      {
        "$type": "FJKIHHKJLMJ",
        "type": "CAMERA_MOVE",
        "duration": 0.10000000149011612,
        "actionId": 161,
        "camPosOffset": {
          "x": 364.5150146484375,
          "y": 122.1719970703125,
          "z": 128.2830047607422
        },
        "camForwardTargetOffset": {
          "x": 364.0140075683594,
          "y": 121.97799682617188,
          "z": 129.1269989013672
        },
        "camFov": 20.0,
        "lerpPattern": 6,
        "cameraBlendType": "EaseInOutCubic",
        "NJBNNOMLKCK": {},
        "needZAxisRotate": true,
        "openCameraDither": false,
        "targetNpcAlias": "",
        "closeTreeLeafDither": true,
        "KJOEFBPOIIH": "",
        "IICFKKEBIEC": "",
        "EGEHEJEBLBJ": ""
      },
      {
        "$type": "PKKMAMONGEO",
        "type": "DIALOG",
        "aliasList": [
          "1005"
        ],
        "dialogID": 790211925,
        "protectTime": 1.5
      },
      {
        "$type": "FABLGECDBCH",
        "type": "BODY_LANG",
        "aliasList": [
          "1005"
        ],
        "actionId": 231,
        "forceDoFreeStyle": true,
        "canDoRepeatFreeStyle": false,
        "eventPatternSuiteKey": "",
        "FOHHKFAIAAJ": ""
      },
      {
        "$type": "CPJKOIHIPBE",
        "type": "EMO_SYNC",
        "aliasList": [
          "1005"
        ],
        "dataPath": "Cs_Emo_Avatar_Simple_Common_Set/Cs_Emo_Avatar_Talk/Cs_Emo_WorldQuest/Cs_Emo_IsLand_790/Cs_Emo_790211925",
        "phonemePath": "",
        "emotionPath": "",
        "mateDataPath": "",
        "matePhonemePath": "",
        "mateEmotionPath": "",
        "enableBlink": false,
        "dataPathHashList": [
          3523417231772793062,
          10747689107252523996,
          11851784506459756085,
          8771019029429467535
        ],
        "FMDPBECPELH": "",
        "ADKBLPOKGIK": ""
      },
      {
        "$type": "MoleMole.Config.ConfigTeleportToAction",
        "type": "TELEPORT_TO",
        "aliasList": [
          "1005"
        ],
        "actionId": 264,
        "position": {
          "x": 363.4849853515625,
          "y": 120.44499969482422,
          "z": 130.20399475097656
        },
        "forward": {
          "x": 1.0379999876022339,
          "z": -0.11400000005960464
        },
        "openLongDisTeleport": true,
        "_posBindMovingTargetKey": "",
        "_forwardBindMovingTargetKey": ""
      },
      {
        "$type": "LJLMDHDCAMK",
        "type": "LOOK_AT",
        "delayTime": 0.7110000252723694,
        "aliasList": [
          "1005"
        ],
        "actionId": 233,
        "enableHead": true,
        "useTargetPos": true,
        "enableAbsolute": true,
        "targetPosition": {
          "x": 363.7869873046875,
          "y": 121.89099884033203,
          "z": 129.53700256347656
        },
        "headTurnTime": 0.5,
        "targetNpcAlias": "",
        "lookAtTargetType": "NONE",
        "targetNpcLookAtPoint": "",
        "OAFJBHJHLJG": ""
      },
      {
        "$type": "LJLMDHDCAMK",
        "type": "LOOK_AT",
        "delayTime": 0.8289999961853027,
        "aliasList": [
          "Avatar"
        ],
        "actionId": 233,
        "enableHead": true,
        "useTargetPos": true,
        "enableAbsolute": true,
        "targetPosition": {
          "x": 363.7099914550781,
          "y": 121.89099884033203,
          "z": 130.29600524902344
        },
        "headTurnTime": 0.5,
        "targetNpcAlias": "",
        "lookAtTargetType": "NONE",
        "targetNpcLookAtPoint": "",
        "OAFJBHJHLJG": ""
      },
      {
        "$type": "HDGKHDNFMIM",
        "type": "DIALOG_SELECT",
        "delayTime": 1.5,
        "aliasList": [
          "Avatar"
        ],
        "dialogIDList": [
          790211926
        ],
        "grpIDList": [
          1994251299
        ],
        "useGrpId": true
      },
      {
        "$type": "FABLGECDBCH",
        "type": "BODY_LANG",
        "delayTime": 3.2790000438690186,
        "aliasList": [
          "Avatar"
        ],
        "actionId": 230,
        "bodyLangParam": 4030,
        "forceDoFreeStyle": true,
        "canDoRepeatFreeStyle": false,
        "eventPatternSuiteKey": "",
        "FOHHKFAIAAJ": ""
      }
    ],
    [
      {
        "$type": "MoleMole.Config.ConfigLocalGadgetOP",
        "type": "LOCAL_GADGET_OP",
        "actionId": 184,
        "gadgetId": 70710743,
        "oprCode": 3,
        "slotName": "",
        "position": {
          "x": 375.57000732421875,
          "y": 120.0,
          "z": 131.1230010986328
        },
        "euler": {
          "y": -93.78099822998047
        },
        "gvKey": "is_talk",
        "gvValue": 1.0
      },
      {
        "$type": "FJKIHHKJLMJ",
        "type": "CAMERA_MOVE",
        "duration": 0.10000000149011612,
        "actionId": 161,
        "camPosOffset": {
          "x": 368.2590026855469,
          "y": 120.94499969482422,
          "z": 130.6269989013672
        },
        "camForwardTargetOffset": {
          "x": 369.2539978027344,
          "y": 120.87200164794922,
          "z": 130.6929931640625
        },
        "camFov": 20.0,
        "lerpPattern": 6,
        "cameraBlendType": "EaseInOutCubic",
        "NJBNNOMLKCK": {},
        "needZAxisRotate": true,
        "openCameraDither": false,
        "targetNpcAlias": "",
        "closeTreeLeafDither": true,
        "KJOEFBPOIIH": "",
        "IICFKKEBIEC": "",
        "EGEHEJEBLBJ": ""
      },
      {
        "$type": "PKKMAMONGEO",
        "type": "DIALOG",
        "aliasList": [
          "20729"
        ],
        "dialogID": 790211927,
        "protectTime": 0.5
      },
      {
        "$type": "CPJKOIHIPBE",
        "type": "EMO_SYNC",
        "aliasList": [
          "20729"
        ],
        "dataPath": "Cs_Emo_Avatar_Simple_Common_Set/Cs_Emo_Avatar_Talk/Cs_Emo_WorldQuest/Cs_Emo_IsLand_790/Cs_Emo_790211927",
        "phonemePath": "",
        "emotionPath": "",
        "mateDataPath": "",
        "matePhonemePath": "",
        "mateEmotionPath": "",
        "dataPathHashList": [
          3567272027505544275,
          12602258418844610787,
          9956188272772152522,
          9811812308948008895
        ],
        "FMDPBECPELH": "",
        "ADKBLPOKGIK": ""
      },
      {
        "$type": "CPJKOIHIPBE",
        "type": "EMO_SYNC",
        "aliasList": [
          "1005"
        ],
        "actionId": 262,
        "dataPath": "",
        "phonemePath": "Cs_Emo_Pet_Common/Cs_Emo_Paimon_None",
        "emotionPath": "Cs_Emo_Pet_Common/Cs_Emo_Paimon_Normal01",
        "mateDataPath": "",
        "matePhonemePath": "",
        "mateEmotionPath": "",
        "phonemePathHashList": [
          1796869206626684908,
          2049648015653630001,
          14015965774222061559,
          873259039409222856
        ],
        "emotionPathHashList": [
          312453201720762420,
          9562322946389574798,
          18422542724361145117,
          17949024460815132449
        ],
        "FMDPBECPELH": "",
        "ADKBLPOKGIK": ""
      },
      {
        "$type": "FJKIHHKJLMJ",
        "type": "CAMERA_MOVE",
        "delayTime": 0.050999999046325684,
        "duration": 5.191999912261963,
        "actionId": 161,
        "camPosOffset": {
          "x": 368.57598876953125,
          "y": 120.9219970703125,
          "z": 130.6479949951172
        },
        "camForwardTargetOffset": {
          "x": 369.5710144042969,
          "y": 120.8489990234375,
          "z": 130.71400451660156
        },
        "camFov": 20.0,
        "cameraBlendType": "EaseOutQuad",
        "NJBNNOMLKCK": {},
        "needZAxisRotate": true,
        "openCameraDither": false,
        "targetNpcAlias": "",
        "closeTreeLeafDither": true,
        "KJOEFBPOIIH": "",
        "IICFKKEBIEC": "",
        "EGEHEJEBLBJ": ""
      }
    ],
    [
      {
        "$type": "MoleMole.Config.ConfigSimpleBlackScreenAction",
        "type": "SIMPLE_BLACK_SCREEN",
        "durationToBlack": 0.5,
        "durationKeepBlack": 2.0,
        "durationFromBlack": 0.5,
        "textMapID": ""
      },
      {
        "$type": "MoleMole.Config.ConfigTimeProtectAction",
        "type": "TIME_PROTECT",
        "duration": 0.699999988079071
      },
      {
        "$type": "MoleMole.Config.ConfigLocalGadgetOP",
        "type": "LOCAL_GADGET_OP",
        "delayTime": 0.6000000238418579,
        "actionId": 184,
        "gadgetId": 70710743,
        "oprCode": 2,
        "slotName": "",
        "position": {
          "x": 375.57000732421875,
          "y": 120.0,
          "z": 131.1230010986328
        },
        "euler": {
          "y": -93.78099822998047
        },
        "gvKey": ""
      },
      {
        "$type": "FJKIHHKJLMJ",
        "type": "CAMERA_MOVE",
        "delayTime": 0.6000000238418579,
        "duration": 0.10000000149011612,
        "actionId": 161,
        "camPosOffset": {
          "x": 360.93798828125,
          "y": 122.12000274658203,
          "z": 129.19500732421875
        },
        "camForwardTargetOffset": {
          "x": 361.9020080566406,
          "y": 121.88500213623047,
          "z": 129.3209991455078
        },
        "lerpPattern": 6,
        "cameraBlendType": "EaseInOutCubic",
        "NJBNNOMLKCK": {},
        "needZAxisRotate": true,
        "openCameraDither": false,
        "targetNpcAlias": "",
        "closeTreeLeafDither": true,
        "KJOEFBPOIIH": "",
        "IICFKKEBIEC": "",
        "EGEHEJEBLBJ": ""
      },
      {
        "$type": "MoleMole.Config.ConfigVisibleInterAction",
        "type": "VISIBLE",
        "delayTime": 1.0,
        "isVisible": true,
        "_target": "VEHICLE_SKIFF",
        "_extraParam": ""
      }
    ]
  ],
  "groupId": [
    {
      "grpId": 895614677,
      "nextGrpId": 895614678
    },
    {
      "index": 1,
      "grpId": 895614678,
      "nextGrpId": 895614679
    },
    {
      "index": 2,
      "grpId": 895614679,
      "nextGrpId": 895614680
    },
    {
      "index": 3,
      "grpId": 895614680,
      "nextGrpId": 895614681
    },
    {
      "index": 4,
      "grpId": 895614681,
      "nextGrpId": 895614682
    },
    {
      "index": 5,
      "grpId": 895614682,
      "nextGrpId": 895614683
    },
    {
      "index": 6,
      "grpId": 895614683,
      "nextGrpId": 895614684
    },
    {
      "index": 7,
      "grpId": 895614684,
      "nextGrpId": 895614685
    },
    {
      "index": 8,
      "grpId": 895614685,
      "nextGrpId": 1994251259
    },
    {
      "index": 9,
      "grpId": 1994251259,
      "nextGrpId": 1994251260
    },
    {
      "index": 10,
      "grpId": 1994251260,
      "nextGrpId": 1994251261
    },
    {
      "index": 11,
      "grpId": 1994251261,
      "nextGrpId": 1994251262
    },
    {
      "index": 12,
      "grpId": 1994251262,
      "nextGrpId": 1994251263
    },
    {
      "index": 13,
      "grpId": 1994251263,
      "nextGrpId": 1994251264
    },
    {
      "index": 14,
      "grpId": 1994251264,
      "nextGrpId": 1994251265
    },
    {
      "index": 15,
      "grpId": 1994251265,
      "nextGrpId": 1994251266
    },
    {
      "index": 16,
      "grpId": 1994251266,
      "nextGrpId": 1994251267
    },
    {
      "index": 17,
      "grpId": 1994251267,
      "nextGrpId": 1994251268
    },
    {
      "index": 18,
      "grpId": 1994251268,
      "nextGrpId": 1994251290
    },
    {
      "index": 19,
      "grpId": 1994251290,
      "nextGrpId": 1994251291
    },
    {
      "index": 20,
      "grpId": 1994251291,
      "nextGrpId": 1994251292
    },
    {
      "index": 21,
      "grpId": 1994251292,
      "nextGrpId": 1994251293
    },
    {
      "index": 22,
      "grpId": 1994251293,
      "nextGrpId": 1994251294
    },
    {
      "index": 23,
      "grpId": 1994251294,
      "nextGrpId": 1994251295
    },
    {
      "index": 24,
      "grpId": 1994251295,
      "nextGrpId": 1994251296
    },
    {
      "index": 25,
      "grpId": 1994251296,
      "nextGrpId": 1994251297
    },
    {
      "index": 26,
      "grpId": 1994251297,
      "nextGrpId": 1994251298
    },
    {
      "index": 27,
      "grpId": 1994251298,
      "nextGrpId": 1994251299
    },
    {
      "index": 28,
      "grpId": 1994251299,
      "nextGrpId": 1994251321
    },
    {
      "index": 29,
      "grpId": 1994251321,
      "nextGrpId": 1994251322
    }
  ]
}