[
  {
    "npcId": 307362,
    "KAGOGNOLOJI": {
      "x": 49.0,
      "z": 5295.7314453125
    }
  },
  {
    "npcId": 14255,
    "KAGOGNOLOJI": {
      "x": -1.0340000478160234e-25
    }
  },
  {
    "KAGOGNOLOJI": {
      "y": 3.717418806500793e-35
    }
  },
  {
    "npcId": 304281,
    "KAGOGNOLOJI": {
      "x": 49.62176513671875,
      "z": 5340.32958984375
    }
  },
  {
    "npcId": 87,
    "KAGOGNOLOJI": {
      "y": -8.8438206229465e+20
    }
  },
  {
    "KAGOGNOLOJI": {
      "y": 5340.3681640625
    }
  },
  {
    "npcId": 14255,
    "KAGOGNOLOJI": {
      "x": 42100.76953125
    }
  },
  {
    "KAGOGNOLOJI": {
      "z": 1.4869566171351485e-34
    }
  },
  {
    "npcId": 117,
    "KAGOGNOLOJI": {
      "x": 0.0251473281532526
    }
  },
  {
    "KAGOGNOLOJI": {
      "x": 1.4869282629257097e-34,
      "z": -2350.10205078125
    }
  },
  {
    "KAGOGNOLOJI": {
      "x": 3.626450976422151e+37
    }
  },
  {
    "npcId": 69
  },
  {
    "npcId": 95,
    "KAGOGNOLOJI": {}
  },
  {
    "KAGOGNOLOJI": {
      "x": 49.71792984008789,
      "z": 5329.9560546875
    }
  }
]