[
  {
    "BOEDGBKEFNH": {},
    "rotation": {
      "y": 7.067028415282917e-41,
      "z": 2.6144000626095e+36
    }
  },
  {},
  {
    "BOEDGBKEFNH": {
      "x": -1999.585205078125,
      "y": 15.0,
      "z": 5566.86328125
    }
  },
  {},
  {
    "BOEDGBKEFNH": {},
    "rotation": {}
  },
  {
    "BOEDGBKEFNH": {
      "z": -23.623815536499023
    }
  },
  {
    "BOEDGBKEFNH": {
      "y": 37183331237888.0,
      "z": 3.583348617830495e-10
    }
  },
  {
    "BOEDGBKEFNH": {
      "z": -9.957091574863686e-12
    },
    "rotation": {
      "x": 1.234901418308413e-38,
      "z": -1.0424572180454204e-35
    }
  },
  {},
  {
    "BOEDGBKEFNH": {
      "x": 1.7483516353804232e-24,
      "y": 1.7743327661549158e+18
    },
    "rotation": {
      "x": -2.577547901142261e-21,
      "y": -2.1136274337768555,
      "z": 6930757050171392.0
    }
  },
  {
    "BOEDGBKEFNH": {
      "x": -4.317630020872487e-12
    },
    "rotation": {
      "x": -2.50285073158346e+35,
      "z": -1.0152001795622378e-30
    }
  },
  {
    "BOEDGBKEFNH": {
      "z": 1.487149930854561e-34
    }
  },
  {
    "rotation": {
      "y": -4.793743735298506e-10
    }
  },
  {
    "BOEDGBKEFNH": {
      "x": 5562.90576171875
    },
    "rotation": {
      "x": -2024.1219482421875,
      "y": -8.907830238342285,
      "z": 5566.86328125
    }
  }
]