[
  {
    "time": 2175.07421875,
    "value": -1000.0,
    "inTangent": -1893.765380859375
  },
  {
    "time": 2567.4375,
    "value": 1000.0,
    "inTangent": -1599.881591796875
  },
  {
    "time": 1.2436150590045636e-21,
    "value": -5.932467962611269e-30,
    "outTangent": -3.0588693088459385e+25
  },
  {
    "inTangent": 2.0921722844469168e-19
  },
  {
    "time": 283.7549743652344,
    "inTangent": -1824.01416015625
  },
  {
    "time": 2504.68408203125,
    "value": 303.3188171386719,
    "inTangent": -1715.503173828125
  },
  {
    "time": 2447.89892578125,
    "value": 327.74017333984375,
    "inTangent": -1648.6063232421875
  },
  {
    "time": 2364.4580078125,
    "value": 305.9112243652344,
    "inTangent": -1599.881591796875
  },
  {
    "time": 2277.025146484375,
    "value": 298.4869689941406,
    "inTangent": -1611.7828369140625
  },
  {
    "time": 2212.5673828125,
    "value": 266.9603576660156,
    "inTangent": -1634.99462890625
  },
  {
    "time": 2175.07421875,
    "value": 271.0580139160156,
    "inTangent": -1680.517333984375
  },
  {
    "time": 2187.8369140625,
    "value": 277.9552917480469,
    "inTangent": -1802.80126953125
  },
  {
    "time": 2297.071044921875,
    "value": 285.88848876953125,
    "inTangent": -1892.5699462890625
  },
  {
    "time": 2443.450927734375,
    "value": 300.84405517578125,
    "inTangent": -1893.765380859375
  }
]