{
  "1": {
    "EHHLKOFMEGA": 1333.345458984375,
    "HHDBEKAMBGC": 275.0,
    "NBENNEKDIIA": 3874.22412109375
  },
  "-4": {},
  "0": {
    "HHDBEKAMBGC": -4.887695412401818e-38
  },
  "-35": {
    "EHHLKOFMEGA": 1555.762939453125,
    "HHDBEKAMBGC": 335.6217956542969,
    "NBENNEKDIIA": 4053.008056640625
  },
  "34": {
    "EHHLKOFMEGA": 2.4146196214478064e-30
  },
  "-565315": {
    "EHHLKOFMEGA": 1801.942626953125,
    "HHDBEKAMBGC": 455.60321044921875,
    "NBENNEKDIIA": 4103.408203125
  },
  "551978": {
    "HHDBEKAMBGC": 1.4854174542195405e-34,
    "NBENNEKDIIA": 1725.055908203125
  },
  "8": {},
  "4315": {
    "HHDBEKAMBGC": 1.4854217016112378e-34
  },
  "-48": {},
  "4391": {
    "HHDBEKAMBGC": -2.422672419829631e+29
  },
  "-40": {
    "HHDBEKAMBGC": 4750889348759552.0,
    "NBENNEKDIIA": 0.09925232827663422
  },
  "4316": {
    "HHDBEKAMBGC": 1.4856145561531696e-34
  },
  "75": {
    "EHHLKOFMEGA": -5.10833524458576e-06
  },
  "-34": {
    "EHHLKOFMEGA": 1.4857703321135276e-34
  },
  "-5282": {
    "EHHLKOFMEGA": -1.0376557391111874e-09,
    "NBENNEKDIIA": 5.616971852291987e+36
  },
  "-561055": {
    "EHHLKOFMEGA": -3.6090195155633863e+21,
    "HHDBEKAMBGC": 1.4857622965076138e-34,
    "NBENNEKDIIA": 1503.661865234375
  },
  "70550248": {
    "HHDBEKAMBGC": 1.4857692989641958e-34,
    "NBENNEKDIIA": 1475.0792236328125
  },
  "70531023": {
    "EHHLKOFMEGA": 1.4857780233363308e-34,
    "HHDBEKAMBGC": 1442.1666259765625,
    "NBENNEKDIIA": 317.0434875488281
  },
  "-26": {
    "EHHLKOFMEGA": 1.798066034978126e+38,
    "NBENNEKDIIA": 1.4513188695073383e+22
  },
  "-62": {
    "EHHLKOFMEGA": 1.5014632771897333e+38,
    "HHDBEKAMBGC": 5.447639238777643e+29
  },
  "-4375": {},
  "550482": {
    "EHHLKOFMEGA": 1.4857905359226824e-34,
    "HHDBEKAMBGC": 1365.125244140625,
    "NBENNEKDIIA": 300.9007873535156
  },
  "1033339": {
    "EHHLKOFMEGA": -1.6371030982123384e-14,
    "NBENNEKDIIA": -1.0046590443736683e-26
  },
  "-47": {},
  "4371": {},
  "-551555": {
    "NBENNEKDIIA": 3.6273199294402906e-38
  }
}