{
  "HHCKBCLMKNK": {
    "832518": 128.0030059814453,
    "67": 5708.939453125,
    "7": -2820.831298828125,
    "0": 3.964735708538816e+33,
    "44": 9.951060183164725e-35,
    "15429": 1877121280.0,
    "76": -1.391754693713665e-07
  },
  "LJOHBAFJNCO": {
    "792760": 29119370.0,
    "67": 5708.939453125,
    "7": -2820.831298828125,
    "81": 9.6283068371898e-30,
    "107": -2.5441882006588e-35,
    "6504": 428662.15625
  }
}