[
  {
    "duration": -2471.824462890625,
    "ICKMNFKCMLC": -100.0,
    "PIIFCHEAFHG": 5649.26123046875
  },
  {
    "duration": -2302.441650390625,
    "ICKMNFKCMLC": 70.0,
    "PIIFCHEAFHG": 5835.88427734375
  },
  {
    "PIIFCHEAFHG": 5.513446981164738e-25,
    "DEMHFCAMFNO": {
      "x": -18.878698348999023,
      "z": 5649.26123046875
    }
  },
  {
    "duration": -2440.011474609375,
    "ICKMNFKCMLC": 40.93556594848633,
    "PIIFCHEAFHG": 5663.0595703125
  },
  {
    "duration": -2464.89501953125,
    "ICKMNFKCMLC": 33.15908432006836,
    "PIIFCHEAFHG": 5694.7216796875
  },
  {
    "duration": -2471.824462890625,
    "ICKMNFKCMLC": 12.488533020019531,
    "PIIFCHEAFHG": 5740.71875
  },
  {
    "duration": -2442.013916015625,
    "ICKMNFKCMLC": 0.6249637603759766,
    "PIIFCHEAFHG": 5811.94677734375
  },
  {
    "duration": -2399.345458984375,
    "ICKMNFKCMLC": -0.5915379524230957,
    "PIIFCHEAFHG": 5835.88427734375
  },
  {
    "duration": -2376.79638671875,
    "ICKMNFKCMLC": 7.737306594848633,
    "PIIFCHEAFHG": 5818.76416015625
  },
  {
    "duration": -2343.672607421875,
    "ICKMNFKCMLC": 19.55971908569336,
    "PIIFCHEAFHG": 5762.54443359375
  },
  {
    "duration": -2321.846435546875,
    "ICKMNFKCMLC": 17.14691925048828,
    "PIIFCHEAFHG": 5757.83984375
  },
  {
    "duration": -2302.441650390625,
    "ICKMNFKCMLC": 19.814678192138672,
    "PIIFCHEAFHG": 5689.8984375
  },
  {
    "duration": -2318.98681640625,
    "ICKMNFKCMLC": 10.274391174316406,
    "PIIFCHEAFHG": 5683.89892578125
  },
  {
    "duration": -2338.419189453125,
    "ICKMNFKCMLC": 3.6863021850585938,
    "PIIFCHEAFHG": 5665.013671875
  }
]