[
  {
    "duration": -2263.956298828125,
    "ICKMNFKCMLC": -100.0,
    "PIIFCHEAFHG": 5219.474609375
  },
  {
    "duration": -2187.392822265625,
    "ICKMNFKCMLC": 40.0,
    "PIIFCHEAFHG": 5284.6416015625
  },
  {
    "PIIFCHEAFHG": 1.097089520470914e-33,
    "DEMHFCAMFNO": {
      "x": -7.61651611328125,
      "z": 5261.03076171875
    }
  },
  {
    "duration": -2188.863037109375,
    "ICKMNFKCMLC": -7.244198322296143,
    "PIIFCHEAFHG": 5253.0703125
  },
  {
    "duration": -2198.34619140625,
    "ICKMNFKCMLC": -5.705663681030273,
    "PIIFCHEAFHG": 5253.408203125
  },
  {
    "duration": -2202.9208984375,
    "ICKMNFKCMLC": -5.889049530029297,
    "PIIFCHEAFHG": 5247.90234375
  },
  {
    "duration": -2211.10205078125,
    "ICKMNFKCMLC": -5.33731746673584,
    "PIIFCHEAFHG": 5240.73876953125
  },
  {
    "duration": -2232.341552734375,
    "ICKMNFKCMLC": -4.8866777420043945,
    "PIIFCHEAFHG": 5219.474609375
  },
  {
    "duration": -2250.8984375,
    "ICKMNFKCMLC": -0.1400766372680664,
    "PIIFCHEAFHG": 5241.46240234375
  },
  {
    "duration": -2263.956298828125,
    "ICKMNFKCMLC": -5.548457622528076,
    "PIIFCHEAFHG": 5272.2998046875
  },
  {
    "duration": -2244.33837890625,
    "ICKMNFKCMLC": 14.735109329223633,
    "PIIFCHEAFHG": 5284.6416015625
  },
  {
    "duration": -2217.8134765625,
    "ICKMNFKCMLC": 2.064871311187744,
    "PIIFCHEAFHG": 5279.3828125
  },
  {
    "duration": -2197.0361328125,
    "ICKMNFKCMLC": -6.4162278175354,
    "PIIFCHEAFHG": 5272.544921875
  },
  {
    "duration": -2192.867431640625,
    "ICKMNFKCMLC": -6.782731533050537,
    "PIIFCHEAFHG": 5265.251953125
  }
]