[
  {
    "time": -2739.293212890625,
    "value": -80.0,
    "inTangent": 5356.73291015625
  },
  {
    "time": -2619.812255859375,
    "value": 100.0,
    "inTangent": 5421.9462890625
  },
  {
    "time": 9.973798554359283e-15,
    "value": 1.219831839246976e+33,
    "outTangent": -4.641578598254051e-14
  },
  {
    "time": 8.170822328163027e-16,
    "inTangent": 2.4567991490126005e+30
  },
  {
    "value": 5414.13720703125
  },
  {
    "time": -2634.5,
    "value": -58.896602630615234,
    "inTangent": 5398.91162109375
  },
  {
    "time": -2619.812255859375,
    "value": -62.25495529174805,
    "inTangent": 5379.6875
  },
  {
    "time": -2644.980224609375,
    "value": -71.27584838867188,
    "inTangent": 5356.73291015625
  },
  {
    "time": -2661.581298828125,
    "value": -72.10287475585938,
    "inTangent": 5368.80322265625
  },
  {
    "time": -2680.614501953125,
    "value": -67.86490631103516,
    "inTangent": 5375.83203125
  },
  {
    "time": -2697.16357421875,
    "value": -61.27796173095703,
    "inTangent": 5369.19873046875
  },
  {
    "time": -2717.1015625,
    "value": -56.624515533447266,
    "inTangent": 5362.00048828125
  },
  {
    "time": -2739.293212890625,
    "value": -49.12627029418945,
    "inTangent": 5395.45068359375
  },
  {
    "time": -2726.5458984375,
    "value": -65.80023193359375,
    "inTangent": 5421.9462890625
  }
]