[
  {
    "BOEDGBKEFNH": {
      "y": 1.8106396060101396e-38
    },
    "rotation": {},
    "size": {}
  },
  {
    "BOEDGBKEFNH": {
      "x": 1.4869124213026224e-34,
      "z": -2622.16015625
    }
  },
  {},
  {},
  {},
  {
    "rotation": {
      "x": 2.3791375669139455e-33
    }
  },
  {
    "BOEDGBKEFNH": {
      "x": 3.1104950641357227e-28,
      "z": 4.511916884553102e-08
    },
    "rotation": {},
    "size": {
      "x": -65550.5390625,
      "z": 31330.576171875
    }
  },
  {
    "size": {
      "x": 5280.31884765625
    }
  },
  {
    "BOEDGBKEFNH": {
      "y": 26462527488.0
    },
    "rotation": {
      "x": 6.417262229102713e-18
    },
    "size": {
      "x": -5.518747414612335e-08,
      "z": -35640213504.0
    }
  },
  {
    "BOEDGBKEFNH": {
      "x": 5315.27197265625
    }
  },
  {
    "BOEDGBKEFNH": {
      "x": 3.185165927640512e-25,
      "z": 3.1260026117140594e+34
    },
    "rotation": {
      "z": -541.0882568359375
    },
    "size": {}
  },
  {
    "BOEDGBKEFNH": {
      "x": -5.797328948974609,
      "z": 5333.13720703125
    },
    "size": {
      "x": -2632.7841796875,
      "y": 5.864652633666992,
      "z": 5331.76708984375
    }
  },
  {
    "BOEDGBKEFNH": {},
    "rotation": {
      "y": 7.969940997204125e+23
    },
    "size": {
      "x": -2.0386136188121304e-16,
      "y": 1.7270331427333685e-23,
      "z": -401.5401916503906
    }
  },
  {
    "rotation": {
      "x": 5286.638671875
    }
  }
]