[
  {
    "time": -1592.631591796875,
    "value": -1000.0,
    "inTangent": 4981.39599609375
  },
  {
    "time": -1503.3292236328125,
    "value": 150.0,
    "inTangent": 5129.5400390625
  },
  {
    "time": -0.34610769152641296,
    "value": 3.0819606665244113e+34,
    "outTangent": -2.6540740227585285e-21
  },
  {
    "time": -0.015163666568696499,
    "inTangent": 6.983592963893677e+19
  },
  {
    "value": 5043.7109375
  },
  {
    "time": -1503.3292236328125,
    "value": 46.44891357421875,
    "inTangent": 5063.74169921875
  },
  {
    "time": -1513.8358154296875,
    "value": 43.740455627441406,
    "inTangent": 5107.490234375
  },
  {
    "time": -1522.8681640625,
    "value": 29.548179626464844,
    "inTangent": 5115.07568359375
  },
  {
    "time": -1592.631591796875,
    "value": 40.272674560546875,
    "inTangent": 5129.5400390625
  },
  {
    "time": -1569.6160888671875,
    "value": 53.82392883300781,
    "inTangent": 5071.470703125
  },
  {
    "time": -1567.0738525390625,
    "value": 39.635196685791016,
    "inTangent": 5052.22314453125
  },
  {
    "time": -1548.611572265625,
    "value": 60.017127990722656,
    "inTangent": 5004.24755859375
  },
  {
    "time": -1534.3905029296875,
    "value": 63.17259216308594,
    "inTangent": 4981.39599609375
  },
  {
    "time": -1510.4788818359375,
    "value": 61.719146728515625,
    "inTangent": 4994.8505859375
  }
]