{
  "luaDataPath": "",
  "dontUseDefaultFinish": true,
  "entityBan": "",
  "disableNpcLod": true,
  "isAutoBanNpc": true,
  "isBanWidgetPet": true,
  "protectNpcMobileLod": true,
  "talkFlag": 7,
  "startFade": {
    "startFadeOutDuration": 0.0
  },
  "endFade": {
    "startFadeOutDuration": 0.0
  },
  "actors": [
    {
      "alias": "Avatar",
      "visible": true,
      "bornPointName": "[20207_2:511.432,15.278,538.784,0.000,211.859,0.000]",
      "relativePosType": "AVATAR_NEW",
      "relativePosNpcAlias": "",
      "_bindMovingTargetKey": ""
    },
    {
      "alias": "AvatarNpc",
      "visible": true,
      "bornPointName": "[20207_2:511.432,15.278,538.784,0.000,211.859,0.000]",
      "removeActorType": "NEW_REMOVE",
      "relativePosType": "AVATAR_NEW",
      "relativePosNpcAlias": "",
      "_notDestroyInTalk": true,
      "_bindMovingTargetKey": ""
    },
    {
      "configID": 21094,
      "alias": "21094",
      "visible": true,
      "bornPointName": "[20207_3:512.816,15.278,537.631,0.000,246.798,0.000]",
      "relativePosType": "AVATAR_NEW",
      "relativePosNpcAlias": "",
      "_bindMovingTargetKey": ""
    },
    {
      "configID": 21307,
      "alias": "21307",
      "visible": true,
      "bornPointName": "[20207_4:506.290,15.278,529.914,0.000,31.038,0.000]",
      "relativePosType": "AVATAR_NEW",
      "relativePosNpcAlias": "",
      "_bindMovingTargetKey": ""
    },
    {
      "configID": 2501,
      "alias": "2501",
      "visible": true,
      "bornPointName": "[20207_5:513.421,15.278,530.428]",
      "forceCreateDaily": true,
      "relativePosType": "AVATAR_NEW",
      "relativePosNpcAlias": "",
      "_bindMovingTargetKey": ""
    },
    {
      "configID": 1005,
      "alias": "1005",
      "visible": true,
      "bornPointName": "",
      "useRelativePos": true,
      "relativePos": {
        "x": 0.6000000238418579,
        "y": 0.6000000238418579,
        "z": 0.6000000238418579
      },
      "removeActorType": "NEW_REMOVE_WITH_DISAPPEAR",
      "relativePosType": "AVATAR_NEW",
      "relativePosNpcAlias": "",
      "_bindMovingTargetKey": ""
    }
  ],
  "group": [
    [
      {
        "$type": "MoleMole.Config.ConfigTimeProtectAction",
        "type": "TIME_PROTECT",
        "duration": 0.10000000149011612,
        "actionId": 104
      },
      {
        "$type": "MoleMole.Config.ConfigSitOrStandAction",
        "type": "SIT_OR_STAND",
        "aliasList": [
          "Avatar"
        ],
        "actionId": 205,
        "_flag": 8192,
        "banResetFreestyle": true
      },
      {
        "$type": "MoleMole.Config.ConfigPlayerNPCEnergyTypeAction",
        "type": "SET_PLAYER_NPC_ENERGY_TYPE",
        "aliasList": [
          "AvatarNpc"
        ],
        "actionId": 206,
        "setHeroEngergyType": true
      },
      {
        "$type": "FABLGECDBCH",
        "type": "BODY_LANG",
        "aliasList": [
          "AvatarNpc"
        ],
        "actionId": 209,
        "isContinue": true,
        "forceDoFreeStyle": true,
        "canDoRepeatFreeStyle": false,
        "eventPatternSuiteKey": "",
        "FOHHKFAIAAJ": ""
      },
      {
        "$type": "FABLGECDBCH",
        "type": "BODY_LANG",
        "aliasList": [
          "21094"
        ],
        "actionId": 193,
        "isContinue": true,
        "forceDoFreeStyle": true,
        "canDoRepeatFreeStyle": false,
        "eventPatternSuiteKey": "",
        "FOHHKFAIAAJ": ""
      },
      {
        "$type": "FABLGECDBCH",
        "type": "BODY_LANG",
        "aliasList": [
          "21307"
        ],
        "actionId": 195,
        "isContinue": true,
        "forceDoFreeStyle": true,
        "canDoRepeatFreeStyle": false,
        "eventPatternSuiteKey": "",
        "FOHHKFAIAAJ": ""
      },
      {
        "$type": "FABLGECDBCH",
        "type": "BODY_LANG",
        "aliasList": [
          "2501"
        ],
        "actionId": 197,
        "isContinue": true,
        "forceDoFreeStyle": true,
        "canDoRepeatFreeStyle": false,
        "eventPatternSuiteKey": "",
        "FOHHKFAIAAJ": ""
      },
      {
        "$type": "FABLGECDBCH",
        "type": "BODY_LANG",
        "aliasList": [
          "1005"
        ],
        "actionId": 199,
        "isContinue": true,
        "forceDoFreeStyle": true,
        "canDoRepeatFreeStyle": false,
        "eventPatternSuiteKey": "",
        "FOHHKFAIAAJ": ""
      }
    ],
    [
      {
        "$type": "PKKMAMONGEO",
        "type": "DIALOG",
        "aliasList": [
          "21307"
        ],
        "actionId": 107,
        "dialogID": 711006101,
        "protectTime": 0.5
      }
    ],
    [
      {
        "$type": "PKKMAMONGEO",
        "type": "DIALOG",
        "aliasList": [
          "2501"
        ],
        "actionId": 109,
        "dialogID": 711006102,
        "protectTime": 0.5
      }
    ],
    [
      {
        "$type": "PKKMAMONGEO",
        "type": "DIALOG",
        "aliasList": [
          "21094"
        ],
        "actionId": 111,
        "dialogID": 711006103,
        "protectTime": 0.5
      }
    ],
    [
      {
        "$type": "PKKMAMONGEO",
        "type": "DIALOG",
        "aliasList": [
          "21307"
        ],
        "actionId": 113,
        "dialogID": 711006104,
        "protectTime": 0.5
      }
    ],
    [
      {
        "$type": "PKKMAMONGEO",
        "type": "DIALOG",
        "aliasList": [
          "21307"
        ],
        "actionId": 115,
        "dialogID": 711006105,
        "protectTime": 0.5
      }
    ],
    [
      {
        "$type": "PKKMAMONGEO",
        "type": "DIALOG",
        "aliasList": [
          "21094"
        ],
        "actionId": 117,
        "dialogID": 711006106,
        "protectTime": 0.5
      }
    ],
    [
      {
        "$type": "PKKMAMONGEO",
        "type": "DIALOG",
        "aliasList": [
          "21307"
        ],
        "actionId": 119,
        "dialogID": 711006107,
        "protectTime": 0.5
      }
    ],
    [
      {
        "$type": "PKKMAMONGEO",
        "type": "DIALOG",
        "aliasList": [
          "21094"
        ],
        "actionId": 121,
        "dialogID": 711006108,
        "protectTime": 0.5
      }
    ],
    [
      {
        "$type": "PKKMAMONGEO",
        "type": "DIALOG",
        "aliasList": [
          "21094"
        ],
        "actionId": 123,
        "dialogID": 711006109,
        "protectTime": 0.5
      }
    ],
    [
      {
        "$type": "PKKMAMONGEO",
        "type": "DIALOG",
        "aliasList": [
          "21094"
        ],
        "actionId": 125,
        "dialogID": 711006110,
        "protectTime": 0.5
      }
    ],
    [
      {
        "$type": "PKKMAMONGEO",
        "type": "DIALOG",
        "aliasList": [
          "21094"
        ],
        "actionId": 127,
        "dialogID": 711006111,
        "protectTime": 0.5
      }
    ],
    [
      {
        "$type": "PKKMAMONGEO",
        "type": "DIALOG",
        "aliasList": [
          "21094"
        ],
        "actionId": 129,
        "dialogID": 711006112,
        "protectTime": 0.5
      }
    ],
    [
      {
        "$type": "PKKMAMONGEO",
        "type": "DIALOG",
        "aliasList": [
          "21094"
        ],
        "actionId": 131,
        "dialogID": 711006113,
        "protectTime": 0.5
      }
    ],
    [
      {
        "$type": "PKKMAMONGEO",
        "type": "DIALOG",
        "aliasList": [
          "21094"
        ],
        "actionId": 133,
        "dialogID": 711006114,
        "protectTime": 0.5
      }
    ],
    [
      {
        "$type": "PKKMAMONGEO",
        "type": "DIALOG",
        "aliasList": [
          "21094"
        ],
        "actionId": 135,
        "dialogID": 711006115,
        "protectTime": 0.5
      },
      {
        "$type": "HDGKHDNFMIM",
        "type": "DIALOG_SELECT",
        "delayTime": 0.4000000059604645,
        "aliasList": [
          "AvatarNpc"
        ],
        "actionId": 202,
        "dialogIDList": [
          711006116,
          711006117
        ],
        "grpIDList": [
          423156908,
          423156908
        ],
        "useGrpId": true,
        "countDownGrpId": 2091860202
      }
    ],
    [
      {
        "$type": "PKKMAMONGEO",
        "type": "DIALOG",
        "aliasList": [
          "21094"
        ],
        "actionId": 138,
        "dialogID": 711006118,
        "protectTime": 0.5
      }
    ],
    [
      {
        "$type": "PKKMAMONGEO",
        "type": "DIALOG",
        "aliasList": [
          "21094"
        ],
        "actionId": 140,
        "dialogID": 711006119,
        "protectTime": 0.5
      }
    ],
    [
      {
        "$type": "PKKMAMONGEO",
        "type": "DIALOG",
        "aliasList": [
          "21094"
        ],
        "actionId": 142,
        "dialogID": 711006120,
        "protectTime": 0.5
      }
    ],
    [
      {
        "$type": "PKKMAMONGEO",
        "type": "DIALOG",
        "aliasList": [
          "21094"
        ],
        "actionId": 144,
        "dialogID": 711006121,
        "protectTime": 0.5
      }
    ],
    [
      {
        "$type": "PKKMAMONGEO",
        "type": "DIALOG",
        "aliasList": [
          "21094"
        ],
        "actionId": 146,
        "dialogID": 711006122,
        "protectTime": 0.5
      }
    ],
    [
      {
        "$type": "PKKMAMONGEO",
        "type": "DIALOG",
        "aliasList": [
          "21094"
        ],
        "actionId": 148,
        "dialogID": 711006123,
        "protectTime": 0.5
      }
    ],
    [
      {
        "$type": "PKKMAMONGEO",
        "type": "DIALOG",
        "aliasList": [
          "21094"
        ],
        "actionId": 150,
        "dialogID": 711006124,
        "protectTime": 0.5
      }
    ],
    [
      {
        "$type": "PKKMAMONGEO",
        "type": "DIALOG",
        "aliasList": [
          "21307"
        ],
        "actionId": 152,
        "dialogID": 711006125,
        "protectTime": 0.5
      }
    ],
    [
      {
        "$type": "PKKMAMONGEO",
        "type": "DIALOG",
        "aliasList": [
          "21094"
        ],
        "actionId": 154,
        "dialogID": 711006126,
        "protectTime": 0.5
      }
    ],
    [
      {
        "$type": "PKKMAMONGEO",
        "type": "DIALOG",
        "aliasList": [
          "21094"
        ],
        "actionId": 156,
        "dialogID": 711006127,
        "protectTime": 0.5
      }
    ],
    [
      {
        "$type": "PKKMAMONGEO",
        "type": "DIALOG",
        "aliasList": [
          "21307"
        ],
        "actionId": 158,
        "dialogID": 711006128,
        "protectTime": 0.5
      }
    ],
    [
      {
        "$type": "PKKMAMONGEO",
        "type": "DIALOG",
        "aliasList": [
          "21094"
        ],
        "actionId": 160,
        "dialogID": 711006129,
        "protectTime": 0.5
      }
    ],
    [
      {
        "$type": "PKKMAMONGEO",
        "type": "DIALOG",
        "aliasList": [
          "2501"
        ],
        "actionId": 162,
        "dialogID": 711006130,
        "protectTime": 0.5
      }
    ],
    [
      {
        "$type": "PKKMAMONGEO",
        "type": "DIALOG",
        "aliasList": [
          "1005"
        ],
        "actionId": 164,
        "dialogID": 711006131,
        "protectTime": 0.5
      }
    ],
    [
      {
        "$type": "PKKMAMONGEO",
        "type": "DIALOG",
        "aliasList": [
          "21094"
        ],
        "actionId": 166,
        "dialogID": 711006132,
        "protectTime": 0.5
      }
    ],
    [
      {
        "$type": "PKKMAMONGEO",
        "type": "DIALOG",
        "aliasList": [
          "21094"
        ],
        "actionId": 168,
        "dialogID": 711006133,
        "protectTime": 0.5
      }
    ],
    [
      {
        "$type": "PKKMAMONGEO",
        "type": "DIALOG",
        "aliasList": [
          "21094"
        ],
        "actionId": 170,
        "dialogID": 711006134,
        "protectTime": 0.5
      },
      {
        "$type": "HDGKHDNFMIM",
        "type": "DIALOG_SELECT",
        "delayTime": 0.4000000059604645,
        "aliasList": [
          "AvatarNpc"
        ],
        "actionId": 203,
        "dialogIDList": [
          711006135
        ],
        "grpIDList": [
          423156967
        ],
        "useGrpId": true,
        "countDownGrpId": 2091860202
      }
    ],
    [
      {
        "$type": "PKKMAMONGEO",
        "type": "DIALOG",
        "aliasList": [
          "21094"
        ],
        "actionId": 173,
        "dialogID": 711006136,
        "protectTime": 0.5
      }
    ],
    [
      {
        "$type": "PKKMAMONGEO",
        "type": "DIALOG",
        "aliasList": [
          "21094"
        ],
        "actionId": 175,
        "dialogID": 711006137,
        "protectTime": 0.5
      }
    ],
    [
      {
        "$type": "PKKMAMONGEO",
        "type": "DIALOG",
        "aliasList": [
          "21307"
        ],
        "actionId": 177,
        "dialogID": 711006138,
        "protectTime": 0.5
      }
    ],
    [
      {
        "$type": "PKKMAMONGEO",
        "type": "DIALOG",
        "aliasList": [
          "21094"
        ],
        "actionId": 179,
        "dialogID": 711006139,
        "protectTime": 0.5
      }
    ],
    [
      {
        "$type": "PKKMAMONGEO",
        "type": "DIALOG",
        "aliasList": [
          "2501"
        ],
        "actionId": 181,
        "dialogID": 711006140,
        "protectTime": 0.5
      }
    ],
    [
      {
        "$type": "PKKMAMONGEO",
        "type": "DIALOG",
        "aliasList": [
          "21094"
        ],
        "actionId": 183,
        "dialogID": 711006141,
        "protectTime": 0.5
      }
    ],
    [
      {
        "$type": "PKKMAMONGEO",
        "type": "DIALOG",
        "aliasList": [
          "1005"
        ],
        "actionId": 185,
        "dialogID": 711006142,
        "protectTime": 0.5
      }
    ],
    [
      {
        "$type": "PKKMAMONGEO",
        "type": "DIALOG",
        "aliasList": [
          "21094"
        ],
        "actionId": 187,
        "dialogID": 711006143,
        "protectTime": 0.5
      },
      {
        "$type": "HDGKHDNFMIM",
        "type": "DIALOG_SELECT",
        "delayTime": 0.4000000059604645,
        "aliasList": [
          "AvatarNpc"
        ],
        "actionId": 204,
        "dialogIDList": [
          711006144
        ],
        "grpIDList": [
          423156996
        ],
        "useGrpId": true,
        "countDownGrpId": 2091860202
      }
    ],
    [
      {
        "$type": "PKKMAMONGEO",
        "type": "DIALOG",
        "aliasList": [
          "21094"
        ],
        "actionId": 190,
        "dialogID": 711006145,
        "protectTime": 0.5
      }
    ],
    [
      {
        "$type": "MoleMole.Config.ConfigTimeProtectAction",
        "type": "TIME_PROTECT",
        "duration": 0.10000000149011612,
        "actionId": 105
      },
      {
        "$type": "MoleMole.Config.ConfigSimpleBlackScreenAction",
        "type": "SIMPLE_BLACK_SCREEN",
        "actionId": 191,
        "durationToBlack": 0.5,
        "durationKeepBlack": 1.5,
        "durationFromBlack": 0.5,
        "textMapID": ""
      },
      {
        "$type": "MoleMole.Config.ConfigTimeProtectAction",
        "type": "TIME_PROTECT",
        "duration": 0.699999988079071,
        "actionId": 192
      },
      {
        "$type": "FJKIHHKJLMJ",
        "type": "CAMERA_MOVE",
        "delayTime": 0.5,
        "duration": 0.10000000149011612,
        "actionId": 201,
        "cameraPosType": "EXIT",
        "camForwardTargetOffset": {
          "z": 1.0
        },
        "camFov": 30.0,
        "lerpPattern": 5,
        "cameraBlendType": "EaseInOutCubic",
        "NJBNNOMLKCK": {},
        "openCameraDither": false,
        "targetNpcAlias": "",
        "closeTreeLeafDither": true,
        "KJOEFBPOIIH": "",
        "IICFKKEBIEC": "",
        "EGEHEJEBLBJ": ""
      },
      {
        "$type": "MoleMole.Config.ConfigVisibleInterAction",
        "type": "VISIBLE",
        "delayTime": 0.6000000238418579,
        "aliasList": [
          "Avatar"
        ],
        "actionId": 208,
        "isVisible": true,
        "_extraParam": ""
      },
      {
        "$type": "MoleMole.Config.ConfigVisibleInterAction",
        "type": "VISIBLE",
        "delayTime": 0.6000000238418579,
        "aliasList": [
          "AvatarNpc"
        ],
        "actionId": 207,
        "_extraParam": ""
      },
      {
        "$type": "FABLGECDBCH",
        "type": "BODY_LANG",
        "delayTime": 0.6000000238418579,
        "aliasList": [
          "AvatarNpc"
        ],
        "actionId": 210,
        "isContinue": true,
        "forceDoFreeStyle": true,
        "canDoRepeatFreeStyle": false,
        "eventPatternSuiteKey": "",
        "FOHHKFAIAAJ": ""
      },
      {
        "$type": "FABLGECDBCH",
        "type": "BODY_LANG",
        "delayTime": 0.6000000238418579,
        "aliasList": [
          "21094"
        ],
        "actionId": 194,
        "isContinue": true,
        "forceDoFreeStyle": true,
        "canDoRepeatFreeStyle": false,
        "eventPatternSuiteKey": "",
        "FOHHKFAIAAJ": ""
      },
      {
        "$type": "FABLGECDBCH",
        "type": "BODY_LANG",
        "delayTime": 0.6000000238418579,
        "aliasList": [
          "21307"
        ],
        "actionId": 196,
        "isContinue": true,
        "forceDoFreeStyle": true,
        "canDoRepeatFreeStyle": false,
        "eventPatternSuiteKey": "",
        "FOHHKFAIAAJ": ""
      },
      {
        "$type": "FABLGECDBCH",
        "type": "BODY_LANG",
        "delayTime": 0.6000000238418579,
        "aliasList": [
          "2501"
        ],
        "actionId": 198,
        "isContinue": true,
        "forceDoFreeStyle": true,
        "canDoRepeatFreeStyle": false,
        "eventPatternSuiteKey": "",
        "FOHHKFAIAAJ": ""
      },
      {
        "$type": "FABLGECDBCH",
        "type": "BODY_LANG",
        "delayTime": 0.6000000238418579,
        "aliasList": [
          "1005"
        ],
        "actionId": 200,
        "isContinue": true,
        "forceDoFreeStyle": true,
        "canDoRepeatFreeStyle": false,
        "eventPatternSuiteKey": "",
        "FOHHKFAIAAJ": ""
      }
    ]
  ],
  "groupId": [
    {
      "grpId": 2091860203,
      "nextGrpId": 2091860204
    },
    {
      "index": 1,
      "grpId": 2091860204,
      "nextGrpId": 2091860205
    },
    {
      "index": 2,
      "grpId": 2091860205,
      "nextGrpId": 2091860206
    },
    {
      "index": 3,
      "grpId": 2091860206,
      "nextGrpId": 2091860207
    },
    {
      "index": 4,
      "grpId": 2091860207,
      "nextGrpId": 2091860208
    },
    {
      "index": 5,
      "grpId": 2091860208,
      "nextGrpId": 2091860209
    },
    {
      "index": 6,
      "grpId": 2091860209,
      "nextGrpId": 2091860210
    },
    {
      "index": 7,
      "grpId": 2091860210,
      "nextGrpId": 2091860211
    },
    {
      "index": 8,
      "grpId": 2091860211,
      "nextGrpId": 423156901
    },
    {
      "index": 9,
      "grpId": 423156901,
      "nextGrpId": 423156902
    },
    {
      "index": 10,
      "grpId": 423156902,
      "nextGrpId": 423156903
    },
    {
      "index": 11,
      "grpId": 423156903,
      "nextGrpId": 423156904
    },
    {
      "index": 12,
      "grpId": 423156904,
      "nextGrpId": 423156905
    },
    {
      "index": 13,
      "grpId": 423156905,
      "nextGrpId": 423156906
    },
    {
      "index": 14,
      "grpId": 423156906,
      "nextGrpId": 423156907
    },
    {
      "index": 15,
      "grpId": 423156907,
      "nextGrpId": 423156908
    },
    {
      "index": 16,
      "grpId": 423156908,
      "nextGrpId": 423156909
    },
    {
      "index": 17,
      "grpId": 423156909,
      "nextGrpId": 423156910
    },
    {
      "index": 18,
      "grpId": 423156910,
      "nextGrpId": 423156932
    },
    {
      "index": 19,
      "grpId": 423156932,
      "nextGrpId": 423156933
    },
    {
      "index": 20,
      "grpId": 423156933,
      "nextGrpId": 423156934
    },
    {
      "index": 21,
      "grpId": 423156934,
      "nextGrpId": 423156935
    },
    {
      "index": 22,
      "grpId": 423156935,
      "nextGrpId": 423156936
    },
    {
      "index": 23,
      "grpId": 423156936,
      "nextGrpId": 423156937
    },
    {
      "index": 24,
      "grpId": 423156937,
      "nextGrpId": 423156938
    },
    {
      "index": 25,
      "grpId": 423156938,
      "nextGrpId": 423156939
    },
    {
      "index": 26,
      "grpId": 423156939,
      "nextGrpId": 423156940
    },
    {
      "index": 27,
      "grpId": 423156940,
      "nextGrpId": 423156941
    },
    {
      "index": 28,
      "grpId": 423156941,
      "nextGrpId": 423156963
    },
    {
      "index": 29,
      "grpId": 423156963,
      "nextGrpId": 423156964
    },
    {
      "index": 30,
      "grpId": 423156964,
      "nextGrpId": 423156965
    },
    {
      "index": 31,
      "grpId": 423156965,
      "nextGrpId": 423156966
    },
    {
      "index": 32,
      "grpId": 423156966,
      "nextGrpId": 423156967
    },
    {
      "index": 33,
      "grpId": 423156967,
      "nextGrpId": 423156968
    },
    {
      "index": 34,
      "grpId": 423156968,
      "nextGrpId": 423156969
    },
    {
      "index": 35,
      "grpId": 423156969,
      "nextGrpId": 423156970
    },
    {
      "index": 36,
      "grpId": 423156970,
      "nextGrpId": 423156971
    },
    {
      "index": 37,
      "grpId": 423156971,
      "nextGrpId": 423156972
    },
    {
      "index": 38,
      "grpId": 423156972,
      "nextGrpId": 423156994
    },
    {
      "index": 39,
      "grpId": 423156994,
      "nextGrpId": 423156995
    },
    {
      "index": 40,
      "grpId": 423156995,
      "nextGrpId": 423156996
    },
    {
      "index": 41,
      "grpId": 423156996,
      "nextGrpId": 423156997
    },
    {
      "index": 42,
      "grpId": 423156997,
      "nextGrpId": 423156998
    }
  ],
  "freeStyleDic": {
    "1025": [],
    "1026": [],
    "21094": [],
    "2501": []
  },
  "GBPIKOLLKJH": {
    "KGFBJNAEBHO": "",
    "ADMLEHAKCPC": ""
  }
}