{
  "crowdSpawnInfos": [
    {
      "crowdTypeID": 247,
      "animConfigID": 1,
      "spawnPosition": {
        "x": 2507.93994140625,
        "y": 205.37049865722656,
        "z": -1143.1729736328125
      },
      "spawnFaceFwd": {
        "x": 0.6195023655891418,
        "z": -0.7849948406219482
      },
      "hairColor": {
        "r": 0.4274509847164154,
        "g": 0.37254902720451355,
        "b": 0.3019607961177826,
        "a": 1.0
      },
      "bodyColors": [
        {
          "r": 0.9333333373069763,
          "g": 0.8666666746139526,
          "b": 0.843137264251709,
          "a": 1.0
        },
        {
          "r": 0.3686274588108063,
          "g": 0.4588235318660736,
          "b": 0.3294117748737335,
          "a": 1.0
        },
        {
          "r": 0.33725491166114807,
          "g": 0.3019607961177826,
          "b": 0.09019608050584793,
          "a": 1.0
        },
        {
          "r": 0.729411780834198,
          "g": 0.7372549176216125,
          "b": 0.5921568870544434,
          "a": 1.0
        }
      ],
      "instanceId": 70001
    },
    {
      "crowdTypeID": 253,
      "animConfigID": 4,
      "spawnPosition": {
        "x": 2508.708984375,
        "y": 205.37049865722656,
        "z": -1144.1929931640625
      },
      "spawnFaceFwd": {
        "x": -0.8225552439689636,
        "z": 0.5686852335929871
      },
      "hairColor": {
        "r": 0.5215686559677124,
        "g": 0.40392157435417175,
        "b": 0.2549019753932953,
        "a": 1.0
      },
      "bodyColors": [
        {
          "r": 0.9058823585510254,
          "g": 0.7882353067398071,
          "b": 0.7333333492279053,
          "a": 1.0
        },
        {
          "r": 0.38823530077934265,
          "g": 0.46666666865348816,
          "b": 0.5490196347236633,
          "a": 1.0
        },
        {
          "r": 0.8117647171020508,
          "g": 0.8078431487083435,
          "b": 0.7960784435272217,
          "a": 1.0
        },
        {
          "r": 0.7098039388656616,
          "g": 0.5686274766921997,
          "b": 0.32549020648002625,
          "a": 1.0
        }
      ],
      "instanceId": 70002
    },
    {
      "crowdTypeID": 248,
      "spawnPosition": {
        "x": 2512.27490234375,
        "y": 202.4987030029297,
        "z": -1129.1280517578125
      },
      "spawnFaceFwd": {
        "x": -0.6733658909797668,
        "z": 0.7393093705177307
      },
      "hairColor": {
        "r": 0.3960784375667572,
        "g": 0.27843138575553894,
        "b": 0.1882352977991104,
        "a": 1.0
      },
      "bodyColors": [
        {
          "r": 0.9333333373069763,
          "g": 0.8666666746139526,
          "b": 0.843137264251709,
          "a": 1.0
        },
        {
          "r": 0.20392157137393951,
          "g": 0.27450981736183167,
          "b": 0.3921568691730499,
          "a": 1.0
        },
        {
          "r": 0.4901960790157318,
          "g": 0.19607843458652496,
          "b": 0.239215686917305,
          "a": 1.0
        },
        {
          "r": 0.8627451062202454,
          "g": 0.8549019694328308,
          "b": 0.8039215803146362,
          "a": 1.0
        }
      ],
      "instanceId": 70003
    },
    {
      "crowdTypeID": 245,
      "spawnPosition": {
        "x": 2506.008056640625,
        "y": 203.868896484375,
        "z": -1134.1240234375
      },
      "spawnFaceFwd": {
        "x": -0.9178211092948914,
        "z": 0.396994411945343
      },
      "hairColor": {
        "r": 0.4274509847164154,
        "g": 0.37254902720451355,
        "b": 0.3019607961177826,
        "a": 1.0
      },
      "bodyColors": [
        {
          "r": 0.9058823585510254,
          "g": 0.7882353067398071,
          "b": 0.7333333492279053,
          "a": 1.0
        },
        {
          "r": 0.3686274588108063,
          "g": 0.4588235318660736,
          "b": 0.3294117748737335,
          "a": 1.0
        },
        {
          "r": 0.33725491166114807,
          "g": 0.3019607961177826,
          "b": 0.09019608050584793,
          "a": 1.0
        },
        {
          "r": 0.729411780834198,
          "g": 0.7372549176216125,
          "b": 0.5921568870544434,
          "a": 1.0
        }
      ],
      "instanceId": 70004
    },
    {
      "crowdTypeID": 94,
      "spawnPosition": {
        "x": 2513.467041015625,
        "y": 202.48350524902344,
        "z": -1128.1510009765625
      },
      "spawnFaceFwd": {
        "x": -0.6163517832756042,
        "z": 0.7874709367752075
      },
      "hairColor": {
        "r": 0.8392156958580017,
        "g": 0.8392156958580017,
        "b": 0.8392156958580017,
        "a": 1.0
      },
      "bodyColors": [
        {
          "r": 0.9058823585510254,
          "g": 0.7882353067398071,
          "b": 0.7333333492279053,
          "a": 1.0
        },
        {
          "r": 0.42352941632270813,
          "g": 0.4627451002597809,
          "b": 0.5647059082984924,
          "a": 1.0
        },
        {
          "r": 0.2980392277240753,
          "g": 0.27843138575553894,
          "b": 0.3176470696926117,
          "a": 1.0
        },
        {
          "r": 0.2980392277240753,
          "g": 0.27843138575553894,
          "b": 0.3176470696926117,
          "a": 1.0
        }
      ],
      "instanceId": 70005
    },
    {
      "crowdTypeID": 92,
      "animConfigID": 1,
      "spawnPosition": {
        "x": 2524.14990234375,
        "y": 203.52940368652344,
        "z": -1127.2659912109375
      },
      "spawnFaceFwd": {
        "x": -0.2190784513950348,
        "z": -0.9757074117660522
      },
      "hairColor": {
        "r": 0.4274509847164154,
        "g": 0.37254902720451355,
        "b": 0.3019607961177826,
        "a": 1.0
      },
      "bodyColors": [
        {
          "r": 0.9333333373069763,
          "g": 0.8666666746139526,
          "b": 0.843137264251709,
          "a": 1.0
        },
        {
          "r": 0.2862745225429535,
          "g": 0.24313725531101227,
          "b": 0.24313725531101227,
          "a": 1.0
        },
        {
          "r": 0.572549045085907,
          "g": 0.48235294222831726,
          "b": 0.4000000059604645,
          "a": 1.0
        },
        {
          "r": 0.7215686440467834,
          "g": 0.7215686440467834,
          "b": 0.7215686440467834,
          "a": 1.0
        }
      ],
      "instanceId": 70006
    },
    {
      "crowdTypeID": 97,
      "animConfigID": 1,
      "spawnPosition": {
        "x": 2523.535888671875,
        "y": 203.3428955078125,
        "z": -1128.3360595703125
      },
      "spawnFaceFwd": {
        "x": 0.45937010645866394,
        "z": 0.8882449865341187
      },
      "hairColor": {
        "r": 0.5215686559677124,
        "g": 0.40392157435417175,
        "b": 0.2549019753932953,
        "a": 1.0
      },
      "bodyColors": [
        {
          "r": 0.9333333373069763,
          "g": 0.8666666746139526,
          "b": 0.843137264251709,
          "a": 1.0
        },
        {
          "r": 0.6745098233222961,
          "g": 0.6666666865348816,
          "b": 0.6549019813537598,
          "a": 1.0
        },
        {
          "r": 0.2980392277240753,
          "g": 0.27843138575553894,
          "b": 0.3176470696926117,
          "a": 1.0
        },
        {
          "r": 0.42352941632270813,
          "g": 0.4627451002597809,
          "b": 0.5647059082984924,
          "a": 1.0
        }
      ],
      "instanceId": 70007
    },
    {
      "crowdTypeID": 102,
      "animConfigID": 1,
      "spawnPosition": {
        "x": 2516.193115234375,
        "y": 203.1230010986328,
        "z": -1139.3199462890625
      },
      "spawnFaceFwd": {
        "x": -0.9608293771743774,
        "z": 0.27714037895202637
      },
      "hairColor": {
        "r": 0.3960784375667572,
        "g": 0.27843138575553894,
        "b": 0.1882352977991104,
        "a": 1.0
      },
      "bodyColors": [
        {
          "r": 0.9333333373069763,
          "g": 0.8666666746139526,
          "b": 0.843137264251709,
          "a": 1.0
        },
        {
          "r": 0.772549033164978,
          "g": 0.7607843279838562,
          "b": 0.7450980544090271,
          "a": 1.0
        },
        {
          "r": 0.5882353186607361,
          "g": 0.4156862795352936,
          "b": 0.4156862795352936,
          "a": 1.0
        },
        {
          "r": 0.2862745225429535,
          "g": 0.21568627655506134,
          "b": 0.21568627655506134,
          "a": 1.0
        }
      ],
      "instanceId": 70008
    },
    {
      "crowdTypeID": 70,
      "animConfigID": 13,
      "spawnPosition": {
        "x": 2514.860107421875,
        "y": 202.94580078125,
        "z": -1139.1429443359375
      },
      "spawnFaceFwd": {
        "x": 0.9999176859855652,
        "z": 0.0128248929977417
      },
      "hairColor": {
        "r": 0.29019609093666077,
        "g": 0.3176470696926117,
        "b": 0.3529411852359772,
        "a": 1.0
      },
      "bodyColors": [
        {
          "r": 0.9058823585510254,
          "g": 0.7882353067398071,
          "b": 0.7333333492279053,
          "a": 1.0
        },
        {
          "r": 0.239215686917305,
          "g": 0.2666666805744171,
          "b": 0.29411765933036804,
          "a": 1.0
        },
        {
          "r": 0.7568627595901489,
          "g": 0.7568627595901489,
          "b": 0.7254902124404907,
          "a": 1.0
        },
        {
          "r": 0.47843137383461,
          "g": 0.4470588266849518,
          "b": 0.3960784375667572,
          "a": 1.0
        }
      ],
      "instanceId": 70009
    }
  ]
}