{
  "crowdSpawnInfos": [
    {
      "crowdTypeID": 253,
      "animConfigID": 1,
      "spawnPosition": {
        "x": -2042.47998046875,
        "y": 202.4073944091797,
        "z": 2572.073974609375
      },
      "spawnFaceFwd": {
        "x": 0.9643535614013672,
        "z": 0.26461702585220337
      },
      "hairColor": {
        "r": 0.32156863808631897,
        "g": 0.21568627655506134,
        "b": 0.18039216101169586,
        "a": 1.0
      },
      "bodyColors": [
        {
          "r": 0.7921568751335144,
          "g": 0.6549019813537598,
          "b": 0.5843137502670288,
          "a": 1.0
        },
        {
          "r": 0.6509804129600525,
          "g": 0.5921568870544434,
          "b": 0.34117648005485535,
          "a": 1.0
        },
        {
          "r": 0.364705890417099,
          "g": 0.38823530077934265,
          "b": 0.2666666805744171,
          "a": 1.0
        },
        {
          "r": 0.47058823704719543,
          "g": 0.32156863808631897,
          "b": 0.239215686917305,
          "a": 1.0
        }
      ],
      "instanceId": 60002
    },
    {
      "crowdTypeID": 263,
      "spawnPosition": {
        "x": -2056.6201171875,
        "y": 203.82569885253906,
        "z": 2613.075927734375
      },
      "spawnFaceFwd": {
        "x": 0.05994601175189018,
        "z": -0.9982014894485474
      },
      "hairColor": {
        "r": 0.25882354378700256,
        "g": 0.25882354378700256,
        "b": 0.25882354378700256,
        "a": 1.0
      },
      "bodyColors": [
        {
          "r": 0.7921568751335144,
          "g": 0.6549019813537598,
          "b": 0.5843137502670288,
          "a": 1.0
        },
        {
          "r": 0.3686274588108063,
          "g": 0.4588235318660736,
          "b": 0.3294117748737335,
          "a": 1.0
        },
        {
          "r": 0.33725491166114807,
          "g": 0.3019607961177826,
          "b": 0.09019608050584793,
          "a": 1.0
        },
        {
          "r": 0.729411780834198,
          "g": 0.7372549176216125,
          "b": 0.5921568870544434,
          "a": 1.0
        }
      ],
      "instanceId": 60003
    },
    {
      "crowdTypeID": 301,
      "spawnPosition": {
        "x": -2056.638916015625,
        "y": 203.82569885253906,
        "z": 2611.569091796875
      },
      "spawnFaceFwd": {
        "x": -0.08932050317525864,
        "z": 0.9960029125213623
      },
      "hairColor": {
        "r": 0.3960784375667572,
        "g": 0.27843138575553894,
        "b": 0.1882352977991104,
        "a": 1.0
      },
      "bodyColors": [
        {
          "r": 0.9058823585510254,
          "g": 0.7882353067398071,
          "b": 0.7333333492279053,
          "a": 1.0
        },
        {
          "r": 0.38823530077934265,
          "g": 0.46666666865348816,
          "b": 0.5490196347236633,
          "a": 1.0
        },
        {
          "r": 0.8117647171020508,
          "g": 0.8078431487083435,
          "b": 0.7960784435272217,
          "a": 1.0
        },
        {
          "r": 0.7098039388656616,
          "g": 0.5686274766921997,
          "b": 0.32549020648002625,
          "a": 1.0
        }
      ],
      "instanceId": 60004
    },
    {
      "crowdTypeID": 241,
      "animConfigID": 2,
      "spawnPosition": {
        "x": -2013.23095703125,
        "y": 203.227294921875,
        "z": 2617.678955078125
      },
      "spawnFaceFwd": {
        "x": 0.7453759908676147,
        "z": -0.6666443347930908
      },
      "hairColor": {
        "r": 0.32156863808631897,
        "g": 0.21568627655506134,
        "b": 0.18039216101169586,
        "a": 1.0
      },
      "bodyColors": [
        {
          "r": 0.9058823585510254,
          "g": 0.7882353067398071,
          "b": 0.7333333492279053,
          "a": 1.0
        },
        {
          "r": 0.22745098173618317,
          "g": 0.2862745225429535,
          "b": 0.3137255012989044,
          "a": 1.0
        },
        {
          "r": 0.6196078658103943,
          "g": 0.5568627715110779,
          "b": 0.42352941632270813,
          "a": 1.0
        },
        {
          "r": 0.8313725590705872,
          "g": 0.8235294222831726,
          "b": 0.8078431487083435,
          "a": 1.0
        }
      ],
      "instanceId": 60007
    },
    {
      "crowdTypeID": 255,
      "animConfigID": 3,
      "spawnPosition": {
        "x": -2012.9580078125,
        "y": 203.2053985595703,
        "z": 2618.284912109375
      },
      "spawnFaceFwd": {
        "x": 0.899075448513031,
        "z": -0.4377937316894531
      },
      "hairColor": {
        "r": 0.25882354378700256,
        "g": 0.25882354378700256,
        "b": 0.25882354378700256,
        "a": 1.0
      },
      "bodyColors": [
        {
          "r": 0.9058823585510254,
          "g": 0.7882353067398071,
          "b": 0.7333333492279053,
          "a": 1.0
        },
        {
          "r": 0.22745098173618317,
          "g": 0.2862745225429535,
          "b": 0.3137255012989044,
          "a": 1.0
        },
        {
          "r": 0.6196078658103943,
          "g": 0.5568627715110779,
          "b": 0.42352941632270813,
          "a": 1.0
        },
        {
          "r": 0.8313725590705872,
          "g": 0.8235294222831726,
          "b": 0.8078431487083435,
          "a": 1.0
        }
      ],
      "instanceId": 60008
    },
    {
      "crowdTypeID": 233,
      "animConfigID": 1,
      "spawnPosition": {
        "x": -2003.490966796875,
        "y": 202.4073944091797,
        "z": 2592.39599609375
      },
      "spawnFaceFwd": {
        "x": -0.4525483548641205,
        "z": 0.8917398452758789
      },
      "hairColor": {
        "r": 0.32156863808631897,
        "g": 0.21568627655506134,
        "b": 0.18039216101169586,
        "a": 1.0
      },
      "bodyColors": [
        {
          "r": 0.9333333373069763,
          "g": 0.8666666746139526,
          "b": 0.843137264251709,
          "a": 1.0
        },
        {
          "r": 0.22745098173618317,
          "g": 0.2862745225429535,
          "b": 0.3137255012989044,
          "a": 1.0
        },
        {
          "r": 0.6196078658103943,
          "g": 0.5568627715110779,
          "b": 0.42352941632270813,
          "a": 1.0
        },
        {
          "r": 0.8313725590705872,
          "g": 0.8235294222831726,
          "b": 0.8078431487083435,
          "a": 1.0
        }
      ],
      "instanceId": 60009
    },
    {
      "crowdTypeID": 234,
      "animConfigID": 1,
      "spawnPosition": {
        "x": -2003.8929443359375,
        "y": 202.4521942138672,
        "z": 2593.3330078125
      },
      "spawnFaceFwd": {
        "x": 0.5393956303596497,
        "z": -0.8420524597167969
      },
      "hairColor": {
        "r": 0.29019609093666077,
        "g": 0.3176470696926117,
        "b": 0.3529411852359772,
        "a": 1.0
      },
      "bodyColors": [
        {
          "r": 0.9333333373069763,
          "g": 0.8666666746139526,
          "b": 0.843137264251709,
          "a": 1.0
        },
        {
          "r": 0.20392157137393951,
          "g": 0.27450981736183167,
          "b": 0.3921568691730499,
          "a": 1.0
        },
        {
          "r": 0.4901960790157318,
          "g": 0.19607843458652496,
          "b": 0.239215686917305,
          "a": 1.0
        },
        {
          "r": 0.8627451062202454,
          "g": 0.8549019694328308,
          "b": 0.8039215803146362,
          "a": 1.0
        }
      ],
      "instanceId": 60010
    },
    {
      "crowdTypeID": 253,
      "animConfigID": 2,
      "spawnPosition": {
        "x": -2000.7049560546875,
        "y": 202.4073944091797,
        "z": 2567.52197265625
      },
      "spawnFaceFwd": {
        "x": 0.8674712181091309,
        "z": 0.4974873661994934
      },
      "hairColor": {
        "r": 0.25882354378700256,
        "g": 0.25882354378700256,
        "b": 0.25882354378700256,
        "a": 1.0
      },
      "bodyColors": [
        {
          "r": 0.7921568751335144,
          "g": 0.6549019813537598,
          "b": 0.5843137502670288,
          "a": 1.0
        },
        {
          "r": 0.7803921699523926,
          "g": 0.7215686440467834,
          "b": 0.6666666865348816,
          "a": 1.0
        },
        {
          "r": 0.3490196168422699,
          "g": 0.25882354378700256,
          "b": 0.20392157137393951,
          "a": 1.0
        },
        {
          "r": 0.572549045085907,
          "g": 0.4000000059604645,
          "b": 0.25882354378700256,
          "a": 1.0
        }
      ],
      "instanceId": 60011
    },
    {
      "crowdTypeID": 262,
      "spawnPosition": {
        "x": -1999.469970703125,
        "y": 202.4073944091797,
        "z": 2568.25
      },
      "spawnFaceFwd": {
        "x": -0.8241686820983887,
        "z": -0.5663444995880127
      },
      "hairColor": {
        "r": 0.32156863808631897,
        "g": 0.21568627655506134,
        "b": 0.18039216101169586,
        "a": 1.0
      },
      "bodyColors": [
        {
          "r": 0.7921568751335144,
          "g": 0.6549019813537598,
          "b": 0.5843137502670288,
          "a": 1.0
        },
        {
          "r": 0.3686274588108063,
          "g": 0.4588235318660736,
          "b": 0.3294117748737335,
          "a": 1.0
        },
        {
          "r": 0.33725491166114807,
          "g": 0.3019607961177826,
          "b": 0.09019608050584793,
          "a": 1.0
        },
        {
          "r": 0.729411780834198,
          "g": 0.7372549176216125,
          "b": 0.5921568870544434,
          "a": 1.0
        }
      ],
      "instanceId": 60012
    },
    {
      "crowdTypeID": 262,
      "spawnPosition": {
        "x": -2016.6610107421875,
        "y": 201.3603973388672,
        "z": 2565.992919921875
      },
      "spawnFaceFwd": {
        "x": -0.18760228157043457,
        "z": 0.9822450876235962
      },
      "hairColor": {
        "r": 0.25882354378700256,
        "g": 0.25882354378700256,
        "b": 0.25882354378700256,
        "a": 1.0
      },
      "bodyColors": [
        {
          "r": 0.7921568751335144,
          "g": 0.6549019813537598,
          "b": 0.5843137502670288,
          "a": 1.0
        },
        {
          "r": 0.22745098173618317,
          "g": 0.2862745225429535,
          "b": 0.3137255012989044,
          "a": 1.0
        },
        {
          "r": 0.6196078658103943,
          "g": 0.5568627715110779,
          "b": 0.42352941632270813,
          "a": 1.0
        },
        {
          "r": 0.8313725590705872,
          "g": 0.8235294222831726,
          "b": 0.8078431487083435,
          "a": 1.0
        }
      ],
      "instanceId": 60015
    }
  ]
}