{
  "crowdSpawnInfos": [
    {
      "crowdTypeID": 79,
      "spawnPosition": {
        "x": -571.5806274414062,
        "y": 210.02220153808594,
        "z": 280.8821105957031
      },
      "spawnFaceFwd": {
        "x": 0.4856230318546295,
        "z": 0.874168336391449
      },
      "hairColor": {
        "r": 0.25882354378700256,
        "g": 0.25882354378700256,
        "b": 0.25882354378700256,
        "a": 1.0
      },
      "bodyColors": [
        {
          "r": 0.9333333373069763,
          "g": 0.8666666746139526,
          "b": 0.843137264251709,
          "a": 1.0
        },
        {
          "r": 0.42352941632270813,
          "g": 0.4627451002597809,
          "b": 0.5647059082984924,
          "a": 1.0
        },
        {
          "r": 0.6745098233222961,
          "g": 0.6666666865348816,
          "b": 0.6549019813537598,
          "a": 1.0
        },
        {
          "r": 0.2980392277240753,
          "g": 0.27843138575553894,
          "b": 0.3176470696926117,
          "a": 1.0
        }
      ],
      "instanceId": 50001
    },
    {
      "crowdTypeID": 79,
      "spawnPosition": {
        "x": -565.4727783203125,
        "y": 210.02220153808594,
        "z": 275.1449890136719
      },
      "spawnFaceFwd": {
        "x": 0.09539587050676346,
        "z": -0.9954395294189453
      },
      "hairColor": {
        "r": 0.32156863808631897,
        "g": 0.21568627655506134,
        "b": 0.18039216101169586,
        "a": 1.0
      },
      "bodyColors": [
        {
          "r": 0.9333333373069763,
          "g": 0.8666666746139526,
          "b": 0.843137264251709,
          "a": 1.0
        },
        {
          "r": 0.4117647111415863,
          "g": 0.35686275362968445,
          "b": 0.3960784375667572,
          "a": 1.0
        },
        {
          "r": 0.5647059082984924,
          "g": 0.5490196347236633,
          "b": 0.5607843399047852,
          "a": 1.0
        },
        {
          "r": 0.2666666805744171,
          "g": 0.2078431397676468,
          "b": 0.23529411852359772,
          "a": 1.0
        }
      ],
      "instanceId": 50002
    },
    {
      "crowdTypeID": 81,
      "animConfigID": 1,
      "spawnPosition": {
        "x": -571.4882202148438,
        "y": 210.02220153808594,
        "z": 282.62249755859375
      },
      "spawnFaceFwd": {
        "x": 0.38495752215385437,
        "z": -0.9229344129562378
      },
      "hairColor": {
        "r": 0.25882354378700256,
        "g": 0.25882354378700256,
        "b": 0.25882354378700256,
        "a": 1.0
      },
      "bodyColors": [
        {
          "r": 0.9058823585510254,
          "g": 0.7882353067398071,
          "b": 0.7333333492279053,
          "a": 1.0
        },
        {
          "r": 0.41960784792900085,
          "g": 0.41960784792900085,
          "b": 0.4117647111415863,
          "a": 1.0
        },
        {
          "r": 0.3764705955982208,
          "g": 0.2823529541492462,
          "b": 0.2823529541492462,
          "a": 1.0
        },
        {
          "r": 0.2549019753932953,
          "g": 0.26274511218070984,
          "b": 0.2705882489681244,
          "a": 1.0
        }
      ],
      "instanceId": 50003
    },
    {
      "crowdTypeID": 70,
      "animConfigID": 7,
      "spawnPosition": {
        "x": -570.40478515625,
        "y": 210.02220153808594,
        "z": 282.6408996582031
      },
      "spawnFaceFwd": {
        "x": -0.3912099003791809,
        "z": -0.9203015565872192
      },
      "hairColor": {
        "r": 0.3960784375667572,
        "g": 0.27843138575553894,
        "b": 0.1882352977991104,
        "a": 1.0
      },
      "bodyColors": [
        {
          "r": 0.9058823585510254,
          "g": 0.7882353067398071,
          "b": 0.7333333492279053,
          "a": 1.0
        },
        {
          "r": 0.239215686917305,
          "g": 0.2666666805744171,
          "b": 0.29411765933036804,
          "a": 1.0
        },
        {
          "r": 0.7568627595901489,
          "g": 0.7568627595901489,
          "b": 0.7254902124404907,
          "a": 1.0
        },
        {
          "r": 0.47843137383461,
          "g": 0.4470588266849518,
          "b": 0.3960784375667572,
          "a": 1.0
        }
      ],
      "instanceId": 50004
    },
    {
      "crowdTypeID": 65,
      "spawnPosition": {
        "x": -545.4088745117188,
        "y": 209.82220458984375,
        "z": 264.33221435546875
      },
      "spawnFaceFwd": {
        "x": 0.39450159668922424,
        "z": -0.9188953638076782
      },
      "hairColor": {
        "r": 0.29019609093666077,
        "g": 0.3176470696926117,
        "b": 0.3529411852359772,
        "a": 1.0
      },
      "bodyColors": [
        {
          "r": 0.9058823585510254,
          "g": 0.7882353067398071,
          "b": 0.7333333492279053,
          "a": 1.0
        },
        {
          "r": 0.2235294133424759,
          "g": 0.2705882489681244,
          "b": 0.3607843220233917,
          "a": 1.0
        },
        {
          "r": 0.5686274766921997,
          "g": 0.572549045085907,
          "b": 0.6117647290229797,
          "a": 1.0
        },
        {
          "r": 0.3137255012989044,
          "g": 0.38823530077934265,
          "b": 0.47843137383461,
          "a": 1.0
        }
      ],
      "instanceId": 50008
    },
    {
      "crowdTypeID": 82,
      "spawnPosition": {
        "x": -545.0225219726562,
        "y": 209.82220458984375,
        "z": 263.0845947265625
      },
      "spawnFaceFwd": {
        "x": -0.3059941828250885,
        "z": 0.9520334005355835
      },
      "hairColor": {
        "r": 0.3960784375667572,
        "g": 0.27843138575553894,
        "b": 0.1882352977991104,
        "a": 1.0
      },
      "bodyColors": [
        {
          "r": 0.9058823585510254,
          "g": 0.7882353067398071,
          "b": 0.7333333492279053,
          "a": 1.0
        },
        {
          "r": 0.41960784792900085,
          "g": 0.41960784792900085,
          "b": 0.4117647111415863,
          "a": 1.0
        },
        {
          "r": 0.3764705955982208,
          "g": 0.2823529541492462,
          "b": 0.2823529541492462,
          "a": 1.0
        },
        {
          "r": 0.2549019753932953,
          "g": 0.26274511218070984,
          "b": 0.2705882489681244,
          "a": 1.0
        }
      ],
      "instanceId": 50009
    },
    {
      "crowdTypeID": 76,
      "animConfigID": 3,
      "spawnPosition": {
        "x": -529.218017578125,
        "y": 209.82119750976562,
        "z": 260.3494873046875
      },
      "spawnFaceFwd": {
        "x": -0.023557953536510468,
        "z": -0.9997224807739258
      },
      "hairColor": {
        "r": 0.25882354378700256,
        "g": 0.25882354378700256,
        "b": 0.25882354378700256,
        "a": 1.0
      },
      "bodyColors": [
        {
          "r": 0.9333333373069763,
          "g": 0.8666666746139526,
          "b": 0.843137264251709,
          "a": 1.0
        },
        {
          "r": 0.239215686917305,
          "g": 0.2666666805744171,
          "b": 0.29411765933036804,
          "a": 1.0
        },
        {
          "r": 0.7568627595901489,
          "g": 0.7568627595901489,
          "b": 0.7254902124404907,
          "a": 1.0
        },
        {
          "r": 0.47843137383461,
          "g": 0.4470588266849518,
          "b": 0.3960784375667572,
          "a": 1.0
        }
      ],
      "instanceId": 50010
    },
    {
      "crowdTypeID": 64,
      "spawnPosition": {
        "x": -528.8936157226562,
        "y": 209.8220977783203,
        "z": 258.4790954589844
      },
      "spawnFaceFwd": {
        "x": -0.2130846530199051,
        "z": 0.9770337343215942
      },
      "hairColor": {
        "r": 0.3960784375667572,
        "g": 0.27843138575553894,
        "b": 0.1882352977991104,
        "a": 1.0
      },
      "bodyColors": [
        {
          "r": 0.9058823585510254,
          "g": 0.7882353067398071,
          "b": 0.7333333492279053,
          "a": 1.0
        },
        {
          "r": 0.42352941632270813,
          "g": 0.4627451002597809,
          "b": 0.5647059082984924,
          "a": 1.0
        },
        {
          "r": 0.6745098233222961,
          "g": 0.6666666865348816,
          "b": 0.6549019813537598,
          "a": 1.0
        },
        {
          "r": 0.2980392277240753,
          "g": 0.27843138575553894,
          "b": 0.3176470696926117,
          "a": 1.0
        }
      ],
      "instanceId": 50011
    },
    {
      "crowdTypeID": 81,
      "spawnPosition": {
        "x": -564.1353149414062,
        "y": 210.02220153808594,
        "z": 295.4045104980469
      },
      "spawnFaceFwd": {
        "x": -0.2590652406215668,
        "z": 0.9658598303794861
      },
      "hairColor": {
        "r": 0.29019609093666077,
        "g": 0.3176470696926117,
        "b": 0.3529411852359772,
        "a": 1.0
      },
      "bodyColors": [
        {
          "r": 0.9058823585510254,
          "g": 0.7882353067398071,
          "b": 0.7333333492279053,
          "a": 1.0
        },
        {
          "r": 0.239215686917305,
          "g": 0.2666666805744171,
          "b": 0.29411765933036804,
          "a": 1.0
        },
        {
          "r": 0.7568627595901489,
          "g": 0.7568627595901489,
          "b": 0.7254902124404907,
          "a": 1.0
        },
        {
          "r": 0.47843137383461,
          "g": 0.4470588266849518,
          "b": 0.3960784375667572,
          "a": 1.0
        }
      ],
      "instanceId": 50013
    },
    {
      "crowdTypeID": 87,
      "animConfigID": 9,
      "spawnPosition": {
        "x": -563.9180297851562,
        "y": 210.36920166015625,
        "z": 296.4114074707031
      },
      "spawnFaceFwd": {
        "x": -0.9379162788391113,
        "z": -0.34686195850372314
      },
      "hairColor": {
        "r": 0.32156863808631897,
        "g": 0.21568627655506134,
        "b": 0.18039216101169586,
        "a": 1.0
      },
      "bodyColors": [
        {
          "r": 0.9333333373069763,
          "g": 0.8666666746139526,
          "b": 0.843137264251709,
          "a": 1.0
        },
        {
          "r": 0.42352941632270813,
          "g": 0.4627451002597809,
          "b": 0.5647059082984924,
          "a": 1.0
        },
        {
          "r": 0.6745098233222961,
          "g": 0.6666666865348816,
          "b": 0.6549019813537598,
          "a": 1.0
        },
        {
          "r": 0.2980392277240753,
          "g": 0.27843138575553894,
          "b": 0.3176470696926117,
          "a": 1.0
        }
      ],
      "instanceId": 50014
    },
    {
      "crowdTypeID": 88,
      "spawnPosition": {
        "x": -556.7003173828125,
        "y": 201.61219787597656,
        "z": 279.6460876464844
      },
      "spawnFaceFwd": {
        "x": 0.43219277262687683,
        "z": 0.9017812609672546
      },
      "hairColor": {
        "r": 0.25882354378700256,
        "g": 0.25882354378700256,
        "b": 0.25882354378700256,
        "a": 1.0
      },
      "bodyColors": [
        {
          "r": 0.9058823585510254,
          "g": 0.7882353067398071,
          "b": 0.7333333492279053,
          "a": 1.0
        },
        {
          "r": 0.239215686917305,
          "g": 0.2666666805744171,
          "b": 0.29411765933036804,
          "a": 1.0
        },
        {
          "r": 0.7568627595901489,
          "g": 0.7568627595901489,
          "b": 0.7254902124404907,
          "a": 1.0
        },
        {
          "r": 0.47843137383461,
          "g": 0.4470588266849518,
          "b": 0.3960784375667572,
          "a": 1.0
        }
      ],
      "instanceId": 50015
    },
    {
      "crowdTypeID": 72,
      "animConfigID": 1,
      "spawnPosition": {
        "x": -556.313720703125,
        "y": 201.61219787597656,
        "z": 280.98089599609375
      },
      "spawnFaceFwd": {
        "x": -0.24217070639133453,
        "z": -0.970233678817749
      },
      "hairColor": {
        "r": 0.3960784375667572,
        "g": 0.27843138575553894,
        "b": 0.1882352977991104,
        "a": 1.0
      },
      "bodyColors": [
        {
          "r": 0.9333333373069763,
          "g": 0.8666666746139526,
          "b": 0.843137264251709,
          "a": 1.0
        },
        {
          "r": 0.4117647111415863,
          "g": 0.35686275362968445,
          "b": 0.3960784375667572,
          "a": 1.0
        },
        {
          "r": 0.5647059082984924,
          "g": 0.5490196347236633,
          "b": 0.5607843399047852,
          "a": 1.0
        },
        {
          "r": 0.2666666805744171,
          "g": 0.2078431397676468,
          "b": 0.23529411852359772,
          "a": 1.0
        }
      ],
      "instanceId": 50016
    },
    {
      "crowdTypeID": 80,
      "animConfigID": 5,
      "spawnPosition": {
        "x": -508.2351989746094,
        "y": 203.2541961669922,
        "z": 326.81719970703125
      },
      "spawnFaceFwd": {
        "x": -0.8663601875305176,
        "z": -0.49941956996917725
      },
      "hairColor": {
        "r": 0.25882354378700256,
        "g": 0.25882354378700256,
        "b": 0.25882354378700256,
        "a": 1.0
      },
      "bodyColors": [
        {
          "r": 0.9333333373069763,
          "g": 0.8666666746139526,
          "b": 0.843137264251709,
          "a": 1.0
        },
        {
          "r": 0.42352941632270813,
          "g": 0.4627451002597809,
          "b": 0.5647059082984924,
          "a": 1.0
        },
        {
          "r": 0.6745098233222961,
          "g": 0.6666666865348816,
          "b": 0.6549019813537598,
          "a": 1.0
        },
        {
          "r": 0.2980392277240753,
          "g": 0.27843138575553894,
          "b": 0.3176470696926117,
          "a": 1.0
        }
      ],
      "instanceId": 50017
    },
    {
      "crowdTypeID": 91,
      "spawnPosition": {
        "x": -510.74371337890625,
        "y": 207.79629516601562,
        "z": 228.06629943847656
      },
      "spawnFaceFwd": {
        "x": 0.6141377687454224,
        "z": -0.7891988754272461
      },
      "hairColor": {
        "r": 0.8392156958580017,
        "g": 0.8392156958580017,
        "b": 0.8392156958580017,
        "a": 1.0
      },
      "bodyColors": [
        {
          "r": 0.9058823585510254,
          "g": 0.7882353067398071,
          "b": 0.7333333492279053,
          "a": 1.0
        },
        {
          "r": 0.239215686917305,
          "g": 0.2666666805744171,
          "b": 0.29411765933036804,
          "a": 1.0
        },
        {
          "r": 0.7568627595901489,
          "g": 0.7568627595901489,
          "b": 0.7254902124404907,
          "a": 1.0
        },
        {
          "r": 0.47843137383461,
          "g": 0.4470588266849518,
          "b": 0.3960784375667572,
          "a": 1.0
        }
      ],
      "instanceId": 50019
    },
    {
      "crowdTypeID": 66,
      "spawnPosition": {
        "x": -509.6506042480469,
        "y": 207.80189514160156,
        "z": 228.44110107421875
      },
      "spawnFaceFwd": {
        "x": -0.32557639479637146,
        "z": -0.9455158710479736
      },
      "hairColor": {
        "r": 0.25882354378700256,
        "g": 0.25882354378700256,
        "b": 0.25882354378700256,
        "a": 1.0
      },
      "bodyColors": [
        {
          "r": 0.9058823585510254,
          "g": 0.7882353067398071,
          "b": 0.7333333492279053,
          "a": 1.0
        },
        {
          "r": 0.239215686917305,
          "g": 0.2666666805744171,
          "b": 0.29411765933036804,
          "a": 1.0
        },
        {
          "r": 0.7568627595901489,
          "g": 0.7568627595901489,
          "b": 0.7254902124404907,
          "a": 1.0
        },
        {
          "r": 0.47843137383461,
          "g": 0.4470588266849518,
          "b": 0.3960784375667572,
          "a": 1.0
        }
      ],
      "instanceId": 50020
    },
    {
      "crowdTypeID": 88,
      "spawnPosition": {
        "x": -525.7072143554688,
        "y": 207.83839416503906,
        "z": 243.2779998779297
      },
      "spawnFaceFwd": {
        "x": 0.1656588762998581,
        "z": -0.9861830472946167
      },
      "hairColor": {
        "r": 0.32156863808631897,
        "g": 0.21568627655506134,
        "b": 0.18039216101169586,
        "a": 1.0
      },
      "bodyColors": [
        {
          "r": 0.9058823585510254,
          "g": 0.7882353067398071,
          "b": 0.7333333492279053,
          "a": 1.0
        },
        {
          "r": 0.41960784792900085,
          "g": 0.41960784792900085,
          "b": 0.4117647111415863,
          "a": 1.0
        },
        {
          "r": 0.3764705955982208,
          "g": 0.2823529541492462,
          "b": 0.2823529541492462,
          "a": 1.0
        },
        {
          "r": 0.2549019753932953,
          "g": 0.26274511218070984,
          "b": 0.2705882489681244,
          "a": 1.0
        }
      ],
      "instanceId": 50021
    },
    {
      "crowdTypeID": 73,
      "animConfigID": 9,
      "spawnPosition": {
        "x": -527.83642578125,
        "y": 209.38540649414062,
        "z": 243.9575958251953
      },
      "spawnFaceFwd": {
        "x": 0.7149584293365479,
        "z": -0.6991667747497559
      },
      "hairColor": {
        "r": 0.29019609093666077,
        "g": 0.3176470696926117,
        "b": 0.3529411852359772,
        "a": 1.0
      },
      "bodyColors": [
        {
          "r": 0.9333333373069763,
          "g": 0.8666666746139526,
          "b": 0.843137264251709,
          "a": 1.0
        },
        {
          "r": 0.6745098233222961,
          "g": 0.6666666865348816,
          "b": 0.6549019813537598,
          "a": 1.0
        },
        {
          "r": 0.42352941632270813,
          "g": 0.4627451002597809,
          "b": 0.5647059082984924,
          "a": 1.0
        },
        {
          "r": 0.2980392277240753,
          "g": 0.27843138575553894,
          "b": 0.3176470696926117,
          "a": 1.0
        }
      ],
      "instanceId": 50022
    },
    {
      "crowdTypeID": 89,
      "spawnPosition": {
        "x": -526.026611328125,
        "y": 207.83639526367188,
        "z": 241.92059326171875
      },
      "spawnFaceFwd": {
        "x": 0.2893442213535309,
        "z": 0.9572250843048096
      },
      "hairColor": {
        "r": 0.29019609093666077,
        "g": 0.3176470696926117,
        "b": 0.3529411852359772,
        "a": 1.0
      },
      "bodyColors": [
        {
          "r": 0.9333333373069763,
          "g": 0.8666666746139526,
          "b": 0.843137264251709,
          "a": 1.0
        },
        {
          "r": 0.42352941632270813,
          "g": 0.4627451002597809,
          "b": 0.5647059082984924,
          "a": 1.0
        },
        {
          "r": 0.2980392277240753,
          "g": 0.27843138575553894,
          "b": 0.3176470696926117,
          "a": 1.0
        },
        {
          "r": 0.42352941632270813,
          "g": 0.4627451002597809,
          "b": 0.5647059082984924,
          "a": 1.0
        }
      ],
      "instanceId": 50023
    },
    {
      "crowdTypeID": 64,
      "animConfigID": 9,
      "spawnPosition": {
        "x": -525.3997192382812,
        "y": 203.26019287109375,
        "z": 305.79541015625
      },
      "spawnFaceFwd": {
        "x": -0.7457877993583679,
        "z": -0.666183590888977
      },
      "hairColor": {
        "r": 0.32156863808631897,
        "g": 0.21568627655506134,
        "b": 0.18039216101169586,
        "a": 1.0
      },
      "bodyColors": [
        {
          "r": 0.9058823585510254,
          "g": 0.7882353067398071,
          "b": 0.7333333492279053,
          "a": 1.0
        },
        {
          "r": 0.42352941632270813,
          "g": 0.4627451002597809,
          "b": 0.5647059082984924,
          "a": 1.0
        },
        {
          "r": 0.6745098233222961,
          "g": 0.6666666865348816,
          "b": 0.6549019813537598,
          "a": 1.0
        },
        {
          "r": 0.2980392277240753,
          "g": 0.27843138575553894,
          "b": 0.3176470696926117,
          "a": 1.0
        }
      ],
      "instanceId": 50024
    },
    {
      "crowdTypeID": 72,
      "animConfigID": 9,
      "spawnPosition": {
        "x": -574.3305053710938,
        "y": 201.57479858398438,
        "z": 261.23388671875
      },
      "spawnFaceFwd": {
        "x": 0.9173625707626343,
        "z": -0.3980525732040405
      },
      "hairColor": {
        "r": 0.32156863808631897,
        "g": 0.21568627655506134,
        "b": 0.18039216101169586,
        "a": 1.0
      },
      "bodyColors": [
        {
          "r": 0.9333333373069763,
          "g": 0.8666666746139526,
          "b": 0.843137264251709,
          "a": 1.0
        },
        {
          "r": 0.4117647111415863,
          "g": 0.35686275362968445,
          "b": 0.3960784375667572,
          "a": 1.0
        },
        {
          "r": 0.5647059082984924,
          "g": 0.5490196347236633,
          "b": 0.5607843399047852,
          "a": 1.0
        },
        {
          "r": 0.2666666805744171,
          "g": 0.2078431397676468,
          "b": 0.23529411852359772,
          "a": 1.0
        }
      ],
      "instanceId": 50025
    },
    {
      "crowdTypeID": 66,
      "spawnPosition": {
        "x": -569.802978515625,
        "y": 201.59129333496094,
        "z": 263.03289794921875
      },
      "spawnFaceFwd": {
        "x": -0.9567272067070007,
        "z": -0.29098618030548096
      },
      "hairColor": {
        "r": 0.32156863808631897,
        "g": 0.21568627655506134,
        "b": 0.18039216101169586,
        "a": 1.0
      },
      "bodyColors": [
        {
          "r": 0.9058823585510254,
          "g": 0.7882353067398071,
          "b": 0.7333333492279053,
          "a": 1.0
        },
        {
          "r": 0.239215686917305,
          "g": 0.2666666805744171,
          "b": 0.29411765933036804,
          "a": 1.0
        },
        {
          "r": 0.7568627595901489,
          "g": 0.7568627595901489,
          "b": 0.7254902124404907,
          "a": 1.0
        },
        {
          "r": 0.47843137383461,
          "g": 0.4470588266849518,
          "b": 0.3960784375667572,
          "a": 1.0
        }
      ],
      "instanceId": 50026
    },
    {
      "crowdTypeID": 88,
      "animConfigID": 1,
      "spawnPosition": {
        "x": -566.2623901367188,
        "y": 210.02220153808594,
        "z": 274.9901123046875
      },
      "spawnFaceFwd": {
        "x": 0.2673611044883728,
        "z": -0.9635963439941406
      },
      "hairColor": {
        "r": 0.25882354378700256,
        "g": 0.25882354378700256,
        "b": 0.25882354378700256,
        "a": 1.0
      },
      "bodyColors": [
        {
          "r": 0.9333333373069763,
          "g": 0.8666666746139526,
          "b": 0.843137264251709,
          "a": 1.0
        },
        {
          "r": 0.239215686917305,
          "g": 0.2666666805744171,
          "b": 0.29411765933036804,
          "a": 1.0
        },
        {
          "r": 0.7568627595901489,
          "g": 0.7568627595901489,
          "b": 0.7254902124404907,
          "a": 1.0
        },
        {
          "r": 0.47843137383461,
          "g": 0.4470588266849518,
          "b": 0.3960784375667572,
          "a": 1.0
        }
      ],
      "instanceId": 50027
    },
    {
      "crowdTypeID": 90,
      "spawnPosition": {
        "x": -513.3441162109375,
        "y": 203.25650024414062,
        "z": 310.66448974609375
      },
      "spawnFaceFwd": {
        "x": -0.9569469094276428,
        "z": -0.29026317596435547
      },
      "hairColor": {
        "r": 0.8392156958580017,
        "g": 0.8392156958580017,
        "b": 0.8392156958580017,
        "a": 1.0
      },
      "bodyColors": [
        {
          "r": 0.9058823585510254,
          "g": 0.7882353067398071,
          "b": 0.7333333492279053,
          "a": 1.0
        },
        {
          "r": 0.42352941632270813,
          "g": 0.4627451002597809,
          "b": 0.5647059082984924,
          "a": 1.0
        },
        {
          "r": 0.6745098233222961,
          "g": 0.6666666865348816,
          "b": 0.6549019813537598,
          "a": 1.0
        },
        {
          "r": 0.2980392277240753,
          "g": 0.27843138575553894,
          "b": 0.3176470696926117,
          "a": 1.0
        }
      ],
      "instanceId": 50028
    },
    {
      "crowdTypeID": 88,
      "animConfigID": 1,
      "spawnPosition": {
        "x": -525.8660278320312,
        "y": 203.27220153808594,
        "z": 304.1440124511719
      },
      "spawnFaceFwd": {
        "x": -0.012454490177333355,
        "z": 0.9999224543571472
      },
      "hairColor": {
        "r": 0.25882354378700256,
        "g": 0.25882354378700256,
        "b": 0.25882354378700256,
        "a": 1.0
      },
      "bodyColors": [
        {
          "r": 0.9058823585510254,
          "g": 0.7882353067398071,
          "b": 0.7333333492279053,
          "a": 1.0
        },
        {
          "r": 0.4117647111415863,
          "g": 0.35686275362968445,
          "b": 0.3960784375667572,
          "a": 1.0
        },
        {
          "r": 0.5647059082984924,
          "g": 0.5490196347236633,
          "b": 0.5607843399047852,
          "a": 1.0
        },
        {
          "r": 0.2666666805744171,
          "g": 0.2078431397676468,
          "b": 0.23529411852359772,
          "a": 1.0
        }
      ],
      "instanceId": 50029
    },
    {
      "crowdTypeID": 76,
      "animConfigID": 4,
      "spawnPosition": {
        "x": -526.461181640625,
        "y": 203.27220153808594,
        "z": 306.081787109375
      },
      "spawnFaceFwd": {
        "x": -0.050551168620586395,
        "z": -0.9987215995788574
      },
      "hairColor": {
        "r": 0.32156863808631897,
        "g": 0.21568627655506134,
        "b": 0.18039216101169586,
        "a": 1.0
      },
      "bodyColors": [
        {
          "r": 0.9333333373069763,
          "g": 0.8666666746139526,
          "b": 0.843137264251709,
          "a": 1.0
        },
        {
          "r": 0.4117647111415863,
          "g": 0.35686275362968445,
          "b": 0.3960784375667572,
          "a": 1.0
        },
        {
          "r": 0.5647059082984924,
          "g": 0.5490196347236633,
          "b": 0.5607843399047852,
          "a": 1.0
        },
        {
          "r": 0.2666666805744171,
          "g": 0.2078431397676468,
          "b": 0.23529411852359772,
          "a": 1.0
        }
      ],
      "instanceId": 50030
    },
    {
      "crowdTypeID": 79,
      "animConfigID": 7,
      "spawnPosition": {
        "x": -518.3090209960938,
        "y": 203.2899932861328,
        "z": 309.53851318359375
      },
      "spawnFaceFwd": {
        "x": -0.6783367395401001,
        "z": 0.7347511649131775
      },
      "hairColor": {
        "r": 0.29019609093666077,
        "g": 0.3176470696926117,
        "b": 0.3529411852359772,
        "a": 1.0
      },
      "bodyColors": [
        {
          "r": 0.9333333373069763,
          "g": 0.8666666746139526,
          "b": 0.843137264251709,
          "a": 1.0
        },
        {
          "r": 0.42352941632270813,
          "g": 0.4627451002597809,
          "b": 0.5647059082984924,
          "a": 1.0
        },
        {
          "r": 0.6745098233222961,
          "g": 0.6666666865348816,
          "b": 0.6549019813537598,
          "a": 1.0
        },
        {
          "r": 0.2980392277240753,
          "g": 0.27843138575553894,
          "b": 0.3176470696926117,
          "a": 1.0
        }
      ],
      "instanceId": 50031
    },
    {
      "crowdTypeID": 124,
      "spawnPosition": {
        "x": -516.4044799804688,
        "y": 203.27349853515625,
        "z": 307.5231018066406
      },
      "spawnFaceFwd": {
        "z": 1.0
      },
      "hairColor": {
        "r": 0.29019609093666077,
        "g": 0.3176470696926117,
        "b": 0.3529411852359772,
        "a": 1.0
      },
      "bodyColors": [
        {
          "r": 0.9058823585510254,
          "g": 0.7882353067398071,
          "b": 0.7333333492279053,
          "a": 1.0
        },
        {
          "r": 0.239215686917305,
          "g": 0.2666666805744171,
          "b": 0.29411765933036804,
          "a": 1.0
        },
        {
          "r": 0.7568627595901489,
          "g": 0.7568627595901489,
          "b": 0.7254902124404907,
          "a": 1.0
        },
        {
          "r": 0.47843137383461,
          "g": 0.4470588266849518,
          "b": 0.3960784375667572,
          "a": 1.0
        }
      ],
      "instanceId": 50032
    }
  ]
}