{
  "crowdSpawnInfos": [
    {
      "crowdTypeID": 64,
      "animConfigID": 6,
      "spawnPosition": {
        "x": -586.3242797851562,
        "y": 226.39039611816406,
        "z": 336.14630126953125
      },
      "spawnFaceFwd": {
        "x": -0.03774062544107437,
        "z": 0.9992875456809998
      },
      "hairColor": {
        "r": 0.32156863808631897,
        "g": 0.21568627655506134,
        "b": 0.18039216101169586,
        "a": 1.0
      },
      "bodyColors": [
        {
          "r": 0.9058823585510254,
          "g": 0.7882353067398071,
          "b": 0.7333333492279053,
          "a": 1.0
        },
        {
          "r": 0.239215686917305,
          "g": 0.2666666805744171,
          "b": 0.29411765933036804,
          "a": 1.0
        },
        {
          "r": 0.7568627595901489,
          "g": 0.7568627595901489,
          "b": 0.7254902124404907,
          "a": 1.0
        },
        {
          "r": 0.47843137383461,
          "g": 0.4470588266849518,
          "b": 0.3960784375667572,
          "a": 1.0
        }
      ],
      "instanceId": 160002
    },
    {
      "crowdTypeID": 80,
      "animConfigID": 2,
      "spawnPosition": {
        "x": -586.2780151367188,
        "y": 226.39039611816406,
        "z": 337.4353942871094
      },
      "spawnFaceFwd": {
        "x": 0.23486554622650146,
        "z": -0.9720277786254883
      },
      "hairColor": {
        "r": 0.25882354378700256,
        "g": 0.25882354378700256,
        "b": 0.25882354378700256,
        "a": 1.0
      },
      "bodyColors": [
        {
          "r": 0.9333333373069763,
          "g": 0.8666666746139526,
          "b": 0.843137264251709,
          "a": 1.0
        },
        {
          "r": 0.4117647111415863,
          "g": 0.35686275362968445,
          "b": 0.3960784375667572,
          "a": 1.0
        },
        {
          "r": 0.5647059082984924,
          "g": 0.5490196347236633,
          "b": 0.5607843399047852,
          "a": 1.0
        },
        {
          "r": 0.2666666805744171,
          "g": 0.2078431397676468,
          "b": 0.23529411852359772,
          "a": 1.0
        }
      ],
      "instanceId": 160003
    },
    {
      "crowdTypeID": 79,
      "animConfigID": 1,
      "spawnPosition": {
        "x": -577.7310791015625,
        "y": 232.40330505371094,
        "z": 349.4285888671875
      },
      "spawnFaceFwd": {
        "x": -0.04731922596693039,
        "z": -0.9988797903060913
      },
      "hairColor": {
        "r": 0.29019609093666077,
        "g": 0.3176470696926117,
        "b": 0.3529411852359772,
        "a": 1.0
      },
      "bodyColors": [
        {
          "r": 0.9333333373069763,
          "g": 0.8666666746139526,
          "b": 0.843137264251709,
          "a": 1.0
        },
        {
          "r": 0.41960784792900085,
          "g": 0.41960784792900085,
          "b": 0.4117647111415863,
          "a": 1.0
        },
        {
          "r": 0.3764705955982208,
          "g": 0.2823529541492462,
          "b": 0.2823529541492462,
          "a": 1.0
        },
        {
          "r": 0.2549019753932953,
          "g": 0.26274511218070984,
          "b": 0.2705882489681244,
          "a": 1.0
        }
      ],
      "instanceId": 160004
    },
    {
      "crowdTypeID": 20,
      "spawnPosition": {
        "x": -603.1373291015625,
        "y": 227.1884002685547,
        "z": 323.38909912109375
      },
      "spawnFaceFwd": {
        "x": 0.7277056574821472,
        "z": -0.6858896017074585
      },
      "hairColor": {
        "r": 0.25882354378700256,
        "g": 0.25882354378700256,
        "b": 0.25882354378700256,
        "a": 1.0
      },
      "bodyColors": [
        {
          "r": 1.0,
          "g": 1.0,
          "b": 1.0,
          "a": 1.0
        },
        {
          "r": 1.0,
          "g": 1.0,
          "b": 1.0,
          "a": 1.0
        },
        {
          "r": 1.0,
          "g": 1.0,
          "b": 1.0,
          "a": 1.0
        },
        {
          "r": 1.0,
          "g": 1.0,
          "b": 1.0,
          "a": 1.0
        }
      ],
      "instanceId": 160006
    },
    {
      "crowdTypeID": 20,
      "spawnPosition": {
        "x": -592.663818359375,
        "y": 227.1884002685547,
        "z": 312.7416076660156
      },
      "spawnFaceFwd": {
        "x": -0.687604546546936,
        "z": 0.7260854244232178
      },
      "hairColor": {
        "r": 0.29019609093666077,
        "g": 0.3176470696926117,
        "b": 0.3529411852359772,
        "a": 1.0
      },
      "bodyColors": [
        {
          "r": 1.0,
          "g": 1.0,
          "b": 1.0,
          "a": 1.0
        },
        {
          "r": 1.0,
          "g": 1.0,
          "b": 1.0,
          "a": 1.0
        },
        {
          "r": 1.0,
          "g": 1.0,
          "b": 1.0,
          "a": 1.0
        },
        {
          "r": 1.0,
          "g": 1.0,
          "b": 1.0,
          "a": 1.0
        }
      ],
      "instanceId": 160007
    },
    {
      "crowdTypeID": 79,
      "spawnPosition": {
        "x": -610.5836791992188,
        "y": 225.46409606933594,
        "z": 320.7403869628906
      },
      "spawnFaceFwd": {
        "x": 0.42436540126800537,
        "z": -0.9054911136627197
      },
      "hairColor": {
        "r": 0.25882354378700256,
        "g": 0.25882354378700256,
        "b": 0.25882354378700256,
        "a": 1.0
      },
      "bodyColors": [
        {
          "r": 0.9333333373069763,
          "g": 0.8666666746139526,
          "b": 0.843137264251709,
          "a": 1.0
        },
        {
          "r": 0.42352941632270813,
          "g": 0.4627451002597809,
          "b": 0.5647059082984924,
          "a": 1.0
        },
        {
          "r": 0.6745098233222961,
          "g": 0.6666666865348816,
          "b": 0.6549019813537598,
          "a": 1.0
        },
        {
          "r": 0.2980392277240753,
          "g": 0.27843138575553894,
          "b": 0.3176470696926117,
          "a": 1.0
        }
      ],
      "instanceId": 160008
    },
    {
      "crowdTypeID": 69,
      "animConfigID": 1,
      "spawnPosition": {
        "x": -610.0347290039062,
        "y": 225.46409606933594,
        "z": 319.8749084472656
      },
      "spawnFaceFwd": {
        "x": -0.6160426735877991,
        "z": 0.7877127528190613
      },
      "hairColor": {
        "r": 0.29019609093666077,
        "g": 0.3176470696926117,
        "b": 0.3529411852359772,
        "a": 1.0
      },
      "bodyColors": [
        {
          "r": 0.9058823585510254,
          "g": 0.7882353067398071,
          "b": 0.7333333492279053,
          "a": 1.0
        },
        {
          "r": 0.239215686917305,
          "g": 0.2666666805744171,
          "b": 0.29411765933036804,
          "a": 1.0
        },
        {
          "r": 0.7568627595901489,
          "g": 0.7568627595901489,
          "b": 0.7254902124404907,
          "a": 1.0
        },
        {
          "r": 0.47843137383461,
          "g": 0.4470588266849518,
          "b": 0.3960784375667572,
          "a": 1.0
        }
      ],
      "instanceId": 160009
    },
    {
      "crowdTypeID": 90,
      "animConfigID": 1,
      "spawnPosition": {
        "x": -591.0692138671875,
        "y": 243.42630004882812,
        "z": 327.37109375
      },
      "spawnFaceFwd": {
        "x": 0.9695561528205872,
        "z": 0.2448691725730896
      },
      "hairColor": {
        "r": 0.8392156958580017,
        "g": 0.8392156958580017,
        "b": 0.8392156958580017,
        "a": 1.0
      },
      "bodyColors": [
        {
          "r": 0.9058823585510254,
          "g": 0.7882353067398071,
          "b": 0.7333333492279053,
          "a": 1.0
        },
        {
          "r": 0.42352941632270813,
          "g": 0.4627451002597809,
          "b": 0.5647059082984924,
          "a": 1.0
        },
        {
          "r": 0.6745098233222961,
          "g": 0.6666666865348816,
          "b": 0.6549019813537598,
          "a": 1.0
        },
        {
          "r": 0.2980392277240753,
          "g": 0.27843138575553894,
          "b": 0.3176470696926117,
          "a": 1.0
        }
      ],
      "instanceId": 160011
    },
    {
      "crowdTypeID": 65,
      "spawnPosition": {
        "x": -590.593994140625,
        "y": 243.42630004882812,
        "z": 326.5397033691406
      },
      "spawnFaceFwd": {
        "x": 0.5778989195823669,
        "z": 0.8161083459854126
      },
      "hairColor": {
        "r": 0.32156863808631897,
        "g": 0.21568627655506134,
        "b": 0.18039216101169586,
        "a": 1.0
      },
      "bodyColors": [
        {
          "r": 0.9058823585510254,
          "g": 0.7882353067398071,
          "b": 0.7333333492279053,
          "a": 1.0
        },
        {
          "r": 0.2235294133424759,
          "g": 0.2705882489681244,
          "b": 0.3607843220233917,
          "a": 1.0
        },
        {
          "r": 0.5686274766921997,
          "g": 0.572549045085907,
          "b": 0.6117647290229797,
          "a": 1.0
        },
        {
          "r": 0.3137255012989044,
          "g": 0.38823530077934265,
          "b": 0.47843137383461,
          "a": 1.0
        }
      ],
      "instanceId": 160012
    },
    {
      "crowdTypeID": 72,
      "animConfigID": 5,
      "spawnPosition": {
        "x": -564.007080078125,
        "y": 244.02279663085938,
        "z": 322.67449951171875
      },
      "spawnFaceFwd": {
        "x": 0.5406427383422852,
        "z": -0.8412522077560425
      },
      "hairColor": {
        "r": 0.25882354378700256,
        "g": 0.25882354378700256,
        "b": 0.25882354378700256,
        "a": 1.0
      },
      "bodyColors": [
        {
          "r": 0.9333333373069763,
          "g": 0.8666666746139526,
          "b": 0.843137264251709,
          "a": 1.0
        },
        {
          "r": 0.41960784792900085,
          "g": 0.41960784792900085,
          "b": 0.4117647111415863,
          "a": 1.0
        },
        {
          "r": 0.3764705955982208,
          "g": 0.2823529541492462,
          "b": 0.2823529541492462,
          "a": 1.0
        },
        {
          "r": 0.2549019753932953,
          "g": 0.26274511218070984,
          "b": 0.2705882489681244,
          "a": 1.0
        }
      ],
      "instanceId": 160013
    },
    {
      "crowdTypeID": 125,
      "spawnPosition": {
        "x": -572.3289184570312,
        "y": 244.12489318847656,
        "z": 330.79998779296875
      },
      "spawnFaceFwd": {
        "x": 0.999294638633728,
        "z": -0.037552475929260254
      },
      "hairColor": {
        "r": 0.32156863808631897,
        "g": 0.21568627655506134,
        "b": 0.18039216101169586,
        "a": 1.0
      },
      "bodyColors": [
        {
          "r": 0.9333333373069763,
          "g": 0.8666666746139526,
          "b": 0.843137264251709,
          "a": 1.0
        },
        {
          "r": 0.239215686917305,
          "g": 0.2666666805744171,
          "b": 0.29411765933036804,
          "a": 1.0
        },
        {
          "r": 0.7568627595901489,
          "g": 0.7568627595901489,
          "b": 0.7254902124404907,
          "a": 1.0
        },
        {
          "r": 0.47843137383461,
          "g": 0.4470588266849518,
          "b": 0.3960784375667572,
          "a": 1.0
        }
      ],
      "instanceId": 160014
    },
    {
      "crowdTypeID": 80,
      "animConfigID": 3,
      "spawnPosition": {
        "x": -573.2327270507812,
        "y": 232.8258056640625,
        "z": 330.75048828125
      },
      "spawnFaceFwd": {
        "x": 0.8536899089813232,
        "z": -0.5207816362380981
      },
      "hairColor": {
        "r": 0.32156863808631897,
        "g": 0.21568627655506134,
        "b": 0.18039216101169586,
        "a": 1.0
      },
      "bodyColors": [
        {
          "r": 0.9333333373069763,
          "g": 0.8666666746139526,
          "b": 0.843137264251709,
          "a": 1.0
        },
        {
          "r": 0.42352941632270813,
          "g": 0.4627451002597809,
          "b": 0.5647059082984924,
          "a": 1.0
        },
        {
          "r": 0.6745098233222961,
          "g": 0.6666666865348816,
          "b": 0.6549019813537598,
          "a": 1.0
        },
        {
          "r": 0.2980392277240753,
          "g": 0.27843138575553894,
          "b": 0.3176470696926117,
          "a": 1.0
        }
      ],
      "instanceId": 160016
    },
    {
      "crowdTypeID": 72,
      "animConfigID": 7,
      "spawnPosition": {
        "x": -572.20751953125,
        "y": 232.8157958984375,
        "z": 330.12939453125
      },
      "spawnFaceFwd": {
        "x": 0.9942575693130493,
        "z": -0.10701382160186768
      },
      "hairColor": {
        "r": 0.25882354378700256,
        "g": 0.25882354378700256,
        "b": 0.25882354378700256,
        "a": 1.0
      },
      "bodyColors": [
        {
          "r": 0.9333333373069763,
          "g": 0.8666666746139526,
          "b": 0.843137264251709,
          "a": 1.0
        },
        {
          "r": 0.239215686917305,
          "g": 0.2666666805744171,
          "b": 0.29411765933036804,
          "a": 1.0
        },
        {
          "r": 0.7568627595901489,
          "g": 0.7568627595901489,
          "b": 0.7254902124404907,
          "a": 1.0
        },
        {
          "r": 0.47843137383461,
          "g": 0.4470588266849518,
          "b": 0.3960784375667572,
          "a": 1.0
        }
      ],
      "instanceId": 160017
    },
    {
      "crowdTypeID": 79,
      "animConfigID": 1,
      "spawnPosition": {
        "x": -603.33251953125,
        "y": 232.40330505371094,
        "z": 331.04180908203125
      },
      "spawnFaceFwd": {
        "x": 0.9899723529815674,
        "z": -0.14126050472259521
      },
      "hairColor": {
        "r": 0.29019609093666077,
        "g": 0.3176470696926117,
        "b": 0.3529411852359772,
        "a": 1.0
      },
      "bodyColors": [
        {
          "r": 0.9333333373069763,
          "g": 0.8666666746139526,
          "b": 0.843137264251709,
          "a": 1.0
        },
        {
          "r": 0.2235294133424759,
          "g": 0.2705882489681244,
          "b": 0.3607843220233917,
          "a": 1.0
        },
        {
          "r": 0.5686274766921997,
          "g": 0.572549045085907,
          "b": 0.6117647290229797,
          "a": 1.0
        },
        {
          "r": 0.3137255012989044,
          "g": 0.38823530077934265,
          "b": 0.47843137383461,
          "a": 1.0
        }
      ],
      "instanceId": 160021
    },
    {
      "crowdTypeID": 73,
      "spawnPosition": {
        "x": -602.21728515625,
        "y": 232.40330505371094,
        "z": 330.9547119140625
      },
      "spawnFaceFwd": {
        "x": -0.9378859400749207,
        "z": 0.346943736076355
      },
      "hairColor": {
        "r": 0.25882354378700256,
        "g": 0.25882354378700256,
        "b": 0.25882354378700256,
        "a": 1.0
      },
      "bodyColors": [
        {
          "r": 0.9333333373069763,
          "g": 0.8666666746139526,
          "b": 0.843137264251709,
          "a": 1.0
        },
        {
          "r": 0.6745098233222961,
          "g": 0.6666666865348816,
          "b": 0.6549019813537598,
          "a": 1.0
        },
        {
          "r": 0.42352941632270813,
          "g": 0.4627451002597809,
          "b": 0.5647059082984924,
          "a": 1.0
        },
        {
          "r": 0.2980392277240753,
          "g": 0.27843138575553894,
          "b": 0.3176470696926117,
          "a": 1.0
        }
      ],
      "instanceId": 160022
    },
    {
      "crowdTypeID": 79,
      "spawnPosition": {
        "x": -597.5164184570312,
        "y": 243.42630004882812,
        "z": 322.07110595703125
      },
      "spawnFaceFwd": {
        "x": -0.8474230170249939,
        "y": -0.0002792526502162218,
        "z": -0.5309183597564697
      },
      "hairColor": {
        "r": 0.25882354378700256,
        "g": 0.25882354378700256,
        "b": 0.25882354378700256,
        "a": 1.0
      },
      "bodyColors": [
        {
          "r": 0.9333333373069763,
          "g": 0.8666666746139526,
          "b": 0.843137264251709,
          "a": 1.0
        },
        {
          "r": 0.239215686917305,
          "g": 0.2666666805744171,
          "b": 0.29411765933036804,
          "a": 1.0
        },
        {
          "r": 0.7568627595901489,
          "g": 0.7568627595901489,
          "b": 0.7254902124404907,
          "a": 1.0
        },
        {
          "r": 0.47843137383461,
          "g": 0.4470588266849518,
          "b": 0.3960784375667572,
          "a": 1.0
        }
      ],
      "instanceId": 160023
    },
    {
      "crowdTypeID": 74,
      "animConfigID": 7,
      "spawnPosition": {
        "x": -577.451416015625,
        "y": 234.0854949951172,
        "z": 306.8774108886719
      },
      "spawnFaceFwd": {
        "x": -0.7877549529075623,
        "z": -0.6159887313842773
      },
      "hairColor": {
        "r": 0.32156863808631897,
        "g": 0.21568627655506134,
        "b": 0.18039216101169586,
        "a": 1.0
      },
      "bodyColors": [
        {
          "r": 0.9333333373069763,
          "g": 0.8666666746139526,
          "b": 0.843137264251709,
          "a": 1.0
        },
        {
          "r": 0.239215686917305,
          "g": 0.2666666805744171,
          "b": 0.29411765933036804,
          "a": 1.0
        },
        {
          "r": 0.7568627595901489,
          "g": 0.7568627595901489,
          "b": 0.7254902124404907,
          "a": 1.0
        },
        {
          "r": 0.47843137383461,
          "g": 0.4470588266849518,
          "b": 0.3960784375667572,
          "a": 1.0
        }
      ],
      "instanceId": 160024
    },
    {
      "crowdTypeID": 76,
      "animConfigID": 4,
      "spawnPosition": {
        "x": -568.3701171875,
        "y": 232.8157958984375,
        "z": 320.8446960449219
      },
      "spawnFaceFwd": {
        "x": -0.9996289610862732,
        "z": -0.027237296104431152
      },
      "hairColor": {
        "r": 0.29019609093666077,
        "g": 0.3176470696926117,
        "b": 0.3529411852359772,
        "a": 1.0
      },
      "bodyColors": [
        {
          "r": 0.9333333373069763,
          "g": 0.8666666746139526,
          "b": 0.843137264251709,
          "a": 1.0
        },
        {
          "r": 0.4117647111415863,
          "g": 0.35686275362968445,
          "b": 0.3960784375667572,
          "a": 1.0
        },
        {
          "r": 0.5647059082984924,
          "g": 0.5490196347236633,
          "b": 0.5607843399047852,
          "a": 1.0
        },
        {
          "r": 0.2666666805744171,
          "g": 0.2078431397676468,
          "b": 0.23529411852359772,
          "a": 1.0
        }
      ],
      "instanceId": 160026
    },
    {
      "crowdTypeID": 88,
      "spawnPosition": {
        "x": -569.9954223632812,
        "y": 232.8157958984375,
        "z": 320.4609069824219
      },
      "spawnFaceFwd": {
        "x": 0.848616361618042,
        "z": 0.5290087461471558
      },
      "hairColor": {
        "r": 0.29019609093666077,
        "g": 0.3176470696926117,
        "b": 0.3529411852359772,
        "a": 1.0
      },
      "bodyColors": [
        {
          "r": 0.9058823585510254,
          "g": 0.7882353067398071,
          "b": 0.7333333492279053,
          "a": 1.0
        },
        {
          "r": 0.41960784792900085,
          "g": 0.41960784792900085,
          "b": 0.4117647111415863,
          "a": 1.0
        },
        {
          "r": 0.3764705955982208,
          "g": 0.2823529541492462,
          "b": 0.2823529541492462,
          "a": 1.0
        },
        {
          "r": 0.2549019753932953,
          "g": 0.26274511218070984,
          "b": 0.2705882489681244,
          "a": 1.0
        }
      ],
      "instanceId": 160027
    },
    {
      "crowdTypeID": 88,
      "animConfigID": 1,
      "spawnPosition": {
        "x": -600.281982421875,
        "y": 232.40330505371094,
        "z": 343.54229736328125
      },
      "spawnFaceFwd": {
        "z": 1.0
      },
      "hairColor": {
        "r": 0.32156863808631897,
        "g": 0.21568627655506134,
        "b": 0.18039216101169586,
        "a": 1.0
      },
      "bodyColors": [
        {
          "r": 0.9058823585510254,
          "g": 0.7882353067398071,
          "b": 0.7333333492279053,
          "a": 1.0
        },
        {
          "r": 0.42352941632270813,
          "g": 0.4627451002597809,
          "b": 0.5647059082984924,
          "a": 1.0
        },
        {
          "r": 0.6745098233222961,
          "g": 0.6666666865348816,
          "b": 0.6549019813537598,
          "a": 1.0
        },
        {
          "r": 0.2980392277240753,
          "g": 0.27843138575553894,
          "b": 0.3176470696926117,
          "a": 1.0
        }
      ],
      "instanceId": 160028
    },
    {
      "crowdTypeID": 89,
      "spawnPosition": {
        "x": -600.888916015625,
        "y": 232.40330505371094,
        "z": 344.43218994140625
      },
      "spawnFaceFwd": {
        "x": 0.980523943901062,
        "z": -0.19639968872070312
      },
      "hairColor": {
        "r": 0.32156863808631897,
        "g": 0.21568627655506134,
        "b": 0.18039216101169586,
        "a": 1.0
      },
      "bodyColors": [
        {
          "r": 0.9333333373069763,
          "g": 0.8666666746139526,
          "b": 0.843137264251709,
          "a": 1.0
        },
        {
          "r": 0.2666666805744171,
          "g": 0.2078431397676468,
          "b": 0.23529411852359772,
          "a": 1.0
        },
        {
          "r": 0.4117647111415863,
          "g": 0.35686275362968445,
          "b": 0.3960784375667572,
          "a": 1.0
        },
        {
          "r": 0.2666666805744171,
          "g": 0.2078431397676468,
          "b": 0.23529411852359772,
          "a": 1.0
        }
      ],
      "instanceId": 160029
    },
    {
      "crowdTypeID": 79,
      "animConfigID": 1,
      "spawnPosition": {
        "x": -596.6010131835938,
        "y": 232.40330505371094,
        "z": 361.0570068359375
      },
      "spawnFaceFwd": {
        "x": -0.05818447098135948,
        "z": 0.9983058571815491
      },
      "hairColor": {
        "r": 0.29019609093666077,
        "g": 0.3176470696926117,
        "b": 0.3529411852359772,
        "a": 1.0
      },
      "bodyColors": [
        {
          "r": 0.9333333373069763,
          "g": 0.8666666746139526,
          "b": 0.843137264251709,
          "a": 1.0
        },
        {
          "r": 0.2235294133424759,
          "g": 0.2705882489681244,
          "b": 0.3607843220233917,
          "a": 1.0
        },
        {
          "r": 0.5686274766921997,
          "g": 0.572549045085907,
          "b": 0.6117647290229797,
          "a": 1.0
        },
        {
          "r": 0.3137255012989044,
          "g": 0.38823530077934265,
          "b": 0.47843137383461,
          "a": 1.0
        }
      ],
      "instanceId": 160030
    },
    {
      "crowdTypeID": 85,
      "spawnPosition": {
        "x": -596.1478271484375,
        "y": 232.40330505371094,
        "z": 361.5044860839844
      },
      "spawnFaceFwd": {
        "x": -0.9998010993003845,
        "z": -0.01994621753692627
      },
      "hairColor": {
        "r": 0.25882354378700256,
        "g": 0.25882354378700256,
        "b": 0.25882354378700256,
        "a": 1.0
      },
      "bodyColors": [
        {
          "r": 0.9333333373069763,
          "g": 0.8666666746139526,
          "b": 0.843137264251709,
          "a": 1.0
        },
        {
          "r": 0.4117647111415863,
          "g": 0.35686275362968445,
          "b": 0.3960784375667572,
          "a": 1.0
        },
        {
          "r": 0.5647059082984924,
          "g": 0.5490196347236633,
          "b": 0.5607843399047852,
          "a": 1.0
        },
        {
          "r": 0.2666666805744171,
          "g": 0.2078431397676468,
          "b": 0.23529411852359772,
          "a": 1.0
        }
      ],
      "instanceId": 160031
    },
    {
      "crowdTypeID": 72,
      "spawnPosition": {
        "x": -577.6201171875,
        "y": 232.40330505371094,
        "z": 348.0994873046875
      },
      "spawnFaceFwd": {
        "z": 1.0
      },
      "hairColor": {
        "r": 0.25882354378700256,
        "g": 0.25882354378700256,
        "b": 0.25882354378700256,
        "a": 1.0
      },
      "bodyColors": [
        {
          "r": 0.9333333373069763,
          "g": 0.8666666746139526,
          "b": 0.843137264251709,
          "a": 1.0
        },
        {
          "r": 0.41960784792900085,
          "g": 0.41960784792900085,
          "b": 0.4117647111415863,
          "a": 1.0
        },
        {
          "r": 0.3764705955982208,
          "g": 0.2823529541492462,
          "b": 0.2823529541492462,
          "a": 1.0
        },
        {
          "r": 0.2549019753932953,
          "g": 0.26274511218070984,
          "b": 0.2705882489681244,
          "a": 1.0
        }
      ],
      "instanceId": 160032
    },
    {
      "crowdTypeID": 89,
      "spawnPosition": {
        "x": -569.6829223632812,
        "y": 232.8157958984375,
        "z": 321.35528564453125
      },
      "spawnFaceFwd": {
        "x": 0.9975626468658447,
        "z": 0.06977725028991699
      },
      "hairColor": {
        "r": 0.29019609093666077,
        "g": 0.3176470696926117,
        "b": 0.3529411852359772,
        "a": 1.0
      },
      "bodyColors": [
        {
          "r": 0.9333333373069763,
          "g": 0.8666666746139526,
          "b": 0.843137264251709,
          "a": 1.0
        },
        {
          "r": 0.41960784792900085,
          "g": 0.41960784792900085,
          "b": 0.4117647111415863,
          "a": 1.0
        },
        {
          "r": 0.3764705955982208,
          "g": 0.2823529541492462,
          "b": 0.2823529541492462,
          "a": 1.0
        },
        {
          "r": 0.2549019753932953,
          "g": 0.26274511218070984,
          "b": 0.2705882489681244,
          "a": 1.0
        }
      ],
      "instanceId": 160035
    }
  ]
}