{
  "crowdSpawnInfos": [
    {
      "crowdTypeID": 243,
      "spawnPosition": {
        "x": 617.3496704101562,
        "y": 86.9711685180664,
        "z": 649.343505859375
      },
      "spawnFaceFwd": {
        "x": -0.9207207560539246,
        "z": -0.3902219533920288
      },
      "hairColor": {
        "r": 0.3960784375667572,
        "g": 0.27843138575553894,
        "b": 0.1882352977991104,
        "a": 1.0
      },
      "bodyColors": [
        {
          "r": 0.9333333373069763,
          "g": 0.8666666746139526,
          "b": 0.843137264251709,
          "a": 1.0
        },
        {
          "r": 0.7803921699523926,
          "g": 0.7215686440467834,
          "b": 0.6666666865348816,
          "a": 1.0
        },
        {
          "r": 0.3490196168422699,
          "g": 0.25882354378700256,
          "b": 0.20392157137393951,
          "a": 1.0
        },
        {
          "r": 0.572549045085907,
          "g": 0.4000000059604645,
          "b": 0.25882354378700256,
          "a": 1.0
        }
      ],
      "instanceId": 10001
    },
    {
      "crowdTypeID": 263,
      "spawnPosition": {
        "x": 618.11376953125,
        "y": 86.99624633789062,
        "z": 648.0214233398438
      },
      "spawnFaceFwd": {
        "x": -0.8979806900024414,
        "z": -0.4400348663330078
      },
      "hairColor": {
        "r": 0.29019609093666077,
        "g": 0.3176470696926117,
        "b": 0.3529411852359772,
        "a": 1.0
      },
      "bodyColors": [
        {
          "r": 0.9058823585510254,
          "g": 0.7882353067398071,
          "b": 0.7333333492279053,
          "a": 1.0
        },
        {
          "r": 0.22745098173618317,
          "g": 0.2862745225429535,
          "b": 0.3137255012989044,
          "a": 1.0
        },
        {
          "r": 0.6196078658103943,
          "g": 0.5568627715110779,
          "b": 0.42352941632270813,
          "a": 1.0
        },
        {
          "r": 0.8313725590705872,
          "g": 0.8235294222831726,
          "b": 0.8078431487083435,
          "a": 1.0
        }
      ],
      "instanceId": 10002
    },
    {
      "crowdTypeID": 257,
      "animConfigID": 5,
      "spawnPosition": {
        "x": 621.5001831054688,
        "y": 87.63745880126953,
        "z": 643.1348876953125
      },
      "spawnFaceFwd": {
        "x": -0.9710038900375366,
        "z": -0.23906397819519043
      },
      "hairColor": {
        "r": 0.4274509847164154,
        "g": 0.37254902720451355,
        "b": 0.3019607961177826,
        "a": 1.0
      },
      "bodyColors": [
        {
          "r": 0.7921568751335144,
          "g": 0.6549019813537598,
          "b": 0.5843137502670288,
          "a": 1.0
        },
        {
          "r": 0.22745098173618317,
          "g": 0.2862745225429535,
          "b": 0.3137255012989044,
          "a": 1.0
        },
        {
          "r": 0.6196078658103943,
          "g": 0.5568627715110779,
          "b": 0.42352941632270813,
          "a": 1.0
        },
        {
          "r": 0.8313725590705872,
          "g": 0.8235294222831726,
          "b": 0.8078431487083435,
          "a": 1.0
        }
      ],
      "instanceId": 10003
    },
    {
      "crowdTypeID": 245,
      "spawnPosition": {
        "x": 622.0800170898438,
        "y": 87.71617126464844,
        "z": 638.3961181640625
      },
      "spawnFaceFwd": {
        "x": -0.9982402324676514,
        "z": 0.059299468994140625
      },
      "hairColor": {
        "r": 0.32156863808631897,
        "g": 0.21568627655506134,
        "b": 0.18039216101169586,
        "a": 1.0
      },
      "bodyColors": [
        {
          "r": 0.9333333373069763,
          "g": 0.8666666746139526,
          "b": 0.843137264251709,
          "a": 1.0
        },
        {
          "r": 0.7803921699523926,
          "g": 0.7215686440467834,
          "b": 0.6666666865348816,
          "a": 1.0
        },
        {
          "r": 0.3490196168422699,
          "g": 0.25882354378700256,
          "b": 0.20392157137393951,
          "a": 1.0
        },
        {
          "r": 0.572549045085907,
          "g": 0.4000000059604645,
          "b": 0.25882354378700256,
          "a": 1.0
        }
      ],
      "instanceId": 10004
    },
    {
      "crowdTypeID": 247,
      "spawnPosition": {
        "x": 622.1530151367188,
        "y": 87.7206802368164,
        "z": 637.5817260742188
      },
      "spawnFaceFwd": {
        "x": -0.9935917854309082,
        "z": 0.11302816867828369
      },
      "hairColor": {
        "r": 0.29019609093666077,
        "g": 0.3176470696926117,
        "b": 0.3529411852359772,
        "a": 1.0
      },
      "bodyColors": [
        {
          "r": 0.9058823585510254,
          "g": 0.7882353067398071,
          "b": 0.7333333492279053,
          "a": 1.0
        },
        {
          "r": 0.22745098173618317,
          "g": 0.2862745225429535,
          "b": 0.3137255012989044,
          "a": 1.0
        },
        {
          "r": 0.6196078658103943,
          "g": 0.5568627715110779,
          "b": 0.42352941632270813,
          "a": 1.0
        },
        {
          "r": 0.8313725590705872,
          "g": 0.8235294222831726,
          "b": 0.8078431487083435,
          "a": 1.0
        }
      ],
      "instanceId": 10005
    },
    {
      "crowdTypeID": 257,
      "animConfigID": 5,
      "spawnPosition": {
        "x": 622.1878051757812,
        "y": 87.72265625,
        "z": 636.6774291992188
      },
      "spawnFaceFwd": {
        "x": -0.9999670386314392,
        "z": 0.008115649223327637
      },
      "hairColor": {
        "r": 0.25882354378700256,
        "g": 0.25882354378700256,
        "b": 0.25882354378700256,
        "a": 1.0
      },
      "bodyColors": [
        {
          "r": 0.9058823585510254,
          "g": 0.7882353067398071,
          "b": 0.7333333492279053,
          "a": 1.0
        },
        {
          "r": 0.20392157137393951,
          "g": 0.27450981736183167,
          "b": 0.3921568691730499,
          "a": 1.0
        },
        {
          "r": 0.4901960790157318,
          "g": 0.19607843458652496,
          "b": 0.239215686917305,
          "a": 1.0
        },
        {
          "r": 0.8627451062202454,
          "g": 0.8549019694328308,
          "b": 0.8039215803146362,
          "a": 1.0
        }
      ],
      "instanceId": 10006
    },
    {
      "crowdTypeID": 263,
      "spawnPosition": {
        "x": 622.3107299804688,
        "y": 87.7098617553711,
        "z": 635.6365966796875
      },
      "spawnFaceFwd": {
        "x": -0.9936804175376892,
        "z": -0.11224591732025146
      },
      "hairColor": {
        "r": 0.29019609093666077,
        "g": 0.3176470696926117,
        "b": 0.3529411852359772,
        "a": 1.0
      },
      "bodyColors": [
        {
          "r": 0.7921568751335144,
          "g": 0.6549019813537598,
          "b": 0.5843137502670288,
          "a": 1.0
        },
        {
          "r": 0.7803921699523926,
          "g": 0.7215686440467834,
          "b": 0.6666666865348816,
          "a": 1.0
        },
        {
          "r": 0.3490196168422699,
          "g": 0.25882354378700256,
          "b": 0.20392157137393951,
          "a": 1.0
        },
        {
          "r": 0.572549045085907,
          "g": 0.4000000059604645,
          "b": 0.25882354378700256,
          "a": 1.0
        }
      ],
      "instanceId": 10007
    },
    {
      "crowdTypeID": 243,
      "spawnPosition": {
        "x": 621.9609985351562,
        "y": 87.72279357910156,
        "z": 630.30908203125
      },
      "spawnFaceFwd": {
        "x": -0.9878336787223816,
        "z": 0.1555137038230896
      },
      "hairColor": {
        "r": 0.32156863808631897,
        "g": 0.21568627655506134,
        "b": 0.18039216101169586,
        "a": 1.0
      },
      "bodyColors": [
        {
          "r": 0.9333333373069763,
          "g": 0.8666666746139526,
          "b": 0.843137264251709,
          "a": 1.0
        },
        {
          "r": 0.20392157137393951,
          "g": 0.27450981736183167,
          "b": 0.3921568691730499,
          "a": 1.0
        },
        {
          "r": 0.4901960790157318,
          "g": 0.19607843458652496,
          "b": 0.239215686917305,
          "a": 1.0
        },
        {
          "r": 0.8627451062202454,
          "g": 0.8549019694328308,
          "b": 0.8039215803146362,
          "a": 1.0
        }
      ],
      "instanceId": 10008
    },
    {
      "crowdTypeID": 247,
      "animConfigID": 3,
      "spawnPosition": {
        "x": 621.8709716796875,
        "y": 87.71534729003906,
        "z": 629.5349731445312
      },
      "spawnFaceFwd": {
        "x": -0.9827196598052979,
        "z": 0.185100257396698
      },
      "hairColor": {
        "r": 0.29019609093666077,
        "g": 0.3176470696926117,
        "b": 0.3529411852359772,
        "a": 1.0
      },
      "bodyColors": [
        {
          "r": 0.9333333373069763,
          "g": 0.8666666746139526,
          "b": 0.843137264251709,
          "a": 1.0
        },
        {
          "r": 0.3686274588108063,
          "g": 0.4588235318660736,
          "b": 0.3294117748737335,
          "a": 1.0
        },
        {
          "r": 0.33725491166114807,
          "g": 0.3019607961177826,
          "b": 0.09019608050584793,
          "a": 1.0
        },
        {
          "r": 0.729411780834198,
          "g": 0.7372549176216125,
          "b": 0.5921568870544434,
          "a": 1.0
        }
      ],
      "instanceId": 10009
    },
    {
      "crowdTypeID": 262,
      "spawnPosition": {
        "x": 619.4979248046875,
        "y": 86.05487060546875,
        "z": 624.9403076171875
      },
      "spawnFaceFwd": {
        "x": -0.9137776494026184,
        "z": 0.40621477365493774
      },
      "hairColor": {
        "r": 0.8392156958580017,
        "g": 0.8392156958580017,
        "b": 0.8392156958580017,
        "a": 1.0
      },
      "bodyColors": [
        {
          "r": 0.7921568751335144,
          "g": 0.6549019813537598,
          "b": 0.5843137502670288,
          "a": 1.0
        },
        {
          "r": 0.7803921699523926,
          "g": 0.7215686440467834,
          "b": 0.6666666865348816,
          "a": 1.0
        },
        {
          "r": 0.3490196168422699,
          "g": 0.25882354378700256,
          "b": 0.20392157137393951,
          "a": 1.0
        },
        {
          "r": 0.572549045085907,
          "g": 0.4000000059604645,
          "b": 0.25882354378700256,
          "a": 1.0
        }
      ],
      "instanceId": 10010
    },
    {
      "crowdTypeID": 250,
      "animConfigID": 5,
      "spawnPosition": {
        "x": 584.4935302734375,
        "y": 86.5511703491211,
        "z": 654.3576049804688
      },
      "spawnFaceFwd": {
        "x": 0.8199621438980103,
        "z": -0.5724176168441772
      },
      "hairColor": {
        "r": 0.3960784375667572,
        "g": 0.27843138575553894,
        "b": 0.1882352977991104,
        "a": 1.0
      },
      "bodyColors": [
        {
          "r": 0.9058823585510254,
          "g": 0.7882353067398071,
          "b": 0.7333333492279053,
          "a": 1.0
        },
        {
          "r": 0.38823530077934265,
          "g": 0.46666666865348816,
          "b": 0.5490196347236633,
          "a": 1.0
        },
        {
          "r": 0.8117647171020508,
          "g": 0.8078431487083435,
          "b": 0.7960784435272217,
          "a": 1.0
        },
        {
          "r": 0.7098039388656616,
          "g": 0.5686274766921997,
          "b": 0.32549020648002625,
          "a": 1.0
        }
      ],
      "instanceId": 10011
    },
    {
      "crowdTypeID": 249,
      "animConfigID": 3,
      "spawnPosition": {
        "x": 583.4443969726562,
        "y": 86.5511703491211,
        "z": 653.3189697265625
      },
      "spawnFaceFwd": {
        "x": 0.8800574541091919,
        "z": -0.47486722469329834
      },
      "hairColor": {
        "r": 0.32156863808631897,
        "g": 0.21568627655506134,
        "b": 0.18039216101169586,
        "a": 1.0
      },
      "bodyColors": [
        {
          "r": 0.9333333373069763,
          "g": 0.8666666746139526,
          "b": 0.843137264251709,
          "a": 1.0
        },
        {
          "r": 0.6509804129600525,
          "g": 0.5921568870544434,
          "b": 0.34117648005485535,
          "a": 1.0
        },
        {
          "r": 0.364705890417099,
          "g": 0.38823530077934265,
          "b": 0.2666666805744171,
          "a": 1.0
        },
        {
          "r": 0.47058823704719543,
          "g": 0.32156863808631897,
          "b": 0.239215686917305,
          "a": 1.0
        }
      ],
      "instanceId": 10012
    },
    {
      "crowdTypeID": 235,
      "spawnPosition": {
        "x": 582.4699096679688,
        "y": 86.5511703491211,
        "z": 652.3624267578125
      },
      "spawnFaceFwd": {
        "x": 0.7397275567054749,
        "z": -0.6729065179824829
      },
      "hairColor": {
        "r": 0.8392156958580017,
        "g": 0.8392156958580017,
        "b": 0.8392156958580017,
        "a": 1.0
      },
      "bodyColors": [
        {
          "r": 0.9058823585510254,
          "g": 0.7882353067398071,
          "b": 0.7333333492279053,
          "a": 1.0
        },
        {
          "r": 0.20392157137393951,
          "g": 0.27450981736183167,
          "b": 0.3921568691730499,
          "a": 1.0
        },
        {
          "r": 0.4901960790157318,
          "g": 0.19607843458652496,
          "b": 0.239215686917305,
          "a": 1.0
        },
        {
          "r": 0.8627451062202454,
          "g": 0.8549019694328308,
          "b": 0.8039215803146362,
          "a": 1.0
        }
      ],
      "instanceId": 10013
    },
    {
      "crowdTypeID": 237,
      "spawnPosition": {
        "x": 579.4979248046875,
        "y": 87.0711669921875,
        "z": 648.659912109375
      },
      "spawnFaceFwd": {
        "x": 0.8040375709533691,
        "z": -0.5945785045623779
      },
      "hairColor": {
        "r": 0.5215686559677124,
        "g": 0.40392157435417175,
        "b": 0.2549019753932953,
        "a": 1.0
      },
      "bodyColors": [
        {
          "r": 0.9058823585510254,
          "g": 0.7882353067398071,
          "b": 0.7333333492279053,
          "a": 1.0
        },
        {
          "r": 0.7803921699523926,
          "g": 0.7215686440467834,
          "b": 0.6666666865348816,
          "a": 1.0
        },
        {
          "r": 0.3490196168422699,
          "g": 0.25882354378700256,
          "b": 0.20392157137393951,
          "a": 1.0
        },
        {
          "r": 0.572549045085907,
          "g": 0.4000000059604645,
          "b": 0.25882354378700256,
          "a": 1.0
        }
      ],
      "instanceId": 10014
    },
    {
      "crowdTypeID": 258,
      "animConfigID": 5,
      "spawnPosition": {
        "x": 578.94677734375,
        "y": 87.0711669921875,
        "z": 647.5120849609375
      },
      "spawnFaceFwd": {
        "x": 0.8890898823738098,
        "z": -0.4577326774597168
      },
      "hairColor": {
        "r": 0.5215686559677124,
        "g": 0.40392157435417175,
        "b": 0.2549019753932953,
        "a": 1.0
      },
      "bodyColors": [
        {
          "r": 0.9058823585510254,
          "g": 0.7882353067398071,
          "b": 0.7333333492279053,
          "a": 1.0
        },
        {
          "r": 0.22745098173618317,
          "g": 0.2862745225429535,
          "b": 0.3137255012989044,
          "a": 1.0
        },
        {
          "r": 0.6196078658103943,
          "g": 0.5568627715110779,
          "b": 0.42352941632270813,
          "a": 1.0
        },
        {
          "r": 0.8313725590705872,
          "g": 0.8235294222831726,
          "b": 0.8078431487083435,
          "a": 1.0
        }
      ],
      "instanceId": 10015
    },
    {
      "crowdTypeID": 253,
      "animConfigID": 5,
      "spawnPosition": {
        "x": 575.702880859375,
        "y": 87.711181640625,
        "z": 642.523193359375
      },
      "spawnFaceFwd": {
        "x": 0.9929408431053162,
        "z": -0.11861062049865723
      },
      "hairColor": {
        "r": 0.5215686559677124,
        "g": 0.40392157435417175,
        "b": 0.2549019753932953,
        "a": 1.0
      },
      "bodyColors": [
        {
          "r": 0.9058823585510254,
          "g": 0.7882353067398071,
          "b": 0.7333333492279053,
          "a": 1.0
        },
        {
          "r": 0.20392157137393951,
          "g": 0.27450981736183167,
          "b": 0.3921568691730499,
          "a": 1.0
        },
        {
          "r": 0.4901960790157318,
          "g": 0.19607843458652496,
          "b": 0.239215686917305,
          "a": 1.0
        },
        {
          "r": 0.8627451062202454,
          "g": 0.8549019694328308,
          "b": 0.8039215803146362,
          "a": 1.0
        }
      ],
      "instanceId": 10016
    }
  ]
}