{
  "crowdSpawnInfos": [
    {
      "crowdTypeID": 20,
      "spawnPosition": {
        "x": -523.3438110351562,
        "y": 226.39039611816406,
        "z": 396.5627136230469
      },
      "spawnFaceFwd": {
        "x": -0.8341825604438782,
        "z": -0.5514883995056152
      },
      "hairColor": {
        "r": 0.29019609093666077,
        "g": 0.3176470696926117,
        "b": 0.3529411852359772,
        "a": 1.0
      },
      "bodyColors": [
        {
          "r": 1.0,
          "g": 1.0,
          "b": 1.0,
          "a": 1.0
        },
        {
          "r": 1.0,
          "g": 1.0,
          "b": 1.0,
          "a": 1.0
        },
        {
          "r": 1.0,
          "g": 1.0,
          "b": 1.0,
          "a": 1.0
        },
        {
          "r": 1.0,
          "g": 1.0,
          "b": 1.0,
          "a": 1.0
        }
      ],
      "instanceId": 140001
    },
    {
      "crowdTypeID": 20,
      "spawnPosition": {
        "x": -516.168212890625,
        "y": 226.39039611816406,
        "z": 389.1322937011719
      },
      "spawnFaceFwd": {
        "x": -0.7731090188026428,
        "z": -0.6342730522155762
      },
      "hairColor": {
        "r": 0.29019609093666077,
        "g": 0.3176470696926117,
        "b": 0.3529411852359772,
        "a": 1.0
      },
      "bodyColors": [
        {
          "r": 1.0,
          "g": 1.0,
          "b": 1.0,
          "a": 1.0
        },
        {
          "r": 1.0,
          "g": 1.0,
          "b": 1.0,
          "a": 1.0
        },
        {
          "r": 1.0,
          "g": 1.0,
          "b": 1.0,
          "a": 1.0
        },
        {
          "r": 1.0,
          "g": 1.0,
          "b": 1.0,
          "a": 1.0
        }
      ],
      "instanceId": 140002
    },
    {
      "crowdTypeID": 66,
      "animConfigID": 4,
      "spawnPosition": {
        "x": -514.6403198242188,
        "y": 226.83749389648438,
        "z": 360.7475891113281
      },
      "spawnFaceFwd": {
        "x": 0.6931514739990234,
        "z": -0.7207920551300049
      },
      "hairColor": {
        "r": 0.25882354378700256,
        "g": 0.25882354378700256,
        "b": 0.25882354378700256,
        "a": 1.0
      },
      "bodyColors": [
        {
          "r": 0.9058823585510254,
          "g": 0.7882353067398071,
          "b": 0.7333333492279053,
          "a": 1.0
        },
        {
          "r": 0.239215686917305,
          "g": 0.2666666805744171,
          "b": 0.29411765933036804,
          "a": 1.0
        },
        {
          "r": 0.7568627595901489,
          "g": 0.7568627595901489,
          "b": 0.7254902124404907,
          "a": 1.0
        },
        {
          "r": 0.47843137383461,
          "g": 0.4470588266849518,
          "b": 0.3960784375667572,
          "a": 1.0
        }
      ],
      "instanceId": 140003
    },
    {
      "crowdTypeID": 69,
      "animConfigID": 1,
      "spawnPosition": {
        "x": -534.4063720703125,
        "y": 226.39039611816406,
        "z": 369.0474853515625
      },
      "spawnFaceFwd": {
        "x": -0.9999975562095642,
        "z": -0.0022287368774414062
      },
      "hairColor": {
        "r": 0.25882354378700256,
        "g": 0.25882354378700256,
        "b": 0.25882354378700256,
        "a": 1.0
      },
      "bodyColors": [
        {
          "r": 0.9058823585510254,
          "g": 0.7882353067398071,
          "b": 0.7333333492279053,
          "a": 1.0
        },
        {
          "r": 0.2235294133424759,
          "g": 0.2705882489681244,
          "b": 0.3607843220233917,
          "a": 1.0
        },
        {
          "r": 0.5686274766921997,
          "g": 0.572549045085907,
          "b": 0.6117647290229797,
          "a": 1.0
        },
        {
          "r": 0.3137255012989044,
          "g": 0.38823530077934265,
          "b": 0.47843137383461,
          "a": 1.0
        }
      ],
      "instanceId": 140004
    },
    {
      "crowdTypeID": 64,
      "animConfigID": 6,
      "spawnPosition": {
        "x": -535.5609130859375,
        "y": 226.39039611816406,
        "z": 368.7889099121094
      },
      "spawnFaceFwd": {
        "x": 0.8718137145042419,
        "z": 0.48983752727508545
      },
      "hairColor": {
        "r": 0.25882354378700256,
        "g": 0.25882354378700256,
        "b": 0.25882354378700256,
        "a": 1.0
      },
      "bodyColors": [
        {
          "r": 0.9058823585510254,
          "g": 0.7882353067398071,
          "b": 0.7333333492279053,
          "a": 1.0
        },
        {
          "r": 0.239215686917305,
          "g": 0.2666666805744171,
          "b": 0.29411765933036804,
          "a": 1.0
        },
        {
          "r": 0.7568627595901489,
          "g": 0.7568627595901489,
          "b": 0.7254902124404907,
          "a": 1.0
        },
        {
          "r": 0.47843137383461,
          "g": 0.4470588266849518,
          "b": 0.3960784375667572,
          "a": 1.0
        }
      ],
      "instanceId": 140005
    },
    {
      "crowdTypeID": 125,
      "spawnPosition": {
        "x": -534.836669921875,
        "y": 232.2032012939453,
        "z": 394.0257873535156
      },
      "spawnFaceFwd": {
        "x": 0.8201218843460083,
        "z": -0.5721887350082397
      },
      "hairColor": {
        "r": 0.25882354378700256,
        "g": 0.25882354378700256,
        "b": 0.25882354378700256,
        "a": 1.0
      },
      "bodyColors": [
        {
          "r": 0.9333333373069763,
          "g": 0.8666666746139526,
          "b": 0.843137264251709,
          "a": 1.0
        },
        {
          "r": 0.239215686917305,
          "g": 0.2666666805744171,
          "b": 0.29411765933036804,
          "a": 1.0
        },
        {
          "r": 0.7568627595901489,
          "g": 0.7568627595901489,
          "b": 0.7254902124404907,
          "a": 1.0
        },
        {
          "r": 0.47843137383461,
          "g": 0.4470588266849518,
          "b": 0.3960784375667572,
          "a": 1.0
        }
      ],
      "instanceId": 140006
    },
    {
      "crowdTypeID": 124,
      "spawnPosition": {
        "x": -531.9473266601562,
        "y": 226.88540649414062,
        "z": 396.3855895996094
      },
      "spawnFaceFwd": {
        "x": -0.970096230506897,
        "z": -0.24272096157073975
      },
      "hairColor": {
        "r": 0.29019609093666077,
        "g": 0.3176470696926117,
        "b": 0.3529411852359772,
        "a": 1.0
      },
      "bodyColors": [
        {
          "r": 0.9058823585510254,
          "g": 0.7882353067398071,
          "b": 0.7333333492279053,
          "a": 1.0
        },
        {
          "r": 0.2235294133424759,
          "g": 0.2705882489681244,
          "b": 0.3607843220233917,
          "a": 1.0
        },
        {
          "r": 0.5686274766921997,
          "g": 0.572549045085907,
          "b": 0.6117647290229797,
          "a": 1.0
        },
        {
          "r": 0.3137255012989044,
          "g": 0.38823530077934265,
          "b": 0.47843137383461,
          "a": 1.0
        }
      ],
      "instanceId": 140007
    },
    {
      "crowdTypeID": 79,
      "spawnPosition": {
        "x": -543.5518798828125,
        "y": 232.2032012939453,
        "z": 403.9977111816406
      },
      "spawnFaceFwd": {
        "x": 0.9696236252784729,
        "z": 0.2446017861366272
      },
      "hairColor": {
        "r": 0.25882354378700256,
        "g": 0.25882354378700256,
        "b": 0.25882354378700256,
        "a": 1.0
      },
      "bodyColors": [
        {
          "r": 0.9333333373069763,
          "g": 0.8666666746139526,
          "b": 0.843137264251709,
          "a": 1.0
        },
        {
          "r": 0.239215686917305,
          "g": 0.2666666805744171,
          "b": 0.29411765933036804,
          "a": 1.0
        },
        {
          "r": 0.7568627595901489,
          "g": 0.7568627595901489,
          "b": 0.7254902124404907,
          "a": 1.0
        },
        {
          "r": 0.47843137383461,
          "g": 0.4470588266849518,
          "b": 0.3960784375667572,
          "a": 1.0
        }
      ],
      "instanceId": 140008
    },
    {
      "crowdTypeID": 76,
      "animConfigID": 3,
      "spawnPosition": {
        "x": -542.9003295898438,
        "y": 232.2032012939453,
        "z": 403.6767883300781
      },
      "spawnFaceFwd": {
        "x": -0.5060669183731079,
        "z": 0.8624942302703857
      },
      "hairColor": {
        "r": 0.32156863808631897,
        "g": 0.21568627655506134,
        "b": 0.18039216101169586,
        "a": 1.0
      },
      "bodyColors": [
        {
          "r": 0.9333333373069763,
          "g": 0.8666666746139526,
          "b": 0.843137264251709,
          "a": 1.0
        },
        {
          "r": 0.41960784792900085,
          "g": 0.41960784792900085,
          "b": 0.4117647111415863,
          "a": 1.0
        },
        {
          "r": 0.3764705955982208,
          "g": 0.2823529541492462,
          "b": 0.2823529541492462,
          "a": 1.0
        },
        {
          "r": 0.2549019753932953,
          "g": 0.26274511218070984,
          "b": 0.2705882489681244,
          "a": 1.0
        }
      ],
      "instanceId": 140009
    },
    {
      "crowdTypeID": 79,
      "animConfigID": 7,
      "spawnPosition": {
        "x": -548.6096801757812,
        "y": 237.90679931640625,
        "z": 383.6733093261719
      },
      "spawnFaceFwd": {
        "x": -0.6716402173042297,
        "z": 0.7408775091171265
      },
      "hairColor": {
        "r": 0.29019609093666077,
        "g": 0.3176470696926117,
        "b": 0.3529411852359772,
        "a": 1.0
      },
      "bodyColors": [
        {
          "r": 0.9333333373069763,
          "g": 0.8666666746139526,
          "b": 0.843137264251709,
          "a": 1.0
        },
        {
          "r": 0.4117647111415863,
          "g": 0.35686275362968445,
          "b": 0.3960784375667572,
          "a": 1.0
        },
        {
          "r": 0.5647059082984924,
          "g": 0.5490196347236633,
          "b": 0.5607843399047852,
          "a": 1.0
        },
        {
          "r": 0.2666666805744171,
          "g": 0.2078431397676468,
          "b": 0.23529411852359772,
          "a": 1.0
        }
      ],
      "instanceId": 140010
    },
    {
      "crowdTypeID": 80,
      "animConfigID": 3,
      "spawnPosition": {
        "x": -539.5745239257812,
        "y": 237.73890686035156,
        "z": 374.3523864746094
      },
      "spawnFaceFwd": {
        "x": -0.6705601215362549,
        "z": -0.741855263710022
      },
      "hairColor": {
        "r": 0.32156863808631897,
        "g": 0.21568627655506134,
        "b": 0.18039216101169586,
        "a": 1.0
      },
      "bodyColors": [
        {
          "r": 0.9333333373069763,
          "g": 0.8666666746139526,
          "b": 0.843137264251709,
          "a": 1.0
        },
        {
          "r": 0.2235294133424759,
          "g": 0.2705882489681244,
          "b": 0.3607843220233917,
          "a": 1.0
        },
        {
          "r": 0.5686274766921997,
          "g": 0.572549045085907,
          "b": 0.6117647290229797,
          "a": 1.0
        },
        {
          "r": 0.3137255012989044,
          "g": 0.38823530077934265,
          "b": 0.47843137383461,
          "a": 1.0
        }
      ],
      "instanceId": 140011
    },
    {
      "crowdTypeID": 69,
      "spawnPosition": {
        "x": -514.1121826171875,
        "y": 226.83749389648438,
        "z": 363.72479248046875
      },
      "spawnFaceFwd": {
        "x": -0.04147302359342575,
        "z": -0.999139666557312
      },
      "hairColor": {
        "r": 0.25882354378700256,
        "g": 0.25882354378700256,
        "b": 0.25882354378700256,
        "a": 1.0
      },
      "bodyColors": [
        {
          "r": 0.9058823585510254,
          "g": 0.7882353067398071,
          "b": 0.7333333492279053,
          "a": 1.0
        },
        {
          "r": 0.41960784792900085,
          "g": 0.41960784792900085,
          "b": 0.4117647111415863,
          "a": 1.0
        },
        {
          "r": 0.3764705955982208,
          "g": 0.2823529541492462,
          "b": 0.2823529541492462,
          "a": 1.0
        },
        {
          "r": 0.2549019753932953,
          "g": 0.26274511218070984,
          "b": 0.2705882489681244,
          "a": 1.0
        }
      ],
      "instanceId": 140012
    },
    {
      "crowdTypeID": 88,
      "animConfigID": 1,
      "spawnPosition": {
        "x": -525.130615234375,
        "y": 226.83749389648438,
        "z": 372.673095703125
      },
      "spawnFaceFwd": {
        "x": -0.40112820267677307,
        "z": 0.9160219430923462
      },
      "hairColor": {
        "r": 0.29019609093666077,
        "g": 0.3176470696926117,
        "b": 0.3529411852359772,
        "a": 1.0
      },
      "bodyColors": [
        {
          "r": 0.9058823585510254,
          "g": 0.7882353067398071,
          "b": 0.7333333492279053,
          "a": 1.0
        },
        {
          "r": 0.42352941632270813,
          "g": 0.4627451002597809,
          "b": 0.5647059082984924,
          "a": 1.0
        },
        {
          "r": 0.6745098233222961,
          "g": 0.6666666865348816,
          "b": 0.6549019813537598,
          "a": 1.0
        },
        {
          "r": 0.2980392277240753,
          "g": 0.27843138575553894,
          "b": 0.3176470696926117,
          "a": 1.0
        }
      ],
      "instanceId": 140013
    },
    {
      "crowdTypeID": 89,
      "spawnPosition": {
        "x": -526.0673828125,
        "y": 226.83749389648438,
        "z": 373.3247985839844
      },
      "spawnFaceFwd": {
        "x": 0.9962636828422546,
        "z": -0.08636462688446045
      },
      "hairColor": {
        "r": 0.25882354378700256,
        "g": 0.25882354378700256,
        "b": 0.25882354378700256,
        "a": 1.0
      },
      "bodyColors": [
        {
          "r": 0.9333333373069763,
          "g": 0.8666666746139526,
          "b": 0.843137264251709,
          "a": 1.0
        },
        {
          "r": 0.2235294133424759,
          "g": 0.2705882489681244,
          "b": 0.3607843220233917,
          "a": 1.0
        },
        {
          "r": 0.5686274766921997,
          "g": 0.572549045085907,
          "b": 0.6117647290229797,
          "a": 1.0
        },
        {
          "r": 0.3137255012989044,
          "g": 0.38823530077934265,
          "b": 0.47843137383461,
          "a": 1.0
        }
      ],
      "instanceId": 140014
    },
    {
      "crowdTypeID": 88,
      "animConfigID": 1,
      "spawnPosition": {
        "x": -524.9553833007812,
        "y": 226.83749389648438,
        "z": 373.7424011230469
      },
      "spawnFaceFwd": {
        "x": -0.7839687466621399,
        "z": -0.6208001375198364
      },
      "hairColor": {
        "r": 0.29019609093666077,
        "g": 0.3176470696926117,
        "b": 0.3529411852359772,
        "a": 1.0
      },
      "bodyColors": [
        {
          "r": 0.9058823585510254,
          "g": 0.7882353067398071,
          "b": 0.7333333492279053,
          "a": 1.0
        },
        {
          "r": 0.41960784792900085,
          "g": 0.41960784792900085,
          "b": 0.4117647111415863,
          "a": 1.0
        },
        {
          "r": 0.3764705955982208,
          "g": 0.2823529541492462,
          "b": 0.2823529541492462,
          "a": 1.0
        },
        {
          "r": 0.2549019753932953,
          "g": 0.26274511218070984,
          "b": 0.2705882489681244,
          "a": 1.0
        }
      ],
      "instanceId": 140015
    },
    {
      "crowdTypeID": 72,
      "spawnPosition": {
        "x": -539.1317138671875,
        "y": 237.73890686035156,
        "z": 373.49249267578125
      },
      "spawnFaceFwd": {
        "x": -0.9602167010307312,
        "z": 0.27925586700439453
      },
      "hairColor": {
        "r": 0.29019609093666077,
        "g": 0.3176470696926117,
        "b": 0.3529411852359772,
        "a": 1.0
      },
      "bodyColors": [
        {
          "r": 0.9333333373069763,
          "g": 0.8666666746139526,
          "b": 0.843137264251709,
          "a": 1.0
        },
        {
          "r": 0.42352941632270813,
          "g": 0.4627451002597809,
          "b": 0.5647059082984924,
          "a": 1.0
        },
        {
          "r": 0.6745098233222961,
          "g": 0.6666666865348816,
          "b": 0.6549019813537598,
          "a": 1.0
        },
        {
          "r": 0.2980392277240753,
          "g": 0.27843138575553894,
          "b": 0.3176470696926117,
          "a": 1.0
        }
      ],
      "instanceId": 140016
    },
    {
      "crowdTypeID": 125,
      "spawnPosition": {
        "x": -528.1624755859375,
        "y": 237.78619384765625,
        "z": 361.0729064941406
      },
      "spawnFaceFwd": {
        "x": -0.9996103048324585,
        "z": 0.0279160737991333
      },
      "hairColor": {
        "r": 0.32156863808631897,
        "g": 0.21568627655506134,
        "b": 0.18039216101169586,
        "a": 1.0
      },
      "bodyColors": [
        {
          "r": 0.9333333373069763,
          "g": 0.8666666746139526,
          "b": 0.843137264251709,
          "a": 1.0
        },
        {
          "r": 0.4117647111415863,
          "g": 0.35686275362968445,
          "b": 0.3960784375667572,
          "a": 1.0
        },
        {
          "r": 0.5647059082984924,
          "g": 0.5490196347236633,
          "b": 0.5607843399047852,
          "a": 1.0
        },
        {
          "r": 0.2666666805744171,
          "g": 0.2078431397676468,
          "b": 0.23529411852359772,
          "a": 1.0
        }
      ],
      "instanceId": 140017
    }
  ]
}