{
  "normal": {
    "cutsceneConfig": {
      "damageRatio": "TIME_LINE_PREFAB",
      "luaDataPath": "",
      "resPath": "ART/Cutscene/Cs_LYAQ004_ZhongliUP_P1_Convert",
      "castListPath": "Cs_CastList_Q1010",
      "entityBan": "",
      "keepCamera": true,
      "clearAvatarLocalGadget": true,
      "syncLoad": true,
      "fadeOutDuration": 0.5
    }
  }
}