{
  "normal": {
    "cutsceneConfig": {
      "damageRatio": "TIME_LINE_PREFAB",
      "luaDataPath": "",
      "resPath": "ART/Cutscene/Cs_WDLQ004_EndingCard_Convert",
      "castListPath": "",
      "entityBan": "",
      "clearAvatarLocalGadget": true,
      "syncLoad": true,
      "fadeInDuration": 0.0,
      "fadeOutDuration": 1.0
    }
  }
}