{
  "normal": {
    "cutsceneConfig": {
      "damageRatio": "TIME_LINE_PREFAB",
      "canSkip": false,
      "luaDataPath": "",
      "resPath": "ART/Cutscene/Cs_Liyue4_YunHaiDongTian_Unlock",
      "castListPath": "Cs_CastList_Q308",
      "entityBan": "",
      "clearAvatarLocalGadget": true,
      "syncLoad": true,
      "fadeInDuration": 0.5,
      "fadeOutDuration": 1.0
    }
  }
}