{
  "normal": {
    "cutsceneConfig": {
      "damageRatio": "TIME_LINE_PREFAB",
      "luaDataPath": "",
      "resPath": "ART/Cutscene/Cs_Sumeru_LQ130261301_RC_Convert",
      "castListPath": "Cs_CastList_Q130261301",
      "entityBan": "",
      "clearAvatarLocalGadget": true,
      "clearMonsterLocalGadget": true,
      "syncLoad": true,
      "fadeInDuration": 0.5,
      "fadeOutDuration": 1.0
    }
  }
}