{
  "normal": {
    "cutsceneConfig": {
      "damageRatio": "TIME_LINE_PREFAB",
      "luaDataPath": "",
      "resPath": "ART/Cutscene/Cs_Fontaine_LQ140260701_CBD_Convert",
      "castListPath": "Cs_CastList_Q140260701",
      "entityBan": "",
      "clearAvatarLocalGadget": true,
      "clearMonsterLocalGadget": true,
      "syncLoad": true,
      "fadeInDuration": 1.0,
      "fadeOutDuration": 2.5
    }
  }
}