{
  "normal": {
    "cutsceneConfig": {
      "damageRatio": "TIME_LINE_PREFAB",
      "canSkip": false,
      "directTransmit": true,
      "luaDataPath": "",
      "resPath": "ART/Cutscene/Cs_Fontaine_LQ140260401_Ar_Convert",
      "castListPath": "Cs_CastList_Q140260401",
      "entityBan": "",
      "clearAvatarLocalGadget": true,
      "clearMonsterLocalGadget": true,
      "syncLoad": true,
      "fadeInDuration": 0.5,
      "fadeOutDuration": 0.5,
      "forceGC": false
    }
  }
}