{
  "normal": {
    "cutsceneConfig": {
      "damageRatio": "TIME_LINE_PREFAB",
      "luaDataPath": "",
      "resPath": "ART/Cutscene/Cs_201903_Chujuenvshi_Convert",
      "castListPath": "Cs_CastList_Q201905",
      "entityBan": "",
      "keepCamera": true,
      "clearAvatarLocalGadget": true,
      "syncLoad": true,
      "fadeInDuration": 0.5,
      "fadeOutDuration": 0.5
    }
  }
}