{
  "normal": {
    "cutsceneConfig": {
      "damageRatio": "TIME_LINE_PREFAB",
      "luaDataPath": "",
      "resPath": "ART/Cutscene/Cs_Sumeru_AQ30000601_SumeruMainQuest01DungeonCS1_Convert",
      "castListPath": "Cs_CastList_Q30000601",
      "entityBan": "",
      "clearAvatarLocalGadget": true,
      "syncLoad": true,
      "fadeOutDuration": 3.5
    }
  }
}