{
  "normal": {
    "damageRatio": "VIDEO",
    "videoConfig": {
      "heroDiff": true,
      "videoName": "Cs_Sumeru_AQ_30280701_MS_Boy.usm",
      "videoNameOther": "Cs_Sumeru_AQ_30280701_MS_Girl.usm",
      "subtitleId": 300109,
      "subtitleIdOther": 300110,
      "canSkipIfPlayed": true,
      "bgColor": {
        "a": 1.0
      },
      "fadeInDuration": 1.5,
      "fadeOutDuration": 1.5,
      "eventList": [
        {
          "$type": "GKKCGAIKLPL",
          "eventType": "SHOW_OR_HIDE_NAME_CARD_DIALOG",
          "prefabPath": "ART/UI/Menus/Dialog/InVideo/UI_FatuiHarbingers_Name_001_3D",
          "enableShow": true
        },
        {
          "$type": "GKKCGAIKLPL",
          "eventType": "SHOW_OR_HIDE_NAME_CARD_DIALOG",
          "prefabPath": "ART/UI/Menus/Dialog/InVideo/UI_FatuiHarbingers_Name_001_3D"
        }
      ]
    }
  }
}