{
  "normal": {
    "cutsceneConfig": {
      "damageRatio": "TIME_LINE_PREFAB",
      "luaDataPath": "",
      "resPath": "ART/Cutscene/Cs_MDAQ032_KaeyaTuts_Convert",
      "castListPath": "Cs_CastList_Q307",
      "entityBan": "",
      "clearAvatarLocalGadget": true,
      "syncLoad": true,
      "fadeInDuration": 0.0,
      "fadeOutDuration": 1.5
    }
  }
}