{
  "normal": {
    "cutsceneConfig": {
      "damageRatio": "TIME_LINE_PREFAB",
      "luaDataPath": "",
      "resPath": "ART/Cutscene/Cs_AM_FirstArrive_CutScene2_Convert",
      "castListPath": "Cs_CastList_Q354",
      "entityBan": "",
      "fadeOutDuration": 0.5
    }
  }
}