{
  "normal": {
    "cutsceneConfig": {
      "damageRatio": "TIME_LINE_PREFAB",
      "canSkip": false,
      "luaDataPath": "",
      "resPath": "ART/Cutscene/Cs_MDAQ071_DvalinCombat2_Convert",
      "castListPath": "Cs_CastList_Q384",
      "entityBan": "",
      "clearAvatarLocalGadget": true,
      "fadeInDuration": 1.0
    }
  }
}