{
  "normal": {
    "cutsceneConfig": {
      "damageRatio": "TIME_LINE_PREFAB",
      "luaDataPath": "",
      "resPath": "ART/Cutscene/Cs_MD_EQ4002802_WinterCampAvalanche_Convert",
      "castListPath": "Cs_CastList_Q400280201",
      "entityBan": "",
      "clearAvatarLocalGadget": true,
      "syncLoad": true,
      "fadeInDuration": 0.5,
      "fadeOutDuration": 2.5
    }
  }
}