{
  "normal": {
    "cutsceneConfig": {
      "damageRatio": "TIME_LINE_PREFAB",
      "canSkip": false,
      "luaDataPath": "",
      "resPath": "ART/Cutscene/Cs_CYGY_BirdsviewChasm",
      "castListPath": "Cs_CastList_Q308",
      "entityBan": "",
      "syncLoad": true,
      "fadeInDuration": 0.5,
      "fadeOutDuration": 1.5,
      "forceGC": false
    }
  }
}