{
  "normal": {
    "cutsceneConfig": {
      "damageRatio": "TIME_LINE_PREFAB",
      "canSkip": false,
      "luaDataPath": "",
      "resPath": "ART/Cutscene/Cs_BlackFogDissipation",
      "castListPath": "",
      "entityBan": "",
      "syncLoad": true
    }
  }
}