{
  "normal": {
    "cutsceneConfig": {
      "damageRatio": "TIME_LINE_PREFAB",
      "canSkip": false,
      "luaDataPath": "",
      "resPath": "ART/Cutscene/Cs_ThunderStorm_04",
      "castListPath": "Cs_CastList_Q72158",
      "entityBan": "",
      "syncLoad": true,
      "fadeInDuration": 0.5,
      "fadeOutDuration": 1.5
    }
  }
}