{
  "normal": {
    "cutsceneConfig": {
      "damageRatio": "TIME_LINE_PREFAB",
      "canSkip": false,
      "luaDataPath": "",
      "resPath": "ART/Cutscene/Cs_ReleaseGhost",
      "castListPath": "Cs_CastList_Q308",
      "entityBan": "",
      "syncLoad": true,
      "fadeInDuration": 0.0
    }
  }
}