{
  "normal": {
    "cutsceneConfig": {
      "damageRatio": "TIME_LINE_PREFAB",
      "luaDataPath": "",
      "resPath": "ART/Cutscene/Cs_Sumeru_WitherForest_WQ7303707_Die_Convert",
      "castListPath": "Cs_CastList_Q001xm",
      "entityBan": "",
      "syncLoad": true,
      "fadeInDuration": 0.5,
      "fadeOutDuration": 0.5
    }
  }
}