{
  "normal": {
    "cutsceneConfig": {
      "damageRatio": "TIME_LINE_PREFAB",
      "luaDataPath": "",
      "resPath": "ART/Cutscene/Cs_WQ_CWUpgrade_Convert",
      "castListPath": "Cs_CastList_Q3101",
      "entityBan": "",
      "syncLoad": true,
      "fadeInDuration": 0.5,
      "fadeOutDuration": 0.5
    }
  }
}