{
  "normal": {
    "cutsceneConfig": {
      "damageRatio": "TIME_LINE_PREFAB",
      "canSkip": false,
      "luaDataPath": "",
      "resPath": "ART/Cutscene/Cs_WQ73068_UnlockGarden",
      "castListPath": "",
      "entityBan": "",
      "syncLoad": true,
      "fadeInDuration": 0.0
    }
  }
}