{
  "normal": {
    "cutsceneConfig": {
      "damageRatio": "TIME_LINE_PREFAB",
      "canSkip": false,
      "luaDataPath": "",
      "resPath": "ART/Cutscene/Cs_Sumeru_WQ7325101_Corolla_Convert",
      "castListPath": "",
      "entityBan": "",
      "clearAvatarLocalGadget": true,
      "syncLoad": true,
      "fadeInDuration": 0.5,
      "fadeOutDuration": 0.5
    }
  }
}