{
  "normal": {
    "cutsceneConfig": {
      "damageRatio": "TIME_LINE_PREFAB",
      "canSkip": false,
      "luaDataPath": "",
      "resPath": "ART/Cutscene/Cs_Sumeru_WQ7330502_ChessRise_Convert",
      "castListPath": "",
      "entityBan": "",
      "disableGPUCulling": true,
      "syncLoad": true,
      "fadeInDuration": 0.0
    }
  }
}