{
  "normal": {
    "cutsceneConfig": {
      "damageRatio": "TIME_LINE_PREFAB",
      "luaDataPath": "",
      "resPath": "ART/Cutscene/Cs_SZAQ800306_Likai_Convert",
      "castListPath": "Cs_CastList_Q80030502",
      "entityBan": "",
      "clearAvatarLocalGadget": true,
      "fadeInDuration": 0.5,
      "fadeOutDuration": 0.5
    }
  }
}