{
  "offsetInfoList": [
    {
      "levelTagID": 204300,
      "cityDeltaOffset": {
        "x": 60.5,
        "y": 56.70000076293945,
        "z": 127.4000015258789
      }
    },
    {
      "levelTagID": 204301,
      "cityDeltaOffset": {
        "x": 60.5,
        "y": 56.70000076293945,
        "z": 127.4000015258789
      },
      "cityDeltaRotation": {
        "y": 90.0
      }
    },
    {
      "levelTagID": 204302,
      "cityDeltaOffset": {
        "x": 60.5,
        "y": 56.70000076293945,
        "z": 127.4000015258789
      },
      "cityDeltaRotation": {
        "y": 180.0
      }
    },
    {
      "levelTagID": 204303,
      "cityDeltaOffset": {
        "x": 60.5,
        "y": 56.70000076293945,
        "z": 127.4000015258789
      },
      "cityDeltaRotation": {
        "y": 270.0
      }
    },
    {
      "levelTagID": 204310,
      "cityDeltaOffset": {
        "x": 60.5,
        "y": 56.70000076293945,
        "z": 127.4000015258789
      },
      "cityDeltaRotation": {
        "x": 179.99989318847656
      }
    },
    {
      "levelTagID": 204311,
      "cityDeltaOffset": {
        "x": 60.5,
        "y": 56.70000076293945,
        "z": 127.4000015258789
      },
      "cityDeltaRotation": {
        "x": 179.99989318847656,
        "y": 90.0
      }
    },
    {
      "levelTagID": 204312,
      "cityDeltaOffset": {
        "x": 60.5,
        "y": 56.70000076293945,
        "z": 127.4000015258789
      },
      "cityDeltaRotation": {
        "x": 179.99989318847656,
        "y": 180.0
      }
    },
    {
      "levelTagID": 204313,
      "cityDeltaOffset": {
        "x": 60.5,
        "y": 56.70000076293945,
        "z": 127.4000015258789
      },
      "cityDeltaRotation": {
        "x": 179.99989318847656,
        "y": 270.0
      }
    }
  ]
}