{
  "offsetInfoList": [
    {
      "levelTagID": 204000,
      "cityDeltaOffset": {
        "x": 11.899999618530273,
        "y": 41.70000076293945,
        "z": 79.5
      }
    },
    {
      "levelTagID": 204001,
      "cityDeltaOffset": {
        "x": 11.899999618530273,
        "y": 41.70000076293945,
        "z": 79.5
      },
      "cityDeltaRotation": {
        "y": 90.0
      }
    },
    {
      "levelTagID": 204002,
      "cityDeltaOffset": {
        "x": 11.899999618530273,
        "y": 41.70000076293945,
        "z": 79.5
      },
      "cityDeltaRotation": {
        "y": 180.0
      }
    },
    {
      "levelTagID": 204003,
      "cityDeltaOffset": {
        "x": 11.899999618530273,
        "y": 41.70000076293945,
        "z": 79.5
      },
      "cityDeltaRotation": {
        "y": 270.0
      }
    },
    {
      "levelTagID": 204010,
      "cityDeltaOffset": {
        "x": 11.899999618530273,
        "y": 41.70000076293945,
        "z": 79.5
      },
      "cityDeltaRotation": {
        "x": 179.99989318847656
      }
    },
    {
      "levelTagID": 204011,
      "cityDeltaOffset": {
        "x": 11.899999618530273,
        "y": 41.70000076293945,
        "z": 79.5
      },
      "cityDeltaRotation": {
        "x": 179.99989318847656,
        "y": 90.0
      }
    },
    {
      "levelTagID": 204012,
      "cityDeltaOffset": {
        "x": 11.899999618530273,
        "y": 41.70000076293945,
        "z": 79.5
      },
      "cityDeltaRotation": {
        "x": 179.99989318847656,
        "y": 180.0
      }
    },
    {
      "levelTagID": 204013,
      "cityDeltaOffset": {
        "x": 11.899999618530273,
        "y": 41.70000076293945,
        "z": 79.5
      },
      "cityDeltaRotation": {
        "x": 179.99989318847656,
        "y": 270.0
      }
    }
  ]
}