{
  "luaDataPath": "",
  "startBlackKeepTime": 0.5,
  "entityBan": "",
  "disableNpcLod": true,
  "isAutoBanNpc": true,
  "isBanWidgetPet": true,
  "protectNpcMobileLod": true,
  "startFade": {
    "startFadeInDuration": 0.5,
    "startFadeOutDuration": 0.5
  },
  "endFade": {
    "startFadeOutDuration": 0.0
  },
  "actors": [
    {
      "alias": "Avatar",
      "visible": true,
      "bornPointName": "N10000005_T7327901",
      "relativePosType": "AVATAR_NEW",
      "relativePosNpcAlias": "",
      "_bindMovingTargetKey": ""
    },
    {
      "configID": 20842,
      "alias": "20842",
      "visible": true,
      "bornPointName": "N20842_T7327907",
      "relativePosType": "AVATAR_NEW",
      "relativePosNpcAlias": "",
      "_bindMovingTargetKey": ""
    },
    {
      "configID": 4292,
      "alias": "4292",
      "visible": true,
      "bornPointName": "N4292_T7327901",
      "forceCreateDaily": true,
      "relativePosType": "AVATAR_NEW",
      "relativePosNpcAlias": "",
      "_bindMovingTargetKey": ""
    },
    {
      "configID": 1005,
      "alias": "1005",
      "visible": true,
      "bornPointName": "",
      "useRelativePos": true,
      "relativePos": {
        "x": 0.5,
        "z": -0.5
      },
      "removeActorType": "REMOVE_WITH_DISAPPEAR",
      "relativePosType": "AVATAR_NEW",
      "relativePosNpcAlias": "",
      "_bindMovingTargetKey": ""
    }
  ],
  "group": [
    [
      {
        "$type": "MoleMole.Config.ConfigTimeProtectAction",
        "type": "TIME_PROTECT",
        "duration": 1.0,
        "actionId": 104
      },
      {
        "$type": "MoleMole.Config.ConfigBlackScreenAction",
        "type": "BLACK_SCREEN",
        "duration": 1.0,
        "actionId": 153,
        "blackScreenType": "KEEP_BLACK",
        "durationToBlack": 0.5,
        "durationKeepBlack": 1.0,
        "durationFromBlack": 0.5,
        "inteePos": "",
        "textMapID": "",
        "useTextFade": true
      },
      {
        "$type": "MoleMole.Config.ConfigTeleportToAction",
        "type": "TELEPORT_TO",
        "aliasList": [
          "Avatar"
        ],
        "actionId": 157,
        "position": {
          "x": -1578.510986328125,
          "y": 39.57600021362305,
          "z": 5056.01318359375
        },
        "forward": {
          "x": -2.9860000610351562,
          "y": -0.00800000037997961,
          "z": 0.23000000417232513
        },
        "openLongDisTeleport": true,
        "_posBindMovingTargetKey": "",
        "_forwardBindMovingTargetKey": ""
      },
      {
        "$type": "LJLMDHDCAMK",
        "type": "LOOK_AT",
        "aliasList": [
          "Avatar"
        ],
        "actionId": 161,
        "enableHead": true,
        "useTargetPos": true,
        "enableAbsolute": true,
        "targetPosition": {
          "x": -1580.5450439453125,
          "y": 41.31700134277344,
          "z": 5056.1201171875
        },
        "headTurnTime": 0.5,
        "targetNpcAlias": "4292",
        "lookAtTargetType": "NONE",
        "openBackProtect": true,
        "targetNpcLookAtPoint": "",
        "OAFJBHJHLJG": ""
      },
      {
        "$type": "MoleMole.Config.ConfigTeleportToAction",
        "type": "TELEPORT_TO",
        "aliasList": [
          "20842"
        ],
        "actionId": 159,
        "position": {
          "x": -1579.3299560546875,
          "y": 39.494998931884766,
          "z": 5057.56005859375
        },
        "forward": {
          "x": -1.2970000505447388,
          "y": 0.11500000208616257,
          "z": -0.6830000281333923
        },
        "openLongDisTeleport": true,
        "_posBindMovingTargetKey": "",
        "_forwardBindMovingTargetKey": ""
      },
      {
        "$type": "LJLMDHDCAMK",
        "type": "LOOK_AT",
        "aliasList": [
          "20842"
        ],
        "actionId": 162,
        "enableHead": true,
        "useTargetPos": true,
        "enableAbsolute": true,
        "targetPosition": {
          "x": -1580.626953125,
          "y": 41.28900146484375,
          "z": 5056.60986328125
        },
        "headTurnTime": 0.5,
        "targetNpcAlias": "",
        "lookAtTargetType": "NONE",
        "openBackProtect": true,
        "targetNpcLookAtPoint": "",
        "OAFJBHJHLJG": ""
      },
      {
        "$type": "MoleMole.Config.ConfigTeleportToAction",
        "type": "TELEPORT_TO",
        "aliasList": [
          "4292"
        ],
        "actionId": 158,
        "position": {
          "x": -1581.258056640625,
          "y": 39.65399932861328,
          "z": 5056.14404296875
        },
        "forward": {
          "x": 1.7230000495910645,
          "z": 1.25600004196167
        },
        "openLongDisTeleport": true,
        "_posBindMovingTargetKey": "",
        "_forwardBindMovingTargetKey": ""
      },
      {
        "$type": "LJLMDHDCAMK",
        "type": "LOOK_AT",
        "aliasList": [
          "4292"
        ],
        "actionId": 163,
        "enableHead": true,
        "useTargetPos": true,
        "enableAbsolute": true,
        "targetPosition": {
          "x": -1578.9439697265625,
          "y": 41.058998107910156,
          "z": 5057.85302734375
        },
        "headTurnTime": 0.5,
        "targetNpcAlias": "",
        "lookAtTargetType": "NONE",
        "openBackProtect": true,
        "targetNpcLookAtPoint": "",
        "OAFJBHJHLJG": ""
      },
      {
        "$type": "MoleMole.Config.ConfigTeleportToAction",
        "type": "TELEPORT_TO",
        "aliasList": [
          "1005"
        ],
        "actionId": 160,
        "position": {
          "x": -1578.64599609375,
          "y": 39.65399932861328,
          "z": 5055.0419921875
        },
        "forward": {
          "x": -1.2869999408721924,
          "z": 0.5509999990463257
        },
        "openLongDisTeleport": true,
        "_posBindMovingTargetKey": "",
        "_forwardBindMovingTargetKey": ""
      },
      {
        "$type": "LJLMDHDCAMK",
        "type": "LOOK_AT",
        "aliasList": [
          "1005"
        ],
        "actionId": 164,
        "enableHead": true,
        "useTargetPos": true,
        "enableAbsolute": true,
        "targetPosition": {
          "x": -1580.7760009765625,
          "y": 41.426998138427734,
          "z": 5055.89892578125
        },
        "headTurnTime": 0.5,
        "targetNpcAlias": "",
        "lookAtTargetType": "NONE",
        "openBackProtect": true,
        "targetNpcLookAtPoint": "",
        "OAFJBHJHLJG": ""
      }
    ],
    [
      {
        "$type": "FJKIHHKJLMJ",
        "type": "CAMERA_MOVE",
        "duration": 0.5,
        "actionId": 167,
        "camPosOffset": {
          "x": -1577.4820556640625,
          "y": 40.94300079345703,
          "z": 5057.8291015625
        },
        "camForwardTargetOffset": {
          "x": -1578.446044921875,
          "y": 40.9900016784668,
          "z": 5057.56689453125
        },
        "camFov": 25.0,
        "lerpPattern": 6,
        "cameraBlendType": "EaseInOutCubic",
        "NJBNNOMLKCK": {},
        "needZAxisRotate": true,
        "openCameraDither": false,
        "targetNpcAlias": "",
        "closeTreeLeafDither": true,
        "KJOEFBPOIIH": "",
        "IICFKKEBIEC": "",
        "EGEHEJEBLBJ": ""
      },
      {
        "$type": "MoleMole.Config.ConfigBlackScreenAction",
        "type": "BLACK_SCREEN",
        "duration": 0.5,
        "actionId": 295,
        "blackScreenType": "FROM_BLACK",
        "durationToBlack": 0.5,
        "durationKeepBlack": 0.5,
        "durationFromBlack": 0.5,
        "inteePos": "",
        "textMapID": "",
        "useTextFade": true
      },
      {
        "$type": "PKKMAMONGEO",
        "type": "DIALOG",
        "aliasList": [
          "4292"
        ],
        "actionId": 109,
        "dialogID": 732812502,
        "protectTime": 0.5
      },
      {
        "$type": "FABLGECDBCH",
        "type": "BODY_LANG",
        "aliasList": [
          "4292"
        ],
        "actionId": 174,
        "bodyLangParam": 1230,
        "forceDoFreeStyle": true,
        "canDoRepeatFreeStyle": false,
        "cantBackToIdleWhenSitLoop": true,
        "eventPatternSuiteKey": "",
        "FOHHKFAIAAJ": ""
      },
      {
        "$type": "FJKIHHKJLMJ",
        "type": "CAMERA_MOVE",
        "delayTime": 0.10000000149011612,
        "duration": 7.776000022888184,
        "actionId": 166,
        "camPosOffset": {
          "x": -1577.4439697265625,
          "y": 40.94200134277344,
          "z": 5057.68896484375
        },
        "camForwardTargetOffset": {
          "x": -1578.407958984375,
          "y": 40.98899841308594,
          "z": 5057.4267578125
        },
        "camFov": 25.0,
        "lerpPattern": 2,
        "cameraBlendType": "EaseOutQuad",
        "NJBNNOMLKCK": {},
        "needZAxisRotate": true,
        "openCameraDither": false,
        "targetNpcAlias": "",
        "closeTreeLeafDither": true,
        "KJOEFBPOIIH": "",
        "IICFKKEBIEC": "",
        "EGEHEJEBLBJ": ""
      }
    ],
    [
      {
        "$type": "FJKIHHKJLMJ",
        "type": "CAMERA_MOVE",
        "duration": 0.5,
        "actionId": 180,
        "camPosOffset": {
          "x": -1582.032958984375,
          "y": 41.27799987792969,
          "z": 5054.35693359375
        },
        "camForwardTargetOffset": {
          "x": -1581.5400390625,
          "y": 41.25,
          "z": 5055.22705078125
        },
        "camFov": 25.0,
        "lerpPattern": 6,
        "cameraBlendType": "EaseInOutCubic",
        "NJBNNOMLKCK": {},
        "needZAxisRotate": true,
        "openCameraDither": false,
        "targetNpcAlias": "",
        "closeTreeLeafDither": true,
        "KJOEFBPOIIH": "",
        "IICFKKEBIEC": "",
        "EGEHEJEBLBJ": ""
      },
      {
        "$type": "PKKMAMONGEO",
        "type": "DIALOG",
        "aliasList": [
          "20842"
        ],
        "actionId": 111,
        "dialogID": 732812503,
        "protectTime": 0.5
      },
      {
        "$type": "FABLGECDBCH",
        "type": "BODY_LANG",
        "aliasList": [
          "20842"
        ],
        "actionId": 169,
        "bodyLangParam": 1180,
        "forceDoFreeStyle": true,
        "canDoRepeatFreeStyle": false,
        "cantBackToIdleWhenSitLoop": true,
        "eventPatternSuiteKey": "",
        "FOHHKFAIAAJ": ""
      },
      {
        "$type": "FJKIHHKJLMJ",
        "type": "CAMERA_MOVE",
        "delayTime": 0.10000000149011612,
        "duration": 13.687000274658203,
        "actionId": 179,
        "camPosOffset": {
          "x": -1581.8570556640625,
          "y": 41.2760009765625,
          "z": 5054.2578125
        },
        "camForwardTargetOffset": {
          "x": -1581.364013671875,
          "y": 41.24800109863281,
          "z": 5055.126953125
        },
        "camFov": 25.0,
        "lerpPattern": 2,
        "cameraBlendType": "EaseOutQuad",
        "NJBNNOMLKCK": {},
        "needZAxisRotate": true,
        "openCameraDither": false,
        "targetNpcAlias": "",
        "closeTreeLeafDither": true,
        "KJOEFBPOIIH": "",
        "IICFKKEBIEC": "",
        "EGEHEJEBLBJ": ""
      },
      {
        "$type": "FABLGECDBCH",
        "type": "BODY_LANG",
        "delayTime": 4.263000011444092,
        "aliasList": [
          "20842"
        ],
        "actionId": 170,
        "isContinue": true,
        "forceDoFreeStyle": true,
        "canDoRepeatFreeStyle": false,
        "cantBackToIdleWhenSitLoop": true,
        "eventPatternSuiteKey": "",
        "FOHHKFAIAAJ": ""
      },
      {
        "$type": "FABLGECDBCH",
        "type": "BODY_LANG",
        "delayTime": 5.651000022888184,
        "aliasList": [
          "20842"
        ],
        "actionId": 171,
        "bodyLangParam": 4040,
        "forceDoFreeStyle": true,
        "canDoRepeatFreeStyle": false,
        "cantBackToIdleWhenSitLoop": true,
        "eventPatternSuiteKey": "",
        "FOHHKFAIAAJ": ""
      }
    ],
    [
      {
        "$type": "FJKIHHKJLMJ",
        "type": "CAMERA_MOVE",
        "duration": 0.5,
        "actionId": 182,
        "camPosOffset": {
          "x": -1579.0469970703125,
          "y": 40.814998626708984,
          "z": 5056.1640625
        },
        "camForwardTargetOffset": {
          "x": -1580.0340576171875,
          "y": 40.97600173950195,
          "z": 5056.14697265625
        },
        "camFov": 30.0,
        "lerpPattern": 6,
        "cameraBlendType": "EaseInOutCubic",
        "NJBNNOMLKCK": {},
        "needZAxisRotate": true,
        "openCameraDither": false,
        "targetNpcAlias": "",
        "closeTreeLeafDither": true,
        "KJOEFBPOIIH": "",
        "IICFKKEBIEC": "",
        "EGEHEJEBLBJ": ""
      },
      {
        "$type": "FABLGECDBCH",
        "type": "BODY_LANG",
        "aliasList": [
          "20842"
        ],
        "actionId": 185,
        "isContinue": true,
        "forceDoFreeStyle": true,
        "canDoRepeatFreeStyle": false,
        "cantBackToIdleWhenSitLoop": true,
        "eventPatternSuiteKey": "",
        "FOHHKFAIAAJ": ""
      },
      {
        "$type": "MoleMole.Config.ConfigTeleportToAction",
        "type": "TELEPORT_TO",
        "aliasList": [
          "20842"
        ],
        "actionId": 202,
        "position": {
          "x": -1579.3299560546875,
          "y": 39.494998931884766,
          "z": 5057.56005859375
        },
        "forward": {
          "x": -0.5580000281333923,
          "y": 0.11500000208616257,
          "z": -0.9819999933242798
        },
        "openLongDisTeleport": true,
        "_posBindMovingTargetKey": "",
        "_forwardBindMovingTargetKey": ""
      },
      {
        "$type": "PKKMAMONGEO",
        "type": "DIALOG",
        "aliasList": [
          "4292"
        ],
        "actionId": 113,
        "dialogID": 732812504,
        "protectTime": 0.5
      },
      {
        "$type": "FJKIHHKJLMJ",
        "type": "CAMERA_MOVE",
        "delayTime": 0.10000000149011612,
        "duration": 18.187999725341797,
        "actionId": 181,
        "camPosOffset": {
          "x": -1579.4580078125,
          "y": 40.89500045776367,
          "z": 5056.14013671875
        },
        "camForwardTargetOffset": {
          "x": -1580.4449462890625,
          "y": 41.055999755859375,
          "z": 5056.1240234375
        },
        "camFov": 30.0,
        "lerpPattern": 2,
        "cameraBlendType": "EaseOutQuad",
        "NJBNNOMLKCK": {},
        "needZAxisRotate": true,
        "openCameraDither": false,
        "targetNpcAlias": "",
        "closeTreeLeafDither": true,
        "KJOEFBPOIIH": "",
        "IICFKKEBIEC": "",
        "EGEHEJEBLBJ": ""
      }
    ],
    [
      {
        "$type": "PKKMAMONGEO",
        "type": "DIALOG",
        "aliasList": [
          "4292"
        ],
        "actionId": 115,
        "dialogID": 732812505,
        "protectTime": 0.5
      },
      {
        "$type": "FABLGECDBCH",
        "type": "BODY_LANG",
        "aliasList": [
          "4292"
        ],
        "actionId": 176,
        "isContinue": true,
        "forceDoFreeStyle": true,
        "canDoRepeatFreeStyle": false,
        "cantBackToIdleWhenSitLoop": true,
        "eventPatternSuiteKey": "",
        "FOHHKFAIAAJ": ""
      },
      {
        "$type": "FABLGECDBCH",
        "type": "BODY_LANG",
        "delayTime": 0.8939999938011169,
        "aliasList": [
          "4292"
        ],
        "actionId": 175,
        "bodyLangParam": 4030,
        "forceDoFreeStyle": true,
        "canDoRepeatFreeStyle": false,
        "cantBackToIdleWhenSitLoop": true,
        "eventPatternSuiteKey": "",
        "FOHHKFAIAAJ": ""
      }
    ],
    [
      {
        "$type": "LJLMDHDCAMK",
        "type": "LOOK_AT",
        "aliasList": [
          "20842"
        ],
        "actionId": 186,
        "enableHead": true,
        "useTargetPos": true,
        "enableAbsolute": true,
        "targetPosition": {
          "x": -1578.4630126953125,
          "y": 40.93600082397461,
          "z": 5055.8681640625
        },
        "headTurnTime": 0.5,
        "targetNpcAlias": "",
        "lookAtTargetType": "NONE",
        "openBackProtect": true,
        "targetNpcLookAtPoint": "",
        "OAFJBHJHLJG": ""
      },
      {
        "$type": "PKKMAMONGEO",
        "type": "DIALOG",
        "aliasList": [
          "4292"
        ],
        "actionId": 117,
        "dialogID": 732812506,
        "protectTime": 1.3569999933242798
      },
      {
        "$type": "LLGANGLOEEO",
        "type": "STEER_TO",
        "duration": 1.0,
        "aliasList": [
          "4292"
        ],
        "actionId": 173,
        "steerType": "ABSOLUTE",
        "steerDir": {
          "x": -1580.260009765625,
          "y": 39.65399932861328,
          "z": 5056.080078125
        },
        "useSteerAnim": true,
        "interruptFreestyle": true,
        "forceSteer": true,
        "targetNpcAlias": "",
        "ignoreY": true,
        "fixInterNull": true,
        "OAFJBHJHLJG": ""
      },
      {
        "$type": "LJLMDHDCAMK",
        "type": "LOOK_AT",
        "aliasList": [
          "4292"
        ],
        "actionId": 177,
        "enableHead": true,
        "useTargetPos": true,
        "enableAbsolute": true,
        "targetPosition": {
          "x": -1577.9019775390625,
          "y": 40.946998596191406,
          "z": 5055.994140625
        },
        "headTurnTime": 0.5,
        "targetNpcAlias": "",
        "lookAtTargetType": "NONE",
        "openBackProtect": true,
        "targetNpcLookAtPoint": "",
        "OAFJBHJHLJG": ""
      },
      {
        "$type": "FJKIHHKJLMJ",
        "type": "CAMERA_MOVE",
        "delayTime": 0.8999999761581421,
        "duration": 0.5,
        "actionId": 184,
        "camPosOffset": {
          "x": -1583.5760498046875,
          "y": 42.4119987487793,
          "z": 5055.43603515625
        },
        "camForwardTargetOffset": {
          "x": -1582.6810302734375,
          "y": 41.99800109863281,
          "z": 5055.60302734375
        },
        "camFov": 30.0,
        "lerpPattern": 6,
        "cameraBlendType": "EaseInOutCubic",
        "NJBNNOMLKCK": {},
        "needZAxisRotate": true,
        "openCameraDither": false,
        "targetNpcAlias": "",
        "closeTreeLeafDither": true,
        "KJOEFBPOIIH": "",
        "IICFKKEBIEC": "",
        "EGEHEJEBLBJ": ""
      },
      {
        "$type": "FJKIHHKJLMJ",
        "type": "CAMERA_MOVE",
        "delayTime": 1.0,
        "duration": 12.276000022888184,
        "actionId": 183,
        "camPosOffset": {
          "x": -1583.4969482421875,
          "y": 42.5890007019043,
          "z": 5055.4482421875
        },
        "camForwardTargetOffset": {
          "x": -1582.6070556640625,
          "y": 42.16400146484375,
          "z": 5055.6171875
        },
        "camFov": 30.0,
        "lerpPattern": 2,
        "cameraBlendType": "EaseOutQuad",
        "NJBNNOMLKCK": {},
        "needZAxisRotate": true,
        "openCameraDither": false,
        "targetNpcAlias": "",
        "closeTreeLeafDither": true,
        "KJOEFBPOIIH": "",
        "IICFKKEBIEC": "",
        "EGEHEJEBLBJ": ""
      },
      {
        "$type": "HDGKHDNFMIM",
        "type": "DIALOG_SELECT",
        "delayTime": 1.3569999933242798,
        "aliasList": [
          "Avatar"
        ],
        "actionId": 118,
        "dialogIDList": [
          732812507,
          732812510,
          732812513
        ],
        "grpIDList": [
          1547921870,
          1547921872,
          740937577
        ],
        "useGrpId": true,
        "countDownGrpId": 1547921863
      },
      {
        "$type": "FABLGECDBCH",
        "type": "BODY_LANG",
        "delayTime": 2.61899995803833,
        "aliasList": [
          "4292"
        ],
        "actionId": 178,
        "bodyLangParam": 1171,
        "forceDoFreeStyle": true,
        "canDoRepeatFreeStyle": false,
        "cantBackToIdleWhenSitLoop": true,
        "eventPatternSuiteKey": "",
        "FOHHKFAIAAJ": ""
      },
      {
        "$type": "FABLGECDBCH",
        "type": "BODY_LANG",
        "delayTime": 3.5889999866485596,
        "aliasList": [
          "Avatar"
        ],
        "actionId": 188,
        "bodyLangParam": 1130,
        "forceDoFreeStyle": true,
        "canDoRepeatFreeStyle": false,
        "cantBackToIdleWhenSitLoop": true,
        "eventPatternSuiteKey": "",
        "FOHHKFAIAAJ": ""
      }
    ],
    [
      {
        "$type": "FABLGECDBCH",
        "type": "BODY_LANG",
        "aliasList": [
          "Avatar"
        ],
        "actionId": 189,
        "isContinue": true,
        "forceDoFreeStyle": true,
        "canDoRepeatFreeStyle": false,
        "cantBackToIdleWhenSitLoop": true,
        "eventPatternSuiteKey": "",
        "FOHHKFAIAAJ": ""
      },
      {
        "$type": "PKKMAMONGEO",
        "type": "DIALOG",
        "aliasList": [
          "4292"
        ],
        "actionId": 120,
        "dialogID": 732812508,
        "protectTime": 0.5,
        "autoTalkUseNewProtectTime": true,
        "autoTalkProtectTime": 4.0
      },
      {
        "$type": "LJLMDHDCAMK",
        "type": "LOOK_AT",
        "aliasList": [
          "4292"
        ],
        "actionId": 191,
        "enableHead": true,
        "useTargetPos": true,
        "enableAbsolute": true,
        "targetPosition": {
          "x": -1579.4090576171875,
          "y": 41.12900161743164,
          "z": 5057.42919921875
        },
        "headTurnTime": 0.5,
        "targetNpcAlias": "",
        "lookAtTargetType": "NONE",
        "openBackProtect": true,
        "targetNpcLookAtPoint": "",
        "OAFJBHJHLJG": ""
      },
      {
        "$type": "FJKIHHKJLMJ",
        "type": "CAMERA_MOVE",
        "delayTime": 0.37599998712539673,
        "duration": 0.5,
        "actionId": 193,
        "camPosOffset": {
          "x": -1581.7740478515625,
          "y": 41.47700119018555,
          "z": 5055.48876953125
        },
        "camForwardTargetOffset": {
          "x": -1581.10400390625,
          "y": 41.32699966430664,
          "z": 5056.2158203125
        },
        "camFov": 20.0,
        "lerpPattern": 6,
        "cameraBlendType": "EaseInOutCubic",
        "NJBNNOMLKCK": {},
        "needZAxisRotate": true,
        "openCameraDither": false,
        "targetNpcAlias": "",
        "closeTreeLeafDither": true,
        "KJOEFBPOIIH": "",
        "IICFKKEBIEC": "",
        "EGEHEJEBLBJ": ""
      },
      {
        "$type": "MoleMole.Config.ConfigCameraDOFAction",
        "type": "CAMERA_DOF",
        "delayTime": 0.37599998712539673,
        "actionId": 204,
        "enabled": true,
        "focusDistance": 3.7100000381469727,
        "focusRange": 1.7699999809265137,
        "nearFocalDistance": 2.509999990463257,
        "nearFocalTransDistance": 1.0,
        "dofBlurAmount": 2.0,
        "quality": 3
      },
      {
        "$type": "FJKIHHKJLMJ",
        "type": "CAMERA_MOVE",
        "delayTime": 0.47600001096725464,
        "duration": 10.645000457763672,
        "actionId": 192,
        "camPosOffset": {
          "x": -1581.6500244140625,
          "y": 41.46099853515625,
          "z": 5055.5830078125
        },
        "camForwardTargetOffset": {
          "x": -1580.97998046875,
          "y": 41.31100082397461,
          "z": 5056.31005859375
        },
        "camFov": 20.0,
        "lerpPattern": 2,
        "cameraBlendType": "EaseOutQuad",
        "NJBNNOMLKCK": {},
        "needZAxisRotate": true,
        "openCameraDither": false,
        "targetNpcAlias": "",
        "closeTreeLeafDither": true,
        "KJOEFBPOIIH": "",
        "IICFKKEBIEC": "",
        "EGEHEJEBLBJ": ""
      }
    ],
    [
      {
        "$type": "PKKMAMONGEO",
        "type": "DIALOG",
        "aliasList": [
          "4292"
        ],
        "actionId": 122,
        "dialogID": 732812509,
        "protectTime": 0.5
      },
      {
        "$type": "LJLMDHDCAMK",
        "type": "LOOK_AT",
        "aliasList": [
          "4292"
        ],
        "actionId": 194,
        "enableHead": true,
        "useTargetPos": true,
        "enableAbsolute": true,
        "targetPosition": {
          "x": -1578.967041015625,
          "y": 41.084999084472656,
          "z": 5056.0361328125
        },
        "headTurnTime": 0.5,
        "targetNpcAlias": "",
        "lookAtTargetType": "NONE",
        "openBackProtect": true,
        "targetNpcLookAtPoint": "",
        "OAFJBHJHLJG": ""
      },
      {
        "$type": "FJKIHHKJLMJ",
        "type": "CAMERA_MOVE",
        "delayTime": 0.28200000524520874,
        "duration": 0.5,
        "actionId": 196,
        "camPosOffset": {
          "x": -1575.760009765625,
          "y": 41.11600112915039,
          "z": 5054.783203125
        },
        "camForwardTargetOffset": {
          "x": -1576.73095703125,
          "y": 41.084999084472656,
          "z": 5055.02001953125
        },
        "camFov": 20.0,
        "lerpPattern": 6,
        "cameraBlendType": "EaseInOutCubic",
        "NJBNNOMLKCK": {},
        "needZAxisRotate": true,
        "openCameraDither": false,
        "targetNpcAlias": "",
        "closeTreeLeafDither": true,
        "KJOEFBPOIIH": "",
        "IICFKKEBIEC": "",
        "EGEHEJEBLBJ": ""
      },
      {
        "$type": "MoleMole.Config.ConfigCameraDOFAction",
        "type": "CAMERA_DOF",
        "delayTime": 0.28200000524520874,
        "actionId": 203,
        "focusDistance": 5.0,
        "focusRange": 10.0,
        "nearFocalDistance": 1.0,
        "nearFocalTransDistance": 1.0,
        "dofBlurAmount": 1.0,
        "quality": 3
      },
      {
        "$type": "FJKIHHKJLMJ",
        "type": "CAMERA_MOVE",
        "delayTime": 0.38199999928474426,
        "duration": 9.782999992370605,
        "actionId": 195,
        "camPosOffset": {
          "x": -1575.2679443359375,
          "y": 41.13100051879883,
          "z": 5054.6630859375
        },
        "camForwardTargetOffset": {
          "x": -1576.239013671875,
          "y": 41.09700012207031,
          "z": 5054.89990234375
        },
        "camFov": 20.0,
        "lerpPattern": 2,
        "cameraBlendType": "EaseOutQuad",
        "NJBNNOMLKCK": {},
        "needZAxisRotate": true,
        "openCameraDither": false,
        "targetNpcAlias": "",
        "closeTreeLeafDither": true,
        "KJOEFBPOIIH": "",
        "IICFKKEBIEC": "",
        "EGEHEJEBLBJ": ""
      },
      {
        "$type": "FABLGECDBCH",
        "type": "BODY_LANG",
        "delayTime": 0.7200000286102295,
        "aliasList": [
          "4292"
        ],
        "actionId": 197,
        "bodyLangParam": 1171,
        "forceDoFreeStyle": true,
        "canDoRepeatFreeStyle": false,
        "cantBackToIdleWhenSitLoop": true,
        "eventPatternSuiteKey": "",
        "FOHHKFAIAAJ": ""
      }
    ],
    [
      {
        "$type": "FJKIHHKJLMJ",
        "type": "CAMERA_MOVE",
        "duration": 0.5,
        "actionId": 270,
        "camPosOffset": {
          "x": -1578.3380126953125,
          "y": 41.097999572753906,
          "z": 5057.84619140625
        },
        "camForwardTargetOffset": {
          "x": -1579.2889404296875,
          "y": 41.11199951171875,
          "z": 5057.5390625
        },
        "camFov": 30.0,
        "lerpPattern": 6,
        "cameraBlendType": "EaseInOutCubic",
        "NJBNNOMLKCK": {},
        "needZAxisRotate": true,
        "openCameraDither": false,
        "targetNpcAlias": "",
        "closeTreeLeafDither": true,
        "KJOEFBPOIIH": "",
        "IICFKKEBIEC": "",
        "EGEHEJEBLBJ": ""
      },
      {
        "$type": "PKKMAMONGEO",
        "type": "DIALOG",
        "aliasList": [
          "4292"
        ],
        "actionId": 124,
        "dialogID": 732812511,
        "protectTime": 3.0
      },
      {
        "$type": "LJLMDHDCAMK",
        "type": "LOOK_AT",
        "aliasList": [
          "4292"
        ],
        "actionId": 269,
        "enableHead": true,
        "useTargetPos": true,
        "enableAbsolute": true,
        "targetPosition": {
          "x": -1578.8809814453125,
          "y": 41.108001708984375,
          "z": 5057.9130859375
        },
        "headTurnTime": 0.5,
        "targetNpcAlias": "",
        "lookAtTargetType": "NONE",
        "openBackProtect": true,
        "targetNpcLookAtPoint": "",
        "OAFJBHJHLJG": ""
      },
      {
        "$type": "FABLGECDBCH",
        "type": "BODY_LANG",
        "aliasList": [
          "4292"
        ],
        "actionId": 283,
        "bodyLangParam": 1120,
        "forceDoFreeStyle": true,
        "canDoRepeatFreeStyle": false,
        "cantBackToIdleWhenSitLoop": true,
        "eventPatternSuiteKey": "",
        "FOHHKFAIAAJ": ""
      },
      {
        "$type": "FJKIHHKJLMJ",
        "type": "CAMERA_MOVE",
        "delayTime": 0.10000000149011612,
        "duration": 2.0,
        "actionId": 268,
        "camPosOffset": {
          "x": -1578.3050537109375,
          "y": 41.09700012207031,
          "z": 5057.73876953125
        },
        "camForwardTargetOffset": {
          "x": -1579.2559814453125,
          "y": 41.111000061035156,
          "z": 5057.43115234375
        },
        "camFov": 30.0,
        "lerpPattern": 2,
        "cameraBlendType": "Linear",
        "NJBNNOMLKCK": {},
        "needZAxisRotate": true,
        "openCameraDither": false,
        "targetNpcAlias": "",
        "closeTreeLeafDither": true,
        "KJOEFBPOIIH": "",
        "IICFKKEBIEC": "",
        "EGEHEJEBLBJ": ""
      },
      {
        "$type": "LJLMDHDCAMK",
        "type": "LOOK_AT",
        "delayTime": 1.215000033378601,
        "aliasList": [
          "20842"
        ],
        "actionId": 272,
        "enableHead": true,
        "useTargetPos": true,
        "enableAbsolute": true,
        "targetPosition": {
          "x": -1580.4219970703125,
          "y": 41.29100036621094,
          "z": 5056.7568359375
        },
        "headTurnTime": 0.4000000059604645,
        "targetNpcAlias": "",
        "lookAtTargetType": "NONE",
        "openBackProtect": true,
        "targetNpcLookAtPoint": "",
        "OAFJBHJHLJG": ""
      },
      {
        "$type": "FJKIHHKJLMJ",
        "type": "CAMERA_MOVE",
        "delayTime": 2.0999999046325684,
        "duration": 0.5,
        "actionId": 274,
        "camPosOffset": {
          "x": -1581.779052734375,
          "y": 40.83399963378906,
          "z": 5055.2861328125
        },
        "camForwardTargetOffset": {
          "x": -1581.1429443359375,
          "y": 40.88100051879883,
          "z": 5056.05615234375
        },
        "camFov": 20.0,
        "lerpPattern": 6,
        "cameraBlendType": "EaseInOutCubic",
        "NJBNNOMLKCK": {},
        "needZAxisRotate": true,
        "openCameraDither": false,
        "targetNpcAlias": "",
        "closeTreeLeafDither": true,
        "KJOEFBPOIIH": "",
        "IICFKKEBIEC": "",
        "EGEHEJEBLBJ": ""
      },
      {
        "$type": "FJKIHHKJLMJ",
        "type": "CAMERA_MOVE",
        "delayTime": 2.200000047683716,
        "duration": 6.241000175476074,
        "actionId": 271,
        "camPosOffset": {
          "x": -1581.68994140625,
          "y": 40.832000732421875,
          "z": 5055.22412109375
        },
        "camForwardTargetOffset": {
          "x": -1581.053955078125,
          "y": 40.87900161743164,
          "z": 5055.994140625
        },
        "camFov": 20.0,
        "lerpPattern": 2,
        "cameraBlendType": "EaseOutQuad",
        "NJBNNOMLKCK": {},
        "needZAxisRotate": true,
        "openCameraDither": false,
        "targetNpcAlias": "",
        "closeTreeLeafDither": true,
        "KJOEFBPOIIH": "",
        "IICFKKEBIEC": "",
        "EGEHEJEBLBJ": ""
      },
      {
        "$type": "LJLMDHDCAMK",
        "type": "LOOK_AT",
        "delayTime": 2.618000030517578,
        "aliasList": [
          "20842"
        ],
        "actionId": 273,
        "enableHead": true,
        "useTargetPos": true,
        "enableAbsolute": true,
        "targetPosition": {
          "x": -1579.7860107421875,
          "y": 40.44900131225586,
          "z": 5056.61083984375
        },
        "headTurnTime": 0.3499999940395355,
        "targetNpcAlias": "",
        "lookAtTargetType": "NONE",
        "openBackProtect": true,
        "targetNpcLookAtPoint": "",
        "OAFJBHJHLJG": ""
      }
    ],
    [
      {
        "$type": "FJKIHHKJLMJ",
        "type": "CAMERA_MOVE",
        "duration": 0.5,
        "actionId": 276,
        "camPosOffset": {
          "x": -1575.760009765625,
          "y": 41.11600112915039,
          "z": 5054.783203125
        },
        "camForwardTargetOffset": {
          "x": -1576.73095703125,
          "y": 41.084999084472656,
          "z": 5055.02001953125
        },
        "camFov": 20.0,
        "lerpPattern": 6,
        "cameraBlendType": "EaseInOutCubic",
        "NJBNNOMLKCK": {},
        "needZAxisRotate": true,
        "openCameraDither": false,
        "targetNpcAlias": "",
        "closeTreeLeafDither": true,
        "KJOEFBPOIIH": "",
        "IICFKKEBIEC": "",
        "EGEHEJEBLBJ": ""
      },
      {
        "$type": "MoleMole.Config.ConfigCameraDOFAction",
        "type": "CAMERA_DOF",
        "actionId": 277,
        "focusDistance": 5.0,
        "focusRange": 10.0,
        "nearFocalDistance": 1.0,
        "nearFocalTransDistance": 1.0,
        "dofBlurAmount": 1.0,
        "quality": 3
      },
      {
        "$type": "LJLMDHDCAMK",
        "type": "LOOK_AT",
        "aliasList": [
          "20842"
        ],
        "actionId": 278,
        "enableHead": true,
        "useTargetPos": true,
        "enableAbsolute": true,
        "targetPosition": {
          "x": -1578.4630126953125,
          "y": 40.93600082397461,
          "z": 5055.8681640625
        },
        "headTurnTime": 0.5,
        "targetNpcAlias": "",
        "lookAtTargetType": "NONE",
        "openBackProtect": true,
        "targetNpcLookAtPoint": "",
        "OAFJBHJHLJG": ""
      },
      {
        "$type": "PKKMAMONGEO",
        "type": "DIALOG",
        "aliasList": [
          "4292"
        ],
        "actionId": 126,
        "dialogID": 732812512,
        "protectTime": 0.5
      },
      {
        "$type": "LJLMDHDCAMK",
        "type": "LOOK_AT",
        "aliasList": [
          "4292"
        ],
        "actionId": 286,
        "enableHead": true,
        "useTargetPos": true,
        "enableAbsolute": true,
        "targetPosition": {
          "x": -1578.967041015625,
          "y": 41.084999084472656,
          "z": 5056.0361328125
        },
        "headTurnTime": 0.5,
        "targetNpcAlias": "",
        "lookAtTargetType": "NONE",
        "openBackProtect": true,
        "targetNpcLookAtPoint": "",
        "OAFJBHJHLJG": ""
      },
      {
        "$type": "FJKIHHKJLMJ",
        "type": "CAMERA_MOVE",
        "delayTime": 0.10000000149011612,
        "duration": 9.782999992370605,
        "actionId": 275,
        "camPosOffset": {
          "x": -1575.2679443359375,
          "y": 41.13100051879883,
          "z": 5054.6630859375
        },
        "camForwardTargetOffset": {
          "x": -1576.239013671875,
          "y": 41.09700012207031,
          "z": 5054.89990234375
        },
        "camFov": 20.0,
        "lerpPattern": 2,
        "cameraBlendType": "EaseOutQuad",
        "NJBNNOMLKCK": {},
        "needZAxisRotate": true,
        "openCameraDither": false,
        "targetNpcAlias": "",
        "closeTreeLeafDither": true,
        "KJOEFBPOIIH": "",
        "IICFKKEBIEC": "",
        "EGEHEJEBLBJ": ""
      }
    ],
    [
      {
        "$type": "FJKIHHKJLMJ",
        "type": "CAMERA_MOVE",
        "duration": 0.5,
        "actionId": 280,
        "camPosOffset": {
          "x": -1575.760009765625,
          "y": 41.11600112915039,
          "z": 5054.783203125
        },
        "camForwardTargetOffset": {
          "x": -1576.73095703125,
          "y": 41.084999084472656,
          "z": 5055.02001953125
        },
        "camFov": 20.0,
        "lerpPattern": 6,
        "cameraBlendType": "EaseInOutCubic",
        "NJBNNOMLKCK": {},
        "needZAxisRotate": true,
        "openCameraDither": false,
        "targetNpcAlias": "",
        "closeTreeLeafDither": true,
        "KJOEFBPOIIH": "",
        "IICFKKEBIEC": "",
        "EGEHEJEBLBJ": ""
      },
      {
        "$type": "MoleMole.Config.ConfigCameraDOFAction",
        "type": "CAMERA_DOF",
        "actionId": 281,
        "focusDistance": 5.0,
        "focusRange": 10.0,
        "nearFocalDistance": 1.0,
        "nearFocalTransDistance": 1.0,
        "dofBlurAmount": 1.0,
        "quality": 3
      },
      {
        "$type": "LJLMDHDCAMK",
        "type": "LOOK_AT",
        "aliasList": [
          "20842"
        ],
        "actionId": 282,
        "enableHead": true,
        "useTargetPos": true,
        "enableAbsolute": true,
        "targetPosition": {
          "x": -1578.4630126953125,
          "y": 40.93600082397461,
          "z": 5055.8681640625
        },
        "headTurnTime": 0.5,
        "targetNpcAlias": "",
        "lookAtTargetType": "NONE",
        "openBackProtect": true,
        "targetNpcLookAtPoint": "",
        "OAFJBHJHLJG": ""
      },
      {
        "$type": "PKKMAMONGEO",
        "type": "DIALOG",
        "aliasList": [
          "4292"
        ],
        "actionId": 128,
        "dialogID": 732812514,
        "protectTime": 0.5
      },
      {
        "$type": "LJLMDHDCAMK",
        "type": "LOOK_AT",
        "aliasList": [
          "4292"
        ],
        "actionId": 287,
        "enableHead": true,
        "useTargetPos": true,
        "enableAbsolute": true,
        "targetPosition": {
          "x": -1578.967041015625,
          "y": 41.084999084472656,
          "z": 5056.0361328125
        },
        "headTurnTime": 0.5,
        "targetNpcAlias": "",
        "lookAtTargetType": "NONE",
        "openBackProtect": true,
        "targetNpcLookAtPoint": "",
        "OAFJBHJHLJG": ""
      },
      {
        "$type": "FABLGECDBCH",
        "type": "BODY_LANG",
        "aliasList": [
          "4292"
        ],
        "actionId": 288,
        "bodyLangParam": 1110,
        "forceDoFreeStyle": true,
        "canDoRepeatFreeStyle": false,
        "cantBackToIdleWhenSitLoop": true,
        "eventPatternSuiteKey": "",
        "FOHHKFAIAAJ": ""
      },
      {
        "$type": "FJKIHHKJLMJ",
        "type": "CAMERA_MOVE",
        "delayTime": 0.10000000149011612,
        "duration": 9.782999992370605,
        "actionId": 279,
        "camPosOffset": {
          "x": -1575.2679443359375,
          "y": 41.13100051879883,
          "z": 5054.6630859375
        },
        "camForwardTargetOffset": {
          "x": -1576.239013671875,
          "y": 41.09700012207031,
          "z": 5054.89990234375
        },
        "camFov": 20.0,
        "lerpPattern": 2,
        "cameraBlendType": "EaseOutQuad",
        "NJBNNOMLKCK": {},
        "needZAxisRotate": true,
        "openCameraDither": false,
        "targetNpcAlias": "",
        "closeTreeLeafDither": true,
        "KJOEFBPOIIH": "",
        "IICFKKEBIEC": "",
        "EGEHEJEBLBJ": ""
      },
      {
        "$type": "FABLGECDBCH",
        "type": "BODY_LANG",
        "delayTime": 3.2219998836517334,
        "aliasList": [
          "4292"
        ],
        "actionId": 289,
        "isContinue": true,
        "forceDoFreeStyle": true,
        "canDoRepeatFreeStyle": false,
        "cantBackToIdleWhenSitLoop": true,
        "eventPatternSuiteKey": "",
        "FOHHKFAIAAJ": ""
      }
    ],
    [
      {
        "$type": "PKKMAMONGEO",
        "type": "DIALOG",
        "aliasList": [
          "4292"
        ],
        "actionId": 130,
        "dialogID": 732812515,
        "protectTime": 6.0
      },
      {
        "$type": "LJLMDHDCAMK",
        "type": "LOOK_AT",
        "aliasList": [
          "4292"
        ],
        "actionId": 201,
        "enableHead": true,
        "useTargetPos": true,
        "enableAbsolute": true,
        "targetPosition": {
          "x": -1578.925048828125,
          "y": 41.08000183105469,
          "z": 5057.84814453125
        },
        "headTurnTime": 0.5,
        "targetNpcAlias": "",
        "lookAtTargetType": "NONE",
        "openBackProtect": true,
        "targetNpcLookAtPoint": "",
        "OAFJBHJHLJG": ""
      },
      {
        "$type": "FABLGECDBCH",
        "type": "BODY_LANG",
        "aliasList": [
          "4292"
        ],
        "actionId": 284,
        "isContinue": true,
        "forceDoFreeStyle": true,
        "canDoRepeatFreeStyle": false,
        "cantBackToIdleWhenSitLoop": true,
        "eventPatternSuiteKey": "",
        "FOHHKFAIAAJ": ""
      },
      {
        "$type": "FJKIHHKJLMJ",
        "type": "CAMERA_MOVE",
        "delayTime": 0.4000000059604645,
        "duration": 0.5,
        "actionId": 200,
        "camPosOffset": {
          "x": -1578.6409912109375,
          "y": 41.0989990234375,
          "z": 5057.89208984375
        },
        "camForwardTargetOffset": {
          "x": -1579.5240478515625,
          "y": 41.152000427246094,
          "z": 5057.4248046875
        },
        "camFov": 15.0,
        "lerpPattern": 6,
        "cameraBlendType": "EaseInOutCubic",
        "NJBNNOMLKCK": {},
        "needZAxisRotate": true,
        "openCameraDither": false,
        "targetNpcAlias": "",
        "closeTreeLeafDither": true,
        "KJOEFBPOIIH": "",
        "IICFKKEBIEC": "",
        "EGEHEJEBLBJ": ""
      },
      {
        "$type": "MoleMole.Config.ConfigCameraDOFAction",
        "type": "CAMERA_DOF",
        "delayTime": 0.4000000059604645,
        "actionId": 208,
        "enabled": true,
        "focusDistance": 3.7200000286102295,
        "focusRange": 0.949999988079071,
        "nearFocalDistance": 1.9299999475479126,
        "nearFocalTransDistance": 0.8299999833106995,
        "dofBlurAmount": 1.0,
        "quality": 3
      },
      {
        "$type": "FJKIHHKJLMJ",
        "type": "CAMERA_MOVE",
        "delayTime": 0.5,
        "duration": 3.88700008392334,
        "actionId": 199,
        "camPosOffset": {
          "x": -1578.5989990234375,
          "y": 41.097999572753906,
          "z": 5057.787109375
        },
        "camForwardTargetOffset": {
          "x": -1579.501953125,
          "y": 41.1510009765625,
          "z": 5057.35986328125
        },
        "camFov": 15.0,
        "lerpPattern": 2,
        "cameraBlendType": "Linear",
        "NJBNNOMLKCK": {},
        "needZAxisRotate": true,
        "openCameraDither": false,
        "targetNpcAlias": "",
        "closeTreeLeafDither": true,
        "KJOEFBPOIIH": "",
        "IICFKKEBIEC": "",
        "EGEHEJEBLBJ": ""
      },
      {
        "$type": "MoleMole.Config.ConfigCameraDOFAction",
        "type": "CAMERA_DOF",
        "delayTime": 0.5,
        "duration": 3.8469998836517334,
        "actionId": 207,
        "enabled": true,
        "focusDistance": 1.5399999618530273,
        "focusRange": 0.949999988079071,
        "nearFocalDistance": -0.44999998807907104,
        "nearFocalTransDistance": 0.8299999833106995,
        "dofBlurAmount": 1.0,
        "quality": 3
      },
      {
        "$type": "FABLGECDBCH",
        "type": "BODY_LANG",
        "delayTime": 1.3569999933242798,
        "aliasList": [
          "4292"
        ],
        "actionId": 285,
        "bodyLangParam": 1171,
        "forceDoFreeStyle": true,
        "canDoRepeatFreeStyle": false,
        "cantBackToIdleWhenSitLoop": true,
        "eventPatternSuiteKey": "",
        "FOHHKFAIAAJ": ""
      },
      {
        "$type": "FJKIHHKJLMJ",
        "type": "CAMERA_MOVE",
        "delayTime": 4.38700008392334,
        "duration": 0.5,
        "actionId": 205,
        "camPosOffset": {
          "x": -1578.4620361328125,
          "y": 40.88100051879883,
          "z": 5055.02783203125
        },
        "camForwardTargetOffset": {
          "x": -1578.6490478515625,
          "y": 40.95800018310547,
          "z": 5056.0068359375
        },
        "camFov": 15.0,
        "lerpPattern": 6,
        "cameraBlendType": "EaseInOutCubic",
        "NJBNNOMLKCK": {},
        "needZAxisRotate": true,
        "openCameraDither": false,
        "targetNpcAlias": "",
        "closeTreeLeafDither": true,
        "KJOEFBPOIIH": "",
        "IICFKKEBIEC": "",
        "EGEHEJEBLBJ": ""
      },
      {
        "$type": "MoleMole.Config.ConfigCameraDOFAction",
        "type": "CAMERA_DOF",
        "delayTime": 4.38700008392334,
        "actionId": 210,
        "enabled": true,
        "focusDistance": 4.010000228881836,
        "focusRange": 1.3600000143051147,
        "nearFocalDistance": 2.009999990463257,
        "nearFocalTransDistance": 0.5600000023841858,
        "dofBlurAmount": 1.0,
        "quality": 3
      },
      {
        "$type": "FJKIHHKJLMJ",
        "type": "CAMERA_MOVE",
        "delayTime": 4.486999988555908,
        "duration": 7.572000026702881,
        "actionId": 206,
        "camPosOffset": {
          "x": -1578.2969970703125,
          "y": 40.88399887084961,
          "z": 5055.05908203125
        },
        "camForwardTargetOffset": {
          "x": -1578.5830078125,
          "y": 40.96099853515625,
          "z": 5056.01416015625
        },
        "camFov": 15.0,
        "lerpPattern": 2,
        "cameraBlendType": "EaseOutQuad",
        "NJBNNOMLKCK": {},
        "needZAxisRotate": true,
        "openCameraDither": false,
        "targetNpcAlias": "",
        "closeTreeLeafDither": true,
        "KJOEFBPOIIH": "",
        "IICFKKEBIEC": "",
        "EGEHEJEBLBJ": ""
      },
      {
        "$type": "MoleMole.Config.ConfigCameraDOFAction",
        "type": "CAMERA_DOF",
        "delayTime": 4.486999988555908,
        "duration": 5.861000061035156,
        "actionId": 209,
        "enabled": true,
        "focusDistance": 4.010000228881836,
        "focusRange": 1.3600000143051147,
        "nearFocalDistance": -1.0700000524520874,
        "nearFocalTransDistance": 0.5600000023841858,
        "dofBlurAmount": 1.0,
        "quality": 3
      }
    ],
    [
      {
        "$type": "MoleMole.Config.ConfigCameraDOFAction",
        "type": "CAMERA_DOF",
        "actionId": 211,
        "focusDistance": 5.0,
        "focusRange": 10.0,
        "nearFocalDistance": 1.0,
        "nearFocalTransDistance": 1.0,
        "dofBlurAmount": 1.0,
        "quality": 3
      },
      {
        "$type": "FJKIHHKJLMJ",
        "type": "CAMERA_MOVE",
        "duration": 0.5,
        "actionId": 213,
        "camPosOffset": {
          "x": -1582.177001953125,
          "y": 41.43000030517578,
          "z": 5055.8427734375
        },
        "camForwardTargetOffset": {
          "x": -1581.2060546875,
          "y": 41.22700119018555,
          "z": 5055.966796875
        },
        "camFov": 30.0,
        "lerpPattern": 6,
        "cameraBlendType": "EaseInOutCubic",
        "NJBNNOMLKCK": {},
        "needZAxisRotate": true,
        "openCameraDither": false,
        "targetNpcAlias": "",
        "closeTreeLeafDither": true,
        "KJOEFBPOIIH": "",
        "IICFKKEBIEC": "",
        "EGEHEJEBLBJ": ""
      },
      {
        "$type": "MoleMole.Config.ConfigTeleportToAction",
        "type": "TELEPORT_TO",
        "aliasList": [
          "Avatar"
        ],
        "actionId": 219,
        "position": {
          "x": -1578.0689697265625,
          "y": 39.54800033569336,
          "z": 5055.92578125
        },
        "forward": {
          "x": -1.61899995803833,
          "y": 0.02800000086426735,
          "z": 0.014000000432133675
        },
        "openLongDisTeleport": true,
        "_posBindMovingTargetKey": "",
        "_forwardBindMovingTargetKey": ""
      },
      {
        "$type": "LJLMDHDCAMK",
        "type": "LOOK_AT",
        "aliasList": [
          "4292"
        ],
        "actionId": 220,
        "enableHead": true,
        "useTargetPos": true,
        "enableAbsolute": true,
        "targetPosition": {
          "x": -1578.991943359375,
          "y": 41.071998596191406,
          "z": 5055.408203125
        },
        "headTurnTime": 0.5,
        "targetNpcAlias": "",
        "lookAtTargetType": "NONE",
        "openBackProtect": true,
        "targetNpcLookAtPoint": "",
        "OAFJBHJHLJG": ""
      },
      {
        "$type": "PKKMAMONGEO",
        "type": "DIALOG",
        "aliasList": [
          "1005"
        ],
        "actionId": 132,
        "dialogID": 732812516,
        "protectTime": 0.5
      },
      {
        "$type": "FABLGECDBCH",
        "type": "BODY_LANG",
        "aliasList": [
          "1005"
        ],
        "actionId": 214,
        "bodyLangParam": 1280,
        "forceDoFreeStyle": true,
        "canDoRepeatFreeStyle": false,
        "cantBackToIdleWhenSitLoop": true,
        "eventPatternSuiteKey": "",
        "FOHHKFAIAAJ": ""
      },
      {
        "$type": "MoleMole.Config.ConfigTeleportToAction",
        "type": "TELEPORT_TO",
        "aliasList": [
          "1005"
        ],
        "actionId": 218,
        "position": {
          "x": -1578.2969970703125,
          "y": 39.630001068115234,
          "z": 5055.162109375
        },
        "forward": {
          "x": -1.2680000066757202,
          "y": 0.024000000208616257,
          "z": 0.27399998903274536
        },
        "openLongDisTeleport": true,
        "_posBindMovingTargetKey": "",
        "_forwardBindMovingTargetKey": ""
      },
      {
        "$type": "FJKIHHKJLMJ",
        "type": "CAMERA_MOVE",
        "delayTime": 0.10000000149011612,
        "duration": 12.604999542236328,
        "actionId": 212,
        "camPosOffset": {
          "x": -1582.1600341796875,
          "y": 41.42100143432617,
          "z": 5055.6982421875
        },
        "camForwardTargetOffset": {
          "x": -1581.18896484375,
          "y": 41.21799850463867,
          "z": 5055.82177734375
        },
        "camFov": 30.0,
        "lerpPattern": 2,
        "cameraBlendType": "EaseOutQuad",
        "NJBNNOMLKCK": {},
        "needZAxisRotate": true,
        "openCameraDither": false,
        "targetNpcAlias": "",
        "closeTreeLeafDither": true,
        "KJOEFBPOIIH": "",
        "IICFKKEBIEC": "",
        "EGEHEJEBLBJ": ""
      },
      {
        "$type": "FABLGECDBCH",
        "type": "BODY_LANG",
        "delayTime": 4.035999774932861,
        "aliasList": [
          "1005"
        ],
        "actionId": 215,
        "bodyLangParam": 1300,
        "forceDoFreeStyle": true,
        "canDoRepeatFreeStyle": false,
        "cantBackToIdleWhenSitLoop": true,
        "eventPatternSuiteKey": "",
        "FOHHKFAIAAJ": ""
      }
    ],
    [
      {
        "$type": "PKKMAMONGEO",
        "type": "DIALOG",
        "aliasList": [
          "1005"
        ],
        "actionId": 134,
        "dialogID": 732812517,
        "protectTime": 0.5
      },
      {
        "$type": "FABLGECDBCH",
        "type": "BODY_LANG",
        "aliasList": [
          "1005"
        ],
        "actionId": 216,
        "bodyLangParam": 1230,
        "forceDoFreeStyle": true,
        "canDoRepeatFreeStyle": false,
        "cantBackToIdleWhenSitLoop": true,
        "eventPatternSuiteKey": "",
        "FOHHKFAIAAJ": ""
      },
      {
        "$type": "FABLGECDBCH",
        "type": "BODY_LANG",
        "delayTime": 0.828000009059906,
        "aliasList": [
          "Avatar"
        ],
        "actionId": 221,
        "bodyLangParam": 1230,
        "forceDoFreeStyle": true,
        "canDoRepeatFreeStyle": false,
        "cantBackToIdleWhenSitLoop": true,
        "eventPatternSuiteKey": "",
        "FOHHKFAIAAJ": ""
      }
    ],
    [
      {
        "$type": "FJKIHHKJLMJ",
        "type": "CAMERA_MOVE",
        "duration": 0.5,
        "actionId": 223,
        "camPosOffset": {
          "x": -1580.4510498046875,
          "y": 41.82600021362305,
          "z": 5055.6298828125
        },
        "camForwardTargetOffset": {
          "x": -1581.133056640625,
          "y": 41.35300064086914,
          "z": 5056.18798828125
        },
        "camFov": 30.0,
        "lerpPattern": 6,
        "cameraBlendType": "EaseInOutCubic",
        "NJBNNOMLKCK": {},
        "needZAxisRotate": true,
        "openCameraDither": false,
        "targetNpcAlias": "",
        "closeTreeLeafDither": true,
        "KJOEFBPOIIH": "",
        "IICFKKEBIEC": "",
        "EGEHEJEBLBJ": ""
      },
      {
        "$type": "PKKMAMONGEO",
        "type": "DIALOG",
        "aliasList": [
          "4292"
        ],
        "actionId": 136,
        "dialogID": 732812518,
        "protectTime": 1.0
      },
      {
        "$type": "FJKIHHKJLMJ",
        "type": "CAMERA_MOVE",
        "delayTime": 0.10000000149011612,
        "duration": 0.5,
        "actionId": 222,
        "camPosOffset": {
          "x": -1580.5050048828125,
          "y": 41.83599853515625,
          "z": 5055.57080078125
        },
        "camForwardTargetOffset": {
          "x": -1581.18701171875,
          "y": 41.362998962402344,
          "z": 5056.12890625
        },
        "camFov": 30.0,
        "lerpPattern": 2,
        "cameraBlendType": "EaseOutQuad",
        "NJBNNOMLKCK": {},
        "needZAxisRotate": true,
        "openCameraDither": false,
        "targetNpcAlias": "",
        "closeTreeLeafDither": true,
        "KJOEFBPOIIH": "",
        "IICFKKEBIEC": "",
        "EGEHEJEBLBJ": ""
      },
      {
        "$type": "LJLMDHDCAMK",
        "type": "LOOK_AT",
        "delayTime": 0.4860000014305115,
        "aliasList": [
          "4292"
        ],
        "actionId": 226,
        "enableHead": true,
        "useTargetPos": true,
        "enableAbsolute": true,
        "targetPosition": {
          "x": -1579.697021484375,
          "y": 41.17599868774414,
          "z": 5057.3017578125
        },
        "headTurnTime": 0.5,
        "targetNpcAlias": "",
        "lookAtTargetType": "NONE",
        "openBackProtect": true,
        "targetNpcLookAtPoint": "",
        "OAFJBHJHLJG": ""
      },
      {
        "$type": "FJKIHHKJLMJ",
        "type": "CAMERA_MOVE",
        "delayTime": 0.6000000238418579,
        "duration": 6.960000038146973,
        "actionId": 224,
        "camPosOffset": {
          "x": -1580.531005859375,
          "y": 41.823001861572266,
          "z": 5055.52880859375
        },
        "camForwardTargetOffset": {
          "x": -1581.2130126953125,
          "y": 41.349998474121094,
          "z": 5056.0869140625
        },
        "camFov": 30.0,
        "lerpPattern": 2,
        "cameraBlendType": "EaseOutQuad",
        "NJBNNOMLKCK": {},
        "needZAxisRotate": true,
        "openCameraDither": false,
        "targetNpcAlias": "",
        "closeTreeLeafDither": true,
        "KJOEFBPOIIH": "",
        "IICFKKEBIEC": "",
        "EGEHEJEBLBJ": ""
      }
    ],
    [
      {
        "$type": "FJKIHHKJLMJ",
        "type": "CAMERA_MOVE",
        "duration": 0.5,
        "actionId": 232,
        "camPosOffset": {
          "x": -1581.696044921875,
          "y": 41.481998443603516,
          "z": 5055.51123046875
        },
        "camForwardTargetOffset": {
          "x": -1581.10205078125,
          "y": 41.301998138427734,
          "z": 5056.294921875
        },
        "camFov": 25.0,
        "lerpPattern": 6,
        "cameraBlendType": "EaseInOutCubic",
        "NJBNNOMLKCK": {},
        "needZAxisRotate": true,
        "openCameraDither": false,
        "targetNpcAlias": "",
        "closeTreeLeafDither": true,
        "KJOEFBPOIIH": "",
        "IICFKKEBIEC": "",
        "EGEHEJEBLBJ": ""
      },
      {
        "$type": "PKKMAMONGEO",
        "type": "DIALOG",
        "aliasList": [
          "20842"
        ],
        "actionId": 138,
        "dialogID": 732812519,
        "protectTime": 0.5
      },
      {
        "$type": "MoleMole.Config.ConfigTeleportToAction",
        "type": "TELEPORT_TO",
        "aliasList": [
          "20842"
        ],
        "actionId": 227,
        "position": {
          "x": -1579.3299560546875,
          "y": 39.566001892089844,
          "z": 5057.56005859375
        },
        "forward": {
          "x": -0.9829999804496765,
          "z": -0.593999981880188
        },
        "openLongDisTeleport": true,
        "_posBindMovingTargetKey": "",
        "_forwardBindMovingTargetKey": ""
      },
      {
        "$type": "LJLMDHDCAMK",
        "type": "LOOK_AT",
        "aliasList": [
          "20842"
        ],
        "actionId": 228,
        "enableHead": true,
        "useTargetPos": true,
        "enableAbsolute": true,
        "targetPosition": {
          "x": -1580.758056640625,
          "y": 41.29999923706055,
          "z": 5056.51708984375
        },
        "headTurnTime": 0.30000001192092896,
        "targetNpcAlias": "",
        "lookAtTargetType": "NONE",
        "openBackProtect": true,
        "targetNpcLookAtPoint": "",
        "OAFJBHJHLJG": ""
      },
      {
        "$type": "FJKIHHKJLMJ",
        "type": "CAMERA_MOVE",
        "delayTime": 0.10000000149011612,
        "duration": 8.763999938964844,
        "actionId": 225,
        "camPosOffset": {
          "x": -1581.5350341796875,
          "y": 41.428001403808594,
          "z": 5055.68212890625
        },
        "camForwardTargetOffset": {
          "x": -1580.93798828125,
          "y": 41.25400161743164,
          "z": 5056.46484375
        },
        "camFov": 25.0,
        "lerpPattern": 2,
        "cameraBlendType": "EaseOutQuad",
        "NJBNNOMLKCK": {},
        "needZAxisRotate": true,
        "openCameraDither": false,
        "targetNpcAlias": "",
        "closeTreeLeafDither": true,
        "KJOEFBPOIIH": "",
        "IICFKKEBIEC": "",
        "EGEHEJEBLBJ": ""
      },
      {
        "$type": "FABLGECDBCH",
        "type": "BODY_LANG",
        "delayTime": 0.37599998712539673,
        "aliasList": [
          "20842"
        ],
        "actionId": 230,
        "bodyLangParam": 4040,
        "forceDoFreeStyle": true,
        "canDoRepeatFreeStyle": false,
        "cantBackToIdleWhenSitLoop": true,
        "eventPatternSuiteKey": "",
        "FOHHKFAIAAJ": ""
      },
      {
        "$type": "LJLMDHDCAMK",
        "type": "LOOK_AT",
        "delayTime": 2.1480000019073486,
        "aliasList": [
          "20842"
        ],
        "actionId": 229,
        "enableHead": true,
        "useTargetPos": true,
        "enableAbsolute": true,
        "targetPosition": {
          "x": -1580.758056640625,
          "y": 39.61000061035156,
          "z": 5056.51708984375
        },
        "headTurnTime": 0.4000000059604645,
        "targetNpcAlias": "",
        "lookAtTargetType": "NONE",
        "openBackProtect": true,
        "targetNpcLookAtPoint": "",
        "OAFJBHJHLJG": ""
      }
    ],
    [
      {
        "$type": "FJKIHHKJLMJ",
        "type": "CAMERA_MOVE",
        "duration": 0.5,
        "actionId": 235,
        "camPosOffset": {
          "x": -1578.5880126953125,
          "y": 41.263999938964844,
          "z": 5057.7431640625
        },
        "camForwardTargetOffset": {
          "x": -1579.501953125,
          "y": 41.194000244140625,
          "z": 5057.34423828125
        },
        "camFov": 25.0,
        "lerpPattern": 6,
        "cameraBlendType": "EaseInOutCubic",
        "NJBNNOMLKCK": {},
        "needZAxisRotate": true,
        "openCameraDither": false,
        "targetNpcAlias": "",
        "closeTreeLeafDither": true,
        "KJOEFBPOIIH": "",
        "IICFKKEBIEC": "",
        "EGEHEJEBLBJ": ""
      },
      {
        "$type": "FABLGECDBCH",
        "type": "BODY_LANG",
        "aliasList": [
          "Avatar"
        ],
        "actionId": 246,
        "isContinue": true,
        "forceDoFreeStyle": true,
        "canDoRepeatFreeStyle": false,
        "cantBackToIdleWhenSitLoop": true,
        "eventPatternSuiteKey": "",
        "FOHHKFAIAAJ": ""
      },
      {
        "$type": "LJLMDHDCAMK",
        "type": "LOOK_AT",
        "aliasList": [
          "20842"
        ],
        "actionId": 231,
        "enableHead": true,
        "useTargetPos": true,
        "enableAbsolute": true,
        "targetPosition": {
          "x": -1580.758056640625,
          "y": 39.61000061035156,
          "z": 5056.51708984375
        },
        "headTurnTime": 0.4000000059604645,
        "targetNpcAlias": "",
        "lookAtTargetType": "NONE",
        "openBackProtect": true,
        "targetNpcLookAtPoint": "",
        "OAFJBHJHLJG": ""
      },
      {
        "$type": "PKKMAMONGEO",
        "type": "DIALOG",
        "aliasList": [
          "4292"
        ],
        "actionId": 140,
        "dialogID": 732812520,
        "protectTime": 0.5
      },
      {
        "$type": "FABLGECDBCH",
        "type": "BODY_LANG",
        "aliasList": [
          "1005"
        ],
        "actionId": 248,
        "isContinue": true,
        "forceDoFreeStyle": true,
        "canDoRepeatFreeStyle": false,
        "cantBackToIdleWhenSitLoop": true,
        "eventPatternSuiteKey": "",
        "FOHHKFAIAAJ": ""
      },
      {
        "$type": "FJKIHHKJLMJ",
        "type": "CAMERA_MOVE",
        "delayTime": 0.10000000149011612,
        "duration": 8.324999809265137,
        "actionId": 234,
        "camPosOffset": {
          "x": -1578.571044921875,
          "y": 41.249000549316406,
          "z": 5057.7099609375
        },
        "camForwardTargetOffset": {
          "x": -1579.468017578125,
          "y": 41.18199920654297,
          "z": 5057.27197265625
        },
        "camFov": 25.0,
        "lerpPattern": 2,
        "cameraBlendType": "EaseOutQuad",
        "NJBNNOMLKCK": {},
        "needZAxisRotate": true,
        "openCameraDither": false,
        "targetNpcAlias": "",
        "closeTreeLeafDither": true,
        "KJOEFBPOIIH": "",
        "IICFKKEBIEC": "",
        "EGEHEJEBLBJ": ""
      }
    ],
    [
      {
        "$type": "PKKMAMONGEO",
        "type": "DIALOG",
        "aliasList": [
          "4292"
        ],
        "actionId": 142,
        "dialogID": 732812521,
        "protectTime": 0.5
      },
      {
        "$type": "LJLMDHDCAMK",
        "type": "LOOK_AT",
        "aliasList": [
          "4292"
        ],
        "actionId": 236,
        "enableHead": true,
        "useTargetPos": true,
        "enableAbsolute": true,
        "targetPosition": {
          "x": -1578.3800048828125,
          "y": 41.02000045776367,
          "z": 5055.9619140625
        },
        "headTurnTime": 0.5,
        "targetNpcAlias": "",
        "lookAtTargetType": "NONE",
        "openBackProtect": true,
        "targetNpcLookAtPoint": "",
        "OAFJBHJHLJG": ""
      },
      {
        "$type": "FJKIHHKJLMJ",
        "type": "CAMERA_MOVE",
        "delayTime": 0.3449999988079071,
        "duration": 0.5,
        "actionId": 238,
        "camPosOffset": {
          "x": -1575.781005859375,
          "y": 41.097999572753906,
          "z": 5056.68310546875
        },
        "camForwardTargetOffset": {
          "x": -1576.741943359375,
          "y": 41.02799987792969,
          "z": 5056.4169921875
        },
        "camFov": 25.0,
        "lerpPattern": 6,
        "cameraBlendType": "EaseInOutCubic",
        "NJBNNOMLKCK": {},
        "needZAxisRotate": true,
        "openCameraDither": false,
        "targetNpcAlias": "",
        "closeTreeLeafDither": true,
        "KJOEFBPOIIH": "",
        "IICFKKEBIEC": "",
        "EGEHEJEBLBJ": ""
      },
      {
        "$type": "FJKIHHKJLMJ",
        "type": "CAMERA_MOVE",
        "delayTime": 0.4449999928474426,
        "duration": 13.045000076293945,
        "actionId": 237,
        "camPosOffset": {
          "x": -1575.8289794921875,
          "y": 41.08000183105469,
          "z": 5056.85595703125
        },
        "camForwardTargetOffset": {
          "x": -1576.7900390625,
          "y": 41.0099983215332,
          "z": 5056.5888671875
        },
        "camFov": 25.0,
        "lerpPattern": 2,
        "cameraBlendType": "EaseOutQuad",
        "NJBNNOMLKCK": {},
        "needZAxisRotate": true,
        "openCameraDither": false,
        "targetNpcAlias": "",
        "closeTreeLeafDither": true,
        "KJOEFBPOIIH": "",
        "IICFKKEBIEC": "",
        "EGEHEJEBLBJ": ""
      },
      {
        "$type": "FABLGECDBCH",
        "type": "BODY_LANG",
        "delayTime": 0.5889999866485596,
        "aliasList": [
          "4292"
        ],
        "actionId": 239,
        "bodyLangParam": 1110,
        "forceDoFreeStyle": true,
        "canDoRepeatFreeStyle": false,
        "cantBackToIdleWhenSitLoop": true,
        "eventPatternSuiteKey": "",
        "FOHHKFAIAAJ": ""
      },
      {
        "$type": "FABLGECDBCH",
        "type": "BODY_LANG",
        "delayTime": 3.990999937057495,
        "aliasList": [
          "4292"
        ],
        "actionId": 240,
        "isContinue": true,
        "forceDoFreeStyle": true,
        "canDoRepeatFreeStyle": false,
        "cantBackToIdleWhenSitLoop": true,
        "eventPatternSuiteKey": "",
        "FOHHKFAIAAJ": ""
      },
      {
        "$type": "FABLGECDBCH",
        "type": "BODY_LANG",
        "delayTime": 7.0329999923706055,
        "aliasList": [
          "4292"
        ],
        "actionId": 241,
        "bodyLangParam": 1120,
        "forceDoFreeStyle": true,
        "canDoRepeatFreeStyle": false,
        "cantBackToIdleWhenSitLoop": true,
        "eventPatternSuiteKey": "",
        "FOHHKFAIAAJ": ""
      }
    ],
    [
      {
        "$type": "FJKIHHKJLMJ",
        "type": "CAMERA_MOVE",
        "duration": 0.5,
        "actionId": 243,
        "camPosOffset": {
          "x": -1582.5460205078125,
          "y": 41.6510009765625,
          "z": 5056.951171875
        },
        "camForwardTargetOffset": {
          "x": -1581.64599609375,
          "y": 41.42100143432617,
          "z": 5056.5810546875
        },
        "camFov": 25.0,
        "lerpPattern": 6,
        "cameraBlendType": "EaseInOutCubic",
        "NJBNNOMLKCK": {},
        "needZAxisRotate": true,
        "openCameraDither": false,
        "targetNpcAlias": "",
        "closeTreeLeafDither": true,
        "KJOEFBPOIIH": "",
        "IICFKKEBIEC": "",
        "EGEHEJEBLBJ": ""
      },
      {
        "$type": "PKKMAMONGEO",
        "type": "DIALOG",
        "aliasList": [
          "4292"
        ],
        "actionId": 144,
        "dialogID": 732812522,
        "protectTime": 0.5
      },
      {
        "$type": "FABLGECDBCH",
        "type": "BODY_LANG",
        "aliasList": [
          "4292"
        ],
        "actionId": 244,
        "bodyLangParam": 1120,
        "forceDoFreeStyle": true,
        "dontClearPreFreeStyle": true,
        "cantBackToIdleWhenSitLoop": true,
        "eventPatternSuiteKey": "",
        "FOHHKFAIAAJ": ""
      },
      {
        "$type": "FJKIHHKJLMJ",
        "type": "CAMERA_MOVE",
        "delayTime": 0.10000000149011612,
        "duration": 10.73900032043457,
        "actionId": 242,
        "camPosOffset": {
          "x": -1582.47802734375,
          "y": 41.652000427246094,
          "z": 5057.115234375
        },
        "camForwardTargetOffset": {
          "x": -1581.5780029296875,
          "y": 41.422000885009766,
          "z": 5056.7451171875
        },
        "camFov": 25.0,
        "lerpPattern": 2,
        "cameraBlendType": "EaseOutQuad",
        "NJBNNOMLKCK": {},
        "needZAxisRotate": true,
        "openCameraDither": false,
        "targetNpcAlias": "",
        "closeTreeLeafDither": true,
        "KJOEFBPOIIH": "",
        "IICFKKEBIEC": "",
        "EGEHEJEBLBJ": ""
      }
    ],
    [
      {
        "$type": "FJKIHHKJLMJ",
        "type": "CAMERA_MOVE",
        "duration": 0.5,
        "actionId": 250,
        "camPosOffset": {
          "x": -1573.7550048828125,
          "y": 42.249000549316406,
          "z": 5053.134765625
        },
        "camForwardTargetOffset": {
          "x": -1574.60302734375,
          "y": 41.999000549316406,
          "z": 5053.60205078125
        },
        "camFov": 25.0,
        "lerpPattern": 6,
        "cameraBlendType": "EaseInOutCubic",
        "NJBNNOMLKCK": {},
        "needZAxisRotate": true,
        "openCameraDither": false,
        "targetNpcAlias": "",
        "closeTreeLeafDither": true,
        "KJOEFBPOIIH": "",
        "IICFKKEBIEC": "",
        "EGEHEJEBLBJ": ""
      },
      {
        "$type": "LLGANGLOEEO",
        "type": "STEER_TO",
        "duration": 1.0,
        "aliasList": [
          "Avatar"
        ],
        "actionId": 251,
        "steerType": "ABSOLUTE",
        "steerDir": {
          "x": -1575.9849853515625,
          "y": 39.606998443603516,
          "z": 5054.94482421875
        },
        "useSteerAnim": true,
        "interruptFreestyle": true,
        "forceSteer": true,
        "targetNpcAlias": "",
        "ignoreY": true,
        "fixInterNull": true,
        "OAFJBHJHLJG": ""
      },
      {
        "$type": "LJLMDHDCAMK",
        "type": "LOOK_AT",
        "aliasList": [
          "Avatar"
        ],
        "actionId": 292,
        "enableHead": true,
        "useTargetPos": true,
        "enableAbsolute": true,
        "targetPosition": {
          "x": -1572.6610107421875,
          "y": 41.00600051879883,
          "z": 5054.31982421875
        },
        "headTurnTime": 0.5,
        "targetNpcAlias": "",
        "lookAtTargetType": "NONE",
        "openBackProtect": true,
        "targetNpcLookAtPoint": "",
        "OAFJBHJHLJG": ""
      },
      {
        "$type": "LJLMDHDCAMK",
        "type": "LOOK_AT",
        "aliasList": [
          "4292"
        ],
        "actionId": 258,
        "enableHead": true,
        "headTurnTime": 0.5,
        "targetNpcAlias": "Avatar",
        "openBackProtect": true,
        "targetNpcLookAtPoint": "",
        "OAFJBHJHLJG": ""
      },
      {
        "$type": "FJKIHHKJLMJ",
        "type": "CAMERA_MOVE",
        "delayTime": 0.10000000149011612,
        "duration": 7.22599983215332,
        "actionId": 249,
        "camPosOffset": {
          "x": -1573.748046875,
          "y": 42.70399856567383,
          "z": 5053.38916015625
        },
        "camForwardTargetOffset": {
          "x": -1574.595947265625,
          "y": 42.45399856567383,
          "z": 5053.85595703125
        },
        "camFov": 25.0,
        "lerpPattern": 2,
        "cameraBlendType": "EaseOutQuad",
        "NJBNNOMLKCK": {},
        "needZAxisRotate": true,
        "openCameraDither": false,
        "targetNpcAlias": "",
        "closeTreeLeafDither": true,
        "KJOEFBPOIIH": "",
        "IICFKKEBIEC": "",
        "EGEHEJEBLBJ": ""
      },
      {
        "$type": "LJLMDHDCAMK",
        "type": "LOOK_AT",
        "delayTime": 0.4560000002384186,
        "aliasList": [
          "1005"
        ],
        "actionId": 291,
        "enableHead": true,
        "useTargetPos": true,
        "enableAbsolute": true,
        "targetPosition": {
          "x": -1572.967041015625,
          "y": 40.91400146484375,
          "z": 5054.3798828125
        },
        "headTurnTime": 0.5,
        "targetNpcAlias": "",
        "lookAtTargetType": "NONE",
        "openBackProtect": true,
        "targetNpcLookAtPoint": "",
        "OAFJBHJHLJG": ""
      },
      {
        "$type": "LLGANGLOEEO",
        "type": "STEER_TO",
        "delayTime": 0.47099998593330383,
        "duration": 1.0,
        "aliasList": [
          "1005"
        ],
        "actionId": 252,
        "steerType": "ABSOLUTE",
        "steerDir": {
          "x": -1577.0389404296875,
          "y": 39.6150016784668,
          "z": 5054.55419921875
        },
        "useSteerAnim": true,
        "interruptFreestyle": true,
        "forceSteer": true,
        "targetNpcAlias": "",
        "ignoreY": true,
        "fixInterNull": true,
        "OAFJBHJHLJG": ""
      },
      {
        "$type": "LJLMDHDCAMK",
        "type": "LOOK_AT",
        "delayTime": 1.2519999742507935,
        "aliasList": [
          "20842"
        ],
        "actionId": 257,
        "enableHead": true,
        "useTargetPos": true,
        "enableAbsolute": true,
        "targetPosition": {
          "x": -1572.9639892578125,
          "y": 41.145999908447266,
          "z": 5052.4609375
        },
        "headTurnTime": 0.5,
        "targetNpcAlias": "",
        "lookAtTargetType": "NONE",
        "openBackProtect": true,
        "targetNpcLookAtPoint": "",
        "OAFJBHJHLJG": ""
      },
      {
        "$type": "LLGANGLOEEO",
        "type": "STEER_TO",
        "delayTime": 1.2619999647140503,
        "duration": 1.0,
        "aliasList": [
          "20842"
        ],
        "actionId": 256,
        "steerType": "ABSOLUTE",
        "steerDir": {
          "x": -1579.3079833984375,
          "y": 39.65399932861328,
          "z": 5056.09521484375
        },
        "useSteerAnim": true,
        "interruptFreestyle": true,
        "forceSteer": true,
        "targetNpcAlias": "",
        "ignoreY": true,
        "fixInterNull": true,
        "OAFJBHJHLJG": ""
      },
      {
        "$type": "MoleMole.Config.ConfigMoveToAction",
        "type": "MOVE_TO",
        "delayTime": 1.5410000085830688,
        "aliasList": [
          "Avatar"
        ],
        "actionId": 253,
        "moveType": "WALK",
        "routeList": [
          {
            "x": -1573.260986328125,
            "y": 39.61899948120117,
            "z": 5054.01123046875
          }
        ],
        "exactlyMove": true,
        "closeNavMesh": true,
        "closeAvatarNavMesh": true,
        "openSetPos": true,
        "_bindMovingTargetKey": ""
      },
      {
        "$type": "MoleMole.Config.ConfigMoveToAction",
        "type": "MOVE_TO",
        "delayTime": 1.5839999914169312,
        "aliasList": [
          "1005"
        ],
        "actionId": 254,
        "moveType": "WALK",
        "routeList": [
          {
            "x": -1572.8480224609375,
            "y": 39.61899948120117,
            "z": 5052.25
          }
        ],
        "exactlyMove": true,
        "closeNavMesh": true,
        "openSetPos": true,
        "_bindMovingTargetKey": ""
      },
      {
        "$type": "PKKMAMONGEO",
        "type": "DIALOG",
        "delayTime": 2.2920000553131104,
        "aliasList": [
          "20842"
        ],
        "actionId": 146,
        "dialogID": 732812523,
        "protectTime": 0.5
      }
    ],
    [
      {
        "$type": "PKKMAMONGEO",
        "type": "DIALOG",
        "aliasList": [
          "4292"
        ],
        "actionId": 148,
        "dialogID": 732812524,
        "protectTime": 0.5
      },
      {
        "$type": "LJLMDHDCAMK",
        "type": "LOOK_AT",
        "aliasList": [
          "4292"
        ],
        "actionId": 259,
        "enableHead": true,
        "useTargetPos": true,
        "enableAbsolute": true,
        "targetPosition": {
          "x": -1578.3919677734375,
          "y": 41.00400161743164,
          "z": 5058.18896484375
        },
        "headTurnTime": 0.5,
        "targetNpcAlias": "",
        "lookAtTargetType": "NONE",
        "openBackProtect": true,
        "targetNpcLookAtPoint": "",
        "OAFJBHJHLJG": ""
      }
    ],
    [
      {
        "$type": "FJKIHHKJLMJ",
        "type": "CAMERA_MOVE",
        "duration": 0.5,
        "actionId": 261,
        "camPosOffset": {
          "x": -1577.009033203125,
          "y": 40.73500061035156,
          "z": 5057.34423828125
        },
        "camForwardTargetOffset": {
          "x": -1578.0069580078125,
          "y": 40.77000045776367,
          "z": 5057.2919921875
        },
        "camFov": 35.0,
        "lerpPattern": 6,
        "cameraBlendType": "EaseInOutCubic",
        "NJBNNOMLKCK": {},
        "needZAxisRotate": true,
        "openCameraDither": false,
        "targetNpcAlias": "",
        "closeTreeLeafDither": true,
        "KJOEFBPOIIH": "",
        "IICFKKEBIEC": "",
        "EGEHEJEBLBJ": ""
      },
      {
        "$type": "MoleMole.Config.ConfigTeleportToAction",
        "type": "TELEPORT_TO",
        "aliasList": [
          "Avatar"
        ],
        "actionId": 266,
        "position": {
          "x": -1575.9210205078125,
          "y": 39.62099838256836,
          "z": 5052.01318359375
        },
        "forward": {
          "x": 0.3959999978542328,
          "y": -0.0729999989271164,
          "z": -2.8570001125335693
        },
        "openLongDisTeleport": true,
        "_posBindMovingTargetKey": "",
        "_forwardBindMovingTargetKey": ""
      },
      {
        "$type": "LJLMDHDCAMK",
        "type": "LOOK_AT",
        "aliasList": [
          "Avatar"
        ],
        "actionId": 294,
        "headTurnTime": 0.5,
        "targetNpcAlias": "",
        "openBackProtect": true,
        "targetNpcLookAtPoint": "",
        "OAFJBHJHLJG": ""
      },
      {
        "$type": "PKKMAMONGEO",
        "type": "DIALOG",
        "aliasList": [
          "4292"
        ],
        "actionId": 150,
        "dialogID": 732812525,
        "protectTime": 2.0
      },
      {
        "$type": "FABLGECDBCH",
        "type": "BODY_LANG",
        "aliasList": [
          "4292"
        ],
        "actionId": 262,
        "isContinue": true,
        "forceDoFreeStyle": true,
        "canDoRepeatFreeStyle": false,
        "cantBackToIdleWhenSitLoop": true,
        "eventPatternSuiteKey": "",
        "FOHHKFAIAAJ": ""
      },
      {
        "$type": "LLGANGLOEEO",
        "type": "STEER_TO",
        "duration": 1.0,
        "aliasList": [
          "4292"
        ],
        "actionId": 263,
        "steerType": "ABSOLUTE",
        "steerDir": {
          "x": -1579.7010498046875,
          "y": 39.597999572753906,
          "z": 5057.44287109375
        },
        "useSteerAnim": true,
        "interruptFreestyle": true,
        "forceSteer": true,
        "targetNpcAlias": "",
        "ignoreY": true,
        "fixInterNull": true,
        "OAFJBHJHLJG": ""
      },
      {
        "$type": "MoleMole.Config.ConfigTeleportToAction",
        "type": "TELEPORT_TO",
        "aliasList": [
          "1005"
        ],
        "actionId": 267,
        "position": {
          "x": -1574.666015625,
          "y": 39.619998931884766,
          "z": 5052.3740234375
        },
        "forward": {
          "x": 0.382999986410141,
          "y": 0.009999999776482582,
          "z": -2.9700000286102295
        },
        "openLongDisTeleport": true,
        "_posBindMovingTargetKey": "",
        "_forwardBindMovingTargetKey": ""
      },
      {
        "$type": "LJLMDHDCAMK",
        "type": "LOOK_AT",
        "aliasList": [
          "1005"
        ],
        "actionId": 293,
        "headTurnTime": 0.5,
        "targetNpcAlias": "",
        "openBackProtect": true,
        "targetNpcLookAtPoint": "",
        "OAFJBHJHLJG": ""
      },
      {
        "$type": "FJKIHHKJLMJ",
        "type": "CAMERA_MOVE",
        "delayTime": 0.10000000149011612,
        "duration": 10.020999908447266,
        "actionId": 260,
        "camPosOffset": {
          "x": -1576.9969482421875,
          "y": 40.73400115966797,
          "z": 5057.115234375
        },
        "camForwardTargetOffset": {
          "x": -1577.9949951171875,
          "y": 40.76900100708008,
          "z": 5057.06298828125
        },
        "camFov": 35.0,
        "lerpPattern": 2,
        "cameraBlendType": "EaseOutQuad",
        "NJBNNOMLKCK": {},
        "needZAxisRotate": true,
        "openCameraDither": false,
        "targetNpcAlias": "",
        "closeTreeLeafDither": true,
        "KJOEFBPOIIH": "",
        "IICFKKEBIEC": "",
        "EGEHEJEBLBJ": ""
      },
      {
        "$type": "LLGANGLOEEO",
        "type": "STEER_TO",
        "delayTime": 0.8299999833106995,
        "duration": 1.0,
        "aliasList": [
          "20842"
        ],
        "actionId": 290,
        "steerType": "ABSOLUTE",
        "steerDir": {
          "x": -1580.633056640625,
          "y": 39.65399932861328,
          "z": 5056.52978515625
        },
        "useSteerAnim": true,
        "interruptFreestyle": true,
        "forceSteer": true,
        "targetNpcAlias": "",
        "ignoreY": true,
        "fixInterNull": true,
        "OAFJBHJHLJG": ""
      },
      {
        "$type": "LJLMDHDCAMK",
        "type": "LOOK_AT",
        "delayTime": 0.8460000157356262,
        "aliasList": [
          "20842"
        ],
        "actionId": 265,
        "enableHead": true,
        "useTargetPos": true,
        "enableAbsolute": true,
        "targetPosition": {
          "x": -1580.8890380859375,
          "y": 41.33100128173828,
          "z": 5056.4580078125
        },
        "headTurnTime": 0.5,
        "targetNpcAlias": "",
        "lookAtTargetType": "NONE",
        "openBackProtect": true,
        "targetNpcLookAtPoint": "",
        "OAFJBHJHLJG": ""
      },
      {
        "$type": "FABLGECDBCH",
        "type": "BODY_LANG",
        "delayTime": 1.597000002861023,
        "aliasList": [
          "4292"
        ],
        "actionId": 264,
        "bodyLangParam": 1230,
        "forceDoFreeStyle": true,
        "canDoRepeatFreeStyle": false,
        "cantBackToIdleWhenSitLoop": true,
        "eventPatternSuiteKey": "",
        "FOHHKFAIAAJ": ""
      }
    ],
    [
      {
        "$type": "MoleMole.Config.ConfigSimpleBlackScreenAction",
        "type": "SIMPLE_BLACK_SCREEN",
        "actionId": 151,
        "durationToBlack": 0.5,
        "durationKeepBlack": 1.5,
        "durationFromBlack": 0.5,
        "textMapID": ""
      },
      {
        "$type": "MoleMole.Config.ConfigTimeProtectAction",
        "type": "TIME_PROTECT",
        "duration": 0.699999988079071,
        "actionId": 152
      },
      {
        "$type": "FABLGECDBCH",
        "type": "BODY_LANG",
        "aliasList": [
          "4292"
        ],
        "actionId": 296,
        "isContinue": true,
        "forceDoFreeStyle": true,
        "canDoRepeatFreeStyle": false,
        "cantBackToIdleWhenSitLoop": true,
        "eventPatternSuiteKey": "",
        "FOHHKFAIAAJ": ""
      },
      {
        "$type": "FJKIHHKJLMJ",
        "type": "CAMERA_MOVE",
        "delayTime": 0.5,
        "duration": 0.10000000149011612,
        "actionId": 155,
        "camPosOffset": {
          "x": -1576.093994140625,
          "y": 41.44200134277344,
          "z": 5054.787109375
        },
        "camForwardTargetOffset": {
          "x": -1576.0360107421875,
          "y": 41.16600036621094,
          "z": 5053.828125
        },
        "lerpPattern": 6,
        "cameraBlendType": "EaseInOutCubic",
        "NJBNNOMLKCK": {},
        "needZAxisRotate": true,
        "openCameraDither": false,
        "targetNpcAlias": "",
        "closeTreeLeafDither": true,
        "KJOEFBPOIIH": "",
        "IICFKKEBIEC": "",
        "EGEHEJEBLBJ": ""
      }
    ]
  ],
  "groupId": [
    {
      "grpId": 1547921864,
      "nextGrpId": 1547921865
    },
    {
      "index": 1,
      "grpId": 1547921865,
      "nextGrpId": 1547921866
    },
    {
      "index": 2,
      "grpId": 1547921866,
      "nextGrpId": 1547921867
    },
    {
      "index": 3,
      "grpId": 1547921867,
      "nextGrpId": 1547921868
    },
    {
      "index": 4,
      "grpId": 1547921868,
      "nextGrpId": 1547921869
    },
    {
      "index": 5,
      "grpId": 1547921869,
      "nextGrpId": 1547921870
    },
    {
      "index": 6,
      "grpId": 1547921870,
      "nextGrpId": 1547921871
    },
    {
      "index": 7,
      "grpId": 1547921871,
      "nextGrpId": 740937578
    },
    {
      "index": 8,
      "grpId": 1547921872,
      "nextGrpId": 740937576
    },
    {
      "index": 9,
      "grpId": 740937576,
      "nextGrpId": 740937578
    },
    {
      "index": 10,
      "grpId": 740937577,
      "nextGrpId": 740937578
    },
    {
      "index": 11,
      "grpId": 740937578,
      "nextGrpId": 740937579
    },
    {
      "index": 12,
      "grpId": 740937579,
      "nextGrpId": 740937580
    },
    {
      "index": 13,
      "grpId": 740937580,
      "nextGrpId": 740937581
    },
    {
      "index": 14,
      "grpId": 740937581,
      "nextGrpId": 740937582
    },
    {
      "index": 15,
      "grpId": 740937582,
      "nextGrpId": 740937583
    },
    {
      "index": 16,
      "grpId": 740937583,
      "nextGrpId": 740937584
    },
    {
      "index": 17,
      "grpId": 740937584,
      "nextGrpId": 740937585
    },
    {
      "index": 18,
      "grpId": 740937585,
      "nextGrpId": 740937607
    },
    {
      "index": 19,
      "grpId": 740937607,
      "nextGrpId": 740937608
    },
    {
      "index": 20,
      "grpId": 740937608,
      "nextGrpId": 740937609
    },
    {
      "index": 21,
      "grpId": 740937609,
      "nextGrpId": 740937610
    },
    {
      "index": 22,
      "grpId": 740937610,
      "nextGrpId": 740937611
    }
  ],
  "freeStyleDic": {
    "20842": [
      1180,
      4040
    ],
    "4292": [
      1230,
      4030,
      1171,
      1120,
      1110
    ]
  }
}