{
  "luaDataPath": "",
  "startBlackKeepTime": 0.5,
  "entityBan": "",
  "disableNpcLod": true,
  "isAutoBanNpc": true,
  "isBanWidgetPet": true,
  "protectNpcMobileLod": true,
  "startFade": {
    "startFadeInDuration": 0.5,
    "startFadeOutDuration": 0.5
  },
  "endFade": {
    "startFadeOutDuration": 0.0
  },
  "actors": [
    {
      "alias": "Avatar",
      "visible": true,
      "bornPointName": "Q801001_N10000005",
      "relativePosType": "AVATAR_NEW",
      "relativePosNpcAlias": "",
      "_bindMovingTargetKey": ""
    },
    {
      "alias": "AvatarNpc",
      "visible": true,
      "bornPointName": "Q801001_N10000005",
      "removeActorType": "NEW_REMOVE",
      "relativePosType": "AVATAR_NEW",
      "relativePosNpcAlias": "",
      "_bindMovingTargetKey": ""
    },
    {
      "configID": 13072,
      "alias": "13072",
      "visible": true,
      "bornPointName": "Q801011_N13072",
      "relativePosType": "AVATAR_NEW",
      "relativePosNpcAlias": "",
      "_bindMovingTargetKey": ""
    }
  ],
  "group": [
    [
      {
        "$type": "MoleMole.Config.ConfigTimeProtectAction",
        "type": "TIME_PROTECT",
        "duration": 1.0,
        "actionId": 104
      },
      {
        "$type": "MoleMole.Config.ConfigBlackScreenAction",
        "type": "BLACK_SCREEN",
        "duration": 1.0,
        "actionId": 119,
        "blackScreenType": "KEEP_BLACK",
        "durationToBlack": 0.5,
        "durationKeepBlack": 1.0,
        "durationFromBlack": 0.5,
        "inteePos": "",
        "textMapID": "",
        "useTextFade": true
      },
      {
        "$type": "MoleMole.Config.ConfigVisibleInterAction",
        "type": "VISIBLE",
        "aliasList": [
          "Avatar"
        ],
        "actionId": 124,
        "_extraParam": ""
      },
      {
        "$type": "MoleMole.Config.ConfigTeleportToAction",
        "type": "TELEPORT_TO",
        "aliasList": [
          "Avatar"
        ],
        "actionId": 238,
        "position": {
          "x": -728.0479736328125,
          "y": 225.15499877929688,
          "z": 2239.639892578125
        },
        "forward": {
          "x": -2.875,
          "y": -0.03099999949336052,
          "z": -0.6349999904632568
        },
        "openLongDisTeleport": true,
        "_posBindMovingTargetKey": "",
        "_forwardBindMovingTargetKey": ""
      },
      {
        "$type": "MoleMole.Config.ConfigPlayerNPCEnergyTypeAction",
        "type": "SET_PLAYER_NPC_ENERGY_TYPE",
        "aliasList": [
          "AvatarNpc"
        ],
        "actionId": 122,
        "setHeroEngergyType": true
      },
      {
        "$type": "MoleMole.Config.ConfigTeleportToAction",
        "type": "TELEPORT_TO",
        "aliasList": [
          "AvatarNpc"
        ],
        "actionId": 139,
        "position": {
          "x": -728.0479736328125,
          "y": 225.15499877929688,
          "z": 2239.639892578125
        },
        "forward": {
          "x": -2.875,
          "y": -0.03099999949336052,
          "z": -0.6349999904632568
        },
        "openLongDisTeleport": true,
        "_posBindMovingTargetKey": "",
        "_forwardBindMovingTargetKey": ""
      },
      {
        "$type": "FABLGECDBCH",
        "type": "BODY_LANG",
        "aliasList": [
          "AvatarNpc"
        ],
        "actionId": 144,
        "bodyLangParam": 1080,
        "forceDoFreeStyle": true,
        "canDoRepeatFreeStyle": false,
        "cantBackToIdleWhenSitLoop": true,
        "eventPatternSuiteKey": "",
        "FOHHKFAIAAJ": ""
      },
      {
        "$type": "CPJKOIHIPBE",
        "type": "EMO_SYNC",
        "aliasList": [
          "AvatarNpc"
        ],
        "actionId": 146,
        "dataPath": "",
        "phonemePath": "Cs_Emo_Avatar_Common/Cs_Emo_Avatar_Angry02",
        "emotionPath": "Cs_Emo_Avatar_Common/Cs_Emo_Avatar_Angry02",
        "mateDataPath": "",
        "matePhonemePath": "",
        "mateEmotionPath": "",
        "phonemePathHashList": [
          9079369598195085523,
          12257893830083629476,
          17312525641519871385,
          8522458870559476085
        ],
        "emotionPathHashList": [
          12781774775280653381,
          2106890207229797702,
          3298605151875018548,
          5144712318883339178
        ],
        "FMDPBECPELH": "",
        "ADKBLPOKGIK": ""
      },
      {
        "$type": "MoleMole.Config.ConfigTeleportToAction",
        "type": "TELEPORT_TO",
        "aliasList": [
          "13072"
        ],
        "actionId": 140,
        "position": {
          "x": -727.0029907226562,
          "y": 225.04400634765625,
          "z": 2244.9541015625
        },
        "forward": {
          "x": -0.7329999804496765,
          "z": -3.999000072479248
        },
        "openLongDisTeleport": true,
        "_posBindMovingTargetKey": "",
        "_forwardBindMovingTargetKey": ""
      },
      {
        "$type": "LJLMDHDCAMK",
        "type": "LOOK_AT",
        "aliasList": [
          "13072"
        ],
        "actionId": 141,
        "enableHead": true,
        "headTurnTime": 0.5,
        "targetNpcAlias": "AvatarNpc",
        "openBackProtect": true,
        "targetNpcLookAtPoint": "",
        "OAFJBHJHLJG": ""
      }
    ],
    [
      {
        "$type": "MoleMole.Config.ConfigBlackScreenAction",
        "type": "BLACK_SCREEN",
        "duration": 0.5,
        "actionId": 120,
        "blackScreenType": "FROM_BLACK",
        "durationToBlack": 0.5,
        "durationKeepBlack": 0.5,
        "durationFromBlack": 0.5,
        "inteePos": "",
        "textMapID": "",
        "useTextFade": true
      },
      {
        "$type": "FJKIHHKJLMJ",
        "type": "CAMERA_MOVE",
        "duration": 0.5,
        "actionId": 147,
        "camPosOffset": {
          "x": -728.947021484375,
          "y": 226.11300659179688,
          "z": 2238.446044921875
        },
        "camForwardTargetOffset": {
          "x": -728.4869995117188,
          "y": 226.197998046875,
          "z": 2239.330078125
        },
        "camFov": 30.0,
        "lerpPattern": 6,
        "cameraBlendType": "EaseInOutCubic",
        "NJBNNOMLKCK": {},
        "needZAxisRotate": true,
        "rotateAngle": 357.32598876953125,
        "openCameraDither": false,
        "targetNpcAlias": "",
        "closeTreeLeafDither": true,
        "KJOEFBPOIIH": "",
        "IICFKKEBIEC": "",
        "EGEHEJEBLBJ": ""
      },
      {
        "$type": "PKKMAMONGEO",
        "type": "DIALOG",
        "aliasList": [
          "13072"
        ],
        "actionId": 107,
        "dialogID": 80101501,
        "protectTime": 2.0
      },
      {
        "$type": "CPJKOIHIPBE",
        "type": "EMO_SYNC",
        "aliasList": [
          "13072"
        ],
        "actionId": 134,
        "dataPath": "Cs_Emo_Avatar_Simple_Common_Set/Cs_Emo_Avatar_Talk/Cs_Emo_Avatar_MainLine/Cs_Emo_Avatar_Twins03/Cs_Emo_80101501",
        "phonemePath": "",
        "emotionPath": "",
        "mateDataPath": "",
        "matePhonemePath": "",
        "mateEmotionPath": "",
        "dataPathHashList": [
          1616224686412884127,
          3127186648194050248,
          8163282844479678876,
          18241530214676829158
        ],
        "FMDPBECPELH": "",
        "ADKBLPOKGIK": ""
      },
      {
        "$type": "MoleMole.Config.ConfigMoveToAction",
        "type": "MOVE_TO",
        "aliasList": [
          "13072"
        ],
        "actionId": 142,
        "moveType": "RUN",
        "routeList": [
          {
            "x": -727.5859985351562,
            "y": 225.0500030517578,
            "z": 2241.0048828125
          }
        ],
        "exactlyMove": true,
        "closeNavMesh": true,
        "openSetPos": true,
        "_bindMovingTargetKey": ""
      },
      {
        "$type": "FJKIHHKJLMJ",
        "type": "CAMERA_MOVE",
        "delayTime": 0.10000000149011612,
        "duration": 6.0,
        "actionId": 143,
        "camPosOffset": {
          "x": -728.947021484375,
          "y": 226.11300659179688,
          "z": 2238.446044921875
        },
        "camForwardTargetOffset": {
          "x": -728.3569946289062,
          "y": 226.2480010986328,
          "z": 2239.241943359375
        },
        "camFov": 30.0,
        "cameraBlendType": "EaseOutQuart",
        "NJBNNOMLKCK": {},
        "needZAxisRotate": true,
        "rotateAngle": 356.2170104980469,
        "openCameraDither": false,
        "targetNpcAlias": "",
        "closeTreeLeafDither": true,
        "KJOEFBPOIIH": "",
        "IICFKKEBIEC": "",
        "EGEHEJEBLBJ": ""
      },
      {
        "$type": "EMEHNEMOMMM",
        "type": "LOOK_AT_EYECTRL",
        "delayTime": 0.8980000019073486,
        "aliasList": [
          "AvatarNpc"
        ],
        "actionId": 148,
        "useTargetPos": false,
        "eyeRotateVecLeft": {
          "x": -2.0
        },
        "eyeRotateVecRight": {
          "x": -2.0
        },
        "turnTime": 0.20000000298023224,
        "targetNpcAlias": "",
        "targetPoint": "Face"
      },
      {
        "$type": "EMEHNEMOMMM",
        "type": "LOOK_AT_EYECTRL",
        "delayTime": 1.565000057220459,
        "aliasList": [
          "AvatarNpc"
        ],
        "actionId": 149,
        "useTargetPos": false,
        "eyeRotateVecLeft": {
          "x": 2.0
        },
        "eyeRotateVecRight": {
          "x": 2.0
        },
        "turnTime": 0.20000000298023224,
        "targetNpcAlias": "",
        "targetPoint": "Face"
      },
      {
        "$type": "EMEHNEMOMMM",
        "type": "LOOK_AT_EYECTRL",
        "delayTime": 2.249000072479248,
        "aliasList": [
          "AvatarNpc"
        ],
        "actionId": 150,
        "useTargetPos": false,
        "eyeRotateVecRight": {
          "x": 2.0
        },
        "turnTime": 0.20000000298023224,
        "targetNpcAlias": "",
        "targetPoint": "Face"
      }
    ],
    [
      {
        "$type": "FJKIHHKJLMJ",
        "type": "CAMERA_MOVE",
        "duration": 0.5,
        "actionId": 156,
        "camPosOffset": {
          "x": -728.1959838867188,
          "y": 226.6540069580078,
          "z": 2242.5849609375
        },
        "camForwardTargetOffset": {
          "x": -727.9730224609375,
          "y": 226.50799560546875,
          "z": 2241.62109375
        },
        "camFov": 30.0,
        "lerpPattern": 6,
        "cameraBlendType": "EaseInOutCubic",
        "NJBNNOMLKCK": {},
        "needZAxisRotate": true,
        "openCameraDither": false,
        "targetNpcAlias": "",
        "closeTreeLeafDither": true,
        "KJOEFBPOIIH": "",
        "IICFKKEBIEC": "",
        "EGEHEJEBLBJ": ""
      },
      {
        "$type": "EMEHNEMOMMM",
        "type": "LOOK_AT_EYECTRL",
        "aliasList": [
          "AvatarNpc"
        ],
        "actionId": 152,
        "useTargetPos": false,
        "turnTime": 0.20000000298023224,
        "targetNpcAlias": "",
        "targetPoint": "Face"
      },
      {
        "$type": "FABLGECDBCH",
        "type": "BODY_LANG",
        "aliasList": [
          "AvatarNpc"
        ],
        "actionId": 154,
        "isContinue": true,
        "forceDoFreeStyle": true,
        "canDoRepeatFreeStyle": false,
        "cantBackToIdleWhenSitLoop": true,
        "eventPatternSuiteKey": "",
        "FOHHKFAIAAJ": ""
      },
      {
        "$type": "CPJKOIHIPBE",
        "type": "EMO_SYNC",
        "aliasList": [
          "AvatarNpc"
        ],
        "actionId": 157,
        "dataPath": "",
        "phonemePath": "Cs_Emo_Avatar_Common/Cs_Emo_Avatar_Normal01",
        "emotionPath": "Cs_Emo_Avatar_Common/Cs_Emo_Avatar_Normal01_B",
        "mateDataPath": "",
        "matePhonemePath": "",
        "mateEmotionPath": "",
        "phonemePathHashList": [
          9445916536337636767,
          14128686126614747219,
          10779105391569104182,
          11659242061757756269
        ],
        "emotionPathHashList": [
          12958401574658666588,
          15474241282904027449,
          9323653209111416134,
          8508374650737503979
        ],
        "FMDPBECPELH": "",
        "ADKBLPOKGIK": ""
      },
      {
        "$type": "LJLMDHDCAMK",
        "type": "LOOK_AT",
        "aliasList": [
          "AvatarNpc"
        ],
        "actionId": 159,
        "headTurnTime": 0.5,
        "targetNpcAlias": "",
        "openBackProtect": true,
        "targetNpcLookAtPoint": "",
        "OAFJBHJHLJG": ""
      },
      {
        "$type": "PKKMAMONGEO",
        "type": "DIALOG",
        "aliasList": [
          "13072"
        ],
        "actionId": 109,
        "dialogID": 80101502,
        "protectTime": 2.5
      },
      {
        "$type": "CPJKOIHIPBE",
        "type": "EMO_SYNC",
        "aliasList": [
          "13072"
        ],
        "actionId": 135,
        "dataPath": "Cs_Emo_Avatar_Simple_Common_Set/Cs_Emo_Avatar_Talk/Cs_Emo_Avatar_MainLine/Cs_Emo_Avatar_Twins03/Cs_Emo_80101502",
        "phonemePath": "",
        "emotionPath": "",
        "mateDataPath": "",
        "matePhonemePath": "",
        "mateEmotionPath": "",
        "dataPathHashList": [
          16323645397041193315,
          921321805974263245,
          10420137160979217788,
          4965754821157404777
        ],
        "FMDPBECPELH": "",
        "ADKBLPOKGIK": ""
      },
      {
        "$type": "FJKIHHKJLMJ",
        "type": "CAMERA_MOVE",
        "delayTime": 0.10000000149011612,
        "duration": 8.0,
        "actionId": 151,
        "camPosOffset": {
          "x": -728.1859741210938,
          "y": 226.75599670410156,
          "z": 2242.572021484375
        },
        "camForwardTargetOffset": {
          "x": -727.9630126953125,
          "y": 226.61000061035156,
          "z": 2241.60791015625
        },
        "camFov": 30.0,
        "cameraBlendType": "EaseOutQuad",
        "NJBNNOMLKCK": {},
        "needZAxisRotate": true,
        "openCameraDither": false,
        "targetNpcAlias": "",
        "closeTreeLeafDither": true,
        "KJOEFBPOIIH": "",
        "IICFKKEBIEC": "",
        "EGEHEJEBLBJ": ""
      },
      {
        "$type": "LJLMDHDCAMK",
        "type": "LOOK_AT",
        "delayTime": 1.2050000429153442,
        "aliasList": [
          "AvatarNpc"
        ],
        "actionId": 153,
        "enableHead": true,
        "headTurnTime": 0.5,
        "targetNpcAlias": "13072",
        "openBackProtect": true,
        "targetNpcLookAtPoint": "",
        "OAFJBHJHLJG": ""
      },
      {
        "$type": "LLGANGLOEEO",
        "type": "STEER_TO",
        "delayTime": 1.3949999809265137,
        "duration": 1.0,
        "aliasList": [
          "AvatarNpc"
        ],
        "actionId": 155,
        "steerType": "ABSOLUTE",
        "steerDir": {
          "x": -727.9910278320312,
          "y": 225.0800018310547,
          "z": 2240.85205078125
        },
        "useSteerAnim": true,
        "interruptFreestyle": true,
        "forceSteer": true,
        "targetNpcAlias": "",
        "ignoreY": true,
        "fixInterNull": true,
        "OAFJBHJHLJG": ""
      },
      {
        "$type": "FABLGECDBCH",
        "type": "BODY_LANG",
        "delayTime": 1.6959999799728394,
        "aliasList": [
          "13072"
        ],
        "actionId": 158,
        "bodyLangParam": 1171,
        "forceDoFreeStyle": true,
        "canDoRepeatFreeStyle": false,
        "cantBackToIdleWhenSitLoop": true,
        "eventPatternSuiteKey": "",
        "FOHHKFAIAAJ": ""
      }
    ],
    [
      {
        "$type": "FJKIHHKJLMJ",
        "type": "CAMERA_MOVE",
        "duration": 0.5,
        "actionId": 164,
        "camPosOffset": {
          "x": -728.5809936523438,
          "y": 226.51100158691406,
          "z": 2239.131103515625
        },
        "camForwardTargetOffset": {
          "x": -728.0079956054688,
          "y": 226.5500030517578,
          "z": 2239.949951171875
        },
        "camFov": 25.0,
        "lerpPattern": 6,
        "cameraBlendType": "EaseInOutCubic",
        "NJBNNOMLKCK": {},
        "needZAxisRotate": true,
        "openCameraDither": false,
        "targetNpcAlias": "",
        "closeTreeLeafDither": true,
        "KJOEFBPOIIH": "",
        "IICFKKEBIEC": "",
        "EGEHEJEBLBJ": ""
      },
      {
        "$type": "PKKMAMONGEO",
        "type": "DIALOG",
        "aliasList": [
          "13072"
        ],
        "actionId": 111,
        "dialogID": 80101503,
        "protectTime": 0.5
      },
      {
        "$type": "CPJKOIHIPBE",
        "type": "EMO_SYNC",
        "aliasList": [
          "13072"
        ],
        "actionId": 136,
        "dataPath": "Cs_Emo_Avatar_Simple_Common_Set/Cs_Emo_Avatar_Talk/Cs_Emo_Avatar_MainLine/Cs_Emo_Avatar_Twins03/Cs_Emo_80101503",
        "phonemePath": "",
        "emotionPath": "",
        "mateDataPath": "",
        "matePhonemePath": "",
        "mateEmotionPath": "",
        "dataPathHashList": [
          6244540620330260109,
          9495488090792642814,
          1198048085461427686,
          289798609117154244
        ],
        "FMDPBECPELH": "",
        "ADKBLPOKGIK": ""
      },
      {
        "$type": "FABLGECDBCH",
        "type": "BODY_LANG",
        "aliasList": [
          "13072"
        ],
        "actionId": 161,
        "isContinue": true,
        "forceDoFreeStyle": true,
        "canDoRepeatFreeStyle": false,
        "cantBackToIdleWhenSitLoop": true,
        "eventPatternSuiteKey": "",
        "FOHHKFAIAAJ": ""
      },
      {
        "$type": "FJKIHHKJLMJ",
        "type": "CAMERA_MOVE",
        "delayTime": 0.10000000149011612,
        "duration": 10.0,
        "actionId": 160,
        "camPosOffset": {
          "x": -728.6270141601562,
          "y": 226.50799560546875,
          "z": 2239.1630859375
        },
        "camForwardTargetOffset": {
          "x": -728.0540161132812,
          "y": 226.5469970703125,
          "z": 2239.98193359375
        },
        "camFov": 25.0,
        "cameraBlendType": "EaseOutQuad",
        "NJBNNOMLKCK": {},
        "needZAxisRotate": true,
        "openCameraDither": false,
        "targetNpcAlias": "",
        "closeTreeLeafDither": true,
        "KJOEFBPOIIH": "",
        "IICFKKEBIEC": "",
        "EGEHEJEBLBJ": ""
      },
      {
        "$type": "FABLGECDBCH",
        "type": "BODY_LANG",
        "delayTime": 0.8420000076293945,
        "aliasList": [
          "13072"
        ],
        "actionId": 163,
        "bodyLangParam": 1173,
        "forceDoFreeStyle": true,
        "canDoRepeatFreeStyle": false,
        "cantBackToIdleWhenSitLoop": true,
        "eventPatternSuiteKey": "",
        "FOHHKFAIAAJ": ""
      },
      {
        "$type": "FABLGECDBCH",
        "type": "BODY_LANG",
        "delayTime": 4.544000148773193,
        "aliasList": [
          "13072"
        ],
        "actionId": 162,
        "bodyLangParam": 1130,
        "forceDoFreeStyle": true,
        "canDoRepeatFreeStyle": false,
        "cantBackToIdleWhenSitLoop": true,
        "eventPatternSuiteKey": "",
        "FOHHKFAIAAJ": ""
      },
      {
        "$type": "FABLGECDBCH",
        "type": "BODY_LANG",
        "delayTime": 6.830999851226807,
        "aliasList": [
          "AvatarNpc"
        ],
        "actionId": 186,
        "bodyLangParam": 4030,
        "forceDoFreeStyle": true,
        "canDoRepeatFreeStyle": false,
        "cantBackToIdleWhenSitLoop": true,
        "eventPatternSuiteKey": "",
        "FOHHKFAIAAJ": ""
      }
    ],
    [
      {
        "$type": "MoleMole.Config.ConfigSimpleBlackScreenAction",
        "type": "SIMPLE_BLACK_SCREEN",
        "actionId": 113,
        "durationToBlack": 0.5,
        "durationKeepBlack": 4.0,
        "durationFromBlack": 0.5,
        "textMapID": "",
        "useTextFade": true,
        "_dialogID": 80101504
      },
      {
        "$type": "PKKMAMONGEO",
        "type": "DIALOG_CLEAR",
        "actionId": 114
      },
      {
        "$type": "MoleMole.Config.ConfigTimeProtectAction",
        "type": "TIME_PROTECT",
        "duration": 5.0,
        "actionId": 126
      },
      {
        "$type": "MoleMole.Config.ConfigAudioPlayAction",
        "type": "AUDIO_PLAY",
        "actionId": 221,
        "audioEventStr": "Play_sfx_quest_Twins3_8010_PlantDraw_Elf_grass"
      },
      {
        "$type": "FABLGECDBCH",
        "type": "BODY_LANG",
        "aliasList": [
          "AvatarNpc"
        ],
        "actionId": 187,
        "isContinue": true,
        "forceDoFreeStyle": true,
        "canDoRepeatFreeStyle": false,
        "cantBackToIdleWhenSitLoop": true,
        "eventPatternSuiteKey": "",
        "FOHHKFAIAAJ": ""
      },
      {
        "$type": "FABLGECDBCH",
        "type": "BODY_LANG",
        "aliasList": [
          "13072"
        ],
        "actionId": 165,
        "isContinue": true,
        "forceDoFreeStyle": true,
        "canDoRepeatFreeStyle": false,
        "cantBackToIdleWhenSitLoop": true,
        "eventPatternSuiteKey": "",
        "FOHHKFAIAAJ": ""
      },
      {
        "$type": "MoleMole.Config.ConfigLocalGadgetOP",
        "type": "LOCAL_GADGET_OP",
        "delayTime": 0.6000000238418579,
        "actionId": 127,
        "gadgetId": 70710959,
        "subKey": 1,
        "oprCode": 1,
        "questMainId": 8010,
        "slotName": "",
        "sceneId": 20180,
        "position": {
          "x": -720.635986328125,
          "y": 225.1580047607422,
          "z": 2246.179931640625
        },
        "euler": {
          "y": 306.1180114746094
        },
        "gvKey": ""
      },
      {
        "$type": "MoleMole.Config.ConfigLocalGadgetOP",
        "type": "LOCAL_GADGET_OP",
        "delayTime": 0.8999999761581421,
        "actionId": 129,
        "gadgetId": 70710959,
        "subKey": 2,
        "oprCode": 1,
        "questMainId": 8010,
        "slotName": "",
        "sceneId": 20180,
        "position": {
          "x": -718.1950073242188,
          "y": 225.1580047607422,
          "z": 2243.382080078125
        },
        "gvKey": ""
      },
      {
        "$type": "MoleMole.Config.ConfigTeleportToAction",
        "type": "TELEPORT_TO",
        "delayTime": 1.1640000343322754,
        "aliasList": [
          "13072"
        ],
        "actionId": 167,
        "position": {
          "x": -719.2160034179688,
          "y": 225.06900024414062,
          "z": 2242.514892578125
        },
        "forward": {
          "x": -0.09700000286102295,
          "z": 0.5690000057220459
        },
        "openLongDisTeleport": true,
        "_posBindMovingTargetKey": "",
        "_forwardBindMovingTargetKey": ""
      },
      {
        "$type": "MoleMole.Config.ConfigTeleportToAction",
        "type": "TELEPORT_TO",
        "delayTime": 1.2699999809265137,
        "aliasList": [
          "Avatar"
        ],
        "actionId": 239,
        "position": {
          "x": -718.8569946289062,
          "y": 225.06300354003906,
          "z": 2240.8330078125
        },
        "forward": {
          "x": -0.375,
          "z": 0.9269999861717224
        },
        "openLongDisTeleport": true,
        "_posBindMovingTargetKey": "",
        "_forwardBindMovingTargetKey": ""
      },
      {
        "$type": "MoleMole.Config.ConfigTeleportToAction",
        "type": "TELEPORT_TO",
        "delayTime": 1.2699999809265137,
        "aliasList": [
          "AvatarNpc"
        ],
        "actionId": 168,
        "position": {
          "x": -718.8569946289062,
          "y": 225.06300354003906,
          "z": 2240.8330078125
        },
        "forward": {
          "x": -0.375,
          "z": 0.9269999861717224
        },
        "openLongDisTeleport": true,
        "_posBindMovingTargetKey": "",
        "_forwardBindMovingTargetKey": ""
      },
      {
        "$type": "LJLMDHDCAMK",
        "type": "LOOK_AT",
        "delayTime": 1.2910000085830688,
        "aliasList": [
          "13072"
        ],
        "actionId": 170,
        "enableHead": true,
        "useTargetPos": true,
        "enableAbsolute": true,
        "targetPosition": {
          "x": -717.5679931640625,
          "y": 226.1269989013672,
          "z": 2244.2529296875
        },
        "headTurnTime": 0.5,
        "targetNpcAlias": "AvatarNpc",
        "lookAtTargetType": "NONE",
        "openBackProtect": true,
        "targetNpcLookAtPoint": "",
        "OAFJBHJHLJG": ""
      },
      {
        "$type": "LJLMDHDCAMK",
        "type": "LOOK_AT",
        "delayTime": 1.3209999799728394,
        "aliasList": [
          "AvatarNpc"
        ],
        "actionId": 169,
        "enableHead": true,
        "headTurnTime": 0.5,
        "targetNpcAlias": "13072",
        "openBackProtect": true,
        "targetNpcLookAtPoint": "",
        "OAFJBHJHLJG": ""
      },
      {
        "$type": "FJKIHHKJLMJ",
        "type": "CAMERA_MOVE",
        "delayTime": 1.7740000486373901,
        "duration": 0.5,
        "actionId": 181,
        "camPosOffset": {
          "x": -717.7440185546875,
          "y": 227.5570068359375,
          "z": 2252.2119140625
        },
        "camForwardTargetOffset": {
          "x": -718.0070190429688,
          "y": 227.36099243164062,
          "z": 2251.26708984375
        },
        "camFov": 30.0,
        "lerpPattern": 6,
        "cameraBlendType": "EaseInOutCubic",
        "NJBNNOMLKCK": {},
        "needZAxisRotate": true,
        "openCameraDither": false,
        "targetNpcAlias": "",
        "closeTreeLeafDither": true,
        "KJOEFBPOIIH": "",
        "IICFKKEBIEC": "",
        "EGEHEJEBLBJ": ""
      }
    ],
    [
      {
        "$type": "FJKIHHKJLMJ",
        "type": "CAMERA_MOVE",
        "duration": 0.5,
        "actionId": 171,
        "camPosOffset": {
          "x": -717.7440185546875,
          "y": 227.5570068359375,
          "z": 2252.2119140625
        },
        "camForwardTargetOffset": {
          "x": -718.0070190429688,
          "y": 227.36099243164062,
          "z": 2251.26708984375
        },
        "camFov": 30.0,
        "lerpPattern": 6,
        "cameraBlendType": "EaseInOutCubic",
        "NJBNNOMLKCK": {},
        "needZAxisRotate": true,
        "openCameraDither": false,
        "targetNpcAlias": "",
        "closeTreeLeafDither": true,
        "KJOEFBPOIIH": "",
        "IICFKKEBIEC": "",
        "EGEHEJEBLBJ": ""
      },
      {
        "$type": "PKKMAMONGEO",
        "type": "DIALOG",
        "aliasList": [
          "13072"
        ],
        "actionId": 116,
        "dialogID": 80101505,
        "protectTime": 4.5
      },
      {
        "$type": "CPJKOIHIPBE",
        "type": "EMO_SYNC",
        "aliasList": [
          "13072"
        ],
        "actionId": 137,
        "dataPath": "Cs_Emo_Avatar_Simple_Common_Set/Cs_Emo_Avatar_Talk/Cs_Emo_Avatar_MainLine/Cs_Emo_Avatar_Twins03/Cs_Emo_80101505",
        "phonemePath": "",
        "emotionPath": "",
        "mateDataPath": "",
        "matePhonemePath": "",
        "mateEmotionPath": "",
        "dataPathHashList": [
          13766389109579850918,
          17733499508476346944,
          8006013593434788230,
          7359306914739431977
        ],
        "FMDPBECPELH": "",
        "ADKBLPOKGIK": ""
      },
      {
        "$type": "LJLMDHDCAMK",
        "type": "LOOK_AT",
        "aliasList": [
          "13072"
        ],
        "actionId": 175,
        "enableHead": true,
        "useTargetPos": true,
        "enableAbsolute": true,
        "targetPosition": {
          "x": -718.3939819335938,
          "y": 226.35800170898438,
          "z": 2243.751953125
        },
        "headTurnTime": 0.5,
        "targetNpcAlias": "AvatarNpc",
        "lookAtTargetType": "NONE",
        "openBackProtect": true,
        "targetNpcLookAtPoint": "",
        "OAFJBHJHLJG": ""
      },
      {
        "$type": "EMEHNEMOMMM",
        "type": "LOOK_AT_EYECTRL",
        "aliasList": [
          "13072"
        ],
        "actionId": 182,
        "useTargetPos": false,
        "eyeRotateVecLeft": {
          "x": -2.0,
          "z": 2.0
        },
        "eyeRotateVecRight": {
          "x": -2.0,
          "z": 2.0
        },
        "turnTime": 0.20000000298023224,
        "targetNpcAlias": "",
        "targetPoint": "Face"
      },
      {
        "$type": "FJKIHHKJLMJ",
        "type": "CAMERA_MOVE",
        "delayTime": 0.10000000149011612,
        "duration": 4.0,
        "actionId": 166,
        "camPosOffset": {
          "x": -717.7260131835938,
          "y": 227.27499389648438,
          "z": 2252.264892578125
        },
        "camForwardTargetOffset": {
          "x": -717.989013671875,
          "y": 227.07899475097656,
          "z": 2251.320068359375
        },
        "camFov": 30.0,
        "cameraBlendType": "Linear",
        "NJBNNOMLKCK": {},
        "needZAxisRotate": true,
        "openCameraDither": false,
        "targetNpcAlias": "",
        "closeTreeLeafDither": true,
        "KJOEFBPOIIH": "",
        "IICFKKEBIEC": "",
        "EGEHEJEBLBJ": ""
      },
      {
        "$type": "LJLMDHDCAMK",
        "type": "LOOK_AT",
        "delayTime": 1.378999948501587,
        "aliasList": [
          "13072"
        ],
        "actionId": 216,
        "enableHead": true,
        "useTargetPos": true,
        "enableAbsolute": true,
        "targetPosition": {
          "x": -719.9949951171875,
          "y": 226.29800415039062,
          "z": 2245.712890625
        },
        "headTurnTime": 0.5,
        "targetNpcAlias": "",
        "lookAtTargetType": "NONE",
        "openBackProtect": true,
        "targetNpcLookAtPoint": "",
        "OAFJBHJHLJG": ""
      },
      {
        "$type": "EMEHNEMOMMM",
        "type": "LOOK_AT_EYECTRL",
        "delayTime": 3.309999942779541,
        "aliasList": [
          "13072"
        ],
        "actionId": 183,
        "useTargetPos": false,
        "turnTime": 0.20000000298023224,
        "targetNpcAlias": "",
        "targetPoint": "Face"
      },
      {
        "$type": "LJLMDHDCAMK",
        "type": "LOOK_AT",
        "delayTime": 3.4030001163482666,
        "aliasList": [
          "13072"
        ],
        "actionId": 178,
        "enableHead": true,
        "headTurnTime": 0.5,
        "targetNpcAlias": "AvatarNpc",
        "openBackProtect": true,
        "targetNpcLookAtPoint": "",
        "OAFJBHJHLJG": ""
      },
      {
        "$type": "LLGANGLOEEO",
        "type": "STEER_TO",
        "delayTime": 3.484999895095825,
        "duration": 1.0,
        "aliasList": [
          "13072"
        ],
        "actionId": 199,
        "steerType": "ABSOLUTE",
        "steerDir": {
          "x": -718.385986328125,
          "y": 225.06900024414062,
          "z": 2241.9580078125
        },
        "useSteerAnim": true,
        "interruptFreestyle": true,
        "forceSteer": true,
        "targetNpcAlias": "",
        "ignoreY": true,
        "fixInterNull": true,
        "OAFJBHJHLJG": ""
      },
      {
        "$type": "FJKIHHKJLMJ",
        "type": "CAMERA_MOVE",
        "delayTime": 4.099999904632568,
        "duration": 0.5,
        "actionId": 177,
        "camPosOffset": {
          "x": -718.0380249023438,
          "y": 226.3939971923828,
          "z": 2239.802978515625
        },
        "camForwardTargetOffset": {
          "x": -718.5590209960938,
          "y": 226.38499450683594,
          "z": 2240.656005859375
        },
        "camFov": 30.0,
        "lerpPattern": 6,
        "cameraBlendType": "EaseInOutCubic",
        "NJBNNOMLKCK": {},
        "needZAxisRotate": true,
        "openCameraDither": false,
        "targetNpcAlias": "",
        "closeTreeLeafDither": true,
        "KJOEFBPOIIH": "",
        "IICFKKEBIEC": "",
        "EGEHEJEBLBJ": ""
      },
      {
        "$type": "FJKIHHKJLMJ",
        "type": "CAMERA_MOVE",
        "delayTime": 4.199999809265137,
        "duration": 6.0,
        "actionId": 176,
        "camPosOffset": {
          "x": -717.8920288085938,
          "y": 226.40199279785156,
          "z": 2239.89990234375
        },
        "camForwardTargetOffset": {
          "x": -718.468994140625,
          "y": 226.38999938964844,
          "z": 2240.717041015625
        },
        "camFov": 30.0,
        "cameraBlendType": "EaseOutQuad",
        "NJBNNOMLKCK": {},
        "needZAxisRotate": true,
        "openCameraDither": false,
        "targetNpcAlias": "",
        "closeTreeLeafDither": true,
        "KJOEFBPOIIH": "",
        "IICFKKEBIEC": "",
        "EGEHEJEBLBJ": ""
      },
      {
        "$type": "FABLGECDBCH",
        "type": "BODY_LANG",
        "delayTime": 4.754000186920166,
        "aliasList": [
          "13072"
        ],
        "actionId": 180,
        "bodyLangParam": 1172,
        "forceDoFreeStyle": true,
        "canDoRepeatFreeStyle": false,
        "cantBackToIdleWhenSitLoop": true,
        "eventPatternSuiteKey": "",
        "FOHHKFAIAAJ": ""
      },
      {
        "$type": "MoleMole.Config.ConfigTeleportToAction",
        "type": "TELEPORT_TO",
        "delayTime": 4.806000232696533,
        "aliasList": [
          "13072"
        ],
        "actionId": 195,
        "position": {
          "x": -719.2160034179688,
          "y": 225.06900024414062,
          "z": 2242.514892578125
        },
        "forward": {
          "x": 0.8299999833106995,
          "z": -0.5569999814033508
        },
        "openLongDisTeleport": true,
        "_posBindMovingTargetKey": "",
        "_forwardBindMovingTargetKey": ""
      }
    ],
    [
      {
        "$type": "MoleMole.Config.ConfigTimeProtectAction",
        "type": "TIME_PROTECT",
        "duration": 0.10000000149011612,
        "actionId": 105
      },
      {
        "$type": "MoleMole.Config.ConfigSimpleBlackScreenAction",
        "type": "SIMPLE_BLACK_SCREEN",
        "actionId": 117,
        "durationToBlack": 0.5,
        "durationKeepBlack": 1.5,
        "durationFromBlack": 0.5,
        "textMapID": ""
      },
      {
        "$type": "MoleMole.Config.ConfigTimeProtectAction",
        "type": "TIME_PROTECT",
        "duration": 1.5,
        "actionId": 118
      },
      {
        "$type": "MoleMole.Config.ConfigLocalGadgetOP",
        "type": "LOCAL_GADGET_OP",
        "delayTime": 0.6000000238418579,
        "actionId": 132,
        "gadgetId": 70710959,
        "subKey": 2,
        "oprCode": 2,
        "questMainId": 8010,
        "slotName": "",
        "sceneId": 20180,
        "position": {
          "x": -720.635986328125,
          "y": 225.1580047607422,
          "z": 2246.179931640625
        },
        "euler": {
          "y": 306.1180114746094
        },
        "gvKey": ""
      },
      {
        "$type": "MoleMole.Config.ConfigVisibleInterAction",
        "type": "VISIBLE",
        "delayTime": 0.6000000238418579,
        "aliasList": [
          "Avatar"
        ],
        "actionId": 123,
        "isVisible": true,
        "_extraParam": ""
      },
      {
        "$type": "MoleMole.Config.ConfigVisibleInterAction",
        "type": "VISIBLE",
        "delayTime": 0.6000000238418579,
        "aliasList": [
          "AvatarNpc"
        ],
        "actionId": 125,
        "_extraParam": ""
      },
      {
        "$type": "MoleMole.Config.ConfigTeleportToAction",
        "type": "TELEPORT_TO",
        "delayTime": 0.6000000238418579,
        "aliasList": [
          "13072"
        ],
        "actionId": 207,
        "position": {
          "x": -717.4970092773438,
          "y": 225.18600463867188,
          "z": 2236.947998046875
        },
        "forward": {
          "x": -1.8819999694824219,
          "z": 1.5019999742507935
        },
        "openLongDisTeleport": true,
        "_posBindMovingTargetKey": "",
        "_forwardBindMovingTargetKey": ""
      },
      {
        "$type": "MoleMole.Config.ConfigLocalGadgetOP",
        "type": "LOCAL_GADGET_OP",
        "delayTime": 0.800000011920929,
        "actionId": 131,
        "gadgetId": 70710959,
        "subKey": 1,
        "oprCode": 2,
        "questMainId": 8010,
        "slotName": "",
        "sceneId": 20180,
        "position": {
          "x": -718.1950073242188,
          "y": 225.1580047607422,
          "z": 2243.382080078125
        },
        "gvKey": ""
      },
      {
        "$type": "FABLGECDBCH",
        "type": "BODY_LANG",
        "delayTime": 0.800000011920929,
        "aliasList": [
          "13072"
        ],
        "actionId": 192,
        "bodyLangParam": 1190,
        "forceDoFreeStyle": true,
        "canDoRepeatFreeStyle": false,
        "cantBackToIdleWhenSitLoop": true,
        "eventPatternSuiteKey": "",
        "FOHHKFAIAAJ": ""
      }
    ]
  ],
  "groupId": [
    {
      "grpId": 3841964262,
      "nextGrpId": 3841964263
    },
    {
      "index": 1,
      "grpId": 3841964263,
      "nextGrpId": 3841964264
    },
    {
      "index": 2,
      "grpId": 3841964264,
      "nextGrpId": 3841964265
    },
    {
      "index": 3,
      "grpId": 3841964265,
      "nextGrpId": 3841964266
    },
    {
      "index": 4,
      "grpId": 3841964266,
      "nextGrpId": 3841964267
    },
    {
      "index": 5,
      "grpId": 3841964267,
      "nextGrpId": 3841964268
    },
    {
      "index": 6,
      "grpId": 3841964268,
      "nextGrpId": 3841964269
    }
  ],
  "freeStyleDic": {
    "1025": [
      1080,
      4030
    ],
    "1026": [
      1080,
      4030
    ],
    "13072": [
      1171,
      1130,
      1173,
      1172,
      1190
    ]
  }
}