{
  "luaDataPath": "",
  "entityBan": "",
  "group": [
    [
      {
        "$type": "FABLGECDBCH",
        "type": "BODY_LANG",
        "delayTime": 1.0,
        "bodyLangParam": 1160,
        "eventPatternSuiteKey": "",
        "FOHHKFAIAAJ": ""
      },
      {
        "$type": "LLGANGLOEEO",
        "type": "STEER_TO",
        "duration": 1.0,
        "steerType": "TO_LOCAL_AVATAR_ADVANCED",
        "useSteerAnim": true,
        "targetNpcAlias": "",
        "OAFJBHJHLJG": ""
      },
      {
        "$type": "FJKIHHKJLMJ",
        "type": "CAMERA_FOCUS",
        "duration": 1.0,
        "cameraPosType": "RELATIVE_TO_INTER",
        "camPosOffset": {
          "y": 0.5
        },
        "nearLength": 2.0,
        "camTargetType": "TO_INTEE",
        "camForwardTargetOffset": {
          "y": 0.5
        },
        "lerpRatio": 5.0,
        "lerpPattern": 6,
        "targetNpcAlias": "",
        "KJOEFBPOIIH": "",
        "IICFKKEBIEC": "",
        "EGEHEJEBLBJ": ""
      }
    ]
  ]
}