{
  "luaDataPath": "",
  "entityBan": "",
  "group": [
    [
      {
        "$type": "FABLGECDBCH",
        "type": "BODY_LANG",
        "bodyLangParam": 1171,
        "randomParamList": [
          1171,
          1172,
          1173
        ],
        "eventPatternSuiteKey": "",
        "FOHHKFAIAAJ": ""
      }
    ]
  ]
}