{
  "luaDataPath": "",
  "startBlackKeepTime": 0.5,
  "entityBan": "",
  "disableNpcLod": true,
  "isAutoBanNpc": true,
  "isBanWidgetPet": true,
  "protectNpcMobileLod": true,
  "startFade": {
    "startFadeInDuration": 0.5,
    "startFadeOutDuration": 0.5
  },
  "endFade": {
    "startFadeOutDuration": 0.0
  },
  "actors": [
    {
      "alias": "Avatar",
      "visible": true,
      "bornPointName": "DUMMY_POS 330300167",
      "relativePosType": "AVATAR_NEW",
      "relativePosNpcAlias": "",
      "_bindMovingTargetKey": ""
    },
    {
      "configID": 1005,
      "alias": "1005",
      "visible": true,
      "bornPointName": "",
      "useRelativePos": true,
      "relativePos": {
        "x": 0.5,
        "z": 0.5
      },
      "removeActorType": "REMOVE_WITH_DISAPPEAR",
      "relativePosType": "AVATAR_NEW",
      "relativePosNpcAlias": "",
      "_bindMovingTargetKey": ""
    },
    {
      "configID": 20646,
      "alias": "20646",
      "visible": true,
      "bornPointName": "",
      "relativePosType": "AVATAR_NEW",
      "relativePosNpcAlias": "",
      "_bindMovingTargetKey": ""
    }
  ],
  "group": [
    [
      {
        "$type": "MoleMole.Config.ConfigTimeProtectAction",
        "type": "TIME_PROTECT",
        "duration": 0.10000000149011612
      }
    ],
    [
      {
        "$type": "PKKMAMONGEO",
        "type": "DIALOG",
        "aliasList": [
          "1005"
        ],
        "dialogID": 730702001,
        "protectTime": 0.5
      }
    ],
    [
      {
        "$type": "PKKMAMONGEO",
        "type": "DIALOG",
        "aliasList": [
          "20646"
        ],
        "dialogID": 730702002,
        "protectTime": 0.5
      }
    ],
    [
      {
        "$type": "PKKMAMONGEO",
        "type": "DIALOG",
        "aliasList": [
          "1005"
        ],
        "dialogID": 730702003,
        "protectTime": 0.5
      }
    ],
    [
      {
        "$type": "PKKMAMONGEO",
        "type": "DIALOG",
        "aliasList": [
          "20646"
        ],
        "dialogID": 730702004,
        "protectTime": 0.5
      },
      {
        "$type": "HDGKHDNFMIM",
        "type": "DIALOG_SELECT",
        "delayTime": 0.4000000059604645,
        "aliasList": [
          "Avatar"
        ],
        "dialogIDList": [
          730702005,
          730702006
        ],
        "grpIDList": [
          918794568,
          918794568
        ],
        "useGrpId": true
      }
    ],
    [
      {
        "$type": "PKKMAMONGEO",
        "type": "DIALOG",
        "aliasList": [
          "20646"
        ],
        "dialogID": 730702007,
        "protectTime": 0.5
      }
    ],
    [
      {
        "$type": "PKKMAMONGEO",
        "type": "DIALOG",
        "aliasList": [
          "1005"
        ],
        "dialogID": 730702008,
        "protectTime": 0.5
      }
    ],
    [
      {
        "$type": "PKKMAMONGEO",
        "type": "DIALOG",
        "aliasList": [
          "1005"
        ],
        "dialogID": 730702009,
        "protectTime": 0.5
      }
    ],
    [
      {
        "$type": "PKKMAMONGEO",
        "type": "DIALOG",
        "aliasList": [
          "20646"
        ],
        "dialogID": 730702010,
        "protectTime": 0.5
      }
    ],
    [
      {
        "$type": "PKKMAMONGEO",
        "type": "DIALOG",
        "aliasList": [
          "20646"
        ],
        "dialogID": 730702011,
        "protectTime": 0.5
      }
    ],
    [
      {
        "$type": "PKKMAMONGEO",
        "type": "DIALOG",
        "aliasList": [
          "20646"
        ],
        "dialogID": 730702012,
        "protectTime": 0.5
      },
      {
        "$type": "HDGKHDNFMIM",
        "type": "DIALOG_SELECT",
        "delayTime": 0.4000000059604645,
        "aliasList": [
          "Avatar"
        ],
        "dialogIDList": [
          730702013,
          730702014
        ],
        "grpIDList": [
          2712827727,
          2712827727
        ],
        "useGrpId": true
      }
    ],
    [
      {
        "$type": "PKKMAMONGEO",
        "type": "DIALOG",
        "aliasList": [
          "20646"
        ],
        "dialogID": 730702015,
        "protectTime": 0.5
      }
    ],
    [
      {
        "$type": "PKKMAMONGEO",
        "type": "DIALOG",
        "aliasList": [
          "1005"
        ],
        "dialogID": 730702016,
        "protectTime": 0.5
      }
    ],
    [
      {
        "$type": "PKKMAMONGEO",
        "type": "DIALOG",
        "aliasList": [
          "20646"
        ],
        "dialogID": 730702017,
        "protectTime": 0.5
      }
    ],
    [
      {
        "$type": "PKKMAMONGEO",
        "type": "DIALOG",
        "aliasList": [
          "20646"
        ],
        "dialogID": 730702018,
        "protectTime": 0.5
      }
    ],
    [
      {
        "$type": "PKKMAMONGEO",
        "type": "DIALOG",
        "aliasList": [
          "20646"
        ],
        "dialogID": 730702019,
        "protectTime": 0.5
      }
    ],
    [
      {
        "$type": "PKKMAMONGEO",
        "type": "DIALOG",
        "aliasList": [
          "1005"
        ],
        "dialogID": 730702020,
        "protectTime": 0.5
      }
    ],
    [
      {
        "$type": "PKKMAMONGEO",
        "type": "DIALOG",
        "aliasList": [
          "20646"
        ],
        "dialogID": 730702021,
        "protectTime": 0.5
      }
    ],
    [
      {
        "$type": "PKKMAMONGEO",
        "type": "DIALOG",
        "aliasList": [
          "1005"
        ],
        "dialogID": 730702022,
        "protectTime": 0.5
      }
    ],
    [
      {
        "$type": "PKKMAMONGEO",
        "type": "DIALOG",
        "aliasList": [
          "20646"
        ],
        "dialogID": 730702023,
        "protectTime": 0.5
      }
    ],
    [
      {
        "$type": "MoleMole.Config.ConfigTimeProtectAction",
        "type": "TIME_PROTECT",
        "duration": 0.10000000149011612
      },
      {
        "$type": "MoleMole.Config.ConfigSimpleBlackScreenAction",
        "type": "SIMPLE_BLACK_SCREEN",
        "durationToBlack": 0.5,
        "durationKeepBlack": 1.0,
        "durationFromBlack": 0.5,
        "textMapID": ""
      },
      {
        "$type": "MoleMole.Config.ConfigTimeProtectAction",
        "type": "TIME_PROTECT",
        "duration": 0.699999988079071
      }
    ]
  ],
  "groupId": [
    {
      "grpId": 918794563,
      "nextGrpId": 918794564
    },
    {
      "index": 1,
      "grpId": 918794564,
      "nextGrpId": 918794565
    },
    {
      "index": 2,
      "grpId": 918794565,
      "nextGrpId": 918794566
    },
    {
      "index": 3,
      "grpId": 918794566,
      "nextGrpId": 918794567
    },
    {
      "index": 4,
      "grpId": 918794567,
      "nextGrpId": 918794568
    },
    {
      "index": 5,
      "grpId": 918794568,
      "nextGrpId": 918794569
    },
    {
      "index": 6,
      "grpId": 918794569,
      "nextGrpId": 918794570
    },
    {
      "index": 7,
      "grpId": 918794570,
      "nextGrpId": 918794571
    },
    {
      "index": 8,
      "grpId": 918794571,
      "nextGrpId": 2712827725
    },
    {
      "index": 9,
      "grpId": 2712827725,
      "nextGrpId": 2712827726
    },
    {
      "index": 10,
      "grpId": 2712827726,
      "nextGrpId": 2712827727
    },
    {
      "index": 11,
      "grpId": 2712827727,
      "nextGrpId": 2712827728
    },
    {
      "index": 12,
      "grpId": 2712827728,
      "nextGrpId": 2712827729
    },
    {
      "index": 13,
      "grpId": 2712827729,
      "nextGrpId": 2712827730
    },
    {
      "index": 14,
      "grpId": 2712827730,
      "nextGrpId": 2712827731
    },
    {
      "index": 15,
      "grpId": 2712827731,
      "nextGrpId": 2712827732
    },
    {
      "index": 16,
      "grpId": 2712827732,
      "nextGrpId": 2712827733
    },
    {
      "index": 17,
      "grpId": 2712827733,
      "nextGrpId": 2712827734
    },
    {
      "index": 18,
      "grpId": 2712827734,
      "nextGrpId": 2712827756
    },
    {
      "index": 19,
      "grpId": 2712827756,
      "nextGrpId": 2712827757
    },
    {
      "index": 20,
      "grpId": 2712827757,
      "nextGrpId": 2712827758
    }
  ]
}