{
  "IGGNJJPLOIL": {
    "304": {
      "dynamicAnimeMap": {
        "Ani_Avatar_MultiOverrideBS": 7708554715898513429,
        "Ani_Avatar_MultiOverrideLoop": 7140830412099197867,
        "Ani_Avatar_MultiOverrideAS": 7906794927284506635
      }
    },
    "305": {
      "dynamicAnimeMap": {
        "Ani_Avatar_MultiOverrideBS": 12828006035645520717,
        "Ani_Avatar_MultiOverrideLoop": 9839917918035114093,
        "Ani_Avatar_MultiOverrideAS": 9110257904239191549
      }
    }
  }
}