{
  "logicStateMap": {
    "PlayLyre": {
      "dynamicAnimeMap": {
        "Ani_Avatar_PlayLyre01AS_0": 6745461515084530887,
        "Ani_Avatar_Bow_PlayLyre01AS_Sync_0": 5546669334230397360,
        "Ani_Avatar_PlayLyre01BS_0": 13474228108707133881,
        "Ani_Avatar_Bow_PlayLyre01BS_Sync_0": 8612584998854356185,
        "Ani_Avatar_PlayLyre01Loop_0": 14460331048294565800,
        "Ani_Avatar_Bow_PlayLyre01Loop_Sync_0": 11730415806536507357
      }
    },
    "PlayQin": {
      "dynamicAnimeMap": {
        "Ani_Avatar_PlayQin01BS_0": 16551969031138959036,
        "Ani_Avatar_Bow_PlayQin01BS_Sync_0": 402209170522481835,
        "Ani_Avatar_PlayQin01AS_0": 5250994942578466823,
        "Ani_Avatar_Bow_PlayQin01AS_Sync_0": 11672998523214593952,
        "Ani_Avatar_PlayQin01Loop_0": 17418587647401392116,
        "Ani_Avatar_Bow_PlayQin01Loop_Sync_0": 8186145079560354091
      }
    },
    "PlayDrum": {
      "dynamicAnimeMap": {
        "Ani_Avatar_PlayDrum01BS_0": 676064006156388053,
        "Ani_Avatar_Bow_PlayDrum01BS_Sync_0": 5320716778546009399,
        "Ani_Avatar_PlayDrum01AS_0": 1889046472444556249,
        "Ani_Avatar_Bow_PlayDrum01AS_Sync_0": 3447854546148668905,
        "Ani_Avatar_PlayDrum01Loop_0": 15613154760883785888,
        "Ani_Avatar_Bow_PlayDrum01Loop_Sync_0": 15927530119636045040
      }
    },
    "PlayFrenchHorn": {
      "dynamicAnimeMap": {
        "Ani_Avatar_PlayFrenchHorn01BS_0": 13654572008000411479,
        "Ani_Avatar_Bow_PlayFrenchHorn01BS_Sync_0": 5851898584419947017,
        "Ani_Avatar_PlayFrenchHorn01AS_0": 10671074210545394056,
        "Ani_Avatar_Bow_PlayFrenchHorn01AS_Sync_0": 8975451747896930,
        "Ani_Avatar_PlayFrenchHorn01Loop_0": 14692624665638228394,
        "Ani_Avatar_Bow_PlayFrenchHorn01Loop_Sync_0": 6527619445271722521
      }
    }
  }
}