{
  "logicStateMap": {
    "PlayLyre": {
      "dynamicAnimeMap": {
        "Ani_Avatar_PlayLyre01AS_0": 12848518866858537694,
        "Ani_Avatar_Pole_PlayLyre01AS_Sync_0": 17134139363555322836,
        "Ani_Avatar_PlayLyre01BS_0": 2701183934356345748,
        "Ani_Avatar_Pole_PlayLyre01BS_Sync_0": 3557770824799305353,
        "Ani_Avatar_PlayLyre01Loop_0": 12818683838036969682,
        "Ani_Avatar_Pole_PlayLyre01Loop_Sync_0": 6351325933555493227
      }
    },
    "PlayQin": {
      "dynamicAnimeMap": {
        "Ani_Avatar_PlayQin01BS_0": 16259296573426315965,
        "Ani_Avatar_Pole_PlayQin01BS_Sync_0": 16262466695482169262,
        "Ani_Avatar_PlayQin01AS_0": 13248638879348282577,
        "Ani_Avatar_Pole_PlayQin01AS_Sync_0": 8866355162169442331,
        "Ani_Avatar_PlayQin01Loop_0": 2742947307808133794,
        "Ani_Avatar_Pole_PlayQin01Loop_Sync_0": 12836078120245250162
      }
    },
    "PlayDrum": {
      "dynamicAnimeMap": {
        "Ani_Avatar_PlayDrum01BS_0": 8237541690292169307,
        "Ani_Avatar_Pole_PlayDrum01BS_Sync_0": 7086327395065381210,
        "Ani_Avatar_PlayDrum01AS_0": 16620083427717712782,
        "Ani_Avatar_Pole_PlayDrum01AS_Sync_0": 10516287759476646676,
        "Ani_Avatar_PlayDrum01Loop_0": 11528985115170236350,
        "Ani_Avatar_Pole_PlayDrum01Loop_Sync_0": 9120044346118472138
      }
    },
    "PlayFrenchHorn": {
      "dynamicAnimeMap": {
        "Ani_Avatar_PlayFrenchHorn01BS_0": 14869726702297839039,
        "Ani_Avatar_Pole_PlayFrenchHorn01BS_Sync_0": 9381342428035970486,
        "Ani_Avatar_PlayFrenchHorn01Loop_0": 10265125936726016127,
        "Ani_Avatar_Pole_PlayFrenchHorn01Loop_Sync_0": 15926100969241103022,
        "Ani_Avatar_PlayFrenchHorn01AS_0": 2627630042644331722,
        "Ani_Avatar_Pole_PlayFrenchHorn01AS_Sync_0": 8437467703898184189
      }
    }
  },
  "IGGNJJPLOIL": {
    "304": {
      "dynamicAnimeMap": {
        "Ani_Avatar_MultiOverrideBS": 4773313209686556942,
        "Ani_Avatar_MultiOverrideLoop": 7020849748223266925,
        "Ani_Avatar_MultiOverrideAS": 15327110406950964502
      }
    },
    "305": {
      "dynamicAnimeMap": {
        "Ani_Avatar_MultiOverrideBS": 3585228638044718753,
        "Ani_Avatar_MultiOverrideLoop": 2285371325494654016,
        "Ani_Avatar_MultiOverrideAS": 15636167705487490965
      }
    }
  }
}