{
  "logicStateMap": {
    "PlayLyre": {
      "dynamicAnimeMap": {
        "Ani_Avatar_PlayLyre01AS_0": 6745461515084530887,
        "Ani_Avatar_Sword_PlayLyre01AS_Sync_0": 6165737464650203868,
        "Ani_Avatar_PlayLyre01BS_0": 13474228108707133881,
        "Ani_Avatar_Sword_PlayLyre01BS_Sync_0": 4329263694530838597,
        "Ani_Avatar_PlayLyre01Loop_0": 14460331048294565800,
        "Ani_Avatar_Sword_PlayLyre01Loop_Sync_0": 5200759850497842310
      }
    },
    "PlayQin": {
      "dynamicAnimeMap": {
        "Ani_Avatar_PlayQin01BS_0": 16551969031138959036,
        "Ani_Avatar_Sword_PlayQin01BS_Sync_0": 1743309533783219196,
        "Ani_Avatar_PlayQin01AS_0": 5250994942578466823,
        "Ani_Avatar_Sword_PlayQin01AS_Sync_0": 15874719362871825895,
        "Ani_Avatar_PlayQin01Loop_0": 17418587647401392116,
        "Ani_Avatar_Sword_PlayQin01Loop_Sync_0": 16060777993752466417
      }
    },
    "PlayDrum": {
      "dynamicAnimeMap": {
        "Ani_Avatar_PlayDrum01BS_0": 676064006156388053,
        "Ani_Avatar_Sword_PlayDrum01BS_Sync_0": 9342622137430892205,
        "Ani_Avatar_PlayDrum01AS_0": 1889046472444556249,
        "Ani_Avatar_Sword_PlayDrum01AS_Sync_0": 2948285239897142442,
        "Ani_Avatar_PlayDrum01Loop_0": 15613154760883785888,
        "Ani_Avatar_Sword_PlayDrum01Loop_Sync_0": 16851083936926327284
      }
    },
    "PlayFrenchHorn": {
      "dynamicAnimeMap": {
        "Ani_Avatar_PlayFrenchHorn01BS_0": 13654572008000411479,
        "Ani_Avatar_Sword_PlayFrenchHorn01BS_Sync_0": 2486696943316283447,
        "Ani_Avatar_PlayFrenchHorn01AS_0": 10671074210545394056,
        "Ani_Avatar_Sword_PlayFrenchHorn01AS_Sync_0": 2883449009213793510,
        "Ani_Avatar_PlayFrenchHorn01Loop_0": 14692624665638228394,
        "Ani_Avatar_Sword_PlayFrenchHorn01Loop_Sync_0": 18176822083294560150
      }
    }
  }
}