{
  "freeStyleStateMap": {
    "301040": [
      "Ani_Avatar_NPC_DiveBackrake01BS_0",
      "Ani_Avatar_NPC_DiveBackrake01BS_Sync_0",
      "Ani_Avatar_NPC_DiveBackrake01Loop_0",
      "Ani_Avatar_NPC_DiveBackrake01Loop_Sync_0",
      "Ani_Avatar_NPC_DiveBackrake01AS_0",
      "Ani_Avatar_NPC_DiveBackrake01AS_Sync_0"
    ],
    "301060": [
      "Ani_Avatar_NPC_DiveForerake01BS_0",
      "Ani_Avatar_NPC_DiveForerake01BS_Sync_0",
      "Ani_Avatar_NPC_DiveForerake01Loop_0",
      "Ani_Avatar_NPC_DiveForerake01Loop_Sync_0",
      "Ani_Avatar_NPC_DiveForerake01AS_0",
      "Ani_Avatar_NPC_DiveForerake01AS_Sync_0"
    ],
    "301200": [
      "Ani_Avatar_NPC_DiveGreet01_0",
      "Ani_Avatar_NPC_DiveGreet01_Sync_0"
    ],
    "301120": [
      "Ani_Avatar_NPC_DiveHoldArm01BS_0",
      "Ani_Avatar_NPC_DiveHoldArm01BS_Sync_0",
      "Ani_Avatar_NPC_DiveHoldArm01Loop_0",
      "Ani_Avatar_NPC_DiveHoldArm01Loop_Sync_0",
      "Ani_Avatar_NPC_DiveHoldArm01AS_0",
      "Ani_Avatar_NPC_DiveHoldArm01AS_Sync_0"
    ],
    "301280": [
      "Ani_Avatar_NPC_DiveInvestigate01BS_0",
      "Ani_Avatar_NPC_DiveInvestigate01BS_Sync_0",
      "Ani_Avatar_NPC_DiveInvestigate01Loop_0",
      "Ani_Avatar_NPC_DiveInvestigate01Loop_Sync_0",
      "Ani_Avatar_NPC_DiveInvestigate01AS_0",
      "Ani_Avatar_NPC_DiveInvestigate01AS_Sync_0"
    ],
    "301141": [
      "Ani_Avatar_NPC_DivePointF01BS_0",
      "Ani_Avatar_NPC_DivePointF01BS_Sync_0",
      "Ani_Avatar_NPC_DivePointF01Loop_0",
      "Ani_Avatar_NPC_DivePointF01Loop_Sync_0",
      "Ani_Avatar_NPC_DivePointF01AS_0",
      "Ani_Avatar_NPC_DivePointF01AS_Sync_0"
    ],
    "301142": [
      "Ani_Avatar_NPC_DivePointL01BS_0",
      "Ani_Avatar_NPC_DivePointL01BS_Sync_0",
      "Ani_Avatar_NPC_DivePointL01Loop_0",
      "Ani_Avatar_NPC_DivePointL01Loop_Sync_0",
      "Ani_Avatar_NPC_DivePointL01AS_0",
      "Ani_Avatar_NPC_DivePointL01AS_Sync_0"
    ],
    "301150": [
      "Ani_Avatar_NPC_DiveRefuse01_0",
      "Ani_Avatar_NPC_DiveRefuse01_Sync_0"
    ],
    "301030": [
      "Ani_Avatar_NPC_DivePutHand01BS_0",
      "Ani_Avatar_NPC_DivePutHand01BS_Sync_0",
      "Ani_Avatar_NPC_DivePutHand01Loop_0",
      "Ani_Avatar_NPC_DivePutHand01Loop_Sync_0",
      "Ani_Avatar_NPC_DivePutHand01AS_0",
      "Ani_Avatar_NPC_DivePutHand01AS_Sync_0"
    ],
    "301110": [
      "Ani_Avatar_NPC_DiveShrug01BS_0",
      "Ani_Avatar_NPC_DiveShrug01BS_Sync_0",
      "Ani_Avatar_NPC_DiveShrug01Loop_0",
      "Ani_Avatar_NPC_DiveShrug01Loop_Sync_0",
      "Ani_Avatar_NPC_DiveShrug01AS_0",
      "Ani_Avatar_NPC_DiveShrug01AS_Sync_0"
    ],
    "301130": [
      "Ani_Avatar_NPC_DiveStrikeChest01BS_0",
      "Ani_Avatar_NPC_DiveStrikeChest01BS_Sync_0",
      "Ani_Avatar_NPC_DiveStrikeChest01Loop_0",
      "Ani_Avatar_NPC_DiveStrikeChest01Loop_Sync_0",
      "Ani_Avatar_NPC_DiveStrikeChest01AS_0",
      "Ani_Avatar_NPC_DiveStrikeChest01AS_Sync_0"
    ],
    "301171": [
      "Ani_Avatar_NPC_DiveTalk01_0",
      "Ani_Avatar_NPC_DiveTalk01_Sync_0"
    ],
    "301172": [
      "Ani_Avatar_NPC_DiveTalk02_0",
      "Ani_Avatar_NPC_DiveTalk02_Sync_0"
    ],
    "301173": [
      "Ani_Avatar_NPC_DiveTalk03_0",
      "Ani_Avatar_NPC_DiveTalk03_Sync_0"
    ],
    "301190": [
      "Ani_Avatar_NPC_DiveThink01BS_0",
      "Ani_Avatar_NPC_DiveThink01BS_Sync_0",
      "Ani_Avatar_NPC_DiveThink01Loop_0",
      "Ani_Avatar_NPC_DiveThink01Loop_Sync_0",
      "Ani_Avatar_NPC_DiveThink01AS_0",
      "Ani_Avatar_NPC_DiveThink01AS_Sync_0"
    ],
    "9031": [],
    "9041": [],
    "301000": []
  },
  "stateAnimeMap": {
    "Ani_Avatar_NPC_DiveBackrake01AS_0": 95043697977345953,
    "Ani_Avatar_NPC_DiveBackrake01AS_Sync_0": 10668068205954476875,
    "Ani_Avatar_NPC_DiveBackrake01BS_0": 2035375095615363161,
    "Ani_Avatar_NPC_DiveBackrake01BS_Sync_0": 5992381512992200914,
    "Ani_Avatar_NPC_DiveBackrake01Loop_0": 12579874746714720117,
    "Ani_Avatar_NPC_DiveBackrake01Loop_Sync_0": 10023545191333551365,
    "Ani_Avatar_NPC_DiveForerake01AS_0": 4636173872657931216,
    "Ani_Avatar_NPC_DiveForerake01AS_Sync_0": 8785207866370246209,
    "Ani_Avatar_NPC_DiveForerake01BS_0": 17757967291566471898,
    "Ani_Avatar_NPC_DiveForerake01BS_Sync_0": 15303107982320125301,
    "Ani_Avatar_NPC_DiveForerake01Loop_0": 17847020514573542298,
    "Ani_Avatar_NPC_DiveForerake01Loop_Sync_0": 13767565494136442692,
    "Ani_Avatar_NPC_DiveGreet01_0": 9694681941051889679,
    "Ani_Avatar_NPC_DiveGreet01_Sync_0": 2541157731801249090,
    "Ani_Avatar_NPC_DiveHoldArm01AS_0": 14100216753400094222,
    "Ani_Avatar_NPC_DiveHoldArm01AS_Sync_0": 14943155297717575724,
    "Ani_Avatar_NPC_DiveHoldArm01BS_0": 7200079008167174710,
    "Ani_Avatar_NPC_DiveHoldArm01BS_Sync_0": 15205189426003153019,
    "Ani_Avatar_NPC_DiveHoldArm01Loop_0": 15859908219023967828,
    "Ani_Avatar_NPC_DiveHoldArm01Loop_Sync_0": 2749987763634719364,
    "Ani_Avatar_NPC_DiveInvestigate01AS_0": 11322350325983929861,
    "Ani_Avatar_NPC_DiveInvestigate01AS_Sync_0": 5813953249580270990,
    "Ani_Avatar_NPC_DiveInvestigate01BS_0": 6467352839663240089,
    "Ani_Avatar_NPC_DiveInvestigate01BS_Sync_0": 846701015372031893,
    "Ani_Avatar_NPC_DiveInvestigate01Loop_0": 16370774739237427284,
    "Ani_Avatar_NPC_DiveInvestigate01Loop_Sync_0": 16357374668963011714,
    "Ani_Avatar_NPC_DivePointF01AS_0": 15283119024979826870,
    "Ani_Avatar_NPC_DivePointF01AS_Sync_0": 1671296893531956193,
    "Ani_Avatar_NPC_DivePointF01BS_0": 691406585519504751,
    "Ani_Avatar_NPC_DivePointF01BS_Sync_0": 9575016655920644272,
    "Ani_Avatar_NPC_DivePointF01Loop_0": 5156031847051241226,
    "Ani_Avatar_NPC_DivePointF01Loop_Sync_0": 10553336892159632384,
    "Ani_Avatar_NPC_DivePointL01AS_0": 2074958812511421526,
    "Ani_Avatar_NPC_DivePointL01AS_Sync_0": 17593247733949892105,
    "Ani_Avatar_NPC_DivePointL01BS_0": 17151178525057698477,
    "Ani_Avatar_NPC_DivePointL01BS_Sync_0": 18034105697032759312,
    "Ani_Avatar_NPC_DivePointL01Loop_0": 2105440747926404343,
    "Ani_Avatar_NPC_DivePointL01Loop_Sync_0": 2147708627532122458,
    "Ani_Avatar_NPC_DivePutHand01AS_0": 5346991644796887870,
    "Ani_Avatar_NPC_DivePutHand01AS_Sync_0": 1892533365304734544,
    "Ani_Avatar_NPC_DivePutHand01BS_0": 1818740665870903,
    "Ani_Avatar_NPC_DivePutHand01BS_Sync_0": 878450782902493801,
    "Ani_Avatar_NPC_DivePutHand01Loop_0": 15328912652849406658,
    "Ani_Avatar_NPC_DivePutHand01Loop_Sync_0": 645242112229561834,
    "Ani_Avatar_NPC_DiveRefuse01_0": 4597884942838200309,
    "Ani_Avatar_NPC_DiveRefuse01_Sync_0": 44779899004206564,
    "Ani_Avatar_NPC_DiveShrug01AS_0": 3292578048102403672,
    "Ani_Avatar_NPC_DiveShrug01AS_Sync_0": 14557165612930695849,
    "Ani_Avatar_NPC_DiveShrug01BS_0": 12024521962332728248,
    "Ani_Avatar_NPC_DiveShrug01BS_Sync_0": 14882027838833204118,
    "Ani_Avatar_NPC_DiveShrug01Loop_0": 7627701699276724987,
    "Ani_Avatar_NPC_DiveShrug01Loop_Sync_0": 15451351778149990195,
    "Ani_Avatar_NPC_DiveStrikeChest01AS_0": 13263873008500349820,
    "Ani_Avatar_NPC_DiveStrikeChest01AS_Sync_0": 15871160420219604171,
    "Ani_Avatar_NPC_DiveStrikeChest01BS_0": 14738429188045033637,
    "Ani_Avatar_NPC_DiveStrikeChest01BS_Sync_0": 13426960333360452383,
    "Ani_Avatar_NPC_DiveStrikeChest01Loop_0": 15993038785205849586,
    "Ani_Avatar_NPC_DiveStrikeChest01Loop_Sync_0": 3612027224752935228,
    "Ani_Avatar_NPC_DiveTalk01_0": 4312990413260812307,
    "Ani_Avatar_NPC_DiveTalk01_Sync_0": 742861566689723332,
    "Ani_Avatar_NPC_DiveTalk02_0": 4761453161211479372,
    "Ani_Avatar_NPC_DiveTalk02_Sync_0": 8732461495416141082,
    "Ani_Avatar_NPC_DiveTalk03_0": 9458849301191764921,
    "Ani_Avatar_NPC_DiveTalk03_Sync_0": 13212907648727529633,
    "Ani_Avatar_NPC_DiveThink01AS_0": 15432732085332732518,
    "Ani_Avatar_NPC_DiveThink01AS_Sync_0": 8605468668898968986,
    "Ani_Avatar_NPC_DiveThink01BS_0": 4642355302516064978,
    "Ani_Avatar_NPC_DiveThink01BS_Sync_0": 17296605204631544056,
    "Ani_Avatar_NPC_DiveThink01Loop_0": 10579379433746699525,
    "Ani_Avatar_NPC_DiveThink01Loop_Sync_0": 5028110398914385892
  },
  "logicStateMap": {
    "Bartender": {
      "dynamicAnimeMap": {
        "Ani_Avatar_Bartender_MixingStandby_0": 12809808040706236118,
        "Ani_Avatar_Sword_Bartender_MixingStandby_Sync_0": 5837340615559686308,
        "Ani_Avatar_Bartender_MixingStart_0": 14873420151679918195,
        "Ani_Avatar_Sword_Bartender_MixingStart_Sync_0": 15256995128045062908,
        "Ani_Avatar_Bartender_MixingToPour_0": 2683280440855257148,
        "Ani_Avatar_Sword_Bartender_MixingToPour_Sync_0": 3131883035598327695,
        "Ani_Avatar_Bartender_Pour_0": 12019796662515046715,
        "Ani_Avatar_Sword_Bartender_Pour_Sync_0": 18330094937304312184,
        "Ani_Avatar_Bartender_PourFinish_0": 11620030396581296135,
        "Ani_Avatar_Sword_Bartender_PourFinish_Sync_0": 6207424846235819557,
        "Ani_Avatar_Bartender_PourStandby_0": 2250070768758242352,
        "Ani_Avatar_Sword_Bartender_PourStandby_Sync_0": 18229723463400156551,
        "Ani_Avatar_Bartender_PrepareLoop_0": 16724214427335280975,
        "Ani_Avatar_Sword_Bartender_PrepareLoop_Sync_0": 7686220538873834571,
        "Ani_Avatar_Bartender_PrepareStart_0": 11967269355907129954,
        "Ani_Avatar_Sword_Bartender_PrepareStart_Sync_0": 1968555083494707207,
        "Ani_Avatar_Bartender_PrepareStandby_0": 12385644821170886192,
        "Ani_Avatar_Sword_Bartender_PrepareStandby_Sync_0": 5718283163614924313,
        "Ani_Avatar_Bartender_PrepareToStandby_0": 9809066147427794683,
        "Ani_Avatar_Sword_Bartender_PrepareToStandby_Sync_0": 3825056974492233073
      }
    },
    "PlayerWind": {
      "dynamicAnimeMap": {
        "Ani_Avatar_Sword_ElementalArt_Wind_AS_0": 7384566809477074883,
        "Ani_Avatar_Sword_ElementalArt_Wind_AS_Sync_0": 7384566809477074883,
        "Ani_Avatar_Sword_ElementalArt_Wind_BS_0": 3539745693867254453,
        "Ani_Avatar_Sword_ElementalArt_Wind_BS_Sync_0": 3539745693867254453,
        "Ani_Avatar_Sword_ElementalArt_Wind_Charge_02_0": 8326731554515715652,
        "Ani_Avatar_Sword_ElementalArt_Wind_Charge_02_Sync_0": 8326731554515715652,
        "Ani_Avatar_Sword_ElementalArt_Wind_Strike_0": 1277034975738364812,
        "Ani_Avatar_Sword_ElementalArt_Wind_Strike_Sync_0": 1277034975738364812,
        "Ani_Avatar_Sword_ElementalArt_Wind_Charge_01_0": 15332319019056038468,
        "Ani_Avatar_Sword_ElementalArt_Wind_Charge_01_Sync_0": 15332319019056038468,
        "Ani_Avatar_Sword_ElementalBurst_Wind_AS_0": 17619462998541761513,
        "Ani_Avatar_Sword_ElementalBurst_Wind_AS_Sync_0": 17619462998541761513,
        "Ani_Avatar_Sword_ElementalBurst_Wind_0": 501016735067634763,
        "Ani_Avatar_Sword_ElementalBurst_Wind_Sync_0": 501016735067634763
      }
    },
    "PlayerRock": {
      "dynamicAnimeMap": {
        "Ani_Avatar_Sword_ElementalArt_Rock_AS_0": 17404556768780982302,
        "Ani_Avatar_Sword_ElementalArt_Rock_AS_Sync_0": 17404556768780982302,
        "Ani_Avatar_Sword_ElementalArt_Rock_BS_0": 911629969674295352,
        "Ani_Avatar_Sword_ElementalArt_Rock_BS_Sync_0": 911629969674295352,
        "Ani_Avatar_Sword_ElementalArt_Rock_0": 5486926245292021960,
        "Ani_Avatar_Sword_ElementalArt_Rock_Sync_0": 5486926245292021960,
        "Ani_Avatar_Sword_ElementalArt_Rock_Charge_01_0": 13489616770328285083,
        "Ani_Avatar_Sword_ElementalArt_Rock_Charge_01_Sync_0": 13489616770328285083,
        "Ani_Avatar_Sword_ElementalArt_Rock_Charge_AS_0": 13820030038342973135,
        "Ani_Avatar_Sword_ElementalArt_Rock_Charge_AS_Sync_0": 13820030038342973135,
        "Ani_Avatar_Sword_ElementalArt_Rock_Charge_02_0": 12981196226547453040,
        "Ani_Avatar_Sword_ElementalArt_Rock_Charge_02_Sync_0": 12981196226547453040,
        "Ani_Avatar_Sword_ElementalBurst_Rock_AS_0": 6674061527253883259,
        "Ani_Avatar_Sword_ElementalBurst_Rock_AS_Sync_0": 6674061527253883259,
        "Ani_Avatar_Sword_ElementalBurst_Rock_0": 8304800191075810145,
        "Ani_Avatar_Sword_ElementalBurst_Rock_Sync_0": 8304800191075810145
      }
    },
    "PlayerElectric": {
      "dynamicAnimeMap": {
        "Ani_Avatar_Sword_ElementalArt_Electric_0": 7328497335652720876,
        "Ani_Avatar_Sword_ElementalArt_Electric_Sync_0": 7328497335652720876,
        "Ani_Avatar_Sword_ElementalArt_Electric_AS_0": 4503059375241453470,
        "Ani_Avatar_Sword_ElementalArt_Electric_AS_Sync_0": 4503059375241453470,
        "Ani_Avatar_Sword_ElementalBurst_Electric_0": 15783092512760790064,
        "Ani_Avatar_Sword_ElementalBurst_Electric_Sync_0": 15783092512760790064,
        "Ani_Avatar_Sword_ElementalBurst_Electric_AS_0": 5636421399055134488,
        "Ani_Avatar_Sword_ElementalBurst_Electric_AS_Sync_0": 5636421399055134488
      }
    },
    "PlayerGrass": {
      "dynamicAnimeMap": {
        "Ani_Avatar_Sword_ElementalArt_Grass_0": 9183983042971341115,
        "Ani_Avatar_Sword_ElementalArt_Grass_Sync_0": 9183983042971341115,
        "Ani_Avatar_Sword_ElementalArt_Grass_AS_0": 3820993210859278049,
        "Ani_Avatar_Sword_ElementalArt_Grass_AS_Sync_0": 3820993210859278049,
        "Ani_Avatar_Sword_ElementalBurst_Grass_0": 11781561351792933383,
        "Ani_Avatar_Sword_ElementalBurst_Grass_Sync_0": 11781561351792933383,
        "Ani_Avatar_Sword_ElementalBurst_Grass_AS_0": 10835967633177861015,
        "Ani_Avatar_Sword_ElementalBurst_Grass_AS_Sync_0": 10835967633177861015
      }
    },
    "PlayerWater": {
      "dynamicAnimeMap": {
        "Ani_Avatar_Sword_ElementalArt_Water_BS_0": 11434192580796086057,
        "Ani_Avatar_Sword_ElementalArt_Water_BS_Sync_0": 11434192580796086057,
        "Ani_Avatar_Sword_ElementalArt_Water_AS_0": 15789682733005524685,
        "Ani_Avatar_Sword_ElementalArt_Water_AS_Sync_0": 15789682733005524685,
        "Ani_Avatar_Sword_ElementalArt_Water_0": 5741918159089853407,
        "Ani_Avatar_Sword_ElementalArt_Water_Sync_0": 5741918159089853407,
        "Ani_Avatar_Sword_ElementalArt_Water_ChargeLoop_Low_0": 925209135669830088,
        "Ani_Avatar_Sword_ElementalArt_Water_ChargeLoop_High_0": 16295399193423241492,
        "Ani_Avatar_Sword_ElementalArt_Water_ChargeLoop_Low_Sync_0": 925209135669830088,
        "Ani_Avatar_Sword_ElementalArt_Water_ChargeLoop_High_Sync_0": 16295399193423241492,
        "Ani_Avatar_Sword_ElementalArt_Water_Low_0": 13112228104033507493,
        "Ani_Avatar_Sword_ElementalArt_Water_High_0": 12589961925753238061,
        "Ani_Avatar_Sword_ElementalArt_Water_Low_Sync_0": 13112228104033507493,
        "Ani_Avatar_Sword_ElementalArt_Water_High_Sync_0": 12589961925753238061,
        "Ani_Avatar_Sword_ElementalBurst_Water_0": 1953585507728139665,
        "Ani_Avatar_Sword_ElementalBurst_Water_Sync_0": 1953585507728139665,
        "Ani_Avatar_Sword_ElementalBurst_Water_AS_0": 14426854275440683380,
        "Ani_Avatar_Sword_ElementalBurst_Water_AS_Sync_0": 14426854275440683380
      }
    },
    "Fishing": {
      "dynamicAnimeMap": {
        "Ani_Avatar_Fishing_Battle_BS_0": 5479378303239101800,
        "Ani_Avatar_Sword_Fishing_Battle_BS_Sync_0": 5278937781141304287,
        "Ani_Avatar_Fishing_Cast_AS_0": 16071442200536464972,
        "Ani_Avatar_Sword_Fishing_Cast_AS_Sync_0": 17968846769013401233,
        "Ani_Avatar_Fishing_Cast_BS_0": 9649769574835039689,
        "Ani_Avatar_Sword_Fishing_Cast_BS_Sync_0": 11468066942273229032,
        "Ani_Avatar_Fishing_Cast_Loop_0": 11241028566013506638,
        "Ani_Avatar_Sword_Fishing_Cast_Loop_Sync_0": 5276008340723293809,
        "Ani_Avatar_Fishing_Choose_Loop_0": 11543152882981095848,
        "Ani_Avatar_Sword_Fishing_Choose_Loop_Sync_0": 15153338204552089421,
        "Ani_Avatar_Fishing_End_0": 12905971592316206303,
        "Ani_Avatar_Sword_Fishing_End_Sync_0": 12315869527711141456,
        "Ani_Avatar_Fishing_Pull_01_0": 4080428314210230408,
        "Ani_Avatar_Sword_Fishing_Pull_01_Sync_0": 5873173979234471780,
        "Ani_Avatar_Fishing_Pull_02_0": 7972478450893953321,
        "Ani_Avatar_Sword_Fishing_Pull_02_Sync_0": 4772941996432085348,
        "Ani_Avatar_Fishing_Wait_0": 14287450695748544312,
        "Ani_Avatar_Sword_Fishing_Wait_Sync_0": 2593866030757207934,
        "Ani_Avatar_Fishing_Battle_L_0": 3490006664769187120,
        "Ani_Avatar_Fishing_Battle_H_0": 12036671337181646635,
        "Ani_Avatar_Sword_Fishing_Battle_L_Sync_0": 3467525064651045387,
        "Ani_Avatar_Sword_Fishing_Battle_H_Sync_0": 6254416306918461850,
        "Ani_Avatar_Fishing_PullFail_0": 6909911337741605261,
        "Ani_Avatar_Sword_Fishing_PullFail_Sync_0": 8905970011412235161
      }
    },
    "Blocking": {
      "dynamicAnimeMap": {
        "Ani_Avatar_BlockingBS_0": 184600563015611886,
        "Ani_Avatar_Sword_BlockingBS_Sync_0": 16167833957651122004,
        "Ani_Avatar_BlockingLoop_0": 1342014159283182547,
        "Ani_Avatar_Sword_BlockingLoop_Sync_0": 8102683927169784440,
        "Ani_Avatar_Blocking_Back_0": 3443373359233934378,
        "Ani_Avatar_Sword_Blocking_Back_Sync_0": 4037677535744990283,
        "Ani_Avatar_Blocking_Bounce_0": 1110830841679411070,
        "Ani_Avatar_Sword_Blocking_Bounce_Sync_0": 13192553372718702125,
        "Ani_Avatar_Blocking_Hit_0": 15669113044720271825,
        "Ani_Avatar_Sword_Blocking_Hit_Sync_0": 17616530155875929245,
        "Ani_Avatar_BlockingAS_0": 17363638351866407624,
        "Ani_Avatar_Sword_BlockingAS_Sync_0": 18024092601566759523
      }
    },
    "Cooking": {
      "dynamicAnimeMap": {
        "Ani_Avatar_Cooking_StirToFry_0": 7169634318078970053,
        "Ani_Avatar_Sword_Cooking_StirToFry_Sync_0": 1741465552980343965,
        "Ani_Avatar_Cooking_Fry_0": 17814175858794991122,
        "Ani_Avatar_Sword_Cooking_Fry_Sync_0": 11167936952967160924,
        "Ani_Avatar_Cooking_FryToStandby_0": 8018356867495435701,
        "Ani_Avatar_Sword_Cooking_FryToStandby_Sync_0": 18253170161075812676,
        "Ani_Avatar_Cooking_Cut_0": 14790205813522093768,
        "Ani_Avatar_Sword_Cooking_Cut_Sync_0": 6711589648358967104,
        "Ani_Avatar_Cooking_CutToStir_0": 14577146960133108355,
        "Ani_Avatar_Sword_Cooking_CutToStir_Sync_0": 16266991548270480787,
        "Ani_Avatar_Cooking_Stir_0": 4969282589185703596,
        "Ani_Avatar_Sword_Cooking_Stir_Sync_0": 17044278649010568468,
        "Ani_Avatar_Cooking_CutStandby_0": 17625801030079005456,
        "Ani_Avatar_Sword_Cooking_CutStandby_Sync_0": 9674198839720727241,
        "Ani_Avatar_Cooking_StirStandby_0": 1634145262035466961,
        "Ani_Avatar_Sword_Cooking_StirStandby_Sync_0": 51987949824505902,
        "Ani_Avatar_Cooking_FryStandby_0": 984014566278336902,
        "Ani_Avatar_Sword_Cooking_FryStandby_Sync_0": 1997249637289877103,
        "Ani_Avatar_NPC_PersonalRead02Loop_0": 18058291822275319458,
        "Ani_Avatar_NPC_PersonalRead02Loop_Sync_0": 9607124102887902058,
        "Ani_Avatar_NPC_PersonalRead02AS_0": 16626716266634825533,
        "Ani_Avatar_NPC_PersonalRead02AS_Sync_0": 2585812545956911898
      }
    },
    "PlayLyre": {
      "dynamicAnimeMap": {
        "Ani_Avatar_PlayLyre01AS_0": 12848518866858537694,
        "Ani_Avatar_Sword_PlayLyre01AS_Sync_0": 13424559738594735820,
        "Ani_Avatar_PlayLyre01BS_0": 2701183934356345748,
        "Ani_Avatar_Sword_PlayLyre01BS_Sync_0": 13721319159945644975,
        "Ani_Avatar_PlayLyre01Loop_0": 12818683838036969682,
        "Ani_Avatar_Sword_PlayLyre01Loop_Sync_0": 1018399383074669428
      }
    },
    "PlayQin": {
      "dynamicAnimeMap": {
        "Ani_Avatar_PlayQin01BS_0": 16259296573426315965,
        "Ani_Avatar_Sword_PlayQin01BS_Sync_0": 8772750907452298396,
        "Ani_Avatar_PlayQin01AS_0": 13248638879348282577,
        "Ani_Avatar_Sword_PlayQin01AS_Sync_0": 9085823964293310672,
        "Ani_Avatar_PlayQin01Loop_0": 2742947307808133794,
        "Ani_Avatar_Sword_PlayQin01Loop_Sync_0": 6563357636234273353
      }
    },
    "PlayDrum": {
      "dynamicAnimeMap": {
        "Ani_Avatar_PlayDrum01BS_0": 8237541690292169307,
        "Ani_Avatar_Sword_PlayDrum01BS_Sync_0": 15178130452666486203,
        "Ani_Avatar_PlayDrum01AS_0": 16620083427717712782,
        "Ani_Avatar_Sword_PlayDrum01AS_Sync_0": 14423637708920839485,
        "Ani_Avatar_PlayDrum01Loop_0": 11528985115170236350,
        "Ani_Avatar_Sword_PlayDrum01Loop_Sync_0": 5298988682407329840
      }
    },
    "PlayFrenchHorn": {
      "dynamicAnimeMap": {
        "Ani_Avatar_PlayFrenchHorn01BS_0": 14869726702297839039,
        "Ani_Avatar_Sword_PlayFrenchHorn01BS_Sync_0": 7366093253077051451,
        "Ani_Avatar_PlayFrenchHorn01Loop_0": 10265125936726016127,
        "Ani_Avatar_Sword_PlayFrenchHorn01Loop_Sync_0": 6827682817471474191,
        "Ani_Avatar_PlayFrenchHorn01AS_0": 2627630042644331722,
        "Ani_Avatar_Sword_PlayFrenchHorn01AS_Sync_0": 8923545788593664853
      }
    }
  }
}