{
  "logicStateMap": {
    "PlayLyre": {
      "dynamicAnimeMap": {
        "Ani_Avatar_PlayLyre01AS_0": 2834181650918499917,
        "Ani_Avatar_Sword_PlayLyre01AS_Sync_0": 15780333380961618171,
        "Ani_Avatar_PlayLyre01BS_0": 7040952514586193431,
        "Ani_Avatar_Sword_PlayLyre01BS_Sync_0": 10070907983829983677,
        "Ani_Avatar_PlayLyre01Loop_0": 3084128628876051132,
        "Ani_Avatar_Sword_PlayLyre01Loop_Sync_0": 16569269009247922500
      }
    },
    "PlayQin": {
      "dynamicAnimeMap": {
        "Ani_Avatar_PlayQin01BS_0": 6631471260171092195,
        "Ani_Avatar_Sword_PlayQin01BS_Sync_0": 12703916732345512831,
        "Ani_Avatar_PlayQin01AS_0": 793179029584258167,
        "Ani_Avatar_Sword_PlayQin01AS_Sync_0": 15292226207325658430,
        "Ani_Avatar_PlayQin01Loop_0": 14209344216982972452,
        "Ani_Avatar_Sword_PlayQin01Loop_Sync_0": 76938529865884881
      }
    },
    "PlayDrum": {
      "dynamicAnimeMap": {
        "Ani_Avatar_PlayDrum01BS_0": 3090833905114629419,
        "Ani_Avatar_Sword_PlayDrum01BS_Sync_0": 16993307122837941772,
        "Ani_Avatar_PlayDrum01AS_0": 9496786077651982892,
        "Ani_Avatar_Sword_PlayDrum01AS_Sync_0": 3221412390460050715,
        "Ani_Avatar_PlayDrum01Loop_0": 10571862566235502986,
        "Ani_Avatar_Sword_PlayDrum01Loop_Sync_0": 14220824949234868233
      }
    },
    "PlayFrenchHorn": {
      "dynamicAnimeMap": {
        "Ani_Avatar_PlayFrenchHorn01BS_0": 12095997960225368372,
        "Ani_Avatar_Sword_PlayFrenchHorn01BS_Sync_0": 5907190200472713206,
        "Ani_Avatar_PlayFrenchHorn01Loop_0": 6930217038369397456,
        "Ani_Avatar_Sword_PlayFrenchHorn01Loop_Sync_0": 11200130489082331848,
        "Ani_Avatar_PlayFrenchHorn01AS_0": 4453288551981334228,
        "Ani_Avatar_Sword_PlayFrenchHorn01AS_Sync_0": 8347754767309377202
      }
    }
  },
  "IGGNJJPLOIL": {
    "304": {
      "dynamicAnimeMap": {
        "Ani_Avatar_MultiOverrideBS": 13811309517649790794,
        "Ani_Avatar_MultiOverrideLoop": 9224842253282018157,
        "Ani_Avatar_MultiOverrideAS": 13818455558646971574
      }
    },
    "305": {
      "dynamicAnimeMap": {
        "Ani_Avatar_MultiOverrideBS": 3582967176879811676,
        "Ani_Avatar_MultiOverrideLoop": 17979095541436565697,
        "Ani_Avatar_MultiOverrideAS": 14382803362688250826
      }
    }
  }
}