{
  "IGGNJJPLOIL": {
    "304": {
      "dynamicAnimeMap": {
        "Ani_Avatar_MultiOverrideBS": 13072274433636937872,
        "Ani_Avatar_MultiOverrideLoop": 9614348150627376428,
        "Ani_Avatar_MultiOverrideAS": 15384388515999043305
      }
    },
    "305": {
      "dynamicAnimeMap": {
        "Ani_Avatar_MultiOverrideBS": 17638178796698665746,
        "Ani_Avatar_MultiOverrideLoop": 10185068361047491372,
        "Ani_Avatar_MultiOverrideAS": 15277654793720548646
      }
    }
  }
}