{
  "logicStateMap": {
    "PlayLyre": {
      "dynamicAnimeMap": {
        "Ani_Avatar_PlayLyre01AS_0": 6745461515084530887,
        "Ani_Avatar_Pole_PlayLyre01AS_Sync_0": 16177604370213468597,
        "Ani_Avatar_PlayLyre01BS_0": 13474228108707133881,
        "Ani_Avatar_Pole_PlayLyre01BS_Sync_0": 6332114038964756624,
        "Ani_Avatar_PlayLyre01Loop_0": 14460331048294565800,
        "Ani_Avatar_Pole_PlayLyre01Loop_Sync_0": 8290261660357954448
      }
    },
    "PlayQin": {
      "dynamicAnimeMap": {
        "Ani_Avatar_PlayQin01BS_0": 16551969031138959036,
        "Ani_Avatar_Pole_PlayQin01BS_Sync_0": 6102669087462871280,
        "Ani_Avatar_PlayQin01AS_0": 5250994942578466823,
        "Ani_Avatar_Pole_PlayQin01AS_Sync_0": 17868699839634245979,
        "Ani_Avatar_PlayQin01Loop_0": 17418587647401392116,
        "Ani_Avatar_Pole_PlayQin01Loop_Sync_0": 7553699350375751987
      }
    },
    "PlayDrum": {
      "dynamicAnimeMap": {
        "Ani_Avatar_PlayDrum01BS_0": 676064006156388053,
        "Ani_Avatar_Pole_PlayDrum01BS_Sync_0": 14431058372102144452,
        "Ani_Avatar_PlayDrum01AS_0": 1889046472444556249,
        "Ani_Avatar_Pole_PlayDrum01AS_Sync_0": 10392698401841105722,
        "Ani_Avatar_PlayDrum01Loop_0": 15613154760883785888,
        "Ani_Avatar_Pole_PlayDrum01Loop_Sync_0": 9858478243346907924
      }
    },
    "PlayFrenchHorn": {
      "dynamicAnimeMap": {
        "Ani_Avatar_PlayFrenchHorn01BS_0": 13654572008000411479,
        "Ani_Avatar_Pole_PlayFrenchHorn01BS_Sync_0": 9396656586676361054,
        "Ani_Avatar_PlayFrenchHorn01AS_0": 10671074210545394056,
        "Ani_Avatar_Pole_PlayFrenchHorn01AS_Sync_0": 4560300288335851979,
        "Ani_Avatar_PlayFrenchHorn01Loop_0": 14692624665638228394,
        "Ani_Avatar_Pole_PlayFrenchHorn01Loop_Sync_0": 6260820471945420720
      }
    }
  },
  "IGGNJJPLOIL": {
    "304": {
      "dynamicAnimeMap": {
        "Ani_Avatar_MultiOverrideBS": 15550153267625735641,
        "Ani_Avatar_MultiOverrideLoop": 3121283202482529520,
        "Ani_Avatar_MultiOverrideAS": 16885871476590307744
      }
    },
    "305": {
      "dynamicAnimeMap": {
        "Ani_Avatar_MultiOverrideBS": 11089895849627658308,
        "Ani_Avatar_MultiOverrideLoop": 10734858537952927472,
        "Ani_Avatar_MultiOverrideAS": 225989761447579947
      }
    }
  }
}