{
  "talkId": 6303804,
  "damageRatio": "FREE",
  "dialogList": [
    {
      "id": 630380401,
      "nextDialogs": [
        630380402
      ],
      "talkShowType": "TALK_SHOW_FORCE_SELECT",
      "talkRole": {
        "type": "TALK_ROLE_PLAYER",
        "_id": ""
      },
      "talkContentTextMapHash": 2526662682,
      "talkAssetPath": "",
      "talkAssetPathAlter": "",
      "talkAudioName": "",
      "actionBefore": "",
      "actionWhile": "",
      "actionAfter": "",
      "optionIcon": "",
      "iconPath": ""
    },
    {
      "id": 630380402,
      "nextDialogs": [
        630380403
      ],
      "talkRole": {
        "type": "TALK_ROLE_NPC",
        "_id": "3038"
      },
      "talkContentTextMapHash": 1474185706,
      "talkAssetPath": "",
      "talkAssetPathAlter": "",
      "talkAudioName": "",
      "actionBefore": "",
      "actionWhile": "",
      "actionAfter": "",
      "optionIcon": "",
      "iconPath": ""
    },
    {
      "id": 630380403,
      "nextDialogs": [
        630380404
      ],
      "talkRole": {
        "type": "TALK_ROLE_NPC",
        "_id": "3038"
      },
      "talkContentTextMapHash": 3045229202,
      "talkAssetPath": "",
      "talkAssetPathAlter": "",
      "talkAudioName": "",
      "actionBefore": "",
      "actionWhile": "",
      "actionAfter": "",
      "optionIcon": "",
      "iconPath": ""
    },
    {
      "id": 630380404,
      "nextDialogs": [
        630380405
      ],
      "talkRole": {
        "type": "TALK_ROLE_NPC",
        "_id": "3038"
      },
      "talkContentTextMapHash": 3237017586,
      "talkAssetPath": "",
      "talkAssetPathAlter": "",
      "talkAudioName": "",
      "actionBefore": "",
      "actionWhile": "",
      "actionAfter": "",
      "optionIcon": "",
      "iconPath": ""
    },
    {
      "id": 630380405,
      "talkRole": {
        "type": "TALK_ROLE_NPC",
        "_id": "3038"
      },
      "talkContentTextMapHash": 3196155386,
      "talkAssetPath": "",
      "talkAssetPathAlter": "",
      "talkAudioName": "",
      "actionBefore": "",
      "actionWhile": "",
      "actionAfter": "",
      "optionIcon": "",
      "iconPath": ""
    }
  ]
}