{
  "talkId": 6518707,
  "KPGKDHAFHFE": "FREE",
  "dialogList": [
    {
      "id": 651870701,
      "talkRole": {
        "type": "TALK_ROLE_NPC",
        "_id": "5187"
      },
      "talkContentTextMapHash": 1435681282,
      "talkAssetPath": "",
      "talkAssetPathAlter": "",
      "talkAudioName": "",
      "actionBefore": "",
      "actionWhile": "",
      "actionAfter": "GCG/open_GcgLevelPage_Bigworld",
      "optionIcon": "UI_Icon_Intee_GcgZhanDou",
      "iconPath": ""
    }
  ]
}