{
  "talkId": 6519508,
  "KPGKDHAFHFE": "FREE",
  "dialogList": [
    {
      "id": 651950801,
      "talkRole": {
        "type": "TALK_ROLE_NPC",
        "_id": "5195"
      },
      "talkContentTextMapHash": 2311409562,
      "talkAssetPath": "",
      "talkAssetPathAlter": "",
      "talkAudioName": "",
      "actionBefore": "GCG/ClearWorldChallengeTalk",
      "actionWhile": "",
      "actionAfter": "",
      "optionIcon": "",
      "iconPath": ""
    }
  ]
}