{
  "talkId": 6521213,
  "KPGKDHAFHFE": "FREE",
  "dialogList": [
    {
      "id": 652121301,
      "talkRole": {
        "type": "TALK_ROLE_NPC",
        "_id": "5212"
      },
      "talkContentTextMapHash": 2303580610,
      "talkAssetPath": "",
      "talkAssetPathAlter": "",
      "talkAudioName": "",
      "actionBefore": "",
      "actionWhile": "",
      "actionAfter": "GCG/open_GcgLevelPage_Bigworld",
      "optionIcon": "UI_Icon_Intee_GcgZhanDou",
      "iconPath": ""
    }
  ]
}