{
  "talkId": 6521506,
  "KPGKDHAFHFE": "FREE",
  "dialogList": [
    {
      "id": 652150601,
      "talkRole": {
        "type": "TALK_ROLE_NPC",
        "_id": "5215"
      },
      "talkContentTextMapHash": 145740434,
      "talkAssetPath": "",
      "talkAssetPathAlter": "",
      "talkAudioName": "",
      "actionBefore": "GCG/ClearWorldChallengeTalk",
      "actionWhile": "",
      "actionAfter": "",
      "optionIcon": "",
      "iconPath": ""
    }
  ]
}