{
  "talkId": 6524209,
  "KPGKDHAFHFE": "FREE",
  "dialogList": [
    {
      "id": 652420901,
      "talkRole": {
        "type": "TALK_ROLE_NPC",
        "_id": "5242"
      },
      "talkContentTextMapHash": 1517288322,
      "talkAssetPath": "",
      "talkAssetPathAlter": "",
      "talkAudioName": "",
      "actionBefore": "GCG/ClearWorldChallengeTalk",
      "actionWhile": "",
      "actionAfter": "",
      "optionIcon": "",
      "iconPath": ""
    }
  ]
}