{
  "talkId": 6909706,
  "KPGKDHAFHFE": "FREE",
  "dialogList": [
    {
      "id": 690970601,
      "nextDialogs": [
        690970602
      ],
      "talkShowType": "TALK_SHOW_FORCE_SELECT",
      "talkRole": {
        "type": "TALK_ROLE_PLAYER",
        "_id": ""
      },
      "talkContentTextMapHash": 1741874746,
      "talkAssetPath": "",
      "talkAssetPathAlter": "",
      "talkAudioName": "",
      "actionBefore": "",
      "actionWhile": "",
      "actionAfter": "",
      "optionIcon": "",
      "iconPath": ""
    },
    {
      "id": 690970602,
      "nextDialogs": [
        690970603
      ],
      "talkRole": {
        "type": "TALK_ROLE_NPC",
        "_id": "9097"
      },
      "talkContentTextMapHash": 392834850,
      "talkAssetPath": "",
      "talkAssetPathAlter": "",
      "talkAudioName": "",
      "actionBefore": "",
      "actionWhile": "",
      "actionAfter": "",
      "optionIcon": "",
      "iconPath": ""
    },
    {
      "id": 690970603,
      "talkRole": {
        "type": "TALK_ROLE_NPC",
        "_id": "9097"
      },
      "talkContentTextMapHash": 1591479050,
      "talkAssetPath": "",
      "talkAssetPathAlter": "",
      "talkAudioName": "",
      "actionBefore": "",
      "actionWhile": "",
      "actionAfter": "",
      "optionIcon": "",
      "iconPath": ""
    }
  ]
}