{
  "talkId": 6909508,
  "KPGKDHAFHFE": "FREE",
  "dialogList": [
    {
      "id": 690950301,
      "nextDialogs": [
        690950302
      ],
      "talkShowType": "TALK_SHOW_FORCE_SELECT",
      "talkRole": {
        "type": "TALK_ROLE_PLAYER",
        "_id": ""
      },
      "talkContentTextMapHash": 315081570,
      "talkAssetPath": "",
      "talkAssetPathAlter": "",
      "talkAudioName": "",
      "actionBefore": "",
      "actionWhile": "",
      "actionAfter": "",
      "optionIcon": "",
      "iconPath": ""
    },
    {
      "id": 690950302,
      "nextDialogs": [
        690950303
      ],
      "talkRole": {
        "type": "TALK_ROLE_NPC",
        "_id": "9095"
      },
      "talkContentTextMapHash": 714595050,
      "talkAssetPath": "",
      "talkAssetPathAlter": "",
      "talkAudioName": "",
      "actionBefore": "",
      "actionWhile": "",
      "actionAfter": "",
      "optionIcon": "",
      "iconPath": ""
    },
    {
      "id": 690950303,
      "nextDialogs": [
        690950304
      ],
      "talkRole": {
        "type": "TALK_ROLE_NPC",
        "_id": "9095"
      },
      "talkContentTextMapHash": 3146049458,
      "talkAssetPath": "",
      "talkAssetPathAlter": "",
      "talkAudioName": "",
      "actionBefore": "",
      "actionWhile": "",
      "actionAfter": "",
      "optionIcon": "",
      "iconPath": ""
    },
    {
      "id": 690950304,
      "nextDialogs": [
        690950305
      ],
      "talkRole": {
        "type": "TALK_ROLE_NPC",
        "_id": "9095"
      },
      "talkContentTextMapHash": 426382002,
      "talkAssetPath": "",
      "talkAssetPathAlter": "",
      "talkAudioName": "",
      "actionBefore": "",
      "actionWhile": "",
      "actionAfter": "",
      "optionIcon": "",
      "iconPath": ""
    },
    {
      "id": 690950305,
      "nextDialogs": [
        690950306,
        690950310
      ],
      "talkRole": {
        "type": "TALK_ROLE_NPC",
        "_id": "9095"
      },
      "talkContentTextMapHash": 254696762,
      "talkAssetPath": "",
      "talkAssetPathAlter": "",
      "talkAudioName": "",
      "actionBefore": "",
      "actionWhile": "",
      "actionAfter": "",
      "optionIcon": "",
      "iconPath": ""
    },
    {
      "id": 690950306,
      "nextDialogs": [
        690950307
      ],
      "talkShowType": "TALK_SHOW_FORCE_SELECT",
      "talkRole": {
        "type": "TALK_ROLE_PLAYER",
        "_id": ""
      },
      "talkContentTextMapHash": 4185297474,
      "talkAssetPath": "",
      "talkAssetPathAlter": "",
      "talkAudioName": "",
      "actionBefore": "",
      "actionWhile": "",
      "actionAfter": "",
      "optionIcon": "",
      "iconPath": ""
    },
    {
      "id": 690950307,
      "nextDialogs": [
        690950308
      ],
      "talkRole": {
        "type": "TALK_ROLE_NPC",
        "_id": "9095"
      },
      "talkContentTextMapHash": 1023292866,
      "talkAssetPath": "",
      "talkAssetPathAlter": "",
      "talkAudioName": "",
      "actionBefore": "",
      "actionWhile": "",
      "actionAfter": "",
      "optionIcon": "",
      "iconPath": ""
    },
    {
      "id": 690950308,
      "nextDialogs": [
        690950309
      ],
      "talkRole": {
        "type": "TALK_ROLE_NPC",
        "_id": "9095"
      },
      "talkContentTextMapHash": 2901378234,
      "talkAssetPath": "",
      "talkAssetPathAlter": "",
      "talkAudioName": "",
      "actionBefore": "",
      "actionWhile": "",
      "actionAfter": "",
      "optionIcon": "",
      "iconPath": ""
    },
    {
      "id": 690950309,
      "nextDialogs": [
        690950314
      ],
      "talkRole": {
        "type": "TALK_ROLE_NPC",
        "_id": "9095"
      },
      "talkContentTextMapHash": 1587868842,
      "talkAssetPath": "",
      "talkAssetPathAlter": "",
      "talkAudioName": "",
      "actionBefore": "",
      "actionWhile": "",
      "actionAfter": "",
      "optionIcon": "",
      "iconPath": ""
    },
    {
      "id": 690950314,
      "nextDialogs": [
        690950315
      ],
      "talkShowType": "TALK_SHOW_FORCE_SELECT",
      "talkRole": {
        "type": "TALK_ROLE_PLAYER",
        "_id": ""
      },
      "talkContentTextMapHash": 3585858890,
      "talkAssetPath": "",
      "talkAssetPathAlter": "",
      "talkAudioName": "",
      "actionBefore": "",
      "actionWhile": "",
      "actionAfter": "",
      "optionIcon": "",
      "iconPath": ""
    },
    {
      "id": 690950315,
      "nextDialogs": [
        690950316
      ],
      "talkRole": {
        "type": "TALK_ROLE_NPC",
        "_id": "9095"
      },
      "talkContentTextMapHash": 1385918122,
      "talkAssetPath": "",
      "talkAssetPathAlter": "",
      "talkAudioName": "",
      "actionBefore": "",
      "actionWhile": "",
      "actionAfter": "",
      "optionIcon": "",
      "iconPath": ""
    },
    {
      "id": 690950316,
      "nextDialogs": [
        690950317
      ],
      "talkRole": {
        "type": "TALK_ROLE_NPC",
        "_id": "9095"
      },
      "talkContentTextMapHash": 1159500274,
      "talkAssetPath": "",
      "talkAssetPathAlter": "",
      "talkAudioName": "",
      "actionBefore": "",
      "actionWhile": "",
      "actionAfter": "",
      "optionIcon": "",
      "iconPath": ""
    },
    {
      "id": 690950317,
      "nextDialogs": [
        690950318
      ],
      "talkRole": {
        "type": "TALK_ROLE_NPC",
        "_id": "9095"
      },
      "talkContentTextMapHash": 1739141282,
      "talkAssetPath": "",
      "talkAssetPathAlter": "",
      "talkAudioName": "",
      "actionBefore": "",
      "actionWhile": "",
      "actionAfter": "",
      "optionIcon": "",
      "iconPath": ""
    },
    {
      "id": 690950318,
      "nextDialogs": [
        690950319
      ],
      "talkRole": {
        "type": "TALK_ROLE_NPC",
        "_id": "9095"
      },
      "talkContentTextMapHash": 560579618,
      "talkAssetPath": "",
      "talkAssetPathAlter": "",
      "talkAudioName": "",
      "actionBefore": "",
      "actionWhile": "",
      "actionAfter": "",
      "optionIcon": "",
      "iconPath": ""
    },
    {
      "id": 690950319,
      "nextDialogs": [
        690950320
      ],
      "talkShowType": "TALK_SHOW_FORCE_SELECT",
      "talkRole": {
        "type": "TALK_ROLE_PLAYER",
        "_id": ""
      },
      "talkContentTextMapHash": 2230112258,
      "talkAssetPath": "",
      "talkAssetPathAlter": "",
      "talkAudioName": "",
      "actionBefore": "",
      "actionWhile": "",
      "actionAfter": "",
      "optionIcon": "",
      "iconPath": ""
    },
    {
      "id": 690950320,
      "nextDialogs": [
        690950321
      ],
      "talkRole": {
        "type": "TALK_ROLE_NPC",
        "_id": "9095"
      },
      "talkContentTextMapHash": 3342992090,
      "talkAssetPath": "",
      "talkAssetPathAlter": "",
      "talkAudioName": "",
      "actionBefore": "",
      "actionWhile": "",
      "actionAfter": "",
      "optionIcon": "",
      "iconPath": ""
    },
    {
      "id": 690950321,
      "nextDialogs": [
        690950322
      ],
      "talkRole": {
        "type": "TALK_ROLE_NPC",
        "_id": "9095"
      },
      "talkContentTextMapHash": 3713236434,
      "talkAssetPath": "",
      "talkAssetPathAlter": "",
      "talkAudioName": "",
      "actionBefore": "",
      "actionWhile": "",
      "actionAfter": "",
      "optionIcon": "",
      "iconPath": ""
    },
    {
      "id": 690950322,
      "nextDialogs": [
        690950323
      ],
      "talkRole": {
        "type": "TALK_ROLE_NPC",
        "_id": "9095"
      },
      "talkContentTextMapHash": 2340643122,
      "talkAssetPath": "",
      "talkAssetPathAlter": "",
      "talkAudioName": "",
      "actionBefore": "",
      "actionWhile": "",
      "actionAfter": "",
      "optionIcon": "",
      "iconPath": ""
    },
    {
      "id": 690950323,
      "nextDialogs": [
        690950324
      ],
      "talkShowType": "TALK_SHOW_FORCE_SELECT",
      "talkRole": {
        "type": "TALK_ROLE_PLAYER",
        "_id": ""
      },
      "talkContentTextMapHash": 1872792666,
      "talkAssetPath": "",
      "talkAssetPathAlter": "",
      "talkAudioName": "",
      "actionBefore": "",
      "actionWhile": "",
      "actionAfter": "",
      "optionIcon": "",
      "iconPath": ""
    },
    {
      "id": 690950324,
      "nextDialogs": [
        690950325
      ],
      "talkRole": {
        "type": "TALK_ROLE_NPC",
        "_id": "9095"
      },
      "talkContentTextMapHash": 4149449506,
      "talkAssetPath": "",
      "talkAssetPathAlter": "",
      "talkAudioName": "",
      "actionBefore": "",
      "actionWhile": "",
      "actionAfter": "",
      "optionIcon": "",
      "iconPath": ""
    },
    {
      "id": 690950325,
      "nextDialogs": [
        690950326
      ],
      "talkRole": {
        "type": "TALK_ROLE_NPC",
        "_id": "9095"
      },
      "talkContentTextMapHash": 2119644194,
      "talkAssetPath": "",
      "talkAssetPathAlter": "",
      "talkAudioName": "",
      "actionBefore": "",
      "actionWhile": "",
      "actionAfter": "",
      "optionIcon": "",
      "iconPath": ""
    },
    {
      "id": 690950326,
      "nextDialogs": [
        690950327
      ],
      "talkRole": {
        "type": "TALK_ROLE_NPC",
        "_id": "9095"
      },
      "talkContentTextMapHash": 2495490866,
      "talkAssetPath": "",
      "talkAssetPathAlter": "",
      "talkAudioName": "",
      "actionBefore": "",
      "actionWhile": "",
      "actionAfter": "",
      "optionIcon": "",
      "iconPath": ""
    },
    {
      "id": 690950327,
      "nextDialogs": [
        690950328
      ],
      "talkRole": {
        "type": "TALK_ROLE_NPC",
        "_id": "9095"
      },
      "talkContentTextMapHash": 3192447866,
      "talkAssetPath": "",
      "talkAssetPathAlter": "",
      "talkAudioName": "",
      "actionBefore": "",
      "actionWhile": "",
      "actionAfter": "",
      "optionIcon": "",
      "iconPath": ""
    },
    {
      "id": 690950328,
      "nextDialogs": [
        690950329
      ],
      "talkRole": {
        "type": "TALK_ROLE_NPC",
        "_id": "9095"
      },
      "talkContentTextMapHash": 2906014170,
      "talkAssetPath": "",
      "talkAssetPathAlter": "",
      "talkAudioName": "",
      "actionBefore": "",
      "actionWhile": "",
      "actionAfter": "",
      "optionIcon": "",
      "iconPath": ""
    },
    {
      "id": 690950329,
      "nextDialogs": [
        690950330
      ],
      "talkShowType": "TALK_SHOW_FORCE_SELECT",
      "talkRole": {
        "type": "TALK_ROLE_PLAYER",
        "_id": ""
      },
      "talkContentTextMapHash": 104931226,
      "talkAssetPath": "",
      "talkAssetPathAlter": "",
      "talkAudioName": "",
      "actionBefore": "",
      "actionWhile": "",
      "actionAfter": "",
      "optionIcon": "",
      "iconPath": ""
    },
    {
      "id": 690950330,
      "nextDialogs": [
        690950331
      ],
      "talkRole": {
        "type": "TALK_ROLE_NPC",
        "_id": "9095"
      },
      "talkContentTextMapHash": 2780095378,
      "talkAssetPath": "",
      "talkAssetPathAlter": "",
      "talkAudioName": "",
      "actionBefore": "",
      "actionWhile": "",
      "actionAfter": "",
      "optionIcon": "",
      "iconPath": ""
    },
    {
      "id": 690950331,
      "talkRole": {
        "type": "TALK_ROLE_NPC",
        "_id": "9095"
      },
      "talkContentTextMapHash": 3952090762,
      "talkAssetPath": "",
      "talkAssetPathAlter": "",
      "talkAudioName": "",
      "actionBefore": "",
      "actionWhile": "",
      "actionAfter": "",
      "optionIcon": "",
      "iconPath": ""
    },
    {
      "id": 690950310,
      "nextDialogs": [
        690950311
      ],
      "talkShowType": "TALK_SHOW_FORCE_SELECT",
      "talkRole": {
        "type": "TALK_ROLE_PLAYER",
        "_id": ""
      },
      "talkContentTextMapHash": 2242323762,
      "talkAssetPath": "",
      "talkAssetPathAlter": "",
      "talkAudioName": "",
      "actionBefore": "",
      "actionWhile": "",
      "actionAfter": "",
      "optionIcon": "",
      "iconPath": ""
    },
    {
      "id": 690950311,
      "nextDialogs": [
        690950312
      ],
      "talkRole": {
        "type": "TALK_ROLE_NPC",
        "_id": "9095"
      },
      "talkContentTextMapHash": 3021360394,
      "talkAssetPath": "",
      "talkAssetPathAlter": "",
      "talkAudioName": "",
      "actionBefore": "",
      "actionWhile": "",
      "actionAfter": "",
      "optionIcon": "",
      "iconPath": ""
    },
    {
      "id": 690950312,
      "nextDialogs": [
        690950313
      ],
      "talkRole": {
        "type": "TALK_ROLE_NPC",
        "_id": "9095"
      },
      "talkContentTextMapHash": 3956385026,
      "talkAssetPath": "",
      "talkAssetPathAlter": "",
      "talkAudioName": "",
      "actionBefore": "",
      "actionWhile": "",
      "actionAfter": "",
      "optionIcon": "",
      "iconPath": ""
    },
    {
      "id": 690950313,
      "nextDialogs": [
        690950314
      ],
      "talkRole": {
        "type": "TALK_ROLE_NPC",
        "_id": "9095"
      },
      "talkContentTextMapHash": 1784913698,
      "talkAssetPath": "",
      "talkAssetPathAlter": "",
      "talkAudioName": "",
      "actionBefore": "",
      "actionWhile": "",
      "actionAfter": "",
      "optionIcon": "",
      "iconPath": ""
    }
  ]
}