{
  "talkId": 6930303,
  "KPGKDHAFHFE": "FREE",
  "dialogList": [
    {
      "id": 693030301,
      "nextDialogs": [
        693030302
      ],
      "talkRole": {
        "type": "TALK_ROLE_NPC",
        "_id": "9303"
      },
      "talkContentTextMapHash": 2833269018,
      "talkAssetPath": "",
      "talkAssetPathAlter": "",
      "talkAudioName": "",
      "actionBefore": "",
      "actionWhile": "",
      "actionAfter": "",
      "optionIcon": "",
      "iconPath": ""
    },
    {
      "id": 693030302,
      "nextDialogs": [
        693030303
      ],
      "talkRole": {
        "type": "TALK_ROLE_NPC",
        "_id": "9303"
      },
      "talkContentTextMapHash": 1244484562,
      "talkAssetPath": "",
      "talkAssetPathAlter": "",
      "talkAudioName": "",
      "actionBefore": "",
      "actionWhile": "",
      "actionAfter": "",
      "optionIcon": "",
      "iconPath": ""
    },
    {
      "id": 693030303,
      "talkRole": {
        "type": "TALK_ROLE_NPC",
        "_id": "9303"
      },
      "talkContentTextMapHash": 1386431690,
      "talkAssetPath": "",
      "talkAssetPathAlter": "",
      "talkAudioName": "",
      "actionBefore": "",
      "actionWhile": "",
      "actionAfter": "",
      "optionIcon": "",
      "iconPath": ""
    }
  ]
}