{
  "talkId": 6930503,
  "KPGKDHAFHFE": "FREE",
  "dialogList": [
    {
      "id": 693050301,
      "nextDialogs": [
        693050302
      ],
      "talkRole": {
        "type": "TALK_ROLE_NPC",
        "_id": "9305"
      },
      "talkContentTextMapHash": 2111892874,
      "talkAssetPath": "",
      "talkAssetPathAlter": "",
      "talkAudioName": "",
      "actionBefore": "",
      "actionWhile": "",
      "actionAfter": "",
      "optionIcon": "",
      "iconPath": ""
    },
    {
      "id": 693050302,
      "nextDialogs": [
        693050303
      ],
      "talkRole": {
        "type": "TALK_ROLE_NPC",
        "_id": "9305"
      },
      "talkContentTextMapHash": 3109638258,
      "talkAssetPath": "",
      "talkAssetPathAlter": "",
      "talkAudioName": "",
      "actionBefore": "",
      "actionWhile": "",
      "actionAfter": "",
      "optionIcon": "",
      "iconPath": ""
    },
    {
      "id": 693050303,
      "talkRole": {
        "type": "TALK_ROLE_NPC",
        "_id": "9305"
      },
      "talkContentTextMapHash": 174424514,
      "talkAssetPath": "",
      "talkAssetPathAlter": "",
      "talkAudioName": "",
      "actionBefore": "",
      "actionWhile": "",
      "actionAfter": "",
      "optionIcon": "",
      "iconPath": ""
    }
  ]
}