{
  "talkId": 6930501,
  "KPGKDHAFHFE": "FREE",
  "dialogList": [
    {
      "id": 693050101,
      "nextDialogs": [
        693050102
      ],
      "talkRole": {
        "type": "TALK_ROLE_NPC",
        "_id": "9305"
      },
      "talkContentTextMapHash": 799908898,
      "talkAssetPath": "",
      "talkAssetPathAlter": "",
      "talkAudioName": "",
      "actionBefore": "",
      "actionWhile": "",
      "actionAfter": "",
      "optionIcon": "",
      "iconPath": ""
    },
    {
      "id": 693050102,
      "nextDialogs": [
        693050103
      ],
      "talkRole": {
        "type": "TALK_ROLE_NPC",
        "_id": "9305"
      },
      "talkContentTextMapHash": 2966777842,
      "talkAssetPath": "",
      "talkAssetPathAlter": "",
      "talkAudioName": "",
      "actionBefore": "",
      "actionWhile": "",
      "actionAfter": "",
      "optionIcon": "",
      "iconPath": ""
    },
    {
      "id": 693050103,
      "talkRole": {
        "type": "TALK_ROLE_NPC",
        "_id": "9305"
      },
      "talkContentTextMapHash": 1906306506,
      "talkAssetPath": "",
      "talkAssetPathAlter": "",
      "talkAudioName": "",
      "actionBefore": "",
      "actionWhile": "",
      "actionAfter": "",
      "optionIcon": "",
      "iconPath": ""
    }
  ]
}