{
  "talkId": 6931501,
  "KPGKDHAFHFE": "FREE",
  "dialogList": [
    {
      "id": 693150101,
      "nextDialogs": [
        693150102
      ],
      "talkRole": {
        "type": "TALK_ROLE_NPC",
        "_id": "9315"
      },
      "talkContentTextMapHash": 2041906562,
      "talkAssetPath": "",
      "talkAssetPathAlter": "",
      "talkAudioName": "",
      "actionBefore": "",
      "actionWhile": "",
      "actionAfter": "",
      "optionIcon": "",
      "iconPath": ""
    },
    {
      "id": 693150102,
      "nextDialogs": [
        693150103
      ],
      "talkRole": {
        "type": "TALK_ROLE_NPC",
        "_id": "9315"
      },
      "talkContentTextMapHash": 3926331042,
      "talkAssetPath": "",
      "talkAssetPathAlter": "",
      "talkAudioName": "",
      "actionBefore": "",
      "actionWhile": "",
      "actionAfter": "",
      "optionIcon": "",
      "iconPath": ""
    },
    {
      "id": 693150103,
      "talkRole": {
        "type": "TALK_ROLE_NPC",
        "_id": "9315"
      },
      "talkContentTextMapHash": 3279808730,
      "talkAssetPath": "",
      "talkAssetPathAlter": "",
      "talkAudioName": "",
      "actionBefore": "",
      "actionWhile": "",
      "actionAfter": "",
      "optionIcon": "",
      "iconPath": ""
    }
  ]
}