{
  "talkId": 6931502,
  "KPGKDHAFHFE": "FREE",
  "dialogList": [
    {
      "id": 693150201,
      "nextDialogs": [
        693150202
      ],
      "talkRole": {
        "type": "TALK_ROLE_NPC",
        "_id": "9315"
      },
      "talkContentTextMapHash": 3263950010,
      "talkAssetPath": "",
      "talkAssetPathAlter": "",
      "talkAudioName": "",
      "actionBefore": "",
      "actionWhile": "",
      "actionAfter": "",
      "optionIcon": "",
      "iconPath": ""
    },
    {
      "id": 693150202,
      "nextDialogs": [
        693150203
      ],
      "talkRole": {
        "type": "TALK_ROLE_NPC",
        "_id": "9315"
      },
      "talkContentTextMapHash": 2267748962,
      "talkAssetPath": "",
      "talkAssetPathAlter": "",
      "talkAudioName": "",
      "actionBefore": "",
      "actionWhile": "",
      "actionAfter": "",
      "optionIcon": "",
      "iconPath": ""
    },
    {
      "id": 693150203,
      "talkRole": {
        "type": "TALK_ROLE_NPC",
        "_id": "9315"
      },
      "talkContentTextMapHash": 261954146,
      "talkAssetPath": "",
      "talkAssetPathAlter": "",
      "talkAudioName": "",
      "actionBefore": "",
      "actionWhile": "",
      "actionAfter": "",
      "optionIcon": "",
      "iconPath": ""
    }
  ]
}