{
  "talkId": 6932502,
  "KPGKDHAFHFE": "FREE",
  "dialogList": [
    {
      "id": 693250201,
      "nextDialogs": [
        693250202
      ],
      "talkRole": {
        "type": "TALK_ROLE_NPC",
        "_id": "9325"
      },
      "talkContentTextMapHash": 2496133882,
      "talkAssetPath": "",
      "talkAssetPathAlter": "",
      "talkAudioName": "",
      "actionBefore": "",
      "actionWhile": "",
      "actionAfter": "",
      "optionIcon": "",
      "iconPath": ""
    },
    {
      "id": 693250202,
      "nextDialogs": [
        693250203
      ],
      "talkRole": {
        "type": "TALK_ROLE_NPC",
        "_id": "9325"
      },
      "talkContentTextMapHash": 1098225266,
      "talkAssetPath": "",
      "talkAssetPathAlter": "",
      "talkAudioName": "",
      "actionBefore": "",
      "actionWhile": "",
      "actionAfter": "",
      "optionIcon": "",
      "iconPath": ""
    },
    {
      "id": 693250203,
      "talkRole": {
        "type": "TALK_ROLE_NPC",
        "_id": "9325"
      },
      "talkContentTextMapHash": 892708986,
      "talkAssetPath": "",
      "talkAssetPathAlter": "",
      "talkAudioName": "",
      "actionBefore": "",
      "actionWhile": "",
      "actionAfter": "",
      "optionIcon": "",
      "iconPath": ""
    }
  ]
}