{
  "talkId": 6932701,
  "KPGKDHAFHFE": "FREE",
  "dialogList": [
    {
      "id": 693270101,
      "nextDialogs": [
        693270102
      ],
      "talkRole": {
        "type": "TALK_ROLE_NPC",
        "_id": "9327"
      },
      "talkContentTextMapHash": 3452603698,
      "talkAssetPath": "",
      "talkAssetPathAlter": "",
      "talkAudioName": "",
      "actionBefore": "",
      "actionWhile": "",
      "actionAfter": "",
      "optionIcon": "",
      "iconPath": ""
    },
    {
      "id": 693270102,
      "nextDialogs": [
        693270103
      ],
      "talkRole": {
        "type": "TALK_ROLE_NPC",
        "_id": "9327"
      },
      "talkContentTextMapHash": 3831762074,
      "talkAssetPath": "",
      "talkAssetPathAlter": "",
      "talkAudioName": "",
      "actionBefore": "",
      "actionWhile": "",
      "actionAfter": "",
      "optionIcon": "",
      "iconPath": ""
    },
    {
      "id": 693270103,
      "talkRole": {
        "type": "TALK_ROLE_NPC",
        "_id": "9327"
      },
      "talkContentTextMapHash": 1129650642,
      "talkAssetPath": "",
      "talkAssetPathAlter": "",
      "talkAudioName": "",
      "actionBefore": "",
      "actionWhile": "",
      "actionAfter": "",
      "optionIcon": "",
      "iconPath": ""
    }
  ]
}