{
  "talkId": 6932102,
  "KPGKDHAFHFE": "FREE",
  "dialogList": [
    {
      "id": 693210201,
      "nextDialogs": [
        693210202
      ],
      "talkRole": {
        "type": "TALK_ROLE_NPC",
        "_id": "9321"
      },
      "talkContentTextMapHash": 2207342266,
      "talkAssetPath": "",
      "talkAssetPathAlter": "",
      "talkAudioName": "",
      "actionBefore": "",
      "actionWhile": "",
      "actionAfter": "",
      "optionIcon": "",
      "iconPath": ""
    },
    {
      "id": 693210202,
      "nextDialogs": [
        693210203
      ],
      "talkRole": {
        "type": "TALK_ROLE_NPC",
        "_id": "9321"
      },
      "talkContentTextMapHash": 233790906,
      "talkAssetPath": "",
      "talkAssetPathAlter": "",
      "talkAudioName": "",
      "actionBefore": "",
      "actionWhile": "",
      "actionAfter": "",
      "optionIcon": "",
      "iconPath": ""
    },
    {
      "id": 693210203,
      "talkRole": {
        "type": "TALK_ROLE_NPC",
        "_id": "9321"
      },
      "talkContentTextMapHash": 1935897042,
      "talkAssetPath": "",
      "talkAssetPathAlter": "",
      "talkAudioName": "",
      "actionBefore": "",
      "actionWhile": "",
      "actionAfter": "",
      "optionIcon": "",
      "iconPath": ""
    }
  ]
}