{
  "talkId": 6933501,
  "KPGKDHAFHFE": "FREE",
  "dialogList": [
    {
      "id": 693350101,
      "nextDialogs": [
        693350102
      ],
      "talkRole": {
        "type": "TALK_ROLE_NPC",
        "_id": "9335"
      },
      "talkContentTextMapHash": 2465411194,
      "talkAssetPath": "",
      "talkAssetPathAlter": "",
      "talkAudioName": "",
      "actionBefore": "",
      "actionWhile": "",
      "actionAfter": "",
      "optionIcon": "",
      "iconPath": ""
    },
    {
      "id": 693350102,
      "nextDialogs": [
        693350103
      ],
      "talkRole": {
        "type": "TALK_ROLE_NPC",
        "_id": "9335"
      },
      "talkContentTextMapHash": 1812722042,
      "talkAssetPath": "",
      "talkAssetPathAlter": "",
      "talkAudioName": "",
      "actionBefore": "",
      "actionWhile": "",
      "actionAfter": "",
      "optionIcon": "",
      "iconPath": ""
    },
    {
      "id": 693350103,
      "talkRole": {
        "type": "TALK_ROLE_NPC",
        "_id": "9335"
      },
      "talkContentTextMapHash": 3863754802,
      "talkAssetPath": "",
      "talkAssetPathAlter": "",
      "talkAudioName": "",
      "actionBefore": "",
      "actionWhile": "",
      "actionAfter": "",
      "optionIcon": "",
      "iconPath": ""
    }
  ]
}