{
  "talkId": 6933101,
  "KPGKDHAFHFE": "FREE",
  "dialogList": [
    {
      "id": 693310101,
      "nextDialogs": [
        693310102
      ],
      "talkRole": {
        "type": "TALK_ROLE_NPC",
        "_id": "9331"
      },
      "talkContentTextMapHash": 2582831226,
      "talkAssetPath": "",
      "talkAssetPathAlter": "",
      "talkAudioName": "",
      "actionBefore": "",
      "actionWhile": "",
      "actionAfter": "",
      "optionIcon": "",
      "iconPath": ""
    },
    {
      "id": 693310102,
      "nextDialogs": [
        693310103
      ],
      "talkRole": {
        "type": "TALK_ROLE_NPC",
        "_id": "9331"
      },
      "talkContentTextMapHash": 2921519418,
      "talkAssetPath": "",
      "talkAssetPathAlter": "",
      "talkAudioName": "",
      "actionBefore": "",
      "actionWhile": "",
      "actionAfter": "",
      "optionIcon": "",
      "iconPath": ""
    },
    {
      "id": 693310103,
      "talkRole": {
        "type": "TALK_ROLE_NPC",
        "_id": "9331"
      },
      "talkContentTextMapHash": 401706562,
      "talkAssetPath": "",
      "talkAssetPathAlter": "",
      "talkAudioName": "",
      "actionBefore": "",
      "actionWhile": "",
      "actionAfter": "",
      "optionIcon": "",
      "iconPath": ""
    }
  ]
}