{
  "talkId": 6933401,
  "KPGKDHAFHFE": "FREE",
  "dialogList": [
    {
      "id": 693340101,
      "nextDialogs": [
        693340102
      ],
      "talkRole": {
        "type": "TALK_ROLE_NPC",
        "_id": "9334"
      },
      "talkContentTextMapHash": 4220379514,
      "talkAssetPath": "",
      "talkAssetPathAlter": "",
      "talkAudioName": "",
      "actionBefore": "",
      "actionWhile": "",
      "actionAfter": "",
      "optionIcon": "",
      "iconPath": ""
    },
    {
      "id": 693340102,
      "nextDialogs": [
        693340103
      ],
      "talkRole": {
        "type": "TALK_ROLE_NPC",
        "_id": "9334"
      },
      "talkContentTextMapHash": 1167843066,
      "talkAssetPath": "",
      "talkAssetPathAlter": "",
      "talkAudioName": "",
      "actionBefore": "",
      "actionWhile": "",
      "actionAfter": "",
      "optionIcon": "",
      "iconPath": ""
    },
    {
      "id": 693340103,
      "talkRole": {
        "type": "TALK_ROLE_NPC",
        "_id": "9334"
      },
      "talkContentTextMapHash": 2160839570,
      "talkAssetPath": "",
      "talkAssetPathAlter": "",
      "talkAudioName": "",
      "actionBefore": "",
      "actionWhile": "",
      "actionAfter": "",
      "optionIcon": "",
      "iconPath": ""
    }
  ]
}