{
  "talkId": 6934202,
  "KPGKDHAFHFE": "FREE",
  "dialogList": [
    {
      "id": 693420201,
      "nextDialogs": [
        693420202
      ],
      "talkRole": {
        "type": "TALK_ROLE_NPC",
        "_id": "9342"
      },
      "talkContentTextMapHash": 642643018,
      "talkAssetPath": "",
      "talkAssetPathAlter": "",
      "talkAudioName": "",
      "actionBefore": "",
      "actionWhile": "",
      "actionAfter": "",
      "optionIcon": "",
      "iconPath": ""
    },
    {
      "id": 693420202,
      "nextDialogs": [
        693420203
      ],
      "talkRole": {
        "type": "TALK_ROLE_NPC",
        "_id": "9342"
      },
      "talkContentTextMapHash": 4042654498,
      "talkAssetPath": "",
      "talkAssetPathAlter": "",
      "talkAudioName": "",
      "actionBefore": "",
      "actionWhile": "",
      "actionAfter": "",
      "optionIcon": "",
      "iconPath": ""
    },
    {
      "id": 693420203,
      "talkRole": {
        "type": "TALK_ROLE_NPC",
        "_id": "9342"
      },
      "talkContentTextMapHash": 2482011698,
      "talkAssetPath": "",
      "talkAssetPathAlter": "",
      "talkAudioName": "",
      "actionBefore": "",
      "actionWhile": "",
      "actionAfter": "",
      "optionIcon": "",
      "iconPath": ""
    }
  ]
}