{
  "talkId": 6934901,
  "KPGKDHAFHFE": "FREE",
  "dialogList": [
    {
      "id": 693490101,
      "nextDialogs": [
        693490102
      ],
      "talkRole": {
        "type": "TALK_ROLE_NPC",
        "_id": "9349"
      },
      "talkContentTextMapHash": 271569058,
      "talkAssetPath": "",
      "talkAssetPathAlter": "",
      "talkAudioName": "",
      "actionBefore": "",
      "actionWhile": "",
      "actionAfter": "",
      "optionIcon": "",
      "iconPath": ""
    },
    {
      "id": 693490102,
      "nextDialogs": [
        693490103
      ],
      "talkRole": {
        "type": "TALK_ROLE_NPC",
        "_id": "9349"
      },
      "talkContentTextMapHash": 1362806482,
      "talkAssetPath": "",
      "talkAssetPathAlter": "",
      "talkAudioName": "",
      "actionBefore": "",
      "actionWhile": "",
      "actionAfter": "",
      "optionIcon": "",
      "iconPath": ""
    },
    {
      "id": 693490103,
      "talkRole": {
        "type": "TALK_ROLE_NPC",
        "_id": "9349"
      },
      "talkContentTextMapHash": 980515338,
      "talkAssetPath": "",
      "talkAssetPathAlter": "",
      "talkAudioName": "",
      "actionBefore": "",
      "actionWhile": "",
      "actionAfter": "",
      "optionIcon": "",
      "iconPath": ""
    }
  ]
}