{
  "talkId": 6934201,
  "KPGKDHAFHFE": "FREE",
  "dialogList": [
    {
      "id": 693420101,
      "nextDialogs": [
        693420102
      ],
      "talkRole": {
        "type": "TALK_ROLE_NPC",
        "_id": "9342"
      },
      "talkContentTextMapHash": 2081568346,
      "talkAssetPath": "",
      "talkAssetPathAlter": "",
      "talkAudioName": "",
      "actionBefore": "",
      "actionWhile": "",
      "actionAfter": "",
      "optionIcon": "",
      "iconPath": ""
    },
    {
      "id": 693420102,
      "nextDialogs": [
        693420103
      ],
      "talkRole": {
        "type": "TALK_ROLE_NPC",
        "_id": "9342"
      },
      "talkContentTextMapHash": 661359170,
      "talkAssetPath": "",
      "talkAssetPathAlter": "",
      "talkAudioName": "",
      "actionBefore": "",
      "actionWhile": "",
      "actionAfter": "",
      "optionIcon": "",
      "iconPath": ""
    },
    {
      "id": 693420103,
      "talkRole": {
        "type": "TALK_ROLE_NPC",
        "_id": "9342"
      },
      "talkContentTextMapHash": 112938594,
      "talkAssetPath": "",
      "talkAssetPathAlter": "",
      "talkAudioName": "",
      "actionBefore": "",
      "actionWhile": "",
      "actionAfter": "",
      "optionIcon": "",
      "iconPath": ""
    }
  ]
}