{
  "talkId": 6934002,
  "KPGKDHAFHFE": "FREE",
  "dialogList": [
    {
      "id": 693400201,
      "nextDialogs": [
        693400202
      ],
      "talkRole": {
        "type": "TALK_ROLE_NPC",
        "_id": "9340"
      },
      "talkContentTextMapHash": 3025286226,
      "talkAssetPath": "",
      "talkAssetPathAlter": "",
      "talkAudioName": "",
      "actionBefore": "",
      "actionWhile": "",
      "actionAfter": "",
      "optionIcon": "",
      "iconPath": ""
    },
    {
      "id": 693400202,
      "nextDialogs": [
        693400203
      ],
      "talkRole": {
        "type": "TALK_ROLE_NPC",
        "_id": "9340"
      },
      "talkContentTextMapHash": 2766247802,
      "talkAssetPath": "",
      "talkAssetPathAlter": "",
      "talkAudioName": "",
      "actionBefore": "",
      "actionWhile": "",
      "actionAfter": "",
      "optionIcon": "",
      "iconPath": ""
    },
    {
      "id": 693400203,
      "talkRole": {
        "type": "TALK_ROLE_NPC",
        "_id": "9340"
      },
      "talkContentTextMapHash": 3851286506,
      "talkAssetPath": "",
      "talkAssetPathAlter": "",
      "talkAudioName": "",
      "actionBefore": "",
      "actionWhile": "",
      "actionAfter": "",
      "optionIcon": "",
      "iconPath": ""
    }
  ]
}