{
  "talkId": 6934702,
  "KPGKDHAFHFE": "FREE",
  "dialogList": [
    {
      "id": 693470201,
      "nextDialogs": [
        693470202
      ],
      "talkRole": {
        "type": "TALK_ROLE_NPC",
        "_id": "9347"
      },
      "talkContentTextMapHash": 2561879474,
      "talkAssetPath": "",
      "talkAssetPathAlter": "",
      "talkAudioName": "",
      "actionBefore": "",
      "actionWhile": "",
      "actionAfter": "",
      "optionIcon": "",
      "iconPath": ""
    },
    {
      "id": 693470202,
      "nextDialogs": [
        693470203
      ],
      "talkRole": {
        "type": "TALK_ROLE_NPC",
        "_id": "9347"
      },
      "talkContentTextMapHash": 2308268354,
      "talkAssetPath": "",
      "talkAssetPathAlter": "",
      "talkAudioName": "",
      "actionBefore": "",
      "actionWhile": "",
      "actionAfter": "",
      "optionIcon": "",
      "iconPath": ""
    },
    {
      "id": 693470203,
      "talkRole": {
        "type": "TALK_ROLE_NPC",
        "_id": "9347"
      },
      "talkContentTextMapHash": 1201721010,
      "talkAssetPath": "",
      "talkAssetPathAlter": "",
      "talkAudioName": "",
      "actionBefore": "",
      "actionWhile": "",
      "actionAfter": "",
      "optionIcon": "",
      "iconPath": ""
    }
  ]
}