{
  "talkId": 6934101,
  "KPGKDHAFHFE": "FREE",
  "dialogList": [
    {
      "id": 693410101,
      "nextDialogs": [
        693410102
      ],
      "talkRole": {
        "type": "TALK_ROLE_NPC",
        "_id": "9341"
      },
      "talkContentTextMapHash": 2788880114,
      "talkAssetPath": "",
      "talkAssetPathAlter": "",
      "talkAudioName": "",
      "actionBefore": "",
      "actionWhile": "",
      "actionAfter": "",
      "optionIcon": "",
      "iconPath": ""
    },
    {
      "id": 693410102,
      "nextDialogs": [
        693410103
      ],
      "talkRole": {
        "type": "TALK_ROLE_NPC",
        "_id": "9341"
      },
      "talkContentTextMapHash": 1857998450,
      "talkAssetPath": "",
      "talkAssetPathAlter": "",
      "talkAudioName": "",
      "actionBefore": "",
      "actionWhile": "",
      "actionAfter": "",
      "optionIcon": "",
      "iconPath": ""
    },
    {
      "id": 693410103,
      "talkRole": {
        "type": "TALK_ROLE_NPC",
        "_id": "9341"
      },
      "talkContentTextMapHash": 469921698,
      "talkAssetPath": "",
      "talkAssetPathAlter": "",
      "talkAudioName": "",
      "actionBefore": "",
      "actionWhile": "",
      "actionAfter": "",
      "optionIcon": "",
      "iconPath": ""
    }
  ]
}