{
  "talkId": 6934503,
  "KPGKDHAFHFE": "FREE",
  "dialogList": [
    {
      "id": 693450301,
      "nextDialogs": [
        693450302
      ],
      "talkRole": {
        "type": "TALK_ROLE_NPC",
        "_id": "9345"
      },
      "talkContentTextMapHash": 506470322,
      "talkAssetPath": "",
      "talkAssetPathAlter": "",
      "talkAudioName": "",
      "actionBefore": "",
      "actionWhile": "",
      "actionAfter": "",
      "optionIcon": "",
      "iconPath": ""
    },
    {
      "id": 693450302,
      "nextDialogs": [
        693450303
      ],
      "talkRole": {
        "type": "TALK_ROLE_NPC",
        "_id": "9345"
      },
      "talkContentTextMapHash": 451112394,
      "talkAssetPath": "",
      "talkAssetPathAlter": "",
      "talkAudioName": "",
      "actionBefore": "",
      "actionWhile": "",
      "actionAfter": "",
      "optionIcon": "",
      "iconPath": ""
    },
    {
      "id": 693450303,
      "talkRole": {
        "type": "TALK_ROLE_NPC",
        "_id": "9345"
      },
      "talkContentTextMapHash": 2204474282,
      "talkAssetPath": "",
      "talkAssetPathAlter": "",
      "talkAudioName": "",
      "actionBefore": "",
      "actionWhile": "",
      "actionAfter": "",
      "optionIcon": "",
      "iconPath": ""
    }
  ]
}