{
  "talkId": 6935902,
  "KPGKDHAFHFE": "FREE",
  "dialogList": [
    {
      "id": 693590201,
      "nextDialogs": [
        693590202
      ],
      "talkRole": {
        "type": "TALK_ROLE_NPC",
        "_id": "9359"
      },
      "talkContentTextMapHash": 3704045386,
      "talkAssetPath": "",
      "talkAssetPathAlter": "",
      "talkAudioName": "",
      "actionBefore": "",
      "actionWhile": "",
      "actionAfter": "",
      "optionIcon": "",
      "iconPath": ""
    },
    {
      "id": 693590202,
      "nextDialogs": [
        693590203
      ],
      "talkRole": {
        "type": "TALK_ROLE_NPC",
        "_id": "9359"
      },
      "talkContentTextMapHash": 1830846858,
      "talkAssetPath": "",
      "talkAssetPathAlter": "",
      "talkAudioName": "",
      "actionBefore": "",
      "actionWhile": "",
      "actionAfter": "",
      "optionIcon": "",
      "iconPath": ""
    },
    {
      "id": 693590203,
      "talkRole": {
        "type": "TALK_ROLE_NPC",
        "_id": "9359"
      },
      "talkContentTextMapHash": 2834498346,
      "talkAssetPath": "",
      "talkAssetPathAlter": "",
      "talkAudioName": "",
      "actionBefore": "",
      "actionWhile": "",
      "actionAfter": "",
      "optionIcon": "",
      "iconPath": ""
    }
  ]
}