{
  "talkId": 6935402,
  "KPGKDHAFHFE": "FREE",
  "dialogList": [
    {
      "id": 693540201,
      "nextDialogs": [
        693540202
      ],
      "talkRole": {
        "type": "TALK_ROLE_NPC",
        "_id": "9354"
      },
      "talkContentTextMapHash": 3505069026,
      "talkAssetPath": "",
      "talkAssetPathAlter": "",
      "talkAudioName": "",
      "actionBefore": "",
      "actionWhile": "",
      "actionAfter": "",
      "optionIcon": "",
      "iconPath": ""
    },
    {
      "id": 693540202,
      "nextDialogs": [
        693540203
      ],
      "talkRole": {
        "type": "TALK_ROLE_NPC",
        "_id": "9354"
      },
      "talkContentTextMapHash": 2880745050,
      "talkAssetPath": "",
      "talkAssetPathAlter": "",
      "talkAudioName": "",
      "actionBefore": "",
      "actionWhile": "",
      "actionAfter": "",
      "optionIcon": "",
      "iconPath": ""
    },
    {
      "id": 693540203,
      "talkRole": {
        "type": "TALK_ROLE_NPC",
        "_id": "9354"
      },
      "talkContentTextMapHash": 3939844770,
      "talkAssetPath": "",
      "talkAssetPathAlter": "",
      "talkAudioName": "",
      "actionBefore": "",
      "actionWhile": "",
      "actionAfter": "",
      "optionIcon": "",
      "iconPath": ""
    }
  ]
}