{
  "talkId": 6935702,
  "KPGKDHAFHFE": "FREE",
  "dialogList": [
    {
      "id": 693570201,
      "nextDialogs": [
        693570202
      ],
      "talkRole": {
        "type": "TALK_ROLE_NPC",
        "_id": "9357"
      },
      "talkContentTextMapHash": 1048976778,
      "talkAssetPath": "",
      "talkAssetPathAlter": "",
      "talkAudioName": "",
      "actionBefore": "",
      "actionWhile": "",
      "actionAfter": "",
      "optionIcon": "",
      "iconPath": ""
    },
    {
      "id": 693570202,
      "nextDialogs": [
        693570203
      ],
      "talkRole": {
        "type": "TALK_ROLE_NPC",
        "_id": "9357"
      },
      "talkContentTextMapHash": 496321514,
      "talkAssetPath": "",
      "talkAssetPathAlter": "",
      "talkAudioName": "",
      "actionBefore": "",
      "actionWhile": "",
      "actionAfter": "",
      "optionIcon": "",
      "iconPath": ""
    },
    {
      "id": 693570203,
      "talkRole": {
        "type": "TALK_ROLE_NPC",
        "_id": "9357"
      },
      "talkContentTextMapHash": 4123046106,
      "talkAssetPath": "",
      "talkAssetPathAlter": "",
      "talkAudioName": "",
      "actionBefore": "",
      "actionWhile": "",
      "actionAfter": "",
      "optionIcon": "",
      "iconPath": ""
    }
  ]
}