{
  "talkId": 6935101,
  "KPGKDHAFHFE": "FREE",
  "dialogList": [
    {
      "id": 693510101,
      "nextDialogs": [
        693510102
      ],
      "talkRole": {
        "type": "TALK_ROLE_NPC",
        "_id": "9351"
      },
      "talkContentTextMapHash": 3217315546,
      "talkAssetPath": "",
      "talkAssetPathAlter": "",
      "talkAudioName": "",
      "actionBefore": "",
      "actionWhile": "",
      "actionAfter": "",
      "optionIcon": "",
      "iconPath": ""
    },
    {
      "id": 693510102,
      "nextDialogs": [
        693510103
      ],
      "talkRole": {
        "type": "TALK_ROLE_NPC",
        "_id": "9351"
      },
      "talkContentTextMapHash": 3311638242,
      "talkAssetPath": "",
      "talkAssetPathAlter": "",
      "talkAudioName": "",
      "actionBefore": "",
      "actionWhile": "",
      "actionAfter": "",
      "optionIcon": "",
      "iconPath": ""
    },
    {
      "id": 693510103,
      "talkRole": {
        "type": "TALK_ROLE_NPC",
        "_id": "9351"
      },
      "talkContentTextMapHash": 3454783170,
      "talkAssetPath": "",
      "talkAssetPathAlter": "",
      "talkAudioName": "",
      "actionBefore": "",
      "actionWhile": "",
      "actionAfter": "",
      "optionIcon": "",
      "iconPath": ""
    }
  ]
}