{
  "talkId": 6935903,
  "KPGKDHAFHFE": "FREE",
  "dialogList": [
    {
      "id": 693590301,
      "nextDialogs": [
        693590302
      ],
      "talkRole": {
        "type": "TALK_ROLE_NPC",
        "_id": "9359"
      },
      "talkContentTextMapHash": 2695218962,
      "talkAssetPath": "",
      "talkAssetPathAlter": "",
      "talkAudioName": "",
      "actionBefore": "",
      "actionWhile": "",
      "actionAfter": "",
      "optionIcon": "",
      "iconPath": ""
    },
    {
      "id": 693590302,
      "nextDialogs": [
        693590303
      ],
      "talkRole": {
        "type": "TALK_ROLE_NPC",
        "_id": "9359"
      },
      "talkContentTextMapHash": 256742418,
      "talkAssetPath": "",
      "talkAssetPathAlter": "",
      "talkAudioName": "",
      "actionBefore": "",
      "actionWhile": "",
      "actionAfter": "",
      "optionIcon": "",
      "iconPath": ""
    },
    {
      "id": 693590303,
      "talkRole": {
        "type": "TALK_ROLE_NPC",
        "_id": "9359"
      },
      "talkContentTextMapHash": 3954782562,
      "talkAssetPath": "",
      "talkAssetPathAlter": "",
      "talkAudioName": "",
      "actionBefore": "",
      "actionWhile": "",
      "actionAfter": "",
      "optionIcon": "",
      "iconPath": ""
    }
  ]
}