{
  "talkId": 6936903,
  "KPGKDHAFHFE": "FREE",
  "dialogList": [
    {
      "id": 693690301,
      "nextDialogs": [
        693690302
      ],
      "talkRole": {
        "type": "TALK_ROLE_NPC",
        "_id": "9369"
      },
      "talkContentTextMapHash": 1801730370,
      "talkAssetPath": "",
      "talkAssetPathAlter": "",
      "talkAudioName": "",
      "actionBefore": "",
      "actionWhile": "",
      "actionAfter": "",
      "optionIcon": "",
      "iconPath": ""
    },
    {
      "id": 693690302,
      "nextDialogs": [
        693690303
      ],
      "talkRole": {
        "type": "TALK_ROLE_NPC",
        "_id": "9369"
      },
      "talkContentTextMapHash": 1663302578,
      "talkAssetPath": "",
      "talkAssetPathAlter": "",
      "talkAudioName": "",
      "actionBefore": "",
      "actionWhile": "",
      "actionAfter": "",
      "optionIcon": "",
      "iconPath": ""
    },
    {
      "id": 693690303,
      "talkRole": {
        "type": "TALK_ROLE_NPC",
        "_id": "9369"
      },
      "talkContentTextMapHash": 426746714,
      "talkAssetPath": "",
      "talkAssetPathAlter": "",
      "talkAudioName": "",
      "actionBefore": "",
      "actionWhile": "",
      "actionAfter": "",
      "optionIcon": "",
      "iconPath": ""
    }
  ]
}