{
  "talkId": 6936503,
  "KPGKDHAFHFE": "FREE",
  "dialogList": [
    {
      "id": 693650301,
      "nextDialogs": [
        693650302
      ],
      "talkRole": {
        "type": "TALK_ROLE_NPC",
        "_id": "9365"
      },
      "talkContentTextMapHash": 2023763498,
      "talkAssetPath": "",
      "talkAssetPathAlter": "",
      "talkAudioName": "",
      "actionBefore": "",
      "actionWhile": "",
      "actionAfter": "",
      "optionIcon": "",
      "iconPath": ""
    },
    {
      "id": 693650302,
      "nextDialogs": [
        693650303
      ],
      "talkRole": {
        "type": "TALK_ROLE_NPC",
        "_id": "9365"
      },
      "talkContentTextMapHash": 413792618,
      "talkRoleNameTextMapHash": 206775067,
      "talkAssetPath": "",
      "talkAssetPathAlter": "",
      "talkAudioName": "",
      "actionBefore": "",
      "actionWhile": "",
      "actionAfter": "",
      "optionIcon": "",
      "iconPath": ""
    },
    {
      "id": 693650303,
      "talkRole": {
        "type": "TALK_ROLE_NPC",
        "_id": "9365"
      },
      "talkContentTextMapHash": 251489890,
      "talkAssetPath": "",
      "talkAssetPathAlter": "",
      "talkAudioName": "",
      "actionBefore": "",
      "actionWhile": "",
      "actionAfter": "",
      "optionIcon": "",
      "iconPath": ""
    }
  ]
}