{
  "talkId": 6936801,
  "KPGKDHAFHFE": "FREE",
  "dialogList": [
    {
      "id": 693680101,
      "nextDialogs": [
        693680102
      ],
      "talkRole": {
        "type": "TALK_ROLE_NPC",
        "_id": "9368"
      },
      "talkContentTextMapHash": 909050266,
      "talkAssetPath": "",
      "talkAssetPathAlter": "",
      "talkAudioName": "",
      "actionBefore": "",
      "actionWhile": "",
      "actionAfter": "",
      "optionIcon": "",
      "iconPath": ""
    },
    {
      "id": 693680102,
      "nextDialogs": [
        693680103
      ],
      "talkRole": {
        "type": "TALK_ROLE_NPC",
        "_id": "9368"
      },
      "talkContentTextMapHash": 948736842,
      "talkAssetPath": "",
      "talkAssetPathAlter": "",
      "talkAudioName": "",
      "actionBefore": "",
      "actionWhile": "",
      "actionAfter": "",
      "optionIcon": "",
      "iconPath": ""
    },
    {
      "id": 693680103,
      "talkRole": {
        "type": "TALK_ROLE_NPC",
        "_id": "9368"
      },
      "talkContentTextMapHash": 3767665034,
      "talkAssetPath": "",
      "talkAssetPathAlter": "",
      "talkAudioName": "",
      "actionBefore": "",
      "actionWhile": "",
      "actionAfter": "",
      "optionIcon": "",
      "iconPath": ""
    }
  ]
}