{
  "talkId": 6937603,
  "KPGKDHAFHFE": "FREE",
  "dialogList": [
    {
      "id": 693760301,
      "nextDialogs": [
        693760302
      ],
      "talkRole": {
        "type": "TALK_ROLE_NPC",
        "_id": "9376"
      },
      "talkContentTextMapHash": 2425134874,
      "talkAssetPath": "",
      "talkAssetPathAlter": "",
      "talkAudioName": "",
      "actionBefore": "",
      "actionWhile": "",
      "actionAfter": "",
      "optionIcon": "",
      "iconPath": ""
    },
    {
      "id": 693760302,
      "nextDialogs": [
        693760303
      ],
      "talkRole": {
        "type": "TALK_ROLE_NPC",
        "_id": "9376"
      },
      "talkContentTextMapHash": 628221850,
      "talkAssetPath": "",
      "talkAssetPathAlter": "",
      "talkAudioName": "",
      "actionBefore": "",
      "actionWhile": "",
      "actionAfter": "",
      "optionIcon": "",
      "iconPath": ""
    },
    {
      "id": 693760303,
      "talkRole": {
        "type": "TALK_ROLE_NPC",
        "_id": "9376"
      },
      "talkContentTextMapHash": 1954789218,
      "talkAssetPath": "",
      "talkAssetPathAlter": "",
      "talkAudioName": "",
      "actionBefore": "",
      "actionWhile": "",
      "actionAfter": "",
      "optionIcon": "",
      "iconPath": ""
    }
  ]
}