{
  "talkId": 6937702,
  "KPGKDHAFHFE": "FREE",
  "dialogList": [
    {
      "id": 693770201,
      "nextDialogs": [
        693770202
      ],
      "talkRole": {
        "type": "TALK_ROLE_NPC",
        "_id": "9377"
      },
      "talkContentTextMapHash": 1803357586,
      "talkAssetPath": "",
      "talkAssetPathAlter": "",
      "talkAudioName": "",
      "actionBefore": "",
      "actionWhile": "",
      "actionAfter": "",
      "optionIcon": "",
      "iconPath": ""
    },
    {
      "id": 693770202,
      "nextDialogs": [
        693770203
      ],
      "talkRole": {
        "type": "TALK_ROLE_NPC",
        "_id": "9377"
      },
      "talkContentTextMapHash": 4268646898,
      "talkAssetPath": "",
      "talkAssetPathAlter": "",
      "talkAudioName": "",
      "actionBefore": "",
      "actionWhile": "",
      "actionAfter": "",
      "optionIcon": "",
      "iconPath": ""
    },
    {
      "id": 693770203,
      "talkRole": {
        "type": "TALK_ROLE_NPC",
        "_id": "9377"
      },
      "talkContentTextMapHash": 3166518434,
      "talkAssetPath": "",
      "talkAssetPathAlter": "",
      "talkAudioName": "",
      "actionBefore": "",
      "actionWhile": "",
      "actionAfter": "",
      "optionIcon": "",
      "iconPath": ""
    }
  ]
}