{
  "talkId": 6937001,
  "KPGKDHAFHFE": "FREE",
  "dialogList": [
    {
      "id": 693700101,
      "nextDialogs": [
        693700102
      ],
      "talkRole": {
        "type": "TALK_ROLE_NPC",
        "_id": "9370"
      },
      "talkContentTextMapHash": 1802097146,
      "talkAssetPath": "",
      "talkAssetPathAlter": "",
      "talkAudioName": "",
      "actionBefore": "",
      "actionWhile": "",
      "actionAfter": "",
      "optionIcon": "",
      "iconPath": ""
    },
    {
      "id": 693700102,
      "nextDialogs": [
        693700103
      ],
      "talkRole": {
        "type": "TALK_ROLE_NPC",
        "_id": "9370"
      },
      "talkContentTextMapHash": 628364650,
      "talkAssetPath": "",
      "talkAssetPathAlter": "",
      "talkAudioName": "",
      "actionBefore": "",
      "actionWhile": "",
      "actionAfter": "",
      "optionIcon": "",
      "iconPath": ""
    },
    {
      "id": 693700103,
      "talkRole": {
        "type": "TALK_ROLE_NPC",
        "_id": "9370"
      },
      "talkContentTextMapHash": 4171573514,
      "talkAssetPath": "",
      "talkAssetPathAlter": "",
      "talkAudioName": "",
      "actionBefore": "",
      "actionWhile": "",
      "actionAfter": "",
      "optionIcon": "",
      "iconPath": ""
    }
  ]
}