{
  "talkId": 6937002,
  "KPGKDHAFHFE": "FREE",
  "dialogList": [
    {
      "id": 693700201,
      "nextDialogs": [
        693700202
      ],
      "talkRole": {
        "type": "TALK_ROLE_NPC",
        "_id": "9370"
      },
      "talkContentTextMapHash": 3696586658,
      "talkAssetPath": "",
      "talkAssetPathAlter": "",
      "talkAudioName": "",
      "actionBefore": "",
      "actionWhile": "",
      "actionAfter": "",
      "optionIcon": "",
      "iconPath": ""
    },
    {
      "id": 693700202,
      "nextDialogs": [
        693700203
      ],
      "talkRole": {
        "type": "TALK_ROLE_NPC",
        "_id": "9370"
      },
      "talkContentTextMapHash": 935611730,
      "talkAssetPath": "",
      "talkAssetPathAlter": "",
      "talkAudioName": "",
      "actionBefore": "",
      "actionWhile": "",
      "actionAfter": "",
      "optionIcon": "",
      "iconPath": ""
    },
    {
      "id": 693700203,
      "talkRole": {
        "type": "TALK_ROLE_NPC",
        "_id": "9370"
      },
      "talkContentTextMapHash": 1291897650,
      "talkAssetPath": "",
      "talkAssetPathAlter": "",
      "talkAudioName": "",
      "actionBefore": "",
      "actionWhile": "",
      "actionAfter": "",
      "optionIcon": "",
      "iconPath": ""
    }
  ]
}