{
  "talkId": 6938001,
  "KPGKDHAFHFE": "FREE",
  "dialogList": [
    {
      "id": 693800101,
      "nextDialogs": [
        693800102
      ],
      "talkRole": {
        "type": "TALK_ROLE_NPC",
        "_id": "9380"
      },
      "talkContentTextMapHash": 2767027666,
      "talkAssetPath": "",
      "talkAssetPathAlter": "",
      "talkAudioName": "",
      "actionBefore": "",
      "actionWhile": "",
      "actionAfter": "",
      "optionIcon": "",
      "iconPath": ""
    },
    {
      "id": 693800102,
      "nextDialogs": [
        693800103
      ],
      "talkRole": {
        "type": "TALK_ROLE_NPC",
        "_id": "9380"
      },
      "talkContentTextMapHash": 45688610,
      "talkAssetPath": "",
      "talkAssetPathAlter": "",
      "talkAudioName": "",
      "actionBefore": "",
      "actionWhile": "",
      "actionAfter": "",
      "optionIcon": "",
      "iconPath": ""
    },
    {
      "id": 693800103,
      "talkRole": {
        "type": "TALK_ROLE_NPC",
        "_id": "9380"
      },
      "talkContentTextMapHash": 3168122066,
      "talkAssetPath": "",
      "talkAssetPathAlter": "",
      "talkAudioName": "",
      "actionBefore": "",
      "actionWhile": "",
      "actionAfter": "",
      "optionIcon": "",
      "iconPath": ""
    }
  ]
}