{
  "talkId": 6950001,
  "KPGKDHAFHFE": "FREE",
  "dialogList": [
    {
      "id": 695000101,
      "talkRole": {
        "type": "TALK_ROLE_NPC",
        "_id": "9500"
      },
      "talkContentTextMapHash": 646226378,
      "talkAssetPath": "",
      "talkAssetPathAlter": "",
      "talkAudioName": "",
      "actionBefore": "",
      "actionWhile": "",
      "actionAfter": "",
      "optionIcon": "",
      "iconPath": ""
    }
  ]
}