{
  "talkId": 6956810,
  "KPGKDHAFHFE": "FREE",
  "dialogList": [
    {
      "id": 695681001,
      "talkRole": {
        "type": "TALK_ROLE_NPC",
        "_id": "9568"
      },
      "talkContentTextMapHash": 3737663738,
      "talkAssetPath": "",
      "talkAssetPathAlter": "",
      "talkAudioName": "",
      "actionBefore": "",
      "actionWhile": "",
      "actionAfter": "",
      "optionIcon": "",
      "iconPath": ""
    }
  ]
}