{
  "talkId": 6956803,
  "KPGKDHAFHFE": "FREE",
  "dialogList": [
    {
      "id": 695680301,
      "nextDialogs": [
        695680302
      ],
      "talkRole": {
        "type": "TALK_ROLE_PLAYER",
        "_id": ""
      },
      "talkContentTextMapHash": 2176483138,
      "talkAssetPath": "",
      "talkAssetPathAlter": "",
      "talkAudioName": "",
      "actionBefore": "",
      "actionWhile": "",
      "actionAfter": "",
      "optionIcon": "",
      "iconPath": ""
    },
    {
      "id": 695680302,
      "talkRole": {
        "type": "TALK_ROLE_NPC",
        "_id": "9568"
      },
      "talkContentTextMapHash": 3523603458,
      "talkAssetPath": "",
      "talkAssetPathAlter": "",
      "talkAudioName": "",
      "actionBefore": "",
      "actionWhile": "",
      "actionAfter": "",
      "optionIcon": "",
      "iconPath": ""
    }
  ]
}