{
  "talkId": 6956707,
  "KPGKDHAFHFE": "FREE",
  "dialogList": [
    {
      "id": 695670601,
      "talkRole": {
        "type": "TALK_ROLE_NPC",
        "_id": "9567"
      },
      "talkContentTextMapHash": 2292550146,
      "talkAssetPath": "",
      "talkAssetPathAlter": "",
      "talkAudioName": "",
      "actionBefore": "",
      "actionWhile": "",
      "actionAfter": "",
      "optionIcon": "",
      "iconPath": ""
    }
  ]
}