{
  "talkId": 7090701,
  "damageRatio": "FREE",
  "dialogList": [
    {
      "id": 709070101,
      "nextDialogs": [
        709070102
      ],
      "talkShowType": "TALK_SHOW_FORCE_SELECT",
      "talkRole": {
        "type": "TALK_ROLE_PLAYER",
        "_id": ""
      },
      "talkContentTextMapHash": 3052053266,
      "talkAssetPath": "",
      "talkAssetPathAlter": "",
      "talkAudioName": "",
      "actionBefore": "",
      "actionWhile": "",
      "actionAfter": "",
      "optionIcon": "UI_Icon_Intee_TreasureBox",
      "iconPath": ""
    },
    {
      "id": 709070102,
      "nextDialogs": [
        709070103
      ],
      "talkRole": {
        "type": "TALK_ROLE_NPC",
        "_id": "1429"
      },
      "talkContentTextMapHash": 2513657042,
      "talkAssetPath": "",
      "talkAssetPathAlter": "",
      "talkAudioName": "",
      "actionBefore": "",
      "actionWhile": "",
      "actionAfter": "",
      "optionIcon": "",
      "PEMKNDAABBE": 1072884460,
      "iconPath": ""
    },
    {
      "id": 709070103,
      "nextDialogs": [
        709070104
      ],
      "talkRole": {
        "type": "TALK_ROLE_NPC",
        "_id": "1429"
      },
      "talkContentTextMapHash": 1055724258,
      "talkAssetPath": "",
      "talkAssetPathAlter": "",
      "talkAudioName": "",
      "actionBefore": "",
      "actionWhile": "",
      "actionAfter": "",
      "optionIcon": "",
      "PEMKNDAABBE": 3866076308,
      "iconPath": ""
    },
    {
      "id": 709070104,
      "nextDialogs": [
        709070105
      ],
      "talkRole": {
        "type": "TALK_ROLE_NPC",
        "_id": "1429"
      },
      "talkContentTextMapHash": 1754925834,
      "talkAssetPath": "",
      "talkAssetPathAlter": "",
      "talkAudioName": "",
      "actionBefore": "",
      "actionWhile": "",
      "actionAfter": "",
      "optionIcon": "",
      "PEMKNDAABBE": 3925708260,
      "iconPath": ""
    },
    {
      "id": 709070105,
      "nextDialogs": [
        709070106
      ],
      "talkRole": {
        "type": "TALK_ROLE_NPC",
        "_id": "1429"
      },
      "talkContentTextMapHash": 682326714,
      "talkAssetPath": "",
      "talkAssetPathAlter": "",
      "talkAudioName": "",
      "actionBefore": "",
      "actionWhile": "",
      "actionAfter": "",
      "optionIcon": "",
      "PEMKNDAABBE": 2027184780,
      "iconPath": ""
    },
    {
      "id": 709070106,
      "talkRole": {
        "type": "TALK_ROLE_NPC",
        "_id": "1429"
      },
      "talkContentTextMapHash": 3815483906,
      "talkAssetPath": "",
      "talkAssetPathAlter": "",
      "talkAudioName": "",
      "actionBefore": "",
      "actionWhile": "",
      "actionAfter": "",
      "optionIcon": "",
      "PEMKNDAABBE": 187265188,
      "iconPath": ""
    }
  ]
}