{
  "luaDataPath": "",
  "dontUseDefaultFinish": true,
  "startBlackKeepTime": 0.5,
  "entityBan": "",
  "disableNpcLod": true,
  "isAutoBanNpc": true,
  "isBanWidgetPet": true,
  "protectNpcMobileLod": true,
  "talkFlag": 103,
  "startFade": {
    "startFadeInDuration": 0.5,
    "startFadeOutDuration": 0.5
  },
  "endFade": {
    "startFadeOutDuration": 0.0
  },
  "actors": [
    {
      "alias": "Avatar",
      "visible": true,
      "bornPointName": "[3_9088:-1476.649,10.099,8719.934,0.000,232.960,0.000]",
      "relativePosType": "AVATAR_NEW",
      "relativePosNpcAlias": "",
      "_notDestroyInTalk": true,
      "_bindMovingTargetKey": ""
    },
    {
      "alias": "AvatarNpc",
      "visible": true,
      "bornPointName": "[3_9088:-1476.649,10.099,8719.934,0.000,232.960,0.000]",
      "removeActorType": "NEW_REMOVE",
      "relativePosType": "AVATAR_NEW",
      "relativePosNpcAlias": "",
      "_notDestroyInTalk": true,
      "_bindMovingTargetKey": ""
    },
    {
      "configID": 1005,
      "alias": "1005",
      "visible": true,
      "bornPointName": "[3_9089:-1475.005,10.222,8719.785,0.000,241.450,0.000]",
      "removeActorType": "NEW_REMOVE_WITH_DISAPPEAR",
      "relativePosType": "AVATAR_NEW",
      "relativePosNpcAlias": "",
      "_notDestroyInTalk": true,
      "_bindMovingTargetKey": ""
    },
    {
      "configID": 6131,
      "alias": "6131",
      "visible": true,
      "bornPointName": "[3_9090:-1475.180,10.210,8721.146,0.000,226.390,0.000]",
      "removeActorType": "NEW_REMOVE",
      "forceCreateDaily": true,
      "relativePosType": "AVATAR_NEW",
      "relativePosNpcAlias": "",
      "_notDestroyInTalk": true,
      "_bindMovingTargetKey": ""
    },
    {
      "configID": 21460,
      "alias": "21460",
      "visible": true,
      "bornPointName": "[3_9091:-1476.557,10.104,8721.646,0.000,159.390,0.000]",
      "removeActorType": "NEW_REMOVE",
      "relativePosType": "AVATAR_NEW",
      "relativePosNpcAlias": "",
      "_notDestroyInTalk": true,
      "_bindMovingTargetKey": ""
    }
  ],
  "group": [
    [
      {
        "$type": "MoleMole.Config.ConfigTimeProtectAction",
        "type": "TIME_PROTECT",
        "duration": 1.0,
        "actionId": 104
      },
      {
        "$type": "FABLGECDBCH",
        "type": "BODY_LANG",
        "aliasList": [
          "1005"
        ],
        "actionId": 192,
        "_flag": 131072,
        "isContinue": true,
        "forceDoFreeStyle": true,
        "canDoRepeatFreeStyle": false,
        "cantBackToIdleWhenSitLoop": true,
        "eventPatternSuiteKey": "",
        "FOHHKFAIAAJ": ""
      },
      {
        "$type": "FABLGECDBCH",
        "type": "BODY_LANG",
        "aliasList": [
          "6131"
        ],
        "actionId": 194,
        "_flag": 131072,
        "isContinue": true,
        "forceDoFreeStyle": true,
        "canDoRepeatFreeStyle": false,
        "cantBackToIdleWhenSitLoop": true,
        "eventPatternSuiteKey": "",
        "FOHHKFAIAAJ": ""
      },
      {
        "$type": "FABLGECDBCH",
        "type": "BODY_LANG",
        "aliasList": [
          "21460"
        ],
        "actionId": 196,
        "_flag": 131072,
        "isContinue": true,
        "forceDoFreeStyle": true,
        "canDoRepeatFreeStyle": false,
        "cantBackToIdleWhenSitLoop": true,
        "eventPatternSuiteKey": "",
        "FOHHKFAIAAJ": ""
      },
      {
        "$type": "MoleMole.Config.ConfigBlackScreenAction",
        "type": "BLACK_SCREEN",
        "duration": 1.0,
        "actionId": 198,
        "_flag": 2048,
        "blackScreenType": "KEEP_BLACK",
        "durationToBlack": 0.5,
        "durationKeepBlack": 1.0,
        "durationFromBlack": 0.5,
        "inteePos": "",
        "textMapID": "",
        "useTextFade": true,
        "showClickBtnDelayTime": 0.5,
        "waitClickBtnTipTime": 0.5,
        "_changeAudioState": true
      },
      {
        "$type": "MoleMole.Config.ConfigSitOrStandAction",
        "type": "SIT_OR_STAND",
        "duration": 2.0,
        "aliasList": [
          "Avatar"
        ],
        "actionId": 205,
        "_flag": 40960,
        "banResetFreestyle": true
      },
      {
        "$type": "MoleMole.Config.ConfigPlayerNPCEnergyTypeAction",
        "type": "SET_PLAYER_NPC_ENERGY_TYPE",
        "aliasList": [
          "AvatarNpc"
        ],
        "actionId": 206,
        "setHeroEngergyType": true
      },
      {
        "$type": "FABLGECDBCH",
        "type": "BODY_LANG",
        "aliasList": [
          "AvatarNpc"
        ],
        "actionId": 209,
        "_flag": 131072,
        "isContinue": true,
        "forceDoFreeStyle": true,
        "canDoRepeatFreeStyle": false,
        "cantBackToIdleWhenSitLoop": true,
        "eventPatternSuiteKey": "",
        "FOHHKFAIAAJ": ""
      },
      {
        "$type": "MoleMole.Config.ConfigVisibleInterAction",
        "type": "VISIBLE",
        "aliasList": [
          "Avatar"
        ],
        "actionId": 211,
        "_extraParam": ""
      }
    ],
    [
      {
        "$type": "PKKMAMONGEO",
        "type": "DIALOG",
        "aliasList": [
          "6131"
        ],
        "actionId": 107,
        "dialogID": 750012101,
        "protectTime": 0.5
      },
      {
        "$type": "MoleMole.Config.ConfigBlackScreenAction",
        "type": "BLACK_SCREEN",
        "duration": 0.5,
        "actionId": 199,
        "_flag": 2048,
        "blackScreenType": "FROM_BLACK",
        "durationToBlack": 0.5,
        "durationKeepBlack": 0.5,
        "durationFromBlack": 0.5,
        "inteePos": "",
        "textMapID": "",
        "useTextFade": true,
        "showClickBtnDelayTime": 0.5,
        "waitClickBtnTipTime": 0.5,
        "_changeAudioState": true
      }
    ],
    [
      {
        "$type": "PKKMAMONGEO",
        "type": "DIALOG",
        "aliasList": [
          "6131"
        ],
        "actionId": 109,
        "dialogID": 750012102,
        "protectTime": 0.5
      }
    ],
    [
      {
        "$type": "PKKMAMONGEO",
        "type": "DIALOG",
        "aliasList": [
          "1005"
        ],
        "actionId": 111,
        "dialogID": 750012103,
        "protectTime": 0.5
      },
      {
        "$type": "HDGKHDNFMIM",
        "type": "DIALOG_SELECT",
        "delayTime": 0.4000000059604645,
        "aliasList": [
          "AvatarNpc"
        ],
        "actionId": 201,
        "dialogIDList": [
          750012104
        ],
        "grpIDList": [
          3763919373
        ],
        "useGrpId": true,
        "countDownGrpId": 3763919368
      }
    ],
    [
      {
        "$type": "PKKMAMONGEO",
        "type": "DIALOG",
        "aliasList": [
          "6131"
        ],
        "actionId": 114,
        "dialogID": 750012105,
        "protectTime": 0.5
      }
    ],
    [
      {
        "$type": "PKKMAMONGEO",
        "type": "DIALOG",
        "aliasList": [
          "6131"
        ],
        "actionId": 116,
        "dialogID": 750012106,
        "protectTime": 0.5
      }
    ],
    [
      {
        "$type": "PKKMAMONGEO",
        "type": "DIALOG",
        "aliasList": [
          "6131"
        ],
        "actionId": 120,
        "dialogID": 750012108,
        "protectTime": 0.5
      }
    ],
    [
      {
        "$type": "PKKMAMONGEO",
        "type": "DIALOG",
        "aliasList": [
          "1005"
        ],
        "actionId": 122,
        "dialogID": 750012109,
        "protectTime": 0.5
      }
    ],
    [
      {
        "$type": "PKKMAMONGEO",
        "type": "DIALOG",
        "aliasList": [
          "6131"
        ],
        "actionId": 124,
        "dialogID": 750012110,
        "protectTime": 0.5
      }
    ],
    [
      {
        "$type": "PKKMAMONGEO",
        "type": "DIALOG",
        "aliasList": [
          "6131"
        ],
        "actionId": 126,
        "dialogID": 750012111,
        "protectTime": 0.5
      }
    ],
    [
      {
        "$type": "PKKMAMONGEO",
        "type": "DIALOG",
        "aliasList": [
          "6131"
        ],
        "actionId": 128,
        "dialogID": 750012112,
        "protectTime": 0.5
      }
    ],
    [
      {
        "$type": "PKKMAMONGEO",
        "type": "DIALOG",
        "aliasList": [
          "1005"
        ],
        "actionId": 130,
        "dialogID": 750012113,
        "protectTime": 0.5
      }
    ],
    [
      {
        "$type": "PKKMAMONGEO",
        "type": "DIALOG",
        "aliasList": [
          "6131"
        ],
        "actionId": 132,
        "dialogID": 750012114,
        "protectTime": 0.5
      }
    ],
    [
      {
        "$type": "PKKMAMONGEO",
        "type": "DIALOG",
        "aliasList": [
          "6131"
        ],
        "actionId": 134,
        "dialogID": 750012115,
        "protectTime": 0.5
      }
    ],
    [
      {
        "$type": "PKKMAMONGEO",
        "type": "DIALOG",
        "aliasList": [
          "1005"
        ],
        "actionId": 136,
        "dialogID": 750012116,
        "protectTime": 0.5
      }
    ],
    [
      {
        "$type": "PKKMAMONGEO",
        "type": "DIALOG",
        "aliasList": [
          "1005"
        ],
        "actionId": 138,
        "dialogID": 750012117,
        "protectTime": 0.5
      }
    ],
    [
      {
        "$type": "PKKMAMONGEO",
        "type": "DIALOG",
        "aliasList": [
          "6131"
        ],
        "actionId": 140,
        "dialogID": 750012118,
        "protectTime": 0.5
      }
    ],
    [
      {
        "$type": "PKKMAMONGEO",
        "type": "DIALOG",
        "aliasList": [
          "1005"
        ],
        "actionId": 142,
        "dialogID": 750012119,
        "protectTime": 0.5
      }
    ],
    [
      {
        "$type": "PKKMAMONGEO",
        "type": "DIALOG",
        "aliasList": [
          "6131"
        ],
        "actionId": 144,
        "dialogID": 750012120,
        "protectTime": 0.5
      }
    ],
    [
      {
        "$type": "PKKMAMONGEO",
        "type": "DIALOG",
        "aliasList": [
          "1005"
        ],
        "actionId": 146,
        "dialogID": 750012121,
        "protectTime": 0.5
      }
    ],
    [
      {
        "$type": "PKKMAMONGEO",
        "type": "DIALOG",
        "aliasList": [
          "6131"
        ],
        "actionId": 148,
        "dialogID": 750012122,
        "protectTime": 0.5
      }
    ],
    [
      {
        "$type": "PKKMAMONGEO",
        "type": "DIALOG",
        "aliasList": [
          "21460"
        ],
        "actionId": 150,
        "dialogID": 750012123,
        "protectTime": 0.5
      }
    ],
    [
      {
        "$type": "PKKMAMONGEO",
        "type": "DIALOG",
        "aliasList": [
          "1005"
        ],
        "actionId": 152,
        "dialogID": 750012124,
        "protectTime": 0.5
      }
    ],
    [
      {
        "$type": "PKKMAMONGEO",
        "type": "DIALOG",
        "aliasList": [
          "21460"
        ],
        "actionId": 154,
        "dialogID": 750012125,
        "protectTime": 0.5
      },
      {
        "$type": "HDGKHDNFMIM",
        "type": "DIALOG_SELECT",
        "delayTime": 0.4000000059604645,
        "aliasList": [
          "AvatarNpc"
        ],
        "actionId": 202,
        "dialogIDList": [
          750012126
        ],
        "grpIDList": [
          717383531
        ],
        "useGrpId": true,
        "countDownGrpId": 3763919368
      }
    ],
    [
      {
        "$type": "PKKMAMONGEO",
        "type": "DIALOG",
        "aliasList": [
          "21460"
        ],
        "actionId": 157,
        "dialogID": 750012127,
        "protectTime": 0.5
      }
    ],
    [
      {
        "$type": "PKKMAMONGEO",
        "type": "DIALOG",
        "aliasList": [
          "6131"
        ],
        "actionId": 159,
        "dialogID": 750012128,
        "protectTime": 0.5
      }
    ],
    [
      {
        "$type": "PKKMAMONGEO",
        "type": "DIALOG",
        "aliasList": [
          "6131"
        ],
        "actionId": 161,
        "dialogID": 750012129,
        "protectTime": 0.5
      }
    ],
    [
      {
        "$type": "PKKMAMONGEO",
        "type": "DIALOG",
        "aliasList": [
          "1005"
        ],
        "actionId": 163,
        "dialogID": 750012130,
        "protectTime": 0.5
      }
    ],
    [
      {
        "$type": "PKKMAMONGEO",
        "type": "DIALOG",
        "aliasList": [
          "21460"
        ],
        "actionId": 165,
        "dialogID": 750012131,
        "protectTime": 0.5
      },
      {
        "$type": "HDGKHDNFMIM",
        "type": "DIALOG_SELECT",
        "delayTime": 0.4000000059604645,
        "aliasList": [
          "AvatarNpc"
        ],
        "actionId": 203,
        "dialogIDList": [
          750012132,
          750012134
        ],
        "grpIDList": [
          717383557,
          717383558
        ],
        "useGrpId": true,
        "countDownGrpId": 3763919368
      }
    ],
    [
      {
        "$type": "PKKMAMONGEO",
        "type": "DIALOG",
        "aliasList": [
          "1005"
        ],
        "actionId": 168,
        "dialogID": 750012133,
        "protectTime": 0.5
      }
    ],
    [
      {
        "$type": "PKKMAMONGEO",
        "type": "DIALOG",
        "aliasList": [
          "1005"
        ],
        "actionId": 170,
        "dialogID": 750012135,
        "protectTime": 0.5
      }
    ],
    [
      {
        "$type": "PKKMAMONGEO",
        "type": "DIALOG",
        "aliasList": [
          "21460"
        ],
        "actionId": 172,
        "dialogID": 750012136,
        "protectTime": 0.5
      }
    ],
    [
      {
        "$type": "PKKMAMONGEO",
        "type": "DIALOG",
        "aliasList": [
          "1005"
        ],
        "actionId": 174,
        "dialogID": 750012137,
        "protectTime": 0.5
      },
      {
        "$type": "HDGKHDNFMIM",
        "type": "DIALOG_SELECT",
        "delayTime": 0.4000000059604645,
        "aliasList": [
          "AvatarNpc"
        ],
        "actionId": 204,
        "dialogIDList": [
          750012138
        ],
        "grpIDList": [
          717383561
        ],
        "useGrpId": true,
        "countDownGrpId": 3763919368
      }
    ],
    [
      {
        "$type": "PKKMAMONGEO",
        "type": "DIALOG",
        "aliasList": [
          "6131"
        ],
        "actionId": 177,
        "dialogID": 750012139,
        "protectTime": 0.5
      }
    ],
    [
      {
        "$type": "PKKMAMONGEO",
        "type": "DIALOG",
        "aliasList": [
          "6131"
        ],
        "actionId": 179,
        "dialogID": 750012140,
        "protectTime": 0.5
      }
    ],
    [
      {
        "$type": "PKKMAMONGEO",
        "type": "DIALOG",
        "aliasList": [
          "1005"
        ],
        "actionId": 181,
        "dialogID": 750012141,
        "protectTime": 0.5
      }
    ],
    [
      {
        "$type": "PKKMAMONGEO",
        "type": "DIALOG",
        "aliasList": [
          "1005"
        ],
        "actionId": 183,
        "dialogID": 750012142,
        "protectTime": 0.5
      }
    ],
    [
      {
        "$type": "PKKMAMONGEO",
        "type": "DIALOG",
        "aliasList": [
          "21460"
        ],
        "actionId": 185,
        "dialogID": 750012143,
        "protectTime": 0.5
      }
    ],
    [
      {
        "$type": "PKKMAMONGEO",
        "type": "DIALOG",
        "aliasList": [
          "1005"
        ],
        "actionId": 187,
        "dialogID": 750012144,
        "protectTime": 0.5
      }
    ],
    [
      {
        "$type": "PKKMAMONGEO",
        "type": "DIALOG",
        "aliasList": [
          "1005"
        ],
        "actionId": 189,
        "dialogID": 750012145,
        "protectTime": 0.5
      }
    ],
    [
      {
        "$type": "MoleMole.Config.ConfigTimeProtectAction",
        "type": "TIME_PROTECT",
        "duration": 0.10000000149011612,
        "actionId": 105
      },
      {
        "$type": "MoleMole.Config.ConfigSimpleBlackScreenAction",
        "type": "SIMPLE_BLACK_SCREEN",
        "actionId": 190,
        "durationToBlack": 0.5,
        "durationKeepBlack": 1.5,
        "durationFromBlack": 0.5,
        "textMapID": ""
      },
      {
        "$type": "MoleMole.Config.ConfigTimeProtectAction",
        "type": "TIME_PROTECT",
        "duration": 0.699999988079071,
        "actionId": 191
      },
      {
        "$type": "FABLGECDBCH",
        "type": "BODY_LANG",
        "delayTime": 0.6000000238418579,
        "aliasList": [
          "1005"
        ],
        "actionId": 193,
        "_flag": 131072,
        "isContinue": true,
        "forceDoFreeStyle": true,
        "canDoRepeatFreeStyle": false,
        "cantBackToIdleWhenSitLoop": true,
        "eventPatternSuiteKey": "",
        "FOHHKFAIAAJ": ""
      },
      {
        "$type": "FABLGECDBCH",
        "type": "BODY_LANG",
        "delayTime": 0.6000000238418579,
        "aliasList": [
          "6131"
        ],
        "actionId": 195,
        "_flag": 131072,
        "isContinue": true,
        "forceDoFreeStyle": true,
        "canDoRepeatFreeStyle": false,
        "cantBackToIdleWhenSitLoop": true,
        "eventPatternSuiteKey": "",
        "FOHHKFAIAAJ": ""
      },
      {
        "$type": "FABLGECDBCH",
        "type": "BODY_LANG",
        "delayTime": 0.6000000238418579,
        "aliasList": [
          "21460"
        ],
        "actionId": 197,
        "_flag": 131072,
        "isContinue": true,
        "forceDoFreeStyle": true,
        "canDoRepeatFreeStyle": false,
        "cantBackToIdleWhenSitLoop": true,
        "eventPatternSuiteKey": "",
        "FOHHKFAIAAJ": ""
      },
      {
        "$type": "FJKIHHKJLMJ",
        "type": "CAMERA_MOVE",
        "delayTime": 0.699999988079071,
        "duration": 0.10000000149011612,
        "actionId": 200,
        "cameraPosType": "EXIT",
        "camForwardTargetOffset": {
          "z": 1.0
        },
        "camFov": 30.0,
        "lerpPattern": 5,
        "cameraBlendType": "EaseInOutCubic",
        "openCameraDither": false,
        "targetNpcAlias": "",
        "closeTreeLeafDither": true,
        "KJOEFBPOIIH": "",
        "IICFKKEBIEC": "",
        "EGEHEJEBLBJ": "",
        "cutFrameTrans": {
          "_elevMinValue": -50.0,
          "_elevMaxValue": 50.0,
          "_poleMinValue": -50.0,
          "_poleMaxValue": 50.0
        }
      },
      {
        "$type": "MoleMole.Config.ConfigVisibleInterAction",
        "type": "VISIBLE",
        "delayTime": 0.6000000238418579,
        "aliasList": [
          "AvatarNpc"
        ],
        "actionId": 207,
        "_extraParam": ""
      },
      {
        "$type": "MoleMole.Config.ConfigVisibleInterAction",
        "type": "VISIBLE",
        "delayTime": 0.6000000238418579,
        "aliasList": [
          "Avatar"
        ],
        "actionId": 208,
        "isVisible": true,
        "_extraParam": ""
      },
      {
        "$type": "FABLGECDBCH",
        "type": "BODY_LANG",
        "delayTime": 0.6000000238418579,
        "aliasList": [
          "AvatarNpc"
        ],
        "actionId": 210,
        "_flag": 131072,
        "isContinue": true,
        "forceDoFreeStyle": true,
        "canDoRepeatFreeStyle": false,
        "cantBackToIdleWhenSitLoop": true,
        "eventPatternSuiteKey": "",
        "FOHHKFAIAAJ": ""
      }
    ]
  ],
  "groupId": [
    {
      "grpId": 3763919369,
      "nextGrpId": 3763919370,
      "_noCircleNextGrpId": 3763919370
    },
    {
      "index": 1,
      "grpId": 3763919370,
      "nextGrpId": 3763919371,
      "_noCircleNextGrpId": 3763919371
    },
    {
      "index": 2,
      "grpId": 3763919371,
      "nextGrpId": 3763919372,
      "_noCircleNextGrpId": 3763919372
    },
    {
      "index": 3,
      "grpId": 3763919372,
      "nextGrpId": 3763919373,
      "_noCircleNextGrpId": 3763919373
    },
    {
      "index": 4,
      "grpId": 3763919373,
      "nextGrpId": 3763919374,
      "_noCircleNextGrpId": 3763919374
    },
    {
      "index": 5,
      "grpId": 3763919374,
      "nextGrpId": 3763919375,
      "_noCircleNextGrpId": 3763919375
    },
    {
      "index": 6,
      "grpId": 3763919375,
      "nextGrpId": 3763919376,
      "_noCircleNextGrpId": 3763919376
    },
    {
      "index": 7,
      "grpId": 3763919376,
      "nextGrpId": 3763919377,
      "_noCircleNextGrpId": 3763919377
    },
    {
      "index": 8,
      "grpId": 3763919377,
      "nextGrpId": 717383495,
      "_noCircleNextGrpId": 717383495
    },
    {
      "index": 9,
      "grpId": 717383495,
      "nextGrpId": 717383496,
      "_noCircleNextGrpId": 717383496
    },
    {
      "index": 10,
      "grpId": 717383496,
      "nextGrpId": 717383497,
      "_noCircleNextGrpId": 717383497
    },
    {
      "index": 11,
      "grpId": 717383497,
      "nextGrpId": 717383498,
      "_noCircleNextGrpId": 717383498
    },
    {
      "index": 12,
      "grpId": 717383498,
      "nextGrpId": 717383499,
      "_noCircleNextGrpId": 717383499
    },
    {
      "index": 13,
      "grpId": 717383499,
      "nextGrpId": 717383500,
      "_noCircleNextGrpId": 717383500
    },
    {
      "index": 14,
      "grpId": 717383500,
      "nextGrpId": 717383501,
      "_noCircleNextGrpId": 717383501
    },
    {
      "index": 15,
      "grpId": 717383501,
      "nextGrpId": 717383502,
      "_noCircleNextGrpId": 717383502
    },
    {
      "index": 16,
      "grpId": 717383502,
      "nextGrpId": 717383503,
      "_noCircleNextGrpId": 717383503
    },
    {
      "index": 17,
      "grpId": 717383503,
      "nextGrpId": 717383504,
      "_noCircleNextGrpId": 717383504
    },
    {
      "index": 18,
      "grpId": 717383504,
      "nextGrpId": 717383526,
      "_noCircleNextGrpId": 717383526
    },
    {
      "index": 19,
      "grpId": 717383526,
      "nextGrpId": 717383527,
      "_noCircleNextGrpId": 717383527
    },
    {
      "index": 20,
      "grpId": 717383527,
      "nextGrpId": 717383528,
      "_noCircleNextGrpId": 717383528
    },
    {
      "index": 21,
      "grpId": 717383528,
      "nextGrpId": 717383529,
      "_noCircleNextGrpId": 717383529
    },
    {
      "index": 22,
      "grpId": 717383529,
      "nextGrpId": 717383530,
      "_noCircleNextGrpId": 717383530
    },
    {
      "index": 23,
      "grpId": 717383530,
      "nextGrpId": 717383531,
      "_noCircleNextGrpId": 717383531
    },
    {
      "index": 24,
      "grpId": 717383531,
      "nextGrpId": 717383532,
      "_noCircleNextGrpId": 717383532
    },
    {
      "index": 25,
      "grpId": 717383532,
      "nextGrpId": 717383533,
      "_noCircleNextGrpId": 717383533
    },
    {
      "index": 26,
      "grpId": 717383533,
      "nextGrpId": 717383534,
      "_noCircleNextGrpId": 717383534
    },
    {
      "index": 27,
      "grpId": 717383534,
      "nextGrpId": 717383535,
      "_noCircleNextGrpId": 717383535
    },
    {
      "index": 28,
      "grpId": 717383535,
      "nextGrpId": 717383557,
      "_noCircleNextGrpId": 717383557
    },
    {
      "index": 29,
      "grpId": 717383557,
      "nextGrpId": 717383559,
      "_noCircleNextGrpId": 717383559
    },
    {
      "index": 30,
      "grpId": 717383558,
      "nextGrpId": 717383559,
      "_noCircleNextGrpId": 717383559
    },
    {
      "index": 31,
      "grpId": 717383559,
      "nextGrpId": 717383560,
      "_noCircleNextGrpId": 717383560
    },
    {
      "index": 32,
      "grpId": 717383560,
      "nextGrpId": 717383561,
      "_noCircleNextGrpId": 717383561
    },
    {
      "index": 33,
      "grpId": 717383561,
      "nextGrpId": 717383562,
      "_noCircleNextGrpId": 717383562
    },
    {
      "index": 34,
      "grpId": 717383562,
      "nextGrpId": 717383563,
      "_noCircleNextGrpId": 717383563
    },
    {
      "index": 35,
      "grpId": 717383563,
      "nextGrpId": 717383564,
      "_noCircleNextGrpId": 717383564
    },
    {
      "index": 36,
      "grpId": 717383564,
      "nextGrpId": 717383565,
      "_noCircleNextGrpId": 717383565
    },
    {
      "index": 37,
      "grpId": 717383565,
      "nextGrpId": 717383566,
      "_noCircleNextGrpId": 717383566
    },
    {
      "index": 38,
      "grpId": 717383566,
      "nextGrpId": 717383588,
      "_noCircleNextGrpId": 717383588
    },
    {
      "index": 39,
      "grpId": 717383588,
      "nextGrpId": 717383589,
      "_noCircleNextGrpId": 717383589
    },
    {
      "index": 40,
      "grpId": 717383589,
      "nextGrpId": 717383590,
      "_noCircleNextGrpId": 717383590
    }
  ],
  "freeStyleDic": {
    "1025": [],
    "1026": [],
    "6131": []
  },
  "EKFBDAIDEEF": {
    "AvatarNpc": [
      "SitChat01AS",
      "SitHoldArm01AS",
      "SitShrug01AS",
      "SitThink01AS"
    ],
    "6131": [
      "SitChat01AS",
      "SitHoldArm01AS",
      "SitPutArm01AS",
      "SitRaiseHand01AS",
      "SitRead01AS"
    ]
  },
  "NPFDEBDMHJP": 717383589
}