{
  "luaDataPath": "",
  "isSimpleTalk": true,
  "entityBan": "",
  "disableNpcLod": true,
  "protectNpcMobileLod": true,
  "talkFlag": 7,
  "startFade": {
    "startFadeOutDuration": 0.0
  },
  "endFade": {
    "startFadeOutDuration": 0.0
  },
  "actors": [
    {
      "alias": "Avatar",
      "visible": true,
      "bornPointName": "",
      "relativePosType": "AVATAR_NEW",
      "relativePosNpcAlias": "",
      "_notDestroyInTalk": true,
      "_bindMovingTargetKey": ""
    },
    {
      "configID": 6130,
      "alias": "6130",
      "visible": true,
      "bornPointName": "",
      "forceCreateDaily": true,
      "relativePosType": "AVATAR_NEW",
      "relativePosNpcAlias": "",
      "_notDestroyInTalk": true,
      "_bindMovingTargetKey": ""
    }
  ],
  "group": [
    [
      {
        "$type": "FJKIHHKJLMJ",
        "type": "CAMERA_FOCUS",
        "duration": 0.10000000149011612,
        "actionId": 103,
        "targetNpcAlias": "",
        "KJOEFBPOIIH": "",
        "IICFKKEBIEC": "",
        "EGEHEJEBLBJ": ""
      },
      {
        "$type": "MoleMole.Config.ConfigTimeProtectAction",
        "type": "TIME_PROTECT",
        "duration": 0.10000000149011612,
        "actionId": 104
      },
      {
        "$type": "LLGANGLOEEO",
        "type": "STEER_TO",
        "delayTime": 0.30000001192092896,
        "duration": 0.800000011920929,
        "aliasList": [
          "Avatar"
        ],
        "actionId": 131,
        "_flag": 32,
        "steerType": "TO_TARGET_ADVANCED",
        "useSteerAnim": true,
        "interruptFreestyle": true,
        "forceSteer": true,
        "targetNpcAlias": "6130",
        "fixInterNull": true,
        "OAFJBHJHLJG": ""
      },
      {
        "$type": "LLGANGLOEEO",
        "type": "STEER_TO",
        "delayTime": 0.30000001192092896,
        "duration": 0.800000011920929,
        "aliasList": [
          "6130"
        ],
        "actionId": 132,
        "_flag": 32,
        "steerType": "TO_LOCAL_AVATAR_ADVANCED",
        "useSteerAnim": true,
        "interruptFreestyle": true,
        "forceSteer": true,
        "targetNpcAlias": "",
        "fixInterNull": true,
        "OAFJBHJHLJG": ""
      }
    ],
    [
      {
        "$type": "PKKMAMONGEO",
        "type": "DIALOG",
        "aliasList": [
          "6130"
        ],
        "actionId": 107,
        "dialogID": 750011801,
        "protectTime": 0.5
      },
      {
        "$type": "HDGKHDNFMIM",
        "type": "DIALOG_SELECT",
        "delayTime": 0.4000000059604645,
        "aliasList": [
          "Avatar"
        ],
        "actionId": 108,
        "dialogIDList": [
          750011802,
          750011806
        ],
        "grpIDList": [
          3763896307,
          3763896310
        ],
        "useGrpId": true,
        "countDownGrpId": 3763896304
      }
    ],
    [
      {
        "$type": "PKKMAMONGEO",
        "type": "DIALOG",
        "aliasList": [
          "6130"
        ],
        "actionId": 110,
        "dialogID": 750011803,
        "protectTime": 0.5
      }
    ],
    [
      {
        "$type": "PKKMAMONGEO",
        "type": "DIALOG",
        "aliasList": [
          "6130"
        ],
        "actionId": 112,
        "dialogID": 750011804,
        "protectTime": 0.5
      }
    ],
    [
      {
        "$type": "PKKMAMONGEO",
        "type": "DIALOG",
        "aliasList": [
          "6130"
        ],
        "actionId": 114,
        "dialogID": 750011805,
        "protectTime": 0.5
      },
      {
        "$type": "HDGKHDNFMIM",
        "type": "DIALOG_SELECT",
        "delayTime": 0.4000000059604645,
        "aliasList": [
          "Avatar"
        ],
        "actionId": 115,
        "dialogIDList": [
          750011810
        ],
        "grpIDList": [
          3763896313
        ],
        "useGrpId": true,
        "countDownGrpId": 3763896304
      }
    ],
    [
      {
        "$type": "PKKMAMONGEO",
        "type": "DIALOG",
        "aliasList": [
          "6130"
        ],
        "actionId": 117,
        "dialogID": 750011807,
        "protectTime": 0.5
      }
    ],
    [
      {
        "$type": "PKKMAMONGEO",
        "type": "DIALOG",
        "aliasList": [
          "6130"
        ],
        "actionId": 119,
        "dialogID": 750011808,
        "protectTime": 0.5
      }
    ],
    [
      {
        "$type": "PKKMAMONGEO",
        "type": "DIALOG",
        "aliasList": [
          "6130"
        ],
        "actionId": 121,
        "dialogID": 750011809,
        "protectTime": 0.5
      },
      {
        "$type": "HDGKHDNFMIM",
        "type": "DIALOG_SELECT",
        "delayTime": 0.4000000059604645,
        "aliasList": [
          "Avatar"
        ],
        "actionId": 122,
        "dialogIDList": [
          750011810
        ],
        "grpIDList": [
          3763896313
        ],
        "useGrpId": true,
        "countDownGrpId": 3763896304
      }
    ],
    [
      {
        "$type": "PKKMAMONGEO",
        "type": "DIALOG",
        "aliasList": [
          "6130"
        ],
        "actionId": 124,
        "dialogID": 750011811,
        "protectTime": 0.5
      }
    ],
    [
      {
        "$type": "PKKMAMONGEO",
        "type": "DIALOG",
        "aliasList": [
          "6130"
        ],
        "actionId": 126,
        "dialogID": 750011812,
        "protectTime": 0.5
      },
      {
        "$type": "FJKIHHKJLMJ",
        "type": "CAMERA_MOVE",
        "duration": 0.5,
        "actionId": 134,
        "camPosOffset": {
          "x": -1563.43505859375,
          "y": 119.84500122070312,
          "z": 7945.47900390625
        },
        "camForwardTargetOffset": {
          "x": -1563.2459716796875,
          "y": 119.54399871826172,
          "z": 7946.4140625
        },
        "lerpPattern": 6,
        "cameraBlendType": "EaseInOutCubic",
        "needZAxisRotate": true,
        "rotateAngle": 359.3169860839844,
        "openCameraDither": false,
        "targetNpcAlias": "",
        "closeTreeLeafDither": true,
        "KJOEFBPOIIH": "",
        "IICFKKEBIEC": "",
        "EGEHEJEBLBJ": "",
        "cutFrameTrans": {
          "_elevMinValue": -50.0,
          "_elevMaxValue": 50.0,
          "_poleMinValue": -50.0,
          "_poleMaxValue": 50.0
        }
      },
      {
        "$type": "FJKIHHKJLMJ",
        "type": "CAMERA_MOVE",
        "delayTime": 0.10000000149011612,
        "duration": 5.0,
        "actionId": 135,
        "camPosOffset": {
          "x": -1562.9139404296875,
          "y": 122.35199737548828,
          "z": 7946.48388671875
        },
        "camForwardTargetOffset": {
          "x": -1562.7239990234375,
          "y": 122.0510025024414,
          "z": 7947.4189453125
        },
        "cameraBlendType": "EaseOutQuad",
        "needZAxisRotate": true,
        "rotateAngle": 359.3169860839844,
        "openCameraDither": false,
        "targetNpcAlias": "",
        "closeTreeLeafDither": true,
        "KJOEFBPOIIH": "",
        "IICFKKEBIEC": "",
        "EGEHEJEBLBJ": "",
        "cutFrameTrans": {
          "_elevMinValue": -50.0,
          "_elevMaxValue": 50.0,
          "_poleMinValue": -50.0,
          "_poleMaxValue": 50.0
        }
      }
    ],
    [
      {
        "$type": "PKKMAMONGEO",
        "type": "DIALOG",
        "aliasList": [
          "6130"
        ],
        "actionId": 128,
        "dialogID": 750011813,
        "protectTime": 0.5
      },
      {
        "$type": "FJKIHHKJLMJ",
        "type": "CAMERA_FOCUS",
        "duration": 0.10000000149011612,
        "actionId": 136,
        "targetNpcAlias": "",
        "KJOEFBPOIIH": "",
        "IICFKKEBIEC": "",
        "EGEHEJEBLBJ": ""
      }
    ],
    [
      {
        "$type": "PKKMAMONGEO",
        "type": "DIALOG",
        "aliasList": [
          "6130"
        ],
        "actionId": 130,
        "dialogID": 750011814,
        "protectTime": 0.5
      }
    ],
    [
      {
        "$type": "MoleMole.Config.ConfigTimeProtectAction",
        "type": "TIME_PROTECT",
        "duration": 0.10000000149011612,
        "actionId": 105
      },
      {
        "$type": "LLGANGLOEEO",
        "type": "STEER_TO",
        "duration": 1.0,
        "aliasList": [
          "6130"
        ],
        "actionId": 133,
        "_flag": 32,
        "steerType": "RETURN",
        "useSteerAnim": true,
        "interruptFreestyle": true,
        "forceSteer": true,
        "targetNpcAlias": "",
        "ignoreY": true,
        "fixInterNull": true,
        "OAFJBHJHLJG": ""
      }
    ]
  ],
  "groupId": [
    {
      "grpId": 3763896305,
      "nextGrpId": 3763896306,
      "_noCircleNextGrpId": 3763896306
    },
    {
      "index": 1,
      "grpId": 3763896306,
      "nextGrpId": 3763896307,
      "_noCircleNextGrpId": 3763896307
    },
    {
      "index": 2,
      "grpId": 3763896307,
      "nextGrpId": 3763896308,
      "_noCircleNextGrpId": 3763896308
    },
    {
      "index": 3,
      "grpId": 3763896308,
      "nextGrpId": 3763896309,
      "_noCircleNextGrpId": 3763896309
    },
    {
      "index": 4,
      "grpId": 3763896309,
      "nextGrpId": 3763896310,
      "_noCircleNextGrpId": 3763896313
    },
    {
      "index": 5,
      "grpId": 3763896310,
      "nextGrpId": 3763896311,
      "_noCircleNextGrpId": 3763896311
    },
    {
      "index": 6,
      "grpId": 3763896311,
      "nextGrpId": 3763896312,
      "_noCircleNextGrpId": 3763896312
    },
    {
      "index": 7,
      "grpId": 3763896312,
      "nextGrpId": 3763896313,
      "_noCircleNextGrpId": 3763896313
    },
    {
      "index": 8,
      "grpId": 3763896313,
      "nextGrpId": 716668511,
      "_noCircleNextGrpId": 716668511
    },
    {
      "index": 9,
      "grpId": 716668511,
      "nextGrpId": 716668512,
      "_noCircleNextGrpId": 716668512
    },
    {
      "index": 10,
      "grpId": 716668512,
      "nextGrpId": 716668513,
      "_noCircleNextGrpId": 716668513
    },
    {
      "index": 11,
      "grpId": 716668513,
      "nextGrpId": 716668514,
      "_noCircleNextGrpId": 716668514
    },
    {
      "index": 12,
      "grpId": 716668514,
      "nextGrpId": 716668515,
      "_noCircleNextGrpId": 716668515
    }
  ],
  "freeStyleDic": {
    "6130": []
  },
  "NPFDEBDMHJP": 716668514
}