{
  "luaDataPath": "",
  "dontUseDefaultFinish": true,
  "startBlackKeepTime": 1.0,
  "entityBan": "",
  "disableNpcLod": true,
  "protectNpcMobileLod": true,
  "talkFlag": 5,
  "startFade": {
    "startFadeInDuration": 0.5,
    "startFadeOutDuration": 0.5
  },
  "endFade": {
    "startFadeOutDuration": 0.0
  },
  "actors": [
    {
      "alias": "Avatar",
      "visible": true,
      "bornPointName": "",
      "relativePosType": "AVATAR_NEW",
      "relativePosNpcAlias": "",
      "_bindMovingTargetKey": ""
    },
    {
      "configID": 9530,
      "alias": "9530",
      "visible": true,
      "bornPointName": "",
      "relativePosType": "AVATAR_NEW",
      "relativePosNpcAlias": "",
      "_bindMovingTargetKey": ""
    }
  ],
  "group": [
    [
      {
        "$type": "MoleMole.Config.ConfigTimeProtectAction",
        "type": "TIME_PROTECT",
        "duration": 0.800000011920929,
        "actionId": 104
      },
      {
        "$type": "MoleMole.Config.ConfigTeleportToAction",
        "type": "TELEPORT_TO",
        "aliasList": [
          "Avatar"
        ],
        "actionId": 111,
        "forward": {
          "z": 1.0
        },
        "openLongDisTeleport": true,
        "posSelectType": "GCG_PLAYER",
        "_posBindMovingTargetKey": "",
        "_forwardBindMovingTargetKey": ""
      },
      {
        "$type": "MoleMole.Config.ConfigVisibleInterAction",
        "type": "VISIBLE",
        "aliasList": [
          "Avatar"
        ],
        "actionId": 113,
        "_extraParam": ""
      },
      {
        "$type": "LLGANGLOEEO",
        "type": "STEER_TO",
        "delayTime": 0.30000001192092896,
        "duration": 0.10000000149011612,
        "aliasList": [
          "Avatar"
        ],
        "actionId": 112,
        "steerType": "TO_TARGET",
        "interruptFreestyle": true,
        "forceSteer": true,
        "targetNpcAlias": "9530",
        "ignoreY": true,
        "fixInterNull": true,
        "OAFJBHJHLJG": ""
      },
      {
        "$type": "LLGANGLOEEO",
        "type": "STEER_TO",
        "delayTime": 0.30000001192092896,
        "duration": 0.10000000149011612,
        "aliasList": [
          "9530"
        ],
        "actionId": 115,
        "steerType": "TO_LOCAL_AVATAR",
        "interruptFreestyle": true,
        "forceSteer": true,
        "targetNpcAlias": "",
        "fixInterNull": true,
        "OAFJBHJHLJG": ""
      },
      {
        "$type": "FJKIHHKJLMJ",
        "type": "CAMERA_MOVE",
        "delayTime": 0.6000000238418579,
        "duration": 0.10000000149011612,
        "actionId": 110,
        "cameraPosType": "RELATIVE_TO_INTEE_ONLY",
        "camPosOffset": {
          "y": 1.5219999551773071,
          "z": 1.6519999504089355
        },
        "camTargetType": "RELATIVE_TO_INTEE_FORWARD",
        "camForwardTargetOffset": {
          "y": 1.5670000314712524,
          "z": 0.652999997138977
        },
        "camFov": 30.0,
        "lerpPattern": 6,
        "cameraBlendType": "EaseInOutCubic",
        "NJBNNOMLKCK": {},
        "needZAxisRotate": true,
        "rotateAngle": 0.02199999988079071,
        "openCameraDither": false,
        "targetNpcAlias": "",
        "closeTreeLeafDither": true,
        "KJOEFBPOIIH": "",
        "IICFKKEBIEC": "",
        "EGEHEJEBLBJ": ""
      }
    ],
    [
      {
        "$type": "PKKMAMONGEO",
        "type": "DIALOG",
        "aliasList": [
          "9530"
        ],
        "actionId": 109,
        "dialogID": 695301601,
        "protectTime": 0.6499999761581421
      },
      {
        "$type": "CPJKOIHIPBE",
        "type": "EMO_SYNC",
        "aliasList": [
          "9530"
        ],
        "actionId": 116,
        "dataPath": "Cs_Emo_Avatar_Simple_Common_Set/Cs_Emo_Avatar_Talk/Cs_Emo_GCG/Cs_Emo_Avatar_Itto/Cs_Emo_695301601",
        "phonemePath": "",
        "emotionPath": "",
        "mateDataPath": "",
        "matePhonemePath": "",
        "mateEmotionPath": "",
        "dataPathHashList": [
          16125768296905076982,
          15417520996387530708,
          13821799469248457654,
          8195270801650412122
        ],
        "FMDPBECPELH": "",
        "ADKBLPOKGIK": ""
      },
      {
        "$type": "FABLGECDBCH",
        "type": "BODY_LANG",
        "delayTime": 2.174999952316284,
        "aliasList": [
          "9530"
        ],
        "actionId": 117,
        "bodyLangParam": 1230,
        "canDoRepeatFreeStyle": false,
        "cantBackToIdleWhenSitLoop": true,
        "eventPatternSuiteKey": "",
        "FOHHKFAIAAJ": ""
      },
      {
        "$type": "FABLGECDBCH",
        "type": "BODY_LANG",
        "delayTime": 4.849999904632568,
        "aliasList": [
          "9530"
        ],
        "actionId": 119,
        "bodyLangParam": 4031,
        "canDoRepeatFreeStyle": false,
        "cantBackToIdleWhenSitLoop": true,
        "eventPatternSuiteKey": "",
        "FOHHKFAIAAJ": ""
      },
      {
        "$type": "FABLGECDBCH",
        "type": "BODY_LANG",
        "delayTime": 5.791999816894531,
        "aliasList": [
          "9530"
        ],
        "actionId": 120,
        "bodyLangParam": 4031,
        "canDoRepeatFreeStyle": false,
        "cantBackToIdleWhenSitLoop": true,
        "eventPatternSuiteKey": "",
        "FOHHKFAIAAJ": ""
      }
    ],
    [
      {
        "$type": "MoleMole.Config.ConfigTimeProtectAction",
        "type": "TIME_PROTECT",
        "duration": 0.699999988079071,
        "actionId": 105
      },
      {
        "$type": "MoleMole.Config.ConfigSimpleBlackScreenAction",
        "type": "SIMPLE_BLACK_SCREEN",
        "duration": 0.5,
        "actionId": 106,
        "durationToBlack": 0.5,
        "durationKeepBlack": 1.0,
        "durationFromBlack": 0.5,
        "textMapID": ""
      },
      {
        "$type": "FABLGECDBCH",
        "type": "BODY_LANG",
        "aliasList": [
          "9530"
        ],
        "actionId": 118,
        "isContinue": true,
        "canDoRepeatFreeStyle": false,
        "cantBackToIdleWhenSitLoop": true,
        "eventPatternSuiteKey": "",
        "FOHHKFAIAAJ": ""
      },
      {
        "$type": "FJKIHHKJLMJ",
        "type": "CAMERA_MOVE",
        "delayTime": 0.6000000238418579,
        "duration": 0.10000000149011612,
        "actionId": 107,
        "cameraPosType": "EXIT",
        "camPosOffset": {
          "x": 2244.261962890625,
          "y": 219.67599487304688,
          "z": -892.4349975585938
        },
        "camTargetType": "Other",
        "camForwardTargetOffset": {
          "x": 55.3849983215332,
          "y": 272.96099853515625
        },
        "lerpPattern": 6,
        "cameraBlendType": "EaseInOutCubic",
        "NJBNNOMLKCK": {},
        "needZAxisRotate": true,
        "openCameraDither": false,
        "targetNpcAlias": "",
        "closeTreeLeafDither": true,
        "KJOEFBPOIIH": "",
        "IICFKKEBIEC": "",
        "EGEHEJEBLBJ": ""
      },
      {
        "$type": "MoleMole.Config.ConfigVisibleInterAction",
        "type": "VISIBLE",
        "delayTime": 0.6000000238418579,
        "aliasList": [
          "Avatar"
        ],
        "actionId": 114,
        "isVisible": true,
        "_extraParam": ""
      }
    ]
  ],
  "groupId": [
    {
      "grpId": 1391414558,
      "nextGrpId": 1391414559
    },
    {
      "index": 1,
      "grpId": 1391414559,
      "nextGrpId": 1391414560
    },
    {
      "index": 2,
      "grpId": 1391414560,
      "nextGrpId": 1391414561
    }
  ],
  "freeStyleDic": {
    "9530": [
      1230,
      4031
    ]
  }
}