{
  "luaDataPath": "",
  "entityBan": "",
  "disableNpcLod": true,
  "startFade": {
    "startFadeOutDuration": 0.30000001192092896
  },
  "endFade": {
    "startFadeOutDuration": 0.0
  },
  "actors": [
    {
      "alias": "Avatar",
      "visible": true,
      "bornPointName": "Q48503Player",
      "relativePosNpcAlias": "",
      "_bindMovingTargetKey": ""
    },
    {
      "configID": 1002,
      "alias": "1002",
      "visible": true,
      "bornPointName": "Q48503Ambor",
      "relativePosNpcAlias": "",
      "_bindMovingTargetKey": ""
    },
    {
      "configID": 1485,
      "alias": "1485",
      "visible": true,
      "bornPointName": "Q48503Chief",
      "relativePosNpcAlias": "",
      "_bindMovingTargetKey": ""
    },
    {
      "configID": 1005,
      "alias": "1005",
      "visible": true,
      "bornPointName": "Q48503Paimon",
      "relativePos": {
        "x": 13.28600025177002
      },
      "relativePosNpcAlias": "",
      "_bindMovingTargetKey": ""
    }
  ],
  "group": [
    [
      {
        "$type": "FJKIHHKJLMJ",
        "type": "CAMERA_MOVE",
        "duration": 0.0,
        "camPosOffset": {
          "x": 22.098527908325195,
          "y": 17.70501708984375,
          "z": -12.231450080871582
        },
        "camForwardTargetOffset": {
          "x": 21.174861907958984,
          "y": 17.352741241455078,
          "z": -12.382254600524902
        },
        "needElev": true,
        "camFov": 30.0,
        "lerpRatio": 2.0,
        "lerpPattern": 6,
        "cameraBlendType": "EaseInCubic",
        "NJBNNOMLKCK": {},
        "targetNpcAlias": "",
        "KJOEFBPOIIH": "",
        "IICFKKEBIEC": "",
        "EGEHEJEBLBJ": ""
      },
      {
        "$type": "FJKIHHKJLMJ",
        "type": "CAMERA_MOVE",
        "delayTime": 0.10000000149011612,
        "duration": 5.0,
        "camPosOffset": {
          "x": 20.227310180664062,
          "y": 17.916580200195312,
          "z": -12.421125411987305
        },
        "camForwardTargetOffset": {
          "x": 19.367271423339844,
          "y": 17.42840003967285,
          "z": -12.569493293762207
        },
        "needElev": true,
        "NJBNNOMLKCK": {},
        "targetNpcAlias": "",
        "KJOEFBPOIIH": "",
        "IICFKKEBIEC": "",
        "EGEHEJEBLBJ": ""
      },
      {
        "$type": "MoleMole.Config.ConfigCameraDOFAction",
        "type": "CAMERA_DOF",
        "enabled": true,
        "focusDistance": 50.0,
        "focusRange": 50.0,
        "quality": 3
      },
      {
        "$type": "LLGANGLOEEO",
        "type": "STEER_TO",
        "aliasList": [
          "Avatar"
        ],
        "steerDir": {
          "x": -0.763696551322937,
          "z": -0.6455754637718201
        },
        "targetNpcAlias": "",
        "OAFJBHJHLJG": ""
      },
      {
        "$type": "LJLMDHDCAMK",
        "type": "LOOK_AT",
        "aliasList": [
          "Avatar"
        ],
        "enableHead": true,
        "useTargetPos": true,
        "enableAbsolute": true,
        "targetPosition": {
          "x": 13.724228858947754,
          "y": 15.013751983642578,
          "z": -12.97053050994873
        },
        "enableBody": true,
        "headTurnTime": 0.30000001192092896,
        "targetNpcAlias": "",
        "targetNpcLookAtPoint": "",
        "OAFJBHJHLJG": ""
      },
      {
        "$type": "PKKMAMONGEO",
        "type": "DIALOG",
        "aliasList": [
          "1002"
        ],
        "dialogID": 4850301,
        "protectTime": 0.5
      },
      {
        "$type": "LLGANGLOEEO",
        "type": "STEER_TO",
        "aliasList": [
          "1002"
        ],
        "steerDir": {
          "x": -0.9812896847724915,
          "z": 0.1925373077392578
        },
        "targetNpcAlias": "",
        "OAFJBHJHLJG": ""
      },
      {
        "$type": "LJLMDHDCAMK",
        "type": "LOOK_AT",
        "aliasList": [
          "1002"
        ],
        "enableHead": true,
        "useTargetPos": true,
        "enableAbsolute": true,
        "targetPosition": {
          "x": 14.02200984954834,
          "y": 15.013751983642578,
          "z": -14.38582992553711
        },
        "headTurnTime": 0.30000001192092896,
        "targetNpcAlias": "",
        "targetNpcLookAtPoint": "",
        "OAFJBHJHLJG": ""
      },
      {
        "$type": "FABLGECDBCH",
        "type": "BODY_LANG",
        "aliasList": [
          "1002"
        ],
        "bodyLangParam": 1060,
        "eventPatternSuiteKey": "",
        "FOHHKFAIAAJ": ""
      },
      {
        "$type": "FABLGECDBCH",
        "type": "BODY_LANG",
        "delayTime": 3.650001049041748,
        "aliasList": [
          "1002"
        ],
        "isContinue": true,
        "eventPatternSuiteKey": "",
        "FOHHKFAIAAJ": ""
      },
      {
        "$type": "CPJKOIHIPBE",
        "type": "EMO_SYNC",
        "aliasList": [
          "1002"
        ],
        "dataPath": "Cs_Emo_Avatar_Simple_Common_Set/Cs_Emo_Avatar_Talk/Cs_Emo_Avatar_PersonalLine/Cs_Emo_Avatar_Ambor/Cs_Emo_4850301",
        "phonemePath": "",
        "emotionPath": "",
        "mateDataPath": "",
        "matePhonemePath": "",
        "mateEmotionPath": "",
        "dataPathHashList": [
          4357609547427243773,
          17413830057730341724,
          7633560986477663902,
          4635218520749262947
        ],
        "FMDPBECPELH": "",
        "ADKBLPOKGIK": ""
      },
      {
        "$type": "LLGANGLOEEO",
        "type": "STEER_TO",
        "aliasList": [
          "1005"
        ],
        "steerDir": {
          "x": -0.9999939203262329,
          "z": 0.0034772322978824377
        },
        "targetNpcAlias": "",
        "OAFJBHJHLJG": ""
      },
      {
        "$type": "LJLMDHDCAMK",
        "type": "LOOK_AT",
        "aliasList": [
          "1005"
        ],
        "enableHead": true,
        "useTargetPos": true,
        "enableAbsolute": true,
        "targetPosition": {
          "x": 13.774911880493164,
          "y": 15.013751983642578,
          "z": -13.668697357177734
        },
        "headTurnTime": 0.30000001192092896,
        "targetNpcAlias": "",
        "targetNpcLookAtPoint": "",
        "OAFJBHJHLJG": ""
      },
      {
        "$type": "FABLGECDBCH",
        "type": "BODY_LANG",
        "aliasList": [
          "1005"
        ],
        "bodyLangParam": 1060,
        "eventPatternSuiteKey": "",
        "FOHHKFAIAAJ": ""
      }
    ],
    [
      {
        "$type": "FJKIHHKJLMJ",
        "type": "CAMERA_MOVE",
        "duration": 1.0,
        "camPosOffset": {
          "x": 16.30306625366211,
          "y": 16.070526123046875,
          "z": -15.638874053955078
        },
        "camForwardTargetOffset": {
          "x": 16.40872573852539,
          "y": 15.97467041015625,
          "z": -14.649102210998535
        },
        "camFov": 30.0,
        "lerpPattern": 6,
        "NJBNNOMLKCK": {},
        "targetNpcAlias": "",
        "KJOEFBPOIIH": "",
        "IICFKKEBIEC": "",
        "EGEHEJEBLBJ": ""
      },
      {
        "$type": "FJKIHHKJLMJ",
        "type": "CAMERA_MOVE",
        "delayTime": 1.5499999523162842,
        "duration": 1.5,
        "camPosOffset": {
          "x": 16.303070068359375,
          "y": 16.070526123046875,
          "z": -15.638866424560547
        },
        "camForwardTargetOffset": {
          "x": 15.305109024047852,
          "y": 16.022541046142578,
          "z": -15.596783638000488
        },
        "camFov": 10.0,
        "lerpRatio": 3.0,
        "cameraBlendType": "EaseInOutCubic",
        "NJBNNOMLKCK": {},
        "targetNpcAlias": "",
        "KJOEFBPOIIH": "",
        "IICFKKEBIEC": "",
        "EGEHEJEBLBJ": ""
      },
      {
        "$type": "MoleMole.Config.ConfigCameraDOFAction",
        "type": "CAMERA_DOF",
        "enabled": true,
        "focusDistance": 5.0,
        "focusRange": 5.0,
        "quality": 3
      },
      {
        "$type": "MoleMole.Config.ConfigCameraDOFAction",
        "type": "CAMERA_DOF",
        "delayTime": 1.899999976158142,
        "duration": 0.800000011920929,
        "enabled": true,
        "focusDistance": 100.0,
        "focusRange": 50.0,
        "quality": 3
      },
      {
        "$type": "LJLMDHDCAMK",
        "type": "LOOK_AT",
        "delayTime": 0.576194167137146,
        "aliasList": [
          "Avatar"
        ],
        "enableHead": true,
        "useTargetPos": true,
        "enableAbsolute": true,
        "targetPosition": {
          "x": 13.854517936706543,
          "y": 16.051855087280273,
          "z": -13.051263809204102
        },
        "bodyAngle": -13.6899995803833,
        "headTurnTime": 0.5,
        "targetNpcAlias": "",
        "targetNpcLookAtPoint": "",
        "OAFJBHJHLJG": ""
      },
      {
        "$type": "LJLMDHDCAMK",
        "type": "LOOK_AT",
        "delayTime": 1.1595271825790405,
        "aliasList": [
          "1002"
        ],
        "enableHead": true,
        "useTargetPos": true,
        "enableAbsolute": true,
        "targetPosition": {
          "x": 14.949975967407227,
          "y": 15.981536865234375,
          "z": -14.340188026428223
        },
        "headTurnTime": 0.5,
        "targetNpcAlias": "",
        "targetNpcLookAtPoint": "",
        "OAFJBHJHLJG": ""
      },
      {
        "$type": "LJLMDHDCAMK",
        "type": "LOOK_AT",
        "delayTime": 0.10546179860830307,
        "aliasList": [
          "1002"
        ],
        "enableHead": true,
        "useTargetPos": true,
        "enableAbsolute": true,
        "targetPosition": {
          "x": 16.129926681518555,
          "y": 15.981536865234375,
          "z": -13.539519309997559
        },
        "bodyAngle": 337.8299560546875,
        "headTurnTime": 0.20000000298023224,
        "targetNpcAlias": "",
        "targetNpcLookAtPoint": "",
        "OAFJBHJHLJG": ""
      },
      {
        "$type": "FABLGECDBCH",
        "type": "BODY_LANG",
        "aliasList": [
          "1002"
        ],
        "isContinue": true,
        "eventPatternSuiteKey": "",
        "FOHHKFAIAAJ": ""
      },
      {
        "$type": "CPJKOIHIPBE",
        "type": "EMO_SYNC",
        "aliasList": [
          "1002"
        ],
        "dataPath": "Cs_Emo_Avatar_Simple_Common_Set/Cs_Emo_Avatar_Common_Normal",
        "phonemePath": "",
        "emotionPath": "",
        "mateDataPath": "",
        "matePhonemePath": "",
        "mateEmotionPath": "",
        "dataPathHashList": [
          1254595151211172457,
          11740135046283525816,
          13690962357574067534,
          4569976534232268451
        ],
        "FMDPBECPELH": "",
        "ADKBLPOKGIK": ""
      },
      {
        "$type": "PKKMAMONGEO",
        "type": "DIALOG",
        "aliasList": [
          "1005"
        ],
        "dialogID": 4850302,
        "protectTime": 2.0
      },
      {
        "$type": "LLGANGLOEEO",
        "type": "STEER_TO",
        "duration": 2.0,
        "aliasList": [
          "1005"
        ],
        "steerDir": {
          "x": 0.14020690321922302,
          "z": -0.9901222586631775
        },
        "targetNpcAlias": "",
        "OAFJBHJHLJG": ""
      },
      {
        "$type": "LJLMDHDCAMK",
        "type": "LOOK_AT",
        "aliasList": [
          "1005"
        ],
        "enableHead": true,
        "useTargetPos": true,
        "enableAbsolute": true,
        "targetPosition": {
          "x": 16.679536819458008,
          "y": 16.058624267578125,
          "z": -14.352574348449707
        },
        "targetNpcAlias": "",
        "targetNpcLookAtPoint": "",
        "OAFJBHJHLJG": ""
      },
      {
        "$type": "FABLGECDBCH",
        "type": "BODY_LANG",
        "aliasList": [
          "1005"
        ],
        "bodyLangParam": 1140,
        "eventPatternSuiteKey": "",
        "FOHHKFAIAAJ": ""
      },
      {
        "$type": "CPJKOIHIPBE",
        "type": "EMO_SYNC",
        "aliasList": [
          "1005"
        ],
        "dataPath": "Cs_Emo_Avatar_Simple_Common_Set/Cs_Emo_Avatar_Talk/Cs_Emo_Avatar_PersonalLine/Cs_Emo_Avatar_Ambor/Cs_Emo_4850302",
        "phonemePath": "",
        "emotionPath": "",
        "mateDataPath": "",
        "matePhonemePath": "",
        "mateEmotionPath": "",
        "dataPathHashList": [
          4232577650287743490,
          3353121994357242709,
          8677637575630560895,
          16199312829486558868
        ],
        "FMDPBECPELH": "",
        "ADKBLPOKGIK": ""
      }
    ],
    [
      {
        "$type": "PKKMAMONGEO",
        "type": "DIALOG",
        "aliasList": [
          "1485"
        ],
        "dialogID": 4850303,
        "protectTime": 1.9314786195755005
      },
      {
        "$type": "FABLGECDBCH",
        "type": "BODY_LANG",
        "aliasList": [
          "1485"
        ],
        "bodyLangParam": 1110,
        "eventPatternSuiteKey": "",
        "FOHHKFAIAAJ": ""
      },
      {
        "$type": "FABLGECDBCH",
        "type": "BODY_LANG",
        "delayTime": 0.4000000059604645,
        "aliasList": [
          "1485"
        ],
        "isContinue": true,
        "eventPatternSuiteKey": "",
        "FOHHKFAIAAJ": ""
      },
      {
        "$type": "FABLGECDBCH",
        "type": "BODY_LANG",
        "delayTime": 3.624840021133423,
        "aliasList": [
          "1485"
        ],
        "bodyLangParam": 1120,
        "eventPatternSuiteKey": "",
        "FOHHKFAIAAJ": ""
      },
      {
        "$type": "FABLGECDBCH",
        "type": "BODY_LANG",
        "delayTime": 0.23943179845809937,
        "aliasList": [
          "1005"
        ],
        "isContinue": true,
        "eventPatternSuiteKey": "",
        "FOHHKFAIAAJ": ""
      },
      {
        "$type": "LJLMDHDCAMK",
        "type": "LOOK_AT",
        "delayTime": 0.30678051710128784,
        "aliasList": [
          "1005"
        ],
        "enableHead": true,
        "useTargetPos": true,
        "enableAbsolute": true,
        "targetPosition": {
          "x": 13.630989074707031,
          "y": 15.798437118530273,
          "z": -13.503132820129395
        },
        "targetNpcAlias": "",
        "targetNpcLookAtPoint": "",
        "OAFJBHJHLJG": ""
      },
      {
        "$type": "LLGANGLOEEO",
        "type": "STEER_TO",
        "delayTime": 0.21747350692749023,
        "duration": 2.0,
        "aliasList": [
          "1005"
        ],
        "steerDir": {
          "x": -0.9885281920433044,
          "z": -0.15103621780872345
        },
        "targetNpcAlias": "",
        "OAFJBHJHLJG": ""
      },
      {
        "$type": "CPJKOIHIPBE",
        "type": "EMO_SYNC",
        "aliasList": [
          "1005"
        ],
        "dataPath": "Cs_Emo_Avatar_Simple_Common_Set/Cs_Emo_Pet_Paimon_Normal_01",
        "phonemePath": "",
        "emotionPath": "",
        "mateDataPath": "",
        "matePhonemePath": "",
        "mateEmotionPath": "",
        "dataPathHashList": [
          18260923716060603798,
          11968922329706136025,
          15067560551544285370,
          10516531811065322084
        ],
        "FMDPBECPELH": "",
        "ADKBLPOKGIK": ""
      }
    ],
    [
      {
        "$type": "FJKIHHKJLMJ",
        "type": "CAMERA_MOVE",
        "duration": 1.0,
        "camPosOffset": {
          "x": 15.209455490112305,
          "y": 16.084121704101562,
          "z": -14.68064022064209
        },
        "camForwardTargetOffset": {
          "x": 16.178241729736328,
          "y": 15.960816383361816,
          "z": -14.46558666229248
        },
        "camFov": 30.0,
        "lerpPattern": 6,
        "cameraBlendType": "EaseInOutCubic",
        "NJBNNOMLKCK": {},
        "targetNpcAlias": "",
        "KJOEFBPOIIH": "",
        "IICFKKEBIEC": "",
        "EGEHEJEBLBJ": ""
      },
      {
        "$type": "MoleMole.Config.ConfigCameraDOFAction",
        "type": "CAMERA_DOF",
        "enabled": true,
        "focusDistance": 5.0,
        "focusRange": 5.0,
        "quality": 3
      },
      {
        "$type": "PKKMAMONGEO",
        "type": "DIALOG",
        "aliasList": [
          "1002"
        ],
        "dialogID": 4850304,
        "protectTime": 0.5
      },
      {
        "$type": "FABLGECDBCH",
        "type": "BODY_LANG",
        "aliasList": [
          "1002"
        ],
        "bodyLangParam": 1230,
        "eventPatternSuiteKey": "",
        "FOHHKFAIAAJ": ""
      },
      {
        "$type": "CPJKOIHIPBE",
        "type": "EMO_SYNC",
        "aliasList": [
          "1002"
        ],
        "dataPath": "Cs_Emo_Avatar_Simple_Common_Set/Cs_Emo_Avatar_Talk/Cs_Emo_Avatar_PersonalLine/Cs_Emo_Avatar_Ambor/Cs_Emo_4850304",
        "phonemePath": "",
        "emotionPath": "",
        "mateDataPath": "",
        "matePhonemePath": "",
        "mateEmotionPath": "",
        "dataPathHashList": [
          7505981586064370432,
          17688745200281027637,
          3501715121376354083,
          7212360208970932615
        ],
        "FMDPBECPELH": "",
        "ADKBLPOKGIK": ""
      },
      {
        "$type": "FABLGECDBCH",
        "type": "BODY_LANG",
        "delayTime": 0.4000000059604645,
        "aliasList": [
          "1485"
        ],
        "isContinue": true,
        "eventPatternSuiteKey": "",
        "FOHHKFAIAAJ": ""
      }
    ],
    [
      {
        "$type": "FJKIHHKJLMJ",
        "type": "CAMERA_MOVE",
        "duration": 1.0,
        "camPosOffset": {
          "x": 18.267704010009766,
          "y": 16.094141006469727,
          "z": -15.591755867004395
        },
        "camForwardTargetOffset": {
          "x": 17.2698917388916,
          "y": 16.04315948486328,
          "z": -15.549680709838867
        },
        "camFov": 10.0,
        "lerpRatio": 2.0,
        "lerpPattern": 6,
        "cameraBlendType": "EaseInOutCubic",
        "NJBNNOMLKCK": {},
        "targetNpcAlias": "",
        "KJOEFBPOIIH": "",
        "IICFKKEBIEC": "",
        "EGEHEJEBLBJ": ""
      },
      {
        "$type": "MoleMole.Config.ConfigCameraDOFAction",
        "type": "CAMERA_DOF",
        "enabled": true,
        "focusDistance": 100.0,
        "focusRange": 50.0,
        "quality": 3
      },
      {
        "$type": "LJLMDHDCAMK",
        "type": "LOOK_AT",
        "delayTime": 0.5804333090782166,
        "aliasList": [
          "Avatar"
        ],
        "enableHead": true,
        "useTargetPos": true,
        "enableAbsolute": true,
        "targetPosition": {
          "x": 16.669599533081055,
          "y": 16.024595260620117,
          "z": -14.23795223236084
        },
        "headTurnTime": 0.30000001192092896,
        "targetNpcAlias": "",
        "targetNpcLookAtPoint": "",
        "OAFJBHJHLJG": ""
      },
      {
        "$type": "FABLGECDBCH",
        "type": "BODY_LANG",
        "delayTime": 0.48277977108955383,
        "aliasList": [
          "1002"
        ],
        "isContinue": true,
        "eventPatternSuiteKey": "",
        "FOHHKFAIAAJ": ""
      },
      {
        "$type": "CPJKOIHIPBE",
        "type": "EMO_SYNC",
        "aliasList": [
          "1002"
        ],
        "dataPath": "Cs_Emo_Avatar_Simple_Common_Set/Cs_Emo_Avatar_Common_Normal",
        "phonemePath": "",
        "emotionPath": "",
        "mateDataPath": "",
        "matePhonemePath": "",
        "mateEmotionPath": "",
        "dataPathHashList": [
          1254595151211172457,
          11740135046283525816,
          13690962357574067534,
          4569976534232268451
        ],
        "FMDPBECPELH": "",
        "ADKBLPOKGIK": ""
      },
      {
        "$type": "PKKMAMONGEO",
        "type": "DIALOG",
        "aliasList": [
          "1485"
        ],
        "dialogID": 4850305,
        "protectTime": 2.0
      },
      {
        "$type": "FABLGECDBCH",
        "type": "BODY_LANG",
        "aliasList": [
          "1485"
        ],
        "bodyLangParam": 1290,
        "eventPatternSuiteKey": "",
        "FOHHKFAIAAJ": ""
      }
    ],
    [
      {
        "$type": "FJKIHHKJLMJ",
        "type": "CAMERA_MOVE",
        "duration": 1.0,
        "camPosOffset": {
          "x": 16.114049911499023,
          "y": 16.07041358947754,
          "z": -16.012453079223633
        },
        "camForwardTargetOffset": {
          "x": 16.345556259155273,
          "y": 15.950697898864746,
          "z": -15.047014236450195
        },
        "camFov": 30.0,
        "lerpPattern": 6,
        "cameraBlendType": "EaseInOutCubic",
        "NJBNNOMLKCK": {},
        "targetNpcAlias": "",
        "KJOEFBPOIIH": "",
        "IICFKKEBIEC": "",
        "EGEHEJEBLBJ": ""
      },
      {
        "$type": "MoleMole.Config.ConfigCameraDOFAction",
        "type": "CAMERA_DOF",
        "enabled": true,
        "focusDistance": 5.0,
        "focusRange": 5.0,
        "quality": 3
      },
      {
        "$type": "PKKMAMONGEO",
        "type": "DIALOG",
        "aliasList": [
          "1002"
        ],
        "dialogID": 4850306,
        "protectTime": 0.5
      },
      {
        "$type": "LJLMDHDCAMK",
        "type": "LOOK_AT",
        "aliasList": [
          "1002"
        ],
        "enableHead": true,
        "targetPosition": {
          "x": 14.35664176940918,
          "y": 15.013751983642578,
          "z": -14.38582992553711
        },
        "headRotateVec": {
          "y": 15.0
        },
        "headTurnTime": 0.30000001192092896,
        "targetNpcAlias": "",
        "targetNpcLookAtPoint": "",
        "OAFJBHJHLJG": ""
      },
      {
        "$type": "FABLGECDBCH",
        "type": "BODY_LANG",
        "aliasList": [
          "1002"
        ],
        "bodyLangParam": 1190,
        "eventPatternSuiteKey": "",
        "FOHHKFAIAAJ": ""
      },
      {
        "$type": "CPJKOIHIPBE",
        "type": "EMO_SYNC",
        "aliasList": [
          "1002"
        ],
        "dataPath": "Cs_Emo_Avatar_Simple_Common_Set/Cs_Emo_Avatar_Talk/Cs_Emo_Avatar_PersonalLine/Cs_Emo_Avatar_Ambor/Cs_Emo_4850306",
        "phonemePath": "",
        "emotionPath": "",
        "mateDataPath": "",
        "matePhonemePath": "",
        "mateEmotionPath": "",
        "dataPathHashList": [
          17240049822067486986,
          6636185279450036914,
          5133269770332107307,
          7014043527400237063
        ],
        "FMDPBECPELH": "",
        "ADKBLPOKGIK": ""
      },
      {
        "$type": "LLGANGLOEEO",
        "type": "STEER_TO",
        "delayTime": 0.30000001192092896,
        "duration": 2.0,
        "aliasList": [
          "1005"
        ],
        "steerDir": {
          "x": 0.14020690321922302,
          "z": -0.9901222586631775
        },
        "targetNpcAlias": "",
        "OAFJBHJHLJG": ""
      },
      {
        "$type": "LJLMDHDCAMK",
        "type": "LOOK_AT",
        "delayTime": 0.30000001192092896,
        "aliasList": [
          "1005"
        ],
        "enableHead": true,
        "useTargetPos": true,
        "enableAbsolute": true,
        "targetPosition": {
          "x": 16.684898376464844,
          "y": 16.058624267578125,
          "z": -14.352574348449707
        },
        "targetNpcAlias": "",
        "targetNpcLookAtPoint": "",
        "OAFJBHJHLJG": ""
      }
    ],
    [
      {
        "$type": "FJKIHHKJLMJ",
        "type": "CAMERA_MOVE",
        "duration": 1.0,
        "camPosOffset": {
          "x": 18.267704010009766,
          "y": 16.094141006469727,
          "z": -15.591755867004395
        },
        "camForwardTargetOffset": {
          "x": 17.2698917388916,
          "y": 16.04315948486328,
          "z": -15.549680709838867
        },
        "camFov": 10.0,
        "lerpRatio": 2.0,
        "lerpPattern": 6,
        "cameraBlendType": "EaseInOutCubic",
        "NJBNNOMLKCK": {},
        "targetNpcAlias": "",
        "KJOEFBPOIIH": "",
        "IICFKKEBIEC": "",
        "EGEHEJEBLBJ": ""
      },
      {
        "$type": "MoleMole.Config.ConfigCameraDOFAction",
        "type": "CAMERA_DOF",
        "enabled": true,
        "focusDistance": 100.0,
        "focusRange": 50.0,
        "quality": 3
      },
      {
        "$type": "LJLMDHDCAMK",
        "type": "LOOK_AT",
        "delayTime": 0.28620269894599915,
        "aliasList": [
          "Avatar"
        ],
        "enableHead": true,
        "useTargetPos": true,
        "enableAbsolute": true,
        "targetPosition": {
          "x": 15.036937713623047,
          "y": 16.051855087280273,
          "z": -12.884289741516113
        },
        "bodyAngle": -13.6899995803833,
        "headTurnTime": 0.5,
        "targetNpcAlias": "",
        "targetNpcLookAtPoint": "",
        "OAFJBHJHLJG": ""
      },
      {
        "$type": "LJLMDHDCAMK",
        "type": "LOOK_AT",
        "delayTime": 0.4000000059604645,
        "aliasList": [
          "1002"
        ],
        "enableHead": true,
        "useTargetPos": true,
        "enableAbsolute": true,
        "targetPosition": {
          "x": 14.986479759216309,
          "y": 15.981536865234375,
          "z": -14.340188026428223
        },
        "headTurnTime": 0.30000001192092896,
        "targetNpcAlias": "",
        "targetNpcLookAtPoint": "",
        "OAFJBHJHLJG": ""
      },
      {
        "$type": "FABLGECDBCH",
        "type": "BODY_LANG",
        "delayTime": 0.4000000059604645,
        "aliasList": [
          "1002"
        ],
        "eventPatternSuiteKey": "",
        "FOHHKFAIAAJ": ""
      },
      {
        "$type": "CPJKOIHIPBE",
        "type": "EMO_SYNC",
        "aliasList": [
          "1002"
        ],
        "dataPath": "Cs_Emo_Avatar_Simple_Common_Set/Cs_Emo_Avatar_Common_Normal",
        "phonemePath": "",
        "emotionPath": "",
        "mateDataPath": "",
        "matePhonemePath": "",
        "mateEmotionPath": "",
        "dataPathHashList": [
          1254595151211172457,
          11740135046283525816,
          13690962357574067534,
          4569976534232268451
        ],
        "FMDPBECPELH": "",
        "ADKBLPOKGIK": ""
      },
      {
        "$type": "PKKMAMONGEO",
        "type": "DIALOG",
        "aliasList": [
          "1485"
        ],
        "dialogID": 4850307,
        "protectTime": 0.5
      },
      {
        "$type": "FABLGECDBCH",
        "type": "BODY_LANG",
        "delayTime": 0.4000000059604645,
        "aliasList": [
          "1485"
        ],
        "bodyLangParam": 1060,
        "eventPatternSuiteKey": "",
        "FOHHKFAIAAJ": ""
      },
      {
        "$type": "FABLGECDBCH",
        "type": "BODY_LANG",
        "delayTime": 5.816666126251221,
        "aliasList": [
          "1485"
        ],
        "isContinue": true,
        "eventPatternSuiteKey": "",
        "FOHHKFAIAAJ": ""
      },
      {
        "$type": "LJLMDHDCAMK",
        "type": "LOOK_AT",
        "delayTime": 0.4000000059604645,
        "aliasList": [
          "1005"
        ],
        "enableHead": true,
        "useTargetPos": true,
        "enableAbsolute": true,
        "targetPosition": {
          "x": 14.105795860290527,
          "y": 15.798437118530273,
          "z": -13.503132820129395
        },
        "targetNpcAlias": "",
        "targetNpcLookAtPoint": "",
        "OAFJBHJHLJG": ""
      }
    ],
    [
      {
        "$type": "FJKIHHKJLMJ",
        "type": "CAMERA_MOVE",
        "duration": 1.0,
        "camPosOffset": {
          "x": 20.33241081237793,
          "y": 15.746846199035645,
          "z": -15.268712043762207
        },
        "camForwardTargetOffset": {
          "x": 19.372028350830078,
          "y": 15.68687915802002,
          "z": -14.996554374694824
        },
        "camFov": 30.0,
        "lerpPattern": 6,
        "cameraBlendType": "EaseInOutCubic",
        "NJBNNOMLKCK": {},
        "targetNpcAlias": "",
        "KJOEFBPOIIH": "",
        "IICFKKEBIEC": "",
        "EGEHEJEBLBJ": ""
      },
      {
        "$type": "HDGKHDNFMIM",
        "type": "DIALOG_SELECT",
        "delayTime": 0.4000000059604645,
        "aliasList": [
          "Avatar"
        ],
        "dialogIDList": [
          4850309,
          4850310
        ],
        "grpIDList": [
          80203296,
          80203296
        ],
        "useGrpId": true
      },
      {
        "$type": "LJLMDHDCAMK",
        "type": "LOOK_AT",
        "delayTime": 0.4000000059604645,
        "aliasList": [
          "Avatar"
        ],
        "enableHead": true,
        "useTargetPos": true,
        "enableAbsolute": true,
        "targetPosition": {
          "x": 16.82010269165039,
          "y": 16.058624267578125,
          "z": -14.352574348449707
        },
        "headTurnTime": 0.5,
        "targetNpcAlias": "",
        "targetNpcLookAtPoint": "",
        "OAFJBHJHLJG": ""
      },
      {
        "$type": "PKKMAMONGEO",
        "type": "DIALOG",
        "aliasList": [
          "1002"
        ],
        "dialogID": 4850308,
        "protectTime": 0.5
      },
      {
        "$type": "FABLGECDBCH",
        "type": "BODY_LANG",
        "aliasList": [
          "1002"
        ],
        "bodyLangParam": 1230,
        "eventPatternSuiteKey": "",
        "FOHHKFAIAAJ": ""
      },
      {
        "$type": "CPJKOIHIPBE",
        "type": "EMO_SYNC",
        "aliasList": [
          "1002"
        ],
        "dataPath": "Cs_Emo_Avatar_Simple_Common_Set/Cs_Emo_Avatar_Talk/Cs_Emo_Avatar_PersonalLine/Cs_Emo_Avatar_Ambor/Cs_Emo_4850308",
        "phonemePath": "",
        "emotionPath": "",
        "mateDataPath": "",
        "matePhonemePath": "",
        "mateEmotionPath": "",
        "dataPathHashList": [
          5312933028581590187,
          13208167963572773140,
          9231853003510878630,
          13280792619409893446
        ],
        "FMDPBECPELH": "",
        "ADKBLPOKGIK": ""
      },
      {
        "$type": "FABLGECDBCH",
        "type": "BODY_LANG",
        "aliasList": [
          "1485"
        ],
        "isContinue": true,
        "eventPatternSuiteKey": "",
        "FOHHKFAIAAJ": ""
      },
      {
        "$type": "LJLMDHDCAMK",
        "type": "LOOK_AT",
        "delayTime": 0.37110254168510437,
        "aliasList": [
          "1005"
        ],
        "enableHead": true,
        "useTargetPos": true,
        "enableAbsolute": true,
        "targetPosition": {
          "x": 16.82010269165039,
          "y": 16.058624267578125,
          "z": -14.352574348449707
        },
        "headTurnTime": 0.4000000059604645,
        "targetNpcAlias": "",
        "targetNpcLookAtPoint": "",
        "OAFJBHJHLJG": ""
      }
    ],
    [
      {
        "$type": "FJKIHHKJLMJ",
        "type": "CAMERA_MOVE",
        "duration": 1.0,
        "camPosOffset": {
          "x": 16.499876022338867,
          "y": 16.11008071899414,
          "z": -13.122751235961914
        },
        "camForwardTargetOffset": {
          "x": 16.723045349121094,
          "y": 16.0172119140625,
          "z": -14.093096733093262
        },
        "camFov": 30.0,
        "lerpPattern": 6,
        "cameraBlendType": "EaseInOutCubic",
        "NJBNNOMLKCK": {},
        "targetNpcAlias": "",
        "KJOEFBPOIIH": "",
        "IICFKKEBIEC": "",
        "EGEHEJEBLBJ": ""
      },
      {
        "$type": "MoleMole.Config.ConfigCameraDOFAction",
        "type": "CAMERA_DOF",
        "enabled": true,
        "focusDistance": 5.0,
        "focusRange": 5.0,
        "quality": 3
      },
      {
        "$type": "PKKMAMONGEO",
        "type": "DIALOG",
        "aliasList": [
          "1002"
        ],
        "dialogID": 4850311,
        "protectTime": 0.10000000149011612
      },
      {
        "$type": "LJLMDHDCAMK",
        "type": "LOOK_AT",
        "aliasList": [
          "1002"
        ],
        "enableHead": true,
        "useTargetPos": true,
        "enableAbsolute": true,
        "targetPosition": {
          "x": 16.710371017456055,
          "y": 16.1152400970459,
          "z": -13.100686073303223
        },
        "headTurnTime": 0.30000001192092896,
        "targetNpcAlias": "",
        "targetNpcLookAtPoint": "",
        "OAFJBHJHLJG": ""
      },
      {
        "$type": "FABLGECDBCH",
        "type": "BODY_LANG",
        "aliasList": [
          "1002"
        ],
        "isContinue": true,
        "eventPatternSuiteKey": "",
        "FOHHKFAIAAJ": ""
      },
      {
        "$type": "CPJKOIHIPBE",
        "type": "EMO_SYNC",
        "aliasList": [
          "1002"
        ],
        "dataPath": "Cs_Emo_Avatar_Simple_Common_Set/Cs_Emo_Avatar_Talk/Cs_Emo_Avatar_PersonalLine/Cs_Emo_Avatar_Ambor/Cs_Emo_4850311",
        "phonemePath": "",
        "emotionPath": "",
        "mateDataPath": "",
        "matePhonemePath": "",
        "mateEmotionPath": "",
        "dataPathHashList": [
          10697531026945984800,
          912321682694078797,
          9527750923597882857,
          8408199915649236252
        ],
        "FMDPBECPELH": "",
        "ADKBLPOKGIK": ""
      }
    ],
    [
      {
        "$type": "PKKMAMONGEO",
        "type": "DIALOG",
        "aliasList": [
          "1002"
        ],
        "dialogID": 4850312
      },
      {
        "$type": "LJLMDHDCAMK",
        "type": "LOOK_AT",
        "aliasList": [
          "1002"
        ],
        "enableHead": true,
        "useTargetPos": true,
        "enableAbsolute": true,
        "targetPosition": {
          "x": 15.726536750793457,
          "y": 15.807947158813477,
          "z": -13.69669246673584
        },
        "headTurnTime": 0.4000000059604645,
        "targetNpcAlias": "",
        "targetNpcLookAtPoint": "",
        "OAFJBHJHLJG": ""
      },
      {
        "$type": "FABLGECDBCH",
        "type": "BODY_LANG",
        "aliasList": [
          "1002"
        ],
        "bodyLangParam": 1130,
        "eventPatternSuiteKey": "",
        "FOHHKFAIAAJ": ""
      },
      {
        "$type": "CPJKOIHIPBE",
        "type": "EMO_SYNC",
        "aliasList": [
          "1002"
        ],
        "dataPath": "Cs_Emo_Avatar_Simple_Common_Set/Cs_Emo_Avatar_Talk/Cs_Emo_Avatar_PersonalLine/Cs_Emo_Avatar_Ambor/Cs_Emo_4850312",
        "phonemePath": "",
        "emotionPath": "",
        "mateDataPath": "",
        "matePhonemePath": "",
        "mateEmotionPath": "",
        "dataPathHashList": [
          14803573222338183828,
          9718096736151878750,
          4776813210545319504,
          1553479457986331709
        ],
        "FMDPBECPELH": "",
        "ADKBLPOKGIK": ""
      }
    ],
    [
      {
        "$type": "FJKIHHKJLMJ",
        "type": "CAMERA_MOVE",
        "duration": 1.0,
        "camPosOffset": {
          "x": 16.37360382080078,
          "y": 15.9625825881958,
          "z": -15.672723770141602
        },
        "camForwardTargetOffset": {
          "x": 16.46478271484375,
          "y": 15.932583808898926,
          "z": -14.67734146118164
        },
        "camFov": 30.0,
        "lerpPattern": 6,
        "NJBNNOMLKCK": {},
        "targetNpcAlias": "",
        "KJOEFBPOIIH": "",
        "IICFKKEBIEC": "",
        "EGEHEJEBLBJ": ""
      },
      {
        "$type": "HDGKHDNFMIM",
        "type": "DIALOG_SELECT",
        "delayTime": 0.4000000059604645,
        "aliasList": [
          "Avatar"
        ],
        "dialogIDList": [
          4850314,
          4850317,
          4850319
        ],
        "grpIDList": [
          2486301978,
          2486301980,
          2486301981
        ],
        "useGrpId": true
      },
      {
        "$type": "LJLMDHDCAMK",
        "type": "LOOK_AT",
        "delayTime": 0.3303276002407074,
        "aliasList": [
          "1002"
        ],
        "enableHead": true,
        "useTargetPos": true,
        "enableAbsolute": true,
        "targetPosition": {
          "x": 16.039636611938477,
          "y": 15.963675498962402,
          "z": -13.58797550201416
        },
        "headTurnTime": 0.30000001192092896,
        "targetNpcAlias": "",
        "targetNpcLookAtPoint": "",
        "OAFJBHJHLJG": ""
      },
      {
        "$type": "FABLGECDBCH",
        "type": "BODY_LANG",
        "delayTime": 0.30000001192092896,
        "aliasList": [
          "1002"
        ],
        "isContinue": true,
        "eventPatternSuiteKey": "",
        "FOHHKFAIAAJ": ""
      },
      {
        "$type": "CPJKOIHIPBE",
        "type": "EMO_SYNC",
        "aliasList": [
          "1002"
        ],
        "dataPath": "Cs_Emo_Avatar_Simple_Common_Set/Cs_Emo_Avatar_Common_Normal",
        "phonemePath": "",
        "emotionPath": "",
        "mateDataPath": "",
        "matePhonemePath": "",
        "mateEmotionPath": "",
        "dataPathHashList": [
          1254595151211172457,
          11740135046283525816,
          13690962357574067534,
          4569976534232268451
        ],
        "FMDPBECPELH": "",
        "ADKBLPOKGIK": ""
      },
      {
        "$type": "PKKMAMONGEO",
        "type": "DIALOG",
        "aliasList": [
          "1005"
        ],
        "dialogID": 4850313,
        "protectTime": 0.5
      },
      {
        "$type": "FABLGECDBCH",
        "type": "BODY_LANG",
        "aliasList": [
          "1005"
        ],
        "bodyLangParam": 1190,
        "eventPatternSuiteKey": "",
        "FOHHKFAIAAJ": ""
      },
      {
        "$type": "CPJKOIHIPBE",
        "type": "EMO_SYNC",
        "aliasList": [
          "1005"
        ],
        "dataPath": "Cs_Emo_Avatar_Simple_Common_Set/Cs_Emo_Avatar_Talk/Cs_Emo_Avatar_PersonalLine/Cs_Emo_Avatar_Ambor/Cs_Emo_4850313",
        "phonemePath": "",
        "emotionPath": "",
        "mateDataPath": "",
        "matePhonemePath": "",
        "mateEmotionPath": "",
        "dataPathHashList": [
          16009178394615959279,
          3266983402078088980,
          438422820228129334,
          8624134490615564537
        ],
        "FMDPBECPELH": "",
        "ADKBLPOKGIK": ""
      }
    ],
    [
      {
        "$type": "FJKIHHKJLMJ",
        "type": "CAMERA_MOVE",
        "duration": 1.0,
        "camPosOffset": {
          "x": 13.895320892333984,
          "y": 15.616865158081055,
          "z": -12.931475639343262
        },
        "camForwardTargetOffset": {
          "x": 14.863496780395508,
          "y": 15.643858909606934,
          "z": -13.18028736114502
        },
        "camFov": 30.0,
        "lerpPattern": 6,
        "NJBNNOMLKCK": {},
        "targetNpcAlias": "",
        "KJOEFBPOIIH": "",
        "IICFKKEBIEC": "",
        "EGEHEJEBLBJ": ""
      },
      {
        "$type": "PKKMAMONGEO",
        "type": "DIALOG",
        "aliasList": [
          "1002"
        ],
        "dialogID": 4850315,
        "protectTime": 0.5
      },
      {
        "$type": "LJLMDHDCAMK",
        "type": "LOOK_AT",
        "aliasList": [
          "1002"
        ],
        "enableHead": true,
        "useTargetPos": true,
        "enableAbsolute": true,
        "targetPosition": {
          "x": 16.70494270324707,
          "y": 16.1152400970459,
          "z": -13.100686073303223
        },
        "headTurnTime": 0.30000001192092896,
        "targetNpcAlias": "",
        "targetNpcLookAtPoint": "",
        "OAFJBHJHLJG": ""
      },
      {
        "$type": "FABLGECDBCH",
        "type": "BODY_LANG",
        "aliasList": [
          "1002"
        ],
        "bodyLangParam": 1110,
        "eventPatternSuiteKey": "",
        "FOHHKFAIAAJ": ""
      },
      {
        "$type": "CPJKOIHIPBE",
        "type": "EMO_SYNC",
        "aliasList": [
          "1002"
        ],
        "dataPath": "Cs_Emo_Avatar_Simple_Common_Set/Cs_Emo_Avatar_Talk/Cs_Emo_Avatar_PersonalLine/Cs_Emo_Avatar_Ambor/Cs_Emo_4850315",
        "phonemePath": "",
        "emotionPath": "",
        "mateDataPath": "",
        "matePhonemePath": "",
        "mateEmotionPath": "",
        "dataPathHashList": [
          2438208937960299835,
          11734186672041451549,
          11069956940488389790,
          9644551318402837220
        ],
        "FMDPBECPELH": "",
        "ADKBLPOKGIK": ""
      },
      {
        "$type": "FABLGECDBCH",
        "type": "BODY_LANG",
        "delayTime": 2.6956703662872314,
        "aliasList": [
          "1002"
        ],
        "isContinue": true,
        "eventPatternSuiteKey": "",
        "FOHHKFAIAAJ": ""
      },
      {
        "$type": "FABLGECDBCH",
        "type": "BODY_LANG",
        "delayTime": 0.4000000059604645,
        "aliasList": [
          "1005"
        ],
        "isContinue": true,
        "eventPatternSuiteKey": "",
        "FOHHKFAIAAJ": ""
      },
      {
        "$type": "CPJKOIHIPBE",
        "type": "EMO_SYNC",
        "aliasList": [
          "1005"
        ],
        "dataPath": "Cs_Emo_Avatar_Simple_Common_Set/Cs_Emo_Pet_Paimon_Normal_01",
        "phonemePath": "",
        "emotionPath": "",
        "mateDataPath": "",
        "matePhonemePath": "",
        "mateEmotionPath": "",
        "dataPathHashList": [
          18260923716060603798,
          11968922329706136025,
          15067560551544285370,
          10516531811065322084
        ],
        "FMDPBECPELH": "",
        "ADKBLPOKGIK": ""
      }
    ],
    [
      {
        "$type": "PKKMAMONGEO",
        "type": "DIALOG",
        "aliasList": [
          "1002"
        ],
        "dialogID": 4850316
      },
      {
        "$type": "FABLGECDBCH",
        "type": "BODY_LANG",
        "aliasList": [
          "1002"
        ],
        "isContinue": true,
        "eventPatternSuiteKey": "",
        "FOHHKFAIAAJ": ""
      },
      {
        "$type": "CPJKOIHIPBE",
        "type": "EMO_SYNC",
        "aliasList": [
          "1002"
        ],
        "dataPath": "Cs_Emo_Avatar_Simple_Common_Set/Cs_Emo_Avatar_Talk/Cs_Emo_Avatar_PersonalLine/Cs_Emo_Avatar_Ambor/Cs_Emo_4850316",
        "phonemePath": "",
        "emotionPath": "",
        "mateDataPath": "",
        "matePhonemePath": "",
        "mateEmotionPath": "",
        "dataPathHashList": [
          12805474256373583380,
          3967070785454934979,
          13717945613432442275,
          2885318333624801501
        ],
        "FMDPBECPELH": "",
        "ADKBLPOKGIK": ""
      }
    ],
    [
      {
        "$type": "FJKIHHKJLMJ",
        "type": "CAMERA_MOVE",
        "duration": 1.0,
        "camPosOffset": {
          "x": 13.895320892333984,
          "y": 15.616865158081055,
          "z": -12.931475639343262
        },
        "camForwardTargetOffset": {
          "x": 14.863496780395508,
          "y": 15.643858909606934,
          "z": -13.18028736114502
        },
        "camFov": 30.0,
        "lerpPattern": 6,
        "NJBNNOMLKCK": {},
        "targetNpcAlias": "",
        "KJOEFBPOIIH": "",
        "IICFKKEBIEC": "",
        "EGEHEJEBLBJ": ""
      },
      {
        "$type": "LJLMDHDCAMK",
        "type": "LOOK_AT",
        "delayTime": 0.14510579407215118,
        "aliasList": [
          "Avatar"
        ],
        "enableHead": true,
        "useTargetPos": true,
        "enableAbsolute": true,
        "targetPosition": {
          "x": 16.03643798828125,
          "y": 15.963675498962402,
          "z": -13.58797550201416
        },
        "headTurnTime": 0.4000000059604645,
        "targetNpcAlias": "",
        "targetNpcLookAtPoint": "",
        "OAFJBHJHLJG": ""
      },
      {
        "$type": "FABLGECDBCH",
        "type": "BODY_LANG",
        "delayTime": 0.2083340585231781,
        "aliasList": [
          "1002"
        ],
        "bodyLangParam": 1220,
        "eventPatternSuiteKey": "",
        "FOHHKFAIAAJ": ""
      },
      {
        "$type": "LJLMDHDCAMK",
        "type": "LOOK_AT",
        "delayTime": 0.4000000059604645,
        "aliasList": [
          "1002"
        ],
        "enableHead": true,
        "useTargetPos": true,
        "enableAbsolute": true,
        "targetPosition": {
          "x": 16.03643798828125,
          "y": 15.963675498962402,
          "z": -13.58797550201416
        },
        "headTurnTime": 0.30000001192092896,
        "targetNpcAlias": "",
        "targetNpcLookAtPoint": "",
        "OAFJBHJHLJG": ""
      },
      {
        "$type": "PKKMAMONGEO",
        "type": "DIALOG",
        "aliasList": [
          "1005"
        ],
        "dialogID": 4850318,
        "protectTime": 0.5
      },
      {
        "$type": "FABLGECDBCH",
        "type": "BODY_LANG",
        "aliasList": [
          "1005"
        ],
        "isContinue": true,
        "bodyLangParam": 1170,
        "eventPatternSuiteKey": "",
        "FOHHKFAIAAJ": ""
      },
      {
        "$type": "LLGANGLOEEO",
        "type": "STEER_TO",
        "duration": 2.0,
        "aliasList": [
          "1005"
        ],
        "steerDir": {
          "x": 0.7868340611457825,
          "z": 0.6171645522117615
        },
        "targetNpcAlias": "",
        "OAFJBHJHLJG": ""
      },
      {
        "$type": "LJLMDHDCAMK",
        "type": "LOOK_AT",
        "aliasList": [
          "1005"
        ],
        "enableHead": true,
        "useTargetPos": true,
        "enableAbsolute": true,
        "targetPosition": {
          "x": 16.65510368347168,
          "y": 16.132158279418945,
          "z": -12.909492492675781
        },
        "headTurnTime": 0.4000000059604645,
        "targetNpcAlias": "",
        "targetNpcLookAtPoint": "",
        "OAFJBHJHLJG": ""
      },
      {
        "$type": "FABLGECDBCH",
        "type": "BODY_LANG",
        "delayTime": 0.4000000059604645,
        "aliasList": [
          "1005"
        ],
        "eventPatternSuiteKey": "",
        "FOHHKFAIAAJ": ""
      },
      {
        "$type": "CPJKOIHIPBE",
        "type": "EMO_SYNC",
        "aliasList": [
          "1005"
        ],
        "dataPath": "Cs_Emo_Avatar_Simple_Common_Set/Cs_Emo_Avatar_Talk/Cs_Emo_Avatar_PersonalLine/Cs_Emo_Avatar_Ambor/Cs_Emo_4850318",
        "phonemePath": "",
        "emotionPath": "",
        "mateDataPath": "",
        "matePhonemePath": "",
        "mateEmotionPath": "",
        "dataPathHashList": [
          16706747820477334225,
          2672820750465795584,
          3169831796291857868,
          15170222426995783735
        ],
        "FMDPBECPELH": "",
        "ADKBLPOKGIK": ""
      }
    ],
    [
      {
        "$type": "FJKIHHKJLMJ",
        "type": "CAMERA_MOVE",
        "duration": 1.0,
        "camPosOffset": {
          "x": 13.895320892333984,
          "y": 15.616865158081055,
          "z": -12.931475639343262
        },
        "camForwardTargetOffset": {
          "x": 14.863496780395508,
          "y": 15.643858909606934,
          "z": -13.18028736114502
        },
        "camFov": 30.0,
        "lerpPattern": 6,
        "NJBNNOMLKCK": {},
        "targetNpcAlias": "",
        "KJOEFBPOIIH": "",
        "IICFKKEBIEC": "",
        "EGEHEJEBLBJ": ""
      },
      {
        "$type": "LJLMDHDCAMK",
        "type": "LOOK_AT",
        "delayTime": 0.14510579407215118,
        "aliasList": [
          "Avatar"
        ],
        "enableHead": true,
        "useTargetPos": true,
        "enableAbsolute": true,
        "targetPosition": {
          "x": 16.03643798828125,
          "y": 15.963675498962402,
          "z": -13.58797550201416
        },
        "headTurnTime": 0.4000000059604645,
        "targetNpcAlias": "",
        "targetNpcLookAtPoint": "",
        "OAFJBHJHLJG": ""
      },
      {
        "$type": "FABLGECDBCH",
        "type": "BODY_LANG",
        "delayTime": 0.2083340585231781,
        "aliasList": [
          "1002"
        ],
        "bodyLangParam": 1120,
        "eventPatternSuiteKey": "",
        "FOHHKFAIAAJ": ""
      },
      {
        "$type": "LJLMDHDCAMK",
        "type": "LOOK_AT",
        "delayTime": 0.1916656196117401,
        "aliasList": [
          "1002"
        ],
        "enableHead": true,
        "useTargetPos": true,
        "enableAbsolute": true,
        "targetPosition": {
          "x": 16.057710647583008,
          "y": 15.963675498962402,
          "z": -13.58797550201416
        },
        "headTurnTime": 0.30000001192092896,
        "targetNpcAlias": "",
        "targetNpcLookAtPoint": "",
        "OAFJBHJHLJG": ""
      },
      {
        "$type": "PKKMAMONGEO",
        "type": "DIALOG",
        "aliasList": [
          "1005"
        ],
        "dialogID": 4850320,
        "protectTime": 0.5
      },
      {
        "$type": "FABLGECDBCH",
        "type": "BODY_LANG",
        "aliasList": [
          "1005"
        ],
        "bodyLangParam": 1110,
        "eventPatternSuiteKey": "",
        "FOHHKFAIAAJ": ""
      },
      {
        "$type": "FABLGECDBCH",
        "type": "BODY_LANG",
        "delayTime": 0.4000000059604645,
        "aliasList": [
          "1005"
        ],
        "isContinue": true,
        "eventPatternSuiteKey": "",
        "FOHHKFAIAAJ": ""
      },
      {
        "$type": "CPJKOIHIPBE",
        "type": "EMO_SYNC",
        "aliasList": [
          "1005"
        ],
        "dataPath": "Cs_Emo_Avatar_Simple_Common_Set/Cs_Emo_Avatar_Talk/Cs_Emo_Avatar_PersonalLine/Cs_Emo_Avatar_Ambor/Cs_Emo_4850320",
        "phonemePath": "",
        "emotionPath": "",
        "mateDataPath": "",
        "matePhonemePath": "",
        "mateEmotionPath": "",
        "dataPathHashList": [
          13493123210821508092,
          14319610481735983112,
          15168109428997198425,
          14131104320445027888
        ],
        "FMDPBECPELH": "",
        "ADKBLPOKGIK": ""
      },
      {
        "$type": "LLGANGLOEEO",
        "type": "STEER_TO",
        "duration": 2.0,
        "aliasList": [
          "1005"
        ],
        "steerDir": {
          "x": 0.7868340611457825,
          "z": 0.6171645522117615
        },
        "targetNpcAlias": "",
        "OAFJBHJHLJG": ""
      },
      {
        "$type": "LJLMDHDCAMK",
        "type": "LOOK_AT",
        "aliasList": [
          "1005"
        ],
        "enableHead": true,
        "useTargetPos": true,
        "enableAbsolute": true,
        "targetPosition": {
          "x": 16.65510368347168,
          "y": 16.132158279418945,
          "z": -12.909492492675781
        },
        "headTurnTime": 0.4000000059604645,
        "targetNpcAlias": "",
        "targetNpcLookAtPoint": "",
        "OAFJBHJHLJG": ""
      }
    ],
    [
      {
        "$type": "FJKIHHKJLMJ",
        "type": "CAMERA_MOVE",
        "duration": 1.0,
        "camPosOffset": {
          "x": 13.895320892333984,
          "y": 15.616865158081055,
          "z": -12.931475639343262
        },
        "camForwardTargetOffset": {
          "x": 14.863496780395508,
          "y": 15.643858909606934,
          "z": -13.18028736114502
        },
        "camFov": 30.0,
        "lerpPattern": 6,
        "NJBNNOMLKCK": {},
        "targetNpcAlias": "",
        "KJOEFBPOIIH": "",
        "IICFKKEBIEC": "",
        "EGEHEJEBLBJ": ""
      },
      {
        "$type": "LJLMDHDCAMK",
        "type": "LOOK_AT",
        "delayTime": 0.4000000059604645,
        "aliasList": [
          "Avatar"
        ],
        "enableHead": true,
        "useTargetPos": true,
        "enableAbsolute": true,
        "targetPosition": {
          "x": 16.82010269165039,
          "y": 16.058624267578125,
          "z": -14.352574348449707
        },
        "headTurnTime": 0.4000000059604645,
        "targetNpcAlias": "",
        "targetNpcLookAtPoint": "",
        "OAFJBHJHLJG": ""
      },
      {
        "$type": "PKKMAMONGEO",
        "type": "DIALOG",
        "aliasList": [
          "1002"
        ],
        "dialogID": 4850321,
        "protectTime": 0.5
      },
      {
        "$type": "CPJKOIHIPBE",
        "type": "EMO_SYNC",
        "aliasList": [
          "1002"
        ],
        "dataPath": "Cs_Emo_Avatar_Simple_Common_Set/Cs_Emo_Avatar_Talk/Cs_Emo_Avatar_PersonalLine/Cs_Emo_Avatar_Ambor/Cs_Emo_4850321",
        "phonemePath": "",
        "emotionPath": "",
        "mateDataPath": "",
        "matePhonemePath": "",
        "mateEmotionPath": "",
        "dataPathHashList": [
          180429437695657316,
          14885823642740637768,
          15351349315721368196,
          7179136313151982027
        ],
        "FMDPBECPELH": "",
        "ADKBLPOKGIK": ""
      },
      {
        "$type": "LJLMDHDCAMK",
        "type": "LOOK_AT",
        "delayTime": 0.4000000059604645,
        "aliasList": [
          "1005"
        ],
        "enableHead": true,
        "useTargetPos": true,
        "enableAbsolute": true,
        "targetPosition": {
          "x": 16.82010269165039,
          "y": 16.058624267578125,
          "z": -14.352574348449707
        },
        "headTurnTime": 0.4000000059604645,
        "targetNpcAlias": "",
        "targetNpcLookAtPoint": "",
        "OAFJBHJHLJG": ""
      }
    ],
    [
      {
        "$type": "FJKIHHKJLMJ",
        "type": "CAMERA_MOVE",
        "duration": 1.0,
        "camPosOffset": {
          "x": 18.267704010009766,
          "y": 16.094141006469727,
          "z": -15.591755867004395
        },
        "camForwardTargetOffset": {
          "x": 17.2698917388916,
          "y": 16.04315948486328,
          "z": -15.549680709838867
        },
        "camFov": 10.0,
        "lerpRatio": 2.0,
        "lerpPattern": 6,
        "cameraBlendType": "EaseInOutCubic",
        "NJBNNOMLKCK": {},
        "targetNpcAlias": "",
        "KJOEFBPOIIH": "",
        "IICFKKEBIEC": "",
        "EGEHEJEBLBJ": ""
      },
      {
        "$type": "MoleMole.Config.ConfigCameraDOFAction",
        "type": "CAMERA_DOF",
        "enabled": true,
        "focusDistance": 100.0,
        "focusRange": 50.0,
        "quality": 3
      },
      {
        "$type": "LJLMDHDCAMK",
        "type": "LOOK_AT",
        "delayTime": 0.2697603702545166,
        "aliasList": [
          "1002"
        ],
        "enableHead": true,
        "useTargetPos": true,
        "enableAbsolute": true,
        "targetPosition": {
          "x": 14.953849792480469,
          "y": 15.981536865234375,
          "z": -14.340188026428223
        },
        "headTurnTime": 0.5,
        "targetNpcAlias": "",
        "targetNpcLookAtPoint": "",
        "OAFJBHJHLJG": ""
      },
      {
        "$type": "FABLGECDBCH",
        "type": "BODY_LANG",
        "delayTime": 0.3158760368824005,
        "aliasList": [
          "1002"
        ],
        "isContinue": true,
        "eventPatternSuiteKey": "",
        "FOHHKFAIAAJ": ""
      },
      {
        "$type": "CPJKOIHIPBE",
        "type": "EMO_SYNC",
        "aliasList": [
          "1002"
        ],
        "dataPath": "Cs_Emo_Avatar_Simple_Common_Set/Cs_Emo_Avatar_Common_Normal",
        "phonemePath": "",
        "emotionPath": "",
        "mateDataPath": "",
        "matePhonemePath": "",
        "mateEmotionPath": "",
        "dataPathHashList": [
          1254595151211172457,
          11740135046283525816,
          13690962357574067534,
          4569976534232268451
        ],
        "FMDPBECPELH": "",
        "ADKBLPOKGIK": ""
      },
      {
        "$type": "PKKMAMONGEO",
        "type": "DIALOG",
        "aliasList": [
          "1485"
        ],
        "dialogID": 4850322,
        "protectTime": 0.5
      },
      {
        "$type": "FABLGECDBCH",
        "type": "BODY_LANG",
        "aliasList": [
          "1485"
        ],
        "bodyLangParam": 1060,
        "eventPatternSuiteKey": "",
        "FOHHKFAIAAJ": ""
      },
      {
        "$type": "FABLGECDBCH",
        "type": "BODY_LANG",
        "delayTime": 0.4000000059604645,
        "aliasList": [
          "1485"
        ],
        "isContinue": true,
        "eventPatternSuiteKey": "",
        "FOHHKFAIAAJ": ""
      },
      {
        "$type": "FABLGECDBCH",
        "type": "BODY_LANG",
        "delayTime": 0.23943179845809937,
        "aliasList": [
          "1005"
        ],
        "isContinue": true,
        "eventPatternSuiteKey": "",
        "FOHHKFAIAAJ": ""
      },
      {
        "$type": "LJLMDHDCAMK",
        "type": "LOOK_AT",
        "delayTime": 0.30678051710128784,
        "aliasList": [
          "1005"
        ],
        "enableHead": true,
        "useTargetPos": true,
        "enableAbsolute": true,
        "targetPosition": {
          "x": 14.57562255859375,
          "y": 15.798437118530273,
          "z": -13.503132820129395
        },
        "targetNpcAlias": "",
        "targetNpcLookAtPoint": "",
        "OAFJBHJHLJG": ""
      },
      {
        "$type": "LLGANGLOEEO",
        "type": "STEER_TO",
        "delayTime": 0.21747350692749023,
        "duration": 0.10000000149011612,
        "aliasList": [
          "1005"
        ],
        "steerDir": {
          "x": -0.9885281920433044,
          "z": -0.15103621780872345
        },
        "targetNpcAlias": "",
        "OAFJBHJHLJG": ""
      },
      {
        "$type": "CPJKOIHIPBE",
        "type": "EMO_SYNC",
        "aliasList": [
          "1005"
        ],
        "dataPath": "Cs_Emo_Avatar_Simple_Common_Set/Cs_Emo_Pet_Paimon_Normal_01",
        "phonemePath": "",
        "emotionPath": "",
        "mateDataPath": "",
        "matePhonemePath": "",
        "mateEmotionPath": "",
        "dataPathHashList": [
          18260923716060603798,
          11968922329706136025,
          15067560551544285370,
          10516531811065322084
        ],
        "FMDPBECPELH": "",
        "ADKBLPOKGIK": ""
      }
    ],
    [
      {
        "$type": "FJKIHHKJLMJ",
        "type": "CAMERA_MOVE",
        "duration": 1.0,
        "camPosOffset": {
          "x": 13.902074813842773,
          "y": 15.73718547821045,
          "z": -12.892166137695312
        },
        "camForwardTargetOffset": {
          "x": 14.870250701904297,
          "y": 15.764179229736328,
          "z": -13.14097785949707
        },
        "camFov": 30.0,
        "lerpPattern": 6,
        "NJBNNOMLKCK": {},
        "targetNpcAlias": "",
        "KJOEFBPOIIH": "",
        "IICFKKEBIEC": "",
        "EGEHEJEBLBJ": ""
      },
      {
        "$type": "MoleMole.Config.ConfigCameraDOFAction",
        "type": "CAMERA_DOF",
        "enabled": true,
        "focusDistance": 5.0,
        "focusRange": 5.0,
        "quality": 3
      },
      {
        "$type": "LJLMDHDCAMK",
        "type": "LOOK_AT",
        "aliasList": [
          "Avatar"
        ],
        "enableHead": true,
        "useTargetPos": true,
        "enableAbsolute": true,
        "targetPosition": {
          "x": 15.475584030151367,
          "y": 16.096595764160156,
          "z": -13.116253852844238
        },
        "headTurnTime": 0.30000001192092896,
        "targetNpcAlias": "",
        "targetNpcLookAtPoint": "",
        "OAFJBHJHLJG": ""
      },
      {
        "$type": "PKKMAMONGEO",
        "type": "DIALOG",
        "aliasList": [
          "1005"
        ],
        "dialogID": 4850323
      },
      {
        "$type": "FABLGECDBCH",
        "type": "BODY_LANG",
        "aliasList": [
          "1005"
        ],
        "bodyLangParam": 1060,
        "eventPatternSuiteKey": "",
        "FOHHKFAIAAJ": ""
      },
      {
        "$type": "CPJKOIHIPBE",
        "type": "EMO_SYNC",
        "aliasList": [
          "1005"
        ],
        "dataPath": "Cs_Emo_Avatar_Simple_Common_Set/Cs_Emo_Avatar_Talk/Cs_Emo_Avatar_PersonalLine/Cs_Emo_Avatar_Ambor/Cs_Emo_4850323",
        "phonemePath": "",
        "emotionPath": "",
        "mateDataPath": "",
        "matePhonemePath": "",
        "mateEmotionPath": "",
        "dataPathHashList": [
          12354716947137872368,
          15398552592142317056,
          3684335988034655758,
          3039167400421111882
        ],
        "FMDPBECPELH": "",
        "ADKBLPOKGIK": ""
      }
    ],
    [
      {
        "$type": "LJLMDHDCAMK",
        "type": "LOOK_AT",
        "delayTime": 0.4000000059604645,
        "aliasList": [
          "Avatar"
        ],
        "enableHead": true,
        "useTargetPos": true,
        "enableAbsolute": true,
        "targetPosition": {
          "x": 16.762001037597656,
          "y": 16.058624267578125,
          "z": -14.352574348449707
        },
        "headTurnTime": 0.30000001192092896,
        "targetNpcAlias": "",
        "targetNpcLookAtPoint": "",
        "OAFJBHJHLJG": ""
      },
      {
        "$type": "PKKMAMONGEO",
        "type": "DIALOG",
        "aliasList": [
          "1002"
        ],
        "dialogID": 4850324,
        "protectTime": 0.5
      },
      {
        "$type": "LJLMDHDCAMK",
        "type": "LOOK_AT",
        "aliasList": [
          "1002"
        ],
        "enableHead": true,
        "useTargetPos": true,
        "enableAbsolute": true,
        "targetPosition": {
          "x": 16.02452850341797,
          "y": 15.963675498962402,
          "z": -13.58797550201416
        },
        "headTurnTime": 0.30000001192092896,
        "targetNpcAlias": "",
        "targetNpcLookAtPoint": "",
        "OAFJBHJHLJG": ""
      },
      {
        "$type": "FABLGECDBCH",
        "type": "BODY_LANG",
        "aliasList": [
          "1002"
        ],
        "bodyLangParam": 1230,
        "eventPatternSuiteKey": "",
        "FOHHKFAIAAJ": ""
      },
      {
        "$type": "CPJKOIHIPBE",
        "type": "EMO_SYNC",
        "aliasList": [
          "1002"
        ],
        "dataPath": "Cs_Emo_Avatar_Simple_Common_Set/Cs_Emo_Avatar_Talk/Cs_Emo_Avatar_PersonalLine/Cs_Emo_Avatar_Ambor/Cs_Emo_4850324",
        "phonemePath": "",
        "emotionPath": "",
        "mateDataPath": "",
        "matePhonemePath": "",
        "mateEmotionPath": "",
        "dataPathHashList": [
          1961445532286635793,
          552384016734185999,
          6251580944893496373,
          5252418762574167942
        ],
        "FMDPBECPELH": "",
        "ADKBLPOKGIK": ""
      },
      {
        "$type": "FABLGECDBCH",
        "type": "BODY_LANG",
        "aliasList": [
          "1005"
        ],
        "isContinue": true,
        "eventPatternSuiteKey": "",
        "FOHHKFAIAAJ": ""
      },
      {
        "$type": "LLGANGLOEEO",
        "type": "STEER_TO",
        "delayTime": 0.4000000059604645,
        "duration": 2.0,
        "aliasList": [
          "1005"
        ],
        "steerDir": {
          "x": 0.14020690321922302,
          "z": -0.9901222586631775
        },
        "targetNpcAlias": "",
        "OAFJBHJHLJG": ""
      },
      {
        "$type": "LJLMDHDCAMK",
        "type": "LOOK_AT",
        "delayTime": 0.4000000059604645,
        "aliasList": [
          "1005"
        ],
        "enableHead": true,
        "useTargetPos": true,
        "enableAbsolute": true,
        "targetPosition": {
          "x": 16.762001037597656,
          "y": 16.058624267578125,
          "z": -14.352574348449707
        },
        "targetNpcAlias": "",
        "targetNpcLookAtPoint": "",
        "OAFJBHJHLJG": ""
      },
      {
        "$type": "CPJKOIHIPBE",
        "type": "EMO_SYNC",
        "aliasList": [
          "1005"
        ],
        "dataPath": "Cs_Emo_Avatar_Simple_Common_Set/Cs_Emo_Pet_Paimon_Normal_01",
        "phonemePath": "",
        "emotionPath": "",
        "mateDataPath": "",
        "matePhonemePath": "",
        "mateEmotionPath": "",
        "dataPathHashList": [
          18260923716060603798,
          11968922329706136025,
          15067560551544285370,
          10516531811065322084
        ],
        "FMDPBECPELH": "",
        "ADKBLPOKGIK": ""
      }
    ],
    [
      {
        "$type": "FABLGECDBCH",
        "type": "BODY_LANG",
        "delayTime": 0.318454772233963,
        "aliasList": [
          "1002"
        ],
        "isContinue": true,
        "eventPatternSuiteKey": "",
        "FOHHKFAIAAJ": ""
      },
      {
        "$type": "PKKMAMONGEO",
        "type": "DIALOG",
        "aliasList": [
          "1005"
        ],
        "dialogID": 4850325,
        "protectTime": 0.41845476627349854
      },
      {
        "$type": "FABLGECDBCH",
        "type": "BODY_LANG",
        "aliasList": [
          "1005"
        ],
        "bodyLangParam": 1050,
        "eventPatternSuiteKey": "",
        "FOHHKFAIAAJ": ""
      },
      {
        "$type": "CPJKOIHIPBE",
        "type": "EMO_SYNC",
        "aliasList": [
          "1005"
        ],
        "dataPath": "Cs_Emo_Avatar_Simple_Common_Set/Cs_Emo_Avatar_Talk/Cs_Emo_Avatar_PersonalLine/Cs_Emo_Avatar_Ambor/Cs_Emo_4850325",
        "phonemePath": "",
        "emotionPath": "",
        "mateDataPath": "",
        "matePhonemePath": "",
        "mateEmotionPath": "",
        "dataPathHashList": [
          9887211359263531117,
          15039545501721610245,
          10090677602928099973,
          5178573874616152171
        ],
        "FMDPBECPELH": "",
        "ADKBLPOKGIK": ""
      }
    ],
    [
      {
        "$type": "FJKIHHKJLMJ",
        "type": "CAMERA_MOVE",
        "duration": 1.0,
        "camPosOffset": {
          "x": 15.99126148223877,
          "y": 15.975886344909668,
          "z": -13.468672752380371
        },
        "camForwardTargetOffset": {
          "x": 16.629459381103516,
          "y": 15.990882873535156,
          "z": -14.238398551940918
        },
        "camFov": 30.0,
        "lerpPattern": 6,
        "NJBNNOMLKCK": {},
        "targetNpcAlias": "",
        "KJOEFBPOIIH": "",
        "IICFKKEBIEC": "",
        "EGEHEJEBLBJ": ""
      },
      {
        "$type": "PKKMAMONGEO",
        "type": "DIALOG",
        "aliasList": [
          "1002"
        ],
        "dialogID": 4850326
      },
      {
        "$type": "FABLGECDBCH",
        "type": "BODY_LANG",
        "aliasList": [
          "1002"
        ],
        "bodyLangParam": 1130,
        "eventPatternSuiteKey": "",
        "FOHHKFAIAAJ": ""
      },
      {
        "$type": "CPJKOIHIPBE",
        "type": "EMO_SYNC",
        "aliasList": [
          "1002"
        ],
        "dataPath": "Cs_Emo_Avatar_Simple_Common_Set/Cs_Emo_Avatar_Talk/Cs_Emo_Avatar_PersonalLine/Cs_Emo_Avatar_Ambor/Cs_Emo_4850326",
        "phonemePath": "",
        "emotionPath": "",
        "mateDataPath": "",
        "matePhonemePath": "",
        "mateEmotionPath": "",
        "dataPathHashList": [
          18305327096238713550,
          10949068291603683985,
          8108319078892321042,
          2754747905613760175
        ],
        "FMDPBECPELH": "",
        "ADKBLPOKGIK": ""
      },
      {
        "$type": "FABLGECDBCH",
        "type": "BODY_LANG",
        "aliasList": [
          "1005"
        ],
        "isContinue": true,
        "eventPatternSuiteKey": "",
        "FOHHKFAIAAJ": ""
      }
    ],
    [
      {
        "$type": "FJKIHHKJLMJ",
        "type": "CAMERA_MOVE",
        "duration": 1.0,
        "camPosOffset": {
          "x": 20.33241081237793,
          "y": 15.746846199035645,
          "z": -15.268712043762207
        },
        "camForwardTargetOffset": {
          "x": 19.372028350830078,
          "y": 15.68687915802002,
          "z": -14.996554374694824
        },
        "camFov": 30.0,
        "lerpPattern": 6,
        "cameraBlendType": "EaseInOutCubic",
        "NJBNNOMLKCK": {},
        "targetNpcAlias": "",
        "KJOEFBPOIIH": "",
        "IICFKKEBIEC": "",
        "EGEHEJEBLBJ": ""
      },
      {
        "$type": "MoleMole.Config.ConfigCameraDOFAction",
        "type": "CAMERA_DOF",
        "enabled": true,
        "focusDistance": 100.0,
        "focusRange": 50.0,
        "quality": 3
      },
      {
        "$type": "LJLMDHDCAMK",
        "type": "LOOK_AT",
        "delayTime": 0.4000000059604645,
        "aliasList": [
          "Avatar"
        ],
        "enableHead": true,
        "useTargetPos": true,
        "enableAbsolute": true,
        "targetPosition": {
          "x": 15.475584030151367,
          "y": 16.07095718383789,
          "z": -12.91592025756836
        },
        "headTurnTime": 0.30000001192092896,
        "targetNpcAlias": "",
        "targetNpcLookAtPoint": "",
        "OAFJBHJHLJG": ""
      },
      {
        "$type": "LJLMDHDCAMK",
        "type": "LOOK_AT",
        "delayTime": 0.15148460865020752,
        "aliasList": [
          "1002"
        ],
        "enableHead": true,
        "useTargetPos": true,
        "enableAbsolute": true,
        "targetPosition": {
          "x": 14.0945463180542,
          "y": 15.981536865234375,
          "z": -14.340188026428223
        },
        "headTurnTime": 0.5,
        "targetNpcAlias": "",
        "targetNpcLookAtPoint": "",
        "OAFJBHJHLJG": ""
      },
      {
        "$type": "FABLGECDBCH",
        "type": "BODY_LANG",
        "delayTime": 0.21234230697155,
        "aliasList": [
          "1002"
        ],
        "isContinue": true,
        "eventPatternSuiteKey": "",
        "FOHHKFAIAAJ": ""
      },
      {
        "$type": "CPJKOIHIPBE",
        "type": "EMO_SYNC",
        "aliasList": [
          "1002"
        ],
        "dataPath": "Cs_Emo_Avatar_Simple_Common_Set/Cs_Emo_Avatar_Common_Normal",
        "phonemePath": "",
        "emotionPath": "",
        "mateDataPath": "",
        "matePhonemePath": "",
        "mateEmotionPath": "",
        "dataPathHashList": [
          1254595151211172457,
          11740135046283525816,
          13690962357574067534,
          4569976534232268451
        ],
        "FMDPBECPELH": "",
        "ADKBLPOKGIK": ""
      },
      {
        "$type": "PKKMAMONGEO",
        "type": "DIALOG",
        "aliasList": [
          "1485"
        ],
        "dialogID": 4850327,
        "protectTime": 0.5
      },
      {
        "$type": "FABLGECDBCH",
        "type": "BODY_LANG",
        "aliasList": [
          "1485"
        ],
        "bodyLangParam": 1060,
        "eventPatternSuiteKey": "",
        "FOHHKFAIAAJ": ""
      },
      {
        "$type": "FABLGECDBCH",
        "type": "BODY_LANG",
        "delayTime": 7.8431715965271,
        "aliasList": [
          "1485"
        ],
        "isContinue": true,
        "eventPatternSuiteKey": "",
        "FOHHKFAIAAJ": ""
      },
      {
        "$type": "LJLMDHDCAMK",
        "type": "LOOK_AT",
        "delayTime": 0.22604626417160034,
        "aliasList": [
          "1005"
        ],
        "enableHead": true,
        "useTargetPos": true,
        "enableAbsolute": true,
        "targetPosition": {
          "x": 13.0515718460083,
          "y": 15.798437118530273,
          "z": -13.503132820129395
        },
        "headTurnTime": 0.4000000059604645,
        "targetNpcAlias": "",
        "targetNpcLookAtPoint": "",
        "OAFJBHJHLJG": ""
      }
    ],
    [
      {
        "$type": "HDGKHDNFMIM",
        "type": "DIALOG_SELECT",
        "aliasList": [
          "Avatar"
        ],
        "dialogIDList": [
          4850328,
          4850329
        ],
        "grpIDList": [
          2486302011,
          2486302011
        ],
        "useGrpId": true
      },
      {
        "$type": "LJLMDHDCAMK",
        "type": "LOOK_AT",
        "aliasList": [
          "Avatar"
        ],
        "enableHead": true,
        "useTargetPos": true,
        "enableAbsolute": true,
        "targetPosition": {
          "x": 16.762001037597656,
          "y": 16.058624267578125,
          "z": -14.352574348449707
        },
        "headTurnTime": 0.30000001192092896,
        "targetNpcAlias": "",
        "targetNpcLookAtPoint": "",
        "OAFJBHJHLJG": ""
      }
    ],
    [
      {
        "$type": "FJKIHHKJLMJ",
        "type": "CAMERA_MOVE",
        "duration": 1.0,
        "camPosOffset": {
          "x": 16.424402236938477,
          "y": 16.123807907104492,
          "z": -15.548149108886719
        },
        "camForwardTargetOffset": {
          "x": 16.458499908447266,
          "y": 16.004093170166016,
          "z": -14.555926322937012
        },
        "camFov": 30.0,
        "lerpPattern": 6,
        "NJBNNOMLKCK": {},
        "targetNpcAlias": "",
        "KJOEFBPOIIH": "",
        "IICFKKEBIEC": "",
        "EGEHEJEBLBJ": ""
      },
      {
        "$type": "MoleMole.Config.ConfigCameraDOFAction",
        "type": "CAMERA_DOF",
        "enabled": true,
        "focusDistance": 5.0,
        "focusRange": 5.0,
        "quality": 3
      },
      {
        "$type": "LJLMDHDCAMK",
        "type": "LOOK_AT",
        "delayTime": 0.15560168027877808,
        "aliasList": [
          "1002"
        ],
        "enableHead": true,
        "useTargetPos": true,
        "enableAbsolute": true,
        "targetPosition": {
          "x": 16.023462295532227,
          "y": 15.963675498962402,
          "z": -13.58797550201416
        },
        "headTurnTime": 0.30000001192092896,
        "targetNpcAlias": "",
        "targetNpcLookAtPoint": "",
        "OAFJBHJHLJG": ""
      },
      {
        "$type": "FABLGECDBCH",
        "type": "BODY_LANG",
        "aliasList": [
          "1485"
        ],
        "isContinue": true,
        "eventPatternSuiteKey": "",
        "FOHHKFAIAAJ": ""
      },
      {
        "$type": "PKKMAMONGEO",
        "type": "DIALOG",
        "aliasList": [
          "1005"
        ],
        "dialogID": 4850330,
        "protectTime": 0.2556016743183136
      },
      {
        "$type": "LJLMDHDCAMK",
        "type": "LOOK_AT",
        "aliasList": [
          "1005"
        ],
        "enableHead": true,
        "useTargetPos": true,
        "enableAbsolute": true,
        "targetPosition": {
          "x": 16.77060317993164,
          "y": 16.058624267578125,
          "z": -14.352574348449707
        },
        "headTurnTime": 0.30000001192092896,
        "targetNpcAlias": "",
        "targetNpcLookAtPoint": "",
        "OAFJBHJHLJG": ""
      },
      {
        "$type": "CPJKOIHIPBE",
        "type": "EMO_SYNC",
        "aliasList": [
          "1005"
        ],
        "dataPath": "Cs_Emo_Avatar_Simple_Common_Set/Cs_Emo_Avatar_Talk/Cs_Emo_Avatar_PersonalLine/Cs_Emo_Avatar_Ambor/Cs_Emo_4850330",
        "phonemePath": "",
        "emotionPath": "",
        "mateDataPath": "",
        "matePhonemePath": "",
        "mateEmotionPath": "",
        "dataPathHashList": [
          11929423100515661815,
          809773549148112901,
          8308157787081298697,
          8178867305884120045
        ],
        "FMDPBECPELH": "",
        "ADKBLPOKGIK": ""
      }
    ],
    [
      {
        "$type": "FABLGECDBCH",
        "type": "BODY_LANG",
        "delayTime": 3.0,
        "aliasList": [
          "Avatar"
        ],
        "bodyLangParam": 4030,
        "forceDoFreeStyle": true,
        "eventPatternSuiteKey": "",
        "FOHHKFAIAAJ": ""
      },
      {
        "$type": "PKKMAMONGEO",
        "type": "DIALOG",
        "aliasList": [
          "1002"
        ],
        "dialogID": 4850331,
        "protectTime": 0.5
      },
      {
        "$type": "FABLGECDBCH",
        "type": "BODY_LANG",
        "aliasList": [
          "1002"
        ],
        "bodyLangParam": 1170,
        "eventPatternSuiteKey": "",
        "FOHHKFAIAAJ": ""
      },
      {
        "$type": "FABLGECDBCH",
        "type": "BODY_LANG",
        "delayTime": 0.4000000059604645,
        "aliasList": [
          "1002"
        ],
        "isContinue": true,
        "eventPatternSuiteKey": "",
        "FOHHKFAIAAJ": ""
      },
      {
        "$type": "LJLMDHDCAMK",
        "type": "LOOK_AT",
        "aliasList": [
          "1002"
        ],
        "enableHead": true,
        "useTargetPos": true,
        "enableAbsolute": true,
        "targetPosition": {
          "x": 16.665014266967773,
          "y": 16.065940856933594,
          "z": -12.878724098205566
        },
        "headTurnTime": 0.30000001192092896,
        "targetNpcAlias": "",
        "targetNpcLookAtPoint": "",
        "OAFJBHJHLJG": ""
      },
      {
        "$type": "CPJKOIHIPBE",
        "type": "EMO_SYNC",
        "aliasList": [
          "1002"
        ],
        "dataPath": "Cs_Emo_Avatar_Simple_Common_Set/Cs_Emo_Avatar_Talk/Cs_Emo_Avatar_PersonalLine/Cs_Emo_Avatar_Ambor/Cs_Emo_4850331",
        "phonemePath": "",
        "emotionPath": "",
        "mateDataPath": "",
        "matePhonemePath": "",
        "mateEmotionPath": "",
        "dataPathHashList": [
          6561790225827916809,
          2290922739661058662,
          4684959840134920515,
          1889500947396820718
        ],
        "FMDPBECPELH": "",
        "ADKBLPOKGIK": ""
      }
    ],
    [
      {
        "$type": "FABLGECDBCH",
        "type": "BODY_LANG",
        "aliasList": [
          "Avatar"
        ],
        "isContinue": true,
        "forceDoFreeStyle": true,
        "eventPatternSuiteKey": "",
        "FOHHKFAIAAJ": ""
      },
      {
        "$type": "PKKMAMONGEO",
        "type": "DIALOG",
        "aliasList": [
          "1002"
        ],
        "dialogID": 4850332
      },
      {
        "$type": "FABLGECDBCH",
        "type": "BODY_LANG",
        "aliasList": [
          "1002"
        ],
        "bodyLangParam": 1130,
        "eventPatternSuiteKey": "",
        "FOHHKFAIAAJ": ""
      },
      {
        "$type": "CPJKOIHIPBE",
        "type": "EMO_SYNC",
        "aliasList": [
          "1002"
        ],
        "dataPath": "Cs_Emo_Avatar_Simple_Common_Set/Cs_Emo_Avatar_Talk/Cs_Emo_Avatar_PersonalLine/Cs_Emo_Avatar_Ambor/Cs_Emo_4850332",
        "phonemePath": "",
        "emotionPath": "",
        "mateDataPath": "",
        "matePhonemePath": "",
        "mateEmotionPath": "",
        "dataPathHashList": [
          12323341712429628923,
          17394847596042702904,
          14606867135961411661,
          8731896186945269713
        ],
        "FMDPBECPELH": "",
        "ADKBLPOKGIK": ""
      }
    ],
    [
      {
        "$type": "HDGKHDNFMIM",
        "type": "DIALOG_SELECT",
        "aliasList": [
          "Avatar"
        ],
        "dialogIDList": [
          4850334
        ],
        "grpIDList": [
          2486302015
        ],
        "useGrpId": true
      },
      {
        "$type": "PKKMAMONGEO",
        "type": "DIALOG",
        "aliasList": [
          "1002"
        ],
        "dialogID": 4850333
      },
      {
        "$type": "CPJKOIHIPBE",
        "type": "EMO_SYNC",
        "aliasList": [
          "1002"
        ],
        "dataPath": "Cs_Emo_Avatar_Simple_Common_Set/Cs_Emo_Avatar_Talk/Cs_Emo_Avatar_PersonalLine/Cs_Emo_Avatar_Ambor/Cs_Emo_4850333",
        "phonemePath": "",
        "emotionPath": "",
        "mateDataPath": "",
        "matePhonemePath": "",
        "mateEmotionPath": "",
        "dataPathHashList": [
          9443783191406399666,
          2736260214080750827,
          16467965826514061956,
          3069614243399322617
        ],
        "FMDPBECPELH": "",
        "ADKBLPOKGIK": ""
      }
    ],
    [
      {
        "$type": "FJKIHHKJLMJ",
        "type": "CAMERA_MOVE",
        "duration": 1.0,
        "camPosOffset": {
          "x": 15.344917297363281,
          "y": 16.039104461669922,
          "z": -14.36941146850586
        },
        "camForwardTargetOffset": {
          "x": 16.342302322387695,
          "y": 15.976142883300781,
          "z": -14.404884338378906
        },
        "camFov": 30.0,
        "lerpPattern": 6,
        "NJBNNOMLKCK": {},
        "targetNpcAlias": "",
        "KJOEFBPOIIH": "",
        "IICFKKEBIEC": "",
        "EGEHEJEBLBJ": ""
      },
      {
        "$type": "PKKMAMONGEO",
        "type": "DIALOG",
        "aliasList": [
          "1002"
        ],
        "dialogID": 4850335
      },
      {
        "$type": "LJLMDHDCAMK",
        "type": "LOOK_AT",
        "aliasList": [
          "1002"
        ],
        "enableHead": true,
        "useTargetPos": true,
        "enableAbsolute": true,
        "targetPosition": {
          "x": 13.213891983032227,
          "y": 15.981536865234375,
          "z": -14.340188026428223
        },
        "headTurnTime": 0.30000001192092896,
        "targetNpcAlias": "",
        "targetNpcLookAtPoint": "",
        "OAFJBHJHLJG": ""
      },
      {
        "$type": "FABLGECDBCH",
        "type": "BODY_LANG",
        "aliasList": [
          "1002"
        ],
        "isContinue": true,
        "eventPatternSuiteKey": "",
        "FOHHKFAIAAJ": ""
      },
      {
        "$type": "CPJKOIHIPBE",
        "type": "EMO_SYNC",
        "aliasList": [
          "1002"
        ],
        "dataPath": "Cs_Emo_Avatar_Simple_Common_Set/Cs_Emo_Avatar_Talk/Cs_Emo_Avatar_PersonalLine/Cs_Emo_Avatar_Ambor/Cs_Emo_4850335",
        "phonemePath": "",
        "emotionPath": "",
        "mateDataPath": "",
        "matePhonemePath": "",
        "mateEmotionPath": "",
        "dataPathHashList": [
          17346545403230446764,
          16335255473235865090,
          18049095193708654489,
          6880227037236715997
        ],
        "FMDPBECPELH": "",
        "ADKBLPOKGIK": ""
      }
    ],
    [
      {
        "$type": "FJKIHHKJLMJ",
        "type": "CAMERA_MOVE",
        "duration": 1.0,
        "camPosOffset": {
          "x": 18.267704010009766,
          "y": 16.094141006469727,
          "z": -15.591755867004395
        },
        "camForwardTargetOffset": {
          "x": 17.2698917388916,
          "y": 16.04315948486328,
          "z": -15.549680709838867
        },
        "camFov": 10.0,
        "lerpRatio": 2.0,
        "lerpPattern": 6,
        "cameraBlendType": "EaseInOutCubic",
        "NJBNNOMLKCK": {},
        "targetNpcAlias": "",
        "KJOEFBPOIIH": "",
        "IICFKKEBIEC": "",
        "EGEHEJEBLBJ": ""
      },
      {
        "$type": "MoleMole.Config.ConfigCameraDOFAction",
        "type": "CAMERA_DOF",
        "enabled": true,
        "focusDistance": 100.0,
        "focusRange": 50.0,
        "quality": 3
      },
      {
        "$type": "CPJKOIHIPBE",
        "type": "EMO_SYNC",
        "aliasList": [
          "1002"
        ],
        "dataPath": "Cs_Emo_Avatar_Simple_Common_Set/Cs_Emo_Avatar_Common_Normal",
        "phonemePath": "",
        "emotionPath": "",
        "mateDataPath": "",
        "matePhonemePath": "",
        "mateEmotionPath": "",
        "dataPathHashList": [
          1254595151211172457,
          11740135046283525816,
          13690962357574067534,
          4569976534232268451
        ],
        "FMDPBECPELH": "",
        "ADKBLPOKGIK": ""
      },
      {
        "$type": "PKKMAMONGEO",
        "type": "DIALOG",
        "aliasList": [
          "1485"
        ],
        "dialogID": 4850336,
        "protectTime": 0.5
      },
      {
        "$type": "FABLGECDBCH",
        "type": "BODY_LANG",
        "aliasList": [
          "1485"
        ],
        "bodyLangParam": 1040,
        "eventPatternSuiteKey": "",
        "FOHHKFAIAAJ": ""
      },
      {
        "$type": "FABLGECDBCH",
        "type": "BODY_LANG",
        "delayTime": 0.4000000059604645,
        "aliasList": [
          "1485"
        ],
        "isContinue": true,
        "eventPatternSuiteKey": "",
        "FOHHKFAIAAJ": ""
      },
      {
        "$type": "FABLGECDBCH",
        "type": "BODY_LANG",
        "delayTime": 2.474255084991455,
        "aliasList": [
          "1485"
        ],
        "bodyLangParam": 1060,
        "eventPatternSuiteKey": "",
        "FOHHKFAIAAJ": ""
      }
    ],
    [
      {
        "$type": "FJKIHHKJLMJ",
        "type": "CAMERA_MOVE",
        "duration": 1.0,
        "camPosOffset": {
          "x": 15.457646369934082,
          "y": 15.938257217407227,
          "z": -14.452004432678223
        },
        "camForwardTargetOffset": {
          "x": 16.457252502441406,
          "y": 15.944254875183105,
          "z": -14.424556732177734
        },
        "camFov": 30.0,
        "lerpPattern": 6,
        "NJBNNOMLKCK": {},
        "targetNpcAlias": "",
        "KJOEFBPOIIH": "",
        "IICFKKEBIEC": "",
        "EGEHEJEBLBJ": ""
      },
      {
        "$type": "FJKIHHKJLMJ",
        "type": "CAMERA_MOVE",
        "delayTime": 0.10000000149011612,
        "duration": 10.0,
        "camPosOffset": {
          "x": 15.537627220153809,
          "y": 15.938736915588379,
          "z": -14.449808120727539
        },
        "camForwardTargetOffset": {
          "x": 16.537233352661133,
          "y": 15.944734573364258,
          "z": -14.42236042022705
        },
        "camFov": 32.0,
        "cameraBlendType": "EaseInOutQuad",
        "NJBNNOMLKCK": {},
        "targetNpcAlias": "",
        "KJOEFBPOIIH": "",
        "IICFKKEBIEC": "",
        "EGEHEJEBLBJ": ""
      },
      {
        "$type": "MoleMole.Config.ConfigCameraDOFAction",
        "type": "CAMERA_DOF",
        "enabled": true,
        "focusDistance": 5.0,
        "focusRange": 5.0,
        "quality": 3
      },
      {
        "$type": "PKKMAMONGEO",
        "type": "DIALOG",
        "aliasList": [
          "1002"
        ],
        "dialogID": 4850337,
        "protectTime": 0.5
      },
      {
        "$type": "CPJKOIHIPBE",
        "type": "EMO_SYNC",
        "aliasList": [
          "1002"
        ],
        "dataPath": "Cs_Emo_Avatar_Simple_Common_Set/Cs_Emo_Avatar_Talk/Cs_Emo_Avatar_PersonalLine/Cs_Emo_Avatar_Ambor/Cs_Emo_4850337",
        "phonemePath": "",
        "emotionPath": "",
        "mateDataPath": "",
        "matePhonemePath": "",
        "mateEmotionPath": "",
        "enableBlink": false,
        "dataPathHashList": [
          15454748823327689351,
          7573643392970153841,
          11711154490341443108,
          16321976750620378708
        ],
        "FMDPBECPELH": "",
        "ADKBLPOKGIK": ""
      },
      {
        "$type": "FABLGECDBCH",
        "type": "BODY_LANG",
        "delayTime": 0.4000000059604645,
        "aliasList": [
          "1485"
        ],
        "isContinue": true,
        "eventPatternSuiteKey": "",
        "FOHHKFAIAAJ": ""
      }
    ],
    [
      {
        "$type": "FJKIHHKJLMJ",
        "type": "CAMERA_MOVE",
        "delayTime": 0.4000000059604645,
        "duration": 1.7333335876464844,
        "camPosOffset": {
          "x": 15.877750396728516,
          "y": 15.968768119812012,
          "z": -14.43968677520752
        },
        "camForwardTargetOffset": {
          "x": 16.8770809173584,
          "y": 15.971765518188477,
          "z": -14.403243064880371
        },
        "camFov": 40.0,
        "lerpRatio": 2.0,
        "cameraBlendType": "EaseInOutCubic",
        "NJBNNOMLKCK": {},
        "targetNpcAlias": "",
        "KJOEFBPOIIH": "",
        "IICFKKEBIEC": "",
        "EGEHEJEBLBJ": ""
      },
      {
        "$type": "PKKMAMONGEO",
        "type": "DIALOG",
        "aliasList": [
          "1002"
        ],
        "dialogID": 4850338,
        "protectTime": 0.5
      },
      {
        "$type": "CPJKOIHIPBE",
        "type": "EMO_SYNC",
        "aliasList": [
          "1002"
        ],
        "dataPath": "Cs_Emo_Avatar_Simple_Common_Set/Cs_Emo_Avatar_Talk/Cs_Emo_Avatar_PersonalLine/Cs_Emo_Avatar_Ambor/Cs_Emo_4850338",
        "phonemePath": "",
        "emotionPath": "",
        "mateDataPath": "",
        "matePhonemePath": "",
        "mateEmotionPath": "",
        "dataPathHashList": [
          12054793835651971497,
          17180061186828531011,
          16148055593892804596,
          279116234971421726
        ],
        "FMDPBECPELH": "",
        "ADKBLPOKGIK": ""
      },
      {
        "$type": "FABLGECDBCH",
        "type": "BODY_LANG",
        "aliasList": [
          "1002"
        ],
        "bodyLangParam": 1130,
        "eventPatternSuiteKey": "",
        "FOHHKFAIAAJ": ""
      }
    ],
    [
      {
        "$type": "MoleMole.Config.ConfigBlackScreenAction",
        "type": "BLACK_SCREEN",
        "duration": 1.0,
        "durationToBlack": 0.4000000059604645,
        "durationKeepBlack": 0.20000000298023224,
        "durationFromBlack": 0.4000000059604645,
        "inteePos": "",
        "textMapID": ""
      },
      {
        "$type": "FJKIHHKJLMJ",
        "type": "CAMERA_MOVE",
        "delayTime": 0.5,
        "duration": 0.5,
        "camPosOffset": {
          "x": 20.174057006835938,
          "y": 16.65574073791504,
          "z": -12.880184173583984
        },
        "camForwardTargetOffset": {
          "x": 19.202760696411133,
          "y": 16.41803550720215,
          "z": -12.871293067932129
        },
        "lerpPattern": 6,
        "NJBNNOMLKCK": {},
        "targetNpcAlias": "",
        "KJOEFBPOIIH": "",
        "IICFKKEBIEC": "",
        "EGEHEJEBLBJ": ""
      },
      {
        "$type": "MoleMole.Config.ConfigTimeProtectAction",
        "type": "TIME_PROTECT",
        "duration": 1.0
      },
      {
        "$type": "PKKMAMONGEO",
        "type": "DIALOG_CLEAR",
        "delayTime": 0.30000001192092896
      },
      {
        "$type": "MoleMole.Config.ConfigCameraDOFAction",
        "type": "CAMERA_DOF",
        "delayTime": 0.5
      },
      {
        "$type": "LJLMDHDCAMK",
        "type": "LOOK_AT",
        "aliasList": [
          "Avatar"
        ],
        "enableHead": true,
        "useTargetPos": true,
        "enableAbsolute": true,
        "targetPosition": {
          "x": 14.039506912231445,
          "y": 15.999967575073242,
          "z": -13.0645170211792
        },
        "headTurnTime": 0.4000000059604645,
        "targetNpcAlias": "",
        "targetNpcLookAtPoint": "",
        "OAFJBHJHLJG": ""
      },
      {
        "$type": "MoleMole.Config.ConfigVisibleInterAction",
        "type": "VISIBLE",
        "delayTime": 0.5,
        "aliasList": [
          "1002"
        ],
        "_extraParam": ""
      },
      {
        "$type": "MoleMole.Config.ConfigVisibleInterAction",
        "type": "VISIBLE",
        "delayTime": 0.5,
        "aliasList": [
          "1485"
        ],
        "_extraParam": ""
      },
      {
        "$type": "LLGANGLOEEO",
        "type": "STEER_TO",
        "duration": 0.10000000149011612,
        "aliasList": [
          "1005"
        ],
        "steerDir": {
          "x": -0.9885281920433044,
          "z": -0.15103621780872345
        },
        "targetNpcAlias": "",
        "OAFJBHJHLJG": ""
      },
      {
        "$type": "LJLMDHDCAMK",
        "type": "LOOK_AT",
        "aliasList": [
          "1005"
        ],
        "enableHead": true,
        "useTargetPos": true,
        "enableAbsolute": true,
        "targetPosition": {
          "x": 13.771099090576172,
          "y": 15.798437118530273,
          "z": -13.503132820129395
        },
        "headTurnTime": 0.4000000059604645,
        "targetNpcAlias": "",
        "targetNpcLookAtPoint": "",
        "OAFJBHJHLJG": ""
      },
      {
        "$type": "FABLGECDBCH",
        "type": "BODY_LANG",
        "aliasList": [
          "1005"
        ],
        "isContinue": true,
        "eventPatternSuiteKey": "",
        "FOHHKFAIAAJ": ""
      }
    ],
    [
      {
        "$type": "LJLMDHDCAMK",
        "type": "LOOK_AT",
        "aliasList": [
          "Avatar"
        ],
        "targetNpcAlias": "",
        "targetNpcLookAtPoint": "",
        "OAFJBHJHLJG": ""
      },
      {
        "$type": "LJLMDHDCAMK",
        "type": "LOOK_AT",
        "aliasList": [
          "1002"
        ],
        "targetNpcAlias": "",
        "targetNpcLookAtPoint": "",
        "OAFJBHJHLJG": ""
      },
      {
        "$type": "LJLMDHDCAMK",
        "type": "LOOK_AT",
        "aliasList": [
          "1485"
        ],
        "targetNpcAlias": "",
        "targetNpcLookAtPoint": "",
        "OAFJBHJHLJG": ""
      },
      {
        "$type": "LJLMDHDCAMK",
        "type": "LOOK_AT",
        "aliasList": [
          "1005"
        ],
        "targetNpcAlias": "",
        "targetNpcLookAtPoint": "",
        "OAFJBHJHLJG": ""
      }
    ]
  ],
  "groupId": [
    {
      "grpId": 80203288,
      "nextGrpId": 80203289
    },
    {
      "index": 1,
      "grpId": 80203289,
      "nextGrpId": 80203290
    },
    {
      "index": 2,
      "grpId": 80203290,
      "nextGrpId": 80203291
    },
    {
      "index": 3,
      "grpId": 80203291,
      "nextGrpId": 80203292
    },
    {
      "index": 4,
      "grpId": 80203292,
      "nextGrpId": 80203293
    },
    {
      "index": 5,
      "grpId": 80203293,
      "nextGrpId": 80203294
    },
    {
      "index": 6,
      "grpId": 80203294,
      "nextGrpId": 80203295
    },
    {
      "index": 7,
      "grpId": 80203295,
      "nextGrpId": 80203296
    },
    {
      "index": 8,
      "grpId": 80203296,
      "nextGrpId": 2486301976
    },
    {
      "index": 9,
      "grpId": 2486301976,
      "nextGrpId": 2486301977
    },
    {
      "index": 10,
      "grpId": 2486301977,
      "nextGrpId": 2486301978
    },
    {
      "index": 11,
      "grpId": 2486301978,
      "nextGrpId": 2486301979
    },
    {
      "index": 12,
      "grpId": 2486301979,
      "nextGrpId": 2486301983
    },
    {
      "index": 13,
      "grpId": 2486301980,
      "nextGrpId": 2486301983
    },
    {
      "index": 14,
      "grpId": 2486301981,
      "nextGrpId": 2486301982
    },
    {
      "index": 15,
      "grpId": 2486301982,
      "nextGrpId": 2486301983
    },
    {
      "index": 16,
      "grpId": 2486301983,
      "nextGrpId": 2486301984
    },
    {
      "index": 17,
      "grpId": 2486301984,
      "nextGrpId": 2486301985
    },
    {
      "index": 18,
      "grpId": 2486301985,
      "nextGrpId": 2486302007
    },
    {
      "index": 19,
      "grpId": 2486302007,
      "nextGrpId": 2486302008
    },
    {
      "index": 20,
      "grpId": 2486302008,
      "nextGrpId": 2486302009
    },
    {
      "index": 21,
      "grpId": 2486302009,
      "nextGrpId": 2486302010
    },
    {
      "index": 22,
      "grpId": 2486302010,
      "nextGrpId": 2486302011
    },
    {
      "index": 23,
      "grpId": 2486302011,
      "nextGrpId": 2486302012
    },
    {
      "index": 24,
      "grpId": 2486302012,
      "nextGrpId": 2486302013
    },
    {
      "index": 25,
      "grpId": 2486302013,
      "nextGrpId": 2486302014
    },
    {
      "index": 26,
      "grpId": 2486302014,
      "nextGrpId": 2486302015
    },
    {
      "index": 27,
      "grpId": 2486302015,
      "nextGrpId": 2486302016
    },
    {
      "index": 28,
      "grpId": 2486302016,
      "nextGrpId": 2486302038
    },
    {
      "index": 29,
      "grpId": 2486302038,
      "nextGrpId": 2486302039
    },
    {
      "index": 30,
      "grpId": 2486302039,
      "nextGrpId": 2486302040
    },
    {
      "index": 31,
      "grpId": 2486302040,
      "nextGrpId": 2486302041
    },
    {
      "index": 32,
      "grpId": 2486302041,
      "nextGrpId": 2486302042
    }
  ],
  "freeStyleDic": {
    "1002": [
      1060,
      1230,
      1190,
      1130,
      1110,
      1220,
      1120,
      1170
    ],
    "1485": [
      1110,
      1120,
      1290,
      1060,
      1040
    ]
  }
}