{
  "luaDataPath": "",
  "dontUseDefaultFinish": true,
  "startBlackKeepTime": 0.5,
  "entityBan": "",
  "disableNpcLod": true,
  "isAutoBanNpc": true,
  "isBanWidgetPet": true,
  "protectNpcMobileLod": true,
  "entityBanSetting": [
    {
      "isBlack": true,
      "entityType": "NPC",
      "entityIds": [
        30606
      ]
    }
  ],
  "talkFlag": 103,
  "startFade": {
    "startFadeInDuration": 0.5,
    "startFadeOutDuration": 0.5
  },
  "endFade": {
    "startFadeOutDuration": 0.0
  },
  "actors": [
    {
      "alias": "Avatar",
      "visible": true,
      "bornPointName": "[100_910001027:161.462,407.674,39.500,0.000,332.426,0.000]",
      "relativePosType": "AVATAR_NEW",
      "relativePosNpcAlias": "",
      "_notDestroyInTalk": true,
      "_bindMovingTargetKey": ""
    },
    {
      "alias": "AvatarNpc",
      "visible": true,
      "bornPointName": "[100_910001027:161.462,407.674,39.500,0.000,332.426,0.000]",
      "relativePos": {
        "x": 148.22500610351562,
        "y": 404.5060119628906,
        "z": 34.141998291015625
      },
      "relativeRot": {
        "y": 42.82500076293945
      },
      "removeActorType": "NEW_REMOVE",
      "relativePosType": "AVATAR_NEW",
      "relativePosNpcAlias": "",
      "_notDestroyInTalk": true,
      "_bindMovingTargetKey": "",
      "notDestroyInTalk": true
    },
    {
      "configID": 1005,
      "alias": "1005",
      "visible": true,
      "bornPointName": "[100_910001028:162.367,407.909,39.886,0.000,324.212,0.000]",
      "removeActorType": "NEW_REMOVE_WITH_DISAPPEAR",
      "relativePosType": "AVATAR_NEW",
      "relativePosNpcAlias": "",
      "_notDestroyInTalk": true,
      "_bindMovingTargetKey": ""
    },
    {
      "configID": 2670,
      "alias": "2670",
      "visible": true,
      "bornPointName": "[100_910001029:160.243,407.406,39.286]",
      "relativePosType": "AVATAR_NEW",
      "relativePosNpcAlias": "",
      "_notDestroyInTalk": true,
      "_bindMovingTargetKey": ""
    },
    {
      "configID": 30558,
      "alias": "30558",
      "visible": true,
      "bornPointName": "[100_910001069:162.949,407.403,38.670,0.000,162.145,0.000]",
      "removeActorType": "NEW_REMOVE",
      "relativePosType": "AVATAR_NEW",
      "relativePosNpcAlias": "",
      "_notDestroyInTalk": true,
      "_bindMovingTargetKey": ""
    },
    {
      "configID": 30559,
      "alias": "30559",
      "visible": true,
      "bornPointName": "[100_910001069:162.949,407.403,38.670,0.000,162.145,0.000]",
      "relativePos": {
        "x": 156.3459930419922,
        "y": 407.14898681640625,
        "z": 49.79600143432617
      },
      "relativeRot": {
        "y": 65.36699676513672
      },
      "removeActorType": "NEW_REMOVE",
      "relativePosType": "AVATAR_NEW",
      "relativePosNpcAlias": "",
      "_notDestroyInTalk": true,
      "_bindMovingTargetKey": "",
      "notDestroyInTalk": true
    }
  ],
  "group": [
    [
      {
        "$type": "MoleMole.Config.ConfigTimeProtectAction",
        "type": "TIME_PROTECT",
        "duration": 1.0,
        "actionId": 104
      },
      {
        "$type": "AHHBJGEHACH",
        "type": "BODY_LANG",
        "aliasList": [
          "1005"
        ],
        "actionId": 116,
        "_flag": 131072,
        "isContinue": true,
        "forceDoFreeStyle": true,
        "canDoRepeatFreeStyle": false,
        "cantBackToIdleWhenSitLoop": true,
        "eventPatternSuiteKey": ""
      },
      {
        "$type": "AHHBJGEHACH",
        "type": "BODY_LANG",
        "aliasList": [
          "2670"
        ],
        "actionId": 118,
        "_flag": 131072,
        "isContinue": true,
        "forceDoFreeStyle": true,
        "canDoRepeatFreeStyle": false,
        "cantBackToIdleWhenSitLoop": true,
        "eventPatternSuiteKey": ""
      },
      {
        "$type": "AHHBJGEHACH",
        "type": "BODY_LANG",
        "aliasList": [
          "30558"
        ],
        "actionId": 120,
        "_flag": 131072,
        "isContinue": true,
        "forceDoFreeStyle": true,
        "canDoRepeatFreeStyle": false,
        "cantBackToIdleWhenSitLoop": true,
        "eventPatternSuiteKey": ""
      },
      {
        "$type": "MoleMole.Config.ConfigBlackScreenAction",
        "type": "BLACK_SCREEN",
        "duration": 1.0,
        "actionId": 122,
        "_flag": 2048,
        "blackScreenType": "KEEP_BLACK",
        "durationToBlack": 0.5,
        "durationKeepBlack": 1.0,
        "durationFromBlack": 0.5,
        "inteePos": "",
        "textMapID": "",
        "useTextFade": true,
        "showClickBtnDelayTime": 0.5,
        "waitClickBtnTipTime": 0.5,
        "_changeAudioState": true
      },
      {
        "$type": "MoleMole.Config.ConfigSitOrStandAction",
        "type": "SIT_OR_STAND",
        "aliasList": [
          "Avatar"
        ],
        "actionId": 125,
        "_flag": 40960,
        "banResetFreestyle": true
      },
      {
        "$type": "MoleMole.Config.ConfigPlayerNPCEnergyTypeAction",
        "type": "SET_PLAYER_NPC_ENERGY_TYPE",
        "aliasList": [
          "AvatarNpc"
        ],
        "actionId": 126,
        "setHeroEngergyType": true
      },
      {
        "$type": "AHHBJGEHACH",
        "type": "BODY_LANG",
        "aliasList": [
          "AvatarNpc"
        ],
        "actionId": 129,
        "_flag": 131072,
        "isContinue": true,
        "forceDoFreeStyle": true,
        "canDoRepeatFreeStyle": false,
        "cantBackToIdleWhenSitLoop": true,
        "eventPatternSuiteKey": ""
      },
      {
        "$type": "MoleMole.Config.ConfigVisibleInterAction",
        "type": "VISIBLE",
        "aliasList": [
          "Avatar"
        ],
        "actionId": 131,
        "_extraParam": ""
      },
      {
        "$type": "MoleMole.Config.ConfigTeleportToAction",
        "type": "TELEPORT_TO",
        "aliasList": [
          "30558"
        ],
        "actionId": 165,
        "position": {
          "x": 157.5399932861328,
          "y": 407.83099365234375,
          "z": 43.58000183105469
        },
        "forward": {
          "y": 349.0090026855469
        },
        "openLongDisTeleport": true,
        "syncForward": true,
        "_posBindMovingTargetKey": "",
        "_forwardBindMovingTargetKey": ""
      },
      {
        "$type": "MoleMole.Config.ConfigTeleportToAction",
        "type": "TELEPORT_TO",
        "aliasList": [
          "2670"
        ],
        "actionId": 166,
        "position": {
          "x": 147.5449981689453,
          "y": 404.4440002441406,
          "z": 35.15800094604492
        },
        "forward": {
          "x": 8.196000099182129,
          "y": 3.609999895095825,
          "z": 8.322999954223633
        },
        "openLongDisTeleport": true,
        "syncForward": true,
        "_posBindMovingTargetKey": "",
        "_forwardBindMovingTargetKey": ""
      },
      {
        "$type": "MoleMole.Config.ConfigTeleportToAction",
        "type": "TELEPORT_TO",
        "aliasList": [
          "1005"
        ],
        "actionId": 167,
        "position": {
          "x": 148.66799926757812,
          "y": 404.6210021972656,
          "z": 33.18600082397461
        },
        "forward": {
          "x": 7.796999931335449,
          "y": 3.687999963760376,
          "z": 10.28499984741211
        },
        "openLongDisTeleport": true,
        "syncForward": true,
        "_posBindMovingTargetKey": "",
        "_forwardBindMovingTargetKey": ""
      },
      {
        "$type": "MoleMole.Config.ConfigTeleportToAction",
        "type": "TELEPORT_TO",
        "aliasList": [
          "AvatarNpc"
        ],
        "actionId": 168,
        "position": {
          "x": 148.22500610351562,
          "y": 404.5060119628906,
          "z": 34.141998291015625
        },
        "forward": {
          "x": 8.842000007629395,
          "y": 3.924999952316284,
          "z": 9.541000366210938
        },
        "openLongDisTeleport": true,
        "syncForward": true,
        "_posBindMovingTargetKey": "",
        "_forwardBindMovingTargetKey": ""
      },
      {
        "$type": "DNOIKEDAKBN",
        "type": "CAMERA_MOVE",
        "duration": 0.5,
        "actionId": 209,
        "camPosOffset": {
          "x": 154.58700561523438,
          "y": 408.93499755859375,
          "z": 40.97700119018555
        },
        "camForwardTargetOffset": {
          "x": 155.3979949951172,
          "y": 408.9079895019531,
          "z": 41.5620002746582
        },
        "camFov": 35.0,
        "lerpPattern": 6,
        "cameraBlendType": "EaseInOutCubic",
        "needZAxisRotate": true,
        "openCameraDither": false,
        "targetNpcAlias": "",
        "closeTreeLeafDither": true,
        "FPHOLHODOFL": "",
        "JOAEMNHLBAH": "",
        "DMBMJMEHOBJ": "",
        "cutFrameTrans": {
          "_elevMinValue": -50.0,
          "_elevMaxValue": 50.0,
          "_poleMinValue": -50.0,
          "_poleMaxValue": 50.0
        }
      },
      {
        "$type": "ADLFFDIAEGI",
        "type": "LOOK_AT_EYECTRL",
        "aliasList": [
          "AvatarNpc"
        ],
        "actionId": 210,
        "_flag": 4672,
        "useTargetPos": false,
        "turnTime": 0.20000000298023224,
        "targetNpcAlias": "",
        "targetPoint": "Face"
      },
      {
        "$type": "MoleMole.Config.ConfigVisibleInterAction",
        "type": "VISIBLE",
        "aliasList": [
          "30558"
        ],
        "actionId": 230,
        "_extraParam": ""
      },
      {
        "$type": "MoleMole.Config.ConfigTeleportToAction",
        "type": "TELEPORT_TO",
        "aliasList": [
          "30559"
        ],
        "actionId": 275,
        "position": {
          "x": 156.3459930419922,
          "y": 407.14898681640625,
          "z": 49.79600143432617
        },
        "forward": {
          "x": 294.9570007324219,
          "y": 47.560001373291016,
          "z": 135.2449951171875
        },
        "openLongDisTeleport": true,
        "syncForward": true,
        "_posBindMovingTargetKey": "",
        "_forwardBindMovingTargetKey": ""
      },
      {
        "$type": "KMKDFCOPMLP",
        "type": "LOOK_AT",
        "aliasList": [
          "1005"
        ],
        "actionId": 278,
        "_flag": 64,
        "headTurnTime": 0.5,
        "targetNpcAlias": "",
        "openBackProtect": true,
        "backProtectAngle": 10.0,
        "targetNpcLookAtPoint": "",
        "APKIBBLJLON": ""
      },
      {
        "$type": "KMKDFCOPMLP",
        "type": "LOOK_AT",
        "aliasList": [
          "2670"
        ],
        "actionId": 279,
        "_flag": 64,
        "headTurnTime": 0.5,
        "targetNpcAlias": "",
        "openBackProtect": true,
        "backProtectAngle": 10.0,
        "targetNpcLookAtPoint": "",
        "APKIBBLJLON": ""
      },
      {
        "$type": "MoleMole.Config.ConfigTeleportToAction",
        "type": "TELEPORT_TO",
        "aliasList": [
          "Avatar"
        ],
        "actionId": 284,
        "position": {
          "x": 148.22500610351562,
          "y": 404.5060119628906,
          "z": 34.141998291015625
        },
        "forward": {
          "x": 8.842000007629395,
          "y": 3.924999952316284,
          "z": 9.541000366210938
        },
        "openLongDisTeleport": true,
        "syncForward": true,
        "_posBindMovingTargetKey": "",
        "_forwardBindMovingTargetKey": ""
      },
      {
        "$type": "MoleMole.Config.ConfigVisibleInterAction",
        "type": "VISIBLE",
        "aliasList": [
          "30559"
        ],
        "actionId": 294,
        "_extraParam": ""
      },
      {
        "$type": "KNDPHIODCAO",
        "type": "EMO_SYNC",
        "aliasList": [
          "AvatarNpc"
        ],
        "actionId": 300,
        "_flag": 320,
        "dataPath": "",
        "phonemePath": "Cs_Emo_Avatar_Common/Cs_Emo_Avatar_Angry01",
        "emotionPath": "Cs_Emo_Avatar_Common/Cs_Emo_Avatar_Default01",
        "mateDataPath": "",
        "matePhonemePath": "",
        "mateEmotionPath": "",
        "phonemePathHashList": [
          14296606849723709100,
          5508348580450379567,
          7627497203169383327,
          8979581647593659876
        ],
        "emotionPathHashList": [
          17551147554270584215,
          11567349927864383394,
          11535483659151300012,
          3124390413002392171
        ],
        "LGOOHJOPJOJ": "",
        "HCHELJAGBIB": ""
      },
      {
        "$type": "KNDPHIODCAO",
        "type": "EMO_SYNC",
        "aliasList": [
          "2670"
        ],
        "actionId": 301,
        "_flag": 320,
        "dataPath": "",
        "phonemePath": "Cs_Emo_Avatar_Common/Cs_Emo_Avatar_Normal01",
        "emotionPath": "Cs_Emo_Avatar_Common/Cs_Emo_Avatar_Default01",
        "mateDataPath": "",
        "matePhonemePath": "",
        "mateEmotionPath": "",
        "phonemePathHashList": [
          9445916536337636767,
          14128686126614747219,
          10779105391569104182,
          11659242061757756269
        ],
        "emotionPathHashList": [
          17551147554270584215,
          11567349927864383394,
          11535483659151300012,
          3124390413002392171
        ],
        "LGOOHJOPJOJ": "",
        "HCHELJAGBIB": ""
      }
    ],
    [
      {
        "$type": "NDPINFEKFAN",
        "type": "DIALOG",
        "delayTime": 2.200000047683716,
        "aliasList": [
          "30558"
        ],
        "actionId": 107,
        "dialogID": 401630501,
        "protectTime": 6.0
      },
      {
        "$type": "MoleMole.Config.ConfigBlackScreenAction",
        "type": "BLACK_SCREEN",
        "duration": 0.5,
        "actionId": 123,
        "_flag": 2048,
        "blackScreenType": "FROM_BLACK",
        "durationToBlack": 0.5,
        "durationKeepBlack": 0.5,
        "durationFromBlack": 0.5,
        "inteePos": "",
        "textMapID": "",
        "useTextFade": true,
        "showClickBtnDelayTime": 0.5,
        "waitClickBtnTipTime": 0.5,
        "_changeAudioState": true
      },
      {
        "$type": "DNOIKEDAKBN",
        "type": "CAMERA_MOVE",
        "delayTime": 2.700000047683716,
        "duration": 0.5,
        "actionId": 140,
        "camPosOffset": {
          "x": 156.87600708007812,
          "y": 408.7030029296875,
          "z": 44.766998291015625
        },
        "camForwardTargetOffset": {
          "x": 157.3820037841797,
          "y": 408.5360107421875,
          "z": 43.92100143432617
        },
        "camFov": 30.0,
        "lerpPattern": 6,
        "cameraBlendType": "EaseInOutCubic",
        "needZAxisRotate": true,
        "rotateAngle": 0.0010000000474974513,
        "openCameraDither": false,
        "targetNpcAlias": "",
        "closeTreeLeafDither": true,
        "FPHOLHODOFL": "",
        "JOAEMNHLBAH": "",
        "DMBMJMEHOBJ": "",
        "cutFrameTrans": {
          "_elevMinValue": -50.0,
          "_elevMaxValue": 50.0,
          "_poleMinValue": -50.0,
          "_poleMaxValue": 50.0
        }
      },
      {
        "$type": "MoleMole.Config.ConfigMoveToAction",
        "type": "MOVE_TO",
        "delayTime": 4.900000095367432,
        "aliasList": [
          "1005"
        ],
        "actionId": 146,
        "moveType": "RUN",
        "routeList": [
          {
            "x": 157.031005859375,
            "y": 407.7720031738281,
            "z": 45.45500183105469
          }
        ],
        "exactlyMove": true,
        "closeNavMesh": true,
        "openSetPos": true,
        "_bindMovingTargetKey": "",
        "_delayTriggerNextTime": 0.30000001192092896
      },
      {
        "$type": "MoleMole.Config.ConfigMoveToAction",
        "type": "MOVE_TO",
        "delayTime": 5.323999881744385,
        "aliasList": [
          "2670"
        ],
        "actionId": 147,
        "moveType": "RUN",
        "routeList": [
          {
            "x": 156.21800231933594,
            "y": 407.739990234375,
            "z": 45.38100051879883
          }
        ],
        "exactlyMove": true,
        "closeNavMesh": true,
        "openSetPos": true,
        "_bindMovingTargetKey": "",
        "_delayTriggerNextTime": 0.30000001192092896
      },
      {
        "$type": "MoleMole.Config.ConfigMoveToAction",
        "type": "MOVE_TO",
        "delayTime": 4.0,
        "aliasList": [
          "AvatarNpc"
        ],
        "actionId": 148,
        "moveType": "RUN",
        "routeList": [
          {
            "x": 157.6529998779297,
            "y": 407.7919921875,
            "z": 45.46900177001953
          }
        ],
        "exactlyMove": true,
        "closeNavMesh": true,
        "openSetPos": true,
        "_bindMovingTargetKey": "",
        "_delayTriggerNextTime": 0.30000001192092896
      },
      {
        "$type": "DNOIKEDAKBN",
        "type": "CAMERA_MOVE",
        "delayTime": 5.099999904632568,
        "duration": 0.5,
        "actionId": 154,
        "camPosOffset": {
          "x": 155.92100524902344,
          "y": 408.37799072265625,
          "z": 41.54600143432617
        },
        "camForwardTargetOffset": {
          "x": 156.28500366210938,
          "y": 408.4469909667969,
          "z": 42.474998474121094
        },
        "camFov": 35.0,
        "lerpPattern": 6,
        "cameraBlendType": "EaseInOutCubic",
        "needZAxisRotate": true,
        "rotateAngle": 0.0010000000474974513,
        "openCameraDither": false,
        "targetNpcAlias": "",
        "closeTreeLeafDither": true,
        "FPHOLHODOFL": "",
        "JOAEMNHLBAH": "",
        "DMBMJMEHOBJ": "",
        "cutFrameTrans": {
          "_elevMinValue": -50.0,
          "_elevMaxValue": 50.0,
          "_poleMinValue": -50.0,
          "_poleMaxValue": 50.0
        }
      },
      {
        "$type": "KMKDFCOPMLP",
        "type": "LOOK_AT",
        "delayTime": 5.750999927520752,
        "aliasList": [
          "AvatarNpc"
        ],
        "actionId": 155,
        "_flag": 64,
        "enableHead": true,
        "useTargetPos": true,
        "enableAbsolute": true,
        "targetPosition": {
          "x": 157.11900329589844,
          "y": 408.510986328125,
          "z": 43.284000396728516
        },
        "headTurnTime": 0.5,
        "targetNpcAlias": "30558",
        "lookAtTargetType": "NONE",
        "targetNpcRotateVecPlus": {
          "y": -10.0
        },
        "openBackProtect": true,
        "backProtectAngle": 10.0,
        "targetNpcLookAtPoint": "",
        "APKIBBLJLON": ""
      },
      {
        "$type": "KMKDFCOPMLP",
        "type": "LOOK_AT",
        "aliasList": [
          "1005"
        ],
        "actionId": 157,
        "_flag": 64,
        "useTargetPos": true,
        "enableAbsolute": true,
        "targetPosition": {
          "x": 157.58999633789062,
          "y": 408.60198974609375,
          "z": 41.18199920654297
        },
        "headTurnTime": 0.5,
        "targetNpcAlias": "30558",
        "lookAtTargetType": "NONE",
        "targetNpcRotateVecPlus": {
          "y": -10.0
        },
        "openBackProtect": true,
        "backProtectAngle": 10.0,
        "targetNpcLookAtPoint": "",
        "APKIBBLJLON": ""
      },
      {
        "$type": "KMKDFCOPMLP",
        "type": "LOOK_AT",
        "delayTime": 6.982999801635742,
        "aliasList": [
          "2670"
        ],
        "actionId": 158,
        "_flag": 64,
        "enableHead": true,
        "useTargetPos": true,
        "enableAbsolute": true,
        "targetPosition": {
          "x": 156.9720001220703,
          "y": 408.3890075683594,
          "z": 43.28200149536133
        },
        "headTurnTime": 0.5,
        "targetNpcAlias": "30558",
        "lookAtTargetType": "NONE",
        "targetNpcRotateVecPlus": {
          "y": -10.0
        },
        "openBackProtect": true,
        "backProtectAngle": 10.0,
        "targetNpcLookAtPoint": "",
        "APKIBBLJLON": ""
      },
      {
        "$type": "MFLLBDNLNBG",
        "type": "STEER_TO",
        "delayTime": 7.254000186920166,
        "duration": 1.0,
        "aliasList": [
          "2670"
        ],
        "actionId": 160,
        "_flag": 32,
        "steerType": "ABSOLUTE",
        "steerDir": {
          "x": 156.81199645996094,
          "y": 407.7539978027344,
          "z": 44.388999938964844
        },
        "useSteerAnim": true,
        "interruptFreestyle": true,
        "forceSteer": true,
        "targetNpcAlias": "",
        "ignoreY": true,
        "fixInterNull": true,
        "advancedMaxSteerAngle": 150.0,
        "advancedMinSteerAngle": 40.0,
        "APKIBBLJLON": ""
      },
      {
        "$type": "MFLLBDNLNBG",
        "type": "STEER_TO",
        "delayTime": 6.698999881744385,
        "duration": 1.0,
        "aliasList": [
          "1005"
        ],
        "actionId": 161,
        "_flag": 32,
        "steerType": "ABSOLUTE",
        "steerDir": {
          "x": 157.08900451660156,
          "y": 407.7720031738281,
          "z": 44.457000732421875
        },
        "useSteerAnim": true,
        "interruptFreestyle": true,
        "forceSteer": true,
        "targetNpcAlias": "",
        "ignoreY": true,
        "fixInterNull": true,
        "advancedMaxSteerAngle": 150.0,
        "advancedMinSteerAngle": 40.0,
        "APKIBBLJLON": ""
      },
      {
        "$type": "DNOIKEDAKBN",
        "type": "CAMERA_MOVE",
        "delayTime": 2.799999952316284,
        "duration": 3.0,
        "actionId": 181,
        "camPosOffset": {
          "x": 156.94000244140625,
          "y": 408.6940002441406,
          "z": 44.70199966430664
        },
        "camForwardTargetOffset": {
          "x": 157.4459991455078,
          "y": 408.5270080566406,
          "z": 43.85599899291992
        },
        "camFov": 30.0,
        "cameraBlendType": "Linear",
        "needZAxisRotate": true,
        "rotateAngle": 0.0010000000474974513,
        "openCameraDither": false,
        "targetNpcAlias": "",
        "closeTreeLeafDither": true,
        "FPHOLHODOFL": "",
        "JOAEMNHLBAH": "",
        "DMBMJMEHOBJ": "",
        "cutFrameTrans": {
          "_elevMinValue": -50.0,
          "_elevMaxValue": 50.0,
          "_poleMinValue": -50.0,
          "_poleMaxValue": 50.0
        }
      },
      {
        "$type": "DNOIKEDAKBN",
        "type": "CAMERA_MOVE",
        "delayTime": 5.199999809265137,
        "duration": 8.0,
        "actionId": 182,
        "camPosOffset": {
          "x": 155.85499572753906,
          "y": 408.39300537109375,
          "z": 41.571998596191406
        },
        "camForwardTargetOffset": {
          "x": 156.23899841308594,
          "y": 408.45599365234375,
          "z": 42.49300003051758
        },
        "camFov": 35.0,
        "cameraBlendType": "EaseOutQuad",
        "needZAxisRotate": true,
        "rotateAngle": 0.0010000000474974513,
        "openCameraDither": false,
        "targetNpcAlias": "",
        "closeTreeLeafDither": true,
        "FPHOLHODOFL": "",
        "JOAEMNHLBAH": "",
        "DMBMJMEHOBJ": "",
        "cutFrameTrans": {
          "_elevMinValue": -50.0,
          "_elevMaxValue": 50.0,
          "_poleMinValue": -50.0,
          "_poleMaxValue": 50.0
        }
      },
      {
        "$type": "MoleMole.Config.ConfigTeleportToAction",
        "type": "TELEPORT_TO",
        "delayTime": 2.700000047683716,
        "aliasList": [
          "AvatarNpc"
        ],
        "actionId": 231,
        "position": {
          "x": 152.25599670410156,
          "y": 406.8919982910156,
          "z": 41.29899978637695
        },
        "forward": {
          "x": 4.9070000648498535,
          "y": 1.5859999656677246,
          "z": 3.752000093460083
        },
        "openLongDisTeleport": true,
        "syncForward": true,
        "_posBindMovingTargetKey": "",
        "_forwardBindMovingTargetKey": ""
      },
      {
        "$type": "MoleMole.Config.ConfigTeleportToAction",
        "type": "TELEPORT_TO",
        "delayTime": 2.700000047683716,
        "aliasList": [
          "1005"
        ],
        "actionId": 232,
        "position": {
          "x": 152.76600646972656,
          "y": 407.1570129394531,
          "z": 42.36600112915039
        },
        "forward": {
          "x": 3.7139999866485596,
          "y": 0.765999972820282,
          "z": 2.7070000171661377
        },
        "openLongDisTeleport": true,
        "syncForward": true,
        "_posBindMovingTargetKey": "",
        "_forwardBindMovingTargetKey": ""
      },
      {
        "$type": "MoleMole.Config.ConfigTeleportToAction",
        "type": "TELEPORT_TO",
        "delayTime": 2.700000047683716,
        "aliasList": [
          "2670"
        ],
        "actionId": 233,
        "position": {
          "x": 151.68099975585938,
          "y": 406.739013671875,
          "z": 41.957000732421875
        },
        "forward": {
          "x": 3.937999963760376,
          "y": 1.315999984741211,
          "z": 2.946000099182129
        },
        "openLongDisTeleport": true,
        "syncForward": true,
        "_posBindMovingTargetKey": "",
        "_forwardBindMovingTargetKey": ""
      },
      {
        "$type": "MFLLBDNLNBG",
        "type": "STEER_TO",
        "delayTime": 5.980999946594238,
        "duration": 1.0,
        "aliasList": [
          "AvatarNpc"
        ],
        "actionId": 234,
        "_flag": 32,
        "steerType": "ABSOLUTE",
        "steerDir": {
          "x": 157.38800048828125,
          "y": 407.7919921875,
          "z": 44.505001068115234
        },
        "useSteerAnim": true,
        "interruptFreestyle": true,
        "forceSteer": true,
        "targetNpcAlias": "",
        "ignoreY": true,
        "fixInterNull": true,
        "advancedMaxSteerAngle": 150.0,
        "advancedMinSteerAngle": 40.0,
        "APKIBBLJLON": ""
      },
      {
        "$type": "KMKDFCOPMLP",
        "type": "LOOK_AT",
        "delayTime": 2.799999952316284,
        "aliasList": [
          "AvatarNpc"
        ],
        "actionId": 235,
        "_flag": 64,
        "headTurnTime": 0.5,
        "targetNpcAlias": "",
        "openBackProtect": true,
        "backProtectAngle": 10.0,
        "targetNpcLookAtPoint": "",
        "APKIBBLJLON": ""
      },
      {
        "$type": "KMKDFCOPMLP",
        "type": "LOOK_AT",
        "delayTime": 6.5960001945495605,
        "aliasList": [
          "1005"
        ],
        "actionId": 236,
        "_flag": 64,
        "enableHead": true,
        "useTargetPos": true,
        "enableAbsolute": true,
        "targetPosition": {
          "x": 157.04100036621094,
          "y": 408.3900146484375,
          "z": 43.284000396728516
        },
        "headTurnTime": 0.5,
        "targetNpcAlias": "30558",
        "lookAtTargetType": "NONE",
        "targetNpcRotateVecPlus": {
          "y": -10.0
        },
        "openBackProtect": true,
        "backProtectAngle": 10.0,
        "targetNpcLookAtPoint": "",
        "APKIBBLJLON": ""
      },
      {
        "$type": "KMKDFCOPMLP",
        "type": "LOOK_AT",
        "aliasList": [
          "2670"
        ],
        "actionId": 238,
        "_flag": 64,
        "headTurnTime": 0.5,
        "targetNpcAlias": "",
        "openBackProtect": true,
        "backProtectAngle": 10.0,
        "targetNpcLookAtPoint": "",
        "APKIBBLJLON": ""
      },
      {
        "$type": "DNOIKEDAKBN",
        "type": "CAMERA_MOVE",
        "duration": 0.5,
        "actionId": 276,
        "camPosOffset": {
          "x": 141.6009979248047,
          "y": 411.3110046386719,
          "z": 40.0369987487793
        },
        "camForwardTargetOffset": {
          "x": 142.48599243164062,
          "y": 411.1109924316406,
          "z": 40.45800018310547
        },
        "camFov": 35.0,
        "lerpPattern": 6,
        "cameraBlendType": "EaseInOutCubic",
        "needZAxisRotate": true,
        "rotateAngle": 0.0010000000474974513,
        "openCameraDither": false,
        "targetNpcAlias": "",
        "closeTreeLeafDither": true,
        "FPHOLHODOFL": "",
        "JOAEMNHLBAH": "",
        "DMBMJMEHOBJ": "",
        "cutFrameTrans": {
          "_elevMinValue": -50.0,
          "_elevMaxValue": 50.0,
          "_poleMinValue": -50.0,
          "_poleMaxValue": 50.0
        }
      },
      {
        "$type": "DNOIKEDAKBN",
        "type": "CAMERA_MOVE",
        "delayTime": 0.10000000149011612,
        "duration": 4.0,
        "actionId": 277,
        "camPosOffset": {
          "x": 141.82699584960938,
          "y": 411.4649963378906,
          "z": 39.6609992980957
        },
        "camForwardTargetOffset": {
          "x": 142.69700622558594,
          "y": 411.2560119628906,
          "z": 40.108001708984375
        },
        "camFov": 35.0,
        "cameraBlendType": "Linear",
        "needZAxisRotate": true,
        "rotateAngle": 0.0010000000474974513,
        "openCameraDither": false,
        "targetNpcAlias": "",
        "closeTreeLeafDither": true,
        "FPHOLHODOFL": "",
        "JOAEMNHLBAH": "",
        "DMBMJMEHOBJ": "",
        "cutFrameTrans": {
          "_elevMinValue": -50.0,
          "_elevMaxValue": 50.0,
          "_poleMinValue": -50.0,
          "_poleMaxValue": 50.0
        }
      }
    ],
    [
      {
        "$type": "NDPINFEKFAN",
        "type": "DIALOG",
        "aliasList": [
          "1005"
        ],
        "actionId": 109,
        "dialogID": 401630502,
        "protectTime": 0.5
      },
      {
        "$type": "DNOIKEDAKBN",
        "type": "CAMERA_MOVE",
        "duration": 0.5,
        "actionId": 152,
        "camPosOffset": {
          "x": 156.48800659179688,
          "y": 409.1130065917969,
          "z": 44.560001373291016
        },
        "camForwardTargetOffset": {
          "x": 157.14199829101562,
          "y": 409.0979919433594,
          "z": 45.31700134277344
        },
        "camFov": 30.0,
        "lerpPattern": 6,
        "cameraBlendType": "EaseInOutCubic",
        "needZAxisRotate": true,
        "rotateAngle": 0.0010000000474974513,
        "openCameraDither": false,
        "targetNpcAlias": "",
        "closeTreeLeafDither": true,
        "FPHOLHODOFL": "",
        "JOAEMNHLBAH": "",
        "DMBMJMEHOBJ": "",
        "cutFrameTrans": {
          "_elevMinValue": -50.0,
          "_elevMaxValue": 50.0,
          "_poleMinValue": -50.0,
          "_poleMaxValue": 50.0
        }
      },
      {
        "$type": "MoleMole.Config.ConfigTeleportToAction",
        "type": "TELEPORT_TO",
        "aliasList": [
          "AvatarNpc"
        ],
        "actionId": 169,
        "position": {
          "x": 157.6529998779297,
          "y": 407.7919921875,
          "z": 45.46900177001953
        },
        "forward": {
          "x": -0.2639999985694885,
          "y": 0.04899999871850014,
          "z": -0.9639999866485596
        },
        "openLongDisTeleport": true,
        "syncForward": true,
        "_posBindMovingTargetKey": "",
        "_forwardBindMovingTargetKey": ""
      },
      {
        "$type": "MoleMole.Config.ConfigTeleportToAction",
        "type": "TELEPORT_TO",
        "aliasList": [
          "1005"
        ],
        "actionId": 170,
        "position": {
          "x": 157.031005859375,
          "y": 407.7720031738281,
          "z": 45.45500183105469
        },
        "forward": {
          "x": 0.057999998331069946,
          "y": 0.03200000151991844,
          "z": -0.9980000257492065
        },
        "openLongDisTeleport": true,
        "syncForward": true,
        "_posBindMovingTargetKey": "",
        "_forwardBindMovingTargetKey": ""
      },
      {
        "$type": "MoleMole.Config.ConfigTeleportToAction",
        "type": "TELEPORT_TO",
        "aliasList": [
          "2670"
        ],
        "actionId": 171,
        "position": {
          "x": 156.37399291992188,
          "y": 407.7539978027344,
          "z": 45.28799819946289
        },
        "forward": {
          "x": 0.4390000104904175,
          "z": -0.8989999890327454
        },
        "openLongDisTeleport": true,
        "syncForward": true,
        "_posBindMovingTargetKey": "",
        "_forwardBindMovingTargetKey": ""
      },
      {
        "$type": "AHHBJGEHACH",
        "type": "BODY_LANG",
        "aliasList": [
          "1005"
        ],
        "actionId": 172,
        "_flag": 131072,
        "bodyLangParam": 1090,
        "forceDoFreeStyle": true,
        "canDoRepeatFreeStyle": false,
        "cantBackToIdleWhenSitLoop": true,
        "eventPatternSuiteKey": ""
      },
      {
        "$type": "KMKDFCOPMLP",
        "type": "LOOK_AT",
        "delayTime": 2.2750000953674316,
        "aliasList": [
          "1005"
        ],
        "actionId": 174,
        "_flag": 64,
        "enableHead": true,
        "useTargetPos": true,
        "enableAbsolute": true,
        "targetPosition": {
          "x": 157.55499267578125,
          "y": 409.0580139160156,
          "z": 46.446998596191406
        },
        "headTurnTime": 0.5,
        "targetNpcAlias": "30558",
        "lookAtTargetType": "NONE",
        "targetNpcRotateVecPlus": {
          "y": -10.0
        },
        "openBackProtect": true,
        "backProtectAngle": 10.0,
        "targetNpcLookAtPoint": "",
        "APKIBBLJLON": ""
      },
      {
        "$type": "AHHBJGEHACH",
        "type": "BODY_LANG",
        "delayTime": 1.9889999628067017,
        "aliasList": [
          "1005"
        ],
        "actionId": 175,
        "_flag": 131072,
        "isContinue": true,
        "forceDoFreeStyle": true,
        "canDoRepeatFreeStyle": false,
        "cantBackToIdleWhenSitLoop": true,
        "eventPatternSuiteKey": ""
      },
      {
        "$type": "KMKDFCOPMLP",
        "type": "LOOK_AT",
        "aliasList": [
          "AvatarNpc"
        ],
        "actionId": 184,
        "_flag": 64,
        "enableHead": true,
        "useTargetPos": true,
        "enableAbsolute": true,
        "targetPosition": {
          "x": 157.11099243164062,
          "y": 409.0429992675781,
          "z": 45.22100067138672
        },
        "headTurnTime": 0.5,
        "targetNpcAlias": "",
        "lookAtTargetType": "NONE",
        "openBackProtect": true,
        "backProtectAngle": 10.0,
        "targetNpcLookAtPoint": "",
        "APKIBBLJLON": ""
      },
      {
        "$type": "ADLFFDIAEGI",
        "type": "LOOK_AT_EYECTRL",
        "aliasList": [
          "AvatarNpc"
        ],
        "actionId": 186,
        "_flag": 4672,
        "useTargetPos": false,
        "eyeRotateVecLeft": {
          "x": 4.0,
          "z": 2.0
        },
        "eyeRotateVecRight": {
          "x": 4.0,
          "z": 2.0
        },
        "turnTime": 0.20000000298023224,
        "targetNpcAlias": "",
        "targetPoint": "Face"
      },
      {
        "$type": "DNOIKEDAKBN",
        "type": "CAMERA_MOVE",
        "delayTime": 3.0,
        "duration": 0.5,
        "actionId": 188,
        "camPosOffset": {
          "x": 153.47500610351562,
          "y": 407.07501220703125,
          "z": 52.66899871826172
        },
        "camForwardTargetOffset": {
          "x": 154.03799438476562,
          "y": 407.2099914550781,
          "z": 51.85300064086914
        },
        "camFov": 35.0,
        "lerpPattern": 6,
        "cameraBlendType": "EaseInOutCubic",
        "needZAxisRotate": true,
        "openCameraDither": false,
        "targetNpcAlias": "",
        "closeTreeLeafDither": true,
        "FPHOLHODOFL": "",
        "JOAEMNHLBAH": "",
        "DMBMJMEHOBJ": "",
        "cutFrameTrans": {
          "_elevMinValue": -50.0,
          "_elevMaxValue": 50.0,
          "_poleMinValue": -50.0,
          "_poleMaxValue": 50.0
        }
      },
      {
        "$type": "KNDPHIODCAO",
        "type": "EMO_SYNC",
        "aliasList": [
          "1005"
        ],
        "actionId": 229,
        "_flag": 320,
        "dataPath": "Cs_Emo_Avatar_Simple_Common_Set/Cs_Emo_Avatar_Talk/Cs_Emo_Avatar_Event/Cs_Emo_Avatar_Fairy/Cs_Emo_401630502",
        "phonemePath": "",
        "emotionPath": "",
        "mateDataPath": "",
        "matePhonemePath": "",
        "mateEmotionPath": "",
        "dataPathHashList": [
          13787453012633654081,
          16704708260646324980,
          4208638261583558448,
          4848073833600352513
        ],
        "LGOOHJOPJOJ": "",
        "HCHELJAGBIB": ""
      },
      {
        "$type": "KMKDFCOPMLP",
        "type": "LOOK_AT",
        "aliasList": [
          "1005"
        ],
        "actionId": 239,
        "_flag": 64,
        "enableHead": true,
        "useTargetPos": true,
        "enableAbsolute": true,
        "targetPosition": {
          "x": 157.1020050048828,
          "y": 408.3890075683594,
          "z": 43.28200149536133
        },
        "headTurnTime": 0.5,
        "targetNpcAlias": "30558",
        "lookAtTargetType": "NONE",
        "targetNpcRotateVecPlus": {
          "y": -10.0
        },
        "openBackProtect": true,
        "backProtectAngle": 10.0,
        "targetNpcLookAtPoint": "",
        "APKIBBLJLON": ""
      },
      {
        "$type": "DNOIKEDAKBN",
        "type": "CAMERA_MOVE",
        "delayTime": 0.10000000149011612,
        "duration": 4.0,
        "actionId": 240,
        "camPosOffset": {
          "x": 156.5030059814453,
          "y": 409.1189880371094,
          "z": 44.54800033569336
        },
        "camForwardTargetOffset": {
          "x": 157.14300537109375,
          "y": 409.0979919433594,
          "z": 45.316001892089844
        },
        "camFov": 30.0,
        "cameraBlendType": "Linear",
        "needZAxisRotate": true,
        "rotateAngle": 0.0010000000474974513,
        "openCameraDither": false,
        "targetNpcAlias": "",
        "closeTreeLeafDither": true,
        "FPHOLHODOFL": "",
        "JOAEMNHLBAH": "",
        "DMBMJMEHOBJ": "",
        "cutFrameTrans": {
          "_elevMinValue": -50.0,
          "_elevMaxValue": 50.0,
          "_poleMinValue": -50.0,
          "_poleMaxValue": 50.0
        }
      },
      {
        "$type": "MFLLBDNLNBG",
        "type": "STEER_TO",
        "delayTime": 2.634000062942505,
        "duration": 1.0,
        "aliasList": [
          "1005"
        ],
        "actionId": 241,
        "_flag": 32,
        "steerType": "ABSOLUTE",
        "steerDir": {
          "x": 157.53500366210938,
          "y": 407.64801025390625,
          "z": 47.909000396728516
        },
        "useSteerAnim": true,
        "interruptFreestyle": true,
        "forceSteer": true,
        "targetNpcAlias": "",
        "ignoreY": true,
        "fixInterNull": true,
        "advancedMaxSteerAngle": 150.0,
        "advancedMinSteerAngle": 40.0,
        "APKIBBLJLON": ""
      },
      {
        "$type": "KMKDFCOPMLP",
        "type": "LOOK_AT",
        "delayTime": 3.3429999351501465,
        "aliasList": [
          "1005"
        ],
        "actionId": 242,
        "_flag": 64,
        "enableHead": true,
        "useTargetPos": true,
        "enableAbsolute": true,
        "targetPosition": {
          "x": 156.53799438476562,
          "y": 408.5050048828125,
          "z": 47.69900131225586
        },
        "headTurnTime": 0.5,
        "targetNpcAlias": "30558",
        "lookAtTargetType": "NONE",
        "targetNpcRotateVecPlus": {
          "y": -10.0
        },
        "openBackProtect": true,
        "backProtectAngle": 10.0,
        "targetNpcLookAtPoint": "",
        "APKIBBLJLON": ""
      },
      {
        "$type": "DNOIKEDAKBN",
        "type": "CAMERA_MOVE",
        "delayTime": 3.0999999046325684,
        "duration": 10.0,
        "actionId": 245,
        "camPosOffset": {
          "x": 153.38900756835938,
          "y": 406.7590026855469,
          "z": 53.165000915527344
        },
        "camForwardTargetOffset": {
          "x": 153.9340057373047,
          "y": 406.9079895019531,
          "z": 52.3390007019043
        },
        "camFov": 35.0,
        "cameraBlendType": "EaseOutQuad",
        "needZAxisRotate": true,
        "openCameraDither": false,
        "targetNpcAlias": "",
        "closeTreeLeafDither": true,
        "FPHOLHODOFL": "",
        "JOAEMNHLBAH": "",
        "DMBMJMEHOBJ": "",
        "cutFrameTrans": {
          "_elevMinValue": -50.0,
          "_elevMaxValue": 50.0,
          "_poleMinValue": -50.0,
          "_poleMaxValue": 50.0
        }
      },
      {
        "$type": "MFLLBDNLNBG",
        "type": "STEER_TO",
        "delayTime": 3.750999927520752,
        "duration": 1.0,
        "aliasList": [
          "2670"
        ],
        "actionId": 246,
        "_flag": 32,
        "steerType": "ABSOLUTE",
        "steerDir": {
          "x": 156.86700439453125,
          "y": 407.7130126953125,
          "z": 46.53099822998047
        },
        "useSteerAnim": true,
        "interruptFreestyle": true,
        "forceSteer": true,
        "targetNpcAlias": "",
        "ignoreY": true,
        "fixInterNull": true,
        "advancedMaxSteerAngle": 150.0,
        "advancedMinSteerAngle": 40.0,
        "APKIBBLJLON": ""
      },
      {
        "$type": "KMKDFCOPMLP",
        "type": "LOOK_AT",
        "delayTime": 3.5190000534057617,
        "aliasList": [
          "2670"
        ],
        "actionId": 247,
        "_flag": 64,
        "enableHead": true,
        "useTargetPos": true,
        "enableAbsolute": true,
        "targetPosition": {
          "x": 156.2050018310547,
          "y": 408.4930114746094,
          "z": 47.45199966430664
        },
        "headTurnTime": 0.5,
        "targetNpcAlias": "30558",
        "lookAtTargetType": "NONE",
        "targetNpcRotateVecPlus": {
          "y": -10.0
        },
        "openBackProtect": true,
        "backProtectAngle": 10.0,
        "targetNpcLookAtPoint": "",
        "APKIBBLJLON": ""
      },
      {
        "$type": "KMKDFCOPMLP",
        "type": "LOOK_AT",
        "delayTime": 2.8399999141693115,
        "aliasList": [
          "AvatarNpc"
        ],
        "actionId": 248,
        "_flag": 64,
        "enableHead": true,
        "useTargetPos": true,
        "enableAbsolute": true,
        "targetPosition": {
          "x": 157.03599548339844,
          "y": 409.0830078125,
          "z": 45.45000076293945
        },
        "headTurnTime": 0.5,
        "targetNpcAlias": "30558",
        "lookAtTargetType": "NONE",
        "targetNpcRotateVecPlus": {
          "y": -10.0
        },
        "openBackProtect": true,
        "backProtectAngle": 10.0,
        "targetNpcLookAtPoint": "",
        "APKIBBLJLON": ""
      },
      {
        "$type": "MFLLBDNLNBG",
        "type": "STEER_TO",
        "delayTime": 3.2820000648498535,
        "duration": 1.0,
        "aliasList": [
          "AvatarNpc"
        ],
        "actionId": 249,
        "_flag": 32,
        "steerType": "ABSOLUTE",
        "steerDir": {
          "x": 156.50599670410156,
          "y": 407.6929931640625,
          "z": 46.24700164794922
        },
        "useSteerAnim": true,
        "interruptFreestyle": true,
        "forceSteer": true,
        "targetNpcAlias": "",
        "ignoreY": true,
        "fixInterNull": true,
        "advancedMaxSteerAngle": 150.0,
        "advancedMinSteerAngle": 40.0,
        "APKIBBLJLON": ""
      },
      {
        "$type": "KMKDFCOPMLP",
        "type": "LOOK_AT",
        "delayTime": 3.9110000133514404,
        "aliasList": [
          "AvatarNpc"
        ],
        "actionId": 271,
        "_flag": 64,
        "enableHead": true,
        "useTargetPos": true,
        "enableAbsolute": true,
        "targetPosition": {
          "x": 156.4409942626953,
          "y": 408.3320007324219,
          "z": 47.97999954223633
        },
        "headTurnTime": 0.5,
        "targetNpcAlias": "30558",
        "lookAtTargetType": "NONE",
        "targetNpcRotateVecPlus": {
          "y": -10.0
        },
        "openBackProtect": true,
        "backProtectAngle": 10.0,
        "targetNpcLookAtPoint": "",
        "APKIBBLJLON": ""
      },
      {
        "$type": "KMKDFCOPMLP",
        "type": "LOOK_AT",
        "aliasList": [
          "2670"
        ],
        "actionId": 280,
        "_flag": 64,
        "enableHead": true,
        "useTargetPos": true,
        "enableAbsolute": true,
        "targetPosition": {
          "x": 156.7030029296875,
          "y": 408.3890075683594,
          "z": 43.28200149536133
        },
        "headTurnTime": 0.5,
        "targetNpcAlias": "30558",
        "lookAtTargetType": "NONE",
        "targetNpcRotateVecPlus": {
          "y": -10.0
        },
        "openBackProtect": true,
        "backProtectAngle": 10.0,
        "targetNpcLookAtPoint": "",
        "APKIBBLJLON": ""
      },
      {
        "$type": "MoleMole.Config.ConfigTeleportToAction",
        "type": "TELEPORT_TO",
        "aliasList": [
          "30559"
        ],
        "actionId": 296,
        "position": {
          "x": 156.3459930419922,
          "y": 407.14898681640625,
          "z": 49.79600143432617
        },
        "forward": {
          "x": 294.9570007324219,
          "y": 47.560001373291016,
          "z": 135.2449951171875
        },
        "openLongDisTeleport": true,
        "syncForward": true,
        "_posBindMovingTargetKey": "",
        "_forwardBindMovingTargetKey": ""
      }
    ],
    [
      {
        "$type": "NDPINFEKFAN",
        "type": "DIALOG",
        "aliasList": [
          "30558"
        ],
        "actionId": 111,
        "dialogID": 401630503,
        "protectTime": 0.5
      },
      {
        "$type": "AHHBJGEHACH",
        "type": "BODY_LANG",
        "aliasList": [
          "30558"
        ],
        "actionId": 162,
        "_flag": 131072,
        "isContinue": true,
        "forceDoFreeStyle": true,
        "canDoRepeatFreeStyle": false,
        "cantBackToIdleWhenSitLoop": true,
        "eventPatternSuiteKey": ""
      },
      {
        "$type": "AHHBJGEHACH",
        "type": "BODY_LANG",
        "aliasList": [
          "1005"
        ],
        "actionId": 176,
        "_flag": 131072,
        "isContinue": true,
        "forceDoFreeStyle": true,
        "canDoRepeatFreeStyle": false,
        "cantBackToIdleWhenSitLoop": true,
        "eventPatternSuiteKey": ""
      },
      {
        "$type": "DNOIKEDAKBN",
        "type": "CAMERA_MOVE",
        "duration": 0.5,
        "actionId": 218,
        "camPosOffset": {
          "x": 156.81399536132812,
          "y": 408.6409912109375,
          "z": 44.79199981689453
        },
        "camForwardTargetOffset": {
          "x": 157.37899780273438,
          "y": 408.5220031738281,
          "z": 43.97600173950195
        },
        "camFov": 30.0,
        "lerpPattern": 6,
        "cameraBlendType": "EaseInOutCubic",
        "needZAxisRotate": true,
        "openCameraDither": false,
        "targetNpcAlias": "",
        "closeTreeLeafDither": true,
        "FPHOLHODOFL": "",
        "JOAEMNHLBAH": "",
        "DMBMJMEHOBJ": "",
        "cutFrameTrans": {
          "_elevMinValue": -50.0,
          "_elevMaxValue": 50.0,
          "_poleMinValue": -50.0,
          "_poleMaxValue": 50.0
        }
      },
      {
        "$type": "DNOIKEDAKBN",
        "type": "CAMERA_MOVE",
        "delayTime": 0.10000000149011612,
        "duration": 15.0,
        "actionId": 227,
        "camPosOffset": {
          "x": 156.89999389648438,
          "y": 408.60699462890625,
          "z": 44.80799865722656
        },
        "camForwardTargetOffset": {
          "x": 157.406005859375,
          "y": 408.510986328125,
          "z": 43.95100021362305
        },
        "camFov": 30.0,
        "cameraBlendType": "EaseOutQuad",
        "needZAxisRotate": true,
        "openCameraDither": false,
        "targetNpcAlias": "",
        "closeTreeLeafDither": true,
        "FPHOLHODOFL": "",
        "JOAEMNHLBAH": "",
        "DMBMJMEHOBJ": "",
        "cutFrameTrans": {
          "_elevMinValue": -50.0,
          "_elevMaxValue": 50.0,
          "_poleMinValue": -50.0,
          "_poleMaxValue": 50.0
        }
      },
      {
        "$type": "MoleMole.Config.ConfigTeleportToAction",
        "type": "TELEPORT_TO",
        "aliasList": [
          "AvatarNpc"
        ],
        "actionId": 250,
        "position": {
          "x": 157.6529998779297,
          "y": 407.7919921875,
          "z": 45.46900177001953
        },
        "forward": {
          "x": -0.2639999985694885,
          "z": -0.9639999866485596
        },
        "openLongDisTeleport": true,
        "syncForward": true,
        "_posBindMovingTargetKey": "",
        "_forwardBindMovingTargetKey": ""
      },
      {
        "$type": "MoleMole.Config.ConfigTeleportToAction",
        "type": "TELEPORT_TO",
        "aliasList": [
          "1005"
        ],
        "actionId": 251,
        "position": {
          "x": 157.031005859375,
          "y": 407.7720031738281,
          "z": 45.45500183105469
        },
        "forward": {
          "x": 0.2709999978542328,
          "z": -0.9629999995231628
        },
        "openLongDisTeleport": true,
        "syncForward": true,
        "_posBindMovingTargetKey": "",
        "_forwardBindMovingTargetKey": ""
      },
      {
        "$type": "MoleMole.Config.ConfigTeleportToAction",
        "type": "TELEPORT_TO",
        "aliasList": [
          "2670"
        ],
        "actionId": 252,
        "position": {
          "x": 156.37399291992188,
          "y": 407.7539978027344,
          "z": 45.28799819946289
        },
        "forward": {
          "x": 0.4390000104904175,
          "z": -0.8989999890327454
        },
        "openLongDisTeleport": true,
        "syncForward": true,
        "_posBindMovingTargetKey": "",
        "_forwardBindMovingTargetKey": ""
      },
      {
        "$type": "KMKDFCOPMLP",
        "type": "LOOK_AT",
        "aliasList": [
          "1005"
        ],
        "actionId": 297,
        "_flag": 64,
        "enableHead": true,
        "useTargetPos": true,
        "enableAbsolute": true,
        "targetPosition": {
          "x": 157.58799743652344,
          "y": 408.385009765625,
          "z": 43.28300094604492
        },
        "headTurnTime": 0.5,
        "targetNpcAlias": "",
        "lookAtTargetType": "NONE",
        "openBackProtect": true,
        "backProtectAngle": 10.0,
        "targetNpcLookAtPoint": "",
        "APKIBBLJLON": ""
      },
      {
        "$type": "KMKDFCOPMLP",
        "type": "LOOK_AT",
        "aliasList": [
          "AvatarNpc"
        ],
        "actionId": 298,
        "_flag": 64,
        "enableHead": true,
        "useTargetPos": true,
        "enableAbsolute": true,
        "targetPosition": {
          "x": 157.57699584960938,
          "y": 408.6369934082031,
          "z": 43.28300094604492
        },
        "headTurnTime": 0.5,
        "targetNpcAlias": "",
        "lookAtTargetType": "NONE",
        "openBackProtect": true,
        "backProtectAngle": 10.0,
        "targetNpcLookAtPoint": "",
        "APKIBBLJLON": ""
      },
      {
        "$type": "KMKDFCOPMLP",
        "type": "LOOK_AT",
        "aliasList": [
          "2670"
        ],
        "actionId": 299,
        "_flag": 64,
        "enableHead": true,
        "useTargetPos": true,
        "enableAbsolute": true,
        "targetPosition": {
          "x": 157.593994140625,
          "y": 408.5360107421875,
          "z": 43.28300094604492
        },
        "headTurnTime": 0.5,
        "targetNpcAlias": "",
        "lookAtTargetType": "NONE",
        "openBackProtect": true,
        "backProtectAngle": 10.0,
        "targetNpcLookAtPoint": "",
        "APKIBBLJLON": ""
      }
    ],
    [
      {
        "$type": "NDPINFEKFAN",
        "type": "DIALOG",
        "aliasList": [
          "30558"
        ],
        "actionId": 113,
        "dialogID": 401630504,
        "protectTime": 0.5
      },
      {
        "$type": "DNOIKEDAKBN",
        "type": "CAMERA_MOVE",
        "delayTime": 0.10000000149011612,
        "duration": 12.0,
        "actionId": 256,
        "camPosOffset": {
          "x": 159.3090057373047,
          "y": 409.6000061035156,
          "z": 46.340999603271484
        },
        "camForwardTargetOffset": {
          "x": 158.5570068359375,
          "y": 409.3299865722656,
          "z": 45.73899841308594
        },
        "camFov": 30.0,
        "cameraBlendType": "EaseOutQuad",
        "needZAxisRotate": true,
        "openCameraDither": false,
        "targetNpcAlias": "",
        "closeTreeLeafDither": true,
        "FPHOLHODOFL": "",
        "JOAEMNHLBAH": "",
        "DMBMJMEHOBJ": "",
        "cutFrameTrans": {
          "_elevMinValue": -50.0,
          "_elevMaxValue": 50.0,
          "_poleMinValue": -50.0,
          "_poleMaxValue": 50.0
        }
      },
      {
        "$type": "DNOIKEDAKBN",
        "type": "CAMERA_MOVE",
        "duration": 0.5,
        "actionId": 257,
        "camPosOffset": {
          "x": 159.677001953125,
          "y": 409.6820068359375,
          "z": 46.60900115966797
        },
        "camForwardTargetOffset": {
          "x": 158.9250030517578,
          "y": 409.4129943847656,
          "z": 46.00699996948242
        },
        "camFov": 30.0,
        "lerpPattern": 6,
        "cameraBlendType": "EaseOutQuad",
        "needZAxisRotate": true,
        "openCameraDither": false,
        "targetNpcAlias": "",
        "closeTreeLeafDither": true,
        "FPHOLHODOFL": "",
        "JOAEMNHLBAH": "",
        "DMBMJMEHOBJ": "",
        "cutFrameTrans": {
          "_elevMinValue": -50.0,
          "_elevMaxValue": 50.0,
          "_poleMinValue": -50.0,
          "_poleMaxValue": 50.0
        }
      },
      {
        "$type": "KMKDFCOPMLP",
        "type": "LOOK_AT",
        "aliasList": [
          "AvatarNpc"
        ],
        "actionId": 288,
        "_flag": 64,
        "enableHead": true,
        "useTargetPos": true,
        "enableAbsolute": true,
        "targetPosition": {
          "x": 157.57699584960938,
          "y": 408.6369934082031,
          "z": 43.28300094604492
        },
        "headTurnTime": 0.5,
        "targetNpcAlias": "",
        "lookAtTargetType": "NONE",
        "openBackProtect": true,
        "backProtectAngle": 10.0,
        "targetNpcLookAtPoint": "",
        "APKIBBLJLON": ""
      },
      {
        "$type": "KMKDFCOPMLP",
        "type": "LOOK_AT",
        "aliasList": [
          "1005"
        ],
        "actionId": 289,
        "_flag": 64,
        "enableHead": true,
        "useTargetPos": true,
        "enableAbsolute": true,
        "targetPosition": {
          "x": 157.58799743652344,
          "y": 408.385009765625,
          "z": 43.28300094604492
        },
        "headTurnTime": 0.5,
        "targetNpcAlias": "",
        "lookAtTargetType": "NONE",
        "openBackProtect": true,
        "backProtectAngle": 10.0,
        "targetNpcLookAtPoint": "",
        "APKIBBLJLON": ""
      },
      {
        "$type": "KMKDFCOPMLP",
        "type": "LOOK_AT",
        "aliasList": [
          "2670"
        ],
        "actionId": 290,
        "_flag": 64,
        "enableHead": true,
        "useTargetPos": true,
        "enableAbsolute": true,
        "targetPosition": {
          "x": 157.593994140625,
          "y": 408.5360107421875,
          "z": 43.28300094604492
        },
        "headTurnTime": 0.5,
        "targetNpcAlias": "",
        "lookAtTargetType": "NONE",
        "openBackProtect": true,
        "backProtectAngle": 10.0,
        "targetNpcLookAtPoint": "",
        "APKIBBLJLON": ""
      },
      {
        "$type": "KMKDFCOPMLP",
        "type": "LOOK_AT",
        "delayTime": 5.436999797821045,
        "aliasList": [
          "AvatarNpc"
        ],
        "actionId": 291,
        "_flag": 64,
        "enableHead": true,
        "useTargetPos": true,
        "enableAbsolute": true,
        "targetPosition": {
          "x": 156.04200744628906,
          "y": 408.8179931640625,
          "z": 43.28300094604492
        },
        "headTurnTime": 0.5,
        "targetNpcAlias": "",
        "lookAtTargetType": "NONE",
        "openBackProtect": true,
        "backProtectAngle": 10.0,
        "targetNpcLookAtPoint": "",
        "APKIBBLJLON": ""
      },
      {
        "$type": "KMKDFCOPMLP",
        "type": "LOOK_AT",
        "delayTime": 4.7220001220703125,
        "aliasList": [
          "1005"
        ],
        "actionId": 292,
        "_flag": 64,
        "enableHead": true,
        "useTargetPos": true,
        "enableAbsolute": true,
        "targetPosition": {
          "x": 155.54400634765625,
          "y": 408.82000732421875,
          "z": 43.28300094604492
        },
        "headTurnTime": 0.5,
        "targetNpcAlias": "",
        "lookAtTargetType": "NONE",
        "openBackProtect": true,
        "backProtectAngle": 10.0,
        "targetNpcLookAtPoint": "",
        "APKIBBLJLON": ""
      },
      {
        "$type": "KMKDFCOPMLP",
        "type": "LOOK_AT",
        "delayTime": 6.181000232696533,
        "aliasList": [
          "2670"
        ],
        "actionId": 293,
        "_flag": 64,
        "enableHead": true,
        "useTargetPos": true,
        "enableAbsolute": true,
        "targetPosition": {
          "x": 155.35800170898438,
          "y": 408.8659973144531,
          "z": 43.28300094604492
        },
        "headTurnTime": 0.5,
        "targetNpcAlias": "",
        "lookAtTargetType": "NONE",
        "openBackProtect": true,
        "backProtectAngle": 10.0,
        "targetNpcLookAtPoint": "",
        "APKIBBLJLON": ""
      }
    ],
    [
      {
        "$type": "MoleMole.Config.ConfigTimeProtectAction",
        "type": "TIME_PROTECT",
        "duration": 0.10000000149011612,
        "actionId": 105
      },
      {
        "$type": "MoleMole.Config.ConfigSimpleBlackScreenAction",
        "type": "SIMPLE_BLACK_SCREEN",
        "actionId": 114,
        "durationToBlack": 0.5,
        "durationKeepBlack": 1.5,
        "durationFromBlack": 0.5,
        "textMapID": ""
      },
      {
        "$type": "MoleMole.Config.ConfigTimeProtectAction",
        "type": "TIME_PROTECT",
        "duration": 0.699999988079071,
        "actionId": 115
      },
      {
        "$type": "AHHBJGEHACH",
        "type": "BODY_LANG",
        "delayTime": 0.6000000238418579,
        "aliasList": [
          "1005"
        ],
        "actionId": 117,
        "_flag": 131072,
        "isContinue": true,
        "forceDoFreeStyle": true,
        "canDoRepeatFreeStyle": false,
        "cantBackToIdleWhenSitLoop": true,
        "eventPatternSuiteKey": ""
      },
      {
        "$type": "AHHBJGEHACH",
        "type": "BODY_LANG",
        "delayTime": 0.6000000238418579,
        "aliasList": [
          "2670"
        ],
        "actionId": 119,
        "_flag": 131072,
        "isContinue": true,
        "forceDoFreeStyle": true,
        "canDoRepeatFreeStyle": false,
        "cantBackToIdleWhenSitLoop": true,
        "eventPatternSuiteKey": ""
      },
      {
        "$type": "AHHBJGEHACH",
        "type": "BODY_LANG",
        "delayTime": 0.6000000238418579,
        "aliasList": [
          "30558"
        ],
        "actionId": 121,
        "_flag": 131072,
        "isContinue": true,
        "forceDoFreeStyle": true,
        "canDoRepeatFreeStyle": false,
        "cantBackToIdleWhenSitLoop": true,
        "eventPatternSuiteKey": ""
      },
      {
        "$type": "DNOIKEDAKBN",
        "type": "CAMERA_MOVE",
        "delayTime": 0.699999988079071,
        "duration": 0.10000000149011612,
        "actionId": 124,
        "cameraPosType": "EXIT",
        "camForwardTargetOffset": {
          "z": 1.0
        },
        "camFov": 30.0,
        "lerpPattern": 5,
        "cameraBlendType": "EaseInOutCubic",
        "openCameraDither": false,
        "targetNpcAlias": "",
        "closeTreeLeafDither": true,
        "FPHOLHODOFL": "",
        "JOAEMNHLBAH": "",
        "DMBMJMEHOBJ": "",
        "cutFrameTrans": {
          "_elevMinValue": -50.0,
          "_elevMaxValue": 50.0,
          "_poleMinValue": -50.0,
          "_poleMaxValue": 50.0
        }
      },
      {
        "$type": "MoleMole.Config.ConfigVisibleInterAction",
        "type": "VISIBLE",
        "delayTime": 0.6000000238418579,
        "aliasList": [
          "AvatarNpc"
        ],
        "actionId": 127,
        "_extraParam": ""
      },
      {
        "$type": "MoleMole.Config.ConfigVisibleInterAction",
        "type": "VISIBLE",
        "delayTime": 0.6000000238418579,
        "aliasList": [
          "Avatar"
        ],
        "actionId": 128,
        "isVisible": true,
        "_extraParam": ""
      },
      {
        "$type": "AHHBJGEHACH",
        "type": "BODY_LANG",
        "delayTime": 0.6000000238418579,
        "aliasList": [
          "AvatarNpc"
        ],
        "actionId": 130,
        "_flag": 131072,
        "isContinue": true,
        "forceDoFreeStyle": true,
        "canDoRepeatFreeStyle": false,
        "cantBackToIdleWhenSitLoop": true,
        "eventPatternSuiteKey": ""
      },
      {
        "$type": "MoleMole.Config.ConfigCameraDOFAction",
        "type": "CAMERA_DOF",
        "delayTime": 0.6000000238418579,
        "actionId": 260,
        "enabled": true,
        "focusDistance": 200.0,
        "focusRange": 500.0,
        "nearFocalDistance": 3.5199999809265137,
        "nearFocalTransDistance": 1.0,
        "dofBlurAmount": 1.0,
        "quality": 3
      },
      {
        "$type": "MoleMole.Config.ConfigTeleportToAction",
        "type": "TELEPORT_TO",
        "delayTime": 0.6000000238418579,
        "aliasList": [
          "AvatarNpc"
        ],
        "actionId": 261,
        "position": {
          "x": 158.23800659179688,
          "y": 407.90399169921875,
          "z": 42.6879997253418
        },
        "forward": {
          "x": -2.055999994277954,
          "z": -0.2280000001192093
        },
        "openLongDisTeleport": true,
        "syncForward": true,
        "_posBindMovingTargetKey": "",
        "_forwardBindMovingTargetKey": ""
      },
      {
        "$type": "MoleMole.Config.ConfigTeleportToAction",
        "type": "TELEPORT_TO",
        "delayTime": 0.6000000238418579,
        "aliasList": [
          "1005"
        ],
        "actionId": 262,
        "position": {
          "x": 158.01199340820312,
          "y": 407.8599853515625,
          "z": 43.32699966430664
        },
        "forward": {
          "x": -2.444999933242798,
          "y": -0.023000000044703484,
          "z": -0.7739999890327454
        },
        "openLongDisTeleport": true,
        "syncForward": true,
        "_posBindMovingTargetKey": "",
        "_forwardBindMovingTargetKey": ""
      },
      {
        "$type": "KMKDFCOPMLP",
        "type": "LOOK_AT",
        "delayTime": 0.6000000238418579,
        "aliasList": [
          "1005"
        ],
        "actionId": 263,
        "_flag": 64,
        "headTurnTime": 0.5,
        "targetNpcAlias": "",
        "openBackProtect": true,
        "backProtectAngle": 10.0,
        "targetNpcLookAtPoint": "",
        "APKIBBLJLON": ""
      },
      {
        "$type": "KMKDFCOPMLP",
        "type": "LOOK_AT",
        "delayTime": 0.6000000238418579,
        "aliasList": [
          "AvatarNpc"
        ],
        "actionId": 264,
        "_flag": 64,
        "headTurnTime": 0.5,
        "targetNpcAlias": "",
        "openBackProtect": true,
        "backProtectAngle": 10.0,
        "targetNpcLookAtPoint": "",
        "APKIBBLJLON": ""
      },
      {
        "$type": "MoleMole.Config.ConfigTeleportToAction",
        "type": "TELEPORT_TO",
        "delayTime": 0.6000000238418579,
        "aliasList": [
          "Avatar"
        ],
        "actionId": 270,
        "position": {
          "x": 160.7899932861328,
          "y": 408.0039978027344,
          "z": 38.689998626708984
        },
        "forward": {
          "x": -2.9100000858306885,
          "y": -0.0989999994635582,
          "z": 4.692999839782715
        },
        "openLongDisTeleport": true,
        "syncForward": true,
        "_posBindMovingTargetKey": "",
        "_forwardBindMovingTargetKey": ""
      }
    ]
  ],
  "groupId": [
    {
      "grpId": 2091712546,
      "nextGrpId": 2091712547,
      "_noCircleNextGrpId": 2091712547
    },
    {
      "index": 1,
      "grpId": 2091712547,
      "nextGrpId": 2091712548,
      "_noCircleNextGrpId": 2091712548
    },
    {
      "index": 2,
      "grpId": 2091712548,
      "nextGrpId": 2091712549,
      "_noCircleNextGrpId": 2091712549
    },
    {
      "index": 3,
      "grpId": 2091712549,
      "nextGrpId": 2091712550,
      "_noCircleNextGrpId": 2091712550
    },
    {
      "index": 4,
      "grpId": 2091712550,
      "nextGrpId": 2091712551,
      "_noCircleNextGrpId": 2091712551
    },
    {
      "index": 5,
      "grpId": 2091712551,
      "nextGrpId": 2091712552,
      "_noCircleNextGrpId": 2091712552
    }
  ],
  "freeStyleDic": {
    "1025": [],
    "1026": [],
    "2670": []
  },
  "GJNILPCMCFC": {
    "AvatarNpc": [
      "SitChat01AS",
      "SitHoldArm01AS",
      "SitShrug01AS",
      "SitThink01AS"
    ],
    "2670": [
      "SitChat01AS",
      "SitHoldArm01AS",
      "SitPutArm01AS",
      "SitShrug01AS",
      "SitThink01AS"
    ]
  },
  "DOGNDDGFIOE": 2091712551
}