{
  "luaDataPath": "",
  "startBlackKeepTime": 0.5,
  "entityBan": "",
  "disableNpcLod": true,
  "isAutoBanNpc": true,
  "isBanWidgetPet": true,
  "protectNpcMobileLod": true,
  "startFade": {
    "startFadeInDuration": 0.5,
    "startFadeOutDuration": 0.5
  },
  "endFade": {
    "startFadeOutDuration": 0.0
  },
  "actors": [
    {
      "alias": "Avatar",
      "visible": true,
      "bornPointName": "Q3009Day3PreHospitalPlayer",
      "relativePosType": "AVATAR_NEW",
      "relativePosNpcAlias": "",
      "_bindMovingTargetKey": ""
    },
    {
      "configID": 1005,
      "alias": "1005",
      "visible": true,
      "bornPointName": "Q3009Day3PreHospitalPaimon",
      "removeActorType": "REMOVE_WITH_DISAPPEAR",
      "relativePosType": "AVATAR_NEW",
      "relativePosNpcAlias": "",
      "_bindMovingTargetKey": ""
    },
    {
      "configID": 1056,
      "alias": "1056",
      "visible": true,
      "bornPointName": "Q3009Day3StartGod2",
      "relativePosType": "AVATAR_NEW",
      "relativePosNpcAlias": "",
      "_bindMovingTargetKey": ""
    }
  ],
  "group": [
    [
      {
        "$type": "MoleMole.Config.ConfigTimeProtectAction",
        "type": "TIME_PROTECT",
        "duration": 0.10000000149011612
      },
      {
        "$type": "MoleMole.Config.ConfigBlackScreenAction",
        "type": "BLACK_SCREEN",
        "actionId": 150,
        "blackScreenType": "KEEP_BLACK",
        "durationKeepBlack": 1.0,
        "inteePos": "",
        "textMapID": "",
        "useTextFade": true
      },
      {
        "$type": "FJKIHHKJLMJ",
        "type": "CAMERA_MOVE",
        "duration": 0.20000000298023224,
        "actionId": 272,
        "camPosOffset": {
          "x": -291.92999267578125,
          "y": 248.9510040283203,
          "z": 2785.7919921875
        },
        "camForwardTargetOffset": {
          "x": -292.47900390625,
          "y": 248.83999633789062,
          "z": 2786.62109375
        },
        "lerpPattern": 6,
        "cameraBlendType": "EaseInOutCubic",
        "NJBNNOMLKCK": {},
        "needZAxisRotate": true,
        "openCameraDither": false,
        "targetNpcAlias": "",
        "closeTreeLeafDither": true,
        "KJOEFBPOIIH": "",
        "IICFKKEBIEC": "",
        "EGEHEJEBLBJ": ""
      },
      {
        "$type": "MoleMole.Config.ConfigTeleportToAction",
        "type": "TELEPORT_TO",
        "aliasList": [
          "Avatar"
        ],
        "actionId": 120,
        "position": {
          "x": -305.3900146484375,
          "y": 246.4010009765625,
          "z": 2793.702880859375
        },
        "forward": {
          "x": 3.5369999408721924,
          "y": 0.23100000619888306,
          "z": -1.2489999532699585
        },
        "openLongDisTeleport": true,
        "_posBindMovingTargetKey": "",
        "_forwardBindMovingTargetKey": ""
      },
      {
        "$type": "LJLMDHDCAMK",
        "type": "LOOK_AT",
        "aliasList": [
          "Avatar"
        ],
        "actionId": 154,
        "headTurnTime": 0.5,
        "targetNpcAlias": "",
        "openBackProtect": true,
        "targetNpcLookAtPoint": "",
        "OAFJBHJHLJG": ""
      },
      {
        "$type": "LJLMDHDCAMK",
        "type": "LOOK_AT",
        "aliasList": [
          "1005"
        ],
        "actionId": 153,
        "headTurnTime": 0.5,
        "targetNpcAlias": "",
        "openBackProtect": true,
        "targetNpcLookAtPoint": "",
        "OAFJBHJHLJG": ""
      },
      {
        "$type": "MoleMole.Config.ConfigTeleportToAction",
        "type": "TELEPORT_TO",
        "aliasList": [
          "1005"
        ],
        "actionId": 243,
        "position": {
          "x": -313.4219970703125,
          "y": 246.4010009765625,
          "z": 2794.99609375
        },
        "forward": {
          "x": 3.865999937057495,
          "y": 0.23100000619888306,
          "z": -1.2660000324249268
        },
        "openLongDisTeleport": true,
        "_posBindMovingTargetKey": "",
        "_forwardBindMovingTargetKey": ""
      },
      {
        "$type": "LJLMDHDCAMK",
        "type": "LOOK_AT",
        "aliasList": [
          "1056"
        ],
        "actionId": 186,
        "headTurnTime": 0.5,
        "targetNpcAlias": "",
        "openBackProtect": true,
        "targetNpcLookAtPoint": "",
        "OAFJBHJHLJG": ""
      },
      {
        "$type": "MoleMole.Config.ConfigVisibleInterAction",
        "type": "VISIBLE",
        "aliasList": [
          "1056"
        ],
        "actionId": 187,
        "_extraParam": ""
      }
    ],
    [
      {
        "$type": "FJKIHHKJLMJ",
        "type": "CAMERA_MOVE",
        "duration": 1.0,
        "actionId": 118,
        "camPosOffset": {
          "x": -291.92999267578125,
          "y": 248.9510040283203,
          "z": 2785.7919921875
        },
        "camForwardTargetOffset": {
          "x": -292.47900390625,
          "y": 248.83999633789062,
          "z": 2786.62109375
        },
        "lerpPattern": 6,
        "cameraBlendType": "EaseInOutCubic",
        "NJBNNOMLKCK": {},
        "needZAxisRotate": true,
        "openCameraDither": false,
        "targetNpcAlias": "",
        "closeTreeLeafDither": true,
        "KJOEFBPOIIH": "",
        "IICFKKEBIEC": "",
        "EGEHEJEBLBJ": ""
      },
      {
        "$type": "MoleMole.Config.ConfigTimeProtectAction",
        "type": "TIME_PROTECT",
        "duration": 6.435999870300293,
        "actionId": 130
      },
      {
        "$type": "MoleMole.Config.ConfigBlackScreenAction",
        "type": "BLACK_SCREEN",
        "actionId": 151,
        "blackScreenType": "FROM_BLACK",
        "durationFromBlack": 0.5,
        "inteePos": "",
        "textMapID": "",
        "useTextFade": true
      },
      {
        "$type": "MoleMole.Config.ConfigMoveToAction",
        "type": "MOVE_TO",
        "aliasList": [
          "Avatar"
        ],
        "actionId": 131,
        "moveType": "RUN",
        "routeList": [
          {
            "x": -277.9880065917969,
            "y": 246.36599731445312,
            "z": 2785.14111328125
          }
        ],
        "exactlyMove": true,
        "closeNavMesh": true,
        "closeAvatarNavMesh": true,
        "_bindMovingTargetKey": ""
      },
      {
        "$type": "CPJKOIHIPBE",
        "type": "EMO_SYNC",
        "aliasList": [
          "Avatar"
        ],
        "actionId": 194,
        "dataPath": "",
        "phonemePath": "Cs_Emo_Avatar_Common/Cs_Emo_Avatar_Angry01",
        "emotionPath": "Cs_Emo_Avatar_Common/Cs_Emo_Avatar_Angry01",
        "mateDataPath": "",
        "matePhonemePath": "",
        "mateEmotionPath": "",
        "phonemePathHashList": [
          14296606849723709100,
          5508348580450379567,
          7627497203169383327,
          8979581647593659876
        ],
        "emotionPathHashList": [
          17142441291827365433,
          5141166644388952532,
          3717387055984808681,
          713130900221361119
        ],
        "FMDPBECPELH": "",
        "ADKBLPOKGIK": ""
      },
      {
        "$type": "MoleMole.Config.ConfigMoveToAction",
        "type": "MOVE_TO",
        "aliasList": [
          "1005"
        ],
        "actionId": 132,
        "moveType": "RUN",
        "routeList": [
          {
            "x": -279.3909912109375,
            "y": 247.13900756835938,
            "z": 2785.930908203125
          }
        ],
        "exactlyMove": true,
        "closeNavMesh": true,
        "_bindMovingTargetKey": ""
      },
      {
        "$type": "LJLMDHDCAMK",
        "type": "LOOK_AT",
        "aliasList": [
          "1005"
        ],
        "actionId": 156,
        "enableHead": true,
        "headTurnTime": 0.5,
        "targetNpcAlias": "Avatar",
        "openBackProtect": true,
        "targetNpcLookAtPoint": "",
        "OAFJBHJHLJG": ""
      },
      {
        "$type": "FJKIHHKJLMJ",
        "type": "CAMERA_MOVE",
        "delayTime": 0.10000000149011612,
        "duration": 6.752999782562256,
        "actionId": 119,
        "camPosOffset": {
          "x": -291.30499267578125,
          "y": 249.01100158691406,
          "z": 2786.25
        },
        "camForwardTargetOffset": {
          "x": -291.9159851074219,
          "y": 248.8939971923828,
          "z": 2787.032958984375
        },
        "cameraBlendType": "Linear",
        "NJBNNOMLKCK": {},
        "openCameraDither": false,
        "targetNpcAlias": "",
        "closeTreeLeafDither": true,
        "KJOEFBPOIIH": "",
        "IICFKKEBIEC": "",
        "EGEHEJEBLBJ": ""
      }
    ],
    [
      {
        "$type": "FJKIHHKJLMJ",
        "type": "CAMERA_MOVE",
        "duration": 1.0,
        "actionId": 133,
        "camPosOffset": {
          "x": -294.2130126953125,
          "y": 248.10000610351562,
          "z": 2785.131103515625
        },
        "camForwardTargetOffset": {
          "x": -293.52899169921875,
          "y": 248.02999877929688,
          "z": 2785.85693359375
        },
        "camFov": 30.0,
        "lerpPattern": 6,
        "cameraBlendType": "EaseInOutCubic",
        "NJBNNOMLKCK": {},
        "needZAxisRotate": true,
        "openCameraDither": false,
        "targetNpcAlias": "",
        "closeTreeLeafDither": true,
        "KJOEFBPOIIH": "",
        "IICFKKEBIEC": "",
        "EGEHEJEBLBJ": ""
      },
      {
        "$type": "MoleMole.Config.ConfigTimeProtectAction",
        "type": "TIME_PROTECT",
        "duration": 4.802000045776367,
        "actionId": 147
      },
      {
        "$type": "MoleMole.Config.ConfigCameraDOFAction",
        "type": "CAMERA_DOF",
        "actionId": 157,
        "enabled": true,
        "focusDistance": 11.619999885559082,
        "focusRange": 8.029999732971191,
        "nearFocalDistance": 3.9700000286102295,
        "nearFocalTransDistance": 1.850000023841858,
        "dofBlurAmount": 2.0,
        "quality": 3
      },
      {
        "$type": "MoleMole.Config.ConfigTeleportToAction",
        "type": "TELEPORT_TO",
        "aliasList": [
          "Avatar"
        ],
        "actionId": 136,
        "position": {
          "x": -296.62799072265625,
          "y": 246.5489959716797,
          "z": 2793.844970703125
        },
        "forward": {
          "x": 2.822000026702881,
          "z": -1.6950000524520874
        },
        "openLongDisTeleport": true,
        "_posBindMovingTargetKey": "",
        "_forwardBindMovingTargetKey": ""
      },
      {
        "$type": "MoleMole.Config.ConfigTeleportToAction",
        "type": "TELEPORT_TO",
        "aliasList": [
          "1005"
        ],
        "actionId": 248,
        "position": {
          "x": -300.4440002441406,
          "y": 246.6649932861328,
          "z": 2794.843994140625
        },
        "forward": {
          "x": 2.822000026702881,
          "z": -1.6950000524520874
        },
        "openLongDisTeleport": true,
        "_posBindMovingTargetKey": "",
        "_forwardBindMovingTargetKey": ""
      },
      {
        "$type": "FJKIHHKJLMJ",
        "type": "CAMERA_MOVE",
        "delayTime": 0.10000000149011612,
        "duration": 3.009999990463257,
        "actionId": 249,
        "camPosOffset": {
          "x": -294.2080078125,
          "y": 248.2779998779297,
          "z": 2785.14306640625
        },
        "camForwardTargetOffset": {
          "x": -293.52398681640625,
          "y": 248.20799255371094,
          "z": 2785.868896484375
        },
        "camFov": 30.0,
        "cameraBlendType": "EaseOutQuad",
        "NJBNNOMLKCK": {},
        "needZAxisRotate": true,
        "openCameraDither": false,
        "targetNpcAlias": "",
        "closeTreeLeafDither": true,
        "KJOEFBPOIIH": "",
        "IICFKKEBIEC": "",
        "EGEHEJEBLBJ": ""
      },
      {
        "$type": "MoleMole.Config.ConfigMoveToAction",
        "type": "MOVE_TO",
        "delayTime": 0.10000000149011612,
        "aliasList": [
          "Avatar"
        ],
        "actionId": 135,
        "moveType": "RUN",
        "routeList": [
          {
            "x": -289.4880065917969,
            "y": 246.99600219726562,
            "z": 2790.1240234375
          }
        ],
        "exactlyMove": true,
        "closeNavMesh": true,
        "closeAvatarNavMesh": true,
        "_bindMovingTargetKey": ""
      },
      {
        "$type": "MoleMole.Config.ConfigMoveToAction",
        "type": "MOVE_TO",
        "delayTime": 0.902999997138977,
        "aliasList": [
          "1005"
        ],
        "actionId": 149,
        "moveType": "RUN",
        "routeList": [
          {
            "x": -291.2170104980469,
            "y": 246.85299682617188,
            "z": 2789.5791015625
          }
        ],
        "exactlyMove": true,
        "closeNavMesh": true,
        "_bindMovingTargetKey": ""
      },
      {
        "$type": "LJLMDHDCAMK",
        "type": "LOOK_AT",
        "delayTime": 1.4739999771118164,
        "aliasList": [
          "1005"
        ],
        "actionId": 155,
        "enableHead": true,
        "useTargetPos": true,
        "enableAbsolute": true,
        "targetPosition": {
          "x": -289.47900390625,
          "y": 248.29800415039062,
          "z": 2790.72509765625
        },
        "headTurnTime": 0.5,
        "targetNpcAlias": "",
        "lookAtTargetType": "NONE",
        "openBackProtect": true,
        "targetNpcLookAtPoint": "",
        "OAFJBHJHLJG": ""
      },
      {
        "$type": "LJLMDHDCAMK",
        "type": "LOOK_AT",
        "delayTime": 1.6200000047683716,
        "aliasList": [
          "Avatar"
        ],
        "actionId": 139,
        "enableHead": true,
        "useTargetPos": true,
        "enableAbsolute": true,
        "targetPosition": {
          "x": -289.6000061035156,
          "y": 248.5,
          "z": 2787.4599609375
        },
        "headTurnTime": 0.5,
        "targetNpcAlias": "",
        "lookAtTargetType": "NONE",
        "openBackProtect": true,
        "targetNpcLookAtPoint": "",
        "OAFJBHJHLJG": ""
      },
      {
        "$type": "LJLMDHDCAMK",
        "type": "LOOK_AT",
        "delayTime": 3.7750000953674316,
        "aliasList": [
          "Avatar"
        ],
        "actionId": 140,
        "enableHead": true,
        "useTargetPos": true,
        "enableAbsolute": true,
        "targetPosition": {
          "x": -287.77801513671875,
          "y": 248.5,
          "z": 2790.135009765625
        },
        "headTurnTime": 0.5,
        "targetNpcAlias": "",
        "lookAtTargetType": "NONE",
        "openBackProtect": true,
        "targetNpcLookAtPoint": "",
        "OAFJBHJHLJG": ""
      }
    ],
    [
      {
        "$type": "FJKIHHKJLMJ",
        "type": "CAMERA_MOVE",
        "duration": 1.0,
        "actionId": 133,
        "camPosOffset": {
          "x": -288.8919982910156,
          "y": 248.39999389648438,
          "z": 2789.5029296875
        },
        "camForwardTargetOffset": {
          "x": -289.8760070800781,
          "y": 248.2949981689453,
          "z": 2789.64501953125
        },
        "camFov": 20.0,
        "lerpPattern": 6,
        "cameraBlendType": "EaseInOutCubic",
        "NJBNNOMLKCK": {},
        "needZAxisRotate": true,
        "openCameraDither": false,
        "targetNpcAlias": "",
        "closeTreeLeafDither": true,
        "KJOEFBPOIIH": "",
        "IICFKKEBIEC": "",
        "EGEHEJEBLBJ": ""
      },
      {
        "$type": "MoleMole.Config.ConfigCameraDOFAction",
        "type": "CAMERA_DOF",
        "actionId": 274,
        "enabled": true,
        "dofBlurAmount": 1.0,
        "quality": 3
      },
      {
        "$type": "MoleMole.Config.ConfigTeleportToAction",
        "type": "TELEPORT_TO",
        "aliasList": [
          "Avatar"
        ],
        "actionId": 152,
        "position": {
          "x": -290.0190124511719,
          "y": 246.88900756835938,
          "z": 2789.837890625
        },
        "forward": {
          "x": 0.8889999985694885,
          "z": -0.4580000042915344
        },
        "openLongDisTeleport": true,
        "_posBindMovingTargetKey": "",
        "_forwardBindMovingTargetKey": ""
      },
      {
        "$type": "LJLMDHDCAMK",
        "type": "LOOK_AT",
        "aliasList": [
          "Avatar"
        ],
        "actionId": 266,
        "enableHead": true,
        "useTargetPos": true,
        "enableAbsolute": true,
        "targetPosition": {
          "x": -289.6000061035156,
          "y": 248.5,
          "z": 2787.4599609375
        },
        "headTurnTime": 0.5,
        "targetNpcAlias": "",
        "lookAtTargetType": "NONE",
        "openBackProtect": true,
        "targetNpcLookAtPoint": "",
        "OAFJBHJHLJG": ""
      },
      {
        "$type": "PKKMAMONGEO",
        "type": "DIALOG",
        "aliasList": [
          "1005"
        ],
        "dialogID": 30090201,
        "protectTime": 0.5
      },
      {
        "$type": "MoleMole.Config.ConfigTeleportToAction",
        "type": "TELEPORT_TO",
        "aliasList": [
          "1005"
        ],
        "actionId": 137,
        "position": {
          "x": -291.23199462890625,
          "y": 246.8520050048828,
          "z": 2789.589111328125
        },
        "forward": {
          "x": 1.0169999599456787,
          "z": 0.024000000208616257
        },
        "openLongDisTeleport": true,
        "_posBindMovingTargetKey": "",
        "_forwardBindMovingTargetKey": ""
      },
      {
        "$type": "LJLMDHDCAMK",
        "type": "LOOK_AT",
        "aliasList": [
          "1005"
        ],
        "actionId": 159,
        "enableHead": true,
        "useTargetPos": true,
        "enableAbsolute": true,
        "targetPosition": {
          "x": -289.9580078125,
          "y": 248.35800170898438,
          "z": 2789.623046875
        },
        "headTurnTime": 0.5,
        "targetNpcAlias": "",
        "lookAtTargetType": "NONE",
        "openBackProtect": true,
        "targetNpcLookAtPoint": "",
        "OAFJBHJHLJG": ""
      },
      {
        "$type": "FABLGECDBCH",
        "type": "BODY_LANG",
        "aliasList": [
          "1005"
        ],
        "actionId": 160,
        "bodyLangParam": 1060,
        "forceDoFreeStyle": true,
        "canDoRepeatFreeStyle": false,
        "cantBackToIdleWhenSitLoop": true,
        "eventPatternSuiteKey": "",
        "FOHHKFAIAAJ": ""
      },
      {
        "$type": "CPJKOIHIPBE",
        "type": "EMO_SYNC",
        "aliasList": [
          "1005"
        ],
        "dataPath": "Cs_Emo_Avatar_Simple_Common_Set/Cs_Emo_Avatar_Talk/Cs_Emo_Avatar_MainLine/Cs_Emo_Avatar_Sumeru1/Cs_Emo_30090201",
        "phonemePath": "",
        "emotionPath": "",
        "mateDataPath": "",
        "matePhonemePath": "",
        "mateEmotionPath": "",
        "dataPathHashList": [
          5574767056910378806,
          2539109070894986942,
          1218974833281072163,
          6878908564382652508
        ],
        "FMDPBECPELH": "",
        "ADKBLPOKGIK": ""
      },
      {
        "$type": "FABLGECDBCH",
        "type": "BODY_LANG",
        "delayTime": 1.3389999866485596,
        "aliasList": [
          "1005"
        ],
        "actionId": 161,
        "bodyLangParam": 1110,
        "forceDoFreeStyle": true,
        "canDoRepeatFreeStyle": false,
        "cantBackToIdleWhenSitLoop": true,
        "eventPatternSuiteKey": "",
        "FOHHKFAIAAJ": ""
      },
      {
        "$type": "LJLMDHDCAMK",
        "type": "LOOK_AT",
        "delayTime": 1.6670000553131104,
        "aliasList": [
          "Avatar"
        ],
        "actionId": 267,
        "enableHead": true,
        "useTargetPos": true,
        "enableAbsolute": true,
        "targetPosition": {
          "x": -287.77801513671875,
          "y": 248.5,
          "z": 2790.135009765625
        },
        "headTurnTime": 0.5,
        "targetNpcAlias": "",
        "lookAtTargetType": "NONE",
        "openBackProtect": true,
        "targetNpcLookAtPoint": "",
        "OAFJBHJHLJG": ""
      },
      {
        "$type": "FABLGECDBCH",
        "type": "BODY_LANG",
        "delayTime": 3.0320000648498535,
        "aliasList": [
          "1005"
        ],
        "actionId": 162,
        "isContinue": true,
        "forceDoFreeStyle": true,
        "canDoRepeatFreeStyle": false,
        "cantBackToIdleWhenSitLoop": true,
        "eventPatternSuiteKey": "",
        "FOHHKFAIAAJ": ""
      }
    ],
    [
      {
        "$type": "MoleMole.Config.ConfigTimeProtectAction",
        "type": "TIME_PROTECT",
        "duration": 5.260000228881836,
        "actionId": 175
      },
      {
        "$type": "MoleMole.Config.ConfigCameraSplineInterAction",
        "type": "CAMERA_SPLINE",
        "duration": 6.0,
        "actionId": 176,
        "cameraPath": {
          "posCurve": {
            "keyframes": [
              {},
              {
                "time": 0.7160000205039978,
                "value": 0.7239999771118164,
                "inTangent": 0.9909999966621399,
                "outTangent": 0.9909999966621399
              },
              {
                "time": 1.0,
                "value": 1.0
              }
            ]
          },
          "totalLength": 1.7369999885559082,
          "pathPoints": [
            {
              "$type": "MoleMole.Config.ConfigCameraSplineBezierPoint",
              "position": {
                "x": -288.927001953125,
                "y": 248.10699462890625,
                "z": 2790.114990234375
              },
              "eulerAngle": {
                "x": 337.86199951171875,
                "y": 236.86199951171875
              },
              "inControlPoint": {
                "x": -288.7690124511719,
                "y": 248.08799743652344,
                "z": 2789.97900390625
              },
              "outControlPoint": {
                "x": -289.08599853515625,
                "y": 248.12600708007812,
                "z": 2790.25
              }
            },
            {
              "$type": "MoleMole.Config.ConfigCameraSplineBezierPoint",
              "position": {
                "x": -289.87701416015625,
                "y": 248.218994140625,
                "z": 2790.928955078125
              },
              "eulerAngle": {
                "x": 337.17401123046875,
                "y": 204.2030029296875
              },
              "lengthRatio": 0.7239999771118164,
              "sList": [
                0.0,
                98.97599792480469,
                239.6230010986328,
                405.9670104980469,
                583.2589721679688,
                755.2440185546875,
                907.2249755859375,
                1024.0
              ],
              "inControlPoint": {
                "x": -289.6419982910156,
                "y": 248.1909942626953,
                "z": 2790.7958984375
              },
              "outControlPoint": {
                "x": -290.1109924316406,
                "y": 248.2480010986328,
                "z": 2791.06201171875
              }
            },
            {
              "$type": "MoleMole.Config.ConfigCameraSplineBezierPoint",
              "position": {
                "x": -290.3330078125,
                "y": 248.27699279785156,
                "z": 2790.9130859375
              },
              "eulerAngle": {
                "x": 350.5820007324219,
                "y": 254.5659942626953
              },
              "lengthRatio": 0.2759999930858612,
              "sList": [
                0.0,
                299.2250061035156,
                535.1740112304688,
                735.989990234375,
                902.8309936523438,
                1024.0
              ],
              "inControlPoint": {
                "x": -290.2569885253906,
                "y": 248.26699829101562,
                "z": 2790.916015625
              },
              "outControlPoint": {
                "x": -290.40899658203125,
                "y": 248.28599548339844,
                "z": 2790.910888671875
              }
            }
          ],
          "fovCurve": {
            "keyframes": [
              {
                "value": 45.0
              },
              {
                "time": 0.7160000205039978,
                "value": 45.0
              },
              {
                "time": 1.0,
                "value": 45.0
              }
            ]
          }
        },
        "targetPath": {
          "posCurve": {
            "keyframes": [
              {},
              {
                "time": 0.7160000205039978,
                "value": 0.7149999737739563,
                "inTangent": 1.0010000467300415,
                "outTangent": 1.0010000467300415
              },
              {
                "time": 1.0,
                "value": 1.0
              }
            ]
          },
          "totalLength": 11.96399974822998,
          "targets": [
            {
              "$type": "MoleMole.Config.ConfigCameraSplineBezierTarget",
              "position": {
                "x": -297.135009765625,
                "y": 248.12100219726562,
                "z": 2787.7041015625
              },
              "inControlPoint": {
                "x": -298.1470031738281,
                "y": 248.19400024414062,
                "z": 2788.701904296875
              },
              "outControlPoint": {
                "x": -296.12298583984375,
                "y": 248.04800415039062,
                "z": 2786.705078125
              }
            },
            {
              "$type": "MoleMole.Config.ConfigCameraSplineBezierTarget",
              "position": {
                "x": -291.0639953613281,
                "y": 247.68499755859375,
                "z": 2781.7109375
              },
              "lengthRatio": 0.7149999737739563,
              "sList": [
                0.0,
                12.645000457763672,
                26.666000366210938,
                42.082000732421875,
                58.70399856567383,
                76.62100219726562,
                95.68800354003906,
                115.84700012207031,
                136.98699951171875,
                159.1510009765625,
                182.1999969482422,
                206.06199645996094,
                230.69700622558594,
                256.0889892578125,
                282.06298828125,
                308.593994140625,
                335.6780090332031,
                363.1960144042969,
                391.0610046386719,
                419.2640075683594,
                447.71600341796875,
                476.37298583984375,
                505.17498779296875,
                533.9959716796875,
                562.8300170898438,
                591.5599975585938,
                620.1840209960938,
                648.5859985351562,
                676.719970703125,
                704.541015625,
                731.9739990234375,
                758.9329833984375,
                785.4080200195312,
                811.2470092773438,
                836.468017578125,
                860.9609985351562,
                884.6909790039062,
                907.5819702148438,
                929.5980224609375,
                950.6010131835938,
                970.6199951171875,
                989.5880126953125,
                1007.3690185546875,
                1024.0
              ],
              "inControlPoint": {
                "x": -292.6159973144531,
                "y": 247.82400512695312,
                "z": 2782.823974609375
              },
              "outControlPoint": {
                "x": -289.51300048828125,
                "y": 247.5469970703125,
                "z": 2780.596923828125
              }
            },
            {
              "$type": "MoleMole.Config.ConfigCameraSplineBezierTarget",
              "position": {
                "x": -287.82598876953125,
                "y": 247.29200744628906,
                "z": 2781.02294921875
              },
              "lengthRatio": 0.2849999964237213,
              "sList": [
                0.0,
                92.1050033569336,
                177.65199279785156,
                257.70098876953125,
                332.55499267578125,
                403.0400085449219,
                469.5150146484375,
                532.4229736328125,
                592.0759887695312,
                648.7269897460938,
                702.47998046875,
                753.3740234375,
                801.3939819335938,
                846.4340209960938,
                888.4240112304688,
                927.2009887695312,
                962.68701171875,
                994.8870239257812,
                1024.0
              ],
              "inControlPoint": {
                "x": -288.3659973144531,
                "y": 247.35699462890625,
                "z": 2781.137939453125
              },
              "outControlPoint": {
                "x": -287.2860107421875,
                "y": 247.2259979248047,
                "z": 2780.908935546875
              }
            }
          ]
        },
        "targetDuration": 6.0,
        "_dissolveUIPath": ""
      },
      {
        "$type": "MoleMole.Config.ConfigCameraDOFAction",
        "type": "CAMERA_DOF",
        "actionId": 270,
        "enabled": true,
        "dofBlurAmount": 1.0,
        "quality": 3
      },
      {
        "$type": "PKKMAMONGEO",
        "type": "DIALOG_CLEAR",
        "actionId": 273
      },
      {
        "$type": "LLGANGLOEEO",
        "type": "STEER_TO",
        "duration": 1.0,
        "aliasList": [
          "Avatar"
        ],
        "actionId": 178,
        "steerType": "ABSOLUTE",
        "steerDir": {
          "x": -290.39801025390625,
          "y": 246.927001953125,
          "z": 2788.89990234375
        },
        "useSteerAnim": true,
        "targetNpcAlias": "",
        "fixInterNull": true,
        "OAFJBHJHLJG": ""
      },
      {
        "$type": "MoleMole.Config.ConfigMoveToAction",
        "type": "MOVE_TO",
        "aliasList": [
          "1005"
        ],
        "actionId": 177,
        "haveNextAction": true,
        "moveType": "WALK",
        "routeList": [
          {
            "x": -290.1889953613281,
            "y": 246.9010009765625,
            "z": 2788.669921875
          }
        ],
        "exactlyMove": true,
        "closeNavMesh": true,
        "_bindMovingTargetKey": ""
      },
      {
        "$type": "LJLMDHDCAMK",
        "type": "LOOK_AT",
        "delayTime": 0.43700000643730164,
        "aliasList": [
          "Avatar"
        ],
        "actionId": 179,
        "enableHead": true,
        "useTargetPos": true,
        "enableAbsolute": true,
        "targetPosition": {
          "x": -291.7300109863281,
          "y": 248.3280029296875,
          "z": 2788.327880859375
        },
        "headTurnTime": 0.5,
        "targetNpcAlias": "",
        "lookAtTargetType": "NONE",
        "openBackProtect": true,
        "targetNpcLookAtPoint": "",
        "OAFJBHJHLJG": ""
      },
      {
        "$type": "LLGANGLOEEO",
        "type": "STEER_TO",
        "delayTime": 1.25,
        "duration": 1.0,
        "aliasList": [
          "1005"
        ],
        "actionId": 182,
        "preActionId": 177,
        "steerType": "ABSOLUTE",
        "steerDir": {
          "x": -290.07598876953125,
          "y": 246.88699340820312,
          "z": 2789.72412109375
        },
        "useSteerAnim": true,
        "targetNpcAlias": "",
        "fixInterNull": true,
        "OAFJBHJHLJG": ""
      },
      {
        "$type": "LJLMDHDCAMK",
        "type": "LOOK_AT",
        "delayTime": 2.9670000076293945,
        "aliasList": [
          "Avatar"
        ],
        "actionId": 180,
        "enableHead": true,
        "useTargetPos": true,
        "enableAbsolute": true,
        "targetPosition": {
          "x": -289.12799072265625,
          "y": 248.3280029296875,
          "z": 2788.2919921875
        },
        "headTurnTime": 0.5,
        "targetNpcAlias": "",
        "lookAtTargetType": "NONE",
        "openBackProtect": true,
        "targetNpcLookAtPoint": "",
        "OAFJBHJHLJG": ""
      }
    ],
    [
      {
        "$type": "MoleMole.Config.ConfigSimpleBlackScreenAction",
        "type": "SIMPLE_BLACK_SCREEN",
        "durationToBlack": 0.5,
        "durationKeepBlack": 3.0,
        "durationFromBlack": 0.5,
        "textMapID": "",
        "useTextFade": true,
        "_dialogID": 30090202
      },
      {
        "$type": "PKKMAMONGEO",
        "type": "DIALOG_CLEAR"
      },
      {
        "$type": "MoleMole.Config.ConfigTimeProtectAction",
        "type": "TIME_PROTECT",
        "duration": 3.5,
        "actionId": 164
      },
      {
        "$type": "FABLGECDBCH",
        "type": "BODY_LANG",
        "aliasList": [
          "1005"
        ],
        "actionId": 163,
        "isContinue": true,
        "forceDoFreeStyle": true,
        "canDoRepeatFreeStyle": false,
        "cantBackToIdleWhenSitLoop": true,
        "eventPatternSuiteKey": "",
        "FOHHKFAIAAJ": ""
      },
      {
        "$type": "FJKIHHKJLMJ",
        "type": "CAMERA_MOVE",
        "delayTime": 0.6000000238418579,
        "duration": 1.0,
        "actionId": 165,
        "camPosOffset": {
          "x": -291.239013671875,
          "y": 248.44500732421875,
          "z": 2790.987060546875
        },
        "camForwardTargetOffset": {
          "x": -290.5830078125,
          "y": 248.3159942626953,
          "z": 2790.243896484375
        },
        "camFov": 20.0,
        "lerpPattern": 6,
        "cameraBlendType": "EaseInOutCubic",
        "NJBNNOMLKCK": {},
        "needZAxisRotate": true,
        "openCameraDither": false,
        "targetNpcAlias": "",
        "closeTreeLeafDither": true,
        "KJOEFBPOIIH": "",
        "IICFKKEBIEC": "",
        "EGEHEJEBLBJ": ""
      },
      {
        "$type": "MoleMole.Config.ConfigTeleportToAction",
        "type": "TELEPORT_TO",
        "delayTime": 0.6000000238418579,
        "aliasList": [
          "Avatar"
        ],
        "actionId": 251,
        "position": {
          "x": -290.0190124511719,
          "y": 246.88800048828125,
          "z": 2789.837890625
        },
        "forward": {
          "x": 0.029999999329447746,
          "z": -1.0
        },
        "openLongDisTeleport": true,
        "_posBindMovingTargetKey": "",
        "_forwardBindMovingTargetKey": ""
      },
      {
        "$type": "MoleMole.Config.ConfigAudioPlayAction",
        "type": "AUDIO_PLAY",
        "delayTime": 3.382999897003174,
        "actionId": 282,
        "audioEventStr": "Play_sfx_quest_XMAQ_mystery02.."
      }
    ],
    [
      {
        "$type": "FJKIHHKJLMJ",
        "type": "CAMERA_MOVE",
        "duration": 1.0,
        "actionId": 181,
        "camPosOffset": {
          "x": -290.4700012207031,
          "y": 248.4320068359375,
          "z": 2790.39697265625
        },
        "camForwardTargetOffset": {
          "x": -290.1130065917969,
          "y": 248.20799255371094,
          "z": 2789.489990234375
        },
        "camFov": 30.0,
        "lerpPattern": 6,
        "cameraBlendType": "EaseInOutCubic",
        "NJBNNOMLKCK": {},
        "needZAxisRotate": true,
        "openCameraDither": false,
        "targetNpcAlias": "",
        "closeTreeLeafDither": true,
        "KJOEFBPOIIH": "",
        "IICFKKEBIEC": "",
        "EGEHEJEBLBJ": ""
      },
      {
        "$type": "CPJKOIHIPBE",
        "type": "EMO_SYNC",
        "aliasList": [
          "1005"
        ],
        "dataPath": "Cs_Emo_Avatar_Simple_Common_Set/Cs_Emo_Avatar_Talk/Cs_Emo_Avatar_MainLine/Cs_Emo_Avatar_Sumeru1/Cs_Emo_30090203",
        "phonemePath": "",
        "emotionPath": "",
        "mateDataPath": "",
        "matePhonemePath": "",
        "mateEmotionPath": "",
        "dataPathHashList": [
          6533967698112907997,
          8060910800469003821,
          8916158466512650540,
          5516991499129588029
        ],
        "FMDPBECPELH": "",
        "ADKBLPOKGIK": ""
      },
      {
        "$type": "MoleMole.Config.ConfigTeleportToAction",
        "type": "TELEPORT_TO",
        "aliasList": [
          "1056"
        ],
        "actionId": 185,
        "position": {
          "x": -309.34698486328125,
          "y": 246.4010009765625,
          "z": 2791.35205078125
        },
        "forward": {
          "x": -1.0230000019073486,
          "z": 1.0
        },
        "openLongDisTeleport": true,
        "_posBindMovingTargetKey": "",
        "_forwardBindMovingTargetKey": ""
      },
      {
        "$type": "LJLMDHDCAMK",
        "type": "LOOK_AT",
        "aliasList": [
          "Avatar"
        ],
        "actionId": 184,
        "enableHead": true,
        "useTargetPos": true,
        "enableAbsolute": true,
        "targetPosition": {
          "x": -288.864013671875,
          "y": 248.35000610351562,
          "z": 2789.091064453125
        },
        "headTurnTime": 0.5,
        "targetNpcAlias": "",
        "lookAtTargetType": "NONE",
        "openBackProtect": true,
        "targetNpcLookAtPoint": "",
        "OAFJBHJHLJG": ""
      },
      {
        "$type": "PKKMAMONGEO",
        "type": "DIALOG",
        "aliasList": [
          "1005"
        ],
        "dialogID": 30090203,
        "protectTime": 8.017000198364258
      },
      {
        "$type": "FABLGECDBCH",
        "type": "BODY_LANG",
        "aliasList": [
          "1005"
        ],
        "actionId": 171,
        "bodyLangParam": 1060,
        "forceDoFreeStyle": true,
        "canDoRepeatFreeStyle": false,
        "cantBackToIdleWhenSitLoop": true,
        "eventPatternSuiteKey": "",
        "FOHHKFAIAAJ": ""
      },
      {
        "$type": "FABLGECDBCH",
        "type": "BODY_LANG",
        "delayTime": 1.2569999694824219,
        "aliasList": [
          "1005"
        ],
        "actionId": 172,
        "isContinue": true,
        "forceDoFreeStyle": true,
        "canDoRepeatFreeStyle": false,
        "cantBackToIdleWhenSitLoop": true,
        "eventPatternSuiteKey": "",
        "FOHHKFAIAAJ": ""
      },
      {
        "$type": "FJKIHHKJLMJ",
        "type": "CAMERA_MOVE",
        "delayTime": 2.5999999046325684,
        "duration": 1.0,
        "actionId": 183,
        "camPosOffset": {
          "x": -288.98699951171875,
          "y": 248.3090057373047,
          "z": 2789.5458984375
        },
        "camForwardTargetOffset": {
          "x": -289.9570007324219,
          "y": 248.28399658203125,
          "z": 2789.7900390625
        },
        "camFov": 20.0,
        "lerpPattern": 6,
        "cameraBlendType": "EaseInOutCubic",
        "NJBNNOMLKCK": {},
        "openCameraDither": false,
        "targetNpcAlias": "",
        "closeTreeLeafDither": true,
        "KJOEFBPOIIH": "",
        "IICFKKEBIEC": "",
        "EGEHEJEBLBJ": ""
      },
      {
        "$type": "MoleMole.Config.ConfigCameraDOFAction",
        "type": "CAMERA_DOF",
        "delayTime": 2.5999999046325684,
        "actionId": 269,
        "enabled": true,
        "focusDistance": 4.440000057220459,
        "focusRange": 3.5899999141693115,
        "nearFocalDistance": 0.3700000047683716,
        "nearFocalTransDistance": 0.30000001192092896,
        "dofBlurAmount": 5.0,
        "quality": 3
      },
      {
        "$type": "MoleMole.Config.ConfigAudioPlayAction",
        "type": "AUDIO_PLAY",
        "delayTime": 2.7739999294281006,
        "actionId": 281,
        "audioEventStr": "Play_sfx_quest_XMAQ_sign01"
      },
      {
        "$type": "MoleMole.Config.ConfigPlayPostEffectAction",
        "type": "PLAY_POST_EFFECT",
        "delayTime": 3.0999999046325684,
        "actionId": 467,
        "assetName": "PostEffect_Scene_MemoryEffect02"
      },
      {
        "$type": "MoleMole.Config.ConfigVisibleInterAction",
        "type": "VISIBLE",
        "delayTime": 3.0999999046325684,
        "aliasList": [
          "1056"
        ],
        "actionId": 188,
        "isVisible": true,
        "_extraParam": ""
      },
      {
        "$type": "MoleMole.Config.ConfigVisibleInterAction",
        "type": "VISIBLE",
        "delayTime": 3.200000047683716,
        "aliasList": [
          "1056"
        ],
        "actionId": 258,
        "_extraParam": ""
      },
      {
        "$type": "MoleMole.Config.ConfigPlayPostEffectAction",
        "type": "PLAY_POST_EFFECT",
        "delayTime": 3.200000047683716,
        "actionId": 470,
        "assetName": "PostEffect_Scene_MemoryEffect02",
        "isRemove": true
      },
      {
        "$type": "MoleMole.Config.ConfigTeleportToAction",
        "type": "TELEPORT_TO",
        "delayTime": 3.246999979019165,
        "aliasList": [
          "1056"
        ],
        "actionId": 262,
        "position": {
          "x": -309.53900146484375,
          "y": 246.4010009765625,
          "z": 2798.430908203125
        },
        "forward": {
          "x": -1.6399999856948853,
          "z": 1.2769999504089355
        },
        "openLongDisTeleport": true,
        "_posBindMovingTargetKey": "",
        "_forwardBindMovingTargetKey": ""
      },
      {
        "$type": "MoleMole.Config.ConfigVisibleInterAction",
        "type": "VISIBLE",
        "delayTime": 3.299999952316284,
        "aliasList": [
          "1056"
        ],
        "actionId": 259,
        "isVisible": true,
        "_extraParam": ""
      },
      {
        "$type": "MoleMole.Config.ConfigPlayPostEffectAction",
        "type": "PLAY_POST_EFFECT",
        "delayTime": 3.299999952316284,
        "actionId": 252,
        "assetName": "PostEffect_Scene_MemoryEffect02"
      },
      {
        "$type": "MoleMole.Config.ConfigVisibleInterAction",
        "type": "VISIBLE",
        "delayTime": 3.4000000953674316,
        "aliasList": [
          "1056"
        ],
        "actionId": 260,
        "_extraParam": ""
      },
      {
        "$type": "MoleMole.Config.ConfigPlayPostEffectAction",
        "type": "PLAY_POST_EFFECT",
        "delayTime": 3.4000000953674316,
        "actionId": 253,
        "assetName": "PostEffect_Scene_MemoryEffect02",
        "isRemove": true
      },
      {
        "$type": "MoleMole.Config.ConfigCameraDOFAction",
        "type": "CAMERA_DOF",
        "delayTime": 3.808000087738037,
        "duration": 0.30000001192092896,
        "actionId": 276,
        "enabled": true,
        "focusDistance": 24.959999084472656,
        "focusRange": 16.0,
        "nearFocalDistance": 0.3700000047683716,
        "nearFocalTransDistance": 0.30000001192092896,
        "dofBlurAmount": 5.0,
        "quality": 3
      },
      {
        "$type": "MoleMole.Config.ConfigVisibleInterAction",
        "type": "VISIBLE",
        "delayTime": 3.9000000953674316,
        "aliasList": [
          "1056"
        ],
        "actionId": 263,
        "isVisible": true,
        "_extraParam": ""
      },
      {
        "$type": "MoleMole.Config.ConfigPlayPostEffectAction",
        "type": "PLAY_POST_EFFECT",
        "delayTime": 3.9000000953674316,
        "actionId": 254,
        "assetName": "PostEffect_Scene_MemoryEffect02"
      },
      {
        "$type": "MoleMole.Config.ConfigPlayPostEffectAction",
        "type": "PLAY_POST_EFFECT",
        "delayTime": 4.199999809265137,
        "actionId": 255,
        "assetName": "PostEffect_Scene_MemoryEffect02",
        "isRemove": true
      },
      {
        "$type": "FJKIHHKJLMJ",
        "type": "CAMERA_MOVE",
        "delayTime": 5.068999767303467,
        "duration": 2.7190001010894775,
        "actionId": 236,
        "camPosOffset": {
          "x": -289.15301513671875,
          "y": 248.29800415039062,
          "z": 2789.84912109375
        },
        "camForwardTargetOffset": {
          "x": -290.09698486328125,
          "y": 248.27000427246094,
          "z": 2790.177001953125
        },
        "camFov": 20.0,
        "cameraBlendType": "EaseInOutCubic",
        "NJBNNOMLKCK": {},
        "needZAxisRotate": true,
        "rotateAngle": 0.052000001072883606,
        "openCameraDither": false,
        "targetNpcAlias": "",
        "closeTreeLeafDither": true,
        "KJOEFBPOIIH": "",
        "IICFKKEBIEC": "",
        "EGEHEJEBLBJ": ""
      },
      {
        "$type": "CPJKOIHIPBE",
        "type": "EMO_SYNC",
        "delayTime": 5.223999977111816,
        "aliasList": [
          "Avatar"
        ],
        "actionId": 210,
        "dataPath": "",
        "phonemePath": "Cs_Emo_Avatar_Common/Cs_Emo_Avatar_Angry01",
        "emotionPath": "Cs_Emo_Avatar_Common/Cs_Emo_Avatar_Surprise01_B",
        "mateDataPath": "",
        "matePhonemePath": "",
        "mateEmotionPath": "",
        "phonemePathHashList": [
          14296606849723709100,
          5508348580450379567,
          7627497203169383327,
          8979581647593659876
        ],
        "emotionPathHashList": [
          6153869480550727162,
          9261362047431754885,
          6726934536050703614,
          7997694774031189167
        ],
        "FMDPBECPELH": "",
        "ADKBLPOKGIK": ""
      },
      {
        "$type": "LLGANGLOEEO",
        "type": "STEER_TO",
        "delayTime": 5.519999980926514,
        "duration": 1.0,
        "aliasList": [
          "Avatar"
        ],
        "actionId": 211,
        "steerType": "ABSOLUTE",
        "steerDir": {
          "x": -292.4739990234375,
          "y": 246.7270050048828,
          "z": 2791.488037109375
        },
        "useSteerAnim": true,
        "targetNpcAlias": "",
        "fixInterNull": true,
        "OAFJBHJHLJG": ""
      },
      {
        "$type": "MoleMole.Config.ConfigVisibleInterAction",
        "type": "VISIBLE",
        "delayTime": 5.74399995803833,
        "duration": 1.0,
        "aliasList": [
          "1056"
        ],
        "actionId": 265,
        "useDither": true,
        "_extraParam": ""
      },
      {
        "$type": "LJLMDHDCAMK",
        "type": "LOOK_AT",
        "delayTime": 5.76200008392334,
        "aliasList": [
          "Avatar"
        ],
        "actionId": 215,
        "enableHead": true,
        "useTargetPos": true,
        "enableAbsolute": true,
        "targetPosition": {
          "x": -307.17498779296875,
          "y": 248.8260040283203,
          "z": 2803.801025390625
        },
        "headTurnTime": 0.5,
        "targetNpcAlias": "",
        "lookAtTargetType": "NONE",
        "openBackProtect": true,
        "targetNpcLookAtPoint": "",
        "OAFJBHJHLJG": ""
      },
      {
        "$type": "MoleMole.Config.ConfigMoveToAction",
        "type": "MOVE_TO",
        "delayTime": 5.791999816894531,
        "aliasList": [
          "1056"
        ],
        "actionId": 271,
        "moveType": "WALK",
        "routeList": [
          {
            "x": -315.8299865722656,
            "y": 248.02999877929688,
            "z": 2811.85205078125
          }
        ],
        "exactlyMove": true,
        "closeNavMesh": true,
        "_bindMovingTargetKey": ""
      },
      {
        "$type": "MoleMole.Config.ConfigCameraDOFAction",
        "type": "CAMERA_DOF",
        "delayTime": 7.461999893188477,
        "actionId": 224,
        "enabled": true,
        "focusDistance": 3.700000047683716,
        "focusRange": 0.7400000095367432,
        "nearFocalDistance": 1.340000033378601,
        "nearFocalTransDistance": 1.4199999570846558,
        "dofBlurAmount": 3.0,
        "quality": 3
      },
      {
        "$type": "FJKIHHKJLMJ",
        "type": "CAMERA_MOVE",
        "delayTime": 7.461999893188477,
        "duration": 1.0,
        "actionId": 213,
        "camPosOffset": {
          "x": -291.81298828125,
          "y": 248.08799743652344,
          "z": 2787.402099609375
        },
        "camForwardTargetOffset": {
          "x": -291.1520080566406,
          "y": 248.1199951171875,
          "z": 2788.152099609375
        },
        "camFov": 30.0,
        "lerpPattern": 6,
        "cameraBlendType": "EaseInOutCubic",
        "NJBNNOMLKCK": {},
        "openCameraDither": false,
        "targetNpcAlias": "",
        "closeTreeLeafDither": true,
        "KJOEFBPOIIH": "",
        "IICFKKEBIEC": "",
        "EGEHEJEBLBJ": ""
      },
      {
        "$type": "FJKIHHKJLMJ",
        "type": "CAMERA_MOVE",
        "delayTime": 7.561999797821045,
        "duration": 5.681000232696533,
        "actionId": 223,
        "camPosOffset": {
          "x": -291.5069885253906,
          "y": 248.10299682617188,
          "z": 2787.74609375
        },
        "camForwardTargetOffset": {
          "x": -290.84600830078125,
          "y": 248.13499450683594,
          "z": 2788.49609375
        },
        "camFov": 30.0,
        "cameraBlendType": "EaseOutQuad",
        "NJBNNOMLKCK": {},
        "needZAxisRotate": true,
        "openCameraDither": false,
        "targetNpcAlias": "",
        "closeTreeLeafDither": true,
        "KJOEFBPOIIH": "",
        "IICFKKEBIEC": "",
        "EGEHEJEBLBJ": ""
      },
      {
        "$type": "LLGANGLOEEO",
        "type": "STEER_TO",
        "delayTime": 7.9019999504089355,
        "duration": 1.0,
        "aliasList": [
          "1005"
        ],
        "actionId": 217,
        "steerType": "ABSOLUTE",
        "steerDir": {
          "x": -292.4739990234375,
          "y": 246.7270050048828,
          "z": 2791.488037109375
        },
        "useSteerAnim": true,
        "targetNpcAlias": "",
        "fixInterNull": true,
        "OAFJBHJHLJG": ""
      },
      {
        "$type": "MoleMole.Config.ConfigMoveToAction",
        "type": "MOVE_TO",
        "delayTime": 7.9019999504089355,
        "aliasList": [
          "Avatar"
        ],
        "actionId": 216,
        "moveType": "RUN",
        "routeList": [
          {
            "x": -301.89300537109375,
            "y": 246.56300354003906,
            "z": 2796.6708984375
          }
        ],
        "exactlyMove": true,
        "closeNavMesh": true,
        "closeAvatarNavMesh": true,
        "_bindMovingTargetKey": ""
      },
      {
        "$type": "LJLMDHDCAMK",
        "type": "LOOK_AT",
        "delayTime": 7.921000003814697,
        "aliasList": [
          "1005"
        ],
        "actionId": 218,
        "headTurnTime": 0.5,
        "targetNpcAlias": "",
        "openBackProtect": true,
        "targetNpcLookAtPoint": "",
        "OAFJBHJHLJG": ""
      },
      {
        "$type": "HDGKHDNFMIM",
        "type": "DIALOG_SELECT",
        "delayTime": 8.017000198364258,
        "aliasList": [
          "Avatar"
        ],
        "dialogIDList": [
          30090204
        ],
        "grpIDList": [
          1113101611
        ],
        "useGrpId": true,
        "countDownGrpId": 1113101603
      },
      {
        "$type": "MoleMole.Config.ConfigCameraDOFAction",
        "type": "CAMERA_DOF",
        "delayTime": 8.638999938964844,
        "duration": 0.5,
        "actionId": 225,
        "enabled": true,
        "focusDistance": 6.769999980926514,
        "focusRange": 2.440000057220459,
        "nearFocalDistance": 1.340000033378601,
        "nearFocalTransDistance": 1.4199999570846558,
        "dofBlurAmount": 3.0,
        "quality": 3
      }
    ],
    [
      {
        "$type": "MoleMole.Config.ConfigLuaAction",
        "type": "LUA_ACTION",
        "duration": 0.30000001192092896,
        "invoke": true,
        "invokeAlias": "3009",
        "invokeParam": 3
      },
      {
        "$type": "FJKIHHKJLMJ",
        "type": "CAMERA_MOVE",
        "duration": 1.0,
        "actionId": 212,
        "camPosOffset": {
          "x": -292.1600036621094,
          "y": 247.96600341796875,
          "z": 2790.544921875
        },
        "camForwardTargetOffset": {
          "x": -291.427001953125,
          "y": 247.98599243164062,
          "z": 2789.864990234375
        },
        "camFov": 20.0,
        "lerpPattern": 6,
        "cameraBlendType": "EaseInOutCubic",
        "NJBNNOMLKCK": {},
        "needZAxisRotate": true,
        "openCameraDither": false,
        "targetNpcAlias": "",
        "closeTreeLeafDither": true,
        "KJOEFBPOIIH": "",
        "IICFKKEBIEC": "",
        "EGEHEJEBLBJ": ""
      },
      {
        "$type": "MoleMole.Config.ConfigCameraDOFAction",
        "type": "CAMERA_DOF",
        "actionId": 226,
        "enabled": true,
        "focusDistance": 6.75,
        "focusRange": 4.460000038146973,
        "nearFocalDistance": 1.1200000047683716,
        "nearFocalTransDistance": 0.3799999952316284,
        "dofBlurAmount": 2.0,
        "quality": 3
      },
      {
        "$type": "MoleMole.Config.ConfigTimeProtectAction",
        "type": "TIME_PROTECT",
        "duration": 0.5
      },
      {
        "$type": "MoleMole.Config.ConfigTeleportToAction",
        "type": "TELEPORT_TO",
        "aliasList": [
          "Avatar"
        ],
        "actionId": 229,
        "position": {
          "x": -298.5360107421875,
          "y": 246.55299377441406,
          "z": 2793.72705078125
        },
        "forward": {
          "x": -1.0080000162124634,
          "z": 0.5249999761581421
        },
        "openLongDisTeleport": true,
        "_posBindMovingTargetKey": "",
        "_forwardBindMovingTargetKey": ""
      },
      {
        "$type": "PKKMAMONGEO",
        "type": "DIALOG",
        "aliasList": [
          "1005"
        ],
        "dialogID": 30090205,
        "protectTime": 5.708000183105469,
        "autoTalkUseNewProtectTime": true,
        "autoTalkProtectTime": 5.732999801635742
      },
      {
        "$type": "FABLGECDBCH",
        "type": "BODY_LANG",
        "aliasList": [
          "1005"
        ],
        "actionId": 220,
        "bodyLangParam": 1060,
        "forceDoFreeStyle": true,
        "canDoRepeatFreeStyle": false,
        "cantBackToIdleWhenSitLoop": true,
        "eventPatternSuiteKey": "",
        "FOHHKFAIAAJ": ""
      },
      {
        "$type": "CPJKOIHIPBE",
        "type": "EMO_SYNC",
        "aliasList": [
          "1005"
        ],
        "dataPath": "Cs_Emo_Avatar_Simple_Common_Set/Cs_Emo_Avatar_Talk/Cs_Emo_Avatar_MainLine/Cs_Emo_Avatar_Sumeru1/Cs_Emo_30090205",
        "phonemePath": "",
        "emotionPath": "",
        "mateDataPath": "",
        "matePhonemePath": "",
        "mateEmotionPath": "",
        "dataPathHashList": [
          17301388312052995500,
          17408061682543657192,
          12098218456092570688,
          14275768049047410967
        ],
        "FMDPBECPELH": "",
        "ADKBLPOKGIK": ""
      },
      {
        "$type": "MoleMole.Config.ConfigVisibleInterAction",
        "type": "VISIBLE",
        "aliasList": [
          "1056"
        ],
        "actionId": 222,
        "_extraParam": ""
      },
      {
        "$type": "FJKIHHKJLMJ",
        "type": "CAMERA_MOVE",
        "delayTime": 0.10000000149011612,
        "duration": 2.9519999027252197,
        "actionId": 228,
        "camPosOffset": {
          "x": -291.5429992675781,
          "y": 247.98399353027344,
          "z": 2789.971923828125
        },
        "camForwardTargetOffset": {
          "x": -290.80999755859375,
          "y": 248.00399780273438,
          "z": 2789.2919921875
        },
        "camFov": 20.0,
        "cameraBlendType": "EaseOutQuad",
        "NJBNNOMLKCK": {},
        "needZAxisRotate": true,
        "openCameraDither": false,
        "targetNpcAlias": "",
        "closeTreeLeafDither": true,
        "KJOEFBPOIIH": "",
        "IICFKKEBIEC": "",
        "EGEHEJEBLBJ": ""
      },
      {
        "$type": "FABLGECDBCH",
        "type": "BODY_LANG",
        "delayTime": 0.9120000004768372,
        "aliasList": [
          "1005"
        ],
        "actionId": 240,
        "isContinue": true,
        "forceDoFreeStyle": true,
        "canDoRepeatFreeStyle": false,
        "cantBackToIdleWhenSitLoop": true,
        "eventPatternSuiteKey": "",
        "FOHHKFAIAAJ": ""
      },
      {
        "$type": "MoleMole.Config.ConfigMoveToAction",
        "type": "MOVE_TO",
        "delayTime": 1.125,
        "aliasList": [
          "1005"
        ],
        "actionId": 238,
        "moveType": "RUN",
        "routeList": [
          {
            "x": -295.6719970703125,
            "y": 246.3489990234375,
            "z": 2796.35498046875
          }
        ],
        "exactlyMove": true,
        "closeNavMesh": true,
        "_bindMovingTargetKey": ""
      },
      {
        "$type": "FJKIHHKJLMJ",
        "type": "CAMERA_MOVE",
        "delayTime": 3.0360000133514404,
        "duration": 1.0,
        "actionId": 239,
        "camPosOffset": {
          "x": -291.5429992675781,
          "y": 247.98399353027344,
          "z": 2789.971923828125
        },
        "camForwardTargetOffset": {
          "x": -290.5950012207031,
          "y": 248.09500122070312,
          "z": 2790.27001953125
        },
        "camFov": 20.0,
        "cameraBlendType": "EaseInOutQuart",
        "NJBNNOMLKCK": {},
        "needZAxisRotate": true,
        "rotateAngle": 4.4730000495910645,
        "openCameraDither": false,
        "targetNpcAlias": "",
        "closeTreeLeafDither": true,
        "KJOEFBPOIIH": "",
        "IICFKKEBIEC": "",
        "EGEHEJEBLBJ": ""
      },
      {
        "$type": "MoleMole.Config.ConfigAudioPlayAction",
        "type": "AUDIO_PLAY",
        "delayTime": 3.2100000381469727,
        "actionId": 280,
        "audioEventStr": "Play_sfx_quest_XMAQ_whoosh01"
      },
      {
        "$type": "FJKIHHKJLMJ",
        "type": "CAMERA_MOVE",
        "delayTime": 3.819999933242798,
        "duration": 2.7980000972747803,
        "actionId": 241,
        "camPosOffset": {
          "x": -291.5429992675781,
          "y": 247.98399353027344,
          "z": 2789.971923828125
        },
        "camForwardTargetOffset": {
          "x": -290.5950012207031,
          "y": 248.09500122070312,
          "z": 2790.27001953125
        },
        "camFov": 20.0,
        "cameraBlendType": "EaseOutQuad",
        "NJBNNOMLKCK": {},
        "needZAxisRotate": true,
        "rotateAngle": 4.4730000495910645,
        "openCameraDither": false,
        "targetNpcAlias": "",
        "closeTreeLeafDither": true,
        "KJOEFBPOIIH": "",
        "IICFKKEBIEC": "",
        "EGEHEJEBLBJ": ""
      }
    ],
    [
      {
        "$type": "MoleMole.Config.ConfigSimpleBlackScreenAction",
        "type": "SIMPLE_BLACK_SCREEN",
        "durationToBlack": 0.5,
        "durationKeepBlack": 1.0,
        "durationFromBlack": 0.5,
        "textMapID": ""
      },
      {
        "$type": "MoleMole.Config.ConfigTimeProtectAction",
        "type": "TIME_PROTECT",
        "duration": 0.699999988079071
      },
      {
        "$type": "MoleMole.Config.ConfigTeleportToAction",
        "type": "TELEPORT_TO",
        "aliasList": [
          "1056"
        ],
        "actionId": 231,
        "position": {
          "x": -315.0820007324219,
          "y": 248.53900146484375,
          "z": 2824.22509765625
        },
        "forward": {
          "x": -1.4869999885559082,
          "y": -0.2709999978542328,
          "z": 3.9560000896453857
        },
        "openLongDisTeleport": true,
        "_posBindMovingTargetKey": "",
        "_forwardBindMovingTargetKey": ""
      },
      {
        "$type": "FJKIHHKJLMJ",
        "type": "CAMERA_MOVE",
        "delayTime": 0.6000000238418579,
        "duration": 0.10000000149011612,
        "actionId": 230,
        "camPosOffset": {
          "x": -294.3689880371094,
          "y": 247.79400634765625,
          "z": 2791.89404296875
        },
        "camForwardTargetOffset": {
          "x": -295.27099609375,
          "y": 247.7270050048828,
          "z": 2792.322021484375
        },
        "lerpPattern": 6,
        "cameraBlendType": "EaseInOutCubic",
        "NJBNNOMLKCK": {},
        "needZAxisRotate": true,
        "openCameraDither": false,
        "targetNpcAlias": "",
        "closeTreeLeafDither": true,
        "KJOEFBPOIIH": "",
        "IICFKKEBIEC": "",
        "EGEHEJEBLBJ": ""
      },
      {
        "$type": "MoleMole.Config.ConfigVisibleInterAction",
        "type": "VISIBLE",
        "delayTime": 0.6000000238418579,
        "aliasList": [
          "1056"
        ],
        "actionId": 232,
        "isVisible": true,
        "_extraParam": ""
      }
    ]
  ],
  "groupId": [
    {
      "grpId": 1113101604,
      "nextGrpId": 1113101605
    },
    {
      "index": 1,
      "grpId": 1113101605,
      "nextGrpId": 1113101606
    },
    {
      "index": 2,
      "grpId": 1113101606,
      "nextGrpId": 1113101607
    },
    {
      "index": 3,
      "grpId": 1113101607,
      "nextGrpId": 1113101608
    },
    {
      "index": 4,
      "grpId": 1113101608,
      "nextGrpId": 1113101609
    },
    {
      "index": 5,
      "grpId": 1113101609,
      "nextGrpId": 1113101610
    },
    {
      "index": 6,
      "grpId": 1113101610,
      "nextGrpId": 1113101611
    },
    {
      "index": 7,
      "grpId": 1113101611,
      "nextGrpId": 1113101612
    },
    {
      "index": 8,
      "grpId": 1113101612,
      "nextGrpId": 146411404
    }
  ],
  "freeStyleDic": {
    "1056": []
  }
}