{
  "velocityForce": {},
  "speed": 3.417181996457281e-37,
  "maxSpeed": 3.8204286669135007e-38,
  "anglerVelocity": -1.7838387009739715e-23,
  "DPAAFHNMHHN": {
    "$type": "GNJNGGEPACE",
    "angularVelocity": {
      "x": -133120.734375,
      "y": -5.253083271911907e-18,
      "z": 1.3300068530952558e-06
    }
  },
  "syncToRemote": false
}