{
  "velocityForce": {},
  "speed": 3.417083569253147e-37,
  "maxSpeed": 3.8204286669135007e-38,
  "anglerVelocity": -1.7677238504021167e-23,
  "DPAAFHNMHHN": {
    "$type": "GNJNGGEPACE",
    "angularVelocity": {
      "x": -1.804117497213563e-15
    }
  },
  "syncToRemote": true,
  "destroyWhenTargetDie": true,
  "traceOnYAxis": true,
  "stickToGroundDuration": 1.5556851213333395e-39
}