{
  "LLICGJHIGME": 3.4171385001529484e-37,
  "OJLPFPNFMDJ": 3.8204286669135007e-38,
  "JFBDDDBIHDE": -1.776577394113593e-23,
  "DFHLPPNLGIE": 1.5210492506365428e-14,
  "GNJEAKAKLHD": -8.638335060961181e-29,
  "EHAGCHIFFHA": -1.8823242498910986e-05,
  "PIJHGEOHOOO": 8.430773482062294e-39
}