{
  "LLICGJHIGME": 3.417140518022737e-37,
  "OJLPFPNFMDJ": 3.8204286669135007e-38,
  "JFBDDDBIHDE": -1.7768607529507485e-23,
  "DFHLPPNLGIE": 5.995379160576159e-14,
  "GNJEAKAKLHD": -2.05782058060322e-11,
  "EHAGCHIFFHA": -1.601651847106078e-15,
  "PIJHGEOHOOO": 1.4689223256162041e-39
}