{
  "LLICGJHIGME": 3.417130428673794e-37,
  "OJLPFPNFMDJ": 3.8204286669135007e-38,
  "JFBDDDBIHDE": -1.7754439587649716e-23,
  "DFHLPPNLGIE": 5.122961971293028e-18,
  "GNJEAKAKLHD": -0.0059816837310791016,
  "EHAGCHIFFHA": -1.2917248604929578e+26,
  "PIJHGEOHOOO": 8.530634214525473e-39
}