{
  "targetPosition": {
    "x": 1.5512649327197996e-36,
    "y": 3.8204286669135007e-38,
    "z": -3.273010103573099e-33
  },
  "followOffset": {
    "x": 1.7445170958934302e-39,
    "y": -4.185381818899714e-09
  },
  "NCOJGKFNCPN": -0.08033941686153412,
  "fov": 1.46554799891411e-40
}