{
  "luaDataPath": "",
  "dontUseDefaultFinish": true,
  "startBlackKeepTime": 0.5,
  "entityBan": "",
  "disableNpcLod": true,
  "isAutoBanNpc": true,
  "isBanWidgetPet": true,
  "protectNpcMobileLod": true,
  "talkFlag": 7,
  "startFade": {
    "startFadeInDuration": 0.5,
    "startFadeOutDuration": 0.5
  },
  "endFade": {
    "startFadeOutDuration": 0.0
  },
  "actors": [
    {
      "alias": "Avatar",
      "visible": true,
      "bornPointName": "[3_310701981:-549.551,211.191,305.775,0.000,330.972,0.000]",
      "relativePosType": "AVATAR_NEW",
      "relativePosNpcAlias": "",
      "_notDestroyInTalk": true,
      "_bindMovingTargetKey": ""
    },
    {
      "alias": "AvatarNpc",
      "visible": true,
      "bornPointName": "[3_310701981:-549.551,211.191,305.775,0.000,330.972,0.000]",
      "removeActorType": "NEW_REMOVE",
      "relativePosType": "AVATAR_NEW",
      "relativePosNpcAlias": "",
      "_notDestroyInTalk": true,
      "_bindMovingTargetKey": ""
    },
    {
      "configID": 30457,
      "alias": "30457",
      "visible": true,
      "bornPointName": "[3_310701969:-550.493,211.353,306.308,0.000,147.548,0.000]",
      "forceCreateDaily": true,
      "relativePosType": "AVATAR_NEW",
      "relativePosNpcAlias": "",
      "_notDestroyInTalk": true,
      "_bindMovingTargetKey": ""
    },
    {
      "configID": 1005,
      "alias": "1005",
      "visible": true,
      "bornPointName": "[3_7593:-550.441,211.601,304.785,0.000,350.198,0.000]",
      "removeActorType": "NEW_REMOVE_WITH_DISAPPEAR",
      "relativePosType": "AVATAR_NEW",
      "relativePosNpcAlias": "",
      "_notDestroyInTalk": true,
      "_bindMovingTargetKey": ""
    }
  ],
  "group": [
    [
      {
        "$type": "MoleMole.Config.ConfigTimeProtectAction",
        "type": "TIME_PROTECT",
        "duration": 0.8920000195503235,
        "actionId": 104
      },
      {
        "$type": "MoleMole.Config.ConfigBlackScreenAction",
        "type": "BLACK_SCREEN",
        "duration": 1.1169999837875366,
        "actionId": 188,
        "_flag": 2048,
        "durationKeepBlack": 1.0,
        "inteePos": "",
        "textMapID": "",
        "useTextFade": true,
        "forceUseFromWhenNoTo": true,
        "_changeAudioState": true
      },
      {
        "$type": "FJKIHHKJLMJ",
        "type": "CAMERA_MOVE",
        "duration": 0.5,
        "actionId": 317,
        "camPosOffset": {
          "x": -549.1259765625,
          "y": 212.6929931640625,
          "z": 304.6610107421875
        },
        "camForwardTargetOffset": {
          "x": -549.7769775390625,
          "y": 212.656005859375,
          "z": 305.41900634765625
        },
        "camFov": 55.91299819946289,
        "lerpPattern": 6,
        "cameraBlendType": "EaseInOutCubic",
        "NJBNNOMLKCK": {},
        "needZAxisRotate": true,
        "openCameraDither": false,
        "targetNpcAlias": "",
        "closeTreeLeafDither": true,
        "KJOEFBPOIIH": "",
        "IICFKKEBIEC": "",
        "EGEHEJEBLBJ": ""
      },
      {
        "$type": "MoleMole.Config.ConfigSitOrStandAction",
        "type": "SIT_OR_STAND",
        "aliasList": [
          "Avatar"
        ],
        "actionId": 177,
        "_flag": 8192,
        "banResetFreestyle": true
      },
      {
        "$type": "MoleMole.Config.ConfigVisibleInterAction",
        "type": "VISIBLE",
        "aliasList": [
          "Avatar"
        ],
        "actionId": 183,
        "_extraParam": ""
      },
      {
        "$type": "MoleMole.Config.ConfigPlayerNPCEnergyTypeAction",
        "type": "SET_PLAYER_NPC_ENERGY_TYPE",
        "aliasList": [
          "AvatarNpc"
        ],
        "actionId": 178,
        "setHeroEngergyType": true
      },
      {
        "$type": "FABLGECDBCH",
        "type": "BODY_LANG",
        "aliasList": [
          "AvatarNpc"
        ],
        "actionId": 181,
        "isContinue": true,
        "forceDoFreeStyle": true,
        "canDoRepeatFreeStyle": false,
        "eventPatternSuiteKey": "",
        "FOHHKFAIAAJ": ""
      },
      {
        "$type": "FABLGECDBCH",
        "type": "BODY_LANG",
        "aliasList": [
          "30457"
        ],
        "actionId": 167,
        "isContinue": true,
        "forceDoFreeStyle": true,
        "canDoRepeatFreeStyle": false,
        "eventPatternSuiteKey": "",
        "FOHHKFAIAAJ": ""
      },
      {
        "$type": "LJLMDHDCAMK",
        "type": "LOOK_AT",
        "aliasList": [
          "30457"
        ],
        "actionId": 315,
        "_flag": 64,
        "enableHead": true,
        "headTurnTime": 0.5,
        "targetNpcAlias": "AvatarNpc",
        "openBackProtect": true,
        "backProtectAngle": 10.0,
        "targetNpcLookAtPoint": "",
        "OAFJBHJHLJG": ""
      },
      {
        "$type": "FABLGECDBCH",
        "type": "BODY_LANG",
        "aliasList": [
          "1005"
        ],
        "actionId": 169,
        "isContinue": true,
        "forceDoFreeStyle": true,
        "canDoRepeatFreeStyle": false,
        "eventPatternSuiteKey": "",
        "FOHHKFAIAAJ": ""
      },
      {
        "$type": "MoleMole.Config.ConfigTeleportToAction",
        "type": "TELEPORT_TO",
        "aliasList": [
          "1005"
        ],
        "actionId": 239,
        "position": {
          "x": -550.1939697265625,
          "y": 211.6009979248047,
          "z": 305.3080139160156
        },
        "forward": {
          "x": -0.5180000066757202,
          "z": 1.3860000371932983
        },
        "openLongDisTeleport": true,
        "syncForward": true,
        "_posBindMovingTargetKey": "",
        "_forwardBindMovingTargetKey": ""
      }
    ],
    [
      {
        "$type": "FJKIHHKJLMJ",
        "type": "CAMERA_MOVE",
        "duration": 0.5,
        "actionId": 184,
        "camPosOffset": {
          "x": -549.1259765625,
          "y": 212.6929931640625,
          "z": 304.6610107421875
        },
        "camForwardTargetOffset": {
          "x": -549.7769775390625,
          "y": 212.656005859375,
          "z": 305.41900634765625
        },
        "camFov": 55.891998291015625,
        "lerpPattern": 6,
        "cameraBlendType": "EaseInOutCubic",
        "NJBNNOMLKCK": {},
        "needZAxisRotate": true,
        "openCameraDither": false,
        "targetNpcAlias": "",
        "closeTreeLeafDither": true,
        "KJOEFBPOIIH": "",
        "IICFKKEBIEC": "",
        "EGEHEJEBLBJ": ""
      },
      {
        "$type": "LJLMDHDCAMK",
        "type": "LOOK_AT",
        "aliasList": [
          "Avatar"
        ],
        "actionId": 190,
        "_flag": 64,
        "enableHead": true,
        "headTurnTime": 0.5,
        "targetNpcAlias": "30457",
        "openBackProtect": true,
        "backProtectAngle": 10.0,
        "targetNpcLookAtPoint": "",
        "OAFJBHJHLJG": ""
      },
      {
        "$type": "LJLMDHDCAMK",
        "type": "LOOK_AT",
        "aliasList": [
          "AvatarNpc"
        ],
        "actionId": 191,
        "_flag": 64,
        "enableHead": true,
        "headTurnTime": 0.5,
        "targetNpcAlias": "30457",
        "openBackProtect": true,
        "backProtectAngle": 10.0,
        "targetNpcLookAtPoint": "",
        "OAFJBHJHLJG": ""
      },
      {
        "$type": "PKKMAMONGEO",
        "type": "DIALOG",
        "aliasList": [
          "30457"
        ],
        "actionId": 107,
        "dialogID": 715300101,
        "protectTime": 1.8420000076293945
      },
      {
        "$type": "LJLMDHDCAMK",
        "type": "LOOK_AT",
        "aliasList": [
          "1005"
        ],
        "actionId": 192,
        "_flag": 64,
        "enableHead": true,
        "headTurnTime": 0.5,
        "targetNpcAlias": "30457",
        "openBackProtect": true,
        "backProtectAngle": 10.0,
        "targetNpcLookAtPoint": "",
        "OAFJBHJHLJG": ""
      },
      {
        "$type": "FJKIHHKJLMJ",
        "type": "CAMERA_MOVE",
        "delayTime": 0.18299999833106995,
        "duration": 5.0,
        "actionId": 185,
        "camPosOffset": {
          "x": -549.1259765625,
          "y": 212.6929931640625,
          "z": 304.6610107421875
        },
        "camForwardTargetOffset": {
          "x": -549.7730102539062,
          "y": 212.718994140625,
          "z": 305.4230041503906
        },
        "camFov": 55.891998291015625,
        "cameraBlendType": "EaseOutQuad",
        "NJBNNOMLKCK": {},
        "needZAxisRotate": true,
        "openCameraDither": false,
        "targetNpcAlias": "",
        "closeTreeLeafDither": true,
        "KJOEFBPOIIH": "",
        "IICFKKEBIEC": "",
        "EGEHEJEBLBJ": ""
      },
      {
        "$type": "LJLMDHDCAMK",
        "type": "LOOK_AT",
        "delayTime": 0.7829999923706055,
        "aliasList": [
          "30457"
        ],
        "actionId": 231,
        "_flag": 64,
        "enableHead": true,
        "headTurnTime": 0.5,
        "targetNpcAlias": "1005",
        "openBackProtect": true,
        "backProtectAngle": 10.0,
        "targetNpcLookAtPoint": "",
        "OAFJBHJHLJG": ""
      },
      {
        "$type": "FABLGECDBCH",
        "type": "BODY_LANG",
        "delayTime": 0.9829999804496765,
        "aliasList": [
          "30457"
        ],
        "actionId": 189,
        "bodyLangParam": 1200,
        "forceDoFreeStyle": true,
        "canDoRepeatFreeStyle": false,
        "cantBackToIdleWhenSitLoop": true,
        "eventPatternSuiteKey": "",
        "FOHHKFAIAAJ": ""
      },
      {
        "$type": "FABLGECDBCH",
        "type": "BODY_LANG",
        "delayTime": 1.3250000476837158,
        "aliasList": [
          "1005"
        ],
        "actionId": 240,
        "bodyLangParam": 1200,
        "forceDoFreeStyle": true,
        "canDoRepeatFreeStyle": false,
        "cantBackToIdleWhenSitLoop": true,
        "eventPatternSuiteKey": "",
        "FOHHKFAIAAJ": ""
      },
      {
        "$type": "LJLMDHDCAMK",
        "type": "LOOK_AT",
        "delayTime": 1.5920000076293945,
        "aliasList": [
          "30457"
        ],
        "actionId": 232,
        "_flag": 64,
        "enableHead": true,
        "headTurnTime": 0.5,
        "targetNpcAlias": "AvatarNpc",
        "openBackProtect": true,
        "backProtectAngle": 10.0,
        "targetNpcLookAtPoint": "",
        "OAFJBHJHLJG": ""
      }
    ],
    [
      {
        "$type": "FJKIHHKJLMJ",
        "type": "CAMERA_MOVE",
        "duration": 0.5,
        "actionId": 186,
        "camPosOffset": {
          "x": -549.9310302734375,
          "y": 212.86099243164062,
          "z": 305.7430114746094
        },
        "camForwardTargetOffset": {
          "x": -550.6179809570312,
          "y": 212.82400512695312,
          "z": 306.468994140625
        },
        "camFov": 55.891998291015625,
        "lerpPattern": 6,
        "cameraBlendType": "EaseInOutCubic",
        "NJBNNOMLKCK": {},
        "needZAxisRotate": true,
        "openCameraDither": false,
        "targetNpcAlias": "",
        "closeTreeLeafDither": true,
        "KJOEFBPOIIH": "",
        "IICFKKEBIEC": "",
        "EGEHEJEBLBJ": ""
      },
      {
        "$type": "PKKMAMONGEO",
        "type": "DIALOG",
        "aliasList": [
          "30457"
        ],
        "actionId": 109,
        "dialogID": 715300102,
        "protectTime": 0.5
      },
      {
        "$type": "FABLGECDBCH",
        "type": "BODY_LANG",
        "aliasList": [
          "30457"
        ],
        "actionId": 241,
        "bodyLangParam": 1172,
        "forceDoFreeStyle": true,
        "canDoRepeatFreeStyle": false,
        "cantBackToIdleWhenSitLoop": true,
        "eventPatternSuiteKey": "",
        "FOHHKFAIAAJ": ""
      },
      {
        "$type": "FJKIHHKJLMJ",
        "type": "CAMERA_MOVE",
        "delayTime": 0.18299999833106995,
        "duration": 5.0,
        "actionId": 187,
        "camPosOffset": {
          "x": -549.9310302734375,
          "y": 212.86099243164062,
          "z": 305.7430114746094
        },
        "camForwardTargetOffset": {
          "x": -550.6179809570312,
          "y": 212.88999938964844,
          "z": 306.468994140625
        },
        "camFov": 55.891998291015625,
        "cameraBlendType": "EaseOutQuad",
        "NJBNNOMLKCK": {},
        "needZAxisRotate": true,
        "openCameraDither": false,
        "targetNpcAlias": "",
        "closeTreeLeafDither": true,
        "KJOEFBPOIIH": "",
        "IICFKKEBIEC": "",
        "EGEHEJEBLBJ": ""
      }
    ],
    [
      {
        "$type": "FJKIHHKJLMJ",
        "type": "CAMERA_MOVE",
        "duration": 0.5,
        "actionId": 243,
        "camPosOffset": {
          "x": -549.9219970703125,
          "y": 212.8159942626953,
          "z": 306.0669860839844
        },
        "camForwardTargetOffset": {
          "x": -550.239013671875,
          "y": 212.6510009765625,
          "z": 305.13299560546875
        },
        "camFov": 55.891998291015625,
        "lerpPattern": 6,
        "cameraBlendType": "EaseInOutCubic",
        "NJBNNOMLKCK": {},
        "needZAxisRotate": true,
        "openCameraDither": false,
        "targetNpcAlias": "",
        "closeTreeLeafDither": true,
        "KJOEFBPOIIH": "",
        "IICFKKEBIEC": "",
        "EGEHEJEBLBJ": ""
      },
      {
        "$type": "LJLMDHDCAMK",
        "type": "LOOK_AT",
        "aliasList": [
          "Avatar"
        ],
        "actionId": 193,
        "_flag": 64,
        "enableHead": true,
        "headTurnTime": 0.5,
        "targetNpcAlias": "1005",
        "openBackProtect": true,
        "backProtectAngle": 10.0,
        "targetNpcLookAtPoint": "",
        "OAFJBHJHLJG": ""
      },
      {
        "$type": "LJLMDHDCAMK",
        "type": "LOOK_AT",
        "aliasList": [
          "AvatarNpc"
        ],
        "actionId": 194,
        "_flag": 64,
        "enableHead": true,
        "headTurnTime": 0.5,
        "targetNpcAlias": "1005",
        "openBackProtect": true,
        "backProtectAngle": 10.0,
        "targetNpcLookAtPoint": "",
        "OAFJBHJHLJG": ""
      },
      {
        "$type": "LJLMDHDCAMK",
        "type": "LOOK_AT",
        "aliasList": [
          "30457"
        ],
        "actionId": 195,
        "_flag": 64,
        "enableHead": true,
        "headTurnTime": 0.5,
        "targetNpcAlias": "1005",
        "openBackProtect": true,
        "backProtectAngle": 10.0,
        "targetNpcLookAtPoint": "",
        "OAFJBHJHLJG": ""
      },
      {
        "$type": "PKKMAMONGEO",
        "type": "DIALOG",
        "aliasList": [
          "1005"
        ],
        "actionId": 111,
        "dialogID": 715300103,
        "protectTime": 0.5
      },
      {
        "$type": "FABLGECDBCH",
        "type": "BODY_LANG",
        "aliasList": [
          "1005"
        ],
        "actionId": 246,
        "bodyLangParam": 1190,
        "forceDoFreeStyle": true,
        "canDoRepeatFreeStyle": false,
        "cantBackToIdleWhenSitLoop": true,
        "eventPatternSuiteKey": "",
        "FOHHKFAIAAJ": ""
      },
      {
        "$type": "FJKIHHKJLMJ",
        "type": "CAMERA_MOVE",
        "delayTime": 0.125,
        "duration": 5.0,
        "actionId": 244,
        "camPosOffset": {
          "x": -549.9219970703125,
          "y": 212.8159942626953,
          "z": 306.0669860839844
        },
        "camForwardTargetOffset": {
          "x": -550.2329711914062,
          "y": 212.72000122070312,
          "z": 305.1210021972656
        },
        "camFov": 55.891998291015625,
        "cameraBlendType": "EaseOutQuad",
        "NJBNNOMLKCK": {},
        "needZAxisRotate": true,
        "openCameraDither": false,
        "targetNpcAlias": "",
        "closeTreeLeafDither": true,
        "KJOEFBPOIIH": "",
        "IICFKKEBIEC": "",
        "EGEHEJEBLBJ": ""
      },
      {
        "$type": "FABLGECDBCH",
        "type": "BODY_LANG",
        "delayTime": 4.46999979019165,
        "aliasList": [
          "1005"
        ],
        "actionId": 248,
        "isContinue": true,
        "forceDoFreeStyle": true,
        "canDoRepeatFreeStyle": false,
        "cantBackToIdleWhenSitLoop": true,
        "eventPatternSuiteKey": "",
        "FOHHKFAIAAJ": ""
      }
    ],
    [
      {
        "$type": "FJKIHHKJLMJ",
        "type": "CAMERA_MOVE",
        "duration": 0.5,
        "actionId": 247,
        "camPosOffset": {
          "x": -549.1900024414062,
          "y": 212.63600158691406,
          "z": 304.7030029296875
        },
        "camForwardTargetOffset": {
          "x": -549.7760009765625,
          "y": 212.55499267578125,
          "z": 305.510009765625
        },
        "camFov": 55.891998291015625,
        "lerpPattern": 6,
        "cameraBlendType": "EaseInOutCubic",
        "NJBNNOMLKCK": {},
        "needZAxisRotate": true,
        "openCameraDither": false,
        "targetNpcAlias": "",
        "closeTreeLeafDither": true,
        "KJOEFBPOIIH": "",
        "IICFKKEBIEC": "",
        "EGEHEJEBLBJ": ""
      },
      {
        "$type": "LJLMDHDCAMK",
        "type": "LOOK_AT",
        "aliasList": [
          "Avatar"
        ],
        "actionId": 196,
        "_flag": 64,
        "enableHead": true,
        "headTurnTime": 0.5,
        "targetNpcAlias": "30457",
        "openBackProtect": true,
        "backProtectAngle": 10.0,
        "targetNpcLookAtPoint": "",
        "OAFJBHJHLJG": ""
      },
      {
        "$type": "LJLMDHDCAMK",
        "type": "LOOK_AT",
        "aliasList": [
          "AvatarNpc"
        ],
        "actionId": 197,
        "_flag": 64,
        "enableHead": true,
        "headTurnTime": 0.5,
        "targetNpcAlias": "30457",
        "openBackProtect": true,
        "backProtectAngle": 10.0,
        "targetNpcLookAtPoint": "",
        "OAFJBHJHLJG": ""
      },
      {
        "$type": "PKKMAMONGEO",
        "type": "DIALOG",
        "aliasList": [
          "30457"
        ],
        "actionId": 113,
        "dialogID": 715300104,
        "protectTime": 0.5
      },
      {
        "$type": "LJLMDHDCAMK",
        "type": "LOOK_AT",
        "aliasList": [
          "1005"
        ],
        "actionId": 198,
        "_flag": 64,
        "enableHead": true,
        "headTurnTime": 0.5,
        "targetNpcAlias": "30457",
        "openBackProtect": true,
        "backProtectAngle": 10.0,
        "targetNpcLookAtPoint": "",
        "OAFJBHJHLJG": ""
      },
      {
        "$type": "FABLGECDBCH",
        "type": "BODY_LANG",
        "delayTime": 0.09399999678134918,
        "aliasList": [
          "30457"
        ],
        "actionId": 251,
        "bodyLangParam": 1173,
        "forceDoFreeStyle": true,
        "canDoRepeatFreeStyle": false,
        "cantBackToIdleWhenSitLoop": true,
        "eventPatternSuiteKey": "",
        "FOHHKFAIAAJ": ""
      },
      {
        "$type": "FJKIHHKJLMJ",
        "type": "CAMERA_MOVE",
        "delayTime": 0.30000001192092896,
        "duration": 5.0,
        "actionId": 250,
        "camPosOffset": {
          "x": -549.1900024414062,
          "y": 212.63600158691406,
          "z": 304.7030029296875
        },
        "camForwardTargetOffset": {
          "x": -549.823974609375,
          "y": 212.68099975585938,
          "z": 305.4750061035156
        },
        "camFov": 55.891998291015625,
        "cameraBlendType": "EaseOutQuad",
        "NJBNNOMLKCK": {},
        "needZAxisRotate": true,
        "openCameraDither": false,
        "targetNpcAlias": "",
        "closeTreeLeafDither": true,
        "KJOEFBPOIIH": "",
        "IICFKKEBIEC": "",
        "EGEHEJEBLBJ": ""
      }
    ],
    [
      {
        "$type": "PKKMAMONGEO",
        "type": "DIALOG",
        "aliasList": [
          "30457"
        ],
        "actionId": 115,
        "dialogID": 715300105,
        "protectTime": 0.7749999761581421
      },
      {
        "$type": "FABLGECDBCH",
        "type": "BODY_LANG",
        "aliasList": [
          "30457"
        ],
        "actionId": 252,
        "bodyLangParam": 1171,
        "forceDoFreeStyle": true,
        "canDoRepeatFreeStyle": false,
        "cantBackToIdleWhenSitLoop": true,
        "eventPatternSuiteKey": "",
        "FOHHKFAIAAJ": ""
      },
      {
        "$type": "FABLGECDBCH",
        "type": "BODY_LANG",
        "aliasList": [
          "1005"
        ],
        "actionId": 318,
        "isContinue": true,
        "forceDoFreeStyle": true,
        "canDoRepeatFreeStyle": false,
        "cantBackToIdleWhenSitLoop": true,
        "eventPatternSuiteKey": "",
        "FOHHKFAIAAJ": ""
      },
      {
        "$type": "HDGKHDNFMIM",
        "type": "DIALOG_SELECT",
        "delayTime": 0.7670000195503235,
        "aliasList": [
          "AvatarNpc"
        ],
        "actionId": 174,
        "dialogIDList": [
          715300106,
          715300107
        ],
        "grpIDList": [
          2825140119,
          2825140119
        ],
        "useGrpId": true,
        "countDownGrpId": 2825140112
      },
      {
        "$type": "FABLGECDBCH",
        "type": "BODY_LANG",
        "delayTime": 1.7719999551773071,
        "aliasList": [
          "AvatarNpc"
        ],
        "actionId": 253,
        "bodyLangParam": 1220,
        "forceDoFreeStyle": true,
        "canDoRepeatFreeStyle": false,
        "cantBackToIdleWhenSitLoop": true,
        "eventPatternSuiteKey": "",
        "FOHHKFAIAAJ": ""
      }
    ],
    [
      {
        "$type": "LJLMDHDCAMK",
        "type": "LOOK_AT",
        "aliasList": [
          "Avatar"
        ],
        "actionId": 199,
        "_flag": 64,
        "enableHead": true,
        "headTurnTime": 0.5,
        "targetNpcAlias": "1005",
        "openBackProtect": true,
        "backProtectAngle": 10.0,
        "targetNpcLookAtPoint": "",
        "OAFJBHJHLJG": ""
      },
      {
        "$type": "LJLMDHDCAMK",
        "type": "LOOK_AT",
        "aliasList": [
          "AvatarNpc"
        ],
        "actionId": 200,
        "_flag": 64,
        "enableHead": true,
        "headTurnTime": 0.5,
        "targetNpcAlias": "1005",
        "openBackProtect": true,
        "backProtectAngle": 10.0,
        "targetNpcLookAtPoint": "",
        "OAFJBHJHLJG": ""
      },
      {
        "$type": "FABLGECDBCH",
        "type": "BODY_LANG",
        "aliasList": [
          "AvatarNpc"
        ],
        "actionId": 255,
        "isContinue": true,
        "forceDoFreeStyle": true,
        "canDoRepeatFreeStyle": false,
        "cantBackToIdleWhenSitLoop": true,
        "eventPatternSuiteKey": "",
        "FOHHKFAIAAJ": ""
      },
      {
        "$type": "LJLMDHDCAMK",
        "type": "LOOK_AT",
        "aliasList": [
          "30457"
        ],
        "actionId": 201,
        "_flag": 64,
        "enableHead": true,
        "headTurnTime": 0.5,
        "targetNpcAlias": "1005",
        "openBackProtect": true,
        "backProtectAngle": 10.0,
        "targetNpcLookAtPoint": "",
        "OAFJBHJHLJG": ""
      },
      {
        "$type": "PKKMAMONGEO",
        "type": "DIALOG",
        "aliasList": [
          "1005"
        ],
        "actionId": 118,
        "dialogID": 715300108,
        "protectTime": 0.5
      },
      {
        "$type": "FABLGECDBCH",
        "type": "BODY_LANG",
        "aliasList": [
          "1005"
        ],
        "actionId": 254,
        "bodyLangParam": 1280,
        "forceDoFreeStyle": true,
        "canDoRepeatFreeStyle": false,
        "cantBackToIdleWhenSitLoop": true,
        "eventPatternSuiteKey": "",
        "FOHHKFAIAAJ": ""
      }
    ],
    [
      {
        "$type": "FJKIHHKJLMJ",
        "type": "CAMERA_MOVE",
        "duration": 0.5,
        "actionId": 257,
        "camPosOffset": {
          "x": -550.9420166015625,
          "y": 212.82200622558594,
          "z": 305.7919921875
        },
        "camForwardTargetOffset": {
          "x": -550.0289916992188,
          "y": 212.552001953125,
          "z": 305.4840087890625
        },
        "camFov": 55.91299819946289,
        "lerpPattern": 6,
        "cameraBlendType": "EaseInOutCubic",
        "NJBNNOMLKCK": {},
        "needZAxisRotate": true,
        "openCameraDither": false,
        "targetNpcAlias": "",
        "closeTreeLeafDither": true,
        "KJOEFBPOIIH": "",
        "IICFKKEBIEC": "",
        "EGEHEJEBLBJ": ""
      },
      {
        "$type": "PKKMAMONGEO",
        "type": "DIALOG",
        "aliasList": [
          "1005"
        ],
        "actionId": 120,
        "dialogID": 715300109,
        "protectTime": 0.5
      },
      {
        "$type": "FABLGECDBCH",
        "type": "BODY_LANG",
        "aliasList": [
          "1005"
        ],
        "actionId": 256,
        "bodyLangParam": 1050,
        "forceDoFreeStyle": true,
        "canDoRepeatFreeStyle": false,
        "cantBackToIdleWhenSitLoop": true,
        "eventPatternSuiteKey": "",
        "FOHHKFAIAAJ": ""
      },
      {
        "$type": "FJKIHHKJLMJ",
        "type": "CAMERA_MOVE",
        "delayTime": 0.10000000149011612,
        "duration": 5.0,
        "actionId": 258,
        "camPosOffset": {
          "x": -550.9420166015625,
          "y": 212.82200622558594,
          "z": 305.7919921875
        },
        "camForwardTargetOffset": {
          "x": -550.0079956054688,
          "y": 212.6479949951172,
          "z": 305.47698974609375
        },
        "camFov": 55.91299819946289,
        "cameraBlendType": "EaseOutQuad",
        "NJBNNOMLKCK": {},
        "needZAxisRotate": true,
        "openCameraDither": false,
        "targetNpcAlias": "",
        "closeTreeLeafDither": true,
        "KJOEFBPOIIH": "",
        "IICFKKEBIEC": "",
        "EGEHEJEBLBJ": ""
      }
    ],
    [
      {
        "$type": "FJKIHHKJLMJ",
        "type": "CAMERA_MOVE",
        "duration": 0.5,
        "actionId": 259,
        "camPosOffset": {
          "x": -549.85302734375,
          "y": 212.91400146484375,
          "z": 306.0270080566406
        },
        "camForwardTargetOffset": {
          "x": -550.8109741210938,
          "y": 212.85699462890625,
          "z": 306.3089904785156
        },
        "camFov": 55.891998291015625,
        "lerpPattern": 6,
        "cameraBlendType": "EaseInOutCubic",
        "NJBNNOMLKCK": {},
        "needZAxisRotate": true,
        "openCameraDither": false,
        "targetNpcAlias": "",
        "closeTreeLeafDither": true,
        "KJOEFBPOIIH": "",
        "IICFKKEBIEC": "",
        "EGEHEJEBLBJ": ""
      },
      {
        "$type": "LJLMDHDCAMK",
        "type": "LOOK_AT",
        "aliasList": [
          "Avatar"
        ],
        "actionId": 202,
        "_flag": 64,
        "enableHead": true,
        "headTurnTime": 0.5,
        "targetNpcAlias": "30457",
        "openBackProtect": true,
        "backProtectAngle": 10.0,
        "targetNpcLookAtPoint": "",
        "OAFJBHJHLJG": ""
      },
      {
        "$type": "LJLMDHDCAMK",
        "type": "LOOK_AT",
        "aliasList": [
          "AvatarNpc"
        ],
        "actionId": 203,
        "_flag": 64,
        "enableHead": true,
        "headTurnTime": 0.5,
        "targetNpcAlias": "30457",
        "openBackProtect": true,
        "backProtectAngle": 10.0,
        "targetNpcLookAtPoint": "",
        "OAFJBHJHLJG": ""
      },
      {
        "$type": "PKKMAMONGEO",
        "type": "DIALOG",
        "aliasList": [
          "30457"
        ],
        "actionId": 122,
        "dialogID": 715300110,
        "protectTime": 0.5
      },
      {
        "$type": "FABLGECDBCH",
        "type": "BODY_LANG",
        "aliasList": [
          "30457"
        ],
        "actionId": 261,
        "bodyLangParam": 4030,
        "forceDoFreeStyle": true,
        "canDoRepeatFreeStyle": false,
        "cantBackToIdleWhenSitLoop": true,
        "eventPatternSuiteKey": "",
        "FOHHKFAIAAJ": ""
      },
      {
        "$type": "LJLMDHDCAMK",
        "type": "LOOK_AT",
        "aliasList": [
          "1005"
        ],
        "actionId": 204,
        "_flag": 64,
        "enableHead": true,
        "headTurnTime": 0.5,
        "targetNpcAlias": "30457",
        "openBackProtect": true,
        "backProtectAngle": 10.0,
        "targetNpcLookAtPoint": "",
        "OAFJBHJHLJG": ""
      },
      {
        "$type": "FJKIHHKJLMJ",
        "type": "CAMERA_MOVE",
        "delayTime": 0.10000000149011612,
        "duration": 5.0,
        "actionId": 260,
        "camPosOffset": {
          "x": -549.85302734375,
          "y": 212.91400146484375,
          "z": 306.0270080566406
        },
        "camForwardTargetOffset": {
          "x": -550.8300170898438,
          "y": 212.8719940185547,
          "z": 306.2330017089844
        },
        "camFov": 55.891998291015625,
        "cameraBlendType": "EaseOutQuad",
        "NJBNNOMLKCK": {},
        "needZAxisRotate": true,
        "openCameraDither": false,
        "targetNpcAlias": "",
        "closeTreeLeafDither": true,
        "KJOEFBPOIIH": "",
        "IICFKKEBIEC": "",
        "EGEHEJEBLBJ": ""
      }
    ],
    [
      {
        "$type": "PKKMAMONGEO",
        "type": "DIALOG",
        "aliasList": [
          "30457"
        ],
        "actionId": 124,
        "dialogID": 715300111,
        "protectTime": 0.5
      },
      {
        "$type": "FABLGECDBCH",
        "type": "BODY_LANG",
        "aliasList": [
          "30457"
        ],
        "actionId": 262,
        "bodyLangParam": 1171,
        "forceDoFreeStyle": true,
        "canDoRepeatFreeStyle": false,
        "cantBackToIdleWhenSitLoop": true,
        "eventPatternSuiteKey": "",
        "FOHHKFAIAAJ": ""
      },
      {
        "$type": "HDGKHDNFMIM",
        "type": "DIALOG_SELECT",
        "delayTime": 0.4000000059604645,
        "aliasList": [
          "AvatarNpc"
        ],
        "actionId": 175,
        "dialogIDList": [
          715300112,
          715300113
        ],
        "grpIDList": [
          1679997632,
          1679997632
        ],
        "useGrpId": true,
        "countDownGrpId": 2825140112
      },
      {
        "$type": "FABLGECDBCH",
        "type": "BODY_LANG",
        "delayTime": 0.4090000092983246,
        "aliasList": [
          "1005"
        ],
        "actionId": 264,
        "isContinue": true,
        "forceDoFreeStyle": true,
        "canDoRepeatFreeStyle": false,
        "cantBackToIdleWhenSitLoop": true,
        "eventPatternSuiteKey": "",
        "FOHHKFAIAAJ": ""
      }
    ],
    [
      {
        "$type": "FJKIHHKJLMJ",
        "type": "CAMERA_MOVE",
        "duration": 0.5,
        "actionId": 265,
        "camPosOffset": {
          "x": -550.3079833984375,
          "y": 213.1219940185547,
          "z": 306.8909912109375
        },
        "camForwardTargetOffset": {
          "x": -550.1580200195312,
          "y": 212.7469940185547,
          "z": 305.97601318359375
        },
        "camFov": 55.891998291015625,
        "lerpPattern": 6,
        "cameraBlendType": "EaseInOutCubic",
        "NJBNNOMLKCK": {},
        "needZAxisRotate": true,
        "openCameraDither": false,
        "targetNpcAlias": "",
        "closeTreeLeafDither": true,
        "KJOEFBPOIIH": "",
        "IICFKKEBIEC": "",
        "EGEHEJEBLBJ": ""
      },
      {
        "$type": "LJLMDHDCAMK",
        "type": "LOOK_AT",
        "aliasList": [
          "Avatar"
        ],
        "actionId": 205,
        "_flag": 64,
        "enableHead": true,
        "headTurnTime": 0.5,
        "targetNpcAlias": "1005",
        "openBackProtect": true,
        "backProtectAngle": 10.0,
        "targetNpcLookAtPoint": "",
        "OAFJBHJHLJG": ""
      },
      {
        "$type": "LJLMDHDCAMK",
        "type": "LOOK_AT",
        "aliasList": [
          "AvatarNpc"
        ],
        "actionId": 206,
        "_flag": 64,
        "enableHead": true,
        "headTurnTime": 0.5,
        "targetNpcAlias": "1005",
        "openBackProtect": true,
        "backProtectAngle": 10.0,
        "targetNpcLookAtPoint": "",
        "OAFJBHJHLJG": ""
      },
      {
        "$type": "LJLMDHDCAMK",
        "type": "LOOK_AT",
        "aliasList": [
          "30457"
        ],
        "actionId": 207,
        "_flag": 64,
        "enableHead": true,
        "headTurnTime": 0.5,
        "targetNpcAlias": "1005",
        "openBackProtect": true,
        "backProtectAngle": 10.0,
        "targetNpcLookAtPoint": "",
        "OAFJBHJHLJG": ""
      },
      {
        "$type": "PKKMAMONGEO",
        "type": "DIALOG",
        "aliasList": [
          "1005"
        ],
        "actionId": 127,
        "dialogID": 715300114,
        "protectTime": 0.5
      },
      {
        "$type": "FABLGECDBCH",
        "type": "BODY_LANG",
        "aliasList": [
          "1005"
        ],
        "actionId": 267,
        "bodyLangParam": 1140,
        "forceDoFreeStyle": true,
        "canDoRepeatFreeStyle": false,
        "cantBackToIdleWhenSitLoop": true,
        "eventPatternSuiteKey": "",
        "FOHHKFAIAAJ": ""
      },
      {
        "$type": "FJKIHHKJLMJ",
        "type": "CAMERA_MOVE",
        "delayTime": 0.10000000149011612,
        "duration": 5.0,
        "actionId": 266,
        "camPosOffset": {
          "x": -550.3079833984375,
          "y": 213.1219940185547,
          "z": 306.8909912109375
        },
        "camForwardTargetOffset": {
          "x": -550.0540161132812,
          "y": 212.78599548339844,
          "z": 305.9840087890625
        },
        "camFov": 55.891998291015625,
        "cameraBlendType": "EaseOutQuad",
        "NJBNNOMLKCK": {},
        "needZAxisRotate": true,
        "openCameraDither": false,
        "targetNpcAlias": "",
        "closeTreeLeafDither": true,
        "KJOEFBPOIIH": "",
        "IICFKKEBIEC": "",
        "EGEHEJEBLBJ": ""
      }
    ],
    [
      {
        "$type": "FABLGECDBCH",
        "type": "BODY_LANG",
        "aliasList": [
          "AvatarNpc"
        ],
        "actionId": 319,
        "bodyLangParam": 1220,
        "forceDoFreeStyle": true,
        "canDoRepeatFreeStyle": false,
        "cantBackToIdleWhenSitLoop": true,
        "eventPatternSuiteKey": "",
        "FOHHKFAIAAJ": ""
      },
      {
        "$type": "PKKMAMONGEO",
        "type": "DIALOG",
        "aliasList": [
          "1005"
        ],
        "actionId": 129,
        "dialogID": 715300115,
        "protectTime": 0.5
      },
      {
        "$type": "FABLGECDBCH",
        "type": "BODY_LANG",
        "aliasList": [
          "1005"
        ],
        "actionId": 268,
        "bodyLangParam": 1230,
        "forceDoFreeStyle": true,
        "canDoRepeatFreeStyle": false,
        "cantBackToIdleWhenSitLoop": true,
        "eventPatternSuiteKey": "",
        "FOHHKFAIAAJ": ""
      }
    ],
    [
      {
        "$type": "FABLGECDBCH",
        "type": "BODY_LANG",
        "aliasList": [
          "AvatarNpc"
        ],
        "actionId": 320,
        "isContinue": true,
        "forceDoFreeStyle": true,
        "canDoRepeatFreeStyle": false,
        "cantBackToIdleWhenSitLoop": true,
        "eventPatternSuiteKey": "",
        "FOHHKFAIAAJ": ""
      },
      {
        "$type": "PKKMAMONGEO",
        "type": "DIALOG",
        "aliasList": [
          "1005"
        ],
        "actionId": 131,
        "dialogID": 715300116,
        "protectTime": 0.5
      },
      {
        "$type": "FABLGECDBCH",
        "type": "BODY_LANG",
        "aliasList": [
          "1005"
        ],
        "actionId": 269,
        "bodyLangParam": 1110,
        "forceDoFreeStyle": true,
        "canDoRepeatFreeStyle": false,
        "cantBackToIdleWhenSitLoop": true,
        "eventPatternSuiteKey": "",
        "FOHHKFAIAAJ": ""
      }
    ],
    [
      {
        "$type": "FJKIHHKJLMJ",
        "type": "CAMERA_MOVE",
        "duration": 0.5,
        "actionId": 270,
        "camPosOffset": {
          "x": -549.3829956054688,
          "y": 212.7689971923828,
          "z": 304.6549987792969
        },
        "camForwardTargetOffset": {
          "x": -549.9530029296875,
          "y": 212.60400390625,
          "z": 305.4599914550781
        },
        "camFov": 55.891998291015625,
        "lerpPattern": 6,
        "cameraBlendType": "EaseInOutCubic",
        "NJBNNOMLKCK": {},
        "needZAxisRotate": true,
        "openCameraDither": false,
        "targetNpcAlias": "",
        "closeTreeLeafDither": true,
        "KJOEFBPOIIH": "",
        "IICFKKEBIEC": "",
        "EGEHEJEBLBJ": ""
      },
      {
        "$type": "LJLMDHDCAMK",
        "type": "LOOK_AT",
        "aliasList": [
          "Avatar"
        ],
        "actionId": 208,
        "_flag": 64,
        "enableHead": true,
        "headTurnTime": 0.5,
        "targetNpcAlias": "30457",
        "openBackProtect": true,
        "backProtectAngle": 10.0,
        "targetNpcLookAtPoint": "",
        "OAFJBHJHLJG": ""
      },
      {
        "$type": "LJLMDHDCAMK",
        "type": "LOOK_AT",
        "aliasList": [
          "AvatarNpc"
        ],
        "actionId": 209,
        "_flag": 64,
        "enableHead": true,
        "headTurnTime": 0.5,
        "targetNpcAlias": "30457",
        "openBackProtect": true,
        "backProtectAngle": 10.0,
        "targetNpcLookAtPoint": "",
        "OAFJBHJHLJG": ""
      },
      {
        "$type": "PKKMAMONGEO",
        "type": "DIALOG",
        "aliasList": [
          "30457"
        ],
        "actionId": 133,
        "dialogID": 715300117,
        "protectTime": 0.5
      },
      {
        "$type": "FABLGECDBCH",
        "type": "BODY_LANG",
        "aliasList": [
          "30457"
        ],
        "actionId": 272,
        "bodyLangParam": 1171,
        "forceDoFreeStyle": true,
        "canDoRepeatFreeStyle": false,
        "cantBackToIdleWhenSitLoop": true,
        "eventPatternSuiteKey": "",
        "FOHHKFAIAAJ": ""
      },
      {
        "$type": "LJLMDHDCAMK",
        "type": "LOOK_AT",
        "aliasList": [
          "1005"
        ],
        "actionId": 210,
        "_flag": 64,
        "enableHead": true,
        "headTurnTime": 0.5,
        "targetNpcAlias": "30457",
        "openBackProtect": true,
        "backProtectAngle": 10.0,
        "targetNpcLookAtPoint": "",
        "OAFJBHJHLJG": ""
      },
      {
        "$type": "FABLGECDBCH",
        "type": "BODY_LANG",
        "aliasList": [
          "1005"
        ],
        "actionId": 273,
        "isContinue": true,
        "forceDoFreeStyle": true,
        "canDoRepeatFreeStyle": false,
        "cantBackToIdleWhenSitLoop": true,
        "eventPatternSuiteKey": "",
        "FOHHKFAIAAJ": ""
      },
      {
        "$type": "FJKIHHKJLMJ",
        "type": "CAMERA_MOVE",
        "delayTime": 0.1420000046491623,
        "duration": 5.0,
        "actionId": 271,
        "camPosOffset": {
          "x": -549.3829956054688,
          "y": 212.7689971923828,
          "z": 304.6549987792969
        },
        "camForwardTargetOffset": {
          "x": -550.0269775390625,
          "y": 212.61300659179688,
          "z": 305.4049987792969
        },
        "camFov": 55.891998291015625,
        "cameraBlendType": "EaseOutQuad",
        "NJBNNOMLKCK": {},
        "needZAxisRotate": true,
        "openCameraDither": false,
        "targetNpcAlias": "",
        "closeTreeLeafDither": true,
        "KJOEFBPOIIH": "",
        "IICFKKEBIEC": "",
        "EGEHEJEBLBJ": ""
      }
    ],
    [
      {
        "$type": "PKKMAMONGEO",
        "type": "DIALOG",
        "aliasList": [
          "30457"
        ],
        "actionId": 135,
        "dialogID": 715300118,
        "protectTime": 0.5
      },
      {
        "$type": "FABLGECDBCH",
        "type": "BODY_LANG",
        "aliasList": [
          "30457"
        ],
        "actionId": 274,
        "bodyLangParam": 1172,
        "forceDoFreeStyle": true,
        "canDoRepeatFreeStyle": false,
        "cantBackToIdleWhenSitLoop": true,
        "eventPatternSuiteKey": "",
        "FOHHKFAIAAJ": ""
      }
    ],
    [
      {
        "$type": "PKKMAMONGEO",
        "type": "DIALOG",
        "aliasList": [
          "30457"
        ],
        "actionId": 137,
        "dialogID": 715300119,
        "protectTime": 0.5
      },
      {
        "$type": "FABLGECDBCH",
        "type": "BODY_LANG",
        "delayTime": 0.0020000000949949026,
        "aliasList": [
          "30457"
        ],
        "actionId": 281,
        "bodyLangParam": 1173,
        "forceDoFreeStyle": true,
        "canDoRepeatFreeStyle": false,
        "cantBackToIdleWhenSitLoop": true,
        "eventPatternSuiteKey": "",
        "FOHHKFAIAAJ": ""
      }
    ],
    [
      {
        "$type": "FJKIHHKJLMJ",
        "type": "CAMERA_MOVE",
        "duration": 0.5,
        "actionId": 279,
        "camPosOffset": {
          "x": -547.5029907226562,
          "y": 212.28199768066406,
          "z": 305.9989929199219
        },
        "camForwardTargetOffset": {
          "x": -547.9739990234375,
          "y": 212.17599487304688,
          "z": 306.875
        },
        "camFov": 55.891998291015625,
        "lerpPattern": 6,
        "cameraBlendType": "EaseInOutCubic",
        "NJBNNOMLKCK": {},
        "needZAxisRotate": true,
        "openCameraDither": false,
        "targetNpcAlias": "",
        "closeTreeLeafDither": true,
        "KJOEFBPOIIH": "",
        "IICFKKEBIEC": "",
        "EGEHEJEBLBJ": ""
      },
      {
        "$type": "LJLMDHDCAMK",
        "type": "LOOK_AT",
        "aliasList": [
          "Avatar"
        ],
        "actionId": 211,
        "_flag": 64,
        "enableHead": true,
        "headTurnTime": 0.5,
        "targetNpcAlias": "1005",
        "openBackProtect": true,
        "backProtectAngle": 10.0,
        "targetNpcLookAtPoint": "",
        "OAFJBHJHLJG": ""
      },
      {
        "$type": "LJLMDHDCAMK",
        "type": "LOOK_AT",
        "aliasList": [
          "AvatarNpc"
        ],
        "actionId": 212,
        "_flag": 64,
        "enableHead": true,
        "headTurnTime": 0.5,
        "targetNpcAlias": "1005",
        "openBackProtect": true,
        "backProtectAngle": 10.0,
        "targetNpcLookAtPoint": "",
        "OAFJBHJHLJG": ""
      },
      {
        "$type": "LJLMDHDCAMK",
        "type": "LOOK_AT",
        "aliasList": [
          "30457"
        ],
        "actionId": 213,
        "_flag": 64,
        "enableHead": true,
        "headTurnTime": 0.5,
        "targetNpcAlias": "1005",
        "openBackProtect": true,
        "backProtectAngle": 10.0,
        "targetNpcLookAtPoint": "",
        "OAFJBHJHLJG": ""
      },
      {
        "$type": "PKKMAMONGEO",
        "type": "DIALOG",
        "aliasList": [
          "1005"
        ],
        "actionId": 139,
        "dialogID": 715300120,
        "protectTime": 0.5
      },
      {
        "$type": "FJKIHHKJLMJ",
        "type": "CAMERA_MOVE",
        "delayTime": 0.10000000149011612,
        "duration": 5.0,
        "actionId": 280,
        "camPosOffset": {
          "x": -547.7849731445312,
          "y": 212.21800231933594,
          "z": 306.52398681640625
        },
        "camForwardTargetOffset": {
          "x": -548.2559814453125,
          "y": 212.11300659179688,
          "z": 307.3999938964844
        },
        "camFov": 55.891998291015625,
        "cameraBlendType": "EaseOutQuad",
        "NJBNNOMLKCK": {},
        "needZAxisRotate": true,
        "openCameraDither": false,
        "targetNpcAlias": "",
        "closeTreeLeafDither": true,
        "KJOEFBPOIIH": "",
        "IICFKKEBIEC": "",
        "EGEHEJEBLBJ": ""
      }
    ],
    [
      {
        "$type": "FJKIHHKJLMJ",
        "type": "CAMERA_MOVE",
        "duration": 0.5,
        "actionId": 283,
        "camPosOffset": {
          "x": -549.822998046875,
          "y": 213.39300537109375,
          "z": 304.2869873046875
        },
        "camForwardTargetOffset": {
          "x": -549.9769897460938,
          "y": 212.8990020751953,
          "z": 305.14300537109375
        },
        "camFov": 55.91299819946289,
        "lerpPattern": 6,
        "cameraBlendType": "EaseInOutCubic",
        "NJBNNOMLKCK": {},
        "needZAxisRotate": true,
        "openCameraDither": false,
        "targetNpcAlias": "",
        "closeTreeLeafDither": true,
        "KJOEFBPOIIH": "",
        "IICFKKEBIEC": "",
        "EGEHEJEBLBJ": ""
      },
      {
        "$type": "LJLMDHDCAMK",
        "type": "LOOK_AT",
        "aliasList": [
          "Avatar"
        ],
        "actionId": 214,
        "_flag": 64,
        "enableHead": true,
        "headTurnTime": 0.5,
        "targetNpcAlias": "30457",
        "openBackProtect": true,
        "backProtectAngle": 10.0,
        "targetNpcLookAtPoint": "",
        "OAFJBHJHLJG": ""
      },
      {
        "$type": "LJLMDHDCAMK",
        "type": "LOOK_AT",
        "aliasList": [
          "AvatarNpc"
        ],
        "actionId": 215,
        "_flag": 64,
        "enableHead": true,
        "headTurnTime": 0.5,
        "targetNpcAlias": "30457",
        "openBackProtect": true,
        "backProtectAngle": 10.0,
        "targetNpcLookAtPoint": "",
        "OAFJBHJHLJG": ""
      },
      {
        "$type": "PKKMAMONGEO",
        "type": "DIALOG",
        "aliasList": [
          "30457"
        ],
        "actionId": 141,
        "dialogID": 715300121,
        "protectTime": 0.5
      },
      {
        "$type": "LJLMDHDCAMK",
        "type": "LOOK_AT",
        "aliasList": [
          "1005"
        ],
        "actionId": 216,
        "_flag": 64,
        "enableHead": true,
        "headTurnTime": 0.5,
        "targetNpcAlias": "30457",
        "openBackProtect": true,
        "backProtectAngle": 10.0,
        "targetNpcLookAtPoint": "",
        "OAFJBHJHLJG": ""
      },
      {
        "$type": "FJKIHHKJLMJ",
        "type": "CAMERA_MOVE",
        "delayTime": 0.16699999570846558,
        "duration": 5.0,
        "actionId": 284,
        "camPosOffset": {
          "x": -549.822998046875,
          "y": 213.39300537109375,
          "z": 304.2869873046875
        },
        "camForwardTargetOffset": {
          "x": -549.97802734375,
          "y": 212.9600067138672,
          "z": 305.17498779296875
        },
        "camFov": 55.91299819946289,
        "cameraBlendType": "EaseOutQuad",
        "NJBNNOMLKCK": {},
        "needZAxisRotate": true,
        "openCameraDither": false,
        "targetNpcAlias": "",
        "closeTreeLeafDither": true,
        "KJOEFBPOIIH": "",
        "IICFKKEBIEC": "",
        "EGEHEJEBLBJ": ""
      }
    ],
    [
      {
        "$type": "PKKMAMONGEO",
        "type": "DIALOG",
        "aliasList": [
          "30457"
        ],
        "actionId": 143,
        "dialogID": 715300122,
        "protectTime": 0.5
      },
      {
        "$type": "FABLGECDBCH",
        "type": "BODY_LANG",
        "aliasList": [
          "30457"
        ],
        "actionId": 288,
        "bodyLangParam": 1171,
        "forceDoFreeStyle": true,
        "canDoRepeatFreeStyle": false,
        "cantBackToIdleWhenSitLoop": true,
        "eventPatternSuiteKey": "",
        "FOHHKFAIAAJ": ""
      },
      {
        "$type": "FABLGECDBCH",
        "type": "BODY_LANG",
        "aliasList": [
          "1005"
        ],
        "actionId": 312,
        "isContinue": true,
        "forceDoFreeStyle": true,
        "canDoRepeatFreeStyle": false,
        "cantBackToIdleWhenSitLoop": true,
        "eventPatternSuiteKey": "",
        "FOHHKFAIAAJ": ""
      }
    ],
    [
      {
        "$type": "PKKMAMONGEO",
        "type": "DIALOG",
        "aliasList": [
          "30457"
        ],
        "actionId": 145,
        "dialogID": 715300123,
        "protectTime": 0.5
      },
      {
        "$type": "FABLGECDBCH",
        "type": "BODY_LANG",
        "aliasList": [
          "30457"
        ],
        "actionId": 289,
        "bodyLangParam": 1173,
        "forceDoFreeStyle": true,
        "canDoRepeatFreeStyle": false,
        "cantBackToIdleWhenSitLoop": true,
        "eventPatternSuiteKey": "",
        "FOHHKFAIAAJ": ""
      }
    ],
    [
      {
        "$type": "FJKIHHKJLMJ",
        "type": "CAMERA_MOVE",
        "duration": 0.5,
        "actionId": 290,
        "camPosOffset": {
          "x": -547.2739868164062,
          "y": 235.5030059814453,
          "z": 318.0459899902344
        },
        "camForwardTargetOffset": {
          "x": -546.343994140625,
          "y": 235.24400329589844,
          "z": 317.7869873046875
        },
        "camFov": 55.891998291015625,
        "lerpPattern": 6,
        "cameraBlendType": "EaseInOutCubic",
        "NJBNNOMLKCK": {},
        "needZAxisRotate": true,
        "openCameraDither": false,
        "targetNpcAlias": "",
        "closeTreeLeafDither": true,
        "KJOEFBPOIIH": "",
        "IICFKKEBIEC": "",
        "EGEHEJEBLBJ": ""
      },
      {
        "$type": "PKKMAMONGEO",
        "type": "DIALOG",
        "aliasList": [
          "30457"
        ],
        "actionId": 147,
        "dialogID": 715300124,
        "protectTime": 0.5
      },
      {
        "$type": "FJKIHHKJLMJ",
        "type": "CAMERA_MOVE",
        "delayTime": 0.10000000149011612,
        "duration": 5.0,
        "actionId": 291,
        "camPosOffset": {
          "x": -547.2739868164062,
          "y": 235.5030059814453,
          "z": 318.0459899902344
        },
        "camForwardTargetOffset": {
          "x": -546.3679809570312,
          "y": 235.22999572753906,
          "z": 317.72198486328125
        },
        "camFov": 55.891998291015625,
        "cameraBlendType": "EaseOutQuad",
        "NJBNNOMLKCK": {},
        "needZAxisRotate": true,
        "openCameraDither": false,
        "targetNpcAlias": "",
        "closeTreeLeafDither": true,
        "KJOEFBPOIIH": "",
        "IICFKKEBIEC": "",
        "EGEHEJEBLBJ": ""
      }
    ],
    [
      {
        "$type": "FJKIHHKJLMJ",
        "type": "CAMERA_MOVE",
        "duration": 0.5,
        "actionId": 292,
        "camPosOffset": {
          "x": -549.405029296875,
          "y": 212.81700134277344,
          "z": 304.77801513671875
        },
        "camForwardTargetOffset": {
          "x": -549.9959716796875,
          "y": 212.5989990234375,
          "z": 305.5539855957031
        },
        "camFov": 55.891998291015625,
        "lerpPattern": 6,
        "cameraBlendType": "EaseInOutCubic",
        "NJBNNOMLKCK": {},
        "needZAxisRotate": true,
        "openCameraDither": false,
        "targetNpcAlias": "",
        "closeTreeLeafDither": true,
        "KJOEFBPOIIH": "",
        "IICFKKEBIEC": "",
        "EGEHEJEBLBJ": ""
      },
      {
        "$type": "PKKMAMONGEO",
        "type": "DIALOG",
        "aliasList": [
          "30457"
        ],
        "actionId": 149,
        "dialogID": 715300125,
        "protectTime": 0.5
      },
      {
        "$type": "FABLGECDBCH",
        "type": "BODY_LANG",
        "aliasList": [
          "30457"
        ],
        "actionId": 294,
        "bodyLangParam": 1171,
        "forceDoFreeStyle": true,
        "canDoRepeatFreeStyle": false,
        "cantBackToIdleWhenSitLoop": true,
        "eventPatternSuiteKey": "",
        "FOHHKFAIAAJ": ""
      },
      {
        "$type": "FJKIHHKJLMJ",
        "type": "CAMERA_MOVE",
        "delayTime": 0.11699999868869781,
        "duration": 5.0,
        "actionId": 293,
        "camPosOffset": {
          "x": -549.405029296875,
          "y": 212.81700134277344,
          "z": 304.77801513671875
        },
        "camForwardTargetOffset": {
          "x": -550.0070190429688,
          "y": 212.71099853515625,
          "z": 305.5690002441406
        },
        "camFov": 55.891998291015625,
        "cameraBlendType": "EaseOutQuad",
        "NJBNNOMLKCK": {},
        "needZAxisRotate": true,
        "openCameraDither": false,
        "targetNpcAlias": "",
        "closeTreeLeafDither": true,
        "KJOEFBPOIIH": "",
        "IICFKKEBIEC": "",
        "EGEHEJEBLBJ": ""
      }
    ],
    [
      {
        "$type": "FJKIHHKJLMJ",
        "type": "CAMERA_MOVE",
        "duration": 0.5,
        "actionId": 295,
        "camPosOffset": {
          "x": -550.3410034179688,
          "y": 212.89100646972656,
          "z": 306.0849914550781
        },
        "camForwardTargetOffset": {
          "x": -550.2410278320312,
          "y": 212.61500549316406,
          "z": 305.1289978027344
        },
        "camFov": 55.891998291015625,
        "lerpPattern": 6,
        "cameraBlendType": "EaseInOutCubic",
        "NJBNNOMLKCK": {},
        "needZAxisRotate": true,
        "openCameraDither": false,
        "targetNpcAlias": "",
        "closeTreeLeafDither": true,
        "KJOEFBPOIIH": "",
        "IICFKKEBIEC": "",
        "EGEHEJEBLBJ": ""
      },
      {
        "$type": "LJLMDHDCAMK",
        "type": "LOOK_AT",
        "aliasList": [
          "Avatar"
        ],
        "actionId": 217,
        "_flag": 64,
        "enableHead": true,
        "headTurnTime": 0.5,
        "targetNpcAlias": "1005",
        "openBackProtect": true,
        "backProtectAngle": 10.0,
        "targetNpcLookAtPoint": "",
        "OAFJBHJHLJG": ""
      },
      {
        "$type": "LJLMDHDCAMK",
        "type": "LOOK_AT",
        "aliasList": [
          "AvatarNpc"
        ],
        "actionId": 218,
        "_flag": 64,
        "enableHead": true,
        "headTurnTime": 0.5,
        "targetNpcAlias": "1005",
        "openBackProtect": true,
        "backProtectAngle": 10.0,
        "targetNpcLookAtPoint": "",
        "OAFJBHJHLJG": ""
      },
      {
        "$type": "LJLMDHDCAMK",
        "type": "LOOK_AT",
        "aliasList": [
          "30457"
        ],
        "actionId": 219,
        "_flag": 64,
        "enableHead": true,
        "headTurnTime": 0.5,
        "targetNpcAlias": "1005",
        "openBackProtect": true,
        "backProtectAngle": 10.0,
        "targetNpcLookAtPoint": "",
        "OAFJBHJHLJG": ""
      },
      {
        "$type": "PKKMAMONGEO",
        "type": "DIALOG",
        "aliasList": [
          "1005"
        ],
        "actionId": 151,
        "dialogID": 715300126,
        "protectTime": 0.5
      },
      {
        "$type": "FABLGECDBCH",
        "type": "BODY_LANG",
        "aliasList": [
          "1005"
        ],
        "actionId": 297,
        "bodyLangParam": 1190,
        "forceDoFreeStyle": true,
        "canDoRepeatFreeStyle": false,
        "cantBackToIdleWhenSitLoop": true,
        "eventPatternSuiteKey": "",
        "FOHHKFAIAAJ": ""
      },
      {
        "$type": "FJKIHHKJLMJ",
        "type": "CAMERA_MOVE",
        "delayTime": 0.10000000149011612,
        "duration": 5.0,
        "actionId": 296,
        "camPosOffset": {
          "x": -550.3369750976562,
          "y": 212.8800048828125,
          "z": 306.0459899902344
        },
        "camForwardTargetOffset": {
          "x": -550.2160034179688,
          "y": 212.552001953125,
          "z": 305.1090087890625
        },
        "camFov": 55.891998291015625,
        "cameraBlendType": "EaseOutQuad",
        "NJBNNOMLKCK": {},
        "needZAxisRotate": true,
        "openCameraDither": false,
        "targetNpcAlias": "",
        "closeTreeLeafDither": true,
        "KJOEFBPOIIH": "",
        "IICFKKEBIEC": "",
        "EGEHEJEBLBJ": ""
      },
      {
        "$type": "FABLGECDBCH",
        "type": "BODY_LANG",
        "delayTime": 1.378000020980835,
        "aliasList": [
          "1005"
        ],
        "actionId": 298,
        "bodyLangParam": 1050,
        "forceDoFreeStyle": true,
        "canDoRepeatFreeStyle": false,
        "cantBackToIdleWhenSitLoop": true,
        "eventPatternSuiteKey": "",
        "FOHHKFAIAAJ": ""
      }
    ],
    [
      {
        "$type": "FJKIHHKJLMJ",
        "type": "CAMERA_MOVE",
        "duration": 0.5,
        "actionId": 300,
        "camPosOffset": {
          "x": -550.2100219726562,
          "y": 213.10299682617188,
          "z": 306.9209899902344
        },
        "camForwardTargetOffset": {
          "x": -550.1279907226562,
          "y": 212.781005859375,
          "z": 305.9779968261719
        },
        "camFov": 55.891998291015625,
        "lerpPattern": 6,
        "cameraBlendType": "EaseInOutCubic",
        "NJBNNOMLKCK": {},
        "needZAxisRotate": true,
        "openCameraDither": false,
        "targetNpcAlias": "",
        "closeTreeLeafDither": true,
        "KJOEFBPOIIH": "",
        "IICFKKEBIEC": "",
        "EGEHEJEBLBJ": ""
      },
      {
        "$type": "LJLMDHDCAMK",
        "type": "LOOK_AT",
        "aliasList": [
          "AvatarNpc"
        ],
        "actionId": 313,
        "_flag": 64,
        "enableHead": true,
        "headTurnTime": 0.5,
        "targetNpcAlias": "30457",
        "openBackProtect": true,
        "backProtectAngle": 10.0,
        "targetNpcLookAtPoint": "",
        "OAFJBHJHLJG": ""
      },
      {
        "$type": "PKKMAMONGEO",
        "type": "DIALOG",
        "aliasList": [
          "1005"
        ],
        "actionId": 153,
        "dialogID": 715300127,
        "protectTime": 0.5
      },
      {
        "$type": "FABLGECDBCH",
        "type": "BODY_LANG",
        "aliasList": [
          "1005"
        ],
        "actionId": 299,
        "isContinue": true,
        "forceDoFreeStyle": true,
        "canDoRepeatFreeStyle": false,
        "cantBackToIdleWhenSitLoop": true,
        "eventPatternSuiteKey": "",
        "FOHHKFAIAAJ": ""
      },
      {
        "$type": "FJKIHHKJLMJ",
        "type": "CAMERA_MOVE",
        "delayTime": 0.10000000149011612,
        "duration": 5.0,
        "actionId": 301,
        "camPosOffset": {
          "x": -550.2080078125,
          "y": 213.0959930419922,
          "z": 306.8999938964844
        },
        "camForwardTargetOffset": {
          "x": -550.1630249023438,
          "y": 212.82000732421875,
          "z": 305.94000244140625
        },
        "camFov": 55.891998291015625,
        "cameraBlendType": "EaseOutQuad",
        "NJBNNOMLKCK": {},
        "needZAxisRotate": true,
        "openCameraDither": false,
        "targetNpcAlias": "",
        "closeTreeLeafDither": true,
        "KJOEFBPOIIH": "",
        "IICFKKEBIEC": "",
        "EGEHEJEBLBJ": ""
      },
      {
        "$type": "HDGKHDNFMIM",
        "type": "DIALOG_SELECT",
        "delayTime": 0.4000000059604645,
        "aliasList": [
          "AvatarNpc"
        ],
        "actionId": 176,
        "dialogIDList": [
          715300128,
          715300129
        ],
        "grpIDList": [
          1679997667,
          1679997667
        ],
        "useGrpId": true,
        "countDownGrpId": 2825140112
      },
      {
        "$type": "FABLGECDBCH",
        "type": "BODY_LANG",
        "delayTime": 0.5329999923706055,
        "aliasList": [
          "AvatarNpc"
        ],
        "actionId": 302,
        "bodyLangParam": 1120,
        "forceDoFreeStyle": true,
        "canDoRepeatFreeStyle": false,
        "cantBackToIdleWhenSitLoop": true,
        "eventPatternSuiteKey": "",
        "FOHHKFAIAAJ": ""
      }
    ],
    [
      {
        "$type": "FJKIHHKJLMJ",
        "type": "CAMERA_MOVE",
        "duration": 0.5,
        "actionId": 305,
        "camPosOffset": {
          "x": -549.2039794921875,
          "y": 212.76600646972656,
          "z": 304.64898681640625
        },
        "camForwardTargetOffset": {
          "x": -549.7979736328125,
          "y": 212.69400024414062,
          "z": 305.45001220703125
        },
        "camFov": 55.891998291015625,
        "lerpPattern": 6,
        "cameraBlendType": "EaseInOutCubic",
        "NJBNNOMLKCK": {},
        "needZAxisRotate": true,
        "openCameraDither": false,
        "targetNpcAlias": "",
        "closeTreeLeafDither": true,
        "KJOEFBPOIIH": "",
        "IICFKKEBIEC": "",
        "EGEHEJEBLBJ": ""
      },
      {
        "$type": "LJLMDHDCAMK",
        "type": "LOOK_AT",
        "aliasList": [
          "Avatar"
        ],
        "actionId": 220,
        "_flag": 64,
        "enableHead": true,
        "headTurnTime": 0.5,
        "targetNpcAlias": "30457",
        "openBackProtect": true,
        "backProtectAngle": 10.0,
        "targetNpcLookAtPoint": "",
        "OAFJBHJHLJG": ""
      },
      {
        "$type": "LJLMDHDCAMK",
        "type": "LOOK_AT",
        "aliasList": [
          "AvatarNpc"
        ],
        "actionId": 221,
        "_flag": 64,
        "enableHead": true,
        "headTurnTime": 0.5,
        "targetNpcAlias": "30457",
        "openBackProtect": true,
        "backProtectAngle": 10.0,
        "targetNpcLookAtPoint": "",
        "OAFJBHJHLJG": ""
      },
      {
        "$type": "FABLGECDBCH",
        "type": "BODY_LANG",
        "aliasList": [
          "AvatarNpc"
        ],
        "actionId": 316,
        "isContinue": true,
        "forceDoFreeStyle": true,
        "canDoRepeatFreeStyle": false,
        "cantBackToIdleWhenSitLoop": true,
        "eventPatternSuiteKey": "",
        "FOHHKFAIAAJ": ""
      },
      {
        "$type": "PKKMAMONGEO",
        "type": "DIALOG",
        "aliasList": [
          "30457"
        ],
        "actionId": 156,
        "dialogID": 715300130,
        "protectTime": 0.5
      },
      {
        "$type": "FABLGECDBCH",
        "type": "BODY_LANG",
        "aliasList": [
          "30457"
        ],
        "actionId": 303,
        "bodyLangParam": 1150,
        "forceDoFreeStyle": true,
        "canDoRepeatFreeStyle": false,
        "cantBackToIdleWhenSitLoop": true,
        "eventPatternSuiteKey": "",
        "FOHHKFAIAAJ": ""
      },
      {
        "$type": "LJLMDHDCAMK",
        "type": "LOOK_AT",
        "aliasList": [
          "1005"
        ],
        "actionId": 222,
        "_flag": 64,
        "enableHead": true,
        "headTurnTime": 0.5,
        "targetNpcAlias": "30457",
        "openBackProtect": true,
        "backProtectAngle": 10.0,
        "targetNpcLookAtPoint": "",
        "OAFJBHJHLJG": ""
      },
      {
        "$type": "FJKIHHKJLMJ",
        "type": "CAMERA_MOVE",
        "delayTime": 0.10000000149011612,
        "duration": 5.0,
        "actionId": 306,
        "camPosOffset": {
          "x": -549.2039794921875,
          "y": 212.76600646972656,
          "z": 304.64898681640625
        },
        "camForwardTargetOffset": {
          "x": -549.7969970703125,
          "y": 212.73599243164062,
          "z": 305.4530029296875
        },
        "camFov": 55.891998291015625,
        "cameraBlendType": "EaseOutQuad",
        "NJBNNOMLKCK": {},
        "needZAxisRotate": true,
        "openCameraDither": false,
        "targetNpcAlias": "",
        "closeTreeLeafDither": true,
        "KJOEFBPOIIH": "",
        "IICFKKEBIEC": "",
        "EGEHEJEBLBJ": ""
      }
    ],
    [
      {
        "$type": "LJLMDHDCAMK",
        "type": "LOOK_AT",
        "aliasList": [
          "Avatar"
        ],
        "actionId": 223,
        "_flag": 64,
        "enableHead": true,
        "headTurnTime": 0.5,
        "targetNpcAlias": "1005",
        "openBackProtect": true,
        "backProtectAngle": 10.0,
        "targetNpcLookAtPoint": "",
        "OAFJBHJHLJG": ""
      },
      {
        "$type": "LJLMDHDCAMK",
        "type": "LOOK_AT",
        "aliasList": [
          "AvatarNpc"
        ],
        "actionId": 224,
        "_flag": 64,
        "enableHead": true,
        "headTurnTime": 0.5,
        "targetNpcAlias": "1005",
        "openBackProtect": true,
        "backProtectAngle": 10.0,
        "targetNpcLookAtPoint": "",
        "OAFJBHJHLJG": ""
      },
      {
        "$type": "LJLMDHDCAMK",
        "type": "LOOK_AT",
        "aliasList": [
          "30457"
        ],
        "actionId": 225,
        "_flag": 64,
        "enableHead": true,
        "headTurnTime": 0.5,
        "targetNpcAlias": "1005",
        "openBackProtect": true,
        "backProtectAngle": 10.0,
        "targetNpcLookAtPoint": "",
        "OAFJBHJHLJG": ""
      },
      {
        "$type": "PKKMAMONGEO",
        "type": "DIALOG",
        "aliasList": [
          "1005"
        ],
        "actionId": 158,
        "dialogID": 715300131,
        "protectTime": 0.5
      },
      {
        "$type": "FABLGECDBCH",
        "type": "BODY_LANG",
        "aliasList": [
          "1005"
        ],
        "actionId": 308,
        "bodyLangParam": 1120,
        "forceDoFreeStyle": true,
        "canDoRepeatFreeStyle": false,
        "cantBackToIdleWhenSitLoop": true,
        "eventPatternSuiteKey": "",
        "FOHHKFAIAAJ": ""
      },
      {
        "$type": "FABLGECDBCH",
        "type": "BODY_LANG",
        "delayTime": 0.20399999618530273,
        "aliasList": [
          "30457"
        ],
        "actionId": 304,
        "isContinue": true,
        "forceDoFreeStyle": true,
        "canDoRepeatFreeStyle": false,
        "cantBackToIdleWhenSitLoop": true,
        "eventPatternSuiteKey": "",
        "FOHHKFAIAAJ": ""
      }
    ],
    [
      {
        "$type": "PKKMAMONGEO",
        "type": "DIALOG",
        "aliasList": [
          "1005"
        ],
        "actionId": 160,
        "dialogID": 715300132,
        "protectTime": 0.5
      },
      {
        "$type": "FABLGECDBCH",
        "type": "BODY_LANG",
        "aliasList": [
          "1005"
        ],
        "actionId": 309,
        "isContinue": true,
        "forceDoFreeStyle": true,
        "canDoRepeatFreeStyle": false,
        "cantBackToIdleWhenSitLoop": true,
        "eventPatternSuiteKey": "",
        "FOHHKFAIAAJ": ""
      }
    ],
    [
      {
        "$type": "LJLMDHDCAMK",
        "type": "LOOK_AT",
        "aliasList": [
          "Avatar"
        ],
        "actionId": 226,
        "_flag": 64,
        "enableHead": true,
        "headTurnTime": 0.5,
        "targetNpcAlias": "30457",
        "openBackProtect": true,
        "backProtectAngle": 10.0,
        "targetNpcLookAtPoint": "",
        "OAFJBHJHLJG": ""
      },
      {
        "$type": "LJLMDHDCAMK",
        "type": "LOOK_AT",
        "aliasList": [
          "AvatarNpc"
        ],
        "actionId": 227,
        "_flag": 64,
        "enableHead": true,
        "headTurnTime": 0.5,
        "targetNpcAlias": "30457",
        "openBackProtect": true,
        "backProtectAngle": 10.0,
        "targetNpcLookAtPoint": "",
        "OAFJBHJHLJG": ""
      },
      {
        "$type": "PKKMAMONGEO",
        "type": "DIALOG",
        "aliasList": [
          "30457"
        ],
        "actionId": 162,
        "dialogID": 715300133,
        "protectTime": 0.5
      },
      {
        "$type": "FABLGECDBCH",
        "type": "BODY_LANG",
        "aliasList": [
          "30457"
        ],
        "actionId": 310,
        "bodyLangParam": 1173,
        "forceDoFreeStyle": true,
        "canDoRepeatFreeStyle": false,
        "cantBackToIdleWhenSitLoop": true,
        "eventPatternSuiteKey": "",
        "FOHHKFAIAAJ": ""
      },
      {
        "$type": "LJLMDHDCAMK",
        "type": "LOOK_AT",
        "aliasList": [
          "1005"
        ],
        "actionId": 228,
        "_flag": 64,
        "enableHead": true,
        "headTurnTime": 0.5,
        "targetNpcAlias": "30457",
        "openBackProtect": true,
        "backProtectAngle": 10.0,
        "targetNpcLookAtPoint": "",
        "OAFJBHJHLJG": ""
      }
    ],
    [
      {
        "$type": "PKKMAMONGEO",
        "type": "DIALOG",
        "aliasList": [
          "30457"
        ],
        "actionId": 164,
        "dialogID": 715300134,
        "protectTime": 0.5
      },
      {
        "$type": "FABLGECDBCH",
        "type": "BODY_LANG",
        "aliasList": [
          "30457"
        ],
        "actionId": 311,
        "bodyLangParam": 1171,
        "forceDoFreeStyle": true,
        "canDoRepeatFreeStyle": false,
        "cantBackToIdleWhenSitLoop": true,
        "eventPatternSuiteKey": "",
        "FOHHKFAIAAJ": ""
      },
      {
        "$type": "LJLMDHDCAMK",
        "type": "LOOK_AT",
        "aliasList": [
          "30457"
        ],
        "actionId": 314,
        "_flag": 64,
        "enableHead": true,
        "headTurnTime": 0.5,
        "targetNpcAlias": "AvatarNpc",
        "openBackProtect": true,
        "backProtectAngle": 10.0,
        "targetNpcLookAtPoint": "",
        "OAFJBHJHLJG": ""
      }
    ],
    [
      {
        "$type": "MoleMole.Config.ConfigTimeProtectAction",
        "type": "TIME_PROTECT",
        "duration": 0.10000000149011612,
        "actionId": 105
      },
      {
        "$type": "MoleMole.Config.ConfigSimpleBlackScreenAction",
        "type": "SIMPLE_BLACK_SCREEN",
        "actionId": 165,
        "durationToBlack": 0.5,
        "durationKeepBlack": 1.5,
        "durationFromBlack": 0.5,
        "textMapID": ""
      },
      {
        "$type": "MoleMole.Config.ConfigTimeProtectAction",
        "type": "TIME_PROTECT",
        "duration": 0.699999988079071,
        "actionId": 166
      },
      {
        "$type": "FJKIHHKJLMJ",
        "type": "CAMERA_MOVE",
        "delayTime": 0.5,
        "duration": 0.10000000149011612,
        "actionId": 173,
        "cameraPosType": "EXIT",
        "camForwardTargetOffset": {
          "z": 1.0
        },
        "camFov": 30.0,
        "lerpPattern": 5,
        "cameraBlendType": "EaseInOutCubic",
        "NJBNNOMLKCK": {},
        "openCameraDither": false,
        "targetNpcAlias": "",
        "closeTreeLeafDither": true,
        "KJOEFBPOIIH": "",
        "IICFKKEBIEC": "",
        "EGEHEJEBLBJ": ""
      },
      {
        "$type": "MoleMole.Config.ConfigVisibleInterAction",
        "type": "VISIBLE",
        "delayTime": 0.6000000238418579,
        "aliasList": [
          "Avatar"
        ],
        "actionId": 180,
        "isVisible": true,
        "_extraParam": ""
      },
      {
        "$type": "MoleMole.Config.ConfigVisibleInterAction",
        "type": "VISIBLE",
        "delayTime": 0.6000000238418579,
        "aliasList": [
          "AvatarNpc"
        ],
        "actionId": 179,
        "_extraParam": ""
      },
      {
        "$type": "FABLGECDBCH",
        "type": "BODY_LANG",
        "delayTime": 0.6000000238418579,
        "aliasList": [
          "AvatarNpc"
        ],
        "actionId": 182,
        "isContinue": true,
        "forceDoFreeStyle": true,
        "canDoRepeatFreeStyle": false,
        "eventPatternSuiteKey": "",
        "FOHHKFAIAAJ": ""
      },
      {
        "$type": "FABLGECDBCH",
        "type": "BODY_LANG",
        "delayTime": 0.6000000238418579,
        "aliasList": [
          "30457"
        ],
        "actionId": 168,
        "isContinue": true,
        "forceDoFreeStyle": true,
        "canDoRepeatFreeStyle": false,
        "eventPatternSuiteKey": "",
        "FOHHKFAIAAJ": ""
      },
      {
        "$type": "FABLGECDBCH",
        "type": "BODY_LANG",
        "delayTime": 0.6000000238418579,
        "aliasList": [
          "1005"
        ],
        "actionId": 170,
        "isContinue": true,
        "forceDoFreeStyle": true,
        "canDoRepeatFreeStyle": false,
        "eventPatternSuiteKey": "",
        "FOHHKFAIAAJ": ""
      }
    ]
  ],
  "groupId": [
    {
      "grpId": 2825140113,
      "nextGrpId": 2825140114
    },
    {
      "index": 1,
      "grpId": 2825140114,
      "nextGrpId": 2825140115
    },
    {
      "index": 2,
      "grpId": 2825140115,
      "nextGrpId": 2825140116
    },
    {
      "index": 3,
      "grpId": 2825140116,
      "nextGrpId": 2825140117
    },
    {
      "index": 4,
      "grpId": 2825140117,
      "nextGrpId": 2825140118
    },
    {
      "index": 5,
      "grpId": 2825140118,
      "nextGrpId": 2825140119
    },
    {
      "index": 6,
      "grpId": 2825140119,
      "nextGrpId": 2825140120
    },
    {
      "index": 7,
      "grpId": 2825140120,
      "nextGrpId": 2825140121
    },
    {
      "index": 8,
      "grpId": 2825140121,
      "nextGrpId": 1679997631
    },
    {
      "index": 9,
      "grpId": 1679997631,
      "nextGrpId": 1679997632
    },
    {
      "index": 10,
      "grpId": 1679997632,
      "nextGrpId": 1679997633
    },
    {
      "index": 11,
      "grpId": 1679997633,
      "nextGrpId": 1679997634
    },
    {
      "index": 12,
      "grpId": 1679997634,
      "nextGrpId": 1679997635
    },
    {
      "index": 13,
      "grpId": 1679997635,
      "nextGrpId": 1679997636
    },
    {
      "index": 14,
      "grpId": 1679997636,
      "nextGrpId": 1679997637
    },
    {
      "index": 15,
      "grpId": 1679997637,
      "nextGrpId": 1679997638
    },
    {
      "index": 16,
      "grpId": 1679997638,
      "nextGrpId": 1679997639
    },
    {
      "index": 17,
      "grpId": 1679997639,
      "nextGrpId": 1679997640
    },
    {
      "index": 18,
      "grpId": 1679997640,
      "nextGrpId": 1679997662
    },
    {
      "index": 19,
      "grpId": 1679997662,
      "nextGrpId": 1679997663
    },
    {
      "index": 20,
      "grpId": 1679997663,
      "nextGrpId": 1679997664
    },
    {
      "index": 21,
      "grpId": 1679997664,
      "nextGrpId": 1679997665
    },
    {
      "index": 22,
      "grpId": 1679997665,
      "nextGrpId": 1679997666
    },
    {
      "index": 23,
      "grpId": 1679997666,
      "nextGrpId": 1679997667
    },
    {
      "index": 24,
      "grpId": 1679997667,
      "nextGrpId": 1679997668
    },
    {
      "index": 25,
      "grpId": 1679997668,
      "nextGrpId": 1679997669
    },
    {
      "index": 26,
      "grpId": 1679997669,
      "nextGrpId": 1679997670
    },
    {
      "index": 27,
      "grpId": 1679997670,
      "nextGrpId": 1679997671
    },
    {
      "index": 28,
      "grpId": 1679997671,
      "nextGrpId": 1679997693
    },
    {
      "index": 29,
      "grpId": 1679997693,
      "nextGrpId": 1679997694
    }
  ],
  "freeStyleDic": {
    "1025": [
      1220,
      1120
    ],
    "1026": [
      1220,
      1120
    ],
    "30457": [
      1200,
      1172,
      1173,
      1171,
      4030,
      1150
    ]
  },
  "EKFBDAIDEEF": {
    "AvatarNpc": [
      "SitChat01AS",
      "SitHoldArm01AS",
      "SitShrug01AS",
      "SitThink01AS"
    ],
    "30457": [
      "SitChat01AS",
      "SitHoldArm01AS",
      "SitPutArm01AS",
      "SitRaiseHand01AS",
      "SitRead01AS"
    ]
  },
  "GBPIKOLLKJH": {
    "KGFBJNAEBHO": "",
    "ADMLEHAKCPC": ""
  }
}