{
  "luaDataPath": "",
  "startBlackKeepTime": 0.5,
  "entityBan": "",
  "disableNpcLod": true,
  "isAutoBanNpc": true,
  "isBanWidgetPet": true,
  "protectNpcMobileLod": true,
  "startFade": {
    "startFadeInDuration": 0.5,
    "startFadeOutDuration": 0.5
  },
  "endFade": {
    "startFadeOutDuration": 0.0
  },
  "actors": [
    {
      "alias": "Avatar",
      "visible": true,
      "bornPointName": "",
      "relativePosType": "AVATAR_NEW",
      "relativePosNpcAlias": "",
      "_bindMovingTargetKey": ""
    },
    {
      "configID": 30252,
      "alias": "30252",
      "visible": true,
      "bornPointName": "",
      "relativePosType": "AVATAR_NEW",
      "relativePosNpcAlias": "",
      "_bindMovingTargetKey": ""
    }
  ],
  "group": [
    [
      {
        "$type": "MoleMole.Config.ConfigTimeProtectAction",
        "type": "TIME_PROTECT",
        "duration": 0.10000000149011612
      }
    ],
    [
      {
        "$type": "PKKMAMONGEO",
        "type": "DIALOG",
        "aliasList": [
          "30252"
        ],
        "dialogID": 727270101,
        "protectTime": 0.5
      },
      {
        "$type": "HDGKHDNFMIM",
        "type": "DIALOG_SELECT",
        "delayTime": 0.4000000059604645,
        "aliasList": [
          "Avatar"
        ],
        "dialogIDList": [
          727270102,
          727270104
        ],
        "grpIDList": [
          335889461,
          335889462
        ],
        "useGrpId": true
      }
    ],
    [
      {
        "$type": "PKKMAMONGEO",
        "type": "DIALOG",
        "aliasList": [
          "30252"
        ],
        "dialogID": 727270103,
        "protectTime": 0.5
      }
    ],
    [
      {
        "$type": "PKKMAMONGEO",
        "type": "DIALOG",
        "aliasList": [
          "30252"
        ],
        "dialogID": 727270105,
        "protectTime": 0.5
      }
    ],
    [
      {
        "$type": "PKKMAMONGEO",
        "type": "DIALOG",
        "aliasList": [
          "30252"
        ],
        "dialogID": 727270106,
        "protectTime": 0.5
      },
      {
        "$type": "HDGKHDNFMIM",
        "type": "DIALOG_SELECT",
        "delayTime": 0.4000000059604645,
        "aliasList": [
          "Avatar"
        ],
        "dialogIDList": [
          727270107,
          727270112
        ],
        "grpIDList": [
          335889464,
          1822638685
        ],
        "useGrpId": true
      }
    ],
    [
      {
        "$type": "PKKMAMONGEO",
        "type": "DIALOG",
        "aliasList": [
          "30252"
        ],
        "dialogID": 727270108,
        "protectTime": 0.5
      }
    ],
    [
      {
        "$type": "PKKMAMONGEO",
        "type": "DIALOG",
        "aliasList": [
          "30252"
        ],
        "dialogID": 727270109,
        "protectTime": 0.5
      }
    ],
    [
      {
        "$type": "PKKMAMONGEO",
        "type": "DIALOG",
        "aliasList": [
          "30252"
        ],
        "dialogID": 727270110,
        "protectTime": 0.5
      }
    ],
    [
      {
        "$type": "PKKMAMONGEO",
        "type": "DIALOG",
        "aliasList": [
          "30252"
        ],
        "dialogID": 727270111,
        "protectTime": 0.5
      }
    ],
    [
      {
        "$type": "PKKMAMONGEO",
        "type": "DIALOG",
        "aliasList": [
          "30252"
        ],
        "dialogID": 727270113,
        "protectTime": 0.5
      }
    ],
    [
      {
        "$type": "PKKMAMONGEO",
        "type": "DIALOG",
        "aliasList": [
          "30252"
        ],
        "dialogID": 727270114,
        "protectTime": 0.5
      }
    ],
    [
      {
        "$type": "PKKMAMONGEO",
        "type": "DIALOG",
        "aliasList": [
          "30252"
        ],
        "dialogID": 727270115,
        "protectTime": 0.5
      }
    ],
    [
      {
        "$type": "MoleMole.Config.ConfigLuaAction",
        "type": "LUA_ACTION",
        "duration": 1.0,
        "invoke": true,
        "invokeAlias": "72727",
        "invokeParam": 1
      },
      {
        "$type": "MoleMole.Config.ConfigSimpleBlackScreenAction",
        "type": "SIMPLE_BLACK_SCREEN",
        "durationToBlack": 0.5,
        "durationKeepBlack": 3.0,
        "durationFromBlack": 0.5,
        "textMapID": "",
        "useTextFade": true,
        "_dialogID": 727270116
      },
      {
        "$type": "PKKMAMONGEO",
        "type": "DIALOG_CLEAR"
      }
    ],
    [
      {
        "$type": "MoleMole.Config.ConfigTimeProtectAction",
        "type": "TIME_PROTECT",
        "duration": 0.10000000149011612
      },
      {
        "$type": "MoleMole.Config.ConfigTimeProtectAction",
        "type": "TIME_PROTECT",
        "duration": 0.699999988079071
      }
    ]
  ],
  "groupId": [
    {
      "grpId": 335889459,
      "nextGrpId": 335889460
    },
    {
      "index": 1,
      "grpId": 335889460,
      "nextGrpId": 335889461
    },
    {
      "index": 2,
      "grpId": 335889461,
      "nextGrpId": 335889463
    },
    {
      "index": 3,
      "grpId": 335889462,
      "nextGrpId": 335889463
    },
    {
      "index": 4,
      "grpId": 335889463,
      "nextGrpId": 335889464
    },
    {
      "index": 5,
      "grpId": 335889464,
      "nextGrpId": 335889465
    },
    {
      "index": 6,
      "grpId": 335889465,
      "nextGrpId": 335889466
    },
    {
      "index": 7,
      "grpId": 335889466,
      "nextGrpId": 335889467
    },
    {
      "index": 8,
      "grpId": 335889467,
      "nextGrpId": 1822638687
    },
    {
      "index": 9,
      "grpId": 1822638685,
      "nextGrpId": 1822638686
    },
    {
      "index": 10,
      "grpId": 1822638686,
      "nextGrpId": 1822638687
    },
    {
      "index": 11,
      "grpId": 1822638687,
      "nextGrpId": 1822638688
    },
    {
      "index": 12,
      "grpId": 1822638688,
      "nextGrpId": 1822638689
    },
    {
      "index": 13,
      "grpId": 1822638689,
      "nextGrpId": 1822638690
    }
  ],
  "freeStyleDic": {
    "30252": []
  }
}