[
  {
    "areaName": "AudioArea_1-1(20152)",
    "shortID": 11271326,
    "areaPoints": [
      {
        "x": -3.66864013671875,
        "y": -47.20000076293945,
        "z": 96.55879974365234
      },
      {
        "x": 34.305503845214844,
        "y": -47.20000076293945,
        "z": 88.77951049804688
      },
      {
        "x": 73.39434814453125,
        "y": -47.20000076293945,
        "z": 62.24671936035156
      },
      {
        "x": 86.80067443847656,
        "y": -47.20000076293945,
        "z": 0.047501564025878906
      },
      {
        "x": 65.15748596191406,
        "y": -47.20000076293945,
        "z": -54.26762390136719
      },
      {
        "x": 31.634334564208984,
        "y": -47.20000076293945,
        "z": -91.99994659423828
      },
      {
        "x": -26.66647720336914,
        "y": -47.20000076293945,
        "z": -94.83068084716797
      },
      {
        "x": -86.71934509277344,
        "y": -47.20000076293945,
        "z": -49.41905212402344
      },
      {
        "x": -101.30281829833984,
        "y": -47.20000076293945,
        "z": 2.256765365600586
      },
      {
        "x": -84.75596618652344,
        "y": -47.20000076293945,
        "z": 51.66252517700195
      },
      {
        "x": -35.71392822265625,
        "y": -47.20000076293945,
        "z": 91.78224182128906
      }
    ],
    "yZeroAnchor": -47.20000076293945,
    "areaGroupName": {
      "text": ""
    },
    "enableHeightCheck": true,
    "top": 46.099998474121094,
    "bottom": 35.099998474121094,
    "auxBusName": {
      "text": ""
    },
    "enableChangeStates": true,
    "enterStates": [
      {
        "group": {
          "text": "StateGroup_musicWeather"
        },
        "param3": {
          "text": "State_Dungeon_XM32_ScaramoucheBoss_S02"
        }
      }
    ],
    "leaveStates": [
      {
        "group": {
          "text": "StateGroup_musicWeather"
        },
        "param3": {
          "text": "None"
        }
      }
    ]
  },
  {
    "areaName": "AudioArea_2-2(20152)",
    "shortID": 11271325,
    "areaPoints": [
      {
        "x": -3.66864013671875,
        "z": 96.55879974365234
      },
      {
        "x": 34.305503845214844,
        "z": 88.77951049804688
      },
      {
        "x": 73.39434814453125,
        "z": 62.24671936035156
      },
      {
        "x": 86.80067443847656,
        "z": 0.047501564025878906
      },
      {
        "x": 65.15748596191406,
        "z": -54.26762390136719
      },
      {
        "x": 31.634334564208984,
        "z": -91.99994659423828
      },
      {
        "x": -26.66647720336914,
        "z": -94.83068084716797
      },
      {
        "x": -86.71934509277344,
        "z": -49.41905212402344
      },
      {
        "x": -101.30281829833984,
        "z": 2.256765365600586
      },
      {
        "x": -84.75596618652344,
        "z": 51.66252517700195
      },
      {
        "x": -35.71392822265625,
        "z": 91.78224182128906
      }
    ],
    "areaGroupName": {
      "text": ""
    },
    "enableHeightCheck": true,
    "top": 94.19999694824219,
    "bottom": 106.11000061035156,
    "isAmbience": true,
    "enterEvents": [
      {
        "text": "Set_Nada_LimitInstances_15"
      }
    ],
    "leaveEvents": [
      {
        "text": "Reset_Nada_LimitInstances_10"
      }
    ],
    "auxBusName": {
      "text": ""
    }
  }
]