[
  {
    "areaName": "AudioArea_1-1(35906)",
    "shortID": 1494732242,
    "areaPoints": [
      {
        "x": -108.82266998291016,
        "z": 25.021268844604492
      },
      {
        "x": -167.9450225830078,
        "z": 23.76101303100586
      },
      {
        "x": -168.26443481445312,
        "z": -34.14075469970703
      },
      {
        "x": -109.03193664550781,
        "z": -34.65408706665039
      }
    ],
    "areaGroupName": {
      "text": ""
    },
    "enableHeightCheck": true,
    "top": 166.6999969482422,
    "bottom": 20.0,
    "auxBusName": {
      "text": ""
    },
    "enableChangeStates": true,
    "enterStates": [
      {
        "group": {
          "text": "StateGroup_specialArea"
        },
        "param3": {
          "text": "State_Dungeon_v37_CardDice"
        }
      }
    ],
    "leaveStates": [
      {
        "group": {
          "text": "StateGroup_specialArea"
        },
        "param3": {
          "text": "None"
        }
      }
    ]
  }
]