[
  {
    "areaName": "AudioArea_1-1(6001)",
    "shortID": 2910426619,
    "areaPoints": [
      {
        "x": 544.1969604492188,
        "y": 272.0790710449219,
        "z": 605.47705078125
      },
      {
        "x": 665.6450805664062,
        "y": 272.0790710449219,
        "z": 631.105712890625
      },
      {
        "x": 743.3828125,
        "y": 272.0790710449219,
        "z": 592.8285522460938
      },
      {
        "x": 659.0839233398438,
        "y": 272.0790710449219,
        "z": 436.6194152832031
      },
      {
        "x": 383.7555847167969,
        "y": 272.0790710449219,
        "z": 311.0709533691406
      },
      {
        "x": 341.0119323730469,
        "y": 272.0790710449219,
        "z": 394.1263732910156
      },
      {
        "x": 247.21725463867188,
        "y": 272.0790710449219,
        "z": 491.5572814941406
      },
      {
        "x": 222.55429077148438,
        "y": 272.0790710449219,
        "z": 588.438232421875
      },
      {
        "x": 210.45217895507812,
        "y": 272.0790710449219,
        "z": 653.9357299804688
      },
      {
        "x": 414.6011657714844,
        "y": 272.0790710449219,
        "z": 768.5262451171875
      },
      {
        "x": 490.8536376953125,
        "y": 272.0790710449219,
        "z": 650.8712768554688
      }
    ],
    "yZeroAnchor": 272.0790710449219,
    "areaGroupName": {
      "text": "111"
    },
    "enableHeightCheck": true,
    "top": 319.3999938964844,
    "bottom": 2.0,
    "isReverb": true,
    "auxBusName": {
      "text": "Aux_SM_Cave_Large"
    },
    "enableChangeStates": true,
    "enterStates": [
      {
        "group": {
          "text": "StateGroup_specialArea"
        },
        "param3": {
          "text": "State_CYJY_Level2_DianDaoCheng"
        }
      }
    ],
    "leaveStates": [
      {
        "group": {
          "text": "StateGroup_specialArea"
        },
        "param3": {
          "text": "State_CYJY_Level2"
        }
      }
    ]
  },
  {
    "areaName": "AudioArea_2-2(6001)",
    "shortID": 2910426616,
    "areaPoints": [
      {
        "x": 103.88277435302734,
        "y": 129.6999969482422,
        "z": 586.7100219726562
      },
      {
        "x": 94.6158218383789,
        "y": 129.6999969482422,
        "z": 610.5856323242188
      },
      {
        "x": 99.7461929321289,
        "y": 129.6999969482422,
        "z": 620.5946655273438
      },
      {
        "x": 133.2930450439453,
        "y": 129.6999969482422,
        "z": 635.4535522460938
      },
      {
        "x": 151.42800903320312,
        "y": 129.6999969482422,
        "z": 641.2882690429688
      },
      {
        "x": 164.67233276367188,
        "y": 129.6999969482422,
        "z": 630.9900512695312
      },
      {
        "x": 180.07025146484375,
        "y": 129.6999969482422,
        "z": 599.5877075195312
      },
      {
        "x": 157.35617065429688,
        "y": 129.6999969482422,
        "z": 571.6639404296875
      }
    ],
    "yZeroAnchor": 129.6999969482422,
    "areaGroupName": {
      "text": "xiagu"
    },
    "enableHeightCheck": true,
    "top": 240.60000610351562,
    "bottom": 20.0,
    "isAmbience": true,
    "enterEvents": [
      {
        "text": "Play_Amb_Weather_Cave_Wind"
      }
    ],
    "leaveEvents": [
      {
        "text": "Stop_Amb_Weather_Cave_Wind"
      }
    ],
    "auxBusName": {
      "text": ""
    }
  },
  {
    "areaName": "AudioArea_3-3(6001)",
    "shortID": 2910426617,
    "areaPoints": [
      {
        "x": 143.69366455078125,
        "y": 349.5080261230469,
        "z": 609.99609375
      },
      {
        "x": 135.44082641601562,
        "y": 349.5080261230469,
        "z": 619.852783203125
      },
      {
        "x": 128.11537170410156,
        "y": 349.5080261230469,
        "z": 619.046630859375
      },
      {
        "x": 117.62641906738281,
        "y": 349.5080261230469,
        "z": 626.9257202148438
      },
      {
        "x": 115.59613037109375,
        "y": 349.5080261230469,
        "z": 637.6590576171875
      },
      {
        "x": 122.77613830566406,
        "y": 349.5080261230469,
        "z": 666.5527954101562
      },
      {
        "x": 160.7833251953125,
        "y": 349.5080261230469,
        "z": 640.301025390625
      },
      {
        "x": 165.97789001464844,
        "y": 349.5080261230469,
        "z": 626.4663696289062
      },
      {
        "x": 156.41586303710938,
        "y": 349.5080261230469,
        "z": 612.06787109375
      }
    ],
    "yZeroAnchor": 349.5080261230469,
    "areaGroupName": {
      "text": "xiagu"
    },
    "enableHeightCheck": true,
    "top": 95.30000305175781,
    "bottom": 20.0,
    "isAmbience": true,
    "enterEvents": [
      {
        "text": "Play_Amb_Weather_Cave_Wind"
      }
    ],
    "leaveEvents": [
      {
        "text": "Stop_Amb_Weather_Cave_Wind"
      }
    ],
    "auxBusName": {
      "text": ""
    }
  },
  {
    "areaName": "AudioArea_4-4(6001)",
    "shortID": 2910426622,
    "areaPoints": [
      {
        "x": -14.283065795898438,
        "y": 381.6590576171875,
        "z": 324.3191223144531
      },
      {
        "x": 1.9522476196289062,
        "y": 381.6590576171875,
        "z": 455.9967041015625
      },
      {
        "x": 105.34024810791016,
        "y": 381.6590576171875,
        "z": 471.23480224609375
      },
      {
        "x": 244.8944549560547,
        "y": 381.6590576171875,
        "z": 446.6881408691406
      },
      {
        "x": 288.88934326171875,
        "y": 381.6590576171875,
        "z": 352.1401672363281
      },
      {
        "x": 278.3561706542969,
        "y": 381.6590576171875,
        "z": 271.53021240234375
      },
      {
        "x": 39.304656982421875,
        "y": 381.6590576171875,
        "z": 247.05572509765625
      }
    ],
    "yZeroAnchor": 381.6590576171875,
    "areaGroupName": {
      "text": ""
    },
    "enableHeightCheck": true,
    "top": 20.0,
    "bottom": 220.3000030517578,
    "isAmbience": true,
    "enterEvents": [
      {
        "text": "Play_Amb_Cave"
      }
    ],
    "leaveEvents": [
      {
        "text": "Stop_Amb_Cave"
      }
    ],
    "isReverb": true,
    "auxBusName": {
      "text": "Aux_SM_Cave_Large"
    }
  },
  {
    "areaName": "AudioArea_5-5(6001)",
    "shortID": 2910426623,
    "areaPoints": [
      {
        "x": 294.77105712890625,
        "y": 717.2492065429688,
        "z": 238.10061645507812
      },
      {
        "x": 425.95465087890625,
        "y": 717.2492065429688,
        "z": 250.15243530273438
      },
      {
        "x": 492.311279296875,
        "y": 717.2492065429688,
        "z": 268.79290771484375
      },
      {
        "x": 554.0775146484375,
        "y": 717.2492065429688,
        "z": 347.0436706542969
      },
      {
        "x": 537.937255859375,
        "y": 717.2492065429688,
        "z": 422.2279052734375
      },
      {
        "x": 455.00439453125,
        "y": 717.2492065429688,
        "z": 545.4759521484375
      },
      {
        "x": 290.4973449707031,
        "y": 717.2492065429688,
        "z": 498.4574279785156
      },
      {
        "x": 237.91366577148438,
        "y": 717.2492065429688,
        "z": 314.0489501953125
      }
    ],
    "yZeroAnchor": 717.2492065429688,
    "areaGroupName": {
      "text": ""
    },
    "enableHeightCheck": true,
    "top": 64.9000015258789,
    "bottom": 93.0,
    "isAmbience": true,
    "enterEvents": [
      {
        "text": "Play_Amb_Cave"
      }
    ],
    "leaveEvents": [
      {
        "text": "Stop_Amb_Cave"
      }
    ],
    "isReverb": true,
    "auxBusName": {
      "text": "Aux_SM_Cave_Large"
    }
  },
  {
    "areaName": "AudioArea_6-6(6001)",
    "shortID": 2910426620,
    "areaPoints": [
      {
        "x": 1205.81689453125,
        "y": 918.2413940429688,
        "z": 749.8797607421875
      },
      {
        "x": 1027.3197021484375,
        "y": 918.2413940429688,
        "z": 701.736328125
      },
      {
        "x": 945.3380737304688,
        "y": 918.2413940429688,
        "z": 713.7921752929688
      },
      {
        "x": 866.7807006835938,
        "y": 918.2413940429688,
        "z": 634.9843139648438
      },
      {
        "x": 871.3237915039062,
        "y": 918.2413940429688,
        "z": 620.3811645507812
      },
      {
        "x": 831.9209594726562,
        "y": 918.2413940429688,
        "z": 575.912353515625
      },
      {
        "x": 921.5365600585938,
        "y": 918.2413940429688,
        "z": 498.2939758300781
      },
      {
        "x": 906.7353515625,
        "y": 918.2413940429688,
        "z": 445.39093017578125
      },
      {
        "x": 873.6165161132812,
        "y": 918.2413940429688,
        "z": 377.3464050292969
      },
      {
        "x": 803.44140625,
        "y": 918.2413940429688,
        "z": 366.4795227050781
      },
      {
        "x": 701.2489013671875,
        "y": 918.2413940429688,
        "z": 296.2892150878906
      },
      {
        "x": 641.1198120117188,
        "y": 918.2413940429688,
        "z": 229.09249877929688
      },
      {
        "x": 621.7864379882812,
        "y": 918.2413940429688,
        "z": 173.78831481933594
      },
      {
        "x": 778.314697265625,
        "y": 918.2413940429688,
        "z": 127.6051254272461
      },
      {
        "x": 845.0322875976562,
        "y": 918.2413940429688,
        "z": 75.65806579589844
      },
      {
        "x": 981.29150390625,
        "y": 918.2413940429688,
        "z": 112.48928833007812
      },
      {
        "x": 1101.0821533203125,
        "y": 918.2413940429688,
        "z": 221.82069396972656
      },
      {
        "x": 1074.352783203125,
        "y": 918.2413940429688,
        "z": 242.66207885742188
      },
      {
        "x": 1068.203369140625,
        "y": 918.2413940429688,
        "z": 330.0472717285156
      },
      {
        "x": 1101.21484375,
        "y": 918.2413940429688,
        "z": 373.8821716308594
      },
      {
        "x": 1161.9964599609375,
        "y": 918.2413940429688,
        "z": 447.37432861328125
      },
      {
        "x": 1308.2255859375,
        "y": 918.2413940429688,
        "z": 542.8497314453125
      }
    ],
    "yZeroAnchor": 918.2413940429688,
    "areaGroupName": {
      "text": ""
    },
    "enableHeightCheck": true,
    "top": 343.79998779296875,
    "bottom": 465.79998779296875,
    "isAmbience": true,
    "enterEvents": [
      {
        "text": "Play_Amb_Cave"
      }
    ],
    "leaveEvents": [
      {
        "text": "Stop_Amb_Cave"
      }
    ],
    "isReverb": true,
    "auxBusName": {
      "text": "Aux_SM_Cave_Large"
    }
  },
  {
    "areaName": "AudioArea_7-7(6001)",
    "shortID": 2910426621,
    "areaPoints": [
      {
        "x": 764.9976196289062,
        "y": 726.615478515625,
        "z": 133.19265747070312
      },
      {
        "x": 727.9779663085938,
        "y": 726.615478515625,
        "z": 143.49436950683594
      },
      {
        "x": 687.7300415039062,
        "y": 726.615478515625,
        "z": 184.1611328125
      },
      {
        "x": 604.5259399414062,
        "y": 726.615478515625,
        "z": 154.2836456298828
      },
      {
        "x": 612.8506469726562,
        "y": 726.615478515625,
        "z": 63.61701965332031
      },
      {
        "x": 725.8959350585938,
        "y": 726.615478515625,
        "z": 1.0651397705078125
      },
      {
        "x": 812.168701171875,
        "y": 726.615478515625,
        "z": -8.8076171875
      },
      {
        "x": 836.2501831054688,
        "y": 726.615478515625,
        "z": 88.47760772705078
      }
    ],
    "yZeroAnchor": 726.615478515625,
    "areaGroupName": {
      "text": ""
    },
    "enableHeightCheck": true,
    "top": 227.5,
    "bottom": 302.79998779296875,
    "isAmbience": true,
    "enterEvents": [
      {
        "text": "Play_Amb_CengYan_XuMiShuGen"
      }
    ],
    "leaveEvents": [
      {
        "text": "Stop_Amb_CengYan_XuMiShuGen"
      }
    ],
    "isReverb": true,
    "auxBusName": {
      "text": "Aux_SM_Cave_Small"
    },
    "enableChangeStates": true,
    "enterStates": [
      {
        "group": {
          "text": "StateGroup_specialArea"
        },
        "param3": {
          "text": "State_CYJY_Level1_XuMiShuGen"
        }
      }
    ],
    "leaveStates": [
      {
        "group": {
          "text": "StateGroup_specialArea"
        },
        "param3": {
          "text": "None"
        }
      }
    ]
  },
  {
    "areaName": "AudioArea_8-8(6001)",
    "shortID": 2910426610,
    "areaPoints": [
      {
        "x": 37.85921859741211,
        "y": 173.6981201171875,
        "z": 808.0647583007812
      },
      {
        "x": -18.233749389648438,
        "y": 173.6981201171875,
        "z": 195.73907470703125
      },
      {
        "x": 477.7503662109375,
        "y": 173.6981201171875,
        "z": 242.77947998046875
      },
      {
        "x": 824.2518310546875,
        "y": 173.6981201171875,
        "z": 215.041259765625
      },
      {
        "x": 1043.706787109375,
        "y": 173.6981201171875,
        "z": 705.807861328125
      },
      {
        "x": 609.0392456054688,
        "y": 173.6981201171875,
        "z": 1002.2711181640625
      }
    ],
    "yZeroAnchor": 173.6981201171875,
    "areaGroupName": {
      "text": ""
    },
    "enableHeightCheck": true,
    "top": 361.70001220703125,
    "bottom": -79.19999694824219,
    "auxBusName": {
      "text": ""
    },
    "enterStates": [
      {
        "group": {
          "text": "StateGroup_specialArea"
        },
        "param3": {
          "text": "State_CYJY_Level2"
        }
      }
    ],
    "leaveStates": [
      {
        "group": {
          "text": "StateGroup_specialArea"
        },
        "param3": {
          "text": "None"
        }
      }
    ]
  },
  {
    "areaName": "AudioArea_9-9(6001)",
    "shortID": 2910426611,
    "areaPoints": [
      {
        "x": 214.81423950195312,
        "y": 206.51966857910156,
        "z": 610.1063842773438
      },
      {
        "x": 214.2990264892578,
        "y": 206.51966857910156,
        "z": 641.708984375
      },
      {
        "x": 175.28921508789062,
        "y": 206.51966857910156,
        "z": 696.0427856445312
      },
      {
        "x": 139.83651733398438,
        "y": 206.51966857910156,
        "z": 707.3887939453125
      },
      {
        "x": 56.71663284301758,
        "y": 206.51966857910156,
        "z": 609.82421875
      },
      {
        "x": 213.6881103515625,
        "y": 206.51966857910156,
        "z": 566.2796020507812
      }
    ],
    "yZeroAnchor": 206.51966857910156,
    "areaGroupName": {
      "text": "111"
    },
    "enableHeightCheck": true,
    "top": 331.8900146484375,
    "bottom": 12.800000190734863,
    "auxBusName": {
      "text": ""
    },
    "enableChangeStates": true,
    "enterStates": [
      {
        "group": {
          "text": "StateGroup_specialArea"
        },
        "param3": {
          "text": "State_CYJY_Level2_DDC_Silence"
        }
      }
    ],
    "leaveStates": [
      {
        "group": {
          "text": "StateGroup_specialArea"
        },
        "param3": {
          "text": "State_CYJY_Level2_DianDaoCheng"
        }
      }
    ]
  },
  {
    "areaName": "AudioArea_10-10(6001)",
    "shortID": 291969553,
    "areaPoints": [
      {
        "x": 485.0504150390625,
        "y": 394.1578063964844,
        "z": 526.0198364257812
      },
      {
        "x": 477.532470703125,
        "y": 394.1578063964844,
        "z": 509.6676330566406
      },
      {
        "x": 470.76434326171875,
        "y": 394.1578063964844,
        "z": 502.72357177734375
      },
      {
        "x": 445.96612548828125,
        "y": 394.1578063964844,
        "z": 502.6780700683594
      },
      {
        "x": 436.5066833496094,
        "y": 394.1578063964844,
        "z": 525.1534423828125
      },
      {
        "x": 450.5625915527344,
        "y": 394.1578063964844,
        "z": 544.0458374023438
      }
    ],
    "yZeroAnchor": 394.1578063964844,
    "areaGroupName": {
      "text": "200"
    },
    "enableHeightCheck": true,
    "top": 119.80000305175781,
    "bottom": -50.099998474121094,
    "isAmbience": true,
    "leaveEvents": [
      {
        "text": "SetState_SpecialArea_DDC"
      }
    ],
    "auxBusName": {
      "text": ""
    },
    "enableChangeStates": true,
    "enterStates": [
      {
        "group": {
          "text": "StateGroup_specialArea"
        },
        "param3": {
          "text": "None"
        }
      }
    ],
    "leaveStates": [
      {
        "group": {
          "text": "StateGroup_specialArea"
        },
        "param3": {
          "text": "State_CYJY_Level2_DianDaoCheng"
        }
      }
    ]
  },
  {
    "areaName": "AudioArea_11-11(6001)",
    "shortID": 291969552,
    "areaPoints": [
      {
        "x": 470.41021728515625,
        "y": 413.82635498046875,
        "z": 442.4461669921875
      },
      {
        "x": 423.97576904296875,
        "y": 413.82635498046875,
        "z": 339.3507080078125
      },
      {
        "x": 340.9250793457031,
        "y": 413.82635498046875,
        "z": 407.00189208984375
      },
      {
        "x": 333.92950439453125,
        "y": 413.82635498046875,
        "z": 553.2081909179688
      },
      {
        "x": 442.2196350097656,
        "y": 413.82635498046875,
        "z": 623.1753540039062
      },
      {
        "x": 480.6102600097656,
        "y": 413.82635498046875,
        "z": 616.9154663085938
      },
      {
        "x": 570.5330200195312,
        "y": 413.82635498046875,
        "z": 531.6725463867188
      }
    ],
    "yZeroAnchor": 413.82635498046875,
    "areaGroupName": {
      "text": "200"
    },
    "enableHeightCheck": true,
    "top": 95.30000305175781,
    "bottom": -40.20000076293945,
    "isAmbience": true,
    "leaveEvents": [
      {
        "text": "SetState_SpecialArea_DDC"
      }
    ],
    "auxBusName": {
      "text": ""
    },
    "enableChangeStates": true,
    "enterStates": [
      {
        "group": {
          "text": "StateGroup_specialArea"
        },
        "param3": {
          "text": "None"
        }
      }
    ],
    "leaveStates": [
      {
        "group": {
          "text": "StateGroup_specialArea"
        },
        "param3": {
          "text": "State_CYJY_Level2_DianDaoCheng"
        }
      }
    ]
  },
  {
    "areaName": "AudioArea_12-12(6001)",
    "shortID": 291969555,
    "areaPoints": [
      {
        "x": 233.912353515625,
        "y": 481.1862487792969,
        "z": 337.2216491699219
      },
      {
        "x": 660.78173828125,
        "y": 481.1862487792969,
        "z": 1096.9068603515625
      },
      {
        "x": 1195.698486328125,
        "y": 481.1862487792969,
        "z": 1097.22412109375
      },
      {
        "x": 1016.7176513671875,
        "y": 481.1862487792969,
        "z": 41.72978973388672
      },
      {
        "x": 738.1681518554688,
        "y": 481.1862487792969,
        "z": -65.11751556396484
      },
      {
        "x": 587.1693115234375,
        "y": 481.1862487792969,
        "z": 119.18101501464844
      }
    ],
    "yZeroAnchor": 481.1862487792969,
    "areaGroupName": {
      "text": ""
    },
    "enableHeightCheck": true,
    "top": 998.5999755859375,
    "bottom": -121.5999984741211,
    "auxBusName": {
      "text": ""
    },
    "enableChangeStates": true,
    "enterStates": [
      {
        "group": {
          "text": "StateGroup_specialArea"
        },
        "param3": {
          "text": "State_CYJY_Level1"
        }
      }
    ],
    "leaveStates": [
      {
        "group": {
          "text": "StateGroup_specialArea"
        },
        "param3": {
          "text": "None"
        }
      }
    ]
  },
  {
    "areaName": "AudioArea_13-13(6001)",
    "shortID": 291969554,
    "areaPoints": [
      {
        "x": 495.17138671875,
        "y": 447.554443359375,
        "z": 405.912353515625
      },
      {
        "x": 479.1121520996094,
        "y": 447.554443359375,
        "z": 431.74462890625
      },
      {
        "x": 498.77166748046875,
        "y": 447.554443359375,
        "z": 451.30169677734375
      },
      {
        "x": 523.5687866210938,
        "y": 447.554443359375,
        "z": 438.3103942871094
      }
    ],
    "yZeroAnchor": 447.554443359375,
    "areaGroupName": {
      "text": ""
    },
    "enableHeightCheck": true,
    "top": 20.0,
    "bottom": 0.5,
    "auxBusName": {
      "text": ""
    }
  },
  {
    "areaName": "AudioArea_1-1(6002)",
    "shortID": 2909882164,
    "areaPoints": [
      {
        "x": 1162.5738525390625,
        "y": 744.9281005859375,
        "z": 243.3052978515625
      },
      {
        "x": 1241.8936767578125,
        "y": 744.9281005859375,
        "z": 272.85968017578125
      },
      {
        "x": 1221.525390625,
        "y": 744.9281005859375,
        "z": 356.5295104980469
      },
      {
        "x": 1151.578125,
        "y": 744.9281005859375,
        "z": 341.2533874511719
      }
    ],
    "yZeroAnchor": 744.9281005859375,
    "areaGroupName": {
      "text": ""
    },
    "enableHeightCheck": true,
    "top": 20.0,
    "bottom": 20.0,
    "auxBusName": {
      "text": ""
    }
  },
  {
    "areaName": "AudioArea_2-2(6002)",
    "shortID": 2909882167,
    "areaPoints": [
      {
        "x": 1138.139892578125,
        "y": 737.85595703125,
        "z": 375.6448974609375
      },
      {
        "x": 1054.234130859375,
        "y": 737.85595703125,
        "z": 404.7184143066406
      },
      {
        "x": 1082.3472900390625,
        "y": 737.85595703125,
        "z": 470.1654968261719
      },
      {
        "x": 1140.9207763671875,
        "y": 737.85595703125,
        "z": 457.5936279296875
      }
    ],
    "yZeroAnchor": 737.85595703125,
    "areaGroupName": {
      "text": ""
    },
    "enableHeightCheck": true,
    "top": 41.7400016784668,
    "bottom": 28.200000762939453,
    "auxBusName": {
      "text": ""
    },
    "enableChangeStates": true,
    "enterStates": [
      {
        "group": {
          "text": "StateGroup_specialArea"
        },
        "param3": {
          "text": "State_CYJY_Level1_ZhuKuangDao"
        }
      }
    ],
    "leaveStates": [
      {
        "group": {
          "text": "StateGroup_specialArea"
        },
        "param3": {
          "text": "None"
        }
      }
    ]
  },
  {
    "areaName": "AudioArea_1-1(6003)",
    "shortID": 3983796845,
    "areaPoints": [
      {
        "x": 408.81396484375,
        "y": 65.9102783203125,
        "z": -88.24585723876953
      },
      {
        "x": 818.0739135742188,
        "y": 65.9102783203125,
        "z": -88.71722412109375
      },
      {
        "x": 1386.413330078125,
        "y": 65.9102783203125,
        "z": 90.61376190185547
      },
      {
        "x": 1630.4503173828125,
        "y": 65.9102783203125,
        "z": 804.94482421875
      },
      {
        "x": 1203.148193359375,
        "y": 65.9102783203125,
        "z": 1560.7271728515625
      },
      {
        "x": 903.0741577148438,
        "y": 65.9102783203125,
        "z": 1710.3343505859375
      },
      {
        "x": 534.0307006835938,
        "y": 65.9102783203125,
        "z": 1774.9794921875
      },
      {
        "x": 207.59939575195312,
        "y": 65.9102783203125,
        "z": 1597.30419921875
      },
      {
        "x": -363.78741455078125,
        "y": 65.9102783203125,
        "z": 776.7755126953125
      },
      {
        "x": -158.862548828125,
        "y": 65.9102783203125,
        "z": 296.58721923828125
      }
    ],
    "yZeroAnchor": 65.9102783203125,
    "areaGroupName": {
      "text": ""
    },
    "enableHeightCheck": true,
    "top": 1384.9000244140625,
    "bottom": 165.6999969482422,
    "isReverb": true,
    "auxBusName": {
      "text": "Aux_SM_Cave_Middle"
    }
  },
  {
    "areaName": "AudioArea_1-1(6004)",
    "shortID": 2910867902,
    "areaPoints": [
      {
        "x": 729.5140991210938,
        "y": 65.92803955078125,
        "z": 1460.0523681640625
      },
      {
        "x": 632.3076782226562,
        "y": 65.92803955078125,
        "z": 1281.999755859375
      },
      {
        "x": 576.2166748046875,
        "y": 65.92803955078125,
        "z": 1107.3250732421875
      },
      {
        "x": 451.724365234375,
        "y": 65.92803955078125,
        "z": 1094.931640625
      },
      {
        "x": 371.7256164550781,
        "y": 65.92803955078125,
        "z": 1180.7677001953125
      },
      {
        "x": 256.578369140625,
        "y": 65.92803955078125,
        "z": 1203.513671875
      },
      {
        "x": 98.29591369628906,
        "y": 65.92803955078125,
        "z": 1352.50146484375
      },
      {
        "x": 306.4776611328125,
        "y": 65.92803955078125,
        "z": 1646.9754638671875
      },
      {
        "x": 688.3090209960938,
        "y": 65.92803955078125,
        "z": 1513.2430419921875
      }
    ],
    "yZeroAnchor": 65.92803955078125,
    "areaGroupName": {
      "text": ""
    },
    "enableHeightCheck": true,
    "top": 224.10000610351562,
    "bottom": 90.4000015258789,
    "isReverb": true,
    "auxBusName": {
      "text": "Aux_SM_Cave_Large"
    },
    "enableChangeStates": true,
    "enterStates": [
      {
        "group": {
          "text": "StateGroup_specialArea"
        },
        "param3": {
          "text": "State_CYJY_Level3_TianKongDao"
        }
      }
    ],
    "leaveStates": [
      {
        "group": {
          "text": "StateGroup_specialArea"
        },
        "param3": {
          "text": "None"
        }
      }
    ]
  },
  {
    "areaName": "AudioArea_2-2(6004)",
    "shortID": 2910867901,
    "areaPoints": [
      {
        "x": 466.59417724609375,
        "y": 63.9208984375,
        "z": 1004.8511352539062
      },
      {
        "x": 362.10931396484375,
        "y": 63.9208984375,
        "z": 1042.5911865234375
      },
      {
        "x": 317.36468505859375,
        "y": 63.9208984375,
        "z": 1133.0384521484375
      },
      {
        "x": 367.7231140136719,
        "y": 63.9208984375,
        "z": 1169.37744140625
      },
      {
        "x": 417.4141845703125,
        "y": 63.9208984375,
        "z": 1128.9774169921875
      }
    ],
    "yZeroAnchor": 63.9208984375,
    "areaGroupName": {
      "text": ""
    },
    "enableHeightCheck": true,
    "top": 96.19999694824219,
    "bottom": 20.0,
    "auxBusName": {
      "text": ""
    },
    "enableChangeStates": true,
    "enterStates": [
      {
        "group": {
          "text": "StateGroup_specialArea"
        },
        "param3": {
          "text": "State_CYJY_Level3"
        }
      }
    ],
    "leaveStates": [
      {
        "group": {
          "text": "StateGroup_specialArea"
        },
        "param3": {
          "text": "None"
        }
      }
    ]
  }
]