[
  {
    "areaName": "AudioArea_1-1(5005)",
    "shortID": 798015867,
    "areaPoints": [
      {
        "x": 288.5376892089844,
        "y": 236.39999389648438,
        "z": 105.47164916992188
      },
      {
        "x": 294.50640869140625,
        "y": 236.39999389648438,
        "z": 108.10464477539062
      },
      {
        "x": 304.4909973144531,
        "y": 236.39999389648438,
        "z": 109.49044799804688
      },
      {
        "x": 349.9630126953125,
        "y": 236.39999389648438,
        "z": 159.82101440429688
      },
      {
        "x": 365.13641357421875,
        "y": 236.39999389648438,
        "z": 209.27804565429688
      },
      {
        "x": 382.47637939453125,
        "y": 236.39999389648438,
        "z": 257.5564270019531
      },
      {
        "x": 363.3994140625,
        "y": 236.39999389648438,
        "z": 304.3226013183594
      },
      {
        "x": 344.35394287109375,
        "y": 236.39999389648438,
        "z": 322.53948974609375
      },
      {
        "x": 322.1502380371094,
        "y": 236.39999389648438,
        "z": 354.19635009765625
      },
      {
        "x": 270.0736999511719,
        "y": 236.39999389648438,
        "z": 356.70416259765625
      },
      {
        "x": 234.95584106445312,
        "y": 236.39999389648438,
        "z": 350.04815673828125
      },
      {
        "x": 206.79476928710938,
        "y": 236.39999389648438,
        "z": 325.18060302734375
      },
      {
        "x": 142.03736877441406,
        "y": 236.39999389648438,
        "z": 259.87811279296875
      },
      {
        "x": 148.66099548339844,
        "y": 236.39999389648438,
        "z": 211.3495635986328
      },
      {
        "x": 161.53160095214844,
        "y": 236.39999389648438,
        "z": 186.40850830078125
      },
      {
        "x": 188.0714569091797,
        "y": 236.39999389648438,
        "z": 158.5958251953125
      },
      {
        "x": 235.7987823486328,
        "y": 236.39999389648438,
        "z": 126.96466064453125
      },
      {
        "x": 266.75067138671875,
        "y": 236.39999389648438,
        "z": 104.92137145996094
      }
    ],
    "yZeroAnchor": 236.39999389648438,
    "areaGroupName": {
      "text": ""
    },
    "enableHeightCheck": true,
    "top": 39.70000076293945,
    "bottom": 20.0,
    "isAmbience": true,
    "enterEvents": [
      {
        "text": "Play_Amb_YuanXiaGong_Cave"
      }
    ],
    "leaveEvents": [
      {
        "text": "Stop_Amb_YuanXiaGong_Cave"
      }
    ],
    "isReverb": true,
    "auxBusName": {
      "text": "Aux_SM_Cave_Large"
    }
  },
  {
    "areaName": "AudioArea_2-2(5005)",
    "shortID": 798015864,
    "areaPoints": [
      {
        "x": 539.4852905273438,
        "y": 173.18624877929688,
        "z": 631.10400390625
      },
      {
        "x": 544.6751708984375,
        "y": 173.18624877929688,
        "z": 640.4779663085938
      },
      {
        "x": 526.8639526367188,
        "y": 173.18624877929688,
        "z": 649.7173461914062
      },
      {
        "x": 531.4073486328125,
        "y": 173.18624877929688,
        "z": 658.3216552734375
      },
      {
        "x": 514.71630859375,
        "y": 173.18624877929688,
        "z": 667.57861328125
      },
      {
        "x": 505.4842529296875,
        "y": 173.18624877929688,
        "z": 650.6524047851562
      },
      {
        "x": 513.4213256835938,
        "y": 173.18624877929688,
        "z": 646.2418212890625
      }
    ],
    "yZeroAnchor": 173.18624877929688,
    "areaGroupName": {
      "text": ""
    },
    "enableHeightCheck": true,
    "top": 9.0,
    "bottom": 20.0,
    "isAmbience": true,
    "enterEvents": [
      {
        "text": "Play_Amb_YuanXiaGong_Cave"
      }
    ],
    "leaveEvents": [
      {
        "text": "Stop_Amb_YuanXiaGong_Cave"
      }
    ],
    "isReverb": true,
    "auxBusName": {
      "text": "Aux_SM_Cave_Small"
    }
  },
  {
    "areaName": "AudioArea_3-3(5005)",
    "shortID": 798015865,
    "areaPoints": [
      {
        "x": 616.3310546875,
        "y": 163.8909912109375,
        "z": 744.2943115234375
      },
      {
        "x": 655.8596801757812,
        "y": 163.8909912109375,
        "z": 737.1569213867188
      },
      {
        "x": 663.1688842773438,
        "y": 163.8909912109375,
        "z": 766.3802490234375
      },
      {
        "x": 661.4301147460938,
        "y": 163.8909912109375,
        "z": 776.7484741210938
      },
      {
        "x": 655.2408447265625,
        "y": 163.8909912109375,
        "z": 784.9990234375
      },
      {
        "x": 653.8460083007812,
        "y": 163.8909912109375,
        "z": 788.28857421875
      },
      {
        "x": 642.2468872070312,
        "y": 163.8909912109375,
        "z": 786.5953369140625
      },
      {
        "x": 630.0272216796875,
        "y": 163.8909912109375,
        "z": 785.7120361328125
      },
      {
        "x": 615.6728515625,
        "y": 163.8909912109375,
        "z": 787.4107666015625
      }
    ],
    "yZeroAnchor": 163.8909912109375,
    "areaGroupName": {
      "text": ""
    },
    "enableHeightCheck": true,
    "top": 24.100000381469727,
    "bottom": 20.0,
    "isAmbience": true,
    "enterEvents": [
      {
        "text": "Play_Amb_YuanXiaGong_Cave"
      }
    ],
    "leaveEvents": [
      {
        "text": "Stop_Amb_YuanXiaGong_Cave"
      }
    ],
    "isReverb": true,
    "auxBusName": {
      "text": "Aux_SM_Cave_Small"
    }
  },
  {
    "areaName": "AudioArea_4-4(5005)",
    "shortID": 798015870,
    "areaPoints": [
      {
        "x": 636.686767578125,
        "y": 219.72254943847656,
        "z": 633.6259765625
      },
      {
        "x": 633.20947265625,
        "y": 219.72254943847656,
        "z": 622.51171875
      },
      {
        "x": 645.9183959960938,
        "y": 219.72254943847656,
        "z": 619.4098510742188
      },
      {
        "x": 659.698486328125,
        "y": 219.72254943847656,
        "z": 615.8941650390625
      },
      {
        "x": 674.67333984375,
        "y": 219.72254943847656,
        "z": 621.53759765625
      },
      {
        "x": 670.5794067382812,
        "y": 219.72254943847656,
        "z": 635.2509155273438
      }
    ],
    "yZeroAnchor": 219.72254943847656,
    "areaGroupName": {
      "text": ""
    },
    "enableHeightCheck": true,
    "top": 20.0,
    "bottom": 20.0,
    "isReverb": true,
    "auxBusName": {
      "text": "Aux_SM_Cave_Small"
    }
  },
  {
    "areaName": "AudioArea_5-5(5005)",
    "shortID": 798015871,
    "areaPoints": [
      {
        "x": 382.90228271484375,
        "y": 124.92484283447266,
        "z": 872.5845336914062
      },
      {
        "x": 357.52294921875,
        "y": 124.92484283447266,
        "z": 876.688232421875
      },
      {
        "x": 344.1690673828125,
        "y": 124.92484283447266,
        "z": 876.9334106445312
      },
      {
        "x": 362.806396484375,
        "y": 124.92484283447266,
        "z": 909.3595581054688
      },
      {
        "x": 362.487548828125,
        "y": 124.92484283447266,
        "z": 919.8208618164062
      },
      {
        "x": 361.4202575683594,
        "y": 124.92484283447266,
        "z": 945.39453125
      },
      {
        "x": 348.5313720703125,
        "y": 124.92484283447266,
        "z": 945.6035766601562
      },
      {
        "x": 347.20819091796875,
        "y": 124.92484283447266,
        "z": 931.5897827148438
      },
      {
        "x": 342.4814453125,
        "y": 124.92484283447266,
        "z": 926.2089233398438
      },
      {
        "x": 336.17718505859375,
        "y": 124.92484283447266,
        "z": 918.7860717773438
      },
      {
        "x": 326.9376220703125,
        "y": 124.92484283447266,
        "z": 911.7172241210938
      },
      {
        "x": 324.44940185546875,
        "y": 124.92484283447266,
        "z": 902.1630859375
      },
      {
        "x": 320.2430725097656,
        "y": 124.92484283447266,
        "z": 890.1469116210938
      },
      {
        "x": 313.3036193847656,
        "y": 124.92484283447266,
        "z": 890.3130493164062
      },
      {
        "x": 302.7486572265625,
        "y": 124.92484283447266,
        "z": 892.4899291992188
      },
      {
        "x": 299.26995849609375,
        "y": 124.92484283447266,
        "z": 883.1246948242188
      },
      {
        "x": 294.9832763671875,
        "y": 124.92484283447266,
        "z": 863.65625
      },
      {
        "x": 338.5301818847656,
        "y": 124.92484283447266,
        "z": 854.0874633789062
      },
      {
        "x": 353.5111083984375,
        "y": 124.92484283447266,
        "z": 856.7113647460938
      },
      {
        "x": 353.2755432128906,
        "y": 124.92484283447266,
        "z": 862.91552734375
      },
      {
        "x": 373.4862060546875,
        "y": 124.92484283447266,
        "z": 862.8959350585938
      },
      {
        "x": 378.2595520019531,
        "y": 124.92484283447266,
        "z": 853.4937133789062
      },
      {
        "x": 386.1583557128906,
        "y": 124.92484283447266,
        "z": 854.0022583007812
      },
      {
        "x": 390.0635986328125,
        "y": 124.92484283447266,
        "z": 859.3055419921875
      }
    ],
    "yZeroAnchor": 124.92484283447266,
    "areaGroupName": {
      "text": ""
    },
    "enableHeightCheck": true,
    "top": 16.100000381469727,
    "bottom": 20.0,
    "isAmbience": true,
    "enterEvents": [
      {
        "text": "Play_Amb_YuanXiaGong_Cave"
      }
    ],
    "leaveEvents": [
      {
        "text": "Stop_Amb_YuanXiaGong_Cave"
      }
    ],
    "isReverb": true,
    "auxBusName": {
      "text": "Aux_SM_Cave_Small"
    }
  },
  {
    "areaName": "AudioArea_6-6(5005)",
    "shortID": 798015868,
    "areaPoints": [
      {
        "x": 661.82177734375,
        "y": 256.06787109375,
        "z": 588.08154296875
      },
      {
        "x": 641.6670532226562,
        "y": 256.06787109375,
        "z": 599.8073120117188
      },
      {
        "x": 649.2147827148438,
        "y": 256.06787109375,
        "z": 608.2688598632812
      },
      {
        "x": 660.944091796875,
        "y": 256.06787109375,
        "z": 608.8367309570312
      },
      {
        "x": 670.4318237304688,
        "y": 256.06787109375,
        "z": 620.3202514648438
      },
      {
        "x": 692.01611328125,
        "y": 256.06787109375,
        "z": 627.65185546875
      },
      {
        "x": 721.524658203125,
        "y": 256.06787109375,
        "z": 604.6118774414062
      },
      {
        "x": 761.6383666992188,
        "y": 256.06787109375,
        "z": 573.7883911132812
      },
      {
        "x": 779.7172241210938,
        "y": 256.06787109375,
        "z": 561.88232421875
      },
      {
        "x": 767.3573608398438,
        "y": 256.06787109375,
        "z": 537.82421875
      },
      {
        "x": 735.0310668945312,
        "y": 256.06787109375,
        "z": 498.44732666015625
      },
      {
        "x": 692.3856201171875,
        "y": 256.06787109375,
        "z": 492.11395263671875
      },
      {
        "x": 657.7505493164062,
        "y": 256.06787109375,
        "z": 494.64129638671875
      },
      {
        "x": 654.4061889648438,
        "y": 256.06787109375,
        "z": 529.067138671875
      },
      {
        "x": 659.33056640625,
        "y": 256.06787109375,
        "z": 554.574951171875
      }
    ],
    "yZeroAnchor": 256.06787109375,
    "areaGroupName": {
      "text": ""
    },
    "enableHeightCheck": true,
    "top": 40.0,
    "bottom": 20.0,
    "isAmbience": true,
    "enterEvents": [
      {
        "text": "Play_Amb_YuanXiaGong_Green"
      }
    ],
    "leaveEvents": [
      {
        "text": "Stop_Amb_YuanXiaGong_Green"
      }
    ],
    "auxBusName": {
      "text": ""
    }
  },
  {
    "areaName": "AudioArea_7-7(5005)",
    "shortID": 798015869,
    "areaPoints": [
      {
        "x": 760.681396484375,
        "y": 14.601818084716797,
        "z": 314.38800048828125
      },
      {
        "x": 149.7503204345703,
        "y": 14.601818084716797,
        "z": 591.3475341796875
      },
      {
        "x": -67.84408569335938,
        "y": 14.601818084716797,
        "z": 407.1618347167969
      },
      {
        "x": -15.69952392578125,
        "y": 14.601818084716797,
        "z": 53.892791748046875
      },
      {
        "x": 391.1360168457031,
        "y": 14.601818084716797,
        "z": -183.85537719726562
      }
    ],
    "yZeroAnchor": 14.601818084716797,
    "areaGroupName": {
      "text": "111"
    },
    "enableHeightCheck": true,
    "top": 196.1999969482422,
    "bottom": 20.0,
    "auxBusName": {
      "text": ""
    },
    "enableChangeStates": true,
    "enterStates": [
      {
        "group": {
          "text": "StateGroup_specialArea"
        },
        "param3": {
          "text": "State_YXG_DaRiYuYu_Bottom"
        }
      },
      {
        "group": {
          "text": "StateGroup_gameZones"
        },
        "param3": {
          "text": "State_YXG_DaRiYuYu"
        }
      }
    ],
    "leaveStates": [
      {
        "group": {
          "text": "StateGroup_specialArea"
        },
        "param3": {
          "text": "None"
        }
      }
    ]
  },
  {
    "areaName": "AudioArea_8-8(5005)",
    "shortID": 798015858,
    "areaPoints": [
      {
        "x": 419.6445007324219,
        "y": 136.12005615234375,
        "z": 31.771095275878906
      },
      {
        "x": 321.74029541015625,
        "y": 136.12005615234375,
        "z": 447.6399841308594
      },
      {
        "x": 367.728271484375,
        "y": 136.12005615234375,
        "z": 461.64898681640625
      },
      {
        "x": 469.242919921875,
        "y": 136.12005615234375,
        "z": 374.3359375
      },
      {
        "x": 475.6356201171875,
        "y": 136.12005615234375,
        "z": 230.87338256835938
      }
    ],
    "yZeroAnchor": 136.12005615234375,
    "areaGroupName": {
      "text": "111"
    },
    "enableHeightCheck": true,
    "top": 129.5,
    "bottom": 20.0,
    "auxBusName": {
      "text": ""
    },
    "enableChangeStates": true,
    "enterStates": [
      {
        "group": {
          "text": "StateGroup_specialArea"
        },
        "param3": {
          "text": "State_YXG_DaRiYuYu_Bottom"
        }
      },
      {
        "group": {
          "text": "StateGroup_gameZones"
        },
        "param3": {
          "text": "State_YXG_DaRiYuYu"
        }
      }
    ],
    "leaveStates": [
      {
        "group": {
          "text": "StateGroup_specialArea"
        },
        "param3": {
          "text": "None"
        }
      }
    ]
  },
  {
    "areaName": "AudioArea_10-10(5005)",
    "shortID": 1541444753,
    "areaPoints": [
      {
        "x": 362.98712158203125,
        "y": 250.3312530517578,
        "z": 295.75994873046875
      },
      {
        "x": 379.14727783203125,
        "y": 250.3312530517578,
        "z": 268.1839599609375
      },
      {
        "x": 346.2421569824219,
        "y": 250.3312530517578,
        "z": 166.5093994140625
      },
      {
        "x": 312.9828186035156,
        "y": 250.3312530517578,
        "z": 107.05683135986328
      },
      {
        "x": 245.85801696777344,
        "y": 250.3312530517578,
        "z": 78.49080657958984
      },
      {
        "x": 194.0152130126953,
        "y": 250.3312530517578,
        "z": 154.36106872558594
      },
      {
        "x": 149.16400146484375,
        "y": 250.3312530517578,
        "z": 224.4578857421875
      },
      {
        "x": 148.5725555419922,
        "y": 250.3312530517578,
        "z": 262.50421142578125
      },
      {
        "x": 164.95143127441406,
        "y": 250.3312530517578,
        "z": 274.827880859375
      },
      {
        "x": 215.6671905517578,
        "y": 250.3312530517578,
        "z": 285.7655334472656
      },
      {
        "x": 218.83309936523438,
        "y": 250.3312530517578,
        "z": 326.4432678222656
      },
      {
        "x": 262.26104736328125,
        "y": 250.3312530517578,
        "z": 356.650634765625
      },
      {
        "x": 360.85357666015625,
        "y": 250.3312530517578,
        "z": 351.0865173339844
      }
    ],
    "yZeroAnchor": 250.3312530517578,
    "areaGroupName": {
      "text": ""
    },
    "enableHeightCheck": true,
    "top": 26.0,
    "bottom": 67.5,
    "auxBusName": {
      "text": ""
    },
    "enableChangeStates": true,
    "enterStates": [
      {
        "group": {
          "text": "StateGroup_specialArea"
        },
        "param3": {
          "text": "State_YXG_DaRiYuYu_Cave"
        }
      }
    ],
    "leaveStates": [
      {
        "group": {
          "text": "StateGroup_specialArea"
        },
        "param3": {
          "text": "None"
        }
      }
    ]
  },
  {
    "areaName": "AudioArea_11-11(5005)",
    "shortID": 1541444752,
    "areaPoints": [
      {
        "x": 292.93359375,
        "y": 326.7982482910156,
        "z": 90.35098266601562
      },
      {
        "x": 228.45851135253906,
        "y": 326.7982482910156,
        "z": 104.37950134277344
      },
      {
        "x": 212.5723419189453,
        "y": 326.7982482910156,
        "z": 63.360904693603516
      },
      {
        "x": 266.5405578613281,
        "y": 326.7982482910156,
        "z": 44.013458251953125
      }
    ],
    "yZeroAnchor": 326.7982482910156,
    "areaGroupName": {
      "text": ""
    },
    "enableHeightCheck": true,
    "top": 55.20000076293945,
    "bottom": 7.710000038146973,
    "auxBusName": {
      "text": ""
    },
    "enableChangeStates": true,
    "enterStates": [
      {
        "group": {
          "text": "StateGroup_specialArea"
        },
        "param3": {
          "text": "State_YXG_DaRiYuYu_Edge"
        }
      }
    ],
    "leaveStates": [
      {
        "group": {
          "text": "StateGroup_specialArea"
        },
        "param3": {
          "text": "None"
        }
      }
    ]
  },
  {
    "areaName": "AudioArea_12-12(5005)",
    "shortID": 1541444755,
    "areaPoints": [
      {
        "x": 600.3908081054688,
        "y": 210.04843139648438,
        "z": 656.109619140625
      },
      {
        "x": 626.005859375,
        "y": 210.04843139648438,
        "z": 640.9179077148438
      },
      {
        "x": 605.39013671875,
        "y": 210.04843139648438,
        "z": 606.7727661132812
      },
      {
        "x": 580.9841918945312,
        "y": 210.04843139648438,
        "z": 622.0147094726562
      },
      {
        "x": 589.8644409179688,
        "y": 210.04843139648438,
        "z": 639.07421875
      },
      {
        "x": 588.73046875,
        "y": 210.04843139648438,
        "z": 645.9321899414062
      },
      {
        "x": 595.8072509765625,
        "y": 210.04843139648438,
        "z": 647.3448486328125
      }
    ],
    "yZeroAnchor": 210.04843139648438,
    "areaGroupName": {
      "text": ""
    },
    "enableHeightCheck": true,
    "top": 5.599999904632568,
    "bottom": 20.0,
    "isAmbience": true,
    "enterEvents": [
      {
        "text": "Play_Amb_YuanXiaGong_Cave"
      }
    ],
    "leaveEvents": [
      {
        "text": "Stop_Amb_YuanXiaGong_Cave"
      }
    ],
    "isReverb": true,
    "auxBusName": {
      "text": "Aux_SM_Cave_Small"
    }
  },
  {
    "areaName": "AudioArea_13-13(5005)",
    "shortID": 1541444754,
    "areaPoints": [
      {
        "x": 437.3820495605469,
        "y": 213.90530395507812,
        "z": 367.8971862792969
      },
      {
        "x": 519.8540649414062,
        "y": 213.90530395507812,
        "z": 336.4070739746094
      },
      {
        "x": 378.8321533203125,
        "y": 213.90530395507812,
        "z": -39.05067443847656
      },
      {
        "x": 299.63665771484375,
        "y": 213.90530395507812,
        "z": 71.99691772460938
      },
      {
        "x": 414.8443908691406,
        "y": 213.90530395507812,
        "z": 321.0481262207031
      }
    ],
    "yZeroAnchor": 213.90530395507812,
    "areaGroupName": {
      "text": "111"
    },
    "enableHeightCheck": true,
    "top": 58.599998474121094,
    "bottom": 132.5,
    "auxBusName": {
      "text": ""
    },
    "enableChangeStates": true,
    "enterStates": [
      {
        "group": {
          "text": "StateGroup_specialArea"
        },
        "param3": {
          "text": "State_YXG_DaRiYuYu_Bottom"
        }
      },
      {
        "group": {
          "text": "StateGroup_gameZones"
        },
        "param3": {
          "text": "State_YXG_DaRiYuYu"
        }
      }
    ],
    "leaveStates": [
      {
        "group": {
          "text": "StateGroup_specialArea"
        },
        "param3": {
          "text": "None"
        }
      }
    ]
  },
  {
    "areaName": "AudioArea_14-14(5005)",
    "shortID": 1541444757,
    "areaPoints": [
      {
        "x": 255.68003845214844,
        "y": 265.90972900390625,
        "z": 446.39129638671875
      },
      {
        "x": 220.69969177246094,
        "y": 265.90972900390625,
        "z": 451.0823669433594
      },
      {
        "x": 218.99221801757812,
        "y": 265.90972900390625,
        "z": 427.58245849609375
      },
      {
        "x": 242.40496826171875,
        "y": 265.90972900390625,
        "z": 422.3103332519531
      },
      {
        "x": 254.4247589111328,
        "y": 265.90972900390625,
        "z": 428.0459899902344
      }
    ],
    "yZeroAnchor": 265.90972900390625,
    "areaGroupName": {
      "text": ""
    },
    "enableHeightCheck": true,
    "top": 14.4399995803833,
    "bottom": 20.0,
    "isAmbience": true,
    "enterEvents": [
      {
        "text": "Play_Amb_YuanXiaGong_Cave"
      }
    ],
    "leaveEvents": [
      {
        "text": "Stop_Amb_YuanXiaGong_Cave"
      }
    ],
    "isReverb": true,
    "auxBusName": {
      "text": "Aux_SM_Cave_Small"
    }
  },
  {
    "areaName": "AudioArea_15-15(5005)",
    "shortID": 1541444756,
    "areaPoints": [
      {
        "x": 281.27374267578125,
        "y": 339.5491027832031,
        "z": 233.6730499267578
      },
      {
        "x": 262.2402648925781,
        "y": 339.5491027832031,
        "z": 235.4297332763672
      },
      {
        "x": 263.9888916015625,
        "y": 339.5491027832031,
        "z": 253.3684844970703
      },
      {
        "x": 268.8571472167969,
        "y": 339.5491027832031,
        "z": 253.32826232910156
      },
      {
        "x": 271.5921630859375,
        "y": 339.5491027832031,
        "z": 273.5909423828125
      },
      {
        "x": 281.1265563964844,
        "y": 339.5491027832031,
        "z": 272.73455810546875
      },
      {
        "x": 278.5671081542969,
        "y": 339.5491027832031,
        "z": 252.5848846435547
      },
      {
        "x": 283.3954162597656,
        "y": 339.5491027832031,
        "z": 251.3922882080078
      }
    ],
    "yZeroAnchor": 339.5491027832031,
    "areaGroupName": {
      "text": ""
    },
    "enableHeightCheck": true,
    "top": 8.800000190734863,
    "bottom": 20.0,
    "isAmbience": true,
    "enterEvents": [
      {
        "text": "Play_Amb_YuanXiaGong_Cave"
      }
    ],
    "leaveEvents": [
      {
        "text": "Stop_Amb_YuanXiaGong_Cave"
      }
    ],
    "isReverb": true,
    "auxBusName": {
      "text": "Aux_SM_Cave_Small"
    }
  },
  {
    "areaName": "AudioArea_16-16(5005)",
    "shortID": 1541444759,
    "areaPoints": [
      {
        "x": 253.19302368164062,
        "y": 327.32781982421875,
        "z": 202.72731018066406
      },
      {
        "x": 235.6738739013672,
        "y": 327.32781982421875,
        "z": 194.39813232421875
      },
      {
        "x": 223.52639770507812,
        "y": 327.32781982421875,
        "z": 221.83731079101562
      },
      {
        "x": 241.6130828857422,
        "y": 327.32781982421875,
        "z": 229.40892028808594
      }
    ],
    "yZeroAnchor": 327.32781982421875,
    "areaGroupName": {
      "text": "yuanxiagong"
    },
    "enableHeightCheck": true,
    "top": 10.859999656677246,
    "bottom": 20.0,
    "isAmbience": true,
    "enterEvents": [
      {
        "text": "Play_Amb_YuanXiaGong_Cave"
      }
    ],
    "leaveEvents": [
      {
        "text": "Stop_Amb_YuanXiaGong_Cave"
      }
    ],
    "isReverb": true,
    "auxBusName": {
      "text": "Aux_SM_Cave_Small"
    }
  },
  {
    "areaName": "AudioArea_17-17(5005)",
    "shortID": 1541444758,
    "areaPoints": [
      {
        "x": 255.00730895996094,
        "y": 337.8606262207031,
        "z": 224.38995361328125
      },
      {
        "x": 266.6324768066406,
        "y": 337.8606262207031,
        "z": 197.08444213867188
      },
      {
        "x": 249.2378387451172,
        "y": 337.8606262207031,
        "z": 188.94927978515625
      },
      {
        "x": 244.678466796875,
        "y": 337.8606262207031,
        "z": 198.3623504638672
      },
      {
        "x": 225.76882934570312,
        "y": 337.8606262207031,
        "z": 190.4573974609375
      },
      {
        "x": 221.0244598388672,
        "y": 337.8606262207031,
        "z": 198.72134399414062
      },
      {
        "x": 240.81788635253906,
        "y": 337.8606262207031,
        "z": 207.39828491210938
      },
      {
        "x": 236.90060424804688,
        "y": 337.8606262207031,
        "z": 216.48638916015625
      }
    ],
    "yZeroAnchor": 337.8606262207031,
    "areaGroupName": {
      "text": "yuanxiagong"
    },
    "enableHeightCheck": true,
    "top": 9.699999809265137,
    "bottom": 2.700000047683716,
    "isAmbience": true,
    "enterEvents": [
      {
        "text": "Play_Amb_YuanXiaGong_Cave"
      }
    ],
    "leaveEvents": [
      {
        "text": "Stop_Amb_YuanXiaGong_Cave"
      }
    ],
    "isReverb": true,
    "auxBusName": {
      "text": "Aux_SM_Cave_Small"
    }
  },
  {
    "areaName": "AudioArea_18-18(5005)",
    "shortID": 1541444761,
    "areaPoints": [
      {
        "x": 618.8324584960938,
        "y": 1933.385986328125,
        "z": 590.44921875
      },
      {
        "x": 559.4677124023438,
        "y": 1933.385986328125,
        "z": 627.8226928710938
      },
      {
        "x": 598.3816528320312,
        "y": 1933.385986328125,
        "z": 685.9713745117188
      },
      {
        "x": 648.3800048828125,
        "y": 1933.385986328125,
        "z": 656.7113037109375
      }
    ],
    "yZeroAnchor": 1933.385986328125,
    "areaGroupName": {
      "text": ""
    },
    "enableHeightCheck": true,
    "top": 20.0,
    "bottom": 20.0,
    "isAmbience": true,
    "enterEvents": [
      {
        "text": "Play_Amb_YuanXiaGong_Cave"
      }
    ],
    "leaveEvents": [
      {
        "text": "Stop_Amb_YuanXiaGong_Cave"
      }
    ],
    "isReverb": true,
    "auxBusName": {
      "text": "Aux_SM_Cave_Small"
    }
  },
  {
    "areaName": "AudioArea_2-2(5001)",
    "shortID": 798604180,
    "areaPoints": [
      {
        "x": -349.2223205566406,
        "y": 219.67001342773438,
        "z": 421.1279296875
      },
      {
        "x": -312.82489013671875,
        "y": 219.67001342773438,
        "z": 416.06622314453125
      },
      {
        "x": -321.443359375,
        "y": 219.67001342773438,
        "z": 404.74090576171875
      },
      {
        "x": -334.787353515625,
        "y": 219.67001342773438,
        "z": 402.62640380859375
      },
      {
        "x": -338.5849914550781,
        "y": 219.67001342773438,
        "z": 392.00042724609375
      },
      {
        "x": -328.6609191894531,
        "y": 219.67001342773438,
        "z": 389.1029968261719
      },
      {
        "x": -309.17218017578125,
        "y": 219.67001342773438,
        "z": 380.9102783203125
      },
      {
        "x": -296.6566162109375,
        "y": 219.67001342773438,
        "z": 367.36358642578125
      },
      {
        "x": -293.04608154296875,
        "y": 219.67001342773438,
        "z": 346.9638977050781
      },
      {
        "x": -281.05657958984375,
        "y": 219.67001342773438,
        "z": 334.7284240722656
      },
      {
        "x": -281.1943359375,
        "y": 219.67001342773438,
        "z": 325.420654296875
      },
      {
        "x": -289.9618225097656,
        "y": 219.67001342773438,
        "z": 307.5838317871094
      },
      {
        "x": -303.14959716796875,
        "y": 219.67001342773438,
        "z": 324.3028259277344
      },
      {
        "x": -302.9536437988281,
        "y": 219.67001342773438,
        "z": 332.7044982910156
      },
      {
        "x": -313.2867431640625,
        "y": 219.67001342773438,
        "z": 343.9532165527344
      },
      {
        "x": -320.2529296875,
        "y": 219.67001342773438,
        "z": 333.1953125
      },
      {
        "x": -333.4829406738281,
        "y": 219.67001342773438,
        "z": 342.1307067871094
      },
      {
        "x": -341.00262451171875,
        "y": 219.67001342773438,
        "z": 361.9717102050781
      },
      {
        "x": -347.3330383300781,
        "y": 219.67001342773438,
        "z": 379.0103454589844
      },
      {
        "x": -358.09429931640625,
        "y": 219.67001342773438,
        "z": 386.03448486328125
      },
      {
        "x": -361.950439453125,
        "y": 219.67001342773438,
        "z": 404.0661315917969
      },
      {
        "x": -351.0552062988281,
        "y": 219.67001342773438,
        "z": 403.95428466796875
      },
      {
        "x": -347.5387878417969,
        "y": 219.67001342773438,
        "z": 408.013671875
      }
    ],
    "yZeroAnchor": 219.67001342773438,
    "areaGroupName": {
      "text": ""
    },
    "enableHeightCheck": true,
    "top": 27.0,
    "bottom": 20.0,
    "isAmbience": true,
    "enterEvents": [
      {
        "text": "Set_volume_amb_explore_water"
      }
    ],
    "leaveEvents": [
      {
        "text": "Reset_volume_amb_explore_water"
      }
    ],
    "isReverb": true,
    "auxBusName": {
      "text": "Aux_SM_Cave_Middle"
    }
  },
  {
    "areaName": "AudioArea_1-1(5004)",
    "shortID": 1871533122,
    "areaPoints": [
      {
        "x": 181.91452026367188,
        "y": 211.84494018554688,
        "z": 1504.958251953125
      },
      {
        "x": 105.05033874511719,
        "y": 211.84494018554688,
        "z": 1631.3917236328125
      },
      {
        "x": -61.10508728027344,
        "y": 211.84494018554688,
        "z": 1709.041015625
      },
      {
        "x": -276.55450439453125,
        "y": 211.84494018554688,
        "z": 1723.9085693359375
      },
      {
        "x": -415.0072326660156,
        "y": 211.84494018554688,
        "z": 1675.39794921875
      },
      {
        "x": -453.6120910644531,
        "y": 211.84494018554688,
        "z": 1663.3720703125
      },
      {
        "x": -584.7554321289062,
        "y": 211.84494018554688,
        "z": 1488.6260986328125
      },
      {
        "x": -578.3116455078125,
        "y": 211.84494018554688,
        "z": 1322.9683837890625
      },
      {
        "x": -426.4073791503906,
        "y": 211.84494018554688,
        "z": 1311.906494140625
      },
      {
        "x": -267.9997253417969,
        "y": 211.84494018554688,
        "z": 1422.377685546875
      },
      {
        "x": -167.38909912109375,
        "y": 211.84494018554688,
        "z": 1373.4769287109375
      },
      {
        "x": -26.10672378540039,
        "y": 211.84494018554688,
        "z": 1304.859130859375
      },
      {
        "x": 13.650524139404297,
        "y": 211.84494018554688,
        "z": 1217.1953125
      },
      {
        "x": 53.103145599365234,
        "y": 211.84494018554688,
        "z": 1173.760498046875
      },
      {
        "x": 129.8798828125,
        "y": 211.84494018554688,
        "z": 1136.4234619140625
      },
      {
        "x": 156.50765991210938,
        "y": 211.84494018554688,
        "z": 1143.9407958984375
      },
      {
        "x": 200.17698669433594,
        "y": 211.84494018554688,
        "z": 1181.1954345703125
      },
      {
        "x": 214.52406311035156,
        "y": 211.84494018554688,
        "z": 1227.810302734375
      },
      {
        "x": 266.15228271484375,
        "y": 211.84494018554688,
        "z": 1277.531982421875
      },
      {
        "x": 287.85791015625,
        "y": 211.84494018554688,
        "z": 1429.9481201171875
      }
    ],
    "yZeroAnchor": 211.84494018554688,
    "areaGroupName": {
      "text": ""
    },
    "enableHeightCheck": true,
    "top": 194.3300018310547,
    "bottom": 192.3000030517578,
    "isReverb": true,
    "auxBusName": {
      "text": "Aux_SM_Cave_Large"
    }
  },
  {
    "areaName": "AudioArea_2-2(5004)",
    "shortID": 1871533121,
    "areaPoints": [
      {
        "x": 123.84088134765625,
        "y": 215.70751953125,
        "z": 1118.0242919921875
      },
      {
        "x": 166.648681640625,
        "y": 215.70751953125,
        "z": 1126.3363037109375
      },
      {
        "x": 169.9218292236328,
        "y": 215.70751953125,
        "z": 1146.9586181640625
      },
      {
        "x": 134.96730041503906,
        "y": 215.70751953125,
        "z": 1135.941162109375
      },
      {
        "x": 118.72369384765625,
        "y": 215.70751953125,
        "z": 1127.08935546875
      }
    ],
    "yZeroAnchor": 215.70751953125,
    "areaGroupName": {
      "text": ""
    },
    "enableHeightCheck": true,
    "top": 20.0,
    "bottom": 20.0,
    "auxBusName": {
      "text": ""
    },
    "enableChangeStates": true,
    "enterStates": [
      {
        "group": {
          "text": "StateGroup_specialArea"
        },
        "param3": {
          "text": "State_YXG_SheChangZhiLu_Roof"
        }
      },
      {
        "group": {
          "text": "StateGroup_gameZones"
        },
        "param3": {
          "text": "State_YXG"
        }
      }
    ],
    "leaveStates": [
      {
        "group": {
          "text": "StateGroup_specialArea"
        },
        "param3": {
          "text": "None"
        }
      }
    ]
  },
  {
    "areaName": "AudioArea_3-3(5004)",
    "shortID": 1871533120,
    "areaPoints": [
      {
        "x": 145.8100128173828,
        "y": 216.15565490722656,
        "z": 1165.2388916015625
      },
      {
        "x": 152.50833129882812,
        "y": 216.15565490722656,
        "z": 1142.6795654296875
      },
      {
        "x": 131.46754455566406,
        "y": 216.15565490722656,
        "z": 1134.818603515625
      },
      {
        "x": 124.28582000732422,
        "y": 216.15565490722656,
        "z": 1158.6522216796875
      }
    ],
    "yZeroAnchor": 216.15565490722656,
    "areaGroupName": {
      "text": ""
    },
    "enableHeightCheck": true,
    "top": 20.0,
    "bottom": 20.0,
    "auxBusName": {
      "text": ""
    },
    "enableChangeStates": true,
    "enterStates": [
      {
        "group": {
          "text": "StateGroup_specialArea"
        },
        "param3": {
          "text": "State_YXG_SheChangZhiLu_Roof_02"
        }
      },
      {
        "group": {
          "text": "StateGroup_gameZones"
        },
        "param3": {
          "text": "State_YXG"
        }
      }
    ],
    "leaveStates": [
      {
        "group": {
          "text": "StateGroup_specialArea"
        },
        "param3": {
          "text": "None"
        }
      }
    ]
  },
  {
    "areaName": "AudioArea_1-1(5006)",
    "shortID": 797471412,
    "areaPoints": [
      {
        "x": 587.4386596679688,
        "y": 123.21703338623047,
        "z": -454.91522216796875
      },
      {
        "x": 558.12548828125,
        "y": 123.21703338623047,
        "z": -454.6888427734375
      },
      {
        "x": 558.0482788085938,
        "y": 123.21703338623047,
        "z": -465.05908203125
      },
      {
        "x": 537.0121459960938,
        "y": 123.21703338623047,
        "z": -465.1149597167969
      },
      {
        "x": 537.3424072265625,
        "y": 123.21703338623047,
        "z": -474.7763671875
      },
      {
        "x": 557.80908203125,
        "y": 123.21703338623047,
        "z": -474.6114196777344
      },
      {
        "x": 558.060546875,
        "y": 123.21703338623047,
        "z": -505.6673278808594
      },
      {
        "x": 554.7874755859375,
        "y": 123.21703338623047,
        "z": -524.662109375
      },
      {
        "x": 589.902587890625,
        "y": 123.21703338623047,
        "z": -524.7597045898438
      },
      {
        "x": 587.8408813476562,
        "y": 123.21703338623047,
        "z": -505.3242492675781
      }
    ],
    "yZeroAnchor": 123.21703338623047,
    "areaGroupName": {
      "text": ""
    },
    "enableHeightCheck": true,
    "top": 20.399999618530273,
    "bottom": 20.0,
    "isAmbience": true,
    "enterEvents": [
      {
        "text": "Play_Amb_YuanXiaGong_Cave"
      }
    ],
    "leaveEvents": [
      {
        "text": "Stop_Amb_YuanXiaGong_Cave"
      }
    ],
    "isReverb": true,
    "auxBusName": {
      "text": "Aux_SM_Cave_Small"
    }
  },
  {
    "areaName": "AudioArea_2-2(5006)",
    "shortID": 797471415,
    "areaPoints": [
      {
        "x": 462.39788818359375,
        "y": 139.98245239257812,
        "z": -297.0490417480469
      },
      {
        "x": 472.9645080566406,
        "y": 139.98245239257812,
        "z": -246.93031311035156
      },
      {
        "x": 497.7059631347656,
        "y": 139.98245239257812,
        "z": -230.44349670410156
      },
      {
        "x": 514.5469970703125,
        "y": 139.98245239257812,
        "z": -244.8055877685547
      },
      {
        "x": 533.497314453125,
        "y": 139.98245239257812,
        "z": -264.30181884765625
      },
      {
        "x": 548.3467407226562,
        "y": 139.98245239257812,
        "z": -303.8755187988281
      },
      {
        "x": 554.8096923828125,
        "y": 139.98245239257812,
        "z": -324.77130126953125
      },
      {
        "x": 547.728515625,
        "y": 139.98245239257812,
        "z": -339.82666015625
      },
      {
        "x": 536.26171875,
        "y": 139.98245239257812,
        "z": -341.5315856933594
      },
      {
        "x": 510.68084716796875,
        "y": 139.98245239257812,
        "z": -354.11700439453125
      },
      {
        "x": 481.92755126953125,
        "y": 139.98245239257812,
        "z": -340.734375
      },
      {
        "x": 466.71575927734375,
        "y": 139.98245239257812,
        "z": -314.9913330078125
      }
    ],
    "yZeroAnchor": 139.98245239257812,
    "areaGroupName": {
      "text": ""
    },
    "enableHeightCheck": true,
    "top": 58.0,
    "bottom": 31.200000762939453,
    "isAmbience": true,
    "enterEvents": [
      {
        "text": "Play_Amb_YuanXiaGong_Green"
      }
    ],
    "leaveEvents": [
      {
        "text": "Stop_Amb_YuanXiaGong_Green"
      }
    ],
    "auxBusName": {
      "text": ""
    }
  },
  {
    "areaName": "AudioArea_3-3(5006)",
    "shortID": 797471414,
    "areaPoints": [
      {
        "x": 350.8459167480469,
        "y": 134.79444885253906,
        "z": -230.41421508789062
      },
      {
        "x": 358.4828186035156,
        "y": 134.79444885253906,
        "z": -255.54571533203125
      },
      {
        "x": 456.41937255859375,
        "y": 134.79444885253906,
        "z": -234.90628051757812
      },
      {
        "x": 538.328369140625,
        "y": 134.79444885253906,
        "z": -186.3348846435547
      },
      {
        "x": 462.7951354980469,
        "y": 134.79444885253906,
        "z": -108.74396514892578
      },
      {
        "x": 354.2601013183594,
        "y": 134.79444885253906,
        "z": -114.16812896728516
      },
      {
        "x": 403.957763671875,
        "y": 134.79444885253906,
        "z": -157.98350524902344
      }
    ],
    "yZeroAnchor": 134.79444885253906,
    "areaGroupName": {
      "text": ""
    },
    "enableHeightCheck": true,
    "top": 87.19999694824219,
    "bottom": 105.5999984741211,
    "auxBusName": {
      "text": ""
    }
  },
  {
    "areaName": "AudioArea_4-4(5006)",
    "shortID": 797471409,
    "areaPoints": [
      {
        "x": 217.9887237548828,
        "y": 175.1103057861328,
        "z": -432.00103759765625
      },
      {
        "x": 209.162841796875,
        "y": 175.1103057861328,
        "z": -437.45849609375
      },
      {
        "x": 215.0227813720703,
        "y": 175.1103057861328,
        "z": -446.30963134765625
      },
      {
        "x": 198.18275451660156,
        "y": 175.1103057861328,
        "z": -456.16278076171875
      },
      {
        "x": 178.75611877441406,
        "y": 175.1103057861328,
        "z": -425.16241455078125
      },
      {
        "x": 185.79002380371094,
        "y": 175.1103057861328,
        "z": -417.4740905761719
      },
      {
        "x": 202.73690795898438,
        "y": 175.1103057861328,
        "z": -405.5826416015625
      },
      {
        "x": 207.73257446289062,
        "y": 175.1103057861328,
        "z": -415.1987609863281
      },
      {
        "x": 212.24148559570312,
        "y": 175.1103057861328,
        "z": -416.4087829589844
      },
      {
        "x": 214.31500244140625,
        "y": 175.1103057861328,
        "z": -419.8098449707031
      },
      {
        "x": 212.8043975830078,
        "y": 175.1103057861328,
        "z": -423.66571044921875
      }
    ],
    "yZeroAnchor": 175.1103057861328,
    "areaGroupName": {
      "text": "yuanxiagong"
    },
    "enableHeightCheck": true,
    "top": 14.899999618530273,
    "bottom": 20.0,
    "isAmbience": true,
    "enterEvents": [
      {
        "text": "Set_volume_amb_explore_water"
      }
    ],
    "leaveEvents": [
      {
        "text": "Reset_volume_amb_explore_water"
      }
    ],
    "isReverb": true,
    "auxBusName": {
      "text": "Aux_SM_Cave_Small"
    }
  },
  {
    "areaName": "AudioArea_5-5(5006)",
    "shortID": 797471408,
    "areaPoints": [
      {
        "x": 182.84466552734375,
        "y": 175.1103057861328,
        "z": -430.6826171875
      },
      {
        "x": 167.28565979003906,
        "y": 175.1103057861328,
        "z": -404.24420166015625
      },
      {
        "x": 157.04367065429688,
        "y": 175.1103057861328,
        "z": -410.0587158203125
      },
      {
        "x": 162.34178161621094,
        "y": 175.1103057861328,
        "z": -419.64996337890625
      },
      {
        "x": 136.5710906982422,
        "y": 175.1103057861328,
        "z": -434.9573974609375
      },
      {
        "x": 121.01053619384766,
        "y": 175.1103057861328,
        "z": -408.0146484375
      },
      {
        "x": 146.93798828125,
        "y": 175.1103057861328,
        "z": -393.0320129394531
      },
      {
        "x": 152.83543395996094,
        "y": 175.1103057861328,
        "z": -401.71002197265625
      },
      {
        "x": 162.71331787109375,
        "y": 175.1103057861328,
        "z": -396.0292663574219
      },
      {
        "x": 157.694580078125,
        "y": 175.1103057861328,
        "z": -388.0840148925781
      },
      {
        "x": 165.94973754882812,
        "y": 175.1103057861328,
        "z": -383.72210693359375
      },
      {
        "x": 191.39065551757812,
        "y": 175.1103057861328,
        "z": -425.9748229980469
      }
    ],
    "yZeroAnchor": 175.1103057861328,
    "areaGroupName": {
      "text": "yuanxiagong"
    },
    "enableHeightCheck": true,
    "top": 20.899999618530273,
    "bottom": 20.0,
    "isAmbience": true,
    "enterEvents": [
      {
        "text": "Set_volume_amb_explore_water"
      }
    ],
    "leaveEvents": [
      {
        "text": "Reset_volume_amb_explore_water"
      }
    ],
    "isReverb": true,
    "auxBusName": {
      "text": "Aux_SM_Cave_Small"
    }
  },
  {
    "areaName": "AudioArea_6-6(5006)",
    "shortID": 797471411,
    "areaPoints": [
      {
        "x": 145.59884643554688,
        "y": 197.50607299804688,
        "z": -429.7709045410156
      },
      {
        "x": 136.5607452392578,
        "y": 197.50607299804688,
        "z": -434.9463806152344
      },
      {
        "x": 121.07393646240234,
        "y": 197.50607299804688,
        "z": -408.195556640625
      },
      {
        "x": 147.42434692382812,
        "y": 197.50607299804688,
        "z": -392.6903076171875
      },
      {
        "x": 153.0953369140625,
        "y": 197.50607299804688,
        "z": -401.6676330566406
      },
      {
        "x": 135.4119415283203,
        "y": 197.50607299804688,
        "z": -411.5487365722656
      }
    ],
    "yZeroAnchor": 197.50607299804688,
    "areaGroupName": {
      "text": ""
    },
    "enableHeightCheck": true,
    "top": 9.399999618530273,
    "bottom": 1.7899999618530273,
    "isAmbience": true,
    "enterEvents": [
      {
        "text": "Set_volume_amb_explore_water"
      }
    ],
    "leaveEvents": [
      {
        "text": "Reset_volume_amb_explore_water"
      }
    ],
    "isReverb": true,
    "auxBusName": {
      "text": "Aux_SM_Cave_Small"
    }
  },
  {
    "areaName": "AudioArea_1-1(5008)",
    "shortID": 1870944806,
    "areaPoints": [
      {
        "x": -140.75491333007812,
        "y": 188.2041473388672,
        "z": 350.7600402832031
      },
      {
        "x": -126.06822967529297,
        "y": 188.2041473388672,
        "z": 354.1347351074219
      },
      {
        "x": -124.007080078125,
        "y": 188.2041473388672,
        "z": 359.3655700683594
      },
      {
        "x": -124.58863830566406,
        "y": 188.2041473388672,
        "z": 381.8894348144531
      },
      {
        "x": -119.35786437988281,
        "y": 188.2041473388672,
        "z": 417.4421691894531
      },
      {
        "x": -116.19493103027344,
        "y": 188.2041473388672,
        "z": 432.4190673828125
      },
      {
        "x": -117.72738647460938,
        "y": 188.2041473388672,
        "z": 444.4301452636719
      },
      {
        "x": -109.64019012451172,
        "y": 188.2041473388672,
        "z": 444.573486328125
      },
      {
        "x": -132.70115661621094,
        "y": 188.2041473388672,
        "z": 457.5210876464844
      },
      {
        "x": -132.5732421875,
        "y": 188.2041473388672,
        "z": 453.0809326171875
      },
      {
        "x": -138.64161682128906,
        "y": 188.2041473388672,
        "z": 444.9985046386719
      },
      {
        "x": -135.3716583251953,
        "y": 188.2041473388672,
        "z": 439.18927001953125
      },
      {
        "x": -135.30506896972656,
        "y": 188.2041473388672,
        "z": 429.6336669921875
      },
      {
        "x": -159.5259246826172,
        "y": 188.2041473388672,
        "z": 416.0245361328125
      },
      {
        "x": -147.74020385742188,
        "y": 188.2041473388672,
        "z": 397.46142578125
      },
      {
        "x": -164.37074279785156,
        "y": 188.2041473388672,
        "z": 392.01458740234375
      },
      {
        "x": -185.36241149902344,
        "y": 188.2041473388672,
        "z": 371.69268798828125
      },
      {
        "x": -184.51162719726562,
        "y": 188.2041473388672,
        "z": 360.2785949707031
      },
      {
        "x": -164.82142639160156,
        "y": 188.2041473388672,
        "z": 345.1376953125
      }
    ],
    "yZeroAnchor": 188.2041473388672,
    "areaGroupName": {
      "text": "yuanxiagong"
    },
    "enableHeightCheck": true,
    "top": 41.70000076293945,
    "bottom": 20.0,
    "isAmbience": true,
    "enterEvents": [
      {
        "text": "Play_Amb_YuanXiaGong_Cave"
      }
    ],
    "leaveEvents": [
      {
        "text": "Stop_Amb_YuanXiaGong_Cave"
      }
    ],
    "isReverb": true,
    "auxBusName": {
      "text": "Aux_SM_Cave_Large"
    }
  },
  {
    "areaName": "AudioArea_2-2(5008)",
    "shortID": 1870944805,
    "areaPoints": [
      {
        "x": -147.73358154296875,
        "y": 246.75283813476562,
        "z": 429.14080810546875
      },
      {
        "x": -157.40896606445312,
        "y": 246.75283813476562,
        "z": 415.7489929199219
      },
      {
        "x": -146.7823028564453,
        "y": 246.75283813476562,
        "z": 397.7162170410156
      },
      {
        "x": -135.2394561767578,
        "y": 246.75283813476562,
        "z": 400.68670654296875
      },
      {
        "x": -127.19114685058594,
        "y": 246.75283813476562,
        "z": 405.8482360839844
      },
      {
        "x": -114.7552490234375,
        "y": 246.75283813476562,
        "z": 404.425048828125
      },
      {
        "x": -113.15132904052734,
        "y": 246.75283813476562,
        "z": 440.56964111328125
      },
      {
        "x": -130.6788330078125,
        "y": 246.75283813476562,
        "z": 441.4852600097656
      }
    ],
    "yZeroAnchor": 246.75283813476562,
    "areaGroupName": {
      "text": "yuanxiagong"
    },
    "enableHeightCheck": true,
    "top": 12.899999618530273,
    "bottom": 26.799999237060547,
    "isAmbience": true,
    "enterEvents": [
      {
        "text": "Play_Amb_YuanXiaGong_Cave"
      }
    ],
    "leaveEvents": [
      {
        "text": "Stop_Amb_YuanXiaGong_Cave"
      }
    ],
    "isReverb": true,
    "auxBusName": {
      "text": "Aux_SM_Cave_Large"
    }
  },
  {
    "areaName": "AudioArea_3-3(5008)",
    "shortID": 1870944804,
    "areaPoints": [
      {
        "x": -167.10260009765625,
        "y": 224.079345703125,
        "z": 419.8931884765625
      },
      {
        "x": -174.661376953125,
        "y": 224.079345703125,
        "z": 413.4209899902344
      },
      {
        "x": -190.16397094726562,
        "y": 224.079345703125,
        "z": 402.9785461425781
      },
      {
        "x": -212.99331665039062,
        "y": 224.079345703125,
        "z": 395.7130432128906
      },
      {
        "x": -226.31056213378906,
        "y": 224.079345703125,
        "z": 415.4190368652344
      },
      {
        "x": -240.49151611328125,
        "y": 224.079345703125,
        "z": 451.8797912597656
      },
      {
        "x": -233.90774536132812,
        "y": 224.079345703125,
        "z": 466.16510009765625
      },
      {
        "x": -233.65457153320312,
        "y": 224.079345703125,
        "z": 474.895263671875
      },
      {
        "x": -229.12840270996094,
        "y": 224.079345703125,
        "z": 480.944091796875
      },
      {
        "x": -198.40367126464844,
        "y": 224.079345703125,
        "z": 484.7082824707031
      },
      {
        "x": -180.62347412109375,
        "y": 224.079345703125,
        "z": 486.7447509765625
      },
      {
        "x": -163.97425842285156,
        "y": 224.079345703125,
        "z": 483.79876708984375
      },
      {
        "x": -160.67691040039062,
        "y": 224.079345703125,
        "z": 476.93646240234375
      },
      {
        "x": -139.7137908935547,
        "y": 224.079345703125,
        "z": 464.16748046875
      },
      {
        "x": -131.7871551513672,
        "y": 224.079345703125,
        "z": 454.3908386230469
      },
      {
        "x": -135.0514678955078,
        "y": 224.079345703125,
        "z": 437.11822509765625
      },
      {
        "x": -132.63565063476562,
        "y": 224.079345703125,
        "z": 429.10498046875
      },
      {
        "x": -158.35772705078125,
        "y": 224.079345703125,
        "z": 410.87017822265625
      }
    ],
    "yZeroAnchor": 224.079345703125,
    "areaGroupName": {
      "text": "yuanxiagong"
    },
    "enableHeightCheck": true,
    "top": 12.899999618530273,
    "bottom": 64.0,
    "isAmbience": true,
    "enterEvents": [
      {
        "text": "Play_Amb_YuanXiaGong_Cave"
      }
    ],
    "leaveEvents": [
      {
        "text": "Stop_Amb_YuanXiaGong_Cave"
      }
    ],
    "isReverb": true,
    "auxBusName": {
      "text": "Aux_SM_Cave_Large"
    }
  },
  {
    "areaName": "AudioArea_4-4(5008)",
    "shortID": 1870944803,
    "areaPoints": [
      {
        "x": -217.53671264648438,
        "y": 245.07403564453125,
        "z": 450.72265625
      },
      {
        "x": -206.7340087890625,
        "y": 245.07403564453125,
        "z": 450.76824951171875
      },
      {
        "x": -206.65733337402344,
        "y": 245.07403564453125,
        "z": 473.53778076171875
      },
      {
        "x": -195.14134216308594,
        "y": 245.07403564453125,
        "z": 472.9443359375
      },
      {
        "x": -195.2973175048828,
        "y": 245.07403564453125,
        "z": 483.2691955566406
      },
      {
        "x": -217.57321166992188,
        "y": 245.07403564453125,
        "z": 483.60247802734375
      }
    ],
    "yZeroAnchor": 245.07403564453125,
    "areaGroupName": {
      "text": ""
    },
    "enableHeightCheck": true,
    "top": 9.100000381469727,
    "bottom": 5.199999809265137,
    "isAmbience": true,
    "enterEvents": [
      {
        "text": "Play_Amb_YuanXiaGong_Cave"
      }
    ],
    "leaveEvents": [
      {
        "text": "Stop_Amb_YuanXiaGong_Cave"
      }
    ],
    "isReverb": true,
    "auxBusName": {
      "text": "Aux_SM_Cave_Small"
    }
  },
  {
    "areaName": "AudioArea_5-5(5008)",
    "shortID": 1870944802,
    "areaPoints": [
      {
        "x": -532.7859497070312,
        "y": 234.86175537109375,
        "z": 449.5415344238281
      },
      {
        "x": -542.8900756835938,
        "y": 234.86175537109375,
        "z": 449.43475341796875
      },
      {
        "x": -542.8758544921875,
        "y": 234.86175537109375,
        "z": 460.6515808105469
      },
      {
        "x": -550.867919921875,
        "y": 234.86175537109375,
        "z": 471.7347106933594
      },
      {
        "x": -543.2787475585938,
        "y": 234.86175537109375,
        "z": 471.44293212890625
      },
      {
        "x": -541.930419921875,
        "y": 234.86175537109375,
        "z": 482.8255920410156
      },
      {
        "x": -536.4375610351562,
        "y": 234.86175537109375,
        "z": 487.0752258300781
      },
      {
        "x": -531.73779296875,
        "y": 234.86175537109375,
        "z": 481.8610534667969
      },
      {
        "x": -531.3973388671875,
        "y": 234.86175537109375,
        "z": 470.7335205078125
      },
      {
        "x": -524.4224243164062,
        "y": 234.86175537109375,
        "z": 470.81817626953125
      },
      {
        "x": -532.3909912109375,
        "y": 234.86175537109375,
        "z": 460.41278076171875
      }
    ],
    "yZeroAnchor": 234.86175537109375,
    "areaGroupName": {
      "text": ""
    },
    "enableHeightCheck": true,
    "top": 8.699999809265137,
    "bottom": 4.800000190734863,
    "isAmbience": true,
    "enterEvents": [
      {
        "text": "Play_Amb_YuanXiaGong_Cave"
      }
    ],
    "leaveEvents": [
      {
        "text": "Stop_Amb_YuanXiaGong_Cave"
      }
    ],
    "isReverb": true,
    "auxBusName": {
      "text": "Aux_SM_Cave_Small"
    }
  },
  {
    "areaName": "AudioArea_6-6(5008)",
    "shortID": 1870944801,
    "areaPoints": [
      {
        "x": -359.1805725097656,
        "y": 220.20701599121094,
        "z": 394.6324462890625
      },
      {
        "x": -357.50146484375,
        "y": 220.20701599121094,
        "z": 385.91351318359375
      },
      {
        "x": -349.5423889160156,
        "y": 220.20701599121094,
        "z": 380.9944152832031
      },
      {
        "x": -338.1611022949219,
        "y": 220.20701599121094,
        "z": 360.7528991699219
      },
      {
        "x": -330.7151794433594,
        "y": 220.20701599121094,
        "z": 348.9752502441406
      },
      {
        "x": -327.5830078125,
        "y": 220.20701599121094,
        "z": 338.570068359375
      },
      {
        "x": -321.1575012207031,
        "y": 220.20701599121094,
        "z": 334.8495788574219
      },
      {
        "x": -314.5361633300781,
        "y": 220.20701599121094,
        "z": 340.77001953125
      },
      {
        "x": -304.13140869140625,
        "y": 220.20701599121094,
        "z": 328.2358093261719
      },
      {
        "x": -299.6980895996094,
        "y": 220.20701599121094,
        "z": 323.2432556152344
      },
      {
        "x": -288.81182861328125,
        "y": 220.20701599121094,
        "z": 322.41033935546875
      },
      {
        "x": -279.9729309082031,
        "y": 220.20701599121094,
        "z": 333.9331359863281
      },
      {
        "x": -289.927490234375,
        "y": 220.20701599121094,
        "z": 342.47711181640625
      },
      {
        "x": -295.88409423828125,
        "y": 220.20701599121094,
        "z": 359.6607971191406
      },
      {
        "x": -302.4349060058594,
        "y": 220.20701599121094,
        "z": 376.2467346191406
      },
      {
        "x": -321.36456298828125,
        "y": 220.20701599121094,
        "z": 386.8973693847656
      },
      {
        "x": -337.4358825683594,
        "y": 220.20701599121094,
        "z": 391.44342041015625
      },
      {
        "x": -332.1143493652344,
        "y": 220.20701599121094,
        "z": 405.1473388671875
      },
      {
        "x": -346.7619934082031,
        "y": 220.20701599121094,
        "z": 410.21807861328125
      },
      {
        "x": -350.8775634765625,
        "y": 220.20701599121094,
        "z": 404.25360107421875
      },
      {
        "x": -351.1891174316406,
        "y": 220.20701599121094,
        "z": 395.8092041015625
      }
    ],
    "yZeroAnchor": 220.20701599121094,
    "areaGroupName": {
      "text": ""
    },
    "enableHeightCheck": true,
    "top": 30.200000762939453,
    "bottom": 20.0,
    "isAmbience": true,
    "enterEvents": [
      {
        "text": "Play_Amb_YuanXiaGong_Cave"
      }
    ],
    "leaveEvents": [
      {
        "text": "Stop_Amb_YuanXiaGong_Cave"
      }
    ],
    "isReverb": true,
    "auxBusName": {
      "text": "Aux_SM_Cave_Middle"
    }
  },
  {
    "areaName": "AudioArea_7-7(5008)",
    "shortID": 1870944800,
    "areaPoints": [
      {
        "x": -166.54437255859375,
        "y": 211.17465209960938,
        "z": 215.1913299560547
      },
      {
        "x": -166.2052459716797,
        "y": 211.17465209960938,
        "z": 194.39706420898438
      },
      {
        "x": -176.28713989257812,
        "y": 211.17465209960938,
        "z": 194.41000366210938
      },
      {
        "x": -178.14552307128906,
        "y": 211.17465209960938,
        "z": 175.16709899902344
      },
      {
        "x": -166.24964904785156,
        "y": 211.17465209960938,
        "z": 174.62698364257812
      },
      {
        "x": -166.38131713867188,
        "y": 211.17465209960938,
        "z": 153.37167358398438
      },
      {
        "x": -110.016845703125,
        "y": 211.17465209960938,
        "z": 153.42471313476562
      },
      {
        "x": -110.17524719238281,
        "y": 211.17465209960938,
        "z": 215.36404418945312
      }
    ],
    "yZeroAnchor": 211.17465209960938,
    "areaGroupName": {
      "text": ""
    },
    "enableHeightCheck": true,
    "top": 12.899999618530273,
    "bottom": 20.0,
    "isAmbience": true,
    "enterEvents": [
      {
        "text": "Play_Amb_YuanXiaGong_Cave"
      }
    ],
    "leaveEvents": [
      {
        "text": "Stop_Amb_YuanXiaGong_Cave"
      }
    ],
    "isReverb": true,
    "auxBusName": {
      "text": "Aux_SM_Cave_Small"
    }
  }
]