{
  "luaDataPath": "",
  "dontUseDefaultFinish": true,
  "entityBan": "",
  "disableNpcLod": true,
  "isAutoBanNpc": true,
  "isBanWidgetPet": true,
  "protectNpcMobileLod": true,
  "startFade": {
    "startFadeOutDuration": 0.0
  },
  "endFade": {
    "startFadeOutDuration": 0.0
  },
  "actors": [
    {
      "alias": "Avatar",
      "visible": true,
      "bornPointName": "",
      "relativePosType": "AVATAR_NEW",
      "relativePosNpcAlias": "",
      "_bindMovingTargetKey": ""
    },
    {
      "configID": 1065,
      "alias": "1065",
      "visible": true,
      "bornPointName": "",
      "relativePosType": "AVATAR_NEW",
      "relativePosNpcAlias": "",
      "_bindMovingTargetKey": ""
    },
    {
      "configID": 1005,
      "alias": "1005",
      "visible": true,
      "bornPointName": "",
      "relativePosType": "AVATAR_NEW",
      "relativePosNpcAlias": "",
      "_bindMovingTargetKey": ""
    },
    {
      "configID": 1056,
      "alias": "1056",
      "visible": true,
      "bornPointName": "",
      "removeActorType": "NEW_REMOVE",
      "relativePosType": "AVATAR_NEW",
      "relativePosNpcAlias": "",
      "_bindMovingTargetKey": ""
    }
  ],
  "group": [
    [
      {
        "$type": "FJKIHHKJLMJ",
        "type": "CAMERA_MOVE",
        "duration": 0.5,
        "actionId": 122,
        "camPosOffset": {
          "x": -6.4670000076293945,
          "y": 129.11099243164062,
          "z": -1.3109999895095825
        },
        "camForwardTargetOffset": {
          "x": -7.182000160217285,
          "y": 129.26100158691406,
          "z": -0.628000020980835
        },
        "camFov": 20.0,
        "lerpPattern": 6,
        "cameraBlendType": "EaseInOutCubic",
        "NJBNNOMLKCK": {},
        "needZAxisRotate": true,
        "rotateAngle": 359.1629943847656,
        "openCameraDither": false,
        "targetNpcAlias": "",
        "closeTreeLeafDither": true,
        "KJOEFBPOIIH": "",
        "IICFKKEBIEC": "",
        "EGEHEJEBLBJ": ""
      },
      {
        "$type": "PKKMAMONGEO",
        "type": "DIALOG",
        "aliasList": [
          "1065"
        ],
        "actionId": 107,
        "dialogID": 30321001,
        "protectTime": 0.5
      },
      {
        "$type": "LJLMDHDCAMK",
        "type": "LOOK_AT",
        "aliasList": [
          "1065"
        ],
        "actionId": 124,
        "enableHead": true,
        "useTargetPos": true,
        "enableAbsolute": true,
        "targetPosition": {
          "x": -4.998000144958496,
          "y": 129.43499755859375,
          "z": 0.1720000058412552
        },
        "headTurnTime": 0.5,
        "targetNpcAlias": "",
        "lookAtTargetType": "NONE",
        "openBackProtect": true,
        "targetNpcLookAtPoint": "",
        "OAFJBHJHLJG": ""
      },
      {
        "$type": "CPJKOIHIPBE",
        "type": "EMO_SYNC",
        "aliasList": [
          "1065"
        ],
        "actionId": 130,
        "dataPath": "Cs_Emo_Avatar_Simple_Common_Set/Cs_Emo_Avatar_Talk/Cs_Emo_Avatar_MainLine/Cs_Emo_Avatar_Sumeru4/Cs_Emo_30321001",
        "phonemePath": "",
        "emotionPath": "",
        "mateDataPath": "",
        "matePhonemePath": "",
        "mateEmotionPath": "",
        "dataPathHashList": [
          1211383622560890032,
          7275812086861470414,
          3978362383094780089,
          12517520326366998871
        ],
        "FMDPBECPELH": "",
        "ADKBLPOKGIK": ""
      },
      {
        "$type": "FJKIHHKJLMJ",
        "type": "CAMERA_MOVE",
        "delayTime": 0.10000000149011612,
        "duration": 8.0,
        "actionId": 123,
        "camPosOffset": {
          "x": -6.415999889373779,
          "y": 129.1060028076172,
          "z": -1.253000020980835
        },
        "camForwardTargetOffset": {
          "x": -7.1570000648498535,
          "y": 129.25900268554688,
          "z": -0.5989999771118164
        },
        "camFov": 20.0,
        "cameraBlendType": "EaseOutQuad",
        "NJBNNOMLKCK": {},
        "needZAxisRotate": true,
        "rotateAngle": 359.1629943847656,
        "openCameraDither": false,
        "targetNpcAlias": "",
        "closeTreeLeafDither": true,
        "KJOEFBPOIIH": "",
        "IICFKKEBIEC": "",
        "EGEHEJEBLBJ": ""
      },
      {
        "$type": "FABLGECDBCH",
        "type": "BODY_LANG",
        "delayTime": 1.5269999504089355,
        "aliasList": [
          "1065"
        ],
        "actionId": 132,
        "bodyLangParam": 4040,
        "forceDoFreeStyle": true,
        "canDoRepeatFreeStyle": false,
        "dontClearPreFreeStyle": true,
        "cantBackToIdleWhenSitLoop": true,
        "eventPatternSuiteKey": "",
        "FOHHKFAIAAJ": ""
      }
    ],
    [
      {
        "$type": "FJKIHHKJLMJ",
        "type": "CAMERA_MOVE",
        "duration": 0.5,
        "actionId": 125,
        "camPosOffset": {
          "x": -6.400000095367432,
          "y": 129.48899841308594,
          "z": -0.9179999828338623
        },
        "camForwardTargetOffset": {
          "x": -5.540999889373779,
          "y": 129.4600067138672,
          "z": -0.40700000524520874
        },
        "camFov": 20.0,
        "lerpPattern": 6,
        "cameraBlendType": "EaseInOutCubic",
        "NJBNNOMLKCK": {},
        "needZAxisRotate": true,
        "rotateAngle": 359.1719970703125,
        "openCameraDither": false,
        "targetNpcAlias": "",
        "closeTreeLeafDither": true,
        "KJOEFBPOIIH": "",
        "IICFKKEBIEC": "",
        "EGEHEJEBLBJ": ""
      },
      {
        "$type": "MoleMole.Config.ConfigTimeProtectAction",
        "type": "TIME_PROTECT",
        "duration": 0.5,
        "aliasList": [
          "Avatar"
        ],
        "actionId": 121
      },
      {
        "$type": "FABLGECDBCH",
        "type": "BODY_LANG",
        "aliasList": [
          "Avatar"
        ],
        "actionId": 126,
        "bodyLangParam": 1190,
        "forceDoFreeStyle": true,
        "canDoRepeatFreeStyle": false,
        "cantBackToIdleWhenSitLoop": true,
        "eventPatternSuiteKey": "",
        "FOHHKFAIAAJ": ""
      },
      {
        "$type": "HDGKHDNFMIM",
        "type": "DIALOG_SELECT",
        "delayTime": 0.4000000059604645,
        "aliasList": [
          "Avatar"
        ],
        "actionId": 120,
        "dialogIDList": [
          30321201
        ],
        "grpIDList": [
          4036922828
        ],
        "useGrpId": true,
        "countDownGrpId": 4036922825
      }
    ],
    [
      {
        "$type": "FJKIHHKJLMJ",
        "type": "CAMERA_MOVE",
        "duration": 0.5,
        "actionId": 128,
        "camPosOffset": {
          "x": -7.290999889373779,
          "y": 129.4669952392578,
          "z": -0.6639999747276306
        },
        "camForwardTargetOffset": {
          "x": -7.947999954223633,
          "y": 129.4949951171875,
          "z": 0.08900000154972076
        },
        "camFov": 20.0,
        "lerpPattern": 6,
        "cameraBlendType": "EaseInOutCubic",
        "NJBNNOMLKCK": {},
        "needZAxisRotate": true,
        "rotateAngle": 359.1719970703125,
        "openCameraDither": false,
        "targetNpcAlias": "",
        "closeTreeLeafDither": true,
        "KJOEFBPOIIH": "",
        "IICFKKEBIEC": "",
        "EGEHEJEBLBJ": ""
      },
      {
        "$type": "FABLGECDBCH",
        "type": "BODY_LANG",
        "aliasList": [
          "Avatar"
        ],
        "actionId": 127,
        "isContinue": true,
        "forceDoFreeStyle": true,
        "canDoRepeatFreeStyle": false,
        "cantBackToIdleWhenSitLoop": true,
        "eventPatternSuiteKey": "",
        "FOHHKFAIAAJ": ""
      },
      {
        "$type": "PKKMAMONGEO",
        "type": "DIALOG",
        "aliasList": [
          "1065"
        ],
        "actionId": 110,
        "dialogID": 30321202,
        "protectTime": 0.5
      },
      {
        "$type": "CPJKOIHIPBE",
        "type": "EMO_SYNC",
        "aliasList": [
          "1065"
        ],
        "actionId": 133,
        "dataPath": "Cs_Emo_Avatar_Simple_Common_Set/Cs_Emo_Avatar_Talk/Cs_Emo_Avatar_MainLine/Cs_Emo_Avatar_Sumeru4/Cs_Emo_30321202",
        "phonemePath": "",
        "emotionPath": "",
        "mateDataPath": "",
        "matePhonemePath": "",
        "mateEmotionPath": "",
        "dataPathHashList": [
          6423763230080905975,
          719670424339562221,
          14681266838660268535,
          16562340704361570758
        ],
        "FMDPBECPELH": "",
        "ADKBLPOKGIK": ""
      },
      {
        "$type": "FJKIHHKJLMJ",
        "type": "CAMERA_MOVE",
        "delayTime": 0.10000000149011612,
        "duration": 5.0,
        "actionId": 129,
        "camPosOffset": {
          "x": -7.303999900817871,
          "y": 129.46499633789062,
          "z": -0.675000011920929
        },
        "camForwardTargetOffset": {
          "x": -7.960999965667725,
          "y": 129.4929962158203,
          "z": 0.07800000160932541
        },
        "camFov": 20.0,
        "cameraBlendType": "EaseOutQuad",
        "NJBNNOMLKCK": {},
        "needZAxisRotate": true,
        "rotateAngle": 359.1719970703125,
        "openCameraDither": false,
        "targetNpcAlias": "",
        "closeTreeLeafDither": true,
        "KJOEFBPOIIH": "",
        "IICFKKEBIEC": "",
        "EGEHEJEBLBJ": ""
      }
    ]
  ],
  "groupId": [
    {
      "grpId": 4036922826,
      "nextGrpId": 4036922827
    },
    {
      "index": 1,
      "grpId": 4036922827,
      "nextGrpId": 4036922828
    },
    {
      "index": 2,
      "grpId": 4036922828,
      "nextGrpId": 4036922829
    }
  ],
  "freeStyleDic": {
    "1065": [
      4040
    ],
    "1056": []
  }
}