{
  "luaDataPath": "",
  "isSimpleTalk": true,
  "entityBan": "",
  "disableNpcLod": true,
  "startFade": {
    "startFadeOutDuration": 0.0
  },
  "endFade": {
    "startFadeOutDuration": 0.0
  },
  "actors": [
    {
      "alias": "Avatar",
      "visible": true,
      "bornPointName": "",
      "relativePosNpcAlias": "",
      "_bindMovingTargetKey": ""
    },
    {
      "configID": 10398,
      "alias": "10398",
      "bornPointName": "Q7000103fasle2",
      "relativePosNpcAlias": "",
      "_bindMovingTargetKey": ""
    },
    {
      "configID": 1005,
      "alias": "1005",
      "bornPointName": "Q7000105paimon",
      "relativePosNpcAlias": "",
      "_bindMovingTargetKey": ""
    }
  ],
  "group": [
    [
      {
        "$type": "FJKIHHKJLMJ",
        "type": "CAMERA_FOCUS",
        "duration": 0.10000000149011612,
        "targetNpcAlias": "",
        "KJOEFBPOIIH": "",
        "IICFKKEBIEC": "",
        "EGEHEJEBLBJ": ""
      },
      {
        "$type": "MoleMole.Config.ConfigTimeProtectAction",
        "type": "TIME_PROTECT",
        "duration": 0.10000000149011612
      }
    ],
    [
      {
        "$type": "PKKMAMONGEO",
        "type": "DIALOG",
        "aliasList": [
          "10398"
        ],
        "dialogID": 700010501,
        "protectTime": 0.5
      }
    ],
    [
      {
        "$type": "HDGKHDNFMIM",
        "type": "DIALOG_SELECT",
        "delayTime": 0.4000000059604645,
        "aliasList": [
          "Avatar"
        ],
        "dialogIDList": [
          700010503
        ],
        "grpIDList": [
          2511183672
        ],
        "useGrpId": true
      },
      {
        "$type": "PKKMAMONGEO",
        "type": "DIALOG",
        "aliasList": [
          "10398"
        ],
        "dialogID": 700010502,
        "protectTime": 0.5
      }
    ],
    [
      {
        "$type": "PKKMAMONGEO",
        "type": "DIALOG",
        "aliasList": [
          "10398"
        ],
        "dialogID": 700010504,
        "protectTime": 0.5
      }
    ],
    [
      {
        "$type": "PKKMAMONGEO",
        "type": "DIALOG",
        "aliasList": [
          "10398"
        ],
        "dialogID": 700010505,
        "protectTime": 0.5
      }
    ],
    [
      {
        "$type": "PKKMAMONGEO",
        "type": "DIALOG",
        "aliasList": [
          "10398"
        ],
        "dialogID": 700010506,
        "protectTime": 0.5
      }
    ],
    [
      {
        "$type": "PKKMAMONGEO",
        "type": "DIALOG",
        "aliasList": [
          "1005"
        ],
        "dialogID": 700010507,
        "protectTime": 0.5
      }
    ],
    [
      {
        "$type": "MoleMole.Config.ConfigTimeProtectAction",
        "type": "TIME_PROTECT",
        "duration": 0.10000000149011612
      }
    ]
  ],
  "groupId": [
    {
      "grpId": 2511183669,
      "nextGrpId": 2511183670
    },
    {
      "index": 1,
      "grpId": 2511183670,
      "nextGrpId": 2511183671
    },
    {
      "index": 2,
      "grpId": 2511183671,
      "nextGrpId": 2511183672
    },
    {
      "index": 3,
      "grpId": 2511183672,
      "nextGrpId": 2511183673
    },
    {
      "index": 4,
      "grpId": 2511183673,
      "nextGrpId": 2511183674
    },
    {
      "index": 5,
      "grpId": 2511183674,
      "nextGrpId": 2511183675
    },
    {
      "index": 6,
      "grpId": 2511183675,
      "nextGrpId": 2511183676
    },
    {
      "index": 7,
      "grpId": 2511183676,
      "nextGrpId": 2511183677
    }
  ],
  "freeStyleDic": {
    "10398": []
  }
}