{
  "id": 134012802,
  "area": {},
  "actors": {},
  "NCFALBLLBCH": {},
  "JCEMKFJHGAD": {},
  "JJICJMFLMAP": {
    "$type": "CGLMHEAOKED",
    "LAIJGANGJCB": {
      "$type": "IGHIJIGOMCC",
      "mainQuestId": 40128
    }
  },
  "COCBHINKMIH": {},
  "GNFFDFPLJLK": {
    "EDEEFBOMBJD": [
      {
        "id": 1,
        "FOOPHPFOAPO": [
          {
            "$type": "CKOGNFMHFLM",
            "id": 1
          },
          {
            "$type": "MILHNEGMIIN",
            "id": 2
          },
          {
            "$type": "IHHCOEFMDBC",
            "id": 3,
            "IPCABBFFJHA": {
              "$type": "HMGMAIFKNBP",
              "NFMADOJJIPJ": {
                "$type": "KKCBPNFBODH",
                "HGAMDAONNMG": 10000085
              },
              "KLJGGDCFOMF": "StandbyShow_02",
              "GKJAODKIMII": 0.20000000298023224,
              "FDNKOBIHCHO": 1
            }
          },
          {
            "$type": "IKOILNBPFIO",
            "id": 11,
            "JEJPFELBMEG": {
              "$type": "DPONBCGFDMG",
              "OCJCAJGEAGJ": 1
            },
            "EHCFALMHEAC": 3,
            "MJEBOGBKOII": "ACT_BOUNDARY_EFFECTOR_CANCEL"
          },
          {
            "$type": "IHHCOEFMDBC",
            "id": 5,
            "IPCABBFFJHA": {
              "$type": "PCOFMMJHBHA",
              "GFIHLLKMKMN": {
                "$type": "CCIMIMBOHPC",
                "npcId": 13587,
                "questId": 40128
              },
              "IDELFHFEFDL": {
                "DJMNHLNMJPI": 1,
                "EIHOCKAKOEK": true,
                "LEPHJDGGODL": ""
              },
              "duration": 8.0,
              "LOJEHDFKMPE": true
            }
          },
          {
            "$type": "IKOILNBPFIO",
            "id": 14,
            "JEJPFELBMEG": {
              "$type": "DPONBCGFDMG",
              "OCJCAJGEAGJ": 1
            },
            "EHCFALMHEAC": 5,
            "MJEBOGBKOII": "ACT_BOUNDARY_EFFECTOR_SUSPEND"
          },
          {
            "$type": "IHHCOEFMDBC",
            "id": 32,
            "IPCABBFFJHA": {
              "$type": "PBLMFKPIJMO",
              "GFIHLLKMKMN": {
                "$type": "CCIMIMBOHPC",
                "npcId": 13587,
                "questId": 40128
              },
              "NFMADOJJIPJ": {
                "$type": "MPJKHJJNCMF"
              },
              "GIJGAPFENLD": 5.0,
              "AGIPOGOLAHD": 7.0,
              "KCIHJBAPFGA": 300.0,
              "FNPBCFILMIE": -5.0,
              "MMGECIHJCDO": 10.0,
              "OKGEKFGPMNF": 0.5
            }
          },
          {
            "$type": "CEHEEAIFPDG",
            "id": 35,
            "JEJPFELBMEG": {
              "$type": "DPONBCGFDMG",
              "OCJCAJGEAGJ": 1
            }
          },
          {
            "$type": "IHHCOEFMDBC",
            "id": 47,
            "IPCABBFFJHA": {
              "$type": "PCOFMMJHBHA",
              "GFIHLLKMKMN": {
                "$type": "CCIMIMBOHPC",
                "npcId": 13587,
                "questId": 40128
              },
              "IDELFHFEFDL": {
                "DJMNHLNMJPI": 2,
                "EIHOCKAKOEK": true,
                "LEPHJDGGODL": ""
              },
              "duration": 2.0,
              "LOJEHDFKMPE": true
            }
          },
          {
            "$type": "IHHCOEFMDBC",
            "id": 50,
            "IPCABBFFJHA": {
              "$type": "BFLELBFCACG",
              "GFIHLLKMKMN": {
                "$type": "CCIMIMBOHPC",
                "npcId": 13587,
                "questId": 40128
              },
              "DIDFNGKPLND": 2.0,
              "GAAPCEIDMPH": {
                "NFDDIJMBAMJ": 1.0,
                "NHKBKNNKPPK": true,
                "GBAHKMMMHJP": 60.0,
                "EKPMLOOAHLL": 120.0
              },
              "NFMADOJJIPJ": {
                "$type": "MPJKHJJNCMF"
              }
            }
          },
          {
            "$type": "IKOILNBPFIO",
            "id": 53,
            "JEJPFELBMEG": {
              "$type": "DPONBCGFDMG",
              "OCJCAJGEAGJ": 1
            },
            "EHCFALMHEAC": 50,
            "MJEBOGBKOII": "ACT_BOUNDARY_EFFECTOR_END"
          },
          {
            "$type": "IHHCOEFMDBC",
            "id": 56,
            "IPCABBFFJHA": {
              "$type": "GOHMLKDPNMP",
              "GFIHLLKMKMN": {
                "$type": "CCIMIMBOHPC",
                "npcId": 13587,
                "questId": 40128
              },
              "AFKKCFMEOBI": {
                "$type": "GLPDIECMBEC",
                "target": {
                  "$type": "MPJKHJJNCMF"
                }
              }
            }
          },
          {
            "$type": "FIFEFLIOOOH",
            "id": 33,
            "source": 1,
            "target": 32
          },
          {
            "$type": "HCIMIJBPBAH",
            "id": 36,
            "source": 32,
            "target": 35,
            "EJMANKGMAFK": "OnLost"
          },
          {
            "$type": "FIFEFLIOOOH",
            "id": 49,
            "source": 47,
            "target": 3
          },
          {
            "$type": "HCIMIJBPBAH",
            "id": 57,
            "source": 32,
            "target": 56,
            "EJMANKGMAFK": "OnAware"
          },
          {
            "$type": "FIFEFLIOOOH",
            "id": 58,
            "source": 56,
            "target": 47
          },
          {
            "$type": "FIFEFLIOOOH",
            "id": 59,
            "source": 47,
            "target": 50
          },
          {
            "$type": "HCIMIJBPBAH",
            "id": 84,
            "source": 3,
            "target": 5,
            "EJMANKGMAFK": "OnEvent"
          },
          {
            "$type": "FIFEFLIOOOH",
            "id": 85,
            "source": 5,
            "target": 3
          }
        ]
      }
    ]
  }
}