{
  "luaDataPath": "",
  "entityBan": "",
  "disableNpcLod": true,
  "protectNpcMobileLod": true,
  "talkFlag": 7,
  "startFade": {
    "startFadeOutDuration": 0.0
  },
  "endFade": {
    "startFadeOutDuration": 0.0
  },
  "actors": [
    {
      "alias": "Avatar",
      "visible": true,
      "bornPointName": "Q19061NoelStartPlayer",
      "relativePosType": "AVATAR_NEW",
      "relativePosNpcAlias": "",
      "_notDestroyInTalk": true,
      "_bindMovingTargetKey": ""
    },
    {
      "configID": 1027,
      "alias": "1027",
      "visible": true,
      "bornPointName": "",
      "relativePosType": "AVATAR_NEW",
      "relativePosNpcAlias": "",
      "_notDestroyInTalk": true,
      "_bindMovingTargetKey": ""
    }
  ],
  "group": [
    [
      {
        "$type": "FJKIHHKJLMJ",
        "type": "CAMERA_MOVE",
        "duration": 1.0,
        "actionId": 112,
        "cameraPosType": "RELATIVE_TO_TARGET_ENTITY",
        "camTargetType": "RELATIVE_TO_TARGET_ENTITY",
        "camFov": 30.0,
        "lerpPattern": 6,
        "cameraBlendType": "EaseInOutCubic",
        "NJBNNOMLKCK": {},
        "targetNpcAlias": "1027",
        "KJOEFBPOIIH": "",
        "IICFKKEBIEC": "",
        "EGEHEJEBLBJ": ""
      },
      {
        "$type": "MoleMole.Config.ConfigVisibleInterAction",
        "type": "VISIBLE",
        "aliasList": [
          "Avatar"
        ],
        "actionId": 114,
        "_extraParam": ""
      },
      {
        "$type": "PKKMAMONGEO",
        "type": "DIALOG",
        "aliasList": [
          "1027"
        ],
        "actionId": 117,
        "dialogID": 1906101501,
        "protectTime": 0.5
      },
      {
        "$type": "MoleMole.Config.ConfigEmotionTemplateAction",
        "type": "EMOTION_TEMPLATE",
        "aliasList": [
          "1027"
        ],
        "actionId": 118,
        "_flag": 384,
        "emoTemplateID": 10701
      },
      {
        "$type": "LJLMDHDCAMK",
        "type": "LOOK_AT",
        "aliasList": [
          "1027"
        ],
        "actionId": 119,
        "_flag": 64,
        "targetNpcAlias": "",
        "lookAtTargetType": "NONE",
        "targetNpcLookAtPoint": "",
        "OAFJBHJHLJG": ""
      },
      {
        "$type": "CPJKOIHIPBE",
        "type": "EMO_SYNC",
        "aliasList": [
          "1027"
        ],
        "actionId": 120,
        "_flag": 256,
        "dataPath": "Cs_Emo_Avatar_Simple_Common_Set/Cs_Emo_Avatar_Talk/Cs_Emo_Coop_Common/Cs_Emo_Coop_Noel_01/Cs_Emo_1906101501",
        "phonemePath": "",
        "emotionPath": "",
        "mateDataPath": "",
        "matePhonemePath": "",
        "mateEmotionPath": "",
        "dataPathHashList": [
          5381214641270607633,
          4636725879673319675,
          10403651885048654875,
          10514591084245545875
        ],
        "FMDPBECPELH": "",
        "ADKBLPOKGIK": ""
      }
    ],
    [
      {
        "$type": "PKKMAMONGEO",
        "type": "DIALOG",
        "aliasList": [
          "1027"
        ],
        "actionId": 121,
        "dialogID": 1906101502,
        "protectTime": 0.5
      },
      {
        "$type": "MoleMole.Config.ConfigEmotionTemplateAction",
        "type": "EMOTION_TEMPLATE",
        "aliasList": [
          "1027"
        ],
        "actionId": 122,
        "_flag": 384,
        "emoTemplateID": 10100
      },
      {
        "$type": "CPJKOIHIPBE",
        "type": "EMO_SYNC",
        "aliasList": [
          "1027"
        ],
        "actionId": 123,
        "_flag": 256,
        "dataPath": "Cs_Emo_Avatar_Simple_Common_Set/Cs_Emo_Avatar_Talk/Cs_Emo_Coop_Common/Cs_Emo_Coop_Noel_01/Cs_Emo_1906101502",
        "phonemePath": "",
        "emotionPath": "",
        "mateDataPath": "",
        "matePhonemePath": "",
        "mateEmotionPath": "",
        "dataPathHashList": [
          9514752341074512038,
          7103115256087155156,
          6216493684578648492,
          14513388843280678055
        ],
        "FMDPBECPELH": "",
        "ADKBLPOKGIK": ""
      }
    ],
    [
      {
        "$type": "PKKMAMONGEO",
        "type": "DIALOG",
        "aliasList": [
          "1027"
        ],
        "actionId": 124,
        "dialogID": 1906101503,
        "protectTime": 0.5
      },
      {
        "$type": "MoleMole.Config.ConfigEmotionTemplateAction",
        "type": "EMOTION_TEMPLATE",
        "aliasList": [
          "1027"
        ],
        "actionId": 125,
        "_flag": 384,
        "emoTemplateID": 10601
      },
      {
        "$type": "CPJKOIHIPBE",
        "type": "EMO_SYNC",
        "aliasList": [
          "1027"
        ],
        "actionId": 126,
        "_flag": 256,
        "dataPath": "Cs_Emo_Avatar_Simple_Common_Set/Cs_Emo_Avatar_Talk/Cs_Emo_Coop_Common/Cs_Emo_Coop_Noel_01/Cs_Emo_1906101503",
        "phonemePath": "",
        "emotionPath": "",
        "mateDataPath": "",
        "matePhonemePath": "",
        "mateEmotionPath": "",
        "dataPathHashList": [
          14403094338720171214,
          10738588932870902642,
          15822219433818012861,
          3987200943654075953
        ],
        "FMDPBECPELH": "",
        "ADKBLPOKGIK": ""
      }
    ],
    [
      {
        "$type": "PKKMAMONGEO",
        "type": "DIALOG",
        "aliasList": [
          "1027"
        ],
        "actionId": 127,
        "dialogID": 1906101504,
        "protectTime": 0.5
      },
      {
        "$type": "MoleMole.Config.ConfigEmotionTemplateAction",
        "type": "EMOTION_TEMPLATE",
        "aliasList": [
          "1027"
        ],
        "actionId": 128,
        "_flag": 384,
        "emoTemplateID": 10100
      },
      {
        "$type": "CPJKOIHIPBE",
        "type": "EMO_SYNC",
        "aliasList": [
          "1027"
        ],
        "actionId": 129,
        "_flag": 256,
        "dataPath": "Cs_Emo_Avatar_Simple_Common_Set/Cs_Emo_Avatar_Talk/Cs_Emo_Coop_Common/Cs_Emo_Coop_Noel_01/Cs_Emo_1906101504",
        "phonemePath": "",
        "emotionPath": "",
        "mateDataPath": "",
        "matePhonemePath": "",
        "mateEmotionPath": "",
        "dataPathHashList": [
          9194224234054746656,
          7019678508014455300,
          17646417453220307061,
          16918891183208654159
        ],
        "FMDPBECPELH": "",
        "ADKBLPOKGIK": ""
      }
    ],
    [
      {
        "$type": "PKKMAMONGEO",
        "type": "DIALOG",
        "aliasList": [
          "1027"
        ],
        "actionId": 130,
        "dialogID": 1906101505,
        "protectTime": 0.5
      },
      {
        "$type": "CPJKOIHIPBE",
        "type": "EMO_SYNC",
        "aliasList": [
          "1027"
        ],
        "actionId": 131,
        "_flag": 256,
        "dataPath": "Cs_Emo_Avatar_Simple_Common_Set/Cs_Emo_Avatar_Talk/Cs_Emo_Coop_Common/Cs_Emo_Coop_Noel_01/Cs_Emo_1906101505",
        "phonemePath": "",
        "emotionPath": "",
        "mateDataPath": "",
        "matePhonemePath": "",
        "mateEmotionPath": "",
        "dataPathHashList": [
          887644304904887715,
          9891951482540184263,
          2704817110959939222,
          12433348926460023940
        ],
        "FMDPBECPELH": "",
        "ADKBLPOKGIK": ""
      },
      {
        "$type": "MoleMole.Config.ConfigEmotionTemplateAction",
        "type": "EMOTION_TEMPLATE",
        "aliasList": [
          "1027"
        ],
        "actionId": 132,
        "_flag": 384,
        "emoTemplateID": 10801
      },
      {
        "$type": "HDGKHDNFMIM",
        "type": "DIALOG_SELECT",
        "delayTime": 0.4000000059604645,
        "aliasList": [
          "Avatar"
        ],
        "actionId": 115,
        "dialogIDList": [
          1906101506
        ],
        "grpIDList": [
          1267192146
        ],
        "useGrpId": true,
        "countDownGrpId": 1267192140
      }
    ],
    [
      {
        "$type": "PKKMAMONGEO",
        "type": "DIALOG",
        "aliasList": [
          "1027"
        ],
        "actionId": 133,
        "dialogID": 1906101507,
        "protectTime": 0.5
      },
      {
        "$type": "MoleMole.Config.ConfigEmotionTemplateAction",
        "type": "EMOTION_TEMPLATE",
        "aliasList": [
          "1027"
        ],
        "actionId": 134,
        "_flag": 384,
        "emoTemplateID": 10100
      },
      {
        "$type": "CPJKOIHIPBE",
        "type": "EMO_SYNC",
        "aliasList": [
          "1027"
        ],
        "actionId": 135,
        "_flag": 256,
        "dataPath": "Cs_Emo_Avatar_Simple_Common_Set/Cs_Emo_Avatar_Talk/Cs_Emo_Coop_Common/Cs_Emo_Coop_Noel_01/Cs_Emo_1906101507",
        "phonemePath": "",
        "emotionPath": "",
        "mateDataPath": "",
        "matePhonemePath": "",
        "mateEmotionPath": "",
        "dataPathHashList": [
          15222935499848524478,
          7422873458060436940,
          15904774748529458287,
          2957315652620167444
        ],
        "FMDPBECPELH": "",
        "ADKBLPOKGIK": ""
      }
    ],
    [
      {
        "$type": "PKKMAMONGEO",
        "type": "DIALOG",
        "aliasList": [
          "1027"
        ],
        "actionId": 136,
        "dialogID": 1906101508,
        "protectTime": 0.5
      },
      {
        "$type": "CPJKOIHIPBE",
        "type": "EMO_SYNC",
        "aliasList": [
          "1027"
        ],
        "actionId": 137,
        "_flag": 256,
        "dataPath": "Cs_Emo_Avatar_Simple_Common_Set/Cs_Emo_Avatar_Talk/Cs_Emo_Coop_Common/Cs_Emo_Coop_Noel_01/Cs_Emo_1906101508",
        "phonemePath": "",
        "emotionPath": "",
        "mateDataPath": "",
        "matePhonemePath": "",
        "mateEmotionPath": "",
        "dataPathHashList": [
          14873973839928530995,
          17145371923228484692,
          2983602805359688258,
          17684379079049342462
        ],
        "FMDPBECPELH": "",
        "ADKBLPOKGIK": ""
      },
      {
        "$type": "MoleMole.Config.ConfigEmotionTemplateAction",
        "type": "EMOTION_TEMPLATE",
        "aliasList": [
          "1027"
        ],
        "actionId": 138,
        "_flag": 384,
        "emoTemplateID": 10601
      }
    ],
    [
      {
        "$type": "PKKMAMONGEO",
        "type": "DIALOG",
        "aliasList": [
          "1027"
        ],
        "actionId": 139,
        "dialogID": 1906101509,
        "protectTime": 0.5
      },
      {
        "$type": "CPJKOIHIPBE",
        "type": "EMO_SYNC",
        "aliasList": [
          "1027"
        ],
        "actionId": 140,
        "_flag": 320,
        "dataPath": "Cs_Emo_Avatar_Simple_Common_Set/Cs_Emo_Avatar_Talk/Cs_Emo_Coop_Common/Cs_Emo_Coop_Noel_01/Cs_Emo_1906101509",
        "phonemePath": "",
        "emotionPath": "",
        "mateDataPath": "",
        "matePhonemePath": "",
        "mateEmotionPath": "",
        "dataPathHashList": [
          11464662624917419622,
          674949866995555980,
          15534151884233213046,
          10306439529732559347
        ],
        "FMDPBECPELH": "",
        "ADKBLPOKGIK": ""
      },
      {
        "$type": "MoleMole.Config.ConfigEmotionTemplateAction",
        "type": "EMOTION_TEMPLATE",
        "aliasList": [
          "1027"
        ],
        "actionId": 141,
        "_flag": 384,
        "emoTemplateID": 10100
      }
    ],
    [
      {
        "$type": "MoleMole.Config.ConfigTimeProtectAction",
        "type": "TIME_PROTECT",
        "duration": 0.699999988079071,
        "actionId": 109
      },
      {
        "$type": "MoleMole.Config.ConfigSimpleBlackScreenAction",
        "type": "SIMPLE_BLACK_SCREEN",
        "actionId": 110,
        "durationToBlack": 0.5,
        "durationKeepBlack": 1.0,
        "durationFromBlack": 0.5,
        "textMapID": ""
      },
      {
        "$type": "FJKIHHKJLMJ",
        "type": "CAMERA_MOVE",
        "delayTime": 0.6000000238418579,
        "duration": 0.10000000149011612,
        "actionId": 113,
        "cameraPosType": "EXIT",
        "camTargetType": "Other",
        "lerpPattern": 6,
        "cameraBlendType": "EaseInOutCubic",
        "NJBNNOMLKCK": {},
        "openCameraDither": false,
        "targetNpcAlias": "",
        "KJOEFBPOIIH": "",
        "IICFKKEBIEC": "",
        "EGEHEJEBLBJ": ""
      },
      {
        "$type": "MoleMole.Config.ConfigVisibleInterAction",
        "type": "VISIBLE",
        "delayTime": 0.6000000238418579,
        "aliasList": [
          "Avatar"
        ],
        "actionId": 116,
        "isVisible": true,
        "_extraParam": ""
      }
    ],
    [
      {
        "$type": "MoleMole.Config.ConfigVisibleInterAction",
        "type": "VISIBLE",
        "aliasList": [
          "Avatar"
        ],
        "actionId": 202,
        "_actionTagList": [
          "TalkSkip"
        ],
        "isVisible": true,
        "_extraParam": ""
      },
      {
        "$type": "CPJKOIHIPBE",
        "type": "EMO_SYNC",
        "aliasList": [
          "1027"
        ],
        "actionId": 196,
        "_flag": 256,
        "_actionTagList": [
          "TalkSkip"
        ],
        "dataPath": "Cs_Emo_Avatar_Simple_Common_Set/Cs_Emo_Avatar_Talk/Cs_Emo_Coop_Common/Cs_Emo_Coop_Avatar/Noel/Cs_Emo_Avatar_Coop_Standby",
        "phonemePath": "",
        "emotionPath": "",
        "mateDataPath": "",
        "matePhonemePath": "",
        "mateEmotionPath": "",
        "dataPathHashList": [
          16064370949514879358,
          3885584420434779137,
          15328395374385473550,
          3040667432063390499
        ],
        "FMDPBECPELH": "",
        "ADKBLPOKGIK": ""
      },
      {
        "$type": "PKKMAMONGEO",
        "type": "DIALOG",
        "aliasList": [
          "1027"
        ],
        "actionId": 200,
        "_actionTagList": [
          "TalkSkip"
        ],
        "dialogID": 1906101509,
        "protectTime": 0.5
      },
      {
        "$type": "LJLMDHDCAMK",
        "type": "LOOK_AT",
        "aliasList": [
          "1027"
        ],
        "actionId": 201,
        "_flag": 64,
        "_actionTagList": [
          "TalkSkip"
        ],
        "targetNpcAlias": "",
        "lookAtTargetType": "NONE",
        "targetNpcLookAtPoint": "",
        "OAFJBHJHLJG": ""
      },
      {
        "$type": "FJKIHHKJLMJ",
        "type": "CAMERA_MOVE",
        "delayTime": 0.10000000149011612,
        "duration": 0.10000000149011612,
        "actionId": 199,
        "_actionTagList": [
          "TalkSkip"
        ],
        "cameraPosType": "EXIT",
        "camTargetType": "Other",
        "lerpPattern": 6,
        "cameraBlendType": "EaseInOutCubic",
        "NJBNNOMLKCK": {},
        "openCameraDither": false,
        "targetNpcAlias": "",
        "KJOEFBPOIIH": "",
        "IICFKKEBIEC": "",
        "EGEHEJEBLBJ": ""
      },
      {
        "$type": "CPJKOIHIPBE",
        "type": "EMO_SYNC",
        "delayTime": 0.5,
        "aliasList": [
          "1027"
        ],
        "actionId": 197,
        "_flag": 256,
        "_actionTagList": [
          "TalkSkip"
        ],
        "dataPath": "Cs_Emo_Avatar_Simple_Common_Set/Cs_Emo_Avatar_Talk/Cs_Emo_Coop_Common/Cs_Emo_Coop_Noel_01/Cs_Emo_1906101509",
        "phonemePath": "",
        "emotionPath": "",
        "mateDataPath": "",
        "matePhonemePath": "",
        "mateEmotionPath": "",
        "dataPathHashList": [
          11464662624917419622,
          674949866995555980,
          15534151884233213046,
          10306439529732559347
        ],
        "FMDPBECPELH": "",
        "ADKBLPOKGIK": ""
      },
      {
        "$type": "FABLGECDBCH",
        "type": "BODY_LANG",
        "delayTime": 1.0,
        "aliasList": [
          "1027"
        ],
        "actionId": 198,
        "_actionTagList": [
          "TalkSkip"
        ],
        "bodyLangParam": 10100,
        "forceDoFreeStyle": true,
        "canDoRepeatFreeStyle": false,
        "cantBackToIdleWhenSitLoop": true,
        "eventPatternSuiteKey": "",
        "FOHHKFAIAAJ": ""
      }
    ]
  ],
  "groupId": [
    {
      "grpId": 1267192141,
      "nextGrpId": 1267192142,
      "_noCircleNextGrpId": 1267192142
    },
    {
      "index": 1,
      "grpId": 1267192142,
      "nextGrpId": 1267192143,
      "_noCircleNextGrpId": 1267192143
    },
    {
      "index": 2,
      "grpId": 1267192143,
      "nextGrpId": 1267192144,
      "_noCircleNextGrpId": 1267192144
    },
    {
      "index": 3,
      "grpId": 1267192144,
      "nextGrpId": 1267192145,
      "_noCircleNextGrpId": 1267192145
    },
    {
      "index": 4,
      "grpId": 1267192145,
      "nextGrpId": 1267192146,
      "_noCircleNextGrpId": 1267192146
    },
    {
      "index": 5,
      "grpId": 1267192146,
      "nextGrpId": 1267192147,
      "_noCircleNextGrpId": 1267192147
    },
    {
      "index": 6,
      "grpId": 1267192147,
      "nextGrpId": 1267192148,
      "_noCircleNextGrpId": 1267192148
    },
    {
      "index": 7,
      "grpId": 1267192148,
      "nextGrpId": 1267192149,
      "_noCircleNextGrpId": 1267192149
    },
    {
      "index": 8,
      "grpId": 1267192149,
      "nextGrpId": 628250755,
      "_noCircleNextGrpId": 628250755
    },
    {
      "index": 9,
      "grpId": 628250755,
      "nextGrpId": 628250756,
      "_noCircleNextGrpId": 628250756
    }
  ],
  "freeStyleDic": {
    "1027": [
      10701,
      10100,
      10601,
      10801
    ]
  },
  "EKFBDAIDEEF": {
    "1027": [
      "SitHoldArm01AS"
    ]
  },
  "GBPIKOLLKJH": {
    "KGFBJNAEBHO": "",
    "ADMLEHAKCPC": ""
  },
  "NPFDEBDMHJP": 628250755,
  "KEAMPHGKKAG": {
    "ANJBPLIOPCP": ""
  }
}