{
  "luaDataPath": "",
  "startBlackKeepTime": 0.4000000059604645,
  "entityBan": "",
  "disableNpcLod": true,
  "startFade": {
    "startFadeInDuration": 0.30000001192092896,
    "startFadeOutDuration": 0.30000001192092896
  },
  "endFade": {
    "startFadeOutDuration": 0.0
  },
  "actors": [
    {
      "alias": "Avatar",
      "visible": true,
      "bornPointName": "Q19062WalkPlayer",
      "relativePosNpcAlias": "",
      "_bindMovingTargetKey": ""
    },
    {
      "configID": 1027,
      "alias": "1027",
      "visible": true,
      "bornPointName": "Q19062NoelWalkRoute5",
      "relativePosNpcAlias": "",
      "_bindMovingTargetKey": ""
    }
  ],
  "group": [
    [
      {
        "$type": "MoleMole.Config.ConfigTimeProtectAction",
        "type": "TIME_PROTECT",
        "duration": 0.30000001192092896
      },
      {
        "$type": "MoleMole.Config.ConfigSimpleBlackScreenAction",
        "type": "SIMPLE_BLACK_SCREEN",
        "duration": 1.2000000476837158,
        "durationToBlack": 0.30000001192092896,
        "durationKeepBlack": 0.5,
        "durationFromBlack": 0.30000001192092896,
        "textMapID": ""
      },
      {
        "$type": "PKKMAMONGEO",
        "type": "DIALOG_CLEAR",
        "delayTime": 0.30000001192092896
      },
      {
        "$type": "FJKIHHKJLMJ",
        "type": "CAMERA_MOVE",
        "camPosOffset": {
          "x": 2158.53662109375,
          "y": 207.28492736816406,
          "z": -1056.45458984375
        },
        "camForwardTargetOffset": {
          "x": 2159.508056640625,
          "y": 207.3052978515625,
          "z": -1056.6910400390625
        },
        "camFov": 85.58157348632812,
        "lerpPattern": 6,
        "cameraBlendType": "EaseInOutCubic",
        "NJBNNOMLKCK": {},
        "targetNpcAlias": "",
        "KJOEFBPOIIH": "",
        "IICFKKEBIEC": "",
        "EGEHEJEBLBJ": ""
      }
    ],
    [
      {
        "$type": "PKKMAMONGEO",
        "type": "DIALOG",
        "aliasList": [
          "1027"
        ],
        "dialogID": 1906102101
      },
      {
        "$type": "MoleMole.Config.ConfigEmotionTemplateAction",
        "type": "EMOTION_TEMPLATE",
        "aliasList": [
          "1027"
        ],
        "emoTemplateID": 10100
      },
      {
        "$type": "LLGANGLOEEO",
        "type": "STEER_TO",
        "aliasList": [
          "1027"
        ],
        "steerType": "TO_LOCAL_AVATAR",
        "targetNpcAlias": "",
        "OAFJBHJHLJG": ""
      }
    ],
    [
      {
        "$type": "MoleMole.Config.ConfigTimeProtectAction",
        "type": "TIME_PROTECT",
        "duration": 0.30000001192092896
      },
      {
        "$type": "MoleMole.Config.ConfigSimpleBlackScreenAction",
        "type": "SIMPLE_BLACK_SCREEN",
        "duration": 1.2000000476837158,
        "durationToBlack": 0.30000001192092896,
        "durationKeepBlack": 0.5,
        "durationFromBlack": 0.30000001192092896,
        "textMapID": ""
      },
      {
        "$type": "PKKMAMONGEO",
        "type": "DIALOG_CLEAR",
        "delayTime": 0.30000001192092896
      }
    ]
  ],
  "groupId": [
    {
      "grpId": 1267218088,
      "nextGrpId": 1267218089
    },
    {
      "index": 1,
      "grpId": 1267218089,
      "nextGrpId": 1267218090
    },
    {
      "index": 2,
      "grpId": 1267218090,
      "nextGrpId": 1267218091
    },
    {
      "index": 3,
      "grpId": 1267218091,
      "nextGrpId": 1267218092
    }
  ]
}