{
  "luaDataPath": "",
  "startBlackKeepTime": 1.0,
  "entityBan": "",
  "disableNpcLod": true,
  "startFade": {
    "startFadeInDuration": 0.5,
    "startFadeOutDuration": 0.5
  },
  "endFade": {
    "startFadeOutDuration": 0.0
  },
  "actors": [
    {
      "alias": "Avatar",
      "visible": true,
      "bornPointName": "Q72662_Talk1",
      "relativePosNpcAlias": "",
      "_bindMovingTargetKey": ""
    },
    {
      "configID": 3200,
      "alias": "3200",
      "visible": true,
      "bornPointName": "Q72662_jingjinghua2",
      "relativePosNpcAlias": "",
      "_bindMovingTargetKey": ""
    },
    {
      "configID": 1005,
      "alias": "1005",
      "visible": true,
      "bornPointName": "Q72662_Talk1",
      "removeActorType": "REMOVE_WITH_DISAPPEAR",
      "relativePosNpcAlias": "",
      "_bindMovingTargetKey": ""
    },
    {
      "configID": 12174,
      "alias": "12174",
      "visible": true,
      "bornPointName": "Q72662_Talk1",
      "removeActorType": "REMOVE",
      "relativePosNpcAlias": "",
      "_bindMovingTargetKey": ""
    }
  ],
  "group": [
    [
      {
        "$type": "MoleMole.Config.ConfigTimeProtectAction",
        "type": "TIME_PROTECT",
        "duration": 1.5
      },
      {
        "$type": "FJKIHHKJLMJ",
        "type": "CAMERA_MOVE",
        "duration": 0.13300000131130219,
        "camPosOffset": {
          "x": -2324.862060546875,
          "y": 201.16099548339844,
          "z": -4137.56982421875
        },
        "camForwardTargetOffset": {
          "x": -2323.904052734375,
          "y": 201.1719970703125,
          "z": -4137.85693359375
        },
        "camFov": 30.0,
        "lerpPattern": 6,
        "cameraBlendType": "EaseInOutCubic",
        "NJBNNOMLKCK": {},
        "openCameraDither": false,
        "targetNpcAlias": "",
        "closeTreeLeafDither": true,
        "KJOEFBPOIIH": "",
        "IICFKKEBIEC": "",
        "EGEHEJEBLBJ": ""
      },
      {
        "$type": "MoleMole.Config.ConfigSimpleBlackScreenAction",
        "type": "SIMPLE_BLACK_SCREEN",
        "durationToBlack": 0.5,
        "durationKeepBlack": 1.0,
        "durationFromBlack": 0.5,
        "textMapID": "",
        "useTextFade": true
      },
      {
        "$type": "MoleMole.Config.ConfigTeleportToAction",
        "type": "TELEPORT_TO",
        "aliasList": [
          "Avatar"
        ],
        "position": {
          "x": -2322.282958984375,
          "y": 200.11199951171875,
          "z": -4137.7978515625
        },
        "forward": {
          "x": 1.184999942779541,
          "y": -0.009999999776482582,
          "z": -1.065999984741211
        },
        "_posBindMovingTargetKey": "",
        "_forwardBindMovingTargetKey": ""
      },
      {
        "$type": "LJLMDHDCAMK",
        "type": "LOOK_AT",
        "aliasList": [
          "Avatar"
        ],
        "enableHead": true,
        "useTargetPos": true,
        "enableAbsolute": true,
        "targetPosition": {
          "x": -2321.008056640625,
          "y": 201.48599243164062,
          "z": -4138.8359375
        },
        "headTurnTime": 0.5,
        "targetNpcAlias": "",
        "targetNpcLookAtPoint": "",
        "OAFJBHJHLJG": ""
      },
      {
        "$type": "MoleMole.Config.ConfigTeleportToAction",
        "type": "TELEPORT_TO",
        "aliasList": [
          "3200"
        ],
        "position": {
          "x": -2321.034912109375,
          "y": 199.9550018310547,
          "z": -4138.87890625
        },
        "forward": {
          "x": -0.7509999871253967,
          "z": 0.6600000262260437
        },
        "_posBindMovingTargetKey": "",
        "_forwardBindMovingTargetKey": ""
      },
      {
        "$type": "LJLMDHDCAMK",
        "type": "LOOK_AT",
        "aliasList": [
          "3200"
        ],
        "enableHead": true,
        "useTargetPos": true,
        "enableAbsolute": true,
        "targetPosition": {
          "x": -2322.2490234375,
          "y": 201.48599243164062,
          "z": -4137.8662109375
        },
        "headTurnTime": 0.5,
        "targetNpcAlias": "",
        "targetNpcLookAtPoint": "",
        "OAFJBHJHLJG": ""
      },
      {
        "$type": "MoleMole.Config.ConfigTeleportToAction",
        "type": "TELEPORT_TO",
        "aliasList": [
          "1005"
        ],
        "position": {
          "x": -2322.7041015625,
          "y": 200.0,
          "z": -4138.85302734375
        },
        "forward": {
          "x": 1.7640000581741333,
          "y": -0.10199999809265137,
          "z": 0.027000000700354576
        },
        "_posBindMovingTargetKey": "",
        "_forwardBindMovingTargetKey": ""
      },
      {
        "$type": "LJLMDHDCAMK",
        "type": "LOOK_AT",
        "aliasList": [
          "1005"
        ],
        "enableHead": true,
        "useTargetPos": true,
        "enableAbsolute": true,
        "targetPosition": {
          "x": -2321.008056640625,
          "y": 201.48599243164062,
          "z": -4138.8359375
        },
        "headTurnTime": 0.5,
        "targetNpcAlias": "",
        "targetNpcLookAtPoint": "",
        "OAFJBHJHLJG": ""
      },
      {
        "$type": "MoleMole.Config.ConfigVisibleInterAction",
        "type": "VISIBLE",
        "aliasList": [
          "12174"
        ],
        "_extraParam": ""
      },
      {
        "$type": "MoleMole.Config.ConfigTeleportToAction",
        "type": "TELEPORT_TO",
        "aliasList": [
          "12174"
        ],
        "position": {
          "x": -2327.2548828125,
          "y": 200.17100524902344,
          "z": -4156.0419921875
        },
        "forward": {
          "x": -1.3700000047683716,
          "y": -0.34299999475479126,
          "z": 6.36299991607666
        },
        "_posBindMovingTargetKey": "",
        "_forwardBindMovingTargetKey": ""
      }
    ],
    [
      {
        "$type": "FJKIHHKJLMJ",
        "type": "CAMERA_MOVE",
        "duration": 1.0,
        "camPosOffset": {
          "x": -2324.862060546875,
          "y": 201.16099548339844,
          "z": -4137.56982421875
        },
        "camForwardTargetOffset": {
          "x": -2323.904052734375,
          "y": 201.1719970703125,
          "z": -4137.85693359375
        },
        "camFov": 30.0,
        "lerpPattern": 6,
        "cameraBlendType": "EaseInOutCubic",
        "NJBNNOMLKCK": {},
        "openCameraDither": false,
        "targetNpcAlias": "",
        "closeTreeLeafDither": true,
        "KJOEFBPOIIH": "",
        "IICFKKEBIEC": "",
        "EGEHEJEBLBJ": ""
      },
      {
        "$type": "HDGKHDNFMIM",
        "type": "DIALOG_SELECT",
        "delayTime": 0.4000000059604645,
        "aliasList": [
          "Avatar"
        ],
        "dialogIDList": [
          726620202
        ],
        "grpIDList": [
          2539786038
        ],
        "useGrpId": true
      },
      {
        "$type": "FABLGECDBCH",
        "type": "BODY_LANG",
        "delayTime": 0.3930000066757202,
        "aliasList": [
          "Avatar"
        ],
        "isContinue": true,
        "forceDoFreeStyle": true,
        "canDoRepeatFreeStyle": false,
        "eventPatternSuiteKey": "",
        "FOHHKFAIAAJ": ""
      },
      {
        "$type": "PKKMAMONGEO",
        "type": "DIALOG",
        "aliasList": [
          "3200"
        ],
        "dialogID": 726620201,
        "protectTime": 0.5
      },
      {
        "$type": "FABLGECDBCH",
        "type": "BODY_LANG",
        "aliasList": [
          "3200"
        ],
        "bodyLangParam": 1130,
        "forceDoFreeStyle": true,
        "canDoRepeatFreeStyle": false,
        "eventPatternSuiteKey": "",
        "FOHHKFAIAAJ": ""
      }
    ],
    [
      {
        "$type": "FJKIHHKJLMJ",
        "type": "CAMERA_MOVE",
        "delayTime": 0.08100000023841858,
        "duration": 4.519000053405762,
        "camPosOffset": {
          "x": -2321.84912109375,
          "y": 201.43600463867188,
          "z": -4138.38818359375
        },
        "camForwardTargetOffset": {
          "x": -2320.989013671875,
          "y": 201.4709930419922,
          "z": -4138.89697265625
        },
        "camFov": 30.0,
        "cameraBlendType": "EaseOutQuad",
        "NJBNNOMLKCK": {},
        "openCameraDither": false,
        "targetNpcAlias": "",
        "closeTreeLeafDither": true,
        "KJOEFBPOIIH": "",
        "IICFKKEBIEC": "",
        "EGEHEJEBLBJ": ""
      },
      {
        "$type": "FJKIHHKJLMJ",
        "type": "CAMERA_MOVE",
        "duration": 1.0,
        "camPosOffset": {
          "x": -2321.929931640625,
          "y": 201.43299865722656,
          "z": -4138.3388671875
        },
        "camForwardTargetOffset": {
          "x": -2321.070068359375,
          "y": 201.46800231933594,
          "z": -4138.84814453125
        },
        "camFov": 30.0,
        "lerpPattern": 6,
        "cameraBlendType": "EaseInOutCubic",
        "NJBNNOMLKCK": {},
        "openCameraDither": false,
        "targetNpcAlias": "",
        "closeTreeLeafDither": true,
        "KJOEFBPOIIH": "",
        "IICFKKEBIEC": "",
        "EGEHEJEBLBJ": ""
      },
      {
        "$type": "PKKMAMONGEO",
        "type": "DIALOG",
        "aliasList": [
          "3200"
        ],
        "dialogID": 726620203,
        "protectTime": 0.5
      },
      {
        "$type": "LJLMDHDCAMK",
        "type": "LOOK_AT",
        "aliasList": [
          "3200"
        ],
        "enableHead": true,
        "useTargetPos": true,
        "enableAbsolute": true,
        "targetPosition": {
          "x": -2321.575927734375,
          "y": 201.26100158691406,
          "z": -4138.48388671875
        },
        "headTurnTime": 0.5,
        "targetNpcAlias": "",
        "targetNpcLookAtPoint": "",
        "OAFJBHJHLJG": ""
      },
      {
        "$type": "FABLGECDBCH",
        "type": "BODY_LANG",
        "aliasList": [
          "3200"
        ],
        "isContinue": true,
        "forceDoFreeStyle": true,
        "canDoRepeatFreeStyle": false,
        "eventPatternSuiteKey": "",
        "FOHHKFAIAAJ": ""
      },
      {
        "$type": "EMEHNEMOMMM",
        "type": "LOOK_AT_EYECTRL",
        "aliasList": [
          "3200"
        ],
        "useTargetPos": false,
        "eyeRotateVecLeft": {
          "z": 4.0
        },
        "eyeRotateVecRight": {
          "z": 4.0
        },
        "turnTime": 0.15000000596046448,
        "targetNpcAlias": "",
        "targetPoint": "Face"
      }
    ],
    [
      {
        "$type": "FJKIHHKJLMJ",
        "type": "CAMERA_MOVE",
        "delayTime": 3.2100000381469727,
        "duration": 8.286999702453613,
        "camPosOffset": {
          "x": -2320.905029296875,
          "y": 201.3419952392578,
          "z": -4139.7138671875
        },
        "camForwardTargetOffset": {
          "x": -2321.319091796875,
          "y": 201.35899353027344,
          "z": -4138.80419921875
        },
        "camFov": 30.0,
        "cameraBlendType": "EaseOutQuad",
        "NJBNNOMLKCK": {},
        "openCameraDither": false,
        "targetNpcAlias": "",
        "closeTreeLeafDither": true,
        "KJOEFBPOIIH": "",
        "IICFKKEBIEC": "",
        "EGEHEJEBLBJ": ""
      },
      {
        "$type": "MoleMole.Config.ConfigSimpleBlackScreenAction",
        "type": "SIMPLE_BLACK_SCREEN",
        "duration": 5.0,
        "durationToBlack": 0.5,
        "durationKeepBlack": 3.5,
        "durationFromBlack": 1.0,
        "textMapID": "QUEST_Message_Q72662",
        "useTextFade": true
      },
      {
        "$type": "FJKIHHKJLMJ",
        "type": "CAMERA_MOVE",
        "delayTime": 2.997999906539917,
        "duration": 1.0,
        "camPosOffset": {
          "x": -2320.837890625,
          "y": 201.49400329589844,
          "z": -4139.60595703125
        },
        "camForwardTargetOffset": {
          "x": -2321.322998046875,
          "y": 201.42100524902344,
          "z": -4138.73388671875
        },
        "camFov": 30.0,
        "lerpPattern": 6,
        "cameraBlendType": "EaseInOutCubic",
        "NJBNNOMLKCK": {},
        "openCameraDither": false,
        "targetNpcAlias": "",
        "closeTreeLeafDither": true,
        "KJOEFBPOIIH": "",
        "IICFKKEBIEC": "",
        "EGEHEJEBLBJ": ""
      },
      {
        "$type": "MoleMole.Config.ConfigTimeProtectAction",
        "type": "TIME_PROTECT",
        "delayTime": 0.02199999988079071,
        "duration": 4.5
      },
      {
        "$type": "PKKMAMONGEO",
        "type": "DIALOG",
        "delayTime": 3.0230000019073486,
        "aliasList": [
          "3200"
        ],
        "dialogID": 726620204,
        "protectTime": 0.5
      },
      {
        "$type": "FABLGECDBCH",
        "type": "BODY_LANG",
        "delayTime": 3.446000099182129,
        "aliasList": [
          "3200"
        ],
        "bodyLangParam": 1030,
        "forceDoFreeStyle": true,
        "canDoRepeatFreeStyle": false,
        "eventPatternSuiteKey": "",
        "FOHHKFAIAAJ": ""
      },
      {
        "$type": "LJLMDHDCAMK",
        "type": "LOOK_AT",
        "delayTime": 3.1589999198913574,
        "aliasList": [
          "3200"
        ],
        "enableHead": true,
        "headTurnTime": 0.5,
        "targetNpcAlias": "Avatar",
        "targetNpcLookAtPoint": "",
        "OAFJBHJHLJG": ""
      },
      {
        "$type": "EMEHNEMOMMM",
        "type": "LOOK_AT_EYECTRL",
        "delayTime": 3.2060000896453857,
        "aliasList": [
          "3200"
        ],
        "useTargetPos": false,
        "turnTime": 0.15000000596046448,
        "targetNpcAlias": "",
        "targetPoint": "Face"
      }
    ],
    [
      {
        "$type": "FJKIHHKJLMJ",
        "type": "CAMERA_MOVE",
        "delayTime": 0.07400000095367432,
        "duration": 6.163000106811523,
        "camPosOffset": {
          "x": -2325.175048828125,
          "y": 203.12100219726562,
          "z": -4140.42919921875
        },
        "camForwardTargetOffset": {
          "x": -2324.43310546875,
          "y": 202.64500427246094,
          "z": -4139.95703125
        },
        "camFov": 30.0,
        "cameraBlendType": "EaseOutQuad",
        "NJBNNOMLKCK": {},
        "openCameraDither": false,
        "targetNpcAlias": "",
        "closeTreeLeafDither": true,
        "KJOEFBPOIIH": "",
        "IICFKKEBIEC": "",
        "EGEHEJEBLBJ": ""
      },
      {
        "$type": "FJKIHHKJLMJ",
        "type": "CAMERA_MOVE",
        "duration": 0.7419999837875366,
        "camPosOffset": {
          "x": -2325.339111328125,
          "y": 203.19900512695312,
          "z": -4140.0478515625
        },
        "camForwardTargetOffset": {
          "x": -2324.55810546875,
          "y": 202.7050018310547,
          "z": -4139.666015625
        },
        "camFov": 30.0,
        "lerpPattern": 6,
        "cameraBlendType": "EaseInOutCubic",
        "NJBNNOMLKCK": {},
        "openCameraDither": false,
        "targetNpcAlias": "",
        "closeTreeLeafDither": true,
        "KJOEFBPOIIH": "",
        "IICFKKEBIEC": "",
        "EGEHEJEBLBJ": ""
      },
      {
        "$type": "FABLGECDBCH",
        "type": "BODY_LANG",
        "aliasList": [
          "Avatar"
        ],
        "isContinue": true,
        "forceDoFreeStyle": true,
        "canDoRepeatFreeStyle": false,
        "eventPatternSuiteKey": "",
        "FOHHKFAIAAJ": ""
      },
      {
        "$type": "LJLMDHDCAMK",
        "type": "LOOK_AT",
        "aliasList": [
          "Avatar"
        ],
        "enableHead": true,
        "headTurnTime": 1.5,
        "targetNpcAlias": "1005",
        "targetNpcLookAtPoint": "",
        "OAFJBHJHLJG": ""
      },
      {
        "$type": "FABLGECDBCH",
        "type": "BODY_LANG",
        "aliasList": [
          "3200"
        ],
        "isContinue": true,
        "forceDoFreeStyle": true,
        "canDoRepeatFreeStyle": false,
        "eventPatternSuiteKey": "",
        "FOHHKFAIAAJ": ""
      },
      {
        "$type": "PKKMAMONGEO",
        "type": "DIALOG",
        "aliasList": [
          "1005"
        ],
        "dialogID": 726620205,
        "protectTime": 0.5
      }
    ],
    [
      {
        "$type": "FJKIHHKJLMJ",
        "type": "CAMERA_MOVE",
        "delayTime": 0.07900000363588333,
        "duration": 17.11400032043457,
        "camPosOffset": {
          "x": -2321.9208984375,
          "y": 201.26499938964844,
          "z": -4139.916015625
        },
        "camForwardTargetOffset": {
          "x": -2321.427001953125,
          "y": 201.35400390625,
          "z": -4139.05078125
        },
        "camFov": 30.0,
        "cameraBlendType": "EaseOutQuad",
        "NJBNNOMLKCK": {},
        "openCameraDither": false,
        "targetNpcAlias": "",
        "closeTreeLeafDither": true,
        "KJOEFBPOIIH": "",
        "IICFKKEBIEC": "",
        "EGEHEJEBLBJ": ""
      },
      {
        "$type": "FJKIHHKJLMJ",
        "type": "CAMERA_MOVE",
        "duration": 1.0,
        "camPosOffset": {
          "x": -2322.126953125,
          "y": 201.281005859375,
          "z": -4139.77880859375
        },
        "camForwardTargetOffset": {
          "x": -2321.513916015625,
          "y": 201.36099243164062,
          "z": -4138.9931640625
        },
        "camFov": 30.0,
        "lerpPattern": 6,
        "cameraBlendType": "EaseInOutCubic",
        "NJBNNOMLKCK": {},
        "openCameraDither": false,
        "targetNpcAlias": "",
        "closeTreeLeafDither": true,
        "KJOEFBPOIIH": "",
        "IICFKKEBIEC": "",
        "EGEHEJEBLBJ": ""
      },
      {
        "$type": "PKKMAMONGEO",
        "type": "DIALOG",
        "aliasList": [
          "3200"
        ],
        "dialogID": 726620206,
        "protectTime": 0.5
      },
      {
        "$type": "LJLMDHDCAMK",
        "type": "LOOK_AT",
        "delayTime": 0.9470000267028809,
        "aliasList": [
          "3200"
        ],
        "enableHead": true,
        "useTargetPos": true,
        "enableAbsolute": true,
        "targetPosition": {
          "x": -2320.81298828125,
          "y": 201.68299865722656,
          "z": -4137.783203125
        },
        "headTurnTime": 1.5,
        "targetNpcAlias": "",
        "targetNpcLookAtPoint": "",
        "OAFJBHJHLJG": ""
      },
      {
        "$type": "LLGANGLOEEO",
        "type": "STEER_TO",
        "duration": 1.5,
        "aliasList": [
          "3200"
        ],
        "steerType": "ABSOLUTE",
        "steerDir": {
          "x": -2316.6630859375,
          "y": 201.76300048828125,
          "z": -4132.8310546875
        },
        "useSteerAnim": true,
        "targetNpcAlias": "",
        "OAFJBHJHLJG": ""
      },
      {
        "$type": "MoleMole.Config.ConfigTimeProtectAction",
        "type": "TIME_PROTECT",
        "duration": 3.0,
        "aliasList": [
          "3200"
        ]
      }
    ],
    [
      {
        "$type": "FJKIHHKJLMJ",
        "type": "CAMERA_MOVE",
        "delayTime": 0.11800000071525574,
        "duration": 9.932000160217285,
        "camPosOffset": {
          "x": -2330.864013671875,
          "y": 200.14300537109375,
          "z": -4142.8408203125
        },
        "camForwardTargetOffset": {
          "x": -2329.943115234375,
          "y": 200.27699279785156,
          "z": -4142.47607421875
        },
        "camFov": 30.0,
        "cameraBlendType": "EaseOutQuad",
        "NJBNNOMLKCK": {},
        "openCameraDither": false,
        "targetNpcAlias": "",
        "closeTreeLeafDither": true,
        "KJOEFBPOIIH": "",
        "IICFKKEBIEC": "",
        "EGEHEJEBLBJ": ""
      },
      {
        "$type": "FJKIHHKJLMJ",
        "type": "CAMERA_MOVE",
        "duration": 1.0,
        "camPosOffset": {
          "x": -2330.697998046875,
          "y": 200.14500427246094,
          "z": -4143.08984375
        },
        "camForwardTargetOffset": {
          "x": -2329.7900390625,
          "y": 200.29400634765625,
          "z": -4142.6982421875
        },
        "camFov": 30.0,
        "lerpPattern": 6,
        "cameraBlendType": "EaseInOutCubic",
        "NJBNNOMLKCK": {},
        "openCameraDither": false,
        "targetNpcAlias": "",
        "closeTreeLeafDither": true,
        "KJOEFBPOIIH": "",
        "IICFKKEBIEC": "",
        "EGEHEJEBLBJ": ""
      },
      {
        "$type": "LLGANGLOEEO",
        "type": "STEER_TO",
        "duration": 2.0,
        "aliasList": [
          "Avatar"
        ],
        "steerType": "ABSOLUTE",
        "useSteerAnim": true,
        "targetNpcAlias": "",
        "OAFJBHJHLJG": ""
      },
      {
        "$type": "MoleMole.Config.ConfigTeleportToAction",
        "type": "TELEPORT_TO",
        "aliasList": [
          "Avatar"
        ],
        "position": {
          "x": -2322.48095703125,
          "y": 200.13099670410156,
          "z": -4137.5419921875
        },
        "forward": {
          "x": 0.9409999847412109,
          "y": -0.01899999938905239,
          "z": -0.925000011920929
        },
        "_posBindMovingTargetKey": "",
        "_forwardBindMovingTargetKey": ""
      },
      {
        "$type": "LJLMDHDCAMK",
        "type": "LOOK_AT",
        "aliasList": [
          "Avatar"
        ],
        "enableHead": true,
        "useTargetPos": true,
        "enableAbsolute": true,
        "targetPosition": {
          "x": -2319.0419921875,
          "y": 201.5590057373047,
          "z": -4131.30810546875
        },
        "headTurnTime": 1.5,
        "targetNpcAlias": "",
        "targetNpcLookAtPoint": "",
        "OAFJBHJHLJG": ""
      },
      {
        "$type": "PKKMAMONGEO",
        "type": "DIALOG",
        "aliasList": [
          "3200"
        ],
        "dialogID": 726620207,
        "protectTime": 0.5
      },
      {
        "$type": "MoleMole.Config.ConfigTeleportToAction",
        "type": "TELEPORT_TO",
        "aliasList": [
          "1005"
        ],
        "position": {
          "x": -2322.462890625,
          "y": 200.0,
          "z": -4138.912109375
        },
        "forward": {
          "x": 0.8500000238418579,
          "y": -0.010999999940395355,
          "z": -0.01600000075995922
        },
        "_posBindMovingTargetKey": "",
        "_forwardBindMovingTargetKey": ""
      },
      {
        "$type": "LLGANGLOEEO",
        "type": "STEER_TO",
        "duration": 1.5,
        "aliasList": [
          "1005"
        ],
        "steerType": "ABSOLUTE",
        "steerDir": {
          "x": -2318.4609375,
          "y": 200.8730010986328,
          "z": -4132.60400390625
        },
        "useSteerAnim": true,
        "targetNpcAlias": "",
        "OAFJBHJHLJG": ""
      },
      {
        "$type": "LJLMDHDCAMK",
        "type": "LOOK_AT",
        "aliasList": [
          "1005"
        ],
        "enableHead": true,
        "useTargetPos": true,
        "enableAbsolute": true,
        "targetPosition": {
          "x": -2320.81298828125,
          "y": 201.68299865722656,
          "z": -4137.783203125
        },
        "headTurnTime": 1.5,
        "targetNpcAlias": "",
        "targetNpcLookAtPoint": "",
        "OAFJBHJHLJG": ""
      }
    ],
    [
      {
        "$type": "FJKIHHKJLMJ",
        "type": "CAMERA_MOVE",
        "duration": 9.932000160217285,
        "camPosOffset": {
          "x": -2330.884033203125,
          "y": 200.14500427246094,
          "z": -4142.791015625
        },
        "camForwardTargetOffset": {
          "x": -2329.962890625,
          "y": 200.2790069580078,
          "z": -4142.42578125
        },
        "camFov": 30.0,
        "cameraBlendType": "EaseOutQuad",
        "NJBNNOMLKCK": {},
        "openCameraDither": false,
        "targetNpcAlias": "",
        "closeTreeLeafDither": true,
        "KJOEFBPOIIH": "",
        "IICFKKEBIEC": "",
        "EGEHEJEBLBJ": ""
      },
      {
        "$type": "HDGKHDNFMIM",
        "type": "DIALOG_SELECT",
        "delayTime": 0.4000000059604645,
        "aliasList": [
          "Avatar"
        ],
        "dialogIDList": [
          726620209
        ],
        "grpIDList": [
          2539786044
        ],
        "useGrpId": true
      },
      {
        "$type": "PKKMAMONGEO",
        "type": "DIALOG",
        "aliasList": [
          "3200"
        ],
        "dialogID": 726620208,
        "protectTime": 0.5
      }
    ],
    [
      {
        "$type": "FJKIHHKJLMJ",
        "type": "CAMERA_MOVE",
        "duration": 1.0,
        "camPosOffset": {
          "x": -2327.422119140625,
          "y": 200.36199951171875,
          "z": -4137.48388671875
        },
        "camForwardTargetOffset": {
          "x": -2326.428955078125,
          "y": 200.47799682617188,
          "z": -4137.4970703125
        },
        "camFov": 30.0,
        "lerpPattern": 6,
        "cameraBlendType": "EaseInOutCubic",
        "NJBNNOMLKCK": {},
        "openCameraDither": false,
        "targetNpcAlias": "",
        "closeTreeLeafDither": true,
        "KJOEFBPOIIH": "",
        "IICFKKEBIEC": "",
        "EGEHEJEBLBJ": ""
      },
      {
        "$type": "FJKIHHKJLMJ",
        "type": "CAMERA_MOVE",
        "delayTime": 0.15199999511241913,
        "duration": 11.059000015258789,
        "camPosOffset": {
          "x": -2327.41796875,
          "y": 200.343994140625,
          "z": -4137.298828125
        },
        "camForwardTargetOffset": {
          "x": -2326.425048828125,
          "y": 200.4600067138672,
          "z": -4137.31201171875
        },
        "camFov": 30.0,
        "cameraBlendType": "EaseOutQuad",
        "NJBNNOMLKCK": {},
        "openCameraDither": false,
        "targetNpcAlias": "",
        "closeTreeLeafDither": true,
        "KJOEFBPOIIH": "",
        "IICFKKEBIEC": "",
        "EGEHEJEBLBJ": ""
      },
      {
        "$type": "PKKMAMONGEO",
        "type": "DIALOG",
        "aliasList": [
          "3200"
        ],
        "dialogID": 726620210,
        "protectTime": 0.5
      },
      {
        "$type": "LJLMDHDCAMK",
        "type": "LOOK_AT",
        "aliasList": [
          "3200"
        ],
        "enableHead": true,
        "useTargetPos": true,
        "enableAbsolute": true,
        "targetPosition": {
          "x": -2319.985107421875,
          "y": 200.77099609375,
          "z": -4136.755859375
        },
        "headTurnTime": 0.5,
        "targetNpcAlias": "",
        "targetNpcLookAtPoint": "",
        "OAFJBHJHLJG": ""
      }
    ],
    [
      {
        "$type": "FJKIHHKJLMJ",
        "type": "CAMERA_MOVE",
        "delayTime": 0.0989999994635582,
        "duration": 7.942999839782715,
        "camPosOffset": {
          "x": -2321.89501953125,
          "y": 201.3260040283203,
          "z": -4138.20703125
        },
        "camForwardTargetOffset": {
          "x": -2320.9990234375,
          "y": 201.44200134277344,
          "z": -4138.63623046875
        },
        "camFov": 30.0,
        "cameraBlendType": "EaseOutQuad",
        "NJBNNOMLKCK": {},
        "openCameraDither": false,
        "targetNpcAlias": "",
        "closeTreeLeafDither": true,
        "KJOEFBPOIIH": "",
        "IICFKKEBIEC": "",
        "EGEHEJEBLBJ": ""
      },
      {
        "$type": "FJKIHHKJLMJ",
        "type": "CAMERA_MOVE",
        "duration": 1.0,
        "camPosOffset": {
          "x": -2321.9189453125,
          "y": 201.32899475097656,
          "z": -4138.255859375
        },
        "camForwardTargetOffset": {
          "x": -2321.02294921875,
          "y": 201.44500732421875,
          "z": -4138.68505859375
        },
        "camFov": 30.0,
        "lerpPattern": 6,
        "cameraBlendType": "EaseInOutCubic",
        "NJBNNOMLKCK": {},
        "openCameraDither": false,
        "targetNpcAlias": "",
        "closeTreeLeafDither": true,
        "KJOEFBPOIIH": "",
        "IICFKKEBIEC": "",
        "EGEHEJEBLBJ": ""
      },
      {
        "$type": "PKKMAMONGEO",
        "type": "DIALOG",
        "aliasList": [
          "3200"
        ],
        "dialogID": 726620211,
        "protectTime": 0.5
      },
      {
        "$type": "LJLMDHDCAMK",
        "type": "LOOK_AT",
        "aliasList": [
          "3200"
        ],
        "enableHead": true,
        "useTargetPos": true,
        "enableAbsolute": true,
        "targetPosition": {
          "x": -2319.985107421875,
          "y": 201.69000244140625,
          "z": -4136.755859375
        },
        "headTurnTime": 0.5,
        "targetNpcAlias": "",
        "targetNpcLookAtPoint": "",
        "OAFJBHJHLJG": ""
      }
    ],
    [
      {
        "$type": "MoleMole.Config.ConfigLuaAction",
        "type": "LUA_ACTION",
        "delayTime": 0.10000000149011612,
        "duration": 0.10000000149011612,
        "invoke": true,
        "invokeAlias": "72662",
        "invokeParam": 7266202
      },
      {
        "$type": "FJKIHHKJLMJ",
        "type": "CAMERA_MOVE",
        "delayTime": 0.17800000309944153,
        "duration": 9.067000389099121,
        "camPosOffset": {
          "x": -2318.2529296875,
          "y": 200.19700622558594,
          "z": -4131.30419921875
        },
        "camForwardTargetOffset": {
          "x": -2318.701904296875,
          "y": 200.28599548339844,
          "z": -4132.19287109375
        },
        "camFov": 30.0,
        "cameraBlendType": "EaseOutQuad",
        "NJBNNOMLKCK": {},
        "openCameraDither": false,
        "targetNpcAlias": "",
        "closeTreeLeafDither": true,
        "KJOEFBPOIIH": "",
        "IICFKKEBIEC": "",
        "EGEHEJEBLBJ": ""
      },
      {
        "$type": "FJKIHHKJLMJ",
        "type": "CAMERA_MOVE",
        "duration": 1.0,
        "camPosOffset": {
          "x": -2318.5458984375,
          "y": 200.2550048828125,
          "z": -4131.8818359375
        },
        "camForwardTargetOffset": {
          "x": -2318.9951171875,
          "y": 200.343994140625,
          "z": -4132.77099609375
        },
        "camFov": 30.0,
        "lerpPattern": 6,
        "cameraBlendType": "EaseInOutCubic",
        "NJBNNOMLKCK": {},
        "openCameraDither": false,
        "targetNpcAlias": "",
        "closeTreeLeafDither": true,
        "KJOEFBPOIIH": "",
        "IICFKKEBIEC": "",
        "EGEHEJEBLBJ": ""
      },
      {
        "$type": "MoleMole.Config.ConfigAudioPlayAction",
        "type": "AUDIO_PLAY",
        "audioEventStr": "Play_sfx_quest_fishing_72662_fish"
      },
      {
        "$type": "FABLGECDBCH",
        "type": "BODY_LANG",
        "aliasList": [
          "Avatar"
        ],
        "bodyLangParam": 4220,
        "forceDoFreeStyle": true,
        "canDoRepeatFreeStyle": false,
        "eventPatternSuiteKey": "",
        "FOHHKFAIAAJ": ""
      },
      {
        "$type": "MoleMole.Config.ConfigTeleportToAction",
        "type": "TELEPORT_TO",
        "aliasList": [
          "Avatar"
        ],
        "position": {
          "x": -2322.48095703125,
          "y": 200.13099670410156,
          "z": -4137.5419921875
        },
        "forward": {
          "x": 0.04500000178813934,
          "z": 1.3530000448226929
        },
        "_posBindMovingTargetKey": "",
        "_forwardBindMovingTargetKey": ""
      },
      {
        "$type": "PKKMAMONGEO",
        "type": "DIALOG",
        "aliasList": [
          "1005"
        ],
        "dialogID": 726620212,
        "protectTime": 0.5
      },
      {
        "$type": "FABLGECDBCH",
        "type": "BODY_LANG",
        "delayTime": 1.5379999876022339,
        "aliasList": [
          "1005"
        ],
        "bodyLangParam": 1250,
        "forceDoFreeStyle": true,
        "canDoRepeatFreeStyle": false,
        "eventPatternSuiteKey": "",
        "FOHHKFAIAAJ": ""
      },
      {
        "$type": "LJLMDHDCAMK",
        "type": "LOOK_AT",
        "aliasList": [
          "1005"
        ],
        "enableHead": true,
        "useTargetPos": true,
        "enableAbsolute": true,
        "targetPosition": {
          "x": -2320.2939453125,
          "y": 201.3699951171875,
          "z": -4135.01513671875
        },
        "headTurnTime": 0.5,
        "targetNpcAlias": "",
        "targetNpcLookAtPoint": "",
        "OAFJBHJHLJG": ""
      }
    ],
    [
      {
        "$type": "MoleMole.Config.ConfigTimeProtectAction",
        "type": "TIME_PROTECT",
        "duration": 3.0480000972747803
      },
      {
        "$type": "FJKIHHKJLMJ",
        "type": "CAMERA_MOVE",
        "delayTime": 0.17800000309944153,
        "duration": 11.059000015258789,
        "camPosOffset": {
          "x": -2323.6630859375,
          "y": 200.96400451660156,
          "z": -4143.35791015625
        },
        "camForwardTargetOffset": {
          "x": -2323.342041015625,
          "y": 201.0590057373047,
          "z": -4142.416015625
        },
        "cameraBlendType": "EaseOutQuad",
        "NJBNNOMLKCK": {},
        "openCameraDither": false,
        "targetNpcAlias": "",
        "closeTreeLeafDither": true,
        "KJOEFBPOIIH": "",
        "IICFKKEBIEC": "",
        "EGEHEJEBLBJ": ""
      },
      {
        "$type": "FJKIHHKJLMJ",
        "type": "CAMERA_MOVE",
        "duration": 1.0,
        "camPosOffset": {
          "x": -2324.089111328125,
          "y": 200.96400451660156,
          "z": -4143.19384765625
        },
        "camForwardTargetOffset": {
          "x": -2323.697998046875,
          "y": 201.0590057373047,
          "z": -4142.27783203125
        },
        "lerpPattern": 6,
        "cameraBlendType": "EaseInOutCubic",
        "NJBNNOMLKCK": {},
        "openCameraDither": false,
        "targetNpcAlias": "",
        "closeTreeLeafDither": true,
        "KJOEFBPOIIH": "",
        "IICFKKEBIEC": "",
        "EGEHEJEBLBJ": ""
      },
      {
        "$type": "PKKMAMONGEO",
        "type": "DIALOG_CLEAR"
      },
      {
        "$type": "MoleMole.Config.ConfigTeleportToAction",
        "type": "TELEPORT_TO",
        "aliasList": [
          "1005"
        ],
        "position": {
          "x": -2321.6669921875,
          "y": 200.0,
          "z": -4138.23291015625
        },
        "forward": {
          "x": 0.5550000071525574,
          "y": -0.010999999940395355,
          "z": 1.7669999599456787
        },
        "_posBindMovingTargetKey": "",
        "_forwardBindMovingTargetKey": ""
      }
    ],
    [
      {
        "$type": "MoleMole.Config.ConfigLuaAction",
        "type": "LUA_ACTION",
        "delayTime": 0.10000000149011612,
        "duration": 0.10000000149011612,
        "invoke": true,
        "invokeAlias": "72662",
        "invokeParam": 7266209
      },
      {
        "$type": "FJKIHHKJLMJ",
        "type": "CAMERA_MOVE",
        "duration": 0.8880000114440918,
        "camPosOffset": {
          "x": -2296.6298828125,
          "y": 206.22000122070312,
          "z": -4073.799072265625
        },
        "camForwardTargetOffset": {
          "x": -2296.239013671875,
          "y": 205.6300048828125,
          "z": -4073.092041015625
        },
        "lerpPattern": 6,
        "cameraBlendType": "EaseOutQuad",
        "NJBNNOMLKCK": {},
        "openCameraDither": false,
        "targetNpcAlias": "",
        "closeTreeLeafDither": true,
        "KJOEFBPOIIH": "",
        "IICFKKEBIEC": "",
        "EGEHEJEBLBJ": ""
      },
      {
        "$type": "FJKIHHKJLMJ",
        "type": "CAMERA_MOVE",
        "delayTime": 0.07800000160932541,
        "duration": 9.781999588012695,
        "camPosOffset": {
          "x": -2285.159912109375,
          "y": 201.71099853515625,
          "z": -4047.77587890625
        },
        "camForwardTargetOffset": {
          "x": -2284.801025390625,
          "y": 201.5019989013672,
          "z": -4046.865966796875
        },
        "cameraBlendType": "EaseOutQuad",
        "NJBNNOMLKCK": {},
        "openCameraDither": false,
        "targetNpcAlias": "",
        "closeTreeLeafDither": true,
        "KJOEFBPOIIH": "",
        "IICFKKEBIEC": "",
        "EGEHEJEBLBJ": ""
      },
      {
        "$type": "MoleMole.Config.ConfigPlayEffectAction",
        "type": "PLAY_EFFECT",
        "delayTime": 2.440999984741211,
        "effectIndex": "123",
        "patternName": "Eff_Quest_Monster_Defender_Eye_01",
        "_pos": {
          "x": -2278.35888671875,
          "y": 194.43499755859375,
          "z": -4024.22802734375
        },
        "euler": {
          "x": 352.7569885253906,
          "y": 4.09499979019165,
          "z": 358.52899169921875
        },
        "scale": {
          "x": 1.0,
          "y": 1.0,
          "z": 1.0
        },
        "isLoop": true,
        "_otherTargetNpcAlias": "",
        "_overrideFollowPath": ""
      },
      {
        "$type": "MoleMole.Config.ConfigTimeProtectAction",
        "type": "TIME_PROTECT",
        "duration": 5.454999923706055
      },
      {
        "$type": "PKKMAMONGEO",
        "type": "DIALOG",
        "delayTime": 2.239000082015991,
        "aliasList": [
          "3200"
        ],
        "dialogID": 726620213,
        "protectTime": 3.0
      }
    ],
    [
      {
        "$type": "FJKIHHKJLMJ",
        "type": "CAMERA_MOVE",
        "delayTime": 0.032999999821186066,
        "duration": 5.934000015258789,
        "camPosOffset": {
          "x": -2321.35888671875,
          "y": 201.3260040283203,
          "z": -4137.55078125
        },
        "camForwardTargetOffset": {
          "x": -2321.76806640625,
          "y": 201.27999877929688,
          "z": -4138.4619140625
        },
        "camFov": 30.0,
        "cameraBlendType": "EaseOutQuad",
        "NJBNNOMLKCK": {},
        "openCameraDither": false,
        "targetNpcAlias": "",
        "closeTreeLeafDither": true,
        "KJOEFBPOIIH": "",
        "IICFKKEBIEC": "",
        "EGEHEJEBLBJ": ""
      },
      {
        "$type": "FJKIHHKJLMJ",
        "type": "CAMERA_MOVE",
        "duration": 0.38199999928474426,
        "camPosOffset": {
          "x": -2321.202880859375,
          "y": 201.343994140625,
          "z": -4137.2021484375
        },
        "camForwardTargetOffset": {
          "x": -2321.612060546875,
          "y": 201.29800415039062,
          "z": -4138.11279296875
        },
        "camFov": 30.0,
        "lerpPattern": 6,
        "cameraBlendType": "EaseInOutCubic",
        "NJBNNOMLKCK": {},
        "openCameraDither": false,
        "targetNpcAlias": "",
        "closeTreeLeafDither": true,
        "KJOEFBPOIIH": "",
        "IICFKKEBIEC": "",
        "EGEHEJEBLBJ": ""
      },
      {
        "$type": "MoleMole.Config.ConfigPlayEffectAction",
        "type": "PLAY_EFFECT",
        "effectIndex": "123",
        "patternName": "Eff_Quest_Monster_Defender_Eye_01",
        "_pos": {
          "x": -2278.35888671875,
          "y": 194.43499755859375,
          "z": -4024.22802734375
        },
        "euler": {
          "x": 352.7569885253906,
          "y": 4.09499979019165,
          "z": 358.52899169921875
        },
        "scale": {
          "x": 1.0,
          "y": 1.0,
          "z": 1.0
        },
        "isLoop": true,
        "isRemove": true,
        "_otherTargetNpcAlias": "",
        "_overrideFollowPath": ""
      },
      {
        "$type": "FABLGECDBCH",
        "type": "BODY_LANG",
        "aliasList": [
          "Avatar"
        ],
        "isContinue": true,
        "forceDoFreeStyle": true,
        "canDoRepeatFreeStyle": false,
        "eventPatternSuiteKey": "",
        "FOHHKFAIAAJ": ""
      },
      {
        "$type": "MoleMole.Config.ConfigVisibleInterAction",
        "type": "VISIBLE",
        "aliasList": [
          "Avatar"
        ],
        "_extraParam": ""
      },
      {
        "$type": "FABLGECDBCH",
        "type": "BODY_LANG",
        "aliasList": [
          "3200"
        ],
        "bodyLangParam": 1060,
        "forceDoFreeStyle": true,
        "canDoRepeatFreeStyle": false,
        "eventPatternSuiteKey": "",
        "FOHHKFAIAAJ": ""
      },
      {
        "$type": "PKKMAMONGEO",
        "type": "DIALOG",
        "aliasList": [
          "1005"
        ],
        "dialogID": 726620214,
        "protectTime": 0.5
      },
      {
        "$type": "FABLGECDBCH",
        "type": "BODY_LANG",
        "aliasList": [
          "1005"
        ],
        "bodyLangParam": 1260,
        "forceDoFreeStyle": true,
        "canDoRepeatFreeStyle": false,
        "eventPatternSuiteKey": "",
        "FOHHKFAIAAJ": ""
      }
    ],
    [
      {
        "$type": "MoleMole.Config.ConfigLuaAction",
        "type": "LUA_ACTION",
        "delayTime": 0.10000000149011612,
        "duration": 0.10000000149011612,
        "invoke": true,
        "invokeAlias": "72662",
        "invokeParam": 7266290
      },
      {
        "$type": "FJKIHHKJLMJ",
        "type": "CAMERA_MOVE",
        "delayTime": 0.024000000208616257,
        "duration": 1.399999976158142,
        "camPosOffset": {
          "x": -2322.02001953125,
          "y": 200.23199462890625,
          "z": -4104.41015625
        },
        "camForwardTargetOffset": {
          "x": -2321.570068359375,
          "y": 200.38800048828125,
          "z": -4103.53076171875
        },
        "camFov": 30.0,
        "cameraBlendType": "Linear",
        "NJBNNOMLKCK": {},
        "needZAxisRotate": true,
        "openCameraDither": false,
        "targetNpcAlias": "",
        "closeTreeLeafDither": true,
        "KJOEFBPOIIH": "",
        "IICFKKEBIEC": "",
        "EGEHEJEBLBJ": ""
      },
      {
        "$type": "MoleMole.Config.ConfigTimeProtectAction",
        "type": "TIME_PROTECT",
        "duration": 11.61400032043457
      },
      {
        "$type": "FJKIHHKJLMJ",
        "type": "CAMERA_MOVE",
        "delayTime": 3.9839999675750732,
        "duration": 2.1700000762939453,
        "camPosOffset": {
          "x": -2325.137939453125,
          "y": 201.24400329589844,
          "z": -4159.5400390625
        },
        "camForwardTargetOffset": {
          "x": -2325.22412109375,
          "y": 201.2550048828125,
          "z": -4158.5439453125
        },
        "camFov": 30.0,
        "cameraBlendType": "Linear",
        "NJBNNOMLKCK": {},
        "openCameraDither": false,
        "targetNpcAlias": "",
        "closeTreeLeafDither": true,
        "KJOEFBPOIIH": "",
        "IICFKKEBIEC": "",
        "EGEHEJEBLBJ": ""
      },
      {
        "$type": "FJKIHHKJLMJ",
        "type": "CAMERA_MOVE",
        "delayTime": 2.1649999618530273,
        "duration": 0.5870000123977661,
        "camPosOffset": {
          "x": -2318.302001953125,
          "y": 202.00900268554688,
          "z": -4132.22412109375
        },
        "camForwardTargetOffset": {
          "x": -2318.7919921875,
          "y": 201.81199645996094,
          "z": -4133.0732421875
        },
        "camFov": 30.0,
        "lerpPattern": 6,
        "cameraBlendType": "EaseInQuad",
        "NJBNNOMLKCK": {},
        "openCameraDither": false,
        "targetNpcAlias": "",
        "closeTreeLeafDither": true,
        "KJOEFBPOIIH": "",
        "IICFKKEBIEC": "",
        "EGEHEJEBLBJ": ""
      },
      {
        "$type": "FJKIHHKJLMJ",
        "type": "CAMERA_MOVE",
        "delayTime": 2.2669999599456787,
        "duration": 1.61899995803833,
        "camPosOffset": {
          "x": -2319.139892578125,
          "y": 206.21200561523438,
          "z": -4134.548828125
        },
        "camForwardTargetOffset": {
          "x": -2319.5,
          "y": 205.42799377441406,
          "z": -4135.05517578125
        },
        "camFov": 30.0,
        "cameraBlendType": "Linear",
        "NJBNNOMLKCK": {},
        "openCameraDither": false,
        "targetNpcAlias": "",
        "closeTreeLeafDither": true,
        "KJOEFBPOIIH": "",
        "IICFKKEBIEC": "",
        "EGEHEJEBLBJ": ""
      },
      {
        "$type": "FJKIHHKJLMJ",
        "type": "CAMERA_MOVE",
        "delayTime": 6.170000076293945,
        "duration": 4.708000183105469,
        "camPosOffset": {
          "x": -2315.908935546875,
          "y": 201.05299377441406,
          "z": -4133.81005859375
        },
        "camForwardTargetOffset": {
          "x": -2316.56005859375,
          "y": 201.07000732421875,
          "z": -4134.56884765625
        },
        "camFov": 30.0,
        "cameraBlendType": "EaseOutQuad",
        "NJBNNOMLKCK": {},
        "openCameraDither": false,
        "targetNpcAlias": "",
        "closeTreeLeafDither": true,
        "KJOEFBPOIIH": "",
        "IICFKKEBIEC": "",
        "EGEHEJEBLBJ": ""
      },
      {
        "$type": "FJKIHHKJLMJ",
        "type": "CAMERA_MOVE",
        "delayTime": 6.0,
        "duration": 0.30000001192092896,
        "camPosOffset": {
          "x": -2315.805908203125,
          "y": 202.2209930419922,
          "z": -4133.9638671875
        },
        "camForwardTargetOffset": {
          "x": -2316.467041015625,
          "y": 202.1219940185547,
          "z": -4134.70703125
        },
        "camFov": 30.0,
        "lerpPattern": 6,
        "cameraBlendType": "EaseInOutCubic",
        "NJBNNOMLKCK": {},
        "openCameraDither": false,
        "targetNpcAlias": "",
        "closeTreeLeafDither": true,
        "KJOEFBPOIIH": "",
        "IICFKKEBIEC": "",
        "EGEHEJEBLBJ": ""
      },
      {
        "$type": "FJKIHHKJLMJ",
        "type": "CAMERA_MOVE",
        "delayTime": 3.8540000915527344,
        "duration": 1.0,
        "camPosOffset": {
          "x": -2325.30908203125,
          "y": 201.6490020751953,
          "z": -4158.27001953125
        },
        "camForwardTargetOffset": {
          "x": -2325.388916015625,
          "y": 201.62100219726562,
          "z": -4157.27294921875
        },
        "camFov": 30.0,
        "lerpPattern": 6,
        "cameraBlendType": "Linear",
        "NJBNNOMLKCK": {},
        "openCameraDither": false,
        "targetNpcAlias": "",
        "closeTreeLeafDither": true,
        "KJOEFBPOIIH": "",
        "IICFKKEBIEC": "",
        "EGEHEJEBLBJ": ""
      },
      {
        "$type": "FJKIHHKJLMJ",
        "type": "CAMERA_MOVE",
        "duration": 0.05000000074505806,
        "camPosOffset": {
          "x": -2331.780029296875,
          "y": 200.48899841308594,
          "z": -4117.2998046875
        },
        "camForwardTargetOffset": {
          "x": -2331.3291015625,
          "y": 200.6479949951172,
          "z": -4116.421875
        },
        "camFov": 30.0,
        "lerpPattern": 6,
        "cameraBlendType": "EaseInOutCubic",
        "NJBNNOMLKCK": {},
        "openCameraDither": false,
        "targetNpcAlias": "",
        "closeTreeLeafDither": true,
        "KJOEFBPOIIH": "",
        "IICFKKEBIEC": "",
        "EGEHEJEBLBJ": ""
      },
      {
        "$type": "MoleMole.Config.ConfigPlayEffectAction",
        "type": "PLAY_EFFECT",
        "delayTime": 4.585000038146973,
        "effectIndex": "123",
        "patternName": "Eff_Quest_Fishing_Defender_Smash",
        "_pos": {
          "x": -2326.366943359375,
          "y": 200.45899963378906,
          "z": -4159.94091796875
        },
        "euler": {
          "x": 1.1929999589920044,
          "y": 27.368999481201172,
          "z": 5.586999893188477
        },
        "scale": {
          "x": 1.0,
          "y": 1.0,
          "z": 1.0
        },
        "_otherTargetNpcAlias": "",
        "_overrideFollowPath": ""
      },
      {
        "$type": "MoleMole.Config.ConfigPlayEffectAction",
        "type": "PLAY_EFFECT",
        "delayTime": 1.2719999551773071,
        "effectIndex": "123",
        "patternName": "Eff_Quest_Fishing_Defender_JumpfromWater",
        "_pos": {
          "x": -2319.012939453125,
          "y": 198.37899780273438,
          "z": -4101.498046875
        },
        "scale": {
          "x": 1.0,
          "y": 1.0,
          "z": 1.0
        },
        "_otherTargetNpcAlias": "",
        "_overrideFollowPath": ""
      },
      {
        "$type": "FJKIHHKJLMJ",
        "type": "CAMERA_MOVE",
        "delayTime": 10.958000183105469,
        "duration": 0.20000000298023224,
        "camPosOffset": {
          "x": -2323.18701171875,
          "y": 201.48899841308594,
          "z": -4142.25
        },
        "camForwardTargetOffset": {
          "x": -2322.841064453125,
          "y": 201.38699340820312,
          "z": -4141.31689453125
        },
        "camFov": 30.0,
        "lerpPattern": 6,
        "cameraBlendType": "EaseInOutCubic",
        "NJBNNOMLKCK": {},
        "openCameraDither": false,
        "targetNpcAlias": "",
        "closeTreeLeafDither": true,
        "KJOEFBPOIIH": "",
        "IICFKKEBIEC": "",
        "EGEHEJEBLBJ": ""
      },
      {
        "$type": "PKKMAMONGEO",
        "type": "DIALOG_CLEAR"
      },
      {
        "$type": "FJKIHHKJLMJ",
        "type": "CAMERA_MOVE",
        "delayTime": 1.281000018119812,
        "duration": 0.9440000057220459,
        "camPosOffset": {
          "x": -2321.660888671875,
          "y": 200.4499969482422,
          "z": -4104.09912109375
        },
        "camForwardTargetOffset": {
          "x": -2321.256103515625,
          "y": 200.906005859375,
          "z": -4103.30712890625
        },
        "camFov": 30.0,
        "cameraBlendType": "Linear",
        "NJBNNOMLKCK": {},
        "needZAxisRotate": true,
        "rotateAngle": -4.800000190734863,
        "openCameraDither": false,
        "targetNpcAlias": "",
        "closeTreeLeafDither": true,
        "KJOEFBPOIIH": "",
        "IICFKKEBIEC": "",
        "EGEHEJEBLBJ": ""
      },
      {
        "$type": "LLGANGLOEEO",
        "type": "STEER_TO",
        "delayTime": 3.812000036239624,
        "duration": 0.800000011920929,
        "aliasList": [
          "Avatar"
        ],
        "steerType": "ABSOLUTE",
        "steerDir": {
          "x": -2326.488037109375,
          "y": 200.0,
          "z": -4146.078125
        },
        "useSteerAnim": true,
        "targetNpcAlias": "",
        "OAFJBHJHLJG": ""
      },
      {
        "$type": "FABLGECDBCH",
        "type": "BODY_LANG",
        "aliasList": [
          "Avatar"
        ],
        "isContinue": true,
        "forceDoFreeStyle": true,
        "canDoRepeatFreeStyle": false,
        "eventPatternSuiteKey": "",
        "FOHHKFAIAAJ": ""
      },
      {
        "$type": "LJLMDHDCAMK",
        "type": "LOOK_AT",
        "delayTime": 4.084000110626221,
        "aliasList": [
          "Avatar"
        ],
        "enableHead": true,
        "headTurnTime": 0.5,
        "targetNpcAlias": "12174",
        "targetNpcLookAtPoint": "",
        "OAFJBHJHLJG": ""
      },
      {
        "$type": "LJLMDHDCAMK",
        "type": "LOOK_AT",
        "delayTime": 2.4779999256134033,
        "aliasList": [
          "Avatar"
        ],
        "enableHead": true,
        "useTargetPos": true,
        "enableAbsolute": true,
        "targetPosition": {
          "x": -2314.656005859375,
          "y": 211.6269989013672,
          "z": -4131.7939453125
        },
        "headTurnTime": 0.5,
        "targetNpcAlias": "",
        "lookAtTargetType": "NONE",
        "targetNpcLookAtPoint": "",
        "OAFJBHJHLJG": ""
      },
      {
        "$type": "MoleMole.Config.ConfigVisibleInterAction",
        "type": "VISIBLE",
        "aliasList": [
          "Avatar"
        ],
        "isVisible": true,
        "_extraParam": ""
      },
      {
        "$type": "FABLGECDBCH",
        "type": "BODY_LANG",
        "delayTime": 4.8420000076293945,
        "aliasList": [
          "Avatar"
        ],
        "bodyLangParam": 1080,
        "forceDoFreeStyle": true,
        "canDoRepeatFreeStyle": false,
        "eventPatternSuiteKey": "",
        "FOHHKFAIAAJ": ""
      },
      {
        "$type": "MoleMole.Config.ConfigTeleportToAction",
        "type": "TELEPORT_TO",
        "aliasList": [
          "Avatar"
        ],
        "position": {
          "x": -2322.445068359375,
          "y": 200.1219940185547,
          "z": -4137.65478515625
        },
        "forward": {
          "x": 1.2890000343322754,
          "y": 0.008999999612569809,
          "z": 2.063999891281128
        },
        "_posBindMovingTargetKey": "",
        "_forwardBindMovingTargetKey": ""
      },
      {
        "$type": "LLGANGLOEEO",
        "type": "STEER_TO",
        "delayTime": 3.8289999961853027,
        "duration": 0.800000011920929,
        "aliasList": [
          "3200"
        ],
        "steerType": "ABSOLUTE",
        "steerDir": {
          "x": -2326.488037109375,
          "y": 200.0,
          "z": -4146.078125
        },
        "useSteerAnim": true,
        "targetNpcAlias": "",
        "OAFJBHJHLJG": ""
      },
      {
        "$type": "LJLMDHDCAMK",
        "type": "LOOK_AT",
        "delayTime": 4.066999912261963,
        "aliasList": [
          "3200"
        ],
        "enableHead": true,
        "useTargetPos": true,
        "enableAbsolute": true,
        "targetPosition": {
          "x": -2326.41796875,
          "y": 203.89700317382812,
          "z": -4154.18994140625
        },
        "headTurnTime": 0.5,
        "targetNpcAlias": "12174",
        "targetNpcLookAtPoint": "",
        "OAFJBHJHLJG": ""
      },
      {
        "$type": "LJLMDHDCAMK",
        "type": "LOOK_AT",
        "delayTime": 2.377000093460083,
        "aliasList": [
          "3200"
        ],
        "enableHead": true,
        "useTargetPos": true,
        "enableAbsolute": true,
        "targetPosition": {
          "x": -2314.656005859375,
          "y": 211.6269989013672,
          "z": -4131.7939453125
        },
        "headTurnTime": 0.5,
        "targetNpcAlias": "",
        "targetNpcLookAtPoint": "",
        "OAFJBHJHLJG": ""
      },
      {
        "$type": "FABLGECDBCH",
        "type": "BODY_LANG",
        "delayTime": 5.3470001220703125,
        "aliasList": [
          "3200"
        ],
        "bodyLangParam": 1040,
        "forceDoFreeStyle": true,
        "canDoRepeatFreeStyle": false,
        "eventPatternSuiteKey": "",
        "FOHHKFAIAAJ": ""
      },
      {
        "$type": "LLGANGLOEEO",
        "type": "STEER_TO",
        "delayTime": 3.86299991607666,
        "duration": 0.800000011920929,
        "aliasList": [
          "1005"
        ],
        "steerType": "ABSOLUTE",
        "steerDir": {
          "x": -2326.488037109375,
          "y": 200.0,
          "z": -4146.078125
        },
        "useSteerAnim": true,
        "targetNpcAlias": "",
        "OAFJBHJHLJG": ""
      },
      {
        "$type": "LJLMDHDCAMK",
        "type": "LOOK_AT",
        "delayTime": 4.202000141143799,
        "aliasList": [
          "1005"
        ],
        "enableHead": true,
        "headTurnTime": 0.5,
        "targetNpcAlias": "12174",
        "targetNpcLookAtPoint": "",
        "OAFJBHJHLJG": ""
      },
      {
        "$type": "PKKMAMONGEO",
        "type": "DIALOG",
        "delayTime": 4.01800012588501,
        "aliasList": [
          "1005"
        ],
        "dialogID": 726620215,
        "protectTime": 0.5
      },
      {
        "$type": "LJLMDHDCAMK",
        "type": "LOOK_AT",
        "delayTime": 2.4100000858306885,
        "aliasList": [
          "1005"
        ],
        "enableHead": true,
        "useTargetPos": true,
        "enableAbsolute": true,
        "targetPosition": {
          "x": -2314.656005859375,
          "y": 211.6269989013672,
          "z": -4131.7939453125
        },
        "headTurnTime": 0.5,
        "targetNpcAlias": "",
        "targetNpcLookAtPoint": "",
        "OAFJBHJHLJG": ""
      },
      {
        "$type": "FABLGECDBCH",
        "type": "BODY_LANG",
        "delayTime": 5.2129998207092285,
        "aliasList": [
          "1005"
        ],
        "bodyLangParam": 1040,
        "forceDoFreeStyle": true,
        "canDoRepeatFreeStyle": false,
        "eventPatternSuiteKey": "",
        "FOHHKFAIAAJ": ""
      },
      {
        "$type": "MoleMole.Config.ConfigTeleportToAction",
        "type": "TELEPORT_TO",
        "delayTime": 0.9269999861717224,
        "aliasList": [
          "12174"
        ],
        "position": {
          "x": -2318.695068359375,
          "y": 194.66900634765625,
          "z": -4097.259765625
        },
        "forward": {
          "x": 1.3359999656677246,
          "y": -0.0689999982714653,
          "z": 2.440999984741211
        },
        "_posBindMovingTargetKey": "",
        "_forwardBindMovingTargetKey": ""
      },
      {
        "$type": "FABLGECDBCH",
        "type": "BODY_LANG",
        "delayTime": 1.059999942779541,
        "aliasList": [
          "12174"
        ],
        "bodyLangParam": 1,
        "forceDoFreeStyle": true,
        "canDoRepeatFreeStyle": false,
        "eventPatternSuiteKey": "",
        "FOHHKFAIAAJ": ""
      },
      {
        "$type": "MoleMole.Config.ConfigTeleportToAction",
        "type": "TELEPORT_TO",
        "delayTime": 4.394999980926514,
        "aliasList": [
          "12174"
        ],
        "position": {
          "x": -2326.06494140625,
          "y": 200.3280029296875,
          "z": -4154.9619140625
        },
        "forward": {
          "x": 4.697000026702881,
          "y": -0.33500000834465027,
          "z": 17.683000564575195
        },
        "_posBindMovingTargetKey": "",
        "_forwardBindMovingTargetKey": ""
      },
      {
        "$type": "FABLGECDBCH",
        "type": "BODY_LANG",
        "delayTime": 4.354000091552734,
        "aliasList": [
          "12174"
        ],
        "bodyLangParam": 2,
        "forceDoFreeStyle": true,
        "canDoRepeatFreeStyle": false,
        "eventPatternSuiteKey": "",
        "FOHHKFAIAAJ": ""
      },
      {
        "$type": "MoleMole.Config.ConfigVisibleInterAction",
        "type": "VISIBLE",
        "delayTime": 0.42500001192092896,
        "aliasList": [
          "12174"
        ],
        "isVisible": true,
        "_extraParam": ""
      },
      {
        "$type": "MoleMole.Config.ConfigVisibleInterAction",
        "type": "VISIBLE",
        "delayTime": 4.631999969482422,
        "aliasList": [
          "12174"
        ],
        "isVisible": true,
        "_extraParam": ""
      },
      {
        "$type": "MoleMole.Config.ConfigVisibleInterAction",
        "type": "VISIBLE",
        "delayTime": 3.0959999561309814,
        "aliasList": [
          "12174"
        ],
        "_extraParam": ""
      }
    ],
    [
      {
        "$type": "FJKIHHKJLMJ",
        "type": "CAMERA_MOVE",
        "duration": 0.5019999742507935,
        "camPosOffset": {
          "x": -2323.18701171875,
          "y": 201.48899841308594,
          "z": -4142.25
        },
        "camForwardTargetOffset": {
          "x": -2322.841064453125,
          "y": 201.38699340820312,
          "z": -4141.31689453125
        },
        "camFov": 30.0,
        "lerpPattern": 6,
        "cameraBlendType": "EaseInOutCubic",
        "NJBNNOMLKCK": {},
        "openCameraDither": false,
        "targetNpcAlias": "",
        "closeTreeLeafDither": true,
        "KJOEFBPOIIH": "",
        "IICFKKEBIEC": "",
        "EGEHEJEBLBJ": ""
      },
      {
        "$type": "FABLGECDBCH",
        "type": "BODY_LANG",
        "aliasList": [
          "3200"
        ],
        "bodyLangParam": 1040,
        "forceDoFreeStyle": true,
        "canDoRepeatFreeStyle": false,
        "eventPatternSuiteKey": "",
        "FOHHKFAIAAJ": ""
      },
      {
        "$type": "PKKMAMONGEO",
        "type": "DIALOG",
        "aliasList": [
          "1005"
        ],
        "dialogID": 726620216,
        "protectTime": 0.5
      },
      {
        "$type": "FABLGECDBCH",
        "type": "BODY_LANG",
        "aliasList": [
          "1005"
        ],
        "bodyLangParam": 1040,
        "forceDoFreeStyle": true,
        "canDoRepeatFreeStyle": false,
        "eventPatternSuiteKey": "",
        "FOHHKFAIAAJ": ""
      }
    ],
    [
      {
        "$type": "MoleMole.Config.ConfigTimeProtectAction",
        "type": "TIME_PROTECT",
        "duration": 1.0
      },
      {
        "$type": "FJKIHHKJLMJ",
        "type": "CAMERA_MOVE",
        "delayTime": 0.5,
        "duration": 0.10000000149011612,
        "camPosOffset": {
          "x": -2320.31591796875,
          "y": 200.99600219726562,
          "z": -4133.63818359375
        },
        "camForwardTargetOffset": {
          "x": -2320.76708984375,
          "y": 201.052001953125,
          "z": -4134.52880859375
        },
        "lerpPattern": 6,
        "cameraBlendType": "EaseInOutCubic",
        "NJBNNOMLKCK": {},
        "openCameraDither": false,
        "targetNpcAlias": "",
        "closeTreeLeafDither": true,
        "KJOEFBPOIIH": "",
        "IICFKKEBIEC": "",
        "EGEHEJEBLBJ": ""
      },
      {
        "$type": "MoleMole.Config.ConfigSimpleBlackScreenAction",
        "type": "SIMPLE_BLACK_SCREEN",
        "durationToBlack": 0.5,
        "durationKeepBlack": 1.0,
        "durationFromBlack": 0.5,
        "textMapID": "",
        "useTextFade": true
      },
      {
        "$type": "FABLGECDBCH",
        "type": "BODY_LANG",
        "delayTime": 0.5370000004768372,
        "aliasList": [
          "Avatar"
        ],
        "isContinue": true,
        "forceDoFreeStyle": true,
        "canDoRepeatFreeStyle": false,
        "eventPatternSuiteKey": "",
        "FOHHKFAIAAJ": ""
      },
      {
        "$type": "FABLGECDBCH",
        "type": "BODY_LANG",
        "delayTime": 0.21299999952316284,
        "aliasList": [
          "3200"
        ],
        "isContinue": true,
        "forceDoFreeStyle": true,
        "canDoRepeatFreeStyle": false,
        "eventPatternSuiteKey": "",
        "FOHHKFAIAAJ": ""
      },
      {
        "$type": "MoleMole.Config.ConfigVisibleInterAction",
        "type": "VISIBLE",
        "delayTime": 0.5,
        "aliasList": [
          "3200"
        ],
        "_extraParam": ""
      },
      {
        "$type": "FABLGECDBCH",
        "type": "BODY_LANG",
        "delayTime": 0.5370000004768372,
        "aliasList": [
          "1005"
        ],
        "isContinue": true,
        "forceDoFreeStyle": true,
        "canDoRepeatFreeStyle": false,
        "eventPatternSuiteKey": "",
        "FOHHKFAIAAJ": ""
      },
      {
        "$type": "MoleMole.Config.ConfigVisibleInterAction",
        "type": "VISIBLE",
        "delayTime": 0.503000020980835,
        "aliasList": [
          "12174"
        ],
        "_extraParam": ""
      }
    ]
  ],
  "groupId": [
    {
      "grpId": 2539786036,
      "nextGrpId": 2539786037
    },
    {
      "index": 1,
      "grpId": 2539786037,
      "nextGrpId": 2539786038
    },
    {
      "index": 2,
      "grpId": 2539786038,
      "nextGrpId": 2539786039
    },
    {
      "index": 3,
      "grpId": 2539786039,
      "nextGrpId": 2539786040
    },
    {
      "index": 4,
      "grpId": 2539786040,
      "nextGrpId": 2539786041
    },
    {
      "index": 5,
      "grpId": 2539786041,
      "nextGrpId": 2539786042
    },
    {
      "index": 6,
      "grpId": 2539786042,
      "nextGrpId": 2539786043
    },
    {
      "index": 7,
      "grpId": 2539786043,
      "nextGrpId": 2539786044
    },
    {
      "index": 8,
      "grpId": 2539786044,
      "nextGrpId": 1423955836
    },
    {
      "index": 9,
      "grpId": 1423955836,
      "nextGrpId": 1423955837
    },
    {
      "index": 10,
      "grpId": 1423955837,
      "nextGrpId": 1423955838
    },
    {
      "index": 11,
      "grpId": 1423955838,
      "nextGrpId": 1423955839
    },
    {
      "index": 12,
      "grpId": 1423955839,
      "nextGrpId": 1423955840
    },
    {
      "index": 13,
      "grpId": 1423955840,
      "nextGrpId": 1423955841
    },
    {
      "index": 14,
      "grpId": 1423955841,
      "nextGrpId": 1423955842
    },
    {
      "index": 15,
      "grpId": 1423955842,
      "nextGrpId": 1423955843
    },
    {
      "index": 16,
      "grpId": 1423955843,
      "nextGrpId": 1423955844
    }
  ],
  "freeStyleDic": {
    "3200": [
      1130,
      1030,
      1060,
      1040
    ]
  }
}