[
  {
    "Default": {
      "$type": "CBPBEHLOHKI",
      "abilityName": "Ability_Avatar_Dive_JellyfishBomb",
      "modifiers": {
        "Avatar_Dive_JellyfishBomb_AddSkillInfo": {
          "modifierName": "",
          "IPFJJJGABPL": 100.0,
          "onAdded": [
            {
              "$type": "PDFENCBHHAI",
              "shieldHP": true,
              "skillID": 20060
            },
            {
              "$type": "PDFENCBHHAI",
              "shieldHP": true,
              "skillID": 20061
            }
          ],
          "onRemoved": [
            {
              "$type": "KFOBADMAFJF",
              "shieldHP": true,
              "skillID": 20060,
              "refreshAfterRemove": true
            },
            {
              "$type": "KFOBADMAFJF",
              "shieldHP": true,
              "skillID": 20061,
              "refreshAfterRemove": true
            }
          ]
        },
        "Avatar_Dive_JellyfishBomb_Hold_Handler": {
          "modifierName": "",
          "IPFJJJGABPL": 100.0,
          "modifierMixins": [
            {
              "$type": "GODEMHMODCN",
              "skillID": 20060,
              "EKKJNADOEMB": 0.25,
              "onReleaseCharged": [
                {
                  "$type": "KBODPNEEFGD",
                  "shieldHP": true,
                  "modifierName": "UNIQUE_Dive_JellyfishBomb_SwitchToTrigger"
                },
                {
                  "$type": "PELJALPANCA",
                  "shieldHP": true,
                  "modifierName": "JellyFish_Short"
                },
                {
                  "$type": "JLDEMMJAMLC",
                  "shieldHP": true,
                  "modifierName": "UNIQUE_Dive_JellyfishBomb_SwitchToTrigger"
                }
              ],
              "onBeginSecondCharged": [
                {
                  "$type": "PFKNEFGOHIH",
                  "shieldHP": true,
                  "modifierName": "Focus_Father"
                },
                {
                  "$type": "BLCCGIPAOIP",
                  "PLLJBINMGJK": "StartDiveCastTrigger"
                },
                {
                  "$type": "BLCCGIPAOIP",
                  "PLLJBINMGJK": "StartDiveCastTrigger2"
                },
                {
                  "$type": "PELJALPANCA",
                  "predicates": [
                    {
                      "$type": "CNGGLKHONAA",
                      "target": "Self",
                      "key": "_ABILITY_Diving_Skill_In_Focus_Skill_Mark",
                      "param3": 0.0,
                      "compareType": "NoneOrEqual"
                    }
                  ],
                  "modifierName": "Focus_Father"
                }
              ],
              "onReleaseSecondCharged": [
                {
                  "$type": "BLCCGIPAOIP",
                  "PLLJBINMGJK": "EndDiveCastTrigger"
                }
              ],
              "onCancelCharged": [
                {
                  "$type": "BLCCGIPAOIP",
                  "PLLJBINMGJK": "EndDiveCastTrigger"
                },
                {
                  "$type": "PELJALPANCA",
                  "predicates": [
                    {
                      "$type": "CNGGLKHONAA",
                      "target": "Self",
                      "key": "_ABILITY_Diving_Skill_In_Focus_Skill_Mark",
                      "param3": 2.0
                    }
                  ],
                  "modifierName": "Focus_Remove_Delay"
                }
              ],
              "chargeStateIDs": [
                "DiveCast_BS",
                "DiveCast_Loop"
              ]
            },
            {
              "$type": "CCNIOPJEHOE",
              "globalValueTarget": "Team",
              "globalValueKey": "_ABILITY_Dive_isInFondanieWater",
              "valueSteps": [
                -0.5,
                0.5
              ],
              "modifierNameSteps": [
                "Clear_Focus_Father"
              ]
            }
          ]
        },
        "Clear_Focus_Father": {
          "stacking": "Multiple",
          "modifierName": "",
          "elementDurability": 0.20000000298023224,
          "IPFJJJGABPL": 100.0,
          "onAdded": [
            {
              "$type": "PFKNEFGOHIH",
              "shieldHP": true,
              "modifierName": "Focus_Father"
            }
          ]
        },
        "Focus_Father": {
          "modifierName": "",
          "IPFJJJGABPL": 100.0,
          "modifierMixins": [
            {
              "$type": "JJFFOLOAJFO",
              "normalizedStateIDList": [
                {
                  "stateID": "DiveCast_BS"
                },
                {
                  "stateID": "DiveCast_Loop"
                },
                {
                  "stateID": "DiveCast_AS",
                  "normalizeEnd": 0.14499999582767487
                }
              ],
              "modifierName": "Focus",
              "DGFCLAIDIFI": ""
            },
            {
              "$type": "EKMHJKDLBJH",
              "stateIDs": [
                "DiveCast_BS",
                "DiveCast_Loop"
              ],
              "modifierName": "Focus_Remove_Delay_Trigger",
              "isCheckOnAttach": true,
              "DGFCLAIDIFI": ""
            }
          ],
          "onAdded": [
            {
              "$type": "BOBCOJHOKKD",
              "shieldHP": true,
              "param3": 2.0,
              "key": "_ABILITY_Diving_Skill_In_Focus_Skill_Mark",
              "param2": 0.0,
              "repeatTimes": 0.0
            }
          ],
          "onRemoved": [
            {
              "$type": "BOBCOJHOKKD",
              "shieldHP": true,
              "param3": 0.0,
              "key": "_ABILITY_Diving_Skill_In_Focus_Skill_Mark",
              "param2": 0.0,
              "repeatTimes": 0.0
            }
          ]
        },
        "Focus_Remove_Delay_Trigger": {
          "modifierName": "",
          "elementDurability": 10.0,
          "IPFJJJGABPL": 100.0,
          "onRemoved": [
            {
              "$type": "BLCCGIPAOIP",
              "PLLJBINMGJK": "EndDiveCastTrigger"
            },
            {
              "$type": "PELJALPANCA",
              "predicates": [
                {
                  "$type": "CNGGLKHONAA",
                  "target": "Self",
                  "key": "_ABILITY_Diving_Skill_In_Focus_Skill_Mark",
                  "param3": 2.0
                }
              ],
              "modifierName": "Focus_Remove_Delay"
            }
          ]
        },
        "Focus_Remove_Delay": {
          "stacking": "Unique",
          "modifierName": "",
          "elementDurability": 0.5,
          "IPFJJJGABPL": 100.0,
          "thinkInterval": 0.12999999523162842,
          "onAdded": [
            {
              "$type": "CNHCMGMMDCB",
              "muteRemoteAction": true,
              "parameter": "Aim_Close",
              "cameraFogEffectName": "Eff_SkillObj_Absorb_Avatar_Aim"
            }
          ],
          "onRemoved": [
            {
              "$type": "PFKNEFGOHIH",
              "shieldHP": true,
              "modifierName": "Focus"
            }
          ],
          "onThinkInterval": [
            {
              "$type": "PELJALPANCA",
              "shieldHP": true,
              "modifierName": "JellyFish_Long"
            }
          ],
          "onThinkIntervalIsFixedUpdate": true,
          "onAvatarOut": [
            {
              "$type": "PFKNEFGOHIH",
              "shieldHP": true,
              "modifierName": "Focus"
            }
          ]
        },
        "Focus": {
          "modifierName": "",
          "IPFJJJGABPL": 100.0,
          "modifierMixins": [
            {
              "$type": "OLAFLPBKGGC",
              "shootingConfig": {
                "normalShoot": {
                  "bulletBornAttachPoint": "FocusAnchor",
                  "detectRangeFromViewport": 100.0,
                  "autoFocusMinRange": 2.0,
                  "autoFocusMaxRange": 7.0
                },
                "aimingShoot": {
                  "bulletBornAttachPoint": "FocusAnchor",
                  "detectRangeFromViewport": 100.0,
                  "detectRadiusFromViewport": 0.15000000596046448,
                  "autoFocusMinRange": 2.0,
                  "autoFocusMaxRange": 25.0
                }
              }
            },
            {
              "$type": "FMOKCPPLHDO"
            },
            {
              "$type": "DEEMAMIJENJ",
              "target": "Team",
              "startDuration": 0.20000000298023224,
              "endDuration": 0.30000001192092896,
              "JPEPPHPPCPH": true
            },
            {
              "$type": "DEEMAMIJENJ",
              "startDuration": 0.20000000298023224,
              "endDuration": 0.30000001192092896,
              "JPEPPHPPCPH": true
            }
          ],
          "onAdded": [
            {
              "$type": "JLDEMMJAMLC",
              "target": "Team",
              "modifierName": "Aim_Camera_Eff"
            },
            {
              "$type": "JLDEMMJAMLC",
              "modifierName": "Gadget_Loop"
            },
            {
              "$type": "INBCDALOHMP",
              "targetPredicates": [
                {
                  "$type": "BGMAGODJEMF",
                  "featureTagIDs": [
                    1044
                  ]
                }
              ],
              "successActions": [
                {
                  "$type": "BAGMOLODOME",
                  "cameraFollowLower": {
                    "x": 1.0,
                    "y": -0.05000000074505806,
                    "z": -1.5
                  },
                  "cameraFollowUpper": {
                    "x": 1.0,
                    "y": -0.05000000074505806,
                    "z": -1.2000000476837158
                  },
                  "cameraFastFocusMode": true,
                  "dragButtonName": "Skill2",
                  "assistance": {
                    "ps4": {},
                    "ps5": {},
                    "other": {
                      "useGyro": true
                    }
                  },
                  "canMove": false,
                  "showCrosshair": false,
                  "OMHGAKJIEFB": ""
                }
              ]
            },
            {
              "$type": "INBCDALOHMP",
              "targetPredicates": [
                {
                  "$type": "BGMAGODJEMF",
                  "featureTagIDs": [
                    1043
                  ]
                }
              ],
              "successActions": [
                {
                  "$type": "BAGMOLODOME",
                  "cameraFollowLower": {
                    "x": 0.800000011920929,
                    "y": 0.10000000149011612,
                    "z": -1.600000023841858
                  },
                  "cameraFollowUpper": {
                    "x": 0.800000011920929,
                    "y": 0.10000000149011612,
                    "z": -1.2000000476837158
                  },
                  "cameraFastFocusMode": true,
                  "dragButtonName": "Skill2",
                  "assistance": {
                    "ps4": {},
                    "ps5": {},
                    "other": {
                      "useGyro": true
                    }
                  },
                  "canMove": false,
                  "showCrosshair": false,
                  "OMHGAKJIEFB": ""
                }
              ]
            },
            {
              "$type": "INBCDALOHMP",
              "targetPredicates": [
                {
                  "$type": "BGMAGODJEMF",
                  "featureTagIDs": [
                    1042
                  ]
                }
              ],
              "successActions": [
                {
                  "$type": "BAGMOLODOME",
                  "cameraFollowLower": {
                    "x": 1.100000023841858,
                    "y": 0.15000000596046448,
                    "z": -1.5
                  },
                  "cameraFollowUpper": {
                    "x": 1.100000023841858,
                    "y": 0.15000000596046448,
                    "z": -1.100000023841858
                  },
                  "cameraFastFocusMode": true,
                  "dragButtonName": "Skill2",
                  "assistance": {
                    "ps4": {},
                    "ps5": {},
                    "other": {
                      "useGyro": true
                    }
                  },
                  "canMove": false,
                  "showCrosshair": false,
                  "OMHGAKJIEFB": ""
                }
              ]
            },
            {
              "$type": "INBCDALOHMP",
              "targetPredicates": [
                {
                  "$type": "BGMAGODJEMF",
                  "featureTagIDs": [
                    1041
                  ]
                }
              ],
              "successActions": [
                {
                  "$type": "BAGMOLODOME",
                  "cameraFollowLower": {
                    "x": 0.8999999761581421,
                    "y": 0.30000001192092896,
                    "z": -1.600000023841858
                  },
                  "cameraFollowUpper": {
                    "x": 0.8999999761581421,
                    "y": 0.30000001192092896,
                    "z": -1.2000000476837158
                  },
                  "cameraFastFocusMode": true,
                  "dragButtonName": "Skill2",
                  "assistance": {
                    "ps4": {},
                    "ps5": {},
                    "other": {
                      "useGyro": true
                    }
                  },
                  "canMove": false,
                  "showCrosshair": false,
                  "OMHGAKJIEFB": ""
                }
              ]
            },
            {
              "$type": "INBCDALOHMP",
              "targetPredicates": [
                {
                  "$type": "BGMAGODJEMF",
                  "featureTagIDs": [
                    1045
                  ]
                }
              ],
              "successActions": [
                {
                  "$type": "BAGMOLODOME",
                  "cameraFollowLower": {
                    "x": 1.100000023841858,
                    "y": -0.30000001192092896,
                    "z": -1.600000023841858
                  },
                  "cameraFollowUpper": {
                    "x": 1.100000023841858,
                    "y": -0.30000001192092896,
                    "z": -1.2000000476837158
                  },
                  "cameraFastFocusMode": true,
                  "dragButtonName": "Skill2",
                  "assistance": {
                    "ps4": {},
                    "ps5": {},
                    "other": {
                      "useGyro": true
                    }
                  },
                  "canMove": false,
                  "showCrosshair": false,
                  "OMHGAKJIEFB": ""
                }
              ]
            },
            {
              "$type": "JLDEMMJAMLC",
              "modifierName": "VFX"
            },
            {
              "$type": "KJCHPDPBJHL",
              "boolID": "LockMotionFlagExitChannel",
              "param3": true
            },
            {
              "$type": "BOBCOJHOKKD",
              "param3": 1.0,
              "key": "_ABILITY_Common_IsChannelState",
              "param2": 0.0,
              "repeatTimes": 0.0
            }
          ],
          "onRemoved": [
            {
              "$type": "LJEDLFDLLDP",
              "shieldHP": true
            },
            {
              "$type": "KJCHPDPBJHL",
              "shieldHP": true,
              "boolID": "LockMotionFlagExitChannel"
            },
            {
              "$type": "BOBCOJHOKKD",
              "shieldHP": true,
              "param3": 0.0,
              "key": "_ABILITY_Common_IsChannelState",
              "param2": 0.0,
              "repeatTimes": 0.0
            },
            {
              "$type": "PFKNEFGOHIH",
              "shieldHP": true,
              "modifierName": "Focus_Father"
            }
          ]
        },
        "Gadget_Loop": {
          "modifierName": "",
          "IPFJJJGABPL": 100.0,
          "onAdded": [
            {
              "$type": "BOBCOJHOKKD",
              "target": "Team",
              "param3": 2.0,
              "key": "_ABILITY_WhiteBox_Dive_Team_Trigger",
              "param2": 0.0,
              "repeatTimes": 0.0
            }
          ],
          "onRemoved": [
            {
              "$type": "BOBCOJHOKKD",
              "target": "Team",
              "param3": 3.0,
              "key": "_ABILITY_WhiteBox_Dive_Team_Trigger",
              "param2": 0.0,
              "repeatTimes": 0.0
            }
          ]
        },
        "Aim_Camera_Eff": {
          "modifierName": "",
          "IPFJJJGABPL": 100.0,
          "modifierMixins": [
            {
              "$type": "CIGJDPCDOEB",
              "onAdded": [
                {
                  "$type": "AKCJLBDMNDE",
                  "canBeHandledOnRecover": true,
                  "muteRemoteAction": true,
                  "enable": true,
                  "cameraFogEffectName": "Eff_SkillObj_Absorb_Avatar_Aim",
                  "playerFogEffectName": ""
                }
              ],
              "onRemoved": [
                {
                  "$type": "AKCJLBDMNDE",
                  "shieldHP": true,
                  "canBeHandledOnRecover": true,
                  "muteRemoteAction": true,
                  "cameraFogEffectName": "Eff_SkillObj_Absorb_Avatar_Aim",
                  "playerFogEffectName": ""
                }
              ]
            }
          ]
        },
        "VFX_Trigger": {
          "stacking": "Multiple",
          "modifierName": "",
          "elementDurability": 0.5,
          "IPFJJJGABPL": 100.0,
          "onAdded": [
            {
              "$type": "KBFEIHEAMBM",
              "predicates": [
                {
                  "$type": "HHHMNCNPBDK",
                  "predicates": [
                    {
                      "$type": "BGMAGODJEMF",
                      "featureTagIDs": [
                        1044
                      ]
                    },
                    {
                      "$type": "BGMAGODJEMF",
                      "featureTagIDs": [
                        1042
                      ]
                    }
                  ]
                }
              ],
              "rotationDampTime": "Eff_Avatar_Diving_Gadget_Loop_Attack",
              "PPPDJGDDOGD": 1.0,
              "AJDILHJFNKE": -1.0
            },
            {
              "$type": "KBFEIHEAMBM",
              "predicates": [
                {
                  "$type": "HHHMNCNPBDK",
                  "predicates": [
                    {
                      "$type": "BGMAGODJEMF",
                      "featureTagIDs": [
                        1043
                      ]
                    },
                    {
                      "$type": "BGMAGODJEMF",
                      "featureTagIDs": [
                        1041
                      ]
                    },
                    {
                      "$type": "BGMAGODJEMF",
                      "featureTagIDs": [
                        1045
                      ]
                    }
                  ]
                }
              ],
              "rotationDampTime": "Eff_Avatar_Diving_Gadget_Loop_2_Attack",
              "PPPDJGDDOGD": 1.0,
              "AJDILHJFNKE": -1.0
            }
          ]
        },
        "VFX": {
          "modifierName": "",
          "IPFJJJGABPL": 100.0,
          "onAdded": [
            {
              "$type": "INBCDALOHMP",
              "targetPredicates": [
                {
                  "$type": "BGMAGODJEMF",
                  "featureTagIDs": [
                    1044
                  ]
                }
              ],
              "successActions": [
                {
                  "$type": "JLDEMMJAMLC",
                  "modifierName": "VFX_L"
                }
              ]
            },
            {
              "$type": "INBCDALOHMP",
              "targetPredicates": [
                {
                  "$type": "BGMAGODJEMF",
                  "featureTagIDs": [
                    1042
                  ]
                }
              ],
              "successActions": [
                {
                  "$type": "JLDEMMJAMLC",
                  "modifierName": "VFX_L"
                }
              ]
            },
            {
              "$type": "INBCDALOHMP",
              "targetPredicates": [
                {
                  "$type": "BGMAGODJEMF",
                  "featureTagIDs": [
                    1043
                  ]
                }
              ],
              "successActions": [
                {
                  "$type": "JLDEMMJAMLC",
                  "modifierName": "VFX_R"
                }
              ]
            },
            {
              "$type": "INBCDALOHMP",
              "targetPredicates": [
                {
                  "$type": "BGMAGODJEMF",
                  "featureTagIDs": [
                    1041
                  ]
                }
              ],
              "successActions": [
                {
                  "$type": "JLDEMMJAMLC",
                  "modifierName": "VFX_R"
                }
              ]
            },
            {
              "$type": "INBCDALOHMP",
              "targetPredicates": [
                {
                  "$type": "BGMAGODJEMF",
                  "featureTagIDs": [
                    1045
                  ]
                }
              ],
              "successActions": [
                {
                  "$type": "JLDEMMJAMLC",
                  "modifierName": "VFX_R"
                }
              ]
            }
          ]
        },
        "VFX_L": {
          "modifierName": "",
          "IPFJJJGABPL": 100.0,
          "onAdded": [
            {
              "$type": "ANLOBBMKNIJ",
              "rotationDampTime": "Eff_Avatar_Diving_Gadget_Loop",
              "PPPDJGDDOGD": 1.0,
              "AJDILHJFNKE": -1.0
            }
          ]
        },
        "VFX_R": {
          "modifierName": "",
          "IPFJJJGABPL": 100.0,
          "onAdded": [
            {
              "$type": "ANLOBBMKNIJ",
              "rotationDampTime": "Eff_Avatar_Diving_Gadget_Loop_2",
              "PPPDJGDDOGD": 1.0,
              "AJDILHJFNKE": -1.0
            }
          ]
        },
        "JellyFish_Short": {
          "stacking": "Multiple",
          "modifierName": "",
          "elementDurability": 0.5,
          "IPFJJJGABPL": 100.0,
          "onAdded": [
            {
              "$type": "BOBCOJHOKKD",
              "target": "Team",
              "param3": 1.0,
              "key": "_ABILITY_WhiteBox_Dive_Team_Trigger",
              "param2": 0.0,
              "repeatTimes": 0.0
            },
            {
              "$type": "BOBCOJHOKKD",
              "otherTargets": {
                "$type": "MEOIGEJCJLB",
                "configID": 40034107
              },
              "shieldHP": true,
              "param3": 1.0,
              "key": "_ABILITY_Jellyfish_Bomb_Kill_Mark",
              "param2": 0.0,
              "repeatTimes": 0.0
            },
            {
              "$type": "BOBCOJHOKKD",
              "otherTargets": {
                "$type": "MEOIGEJCJLB",
                "configID": 40034108
              },
              "shieldHP": true,
              "param3": 1.0,
              "key": "_ABILITY_Jellyfish_Bomb_Kill_Mark",
              "param2": 0.0,
              "repeatTimes": 0.0
            },
            {
              "$type": "KFCDMIMBBLD",
              "shieldHP": true,
              "born": {
                "$type": "IAENDIPDFKD",
                "offset": {
                  "KGEPIMHBMOL": 0.0,
                  "JEBHCGDPFEJ": 0.75,
                  "LPCHALMFFOD": 1.100000023841858
                },
                "useRotation": true
              },
              "gadgetID": 40034107
            }
          ]
        },
        "JellyFish_Long": {
          "stacking": "Unique",
          "modifierName": "",
          "elementDurability": 0.5,
          "IPFJJJGABPL": 100.0,
          "onAdded": [
            {
              "$type": "KBODPNEEFGD",
              "shieldHP": true,
              "modifierName": "UNIQUE_Dive_JellyfishBomb_SwitchToTrigger"
            },
            {
              "$type": "PELJALPANCA",
              "shieldHP": true,
              "modifierName": "UNIQUE_Dive_JellyfishBomb_SwitchToTrigger"
            },
            {
              "$type": "PELJALPANCA",
              "modifierName": "VFX_Trigger"
            },
            {
              "$type": "BOBCOJHOKKD",
              "otherTargets": {
                "$type": "MEOIGEJCJLB",
                "configID": 40034107
              },
              "shieldHP": true,
              "param3": 1.0,
              "key": "_ABILITY_Jellyfish_Bomb_Kill_Mark",
              "param2": 0.0,
              "repeatTimes": 0.0
            },
            {
              "$type": "BOBCOJHOKKD",
              "otherTargets": {
                "$type": "MEOIGEJCJLB",
                "configID": 40034108
              },
              "shieldHP": true,
              "param3": 1.0,
              "key": "_ABILITY_Jellyfish_Bomb_Kill_Mark",
              "param2": 0.0,
              "repeatTimes": 0.0
            },
            {
              "$type": "CAKDDHLKOAB",
              "bulletID": 40034108,
              "born": {
                "$type": "KLPANPDGHHA",
                "offset": {
                  "KGEPIMHBMOL": 0.0,
                  "JEBHCGDPFEJ": -0.30000001192092896,
                  "LPCHALMFFOD": 0.800000011920929
                },
                "direction": {
                  "$type": "LHBLDEOLGKF",
                  "angleOffset": {
                    "KGEPIMHBMOL": 0.0,
                    "JEBHCGDPFEJ": 0.0,
                    "LPCHALMFFOD": 0.0
                  },
                  "attachPointName": "FocusAnchor",
                  "attachPointTargetType": "Self"
                },
                "useRotation": true,
                "attachPointName": "FocusAnchor",
                "attachPointTargetType": "Self"
              }
            },
            {
              "$type": "BLCCGIPAOIP",
              "shieldHP": true,
              "PLLJBINMGJK": "EndDiveCastTrigger"
            }
          ]
        },
        "UNIQUE_Dive_JellyfishBomb_SwitchToTrigger": {
          "modifierName": "",
          "forceTriggerWhenChangeAuthority": true,
          "elementDurability": 60.0,
          "IPFJJJGABPL": 100.0,
          "modifierMixins": [
            {
              "$type": "BBDLKGEJDOJ",
              "priority": "PlaymodeExtra1",
              "skillIndex": 1,
              "skillID": 20061,
              "JMDDHEHLBGA": true
            }
          ],
          "onAdded": [
            {
              "$type": "OCLNBBMMIOK",
              "skillID": 20061,
              "amountByTargetCurrentHPRatio": 0.029999999329447746,
              "costStaminaRatio": 1.0
            }
          ],
          "onRemoved": [
            {
              "$type": "INBCDALOHMP",
              "target": "CurLocalAvatar",
              "shieldHP": true,
              "targetPredicates": [
                {
                  "$type": "CNGGLKHONAA",
                  "key": "_ABILITY_Diving_SkillCDReduction",
                  "param3": 1.0
                }
              ],
              "successActions": [
                {
                  "$type": "PPMAOBKEOHI",
                  "shieldHP": true,
                  "skillID": 20060,
                  "shareCDType": 1
                }
              ],
              "failActions": [
                {
                  "$type": "PPMAOBKEOHI",
                  "shieldHP": true,
                  "skillID": 20060
                }
              ]
            },
            {
              "$type": "BOBCOJHOKKD",
              "target": "Team",
              "shieldHP": true,
              "param3": 1.0,
              "key": "_ABILITY_WhiteBox_Dive_Team_Trigger",
              "param2": 0.0,
              "repeatTimes": 0.0
            },
            {
              "$type": "BOBCOJHOKKD",
              "otherTargets": {
                "$type": "MEOIGEJCJLB",
                "configID": 40034107
              },
              "shieldHP": true,
              "param3": 1.0,
              "key": "_ABILITY_Jellyfish_Bomb_Kill_Mark",
              "param2": 0.0,
              "repeatTimes": 0.0
            },
            {
              "$type": "BOBCOJHOKKD",
              "otherTargets": {
                "$type": "MEOIGEJCJLB",
                "configID": 40034108
              },
              "shieldHP": true,
              "param3": 1.0,
              "key": "_ABILITY_Jellyfish_Bomb_Kill_Mark",
              "param2": 0.0,
              "repeatTimes": 0.0
            }
          ]
        }
      },
      "onAdded": [
        {
          "$type": "JLDEMMJAMLC",
          "modifierName": "Avatar_Dive_JellyfishBomb_AddSkillInfo"
        },
        {
          "$type": "JLDEMMJAMLC",
          "modifierName": "Avatar_Dive_JellyfishBomb_Hold_Handler"
        }
      ],
      "onRemoved": [
        {
          "$type": "KBODPNEEFGD",
          "modifierName": "UNIQUE_Dive_JellyfishBomb_SwitchToTrigger"
        }
      ],
      "isDynamicAbility": true,
      "KPEGFLKLCLE": true
    }
  },
  {
    "Default": {
      "$type": "CBPBEHLOHKI",
      "abilityName": "Ability_Avatar_Dive_JellyfishBomb_Trigger",
      "onAbilityStart": [
        {
          "$type": "AGCKFODECAB",
          "skillID": 20061,
          "damageRatio": "Skill"
        },
        {
          "$type": "KBODPNEEFGD",
          "shieldHP": true,
          "modifierName": "UNIQUE_Dive_JellyfishBomb_SwitchToTrigger"
        }
      ],
      "isDynamicAbility": true,
      "KPEGFLKLCLE": true
    }
  },
  {
    "Default": {
      "$type": "CBPBEHLOHKI",
      "abilityName": "Ability_Absorb_JellyfishBomb_Short",
      "abilitySpecials": {
        "DamageSystemValue": 0.0,
        "DamageRatio": 0.0
      },
      "modifiers": {
        "JellyfishBomb": {
          "modifierName": "",
          "IPFJJJGABPL": 100.0,
          "thinkInterval": 0.5,
          "modifierMixins": [
            {
              "$type": "CCNIOPJEHOE",
              "globalValueKey": "_ABILITY_Jellyfish_Bomb_Kill_Mark",
              "valueSteps": [
                0.5,
                1.5
              ],
              "modifierNameSteps": [
                "ExplodeDelay"
              ]
            }
          ],
          "onAdded": [
            {
              "$type": "ANLOBBMKNIJ",
              "rotationDampTime": "Eff_Avatar_Diving_Jellyfish_Boom_Short",
              "PPPDJGDDOGD": 1.0,
              "AJDILHJFNKE": -1.0
            }
          ],
          "onThinkInterval": [
            {
              "$type": "MPAGCPPAIHJ",
              "key": "_ABILITY_JellyFishBomb_Owner_Pos",
              "born": {
                "$type": "ECGAJMICCCF",
                "useRotation": true
              }
            },
            {
              "$type": "KBODPNEEFGD",
              "target": "OriginOwner",
              "predicates": [
                {
                  "$type": "GFPOLMJGMFG",
                  "target": "Self",
                  "compareType": "XYZ",
                  "param3": 65.0,
                  "positionKey": "_ABILITY_JellyFishBomb_Owner_Pos"
                }
              ],
              "modifierName": "UNIQUE_Dive_JellyfishBomb_SwitchToTrigger"
            },
            {
              "$type": "BOBCOJHOKKD",
              "predicates": [
                {
                  "$type": "GFPOLMJGMFG",
                  "target": "Self",
                  "compareType": "XYZ",
                  "param3": 65.0,
                  "positionKey": "_ABILITY_JellyFishBomb_Owner_Pos"
                }
              ],
              "param3": 1.0,
              "key": "_ABILITY_Jellyfish_Bomb_Kill_Mark",
              "param2": 0.0,
              "repeatTimes": 0.0
            }
          ],
          "onKill": [
            {
              "$type": "KBFEIHEAMBM",
              "rotationDampTime": "Eff_Avatar_Diving_Jellyfish_Boom_Short_Explode",
              "PPPDJGDDOGD": 1.0,
              "AJDILHJFNKE": -1.0
            },
            {
              "$type": "GDHGMAPPGHD",
              "shieldHP": true,
              "key": "DamageSystemValue",
              "damageRatio": "ElementLevelCo"
            },
            {
              "$type": "AIFPLABJNMA",
              "attackEvent": {
                "attackPattern": {
                  "$type": "BELNOFAKNBA",
                  "triggerType": "TriggerNoRepeat",
                  "born": {
                    "$type": "IAENDIPDFKD",
                    "useRotation": true
                  },
                  "useCustomShape": true,
                  "MIJMNMAEEFJ": 3.0,
                  "OAHPDLJIADP": 4.0
                },
                "attackInfo": {
                  "attackTag": "JellyFish_Bomb",
                  "attenuationTag": "",
                  "attenuationGroup": "default",
                  "attackProperty": {
                    "actorGrassSubHurtDelta": 0.0,
                    "actorWindSubHurtDelta": 0.0,
                    "IPFJJJGABPL": 0.0,
                    "ignoreAttackerProperty": true,
                    "strikeType": "Blunt",
                    "enBreak": 90.0,
                    "HMBONGBFIAP": [
                      "DamageRatio",
                      "DamageSystemValue",
                      "MUL"
                    ],
                    "trueDamage": true,
                    "GLKMCMDJBIK": 0.0
                  },
                  "hitPattern": {
                    "onHitEffectName": "",
                    "hitImpulseY": "",
                    "hitImpulseType": "LV5",
                    "hitHaltTimeScale": 0.05000000074505806
                  },
                  "canBeModifiedBy": "OriginOwner"
                }
              },
              "targetType": "Enemy"
            },
            {
              "$type": "PFKNEFGOHIH",
              "modifierName": "JellyfishBomb"
            }
          ]
        },
        "JellyfishBomb_Gadget_Checker": {
          "modifierName": "",
          "IPFJJJGABPL": 100.0,
          "onHittingOther": [
            {
              "$type": "INBCDALOHMP",
              "target": "Other",
              "predicates": [
                {
                  "$type": "NIMAPECDNKD",
                  "entityTypes": [
                    "Gadget"
                  ]
                }
              ],
              "targetPredicates": [
                {
                  "$type": "CNGGLKHONAA",
                  "key": "_IS_InUnderseaBacDoor",
                  "param3": 1.0
                },
                {
                  "$type": "FCOADDGEDOH",
                  "logic": "LesserOrEqual",
                  "param3": 90.0
                },
                {
                  "$type": "NNEHDJHMING",
                  "attackTags": [
                    "JellyFish_Bomb"
                  ]
                }
              ],
              "successActions": [
                {
                  "$type": "PELJALPANCA",
                  "target": "Other",
                  "modifierName": "JellyFish_Bomb_Special_Tag_On_Gadget"
                }
              ]
            },
            {
              "$type": "INBCDALOHMP",
              "target": "Other",
              "predicates": [
                {
                  "$type": "NIMAPECDNKD",
                  "entityTypes": [
                    "Platform"
                  ]
                }
              ],
              "targetPredicates": [
                {
                  "$type": "CNGGLKHONAA",
                  "key": "_IS_InUnderseaBacRes",
                  "param3": 1.0
                },
                {
                  "$type": "FCOADDGEDOH",
                  "logic": "LesserOrEqual",
                  "param3": 75.0
                },
                {
                  "$type": "NNEHDJHMING",
                  "attackTags": [
                    "JellyFish_Bomb"
                  ]
                }
              ],
              "successActions": [
                {
                  "$type": "PELJALPANCA",
                  "target": "Other",
                  "modifierName": "JellyFish_Bomb_Special_Tag_On_Gadget"
                }
              ]
            }
          ]
        },
        "ExplodeDelay": {
          "modifierName": "",
          "elementDurability": 0.20000000298023224,
          "IPFJJJGABPL": 100.0,
          "onAdded": [
            {
              "$type": "GFOOGEIKGBI",
              "parameter": "Trigger",
              "attachPoint": "",
              "damageRatio": "Int",
              "value": 2,
              "rotationDampTime": "Eff_Avatar_Diving_Jellyfish_Boom_Short"
            }
          ],
          "onRemoved": [
            {
              "$type": "NCFFNDHGCMH"
            }
          ]
        },
        "JellyFish_Bomb_Special_Tag_On_Gadget": {
          "stacking": "Multiple",
          "modifierName": "",
          "elementDurability": 1.0,
          "IPFJJJGABPL": 100.0,
          "onAdded": [
            {
              "$type": "CCNPNMMONDO",
              "attackInfo": {
                "attackTag": "JellyFish_Bomb_Special",
                "attenuationTag": "",
                "attenuationGroup": "default",
                "attackProperty": {
                  "actorGrassSubHurtDelta": 0.0,
                  "actorWindSubHurtDelta": 0.0,
                  "elementType": "Water",
                  "IPFJJJGABPL": 25.0,
                  "strikeType": "Slash",
                  "enBreak": 150.0,
                  "attackType": "Melee",
                  "HMBONGBFIAP": 0.0,
                  "GLKMCMDJBIK": 0.0
                },
                "hitPattern": {
                  "onHitEffectName": "none",
                  "hitImpulseY": "",
                  "hitImpulseType": "LV0",
                  "hitHaltTimeScale": 0.009999999776482582,
                  "muteHitText": true
                }
              }
            }
          ]
        }
      },
      "onAdded": [
        {
          "$type": "BOBCOJHOKKD",
          "param3": 0.0,
          "key": "_ABILITY_Jellyfish_Bomb_Kill_Mark",
          "param2": 0.0,
          "repeatTimes": 0.0
        },
        {
          "$type": "JLDEMMJAMLC",
          "modifierName": "JellyfishBomb"
        },
        {
          "$type": "JLDEMMJAMLC",
          "modifierName": "JellyfishBomb_Gadget_Checker"
        },
        {
          "$type": "GDHGMAPPGHD",
          "shieldHP": true,
          "key": "DamageSystemValue",
          "damageRatio": "ElementLevelCo"
        }
      ]
    }
  },
  {
    "Default": {
      "$type": "CBPBEHLOHKI",
      "abilityName": "Ability_Absorb_JellyfishBomb_Hold",
      "abilitySpecials": {
        "DamageSystemValue": 0.0,
        "DamageRatio": 0.0
      },
      "modifiers": {
        "JellyfishBomb": {
          "modifierName": "",
          "IPFJJJGABPL": 100.0,
          "thinkInterval": 0.5,
          "modifierMixins": [
            {
              "$type": "CCNIOPJEHOE",
              "globalValueKey": "_ABILITY_Jellyfish_Bomb_Kill_Mark",
              "valueSteps": [
                0.5,
                1.5
              ],
              "modifierNameSteps": [
                "ExplodeDelay"
              ]
            }
          ],
          "onAdded": [
            {
              "$type": "ANLOBBMKNIJ",
              "rotationDampTime": "Eff_Avatar_Diving_Jellyfish_Boom_Hold",
              "born": {
                "$type": "KLPANPDGHHA",
                "direction": {
                  "$type": "NNPJOCIHKBI",
                  "directionKey": "_ABILITY_JellyfishBomb_Hold_Initial_Dir"
                },
                "useRotation": true,
                "attachPointName": "RootNode"
              },
              "PPPDJGDDOGD": 1.0,
              "AJDILHJFNKE": -1.0
            }
          ],
          "onThinkInterval": [
            {
              "$type": "MPAGCPPAIHJ",
              "key": "_ABILITY_JellyFishBomb_Owner_Pos",
              "born": {
                "$type": "ECGAJMICCCF",
                "useRotation": true
              }
            },
            {
              "$type": "KBODPNEEFGD",
              "target": "OriginOwner",
              "predicates": [
                {
                  "$type": "GFPOLMJGMFG",
                  "target": "Self",
                  "compareType": "XYZ",
                  "param3": 65.0,
                  "positionKey": "_ABILITY_JellyFishBomb_Owner_Pos"
                }
              ],
              "modifierName": "UNIQUE_Dive_JellyfishBomb_SwitchToTrigger"
            },
            {
              "$type": "BOBCOJHOKKD",
              "predicates": [
                {
                  "$type": "GFPOLMJGMFG",
                  "target": "Self",
                  "compareType": "XYZ",
                  "param3": 65.0,
                  "positionKey": "_ABILITY_JellyFishBomb_Owner_Pos"
                }
              ],
              "param3": 1.0,
              "key": "_ABILITY_Jellyfish_Bomb_Kill_Mark",
              "param2": 0.0,
              "repeatTimes": 0.0
            },
            {
              "$type": "PELJALPANCA",
              "predicates": [
                {
                  "$type": "GFPOLMJGMFG",
                  "target": "Self",
                  "compareType": "XYZ",
                  "param3": 40.0,
                  "positionKey": "_ABILITY_JellyFishBomb_Owner_Pos"
                }
              ],
              "modifierName": "Hit_Scene_Stop"
            }
          ],
          "onKill": [
            {
              "$type": "KBFEIHEAMBM",
              "rotationDampTime": "Eff_Avatar_Diving_Jellyfish_Boom_Hold_Explode",
              "PPPDJGDDOGD": 1.0,
              "AJDILHJFNKE": -1.0
            },
            {
              "$type": "GDHGMAPPGHD",
              "shieldHP": true,
              "key": "DamageSystemValue",
              "damageRatio": "ElementLevelCo"
            },
            {
              "$type": "AIFPLABJNMA",
              "attackEvent": {
                "attackPattern": {
                  "$type": "BELNOFAKNBA",
                  "triggerType": "TriggerNoRepeat",
                  "born": {
                    "$type": "IAENDIPDFKD",
                    "useRotation": true
                  },
                  "useCustomShape": true,
                  "MIJMNMAEEFJ": 8.0,
                  "OAHPDLJIADP": 10.0
                },
                "attackInfo": {
                  "attackTag": "JellyFish_Bomb",
                  "attenuationTag": "",
                  "attenuationGroup": "default",
                  "attackProperty": {
                    "actorGrassSubHurtDelta": 0.0,
                    "actorWindSubHurtDelta": 0.0,
                    "IPFJJJGABPL": 0.0,
                    "ignoreAttackerProperty": true,
                    "strikeType": "Blunt",
                    "enBreak": 90.0,
                    "HMBONGBFIAP": [
                      "DamageRatio",
                      "DamageSystemValue",
                      "MUL"
                    ],
                    "trueDamage": true,
                    "GLKMCMDJBIK": 0.0
                  },
                  "hitPattern": {
                    "onHitEffectName": "None",
                    "hitImpulseY": "",
                    "hitImpulseType": "LV5",
                    "hitHaltTimeScale": 0.05000000074505806
                  },
                  "canBeModifiedBy": "OriginOwner"
                }
              },
              "targetType": "Enemy"
            },
            {
              "$type": "PFKNEFGOHIH",
              "modifierName": "JellyfishBomb"
            }
          ]
        },
        "ExplodeDelay": {
          "modifierName": "",
          "elementDurability": 0.20000000298023224,
          "IPFJJJGABPL": 100.0,
          "onAdded": [
            {
              "$type": "GFOOGEIKGBI",
              "parameter": "Trigger",
              "attachPoint": "",
              "damageRatio": "Int",
              "value": 2,
              "rotationDampTime": "Eff_Avatar_Diving_Jellyfish_Boom_Hold"
            }
          ],
          "onRemoved": [
            {
              "$type": "NCFFNDHGCMH"
            }
          ]
        },
        "JellyfishBomb_Entity_Checker": {
          "modifierName": "",
          "IPFJJJGABPL": 100.0
        },
        "JellyfishBomb_Gadget_Checker": {
          "modifierName": "",
          "IPFJJJGABPL": 100.0,
          "onHittingOther": [
            {
              "$type": "INBCDALOHMP",
              "target": "Other",
              "predicates": [
                {
                  "$type": "NIMAPECDNKD",
                  "entityTypes": [
                    "Gadget"
                  ]
                }
              ],
              "targetPredicates": [
                {
                  "$type": "CNGGLKHONAA",
                  "key": "_IS_InUnderseaBacDoor",
                  "param3": 1.0
                },
                {
                  "$type": "FCOADDGEDOH",
                  "logic": "LesserOrEqual",
                  "param3": 90.0
                },
                {
                  "$type": "NNEHDJHMING",
                  "attackTags": [
                    "JellyFish_Bomb"
                  ]
                }
              ],
              "successActions": [
                {
                  "$type": "PELJALPANCA",
                  "target": "Other",
                  "modifierName": "JellyFish_Bomb_Special_Tag_On_Gadget"
                }
              ]
            },
            {
              "$type": "INBCDALOHMP",
              "target": "Other",
              "predicates": [
                {
                  "$type": "NIMAPECDNKD",
                  "entityTypes": [
                    "Platform"
                  ]
                }
              ],
              "targetPredicates": [
                {
                  "$type": "CNGGLKHONAA",
                  "key": "_IS_InUnderseaBacRes",
                  "param3": 1.0
                },
                {
                  "$type": "FCOADDGEDOH",
                  "logic": "LesserOrEqual",
                  "param3": 75.0
                },
                {
                  "$type": "NNEHDJHMING",
                  "attackTags": [
                    "JellyFish_Bomb"
                  ]
                }
              ],
              "successActions": [
                {
                  "$type": "PELJALPANCA",
                  "target": "Other",
                  "modifierName": "JellyFish_Bomb_Special_Tag_On_Gadget"
                }
              ]
            }
          ]
        },
        "JellyFish_Bomb_Special_Tag_On_Gadget": {
          "stacking": "Multiple",
          "modifierName": "",
          "elementDurability": 1.0,
          "IPFJJJGABPL": 100.0,
          "onAdded": [
            {
              "$type": "CCNPNMMONDO",
              "attackInfo": {
                "attackTag": "JellyFish_Bomb_Special",
                "attenuationTag": "",
                "attenuationGroup": "default",
                "attackProperty": {
                  "actorGrassSubHurtDelta": 0.0,
                  "actorWindSubHurtDelta": 0.0,
                  "elementType": "Water",
                  "IPFJJJGABPL": 25.0,
                  "strikeType": "Slash",
                  "enBreak": 150.0,
                  "attackType": "Melee",
                  "HMBONGBFIAP": 0.0,
                  "GLKMCMDJBIK": 0.0
                },
                "hitPattern": {
                  "onHitEffectName": "none",
                  "hitImpulseY": "",
                  "hitImpulseType": "LV0",
                  "hitHaltTimeScale": 0.009999999776482582,
                  "muteHitText": true
                }
              }
            }
          ]
        },
        "Hit_Scene_Stop": {
          "stacking": "Unique",
          "modifierName": "",
          "IPFJJJGABPL": 100.0,
          "properties": {
            "Actor_BulletMoveSpeedRatio": -1.0
          },
          "onAdded": [
            {
              "$type": "GFOOGEIKGBI",
              "parameter": "Trigger",
              "attachPoint": "",
              "damageRatio": "Int",
              "value": 1,
              "rotationDampTime": "Eff_Avatar_Diving_Jellyfish_Boom_Hold"
            }
          ]
        }
      },
      "onAdded": [
        {
          "$type": "BOBCOJHOKKD",
          "param3": 0.0,
          "key": "_ABILITY_Jellyfish_Bomb_Kill_Mark",
          "param2": 0.0,
          "repeatTimes": 0.0
        },
        {
          "$type": "ENBLCDCKLMK",
          "key": "_ABILITY_JellyfishBomb_Hold_Initial_Dir",
          "born": {
            "$type": "ECGAJMICCCF",
            "useRotation": true
          }
        },
        {
          "$type": "JLDEMMJAMLC",
          "modifierName": "JellyfishBomb"
        },
        {
          "$type": "JLDEMMJAMLC",
          "modifierName": "JellyfishBomb_Gadget_Checker"
        },
        {
          "$type": "GDHGMAPPGHD",
          "shieldHP": true,
          "key": "DamageSystemValue",
          "damageRatio": "ElementLevelCo"
        }
      ],
      "onAbilityStart": [
        {
          "$type": "PELJALPANCA",
          "modifierName": "Hit_Scene_Stop"
        },
        {
          "$type": "NKEFJJHHAPG"
        }
      ]
    }
  }
]