{
  "luaDataPath": "",
  "dontUseDefaultFinish": true,
  "startBlackKeepTime": 0.5,
  "entityBan": "",
  "disableNpcLod": true,
  "isAutoBanNpc": true,
  "isBanWidgetPet": true,
  "protectNpcMobileLod": true,
  "talkFlag": 7,
  "startFade": {
    "startFadeInDuration": 0.5,
    "startFadeOutDuration": 0.5
  },
  "endFade": {
    "startFadeOutDuration": 0.0
  },
  "actors": [
    {
      "alias": "Avatar",
      "visible": true,
      "bornPointName": "[3_7537:3592.830,435.092,4530.220,0.000,289.018,0.000]",
      "relativePosType": "AVATAR_NEW",
      "relativePosNpcAlias": "",
      "_notDestroyInTalk": true,
      "_bindMovingTargetKey": ""
    },
    {
      "alias": "AvatarNpc",
      "visible": true,
      "bornPointName": "[3_7537:3592.830,435.092,4530.220,0.000,289.018,0.000]",
      "removeActorType": "NEW_REMOVE",
      "relativePosType": "AVATAR_NEW",
      "relativePosNpcAlias": "",
      "_notDestroyInTalk": true,
      "_bindMovingTargetKey": ""
    },
    {
      "configID": 21252,
      "alias": "21252",
      "visible": true,
      "bornPointName": "[3_6429:3592.852,435.092,4532.181,0.000,234.485,0.000]",
      "relativePosType": "AVATAR_NEW",
      "relativePosNpcAlias": "",
      "_notDestroyInTalk": true,
      "_bindMovingTargetKey": ""
    },
    {
      "configID": 1005,
      "alias": "1005",
      "visible": true,
      "bornPointName": "[3_7538:3593.010,435.092,4531.015,0.000,271.059,0.000]",
      "removeActorType": "NEW_REMOVE_WITH_DISAPPEAR",
      "relativePosType": "AVATAR_NEW",
      "relativePosNpcAlias": "",
      "_notDestroyInTalk": true,
      "_bindMovingTargetKey": ""
    },
    {
      "configID": 21251,
      "alias": "21251",
      "visible": true,
      "bornPointName": "[3_6427:3592.190,435.092,4530.660,0.000,39.858,0.000]",
      "removeActorType": "NEW_REMOVE",
      "relativePosType": "AVATAR_NEW",
      "relativePosNpcAlias": "",
      "_notDestroyInTalk": true,
      "_bindMovingTargetKey": ""
    },
    {
      "configID": 21250,
      "alias": "21250",
      "visible": true,
      "bornPointName": "[3_6428:3591.760,435.092,4531.844,0.000,97.725,0.000]",
      "removeActorType": "NEW_REMOVE",
      "relativePosType": "AVATAR_NEW",
      "relativePosNpcAlias": "",
      "_notDestroyInTalk": true,
      "_bindMovingTargetKey": ""
    },
    {
      "configID": 21257,
      "alias": "21257",
      "visible": true,
      "bornPointName": "[3_6426:3590.477,435.194,4529.384,0.000,69.146,0.000]",
      "removeActorType": "NEW_REMOVE",
      "relativePosType": "AVATAR_NEW",
      "relativePosNpcAlias": "",
      "_notDestroyInTalk": true,
      "_bindMovingTargetKey": ""
    }
  ],
  "group": [
    [
      {
        "$type": "MoleMole.Config.ConfigTimeProtectAction",
        "type": "TIME_PROTECT",
        "duration": 1.0,
        "actionId": 104
      },
      {
        "$type": "MoleMole.Config.ConfigBlackScreenAction",
        "type": "BLACK_SCREEN",
        "duration": 1.0,
        "actionId": 247,
        "_flag": 2048,
        "blackScreenType": "KEEP_BLACK",
        "durationToBlack": 0.5,
        "durationKeepBlack": 1.0,
        "durationFromBlack": 0.5,
        "inteePos": "",
        "textMapID": "",
        "useTextFade": true,
        "_changeAudioState": true
      },
      {
        "$type": "FJKIHHKJLMJ",
        "type": "CAMERA_MOVE",
        "duration": 0.5,
        "actionId": 266,
        "camPosOffset": {
          "x": 3592.011962890625,
          "y": 436.7820129394531,
          "z": 4531.65380859375
        },
        "camForwardTargetOffset": {
          "x": 3591.236083984375,
          "y": 436.83599853515625,
          "z": 4531.02587890625
        },
        "camFov": 55.86199951171875,
        "lerpPattern": 6,
        "cameraBlendType": "EaseInOutCubic",
        "NJBNNOMLKCK": {},
        "needZAxisRotate": true,
        "openCameraDither": false,
        "targetNpcAlias": "",
        "closeTreeLeafDither": true,
        "KJOEFBPOIIH": "",
        "IICFKKEBIEC": "",
        "EGEHEJEBLBJ": ""
      },
      {
        "$type": "MoleMole.Config.ConfigSitOrStandAction",
        "type": "SIT_OR_STAND",
        "aliasList": [
          "Avatar"
        ],
        "actionId": 254,
        "_flag": 8192,
        "banResetFreestyle": true
      },
      {
        "$type": "MoleMole.Config.ConfigVisibleInterAction",
        "type": "VISIBLE",
        "aliasList": [
          "Avatar"
        ],
        "actionId": 260,
        "_extraParam": ""
      },
      {
        "$type": "MoleMole.Config.ConfigTeleportToAction",
        "type": "TELEPORT_TO",
        "aliasList": [
          "Avatar"
        ],
        "actionId": 380,
        "position": {
          "x": 3592.673095703125,
          "y": 435.0920104980469,
          "z": 4530.81884765625
        },
        "forward": {
          "x": -0.020999999716877937,
          "z": 0.9869999885559082
        },
        "openLongDisTeleport": true,
        "syncForward": true,
        "_posBindMovingTargetKey": "",
        "_forwardBindMovingTargetKey": ""
      },
      {
        "$type": "MoleMole.Config.ConfigPlayerNPCEnergyTypeAction",
        "type": "SET_PLAYER_NPC_ENERGY_TYPE",
        "aliasList": [
          "AvatarNpc"
        ],
        "actionId": 255,
        "setHeroEngergyType": true
      },
      {
        "$type": "FABLGECDBCH",
        "type": "BODY_LANG",
        "aliasList": [
          "AvatarNpc"
        ],
        "actionId": 258,
        "isContinue": true,
        "forceDoFreeStyle": true,
        "canDoRepeatFreeStyle": false,
        "eventPatternSuiteKey": "",
        "FOHHKFAIAAJ": ""
      },
      {
        "$type": "MoleMole.Config.ConfigTeleportToAction",
        "type": "TELEPORT_TO",
        "aliasList": [
          "AvatarNpc"
        ],
        "actionId": 263,
        "position": {
          "x": 3592.673095703125,
          "y": 435.0920104980469,
          "z": 4530.81884765625
        },
        "forward": {
          "x": -0.020999999716877937,
          "z": 0.9869999885559082
        },
        "openLongDisTeleport": true,
        "syncForward": true,
        "_posBindMovingTargetKey": "",
        "_forwardBindMovingTargetKey": ""
      },
      {
        "$type": "FABLGECDBCH",
        "type": "BODY_LANG",
        "aliasList": [
          "21252"
        ],
        "actionId": 237,
        "isContinue": true,
        "forceDoFreeStyle": true,
        "canDoRepeatFreeStyle": false,
        "eventPatternSuiteKey": "",
        "FOHHKFAIAAJ": ""
      },
      {
        "$type": "FABLGECDBCH",
        "type": "BODY_LANG",
        "aliasList": [
          "1005"
        ],
        "actionId": 239,
        "isContinue": true,
        "forceDoFreeStyle": true,
        "canDoRepeatFreeStyle": false,
        "eventPatternSuiteKey": "",
        "FOHHKFAIAAJ": ""
      },
      {
        "$type": "MoleMole.Config.ConfigTeleportToAction",
        "type": "TELEPORT_TO",
        "aliasList": [
          "1005"
        ],
        "actionId": 264,
        "position": {
          "x": 3593.6279296875,
          "y": 435.0920104980469,
          "z": 4531.10888671875
        },
        "forward": {
          "x": -0.8489999771118164,
          "z": 1.1679999828338623
        },
        "openLongDisTeleport": true,
        "syncForward": true,
        "_posBindMovingTargetKey": "",
        "_forwardBindMovingTargetKey": ""
      },
      {
        "$type": "FABLGECDBCH",
        "type": "BODY_LANG",
        "aliasList": [
          "21251"
        ],
        "actionId": 241,
        "isContinue": true,
        "forceDoFreeStyle": true,
        "canDoRepeatFreeStyle": false,
        "eventPatternSuiteKey": "",
        "FOHHKFAIAAJ": ""
      },
      {
        "$type": "MoleMole.Config.ConfigVisibleInterAction",
        "type": "VISIBLE",
        "aliasList": [
          "21251"
        ],
        "actionId": 262,
        "_extraParam": ""
      },
      {
        "$type": "FABLGECDBCH",
        "type": "BODY_LANG",
        "aliasList": [
          "21250"
        ],
        "actionId": 243,
        "isContinue": true,
        "forceDoFreeStyle": true,
        "canDoRepeatFreeStyle": false,
        "eventPatternSuiteKey": "",
        "FOHHKFAIAAJ": ""
      },
      {
        "$type": "MoleMole.Config.ConfigVisibleInterAction",
        "type": "VISIBLE",
        "aliasList": [
          "21250"
        ],
        "actionId": 261,
        "_extraParam": ""
      }
    ],
    [
      {
        "$type": "MoleMole.Config.ConfigBlackScreenAction",
        "type": "BLACK_SCREEN",
        "duration": 0.5,
        "actionId": 248,
        "_flag": 2048,
        "blackScreenType": "FROM_BLACK",
        "durationToBlack": 0.5,
        "durationKeepBlack": 0.5,
        "durationFromBlack": 0.5,
        "inteePos": "",
        "textMapID": "",
        "useTextFade": true,
        "_changeAudioState": true
      },
      {
        "$type": "PKKMAMONGEO",
        "type": "DIALOG",
        "aliasList": [
          "21257"
        ],
        "actionId": 107,
        "dialogID": 741570201,
        "protectTime": 0.5
      },
      {
        "$type": "FJKIHHKJLMJ",
        "type": "CAMERA_MOVE",
        "delayTime": 0.00800000037997961,
        "duration": 0.5,
        "actionId": 265,
        "camPosOffset": {
          "x": 3592.011962890625,
          "y": 436.7820129394531,
          "z": 4531.65380859375
        },
        "camForwardTargetOffset": {
          "x": 3591.236083984375,
          "y": 436.83599853515625,
          "z": 4531.02587890625
        },
        "camFov": 55.86199951171875,
        "lerpPattern": 6,
        "cameraBlendType": "EaseInOutCubic",
        "NJBNNOMLKCK": {},
        "needZAxisRotate": true,
        "openCameraDither": false,
        "targetNpcAlias": "",
        "closeTreeLeafDither": true,
        "KJOEFBPOIIH": "",
        "IICFKKEBIEC": "",
        "EGEHEJEBLBJ": ""
      }
    ],
    [
      {
        "$type": "FJKIHHKJLMJ",
        "type": "CAMERA_MOVE",
        "duration": 0.5,
        "actionId": 270,
        "camPosOffset": {
          "x": 3595.114990234375,
          "y": 436.9840087890625,
          "z": 4533.35400390625
        },
        "camForwardTargetOffset": {
          "x": 3594.3701171875,
          "y": 436.760009765625,
          "z": 4532.72509765625
        },
        "camFov": 55.86199951171875,
        "lerpPattern": 6,
        "cameraBlendType": "EaseInOutCubic",
        "NJBNNOMLKCK": {},
        "needZAxisRotate": true,
        "openCameraDither": false,
        "targetNpcAlias": "",
        "closeTreeLeafDither": true,
        "KJOEFBPOIIH": "",
        "IICFKKEBIEC": "",
        "EGEHEJEBLBJ": ""
      },
      {
        "$type": "LLGANGLOEEO",
        "type": "STEER_TO",
        "duration": 1.0,
        "aliasList": [
          "AvatarNpc"
        ],
        "actionId": 268,
        "_flag": 32,
        "steerType": "TO_TARGET",
        "steerDir": {
          "x": 3591.885009765625,
          "y": 435.0920104980469,
          "z": 4530.5458984375
        },
        "useSteerAnim": true,
        "interruptFreestyle": true,
        "forceSteer": true,
        "targetNpcAlias": "21252",
        "ignoreY": true,
        "fixInterNull": true,
        "OAFJBHJHLJG": ""
      },
      {
        "$type": "PKKMAMONGEO",
        "type": "DIALOG",
        "aliasList": [
          "21252"
        ],
        "actionId": 109,
        "dialogID": 741570202,
        "protectTime": 1.4420000314712524
      },
      {
        "$type": "LLGANGLOEEO",
        "type": "STEER_TO",
        "duration": 1.0,
        "aliasList": [
          "21252"
        ],
        "actionId": 267,
        "_flag": 32,
        "steerType": "TO_TARGET",
        "steerDir": {
          "x": 3592.0380859375,
          "y": 435.0920104980469,
          "z": 4531.60009765625
        },
        "useSteerAnim": true,
        "interruptFreestyle": true,
        "forceSteer": true,
        "targetNpcAlias": "AvatarNpc",
        "ignoreY": true,
        "fixInterNull": true,
        "OAFJBHJHLJG": ""
      },
      {
        "$type": "LLGANGLOEEO",
        "type": "STEER_TO",
        "duration": 1.0,
        "aliasList": [
          "1005"
        ],
        "actionId": 269,
        "_flag": 32,
        "steerType": "TO_TARGET",
        "steerDir": {
          "x": 3592.010009765625,
          "y": 435.0920104980469,
          "z": 4531.0341796875
        },
        "useSteerAnim": true,
        "interruptFreestyle": true,
        "forceSteer": true,
        "targetNpcAlias": "21252",
        "ignoreY": true,
        "fixInterNull": true,
        "OAFJBHJHLJG": ""
      }
    ],
    [
      {
        "$type": "FJKIHHKJLMJ",
        "type": "CAMERA_MOVE",
        "duration": 0.5,
        "actionId": 272,
        "camPosOffset": {
          "x": 3593.0439453125,
          "y": 436.4909973144531,
          "z": 4532.09619140625
        },
        "camForwardTargetOffset": {
          "x": 3593.14599609375,
          "y": 436.3590087890625,
          "z": 4531.10986328125
        },
        "camFov": 55.86199951171875,
        "lerpPattern": 6,
        "cameraBlendType": "EaseInOutCubic",
        "NJBNNOMLKCK": {},
        "needZAxisRotate": true,
        "openCameraDither": false,
        "targetNpcAlias": "",
        "closeTreeLeafDither": true,
        "KJOEFBPOIIH": "",
        "IICFKKEBIEC": "",
        "EGEHEJEBLBJ": ""
      },
      {
        "$type": "PKKMAMONGEO",
        "type": "DIALOG",
        "aliasList": [
          "1005"
        ],
        "actionId": 111,
        "dialogID": 741570203,
        "protectTime": 0.5
      },
      {
        "$type": "LJLMDHDCAMK",
        "type": "LOOK_AT",
        "aliasList": [
          "1005"
        ],
        "actionId": 271,
        "_flag": 64,
        "enableHead": true,
        "headTurnTime": 0.5,
        "targetNpcAlias": "AvatarNpc",
        "openBackProtect": true,
        "backProtectAngle": 10.0,
        "targetNpcLookAtPoint": "",
        "OAFJBHJHLJG": ""
      },
      {
        "$type": "HDGKHDNFMIM",
        "type": "DIALOG_SELECT",
        "delayTime": 0.4000000059604645,
        "aliasList": [
          "AvatarNpc"
        ],
        "actionId": 250,
        "dialogIDList": [
          741570204,
          741570210
        ],
        "grpIDList": [
          2233474522,
          2233474525
        ],
        "useGrpId": true,
        "countDownGrpId": 2233474517
      }
    ],
    [
      {
        "$type": "FJKIHHKJLMJ",
        "type": "CAMERA_MOVE",
        "duration": 0.5,
        "actionId": 273,
        "camPosOffset": {
          "x": 3592.719970703125,
          "y": 436.4230041503906,
          "z": 4531.22119140625
        },
        "camForwardTargetOffset": {
          "x": 3592.85400390625,
          "y": 436.2409973144531,
          "z": 4532.19482421875
        },
        "camFov": 55.86199951171875,
        "lerpPattern": 6,
        "cameraBlendType": "EaseInOutCubic",
        "NJBNNOMLKCK": {},
        "needZAxisRotate": true,
        "openCameraDither": false,
        "targetNpcAlias": "",
        "closeTreeLeafDither": true,
        "KJOEFBPOIIH": "",
        "IICFKKEBIEC": "",
        "EGEHEJEBLBJ": ""
      },
      {
        "$type": "PKKMAMONGEO",
        "type": "DIALOG",
        "aliasList": [
          "21252"
        ],
        "actionId": 114,
        "dialogID": 741570205,
        "protectTime": 0.5
      },
      {
        "$type": "FABLGECDBCH",
        "type": "BODY_LANG",
        "aliasList": [
          "21252"
        ],
        "actionId": 274,
        "bodyLangParam": 1060,
        "forceDoFreeStyle": true,
        "canDoRepeatFreeStyle": false,
        "cantBackToIdleWhenSitLoop": true,
        "eventPatternSuiteKey": "",
        "FOHHKFAIAAJ": ""
      },
      {
        "$type": "HDGKHDNFMIM",
        "type": "DIALOG_SELECT",
        "delayTime": 0.4000000059604645,
        "aliasList": [
          "AvatarNpc"
        ],
        "actionId": 251,
        "dialogIDList": [
          741570206,
          741570208
        ],
        "grpIDList": [
          2233474523,
          2233474524
        ],
        "useGrpId": true,
        "countDownGrpId": 2233474517
      }
    ],
    [
      {
        "$type": "FJKIHHKJLMJ",
        "type": "CAMERA_MOVE",
        "duration": 0.5,
        "actionId": 280,
        "camPosOffset": {
          "x": 3592.719970703125,
          "y": 436.4230041503906,
          "z": 4531.22119140625
        },
        "camForwardTargetOffset": {
          "x": 3592.85400390625,
          "y": 436.2409973144531,
          "z": 4532.19482421875
        },
        "camFov": 55.86199951171875,
        "lerpPattern": 6,
        "cameraBlendType": "EaseInOutCubic",
        "NJBNNOMLKCK": {},
        "needZAxisRotate": true,
        "openCameraDither": false,
        "targetNpcAlias": "",
        "closeTreeLeafDither": true,
        "KJOEFBPOIIH": "",
        "IICFKKEBIEC": "",
        "EGEHEJEBLBJ": ""
      },
      {
        "$type": "PKKMAMONGEO",
        "type": "DIALOG",
        "aliasList": [
          "21252"
        ],
        "actionId": 117,
        "dialogID": 741570207,
        "protectTime": 0.5
      },
      {
        "$type": "FABLGECDBCH",
        "type": "BODY_LANG",
        "delayTime": 0.0020000000949949026,
        "aliasList": [
          "21252"
        ],
        "actionId": 275,
        "isContinue": true,
        "forceDoFreeStyle": true,
        "canDoRepeatFreeStyle": false,
        "cantBackToIdleWhenSitLoop": true,
        "eventPatternSuiteKey": "",
        "FOHHKFAIAAJ": ""
      }
    ],
    [
      {
        "$type": "FJKIHHKJLMJ",
        "type": "CAMERA_MOVE",
        "duration": 0.5,
        "actionId": 279,
        "camPosOffset": {
          "x": 3592.719970703125,
          "y": 436.4230041503906,
          "z": 4531.22119140625
        },
        "camForwardTargetOffset": {
          "x": 3592.85400390625,
          "y": 436.2409973144531,
          "z": 4532.19482421875
        },
        "camFov": 55.86199951171875,
        "lerpPattern": 6,
        "cameraBlendType": "EaseInOutCubic",
        "NJBNNOMLKCK": {},
        "needZAxisRotate": true,
        "openCameraDither": false,
        "targetNpcAlias": "",
        "closeTreeLeafDither": true,
        "KJOEFBPOIIH": "",
        "IICFKKEBIEC": "",
        "EGEHEJEBLBJ": ""
      },
      {
        "$type": "PKKMAMONGEO",
        "type": "DIALOG",
        "aliasList": [
          "21252"
        ],
        "actionId": 119,
        "dialogID": 741570209,
        "protectTime": 0.5
      },
      {
        "$type": "FABLGECDBCH",
        "type": "BODY_LANG",
        "aliasList": [
          "21252"
        ],
        "actionId": 385,
        "isContinue": true,
        "forceDoFreeStyle": true,
        "canDoRepeatFreeStyle": false,
        "cantBackToIdleWhenSitLoop": true,
        "eventPatternSuiteKey": "",
        "FOHHKFAIAAJ": ""
      }
    ],
    [
      {
        "$type": "FJKIHHKJLMJ",
        "type": "CAMERA_MOVE",
        "duration": 0.5,
        "actionId": 278,
        "camPosOffset": {
          "x": 3592.719970703125,
          "y": 436.4230041503906,
          "z": 4531.22119140625
        },
        "camForwardTargetOffset": {
          "x": 3592.85400390625,
          "y": 436.2409973144531,
          "z": 4532.19482421875
        },
        "camFov": 55.86199951171875,
        "lerpPattern": 6,
        "cameraBlendType": "EaseInOutCubic",
        "NJBNNOMLKCK": {},
        "needZAxisRotate": true,
        "openCameraDither": false,
        "targetNpcAlias": "",
        "closeTreeLeafDither": true,
        "KJOEFBPOIIH": "",
        "IICFKKEBIEC": "",
        "EGEHEJEBLBJ": ""
      },
      {
        "$type": "PKKMAMONGEO",
        "type": "DIALOG",
        "aliasList": [
          "21252"
        ],
        "actionId": 121,
        "dialogID": 741570211,
        "protectTime": 0.5
      }
    ],
    [
      {
        "$type": "FJKIHHKJLMJ",
        "type": "CAMERA_MOVE",
        "duration": 0.5,
        "actionId": 281,
        "camPosOffset": {
          "x": 3592.719970703125,
          "y": 436.4230041503906,
          "z": 4531.22119140625
        },
        "camForwardTargetOffset": {
          "x": 3592.85400390625,
          "y": 436.2409973144531,
          "z": 4532.19482421875
        },
        "camFov": 55.86199951171875,
        "lerpPattern": 6,
        "cameraBlendType": "EaseInOutCubic",
        "NJBNNOMLKCK": {},
        "needZAxisRotate": true,
        "openCameraDither": false,
        "targetNpcAlias": "",
        "closeTreeLeafDither": true,
        "KJOEFBPOIIH": "",
        "IICFKKEBIEC": "",
        "EGEHEJEBLBJ": ""
      },
      {
        "$type": "PKKMAMONGEO",
        "type": "DIALOG",
        "aliasList": [
          "21252"
        ],
        "actionId": 123,
        "dialogID": 741570212,
        "protectTime": 0.5
      }
    ],
    [
      {
        "$type": "FJKIHHKJLMJ",
        "type": "CAMERA_MOVE",
        "duration": 0.5,
        "actionId": 276,
        "camPosOffset": {
          "x": 3593.572998046875,
          "y": 436.9410095214844,
          "z": 4529.548828125
        },
        "camForwardTargetOffset": {
          "x": 3593.341064453125,
          "y": 436.62200927734375,
          "z": 4530.4677734375
        },
        "camFov": 55.86199951171875,
        "lerpPattern": 6,
        "cameraBlendType": "EaseInOutCubic",
        "NJBNNOMLKCK": {},
        "needZAxisRotate": true,
        "openCameraDither": false,
        "targetNpcAlias": "",
        "closeTreeLeafDither": true,
        "KJOEFBPOIIH": "",
        "IICFKKEBIEC": "",
        "EGEHEJEBLBJ": ""
      },
      {
        "$type": "PKKMAMONGEO",
        "type": "DIALOG",
        "aliasList": [
          "21252"
        ],
        "actionId": 125,
        "dialogID": 741570213,
        "protectTime": 0.5
      },
      {
        "$type": "FABLGECDBCH",
        "type": "BODY_LANG",
        "aliasList": [
          "21252"
        ],
        "actionId": 277,
        "bodyLangParam": 1171,
        "forceDoFreeStyle": true,
        "canDoRepeatFreeStyle": false,
        "cantBackToIdleWhenSitLoop": true,
        "eventPatternSuiteKey": "",
        "FOHHKFAIAAJ": ""
      }
    ],
    [
      {
        "$type": "PKKMAMONGEO",
        "type": "DIALOG_CLEAR",
        "actionId": 128
      },
      {
        "$type": "MoleMole.Config.ConfigBlackScreenAction",
        "type": "BLACK_SCREEN",
        "actionId": 282,
        "_flag": 2048,
        "blackScreenType": "TO_BLACK",
        "durationToBlack": 0.5,
        "durationKeepBlack": 0.5,
        "durationFromBlack": 0.5,
        "inteePos": "",
        "textMapID": "",
        "useTextFade": true,
        "_changeAudioState": true
      },
      {
        "$type": "MoleMole.Config.ConfigBlackScreenAction",
        "type": "BLACK_SCREEN",
        "delayTime": 0.44999998807907104,
        "actionId": 127,
        "_flag": 2048,
        "blackScreenType": "KEEP_BLACK",
        "durationToBlack": 0.5,
        "durationKeepBlack": 3.0,
        "durationFromBlack": 0.5,
        "inteePos": "",
        "textMapID": "",
        "useTextFade": true,
        "_dialogID": 741570214,
        "needWaitClick": true,
        "_changeAudioState": true
      },
      {
        "$type": "MoleMole.Config.ConfigVisibleInterAction",
        "type": "VISIBLE",
        "delayTime": 0.8830000162124634,
        "aliasList": [
          "21251"
        ],
        "actionId": 286,
        "isVisible": true,
        "_extraParam": ""
      },
      {
        "$type": "MoleMole.Config.ConfigTeleportToAction",
        "type": "TELEPORT_TO",
        "delayTime": 0.8920000195503235,
        "aliasList": [
          "Avatar"
        ],
        "actionId": 381,
        "position": {
          "x": 3593.14990234375,
          "y": 435.0920104980469,
          "z": 4531.5869140625
        },
        "forward": {
          "x": -1.656000018119812,
          "z": -0.16699999570846558
        },
        "openLongDisTeleport": true,
        "syncForward": true,
        "_posBindMovingTargetKey": "",
        "_forwardBindMovingTargetKey": ""
      },
      {
        "$type": "MoleMole.Config.ConfigTeleportToAction",
        "type": "TELEPORT_TO",
        "delayTime": 0.8920000195503235,
        "aliasList": [
          "AvatarNpc"
        ],
        "actionId": 284,
        "position": {
          "x": 3593.14990234375,
          "y": 435.0920104980469,
          "z": 4531.5869140625
        },
        "forward": {
          "x": -1.656000018119812,
          "z": -0.16699999570846558
        },
        "openLongDisTeleport": true,
        "syncForward": true,
        "_posBindMovingTargetKey": "",
        "_forwardBindMovingTargetKey": ""
      },
      {
        "$type": "MoleMole.Config.ConfigTeleportToAction",
        "type": "TELEPORT_TO",
        "delayTime": 0.8920000195503235,
        "aliasList": [
          "21252"
        ],
        "actionId": 315,
        "position": {
          "x": 3593.31201171875,
          "y": 435.0920104980469,
          "z": 4530.60986328125
        },
        "forward": {
          "x": -1.2489999532699585,
          "z": 0.11100000143051147
        },
        "openLongDisTeleport": true,
        "syncForward": true,
        "_posBindMovingTargetKey": "",
        "_forwardBindMovingTargetKey": ""
      },
      {
        "$type": "MoleMole.Config.ConfigTeleportToAction",
        "type": "TELEPORT_TO",
        "delayTime": 0.8920000195503235,
        "aliasList": [
          "1005"
        ],
        "actionId": 285,
        "position": {
          "x": 3592.89208984375,
          "y": 435.072998046875,
          "z": 4532.240234375
        },
        "forward": {
          "x": -1.5740000009536743,
          "z": -0.6430000066757202
        },
        "openLongDisTeleport": true,
        "syncForward": true,
        "_posBindMovingTargetKey": "",
        "_forwardBindMovingTargetKey": ""
      },
      {
        "$type": "MoleMole.Config.ConfigVisibleInterAction",
        "type": "VISIBLE",
        "delayTime": 0.8920000195503235,
        "aliasList": [
          "21250"
        ],
        "actionId": 287,
        "isVisible": true,
        "_extraParam": ""
      }
    ],
    [
      {
        "$type": "MoleMole.Config.ConfigBlackScreenAction",
        "type": "BLACK_SCREEN",
        "actionId": 130,
        "_flag": 2048,
        "blackScreenType": "KEEP_BLACK",
        "durationToBlack": 0.5,
        "durationKeepBlack": 3.0,
        "durationFromBlack": 0.5,
        "inteePos": "",
        "textMapID": "",
        "useTextFade": true,
        "_dialogID": 741570215,
        "needWaitClick": true,
        "_changeAudioState": true
      },
      {
        "$type": "PKKMAMONGEO",
        "type": "DIALOG_CLEAR",
        "actionId": 131
      },
      {
        "$type": "FJKIHHKJLMJ",
        "type": "CAMERA_MOVE",
        "delayTime": 0.7670000195503235,
        "duration": 0.5,
        "actionId": 297,
        "camPosOffset": {
          "x": 3594.971923828125,
          "y": 437.0450134277344,
          "z": 4531.923828125
        },
        "camForwardTargetOffset": {
          "x": 3594.041015625,
          "y": 436.7829895019531,
          "z": 4531.6689453125
        },
        "camFov": 55.86199951171875,
        "lerpPattern": 6,
        "cameraBlendType": "EaseInOutCubic",
        "NJBNNOMLKCK": {},
        "needZAxisRotate": true,
        "openCameraDither": false,
        "targetNpcAlias": "",
        "closeTreeLeafDither": true,
        "KJOEFBPOIIH": "",
        "IICFKKEBIEC": "",
        "EGEHEJEBLBJ": ""
      }
    ],
    [
      {
        "$type": "MoleMole.Config.ConfigBlackScreenAction",
        "type": "BLACK_SCREEN",
        "actionId": 283,
        "_flag": 2048,
        "blackScreenType": "FROM_BLACK",
        "durationToBlack": 0.5,
        "durationKeepBlack": 0.5,
        "durationFromBlack": 0.5,
        "inteePos": "",
        "textMapID": "",
        "useTextFade": true,
        "_changeAudioState": true
      },
      {
        "$type": "FJKIHHKJLMJ",
        "type": "CAMERA_MOVE",
        "duration": 0.5,
        "actionId": 296,
        "camPosOffset": {
          "x": 3594.971923828125,
          "y": 437.0450134277344,
          "z": 4531.923828125
        },
        "camForwardTargetOffset": {
          "x": 3594.041015625,
          "y": 436.7829895019531,
          "z": 4531.6689453125
        },
        "camFov": 55.86199951171875,
        "lerpPattern": 6,
        "cameraBlendType": "EaseInOutCubic",
        "NJBNNOMLKCK": {},
        "needZAxisRotate": true,
        "openCameraDither": false,
        "targetNpcAlias": "",
        "closeTreeLeafDither": true,
        "KJOEFBPOIIH": "",
        "IICFKKEBIEC": "",
        "EGEHEJEBLBJ": ""
      },
      {
        "$type": "LLGANGLOEEO",
        "type": "STEER_TO",
        "duration": 1.0,
        "aliasList": [
          "AvatarNpc"
        ],
        "actionId": 288,
        "_flag": 32,
        "steerType": "TO_TARGET",
        "steerDir": {
          "x": 3592.802978515625,
          "y": 435.0920104980469,
          "z": 4531.81103515625
        },
        "useSteerAnim": true,
        "interruptFreestyle": true,
        "forceSteer": true,
        "targetNpcAlias": "21251",
        "ignoreY": true,
        "fixInterNull": true,
        "OAFJBHJHLJG": ""
      },
      {
        "$type": "LLGANGLOEEO",
        "type": "STEER_TO",
        "duration": 1.0,
        "aliasList": [
          "21252"
        ],
        "actionId": 292,
        "_flag": 32,
        "steerType": "TO_TARGET",
        "steerDir": {
          "x": 3592.721923828125,
          "y": 435.0920104980469,
          "z": 4531.18896484375
        },
        "useSteerAnim": true,
        "interruptFreestyle": true,
        "forceSteer": true,
        "targetNpcAlias": "21251",
        "ignoreY": true,
        "fixInterNull": true,
        "OAFJBHJHLJG": ""
      },
      {
        "$type": "LLGANGLOEEO",
        "type": "STEER_TO",
        "duration": 1.0,
        "aliasList": [
          "1005"
        ],
        "actionId": 290,
        "_flag": 32,
        "steerType": "TO_TARGET",
        "steerDir": {
          "x": 3593.0419921875,
          "y": 435.072998046875,
          "z": 4531.9189453125
        },
        "useSteerAnim": true,
        "interruptFreestyle": true,
        "forceSteer": true,
        "targetNpcAlias": "21250",
        "ignoreY": true,
        "fixInterNull": true,
        "OAFJBHJHLJG": ""
      },
      {
        "$type": "PKKMAMONGEO",
        "type": "DIALOG",
        "aliasList": [
          "21251"
        ],
        "actionId": 133,
        "dialogID": 741570216,
        "protectTime": 1.5540000200271606
      },
      {
        "$type": "LLGANGLOEEO",
        "type": "STEER_TO",
        "duration": 1.0,
        "aliasList": [
          "21251"
        ],
        "actionId": 294,
        "_flag": 32,
        "steerType": "TO_TARGET",
        "steerDir": {
          "x": 3592.8310546875,
          "y": 435.0920104980469,
          "z": 4531.42822265625
        },
        "useSteerAnim": true,
        "interruptFreestyle": true,
        "forceSteer": true,
        "targetNpcAlias": "AvatarNpc",
        "ignoreY": true,
        "fixInterNull": true,
        "OAFJBHJHLJG": ""
      },
      {
        "$type": "FABLGECDBCH",
        "type": "BODY_LANG",
        "aliasList": [
          "21251"
        ],
        "actionId": 383,
        "bodyLangParam": 4140,
        "forceDoFreeStyle": true,
        "canDoRepeatFreeStyle": false,
        "cantBackToIdleWhenSitLoop": true,
        "eventPatternSuiteKey": "",
        "FOHHKFAIAAJ": ""
      },
      {
        "$type": "LLGANGLOEEO",
        "type": "STEER_TO",
        "duration": 1.0,
        "aliasList": [
          "21250"
        ],
        "actionId": 295,
        "_flag": 32,
        "steerType": "TO_TARGET",
        "steerDir": {
          "x": 3592.7509765625,
          "y": 435.0920104980469,
          "z": 4531.7099609375
        },
        "useSteerAnim": true,
        "interruptFreestyle": true,
        "forceSteer": true,
        "targetNpcAlias": "AvatarNpc",
        "ignoreY": true,
        "fixInterNull": true,
        "OAFJBHJHLJG": ""
      },
      {
        "$type": "HDGKHDNFMIM",
        "type": "DIALOG_SELECT",
        "delayTime": 0.4000000059604645,
        "aliasList": [
          "AvatarNpc"
        ],
        "actionId": 252,
        "dialogIDList": [
          741570217,
          741570219,
          741570222
        ],
        "grpIDList": [
          518233374,
          518233375,
          518233377
        ],
        "useGrpId": true,
        "countDownGrpId": 2233474517
      }
    ],
    [
      {
        "$type": "LJLMDHDCAMK",
        "type": "LOOK_AT",
        "aliasList": [
          "AvatarNpc"
        ],
        "actionId": 316,
        "_flag": 64,
        "enableHead": true,
        "headTurnTime": 0.5,
        "targetNpcAlias": "21250",
        "openBackProtect": true,
        "backProtectAngle": 10.0,
        "targetNpcLookAtPoint": "",
        "OAFJBHJHLJG": ""
      },
      {
        "$type": "LJLMDHDCAMK",
        "type": "LOOK_AT",
        "aliasList": [
          "1005"
        ],
        "actionId": 325,
        "_flag": 64,
        "enableHead": true,
        "headTurnTime": 0.5,
        "targetNpcAlias": "21250",
        "openBackProtect": true,
        "backProtectAngle": 10.0,
        "targetNpcLookAtPoint": "",
        "OAFJBHJHLJG": ""
      },
      {
        "$type": "PKKMAMONGEO",
        "type": "DIALOG",
        "aliasList": [
          "21250"
        ],
        "actionId": 136,
        "dialogID": 741570218,
        "protectTime": 0.5
      },
      {
        "$type": "FABLGECDBCH",
        "type": "BODY_LANG",
        "aliasList": [
          "21250"
        ],
        "actionId": 298,
        "bodyLangParam": 1171,
        "forceDoFreeStyle": true,
        "canDoRepeatFreeStyle": false,
        "cantBackToIdleWhenSitLoop": true,
        "eventPatternSuiteKey": "",
        "FOHHKFAIAAJ": ""
      }
    ],
    [
      {
        "$type": "LJLMDHDCAMK",
        "type": "LOOK_AT",
        "aliasList": [
          "AvatarNpc"
        ],
        "actionId": 317,
        "_flag": 64,
        "enableHead": true,
        "headTurnTime": 0.5,
        "targetNpcAlias": "21250",
        "openBackProtect": true,
        "backProtectAngle": 10.0,
        "targetNpcLookAtPoint": "",
        "OAFJBHJHLJG": ""
      },
      {
        "$type": "LJLMDHDCAMK",
        "type": "LOOK_AT",
        "aliasList": [
          "1005"
        ],
        "actionId": 324,
        "_flag": 64,
        "enableHead": true,
        "headTurnTime": 0.5,
        "targetNpcAlias": "21250",
        "openBackProtect": true,
        "backProtectAngle": 10.0,
        "targetNpcLookAtPoint": "",
        "OAFJBHJHLJG": ""
      },
      {
        "$type": "PKKMAMONGEO",
        "type": "DIALOG",
        "aliasList": [
          "21250"
        ],
        "actionId": 138,
        "dialogID": 741570220,
        "protectTime": 0.5
      }
    ],
    [
      {
        "$type": "LJLMDHDCAMK",
        "type": "LOOK_AT",
        "aliasList": [
          "AvatarNpc"
        ],
        "actionId": 318,
        "_flag": 64,
        "enableHead": true,
        "headTurnTime": 0.5,
        "targetNpcAlias": "21250",
        "openBackProtect": true,
        "backProtectAngle": 10.0,
        "targetNpcLookAtPoint": "",
        "OAFJBHJHLJG": ""
      },
      {
        "$type": "LJLMDHDCAMK",
        "type": "LOOK_AT",
        "aliasList": [
          "1005"
        ],
        "actionId": 323,
        "_flag": 64,
        "enableHead": true,
        "headTurnTime": 0.5,
        "targetNpcAlias": "21250",
        "openBackProtect": true,
        "backProtectAngle": 10.0,
        "targetNpcLookAtPoint": "",
        "OAFJBHJHLJG": ""
      },
      {
        "$type": "PKKMAMONGEO",
        "type": "DIALOG",
        "aliasList": [
          "21250"
        ],
        "actionId": 140,
        "dialogID": 741570221,
        "protectTime": 0.5
      }
    ],
    [
      {
        "$type": "LJLMDHDCAMK",
        "type": "LOOK_AT",
        "aliasList": [
          "AvatarNpc"
        ],
        "actionId": 319,
        "_flag": 64,
        "enableHead": true,
        "headTurnTime": 0.5,
        "targetNpcAlias": "21250",
        "openBackProtect": true,
        "backProtectAngle": 10.0,
        "targetNpcLookAtPoint": "",
        "OAFJBHJHLJG": ""
      },
      {
        "$type": "LJLMDHDCAMK",
        "type": "LOOK_AT",
        "aliasList": [
          "1005"
        ],
        "actionId": 322,
        "_flag": 64,
        "enableHead": true,
        "headTurnTime": 0.5,
        "targetNpcAlias": "21250",
        "openBackProtect": true,
        "backProtectAngle": 10.0,
        "targetNpcLookAtPoint": "",
        "OAFJBHJHLJG": ""
      },
      {
        "$type": "PKKMAMONGEO",
        "type": "DIALOG",
        "aliasList": [
          "21250"
        ],
        "actionId": 142,
        "dialogID": 741570223,
        "protectTime": 0.5
      },
      {
        "$type": "FABLGECDBCH",
        "type": "BODY_LANG",
        "delayTime": 0.00800000037997961,
        "aliasList": [
          "21250"
        ],
        "actionId": 299,
        "bodyLangParam": 1172,
        "forceDoFreeStyle": true,
        "canDoRepeatFreeStyle": false,
        "cantBackToIdleWhenSitLoop": true,
        "eventPatternSuiteKey": "",
        "FOHHKFAIAAJ": ""
      }
    ],
    [
      {
        "$type": "LJLMDHDCAMK",
        "type": "LOOK_AT",
        "aliasList": [
          "AvatarNpc"
        ],
        "actionId": 320,
        "_flag": 64,
        "enableHead": true,
        "headTurnTime": 0.5,
        "targetNpcAlias": "21250",
        "openBackProtect": true,
        "backProtectAngle": 10.0,
        "targetNpcLookAtPoint": "",
        "OAFJBHJHLJG": ""
      },
      {
        "$type": "LJLMDHDCAMK",
        "type": "LOOK_AT",
        "aliasList": [
          "1005"
        ],
        "actionId": 321,
        "_flag": 64,
        "enableHead": true,
        "headTurnTime": 0.5,
        "targetNpcAlias": "21250",
        "openBackProtect": true,
        "backProtectAngle": 10.0,
        "targetNpcLookAtPoint": "",
        "OAFJBHJHLJG": ""
      },
      {
        "$type": "PKKMAMONGEO",
        "type": "DIALOG",
        "aliasList": [
          "21250"
        ],
        "actionId": 144,
        "dialogID": 741570224,
        "protectTime": 0.5
      }
    ],
    [
      {
        "$type": "PKKMAMONGEO",
        "type": "DIALOG",
        "aliasList": [
          "21250"
        ],
        "actionId": 146,
        "dialogID": 741570225,
        "protectTime": 1.4559999704360962
      },
      {
        "$type": "LJLMDHDCAMK",
        "type": "LOOK_AT",
        "aliasList": [
          "21250"
        ],
        "actionId": 300,
        "_flag": 64,
        "enableHead": true,
        "headTurnTime": 0.5,
        "targetNpcAlias": "21252",
        "openBackProtect": true,
        "backProtectAngle": 10.0,
        "targetNpcLookAtPoint": "",
        "OAFJBHJHLJG": ""
      },
      {
        "$type": "LLGANGLOEEO",
        "type": "STEER_TO",
        "duration": 1.0,
        "aliasList": [
          "21250"
        ],
        "actionId": 308,
        "_flag": 32,
        "steerType": "TO_TARGET",
        "steerDir": {
          "x": 3592.56494140625,
          "y": 435.0920104980469,
          "z": 4531.2509765625
        },
        "useSteerAnim": true,
        "interruptFreestyle": true,
        "forceSteer": true,
        "targetNpcAlias": "21252",
        "ignoreY": true,
        "fixInterNull": true,
        "OAFJBHJHLJG": ""
      }
    ],
    [
      {
        "$type": "FJKIHHKJLMJ",
        "type": "CAMERA_MOVE",
        "duration": 0.5,
        "actionId": 304,
        "camPosOffset": {
          "x": 3592.531005859375,
          "y": 436.5090026855469,
          "z": 4531.369140625
        },
        "camForwardTargetOffset": {
          "x": 3592.02490234375,
          "y": 436.6570129394531,
          "z": 4530.51904296875
        },
        "camFov": 55.86199951171875,
        "lerpPattern": 6,
        "cameraBlendType": "EaseInOutCubic",
        "NJBNNOMLKCK": {},
        "needZAxisRotate": true,
        "openCameraDither": false,
        "targetNpcAlias": "",
        "closeTreeLeafDither": true,
        "KJOEFBPOIIH": "",
        "IICFKKEBIEC": "",
        "EGEHEJEBLBJ": ""
      },
      {
        "$type": "PKKMAMONGEO",
        "type": "DIALOG",
        "aliasList": [
          "21251"
        ],
        "actionId": 148,
        "dialogID": 741570226,
        "protectTime": 1.8389999866485596
      },
      {
        "$type": "LJLMDHDCAMK",
        "type": "LOOK_AT",
        "aliasList": [
          "21251"
        ],
        "actionId": 302,
        "_flag": 64,
        "enableHead": true,
        "headTurnTime": 0.5,
        "targetNpcAlias": "21252",
        "openBackProtect": true,
        "backProtectAngle": 10.0,
        "targetNpcLookAtPoint": "",
        "OAFJBHJHLJG": ""
      },
      {
        "$type": "FABLGECDBCH",
        "type": "BODY_LANG",
        "aliasList": [
          "21251"
        ],
        "actionId": 303,
        "bodyLangParam": 1130,
        "forceDoFreeStyle": true,
        "canDoRepeatFreeStyle": false,
        "cantBackToIdleWhenSitLoop": true,
        "eventPatternSuiteKey": "",
        "FOHHKFAIAAJ": ""
      },
      {
        "$type": "LLGANGLOEEO",
        "type": "STEER_TO",
        "duration": 1.0,
        "aliasList": [
          "21251"
        ],
        "actionId": 309,
        "_flag": 32,
        "steerType": "TO_TARGET",
        "steerDir": {
          "x": 3593.18994140625,
          "y": 435.0920104980469,
          "z": 4530.67919921875
        },
        "useSteerAnim": true,
        "interruptFreestyle": true,
        "forceSteer": true,
        "targetNpcAlias": "21252",
        "ignoreY": true,
        "fixInterNull": true,
        "OAFJBHJHLJG": ""
      }
    ],
    [
      {
        "$type": "FJKIHHKJLMJ",
        "type": "CAMERA_MOVE",
        "duration": 0.5,
        "actionId": 305,
        "camPosOffset": {
          "x": 3592.56494140625,
          "y": 436.74200439453125,
          "z": 4530.671875
        },
        "camForwardTargetOffset": {
          "x": 3593.408935546875,
          "y": 436.2139892578125,
          "z": 4530.578125
        },
        "camFov": 55.86199951171875,
        "lerpPattern": 6,
        "cameraBlendType": "EaseInOutCubic",
        "NJBNNOMLKCK": {},
        "needZAxisRotate": true,
        "openCameraDither": false,
        "targetNpcAlias": "",
        "closeTreeLeafDither": true,
        "KJOEFBPOIIH": "",
        "IICFKKEBIEC": "",
        "EGEHEJEBLBJ": ""
      },
      {
        "$type": "PKKMAMONGEO",
        "type": "DIALOG",
        "aliasList": [
          "21252"
        ],
        "actionId": 150,
        "dialogID": 741570227,
        "protectTime": 0.5
      },
      {
        "$type": "LJLMDHDCAMK",
        "type": "LOOK_AT",
        "aliasList": [
          "21252"
        ],
        "actionId": 306,
        "_flag": 64,
        "enableHead": true,
        "headTurnTime": 0.5,
        "targetNpcAlias": "21251",
        "openBackProtect": true,
        "backProtectAngle": 10.0,
        "targetNpcLookAtPoint": "",
        "OAFJBHJHLJG": ""
      }
    ],
    [
      {
        "$type": "FJKIHHKJLMJ",
        "type": "CAMERA_MOVE",
        "duration": 0.5,
        "actionId": 307,
        "camPosOffset": {
          "x": 3592.205078125,
          "y": 437.4460144042969,
          "z": 4528.73583984375
        },
        "camForwardTargetOffset": {
          "x": 3592.43896484375,
          "y": 436.9620056152344,
          "z": 4529.580078125
        },
        "camFov": 55.10499954223633,
        "lerpPattern": 6,
        "cameraBlendType": "EaseInOutCubic",
        "NJBNNOMLKCK": {},
        "needZAxisRotate": true,
        "openCameraDither": false,
        "targetNpcAlias": "",
        "closeTreeLeafDither": true,
        "KJOEFBPOIIH": "",
        "IICFKKEBIEC": "",
        "EGEHEJEBLBJ": ""
      },
      {
        "$type": "PKKMAMONGEO",
        "type": "DIALOG",
        "aliasList": [
          "21251"
        ],
        "actionId": 152,
        "dialogID": 741570228,
        "protectTime": 0.5
      },
      {
        "$type": "FABLGECDBCH",
        "type": "BODY_LANG",
        "aliasList": [
          "21251"
        ],
        "actionId": 371,
        "bodyLangParam": 1130,
        "forceDoFreeStyle": true,
        "canDoRepeatFreeStyle": false,
        "cantBackToIdleWhenSitLoop": true,
        "eventPatternSuiteKey": "",
        "FOHHKFAIAAJ": ""
      }
    ],
    [
      {
        "$type": "FJKIHHKJLMJ",
        "type": "CAMERA_MOVE",
        "duration": 0.5,
        "actionId": 326,
        "camPosOffset": {
          "x": 3592.205078125,
          "y": 437.4460144042969,
          "z": 4528.73583984375
        },
        "camForwardTargetOffset": {
          "x": 3592.43896484375,
          "y": 436.9620056152344,
          "z": 4529.580078125
        },
        "camFov": 55.10499954223633,
        "lerpPattern": 6,
        "cameraBlendType": "EaseInOutCubic",
        "NJBNNOMLKCK": {},
        "needZAxisRotate": true,
        "openCameraDither": false,
        "targetNpcAlias": "",
        "closeTreeLeafDither": true,
        "KJOEFBPOIIH": "",
        "IICFKKEBIEC": "",
        "EGEHEJEBLBJ": ""
      },
      {
        "$type": "PKKMAMONGEO",
        "type": "DIALOG",
        "aliasList": [
          "21252"
        ],
        "actionId": 154,
        "dialogID": 741570229,
        "protectTime": 0.5
      }
    ],
    [
      {
        "$type": "FJKIHHKJLMJ",
        "type": "CAMERA_MOVE",
        "duration": 0.5,
        "actionId": 310,
        "camPosOffset": {
          "x": 3592.205078125,
          "y": 437.4460144042969,
          "z": 4528.73583984375
        },
        "camForwardTargetOffset": {
          "x": 3592.43896484375,
          "y": 436.9620056152344,
          "z": 4529.580078125
        },
        "camFov": 55.10499954223633,
        "lerpPattern": 6,
        "cameraBlendType": "EaseInOutCubic",
        "NJBNNOMLKCK": {},
        "needZAxisRotate": true,
        "openCameraDither": false,
        "targetNpcAlias": "",
        "closeTreeLeafDither": true,
        "KJOEFBPOIIH": "",
        "IICFKKEBIEC": "",
        "EGEHEJEBLBJ": ""
      },
      {
        "$type": "LJLMDHDCAMK",
        "type": "LOOK_AT",
        "aliasList": [
          "AvatarNpc"
        ],
        "actionId": 373,
        "_flag": 64,
        "enableHead": true,
        "headTurnTime": 0.5,
        "targetNpcAlias": "21251",
        "openBackProtect": true,
        "backProtectAngle": 10.0,
        "targetNpcLookAtPoint": "",
        "OAFJBHJHLJG": ""
      },
      {
        "$type": "LJLMDHDCAMK",
        "type": "LOOK_AT",
        "aliasList": [
          "1005"
        ],
        "actionId": 374,
        "_flag": 64,
        "enableHead": true,
        "headTurnTime": 0.5,
        "targetNpcAlias": "21251",
        "openBackProtect": true,
        "backProtectAngle": 10.0,
        "targetNpcLookAtPoint": "",
        "OAFJBHJHLJG": ""
      },
      {
        "$type": "PKKMAMONGEO",
        "type": "DIALOG",
        "aliasList": [
          "21251"
        ],
        "actionId": 156,
        "dialogID": 741570230,
        "protectTime": 0.5
      }
    ],
    [
      {
        "$type": "PKKMAMONGEO",
        "type": "DIALOG",
        "aliasList": [
          "21252"
        ],
        "actionId": 158,
        "dialogID": 741570231,
        "protectTime": 0.5
      }
    ],
    [
      {
        "$type": "PKKMAMONGEO",
        "type": "DIALOG",
        "aliasList": [
          "21251"
        ],
        "actionId": 160,
        "dialogID": 741570232,
        "protectTime": 0.5
      },
      {
        "$type": "FABLGECDBCH",
        "type": "BODY_LANG",
        "aliasList": [
          "21251"
        ],
        "actionId": 327,
        "bodyLangParam": 1171,
        "forceDoFreeStyle": true,
        "canDoRepeatFreeStyle": false,
        "cantBackToIdleWhenSitLoop": true,
        "eventPatternSuiteKey": "",
        "FOHHKFAIAAJ": ""
      }
    ],
    [
      {
        "$type": "PKKMAMONGEO",
        "type": "DIALOG",
        "aliasList": [
          "21252"
        ],
        "actionId": 162,
        "dialogID": 741570233,
        "protectTime": 0.5
      }
    ],
    [
      {
        "$type": "FJKIHHKJLMJ",
        "type": "CAMERA_MOVE",
        "duration": 0.5,
        "actionId": 329,
        "camPosOffset": {
          "x": 3592.4609375,
          "y": 436.6600036621094,
          "z": 4531.212890625
        },
        "camForwardTargetOffset": {
          "x": 3591.791015625,
          "y": 436.635986328125,
          "z": 4531.955078125
        },
        "camFov": 55.86199951171875,
        "lerpPattern": 6,
        "cameraBlendType": "EaseInOutCubic",
        "NJBNNOMLKCK": {},
        "needZAxisRotate": true,
        "openCameraDither": false,
        "targetNpcAlias": "",
        "closeTreeLeafDither": true,
        "KJOEFBPOIIH": "",
        "IICFKKEBIEC": "",
        "EGEHEJEBLBJ": ""
      },
      {
        "$type": "PKKMAMONGEO",
        "type": "DIALOG",
        "aliasList": [
          "21250"
        ],
        "actionId": 164,
        "dialogID": 741570234,
        "protectTime": 0.5
      },
      {
        "$type": "LJLMDHDCAMK",
        "type": "LOOK_AT",
        "aliasList": [
          "21250"
        ],
        "actionId": 312,
        "_flag": 64,
        "enableHead": true,
        "headTurnTime": 0.5,
        "targetNpcAlias": "21251",
        "openBackProtect": true,
        "backProtectAngle": 10.0,
        "targetNpcLookAtPoint": "",
        "OAFJBHJHLJG": ""
      },
      {
        "$type": "FABLGECDBCH",
        "type": "BODY_LANG",
        "aliasList": [
          "21250"
        ],
        "actionId": 313,
        "bodyLangParam": 1120,
        "forceDoFreeStyle": true,
        "canDoRepeatFreeStyle": false,
        "cantBackToIdleWhenSitLoop": true,
        "eventPatternSuiteKey": "",
        "FOHHKFAIAAJ": ""
      }
    ],
    [
      {
        "$type": "FJKIHHKJLMJ",
        "type": "CAMERA_MOVE",
        "duration": 0.5,
        "actionId": 328,
        "camPosOffset": {
          "x": 3592.205078125,
          "y": 437.4460144042969,
          "z": 4528.73583984375
        },
        "camForwardTargetOffset": {
          "x": 3592.43896484375,
          "y": 436.9620056152344,
          "z": 4529.580078125
        },
        "camFov": 55.10499954223633,
        "lerpPattern": 6,
        "cameraBlendType": "EaseInOutCubic",
        "NJBNNOMLKCK": {},
        "needZAxisRotate": true,
        "openCameraDither": false,
        "targetNpcAlias": "",
        "closeTreeLeafDither": true,
        "KJOEFBPOIIH": "",
        "IICFKKEBIEC": "",
        "EGEHEJEBLBJ": ""
      },
      {
        "$type": "PKKMAMONGEO",
        "type": "DIALOG",
        "aliasList": [
          "21251"
        ],
        "actionId": 166,
        "dialogID": 741570235,
        "protectTime": 0.5
      },
      {
        "$type": "MoleMole.Config.ConfigMoveToAction",
        "type": "MOVE_TO",
        "aliasList": [
          "21251"
        ],
        "actionId": 384,
        "moveType": "WALK",
        "routeList": [
          {
            "x": 3592.39306640625,
            "y": 435.0920104980469,
            "z": 4530.6748046875
          }
        ],
        "exactlyMove": true,
        "closeNavMesh": true,
        "openSetPos": true,
        "_bindMovingTargetKey": "",
        "_delayTriggerNextTime": 0.30000001192092896
      }
    ],
    [
      {
        "$type": "FJKIHHKJLMJ",
        "type": "CAMERA_MOVE",
        "duration": 0.5,
        "actionId": 333,
        "camPosOffset": {
          "x": 3591.85107421875,
          "y": 436.8630065917969,
          "z": 4531.65380859375
        },
        "camForwardTargetOffset": {
          "x": 3592.666015625,
          "y": 436.4800109863281,
          "z": 4531.21923828125
        },
        "camFov": 55.86199951171875,
        "lerpPattern": 6,
        "cameraBlendType": "EaseInOutCubic",
        "NJBNNOMLKCK": {},
        "needZAxisRotate": true,
        "openCameraDither": false,
        "targetNpcAlias": "",
        "closeTreeLeafDither": true,
        "KJOEFBPOIIH": "",
        "IICFKKEBIEC": "",
        "EGEHEJEBLBJ": ""
      },
      {
        "$type": "LJLMDHDCAMK",
        "type": "LOOK_AT",
        "aliasList": [
          "AvatarNpc"
        ],
        "actionId": 372,
        "_flag": 64,
        "enableHead": true,
        "headTurnTime": 0.5,
        "targetNpcAlias": "21252",
        "openBackProtect": true,
        "backProtectAngle": 10.0,
        "targetNpcLookAtPoint": "",
        "OAFJBHJHLJG": ""
      },
      {
        "$type": "PKKMAMONGEO",
        "type": "DIALOG",
        "aliasList": [
          "21252"
        ],
        "actionId": 168,
        "dialogID": 741570236,
        "protectTime": 2.0
      },
      {
        "$type": "LJLMDHDCAMK",
        "type": "LOOK_AT",
        "aliasList": [
          "21252"
        ],
        "actionId": 314,
        "_flag": 64,
        "enableHead": true,
        "headTurnTime": 0.5,
        "targetNpcAlias": "AvatarNpc",
        "openBackProtect": true,
        "backProtectAngle": 10.0,
        "targetNpcLookAtPoint": "",
        "OAFJBHJHLJG": ""
      }
    ],
    [
      {
        "$type": "FJKIHHKJLMJ",
        "type": "CAMERA_MOVE",
        "duration": 0.5,
        "actionId": 336,
        "camPosOffset": {
          "x": 3592.40087890625,
          "y": 436.7139892578125,
          "z": 4531.30322265625
        },
        "camForwardTargetOffset": {
          "x": 3591.625,
          "y": 436.6860046386719,
          "z": 4531.93505859375
        },
        "camFov": 55.86199951171875,
        "lerpPattern": 6,
        "cameraBlendType": "EaseInOutCubic",
        "NJBNNOMLKCK": {},
        "needZAxisRotate": true,
        "openCameraDither": false,
        "targetNpcAlias": "",
        "closeTreeLeafDither": true,
        "KJOEFBPOIIH": "",
        "IICFKKEBIEC": "",
        "EGEHEJEBLBJ": ""
      },
      {
        "$type": "PKKMAMONGEO",
        "type": "DIALOG",
        "aliasList": [
          "21250"
        ],
        "actionId": 170,
        "dialogID": 741570237,
        "protectTime": 0.5
      },
      {
        "$type": "FABLGECDBCH",
        "type": "BODY_LANG",
        "aliasList": [
          "21250"
        ],
        "actionId": 334,
        "bodyLangParam": 1171,
        "forceDoFreeStyle": true,
        "canDoRepeatFreeStyle": false,
        "cantBackToIdleWhenSitLoop": true,
        "eventPatternSuiteKey": "",
        "FOHHKFAIAAJ": ""
      },
      {
        "$type": "LJLMDHDCAMK",
        "type": "LOOK_AT",
        "aliasList": [
          "21250"
        ],
        "actionId": 335,
        "_flag": 64,
        "enableHead": true,
        "headTurnTime": 0.5,
        "targetNpcAlias": "21251",
        "openBackProtect": true,
        "backProtectAngle": 10.0,
        "targetNpcLookAtPoint": "",
        "OAFJBHJHLJG": ""
      }
    ],
    [
      {
        "$type": "FJKIHHKJLMJ",
        "type": "CAMERA_MOVE",
        "duration": 0.5,
        "actionId": 339,
        "camPosOffset": {
          "x": 3594.176025390625,
          "y": 437.2090148925781,
          "z": 4533.3828125
        },
        "camForwardTargetOffset": {
          "x": 3593.594970703125,
          "y": 436.8389892578125,
          "z": 4532.658203125
        },
        "camFov": 55.86199951171875,
        "lerpPattern": 6,
        "cameraBlendType": "EaseInOutCubic",
        "NJBNNOMLKCK": {},
        "needZAxisRotate": true,
        "openCameraDither": false,
        "targetNpcAlias": "",
        "closeTreeLeafDither": true,
        "KJOEFBPOIIH": "",
        "IICFKKEBIEC": "",
        "EGEHEJEBLBJ": ""
      },
      {
        "$type": "LJLMDHDCAMK",
        "type": "LOOK_AT",
        "aliasList": [
          "21252"
        ],
        "actionId": 340,
        "_flag": 64,
        "enableHead": true,
        "headTurnTime": 0.5,
        "targetNpcAlias": "21250",
        "openBackProtect": true,
        "backProtectAngle": 10.0,
        "targetNpcLookAtPoint": "",
        "OAFJBHJHLJG": ""
      },
      {
        "$type": "PKKMAMONGEO",
        "type": "DIALOG",
        "aliasList": [
          "21250"
        ],
        "actionId": 172,
        "dialogID": 741570238,
        "protectTime": 0.5
      },
      {
        "$type": "LJLMDHDCAMK",
        "type": "LOOK_AT",
        "aliasList": [
          "21250"
        ],
        "actionId": 338,
        "_flag": 64,
        "enableHead": true,
        "headTurnTime": 0.5,
        "targetNpcAlias": "21252",
        "openBackProtect": true,
        "backProtectAngle": 10.0,
        "targetNpcLookAtPoint": "",
        "OAFJBHJHLJG": ""
      }
    ],
    [
      {
        "$type": "PKKMAMONGEO",
        "type": "DIALOG",
        "aliasList": [
          "21252"
        ],
        "actionId": 174,
        "dialogID": 741570239,
        "protectTime": 0.5
      },
      {
        "$type": "FABLGECDBCH",
        "type": "BODY_LANG",
        "aliasList": [
          "21252"
        ],
        "actionId": 342,
        "bodyLangParam": 4030,
        "forceDoFreeStyle": true,
        "canDoRepeatFreeStyle": false,
        "cantBackToIdleWhenSitLoop": true,
        "eventPatternSuiteKey": "",
        "FOHHKFAIAAJ": ""
      }
    ],
    [
      {
        "$type": "PKKMAMONGEO",
        "type": "DIALOG",
        "aliasList": [
          "21250"
        ],
        "actionId": 176,
        "dialogID": 741570240,
        "protectTime": 0.5
      }
    ],
    [
      {
        "$type": "PKKMAMONGEO",
        "type": "DIALOG",
        "aliasList": [
          "21250"
        ],
        "actionId": 178,
        "dialogID": 741570241,
        "protectTime": 0.5
      },
      {
        "$type": "FABLGECDBCH",
        "type": "BODY_LANG",
        "aliasList": [
          "21250"
        ],
        "actionId": 341,
        "bodyLangParam": 1172,
        "forceDoFreeStyle": true,
        "canDoRepeatFreeStyle": false,
        "cantBackToIdleWhenSitLoop": true,
        "eventPatternSuiteKey": "",
        "FOHHKFAIAAJ": ""
      }
    ],
    [
      {
        "$type": "PKKMAMONGEO",
        "type": "DIALOG",
        "aliasList": [
          "21252"
        ],
        "actionId": 180,
        "dialogID": 741570242,
        "protectTime": 0.5
      },
      {
        "$type": "FABLGECDBCH",
        "type": "BODY_LANG",
        "aliasList": [
          "21252"
        ],
        "actionId": 343,
        "bodyLangParam": 1060,
        "forceDoFreeStyle": true,
        "canDoRepeatFreeStyle": false,
        "cantBackToIdleWhenSitLoop": true,
        "eventPatternSuiteKey": "",
        "FOHHKFAIAAJ": ""
      }
    ],
    [
      {
        "$type": "PKKMAMONGEO",
        "type": "DIALOG",
        "aliasList": [
          "21250"
        ],
        "actionId": 182,
        "dialogID": 741570243,
        "protectTime": 0.5
      }
    ],
    [
      {
        "$type": "PKKMAMONGEO",
        "type": "DIALOG",
        "aliasList": [
          "21252"
        ],
        "actionId": 184,
        "dialogID": 741570244,
        "protectTime": 0.5
      }
    ],
    [
      {
        "$type": "PKKMAMONGEO",
        "type": "DIALOG",
        "aliasList": [
          "21252"
        ],
        "actionId": 186,
        "dialogID": 741570245,
        "protectTime": 0.5
      },
      {
        "$type": "FABLGECDBCH",
        "type": "BODY_LANG",
        "aliasList": [
          "21252"
        ],
        "actionId": 344,
        "bodyLangParam": 1171,
        "forceDoFreeStyle": true,
        "canDoRepeatFreeStyle": false,
        "cantBackToIdleWhenSitLoop": true,
        "eventPatternSuiteKey": "",
        "FOHHKFAIAAJ": ""
      }
    ],
    [
      {
        "$type": "PKKMAMONGEO",
        "type": "DIALOG",
        "aliasList": [
          "21252"
        ],
        "actionId": 188,
        "dialogID": 741570246,
        "protectTime": 0.5
      }
    ],
    [
      {
        "$type": "PKKMAMONGEO",
        "type": "DIALOG",
        "aliasList": [
          "21251"
        ],
        "actionId": 190,
        "dialogID": 741570247,
        "protectTime": 0.5
      },
      {
        "$type": "FABLGECDBCH",
        "type": "BODY_LANG",
        "aliasList": [
          "21251"
        ],
        "actionId": 345,
        "bodyLangParam": 4140,
        "forceDoFreeStyle": true,
        "canDoRepeatFreeStyle": false,
        "cantBackToIdleWhenSitLoop": true,
        "eventPatternSuiteKey": "",
        "FOHHKFAIAAJ": ""
      }
    ],
    [
      {
        "$type": "PKKMAMONGEO",
        "type": "DIALOG",
        "aliasList": [
          "21250"
        ],
        "actionId": 192,
        "dialogID": 741570248,
        "protectTime": 0.5
      }
    ],
    [
      {
        "$type": "PKKMAMONGEO",
        "type": "DIALOG",
        "aliasList": [
          "21252"
        ],
        "actionId": 194,
        "dialogID": 741570249,
        "protectTime": 0.5
      }
    ],
    [
      {
        "$type": "FJKIHHKJLMJ",
        "type": "CAMERA_MOVE",
        "duration": 0.5,
        "actionId": 346,
        "camPosOffset": {
          "x": 3592.803955078125,
          "y": 436.5369873046875,
          "z": 4530.68310546875
        },
        "camForwardTargetOffset": {
          "x": 3591.81298828125,
          "y": 436.6319885253906,
          "z": 4530.5888671875
        },
        "camFov": 55.86199951171875,
        "lerpPattern": 6,
        "cameraBlendType": "EaseInOutCubic",
        "NJBNNOMLKCK": {},
        "needZAxisRotate": true,
        "openCameraDither": false,
        "targetNpcAlias": "",
        "closeTreeLeafDither": true,
        "KJOEFBPOIIH": "",
        "IICFKKEBIEC": "",
        "EGEHEJEBLBJ": ""
      },
      {
        "$type": "PKKMAMONGEO",
        "type": "DIALOG",
        "aliasList": [
          "21251"
        ],
        "actionId": 196,
        "dialogID": 741570250,
        "protectTime": 0.5
      }
    ],
    [
      {
        "$type": "FJKIHHKJLMJ",
        "type": "CAMERA_MOVE",
        "duration": 0.5,
        "actionId": 347,
        "camPosOffset": {
          "x": 3592.818115234375,
          "y": 436.52899169921875,
          "z": 4530.68115234375
        },
        "camForwardTargetOffset": {
          "x": 3593.7060546875,
          "y": 436.093994140625,
          "z": 4530.52978515625
        },
        "camFov": 55.86199951171875,
        "lerpPattern": 6,
        "cameraBlendType": "EaseInOutCubic",
        "NJBNNOMLKCK": {},
        "needZAxisRotate": true,
        "openCameraDither": false,
        "targetNpcAlias": "",
        "closeTreeLeafDither": true,
        "KJOEFBPOIIH": "",
        "IICFKKEBIEC": "",
        "EGEHEJEBLBJ": ""
      },
      {
        "$type": "PKKMAMONGEO",
        "type": "DIALOG",
        "aliasList": [
          "21252"
        ],
        "actionId": 198,
        "dialogID": 741570251,
        "protectTime": 0.5
      },
      {
        "$type": "LJLMDHDCAMK",
        "type": "LOOK_AT",
        "aliasList": [
          "21252"
        ],
        "actionId": 348,
        "_flag": 64,
        "enableHead": true,
        "headTurnTime": 0.5,
        "targetNpcAlias": "21251",
        "openBackProtect": true,
        "backProtectAngle": 10.0,
        "targetNpcLookAtPoint": "",
        "OAFJBHJHLJG": ""
      }
    ],
    [
      {
        "$type": "FJKIHHKJLMJ",
        "type": "CAMERA_MOVE",
        "duration": 0.5,
        "actionId": 349,
        "camPosOffset": {
          "x": 3592.972900390625,
          "y": 436.47198486328125,
          "z": 4529.29296875
        },
        "camForwardTargetOffset": {
          "x": 3592.925048828125,
          "y": 436.44500732421875,
          "z": 4530.2919921875
        },
        "camFov": 55.86199951171875,
        "lerpPattern": 6,
        "cameraBlendType": "EaseInOutCubic",
        "NJBNNOMLKCK": {},
        "needZAxisRotate": true,
        "openCameraDither": false,
        "targetNpcAlias": "",
        "closeTreeLeafDither": true,
        "KJOEFBPOIIH": "",
        "IICFKKEBIEC": "",
        "EGEHEJEBLBJ": ""
      },
      {
        "$type": "PKKMAMONGEO",
        "type": "DIALOG",
        "aliasList": [
          "21251"
        ],
        "actionId": 200,
        "dialogID": 741570252,
        "protectTime": 0.5
      }
    ],
    [
      {
        "$type": "PKKMAMONGEO",
        "type": "DIALOG",
        "aliasList": [
          "21251"
        ],
        "actionId": 202,
        "dialogID": 741570253,
        "protectTime": 0.5
      }
    ],
    [
      {
        "$type": "PKKMAMONGEO",
        "type": "DIALOG",
        "aliasList": [
          "21252"
        ],
        "actionId": 204,
        "dialogID": 741570254,
        "protectTime": 0.5
      }
    ],
    [
      {
        "$type": "MoleMole.Config.ConfigBlackScreenAction",
        "type": "BLACK_SCREEN",
        "duration": 1.0,
        "actionId": 353,
        "_flag": 2048,
        "durationToBlack": 0.5,
        "durationKeepBlack": 2.0,
        "durationFromBlack": 0.5,
        "inteePos": "",
        "textMapID": "",
        "useTextFade": true,
        "_changeAudioState": true
      },
      {
        "$type": "PKKMAMONGEO",
        "type": "DIALOG_CLEAR",
        "actionId": 379
      },
      {
        "$type": "MoleMole.Config.ConfigVisibleInterAction",
        "type": "VISIBLE",
        "delayTime": 0.75,
        "aliasList": [
          "21252"
        ],
        "actionId": 354,
        "_extraParam": ""
      },
      {
        "$type": "FJKIHHKJLMJ",
        "type": "CAMERA_MOVE",
        "delayTime": 1.1419999599456787,
        "duration": 0.5,
        "actionId": 382,
        "camPosOffset": {
          "x": 3592.8798828125,
          "y": 436.6260070800781,
          "z": 4530.4951171875
        },
        "camForwardTargetOffset": {
          "x": 3591.9970703125,
          "y": 436.6109924316406,
          "z": 4530.9638671875
        },
        "camFov": 55.10499954223633,
        "lerpPattern": 6,
        "cameraBlendType": "EaseInOutCubic",
        "NJBNNOMLKCK": {},
        "needZAxisRotate": true,
        "openCameraDither": false,
        "targetNpcAlias": "",
        "closeTreeLeafDither": true,
        "KJOEFBPOIIH": "",
        "IICFKKEBIEC": "",
        "EGEHEJEBLBJ": ""
      }
    ],
    [
      {
        "$type": "FJKIHHKJLMJ",
        "type": "CAMERA_MOVE",
        "duration": 0.5,
        "actionId": 375,
        "camPosOffset": {
          "x": 3592.8798828125,
          "y": 436.6260070800781,
          "z": 4530.4951171875
        },
        "camForwardTargetOffset": {
          "x": 3591.9970703125,
          "y": 436.6109924316406,
          "z": 4530.9638671875
        },
        "camFov": 55.10499954223633,
        "lerpPattern": 6,
        "cameraBlendType": "EaseInOutCubic",
        "NJBNNOMLKCK": {},
        "needZAxisRotate": true,
        "openCameraDither": false,
        "targetNpcAlias": "",
        "closeTreeLeafDither": true,
        "KJOEFBPOIIH": "",
        "IICFKKEBIEC": "",
        "EGEHEJEBLBJ": ""
      },
      {
        "$type": "PKKMAMONGEO",
        "type": "DIALOG",
        "aliasList": [
          "21251"
        ],
        "actionId": 206,
        "dialogID": 741570255,
        "protectTime": 0.5
      },
      {
        "$type": "LJLMDHDCAMK",
        "type": "LOOK_AT",
        "aliasList": [
          "21251"
        ],
        "actionId": 355,
        "_flag": 64,
        "enableHead": true,
        "headRotateVec": {
          "x": 17.7810001373291,
          "y": 353.2699890136719
        },
        "headTurnTime": 0.5,
        "targetNpcAlias": "",
        "lookAtTargetType": "NONE",
        "openBackProtect": true,
        "backProtectAngle": 10.0,
        "targetNpcLookAtPoint": "",
        "OAFJBHJHLJG": ""
      },
      {
        "$type": "LJLMDHDCAMK",
        "type": "LOOK_AT",
        "aliasList": [
          "21250"
        ],
        "actionId": 356,
        "_flag": 64,
        "enableHead": true,
        "headRotateVec": {
          "x": 11.095999717712402
        },
        "headTurnTime": 0.5,
        "targetNpcAlias": "",
        "lookAtTargetType": "NONE",
        "openBackProtect": true,
        "backProtectAngle": 10.0,
        "targetNpcLookAtPoint": "",
        "OAFJBHJHLJG": ""
      },
      {
        "$type": "HDGKHDNFMIM",
        "type": "DIALOG_SELECT",
        "delayTime": 0.4000000059604645,
        "aliasList": [
          "AvatarNpc"
        ],
        "actionId": 253,
        "dialogIDList": [
          741570256,
          741570257
        ],
        "grpIDList": [
          518233495,
          518233495
        ],
        "useGrpId": true,
        "countDownGrpId": 2233474517
      }
    ],
    [
      {
        "$type": "FJKIHHKJLMJ",
        "type": "CAMERA_MOVE",
        "duration": 0.5,
        "actionId": 361,
        "camPosOffset": {
          "x": 3595.195068359375,
          "y": 437.4580078125,
          "z": 4532.30615234375
        },
        "camForwardTargetOffset": {
          "x": 3594.318115234375,
          "y": 437.1109924316406,
          "z": 4531.97314453125
        },
        "camFov": 55.86199951171875,
        "lerpPattern": 6,
        "cameraBlendType": "EaseInOutCubic",
        "NJBNNOMLKCK": {},
        "needZAxisRotate": true,
        "openCameraDither": false,
        "targetNpcAlias": "",
        "closeTreeLeafDither": true,
        "KJOEFBPOIIH": "",
        "IICFKKEBIEC": "",
        "EGEHEJEBLBJ": ""
      },
      {
        "$type": "LLGANGLOEEO",
        "type": "STEER_TO",
        "duration": 1.0,
        "aliasList": [
          "AvatarNpc"
        ],
        "actionId": 357,
        "_flag": 32,
        "steerType": "TO_TARGET",
        "steerDir": {
          "x": 3592.429931640625,
          "y": 435.0920104980469,
          "z": 4530.89306640625
        },
        "useSteerAnim": true,
        "interruptFreestyle": true,
        "forceSteer": true,
        "targetNpcAlias": "21251",
        "ignoreY": true,
        "fixInterNull": true,
        "OAFJBHJHLJG": ""
      },
      {
        "$type": "LJLMDHDCAMK",
        "type": "LOOK_AT",
        "aliasList": [
          "AvatarNpc"
        ],
        "actionId": 376,
        "_flag": 64,
        "enableHead": true,
        "headTurnTime": 0.5,
        "targetNpcAlias": "21251",
        "openBackProtect": true,
        "backProtectAngle": 10.0,
        "targetNpcLookAtPoint": "",
        "OAFJBHJHLJG": ""
      },
      {
        "$type": "LLGANGLOEEO",
        "type": "STEER_TO",
        "duration": 1.0,
        "aliasList": [
          "1005"
        ],
        "actionId": 360,
        "_flag": 32,
        "steerType": "TO_TARGET",
        "steerDir": {
          "x": 3591.947998046875,
          "y": 435.0920104980469,
          "z": 4531.91015625
        },
        "useSteerAnim": true,
        "interruptFreestyle": true,
        "forceSteer": true,
        "targetNpcAlias": "21251",
        "ignoreY": true,
        "fixInterNull": true,
        "OAFJBHJHLJG": ""
      },
      {
        "$type": "PKKMAMONGEO",
        "type": "DIALOG",
        "aliasList": [
          "21251"
        ],
        "actionId": 209,
        "dialogID": 741570258,
        "protectTime": 1.2999999523162842
      },
      {
        "$type": "LLGANGLOEEO",
        "type": "STEER_TO",
        "duration": 1.0,
        "aliasList": [
          "21251"
        ],
        "actionId": 358,
        "_flag": 32,
        "steerType": "TO_TARGET",
        "steerDir": {
          "x": 3593.18896484375,
          "y": 435.0920104980469,
          "z": 4530.615234375
        },
        "useSteerAnim": true,
        "interruptFreestyle": true,
        "forceSteer": true,
        "targetNpcAlias": "AvatarNpc",
        "ignoreY": true,
        "fixInterNull": true,
        "OAFJBHJHLJG": ""
      },
      {
        "$type": "LJLMDHDCAMK",
        "type": "LOOK_AT",
        "aliasList": [
          "21251"
        ],
        "actionId": 365,
        "_flag": 64,
        "enableHead": true,
        "headTurnTime": 0.5,
        "targetNpcAlias": "AvatarNpc",
        "openBackProtect": true,
        "backProtectAngle": 10.0,
        "targetNpcLookAtPoint": "",
        "OAFJBHJHLJG": ""
      },
      {
        "$type": "LLGANGLOEEO",
        "type": "STEER_TO",
        "duration": 1.0,
        "aliasList": [
          "21250"
        ],
        "actionId": 359,
        "_flag": 32,
        "steerType": "TO_TARGET",
        "steerDir": {
          "x": 3592.54296875,
          "y": 435.0920104980469,
          "z": 4531.22216796875
        },
        "useSteerAnim": true,
        "interruptFreestyle": true,
        "forceSteer": true,
        "targetNpcAlias": "AvatarNpc",
        "ignoreY": true,
        "fixInterNull": true,
        "OAFJBHJHLJG": ""
      },
      {
        "$type": "LJLMDHDCAMK",
        "type": "LOOK_AT",
        "aliasList": [
          "21250"
        ],
        "actionId": 366,
        "_flag": 64,
        "enableHead": true,
        "headTurnTime": 0.5,
        "targetNpcAlias": "AvatarNpc",
        "openBackProtect": true,
        "backProtectAngle": 10.0,
        "targetNpcLookAtPoint": "",
        "OAFJBHJHLJG": ""
      }
    ],
    [
      {
        "$type": "PKKMAMONGEO",
        "type": "DIALOG",
        "aliasList": [
          "21251"
        ],
        "actionId": 211,
        "dialogID": 741570259,
        "protectTime": 0.5
      },
      {
        "$type": "FABLGECDBCH",
        "type": "BODY_LANG",
        "aliasList": [
          "21251"
        ],
        "actionId": 367,
        "bodyLangParam": 4040,
        "forceDoFreeStyle": true,
        "canDoRepeatFreeStyle": false,
        "cantBackToIdleWhenSitLoop": true,
        "eventPatternSuiteKey": "",
        "FOHHKFAIAAJ": ""
      }
    ],
    [
      {
        "$type": "PKKMAMONGEO",
        "type": "DIALOG",
        "aliasList": [
          "21250"
        ],
        "actionId": 213,
        "dialogID": 741570260,
        "protectTime": 0.5
      },
      {
        "$type": "FABLGECDBCH",
        "type": "BODY_LANG",
        "aliasList": [
          "21250"
        ],
        "actionId": 362,
        "bodyLangParam": 1171,
        "forceDoFreeStyle": true,
        "canDoRepeatFreeStyle": false,
        "cantBackToIdleWhenSitLoop": true,
        "eventPatternSuiteKey": "",
        "FOHHKFAIAAJ": ""
      },
      {
        "$type": "LJLMDHDCAMK",
        "type": "LOOK_AT",
        "aliasList": [
          "21250"
        ],
        "actionId": 363,
        "_flag": 64,
        "enableHead": true,
        "headTurnTime": 0.5,
        "targetNpcAlias": "21251",
        "openBackProtect": true,
        "backProtectAngle": 10.0,
        "targetNpcLookAtPoint": "",
        "OAFJBHJHLJG": ""
      }
    ],
    [
      {
        "$type": "PKKMAMONGEO",
        "type": "DIALOG",
        "aliasList": [
          "21251"
        ],
        "actionId": 215,
        "dialogID": 741570261,
        "protectTime": 0.5
      },
      {
        "$type": "FABLGECDBCH",
        "type": "BODY_LANG",
        "aliasList": [
          "21251"
        ],
        "actionId": 368,
        "bodyLangParam": 4140,
        "forceDoFreeStyle": true,
        "canDoRepeatFreeStyle": false,
        "cantBackToIdleWhenSitLoop": true,
        "eventPatternSuiteKey": "",
        "FOHHKFAIAAJ": ""
      }
    ],
    [
      {
        "$type": "PKKMAMONGEO",
        "type": "DIALOG",
        "aliasList": [
          "21251"
        ],
        "actionId": 217,
        "dialogID": 741570262,
        "protectTime": 0.5
      }
    ],
    [
      {
        "$type": "PKKMAMONGEO",
        "type": "DIALOG",
        "aliasList": [
          "21251"
        ],
        "actionId": 219,
        "dialogID": 741570263,
        "protectTime": 0.5
      }
    ],
    [
      {
        "$type": "PKKMAMONGEO",
        "type": "DIALOG",
        "aliasList": [
          "21251"
        ],
        "actionId": 221,
        "dialogID": 741570264,
        "protectTime": 0.5
      }
    ],
    [
      {
        "$type": "PKKMAMONGEO",
        "type": "DIALOG",
        "aliasList": [
          "21251"
        ],
        "actionId": 223,
        "dialogID": 741570265,
        "protectTime": 0.5
      },
      {
        "$type": "LJLMDHDCAMK",
        "type": "LOOK_AT",
        "aliasList": [
          "21251"
        ],
        "actionId": 369,
        "_flag": 64,
        "enableHead": true,
        "headTurnTime": 0.5,
        "targetNpcAlias": "1005",
        "openBackProtect": true,
        "backProtectAngle": 10.0,
        "targetNpcLookAtPoint": "",
        "OAFJBHJHLJG": ""
      }
    ],
    [
      {
        "$type": "PKKMAMONGEO",
        "type": "DIALOG",
        "aliasList": [
          "1005"
        ],
        "actionId": 225,
        "dialogID": 741570266,
        "protectTime": 0.5
      }
    ],
    [
      {
        "$type": "PKKMAMONGEO",
        "type": "DIALOG",
        "aliasList": [
          "21251"
        ],
        "actionId": 227,
        "dialogID": 741570267,
        "protectTime": 0.5
      }
    ],
    [
      {
        "$type": "PKKMAMONGEO",
        "type": "DIALOG",
        "aliasList": [
          "21251"
        ],
        "actionId": 229,
        "dialogID": 741570268,
        "protectTime": 0.5
      },
      {
        "$type": "LJLMDHDCAMK",
        "type": "LOOK_AT",
        "aliasList": [
          "21251"
        ],
        "actionId": 370,
        "_flag": 64,
        "enableHead": true,
        "headTurnTime": 0.5,
        "targetNpcAlias": "21250",
        "openBackProtect": true,
        "backProtectAngle": 10.0,
        "targetNpcLookAtPoint": "",
        "OAFJBHJHLJG": ""
      }
    ],
    [
      {
        "$type": "PKKMAMONGEO",
        "type": "DIALOG",
        "aliasList": [
          "21250"
        ],
        "actionId": 231,
        "dialogID": 741570269,
        "protectTime": 0.5
      }
    ],
    [
      {
        "$type": "PKKMAMONGEO",
        "type": "DIALOG_CLEAR",
        "actionId": 234
      },
      {
        "$type": "MoleMole.Config.ConfigBlackScreenAction",
        "type": "BLACK_SCREEN",
        "actionId": 377,
        "_flag": 2048,
        "blackScreenType": "TO_BLACK",
        "durationToBlack": 0.5,
        "durationKeepBlack": 0.5,
        "durationFromBlack": 0.5,
        "inteePos": "",
        "textMapID": "",
        "useTextFade": true,
        "_changeAudioState": true
      },
      {
        "$type": "MoleMole.Config.ConfigBlackScreenAction",
        "type": "BLACK_SCREEN",
        "delayTime": 0.21699999272823334,
        "actionId": 233,
        "_flag": 2048,
        "blackScreenType": "KEEP_BLACK",
        "durationToBlack": 0.5,
        "durationKeepBlack": 3.0,
        "durationFromBlack": 0.5,
        "inteePos": "",
        "textMapID": "",
        "useTextFade": true,
        "_dialogID": 741570270,
        "needWaitClick": true,
        "_changeAudioState": true
      }
    ],
    [
      {
        "$type": "MoleMole.Config.ConfigTimeProtectAction",
        "type": "TIME_PROTECT",
        "delayTime": 0.5580000281333923,
        "duration": 0.699999988079071,
        "actionId": 236
      },
      {
        "$type": "MoleMole.Config.ConfigTimeProtectAction",
        "type": "TIME_PROTECT",
        "delayTime": 0.5580000281333923,
        "duration": 0.10000000149011612,
        "actionId": 105
      },
      {
        "$type": "FJKIHHKJLMJ",
        "type": "CAMERA_MOVE",
        "delayTime": 0.5669999718666077,
        "duration": 0.10000000149011612,
        "actionId": 249,
        "cameraPosType": "EXIT",
        "camForwardTargetOffset": {
          "z": 1.0
        },
        "camFov": 30.0,
        "lerpPattern": 5,
        "cameraBlendType": "EaseInOutCubic",
        "NJBNNOMLKCK": {},
        "openCameraDither": false,
        "targetNpcAlias": "",
        "closeTreeLeafDither": true,
        "KJOEFBPOIIH": "",
        "IICFKKEBIEC": "",
        "EGEHEJEBLBJ": ""
      },
      {
        "$type": "MoleMole.Config.ConfigSimpleBlackScreenAction",
        "type": "SIMPLE_BLACK_SCREEN",
        "delayTime": 0.574999988079071,
        "actionId": 235,
        "durationToBlack": 0.5,
        "durationKeepBlack": 1.5,
        "durationFromBlack": 0.5,
        "textMapID": ""
      },
      {
        "$type": "MoleMole.Config.ConfigVisibleInterAction",
        "type": "VISIBLE",
        "delayTime": 0.6000000238418579,
        "aliasList": [
          "Avatar"
        ],
        "actionId": 257,
        "isVisible": true,
        "_extraParam": ""
      },
      {
        "$type": "MoleMole.Config.ConfigVisibleInterAction",
        "type": "VISIBLE",
        "delayTime": 0.6000000238418579,
        "aliasList": [
          "AvatarNpc"
        ],
        "actionId": 256,
        "_extraParam": ""
      },
      {
        "$type": "FABLGECDBCH",
        "type": "BODY_LANG",
        "delayTime": 0.6000000238418579,
        "aliasList": [
          "AvatarNpc"
        ],
        "actionId": 259,
        "isContinue": true,
        "forceDoFreeStyle": true,
        "canDoRepeatFreeStyle": false,
        "eventPatternSuiteKey": "",
        "FOHHKFAIAAJ": ""
      },
      {
        "$type": "FABLGECDBCH",
        "type": "BODY_LANG",
        "delayTime": 0.6000000238418579,
        "aliasList": [
          "21252"
        ],
        "actionId": 238,
        "isContinue": true,
        "forceDoFreeStyle": true,
        "canDoRepeatFreeStyle": false,
        "eventPatternSuiteKey": "",
        "FOHHKFAIAAJ": ""
      },
      {
        "$type": "FABLGECDBCH",
        "type": "BODY_LANG",
        "delayTime": 0.6000000238418579,
        "aliasList": [
          "1005"
        ],
        "actionId": 240,
        "isContinue": true,
        "forceDoFreeStyle": true,
        "canDoRepeatFreeStyle": false,
        "eventPatternSuiteKey": "",
        "FOHHKFAIAAJ": ""
      },
      {
        "$type": "FABLGECDBCH",
        "type": "BODY_LANG",
        "delayTime": 0.6000000238418579,
        "aliasList": [
          "21251"
        ],
        "actionId": 242,
        "isContinue": true,
        "forceDoFreeStyle": true,
        "canDoRepeatFreeStyle": false,
        "eventPatternSuiteKey": "",
        "FOHHKFAIAAJ": ""
      },
      {
        "$type": "FABLGECDBCH",
        "type": "BODY_LANG",
        "delayTime": 0.6000000238418579,
        "aliasList": [
          "21250"
        ],
        "actionId": 244,
        "isContinue": true,
        "forceDoFreeStyle": true,
        "canDoRepeatFreeStyle": false,
        "eventPatternSuiteKey": "",
        "FOHHKFAIAAJ": ""
      }
    ]
  ],
  "groupId": [
    {
      "grpId": 2233474518,
      "nextGrpId": 2233474519
    },
    {
      "index": 1,
      "grpId": 2233474519,
      "nextGrpId": 2233474520
    },
    {
      "index": 2,
      "grpId": 2233474520,
      "nextGrpId": 2233474521
    },
    {
      "index": 3,
      "grpId": 2233474521,
      "nextGrpId": 2233474522
    },
    {
      "index": 4,
      "grpId": 2233474522,
      "nextGrpId": 2233474523
    },
    {
      "index": 5,
      "grpId": 2233474523,
      "nextGrpId": 518233371
    },
    {
      "index": 6,
      "grpId": 2233474524,
      "nextGrpId": 518233371
    },
    {
      "index": 7,
      "grpId": 2233474525,
      "nextGrpId": 2233474526
    },
    {
      "index": 8,
      "grpId": 2233474526,
      "nextGrpId": 518233370
    },
    {
      "index": 9,
      "grpId": 518233370,
      "nextGrpId": 518233371
    },
    {
      "index": 10,
      "grpId": 518233371,
      "nextGrpId": 518233372
    },
    {
      "index": 11,
      "grpId": 518233372,
      "nextGrpId": 518233373
    },
    {
      "index": 12,
      "grpId": 518233373,
      "nextGrpId": 518233374
    },
    {
      "index": 13,
      "grpId": 518233374,
      "nextGrpId": 518233375
    },
    {
      "index": 14,
      "grpId": 518233375,
      "nextGrpId": 518233376
    },
    {
      "index": 15,
      "grpId": 518233376,
      "nextGrpId": 518233379
    },
    {
      "index": 16,
      "grpId": 518233377,
      "nextGrpId": 518233378
    },
    {
      "index": 17,
      "grpId": 518233378,
      "nextGrpId": 518233379
    },
    {
      "index": 18,
      "grpId": 518233379,
      "nextGrpId": 518233401
    },
    {
      "index": 19,
      "grpId": 518233401,
      "nextGrpId": 518233402
    },
    {
      "index": 20,
      "grpId": 518233402,
      "nextGrpId": 518233403
    },
    {
      "index": 21,
      "grpId": 518233403,
      "nextGrpId": 518233404
    },
    {
      "index": 22,
      "grpId": 518233404,
      "nextGrpId": 518233405
    },
    {
      "index": 23,
      "grpId": 518233405,
      "nextGrpId": 518233406
    },
    {
      "index": 24,
      "grpId": 518233406,
      "nextGrpId": 518233407
    },
    {
      "index": 25,
      "grpId": 518233407,
      "nextGrpId": 518233408
    },
    {
      "index": 26,
      "grpId": 518233408,
      "nextGrpId": 518233409
    },
    {
      "index": 27,
      "grpId": 518233409,
      "nextGrpId": 518233410
    },
    {
      "index": 28,
      "grpId": 518233410,
      "nextGrpId": 518233432
    },
    {
      "index": 29,
      "grpId": 518233432,
      "nextGrpId": 518233433
    },
    {
      "index": 30,
      "grpId": 518233433,
      "nextGrpId": 518233434
    },
    {
      "index": 31,
      "grpId": 518233434,
      "nextGrpId": 518233435
    },
    {
      "index": 32,
      "grpId": 518233435,
      "nextGrpId": 518233436
    },
    {
      "index": 33,
      "grpId": 518233436,
      "nextGrpId": 518233437
    },
    {
      "index": 34,
      "grpId": 518233437,
      "nextGrpId": 518233438
    },
    {
      "index": 35,
      "grpId": 518233438,
      "nextGrpId": 518233439
    },
    {
      "index": 36,
      "grpId": 518233439,
      "nextGrpId": 518233440
    },
    {
      "index": 37,
      "grpId": 518233440,
      "nextGrpId": 518233441
    },
    {
      "index": 38,
      "grpId": 518233441,
      "nextGrpId": 518233463
    },
    {
      "index": 39,
      "grpId": 518233463,
      "nextGrpId": 518233464
    },
    {
      "index": 40,
      "grpId": 518233464,
      "nextGrpId": 518233465
    },
    {
      "index": 41,
      "grpId": 518233465,
      "nextGrpId": 518233466
    },
    {
      "index": 42,
      "grpId": 518233466,
      "nextGrpId": 518233467
    },
    {
      "index": 43,
      "grpId": 518233467,
      "nextGrpId": 518233468
    },
    {
      "index": 44,
      "grpId": 518233468,
      "nextGrpId": 518233469
    },
    {
      "index": 45,
      "grpId": 518233469,
      "nextGrpId": 518233470
    },
    {
      "index": 46,
      "grpId": 518233470,
      "nextGrpId": 518233471
    },
    {
      "index": 47,
      "grpId": 518233471,
      "nextGrpId": 518233472
    },
    {
      "index": 48,
      "grpId": 518233472,
      "nextGrpId": 518233494
    },
    {
      "index": 49,
      "grpId": 518233494,
      "nextGrpId": 518233495
    },
    {
      "index": 50,
      "grpId": 518233495,
      "nextGrpId": 518233496
    },
    {
      "index": 51,
      "grpId": 518233496,
      "nextGrpId": 518233497
    },
    {
      "index": 52,
      "grpId": 518233497,
      "nextGrpId": 518233498
    },
    {
      "index": 53,
      "grpId": 518233498,
      "nextGrpId": 518233499
    },
    {
      "index": 54,
      "grpId": 518233499,
      "nextGrpId": 518233500
    },
    {
      "index": 55,
      "grpId": 518233500,
      "nextGrpId": 518233501
    },
    {
      "index": 56,
      "grpId": 518233501,
      "nextGrpId": 518233502
    },
    {
      "index": 57,
      "grpId": 518233502,
      "nextGrpId": 518233503
    },
    {
      "index": 58,
      "grpId": 518233503,
      "nextGrpId": 518233525
    },
    {
      "index": 59,
      "grpId": 518233525,
      "nextGrpId": 518233526
    },
    {
      "index": 60,
      "grpId": 518233526,
      "nextGrpId": 518233527
    },
    {
      "index": 61,
      "grpId": 518233527,
      "nextGrpId": 518233528
    },
    {
      "index": 62,
      "grpId": 518233528,
      "nextGrpId": 518233529
    },
    {
      "index": 63,
      "grpId": 518233529,
      "nextGrpId": 518233530
    }
  ],
  "freeStyleDic": {
    "1025": [],
    "1026": [],
    "21252": [
      1060,
      1171,
      4030
    ],
    "21251": [
      4140,
      1130,
      1171,
      4040
    ],
    "21250": [
      1171,
      1172,
      1120
    ]
  },
  "EKFBDAIDEEF": {
    "21252": [
      "SitChat01AS",
      "SitPutHand01AS",
      "SitStrikeChest01AS"
    ],
    "21251": [
      "SitHoldArm01AS",
      "SitPutArm01AS",
      "SitRaiseHand01AS"
    ],
    "21250": [
      "SitChat01AS",
      "SitHoldArm01AS",
      "SitPutArm01AS",
      "SitRaiseHand01AS",
      "SitRead01AS"
    ]
  },
  "GBPIKOLLKJH": {
    "KGFBJNAEBHO": "",
    "ADMLEHAKCPC": ""
  }
}