{
  "luaDataPath": "",
  "startBlackKeepTime": 0.5,
  "entityBan": "",
  "disableNpcLod": true,
  "isAutoBanNpc": true,
  "isBanWidgetPet": true,
  "protectNpcMobileLod": true,
  "startFade": {
    "startFadeInDuration": 0.5,
    "startFadeOutDuration": 0.5
  },
  "endFade": {
    "startFadeOutDuration": 0.0
  },
  "actors": [
    {
      "alias": "Avatar",
      "visible": true,
      "bornPointName": "Q3009Day3RealBeginPlayer",
      "relativePosNpcAlias": "",
      "_bindMovingTargetKey": ""
    },
    {
      "configID": 1005,
      "alias": "1005",
      "visible": true,
      "bornPointName": "Q3009Day3RealBeginDicia",
      "removeActorType": "REMOVE_WITH_DISAPPEAR",
      "relativePosNpcAlias": "",
      "_bindMovingTargetKey": ""
    },
    {
      "configID": 1056,
      "alias": "1056",
      "visible": true,
      "bornPointName": "Q3009Day3RealBeginGod3",
      "relativePosNpcAlias": "",
      "_bindMovingTargetKey": ""
    }
  ],
  "group": [
    [
      {
        "$type": "MoleMole.Config.ConfigTimeProtectAction",
        "type": "TIME_PROTECT",
        "duration": 0.10000000149011612
      }
    ],
    [
      {
        "$type": "PKKMAMONGEO",
        "type": "DIALOG",
        "aliasList": [
          "1005"
        ],
        "dialogID": 30120101,
        "protectTime": 0.5
      }
    ],
    [
      {
        "$type": "PKKMAMONGEO",
        "type": "DIALOG",
        "aliasList": [
          "1056"
        ],
        "dialogID": 30120102,
        "protectTime": 0.5
      }
    ],
    [
      {
        "$type": "PKKMAMONGEO",
        "type": "DIALOG",
        "aliasList": [
          "1005"
        ],
        "dialogID": 30120103,
        "protectTime": 0.5
      },
      {
        "$type": "HDGKHDNFMIM",
        "type": "DIALOG_SELECT",
        "delayTime": 0.4000000059604645,
        "aliasList": [
          "Avatar"
        ],
        "dialogIDList": [
          30120104,
          30120105
        ],
        "grpIDList": [
          62439230,
          62439230
        ],
        "useGrpId": true
      }
    ],
    [
      {
        "$type": "PKKMAMONGEO",
        "type": "DIALOG",
        "aliasList": [
          "1056"
        ],
        "dialogID": 30120106,
        "protectTime": 0.5
      }
    ],
    [
      {
        "$type": "PKKMAMONGEO",
        "type": "DIALOG",
        "aliasList": [
          "1005"
        ],
        "dialogID": 30120107,
        "protectTime": 0.5
      }
    ],
    [
      {
        "$type": "PKKMAMONGEO",
        "type": "DIALOG",
        "aliasList": [
          "1056"
        ],
        "dialogID": 30120108,
        "protectTime": 0.5
      },
      {
        "$type": "HDGKHDNFMIM",
        "type": "DIALOG_SELECT",
        "delayTime": 0.4000000059604645,
        "aliasList": [
          "Avatar"
        ],
        "dialogIDList": [
          30120109,
          30120110
        ],
        "grpIDList": [
          62439233,
          62439233
        ],
        "useGrpId": true
      }
    ],
    [
      {
        "$type": "PKKMAMONGEO",
        "type": "DIALOG",
        "aliasList": [
          "1005"
        ],
        "dialogID": 30120111,
        "protectTime": 0.5
      }
    ],
    [
      {
        "$type": "PKKMAMONGEO",
        "type": "DIALOG",
        "aliasList": [
          "1056"
        ],
        "dialogID": 30120112,
        "protectTime": 0.5
      }
    ],
    [
      {
        "$type": "PKKMAMONGEO",
        "type": "DIALOG",
        "aliasList": [
          "1056"
        ],
        "dialogID": 30120113,
        "protectTime": 0.5
      }
    ],
    [
      {
        "$type": "PKKMAMONGEO",
        "type": "DIALOG",
        "aliasList": [
          "1056"
        ],
        "dialogID": 30120114,
        "protectTime": 0.5
      }
    ],
    [
      {
        "$type": "PKKMAMONGEO",
        "type": "DIALOG",
        "aliasList": [
          "1005"
        ],
        "dialogID": 30120115,
        "protectTime": 0.5
      }
    ],
    [
      {
        "$type": "PKKMAMONGEO",
        "type": "DIALOG",
        "aliasList": [
          "1056"
        ],
        "dialogID": 30120116,
        "protectTime": 0.5
      }
    ],
    [
      {
        "$type": "PKKMAMONGEO",
        "type": "DIALOG",
        "aliasList": [
          "1056"
        ],
        "dialogID": 30120117,
        "protectTime": 0.5
      }
    ],
    [
      {
        "$type": "PKKMAMONGEO",
        "type": "DIALOG",
        "aliasList": [
          "1005"
        ],
        "dialogID": 30120118,
        "protectTime": 0.5
      }
    ],
    [
      {
        "$type": "PKKMAMONGEO",
        "type": "DIALOG",
        "aliasList": [
          "1056"
        ],
        "dialogID": 30120119,
        "protectTime": 0.5
      }
    ],
    [
      {
        "$type": "PKKMAMONGEO",
        "type": "DIALOG",
        "aliasList": [
          "1056"
        ],
        "dialogID": 30120120,
        "protectTime": 0.5
      },
      {
        "$type": "HDGKHDNFMIM",
        "type": "DIALOG_SELECT",
        "delayTime": 0.4000000059604645,
        "aliasList": [
          "Avatar"
        ],
        "dialogIDList": [
          30120121,
          30120122
        ],
        "grpIDList": [
          1935616062,
          1935616062
        ],
        "useGrpId": true
      }
    ],
    [
      {
        "$type": "PKKMAMONGEO",
        "type": "DIALOG",
        "aliasList": [
          "1056"
        ],
        "dialogID": 30120123,
        "protectTime": 0.5
      }
    ],
    [
      {
        "$type": "PKKMAMONGEO",
        "type": "DIALOG",
        "aliasList": [
          "1056"
        ],
        "dialogID": 30120124,
        "protectTime": 0.5
      }
    ],
    [
      {
        "$type": "PKKMAMONGEO",
        "type": "DIALOG",
        "aliasList": [
          "1005"
        ],
        "dialogID": 30120125,
        "protectTime": 0.5
      }
    ],
    [
      {
        "$type": "PKKMAMONGEO",
        "type": "DIALOG",
        "aliasList": [
          "1056"
        ],
        "dialogID": 30120126,
        "protectTime": 0.5
      }
    ],
    [
      {
        "$type": "PKKMAMONGEO",
        "type": "DIALOG",
        "aliasList": [
          "1005"
        ],
        "dialogID": 30120127,
        "protectTime": 0.5
      }
    ],
    [
      {
        "$type": "PKKMAMONGEO",
        "type": "DIALOG",
        "aliasList": [
          "1056"
        ],
        "dialogID": 30120128,
        "protectTime": 0.5
      }
    ],
    [
      {
        "$type": "PKKMAMONGEO",
        "type": "DIALOG",
        "aliasList": [
          "1056"
        ],
        "dialogID": 30120129,
        "protectTime": 0.5
      }
    ],
    [
      {
        "$type": "PKKMAMONGEO",
        "type": "DIALOG",
        "aliasList": [
          "1005"
        ],
        "dialogID": 30120130,
        "protectTime": 0.5
      }
    ],
    [
      {
        "$type": "PKKMAMONGEO",
        "type": "DIALOG",
        "aliasList": [
          "1056"
        ],
        "dialogID": 30120131,
        "protectTime": 0.5
      }
    ],
    [
      {
        "$type": "PKKMAMONGEO",
        "type": "DIALOG",
        "aliasList": [
          "1056"
        ],
        "dialogID": 30120132,
        "protectTime": 0.5
      }
    ],
    [
      {
        "$type": "PKKMAMONGEO",
        "type": "DIALOG",
        "aliasList": [
          "1005"
        ],
        "dialogID": 30120133,
        "protectTime": 0.5
      }
    ],
    [
      {
        "$type": "PKKMAMONGEO",
        "type": "DIALOG",
        "aliasList": [
          "1056"
        ],
        "dialogID": 30120134,
        "protectTime": 0.5
      }
    ],
    [
      {
        "$type": "PKKMAMONGEO",
        "type": "DIALOG",
        "aliasList": [
          "1056"
        ],
        "dialogID": 30120135,
        "protectTime": 0.5
      }
    ],
    [
      {
        "$type": "PKKMAMONGEO",
        "type": "DIALOG",
        "aliasList": [
          "1005"
        ],
        "dialogID": 30120136,
        "protectTime": 0.5
      }
    ],
    [
      {
        "$type": "PKKMAMONGEO",
        "type": "DIALOG",
        "aliasList": [
          "1056"
        ],
        "dialogID": 30120137,
        "protectTime": 0.5
      }
    ],
    [
      {
        "$type": "PKKMAMONGEO",
        "type": "DIALOG",
        "aliasList": [
          "1056"
        ],
        "dialogID": 30120138,
        "protectTime": 0.5
      }
    ],
    [
      {
        "$type": "PKKMAMONGEO",
        "type": "DIALOG",
        "aliasList": [
          "1056"
        ],
        "dialogID": 30120139,
        "protectTime": 0.5
      }
    ],
    [
      {
        "$type": "PKKMAMONGEO",
        "type": "DIALOG",
        "aliasList": [
          "1056"
        ],
        "dialogID": 30120140,
        "protectTime": 0.5
      }
    ],
    [
      {
        "$type": "PKKMAMONGEO",
        "type": "DIALOG",
        "aliasList": [
          "1056"
        ],
        "dialogID": 30120141,
        "protectTime": 0.5
      },
      {
        "$type": "HDGKHDNFMIM",
        "type": "DIALOG_SELECT",
        "delayTime": 0.4000000059604645,
        "aliasList": [
          "Avatar"
        ],
        "dialogIDList": [
          30120142
        ],
        "grpIDList": [
          1935616123
        ],
        "useGrpId": true
      }
    ],
    [
      {
        "$type": "PKKMAMONGEO",
        "type": "DIALOG",
        "aliasList": [
          "1056"
        ],
        "dialogID": 30120143,
        "protectTime": 0.5
      }
    ],
    [
      {
        "$type": "PKKMAMONGEO",
        "type": "DIALOG",
        "aliasList": [
          "1005"
        ],
        "dialogID": 30120144,
        "protectTime": 0.5
      }
    ],
    [
      {
        "$type": "PKKMAMONGEO",
        "type": "DIALOG",
        "aliasList": [
          "1005"
        ],
        "dialogID": 30120145,
        "protectTime": 0.5
      }
    ],
    [
      {
        "$type": "PKKMAMONGEO",
        "type": "DIALOG",
        "aliasList": [
          "1005"
        ],
        "dialogID": 30120146,
        "protectTime": 0.5
      }
    ],
    [
      {
        "$type": "PKKMAMONGEO",
        "type": "DIALOG",
        "aliasList": [
          "1056"
        ],
        "dialogID": 30120147,
        "protectTime": 0.5
      }
    ],
    [
      {
        "$type": "PKKMAMONGEO",
        "type": "DIALOG",
        "aliasList": [
          "1056"
        ],
        "dialogID": 30120148,
        "protectTime": 0.5
      }
    ],
    [
      {
        "$type": "PKKMAMONGEO",
        "type": "DIALOG",
        "aliasList": [
          "1005"
        ],
        "dialogID": 30120149,
        "protectTime": 0.5
      }
    ],
    [
      {
        "$type": "PKKMAMONGEO",
        "type": "DIALOG",
        "aliasList": [
          "1056"
        ],
        "dialogID": 30120150,
        "protectTime": 0.5
      }
    ],
    [
      {
        "$type": "PKKMAMONGEO",
        "type": "DIALOG",
        "aliasList": [
          "1056"
        ],
        "dialogID": 30120151,
        "protectTime": 0.5
      }
    ],
    [
      {
        "$type": "PKKMAMONGEO",
        "type": "DIALOG",
        "aliasList": [
          "1005"
        ],
        "dialogID": 30120152,
        "protectTime": 0.5
      }
    ],
    [
      {
        "$type": "PKKMAMONGEO",
        "type": "DIALOG",
        "aliasList": [
          "1005"
        ],
        "dialogID": 30120153,
        "protectTime": 0.5
      },
      {
        "$type": "HDGKHDNFMIM",
        "type": "DIALOG_SELECT",
        "delayTime": 0.4000000059604645,
        "aliasList": [
          "Avatar"
        ],
        "dialogIDList": [
          30120154
        ],
        "grpIDList": [
          1935616155
        ],
        "useGrpId": true
      }
    ],
    [
      {
        "$type": "PKKMAMONGEO",
        "type": "DIALOG",
        "aliasList": [
          "1005"
        ],
        "dialogID": 30120155,
        "protectTime": 0.5
      }
    ],
    [
      {
        "$type": "PKKMAMONGEO",
        "type": "DIALOG",
        "aliasList": [
          "1005"
        ],
        "dialogID": 30120156,
        "protectTime": 0.5
      }
    ],
    [
      {
        "$type": "PKKMAMONGEO",
        "type": "DIALOG",
        "aliasList": [
          "1005"
        ],
        "dialogID": 30120157,
        "protectTime": 0.5
      },
      {
        "$type": "HDGKHDNFMIM",
        "type": "DIALOG_SELECT",
        "delayTime": 0.4000000059604645,
        "aliasList": [
          "Avatar"
        ],
        "dialogIDList": [
          30120158
        ],
        "grpIDList": [
          1935616179
        ],
        "useGrpId": true
      }
    ],
    [
      {
        "$type": "HDGKHDNFMIM",
        "type": "DIALOG_SELECT",
        "delayTime": 0.4000000059604645,
        "aliasList": [
          "Avatar"
        ],
        "dialogIDList": [
          30120159,
          30120160
        ],
        "grpIDList": [
          1935616180,
          1935616180
        ],
        "useGrpId": true
      }
    ],
    [
      {
        "$type": "PKKMAMONGEO",
        "type": "DIALOG",
        "aliasList": [
          "1005"
        ],
        "dialogID": 30120161,
        "protectTime": 0.5
      }
    ],
    [
      {
        "$type": "PKKMAMONGEO",
        "type": "DIALOG",
        "aliasList": [
          "1005"
        ],
        "dialogID": 30120162,
        "protectTime": 0.5
      },
      {
        "$type": "HDGKHDNFMIM",
        "type": "DIALOG_SELECT",
        "delayTime": 0.4000000059604645,
        "aliasList": [
          "Avatar"
        ],
        "dialogIDList": [
          30120163,
          30120164
        ],
        "grpIDList": [
          1935616182,
          1935616182
        ],
        "useGrpId": true
      }
    ],
    [
      {
        "$type": "PKKMAMONGEO",
        "type": "DIALOG",
        "aliasList": [
          "1005"
        ],
        "dialogID": 30120165,
        "protectTime": 0.5
      }
    ],
    [
      {
        "$type": "PKKMAMONGEO",
        "type": "DIALOG",
        "aliasList": [
          "1005"
        ],
        "dialogID": 30120166,
        "protectTime": 0.5
      }
    ],
    [
      {
        "$type": "MoleMole.Config.ConfigTimeProtectAction",
        "type": "TIME_PROTECT",
        "duration": 0.10000000149011612
      },
      {
        "$type": "MoleMole.Config.ConfigSimpleBlackScreenAction",
        "type": "SIMPLE_BLACK_SCREEN",
        "durationToBlack": 0.5,
        "durationKeepBlack": 1.0,
        "durationFromBlack": 0.5,
        "textMapID": ""
      },
      {
        "$type": "MoleMole.Config.ConfigTimeProtectAction",
        "type": "TIME_PROTECT",
        "duration": 0.699999988079071
      }
    ]
  ],
  "groupId": [
    {
      "grpId": 62439226,
      "nextGrpId": 62439227
    },
    {
      "index": 1,
      "grpId": 62439227,
      "nextGrpId": 62439228
    },
    {
      "index": 2,
      "grpId": 62439228,
      "nextGrpId": 62439229
    },
    {
      "index": 3,
      "grpId": 62439229,
      "nextGrpId": 62439230
    },
    {
      "index": 4,
      "grpId": 62439230,
      "nextGrpId": 62439231
    },
    {
      "index": 5,
      "grpId": 62439231,
      "nextGrpId": 62439232
    },
    {
      "index": 6,
      "grpId": 62439232,
      "nextGrpId": 62439233
    },
    {
      "index": 7,
      "grpId": 62439233,
      "nextGrpId": 62439234
    },
    {
      "index": 8,
      "grpId": 62439234,
      "nextGrpId": 1935616054
    },
    {
      "index": 9,
      "grpId": 1935616054,
      "nextGrpId": 1935616055
    },
    {
      "index": 10,
      "grpId": 1935616055,
      "nextGrpId": 1935616056
    },
    {
      "index": 11,
      "grpId": 1935616056,
      "nextGrpId": 1935616057
    },
    {
      "index": 12,
      "grpId": 1935616057,
      "nextGrpId": 1935616058
    },
    {
      "index": 13,
      "grpId": 1935616058,
      "nextGrpId": 1935616059
    },
    {
      "index": 14,
      "grpId": 1935616059,
      "nextGrpId": 1935616060
    },
    {
      "index": 15,
      "grpId": 1935616060,
      "nextGrpId": 1935616061
    },
    {
      "index": 16,
      "grpId": 1935616061,
      "nextGrpId": 1935616062
    },
    {
      "index": 17,
      "grpId": 1935616062,
      "nextGrpId": 1935616063
    },
    {
      "index": 18,
      "grpId": 1935616063,
      "nextGrpId": 1935616085
    },
    {
      "index": 19,
      "grpId": 1935616085,
      "nextGrpId": 1935616086
    },
    {
      "index": 20,
      "grpId": 1935616086,
      "nextGrpId": 1935616087
    },
    {
      "index": 21,
      "grpId": 1935616087,
      "nextGrpId": 1935616088
    },
    {
      "index": 22,
      "grpId": 1935616088,
      "nextGrpId": 1935616089
    },
    {
      "index": 23,
      "grpId": 1935616089,
      "nextGrpId": 1935616090
    },
    {
      "index": 24,
      "grpId": 1935616090,
      "nextGrpId": 1935616091
    },
    {
      "index": 25,
      "grpId": 1935616091,
      "nextGrpId": 1935616092
    },
    {
      "index": 26,
      "grpId": 1935616092,
      "nextGrpId": 1935616093
    },
    {
      "index": 27,
      "grpId": 1935616093,
      "nextGrpId": 1935616094
    },
    {
      "index": 28,
      "grpId": 1935616094,
      "nextGrpId": 1935616116
    },
    {
      "index": 29,
      "grpId": 1935616116,
      "nextGrpId": 1935616117
    },
    {
      "index": 30,
      "grpId": 1935616117,
      "nextGrpId": 1935616118
    },
    {
      "index": 31,
      "grpId": 1935616118,
      "nextGrpId": 1935616119
    },
    {
      "index": 32,
      "grpId": 1935616119,
      "nextGrpId": 1935616120
    },
    {
      "index": 33,
      "grpId": 1935616120,
      "nextGrpId": 1935616121
    },
    {
      "index": 34,
      "grpId": 1935616121,
      "nextGrpId": 1935616122
    },
    {
      "index": 35,
      "grpId": 1935616122,
      "nextGrpId": 1935616123
    },
    {
      "index": 36,
      "grpId": 1935616123,
      "nextGrpId": 1935616124
    },
    {
      "index": 37,
      "grpId": 1935616124,
      "nextGrpId": 1935616125
    },
    {
      "index": 38,
      "grpId": 1935616125,
      "nextGrpId": 1935616147
    },
    {
      "index": 39,
      "grpId": 1935616147,
      "nextGrpId": 1935616148
    },
    {
      "index": 40,
      "grpId": 1935616148,
      "nextGrpId": 1935616149
    },
    {
      "index": 41,
      "grpId": 1935616149,
      "nextGrpId": 1935616150
    },
    {
      "index": 42,
      "grpId": 1935616150,
      "nextGrpId": 1935616151
    },
    {
      "index": 43,
      "grpId": 1935616151,
      "nextGrpId": 1935616152
    },
    {
      "index": 44,
      "grpId": 1935616152,
      "nextGrpId": 1935616153
    },
    {
      "index": 45,
      "grpId": 1935616153,
      "nextGrpId": 1935616154
    },
    {
      "index": 46,
      "grpId": 1935616154,
      "nextGrpId": 1935616155
    },
    {
      "index": 47,
      "grpId": 1935616155,
      "nextGrpId": 1935616156
    },
    {
      "index": 48,
      "grpId": 1935616156,
      "nextGrpId": 1935616178
    },
    {
      "index": 49,
      "grpId": 1935616178,
      "nextGrpId": 1935616179
    },
    {
      "index": 50,
      "grpId": 1935616179,
      "nextGrpId": 1935616180
    },
    {
      "index": 51,
      "grpId": 1935616180,
      "nextGrpId": 1935616181
    },
    {
      "index": 52,
      "grpId": 1935616181,
      "nextGrpId": 1935616182
    },
    {
      "index": 53,
      "grpId": 1935616182,
      "nextGrpId": 1935616183
    },
    {
      "index": 54,
      "grpId": 1935616183,
      "nextGrpId": 1935616184
    },
    {
      "index": 55,
      "grpId": 1935616184,
      "nextGrpId": 1935616185
    }
  ],
  "freeStyleDic": {
    "1056": []
  }
}