{
  "luaDataPath": "",
  "isSimpleTalk": true,
  "entityBan": "",
  "disableNpcLod": true,
  "startFade": {
    "startFadeInDuration": 0.5,
    "startFadeOutDuration": 0.5
  },
  "endFade": {
    "startFadeOutDuration": 0.0
  },
  "actors": [
    {
      "alias": "Avatar",
      "visible": true,
      "bornPointName": "",
      "relativePosNpcAlias": "",
      "_bindMovingTargetKey": ""
    },
    {
      "configID": 20531,
      "alias": "20531",
      "visible": true,
      "bornPointName": "",
      "relativePosNpcAlias": "",
      "_bindMovingTargetKey": ""
    }
  ],
  "group": [
    [
      {
        "$type": "MoleMole.Config.ConfigTimeProtectAction",
        "type": "TIME_PROTECT",
        "duration": 0.10000000149011612
      },
      {
        "$type": "FJKIHHKJLMJ",
        "type": "CAMERA_FOCUS",
        "duration": 0.10000000149011612,
        "targetNpcAlias": "",
        "KJOEFBPOIIH": "",
        "IICFKKEBIEC": "",
        "EGEHEJEBLBJ": ""
      }
    ],
    [
      {
        "$type": "PKKMAMONGEO",
        "type": "DIALOG",
        "aliasList": [
          "20531"
        ],
        "dialogID": 710520501,
        "protectTime": 0.5
      }
    ],
    [
      {
        "$type": "MoleMole.Config.ConfigTimeProtectAction",
        "type": "TIME_PROTECT",
        "duration": 0.699999988079071
      },
      {
        "$type": "MoleMole.Config.ConfigSimpleBlackScreenAction",
        "type": "SIMPLE_BLACK_SCREEN",
        "durationToBlack": 0.5,
        "durationKeepBlack": 1.0,
        "durationFromBlack": 0.5,
        "textMapID": ""
      },
      {
        "$type": "MoleMole.Config.ConfigTimeProtectAction",
        "type": "TIME_PROTECT",
        "duration": 0.10000000149011612
      }
    ]
  ],
  "groupId": [
    {
      "grpId": 4238705217,
      "nextGrpId": 4238705218
    },
    {
      "index": 1,
      "grpId": 4238705218,
      "nextGrpId": 4238705219
    },
    {
      "index": 2,
      "grpId": 4238705219,
      "nextGrpId": 4238705220
    }
  ]
}