{
  "luaDataPath": "",
  "isSimpleTalk": true,
  "entityBan": "",
  "disableNpcLod": true,
  "startFade": {
    "startFadeOutDuration": 0.0
  },
  "endFade": {
    "startFadeOutDuration": 0.0
  },
  "actors": [
    {
      "alias": "Avatar",
      "visible": true,
      "bornPointName": "",
      "relativePosNpcAlias": "",
      "_bindMovingTargetKey": ""
    },
    {
      "configID": 20321,
      "alias": "20321",
      "visible": true,
      "bornPointName": "",
      "relativePosNpcAlias": "",
      "_bindMovingTargetKey": ""
    },
    {
      "configID": 1005,
      "alias": "1005",
      "visible": true,
      "bornPointName": "",
      "useRelativePos": true,
      "relativePos": {
        "x": 0.5,
        "z": 0.5
      },
      "removeActorType": "REMOVE_WITH_DISAPPEAR",
      "relativePosNpcAlias": "",
      "_bindMovingTargetKey": ""
    }
  ],
  "group": [
    [
      {
        "$type": "MoleMole.Config.ConfigTimeProtectAction",
        "type": "TIME_PROTECT",
        "duration": 0.4000000059604645
      },
      {
        "$type": "FJKIHHKJLMJ",
        "type": "CAMERA_FOCUS",
        "delayTime": 0.30000001192092896,
        "duration": 0.10000000149011612,
        "targetNpcAlias": "",
        "KJOEFBPOIIH": "",
        "IICFKKEBIEC": "",
        "EGEHEJEBLBJ": ""
      }
    ],
    [
      {
        "$type": "PKKMAMONGEO",
        "type": "DIALOG",
        "aliasList": [
          "20321"
        ],
        "dialogID": 721670201,
        "protectTime": 0.5
      },
      {
        "$type": "HDGKHDNFMIM",
        "type": "DIALOG_SELECT",
        "delayTime": 0.4000000059604645,
        "aliasList": [
          "Avatar"
        ],
        "dialogIDList": [
          721670202,
          721670203,
          721670204
        ],
        "grpIDList": [
          2607295812,
          2607295812,
          2607295812
        ],
        "useGrpId": true
      }
    ],
    [
      {
        "$type": "PKKMAMONGEO",
        "type": "DIALOG",
        "aliasList": [
          "1005"
        ],
        "dialogID": 721670205,
        "protectTime": 0.5
      }
    ],
    [
      {
        "$type": "PKKMAMONGEO",
        "type": "DIALOG",
        "aliasList": [
          "20321"
        ],
        "dialogID": 721670206,
        "protectTime": 0.5
      },
      {
        "$type": "HDGKHDNFMIM",
        "type": "DIALOG_SELECT",
        "delayTime": 0.4000000059604645,
        "aliasList": [
          "Avatar"
        ],
        "dialogIDList": [
          721670207
        ],
        "grpIDList": [
          2607295814
        ],
        "useGrpId": true
      }
    ],
    [
      {
        "$type": "PKKMAMONGEO",
        "type": "DIALOG",
        "aliasList": [
          "1005"
        ],
        "dialogID": 721670208,
        "protectTime": 0.5
      }
    ],
    [
      {
        "$type": "PKKMAMONGEO",
        "type": "DIALOG",
        "aliasList": [
          "20321"
        ],
        "dialogID": 721670209,
        "protectTime": 0.5
      }
    ],
    [
      {
        "$type": "PKKMAMONGEO",
        "type": "DIALOG",
        "aliasList": [
          "20321"
        ],
        "dialogID": 721670210,
        "protectTime": 0.5
      }
    ],
    [
      {
        "$type": "PKKMAMONGEO",
        "type": "DIALOG",
        "aliasList": [
          "20321"
        ],
        "dialogID": 721670211,
        "protectTime": 0.5
      },
      {
        "$type": "HDGKHDNFMIM",
        "type": "DIALOG_SELECT",
        "delayTime": 0.4000000059604645,
        "aliasList": [
          "Avatar"
        ],
        "dialogIDList": [
          721670212
        ],
        "grpIDList": [
          2607295818
        ],
        "useGrpId": true
      }
    ],
    [
      {
        "$type": "PKKMAMONGEO",
        "type": "DIALOG",
        "aliasList": [
          "1005"
        ],
        "dialogID": 721670213,
        "protectTime": 0.5
      }
    ],
    [
      {
        "$type": "PKKMAMONGEO",
        "type": "DIALOG",
        "aliasList": [
          "20321"
        ],
        "dialogID": 721670214,
        "protectTime": 0.5
      },
      {
        "$type": "HDGKHDNFMIM",
        "type": "DIALOG_SELECT",
        "delayTime": 0.4000000059604645,
        "aliasList": [
          "Avatar"
        ],
        "dialogIDList": [
          721670215,
          721670216
        ],
        "grpIDList": [
          3516758831,
          3516758831
        ],
        "useGrpId": true
      }
    ],
    [
      {
        "$type": "PKKMAMONGEO",
        "type": "DIALOG",
        "aliasList": [
          "20321"
        ],
        "dialogID": 721670217,
        "protectTime": 0.5
      }
    ],
    [
      {
        "$type": "PKKMAMONGEO",
        "type": "DIALOG",
        "aliasList": [
          "1005"
        ],
        "dialogID": 721670218,
        "protectTime": 0.5
      },
      {
        "$type": "HDGKHDNFMIM",
        "type": "DIALOG_SELECT",
        "delayTime": 0.4000000059604645,
        "aliasList": [
          "Avatar"
        ],
        "dialogIDList": [
          721670219,
          721670223
        ],
        "grpIDList": [
          3516758833,
          3516758836
        ],
        "useGrpId": true
      }
    ],
    [
      {
        "$type": "PKKMAMONGEO",
        "type": "DIALOG",
        "aliasList": [
          "20321"
        ],
        "dialogID": 721670220,
        "protectTime": 0.5
      }
    ],
    [
      {
        "$type": "PKKMAMONGEO",
        "type": "DIALOG",
        "aliasList": [
          "20321"
        ],
        "dialogID": 721670221,
        "protectTime": 0.5
      }
    ],
    [
      {
        "$type": "PKKMAMONGEO",
        "type": "DIALOG",
        "aliasList": [
          "20321"
        ],
        "dialogID": 721670222,
        "protectTime": 0.5
      }
    ],
    [
      {
        "$type": "PKKMAMONGEO",
        "type": "DIALOG",
        "aliasList": [
          "20321"
        ],
        "dialogID": 721670224,
        "protectTime": 0.5
      },
      {
        "$type": "HDGKHDNFMIM",
        "type": "DIALOG_SELECT",
        "delayTime": 0.4000000059604645,
        "aliasList": [
          "Avatar"
        ],
        "dialogIDList": [
          721670225
        ],
        "grpIDList": [
          3516758837
        ],
        "useGrpId": true
      }
    ],
    [
      {
        "$type": "PKKMAMONGEO",
        "type": "DIALOG",
        "aliasList": [
          "20321"
        ],
        "dialogID": 721670226,
        "protectTime": 0.5
      }
    ],
    [
      {
        "$type": "PKKMAMONGEO",
        "type": "DIALOG",
        "aliasList": [
          "20321"
        ],
        "dialogID": 721670227,
        "protectTime": 0.5
      },
      {
        "$type": "HDGKHDNFMIM",
        "type": "DIALOG_SELECT",
        "delayTime": 0.4000000059604645,
        "aliasList": [
          "Avatar"
        ],
        "dialogIDList": [
          721670228
        ],
        "grpIDList": [
          3516758839
        ],
        "useGrpId": true
      }
    ],
    [
      {
        "$type": "PKKMAMONGEO",
        "type": "DIALOG",
        "aliasList": [
          "20321"
        ],
        "dialogID": 721670229,
        "protectTime": 0.5
      }
    ],
    [
      {
        "$type": "PKKMAMONGEO",
        "type": "DIALOG",
        "aliasList": [
          "20321"
        ],
        "dialogID": 721670230,
        "protectTime": 0.5
      }
    ],
    [
      {
        "$type": "PKKMAMONGEO",
        "type": "DIALOG",
        "aliasList": [
          "1005"
        ],
        "dialogID": 721670231,
        "protectTime": 0.5
      },
      {
        "$type": "HDGKHDNFMIM",
        "type": "DIALOG_SELECT",
        "delayTime": 0.4000000059604645,
        "aliasList": [
          "Avatar"
        ],
        "dialogIDList": [
          721670232
        ],
        "grpIDList": [
          3516758863
        ],
        "useGrpId": true
      }
    ],
    [
      {
        "$type": "PKKMAMONGEO",
        "type": "DIALOG",
        "aliasList": [
          "20321"
        ],
        "dialogID": 721670233,
        "protectTime": 0.5
      }
    ],
    [
      {
        "$type": "PKKMAMONGEO",
        "type": "DIALOG",
        "aliasList": [
          "20321"
        ],
        "dialogID": 721670234,
        "protectTime": 0.5
      }
    ],
    [
      {
        "$type": "PKKMAMONGEO",
        "type": "DIALOG",
        "aliasList": [
          "20321"
        ],
        "dialogID": 721670235,
        "protectTime": 0.5
      },
      {
        "$type": "HDGKHDNFMIM",
        "type": "DIALOG_SELECT",
        "delayTime": 0.4000000059604645,
        "aliasList": [
          "Avatar"
        ],
        "dialogIDList": [
          721670236,
          721670237,
          721670238
        ],
        "grpIDList": [
          3516758867,
          3516758867,
          3516758866
        ],
        "useGrpId": true
      }
    ],
    [
      {
        "$type": "PKKMAMONGEO",
        "type": "DIALOG",
        "aliasList": [
          "20321"
        ],
        "dialogID": 721670239,
        "protectTime": 0.5
      }
    ],
    [
      {
        "$type": "PKKMAMONGEO",
        "type": "DIALOG",
        "aliasList": [
          "20321"
        ],
        "dialogID": 721670240,
        "protectTime": 0.5
      }
    ],
    [
      {
        "$type": "PKKMAMONGEO",
        "type": "DIALOG",
        "aliasList": [
          "20321"
        ],
        "dialogID": 721670241,
        "protectTime": 0.5
      }
    ],
    [
      {
        "$type": "PKKMAMONGEO",
        "type": "DIALOG",
        "aliasList": [
          "1005"
        ],
        "dialogID": 721670242,
        "protectTime": 0.5
      }
    ],
    [
      {
        "$type": "PKKMAMONGEO",
        "type": "DIALOG",
        "aliasList": [
          "20321"
        ],
        "dialogID": 721670243,
        "protectTime": 0.5
      },
      {
        "$type": "HDGKHDNFMIM",
        "type": "DIALOG_SELECT",
        "delayTime": 0.4000000059604645,
        "aliasList": [
          "Avatar"
        ],
        "dialogIDList": [
          721670244
        ],
        "grpIDList": [
          3516758892
        ],
        "useGrpId": true
      }
    ],
    [
      {
        "$type": "PKKMAMONGEO",
        "type": "DIALOG",
        "aliasList": [
          "1005"
        ],
        "dialogID": 721670245,
        "protectTime": 0.5
      }
    ],
    [
      {
        "$type": "PKKMAMONGEO",
        "type": "DIALOG",
        "aliasList": [
          "20321"
        ],
        "dialogID": 721670246,
        "protectTime": 0.5
      }
    ],
    [
      {
        "$type": "PKKMAMONGEO",
        "type": "DIALOG",
        "aliasList": [
          "20321"
        ],
        "dialogID": 721670247,
        "protectTime": 0.5
      },
      {
        "$type": "HDGKHDNFMIM",
        "type": "DIALOG_SELECT",
        "delayTime": 0.4000000059604645,
        "aliasList": [
          "Avatar"
        ],
        "dialogIDList": [
          721670248
        ],
        "grpIDList": [
          3516758895
        ],
        "useGrpId": true
      }
    ],
    [
      {
        "$type": "PKKMAMONGEO",
        "type": "DIALOG",
        "aliasList": [
          "20321"
        ],
        "dialogID": 721670249,
        "protectTime": 0.5
      }
    ],
    [
      {
        "$type": "PKKMAMONGEO",
        "type": "DIALOG",
        "aliasList": [
          "20321"
        ],
        "dialogID": 721670250,
        "protectTime": 0.5
      }
    ],
    [
      {
        "$type": "PKKMAMONGEO",
        "type": "DIALOG",
        "aliasList": [
          "20321"
        ],
        "dialogID": 721670251,
        "protectTime": 0.5
      },
      {
        "$type": "HDGKHDNFMIM",
        "type": "DIALOG_SELECT",
        "delayTime": 0.4000000059604645,
        "aliasList": [
          "Avatar"
        ],
        "dialogIDList": [
          721670252,
          721670255
        ],
        "grpIDList": [
          3516758898,
          3516758900
        ],
        "useGrpId": true
      }
    ],
    [
      {
        "$type": "PKKMAMONGEO",
        "type": "DIALOG",
        "aliasList": [
          "20321"
        ],
        "dialogID": 721670253,
        "protectTime": 0.5
      }
    ],
    [
      {
        "$type": "PKKMAMONGEO",
        "type": "DIALOG",
        "aliasList": [
          "20321"
        ],
        "dialogID": 721670254,
        "protectTime": 0.5
      }
    ],
    [
      {
        "$type": "PKKMAMONGEO",
        "type": "DIALOG",
        "aliasList": [
          "20321"
        ],
        "dialogID": 721670256,
        "protectTime": 0.5
      }
    ],
    [
      {
        "$type": "PKKMAMONGEO",
        "type": "DIALOG",
        "aliasList": [
          "1005"
        ],
        "dialogID": 721670257,
        "protectTime": 0.5
      }
    ],
    [
      {
        "$type": "PKKMAMONGEO",
        "type": "DIALOG",
        "aliasList": [
          "20321"
        ],
        "dialogID": 721670258,
        "protectTime": 0.5
      }
    ],
    [
      {
        "$type": "PKKMAMONGEO",
        "type": "DIALOG",
        "aliasList": [
          "20321"
        ],
        "dialogID": 721670259,
        "protectTime": 0.5
      }
    ],
    [
      {
        "$type": "PKKMAMONGEO",
        "type": "DIALOG",
        "aliasList": [
          "20321"
        ],
        "dialogID": 721670260,
        "protectTime": 0.5
      }
    ],
    [
      {
        "$type": "MoleMole.Config.ConfigTimeProtectAction",
        "type": "TIME_PROTECT",
        "duration": 0.10000000149011612
      }
    ]
  ],
  "groupId": [
    {
      "grpId": 2607295810,
      "nextGrpId": 2607295811
    },
    {
      "index": 1,
      "grpId": 2607295811,
      "nextGrpId": 2607295812
    },
    {
      "index": 2,
      "grpId": 2607295812,
      "nextGrpId": 2607295813
    },
    {
      "index": 3,
      "grpId": 2607295813,
      "nextGrpId": 2607295814
    },
    {
      "index": 4,
      "grpId": 2607295814,
      "nextGrpId": 2607295815
    },
    {
      "index": 5,
      "grpId": 2607295815,
      "nextGrpId": 2607295816
    },
    {
      "index": 6,
      "grpId": 2607295816,
      "nextGrpId": 2607295817
    },
    {
      "index": 7,
      "grpId": 2607295817,
      "nextGrpId": 2607295818
    },
    {
      "index": 8,
      "grpId": 2607295818,
      "nextGrpId": 3516758830
    },
    {
      "index": 9,
      "grpId": 3516758830,
      "nextGrpId": 3516758831
    },
    {
      "index": 10,
      "grpId": 3516758831,
      "nextGrpId": 3516758832
    },
    {
      "index": 11,
      "grpId": 3516758832,
      "nextGrpId": 3516758833
    },
    {
      "index": 12,
      "grpId": 3516758833,
      "nextGrpId": 3516758834
    },
    {
      "index": 13,
      "grpId": 3516758834,
      "nextGrpId": 3516758835
    },
    {
      "index": 14,
      "grpId": 3516758835,
      "nextGrpId": 3516758836
    },
    {
      "index": 15,
      "grpId": 3516758836,
      "nextGrpId": 3516758837
    },
    {
      "index": 16,
      "grpId": 3516758837,
      "nextGrpId": 3516758838
    },
    {
      "index": 17,
      "grpId": 3516758838,
      "nextGrpId": 3516758839
    },
    {
      "index": 18,
      "grpId": 3516758839,
      "nextGrpId": 3516758861
    },
    {
      "index": 19,
      "grpId": 3516758861,
      "nextGrpId": 3516758862
    },
    {
      "index": 20,
      "grpId": 3516758862,
      "nextGrpId": 3516758863
    },
    {
      "index": 21,
      "grpId": 3516758863,
      "nextGrpId": 3516758864
    },
    {
      "index": 22,
      "grpId": 3516758864,
      "nextGrpId": 3516758865
    },
    {
      "index": 23,
      "grpId": 3516758865,
      "nextGrpId": 3516758866
    },
    {
      "index": 24,
      "grpId": 3516758866,
      "nextGrpId": 3516758867
    },
    {
      "index": 25,
      "grpId": 3516758867,
      "nextGrpId": 3516758868
    },
    {
      "index": 26,
      "grpId": 3516758868,
      "nextGrpId": 3516758869
    },
    {
      "index": 27,
      "grpId": 3516758869,
      "nextGrpId": 3516758870
    },
    {
      "index": 28,
      "grpId": 3516758870,
      "nextGrpId": 3516758892
    },
    {
      "index": 29,
      "grpId": 3516758892,
      "nextGrpId": 3516758893
    },
    {
      "index": 30,
      "grpId": 3516758893,
      "nextGrpId": 3516758894
    },
    {
      "index": 31,
      "grpId": 3516758894,
      "nextGrpId": 3516758895
    },
    {
      "index": 32,
      "grpId": 3516758895,
      "nextGrpId": 3516758896
    },
    {
      "index": 33,
      "grpId": 3516758896,
      "nextGrpId": 3516758897
    },
    {
      "index": 34,
      "grpId": 3516758897,
      "nextGrpId": 3516758898
    },
    {
      "index": 35,
      "grpId": 3516758898,
      "nextGrpId": 3516758899
    },
    {
      "index": 36,
      "grpId": 3516758899,
      "nextGrpId": 3516758924
    },
    {
      "index": 37,
      "grpId": 3516758900,
      "nextGrpId": 3516758901
    },
    {
      "index": 38,
      "grpId": 3516758901,
      "nextGrpId": 3516758923
    },
    {
      "index": 39,
      "grpId": 3516758923,
      "nextGrpId": 3516758924
    },
    {
      "index": 40,
      "grpId": 3516758924,
      "nextGrpId": 3516758925
    },
    {
      "index": 41,
      "grpId": 3516758925,
      "nextGrpId": 3516758926
    },
    {
      "index": 42,
      "grpId": 3516758926,
      "nextGrpId": 3516758927
    }
  ],
  "freeStyleDic": {
    "20321": []
  }
}