{
  "luaDataPath": "",
  "startBlackKeepTime": 0.5,
  "entityBan": "",
  "disableNpcLod": true,
  "isAutoBanNpc": true,
  "isBanWidgetPet": true,
  "protectNpcMobileLod": true,
  "startFade": {
    "startFadeInDuration": 0.5,
    "startFadeOutDuration": 0.5
  },
  "endFade": {
    "startFadeOutDuration": 0.0
  },
  "actors": [
    {
      "alias": "Avatar",
      "visible": true,
      "bornPointName": "N10000005_T7321943",
      "relativePosType": "AVATAR_NEW",
      "relativePosNpcAlias": "",
      "_bindMovingTargetKey": ""
    },
    {
      "alias": "AvatarNpc",
      "visible": true,
      "bornPointName": "N10000005_T7321943",
      "removeActorType": "REMOVE",
      "relativePosType": "AVATAR_NEW",
      "relativePosNpcAlias": "",
      "_bindMovingTargetKey": ""
    },
    {
      "configID": 20845,
      "alias": "20845",
      "visible": true,
      "bornPointName": "Q7321946_N20845_2580",
      "relativePosType": "AVATAR_NEW",
      "relativePosNpcAlias": "",
      "_bindMovingTargetKey": ""
    },
    {
      "configID": 4296,
      "alias": "4296",
      "visible": true,
      "bornPointName": "Q7321946_N4296",
      "forceCreateDaily": true,
      "relativePosType": "AVATAR_NEW",
      "relativePosNpcAlias": "",
      "_bindMovingTargetKey": ""
    },
    {
      "configID": 1005,
      "alias": "1005",
      "visible": true,
      "bornPointName": "N1005_T7321943",
      "removeActorType": "REMOVE_WITH_DISAPPEAR",
      "relativePosType": "AVATAR_NEW",
      "relativePosNpcAlias": "",
      "_bindMovingTargetKey": ""
    },
    {
      "configID": 20846,
      "alias": "20846",
      "visible": true,
      "bornPointName": "N20846_T7321943",
      "relativePosType": "AVATAR_NEW",
      "relativePosNpcAlias": "",
      "_bindMovingTargetKey": ""
    }
  ],
  "group": [
    [
      {
        "$type": "MoleMole.Config.ConfigTimeProtectAction",
        "type": "TIME_PROTECT",
        "duration": 0.10000000149011612,
        "actionId": 104
      },
      {
        "$type": "MoleMole.Config.ConfigVisibleInterAction",
        "type": "VISIBLE",
        "aliasList": [
          "Avatar"
        ],
        "actionId": 291,
        "_extraParam": ""
      },
      {
        "$type": "MoleMole.Config.ConfigPlayerNPCEnergyTypeAction",
        "type": "SET_PLAYER_NPC_ENERGY_TYPE",
        "aliasList": [
          "AvatarNpc"
        ],
        "actionId": 286,
        "setHeroEngergyType": true
      },
      {
        "$type": "MoleMole.Config.ConfigPlayerNPCEnergyTypeAction",
        "type": "SET_PLAYER_NPC_ENERGY_TYPE",
        "aliasList": [
          "AvatarNpc"
        ],
        "actionId": 288,
        "setHeroEngergyType": true
      }
    ],
    [
      {
        "$type": "PKKMAMONGEO",
        "type": "DIALOG",
        "aliasList": [
          "20845"
        ],
        "actionId": 107,
        "dialogID": 732194301,
        "protectTime": 0.5
      }
    ],
    [
      {
        "$type": "PKKMAMONGEO",
        "type": "DIALOG",
        "aliasList": [
          "4296"
        ],
        "actionId": 109,
        "dialogID": 732194302,
        "protectTime": 0.5
      }
    ],
    [
      {
        "$type": "PKKMAMONGEO",
        "type": "DIALOG",
        "aliasList": [
          "1005"
        ],
        "actionId": 111,
        "dialogID": 732194303,
        "protectTime": 0.5
      }
    ],
    [
      {
        "$type": "PKKMAMONGEO",
        "type": "DIALOG",
        "aliasList": [
          "AvatarNpc"
        ],
        "actionId": 278,
        "dialogID": 732194304,
        "protectTime": 0.5
      }
    ],
    [
      {
        "$type": "PKKMAMONGEO",
        "type": "DIALOG",
        "aliasList": [
          "20845"
        ],
        "actionId": 115,
        "dialogID": 732194305,
        "protectTime": 0.5
      }
    ],
    [
      {
        "$type": "PKKMAMONGEO",
        "type": "DIALOG",
        "aliasList": [
          "1005"
        ],
        "actionId": 117,
        "dialogID": 732194306,
        "protectTime": 0.5
      },
      {
        "$type": "HDGKHDNFMIM",
        "type": "DIALOG_SELECT",
        "delayTime": 0.4000000059604645,
        "aliasList": [
          "AvatarNpc"
        ],
        "actionId": 279,
        "dialogIDList": [
          732194307
        ],
        "grpIDList": [
          801463949
        ],
        "useGrpId": true
      }
    ],
    [
      {
        "$type": "PKKMAMONGEO",
        "type": "DIALOG",
        "aliasList": [
          "20845"
        ],
        "actionId": 120,
        "dialogID": 732194308,
        "protectTime": 0.5
      }
    ],
    [
      {
        "$type": "PKKMAMONGEO",
        "type": "DIALOG",
        "aliasList": [
          "4296"
        ],
        "actionId": 122,
        "dialogID": 732194309,
        "protectTime": 0.5
      }
    ],
    [
      {
        "$type": "PKKMAMONGEO",
        "type": "DIALOG",
        "aliasList": [
          "20845"
        ],
        "actionId": 124,
        "dialogID": 732194310,
        "protectTime": 0.5
      }
    ],
    [
      {
        "$type": "PKKMAMONGEO",
        "type": "DIALOG",
        "aliasList": [
          "20845"
        ],
        "actionId": 126,
        "dialogID": 732194311,
        "protectTime": 0.5
      },
      {
        "$type": "HDGKHDNFMIM",
        "type": "DIALOG_SELECT",
        "delayTime": 0.4000000059604645,
        "aliasList": [
          "AvatarNpc"
        ],
        "actionId": 280,
        "dialogIDList": [
          732194312,
          732194313
        ],
        "grpIDList": [
          3370545772,
          3370545772
        ],
        "useGrpId": true
      }
    ],
    [
      {
        "$type": "PKKMAMONGEO",
        "type": "DIALOG",
        "aliasList": [
          "4296"
        ],
        "actionId": 129,
        "dialogID": 732194314,
        "protectTime": 0.5
      }
    ],
    [
      {
        "$type": "PKKMAMONGEO",
        "type": "DIALOG",
        "aliasList": [
          "4296"
        ],
        "actionId": 131,
        "dialogID": 732194315,
        "protectTime": 0.5
      }
    ],
    [
      {
        "$type": "PKKMAMONGEO",
        "type": "DIALOG",
        "aliasList": [
          "1005"
        ],
        "actionId": 133,
        "dialogID": 732194316,
        "protectTime": 0.5
      }
    ],
    [
      {
        "$type": "PKKMAMONGEO",
        "type": "DIALOG",
        "aliasList": [
          "4296"
        ],
        "actionId": 135,
        "dialogID": 732194317,
        "protectTime": 0.5
      }
    ],
    [
      {
        "$type": "PKKMAMONGEO",
        "type": "DIALOG",
        "aliasList": [
          "20846"
        ],
        "actionId": 137,
        "dialogID": 732194318,
        "protectTime": 0.5
      }
    ],
    [
      {
        "$type": "PKKMAMONGEO",
        "type": "DIALOG",
        "aliasList": [
          "1005"
        ],
        "actionId": 139,
        "dialogID": 732194319,
        "protectTime": 0.5
      }
    ],
    [
      {
        "$type": "PKKMAMONGEO",
        "type": "DIALOG",
        "aliasList": [
          "4296"
        ],
        "actionId": 141,
        "dialogID": 732194320,
        "protectTime": 0.5
      }
    ],
    [
      {
        "$type": "PKKMAMONGEO",
        "type": "DIALOG",
        "aliasList": [
          "20845"
        ],
        "actionId": 143,
        "dialogID": 732194321,
        "protectTime": 0.5
      }
    ],
    [
      {
        "$type": "PKKMAMONGEO",
        "type": "DIALOG",
        "aliasList": [
          "20845"
        ],
        "actionId": 145,
        "dialogID": 732194322,
        "protectTime": 0.5
      },
      {
        "$type": "HDGKHDNFMIM",
        "type": "DIALOG_SELECT",
        "delayTime": 0.4000000059604645,
        "aliasList": [
          "AvatarNpc"
        ],
        "actionId": 281,
        "dialogIDList": [
          732194323
        ],
        "grpIDList": [
          3370545802
        ],
        "useGrpId": true
      }
    ],
    [
      {
        "$type": "PKKMAMONGEO",
        "type": "DIALOG",
        "aliasList": [
          "4296"
        ],
        "actionId": 148,
        "dialogID": 732194324,
        "protectTime": 0.5
      }
    ],
    [
      {
        "$type": "PKKMAMONGEO",
        "type": "DIALOG",
        "aliasList": [
          "20845"
        ],
        "actionId": 150,
        "dialogID": 732194325,
        "protectTime": 0.5
      }
    ],
    [
      {
        "$type": "PKKMAMONGEO",
        "type": "DIALOG",
        "aliasList": [
          "20846"
        ],
        "actionId": 152,
        "dialogID": 732194326,
        "protectTime": 0.5
      }
    ],
    [
      {
        "$type": "PKKMAMONGEO",
        "type": "DIALOG",
        "aliasList": [
          "20845"
        ],
        "actionId": 154,
        "dialogID": 732194327,
        "protectTime": 0.5
      }
    ],
    [
      {
        "$type": "PKKMAMONGEO",
        "type": "DIALOG",
        "aliasList": [
          "20846"
        ],
        "actionId": 156,
        "dialogID": 732194328,
        "protectTime": 0.5
      }
    ],
    [
      {
        "$type": "PKKMAMONGEO",
        "type": "DIALOG",
        "aliasList": [
          "20845"
        ],
        "actionId": 158,
        "dialogID": 732194329,
        "protectTime": 0.5
      }
    ],
    [
      {
        "$type": "PKKMAMONGEO",
        "type": "DIALOG",
        "aliasList": [
          "20846"
        ],
        "actionId": 160,
        "dialogID": 732194330,
        "protectTime": 0.5
      }
    ],
    [
      {
        "$type": "PKKMAMONGEO",
        "type": "DIALOG",
        "aliasList": [
          "4296"
        ],
        "actionId": 162,
        "dialogID": 732194331,
        "protectTime": 0.5
      }
    ],
    [
      {
        "$type": "PKKMAMONGEO",
        "type": "DIALOG",
        "aliasList": [
          "20846"
        ],
        "actionId": 164,
        "dialogID": 732194332,
        "protectTime": 0.5
      }
    ],
    [
      {
        "$type": "PKKMAMONGEO",
        "type": "DIALOG",
        "aliasList": [
          "4296"
        ],
        "actionId": 166,
        "dialogID": 732194333,
        "protectTime": 0.5
      },
      {
        "$type": "HDGKHDNFMIM",
        "type": "DIALOG_SELECT",
        "delayTime": 0.4000000059604645,
        "aliasList": [
          "AvatarNpc"
        ],
        "actionId": 282,
        "dialogIDList": [
          732194334,
          732194335
        ],
        "grpIDList": [
          3370545833,
          3370545833
        ],
        "useGrpId": true
      }
    ],
    [
      {
        "$type": "PKKMAMONGEO",
        "type": "DIALOG",
        "aliasList": [
          "20845"
        ],
        "actionId": 169,
        "dialogID": 732194336,
        "protectTime": 0.5
      }
    ],
    [
      {
        "$type": "PKKMAMONGEO",
        "type": "DIALOG",
        "aliasList": [
          "20845"
        ],
        "actionId": 171,
        "dialogID": 732194337,
        "protectTime": 0.5
      }
    ],
    [
      {
        "$type": "PKKMAMONGEO",
        "type": "DIALOG",
        "aliasList": [
          "20846"
        ],
        "actionId": 173,
        "dialogID": 732194338,
        "protectTime": 0.5
      }
    ],
    [
      {
        "$type": "PKKMAMONGEO",
        "type": "DIALOG",
        "aliasList": [
          "20846"
        ],
        "actionId": 175,
        "dialogID": 732194339,
        "protectTime": 0.5
      }
    ],
    [
      {
        "$type": "PKKMAMONGEO",
        "type": "DIALOG",
        "aliasList": [
          "20845"
        ],
        "actionId": 177,
        "dialogID": 732194340,
        "protectTime": 0.5
      }
    ],
    [
      {
        "$type": "PKKMAMONGEO",
        "type": "DIALOG",
        "aliasList": [
          "4296"
        ],
        "actionId": 179,
        "dialogID": 732194341,
        "protectTime": 0.5
      }
    ],
    [
      {
        "$type": "PKKMAMONGEO",
        "type": "DIALOG",
        "aliasList": [
          "20846"
        ],
        "actionId": 181,
        "dialogID": 732194342,
        "protectTime": 0.5
      }
    ],
    [
      {
        "$type": "PKKMAMONGEO",
        "type": "DIALOG",
        "aliasList": [
          "4296"
        ],
        "actionId": 183,
        "dialogID": 732194343,
        "protectTime": 0.5
      }
    ],
    [
      {
        "$type": "PKKMAMONGEO",
        "type": "DIALOG",
        "aliasList": [
          "20845"
        ],
        "actionId": 185,
        "dialogID": 732194344,
        "protectTime": 0.5
      }
    ],
    [
      {
        "$type": "PKKMAMONGEO",
        "type": "DIALOG",
        "aliasList": [
          "20845"
        ],
        "actionId": 187,
        "dialogID": 732194345,
        "protectTime": 0.5
      }
    ],
    [
      {
        "$type": "PKKMAMONGEO",
        "type": "DIALOG",
        "aliasList": [
          "4296"
        ],
        "actionId": 189,
        "dialogID": 732194346,
        "protectTime": 0.5
      },
      {
        "$type": "HDGKHDNFMIM",
        "type": "DIALOG_SELECT",
        "delayTime": 0.4000000059604645,
        "aliasList": [
          "AvatarNpc"
        ],
        "actionId": 283,
        "dialogIDList": [
          732194347
        ],
        "grpIDList": [
          3370545865
        ],
        "useGrpId": true
      }
    ],
    [
      {
        "$type": "MoleMole.Config.ConfigSimpleBlackScreenAction",
        "type": "SIMPLE_BLACK_SCREEN",
        "actionId": 192,
        "durationToBlack": 0.5,
        "durationKeepBlack": 3.0,
        "durationFromBlack": 0.5,
        "textMapID": "",
        "useTextFade": true,
        "_dialogID": 732194348
      },
      {
        "$type": "PKKMAMONGEO",
        "type": "DIALOG_CLEAR",
        "actionId": 193
      }
    ],
    [
      {
        "$type": "PKKMAMONGEO",
        "type": "DIALOG",
        "aliasList": [
          "4296"
        ],
        "actionId": 195,
        "dialogID": 732194349,
        "protectTime": 0.5
      }
    ],
    [
      {
        "$type": "PKKMAMONGEO",
        "type": "DIALOG",
        "aliasList": [
          "4296"
        ],
        "actionId": 197,
        "dialogID": 732194350,
        "protectTime": 0.5
      }
    ],
    [
      {
        "$type": "PKKMAMONGEO",
        "type": "DIALOG",
        "aliasList": [
          "1005"
        ],
        "actionId": 199,
        "dialogID": 732194351,
        "protectTime": 0.5
      }
    ],
    [
      {
        "$type": "PKKMAMONGEO",
        "type": "DIALOG",
        "aliasList": [
          "20845"
        ],
        "actionId": 201,
        "dialogID": 732194352,
        "protectTime": 0.5
      }
    ],
    [
      {
        "$type": "PKKMAMONGEO",
        "type": "DIALOG",
        "aliasList": [
          "4296"
        ],
        "actionId": 203,
        "dialogID": 732194353,
        "protectTime": 0.5
      }
    ],
    [
      {
        "$type": "PKKMAMONGEO",
        "type": "DIALOG",
        "aliasList": [
          "4296"
        ],
        "actionId": 205,
        "dialogID": 732194354,
        "protectTime": 0.5
      }
    ],
    [
      {
        "$type": "PKKMAMONGEO",
        "type": "DIALOG",
        "aliasList": [
          "4296"
        ],
        "actionId": 207,
        "dialogID": 732194355,
        "protectTime": 0.5
      }
    ],
    [
      {
        "$type": "PKKMAMONGEO",
        "type": "DIALOG",
        "aliasList": [
          "1005"
        ],
        "actionId": 209,
        "dialogID": 732194356,
        "protectTime": 0.5
      }
    ],
    [
      {
        "$type": "PKKMAMONGEO",
        "type": "DIALOG",
        "aliasList": [
          "20845"
        ],
        "actionId": 211,
        "dialogID": 732194357,
        "protectTime": 0.5
      }
    ],
    [
      {
        "$type": "PKKMAMONGEO",
        "type": "DIALOG",
        "aliasList": [
          "4296"
        ],
        "actionId": 213,
        "dialogID": 732194358,
        "protectTime": 0.5
      }
    ],
    [
      {
        "$type": "PKKMAMONGEO",
        "type": "DIALOG",
        "aliasList": [
          "4296"
        ],
        "actionId": 215,
        "dialogID": 732194359,
        "protectTime": 0.5
      }
    ],
    [
      {
        "$type": "PKKMAMONGEO",
        "type": "DIALOG",
        "aliasList": [
          "20845"
        ],
        "actionId": 217,
        "dialogID": 732194360,
        "protectTime": 0.5
      }
    ],
    [
      {
        "$type": "PKKMAMONGEO",
        "type": "DIALOG",
        "aliasList": [
          "1005"
        ],
        "actionId": 219,
        "dialogID": 732194361,
        "protectTime": 0.5
      }
    ],
    [
      {
        "$type": "PKKMAMONGEO",
        "type": "DIALOG",
        "aliasList": [
          "4296"
        ],
        "actionId": 221,
        "dialogID": 732194362,
        "protectTime": 0.5
      }
    ],
    [
      {
        "$type": "PKKMAMONGEO",
        "type": "DIALOG",
        "aliasList": [
          "20845"
        ],
        "actionId": 223,
        "dialogID": 732194363,
        "protectTime": 0.5
      }
    ],
    [
      {
        "$type": "PKKMAMONGEO",
        "type": "DIALOG",
        "aliasList": [
          "4296"
        ],
        "actionId": 225,
        "dialogID": 732194364,
        "protectTime": 0.5
      }
    ],
    [
      {
        "$type": "PKKMAMONGEO",
        "type": "DIALOG",
        "aliasList": [
          "20845"
        ],
        "actionId": 227,
        "dialogID": 732194365,
        "protectTime": 0.5
      }
    ],
    [
      {
        "$type": "PKKMAMONGEO",
        "type": "DIALOG",
        "aliasList": [
          "4296"
        ],
        "actionId": 229,
        "dialogID": 732194366,
        "protectTime": 0.5
      }
    ],
    [
      {
        "$type": "PKKMAMONGEO",
        "type": "DIALOG",
        "aliasList": [
          "20845"
        ],
        "actionId": 231,
        "dialogID": 732194367,
        "protectTime": 0.5
      }
    ],
    [
      {
        "$type": "PKKMAMONGEO",
        "type": "DIALOG",
        "aliasList": [
          "20845"
        ],
        "actionId": 233,
        "dialogID": 732194368,
        "protectTime": 0.5
      }
    ],
    [
      {
        "$type": "PKKMAMONGEO",
        "type": "DIALOG",
        "aliasList": [
          "4296"
        ],
        "actionId": 235,
        "dialogID": 732194369,
        "protectTime": 0.5
      }
    ],
    [
      {
        "$type": "PKKMAMONGEO",
        "type": "DIALOG",
        "aliasList": [
          "20845"
        ],
        "actionId": 237,
        "dialogID": 732194370,
        "protectTime": 0.5
      }
    ],
    [
      {
        "$type": "PKKMAMONGEO",
        "type": "DIALOG",
        "aliasList": [
          "20845"
        ],
        "actionId": 239,
        "dialogID": 732194371,
        "protectTime": 0.5
      }
    ],
    [
      {
        "$type": "PKKMAMONGEO",
        "type": "DIALOG",
        "aliasList": [
          "4296"
        ],
        "actionId": 241,
        "dialogID": 732194372,
        "protectTime": 0.5
      }
    ],
    [
      {
        "$type": "PKKMAMONGEO",
        "type": "DIALOG",
        "aliasList": [
          "20845"
        ],
        "actionId": 243,
        "dialogID": 732194373,
        "protectTime": 0.5
      }
    ],
    [
      {
        "$type": "PKKMAMONGEO",
        "type": "DIALOG",
        "aliasList": [
          "4296"
        ],
        "actionId": 245,
        "dialogID": 732194374,
        "protectTime": 0.5
      }
    ],
    [
      {
        "$type": "PKKMAMONGEO",
        "type": "DIALOG",
        "aliasList": [
          "20845"
        ],
        "actionId": 247,
        "dialogID": 732194375,
        "protectTime": 0.5
      }
    ],
    [
      {
        "$type": "PKKMAMONGEO",
        "type": "DIALOG",
        "aliasList": [
          "20845"
        ],
        "actionId": 249,
        "dialogID": 732194376,
        "protectTime": 0.5
      }
    ],
    [
      {
        "$type": "PKKMAMONGEO",
        "type": "DIALOG",
        "aliasList": [
          "20846"
        ],
        "actionId": 251,
        "dialogID": 732194377,
        "protectTime": 0.5
      }
    ],
    [
      {
        "$type": "PKKMAMONGEO",
        "type": "DIALOG",
        "aliasList": [
          "AvatarNpc"
        ],
        "actionId": 284,
        "dialogID": 732194378,
        "protectTime": 0.5
      }
    ],
    [
      {
        "$type": "PKKMAMONGEO",
        "type": "DIALOG",
        "aliasList": [
          "20846"
        ],
        "actionId": 255,
        "dialogID": 732194379,
        "protectTime": 0.5
      }
    ],
    [
      {
        "$type": "PKKMAMONGEO",
        "type": "DIALOG",
        "aliasList": [
          "20845"
        ],
        "actionId": 257,
        "dialogID": 732194380,
        "protectTime": 0.5
      }
    ],
    [
      {
        "$type": "MoleMole.Config.ConfigSimpleBlackScreenAction",
        "type": "SIMPLE_BLACK_SCREEN",
        "actionId": 259,
        "durationToBlack": 0.5,
        "durationKeepBlack": 3.0,
        "durationFromBlack": 0.5,
        "textMapID": "",
        "useTextFade": true,
        "_dialogID": 732194381
      },
      {
        "$type": "PKKMAMONGEO",
        "type": "DIALOG_CLEAR",
        "actionId": 260
      }
    ],
    [
      {
        "$type": "PKKMAMONGEO",
        "type": "DIALOG",
        "aliasList": [
          "AvatarNpc"
        ],
        "actionId": 285,
        "dialogID": 732194382,
        "protectTime": 0.5
      }
    ],
    [
      {
        "$type": "PKKMAMONGEO",
        "type": "DIALOG",
        "aliasList": [
          "20846"
        ],
        "actionId": 264,
        "dialogID": 732194383,
        "protectTime": 0.5
      }
    ],
    [
      {
        "$type": "PKKMAMONGEO",
        "type": "DIALOG",
        "aliasList": [
          "20845"
        ],
        "actionId": 266,
        "dialogID": 732194384,
        "protectTime": 0.5
      }
    ],
    [
      {
        "$type": "MoleMole.Config.ConfigBlackScreenAction",
        "type": "BLACK_SCREEN",
        "actionId": 268,
        "durationToBlack": 0.5,
        "durationKeepBlack": 3.0,
        "durationFromBlack": 0.5,
        "inteePos": "",
        "textMapID": "",
        "useTextFade": true,
        "_dialogID": 732194385,
        "needWaitClick": true
      },
      {
        "$type": "PKKMAMONGEO",
        "type": "DIALOG_CLEAR",
        "actionId": 269
      }
    ],
    [
      {
        "$type": "MoleMole.Config.ConfigBlackScreenAction",
        "type": "BLACK_SCREEN",
        "actionId": 271,
        "durationToBlack": 0.5,
        "durationKeepBlack": 3.0,
        "durationFromBlack": 0.5,
        "inteePos": "",
        "textMapID": "",
        "useTextFade": true,
        "_dialogID": 732194386,
        "needWaitClick": true
      },
      {
        "$type": "PKKMAMONGEO",
        "type": "DIALOG_CLEAR",
        "actionId": 272
      }
    ],
    [
      {
        "$type": "MoleMole.Config.ConfigBlackScreenAction",
        "type": "BLACK_SCREEN",
        "actionId": 274,
        "durationToBlack": 0.5,
        "durationKeepBlack": 3.0,
        "durationFromBlack": 0.5,
        "inteePos": "",
        "textMapID": "",
        "useTextFade": true,
        "_dialogID": 732194387,
        "needWaitClick": true
      },
      {
        "$type": "PKKMAMONGEO",
        "type": "DIALOG_CLEAR",
        "actionId": 275
      }
    ],
    [
      {
        "$type": "MoleMole.Config.ConfigTimeProtectAction",
        "type": "TIME_PROTECT",
        "duration": 0.10000000149011612,
        "actionId": 105
      },
      {
        "$type": "MoleMole.Config.ConfigSimpleBlackScreenAction",
        "type": "SIMPLE_BLACK_SCREEN",
        "actionId": 276,
        "durationToBlack": 0.5,
        "durationKeepBlack": 1.0,
        "durationFromBlack": 0.5,
        "textMapID": ""
      },
      {
        "$type": "MoleMole.Config.ConfigTimeProtectAction",
        "type": "TIME_PROTECT",
        "duration": 0.699999988079071,
        "actionId": 277
      },
      {
        "$type": "MoleMole.Config.ConfigVisibleInterAction",
        "type": "VISIBLE",
        "delayTime": 0.6000000238418579,
        "aliasList": [
          "Avatar"
        ],
        "actionId": 290,
        "isVisible": true,
        "_extraParam": ""
      },
      {
        "$type": "MoleMole.Config.ConfigVisibleInterAction",
        "type": "VISIBLE",
        "delayTime": 0.6000000238418579,
        "aliasList": [
          "AvatarNpc"
        ],
        "actionId": 287,
        "_extraParam": ""
      },
      {
        "$type": "MoleMole.Config.ConfigVisibleInterAction",
        "type": "VISIBLE",
        "delayTime": 0.6000000238418579,
        "aliasList": [
          "AvatarNpc"
        ],
        "actionId": 289,
        "_extraParam": ""
      }
    ]
  ],
  "groupId": [
    {
      "grpId": 801463942,
      "nextGrpId": 801463943
    },
    {
      "index": 1,
      "grpId": 801463943,
      "nextGrpId": 801463944
    },
    {
      "index": 2,
      "grpId": 801463944,
      "nextGrpId": 801463945
    },
    {
      "index": 3,
      "grpId": 801463945,
      "nextGrpId": 801463946
    },
    {
      "index": 4,
      "grpId": 801463946,
      "nextGrpId": 801463947
    },
    {
      "index": 5,
      "grpId": 801463947,
      "nextGrpId": 801463948
    },
    {
      "index": 6,
      "grpId": 801463948,
      "nextGrpId": 801463949
    },
    {
      "index": 7,
      "grpId": 801463949,
      "nextGrpId": 801463950
    },
    {
      "index": 8,
      "grpId": 801463950,
      "nextGrpId": 3370545770
    },
    {
      "index": 9,
      "grpId": 3370545770,
      "nextGrpId": 3370545771
    },
    {
      "index": 10,
      "grpId": 3370545771,
      "nextGrpId": 3370545772
    },
    {
      "index": 11,
      "grpId": 3370545772,
      "nextGrpId": 3370545773
    },
    {
      "index": 12,
      "grpId": 3370545773,
      "nextGrpId": 3370545774
    },
    {
      "index": 13,
      "grpId": 3370545774,
      "nextGrpId": 3370545775
    },
    {
      "index": 14,
      "grpId": 3370545775,
      "nextGrpId": 3370545776
    },
    {
      "index": 15,
      "grpId": 3370545776,
      "nextGrpId": 3370545777
    },
    {
      "index": 16,
      "grpId": 3370545777,
      "nextGrpId": 3370545778
    },
    {
      "index": 17,
      "grpId": 3370545778,
      "nextGrpId": 3370545779
    },
    {
      "index": 18,
      "grpId": 3370545779,
      "nextGrpId": 3370545801
    },
    {
      "index": 19,
      "grpId": 3370545801,
      "nextGrpId": 3370545802
    },
    {
      "index": 20,
      "grpId": 3370545802,
      "nextGrpId": 3370545803
    },
    {
      "index": 21,
      "grpId": 3370545803,
      "nextGrpId": 3370545804
    },
    {
      "index": 22,
      "grpId": 3370545804,
      "nextGrpId": 3370545805
    },
    {
      "index": 23,
      "grpId": 3370545805,
      "nextGrpId": 3370545806
    },
    {
      "index": 24,
      "grpId": 3370545806,
      "nextGrpId": 3370545807
    },
    {
      "index": 25,
      "grpId": 3370545807,
      "nextGrpId": 3370545808
    },
    {
      "index": 26,
      "grpId": 3370545808,
      "nextGrpId": 3370545809
    },
    {
      "index": 27,
      "grpId": 3370545809,
      "nextGrpId": 3370545810
    },
    {
      "index": 28,
      "grpId": 3370545810,
      "nextGrpId": 3370545832
    },
    {
      "index": 29,
      "grpId": 3370545832,
      "nextGrpId": 3370545833
    },
    {
      "index": 30,
      "grpId": 3370545833,
      "nextGrpId": 3370545834
    },
    {
      "index": 31,
      "grpId": 3370545834,
      "nextGrpId": 3370545835
    },
    {
      "index": 32,
      "grpId": 3370545835,
      "nextGrpId": 3370545836
    },
    {
      "index": 33,
      "grpId": 3370545836,
      "nextGrpId": 3370545837
    },
    {
      "index": 34,
      "grpId": 3370545837,
      "nextGrpId": 3370545838
    },
    {
      "index": 35,
      "grpId": 3370545838,
      "nextGrpId": 3370545839
    },
    {
      "index": 36,
      "grpId": 3370545839,
      "nextGrpId": 3370545840
    },
    {
      "index": 37,
      "grpId": 3370545840,
      "nextGrpId": 3370545841
    },
    {
      "index": 38,
      "grpId": 3370545841,
      "nextGrpId": 3370545863
    },
    {
      "index": 39,
      "grpId": 3370545863,
      "nextGrpId": 3370545864
    },
    {
      "index": 40,
      "grpId": 3370545864,
      "nextGrpId": 3370545865
    },
    {
      "index": 41,
      "grpId": 3370545865,
      "nextGrpId": 3370545866
    },
    {
      "index": 42,
      "grpId": 3370545866,
      "nextGrpId": 3370545867
    },
    {
      "index": 43,
      "grpId": 3370545867,
      "nextGrpId": 3370545868
    },
    {
      "index": 44,
      "grpId": 3370545868,
      "nextGrpId": 3370545869
    },
    {
      "index": 45,
      "grpId": 3370545869,
      "nextGrpId": 3370545870
    },
    {
      "index": 46,
      "grpId": 3370545870,
      "nextGrpId": 3370545871
    },
    {
      "index": 47,
      "grpId": 3370545871,
      "nextGrpId": 3370545872
    },
    {
      "index": 48,
      "grpId": 3370545872,
      "nextGrpId": 3370545894
    },
    {
      "index": 49,
      "grpId": 3370545894,
      "nextGrpId": 3370545895
    },
    {
      "index": 50,
      "grpId": 3370545895,
      "nextGrpId": 3370545896
    },
    {
      "index": 51,
      "grpId": 3370545896,
      "nextGrpId": 3370545897
    },
    {
      "index": 52,
      "grpId": 3370545897,
      "nextGrpId": 3370545898
    },
    {
      "index": 53,
      "grpId": 3370545898,
      "nextGrpId": 3370545899
    },
    {
      "index": 54,
      "grpId": 3370545899,
      "nextGrpId": 3370545900
    },
    {
      "index": 55,
      "grpId": 3370545900,
      "nextGrpId": 3370545901
    },
    {
      "index": 56,
      "grpId": 3370545901,
      "nextGrpId": 3370545902
    },
    {
      "index": 57,
      "grpId": 3370545902,
      "nextGrpId": 3370545903
    },
    {
      "index": 58,
      "grpId": 3370545903,
      "nextGrpId": 3370545925
    },
    {
      "index": 59,
      "grpId": 3370545925,
      "nextGrpId": 3370545926
    },
    {
      "index": 60,
      "grpId": 3370545926,
      "nextGrpId": 3370545927
    },
    {
      "index": 61,
      "grpId": 3370545927,
      "nextGrpId": 3370545928
    },
    {
      "index": 62,
      "grpId": 3370545928,
      "nextGrpId": 3370545929
    },
    {
      "index": 63,
      "grpId": 3370545929,
      "nextGrpId": 3370545930
    },
    {
      "index": 64,
      "grpId": 3370545930,
      "nextGrpId": 3370545931
    },
    {
      "index": 65,
      "grpId": 3370545931,
      "nextGrpId": 3370545932
    },
    {
      "index": 66,
      "grpId": 3370545932,
      "nextGrpId": 3370545933
    },
    {
      "index": 67,
      "grpId": 3370545933,
      "nextGrpId": 3370545934
    },
    {
      "index": 68,
      "grpId": 3370545934,
      "nextGrpId": 3370545956
    },
    {
      "index": 69,
      "grpId": 3370545956,
      "nextGrpId": 3370545957
    },
    {
      "index": 70,
      "grpId": 3370545957,
      "nextGrpId": 3370545958
    },
    {
      "index": 71,
      "grpId": 3370545958,
      "nextGrpId": 3370545959
    },
    {
      "index": 72,
      "grpId": 3370545959,
      "nextGrpId": 3370545960
    },
    {
      "index": 73,
      "grpId": 3370545960,
      "nextGrpId": 3370545961
    },
    {
      "index": 74,
      "grpId": 3370545961,
      "nextGrpId": 3370545962
    },
    {
      "index": 75,
      "grpId": 3370545962,
      "nextGrpId": 3370545963
    },
    {
      "index": 76,
      "grpId": 3370545963,
      "nextGrpId": 3370545964
    },
    {
      "index": 77,
      "grpId": 3370545964,
      "nextGrpId": 3370545965
    },
    {
      "index": 78,
      "grpId": 3370545965,
      "nextGrpId": 3370545987
    },
    {
      "index": 79,
      "grpId": 3370545987,
      "nextGrpId": 3370545988
    },
    {
      "index": 80,
      "grpId": 3370545988,
      "nextGrpId": 3370545989
    },
    {
      "index": 81,
      "grpId": 3370545989,
      "nextGrpId": 3370545990
    }
  ],
  "freeStyleDic": {
    "1025": [],
    "1026": [],
    "20845": [],
    "20846": []
  }
}