{
  "luaDataPath": "",
  "isSimpleTalk": true,
  "entityBan": "",
  "disableNpcLod": true,
  "protectNpcMobileLod": true,
  "startFade": {
    "startFadeOutDuration": 0.0
  },
  "endFade": {
    "startFadeOutDuration": 0.0
  },
  "actors": [
    {
      "alias": "Avatar",
      "visible": true,
      "bornPointName": "N10000005_T7329504",
      "relativePosType": "AVATAR_NEW",
      "relativePosNpcAlias": "",
      "_bindMovingTargetKey": ""
    },
    {
      "configID": 1005,
      "alias": "1005",
      "visible": true,
      "bornPointName": "",
      "relativePosType": "AVATAR_NEW",
      "relativePosNpcAlias": "",
      "_bindMovingTargetKey": ""
    },
    {
      "configID": 20930,
      "alias": "20930",
      "visible": true,
      "bornPointName": "",
      "relativePosType": "AVATAR_NEW",
      "relativePosNpcAlias": "",
      "_bindMovingTargetKey": ""
    }
  ],
  "group": [
    [
      {
        "$type": "FJKIHHKJLMJ",
        "type": "CAMERA_FOCUS",
        "duration": 0.10000000149011612,
        "actionId": 103,
        "targetNpcAlias": "",
        "KJOEFBPOIIH": "",
        "IICFKKEBIEC": "",
        "EGEHEJEBLBJ": ""
      },
      {
        "$type": "MoleMole.Config.ConfigTimeProtectAction",
        "type": "TIME_PROTECT",
        "duration": 0.10000000149011612,
        "actionId": 104
      },
      {
        "$type": "FJKIHHKJLMJ",
        "type": "CAMERA_MOVE",
        "duration": 1.0,
        "actionId": 152,
        "camPosOffset": {
          "x": 931.72998046875,
          "y": 208.30299377441406,
          "z": 6167.64892578125
        },
        "camForwardTargetOffset": {
          "x": 932.7260131835938,
          "y": 208.23300170898438,
          "z": 6167.705078125
        },
        "camFov": 61.138999938964844,
        "lerpPattern": 6,
        "cameraBlendType": "EaseInOutCubic",
        "NJBNNOMLKCK": {},
        "needZAxisRotate": true,
        "openCameraDither": false,
        "targetNpcAlias": "",
        "closeTreeLeafDither": true,
        "KJOEFBPOIIH": "",
        "IICFKKEBIEC": "",
        "EGEHEJEBLBJ": ""
      },
      {
        "$type": "LLGANGLOEEO",
        "type": "STEER_TO",
        "delayTime": 0.30000001192092896,
        "duration": 0.800000011920929,
        "aliasList": [
          "Avatar"
        ],
        "actionId": 150,
        "steerType": "TO_TARGET_ADVANCED",
        "useSteerAnim": true,
        "interruptFreestyle": true,
        "forceSteer": true,
        "targetNpcAlias": "1005",
        "fixInterNull": true,
        "OAFJBHJHLJG": ""
      },
      {
        "$type": "LLGANGLOEEO",
        "type": "STEER_TO",
        "delayTime": 0.30000001192092896,
        "duration": 0.800000011920929,
        "aliasList": [
          "20930"
        ],
        "actionId": 151,
        "steerType": "TO_LOCAL_AVATAR_ADVANCED",
        "useSteerAnim": true,
        "interruptFreestyle": true,
        "forceSteer": true,
        "targetNpcAlias": "",
        "fixInterNull": true,
        "OAFJBHJHLJG": ""
      }
    ],
    [
      {
        "$type": "PKKMAMONGEO",
        "type": "DIALOG",
        "aliasList": [
          "1005"
        ],
        "actionId": 107,
        "dialogID": 732950401,
        "protectTime": 0.5
      }
    ],
    [
      {
        "$type": "PKKMAMONGEO",
        "type": "DIALOG",
        "aliasList": [
          "20930"
        ],
        "actionId": 109,
        "dialogID": 732950402,
        "protectTime": 0.5
      }
    ],
    [
      {
        "$type": "PKKMAMONGEO",
        "type": "DIALOG",
        "aliasList": [
          "20930"
        ],
        "actionId": 111,
        "dialogID": 732950403,
        "protectTime": 0.5
      }
    ],
    [
      {
        "$type": "PKKMAMONGEO",
        "type": "DIALOG",
        "aliasList": [
          "20930"
        ],
        "actionId": 113,
        "dialogID": 732950404,
        "protectTime": 0.5
      }
    ],
    [
      {
        "$type": "PKKMAMONGEO",
        "type": "DIALOG",
        "aliasList": [
          "20930"
        ],
        "actionId": 115,
        "dialogID": 732950405,
        "protectTime": 0.5
      },
      {
        "$type": "HDGKHDNFMIM",
        "type": "DIALOG_SELECT",
        "delayTime": 0.4000000059604645,
        "aliasList": [
          "Avatar"
        ],
        "actionId": 116,
        "dialogIDList": [
          732950406
        ],
        "grpIDList": [
          1026684869
        ],
        "useGrpId": true,
        "countDownGrpId": 1026684862
      }
    ],
    [
      {
        "$type": "PKKMAMONGEO",
        "type": "DIALOG",
        "aliasList": [
          "20930"
        ],
        "actionId": 118,
        "dialogID": 732950407,
        "protectTime": 0.5
      }
    ],
    [
      {
        "$type": "PKKMAMONGEO",
        "type": "DIALOG",
        "aliasList": [
          "20930"
        ],
        "actionId": 120,
        "dialogID": 732950408,
        "protectTime": 0.5
      }
    ],
    [
      {
        "$type": "PKKMAMONGEO",
        "type": "DIALOG",
        "aliasList": [
          "1005"
        ],
        "actionId": 122,
        "dialogID": 732950409,
        "protectTime": 0.5
      }
    ],
    [
      {
        "$type": "PKKMAMONGEO",
        "type": "DIALOG",
        "aliasList": [
          "20930"
        ],
        "actionId": 124,
        "dialogID": 732950410,
        "protectTime": 0.5
      }
    ],
    [
      {
        "$type": "PKKMAMONGEO",
        "type": "DIALOG",
        "aliasList": [
          "20930"
        ],
        "actionId": 126,
        "dialogID": 732950411,
        "protectTime": 0.5
      }
    ],
    [
      {
        "$type": "PKKMAMONGEO",
        "type": "DIALOG",
        "aliasList": [
          "20930"
        ],
        "actionId": 128,
        "dialogID": 732950412,
        "protectTime": 0.5
      }
    ],
    [
      {
        "$type": "PKKMAMONGEO",
        "type": "DIALOG",
        "aliasList": [
          "20930"
        ],
        "actionId": 130,
        "dialogID": 732950413,
        "protectTime": 0.5
      }
    ],
    [
      {
        "$type": "PKKMAMONGEO",
        "type": "DIALOG",
        "aliasList": [
          "1005"
        ],
        "actionId": 132,
        "dialogID": 732950414,
        "protectTime": 0.5
      }
    ],
    [
      {
        "$type": "PKKMAMONGEO",
        "type": "DIALOG",
        "aliasList": [
          "1005"
        ],
        "actionId": 134,
        "dialogID": 732950415,
        "protectTime": 0.5
      }
    ],
    [
      {
        "$type": "PKKMAMONGEO",
        "type": "DIALOG",
        "aliasList": [
          "20930"
        ],
        "actionId": 136,
        "dialogID": 732950416,
        "protectTime": 0.5
      },
      {
        "$type": "HDGKHDNFMIM",
        "type": "DIALOG_SELECT",
        "delayTime": 0.4000000059604645,
        "aliasList": [
          "Avatar"
        ],
        "actionId": 137,
        "dialogIDList": [
          732950417
        ],
        "grpIDList": [
          1762459736
        ],
        "useGrpId": true,
        "countDownGrpId": 1026684862
      }
    ],
    [
      {
        "$type": "PKKMAMONGEO",
        "type": "DIALOG",
        "aliasList": [
          "1005"
        ],
        "actionId": 139,
        "dialogID": 732950418,
        "protectTime": 0.5
      }
    ],
    [
      {
        "$type": "PKKMAMONGEO",
        "type": "DIALOG",
        "aliasList": [
          "1005"
        ],
        "actionId": 141,
        "dialogID": 732950419,
        "protectTime": 0.5
      }
    ],
    [
      {
        "$type": "PKKMAMONGEO",
        "type": "DIALOG",
        "aliasList": [
          "20930"
        ],
        "actionId": 143,
        "dialogID": 732950420,
        "protectTime": 0.5
      }
    ],
    [
      {
        "$type": "PKKMAMONGEO",
        "type": "DIALOG",
        "aliasList": [
          "1005"
        ],
        "actionId": 145,
        "dialogID": 732950421,
        "protectTime": 0.5
      }
    ],
    [
      {
        "$type": "PKKMAMONGEO",
        "type": "DIALOG",
        "aliasList": [
          "1005"
        ],
        "actionId": 147,
        "dialogID": 732950422,
        "protectTime": 0.5
      }
    ],
    [
      {
        "$type": "PKKMAMONGEO",
        "type": "DIALOG",
        "aliasList": [
          "20930"
        ],
        "actionId": 149,
        "dialogID": 732950423,
        "protectTime": 0.5
      }
    ],
    [
      {
        "$type": "MoleMole.Config.ConfigTimeProtectAction",
        "type": "TIME_PROTECT",
        "duration": 0.10000000149011612,
        "actionId": 105
      }
    ]
  ],
  "groupId": [
    {
      "grpId": 1026684863,
      "nextGrpId": 1026684864
    },
    {
      "index": 1,
      "grpId": 1026684864,
      "nextGrpId": 1026684865
    },
    {
      "index": 2,
      "grpId": 1026684865,
      "nextGrpId": 1026684866
    },
    {
      "index": 3,
      "grpId": 1026684866,
      "nextGrpId": 1026684867
    },
    {
      "index": 4,
      "grpId": 1026684867,
      "nextGrpId": 1026684868
    },
    {
      "index": 5,
      "grpId": 1026684868,
      "nextGrpId": 1026684869
    },
    {
      "index": 6,
      "grpId": 1026684869,
      "nextGrpId": 1026684870
    },
    {
      "index": 7,
      "grpId": 1026684870,
      "nextGrpId": 1026684871
    },
    {
      "index": 8,
      "grpId": 1026684871,
      "nextGrpId": 1762459729
    },
    {
      "index": 9,
      "grpId": 1762459729,
      "nextGrpId": 1762459730
    },
    {
      "index": 10,
      "grpId": 1762459730,
      "nextGrpId": 1762459731
    },
    {
      "index": 11,
      "grpId": 1762459731,
      "nextGrpId": 1762459732
    },
    {
      "index": 12,
      "grpId": 1762459732,
      "nextGrpId": 1762459733
    },
    {
      "index": 13,
      "grpId": 1762459733,
      "nextGrpId": 1762459734
    },
    {
      "index": 14,
      "grpId": 1762459734,
      "nextGrpId": 1762459735
    },
    {
      "index": 15,
      "grpId": 1762459735,
      "nextGrpId": 1762459736
    },
    {
      "index": 16,
      "grpId": 1762459736,
      "nextGrpId": 1762459737
    },
    {
      "index": 17,
      "grpId": 1762459737,
      "nextGrpId": 1762459738
    },
    {
      "index": 18,
      "grpId": 1762459738,
      "nextGrpId": 1762459760
    },
    {
      "index": 19,
      "grpId": 1762459760,
      "nextGrpId": 1762459761
    },
    {
      "index": 20,
      "grpId": 1762459761,
      "nextGrpId": 1762459762
    },
    {
      "index": 21,
      "grpId": 1762459762,
      "nextGrpId": 1762459763
    },
    {
      "index": 22,
      "grpId": 1762459763,
      "nextGrpId": 1762459764
    }
  ],
  "freeStyleDic": {
    "20930": []
  }
}