{
  "luaDataPath": "",
  "isSimpleTalk": true,
  "entityBan": "",
  "disableNpcLod": true,
  "protectNpcMobileLod": true,
  "startFade": {
    "startFadeOutDuration": 0.0
  },
  "endFade": {
    "startFadeOutDuration": 0.0
  },
  "actors": [
    {
      "alias": "Avatar",
      "visible": true,
      "bornPointName": "N10000005_T7329405",
      "relativePosType": "AVATAR_NEW",
      "relativePosNpcAlias": "",
      "_bindMovingTargetKey": ""
    },
    {
      "configID": 1005,
      "alias": "1005",
      "visible": true,
      "bornPointName": "",
      "relativePosType": "AVATAR_NEW",
      "relativePosNpcAlias": "",
      "_bindMovingTargetKey": ""
    },
    {
      "configID": 20930,
      "alias": "20930",
      "visible": true,
      "bornPointName": "",
      "relativePosType": "AVATAR_NEW",
      "relativePosNpcAlias": "",
      "_bindMovingTargetKey": ""
    }
  ],
  "group": [
    [
      {
        "$type": "FJKIHHKJLMJ",
        "type": "CAMERA_FOCUS",
        "duration": 0.10000000149011612,
        "actionId": 103,
        "targetNpcAlias": "",
        "KJOEFBPOIIH": "",
        "IICFKKEBIEC": "",
        "EGEHEJEBLBJ": ""
      },
      {
        "$type": "MoleMole.Config.ConfigTimeProtectAction",
        "type": "TIME_PROTECT",
        "duration": 0.10000000149011612,
        "actionId": 104
      },
      {
        "$type": "FJKIHHKJLMJ",
        "type": "CAMERA_MOVE",
        "duration": 1.0,
        "actionId": 195,
        "camPosOffset": {
          "x": 1032.0780029296875,
          "y": 204.19900512695312,
          "z": 6347.6201171875
        },
        "camForwardTargetOffset": {
          "x": 1031.574951171875,
          "y": 204.19200134277344,
          "z": 6348.48388671875
        },
        "camFov": 61.138999938964844,
        "lerpPattern": 6,
        "cameraBlendType": "EaseInOutCubic",
        "NJBNNOMLKCK": {},
        "needZAxisRotate": true,
        "openCameraDither": false,
        "targetNpcAlias": "",
        "closeTreeLeafDither": true,
        "KJOEFBPOIIH": "",
        "IICFKKEBIEC": "",
        "EGEHEJEBLBJ": ""
      },
      {
        "$type": "LLGANGLOEEO",
        "type": "STEER_TO",
        "delayTime": 0.30000001192092896,
        "duration": 0.800000011920929,
        "aliasList": [
          "Avatar"
        ],
        "actionId": 193,
        "steerType": "TO_TARGET_ADVANCED",
        "useSteerAnim": true,
        "interruptFreestyle": true,
        "forceSteer": true,
        "targetNpcAlias": "1005",
        "fixInterNull": true,
        "OAFJBHJHLJG": ""
      },
      {
        "$type": "LLGANGLOEEO",
        "type": "STEER_TO",
        "delayTime": 0.30000001192092896,
        "duration": 0.800000011920929,
        "aliasList": [
          "20930"
        ],
        "actionId": 194,
        "steerType": "TO_LOCAL_AVATAR_ADVANCED",
        "useSteerAnim": true,
        "interruptFreestyle": true,
        "forceSteer": true,
        "targetNpcAlias": "",
        "fixInterNull": true,
        "OAFJBHJHLJG": ""
      }
    ],
    [
      {
        "$type": "PKKMAMONGEO",
        "type": "DIALOG",
        "aliasList": [
          "1005"
        ],
        "actionId": 107,
        "dialogID": 732950801,
        "protectTime": 0.5
      }
    ],
    [
      {
        "$type": "PKKMAMONGEO",
        "type": "DIALOG",
        "aliasList": [
          "1005"
        ],
        "actionId": 109,
        "dialogID": 732950802,
        "protectTime": 0.5
      }
    ],
    [
      {
        "$type": "PKKMAMONGEO",
        "type": "DIALOG",
        "aliasList": [
          "20930"
        ],
        "actionId": 111,
        "dialogID": 732950803,
        "protectTime": 0.5
      }
    ],
    [
      {
        "$type": "PKKMAMONGEO",
        "type": "DIALOG",
        "aliasList": [
          "1005"
        ],
        "actionId": 113,
        "dialogID": 732950804,
        "protectTime": 0.5
      }
    ],
    [
      {
        "$type": "PKKMAMONGEO",
        "type": "DIALOG",
        "aliasList": [
          "20930"
        ],
        "actionId": 115,
        "dialogID": 732950805,
        "protectTime": 0.5
      }
    ],
    [
      {
        "$type": "PKKMAMONGEO",
        "type": "DIALOG",
        "aliasList": [
          "1005"
        ],
        "actionId": 117,
        "dialogID": 732950806,
        "protectTime": 0.5
      },
      {
        "$type": "HDGKHDNFMIM",
        "type": "DIALOG_SELECT",
        "delayTime": 0.4000000059604645,
        "aliasList": [
          "Avatar"
        ],
        "actionId": 118,
        "dialogIDList": [
          732950807
        ],
        "grpIDList": [
          1026688714
        ],
        "useGrpId": true,
        "countDownGrpId": 1026688706
      }
    ],
    [
      {
        "$type": "PKKMAMONGEO",
        "type": "DIALOG",
        "aliasList": [
          "1005"
        ],
        "actionId": 120,
        "dialogID": 732950808,
        "protectTime": 0.5
      }
    ],
    [
      {
        "$type": "PKKMAMONGEO",
        "type": "DIALOG",
        "aliasList": [
          "20930"
        ],
        "actionId": 122,
        "dialogID": 732950809,
        "protectTime": 0.5
      }
    ],
    [
      {
        "$type": "PKKMAMONGEO",
        "type": "DIALOG",
        "aliasList": [
          "1005"
        ],
        "actionId": 124,
        "dialogID": 732950810,
        "protectTime": 0.5
      }
    ],
    [
      {
        "$type": "PKKMAMONGEO",
        "type": "DIALOG",
        "aliasList": [
          "1005"
        ],
        "actionId": 126,
        "dialogID": 732950811,
        "protectTime": 0.5
      }
    ],
    [
      {
        "$type": "PKKMAMONGEO",
        "type": "DIALOG",
        "aliasList": [
          "20930"
        ],
        "actionId": 128,
        "dialogID": 732950812,
        "protectTime": 0.5
      }
    ],
    [
      {
        "$type": "PKKMAMONGEO",
        "type": "DIALOG",
        "aliasList": [
          "1005"
        ],
        "actionId": 130,
        "dialogID": 732950813,
        "protectTime": 0.5
      }
    ],
    [
      {
        "$type": "PKKMAMONGEO",
        "type": "DIALOG",
        "aliasList": [
          "20930"
        ],
        "actionId": 132,
        "dialogID": 732950814,
        "protectTime": 0.5
      }
    ],
    [
      {
        "$type": "PKKMAMONGEO",
        "type": "DIALOG",
        "aliasList": [
          "1005"
        ],
        "actionId": 134,
        "dialogID": 732950815,
        "protectTime": 0.5
      }
    ],
    [
      {
        "$type": "PKKMAMONGEO",
        "type": "DIALOG",
        "aliasList": [
          "20930"
        ],
        "actionId": 136,
        "dialogID": 732950816,
        "protectTime": 0.5
      }
    ],
    [
      {
        "$type": "PKKMAMONGEO",
        "type": "DIALOG",
        "aliasList": [
          "1005"
        ],
        "actionId": 138,
        "dialogID": 732950817,
        "protectTime": 0.5
      },
      {
        "$type": "HDGKHDNFMIM",
        "type": "DIALOG_SELECT",
        "delayTime": 0.4000000059604645,
        "aliasList": [
          "Avatar"
        ],
        "actionId": 139,
        "dialogIDList": [
          732950818,
          732950819
        ],
        "grpIDList": [
          1762578901,
          1762578901
        ],
        "useGrpId": true,
        "countDownGrpId": 1026688706
      }
    ],
    [
      {
        "$type": "PKKMAMONGEO",
        "type": "DIALOG",
        "aliasList": [
          "20930"
        ],
        "actionId": 141,
        "dialogID": 732950820,
        "protectTime": 0.5
      }
    ],
    [
      {
        "$type": "PKKMAMONGEO",
        "type": "DIALOG",
        "aliasList": [
          "20930"
        ],
        "actionId": 143,
        "dialogID": 732950821,
        "protectTime": 0.5
      }
    ],
    [
      {
        "$type": "PKKMAMONGEO",
        "type": "DIALOG",
        "aliasList": [
          "20930"
        ],
        "actionId": 145,
        "dialogID": 732950822,
        "protectTime": 0.5
      }
    ],
    [
      {
        "$type": "PKKMAMONGEO",
        "type": "DIALOG",
        "aliasList": [
          "20930"
        ],
        "actionId": 147,
        "dialogID": 732950823,
        "protectTime": 0.5
      }
    ],
    [
      {
        "$type": "PKKMAMONGEO",
        "type": "DIALOG",
        "aliasList": [
          "1005"
        ],
        "actionId": 149,
        "dialogID": 732950824,
        "protectTime": 0.5
      }
    ],
    [
      {
        "$type": "PKKMAMONGEO",
        "type": "DIALOG",
        "aliasList": [
          "20930"
        ],
        "actionId": 151,
        "dialogID": 732950825,
        "protectTime": 0.5
      },
      {
        "$type": "HDGKHDNFMIM",
        "type": "DIALOG_SELECT",
        "delayTime": 0.4000000059604645,
        "aliasList": [
          "Avatar"
        ],
        "actionId": 152,
        "dialogIDList": [
          732950826
        ],
        "grpIDList": [
          1762578928
        ],
        "useGrpId": true,
        "countDownGrpId": 1026688706
      }
    ],
    [
      {
        "$type": "PKKMAMONGEO",
        "type": "DIALOG",
        "aliasList": [
          "20930"
        ],
        "actionId": 154,
        "dialogID": 732950827,
        "protectTime": 0.5
      }
    ],
    [
      {
        "$type": "MoleMole.Config.ConfigSimpleBlackScreenAction",
        "type": "SIMPLE_BLACK_SCREEN",
        "actionId": 156,
        "durationToBlack": 0.5,
        "durationKeepBlack": 3.0,
        "durationFromBlack": 0.5,
        "textMapID": "",
        "useTextFade": true,
        "_dialogID": 732950828
      },
      {
        "$type": "PKKMAMONGEO",
        "type": "DIALOG_CLEAR",
        "actionId": 157
      }
    ],
    [
      {
        "$type": "PKKMAMONGEO",
        "type": "DIALOG",
        "aliasList": [
          "20930"
        ],
        "actionId": 159,
        "dialogID": 732950829,
        "protectTime": 0.5
      }
    ],
    [
      {
        "$type": "PKKMAMONGEO",
        "type": "DIALOG",
        "aliasList": [
          "1005"
        ],
        "actionId": 161,
        "dialogID": 732950830,
        "protectTime": 0.5
      }
    ],
    [
      {
        "$type": "PKKMAMONGEO",
        "type": "DIALOG",
        "aliasList": [
          "20930"
        ],
        "actionId": 163,
        "dialogID": 732950831,
        "protectTime": 0.5
      }
    ],
    [
      {
        "$type": "PKKMAMONGEO",
        "type": "DIALOG",
        "aliasList": [
          "20930"
        ],
        "actionId": 165,
        "dialogID": 732950832,
        "protectTime": 0.5
      }
    ],
    [
      {
        "$type": "PKKMAMONGEO",
        "type": "DIALOG",
        "aliasList": [
          "20930"
        ],
        "actionId": 167,
        "dialogID": 732950833,
        "protectTime": 0.5
      }
    ],
    [
      {
        "$type": "PKKMAMONGEO",
        "type": "DIALOG",
        "aliasList": [
          "20930"
        ],
        "actionId": 169,
        "dialogID": 732950834,
        "protectTime": 0.5
      },
      {
        "$type": "HDGKHDNFMIM",
        "type": "DIALOG_SELECT",
        "delayTime": 0.4000000059604645,
        "aliasList": [
          "Avatar"
        ],
        "actionId": 170,
        "dialogIDList": [
          732950835,
          732950837
        ],
        "grpIDList": [
          1762578957,
          1762578958
        ],
        "useGrpId": true,
        "countDownGrpId": 1026688706
      }
    ],
    [
      {
        "$type": "PKKMAMONGEO",
        "type": "DIALOG",
        "aliasList": [
          "20930"
        ],
        "actionId": 172,
        "dialogID": 732950836,
        "protectTime": 0.5
      }
    ],
    [
      {
        "$type": "PKKMAMONGEO",
        "type": "DIALOG",
        "aliasList": [
          "20930"
        ],
        "actionId": 174,
        "dialogID": 732950838,
        "protectTime": 0.5
      }
    ],
    [
      {
        "$type": "PKKMAMONGEO",
        "type": "DIALOG",
        "aliasList": [
          "1005"
        ],
        "actionId": 176,
        "dialogID": 732950839,
        "protectTime": 0.5
      }
    ],
    [
      {
        "$type": "PKKMAMONGEO",
        "type": "DIALOG",
        "aliasList": [
          "20930"
        ],
        "actionId": 178,
        "dialogID": 732950840,
        "protectTime": 0.5
      }
    ],
    [
      {
        "$type": "PKKMAMONGEO",
        "type": "DIALOG",
        "aliasList": [
          "20930"
        ],
        "actionId": 180,
        "dialogID": 732950841,
        "protectTime": 0.5
      }
    ],
    [
      {
        "$type": "PKKMAMONGEO",
        "type": "DIALOG",
        "aliasList": [
          "20930"
        ],
        "actionId": 182,
        "dialogID": 732950842,
        "protectTime": 0.5
      }
    ],
    [
      {
        "$type": "PKKMAMONGEO",
        "type": "DIALOG",
        "aliasList": [
          "1005"
        ],
        "actionId": 184,
        "dialogID": 732950843,
        "protectTime": 0.5
      }
    ],
    [
      {
        "$type": "PKKMAMONGEO",
        "type": "DIALOG",
        "aliasList": [
          "20930"
        ],
        "actionId": 186,
        "dialogID": 732950844,
        "protectTime": 0.5
      }
    ],
    [
      {
        "$type": "PKKMAMONGEO",
        "type": "DIALOG",
        "aliasList": [
          "20930"
        ],
        "actionId": 188,
        "dialogID": 732950845,
        "protectTime": 0.5
      }
    ],
    [
      {
        "$type": "PKKMAMONGEO",
        "type": "DIALOG",
        "aliasList": [
          "20930"
        ],
        "actionId": 190,
        "dialogID": 732950846,
        "protectTime": 0.5
      }
    ],
    [
      {
        "$type": "PKKMAMONGEO",
        "type": "DIALOG",
        "aliasList": [
          "1005"
        ],
        "actionId": 192,
        "dialogID": 732950847,
        "protectTime": 0.5
      }
    ],
    [
      {
        "$type": "MoleMole.Config.ConfigTimeProtectAction",
        "type": "TIME_PROTECT",
        "duration": 0.10000000149011612,
        "actionId": 105
      }
    ]
  ],
  "groupId": [
    {
      "grpId": 1026688707,
      "nextGrpId": 1026688708
    },
    {
      "index": 1,
      "grpId": 1026688708,
      "nextGrpId": 1026688709
    },
    {
      "index": 2,
      "grpId": 1026688709,
      "nextGrpId": 1026688710
    },
    {
      "index": 3,
      "grpId": 1026688710,
      "nextGrpId": 1026688711
    },
    {
      "index": 4,
      "grpId": 1026688711,
      "nextGrpId": 1026688712
    },
    {
      "index": 5,
      "grpId": 1026688712,
      "nextGrpId": 1026688713
    },
    {
      "index": 6,
      "grpId": 1026688713,
      "nextGrpId": 1026688714
    },
    {
      "index": 7,
      "grpId": 1026688714,
      "nextGrpId": 1026688715
    },
    {
      "index": 8,
      "grpId": 1026688715,
      "nextGrpId": 1762578893
    },
    {
      "index": 9,
      "grpId": 1762578893,
      "nextGrpId": 1762578894
    },
    {
      "index": 10,
      "grpId": 1762578894,
      "nextGrpId": 1762578895
    },
    {
      "index": 11,
      "grpId": 1762578895,
      "nextGrpId": 1762578896
    },
    {
      "index": 12,
      "grpId": 1762578896,
      "nextGrpId": 1762578897
    },
    {
      "index": 13,
      "grpId": 1762578897,
      "nextGrpId": 1762578898
    },
    {
      "index": 14,
      "grpId": 1762578898,
      "nextGrpId": 1762578899
    },
    {
      "index": 15,
      "grpId": 1762578899,
      "nextGrpId": 1762578900
    },
    {
      "index": 16,
      "grpId": 1762578900,
      "nextGrpId": 1762578901
    },
    {
      "index": 17,
      "grpId": 1762578901,
      "nextGrpId": 1762578902
    },
    {
      "index": 18,
      "grpId": 1762578902,
      "nextGrpId": 1762578924
    },
    {
      "index": 19,
      "grpId": 1762578924,
      "nextGrpId": 1762578925
    },
    {
      "index": 20,
      "grpId": 1762578925,
      "nextGrpId": 1762578926
    },
    {
      "index": 21,
      "grpId": 1762578926,
      "nextGrpId": 1762578927
    },
    {
      "index": 22,
      "grpId": 1762578927,
      "nextGrpId": 1762578928
    },
    {
      "index": 23,
      "grpId": 1762578928,
      "nextGrpId": 1762578929
    },
    {
      "index": 24,
      "grpId": 1762578929,
      "nextGrpId": 1762578930
    },
    {
      "index": 25,
      "grpId": 1762578930,
      "nextGrpId": 1762578931
    },
    {
      "index": 26,
      "grpId": 1762578931,
      "nextGrpId": 1762578932
    },
    {
      "index": 27,
      "grpId": 1762578932,
      "nextGrpId": 1762578933
    },
    {
      "index": 28,
      "grpId": 1762578933,
      "nextGrpId": 1762578955
    },
    {
      "index": 29,
      "grpId": 1762578955,
      "nextGrpId": 1762578956
    },
    {
      "index": 30,
      "grpId": 1762578956,
      "nextGrpId": 1762578957
    },
    {
      "index": 31,
      "grpId": 1762578957,
      "nextGrpId": 1762578959
    },
    {
      "index": 32,
      "grpId": 1762578958,
      "nextGrpId": 1762578959
    },
    {
      "index": 33,
      "grpId": 1762578959,
      "nextGrpId": 1762578960
    },
    {
      "index": 34,
      "grpId": 1762578960,
      "nextGrpId": 1762578961
    },
    {
      "index": 35,
      "grpId": 1762578961,
      "nextGrpId": 1762578962
    },
    {
      "index": 36,
      "grpId": 1762578962,
      "nextGrpId": 1762578963
    },
    {
      "index": 37,
      "grpId": 1762578963,
      "nextGrpId": 1762578964
    },
    {
      "index": 38,
      "grpId": 1762578964,
      "nextGrpId": 1762578986
    },
    {
      "index": 39,
      "grpId": 1762578986,
      "nextGrpId": 1762578987
    },
    {
      "index": 40,
      "grpId": 1762578987,
      "nextGrpId": 1762578988
    },
    {
      "index": 41,
      "grpId": 1762578988,
      "nextGrpId": 1762578989
    },
    {
      "index": 42,
      "grpId": 1762578989,
      "nextGrpId": 1762578990
    }
  ],
  "freeStyleDic": {
    "20930": []
  }
}