{
  "luaDataPath": "",
  "isSimpleTalk": true,
  "entityBan": "",
  "disableNpcLod": true,
  "protectNpcMobileLod": true,
  "startFade": {
    "startFadeOutDuration": 0.0
  },
  "endFade": {
    "startFadeOutDuration": 0.0
  },
  "actors": [
    {
      "alias": "Avatar",
      "visible": true,
      "bornPointName": "Q7323115_guide",
      "relativePosType": "AVATAR_NEW",
      "relativePosNpcAlias": "",
      "_bindMovingTargetKey": ""
    },
    {
      "configID": 1005,
      "alias": "1005",
      "visible": true,
      "bornPointName": "Q7323112_N1005",
      "removeActorType": "REMOVE_WITH_DISAPPEAR",
      "relativePosType": "AVATAR_NEW",
      "relativePosNpcAlias": "",
      "_bindMovingTargetKey": ""
    },
    {
      "configID": 20887,
      "alias": "20887",
      "visible": true,
      "bornPointName": "Q7323112_N20887",
      "removeActorType": "REMOVE",
      "relativePosType": "AVATAR_NEW",
      "relativePosNpcAlias": "",
      "_bindMovingTargetKey": ""
    },
    {
      "configID": 20883,
      "alias": "20883",
      "visible": true,
      "bornPointName": "Q7323112_N20883",
      "removeActorType": "REMOVE",
      "relativePosType": "AVATAR_NEW",
      "relativePosNpcAlias": "",
      "_bindMovingTargetKey": ""
    }
  ],
  "group": [
    [
      {
        "$type": "FJKIHHKJLMJ",
        "type": "CAMERA_FOCUS",
        "duration": 0.10000000149011612,
        "actionId": 103,
        "targetNpcAlias": "",
        "KJOEFBPOIIH": "",
        "IICFKKEBIEC": "",
        "EGEHEJEBLBJ": ""
      },
      {
        "$type": "MoleMole.Config.ConfigTimeProtectAction",
        "type": "TIME_PROTECT",
        "duration": 0.10000000149011612,
        "actionId": 104
      },
      {
        "$type": "FJKIHHKJLMJ",
        "type": "CAMERA_MOVE",
        "duration": 1.0,
        "actionId": 160,
        "camPosOffset": {
          "x": 597.510986328125,
          "y": 314.5429992675781,
          "z": 5669.98291015625
        },
        "camForwardTargetOffset": {
          "x": 596.6229858398438,
          "y": 314.30499267578125,
          "z": 5669.58984375
        },
        "camFov": 53.130001068115234,
        "lerpPattern": 6,
        "cameraBlendType": "EaseInOutCubic",
        "NJBNNOMLKCK": {},
        "needZAxisRotate": true,
        "openCameraDither": false,
        "targetNpcAlias": "",
        "closeTreeLeafDither": true,
        "KJOEFBPOIIH": "",
        "IICFKKEBIEC": "",
        "EGEHEJEBLBJ": ""
      },
      {
        "$type": "LLGANGLOEEO",
        "type": "STEER_TO",
        "delayTime": 0.30000001192092896,
        "duration": 0.800000011920929,
        "aliasList": [
          "Avatar"
        ],
        "actionId": 157,
        "steerType": "TO_TARGET_ADVANCED",
        "useSteerAnim": true,
        "interruptFreestyle": true,
        "forceSteer": true,
        "targetNpcAlias": "1005",
        "fixInterNull": true,
        "OAFJBHJHLJG": ""
      },
      {
        "$type": "LLGANGLOEEO",
        "type": "STEER_TO",
        "delayTime": 0.30000001192092896,
        "duration": 0.800000011920929,
        "aliasList": [
          "20887"
        ],
        "actionId": 158,
        "steerType": "TO_LOCAL_AVATAR_ADVANCED",
        "useSteerAnim": true,
        "interruptFreestyle": true,
        "forceSteer": true,
        "targetNpcAlias": "",
        "fixInterNull": true,
        "OAFJBHJHLJG": ""
      },
      {
        "$type": "LLGANGLOEEO",
        "type": "STEER_TO",
        "delayTime": 0.30000001192092896,
        "duration": 0.800000011920929,
        "aliasList": [
          "20883"
        ],
        "actionId": 159,
        "steerType": "TO_LOCAL_AVATAR_ADVANCED",
        "useSteerAnim": true,
        "interruptFreestyle": true,
        "forceSteer": true,
        "targetNpcAlias": "",
        "fixInterNull": true,
        "OAFJBHJHLJG": ""
      }
    ],
    [
      {
        "$type": "PKKMAMONGEO",
        "type": "DIALOG",
        "aliasList": [
          "1005"
        ],
        "actionId": 107,
        "dialogID": 732311201,
        "protectTime": 0.5
      }
    ],
    [
      {
        "$type": "PKKMAMONGEO",
        "type": "DIALOG",
        "aliasList": [
          "20887"
        ],
        "actionId": 109,
        "dialogID": 732311202,
        "protectTime": 0.5
      }
    ],
    [
      {
        "$type": "PKKMAMONGEO",
        "type": "DIALOG",
        "aliasList": [
          "1005"
        ],
        "actionId": 111,
        "dialogID": 732311203,
        "protectTime": 0.5
      }
    ],
    [
      {
        "$type": "PKKMAMONGEO",
        "type": "DIALOG",
        "aliasList": [
          "20887"
        ],
        "actionId": 113,
        "dialogID": 732311204,
        "protectTime": 0.5
      }
    ],
    [
      {
        "$type": "PKKMAMONGEO",
        "type": "DIALOG",
        "aliasList": [
          "1005"
        ],
        "actionId": 115,
        "dialogID": 732311205,
        "protectTime": 0.5
      }
    ],
    [
      {
        "$type": "PKKMAMONGEO",
        "type": "DIALOG",
        "aliasList": [
          "1005"
        ],
        "actionId": 117,
        "dialogID": 732311206,
        "protectTime": 0.5
      },
      {
        "$type": "HDGKHDNFMIM",
        "type": "DIALOG_SELECT",
        "delayTime": 0.4000000059604645,
        "aliasList": [
          "Avatar"
        ],
        "actionId": 118,
        "dialogIDList": [
          732311207
        ],
        "grpIDList": [
          851243749
        ],
        "useGrpId": true,
        "countDownGrpId": 851243741
      }
    ],
    [
      {
        "$type": "PKKMAMONGEO",
        "type": "DIALOG",
        "aliasList": [
          "1005"
        ],
        "actionId": 120,
        "dialogID": 732311208,
        "protectTime": 0.5
      }
    ],
    [
      {
        "$type": "PKKMAMONGEO",
        "type": "DIALOG",
        "aliasList": [
          "20883"
        ],
        "actionId": 122,
        "dialogID": 732311209,
        "protectTime": 0.5
      }
    ],
    [
      {
        "$type": "PKKMAMONGEO",
        "type": "DIALOG",
        "aliasList": [
          "20883"
        ],
        "actionId": 124,
        "dialogID": 732311210,
        "protectTime": 0.5
      }
    ],
    [
      {
        "$type": "PKKMAMONGEO",
        "type": "DIALOG",
        "aliasList": [
          "1005"
        ],
        "actionId": 126,
        "dialogID": 732311211,
        "protectTime": 0.5
      }
    ],
    [
      {
        "$type": "PKKMAMONGEO",
        "type": "DIALOG",
        "aliasList": [
          "20883"
        ],
        "actionId": 128,
        "dialogID": 732311212,
        "protectTime": 0.5
      }
    ],
    [
      {
        "$type": "PKKMAMONGEO",
        "type": "DIALOG",
        "aliasList": [
          "20883"
        ],
        "actionId": 130,
        "dialogID": 732311213,
        "protectTime": 0.5
      }
    ],
    [
      {
        "$type": "PKKMAMONGEO",
        "type": "DIALOG",
        "aliasList": [
          "20887"
        ],
        "actionId": 132,
        "dialogID": 732311214,
        "protectTime": 0.5
      },
      {
        "$type": "HDGKHDNFMIM",
        "type": "DIALOG_SELECT",
        "delayTime": 0.4000000059604645,
        "aliasList": [
          "Avatar"
        ],
        "actionId": 133,
        "dialogIDList": [
          732311215,
          732311217
        ],
        "grpIDList": [
          618752279,
          618752280
        ],
        "useGrpId": true,
        "countDownGrpId": 851243741
      }
    ],
    [
      {
        "$type": "PKKMAMONGEO",
        "type": "DIALOG",
        "aliasList": [
          "20883"
        ],
        "actionId": 135,
        "dialogID": 732311216,
        "protectTime": 0.5
      }
    ],
    [
      {
        "$type": "PKKMAMONGEO",
        "type": "DIALOG",
        "aliasList": [
          "1005"
        ],
        "actionId": 137,
        "dialogID": 732311218,
        "protectTime": 0.5
      }
    ],
    [
      {
        "$type": "PKKMAMONGEO",
        "type": "DIALOG",
        "aliasList": [
          "20883"
        ],
        "actionId": 139,
        "dialogID": 732311219,
        "protectTime": 0.5
      }
    ],
    [
      {
        "$type": "PKKMAMONGEO",
        "type": "DIALOG",
        "aliasList": [
          "1005"
        ],
        "actionId": 141,
        "dialogID": 732311220,
        "protectTime": 0.5
      },
      {
        "$type": "HDGKHDNFMIM",
        "type": "DIALOG_SELECT",
        "delayTime": 0.4000000059604645,
        "aliasList": [
          "Avatar"
        ],
        "actionId": 142,
        "dialogIDList": [
          732311221,
          732311223
        ],
        "grpIDList": [
          618752283,
          618752305
        ],
        "useGrpId": true,
        "countDownGrpId": 851243741
      }
    ],
    [
      {
        "$type": "PKKMAMONGEO",
        "type": "DIALOG",
        "aliasList": [
          "1005"
        ],
        "actionId": 144,
        "dialogID": 732311222,
        "protectTime": 0.5
      },
      {
        "$type": "HDGKHDNFMIM",
        "type": "DIALOG_SELECT",
        "delayTime": 0.4000000059604645,
        "aliasList": [
          "Avatar"
        ],
        "actionId": 145,
        "dialogIDList": [
          732311225
        ],
        "grpIDList": [
          618752306
        ],
        "useGrpId": true,
        "countDownGrpId": 851243741
      }
    ],
    [
      {
        "$type": "PKKMAMONGEO",
        "type": "DIALOG",
        "aliasList": [
          "1005"
        ],
        "actionId": 147,
        "dialogID": 732311224,
        "protectTime": 0.5
      },
      {
        "$type": "HDGKHDNFMIM",
        "type": "DIALOG_SELECT",
        "delayTime": 0.4000000059604645,
        "aliasList": [
          "Avatar"
        ],
        "actionId": 148,
        "dialogIDList": [
          732311225
        ],
        "grpIDList": [
          618752306
        ],
        "useGrpId": true,
        "countDownGrpId": 851243741
      }
    ],
    [
      {
        "$type": "PKKMAMONGEO",
        "type": "DIALOG",
        "aliasList": [
          "1005"
        ],
        "actionId": 150,
        "dialogID": 732311226,
        "protectTime": 0.5
      }
    ],
    [
      {
        "$type": "PKKMAMONGEO",
        "type": "DIALOG",
        "aliasList": [
          "1005"
        ],
        "actionId": 152,
        "dialogID": 732311227,
        "protectTime": 0.5
      }
    ],
    [
      {
        "$type": "PKKMAMONGEO",
        "type": "DIALOG",
        "aliasList": [
          "1005"
        ],
        "actionId": 154,
        "dialogID": 732311228,
        "protectTime": 0.5
      }
    ],
    [
      {
        "$type": "PKKMAMONGEO",
        "type": "DIALOG",
        "aliasList": [
          "1005"
        ],
        "actionId": 156,
        "dialogID": 732311229,
        "protectTime": 0.5
      }
    ],
    [
      {
        "$type": "MoleMole.Config.ConfigTimeProtectAction",
        "type": "TIME_PROTECT",
        "duration": 0.10000000149011612,
        "actionId": 105
      }
    ]
  ],
  "groupId": [
    {
      "grpId": 851243742,
      "nextGrpId": 851243743
    },
    {
      "index": 1,
      "grpId": 851243743,
      "nextGrpId": 851243744
    },
    {
      "index": 2,
      "grpId": 851243744,
      "nextGrpId": 851243745
    },
    {
      "index": 3,
      "grpId": 851243745,
      "nextGrpId": 851243746
    },
    {
      "index": 4,
      "grpId": 851243746,
      "nextGrpId": 851243747
    },
    {
      "index": 5,
      "grpId": 851243747,
      "nextGrpId": 851243748
    },
    {
      "index": 6,
      "grpId": 851243748,
      "nextGrpId": 851243749
    },
    {
      "index": 7,
      "grpId": 851243749,
      "nextGrpId": 851243750
    },
    {
      "index": 8,
      "grpId": 851243750,
      "nextGrpId": 618752274
    },
    {
      "index": 9,
      "grpId": 618752274,
      "nextGrpId": 618752275
    },
    {
      "index": 10,
      "grpId": 618752275,
      "nextGrpId": 618752276
    },
    {
      "index": 11,
      "grpId": 618752276,
      "nextGrpId": 618752277
    },
    {
      "index": 12,
      "grpId": 618752277,
      "nextGrpId": 618752278
    },
    {
      "index": 13,
      "grpId": 618752278,
      "nextGrpId": 618752279
    },
    {
      "index": 14,
      "grpId": 618752279,
      "nextGrpId": 618752281
    },
    {
      "index": 15,
      "grpId": 618752280,
      "nextGrpId": 618752281
    },
    {
      "index": 16,
      "grpId": 618752281,
      "nextGrpId": 618752282
    },
    {
      "index": 17,
      "grpId": 618752282,
      "nextGrpId": 618752283
    },
    {
      "index": 18,
      "grpId": 618752283,
      "nextGrpId": 618752305
    },
    {
      "index": 19,
      "grpId": 618752305,
      "nextGrpId": 618752306
    },
    {
      "index": 20,
      "grpId": 618752306,
      "nextGrpId": 618752307
    },
    {
      "index": 21,
      "grpId": 618752307,
      "nextGrpId": 618752308
    },
    {
      "index": 22,
      "grpId": 618752308,
      "nextGrpId": 618752309
    },
    {
      "index": 23,
      "grpId": 618752309,
      "nextGrpId": 618752310
    },
    {
      "index": 24,
      "grpId": 618752310,
      "nextGrpId": 618752311
    }
  ]
}