{
  "luaDataPath": "",
  "isSimpleTalk": true,
  "entityBan": "",
  "disableNpcLod": true,
  "protectNpcMobileLod": true,
  "talkFlag": 5,
  "startFade": {
    "startFadeOutDuration": 0.0
  },
  "endFade": {
    "startFadeOutDuration": 0.0
  },
  "actors": [
    {
      "alias": "Avatar",
      "visible": true,
      "bornPointName": "",
      "relativePosType": "AVATAR_NEW",
      "relativePosNpcAlias": "",
      "_bindMovingTargetKey": ""
    },
    {
      "configID": 13356,
      "alias": "13356",
      "visible": true,
      "bornPointName": "",
      "relativePosType": "AVATAR_NEW",
      "relativePosNpcAlias": "",
      "_bindMovingTargetKey": ""
    },
    {
      "configID": 1005,
      "alias": "1005",
      "visible": true,
      "bornPointName": "",
      "useRelativePos": true,
      "relativePos": {
        "x": -0.5,
        "z": 0.5
      },
      "removeActorType": "NEW_REMOVE_WITH_DISAPPEAR",
      "relativePosType": "AVATAR_NEW",
      "relativePosNpcAlias": "",
      "_bindMovingTargetKey": ""
    }
  ],
  "group": [
    [
      {
        "$type": "FJKIHHKJLMJ",
        "type": "CAMERA_FOCUS",
        "duration": 0.10000000149011612,
        "actionId": 103,
        "targetNpcAlias": "",
        "KJOEFBPOIIH": "",
        "IICFKKEBIEC": "",
        "EGEHEJEBLBJ": ""
      },
      {
        "$type": "MoleMole.Config.ConfigTimeProtectAction",
        "type": "TIME_PROTECT",
        "duration": 0.10000000149011612,
        "actionId": 104
      },
      {
        "$type": "LLGANGLOEEO",
        "type": "STEER_TO",
        "delayTime": 0.30000001192092896,
        "duration": 0.800000011920929,
        "aliasList": [
          "Avatar"
        ],
        "actionId": 216,
        "steerType": "TO_TARGET_ADVANCED",
        "useSteerAnim": true,
        "interruptFreestyle": true,
        "forceSteer": true,
        "targetNpcAlias": "13356",
        "fixInterNull": true,
        "OAFJBHJHLJG": ""
      },
      {
        "$type": "LLGANGLOEEO",
        "type": "STEER_TO",
        "delayTime": 0.30000001192092896,
        "duration": 0.800000011920929,
        "aliasList": [
          "13356"
        ],
        "actionId": 217,
        "steerType": "TO_LOCAL_AVATAR_ADVANCED",
        "useSteerAnim": true,
        "interruptFreestyle": true,
        "forceSteer": true,
        "targetNpcAlias": "",
        "fixInterNull": true,
        "OAFJBHJHLJG": ""
      }
    ],
    [
      {
        "$type": "PKKMAMONGEO",
        "type": "DIALOG",
        "aliasList": [
          "13356"
        ],
        "actionId": 107,
        "dialogID": 737030101,
        "protectTime": 0.5
      }
    ],
    [
      {
        "$type": "PKKMAMONGEO",
        "type": "DIALOG",
        "aliasList": [
          "13356"
        ],
        "actionId": 109,
        "dialogID": 737030102,
        "protectTime": 0.5
      }
    ],
    [
      {
        "$type": "PKKMAMONGEO",
        "type": "DIALOG",
        "aliasList": [
          "1005"
        ],
        "actionId": 111,
        "dialogID": 737030103,
        "protectTime": 0.5
      }
    ],
    [
      {
        "$type": "PKKMAMONGEO",
        "type": "DIALOG",
        "aliasList": [
          "13356"
        ],
        "actionId": 113,
        "dialogID": 737030104,
        "protectTime": 0.5
      }
    ],
    [
      {
        "$type": "PKKMAMONGEO",
        "type": "DIALOG",
        "aliasList": [
          "13356"
        ],
        "actionId": 115,
        "dialogID": 737030105,
        "protectTime": 0.5
      }
    ],
    [
      {
        "$type": "PKKMAMONGEO",
        "type": "DIALOG",
        "aliasList": [
          "1005"
        ],
        "actionId": 117,
        "dialogID": 737030106,
        "protectTime": 0.5
      },
      {
        "$type": "HDGKHDNFMIM",
        "type": "DIALOG_SELECT",
        "delayTime": 0.4000000059604645,
        "aliasList": [
          "Avatar"
        ],
        "actionId": 118,
        "dialogIDList": [
          737030107,
          737030108
        ],
        "grpIDList": [
          909723695,
          909723695
        ],
        "useGrpId": true,
        "countDownGrpId": 909723687
      }
    ],
    [
      {
        "$type": "PKKMAMONGEO",
        "type": "DIALOG",
        "aliasList": [
          "13356"
        ],
        "actionId": 120,
        "dialogID": 737030109,
        "protectTime": 0.5
      }
    ],
    [
      {
        "$type": "PKKMAMONGEO",
        "type": "DIALOG",
        "aliasList": [
          "13356"
        ],
        "actionId": 122,
        "dialogID": 737030110,
        "protectTime": 0.5
      },
      {
        "$type": "HDGKHDNFMIM",
        "type": "DIALOG_SELECT",
        "delayTime": 0.4000000059604645,
        "aliasList": [
          "Avatar"
        ],
        "actionId": 123,
        "dialogIDList": [
          737030111
        ],
        "grpIDList": [
          2431630600
        ],
        "useGrpId": true,
        "countDownGrpId": 909723687
      }
    ],
    [
      {
        "$type": "PKKMAMONGEO",
        "type": "DIALOG",
        "aliasList": [
          "13356"
        ],
        "actionId": 125,
        "dialogID": 737030112,
        "protectTime": 0.5
      }
    ],
    [
      {
        "$type": "PKKMAMONGEO",
        "type": "DIALOG",
        "aliasList": [
          "1005"
        ],
        "actionId": 127,
        "dialogID": 737030113,
        "protectTime": 0.5
      }
    ],
    [
      {
        "$type": "PKKMAMONGEO",
        "type": "DIALOG",
        "aliasList": [
          "13356"
        ],
        "actionId": 129,
        "dialogID": 737030114,
        "protectTime": 0.5
      }
    ],
    [
      {
        "$type": "PKKMAMONGEO",
        "type": "DIALOG",
        "aliasList": [
          "1005"
        ],
        "actionId": 131,
        "dialogID": 737030115,
        "protectTime": 0.5
      }
    ],
    [
      {
        "$type": "PKKMAMONGEO",
        "type": "DIALOG",
        "aliasList": [
          "13356"
        ],
        "actionId": 133,
        "dialogID": 737030116,
        "protectTime": 0.5
      }
    ],
    [
      {
        "$type": "PKKMAMONGEO",
        "type": "DIALOG",
        "aliasList": [
          "1005"
        ],
        "actionId": 135,
        "dialogID": 737030117,
        "protectTime": 0.5
      }
    ],
    [
      {
        "$type": "PKKMAMONGEO",
        "type": "DIALOG",
        "aliasList": [
          "13356"
        ],
        "actionId": 137,
        "dialogID": 737030118,
        "protectTime": 0.5
      }
    ],
    [
      {
        "$type": "PKKMAMONGEO",
        "type": "DIALOG",
        "aliasList": [
          "1005"
        ],
        "actionId": 139,
        "dialogID": 737030119,
        "protectTime": 0.5
      },
      {
        "$type": "HDGKHDNFMIM",
        "type": "DIALOG_SELECT",
        "delayTime": 0.4000000059604645,
        "aliasList": [
          "Avatar"
        ],
        "actionId": 140,
        "dialogIDList": [
          737030120
        ],
        "grpIDList": [
          2431630608
        ],
        "useGrpId": true,
        "countDownGrpId": 909723687
      }
    ],
    [
      {
        "$type": "PKKMAMONGEO",
        "type": "DIALOG",
        "aliasList": [
          "13356"
        ],
        "actionId": 142,
        "dialogID": 737030121,
        "protectTime": 0.5
      }
    ],
    [
      {
        "$type": "PKKMAMONGEO",
        "type": "DIALOG",
        "aliasList": [
          "13356"
        ],
        "actionId": 144,
        "dialogID": 737030122,
        "protectTime": 0.5
      }
    ],
    [
      {
        "$type": "PKKMAMONGEO",
        "type": "DIALOG",
        "aliasList": [
          "13356"
        ],
        "actionId": 146,
        "dialogID": 737030123,
        "protectTime": 0.5
      }
    ],
    [
      {
        "$type": "PKKMAMONGEO",
        "type": "DIALOG",
        "aliasList": [
          "1005"
        ],
        "actionId": 148,
        "dialogID": 737030124,
        "protectTime": 0.5
      }
    ],
    [
      {
        "$type": "PKKMAMONGEO",
        "type": "DIALOG",
        "aliasList": [
          "13356"
        ],
        "actionId": 150,
        "dialogID": 737030125,
        "protectTime": 0.5
      }
    ],
    [
      {
        "$type": "PKKMAMONGEO",
        "type": "DIALOG",
        "aliasList": [
          "13356"
        ],
        "actionId": 152,
        "dialogID": 737030126,
        "protectTime": 0.5
      }
    ],
    [
      {
        "$type": "PKKMAMONGEO",
        "type": "DIALOG",
        "aliasList": [
          "13356"
        ],
        "actionId": 154,
        "dialogID": 737030127,
        "protectTime": 0.5
      }
    ],
    [
      {
        "$type": "PKKMAMONGEO",
        "type": "DIALOG",
        "aliasList": [
          "1005"
        ],
        "actionId": 156,
        "dialogID": 737030128,
        "protectTime": 0.5
      }
    ],
    [
      {
        "$type": "PKKMAMONGEO",
        "type": "DIALOG",
        "aliasList": [
          "13356"
        ],
        "actionId": 158,
        "dialogID": 737030129,
        "protectTime": 0.5
      }
    ],
    [
      {
        "$type": "PKKMAMONGEO",
        "type": "DIALOG",
        "aliasList": [
          "13356"
        ],
        "actionId": 160,
        "dialogID": 737030130,
        "protectTime": 0.5
      },
      {
        "$type": "HDGKHDNFMIM",
        "type": "DIALOG_SELECT",
        "delayTime": 0.4000000059604645,
        "aliasList": [
          "Avatar"
        ],
        "actionId": 161,
        "dialogIDList": [
          737030131,
          737030137
        ],
        "grpIDList": [
          2431630639,
          2431630665
        ],
        "useGrpId": true,
        "countDownGrpId": 909723687
      }
    ],
    [
      {
        "$type": "PKKMAMONGEO",
        "type": "DIALOG",
        "aliasList": [
          "1005"
        ],
        "actionId": 163,
        "dialogID": 737030132,
        "protectTime": 0.5
      }
    ],
    [
      {
        "$type": "PKKMAMONGEO",
        "type": "DIALOG",
        "aliasList": [
          "13356"
        ],
        "actionId": 165,
        "dialogID": 737030133,
        "protectTime": 0.5
      }
    ],
    [
      {
        "$type": "PKKMAMONGEO",
        "type": "DIALOG",
        "aliasList": [
          "1005"
        ],
        "actionId": 167,
        "dialogID": 737030134,
        "protectTime": 0.5
      }
    ],
    [
      {
        "$type": "PKKMAMONGEO",
        "type": "DIALOG",
        "aliasList": [
          "13356"
        ],
        "actionId": 169,
        "dialogID": 737030135,
        "protectTime": 0.5
      }
    ],
    [
      {
        "$type": "PKKMAMONGEO",
        "type": "DIALOG",
        "aliasList": [
          "13356"
        ],
        "actionId": 171,
        "dialogID": 737030136,
        "protectTime": 0.5
      }
    ],
    [
      {
        "$type": "PKKMAMONGEO",
        "type": "DIALOG",
        "aliasList": [
          "13356"
        ],
        "actionId": 173,
        "dialogID": 737030138,
        "protectTime": 0.5
      }
    ],
    [
      {
        "$type": "PKKMAMONGEO",
        "type": "DIALOG",
        "aliasList": [
          "13356"
        ],
        "actionId": 175,
        "dialogID": 737030139,
        "protectTime": 0.5
      }
    ],
    [
      {
        "$type": "PKKMAMONGEO",
        "type": "DIALOG",
        "aliasList": [
          "13356"
        ],
        "actionId": 177,
        "dialogID": 737030140,
        "protectTime": 0.5
      }
    ],
    [
      {
        "$type": "PKKMAMONGEO",
        "type": "DIALOG",
        "aliasList": [
          "1005"
        ],
        "actionId": 179,
        "dialogID": 737030141,
        "protectTime": 0.5
      }
    ],
    [
      {
        "$type": "PKKMAMONGEO",
        "type": "DIALOG",
        "aliasList": [
          "13356"
        ],
        "actionId": 181,
        "dialogID": 737030142,
        "protectTime": 0.5
      }
    ],
    [
      {
        "$type": "PKKMAMONGEO",
        "type": "DIALOG",
        "aliasList": [
          "13356"
        ],
        "actionId": 183,
        "dialogID": 737030143,
        "protectTime": 0.5
      }
    ],
    [
      {
        "$type": "PKKMAMONGEO",
        "type": "DIALOG",
        "aliasList": [
          "13356"
        ],
        "actionId": 185,
        "dialogID": 737030144,
        "protectTime": 0.5
      }
    ],
    [
      {
        "$type": "PKKMAMONGEO",
        "type": "DIALOG",
        "aliasList": [
          "1005"
        ],
        "actionId": 187,
        "dialogID": 737030145,
        "protectTime": 0.5
      },
      {
        "$type": "HDGKHDNFMIM",
        "type": "DIALOG_SELECT",
        "delayTime": 0.4000000059604645,
        "aliasList": [
          "Avatar"
        ],
        "actionId": 188,
        "dialogIDList": [
          737030146,
          737030148
        ],
        "grpIDList": [
          2431630694,
          2431630695
        ],
        "useGrpId": true,
        "countDownGrpId": 909723687
      }
    ],
    [
      {
        "$type": "PKKMAMONGEO",
        "type": "DIALOG",
        "aliasList": [
          "13356"
        ],
        "actionId": 190,
        "dialogID": 737030147,
        "protectTime": 0.5
      }
    ],
    [
      {
        "$type": "PKKMAMONGEO",
        "type": "DIALOG",
        "aliasList": [
          "13356"
        ],
        "actionId": 192,
        "dialogID": 737030149,
        "protectTime": 0.5
      }
    ],
    [
      {
        "$type": "PKKMAMONGEO",
        "type": "DIALOG",
        "aliasList": [
          "1005"
        ],
        "actionId": 194,
        "dialogID": 737030150,
        "protectTime": 0.5
      }
    ],
    [
      {
        "$type": "PKKMAMONGEO",
        "type": "DIALOG",
        "aliasList": [
          "13356"
        ],
        "actionId": 196,
        "dialogID": 737030151,
        "protectTime": 0.5
      }
    ],
    [
      {
        "$type": "PKKMAMONGEO",
        "type": "DIALOG",
        "aliasList": [
          "13356"
        ],
        "actionId": 198,
        "dialogID": 737030152,
        "protectTime": 0.5
      }
    ],
    [
      {
        "$type": "PKKMAMONGEO",
        "type": "DIALOG",
        "aliasList": [
          "1005"
        ],
        "actionId": 200,
        "dialogID": 737030153,
        "protectTime": 0.5
      },
      {
        "$type": "HDGKHDNFMIM",
        "type": "DIALOG_SELECT",
        "delayTime": 0.4000000059604645,
        "aliasList": [
          "Avatar"
        ],
        "actionId": 201,
        "dialogIDList": [
          737030154
        ],
        "grpIDList": [
          2431630700
        ],
        "useGrpId": true,
        "countDownGrpId": 909723687
      }
    ],
    [
      {
        "$type": "PKKMAMONGEO",
        "type": "DIALOG",
        "aliasList": [
          "1005"
        ],
        "actionId": 203,
        "dialogID": 737030155,
        "protectTime": 0.5
      }
    ],
    [
      {
        "$type": "PKKMAMONGEO",
        "type": "DIALOG",
        "aliasList": [
          "13356"
        ],
        "actionId": 205,
        "dialogID": 737030156,
        "protectTime": 0.5
      }
    ],
    [
      {
        "$type": "PKKMAMONGEO",
        "type": "DIALOG",
        "aliasList": [
          "13356"
        ],
        "actionId": 207,
        "dialogID": 737030157,
        "protectTime": 0.5
      }
    ],
    [
      {
        "$type": "PKKMAMONGEO",
        "type": "DIALOG",
        "aliasList": [
          "13356"
        ],
        "actionId": 209,
        "dialogID": 737030158,
        "protectTime": 0.5
      }
    ],
    [
      {
        "$type": "PKKMAMONGEO",
        "type": "DIALOG",
        "aliasList": [
          "1005"
        ],
        "actionId": 211,
        "dialogID": 737030159,
        "protectTime": 0.5
      }
    ],
    [
      {
        "$type": "PKKMAMONGEO",
        "type": "DIALOG",
        "aliasList": [
          "13356"
        ],
        "actionId": 213,
        "dialogID": 737030160,
        "protectTime": 0.5
      }
    ],
    [
      {
        "$type": "PKKMAMONGEO",
        "type": "DIALOG",
        "aliasList": [
          "1005"
        ],
        "actionId": 215,
        "dialogID": 737030161,
        "protectTime": 0.5
      }
    ],
    [
      {
        "$type": "MoleMole.Config.ConfigTimeProtectAction",
        "type": "TIME_PROTECT",
        "duration": 0.10000000149011612,
        "actionId": 105
      },
      {
        "$type": "LLGANGLOEEO",
        "type": "STEER_TO",
        "duration": 1.0,
        "aliasList": [
          "13356"
        ],
        "actionId": 218,
        "steerType": "RETURN",
        "useSteerAnim": true,
        "interruptFreestyle": true,
        "forceSteer": true,
        "targetNpcAlias": "",
        "ignoreY": true,
        "fixInterNull": true,
        "OAFJBHJHLJG": ""
      }
    ]
  ],
  "groupId": [
    {
      "grpId": 909723688,
      "nextGrpId": 909723689
    },
    {
      "index": 1,
      "grpId": 909723689,
      "nextGrpId": 909723690
    },
    {
      "index": 2,
      "grpId": 909723690,
      "nextGrpId": 909723691
    },
    {
      "index": 3,
      "grpId": 909723691,
      "nextGrpId": 909723692
    },
    {
      "index": 4,
      "grpId": 909723692,
      "nextGrpId": 909723693
    },
    {
      "index": 5,
      "grpId": 909723693,
      "nextGrpId": 909723694
    },
    {
      "index": 6,
      "grpId": 909723694,
      "nextGrpId": 909723695
    },
    {
      "index": 7,
      "grpId": 909723695,
      "nextGrpId": 909723696
    },
    {
      "index": 8,
      "grpId": 909723696,
      "nextGrpId": 2431630600
    },
    {
      "index": 9,
      "grpId": 2431630600,
      "nextGrpId": 2431630601
    },
    {
      "index": 10,
      "grpId": 2431630601,
      "nextGrpId": 2431630602
    },
    {
      "index": 11,
      "grpId": 2431630602,
      "nextGrpId": 2431630603
    },
    {
      "index": 12,
      "grpId": 2431630603,
      "nextGrpId": 2431630604
    },
    {
      "index": 13,
      "grpId": 2431630604,
      "nextGrpId": 2431630605
    },
    {
      "index": 14,
      "grpId": 2431630605,
      "nextGrpId": 2431630606
    },
    {
      "index": 15,
      "grpId": 2431630606,
      "nextGrpId": 2431630607
    },
    {
      "index": 16,
      "grpId": 2431630607,
      "nextGrpId": 2431630608
    },
    {
      "index": 17,
      "grpId": 2431630608,
      "nextGrpId": 2431630609
    },
    {
      "index": 18,
      "grpId": 2431630609,
      "nextGrpId": 2431630631
    },
    {
      "index": 19,
      "grpId": 2431630631,
      "nextGrpId": 2431630632
    },
    {
      "index": 20,
      "grpId": 2431630632,
      "nextGrpId": 2431630633
    },
    {
      "index": 21,
      "grpId": 2431630633,
      "nextGrpId": 2431630634
    },
    {
      "index": 22,
      "grpId": 2431630634,
      "nextGrpId": 2431630635
    },
    {
      "index": 23,
      "grpId": 2431630635,
      "nextGrpId": 2431630636
    },
    {
      "index": 24,
      "grpId": 2431630636,
      "nextGrpId": 2431630637
    },
    {
      "index": 25,
      "grpId": 2431630637,
      "nextGrpId": 2431630638
    },
    {
      "index": 26,
      "grpId": 2431630638,
      "nextGrpId": 2431630639
    },
    {
      "index": 27,
      "grpId": 2431630639,
      "nextGrpId": 2431630640
    },
    {
      "index": 28,
      "grpId": 2431630640,
      "nextGrpId": 2431630662
    },
    {
      "index": 29,
      "grpId": 2431630662,
      "nextGrpId": 2431630663
    },
    {
      "index": 30,
      "grpId": 2431630663,
      "nextGrpId": 2431630664
    },
    {
      "index": 31,
      "grpId": 2431630664,
      "nextGrpId": 2431630668
    },
    {
      "index": 32,
      "grpId": 2431630665,
      "nextGrpId": 2431630666
    },
    {
      "index": 33,
      "grpId": 2431630666,
      "nextGrpId": 2431630667
    },
    {
      "index": 34,
      "grpId": 2431630667,
      "nextGrpId": 2431630668
    },
    {
      "index": 35,
      "grpId": 2431630668,
      "nextGrpId": 2431630669
    },
    {
      "index": 36,
      "grpId": 2431630669,
      "nextGrpId": 2431630670
    },
    {
      "index": 37,
      "grpId": 2431630670,
      "nextGrpId": 2431630671
    },
    {
      "index": 38,
      "grpId": 2431630671,
      "nextGrpId": 2431630693
    },
    {
      "index": 39,
      "grpId": 2431630693,
      "nextGrpId": 2431630694
    },
    {
      "index": 40,
      "grpId": 2431630694,
      "nextGrpId": 2431630697
    },
    {
      "index": 41,
      "grpId": 2431630695,
      "nextGrpId": 2431630696
    },
    {
      "index": 42,
      "grpId": 2431630696,
      "nextGrpId": 2431630697
    },
    {
      "index": 43,
      "grpId": 2431630697,
      "nextGrpId": 2431630698
    },
    {
      "index": 44,
      "grpId": 2431630698,
      "nextGrpId": 2431630699
    },
    {
      "index": 45,
      "grpId": 2431630699,
      "nextGrpId": 2431630700
    },
    {
      "index": 46,
      "grpId": 2431630700,
      "nextGrpId": 2431630701
    },
    {
      "index": 47,
      "grpId": 2431630701,
      "nextGrpId": 2431630702
    },
    {
      "index": 48,
      "grpId": 2431630702,
      "nextGrpId": 2431630724
    },
    {
      "index": 49,
      "grpId": 2431630724,
      "nextGrpId": 2431630725
    },
    {
      "index": 50,
      "grpId": 2431630725,
      "nextGrpId": 2431630726
    },
    {
      "index": 51,
      "grpId": 2431630726,
      "nextGrpId": 2431630727
    },
    {
      "index": 52,
      "grpId": 2431630727,
      "nextGrpId": 2431630728
    },
    {
      "index": 53,
      "grpId": 2431630728,
      "nextGrpId": 2431630729
    }
  ],
  "freeStyleDic": {
    "13356": []
  }
}