{
  "luaDataPath": "",
  "dontUseDefaultFinish": true,
  "startBlackKeepTime": 0.5,
  "entityBan": "",
  "disableNpcLod": true,
  "isAutoBanNpc": true,
  "isBanWidgetPet": true,
  "protectNpcMobileLod": true,
  "talkFlag": 7,
  "startFade": {
    "startFadeInDuration": 0.5,
    "startFadeOutDuration": 0.5
  },
  "endFade": {
    "startFadeOutDuration": 0.0
  },
  "actors": [
    {
      "alias": "Avatar",
      "visible": true,
      "bornPointName": "[3_4496:4357.703,157.630,4666.799,0.000,101.720,0.000]",
      "relativePosType": "AVATAR_NEW",
      "relativePosNpcAlias": "",
      "_notDestroyInTalk": true,
      "_bindMovingTargetKey": ""
    },
    {
      "alias": "AvatarNpc",
      "visible": true,
      "bornPointName": "[3_4496:4357.703,157.630,4666.799,0.000,101.720,0.000]",
      "removeActorType": "NEW_REMOVE",
      "relativePosType": "AVATAR_NEW",
      "relativePosNpcAlias": "",
      "_notDestroyInTalk": true,
      "_bindMovingTargetKey": ""
    },
    {
      "configID": 21049,
      "alias": "21049",
      "visible": true,
      "bornPointName": "[3_4579:4358.779,158.687,4666.658,0.000,280.000,0.000]",
      "relativePosType": "AVATAR_NEW",
      "relativePosNpcAlias": "",
      "_notDestroyInTalk": true,
      "_bindMovingTargetKey": ""
    }
  ],
  "group": [
    [
      {
        "$type": "MoleMole.Config.ConfigTimeProtectAction",
        "type": "TIME_PROTECT",
        "duration": 1.0,
        "actionId": 104
      },
      {
        "$type": "MoleMole.Config.ConfigBlackScreenAction",
        "type": "BLACK_SCREEN",
        "duration": 1.0,
        "actionId": 108,
        "blackScreenType": "KEEP_BLACK",
        "durationToBlack": 0.5,
        "durationKeepBlack": 1.0,
        "durationFromBlack": 0.5,
        "inteePos": "",
        "textMapID": "",
        "useTextFade": true,
        "_changeAudioState": true
      },
      {
        "$type": "FJKIHHKJLMJ",
        "type": "CAMERA_MOVE",
        "duration": 0.5,
        "actionId": 116,
        "camPosOffset": {
          "x": 4358.88818359375,
          "y": 158.98800659179688,
          "z": 4666.55615234375
        },
        "camForwardTargetOffset": {
          "x": 4357.90478515625,
          "y": 158.98800659179688,
          "z": 4666.7421875
        },
        "camFov": 30.0,
        "lerpPattern": 6,
        "cameraBlendType": "EaseInOutCubic",
        "NJBNNOMLKCK": {},
        "openCameraDither": false,
        "targetNpcAlias": "",
        "closeTreeLeafDither": true,
        "KJOEFBPOIIH": "",
        "IICFKKEBIEC": "",
        "EGEHEJEBLBJ": ""
      },
      {
        "$type": "MoleMole.Config.ConfigSitOrStandAction",
        "type": "SIT_OR_STAND",
        "aliasList": [
          "Avatar"
        ],
        "actionId": 110,
        "banResetFreestyle": true
      },
      {
        "$type": "MoleMole.Config.ConfigVisibleInterAction",
        "type": "VISIBLE",
        "aliasList": [
          "Avatar"
        ],
        "actionId": 114,
        "_extraParam": ""
      },
      {
        "$type": "MoleMole.Config.ConfigPlayerNPCEnergyTypeAction",
        "type": "SET_PLAYER_NPC_ENERGY_TYPE",
        "aliasList": [
          "AvatarNpc"
        ],
        "actionId": 111,
        "setHeroEngergyType": true
      },
      {
        "$type": "FABLGECDBCH",
        "type": "BODY_LANG",
        "aliasList": [
          "AvatarNpc"
        ],
        "actionId": 112,
        "isContinue": true,
        "forceDoFreeStyle": true,
        "canDoRepeatFreeStyle": false,
        "eventPatternSuiteKey": "",
        "FOHHKFAIAAJ": ""
      }
    ],
    [
      {
        "$type": "FJKIHHKJLMJ",
        "type": "CAMERA_MOVE",
        "duration": 0.5,
        "actionId": 122,
        "camPosOffset": {
          "x": 4358.88818359375,
          "y": 158.98800659179688,
          "z": 4666.55615234375
        },
        "camForwardTargetOffset": {
          "x": 4357.90478515625,
          "y": 158.98800659179688,
          "z": 4666.7421875
        },
        "camFov": 30.0,
        "lerpPattern": 6,
        "cameraBlendType": "EaseInOutCubic",
        "NJBNNOMLKCK": {},
        "openCameraDither": false,
        "targetNpcAlias": "",
        "closeTreeLeafDither": true,
        "KJOEFBPOIIH": "",
        "IICFKKEBIEC": "",
        "EGEHEJEBLBJ": ""
      },
      {
        "$type": "MoleMole.Config.ConfigBlackScreenAction",
        "type": "BLACK_SCREEN",
        "duration": 0.5,
        "actionId": 123,
        "blackScreenType": "FROM_BLACK",
        "durationToBlack": 0.5,
        "durationKeepBlack": 0.5,
        "durationFromBlack": 0.5,
        "inteePos": "",
        "textMapID": "",
        "useTextFade": true,
        "_changeAudioState": true
      },
      {
        "$type": "FABLGECDBCH",
        "type": "BODY_LANG",
        "aliasList": [
          "AvatarNpc"
        ],
        "actionId": 119,
        "bodyLangParam": 1190,
        "forceDoFreeStyle": true,
        "canDoRepeatFreeStyle": false,
        "cantBackToIdleWhenSitLoop": true,
        "eventPatternSuiteKey": "",
        "FOHHKFAIAAJ": ""
      },
      {
        "$type": "PKKMAMONGEO",
        "type": "DIALOG",
        "aliasList": [
          "AvatarNpc"
        ],
        "actionId": 120,
        "dialogID": 740253301,
        "protectTime": 0.5
      },
      {
        "$type": "FJKIHHKJLMJ",
        "type": "CAMERA_MOVE",
        "delayTime": 0.10000000149011612,
        "duration": 5.0,
        "actionId": 121,
        "camPosOffset": {
          "x": 4358.8271484375,
          "y": 158.9929962158203,
          "z": 4666.56689453125
        },
        "camForwardTargetOffset": {
          "x": 4357.84423828125,
          "y": 158.9929962158203,
          "z": 4666.7529296875
        },
        "camFov": 30.0,
        "NJBNNOMLKCK": {},
        "openCameraDither": false,
        "targetNpcAlias": "",
        "closeTreeLeafDither": true,
        "KJOEFBPOIIH": "",
        "IICFKKEBIEC": "",
        "EGEHEJEBLBJ": ""
      }
    ],
    [
      {
        "$type": "MoleMole.Config.ConfigTimeProtectAction",
        "type": "TIME_PROTECT",
        "duration": 0.10000000149011612,
        "actionId": 105
      }
    ]
  ],
  "groupId": [
    {
      "grpId": 794172191,
      "nextGrpId": 794172192
    },
    {
      "index": 1,
      "grpId": 794172192,
      "nextGrpId": 794172193
    },
    {
      "index": 2,
      "grpId": 794172193,
      "nextGrpId": 794172194
    }
  ],
  "freeStyleDic": {
    "1025": [
      1190
    ],
    "1026": [
      1190
    ]
  },
  "EKFBDAIDEEF": {
    "AvatarNpc": [
      "SitChat01AS",
      "SitHoldArm01AS",
      "SitShrug01AS",
      "SitThink01AS"
    ]
  }
}