{
  "radius": 5.0,
  "height": 5.0,
  "furnitureUnits": [
    {
      "furnitureID": 360410,
      "BOEDGBKEFNH": {
        "x": -3.6600000858306885,
        "z": 1.350000023841858
      },
      "rotation": {
        "y": 90.00051879882812
      }
    },
    {
      "furnitureID": 362210,
      "BOEDGBKEFNH": {
        "z": 2.486612319946289
      },
      "rotation": {
        "y": 89.99983978271484
      }
    },
    {
      "furnitureID": 362213,
      "BOEDGBKEFNH": {
        "x": 1.0,
        "z": 3.556612014770508
      },
      "rotation": {
        "y": 1.7075473124350538e-06
      }
    },
    {
      "furnitureID": 362213,
      "BOEDGBKEFNH": {
        "x": -1.0,
        "z": 3.5566158294677734
      },
      "rotation": {
        "y": 1.7075473124350538e-06
      }
    },
    {
      "furnitureID": 362211,
      "BOEDGBKEFNH": {
        "x": 3.059999942779541,
        "z": 2.5899999141693115
      },
      "rotation": {
        "y": 90.0
      }
    },
    {
      "furnitureID": 362215,
      "BOEDGBKEFNH": {
        "x": -3.0066375732421875,
        "z": -0.06337547302246094
      },
      "rotation": {
        "x": 2.5044785161298933e-06,
        "y": 89.99983978271484,
        "z": 2.0355550198972866e-13
      }
    },
    {
      "furnitureID": 362210,
      "BOEDGBKEFNH": {
        "z": -2.973388671875
      },
      "rotation": {
        "y": 89.99983978271484
      }
    },
    {
      "furnitureID": 362214,
      "BOEDGBKEFNH": {
        "x": -2.740000009536743,
        "z": -2.130000114440918
      },
      "rotation": {
        "y": 89.99988555908203
      }
    },
    {
      "furnitureID": 362213,
      "BOEDGBKEFNH": {
        "x": 1.0,
        "z": -3.6833572387695312
      },
      "rotation": {
        "y": 1.7075473124350538e-06
      }
    },
    {
      "furnitureID": 362213,
      "BOEDGBKEFNH": {
        "x": -1.0,
        "z": -3.6833648681640625
      },
      "rotation": {
        "y": 1.7075473124350538e-06
      }
    },
    {
      "furnitureID": 362214,
      "BOEDGBKEFNH": {
        "x": -2.740000009536743,
        "z": 1.8899999856948853
      },
      "rotation": {
        "y": 89.99988555908203
      }
    },
    {
      "furnitureID": 363315,
      "BOEDGBKEFNH": {
        "x": -3.819999933242798,
        "z": -1.2100000381469727
      },
      "rotation": {
        "x": 3.0533325976085657e-13,
        "y": 90.0,
        "z": 2.5044780613825424e-06
      }
    }
  ],
  "npcSpawnPoints": [
    {
      "BOEDGBKEFNH": {
        "x": -1.5001182556152344,
        "z": -2.569615364074707
      },
      "rotation": {
        "y": 41.29323196411133
      }
    },
    {
      "BOEDGBKEFNH": {
        "x": -1.774181842803955,
        "z": 1.986757516860962
      },
      "rotation": {
        "y": 144.1887969970703
      }
    },
    {
      "BOEDGBKEFNH": {
        "x": 2.510385274887085,
        "z": -2.557508945465088
      },
      "rotation": {
        "y": 313.96710205078125
      }
    },
    {
      "BOEDGBKEFNH": {
        "x": 1.287157416343689,
        "z": 2.759167432785034
      },
      "rotation": {
        "y": 180.19143676757812
      }
    },
    {
      "BOEDGBKEFNH": {
        "x": 2.9166698455810547,
        "z": 1.3175463676452637
      },
      "rotation": {
        "y": 269.388427734375
      }
    }
  ]
}