{
  "radius": 32.0,
  "height": 25.0,
  "furnitureUnits": [
    {
      "furnitureID": 370808,
      "BOEDGBKEFNH": {
        "x": 8.086009979248047,
        "z": 19.17000961303711
      },
      "rotation": {
        "y": 180.0
      }
    },
    {
      "furnitureID": 360434,
      "BOEDGBKEFNH": {
        "x": 5.685985565185547,
        "z": 10.18801498413086
      }
    },
    {
      "furnitureID": 360434,
      "BOEDGBKEFNH": {
        "x": 10.885997772216797,
        "z": 10.18801498413086
      }
    },
    {
      "furnitureID": 373213,
      "BOEDGBKEFNH": {
        "x": -10.684009552001953,
        "z": 9.94698715209961
      }
    },
    {
      "furnitureID": 373213,
      "BOEDGBKEFNH": {
        "x": -5.684009552001953,
        "z": 9.94698715209961
      },
      "rotation": {
        "y": 270.0
      }
    },
    {
      "furnitureID": 370800,
      "BOEDGBKEFNH": {
        "x": -8.864002227783203,
        "z": 16.77999496459961
      },
      "rotation": {
        "y": -3.2443396776216105e-05
      }
    },
    {
      "furnitureID": 360433,
      "BOEDGBKEFNH": {
        "x": -3.652027130126953,
        "z": 0.4099999964237213
      }
    },
    {
      "furnitureID": 370813,
      "BOEDGBKEFNH": {
        "x": -8.103015899658203,
        "z": -3.3299899101257324
      },
      "rotation": {
        "y": -5.4641506721964106e-05
      }
    },
    {
      "furnitureID": 370807,
      "BOEDGBKEFNH": {
        "x": -9.083972930908203,
        "z": -14.909976959228516
      },
      "rotation": {
        "y": 270.0
      }
    },
    {
      "furnitureID": 370806,
      "BOEDGBKEFNH": {
        "x": 5.635997772216797,
        "z": -6.829989910125732
      }
    },
    {
      "furnitureID": 374209,
      "BOEDGBKEFNH": {
        "x": 6.695000171661377,
        "z": -19.95199966430664
      },
      "rotation": {
        "y": 259.1637878417969
      }
    },
    {
      "furnitureID": 374318,
      "BOEDGBKEFNH": {
        "x": 5.219066619873047,
        "z": -20.234745025634766
      },
      "rotation": {
        "y": 349.163818359375
      }
    },
    {
      "furnitureID": 370813,
      "BOEDGBKEFNH": {
        "x": -1.4239997863769531,
        "z": -17.799991607666016
      },
      "rotation": {
        "y": 89.99993896484375
      }
    },
    {
      "furnitureID": 374209,
      "BOEDGBKEFNH": {
        "x": 3.7039999961853027,
        "z": -20.524999618530273
      },
      "rotation": {
        "y": 79.16383361816406
      }
    },
    {
      "furnitureID": 374210,
      "BOEDGBKEFNH": {
        "x": 5.725963592529297,
        "z": -13.687992095947266
      },
      "rotation": {
        "y": 180.00003051757812
      }
    },
    {
      "furnitureID": 360433,
      "BOEDGBKEFNH": {
        "x": 2.299999952316284,
        "z": -13.749992370605469
      }
    },
    {
      "furnitureID": 374210,
      "BOEDGBKEFNH": {
        "x": 9.347972869873047,
        "z": -13.80099868774414
      },
      "rotation": {
        "y": 176.1525421142578
      }
    },
    {
      "furnitureID": 360433,
      "BOEDGBKEFNH": {
        "x": 11.206005096435547,
        "z": -13.750003814697266
      }
    },
    {
      "furnitureID": 374209,
      "BOEDGBKEFNH": {
        "x": 7.8520002365112305,
        "z": -18.957000732421875
      },
      "rotation": {
        "y": 12.690305709838867
      }
    },
    {
      "furnitureID": 374318,
      "BOEDGBKEFNH": {
        "x": 8.185680389404297,
        "z": -17.476016998291016
      },
      "rotation": {
        "y": 102.69033813476562
      }
    },
    {
      "furnitureID": 374209,
      "BOEDGBKEFNH": {
        "x": 8.515999794006348,
        "z": -16.009000778198242
      },
      "rotation": {
        "y": 192.6903533935547
      }
    },
    {
      "furnitureID": 373512,
      "BOEDGBKEFNH": {
        "x": 3.631969451904297,
        "z": -14.28598403930664
      },
      "rotation": {
        "y": 171.06866455078125
      }
    },
    {
      "furnitureID": 373511,
      "BOEDGBKEFNH": {
        "x": 7.504039764404297,
        "z": -13.895999908447266
      },
      "rotation": {
        "y": 187.8112030029297
      }
    }
  ],
  "npcSpawnPoints": [
    {
      "BOEDGBKEFNH": {
        "x": -14.369384765625,
        "z": 0.9451904296875
      },
      "rotation": {
        "y": 112.86181640625
      }
    },
    {
      "BOEDGBKEFNH": {
        "x": 5.76885986328125,
        "z": -15.56011962890625
      },
      "rotation": {
        "y": 196.65447998046875
      }
    },
    {
      "BOEDGBKEFNH": {
        "x": 2.43896484375,
        "z": -23.4892578125
      },
      "rotation": {
        "y": 20.883312225341797
      }
    },
    {
      "BOEDGBKEFNH": {
        "x": 11.1435546875,
        "z": 6.3770751953125
      },
      "rotation": {
        "y": 328.0013732910156
      }
    },
    {
      "BOEDGBKEFNH": {
        "x": 6.31982421875,
        "z": 5.6981201171875
      },
      "rotation": {
        "y": 165.0211639404297
      }
    }
  ]
}