{
  "radius": 26.0,
  "height": 10.399999618530273,
  "furnitureUnits": [
    {
      "furnitureID": 373423,
      "BOEDGBKEFNH": {
        "x": 8.383999824523926,
        "z": 5.939000129699707
      },
      "rotation": {
        "x": 1.7517239214726033e-08,
        "y": 97.92427062988281,
        "z": 2.012439992427062e-08
      }
    },
    {
      "furnitureID": 371136,
      "rotation": {
        "y": 315.0
      }
    },
    {
      "furnitureID": 374210,
      "BOEDGBKEFNH": {
        "x": -4.9079999923706055,
        "z": 18.458999633789062
      },
      "rotation": {
        "x": 4.9097398147068816e-08,
        "y": 169.1819610595703,
        "z": 1.2934994231272867e-07
      }
    },
    {
      "furnitureID": 373214,
      "BOEDGBKEFNH": {
        "x": -8.798999786376953,
        "z": 16.573999404907227
      },
      "rotation": {
        "y": 332.0444030761719
      }
    },
    {
      "furnitureID": 373214,
      "BOEDGBKEFNH": {
        "x": 7.3480000495910645,
        "z": 17.21299934387207
      },
      "rotation": {
        "y": 23.138565063476562
      }
    },
    {
      "furnitureID": 374114,
      "BOEDGBKEFNH": {
        "x": -14.14215087890625,
        "z": 14.14215087890625
      },
      "rotation": {
        "y": 315.0000305175781
      }
    },
    {
      "furnitureID": 374114,
      "BOEDGBKEFNH": {
        "x": -9.380000114440918,
        "z": 17.670000076293945
      },
      "rotation": {
        "y": 332.0444030761719
      }
    },
    {
      "furnitureID": 374114,
      "BOEDGBKEFNH": {
        "x": -3.756103515625,
        "z": 19.646636962890625
      },
      "rotation": {
        "y": 349.1819763183594
      }
    },
    {
      "furnitureID": 374114,
      "BOEDGBKEFNH": {
        "x": 2.16656494140625,
        "z": 19.884124755859375
      },
      "rotation": {
        "y": 6.226347923278809
      }
    },
    {
      "furnitureID": 374114,
      "BOEDGBKEFNH": {
        "x": 7.8525390625,
        "z": 18.395538330078125
      },
      "rotation": {
        "y": 23.138565063476562
      }
    },
    {
      "furnitureID": 374114,
      "BOEDGBKEFNH": {
        "x": 12.89776611328125,
        "z": 15.284393310546875
      },
      "rotation": {
        "y": 40.18290710449219
      }
    },
    {
      "furnitureID": 374114,
      "BOEDGBKEFNH": {
        "x": 18.40999984741211,
        "z": 13.3100004196167
      }
    },
    {
      "furnitureID": 374114,
      "BOEDGBKEFNH": {
        "x": 18.410015106201172,
        "y": 7.739863576716743e-06,
        "z": -13.15999984741211
      }
    },
    {
      "furnitureID": 374114,
      "BOEDGBKEFNH": {
        "x": 12.966631889343262,
        "y": 0.08634992688894272,
        "z": -15.226898193359375
      },
      "rotation": {
        "y": 319.5840148925781
      }
    },
    {
      "furnitureID": 374114,
      "BOEDGBKEFNH": {
        "x": 7.934150218963623,
        "y": 0.052836645394563675,
        "z": -18.358734130859375
      },
      "rotation": {
        "y": 336.62799072265625
      }
    },
    {
      "furnitureID": 374114,
      "BOEDGBKEFNH": {
        "x": 2.1699347496032715,
        "y": 0.014450454153120518,
        "z": -19.879638671875
      },
      "rotation": {
        "y": 353.7650146484375
      }
    },
    {
      "furnitureID": 374114,
      "BOEDGBKEFNH": {
        "x": -3.7526633739471436,
        "y": -0.024990469217300415,
        "z": -19.64288330078125
      },
      "rotation": {
        "y": 10.809002876281738
      }
    },
    {
      "furnitureID": 374114,
      "BOEDGBKEFNH": {
        "x": -14.089897155761719,
        "y": -0.09383019804954529,
        "z": -14.195098876953125
      },
      "rotation": {
        "y": 44.764991760253906
      }
    },
    {
      "furnitureID": 374114,
      "BOEDGBKEFNH": {
        "x": -9.309913635253906,
        "y": -0.0619983933866024,
        "z": -17.699462890625
      },
      "rotation": {
        "y": 27.72099494934082
      }
    },
    {
      "furnitureID": 374210,
      "BOEDGBKEFNH": {
        "x": 0.704964280128479,
        "y": 0.004987923428416252,
        "z": -19.13301658630371
      },
      "rotation": {
        "y": 353.7650146484375
      }
    },
    {
      "furnitureID": 374210,
      "BOEDGBKEFNH": {
        "x": -2.2690322399139404,
        "y": -3.847258994937874e-06,
        "z": 18.963043212890625
      },
      "rotation": {
        "x": 5.161243166185159e-08,
        "y": 169.1819610595703,
        "z": 1.5591155033689574e-07
      }
    },
    {
      "furnitureID": 374210,
      "BOEDGBKEFNH": {
        "x": 0.7610031962394714,
        "y": 1.7910357428263524e-06,
        "z": 19.030975341796875
      },
      "rotation": {
        "x": 5.2750199763806904e-09,
        "y": 186.226318359375,
        "z": 2.4076561544461583e-07
      }
    },
    {
      "furnitureID": 373214,
      "BOEDGBKEFNH": {
        "x": -8.71399974822998,
        "y": -0.057999998331069946,
        "z": -16.565000534057617
      },
      "rotation": {
        "y": 27.72099494934082
      }
    },
    {
      "furnitureID": 373214,
      "BOEDGBKEFNH": {
        "x": 7.420000076293945,
        "y": 0.05000000074505806,
        "z": -17.170000076293945
      },
      "rotation": {
        "y": 336.62799072265625
      }
    },
    {
      "furnitureID": 374210,
      "BOEDGBKEFNH": {
        "x": 3.4510042667388916,
        "y": 1.3570340797741665e-06,
        "z": 18.738006591796875
      },
      "rotation": {
        "x": 5.2750199763806904e-09,
        "y": 186.226318359375,
        "z": 2.4076561544461583e-07
      }
    },
    {
      "furnitureID": 374210,
      "BOEDGBKEFNH": {
        "x": 3.365000009536743,
        "y": 0.023000000044703484,
        "z": -18.841999053955078
      },
      "rotation": {
        "y": 353.7650146484375
      }
    },
    {
      "furnitureID": 374210,
      "BOEDGBKEFNH": {
        "x": -4.947978973388672,
        "y": -0.036990758031606674,
        "z": -18.49199867248535
      },
      "rotation": {
        "y": 10.809002876281738
      }
    },
    {
      "furnitureID": 374210,
      "BOEDGBKEFNH": {
        "x": -2.309999942779541,
        "y": -0.019999999552965164,
        "z": -18.996000289916992
      },
      "rotation": {
        "y": 10.809002876281738
      }
    },
    {
      "furnitureID": 360433,
      "BOEDGBKEFNH": {
        "x": 16.04998016357422,
        "z": 12.3100004196167
      }
    },
    {
      "furnitureID": 360433,
      "BOEDGBKEFNH": {
        "x": 5.354000091552734,
        "z": 18.408000946044922
      },
      "rotation": {
        "y": 23.599647521972656
      }
    },
    {
      "furnitureID": 360433,
      "BOEDGBKEFNH": {
        "x": -6.833000183105469,
        "z": 17.805999755859375
      },
      "rotation": {
        "y": 332.04400634765625
      }
    },
    {
      "furnitureID": 360433,
      "BOEDGBKEFNH": {
        "x": 16.1560001373291,
        "z": -12.225000381469727
      }
    },
    {
      "furnitureID": 360433,
      "BOEDGBKEFNH": {
        "x": 5.409999847412109,
        "z": -18.360000610351562
      },
      "rotation": {
        "y": 336.62799072265625
      }
    },
    {
      "furnitureID": 360433,
      "BOEDGBKEFNH": {
        "x": -6.789999961853027,
        "z": -17.8700008392334
      },
      "rotation": {
        "y": 27.72099494934082
      }
    }
  ],
  "npcSpawnPoints": [
    {
      "BOEDGBKEFNH": {
        "x": -4.22760009765625,
        "z": -17.43914794921875
      },
      "rotation": {
        "y": 14.623767852783203
      }
    },
    {
      "BOEDGBKEFNH": {
        "x": -5.85791015625,
        "z": 7.63873291015625
      },
      "rotation": {
        "y": 346.91943359375
      }
    },
    {
      "BOEDGBKEFNH": {
        "x": 10.03851318359375,
        "z": 6.71807861328125
      },
      "rotation": {
        "y": 137.6400604248047
      }
    },
    {
      "BOEDGBKEFNH": {
        "x": -25.12908935546875,
        "z": -13.51177978515625
      }
    },
    {
      "BOEDGBKEFNH": {
        "x": 11.7596435546875,
        "z": 4.78338623046875
      },
      "rotation": {
        "y": 244.45880126953125
      }
    }
  ]
}