{
  "radius": 5.0,
  "height": 5.0,
  "furnitureUnits": [
    {
      "furnitureID": 361502,
      "BOEDGBKEFNH": {
        "x": 0.11688232421875,
        "z": 1.7428741455078125
      },
      "rotation": {
        "y": 179.9998321533203
      }
    },
    {
      "furnitureID": 370111,
      "BOEDGBKEFNH": {
        "x": 2.891108989715576,
        "y": 1.0069999694824219,
        "z": 1.0931339263916016
      },
      "rotation": {
        "y": 270.0
      },
      "parentIndex": 0
    },
    {
      "furnitureID": 363313,
      "BOEDGBKEFNH": {
        "x": -0.4440000057220459,
        "y": 1.0169999599456787,
        "z": 0.07100000232458115
      },
      "rotation": {
        "y": 359.8235168457031
      },
      "parentIndex": 0
    },
    {
      "furnitureID": 363316,
      "BOEDGBKEFNH": {
        "x": 0.1809999942779541,
        "y": 1.0019999742507935,
        "z": 0.4230000078678131
      },
      "rotation": {
        "x": 2.504478288756218e-06,
        "y": 270.0
      },
      "parentIndex": 0
    },
    {
      "furnitureID": 362108,
      "BOEDGBKEFNH": {
        "x": -3.441558837890625,
        "z": -2.7210006713867188
      },
      "rotation": {
        "y": 89.99983215332031
      }
    },
    {
      "furnitureID": 361315,
      "BOEDGBKEFNH": {
        "x": -1.8975677490234375,
        "z": -2.744983673095703
      },
      "rotation": {
        "y": 89.99983215332031
      }
    },
    {
      "furnitureID": 363207,
      "BOEDGBKEFNH": {
        "x": -0.9226906299591064,
        "y": 0.7699999809265137,
        "z": 0.18969297409057617
      },
      "parentIndex": 5
    },
    {
      "furnitureID": 363312,
      "BOEDGBKEFNH": {
        "x": 0.8077338933944702,
        "y": 0.765999972820282,
        "z": 0.17599153518676758
      },
      "rotation": {
        "y": 5.122642050991999e-06
      },
      "parentIndex": 5
    },
    {
      "furnitureID": 370113,
      "BOEDGBKEFNH": {
        "x": -0.6971282958984375,
        "z": 3.2370052337646484
      },
      "rotation": {
        "y": 179.9998321533203
      }
    },
    {
      "furnitureID": 370112,
      "BOEDGBKEFNH": {
        "x": -2.35882568359375,
        "z": 3.2370033264160156
      },
      "rotation": {
        "y": 179.9998321533203
      }
    },
    {
      "furnitureID": 362108,
      "BOEDGBKEFNH": {
        "x": 0.1379999965429306,
        "z": -0.6370000243186951
      },
      "rotation": {
        "y": -0.0001724622561596334
      }
    },
    {
      "furnitureID": 362108,
      "BOEDGBKEFNH": {
        "x": 1.6670000553131104,
        "z": 0.47099998593330383
      },
      "rotation": {
        "y": -0.00011099056428065524
      }
    }
  ],
  "npcSpawnPoints": [
    {
      "BOEDGBKEFNH": {
        "x": -0.41144585609436035,
        "z": -2.910482883453369
      },
      "rotation": {
        "y": 66.25173950195312
      }
    },
    {
      "BOEDGBKEFNH": {
        "x": 0.791837215423584,
        "z": 3.026409864425659
      },
      "rotation": {
        "y": 179.89979553222656
      }
    },
    {
      "BOEDGBKEFNH": {
        "x": -2.983585834503174,
        "z": 2.0618247985839844
      },
      "rotation": {
        "y": 134.44813537597656
      }
    },
    {
      "BOEDGBKEFNH": {
        "x": 2.288970947265625,
        "z": 3.083616256713867
      },
      "rotation": {
        "y": 215.7247314453125
      }
    },
    {
      "BOEDGBKEFNH": {
        "x": 3.493907928466797,
        "z": 0.28969693183898926
      },
      "rotation": {
        "y": 269.51617431640625
      }
    }
  ]
}