{
  "radius": 4.0,
  "height": 5.0,
  "furnitureUnits": [
    {
      "furnitureID": 362106,
      "BOEDGBKEFNH": {
        "x": -2.0,
        "z": -0.8500000238418579
      },
      "rotation": {
        "y": 86.88291931152344
      }
    },
    {
      "furnitureID": 361301,
      "BOEDGBKEFNH": {
        "x": -0.041999999433755875,
        "z": -0.16899999976158142
      },
      "rotation": {
        "y": 266.59814453125
      }
    },
    {
      "furnitureID": 363104,
      "BOEDGBKEFNH": {
        "x": 0.497325599193573,
        "y": 0.782989501953125,
        "z": 0.23444443941116333
      },
      "rotation": {
        "x": 2.5044780613825424e-06,
        "y": 93.40186309814453
      },
      "parentIndex": 1
    },
    {
      "furnitureID": 362106,
      "BOEDGBKEFNH": {
        "x": 1.600000023841858,
        "z": 1.2400000095367432
      },
      "rotation": {
        "y": 264.0101013183594
      }
    },
    {
      "furnitureID": 362106,
      "BOEDGBKEFNH": {
        "x": 1.659999966621399,
        "z": -0.6299999952316284
      },
      "rotation": {
        "y": 269.4897155761719
      }
    }
  ]
}