{
  "radius": 29.0,
  "height": 19.0,
  "furnitureUnits": [
    {
      "furnitureID": 370320,
      "BOEDGBKEFNH": {
        "x": -18.079999923706055,
        "z": -12.329999923706055
      }
    },
    {
      "furnitureID": 370729,
      "BOEDGBKEFNH": {
        "x": -0.2200002670288086,
        "z": -9.538936614990234
      },
      "rotation": {
        "y": 180.00001525878906
      }
    },
    {
      "furnitureID": 373360,
      "BOEDGBKEFNH": {
        "x": -18.979999542236328,
        "z": -17.34000015258789
      },
      "rotation": {
        "y": 321.55975341796875
      }
    },
    {
      "furnitureID": 370314,
      "BOEDGBKEFNH": {
        "x": -9.415998458862305,
        "z": 11.321063041687012
      },
      "rotation": {
        "y": 195.06552124023438
      }
    },
    {
      "furnitureID": 370315,
      "BOEDGBKEFNH": {
        "x": 6.449999809265137,
        "z": 15.12600040435791
      },
      "rotation": {
        "y": 211.6742706298828
      }
    },
    {
      "furnitureID": 372338,
      "BOEDGBKEFNH": {
        "x": -1.4760007858276367,
        "z": 16.941062927246094
      },
      "rotation": {
        "y": 88.23597717285156
      }
    },
    {
      "furnitureID": 360423,
      "BOEDGBKEFNH": {
        "x": 7.029010772705078,
        "z": 7.65000057220459
      }
    },
    {
      "furnitureID": 370719,
      "BOEDGBKEFNH": {
        "x": 18.248794555664062,
        "z": 2.001554489135742
      },
      "rotation": {
        "y": 90.0
      }
    },
    {
      "furnitureID": 360423,
      "BOEDGBKEFNH": {
        "x": 7.0290069580078125,
        "z": -4.033999443054199
      }
    },
    {
      "furnitureID": 370313,
      "BOEDGBKEFNH": {
        "x": 6.223992347717285,
        "z": 11.136004447937012
      },
      "rotation": {
        "y": 221.63925170898438
      }
    },
    {
      "furnitureID": 370311,
      "BOEDGBKEFNH": {
        "x": 3.9599926471710205,
        "z": 12.500008583068848
      },
      "rotation": {
        "y": 202.10389709472656
      }
    },
    {
      "furnitureID": 370321,
      "BOEDGBKEFNH": {
        "x": -14.680000305175781,
        "z": 13.281063079833984
      },
      "rotation": {
        "y": 201.982421875
      }
    }
  ],
  "npcSpawnPoints": [
    {
      "BOEDGBKEFNH": {
        "x": -19.852252960205078,
        "z": 1.671773910522461
      },
      "rotation": {
        "y": 94.81356811523438
      }
    },
    {
      "BOEDGBKEFNH": {
        "x": -14.926041603088379,
        "z": 4.425755500793457
      },
      "rotation": {
        "y": 106.5157470703125
      }
    },
    {
      "BOEDGBKEFNH": {
        "x": -4.538325309753418,
        "z": -3.519286870956421
      },
      "rotation": {
        "y": 52.20787811279297
      }
    },
    {
      "BOEDGBKEFNH": {
        "x": -14.867480278015137,
        "z": -0.9347376823425293
      },
      "rotation": {
        "y": 86.40248107910156
      }
    },
    {
      "BOEDGBKEFNH": {
        "x": -3.6064186096191406,
        "z": 4.592728137969971
      },
      "rotation": {
        "y": 141.85939025878906
      }
    }
  ]
}