{
  "radius": 42.20000076293945,
  "height": 5.0,
  "furnitureUnits": [
    {
      "furnitureID": 371214,
      "BOEDGBKEFNH": {
        "x": 27.237863540649414,
        "z": -8.696903228759766
      }
    },
    {
      "furnitureID": 372330,
      "BOEDGBKEFNH": {
        "x": -8.09000015258789,
        "z": -25.959999084472656
      },
      "rotation": {
        "y": 212.6637420654297
      }
    },
    {
      "furnitureID": 370617,
      "BOEDGBKEFNH": {
        "x": 6.134689807891846,
        "z": 26.15385627746582
      },
      "rotation": {
        "y": 270.0
      }
    },
    {
      "furnitureID": 370616,
      "BOEDGBKEFNH": {
        "x": -14.980000495910645
      }
    },
    {
      "furnitureID": 371214,
      "BOEDGBKEFNH": {
        "x": 27.237863540649414,
        "z": 8.696828842163086
      }
    },
    {
      "furnitureID": 371215,
      "BOEDGBKEFNH": {
        "x": 25.596017837524414,
        "z": 23.200000762939453
      }
    },
    {
      "furnitureID": 371213,
      "BOEDGBKEFNH": {
        "x": 27.119998931884766
      }
    },
    {
      "furnitureID": 371214,
      "BOEDGBKEFNH": {
        "x": 27.25,
        "z": 16.769872665405273
      }
    },
    {
      "furnitureID": 373126,
      "BOEDGBKEFNH": {
        "x": 19.110000610351562,
        "z": 15.550000190734863
      }
    },
    {
      "furnitureID": 371215,
      "BOEDGBKEFNH": {
        "x": 20.860000610351562,
        "z": 26.510000228881836
      },
      "rotation": {
        "y": 180.00033569335938
      }
    },
    {
      "furnitureID": 371215,
      "BOEDGBKEFNH": {
        "x": 17.549999237060547,
        "z": 31.25
      },
      "rotation": {
        "y": 0.000165632096468471
      }
    },
    {
      "furnitureID": 370617,
      "BOEDGBKEFNH": {
        "x": 6.134687900543213,
        "z": -26.313884735107422
      },
      "rotation": {
        "y": 270.0
      }
    },
    {
      "furnitureID": 372328,
      "BOEDGBKEFNH": {
        "x": 35.029998779296875,
        "z": -6.789999961853027
      },
      "rotation": {
        "y": 240.52783203125
      }
    },
    {
      "furnitureID": 373127,
      "BOEDGBKEFNH": {
        "x": 7.244734764099121,
        "z": 6.091850757598877
      },
      "rotation": {
        "y": 179.9998321533203
      }
    },
    {
      "furnitureID": 373127,
      "BOEDGBKEFNH": {
        "x": 7.2447404861450195,
        "z": -6.091858386993408
      },
      "rotation": {
        "y": 179.9998321533203
      }
    },
    {
      "furnitureID": 371214,
      "BOEDGBKEFNH": {
        "x": 27.237863540649414,
        "z": -16.719999313354492
      }
    },
    {
      "furnitureID": 372330,
      "BOEDGBKEFNH": {
        "x": 21.84000015258789,
        "z": 18.040000915527344
      },
      "rotation": {
        "y": 282.4024353027344
      }
    }
  ],
  "npcSpawnPoints": [
    {
      "BOEDGBKEFNH": {
        "x": 10.709108352661133,
        "z": 18.812299728393555
      },
      "rotation": {
        "y": 178.27377319335938
      }
    },
    {
      "BOEDGBKEFNH": {
        "x": 7.848118782043457,
        "z": -19.77617645263672
      },
      "rotation": {
        "y": 0.884117603302002
      }
    },
    {
      "BOEDGBKEFNH": {
        "x": 10.740501403808594,
        "z": -6.286136150360107
      },
      "rotation": {
        "y": 359.0244140625
      }
    },
    {
      "BOEDGBKEFNH": {
        "x": 23.686309814453125,
        "z": 6.841127872467041
      },
      "rotation": {
        "y": 269.40875244140625
      }
    },
    {
      "BOEDGBKEFNH": {
        "x": 32.63338851928711,
        "z": 6.404681205749512
      },
      "rotation": {
        "y": 180.3848876953125
      }
    }
  ]
}