{
  "radius": 5.0,
  "height": 5.0,
  "furnitureUnits": [
    {
      "furnitureID": 362304,
      "BOEDGBKEFNH": {
        "x": 0.7650063037872314,
        "z": -1.8090146780014038
      },
      "rotation": {
        "y": 269.99993896484375
      }
    },
    {
      "furnitureID": 363202,
      "BOEDGBKEFNH": {
        "x": 1.9740064144134521,
        "z": -2.200014591217041
      }
    },
    {
      "furnitureID": 361105,
      "BOEDGBKEFNH": {
        "x": -0.4471435546875,
        "z": 2.87701416015625
      },
      "rotation": {
        "x": -2.504478288756218e-06,
        "y": 179.99993896484375,
        "z": 2.9249888101878785e-12
      }
    },
    {
      "furnitureID": 361311,
      "BOEDGBKEFNH": {
        "x": -1.5879936218261719,
        "z": 0.4019853472709656
      },
      "rotation": {
        "y": 90.0
      }
    },
    {
      "furnitureID": 363305,
      "BOEDGBKEFNH": {
        "x": -0.5779951214790344,
        "y": 1.2650146484375,
        "z": -0.15199655294418335
      },
      "rotation": {
        "y": 240.00006103515625
      },
      "parentIndex": 3
    },
    {
      "furnitureID": 362204,
      "BOEDGBKEFNH": {
        "x": 0.4010063409805298,
        "y": 0.052000001072883606,
        "z": -2.757014751434326
      }
    },
    {
      "furnitureID": 363309,
      "BOEDGBKEFNH": {
        "x": -0.19901049137115479,
        "y": 0.7779865860939026,
        "z": -0.21899843215942383
      },
      "parentIndex": 5
    },
    {
      "furnitureID": 361401,
      "BOEDGBKEFNH": {
        "x": -1.118927001953125,
        "z": -1.82733154296875
      }
    }
  ]
}