{
  "radius": 5.0,
  "height": 5.0,
  "furnitureUnits": [
    {
      "furnitureID": 362101,
      "BOEDGBKEFNH": {
        "x": -2.3970000743865967,
        "y": 0.050999999046325684,
        "z": 0.43799999356269836
      },
      "rotation": {
        "y": 89.61680603027344
      }
    },
    {
      "furnitureID": 363202,
      "BOEDGBKEFNH": {
        "x": 2.364000082015991,
        "y": 0.05400000140070915,
        "z": 2.183000087738037
      }
    },
    {
      "furnitureID": 362106,
      "BOEDGBKEFNH": {
        "x": 1.9140000343322754,
        "y": 0.050999999046325684,
        "z": -0.9679999947547913
      }
    },
    {
      "furnitureID": 362201,
      "BOEDGBKEFNH": {
        "x": 0.029999999329447746,
        "y": 0.050999999046325684,
        "z": -2.0399999618530273
      }
    },
    {
      "furnitureID": 362301,
      "BOEDGBKEFNH": {
        "x": 0.188720703125,
        "z": 0.3546142578125
      }
    },
    {
      "furnitureID": 362101,
      "BOEDGBKEFNH": {
        "x": 0.11699999868869781,
        "y": 0.050994873046875,
        "z": 2.5989999771118164
      },
      "rotation": {
        "y": 181.56637573242188
      }
    }
  ]
}