{
  "radius": 5.0,
  "height": 5.0,
  "furnitureUnits": [
    {
      "furnitureID": 361403,
      "BOEDGBKEFNH": {
        "x": -2.038818359375,
        "z": 2.5638389587402344
      },
      "rotation": {
        "x": 2.5044785161298933e-06,
        "y": 89.99983215332031
      }
    },
    {
      "furnitureID": 361314,
      "BOEDGBKEFNH": {
        "x": 0.30300000309944153,
        "z": -0.9480000138282776
      },
      "rotation": {
        "x": -7.968177669681609e-06,
        "y": 89.99983215332031
      }
    },
    {
      "furnitureID": 363316,
      "BOEDGBKEFNH": {
        "x": 0.3169991075992584,
        "y": 0.5446161031723022,
        "z": -0.2950008511543274
      },
      "rotation": {
        "x": -5.634356512018712e-06,
        "y": 135.0000457763672,
        "z": 5.634347871819045e-06
      },
      "parentIndex": 1
    },
    {
      "furnitureID": 363206,
      "BOEDGBKEFNH": {
        "x": 0.023539336398243904,
        "y": 0.544615626335144,
        "z": 0.031194664537906647
      },
      "rotation": {
        "x": 2.361243839343885e-11,
        "y": 270.00018310546875,
        "z": -7.968177669681609e-06
      },
      "parentIndex": 1
    },
    {
      "furnitureID": 373325,
      "BOEDGBKEFNH": {
        "x": -1.5800000429153442,
        "z": -3.0999999046325684
      },
      "rotation": {
        "y": -0.0004815282882191241
      }
    },
    {
      "furnitureID": 370114,
      "BOEDGBKEFNH": {
        "x": 2.251190185546875,
        "z": 2.9418258666992188
      },
      "rotation": {
        "x": 2.504479425624595e-06,
        "y": 179.99966430664062,
        "z": 4.048529496673489e-14
      }
    },
    {
      "furnitureID": 362210,
      "BOEDGBKEFNH": {
        "x": 2.0470046997070312,
        "z": -0.9332965016365051
      },
      "rotation": {
        "y": 91.67418670654297
      }
    },
    {
      "furnitureID": 362216,
      "BOEDGBKEFNH": {
        "x": -3.046006441116333,
        "z": -0.49000120162963867
      },
      "rotation": {
        "x": 2.504479425624595e-06,
        "y": 270.00018310546875
      }
    },
    {
      "furnitureID": 362210,
      "BOEDGBKEFNH": {
        "x": -1.3839999437332153,
        "z": -0.8489999771118164
      },
      "rotation": {
        "y": 91.67418670654297
      }
    },
    {
      "furnitureID": 362210,
      "BOEDGBKEFNH": {
        "x": 0.29133257269859314,
        "z": 0.760250449180603
      },
      "rotation": {
        "y": 1.58062744140625
      }
    },
    {
      "furnitureID": 362210,
      "BOEDGBKEFNH": {
        "x": 0.3583196699619293,
        "z": -2.684908866882324
      },
      "rotation": {
        "y": 1.58062744140625
      }
    }
  ],
  "npcSpawnPoints": [
    {
      "BOEDGBKEFNH": {
        "x": 2.2890994548797607,
        "z": 1.7223262786865234
      },
      "rotation": {
        "y": 216.77137756347656
      }
    },
    {
      "BOEDGBKEFNH": {
        "x": -0.006362110376358032,
        "z": 2.8966031074523926
      },
      "rotation": {
        "y": 179.6236572265625
      }
    },
    {
      "BOEDGBKEFNH": {
        "x": 2.983208417892456,
        "z": -2.9092512130737305
      },
      "rotation": {
        "y": 312.18994140625
      }
    },
    {
      "BOEDGBKEFNH": {
        "x": -1.7111629247665405,
        "z": -2.022500991821289
      },
      "rotation": {
        "y": 49.56407928466797
      }
    },
    {
      "BOEDGBKEFNH": {
        "x": 3.223947525024414,
        "z": -0.15780550241470337
      },
      "rotation": {
        "y": 269.9039306640625
      }
    }
  ]
}