{
  "luaDataPath": "",
  "entityBan": "",
  "disableNpcLod": true,
  "startFade": {
    "startFadeInDuration": 0.5,
    "startFadeOutDuration": 0.5
  },
  "endFade": {
    "startFadeOutDuration": 0.0
  },
  "actors": [
    {
      "alias": "Avatar",
      "visible": true,
      "bornPointName": "WQ-7226504-NPC",
      "relativePosNpcAlias": "",
      "_bindMovingTargetKey": ""
    },
    {
      "configID": 20485,
      "alias": "20485",
      "visible": true,
      "bornPointName": "",
      "relativePosNpcAlias": "",
      "_bindMovingTargetKey": ""
    },
    {
      "configID": 1005,
      "alias": "1005",
      "visible": true,
      "bornPointName": "",
      "useRelativePos": true,
      "relativePos": {
        "x": -0.5,
        "z": 0.5
      },
      "removeActorType": "REMOVE_WITH_DISAPPEAR",
      "relativePosNpcAlias": "",
      "_bindMovingTargetKey": ""
    }
  ],
  "group": [
    [
      {
        "$type": "MoleMole.Config.ConfigTimeProtectAction",
        "type": "TIME_PROTECT",
        "duration": 0.10000000149011612
      },
      {
        "$type": "FJKIHHKJLMJ",
        "type": "CAMERA_FOCUS",
        "duration": 0.10000000149011612,
        "targetNpcAlias": "",
        "KJOEFBPOIIH": "",
        "IICFKKEBIEC": "",
        "EGEHEJEBLBJ": ""
      }
    ],
    [
      {
        "$type": "LJLMDHDCAMK",
        "type": "LOOK_AT",
        "aliasList": [
          "1005"
        ],
        "enableHead": true,
        "headTurnTime": 0.5,
        "targetNpcAlias": "20485",
        "targetNpcLookAtPoint": "",
        "OAFJBHJHLJG": ""
      },
      {
        "$type": "PKKMAMONGEO",
        "type": "DIALOG",
        "aliasList": [
          "20485"
        ],
        "dialogID": 722650801,
        "protectTime": 0.5
      },
      {
        "$type": "LJLMDHDCAMK",
        "type": "LOOK_AT",
        "aliasList": [
          "Avatar"
        ],
        "enableHead": true,
        "headTurnTime": 0.5,
        "targetNpcAlias": "20485",
        "targetNpcLookAtPoint": "",
        "OAFJBHJHLJG": ""
      }
    ],
    [
      {
        "$type": "PKKMAMONGEO",
        "type": "DIALOG",
        "aliasList": [
          "1005"
        ],
        "dialogID": 722650802,
        "protectTime": 0.5
      },
      {
        "$type": "HDGKHDNFMIM",
        "type": "DIALOG_SELECT",
        "delayTime": 0.4000000059604645,
        "aliasList": [
          "Avatar"
        ],
        "dialogIDList": [
          722650803
        ],
        "grpIDList": [
          2877742332
        ],
        "useGrpId": true
      }
    ],
    [
      {
        "$type": "PKKMAMONGEO",
        "type": "DIALOG",
        "aliasList": [
          "20485"
        ],
        "dialogID": 722650804,
        "protectTime": 0.5
      }
    ],
    [
      {
        "$type": "PKKMAMONGEO",
        "type": "DIALOG",
        "aliasList": [
          "20485"
        ],
        "dialogID": 722650805,
        "protectTime": 0.5
      },
      {
        "$type": "HDGKHDNFMIM",
        "type": "DIALOG_SELECT",
        "delayTime": 0.4000000059604645,
        "aliasList": [
          "Avatar"
        ],
        "dialogIDList": [
          722650806
        ],
        "grpIDList": [
          2877742334
        ],
        "useGrpId": true
      }
    ],
    [
      {
        "$type": "HDGKHDNFMIM",
        "type": "DIALOG_SELECT",
        "delayTime": 0.4000000059604645,
        "aliasList": [
          "Avatar"
        ],
        "dialogIDList": [
          722650807
        ],
        "grpIDList": [
          2877742335
        ],
        "useGrpId": true
      }
    ],
    [
      {
        "$type": "PKKMAMONGEO",
        "type": "DIALOG",
        "aliasList": [
          "20485"
        ],
        "dialogID": 722650808,
        "protectTime": 0.5
      }
    ],
    [
      {
        "$type": "PKKMAMONGEO",
        "type": "DIALOG",
        "aliasList": [
          "1005"
        ],
        "dialogID": 722650809,
        "protectTime": 0.5
      },
      {
        "$type": "HDGKHDNFMIM",
        "type": "DIALOG_SELECT",
        "delayTime": 0.4000000059604645,
        "aliasList": [
          "Avatar"
        ],
        "dialogIDList": [
          722650810,
          722650811
        ],
        "grpIDList": [
          2877742337,
          2877742337
        ],
        "useGrpId": true
      }
    ],
    [
      {
        "$type": "PKKMAMONGEO",
        "type": "DIALOG",
        "aliasList": [
          "20485"
        ],
        "dialogID": 722650812,
        "protectTime": 0.5
      },
      {
        "$type": "HDGKHDNFMIM",
        "type": "DIALOG_SELECT",
        "delayTime": 0.4000000059604645,
        "aliasList": [
          "Avatar"
        ],
        "dialogIDList": [
          722650813
        ],
        "grpIDList": [
          3310666327
        ],
        "useGrpId": true
      }
    ],
    [
      {
        "$type": "PKKMAMONGEO",
        "type": "DIALOG",
        "aliasList": [
          "1005"
        ],
        "dialogID": 722650814,
        "protectTime": 0.5
      }
    ],
    [
      {
        "$type": "PKKMAMONGEO",
        "type": "DIALOG",
        "aliasList": [
          "20485"
        ],
        "dialogID": 722650815,
        "protectTime": 0.5
      },
      {
        "$type": "HDGKHDNFMIM",
        "type": "DIALOG_SELECT",
        "delayTime": 0.4000000059604645,
        "aliasList": [
          "Avatar"
        ],
        "dialogIDList": [
          722650816,
          722650818
        ],
        "grpIDList": [
          3310666329,
          3310666330
        ],
        "useGrpId": true
      }
    ],
    [
      {
        "$type": "PKKMAMONGEO",
        "type": "DIALOG",
        "aliasList": [
          "1005"
        ],
        "dialogID": 722650817,
        "protectTime": 0.5
      }
    ],
    [
      {
        "$type": "PKKMAMONGEO",
        "type": "DIALOG",
        "aliasList": [
          "1005"
        ],
        "dialogID": 722650819,
        "protectTime": 0.5
      }
    ],
    [
      {
        "$type": "PKKMAMONGEO",
        "type": "DIALOG",
        "aliasList": [
          "20485"
        ],
        "dialogID": 722650820,
        "protectTime": 0.5
      }
    ],
    [
      {
        "$type": "PKKMAMONGEO",
        "type": "DIALOG",
        "aliasList": [
          "20485"
        ],
        "dialogID": 722650821,
        "protectTime": 0.5
      }
    ],
    [
      {
        "$type": "PKKMAMONGEO",
        "type": "DIALOG",
        "aliasList": [
          "20485"
        ],
        "dialogID": 722650822,
        "protectTime": 0.5
      }
    ],
    [
      {
        "$type": "PKKMAMONGEO",
        "type": "DIALOG",
        "aliasList": [
          "1005"
        ],
        "dialogID": 722650823,
        "protectTime": 0.5
      },
      {
        "$type": "HDGKHDNFMIM",
        "type": "DIALOG_SELECT",
        "delayTime": 0.4000000059604645,
        "aliasList": [
          "Avatar"
        ],
        "dialogIDList": [
          722650824,
          722650825
        ],
        "grpIDList": [
          3310666335,
          3310666335
        ],
        "useGrpId": true
      }
    ],
    [
      {
        "$type": "PKKMAMONGEO",
        "type": "DIALOG",
        "aliasList": [
          "20485"
        ],
        "dialogID": 722650826,
        "protectTime": 0.5
      }
    ],
    [
      {
        "$type": "PKKMAMONGEO",
        "type": "DIALOG",
        "aliasList": [
          "20485"
        ],
        "dialogID": 722650827,
        "protectTime": 0.5
      }
    ],
    [
      {
        "$type": "PKKMAMONGEO",
        "type": "DIALOG",
        "aliasList": [
          "20485"
        ],
        "dialogID": 722650828,
        "protectTime": 0.5
      }
    ],
    [
      {
        "$type": "PKKMAMONGEO",
        "type": "DIALOG",
        "aliasList": [
          "20485"
        ],
        "dialogID": 722650829,
        "protectTime": 0.5
      }
    ],
    [
      {
        "$type": "PKKMAMONGEO",
        "type": "DIALOG",
        "aliasList": [
          "20485"
        ],
        "dialogID": 722650830,
        "protectTime": 0.5
      }
    ],
    [
      {
        "$type": "PKKMAMONGEO",
        "type": "DIALOG",
        "aliasList": [
          "1005"
        ],
        "dialogID": 722650831,
        "protectTime": 0.5
      }
    ],
    [
      {
        "$type": "PKKMAMONGEO",
        "type": "DIALOG",
        "aliasList": [
          "20485"
        ],
        "dialogID": 722650832,
        "protectTime": 0.5
      }
    ],
    [
      {
        "$type": "PKKMAMONGEO",
        "type": "DIALOG",
        "aliasList": [
          "1005"
        ],
        "dialogID": 722650833,
        "protectTime": 0.5
      }
    ],
    [
      {
        "$type": "PKKMAMONGEO",
        "type": "DIALOG",
        "aliasList": [
          "20485"
        ],
        "dialogID": 722650834,
        "protectTime": 0.5
      }
    ],
    [
      {
        "$type": "PKKMAMONGEO",
        "type": "DIALOG",
        "aliasList": [
          "20485"
        ],
        "dialogID": 722650835,
        "protectTime": 0.5
      }
    ],
    [
      {
        "$type": "PKKMAMONGEO",
        "type": "DIALOG",
        "aliasList": [
          "1005"
        ],
        "dialogID": 722650836,
        "protectTime": 0.5
      },
      {
        "$type": "HDGKHDNFMIM",
        "type": "DIALOG_SELECT",
        "delayTime": 0.4000000059604645,
        "aliasList": [
          "Avatar"
        ],
        "dialogIDList": [
          722650837
        ],
        "grpIDList": [
          3310666367
        ],
        "useGrpId": true
      }
    ],
    [
      {
        "$type": "PKKMAMONGEO",
        "type": "DIALOG",
        "aliasList": [
          "20485"
        ],
        "dialogID": 722650838,
        "protectTime": 0.5
      },
      {
        "$type": "HDGKHDNFMIM",
        "type": "DIALOG_SELECT",
        "delayTime": 0.4000000059604645,
        "aliasList": [
          "Avatar"
        ],
        "dialogIDList": [
          722650839
        ],
        "grpIDList": [
          3310666389
        ],
        "useGrpId": true
      }
    ],
    [
      {
        "$type": "PKKMAMONGEO",
        "type": "DIALOG",
        "aliasList": [
          "1005"
        ],
        "dialogID": 722650840,
        "protectTime": 0.5
      },
      {
        "$type": "HDGKHDNFMIM",
        "type": "DIALOG_SELECT",
        "delayTime": 0.4000000059604645,
        "aliasList": [
          "Avatar"
        ],
        "dialogIDList": [
          722650841
        ],
        "grpIDList": [
          3310666390
        ],
        "useGrpId": true
      }
    ],
    [
      {
        "$type": "PKKMAMONGEO",
        "type": "DIALOG",
        "aliasList": [
          "20485"
        ],
        "dialogID": 722650842,
        "protectTime": 0.5
      }
    ],
    [
      {
        "$type": "PKKMAMONGEO",
        "type": "DIALOG",
        "aliasList": [
          "20485"
        ],
        "dialogID": 722650843,
        "protectTime": 0.5
      }
    ],
    [
      {
        "$type": "PKKMAMONGEO",
        "type": "DIALOG",
        "aliasList": [
          "20485"
        ],
        "dialogID": 722650844,
        "protectTime": 0.5
      }
    ],
    [
      {
        "$type": "PKKMAMONGEO",
        "type": "DIALOG",
        "aliasList": [
          "20485"
        ],
        "dialogID": 722650845,
        "protectTime": 0.5
      }
    ],
    [
      {
        "$type": "PKKMAMONGEO",
        "type": "DIALOG",
        "aliasList": [
          "20485"
        ],
        "dialogID": 722650846,
        "protectTime": 0.5
      }
    ],
    [
      {
        "$type": "PKKMAMONGEO",
        "type": "DIALOG",
        "aliasList": [
          "20485"
        ],
        "dialogID": 722650847,
        "protectTime": 0.5
      },
      {
        "$type": "HDGKHDNFMIM",
        "type": "DIALOG_SELECT",
        "delayTime": 0.4000000059604645,
        "aliasList": [
          "Avatar"
        ],
        "dialogIDList": [
          722650848
        ],
        "grpIDList": [
          3310666396
        ],
        "useGrpId": true
      }
    ],
    [
      {
        "$type": "PKKMAMONGEO",
        "type": "DIALOG",
        "aliasList": [
          "1005"
        ],
        "dialogID": 722650849,
        "protectTime": 0.5
      }
    ],
    [
      {
        "$type": "PKKMAMONGEO",
        "type": "DIALOG",
        "aliasList": [
          "20485"
        ],
        "dialogID": 722650850,
        "protectTime": 0.5
      }
    ],
    [
      {
        "$type": "PKKMAMONGEO",
        "type": "DIALOG",
        "aliasList": [
          "20485"
        ],
        "dialogID": 722650851,
        "protectTime": 0.5
      }
    ],
    [
      {
        "$type": "PKKMAMONGEO",
        "type": "DIALOG",
        "aliasList": [
          "1005"
        ],
        "dialogID": 722650852,
        "protectTime": 0.5
      }
    ],
    [
      {
        "$type": "PKKMAMONGEO",
        "type": "DIALOG",
        "aliasList": [
          "1005"
        ],
        "dialogID": 722650853,
        "protectTime": 0.5
      },
      {
        "$type": "HDGKHDNFMIM",
        "type": "DIALOG_SELECT",
        "delayTime": 0.4000000059604645,
        "aliasList": [
          "Avatar"
        ],
        "dialogIDList": [
          722650854
        ],
        "grpIDList": [
          3310666422
        ],
        "useGrpId": true
      }
    ],
    [
      {
        "$type": "PKKMAMONGEO",
        "type": "DIALOG",
        "aliasList": [
          "1005"
        ],
        "dialogID": 722650855,
        "protectTime": 0.5
      },
      {
        "$type": "HDGKHDNFMIM",
        "type": "DIALOG_SELECT",
        "delayTime": 0.4000000059604645,
        "aliasList": [
          "Avatar"
        ],
        "dialogIDList": [
          722650856
        ],
        "grpIDList": [
          3310666423
        ],
        "useGrpId": true
      }
    ],
    [
      {
        "$type": "PKKMAMONGEO",
        "type": "DIALOG",
        "aliasList": [
          "1005"
        ],
        "dialogID": 722650857,
        "protectTime": 0.5
      }
    ],
    [
      {
        "$type": "PKKMAMONGEO",
        "type": "DIALOG",
        "aliasList": [
          "20485"
        ],
        "dialogID": 722650858,
        "protectTime": 0.5
      }
    ],
    [
      {
        "$type": "PKKMAMONGEO",
        "type": "DIALOG",
        "aliasList": [
          "1005"
        ],
        "dialogID": 722650859,
        "protectTime": 0.5
      }
    ],
    [
      {
        "$type": "PKKMAMONGEO",
        "type": "DIALOG",
        "aliasList": [
          "1005"
        ],
        "dialogID": 722650860,
        "protectTime": 0.5
      }
    ],
    [
      {
        "$type": "PKKMAMONGEO",
        "type": "DIALOG",
        "aliasList": [
          "20485"
        ],
        "dialogID": 722650861,
        "protectTime": 0.5
      }
    ],
    [
      {
        "$type": "PKKMAMONGEO",
        "type": "DIALOG",
        "aliasList": [
          "20485"
        ],
        "dialogID": 722650862,
        "protectTime": 0.5
      }
    ],
    [
      {
        "$type": "PKKMAMONGEO",
        "type": "DIALOG",
        "aliasList": [
          "20485"
        ],
        "dialogID": 722650863,
        "protectTime": 0.5
      }
    ],
    [
      {
        "$type": "PKKMAMONGEO",
        "type": "DIALOG",
        "aliasList": [
          "1005"
        ],
        "dialogID": 722650864,
        "protectTime": 0.5
      },
      {
        "$type": "HDGKHDNFMIM",
        "type": "DIALOG_SELECT",
        "delayTime": 0.4000000059604645,
        "aliasList": [
          "Avatar"
        ],
        "dialogIDList": [
          722650865
        ],
        "grpIDList": [
          3310666452
        ],
        "useGrpId": true
      }
    ],
    [
      {
        "$type": "PKKMAMONGEO",
        "type": "DIALOG",
        "aliasList": [
          "1005"
        ],
        "dialogID": 722650866,
        "protectTime": 0.5
      }
    ],
    [
      {
        "$type": "PKKMAMONGEO",
        "type": "DIALOG",
        "aliasList": [
          "20485"
        ],
        "dialogID": 722650867,
        "protectTime": 0.5
      }
    ],
    [
      {
        "$type": "PKKMAMONGEO",
        "type": "DIALOG",
        "aliasList": [
          "20485"
        ],
        "dialogID": 722650868,
        "protectTime": 0.5
      }
    ],
    [
      {
        "$type": "MoleMole.Config.ConfigSimpleBlackScreenAction",
        "type": "SIMPLE_BLACK_SCREEN",
        "duration": 1.0,
        "durationToBlack": 0.5,
        "durationKeepBlack": 1.0,
        "durationFromBlack": 0.5,
        "textMapID": "",
        "useTextFade": true
      },
      {
        "$type": "MoleMole.Config.ConfigVisibleInterAction",
        "type": "VISIBLE",
        "delayTime": 0.5,
        "aliasList": [
          "20485"
        ],
        "_extraParam": ""
      }
    ],
    [
      {
        "$type": "PKKMAMONGEO",
        "type": "DIALOG",
        "aliasList": [
          "1005"
        ],
        "dialogID": 722650870,
        "protectTime": 0.5
      },
      {
        "$type": "MoleMole.Config.ConfigVisibleInterAction",
        "type": "VISIBLE",
        "aliasList": [
          "20485"
        ],
        "_extraParam": ""
      }
    ],
    [
      {
        "$type": "MoleMole.Config.ConfigVisibleInterAction",
        "type": "VISIBLE",
        "aliasList": [
          "20485"
        ],
        "_extraParam": ""
      },
      {
        "$type": "MoleMole.Config.ConfigTimeProtectAction",
        "type": "TIME_PROTECT",
        "duration": 0.10000000149011612
      }
    ]
  ],
  "groupId": [
    {
      "grpId": 2877742329,
      "nextGrpId": 2877742330
    },
    {
      "index": 1,
      "grpId": 2877742330,
      "nextGrpId": 2877742331
    },
    {
      "index": 2,
      "grpId": 2877742331,
      "nextGrpId": 2877742332
    },
    {
      "index": 3,
      "grpId": 2877742332,
      "nextGrpId": 2877742333
    },
    {
      "index": 4,
      "grpId": 2877742333,
      "nextGrpId": 2877742334
    },
    {
      "index": 5,
      "grpId": 2877742334,
      "nextGrpId": 2877742335
    },
    {
      "index": 6,
      "grpId": 2877742335,
      "nextGrpId": 2877742336
    },
    {
      "index": 7,
      "grpId": 2877742336,
      "nextGrpId": 2877742337
    },
    {
      "index": 8,
      "grpId": 2877742337,
      "nextGrpId": 3310666327
    },
    {
      "index": 9,
      "grpId": 3310666327,
      "nextGrpId": 3310666328
    },
    {
      "index": 10,
      "grpId": 3310666328,
      "nextGrpId": 3310666329
    },
    {
      "index": 11,
      "grpId": 3310666329,
      "nextGrpId": 3310666330
    },
    {
      "index": 12,
      "grpId": 3310666330,
      "nextGrpId": 3310666331
    },
    {
      "index": 13,
      "grpId": 3310666331,
      "nextGrpId": 3310666332
    },
    {
      "index": 14,
      "grpId": 3310666332,
      "nextGrpId": 3310666333
    },
    {
      "index": 15,
      "grpId": 3310666333,
      "nextGrpId": 3310666334
    },
    {
      "index": 16,
      "grpId": 3310666334,
      "nextGrpId": 3310666335
    },
    {
      "index": 17,
      "grpId": 3310666335,
      "nextGrpId": 3310666336
    },
    {
      "index": 18,
      "grpId": 3310666336,
      "nextGrpId": 3310666358
    },
    {
      "index": 19,
      "grpId": 3310666358,
      "nextGrpId": 3310666359
    },
    {
      "index": 20,
      "grpId": 3310666359,
      "nextGrpId": 3310666360
    },
    {
      "index": 21,
      "grpId": 3310666360,
      "nextGrpId": 3310666361
    },
    {
      "index": 22,
      "grpId": 3310666361,
      "nextGrpId": 3310666362
    },
    {
      "index": 23,
      "grpId": 3310666362,
      "nextGrpId": 3310666363
    },
    {
      "index": 24,
      "grpId": 3310666363,
      "nextGrpId": 3310666364
    },
    {
      "index": 25,
      "grpId": 3310666364,
      "nextGrpId": 3310666365
    },
    {
      "index": 26,
      "grpId": 3310666365,
      "nextGrpId": 3310666366
    },
    {
      "index": 27,
      "grpId": 3310666366,
      "nextGrpId": 3310666367
    },
    {
      "index": 28,
      "grpId": 3310666367,
      "nextGrpId": 3310666389
    },
    {
      "index": 29,
      "grpId": 3310666389,
      "nextGrpId": 3310666390
    },
    {
      "index": 30,
      "grpId": 3310666390,
      "nextGrpId": 3310666391
    },
    {
      "index": 31,
      "grpId": 3310666391,
      "nextGrpId": 3310666392
    },
    {
      "index": 32,
      "grpId": 3310666392,
      "nextGrpId": 3310666393
    },
    {
      "index": 33,
      "grpId": 3310666393,
      "nextGrpId": 3310666394
    },
    {
      "index": 34,
      "grpId": 3310666394,
      "nextGrpId": 3310666395
    },
    {
      "index": 35,
      "grpId": 3310666395,
      "nextGrpId": 3310666396
    },
    {
      "index": 36,
      "grpId": 3310666396,
      "nextGrpId": 3310666397
    },
    {
      "index": 37,
      "grpId": 3310666397,
      "nextGrpId": 3310666398
    },
    {
      "index": 38,
      "grpId": 3310666398,
      "nextGrpId": 3310666420
    },
    {
      "index": 39,
      "grpId": 3310666420,
      "nextGrpId": 3310666421
    },
    {
      "index": 40,
      "grpId": 3310666421,
      "nextGrpId": 3310666422
    },
    {
      "index": 41,
      "grpId": 3310666422,
      "nextGrpId": 3310666423
    },
    {
      "index": 42,
      "grpId": 3310666423,
      "nextGrpId": 3310666424
    },
    {
      "index": 43,
      "grpId": 3310666424,
      "nextGrpId": 3310666425
    },
    {
      "index": 44,
      "grpId": 3310666425,
      "nextGrpId": 3310666426
    },
    {
      "index": 45,
      "grpId": 3310666426,
      "nextGrpId": 3310666427
    },
    {
      "index": 46,
      "grpId": 3310666427,
      "nextGrpId": 3310666428
    },
    {
      "index": 47,
      "grpId": 3310666428,
      "nextGrpId": 3310666429
    },
    {
      "index": 48,
      "grpId": 3310666429,
      "nextGrpId": 3310666451
    },
    {
      "index": 49,
      "grpId": 3310666451,
      "nextGrpId": 3310666452
    },
    {
      "index": 50,
      "grpId": 3310666452,
      "nextGrpId": 3310666453
    },
    {
      "index": 51,
      "grpId": 3310666453,
      "nextGrpId": 3310666454
    },
    {
      "index": 52,
      "grpId": 3310666454,
      "nextGrpId": 3310666455
    },
    {
      "index": 53,
      "grpId": 3310666455,
      "nextGrpId": 3310666456
    },
    {
      "index": 54,
      "grpId": 3310666456,
      "nextGrpId": 3310666457
    },
    {
      "index": 55,
      "grpId": 3310666457,
      "nextGrpId": 3310666458
    }
  ],
  "freeStyleDic": {
    "20485": []
  }
}