{
  "ConfigAQTheChasm": {
    "conditionDefines": {
      "locked": {
        "$type": "LDBDBFOLLJJ",
        "conditions": [
          {
            "$type": "NKJJGHPFIBM",
            "condition": {
              "$type": "ELHOECGLFAK",
              "mainQuestId": 2021,
              "state": "QUEST_STATE_FINISHED"
            }
          }
        ]
      },
      "trackQuest1": {
        "$type": "FACOLBPMIKE",
        "mainQuestId": 8004,
        "KGGEDGKGLDD": true
      },
      "trackQuest2": {
        "$type": "FACOLBPMIKE",
        "mainQuestId": 8005,
        "KGGEDGKGLDD": true
      },
      "trackQuest3": {
        "$type": "FACOLBPMIKE",
        "mainQuestId": 8006,
        "KGGEDGKGLDD": true
      },
      "trackQuest4": {
        "$type": "FACOLBPMIKE",
        "mainQuestId": 8007,
        "KGGEDGKGLDD": true
      },
      "finished": {
        "$type": "ELHOECGLFAK",
        "mainQuestId": 8007,
        "state": "QUEST_STATE_FINISHED"
      }
    },
    "actionDefines": {
      "updateLocked": {
        "$type": "ILJHAPLCCAC",
        "actions": [
          {
            "$type": "BAGPAPIKPGN",
            "uiElement": "UnlockTips",
            "active": true
          },
          {
            "$type": "IEGHHLLIFAJ",
            "uiElement": "UnlockTips",
            "textMap": "UI_ACTIVITY_THECHASM_AQ_UNLOCK"
          },
          {
            "$type": "BAGPAPIKPGN",
            "uiElement": "ButtonGoto"
          },
          {
            "$type": "BAGPAPIKPGN",
            "uiElement": "FinishTips"
          }
        ]
      },
      "updateTrackQuest1": {
        "$type": "ILJHAPLCCAC",
        "actions": [
          {
            "$type": "BAGPAPIKPGN",
            "uiElement": "UnlockTips"
          },
          {
            "$type": "BAGPAPIKPGN",
            "uiElement": "ButtonGoto",
            "active": true
          },
          {
            "$type": "IEGHHLLIFAJ",
            "uiElement": "ButtonGoto",
            "textMap": "UI_ACTIVITY_QUEST_GOTO_BUTTON"
          },
          {
            "$type": "BAGPAPIKPGN",
            "uiElement": "FinishTips"
          }
        ]
      },
      "updateTrackQuest2": {
        "$type": "ILJHAPLCCAC",
        "actions": [
          {
            "$type": "BAGPAPIKPGN",
            "uiElement": "UnlockTips"
          },
          {
            "$type": "BAGPAPIKPGN",
            "uiElement": "ButtonGoto",
            "active": true
          },
          {
            "$type": "IEGHHLLIFAJ",
            "uiElement": "ButtonGoto",
            "textMap": "UI_ACTIVITY_QUEST_GOTO_BUTTON"
          },
          {
            "$type": "BAGPAPIKPGN",
            "uiElement": "FinishTips"
          }
        ]
      },
      "updateTrackQuest3": {
        "$type": "ILJHAPLCCAC",
        "actions": [
          {
            "$type": "BAGPAPIKPGN",
            "uiElement": "UnlockTips"
          },
          {
            "$type": "BAGPAPIKPGN",
            "uiElement": "ButtonGoto",
            "active": true
          },
          {
            "$type": "IEGHHLLIFAJ",
            "uiElement": "ButtonGoto",
            "textMap": "UI_ACTIVITY_QUEST_GOTO_BUTTON"
          },
          {
            "$type": "BAGPAPIKPGN",
            "uiElement": "FinishTips"
          }
        ]
      },
      "updateTrackQuest4": {
        "$type": "ILJHAPLCCAC",
        "actions": [
          {
            "$type": "BAGPAPIKPGN",
            "uiElement": "UnlockTips"
          },
          {
            "$type": "BAGPAPIKPGN",
            "uiElement": "ButtonGoto",
            "active": true
          },
          {
            "$type": "IEGHHLLIFAJ",
            "uiElement": "ButtonGoto",
            "textMap": "UI_ACTIVITY_QUEST_GOTO_BUTTON"
          },
          {
            "$type": "BAGPAPIKPGN",
            "uiElement": "FinishTips"
          }
        ]
      },
      "updateFinished": {
        "$type": "ILJHAPLCCAC",
        "actions": [
          {
            "$type": "BAGPAPIKPGN",
            "uiElement": "UnlockTips"
          },
          {
            "$type": "BAGPAPIKPGN",
            "uiElement": "ButtonGoto"
          },
          {
            "$type": "BAGPAPIKPGN",
            "uiElement": "FinishTips",
            "active": true
          }
        ]
      },
      "clickTrackQuest1": {
        "$type": "ILJHAPLCCAC",
        "actions": [
          {
            "$type": "ENDINPNPJMN",
            "mainQuestId": 8004
          },
          {
            "$type": "FCLHKGLPCFG",
            "activityId": 5077,
            "buttonId": 2,
            "scheduleId": 5077001,
            "additionalInfo": ""
          },
          {
            "$type": "EHILDMNOHIN",
            "uiElement": "Animator",
            "triggerName": "FadeOut",
            "setOrReset": true
          }
        ]
      },
      "clickTrackQuest2": {
        "$type": "ILJHAPLCCAC",
        "actions": [
          {
            "$type": "ENDINPNPJMN",
            "mainQuestId": 8005
          },
          {
            "$type": "FCLHKGLPCFG",
            "activityId": 5077,
            "buttonId": 2,
            "scheduleId": 5077001,
            "additionalInfo": ""
          },
          {
            "$type": "EHILDMNOHIN",
            "uiElement": "Animator",
            "triggerName": "FadeOut",
            "setOrReset": true
          }
        ]
      },
      "clickTrackQuest3": {
        "$type": "ILJHAPLCCAC",
        "actions": [
          {
            "$type": "ENDINPNPJMN",
            "mainQuestId": 8006
          },
          {
            "$type": "FCLHKGLPCFG",
            "activityId": 5077,
            "buttonId": 2,
            "scheduleId": 5077001,
            "additionalInfo": ""
          },
          {
            "$type": "EHILDMNOHIN",
            "uiElement": "Animator",
            "triggerName": "FadeOut",
            "setOrReset": true
          }
        ]
      },
      "clickTrackQuest4": {
        "$type": "ILJHAPLCCAC",
        "actions": [
          {
            "$type": "ENDINPNPJMN",
            "mainQuestId": 8007
          },
          {
            "$type": "FCLHKGLPCFG",
            "activityId": 5077,
            "buttonId": 2,
            "scheduleId": 5077001,
            "additionalInfo": ""
          },
          {
            "$type": "EHILDMNOHIN",
            "uiElement": "Animator",
            "triggerName": "FadeOut",
            "setOrReset": true
          }
        ]
      }
    },
    "updateGroups": [
      {
        "conditionName": "locked",
        "actionName": "updateLocked"
      },
      {
        "conditionName": "trackQuest1",
        "actionName": "updateTrackQuest1"
      },
      {
        "conditionName": "trackQuest2",
        "actionName": "updateTrackQuest2"
      },
      {
        "conditionName": "trackQuest3",
        "actionName": "updateTrackQuest3"
      },
      {
        "conditionName": "trackQuest4",
        "actionName": "updateTrackQuest4"
      },
      {
        "conditionName": "finished",
        "actionName": "updateFinished"
      }
    ],
    "clickGroups": [
      {
        "conditionName": "trackQuest1",
        "actionName": "clickTrackQuest1"
      },
      {
        "conditionName": "trackQuest2",
        "actionName": "clickTrackQuest2"
      },
      {
        "conditionName": "trackQuest3",
        "actionName": "clickTrackQuest3"
      },
      {
        "conditionName": "trackQuest4",
        "actionName": "clickTrackQuest4"
      }
    ]
  }
}