{
  "ConfigTheChasm": {
    "conditionDefines": {
      "trackArea": {
        "$type": "LDBDBFOLLJJ"
      }
    },
    "actionDefines": {
      "updateArea": {
        "$type": "ILJHAPLCCAC",
        "actions": [
          {
            "$type": "BAGPAPIKPGN",
            "uiElement": "ButtonGoto",
            "active": true
          },
          {
            "$type": "IEGHHLLIFAJ",
            "uiElement": "ButtonGoto",
            "textMap": "UI_ACTIVITY_THECHASM_GOTO"
          }
        ]
      },
      "clickTrackArea": {
        "$type": "ILJHAPLCCAC",
        "actions": [
          {
            "$type": "AABIANJABKH",
            "pointId": 442,
            "sceneId": 3
          },
          {
            "$type": "FCLHKGLPCFG",
            "activityId": 5075,
            "buttonId": 2,
            "scheduleId": 5075001,
            "additionalInfo": ""
          },
          {
            "$type": "EHILDMNOHIN",
            "uiElement": "Animator",
            "triggerName": "FadeOut",
            "setOrReset": true
          }
        ]
      }
    },
    "updateGroups": [
      {
        "conditionName": "trackArea",
        "actionName": "updateArea"
      }
    ],
    "clickGroups": [
      {
        "conditionName": "trackArea",
        "actionName": "clickTrackArea"
      }
    ]
  }
}