{
  "ConfigGCG": {
    "conditionDefines": {
      "locked": {
        "$type": "NKJJGHPFIBM",
        "condition": {
          "$type": "ELHOECGLFAK",
          "mainQuestId": 396,
          "state": "QUEST_STATE_FINISHED"
        }
      },
      "trackQuest_Multi": {
        "$type": "LDBDBFOLLJJ",
        "conditions": [
          {
            "$type": "GOADNDMLGAA"
          },
          {
            "$type": "ELHOECGLFAK",
            "mainQuestId": 396,
            "state": "QUEST_STATE_FINISHED"
          },
          {
            "$type": "NKJJGHPFIBM",
            "condition": {
              "$type": "ELHOECGLFAK",
              "mainQuestId": 70665,
              "state": "QUEST_STATE_FINISHED"
            }
          }
        ]
      },
      "trackQuest": {
        "$type": "LDBDBFOLLJJ",
        "conditions": [
          {
            "$type": "ELHOECGLFAK",
            "mainQuestId": 396,
            "state": "QUEST_STATE_FINISHED"
          },
          {
            "$type": "NKJJGHPFIBM",
            "condition": {
              "$type": "ELHOECGLFAK",
              "mainQuestId": 70665,
              "state": "QUEST_STATE_FINISHED"
            }
          }
        ]
      },
      "trackLocation_Multi": {
        "$type": "LDBDBFOLLJJ",
        "conditions": [
          {
            "$type": "GOADNDMLGAA"
          },
          {
            "$type": "ELHOECGLFAK",
            "mainQuestId": 396,
            "state": "QUEST_STATE_FINISHED"
          },
          {
            "$type": "ELHOECGLFAK",
            "mainQuestId": 70665,
            "state": "QUEST_STATE_FINISHED"
          }
        ]
      },
      "trackLocation": {
        "$type": "LDBDBFOLLJJ",
        "conditions": [
          {
            "$type": "ELHOECGLFAK",
            "mainQuestId": 396,
            "state": "QUEST_STATE_FINISHED"
          },
          {
            "$type": "ELHOECGLFAK",
            "mainQuestId": 70665,
            "state": "QUEST_STATE_FINISHED"
          }
        ]
      }
    },
    "actionDefines": {
      "clickTrackLocation": {
        "$type": "ILJHAPLCCAC",
        "actions": [
          {
            "$type": "EHILDMNOHIN",
            "uiElement": "Animator",
            "triggerName": "FadeOut",
            "setOrReset": true
          },
          {
            "$type": "CHHIMHBFCIP",
            "iconType": "MarkGcgPub"
          }
        ]
      },
      "clickTrackQuest": {
        "$type": "ILJHAPLCCAC",
        "actions": [
          {
            "$type": "ENDINPNPJMN",
            "mainQuestId": 70665
          },
          {
            "$type": "EHILDMNOHIN",
            "uiElement": "Animator",
            "triggerName": "FadeOut",
            "setOrReset": true
          }
        ]
      },
      "clickTrack_Multi": {
        "$type": "ILJHAPLCCAC",
        "actions": [
          {
            "$type": "NDBIKCDPCGK",
            "ANJBPLIOPCP": "UI_ACTIVITY_HOST_CANNOT_GOTO_TIPS"
          }
        ]
      },
      "updateLocked": {
        "$type": "ILJHAPLCCAC",
        "actions": [
          {
            "$type": "BAGPAPIKPGN",
            "uiElement": "UnlockTips",
            "active": true
          },
          {
            "$type": "BAGPAPIKPGN",
            "uiElement": "ButtonGoto"
          },
          {
            "$type": "ENALEMKLAIN",
            "uiElement": "UnlockTips",
            "textMap": "UI_ACTIVITY_UNLOCK_QUEST",
            "mainQuestId": 396
          }
        ]
      },
      "updateTrackQuest": {
        "$type": "ILJHAPLCCAC",
        "actions": [
          {
            "$type": "BAGPAPIKPGN",
            "uiElement": "UnlockTips"
          },
          {
            "$type": "BAGPAPIKPGN",
            "uiElement": "ButtonGoto",
            "active": true
          },
          {
            "$type": "IEGHHLLIFAJ",
            "uiElement": "ButtonGoto",
            "textMap": "UI_ACTIVITY_QUEST_GOTO_BUTTON"
          }
        ]
      },
      "updateTrackLocation": {
        "$type": "ILJHAPLCCAC",
        "actions": [
          {
            "$type": "BAGPAPIKPGN",
            "uiElement": "UnlockTips"
          },
          {
            "$type": "BAGPAPIKPGN",
            "uiElement": "ButtonGoto",
            "active": true
          },
          {
            "$type": "IEGHHLLIFAJ",
            "uiElement": "ButtonGoto",
            "textMap": "UI_GCG_GOTO_CattailTavern"
          }
        ]
      }
    },
    "updateGroups": [
      {
        "conditionName": "locked",
        "actionName": "updateLocked"
      },
      {
        "conditionName": "trackQuest",
        "actionName": "updateTrackQuest"
      },
      {
        "conditionName": "trackQuest_Multi",
        "actionName": "updateTrackQuest"
      },
      {
        "conditionName": "trackLocation",
        "actionName": "updateTrackLocation"
      },
      {
        "conditionName": "trackLocation_Multi",
        "actionName": "updateTrackLocation"
      }
    ],
    "clickGroups": [
      {
        "conditionName": "trackQuest",
        "actionName": "clickTrackQuest"
      },
      {
        "conditionName": "trackQuest_Multi",
        "actionName": "clickTrack_Multi"
      },
      {
        "conditionName": "trackLocation",
        "actionName": "clickTrackLocation"
      },
      {
        "conditionName": "trackLocation_Multi",
        "actionName": "clickTrack_Multi"
      }
    ]
  }
}