{
  "ConfigSandwormWind": {
    "conditionDefines": {
      "BeforeAreaUnlocked": {
        "$type": "PBNGOLLFIPP",
        "areaId": 32,
        "sceneId": 3
      },
      "AfterAreaUnlocked": {
        "$type": "PBNGOLLFIPP",
        "areaId": 32,
        "sceneId": 3,
        "isUnlocked": true
      }
    },
    "actionDefines": {
      "ShowGotoAera": {
        "$type": "ILJHAPLCCAC",
        "actions": [
          {
            "$type": "BAGPAPIKPGN",
            "uiElement": "ButtonGoto",
            "active": true
          },
          {
            "$type": "IEGHHLLIFAJ",
            "uiElement": "ButtonGoto",
            "textMap": "UI_ACTIVITY_NEW_REGION_UNLOCK_BUTTON"
          }
        ]
      },
      "ShowGotoBoss": {
        "$type": "ILJHAPLCCAC",
        "actions": [
          {
            "$type": "BAGPAPIKPGN",
            "uiElement": "ButtonGoto",
            "active": true
          },
          {
            "$type": "IEGHHLLIFAJ",
            "uiElement": "ButtonGoto",
            "textMap": "UI_ACTIVITY_CHALLENGE_GOTO_BUTTON"
          }
        ]
      },
      "GotoAreaMark": {
        "$type": "ILJHAPLCCAC",
        "actions": [
          {
            "$type": "AABIANJABKH",
            "pointId": 629,
            "sceneId": 3
          },
          {
            "$type": "FCLHKGLPCFG",
            "activityId": 5122,
            "buttonId": 2,
            "scheduleId": 5122001,
            "additionalInfo": ""
          },
          {
            "$type": "EHILDMNOHIN",
            "uiElement": "Animator",
            "triggerName": "FadeOut",
            "setOrReset": true
          }
        ]
      },
      "GotoBossMark": {
        "$type": "ILJHAPLCCAC",
        "actions": [
          {
            "$type": "OFOKBKHFPDE",
            "monsterId": 50
          },
          {
            "$type": "FCLHKGLPCFG",
            "activityId": 5122,
            "buttonId": 3,
            "scheduleId": 5122001,
            "additionalInfo": ""
          },
          {
            "$type": "EHILDMNOHIN",
            "uiElement": "Animator",
            "triggerName": "FadeOut",
            "setOrReset": true
          }
        ]
      }
    },
    "updateGroups": [
      {
        "conditionName": "BeforeAreaUnlocked",
        "actionName": "ShowGotoAera"
      },
      {
        "conditionName": "AfterAreaUnlocked",
        "actionName": "ShowGotoBoss"
      }
    ],
    "clickGroups": [
      {
        "conditionName": "BeforeAreaUnlocked",
        "actionName": "GotoAreaMark"
      },
      {
        "conditionName": "AfterAreaUnlocked",
        "actionName": "GotoBossMark"
      }
    ]
  }
}