{
  "ConfigAQTheFontaine1": {
    "conditionDefines": {
      "locked": {
        "$type": "NKJJGHPFIBM",
        "condition": {
          "$type": "HAHHAIOIFDE",
          "questGlobalVarId": 400201,
          "value": 1
        }
      },
      "trackChapter1": {
        "$type": "APIPHCAAJEE",
        "chapterId": 1403,
        "KGGEDGKGLDD": true
      },
      "trackChapter2": {
        "$type": "APIPHCAAJEE",
        "chapterId": 1404,
        "KGGEDGKGLDD": true
      },
      "finish": {
        "$type": "ELHOECGLFAK",
        "mainQuestId": 4019,
        "state": "QUEST_STATE_FINISHED"
      }
    },
    "actionDefines": {
      "updateLocked": {
        "$type": "ILJHAPLCCAC",
        "actions": [
          {
            "$type": "BAGPAPIKPGN",
            "uiElement": "UnlockTips",
            "active": true
          },
          {
            "$type": "BAGPAPIKPGN",
            "uiElement": "ButtonGoto"
          },
          {
            "$type": "IEGHHLLIFAJ",
            "uiElement": "UnlockTips",
            "textMap": "UI_ACTIVITY_THEFONTAINE1_AQ_UNLOCK"
          },
          {
            "$type": "BAGPAPIKPGN",
            "uiElement": "FinishTips"
          }
        ]
      },
      "updateTrackQuest": {
        "$type": "ILJHAPLCCAC",
        "actions": [
          {
            "$type": "BAGPAPIKPGN",
            "uiElement": "UnlockTips"
          },
          {
            "$type": "BAGPAPIKPGN",
            "uiElement": "ButtonGoto",
            "active": true
          },
          {
            "$type": "IEGHHLLIFAJ",
            "uiElement": "ButtonGoto",
            "textMap": "UI_ACTIVITY_QUEST_GOTO_BUTTON"
          },
          {
            "$type": "BAGPAPIKPGN",
            "uiElement": "FinishTips"
          }
        ]
      },
      "updateFinished": {
        "$type": "ILJHAPLCCAC",
        "actions": [
          {
            "$type": "BAGPAPIKPGN",
            "uiElement": "UnlockTips"
          },
          {
            "$type": "BAGPAPIKPGN",
            "uiElement": "ButtonGoto"
          },
          {
            "$type": "BAGPAPIKPGN",
            "uiElement": "FinishTips",
            "active": true
          }
        ]
      },
      "clickTrackChapter1": {
        "$type": "ILJHAPLCCAC",
        "actions": [
          {
            "$type": "FPOJPNMGKNA",
            "chapterId": 1403
          },
          {
            "$type": "FCLHKGLPCFG",
            "activityId": 5164,
            "buttonId": 2,
            "scheduleId": 5164001,
            "additionalInfo": ""
          },
          {
            "$type": "EHILDMNOHIN",
            "uiElement": "Animator",
            "triggerName": "FadeOut",
            "setOrReset": true
          }
        ]
      },
      "clickTrackChapter2": {
        "$type": "ILJHAPLCCAC",
        "actions": [
          {
            "$type": "FPOJPNMGKNA",
            "chapterId": 1404
          },
          {
            "$type": "FCLHKGLPCFG",
            "activityId": 5164,
            "buttonId": 2,
            "scheduleId": 5164001,
            "additionalInfo": ""
          },
          {
            "$type": "EHILDMNOHIN",
            "uiElement": "Animator",
            "triggerName": "FadeOut",
            "setOrReset": true
          }
        ]
      }
    },
    "updateGroups": [
      {
        "conditionName": "locked",
        "actionName": "updateLocked"
      },
      {
        "conditionName": "trackChapter1",
        "actionName": "updateTrackQuest"
      },
      {
        "conditionName": "trackChapter2",
        "actionName": "updateTrackQuest"
      },
      {
        "conditionName": "finish",
        "actionName": "updateFinished"
      }
    ],
    "clickGroups": [
      {
        "conditionName": "trackChapter1",
        "actionName": "clickTrackChapter1"
      },
      {
        "conditionName": "trackChapter2",
        "actionName": "clickTrackChapter2"
      }
    ]
  }
}