{
  "ConfigEffigyIce": {
    "conditionDefines": {
      "shouldTrackLeadingQuest": {
        "$type": "LDBDBFOLLJJ",
        "conditions": [
          {
            "$type": "FACOLBPMIKE",
            "mainQuestId": 70143,
            "KGGEDGKGLDD": true
          },
          {
            "$type": "FACOLBPMIKE",
            "mainQuestId": 70141
          },
          {
            "$type": "NKJJGHPFIBM",
            "condition": {
              "$type": "ELHOECGLFAK",
              "mainQuestId": 70141,
              "state": "QUEST_STATE_FINISHED"
            }
          }
        ]
      },
      "shouldTrackMainQuest": {
        "$type": "FACOLBPMIKE",
        "mainQuestId": 70141,
        "KGGEDGKGLDD": true
      },
      "shouldTrackMonster": {
        "$type": "ELHOECGLFAK",
        "mainQuestId": 70141,
        "state": "QUEST_STATE_FINISHED"
      }
    },
    "actionDefines": {
      "trackLeadingQuestUpdate": {
        "$type": "ILJHAPLCCAC",
        "actions": [
          {
            "$type": "IEGHHLLIFAJ",
            "uiElement": "ButtonGoto",
            "textMap": "UI_ACTIVITY_EVEN_MOUNTAINS_TREMBLE_INVESTIGATE_BUTTON"
          },
          {
            "$type": "BAGPAPIKPGN",
            "uiElement": "UnlockTips",
            "active": true
          }
        ]
      },
      "trackLeadingQuestClick": {
        "$type": "ILJHAPLCCAC",
        "actions": [
          {
            "$type": "EHILDMNOHIN",
            "uiElement": "Animator",
            "triggerName": "FadeOut",
            "setOrReset": true
          },
          {
            "$type": "ENDINPNPJMN",
            "mainQuestId": 70143
          },
          {
            "$type": "FCLHKGLPCFG",
            "activityId": 5026,
            "buttonId": 2,
            "additionalInfo": ""
          }
        ]
      },
      "trackMainQuestUpdate": {
        "$type": "ILJHAPLCCAC",
        "actions": [
          {
            "$type": "IEGHHLLIFAJ",
            "uiElement": "ButtonGoto",
            "textMap": "UI_ACTIVITY_EVEN_MOUNTAINS_TREMBLE_INVESTIGATE_BUTTON"
          },
          {
            "$type": "BAGPAPIKPGN",
            "uiElement": "UnlockTips",
            "active": true
          }
        ]
      },
      "trackMainQuestClick": {
        "$type": "ILJHAPLCCAC",
        "actions": [
          {
            "$type": "EHILDMNOHIN",
            "uiElement": "Animator",
            "triggerName": "FadeOut",
            "setOrReset": true
          },
          {
            "$type": "ENDINPNPJMN",
            "mainQuestId": 70141
          },
          {
            "$type": "FCLHKGLPCFG",
            "activityId": 5026,
            "buttonId": 2,
            "additionalInfo": ""
          }
        ]
      },
      "trackMonsterUpdate": {
        "$type": "ILJHAPLCCAC",
        "actions": [
          {
            "$type": "IEGHHLLIFAJ",
            "uiElement": "ButtonGoto",
            "textMap": "UI_ACTIVITY_EVEN_MOUNTAINS_TREMBLE_CHALLENGE_BUTTON"
          },
          {
            "$type": "BAGPAPIKPGN",
            "uiElement": "UnlockTips"
          }
        ]
      },
      "trackMonsterClick": {
        "$type": "ILJHAPLCCAC",
        "actions": [
          {
            "$type": "EHILDMNOHIN",
            "uiElement": "Animator",
            "triggerName": "FadeOut",
            "setOrReset": true
          },
          {
            "$type": "OFOKBKHFPDE",
            "monsterId": 25
          },
          {
            "$type": "FCLHKGLPCFG",
            "activityId": 5026,
            "buttonId": 3,
            "additionalInfo": ""
          }
        ]
      }
    },
    "updateGroups": [
      {
        "conditionName": "shouldTrackLeadingQuest",
        "actionName": "trackLeadingQuestUpdate"
      },
      {
        "conditionName": "shouldTrackMainQuest",
        "actionName": "trackMainQuestUpdate"
      },
      {
        "conditionName": "shouldTrackMonster",
        "actionName": "trackMonsterUpdate"
      }
    ],
    "clickGroups": [
      {
        "conditionName": "shouldTrackLeadingQuest",
        "actionName": "trackLeadingQuestClick"
      },
      {
        "conditionName": "shouldTrackMainQuest",
        "actionName": "trackMainQuestClick"
      },
      {
        "conditionName": "shouldTrackMonster",
        "actionName": "trackMonsterClick"
      }
    ]
  }
}