{
  "ConfigAQTheSumeru2": {
    "conditionDefines": {
      "locked": {
        "$type": "LDBDBFOLLJJ",
        "conditions": [
          {
            "$type": "NKJJGHPFIBM",
            "condition": {
              "$type": "ELHOECGLFAK",
              "mainQuestId": 3021,
              "state": "QUEST_STATE_FINISHED"
            }
          }
        ]
      },
      "trackChapter1": {
        "$type": "APIPHCAAJEE",
        "chapterId": 1305,
        "KGGEDGKGLDD": true
      },
      "finish": {
        "$type": "ELHOECGLFAK",
        "mainQuestId": 3026,
        "state": "QUEST_STATE_FINISHED"
      }
    },
    "actionDefines": {
      "updateLocked": {
        "$type": "ILJHAPLCCAC",
        "actions": [
          {
            "$type": "BAGPAPIKPGN",
            "uiElement": "UnlockTips",
            "active": true
          },
          {
            "$type": "BAGPAPIKPGN",
            "uiElement": "ButtonGoto"
          },
          {
            "$type": "IEGHHLLIFAJ",
            "uiElement": "UnlockTips",
            "textMap": "UI_ACTIVITY_SUMERU2_AQ_UNLOCK"
          },
          {
            "$type": "BAGPAPIKPGN",
            "uiElement": "FinishTips"
          }
        ]
      },
      "updateTrackQuest": {
        "$type": "ILJHAPLCCAC",
        "actions": [
          {
            "$type": "BAGPAPIKPGN",
            "uiElement": "UnlockTips"
          },
          {
            "$type": "BAGPAPIKPGN",
            "uiElement": "ButtonGoto",
            "active": true
          },
          {
            "$type": "IEGHHLLIFAJ",
            "uiElement": "ButtonGoto",
            "textMap": "UI_ACTIVITY_QUEST_GOTO_BUTTON"
          },
          {
            "$type": "BAGPAPIKPGN",
            "uiElement": "FinishTips"
          }
        ]
      },
      "updateFinished": {
        "$type": "ILJHAPLCCAC",
        "actions": [
          {
            "$type": "BAGPAPIKPGN",
            "uiElement": "UnlockTips"
          },
          {
            "$type": "BAGPAPIKPGN",
            "uiElement": "ButtonGoto"
          },
          {
            "$type": "BAGPAPIKPGN",
            "uiElement": "FinishTips",
            "active": true
          }
        ]
      },
      "clickTrackChapter1": {
        "$type": "ILJHAPLCCAC",
        "actions": [
          {
            "$type": "FPOJPNMGKNA",
            "chapterId": 1305
          },
          {
            "$type": "FCLHKGLPCFG",
            "activityId": 5109,
            "buttonId": 2,
            "scheduleId": 5109001,
            "additionalInfo": ""
          },
          {
            "$type": "EHILDMNOHIN",
            "uiElement": "Animator",
            "triggerName": "FadeOut",
            "setOrReset": true
          }
        ]
      }
    },
    "updateGroups": [
      {
        "conditionName": "locked",
        "actionName": "updateLocked"
      },
      {
        "conditionName": "trackChapter1",
        "actionName": "updateTrackQuest"
      },
      {
        "conditionName": "finish",
        "actionName": "updateFinished"
      }
    ],
    "clickGroups": [
      {
        "conditionName": "trackChapter1",
        "actionName": "clickTrackChapter1"
      }
    ]
  }
}