{
  "OFPCELPELIG": [
    "SGV_Regist_Test",
    "SGV_FEVER_LEVEL",
    "SGV_ActivityGacha_ElemSyncRegion",
    "SGV_CHAINTYPE",
    "SGV_CHAINLEVEL",
    "SGV_Revive_Skill_Flag",
    "SGV_MushroomMonster_Alert",
    "SGV_Fungus_Burst_Count",
    "SGV_OnHeroUnionBurst_Sent_Mark_",
    "SGV_OnHeroInCrisis_Sent_Mark_",
    "SGV_OnHalfHP_Sent_Mark_",
    "SGV_OnUnionBurst_Sent_Mark_",
    "SGV_Drum_Play_Start",
    "SGV_UGCDungeon_MaxLife",
    "SGV_UGCDungeon_CurLife",
    "SGV_UGCDungeon_ForbidSkill",
    "SGV_UGCDungeon_Immune",
    "SGV_UGCDungeon_CanAttachModifier",
    "SGV_UGCDungeon_AvatarGhostToMonster",
    "SGV_UGCDungeon_BanSkill",
    "SGV_UGCRemoveTower",
    "SGV_UGCHeartHealth",
    "SGV_UGCHeartHealth_Max",
    "SGV_UGCHeartHealthUsedOut",
    "SGV_UGCDungeon_AvatarLockHp",
    "SGV_UGCTryShowOfficialPatternGuidePage",
    "SGV_UGCGalleryStart",
    "SGV_UGC_IsSingleRoomPlay",
    "SGV_BoatV3_HP",
    "SGV_BoatV3_HPMax",
    "SGV_BoatV3_Coin",
    "SGV_BoatV3_Ghost",
    "SGV_BoatV3_Progress",
    "SGV_BoatV3_SkillIndex",
    "SGV_BoatV3_CollectItemNum",
    "SGV_CAN_LAUNCH_BALL",
    "SGV_Weather_Wizard_Chain_Level",
    "SGV_FFV2Pacman_MaxLife",
    "SGV_FFV2Pacman_CurLife",
    "SGV_PacmanTeamNum",
    "SGV_SpaceIntelligence",
    "SGV_GrassGift",
    "SGV_PariFirefly",
    "SGV_IsInHookRegion",
    "SGV_QUESTABILITY_WISDOMBATTLE",
    "SGV_PariFollow",
    "SGV_FireTrail",
    "SGV_energy_point",
    "SGV_Fungus_V2_Level_Reminder",
    "SGV_Disable_Input",
    "SGV_TARGETSHOOTING_BULLET_MAX",
    "SGV_TARGETSHOOTING_BUFF_ACTIVE",
    "SGV_BLADEDANCE_SKILL_ACTIVE",
    "SGV_ANIMALVIEW_ANIMAL_KILL",
    "SGV_CharAmusement_CoinEffect",
    "SGV_AceCombat_Player",
    "SGV_EnvironmentType",
    "SGV_LevelBank_10001_Stuff",
    "SGV_LevelBank_10001_StuffA",
    "SGV_LevelBank_10001_StuffB",
    "SGV_PortableCell_TotalCount",
    "SGV_PhantomChasing_Cell_TotalCount",
    "SGV_Limiter_Count",
    "SGV_PotThrowBuff",
    "SGV_QTEEnergy",
    "SGV_ALGA_NUM",
    "SGV_DungeonDifficulty",
    "SGV_FilmfestBallGame_Score",
    "SGV_Fungus_V3_Level_Reminder",
    "SGV_Pickable_Entity_Killself",
    "SGV_Pickable_Entity_Recreated",
    "SGV_Pickable_Entity_Enable_CollisionChecker",
    "SGV_NPC_Boating",
    "SGV_TalkStatue_WQ_State",
    "SGV_Row",
    "SGV_Column",
    "SGV_Sneak_Monster_Behaviour",
    "SGV_ACTIVITY_LOSTSAMACHURL_ACTION_",
    "SGV_Activity_LostSamachurl_Special_Flag_01",
    "SGV_LanternRite_SkillType",
    "SGV_LanternRite_Score",
    "SGV_StaminaFight",
    "SGV_StaminaFight_Difficulty",
    "SGV_HideAndSeek_PlayerState_CurrentBloodDisplay",
    "SGV_HideAndSeek_PlayerState_MaxBloodDisplay",
    "SGV_HideAndSeek_PlayerState_Ture_Prison",
    "SGV_HideAndSeek_PlayerState_Invincible",
    "SGV_HideAndSeek_PlayerState_Visible_Prison",
    "SGV_Whale_Cannon_Mark_ID",
    "SGV_MonsterVsMonster_PartnerPopulation",
    "SGV_MonsterVsMonster_EnemyPopulation",
    "SGV_EffigyChallenge_V5_FightStarted",
    "SGV_EffigyChallenge_V5_AssistSkillUsed",
    "SGV_EffigyChallenge_V5_AssistOptionSelected_1",
    "SGV_EffigyChallenge_V5_AssistOptionSelected_2",
    "SGV_EffigyChallenge_V5_AssistOptionSelected_3",
    "SGV_EffigyChallenge_V5_AssistOptionSelected_4",
    "SGV_EffigyChallenge_V5_AssistOptionSelectedCount",
    "SGV_RoleCombat_Bonus_SustainHP",
    "SGV_ABILITY_Activity_BulletHell_Rvive",
    "SGV_Shamansaurus_PaintCount",
    "SGV_Shamansaurus_Paint",
    "SGV_OrigamiSquirrel_Region",
    "SGV_OrigamiFrog_Region",
    "SGV_ClockworkMelodrama_Region",
    "SGV_ToyBrick_Region",
    "SGV_OrigamiFrog_Confused",
    "SGV_LineStick_Source_Runtime_Id_0",
    "SGV_LineStick_Source_Runtime_Id_1",
    "SGV_FairyTalesCurrent_FollowX",
    "SGV_FairyTalesCurrent_FollowY",
    "SGV_FairyTalesCurrent_Range",
    "SGV_FairyTalesCurrent_LerpTime",
    "SGV_4_8_Current_RemoveGadget",
    "SGV_RechargeDisk_Difficulty",
    "SGV_RechargeDisk_RoundIndex",
    "SGV_RechargeDisk_ChangeRound",
    "SGV_FairyTales_BuffClass",
    "SGV_FairyTales_FairyTime",
    "SGV_CharMastery_Qin",
    "SGV_CharMastery_Qiqi",
    "SGV_ShowGadgetCreate_Icon",
    "SGV_Display_Indicator",
    "SGV_WAYOB_EX_GRASS_ATTACK_NUM",
    "SGV_NatlandFirstSightTele_Teleported",
    "SGV_Activity_MonsterCamp_50_WindBuff",
    "SGV_BuffDungeon50_Level",
    "SGV_PlayerTeam_Phlogiston",
    "SGV_RemovableHook",
    "SGV_Monster_Natsaurus_Hookwalker_HookMoveInterfacePoint_0",
    "SGV_Monster_Natsaurus_Hookwalker_HookMoveInterfacePoint_1",
    "SGV_EvilSpirits_Reminder_Disable"
  ]
}