{
  "luaDataPath": "",
  "isSimpleTalk": true,
  "entityBan": "",
  "disableNpcLod": true,
  "startFade": {
    "startFadeOutDuration": 0.0
  },
  "endFade": {
    "startFadeOutDuration": 0.0
  },
  "actors": [
    {
      "alias": "Avatar",
      "visible": true,
      "bornPointName": "Q2202301PLAYER",
      "relativePosNpcAlias": "",
      "_bindMovingTargetKey": ""
    },
    {
      "configID": 1005,
      "alias": "1005",
      "visible": true,
      "bornPointName": "Q2202301PAIMON",
      "removeActorType": "REMOVE_WITH_DISAPPEAR",
      "relativePosNpcAlias": "",
      "_bindMovingTargetKey": ""
    }
  ],
  "group": [
    [
      {
        "$type": "FJKIHHKJLMJ",
        "type": "CAMERA_FOCUS",
        "duration": 0.10000000149011612,
        "targetNpcAlias": "",
        "KJOEFBPOIIH": "",
        "IICFKKEBIEC": "",
        "EGEHEJEBLBJ": ""
      },
      {
        "$type": "MoleMole.Config.ConfigTimeProtectAction",
        "type": "TIME_PROTECT",
        "duration": 0.10000000149011612
      }
    ],
    [
      {
        "$type": "PKKMAMONGEO",
        "type": "DIALOG",
        "aliasList": [
          "1005"
        ],
        "dialogID": 220230801,
        "protectTime": 0.5
      }
    ],
    [
      {
        "$type": "PKKMAMONGEO",
        "type": "DIALOG",
        "aliasList": [
          "1005"
        ],
        "dialogID": 220230802,
        "protectTime": 0.5
      }
    ],
    [
      {
        "$type": "PKKMAMONGEO",
        "type": "DIALOG",
        "aliasList": [
          "1005"
        ],
        "dialogID": 220230803,
        "protectTime": 0.5
      }
    ],
    [
      {
        "$type": "PKKMAMONGEO",
        "type": "DIALOG",
        "aliasList": [
          "1005"
        ],
        "dialogID": 220230804,
        "protectTime": 0.5
      }
    ],
    [
      {
        "$type": "HDGKHDNFMIM",
        "type": "DIALOG_SELECT",
        "delayTime": 0.4000000059604645,
        "aliasList": [
          "Avatar"
        ],
        "dialogIDList": [
          220230806
        ],
        "grpIDList": [
          1040282129
        ],
        "useGrpId": true
      },
      {
        "$type": "PKKMAMONGEO",
        "type": "DIALOG",
        "aliasList": [
          "1005"
        ],
        "dialogID": 220230805,
        "protectTime": 0.5
      }
    ],
    [
      {
        "$type": "HDGKHDNFMIM",
        "type": "DIALOG_SELECT",
        "delayTime": 0.4000000059604645,
        "aliasList": [
          "Avatar"
        ],
        "dialogIDList": [
          220230808,
          220230810,
          220230812,
          220230814
        ],
        "grpIDList": [
          1040282130,
          1040282131,
          2183974789,
          2183974790
        ],
        "useGrpId": true
      },
      {
        "$type": "PKKMAMONGEO",
        "type": "DIALOG",
        "aliasList": [
          "1005"
        ],
        "dialogID": 220230807,
        "protectTime": 0.5
      }
    ],
    [
      {
        "$type": "PKKMAMONGEO",
        "type": "DIALOG",
        "aliasList": [
          "1005"
        ],
        "dialogID": 220230809,
        "protectTime": 0.5
      }
    ],
    [
      {
        "$type": "PKKMAMONGEO",
        "type": "DIALOG",
        "aliasList": [
          "1005"
        ],
        "dialogID": 220230811,
        "protectTime": 0.5
      }
    ],
    [
      {
        "$type": "PKKMAMONGEO",
        "type": "DIALOG",
        "aliasList": [
          "1005"
        ],
        "dialogID": 220230813,
        "protectTime": 0.5
      }
    ],
    [
      {
        "$type": "PKKMAMONGEO",
        "type": "DIALOG",
        "aliasList": [
          "1005"
        ],
        "dialogID": 220230815,
        "protectTime": 0.5
      }
    ],
    [
      {
        "$type": "MoleMole.Config.ConfigTimeProtectAction",
        "type": "TIME_PROTECT",
        "duration": 0.10000000149011612
      }
    ],
    [
      {
        "$type": "MoleMole.Config.ConfigTimeProtectAction",
        "type": "TIME_PROTECT",
        "duration": 0.10000000149011612
      }
    ]
  ],
  "groupId": [
    {
      "grpId": 1040282123,
      "nextGrpId": 1040282124
    },
    {
      "index": 1,
      "grpId": 1040282124,
      "nextGrpId": 1040282125
    },
    {
      "index": 2,
      "grpId": 1040282125,
      "nextGrpId": 1040282126
    },
    {
      "index": 3,
      "grpId": 1040282126,
      "nextGrpId": 1040282127
    },
    {
      "index": 4,
      "grpId": 1040282127,
      "nextGrpId": 1040282128
    },
    {
      "index": 5,
      "grpId": 1040282128,
      "nextGrpId": 1040282129
    },
    {
      "index": 6,
      "grpId": 1040282129,
      "nextGrpId": 1040282130
    },
    {
      "index": 7,
      "grpId": 1040282130,
      "nextGrpId": 2183974791
    },
    {
      "index": 8,
      "grpId": 1040282131,
      "nextGrpId": 2183974791
    },
    {
      "index": 9,
      "grpId": 2183974789,
      "nextGrpId": 2183974791
    },
    {
      "index": 10,
      "grpId": 2183974790,
      "nextGrpId": 2183974791
    },
    {
      "index": 11,
      "grpId": 2183974791,
      "nextGrpId": 2183974792
    },
    {
      "index": 12,
      "grpId": 2183974792,
      "nextGrpId": 2183974793
    }
  ]
}