{
  "talkId": 219,
  "damageRatio": "COOP",
  "dialogList": [
    {
      "id": 190770801,
      "nextDialogs": [
        190770802
      ],
      "talkRole": {
        "type": "TALK_ROLE_NPC",
        "_id": "515"
      },
      "talkContentTextMapHash": 4120771898,
      "talkAssetPath": "",
      "talkAssetPathAlter": "",
      "talkAudioName": "",
      "actionBefore": "",
      "actionWhile": "",
      "actionAfter": "",
      "optionIcon": "",
      "iconPath": ""
    },
    {
      "id": 190770802,
      "nextDialogs": [
        190770803
      ],
      "talkRole": {
        "type": "TALK_ROLE_NPC",
        "_id": "1058"
      },
      "talkContentTextMapHash": 4023038202,
      "talkAssetPath": "",
      "talkAssetPathAlter": "",
      "talkAudioName": "",
      "actionBefore": "",
      "actionWhile": "",
      "actionAfter": "",
      "optionIcon": "",
      "iconPath": ""
    },
    {
      "id": 190770803,
      "nextDialogs": [
        190770804
      ],
      "talkRole": {
        "type": "TALK_ROLE_NPC",
        "_id": "1050"
      },
      "talkContentTextMapHash": 1352086914,
      "talkAssetPath": "",
      "talkAssetPathAlter": "",
      "talkAudioName": "",
      "actionBefore": "",
      "actionWhile": "",
      "actionAfter": "",
      "optionIcon": "",
      "iconPath": ""
    },
    {
      "id": 190770804,
      "nextDialogs": [
        190770805
      ],
      "talkRole": {
        "type": "TALK_ROLE_BLACK_SCREEN",
        "_id": ""
      },
      "talkContentTextMapHash": 2606083618,
      "talkAssetPath": "",
      "talkAssetPathAlter": "",
      "talkAudioName": "",
      "actionBefore": "",
      "actionWhile": "",
      "actionAfter": "",
      "optionIcon": "",
      "iconPath": ""
    },
    {
      "id": 190770805,
      "nextDialogs": [
        190770899
      ],
      "talkRole": {
        "type": "TALK_ROLE_NPC",
        "_id": "515"
      },
      "talkContentTextMapHash": 3800936282,
      "talkAssetPath": "",
      "talkAssetPathAlter": "",
      "talkAudioName": "",
      "actionBefore": "",
      "actionWhile": "",
      "actionAfter": "",
      "optionIcon": "",
      "iconPath": ""
    },
    {
      "id": 190770806,
      "nextDialogs": [
        190770807
      ],
      "talkRole": {
        "type": "TALK_ROLE_NPC",
        "_id": "1050"
      },
      "talkContentTextMapHash": 2681433434,
      "talkAssetPath": "",
      "talkAssetPathAlter": "",
      "talkAudioName": "",
      "actionBefore": "",
      "actionWhile": "",
      "actionAfter": "",
      "optionIcon": "",
      "iconPath": ""
    },
    {
      "id": 190770807,
      "nextDialogs": [
        190770808
      ],
      "talkRole": {
        "type": "TALK_ROLE_NPC",
        "_id": "515"
      },
      "talkContentTextMapHash": 335050098,
      "talkAssetPath": "",
      "talkAssetPathAlter": "",
      "talkAudioName": "",
      "actionBefore": "",
      "actionWhile": "",
      "actionAfter": "",
      "optionIcon": "",
      "iconPath": ""
    },
    {
      "id": 190770808,
      "nextDialogs": [
        190770809
      ],
      "talkRole": {
        "type": "TALK_ROLE_NPC",
        "_id": "1053"
      },
      "talkContentTextMapHash": 2505138026,
      "talkAssetPath": "",
      "talkAssetPathAlter": "",
      "talkAudioName": "",
      "actionBefore": "",
      "actionWhile": "",
      "actionAfter": "",
      "optionIcon": "",
      "iconPath": ""
    },
    {
      "id": 190770809,
      "nextDialogs": [
        190770810
      ],
      "talkRole": {
        "type": "TALK_ROLE_NPC",
        "_id": "1053"
      },
      "talkContentTextMapHash": 2219291746,
      "talkAssetPath": "",
      "talkAssetPathAlter": "",
      "talkAudioName": "",
      "actionBefore": "",
      "actionWhile": "",
      "actionAfter": "",
      "optionIcon": "",
      "iconPath": ""
    },
    {
      "id": 190770810,
      "nextDialogs": [
        190770811
      ],
      "talkRole": {
        "type": "TALK_ROLE_NPC",
        "_id": "515"
      },
      "talkContentTextMapHash": 550530098,
      "talkAssetPath": "",
      "talkAssetPathAlter": "",
      "talkAudioName": "",
      "actionBefore": "",
      "actionWhile": "",
      "actionAfter": "",
      "optionIcon": "",
      "iconPath": ""
    },
    {
      "id": 190770811,
      "nextDialogs": [
        190770812
      ],
      "talkRole": {
        "type": "TALK_ROLE_NPC",
        "_id": "1058"
      },
      "talkContentTextMapHash": 1064968170,
      "talkAssetPath": "",
      "talkAssetPathAlter": "",
      "talkAudioName": "",
      "actionBefore": "",
      "actionWhile": "",
      "actionAfter": "",
      "optionIcon": "",
      "iconPath": ""
    },
    {
      "id": 190770812,
      "nextDialogs": [
        190770813
      ],
      "talkRole": {
        "type": "TALK_ROLE_NPC",
        "_id": "1050"
      },
      "talkContentTextMapHash": 3249642962,
      "talkAssetPath": "",
      "talkAssetPathAlter": "",
      "talkAudioName": "",
      "actionBefore": "",
      "actionWhile": "",
      "actionAfter": "",
      "optionIcon": "",
      "iconPath": ""
    },
    {
      "id": 190770813,
      "talkRole": {
        "type": "TALK_ROLE_NPC",
        "_id": "515"
      },
      "talkContentTextMapHash": 2917271178,
      "talkAssetPath": "",
      "talkAssetPathAlter": "",
      "talkAudioName": "",
      "actionBefore": "",
      "actionWhile": "",
      "actionAfter": "",
      "optionIcon": "",
      "iconPath": ""
    },
    {
      "id": 190770899,
      "nextDialogs": [
        190770806
      ],
      "talkShowType": "TALK_SHOW_FORCE_SELECT",
      "talkRole": {
        "type": "TALK_ROLE_PLAYER",
        "_id": ""
      },
      "talkContentTextMapHash": 4204404370,
      "talkAssetPath": "",
      "talkAssetPathAlter": "",
      "talkAudioName": "",
      "actionBefore": "",
      "actionWhile": "",
      "actionAfter": "",
      "optionIcon": "",
      "iconPath": ""
    }
  ],
  "CHAKPMBJNAJ": [
    "[3_330300390:-1142.979,289.811,3240.635,0.000,68.351,0.000]"
  ]
}