{
  "talkId": 79,
  "damageRatio": "COOP",
  "dialogList": [
    {
      "id": 190770401,
      "nextDialogs": [
        190770402
      ],
      "talkRole": {
        "type": "TALK_ROLE_NPC",
        "_id": "13239"
      },
      "talkContentTextMapHash": 860362362,
      "talkAssetPath": "",
      "talkAssetPathAlter": "",
      "talkAudioName": "",
      "actionBefore": "",
      "actionWhile": "",
      "actionAfter": "",
      "optionIcon": "",
      "iconPath": ""
    },
    {
      "id": 190770402,
      "nextDialogs": [
        190770403
      ],
      "talkRole": {
        "type": "TALK_ROLE_NPC",
        "_id": "515"
      },
      "talkContentTextMapHash": 729145058,
      "talkAssetPath": "",
      "talkAssetPathAlter": "",
      "talkAudioName": "",
      "actionBefore": "",
      "actionWhile": "",
      "actionAfter": "",
      "optionIcon": "",
      "iconPath": ""
    },
    {
      "id": 190770403,
      "nextDialogs": [
        190770404
      ],
      "talkRole": {
        "type": "TALK_ROLE_NPC",
        "_id": "13239"
      },
      "talkContentTextMapHash": 3996791842,
      "talkAssetPath": "",
      "talkAssetPathAlter": "",
      "talkAudioName": "",
      "actionBefore": "",
      "actionWhile": "",
      "actionAfter": "",
      "optionIcon": "",
      "iconPath": ""
    },
    {
      "id": 190770404,
      "nextDialogs": [
        190770405
      ],
      "talkRole": {
        "type": "TALK_ROLE_NPC",
        "_id": "515"
      },
      "talkContentTextMapHash": 1802414906,
      "talkAssetPath": "",
      "talkAssetPathAlter": "",
      "talkAudioName": "",
      "actionBefore": "",
      "actionWhile": "",
      "actionAfter": "",
      "optionIcon": "",
      "iconPath": ""
    },
    {
      "id": 190770405,
      "nextDialogs": [
        190770406
      ],
      "talkRole": {
        "type": "TALK_ROLE_NPC",
        "_id": "13239"
      },
      "talkContentTextMapHash": 2018955426,
      "talkAssetPath": "",
      "talkAssetPathAlter": "",
      "talkAudioName": "",
      "actionBefore": "",
      "actionWhile": "",
      "actionAfter": "",
      "optionIcon": "",
      "iconPath": ""
    },
    {
      "id": 190770406,
      "nextDialogs": [
        190770407
      ],
      "talkRole": {
        "type": "TALK_ROLE_NPC",
        "_id": "13239"
      },
      "talkContentTextMapHash": 159971114,
      "talkAssetPath": "",
      "talkAssetPathAlter": "",
      "talkAudioName": "",
      "actionBefore": "",
      "actionWhile": "",
      "actionAfter": "",
      "optionIcon": "",
      "iconPath": ""
    },
    {
      "id": 190770407,
      "nextDialogs": [
        190770408
      ],
      "talkRole": {
        "type": "TALK_ROLE_NPC",
        "_id": "13239"
      },
      "talkContentTextMapHash": 1851251018,
      "talkAssetPath": "",
      "talkAssetPathAlter": "",
      "talkAudioName": "",
      "actionBefore": "",
      "actionWhile": "",
      "actionAfter": "",
      "optionIcon": "",
      "iconPath": ""
    },
    {
      "id": 190770408,
      "nextDialogs": [
        190770409
      ],
      "talkRole": {
        "type": "TALK_ROLE_NPC",
        "_id": "13239"
      },
      "talkContentTextMapHash": 1919457282,
      "talkAssetPath": "",
      "talkAssetPathAlter": "",
      "talkAudioName": "",
      "actionBefore": "",
      "actionWhile": "",
      "actionAfter": "",
      "optionIcon": "",
      "iconPath": ""
    },
    {
      "id": 190770409,
      "nextDialogs": [
        190770410
      ],
      "talkRole": {
        "type": "TALK_ROLE_NPC",
        "_id": "13239"
      },
      "talkContentTextMapHash": 3346823258,
      "talkAssetPath": "",
      "talkAssetPathAlter": "",
      "talkAudioName": "",
      "actionBefore": "",
      "actionWhile": "",
      "actionAfter": "",
      "optionIcon": "",
      "iconPath": ""
    },
    {
      "id": 190770410,
      "nextDialogs": [
        190770411
      ],
      "talkRole": {
        "type": "TALK_ROLE_NPC",
        "_id": "13239"
      },
      "talkContentTextMapHash": 3979505890,
      "talkAssetPath": "",
      "talkAssetPathAlter": "",
      "talkAudioName": "",
      "actionBefore": "",
      "actionWhile": "",
      "actionAfter": "",
      "optionIcon": "",
      "iconPath": ""
    },
    {
      "id": 190770411,
      "nextDialogs": [
        190770412
      ],
      "talkRole": {
        "type": "TALK_ROLE_NPC",
        "_id": "13239"
      },
      "talkContentTextMapHash": 4265562314,
      "talkAssetPath": "",
      "talkAssetPathAlter": "",
      "talkAudioName": "",
      "actionBefore": "",
      "actionWhile": "",
      "actionAfter": "",
      "optionIcon": "",
      "iconPath": ""
    },
    {
      "id": 190770412,
      "nextDialogs": [
        190770413
      ],
      "talkRole": {
        "type": "TALK_ROLE_NPC",
        "_id": "515"
      },
      "talkContentTextMapHash": 95447578,
      "talkAssetPath": "",
      "talkAssetPathAlter": "",
      "talkAudioName": "",
      "actionBefore": "",
      "actionWhile": "",
      "actionAfter": "",
      "optionIcon": "",
      "iconPath": ""
    },
    {
      "id": 190770413,
      "nextDialogs": [
        190770414
      ],
      "talkRole": {
        "type": "TALK_ROLE_NPC",
        "_id": "13239"
      },
      "talkContentTextMapHash": 3590790970,
      "talkAssetPath": "",
      "talkAssetPathAlter": "",
      "talkAudioName": "",
      "actionBefore": "",
      "actionWhile": "",
      "actionAfter": "",
      "optionIcon": "",
      "iconPath": ""
    },
    {
      "id": 190770414,
      "nextDialogs": [
        190770415
      ],
      "talkRole": {
        "type": "TALK_ROLE_NPC",
        "_id": "13239"
      },
      "talkContentTextMapHash": 4123242562,
      "talkAssetPath": "",
      "talkAssetPathAlter": "",
      "talkAudioName": "",
      "actionBefore": "",
      "actionWhile": "",
      "actionAfter": "",
      "optionIcon": "",
      "iconPath": ""
    },
    {
      "id": 190770415,
      "nextDialogs": [
        190770416
      ],
      "talkRole": {
        "type": "TALK_ROLE_NPC",
        "_id": "13239"
      },
      "talkContentTextMapHash": 2957901042,
      "talkAssetPath": "",
      "talkAssetPathAlter": "",
      "talkAudioName": "",
      "actionBefore": "",
      "actionWhile": "",
      "actionAfter": "",
      "optionIcon": "",
      "iconPath": ""
    },
    {
      "id": 190770416,
      "nextDialogs": [
        190770417
      ],
      "talkRole": {
        "type": "TALK_ROLE_NPC",
        "_id": "13239"
      },
      "talkContentTextMapHash": 497369906,
      "talkAssetPath": "",
      "talkAssetPathAlter": "",
      "talkAudioName": "",
      "actionBefore": "",
      "actionWhile": "",
      "actionAfter": "",
      "optionIcon": "",
      "iconPath": ""
    },
    {
      "id": 190770417,
      "nextDialogs": [
        190770499,
        190770498
      ],
      "talkRole": {
        "type": "TALK_ROLE_NPC",
        "_id": "515"
      },
      "talkContentTextMapHash": 2736073202,
      "talkAssetPath": "",
      "talkAssetPathAlter": "",
      "talkAudioName": "",
      "actionBefore": "",
      "actionWhile": "",
      "actionAfter": "",
      "optionIcon": "",
      "iconPath": ""
    },
    {
      "id": 190770418,
      "nextDialogs": [
        190770419
      ],
      "talkRole": {
        "type": "TALK_ROLE_NPC",
        "_id": "515"
      },
      "talkContentTextMapHash": 3135611218,
      "talkAssetPath": "",
      "talkAssetPathAlter": "",
      "talkAudioName": "",
      "actionBefore": "",
      "actionWhile": "",
      "actionAfter": "",
      "optionIcon": "",
      "iconPath": ""
    },
    {
      "id": 190770419,
      "nextDialogs": [
        190770420
      ],
      "talkRole": {
        "type": "TALK_ROLE_NPC",
        "_id": "13239"
      },
      "talkContentTextMapHash": 637057994,
      "talkAssetPath": "",
      "talkAssetPathAlter": "",
      "talkAudioName": "",
      "actionBefore": "",
      "actionWhile": "",
      "actionAfter": "",
      "optionIcon": "",
      "iconPath": ""
    },
    {
      "id": 190770420,
      "nextDialogs": [
        190770421
      ],
      "talkRole": {
        "type": "TALK_ROLE_NPC",
        "_id": "515"
      },
      "talkContentTextMapHash": 2098707386,
      "talkAssetPath": "",
      "talkAssetPathAlter": "",
      "talkAudioName": "",
      "actionBefore": "",
      "actionWhile": "",
      "actionAfter": "",
      "optionIcon": "",
      "iconPath": ""
    },
    {
      "id": 190770421,
      "nextDialogs": [
        190770422
      ],
      "talkRole": {
        "type": "TALK_ROLE_NPC",
        "_id": "13239"
      },
      "talkContentTextMapHash": 1603149594,
      "talkAssetPath": "",
      "talkAssetPathAlter": "",
      "talkAudioName": "",
      "actionBefore": "",
      "actionWhile": "",
      "actionAfter": "",
      "optionIcon": "",
      "iconPath": ""
    },
    {
      "id": 190770422,
      "nextDialogs": [
        190770423
      ],
      "talkRole": {
        "type": "TALK_ROLE_NPC",
        "_id": "13239"
      },
      "talkContentTextMapHash": 1739972362,
      "talkAssetPath": "",
      "talkAssetPathAlter": "",
      "talkAudioName": "",
      "actionBefore": "",
      "actionWhile": "",
      "actionAfter": "",
      "optionIcon": "",
      "iconPath": ""
    },
    {
      "id": 190770423,
      "nextDialogs": [
        190770424
      ],
      "talkRole": {
        "type": "TALK_ROLE_NPC",
        "_id": "13239"
      },
      "talkContentTextMapHash": 36599114,
      "talkAssetPath": "",
      "talkAssetPathAlter": "",
      "talkAudioName": "",
      "actionBefore": "",
      "actionWhile": "",
      "actionAfter": "",
      "optionIcon": "",
      "iconPath": ""
    },
    {
      "id": 190770424,
      "nextDialogs": [
        190770425
      ],
      "talkRole": {
        "type": "TALK_ROLE_NPC",
        "_id": "13239"
      },
      "talkContentTextMapHash": 4168279018,
      "talkAssetPath": "",
      "talkAssetPathAlter": "",
      "talkAudioName": "",
      "actionBefore": "",
      "actionWhile": "",
      "actionAfter": "",
      "optionIcon": "",
      "iconPath": ""
    },
    {
      "id": 190770425,
      "nextDialogs": [
        190770426
      ],
      "talkRole": {
        "type": "TALK_ROLE_NPC",
        "_id": "13239"
      },
      "talkContentTextMapHash": 1232071194,
      "talkAssetPath": "",
      "talkAssetPathAlter": "",
      "talkAudioName": "",
      "actionBefore": "",
      "actionWhile": "",
      "actionAfter": "",
      "optionIcon": "",
      "iconPath": ""
    },
    {
      "id": 190770426,
      "nextDialogs": [
        190770427
      ],
      "talkRole": {
        "type": "TALK_ROLE_NPC",
        "_id": "13239"
      },
      "talkContentTextMapHash": 2920942442,
      "talkAssetPath": "",
      "talkAssetPathAlter": "",
      "talkAudioName": "",
      "actionBefore": "",
      "actionWhile": "",
      "actionAfter": "",
      "optionIcon": "",
      "iconPath": ""
    },
    {
      "id": 190770427,
      "nextDialogs": [
        190770428
      ],
      "talkRole": {
        "type": "TALK_ROLE_NPC",
        "_id": "515"
      },
      "talkContentTextMapHash": 3096815562,
      "talkAssetPath": "",
      "talkAssetPathAlter": "",
      "talkAudioName": "",
      "actionBefore": "",
      "actionWhile": "",
      "actionAfter": "",
      "optionIcon": "",
      "iconPath": ""
    },
    {
      "id": 190770428,
      "nextDialogs": [
        190770429
      ],
      "talkRole": {
        "type": "TALK_ROLE_NPC",
        "_id": "13239"
      },
      "talkContentTextMapHash": 1331129682,
      "talkAssetPath": "",
      "talkAssetPathAlter": "",
      "talkAudioName": "",
      "actionBefore": "",
      "actionWhile": "",
      "actionAfter": "",
      "optionIcon": "",
      "iconPath": ""
    },
    {
      "id": 190770429,
      "nextDialogs": [
        190770430
      ],
      "talkRole": {
        "type": "TALK_ROLE_NPC",
        "_id": "13239"
      },
      "talkContentTextMapHash": 1727543970,
      "talkAssetPath": "",
      "talkAssetPathAlter": "",
      "talkAudioName": "",
      "actionBefore": "",
      "actionWhile": "",
      "actionAfter": "",
      "optionIcon": "",
      "iconPath": ""
    },
    {
      "id": 190770430,
      "nextDialogs": [
        190770497
      ],
      "talkRole": {
        "type": "TALK_ROLE_NPC",
        "_id": "515"
      },
      "talkContentTextMapHash": 3693894954,
      "talkAssetPath": "",
      "talkAssetPathAlter": "",
      "talkAudioName": "",
      "actionBefore": "",
      "actionWhile": "",
      "actionAfter": "",
      "optionIcon": "",
      "iconPath": ""
    },
    {
      "id": 190770431,
      "nextDialogs": [
        190770432
      ],
      "talkRole": {
        "type": "TALK_ROLE_NPC",
        "_id": "515"
      },
      "talkContentTextMapHash": 3439979970,
      "talkAssetPath": "",
      "talkAssetPathAlter": "",
      "talkAudioName": "",
      "actionBefore": "",
      "actionWhile": "",
      "actionAfter": "",
      "optionIcon": "",
      "iconPath": ""
    },
    {
      "id": 190770432,
      "nextDialogs": [
        190770433
      ],
      "talkRole": {
        "type": "TALK_ROLE_NPC",
        "_id": "13239"
      },
      "talkContentTextMapHash": 2828864266,
      "talkAssetPath": "",
      "talkAssetPathAlter": "",
      "talkAudioName": "",
      "actionBefore": "",
      "actionWhile": "",
      "actionAfter": "",
      "optionIcon": "",
      "iconPath": ""
    },
    {
      "id": 190770433,
      "nextDialogs": [
        190770434
      ],
      "talkRole": {
        "type": "TALK_ROLE_NPC",
        "_id": "515"
      },
      "talkContentTextMapHash": 2198618330,
      "talkAssetPath": "",
      "talkAssetPathAlter": "",
      "talkAudioName": "",
      "actionBefore": "",
      "actionWhile": "",
      "actionAfter": "",
      "optionIcon": "",
      "iconPath": ""
    },
    {
      "id": 190770434,
      "nextDialogs": [
        190770435
      ],
      "talkRole": {
        "type": "TALK_ROLE_NPC",
        "_id": "13239"
      },
      "talkContentTextMapHash": 2879251482,
      "talkAssetPath": "",
      "talkAssetPathAlter": "",
      "talkAudioName": "",
      "actionBefore": "",
      "actionWhile": "",
      "actionAfter": "",
      "optionIcon": "",
      "iconPath": ""
    },
    {
      "id": 190770435,
      "nextDialogs": [
        190770436
      ],
      "talkRole": {
        "type": "TALK_ROLE_NPC",
        "_id": "13239"
      },
      "talkContentTextMapHash": 625718570,
      "talkAssetPath": "",
      "talkAssetPathAlter": "",
      "talkAudioName": "",
      "actionBefore": "",
      "actionWhile": "",
      "actionAfter": "",
      "optionIcon": "",
      "iconPath": ""
    },
    {
      "id": 190770436,
      "nextDialogs": [
        190770437
      ],
      "talkRole": {
        "type": "TALK_ROLE_NPC",
        "_id": "13239"
      },
      "talkContentTextMapHash": 3741053546,
      "talkAssetPath": "",
      "talkAssetPathAlter": "",
      "talkAudioName": "",
      "actionBefore": "",
      "actionWhile": "",
      "actionAfter": "",
      "optionIcon": "",
      "iconPath": ""
    },
    {
      "id": 190770437,
      "nextDialogs": [
        190770438
      ],
      "talkRole": {
        "type": "TALK_ROLE_NPC",
        "_id": "515"
      },
      "talkContentTextMapHash": 2809849770,
      "talkAssetPath": "",
      "talkAssetPathAlter": "",
      "talkAudioName": "",
      "actionBefore": "",
      "actionWhile": "",
      "actionAfter": "",
      "optionIcon": "",
      "iconPath": ""
    },
    {
      "id": 190770438,
      "nextDialogs": [
        190770439
      ],
      "talkRole": {
        "type": "TALK_ROLE_NPC",
        "_id": "13239"
      },
      "talkContentTextMapHash": 2350149970,
      "talkAssetPath": "",
      "talkAssetPathAlter": "",
      "talkAudioName": "",
      "actionBefore": "",
      "actionWhile": "",
      "actionAfter": "",
      "optionIcon": "",
      "iconPath": ""
    },
    {
      "id": 190770439,
      "nextDialogs": [
        190770440
      ],
      "talkRole": {
        "type": "TALK_ROLE_NPC",
        "_id": "515"
      },
      "talkContentTextMapHash": 3534936730,
      "talkAssetPath": "",
      "talkAssetPathAlter": "",
      "talkAudioName": "",
      "actionBefore": "",
      "actionWhile": "",
      "actionAfter": "",
      "optionIcon": "",
      "iconPath": ""
    },
    {
      "id": 190770440,
      "nextDialogs": [
        190770441
      ],
      "talkRole": {
        "type": "TALK_ROLE_BLACK_SCREEN",
        "_id": ""
      },
      "talkContentTextMapHash": 3013767570,
      "talkAssetPath": "",
      "talkAssetPathAlter": "",
      "talkAudioName": "",
      "actionBefore": "",
      "actionWhile": "",
      "actionAfter": "",
      "optionIcon": "",
      "iconPath": ""
    },
    {
      "id": 190770441,
      "nextDialogs": [
        190770442
      ],
      "talkRole": {
        "type": "TALK_ROLE_NPC",
        "_id": "13273"
      },
      "talkContentTextMapHash": 624042906,
      "talkAssetPath": "",
      "talkAssetPathAlter": "",
      "talkAudioName": "",
      "actionBefore": "",
      "actionWhile": "",
      "actionAfter": "",
      "optionIcon": "",
      "iconPath": ""
    },
    {
      "id": 190770442,
      "nextDialogs": [
        190770443
      ],
      "talkRole": {
        "type": "TALK_ROLE_NPC",
        "_id": "13273"
      },
      "talkContentTextMapHash": 1470613410,
      "talkAssetPath": "",
      "talkAssetPathAlter": "",
      "talkAudioName": "",
      "actionBefore": "",
      "actionWhile": "",
      "actionAfter": "",
      "optionIcon": "",
      "iconPath": ""
    },
    {
      "id": 190770443,
      "nextDialogs": [
        190770444
      ],
      "talkRole": {
        "type": "TALK_ROLE_NPC",
        "_id": "13273"
      },
      "talkContentTextMapHash": 549170786,
      "talkAssetPath": "",
      "talkAssetPathAlter": "",
      "talkAudioName": "",
      "actionBefore": "",
      "actionWhile": "",
      "actionAfter": "",
      "optionIcon": "",
      "iconPath": ""
    },
    {
      "id": 190770444,
      "nextDialogs": [
        190770445
      ],
      "talkRole": {
        "type": "TALK_ROLE_NPC",
        "_id": "13273"
      },
      "talkContentTextMapHash": 3747190794,
      "talkAssetPath": "",
      "talkAssetPathAlter": "",
      "talkAudioName": "",
      "actionBefore": "",
      "actionWhile": "",
      "actionAfter": "",
      "optionIcon": "",
      "iconPath": ""
    },
    {
      "id": 190770445,
      "nextDialogs": [
        190770446
      ],
      "talkRole": {
        "type": "TALK_ROLE_NPC",
        "_id": "13273"
      },
      "talkContentTextMapHash": 4200918266,
      "talkAssetPath": "",
      "talkAssetPathAlter": "",
      "talkAudioName": "",
      "actionBefore": "",
      "actionWhile": "",
      "actionAfter": "",
      "optionIcon": "",
      "iconPath": ""
    },
    {
      "id": 190770446,
      "nextDialogs": [
        190770447
      ],
      "talkRole": {
        "type": "TALK_ROLE_NPC",
        "_id": "515"
      },
      "talkContentTextMapHash": 1555567994,
      "talkAssetPath": "",
      "talkAssetPathAlter": "",
      "talkAudioName": "",
      "actionBefore": "",
      "actionWhile": "",
      "actionAfter": "",
      "optionIcon": "",
      "iconPath": ""
    },
    {
      "id": 190770447,
      "nextDialogs": [
        190770448
      ],
      "talkRole": {
        "type": "TALK_ROLE_NPC",
        "_id": "515"
      },
      "talkContentTextMapHash": 2328704234,
      "talkAssetPath": "",
      "talkAssetPathAlter": "",
      "talkAudioName": "",
      "actionBefore": "",
      "actionWhile": "",
      "actionAfter": "",
      "optionIcon": "",
      "iconPath": ""
    },
    {
      "id": 190770448,
      "nextDialogs": [
        190770496
      ],
      "talkRole": {
        "type": "TALK_ROLE_NPC",
        "_id": "515"
      },
      "talkContentTextMapHash": 3760890730,
      "talkAssetPath": "",
      "talkAssetPathAlter": "",
      "talkAudioName": "",
      "actionBefore": "",
      "actionWhile": "",
      "actionAfter": "",
      "optionIcon": "",
      "iconPath": ""
    },
    {
      "id": 190770449,
      "nextDialogs": [
        190770450
      ],
      "talkRole": {
        "type": "TALK_ROLE_NPC",
        "_id": "515"
      },
      "talkContentTextMapHash": 548566490,
      "talkAssetPath": "",
      "talkAssetPathAlter": "",
      "talkAudioName": "",
      "actionBefore": "",
      "actionWhile": "",
      "actionAfter": "",
      "optionIcon": "",
      "iconPath": ""
    },
    {
      "id": 190770450,
      "nextDialogs": [
        190770451
      ],
      "talkRole": {
        "type": "TALK_ROLE_NPC",
        "_id": "515"
      },
      "talkContentTextMapHash": 1074614274,
      "talkAssetPath": "",
      "talkAssetPathAlter": "",
      "talkAudioName": "",
      "actionBefore": "",
      "actionWhile": "",
      "actionAfter": "",
      "optionIcon": "",
      "iconPath": ""
    },
    {
      "id": 190770451,
      "nextDialogs": [
        190770452
      ],
      "talkRole": {
        "type": "TALK_ROLE_NPC",
        "_id": "13273"
      },
      "talkContentTextMapHash": 1401100754,
      "talkAssetPath": "",
      "talkAssetPathAlter": "",
      "talkAudioName": "",
      "actionBefore": "",
      "actionWhile": "",
      "actionAfter": "",
      "optionIcon": "",
      "iconPath": ""
    },
    {
      "id": 190770452,
      "nextDialogs": [
        190770453
      ],
      "talkRole": {
        "type": "TALK_ROLE_NPC",
        "_id": "13273"
      },
      "talkContentTextMapHash": 3898230426,
      "talkAssetPath": "",
      "talkAssetPathAlter": "",
      "talkAudioName": "",
      "actionBefore": "",
      "actionWhile": "",
      "actionAfter": "",
      "optionIcon": "",
      "iconPath": ""
    },
    {
      "id": 190770453,
      "nextDialogs": [
        190770454
      ],
      "talkRole": {
        "type": "TALK_ROLE_NPC",
        "_id": "13273"
      },
      "talkContentTextMapHash": 9322194,
      "talkAssetPath": "",
      "talkAssetPathAlter": "",
      "talkAudioName": "",
      "actionBefore": "",
      "actionWhile": "",
      "actionAfter": "",
      "optionIcon": "",
      "iconPath": ""
    },
    {
      "id": 190770454,
      "nextDialogs": [
        190770455
      ],
      "talkRole": {
        "type": "TALK_ROLE_NPC",
        "_id": "13273"
      },
      "talkContentTextMapHash": 1743480154,
      "talkAssetPath": "",
      "talkAssetPathAlter": "",
      "talkAudioName": "",
      "actionBefore": "",
      "actionWhile": "",
      "actionAfter": "",
      "optionIcon": "",
      "iconPath": ""
    },
    {
      "id": 190770455,
      "nextDialogs": [
        190770456
      ],
      "talkRole": {
        "type": "TALK_ROLE_NPC",
        "_id": "13273"
      },
      "talkContentTextMapHash": 3312796554,
      "talkAssetPath": "",
      "talkAssetPathAlter": "",
      "talkAudioName": "",
      "actionBefore": "",
      "actionWhile": "",
      "actionAfter": "",
      "optionIcon": "",
      "iconPath": ""
    },
    {
      "id": 190770456,
      "nextDialogs": [
        190770457
      ],
      "talkRole": {
        "type": "TALK_ROLE_NPC",
        "_id": "13273"
      },
      "talkContentTextMapHash": 2764153178,
      "talkAssetPath": "",
      "talkAssetPathAlter": "",
      "talkAudioName": "",
      "actionBefore": "",
      "actionWhile": "",
      "actionAfter": "",
      "optionIcon": "",
      "iconPath": ""
    },
    {
      "id": 190770457,
      "nextDialogs": [
        190770458
      ],
      "talkRole": {
        "type": "TALK_ROLE_NPC",
        "_id": "13273"
      },
      "talkContentTextMapHash": 1028114418,
      "talkAssetPath": "",
      "talkAssetPathAlter": "",
      "talkAudioName": "",
      "actionBefore": "",
      "actionWhile": "",
      "actionAfter": "",
      "optionIcon": "",
      "iconPath": ""
    },
    {
      "id": 190770458,
      "nextDialogs": [
        190770459
      ],
      "talkRole": {
        "type": "TALK_ROLE_NPC",
        "_id": "515"
      },
      "talkContentTextMapHash": 4106015146,
      "talkAssetPath": "",
      "talkAssetPathAlter": "",
      "talkAudioName": "",
      "actionBefore": "",
      "actionWhile": "",
      "actionAfter": "",
      "optionIcon": "",
      "iconPath": ""
    },
    {
      "id": 190770459,
      "nextDialogs": [
        190770460
      ],
      "talkRole": {
        "type": "TALK_ROLE_NPC",
        "_id": "515"
      },
      "talkContentTextMapHash": 2319328130,
      "talkAssetPath": "",
      "talkAssetPathAlter": "",
      "talkAudioName": "",
      "actionBefore": "",
      "actionWhile": "",
      "actionAfter": "",
      "optionIcon": "",
      "iconPath": ""
    },
    {
      "id": 190770460,
      "nextDialogs": [
        190770461
      ],
      "talkRole": {
        "type": "TALK_ROLE_NPC",
        "_id": "13273"
      },
      "talkContentTextMapHash": 2426276770,
      "talkAssetPath": "",
      "talkAssetPathAlter": "",
      "talkAudioName": "",
      "actionBefore": "",
      "actionWhile": "",
      "actionAfter": "",
      "optionIcon": "",
      "iconPath": ""
    },
    {
      "id": 190770461,
      "nextDialogs": [
        190770462
      ],
      "talkRole": {
        "type": "TALK_ROLE_NPC",
        "_id": "13273"
      },
      "talkContentTextMapHash": 357090602,
      "talkAssetPath": "",
      "talkAssetPathAlter": "",
      "talkAudioName": "",
      "actionBefore": "",
      "actionWhile": "",
      "actionAfter": "",
      "optionIcon": "",
      "iconPath": ""
    },
    {
      "id": 190770462,
      "nextDialogs": [
        190770463
      ],
      "talkRole": {
        "type": "TALK_ROLE_NPC",
        "_id": "13273"
      },
      "talkContentTextMapHash": 50149018,
      "talkAssetPath": "",
      "talkAssetPathAlter": "",
      "talkAudioName": "",
      "actionBefore": "",
      "actionWhile": "",
      "actionAfter": "",
      "optionIcon": "",
      "iconPath": ""
    },
    {
      "id": 190770463,
      "nextDialogs": [
        190770464
      ],
      "talkRole": {
        "type": "TALK_ROLE_NPC",
        "_id": "13273"
      },
      "talkContentTextMapHash": 3372269178,
      "talkAssetPath": "",
      "talkAssetPathAlter": "",
      "talkAudioName": "",
      "actionBefore": "",
      "actionWhile": "",
      "actionAfter": "",
      "optionIcon": "",
      "iconPath": ""
    },
    {
      "id": 190770464,
      "nextDialogs": [
        190770465
      ],
      "talkRole": {
        "type": "TALK_ROLE_NPC",
        "_id": "515"
      },
      "talkContentTextMapHash": 3932437066,
      "talkAssetPath": "",
      "talkAssetPathAlter": "",
      "talkAudioName": "",
      "actionBefore": "",
      "actionWhile": "",
      "actionAfter": "",
      "optionIcon": "",
      "iconPath": ""
    },
    {
      "id": 190770465,
      "nextDialogs": [
        190770495
      ],
      "talkRole": {
        "type": "TALK_ROLE_NPC",
        "_id": "515"
      },
      "talkContentTextMapHash": 2605135402,
      "talkAssetPath": "",
      "talkAssetPathAlter": "",
      "talkAudioName": "",
      "actionBefore": "",
      "actionWhile": "",
      "actionAfter": "",
      "optionIcon": "",
      "iconPath": ""
    },
    {
      "id": 190770466,
      "nextDialogs": [
        190770467
      ],
      "talkRole": {
        "type": "TALK_ROLE_NPC",
        "_id": "515"
      },
      "talkContentTextMapHash": 1032487810,
      "talkAssetPath": "",
      "talkAssetPathAlter": "",
      "talkAudioName": "",
      "actionBefore": "",
      "actionWhile": "",
      "actionAfter": "",
      "optionIcon": "",
      "iconPath": ""
    },
    {
      "id": 190770467,
      "nextDialogs": [
        190770468
      ],
      "talkRole": {
        "type": "TALK_ROLE_NPC",
        "_id": "515"
      },
      "talkContentTextMapHash": 2028746594,
      "talkAssetPath": "",
      "talkAssetPathAlter": "",
      "talkAudioName": "",
      "actionBefore": "",
      "actionWhile": "",
      "actionAfter": "",
      "optionIcon": "",
      "iconPath": ""
    },
    {
      "id": 190770468,
      "nextDialogs": [
        190770469
      ],
      "talkRole": {
        "type": "TALK_ROLE_NPC",
        "_id": "515"
      },
      "talkContentTextMapHash": 3020986050,
      "talkAssetPath": "",
      "talkAssetPathAlter": "",
      "talkAudioName": "",
      "actionBefore": "",
      "actionWhile": "",
      "actionAfter": "",
      "optionIcon": "",
      "iconPath": ""
    },
    {
      "id": 190770469,
      "talkRole": {
        "type": "TALK_ROLE_NPC",
        "_id": "515"
      },
      "talkContentTextMapHash": 60298930,
      "talkAssetPath": "",
      "talkAssetPathAlter": "",
      "talkAudioName": "",
      "actionBefore": "",
      "actionWhile": "",
      "actionAfter": "",
      "optionIcon": "",
      "iconPath": ""
    },
    {
      "id": 190770495,
      "nextDialogs": [
        190770466
      ],
      "talkShowType": "TALK_SHOW_FORCE_SELECT",
      "talkRole": {
        "type": "TALK_ROLE_PLAYER",
        "_id": ""
      },
      "talkContentTextMapHash": 3474474898,
      "talkAssetPath": "",
      "talkAssetPathAlter": "",
      "talkAudioName": "",
      "actionBefore": "",
      "actionWhile": "",
      "actionAfter": "",
      "optionIcon": "",
      "iconPath": ""
    },
    {
      "id": 190770496,
      "nextDialogs": [
        190770449
      ],
      "talkShowType": "TALK_SHOW_FORCE_SELECT",
      "talkRole": {
        "type": "TALK_ROLE_PLAYER",
        "_id": ""
      },
      "talkContentTextMapHash": 347793138,
      "talkAssetPath": "",
      "talkAssetPathAlter": "",
      "talkAudioName": "",
      "actionBefore": "",
      "actionWhile": "",
      "actionAfter": "",
      "optionIcon": "",
      "iconPath": ""
    },
    {
      "id": 190770497,
      "nextDialogs": [
        190770431
      ],
      "talkShowType": "TALK_SHOW_FORCE_SELECT",
      "talkRole": {
        "type": "TALK_ROLE_PLAYER",
        "_id": ""
      },
      "talkContentTextMapHash": 3979519586,
      "talkAssetPath": "",
      "talkAssetPathAlter": "",
      "talkAudioName": "",
      "actionBefore": "",
      "actionWhile": "",
      "actionAfter": "",
      "optionIcon": "",
      "iconPath": ""
    },
    {
      "id": 190770498,
      "nextDialogs": [
        190770418
      ],
      "talkRole": {
        "type": "TALK_ROLE_PLAYER",
        "_id": ""
      },
      "talkContentTextMapHash": 325881170,
      "talkAssetPath": "",
      "talkAssetPathAlter": "",
      "talkAudioName": "",
      "actionBefore": "",
      "actionWhile": "",
      "actionAfter": "",
      "optionIcon": "",
      "iconPath": ""
    },
    {
      "id": 190770499,
      "nextDialogs": [
        190770418
      ],
      "talkRole": {
        "type": "TALK_ROLE_PLAYER",
        "_id": ""
      },
      "talkContentTextMapHash": 4064474306,
      "talkAssetPath": "",
      "talkAssetPathAlter": "",
      "talkAudioName": "",
      "actionBefore": "",
      "actionWhile": "",
      "actionAfter": "",
      "optionIcon": "",
      "iconPath": ""
    }
  ],
  "CHAKPMBJNAJ": [
    "[3_330201493:-287.375,244.847,2839.001,0.000,164.264,0.000]",
    "[3_330201494:-288.243,244.988,2837.843,0.000,97.430,0.000]",
    "[3_330201495:-286.463,244.880,2839.064,0.000,231.647,0.000]",
    "[3_3997:-286.638,245.104,2837.876,0.000,301.325,0.000]"
  ]
}