{
  "talkId": 214,
  "damageRatio": "COOP",
  "dialogList": [
    {
      "id": 190770501,
      "nextDialogs": [
        190770502
      ],
      "talkRole": {
        "type": "TALK_ROLE_NPC",
        "_id": "515"
      },
      "talkContentTextMapHash": 3847836674,
      "talkAssetPath": "",
      "talkAssetPathAlter": "",
      "talkAudioName": "",
      "actionBefore": "",
      "actionWhile": "",
      "actionAfter": "",
      "optionIcon": "",
      "iconPath": ""
    },
    {
      "id": 190770502,
      "nextDialogs": [
        190770503
      ],
      "talkRole": {
        "type": "TALK_ROLE_NPC",
        "_id": "515"
      },
      "talkContentTextMapHash": 2442625754,
      "talkAssetPath": "",
      "talkAssetPathAlter": "",
      "talkAudioName": "",
      "actionBefore": "",
      "actionWhile": "",
      "actionAfter": "",
      "optionIcon": "",
      "iconPath": ""
    },
    {
      "id": 190770503,
      "talkRole": {
        "type": "TALK_ROLE_NPC",
        "_id": "515"
      },
      "talkContentTextMapHash": 2446958090,
      "talkAssetPath": "",
      "talkAssetPathAlter": "",
      "talkAudioName": "",
      "actionBefore": "",
      "actionWhile": "",
      "actionAfter": "",
      "optionIcon": "",
      "iconPath": ""
    }
  ],
  "CHAKPMBJNAJ": [
    "[3_330201494:-288.243,244.988,2837.843,0.000,97.430,0.000]",
    "[3_330201495:-286.463,244.880,2839.064,0.000,231.647,0.000]",
    "[3_3997:-286.638,245.104,2837.876,0.000,301.325,0.000]"
  ]
}