{
  "talkId": 141,
  "damageRatio": "COOP",
  "dialogList": [
    {
      "id": 190781601,
      "nextDialogs": [
        190781602
      ],
      "talkRole": {
        "type": "TALK_ROLE_NPC",
        "_id": "13268"
      },
      "talkContentTextMapHash": 434612426,
      "talkAssetPath": "",
      "talkAssetPathAlter": "",
      "talkAudioName": "",
      "actionBefore": "",
      "actionWhile": "",
      "actionAfter": "",
      "optionIcon": "",
      "iconPath": ""
    },
    {
      "id": 190781602,
      "nextDialogs": [
        190781603
      ],
      "talkRole": {
        "type": "TALK_ROLE_NPC",
        "_id": "13243"
      },
      "talkContentTextMapHash": 3569505562,
      "talkAssetPath": "",
      "talkAssetPathAlter": "",
      "talkAudioName": "",
      "actionBefore": "",
      "actionWhile": "",
      "actionAfter": "",
      "optionIcon": "",
      "iconPath": ""
    },
    {
      "id": 190781603,
      "nextDialogs": [
        190781604
      ],
      "talkRole": {
        "type": "TALK_ROLE_NPC",
        "_id": "13242"
      },
      "talkContentTextMapHash": 740882962,
      "talkAssetPath": "",
      "talkAssetPathAlter": "",
      "talkAudioName": "",
      "actionBefore": "",
      "actionWhile": "",
      "actionAfter": "",
      "optionIcon": "",
      "iconPath": ""
    },
    {
      "id": 190781604,
      "nextDialogs": [
        190781605
      ],
      "talkRole": {
        "type": "TALK_ROLE_NPC",
        "_id": "13268"
      },
      "talkContentTextMapHash": 3047622186,
      "talkAssetPath": "",
      "talkAssetPathAlter": "",
      "talkAudioName": "",
      "actionBefore": "",
      "actionWhile": "",
      "actionAfter": "",
      "optionIcon": "",
      "iconPath": ""
    },
    {
      "id": 190781605,
      "nextDialogs": [
        190781606
      ],
      "talkRole": {
        "type": "TALK_ROLE_NPC",
        "_id": "13268"
      },
      "talkContentTextMapHash": 1504467322,
      "talkAssetPath": "",
      "talkAssetPathAlter": "",
      "talkAudioName": "",
      "actionBefore": "",
      "actionWhile": "",
      "actionAfter": "",
      "optionIcon": "",
      "iconPath": ""
    },
    {
      "id": 190781606,
      "nextDialogs": [
        190781607
      ],
      "talkRole": {
        "type": "TALK_ROLE_NPC",
        "_id": "13242"
      },
      "talkContentTextMapHash": 2059803666,
      "talkAssetPath": "",
      "talkAssetPathAlter": "",
      "talkAudioName": "",
      "actionBefore": "",
      "actionWhile": "",
      "actionAfter": "",
      "optionIcon": "",
      "iconPath": ""
    },
    {
      "id": 190781607,
      "nextDialogs": [
        190781608
      ],
      "talkRole": {
        "type": "TALK_ROLE_NPC",
        "_id": "13243"
      },
      "talkContentTextMapHash": 2877958330,
      "talkAssetPath": "",
      "talkAssetPathAlter": "",
      "talkAudioName": "",
      "actionBefore": "",
      "actionWhile": "",
      "actionAfter": "",
      "optionIcon": "",
      "iconPath": ""
    },
    {
      "id": 190781608,
      "nextDialogs": [
        190781609
      ],
      "talkRole": {
        "type": "TALK_ROLE_NPC",
        "_id": "515"
      },
      "talkContentTextMapHash": 622827042,
      "talkAssetPath": "",
      "talkAssetPathAlter": "",
      "talkAudioName": "",
      "actionBefore": "",
      "actionWhile": "",
      "actionAfter": "",
      "optionIcon": "",
      "iconPath": ""
    },
    {
      "id": 190781609,
      "nextDialogs": [
        190781610
      ],
      "talkRole": {
        "type": "TALK_ROLE_NPC",
        "_id": "13243"
      },
      "talkContentTextMapHash": 3249476146,
      "talkAssetPath": "",
      "talkAssetPathAlter": "",
      "talkAudioName": "",
      "actionBefore": "",
      "actionWhile": "",
      "actionAfter": "",
      "optionIcon": "",
      "iconPath": ""
    },
    {
      "id": 190781610,
      "nextDialogs": [
        190781611
      ],
      "talkRole": {
        "type": "TALK_ROLE_NPC",
        "_id": "515"
      },
      "talkContentTextMapHash": 2652395090,
      "talkAssetPath": "",
      "talkAssetPathAlter": "",
      "talkAudioName": "",
      "actionBefore": "",
      "actionWhile": "",
      "actionAfter": "",
      "optionIcon": "",
      "iconPath": ""
    },
    {
      "id": 190781611,
      "nextDialogs": [
        190781612
      ],
      "talkRole": {
        "type": "TALK_ROLE_NPC",
        "_id": "515"
      },
      "talkContentTextMapHash": 1212978010,
      "talkAssetPath": "",
      "talkAssetPathAlter": "",
      "talkAudioName": "",
      "actionBefore": "",
      "actionWhile": "",
      "actionAfter": "",
      "optionIcon": "",
      "iconPath": ""
    },
    {
      "id": 190781612,
      "nextDialogs": [
        190781613
      ],
      "talkRole": {
        "type": "TALK_ROLE_NPC",
        "_id": "515"
      },
      "talkContentTextMapHash": 2331226706,
      "talkAssetPath": "",
      "talkAssetPathAlter": "",
      "talkAudioName": "",
      "actionBefore": "",
      "actionWhile": "",
      "actionAfter": "",
      "optionIcon": "",
      "iconPath": ""
    },
    {
      "id": 190781613,
      "nextDialogs": [
        190781614
      ],
      "talkRole": {
        "type": "TALK_ROLE_NPC",
        "_id": "515"
      },
      "talkContentTextMapHash": 3071544154,
      "talkAssetPath": "",
      "talkAssetPathAlter": "",
      "talkAudioName": "",
      "actionBefore": "",
      "actionWhile": "",
      "actionAfter": "",
      "optionIcon": "",
      "iconPath": ""
    },
    {
      "id": 190781614,
      "nextDialogs": [
        190781615
      ],
      "talkRole": {
        "type": "TALK_ROLE_NPC",
        "_id": "515"
      },
      "talkContentTextMapHash": 1905835442,
      "talkAssetPath": "",
      "talkAssetPathAlter": "",
      "talkAudioName": "",
      "actionBefore": "",
      "actionWhile": "",
      "actionAfter": "",
      "optionIcon": "",
      "iconPath": ""
    },
    {
      "id": 190781615,
      "nextDialogs": [
        190781616
      ],
      "talkRole": {
        "type": "TALK_ROLE_NPC",
        "_id": "515"
      },
      "talkContentTextMapHash": 2381048642,
      "talkAssetPath": "",
      "talkAssetPathAlter": "",
      "talkAudioName": "",
      "actionBefore": "",
      "actionWhile": "",
      "actionAfter": "",
      "optionIcon": "",
      "iconPath": ""
    },
    {
      "id": 190781616,
      "talkRole": {
        "type": "TALK_ROLE_NPC",
        "_id": "13242"
      },
      "talkContentTextMapHash": 3339774306,
      "talkAssetPath": "",
      "talkAssetPathAlter": "",
      "talkAudioName": "",
      "actionBefore": "",
      "actionWhile": "",
      "actionAfter": "",
      "optionIcon": "",
      "iconPath": ""
    }
  ],
  "CHAKPMBJNAJ": [
    "[3_330400486:-1788.079,204.272,2672.147,0.000,301.111,0.000]",
    "[3_3932:-1790.778,204.272,2670.906,0.000,342.025,0.000]",
    "[3_4247:-1790.505,204.272,2672.268,-0.002,320.540,0.001]",
    "[3_4249:-1791.365,204.272,2671.837,-0.002,352.422,0.000]",
    "[3_4250:-1789.836,204.272,2673.045,0.000,289.736,0.000]"
  ]
}