{
  "talkId": 259,
  "damageRatio": "COOP",
  "dialogList": [
    {
      "id": 190800701,
      "nextDialogs": [
        190800702
      ],
      "talkRole": {
        "type": "TALK_ROLE_NPC",
        "_id": "516"
      },
      "talkContentTextMapHash": 874308922,
      "talkAssetPath": "",
      "talkAssetPathAlter": "",
      "talkAudioName": "",
      "actionBefore": "",
      "actionWhile": "",
      "actionAfter": "",
      "optionIcon": "",
      "iconPath": ""
    },
    {
      "id": 190800702,
      "nextDialogs": [
        190800703
      ],
      "talkRole": {
        "type": "TALK_ROLE_NPC",
        "_id": "516"
      },
      "talkContentTextMapHash": 1613226194,
      "talkAssetPath": "",
      "talkAssetPathAlter": "",
      "talkAudioName": "",
      "actionBefore": "",
      "actionWhile": "",
      "actionAfter": "",
      "optionIcon": "",
      "iconPath": ""
    },
    {
      "id": 190800703,
      "nextDialogs": [
        190800704
      ],
      "talkRole": {
        "type": "TALK_ROLE_NPC",
        "_id": "13308"
      },
      "talkContentTextMapHash": 3614231594,
      "talkRoleNameTextMapHash": 1075674235,
      "talkAssetPath": "",
      "talkAssetPathAlter": "",
      "talkAudioName": "",
      "actionBefore": "",
      "actionWhile": "",
      "actionAfter": "",
      "optionIcon": "",
      "iconPath": ""
    },
    {
      "id": 190800704,
      "nextDialogs": [
        190800799,
        190800798
      ],
      "talkRole": {
        "type": "TALK_ROLE_NPC",
        "_id": "516"
      },
      "talkContentTextMapHash": 4247117922,
      "talkAssetPath": "",
      "talkAssetPathAlter": "",
      "talkAudioName": "",
      "actionBefore": "",
      "actionWhile": "",
      "actionAfter": "",
      "optionIcon": "",
      "iconPath": ""
    },
    {
      "id": 190800705,
      "nextDialogs": [
        190800706
      ],
      "talkRole": {
        "type": "TALK_ROLE_NPC",
        "_id": "516"
      },
      "talkContentTextMapHash": 3625637986,
      "talkAssetPath": "",
      "talkAssetPathAlter": "",
      "talkAudioName": "",
      "actionBefore": "",
      "actionWhile": "",
      "actionAfter": "",
      "optionIcon": "",
      "iconPath": ""
    },
    {
      "id": 190800706,
      "nextDialogs": [
        190800797,
        190800796,
        190800795
      ],
      "talkRole": {
        "type": "TALK_ROLE_NPC",
        "_id": "13308"
      },
      "talkContentTextMapHash": 957915562,
      "talkRoleNameTextMapHash": 451999523,
      "talkAssetPath": "",
      "talkAssetPathAlter": "",
      "talkAudioName": "",
      "actionBefore": "",
      "actionWhile": "",
      "actionAfter": "",
      "optionIcon": "",
      "iconPath": ""
    },
    {
      "id": 190800707,
      "nextDialogs": [
        190800708
      ],
      "talkRole": {
        "type": "TALK_ROLE_NPC",
        "_id": "2102"
      },
      "talkContentTextMapHash": 4216141130,
      "talkAssetPath": "",
      "talkAssetPathAlter": "",
      "talkAudioName": "",
      "actionBefore": "",
      "actionWhile": "",
      "actionAfter": "",
      "optionIcon": "",
      "iconPath": ""
    },
    {
      "id": 190800708,
      "nextDialogs": [
        190800709
      ],
      "talkRole": {
        "type": "TALK_ROLE_NPC",
        "_id": "516"
      },
      "talkContentTextMapHash": 1418279378,
      "talkAssetPath": "",
      "talkAssetPathAlter": "",
      "talkAudioName": "",
      "actionBefore": "",
      "actionWhile": "",
      "actionAfter": "",
      "optionIcon": "",
      "iconPath": ""
    },
    {
      "id": 190800709,
      "nextDialogs": [
        190800710
      ],
      "talkRole": {
        "type": "TALK_ROLE_NPC",
        "_id": "516"
      },
      "talkContentTextMapHash": 3331125154,
      "talkAssetPath": "",
      "talkAssetPathAlter": "",
      "talkAudioName": "",
      "actionBefore": "",
      "actionWhile": "",
      "actionAfter": "",
      "optionIcon": "",
      "iconPath": ""
    },
    {
      "id": 190800710,
      "nextDialogs": [
        190800711
      ],
      "talkRole": {
        "type": "TALK_ROLE_NPC",
        "_id": "13308"
      },
      "talkContentTextMapHash": 1204077002,
      "talkRoleNameTextMapHash": 4117482203,
      "talkAssetPath": "",
      "talkAssetPathAlter": "",
      "talkAudioName": "",
      "actionBefore": "",
      "actionWhile": "",
      "actionAfter": "",
      "optionIcon": "",
      "iconPath": ""
    },
    {
      "id": 190800711,
      "nextDialogs": [
        190800793,
        190800792
      ],
      "talkRole": {
        "type": "TALK_ROLE_NPC",
        "_id": "516"
      },
      "talkContentTextMapHash": 4003702530,
      "talkAssetPath": "",
      "talkAssetPathAlter": "",
      "talkAudioName": "",
      "actionBefore": "",
      "actionWhile": "",
      "actionAfter": "",
      "optionIcon": "",
      "iconPath": ""
    },
    {
      "id": 190800712,
      "nextDialogs": [
        190800713
      ],
      "talkRole": {
        "type": "TALK_ROLE_NPC",
        "_id": "516"
      },
      "talkContentTextMapHash": 68787618,
      "talkAssetPath": "",
      "talkAssetPathAlter": "",
      "talkAudioName": "",
      "actionBefore": "",
      "actionWhile": "",
      "actionAfter": "",
      "optionIcon": "",
      "iconPath": ""
    },
    {
      "id": 190800713,
      "nextDialogs": [
        190800714
      ],
      "talkRole": {
        "type": "TALK_ROLE_NPC",
        "_id": "516"
      },
      "talkContentTextMapHash": 312883946,
      "talkAssetPath": "",
      "talkAssetPathAlter": "",
      "talkAudioName": "",
      "actionBefore": "",
      "actionWhile": "",
      "actionAfter": "",
      "optionIcon": "",
      "iconPath": ""
    },
    {
      "id": 190800714,
      "nextDialogs": [
        190800789,
        190800788
      ],
      "talkRole": {
        "type": "TALK_ROLE_NPC",
        "_id": "516"
      },
      "talkContentTextMapHash": 1648758370,
      "talkAssetPath": "",
      "talkAssetPathAlter": "",
      "talkAudioName": "",
      "actionBefore": "",
      "actionWhile": "",
      "actionAfter": "",
      "optionIcon": "",
      "iconPath": ""
    },
    {
      "id": 190800715,
      "nextDialogs": [
        190800717
      ],
      "talkRole": {
        "type": "TALK_ROLE_NPC",
        "_id": "516"
      },
      "talkContentTextMapHash": 3787041394,
      "talkAssetPath": "",
      "talkAssetPathAlter": "",
      "talkAudioName": "",
      "actionBefore": "",
      "actionWhile": "",
      "actionAfter": "",
      "optionIcon": "",
      "iconPath": ""
    },
    {
      "id": 190800716,
      "nextDialogs": [
        190800717
      ],
      "talkRole": {
        "type": "TALK_ROLE_NPC",
        "_id": "516"
      },
      "talkContentTextMapHash": 1729870874,
      "talkAssetPath": "",
      "talkAssetPathAlter": "",
      "talkAudioName": "",
      "actionBefore": "",
      "actionWhile": "",
      "actionAfter": "",
      "optionIcon": "",
      "iconPath": ""
    },
    {
      "id": 190800717,
      "nextDialogs": [
        190800718
      ],
      "talkRole": {
        "type": "TALK_ROLE_NPC",
        "_id": "13308"
      },
      "talkContentTextMapHash": 2502076522,
      "talkRoleNameTextMapHash": 3529972259,
      "talkAssetPath": "",
      "talkAssetPathAlter": "",
      "talkAudioName": "",
      "actionBefore": "",
      "actionWhile": "",
      "actionAfter": "",
      "optionIcon": "",
      "iconPath": ""
    },
    {
      "id": 190800718,
      "nextDialogs": [
        190800719
      ],
      "talkRole": {
        "type": "TALK_ROLE_NPC",
        "_id": "516"
      },
      "talkContentTextMapHash": 1635904962,
      "talkAssetPath": "",
      "talkAssetPathAlter": "",
      "talkAudioName": "",
      "actionBefore": "",
      "actionWhile": "",
      "actionAfter": "",
      "optionIcon": "",
      "iconPath": ""
    },
    {
      "id": 190800719,
      "nextDialogs": [
        190800720
      ],
      "talkRole": {
        "type": "TALK_ROLE_NPC",
        "_id": "13308"
      },
      "talkContentTextMapHash": 2701775826,
      "talkRoleNameTextMapHash": 3498086915,
      "talkAssetPath": "",
      "talkAssetPathAlter": "",
      "talkAudioName": "",
      "actionBefore": "",
      "actionWhile": "",
      "actionAfter": "",
      "optionIcon": "",
      "iconPath": ""
    },
    {
      "id": 190800720,
      "nextDialogs": [
        190800721
      ],
      "talkRole": {
        "type": "TALK_ROLE_NPC",
        "_id": "516"
      },
      "talkContentTextMapHash": 3751173442,
      "talkAssetPath": "",
      "talkAssetPathAlter": "",
      "talkAudioName": "",
      "actionBefore": "",
      "actionWhile": "",
      "actionAfter": "",
      "optionIcon": "",
      "iconPath": ""
    },
    {
      "id": 190800721,
      "nextDialogs": [
        190800722
      ],
      "talkRole": {
        "type": "TALK_ROLE_NPC",
        "_id": "13308"
      },
      "talkContentTextMapHash": 2448549986,
      "talkRoleNameTextMapHash": 1805218947,
      "talkAssetPath": "",
      "talkAssetPathAlter": "",
      "talkAudioName": "",
      "actionBefore": "",
      "actionWhile": "",
      "actionAfter": "",
      "optionIcon": "",
      "iconPath": ""
    },
    {
      "id": 190800722,
      "nextDialogs": [
        190800723
      ],
      "talkRole": {
        "type": "TALK_ROLE_NPC",
        "_id": "13308"
      },
      "talkContentTextMapHash": 681775162,
      "talkRoleNameTextMapHash": 4190769091,
      "talkAssetPath": "",
      "talkAssetPathAlter": "",
      "talkAudioName": "",
      "actionBefore": "",
      "actionWhile": "",
      "actionAfter": "",
      "optionIcon": "",
      "iconPath": ""
    },
    {
      "id": 190800723,
      "nextDialogs": [
        190800787
      ],
      "talkRole": {
        "type": "TALK_ROLE_NPC",
        "_id": "516"
      },
      "talkContentTextMapHash": 3657463826,
      "talkAssetPath": "",
      "talkAssetPathAlter": "",
      "talkAudioName": "",
      "actionBefore": "",
      "actionWhile": "",
      "actionAfter": "",
      "optionIcon": "",
      "iconPath": ""
    },
    {
      "id": 190800724,
      "nextDialogs": [
        190800725
      ],
      "talkRole": {
        "type": "TALK_ROLE_NPC",
        "_id": "516"
      },
      "talkContentTextMapHash": 2751428778,
      "talkAssetPath": "",
      "talkAssetPathAlter": "",
      "talkAudioName": "",
      "actionBefore": "",
      "actionWhile": "",
      "actionAfter": "",
      "optionIcon": "",
      "iconPath": ""
    },
    {
      "id": 190800725,
      "nextDialogs": [
        190800726
      ],
      "talkRole": {
        "type": "TALK_ROLE_NPC",
        "_id": "13308"
      },
      "talkContentTextMapHash": 2139253186,
      "talkRoleNameTextMapHash": 1938110947,
      "talkAssetPath": "",
      "talkAssetPathAlter": "",
      "talkAudioName": "",
      "actionBefore": "",
      "actionWhile": "",
      "actionAfter": "",
      "optionIcon": "",
      "iconPath": ""
    },
    {
      "id": 190800726,
      "nextDialogs": [
        190800727
      ],
      "talkRole": {
        "type": "TALK_ROLE_NPC",
        "_id": "516"
      },
      "talkContentTextMapHash": 3323830322,
      "talkAssetPath": "",
      "talkAssetPathAlter": "",
      "talkAudioName": "",
      "actionBefore": "",
      "actionWhile": "",
      "actionAfter": "",
      "optionIcon": "",
      "iconPath": ""
    },
    {
      "id": 190800727,
      "nextDialogs": [
        190800786
      ],
      "talkRole": {
        "type": "TALK_ROLE_NPC",
        "_id": "516"
      },
      "talkContentTextMapHash": 3051091786,
      "talkAssetPath": "",
      "talkAssetPathAlter": "",
      "talkAudioName": "",
      "actionBefore": "",
      "actionWhile": "",
      "actionAfter": "",
      "optionIcon": "",
      "iconPath": ""
    },
    {
      "id": 190800728,
      "nextDialogs": [
        190800783,
        190800782
      ],
      "talkRole": {
        "type": "TALK_ROLE_NPC",
        "_id": "516"
      },
      "talkContentTextMapHash": 1271285538,
      "talkAssetPath": "",
      "talkAssetPathAlter": "",
      "talkAudioName": "",
      "actionBefore": "",
      "actionWhile": "",
      "actionAfter": "",
      "optionIcon": "",
      "iconPath": ""
    },
    {
      "id": 190800729,
      "nextDialogs": [
        190800730
      ],
      "talkRole": {
        "type": "TALK_ROLE_NPC",
        "_id": "13308"
      },
      "talkContentTextMapHash": 4110918226,
      "talkRoleNameTextMapHash": 3532786987,
      "talkAssetPath": "",
      "talkAssetPathAlter": "",
      "talkAudioName": "",
      "actionBefore": "",
      "actionWhile": "",
      "actionAfter": "",
      "optionIcon": "",
      "iconPath": ""
    },
    {
      "id": 190800730,
      "nextDialogs": [
        190800781
      ],
      "talkRole": {
        "type": "TALK_ROLE_NPC",
        "_id": "516"
      },
      "talkContentTextMapHash": 1198359226,
      "talkAssetPath": "",
      "talkAssetPathAlter": "",
      "talkAudioName": "",
      "actionBefore": "",
      "actionWhile": "",
      "actionAfter": "",
      "optionIcon": "",
      "iconPath": ""
    },
    {
      "id": 190800731,
      "nextDialogs": [
        190800732
      ],
      "talkRole": {
        "type": "TALK_ROLE_NPC",
        "_id": "13308"
      },
      "talkContentTextMapHash": 532998706,
      "talkRoleNameTextMapHash": 3884225555,
      "talkAssetPath": "",
      "talkAssetPathAlter": "",
      "talkAudioName": "",
      "actionBefore": "",
      "actionWhile": "",
      "actionAfter": "",
      "optionIcon": "",
      "iconPath": ""
    },
    {
      "id": 190800732,
      "nextDialogs": [
        190800780
      ],
      "talkRole": {
        "type": "TALK_ROLE_NPC",
        "_id": "13308"
      },
      "talkContentTextMapHash": 1739263090,
      "talkRoleNameTextMapHash": 2982868059,
      "talkAssetPath": "",
      "talkAssetPathAlter": "",
      "talkAudioName": "",
      "actionBefore": "",
      "actionWhile": "",
      "actionAfter": "",
      "optionIcon": "",
      "iconPath": ""
    },
    {
      "id": 190800733,
      "nextDialogs": [
        190800734
      ],
      "talkRole": {
        "type": "TALK_ROLE_NPC",
        "_id": "516"
      },
      "talkContentTextMapHash": 2543539186,
      "talkAssetPath": "",
      "talkAssetPathAlter": "",
      "talkAudioName": "",
      "actionBefore": "",
      "actionWhile": "",
      "actionAfter": "",
      "optionIcon": "",
      "iconPath": ""
    },
    {
      "id": 190800734,
      "nextDialogs": [
        190800778,
        190800777
      ],
      "talkRole": {
        "type": "TALK_ROLE_NPC",
        "_id": "516"
      },
      "talkContentTextMapHash": 3018355226,
      "talkAssetPath": "",
      "talkAssetPathAlter": "",
      "talkAudioName": "",
      "actionBefore": "",
      "actionWhile": "",
      "actionAfter": "",
      "optionIcon": "",
      "iconPath": ""
    },
    {
      "id": 190800735,
      "nextDialogs": [
        190800736
      ],
      "talkRole": {
        "type": "TALK_ROLE_NPC",
        "_id": "516"
      },
      "talkContentTextMapHash": 2994056138,
      "talkAssetPath": "",
      "talkAssetPathAlter": "",
      "talkAudioName": "",
      "actionBefore": "",
      "actionWhile": "",
      "actionAfter": "",
      "optionIcon": "",
      "iconPath": ""
    },
    {
      "id": 190800736,
      "nextDialogs": [
        190800737
      ],
      "talkRole": {
        "type": "TALK_ROLE_NPC",
        "_id": "13308"
      },
      "talkContentTextMapHash": 1123493954,
      "talkRoleNameTextMapHash": 2826334667,
      "talkAssetPath": "",
      "talkAssetPathAlter": "",
      "talkAudioName": "",
      "actionBefore": "",
      "actionWhile": "",
      "actionAfter": "",
      "optionIcon": "",
      "iconPath": ""
    },
    {
      "id": 190800737,
      "nextDialogs": [
        190800738
      ],
      "talkRole": {
        "type": "TALK_ROLE_NPC",
        "_id": "516"
      },
      "talkContentTextMapHash": 100164498,
      "talkAssetPath": "",
      "talkAssetPathAlter": "",
      "talkAudioName": "",
      "actionBefore": "",
      "actionWhile": "",
      "actionAfter": "",
      "optionIcon": "",
      "iconPath": ""
    },
    {
      "id": 190800738,
      "nextDialogs": [
        190800739
      ],
      "talkRole": {
        "type": "TALK_ROLE_NPC",
        "_id": "13308"
      },
      "talkContentTextMapHash": 707667266,
      "talkRoleNameTextMapHash": 1623210923,
      "talkAssetPath": "",
      "talkAssetPathAlter": "",
      "talkAudioName": "",
      "actionBefore": "",
      "actionWhile": "",
      "actionAfter": "",
      "optionIcon": "",
      "iconPath": ""
    },
    {
      "id": 190800739,
      "nextDialogs": [
        190800740
      ],
      "talkRole": {
        "type": "TALK_ROLE_NPC",
        "_id": "516"
      },
      "talkContentTextMapHash": 979724218,
      "talkAssetPath": "",
      "talkAssetPathAlter": "",
      "talkAudioName": "",
      "actionBefore": "",
      "actionWhile": "",
      "actionAfter": "",
      "optionIcon": "",
      "iconPath": ""
    },
    {
      "id": 190800740,
      "nextDialogs": [
        190800741
      ],
      "talkRole": {
        "type": "TALK_ROLE_NPC",
        "_id": "13308"
      },
      "talkContentTextMapHash": 1446933186,
      "talkRoleNameTextMapHash": 4136366163,
      "talkAssetPath": "",
      "talkAssetPathAlter": "",
      "talkAudioName": "",
      "actionBefore": "",
      "actionWhile": "",
      "actionAfter": "",
      "optionIcon": "",
      "iconPath": ""
    },
    {
      "id": 190800741,
      "nextDialogs": [
        190800742
      ],
      "talkRole": {
        "type": "TALK_ROLE_NPC",
        "_id": "516"
      },
      "talkContentTextMapHash": 1538599554,
      "talkAssetPath": "",
      "talkAssetPathAlter": "",
      "talkAudioName": "",
      "actionBefore": "",
      "actionWhile": "",
      "actionAfter": "",
      "optionIcon": "",
      "iconPath": ""
    },
    {
      "id": 190800742,
      "nextDialogs": [
        190800743
      ],
      "talkRole": {
        "type": "TALK_ROLE_NPC",
        "_id": "13308"
      },
      "talkContentTextMapHash": 2322704162,
      "talkRoleNameTextMapHash": 3117678955,
      "talkAssetPath": "",
      "talkAssetPathAlter": "",
      "talkAudioName": "",
      "actionBefore": "",
      "actionWhile": "",
      "actionAfter": "",
      "optionIcon": "",
      "iconPath": ""
    },
    {
      "id": 190800743,
      "nextDialogs": [
        190800775
      ],
      "talkRole": {
        "type": "TALK_ROLE_NPC",
        "_id": "516"
      },
      "talkContentTextMapHash": 2436550082,
      "talkAssetPath": "",
      "talkAssetPathAlter": "",
      "talkAudioName": "",
      "actionBefore": "",
      "actionWhile": "",
      "actionAfter": "",
      "optionIcon": "",
      "iconPath": ""
    },
    {
      "id": 190800744,
      "talkRole": {
        "type": "TALK_ROLE_NPC",
        "_id": "516"
      },
      "talkContentTextMapHash": 1499286954,
      "talkAssetPath": "",
      "talkAssetPathAlter": "",
      "talkAudioName": "",
      "actionBefore": "",
      "actionWhile": "",
      "actionAfter": "",
      "optionIcon": "",
      "iconPath": ""
    },
    {
      "id": 190800775,
      "nextDialogs": [
        190800744
      ],
      "talkShowType": "TALK_SHOW_FORCE_SELECT",
      "talkRole": {
        "type": "TALK_ROLE_PLAYER",
        "_id": ""
      },
      "talkContentTextMapHash": 325379906,
      "talkAssetPath": "",
      "talkAssetPathAlter": "",
      "talkAudioName": "",
      "actionBefore": "",
      "actionWhile": "",
      "actionAfter": "",
      "optionIcon": "",
      "iconPath": ""
    },
    {
      "id": 190800776,
      "nextDialogs": [
        190800735
      ],
      "talkShowType": "TALK_SHOW_FORCE_SELECT",
      "talkRole": {
        "type": "TALK_ROLE_PLAYER",
        "_id": ""
      },
      "talkContentTextMapHash": 1264687482,
      "talkAssetPath": "",
      "talkAssetPathAlter": "",
      "talkAudioName": "",
      "actionBefore": "",
      "actionWhile": "",
      "actionAfter": "",
      "optionIcon": "",
      "iconPath": ""
    },
    {
      "id": 190800777,
      "nextDialogs": [
        190800776
      ],
      "talkRole": {
        "type": "TALK_ROLE_PLAYER",
        "_id": ""
      },
      "talkContentTextMapHash": 3406616682,
      "talkAssetPath": "",
      "talkAssetPathAlter": "",
      "talkAudioName": "",
      "actionBefore": "",
      "actionWhile": "",
      "actionAfter": "",
      "optionIcon": "",
      "iconPath": ""
    },
    {
      "id": 190800778,
      "nextDialogs": [
        190800776
      ],
      "talkRole": {
        "type": "TALK_ROLE_PLAYER",
        "_id": ""
      },
      "talkContentTextMapHash": 4044426618,
      "talkAssetPath": "",
      "talkAssetPathAlter": "",
      "talkAudioName": "",
      "actionBefore": "",
      "actionWhile": "",
      "actionAfter": "",
      "optionIcon": "",
      "iconPath": ""
    },
    {
      "id": 190800779,
      "nextDialogs": [
        190800733
      ],
      "talkShowType": "TALK_SHOW_FORCE_SELECT",
      "talkRole": {
        "type": "TALK_ROLE_PLAYER",
        "_id": ""
      },
      "talkContentTextMapHash": 2714119658,
      "talkAssetPath": "",
      "talkAssetPathAlter": "",
      "talkAudioName": "",
      "actionBefore": "",
      "actionWhile": "",
      "actionAfter": "",
      "optionIcon": "",
      "iconPath": ""
    },
    {
      "id": 190800780,
      "nextDialogs": [
        190800779
      ],
      "talkShowType": "TALK_SHOW_FORCE_SELECT",
      "talkRole": {
        "type": "TALK_ROLE_PLAYER",
        "_id": ""
      },
      "talkContentTextMapHash": 1863925618,
      "talkAssetPath": "",
      "talkAssetPathAlter": "",
      "talkAudioName": "",
      "actionBefore": "",
      "actionWhile": "",
      "actionAfter": "",
      "optionIcon": "",
      "iconPath": ""
    },
    {
      "id": 190800781,
      "nextDialogs": [
        190800731
      ],
      "talkShowType": "TALK_SHOW_FORCE_SELECT",
      "talkRole": {
        "type": "TALK_ROLE_PLAYER",
        "_id": ""
      },
      "talkContentTextMapHash": 375944682,
      "talkAssetPath": "",
      "talkAssetPathAlter": "",
      "talkAudioName": "",
      "actionBefore": "",
      "actionWhile": "",
      "actionAfter": "",
      "optionIcon": "",
      "iconPath": ""
    },
    {
      "id": 190800782,
      "nextDialogs": [
        190800729
      ],
      "talkRole": {
        "type": "TALK_ROLE_PLAYER",
        "_id": ""
      },
      "talkContentTextMapHash": 2020852218,
      "talkAssetPath": "",
      "talkAssetPathAlter": "",
      "talkAudioName": "",
      "actionBefore": "",
      "actionWhile": "",
      "actionAfter": "",
      "optionIcon": "",
      "iconPath": ""
    },
    {
      "id": 190800783,
      "nextDialogs": [
        190800729
      ],
      "talkRole": {
        "type": "TALK_ROLE_PLAYER",
        "_id": ""
      },
      "talkContentTextMapHash": 1359492314,
      "talkAssetPath": "",
      "talkAssetPathAlter": "",
      "talkAudioName": "",
      "actionBefore": "",
      "actionWhile": "",
      "actionAfter": "",
      "optionIcon": "",
      "iconPath": ""
    },
    {
      "id": 190800784,
      "nextDialogs": [
        190800728
      ],
      "talkShowType": "TALK_SHOW_FORCE_SELECT",
      "talkRole": {
        "type": "TALK_ROLE_PLAYER",
        "_id": ""
      },
      "talkContentTextMapHash": 3184324842,
      "talkAssetPath": "",
      "talkAssetPathAlter": "",
      "talkAudioName": "",
      "actionBefore": "",
      "actionWhile": "",
      "actionAfter": "",
      "optionIcon": "",
      "iconPath": ""
    },
    {
      "id": 190800785,
      "nextDialogs": [
        190800784
      ],
      "talkShowType": "TALK_SHOW_FORCE_SELECT",
      "talkRole": {
        "type": "TALK_ROLE_PLAYER",
        "_id": ""
      },
      "talkContentTextMapHash": 686687562,
      "talkAssetPath": "",
      "talkAssetPathAlter": "",
      "talkAudioName": "",
      "actionBefore": "",
      "actionWhile": "",
      "actionAfter": "",
      "optionIcon": "",
      "iconPath": ""
    },
    {
      "id": 190800786,
      "nextDialogs": [
        190800785
      ],
      "talkShowType": "TALK_SHOW_FORCE_SELECT",
      "talkRole": {
        "type": "TALK_ROLE_PLAYER",
        "_id": ""
      },
      "talkContentTextMapHash": 1373230362,
      "talkAssetPath": "",
      "talkAssetPathAlter": "",
      "talkAudioName": "",
      "actionBefore": "",
      "actionWhile": "",
      "actionAfter": "",
      "optionIcon": "",
      "iconPath": ""
    },
    {
      "id": 190800787,
      "nextDialogs": [
        190800724
      ],
      "talkShowType": "TALK_SHOW_FORCE_SELECT",
      "talkRole": {
        "type": "TALK_ROLE_PLAYER",
        "_id": ""
      },
      "talkContentTextMapHash": 1631370618,
      "talkAssetPath": "",
      "talkAssetPathAlter": "",
      "talkAudioName": "",
      "actionBefore": "",
      "actionWhile": "",
      "actionAfter": "",
      "optionIcon": "",
      "iconPath": ""
    },
    {
      "id": 190800788,
      "nextDialogs": [
        190800716
      ],
      "talkRole": {
        "type": "TALK_ROLE_PLAYER",
        "_id": ""
      },
      "talkContentTextMapHash": 1364414506,
      "talkAssetPath": "",
      "talkAssetPathAlter": "",
      "talkAudioName": "",
      "actionBefore": "",
      "actionWhile": "",
      "actionAfter": "",
      "optionIcon": "",
      "iconPath": ""
    },
    {
      "id": 190800789,
      "nextDialogs": [
        190800715
      ],
      "talkRole": {
        "type": "TALK_ROLE_PLAYER",
        "_id": ""
      },
      "talkContentTextMapHash": 1245126146,
      "talkAssetPath": "",
      "talkAssetPathAlter": "",
      "talkAudioName": "",
      "actionBefore": "",
      "actionWhile": "",
      "actionAfter": "",
      "optionIcon": "",
      "iconPath": ""
    },
    {
      "id": 190800790,
      "nextDialogs": [
        190800712
      ],
      "talkRole": {
        "type": "TALK_ROLE_PLAYER",
        "_id": ""
      },
      "talkContentTextMapHash": 179548034,
      "talkAssetPath": "",
      "talkAssetPathAlter": "",
      "talkAudioName": "",
      "actionBefore": "",
      "actionWhile": "",
      "actionAfter": "",
      "optionIcon": "",
      "iconPath": ""
    },
    {
      "id": 190800791,
      "nextDialogs": [
        190800712
      ],
      "talkRole": {
        "type": "TALK_ROLE_PLAYER",
        "_id": ""
      },
      "talkContentTextMapHash": 3762967306,
      "talkAssetPath": "",
      "talkAssetPathAlter": "",
      "talkAudioName": "",
      "actionBefore": "",
      "actionWhile": "",
      "actionAfter": "",
      "optionIcon": "",
      "iconPath": ""
    },
    {
      "id": 190800792,
      "nextDialogs": [
        190800791,
        190800790
      ],
      "talkRole": {
        "type": "TALK_ROLE_PLAYER",
        "_id": ""
      },
      "talkContentTextMapHash": 2141891114,
      "talkAssetPath": "",
      "talkAssetPathAlter": "",
      "talkAudioName": "",
      "actionBefore": "",
      "actionWhile": "",
      "actionAfter": "",
      "optionIcon": "",
      "iconPath": ""
    },
    {
      "id": 190800793,
      "nextDialogs": [
        190800791,
        190800790
      ],
      "talkRole": {
        "type": "TALK_ROLE_PLAYER",
        "_id": ""
      },
      "talkContentTextMapHash": 1965366402,
      "talkAssetPath": "",
      "talkAssetPathAlter": "",
      "talkAudioName": "",
      "actionBefore": "",
      "actionWhile": "",
      "actionAfter": "",
      "optionIcon": "",
      "iconPath": ""
    },
    {
      "id": 190800794,
      "nextDialogs": [
        190800707
      ],
      "talkShowType": "TALK_SHOW_FORCE_SELECT",
      "talkRole": {
        "type": "TALK_ROLE_PLAYER",
        "_id": ""
      },
      "talkContentTextMapHash": 973991106,
      "talkAssetPath": "",
      "talkAssetPathAlter": "",
      "talkAudioName": "",
      "actionBefore": "",
      "actionWhile": "",
      "actionAfter": "",
      "optionIcon": "",
      "iconPath": ""
    },
    {
      "id": 190800795,
      "nextDialogs": [
        190800794
      ],
      "talkRole": {
        "type": "TALK_ROLE_PLAYER",
        "_id": ""
      },
      "talkContentTextMapHash": 3993157922,
      "talkAssetPath": "",
      "talkAssetPathAlter": "",
      "talkAudioName": "",
      "actionBefore": "",
      "actionWhile": "",
      "actionAfter": "",
      "optionIcon": "",
      "iconPath": ""
    },
    {
      "id": 190800796,
      "nextDialogs": [
        190800794
      ],
      "talkRole": {
        "type": "TALK_ROLE_PLAYER",
        "_id": ""
      },
      "talkContentTextMapHash": 2625119498,
      "talkAssetPath": "",
      "talkAssetPathAlter": "",
      "talkAudioName": "",
      "actionBefore": "",
      "actionWhile": "",
      "actionAfter": "",
      "optionIcon": "",
      "iconPath": ""
    },
    {
      "id": 190800797,
      "nextDialogs": [
        190800794
      ],
      "talkRole": {
        "type": "TALK_ROLE_PLAYER",
        "_id": ""
      },
      "talkContentTextMapHash": 650938650,
      "talkAssetPath": "",
      "talkAssetPathAlter": "",
      "talkAudioName": "",
      "actionBefore": "",
      "actionWhile": "",
      "actionAfter": "",
      "optionIcon": "",
      "iconPath": ""
    },
    {
      "id": 190800798,
      "nextDialogs": [
        190800705
      ],
      "talkRole": {
        "type": "TALK_ROLE_PLAYER",
        "_id": ""
      },
      "talkContentTextMapHash": 3216215018,
      "talkAssetPath": "",
      "talkAssetPathAlter": "",
      "talkAudioName": "",
      "actionBefore": "",
      "actionWhile": "",
      "actionAfter": "",
      "optionIcon": "",
      "iconPath": ""
    },
    {
      "id": 190800799,
      "nextDialogs": [
        190800705
      ],
      "talkRole": {
        "type": "TALK_ROLE_PLAYER",
        "_id": ""
      },
      "talkContentTextMapHash": 1120303938,
      "talkAssetPath": "",
      "talkAssetPathAlter": "",
      "talkAudioName": "",
      "actionBefore": "",
      "actionWhile": "",
      "actionAfter": "",
      "optionIcon": "",
      "iconPath": ""
    }
  ],
  "CHAKPMBJNAJ": [
    "[3_4210:-630.584,228.332,296.417,0.000,94.985,0.000]",
    "[3_4211:-628.091,228.332,296.347,0.000,265.375,0.000]",
    "[3_4843:-633.059,228.313,296.828,0.000,82.300,0.000]"
  ]
}