{
  "talkId": 321,
  "damageRatio": "COOP",
  "dialogList": [
    {
      "id": 190940901,
      "nextDialogs": [
        190940999,
        190940998
      ],
      "talkRole": {
        "type": "TALK_ROLE_NPC",
        "_id": "516"
      },
      "talkContentTextMapHash": 1615989082,
      "talkAssetPath": "",
      "talkAssetPathAlter": "",
      "talkAudioName": "",
      "actionBefore": "",
      "actionWhile": "",
      "actionAfter": "",
      "optionIcon": "",
      "iconPath": ""
    },
    {
      "id": 190940902,
      "nextDialogs": [
        190940903
      ],
      "talkRole": {
        "type": "TALK_ROLE_NPC",
        "_id": "516"
      },
      "talkContentTextMapHash": 3473516266,
      "talkAssetPath": "",
      "talkAssetPathAlter": "",
      "talkAudioName": "",
      "actionBefore": "",
      "actionWhile": "",
      "actionAfter": "",
      "optionIcon": "",
      "iconPath": ""
    },
    {
      "id": 190940903,
      "nextDialogs": [
        190940904
      ],
      "talkRole": {
        "type": "TALK_ROLE_NPC",
        "_id": "516"
      },
      "talkContentTextMapHash": 3604674130,
      "talkAssetPath": "",
      "talkAssetPathAlter": "",
      "talkAudioName": "",
      "actionBefore": "",
      "actionWhile": "",
      "actionAfter": "",
      "optionIcon": "",
      "iconPath": ""
    },
    {
      "id": 190940904,
      "nextDialogs": [
        190940997,
        190940996
      ],
      "talkRole": {
        "type": "TALK_ROLE_NPC",
        "_id": "516"
      },
      "talkContentTextMapHash": 272471162,
      "talkAssetPath": "",
      "talkAssetPathAlter": "",
      "talkAudioName": "",
      "actionBefore": "",
      "actionWhile": "",
      "actionAfter": "",
      "optionIcon": "",
      "iconPath": ""
    },
    {
      "id": 190940905,
      "nextDialogs": [
        190940906
      ],
      "talkRole": {
        "type": "TALK_ROLE_NPC",
        "_id": "516"
      },
      "talkContentTextMapHash": 3802792258,
      "talkAssetPath": "",
      "talkAssetPathAlter": "",
      "talkAudioName": "",
      "actionBefore": "",
      "actionWhile": "",
      "actionAfter": "",
      "optionIcon": "",
      "iconPath": ""
    },
    {
      "id": 190940906,
      "nextDialogs": [
        190940907
      ],
      "talkRole": {
        "type": "TALK_ROLE_NPC",
        "_id": "516"
      },
      "talkContentTextMapHash": 2201397714,
      "talkAssetPath": "",
      "talkAssetPathAlter": "",
      "talkAudioName": "",
      "actionBefore": "",
      "actionWhile": "",
      "actionAfter": "",
      "optionIcon": "",
      "iconPath": ""
    },
    {
      "id": 190940907,
      "nextDialogs": [
        190940908
      ],
      "talkRole": {
        "type": "TALK_ROLE_NPC",
        "_id": "516"
      },
      "talkContentTextMapHash": 3504244154,
      "talkAssetPath": "",
      "talkAssetPathAlter": "",
      "talkAudioName": "",
      "actionBefore": "",
      "actionWhile": "",
      "actionAfter": "",
      "optionIcon": "",
      "iconPath": ""
    },
    {
      "id": 190940908,
      "nextDialogs": [
        190940909
      ],
      "talkRole": {
        "type": "TALK_ROLE_NPC",
        "_id": "1001"
      },
      "talkContentTextMapHash": 3793057034,
      "talkAssetPath": "",
      "talkAssetPathAlter": "",
      "talkAudioName": "",
      "actionBefore": "",
      "actionWhile": "",
      "actionAfter": "",
      "optionIcon": "",
      "iconPath": ""
    },
    {
      "id": 190940909,
      "nextDialogs": [
        190940910
      ],
      "talkRole": {
        "type": "TALK_ROLE_NPC",
        "_id": "1001"
      },
      "talkContentTextMapHash": 2076217522,
      "talkAssetPath": "",
      "talkAssetPathAlter": "",
      "talkAudioName": "",
      "actionBefore": "",
      "actionWhile": "",
      "actionAfter": "",
      "optionIcon": "",
      "iconPath": ""
    },
    {
      "id": 190940910,
      "nextDialogs": [
        190940911
      ],
      "talkRole": {
        "type": "TALK_ROLE_NPC",
        "_id": "516"
      },
      "talkContentTextMapHash": 2095951194,
      "talkAssetPath": "",
      "talkAssetPathAlter": "",
      "talkAudioName": "",
      "actionBefore": "",
      "actionWhile": "",
      "actionAfter": "",
      "optionIcon": "",
      "iconPath": ""
    },
    {
      "id": 190940911,
      "nextDialogs": [
        190940912
      ],
      "talkRole": {
        "type": "TALK_ROLE_NPC",
        "_id": "516"
      },
      "talkContentTextMapHash": 3273182882,
      "talkAssetPath": "",
      "talkAssetPathAlter": "",
      "talkAudioName": "",
      "actionBefore": "",
      "actionWhile": "",
      "actionAfter": "",
      "optionIcon": "",
      "iconPath": ""
    },
    {
      "id": 190940912,
      "nextDialogs": [
        190940913
      ],
      "talkRole": {
        "type": "TALK_ROLE_NPC",
        "_id": "516"
      },
      "talkContentTextMapHash": 3132052882,
      "talkAssetPath": "",
      "talkAssetPathAlter": "",
      "talkAudioName": "",
      "actionBefore": "",
      "actionWhile": "",
      "actionAfter": "",
      "optionIcon": "",
      "iconPath": ""
    },
    {
      "id": 190940913,
      "nextDialogs": [
        190940914
      ],
      "talkRole": {
        "type": "TALK_ROLE_NPC",
        "_id": "1001"
      },
      "talkContentTextMapHash": 1806106434,
      "talkAssetPath": "",
      "talkAssetPathAlter": "",
      "talkAudioName": "",
      "actionBefore": "",
      "actionWhile": "",
      "actionAfter": "",
      "optionIcon": "",
      "iconPath": ""
    },
    {
      "id": 190940914,
      "nextDialogs": [
        190940995,
        190940994
      ],
      "talkRole": {
        "type": "TALK_ROLE_NPC",
        "_id": "516"
      },
      "talkContentTextMapHash": 2881205994,
      "talkAssetPath": "",
      "talkAssetPathAlter": "",
      "talkAudioName": "",
      "actionBefore": "",
      "actionWhile": "",
      "actionAfter": "",
      "optionIcon": "",
      "iconPath": ""
    },
    {
      "id": 190940915,
      "nextDialogs": [
        190940916
      ],
      "talkRole": {
        "type": "TALK_ROLE_NPC",
        "_id": "516"
      },
      "talkContentTextMapHash": 2822214482,
      "talkAssetPath": "",
      "talkAssetPathAlter": "",
      "talkAudioName": "",
      "actionBefore": "",
      "actionWhile": "",
      "actionAfter": "",
      "optionIcon": "",
      "iconPath": ""
    },
    {
      "id": 190940916,
      "nextDialogs": [
        190940917
      ],
      "talkRole": {
        "type": "TALK_ROLE_NPC",
        "_id": "1001"
      },
      "talkContentTextMapHash": 1829239954,
      "talkAssetPath": "",
      "talkAssetPathAlter": "",
      "talkAudioName": "",
      "actionBefore": "",
      "actionWhile": "",
      "actionAfter": "",
      "optionIcon": "",
      "iconPath": ""
    },
    {
      "id": 190940917,
      "nextDialogs": [
        190940918
      ],
      "talkRole": {
        "type": "TALK_ROLE_NPC",
        "_id": "1001"
      },
      "talkContentTextMapHash": 693358458,
      "talkAssetPath": "",
      "talkAssetPathAlter": "",
      "talkAudioName": "",
      "actionBefore": "",
      "actionWhile": "",
      "actionAfter": "",
      "optionIcon": "",
      "iconPath": ""
    },
    {
      "id": 190940918,
      "nextDialogs": [
        190940919
      ],
      "talkRole": {
        "type": "TALK_ROLE_NPC",
        "_id": "1001"
      },
      "talkContentTextMapHash": 2310719562,
      "talkAssetPath": "",
      "talkAssetPathAlter": "",
      "talkAudioName": "",
      "actionBefore": "",
      "actionWhile": "",
      "actionAfter": "",
      "optionIcon": "",
      "iconPath": ""
    },
    {
      "id": 190940919,
      "nextDialogs": [
        190940920
      ],
      "talkRole": {
        "type": "TALK_ROLE_NPC",
        "_id": "1001"
      },
      "talkContentTextMapHash": 2956346370,
      "talkAssetPath": "",
      "talkAssetPathAlter": "",
      "talkAudioName": "",
      "actionBefore": "",
      "actionWhile": "",
      "actionAfter": "",
      "optionIcon": "",
      "iconPath": ""
    },
    {
      "id": 190940920,
      "nextDialogs": [
        190940921
      ],
      "talkRole": {
        "type": "TALK_ROLE_NPC",
        "_id": "1001"
      },
      "talkContentTextMapHash": 2111025954,
      "talkAssetPath": "",
      "talkAssetPathAlter": "",
      "talkAudioName": "",
      "actionBefore": "",
      "actionWhile": "",
      "actionAfter": "",
      "optionIcon": "",
      "iconPath": ""
    },
    {
      "id": 190940921,
      "nextDialogs": [
        190940922
      ],
      "talkRole": {
        "type": "TALK_ROLE_NPC",
        "_id": "1001"
      },
      "talkContentTextMapHash": 3850055442,
      "talkAssetPath": "",
      "talkAssetPathAlter": "",
      "talkAudioName": "",
      "actionBefore": "",
      "actionWhile": "",
      "actionAfter": "",
      "optionIcon": "",
      "iconPath": ""
    },
    {
      "id": 190940922,
      "nextDialogs": [
        190940923
      ],
      "talkRole": {
        "type": "TALK_ROLE_NPC",
        "_id": "1001"
      },
      "talkContentTextMapHash": 2906288578,
      "talkAssetPath": "",
      "talkAssetPathAlter": "",
      "talkAudioName": "",
      "actionBefore": "",
      "actionWhile": "",
      "actionAfter": "",
      "optionIcon": "",
      "iconPath": ""
    },
    {
      "id": 190940923,
      "nextDialogs": [
        190940924
      ],
      "talkRole": {
        "type": "TALK_ROLE_NPC",
        "_id": "1001"
      },
      "talkContentTextMapHash": 3070498666,
      "talkAssetPath": "",
      "talkAssetPathAlter": "",
      "talkAudioName": "",
      "actionBefore": "",
      "actionWhile": "",
      "actionAfter": "",
      "optionIcon": "",
      "iconPath": ""
    },
    {
      "id": 190940924,
      "nextDialogs": [
        190940925
      ],
      "talkRole": {
        "type": "TALK_ROLE_NPC",
        "_id": "516"
      },
      "talkContentTextMapHash": 2844670658,
      "talkAssetPath": "",
      "talkAssetPathAlter": "",
      "talkAudioName": "",
      "actionBefore": "",
      "actionWhile": "",
      "actionAfter": "",
      "optionIcon": "",
      "iconPath": ""
    },
    {
      "id": 190940925,
      "nextDialogs": [
        190940926
      ],
      "talkRole": {
        "type": "TALK_ROLE_NPC",
        "_id": "1001"
      },
      "talkContentTextMapHash": 2679389258,
      "talkAssetPath": "",
      "talkAssetPathAlter": "",
      "talkAudioName": "",
      "actionBefore": "",
      "actionWhile": "",
      "actionAfter": "",
      "optionIcon": "",
      "iconPath": ""
    },
    {
      "id": 190940926,
      "nextDialogs": [
        190940927
      ],
      "talkRole": {
        "type": "TALK_ROLE_NPC",
        "_id": "516"
      },
      "talkContentTextMapHash": 3337751634,
      "talkAssetPath": "",
      "talkAssetPathAlter": "",
      "talkAudioName": "",
      "actionBefore": "",
      "actionWhile": "",
      "actionAfter": "",
      "optionIcon": "",
      "iconPath": ""
    },
    {
      "id": 190940927,
      "talkRole": {
        "type": "TALK_ROLE_NPC",
        "_id": "1001"
      },
      "talkContentTextMapHash": 1318783482,
      "talkAssetPath": "",
      "talkAssetPathAlter": "",
      "talkAudioName": "",
      "actionBefore": "",
      "actionWhile": "",
      "actionAfter": "",
      "optionIcon": "",
      "iconPath": ""
    },
    {
      "id": 190940994,
      "nextDialogs": [
        190940915
      ],
      "talkRole": {
        "type": "TALK_ROLE_PLAYER",
        "_id": ""
      },
      "talkContentTextMapHash": 1217572962,
      "talkAssetPath": "",
      "talkAssetPathAlter": "",
      "talkAudioName": "",
      "actionBefore": "",
      "actionWhile": "",
      "actionAfter": "",
      "optionIcon": "",
      "iconPath": ""
    },
    {
      "id": 190940995,
      "nextDialogs": [
        190940915
      ],
      "talkRole": {
        "type": "TALK_ROLE_PLAYER",
        "_id": ""
      },
      "talkContentTextMapHash": 386450794,
      "talkAssetPath": "",
      "talkAssetPathAlter": "",
      "talkAudioName": "",
      "actionBefore": "",
      "actionWhile": "",
      "actionAfter": "",
      "optionIcon": "",
      "iconPath": ""
    },
    {
      "id": 190940996,
      "nextDialogs": [
        190940905
      ],
      "talkRole": {
        "type": "TALK_ROLE_PLAYER",
        "_id": ""
      },
      "talkContentTextMapHash": 2505106674,
      "talkAssetPath": "",
      "talkAssetPathAlter": "",
      "talkAudioName": "",
      "actionBefore": "",
      "actionWhile": "",
      "actionAfter": "",
      "optionIcon": "",
      "iconPath": ""
    },
    {
      "id": 190940997,
      "nextDialogs": [
        190940905
      ],
      "talkRole": {
        "type": "TALK_ROLE_PLAYER",
        "_id": ""
      },
      "talkContentTextMapHash": 729913026,
      "talkAssetPath": "",
      "talkAssetPathAlter": "",
      "talkAudioName": "",
      "actionBefore": "",
      "actionWhile": "",
      "actionAfter": "",
      "optionIcon": "",
      "iconPath": ""
    },
    {
      "id": 190940998,
      "nextDialogs": [
        190940902
      ],
      "talkRole": {
        "type": "TALK_ROLE_PLAYER",
        "_id": ""
      },
      "talkContentTextMapHash": 172885458,
      "talkAssetPath": "",
      "talkAssetPathAlter": "",
      "talkAudioName": "",
      "actionBefore": "",
      "actionWhile": "",
      "actionAfter": "",
      "optionIcon": "",
      "iconPath": ""
    },
    {
      "id": 190940999,
      "nextDialogs": [
        190940902
      ],
      "talkRole": {
        "type": "TALK_ROLE_PLAYER",
        "_id": ""
      },
      "talkContentTextMapHash": 923699178,
      "talkAssetPath": "",
      "talkAssetPathAlter": "",
      "talkAudioName": "",
      "actionBefore": "",
      "actionWhile": "",
      "actionAfter": "",
      "optionIcon": "",
      "iconPath": ""
    }
  ],
  "CHAKPMBJNAJ": [
    "[3_4225:2324.753,249.990,-778.646,0.000,334.520,0.000]",
    "[3_4982:2322.727,249.990,-777.724,0.000,142.110,0.000]"
  ]
}