{
  "talkId": 51,
  "damageRatio": "COOP",
  "dialogList": [
    {
      "id": 190980601,
      "nextDialogs": [
        190980602
      ],
      "talkRole": {
        "type": "TALK_ROLE_NPC",
        "_id": "4125"
      },
      "talkContentTextMapHash": 188924138,
      "talkAssetPath": "",
      "talkAssetPathAlter": "",
      "talkAudioName": "",
      "actionBefore": "",
      "actionWhile": "",
      "actionAfter": "",
      "optionIcon": "",
      "iconPath": ""
    },
    {
      "id": 190980602,
      "nextDialogs": [
        190980603
      ],
      "talkRole": {
        "type": "TALK_ROLE_NPC",
        "_id": "517"
      },
      "talkContentTextMapHash": 1633615026,
      "talkAssetPath": "",
      "talkAssetPathAlter": "",
      "talkAudioName": "",
      "actionBefore": "",
      "actionWhile": "",
      "actionAfter": "",
      "optionIcon": "",
      "iconPath": ""
    },
    {
      "id": 190980603,
      "nextDialogs": [
        190980699,
        190980698
      ],
      "talkRole": {
        "type": "TALK_ROLE_NPC",
        "_id": "4125"
      },
      "talkContentTextMapHash": 4195777450,
      "talkAssetPath": "",
      "talkAssetPathAlter": "",
      "talkAudioName": "",
      "actionBefore": "",
      "actionWhile": "",
      "actionAfter": "",
      "optionIcon": "",
      "iconPath": ""
    },
    {
      "id": 190980604,
      "nextDialogs": [
        190980606
      ],
      "talkRole": {
        "type": "TALK_ROLE_NPC",
        "_id": "517"
      },
      "talkContentTextMapHash": 3212527554,
      "talkAssetPath": "",
      "talkAssetPathAlter": "",
      "talkAudioName": "",
      "actionBefore": "",
      "actionWhile": "",
      "actionAfter": "",
      "optionIcon": "",
      "iconPath": ""
    },
    {
      "id": 190980605,
      "nextDialogs": [
        190980606
      ],
      "talkRole": {
        "type": "TALK_ROLE_NPC",
        "_id": "517"
      },
      "talkContentTextMapHash": 2459529122,
      "talkAssetPath": "",
      "talkAssetPathAlter": "",
      "talkAudioName": "",
      "actionBefore": "",
      "actionWhile": "",
      "actionAfter": "",
      "optionIcon": "",
      "iconPath": ""
    },
    {
      "id": 190980606,
      "nextDialogs": [
        190980607
      ],
      "talkRole": {
        "type": "TALK_ROLE_NPC",
        "_id": "517"
      },
      "talkContentTextMapHash": 3584043282,
      "talkAssetPath": "",
      "talkAssetPathAlter": "",
      "talkAudioName": "",
      "actionBefore": "",
      "actionWhile": "",
      "actionAfter": "",
      "optionIcon": "",
      "iconPath": ""
    },
    {
      "id": 190980607,
      "nextDialogs": [
        190980608
      ],
      "talkRole": {
        "type": "TALK_ROLE_NPC",
        "_id": "13306"
      },
      "talkContentTextMapHash": 2942696834,
      "talkAssetPath": "",
      "talkAssetPathAlter": "",
      "talkAudioName": "",
      "actionBefore": "",
      "actionWhile": "",
      "actionAfter": "",
      "optionIcon": "",
      "iconPath": ""
    },
    {
      "id": 190980608,
      "nextDialogs": [
        190980609
      ],
      "talkRole": {
        "type": "TALK_ROLE_NPC",
        "_id": "13304"
      },
      "talkContentTextMapHash": 4199586418,
      "talkAssetPath": "",
      "talkAssetPathAlter": "",
      "talkAudioName": "",
      "actionBefore": "",
      "actionWhile": "",
      "actionAfter": "",
      "optionIcon": "",
      "iconPath": ""
    },
    {
      "id": 190980609,
      "nextDialogs": [
        190980610
      ],
      "talkRole": {
        "type": "TALK_ROLE_NPC",
        "_id": "13306"
      },
      "talkContentTextMapHash": 316730794,
      "talkAssetPath": "",
      "talkAssetPathAlter": "",
      "talkAudioName": "",
      "actionBefore": "",
      "actionWhile": "",
      "actionAfter": "",
      "optionIcon": "",
      "iconPath": ""
    },
    {
      "id": 190980610,
      "nextDialogs": [
        190980611
      ],
      "talkRole": {
        "type": "TALK_ROLE_NPC",
        "_id": "13306"
      },
      "talkContentTextMapHash": 1989957754,
      "talkAssetPath": "",
      "talkAssetPathAlter": "",
      "talkAudioName": "",
      "actionBefore": "",
      "actionWhile": "",
      "actionAfter": "",
      "optionIcon": "",
      "iconPath": ""
    },
    {
      "id": 190980611,
      "nextDialogs": [
        190980612
      ],
      "talkRole": {
        "type": "TALK_ROLE_NPC",
        "_id": "13306"
      },
      "talkContentTextMapHash": 2484065802,
      "talkAssetPath": "",
      "talkAssetPathAlter": "",
      "talkAudioName": "",
      "actionBefore": "",
      "actionWhile": "",
      "actionAfter": "",
      "optionIcon": "",
      "iconPath": ""
    },
    {
      "id": 190980612,
      "nextDialogs": [
        190980613
      ],
      "talkRole": {
        "type": "TALK_ROLE_NPC",
        "_id": "13304"
      },
      "talkContentTextMapHash": 3680809626,
      "talkAssetPath": "",
      "talkAssetPathAlter": "",
      "talkAudioName": "",
      "actionBefore": "",
      "actionWhile": "",
      "actionAfter": "",
      "optionIcon": "",
      "iconPath": ""
    },
    {
      "id": 190980613,
      "nextDialogs": [
        190980614
      ],
      "talkRole": {
        "type": "TALK_ROLE_NPC",
        "_id": "13306"
      },
      "talkContentTextMapHash": 2151966474,
      "talkAssetPath": "",
      "talkAssetPathAlter": "",
      "talkAudioName": "",
      "actionBefore": "",
      "actionWhile": "",
      "actionAfter": "",
      "optionIcon": "",
      "iconPath": ""
    },
    {
      "id": 190980614,
      "nextDialogs": [
        190980615
      ],
      "talkRole": {
        "type": "TALK_ROLE_NPC",
        "_id": "517"
      },
      "talkContentTextMapHash": 845168978,
      "talkAssetPath": "",
      "talkAssetPathAlter": "",
      "talkAudioName": "",
      "actionBefore": "",
      "actionWhile": "",
      "actionAfter": "",
      "optionIcon": "",
      "iconPath": ""
    },
    {
      "id": 190980615,
      "nextDialogs": [
        190980616
      ],
      "talkRole": {
        "type": "TALK_ROLE_NPC",
        "_id": "13306"
      },
      "talkContentTextMapHash": 2507245562,
      "talkAssetPath": "",
      "talkAssetPathAlter": "",
      "talkAudioName": "",
      "actionBefore": "",
      "actionWhile": "",
      "actionAfter": "",
      "optionIcon": "",
      "iconPath": ""
    },
    {
      "id": 190980616,
      "nextDialogs": [
        190980617
      ],
      "talkRole": {
        "type": "TALK_ROLE_NPC",
        "_id": "13306"
      },
      "talkContentTextMapHash": 48389314,
      "talkAssetPath": "",
      "talkAssetPathAlter": "",
      "talkAudioName": "",
      "actionBefore": "",
      "actionWhile": "",
      "actionAfter": "",
      "optionIcon": "",
      "iconPath": ""
    },
    {
      "id": 190980617,
      "nextDialogs": [
        190980618
      ],
      "talkRole": {
        "type": "TALK_ROLE_NPC",
        "_id": "13306"
      },
      "talkContentTextMapHash": 1891872986,
      "talkAssetPath": "",
      "talkAssetPathAlter": "",
      "talkAudioName": "",
      "actionBefore": "",
      "actionWhile": "",
      "actionAfter": "",
      "optionIcon": "",
      "iconPath": ""
    },
    {
      "id": 190980618,
      "nextDialogs": [
        190980619
      ],
      "talkRole": {
        "type": "TALK_ROLE_NPC",
        "_id": "13304"
      },
      "talkContentTextMapHash": 3908961554,
      "talkAssetPath": "",
      "talkAssetPathAlter": "",
      "talkAudioName": "",
      "actionBefore": "",
      "actionWhile": "",
      "actionAfter": "",
      "optionIcon": "",
      "iconPath": ""
    },
    {
      "id": 190980619,
      "nextDialogs": [
        190980620
      ],
      "talkRole": {
        "type": "TALK_ROLE_NPC",
        "_id": "13304"
      },
      "talkContentTextMapHash": 631866706,
      "talkAssetPath": "",
      "talkAssetPathAlter": "",
      "talkAudioName": "",
      "actionBefore": "",
      "actionWhile": "",
      "actionAfter": "",
      "optionIcon": "",
      "iconPath": ""
    },
    {
      "id": 190980620,
      "nextDialogs": [
        190980621
      ],
      "talkRole": {
        "type": "TALK_ROLE_NPC",
        "_id": "13304"
      },
      "talkContentTextMapHash": 241380530,
      "talkAssetPath": "",
      "talkAssetPathAlter": "",
      "talkAudioName": "",
      "actionBefore": "",
      "actionWhile": "",
      "actionAfter": "",
      "optionIcon": "",
      "iconPath": ""
    },
    {
      "id": 190980621,
      "nextDialogs": [
        190980622
      ],
      "talkRole": {
        "type": "TALK_ROLE_NPC",
        "_id": "13305"
      },
      "talkContentTextMapHash": 1501623274,
      "talkAssetPath": "",
      "talkAssetPathAlter": "",
      "talkAudioName": "",
      "actionBefore": "",
      "actionWhile": "",
      "actionAfter": "",
      "optionIcon": "",
      "iconPath": ""
    },
    {
      "id": 190980622,
      "nextDialogs": [
        190980623
      ],
      "talkRole": {
        "type": "TALK_ROLE_NPC",
        "_id": "13304"
      },
      "talkContentTextMapHash": 3550938906,
      "talkAssetPath": "",
      "talkAssetPathAlter": "",
      "talkAudioName": "",
      "actionBefore": "",
      "actionWhile": "",
      "actionAfter": "",
      "optionIcon": "",
      "iconPath": ""
    },
    {
      "id": 190980623,
      "nextDialogs": [
        190980624
      ],
      "talkRole": {
        "type": "TALK_ROLE_NPC",
        "_id": "517"
      },
      "talkContentTextMapHash": 4141927978,
      "talkAssetPath": "",
      "talkAssetPathAlter": "",
      "talkAudioName": "",
      "actionBefore": "",
      "actionWhile": "",
      "actionAfter": "",
      "optionIcon": "",
      "iconPath": ""
    },
    {
      "id": 190980624,
      "talkRole": {
        "type": "TALK_ROLE_NPC",
        "_id": "517"
      },
      "talkContentTextMapHash": 3523900778,
      "talkAssetPath": "",
      "talkAssetPathAlter": "",
      "talkAudioName": "",
      "actionBefore": "",
      "actionWhile": "",
      "actionAfter": "",
      "optionIcon": "",
      "iconPath": ""
    },
    {
      "id": 190980698,
      "nextDialogs": [
        190980605
      ],
      "talkRole": {
        "type": "TALK_ROLE_PLAYER",
        "_id": ""
      },
      "talkContentTextMapHash": 577953082,
      "talkAssetPath": "",
      "talkAssetPathAlter": "",
      "talkAudioName": "",
      "actionBefore": "",
      "actionWhile": "",
      "actionAfter": "",
      "optionIcon": "",
      "iconPath": ""
    },
    {
      "id": 190980699,
      "nextDialogs": [
        190980604
      ],
      "talkRole": {
        "type": "TALK_ROLE_PLAYER",
        "_id": ""
      },
      "talkContentTextMapHash": 3030672786,
      "talkAssetPath": "",
      "talkAssetPathAlter": "",
      "talkAudioName": "",
      "actionBefore": "",
      "actionWhile": "",
      "actionAfter": "",
      "optionIcon": "",
      "iconPath": ""
    }
  ],
  "CHAKPMBJNAJ": [
    "[3_4198:-2038.643,204.200,2583.194,0.000,280.600,0.000]",
    "[3_4338:-2043.554,204.451,2581.916,0.000,88.949,0.000]",
    "[3_4437:-2041.415,204.451,2580.328,0.000,291.996,0.000]",
    "[3_4438:-2041.077,204.451,2576.108,0.000,331.861,0.000]",
    "[3_4439:-2043.578,204.451,2575.965,0.000,15.016,0.000]"
  ]
}