{
  "talkId": 266,
  "damageRatio": "COOP",
  "dialogList": [
    {
      "id": 191821101,
      "nextDialogs": [
        191821102
      ],
      "talkRole": {
        "type": "TALK_ROLE_NPC",
        "_id": "13979"
      },
      "talkContentTextMapHash": 1453001914,
      "talkAssetPath": "",
      "talkAssetPathAlter": "",
      "talkAudioName": "",
      "actionBefore": "",
      "actionWhile": "",
      "actionAfter": "",
      "optionIcon": "",
      "iconPath": ""
    },
    {
      "id": 191821102,
      "nextDialogs": [
        191821103
      ],
      "talkRole": {
        "type": "TALK_ROLE_NPC",
        "_id": "13980"
      },
      "talkContentTextMapHash": 3023884650,
      "talkAssetPath": "",
      "talkAssetPathAlter": "",
      "talkAudioName": "",
      "actionBefore": "",
      "actionWhile": "",
      "actionAfter": "",
      "optionIcon": "",
      "iconPath": ""
    },
    {
      "id": 191821103,
      "nextDialogs": [
        191821104
      ],
      "talkRole": {
        "type": "TALK_ROLE_NPC",
        "_id": "13933"
      },
      "talkContentTextMapHash": 3571787434,
      "talkAssetPath": "",
      "talkAssetPathAlter": "",
      "talkAudioName": "",
      "actionBefore": "",
      "actionWhile": "",
      "actionAfter": "",
      "optionIcon": "",
      "iconPath": ""
    },
    {
      "id": 191821104,
      "nextDialogs": [
        191821105
      ],
      "talkRole": {
        "type": "TALK_ROLE_NPC",
        "_id": "13979"
      },
      "talkContentTextMapHash": 4020867202,
      "talkAssetPath": "",
      "talkAssetPathAlter": "",
      "talkAudioName": "",
      "actionBefore": "",
      "actionWhile": "",
      "actionAfter": "",
      "optionIcon": "",
      "iconPath": ""
    },
    {
      "id": 191821105,
      "nextDialogs": [
        191821106
      ],
      "talkRole": {
        "type": "TALK_ROLE_NPC",
        "_id": "13933"
      },
      "talkContentTextMapHash": 731021698,
      "talkAssetPath": "",
      "talkAssetPathAlter": "",
      "talkAudioName": "",
      "actionBefore": "",
      "actionWhile": "",
      "actionAfter": "",
      "optionIcon": "",
      "iconPath": ""
    },
    {
      "id": 191821106,
      "nextDialogs": [
        191821107
      ],
      "talkRole": {
        "type": "TALK_ROLE_NPC",
        "_id": "13933"
      },
      "talkContentTextMapHash": 2052830882,
      "talkAssetPath": "",
      "talkAssetPathAlter": "",
      "talkAudioName": "",
      "actionBefore": "",
      "actionWhile": "",
      "actionAfter": "",
      "optionIcon": "",
      "iconPath": ""
    },
    {
      "id": 191821107,
      "nextDialogs": [
        191821108
      ],
      "talkShowType": "TALK_SHOW_FORCE_SELECT",
      "talkRole": {
        "type": "TALK_ROLE_PLAYER",
        "_id": ""
      },
      "talkContentTextMapHash": 704238986,
      "talkAssetPath": "",
      "talkAssetPathAlter": "",
      "talkAudioName": "",
      "actionBefore": "",
      "actionWhile": "",
      "actionAfter": "",
      "optionIcon": "",
      "iconPath": ""
    },
    {
      "id": 191821108,
      "nextDialogs": [
        191821109
      ],
      "talkRole": {
        "type": "TALK_ROLE_NPC",
        "_id": "518"
      },
      "talkContentTextMapHash": 4220138922,
      "talkAssetPath": "",
      "talkAssetPathAlter": "",
      "talkAudioName": "",
      "actionBefore": "",
      "actionWhile": "",
      "actionAfter": "",
      "optionIcon": "",
      "iconPath": ""
    },
    {
      "id": 191821109,
      "nextDialogs": [
        191821110
      ],
      "talkRole": {
        "type": "TALK_ROLE_BLACK_SCREEN",
        "_id": ""
      },
      "talkContentTextMapHash": 2844666562,
      "talkAssetPath": "",
      "talkAssetPathAlter": "",
      "talkAudioName": "",
      "actionBefore": "",
      "actionWhile": "",
      "actionAfter": "",
      "optionIcon": "",
      "iconPath": ""
    },
    {
      "id": 191821110,
      "nextDialogs": [
        191821111
      ],
      "talkRole": {
        "type": "TALK_ROLE_NPC",
        "_id": "13932"
      },
      "talkContentTextMapHash": 381399402,
      "talkAssetPath": "",
      "talkAssetPathAlter": "",
      "talkAudioName": "",
      "actionBefore": "",
      "actionWhile": "",
      "actionAfter": "",
      "optionIcon": "",
      "iconPath": ""
    },
    {
      "id": 191821111,
      "nextDialogs": [
        191821112
      ],
      "talkRole": {
        "type": "TALK_ROLE_NPC",
        "_id": "518"
      },
      "talkContentTextMapHash": 746259706,
      "talkAssetPath": "",
      "talkAssetPathAlter": "",
      "talkAudioName": "",
      "actionBefore": "",
      "actionWhile": "",
      "actionAfter": "",
      "optionIcon": "",
      "iconPath": ""
    },
    {
      "id": 191821112,
      "nextDialogs": [
        191821113
      ],
      "talkRole": {
        "type": "TALK_ROLE_NPC",
        "_id": "13933"
      },
      "talkContentTextMapHash": 2435093858,
      "talkAssetPath": "",
      "talkAssetPathAlter": "",
      "talkAudioName": "",
      "actionBefore": "",
      "actionWhile": "",
      "actionAfter": "",
      "optionIcon": "",
      "iconPath": ""
    },
    {
      "id": 191821113,
      "nextDialogs": [
        191821114,
        191821115
      ],
      "talkRole": {
        "type": "TALK_ROLE_NPC",
        "_id": "518"
      },
      "talkContentTextMapHash": 1246928202,
      "talkAssetPath": "",
      "talkAssetPathAlter": "",
      "talkAudioName": "",
      "actionBefore": "",
      "actionWhile": "",
      "actionAfter": "",
      "optionIcon": "",
      "iconPath": ""
    },
    {
      "id": 191821114,
      "nextDialogs": [
        191821116
      ],
      "talkRole": {
        "type": "TALK_ROLE_PLAYER",
        "_id": ""
      },
      "talkContentTextMapHash": 252560042,
      "talkAssetPath": "",
      "talkAssetPathAlter": "",
      "talkAudioName": "",
      "actionBefore": "",
      "actionWhile": "",
      "actionAfter": "",
      "optionIcon": "",
      "iconPath": ""
    },
    {
      "id": 191821115,
      "nextDialogs": [
        191821116
      ],
      "talkRole": {
        "type": "TALK_ROLE_PLAYER",
        "_id": ""
      },
      "talkContentTextMapHash": 386020706,
      "talkAssetPath": "",
      "talkAssetPathAlter": "",
      "talkAudioName": "",
      "actionBefore": "",
      "actionWhile": "",
      "actionAfter": "",
      "optionIcon": "",
      "iconPath": ""
    },
    {
      "id": 191821116,
      "nextDialogs": [
        191821117
      ],
      "talkRole": {
        "type": "TALK_ROLE_NPC",
        "_id": "518"
      },
      "talkContentTextMapHash": 432553946,
      "talkAssetPath": "",
      "talkAssetPathAlter": "",
      "talkAudioName": "",
      "actionBefore": "",
      "actionWhile": "",
      "actionAfter": "",
      "optionIcon": "",
      "iconPath": ""
    },
    {
      "id": 191821117,
      "nextDialogs": [
        191821118,
        191821119,
        191821120
      ],
      "talkRole": {
        "type": "TALK_ROLE_NPC",
        "_id": "518"
      },
      "talkContentTextMapHash": 38225906,
      "talkAssetPath": "",
      "talkAssetPathAlter": "",
      "talkAudioName": "",
      "actionBefore": "",
      "actionWhile": "",
      "actionAfter": "",
      "optionIcon": "",
      "iconPath": ""
    },
    {
      "id": 191821118,
      "nextDialogs": [
        191821121
      ],
      "talkRole": {
        "type": "TALK_ROLE_PLAYER",
        "_id": ""
      },
      "talkContentTextMapHash": 3306728794,
      "talkAssetPath": "",
      "talkAssetPathAlter": "",
      "talkAudioName": "",
      "actionBefore": "",
      "actionWhile": "",
      "actionAfter": "",
      "optionIcon": "",
      "iconPath": ""
    },
    {
      "id": 191821119,
      "nextDialogs": [
        191821121
      ],
      "talkRole": {
        "type": "TALK_ROLE_PLAYER",
        "_id": ""
      },
      "talkContentTextMapHash": 364201450,
      "talkAssetPath": "",
      "talkAssetPathAlter": "",
      "talkAudioName": "",
      "actionBefore": "",
      "actionWhile": "",
      "actionAfter": "",
      "optionIcon": "",
      "iconPath": ""
    },
    {
      "id": 191821120,
      "nextDialogs": [
        191821121
      ],
      "talkRole": {
        "type": "TALK_ROLE_PLAYER",
        "_id": ""
      },
      "talkContentTextMapHash": 3856412226,
      "talkAssetPath": "",
      "talkAssetPathAlter": "",
      "talkAudioName": "",
      "actionBefore": "",
      "actionWhile": "",
      "actionAfter": "",
      "optionIcon": "",
      "iconPath": ""
    },
    {
      "id": 191821121,
      "nextDialogs": [
        191821122
      ],
      "talkRole": {
        "type": "TALK_ROLE_NPC",
        "_id": "518"
      },
      "talkContentTextMapHash": 2017984346,
      "talkAssetPath": "",
      "talkAssetPathAlter": "",
      "talkAudioName": "",
      "actionBefore": "",
      "actionWhile": "",
      "actionAfter": "",
      "optionIcon": "",
      "iconPath": ""
    },
    {
      "id": 191821122,
      "nextDialogs": [
        191821123
      ],
      "talkShowType": "TALK_SHOW_FORCE_SELECT",
      "talkRole": {
        "type": "TALK_ROLE_PLAYER",
        "_id": ""
      },
      "talkContentTextMapHash": 2486078474,
      "talkAssetPath": "",
      "talkAssetPathAlter": "",
      "talkAudioName": "",
      "actionBefore": "",
      "actionWhile": "",
      "actionAfter": "",
      "optionIcon": "",
      "iconPath": ""
    },
    {
      "id": 191821123,
      "nextDialogs": [
        191821124
      ],
      "talkRole": {
        "type": "TALK_ROLE_NPC",
        "_id": "518"
      },
      "talkContentTextMapHash": 4247506874,
      "talkAssetPath": "",
      "talkAssetPathAlter": "",
      "talkAudioName": "",
      "actionBefore": "",
      "actionWhile": "",
      "actionAfter": "",
      "optionIcon": "",
      "iconPath": ""
    },
    {
      "id": 191821124,
      "nextDialogs": [
        191821125
      ],
      "talkRole": {
        "type": "TALK_ROLE_NPC",
        "_id": "13933"
      },
      "talkContentTextMapHash": 3659711562,
      "talkAssetPath": "",
      "talkAssetPathAlter": "",
      "talkAudioName": "",
      "actionBefore": "",
      "actionWhile": "",
      "actionAfter": "",
      "optionIcon": "",
      "iconPath": ""
    },
    {
      "id": 191821125,
      "nextDialogs": [
        191821126
      ],
      "talkRole": {
        "type": "TALK_ROLE_NPC",
        "_id": "13933"
      },
      "talkContentTextMapHash": 1584267418,
      "talkAssetPath": "",
      "talkAssetPathAlter": "",
      "talkAudioName": "",
      "actionBefore": "",
      "actionWhile": "",
      "actionAfter": "",
      "optionIcon": "",
      "iconPath": ""
    },
    {
      "id": 191821126,
      "nextDialogs": [
        191821127
      ],
      "talkRole": {
        "type": "TALK_ROLE_NPC",
        "_id": "13933"
      },
      "talkContentTextMapHash": 2612762450,
      "talkAssetPath": "",
      "talkAssetPathAlter": "",
      "talkAudioName": "",
      "actionBefore": "",
      "actionWhile": "",
      "actionAfter": "",
      "optionIcon": "",
      "iconPath": ""
    },
    {
      "id": 191821127,
      "nextDialogs": [
        191821128
      ],
      "talkRole": {
        "type": "TALK_ROLE_NPC",
        "_id": "13933"
      },
      "talkContentTextMapHash": 3738300202,
      "talkAssetPath": "",
      "talkAssetPathAlter": "",
      "talkAudioName": "",
      "actionBefore": "",
      "actionWhile": "",
      "actionAfter": "",
      "optionIcon": "",
      "iconPath": ""
    },
    {
      "id": 191821128,
      "nextDialogs": [
        191821129
      ],
      "talkRole": {
        "type": "TALK_ROLE_NPC",
        "_id": "13933"
      },
      "talkContentTextMapHash": 4127341330,
      "talkAssetPath": "",
      "talkAssetPathAlter": "",
      "talkAudioName": "",
      "actionBefore": "",
      "actionWhile": "",
      "actionAfter": "",
      "optionIcon": "",
      "iconPath": ""
    },
    {
      "id": 191821129,
      "nextDialogs": [
        191821130
      ],
      "talkRole": {
        "type": "TALK_ROLE_NPC",
        "_id": "13932"
      },
      "talkContentTextMapHash": 1107133730,
      "talkAssetPath": "",
      "talkAssetPathAlter": "",
      "talkAudioName": "",
      "actionBefore": "",
      "actionWhile": "",
      "actionAfter": "",
      "optionIcon": "",
      "iconPath": ""
    },
    {
      "id": 191821130,
      "nextDialogs": [
        191821131
      ],
      "talkRole": {
        "type": "TALK_ROLE_NPC",
        "_id": "518"
      },
      "talkContentTextMapHash": 2859752258,
      "talkAssetPath": "",
      "talkAssetPathAlter": "",
      "talkAudioName": "",
      "actionBefore": "",
      "actionWhile": "",
      "actionAfter": "",
      "optionIcon": "",
      "iconPath": ""
    },
    {
      "id": 191821131,
      "nextDialogs": [
        191821132
      ],
      "talkRole": {
        "type": "TALK_ROLE_NPC",
        "_id": "518"
      },
      "talkContentTextMapHash": 2734758098,
      "talkAssetPath": "",
      "talkAssetPathAlter": "",
      "talkAudioName": "",
      "actionBefore": "",
      "actionWhile": "",
      "actionAfter": "",
      "optionIcon": "",
      "iconPath": ""
    },
    {
      "id": 191821132,
      "nextDialogs": [
        191821133,
        191821134
      ],
      "talkRole": {
        "type": "TALK_ROLE_NPC",
        "_id": "1071"
      },
      "talkContentTextMapHash": 4207200746,
      "talkAssetPath": "",
      "talkAssetPathAlter": "",
      "talkAudioName": "",
      "actionBefore": "",
      "actionWhile": "",
      "actionAfter": "",
      "optionIcon": "",
      "iconPath": ""
    },
    {
      "id": 191821133,
      "nextDialogs": [
        191821135
      ],
      "talkRole": {
        "type": "TALK_ROLE_PLAYER",
        "_id": ""
      },
      "talkContentTextMapHash": 3858396186,
      "talkAssetPath": "",
      "talkAssetPathAlter": "",
      "talkAudioName": "",
      "actionBefore": "",
      "actionWhile": "",
      "actionAfter": "",
      "optionIcon": "",
      "iconPath": ""
    },
    {
      "id": 191821134,
      "nextDialogs": [
        191821135
      ],
      "talkRole": {
        "type": "TALK_ROLE_PLAYER",
        "_id": ""
      },
      "talkContentTextMapHash": 1684342898,
      "talkAssetPath": "",
      "talkAssetPathAlter": "",
      "talkAudioName": "",
      "actionBefore": "",
      "actionWhile": "",
      "actionAfter": "",
      "optionIcon": "",
      "iconPath": ""
    },
    {
      "id": 191821135,
      "nextDialogs": [
        191821136
      ],
      "talkRole": {
        "type": "TALK_ROLE_NPC",
        "_id": "1071"
      },
      "talkContentTextMapHash": 3549843986,
      "talkAssetPath": "",
      "talkAssetPathAlter": "",
      "talkAudioName": "",
      "actionBefore": "",
      "actionWhile": "",
      "actionAfter": "",
      "optionIcon": "",
      "iconPath": ""
    },
    {
      "id": 191821136,
      "nextDialogs": [
        191821137
      ],
      "talkRole": {
        "type": "TALK_ROLE_NPC",
        "_id": "13933"
      },
      "talkContentTextMapHash": 2737401074,
      "talkAssetPath": "",
      "talkAssetPathAlter": "",
      "talkAudioName": "",
      "actionBefore": "",
      "actionWhile": "",
      "actionAfter": "",
      "optionIcon": "",
      "iconPath": ""
    },
    {
      "id": 191821137,
      "nextDialogs": [
        191821138
      ],
      "talkRole": {
        "type": "TALK_ROLE_NPC",
        "_id": "1071"
      },
      "talkContentTextMapHash": 2905865514,
      "talkAssetPath": "",
      "talkAssetPathAlter": "",
      "talkAudioName": "",
      "actionBefore": "",
      "actionWhile": "",
      "actionAfter": "",
      "optionIcon": "",
      "iconPath": ""
    },
    {
      "id": 191821138,
      "nextDialogs": [
        191821139
      ],
      "talkRole": {
        "type": "TALK_ROLE_NPC",
        "_id": "13933"
      },
      "talkContentTextMapHash": 1793423162,
      "talkAssetPath": "",
      "talkAssetPathAlter": "",
      "talkAudioName": "",
      "actionBefore": "",
      "actionWhile": "",
      "actionAfter": "",
      "optionIcon": "",
      "iconPath": ""
    },
    {
      "id": 191821139,
      "nextDialogs": [
        191821140
      ],
      "talkRole": {
        "type": "TALK_ROLE_NPC",
        "_id": "518"
      },
      "talkContentTextMapHash": 848610338,
      "talkAssetPath": "",
      "talkAssetPathAlter": "",
      "talkAudioName": "",
      "actionBefore": "",
      "actionWhile": "",
      "actionAfter": "",
      "optionIcon": "",
      "iconPath": ""
    },
    {
      "id": 191821140,
      "nextDialogs": [
        191821141
      ],
      "talkRole": {
        "type": "TALK_ROLE_NPC",
        "_id": "518"
      },
      "talkContentTextMapHash": 4259237426,
      "talkAssetPath": "",
      "talkAssetPathAlter": "",
      "talkAudioName": "",
      "actionBefore": "",
      "actionWhile": "",
      "actionAfter": "",
      "optionIcon": "",
      "iconPath": ""
    },
    {
      "id": 191821141,
      "nextDialogs": [
        191821142
      ],
      "talkRole": {
        "type": "TALK_ROLE_NPC",
        "_id": "1071"
      },
      "talkContentTextMapHash": 1122997082,
      "talkAssetPath": "",
      "talkAssetPathAlter": "",
      "talkAudioName": "",
      "actionBefore": "",
      "actionWhile": "",
      "actionAfter": "",
      "optionIcon": "",
      "iconPath": ""
    },
    {
      "id": 191821142,
      "nextDialogs": [
        191821143
      ],
      "talkRole": {
        "type": "TALK_ROLE_NPC",
        "_id": "13933"
      },
      "talkContentTextMapHash": 3702934354,
      "talkAssetPath": "",
      "talkAssetPathAlter": "",
      "talkAudioName": "",
      "actionBefore": "",
      "actionWhile": "",
      "actionAfter": "",
      "optionIcon": "",
      "iconPath": ""
    },
    {
      "id": 191821143,
      "nextDialogs": [
        191821144
      ],
      "talkRole": {
        "type": "TALK_ROLE_NPC",
        "_id": "13933"
      },
      "talkContentTextMapHash": 1439397034,
      "talkAssetPath": "",
      "talkAssetPathAlter": "",
      "talkAudioName": "",
      "actionBefore": "",
      "actionWhile": "",
      "actionAfter": "",
      "optionIcon": "",
      "iconPath": ""
    },
    {
      "id": 191821144,
      "nextDialogs": [
        191821145
      ],
      "talkRole": {
        "type": "TALK_ROLE_NPC",
        "_id": "13933"
      },
      "talkContentTextMapHash": 3435942162,
      "talkAssetPath": "",
      "talkAssetPathAlter": "",
      "talkAudioName": "",
      "actionBefore": "",
      "actionWhile": "",
      "actionAfter": "",
      "optionIcon": "",
      "iconPath": ""
    },
    {
      "id": 191821145,
      "nextDialogs": [
        191821146
      ],
      "talkRole": {
        "type": "TALK_ROLE_NPC",
        "_id": "13933"
      },
      "talkContentTextMapHash": 2336287610,
      "talkAssetPath": "",
      "talkAssetPathAlter": "",
      "talkAudioName": "",
      "actionBefore": "",
      "actionWhile": "",
      "actionAfter": "",
      "optionIcon": "",
      "iconPath": ""
    },
    {
      "id": 191821146,
      "nextDialogs": [
        191821147
      ],
      "talkRole": {
        "type": "TALK_ROLE_NPC",
        "_id": "518"
      },
      "talkContentTextMapHash": 3109798786,
      "talkAssetPath": "",
      "talkAssetPathAlter": "",
      "talkAudioName": "",
      "actionBefore": "",
      "actionWhile": "",
      "actionAfter": "",
      "optionIcon": "",
      "iconPath": ""
    },
    {
      "id": 191821147,
      "nextDialogs": [
        191821148
      ],
      "talkRole": {
        "type": "TALK_ROLE_NPC",
        "_id": "13933"
      },
      "talkContentTextMapHash": 4245063706,
      "talkAssetPath": "",
      "talkAssetPathAlter": "",
      "talkAudioName": "",
      "actionBefore": "",
      "actionWhile": "",
      "actionAfter": "",
      "optionIcon": "",
      "iconPath": ""
    },
    {
      "id": 191821148,
      "nextDialogs": [
        191821149
      ],
      "talkRole": {
        "type": "TALK_ROLE_NPC",
        "_id": "518"
      },
      "talkContentTextMapHash": 3729071114,
      "talkAssetPath": "",
      "talkAssetPathAlter": "",
      "talkAudioName": "",
      "actionBefore": "",
      "actionWhile": "",
      "actionAfter": "",
      "optionIcon": "",
      "iconPath": ""
    },
    {
      "id": 191821149,
      "nextDialogs": [
        191821150,
        191821151
      ],
      "talkRole": {
        "type": "TALK_ROLE_NPC",
        "_id": "518"
      },
      "talkContentTextMapHash": 1037986930,
      "talkAssetPath": "",
      "talkAssetPathAlter": "",
      "talkAudioName": "",
      "actionBefore": "",
      "actionWhile": "",
      "actionAfter": "",
      "optionIcon": "",
      "iconPath": ""
    },
    {
      "id": 191821150,
      "nextDialogs": [
        191821152
      ],
      "talkRole": {
        "type": "TALK_ROLE_PLAYER",
        "_id": ""
      },
      "talkContentTextMapHash": 2246191098,
      "talkAssetPath": "",
      "talkAssetPathAlter": "",
      "talkAudioName": "",
      "actionBefore": "",
      "actionWhile": "",
      "actionAfter": "",
      "optionIcon": "",
      "iconPath": ""
    },
    {
      "id": 191821151,
      "nextDialogs": [
        191821152
      ],
      "talkRole": {
        "type": "TALK_ROLE_PLAYER",
        "_id": ""
      },
      "talkContentTextMapHash": 1033393058,
      "talkAssetPath": "",
      "talkAssetPathAlter": "",
      "talkAudioName": "",
      "actionBefore": "",
      "actionWhile": "",
      "actionAfter": "",
      "optionIcon": "",
      "iconPath": ""
    },
    {
      "id": 191821152,
      "nextDialogs": [
        191821153
      ],
      "talkRole": {
        "type": "TALK_ROLE_NPC",
        "_id": "13933"
      },
      "talkContentTextMapHash": 2969536570,
      "talkAssetPath": "",
      "talkAssetPathAlter": "",
      "talkAudioName": "",
      "actionBefore": "",
      "actionWhile": "",
      "actionAfter": "",
      "optionIcon": "",
      "iconPath": ""
    },
    {
      "id": 191821153,
      "nextDialogs": [
        191821154
      ],
      "talkRole": {
        "type": "TALK_ROLE_NPC",
        "_id": "1071"
      },
      "talkContentTextMapHash": 1652276658,
      "talkAssetPath": "",
      "talkAssetPathAlter": "",
      "talkAudioName": "",
      "actionBefore": "",
      "actionWhile": "",
      "actionAfter": "",
      "optionIcon": "",
      "iconPath": ""
    },
    {
      "id": 191821154,
      "nextDialogs": [
        191821155
      ],
      "talkRole": {
        "type": "TALK_ROLE_NPC",
        "_id": "1071"
      },
      "talkContentTextMapHash": 1190274394,
      "talkAssetPath": "",
      "talkAssetPathAlter": "",
      "talkAudioName": "",
      "actionBefore": "",
      "actionWhile": "",
      "actionAfter": "",
      "optionIcon": "",
      "iconPath": ""
    },
    {
      "id": 191821155,
      "nextDialogs": [
        191821156
      ],
      "talkRole": {
        "type": "TALK_ROLE_NPC",
        "_id": "518"
      },
      "talkContentTextMapHash": 2311740490,
      "talkAssetPath": "",
      "talkAssetPathAlter": "",
      "talkAudioName": "",
      "actionBefore": "",
      "actionWhile": "",
      "actionAfter": "",
      "optionIcon": "",
      "iconPath": ""
    },
    {
      "id": 191821156,
      "nextDialogs": [
        191821157
      ],
      "talkRole": {
        "type": "TALK_ROLE_NPC",
        "_id": "1071"
      },
      "talkContentTextMapHash": 3562144554,
      "talkAssetPath": "",
      "talkAssetPathAlter": "",
      "talkAudioName": "",
      "actionBefore": "",
      "actionWhile": "",
      "actionAfter": "",
      "optionIcon": "",
      "iconPath": ""
    },
    {
      "id": 191821157,
      "nextDialogs": [
        191821158,
        191821159
      ],
      "talkRole": {
        "type": "TALK_ROLE_NPC",
        "_id": "13932"
      },
      "talkContentTextMapHash": 2227966682,
      "talkAssetPath": "",
      "talkAssetPathAlter": "",
      "talkAudioName": "",
      "actionBefore": "",
      "actionWhile": "",
      "actionAfter": "",
      "optionIcon": "",
      "iconPath": ""
    },
    {
      "id": 191821158,
      "nextDialogs": [
        191821160
      ],
      "talkRole": {
        "type": "TALK_ROLE_PLAYER",
        "_id": ""
      },
      "talkContentTextMapHash": 3318009298,
      "talkAssetPath": "",
      "talkAssetPathAlter": "",
      "talkAudioName": "",
      "actionBefore": "",
      "actionWhile": "",
      "actionAfter": "",
      "optionIcon": "",
      "iconPath": ""
    },
    {
      "id": 191821159,
      "nextDialogs": [
        191821160
      ],
      "talkRole": {
        "type": "TALK_ROLE_PLAYER",
        "_id": ""
      },
      "talkContentTextMapHash": 4083761722,
      "talkAssetPath": "",
      "talkAssetPathAlter": "",
      "talkAudioName": "",
      "actionBefore": "",
      "actionWhile": "",
      "actionAfter": "",
      "optionIcon": "",
      "iconPath": ""
    },
    {
      "id": 191821160,
      "nextDialogs": [
        191821161,
        191821162
      ],
      "talkRole": {
        "type": "TALK_ROLE_NPC",
        "_id": "518"
      },
      "talkContentTextMapHash": 2916302010,
      "talkAssetPath": "",
      "talkAssetPathAlter": "",
      "talkAudioName": "",
      "actionBefore": "",
      "actionWhile": "",
      "actionAfter": "",
      "optionIcon": "",
      "iconPath": ""
    },
    {
      "id": 191821161,
      "nextDialogs": [
        191821163
      ],
      "talkRole": {
        "type": "TALK_ROLE_PLAYER",
        "_id": ""
      },
      "talkContentTextMapHash": 3580521482,
      "talkAssetPath": "",
      "talkAssetPathAlter": "",
      "talkAudioName": "",
      "actionBefore": "",
      "actionWhile": "",
      "actionAfter": "",
      "optionIcon": "",
      "iconPath": ""
    },
    {
      "id": 191821162,
      "nextDialogs": [
        191821163
      ],
      "talkRole": {
        "type": "TALK_ROLE_PLAYER",
        "_id": ""
      },
      "talkContentTextMapHash": 2058078970,
      "talkAssetPath": "",
      "talkAssetPathAlter": "",
      "talkAudioName": "",
      "actionBefore": "",
      "actionWhile": "",
      "actionAfter": "",
      "optionIcon": "",
      "iconPath": ""
    },
    {
      "id": 191821163,
      "nextDialogs": [
        191821164
      ],
      "talkRole": {
        "type": "TALK_ROLE_NPC",
        "_id": "1071"
      },
      "talkContentTextMapHash": 1010315042,
      "talkAssetPath": "",
      "talkAssetPathAlter": "",
      "talkAudioName": "",
      "actionBefore": "",
      "actionWhile": "",
      "actionAfter": "",
      "optionIcon": "",
      "iconPath": ""
    },
    {
      "id": 191821164,
      "nextDialogs": [
        191821165,
        191821166
      ],
      "talkRole": {
        "type": "TALK_ROLE_NPC",
        "_id": "518"
      },
      "talkContentTextMapHash": 2484685898,
      "talkAssetPath": "",
      "talkAssetPathAlter": "",
      "talkAudioName": "",
      "actionBefore": "",
      "actionWhile": "",
      "actionAfter": "",
      "optionIcon": "",
      "iconPath": ""
    },
    {
      "id": 191821165,
      "nextDialogs": [
        191821167
      ],
      "talkRole": {
        "type": "TALK_ROLE_PLAYER",
        "_id": ""
      },
      "talkContentTextMapHash": 3720759370,
      "talkAssetPath": "",
      "talkAssetPathAlter": "",
      "talkAudioName": "",
      "actionBefore": "",
      "actionWhile": "",
      "actionAfter": "",
      "optionIcon": "",
      "iconPath": ""
    },
    {
      "id": 191821166,
      "nextDialogs": [
        191821167
      ],
      "talkRole": {
        "type": "TALK_ROLE_PLAYER",
        "_id": ""
      },
      "talkContentTextMapHash": 2803585842,
      "talkAssetPath": "",
      "talkAssetPathAlter": "",
      "talkAudioName": "",
      "actionBefore": "",
      "actionWhile": "",
      "actionAfter": "",
      "optionIcon": "",
      "iconPath": ""
    },
    {
      "id": 191821167,
      "nextDialogs": [
        191821168
      ],
      "talkShowType": "TALK_SHOW_FORCE_SELECT",
      "talkRole": {
        "type": "TALK_ROLE_PLAYER",
        "_id": ""
      },
      "talkContentTextMapHash": 825509106,
      "talkAssetPath": "",
      "talkAssetPathAlter": "",
      "talkAudioName": "",
      "actionBefore": "",
      "actionWhile": "",
      "actionAfter": "",
      "optionIcon": "",
      "iconPath": ""
    },
    {
      "id": 191821168,
      "nextDialogs": [
        191821169
      ],
      "talkRole": {
        "type": "TALK_ROLE_NPC",
        "_id": "13933"
      },
      "talkContentTextMapHash": 2123651986,
      "talkAssetPath": "",
      "talkAssetPathAlter": "",
      "talkAudioName": "",
      "actionBefore": "",
      "actionWhile": "",
      "actionAfter": "",
      "optionIcon": "",
      "iconPath": ""
    },
    {
      "id": 191821169,
      "nextDialogs": [
        191821170
      ],
      "talkRole": {
        "type": "TALK_ROLE_NPC",
        "_id": "518"
      },
      "talkContentTextMapHash": 3232149690,
      "talkAssetPath": "",
      "talkAssetPathAlter": "",
      "talkAudioName": "",
      "actionBefore": "",
      "actionWhile": "",
      "actionAfter": "",
      "optionIcon": "",
      "iconPath": ""
    },
    {
      "id": 191821170,
      "nextDialogs": [
        191821171
      ],
      "talkRole": {
        "type": "TALK_ROLE_NPC",
        "_id": "518"
      },
      "talkContentTextMapHash": 3708705826,
      "talkAssetPath": "",
      "talkAssetPathAlter": "",
      "talkAudioName": "",
      "actionBefore": "",
      "actionWhile": "",
      "actionAfter": "",
      "optionIcon": "",
      "iconPath": ""
    },
    {
      "id": 191821171,
      "nextDialogs": [
        191821172
      ],
      "talkRole": {
        "type": "TALK_ROLE_NPC",
        "_id": "13933"
      },
      "talkContentTextMapHash": 1202801594,
      "talkAssetPath": "",
      "talkAssetPathAlter": "",
      "talkAudioName": "",
      "actionBefore": "",
      "actionWhile": "",
      "actionAfter": "",
      "optionIcon": "",
      "iconPath": ""
    },
    {
      "id": 191821172,
      "nextDialogs": [
        191821173
      ],
      "talkRole": {
        "type": "TALK_ROLE_NPC",
        "_id": "1071"
      },
      "talkContentTextMapHash": 3914785226,
      "talkAssetPath": "",
      "talkAssetPathAlter": "",
      "talkAudioName": "",
      "actionBefore": "",
      "actionWhile": "",
      "actionAfter": "",
      "optionIcon": "",
      "iconPath": ""
    },
    {
      "id": 191821173,
      "nextDialogs": [
        191821174
      ],
      "talkRole": {
        "type": "TALK_ROLE_NPC",
        "_id": "1071"
      },
      "talkContentTextMapHash": 1650931570,
      "talkAssetPath": "",
      "talkAssetPathAlter": "",
      "talkAudioName": "",
      "actionBefore": "",
      "actionWhile": "",
      "actionAfter": "",
      "optionIcon": "",
      "iconPath": ""
    },
    {
      "id": 191821174,
      "nextDialogs": [
        191821175,
        191821176
      ],
      "talkRole": {
        "type": "TALK_ROLE_NPC",
        "_id": "13933"
      },
      "talkContentTextMapHash": 844488762,
      "talkAssetPath": "",
      "talkAssetPathAlter": "",
      "talkAudioName": "",
      "actionBefore": "",
      "actionWhile": "",
      "actionAfter": "",
      "optionIcon": "",
      "iconPath": ""
    },
    {
      "id": 191821175,
      "nextDialogs": [
        191821177
      ],
      "talkRole": {
        "type": "TALK_ROLE_PLAYER",
        "_id": ""
      },
      "talkContentTextMapHash": 2381704530,
      "talkAssetPath": "",
      "talkAssetPathAlter": "",
      "talkAudioName": "",
      "actionBefore": "",
      "actionWhile": "",
      "actionAfter": "",
      "optionIcon": "",
      "iconPath": ""
    },
    {
      "id": 191821176,
      "nextDialogs": [
        191821177
      ],
      "talkRole": {
        "type": "TALK_ROLE_PLAYER",
        "_id": ""
      },
      "talkContentTextMapHash": 2662473250,
      "talkAssetPath": "",
      "talkAssetPathAlter": "",
      "talkAudioName": "",
      "actionBefore": "",
      "actionWhile": "",
      "actionAfter": "",
      "optionIcon": "",
      "iconPath": ""
    },
    {
      "id": 191821177,
      "nextDialogs": [
        191821178
      ],
      "talkRole": {
        "type": "TALK_ROLE_NPC",
        "_id": "518"
      },
      "talkContentTextMapHash": 3959574714,
      "talkAssetPath": "",
      "talkAssetPathAlter": "",
      "talkAudioName": "",
      "actionBefore": "",
      "actionWhile": "",
      "actionAfter": "",
      "optionIcon": "",
      "iconPath": ""
    },
    {
      "id": 191821178,
      "nextDialogs": [
        191821179
      ],
      "talkRole": {
        "type": "TALK_ROLE_NPC",
        "_id": "13933"
      },
      "talkContentTextMapHash": 1474199986,
      "talkAssetPath": "",
      "talkAssetPathAlter": "",
      "talkAudioName": "",
      "actionBefore": "",
      "actionWhile": "",
      "actionAfter": "",
      "optionIcon": "",
      "iconPath": ""
    },
    {
      "id": 191821179,
      "nextDialogs": [
        191821180
      ],
      "talkRole": {
        "type": "TALK_ROLE_NPC",
        "_id": "13932"
      },
      "talkContentTextMapHash": 2170179970,
      "talkAssetPath": "",
      "talkAssetPathAlter": "",
      "talkAudioName": "",
      "actionBefore": "",
      "actionWhile": "",
      "actionAfter": "",
      "optionIcon": "",
      "iconPath": ""
    },
    {
      "id": 191821180,
      "nextDialogs": [
        191821181
      ],
      "talkRole": {
        "type": "TALK_ROLE_NPC",
        "_id": "13979"
      },
      "talkContentTextMapHash": 98783634,
      "talkAssetPath": "",
      "talkAssetPathAlter": "",
      "talkAudioName": "",
      "actionBefore": "",
      "actionWhile": "",
      "actionAfter": "",
      "optionIcon": "",
      "iconPath": ""
    },
    {
      "id": 191821181,
      "nextDialogs": [
        191821182
      ],
      "talkRole": {
        "type": "TALK_ROLE_NPC",
        "_id": "13980"
      },
      "talkContentTextMapHash": 3625696994,
      "talkAssetPath": "",
      "talkAssetPathAlter": "",
      "talkAudioName": "",
      "actionBefore": "",
      "actionWhile": "",
      "actionAfter": "",
      "optionIcon": "",
      "iconPath": ""
    },
    {
      "id": 191821182,
      "nextDialogs": [
        191821183
      ],
      "talkRole": {
        "type": "TALK_ROLE_NPC",
        "_id": "13933"
      },
      "talkContentTextMapHash": 3834496114,
      "talkAssetPath": "",
      "talkAssetPathAlter": "",
      "talkAudioName": "",
      "actionBefore": "",
      "actionWhile": "",
      "actionAfter": "",
      "optionIcon": "",
      "iconPath": ""
    },
    {
      "id": 191821183,
      "nextDialogs": [
        191821184
      ],
      "talkRole": {
        "type": "TALK_ROLE_NPC",
        "_id": "13979"
      },
      "talkContentTextMapHash": 1038546610,
      "talkAssetPath": "",
      "talkAssetPathAlter": "",
      "talkAudioName": "",
      "actionBefore": "",
      "actionWhile": "",
      "actionAfter": "",
      "optionIcon": "",
      "iconPath": ""
    },
    {
      "id": 191821184,
      "nextDialogs": [
        191821185
      ],
      "talkRole": {
        "type": "TALK_ROLE_NPC",
        "_id": "13979"
      },
      "talkContentTextMapHash": 4121550138,
      "talkAssetPath": "",
      "talkAssetPathAlter": "",
      "talkAudioName": "",
      "actionBefore": "",
      "actionWhile": "",
      "actionAfter": "",
      "optionIcon": "",
      "iconPath": ""
    },
    {
      "id": 191821185,
      "nextDialogs": [
        191821186
      ],
      "talkRole": {
        "type": "TALK_ROLE_NPC",
        "_id": "13980"
      },
      "talkContentTextMapHash": 45300346,
      "talkAssetPath": "",
      "talkAssetPathAlter": "",
      "talkAudioName": "",
      "actionBefore": "",
      "actionWhile": "",
      "actionAfter": "",
      "optionIcon": "",
      "iconPath": ""
    },
    {
      "id": 191821186,
      "nextDialogs": [
        191821187
      ],
      "talkRole": {
        "type": "TALK_ROLE_NPC",
        "_id": "13980"
      },
      "talkContentTextMapHash": 1680909674,
      "talkAssetPath": "",
      "talkAssetPathAlter": "",
      "talkAudioName": "",
      "actionBefore": "",
      "actionWhile": "",
      "actionAfter": "",
      "optionIcon": "",
      "iconPath": ""
    },
    {
      "id": 191821187,
      "nextDialogs": [
        191821188
      ],
      "talkRole": {
        "type": "TALK_ROLE_NPC",
        "_id": "13932"
      },
      "talkContentTextMapHash": 1268900026,
      "talkAssetPath": "",
      "talkAssetPathAlter": "",
      "talkAudioName": "",
      "actionBefore": "",
      "actionWhile": "",
      "actionAfter": "",
      "optionIcon": "",
      "iconPath": ""
    },
    {
      "id": 191821188,
      "nextDialogs": [
        191821189
      ],
      "talkRole": {
        "type": "TALK_ROLE_NPC",
        "_id": "13933"
      },
      "talkContentTextMapHash": 1559773322,
      "talkAssetPath": "",
      "talkAssetPathAlter": "",
      "talkAudioName": "",
      "actionBefore": "",
      "actionWhile": "",
      "actionAfter": "",
      "optionIcon": "",
      "iconPath": ""
    },
    {
      "id": 191821189,
      "nextDialogs": [
        191821190
      ],
      "talkRole": {
        "type": "TALK_ROLE_NPC",
        "_id": "518"
      },
      "talkContentTextMapHash": 1847999770,
      "talkAssetPath": "",
      "talkAssetPathAlter": "",
      "talkAudioName": "",
      "actionBefore": "",
      "actionWhile": "",
      "actionAfter": "",
      "optionIcon": "",
      "iconPath": ""
    },
    {
      "id": 191821190,
      "nextDialogs": [
        191821191
      ],
      "talkRole": {
        "type": "TALK_ROLE_NPC",
        "_id": "1071"
      },
      "talkContentTextMapHash": 3029650418,
      "talkAssetPath": "",
      "talkAssetPathAlter": "",
      "talkAudioName": "",
      "actionBefore": "",
      "actionWhile": "",
      "actionAfter": "",
      "optionIcon": "",
      "iconPath": ""
    },
    {
      "id": 191821191,
      "nextDialogs": [
        191821192
      ],
      "talkRole": {
        "type": "TALK_ROLE_NPC",
        "_id": "13932"
      },
      "talkContentTextMapHash": 2055547906,
      "talkAssetPath": "",
      "talkAssetPathAlter": "",
      "talkAudioName": "",
      "actionBefore": "",
      "actionWhile": "",
      "actionAfter": "",
      "optionIcon": "",
      "iconPath": ""
    },
    {
      "id": 191821192,
      "nextDialogs": [
        191821193
      ],
      "talkRole": {
        "type": "TALK_ROLE_NPC",
        "_id": "13980"
      },
      "talkContentTextMapHash": 2798568546,
      "talkRoleNameTextMapHash": 2344415243,
      "talkAssetPath": "",
      "talkAssetPathAlter": "",
      "talkAudioName": "",
      "actionBefore": "",
      "actionWhile": "",
      "actionAfter": "",
      "optionIcon": "",
      "iconPath": ""
    },
    {
      "id": 191821194,
      "nextDialogs": [
        191821195
      ],
      "talkShowType": "TALK_SHOW_FORCE_SELECT",
      "talkRole": {
        "type": "TALK_ROLE_PLAYER",
        "_id": ""
      },
      "talkContentTextMapHash": 2448313914,
      "talkAssetPath": "",
      "talkAssetPathAlter": "",
      "talkAudioName": "",
      "actionBefore": "",
      "actionWhile": "",
      "actionAfter": "",
      "optionIcon": "UI_Icon_Intee_CoopNumCheck",
      "iconPath": ""
    },
    {
      "id": 191821195,
      "talkRole": {
        "type": "TALK_ROLE_NPC",
        "_id": "13933"
      },
      "talkContentTextMapHash": 622495762,
      "talkAssetPath": "",
      "talkAssetPathAlter": "",
      "talkAudioName": "",
      "actionBefore": "",
      "actionWhile": "",
      "actionAfter": "",
      "optionIcon": "",
      "iconPath": ""
    }
  ],
  "CHAKPMBJNAJ": [
    "[1085_358:-61.818,0.512,19.887,0.000,272.300,0.000]",
    "[1085_359:-58.700,0.512,24.381,0.000,199.400,0.000]",
    "[1085_360:-56.939,0.574,23.987,0.000,229.000,0.000]",
    "[1085_361:-67.031,0.574,20.350,0.000,217.160,0.000]",
    "[1085_386:-63.279,0.625,21.958,0.000,184.400,0.000]",
    "[1085_387:-63.644,0.625,18.658,0.000,8.900,0.000]",
    "[1085_388:-58.527,0.512,20.312,0.000,275.290,0.000]"
  ]
}