{
  "talkId": 258,
  "damageRatio": "COOP",
  "dialogList": [
    {
      "id": 191850901,
      "nextDialogs": [
        191850902
      ],
      "talkRole": {
        "type": "TALK_ROLE_NPC",
        "_id": "1081"
      },
      "talkContentTextMapHash": 2092733090,
      "talkAssetPath": "",
      "talkAssetPathAlter": "",
      "talkAudioName": "",
      "actionBefore": "",
      "actionWhile": "",
      "actionAfter": "",
      "optionIcon": "",
      "iconPath": ""
    },
    {
      "id": 191850902,
      "nextDialogs": [
        191850903
      ],
      "talkRole": {
        "type": "TALK_ROLE_NPC",
        "_id": "1071"
      },
      "talkContentTextMapHash": 4283270122,
      "talkAssetPath": "",
      "talkAssetPathAlter": "",
      "talkAudioName": "",
      "actionBefore": "",
      "actionWhile": "",
      "actionAfter": "",
      "optionIcon": "",
      "iconPath": ""
    },
    {
      "id": 191850903,
      "talkRole": {
        "type": "TALK_ROLE_NPC",
        "_id": "518"
      },
      "talkContentTextMapHash": 1389022194,
      "talkAssetPath": "",
      "talkAssetPathAlter": "",
      "talkAudioName": "",
      "actionBefore": "",
      "actionWhile": "",
      "actionAfter": "",
      "optionIcon": "",
      "iconPath": ""
    }
  ],
  "CHAKPMBJNAJ": [
    "[3_340100545:3934.474,443.676,4556.253,0.000,119.300,0.000]",
    "[3_340100546:3938.103,443.774,4554.202,0.000,300.640,0.000]",
    "[3_340100578:3939.280,443.858,4556.247,0.000,283.720,0.000]",
    "[3_340100579:3936.149,443.586,4552.520]"
  ]
}