{
  "talkId": 242,
  "damageRatio": "COOP",
  "dialogList": [
    {
      "id": 191850601,
      "nextDialogs": [
        191850602
      ],
      "talkRole": {
        "type": "TALK_ROLE_NPC",
        "_id": "1071"
      },
      "talkContentTextMapHash": 2874798986,
      "talkAssetPath": "",
      "talkAssetPathAlter": "",
      "talkAudioName": "",
      "actionBefore": "",
      "actionWhile": "",
      "actionAfter": "",
      "optionIcon": "",
      "iconPath": ""
    },
    {
      "id": 191850602,
      "nextDialogs": [
        191850603
      ],
      "talkRole": {
        "type": "TALK_ROLE_NPC",
        "_id": "518"
      },
      "talkContentTextMapHash": 3972740610,
      "talkAssetPath": "",
      "talkAssetPathAlter": "",
      "talkAudioName": "",
      "actionBefore": "",
      "actionWhile": "",
      "actionAfter": "",
      "optionIcon": "",
      "iconPath": ""
    },
    {
      "id": 191850603,
      "nextDialogs": [
        191850604
      ],
      "talkRole": {
        "type": "TALK_ROLE_NPC",
        "_id": "1071"
      },
      "talkContentTextMapHash": 3893952762,
      "talkAssetPath": "",
      "talkAssetPathAlter": "",
      "talkAudioName": "",
      "actionBefore": "",
      "actionWhile": "",
      "actionAfter": "",
      "optionIcon": "",
      "iconPath": ""
    },
    {
      "id": 191850604,
      "talkRole": {
        "type": "TALK_ROLE_NPC",
        "_id": "518"
      },
      "talkContentTextMapHash": 2595368602,
      "talkAssetPath": "",
      "talkAssetPathAlter": "",
      "talkAudioName": "",
      "actionBefore": "",
      "actionWhile": "",
      "actionAfter": "",
      "optionIcon": "",
      "iconPath": ""
    }
  ],
  "CHAKPMBJNAJ": [
    "[3_340800435:4793.746,527.428,4301.241,0.000,312.800,0.000]",
    "[3_340800436:4792.650,527.485,4302.307,0.000,138.260,0.000]",
    "[3_340800437:4796.601,527.359,4303.897,0.000,218.520,0.000]",
    "[3_340800438:4794.686,527.070,4305.159,0.000,214.670,0.000]",
    "[3_340800439:4792.426,527.134,4304.943,0.000,147.400,0.000]"
  ]
}