{
  "configId": 3003,
  "groupId": 201083003,
  "talks": [
    {
      "id": 1400715,
      "beginWay": "TALK_BEGIN_MANUAL",
      "beginCondComb": "LOGIC_OR",
      "beginCond": [
        {
          "type": "QUEST_COND_STATE_EQUAL",
          "_param": [
            "1400710",
            "2"
          ]
        },
        {
          "type": "QUEST_COND_STATE_EQUAL",
          "_param": [
            "1400801",
            "2"
          ]
        }
      ],
      "priority": 5,
      "initDialog": 140071501,
      "performCfg": "QuestDialogue/LQ/Neuvillette1_14007/Q1400715",
      "heroTalk": "TALK_HERO_MAIN",
      "loadType": "TALK_GADGET",
      "questId": 14007,
      "assetIndex": 11602647753117811723,
      "prePerformCfg": ""
    },
    {
      "id": 1400812,
      "beginWay": "TALK_BEGIN_MANUAL",
      "beginCond": [
        {
          "type": "QUEST_COND_STATE_EQUAL",
          "_param": [
            "1400812",
            "2"
          ]
        }
      ],
      "priority": 5,
      "initDialog": 140081201,
      "performCfg": "QuestDialogue/LQ/Neuvillette1_14007/Q1400812",
      "heroTalk": "TALK_HERO_MAIN",
      "loadType": "TALK_GADGET",
      "questId": 14008,
      "assetIndex": 12554002402821578186,
      "prePerformCfg": ""
    },
    {
      "id": 1400815,
      "beginWay": "TALK_BEGIN_MANUAL",
      "beginCond": [
        {
          "type": "QUEST_COND_STATE_EQUAL",
          "_param": [
            "1400810",
            "2"
          ]
        }
      ],
      "priority": 5,
      "initDialog": 140081501,
      "performCfg": "QuestDialogue/LQ/Neuvillette1_14008/Q1400815",
      "heroTalk": "TALK_HERO_MAIN",
      "loadType": "TALK_GADGET",
      "questId": 14008,
      "assetIndex": 16008393682363385685,
      "prePerformCfg": "",
      "CHAKPMBJNAJ": [
        "[1083_44:-51.868,0.352,-15.361,0.000,76.471,0.000]",
        "[1083_45:-48.844,0.352,-14.945,0.000,272.731,0.000]",
        "[1083_60:-48.999,0.352,-15.170,0.000,277.406,0.000]",
        "[1083_61:-48.996,0.352,-16.076,0.000,292.655,0.000]"
      ]
    }
  ]
}