{
  "inputActions": {
    "MoveForward": {
      "$type": "LAHFEMOHGKO",
      "descriptionTextID": "CONTROL_MOVE_FORWARD"
    },
    "MoveBackward": {
      "$type": "LAHFEMOHGKO",
      "descriptionTextID": "CONTROL_MOVE_BACKWARD"
    },
    "MoveLeft": {
      "$type": "LAHFEMOHGKO",
      "descriptionTextID": "CONTROL_MOVE_LEFT"
    },
    "MoveRight": {
      "$type": "LAHFEMOHGKO",
      "descriptionTextID": "CONTROL_MOVE_RIGHT"
    },
    "MoveHorizontal": {
      "$type": "LAHFEMOHGKO",
      "valueType": "OneAxisInput",
      "descriptionTextID": ""
    },
    "MoveVertical": {
      "$type": "LAHFEMOHGKO",
      "valueType": "OneAxisInput",
      "descriptionTextID": ""
    },
    "Move": {
      "$type": "OHEIPJGHCNM",
      "valueType": "TwoAxisInput",
      "descriptionTextID": "CONTROL_MOVE",
      "action2": "MoveVertical"
    },
    "ViewHorizontal": {
      "$type": "LAHFEMOHGKO",
      "valueType": "OneAxisInput",
      "descriptionTextID": ""
    },
    "ViewVertical": {
      "$type": "LAHFEMOHGKO",
      "valueType": "OneAxisInput",
      "descriptionTextID": ""
    },
    "ChangeView": {
      "$type": "OHEIPJGHCNM",
      "valueType": "TwoAxisInput",
      "descriptionTextID": "CONTROL_VIEW",
      "action1": "ViewHorizontal",
      "action2": "ViewVertical"
    },
    "OpenMap": {
      "$type": "LAHFEMOHGKO",
      "descriptionTextID": "CONTROL_OPEN_MAP"
    },
    "OpenCharacter": {
      "$type": "LAHFEMOHGKO",
      "descriptionTextID": "CONTROL_OPEN_CHARACTER"
    },
    "OpenBag": {
      "$type": "LAHFEMOHGKO",
      "descriptionTextID": "CONTROL_OPEN_BAG"
    },
    "OpenChat": {
      "$type": "LAHFEMOHGKO",
      "descriptionTextID": "CONTROL_OPEN_CHAT"
    },
    "OpenGacha": {
      "$type": "LAHFEMOHGKO",
      "descriptionTextID": "CONTROL_OPEN_GACHA"
    },
    "OpenPaimon": {
      "$type": "LAHFEMOHGKO",
      "descriptionTextID": "CONTROL_OPEN_PAIMEN"
    },
    "ToggleQuestBook": {
      "$type": "LAHFEMOHGKO",
      "descriptionTextID": "CONTROL_TOGGLE_QUEST_BOOK"
    },
    "ToAvatar1": {
      "$type": "LAHFEMOHGKO",
      "descriptionTextID": "CONTROL_TO_AVATAR1"
    },
    "ToAvatar1TriggerSkill": {
      "$type": "LAHFEMOHGKO",
      "descriptionTextID": "CONTROL_TO_AVATAR1_TRIGGER_SKILL"
    },
    "ToAvatar2": {
      "$type": "LAHFEMOHGKO",
      "descriptionTextID": "CONTROL_TO_AVATAR2"
    },
    "ToAvatar2TriggerSkill": {
      "$type": "LAHFEMOHGKO",
      "descriptionTextID": "CONTROL_TO_AVATAR2_TRIGGER_SKILL"
    },
    "ToAvatar3": {
      "$type": "LAHFEMOHGKO",
      "descriptionTextID": "CONTROL_TO_AVATAR3"
    },
    "ToAvatar3TriggerSkill": {
      "$type": "LAHFEMOHGKO",
      "descriptionTextID": "CONTROL_TO_AVATAR3_TRIGGER_SKILL"
    },
    "ToAvatar4": {
      "$type": "LAHFEMOHGKO",
      "descriptionTextID": "CONTROL_TO_AVATAR4"
    },
    "ToAvatar4TriggerSkill": {
      "$type": "LAHFEMOHGKO",
      "descriptionTextID": "CONTROL_TO_AVATAR4_TRIGGER_SKILL"
    },
    "ToAvatar5": {
      "$type": "LAHFEMOHGKO",
      "descriptionTextID": "CONTROL_TO_AVATAR5"
    },
    "ToAvatar5TriggerSkill": {
      "$type": "LAHFEMOHGKO",
      "descriptionTextID": "CONTROL_TO_AVATAR5_TRIGGER_SKILL"
    },
    "ChangeWithSkill": {
      "$type": "LAHFEMOHGKO",
      "descriptionTextID": "CONTROL_DISPLAY_CURSOR"
    },
    "WheelMenuTrigger": {
      "$type": "LAHFEMOHGKO",
      "descriptionTextID": "CONTROL_OPEN_FEATURE_PANEL"
    },
    "Skill1": {
      "$type": "LAHFEMOHGKO",
      "descriptionTextID": "CONTROL_SKILL1"
    },
    "Skill2": {
      "$type": "LAHFEMOHGKO",
      "descriptionTextID": "CONTROL_SKILL2"
    },
    "SprintOrSkill3": {
      "$type": "LAHFEMOHGKO",
      "descriptionTextID": "CONTROL_SPRINT_OR_SKILL3"
    },
    "JumpOrSkill4": {
      "$type": "LAHFEMOHGKO",
      "descriptionTextID": "CONTROL_JUMP_OR_SKILL4"
    },
    "Skill5": {
      "$type": "LAHFEMOHGKO",
      "descriptionTextID": "CONTROL_SKILL5"
    },
    "ToggleAttackMode": {
      "$type": "LAHFEMOHGKO",
      "descriptionTextID": "CONTROL_TOGGLE_ATTACK_MODE"
    },
    "EnterFocusMode": {
      "$type": "LAHFEMOHGKO",
      "descriptionTextID": "CONTROL_TOGGLE_ATTACK_MODE"
    },
    "TalkOrPick": {
      "$type": "LAHFEMOHGKO",
      "descriptionTextID": "CONTROL_PICK_TALK"
    },
    "LeftShoulder": {
      "$type": "LAHFEMOHGKO",
      "descriptionTextID": ""
    },
    "RightShoulder": {
      "$type": "LAHFEMOHGKO",
      "descriptionTextID": ""
    },
    "MenuBack": {
      "$type": "LAHFEMOHGKO",
      "descriptionTextID": "Cancel"
    },
    "MenuConfirm": {
      "$type": "LAHFEMOHGKO",
      "descriptionTextID": "OK"
    },
    "MenuLeft": {
      "$type": "LAHFEMOHGKO",
      "descriptionTextID": ""
    },
    "MenuUp": {
      "$type": "LAHFEMOHGKO",
      "descriptionTextID": ""
    },
    "LeftStickLeft": {
      "$type": "LAHFEMOHGKO",
      "descriptionTextID": ""
    },
    "LeftStickRight": {
      "$type": "LAHFEMOHGKO",
      "descriptionTextID": ""
    },
    "LeftStickUp": {
      "$type": "LAHFEMOHGKO",
      "descriptionTextID": ""
    },
    "LeftStickDown": {
      "$type": "LAHFEMOHGKO",
      "descriptionTextID": ""
    },
    "LeftStickMove": {
      "$type": "OHEIPJGHCNM",
      "valueType": "TwoAxisInput",
      "descriptionTextID": "",
      "action1": "LeftStickHorizontal",
      "action2": "LeftStickVertical"
    },
    "LeftStickVertical": {
      "$type": "LAHFEMOHGKO",
      "valueType": "OneAxisInput",
      "descriptionTextID": ""
    },
    "LeftStickHorizontal": {
      "$type": "LAHFEMOHGKO",
      "valueType": "OneAxisInput",
      "descriptionTextID": ""
    },
    "LeftStickButton": {
      "$type": "LAHFEMOHGKO",
      "descriptionTextID": ""
    },
    "PrimaryTabPrev": {
      "$type": "LAHFEMOHGKO",
      "descriptionTextID": ""
    },
    "PrimaryTabNext": {
      "$type": "LAHFEMOHGKO",
      "descriptionTextID": ""
    },
    "DPadUp": {
      "$type": "LAHFEMOHGKO",
      "descriptionTextID": ""
    },
    "DPadRight": {
      "$type": "LAHFEMOHGKO",
      "descriptionTextID": ""
    },
    "DPadDown": {
      "$type": "LAHFEMOHGKO",
      "descriptionTextID": ""
    },
    "DPadLeft": {
      "$type": "LAHFEMOHGKO",
      "descriptionTextID": ""
    },
    "LeftTrigger": {
      "$type": "LAHFEMOHGKO",
      "valueType": "OneAxisInput",
      "descriptionTextID": ""
    },
    "RightStickLeft": {
      "$type": "LAHFEMOHGKO",
      "descriptionTextID": ""
    },
    "RightStickRight": {
      "$type": "LAHFEMOHGKO",
      "descriptionTextID": ""
    },
    "RightStickUp": {
      "$type": "LAHFEMOHGKO",
      "descriptionTextID": ""
    },
    "RightStickDown": {
      "$type": "LAHFEMOHGKO",
      "descriptionTextID": ""
    },
    "RightTrigger": {
      "$type": "LAHFEMOHGKO",
      "valueType": "OneAxisInput",
      "descriptionTextID": ""
    },
    "ZoomCamera": {
      "$type": "LAHFEMOHGKO",
      "valueType": "OneAxisInput",
      "descriptionTextID": ""
    },
    "ResetCamera": {
      "$type": "LAHFEMOHGKO",
      "descriptionTextID": "CONTROL_ELEMENT_VIEW"
    },
    "SlowMove": {
      "$type": "LAHFEMOHGKO",
      "descriptionTextID": "CONTROL_SLOW_MOVE"
    },
    "Slip": {
      "$type": "LAHFEMOHGKO",
      "descriptionTextID": "CONTROL_FALL"
    },
    "DebugMenu": {
      "$type": "LAHFEMOHGKO",
      "descriptionTextID": ""
    },
    "QuestTransport": {
      "$type": "LAHFEMOHGKO",
      "descriptionTextID": ""
    },
    "RightStickVertical": {
      "$type": "LAHFEMOHGKO",
      "valueType": "OneAxisInput",
      "descriptionTextID": ""
    },
    "RightStickHorizontal": {
      "$type": "LAHFEMOHGKO",
      "valueType": "OneAxisInput",
      "descriptionTextID": ""
    },
    "RightStickMove": {
      "$type": "OHEIPJGHCNM",
      "valueType": "TwoAxisInput",
      "descriptionTextID": "",
      "action1": "RightStickHorizontal",
      "action2": "RightStickVertical"
    },
    "RightStickButton": {
      "$type": "LAHFEMOHGKO",
      "descriptionTextID": ""
    },
    "Help": {
      "$type": "LAHFEMOHGKO",
      "descriptionTextID": "CONTROL_OPEN_HANDBOOK"
    },
    "Multiplayer": {
      "$type": "LAHFEMOHGKO",
      "descriptionTextID": "CONTROL_OPEN_MULTIPLAYER"
    },
    "MenuRight": {
      "$type": "LAHFEMOHGKO",
      "descriptionTextID": ""
    },
    "MenuDown": {
      "$type": "LAHFEMOHGKO",
      "descriptionTextID": ""
    },
    "OpenNotify": {
      "$type": "LAHFEMOHGKO",
      "descriptionTextID": "CONTROL_OPEN_NOTIFY"
    },
    "OpenActivityNormal": {
      "$type": "LAHFEMOHGKO",
      "descriptionTextID": "CONTROL_OPEN_ACTIVITY"
    },
    "OpenDungeonFactor": {
      "$type": "LAHFEMOHGKO",
      "descriptionTextID": "CONTROL_OPEN_DUNGEON_FACTOR"
    },
    "OpenHandbook": {
      "$type": "LAHFEMOHGKO",
      "descriptionTextID": "CONTROL_OPEN_HANDBOOK"
    },
    "TrackQuest": {
      "$type": "LAHFEMOHGKO",
      "descriptionTextID": "CONTROL_TRACK_QUEST"
    },
    "OpenPushTips": {
      "$type": "LAHFEMOHGKO",
      "descriptionTextID": "CONTROL_OPEN_PUSHTIPS"
    },
    "OpenBattlePass": {
      "$type": "LAHFEMOHGKO",
      "descriptionTextID": "CONTROL_OPEN_BATTLEPASS"
    },
    "ChallengeInterrupt": {
      "$type": "LAHFEMOHGKO",
      "descriptionTextID": "CONTROL_CHALLENGE_INTERRUPT"
    },
    "ChallengeInterruptJoystick": {
      "$type": "OHEIPJGHCNM",
      "valueType": "TwoAxisInput",
      "descriptionTextID": "",
      "action1": "LeftStickButton",
      "action2": "RightStickButton",
      "compoundType": "AllPress"
    },
    "HomeworldCreateCustomSuiteJoystick": {
      "$type": "OHEIPJGHCNM",
      "valueType": "TwoAxisInput",
      "descriptionTextID": "",
      "action1": "LeftShoulder",
      "action2": "MenuUp",
      "compoundType": "AllPress"
    },
    "HomeworldFurnitureSearchJoystick": {
      "$type": "OHEIPJGHCNM",
      "valueType": "TwoAxisInput",
      "descriptionTextID": "",
      "action1": "LeftStickButton",
      "action2": "RightStickButton",
      "compoundType": "AllPress"
    },
    "HomeworldFurnitureSwitchMultiSelectMode": {
      "$type": "OHEIPJGHCNM",
      "valueType": "TwoAxisInput",
      "descriptionTextID": "",
      "action1": "LeftShoulder",
      "action2": "MenuUp",
      "compoundType": "AllPress"
    },
    "HomeworldLeftShoulderSquareJoyStick": {
      "$type": "OHEIPJGHCNM",
      "valueType": "TwoAxisInput",
      "descriptionTextID": "",
      "action1": "LeftShoulder",
      "action2": "MenuLeft",
      "compoundType": "AllPress"
    },
    "Hide": {
      "$type": "LAHFEMOHGKO",
      "descriptionTextID": ""
    },
    "QuickUse": {
      "$type": "LAHFEMOHGKO",
      "descriptionTextID": "CONTROL_QUICK_USE"
    },
    "ActivitySkill": {
      "$type": "LAHFEMOHGKO",
      "descriptionTextID": "CONTROL_ACTIVITY_SKILL"
    },
    "ExteraSelectUp": {
      "$type": "LAHFEMOHGKO",
      "descriptionTextID": ""
    },
    "ExteraSelectDown": {
      "$type": "LAHFEMOHGKO",
      "descriptionTextID": ""
    },
    "ExteraSelectLeft": {
      "$type": "LAHFEMOHGKO",
      "descriptionTextID": ""
    },
    "ExteraSelectRight": {
      "$type": "LAHFEMOHGKO",
      "descriptionTextID": ""
    },
    "MusicGame_Left_Up": {
      "$type": "LAHFEMOHGKO",
      "descriptionTextID": ""
    },
    "MusicGame_Left_Right": {
      "$type": "LAHFEMOHGKO",
      "descriptionTextID": ""
    },
    "MusicGame_Left_Down": {
      "$type": "LAHFEMOHGKO",
      "descriptionTextID": ""
    },
    "MusicGame_Left_Left": {
      "$type": "LAHFEMOHGKO",
      "descriptionTextID": ""
    },
    "MusicGame_Right_Up": {
      "$type": "LAHFEMOHGKO",
      "descriptionTextID": ""
    },
    "MusicGame_Right_Right": {
      "$type": "LAHFEMOHGKO",
      "descriptionTextID": ""
    },
    "MusicGame_Right_Down": {
      "$type": "LAHFEMOHGKO",
      "descriptionTextID": ""
    },
    "MusicGame_Right_Left": {
      "$type": "LAHFEMOHGKO",
      "descriptionTextID": ""
    },
    "MusicGame_Free1": {
      "$type": "LAHFEMOHGKO",
      "descriptionTextID": ""
    },
    "MusicGame_Free2": {
      "$type": "LAHFEMOHGKO",
      "descriptionTextID": ""
    },
    "MusicGame_Free3": {
      "$type": "LAHFEMOHGKO",
      "descriptionTextID": ""
    },
    "MusicGame_Free4": {
      "$type": "LAHFEMOHGKO",
      "descriptionTextID": ""
    },
    "MusicGame_Free5": {
      "$type": "LAHFEMOHGKO",
      "descriptionTextID": ""
    },
    "MusicGame_Free6": {
      "$type": "LAHFEMOHGKO",
      "descriptionTextID": ""
    },
    "MusicGame_Free7": {
      "$type": "LAHFEMOHGKO",
      "descriptionTextID": ""
    },
    "MusicGame_Free8": {
      "$type": "LAHFEMOHGKO",
      "descriptionTextID": ""
    },
    "MusicGame_Free9": {
      "$type": "LAHFEMOHGKO",
      "descriptionTextID": ""
    },
    "MusicGame_Free10": {
      "$type": "LAHFEMOHGKO",
      "descriptionTextID": ""
    },
    "MusicGame_Free11": {
      "$type": "LAHFEMOHGKO",
      "descriptionTextID": ""
    },
    "MusicGame_Free12": {
      "$type": "LAHFEMOHGKO",
      "descriptionTextID": ""
    },
    "MusicGame_Free13": {
      "$type": "LAHFEMOHGKO",
      "descriptionTextID": ""
    },
    "MusicGame_Free14": {
      "$type": "LAHFEMOHGKO",
      "descriptionTextID": ""
    },
    "MusicGame_Free15": {
      "$type": "LAHFEMOHGKO",
      "descriptionTextID": ""
    },
    "MusicGame_Free16": {
      "$type": "LAHFEMOHGKO",
      "descriptionTextID": ""
    },
    "MusicGame_Free17": {
      "$type": "LAHFEMOHGKO",
      "descriptionTextID": ""
    },
    "MusicGame_Free18": {
      "$type": "LAHFEMOHGKO",
      "descriptionTextID": ""
    },
    "MusicGame_Free19": {
      "$type": "LAHFEMOHGKO",
      "descriptionTextID": ""
    },
    "MusicGame_Free20": {
      "$type": "LAHFEMOHGKO",
      "descriptionTextID": ""
    },
    "MusicGame_Free21": {
      "$type": "LAHFEMOHGKO",
      "descriptionTextID": ""
    },
    "MusicGame_Free22": {
      "$type": "LAHFEMOHGKO",
      "descriptionTextID": ""
    },
    "MusicGame_Free23": {
      "$type": "LAHFEMOHGKO",
      "descriptionTextID": ""
    },
    "MusicGame_Free24": {
      "$type": "LAHFEMOHGKO",
      "descriptionTextID": ""
    },
    "MusicGame_Free25": {
      "$type": "LAHFEMOHGKO",
      "descriptionTextID": ""
    },
    "MusicGame_Free26": {
      "$type": "LAHFEMOHGKO",
      "descriptionTextID": ""
    },
    "MenuNext": {
      "$type": "LAHFEMOHGKO",
      "descriptionTextID": ""
    },
    "F1": {
      "$type": "LAHFEMOHGKO",
      "descriptionTextID": ""
    },
    "F2": {
      "$type": "LAHFEMOHGKO",
      "descriptionTextID": ""
    },
    "F3": {
      "$type": "LAHFEMOHGKO",
      "descriptionTextID": ""
    },
    "Return": {
      "$type": "LAHFEMOHGKO",
      "descriptionTextID": ""
    },
    "OpenHomeworldHandbook": {
      "$type": "LAHFEMOHGKO",
      "descriptionTextID": "CONTROL_OPEN_HOME_INVESTIGATION"
    },
    "OpenHomeworldEditor": {
      "$type": "LAHFEMOHGKO",
      "descriptionTextID": "CONTROL_OPEN_HOME_PLACE"
    },
    "OpenTeamPage": {
      "$type": "LAHFEMOHGKO",
      "descriptionTextID": "CONTROL_OPEN_PARTY_SETUP"
    },
    "OpenFriendPage": {
      "$type": "LAHFEMOHGKO",
      "descriptionTextID": "CONTROL_OPEN_FRIENDS"
    },
    "OpenReunion": {
      "$type": "LAHFEMOHGKO",
      "descriptionTextID": "CONTROL_OPEN_REUNIONV2"
    },
    "ObjectTurnUp": {
      "$type": "LAHFEMOHGKO",
      "descriptionTextID": ""
    },
    "ObjectTurnDown": {
      "$type": "LAHFEMOHGKO",
      "descriptionTextID": ""
    },
    "ObjectTurnLeft": {
      "$type": "LAHFEMOHGKO",
      "descriptionTextID": ""
    },
    "ObjectTurnRight": {
      "$type": "LAHFEMOHGKO",
      "descriptionTextID": ""
    },
    "ObjectTurnClockwise": {
      "$type": "LAHFEMOHGKO",
      "descriptionTextID": ""
    },
    "ObjectTurnAntiClockwise": {
      "$type": "LAHFEMOHGKO",
      "descriptionTextID": ""
    },
    "CameraMoveUp": {
      "$type": "LAHFEMOHGKO",
      "descriptionTextID": ""
    },
    "CameraMoveDown": {
      "$type": "LAHFEMOHGKO",
      "descriptionTextID": ""
    },
    "CustomLevelSwitchFloatMode": {
      "$type": "LAHFEMOHGKO",
      "descriptionTextID": ""
    },
    "CustomLevelDeployConfirm": {
      "$type": "LAHFEMOHGKO",
      "descriptionTextID": ""
    },
    "ArrowUp": {
      "$type": "LAHFEMOHGKO",
      "descriptionTextID": ""
    },
    "ArrowDown": {
      "$type": "LAHFEMOHGKO",
      "descriptionTextID": ""
    },
    "ArrowLeft": {
      "$type": "LAHFEMOHGKO",
      "descriptionTextID": ""
    },
    "ArrowRight": {
      "$type": "LAHFEMOHGKO",
      "descriptionTextID": ""
    },
    "LeftControl": {
      "$type": "LAHFEMOHGKO",
      "descriptionTextID": ""
    },
    "Space": {
      "$type": "LAHFEMOHGKO",
      "descriptionTextID": ""
    },
    "Undo": {
      "$type": "LAHFEMOHGKO",
      "descriptionTextID": ""
    },
    "Save": {
      "$type": "LAHFEMOHGKO",
      "descriptionTextID": ""
    },
    "MouseLeftButton": {
      "$type": "LAHFEMOHGKO",
      "descriptionTextID": ""
    },
    "VehicleSkill1": {
      "$type": "LAHFEMOHGKO",
      "descriptionTextID": "CONTROL_VEHICLE_SKILL1"
    },
    "VehicleSkill2": {
      "$type": "LAHFEMOHGKO",
      "descriptionTextID": "CONTROL_VEHICLE_SKILL2"
    },
    "VehicleSkill3": {
      "$type": "LAHFEMOHGKO",
      "descriptionTextID": "CONTROL_VEHICLE_SKILL3"
    },
    "VehicleSkill4": {
      "$type": "LAHFEMOHGKO",
      "descriptionTextID": "CONTROL_VEHICLE_SKILL4"
    },
    "VehicleSkill5": {
      "$type": "LAHFEMOHGKO",
      "descriptionTextID": "CONTROL_VEHICLE_SKILL5"
    },
    "HerculesBattleForward": {
      "$type": "LAHFEMOHGKO",
      "descriptionTextID": ""
    },
    "HerculesBattleBackward": {
      "$type": "LAHFEMOHGKO",
      "descriptionTextID": ""
    },
    "HerculesBattleCancel": {
      "$type": "LAHFEMOHGKO",
      "descriptionTextID": ""
    },
    "ActivityMapScale": {
      "$type": "LAHFEMOHGKO",
      "descriptionTextID": ""
    },
    "ActivityMapSetting": {
      "$type": "LAHFEMOHGKO",
      "descriptionTextID": ""
    },
    "AkaFesAstrolabeLeftTurn": {
      "$type": "LAHFEMOHGKO",
      "descriptionTextID": ""
    },
    "AkaFesAstrolabeRightTurn": {
      "$type": "LAHFEMOHGKO",
      "descriptionTextID": ""
    },
    "AkaFesAstrolabeHeightChange": {
      "$type": "LAHFEMOHGKO",
      "descriptionTextID": ""
    },
    "PenAdvShuffleBoardCharge": {
      "$type": "LAHFEMOHGKO",
      "descriptionTextID": ""
    },
    "DPadHorizontalAxis": {
      "$type": "LAHFEMOHGKO",
      "valueType": "OneAxisInput",
      "descriptionTextID": ""
    },
    "PenAdvShuffleBoardChargeMoveL": {
      "$type": "LAHFEMOHGKO",
      "valueType": "OneAxisInput",
      "descriptionTextID": ""
    },
    "PenAdvShuffleBoardChargeMoveR": {
      "$type": "LAHFEMOHGKO",
      "valueType": "OneAxisInput",
      "descriptionTextID": ""
    },
    "DPadVertical": {
      "$type": "LAHFEMOHGKO",
      "descriptionTextID": ""
    },
    "DPadHorizontal": {
      "$type": "LAHFEMOHGKO",
      "descriptionTextID": ""
    },
    "UGCMoveForward": {
      "$type": "LAHFEMOHGKO",
      "descriptionTextID": "UI_UGC_MOVE_CAMERA_FORWARD"
    },
    "UGCMoveBackward": {
      "$type": "LAHFEMOHGKO",
      "descriptionTextID": "UI_UGC_MOVE_CAMERA_BACKWARD"
    },
    "UGCMoveLeft": {
      "$type": "LAHFEMOHGKO",
      "descriptionTextID": "UI_UGC_MOVE_CAMERA_LEFT"
    },
    "UGCMoveRight": {
      "$type": "LAHFEMOHGKO",
      "descriptionTextID": "UI_UGC_MOVE_CAMERA_RIGHT"
    },
    "UGCMoveHorizontal": {
      "$type": "LAHFEMOHGKO",
      "valueType": "OneAxisInput",
      "descriptionTextID": ""
    },
    "UGCMoveVertical": {
      "$type": "LAHFEMOHGKO",
      "valueType": "OneAxisInput",
      "descriptionTextID": ""
    },
    "UGCMove": {
      "$type": "OHEIPJGHCNM",
      "valueType": "TwoAxisInput",
      "descriptionTextID": "UGC_MOVE",
      "action1": "UGCMoveHorizontal",
      "action2": "UGCMoveVertical"
    },
    "UGCOpenGlobalSetting": {
      "$type": "LAHFEMOHGKO",
      "descriptionTextID": "UI_UGC_HOTKEY_OPEN_SETTING"
    },
    "UGCLeftControl": {
      "$type": "LAHFEMOHGKO",
      "descriptionTextID": ""
    },
    "UGCResetCamera": {
      "$type": "LAHFEMOHGKO",
      "descriptionTextID": "UI_UGC_HOTKEY_RESETCAMERA"
    },
    "UGCCameraUp": {
      "$type": "LAHFEMOHGKO",
      "descriptionTextID": "UI_UGC_MOVE_CAMERA_UP"
    },
    "UGCCameraDown": {
      "$type": "LAHFEMOHGKO",
      "descriptionTextID": "UI_UGC_MOVE_CAMERA_DOWN"
    },
    "UGCRedo": {
      "$type": "LAHFEMOHGKO",
      "descriptionTextID": "UI_UGC_HOTKEY_REVERTUNDO"
    },
    "UGCUndo": {
      "$type": "LAHFEMOHGKO",
      "descriptionTextID": "UI_UGC_HOTKEY_UNDO"
    },
    "UGCDeploySave": {
      "$type": "LAHFEMOHGKO",
      "descriptionTextID": "UI_UGC_HOTKEY_SAVETOPLAY"
    },
    "UGCDeployConfirm": {
      "$type": "LAHFEMOHGKO",
      "descriptionTextID": "UI_UGC_CONFIRM_OPERATION"
    },
    "UGCFocusCamera": {
      "$type": "LAHFEMOHGKO",
      "descriptionTextID": "UI_UGC_HOTKEY_FOCUS"
    },
    "UGCSwitchFloat": {
      "$type": "LAHFEMOHGKO",
      "descriptionTextID": "UI_UGC_HORIZONTAL_VERTICAL_SWITCHING"
    },
    "UGCRotate": {
      "$type": "LAHFEMOHGKO",
      "descriptionTextID": "UI_UGC_HOTKEY_ROTATE"
    },
    "UGCCopy": {
      "$type": "LAHFEMOHGKO",
      "descriptionTextID": "UI_UGC_HOTKEY_COPY"
    },
    "UGCRecycle": {
      "$type": "LAHFEMOHGKO",
      "descriptionTextID": "UI_UGC_HOTKEY_STORAGE"
    },
    "UGCOpenSetting": {
      "$type": "LAHFEMOHGKO",
      "descriptionTextID": "UI_UGC_HOTKEY_SETUP"
    },
    "UGCOpenTrigger": {
      "$type": "LAHFEMOHGKO",
      "descriptionTextID": "UI_UGC_HOTKEY_TRIGGER"
    },
    "UGCBatchSelect": {
      "$type": "LAHFEMOHGKO",
      "descriptionTextID": "UI_UGC_HOTKEY_BATCH"
    },
    "UGCSelectSuite": {
      "$type": "LAHFEMOHGKO",
      "descriptionTextID": "UI_UGC_HOTKEY_CHOOSESET"
    },
    "WidgetQuickSwitch0": {
      "$type": "LAHFEMOHGKO",
      "descriptionTextID": "WIDGET_QUICK_SWITCH_0"
    },
    "WidgetQuickSwitch1": {
      "$type": "LAHFEMOHGKO",
      "descriptionTextID": "WIDGET_QUICK_SWITCH_1"
    },
    "WidgetQuickSwitch2": {
      "$type": "LAHFEMOHGKO",
      "descriptionTextID": "WIDGET_QUICK_SWITCH_2"
    },
    "WidgetQuickSwitch3": {
      "$type": "LAHFEMOHGKO",
      "descriptionTextID": "WIDGET_QUICK_SWITCH_3"
    },
    "Reload": {
      "$type": "LAHFEMOHGKO",
      "descriptionTextID": ""
    },
    "ToyBattleQteLeft": {
      "$type": "LAHFEMOHGKO",
      "descriptionTextID": ""
    },
    "ToyBattleQteRight": {
      "$type": "LAHFEMOHGKO",
      "descriptionTextID": ""
    },
    "KeyCodeC": {
      "$type": "LAHFEMOHGKO",
      "descriptionTextID": ""
    },
    "KeyCodeF": {
      "$type": "LAHFEMOHGKO",
      "descriptionTextID": ""
    },
    "KeyCodeG": {
      "$type": "LAHFEMOHGKO",
      "descriptionTextID": ""
    },
    "KeyCodeQ": {
      "$type": "LAHFEMOHGKO",
      "descriptionTextID": ""
    },
    "KeyCodeE": {
      "$type": "LAHFEMOHGKO",
      "descriptionTextID": ""
    },
    "KeyCodeA": {
      "$type": "LAHFEMOHGKO",
      "descriptionTextID": ""
    },
    "KeyCodeD": {
      "$type": "LAHFEMOHGKO",
      "descriptionTextID": ""
    },
    "KeyCodeW": {
      "$type": "LAHFEMOHGKO",
      "descriptionTextID": ""
    },
    "KeyCodeS": {
      "$type": "LAHFEMOHGKO",
      "descriptionTextID": ""
    },
    "KeyCodeTab": {
      "$type": "LAHFEMOHGKO",
      "descriptionTextID": ""
    },
    "KeyCodeH": {
      "$type": "LAHFEMOHGKO",
      "descriptionTextID": ""
    },
    "MouseRightButton": {
      "$type": "LAHFEMOHGKO",
      "descriptionTextID": ""
    },
    "RightStickLeftShow": {
      "$type": "LAHFEMOHGKO",
      "descriptionTextID": ""
    },
    "RightStickRightShow": {
      "$type": "LAHFEMOHGKO",
      "descriptionTextID": ""
    },
    "DPadFourWay": {
      "$type": "LAHFEMOHGKO",
      "descriptionTextID": ""
    },
    "HideSpecificUI": {
      "$type": "LAHFEMOHGKO",
      "descriptionTextID": "UI_MAINPAGE_HIDE_SETTING"
    },
    "LeftShift": {
      "$type": "LAHFEMOHGKO",
      "descriptionTextID": ""
    },
    "MoveUnchanged": {
      "$type": "OHEIPJGHCNM",
      "valueType": "TwoAxisInput",
      "descriptionTextID": "",
      "action1": "MoveHorizontalUnchanged",
      "action2": "MoveVerticalUnchanged"
    },
    "KeyCodeJ": {
      "$type": "LAHFEMOHGKO",
      "descriptionTextID": ""
    }
  },
  "inputEvents": {
    "MoveEvent": {
      "actionType": "Move"
    },
    "ChangeViewEvent": {
      "actionType": "ChangeView"
    },
    "OpenMapEvent": {
      "actionType": "OpenMap",
      "actionEvent": "ButtonPressed"
    },
    "OpenCharacterEvent": {
      "actionType": "OpenCharacter",
      "actionEvent": "ButtonPressed"
    },
    "OpenBagEvent": {
      "actionType": "OpenBag",
      "actionEvent": "ButtonPressed"
    },
    "OpenActivityNormalEvent": {
      "actionType": "OpenActivityNormal",
      "actionEvent": "ButtonPressed"
    },
    "OpenChatEvent": {
      "actionType": "OpenChat",
      "actionEvent": "ButtonPressed"
    },
    "OpenGachaEvent": {
      "actionType": "OpenGacha",
      "actionEvent": "ButtonPressed"
    },
    "OpenPaimonEvent": {
      "actionType": "OpenPaimon",
      "actionEvent": "ButtonPressed"
    },
    "ToggleQuestBookEvent": {
      "actionType": "ToggleQuestBook",
      "actionEvent": "ButtonPressed"
    },
    "ToAvatar1Event": {
      "actionType": "ToAvatar1",
      "actionEvent": "ButtonPressed"
    },
    "ToAvatar2Event": {
      "actionType": "ToAvatar2",
      "actionEvent": "ButtonPressed"
    },
    "ToAvatar3Event": {
      "actionType": "ToAvatar3",
      "actionEvent": "ButtonPressed"
    },
    "ToAvatar4Event": {
      "actionType": "ToAvatar4",
      "actionEvent": "ButtonPressed"
    },
    "ToAvatar5Event": {
      "actionType": "ToAvatar5",
      "actionEvent": "ButtonPressed"
    },
    "TriggerChangeWithSkillEvent": {
      "actionType": "ChangeWithSkill",
      "actionEvent": "ButtonPressed"
    },
    "CancelChangeWithSkillEvent": {
      "actionType": "ChangeWithSkill",
      "actionEvent": "ButtonReleased"
    },
    "TriggerWheelMenuEvent": {
      "actionType": "WheelMenuTrigger",
      "actionEvent": "ButtonPressed"
    },
    "CloseWheelMenuEvent": {
      "actionType": "WheelMenuTrigger",
      "actionEvent": "ButtonUnpressing"
    },
    "TriggerSkill1Event": {
      "actionType": "Skill1",
      "actionEvent": "ButtonPressed"
    },
    "TriggerSkill2Event": {
      "actionType": "Skill2",
      "actionEvent": "ButtonPressed"
    },
    "TriggerSkill3Event": {
      "actionType": "SprintOrSkill3",
      "actionEvent": "ButtonPressed"
    },
    "TriggerSkill4Event": {
      "actionType": "JumpOrSkill4",
      "actionEvent": "ButtonPressed"
    },
    "TriggerSkill5Event": {
      "actionType": "Skill5",
      "actionEvent": "ButtonPressed"
    },
    "SelectingEvent": {
      "actionType": "Skill5",
      "actionEvent": "ButtonPressing"
    },
    "KeyUpEvent": {
      "actionType": "MoveForward",
      "actionEvent": "ButtonPressing"
    },
    "KeyDownEvent": {
      "actionType": "MoveBackward",
      "actionEvent": "ButtonPressing"
    },
    "KeyLeftEvent": {
      "actionType": "MoveLeft",
      "actionEvent": "ButtonPressing"
    },
    "KeyRightEvent": {
      "actionType": "MoveRight",
      "actionEvent": "ButtonPressing"
    },
    "CancelSelectingEvent": {
      "actionType": "Skill5",
      "actionEvent": "ButtonReleased"
    },
    "ReleaseSkill1Event": {
      "actionType": "Skill1",
      "actionEvent": "ButtonReleased"
    },
    "ReleaseSkill2Event": {
      "actionType": "Skill2",
      "actionEvent": "ButtonReleased"
    },
    "ReleaseSkill3Event": {
      "actionType": "SprintOrSkill3",
      "actionEvent": "ButtonReleased"
    },
    "ReleaseSkill4Event": {
      "actionType": "JumpOrSkill4",
      "actionEvent": "ButtonReleased"
    },
    "ReleaseSkill5Event": {
      "actionType": "Skill5",
      "actionEvent": "ButtonReleased"
    },
    "ToggleAttackModeEvent": {
      "actionType": "ToggleAttackMode",
      "actionEvent": "ButtonPressed"
    },
    "EnterFocusModeEvent": {
      "actionType": "EnterFocusMode",
      "actionEvent": "ButtonPressed"
    },
    "ExitFocusModeEvent": {
      "actionType": "EnterFocusMode",
      "actionEvent": "ButtonReleased"
    },
    "TalkOrPickEvent": {
      "actionType": "TalkOrPick",
      "actionEvent": "ButtonPressed"
    },
    "LeftShoulderEvent": {
      "actionType": "LeftShoulder",
      "actionEvent": "ButtonPressed"
    },
    "RightShoulderEvent": {
      "actionType": "RightShoulder",
      "actionEvent": "ButtonPressed"
    },
    "LeftShoulderReleaseEvent": {
      "actionType": "LeftShoulder",
      "actionEvent": "ButtonReleased"
    },
    "RightShoulderReleaseEvent": {
      "actionType": "RightShoulder",
      "actionEvent": "ButtonReleased"
    },
    "MenuBackEvent": {
      "actionType": "MenuBack",
      "actionEvent": "ButtonPressed"
    },
    "MenuBackingEvent": {
      "actionType": "MenuBack",
      "actionEvent": "ButtonPressing"
    },
    "MenuBackingCancelEvent": {
      "actionType": "MenuBack",
      "actionEvent": "ButtonReleased"
    },
    "MenuConfirmEvent": {
      "actionType": "MenuConfirm",
      "actionEvent": "ButtonPressed"
    },
    "MenuConfirmingEvent": {
      "actionType": "MenuConfirm",
      "actionEvent": "ButtonPressing"
    },
    "MenuConfirmingCancelEvent": {
      "actionType": "MenuConfirm",
      "actionEvent": "ButtonReleased"
    },
    "MenuLeftEvent": {
      "actionType": "MenuLeft",
      "actionEvent": "ButtonPressed"
    },
    "MenuLeftPressingEvent": {
      "actionType": "MenuLeft",
      "actionEvent": "ButtonPressing"
    },
    "MenuLeftJustReleasedEvent": {
      "actionType": "MenuLeft",
      "actionEvent": "ButtonReleased"
    },
    "MenuUpEvent": {
      "actionType": "MenuUp",
      "actionEvent": "ButtonPressed"
    },
    "MenuUpReleaseEvent": {
      "actionType": "MenuUp",
      "actionEvent": "ButtonReleased"
    },
    "MenuRightEvent": {
      "actionType": "MenuRight",
      "actionEvent": "ButtonPressed"
    },
    "MenuRightReleaseEvent": {
      "actionType": "MenuRight",
      "actionEvent": "ButtonReleased"
    },
    "MenuDownEvent": {
      "actionType": "MenuDown",
      "actionEvent": "ButtonPressed"
    },
    "MenuDownReleaseEvent": {
      "actionType": "MenuDown",
      "actionEvent": "ButtonReleased"
    },
    "LeftStickLeftEvent": {
      "actionType": "LeftStickLeft",
      "actionEvent": "ButtonRepeating"
    },
    "PrimaryTabPrevEvent": {
      "actionType": "PrimaryTabPrev",
      "actionEvent": "ButtonPressed"
    },
    "PrimaryTabNextEvent": {
      "actionType": "PrimaryTabNext",
      "actionEvent": "ButtonPressed"
    },
    "LeftStickRightEvent": {
      "actionType": "LeftStickRight",
      "actionEvent": "ButtonRepeating"
    },
    "LeftStickUpEvent": {
      "actionType": "LeftStickUp",
      "actionEvent": "ButtonRepeating"
    },
    "LeftStickDownEvent": {
      "actionType": "LeftStickDown",
      "actionEvent": "ButtonRepeating"
    },
    "LeftStickVerticalEvent": {
      "actionType": "LeftStickVertical",
      "actionEvent": "AxisActive"
    },
    "LeftStickHorizontalEvent": {
      "actionType": "LeftStickHorizontal",
      "actionEvent": "AxisActive"
    },
    "LeftStickMoveEvent": {
      "actionType": "LeftStickMove",
      "actionEvent": "AxisActive"
    },
    "LeftStickButtonEvent": {
      "actionType": "LeftStickButton",
      "actionEvent": "ButtonPressed"
    },
    "LeftStickButtonPressEvent": {
      "actionType": "LeftStickButton",
      "actionEvent": "ButtonPressed"
    },
    "LeftStickButtonReleaseEvent": {
      "actionType": "LeftStickButton",
      "actionEvent": "ButtonReleased"
    },
    "DPadUpEvent": {
      "actionType": "DPadUp",
      "actionEvent": "ButtonPressed"
    },
    "DPadRightEvent": {
      "actionType": "DPadRight",
      "actionEvent": "ButtonPressed"
    },
    "DPadDownEvent": {
      "actionType": "DPadDown",
      "actionEvent": "ButtonPressed"
    },
    "DPadLeftEvent": {
      "actionType": "DPadLeft",
      "actionEvent": "ButtonPressed"
    },
    "DPadUpPressingEvent": {
      "actionType": "DPadUp",
      "actionEvent": "ButtonPressing"
    },
    "DPadRightPressingEvent": {
      "actionType": "DPadRight",
      "actionEvent": "ButtonPressing"
    },
    "DPadDownPressingEvent": {
      "actionType": "DPadDown",
      "actionEvent": "ButtonPressing"
    },
    "DPadLeftPressingEvent": {
      "actionType": "DPadLeft",
      "actionEvent": "ButtonPressing"
    },
    "DPadUpReleaseEvent": {
      "actionType": "DPadUp",
      "actionEvent": "ButtonReleased"
    },
    "DPadRightReleaseEvent": {
      "actionType": "DPadRight",
      "actionEvent": "ButtonReleased"
    },
    "DPadDownReleaseEvent": {
      "actionType": "DPadDown",
      "actionEvent": "ButtonReleased"
    },
    "DPadLeftReleaseEvent": {
      "actionType": "DPadLeft",
      "actionEvent": "ButtonReleased"
    },
    "LeftTriggerEvent": {
      "actionType": "LeftTrigger",
      "actionEvent": "ButtonPressed"
    },
    "LeftTriggerAxisEvent": {
      "actionType": "LeftTrigger",
      "actionEvent": "AxisActive"
    },
    "LeftTriggerReleaseEvent": {
      "actionType": "LeftTrigger",
      "actionEvent": "ButtonReleased"
    },
    "RightTriggerEvent": {
      "actionType": "RightTrigger",
      "actionEvent": "ButtonPressed"
    },
    "RightTriggerAxisEvent": {
      "actionType": "RightTrigger",
      "actionEvent": "AxisActive"
    },
    "RightTriggerReleaseEvent": {
      "actionType": "RightTrigger",
      "actionEvent": "ButtonReleased"
    },
    "ZoomCameraEvent": {
      "actionType": "ZoomCamera"
    },
    "ResetCameraEvent": {
      "actionType": "ResetCamera",
      "actionEvent": "ButtonShortPressUp"
    },
    "EnterElementViewEvent": {
      "actionType": "ResetCamera",
      "actionEvent": "ButtonLongPressed"
    },
    "ExitElementViewEvent": {
      "actionType": "ResetCamera",
      "actionEvent": "ButtonLongReleased"
    },
    "ToggleSlowMoveEvent": {
      "actionType": "SlowMove",
      "actionEvent": "ButtonShortPressUp"
    },
    "ToggleSlowMoveTempEvent": {
      "actionType": "SlowMove",
      "actionEvent": "ButtonLongPressed"
    },
    "ResetTempSlowMoveEvent": {
      "actionType": "SlowMove",
      "actionEvent": "ButtonLongReleased"
    },
    "DiveDownDownEvent": {
      "actionType": "SlowMove",
      "actionEvent": "ButtonPressed"
    },
    "DiveDownUpEvent": {
      "actionType": "SlowMove",
      "actionEvent": "ButtonReleased"
    },
    "DiveUpDownEvent": {
      "actionType": "JumpOrSkill4",
      "actionEvent": "ButtonPressed"
    },
    "DiveUpUpEvent": {
      "actionType": "JumpOrSkill4",
      "actionEvent": "ButtonReleased"
    },
    "JoypadDiveDownDownEvent": {
      "actionType": "Skill1",
      "actionEvent": "ButtonPressed"
    },
    "JoypadDiveDownUpEvent": {
      "actionType": "Skill1",
      "actionEvent": "ButtonReleased"
    },
    "JoypadDiveUpDownEvent": {
      "actionType": "JumpOrSkill4",
      "actionEvent": "ButtonPressed"
    },
    "JoypadDiveUpUpEvent": {
      "actionType": "JumpOrSkill4",
      "actionEvent": "ButtonReleased"
    },
    "JoypadDiveTriggerSkill1Event": {
      "actionType": "EnterFocusMode",
      "actionEvent": "ButtonPressed"
    },
    "JoypadDiveReleaseSkill1Event": {
      "actionType": "EnterFocusMode",
      "actionEvent": "ButtonReleased"
    },
    "SlowMovePresseEvent": {
      "actionType": "SlowMove",
      "actionEvent": "ButtonPressing"
    },
    "SlowMoveReleaseEvent": {
      "actionType": "SlowMove",
      "actionEvent": "ButtonUnpressing"
    },
    "SlipEvent": {
      "actionType": "Slip",
      "actionEvent": "ButtonPressed"
    },
    "SlipReleaseEvent": {
      "actionType": "Slip",
      "actionEvent": "ButtonReleased"
    },
    "DebugMenuEvent": {
      "actionType": "DebugMenu",
      "actionEvent": "ButtonPressed"
    },
    "QuestTransportEvent": {
      "actionType": "QuestTransport",
      "actionEvent": "ButtonPressed"
    },
    "RightStickVerticalEvent": {
      "actionType": "RightStickVertical",
      "actionEvent": "AxisActive"
    },
    "RightStickHorizontalEvent": {
      "actionType": "RightStickHorizontal",
      "actionEvent": "AxisActive"
    },
    "RightStickMoveEvent": {
      "actionType": "RightStickMove",
      "actionEvent": "AxisActive"
    },
    "RightStickButtonEvent": {
      "actionType": "RightStickButton",
      "actionEvent": "ButtonPressed"
    },
    "RightStickLeftEvent": {
      "actionType": "RightStickLeft",
      "actionEvent": "ButtonRepeating"
    },
    "RightStickRightEvent": {
      "actionType": "RightStickRight",
      "actionEvent": "ButtonRepeating"
    },
    "RightStickUpEvent": {
      "actionType": "RightStickUp",
      "actionEvent": "ButtonRepeating"
    },
    "RightStickDownEvent": {
      "actionType": "RightStickDown",
      "actionEvent": "ButtonRepeating"
    },
    "HelpEvent": {
      "actionType": "Help",
      "actionEvent": "ButtonPressed"
    },
    "MultiplayerEvent": {
      "actionType": "Multiplayer",
      "actionEvent": "ButtonPressed"
    },
    "ToPrevInteeEvent": {
      "actionType": "ZoomCamera",
      "actionEvent": "ButtonRepeating"
    },
    "ToNextInteeEvent": {
      "actionType": "ZoomCamera",
      "actionEvent": "NegativeButtonRepeating"
    },
    "JoypadToggleInteeEvent": {
      "actionType": "RightStickButton",
      "actionEvent": "ButtonPressed"
    },
    "OpenNotifyEvent": {
      "actionType": "OpenNotify",
      "actionEvent": "ButtonPressed"
    },
    "OpenDungeonFactorEvent": {
      "actionType": "OpenDungeonFactor",
      "actionEvent": "ButtonPressed"
    },
    "OpenHandbookEvent": {
      "actionType": "OpenHandbook",
      "actionEvent": "ButtonPressed"
    },
    "TrackQuestReleaseEvent": {
      "actionType": "TrackQuest",
      "actionEvent": "ButtonReleased"
    },
    "TrackQuestPressEvent": {
      "actionType": "TrackQuest",
      "actionEvent": "ButtonPressed"
    },
    "OpenPushTipsEvent": {
      "actionType": "OpenPushTips",
      "actionEvent": "ButtonPressed"
    },
    "OpenBattlePassEvent": {
      "actionType": "OpenBattlePass",
      "actionEvent": "ButtonPressed"
    },
    "OpenChatJoystickEvent": {
      "actionType": "OpenChat",
      "actionEvent": "ButtonPressed"
    },
    "OpenChatCancelJoystickEvent": {
      "actionType": "OpenChat",
      "actionEvent": "ButtonReleased"
    },
    "ChallengeInterruptEvent": {
      "actionType": "ChallengeInterrupt",
      "actionEvent": "ButtonPressed"
    },
    "ChallengeInterruptJoystickEvent": {
      "actionType": "ChallengeInterruptJoystick"
    },
    "HomeworldCreateCustomSuiteJoystickEvent": {
      "actionType": "HomeworldCreateCustomSuiteJoystick"
    },
    "HomeworldFurnitureSearchJoystickEvent": {
      "actionType": "HomeworldFurnitureSearchJoystick"
    },
    "HomeworldFurnitureSwitchMultiSelectModeEvent": {
      "actionType": "HomeworldFurnitureSwitchMultiSelectMode"
    },
    "HomeworldLeftShoulderSquareJoyStickEvent": {
      "actionType": "HomeworldLeftShoulderSquareJoyStick"
    },
    "HideEvent": {
      "actionType": "Hide",
      "actionEvent": "ButtonPressed"
    },
    "TriggerQuickUseEvent": {
      "actionType": "QuickUse",
      "actionEvent": "ButtonPressed"
    },
    "ReleaseQuickUseEvent": {
      "actionType": "QuickUse",
      "actionEvent": "ButtonReleased"
    },
    "TriggerActivitySkillEvent": {
      "actionType": "ActivitySkill",
      "actionEvent": "ButtonPressed"
    },
    "ReleaseActivitySkillEvent": {
      "actionType": "ActivitySkill",
      "actionEvent": "ButtonReleased"
    },
    "ExteraSelectUpEvent": {
      "actionType": "ExteraSelectUp",
      "actionEvent": "ButtonPressed"
    },
    "ExteraSelectDownEvent": {
      "actionType": "ExteraSelectDown",
      "actionEvent": "ButtonPressed"
    },
    "ExteraSelectLeftEvent": {
      "actionType": "ExteraSelectLeft",
      "actionEvent": "ButtonPressed"
    },
    "ExteraSelectRightEvent": {
      "actionType": "ExteraSelectRight",
      "actionEvent": "ButtonPressed"
    },
    "MusicGameLeftUpEvent": {
      "actionType": "MusicGame_Left_Up",
      "actionEvent": "ButtonPressed"
    },
    "MusicGameLeftRightEvent": {
      "actionType": "MusicGame_Left_Right",
      "actionEvent": "ButtonPressed"
    },
    "MusicGameLeftDownEvent": {
      "actionType": "MusicGame_Left_Down",
      "actionEvent": "ButtonPressed"
    },
    "MusicGameLeftLeftEvent": {
      "actionType": "MusicGame_Left_Left",
      "actionEvent": "ButtonPressed"
    },
    "MusicGameRightUpEvent": {
      "actionType": "MusicGame_Right_Up",
      "actionEvent": "ButtonPressed"
    },
    "MusicGameRightRightEvent": {
      "actionType": "MusicGame_Right_Right",
      "actionEvent": "ButtonPressed"
    },
    "MusicGameRightDownEvent": {
      "actionType": "MusicGame_Right_Down",
      "actionEvent": "ButtonPressed"
    },
    "MusicGameRightLeftEvent": {
      "actionType": "MusicGame_Right_Left",
      "actionEvent": "ButtonPressed"
    },
    "MusicGameLeftUpReleasedEvent": {
      "actionType": "MusicGame_Left_Up",
      "actionEvent": "ButtonReleased"
    },
    "MusicGameLeftRightReleasedEvent": {
      "actionType": "MusicGame_Left_Right",
      "actionEvent": "ButtonReleased"
    },
    "MusicGameLeftDownReleasedEvent": {
      "actionType": "MusicGame_Left_Down",
      "actionEvent": "ButtonReleased"
    },
    "MusicGameLeftLeftReleasedEvent": {
      "actionType": "MusicGame_Left_Left",
      "actionEvent": "ButtonReleased"
    },
    "MusicGameRightUpReleasedEvent": {
      "actionType": "MusicGame_Right_Up",
      "actionEvent": "ButtonReleased"
    },
    "MusicGameRightRightReleasedEvent": {
      "actionType": "MusicGame_Right_Right",
      "actionEvent": "ButtonReleased"
    },
    "MusicGameRightDownReleasedEvent": {
      "actionType": "MusicGame_Right_Down",
      "actionEvent": "ButtonReleased"
    },
    "MusicGameRightLeftReleasedEvent": {
      "actionType": "MusicGame_Right_Left",
      "actionEvent": "ButtonReleased"
    },
    "MusicGameFree1Event": {
      "actionType": "MusicGame_Free1",
      "actionEvent": "ButtonPressed"
    },
    "MusicGameFree2Event": {
      "actionType": "MusicGame_Free2",
      "actionEvent": "ButtonPressed"
    },
    "MusicGameFree3Event": {
      "actionType": "MusicGame_Free3",
      "actionEvent": "ButtonPressed"
    },
    "MusicGameFree4Event": {
      "actionType": "MusicGame_Free4",
      "actionEvent": "ButtonPressed"
    },
    "MusicGameFree5Event": {
      "actionType": "MusicGame_Free5",
      "actionEvent": "ButtonPressed"
    },
    "MusicGameFree6Event": {
      "actionType": "MusicGame_Free6",
      "actionEvent": "ButtonPressed"
    },
    "MusicGameFree7Event": {
      "actionType": "MusicGame_Free7",
      "actionEvent": "ButtonPressed"
    },
    "MusicGameFree8Event": {
      "actionType": "MusicGame_Free8",
      "actionEvent": "ButtonPressed"
    },
    "MusicGameFree9Event": {
      "actionType": "MusicGame_Free9",
      "actionEvent": "ButtonPressed"
    },
    "MusicGameFree10Event": {
      "actionType": "MusicGame_Free10",
      "actionEvent": "ButtonPressed"
    },
    "MusicGameFree11Event": {
      "actionType": "MusicGame_Free11",
      "actionEvent": "ButtonPressed"
    },
    "MusicGameFree12Event": {
      "actionType": "MusicGame_Free12",
      "actionEvent": "ButtonPressed"
    },
    "MusicGameFree13Event": {
      "actionType": "MusicGame_Free13",
      "actionEvent": "ButtonPressed"
    },
    "MusicGameFree14Event": {
      "actionType": "MusicGame_Free14",
      "actionEvent": "ButtonPressed"
    },
    "MusicGameFree15Event": {
      "actionType": "MusicGame_Free15",
      "actionEvent": "ButtonPressed"
    },
    "MusicGameFree16Event": {
      "actionType": "MusicGame_Free16",
      "actionEvent": "ButtonPressed"
    },
    "MusicGameFree17Event": {
      "actionType": "MusicGame_Free17",
      "actionEvent": "ButtonPressed"
    },
    "MusicGameFree18Event": {
      "actionType": "MusicGame_Free18",
      "actionEvent": "ButtonPressed"
    },
    "MusicGameFree19Event": {
      "actionType": "MusicGame_Free19",
      "actionEvent": "ButtonPressed"
    },
    "MusicGameFree20Event": {
      "actionType": "MusicGame_Free20",
      "actionEvent": "ButtonPressed"
    },
    "MusicGameFree21Event": {
      "actionType": "MusicGame_Free21",
      "actionEvent": "ButtonPressed"
    },
    "MusicGameFree1ReleaseEvent": {
      "actionType": "MusicGame_Free1",
      "actionEvent": "ButtonReleased"
    },
    "MusicGameFree2ReleaseEvent": {
      "actionType": "MusicGame_Free2",
      "actionEvent": "ButtonReleased"
    },
    "MusicGameFree3ReleaseEvent": {
      "actionType": "MusicGame_Free3",
      "actionEvent": "ButtonReleased"
    },
    "MusicGameFree4ReleaseEvent": {
      "actionType": "MusicGame_Free4",
      "actionEvent": "ButtonReleased"
    },
    "MusicGameFree5ReleaseEvent": {
      "actionType": "MusicGame_Free5",
      "actionEvent": "ButtonReleased"
    },
    "MusicGameFree6ReleaseEvent": {
      "actionType": "MusicGame_Free6",
      "actionEvent": "ButtonReleased"
    },
    "MusicGameFree7ReleaseEvent": {
      "actionType": "MusicGame_Free7",
      "actionEvent": "ButtonReleased"
    },
    "MusicGameFree8ReleaseEvent": {
      "actionType": "MusicGame_Free8",
      "actionEvent": "ButtonReleased"
    },
    "MusicGameFree9ReleaseEvent": {
      "actionType": "MusicGame_Free9",
      "actionEvent": "ButtonReleased"
    },
    "MusicGameFree10ReleaseEvent": {
      "actionType": "MusicGame_Free10",
      "actionEvent": "ButtonReleased"
    },
    "MusicGameFree11ReleaseEvent": {
      "actionType": "MusicGame_Free11",
      "actionEvent": "ButtonReleased"
    },
    "MusicGameFree12ReleaseEvent": {
      "actionType": "MusicGame_Free12",
      "actionEvent": "ButtonReleased"
    },
    "MusicGameFree13ReleaseEvent": {
      "actionType": "MusicGame_Free13",
      "actionEvent": "ButtonReleased"
    },
    "MusicGameFree14ReleaseEvent": {
      "actionType": "MusicGame_Free14",
      "actionEvent": "ButtonReleased"
    },
    "MusicGameFree15ReleaseEvent": {
      "actionType": "MusicGame_Free15",
      "actionEvent": "ButtonReleased"
    },
    "MusicGameFree16ReleaseEvent": {
      "actionType": "MusicGame_Free16",
      "actionEvent": "ButtonReleased"
    },
    "MusicGameFree17ReleaseEvent": {
      "actionType": "MusicGame_Free17",
      "actionEvent": "ButtonReleased"
    },
    "MusicGameFree18ReleaseEvent": {
      "actionType": "MusicGame_Free18",
      "actionEvent": "ButtonReleased"
    },
    "MusicGameFree19ReleaseEvent": {
      "actionType": "MusicGame_Free19",
      "actionEvent": "ButtonReleased"
    },
    "MusicGameFree20ReleaseEvent": {
      "actionType": "MusicGame_Free20",
      "actionEvent": "ButtonReleased"
    },
    "MusicGameFree21ReleaseEvent": {
      "actionType": "MusicGame_Free21",
      "actionEvent": "ButtonReleased"
    },
    "MusicGameFree22Event": {
      "actionType": "MusicGame_Free22",
      "actionEvent": "ButtonPressed"
    },
    "MusicGameFree23Event": {
      "actionType": "MusicGame_Free23",
      "actionEvent": "ButtonPressed"
    },
    "MusicGameFree24Event": {
      "actionType": "MusicGame_Free24",
      "actionEvent": "ButtonPressed"
    },
    "MusicGameFree25Event": {
      "actionType": "MusicGame_Free25",
      "actionEvent": "ButtonPressed"
    },
    "MusicGameFree25ReleaseEvent": {
      "actionType": "MusicGame_Free25",
      "actionEvent": "ButtonReleased"
    },
    "MusicGameFree26Event": {
      "actionType": "MusicGame_Free26",
      "actionEvent": "ButtonPressed"
    },
    "MusicGameFree26ReleaseEvent": {
      "actionType": "MusicGame_Free26",
      "actionEvent": "ButtonReleased"
    },
    "MenuNextEvent": {
      "actionType": "MenuNext",
      "actionEvent": "ButtonPressed"
    },
    "F1Event": {
      "actionType": "F1",
      "actionEvent": "ButtonPressed"
    },
    "F2Event": {
      "actionType": "F2",
      "actionEvent": "ButtonPressed"
    },
    "F3Event": {
      "actionType": "F3",
      "actionEvent": "ButtonPressed"
    },
    "ReturnEvent": {
      "actionType": "Return",
      "actionEvent": "ButtonPressed"
    },
    "ReturnKeyReleaseEvent": {
      "actionType": "Return",
      "actionEvent": "ButtonReleased"
    },
    "ReturnKeyPressingEvent": {
      "actionType": "Return",
      "actionEvent": "ButtonPressing"
    },
    "OpenHomeworldHandbookEvent": {
      "actionType": "OpenHomeworldHandbook",
      "actionEvent": "ButtonPressed"
    },
    "OpenHomeworldEditorEvent": {
      "actionType": "OpenHomeworldEditor",
      "actionEvent": "ButtonPressed"
    },
    "OpenTeamPageEvent": {
      "actionType": "OpenTeamPage",
      "actionEvent": "ButtonPressed"
    },
    "OpenFriendPageEvent": {
      "actionType": "OpenFriendPage",
      "actionEvent": "ButtonPressed"
    },
    "OpenReunionPageEvent": {
      "actionType": "OpenReunion",
      "actionEvent": "ButtonPressed"
    },
    "ObjectTurnUpEvent": {
      "actionType": "ObjectTurnUp",
      "actionEvent": "ButtonPressed"
    },
    "ObjectTurnDownEvent": {
      "actionType": "ObjectTurnDown",
      "actionEvent": "ButtonPressed"
    },
    "ObjectTurnLeftEvent": {
      "actionType": "ObjectTurnLeft",
      "actionEvent": "ButtonPressed"
    },
    "ObjectTurnRightEvent": {
      "actionType": "ObjectTurnRight",
      "actionEvent": "ButtonPressed"
    },
    "ObjectTurnClockwiseEvent": {
      "actionType": "ObjectTurnClockwise",
      "actionEvent": "ButtonPressed"
    },
    "ObjectTurnAntiClockwiseEvent": {
      "actionType": "ObjectTurnAntiClockwise",
      "actionEvent": "ButtonPressed"
    },
    "ObjectTurnUpReleaseEvent": {
      "actionType": "ObjectTurnUp",
      "actionEvent": "ButtonReleased"
    },
    "ObjectTurnDownReleaseEvent": {
      "actionType": "ObjectTurnDown",
      "actionEvent": "ButtonReleased"
    },
    "ObjectTurnLeftReleaseEvent": {
      "actionType": "ObjectTurnLeft",
      "actionEvent": "ButtonReleased"
    },
    "ObjectTurnRightReleaseEvent": {
      "actionType": "ObjectTurnRight",
      "actionEvent": "ButtonReleased"
    },
    "ObjectTurnClockwiseReleaseEvent": {
      "actionType": "ObjectTurnClockwise",
      "actionEvent": "ButtonReleased"
    },
    "ObjectTurnAntiClockwiseReleaseEvent": {
      "actionType": "ObjectTurnAntiClockwise",
      "actionEvent": "ButtonReleased"
    },
    "CameraMoveUpPressedEvent": {
      "actionType": "CameraMoveUp",
      "actionEvent": "ButtonPressed"
    },
    "CameraMoveUpReleasedEvent": {
      "actionType": "CameraMoveUp",
      "actionEvent": "ButtonReleased"
    },
    "CameraMoveDownPressedEvent": {
      "actionType": "CameraMoveDown",
      "actionEvent": "ButtonPressed"
    },
    "CameraMoveDownReleasedEvent": {
      "actionType": "CameraMoveDown",
      "actionEvent": "ButtonReleased"
    },
    "CustomLevelSwitchFloatModeEvent": {
      "actionType": "CustomLevelSwitchFloatMode",
      "actionEvent": "ButtonPressed"
    },
    "CustomLevelDeployConfirmEvent": {
      "actionType": "CustomLevelDeployConfirm",
      "actionEvent": "ButtonPressed"
    },
    "ArrowUpEvent": {
      "actionType": "ArrowUp",
      "actionEvent": "ButtonPressed"
    },
    "ArrowDownEvent": {
      "actionType": "ArrowDown",
      "actionEvent": "ButtonPressed"
    },
    "ArrowLeftEvent": {
      "actionType": "ArrowLeft",
      "actionEvent": "ButtonPressed"
    },
    "ArrowRightEvent": {
      "actionType": "ArrowRight",
      "actionEvent": "ButtonPressed"
    },
    "LeftControlEvent": {
      "actionType": "LeftControl",
      "actionEvent": "ButtonPressed"
    },
    "LeftControlReleasedEvent": {
      "actionType": "LeftControl",
      "actionEvent": "ButtonReleased"
    },
    "SpaceEvent": {
      "actionType": "Space",
      "actionEvent": "ButtonPressed"
    },
    "SpaceReleasedEvent": {
      "actionType": "Space",
      "actionEvent": "ButtonReleased"
    },
    "UndoEvent": {
      "actionType": "Undo",
      "actionEvent": "ButtonPressed"
    },
    "SaveEvent": {
      "actionType": "Save",
      "actionEvent": "ButtonPressed"
    },
    "OpenMenuEvent": {
      "actionType": "OpenPaimon",
      "actionEvent": "ButtonPressed"
    },
    "OpenMenuReleaseEvent": {
      "actionType": "OpenPaimon",
      "actionEvent": "ButtonReleased"
    },
    "MouseLeftButtonEvent": {
      "actionType": "MouseLeftButton",
      "actionEvent": "ButtonPressed"
    },
    "MouseLeftButtonReleaseEvent": {
      "actionType": "MouseLeftButton",
      "actionEvent": "ButtonReleased"
    },
    "MouseLeftButtonPressingEvent": {
      "actionType": "MouseLeftButton",
      "actionEvent": "ButtonPressing"
    },
    "TriggerVehicleSkill1Event": {
      "actionType": "VehicleSkill1",
      "actionEvent": "ButtonPressed"
    },
    "TriggerVehicleSkill2Event": {
      "actionType": "VehicleSkill2",
      "actionEvent": "ButtonPressed"
    },
    "TriggerVehicleSkill3Event": {
      "actionType": "VehicleSkill3",
      "actionEvent": "ButtonPressed"
    },
    "TriggerVehicleSkill4Event": {
      "actionType": "VehicleSkill4",
      "actionEvent": "ButtonPressed"
    },
    "TriggerVehicleSkill5Event": {
      "actionType": "VehicleSkill5",
      "actionEvent": "ButtonPressed"
    },
    "ReleaseVehicleSkill1Event": {
      "actionType": "VehicleSkill1",
      "actionEvent": "ButtonReleased"
    },
    "ReleaseVehicleSkill2Event": {
      "actionType": "VehicleSkill2",
      "actionEvent": "ButtonReleased"
    },
    "ReleaseVehicleSkill3Event": {
      "actionType": "VehicleSkill3",
      "actionEvent": "ButtonReleased"
    },
    "ReleaseVehicleSkill4Event": {
      "actionType": "VehicleSkill4",
      "actionEvent": "ButtonReleased"
    },
    "ReleaseVehicleSkill5Event": {
      "actionType": "VehicleSkill5",
      "actionEvent": "ButtonReleased"
    },
    "HerculesBattleForwardPressEvent": {
      "actionType": "HerculesBattleForward",
      "actionEvent": "ButtonPressed"
    },
    "HerculesBattleForwardReleaseEvent": {
      "actionType": "HerculesBattleForward",
      "actionEvent": "ButtonReleased"
    },
    "HerculesBattleBackwardPressEvent": {
      "actionType": "HerculesBattleBackward",
      "actionEvent": "ButtonPressed"
    },
    "HerculesBattleBackwardReleaseEvent": {
      "actionType": "HerculesBattleBackward",
      "actionEvent": "ButtonReleased"
    },
    "HerculesBattleCancelEvent": {
      "actionType": "HerculesBattleCancel",
      "actionEvent": "ButtonPressed"
    },
    "ActivityMapScaleEvent": {
      "actionType": "ActivityMapScale",
      "actionEvent": "ButtonPressed"
    },
    "ActivityMapSettingEvent": {
      "actionType": "ActivityMapSetting",
      "actionEvent": "ButtonPressed"
    },
    "AkaFesAstrolabeLeftTurnPressEvent": {
      "actionType": "AkaFesAstrolabeLeftTurn",
      "actionEvent": "ButtonPressed"
    },
    "AkaFesAstrolabeLeftTurnReleaseEvent": {
      "actionType": "AkaFesAstrolabeLeftTurn",
      "actionEvent": "ButtonReleased"
    },
    "AkaFesAstrolabeRightTurnPressEvent": {
      "actionType": "AkaFesAstrolabeRightTurn",
      "actionEvent": "ButtonPressed"
    },
    "AkaFesAstrolabeRightTurnReleaseEvent": {
      "actionType": "AkaFesAstrolabeRightTurn",
      "actionEvent": "ButtonReleased"
    },
    "AkaFesAstrolabeHeightChangeEvent": {
      "actionType": "AkaFesAstrolabeHeightChange",
      "actionEvent": "ButtonPressed"
    },
    "AkaFesAstrolabeHeightChangeReleaseEvent": {
      "actionType": "AkaFesAstrolabeHeightChange",
      "actionEvent": "ButtonReleased"
    },
    "PenAdvShuffleBoardChargeEvent": {
      "actionType": "PenAdvShuffleBoardCharge",
      "actionEvent": "ButtonPressed"
    },
    "PenAdvShuffleBoardChargeReleaseEvent": {
      "actionType": "PenAdvShuffleBoardCharge",
      "actionEvent": "ButtonReleased"
    },
    "DPadHorizontalAxisEvent": {
      "actionType": "DPadHorizontalAxis",
      "actionEvent": "AxisActive"
    },
    "PenAdvShuffleBoardChargeMoveLEvent": {
      "actionType": "PenAdvShuffleBoardChargeMoveL",
      "actionEvent": "AxisActive"
    },
    "PenAdvShuffleBoardChargeMoveREvent": {
      "actionType": "PenAdvShuffleBoardChargeMoveR",
      "actionEvent": "AxisActive"
    },
    "DPadVerticalEvent": {
      "actionType": "DPadVertical",
      "actionEvent": "ButtonPressed"
    },
    "DPadHorizontalEvent": {
      "actionType": "DPadHorizontal",
      "actionEvent": "ButtonPressed"
    },
    "ExteraSelectRightReleaseEvent": {
      "actionType": "ExteraSelectRight",
      "actionEvent": "ButtonReleased"
    },
    "UGCOpenGlobalSettingEvent": {
      "actionType": "UGCOpenGlobalSetting",
      "actionEvent": "ButtonPressed"
    },
    "UGCLeftControlPressEvent": {
      "actionType": "UGCLeftControl",
      "actionEvent": "ButtonPressing"
    },
    "UGCLeftControlReleaseEvent": {
      "actionType": "UGCLeftControl",
      "actionEvent": "ButtonUnpressing"
    },
    "UGCResetCameraEvent": {
      "actionType": "UGCResetCamera",
      "actionEvent": "ButtonPressed"
    },
    "UGCCameraUpPressEvent": {
      "actionType": "UGCCameraUp",
      "actionEvent": "ButtonPressed"
    },
    "UGCCameraUpReleaseEvent": {
      "actionType": "UGCCameraUp",
      "actionEvent": "ButtonReleased"
    },
    "UGCCameraDownPressEvent": {
      "actionType": "UGCCameraDown",
      "actionEvent": "ButtonPressed"
    },
    "UGCCameraDownReleaseEvent": {
      "actionType": "UGCCameraDown",
      "actionEvent": "ButtonReleased"
    },
    "UGCRedoEvent": {
      "actionType": "UGCRedo",
      "actionEvent": "ButtonPressed"
    },
    "UGCUndoEvent": {
      "actionType": "UGCUndo",
      "actionEvent": "ButtonPressed"
    },
    "UGCDeploySaveEvent": {
      "actionType": "UGCDeploySave",
      "actionEvent": "ButtonPressed"
    },
    "UGCDeployConfirmEvent": {
      "actionType": "UGCDeployConfirm",
      "actionEvent": "ButtonPressed"
    },
    "UGCFocusCameraEvent": {
      "actionType": "UGCFocusCamera",
      "actionEvent": "ButtonPressed"
    },
    "UGCSwitchFloatEvent": {
      "actionType": "UGCSwitchFloat",
      "actionEvent": "ButtonPressed"
    },
    "UGCRotateEvent": {
      "actionType": "UGCRotate",
      "actionEvent": "ButtonPressed"
    },
    "UGCCopyEvent": {
      "actionType": "UGCCopy",
      "actionEvent": "ButtonPressed"
    },
    "UGCRecycleEvent": {
      "actionType": "UGCRecycle",
      "actionEvent": "ButtonPressed"
    },
    "UGCOpenSettingEvent": {
      "actionType": "UGCOpenSetting",
      "actionEvent": "ButtonPressed"
    },
    "UGCOpenTriggerEvent": {
      "actionType": "UGCOpenTrigger",
      "actionEvent": "ButtonPressed"
    },
    "UGCBatchSelectEvent": {
      "actionType": "UGCBatchSelect",
      "actionEvent": "ButtonPressed"
    },
    "UGCSelectSuiteEvent": {
      "actionType": "UGCSelectSuite",
      "actionEvent": "ButtonPressed"
    },
    "UGCMoveEvent": {
      "actionType": "UGCMove"
    },
    "ReloadEvent": {
      "actionType": "Reload",
      "actionEvent": "ButtonPressed"
    },
    "WidgetQuickSwitch0Event": {
      "actionType": "WidgetQuickSwitch0",
      "actionEvent": "ButtonPressed"
    },
    "WidgetQuickSwitch1Event": {
      "actionType": "WidgetQuickSwitch1",
      "actionEvent": "ButtonPressed"
    },
    "WidgetQuickSwitch2Event": {
      "actionType": "WidgetQuickSwitch2",
      "actionEvent": "ButtonPressed"
    },
    "WidgetQuickSwitch3Event": {
      "actionType": "WidgetQuickSwitch3",
      "actionEvent": "ButtonPressed"
    },
    "ExteraSelectDownReleaseEvent": {
      "actionType": "ExteraSelectDown",
      "actionEvent": "ButtonReleased"
    },
    "ToyBattleQteLeftPressedEvent": {
      "actionType": "ToyBattleQteLeft",
      "actionEvent": "ButtonPressed"
    },
    "ToyBattleQteLeftReleaseEvent": {
      "actionType": "ToyBattleQteLeft",
      "actionEvent": "ButtonReleased"
    },
    "ToyBattleQteRightPressedEvent": {
      "actionType": "ToyBattleQteRight",
      "actionEvent": "ButtonPressed"
    },
    "ToyBattleQteRightReleaseEvent": {
      "actionType": "ToyBattleQteRight",
      "actionEvent": "ButtonReleased"
    },
    "KeyCodeCEvent": {
      "actionType": "KeyCodeC",
      "actionEvent": "ButtonPressed"
    },
    "KeyCodeFEvent": {
      "actionType": "KeyCodeF",
      "actionEvent": "ButtonPressed"
    },
    "KeyCodeGEvent": {
      "actionType": "KeyCodeG",
      "actionEvent": "ButtonPressed"
    },
    "KeyCodeQEvent": {
      "actionType": "KeyCodeQ",
      "actionEvent": "ButtonPressed"
    },
    "KeyCodeQReleaseEvent": {
      "actionType": "KeyCodeQ",
      "actionEvent": "ButtonReleased"
    },
    "KeyCodeEEvent": {
      "actionType": "KeyCodeE",
      "actionEvent": "ButtonPressed"
    },
    "KeyCodeAEvent": {
      "actionType": "KeyCodeA",
      "actionEvent": "ButtonPressed"
    },
    "KeyCodeAPressingEvent": {
      "actionType": "KeyCodeA",
      "actionEvent": "ButtonPressing"
    },
    "KeyCodeDEvent": {
      "actionType": "KeyCodeD",
      "actionEvent": "ButtonPressed"
    },
    "KeyCodeDPressingEvent": {
      "actionType": "KeyCodeD",
      "actionEvent": "ButtonPressing"
    },
    "KeyCodeWEvent": {
      "actionType": "KeyCodeW",
      "actionEvent": "ButtonPressed"
    },
    "KeyCodeWPressingEvent": {
      "actionType": "KeyCodeW",
      "actionEvent": "ButtonPressing"
    },
    "KeyCodeSEvent": {
      "actionType": "KeyCodeS",
      "actionEvent": "ButtonPressed"
    },
    "KeyCodeSPressingEvent": {
      "actionType": "KeyCodeS",
      "actionEvent": "ButtonPressing"
    },
    "KeyCodeTabEvent": {
      "actionType": "KeyCodeTab",
      "actionEvent": "ButtonPressed"
    },
    "KeyCodeHEvent": {
      "actionType": "KeyCodeH",
      "actionEvent": "ButtonPressed"
    },
    "MouseRightButtonEvent": {
      "actionType": "MouseRightButton",
      "actionEvent": "ButtonPressed"
    },
    "RightStickLeftShowEvent": {
      "actionType": "RightStickLeftShow",
      "actionEvent": "ButtonPressed"
    },
    "RightStickRightShowEvent": {
      "actionType": "RightStickRightShow",
      "actionEvent": "ButtonPressed"
    },
    "ToggleAttackModeReleaseEvent": {
      "actionType": "ToggleAttackMode",
      "actionEvent": "ButtonReleased"
    },
    "RightStickButtonReleaseEvent": {
      "actionType": "RightStickButton",
      "actionEvent": "ButtonReleased"
    },
    "DPadFourWayEvent": {
      "actionType": "DPadFourWay",
      "actionEvent": "ButtonPressed"
    },
    "HideSpecificUIEvent": {
      "actionType": "HideSpecificUI",
      "actionEvent": "ButtonPressed"
    },
    "LeftShoulderPressingEvent": {
      "actionType": "LeftShoulder",
      "actionEvent": "ButtonPressing"
    },
    "RightShoulderPressingEvent": {
      "actionType": "RightShoulder",
      "actionEvent": "ButtonPressing"
    },
    "LeftShiftEvent": {
      "actionType": "LeftShift",
      "actionEvent": "ButtonPressed"
    },
    "MoveEventUnchanged": {
      "actionType": "MoveUnchanged"
    },
    "KeyCodeJEvent": {
      "actionType": "KeyCodeJ",
      "actionEvent": "ButtonPressed"
    }
  },
  "actionGroups": {
    "TabMenu": [
      {
        "eventType": "MenuConfirmEvent",
        "contextEvent": "ConfirmEvent"
      },
      {
        "eventType": "MenuLeftEvent"
      },
      {
        "eventType": "LeftShoulderEvent"
      },
      {
        "eventType": "RightShoulderEvent"
      },
      {
        "priority": 1,
        "eventType": "LeftStickUpEvent"
      },
      {
        "priority": 2,
        "eventType": "LeftStickDownEvent"
      },
      {
        "priority": 3,
        "eventType": "LeftStickLeftEvent"
      },
      {
        "priority": 4,
        "eventType": "LeftStickRightEvent"
      },
      {
        "priority": 5,
        "eventType": "MoveEvent"
      },
      {
        "priority": 6,
        "eventType": "ChangeViewEvent"
      },
      {
        "priority": 7,
        "eventType": "LeftTriggerEvent"
      },
      {
        "priority": 8,
        "eventType": "RightTriggerEvent"
      },
      {
        "priority": 9,
        "eventType": "MenuBackEvent"
      }
    ],
    "WheelMenu": [
      {
        "eventType": "MenuUpEvent",
        "contextEvent": "ToAvatar1Event"
      },
      {
        "eventType": "MenuRightEvent",
        "contextEvent": "ToAvatar2Event"
      },
      {
        "eventType": "MenuDownEvent",
        "contextEvent": "ToAvatar3Event"
      },
      {
        "eventType": "MenuLeftEvent",
        "contextEvent": "ToAvatar4Event"
      },
      {
        "eventType": "CloseWheelMenuEvent"
      },
      {
        "eventType": "ChangeViewEvent"
      }
    ],
    "SimpleMenu": [
      {
        "eventType": "MenuConfirmEvent",
        "contextEvent": "ConfirmEvent"
      },
      {
        "eventType": "MenuBackEvent",
        "contextEvent": "BackEvent"
      }
    ],
    "ScrollerMenu": [
      {
        "eventType": "MenuConfirmEvent",
        "contextEvent": "ConfirmEvent"
      },
      {
        "eventType": "MenuBackEvent",
        "contextEvent": "BackEvent"
      },
      {
        "eventType": "RightStickVerticalEvent",
        "contextEvent": "ScrollPrimaryScrollerEvent"
      }
    ],
    "NotifyBanner": [
      {
        "eventType": "OpenNotifyEvent",
        "contextEvent": "ConfirmEvent"
      }
    ]
  },
  "inputModes": {
    "TabMenu": {
      "stateActions": {
        "0": {
          "keyboardTouch": "TabMenu",
          "keyboardMouse": "TabMenu",
          "joypad": "TabMenu"
        }
      }
    },
    "WheelMenu": {
      "stateActions": {
        "0": {
          "keyboardTouch": "WheelMenu",
          "keyboardMouse": "WheelMenu",
          "joypad": "WheelMenu"
        }
      },
      "enableJoypadVirtualCursor": false
    },
    "None": {
      "enableInputPenetrate": true,
      "enableJoypadVirtualCursor": false
    },
    "Block": {
      "enableJoypadVirtualCursor": false
    },
    "SimpleMenu": {
      "stateActions": {
        "0": {
          "keyboardTouch": "SimpleMenu",
          "keyboardMouse": "SimpleMenu",
          "joypad": "SimpleMenu"
        }
      },
      "enableJoypadVirtualCursor": false
    },
    "ScrollerMenu": {
      "stateActions": {
        "0": {
          "keyboardTouch": "ScrollerMenu",
          "keyboardMouse": "ScrollerMenu",
          "joypad": "ScrollerMenu"
        }
      },
      "enableJoypadVirtualCursor": false
    }
  },
  "joypadChangeViewScale": {
    "x": 0.800000011920929,
    "y": 0.8199999928474426
  },
  "joypadLongPressDuration": 1.0,
  "joypadSenseScales": [
    0.6000000238418579,
    0.75,
    0.8999999761581421,
    1.149999976158142,
    1.5
  ],
  "joypadFocusSenseScales": [
    0.5,
    0.550000011920929,
    0.6499999761581421,
    0.8500000238418579,
    1.100000023841858
  ],
  "mouseSenseScales": [
    0.11999999731779099,
    0.25,
    0.5,
    0.75,
    0.8999999761581421
  ],
  "mouseFocusSenseScales": [
    0.20000000298023224,
    0.4000000059604645,
    0.699999988079071,
    1.0,
    1.2000000476837158
  ],
  "touchpadSenseScales": [
    0.4000000059604645,
    0.6499999761581421,
    0.8500000238418579,
    1.0,
    1.149999976158142
  ],
  "touchpadFocusSenseScales": [
    0.10000000149011612,
    0.20000000298023224,
    0.30000001192092896,
    0.4000000059604645,
    0.6499999761581421,
    0.8500000238418579,
    1.0,
    1.149999976158142
  ],
  "touchpadFocusAccelerationScales": [
    1.0,
    1.0,
    1.0,
    1.0,
    1.0,
    1.0,
    1.0,
    1.0
  ],
  "touchpadFocusAccelerationPara": {
    "phase": 1.2999999523162842,
    "slope": 12.0,
    "amplitude": 1.5,
    "clip": 5.0
  },
  "configUIPhotograph": {
    "fovMax": 90.0,
    "fovMin": 30.0,
    "cameraShiftUp": 1.0,
    "cameraShiftDown": 1.0,
    "cameraShiftLeft": 2.0,
    "cameraShiftRight": 2.0,
    "blurDistance": 20.0,
    "blurRange": 5.0,
    "blurAmount": 8.0,
    "NMAHKHHLJDP": 0.014999999664723873
  },
  "configInputCheck": {
    "configInputEventCheckWhiteList": {
      "globalWhiteList": [
        "MenuBackEvent",
        "MenuBackingEvent",
        "MenuBackingCancelEvent",
        "MenuConfirmEvent",
        "MenuConfirmingEvent",
        "MenuConfirmingCancelEvent"
      ],
      "configContextInputEventWhiteListMap": {
        "MusicGameRightRightEvent": [
          "MusicGameMainPage",
          "InLevelMusicPage",
          "MusicPlayPage",
          "MusicEditorPage",
          "MusicSettingDialog",
          "InLevelDrumPage"
        ],
        "MusicGameRightDownEvent": [
          "MusicGameMainPage",
          "InLevelMusicPage",
          "MusicPlayPage",
          "MusicEditorPage",
          "MusicSettingDialog"
        ],
        "MusicGameRightRightReleasedEvent": [
          "MusicGameMainPage",
          "MusicPlayPage",
          "MusicEditorPage",
          "MusicSettingDialog",
          "InLevelMusicPage"
        ],
        "MusicGameRightDownReleasedEvent": [
          "MusicGameMainPage",
          "MusicPlayPage",
          "MusicEditorPage",
          "MusicSettingDialog",
          "InLevelMusicPage",
          "InLevelDrumPage"
        ],
        "TriggerSkill4Event": [
          "InLevelQTEDialog",
          "PenumbraPage",
          "ShootingStatueDialog"
        ],
        "ReleaseSkill4Event": [
          "InLevelQTEDialog",
          "ShootingStatueDialog"
        ],
        "HerculesBattleCancelEvent": [
          "ElectroherculesBattleActionPage"
        ],
        "HerculesBattleForwardPressEvent": [
          "ElectroherculesBattleActionPage"
        ],
        "HerculesBattleForwardReleaseEvent": [
          "ElectroherculesBattleActionPage"
        ],
        "HerculesBattleBackwardPressEvent": [
          "ElectroherculesBattleActionPage"
        ],
        "HerculesBattleBackwardReleaseEvent": [
          "ElectroherculesBattleActionPage"
        ],
        "LeftTriggerEvent": [
          "ElectroherculesBattleActionPage"
        ],
        "LeftTriggerReleaseEvent": [
          "ElectroherculesBattleActionPage"
        ],
        "RightTriggerEvent": [
          "ElectroherculesBattleActionPage"
        ],
        "RightTriggerReleaseEvent": [
          "ElectroherculesBattleActionPage"
        ],
        "MusicGameFree25Event": [
          "InLevelMusicPage",
          "InLevelDrumPage"
        ],
        "MusicGameFree26Event": [
          "InLevelMusicPage",
          "InLevelDrumPage"
        ],
        "TriggerQuickUseEvent": [
          "GadgetSelectDialog"
        ],
        "ReleaseQuickUseEvent": [
          "GadgetSelectDialog"
        ],
        "ToyBattleQteLeftPressedEvent": [
          "ToyBattleQTEInLevelPage"
        ],
        "ToyBattleQteLeftReleaseEvent": [
          "ToyBattleQTEInLevelPage"
        ],
        "ToyBattleQteRightPressedEvent": [
          "ToyBattleQTEInLevelPage"
        ],
        "ToyBattleQteRightReleaseEvent": [
          "ToyBattleQTEInLevelPage"
        ],
        "TriggerSkill1Event": [
          "ShootingStatueDialog"
        ],
        "ReleaseSkill1Event": [
          "ShootingStatueDialog"
        ],
        "MusicGameFree25ReleaseEvent": [
          "InLevelMusicPage"
        ],
        "MusicGameFree26ReleaseEvent": [
          "InLevelMusicPage"
        ],
        "ExteraSelectRightEvent": [
          "InLevelRemusMagicDragonPage",
          "RemusSpeedUpBtnDialog",
          "BomberDodocoPlayPage"
        ]
      }
    }
  }
}