{
  "luaDataPath": "",
  "startBlackKeepTime": 1.0,
  "entityBan": "",
  "disableNpcLod": true,
  "isAutoBanNpc": true,
  "isBanWidgetPet": true,
  "protectNpcMobileLod": true,
  "startFade": {
    "startFadeInDuration": 0.5,
    "startFadeOutDuration": 0.5
  },
  "endFade": {
    "startFadeOutDuration": 0.0
  },
  "actors": [
    {
      "alias": "Avatar",
      "visible": true,
      "bornPointName": "T4007110_player",
      "relativePosNpcAlias": "",
      "_bindMovingTargetKey": ""
    },
    {
      "configID": 12626,
      "alias": "12626",
      "visible": true,
      "bornPointName": "Q4007110_N12626",
      "relativePosNpcAlias": "",
      "_bindMovingTargetKey": ""
    },
    {
      "configID": 1005,
      "alias": "1005",
      "visible": true,
      "bornPointName": "T4007110_paimon",
      "removeActorType": "REMOVE_WITH_DISAPPEAR",
      "relativePosNpcAlias": "",
      "_bindMovingTargetKey": ""
    },
    {
      "configID": 10095,
      "alias": "10095",
      "visible": true,
      "bornPointName": "Q4007110_N10095",
      "relativePosNpcAlias": "",
      "_bindMovingTargetKey": ""
    },
    {
      "configID": 1042,
      "alias": "1042",
      "visible": true,
      "bornPointName": "Q4007110_N1042",
      "relativePosNpcAlias": "",
      "_bindMovingTargetKey": ""
    },
    {
      "configID": 1032,
      "alias": "1032",
      "visible": true,
      "bornPointName": "Q4007110_N1032",
      "relativePosNpcAlias": "",
      "_bindMovingTargetKey": ""
    }
  ],
  "group": [
    [
      {
        "$type": "MoleMole.Config.ConfigTimeProtectAction",
        "type": "TIME_PROTECT",
        "duration": 1.5
      },
      {
        "$type": "MoleMole.Config.ConfigSimpleBlackScreenAction",
        "type": "SIMPLE_BLACK_SCREEN",
        "actionId": 136,
        "durationToBlack": 0.5,
        "durationKeepBlack": 1.0,
        "durationFromBlack": 0.5,
        "textMapID": "",
        "useTextFade": true
      },
      {
        "$type": "MoleMole.Config.ConfigTeleportToAction",
        "type": "TELEPORT_TO",
        "aliasList": [
          "Avatar"
        ],
        "actionId": 138,
        "position": {
          "x": 689.0499877929688,
          "y": 73.80999755859375,
          "z": -116.1500015258789
        },
        "forward": {
          "z": 1.0
        },
        "openLongDisTeleport": true,
        "_posBindMovingTargetKey": "",
        "_forwardBindMovingTargetKey": ""
      },
      {
        "$type": "LJLMDHDCAMK",
        "type": "LOOK_AT",
        "aliasList": [
          "Avatar"
        ],
        "actionId": 144,
        "enableHead": true,
        "useTargetPos": true,
        "enableAbsolute": true,
        "targetPosition": {
          "x": 694.4180297851562,
          "y": 75.64199829101562,
          "z": -112.16799926757812
        },
        "headTurnTime": 0.5,
        "targetNpcAlias": "",
        "lookAtTargetType": "NONE",
        "targetNpcLookAtPoint": "",
        "OAFJBHJHLJG": ""
      },
      {
        "$type": "MoleMole.Config.ConfigTeleportToAction",
        "type": "TELEPORT_TO",
        "aliasList": [
          "1005"
        ],
        "actionId": 138,
        "position": {
          "x": 688.2420043945312,
          "y": 73.80999755859375,
          "z": -116.37699890136719
        },
        "forward": {
          "x": -0.03400000184774399,
          "z": 0.9990000128746033
        },
        "openLongDisTeleport": true,
        "_posBindMovingTargetKey": "",
        "_forwardBindMovingTargetKey": ""
      },
      {
        "$type": "LJLMDHDCAMK",
        "type": "LOOK_AT",
        "aliasList": [
          "1005"
        ],
        "actionId": 144,
        "enableHead": true,
        "useTargetPos": true,
        "enableAbsolute": true,
        "targetPosition": {
          "x": 690.2249755859375,
          "y": 73.20800018310547,
          "z": -108.43900299072266
        },
        "headTurnTime": 0.5,
        "targetNpcAlias": "",
        "lookAtTargetType": "NONE",
        "targetNpcLookAtPoint": "",
        "OAFJBHJHLJG": ""
      },
      {
        "$type": "MoleMole.Config.ConfigTeleportToAction",
        "type": "TELEPORT_TO",
        "aliasList": [
          "10095"
        ],
        "actionId": 140,
        "position": {
          "x": 689.6699829101562,
          "y": 73.80999755859375,
          "z": -116.86000061035156
        },
        "forward": {
          "z": 1.0
        },
        "openLongDisTeleport": true,
        "_posBindMovingTargetKey": "",
        "_forwardBindMovingTargetKey": ""
      },
      {
        "$type": "MoleMole.Config.ConfigTeleportToAction",
        "type": "TELEPORT_TO",
        "aliasList": [
          "1042"
        ],
        "actionId": 142,
        "position": {
          "x": 691.39501953125,
          "y": 73.80999755859375,
          "z": -116.68399810791016
        },
        "forward": {
          "z": 1.0
        },
        "openLongDisTeleport": true,
        "_posBindMovingTargetKey": "",
        "_forwardBindMovingTargetKey": ""
      },
      {
        "$type": "LJLMDHDCAMK",
        "type": "LOOK_AT",
        "aliasList": [
          "1042"
        ],
        "actionId": 144,
        "enableHead": true,
        "useTargetPos": true,
        "enableAbsolute": true,
        "targetPosition": {
          "x": 694.6500244140625,
          "y": 75.64199829101562,
          "z": -112.13500213623047
        },
        "headTurnTime": 0.5,
        "targetNpcAlias": "",
        "lookAtTargetType": "NONE",
        "targetNpcLookAtPoint": "",
        "OAFJBHJHLJG": ""
      },
      {
        "$type": "LJLMDHDCAMK",
        "type": "LOOK_AT",
        "aliasList": [
          "1032"
        ],
        "actionId": 144,
        "enableHead": true,
        "useTargetPos": true,
        "enableAbsolute": true,
        "targetPosition": {
          "x": 694.6500244140625,
          "y": 75.64199829101562,
          "z": -112.13500213623047
        },
        "headTurnTime": 0.5,
        "targetNpcAlias": "",
        "lookAtTargetType": "NONE",
        "targetNpcLookAtPoint": "",
        "OAFJBHJHLJG": ""
      },
      {
        "$type": "LJLMDHDCAMK",
        "type": "LOOK_AT",
        "delayTime": 0.00800000037997961,
        "aliasList": [
          "10095"
        ],
        "actionId": 144,
        "enableHead": true,
        "useTargetPos": true,
        "enableAbsolute": true,
        "targetPosition": {
          "x": 689.9080200195312,
          "y": 75.64199829101562,
          "z": -112.16799926757812
        },
        "headTurnTime": 0.5,
        "targetNpcAlias": "",
        "lookAtTargetType": "NONE",
        "targetNpcLookAtPoint": "",
        "OAFJBHJHLJG": ""
      },
      {
        "$type": "MoleMole.Config.ConfigTeleportToAction",
        "type": "TELEPORT_TO",
        "delayTime": 0.01600000075995922,
        "aliasList": [
          "1032"
        ],
        "actionId": 143,
        "position": {
          "x": 690.7039794921875,
          "y": 73.80999755859375,
          "z": -116.177001953125
        },
        "forward": {
          "x": 0.008999999612569809,
          "z": 1.0
        },
        "openLongDisTeleport": true,
        "_posBindMovingTargetKey": "",
        "_forwardBindMovingTargetKey": ""
      },
      {
        "$type": "FJKIHHKJLMJ",
        "type": "CAMERA_MOVE",
        "delayTime": 0.550000011920929,
        "duration": 0.10000000149011612,
        "actionId": 137,
        "camPosOffset": {
          "x": 693.85400390625,
          "y": 76.06800079345703,
          "z": -111.39600372314453
        },
        "camForwardTargetOffset": {
          "x": 694.2880249023438,
          "y": 75.76000213623047,
          "z": -112.24299621582031
        },
        "lerpPattern": 6,
        "cameraBlendType": "EaseInOutCubic",
        "NJBNNOMLKCK": {},
        "needZAxisRotate": true,
        "openCameraDither": false,
        "targetNpcAlias": "",
        "closeTreeLeafDither": true,
        "KJOEFBPOIIH": "",
        "IICFKKEBIEC": "",
        "EGEHEJEBLBJ": ""
      }
    ],
    [
      {
        "$type": "FJKIHHKJLMJ",
        "type": "CAMERA_MOVE",
        "duration": 1.0,
        "actionId": 137,
        "camPosOffset": {
          "x": 691.3590087890625,
          "y": 73.26000213623047,
          "z": -113.92500305175781
        },
        "camForwardTargetOffset": {
          "x": 690.9290161132812,
          "y": 73.5459976196289,
          "z": -114.78099822998047
        },
        "lerpPattern": 6,
        "cameraBlendType": "EaseInOutCubic",
        "NJBNNOMLKCK": {},
        "needZAxisRotate": true,
        "openCameraDither": false,
        "targetNpcAlias": "",
        "closeTreeLeafDither": true,
        "KJOEFBPOIIH": "",
        "IICFKKEBIEC": "",
        "EGEHEJEBLBJ": ""
      },
      {
        "$type": "PKKMAMONGEO",
        "type": "DIALOG",
        "aliasList": [
          "12626"
        ],
        "dialogID": 400711001,
        "protectTime": 3.4489998817443848
      },
      {
        "$type": "CPJKOIHIPBE",
        "type": "EMO_SYNC",
        "aliasList": [
          "12626"
        ],
        "dataPath": "Cs_Emo_Avatar_Simple_Common_Set/Cs_Emo_Avatar_Talk/Cs_Emo_Avatar_MainLine/Cs_Emo_Avatar_DreamIsland/Cs_Emo_400711001",
        "phonemePath": "",
        "emotionPath": "",
        "mateDataPath": "",
        "matePhonemePath": "",
        "mateEmotionPath": "",
        "dataPathHashList": [
          17036912997791180623,
          2452893258839610770,
          7005834137356976805,
          8126612400521238979
        ],
        "FMDPBECPELH": "",
        "ADKBLPOKGIK": ""
      },
      {
        "$type": "FJKIHHKJLMJ",
        "type": "CAMERA_MOVE",
        "delayTime": 0.08100000023841858,
        "duration": 2.73799991607666,
        "actionId": 137,
        "camPosOffset": {
          "x": 691.3930053710938,
          "y": 73.76200103759766,
          "z": -113.77300262451172
        },
        "camForwardTargetOffset": {
          "x": 690.9630126953125,
          "y": 74.0479965209961,
          "z": -114.62899780273438
        },
        "cameraBlendType": "Linear",
        "NJBNNOMLKCK": {},
        "needZAxisRotate": true,
        "openCameraDither": false,
        "targetNpcAlias": "",
        "closeTreeLeafDither": true,
        "KJOEFBPOIIH": "",
        "IICFKKEBIEC": "",
        "EGEHEJEBLBJ": ""
      },
      {
        "$type": "LJLMDHDCAMK",
        "type": "LOOK_AT",
        "delayTime": 2.069999933242798,
        "aliasList": [
          "Avatar"
        ],
        "actionId": 243,
        "enableHead": true,
        "useTargetPos": true,
        "enableAbsolute": true,
        "targetPosition": {
          "x": 689.0700073242188,
          "y": 74.60700225830078,
          "z": -115.26300048828125
        },
        "headTurnTime": 0.5,
        "targetNpcAlias": "",
        "lookAtTargetType": "NONE",
        "targetNpcLookAtPoint": "",
        "OAFJBHJHLJG": ""
      },
      {
        "$type": "LJLMDHDCAMK",
        "type": "LOOK_AT",
        "delayTime": 2.303999900817871,
        "aliasList": [
          "1005"
        ],
        "actionId": 243,
        "enableHead": true,
        "useTargetPos": true,
        "enableAbsolute": true,
        "targetPosition": {
          "x": 688.6119995117188,
          "y": 74.61000061035156,
          "z": -113.72899627685547
        },
        "headTurnTime": 0.5,
        "targetNpcAlias": "",
        "lookAtTargetType": "NONE",
        "targetNpcLookAtPoint": "",
        "OAFJBHJHLJG": ""
      },
      {
        "$type": "LJLMDHDCAMK",
        "type": "LOOK_AT",
        "delayTime": 2.381999969482422,
        "aliasList": [
          "10095"
        ],
        "actionId": 243,
        "enableHead": true,
        "useTargetPos": true,
        "enableAbsolute": true,
        "targetPosition": {
          "x": 689.552978515625,
          "y": 74.51499938964844,
          "z": -115.33499908447266
        },
        "headTurnTime": 0.5,
        "targetNpcAlias": "",
        "lookAtTargetType": "NONE",
        "targetNpcLookAtPoint": "",
        "OAFJBHJHLJG": ""
      },
      {
        "$type": "LJLMDHDCAMK",
        "type": "LOOK_AT",
        "delayTime": 2.5380001068115234,
        "aliasList": [
          "1042"
        ],
        "actionId": 243,
        "enableHead": true,
        "useTargetPos": true,
        "enableAbsolute": true,
        "targetPosition": {
          "x": 691.3569946289062,
          "y": 74.48899841308594,
          "z": -114.5770034790039
        },
        "headTurnTime": 0.5,
        "targetNpcAlias": "",
        "lookAtTargetType": "NONE",
        "targetNpcLookAtPoint": "",
        "OAFJBHJHLJG": ""
      },
      {
        "$type": "LJLMDHDCAMK",
        "type": "LOOK_AT",
        "delayTime": 2.5380001068115234,
        "aliasList": [
          "1032"
        ],
        "actionId": 243,
        "enableHead": true,
        "useTargetPos": true,
        "enableAbsolute": true,
        "targetPosition": {
          "x": 690.5889892578125,
          "y": 74.68599700927734,
          "z": -113.03800201416016
        },
        "headTurnTime": 0.5,
        "targetNpcAlias": "",
        "lookAtTargetType": "NONE",
        "targetNpcLookAtPoint": "",
        "OAFJBHJHLJG": ""
      },
      {
        "$type": "FJKIHHKJLMJ",
        "type": "CAMERA_MOVE",
        "delayTime": 2.821000099182129,
        "duration": 3.7929999828338623,
        "actionId": 242,
        "camPosOffset": {
          "x": 691.4169921875,
          "y": 73.87300109863281,
          "z": -113.7490005493164
        },
        "camForwardTargetOffset": {
          "x": 690.9869995117188,
          "y": 74.15899658203125,
          "z": -114.6050033569336
        },
        "cameraBlendType": "EaseOutQuad",
        "NJBNNOMLKCK": {},
        "needZAxisRotate": true,
        "openCameraDither": false,
        "targetNpcAlias": "",
        "closeTreeLeafDither": true,
        "KJOEFBPOIIH": "",
        "IICFKKEBIEC": "",
        "EGEHEJEBLBJ": ""
      }
    ],
    [
      {
        "$type": "FJKIHHKJLMJ",
        "type": "CAMERA_MOVE",
        "duration": 1.0,
        "actionId": 152,
        "camPosOffset": {
          "x": 688.8519897460938,
          "y": 74.7969970703125,
          "z": -115.9229965209961
        },
        "camForwardTargetOffset": {
          "x": 688.0900268554688,
          "y": 75.18499755859375,
          "z": -116.44200134277344
        },
        "camFov": 25.0,
        "lerpPattern": 6,
        "cameraBlendType": "EaseInOutCubic",
        "NJBNNOMLKCK": {},
        "needZAxisRotate": true,
        "openCameraDither": false,
        "targetNpcAlias": "",
        "closeTreeLeafDither": true,
        "KJOEFBPOIIH": "",
        "IICFKKEBIEC": "",
        "EGEHEJEBLBJ": ""
      },
      {
        "$type": "PKKMAMONGEO",
        "type": "DIALOG",
        "aliasList": [
          "1005"
        ],
        "dialogID": 400711002,
        "protectTime": 2.496000051498413
      },
      {
        "$type": "FABLGECDBCH",
        "type": "BODY_LANG",
        "aliasList": [
          "1005"
        ],
        "actionId": 154,
        "bodyLangParam": 1110,
        "forceDoFreeStyle": true,
        "canDoRepeatFreeStyle": false,
        "eventPatternSuiteKey": "",
        "FOHHKFAIAAJ": ""
      },
      {
        "$type": "LJLMDHDCAMK",
        "type": "LOOK_AT",
        "aliasList": [
          "1005"
        ],
        "actionId": 254,
        "enableHead": true,
        "useTargetPos": true,
        "enableAbsolute": true,
        "targetPosition": {
          "x": 688.5750122070312,
          "y": 74.31500244140625,
          "z": -114.4229965209961
        },
        "headTurnTime": 0.5,
        "targetNpcAlias": "",
        "lookAtTargetType": "NONE",
        "targetNpcLookAtPoint": "",
        "OAFJBHJHLJG": ""
      },
      {
        "$type": "CPJKOIHIPBE",
        "type": "EMO_SYNC",
        "aliasList": [
          "1005"
        ],
        "dataPath": "Cs_Emo_Avatar_Simple_Common_Set/Cs_Emo_Avatar_Talk/Cs_Emo_Avatar_MainLine/Cs_Emo_Avatar_DreamIsland/Cs_Emo_400711002",
        "phonemePath": "",
        "emotionPath": "",
        "mateDataPath": "",
        "matePhonemePath": "",
        "mateEmotionPath": "",
        "dataPathHashList": [
          1687127183171172385,
          11322784264734548912,
          5480617253416111616,
          876040812862508613
        ],
        "FMDPBECPELH": "",
        "ADKBLPOKGIK": ""
      },
      {
        "$type": "FJKIHHKJLMJ",
        "type": "CAMERA_MOVE",
        "delayTime": 0.07900000363588333,
        "duration": 1.9190000295639038,
        "actionId": 152,
        "camPosOffset": {
          "x": 688.864990234375,
          "y": 74.7979965209961,
          "z": -115.94100189208984
        },
        "camForwardTargetOffset": {
          "x": 688.10302734375,
          "y": 75.18599700927734,
          "z": -116.45999908447266
        },
        "camFov": 25.0,
        "cameraBlendType": "Linear",
        "NJBNNOMLKCK": {},
        "needZAxisRotate": true,
        "openCameraDither": false,
        "targetNpcAlias": "",
        "closeTreeLeafDither": true,
        "KJOEFBPOIIH": "",
        "IICFKKEBIEC": "",
        "EGEHEJEBLBJ": ""
      },
      {
        "$type": "FJKIHHKJLMJ",
        "type": "CAMERA_MOVE",
        "delayTime": 2.0,
        "duration": 1.0,
        "actionId": 253,
        "camPosOffset": {
          "x": 688.7059936523438,
          "y": 75.58999633789062,
          "z": -115.55899810791016
        },
        "camForwardTargetOffset": {
          "x": 688.5440063476562,
          "y": 74.85900115966797,
          "z": -114.89600372314453
        },
        "camFov": 30.0,
        "lerpPattern": 6,
        "cameraBlendType": "EaseInOutCubic",
        "NJBNNOMLKCK": {},
        "openCameraDither": false,
        "targetNpcAlias": "",
        "closeTreeLeafDither": true,
        "KJOEFBPOIIH": "",
        "IICFKKEBIEC": "",
        "EGEHEJEBLBJ": ""
      },
      {
        "$type": "MoleMole.Config.ConfigTeleportToAction",
        "type": "TELEPORT_TO",
        "delayTime": 2.0,
        "aliasList": [
          "1005"
        ],
        "actionId": 248,
        "position": {
          "x": 688.4819946289062,
          "y": 73.80999755859375,
          "z": -115.15599822998047
        },
        "forward": {
          "x": 0.05700000002980232,
          "z": 1.437999963760376
        },
        "openLongDisTeleport": true,
        "_posBindMovingTargetKey": "",
        "_forwardBindMovingTargetKey": ""
      },
      {
        "$type": "FJKIHHKJLMJ",
        "type": "CAMERA_MOVE",
        "delayTime": 2.1050000190734863,
        "duration": 3.0290000438690186,
        "actionId": 253,
        "camPosOffset": {
          "x": 688.6909790039062,
          "y": 75.52400207519531,
          "z": -115.4990005493164
        },
        "camForwardTargetOffset": {
          "x": 688.5289916992188,
          "y": 74.79299926757812,
          "z": -114.83599853515625
        },
        "camFov": 30.0,
        "cameraBlendType": "EaseOutQuad",
        "NJBNNOMLKCK": {},
        "openCameraDither": false,
        "targetNpcAlias": "",
        "closeTreeLeafDither": true,
        "KJOEFBPOIIH": "",
        "IICFKKEBIEC": "",
        "EGEHEJEBLBJ": ""
      }
    ],
    [
      {
        "$type": "FJKIHHKJLMJ",
        "type": "CAMERA_MOVE",
        "duration": 1.0,
        "actionId": 156,
        "camPosOffset": {
          "x": 690.364990234375,
          "y": 60.45399856567383,
          "z": -103.80400085449219
        },
        "camForwardTargetOffset": {
          "x": 690.3729858398438,
          "y": 59.93899917602539,
          "z": -102.9469985961914
        },
        "camFov": 30.0,
        "lerpPattern": 6,
        "cameraBlendType": "EaseInOutCubic",
        "NJBNNOMLKCK": {},
        "needZAxisRotate": true,
        "openCameraDither": false,
        "targetNpcAlias": "",
        "closeTreeLeafDither": true,
        "KJOEFBPOIIH": "",
        "IICFKKEBIEC": "",
        "EGEHEJEBLBJ": ""
      },
      {
        "$type": "MoleMole.Config.ConfigTeleportToAction",
        "type": "TELEPORT_TO",
        "aliasList": [
          "Avatar"
        ],
        "actionId": 249,
        "position": {
          "x": 689.0499877929688,
          "y": 73.80999755859375,
          "z": -115.54299926757812
        },
        "forward": {
          "z": 1.0
        },
        "openLongDisTeleport": true,
        "_posBindMovingTargetKey": "",
        "_forwardBindMovingTargetKey": ""
      },
      {
        "$type": "PKKMAMONGEO",
        "type": "DIALOG",
        "aliasList": [
          "12626"
        ],
        "dialogID": 400711003,
        "protectTime": 0.5
      },
      {
        "$type": "CPJKOIHIPBE",
        "type": "EMO_SYNC",
        "aliasList": [
          "12626"
        ],
        "dataPath": "Cs_Emo_Avatar_Simple_Common_Set/Cs_Emo_Avatar_Talk/Cs_Emo_Avatar_MainLine/Cs_Emo_Avatar_DreamIsland/Cs_Emo_400711003",
        "phonemePath": "",
        "emotionPath": "",
        "mateDataPath": "",
        "matePhonemePath": "",
        "mateEmotionPath": "",
        "dataPathHashList": [
          839098308042913940,
          17488708593694005568,
          15037899746344511338,
          2866150026010092049
        ],
        "FMDPBECPELH": "",
        "ADKBLPOKGIK": ""
      },
      {
        "$type": "FABLGECDBCH",
        "type": "BODY_LANG",
        "aliasList": [
          "1005"
        ],
        "actionId": 155,
        "isContinue": true,
        "forceDoFreeStyle": true,
        "canDoRepeatFreeStyle": false,
        "eventPatternSuiteKey": "",
        "FOHHKFAIAAJ": ""
      },
      {
        "$type": "MoleMole.Config.ConfigTeleportToAction",
        "type": "TELEPORT_TO",
        "aliasList": [
          "1005"
        ],
        "actionId": 248,
        "position": {
          "x": 688.4819946289062,
          "y": 73.80999755859375,
          "z": -115.15599822998047
        },
        "forward": {
          "x": 0.05700000002980232,
          "z": 1.437999963760376
        },
        "openLongDisTeleport": true,
        "_posBindMovingTargetKey": "",
        "_forwardBindMovingTargetKey": ""
      },
      {
        "$type": "LJLMDHDCAMK",
        "type": "LOOK_AT",
        "aliasList": [
          "1005"
        ],
        "actionId": 254,
        "enableHead": true,
        "useTargetPos": true,
        "enableAbsolute": true,
        "targetPosition": {
          "x": 688.5750122070312,
          "y": 74.31500244140625,
          "z": -114.4229965209961
        },
        "headTurnTime": 0.5,
        "targetNpcAlias": "",
        "lookAtTargetType": "NONE",
        "targetNpcLookAtPoint": "",
        "OAFJBHJHLJG": ""
      },
      {
        "$type": "CPJKOIHIPBE",
        "type": "EMO_SYNC",
        "aliasList": [
          "1005"
        ],
        "actionId": 296,
        "dataPath": "",
        "phonemePath": "Cs_Emo_Pet_Common/Cs_Emo_Paimon_None",
        "emotionPath": "Cs_Emo_Pet_Common/Cs_Emo_Paimon_Normal01",
        "mateDataPath": "",
        "matePhonemePath": "",
        "mateEmotionPath": "",
        "phonemePathHashList": [
          1796869206626684908,
          2049648015653630001,
          14015965774222061559,
          873259039409222856
        ],
        "emotionPathHashList": [
          312453201720762420,
          9562322946389574798,
          18422542724361145117,
          17949024460815132449
        ],
        "FMDPBECPELH": "",
        "ADKBLPOKGIK": ""
      },
      {
        "$type": "MoleMole.Config.ConfigTeleportToAction",
        "type": "TELEPORT_TO",
        "aliasList": [
          "10095"
        ],
        "actionId": 250,
        "position": {
          "x": 689.6699829101562,
          "y": 73.80999755859375,
          "z": -115.93399810791016
        },
        "forward": {
          "z": 1.4229999780654907
        },
        "openLongDisTeleport": true,
        "_posBindMovingTargetKey": "",
        "_forwardBindMovingTargetKey": ""
      },
      {
        "$type": "MoleMole.Config.ConfigTeleportToAction",
        "type": "TELEPORT_TO",
        "aliasList": [
          "1042"
        ],
        "actionId": 251,
        "position": {
          "x": 691.39501953125,
          "y": 73.80999755859375,
          "z": -115.79900360107422
        },
        "forward": {
          "z": 1.1369999647140503
        },
        "openLongDisTeleport": true,
        "_posBindMovingTargetKey": "",
        "_forwardBindMovingTargetKey": ""
      },
      {
        "$type": "MoleMole.Config.ConfigTeleportToAction",
        "type": "TELEPORT_TO",
        "aliasList": [
          "1032"
        ],
        "actionId": 252,
        "position": {
          "x": 690.7039794921875,
          "y": 73.80999755859375,
          "z": -115.37000274658203
        },
        "forward": {
          "x": 0.008999999612569809,
          "z": 1.222000002861023
        },
        "openLongDisTeleport": true,
        "_posBindMovingTargetKey": "",
        "_forwardBindMovingTargetKey": ""
      },
      {
        "$type": "FJKIHHKJLMJ",
        "type": "CAMERA_MOVE",
        "delayTime": 0.08399999886751175,
        "duration": 2.6500000953674316,
        "actionId": 156,
        "camPosOffset": {
          "x": 690.3670043945312,
          "y": 60.30699920654297,
          "z": -103.55899810791016
        },
        "camForwardTargetOffset": {
          "x": 690.375,
          "y": 59.79199981689453,
          "z": -102.7020034790039
        },
        "camFov": 30.0,
        "cameraBlendType": "EaseOutQuad",
        "NJBNNOMLKCK": {},
        "needZAxisRotate": true,
        "openCameraDither": false,
        "targetNpcAlias": "",
        "closeTreeLeafDither": true,
        "KJOEFBPOIIH": "",
        "IICFKKEBIEC": "",
        "EGEHEJEBLBJ": ""
      }
    ],
    [
      {
        "$type": "FJKIHHKJLMJ",
        "type": "CAMERA_MOVE",
        "duration": 1.0,
        "actionId": 158,
        "camPosOffset": {
          "x": 690.4010009765625,
          "y": 70.10099792480469,
          "z": -108.52999877929688
        },
        "camForwardTargetOffset": {
          "x": 690.2080078125,
          "y": 70.66000366210938,
          "z": -109.33599853515625
        },
        "camFov": 10.0,
        "lerpPattern": 6,
        "cameraBlendType": "EaseInOutCubic",
        "NJBNNOMLKCK": {},
        "needZAxisRotate": true,
        "openCameraDither": false,
        "targetNpcAlias": "",
        "closeTreeLeafDither": true,
        "KJOEFBPOIIH": "",
        "IICFKKEBIEC": "",
        "EGEHEJEBLBJ": ""
      },
      {
        "$type": "PKKMAMONGEO",
        "type": "DIALOG",
        "aliasList": [
          "1005"
        ],
        "dialogID": 400711004,
        "protectTime": 0.5
      },
      {
        "$type": "FABLGECDBCH",
        "type": "BODY_LANG",
        "aliasList": [
          "1005"
        ],
        "actionId": 159,
        "bodyLangParam": 1100,
        "forceDoFreeStyle": true,
        "canDoRepeatFreeStyle": false,
        "eventPatternSuiteKey": "",
        "FOHHKFAIAAJ": ""
      },
      {
        "$type": "CPJKOIHIPBE",
        "type": "EMO_SYNC",
        "aliasList": [
          "1005"
        ],
        "dataPath": "Cs_Emo_Avatar_Simple_Common_Set/Cs_Emo_Avatar_Talk/Cs_Emo_Avatar_MainLine/Cs_Emo_Avatar_DreamIsland/Cs_Emo_400711004",
        "phonemePath": "",
        "emotionPath": "",
        "mateDataPath": "",
        "matePhonemePath": "",
        "mateEmotionPath": "",
        "dataPathHashList": [
          17643624364232343180,
          8906463293484056818,
          4564194859281130189,
          17572646472390640205
        ],
        "FMDPBECPELH": "",
        "ADKBLPOKGIK": ""
      },
      {
        "$type": "LJLMDHDCAMK",
        "type": "LOOK_AT",
        "aliasList": [
          "10095"
        ],
        "actionId": 258,
        "enableHead": true,
        "useTargetPos": true,
        "enableAbsolute": true,
        "targetPosition": {
          "x": 689.6710205078125,
          "y": 75.00900268554688,
          "z": -115.43000030517578
        },
        "headTurnTime": 0.5,
        "targetNpcAlias": "",
        "lookAtTargetType": "NONE",
        "targetNpcLookAtPoint": "",
        "OAFJBHJHLJG": ""
      },
      {
        "$type": "LJLMDHDCAMK",
        "type": "LOOK_AT",
        "delayTime": 0.02199999988079071,
        "aliasList": [
          "Avatar"
        ],
        "actionId": 277,
        "enableHead": true,
        "useTargetPos": true,
        "enableAbsolute": true,
        "targetPosition": {
          "x": 689.0819702148438,
          "y": 73.96700286865234,
          "z": -114.09400177001953
        },
        "headTurnTime": 0.5,
        "targetNpcAlias": "",
        "lookAtTargetType": "NONE",
        "targetNpcLookAtPoint": "",
        "OAFJBHJHLJG": ""
      },
      {
        "$type": "FJKIHHKJLMJ",
        "type": "CAMERA_MOVE",
        "delayTime": 0.09600000083446503,
        "duration": 4.550000190734863,
        "actionId": 158,
        "camPosOffset": {
          "x": 690.2340087890625,
          "y": 70.58399963378906,
          "z": -109.22599792480469
        },
        "camForwardTargetOffset": {
          "x": 690.041015625,
          "y": 71.14299774169922,
          "z": -110.03199768066406
        },
        "camFov": 10.0,
        "cameraBlendType": "EaseOutQuad",
        "NJBNNOMLKCK": {},
        "needZAxisRotate": true,
        "openCameraDither": false,
        "targetNpcAlias": "",
        "closeTreeLeafDither": true,
        "KJOEFBPOIIH": "",
        "IICFKKEBIEC": "",
        "EGEHEJEBLBJ": ""
      }
    ],
    [
      {
        "$type": "FJKIHHKJLMJ",
        "type": "CAMERA_MOVE",
        "duration": 1.0,
        "actionId": 162,
        "camPosOffset": {
          "x": 690.2260131835938,
          "y": 79.14199829101562,
          "z": -117.82599639892578
        },
        "camForwardTargetOffset": {
          "x": 690.1799926757812,
          "y": 78.2979965209961,
          "z": -117.29199981689453
        },
        "camFov": 30.0,
        "lerpPattern": 6,
        "cameraBlendType": "EaseInOutCubic",
        "NJBNNOMLKCK": {},
        "needZAxisRotate": true,
        "openCameraDither": false,
        "targetNpcAlias": "",
        "closeTreeLeafDither": true,
        "KJOEFBPOIIH": "",
        "IICFKKEBIEC": "",
        "EGEHEJEBLBJ": ""
      },
      {
        "$type": "PKKMAMONGEO",
        "type": "DIALOG",
        "aliasList": [
          "12626"
        ],
        "dialogID": 400711005,
        "protectTime": 3.549999952316284
      },
      {
        "$type": "CPJKOIHIPBE",
        "type": "EMO_SYNC",
        "aliasList": [
          "12626"
        ],
        "dataPath": "Cs_Emo_Avatar_Simple_Common_Set/Cs_Emo_Avatar_Talk/Cs_Emo_Avatar_MainLine/Cs_Emo_Avatar_DreamIsland/Cs_Emo_400711005",
        "phonemePath": "",
        "emotionPath": "",
        "mateDataPath": "",
        "matePhonemePath": "",
        "mateEmotionPath": "",
        "dataPathHashList": [
          8968231156667089603,
          9343698723148014371,
          6725824656807836004,
          7287314102175792260
        ],
        "FMDPBECPELH": "",
        "ADKBLPOKGIK": ""
      },
      {
        "$type": "CPJKOIHIPBE",
        "type": "EMO_SYNC",
        "aliasList": [
          "1005"
        ],
        "actionId": 297,
        "dataPath": "",
        "phonemePath": "Cs_Emo_Pet_Common/Cs_Emo_Paimon_None",
        "emotionPath": "Cs_Emo_Pet_Common/Cs_Emo_Paimon_Normal01",
        "mateDataPath": "",
        "matePhonemePath": "",
        "mateEmotionPath": "",
        "phonemePathHashList": [
          1796869206626684908,
          2049648015653630001,
          14015965774222061559,
          873259039409222856
        ],
        "emotionPathHashList": [
          312453201720762420,
          9562322946389574798,
          18422542724361145117,
          17949024460815132449
        ],
        "FMDPBECPELH": "",
        "ADKBLPOKGIK": ""
      },
      {
        "$type": "FJKIHHKJLMJ",
        "type": "CAMERA_MOVE",
        "delayTime": 0.10000000149011612,
        "duration": 3.058000087738037,
        "actionId": 162,
        "camPosOffset": {
          "x": 689.9840087890625,
          "y": 78.95700073242188,
          "z": -117.7030029296875
        },
        "camForwardTargetOffset": {
          "x": 689.9959716796875,
          "y": 78.11100006103516,
          "z": -117.16999816894531
        },
        "camFov": 30.0,
        "cameraBlendType": "Linear",
        "NJBNNOMLKCK": {},
        "needZAxisRotate": true,
        "openCameraDither": false,
        "targetNpcAlias": "",
        "closeTreeLeafDither": true,
        "KJOEFBPOIIH": "",
        "IICFKKEBIEC": "",
        "EGEHEJEBLBJ": ""
      },
      {
        "$type": "HDGKHDNFMIM",
        "type": "DIALOG_SELECT",
        "delayTime": 0.4000000059604645,
        "aliasList": [
          "Avatar"
        ],
        "dialogIDList": [
          400711006
        ],
        "grpIDList": [
          2695990487
        ],
        "useGrpId": true
      },
      {
        "$type": "FJKIHHKJLMJ",
        "type": "CAMERA_MOVE",
        "delayTime": 3.1570000648498535,
        "duration": 1.0,
        "actionId": 164,
        "camPosOffset": {
          "x": 691.6849975585938,
          "y": 60.97800064086914,
          "z": -102.44599914550781
        },
        "camForwardTargetOffset": {
          "x": 691.3400268554688,
          "y": 60.250999450683594,
          "z": -101.85199737548828
        },
        "camFov": 30.0,
        "lerpPattern": 6,
        "cameraBlendType": "EaseInOutCubic",
        "NJBNNOMLKCK": {},
        "needZAxisRotate": true,
        "openCameraDither": false,
        "targetNpcAlias": "",
        "closeTreeLeafDither": true,
        "KJOEFBPOIIH": "",
        "IICFKKEBIEC": "",
        "EGEHEJEBLBJ": ""
      },
      {
        "$type": "FJKIHHKJLMJ",
        "type": "CAMERA_MOVE",
        "delayTime": 3.2070000171661377,
        "duration": 4.25,
        "actionId": 164,
        "camPosOffset": {
          "x": 691.47900390625,
          "y": 60.54999923706055,
          "z": -102.09200286865234
        },
        "camForwardTargetOffset": {
          "x": 691.1339721679688,
          "y": 59.823001861572266,
          "z": -101.49800109863281
        },
        "camFov": 30.0,
        "cameraBlendType": "EaseOutQuad",
        "NJBNNOMLKCK": {},
        "needZAxisRotate": true,
        "openCameraDither": false,
        "targetNpcAlias": "",
        "closeTreeLeafDither": true,
        "KJOEFBPOIIH": "",
        "IICFKKEBIEC": "",
        "EGEHEJEBLBJ": ""
      }
    ],
    [
      {
        "$type": "FJKIHHKJLMJ",
        "type": "CAMERA_MOVE",
        "duration": 1.0,
        "actionId": 166,
        "camPosOffset": {
          "x": 689.0029907226562,
          "y": 75.24700164794922,
          "z": -114.55400085449219
        },
        "camForwardTargetOffset": {
          "x": 689.3170166015625,
          "y": 75.16000366210938,
          "z": -115.5
        },
        "camFov": 30.0,
        "lerpPattern": 6,
        "cameraBlendType": "EaseInOutCubic",
        "NJBNNOMLKCK": {},
        "needZAxisRotate": true,
        "openCameraDither": false,
        "targetNpcAlias": "",
        "closeTreeLeafDither": true,
        "KJOEFBPOIIH": "",
        "IICFKKEBIEC": "",
        "EGEHEJEBLBJ": ""
      },
      {
        "$type": "LJLMDHDCAMK",
        "type": "LOOK_AT",
        "aliasList": [
          "Avatar"
        ],
        "actionId": 170,
        "enableHead": true,
        "headTurnTime": 0.5,
        "targetNpcAlias": "10095",
        "targetNpcLookAtPoint": "",
        "OAFJBHJHLJG": ""
      },
      {
        "$type": "PKKMAMONGEO",
        "type": "DIALOG",
        "aliasList": [
          "10095"
        ],
        "dialogID": 400711007,
        "protectTime": 0.7829999923706055
      },
      {
        "$type": "LJLMDHDCAMK",
        "type": "LOOK_AT",
        "aliasList": [
          "10095"
        ],
        "actionId": 167,
        "enableHead": true,
        "headTurnTime": 0.5,
        "targetNpcAlias": "Avatar",
        "targetNpcLookAtPoint": "",
        "OAFJBHJHLJG": ""
      },
      {
        "$type": "CPJKOIHIPBE",
        "type": "EMO_SYNC",
        "aliasList": [
          "10095"
        ],
        "dataPath": "Cs_Emo_Avatar_Simple_Common_Set/Cs_Emo_Avatar_Talk/Cs_Emo_Avatar_MainLine/Cs_Emo_Avatar_DreamIsland/Cs_Emo_400711007",
        "phonemePath": "",
        "emotionPath": "",
        "mateDataPath": "",
        "matePhonemePath": "",
        "mateEmotionPath": "",
        "dataPathHashList": [
          899497785048845081,
          8915234609012458122,
          13556594726315477736,
          4125603734151103619
        ],
        "FMDPBECPELH": "",
        "ADKBLPOKGIK": ""
      },
      {
        "$type": "FJKIHHKJLMJ",
        "type": "CAMERA_MOVE",
        "delayTime": 0.07500000298023224,
        "duration": 6.492000102996826,
        "actionId": 166,
        "camPosOffset": {
          "x": 688.9459838867188,
          "y": 75.2490005493164,
          "z": -114.572998046875
        },
        "camForwardTargetOffset": {
          "x": 689.260009765625,
          "y": 75.16200256347656,
          "z": -115.51899719238281
        },
        "camFov": 30.0,
        "cameraBlendType": "EaseOutQuad",
        "NJBNNOMLKCK": {},
        "needZAxisRotate": true,
        "openCameraDither": false,
        "targetNpcAlias": "",
        "closeTreeLeafDither": true,
        "KJOEFBPOIIH": "",
        "IICFKKEBIEC": "",
        "EGEHEJEBLBJ": ""
      },
      {
        "$type": "FABLGECDBCH",
        "type": "BODY_LANG",
        "delayTime": 0.25,
        "aliasList": [
          "10095"
        ],
        "actionId": 168,
        "bodyLangParam": 1110,
        "forceDoFreeStyle": true,
        "canDoRepeatFreeStyle": false,
        "eventPatternSuiteKey": "",
        "FOHHKFAIAAJ": ""
      },
      {
        "$type": "EMEHNEMOMMM",
        "type": "LOOK_AT_EYECTRL",
        "delayTime": 0.3919999897480011,
        "aliasList": [
          "Avatar"
        ],
        "actionId": 171,
        "useTargetPos": false,
        "eyeRotateVecLeft": {
          "x": 5.0
        },
        "eyeRotateVecRight": {
          "x": 5.0
        },
        "turnTime": 1.0,
        "targetNpcAlias": "",
        "targetPoint": "Face"
      },
      {
        "$type": "HDGKHDNFMIM",
        "type": "DIALOG_SELECT",
        "delayTime": 0.4000000059604645,
        "aliasList": [
          "Avatar"
        ],
        "dialogIDList": [
          400711008,
          400711009
        ],
        "grpIDList": [
          2695990488,
          2695990488
        ],
        "useGrpId": true
      },
      {
        "$type": "EMEHNEMOMMM",
        "type": "LOOK_AT_EYECTRL",
        "delayTime": 0.40700000524520874,
        "aliasList": [
          "10095"
        ],
        "actionId": 172,
        "useTargetPos": false,
        "eyeRotateVecLeft": {
          "x": -5.0
        },
        "eyeRotateVecRight": {
          "x": -5.0
        },
        "turnTime": 1.0,
        "targetNpcAlias": "",
        "targetPoint": "Face"
      }
    ],
    [
      {
        "$type": "FJKIHHKJLMJ",
        "type": "CAMERA_MOVE",
        "duration": 1.0,
        "actionId": 174,
        "camPosOffset": {
          "x": 692.9240112304688,
          "y": 75.1969985961914,
          "z": -116.64600372314453
        },
        "camForwardTargetOffset": {
          "x": 692.0,
          "y": 75.1240005493164,
          "z": -116.2699966430664
        },
        "camFov": 30.0,
        "lerpPattern": 6,
        "cameraBlendType": "EaseInOutCubic",
        "NJBNNOMLKCK": {},
        "needZAxisRotate": true,
        "openCameraDither": false,
        "targetNpcAlias": "",
        "closeTreeLeafDither": true,
        "KJOEFBPOIIH": "",
        "IICFKKEBIEC": "",
        "EGEHEJEBLBJ": ""
      },
      {
        "$type": "CPJKOIHIPBE",
        "type": "EMO_SYNC",
        "aliasList": [
          "1042"
        ],
        "dataPath": "Cs_Emo_Avatar_Simple_Common_Set/Cs_Emo_Avatar_Talk/Cs_Emo_Avatar_MainLine/Cs_Emo_Avatar_DreamIsland/Cs_Emo_400711010",
        "phonemePath": "",
        "emotionPath": "",
        "mateDataPath": "",
        "matePhonemePath": "",
        "mateEmotionPath": "",
        "dataPathHashList": [
          15331010225239726902,
          11911547652406105961,
          8957804507277593317,
          13819499148919500748
        ],
        "FMDPBECPELH": "",
        "ADKBLPOKGIK": ""
      },
      {
        "$type": "MoleMole.Config.ConfigTeleportToAction",
        "type": "TELEPORT_TO",
        "aliasList": [
          "1042"
        ],
        "actionId": 263,
        "position": {
          "x": 691.3499755859375,
          "y": 73.80999755859375,
          "z": -115.91999816894531
        },
        "forward": {
          "x": 0.05400000140070915,
          "z": 1.1039999723434448
        },
        "openLongDisTeleport": true,
        "_posBindMovingTargetKey": "",
        "_forwardBindMovingTargetKey": ""
      },
      {
        "$type": "LLGANGLOEEO",
        "type": "STEER_TO",
        "duration": 1.0,
        "aliasList": [
          "1042"
        ],
        "actionId": 181,
        "steerType": "ABSOLUTE",
        "steerDir": {
          "x": 689.3629760742188,
          "y": 73.80999755859375,
          "z": -115.072998046875
        },
        "useSteerAnim": true,
        "interruptFreestyle": true,
        "forceSteer": true,
        "targetNpcAlias": "",
        "OAFJBHJHLJG": ""
      },
      {
        "$type": "LJLMDHDCAMK",
        "type": "LOOK_AT",
        "aliasList": [
          "1042"
        ],
        "actionId": 180,
        "enableHead": true,
        "headTurnTime": 0.5,
        "targetNpcAlias": "10095",
        "targetNpcLookAtPoint": "",
        "OAFJBHJHLJG": ""
      },
      {
        "$type": "PKKMAMONGEO",
        "type": "DIALOG",
        "aliasList": [
          "1042"
        ],
        "dialogID": 400711010,
        "protectTime": 1.753000020980835
      },
      {
        "$type": "MoleMole.Config.ConfigTeleportToAction",
        "type": "TELEPORT_TO",
        "aliasList": [
          "10095"
        ],
        "actionId": 261,
        "position": {
          "x": 689.6699829101562,
          "y": 73.80999755859375,
          "z": -116.51499938964844
        },
        "forward": {
          "x": 0.6190000176429749,
          "z": 0.2409999966621399
        },
        "openLongDisTeleport": true,
        "_posBindMovingTargetKey": "",
        "_forwardBindMovingTargetKey": ""
      },
      {
        "$type": "LJLMDHDCAMK",
        "type": "LOOK_AT",
        "aliasList": [
          "10095"
        ],
        "actionId": 186,
        "enableHead": true,
        "headTurnTime": 0.5,
        "targetNpcAlias": "1042",
        "targetNpcLookAtPoint": "",
        "OAFJBHJHLJG": ""
      },
      {
        "$type": "EMEHNEMOMMM",
        "type": "LOOK_AT_EYECTRL",
        "aliasList": [
          "10095"
        ],
        "actionId": 214,
        "useTargetPos": false,
        "turnTime": 1.0,
        "targetNpcAlias": "",
        "targetPoint": "Face"
      },
      {
        "$type": "MoleMole.Config.ConfigTeleportToAction",
        "type": "TELEPORT_TO",
        "aliasList": [
          "Avatar"
        ],
        "actionId": 264,
        "position": {
          "x": 689.0499877929688,
          "y": 73.80999755859375,
          "z": -115.89600372314453
        },
        "forward": {
          "x": 0.06800000369548798,
          "z": 0.5889999866485596
        },
        "openLongDisTeleport": true,
        "_posBindMovingTargetKey": "",
        "_forwardBindMovingTargetKey": ""
      },
      {
        "$type": "EMEHNEMOMMM",
        "type": "LOOK_AT_EYECTRL",
        "aliasList": [
          "Avatar"
        ],
        "actionId": 214,
        "useTargetPos": false,
        "turnTime": 1.0,
        "targetNpcAlias": "",
        "targetPoint": "Face"
      },
      {
        "$type": "LJLMDHDCAMK",
        "type": "LOOK_AT",
        "aliasList": [
          "Avatar"
        ],
        "actionId": 187,
        "enableHead": true,
        "headTurnTime": 0.5,
        "targetNpcAlias": "1042",
        "targetNpcLookAtPoint": "",
        "OAFJBHJHLJG": ""
      },
      {
        "$type": "FABLGECDBCH",
        "type": "BODY_LANG",
        "aliasList": [
          "10095"
        ],
        "actionId": 169,
        "isContinue": true,
        "forceDoFreeStyle": true,
        "canDoRepeatFreeStyle": false,
        "eventPatternSuiteKey": "",
        "FOHHKFAIAAJ": ""
      },
      {
        "$type": "MoleMole.Config.ConfigTeleportToAction",
        "type": "TELEPORT_TO",
        "aliasList": [
          "1032"
        ],
        "actionId": 262,
        "position": {
          "x": 690.7899780273438,
          "y": 73.80999755859375,
          "z": -115.0780029296875
        },
        "forward": {
          "x": -0.019999999552965164,
          "z": 0.9990000128746033
        },
        "openLongDisTeleport": true,
        "_posBindMovingTargetKey": "",
        "_forwardBindMovingTargetKey": ""
      },
      {
        "$type": "FJKIHHKJLMJ",
        "type": "CAMERA_MOVE",
        "delayTime": 0.0989999994635582,
        "duration": 4.960999965667725,
        "actionId": 174,
        "camPosOffset": {
          "x": 692.7369995117188,
          "y": 75.18199920654297,
          "z": -116.56999969482422
        },
        "camForwardTargetOffset": {
          "x": 691.81298828125,
          "y": 75.10900115966797,
          "z": -116.19400024414062
        },
        "camFov": 30.0,
        "cameraBlendType": "EaseOutQuad",
        "NJBNNOMLKCK": {},
        "needZAxisRotate": true,
        "openCameraDither": false,
        "targetNpcAlias": "",
        "closeTreeLeafDither": true,
        "KJOEFBPOIIH": "",
        "IICFKKEBIEC": "",
        "EGEHEJEBLBJ": ""
      },
      {
        "$type": "LJLMDHDCAMK",
        "type": "LOOK_AT",
        "delayTime": 0.17800000309944153,
        "aliasList": [
          "1032"
        ],
        "actionId": 180,
        "enableHead": true,
        "headTurnTime": 0.5,
        "targetNpcAlias": "1042",
        "targetNpcLookAtPoint": "",
        "OAFJBHJHLJG": ""
      },
      {
        "$type": "LJLMDHDCAMK",
        "type": "LOOK_AT",
        "delayTime": 0.18299999833106995,
        "aliasList": [
          "1005"
        ],
        "actionId": 184,
        "enableHead": true,
        "headTurnTime": 0.5,
        "targetNpcAlias": "1042",
        "targetNpcLookAtPoint": "",
        "OAFJBHJHLJG": ""
      },
      {
        "$type": "LLGANGLOEEO",
        "type": "STEER_TO",
        "delayTime": 0.24799999594688416,
        "duration": 1.0,
        "aliasList": [
          "Avatar"
        ],
        "actionId": 260,
        "steerType": "ABSOLUTE",
        "steerDir": {
          "x": 690.0330200195312,
          "y": 73.94999694824219,
          "z": -115.30400085449219
        },
        "useSteerAnim": true,
        "interruptFreestyle": true,
        "forceSteer": true,
        "targetNpcAlias": "",
        "OAFJBHJHLJG": ""
      },
      {
        "$type": "LLGANGLOEEO",
        "type": "STEER_TO",
        "delayTime": 0.41200000047683716,
        "duration": 1.0,
        "aliasList": [
          "1032"
        ],
        "actionId": 181,
        "steerType": "ABSOLUTE",
        "steerDir": {
          "x": 694.4099731445312,
          "y": 73.80999755859375,
          "z": -116.45800018310547
        },
        "useSteerAnim": true,
        "interruptFreestyle": true,
        "forceSteer": true,
        "targetNpcAlias": "",
        "OAFJBHJHLJG": ""
      },
      {
        "$type": "LLGANGLOEEO",
        "type": "STEER_TO",
        "delayTime": 0.5370000004768372,
        "duration": 1.0,
        "aliasList": [
          "1005"
        ],
        "actionId": 185,
        "steerType": "ABSOLUTE",
        "steerDir": {
          "x": 694.7960205078125,
          "y": 73.80999755859375,
          "z": -116.05599975585938
        },
        "useSteerAnim": true,
        "interruptFreestyle": true,
        "forceSteer": true,
        "targetNpcAlias": "",
        "OAFJBHJHLJG": ""
      },
      {
        "$type": "FABLGECDBCH",
        "type": "BODY_LANG",
        "delayTime": 1.0199999809265137,
        "aliasList": [
          "1042"
        ],
        "actionId": 188,
        "bodyLangParam": 1230,
        "forceDoFreeStyle": true,
        "canDoRepeatFreeStyle": false,
        "eventPatternSuiteKey": "",
        "FOHHKFAIAAJ": ""
      }
    ],
    [
      {
        "$type": "FJKIHHKJLMJ",
        "type": "CAMERA_MOVE",
        "duration": 1.0,
        "actionId": 265,
        "camPosOffset": {
          "x": 691.4819946289062,
          "y": 75.27899932861328,
          "z": -115.25599670410156
        },
        "camForwardTargetOffset": {
          "x": 690.5079956054688,
          "y": 75.1969985961914,
          "z": -115.04499816894531
        },
        "camFov": 20.0,
        "lerpPattern": 6,
        "cameraBlendType": "EaseInOutCubic",
        "NJBNNOMLKCK": {},
        "needZAxisRotate": true,
        "openCameraDither": false,
        "targetNpcAlias": "",
        "closeTreeLeafDither": true,
        "KJOEFBPOIIH": "",
        "IICFKKEBIEC": "",
        "EGEHEJEBLBJ": ""
      },
      {
        "$type": "LJLMDHDCAMK",
        "type": "LOOK_AT",
        "aliasList": [
          "Avatar"
        ],
        "actionId": 192,
        "enableHead": true,
        "headTurnTime": 0.5,
        "targetNpcAlias": "1032",
        "targetNpcLookAtPoint": "",
        "OAFJBHJHLJG": ""
      },
      {
        "$type": "LJLMDHDCAMK",
        "type": "LOOK_AT",
        "aliasList": [
          "1005"
        ],
        "actionId": 192,
        "enableHead": true,
        "headTurnTime": 0.5,
        "targetNpcAlias": "1032",
        "targetNpcLookAtPoint": "",
        "OAFJBHJHLJG": ""
      },
      {
        "$type": "LJLMDHDCAMK",
        "type": "LOOK_AT",
        "aliasList": [
          "10095"
        ],
        "actionId": 192,
        "enableHead": true,
        "headTurnTime": 0.5,
        "targetNpcAlias": "1032",
        "targetNpcLookAtPoint": "",
        "OAFJBHJHLJG": ""
      },
      {
        "$type": "PKKMAMONGEO",
        "type": "DIALOG",
        "aliasList": [
          "1032"
        ],
        "dialogID": 400711011,
        "protectTime": 0.5
      },
      {
        "$type": "FABLGECDBCH",
        "type": "BODY_LANG",
        "aliasList": [
          "1032"
        ],
        "actionId": 191,
        "bodyLangParam": 1120,
        "forceDoFreeStyle": true,
        "canDoRepeatFreeStyle": false,
        "eventPatternSuiteKey": "",
        "FOHHKFAIAAJ": ""
      },
      {
        "$type": "CPJKOIHIPBE",
        "type": "EMO_SYNC",
        "aliasList": [
          "1032"
        ],
        "dataPath": "Cs_Emo_Avatar_Simple_Common_Set/Cs_Emo_Avatar_Talk/Cs_Emo_Avatar_MainLine/Cs_Emo_Avatar_DreamIsland/Cs_Emo_400711011",
        "phonemePath": "",
        "emotionPath": "",
        "mateDataPath": "",
        "matePhonemePath": "",
        "mateEmotionPath": "",
        "dataPathHashList": [
          2908919735207832832,
          7077824605031143493,
          4107184445374550797,
          8672467987404044996
        ],
        "FMDPBECPELH": "",
        "ADKBLPOKGIK": ""
      }
    ],
    [
      {
        "$type": "FJKIHHKJLMJ",
        "type": "CAMERA_MOVE",
        "duration": 1.0,
        "actionId": 195,
        "camPosOffset": {
          "x": 688.8319702148438,
          "y": 76.40599822998047,
          "z": -118.81900024414062
        },
        "camForwardTargetOffset": {
          "x": 689.1160278320312,
          "y": 75.93099975585938,
          "z": -117.98600006103516
        },
        "camFov": 40.0,
        "lerpPattern": 6,
        "cameraBlendType": "EaseInOutCubic",
        "NJBNNOMLKCK": {},
        "openCameraDither": false,
        "targetNpcAlias": "",
        "closeTreeLeafDither": true,
        "KJOEFBPOIIH": "",
        "IICFKKEBIEC": "",
        "EGEHEJEBLBJ": ""
      },
      {
        "$type": "PKKMAMONGEO",
        "type": "DIALOG",
        "aliasList": [
          "10095"
        ],
        "dialogID": 400711012,
        "protectTime": 2.4700000286102295
      },
      {
        "$type": "LJLMDHDCAMK",
        "type": "LOOK_AT",
        "aliasList": [
          "10095"
        ],
        "actionId": 197,
        "enableHead": true,
        "headTurnTime": 0.5,
        "targetNpcAlias": "1032",
        "targetNpcLookAtPoint": "",
        "OAFJBHJHLJG": ""
      },
      {
        "$type": "FABLGECDBCH",
        "type": "BODY_LANG",
        "aliasList": [
          "10095"
        ],
        "actionId": 274,
        "bodyLangParam": 1171,
        "forceDoFreeStyle": true,
        "canDoRepeatFreeStyle": false,
        "eventPatternSuiteKey": "",
        "FOHHKFAIAAJ": ""
      },
      {
        "$type": "CPJKOIHIPBE",
        "type": "EMO_SYNC",
        "aliasList": [
          "10095"
        ],
        "dataPath": "Cs_Emo_Avatar_Simple_Common_Set/Cs_Emo_Avatar_Talk/Cs_Emo_Avatar_MainLine/Cs_Emo_Avatar_DreamIsland/Cs_Emo_400711012",
        "phonemePath": "",
        "emotionPath": "",
        "mateDataPath": "",
        "matePhonemePath": "",
        "mateEmotionPath": "",
        "dataPathHashList": [
          14635015642697838695,
          5677760112730849072,
          15295160593259367719,
          10058671679729113906
        ],
        "FMDPBECPELH": "",
        "ADKBLPOKGIK": ""
      },
      {
        "$type": "LJLMDHDCAMK",
        "type": "LOOK_AT",
        "aliasList": [
          "1032"
        ],
        "actionId": 268,
        "enableHead": true,
        "headTurnTime": 0.5,
        "targetNpcAlias": "10095",
        "targetNpcLookAtPoint": "",
        "OAFJBHJHLJG": ""
      },
      {
        "$type": "CPJKOIHIPBE",
        "type": "EMO_SYNC",
        "aliasList": [
          "1032"
        ],
        "actionId": 298,
        "dataPath": "",
        "phonemePath": "Cs_Emo_Avatar_Common/Cs_Emo_Avatar_Normal01",
        "emotionPath": "Cs_Emo_Avatar_Common/Cs_Emo_Avatar_Gentle01",
        "mateDataPath": "",
        "matePhonemePath": "",
        "mateEmotionPath": "",
        "phonemePathHashList": [
          9445916536337636767,
          14128686126614747219,
          10779105391569104182,
          11659242061757756269
        ],
        "emotionPathHashList": [
          16936364625734641526,
          12723692093682084560,
          7584763146597514602,
          9115589832287442173
        ],
        "FMDPBECPELH": "",
        "ADKBLPOKGIK": ""
      },
      {
        "$type": "FJKIHHKJLMJ",
        "type": "CAMERA_MOVE",
        "delayTime": 0.10000000149011612,
        "duration": 3.424999952316284,
        "actionId": 195,
        "camPosOffset": {
          "x": 689.1129760742188,
          "y": 76.38700103759766,
          "z": -118.91000366210938
        },
        "camForwardTargetOffset": {
          "x": 689.3159790039062,
          "y": 75.91699981689453,
          "z": -118.0510025024414
        },
        "camFov": 40.0,
        "cameraBlendType": "EaseOutQuad",
        "NJBNNOMLKCK": {},
        "needZAxisRotate": true,
        "openCameraDither": false,
        "targetNpcAlias": "",
        "closeTreeLeafDither": true,
        "KJOEFBPOIIH": "",
        "IICFKKEBIEC": "",
        "EGEHEJEBLBJ": ""
      },
      {
        "$type": "LLGANGLOEEO",
        "type": "STEER_TO",
        "delayTime": 0.37400001287460327,
        "duration": 1.0,
        "aliasList": [
          "1032"
        ],
        "actionId": 207,
        "steerType": "ABSOLUTE",
        "steerDir": {
          "x": 689.6680297851562,
          "y": 73.80999755859375,
          "z": -115.99800109863281
        },
        "useSteerAnim": true,
        "interruptFreestyle": true,
        "forceSteer": true,
        "targetNpcAlias": "",
        "OAFJBHJHLJG": ""
      }
    ],
    [
      {
        "$type": "LJLMDHDCAMK",
        "type": "LOOK_AT",
        "aliasList": [
          "1032"
        ],
        "actionId": 144,
        "enableHead": true,
        "useTargetPos": true,
        "enableAbsolute": true,
        "targetPosition": {
          "x": 690.8079833984375,
          "y": 74.0999984741211,
          "z": -112.16799926757812
        },
        "headTurnTime": 0.5,
        "targetNpcAlias": "",
        "lookAtTargetType": "NONE",
        "targetNpcLookAtPoint": "",
        "OAFJBHJHLJG": ""
      },
      {
        "$type": "FABLGECDBCH",
        "type": "BODY_LANG",
        "aliasList": [
          "1042"
        ],
        "actionId": 209,
        "isContinue": true,
        "forceDoFreeStyle": true,
        "canDoRepeatFreeStyle": false,
        "eventPatternSuiteKey": "",
        "FOHHKFAIAAJ": ""
      },
      {
        "$type": "LJLMDHDCAMK",
        "type": "LOOK_AT",
        "aliasList": [
          "Avatar"
        ],
        "actionId": 144,
        "enableHead": true,
        "useTargetPos": true,
        "enableAbsolute": true,
        "targetPosition": {
          "x": 689.6069946289062,
          "y": 74.75800323486328,
          "z": -111.5979995727539
        },
        "headTurnTime": 0.5,
        "targetNpcAlias": "",
        "lookAtTargetType": "NONE",
        "targetNpcLookAtPoint": "",
        "OAFJBHJHLJG": ""
      },
      {
        "$type": "PKKMAMONGEO",
        "type": "DIALOG",
        "aliasList": [
          "12626"
        ],
        "dialogID": 400711013,
        "protectTime": 3.884999990463257
      },
      {
        "$type": "CPJKOIHIPBE",
        "type": "EMO_SYNC",
        "aliasList": [
          "12626"
        ],
        "dataPath": "Cs_Emo_Avatar_Simple_Common_Set/Cs_Emo_Avatar_Talk/Cs_Emo_Avatar_MainLine/Cs_Emo_Avatar_DreamIsland/Cs_Emo_400711013",
        "phonemePath": "",
        "emotionPath": "",
        "mateDataPath": "",
        "matePhonemePath": "",
        "mateEmotionPath": "",
        "dataPathHashList": [
          16995151912928131817,
          17059922553243098610,
          11398424871189097402,
          15738368738965493042
        ],
        "FMDPBECPELH": "",
        "ADKBLPOKGIK": ""
      },
      {
        "$type": "LJLMDHDCAMK",
        "type": "LOOK_AT",
        "aliasList": [
          "1005"
        ],
        "actionId": 144,
        "enableHead": true,
        "useTargetPos": true,
        "enableAbsolute": true,
        "targetPosition": {
          "x": 689.2890014648438,
          "y": 73.3499984741211,
          "z": -112.16799926757812
        },
        "headTurnTime": 0.5,
        "targetNpcAlias": "",
        "lookAtTargetType": "NONE",
        "targetNpcLookAtPoint": "",
        "OAFJBHJHLJG": ""
      },
      {
        "$type": "FABLGECDBCH",
        "type": "BODY_LANG",
        "aliasList": [
          "1032"
        ],
        "actionId": 206,
        "isContinue": true,
        "forceDoFreeStyle": true,
        "canDoRepeatFreeStyle": false,
        "eventPatternSuiteKey": "",
        "FOHHKFAIAAJ": ""
      },
      {
        "$type": "FABLGECDBCH",
        "type": "BODY_LANG",
        "aliasList": [
          "10095"
        ],
        "actionId": 199,
        "isContinue": true,
        "forceDoFreeStyle": true,
        "canDoRepeatFreeStyle": false,
        "eventPatternSuiteKey": "",
        "FOHHKFAIAAJ": ""
      },
      {
        "$type": "LJLMDHDCAMK",
        "type": "LOOK_AT",
        "aliasList": [
          "10095"
        ],
        "actionId": 144,
        "enableHead": true,
        "useTargetPos": true,
        "enableAbsolute": true,
        "targetPosition": {
          "x": 690.06201171875,
          "y": 75.00599670410156,
          "z": -111.5979995727539
        },
        "headTurnTime": 0.5,
        "targetNpcAlias": "",
        "lookAtTargetType": "NONE",
        "targetNpcLookAtPoint": "",
        "OAFJBHJHLJG": ""
      },
      {
        "$type": "LJLMDHDCAMK",
        "type": "LOOK_AT",
        "delayTime": 0.07500000298023224,
        "aliasList": [
          "1042"
        ],
        "actionId": 144,
        "enableHead": true,
        "useTargetPos": true,
        "enableAbsolute": true,
        "targetPosition": {
          "x": 691.0689697265625,
          "y": 74.39600372314453,
          "z": -112.16799926757812
        },
        "headTurnTime": 0.5,
        "targetNpcAlias": "",
        "lookAtTargetType": "NONE",
        "targetNpcLookAtPoint": "",
        "OAFJBHJHLJG": ""
      },
      {
        "$type": "LLGANGLOEEO",
        "type": "STEER_TO",
        "delayTime": 0.26499998569488525,
        "duration": 1.0,
        "aliasList": [
          "Avatar"
        ],
        "actionId": 266,
        "steerType": "ABSOLUTE",
        "steerDir": {
          "x": 689.073974609375,
          "y": 73.80999755859375,
          "z": -115.37999725341797
        },
        "useSteerAnim": true,
        "interruptFreestyle": true,
        "forceSteer": true,
        "targetNpcAlias": "",
        "OAFJBHJHLJG": ""
      },
      {
        "$type": "FJKIHHKJLMJ",
        "type": "CAMERA_MOVE",
        "delayTime": 0.527999997138977,
        "duration": 1.0,
        "actionId": 200,
        "camPosOffset": {
          "x": 691.1199951171875,
          "y": 75.30000305175781,
          "z": -113.97100067138672
        },
        "camForwardTargetOffset": {
          "x": 690.77001953125,
          "y": 75.21600341796875,
          "z": -114.90399932861328
        },
        "camFov": 20.0,
        "lerpPattern": 6,
        "cameraBlendType": "EaseInOutCubic",
        "NJBNNOMLKCK": {},
        "needZAxisRotate": true,
        "openCameraDither": false,
        "targetNpcAlias": "",
        "closeTreeLeafDither": true,
        "KJOEFBPOIIH": "",
        "IICFKKEBIEC": "",
        "EGEHEJEBLBJ": ""
      },
      {
        "$type": "FJKIHHKJLMJ",
        "type": "CAMERA_MOVE",
        "delayTime": 0.5830000042915344,
        "duration": 2.867000102996826,
        "actionId": 200,
        "camPosOffset": {
          "x": 691.0770263671875,
          "y": 75.28900146484375,
          "z": -114.08699798583984
        },
        "camForwardTargetOffset": {
          "x": 690.7269897460938,
          "y": 75.20500183105469,
          "z": -115.0199966430664
        },
        "camFov": 20.0,
        "cameraBlendType": "Linear",
        "NJBNNOMLKCK": {},
        "needZAxisRotate": true,
        "openCameraDither": false,
        "targetNpcAlias": "",
        "closeTreeLeafDither": true,
        "KJOEFBPOIIH": "",
        "IICFKKEBIEC": "",
        "EGEHEJEBLBJ": ""
      },
      {
        "$type": "LLGANGLOEEO",
        "type": "STEER_TO",
        "delayTime": 0.6399999856948853,
        "duration": 1.0,
        "aliasList": [
          "1005"
        ],
        "actionId": 235,
        "steerType": "ABSOLUTE",
        "steerDir": {
          "x": 688.4810180664062,
          "y": 73.80999755859375,
          "z": -114.78299713134766
        },
        "useSteerAnim": true,
        "interruptFreestyle": true,
        "forceSteer": true,
        "targetNpcAlias": "",
        "OAFJBHJHLJG": ""
      },
      {
        "$type": "LLGANGLOEEO",
        "type": "STEER_TO",
        "delayTime": 0.7329999804496765,
        "duration": 1.0,
        "aliasList": [
          "10095"
        ],
        "actionId": 267,
        "steerType": "ABSOLUTE",
        "steerDir": {
          "x": 689.6719970703125,
          "y": 73.80999755859375,
          "z": -116.1520004272461
        },
        "useSteerAnim": true,
        "interruptFreestyle": true,
        "forceSteer": true,
        "targetNpcAlias": "",
        "OAFJBHJHLJG": ""
      },
      {
        "$type": "LLGANGLOEEO",
        "type": "STEER_TO",
        "delayTime": 0.9190000295639038,
        "duration": 1.0,
        "aliasList": [
          "1042"
        ],
        "actionId": 207,
        "steerType": "ABSOLUTE",
        "steerDir": {
          "x": 691.2520141601562,
          "y": 73.80999755859375,
          "z": -115.21399688720703
        },
        "useSteerAnim": true,
        "interruptFreestyle": true,
        "forceSteer": true,
        "targetNpcAlias": "",
        "OAFJBHJHLJG": ""
      },
      {
        "$type": "LLGANGLOEEO",
        "type": "STEER_TO",
        "delayTime": 1.1540000438690186,
        "duration": 1.0,
        "aliasList": [
          "1032"
        ],
        "actionId": 207,
        "steerType": "ABSOLUTE",
        "steerDir": {
          "x": 690.7750244140625,
          "y": 73.80999755859375,
          "z": -114.75800323486328
        },
        "useSteerAnim": true,
        "interruptFreestyle": true,
        "forceSteer": true,
        "targetNpcAlias": "",
        "OAFJBHJHLJG": ""
      },
      {
        "$type": "FJKIHHKJLMJ",
        "type": "CAMERA_MOVE",
        "delayTime": 3.4560000896453857,
        "duration": 1.0,
        "actionId": 211,
        "camPosOffset": {
          "x": 690.9409790039062,
          "y": 57.724998474121094,
          "z": -99.18699645996094
        },
        "camForwardTargetOffset": {
          "x": 690.7459716796875,
          "y": 58.37699890136719,
          "z": -99.91899871826172
        },
        "camFov": 30.0,
        "lerpPattern": 6,
        "cameraBlendType": "EaseInOutCubic",
        "NJBNNOMLKCK": {},
        "needZAxisRotate": true,
        "openCameraDither": false,
        "targetNpcAlias": "",
        "closeTreeLeafDither": true,
        "KJOEFBPOIIH": "",
        "IICFKKEBIEC": "",
        "EGEHEJEBLBJ": ""
      },
      {
        "$type": "FJKIHHKJLMJ",
        "type": "CAMERA_MOVE",
        "delayTime": 3.494999885559082,
        "duration": 4.75,
        "actionId": 211,
        "camPosOffset": {
          "x": 690.9520263671875,
          "y": 57.720001220703125,
          "z": -99.19599914550781
        },
        "camForwardTargetOffset": {
          "x": 690.7130126953125,
          "y": 58.37900161743164,
          "z": -99.90899658203125
        },
        "camFov": 30.0,
        "cameraBlendType": "EaseOutQuad",
        "NJBNNOMLKCK": {},
        "needZAxisRotate": true,
        "openCameraDither": false,
        "targetNpcAlias": "",
        "closeTreeLeafDither": true,
        "KJOEFBPOIIH": "",
        "IICFKKEBIEC": "",
        "EGEHEJEBLBJ": ""
      }
    ],
    [
      {
        "$type": "FJKIHHKJLMJ",
        "type": "CAMERA_MOVE",
        "duration": 1.0,
        "actionId": 213,
        "camPosOffset": {
          "x": 688.9710083007812,
          "y": 74.80899810791016,
          "z": -114.6259994506836
        },
        "camForwardTargetOffset": {
          "x": 688.3369750976562,
          "y": 75.15799713134766,
          "z": -115.31600189208984
        },
        "camFov": 30.0,
        "lerpPattern": 6,
        "cameraBlendType": "EaseInOutCubic",
        "NJBNNOMLKCK": {},
        "needZAxisRotate": true,
        "openCameraDither": false,
        "targetNpcAlias": "",
        "closeTreeLeafDither": true,
        "KJOEFBPOIIH": "",
        "IICFKKEBIEC": "",
        "EGEHEJEBLBJ": ""
      },
      {
        "$type": "PKKMAMONGEO",
        "type": "DIALOG",
        "aliasList": [
          "1005"
        ],
        "dialogID": 400711014,
        "protectTime": 0.5
      },
      {
        "$type": "FABLGECDBCH",
        "type": "BODY_LANG",
        "aliasList": [
          "1005"
        ],
        "actionId": 218,
        "bodyLangParam": 1110,
        "forceDoFreeStyle": true,
        "canDoRepeatFreeStyle": false,
        "eventPatternSuiteKey": "",
        "FOHHKFAIAAJ": ""
      },
      {
        "$type": "LJLMDHDCAMK",
        "type": "LOOK_AT",
        "aliasList": [
          "1005"
        ],
        "actionId": 270,
        "enableHead": true,
        "useTargetPos": true,
        "enableAbsolute": true,
        "targetPosition": {
          "x": 688.6810302734375,
          "y": 74.96299743652344,
          "z": -114.85800170898438
        },
        "headTurnTime": 0.5,
        "targetNpcAlias": "",
        "lookAtTargetType": "NONE",
        "targetNpcLookAtPoint": "",
        "OAFJBHJHLJG": ""
      },
      {
        "$type": "CPJKOIHIPBE",
        "type": "EMO_SYNC",
        "aliasList": [
          "1005"
        ],
        "dataPath": "Cs_Emo_Avatar_Simple_Common_Set/Cs_Emo_Avatar_Talk/Cs_Emo_Avatar_MainLine/Cs_Emo_Avatar_DreamIsland/Cs_Emo_400711014",
        "phonemePath": "",
        "emotionPath": "",
        "mateDataPath": "",
        "matePhonemePath": "",
        "mateEmotionPath": "",
        "dataPathHashList": [
          5767029827586318218,
          15469874130649811704,
          2834397613196150011,
          3787371660223599649
        ],
        "FMDPBECPELH": "",
        "ADKBLPOKGIK": ""
      },
      {
        "$type": "FJKIHHKJLMJ",
        "type": "CAMERA_MOVE",
        "delayTime": 0.06599999964237213,
        "duration": 2.8499999046325684,
        "actionId": 213,
        "camPosOffset": {
          "x": 688.9869995117188,
          "y": 74.90599822998047,
          "z": -114.60199737548828
        },
        "camForwardTargetOffset": {
          "x": 688.3319702148438,
          "y": 75.13200378417969,
          "z": -115.322998046875
        },
        "camFov": 30.0,
        "cameraBlendType": "EaseOutQuad",
        "NJBNNOMLKCK": {},
        "needZAxisRotate": true,
        "openCameraDither": false,
        "targetNpcAlias": "",
        "closeTreeLeafDither": true,
        "KJOEFBPOIIH": "",
        "IICFKKEBIEC": "",
        "EGEHEJEBLBJ": ""
      }
    ],
    [
      {
        "$type": "FJKIHHKJLMJ",
        "type": "CAMERA_MOVE",
        "duration": 1.0,
        "actionId": 219,
        "camPosOffset": {
          "x": 690.35498046875,
          "y": 75.3290023803711,
          "z": -111.10600280761719
        },
        "camForwardTargetOffset": {
          "x": 690.35498046875,
          "y": 74.46900177001953,
          "z": -110.59600067138672
        },
        "camFov": 30.0,
        "lerpPattern": 6,
        "cameraBlendType": "EaseInOutCubic",
        "NJBNNOMLKCK": {},
        "needZAxisRotate": true,
        "rotateAngle": -0.0020000000949949026,
        "openCameraDither": false,
        "targetNpcAlias": "",
        "closeTreeLeafDither": true,
        "KJOEFBPOIIH": "",
        "IICFKKEBIEC": "",
        "EGEHEJEBLBJ": ""
      },
      {
        "$type": "LJLMDHDCAMK",
        "type": "LOOK_AT",
        "aliasList": [
          "Avatar"
        ],
        "actionId": 277,
        "enableHead": true,
        "useTargetPos": true,
        "enableAbsolute": true,
        "targetPosition": {
          "x": 689.5059814453125,
          "y": 74.24099731445312,
          "z": -114.09400177001953
        },
        "headTurnTime": 0.5,
        "targetNpcAlias": "",
        "lookAtTargetType": "NONE",
        "targetNpcLookAtPoint": "",
        "OAFJBHJHLJG": ""
      },
      {
        "$type": "PKKMAMONGEO",
        "type": "DIALOG",
        "aliasList": [
          "12626"
        ],
        "dialogID": 400711015,
        "protectTime": 4.432000160217285
      },
      {
        "$type": "CPJKOIHIPBE",
        "type": "EMO_SYNC",
        "aliasList": [
          "12626"
        ],
        "dataPath": "Cs_Emo_Avatar_Simple_Common_Set/Cs_Emo_Avatar_Talk/Cs_Emo_Avatar_MainLine/Cs_Emo_Avatar_DreamIsland/Cs_Emo_400711015",
        "phonemePath": "",
        "emotionPath": "",
        "mateDataPath": "",
        "matePhonemePath": "",
        "mateEmotionPath": "",
        "dataPathHashList": [
          3779429574850925221,
          7770056867013288583,
          8895575428596932067,
          14265442323709001996
        ],
        "FMDPBECPELH": "",
        "ADKBLPOKGIK": ""
      },
      {
        "$type": "FABLGECDBCH",
        "type": "BODY_LANG",
        "aliasList": [
          "1005"
        ],
        "actionId": 272,
        "isContinue": true,
        "forceDoFreeStyle": true,
        "canDoRepeatFreeStyle": false,
        "eventPatternSuiteKey": "",
        "FOHHKFAIAAJ": ""
      },
      {
        "$type": "LJLMDHDCAMK",
        "type": "LOOK_AT",
        "aliasList": [
          "1005"
        ],
        "actionId": 277,
        "enableHead": true,
        "useTargetPos": true,
        "enableAbsolute": true,
        "targetPosition": {
          "x": 688.9390258789062,
          "y": 74.24099731445312,
          "z": -114.09400177001953
        },
        "headTurnTime": 0.5,
        "targetNpcAlias": "",
        "lookAtTargetType": "NONE",
        "targetNpcLookAtPoint": "",
        "OAFJBHJHLJG": ""
      },
      {
        "$type": "LJLMDHDCAMK",
        "type": "LOOK_AT",
        "aliasList": [
          "10095"
        ],
        "actionId": 277,
        "enableHead": true,
        "useTargetPos": true,
        "enableAbsolute": true,
        "targetPosition": {
          "x": 690.0070190429688,
          "y": 73.7770004272461,
          "z": -113.35800170898438
        },
        "headTurnTime": 0.5,
        "targetNpcAlias": "",
        "lookAtTargetType": "NONE",
        "targetNpcLookAtPoint": "",
        "OAFJBHJHLJG": ""
      },
      {
        "$type": "LJLMDHDCAMK",
        "type": "LOOK_AT",
        "aliasList": [
          "1042"
        ],
        "actionId": 277,
        "enableHead": true,
        "useTargetPos": true,
        "enableAbsolute": true,
        "targetPosition": {
          "x": 690.8270263671875,
          "y": 73.81400299072266,
          "z": -113.35800170898438
        },
        "headTurnTime": 0.5,
        "targetNpcAlias": "",
        "lookAtTargetType": "NONE",
        "targetNpcLookAtPoint": "",
        "OAFJBHJHLJG": ""
      },
      {
        "$type": "LJLMDHDCAMK",
        "type": "LOOK_AT",
        "aliasList": [
          "1032"
        ],
        "actionId": 277,
        "enableHead": true,
        "useTargetPos": true,
        "enableAbsolute": true,
        "targetPosition": {
          "x": 690.5479736328125,
          "y": 73.81400299072266,
          "z": -113.35800170898438
        },
        "headTurnTime": 0.5,
        "targetNpcAlias": "",
        "lookAtTargetType": "NONE",
        "targetNpcLookAtPoint": "",
        "OAFJBHJHLJG": ""
      },
      {
        "$type": "FJKIHHKJLMJ",
        "type": "CAMERA_MOVE",
        "delayTime": 0.07500000298023224,
        "duration": 2.5,
        "actionId": 219,
        "camPosOffset": {
          "x": 690.35400390625,
          "y": 73.64399719238281,
          "z": -110.10700225830078
        },
        "camForwardTargetOffset": {
          "x": 690.35400390625,
          "y": 72.78399658203125,
          "z": -109.59700012207031
        },
        "camFov": 30.0,
        "cameraBlendType": "Linear",
        "NJBNNOMLKCK": {},
        "needZAxisRotate": true,
        "rotateAngle": -0.0020000000949949026,
        "openCameraDither": false,
        "targetNpcAlias": "",
        "closeTreeLeafDither": true,
        "KJOEFBPOIIH": "",
        "IICFKKEBIEC": "",
        "EGEHEJEBLBJ": ""
      },
      {
        "$type": "FJKIHHKJLMJ",
        "type": "CAMERA_MOVE",
        "delayTime": 2.5859999656677246,
        "duration": 1.0,
        "actionId": 221,
        "camPosOffset": {
          "x": 690.2739868164062,
          "y": 72.56700134277344,
          "z": -110.5479965209961
        },
        "camForwardTargetOffset": {
          "x": 690.2130126953125,
          "y": 72.97200012207031,
          "z": -111.45999908447266
        },
        "camFov": 30.0,
        "lerpPattern": 6,
        "cameraBlendType": "EaseInOutCubic",
        "NJBNNOMLKCK": {},
        "needZAxisRotate": true,
        "openCameraDither": false,
        "targetNpcAlias": "",
        "closeTreeLeafDither": true,
        "KJOEFBPOIIH": "",
        "IICFKKEBIEC": "",
        "EGEHEJEBLBJ": ""
      },
      {
        "$type": "FJKIHHKJLMJ",
        "type": "CAMERA_MOVE",
        "delayTime": 2.628000020980835,
        "duration": 3.1080000400543213,
        "actionId": 221,
        "camPosOffset": {
          "x": 690.2210083007812,
          "y": 73.01799774169922,
          "z": -111.33799743652344
        },
        "camForwardTargetOffset": {
          "x": 690.1599731445312,
          "y": 73.40599822998047,
          "z": -112.25800323486328
        },
        "camFov": 30.0,
        "cameraBlendType": "Linear",
        "NJBNNOMLKCK": {},
        "needZAxisRotate": true,
        "openCameraDither": false,
        "targetNpcAlias": "",
        "closeTreeLeafDither": true,
        "KJOEFBPOIIH": "",
        "IICFKKEBIEC": "",
        "EGEHEJEBLBJ": ""
      },
      {
        "$type": "FJKIHHKJLMJ",
        "type": "CAMERA_MOVE",
        "delayTime": 5.728000164031982,
        "duration": 1.0,
        "actionId": 225,
        "camPosOffset": {
          "x": 695.6849975585938,
          "y": 76.25900268554688,
          "z": -110.18599700927734
        },
        "camForwardTargetOffset": {
          "x": 695.0159912109375,
          "y": 76.03600311279297,
          "z": -110.8949966430664
        },
        "camFov": 30.0,
        "lerpPattern": 6,
        "cameraBlendType": "EaseInOutCubic",
        "NJBNNOMLKCK": {},
        "needZAxisRotate": true,
        "openCameraDither": false,
        "targetNpcAlias": "",
        "closeTreeLeafDither": true,
        "KJOEFBPOIIH": "",
        "IICFKKEBIEC": "",
        "EGEHEJEBLBJ": ""
      },
      {
        "$type": "FJKIHHKJLMJ",
        "type": "CAMERA_MOVE",
        "delayTime": 5.793000221252441,
        "duration": 3.809000015258789,
        "actionId": 225,
        "camPosOffset": {
          "x": 695.666015625,
          "y": 76.25900268554688,
          "z": -110.16899871826172
        },
        "camForwardTargetOffset": {
          "x": 695.0339965820312,
          "y": 76.03600311279297,
          "z": -110.91100311279297
        },
        "camFov": 30.0,
        "cameraBlendType": "EaseOutQuad",
        "NJBNNOMLKCK": {},
        "needZAxisRotate": true,
        "openCameraDither": false,
        "targetNpcAlias": "",
        "closeTreeLeafDither": true,
        "KJOEFBPOIIH": "",
        "IICFKKEBIEC": "",
        "EGEHEJEBLBJ": ""
      }
    ],
    [
      {
        "$type": "FJKIHHKJLMJ",
        "type": "CAMERA_MOVE",
        "duration": 1.0,
        "actionId": 227,
        "camPosOffset": {
          "x": 689.9420166015625,
          "y": 74.93099975585938,
          "z": -115.81400299072266
        },
        "camForwardTargetOffset": {
          "x": 689.5910034179688,
          "y": 75.19999694824219,
          "z": -116.71099853515625
        },
        "camFov": 30.0,
        "lerpPattern": 6,
        "cameraBlendType": "EaseInOutCubic",
        "NJBNNOMLKCK": {},
        "needZAxisRotate": true,
        "openCameraDither": false,
        "targetNpcAlias": "",
        "closeTreeLeafDither": true,
        "KJOEFBPOIIH": "",
        "IICFKKEBIEC": "",
        "EGEHEJEBLBJ": ""
      },
      {
        "$type": "PKKMAMONGEO",
        "type": "DIALOG",
        "aliasList": [
          "10095"
        ],
        "dialogID": 400711016,
        "protectTime": 0.5
      },
      {
        "$type": "FABLGECDBCH",
        "type": "BODY_LANG",
        "aliasList": [
          "10095"
        ],
        "actionId": 229,
        "bodyLangParam": 1230,
        "forceDoFreeStyle": true,
        "canDoRepeatFreeStyle": false,
        "eventPatternSuiteKey": "",
        "FOHHKFAIAAJ": ""
      },
      {
        "$type": "LJLMDHDCAMK",
        "type": "LOOK_AT",
        "aliasList": [
          "10095"
        ],
        "actionId": 271,
        "enableHead": true,
        "useTargetPos": true,
        "enableAbsolute": true,
        "targetPosition": {
          "x": 689.7780151367188,
          "y": 75.04299926757812,
          "z": -116.25
        },
        "headTurnTime": 0.5,
        "targetNpcAlias": "",
        "lookAtTargetType": "NONE",
        "targetNpcLookAtPoint": "",
        "OAFJBHJHLJG": ""
      },
      {
        "$type": "CPJKOIHIPBE",
        "type": "EMO_SYNC",
        "aliasList": [
          "10095"
        ],
        "dataPath": "Cs_Emo_Avatar_Simple_Common_Set/Cs_Emo_Avatar_Talk/Cs_Emo_Avatar_MainLine/Cs_Emo_Avatar_DreamIsland/Cs_Emo_400711016",
        "phonemePath": "",
        "emotionPath": "",
        "mateDataPath": "",
        "matePhonemePath": "",
        "mateEmotionPath": "",
        "dataPathHashList": [
          1182306329183333758,
          3807347251230349439,
          17475909014851538270,
          11213230895990074977
        ],
        "FMDPBECPELH": "",
        "ADKBLPOKGIK": ""
      },
      {
        "$type": "FJKIHHKJLMJ",
        "type": "CAMERA_MOVE",
        "delayTime": 0.07400000095367432,
        "duration": 2.742000102996826,
        "actionId": 227,
        "camPosOffset": {
          "x": 689.9730224609375,
          "y": 74.92900085449219,
          "z": -115.82599639892578
        },
        "camForwardTargetOffset": {
          "x": 689.6220092773438,
          "y": 75.197998046875,
          "z": -116.7229995727539
        },
        "camFov": 30.0,
        "cameraBlendType": "EaseOutQuad",
        "NJBNNOMLKCK": {},
        "needZAxisRotate": true,
        "openCameraDither": false,
        "targetNpcAlias": "",
        "closeTreeLeafDither": true,
        "KJOEFBPOIIH": "",
        "IICFKKEBIEC": "",
        "EGEHEJEBLBJ": ""
      }
    ],
    [
      {
        "$type": "MoleMole.Config.ConfigSimpleBlackScreenAction",
        "type": "SIMPLE_BLACK_SCREEN",
        "durationToBlack": 0.5,
        "durationKeepBlack": 1.0,
        "durationFromBlack": 0.5,
        "textMapID": ""
      },
      {
        "$type": "MoleMole.Config.ConfigTimeProtectAction",
        "type": "TIME_PROTECT",
        "duration": 1.0
      },
      {
        "$type": "FABLGECDBCH",
        "type": "BODY_LANG",
        "aliasList": [
          "10095"
        ],
        "actionId": 231,
        "isContinue": true,
        "forceDoFreeStyle": true,
        "canDoRepeatFreeStyle": false,
        "eventPatternSuiteKey": "",
        "FOHHKFAIAAJ": ""
      },
      {
        "$type": "FJKIHHKJLMJ",
        "type": "CAMERA_MOVE",
        "delayTime": 0.550000011920929,
        "duration": 0.10000000149011612,
        "actionId": 230,
        "camPosOffset": {
          "x": 688.9429931640625,
          "y": 75.70600128173828,
          "z": -116.96199798583984
        },
        "camForwardTargetOffset": {
          "x": 689.0250244140625,
          "y": 75.28700256347656,
          "z": -116.05799865722656
        },
        "camFov": 30.0,
        "lerpPattern": 6,
        "cameraBlendType": "EaseInOutCubic",
        "NJBNNOMLKCK": {},
        "needZAxisRotate": true,
        "openCameraDither": false,
        "targetNpcAlias": "",
        "closeTreeLeafDither": true,
        "KJOEFBPOIIH": "",
        "IICFKKEBIEC": "",
        "EGEHEJEBLBJ": ""
      },
      {
        "$type": "MoleMole.Config.ConfigVisibleInterAction",
        "type": "VISIBLE",
        "delayTime": 0.550000011920929,
        "aliasList": [
          "10095"
        ],
        "actionId": 232,
        "_extraParam": ""
      },
      {
        "$type": "MoleMole.Config.ConfigVisibleInterAction",
        "type": "VISIBLE",
        "delayTime": 0.550000011920929,
        "aliasList": [
          "1042"
        ],
        "actionId": 232,
        "_extraParam": ""
      },
      {
        "$type": "MoleMole.Config.ConfigVisibleInterAction",
        "type": "VISIBLE",
        "delayTime": 0.550000011920929,
        "aliasList": [
          "1032"
        ],
        "actionId": 232,
        "_extraParam": ""
      }
    ]
  ],
  "groupId": [
    {
      "grpId": 2695990481,
      "nextGrpId": 2695990482
    },
    {
      "index": 1,
      "grpId": 2695990482,
      "nextGrpId": 2695990483
    },
    {
      "index": 2,
      "grpId": 2695990483,
      "nextGrpId": 2695990484
    },
    {
      "index": 3,
      "grpId": 2695990484,
      "nextGrpId": 2695990485
    },
    {
      "index": 4,
      "grpId": 2695990485,
      "nextGrpId": 2695990486
    },
    {
      "index": 5,
      "grpId": 2695990486,
      "nextGrpId": 2695990487
    },
    {
      "index": 6,
      "grpId": 2695990487,
      "nextGrpId": 2695990488
    },
    {
      "index": 7,
      "grpId": 2695990488,
      "nextGrpId": 2695990489
    },
    {
      "index": 8,
      "grpId": 2695990489,
      "nextGrpId": 1971326335
    },
    {
      "index": 9,
      "grpId": 1971326335,
      "nextGrpId": 1971326336
    },
    {
      "index": 10,
      "grpId": 1971326336,
      "nextGrpId": 1971326337
    },
    {
      "index": 11,
      "grpId": 1971326337,
      "nextGrpId": 1971326338
    },
    {
      "index": 12,
      "grpId": 1971326338,
      "nextGrpId": 1971326339
    },
    {
      "index": 13,
      "grpId": 1971326339,
      "nextGrpId": 1971326340
    },
    {
      "index": 14,
      "grpId": 1971326340,
      "nextGrpId": 1971326341
    }
  ],
  "freeStyleDic": {
    "10095": [
      1110,
      1171,
      1230
    ],
    "1042": [
      1230
    ],
    "1032": [
      1120
    ]
  }
}