{
  "luaDataPath": "",
  "startBlackKeepTime": 1.0,
  "entityBan": "",
  "disableNpcLod": true,
  "isAutoBanNpc": true,
  "isBanWidgetPet": true,
  "protectNpcMobileLod": true,
  "startFade": {
    "startFadeInDuration": 0.5,
    "startFadeOutDuration": 0.5
  },
  "endFade": {
    "startFadeOutDuration": 0.0
  },
  "actors": [
    {
      "alias": "Avatar",
      "visible": true,
      "bornPointName": "T4007112_N10000005",
      "relativePosNpcAlias": "",
      "_bindMovingTargetKey": ""
    },
    {
      "configID": 12626,
      "alias": "12626",
      "visible": true,
      "bornPointName": "Q4007112_N12626",
      "relativePosNpcAlias": "",
      "_bindMovingTargetKey": ""
    }
  ],
  "group": [
    [
      {
        "$type": "MoleMole.Config.ConfigTimeProtectAction",
        "type": "TIME_PROTECT",
        "duration": 1.5
      },
      {
        "$type": "MoleMole.Config.ConfigBlackScreenAction",
        "type": "BLACK_SCREEN",
        "actionId": 120,
        "blackScreenType": "KEEP_BLACK",
        "durationKeepBlack": 0.5,
        "inteePos": "",
        "textMapID": "",
        "useTextFade": true
      },
      {
        "$type": "MoleMole.Config.ConfigTeleportToAction",
        "type": "TELEPORT_TO",
        "aliasList": [
          "Avatar"
        ],
        "actionId": 113,
        "position": {
          "x": 694.7839965820312,
          "y": 73.80999755859375,
          "z": -117.24600219726562
        },
        "forward": {
          "x": -0.09399999678134918,
          "z": 3.6730000972747803
        },
        "openLongDisTeleport": true,
        "_posBindMovingTargetKey": "",
        "_forwardBindMovingTargetKey": ""
      },
      {
        "$type": "FJKIHHKJLMJ",
        "type": "CAMERA_MOVE",
        "delayTime": 0.550000011920929,
        "duration": 0.10000000149011612,
        "actionId": 114,
        "camPosOffset": {
          "x": 690.1240234375,
          "y": 76.02100372314453,
          "z": -118.64299774169922
        },
        "camForwardTargetOffset": {
          "x": 690.1129760742188,
          "y": 75.59700012207031,
          "z": -117.73799896240234
        },
        "lerpPattern": 6,
        "cameraBlendType": "EaseInOutCubic",
        "NJBNNOMLKCK": {},
        "needZAxisRotate": true,
        "openCameraDither": false,
        "targetNpcAlias": "",
        "closeTreeLeafDither": true,
        "KJOEFBPOIIH": "",
        "IICFKKEBIEC": "",
        "EGEHEJEBLBJ": ""
      }
    ],
    [
      {
        "$type": "FJKIHHKJLMJ",
        "type": "CAMERA_MOVE",
        "duration": 1.0,
        "actionId": 114,
        "camPosOffset": {
          "x": 690.1240234375,
          "y": 76.02100372314453,
          "z": -118.64299774169922
        },
        "camForwardTargetOffset": {
          "x": 690.1129760742188,
          "y": 75.59700012207031,
          "z": -117.73799896240234
        },
        "lerpPattern": 6,
        "cameraBlendType": "EaseInOutCubic",
        "NJBNNOMLKCK": {},
        "needZAxisRotate": true,
        "openCameraDither": false,
        "targetNpcAlias": "",
        "closeTreeLeafDither": true,
        "KJOEFBPOIIH": "",
        "IICFKKEBIEC": "",
        "EGEHEJEBLBJ": ""
      },
      {
        "$type": "MoleMole.Config.ConfigBlackScreenAction",
        "type": "BLACK_SCREEN",
        "actionId": 121,
        "blackScreenType": "FROM_BLACK",
        "durationFromBlack": 0.5,
        "inteePos": "",
        "textMapID": "",
        "useTextFade": true
      },
      {
        "$type": "PKKMAMONGEO",
        "type": "DIALOG",
        "aliasList": [
          "12626"
        ],
        "dialogID": 400711201,
        "protectTime": 0.5
      },
      {
        "$type": "CPJKOIHIPBE",
        "type": "EMO_SYNC",
        "aliasList": [
          "12626"
        ],
        "dataPath": "Cs_Emo_Avatar_Simple_Common_Set/Cs_Emo_Avatar_Talk/Cs_Emo_Avatar_MainLine/Cs_Emo_Avatar_DreamIsland/Cs_Emo_400711201",
        "phonemePath": "",
        "emotionPath": "",
        "mateDataPath": "",
        "matePhonemePath": "",
        "mateEmotionPath": "",
        "dataPathHashList": [
          13823428721109782058,
          18290803541033643381,
          1391900973360761038,
          14802935468101606042
        ],
        "FMDPBECPELH": "",
        "ADKBLPOKGIK": ""
      },
      {
        "$type": "FJKIHHKJLMJ",
        "type": "CAMERA_MOVE",
        "delayTime": 0.057999998331069946,
        "duration": 10.899999618530273,
        "actionId": 114,
        "camPosOffset": {
          "x": 690.0900268554688,
          "y": 75.74800109863281,
          "z": -118.53900146484375
        },
        "camForwardTargetOffset": {
          "x": 690.0900268554688,
          "y": 75.38700103759766,
          "z": -117.60600280761719
        },
        "cameraBlendType": "EaseOutQuad",
        "NJBNNOMLKCK": {},
        "needZAxisRotate": true,
        "openCameraDither": false,
        "targetNpcAlias": "",
        "closeTreeLeafDither": true,
        "KJOEFBPOIIH": "",
        "IICFKKEBIEC": "",
        "EGEHEJEBLBJ": ""
      }
    ],
    [
      {
        "$type": "FJKIHHKJLMJ",
        "type": "CAMERA_MOVE",
        "duration": 1.0,
        "actionId": 116,
        "camPosOffset": {
          "x": 695.9660034179688,
          "y": 101.34500122070312,
          "z": -133.77099609375
        },
        "camForwardTargetOffset": {
          "x": 695.9609985351562,
          "y": 100.95600128173828,
          "z": -132.85000610351562
        },
        "lerpPattern": 6,
        "cameraBlendType": "EaseInOutCubic",
        "NJBNNOMLKCK": {},
        "needZAxisRotate": true,
        "openCameraDither": false,
        "targetNpcAlias": "",
        "closeTreeLeafDither": true,
        "KJOEFBPOIIH": "",
        "IICFKKEBIEC": "",
        "EGEHEJEBLBJ": ""
      },
      {
        "$type": "PKKMAMONGEO",
        "type": "DIALOG",
        "aliasList": [
          "12626"
        ],
        "dialogID": 400711202,
        "protectTime": 0.5
      },
      {
        "$type": "CPJKOIHIPBE",
        "type": "EMO_SYNC",
        "aliasList": [
          "12626"
        ],
        "dataPath": "Cs_Emo_Avatar_Simple_Common_Set/Cs_Emo_Avatar_Talk/Cs_Emo_Avatar_MainLine/Cs_Emo_Avatar_DreamIsland/Cs_Emo_400711202",
        "phonemePath": "",
        "emotionPath": "",
        "mateDataPath": "",
        "matePhonemePath": "",
        "mateEmotionPath": "",
        "dataPathHashList": [
          7613423312738765385,
          12047056241499409992,
          300002021145121360,
          1113787526818415066
        ],
        "FMDPBECPELH": "",
        "ADKBLPOKGIK": ""
      },
      {
        "$type": "FJKIHHKJLMJ",
        "type": "CAMERA_MOVE",
        "delayTime": 0.07400000095367432,
        "duration": 10.1850004196167,
        "actionId": 116,
        "camPosOffset": {
          "x": 695.677978515625,
          "y": 96.46399688720703,
          "z": -134.13600158691406
        },
        "camForwardTargetOffset": {
          "x": 695.6640014648438,
          "y": 96.21199798583984,
          "z": -133.16900634765625
        },
        "cameraBlendType": "EaseOutQuad",
        "NJBNNOMLKCK": {},
        "needZAxisRotate": true,
        "openCameraDither": false,
        "targetNpcAlias": "",
        "closeTreeLeafDither": true,
        "KJOEFBPOIIH": "",
        "IICFKKEBIEC": "",
        "EGEHEJEBLBJ": ""
      }
    ],
    [
      {
        "$type": "MoleMole.Config.ConfigLuaAction",
        "type": "LUA_ACTION",
        "duration": 0.10000000149011612,
        "invoke": true,
        "invokeAlias": "40071",
        "invokeParam": 1
      },
      {
        "$type": "MoleMole.Config.ConfigSimpleBlackScreenAction",
        "type": "SIMPLE_BLACK_SCREEN",
        "durationToBlack": 0.5,
        "durationKeepBlack": 1.0,
        "durationFromBlack": 0.5,
        "textMapID": ""
      },
      {
        "$type": "MoleMole.Config.ConfigTimeProtectAction",
        "type": "TIME_PROTECT",
        "duration": 1.0
      },
      {
        "$type": "FJKIHHKJLMJ",
        "type": "CAMERA_MOVE",
        "delayTime": 0.550000011920929,
        "duration": 0.10000000149011612,
        "actionId": 119,
        "camPosOffset": {
          "x": 694.833984375,
          "y": 75.78600311279297,
          "z": -118.38200378417969
        },
        "camForwardTargetOffset": {
          "x": 694.8319702148438,
          "y": 75.31300354003906,
          "z": -117.5009994506836
        },
        "lerpPattern": 6,
        "cameraBlendType": "EaseInOutCubic",
        "NJBNNOMLKCK": {},
        "needZAxisRotate": true,
        "openCameraDither": false,
        "targetNpcAlias": "",
        "closeTreeLeafDither": true,
        "KJOEFBPOIIH": "",
        "IICFKKEBIEC": "",
        "EGEHEJEBLBJ": ""
      }
    ]
  ],
  "groupId": [
    {
      "grpId": 2695992403,
      "nextGrpId": 2695992404
    },
    {
      "index": 1,
      "grpId": 2695992404,
      "nextGrpId": 2695992405
    },
    {
      "index": 2,
      "grpId": 2695992405,
      "nextGrpId": 2695992406
    },
    {
      "index": 3,
      "grpId": 2695992406,
      "nextGrpId": 2695992407
    }
  ]
}