[
  {
    "areaName": "Scene20195_Block20195_1",
    "shortID": 3689321863,
    "HOKBOMCOPGN": [
      {
        "$type": "OEPDHPAFADK",
        "shortID": 201950101,
        "EAKBINKIDBN": {
          "x": 522.957763671875,
          "y": -135.575439453125,
          "z": 211.29312133789062
        },
        "DBCGPLKDEHB": {
          "x": 1058.868408203125,
          "y": 136.43399047851562,
          "z": 728.367919921875
        },
        "points": [
          {
            "x": 1058.8682861328125,
            "y": -135.575439453125,
            "z": 245.12152099609375
          },
          {
            "x": 1056.882080078125,
            "y": -135.575439453125,
            "z": 605.9688110351562
          },
          {
            "x": 943.7787475585938,
            "y": -135.575439453125,
            "z": 728.367919921875
          },
          {
            "x": 543.949951171875,
            "y": -135.575439453125,
            "z": 690.2413330078125
          },
          {
            "x": 522.9577026367188,
            "y": -135.575439453125,
            "z": 442.4309997558594
          },
          {
            "x": 623.0645751953125,
            "y": -135.575439453125,
            "z": 256.46429443359375
          },
          {
            "x": 812.7843017578125,
            "y": -135.575439453125,
            "z": 211.29312133789062
          }
        ],
        "yMin": -135.575439453125,
        "yMax": 136.43399047851562
      }
    ],
    "enterActions": [
      {
        "action": {
          "$type": "PLOIDABAOED",
          "stateGroup": {
            "text": "StateGroup_CaveAux"
          },
          "stateValue": {
            "text": "State_EnterCave"
          }
        }
      }
    ],
    "KGDAOJHBFAK": [
      {
        "action": {
          "$type": "PLOIDABAOED",
          "stateGroup": {
            "text": "StateGroup_CaveAux"
          },
          "stateValue": {
            "text": "None"
          }
        }
      }
    ]
  }
]