[
  {
    "areaName": "Scene35958_Block35958_1",
    "shortID": 1425226325,
    "HOKBOMCOPGN": [
      {
        "$type": "BODODGCAAIA",
        "shortID": 359580101,
        "EAKBINKIDBN": {
          "x": -2659.93310546875,
          "y": 157.757568359375,
          "z": -3875.050048828125
        },
        "DBCGPLKDEHB": {
          "x": -2489.86767578125,
          "y": 242.6064453125,
          "z": -3704.984619140625
        },
        "AHFNLMGMIMD": {
          "x": -2574.900390625,
          "y": 200.1820068359375,
          "z": -3790.017333984375
        },
        "PPPDJGDDOGD": {
          "x": 170.06524658203125,
          "y": 84.848876953125,
          "z": 170.06524658203125
        }
      }
    ],
    "enterActions": [
      {
        "predicate": {
          "$type": "NCNFJKFJLKG"
        },
        "action": {
          "$type": "GNLADMLKGDO",
          "eventName": {
            "text": "Play_Amb_DaoQi_LiDao_CopyWorld"
          }
        }
      }
    ],
    "KGDAOJHBFAK": [
      {
        "predicate": {
          "$type": "NCNFJKFJLKG"
        },
        "action": {
          "$type": "GNLADMLKGDO",
          "eventName": {
            "text": "Stop_Amb_DaoQi_LiDao_CopyWorld"
          }
        }
      }
    ]
  }
]