[
  {
    "areaName": "Scene20224_Block20224_1",
    "shortID": 1885619245,
    "KEPECHPMHPG": [
      {
        "$type": "PMGMIDNNBPE",
        "shortID": 202240101,
        "CAOFHPPODBD": {
          "x": -1261.720947265625,
          "y": 45.419189453125,
          "z": 2495.3720703125
        },
        "DMMFBJDAKAC": {
          "x": -735.0614013671875,
          "y": 551.6729125976562,
          "z": 2917.4716796875
        },
        "points": [
          {
            "x": -883.8591918945312,
            "y": 45.419189453125,
            "z": 2894.4248046875
          },
          {
            "x": -1076.41845703125,
            "y": 45.419189453125,
            "z": 2917.471435546875
          },
          {
            "x": -1203.62841796875,
            "y": 45.419189453125,
            "z": 2838.36962890625
          },
          {
            "x": -1261.7210693359375,
            "y": 45.419189453125,
            "z": 2596.542724609375
          },
          {
            "x": -1042.465087890625,
            "y": 45.419189453125,
            "z": 2495.372314453125
          },
          {
            "x": -751.9998168945312,
            "y": 45.419189453125,
            "z": 2589.835693359375
          },
          {
            "x": -735.0614013671875,
            "y": 45.419189453125,
            "z": 2851.886962890625
          }
        ],
        "yMin": 45.419189453125,
        "yMax": 551.6729125976562
      }
    ],
    "GEDBCEGNPPO": [
      {
        "predicate": {
          "$type": "FONJFNHALLK"
        },
        "action": {
          "$type": "PNONJNHKNEN",
          "eventName": {
            "text": "Play_Amb_XuMi_WeiMoZhuang_CopyWorld"
          }
        }
      },
      {
        "action": {
          "$type": "CFBFKGOANBM",
          "key": "1885619245",
          "stateGroup": {
            "text": "StateGroup_gameZones"
          },
          "FIBMHBBOGCA": {
            "text": "State_FD47_ShuangZiXianBW"
          },
          "BDEOAEBGADA": {
            "text": "None"
          }
        }
      }
    ],
    "FLEDPIEHCPH": [
      {
        "predicate": {
          "$type": "FONJFNHALLK"
        },
        "action": {
          "$type": "PNONJNHKNEN",
          "eventName": {
            "text": "Stop_Amb_XuMi_WeiMoZhuang_CopyWorld"
          }
        }
      },
      {
        "action": {
          "$type": "DHDBBPJDMKF",
          "key": "1885619245",
          "stateGroup": {
            "text": "StateGroup_gameZones"
          }
        }
      }
    ]
  }
]