[
  {
    "areaName": "Scene20188_Block20188_1",
    "shortID": 3725615251,
    "HOKBOMCOPGN": [
      {
        "$type": "OEPDHPAFADK",
        "shortID": 201880101,
        "EAKBINKIDBN": {
          "x": 4337.08203125,
          "y": 115.83929443359375,
          "z": 4486.048828125
        },
        "DBCGPLKDEHB": {
          "x": 4514.0859375,
          "y": 228.24127197265625,
          "z": 4731.90234375
        },
        "points": [
          {
            "x": 4382.482421875,
            "y": 115.83929443359375,
            "z": 4656.18310546875
          },
          {
            "x": 4377.48095703125,
            "y": 115.83929443359375,
            "z": 4632.5859375
          },
          {
            "x": 4337.08203125,
            "y": 115.83929443359375,
            "z": 4624.82958984375
          },
          {
            "x": 4343.15625,
            "y": 115.83929443359375,
            "z": 4591.8154296875
          },
          {
            "x": 4384.69384765625,
            "y": 115.83929443359375,
            "z": 4602.3828125
          },
          {
            "x": 4400.3837890625,
            "y": 115.83929443359375,
            "z": 4581.20751953125
          },
          {
            "x": 4420.7841796875,
            "y": 115.83929443359375,
            "z": 4568.11474609375
          },
          {
            "x": 4404.55810546875,
            "y": 115.83929443359375,
            "z": 4537.345703125
          },
          {
            "x": 4377.83837890625,
            "y": 115.83929443359375,
            "z": 4527.41796875
          },
          {
            "x": 4386.1025390625,
            "y": 115.83929443359375,
            "z": 4486.04931640625
          },
          {
            "x": 4456.20751953125,
            "y": 115.83929443359375,
            "z": 4499.34765625
          },
          {
            "x": 4464.826171875,
            "y": 115.83929443359375,
            "z": 4497.79931640625
          },
          {
            "x": 4481.44775390625,
            "y": 115.83929443359375,
            "z": 4518.6357421875
          },
          {
            "x": 4474.62353515625,
            "y": 115.83929443359375,
            "z": 4568.74658203125
          },
          {
            "x": 4495.47265625,
            "y": 115.83929443359375,
            "z": 4583.314453125
          },
          {
            "x": 4509.0693359375,
            "y": 115.83929443359375,
            "z": 4604.47998046875
          },
          {
            "x": 4514.08642578125,
            "y": 115.83929443359375,
            "z": 4631.42578125
          },
          {
            "x": 4506.9677734375,
            "y": 115.83929443359375,
            "z": 4656.7890625
          },
          {
            "x": 4493.1083984375,
            "y": 115.83929443359375,
            "z": 4677.826171875
          },
          {
            "x": 4469.47998046875,
            "y": 115.83929443359375,
            "z": 4693.92724609375
          },
          {
            "x": 4448.49462890625,
            "y": 115.83929443359375,
            "z": 4697.3310546875
          },
          {
            "x": 4440.76416015625,
            "y": 115.83929443359375,
            "z": 4731.90234375
          },
          {
            "x": 4406.146484375,
            "y": 115.83929443359375,
            "z": 4725.60302734375
          },
          {
            "x": 4416.08740234375,
            "y": 115.83929443359375,
            "z": 4688.578125
          },
          {
            "x": 4397.67919921875,
            "y": 115.83929443359375,
            "z": 4678.5986328125
          }
        ],
        "yMin": 115.83929443359375,
        "yMax": 228.24127197265625
      }
    ],
    "enterActions": [
      {
        "action": {
          "$type": "PLOIDABAOED",
          "stateGroup": {
            "text": "StateGroup_Custom_Area"
          },
          "stateValue": {
            "text": "In_Custom_Area"
          }
        }
      },
      {
        "action": {
          "$type": "GNLADMLKGDO",
          "eventName": {
            "text": "Play_Amb_FD41_Underground_FirstFloor"
          }
        }
      }
    ],
    "KGDAOJHBFAK": [
      {
        "action": {
          "$type": "GNLADMLKGDO",
          "eventName": {
            "text": "Stop_Amb_FD41_Underground_FirstFloor"
          }
        }
      },
      {
        "action": {
          "$type": "PLOIDABAOED",
          "stateGroup": {
            "text": "StateGroup_Custom_Area"
          },
          "stateValue": {
            "text": "Out_Custom_Area"
          }
        }
      }
    ],
    "GKCNOKHIBHJ": [
      {
        "predicate": {
          "$type": "OLFKHCCDMJK",
          "num": 8
        },
        "action": {
          "$type": "PECNMJHHKAA",
          "FGJFAFOBDJB": true,
          "rtpcKey": {
            "text": "Param_amb_crowdsdensity"
          },
          "points": [
            {
              "x": 4471.77001953125,
              "y": 122.197998046875,
              "z": 4667.14990234375
            },
            {
              "x": 4488.9599609375,
              "y": 122.65979766845703,
              "z": 4599.81982421875
            },
            {
              "x": 4466.4580078125,
              "y": 123.37899780273438,
              "z": 4552.65283203125
            },
            {
              "x": 4392.58984375,
              "y": 122.79299926757812,
              "z": 4636.83984375
            }
          ],
          "maxValue": 80.0
        }
      }
    ]
  },
  {
    "areaName": "Scene20188_Block20188_2",
    "shortID": 3725615248,
    "HOKBOMCOPGN": [
      {
        "$type": "OEPDHPAFADK",
        "shortID": 201880201,
        "EAKBINKIDBN": {
          "x": 4367.1064453125,
          "y": 0.1249237060546875,
          "z": 4517.05859375
        },
        "DBCGPLKDEHB": {
          "x": 4558.236328125,
          "y": 81.958251953125,
          "z": 4714.5087890625
        },
        "points": [
          {
            "x": 4448.7197265625,
            "y": 0.12492561340332031,
            "z": 4698.59521484375
          },
          {
            "x": 4445.68212890625,
            "y": 0.12492561340332031,
            "z": 4714.50830078125
          },
          {
            "x": 4413.56591796875,
            "y": 0.12492561340332031,
            "z": 4705.0400390625
          },
          {
            "x": 4414.72900390625,
            "y": 0.12492561340332031,
            "z": 4692.94482421875
          },
          {
            "x": 4396.75,
            "y": 0.12492561340332031,
            "z": 4682.7099609375
          },
          {
            "x": 4367.10693359375,
            "y": 0.12492561340332031,
            "z": 4678.1708984375
          },
          {
            "x": 4380.1396484375,
            "y": 0.12492561340332031,
            "z": 4649.5703125
          },
          {
            "x": 4375.78662109375,
            "y": 0.12492561340332031,
            "z": 4629.18408203125
          },
          {
            "x": 4381.19287109375,
            "y": 0.12492561340332031,
            "z": 4601.8701171875
          },
          {
            "x": 4394.1611328125,
            "y": 0.12492561340332031,
            "z": 4577.81298828125
          },
          {
            "x": 4397.11865234375,
            "y": 0.12492561340332031,
            "z": 4557.07080078125
          },
          {
            "x": 4423.76708984375,
            "y": 0.12492561340332031,
            "z": 4561.70556640625
          },
          {
            "x": 4448.3427734375,
            "y": 0.12492561340332031,
            "z": 4517.05859375
          },
          {
            "x": 4488.98828125,
            "y": 0.12492561340332031,
            "z": 4523.65478515625
          },
          {
            "x": 4478.0224609375,
            "y": 0.12492561340332031,
            "z": 4568.55126953125
          },
          {
            "x": 4515.5390625,
            "y": 0.12492561340332031,
            "z": 4579.7919921875
          },
          {
            "x": 4558.236328125,
            "y": 0.12492561340332031,
            "z": 4637.0556640625
          },
          {
            "x": 4553.8505859375,
            "y": 0.12492561340332031,
            "z": 4668.2138671875
          },
          {
            "x": 4507.43115234375,
            "y": 0.12492561340332031,
            "z": 4659.79443359375
          },
          {
            "x": 4492.80712890625,
            "y": 0.12492561340332031,
            "z": 4699.111328125
          }
        ],
        "yMin": 0.12492561340332031,
        "yMax": 81.958251953125
      }
    ],
    "enterActions": [
      {
        "action": {
          "$type": "PLOIDABAOED",
          "stateGroup": {
            "text": "StateGroup_Custom_Area"
          },
          "stateValue": {
            "text": "In_Custom_Area"
          }
        }
      },
      {
        "action": {
          "$type": "GNLADMLKGDO",
          "eventName": {
            "text": "Play_Amb_FD41_Underground_SecondFloor"
          }
        }
      }
    ],
    "KGDAOJHBFAK": [
      {
        "action": {
          "$type": "GNLADMLKGDO",
          "eventName": {
            "text": "Stop_Amb_FD41_Underground_SecondFloor"
          }
        }
      },
      {
        "action": {
          "$type": "PLOIDABAOED",
          "stateGroup": {
            "text": "StateGroup_Custom_Area"
          },
          "stateValue": {
            "text": "Out_Custom_Area"
          }
        }
      }
    ]
  },
  {
    "areaName": "Scene20188_Block20188_3",
    "shortID": 3725615249,
    "HOKBOMCOPGN": [
      {
        "$type": "OEPDHPAFADK",
        "shortID": 201880301,
        "EAKBINKIDBN": {
          "x": 4326.955078125,
          "y": 137.68887329101562,
          "z": 4715.7509765625
        },
        "DBCGPLKDEHB": {
          "x": 4488.10546875,
          "y": 254.8470458984375,
          "z": 4853.5654296875
        },
        "points": [
          {
            "x": 4486.205078125,
            "y": 137.68887329101562,
            "z": 4745.9755859375
          },
          {
            "x": 4474.57861328125,
            "y": 137.68887329101562,
            "z": 4715.75146484375
          },
          {
            "x": 4455.82373046875,
            "y": 137.68887329101562,
            "z": 4722.56787109375
          },
          {
            "x": 4460.39111328125,
            "y": 137.68887329101562,
            "z": 4746.099609375
          },
          {
            "x": 4410.2431640625,
            "y": 137.68887329101562,
            "z": 4741.51904296875
          },
          {
            "x": 4392.443359375,
            "y": 137.68887329101562,
            "z": 4723.25732421875
          },
          {
            "x": 4364.49365234375,
            "y": 137.68887329101562,
            "z": 4716.08056640625
          },
          {
            "x": 4346.81591796875,
            "y": 137.68887329101562,
            "z": 4716.22412109375
          },
          {
            "x": 4337.6923828125,
            "y": 137.68887329101562,
            "z": 4719.671875
          },
          {
            "x": 4326.955078125,
            "y": 137.68887329101562,
            "z": 4758.173828125
          },
          {
            "x": 4331.58984375,
            "y": 137.68887329101562,
            "z": 4804.65478515625
          },
          {
            "x": 4331.58984375,
            "y": 137.68887329101562,
            "z": 4853.25732421875
          },
          {
            "x": 4385.447265625,
            "y": 137.68887329101562,
            "z": 4853.56494140625
          },
          {
            "x": 4435.90087890625,
            "y": 137.68887329101562,
            "z": 4853.56494140625
          },
          {
            "x": 4488.10595703125,
            "y": 137.68887329101562,
            "z": 4847.86328125
          }
        ],
        "yMin": 137.68887329101562,
        "yMax": 254.8470458984375
      }
    ],
    "enterActions": [
      {
        "action": {
          "$type": "PLOIDABAOED",
          "stateGroup": {
            "text": "StateGroup_Custom_Area"
          },
          "stateValue": {
            "text": "In_Custom_Area"
          }
        }
      },
      {
        "action": {
          "$type": "GNLADMLKGDO",
          "eventName": {
            "text": "Play_Amb_FD41_Underground_Exit"
          }
        }
      }
    ],
    "KGDAOJHBFAK": [
      {
        "action": {
          "$type": "PLOIDABAOED",
          "stateGroup": {
            "text": "StateGroup_Custom_Area"
          },
          "stateValue": {
            "text": "Out_Custom_Area"
          }
        }
      },
      {
        "action": {
          "$type": "GNLADMLKGDO",
          "eventName": {
            "text": "Stop_Amb_FD41_Underground_Exit"
          }
        }
      }
    ]
  },
  {
    "areaName": "Scene20188_Block20188_4",
    "shortID": 3725615254,
    "HOKBOMCOPGN": [
      {
        "$type": "BODODGCAAIA",
        "shortID": 201880401,
        "EAKBINKIDBN": {
          "x": 4348.06640625,
          "y": 128.06317138671875,
          "z": 4604.19287109375
        },
        "DBCGPLKDEHB": {
          "x": 4362.3828125,
          "y": 155.48211669921875,
          "z": 4618.50927734375
        },
        "AHFNLMGMIMD": {
          "x": 4355.224609375,
          "y": 141.77264404296875,
          "z": 4611.35107421875
        },
        "PPPDJGDDOGD": {
          "x": 14.316365242004395,
          "y": 27.418935775756836,
          "z": 14.316365242004395
        }
      },
      {
        "$type": "OEPDHPAFADK",
        "shortID": 201880402,
        "EAKBINKIDBN": {
          "x": 4420.7705078125,
          "y": 107.8789291381836,
          "z": 4714.134765625
        },
        "DBCGPLKDEHB": {
          "x": 4434.2392578125,
          "y": 123.6933364868164,
          "z": 4727.146484375
        },
        "points": [
          {
            "x": 4424.43896484375,
            "y": 107.8789291381836,
            "z": 4715.04638671875
          },
          {
            "x": 4426.33154296875,
            "y": 107.8789291381836,
            "z": 4714.35205078125
          },
          {
            "x": 4428.25537109375,
            "y": 107.8789291381836,
            "z": 4714.13427734375
          },
          {
            "x": 4430.0205078125,
            "y": 107.8789291381836,
            "z": 4714.56884765625
          },
          {
            "x": 4432.02783203125,
            "y": 107.8789291381836,
            "z": 4715.693359375
          },
          {
            "x": 4433.69384765625,
            "y": 107.8789291381836,
            "z": 4717.85302734375
          },
          {
            "x": 4434.23974609375,
            "y": 107.8789291381836,
            "z": 4719.7109375
          },
          {
            "x": 4434.169921875,
            "y": 107.8789291381836,
            "z": 4721.78369140625
          },
          {
            "x": 4433.38671875,
            "y": 107.8789291381836,
            "z": 4723.75341796875
          },
          {
            "x": 4432.119140625,
            "y": 107.8789291381836,
            "z": 4725.33837890625
          },
          {
            "x": 4430.66650390625,
            "y": 107.8789291381836,
            "z": 4726.56298828125
          },
          {
            "x": 4428.61083984375,
            "y": 107.8789291381836,
            "z": 4727.1142578125
          },
          {
            "x": 4426.35400390625,
            "y": 107.8789291381836,
            "z": 4727.146484375
          },
          {
            "x": 4424.6162109375,
            "y": 107.8789291381836,
            "z": 4726.4365234375
          },
          {
            "x": 4422.869140625,
            "y": 107.8789291381836,
            "z": 4725.083984375
          },
          {
            "x": 4421.6025390625,
            "y": 107.8789291381836,
            "z": 4723.56494140625
          },
          {
            "x": 4420.7705078125,
            "y": 107.8789291381836,
            "z": 4721.08984375
          },
          {
            "x": 4421.0947265625,
            "y": 107.8789291381836,
            "z": 4719.29638671875
          },
          {
            "x": 4421.71875,
            "y": 107.8789291381836,
            "z": 4717.431640625
          },
          {
            "x": 4423.46044921875,
            "y": 107.8789291381836,
            "z": 4715.74365234375
          }
        ],
        "yMin": 107.8789291381836,
        "yMax": 123.6933364868164
      }
    ],
    "enterActions": [
      {
        "action": {
          "$type": "GNLADMLKGDO",
          "eventName": {
            "text": "Play_Set_crowds_volume"
          }
        }
      }
    ],
    "KGDAOJHBFAK": [
      {
        "action": {
          "$type": "GNLADMLKGDO",
          "eventName": {
            "text": "Stop_Reset_crowds_volume"
          }
        }
      }
    ]
  },
  {
    "areaName": "Scene20188_Block20188_5",
    "shortID": 3725615255,
    "HOKBOMCOPGN": [
      {
        "$type": "OEPDHPAFADK",
        "shortID": 201880501,
        "EAKBINKIDBN": {
          "x": 4053.6689453125,
          "y": -97.96099853515625,
          "z": 4101.4833984375
        },
        "DBCGPLKDEHB": {
          "x": 5132.2861328125,
          "y": 272.13671875,
          "z": 5209.76171875
        },
        "points": [
          {
            "x": 5035.29833984375,
            "y": -97.96099853515625,
            "z": 4895.82177734375
          },
          {
            "x": 5132.2861328125,
            "y": -97.96099853515625,
            "z": 4539.96875
          },
          {
            "x": 5029.72998046875,
            "y": -97.96099853515625,
            "z": 4368.7705078125
          },
          {
            "x": 4837.44140625,
            "y": -97.96099853515625,
            "z": 4248.16015625
          },
          {
            "x": 4562.79736328125,
            "y": -97.96099853515625,
            "z": 4204.94921875
          },
          {
            "x": 4343.6923828125,
            "y": -97.96099853515625,
            "z": 4101.4833984375
          },
          {
            "x": 4178.44189453125,
            "y": -97.96099853515625,
            "z": 4183.404296875
          },
          {
            "x": 4096.0,
            "y": -97.96099853515625,
            "z": 4314.34130859375
          },
          {
            "x": 4053.66943359375,
            "y": -97.96099853515625,
            "z": 4506.8330078125
          },
          {
            "x": 4096.0,
            "y": -97.96099853515625,
            "z": 4673.93701171875
          },
          {
            "x": 4121.197265625,
            "y": -97.96099853515625,
            "z": 5038.91845703125
          },
          {
            "x": 4409.7646484375,
            "y": -97.96099853515625,
            "z": 5209.76171875
          },
          {
            "x": 4794.2783203125,
            "y": -97.96099853515625,
            "z": 5173.0478515625
          },
          {
            "x": 5000.87451171875,
            "y": -97.96099853515625,
            "z": 5090.44775390625
          }
        ],
        "yMin": -97.96099853515625,
        "yMax": 272.13671875
      },
      {
        "$type": "OEPDHPAFADK",
        "shortID": 201880502,
        "EAKBINKIDBN": {
          "x": 4795.37890625,
          "y": 260.34027099609375,
          "z": 4357.232421875
        },
        "DBCGPLKDEHB": {
          "x": 5051.716796875,
          "y": 435.77471923828125,
          "z": 4586.6435546875
        },
        "points": [
          {
            "x": 4795.37841796875,
            "y": 260.3402404785156,
            "z": 4540.0498046875
          },
          {
            "x": 4812.890625,
            "y": 260.3402404785156,
            "z": 4384.78466796875
          },
          {
            "x": 4878.70947265625,
            "y": 260.3402404785156,
            "z": 4357.232421875
          },
          {
            "x": 4997.900390625,
            "y": 260.3402404785156,
            "z": 4375.337890625
          },
          {
            "x": 5051.71630859375,
            "y": 260.3402404785156,
            "z": 4485.01171875
          },
          {
            "x": 4999.97216796875,
            "y": 260.3402404785156,
            "z": 4573.17919921875
          },
          {
            "x": 4927.6044921875,
            "y": 260.3402404785156,
            "z": 4586.6435546875
          }
        ],
        "yMin": 260.3402404785156,
        "yMax": 435.77471923828125
      },
      {
        "$type": "OEPDHPAFADK",
        "shortID": 201880503,
        "EAKBINKIDBN": {
          "x": 4948.4052734375,
          "y": 444.650634765625,
          "z": 4344.642578125
        },
        "DBCGPLKDEHB": {
          "x": 5060.1435546875,
          "y": 504.3321533203125,
          "z": 4451.8271484375
        },
        "points": [
          {
            "x": 4996.07421875,
            "y": 444.6506652832031,
            "z": 4451.8271484375
          },
          {
            "x": 5060.1435546875,
            "y": 444.6506652832031,
            "z": 4403.9755859375
          },
          {
            "x": 5033.2314453125,
            "y": 444.6506652832031,
            "z": 4364.16162109375
          },
          {
            "x": 5005.34130859375,
            "y": 444.6506652832031,
            "z": 4344.642578125
          },
          {
            "x": 4948.611328125,
            "y": 444.6506652832031,
            "z": 4368.27587890625
          },
          {
            "x": 4948.40576171875,
            "y": 444.6506652832031,
            "z": 4414.5380859375
          },
          {
            "x": 4967.8349609375,
            "y": 444.6506652832031,
            "z": 4443.10888671875
          }
        ],
        "yMin": 444.6506652832031,
        "yMax": 504.3321533203125
      },
      {
        "$type": "OEPDHPAFADK",
        "shortID": 201880504,
        "EAKBINKIDBN": {
          "x": 4277.9580078125,
          "y": 250.2761688232422,
          "z": 4410.6513671875
        },
        "DBCGPLKDEHB": {
          "x": 4459.8720703125,
          "y": 391.24835205078125,
          "z": 4557.4609375
        },
        "points": [
          {
            "x": 4356.86865234375,
            "y": 250.27615356445312,
            "z": 4498.9130859375
          },
          {
            "x": 4303.94189453125,
            "y": 250.27615356445312,
            "z": 4410.6513671875
          },
          {
            "x": 4277.9580078125,
            "y": 250.27615356445312,
            "z": 4431.330078125
          },
          {
            "x": 4330.8388671875,
            "y": 250.27615356445312,
            "z": 4507.80029296875
          },
          {
            "x": 4323.1767578125,
            "y": 250.27615356445312,
            "z": 4524.29345703125
          },
          {
            "x": 4335.58203125,
            "y": 250.27615356445312,
            "z": 4546.20068359375
          },
          {
            "x": 4350.8623046875,
            "y": 250.27615356445312,
            "z": 4553.92041015625
          },
          {
            "x": 4370.98828125,
            "y": 250.27615356445312,
            "z": 4557.4609375
          },
          {
            "x": 4391.20654296875,
            "y": 250.27615356445312,
            "z": 4543.81494140625
          },
          {
            "x": 4395.6748046875,
            "y": 250.27615356445312,
            "z": 4518.60546875
          },
          {
            "x": 4415.56591796875,
            "y": 250.27615356445312,
            "z": 4511.4150390625
          },
          {
            "x": 4436.896484375,
            "y": 250.27615356445312,
            "z": 4514.17041015625
          },
          {
            "x": 4459.8720703125,
            "y": 250.27615356445312,
            "z": 4499.630859375
          },
          {
            "x": 4422.68212890625,
            "y": 250.27615356445312,
            "z": 4449.7578125
          },
          {
            "x": 4398.6630859375,
            "y": 250.27615356445312,
            "z": 4465.087890625
          },
          {
            "x": 4399.5849609375,
            "y": 250.27615356445312,
            "z": 4479.9638671875
          },
          {
            "x": 4397.76416015625,
            "y": 250.27615356445312,
            "z": 4488.9326171875
          },
          {
            "x": 4396.27294921875,
            "y": 250.27615356445312,
            "z": 4492.2998046875
          },
          {
            "x": 4385.32177734375,
            "y": 250.27615356445312,
            "z": 4500.2490234375
          },
          {
            "x": 4380.52294921875,
            "y": 250.27615356445312,
            "z": 4505.4755859375
          },
          {
            "x": 4376.37255859375,
            "y": 250.27615356445312,
            "z": 4500.30029296875
          }
        ],
        "yMin": 250.27615356445312,
        "yMax": 391.24835205078125
      },
      {
        "$type": "BODODGCAAIA",
        "shortID": 201880505,
        "EAKBINKIDBN": {
          "x": 4957.5205078125,
          "y": 376.033203125,
          "z": 4374.6376953125
        },
        "DBCGPLKDEHB": {
          "x": 5031.3818359375,
          "y": 508.24359130859375,
          "z": 4448.498046875
        },
        "AHFNLMGMIMD": {
          "x": 4994.451171875,
          "y": 442.1383972167969,
          "z": 4411.56787109375
        },
        "PPPDJGDDOGD": {
          "x": 73.86083984375,
          "y": 132.2104034423828,
          "z": 73.86083984375
        }
      }
    ],
    "enterActions": [
      {
        "action": {
          "$type": "PLOIDABAOED",
          "stateGroup": {
            "text": "StateGroup_CaveAux"
          },
          "stateValue": {
            "text": "State_EnterCave"
          }
        }
      },
      {
        "action": {
          "$type": "GNLADMLKGDO",
          "eventName": {
            "text": "Play_Amb_FD41_UnderWater_Cave"
          }
        }
      },
      {
        "action": {
          "$type": "OGACDKHLNFD",
          "auxBusName": {
            "text": "Aux_SM_Cave_Small"
          }
        }
      }
    ],
    "KGDAOJHBFAK": [
      {
        "action": {
          "$type": "PLOIDABAOED",
          "stateGroup": {
            "text": "StateGroup_CaveAux"
          },
          "stateValue": {
            "text": "State_LeaveCave"
          }
        }
      },
      {
        "action": {
          "$type": "GNLADMLKGDO",
          "eventName": {
            "text": "Stop_Amb_FD41_UnderWater_Cave"
          }
        }
      },
      {
        "action": {
          "$type": "FCLOHHIPCNJ"
        }
      }
    ]
  }
]