[
  {
    "areaName": "Scene100_Block910001_910001001",
    "shortID": 2560442256,
    "HOKBOMCOPGN": [
      {
        "$type": "NFNAGEOMKOD",
        "shortID": 510075509,
        "EAKBINKIDBN": {
          "x": 1337.308349609375,
          "y": 148.59005737304688,
          "z": 720.5859375
        },
        "DBCGPLKDEHB": {
          "x": 1482.99658203125,
          "y": 294.2783508300781,
          "z": 866.274169921875
        },
        "EJIMKGKHNKC": {
          "x": 1410.1524658203125,
          "y": 221.4342041015625,
          "z": 793.4300537109375
        },
        "radius": 72.8441390991211
      }
    ],
    "enterActions": [
      {
        "action": {
          "$type": "CHBDNIFOMFP",
          "key": "910001001",
          "stateGroup": {
            "text": "StateGroup_specialArea"
          },
          "DHEMBBGOPGK": {
            "text": "State_v48_XuYuanDao"
          },
          "LDPNGLJDIAB": {
            "text": "None"
          }
        }
      }
    ],
    "KGDAOJHBFAK": [
      {
        "action": {
          "$type": "MMBEGEFNDGA",
          "key": "910001001",
          "stateGroup": {
            "text": "StateGroup_specialArea"
          }
        }
      }
    ]
  },
  {
    "areaName": "Scene100_Block910001_910001002",
    "shortID": 2560442259,
    "HOKBOMCOPGN": [
      {
        "$type": "OEPDHPAFADK",
        "shortID": 510075609,
        "EAKBINKIDBN": {
          "x": 706.8792724609375,
          "y": 265.7577819824219,
          "z": 679.1455078125
        },
        "DBCGPLKDEHB": {
          "x": 796.5167236328125,
          "y": 284.2925720214844,
          "z": 789.661865234375
        },
        "points": [
          {
            "x": 782.0206298828125,
            "y": 265.7577819824219,
            "z": 691.2981567382812
          },
          {
            "x": 785.1910400390625,
            "y": 265.7577819824219,
            "z": 718.135009765625
          },
          {
            "x": 784.4833374023438,
            "y": 265.7577819824219,
            "z": 740.912353515625
          },
          {
            "x": 796.5166625976562,
            "y": 265.7577819824219,
            "z": 749.0477905273438
          },
          {
            "x": 793.08984375,
            "y": 265.7577819824219,
            "z": 769.6205444335938
          },
          {
            "x": 771.2911376953125,
            "y": 265.7577819824219,
            "z": 789.6619262695312
          },
          {
            "x": 740.9326171875,
            "y": 265.7577819824219,
            "z": 783.5387573242188
          },
          {
            "x": 716.7232055664062,
            "y": 265.7577819824219,
            "z": 779.102294921875
          },
          {
            "x": 706.8792724609375,
            "y": 265.7577819824219,
            "z": 767.4130859375
          },
          {
            "x": 708.9359130859375,
            "y": 265.7577819824219,
            "z": 711.7460327148438
          },
          {
            "x": 760.4239501953125,
            "y": 265.7577819824219,
            "z": 679.1455078125
          }
        ],
        "yMin": 265.7577819824219,
        "yMax": 284.2925720214844
      }
    ],
    "enterActions": [
      {
        "action": {
          "$type": "CHBDNIFOMFP",
          "key": "910001002",
          "stateGroup": {
            "text": "StateGroup_specialArea"
          },
          "DHEMBBGOPGK": {
            "text": "State_v48_LongDong"
          },
          "LDPNGLJDIAB": {
            "text": "None"
          }
        }
      },
      {
        "predicate": {
          "$type": "NCNFJKFJLKG"
        },
        "action": {
          "$type": "GNLADMLKGDO",
          "eventName": {
            "text": "Play_Amb_THS48_Cave_General"
          }
        }
      },
      {
        "predicate": {
          "$type": "NCNFJKFJLKG"
        },
        "action": {
          "$type": "OGACDKHLNFD",
          "auxBusName": {
            "text": "Aux_SM_Cave_Small"
          }
        }
      }
    ],
    "KGDAOJHBFAK": [
      {
        "action": {
          "$type": "MMBEGEFNDGA",
          "key": "910001002",
          "stateGroup": {
            "text": "StateGroup_specialArea"
          }
        }
      },
      {
        "predicate": {
          "$type": "NCNFJKFJLKG"
        },
        "action": {
          "$type": "FCLOHHIPCNJ"
        }
      },
      {
        "predicate": {
          "$type": "NCNFJKFJLKG"
        },
        "action": {
          "$type": "GNLADMLKGDO",
          "eventName": {
            "text": "Stop_Amb_THS48_Cave_General"
          }
        }
      }
    ]
  },
  {
    "areaName": "Scene100_Block910001_910001003",
    "shortID": 2560442258,
    "HOKBOMCOPGN": [
      {
        "$type": "OEPDHPAFADK",
        "shortID": 510075709,
        "EAKBINKIDBN": {
          "x": 354.553466796875,
          "y": 473.6143798828125,
          "z": 151.97006225585938
        },
        "DBCGPLKDEHB": {
          "x": 379.8643798828125,
          "y": 492.832275390625,
          "z": 181.29193115234375
        },
        "points": [
          {
            "x": 354.553466796875,
            "y": 473.6143798828125,
            "z": 172.8945770263672
          },
          {
            "x": 365.83367919921875,
            "y": 473.6143798828125,
            "z": 158.10385131835938
          },
          {
            "x": 371.7771911621094,
            "y": 473.6143798828125,
            "z": 151.97007751464844
          },
          {
            "x": 379.8643798828125,
            "y": 473.6143798828125,
            "z": 159.04913330078125
          },
          {
            "x": 373.1860046386719,
            "y": 473.6143798828125,
            "z": 166.24339294433594
          },
          {
            "x": 373.1782531738281,
            "y": 473.6143798828125,
            "z": 171.13897705078125
          },
          {
            "x": 362.99127197265625,
            "y": 473.6143798828125,
            "z": 181.29193115234375
          }
        ],
        "yMin": 473.6143798828125,
        "yMax": 492.8323059082031
      },
      {
        "$type": "OEPDHPAFADK",
        "shortID": 510075710,
        "EAKBINKIDBN": {
          "x": 309.788330078125,
          "y": 473.8687744140625,
          "z": 186.14599609375
        },
        "DBCGPLKDEHB": {
          "x": 351.6324462890625,
          "y": 497.72021484375,
          "z": 223.01089477539062
        },
        "points": [
          {
            "x": 351.6324462890625,
            "y": 473.8687744140625,
            "z": 192.93544006347656
          },
          {
            "x": 344.43359375,
            "y": 473.8687744140625,
            "z": 186.14599609375
          },
          {
            "x": 337.3331298828125,
            "y": 473.8687744140625,
            "z": 190.54843139648438
          },
          {
            "x": 328.82470703125,
            "y": 473.8687744140625,
            "z": 186.5171661376953
          },
          {
            "x": 309.788330078125,
            "y": 473.8687744140625,
            "z": 208.3926239013672
          },
          {
            "x": 324.09149169921875,
            "y": 473.8687744140625,
            "z": 223.01089477539062
          }
        ],
        "yMin": 473.8687744140625,
        "yMax": 497.7201843261719
      },
      {
        "$type": "OEPDHPAFADK",
        "shortID": 510075711,
        "EAKBINKIDBN": {
          "x": 329.53271484375,
          "y": 463.26953125,
          "z": 176.46237182617188
        },
        "DBCGPLKDEHB": {
          "x": 344.369384765625,
          "y": 538.2252197265625,
          "z": 190.67074584960938
        },
        "points": [
          {
            "x": 337.214599609375,
            "y": 463.2695617675781,
            "z": 190.67074584960938
          },
          {
            "x": 344.3693542480469,
            "y": 463.2695617675781,
            "z": 183.38986206054688
          },
          {
            "x": 336.7487487792969,
            "y": 463.2695617675781,
            "z": 176.4623565673828
          },
          {
            "x": 329.5327453613281,
            "y": 463.2695617675781,
            "z": 184.503173828125
          }
        ],
        "yMin": 463.2695617675781,
        "yMax": 538.2252197265625
      }
    ],
    "enterActions": [
      {
        "predicate": {
          "$type": "NCNFJKFJLKG"
        },
        "action": {
          "$type": "GNLADMLKGDO",
          "eventName": {
            "text": "Play_Amb_THS48_FTC_Indoor"
          }
        }
      }
    ],
    "KGDAOJHBFAK": [
      {
        "predicate": {
          "$type": "NCNFJKFJLKG"
        },
        "action": {
          "$type": "GNLADMLKGDO",
          "eventName": {
            "text": "Stop_Amb_THS48_FTC_Indoor"
          }
        }
      }
    ]
  },
  {
    "areaName": "Scene100_Block910001_910001004",
    "shortID": 2560442261,
    "HOKBOMCOPGN": [
      {
        "$type": "OEPDHPAFADK",
        "shortID": 510075809,
        "EAKBINKIDBN": {
          "x": 886.0782470703125,
          "y": 222.8450469970703,
          "z": 758.638916015625
        },
        "DBCGPLKDEHB": {
          "x": 915.4156494140625,
          "y": 231.1638946533203,
          "z": 790.12060546875
        },
        "points": [
          {
            "x": 910.7615966796875,
            "y": 222.8450469970703,
            "z": 758.7179565429688
          },
          {
            "x": 886.0782470703125,
            "y": 222.8450469970703,
            "z": 758.638916015625
          },
          {
            "x": 887.5814208984375,
            "y": 222.8450469970703,
            "z": 788.5868530273438
          },
          {
            "x": 915.4155883789062,
            "y": 222.8450469970703,
            "z": 790.1206665039062
          }
        ],
        "yMin": 222.8450469970703,
        "yMax": 231.1638946533203
      }
    ],
    "enterActions": [
      {
        "predicate": {
          "$type": "NCNFJKFJLKG"
        },
        "action": {
          "$type": "GNLADMLKGDO",
          "eventName": {
            "text": "Set_Voice_Volume_Amb_THS48_JMKS_waterFall_huge"
          }
        }
      }
    ],
    "KGDAOJHBFAK": [
      {
        "predicate": {
          "$type": "NCNFJKFJLKG"
        },
        "action": {
          "$type": "GNLADMLKGDO",
          "eventName": {
            "text": "Reset_Voice_Volume_Amb_THS48_JMKS_waterFall_huge"
          }
        }
      }
    ]
  },
  {
    "areaName": "Scene100_Block910001_910001005",
    "shortID": 2560442260,
    "BDMBKLFJHDA": {
      "$type": "OKEEBMKNNJI",
      "logic": "AUDIO_LOGIC_TYPE_AND",
      "sceneTags": [
        1405
      ]
    },
    "HOKBOMCOPGN": [
      {
        "$type": "OEPDHPAFADK",
        "shortID": 510075909,
        "EAKBINKIDBN": {
          "x": 69.8934326171875,
          "y": 367.90838623046875,
          "z": -92.96195983886719
        },
        "DBCGPLKDEHB": {
          "x": 645.0350341796875,
          "y": 718.3961791992188,
          "z": 446.54827880859375
        },
        "points": [
          {
            "x": 152.2186737060547,
            "y": 367.9084167480469,
            "z": 339.7715148925781
          },
          {
            "x": 199.8333740234375,
            "y": 367.9084167480469,
            "z": 407.64697265625
          },
          {
            "x": 288.52001953125,
            "y": 367.9084167480469,
            "z": 446.5481872558594
          },
          {
            "x": 378.7635803222656,
            "y": 367.9084167480469,
            "z": 428.6675109863281
          },
          {
            "x": 470.22222900390625,
            "y": 367.9084167480469,
            "z": 427.2474365234375
          },
          {
            "x": 558.169677734375,
            "y": 367.9084167480469,
            "z": 350.61962890625
          },
          {
            "x": 636.5823364257812,
            "y": 367.9084167480469,
            "z": 246.01611328125
          },
          {
            "x": 645.0350952148438,
            "y": 367.9084167480469,
            "z": 139.5294952392578
          },
          {
            "x": 557.9049072265625,
            "y": 367.9084167480469,
            "z": 38.61705017089844
          },
          {
            "x": 482.0958557128906,
            "y": 367.9084167480469,
            "z": -22.96180534362793
          },
          {
            "x": 378.9561462402344,
            "y": 367.9084167480469,
            "z": -58.53169631958008
          },
          {
            "x": 271.5796203613281,
            "y": 367.9084167480469,
            "z": -92.96195983886719
          },
          {
            "x": 146.67572021484375,
            "y": 367.9084167480469,
            "z": -42.81743621826172
          },
          {
            "x": 82.29056549072266,
            "y": 367.9084167480469,
            "z": 33.677207946777344
          },
          {
            "x": 69.89344787597656,
            "y": 367.9084167480469,
            "z": 115.17863464355469
          },
          {
            "x": 107.92736053466797,
            "y": 367.9084167480469,
            "z": 291.69805908203125
          }
        ],
        "yMin": 367.9084167480469,
        "yMax": 718.3961791992188
      }
    ],
    "enterActions": [
      {
        "action": {
          "$type": "CHBDNIFOMFP",
          "key": "910001005",
          "stateGroup": {
            "text": "StateGroup_FaTiaoZhenWangCheng"
          },
          "DHEMBBGOPGK": {
            "text": "StateGroup_FaTiaoZhenWangCheng_S01"
          },
          "LDPNGLJDIAB": {
            "text": "None"
          }
        }
      }
    ],
    "KGDAOJHBFAK": [
      {
        "action": {
          "$type": "MMBEGEFNDGA",
          "key": "910001005",
          "stateGroup": {
            "text": "StateGroup_specialArea"
          }
        }
      }
    ]
  },
  {
    "areaName": "Scene100_Block910002_910002001",
    "shortID": 192296602,
    "HOKBOMCOPGN": [
      {
        "$type": "OEPDHPAFADK",
        "shortID": 510085509,
        "EAKBINKIDBN": {
          "x": 110.4942626953125,
          "y": 417.01806640625,
          "z": -911.94873046875
        },
        "DBCGPLKDEHB": {
          "x": 140.24581909179688,
          "y": 433.04266357421875,
          "z": -886.044921875
        },
        "points": [
          {
            "x": 110.4942626953125,
            "y": 417.01806640625,
            "z": -909.085205078125
          },
          {
            "x": 125.52656555175781,
            "y": 417.01806640625,
            "z": -911.9486694335938
          },
          {
            "x": 137.3775634765625,
            "y": 417.01806640625,
            "z": -910.2614135742188
          },
          {
            "x": 140.24581909179688,
            "y": 417.01806640625,
            "z": -895.6299438476562
          },
          {
            "x": 129.9793701171875,
            "y": 417.01806640625,
            "z": -889.7365112304688
          },
          {
            "x": 120.29403686523438,
            "y": 417.01806640625,
            "z": -886.0449829101562
          }
        ],
        "yMin": 417.01806640625,
        "yMax": 433.04266357421875
      },
      {
        "$type": "BGOBIMLHHCB",
        "shortID": 510085510,
        "EAKBINKIDBN": {
          "x": 54.68186950683594,
          "y": 481.37225341796875,
          "z": -902.5942993164062
        },
        "DBCGPLKDEHB": {
          "x": 89.05986022949219,
          "y": 522.9254760742188,
          "z": -861.4866333007812
        },
        "AHFNLMGMIMD": {
          "x": 71.87086486816406,
          "y": 502.14886474609375,
          "z": -882.0404663085938
        },
        "MMIOKCJGDFP": {
          "x": 29.39738655090332,
          "y": 5.067030429840088,
          "z": 324.01385498046875
        },
        "PPPDJGDDOGD": {
          "x": 24.475543975830078,
          "y": 21.03415298461914,
          "z": 28.918550491333008
        }
      },
      {
        "$type": "OEPDHPAFADK",
        "shortID": 510085511,
        "EAKBINKIDBN": {
          "x": 85.5242919921875,
          "y": 416.39068603515625,
          "z": -911.9044189453125
        },
        "DBCGPLKDEHB": {
          "x": 121.88735961914062,
          "y": 439.29071044921875,
          "z": -869.8668212890625
        },
        "points": [
          {
            "x": 110.13590240478516,
            "y": 416.3907165527344,
            "z": -911.9044189453125
          },
          {
            "x": 85.5242919921875,
            "y": 416.3907165527344,
            "z": -886.5054931640625
          },
          {
            "x": 99.49402618408203,
            "y": 416.3907165527344,
            "z": -869.8668212890625
          },
          {
            "x": 121.88735961914062,
            "y": 416.3907165527344,
            "z": -886.638671875
          }
        ],
        "yMin": 416.3907165527344,
        "yMax": 439.29071044921875
      },
      {
        "$type": "OEPDHPAFADK",
        "shortID": 510085512,
        "EAKBINKIDBN": {
          "x": 64.91893005371094,
          "y": 409.35064697265625,
          "z": -920.720703125
        },
        "DBCGPLKDEHB": {
          "x": 107.92521667480469,
          "y": 427.57061767578125,
          "z": -878.356689453125
        },
        "points": [
          {
            "x": 80.28074645996094,
            "y": 409.3506164550781,
            "z": -878.356689453125
          },
          {
            "x": 107.92521667480469,
            "y": 409.3506164550781,
            "z": -910.304443359375
          },
          {
            "x": 90.37420654296875,
            "y": 409.3506164550781,
            "z": -920.720703125
          },
          {
            "x": 64.91893005371094,
            "y": 409.3506164550781,
            "z": -895.7130126953125
          }
        ],
        "yMin": 409.3506164550781,
        "yMax": 427.57061767578125
      },
      {
        "$type": "OEPDHPAFADK",
        "shortID": 510085513,
        "EAKBINKIDBN": {
          "x": 34.444358825683594,
          "y": 407.59332275390625,
          "z": -954.4615478515625
        },
        "DBCGPLKDEHB": {
          "x": 84.25420379638672,
          "y": 432.59332275390625,
          "z": -904.2281494140625
        },
        "points": [
          {
            "x": 84.25420379638672,
            "y": 407.59332275390625,
            "z": -913.9254150390625
          },
          {
            "x": 74.21988677978516,
            "y": 407.59332275390625,
            "z": -904.2281494140625
          },
          {
            "x": 34.444358825683594,
            "y": 407.59332275390625,
            "z": -943.5313720703125
          },
          {
            "x": 47.73429489135742,
            "y": 407.59332275390625,
            "z": -954.4615478515625
          }
        ],
        "yMin": 407.59332275390625,
        "yMax": 432.59332275390625
      },
      {
        "$type": "OEPDHPAFADK",
        "shortID": 510085514,
        "EAKBINKIDBN": {
          "x": -13.019880294799805,
          "y": 400.1227111816406,
          "z": -948.28564453125
        },
        "DBCGPLKDEHB": {
          "x": 64.9636459350586,
          "y": 445.1227111816406,
          "z": -872.9954833984375
        },
        "points": [
          {
            "x": 64.9636459350586,
            "y": 400.1227111816406,
            "z": -914.683349609375
          },
          {
            "x": 35.526790618896484,
            "y": 400.1227111816406,
            "z": -948.28564453125
          },
          {
            "x": -13.019880294799805,
            "y": 400.1227111816406,
            "z": -904.0819091796875
          },
          {
            "x": 29.903390884399414,
            "y": 400.1227111816406,
            "z": -872.9954833984375
          }
        ],
        "yMin": 400.1227111816406,
        "yMax": 445.1227111816406
      },
      {
        "$type": "OEPDHPAFADK",
        "shortID": 510085515,
        "EAKBINKIDBN": {
          "x": -34.708900451660156,
          "y": 443.65704345703125,
          "z": -914.061767578125
        },
        "DBCGPLKDEHB": {
          "x": 45.799102783203125,
          "y": 473.65704345703125,
          "z": -867.3988037109375
        },
        "points": [
          {
            "x": -34.708900451660156,
            "y": 443.65704345703125,
            "z": -892.0947265625
          },
          {
            "x": 31.2010555267334,
            "y": 443.65704345703125,
            "z": -867.3988037109375
          },
          {
            "x": 45.799102783203125,
            "y": 443.65704345703125,
            "z": -885.6386108398438
          },
          {
            "x": 37.027076721191406,
            "y": 443.65704345703125,
            "z": -901.8418579101562
          },
          {
            "x": 26.992374420166016,
            "y": 443.65704345703125,
            "z": -914.061767578125
          }
        ],
        "yMin": 443.65704345703125,
        "yMax": 473.65704345703125
      },
      {
        "$type": "OEPDHPAFADK",
        "shortID": 510085516,
        "EAKBINKIDBN": {
          "x": 30.222946166992188,
          "y": 456.6201171875,
          "z": -902.2249755859375
        },
        "DBCGPLKDEHB": {
          "x": 81.11505126953125,
          "y": 496.6201171875,
          "z": -857.4127197265625
        },
        "points": [
          {
            "x": 30.22295379638672,
            "y": 456.6201171875,
            "z": -868.2760009765625
          },
          {
            "x": 49.44530487060547,
            "y": 456.6201171875,
            "z": -892.3038330078125
          },
          {
            "x": 60.91605758666992,
            "y": 456.6201171875,
            "z": -895.601806640625
          },
          {
            "x": 81.11505126953125,
            "y": 456.6201171875,
            "z": -902.2249755859375
          },
          {
            "x": 75.01972961425781,
            "y": 456.6201171875,
            "z": -872.3333740234375
          },
          {
            "x": 63.051151275634766,
            "y": 456.6201171875,
            "z": -857.4127197265625
          },
          {
            "x": 42.35673904418945,
            "y": 456.6201171875,
            "z": -858.5751953125
          }
        ],
        "yMin": 456.6201171875,
        "yMax": 496.6201171875
      }
    ],
    "enterActions": [
      {
        "action": {
          "$type": "CHBDNIFOMFP",
          "key": "910002001",
          "stateGroup": {
            "text": "StateGroup_specialArea"
          },
          "DHEMBBGOPGK": {
            "text": "State_Cave"
          },
          "LDPNGLJDIAB": {
            "text": "None"
          }
        }
      },
      {
        "predicate": {
          "$type": "NCNFJKFJLKG"
        },
        "action": {
          "$type": "GNLADMLKGDO",
          "eventName": {
            "text": "Play_Amb_THS48_Cave_General"
          }
        }
      },
      {
        "predicate": {
          "$type": "NCNFJKFJLKG"
        },
        "action": {
          "$type": "OGACDKHLNFD",
          "auxBusName": {
            "text": "Aux_SM_Cave_Small"
          }
        }
      }
    ],
    "KGDAOJHBFAK": [
      {
        "action": {
          "$type": "MMBEGEFNDGA",
          "key": "910002001",
          "stateGroup": {
            "text": "StateGroup_specialArea"
          }
        }
      },
      {
        "predicate": {
          "$type": "NCNFJKFJLKG"
        },
        "action": {
          "$type": "FCLOHHIPCNJ"
        }
      },
      {
        "predicate": {
          "$type": "NCNFJKFJLKG"
        },
        "action": {
          "$type": "GNLADMLKGDO",
          "eventName": {
            "text": "Stop_Amb_THS48_Cave_General"
          }
        }
      }
    ]
  },
  {
    "areaName": "Scene100_Block910002_910002002",
    "shortID": 192296601,
    "HOKBOMCOPGN": [
      {
        "$type": "BGOBIMLHHCB",
        "shortID": 510085609,
        "EAKBINKIDBN": {
          "x": 102.69993591308594,
          "y": 382.54412841796875,
          "z": -618.2938842773438
        },
        "DBCGPLKDEHB": {
          "x": 236.84193420410156,
          "y": 441.166748046875,
          "z": -478.30596923828125
        },
        "AHFNLMGMIMD": {
          "x": 169.77093505859375,
          "y": 411.8554382324219,
          "z": -548.2999267578125
        },
        "MMIOKCJGDFP": {
          "x": 353.35015869140625,
          "y": 325.44122314453125,
          "z": 2.358022689819336
        },
        "PPPDJGDDOGD": {
          "x": 91.09550476074219,
          "y": 43.398109436035156,
          "z": 102.15950775146484
        }
      },
      {
        "$type": "OEPDHPAFADK",
        "shortID": 510085610,
        "EAKBINKIDBN": {
          "x": 198.38827514648438,
          "y": 404.56524658203125,
          "z": -519.02392578125
        },
        "DBCGPLKDEHB": {
          "x": 225.06637573242188,
          "y": 412.07525634765625,
          "z": -490.73944091796875
        },
        "points": [
          {
            "x": 202.66012573242188,
            "y": 404.56524658203125,
            "z": -490.73944091796875
          },
          {
            "x": 225.06637573242188,
            "y": 404.56524658203125,
            "z": -500.36370849609375
          },
          {
            "x": 204.50643920898438,
            "y": 404.56524658203125,
            "z": -519.02392578125
          },
          {
            "x": 198.38827514648438,
            "y": 404.56524658203125,
            "z": -510.865234375
          }
        ],
        "yMin": 404.56524658203125,
        "yMax": 412.07525634765625
      },
      {
        "$type": "OEPDHPAFADK",
        "shortID": 510085611,
        "EAKBINKIDBN": {
          "x": 165.17926025390625,
          "y": 426.1432189941406,
          "z": -598.044921875
        },
        "DBCGPLKDEHB": {
          "x": 198.16485595703125,
          "y": 436.1432189941406,
          "z": -571.416259765625
        },
        "points": [
          {
            "x": 184.6516876220703,
            "y": 426.1432189941406,
            "z": -598.044921875
          },
          {
            "x": 198.16485595703125,
            "y": 426.1432189941406,
            "z": -588.53515625
          },
          {
            "x": 177.41790771484375,
            "y": 426.1432189941406,
            "z": -571.416259765625
          },
          {
            "x": 165.17926025390625,
            "y": 426.1432189941406,
            "z": -581.78125
          }
        ],
        "yMin": 426.1432189941406,
        "yMax": 436.1432189941406
      },
      {
        "$type": "BGOBIMLHHCB",
        "shortID": 510085612,
        "EAKBINKIDBN": {
          "x": 190.23219299316406,
          "y": 400.29901123046875,
          "z": -525.1517333984375
        },
        "DBCGPLKDEHB": {
          "x": 223.48609924316406,
          "y": 418.47869873046875,
          "z": -491.97869873046875
        },
        "AHFNLMGMIMD": {
          "x": 206.85914611816406,
          "y": 409.38885498046875,
          "z": -508.5652160644531
        },
        "MMIOKCJGDFP": {
          "y": 326.84716796875
        },
        "PPPDJGDDOGD": {
          "x": 24.135934829711914,
          "y": 18.17971420288086,
          "z": 23.857315063476562
        }
      }
    ],
    "enterActions": [
      {
        "action": {
          "$type": "CHBDNIFOMFP",
          "key": "910002002",
          "stateGroup": {
            "text": "StateGroup_specialArea"
          },
          "DHEMBBGOPGK": {
            "text": "State_Cave"
          },
          "LDPNGLJDIAB": {
            "text": "None"
          }
        }
      },
      {
        "predicate": {
          "$type": "NCNFJKFJLKG"
        },
        "action": {
          "$type": "GNLADMLKGDO",
          "eventName": {
            "text": "Play_Amb_THS48_Cave_General"
          }
        }
      },
      {
        "predicate": {
          "$type": "NCNFJKFJLKG"
        },
        "action": {
          "$type": "OGACDKHLNFD",
          "auxBusName": {
            "text": "Aux_SM_Cave_Small"
          }
        }
      }
    ],
    "KGDAOJHBFAK": [
      {
        "action": {
          "$type": "MMBEGEFNDGA",
          "key": "910002002",
          "stateGroup": {
            "text": "StateGroup_specialArea"
          }
        }
      },
      {
        "predicate": {
          "$type": "NCNFJKFJLKG"
        },
        "action": {
          "$type": "FCLOHHIPCNJ"
        }
      },
      {
        "predicate": {
          "$type": "NCNFJKFJLKG"
        },
        "action": {
          "$type": "GNLADMLKGDO",
          "eventName": {
            "text": "Stop_Amb_THS48_Cave_General"
          }
        }
      }
    ]
  },
  {
    "areaName": "Scene100_Block910002_910002003",
    "shortID": 192296600,
    "HOKBOMCOPGN": [
      {
        "$type": "OEPDHPAFADK",
        "shortID": 510085709,
        "EAKBINKIDBN": {
          "x": 78.4512939453125,
          "y": 389.15185546875,
          "z": -761.904296875
        },
        "DBCGPLKDEHB": {
          "x": 115.65191650390625,
          "y": 419.15185546875,
          "z": -730.574462890625
        },
        "points": [
          {
            "x": 101.34204864501953,
            "y": 389.15185546875,
            "z": -731.54736328125
          },
          {
            "x": 115.65190887451172,
            "y": 389.15185546875,
            "z": -737.12158203125
          },
          {
            "x": 98.92214965820312,
            "y": 389.15185546875,
            "z": -749.4036865234375
          },
          {
            "x": 87.6341323852539,
            "y": 389.15185546875,
            "z": -761.904296875
          },
          {
            "x": 78.45130157470703,
            "y": 389.15185546875,
            "z": -758.1434326171875
          },
          {
            "x": 86.41616821289062,
            "y": 389.15185546875,
            "z": -730.574462890625
          },
          {
            "x": 90.5665512084961,
            "y": 389.15185546875,
            "z": -732.458251953125
          },
          {
            "x": 92.4842300415039,
            "y": 389.15185546875,
            "z": -736.2486572265625
          }
        ],
        "yMin": 389.15185546875,
        "yMax": 419.15185546875
      },
      {
        "$type": "OEPDHPAFADK",
        "shortID": 510085710,
        "EAKBINKIDBN": {
          "x": 96.29360961914062,
          "y": 367.8555603027344,
          "z": -743.09130859375
        },
        "DBCGPLKDEHB": {
          "x": 150.70953369140625,
          "y": 412.8555603027344,
          "z": -648.778076171875
        },
        "points": [
          {
            "x": 113.23017883300781,
            "y": 367.8555603027344,
            "z": -743.0913696289062
          },
          {
            "x": 101.48939514160156,
            "y": 367.8555603027344,
            "z": -737.53857421875
          },
          {
            "x": 104.22920227050781,
            "y": 367.8555603027344,
            "z": -726.1824340820312
          },
          {
            "x": 103.43524932861328,
            "y": 367.8555603027344,
            "z": -722.2216186523438
          },
          {
            "x": 107.76844787597656,
            "y": 367.8555603027344,
            "z": -706.853515625
          },
          {
            "x": 103.70323181152344,
            "y": 367.8555603027344,
            "z": -681.178466796875
          },
          {
            "x": 96.29360961914062,
            "y": 367.8555603027344,
            "z": -658.2706909179688
          },
          {
            "x": 129.5203094482422,
            "y": 367.8555603027344,
            "z": -648.7780151367188
          },
          {
            "x": 150.70953369140625,
            "y": 367.8555603027344,
            "z": -678.5385131835938
          },
          {
            "x": 144.861083984375,
            "y": 367.8555603027344,
            "z": -698.6049194335938
          },
          {
            "x": 134.5760955810547,
            "y": 367.8555603027344,
            "z": -716.22021484375
          },
          {
            "x": 124.2105941772461,
            "y": 367.8555603027344,
            "z": -722.0839233398438
          },
          {
            "x": 119.13806915283203,
            "y": 367.8555603027344,
            "z": -727.7350463867188
          }
        ],
        "yMin": 367.8555603027344,
        "yMax": 412.8555603027344
      }
    ],
    "enterActions": [
      {
        "action": {
          "$type": "CHBDNIFOMFP",
          "key": "910002002",
          "stateGroup": {
            "text": "StateGroup_specialArea"
          },
          "DHEMBBGOPGK": {
            "text": "State_Cave"
          },
          "LDPNGLJDIAB": {
            "text": "None"
          }
        }
      },
      {
        "predicate": {
          "$type": "NCNFJKFJLKG"
        },
        "action": {
          "$type": "GNLADMLKGDO",
          "eventName": {
            "text": "Play_Amb_THS48_Cave_General"
          }
        }
      },
      {
        "predicate": {
          "$type": "NCNFJKFJLKG"
        },
        "action": {
          "$type": "OGACDKHLNFD",
          "auxBusName": {
            "text": "Aux_SM_Cave_Small"
          }
        }
      }
    ],
    "KGDAOJHBFAK": [
      {
        "action": {
          "$type": "MMBEGEFNDGA",
          "key": "910002002",
          "stateGroup": {
            "text": "StateGroup_specialArea"
          }
        }
      },
      {
        "predicate": {
          "$type": "NCNFJKFJLKG"
        },
        "action": {
          "$type": "FCLOHHIPCNJ"
        }
      },
      {
        "predicate": {
          "$type": "NCNFJKFJLKG"
        },
        "action": {
          "$type": "GNLADMLKGDO",
          "eventName": {
            "text": "Stop_Amb_THS48_Cave_General"
          }
        }
      }
    ]
  },
  {
    "areaName": "Scene100_Block910002_910002004",
    "shortID": 192296607,
    "HOKBOMCOPGN": [
      {
        "$type": "OEPDHPAFADK",
        "shortID": 510085809,
        "EAKBINKIDBN": {
          "x": -681.4295043945312,
          "y": 287.80267333984375,
          "z": -232.28553771972656
        },
        "DBCGPLKDEHB": {
          "x": 806.7296752929688,
          "y": 582.1179809570312,
          "z": 342.544189453125
        },
        "points": [
          {
            "x": -193.34915161132812,
            "y": 582.1179809570312,
            "z": 175.5536346435547
          },
          {
            "x": -68.93911743164062,
            "y": 582.1179809570312,
            "z": 29.768131256103516
          },
          {
            "x": 155.69850158691406,
            "y": 582.1179809570312,
            "z": -23.981857299804688
          },
          {
            "x": 376.8591003417969,
            "y": 582.1179809570312,
            "z": -9.614486694335938
          },
          {
            "x": 576.3618774414062,
            "y": 582.1179809570312,
            "z": 94.9827880859375
          },
          {
            "x": 747.82177734375,
            "y": 582.1179809570312,
            "z": 175.00746154785156
          },
          {
            "x": 806.729736328125,
            "y": 582.1179809570312,
            "z": 59.037723541259766
          },
          {
            "x": 726.7609252929688,
            "y": 582.1179809570312,
            "z": -56.06536865234375
          },
          {
            "x": 542.8862915039062,
            "y": 582.1179809570312,
            "z": -84.79266357421875
          },
          {
            "x": 409.5160217285156,
            "y": 582.1179809570312,
            "z": -77.57036590576172
          },
          {
            "x": 301.70074462890625,
            "y": 582.1179809570312,
            "z": -137.71115112304688
          },
          {
            "x": 187.39593505859375,
            "y": 582.1179809570312,
            "z": -153.09649658203125
          },
          {
            "x": 62.31434631347656,
            "y": 582.1179809570312,
            "z": -170.11444091796875
          },
          {
            "x": -101.13916015625,
            "y": 582.1179809570312,
            "z": -232.28553771972656
          },
          {
            "x": -175.98095703125,
            "y": 582.1179809570312,
            "z": -184.15216064453125
          },
          {
            "x": -332.6192626953125,
            "y": 582.1179809570312,
            "z": -122.49905395507812
          },
          {
            "x": -477.6837158203125,
            "y": 582.1179809570312,
            "z": -148.36427307128906
          },
          {
            "x": -681.4295043945312,
            "y": 582.1179809570312,
            "z": -45.579158782958984
          },
          {
            "x": -524.7311401367188,
            "y": 582.1179809570312,
            "z": 63.383602142333984
          },
          {
            "x": -527.5429077148438,
            "y": 582.1179809570312,
            "z": 342.5441589355469
          }
        ],
        "yMin": 287.80267333984375,
        "yMax": 582.1179809570312
      }
    ],
    "enterActions": [
      {
        "action": {
          "$type": "CHBDNIFOMFP",
          "key": "910002004",
          "stateGroup": {
            "text": "StateGroup_specialArea"
          },
          "DHEMBBGOPGK": {
            "text": "State_v48_GuoDuQuYu"
          },
          "LDPNGLJDIAB": {
            "text": "None"
          }
        }
      }
    ],
    "KGDAOJHBFAK": [
      {
        "action": {
          "$type": "MMBEGEFNDGA",
          "key": "910002004",
          "stateGroup": {
            "text": "StateGroup_specialArea"
          }
        }
      }
    ]
  },
  {
    "areaName": "Scene100_Block910003_910003001",
    "shortID": 3006689380,
    "BDMBKLFJHDA": {
      "$type": "OKEEBMKNNJI",
      "logic": "AUDIO_LOGIC_TYPE_AND",
      "sceneTags": [
        1413
      ]
    },
    "HOKBOMCOPGN": [
      {
        "$type": "OEPDHPAFADK",
        "shortID": 510095509,
        "EAKBINKIDBN": {
          "x": -260.25775146484375,
          "y": 467.53912353515625,
          "z": -900.492919921875
        },
        "DBCGPLKDEHB": {
          "x": -42.04083251953125,
          "y": 576.2877807617188,
          "z": -682.439208984375
        },
        "points": [
          {
            "x": -75.5750732421875,
            "y": 467.53912353515625,
            "z": -870.9373168945312
          },
          {
            "x": -112.70143127441406,
            "y": 467.53912353515625,
            "z": -900.3421020507812
          },
          {
            "x": -161.48330688476562,
            "y": 467.53912353515625,
            "z": -900.492919921875
          },
          {
            "x": -241.4929656982422,
            "y": 467.53912353515625,
            "z": -874.8385620117188
          },
          {
            "x": -260.25775146484375,
            "y": 467.53912353515625,
            "z": -812.3072509765625
          },
          {
            "x": -207.9556884765625,
            "y": 467.53912353515625,
            "z": -725.6630859375
          },
          {
            "x": -160.52337646484375,
            "y": 467.53912353515625,
            "z": -682.439208984375
          },
          {
            "x": -79.43818664550781,
            "y": 467.53912353515625,
            "z": -712.7310180664062
          },
          {
            "x": -43.90873336791992,
            "y": 467.53912353515625,
            "z": -765.4559936523438
          },
          {
            "x": -42.040836334228516,
            "y": 467.53912353515625,
            "z": -810.0032348632812
          }
        ],
        "yMin": 467.53912353515625,
        "yMax": 576.2877807617188
      }
    ],
    "enterActions": [
      {
        "action": {
          "$type": "CHBDNIFOMFP",
          "key": "910003001",
          "stateGroup": {
            "text": "StateGroup_NvWuJiuGuan"
          },
          "DHEMBBGOPGK": {
            "text": "State_v48_NvWuJiuGuan_S02"
          },
          "LDPNGLJDIAB": {
            "text": "None"
          }
        }
      }
    ],
    "KGDAOJHBFAK": [
      {
        "action": {
          "$type": "MMBEGEFNDGA",
          "key": "910003001",
          "stateGroup": {
            "text": "StateGroup_NvWuJiuGuan"
          }
        }
      }
    ]
  },
  {
    "areaName": "Scene100_Block910003_910003003",
    "shortID": 3006689382,
    "HOKBOMCOPGN": [
      {
        "$type": "BGOBIMLHHCB",
        "shortID": 510095709,
        "EAKBINKIDBN": {
          "x": -196.16192626953125,
          "y": 434.7279052734375,
          "z": -641.8715209960938
        },
        "DBCGPLKDEHB": {
          "x": -114.88530731201172,
          "y": 498.7711181640625,
          "z": -520.1692504882812
        },
        "AHFNLMGMIMD": {
          "x": -155.52362060546875,
          "y": 466.74951171875,
          "z": -581.0203857421875
        },
        "MMIOKCJGDFP": {
          "y": 1.5620697736740112
        },
        "PPPDJGDDOGD": {
          "x": 78.0448226928711,
          "y": 64.04319763183594,
          "z": 119.61927032470703
        }
      },
      {
        "$type": "OEPDHPAFADK",
        "shortID": 510095710,
        "EAKBINKIDBN": {
          "x": -387.59808349609375,
          "y": 546.1146240234375,
          "z": -540.7686767578125
        },
        "DBCGPLKDEHB": {
          "x": -346.44842529296875,
          "y": 583.6146240234375,
          "z": -458.0555419921875
        },
        "points": [
          {
            "x": -372.0980529785156,
            "y": 546.1146240234375,
            "z": -540.7686767578125
          },
          {
            "x": -346.4483947753906,
            "y": 546.1146240234375,
            "z": -505.92779541015625
          },
          {
            "x": -352.1265563964844,
            "y": 546.1146240234375,
            "z": -481.3887634277344
          },
          {
            "x": -356.33514404296875,
            "y": 546.1146240234375,
            "z": -470.15057373046875
          },
          {
            "x": -380.07464599609375,
            "y": 546.1146240234375,
            "z": -458.0555114746094
          },
          {
            "x": -387.5981140136719,
            "y": 546.1146240234375,
            "z": -499.04022216796875
          }
        ],
        "yMin": 546.1146240234375,
        "yMax": 583.6146240234375
      },
      {
        "$type": "OEPDHPAFADK",
        "shortID": 510095711,
        "EAKBINKIDBN": {
          "x": -380.1517639160156,
          "y": 539.4487915039062,
          "z": -477.9591064453125
        },
        "DBCGPLKDEHB": {
          "x": -319.4935607910156,
          "y": 564.4487915039062,
          "z": -412.4981689453125
        },
        "points": [
          {
            "x": -380.1517639160156,
            "y": 539.4487915039062,
            "z": -464.0684814453125
          },
          {
            "x": -357.7179870605469,
            "y": 539.4487915039062,
            "z": -477.9591369628906
          },
          {
            "x": -347.9920349121094,
            "y": 539.4487915039062,
            "z": -454.82672119140625
          },
          {
            "x": -322.8221130371094,
            "y": 539.4487915039062,
            "z": -453.635498046875
          },
          {
            "x": -319.4935607910156,
            "y": 539.4487915039062,
            "z": -433.7041931152344
          },
          {
            "x": -346.499267578125,
            "y": 539.4487915039062,
            "z": -412.4981994628906
          },
          {
            "x": -378.3639221191406,
            "y": 539.4487915039062,
            "z": -435.1939392089844
          }
        ],
        "yMin": 539.4487915039062,
        "yMax": 564.4487915039062
      }
    ],
    "enterActions": [
      {
        "predicate": {
          "$type": "NCNFJKFJLKG"
        },
        "action": {
          "$type": "GNLADMLKGDO",
          "eventName": {
            "text": "Play_Amb_THS48_Cave_General"
          }
        }
      },
      {
        "predicate": {
          "$type": "NCNFJKFJLKG"
        },
        "action": {
          "$type": "OGACDKHLNFD",
          "auxBusName": {
            "text": "Aux_SM_Cave_Small"
          }
        }
      }
    ],
    "KGDAOJHBFAK": [
      {
        "predicate": {
          "$type": "NCNFJKFJLKG"
        },
        "action": {
          "$type": "FCLOHHIPCNJ"
        }
      },
      {
        "predicate": {
          "$type": "NCNFJKFJLKG"
        },
        "action": {
          "$type": "GNLADMLKGDO",
          "eventName": {
            "text": "Stop_Amb_THS48_Cave_General"
          }
        }
      }
    ]
  },
  {
    "areaName": "Scene100_Block910004_910004001",
    "shortID": 2075109834,
    "HOKBOMCOPGN": [
      {
        "$type": "OEPDHPAFADK",
        "shortID": 510105509,
        "EAKBINKIDBN": {
          "x": 303.44085693359375,
          "y": 423.3712158203125,
          "z": 151.0145263671875
        },
        "DBCGPLKDEHB": {
          "x": 417.86749267578125,
          "y": 497.7242431640625,
          "z": 258.1249084472656
        },
        "points": [
          {
            "x": 303.4408874511719,
            "y": 423.3712158203125,
            "z": 213.29510498046875
          },
          {
            "x": 315.17193603515625,
            "y": 423.3712158203125,
            "z": 201.76174926757812
          },
          {
            "x": 326.2978820800781,
            "y": 423.3712158203125,
            "z": 190.4712677001953
          },
          {
            "x": 336.58831787109375,
            "y": 423.3712158203125,
            "z": 176.0488739013672
          },
          {
            "x": 344.9763488769531,
            "y": 423.3712158203125,
            "z": 182.13380432128906
          },
          {
            "x": 352.0478515625,
            "y": 423.3712158203125,
            "z": 174.79812622070312
          },
          {
            "x": 347.9670715332031,
            "y": 423.3712158203125,
            "z": 170.32960510253906
          },
          {
            "x": 352.503173828125,
            "y": 423.3712158203125,
            "z": 165.32455444335938
          },
          {
            "x": 356.3521423339844,
            "y": 423.3712158203125,
            "z": 168.91677856445312
          },
          {
            "x": 363.0412902832031,
            "y": 423.3712158203125,
            "z": 160.74819946289062
          },
          {
            "x": 372.3821105957031,
            "y": 423.3712158203125,
            "z": 151.0145263671875
          },
          {
            "x": 381.0963439941406,
            "y": 423.3712158203125,
            "z": 158.73048400878906
          },
          {
            "x": 373.6982727050781,
            "y": 423.3712158203125,
            "z": 166.47894287109375
          },
          {
            "x": 379.6636657714844,
            "y": 423.3712158203125,
            "z": 172.65386962890625
          },
          {
            "x": 387.4684143066406,
            "y": 423.3712158203125,
            "z": 180.22975158691406
          },
          {
            "x": 394.0351257324219,
            "y": 423.3712158203125,
            "z": 185.71194458007812
          },
          {
            "x": 402.7357177734375,
            "y": 423.3712158203125,
            "z": 195.5726318359375
          },
          {
            "x": 416.4430236816406,
            "y": 423.3712158203125,
            "z": 180.08636474609375
          },
          {
            "x": 417.86749267578125,
            "y": 423.3712158203125,
            "z": 180.98992919921875
          },
          {
            "x": 397.34759521484375,
            "y": 423.3712158203125,
            "z": 202.9268798828125
          },
          {
            "x": 392.93292236328125,
            "y": 423.3712158203125,
            "z": 211.3609161376953
          },
          {
            "x": 363.9745788574219,
            "y": 423.3712158203125,
            "z": 185.68788146972656
          },
          {
            "x": 355.9216613769531,
            "y": 423.3712158203125,
            "z": 195.2755584716797
          },
          {
            "x": 390.4530944824219,
            "y": 423.3712158203125,
            "z": 227.0816192626953
          },
          {
            "x": 384.0677490234375,
            "y": 423.3712158203125,
            "z": 231.876953125
          },
          {
            "x": 373.8638000488281,
            "y": 423.3712158203125,
            "z": 243.06298828125
          },
          {
            "x": 360.2353820800781,
            "y": 423.3712158203125,
            "z": 258.1249084472656
          },
          {
            "x": 354.7548828125,
            "y": 423.3712158203125,
            "z": 254.44361877441406
          },
          {
            "x": 326.728759765625,
            "y": 423.3712158203125,
            "z": 239.98785400390625
          },
          {
            "x": 306.80877685546875,
            "y": 423.3712158203125,
            "z": 221.8498992919922
          }
        ],
        "yMin": 423.3712158203125,
        "yMax": 497.7242126464844
      },
      {
        "$type": "BGOBIMLHHCB",
        "shortID": 510105510,
        "EAKBINKIDBN": {
          "x": 223.95257568359375,
          "y": 479.59246826171875,
          "z": 106.00001525878906
        },
        "DBCGPLKDEHB": {
          "x": 456.26239013671875,
          "y": 532.0670776367188,
          "z": 338.0526123046875
        },
        "AHFNLMGMIMD": {
          "x": 340.10748291015625,
          "y": 505.82977294921875,
          "z": 222.02630615234375
        },
        "MMIOKCJGDFP": {
          "y": 44.79489517211914
        },
        "PPPDJGDDOGD": {
          "x": 189.5819091796875,
          "y": 52.4745979309082,
          "z": 138.77398681640625
        }
      },
      {
        "$type": "BGOBIMLHHCB",
        "shortID": 510105511,
        "EAKBINKIDBN": {
          "x": 329.1125793457031,
          "y": 530.6752319335938,
          "z": 176.00929260253906
        },
        "DBCGPLKDEHB": {
          "x": 344.2190856933594,
          "y": 544.6375122070312,
          "z": 191.1157989501953
        },
        "AHFNLMGMIMD": {
          "x": 336.66583251953125,
          "y": 537.6563720703125,
          "z": 183.5625457763672
        },
        "MMIOKCJGDFP": {
          "y": 317.8583679199219
        },
        "PPPDJGDDOGD": {
          "x": 10.69521713256836,
          "y": 13.962265014648438,
          "z": 10.695219039916992
        }
      }
    ],
    "enterActions": [
      {
        "action": {
          "$type": "CHBDNIFOMFP",
          "key": "91004001",
          "stateGroup": {
            "text": "StateGroup_specialArea"
          },
          "DHEMBBGOPGK": {
            "text": "State_v48_FaTiaoZhenWangCheng"
          },
          "LDPNGLJDIAB": {
            "text": "None"
          }
        }
      }
    ],
    "KGDAOJHBFAK": [
      {
        "action": {
          "$type": "MMBEGEFNDGA",
          "key": "91004001",
          "stateGroup": {
            "text": "StateGroup_specialArea"
          }
        }
      }
    ]
  },
  {
    "areaName": "Scene100_Block910004_910004002",
    "shortID": 2075109833,
    "BDMBKLFJHDA": {
      "$type": "OKEEBMKNNJI",
      "logic": "AUDIO_LOGIC_TYPE_AND",
      "sceneTags": [
        1406
      ]
    },
    "HOKBOMCOPGN": [
      {
        "$type": "BGOBIMLHHCB",
        "shortID": 510105609,
        "EAKBINKIDBN": {
          "x": 268.5211486816406,
          "y": 532.3340454101562,
          "z": 123.51213836669922
        },
        "DBCGPLKDEHB": {
          "x": 472.7251892089844,
          "y": 590.1217651367188,
          "z": 327.0431823730469
        },
        "AHFNLMGMIMD": {
          "x": 370.6231689453125,
          "y": 561.2279052734375,
          "z": 225.2776641845703
        },
        "MMIOKCJGDFP": {
          "y": 312.67474365234375
        },
        "PPPDJGDDOGD": {
          "x": 138.4103546142578,
          "y": 57.787750244140625,
          "z": 150.1394805908203
        }
      }
    ],
    "enterActions": [
      {
        "action": {
          "$type": "CHBDNIFOMFP",
          "key": "91004002",
          "stateGroup": {
            "text": "StateGroup_XingChenGaoTa"
          },
          "DHEMBBGOPGK": {
            "text": "State_v48_XingChenGaoTa_S02"
          },
          "LDPNGLJDIAB": {
            "text": "None"
          }
        }
      }
    ],
    "KGDAOJHBFAK": [
      {
        "action": {
          "$type": "MMBEGEFNDGA",
          "key": "91004002",
          "stateGroup": {
            "text": "StateGroup_XingChenGaoTa"
          }
        }
      }
    ]
  },
  {
    "areaName": "Scene100_Block910004_910004003",
    "shortID": 2075109832,
    "HOKBOMCOPGN": [
      {
        "$type": "BGOBIMLHHCB",
        "shortID": 510105709,
        "EAKBINKIDBN": {
          "x": 268.5211486816406,
          "y": 532.3340454101562,
          "z": 123.51213836669922
        },
        "DBCGPLKDEHB": {
          "x": 472.7251892089844,
          "y": 590.1217651367188,
          "z": 327.0431823730469
        },
        "AHFNLMGMIMD": {
          "x": 370.6231689453125,
          "y": 561.2279052734375,
          "z": 225.2776641845703
        },
        "MMIOKCJGDFP": {
          "y": 312.67474365234375
        },
        "PPPDJGDDOGD": {
          "x": 138.4103546142578,
          "y": 57.787750244140625,
          "z": 150.1394805908203
        }
      }
    ],
    "enterActions": [
      {
        "action": {
          "$type": "CHBDNIFOMFP",
          "key": "91004003",
          "stateGroup": {
            "text": "StateGroup_specialArea"
          },
          "DHEMBBGOPGK": {
            "text": "State_v48_XingChenGaoTa"
          },
          "LDPNGLJDIAB": {
            "text": "None"
          }
        }
      }
    ],
    "KGDAOJHBFAK": [
      {
        "action": {
          "$type": "MMBEGEFNDGA",
          "key": "91004003",
          "stateGroup": {
            "text": "StateGroup_specialArea"
          }
        }
      }
    ]
  },
  {
    "areaName": "Scene100_Block910004_910004005",
    "shortID": 2075109838,
    "BDMBKLFJHDA": {
      "$type": "OKEEBMKNNJI",
      "logic": "AUDIO_LOGIC_TYPE_AND",
      "sceneTags": [
        1406
      ]
    },
    "HOKBOMCOPGN": [
      {
        "$type": "OEPDHPAFADK",
        "shortID": 510105909,
        "EAKBINKIDBN": {
          "x": 69.8934326171875,
          "y": 367.90838623046875,
          "z": -92.96195983886719
        },
        "DBCGPLKDEHB": {
          "x": 645.0350341796875,
          "y": 718.3961791992188,
          "z": 446.54827880859375
        },
        "points": [
          {
            "x": 152.2186737060547,
            "y": 367.9084167480469,
            "z": 339.7715148925781
          },
          {
            "x": 199.8333740234375,
            "y": 367.9084167480469,
            "z": 407.64697265625
          },
          {
            "x": 288.52001953125,
            "y": 367.9084167480469,
            "z": 446.5481872558594
          },
          {
            "x": 378.7635803222656,
            "y": 367.9084167480469,
            "z": 428.6675109863281
          },
          {
            "x": 470.22222900390625,
            "y": 367.9084167480469,
            "z": 427.2474365234375
          },
          {
            "x": 558.169677734375,
            "y": 367.9084167480469,
            "z": 350.61962890625
          },
          {
            "x": 636.5823364257812,
            "y": 367.9084167480469,
            "z": 246.01611328125
          },
          {
            "x": 645.0350952148438,
            "y": 367.9084167480469,
            "z": 139.5294952392578
          },
          {
            "x": 557.9049072265625,
            "y": 367.9084167480469,
            "z": 38.61705017089844
          },
          {
            "x": 482.0958557128906,
            "y": 367.9084167480469,
            "z": -22.96180534362793
          },
          {
            "x": 378.9561462402344,
            "y": 367.9084167480469,
            "z": -58.53169631958008
          },
          {
            "x": 271.5796203613281,
            "y": 367.9084167480469,
            "z": -92.96195983886719
          },
          {
            "x": 146.67572021484375,
            "y": 367.9084167480469,
            "z": -42.81743621826172
          },
          {
            "x": 82.29056549072266,
            "y": 367.9084167480469,
            "z": 33.677207946777344
          },
          {
            "x": 69.89344787597656,
            "y": 367.9084167480469,
            "z": 115.17863464355469
          },
          {
            "x": 107.92736053466797,
            "y": 367.9084167480469,
            "z": 291.69805908203125
          }
        ],
        "yMin": 367.9084167480469,
        "yMax": 718.3961791992188
      }
    ],
    "enterActions": [
      {
        "action": {
          "$type": "CHBDNIFOMFP",
          "key": "910004005",
          "stateGroup": {
            "text": "StateGroup_FaTiaoZhenChengQu"
          },
          "DHEMBBGOPGK": {
            "text": "State_v48_FaTiaoZhenChengQu_S02"
          },
          "LDPNGLJDIAB": {
            "text": "None"
          }
        }
      },
      {
        "action": {
          "$type": "PLOIDABAOED",
          "stateGroup": {
            "text": "StateGroup_FaTiaoZhenWangCheng"
          },
          "stateValue": {
            "text": "StateGroup_FaTiaoZhenWangCheng_S02"
          }
        }
      }
    ],
    "KGDAOJHBFAK": [
      {
        "action": {
          "$type": "MMBEGEFNDGA",
          "key": "910004005",
          "stateGroup": {
            "text": "StateGroup_FaTiaoZhenChengQu"
          }
        }
      },
      {
        "action": {
          "$type": "PLOIDABAOED",
          "stateGroup": {
            "text": "StateGroup_FaTiaoZhenWangCheng"
          },
          "stateValue": {
            "text": "None"
          }
        }
      }
    ]
  },
  {
    "areaName": "Scene100_Block910004_910004006",
    "shortID": 2075109837,
    "HOKBOMCOPGN": [
      {
        "$type": "OEPDHPAFADK",
        "shortID": 510106009,
        "EAKBINKIDBN": {
          "x": -92.33280944824219,
          "y": 336.8861999511719,
          "z": 90.22093200683594
        },
        "DBCGPLKDEHB": {
          "x": 32.39189910888672,
          "y": 391.2730407714844,
          "z": 224.9673614501953
        },
        "points": [
          {
            "x": -92.33280944824219,
            "y": 336.8861999511719,
            "z": 143.82310485839844
          },
          {
            "x": -57.918701171875,
            "y": 336.8861999511719,
            "z": 224.96734619140625
          },
          {
            "x": 27.609146118164062,
            "y": 336.8861999511719,
            "z": 178.74754333496094
          },
          {
            "x": 32.39189910888672,
            "y": 336.8861999511719,
            "z": 103.03044128417969
          },
          {
            "x": 15.528748512268066,
            "y": 336.8861999511719,
            "z": 90.2209243774414
          },
          {
            "x": -29.220458984375,
            "y": 336.8861999511719,
            "z": 113.68305206298828
          },
          {
            "x": -54.58795166015625,
            "y": 336.8861999511719,
            "z": 124.57573699951172
          }
        ],
        "yMin": 336.8861999511719,
        "yMax": 391.2730407714844
      }
    ],
    "enterActions": [
      {
        "action": {
          "$type": "CHBDNIFOMFP",
          "key": "910001002",
          "stateGroup": {
            "text": "StateGroup_specialArea"
          },
          "DHEMBBGOPGK": {
            "text": "State_Cave"
          },
          "LDPNGLJDIAB": {
            "text": "None"
          }
        }
      },
      {
        "predicate": {
          "$type": "NCNFJKFJLKG"
        },
        "action": {
          "$type": "GNLADMLKGDO",
          "eventName": {
            "text": "Play_Amb_THS48_Cave_General"
          }
        }
      },
      {
        "predicate": {
          "$type": "NCNFJKFJLKG"
        },
        "action": {
          "$type": "OGACDKHLNFD",
          "auxBusName": {
            "text": "Aux_SM_Cave_Small"
          }
        }
      }
    ],
    "KGDAOJHBFAK": [
      {
        "action": {
          "$type": "MMBEGEFNDGA",
          "key": "910001002",
          "stateGroup": {
            "text": "StateGroup_specialArea"
          }
        }
      },
      {
        "predicate": {
          "$type": "NCNFJKFJLKG"
        },
        "action": {
          "$type": "FCLOHHIPCNJ"
        }
      },
      {
        "predicate": {
          "$type": "NCNFJKFJLKG"
        },
        "action": {
          "$type": "GNLADMLKGDO",
          "eventName": {
            "text": "Stop_Amb_THS48_Cave_General"
          }
        }
      }
    ]
  },
  {
    "areaName": "Scene100_Block910008_910008001",
    "shortID": 4214907842,
    "HOKBOMCOPGN": [
      {
        "$type": "OEPDHPAFADK",
        "shortID": 510145509,
        "EAKBINKIDBN": {
          "x": 1364.320068359375,
          "y": 199.8572998046875,
          "z": 781.89111328125
        },
        "DBCGPLKDEHB": {
          "x": 1388.615966796875,
          "y": 209.36224365234375,
          "z": 804.752197265625
        },
        "points": [
          {
            "x": 1364.3201904296875,
            "y": 199.85731506347656,
            "z": 787.8690185546875
          },
          {
            "x": 1368.754150390625,
            "y": 199.85731506347656,
            "z": 788.699951171875
          },
          {
            "x": 1369.6702880859375,
            "y": 199.85731506347656,
            "z": 783.3167114257812
          },
          {
            "x": 1378.2099609375,
            "y": 199.85731506347656,
            "z": 781.8910522460938
          },
          {
            "x": 1380.6944580078125,
            "y": 199.85731506347656,
            "z": 789.6824340820312
          },
          {
            "x": 1386.8839111328125,
            "y": 199.85731506347656,
            "z": 789.374267578125
          },
          {
            "x": 1388.6160888671875,
            "y": 199.85731506347656,
            "z": 797.5367431640625
          },
          {
            "x": 1380.1795654296875,
            "y": 199.85731506347656,
            "z": 804.7522583007812
          },
          {
            "x": 1369.37255859375,
            "y": 199.85731506347656,
            "z": 803.5556640625
          },
          {
            "x": 1365.7603759765625,
            "y": 199.85731506347656,
            "z": 798.8943481445312
          }
        ],
        "yMin": 199.85731506347656,
        "yMax": 209.36224365234375
      }
    ],
    "enterActions": [
      {
        "predicate": {
          "$type": "NCNFJKFJLKG"
        },
        "action": {
          "$type": "GNLADMLKGDO",
          "eventName": {
            "text": "Play_Amb_THS48_JMKS_Indoor"
          }
        }
      }
    ],
    "KGDAOJHBFAK": [
      {
        "predicate": {
          "$type": "NCNFJKFJLKG"
        },
        "action": {
          "$type": "GNLADMLKGDO",
          "eventName": {
            "text": "Stop_Amb_THS48_JMKS_Indoor"
          }
        }
      }
    ]
  }
]