[
  {
    "areaName": "Scene20221_Block20221_1",
    "shortID": 558963415,
    "HOKBOMCOPGN": [
      {
        "$type": "NFNAGEOMKOD",
        "shortID": 202210101,
        "EAKBINKIDBN": {
          "x": -15.906393051147461,
          "y": -21.262651443481445,
          "z": 386.43353271484375
        },
        "DBCGPLKDEHB": {
          "x": 32.59495544433594,
          "y": 27.238698959350586,
          "z": 434.93487548828125
        },
        "EJIMKGKHNKC": {
          "x": 8.344282150268555,
          "y": 2.9880237579345703,
          "z": 410.6842041015625
        },
        "radius": 24.250675201416016
      }
    ],
    "enterActions": [
      {
        "action": {
          "$type": "CHBDNIFOMFP",
          "key": "2022101",
          "stateGroup": {
            "text": "StateGroup_specialArea"
          },
          "DHEMBBGOPGK": {
            "text": "State_v48_LongDeNeiXinShiJie"
          },
          "LDPNGLJDIAB": {
            "text": "None"
          }
        }
      }
    ],
    "KGDAOJHBFAK": [
      {
        "action": {
          "$type": "MMBEGEFNDGA",
          "key": "2022101",
          "stateGroup": {
            "text": "StateGroup_specialArea"
          }
        }
      }
    ]
  }
]