[
  {
    "areaName": "Scene20208_Block20208_1",
    "shortID": 467272493,
    "HOKBOMCOPGN": [
      {
        "$type": "BODODGCAAIA",
        "shortID": 202080101,
        "EAKBINKIDBN": {
          "x": -318.02044677734375,
          "y": 370.104248046875,
          "z": 398.52685546875
        },
        "DBCGPLKDEHB": {
          "x": 569.2404174804688,
          "y": 798.514404296875,
          "z": 1285.7877197265625
        },
        "AHFNLMGMIMD": {
          "x": 125.60997009277344,
          "y": 584.309326171875,
          "z": 842.1572875976562
        },
        "PPPDJGDDOGD": {
          "x": 887.2608642578125,
          "y": 428.4101257324219,
          "z": 887.2608642578125
        }
      }
    ],
    "enterActions": [
      {
        "predicate": {
          "$type": "NCNFJKFJLKG"
        },
        "action": {
          "$type": "ABICPEGOOOJ",
          "action": {
            "$type": "GNLADMLKGDO",
            "eventName": {
              "text": "Play_Amb_Dungeon_Level_NihilBoss01_windDirection"
            }
          },
          "PIFPDLOKAJE": {
            "$type": "IEBBKCAMMPD",
            "JLEGEFNFCKE": "467272493_audio"
          }
        }
      }
    ],
    "KGDAOJHBFAK": [
      {
        "predicate": {
          "$type": "NCNFJKFJLKG"
        },
        "action": {
          "$type": "GNLADMLKGDO",
          "eventName": {
            "text": "Stop_Amb_Dungeon_Level_NihilBoss01_windDirection"
          }
        }
      }
    ],
    "NPGGKEJEOAI": [
      {
        "$type": "JNDCFCDFFBK",
        "MOHDELNJBKC": "Scene20208_Block20208_1_0",
        "shortID": 3074966312,
        "IEAKELFBFAP": [
          {
            "action": {
              "$type": "GOGPAGLNIMI",
              "JLEGEFNFCKE": "467272493_audio",
              "BOEDGBKEFNH": {
                "x": 195.88999938964844,
                "y": 537.6199951171875,
                "z": 801.9199829101562
              }
            }
          }
        ],
        "NJPKKGHKFFP": [
          {
            "action": {
              "$type": "JMIAIBPHDIC",
              "JLEGEFNFCKE": "467272493_audio"
            }
          }
        ]
      }
    ]
  }
]