[
  {
    "areaName": "Scene35928_Block35928_1",
    "shortID": 1359615123,
    "HOKBOMCOPGN": [
      {
        "$type": "NFNAGEOMKOD",
        "shortID": 359280101,
        "EAKBINKIDBN": {
          "x": 2233.638427734375,
          "y": 250.5877685546875,
          "z": 4003.892333984375
        },
        "DBCGPLKDEHB": {
          "x": 2728.464111328125,
          "y": 745.4133911132812,
          "z": 4498.7177734375
        },
        "EJIMKGKHNKC": {
          "x": 2481.05126953125,
          "y": 498.0005798339844,
          "z": 4251.30517578125
        },
        "radius": 247.41281127929688
      }
    ],
    "enterActions": [
      {
        "predicate": {
          "$type": "NCNFJKFJLKG"
        },
        "action": {
          "$type": "GNLADMLKGDO",
          "eventName": {
            "text": "Play_Amb_FD_City_CopyWorld"
          }
        }
      }
    ],
    "KGDAOJHBFAK": [
      {
        "predicate": {
          "$type": "NCNFJKFJLKG"
        },
        "action": {
          "$type": "GNLADMLKGDO",
          "eventName": {
            "text": "Stop_Amb_FD_City_CopyWorld"
          }
        }
      }
    ]
  }
]